airfoilName st10.dat
Re 	770000
M 	7.000000e-01
N 	4.500000e+00
VACC 	0 VACCflag 1
XTR 	1.00 	1.00 XTRflag 0
alpha,cl,cd,cdp,cm
-21.1,-1.5863,0.4258,0.42365,0.2265
-21,-1.5807,0.41478,0.41262,0.2244
-20.9,-1.5736,0.41072,0.40856,0.222
-20.8,-1.5664,0.40667,0.40451,0.2196
-20.7,-1.5593,0.40267,0.40051,0.2172
-20.6,-1.5521,0.3987,0.39654,0.2149
-20.5,-1.5449,0.39477,0.39261,0.2125
-20.4,-1.5377,0.39088,0.38872,0.2102
-20.3,-1.5305,0.38702,0.38486,0.2079
-20.2,-1.5234,0.38319,0.38103,0.2056
-20.1,-1.5162,0.3794,0.37724,0.2033
-20,-1.509,0.37565,0.37349,0.201
-19.9,-1.5018,0.37192,0.36977,0.1987
-19.8,-1.4946,0.36824,0.36608,0.1965
-19.7,-1.4874,0.36457,0.36241,0.1942
-19.6,-1.4802,0.36095,0.3588,0.192
-19.5,-1.473,0.35735,0.3552,0.1897
-19.4,-1.4658,0.35379,0.35164,0.1875
-19.3,-1.4587,0.35026,0.34812,0.1853
-19.2,-1.4515,0.34676,0.34462,0.1832
-19.1,-1.4443,0.3433,0.34115,0.181
-19,-1.4371,0.33985,0.3377,0.1788
-18.9,-1.4299,0.33644,0.3343,0.1767
-18.8,-1.4227,0.33305,0.3309,0.1745
-18.7,-1.4156,0.3297,0.32756,0.1724
-18.6,-1.4084,0.32637,0.32422,0.1703
-18.5,-1.4012,0.32308,0.32093,0.1682
-18.4,-1.394,0.3198,0.31766,0.1661
-18.3,-1.3869,0.31655,0.3144,0.164
-18.2,-1.3797,0.31333,0.31119,0.1619
-18.1,-1.3725,0.31014,0.308,0.1599
-18,-1.3654,0.30697,0.30483,0.1578
-17.9,-1.3582,0.30384,0.3017,0.1558
-17.8,-1.3509,0.30053,0.29839,0.1536
-17.7,-1.3437,0.29744,0.2953,0.1516
-17.6,-1.3366,0.29439,0.29225,0.1496
-17.5,-1.3295,0.29133,0.2892,0.1476
-17.4,-1.3223,0.28833,0.2862,0.1456
-17.3,-1.3152,0.28534,0.28321,0.1437
-17.2,-1.3081,0.28238,0.28025,0.1417
-17.1,-1.301,0.27943,0.2773,0.1398
-17,-1.2938,0.27652,0.27439,0.1378
-16.9,-1.2867,0.27361,0.27148,0.1359
-16.8,-1.2796,0.27073,0.2686,0.134
-16.7,-1.2725,0.26788,0.26575,0.1321
-16.6,-1.2653,0.26503,0.2629,0.1302
-16.5,-1.2582,0.26221,0.26009,0.1283
-16.4,-1.2511,0.25941,0.25729,0.1264
-16.3,-1.244,0.25663,0.25451,0.1245
-16.2,-1.2369,0.25387,0.25175,0.1226
-16.1,-1.2298,0.25113,0.24901,0.1208
-16,-1.2227,0.2484,0.24629,0.119
-15.9,-1.2156,0.24569,0.24358,0.1171
-15.8,-1.2086,0.24299,0.24087,0.1153
-15.7,-1.2015,0.24031,0.2382,0.1135
-15.6,-1.1944,0.23762,0.23551,0.1117
-15.5,-1.1873,0.23495,0.23284,0.1099
-15.2,-1.1652,0.22631,0.22422,0.1042
-15.1,-1.1584,0.22391,0.22182,0.1026
-15,-1.1515,0.22153,0.21944,0.1009
-14.9,-1.1447,0.21917,0.21708,0.0993
-14.8,-1.1379,0.21683,0.21474,0.0977
-14.7,-1.1311,0.2145,0.21242,0.0961
-14.6,-1.1243,0.2122,0.21011,0.0945
-14.5,-1.1175,0.20992,0.20783,0.0929
-14.4,-1.1107,0.20764,0.20556,0.0913
-14.3,-1.104,0.20539,0.20331,0.0898
-14.2,-1.0972,0.20316,0.20109,0.0882
-14.1,-1.0905,0.20095,0.19887,0.0867
-14,-1.0837,0.19875,0.19668,0.0851
-13.9,-1.077,0.19656,0.19449,0.0836
-13.8,-1.0702,0.19439,0.19232,0.0821
-13.7,-1.0634,0.19223,0.19016,0.0806
-13.6,-1.0566,0.19008,0.18802,0.0791
-13.5,-1.0499,0.18794,0.18589,0.0776
-13.4,-1.0431,0.18582,0.18377,0.0761
-13.3,-1.0363,0.18372,0.18167,0.0746
-13.2,-1.0295,0.18163,0.17957,0.0731
-13.1,-1.0227,0.17955,0.1775,0.0717
-12.9,-1.0091,0.17551,0.17346,0.0687
-12.8,-1.0023,0.17346,0.17142,0.0672
-12.7,-0.9955,0.17143,0.16939,0.0658
-12.6,-0.9886,0.1694,0.16737,0.0644
-12.5,-0.9818,0.16739,0.16536,0.0629
-12.4,-0.9749,0.1654,0.16337,0.0615
-12.3,-0.968,0.16341,0.16139,0.0601
-12.2,-0.9611,0.16144,0.15941,0.0587
-12.1,-0.9542,0.15947,0.15745,0.0573
-12,-0.9472,0.15752,0.15551,0.0559
-11.9,-0.9402,0.15557,0.15356,0.0545
-11.8,-0.9331,0.15363,0.15163,0.0531
-11.7,-0.926,0.1517,0.1497,0.0516
-11.6,-0.9189,0.14977,0.14777,0.0502
-11.5,-0.9117,0.14786,0.14586,0.0488
-11.4,-0.9045,0.14596,0.14396,0.0474
-11.3,-0.8972,0.14406,0.14207,0.046
-11.2,-0.89,0.14218,0.1402,0.0446
-11.1,-0.8826,0.14031,0.13833,0.0432
-11,-0.8753,0.13846,0.13648,0.0418
-10.9,-0.8679,0.13661,0.13464,0.0404
-10.8,-0.8605,0.13478,0.13281,0.039
-10.7,-0.8531,0.13296,0.131,0.0376
-10.6,-0.8456,0.13116,0.12919,0.0362
-10.5,-0.8381,0.12936,0.12741,0.0348
-10.4,-0.8306,0.12759,0.12563,0.0334
-10.3,-0.823,0.12582,0.12388,0.032
-10.2,-0.8154,0.12406,0.12211,0.0306
-10.1,-0.8077,0.12232,0.12038,0.0292
-10,-0.8,0.12059,0.11866,0.0278
-9.9,-0.7922,0.11887,0.11695,0.0264
-9.8,-0.7845,0.11717,0.11525,0.025
-9.7,-0.7767,0.11549,0.11358,0.0236
-9.6,-0.7688,0.11381,0.1119,0.0222
-9.5,-0.761,0.11216,0.11026,0.0208
-9.4,-0.7531,0.11053,0.10863,0.0194
-9.3,-0.7452,0.1089,0.10701,0.018
-9.2,-0.7372,0.10729,0.10541,0.0166
-9.1,-0.7291,0.10569,0.10382,0.0152
-9,-0.7211,0.1041,0.10223,0.0138
-8.9,-0.7129,0.10253,0.10067,0.0124
-8.8,-0.7048,0.10097,0.09911,0.011
-8.7,-0.6966,0.09942,0.09757,0.0096
-8.6,-0.6884,0.09789,0.09605,0.0081
-8.5,-0.6802,0.09637,0.09454,0.0067
-8.4,-0.6703,0.09478,0.09295,0.0048
-8.3,-0.6593,0.0931,0.09127,0.0026
-8.2,-0.6477,0.09138,0.08955,0.0003
-8.1,-0.6372,0.08976,0.08792,-0.0017
-8,-0.6276,0.08821,0.08636,-0.0034
-7.9,-0.619,0.08672,0.08486,-0.0047
-7.8,-0.6108,0.08526,0.08339,-0.006
-7.7,-0.6028,0.0838,0.08192,-0.0072
-7.6,-0.5949,0.08229,0.08039,-0.0083
-7.5,-0.5873,0.08107,0.07915,-0.0093
-7.4,-0.5792,0.07983,0.07789,-0.0105
-7.3,-0.5707,0.0786,0.07664,-0.0117
-7.2,-0.5623,0.07738,0.0754,-0.0129
-7,-0.5449,0.07495,0.07292,-0.0155
-6.9,-0.5357,0.07373,0.07168,-0.0169
-6.8,-0.5263,0.07252,0.07045,-0.0184
-6.7,-0.5168,0.07131,0.06921,-0.0199
-6.6,-0.5073,0.07012,0.068,-0.0213
-6.5,-0.4973,0.06892,0.06677,-0.0229
-6.3,-0.4765,0.06659,0.06439,-0.0264
-6.2,-0.4661,0.06539,0.06317,-0.0281
-6.1,-0.4554,0.06419,0.06195,-0.0299
-6,-0.445,0.06302,0.06075,-0.0317
-5.9,-0.4343,0.06185,0.05956,-0.0336
-5.8,-0.4238,0.06075,0.05843,-0.0355
-5.7,-0.4099,0.05948,0.05714,-0.0382
-5.6,-0.3948,0.05817,0.0558,-0.0412
-5.5,-0.3793,0.05685,0.05445,-0.0442
-5.4,-0.3633,0.05552,0.05308,-0.0472
-5.3,-0.3468,0.05417,0.0517,-0.0504
-5.2,-0.3295,0.05278,0.05028,-0.0537
-5.1,-0.3118,0.05138,0.04885,-0.0569
-5,-0.2936,0.04997,0.0474,-0.0603
-4.9,-0.2748,0.04852,0.04592,-0.0637
-4.8,-0.2557,0.04707,0.04441,-0.067
-4.7,-0.2362,0.04558,0.04288,-0.0704
-4.6,-0.2161,0.04406,0.04131,-0.0738
-4.5,-0.1955,0.04249,0.03969,-0.0773
-4.4,-0.1744,0.04086,0.03801,-0.0808
-4.3,-0.153,0.03915,0.03623,-0.0843
-4.2,-0.1311,0.03737,0.0344,-0.0879
-4.1,-0.1095,0.0359,0.03285,-0.0909
-4,-0.0881,0.03441,0.03127,-0.0938
-3.9,-0.067,0.03294,0.02969,-0.0965
-3.8,-0.0457,0.03142,0.02805,-0.0991
-3.7,-0.0239,0.02982,0.02634,-0.1017
-3.3,0.0608,0.02289,0.01881,-0.1105
-3.2,0.0814,0.02094,0.01667,-0.1124
-3,0.121,0.01695,0.01215,-0.1155
-2.8,0.161,0.01459,0.00927,-0.1166
-2.7,0.1807,0.01359,0.00798,-0.1167
-2.6,0.2008,0.01279,0.00691,-0.1166
-2.5,0.2209,0.01216,0.00605,-0.1164
-2.4,0.2411,0.01172,0.00543,-0.1161
-2.3,0.2607,0.01147,0.00503,-0.1157
-2.2,0.2803,0.01127,0.0047,-0.1153
-2.1,0.2996,0.01113,0.00443,-0.1149
-1.9,0.3383,0.01093,0.00408,-0.1142
-1.8,0.3576,0.01084,0.00393,-0.1139
-1.7,0.3766,0.01079,0.00381,-0.1135
-1.6,0.3955,0.01075,0.00372,-0.1132
-1.5,0.414,0.01075,0.00367,-0.1129
-1.4,0.4322,0.01076,0.0036,-0.1126
-1.3,0.4507,0.01075,0.00356,-0.1123
-1.2,0.4691,0.01076,0.00352,-0.112
-1.1,0.4875,0.01076,0.00349,-0.1118
-1,0.5058,0.01078,0.00347,-0.1115
-0.9,0.5238,0.01081,0.00346,-0.1113
-0.8,0.5419,0.01084,0.00345,-0.111
-0.7,0.5597,0.01089,0.00347,-0.1108
-0.6,0.5764,0.01101,0.00351,-0.1104
-0.5,0.5937,0.0111,0.00356,-0.1101
-0.4,0.6106,0.01121,0.0036,-0.1098
-0.3,0.6273,0.01135,0.00368,-0.1095
-0.2,0.6438,0.01149,0.00376,-0.1092
-0.1,0.6606,0.01163,0.00385,-0.1089
0,0.6778,0.01173,0.00392,-0.1086
0.1,0.6952,0.01184,0.004,-0.1084
0.2,0.7125,0.01193,0.00409,-0.1081
0.3,0.7301,0.01201,0.00417,-0.1079
0.4,0.7481,0.01207,0.00423,-0.1077
0.5,0.766,0.01211,0.0043,-0.1075
0.6,0.7837,0.01219,0.00439,-0.1073
0.7,0.8017,0.01226,0.00447,-0.107
0.8,0.8198,0.01231,0.00454,-0.1068
0.9,0.8378,0.01236,0.00463,-0.1066
1,0.8557,0.01244,0.00472,-0.1063
1.1,0.8735,0.01252,0.00482,-0.1061
1.2,0.8917,0.01255,0.0049,-0.1059
1.3,0.9099,0.01262,0.00499,-0.1056
1.4,0.9279,0.01268,0.0051,-0.1053
1.5,0.9459,0.01275,0.00521,-0.1051
1.6,0.9643,0.01274,0.00532,-0.1049
1.7,0.9827,0.01278,0.00543,-0.1046
1.8,1.001,0.01281,0.00554,-0.1044
1.9,1.0193,0.01276,0.00567,-0.1042
2.2,1.058,0.01187,0.006,-0.1
2.3,1.0766,0.01199,0.00612,-0.0995
2.4,1.0951,0.01213,0.00625,-0.0991
2.5,1.1137,0.01227,0.00639,-0.0986
2.6,1.132,0.01241,0.00654,-0.0981
2.7,1.1508,0.01255,0.00668,-0.0976
2.8,1.1697,0.01269,0.00683,-0.0971
2.9,1.1886,0.01283,0.00698,-0.0966
3,1.2075,0.01298,0.00714,-0.096
3.1,1.2262,0.01313,0.0073,-0.0954
3.2,1.2449,0.0133,0.00748,-0.0948
3.3,1.264,0.01346,0.00766,-0.0941
3.4,1.2834,0.01361,0.00785,-0.0935
3.5,1.3027,0.01378,0.00804,-0.0928
3.6,1.3221,0.01396,0.00824,-0.092
3.7,1.3415,0.01414,0.00845,-0.0913
3.8,1.3608,0.01433,0.00868,-0.0905
3.9,1.3802,0.01454,0.00891,-0.0897
4,1.3999,0.01475,0.00917,-0.0888
4.1,1.4199,0.01498,0.00945,-0.088
4.2,1.4399,0.01523,0.00975,-0.0871
4.3,1.4596,0.01548,0.01007,-0.0861
4.4,1.4793,0.01577,0.01043,-0.0851
4.5,1.4987,0.01609,0.01082,-0.0841
4.6,1.5177,0.01645,0.01126,-0.0829
4.7,1.5359,0.01687,0.01177,-0.0817
4.8,1.5527,0.01736,0.0124,-0.0804
4.9,1.5676,0.01792,0.01309,-0.0789
5,1.5803,0.01854,0.01385,-0.0773
5.1,1.5904,0.01922,0.01468,-0.0755
5.2,1.5978,0.01994,0.01554,-0.0735
5.3,1.6026,0.0207,0.01645,-0.0713
5.4,1.6047,0.02149,0.01737,-0.069
5.5,1.6045,0.02231,0.01831,-0.0666
5.6,1.6001,0.02309,0.01919,-0.0637
5.7,1.5954,0.02396,0.02017,-0.0611
5.8,1.5896,0.02497,0.02129,-0.059
6,1.5752,0.02746,0.02403,-0.0563
6.1,1.5677,0.0289,0.02559,-0.0558
6.2,1.5604,0.03047,0.02727,-0.056
6.5,1.5393,0.03615,0.03325,-0.0602
6.9,1.511,0.04588,0.04328,-0.0727
7.2,1.4836,0.05434,0.05188,-0.0836
7.3,1.4781,0.05683,0.05439,-0.0865
7.4,1.4744,0.05917,0.05675,-0.0892
7.5,1.4722,0.06133,0.05892,-0.0918
7.6,1.4714,0.06335,0.06095,-0.0942
7.7,1.4675,0.0657,0.0633,-0.0971
7.8,1.4627,0.06816,0.06577,-0.1003
7.9,1.4601,0.07042,0.06803,-0.1032
8,1.459,0.07254,0.07016,-0.1058
8.1,1.4591,0.07454,0.07216,-0.1082
8.2,1.4602,0.07644,0.07406,-0.1104
8.4,1.4661,0.07982,0.07745,-0.1142
8.5,1.4697,0.08143,0.07906,-0.1159
8.6,1.4685,0.08361,0.08125,-0.1186
8.7,1.4682,0.08573,0.08337,-0.1212
8.8,1.4694,0.08769,0.08533,-0.1235
8.9,1.4714,0.08954,0.08719,-0.1255
9,1.4741,0.09132,0.08897,-0.1275
9.1,1.4774,0.09302,0.09068,-0.1293
9.2,1.4812,0.09468,0.09234,-0.131
9.3,1.4853,0.09627,0.09394,-0.1326
9.4,1.4898,0.09782,0.0955,-0.1341
9.5,1.4945,0.09932,0.097,-0.1356
9.6,1.4953,0.10141,0.09909,-0.1379
9.7,1.497,0.10338,0.10107,-0.1401
9.8,1.4996,0.10522,0.10291,-0.142
9.9,1.5028,0.10699,0.10468,-0.1437
10,1.5065,0.1087,0.1064,-0.1454
10.1,1.5105,0.11035,0.10806,-0.147
10.2,1.5148,0.11197,0.10968,-0.1485
10.3,1.5194,0.11354,0.11125,-0.15
10.4,1.5241,0.11507,0.11279,-0.1514
10.5,1.5291,0.11657,0.1143,-0.1527
10.6,1.5342,0.11803,0.11576,-0.154
10.7,1.5369,0.11993,0.11765,-0.1559
10.8,1.5388,0.12198,0.11971,-0.1579
10.9,1.5411,0.12402,0.12176,-0.16
11,1.5447,0.12577,0.12352,-0.1616
11.1,1.5487,0.12748,0.12523,-0.1632
11.2,1.5528,0.12914,0.1269,-0.1647
11.3,1.5572,0.13077,0.12853,-0.1661
11.4,1.5617,0.13237,0.13013,-0.1675
11.5,1.5664,0.13393,0.1317,-0.1689
11.6,1.5712,0.13547,0.13325,-0.1702
11.7,1.5762,0.13697,0.13476,-0.1715
11.8,1.5812,0.13845,0.13624,-0.1727
11.9,1.5844,0.1404,0.13819,-0.1745
12,1.5869,0.14253,0.14033,-0.1765
12.1,1.5903,0.1445,0.1423,-0.1783
12.2,1.5941,0.14638,0.14419,-0.18
12.3,1.598,0.14828,0.1461,-0.1817
12.4,1.6024,0.15005,0.14787,-0.1833
12.5,1.6069,0.15179,0.14962,-0.1848
12.6,1.6116,0.1535,0.15133,-0.1862
12.7,1.6164,0.15519,0.15303,-0.1876
12.8,1.6213,0.15686,0.1547,-0.189
12.9,1.6263,0.15851,0.15636,-0.1904
13,1.6314,0.16013,0.15799,-0.1917
13.1,1.6366,0.16174,0.1596,-0.193
13.2,1.6407,0.16372,0.16158,-0.1948
13.3,1.6438,0.16608,0.16395,-0.1969
13.4,1.6476,0.16823,0.1661,-0.1987
13.5,1.6519,0.17029,0.16817,-0.2004
13.6,1.6563,0.1723,0.17019,-0.2021
13.7,1.6608,0.17436,0.17226,-0.2039
13.8,1.6656,0.17629,0.1742,-0.2054
13.9,1.6706,0.17821,0.17613,-0.207
14,1.6756,0.18012,0.17804,-0.2085
14.1,1.6808,0.18201,0.17994,-0.2101
14.2,1.686,0.1839,0.18183,-0.2116
14.3,1.6913,0.18577,0.1837,-0.213
14.4,1.6966,0.18762,0.18557,-0.2145
14.5,1.7021,0.18947,0.18742,-0.2159
14.6,1.707,0.19154,0.18949,-0.2176
14.7,1.7107,0.19425,0.1922,-0.2198
14.8,1.7151,0.19665,0.19461,-0.2218
14.9,1.7198,0.19898,0.19694,-0.2237
15,1.7246,0.20124,0.19921,-0.2254
15.1,1.7296,0.20349,0.20147,-0.2272
15.2,1.7347,0.20571,0.2037,-0.2289
15.3,1.7399,0.20799,0.20599,-0.2307
15.4,1.7452,0.21018,0.20818,-0.2324
15.5,1.7505,0.21236,0.21037,-0.2341
15.6,1.7559,0.21453,0.21255,-0.2357
15.7,1.7614,0.21671,0.21473,-0.2374
15.8,1.7669,0.21888,0.21691,-0.239
15.9,1.7725,0.22105,0.21909,-0.2406
16,1.7781,0.22321,0.22126,-0.2423
16.1,1.7837,0.22538,0.22343,-0.2439
16.2,1.7893,0.22754,0.2256,-0.2455
16.3,1.7938,0.23043,0.22848,-0.2477
16.4,1.7986,0.23322,0.23129,-0.2498
16.5,1.8036,0.23587,0.23395,-0.2518
16.6,1.8089,0.23846,0.23654,-0.2538
16.7,1.8142,0.24101,0.2391,-0.2556
16.8,1.8195,0.24355,0.24165,-0.2575
16.9,1.825,0.24609,0.24419,-0.2594
17,1.8304,0.24861,0.24672,-0.2612
17.1,1.836,0.25113,0.24925,-0.263
17.2,1.8416,0.25374,0.25187,-0.2649
17.3,1.8472,0.25626,0.25439,-0.2667
17.4,1.8529,0.25878,0.25692,-0.2685
17.5,1.8586,0.2613,0.25946,-0.2703
17.6,1.8644,0.26383,0.26199,-0.2721
17.7,1.8702,0.26636,0.26453,-0.2739
17.8,1.8761,0.26889,0.26708,-0.2756
17.9,1.882,0.27143,0.26963,-0.2774
18,1.888,0.27396,0.27217,-0.2791
18.1,1.894,0.27649,0.27471,-0.2809
18.2,1.8989,0.27987,0.27809,-0.2833
18.3,1.9041,0.2832,0.28143,-0.2856
18.4,1.9095,0.28635,0.28459,-0.2878
18.5,1.9149,0.28971,0.28796,-0.2901
18.6,1.9206,0.29277,0.29103,-0.2922
18.7,1.9264,0.29581,0.29408,-0.2942
18.8,1.9323,0.29882,0.2971,-0.2962
18.9,1.9382,0.30181,0.3001,-0.2982
19.1,1.9488,0.3097,0.308,-0.3035
19.2,1.9545,0.31316,0.31146,-0.3058
19.3,1.9603,0.3165,0.31482,-0.308
19.4,1.9663,0.31973,0.31805,-0.31
19.5,1.9715,0.32363,0.32195,-0.3126
19.6,1.9768,0.32748,0.32581,-0.3151
19.7,1.9824,0.33113,0.32946,-0.3175
19.8,1.9881,0.33468,0.33302,-0.3198
19.9,1.9939,0.33817,0.33652,-0.322
20,1.9998,0.34163,0.33999,-0.3242
20.1,2.0053,0.34541,0.34376,-0.3266
20.2,2.0105,0.34966,0.34802,-0.3293
20.3,2.0162,0.35338,0.35174,-0.3317
20.4,2.0219,0.35709,0.35546,-0.334
20.5,2.0277,0.36079,0.35916,-0.3363
20.6,2.0335,0.36448,0.36286,-0.3386
20.7,2.0393,0.36818,0.36656,-0.3409
20.8,2.0448,0.3722,0.37058,-0.3434
20.9,2.0504,0.37621,0.37459,-0.3459
21,2.0561,0.38017,0.37856,-0.3483

