airfoilName st10.dat
Re 	790000
M 	7.000000e-01
N 	4.500000e+00
VACC 	0 VACCflag 1
XTR 	1.00 	1.00 XTRflag 0
alpha,cl,cd,cdp,cm
-21.1,-1.5866,0.41778,0.41565,0.2264
-21,-1.5809,0.41475,0.41262,0.2244
-20.9,-1.5738,0.41069,0.40856,0.222
-20.8,-1.5666,0.40664,0.40451,0.2197
-20.7,-1.5594,0.40264,0.40051,0.2173
-20.6,-1.5523,0.39868,0.39655,0.2149
-20.5,-1.5451,0.39475,0.39262,0.2126
-20.4,-1.5379,0.39086,0.38873,0.2102
-20.3,-1.5307,0.387,0.38488,0.2079
-20.2,-1.5236,0.38318,0.38105,0.2056
-20.1,-1.5164,0.37939,0.37726,0.2033
-20,-1.5092,0.37563,0.37351,0.201
-19.9,-1.502,0.37192,0.36979,0.1988
-19.8,-1.4948,0.36823,0.36611,0.1965
-19.7,-1.4876,0.36456,0.36244,0.1943
-19.6,-1.4805,0.36095,0.35883,0.192
-19.5,-1.4733,0.35735,0.35523,0.1898
-19.4,-1.4661,0.35379,0.35167,0.1876
-19.3,-1.4589,0.35027,0.34815,0.1854
-19.2,-1.4517,0.34677,0.34466,0.1832
-19.1,-1.4445,0.34331,0.34119,0.1811
-19,-1.4374,0.33986,0.33775,0.1789
-18.9,-1.4302,0.33646,0.33434,0.1767
-18.8,-1.423,0.33307,0.33096,0.1746
-18.7,-1.4158,0.32972,0.32761,0.1725
-18.6,-1.4086,0.32639,0.32428,0.1704
-18.5,-1.4015,0.32311,0.32099,0.1683
-18.4,-1.3943,0.31984,0.31773,0.1662
-18.3,-1.3871,0.31658,0.31447,0.1641
-18.2,-1.38,0.31337,0.31126,0.162
-18.1,-1.3728,0.31018,0.30807,0.16
-18,-1.3657,0.30702,0.30491,0.1579
-17.9,-1.3585,0.30389,0.30178,0.1559
-17.8,-1.3512,0.3006,0.29849,0.1537
-17.7,-1.344,0.29752,0.29541,0.1517
-17.6,-1.3369,0.29446,0.29236,0.1497
-17.5,-1.3298,0.29142,0.28931,0.1477
-17.4,-1.3227,0.28842,0.28632,0.1458
-17.3,-1.3155,0.28543,0.28333,0.1438
-17.2,-1.3084,0.28247,0.28037,0.1418
-17.1,-1.3013,0.27952,0.27743,0.1399
-17,-1.2942,0.27661,0.27452,0.138
-16.9,-1.2871,0.27371,0.27161,0.136
-16.8,-1.2799,0.27083,0.26874,0.1341
-16.7,-1.2728,0.26798,0.26589,0.1322
-16.6,-1.2657,0.26514,0.26305,0.1303
-16.5,-1.2586,0.26232,0.26023,0.1284
-16.4,-1.2515,0.25953,0.25745,0.1265
-16.3,-1.2444,0.25675,0.25467,0.1247
-16.2,-1.2373,0.254,0.25192,0.1228
-16.1,-1.2302,0.25127,0.24918,0.121
-16,-1.2231,0.24855,0.24647,0.1191
-15.9,-1.2161,0.24585,0.24377,0.1173
-15.8,-1.209,0.24316,0.24108,0.1155
-15.7,-1.2019,0.2405,0.23842,0.1137
-15.6,-1.1948,0.23783,0.23576,0.1119
-15.5,-1.1878,0.2352,0.23312,0.1101
-15.4,-1.1807,0.23256,0.23048,0.1083
-15.3,-1.1736,0.22988,0.22781,0.1065
-15.1,-1.1585,0.22385,0.22178,0.1027
-15,-1.1517,0.22147,0.21941,0.101
-14.9,-1.1449,0.21911,0.21705,0.0994
-14.8,-1.1381,0.21677,0.21471,0.0978
-14.7,-1.1313,0.21444,0.21239,0.0962
-14.6,-1.1245,0.21214,0.21008,0.0946
-14.5,-1.1177,0.20986,0.2078,0.093
-14.4,-1.1109,0.20759,0.20554,0.0914
-14.3,-1.1042,0.20534,0.20329,0.0898
-14.2,-1.0974,0.20311,0.20106,0.0883
-14.1,-1.0907,0.20089,0.19885,0.0868
-14,-1.084,0.1987,0.19665,0.0852
-13.9,-1.0772,0.19651,0.19447,0.0837
-13.8,-1.0705,0.19434,0.1923,0.0822
-13.7,-1.0637,0.19218,0.19014,0.0807
-13.6,-1.0569,0.19003,0.188,0.0792
-13.5,-1.0501,0.1879,0.18587,0.0777
-13.4,-1.0433,0.18578,0.18375,0.0762
-13.3,-1.0366,0.18367,0.18165,0.0747
-13.2,-1.0298,0.18158,0.17956,0.0732
-13.1,-1.023,0.17951,0.17748,0.0717
-13,-1.0162,0.17744,0.17542,0.0703
-12.9,-1.0094,0.17547,0.17345,0.0688
-12.8,-1.0026,0.17342,0.17141,0.0673
-12.7,-0.9958,0.17139,0.16938,0.0659
-12.6,-0.9889,0.16937,0.16736,0.0645
-12.5,-0.9821,0.16736,0.16535,0.063
-12.4,-0.9752,0.16536,0.16336,0.0616
-12.3,-0.9683,0.16338,0.16138,0.0602
-12.2,-0.9614,0.1614,0.15941,0.0588
-12.1,-0.9545,0.15944,0.15745,0.0574
-12,-0.9475,0.15749,0.1555,0.056
-11.9,-0.9405,0.15554,0.15356,0.0546
-11.8,-0.9334,0.1536,0.15162,0.0531
-11.7,-0.9263,0.15167,0.14969,0.0517
-11.6,-0.9192,0.14974,0.14777,0.0503
-11.5,-0.912,0.14783,0.14586,0.0489
-11.4,-0.9048,0.14593,0.14396,0.0475
-11.3,-0.8976,0.14403,0.14207,0.0461
-11.2,-0.8903,0.14215,0.1402,0.0447
-11.1,-0.883,0.14028,0.13833,0.0433
-11,-0.8756,0.13843,0.13648,0.0419
-10.9,-0.8682,0.13658,0.13464,0.0405
-10.8,-0.8608,0.13475,0.13281,0.0391
-10.7,-0.8534,0.13293,0.131,0.0377
-10.6,-0.8459,0.13113,0.1292,0.0363
-10.5,-0.8384,0.12934,0.12741,0.0349
-10.4,-0.8309,0.12756,0.12564,0.0335
-10.3,-0.8233,0.1258,0.12388,0.0321
-10.2,-0.8157,0.12403,0.12212,0.0307
-10.1,-0.808,0.1223,0.12039,0.0293
-10,-0.8003,0.12057,0.11867,0.0279
-9.9,-0.7925,0.11885,0.11696,0.0265
-9.8,-0.7847,0.11715,0.11526,0.0251
-9.7,-0.7769,0.11547,0.11359,0.0237
-9.6,-0.7691,0.1138,0.11192,0.0223
-9.5,-0.7612,0.11215,0.11027,0.0209
-9.4,-0.7534,0.11051,0.10864,0.0195
-9.3,-0.7454,0.10889,0.10703,0.0181
-9.2,-0.7374,0.10728,0.10542,0.0167
-9.1,-0.7294,0.10569,0.10384,0.0153
-9,-0.7213,0.10409,0.10225,0.0139
-8.9,-0.7132,0.10253,0.10069,0.0124
-8.8,-0.705,0.10097,0.09914,0.011
-8.7,-0.6968,0.09942,0.0976,0.0096
-8.6,-0.6886,0.09789,0.09608,0.0082
-8.5,-0.6804,0.09638,0.09457,0.0068
-8.4,-0.6698,0.09474,0.09293,0.0047
-8.3,-0.658,0.09301,0.0912,0.0022
-8.2,-0.6474,0.09137,0.08956,0.0002
-8.1,-0.6372,0.08978,0.08796,-0.0017
-8,-0.6279,0.08826,0.08643,-0.0032
-7.9,-0.6196,0.08682,0.08498,-0.0045
-7.8,-0.6117,0.08541,0.08355,-0.0056
-7.7,-0.6037,0.08401,0.08214,-0.0068
-7.6,-0.5959,0.08257,0.08069,-0.0079
-7.5,-0.5883,0.08105,0.07914,-0.009
-7.4,-0.58,0.0798,0.07788,-0.0102
-7.3,-0.5717,0.07857,0.07663,-0.0114
-7.2,-0.563,0.07734,0.07538,-0.0127
-7.1,-0.5548,0.07615,0.07415,-0.0139
-7,-0.5456,0.07491,0.0729,-0.0153
-6.9,-0.5366,0.07371,0.07166,-0.0167
-6.8,-0.527,0.07248,0.07042,-0.0182
-6.7,-0.5175,0.07128,0.06919,-0.0197
-6.6,-0.5079,0.07008,0.06797,-0.0212
-6.5,-0.498,0.06889,0.06675,-0.0228
-6.3,-0.4771,0.06656,0.06438,-0.0262
-6.2,-0.4666,0.06536,0.06316,-0.028
-6.1,-0.4562,0.06418,0.06194,-0.0297
-6,-0.4454,0.06299,0.06073,-0.0316
-5.9,-0.4348,0.06182,0.05954,-0.0335
-5.8,-0.4242,0.06072,0.05841,-0.0354
-5.7,-0.4102,0.05945,0.05712,-0.0382
-5.6,-0.3951,0.05814,0.05578,-0.0411
-5.5,-0.3795,0.05681,0.05442,-0.0442
-5.4,-0.3636,0.05549,0.05306,-0.0472
-5.3,-0.3469,0.05413,0.05168,-0.0504
-5.2,-0.3296,0.05275,0.05026,-0.0537
-5.1,-0.312,0.05136,0.04883,-0.0569
-5,-0.2937,0.04994,0.04738,-0.0603
-4.9,-0.2749,0.0485,0.0459,-0.0637
-4.8,-0.2558,0.04704,0.04441,-0.067
-4.7,-0.2362,0.04557,0.04288,-0.0704
-4.6,-0.2162,0.04405,0.04131,-0.0738
-4.5,-0.1955,0.04249,0.0397,-0.0773
-4.4,-0.1745,0.04088,0.03804,-0.0808
-4.3,-0.1531,0.03921,0.03631,-0.0842
-4.2,-0.1311,0.03738,0.03441,-0.0879
-4.1,-0.1094,0.03579,0.03275,-0.0911
-4,-0.0886,0.03437,0.03121,-0.0938
-3.9,-0.0669,0.03284,0.02959,-0.0966
-3.8,-0.0455,0.03132,0.02796,-0.0992
-3.7,-0.0238,0.02972,0.02625,-0.1018
-3.3,0.0609,0.02279,0.01873,-0.1106
-3.2,0.0815,0.02085,0.0166,-0.1124
-3.1,0.1012,0.0189,0.0144,-0.114
-3,0.121,0.01681,0.01201,-0.1156
-2.8,0.1609,0.01448,0.00918,-0.1166
-2.7,0.1807,0.0135,0.0079,-0.1167
-2.6,0.2007,0.01271,0.00685,-0.1167
-2.5,0.221,0.01209,0.006,-0.1164
-2.4,0.2411,0.01165,0.00536,-0.1161
-2.3,0.2605,0.01141,0.00498,-0.1157
-2.2,0.2803,0.01121,0.00465,-0.1153
-2.1,0.2996,0.01107,0.00439,-0.1149
-2,0.3191,0.01095,0.00417,-0.1145
-1.9,0.3384,0.01087,0.00405,-0.1142
-1.8,0.3577,0.01079,0.0039,-0.1139
-1.7,0.3767,0.01074,0.00379,-0.1135
-1.6,0.3956,0.0107,0.0037,-0.1133
-1.5,0.4141,0.01069,0.00364,-0.1129
-1.4,0.4323,0.01071,0.00358,-0.1126
-1.3,0.4507,0.01071,0.00353,-0.1123
-1.2,0.4692,0.01071,0.00349,-0.1121
-1.1,0.4876,0.01073,0.00346,-0.1118
-1,0.5059,0.01073,0.00345,-0.1116
-0.9,0.524,0.01076,0.00344,-0.1113
-0.8,0.5419,0.01081,0.00344,-0.1111
-0.6,0.5765,0.01097,0.0035,-0.1105
-0.5,0.5937,0.01106,0.00354,-0.1102
-0.4,0.6106,0.01119,0.00359,-0.1098
-0.3,0.6272,0.01133,0.00367,-0.1095
-0.2,0.6438,0.01148,0.00375,-0.1092
-0.1,0.6607,0.0116,0.00384,-0.1089
0,0.6781,0.01169,0.00391,-0.1087
0.1,0.6955,0.01179,0.00399,-0.1084
0.2,0.7128,0.01188,0.00407,-0.1082
0.3,0.7305,0.01196,0.00415,-0.108
0.4,0.7485,0.01202,0.00421,-0.1078
0.5,0.7664,0.01206,0.00428,-0.1076
0.6,0.7842,0.01215,0.00437,-0.1073
0.7,0.8023,0.0122,0.00444,-0.1071
0.8,0.8204,0.01226,0.00452,-0.1069
0.9,0.8384,0.01231,0.0046,-0.1067
1,0.8563,0.01239,0.00469,-0.1064
1.1,0.8742,0.01246,0.00479,-0.1062
1.2,0.8924,0.0125,0.00487,-0.106
1.3,0.9106,0.01256,0.00497,-0.1057
1.4,0.9286,0.01263,0.00507,-0.1054
1.5,0.9467,0.01269,0.00518,-0.1052
1.6,0.9651,0.01269,0.00529,-0.105
1.7,0.9835,0.01272,0.00539,-0.1047
1.8,1.0018,0.01276,0.0055,-0.1045
1.9,1.0201,0.01272,0.00563,-0.1043
2,1.0381,0.01273,0.00577,-0.104
2.2,1.059,0.01179,0.00596,-0.1001
2.3,1.0776,0.01192,0.00609,-0.0997
2.4,1.0962,0.01205,0.00622,-0.0993
2.5,1.1147,0.01219,0.00635,-0.0988
2.6,1.1331,0.01234,0.0065,-0.0983
2.7,1.152,0.01247,0.00664,-0.0978
2.8,1.1709,0.0126,0.00678,-0.0973
2.9,1.1898,0.01274,0.00694,-0.0967
3,1.2087,0.01289,0.0071,-0.0962
3.1,1.2274,0.01305,0.00725,-0.0956
3.2,1.2461,0.01321,0.00743,-0.0949
3.3,1.2654,0.01336,0.00761,-0.0943
3.4,1.2847,0.01352,0.00779,-0.0936
3.5,1.3041,0.01369,0.00798,-0.0929
3.6,1.3235,0.01386,0.00818,-0.0922
3.7,1.3429,0.01404,0.00839,-0.0915
3.8,1.3622,0.01423,0.00861,-0.0907
3.9,1.3816,0.01444,0.00884,-0.0899
4,1.4016,0.01465,0.00909,-0.089
4.1,1.4216,0.01487,0.00937,-0.0882
4.2,1.4416,0.01511,0.00967,-0.0873
4.3,1.4614,0.01536,0.00998,-0.0863
4.4,1.4812,0.01565,0.01033,-0.0853
4.5,1.5007,0.01596,0.01072,-0.0843
4.6,1.5199,0.01631,0.01114,-0.0831
4.7,1.5383,0.01674,0.01167,-0.0819
4.8,1.5553,0.01723,0.01229,-0.0806
4.9,1.5705,0.01778,0.01297,-0.0792
5,1.5834,0.0184,0.01373,-0.0776
5.1,1.5939,0.01907,0.01455,-0.0758
5.2,1.6016,0.01979,0.01541,-0.0738
5.3,1.6066,0.02055,0.01631,-0.0716
5.4,1.609,0.02133,0.01723,-0.0693
5.5,1.6091,0.02215,0.01817,-0.0669
5.6,1.6051,0.02292,0.01906,-0.064
5.7,1.6003,0.02378,0.02002,-0.0614
5.8,1.5932,0.02483,0.02118,-0.0592
6,1.579,0.02728,0.02387,-0.0564
6.1,1.5716,0.0287,0.02541,-0.0558
6.5,1.5436,0.03585,0.03298,-0.0598
7.2,1.4873,0.05401,0.05158,-0.0831
7.3,1.4819,0.05649,0.05409,-0.086
7.5,1.4759,0.061,0.05862,-0.0913
7.6,1.4751,0.06302,0.06065,-0.0937
7.7,1.4695,0.06553,0.06317,-0.0969
7.8,1.465,0.06794,0.06559,-0.1
8,1.4615,0.07231,0.06996,-0.1055
8.1,1.4616,0.0743,0.07196,-0.1079
8.2,1.4627,0.0762,0.07386,-0.1101
8.4,1.4686,0.07957,0.07724,-0.1139
8.5,1.4723,0.08118,0.07885,-0.1156
8.6,1.4698,0.08352,0.08119,-0.1185
8.7,1.4698,0.0856,0.08327,-0.121
8.8,1.471,0.08753,0.08521,-0.1233
8.9,1.4731,0.08938,0.08706,-0.1253
9,1.4759,0.09114,0.08883,-0.1273
9.1,1.4792,0.09285,0.09054,-0.1291
9.2,1.483,0.09449,0.09219,-0.1308
9.3,1.4872,0.09608,0.09378,-0.1324
9.4,1.4917,0.09763,0.09534,-0.1339
9.5,1.4965,0.09912,0.09684,-0.1353
9.6,1.4961,0.10137,0.09908,-0.1379
9.7,1.4981,0.1033,0.10102,-0.14
9.8,1.5008,0.10512,0.10284,-0.1419
9.9,1.5041,0.10687,0.1046,-0.1436
10,1.5078,0.10857,0.10631,-0.1453
10.1,1.5119,0.11022,0.10796,-0.1469
10.2,1.5162,0.11183,0.10957,-0.1484
10.3,1.5208,0.11339,0.11114,-0.1498
10.4,1.5256,0.11492,0.11267,-0.1512
10.5,1.5306,0.11641,0.11417,-0.1525
10.6,1.5357,0.11786,0.11563,-0.1538
10.7,1.5372,0.11999,0.11775,-0.156
10.8,1.5387,0.12215,0.11992,-0.1582
10.9,1.542,0.12396,0.12173,-0.1599
11,1.5457,0.1257,0.12347,-0.1616
11.1,1.5497,0.12739,0.12518,-0.1631
11.2,1.5539,0.12905,0.12683,-0.1646
11.3,1.5583,0.13067,0.12846,-0.166
11.4,1.5629,0.13225,0.13005,-0.1674
11.5,1.5676,0.13381,0.13161,-0.1688
11.6,1.5724,0.13534,0.13315,-0.1701
11.7,1.5774,0.13683,0.13465,-0.1713
11.8,1.5825,0.1383,0.13613,-0.1726
11.9,1.5846,0.14052,0.13834,-0.1747
12,1.5875,0.14257,0.1404,-0.1766
12.1,1.591,0.14449,0.14233,-0.1784
12.3,1.5988,0.14823,0.14608,-0.1817
12.4,1.6032,0.14999,0.14784,-0.1832
12.5,1.6078,0.15171,0.14957,-0.1847
12.6,1.6125,0.15342,0.15128,-0.1862
12.7,1.6174,0.1551,0.15297,-0.1876
12.8,1.6223,0.15676,0.15463,-0.189
12.9,1.6273,0.15839,0.15628,-0.1903
13,1.6325,0.16001,0.1579,-0.1916
13.1,1.6376,0.16161,0.1595,-0.193
13.2,1.6407,0.16392,0.16181,-0.195
13.3,1.6442,0.16616,0.16406,-0.197
13.4,1.6482,0.16826,0.16617,-0.1988
13.5,1.6524,0.1703,0.16821,-0.2005
13.6,1.6569,0.17229,0.17021,-0.2021
13.7,1.6615,0.17432,0.17225,-0.2039
13.8,1.6664,0.17624,0.17418,-0.2054
13.9,1.6713,0.17816,0.1761,-0.207
14,1.6764,0.18005,0.178,-0.2085
14.1,1.6815,0.18194,0.17989,-0.21
14.2,1.6868,0.18381,0.18177,-0.2115
14.3,1.6921,0.18567,0.18364,-0.213
14.4,1.6975,0.18752,0.18549,-0.2144
14.5,1.7029,0.18936,0.18734,-0.2159
14.6,1.7069,0.19185,0.18983,-0.2179
14.7,1.711,0.19437,0.19236,-0.22
14.8,1.7155,0.19672,0.19472,-0.2219
14.9,1.7202,0.19902,0.19702,-0.2237
15,1.7251,0.20126,0.19927,-0.2255
15.1,1.7301,0.2035,0.20151,-0.2273
15.2,1.7353,0.20571,0.20373,-0.229
15.3,1.7405,0.20797,0.20599,-0.2307
15.4,1.7458,0.21014,0.20817,-0.2324
15.5,1.7511,0.21232,0.21035,-0.2341
15.6,1.7566,0.21448,0.21253,-0.2357
15.7,1.762,0.21665,0.2147,-0.2374
15.8,1.7676,0.21881,0.21688,-0.239
15.9,1.7731,0.22097,0.21904,-0.2406
16,1.7787,0.22313,0.2212,-0.2422
16.1,1.7844,0.22529,0.22337,-0.2438
16.2,1.7895,0.22774,0.22582,-0.2457
16.3,1.794,0.23068,0.22877,-0.248
16.4,1.7989,0.23338,0.23147,-0.25
16.5,1.804,0.23599,0.23409,-0.252
16.6,1.8093,0.23854,0.23665,-0.2539
16.7,1.8146,0.24108,0.2392,-0.2557
16.8,1.82,0.2436,0.24172,-0.2576
16.9,1.8254,0.24612,0.24425,-0.2594
17,1.8309,0.24863,0.24677,-0.2613
17.2,1.8421,0.25374,0.25189,-0.2649
17.3,1.8477,0.25624,0.25441,-0.2667
17.4,1.8534,0.25876,0.25693,-0.2685
17.5,1.8592,0.26127,0.25946,-0.2703
17.6,1.8649,0.26379,0.26198,-0.2721
17.7,1.8708,0.26632,0.26452,-0.2739
17.8,1.8766,0.26884,0.26706,-0.2756
17.9,1.8826,0.27137,0.26959,-0.2774
18,1.8885,0.27389,0.27212,-0.2791
18.1,1.8944,0.27651,0.27475,-0.2809
18.2,1.8991,0.28013,0.27838,-0.2835
18.3,1.9044,0.28334,0.2816,-0.2858
18.4,1.9098,0.28644,0.28471,-0.2879
18.5,1.9153,0.28975,0.28802,-0.2902
18.6,1.921,0.29278,0.29107,-0.2922
18.7,1.9268,0.2958,0.2941,-0.2943
18.8,1.9327,0.29879,0.2971,-0.2963
19,1.9441,0.30568,0.304,-0.3008
19.1,1.9491,0.30975,0.30807,-0.3036
19.2,1.9548,0.31316,0.31149,-0.3058
19.3,1.9607,0.31647,0.31481,-0.308
19.4,1.9667,0.31968,0.31802,-0.31
19.5,1.9717,0.32376,0.32211,-0.3127
19.6,1.9771,0.32753,0.32589,-0.3152
19.7,1.9827,0.33114,0.3295,-0.3175
19.8,1.9884,0.33467,0.33304,-0.3198
19.9,1.9943,0.33814,0.33651,-0.322
20,2.0001,0.34159,0.33996,-0.3242
20.1,2.0055,0.34552,0.34389,-0.3267
20.2,2.0108,0.34968,0.34806,-0.3294
20.3,2.0165,0.35338,0.35177,-0.3317
20.4,2.0222,0.35707,0.35547,-0.334
20.5,2.028,0.36076,0.35916,-0.3363
20.6,2.0338,0.36444,0.36285,-0.3386
20.7,2.0394,0.36828,0.36668,-0.341
20.8,2.045,0.37228,0.37068,-0.3435
20.9,2.0506,0.37625,0.37465,-0.346
21,2.0563,0.3802,0.37861,-0.3484

