airfoilName st10.dat
Re 	4.900000e+05
M 	7.000000e-01
N 	4.500000e+00
VACC 	0 VACCflag 1
XTR 	1.00 	1.00 XTRflag 0
alpha,cl,cd,cdp,cm
-21,-1.5718,0.40945,0.40666,0.2217
-20.9,-1.5643,0.40508,0.40228,0.2192
-20.8,-1.5569,0.40089,0.39809,0.2167
-20.7,-1.5494,0.39668,0.39388,0.2143
-20.6,-1.5419,0.39252,0.38972,0.2118
-20.5,-1.5344,0.38841,0.38561,0.2094
-20.4,-1.5269,0.38432,0.38152,0.207
-20.3,-1.5194,0.38026,0.37747,0.2045
-20.2,-1.5119,0.37623,0.37343,0.2021
-20.1,-1.5044,0.37225,0.36945,0.1997
-20,-1.4968,0.3683,0.3655,0.1973
-19.9,-1.4893,0.36438,0.36159,0.195
-19.8,-1.4818,0.36051,0.35771,0.1926
-19.7,-1.4742,0.3566,0.3538,0.1902
-19.6,-1.4666,0.35281,0.35001,0.1879
-19.5,-1.4591,0.349,0.34621,0.1855
-19.4,-1.4515,0.34522,0.34243,0.1831
-19.3,-1.4439,0.3415,0.33871,0.1808
-19.2,-1.4359,0.33683,0.33404,0.1779
-19.1,-1.4283,0.33308,0.33029,0.1755
-19,-1.4206,0.32934,0.32655,0.1731
-18.8,-1.4151,0.32806,0.32529,0.1705
-18.7,-1.4079,0.32483,0.32206,0.1684
-18.6,-1.4008,0.32162,0.31885,0.1663
-18.5,-1.3936,0.31845,0.31568,0.1642
-18.4,-1.3864,0.3153,0.31253,0.1622
-18.3,-1.3793,0.31216,0.30939,0.1601
-18.2,-1.3721,0.30907,0.30629,0.1581
-18.1,-1.365,0.306,0.30322,0.1561
-18,-1.3578,0.30295,0.30018,0.154
-17.9,-1.3507,0.29993,0.29716,0.1521
-17.8,-1.3436,0.29693,0.29416,0.1501
-17.7,-1.3364,0.29396,0.2912,0.1481
-17.6,-1.3293,0.29102,0.28826,0.1461
-17.5,-1.3222,0.28809,0.28533,0.1442
-17.4,-1.3151,0.2852,0.28244,0.1423
-17.3,-1.3081,0.28233,0.27957,0.1403
-17.2,-1.301,0.27948,0.27673,0.1384
-17.1,-1.2939,0.27666,0.27391,0.1365
-17,-1.2868,0.27386,0.27111,0.1347
-16.9,-1.2798,0.27109,0.26834,0.1328
-16.8,-1.2727,0.26833,0.26559,0.1309
-16.7,-1.2657,0.26561,0.26286,0.1291
-16.6,-1.2587,0.2629,0.26015,0.1273
-16.5,-1.2516,0.26021,0.25747,0.1254
-16.4,-1.2446,0.25754,0.2548,0.1236
-16.3,-1.2375,0.25489,0.25215,0.1218
-16.2,-1.2305,0.25226,0.24952,0.12
-16.1,-1.2235,0.24965,0.24691,0.1183
-16,-1.2165,0.24706,0.24433,0.1165
-15.9,-1.2095,0.24449,0.24176,0.1147
-15.8,-1.2025,0.24194,0.23921,0.113
-15.7,-1.1955,0.23942,0.23669,0.1113
-15.6,-1.1885,0.23691,0.23418,0.1095
-15.5,-1.1815,0.23442,0.2317,0.1078
-15.4,-1.1746,0.23196,0.22923,0.1061
-15.3,-1.1676,0.2295,0.22678,0.1045
-15.2,-1.1607,0.22708,0.22436,0.1028
-15.1,-1.1538,0.22466,0.22195,0.1011
-15,-1.1468,0.22227,0.21956,0.0995
-14.9,-1.1399,0.2199,0.21719,0.0978
-14.8,-1.1331,0.21754,0.21484,0.0962
-14.7,-1.1262,0.21521,0.21251,0.0946
-14.6,-1.1193,0.2129,0.21019,0.093
-14.5,-1.1125,0.2106,0.2079,0.0914
-14.4,-1.1056,0.20832,0.20562,0.0898
-14.3,-1.0988,0.20605,0.20336,0.0883
-14.2,-1.092,0.20381,0.20112,0.0867
-14.1,-1.0851,0.20158,0.19889,0.0851
-14,-1.0783,0.19943,0.19674,0.0835
-13.9,-1.0715,0.19723,0.19454,0.082
-13.8,-1.0647,0.19504,0.19236,0.0805
-13.7,-1.0579,0.19287,0.19019,0.0789
-13.6,-1.0511,0.19071,0.18803,0.0774
-13.5,-1.0443,0.18856,0.18589,0.0759
-13.4,-1.0375,0.18642,0.18375,0.0744
-13.3,-1.0306,0.1843,0.18163,0.073
-13.2,-1.0238,0.18219,0.17953,0.0715
-13.1,-1.017,0.18009,0.17743,0.07
-13,-1.0101,0.178,0.17535,0.0685
-12.9,-1.0033,0.17594,0.17328,0.0671
-12.8,-0.9964,0.17388,0.17123,0.0656
-12.7,-0.9896,0.17183,0.16919,0.0642
-12.6,-0.9827,0.16979,0.16715,0.0628
-12.5,-0.9758,0.16777,0.16513,0.0613
-12.4,-0.9689,0.16575,0.16312,0.0599
-12.3,-0.962,0.16376,0.16113,0.0585
-12.2,-0.9551,0.16176,0.15914,0.057
-12.1,-0.9481,0.15978,0.15716,0.0556
-12,-0.9411,0.15781,0.15519,0.0542
-11.9,-0.9341,0.15584,0.15323,0.0528
-11.8,-0.927,0.15389,0.15129,0.0514
-11.7,-0.9199,0.15194,0.14934,0.05
-11.6,-0.9128,0.14999,0.1474,0.0486
-11.5,-0.9056,0.14805,0.14546,0.0471
-11.4,-0.8984,0.14613,0.14354,0.0457
-11.3,-0.8912,0.14421,0.14163,0.0443
-11.2,-0.8839,0.1423,0.13972,0.0429
-11.1,-0.8766,0.1404,0.13783,0.0415
-11,-0.8692,0.13851,0.13594,0.0401
-10.9,-0.8618,0.13662,0.13406,0.0387
-10.8,-0.8544,0.13474,0.13219,0.0372
-10.7,-0.847,0.13287,0.13032,0.0358
-10.6,-0.8395,0.13101,0.12846,0.0344
-10.5,-0.832,0.12914,0.12659,0.033
-10.4,-0.8245,0.12727,0.12474,0.0316
-10.3,-0.8169,0.1254,0.12287,0.0302
-10.2,-0.8089,0.12328,0.12076,0.0286
-10.1,-0.8014,0.12159,0.11908,0.0272
-10,-0.7939,0.11992,0.11741,0.0259
-9.9,-0.7863,0.11826,0.11576,0.0245
-9.8,-0.7787,0.11661,0.11412,0.0232
-9.7,-0.771,0.11499,0.1125,0.0218
-9.6,-0.7633,0.11337,0.11089,0.0205
-9.5,-0.7556,0.11177,0.1093,0.0191
-9.4,-0.7479,0.11019,0.10773,0.0178
-9.3,-0.7401,0.10862,0.10617,0.0165
-9.2,-0.7323,0.10707,0.10463,0.0151
-9.1,-0.7244,0.10554,0.1031,0.0138
-9,-0.7165,0.10401,0.10158,0.0124
-8.9,-0.7086,0.1025,0.10008,0.0111
-8.8,-0.7006,0.10101,0.0986,0.0097
-8.7,-0.6926,0.09953,0.09713,0.0084
-8.6,-0.6845,0.09807,0.09568,0.007
-8.5,-0.6765,0.09662,0.09424,0.0057
-8.4,-0.6684,0.09519,0.09283,0.0043
-8.3,-0.6603,0.09378,0.09143,0.003
-8.2,-0.6522,0.09239,0.09004,0.0017
-8.1,-0.6441,0.09101,0.08867,0.0003
-8,-0.6359,0.08965,0.08732,-0.001
-7.9,-0.6252,0.08813,0.08581,-0.0031
-7.8,-0.6133,0.08656,0.08424,-0.0054
-7.7,-0.6006,0.08494,0.08263,-0.008
-7.6,-0.5891,0.08343,0.08111,-0.0101
-7.4,-0.5659,0.08047,0.07815,-0.0144
-7.3,-0.5557,0.07909,0.07676,-0.0161
-7.2,-0.546,0.07775,0.07542,-0.0177
-7.1,-0.5367,0.07646,0.07412,-0.0191
-7,-0.528,0.07522,0.07286,-0.0203
-6.9,-0.5192,0.074,0.07163,-0.0215
-6.8,-0.5103,0.07277,0.07039,-0.0228
-6.7,-0.5011,0.07153,0.06914,-0.0242
-6.6,-0.4924,0.07034,0.06793,-0.0254
-6.5,-0.483,0.06913,0.06671,-0.0268
-6.4,-0.4736,0.06793,0.06549,-0.0282
-6.3,-0.4638,0.06672,0.06425,-0.0297
-6.2,-0.454,0.06552,0.06303,-0.0313
-6.1,-0.4442,0.06432,0.06181,-0.0328
-6,-0.434,0.06311,0.06057,-0.0345
-5.9,-0.4237,0.0619,0.05934,-0.0363
-5.8,-0.4136,0.06074,0.05816,-0.038
-5.7,-0.4011,0.05946,0.05685,-0.0404
-5.6,-0.3869,0.05806,0.05542,-0.0432
-5.5,-0.372,0.05659,0.05393,-0.0462
-5.4,-0.3567,0.05535,0.05265,-0.0491
-5.3,-0.3407,0.05408,0.05136,-0.052
-5.2,-0.3242,0.05279,0.05004,-0.055
-5.1,-0.3073,0.0515,0.04871,-0.0581
-5,-0.2896,0.05018,0.04736,-0.0612
-4.9,-0.2716,0.04885,0.04599,-0.0643
-4.8,-0.2533,0.04751,0.04461,-0.0674
-4.7,-0.2343,0.04615,0.0432,-0.0705
-4.6,-0.2148,0.04477,0.04177,-0.0737
-4.5,-0.1949,0.04336,0.04032,-0.0769
-4.4,-0.1747,0.04194,0.03884,-0.08
-4.3,-0.1539,0.04048,0.03733,-0.0832
-4.2,-0.1332,0.03903,0.0358,-0.0862
-4.1,-0.1118,0.03751,0.03422,-0.0892
-4,-0.0901,0.03595,0.03258,-0.0923
-3.9,-0.0683,0.03437,0.03092,-0.0952
-3.7,-0.0238,0.03096,0.0273,-0.101
-3.5,0.0197,0.02728,0.02334,-0.1063
-3.4,0.0407,0.02577,0.02168,-0.1082
-2.7,0.1819,0.01529,0.00947,-0.1164
-2.6,0.2018,0.01449,0.00841,-0.1165
-2.5,0.2218,0.01381,0.00749,-0.1163
-2.4,0.2417,0.01325,0.00671,-0.1161
-2.2,0.2801,0.01262,0.00573,-0.1153
-2.1,0.2997,0.01236,0.00535,-0.1149
-2,0.3188,0.01218,0.00503,-0.1145
-1.9,0.3381,0.01202,0.00478,-0.1142
-1.7,0.3756,0.01186,0.00447,-0.1134
-1.6,0.3945,0.01178,0.00432,-0.1131
-1.5,0.4128,0.01175,0.00422,-0.1127
-1.4,0.4313,0.01172,0.00413,-0.1124
-1.3,0.4497,0.01169,0.00406,-0.1121
-1.2,0.4681,0.01168,0.004,-0.1118
-1.1,0.4859,0.0117,0.00395,-0.1115
-1,0.5042,0.01169,0.00391,-0.1112
-0.9,0.5222,0.0117,0.0039,-0.1109
-0.8,0.5403,0.01171,0.00387,-0.1107
-0.7,0.5582,0.01174,0.00387,-0.1104
-0.6,0.5759,0.01178,0.00387,-0.1101
-0.5,0.5935,0.01181,0.00389,-0.1098
-0.4,0.611,0.01186,0.00391,-0.1095
-0.3,0.6273,0.01198,0.00396,-0.1091
-0.2,0.6442,0.01207,0.00401,-0.1087
-0.1,0.6608,0.01216,0.00407,-0.1084
0,0.6772,0.01229,0.00414,-0.108
0.1,0.6934,0.01243,0.00423,-0.1076
0.2,0.7096,0.01257,0.00433,-0.1072
0.3,0.726,0.0127,0.00444,-0.1069
0.4,0.7426,0.01283,0.00454,-0.1065
0.5,0.7589,0.01299,0.00466,-0.1062
0.6,0.7761,0.01307,0.00476,-0.1059
0.7,0.7934,0.01316,0.00486,-0.1056
0.8,0.8106,0.01326,0.00496,-0.1053
0.9,0.8282,0.01334,0.00506,-0.1051
1,0.8457,0.01339,0.00516,-0.1048
1.1,0.8631,0.01346,0.00528,-0.1046
1.2,0.8806,0.01354,0.00541,-0.1043
1.3,0.8983,0.01353,0.00552,-0.1041
1.4,0.9157,0.01359,0.00565,-0.1038
1.5,0.9331,0.01363,0.00578,-0.1035
1.8,0.9697,0.01261,0.00608,-0.0991
1.9,0.9876,0.01276,0.00621,-0.0986
2,1.0054,0.01292,0.00636,-0.0982
2.1,1.023,0.01309,0.00651,-0.0977
2.2,1.0413,0.01323,0.00666,-0.0973
2.3,1.0595,0.01338,0.00681,-0.0968
2.4,1.0774,0.01355,0.00697,-0.0963
2.5,1.0953,0.01372,0.00714,-0.0958
2.6,1.1132,0.0139,0.00731,-0.0953
2.7,1.1317,0.01406,0.00749,-0.0947
2.8,1.1501,0.01422,0.00767,-0.0942
2.9,1.1685,0.0144,0.00786,-0.0936
3,1.1868,0.01458,0.00805,-0.093
3.1,1.205,0.01478,0.00826,-0.0924
3.2,1.2231,0.01498,0.00847,-0.0917
3.3,1.242,0.01517,0.0087,-0.091
3.4,1.2606,0.01536,0.00893,-0.0903
3.5,1.2793,0.01558,0.00917,-0.0896
3.6,1.2979,0.0158,0.00943,-0.0889
3.7,1.3163,0.01603,0.00969,-0.0881
3.8,1.3346,0.01628,0.00997,-0.0872
3.9,1.3536,0.01654,0.0103,-0.0864
4,1.3723,0.01682,0.01064,-0.0855
4.1,1.3908,0.01712,0.01101,-0.0846
4.2,1.409,0.01744,0.0114,-0.0836
4.3,1.4266,0.01778,0.01182,-0.0826
4.4,1.4437,0.01816,0.01228,-0.0815
4.5,1.4601,0.01856,0.01277,-0.0803
4.6,1.4756,0.01904,0.01336,-0.079
4.7,1.4897,0.01955,0.01401,-0.0776
4.8,1.5018,0.02013,0.01472,-0.0761
4.9,1.5121,0.02075,0.01547,-0.0744
5,1.5203,0.0214,0.01626,-0.0726
5.1,1.5263,0.0221,0.01708,-0.0707
5.2,1.5302,0.02283,0.01794,-0.0686
5.3,1.5312,0.02356,0.01879,-0.0663
5.4,1.5293,0.02432,0.01965,-0.0638
5.5,1.5252,0.02527,0.02071,-0.0616
5.7,1.515,0.02748,0.02318,-0.0584
5.8,1.5095,0.02875,0.02458,-0.0575
6,1.4977,0.03168,0.02774,-0.0574
6.1,1.4917,0.03335,0.02953,-0.0582
6.3,1.4811,0.03708,0.03345,-0.0614
6.4,1.476,0.03916,0.03562,-0.0638
6.9,1.4344,0.05262,0.04942,-0.082
7,1.4295,0.05511,0.05194,-0.085
7.1,1.4267,0.0574,0.05426,-0.0877
7.2,1.4256,0.05949,0.05636,-0.0901
7.3,1.426,0.06141,0.05829,-0.0923
7.4,1.4178,0.06429,0.06118,-0.0962
7.5,1.415,0.0666,0.0635,-0.0991
7.6,1.4142,0.0687,0.06561,-0.1017
7.7,1.4148,0.07065,0.06756,-0.104
7.8,1.4166,0.07247,0.06939,-0.1062
7.9,1.4193,0.07417,0.07109,-0.1081
8,1.4229,0.07577,0.0727,-0.1098
8.1,1.4271,0.07729,0.07422,-0.1115
8.2,1.4256,0.07954,0.07647,-0.1143
8.3,1.4255,0.08165,0.07859,-0.1169
8.4,1.427,0.08357,0.08051,-0.1191
8.5,1.4295,0.08538,0.08233,-0.1212
8.6,1.433,0.08704,0.08399,-0.123
8.7,1.4372,0.08862,0.08557,-0.1246
8.8,1.4418,0.09013,0.08709,-0.1261
8.9,1.4468,0.09158,0.08855,-0.1276
9,1.4522,0.09298,0.08996,-0.1289
9.1,1.453,0.09507,0.09204,-0.1313
9.2,1.4546,0.09707,0.09404,-0.1335
9.3,1.4573,0.09889,0.09588,-0.1355
9.4,1.4607,0.10062,0.09761,-0.1373
9.5,1.4646,0.10228,0.09928,-0.1389
9.6,1.4688,0.10389,0.10089,-0.1405
9.8,1.479,0.10682,0.10384,-0.1432
9.9,1.4843,0.10825,0.10527,-0.1445
10,1.4898,0.10963,0.10666,-0.1457
10.1,1.4927,0.11147,0.1085,-0.1475
10.2,1.4946,0.11354,0.11057,-0.1497
10.3,1.4978,0.11539,0.11243,-0.1515
10.4,1.5015,0.11714,0.11419,-0.1532
10.5,1.5055,0.11883,0.11588,-0.1548
10.6,1.5098,0.12046,0.11752,-0.1563
10.7,1.5143,0.12204,0.11911,-0.1577
10.8,1.519,0.12359,0.12066,-0.159
10.9,1.5238,0.1251,0.12218,-0.1603
11,1.5287,0.12657,0.12366,-0.1616
11.2,1.54,0.1292,0.1263,-0.1637
11.3,1.5416,0.1315,0.1286,-0.1661
11.4,1.5447,0.13347,0.13058,-0.1679
11.5,1.5484,0.1353,0.13242,-0.1696
11.6,1.5524,0.13707,0.13419,-0.1712
11.7,1.5567,0.13878,0.13591,-0.1727
11.8,1.5612,0.14045,0.13759,-0.1742
11.9,1.5658,0.14209,0.13924,-0.1756
12,1.5706,0.1437,0.14086,-0.1769
12.1,1.5754,0.14529,0.14245,-0.1783
12.2,1.5804,0.14685,0.14401,-0.1796
12.3,1.5855,0.14838,0.14556,-0.1808
12.4,1.5907,0.1499,0.14708,-0.182
12.5,1.5959,0.1514,0.14859,-0.1832
12.6,1.6011,0.15289,0.15007,-0.1844
12.7,1.6021,0.15589,0.15308,-0.1875
12.8,1.6063,0.15782,0.15502,-0.1892
12.9,1.6107,0.1597,0.15691,-0.1908
13,1.6153,0.16154,0.15876,-0.1923
13.1,1.6201,0.16335,0.16057,-0.1938
13.2,1.6249,0.16514,0.16237,-0.1953
13.3,1.6299,0.1669,0.16415,-0.1967
13.4,1.635,0.16865,0.1659,-0.1982
13.5,1.6401,0.17038,0.16764,-0.1996
13.6,1.6453,0.1721,0.16937,-0.2009
13.7,1.6506,0.17381,0.17108,-0.2023
13.8,1.656,0.1755,0.17278,-0.2036
13.9,1.6614,0.17718,0.17447,-0.2049
14,1.6658,0.17934,0.17663,-0.2067
14.1,1.6687,0.18232,0.17962,-0.2095
14.2,1.6734,0.18447,0.18178,-0.2112
14.3,1.6783,0.18657,0.18388,-0.2129
14.4,1.6833,0.18863,0.18595,-0.2146
14.5,1.6884,0.19068,0.18801,-0.2162
14.6,1.6936,0.1927,0.19004,-0.2178
14.7,1.6988,0.19471,0.19206,-0.2194
14.8,1.7041,0.19671,0.19407,-0.221
14.9,1.7095,0.1987,0.19606,-0.2225
15,1.715,0.20068,0.19805,-0.224
15.1,1.7204,0.20265,0.20003,-0.2256
15.2,1.726,0.20462,0.20201,-0.2271
15.3,1.7315,0.20658,0.20397,-0.2286
15.4,1.7371,0.20854,0.20594,-0.2301
15.5,1.7425,0.2106,0.20799,-0.2316
15.6,1.7468,0.2135,0.21091,-0.234
15.7,1.7517,0.21608,0.2135,-0.236
15.8,1.7564,0.21897,0.21639,-0.2383
15.9,1.7616,0.22134,0.21878,-0.2401
16,1.767,0.22368,0.22113,-0.2419
16.1,1.7724,0.22602,0.22348,-0.2437
16.2,1.7779,0.22834,0.22581,-0.2454
16.3,1.7834,0.23066,0.22814,-0.2472
16.4,1.7889,0.23297,0.23046,-0.2489
16.5,1.7945,0.23528,0.23278,-0.2506
16.6,1.8001,0.23759,0.23509,-0.2523
16.7,1.8058,0.2399,0.23741,-0.254
16.8,1.8115,0.2422,0.23973,-0.2557
16.9,1.8172,0.24452,0.24205,-0.2574
17,1.8229,0.24683,0.24437,-0.259
17.1,1.8287,0.24914,0.24669,-0.2607
17.2,1.8345,0.25145,0.24901,-0.2624
17.3,1.8404,0.25377,0.25134,-0.264
17.4,1.8461,0.25616,0.25373,-0.2658
17.5,1.8511,0.2595,0.25708,-0.2682
17.6,1.8564,0.26247,0.26007,-0.2704
17.7,1.8617,0.26589,0.26349,-0.2729
17.8,1.8673,0.26868,0.2663,-0.2748
17.9,1.873,0.27146,0.26909,-0.2768
18,1.8788,0.27422,0.27187,-0.2787
18.1,1.8846,0.27699,0.27465,-0.2807
18.2,1.8904,0.27974,0.27742,-0.2826
18.3,1.8963,0.2825,0.28019,-0.2845
18.4,1.9023,0.28525,0.28295,-0.2863
18.5,1.9082,0.28799,0.28571,-0.2882
18.6,1.9142,0.29073,0.28846,-0.2901
18.8,1.9255,0.2975,0.29524,-0.2947
18.9,1.9309,0.30115,0.2989,-0.2972
19,1.9365,0.30459,0.30235,-0.2995
19.1,1.9423,0.30793,0.3057,-0.3017
19.2,1.948,0.31119,0.30897,-0.3039
19.3,1.9541,0.31456,0.31235,-0.3061
19.4,1.9601,0.31768,0.31548,-0.3081
19.5,1.9662,0.32076,0.31857,-0.3101
19.6,1.971,0.32593,0.32374,-0.3135
19.7,1.9767,0.32962,0.32743,-0.3159
19.8,1.9827,0.33343,0.33126,-0.3183
19.9,1.9887,0.33681,0.33464,-0.3204
20,1.9944,0.34054,0.33837,-0.3228
20.1,1.9998,0.34467,0.34251,-0.3255
20.2,2.0055,0.34855,0.3464,-0.3279
20.3,2.0112,0.35233,0.35018,-0.3303
20.4,2.0171,0.35624,0.3541,-0.3327

