airfoilName st10.dat
Re 	470000
M 	7.000000e-01
N 	4.500000e+00
VACC 	0 VACCflag 1
XTR 	1.00 	1.00 XTRflag 0
alpha,cl,cd,cdp,cm
-5.5,-0.371,0.05671,0.05402,-0.0464
-5.4,-0.356,0.05547,0.05275,-0.0492
-5.3,-0.3402,0.05422,0.05146,-0.0521
-5.2,-0.3237,0.05292,0.05014,-0.0551
-5.1,-0.3068,0.05163,0.04881,-0.0581
-5,-0.2893,0.05031,0.04746,-0.0612
-4.9,-0.2712,0.04898,0.04609,-0.0643
-4.8,-0.2531,0.04765,0.04472,-0.0673
-4.7,-0.2341,0.04628,0.04331,-0.0705
-4.6,-0.2148,0.0449,0.04188,-0.0736
-4.5,-0.1949,0.04349,0.04042,-0.0768
-4.4,-0.1746,0.04206,0.03893,-0.08
-4.3,-0.154,0.04061,0.03743,-0.0831
-4.2,-0.1329,0.03911,0.03587,-0.0862
-4.1,-0.112,0.03762,0.0343,-0.0892
-4,-0.0901,0.03604,0.03265,-0.0922
-3.9,-0.0683,0.03444,0.03096,-0.0952
-3.7,-0.0237,0.03094,0.02725,-0.1012
-3.6,-0.0013,0.02898,0.02517,-0.1041
-3.5,0.0195,0.02754,0.02358,-0.1061
-3.1,0.1025,0.02101,0.01633,-0.1132
-3,0.1225,0.01921,0.01425,-0.1146
-2.7,0.1822,0.0155,0.00968,-0.1164
-2.6,0.202,0.01468,0.00859,-0.1165
-2.5,0.2218,0.01398,0.00764,-0.1163
-2.4,0.2418,0.01339,0.00682,-0.1161
-2.3,0.2608,0.01305,0.0063,-0.1157
-2.2,0.2802,0.01275,0.00584,-0.1153
-2.1,0.2996,0.0125,0.00545,-0.1149
-2,0.3188,0.01229,0.00511,-0.1145
-1.9,0.3379,0.01214,0.00487,-0.1142
-1.8,0.3571,0.01205,0.00472,-0.1139
-1.7,0.3755,0.01198,0.00454,-0.1134
-1.6,0.3945,0.01188,0.00439,-0.1131
-1.5,0.4127,0.01186,0.00429,-0.1127
-1.4,0.4314,0.01181,0.00418,-0.1124
-1.3,0.4496,0.01179,0.00412,-0.1121
-1.2,0.468,0.01177,0.00405,-0.1118
-1.1,0.4864,0.01176,0.004,-0.1116
-1,0.5041,0.01179,0.00396,-0.1112
-0.9,0.5222,0.01179,0.00394,-0.1109
-0.8,0.5402,0.0118,0.00392,-0.1107
-0.7,0.558,0.01183,0.00392,-0.1104
-0.6,0.5758,0.01186,0.00391,-0.1101
-0.5,0.5934,0.01189,0.00393,-0.1098
-0.4,0.6108,0.01194,0.00395,-0.1095
-0.3,0.6273,0.01206,0.00399,-0.1091
-0.2,0.6442,0.01214,0.00404,-0.1087
-0.1,0.6609,0.01223,0.0041,-0.1084
0,0.6772,0.01235,0.00418,-0.108
0.1,0.6935,0.01249,0.00426,-0.1076
0.2,0.7096,0.01262,0.00435,-0.1072
0.3,0.7259,0.01276,0.00446,-0.1068
0.4,0.7424,0.01289,0.00456,-0.1065
0.5,0.7592,0.01301,0.00466,-0.1062
0.6,0.7754,0.01315,0.0048,-0.1058
0.7,0.7928,0.01324,0.00489,-0.1055
0.8,0.81,0.01334,0.00499,-0.1052
0.9,0.8273,0.01344,0.00511,-0.1049
1,0.8449,0.01347,0.00521,-0.1047
1.1,0.8624,0.01355,0.00532,-0.1044
1.2,0.8796,0.01363,0.00544,-0.1041
1.3,0.8972,0.01362,0.00557,-0.1039
1.4,0.915,0.01365,0.0057,-0.1037
1.5,0.9321,0.01369,0.00583,-0.1034
1.7,0.9504,0.01259,0.006,-0.0992
1.8,0.9684,0.01273,0.00613,-0.0988
1.9,0.9863,0.01288,0.00627,-0.0984
2,1.0042,0.01304,0.00641,-0.098
2.1,1.0218,0.01322,0.00657,-0.0975
2.2,1.0397,0.01337,0.00673,-0.097
2.3,1.0579,0.01352,0.00688,-0.0966
2.4,1.0758,0.01369,0.00704,-0.0961
2.5,1.0938,0.01386,0.00721,-0.0956
2.6,1.1116,0.01404,0.00739,-0.095
2.7,1.1298,0.01422,0.00757,-0.0945
2.8,1.1483,0.01438,0.00775,-0.0939
2.9,1.1667,0.01456,0.00794,-0.0933
3,1.185,0.01474,0.00814,-0.0927
3.1,1.2033,0.01494,0.00835,-0.0921
3.2,1.2214,0.01514,0.00857,-0.0914
3.3,1.2398,0.01535,0.0088,-0.0908
3.4,1.2587,0.01555,0.00905,-0.0901
3.5,1.2772,0.01576,0.00929,-0.0894
3.6,1.2957,0.01599,0.00955,-0.0886
3.7,1.3142,0.01622,0.00983,-0.0878
3.8,1.3324,0.01648,0.01011,-0.087
3.9,1.3509,0.01674,0.01043,-0.0861
4,1.3696,0.01703,0.01078,-0.0852
4.1,1.388,0.01733,0.01116,-0.0843
4.2,1.406,0.01766,0.01157,-0.0833
4.3,1.4234,0.01802,0.01201,-0.0823
4.4,1.4402,0.01841,0.01249,-0.0811
4.5,1.4563,0.01882,0.01299,-0.0799
4.6,1.4714,0.01928,0.01354,-0.0786
4.7,1.4851,0.01981,0.01422,-0.0772
4.8,1.4968,0.0204,0.01494,-0.0757
4.9,1.5066,0.02103,0.01571,-0.074
5,1.5142,0.0217,0.01651,-0.0722
5.1,1.5197,0.02241,0.01735,-0.0702
5.2,1.5231,0.02315,0.01822,-0.0682
5.3,1.5229,0.02389,0.01906,-0.0657
5.4,1.521,0.02468,0.01996,-0.0633
5.5,1.5189,0.02555,0.02094,-0.0613
5.7,1.5086,0.02781,0.02345,-0.0583
5.8,1.5028,0.02911,0.02488,-0.0575
6,1.4905,0.03212,0.02813,-0.0576
6.2,1.478,0.03574,0.03196,-0.0601
6.3,1.473,0.03769,0.03402,-0.0621
6.9,1.4278,0.05324,0.04997,-0.0828
7,1.4228,0.05574,0.05249,-0.0858
7.1,1.42,0.05803,0.05481,-0.0885
7.2,1.4189,0.06012,0.05692,-0.091
7.3,1.4194,0.06204,0.05885,-0.0932
7.4,1.4144,0.06459,0.0614,-0.0965
7.5,1.411,0.06696,0.06379,-0.0995
7.6,1.4099,0.0691,0.06593,-0.1022
7.7,1.4104,0.07107,0.06791,-0.1046
7.8,1.4121,0.0729,0.06975,-0.1067
7.9,1.4148,0.07462,0.07147,-0.1087
8,1.4183,0.07623,0.07309,-0.1105
8.1,1.4224,0.07776,0.07462,-0.1121
8.2,1.4247,0.07953,0.07638,-0.1141
8.3,1.4234,0.0818,0.07866,-0.117
8.4,1.4245,0.08378,0.08065,-0.1193
8.5,1.4265,0.08567,0.08254,-0.1215
8.6,1.4299,0.08735,0.08423,-0.1233
8.7,1.4339,0.08895,0.08583,-0.125
8.8,1.4384,0.09048,0.08737,-0.1266
8.9,1.4434,0.09195,0.08884,-0.128
9,1.4487,0.09336,0.09026,-0.1293
9.1,1.453,0.09491,0.0918,-0.1309
9.2,1.4532,0.09711,0.09401,-0.1335
9.3,1.4555,0.09901,0.09592,-0.1355
9.4,1.4587,0.10078,0.0977,-0.1374
9.5,1.4624,0.10247,0.0994,-0.1391
9.6,1.4664,0.10411,0.10104,-0.1407
9.7,1.4709,0.10569,0.10262,-0.1422
9.8,1.4763,0.1071,0.10405,-0.1435
9.9,1.4815,0.10854,0.1055,-0.1448
10,1.4869,0.10994,0.1069,-0.146
10.1,1.4925,0.1113,0.10826,-0.1471
10.2,1.4938,0.11346,0.11043,-0.1495
10.3,1.4964,0.11542,0.11239,-0.1514
10.4,1.4999,0.11722,0.1142,-0.1532
10.5,1.5038,0.11894,0.11593,-0.1548
10.6,1.508,0.1206,0.11759,-0.1563
10.7,1.5124,0.12221,0.11921,-0.1578
10.8,1.5169,0.12377,0.12078,-0.1592
10.9,1.5217,0.1253,0.12232,-0.1605
11,1.5265,0.1268,0.12382,-0.1618
11.1,1.5315,0.12827,0.1253,-0.163
11.2,1.5376,0.12949,0.12652,-0.164
11.3,1.5416,0.13119,0.12821,-0.1655
11.4,1.5438,0.13338,0.13041,-0.1677
11.5,1.5472,0.13529,0.13233,-0.1695
11.6,1.5511,0.1371,0.13415,-0.1711
11.7,1.5553,0.13885,0.13591,-0.1727
11.8,1.5596,0.14055,0.13762,-0.1742
11.9,1.5642,0.14221,0.13929,-0.1756
12,1.5689,0.14385,0.14093,-0.177
12.1,1.5737,0.14545,0.14255,-0.1783
12.2,1.5786,0.14703,0.14413,-0.1797
12.3,1.5837,0.14859,0.1457,-0.1809
12.4,1.5888,0.15013,0.14724,-0.1822
12.5,1.594,0.15164,0.14877,-0.1834
12.6,1.5992,0.15314,0.15027,-0.1846
12.7,1.6013,0.15576,0.15288,-0.1872
12.8,1.6053,0.15776,0.1549,-0.189
12.9,1.6096,0.15969,0.15683,-0.1906
13,1.6141,0.16156,0.15872,-0.1922
13.1,1.6188,0.1634,0.16056,-0.1938
13.2,1.6236,0.16522,0.16238,-0.1953
13.3,1.6285,0.16701,0.16418,-0.1967
13.4,1.6335,0.16878,0.16596,-0.1982
13.5,1.6386,0.17053,0.16772,-0.1996
13.6,1.6438,0.17227,0.16947,-0.201
13.7,1.6491,0.17399,0.1712,-0.2024
13.8,1.6544,0.1757,0.17292,-0.2037
13.9,1.6598,0.1774,0.17463,-0.205
14,1.6652,0.17909,0.17632,-0.2064
14.1,1.6694,0.18138,0.17861,-0.2083
14.2,1.6725,0.18436,0.1816,-0.211
14.3,1.6773,0.18651,0.18376,-0.2128
14.4,1.6823,0.1886,0.18586,-0.2145
14.5,1.6873,0.19068,0.18794,-0.2161
14.6,1.6924,0.19273,0.19,-0.2177
14.7,1.6977,0.19476,0.19204,-0.2194
14.8,1.7029,0.19678,0.19407,-0.2209
14.9,1.7083,0.19879,0.19609,-0.2225
15,1.7137,0.20079,0.19809,-0.224
15.1,1.7192,0.20278,0.2001,-0.2256
15.2,1.7247,0.20477,0.20209,-0.2271
15.3,1.7302,0.20674,0.20407,-0.2286
15.4,1.7358,0.20872,0.20606,-0.2301
15.5,1.7414,0.21069,0.20803,-0.2316
15.6,1.7469,0.21268,0.21002,-0.2331
15.7,1.7512,0.21565,0.213,-0.2355
15.8,1.7556,0.21878,0.21614,-0.2381
15.9,1.7608,0.22119,0.21857,-0.2399
16,1.7661,0.22357,0.22096,-0.2417
16.1,1.7715,0.22594,0.22334,-0.2435
16.2,1.7769,0.22829,0.22569,-0.2453
16.3,1.7824,0.23063,0.22804,-0.2471
16.4,1.7879,0.23296,0.23039,-0.2488
16.5,1.7935,0.23529,0.23273,-0.2505
16.6,1.7991,0.23761,0.23506,-0.2522
16.7,1.8047,0.23994,0.23739,-0.2539
16.8,1.8104,0.24226,0.23973,-0.2556
16.9,1.8161,0.24459,0.24206,-0.2573
17,1.8219,0.24692,0.2444,-0.259
17.1,1.8277,0.24925,0.24674,-0.2607
17.2,1.8335,0.25158,0.24908,-0.2624
17.3,1.8393,0.25391,0.25142,-0.2641
17.4,1.8451,0.25624,0.25376,-0.2657
17.5,1.851,0.25857,0.25611,-0.2674
17.6,1.856,0.26188,0.25942,-0.2698
17.7,1.861,0.26561,0.26315,-0.2726
17.8,1.8666,0.26847,0.26603,-0.2746
17.9,1.8723,0.2713,0.26887,-0.2766
18,1.878,0.2741,0.27169,-0.2786
18.1,1.8838,0.2769,0.27451,-0.2805
18.2,1.8896,0.27969,0.27731,-0.2825
18.3,1.8955,0.28248,0.28011,-0.2844
18.4,1.9014,0.28525,0.28289,-0.2863
18.5,1.9073,0.28803,0.28568,-0.2882
18.6,1.9133,0.29079,0.28846,-0.2901
18.7,1.9193,0.29355,0.29123,-0.2919
18.8,1.9252,0.29691,0.29459,-0.2942
18.9,1.9303,0.30083,0.29852,-0.2969
19,1.9359,0.30438,0.30209,-0.2993
19.1,1.9416,0.30779,0.30551,-0.3016
19.2,1.9473,0.3111,0.30883,-0.3038
19.3,1.9534,0.31456,0.31229,-0.306
19.4,1.9593,0.31772,0.31547,-0.3081
19.5,1.9654,0.32084,0.3186,-0.3101
19.6,1.9705,0.32567,0.32342,-0.3133
19.7,1.9761,0.32946,0.32722,-0.3157
19.8,1.982,0.33341,0.33118,-0.3182
19.9,1.988,0.33684,0.33462,-0.3204
20,1.9939,0.34022,0.338,-0.3226
20.1,1.9994,0.34432,0.3421,-0.3252
20.2,2.005,0.34834,0.34613,-0.3277
20.3,2.0107,0.35219,0.34998,-0.3302

