airfoilName st11.dat
Re 	750000
M 	7.000000e-01
N 	4.500000e+00
VACC 	0 VACCflag 1
XTR 	1.00 	1.00 XTRflag 0
alpha,cl,cd,cdp,cm
-22.7,-1.6503,0.48798,0.48579,0.2599
-22.6,-1.6431,0.48318,0.48099,0.2572
-22.5,-1.6361,0.47851,0.47632,0.2546
-22.4,-1.6291,0.47388,0.47169,0.252
-22.3,-1.6221,0.46927,0.46708,0.2494
-22.2,-1.615,0.4647,0.46251,0.2469
-22.1,-1.608,0.46018,0.45799,0.2443
-22,-1.6009,0.45569,0.4535,0.2418
-21.9,-1.5939,0.45125,0.44906,0.2392
-21.8,-1.5868,0.44682,0.44463,0.2367
-21.7,-1.5797,0.44245,0.44026,0.2342
-21.6,-1.5726,0.43806,0.43587,0.2317
-21.5,-1.565,0.43278,0.43059,0.2288
-21.4,-1.5578,0.42844,0.42625,0.2263
-21.3,-1.5507,0.42412,0.42193,0.2238
-21.2,-1.5435,0.41988,0.4177,0.2213
-21.1,-1.5363,0.4156,0.41341,0.2188
-21,-1.5291,0.41136,0.40917,0.2163
-20.9,-1.5219,0.40708,0.40489,0.2138
-20.6,-1.4992,0.39257,0.39038,0.2053
-20.5,-1.4922,0.38885,0.38667,0.203
-20.4,-1.4851,0.38518,0.38299,0.2008
-20.3,-1.4781,0.38154,0.37935,0.1985
-20.2,-1.471,0.37792,0.37573,0.1962
-20.1,-1.464,0.37434,0.37216,0.194
-20,-1.4569,0.37078,0.36859,0.1917
-19.9,-1.4499,0.36725,0.36507,0.1895
-19.8,-1.4429,0.36376,0.36158,0.1873
-19.7,-1.4358,0.36029,0.35811,0.1851
-19.6,-1.4287,0.35685,0.35467,0.1829
-19.5,-1.4217,0.35344,0.35126,0.1807
-19.4,-1.4147,0.35007,0.34789,0.1786
-19.3,-1.4076,0.34671,0.34453,0.1764
-19.2,-1.4005,0.34339,0.34121,0.1743
-19.1,-1.3935,0.34009,0.33791,0.1722
-19,-1.3865,0.33682,0.33464,0.1701
-18.9,-1.3794,0.33358,0.33141,0.168
-18.8,-1.3724,0.33037,0.3282,0.1659
-18.7,-1.3653,0.32718,0.32501,0.1638
-18.6,-1.3583,0.32402,0.32185,0.1617
-18.5,-1.3513,0.32089,0.31871,0.1597
-18.4,-1.3443,0.31778,0.31561,0.1577
-18.3,-1.3372,0.3147,0.31252,0.1556
-18.2,-1.3302,0.31164,0.30947,0.1536
-18.1,-1.3232,0.30861,0.30644,0.1516
-18,-1.3162,0.3056,0.30343,0.1496
-17.9,-1.3092,0.30262,0.30045,0.1477
-17.8,-1.3022,0.29966,0.2975,0.1457
-17.7,-1.2952,0.29673,0.29456,0.1437
-17.6,-1.2882,0.29382,0.29166,0.1418
-17.5,-1.2813,0.29093,0.28877,0.1399
-17.4,-1.2743,0.28807,0.28591,0.138
-17.3,-1.2673,0.28524,0.28308,0.1361
-17.2,-1.2604,0.28241,0.28025,0.1342
-17.1,-1.2534,0.27962,0.27746,0.1323
-17,-1.2465,0.27685,0.27469,0.1304
-16.9,-1.2395,0.27409,0.27194,0.1286
-16.8,-1.2326,0.27135,0.2692,0.1267
-16.7,-1.2256,0.26863,0.26648,0.1249
-16.6,-1.2187,0.26593,0.26378,0.1231
-16.4,-1.2048,0.26062,0.25847,0.1194
-16.3,-1.1978,0.25796,0.25582,0.1176
-16.2,-1.1909,0.25534,0.2532,0.1158
-16.1,-1.1839,0.25273,0.25059,0.114
-16,-1.177,0.25014,0.24799,0.1123
-15.9,-1.1701,0.24757,0.24542,0.1105
-15.8,-1.1632,0.24501,0.24287,0.1088
-15.7,-1.1563,0.24247,0.24033,0.1071
-15.6,-1.1494,0.23996,0.23782,0.1053
-15.5,-1.1425,0.23746,0.23533,0.1036
-15.4,-1.1357,0.23498,0.23285,0.102
-15.3,-1.1288,0.23252,0.23039,0.1003
-15.2,-1.122,0.23008,0.22795,0.0986
-15.1,-1.1151,0.22764,0.22552,0.0969
-15,-1.1083,0.22524,0.22311,0.0953
-14.9,-1.1015,0.22284,0.22072,0.0936
-14.8,-1.0947,0.22047,0.21835,0.092
-14.7,-1.0879,0.21811,0.21599,0.0904
-14.6,-1.0811,0.21577,0.21365,0.0888
-14.5,-1.0743,0.21345,0.21133,0.0872
-14.4,-1.0675,0.21114,0.20903,0.0856
-14.3,-1.0608,0.20885,0.20673,0.084
-14.2,-1.054,0.20657,0.20446,0.0825
-14.1,-1.0473,0.2043,0.20219,0.0809
-14,-1.0405,0.20204,0.19993,0.0793
-13.9,-1.0337,0.1998,0.19769,0.0778
-13.8,-1.0269,0.19756,0.19546,0.0763
-13.7,-1.0201,0.19533,0.19323,0.0747
-13.6,-1.0133,0.1931,0.19101,0.0732
-13.5,-1.0065,0.19088,0.18879,0.0716
-13.4,-0.9996,0.18868,0.18658,0.0701
-13.3,-0.9928,0.18648,0.18438,0.0686
-13.2,-0.9859,0.18428,0.18219,0.0671
-13.1,-0.979,0.18208,0.17999,0.0656
-13,-0.9721,0.17985,0.17777,0.064
-12.9,-0.9651,0.17763,0.17554,0.0625
-12.7,-0.9504,0.17263,0.17056,0.0593
-12.6,-0.9437,0.17063,0.16856,0.0579
-12.5,-0.9369,0.16864,0.16658,0.0565
-12.4,-0.9302,0.16666,0.1646,0.0551
-12.3,-0.9234,0.1647,0.16264,0.0537
-12.2,-0.9166,0.16275,0.16069,0.0523
-12.1,-0.9097,0.1608,0.15875,0.0509
-12,-0.9028,0.15887,0.15682,0.0495
-11.9,-0.8959,0.15694,0.1549,0.0482
-11.8,-0.8889,0.15502,0.15298,0.0468
-11.7,-0.8819,0.15311,0.15107,0.0454
-11.6,-0.8748,0.1512,0.14917,0.044
-11.4,-0.8606,0.14755,0.14552,0.0412
-11.3,-0.8535,0.14568,0.14365,0.0398
-11.2,-0.8463,0.14381,0.14179,0.0384
-11.1,-0.8391,0.14196,0.13995,0.0371
-11,-0.8319,0.14012,0.13811,0.0357
-10.9,-0.8246,0.1383,0.13629,0.0343
-10.8,-0.8174,0.13649,0.13449,0.033
-10.7,-0.8101,0.1347,0.1327,0.0316
-10.6,-0.8028,0.13291,0.13092,0.0303
-10.5,-0.7955,0.13116,0.12917,0.029
-10.4,-0.7881,0.1294,0.12741,0.0276
-10.3,-0.7807,0.12766,0.12568,0.0263
-10.2,-0.7732,0.12593,0.12396,0.0249
-10.1,-0.7657,0.12422,0.12225,0.0236
-10,-0.7582,0.12252,0.12056,0.0223
-9.9,-0.7507,0.12084,0.11888,0.0209
-9.8,-0.7431,0.11917,0.11722,0.0196
-9.7,-0.7356,0.11752,0.11557,0.0183
-9.6,-0.728,0.1159,0.11396,0.017
-9.5,-0.7203,0.11427,0.11233,0.0156
-9.4,-0.7127,0.11266,0.11074,0.0143
-9.3,-0.705,0.11108,0.10916,0.013
-9.2,-0.6973,0.1095,0.10759,0.0117
-9.1,-0.6895,0.10794,0.10603,0.0103
-9,-0.6817,0.10639,0.10449,0.009
-8.9,-0.6738,0.10486,0.10296,0.0077
-8.8,-0.666,0.10334,0.10145,0.0064
-8.7,-0.6581,0.10184,0.09996,0.0051
-8.6,-0.6503,0.10036,0.09849,0.0038
-8.5,-0.6424,0.0989,0.09703,0.0025
-8.4,-0.634,0.09742,0.09556,0.001
-8.3,-0.6232,0.09578,0.09393,-0.0011
-8.2,-0.6115,0.09409,0.09223,-0.0035
-8.1,-0.6004,0.09246,0.0906,-0.0056
-8,-0.5901,0.09091,0.08905,-0.0075
-7.9,-0.5796,0.08936,0.0875,-0.0094
-7.8,-0.5703,0.08792,0.08605,-0.011
-7.7,-0.5613,0.08652,0.08464,-0.0124
-7.6,-0.5533,0.08519,0.0833,-0.0135
-7.5,-0.5451,0.08387,0.08197,-0.0146
-7.4,-0.5371,0.08258,0.08067,-0.0157
-7.3,-0.5295,0.08132,0.07939,-0.0167
-7.2,-0.5215,0.08006,0.07811,-0.0178
-7.1,-0.513,0.07878,0.07681,-0.019
-7,-0.5047,0.07752,0.07553,-0.0202
-6.9,-0.4958,0.07624,0.07424,-0.0215
-6.8,-0.4875,0.07502,0.07298,-0.0226
-6.7,-0.4784,0.07375,0.07169,-0.0241
-6.6,-0.4693,0.07249,0.07041,-0.0254
-6.5,-0.4598,0.07123,0.06913,-0.0269
-6.4,-0.4504,0.06996,0.06784,-0.0284
-6.3,-0.4409,0.06871,0.06655,-0.0299
-6.2,-0.4311,0.06742,0.06524,-0.0316
-6.1,-0.4211,0.06612,0.06392,-0.0333
-6,-0.411,0.06474,0.06252,-0.0351
-5.9,-0.4011,0.06343,0.06119,-0.0369
-5.8,-0.3913,0.06238,0.06011,-0.0385
-5.7,-0.3787,0.0612,0.0589,-0.0409
-5.6,-0.3647,0.05996,0.05764,-0.0436
-5.5,-0.3503,0.05872,0.05636,-0.0463
-5.4,-0.3352,0.05745,0.05508,-0.0491
-5.3,-0.3197,0.05618,0.05377,-0.052
-5.2,-0.3039,0.05491,0.05246,-0.0549
-4.8,-0.2346,0.04965,0.04708,-0.067
-4.7,-0.2164,0.04828,0.04566,-0.0701
-4.6,-0.1978,0.04689,0.04423,-0.0731
-4.5,-0.1787,0.04548,0.04278,-0.0762
-4.4,-0.159,0.04404,0.04129,-0.0794
-4.3,-0.1389,0.04258,0.03978,-0.0825
-4.2,-0.1185,0.04109,0.03824,-0.0856
-4.1,-0.0976,0.03956,0.03665,-0.0888
-4,-0.0764,0.038,0.03503,-0.0919
-3.7,-0.0122,0.03305,0.02978,-0.1009
-3.6,0.0095,0.03164,0.02827,-0.1034
-3.5,0.0312,0.03019,0.02674,-0.1058
-3.4,0.0524,0.02876,0.02518,-0.1079
-3.3,0.0741,0.02724,0.02354,-0.1101
-3.2,0.0956,0.02566,0.02183,-0.1122
-3,0.1378,0.02229,0.01813,-0.116
-2.9,0.1588,0.02037,0.01602,-0.1178
-2.7,0.1983,0.01606,0.01113,-0.1212
-2.6,0.218,0.01479,0.00959,-0.1218
-2.4,0.2574,0.01285,0.0071,-0.1223
-2.3,0.2768,0.01216,0.00615,-0.1222
-2.2,0.2966,0.01168,0.00546,-0.1219
-2.1,0.3157,0.01143,0.00505,-0.1214
-2,0.3348,0.01123,0.00471,-0.121
-1.9,0.3541,0.01105,0.00442,-0.1206
-1.8,0.3732,0.01094,0.00424,-0.1203
-1.7,0.3922,0.01084,0.00407,-0.1199
-1.6,0.4109,0.01078,0.00393,-0.1195
-1.5,0.4292,0.01076,0.00381,-0.1191
-1.4,0.4478,0.01072,0.00372,-0.1188
-1.3,0.4661,0.01071,0.00367,-0.1184
-1.2,0.4842,0.01072,0.0036,-0.1181
-1.1,0.5024,0.01071,0.00355,-0.1178
-1,0.5206,0.01071,0.00351,-0.1175
-0.9,0.5385,0.01074,0.0035,-0.1172
-0.8,0.5558,0.0108,0.00349,-0.1168
-0.7,0.5735,0.01084,0.00349,-0.1165
-0.6,0.591,0.0109,0.00349,-0.1161
-0.5,0.6083,0.01097,0.00351,-0.1158
-0.4,0.6253,0.01105,0.00355,-0.1154
-0.3,0.642,0.01117,0.00361,-0.1151
-0.2,0.6584,0.0113,0.00367,-0.1147
-0.1,0.6746,0.01146,0.00376,-0.1143
0,0.6898,0.01169,0.00387,-0.1138
0.1,0.7067,0.0118,0.00396,-0.1135
0.2,0.7239,0.01191,0.00404,-0.1131
0.3,0.7412,0.01199,0.0041,-0.1129
0.4,0.7585,0.01208,0.00419,-0.1126
0.5,0.7761,0.01214,0.00426,-0.1123
0.6,0.7936,0.01223,0.00433,-0.112
0.7,0.811,0.01232,0.00442,-0.1117
0.8,0.8287,0.01238,0.0045,-0.1114
0.9,0.8461,0.01248,0.00459,-0.1111
1,0.8635,0.01257,0.00469,-0.1108
1.1,0.8813,0.01263,0.00478,-0.1105
1.2,0.8991,0.01271,0.00486,-0.1101
1.3,0.9168,0.01277,0.00496,-0.1098
1.4,0.9344,0.01286,0.00506,-0.1095
1.5,0.9519,0.01296,0.00517,-0.1091
1.6,0.9699,0.01302,0.00527,-0.1087
1.7,0.9876,0.01311,0.00537,-0.1084
1.8,1.0053,0.01318,0.00549,-0.108
1.9,1.023,0.01327,0.00561,-0.1076
2,1.0408,0.01334,0.00573,-0.1072
2.1,1.0589,0.01338,0.00586,-0.1069
2.5,1.1163,0.0123,0.00643,-0.1027
2.6,1.1343,0.01244,0.00658,-0.1022
2.7,1.1526,0.01258,0.00672,-0.1016
2.8,1.1707,0.01272,0.00687,-0.101
2.9,1.1888,0.01287,0.00702,-0.1004
3,1.2068,0.01303,0.00719,-0.0997
3.1,1.2247,0.0132,0.00736,-0.0991
3.2,1.2431,0.01335,0.00753,-0.0984
3.3,1.2616,0.0135,0.00771,-0.0977
3.4,1.28,0.01367,0.0079,-0.0969
3.5,1.2984,0.01384,0.0081,-0.0961
3.6,1.3167,0.01402,0.0083,-0.0953
3.7,1.3349,0.01421,0.00852,-0.0945
3.8,1.3532,0.01441,0.00874,-0.0936
3.9,1.372,0.0146,0.00897,-0.0927
4,1.3907,0.01481,0.00922,-0.0917
4.1,1.4093,0.01503,0.00948,-0.0908
4.2,1.4279,0.01526,0.00977,-0.0897
4.3,1.4463,0.01551,0.01006,-0.0886
4.4,1.4646,0.01578,0.01038,-0.0875
4.5,1.4831,0.01608,0.01075,-0.0864
4.6,1.5014,0.01642,0.01118,-0.0852
4.7,1.5191,0.0168,0.01165,-0.0839
4.8,1.5359,0.01722,0.01217,-0.0825
4.9,1.5515,0.01769,0.01275,-0.0811
5,1.5655,0.01822,0.0134,-0.0794
5.1,1.5775,0.0188,0.0141,-0.0777
5.2,1.5872,0.01943,0.01485,-0.0757
5.3,1.5947,0.0201,0.01564,-0.0736
5.4,1.598,0.0209,0.0166,-0.0713
5.5,1.5971,0.02167,0.0175,-0.0686
5.6,1.5945,0.02251,0.01845,-0.0659
5.7,1.5913,0.02343,0.0195,-0.0635
5.8,1.5875,0.02443,0.02062,-0.0614
5.9,1.5832,0.02553,0.02184,-0.0596
6,1.5784,0.02673,0.02315,-0.0583
6.1,1.5732,0.02803,0.02456,-0.0573
6.2,1.5679,0.02945,0.02609,-0.0569
6.3,1.5624,0.03099,0.02774,-0.0569
6.6,1.5414,0.03675,0.0338,-0.0606
6.7,1.5327,0.0391,0.03624,-0.0631
7.1,1.5005,0.04957,0.047,-0.0762
7.3,1.4887,0.05467,0.05217,-0.0822
7.6,1.4665,0.06277,0.06034,-0.0915
7.7,1.4613,0.06528,0.06286,-0.0945
7.9,1.4556,0.06986,0.06746,-0.0999
8.1,1.4566,0.07378,0.07139,-0.1043
8.2,1.4582,0.07561,0.07323,-0.1063
8.3,1.4558,0.0779,0.07551,-0.109
8.4,1.4531,0.08025,0.07787,-0.1118
8.5,1.4522,0.08242,0.08004,-0.1144
8.6,1.4526,0.08447,0.08209,-0.1167
8.7,1.4538,0.08641,0.08404,-0.1188
8.8,1.4559,0.08827,0.0859,-0.1208
8.9,1.4585,0.09006,0.0877,-0.1227
9,1.4618,0.09178,0.08942,-0.1244
9.1,1.4655,0.09343,0.09107,-0.1261
9.2,1.4689,0.09513,0.09277,-0.1278
9.4,1.4693,0.09943,0.09708,-0.1325
9.5,1.4714,0.10135,0.09901,-0.1345
9.6,1.4741,0.10319,0.10085,-0.1363
9.7,1.4772,0.10497,0.10263,-0.1381
9.8,1.4808,0.10669,0.10436,-0.1397
9.9,1.4848,0.10835,0.10603,-0.1413
10,1.4891,0.10997,0.10766,-0.1427
10.1,1.4936,0.11155,0.10924,-0.1441
10.2,1.4984,0.11308,0.11078,-0.1455
10.3,1.502,0.11481,0.1125,-0.1471
10.4,1.5027,0.11705,0.11475,-0.1494
10.5,1.5041,0.11923,0.11694,-0.1516
10.6,1.5072,0.12107,0.11879,-0.1533
10.7,1.5108,0.12285,0.12057,-0.1549
10.8,1.5146,0.12457,0.1223,-0.1565
10.9,1.5187,0.12625,0.12398,-0.158
11,1.523,0.1279,0.12563,-0.1594
11.1,1.5275,0.1295,0.12724,-0.1607
11.2,1.5322,0.13106,0.1288,-0.1621
11.3,1.537,0.13259,0.13034,-0.1633
11.4,1.542,0.13409,0.13184,-0.1646
11.5,1.5435,0.13636,0.13411,-0.1667
11.6,1.5461,0.13844,0.1362,-0.1687
11.7,1.5492,0.14041,0.13817,-0.1704
11.8,1.5525,0.14239,0.14016,-0.1722
11.9,1.5566,0.14419,0.14197,-0.1738
12,1.5608,0.14596,0.14374,-0.1753
12.1,1.5651,0.14768,0.14547,-0.1768
12.2,1.5697,0.14938,0.14718,-0.1782
12.3,1.5744,0.15105,0.14885,-0.1796
12.4,1.5792,0.15269,0.1505,-0.1809
12.5,1.584,0.15429,0.15211,-0.1822
12.6,1.589,0.15587,0.15369,-0.1835
12.7,1.5933,0.15767,0.15549,-0.185
12.8,1.5957,0.16011,0.15794,-0.1872
12.9,1.5991,0.16226,0.1601,-0.1891
13,1.603,0.16432,0.16216,-0.1908
13.1,1.6071,0.16632,0.16416,-0.1925
13.2,1.6114,0.16834,0.16619,-0.1942
13.3,1.6159,0.17023,0.16809,-0.1958
13.4,1.6207,0.17211,0.16997,-0.1973
13.5,1.6255,0.17396,0.17184,-0.1988
13.6,1.6305,0.1758,0.17368,-0.2003
13.7,1.6355,0.17762,0.1755,-0.2018
13.8,1.6407,0.17942,0.17731,-0.2032
13.9,1.6459,0.1812,0.1791,-0.2046
14,1.6512,0.18297,0.18087,-0.206
14.1,1.6549,0.18541,0.18331,-0.208
14.2,1.6587,0.18792,0.18583,-0.2101
14.3,1.663,0.19022,0.18814,-0.212
14.4,1.6675,0.19248,0.1904,-0.2138
14.5,1.6722,0.19467,0.1926,-0.2155
14.6,1.6771,0.19684,0.19478,-0.2173
14.7,1.682,0.19899,0.19694,-0.2189
14.8,1.6871,0.20116,0.19911,-0.2207
14.9,1.6923,0.20326,0.20122,-0.2223
15,1.6975,0.20535,0.20332,-0.2239
15.1,1.7028,0.20743,0.2054,-0.2255
15.2,1.7082,0.20951,0.20749,-0.2271
15.3,1.7136,0.21157,0.20956,-0.2287
15.4,1.719,0.21362,0.21161,-0.2302
15.5,1.7245,0.21567,0.21367,-0.2318
15.6,1.73,0.21771,0.21571,-0.2333
15.7,1.7341,0.22064,0.21864,-0.2356
15.8,1.7387,0.22335,0.22136,-0.2377
15.9,1.7436,0.2259,0.22391,-0.2396
16,1.7486,0.22839,0.22642,-0.2415
16.1,1.7538,0.23086,0.22889,-0.2434
16.2,1.759,0.2333,0.23134,-0.2452
16.3,1.7643,0.23574,0.23378,-0.247
16.4,1.7697,0.23815,0.23621,-0.2488
16.5,1.7751,0.24057,0.23863,-0.2506
16.6,1.7806,0.24305,0.24112,-0.2524
16.7,1.7861,0.24545,0.24353,-0.2541
16.8,1.7917,0.24786,0.24595,-0.2559
16.9,1.7973,0.25027,0.24836,-0.2576
17,1.803,0.25268,0.25078,-0.2594
17.1,1.8087,0.25508,0.2532,-0.2611
17.2,1.8145,0.25749,0.25561,-0.2628
17.3,1.8202,0.25989,0.25802,-0.2645
17.4,1.8261,0.26229,0.26043,-0.2662
17.5,1.8319,0.26469,0.26284,-0.2679
17.6,1.8366,0.26814,0.26629,-0.2704
17.7,1.8417,0.27128,0.26944,-0.2727
17.8,1.8471,0.27429,0.27245,-0.2748
17.9,1.8526,0.27722,0.2754,-0.2768
18,1.8581,0.28033,0.27852,-0.279
18.1,1.8638,0.28322,0.28142,-0.281
18.2,1.8695,0.28609,0.2843,-0.283
18.3,1.8753,0.28895,0.28717,-0.2849
18.4,1.8812,0.29178,0.29001,-0.2868
18.5,1.8871,0.29459,0.29282,-0.2887
18.6,1.8932,0.29736,0.29561,-0.2906
18.7,1.8974,0.30223,0.30048,-0.2939
18.8,1.903,0.3059,0.30416,-0.2964
18.9,1.9088,0.3091,0.30736,-0.2985
19,1.9148,0.31219,0.31046,-0.3005
19.1,1.9199,0.31607,0.31435,-0.3031
19.2,1.9253,0.31987,0.31816,-0.3056
19.3,1.9308,0.32345,0.32174,-0.3079
19.4,1.9365,0.32694,0.32523,-0.3102
19.5,1.9422,0.33034,0.32864,-0.3124
19.6,1.9481,0.3337,0.33201,-0.3146
19.7,1.9537,0.33728,0.33559,-0.3169
19.8,1.9591,0.34117,0.33947,-0.3194
19.9,1.9647,0.34493,0.34325,-0.3218
20,1.9703,0.34862,0.34694,-0.3241
20.1,1.976,0.35251,0.35083,-0.3266
20.2,1.9818,0.35612,0.35445,-0.3288
20.3,1.9876,0.35973,0.35806,-0.3311
20.4,1.9933,0.36343,0.36176,-0.3334
20.5,1.9988,0.36746,0.36579,-0.3359
20.6,2.0045,0.3714,0.36973,-0.3384
20.7,2.0102,0.37531,0.37364,-0.3408
20.8,2.0159,0.37923,0.37757,-0.3432
20.9,2.0216,0.38313,0.38147,-0.3456
21,2.0273,0.38703,0.38537,-0.348
21.1,2.0331,0.39096,0.38931,-0.3504
21.2,2.0388,0.39491,0.39326,-0.3528

