airfoilName st11.dat
Re 	670000
M 	7.000000e-01
N 	4.500000e+00
VACC 	0 VACCflag 1
XTR 	1.00 	1.00 XTRflag 0
alpha,cl,cd,cdp,cm
-23.3,-1.0393,0.20403,0.20226,0.1342
-22.7,-1.6462,0.48412,0.48178,0.2585
-22.6,-1.6397,0.48001,0.47767,0.256
-22.5,-1.6326,0.4752,0.47286,0.2534
-22.4,-1.6254,0.47041,0.46807,0.2507
-22.3,-1.6183,0.46564,0.4633,0.2481
-22.2,-1.6111,0.46089,0.45855,0.2455
-22.1,-1.6039,0.45618,0.45384,0.2428
-22,-1.5966,0.4515,0.44916,0.2402
-21.6,-1.569,0.43166,0.42933,0.2288
-21.5,-1.5619,0.42761,0.42527,0.2263
-21.4,-1.5549,0.4236,0.42126,0.2239
-21.3,-1.5479,0.41961,0.41728,0.2215
-21.2,-1.5409,0.41569,0.41336,0.2191
-21.1,-1.5338,0.41176,0.40943,0.2168
-21,-1.5268,0.4079,0.40556,0.2144
-20.9,-1.5197,0.40404,0.4017,0.212
-20.8,-1.5127,0.40023,0.3979,0.2097
-20.7,-1.5056,0.39645,0.39412,0.2074
-20.6,-1.4986,0.39271,0.39038,0.2051
-20.5,-1.4915,0.38899,0.38666,0.2028
-20.4,-1.4845,0.38532,0.38298,0.2005
-20.3,-1.4774,0.38167,0.37934,0.1982
-20.2,-1.4704,0.37804,0.37571,0.1959
-20.1,-1.4633,0.37447,0.37214,0.1937
-20,-1.4562,0.3709,0.36857,0.1915
-19.9,-1.4492,0.36737,0.36504,0.1892
-19.8,-1.4421,0.36388,0.36155,0.187
-19.7,-1.435,0.3604,0.35808,0.1848
-19.6,-1.428,0.35697,0.35464,0.1826
-19.5,-1.4209,0.35355,0.35123,0.1805
-19.4,-1.4139,0.35018,0.34785,0.1783
-19.3,-1.4068,0.34681,0.34449,0.1761
-19.2,-1.3997,0.3435,0.34117,0.174
-19.1,-1.3927,0.3402,0.33787,0.1719
-19,-1.3856,0.33692,0.3346,0.1698
-18.9,-1.3785,0.33369,0.33137,0.1677
-18.8,-1.3715,0.33047,0.32815,0.1656
-18.7,-1.3644,0.32728,0.32496,0.1635
-18.6,-1.3574,0.32412,0.3218,0.1614
-18.5,-1.3504,0.32098,0.31866,0.1594
-18.4,-1.3433,0.31788,0.31556,0.1574
-18.3,-1.3363,0.31479,0.31247,0.1553
-18.2,-1.3293,0.31173,0.30941,0.1533
-18.1,-1.3222,0.3087,0.30638,0.1513
-18,-1.3152,0.30569,0.30337,0.1493
-17.9,-1.3082,0.3027,0.30039,0.1474
-17.8,-1.3012,0.29974,0.29743,0.1454
-17.7,-1.2942,0.2968,0.29449,0.1434
-17.6,-1.2872,0.29389,0.29158,0.1415
-17.5,-1.2802,0.291,0.28869,0.1396
-17.4,-1.2732,0.28813,0.28582,0.1377
-17.3,-1.2663,0.28529,0.28299,0.1357
-17.2,-1.2593,0.28247,0.28016,0.1339
-17.1,-1.2523,0.27967,0.27737,0.132
-17,-1.2454,0.27689,0.27459,0.1301
-16.9,-1.2384,0.27413,0.27183,0.1282
-16.8,-1.2315,0.27139,0.26909,0.1264
-16.7,-1.2245,0.2687,0.2664,0.1245
-16.6,-1.2175,0.26599,0.26369,0.1226
-16.5,-1.2105,0.2633,0.261,0.1208
-16.4,-1.2036,0.26062,0.25833,0.119
-16.3,-1.1966,0.25796,0.25567,0.1172
-16.2,-1.1897,0.25533,0.25305,0.1154
-16.1,-1.1827,0.25272,0.25043,0.1136
-16,-1.1758,0.25012,0.24783,0.1119
-15.9,-1.1689,0.24754,0.24526,0.1101
-15.8,-1.162,0.24498,0.2427,0.1084
-15.7,-1.1551,0.24244,0.24015,0.1066
-15.6,-1.1482,0.23992,0.23764,0.1049
-15.5,-1.1413,0.23742,0.23514,0.1032
-15.4,-1.1344,0.23493,0.23266,0.1015
-15.3,-1.1275,0.23246,0.23019,0.0998
-15.2,-1.1207,0.23001,0.22774,0.0981
-15.1,-1.1138,0.22757,0.2253,0.0964
-15,-1.107,0.22516,0.22289,0.0948
-14.9,-1.1001,0.22276,0.22049,0.0931
-14.8,-1.0933,0.22038,0.21811,0.0915
-14.7,-1.0865,0.21801,0.21574,0.0899
-14.6,-1.0797,0.21565,0.21339,0.0882
-14.5,-1.0729,0.21332,0.21106,0.0866
-14.4,-1.0661,0.21099,0.20874,0.085
-14.3,-1.0593,0.20868,0.20643,0.0834
-14.2,-1.0525,0.20638,0.20413,0.0819
-14.1,-1.0457,0.20409,0.20184,0.0803
-14,-1.0389,0.2018,0.19955,0.0787
-13.9,-1.0321,0.19953,0.19728,0.0771
-13.8,-1.0253,0.19725,0.19501,0.0756
-13.7,-1.0184,0.19496,0.19272,0.074
-13.6,-1.0115,0.19267,0.19043,0.0724
-13.5,-1.0045,0.19033,0.18809,0.0709
-13.3,-0.99,0.18526,0.18304,0.0675
-13.2,-0.9833,0.18319,0.18096,0.0661
-13.1,-0.9766,0.18112,0.1789,0.0647
-13,-0.9699,0.17907,0.17685,0.0632
-12.9,-0.9632,0.17703,0.17481,0.0618
-12.8,-0.9564,0.175,0.17279,0.0604
-12.7,-0.9497,0.17298,0.17077,0.059
-12.6,-0.9429,0.17098,0.16877,0.0576
-12.5,-0.9361,0.16898,0.16678,0.0562
-12.4,-0.9293,0.167,0.1648,0.0548
-12.3,-0.9225,0.16503,0.16283,0.0534
-12.2,-0.9156,0.16307,0.16087,0.052
-12.1,-0.9087,0.16111,0.15892,0.0506
-12,-0.9018,0.15918,0.15699,0.0492
-11.9,-0.8948,0.15724,0.15506,0.0478
-11.8,-0.8878,0.15532,0.15314,0.0465
-11.6,-0.8737,0.1516,0.14943,0.0436
-11.5,-0.8666,0.1497,0.14753,0.0422
-11.4,-0.8594,0.1478,0.14564,0.0408
-11.3,-0.8523,0.14593,0.14377,0.0395
-11.2,-0.8451,0.14406,0.1419,0.0381
-11.1,-0.8379,0.14221,0.14006,0.0367
-11,-0.8307,0.14036,0.13822,0.0354
-10.9,-0.8234,0.13854,0.1364,0.034
-10.8,-0.8162,0.13673,0.13459,0.0327
-10.7,-0.8089,0.13493,0.1328,0.0313
-10.6,-0.8016,0.13315,0.13102,0.03
-10.5,-0.7943,0.13139,0.12926,0.0287
-10.4,-0.7869,0.12963,0.12751,0.0273
-10.3,-0.7795,0.12789,0.12578,0.026
-10.2,-0.772,0.12616,0.12405,0.0247
-10.1,-0.7646,0.12444,0.12234,0.0233
-10,-0.7571,0.12275,0.12065,0.022
-9.9,-0.7496,0.12106,0.11897,0.0207
-9.8,-0.742,0.11939,0.1173,0.0193
-9.7,-0.7345,0.11773,0.11566,0.018
-9.6,-0.7269,0.1161,0.11403,0.0167
-9.5,-0.7193,0.11448,0.11241,0.0154
-9.4,-0.7116,0.11287,0.11081,0.0141
-9.3,-0.704,0.11129,0.10923,0.0128
-9.2,-0.6963,0.10971,0.10766,0.0115
-9.1,-0.6885,0.10814,0.1061,0.0101
-9,-0.6807,0.10659,0.10456,0.0088
-8.9,-0.6729,0.10506,0.10303,0.0075
-8.8,-0.6651,0.10354,0.10152,0.0062
-8.7,-0.6573,0.10204,0.10003,0.0049
-8.6,-0.6495,0.10056,0.09856,0.0036
-8.5,-0.6416,0.09909,0.0971,0.0023
-8.4,-0.6338,0.09764,0.09566,0.001
-8.3,-0.6258,0.0962,0.09422,-0.0003
-8.2,-0.615,0.09457,0.09259,-0.0024
-8.1,-0.6031,0.09288,0.0909,-0.0048
-8,-0.592,0.09125,0.08928,-0.007
-7.9,-0.5811,0.08968,0.0877,-0.009
-7.8,-0.5699,0.08809,0.08611,-0.0111
-7.7,-0.5602,0.08662,0.08464,-0.0128
-7.6,-0.5506,0.08518,0.08319,-0.0144
-7.5,-0.5419,0.08381,0.08181,-0.0157
-7.4,-0.5334,0.08248,0.08047,-0.0169
-7.3,-0.5251,0.08116,0.07915,-0.0181
-7.2,-0.5173,0.0799,0.07786,-0.0191
-7.1,-0.5091,0.07862,0.07657,-0.0203
-7,-0.5007,0.07733,0.07526,-0.0215
-6.9,-0.4922,0.07605,0.07396,-0.0227
-6.8,-0.4836,0.07476,0.07266,-0.024
-6.7,-0.4751,0.0735,0.07137,-0.0251
-6.6,-0.466,0.07217,0.07002,-0.0266
-6.5,-0.4568,0.07086,0.06869,-0.028
-6.4,-0.4474,0.06938,0.0672,-0.0296
-6.3,-0.4378,0.06821,0.06602,-0.0311
-6.2,-0.4285,0.06709,0.06486,-0.0325
-6.1,-0.4185,0.06594,0.06369,-0.0341
-6,-0.4086,0.06481,0.06253,-0.0357
-5.9,-0.3985,0.06368,0.06139,-0.0374
-5.8,-0.3887,0.06262,0.06029,-0.0391
-5.7,-0.3766,0.06146,0.0591,-0.0413
-5.6,-0.3629,0.06023,0.05784,-0.0438
-5.5,-0.3485,0.05898,0.05657,-0.0465
-5.4,-0.3337,0.05772,0.05528,-0.0493
-5.3,-0.3185,0.05645,0.05398,-0.0521
-5,-0.2691,0.05256,0.05,-0.0609
-4.9,-0.2519,0.05121,0.04861,-0.0639
-4.8,-0.2342,0.04984,0.04721,-0.0669
-4.7,-0.2159,0.04845,0.04577,-0.0701
-4.6,-0.1973,0.04704,0.04433,-0.0731
-4.5,-0.1782,0.0456,0.04285,-0.0763
-4.4,-0.1589,0.04417,0.04136,-0.0793
-4.3,-0.1389,0.04268,0.03982,-0.0825
-4.2,-0.1184,0.04114,0.03823,-0.0857
-4.1,-0.0975,0.03954,0.03656,-0.0889
-4,-0.0759,0.0378,0.03476,-0.0923
-3.9,-0.0543,0.03622,0.03312,-0.0954
-3.8,-0.033,0.03484,0.03166,-0.0981
-3.7,-0.0122,0.0335,0.03021,-0.1005
-3.6,0.0086,0.03214,0.02874,-0.1028
-3.5,0.0304,0.03068,0.02719,-0.1052
-3.4,0.0521,0.0292,0.02559,-0.1075
-3.3,0.0733,0.02771,0.02396,-0.1097
-3,0.1375,0.02267,0.01845,-0.1157
-2.8,0.179,0.01836,0.01367,-0.1196
-2.7,0.1982,0.01685,0.01191,-0.1206
-2.5,0.2378,0.01429,0.0088,-0.122
-2.4,0.2574,0.01324,0.00743,-0.1222
-2.3,0.2771,0.01247,0.00639,-0.1221
-2.2,0.2964,0.01209,0.00582,-0.1218
-2.1,0.316,0.01175,0.00533,-0.1215
-2,0.3346,0.01154,0.00495,-0.121
-1.9,0.3539,0.01136,0.00466,-0.1206
-1.8,0.3729,0.01123,0.00444,-0.1202
-1.7,0.392,0.01111,0.00424,-0.1198
-1.6,0.4105,0.01105,0.00408,-0.1194
-1.5,0.4294,0.01097,0.00395,-0.1191
-1.4,0.4474,0.01097,0.00389,-0.1187
-1.3,0.4656,0.01096,0.0038,-0.1183
-1.2,0.4838,0.01095,0.00372,-0.118
-1.1,0.5019,0.01094,0.00367,-0.1177
-1,0.5201,0.01093,0.00362,-0.1174
-0.9,0.5381,0.01095,0.0036,-0.117
-0.8,0.556,0.01097,0.00358,-0.1167
-0.7,0.573,0.01104,0.00359,-0.1163
-0.6,0.5906,0.01109,0.00358,-0.116
-0.5,0.608,0.01115,0.0036,-0.1157
-0.4,0.6251,0.01123,0.00363,-0.1153
-0.3,0.6419,0.01132,0.00367,-0.1149
-0.2,0.6584,0.01144,0.00373,-0.1145
-0.1,0.6747,0.01158,0.0038,-0.1141
0,0.6908,0.01173,0.00388,-0.1137
0.1,0.7059,0.01196,0.00401,-0.1132
0.2,0.7227,0.01208,0.00409,-0.1129
0.3,0.7396,0.01219,0.00418,-0.1125
0.4,0.7569,0.01228,0.00426,-0.1122
0.5,0.7739,0.01238,0.00436,-0.1119
0.6,0.7915,0.01246,0.00442,-0.1116
0.7,0.8089,0.01254,0.00451,-0.1113
0.8,0.8261,0.01264,0.0046,-0.111
0.9,0.8437,0.01271,0.0047,-0.1107
1,0.861,0.01281,0.00479,-0.1103
1.1,0.8784,0.0129,0.00489,-0.11
1.2,0.8959,0.01299,0.00499,-0.1096
1.3,0.9136,0.01305,0.00509,-0.1093
1.4,0.9312,0.01313,0.00519,-0.109
1.5,0.9488,0.01322,0.0053,-0.1086
1.6,0.9661,0.01333,0.00542,-0.1082
1.7,0.984,0.01338,0.00553,-0.1079
1.8,1.0016,0.01347,0.00565,-0.1075
1.9,1.0193,0.01354,0.00576,-0.1071
2,1.0369,0.01361,0.0059,-0.1067
2.1,1.0546,0.01365,0.00605,-0.1063
2.4,1.0938,0.01249,0.00646,-0.1026
2.5,1.1117,0.01263,0.0066,-0.102
2.6,1.1295,0.01279,0.00676,-0.1014
2.7,1.1471,0.01295,0.00692,-0.1008
2.8,1.1653,0.01309,0.00708,-0.1002
2.9,1.1834,0.01324,0.00723,-0.0996
3,1.2014,0.0134,0.0074,-0.0989
3.1,1.2194,0.01357,0.00758,-0.0983
3.2,1.2372,0.01375,0.00776,-0.0975
3.3,1.2553,0.01392,0.00796,-0.0968
3.4,1.2737,0.01409,0.00815,-0.0961
3.5,1.292,0.01427,0.00836,-0.0953
3.6,1.3103,0.01445,0.00858,-0.0945
3.7,1.3285,0.01465,0.0088,-0.0936
3.8,1.3466,0.01486,0.00904,-0.0927
3.9,1.3646,0.01508,0.00929,-0.0917
4,1.3832,0.01529,0.00954,-0.0908
4.1,1.4017,0.01552,0.00983,-0.0898
4.2,1.4201,0.01577,0.01014,-0.0888
4.3,1.4383,0.01604,0.01046,-0.0877
4.4,1.4563,0.01633,0.01081,-0.0866
4.5,1.474,0.01664,0.01118,-0.0854
4.6,1.4915,0.01699,0.01161,-0.0842
4.7,1.5085,0.01739,0.01212,-0.0829
4.8,1.5245,0.01784,0.01268,-0.0815
4.9,1.539,0.01835,0.0133,-0.0799
5,1.5518,0.0189,0.01397,-0.0783
5.1,1.5624,0.01951,0.01471,-0.0764
5.2,1.5708,0.02016,0.01549,-0.0745
5.3,1.5769,0.02086,0.01631,-0.0723
5.5,1.5791,0.02231,0.01799,-0.0672
5.6,1.5765,0.0232,0.01901,-0.0647
5.7,1.5732,0.02418,0.02012,-0.0626
5.9,1.5648,0.0264,0.02258,-0.0592
6,1.5597,0.02766,0.02397,-0.0581
6.2,1.5487,0.03054,0.02707,-0.0573
6.3,1.5429,0.03217,0.02881,-0.0576
6.4,1.5371,0.03394,0.03068,-0.0585
6.6,1.5258,0.03788,0.0348,-0.0618
7,1.4897,0.04848,0.04572,-0.075
7.1,1.4818,0.05122,0.0485,-0.0784
7.5,1.4635,0.06097,0.05837,-0.0894
7.6,1.4546,0.06384,0.06125,-0.0929
7.7,1.4487,0.06644,0.06387,-0.0961
7.9,1.4426,0.0711,0.06854,-0.1016
8,1.4425,0.07313,0.07058,-0.1039
8.1,1.4432,0.07508,0.07253,-0.1061
8.2,1.4448,0.07692,0.07438,-0.1081
8.3,1.4473,0.07867,0.07613,-0.11
8.4,1.4465,0.08082,0.07827,-0.1125
8.5,1.4443,0.08316,0.08062,-0.1153
8.6,1.4441,0.08528,0.08275,-0.1177
8.7,1.4451,0.08728,0.08475,-0.1199
8.8,1.4469,0.08918,0.08665,-0.122
8.9,1.4494,0.09099,0.08847,-0.1239
9,1.4525,0.09274,0.09022,-0.1257
9.1,1.4561,0.09441,0.0919,-0.1273
9.2,1.4614,0.09586,0.09335,-0.1286
9.3,1.4653,0.09749,0.09498,-0.1302
9.4,1.4643,0.09983,0.09732,-0.1329
9.5,1.4656,0.10187,0.09937,-0.135
9.6,1.4679,0.10378,0.10129,-0.137
9.7,1.4708,0.10561,0.10312,-0.1388
9.8,1.4742,0.10737,0.10488,-0.1405
9.9,1.4779,0.10907,0.10659,-0.1421
10,1.482,0.11072,0.10825,-0.1436
10.1,1.4864,0.11233,0.10987,-0.145
10.2,1.491,0.1139,0.11144,-0.1464
10.3,1.4959,0.11542,0.11297,-0.1477
10.4,1.5009,0.1169,0.11445,-0.149
10.5,1.5002,0.11947,0.11702,-0.1517
10.6,1.5028,0.12141,0.11897,-0.1536
10.7,1.506,0.12326,0.12082,-0.1553
10.8,1.5096,0.12503,0.12261,-0.1569
10.9,1.5135,0.12676,0.12434,-0.1584
11,1.5176,0.12845,0.12603,-0.1599
11.1,1.5219,0.13009,0.12768,-0.1613
11.2,1.5265,0.13169,0.12929,-0.1627
11.3,1.5311,0.13326,0.13086,-0.164
11.4,1.536,0.13479,0.1324,-0.1652
11.5,1.5409,0.13629,0.1339,-0.1665
11.6,1.5447,0.13808,0.13568,-0.168
11.7,1.5466,0.14035,0.13796,-0.1702
11.8,1.5496,0.14239,0.14001,-0.172
11.9,1.5528,0.14446,0.14209,-0.1739
12,1.5568,0.14628,0.14392,-0.1755
12.1,1.561,0.14806,0.1457,-0.177
12.2,1.5654,0.1498,0.14745,-0.1785
12.3,1.5699,0.15151,0.14917,-0.1799
12.4,1.5746,0.15319,0.15085,-0.1813
12.5,1.5794,0.15484,0.15251,-0.1827
12.6,1.5843,0.15647,0.15414,-0.184
12.7,1.5893,0.15806,0.15575,-0.1853
12.8,1.5943,0.15964,0.15733,-0.1865
12.9,1.5976,0.16184,0.15952,-0.1885
13,1.6007,0.16416,0.16185,-0.1905
13.1,1.6045,0.16629,0.16399,-0.1923
13.2,1.6086,0.16834,0.16605,-0.194
13.3,1.6127,0.17044,0.16816,-0.1958
13.4,1.6173,0.17237,0.17009,-0.1974
13.5,1.6221,0.17427,0.172,-0.199
13.6,1.6269,0.17616,0.17389,-0.2005
13.7,1.6319,0.17802,0.17576,-0.202
13.8,1.637,0.17987,0.17761,-0.2034
13.9,1.6421,0.18169,0.17945,-0.2049
14,1.6473,0.18351,0.18127,-0.2063
14.1,1.6526,0.1853,0.18307,-0.2077
14.2,1.658,0.18708,0.18485,-0.2091
14.3,1.6616,0.1897,0.18746,-0.2113
14.4,1.6656,0.19219,0.18997,-0.2133
14.5,1.6701,0.19451,0.1923,-0.2152
14.6,1.6748,0.19678,0.19457,-0.217
14.7,1.6796,0.19899,0.1968,-0.2188
14.8,1.6845,0.20118,0.199,-0.2205
14.9,1.6895,0.20343,0.20125,-0.2223
15,1.6947,0.20557,0.20339,-0.2239
15.1,1.7,0.20769,0.20552,-0.2256
15.2,1.7053,0.2098,0.20764,-0.2272
15.3,1.7106,0.21191,0.20975,-0.2288
15.4,1.716,0.214,0.21185,-0.2304
15.5,1.7214,0.21608,0.21394,-0.232
15.6,1.7269,0.21816,0.21602,-0.2335
15.7,1.7324,0.22024,0.21811,-0.2351
15.8,1.738,0.2223,0.22018,-0.2366
15.9,1.7426,0.22498,0.22286,-0.2387
16,1.7472,0.22781,0.2257,-0.2409
16.1,1.7521,0.23044,0.22834,-0.2429
16.2,1.7572,0.233,0.2309,-0.2448
16.3,1.7624,0.23551,0.23342,-0.2467
16.4,1.7677,0.23799,0.23591,-0.2485
16.5,1.7731,0.24047,0.23839,-0.2503
16.6,1.7785,0.24293,0.24086,-0.2521
16.7,1.784,0.2455,0.24344,-0.254
16.8,1.7895,0.24795,0.2459,-0.2558
16.9,1.7951,0.25039,0.24835,-0.2576
17,1.8007,0.25284,0.25081,-0.2593
17.1,1.8064,0.25528,0.25327,-0.2611
17.2,1.8121,0.25772,0.25571,-0.2629
17.3,1.8179,0.26017,0.25817,-0.2646
17.4,1.8236,0.26261,0.26062,-0.2663
17.5,1.8295,0.26505,0.26307,-0.2681
17.6,1.8354,0.26748,0.26551,-0.2698
17.7,1.8413,0.2699,0.26794,-0.2715
17.8,1.846,0.27348,0.27152,-0.274
17.9,1.8512,0.2767,0.27475,-0.2763
18,1.8567,0.27977,0.27783,-0.2785
18.1,1.8621,0.28308,0.28115,-0.2808
18.2,1.8677,0.28605,0.28413,-0.2828
18.3,1.8735,0.28899,0.28708,-0.2848
18.4,1.8793,0.2919,0.29,-0.2868
18.5,1.8851,0.29478,0.2929,-0.2888
18.6,1.8911,0.29764,0.29576,-0.2907
18.7,1.8968,0.30092,0.29904,-0.2929
18.8,1.9015,0.30538,0.30351,-0.2959
18.9,1.9071,0.30886,0.307,-0.2982
19,1.9129,0.31235,0.31049,-0.3005
19.1,1.9189,0.31549,0.31365,-0.3026
19.2,1.9243,0.31927,0.31743,-0.3051
19.3,1.9296,0.32316,0.32133,-0.3076
19.4,1.9351,0.32681,0.32498,-0.31
19.5,1.9408,0.33033,0.32851,-0.3123
19.6,1.9466,0.33379,0.33198,-0.3145
19.7,1.9524,0.33721,0.3354,-0.3167
19.8,1.9583,0.3406,0.3388,-0.3189
19.9,1.9638,0.34447,0.34266,-0.3213
20,1.9693,0.34831,0.34651,-0.3238
20.1,1.9749,0.35209,0.35029,-0.3262
20.2,1.9806,0.35614,0.35434,-0.3287
20.3,1.9863,0.3598,0.35801,-0.331
20.4,1.9921,0.36347,0.36168,-0.3333
20.5,1.9979,0.36713,0.36535,-0.3356
20.6,2.0038,0.37081,0.36903,-0.3379
20.7,2.0093,0.37492,0.37314,-0.3404
20.8,2.0149,0.37897,0.37719,-0.3429
20.9,2.0206,0.38293,0.38116,-0.3453
21,2.0264,0.38688,0.38511,-0.3477
21.1,2.0321,0.39088,0.38911,-0.3502
21.2,2.0378,0.39485,0.39309,-0.3526

