airfoilName st11.dat
Re 	770000
M 	7.000000e-01
N 	4.500000e+00
VACC 	0 VACCflag 1
XTR 	1.00 	1.00 XTRflag 0
alpha,cl,cd,cdp,cm
-22.8,-1.658,0.49312,0.49097,0.2628
-22.7,-1.6504,0.48805,0.4859,0.2599
-22.6,-1.6433,0.48327,0.48111,0.2573
-22.5,-1.6363,0.47862,0.47646,0.2547
-22.4,-1.6293,0.474,0.47184,0.2521
-22.3,-1.6223,0.4694,0.46725,0.2495
-22.2,-1.6153,0.46485,0.46269,0.247
-22.1,-1.6082,0.46034,0.45818,0.2444
-22,-1.6012,0.45586,0.4537,0.2419
-21.9,-1.5941,0.45143,0.44928,0.2394
-21.8,-1.5871,0.44702,0.44486,0.2368
-21.7,-1.58,0.44267,0.44051,0.2343
-21.6,-1.5729,0.43829,0.43614,0.2318
-21.5,-1.5658,0.43396,0.4318,0.2293
-21.4,-1.5582,0.42882,0.42666,0.2265
-21.3,-1.5511,0.42454,0.42238,0.224
-21.2,-1.5439,0.42033,0.41818,0.2215
-21.1,-1.5368,0.4161,0.41393,0.2191
-21,-1.5296,0.41191,0.40975,0.2166
-20.9,-1.5224,0.4077,0.40554,0.2141
-20.8,-1.5152,0.40353,0.40137,0.2116
-20.7,-1.508,0.39934,0.39718,0.2091
-20.4,-1.4853,0.38514,0.38299,0.2008
-20.3,-1.4782,0.3815,0.37935,0.1985
-20.2,-1.4712,0.37788,0.37573,0.1963
-20.1,-1.4642,0.3743,0.37215,0.194
-20,-1.4571,0.37074,0.36859,0.1918
-19.9,-1.4501,0.36722,0.36507,0.1896
-19.8,-1.443,0.36373,0.36158,0.1874
-19.7,-1.4359,0.36025,0.35811,0.1852
-19.6,-1.4289,0.35682,0.35467,0.183
-19.5,-1.4219,0.35341,0.35126,0.1808
-19.4,-1.4148,0.35004,0.34789,0.1786
-19.3,-1.4078,0.34668,0.34453,0.1765
-19.2,-1.4007,0.34336,0.34122,0.1744
-19.1,-1.3937,0.34006,0.33792,0.1722
-19,-1.3866,0.33679,0.33465,0.1701
-18.9,-1.3796,0.33356,0.33142,0.168
-18.8,-1.3726,0.33035,0.32821,0.1659
-18.7,-1.3655,0.32715,0.32502,0.1639
-18.6,-1.3585,0.324,0.32186,0.1618
-18.5,-1.3515,0.32086,0.31872,0.1598
-18.4,-1.3445,0.31776,0.31562,0.1577
-18.3,-1.3374,0.31467,0.31253,0.1557
-18.2,-1.3304,0.31162,0.30948,0.1537
-18.1,-1.3234,0.30859,0.30645,0.1517
-18,-1.3164,0.30558,0.30344,0.1497
-17.9,-1.3094,0.3026,0.30046,0.1477
-17.8,-1.3024,0.29964,0.29751,0.1458
-17.7,-1.2954,0.29671,0.29458,0.1438
-17.6,-1.2885,0.2938,0.29167,0.1419
-17.5,-1.2815,0.29091,0.28878,0.14
-17.4,-1.2745,0.28805,0.28592,0.138
-17.3,-1.2676,0.28522,0.28309,0.1361
-17.2,-1.2606,0.2824,0.28027,0.1343
-17.1,-1.2537,0.27961,0.27748,0.1324
-17,-1.2467,0.27683,0.27471,0.1305
-16.9,-1.2398,0.27408,0.27195,0.1287
-16.8,-1.2328,0.27134,0.26922,0.1268
-16.7,-1.2259,0.26862,0.2665,0.125
-16.6,-1.2189,0.26592,0.2638,0.1232
-16.5,-1.212,0.26323,0.26112,0.1213
-16.4,-1.205,0.26061,0.2585,0.1195
-16.3,-1.1981,0.25796,0.25584,0.1177
-16.2,-1.1911,0.25534,0.25323,0.1159
-16.1,-1.1842,0.25272,0.25062,0.1141
-16,-1.1773,0.25013,0.24802,0.1124
-15.9,-1.1704,0.24756,0.24545,0.1106
-15.8,-1.1635,0.24501,0.2429,0.1089
-15.7,-1.1566,0.24247,0.24036,0.1071
-15.6,-1.1497,0.23996,0.23785,0.1054
-15.5,-1.1428,0.23746,0.23536,0.1037
-15.4,-1.136,0.23499,0.23288,0.102
-15.3,-1.1291,0.23252,0.23042,0.1004
-15.2,-1.1223,0.23008,0.22798,0.0987
-15.1,-1.1154,0.22765,0.22555,0.097
-15,-1.1086,0.22524,0.22315,0.0954
-14.9,-1.1018,0.22285,0.22076,0.0938
-14.8,-1.095,0.22048,0.21839,0.0921
-14.7,-1.0882,0.21813,0.21604,0.0905
-14.6,-1.0814,0.21578,0.2137,0.0889
-14.5,-1.0746,0.21346,0.21138,0.0873
-14.4,-1.0679,0.21116,0.20908,0.0857
-14.3,-1.0611,0.20887,0.20679,0.0842
-14.2,-1.0543,0.20659,0.20451,0.0826
-14.1,-1.0476,0.20433,0.20225,0.081
-14,-1.0408,0.20207,0.2,0.0795
-13.9,-1.034,0.19983,0.19776,0.0779
-13.8,-1.0273,0.1976,0.19553,0.0764
-13.7,-1.0204,0.19537,0.19331,0.0748
-13.6,-1.0136,0.19315,0.19109,0.0733
-13.5,-1.0068,0.19094,0.18888,0.0718
-13.4,-1,0.18874,0.18668,0.0703
-13.3,-0.9932,0.18656,0.18449,0.0687
-13.2,-0.9863,0.18437,0.18231,0.0672
-13.1,-0.9794,0.18219,0.18013,0.0657
-13,-0.9726,0.17999,0.17794,0.0642
-12.9,-0.9656,0.17781,0.17576,0.0627
-12.8,-0.9587,0.1756,0.17355,0.0612
-12.7,-0.9517,0.17335,0.17131,0.0597
-12.6,-0.9438,0.17055,0.16851,0.0579
-12.5,-0.9371,0.16856,0.16653,0.0565
-12.4,-0.9303,0.16658,0.16455,0.0551
-12.3,-0.9235,0.16462,0.16259,0.0538
-12.2,-0.9167,0.16267,0.16064,0.0524
-12.1,-0.9099,0.16072,0.1587,0.051
-12,-0.903,0.15879,0.15677,0.0496
-11.9,-0.8961,0.15687,0.15485,0.0482
-11.8,-0.8891,0.15494,0.15293,0.0468
-11.7,-0.8821,0.15303,0.15103,0.0455
-11.6,-0.8751,0.15113,0.14913,0.0441
-11.5,-0.868,0.14924,0.14725,0.0427
-11.4,-0.8609,0.14749,0.14549,0.0412
-11.3,-0.8537,0.14561,0.14362,0.0399
-11.2,-0.8466,0.14375,0.14176,0.0385
-11.1,-0.8394,0.1419,0.13992,0.0371
-11,-0.8322,0.14006,0.13808,0.0358
-10.9,-0.8249,0.13824,0.13627,0.0344
-10.8,-0.8177,0.13643,0.13446,0.0331
-10.7,-0.8104,0.13463,0.13266,0.0317
-10.6,-0.8032,0.13288,0.13092,0.0304
-10.5,-0.7957,0.1311,0.12914,0.029
-10.4,-0.7884,0.12935,0.12739,0.0277
-10.3,-0.7809,0.12761,0.12566,0.0263
-10.2,-0.7735,0.12588,0.12393,0.025
-10.1,-0.766,0.12417,0.12223,0.0237
-10,-0.7585,0.12247,0.12054,0.0223
-9.9,-0.751,0.12079,0.11886,0.021
-9.8,-0.7434,0.11912,0.11719,0.0196
-9.7,-0.7358,0.11747,0.11555,0.0183
-9.6,-0.7282,0.11583,0.11392,0.017
-9.5,-0.7206,0.11422,0.11231,0.0157
-9.4,-0.7129,0.11261,0.11071,0.0143
-9.3,-0.7052,0.11103,0.10914,0.013
-9.2,-0.6975,0.10945,0.10756,0.0117
-9.1,-0.6897,0.10789,0.10601,0.0104
-9,-0.6819,0.10634,0.10447,0.0091
-8.9,-0.6741,0.10481,0.10294,0.0077
-8.8,-0.6662,0.10329,0.10143,0.0064
-8.7,-0.6583,0.1018,0.09994,0.0051
-8.6,-0.6504,0.10031,0.09847,0.0038
-8.5,-0.6425,0.09885,0.09701,0.0025
-8.4,-0.6334,0.09732,0.09549,0.0008
-8.3,-0.6225,0.09567,0.09385,-0.0013
-8.2,-0.611,0.09399,0.09216,-0.0036
-8.1,-0.6001,0.09238,0.09055,-0.0057
-8,-0.5898,0.09083,0.089,-0.0076
-7.9,-0.5797,0.08932,0.08748,-0.0094
-7.8,-0.5706,0.08789,0.08604,-0.0109
-7.7,-0.5619,0.08651,0.08466,-0.0122
-7.6,-0.5541,0.0852,0.08333,-0.0132
-7.5,-0.546,0.08388,0.082,-0.0144
-7.4,-0.5381,0.08261,0.08071,-0.0154
-7.3,-0.5304,0.08135,0.07943,-0.0164
-7.2,-0.5223,0.08008,0.07815,-0.0175
-7.1,-0.5139,0.07881,0.07686,-0.0187
-7,-0.5054,0.07754,0.07557,-0.02
-6.9,-0.4971,0.07631,0.0743,-0.0211
-6.8,-0.4882,0.07504,0.07302,-0.0224
-6.7,-0.4791,0.07378,0.07174,-0.0238
-6.6,-0.4699,0.07252,0.07046,-0.0252
-6.5,-0.4605,0.07127,0.06918,-0.0267
-6.4,-0.4512,0.07003,0.06791,-0.0282
-6.3,-0.4414,0.06876,0.06662,-0.0298
-6.2,-0.4317,0.0675,0.06533,-0.0314
-6.1,-0.4216,0.06621,0.06403,-0.0331
-6,-0.4116,0.06491,0.0627,-0.0348
-5.9,-0.4015,0.06356,0.06133,-0.0366
-5.8,-0.3919,0.06232,0.06006,-0.0384
-5.7,-0.3792,0.06113,0.05885,-0.0408
-5.6,-0.3651,0.0599,0.05759,-0.0435
-5.5,-0.3507,0.05866,0.05632,-0.0463
-5.4,-0.3355,0.05739,0.05502,-0.0491
-5.3,-0.3203,0.05614,0.05373,-0.0519
-5.2,-0.3041,0.05484,0.05241,-0.0549
-4.9,-0.253,0.0509,0.04837,-0.0639
-4.8,-0.2348,0.04961,0.04704,-0.067
-4.7,-0.2164,0.04823,0.04563,-0.0701
-4.6,-0.1979,0.04685,0.0442,-0.0732
-4.5,-0.1786,0.04544,0.04274,-0.0763
-4.4,-0.1589,0.044,0.04126,-0.0794
-4.3,-0.139,0.04255,0.03976,-0.0825
-4.2,-0.1184,0.04106,0.03823,-0.0857
-4.1,-0.0976,0.03954,0.03665,-0.0888
-4,-0.0764,0.03799,0.03503,-0.0919
-3.9,-0.0555,0.03643,0.03337,-0.0948
-3.8,-0.0339,0.03474,0.03159,-0.0979
-3.7,-0.012,0.03293,0.02967,-0.101
-3.6,0.0097,0.03152,0.02817,-0.1035
-3.5,0.0314,0.03007,0.02663,-0.1059
-3.4,0.0526,0.02864,0.02507,-0.1081
-3.3,0.0742,0.02713,0.02344,-0.1102
-3.2,0.0959,0.02554,0.02172,-0.1123
-3,0.138,0.02218,0.01803,-0.1161
-2.9,0.1588,0.02028,0.01593,-0.1178
-2.6,0.218,0.01463,0.00943,-0.1219
-2.4,0.2574,0.01276,0.00702,-0.1223
-2.3,0.2769,0.01208,0.00609,-0.1222
-2.2,0.2966,0.01159,0.00539,-0.1219
-2.1,0.3157,0.01135,0.00499,-0.1215
-2,0.3348,0.01116,0.00466,-0.121
-1.9,0.3542,0.01098,0.00438,-0.1206
-1.8,0.3733,0.01087,0.00419,-0.1203
-1.7,0.3923,0.01078,0.00403,-0.1199
-1.6,0.411,0.01073,0.00389,-0.1195
-1.5,0.4293,0.0107,0.00378,-0.1191
-1.4,0.4479,0.01066,0.00369,-0.1188
-1.3,0.4661,0.01066,0.00364,-0.1185
-1.2,0.4843,0.01066,0.00358,-0.1181
-1.1,0.5025,0.01066,0.00352,-0.1178
-1,0.5207,0.01066,0.00349,-0.1175
-0.9,0.5387,0.01068,0.00346,-0.1172
-0.8,0.5559,0.01075,0.00347,-0.1168
-0.7,0.5736,0.01079,0.00347,-0.1165
-0.6,0.591,0.01086,0.00348,-0.1162
-0.5,0.6083,0.01093,0.0035,-0.1158
-0.4,0.6253,0.01102,0.00354,-0.1155
-0.3,0.642,0.01114,0.00359,-0.1151
-0.2,0.6584,0.01127,0.00365,-0.1147
-0.1,0.6746,0.01143,0.00375,-0.1143
0,0.69,0.01166,0.00387,-0.1138
0.1,0.7069,0.01176,0.00394,-0.1135
0.2,0.7242,0.01186,0.00402,-0.1132
0.3,0.7416,0.01194,0.00408,-0.1129
0.4,0.759,0.01203,0.00416,-0.1126
0.5,0.7766,0.01209,0.00423,-0.1124
0.6,0.7941,0.01218,0.00431,-0.1121
0.7,0.8116,0.01226,0.00439,-0.1118
0.8,0.8293,0.01232,0.00447,-0.1115
0.9,0.8467,0.01242,0.00456,-0.1112
1,0.8641,0.01251,0.00467,-0.1109
1.1,0.882,0.01257,0.00475,-0.1106
1.2,0.8998,0.01264,0.00483,-0.1103
1.3,0.9175,0.01271,0.00493,-0.1099
1.4,0.9351,0.0128,0.00503,-0.1096
1.5,0.9528,0.01289,0.00514,-0.1092
1.6,0.9707,0.01296,0.00523,-0.1089
1.7,0.9884,0.01305,0.00534,-0.1085
1.8,1.0062,0.01311,0.00545,-0.1081
1.9,1.0238,0.01321,0.00557,-0.1077
2,1.0418,0.01327,0.00569,-0.1073
2.1,1.0599,0.01332,0.00582,-0.107
2.5,1.1174,0.01223,0.00639,-0.1029
2.6,1.1355,0.01236,0.00653,-0.1024
2.7,1.1538,0.01249,0.00667,-0.1018
2.8,1.1719,0.01264,0.00682,-0.1012
2.9,1.1901,0.01279,0.00697,-0.1006
3,1.208,0.01294,0.00714,-0.0999
3.1,1.2261,0.01311,0.00731,-0.0992
3.2,1.2446,0.01325,0.00748,-0.0986
3.3,1.263,0.01341,0.00766,-0.0979
3.4,1.2815,0.01358,0.00784,-0.0971
3.5,1.2998,0.01375,0.00804,-0.0963
3.6,1.3182,0.01393,0.00824,-0.0955
3.7,1.3364,0.01412,0.00845,-0.0947
3.8,1.3549,0.01431,0.00867,-0.0938
3.9,1.3737,0.01449,0.0089,-0.0929
4,1.3924,0.0147,0.00914,-0.0919
4.1,1.4111,0.01492,0.0094,-0.091
4.2,1.4297,0.01515,0.00968,-0.0899
4.3,1.4481,0.0154,0.00997,-0.0889
4.4,1.4665,0.01566,0.01029,-0.0877
4.5,1.4853,0.01596,0.01066,-0.0866
4.6,1.5037,0.01629,0.01108,-0.0854
4.7,1.5215,0.01666,0.01154,-0.0841
4.8,1.5385,0.01708,0.01206,-0.0828
4.9,1.5544,0.01754,0.01263,-0.0813
5,1.5687,0.01806,0.01326,-0.0797
5.1,1.5809,0.01864,0.01396,-0.0779
5.2,1.591,0.01926,0.0147,-0.076
5.3,1.5981,0.01997,0.01555,-0.0739
5.4,1.6018,0.02075,0.01648,-0.0716
5.5,1.6014,0.02153,0.01738,-0.0689
5.6,1.5989,0.02235,0.01832,-0.0662
5.7,1.5956,0.02326,0.01935,-0.0637
5.8,1.5919,0.02425,0.02046,-0.0616
5.9,1.5875,0.02533,0.02166,-0.0597
6,1.5828,0.02652,0.02297,-0.0583
6.1,1.5777,0.0278,0.02436,-0.0573
6.2,1.5724,0.0292,0.02587,-0.0568
6.3,1.567,0.03073,0.0275,-0.0568
6.5,1.5535,0.03435,0.03133,-0.0585
6.7,1.5364,0.03882,0.03599,-0.0628
7.1,1.5049,0.04918,0.04664,-0.0756
7.3,1.4932,0.05428,0.05181,-0.0817
7.6,1.4696,0.06249,0.0601,-0.0912
7.7,1.4645,0.06498,0.06261,-0.0941
7.9,1.4588,0.06956,0.06719,-0.0995
8,1.4591,0.07152,0.06916,-0.1016
8.1,1.4598,0.07347,0.07111,-0.1038
8.2,1.4614,0.0753,0.07295,-0.1058
8.3,1.4574,0.07777,0.07541,-0.1089
8.4,1.455,0.08007,0.07773,-0.1116
8.5,1.4543,0.08222,0.07988,-0.1141
8.6,1.4547,0.08426,0.08192,-0.1164
8.7,1.456,0.08619,0.08386,-0.1185
8.8,1.458,0.08805,0.08572,-0.1205
8.9,1.4608,0.08983,0.0875,-0.1224
9,1.464,0.09154,0.08922,-0.1241
9.1,1.4678,0.09319,0.09087,-0.1257
9.2,1.4696,0.09511,0.09279,-0.1278
9.3,1.4695,0.09729,0.09498,-0.1302
9.4,1.4707,0.0993,0.09699,-0.1324
9.5,1.4728,0.10121,0.0989,-0.1343
9.6,1.4756,0.10304,0.10074,-0.1362
9.7,1.4788,0.1048,0.10251,-0.1379
9.8,1.4825,0.10652,0.10422,-0.1395
9.9,1.4865,0.10818,0.10589,-0.1411
10,1.4908,0.10979,0.10751,-0.1425
10.1,1.4954,0.11136,0.10908,-0.1439
10.2,1.5002,0.11288,0.11062,-0.1453
10.3,1.5021,0.11489,0.11262,-0.1473
10.4,1.5023,0.11724,0.11497,-0.1497
10.5,1.5051,0.11915,0.11689,-0.1515
10.6,1.5084,0.12097,0.11872,-0.1532
10.7,1.512,0.12274,0.12049,-0.1548
10.8,1.5159,0.12445,0.12221,-0.1564
10.9,1.52,0.12612,0.12389,-0.1578
11,1.5243,0.12776,0.12553,-0.1592
11.1,1.5289,0.12935,0.12712,-0.1606
11.2,1.5336,0.1309,0.12868,-0.1619
11.3,1.5384,0.13243,0.13021,-0.1632
11.4,1.5425,0.13408,0.13186,-0.1646
11.5,1.5439,0.13642,0.1342,-0.1668
11.6,1.5467,0.13844,0.13624,-0.1687
11.7,1.55,0.14038,0.13818,-0.1704
11.8,1.5534,0.14233,0.14013,-0.1722
11.9,1.5575,0.14411,0.14193,-0.1737
12,1.5617,0.14587,0.14369,-0.1752
12.1,1.5661,0.14758,0.14541,-0.1767
12.2,1.5707,0.14927,0.1471,-0.1781
12.3,1.5754,0.15093,0.14877,-0.1795
12.4,1.5802,0.15256,0.1504,-0.1808
12.5,1.5852,0.15415,0.15201,-0.1821
12.6,1.5902,0.15572,0.15358,-0.1834
12.7,1.5932,0.15791,0.15576,-0.1853
12.8,1.5961,0.16019,0.15805,-0.1874
12.9,1.5997,0.16229,0.16016,-0.1892
13,1.6036,0.16432,0.16219,-0.1909
13.1,1.6078,0.16629,0.16418,-0.1925
13.2,1.6121,0.16828,0.16617,-0.1942
13.3,1.6167,0.17017,0.16806,-0.1958
13.4,1.6215,0.17203,0.16993,-0.1973
13.5,1.6263,0.17388,0.17178,-0.1988
13.6,1.6313,0.1757,0.17361,-0.2002
13.7,1.6364,0.17751,0.17543,-0.2017
13.8,1.6415,0.1793,0.17723,-0.2031
13.9,1.6468,0.18107,0.179,-0.2045
14,1.6521,0.18283,0.18076,-0.2059
14.1,1.6551,0.1856,0.18353,-0.2083
14.2,1.659,0.18801,0.18595,-0.2102
14.3,1.6634,0.19027,0.18822,-0.2121
14.4,1.668,0.1925,0.19045,-0.2138
14.5,1.6728,0.19467,0.19263,-0.2156
14.6,1.6776,0.19683,0.19481,-0.2173
14.8,1.6877,0.20111,0.19909,-0.2207
14.9,1.6929,0.2032,0.20119,-0.2223
15,1.6982,0.20529,0.20328,-0.2239
15.1,1.7035,0.20736,0.20536,-0.2255
15.2,1.7089,0.20943,0.20744,-0.2271
15.3,1.7143,0.21148,0.2095,-0.2286
15.4,1.7198,0.21352,0.21154,-0.2302
15.5,1.7252,0.21556,0.21359,-0.2317
15.6,1.73,0.21805,0.21607,-0.2337
15.7,1.7343,0.22087,0.21891,-0.2358
15.8,1.739,0.22349,0.22153,-0.2379
15.9,1.7439,0.226,0.22404,-0.2398
16,1.749,0.22846,0.22652,-0.2416
16.1,1.7542,0.23091,0.22897,-0.2434
16.2,1.7595,0.23333,0.2314,-0.2453
16.3,1.7648,0.23576,0.23383,-0.2471
16.4,1.7701,0.23817,0.23625,-0.2488
16.5,1.7756,0.24058,0.23867,-0.2506
16.6,1.7811,0.24303,0.24113,-0.2524
16.7,1.7867,0.24543,0.24354,-0.2542
16.8,1.7922,0.24783,0.24595,-0.2559
16.9,1.7979,0.25022,0.24835,-0.2576
17,1.8035,0.25262,0.25076,-0.2594
17.1,1.8093,0.25502,0.25317,-0.2611
17.2,1.815,0.25742,0.25557,-0.2628
17.3,1.8208,0.25981,0.25797,-0.2645
17.4,1.8266,0.2622,0.26037,-0.2662
17.5,1.8319,0.26511,0.26328,-0.2683
17.6,1.8368,0.2684,0.26658,-0.2707
17.7,1.842,0.27144,0.26963,-0.2728
17.8,1.8474,0.27439,0.27259,-0.2749
17.9,1.8529,0.2773,0.27551,-0.2769
18,1.8585,0.28036,0.27858,-0.279
18.1,1.8642,0.28323,0.28146,-0.281
18.2,1.8699,0.28608,0.28432,-0.283
18.3,1.8758,0.28892,0.28717,-0.2849
18.4,1.8817,0.29174,0.28999,-0.2868
18.5,1.8876,0.29453,0.29279,-0.2887
18.6,1.8937,0.29729,0.29556,-0.2906
18.7,1.8977,0.30265,0.30092,-0.2942
18.8,1.9033,0.30591,0.30419,-0.2964
18.9,1.9092,0.30907,0.30736,-0.2985
19,1.9152,0.31214,0.31043,-0.3005
19.1,1.9201,0.31623,0.31453,-0.3032
19.2,1.9255,0.31995,0.31826,-0.3057
19.3,1.9311,0.32348,0.3218,-0.308
19.4,1.9368,0.32694,0.32526,-0.3102
19.5,1.9426,0.33032,0.32864,-0.3124
19.6,1.9485,0.33366,0.33199,-0.3146
19.7,1.9539,0.33745,0.33578,-0.317
19.8,1.9593,0.34126,0.33959,-0.3195
19.9,1.9649,0.34499,0.34333,-0.3219
20,1.9706,0.34888,0.34723,-0.3243
20.1,1.9763,0.35249,0.35084,-0.3266
20.2,1.9821,0.3561,0.35445,-0.3288
20.3,1.9879,0.3597,0.35805,-0.3311
20.4,1.9935,0.3636,0.36195,-0.3336
20.5,1.999,0.36756,0.36591,-0.336
20.6,2.0047,0.37146,0.36982,-0.3384
20.7,2.0104,0.37535,0.37371,-0.3409
20.8,2.0161,0.37926,0.37763,-0.3433
20.9,2.0218,0.38314,0.38151,-0.3456
21,2.0275,0.38704,0.38541,-0.348
21.1,2.0333,0.39096,0.38933,-0.3504
21.2,2.0391,0.3949,0.39328,-0.3528

