airfoilName st12.dat
Re 	8.700000e+05
M 	7.000000e-01
N 	4.500000e+00
VACC 	0 VACCflag 1
XTR 	1.00 	1.00 XTRflag 0
alpha,cl,cd,cdp,cm
-24.5,-1.7342,0.57452,0.57254,0.3028
-24.4,-1.7268,0.56894,0.56695,0.2996
-24.3,-1.7174,0.5613,0.5593,0.2957
-24.2,-1.7105,0.55568,0.55368,0.2929
-24.1,-1.7036,0.55023,0.54824,0.2901
-24,-1.6968,0.54492,0.54292,0.2873
-23.9,-1.69,0.53968,0.53767,0.2845
-23.8,-1.6831,0.53442,0.53242,0.2818
-23.7,-1.6762,0.52915,0.52715,0.279
-23.6,-1.6694,0.52402,0.52202,0.2762
-23.5,-1.6624,0.51885,0.51685,0.2735
-23.4,-1.6555,0.51373,0.51172,0.2707
-23.1,-1.6344,0.49568,0.49368,0.2614
-23,-1.6277,0.49121,0.48921,0.2588
-22.9,-1.6209,0.48673,0.48473,0.2563
-22.8,-1.6141,0.48233,0.48033,0.2537
-22.7,-1.6073,0.47795,0.47595,0.2512
-22.6,-1.6005,0.4736,0.4716,0.2487
-22.5,-1.5936,0.46929,0.46729,0.2461
-22.4,-1.5868,0.46502,0.46302,0.2436
-22.3,-1.58,0.46078,0.45878,0.2411
-22.2,-1.5731,0.45657,0.45457,0.2386
-22.1,-1.5663,0.45241,0.45041,0.2362
-22,-1.5594,0.44827,0.44628,0.2337
-21.9,-1.5526,0.44419,0.44219,0.2313
-21.8,-1.5457,0.44012,0.43812,0.2288
-21.7,-1.5388,0.4361,0.4341,0.2264
-21.6,-1.5319,0.43211,0.43011,0.224
-21.5,-1.525,0.42815,0.42614,0.2216
-21.4,-1.5182,0.42423,0.42222,0.2192
-21.3,-1.5112,0.42034,0.41833,0.2168
-21.2,-1.5043,0.41646,0.41446,0.2145
-21.1,-1.4974,0.41265,0.41065,0.2121
-21,-1.4905,0.40886,0.40685,0.2098
-20.9,-1.4836,0.40509,0.40309,0.2075
-20.8,-1.4767,0.40136,0.39935,0.2051
-20.7,-1.4698,0.39765,0.39565,0.2028
-20.6,-1.4628,0.39397,0.39197,0.2005
-20.5,-1.4559,0.39034,0.38834,0.1983
-20.4,-1.449,0.38672,0.38472,0.196
-20.3,-1.442,0.38314,0.38114,0.1937
-20.2,-1.4351,0.37957,0.37758,0.1915
-20.1,-1.4281,0.37605,0.37405,0.1893
-20,-1.4212,0.37254,0.37055,0.187
-19.9,-1.4142,0.36908,0.36709,0.1848
-19.8,-1.4073,0.36563,0.36364,0.1826
-19.7,-1.4003,0.36221,0.36022,0.1805
-19.6,-1.3934,0.35882,0.35683,0.1783
-19.5,-1.3864,0.35545,0.35346,0.1761
-19.4,-1.3795,0.3521,0.35011,0.174
-19.3,-1.3725,0.3488,0.3468,0.1718
-19.2,-1.3656,0.34551,0.34351,0.1697
-19.1,-1.3586,0.34225,0.34026,0.1676
-19,-1.3517,0.339,0.33701,0.1655
-18.9,-1.3447,0.3358,0.33381,0.1633
-18.8,-1.3377,0.33261,0.33061,0.1612
-18.7,-1.3308,0.32944,0.32744,0.1592
-18.6,-1.3238,0.32628,0.32429,0.1571
-18.5,-1.3169,0.32316,0.32117,0.155
-18.4,-1.3099,0.32006,0.31807,0.153
-18.3,-1.303,0.31699,0.31501,0.151
-18.2,-1.2961,0.31393,0.31195,0.149
-18.1,-1.2891,0.3109,0.30891,0.147
-18,-1.2822,0.3079,0.30591,0.145
-17.9,-1.2753,0.30491,0.30292,0.143
-17.8,-1.2684,0.30195,0.29996,0.141
-17.7,-1.2615,0.29901,0.29703,0.1391
-17.6,-1.2546,0.29609,0.29411,0.1371
-17.5,-1.2477,0.29319,0.29121,0.1352
-17.4,-1.2408,0.29032,0.28834,0.1333
-17.3,-1.2339,0.28746,0.28549,0.1314
-17.2,-1.227,0.28463,0.28266,0.1295
-17.1,-1.2201,0.28181,0.27984,0.1276
-17,-1.2132,0.27901,0.27704,0.1257
-16.9,-1.2063,0.27623,0.27426,0.1238
-16.8,-1.1994,0.27346,0.27149,0.1219
-16.7,-1.1925,0.2707,0.26873,0.1201
-16.6,-1.1856,0.26797,0.266,0.1182
-16.5,-1.1787,0.26524,0.26327,0.1163
-16.4,-1.1718,0.26254,0.26057,0.1145
-16.3,-1.1649,0.25985,0.25788,0.1127
-16.2,-1.158,0.25716,0.25519,0.1108
-16.1,-1.1511,0.2545,0.25254,0.109
-16,-1.1442,0.25184,0.24987,0.1072
-15.9,-1.1373,0.24918,0.24721,0.1053
-15.8,-1.1304,0.24652,0.24455,0.1035
-15.5,-1.1085,0.23776,0.23581,0.0978
-15.4,-1.1018,0.23533,0.23338,0.0962
-15.3,-1.0952,0.23292,0.23097,0.0945
-15.2,-1.0885,0.23054,0.22859,0.0929
-15.1,-1.0818,0.22816,0.22621,0.0913
-15,-1.0752,0.22581,0.22386,0.0898
-14.9,-1.0686,0.22348,0.22153,0.0882
-14.8,-1.0619,0.22116,0.21921,0.0866
-14.7,-1.0553,0.21886,0.21692,0.085
-14.6,-1.0487,0.21657,0.21464,0.0835
-14.5,-1.0421,0.21431,0.21237,0.082
-14.4,-1.0355,0.21206,0.21012,0.0804
-14.3,-1.0289,0.20982,0.20789,0.0789
-14.2,-1.0223,0.2076,0.20567,0.0774
-14,-1.0091,0.20333,0.2014,0.0743
-13.9,-1.0024,0.20112,0.19919,0.0728
-13.8,-0.9957,0.19892,0.197,0.0713
-13.7,-0.989,0.19674,0.19482,0.0698
-13.6,-0.9823,0.19457,0.19265,0.0684
-13.5,-0.9755,0.19242,0.1905,0.0669
-13.4,-0.9688,0.19027,0.18835,0.0654
-13.3,-0.9621,0.18814,0.18623,0.064
-13.2,-0.9553,0.18602,0.18411,0.0625
-13.1,-0.9486,0.18391,0.18201,0.0611
-13,-0.9418,0.18182,0.17991,0.0596
-12.9,-0.935,0.17974,0.17783,0.0582
-12.8,-0.9283,0.17767,0.17577,0.0568
-12.7,-0.9215,0.17561,0.17371,0.0554
-12.6,-0.9147,0.17357,0.17168,0.054
-12.5,-0.9078,0.17153,0.16964,0.0525
-12.4,-0.901,0.16952,0.16763,0.0511
-12.3,-0.8941,0.16751,0.16562,0.0497
-12.2,-0.8872,0.16551,0.16363,0.0484
-12.1,-0.8803,0.16353,0.16165,0.047
-12,-0.8734,0.16155,0.15967,0.0456
-11.9,-0.8664,0.15958,0.15771,0.0442
-11.8,-0.8594,0.15763,0.15575,0.0428
-11.7,-0.8524,0.15569,0.15382,0.0414
-11.6,-0.8453,0.15376,0.15189,0.04
-11.5,-0.8383,0.15184,0.14998,0.0387
-11.4,-0.8312,0.14994,0.14808,0.0373
-11.3,-0.8241,0.14805,0.1462,0.036
-11.2,-0.817,0.14618,0.14433,0.0346
-11.1,-0.8099,0.14432,0.14247,0.0333
-11,-0.8028,0.14247,0.14062,0.0319
-10.9,-0.7956,0.14064,0.1388,0.0306
-10.8,-0.7885,0.13882,0.13698,0.0292
-10.7,-0.7813,0.13702,0.13518,0.0279
-10.6,-0.7741,0.13523,0.1334,0.0266
-10.5,-0.7668,0.13345,0.13162,0.0252
-10.4,-0.7596,0.13168,0.12986,0.0239
-10.3,-0.7522,0.12993,0.12811,0.0226
-10.2,-0.7449,0.12818,0.12636,0.0213
-10.1,-0.7376,0.12645,0.12464,0.0199
-10,-0.7302,0.12474,0.12293,0.0186
-9.9,-0.7228,0.12304,0.12123,0.0173
-9.8,-0.7154,0.12135,0.11955,0.016
-9.7,-0.708,0.11968,0.11788,0.0147
-9.6,-0.7005,0.11802,0.11623,0.0134
-9.5,-0.6931,0.11637,0.11459,0.0121
-9.4,-0.6856,0.11474,0.11296,0.0108
-9.3,-0.6781,0.11311,0.11134,0.0095
-9.2,-0.6705,0.1115,0.10974,0.0082
-9.1,-0.6629,0.1099,0.10814,0.0069
-9,-0.6553,0.10831,0.10656,0.0056
-8.9,-0.6477,0.10674,0.10499,0.0044
-8.8,-0.6401,0.10517,0.10343,0.0031
-8.7,-0.6325,0.10362,0.10188,0.0018
-8.6,-0.6249,0.10207,0.10034,0.0006
-8.5,-0.6165,0.09979,0.09808,-0.0011
-8.4,-0.6057,0.09813,0.09641,-0.0033
-8.3,-0.5946,0.09645,0.09473,-0.0055
-8.2,-0.5843,0.09486,0.09314,-0.0075
-8.1,-0.5731,0.09322,0.0915,-0.0097
-8,-0.5633,0.09171,0.09,-0.0114
-7.9,-0.5532,0.0902,0.08847,-0.0132
-7.8,-0.5443,0.08879,0.08707,-0.0147
-7.7,-0.5358,0.08743,0.08569,-0.016
-7.6,-0.5276,0.08611,0.08437,-0.0172
-7.5,-0.5198,0.08482,0.08307,-0.0182
-7.4,-0.5123,0.08358,0.08181,-0.0192
-7.3,-0.5045,0.08234,0.08056,-0.0202
-7.2,-0.4964,0.08109,0.0793,-0.0213
-7.1,-0.4884,0.07987,0.07805,-0.0224
-7,-0.4805,0.07867,0.07683,-0.0235
-6.9,-0.4721,0.07746,0.0756,-0.0246
-6.8,-0.4634,0.07623,0.07436,-0.0259
-6.7,-0.4551,0.07506,0.07315,-0.027
-6.6,-0.446,0.07385,0.07192,-0.0284
-6.5,-0.437,0.07266,0.07071,-0.0297
-6.4,-0.4276,0.07146,0.0695,-0.0312
-6.3,-0.4185,0.0703,0.0683,-0.0325
-6.2,-0.4088,0.06912,0.0671,-0.034
-6.1,-0.3992,0.06795,0.06591,-0.0355
-6,-0.3894,0.06679,0.06473,-0.0371
-5.9,-0.3796,0.06566,0.06357,-0.0387
-5.8,-0.37,0.06458,0.06246,-0.0403
-5.7,-0.3573,0.06335,0.0612,-0.0427
-5.6,-0.344,0.0621,0.05993,-0.0451
-5.5,-0.33,0.06083,0.05863,-0.0478
-5.4,-0.3157,0.05956,0.05733,-0.0504
-5.3,-0.3008,0.05827,0.05603,-0.0531
-5.2,-0.2857,0.05699,0.05471,-0.0558
-5.1,-0.2701,0.05569,0.05338,-0.0585
-5,-0.2538,0.05437,0.05203,-0.0614
-4.9,-0.2373,0.05306,0.05068,-0.0643
-4.8,-0.22,0.0517,0.0493,-0.0672
-4.7,-0.2025,0.05035,0.04792,-0.0701
-4.6,-0.1848,0.04901,0.04653,-0.073
-4.5,-0.1662,0.04762,0.0451,-0.076
-4.4,-0.1474,0.04623,0.04366,-0.079
-4.3,-0.1281,0.0448,0.04219,-0.0821
-4.2,-0.1082,0.04334,0.0407,-0.0851
-4.1,-0.0882,0.04188,0.03918,-0.0881
-4,-0.0673,0.04033,0.03758,-0.0913
-3.8,-0.0257,0.03707,0.03414,-0.0974
-3.7,-0.0042,0.03574,0.03275,-0.1001
-3.6,0.0166,0.03445,0.03137,-0.1026
-3.5,0.0377,0.03315,0.02997,-0.1049
-3.4,0.0595,0.03178,0.02852,-0.1074
-3.3,0.0813,0.03038,0.02703,-0.1097
-3.2,0.1029,0.02897,0.02551,-0.1119
-3.1,0.1243,0.02752,0.02393,-0.1139
-3,0.1472,0.02558,0.02185,-0.1166
-2.9,0.1699,0.02352,0.01964,-0.1191
-2.8,0.1915,0.02184,0.0178,-0.121
-2.7,0.2125,0.02031,0.01613,-0.1225
-2.5,0.2526,0.01688,0.01225,-0.1253
-2.4,0.2718,0.01496,0.01003,-0.1266
-2.3,0.2914,0.01337,0.0081,-0.1276
-2.2,0.3108,0.01223,0.00664,-0.1279
-2.1,0.3302,0.01149,0.00564,-0.1279
-2,0.3497,0.01112,0.00509,-0.1276
-1.9,0.3688,0.01084,0.00466,-0.1272
-1.8,0.3876,0.01068,0.00436,-0.1267
-1.7,0.4063,0.01054,0.00411,-0.1263
-1.6,0.4251,0.01044,0.00393,-0.1259
-1.5,0.4436,0.01038,0.00378,-0.1255
-1.4,0.4621,0.01033,0.00367,-0.1251
-1.3,0.4806,0.01028,0.00357,-0.1248
-1.2,0.4986,0.01027,0.00349,-0.1244
-1,0.534,0.01032,0.00338,-0.1236
-0.9,0.5519,0.01033,0.00336,-0.1233
-0.8,0.5696,0.01035,0.00333,-0.1229
-0.7,0.5872,0.0104,0.00332,-0.1226
-0.6,0.6046,0.01044,0.00331,-0.1222
-0.5,0.6219,0.0105,0.00332,-0.1218
-0.4,0.6378,0.01066,0.00338,-0.1214
-0.3,0.6542,0.01078,0.00343,-0.1209
-0.2,0.6704,0.01093,0.0035,-0.1205
-0.1,0.6863,0.0111,0.00359,-0.12
0,0.7025,0.01125,0.00367,-0.1196
0.1,0.7192,0.01137,0.00374,-0.1193
0.2,0.7362,0.01146,0.00381,-0.1189
0.3,0.7534,0.01156,0.00388,-0.1186
0.4,0.7703,0.01166,0.00396,-0.1183
0.5,0.7876,0.01175,0.00404,-0.118
0.6,0.8051,0.01182,0.00409,-0.1176
0.7,0.8225,0.01188,0.00417,-0.1173
0.8,0.8398,0.01198,0.00425,-0.117
0.9,0.8574,0.01204,0.00432,-0.1167
1,0.875,0.01211,0.0044,-0.1164
1.1,0.8924,0.01218,0.00449,-0.116
1.2,0.9097,0.01227,0.00458,-0.1157
1.3,0.9272,0.01236,0.00467,-0.1153
1.4,0.9448,0.01243,0.00476,-0.1149
1.5,0.9623,0.01252,0.00485,-0.1145
1.6,0.9797,0.01261,0.00496,-0.1141
1.7,0.9973,0.01269,0.00507,-0.1137
1.8,1.015,0.01277,0.00516,-0.1133
1.9,1.0327,0.01286,0.00527,-0.1129
2,1.0503,0.01295,0.00538,-0.1124
2.1,1.0678,0.01304,0.0055,-0.112
2.2,1.0853,0.01314,0.00562,-0.1115
2.3,1.1031,0.01323,0.00575,-0.111
2.4,1.1209,0.01332,0.00587,-0.1104
2.5,1.1386,0.0134,0.006,-0.1099
2.6,1.1562,0.0135,0.00614,-0.1094
2.7,1.174,0.01358,0.0063,-0.1088
2.8,1.1797,0.01217,0.00654,-0.1067
2.9,1.1977,0.0123,0.00668,-0.106
3,1.2156,0.01245,0.00683,-0.1054
3.1,1.2336,0.01259,0.00699,-0.1047
3.2,1.2511,0.01276,0.00715,-0.1039
3.3,1.2691,0.01291,0.00732,-0.1031
3.4,1.2872,0.01306,0.00749,-0.1024
3.5,1.3053,0.01322,0.00767,-0.1015
3.6,1.3233,0.01339,0.00786,-0.1007
3.7,1.3414,0.01356,0.00805,-0.0998
3.8,1.3593,0.01374,0.00826,-0.0989
3.9,1.3771,0.01393,0.00848,-0.0979
4,1.3954,0.01412,0.0087,-0.0969
4.1,1.4136,0.01432,0.00894,-0.0958
4.2,1.4319,0.01453,0.0092,-0.0948
4.3,1.45,0.01474,0.00945,-0.0936
4.4,1.468,0.01497,0.00973,-0.0924
4.5,1.4858,0.01523,0.01003,-0.0912
4.6,1.5038,0.0155,0.01036,-0.0899
4.7,1.5219,0.01581,0.01075,-0.0886
4.8,1.5395,0.01616,0.01117,-0.0872
4.9,1.5565,0.01654,0.01165,-0.0858
5,1.5726,0.01698,0.0122,-0.0842
5.1,1.5875,0.01747,0.0128,-0.0825
5.2,1.6006,0.01803,0.01347,-0.0807
5.3,1.6116,0.01864,0.0142,-0.0787
5.4,1.6199,0.01931,0.015,-0.0766
5.5,1.6238,0.02008,0.01591,-0.0741
5.6,1.6238,0.02086,0.01682,-0.0713
5.7,1.6223,0.02172,0.0178,-0.0686
5.8,1.6199,0.02265,0.01887,-0.0661
5.9,1.617,0.02365,0.01999,-0.0639
6,1.613,0.02473,0.02119,-0.0619
6.1,1.6086,0.02592,0.0225,-0.0603
6.2,1.6034,0.0272,0.02389,-0.0591
6.3,1.598,0.02858,0.02538,-0.0582
6.4,1.5924,0.03009,0.02699,-0.0578
6.6,1.5801,0.03351,0.03062,-0.0586
6.8,1.5626,0.03781,0.03512,-0.0618
7,1.5458,0.04273,0.04021,-0.0671
7.3,1.5217,0.05081,0.04847,-0.0768
7.4,1.5156,0.05339,0.0511,-0.0797
7.7,1.4934,0.06158,0.05936,-0.0887
7.8,1.4859,0.0643,0.06211,-0.0918
8,1.4757,0.06936,0.06719,-0.0976
8.1,1.4727,0.07171,0.06954,-0.1002
8.2,1.4707,0.07393,0.07177,-0.1027
8.3,1.4699,0.07605,0.0739,-0.105
8.4,1.47,0.07808,0.07593,-0.1072
8.5,1.471,0.08002,0.07788,-0.1092
8.6,1.467,0.08256,0.08041,-0.1122
8.7,1.4649,0.08489,0.08275,-0.1149
8.8,1.4641,0.0871,0.08496,-0.1174
8.9,1.4643,0.0892,0.08707,-0.1196
9,1.4653,0.09121,0.08909,-0.1218
9.1,1.4671,0.09315,0.09102,-0.1238
9.2,1.4694,0.095,0.09288,-0.1256
9.3,1.4723,0.09679,0.09467,-0.1274
9.4,1.4757,0.09851,0.0964,-0.129
9.5,1.4795,0.10018,0.09807,-0.1305
9.6,1.4779,0.1026,0.10049,-0.1332
9.7,1.4775,0.10491,0.10281,-0.1357
9.8,1.4792,0.10693,0.10483,-0.1377
9.9,1.4816,0.10886,0.10677,-0.1396
10,1.4844,0.11073,0.10864,-0.1413
10.1,1.4876,0.11255,0.11046,-0.143
10.2,1.4912,0.11431,0.11223,-0.1446
10.3,1.4952,0.11602,0.11395,-0.1461
10.4,1.4994,0.11769,0.11562,-0.1476
10.5,1.5039,0.1193,0.11724,-0.1489
10.6,1.5062,0.12128,0.1192,-0.1508
10.7,1.5069,0.12353,0.12147,-0.153
10.8,1.5089,0.1256,0.12354,-0.155
10.9,1.5115,0.12758,0.12553,-0.1568
11,1.5145,0.1295,0.12746,-0.1585
11.1,1.518,0.13137,0.12933,-0.1601
11.2,1.5218,0.13316,0.13112,-0.1617
11.3,1.5258,0.13491,0.13289,-0.1632
11.4,1.5301,0.13662,0.1346,-0.1646
11.5,1.5345,0.13829,0.13627,-0.166
11.6,1.539,0.13992,0.13791,-0.1673
11.7,1.5438,0.14152,0.13951,-0.1686
11.8,1.546,0.14371,0.1417,-0.1706
11.9,1.5481,0.14595,0.14395,-0.1727
12,1.551,0.14804,0.14604,-0.1745
12.1,1.5544,0.15005,0.14806,-0.1763
12.2,1.558,0.152,0.15002,-0.1779
12.3,1.5618,0.15391,0.15193,-0.1795
12.4,1.5658,0.15578,0.15381,-0.1811
12.5,1.5703,0.15757,0.1556,-0.1826
12.6,1.5747,0.15935,0.15739,-0.184
12.7,1.5793,0.1611,0.15914,-0.1855
12.8,1.584,0.16282,0.16087,-0.1869
12.9,1.5888,0.16453,0.16258,-0.1882
13,1.5938,0.1662,0.16426,-0.1896
13.1,1.5966,0.1686,0.16666,-0.1917
13.2,1.5998,0.17096,0.16902,-0.1937
13.3,1.6034,0.17318,0.17125,-0.1955
13.4,1.6074,0.17533,0.1734,-0.1973
13.5,1.6116,0.17743,0.17551,-0.199
13.6,1.616,0.1795,0.17758,-0.2007
13.7,1.6205,0.18154,0.17964,-0.2023
13.8,1.6252,0.18357,0.18167,-0.2039
13.9,1.6299,0.18557,0.18368,-0.2055
14,1.635,0.18749,0.1856,-0.2071
14.1,1.64,0.18944,0.18755,-0.2086
14.2,1.6451,0.19136,0.18949,-0.2101
14.3,1.6503,0.19328,0.19141,-0.2116
14.4,1.6555,0.19519,0.19332,-0.2131
14.5,1.6605,0.19721,0.19534,-0.2147
14.6,1.664,0.20004,0.19818,-0.217
14.7,1.6682,0.20256,0.2007,-0.219
14.8,1.6727,0.20497,0.20312,-0.2209
14.9,1.6774,0.2073,0.20546,-0.2227
15,1.6822,0.20962,0.20779,-0.2245
15.1,1.6871,0.21191,0.21008,-0.2262
15.2,1.6921,0.21418,0.21235,-0.228
15.3,1.6972,0.21643,0.21461,-0.2297
15.4,1.7023,0.21868,0.21687,-0.2314
15.5,1.7075,0.22093,0.21912,-0.2331
15.6,1.7127,0.22317,0.22137,-0.2348
15.7,1.718,0.22541,0.22362,-0.2364
15.8,1.7236,0.22759,0.2258,-0.2381
15.9,1.729,0.2298,0.22802,-0.2397
16,1.7345,0.23201,0.23025,-0.2414
16.1,1.74,0.23422,0.23246,-0.243
16.2,1.7456,0.23643,0.23468,-0.2446
16.3,1.7512,0.23863,0.23688,-0.2462
16.4,1.7557,0.2417,0.23995,-0.2485
16.5,1.7605,0.24459,0.24285,-0.2507
16.6,1.7655,0.24735,0.24562,-0.2527
16.7,1.7707,0.25006,0.24834,-0.2546
16.8,1.776,0.25272,0.251,-0.2566
16.9,1.7814,0.25537,0.25366,-0.2585
17,1.7869,0.25799,0.25629,-0.2604
17.1,1.7924,0.26061,0.25892,-0.2622
17.2,1.7979,0.26324,0.26155,-0.2641
17.3,1.8036,0.26588,0.26421,-0.266
17.4,1.8093,0.26848,0.26681,-0.2678
17.5,1.8151,0.27106,0.2694,-0.2696
17.6,1.821,0.27361,0.27196,-0.2714
17.7,1.8269,0.27613,0.27449,-0.2731
17.8,1.8318,0.27955,0.27791,-0.2756
17.9,1.8368,0.28303,0.28141,-0.278
18,1.8418,0.28682,0.2852,-0.2806
18.2,1.8535,0.29281,0.29121,-0.2847
18.3,1.8587,0.29631,0.2947,-0.2871
18.4,1.8637,0.30006,0.29847,-0.2896
18.5,1.8692,0.30349,0.3019,-0.2919
18.6,1.8748,0.30679,0.30521,-0.2941
18.7,1.8805,0.31,0.30842,-0.2963
18.8,1.8863,0.31314,0.31157,-0.2983
18.9,1.8916,0.31675,0.31518,-0.3007
19,1.897,0.32041,0.31884,-0.3031
19.1,1.9025,0.32393,0.32237,-0.3055
19.2,1.9081,0.32742,0.32587,-0.3077
19.3,1.9137,0.33087,0.32932,-0.31
19.4,1.9194,0.33431,0.33276,-0.3122
19.5,1.9251,0.33775,0.33621,-0.3144
19.6,1.9308,0.34149,0.33994,-0.3168
19.7,1.9363,0.34528,0.34374,-0.3192
19.8,1.9419,0.349,0.34745,-0.3216
19.9,1.9476,0.35269,0.35115,-0.3239
20,1.9533,0.3564,0.35486,-0.3262
20.1,1.959,0.36007,0.35854,-0.3286
20.2,1.9647,0.36377,0.36224,-0.3309
20.3,1.9704,0.36748,0.36595,-0.3332
20.4,1.9762,0.37119,0.36967,-0.3355
20.5,1.982,0.37495,0.37342,-0.3378
20.6,1.9877,0.37869,0.37717,-0.3401
20.7,1.9935,0.38249,0.38096,-0.3425
20.8,1.9991,0.38655,0.38503,-0.345
20.9,2.0048,0.39055,0.38903,-0.3474
21,2.0105,0.39458,0.39306,-0.3498
21.1,2.0162,0.39861,0.39709,-0.3523
21.2,2.0219,0.40265,0.40115,-0.3547
21.3,2.0276,0.40671,0.40521,-0.3571
21.4,2.0334,0.4108,0.40929,-0.3596
21.5,2.0391,0.4149,0.41341,-0.362
21.6,2.0449,0.41919,0.41769,-0.3645
21.7,2.0506,0.42332,0.42183,-0.367
21.8,2.0564,0.42755,0.42606,-0.3694

