airfoilName st12.dat
Re 	10000
M 	7.000000e-01
N 	4.500000e+00
VACC 	0 VACCflag 1
XTR 	1.00 	1.00 XTRflag 0
alpha,cl,cd,cdp,cm
-7.4,-0.5658,0.1295,0.11164,-0.0196
-7.3,-0.5611,0.12805,0.11025,-0.0199
-7.2,-0.5564,0.12664,0.1089,-0.0202
-7.1,-0.5517,0.12527,0.1076,-0.0206
-7,-0.5471,0.12395,0.10635,-0.0209
-6.9,-0.5427,0.12268,0.10515,-0.0213
-6.3,-0.5164,0.11595,0.09883,-0.0241
-6.2,-0.5122,0.11503,0.09798,-0.0248
-6.1,-0.508,0.11419,0.09721,-0.0255
-6,-0.5037,0.11345,0.09654,-0.0264
-5.9,-0.4991,0.11289,0.09603,-0.0277
-4.8,-0.4562,0.09933,0.08333,-0.0286
-4.7,-0.4517,0.09827,0.08232,-0.029
-4.6,-0.4469,0.09725,0.08134,-0.0296
-3.9,-0.4094,0.08964,0.07417,-0.0334
-3.8,-0.4031,0.08846,0.07301,-0.0339
-3.7,-0.3961,0.08731,0.07189,-0.0346
-3.5,-0.3786,0.08522,0.06979,-0.0372
0,0.2528,0.04727,0.03007,-0.0996

