airfoilName st12.dat
Re 	1.500000e+05
M 	7.000000e-01
N 	4.500000e+00
VACC 	0 VACCflag 1
XTR 	1.00 	1.00 XTRflag 0
alpha,cl,cd,cdp,cm
-24.2,-1.6884,0.54552,0.54017,0.2814
-24.1,-1.6827,0.54195,0.53661,0.279
-24,-1.6754,0.53618,0.53084,0.2761
-23.9,-1.6684,0.53079,0.52545,0.2733
-23.4,-1.6431,0.50439,0.49905,0.2624
-23.3,-1.6365,0.50024,0.4949,0.2599
-23.2,-1.6298,0.49602,0.49068,0.2573
-23.1,-1.6231,0.49178,0.48644,0.2547
-23,-1.6164,0.48755,0.48221,0.2521
-22.9,-1.6096,0.48332,0.47798,0.2495
-22.8,-1.6029,0.47913,0.47379,0.2469
-22.7,-1.5961,0.47497,0.46963,0.2444
-22.6,-1.5893,0.47082,0.46548,0.2418
-22.5,-1.5825,0.4667,0.46136,0.2393
-22.4,-1.5757,0.46262,0.45728,0.2368
-22.3,-1.5689,0.45858,0.45324,0.2342
-22.2,-1.5621,0.45456,0.44923,0.2317
-22.1,-1.5553,0.45059,0.44525,0.2292
-22,-1.5486,0.44665,0.44131,0.2268
-21.9,-1.5418,0.44276,0.43742,0.2243
-21.8,-1.535,0.43888,0.43355,0.2218
-21.7,-1.5282,0.43506,0.42973,0.2194
-21.6,-1.5214,0.43129,0.42594,0.2169
-21.5,-1.5147,0.42756,0.42221,0.2145
-21.4,-1.5079,0.42385,0.41851,0.212
-21.3,-1.5012,0.42019,0.41484,0.2096
-21.2,-1.4945,0.4166,0.41126,0.2072
-21.1,-1.4878,0.41306,0.40772,0.2048
-20.6,-1.4511,0.39304,0.38771,0.1909
-20.5,-1.444,0.38945,0.38411,0.1886
-20.3,-1.43,0.38262,0.37729,0.1842
-20.2,-1.4228,0.3791,0.37377,0.1819
-20.1,-1.4157,0.3756,0.37028,0.1797
-20,-1.4086,0.37214,0.36682,0.1775
-19.9,-1.4014,0.36871,0.36339,0.1753
-19.8,-1.3943,0.36529,0.35997,0.1731
-19.7,-1.3872,0.36191,0.35659,0.1709
-19.6,-1.38,0.35856,0.35324,0.1687
-19.5,-1.3729,0.35521,0.3499,0.1666
-19.4,-1.3657,0.3519,0.34659,0.1644
-19.3,-1.3586,0.34863,0.34332,0.1623
-19.2,-1.3515,0.34538,0.34007,0.1602
-19.1,-1.3443,0.34215,0.33685,0.1581
-19,-1.3372,0.33895,0.33363,0.156
-18.9,-1.3301,0.33576,0.33045,0.1539
-18.8,-1.323,0.33262,0.32731,0.1519
-18.7,-1.3158,0.32949,0.32418,0.1498
-18.6,-1.3087,0.32638,0.32107,0.1478
-18.5,-1.3016,0.3233,0.318,0.1458
-18.4,-1.2945,0.32025,0.31495,0.1438
-18.3,-1.2874,0.31723,0.31193,0.1418
-18.2,-1.2803,0.31422,0.30892,0.1398
-18.1,-1.2732,0.31123,0.30593,0.1378
-18,-1.2661,0.30827,0.30298,0.1358
-17.9,-1.2591,0.30533,0.30005,0.1339
-17.8,-1.252,0.30242,0.29713,0.132
-17.7,-1.2449,0.29953,0.29425,0.13
-17.6,-1.2379,0.29666,0.29138,0.1281
-17.5,-1.2308,0.29381,0.28853,0.1262
-17.4,-1.2238,0.29099,0.28571,0.1244
-17.3,-1.2167,0.28819,0.28292,0.1225
-17.2,-1.2097,0.28541,0.28014,0.1206
-17.1,-1.2027,0.28265,0.27738,0.1188
-17,-1.1957,0.27991,0.27465,0.117
-16.9,-1.1887,0.27719,0.27194,0.1151
-16.8,-1.1817,0.2745,0.26925,0.1133
-16.7,-1.1747,0.27182,0.26657,0.1115
-16.6,-1.1678,0.26917,0.26392,0.1097
-16.5,-1.1608,0.26653,0.26129,0.108
-16.4,-1.1539,0.26392,0.25866,0.1062
-16.3,-1.1469,0.26132,0.25607,0.1045
-16.2,-1.14,0.25874,0.25349,0.1027
-16.1,-1.133,0.25618,0.25094,0.101
-16,-1.1261,0.25364,0.2484,0.0993
-15.9,-1.1192,0.25111,0.24588,0.0976
-15.8,-1.1123,0.2486,0.24337,0.0959
-15.7,-1.1053,0.24611,0.24088,0.0942
-15.6,-1.0984,0.24363,0.23841,0.0925
-15.5,-1.0915,0.24117,0.23596,0.0909
-15.4,-1.0846,0.23873,0.23352,0.0892
-15.3,-1.0778,0.23631,0.2311,0.0876
-15.2,-1.0709,0.2339,0.2287,0.086
-15.1,-1.064,0.23151,0.22631,0.0843
-15,-1.0572,0.22913,0.22394,0.0827
-14.9,-1.0503,0.22677,0.22158,0.0811
-14.8,-1.0435,0.22442,0.21924,0.0795
-14.7,-1.0366,0.2221,0.21692,0.078
-14.6,-1.0298,0.21978,0.21461,0.0764
-14.5,-1.0229,0.21747,0.21231,0.0748
-14.4,-1.0161,0.21519,0.21002,0.0733
-14.3,-1.0093,0.21291,0.20776,0.0717
-14.2,-1.0025,0.21065,0.2055,0.0702
-14.1,-0.9956,0.2084,0.20326,0.0687
-14,-0.9888,0.20617,0.20103,0.0672
-13.9,-0.982,0.20394,0.19881,0.0656
-13.8,-0.9749,0.20179,0.19665,0.0637
-13.7,-0.968,0.19956,0.19442,0.0622
-13.6,-0.961,0.19732,0.19219,0.0607
-13.5,-0.9541,0.1951,0.18998,0.0592
-13.4,-0.9471,0.19287,0.18775,0.0577
-13.3,-0.94,0.19064,0.18553,0.0561
-13.2,-0.9329,0.18839,0.18328,0.0546
-13.1,-0.9257,0.18611,0.18101,0.053
-13,-0.9182,0.18373,0.17866,0.0513
-12.9,-0.9114,0.18166,0.17659,0.0499
-12.8,-0.9046,0.1796,0.17454,0.0485
-12.7,-0.8978,0.17756,0.1725,0.0472
-12.6,-0.891,0.17553,0.17048,0.0458
-12.5,-0.8842,0.17351,0.16847,0.0445
-12.4,-0.8773,0.17151,0.16647,0.0432
-12.3,-0.8705,0.16952,0.16449,0.0418
-12.2,-0.8637,0.16754,0.16253,0.0405
-12.1,-0.8568,0.16559,0.16058,0.0392
-12,-0.85,0.16364,0.15864,0.0379
-11.9,-0.8431,0.16171,0.15672,0.0366
-11.8,-0.8363,0.1598,0.15481,0.0353
-11.7,-0.8294,0.1579,0.15292,0.0341
-11.6,-0.8226,0.15601,0.15104,0.0328
-11.5,-0.8157,0.15414,0.14918,0.0315
-11.4,-0.8088,0.15228,0.14732,0.0303
-11.3,-0.8019,0.15043,0.14549,0.029
-11.2,-0.795,0.1486,0.14366,0.0278
-11.1,-0.7881,0.14678,0.14185,0.0265
-11,-0.7812,0.14498,0.14006,0.0253
-10.9,-0.7743,0.1432,0.13828,0.0241
-10.8,-0.7674,0.14142,0.13652,0.0229
-10.7,-0.7605,0.13967,0.13477,0.0217
-10.6,-0.7536,0.13793,0.13305,0.0205
-10.5,-0.7467,0.13621,0.13133,0.0193
-10.4,-0.7398,0.1345,0.12964,0.0181
-10.3,-0.7328,0.13281,0.12796,0.0169
-10.2,-0.7259,0.13114,0.1263,0.0158
-10.1,-0.719,0.12948,0.12465,0.0146
-10,-0.7121,0.12783,0.12302,0.0134
-9.9,-0.7051,0.1262,0.1214,0.0123
-9.8,-0.6982,0.12458,0.11979,0.0112
-9.7,-0.6912,0.12298,0.11821,0.01
-9.6,-0.6843,0.1214,0.11664,0.0089
-9.5,-0.6774,0.11983,0.11508,0.0078
-9.4,-0.6704,0.11829,0.11355,0.0067
-9.3,-0.6635,0.11675,0.11203,0.0056
-9.2,-0.6566,0.11524,0.11053,0.0045
-9.1,-0.6497,0.11374,0.10905,0.0035
-9,-0.6429,0.11226,0.10758,0.0024
-8.9,-0.636,0.11079,0.10613,0.0013
-8.8,-0.6292,0.10934,0.1047,0.0003
-8.7,-0.6224,0.10791,0.10329,-0.0007
-8.6,-0.6156,0.1065,0.10189,-0.0017
-8.5,-0.6089,0.10511,0.10052,-0.0027
-8.4,-0.6023,0.10374,0.09915,-0.0037
-8.3,-0.5957,0.10239,0.09782,-0.0046
-8.2,-0.5892,0.10105,0.09651,-0.0055
-8.1,-0.5829,0.09975,0.09522,-0.0064
-8,-0.5766,0.09846,0.09396,-0.0072
-7.9,-0.5705,0.0972,0.09272,-0.008
-7.8,-0.5646,0.09597,0.09152,-0.0088
-7.7,-0.5589,0.09477,0.09034,-0.0095
-7.6,-0.5535,0.09359,0.08919,-0.0102
-7.5,-0.5485,0.09246,0.08808,-0.0107
-7.4,-0.5438,0.09136,0.08702,-0.0112
-7.3,-0.5397,0.09031,0.086,-0.0116
-7.2,-0.5363,0.08931,0.08503,-0.0118
-7,-0.5314,0.08769,0.08351,-0.0119
-6.9,-0.5254,0.08659,0.08244,-0.0127
-6.8,-0.5121,0.08501,0.08087,-0.0154
-6.7,-0.4975,0.08337,0.07923,-0.0184
-6.6,-0.4838,0.08182,0.07769,-0.0211
-6.5,-0.4704,0.08032,0.07619,-0.0237
-6.4,-0.456,0.07877,0.07464,-0.0266
-6.3,-0.4416,0.07726,0.07313,-0.0294
-6.2,-0.4301,0.07593,0.07181,-0.0315
-6.1,-0.4154,0.07443,0.07032,-0.0343
-6,-0.403,0.07309,0.06899,-0.0366
-5.9,-0.391,0.0718,0.0677,-0.0388
-5.8,-0.3754,0.07031,0.0662,-0.0418
-5.7,-0.3656,0.06918,0.06507,-0.0434
-5.6,-0.3508,0.06779,0.06368,-0.0462
-5.5,-0.3366,0.06645,0.06234,-0.0488
-5.4,-0.3223,0.06513,0.06102,-0.0514
-5.3,-0.3054,0.0637,0.05958,-0.0546
-5.2,-0.2922,0.06246,0.05834,-0.0568
-5.1,-0.2754,0.06104,0.05691,-0.0598
-5,-0.2592,0.05967,0.05553,-0.0627
-4.9,-0.244,0.05836,0.05421,-0.0653
-4.8,-0.2254,0.05688,0.05271,-0.0686
-4.7,-0.2082,0.05544,0.05124,-0.0716
-4.4,-0.1581,0.05158,0.04736,-0.0792
-4.3,-0.1405,0.05031,0.04606,-0.0818
-4.2,-0.1225,0.04904,0.04475,-0.0842
-3.9,-0.0672,0.04524,0.04085,-0.0916
-3.8,-0.0479,0.04395,0.03952,-0.0941
-3.7,-0.0263,0.04256,0.03806,-0.0968
-3.1,0.1031,0.03441,0.02949,-0.1118
-3,0.1242,0.03319,0.02818,-0.1137
-2.9,0.1466,0.03189,0.02676,-0.1157
-2.8,0.1683,0.03057,0.02534,-0.1176
-2.3,0.2777,0.02424,0.0182,-0.1251
-2.1,0.3217,0.02138,0.01475,-0.1276
-2,0.3404,0.02078,0.01402,-0.1276
-1.9,0.3599,0.02011,0.01317,-0.1276
-1.7,0.3994,0.01853,0.01103,-0.1279
-1.6,0.418,0.01814,0.01051,-0.1276
-1.5,0.4364,0.01774,0.00996,-0.1273
-1.4,0.455,0.01731,0.00933,-0.1269
-1.3,0.4737,0.017,0.0089,-0.1266
-1.2,0.4917,0.01675,0.00854,-0.1262
-1.1,0.5092,0.01649,0.00812,-0.1255
-1,0.5273,0.01623,0.0077,-0.1251
-0.9,0.5446,0.01619,0.00763,-0.1245
-0.8,0.5624,0.01602,0.00734,-0.124
-0.7,0.58,0.01587,0.00712,-0.1235
-0.6,0.5968,0.0158,0.00698,-0.1229
-0.5,0.6141,0.01573,0.00683,-0.1224
-0.4,0.6313,0.01572,0.00679,-0.1219
-0.3,0.6484,0.01568,0.00669,-0.1214
-0.2,0.6653,0.01566,0.0066,-0.1208
-0.1,0.6821,0.01565,0.00656,-0.1203
0,0.698,0.01571,0.00655,-0.1195
0.1,0.7146,0.01573,0.00653,-0.119
0.2,0.7311,0.01576,0.00651,-0.1184
0.3,0.7473,0.0158,0.00653,-0.1178
0.4,0.7634,0.01588,0.00657,-0.1172
0.5,0.7793,0.01594,0.0066,-0.1165
0.6,0.7942,0.01605,0.00662,-0.1157
0.7,0.8098,0.01614,0.00668,-0.115
0.8,0.8251,0.01623,0.00675,-0.1143
0.9,0.8404,0.01634,0.00682,-0.1136
1,0.8555,0.01646,0.0069,-0.1128
1.1,0.8704,0.01659,0.00699,-0.1121
1.2,0.8852,0.01672,0.0071,-0.1113
1.3,0.8985,0.01687,0.00722,-0.1105
1.4,0.9133,0.017,0.00737,-0.1098
1.5,0.9281,0.01712,0.00752,-0.1091
1.6,0.9429,0.01721,0.0077,-0.1085
1.8,0.9603,0.01621,0.00783,-0.1041
1.9,0.9755,0.01647,0.00802,-0.1033
2,0.9906,0.01673,0.00823,-0.1026
2.2,1.0195,0.01732,0.0087,-0.1009
2.3,1.035,0.0176,0.00894,-0.1001
2.4,1.0499,0.0179,0.00921,-0.0993
2.5,1.0651,0.0182,0.00949,-0.0985
2.6,1.0807,0.01849,0.00978,-0.0978
2.7,1.0959,0.0188,0.01008,-0.097
2.8,1.1106,0.01914,0.0104,-0.0961
2.9,1.1265,0.01945,0.01073,-0.0954
3,1.1408,0.0198,0.01109,-0.0944
3.1,1.1555,0.02016,0.01145,-0.0935
3.2,1.1706,0.02052,0.01183,-0.0927
3.3,1.1862,0.02087,0.01223,-0.0918
3.4,1.2013,0.02125,0.01266,-0.0909
3.5,1.2157,0.02166,0.0131,-0.09
3.6,1.2296,0.02208,0.01355,-0.0889
3.7,1.2442,0.02251,0.01404,-0.088
3.8,1.2583,0.02297,0.01458,-0.087
3.9,1.2704,0.02343,0.0151,-0.0858
4,1.2827,0.02393,0.01565,-0.0846
4.1,1.2947,0.02446,0.01624,-0.0834
4.2,1.306,0.02503,0.01694,-0.0822
4.3,1.3162,0.02564,0.01767,-0.0809
4.4,1.3251,0.02627,0.0184,-0.0795
4.5,1.3329,0.02693,0.01915,-0.078
4.6,1.3397,0.02761,0.01992,-0.0764
4.7,1.3454,0.0283,0.02068,-0.0748
4.8,1.3468,0.0291,0.0216,-0.073
4.9,1.3472,0.02998,0.02261,-0.0712
5,1.3469,0.03093,0.02368,-0.0697
5.1,1.3461,0.03184,0.0247,-0.0682
5.2,1.3458,0.03286,0.02581,-0.067
5.3,1.3454,0.03392,0.02696,-0.066
5.4,1.345,0.03502,0.02814,-0.0652
5.5,1.3395,0.0365,0.02974,-0.065
5.6,1.3335,0.03812,0.03149,-0.0653
5.7,1.3275,0.03984,0.03332,-0.066
5.8,1.3218,0.04165,0.03523,-0.0671
5.9,1.3169,0.04353,0.0372,-0.0685
6,1.3129,0.04542,0.03917,-0.0701
6.2,1.3091,0.04911,0.04296,-0.0734
6.4,1.294,0.05453,0.04851,-0.0807
6.5,1.2912,0.05683,0.05086,-0.0835
6.6,1.2908,0.05888,0.05294,-0.0858
6.7,1.2921,0.06071,0.05479,-0.0876
6.8,1.295,0.06234,0.05643,-0.089
7,1.291,0.06716,0.0613,-0.0948
7.1,1.2905,0.06941,0.06357,-0.0973
7.2,1.292,0.07135,0.06553,-0.0994
7.3,1.2948,0.07309,0.06728,-0.1011
7.4,1.2985,0.07469,0.0689,-0.1025
7.6,1.3041,0.0782,0.07241,-0.1063
7.7,1.3049,0.08034,0.07457,-0.1088
7.8,1.3075,0.0822,0.07644,-0.1108
7.9,1.3111,0.08388,0.07813,-0.1124
8,1.3155,0.08545,0.07971,-0.1138
8.1,1.3203,0.08692,0.08118,-0.115
8.2,1.3257,0.0883,0.08258,-0.116
8.3,1.3313,0.08961,0.08389,-0.1169
8.4,1.3354,0.09124,0.08551,-0.1184
8.5,1.3359,0.09356,0.08785,-0.1213
8.6,1.3387,0.09549,0.08979,-0.1233
8.7,1.3422,0.09724,0.09155,-0.1254
8.8,1.3471,0.09874,0.09306,-0.1267
8.9,1.3524,0.10018,0.09451,-0.1278
9,1.358,0.10155,0.09588,-0.1287
9.1,1.3638,0.10286,0.09721,-0.1296
9.2,1.3687,0.10435,0.09868,-0.1308
9.3,1.37,0.10666,0.10101,-0.1335
9.4,1.3733,0.10858,0.10294,-0.1355
9.5,1.3772,0.11034,0.10471,-0.1372
9.6,1.3816,0.112,0.10639,-0.1386
9.7,1.3862,0.1136,0.108,-0.14
9.8,1.3911,0.11514,0.10956,-0.1412
9.9,1.3962,0.11665,0.11108,-0.1423
10,1.403,0.11763,0.11207,-0.1429
10.1,1.4088,0.11893,0.11338,-0.1437
10.2,1.4106,0.12123,0.11568,-0.1463
10.3,1.4139,0.12321,0.11767,-0.1483
10.4,1.4179,0.12503,0.1195,-0.15
10.5,1.4223,0.12674,0.12123,-0.1515
10.6,1.4269,0.1284,0.1229,-0.1528
10.7,1.4317,0.13,0.12452,-0.1541
10.8,1.4367,0.13157,0.12609,-0.1553
10.9,1.4418,0.13309,0.12763,-0.1564
11,1.4471,0.13459,0.12913,-0.1574
11.1,1.4524,0.13606,0.13061,-0.1584
11.2,1.4578,0.13749,0.13206,-0.1593
11.3,1.4632,0.1389,0.13348,-0.1602
11.4,1.4642,0.14158,0.13615,-0.1638
11.5,1.4685,0.14339,0.13798,-0.1654
11.6,1.473,0.14514,0.13973,-0.1668
11.7,1.4778,0.14683,0.14144,-0.1682
11.8,1.4827,0.14848,0.1431,-0.1695
11.9,1.4877,0.1501,0.14474,-0.1707
12,1.4928,0.1517,0.14634,-0.1719
12.1,1.4981,0.15327,0.14794,-0.173
12.2,1.5034,0.15482,0.1495,-0.1741
12.3,1.5087,0.15634,0.15104,-0.1751
12.4,1.5142,0.15785,0.15256,-0.1761
12.5,1.5197,0.15933,0.15405,-0.1771
12.6,1.5229,0.16178,0.15649,-0.1796
12.7,1.527,0.16391,0.15863,-0.1816
12.8,1.5315,0.16591,0.16065,-0.1833
12.9,1.5354,0.16789,0.16264,-0.1855
13,1.5405,0.16966,0.16443,-0.1869
13.1,1.5457,0.17141,0.16619,-0.1882
13.2,1.5509,0.17314,0.16793,-0.1895
13.3,1.5562,0.17484,0.16964,-0.1908
13.4,1.5616,0.17653,0.17134,-0.1921
13.5,1.5671,0.1782,0.17303,-0.1933
13.6,1.5725,0.17986,0.17469,-0.1945
13.7,1.5781,0.1815,0.17635,-0.1956
13.8,1.5836,0.18312,0.17798,-0.1968
13.9,1.5876,0.18566,0.18052,-0.1992
14,1.5921,0.18794,0.18281,-0.2012
14.1,1.5969,0.1901,0.18498,-0.2031
14.2,1.602,0.1922,0.18709,-0.2048
14.3,1.6071,0.19425,0.18917,-0.2065
14.4,1.6123,0.19628,0.19122,-0.2081
14.5,1.6176,0.19829,0.19324,-0.2097
14.6,1.6226,0.20007,0.19503,-0.2114
14.7,1.6281,0.20197,0.19695,-0.2129
14.8,1.6337,0.20386,0.19885,-0.2143
14.9,1.6393,0.20574,0.20075,-0.2157
15,1.6449,0.20761,0.20263,-0.2171
15.1,1.6506,0.20948,0.20451,-0.2185
15.2,1.6563,0.21133,0.20637,-0.2199
15.3,1.662,0.21317,0.20823,-0.2212
15.4,1.6673,0.2154,0.21045,-0.2231
15.5,1.6721,0.21809,0.21316,-0.2254
15.6,1.6773,0.22056,0.21564,-0.2275
15.7,1.6826,0.22295,0.21804,-0.2294
15.8,1.688,0.22527,0.22038,-0.2313
15.9,1.6936,0.22756,0.22269,-0.2331
16,1.6991,0.22984,0.22498,-0.2348
16.1,1.7047,0.2321,0.22726,-0.2366
16.2,1.7104,0.23435,0.22953,-0.2383
16.3,1.7161,0.23659,0.23179,-0.24
16.4,1.7216,0.23864,0.23387,-0.2418
16.5,1.7274,0.24081,0.23605,-0.2435
16.6,1.7332,0.24296,0.23822,-0.2451
16.7,1.7391,0.2451,0.24038,-0.2467
16.8,1.745,0.24723,0.24253,-0.2482
16.9,1.7509,0.24935,0.24466,-0.2498
17,1.7568,0.25145,0.24678,-0.2514
17.1,1.7624,0.25406,0.24938,-0.2534
17.2,1.7676,0.25726,0.25261,-0.256
17.3,1.7732,0.26018,0.25554,-0.2582
17.4,1.7788,0.26297,0.25835,-0.2604
17.5,1.7845,0.26571,0.26111,-0.2624
17.6,1.7902,0.26841,0.26383,-0.2644
17.7,1.796,0.27108,0.26651,-0.2664
17.8,1.8016,0.2738,0.26925,-0.2686
17.9,1.8075,0.27633,0.2718,-0.2705
18,1.8134,0.27884,0.27432,-0.2723
18.1,1.8193,0.28132,0.27683,-0.2741
18.2,1.8252,0.28378,0.2793,-0.2759
18.3,1.8312,0.2862,0.28174,-0.2776
18.4,1.8371,0.28859,0.28414,-0.2793
18.5,1.8425,0.29263,0.28817,-0.2823
18.6,1.8482,0.29617,0.29173,-0.2849
18.7,1.8539,0.29949,0.29507,-0.2872
18.8,1.8595,0.30334,0.29894,-0.29
18.9,1.8654,0.30636,0.30197,-0.2921
19,1.8713,0.30933,0.30496,-0.2942
19.1,1.8773,0.31227,0.30791,-0.2963
19.2,1.8832,0.31517,0.31083,-0.2983
19.3,1.8891,0.31804,0.31371,-0.3003
19.4,1.895,0.32088,0.31656,-0.3023
19.5,1.9008,0.32357,0.31926,-0.3042
19.6,1.9113,0.3302,0.32589,-0.3082
19.7,1.9172,0.33604,0.33175,-0.312

