airfoilName st13.dat
Re 	330000
M 	7.000000e-01
N 	4.500000e+00
VACC 	0 VACCflag 1
XTR 	1.00 	1.00 XTRflag 0
alpha,cl,cd,cdp,cm
-25.8,-1.746,0.6181,0.61465,0.3168
-25.7,-1.7397,0.61303,0.60958,0.3139
-25.6,-1.7335,0.60813,0.60467,0.3112
-25.5,-1.7274,0.60339,0.59994,0.3085
-25.4,-1.721,0.59805,0.59459,0.3056
-25.3,-1.7145,0.59278,0.58932,0.3028
-25.2,-1.708,0.58753,0.58408,0.3
-25.1,-1.7015,0.58234,0.57888,0.2972
-25,-1.695,0.57719,0.57373,0.2944
-24.9,-1.6885,0.57209,0.56863,0.2916
-24.8,-1.6819,0.56697,0.56351,0.2888
-24.7,-1.6754,0.56196,0.5585,0.286
-24.6,-1.6688,0.55698,0.55352,0.2833
-24.5,-1.6622,0.55204,0.54858,0.2806
-24.4,-1.6556,0.54715,0.54368,0.2778
-24.3,-1.649,0.54229,0.53882,0.2751
-24.2,-1.6424,0.53748,0.53401,0.2724
-24.1,-1.6357,0.5327,0.52922,0.2697
-24,-1.6291,0.52796,0.52449,0.267
-23.9,-1.6224,0.52326,0.51979,0.2643
-23.8,-1.6158,0.51864,0.51516,0.2617
-23.7,-1.6091,0.51404,0.51056,0.259
-23.6,-1.6024,0.50945,0.50597,0.2564
-23.5,-1.5957,0.50492,0.50144,0.2538
-23.4,-1.589,0.50042,0.49694,0.2512
-23.3,-1.5823,0.49598,0.49249,0.2486
-23.2,-1.5756,0.49158,0.4881,0.246
-23.1,-1.5688,0.4872,0.48372,0.2434
-23,-1.562,0.48284,0.47936,0.2408
-22.9,-1.5553,0.47854,0.47506,0.2383
-22.8,-1.5485,0.47428,0.4708,0.2358
-22.7,-1.5418,0.47007,0.46658,0.2332
-22.6,-1.535,0.46586,0.46237,0.2307
-22.5,-1.5282,0.46169,0.4582,0.2282
-22.4,-1.5214,0.45757,0.45408,0.2257
-22.3,-1.5146,0.45348,0.45,0.2232
-22.2,-1.5078,0.44943,0.44594,0.2208
-22.1,-1.501,0.44541,0.44192,0.2183
-22,-1.4942,0.44141,0.43793,0.2158
-21.9,-1.4873,0.43744,0.43395,0.2134
-21.8,-1.4805,0.43352,0.43004,0.211
-21.7,-1.4737,0.42963,0.42615,0.2086
-21.6,-1.4668,0.42576,0.42228,0.2062
-21.5,-1.4599,0.42193,0.41844,0.2038
-21.4,-1.4531,0.41812,0.41463,0.2014
-21.3,-1.4462,0.41435,0.41086,0.199
-21.2,-1.4393,0.41061,0.40712,0.1967
-21.1,-1.4324,0.4069,0.40341,0.1943
-21,-1.4255,0.40322,0.39973,0.192
-20.9,-1.4186,0.39955,0.39606,0.1896
-20.8,-1.4117,0.39593,0.39244,0.1873
-20.7,-1.4049,0.39234,0.38886,0.185
-20.6,-1.3979,0.38879,0.3853,0.1827
-20.5,-1.3911,0.38526,0.38177,0.1804
-20.4,-1.3841,0.38175,0.37826,0.1782
-20.3,-1.3773,0.37829,0.3748,0.1759
-20.2,-1.3703,0.37484,0.37135,0.1736
-20.1,-1.3634,0.37143,0.36795,0.1714
-20,-1.3566,0.36806,0.36457,0.1692
-19.9,-1.3501,0.36521,0.36172,0.1664
-19.8,-1.3432,0.36193,0.35845,0.1642
-19.7,-1.3364,0.3587,0.35522,0.1619
-19.6,-1.3295,0.35552,0.35204,0.1596
-19.5,-1.3227,0.35238,0.3489,0.1574
-19.4,-1.3159,0.34928,0.34581,0.155
-19.2,-1.3023,0.34305,0.33959,0.1499
-19.1,-1.2953,0.33986,0.33639,0.1478
-19,-1.2884,0.33667,0.33321,0.1458
-18.9,-1.2814,0.33352,0.33005,0.1437
-18.8,-1.2745,0.33038,0.32691,0.1417
-18.7,-1.2676,0.32728,0.32381,0.1397
-18.6,-1.2607,0.32419,0.32073,0.1377
-18.5,-1.2538,0.32114,0.31767,0.1358
-18.4,-1.2468,0.31811,0.31464,0.1338
-18.3,-1.24,0.31509,0.31163,0.1318
-18.2,-1.233,0.31209,0.30863,0.1299
-18.1,-1.2262,0.30913,0.30567,0.128
-18,-1.2193,0.30618,0.30273,0.1261
-17.9,-1.2124,0.30326,0.29981,0.1242
-17.8,-1.2055,0.30037,0.29692,0.1223
-17.7,-1.1987,0.2975,0.29404,0.1204
-17.6,-1.1918,0.29464,0.29118,0.1185
-17.5,-1.185,0.29181,0.28836,0.1167
-17.4,-1.1781,0.289,0.28555,0.1149
-17.3,-1.1713,0.28621,0.28277,0.113
-17.2,-1.1645,0.28345,0.28,0.1112
-17.1,-1.1577,0.2807,0.27726,0.1094
-17,-1.1508,0.27798,0.27454,0.1076
-16.9,-1.144,0.27527,0.27183,0.1058
-16.8,-1.1372,0.27258,0.26915,0.1041
-16.7,-1.1304,0.26991,0.26648,0.1023
-16.6,-1.1236,0.26725,0.26382,0.1006
-16.5,-1.1168,0.26462,0.26119,0.0988
-16.4,-1.11,0.262,0.25858,0.0971
-16.3,-1.1032,0.2594,0.25597,0.0954
-16.2,-1.0964,0.25683,0.2534,0.0937
-16.1,-1.0897,0.25427,0.25084,0.092
-16,-1.0829,0.25173,0.24831,0.0904
-15.9,-1.0762,0.24922,0.24579,0.0887
-15.8,-1.0694,0.24671,0.24329,0.087
-15.7,-1.0627,0.24423,0.24081,0.0854
-15.6,-1.056,0.24177,0.23835,0.0838
-15.5,-1.0492,0.23932,0.2359,0.0822
-15.4,-1.0425,0.23689,0.23348,0.0806
-15.3,-1.0358,0.23448,0.23107,0.079
-15.2,-1.0291,0.23208,0.22868,0.0774
-15.1,-1.0225,0.2297,0.2263,0.0758
-15,-1.0158,0.22734,0.22394,0.0742
-14.9,-1.0091,0.225,0.2216,0.0727
-14.8,-1.0024,0.22267,0.21928,0.0711
-14.7,-0.9958,0.22036,0.21697,0.0696
-14.6,-0.9892,0.21827,0.21488,0.068
-14.5,-0.9825,0.21598,0.2126,0.0665
-14.4,-0.9759,0.21371,0.21033,0.065
-14.3,-0.9692,0.21145,0.20807,0.0635
-14.2,-0.9625,0.2092,0.20583,0.062
-14.1,-0.9559,0.20697,0.2036,0.0605
-14,-0.9492,0.20474,0.20137,0.059
-13.9,-0.9425,0.20253,0.19917,0.0575
-13.8,-0.9358,0.20033,0.19697,0.056
-13.7,-0.929,0.19814,0.19478,0.0546
-13.6,-0.9223,0.19597,0.19261,0.0531
-13.5,-0.9156,0.19381,0.19045,0.0517
-13.4,-0.9089,0.19166,0.1883,0.0502
-13.3,-0.9021,0.18952,0.18617,0.0488
-13.2,-0.8954,0.1874,0.18405,0.0474
-13.1,-0.8887,0.18529,0.18194,0.046
-13,-0.8819,0.18319,0.17985,0.0446
-12.9,-0.8752,0.1811,0.17777,0.0431
-12.8,-0.8684,0.17903,0.1757,0.0417
-12.7,-0.8617,0.17697,0.17365,0.0404
-12.6,-0.8549,0.17492,0.1716,0.039
-12.5,-0.8481,0.17289,0.16957,0.0376
-12.4,-0.8414,0.17087,0.16755,0.0362
-12.3,-0.8346,0.16885,0.16555,0.0349
-12.2,-0.8278,0.16686,0.16356,0.0335
-12.1,-0.821,0.16487,0.16157,0.0322
-12,-0.8142,0.16289,0.1596,0.0308
-11.9,-0.8073,0.16091,0.15763,0.0295
-11.8,-0.8005,0.15895,0.15567,0.0281
-11.7,-0.7936,0.15699,0.15371,0.0268
-11.6,-0.7867,0.15504,0.15177,0.0255
-11.5,-0.7798,0.1531,0.14983,0.0242
-11.4,-0.7729,0.15114,0.14788,0.0228
-11.3,-0.7659,0.14918,0.14593,0.0215
-11.2,-0.7588,0.14716,0.14391,0.0201
-11.1,-0.7516,0.1451,0.14187,0.0187
-11,-0.7449,0.14334,0.14011,0.0175
-10.9,-0.7383,0.14159,0.13837,0.0163
-10.8,-0.7316,0.13986,0.13664,0.0152
-10.7,-0.7249,0.13814,0.13493,0.014
-10.6,-0.7182,0.13644,0.13324,0.0128
-10.5,-0.7115,0.13476,0.13156,0.0117
-10.4,-0.7047,0.13308,0.12989,0.0105
-10.3,-0.698,0.13143,0.12824,0.0094
-10.2,-0.6913,0.12979,0.12661,0.0083
-10.1,-0.6845,0.12816,0.12499,0.0072
-10,-0.6778,0.12655,0.12339,0.0061
-9.9,-0.6711,0.12496,0.12181,0.005
-9.8,-0.6644,0.12339,0.12025,0.0039
-9.7,-0.6577,0.12183,0.1187,0.0028
-9.6,-0.6511,0.1203,0.11718,0.0018
-9.5,-0.6444,0.11878,0.11567,0.0007
-9.4,-0.6378,0.11728,0.11418,-0.0003
-9.3,-0.6313,0.1158,0.11271,-0.0013
-9.2,-0.6247,0.11434,0.11126,-0.0023
-9.1,-0.6183,0.11289,0.10982,-0.0032
-9,-0.6119,0.11147,0.10842,-0.0041
-8.9,-0.6056,0.11008,0.10703,-0.005
-8.8,-0.5994,0.10871,0.10568,-0.0059
-8.7,-0.5934,0.10736,0.10435,-0.0067
-8.5,-0.5817,0.10489,0.1019,-0.0082
-8.4,-0.5764,0.10364,0.10067,-0.0088
-8.3,-0.5716,0.10245,0.0995,-0.0093
-8.2,-0.5673,0.10131,0.09837,-0.0096
-8.1,-0.5636,0.10024,0.09732,-0.0098
-8,-0.5573,0.09895,0.09605,-0.0107
-7.9,-0.5459,0.09728,0.09438,-0.013
-7.8,-0.5332,0.09553,0.09263,-0.0156
-7.7,-0.5219,0.09391,0.09101,-0.0178
-7.6,-0.5104,0.09229,0.0894,-0.02
-7.5,-0.4984,0.09067,0.08778,-0.0224
-7.4,-0.4858,0.08901,0.08612,-0.0248
-7.3,-0.4721,0.08729,0.0844,-0.0276
-7.2,-0.4594,0.08569,0.0828,-0.03
-7.1,-0.4484,0.08421,0.08133,-0.032
-7,-0.4367,0.0827,0.07982,-0.0342
-6.9,-0.4235,0.08112,0.07824,-0.0367
-6.7,-0.4011,0.07826,0.07539,-0.0406
-6.6,-0.389,0.0768,0.07392,-0.0428
-6.5,-0.3782,0.07542,0.07254,-0.0446
-6.4,-0.3674,0.07405,0.07118,-0.0465
-6.3,-0.3553,0.07261,0.06973,-0.0486
-6.2,-0.3459,0.07134,0.06846,-0.0501
-6.1,-0.3352,0.06994,0.06706,-0.0519
-6,-0.3245,0.06856,0.06568,-0.0536
-5.9,-0.3154,0.06747,0.06459,-0.055
-5.8,-0.3051,0.06633,0.06344,-0.0565
-5.7,-0.2941,0.0652,0.06231,-0.0583
-5.6,-0.282,0.06403,0.06112,-0.0603
-5.5,-0.2691,0.06282,0.0599,-0.0625
-5.4,-0.2568,0.06166,0.05873,-0.0644
-5.3,-0.2435,0.06046,0.05752,-0.0666
-5.2,-0.2295,0.05925,0.05629,-0.0689
-5.1,-0.216,0.05807,0.0551,-0.071
-5,-0.2015,0.05687,0.05388,-0.0733
-4.6,-0.1393,0.05198,0.0489,-0.083
-4.5,-0.1227,0.05074,0.04765,-0.0855
-4.4,-0.1055,0.04948,0.04636,-0.0881
-4.3,-0.088,0.04822,0.04506,-0.0907
-4.2,-0.0698,0.04693,0.04374,-0.0934
-4.1,-0.051,0.04561,0.04239,-0.0961
-4,-0.0316,0.04428,0.04101,-0.0989
-3.9,-0.0118,0.0429,0.0396,-0.1017
-3.8,0.0087,0.04147,0.03811,-0.1046
-3.7,0.0302,0.03992,0.03649,-0.1078
-3.4,0.0947,0.03619,0.03262,-0.1158
-3.3,0.1163,0.03493,0.0313,-0.1183
-3.2,0.1384,0.03363,0.02992,-0.1207
-3.1,0.161,0.03227,0.02848,-0.1233
-3,0.1842,0.03082,0.02695,-0.1259
-2.9,0.2079,0.02921,0.02521,-0.1286
-2.8,0.2319,0.02739,0.02325,-0.1314
-2.7,0.2536,0.02635,0.0221,-0.133
-2.5,0.2975,0.02406,0.01958,-0.1362
-2.4,0.3202,0.02247,0.01779,-0.1382
-2.3,0.3443,0.02014,0.01519,-0.1409
-2.2,0.3649,0.01921,0.01411,-0.1417
-2.1,0.3855,0.01814,0.01286,-0.1426
-2,0.4059,0.01696,0.01144,-0.1435
-1.9,0.4258,0.01576,0.00993,-0.1442
-1.7,0.4648,0.01425,0.00794,-0.1447
-1.6,0.4834,0.01378,0.00726,-0.1446
-1.5,0.5021,0.01334,0.00661,-0.1444
-1.4,0.5202,0.01296,0.00601,-0.144
-1.2,0.5556,0.01275,0.00562,-0.143
-1.1,0.5735,0.01258,0.00532,-0.1426
-1,0.5909,0.01246,0.00506,-0.1421
-0.9,0.6081,0.01241,0.00495,-0.1416
-0.7,0.6416,0.01241,0.00475,-0.1404
-0.6,0.6589,0.01237,0.00465,-0.14
-0.5,0.6751,0.01241,0.00461,-0.1393
-0.4,0.6919,0.01243,0.00457,-0.1388
-0.3,0.7086,0.01246,0.00453,-0.1383
-0.2,0.725,0.01251,0.00454,-0.1378
-0.1,0.7414,0.01257,0.00454,-0.1372
0,0.7562,0.01269,0.00456,-0.1364
0.1,0.7719,0.01278,0.00457,-0.1357
0.2,0.7872,0.01289,0.00463,-0.135
0.3,0.8019,0.01304,0.0047,-0.1343
0.4,0.8162,0.0132,0.00477,-0.1334
0.5,0.8299,0.01338,0.00487,-0.1326
0.6,0.8431,0.0136,0.005,-0.1316
0.7,0.8561,0.01384,0.00514,-0.1307
0.9,0.8816,0.01437,0.00549,-0.1288
1,0.8961,0.01457,0.00563,-0.1281
1.1,0.9111,0.01474,0.00577,-0.1274
1.2,0.9264,0.0149,0.00592,-0.1268
1.3,0.9419,0.01506,0.00606,-0.1262
1.4,0.957,0.01523,0.00623,-0.1255
1.5,0.9729,0.01537,0.00637,-0.1249
1.6,0.9879,0.01556,0.00654,-0.1242
1.7,1.0033,0.01572,0.00671,-0.1235
1.8,1.0194,0.01586,0.00687,-0.1229
1.9,1.0353,0.01601,0.00703,-0.1222
2,1.0509,0.01617,0.00721,-0.1215
2.1,1.0664,0.01634,0.0074,-0.1208
2.2,1.0828,0.01648,0.00757,-0.1202
2.3,1.0988,0.01664,0.00776,-0.1195
2.4,1.1147,0.0168,0.00795,-0.1187
2.5,1.1296,0.017,0.00816,-0.1179
2.6,1.1461,0.01713,0.00837,-0.1172
2.7,1.1624,0.01728,0.00858,-0.1165
2.8,1.1786,0.01742,0.00881,-0.1158
3,1.1977,0.01641,0.00926,-0.1121
3.1,1.2141,0.01663,0.0095,-0.1113
3.2,1.2306,0.01686,0.00975,-0.1104
3.3,1.2468,0.0171,0.01001,-0.1095
3.4,1.2628,0.01735,0.01028,-0.1085
3.5,1.2773,0.01763,0.01056,-0.1074
3.6,1.2938,0.01789,0.01085,-0.1064
3.7,1.3102,0.01816,0.01117,-0.1054
3.8,1.3262,0.01845,0.0115,-0.1044
3.9,1.3417,0.01875,0.01185,-0.1032
4,1.3569,0.01907,0.01222,-0.102
4.1,1.3715,0.01941,0.0126,-0.1008
4.2,1.3873,0.01976,0.01302,-0.0996
4.3,1.4024,0.02015,0.0135,-0.0983
4.4,1.4168,0.02056,0.014,-0.097
4.5,1.4304,0.02099,0.01452,-0.0956
4.6,1.4423,0.0214,0.015,-0.0939
4.7,1.4528,0.02187,0.01554,-0.0921
4.8,1.463,0.02241,0.01619,-0.0903
4.9,1.4718,0.02301,0.01691,-0.0885
5,1.4793,0.02366,0.01768,-0.0866
5.1,1.4855,0.02435,0.01849,-0.0846
5.2,1.4905,0.02509,0.01935,-0.0827
5.3,1.4944,0.02588,0.02026,-0.0808
5.4,1.4972,0.02672,0.02122,-0.0789
5.5,1.4991,0.02762,0.02223,-0.0772
5.6,1.5001,0.02858,0.0233,-0.0756
5.7,1.4984,0.02975,0.02459,-0.0742
5.8,1.4956,0.03102,0.026,-0.0731
6,1.4876,0.03383,0.02908,-0.0717
6.1,1.4834,0.03536,0.03072,-0.0716
6.2,1.4786,0.037,0.03247,-0.0718
6.4,1.4688,0.04061,0.03628,-0.0733
6.5,1.464,0.04257,0.03833,-0.0747
6.6,1.4595,0.04461,0.04044,-0.0764
6.8,1.4412,0.04999,0.04601,-0.0823
7,1.4248,0.05574,0.0519,-0.0892
7.3,1.4102,0.06369,0.05996,-0.0981
7.4,1.4087,0.06601,0.0623,-0.1005
7.5,1.4085,0.06816,0.06446,-0.1027
7.6,1.4015,0.07116,0.06748,-0.1061
7.7,1.3979,0.07378,0.07012,-0.109
7.8,1.3963,0.07615,0.07249,-0.1115
7.9,1.3961,0.07833,0.07468,-0.1138
8,1.397,0.08036,0.07672,-0.1158
8.1,1.3989,0.08226,0.07863,-0.1177
8.2,1.4016,0.08405,0.08043,-0.1194
8.3,1.405,0.08574,0.08212,-0.1209
8.4,1.4076,0.08756,0.08392,-0.1226
8.5,1.405,0.09021,0.08659,-0.1256
8.6,1.405,0.09249,0.08887,-0.128
8.7,1.4059,0.09468,0.09107,-0.1304
8.8,1.4087,0.09654,0.09294,-0.1321
8.9,1.412,0.09831,0.09472,-0.1337
9,1.4159,0.1,0.09641,-0.1352
9.1,1.4202,0.10161,0.09803,-0.1365
9.2,1.4248,0.10316,0.09958,-0.1378
9.3,1.429,0.10481,0.10123,-0.1392
9.4,1.4285,0.10735,0.10378,-0.1419
9.5,1.4301,0.10952,0.10595,-0.144
9.6,1.4327,0.11153,0.10797,-0.1459
9.7,1.4359,0.11342,0.10987,-0.1476
9.8,1.4394,0.11524,0.1117,-0.1492
9.9,1.4432,0.117,0.11346,-0.1506
10,1.4483,0.11851,0.11499,-0.1519
10.1,1.453,0.12009,0.11656,-0.1531
10.2,1.4579,0.1216,0.1181,-0.1543
10.3,1.463,0.12306,0.11957,-0.1553
10.4,1.464,0.12554,0.12203,-0.1578
10.5,1.4664,0.12773,0.12424,-0.1598
10.6,1.4695,0.12975,0.12627,-0.1616
10.7,1.473,0.13167,0.1282,-0.1633
10.8,1.4769,0.13352,0.13006,-0.1648
10.9,1.481,0.13531,0.13185,-0.1663
11,1.4853,0.13705,0.1336,-0.1676
11.1,1.4897,0.13876,0.13531,-0.169
11.2,1.4943,0.14042,0.13699,-0.1702
11.3,1.499,0.14205,0.13862,-0.1715
11.5,1.5084,0.14529,0.14186,-0.1741
11.6,1.5109,0.14768,0.14426,-0.1763
11.7,1.5142,0.14981,0.1464,-0.1781
11.8,1.518,0.15182,0.14842,-0.1798
11.9,1.5221,0.15375,0.15035,-0.1814
12,1.5263,0.15562,0.15224,-0.1829
12.1,1.5308,0.15745,0.15408,-0.1844
12.2,1.5353,0.15925,0.15588,-0.1858
12.3,1.54,0.16101,0.15765,-0.1871
12.4,1.5448,0.16275,0.1594,-0.1885
12.5,1.5497,0.16446,0.16111,-0.1898
12.6,1.5547,0.16614,0.16282,-0.191
12.7,1.5597,0.1678,0.16449,-0.1923
12.8,1.5648,0.16944,0.16613,-0.1935
12.9,1.5699,0.17105,0.16775,-0.1947
13,1.5715,0.17447,0.17116,-0.1981
13.1,1.5758,0.17659,0.17329,-0.1998
13.2,1.5804,0.17864,0.17535,-0.2015
13.3,1.5851,0.18065,0.17737,-0.2031
13.4,1.5899,0.18263,0.17936,-0.2046
13.5,1.5948,0.18458,0.18132,-0.2062
13.6,1.5998,0.1865,0.18325,-0.2076
13.7,1.6048,0.18841,0.18516,-0.2091
13.8,1.6099,0.19029,0.18705,-0.2105
13.9,1.6151,0.19216,0.18893,-0.212
14,1.6203,0.19402,0.19079,-0.2134
14.1,1.6256,0.19586,0.19264,-0.2147
14.2,1.6309,0.19769,0.19448,-0.2161
14.3,1.6362,0.1995,0.1963,-0.2175
14.4,1.6416,0.20131,0.19812,-0.2188
14.5,1.6457,0.20417,0.20097,-0.2212
14.6,1.6503,0.2067,0.20352,-0.2232
14.7,1.6544,0.20963,0.20646,-0.2258
14.8,1.6595,0.21187,0.20871,-0.2275
14.9,1.6647,0.21409,0.21093,-0.2292
15,1.67,0.21629,0.21315,-0.2309
15.1,1.6753,0.21846,0.21534,-0.2326
15.2,1.6807,0.22063,0.21751,-0.2342
15.3,1.6862,0.22279,0.21968,-0.2358
15.4,1.6916,0.22494,0.22184,-0.2374
15.5,1.6971,0.22708,0.22399,-0.239
15.6,1.7027,0.22921,0.22613,-0.2406
15.7,1.7083,0.23133,0.22826,-0.2422
15.8,1.7139,0.23345,0.23039,-0.2437
15.9,1.7195,0.23555,0.23251,-0.2453
16,1.7252,0.23766,0.23462,-0.2468
16.1,1.7309,0.23974,0.23672,-0.2484
16.2,1.7362,0.24229,0.23926,-0.2503
16.3,1.7412,0.2454,0.24239,-0.2526
16.4,1.746,0.24895,0.24594,-0.2555
16.5,1.7514,0.25157,0.24858,-0.2574
16.6,1.757,0.25416,0.25118,-0.2593
16.7,1.7626,0.25672,0.25376,-0.2612
16.8,1.7682,0.25927,0.25631,-0.263
16.9,1.7739,0.26179,0.25885,-0.2649
17,1.7796,0.2643,0.26137,-0.2667
17.1,1.7854,0.26679,0.26387,-0.2685
17.2,1.7911,0.26927,0.26636,-0.2702
17.3,1.7969,0.27173,0.26884,-0.272
17.4,1.8027,0.27416,0.27129,-0.2737
17.5,1.8081,0.27742,0.27454,-0.2762
17.6,1.8134,0.28093,0.27806,-0.2787
17.7,1.8189,0.28418,0.28132,-0.281
17.8,1.8245,0.28729,0.28445,-0.2832
17.9,1.8302,0.29033,0.28749,-0.2853
18,1.8359,0.29331,0.29048,-0.2874
18.1,1.8416,0.29623,0.29342,-0.2894
18.2,1.8474,0.29913,0.29633,-0.2914
18.3,1.8533,0.3019,0.2991,-0.2934
18.4,1.8592,0.30461,0.30182,-0.2953
18.5,1.8647,0.30831,0.30552,-0.2978
18.6,1.8702,0.31214,0.30936,-0.3004
18.7,1.8759,0.3157,0.31293,-0.3027
18.8,1.8816,0.31975,0.31698,-0.3054
18.9,1.8874,0.32298,0.32023,-0.3076
19,1.8932,0.32619,0.32343,-0.3097
19.1,1.8991,0.32934,0.3266,-0.3118
19.2,1.9049,0.33246,0.32973,-0.3139
19.3,1.9107,0.33557,0.33284,-0.316
19.4,1.9165,0.33907,0.33633,-0.3183
19.5,1.9222,0.34317,0.34044,-0.3209
19.6,1.9279,0.34704,0.34432,-0.3234
19.7,1.9338,0.35168,0.34896,-0.3262
19.8,1.9397,0.35524,0.35253,-0.3285
19.9,1.9455,0.35875,0.35604,-0.3307
20,1.9514,0.36227,0.35957,-0.333
20.1,1.9572,0.36578,0.36309,-0.3352
20.2,1.9631,0.36928,0.3666,-0.3374
20.3,1.9689,0.37278,0.3701,-0.3397
20.4,1.9748,0.37628,0.37361,-0.3419
20.5,1.9806,0.38065,0.37797,-0.3445
20.6,1.9864,0.38485,0.38217,-0.3471
20.7,1.9923,0.38892,0.38625,-0.3495
20.8,1.9984,0.39314,0.39048,-0.3521

