airfoilName st13.dat
Re 	990000
M 	7.000000e-01
N 	4.500000e+00
VACC 	0 VACCflag 1
XTR 	1.00 	1.00 XTRflag 0
alpha,cl,cd,cdp,cm
-25.7,-1.7211,0.64298,0.64114,0.312
-25.6,-1.7392,0.6154,0.61355,0.316
-25.5,-1.7327,0.60982,0.60797,0.313
-25.4,-1.7264,0.60443,0.60257,0.3102
-25.3,-1.72,0.59908,0.59722,0.3074
-25.2,-1.7136,0.59377,0.59192,0.3046
-25.1,-1.7072,0.58853,0.58668,0.3018
-25,-1.7008,0.58334,0.58148,0.299
-24.9,-1.6944,0.57818,0.57633,0.2962
-24.8,-1.6879,0.57305,0.57119,0.2935
-24.7,-1.6815,0.56799,0.56613,0.2907
-24.6,-1.675,0.56296,0.56111,0.288
-24.5,-1.6685,0.55798,0.55612,0.2852
-24.4,-1.662,0.55304,0.55118,0.2825
-24.3,-1.6555,0.54814,0.54628,0.2798
-24.2,-1.649,0.54327,0.54142,0.2771
-24.1,-1.6425,0.53845,0.5366,0.2744
-24,-1.6359,0.53367,0.53181,0.2718
-23.9,-1.6293,0.52892,0.52706,0.2691
-23.8,-1.6228,0.52423,0.52237,0.2664
-23.7,-1.6162,0.51957,0.51771,0.2638
-23.6,-1.6096,0.51492,0.51306,0.2612
-23.5,-1.6029,0.51034,0.50847,0.2585
-23.4,-1.5963,0.50577,0.5039,0.2559
-23.3,-1.5897,0.50125,0.49938,0.2533
-23.2,-1.583,0.49677,0.49491,0.2507
-23.1,-1.5763,0.49231,0.49045,0.2482
-23,-1.5696,0.48788,0.48601,0.2456
-22.9,-1.5629,0.48349,0.48163,0.243
-22.8,-1.5562,0.47915,0.47728,0.2405
-22.7,-1.5495,0.47484,0.47298,0.238
-22.6,-1.5428,0.47054,0.46867,0.2354
-22.5,-1.536,0.46628,0.46441,0.2329
-22.4,-1.5293,0.46206,0.46019,0.2304
-22.3,-1.5225,0.45788,0.45601,0.2279
-22.2,-1.5157,0.4536,0.45173,0.2254
-22.1,-1.5089,0.44947,0.44761,0.2229
-22,-1.5021,0.44537,0.44351,0.2204
-21.9,-1.4953,0.4413,0.43943,0.218
-21.8,-1.4885,0.43728,0.43541,0.2156
-21.7,-1.4817,0.43328,0.43142,0.2131
-21.6,-1.4748,0.42931,0.42744,0.2107
-21.5,-1.468,0.42538,0.4235,0.2083
-21.4,-1.4612,0.42146,0.41959,0.2059
-21.3,-1.4543,0.41759,0.41572,0.2036
-21.2,-1.4475,0.41373,0.41186,0.2012
-21.1,-1.4406,0.40992,0.40805,0.1988
-21,-1.4338,0.40612,0.40425,0.1965
-20.9,-1.4269,0.40233,0.40046,0.1941
-20.8,-1.42,0.39859,0.39672,0.1918
-20.7,-1.4131,0.39488,0.39301,0.1895
-20.6,-1.4062,0.3912,0.38933,0.1872
-20.5,-1.3994,0.38755,0.38568,0.1849
-20.4,-1.3924,0.38388,0.38202,0.1826
-20.3,-1.3856,0.38029,0.37843,0.1803
-20.2,-1.3786,0.37668,0.37481,0.1781
-20.1,-1.3717,0.37312,0.37126,0.1758
-20,-1.3648,0.36958,0.36771,0.1735
-19.9,-1.3579,0.36605,0.36418,0.1713
-19.8,-1.3509,0.36252,0.36065,0.169
-19.7,-1.3439,0.35901,0.35714,0.1668
-19.6,-1.337,0.35552,0.35366,0.1645
-19.5,-1.33,0.35201,0.35014,0.1623
-19.4,-1.323,0.34852,0.34666,0.16
-19.3,-1.3159,0.34498,0.34312,0.1577
-19.2,-1.3081,0.34048,0.33863,0.1549
-19.1,-1.3013,0.33734,0.33548,0.1528
-19,-1.2945,0.33421,0.33235,0.1508
-18.9,-1.2877,0.33111,0.32926,0.1488
-18.8,-1.2809,0.32804,0.32618,0.1467
-18.7,-1.2741,0.32498,0.32312,0.1447
-18.6,-1.2673,0.32196,0.3201,0.1427
-18.5,-1.2606,0.31895,0.3171,0.1407
-18.4,-1.2538,0.31598,0.31412,0.1388
-18.3,-1.247,0.31302,0.31116,0.1368
-18.2,-1.2403,0.31009,0.30823,0.1348
-18.1,-1.2335,0.30717,0.30532,0.1329
-18,-1.2267,0.30429,0.30243,0.131
-17.9,-1.22,0.30143,0.29957,0.1291
-17.8,-1.2133,0.29859,0.29674,0.1272
-17.7,-1.2065,0.29576,0.29391,0.1253
-17.6,-1.1998,0.29296,0.29111,0.1234
-17.5,-1.193,0.29018,0.28833,0.1215
-17.4,-1.1863,0.28742,0.28557,0.1197
-17.3,-1.1796,0.28467,0.28283,0.1178
-17.2,-1.1728,0.28194,0.2801,0.116
-17.1,-1.1661,0.27937,0.27753,0.1141
-17,-1.1593,0.27666,0.27482,0.1123
-16.9,-1.1526,0.27397,0.27213,0.1105
-16.8,-1.1458,0.2713,0.26946,0.1087
-16.7,-1.1391,0.26865,0.26681,0.1069
-16.6,-1.1323,0.26601,0.26418,0.1052
-16.5,-1.1256,0.26339,0.26156,0.1034
-16.4,-1.1189,0.2608,0.25896,0.1017
-16.3,-1.1122,0.25822,0.25639,0.0999
-16.2,-1.1054,0.25566,0.25382,0.0982
-16.1,-1.0987,0.25311,0.25128,0.0965
-16,-1.092,0.2506,0.24876,0.0948
-15.9,-1.0854,0.24809,0.24626,0.0931
-15.8,-1.0787,0.2456,0.24377,0.0915
-15.7,-1.072,0.24313,0.2413,0.0898
-15.6,-1.0653,0.24068,0.23885,0.0882
-15.5,-1.0587,0.23824,0.23641,0.0865
-15.4,-1.052,0.23582,0.23399,0.0849
-15.3,-1.0454,0.23342,0.23159,0.0833
-15.2,-1.0388,0.23103,0.22921,0.0816
-15.1,-1.0322,0.22866,0.22683,0.08
-15,-1.0255,0.2263,0.22448,0.0785
-14.9,-1.0189,0.22396,0.22214,0.0769
-14.8,-1.0123,0.22164,0.21982,0.0753
-14.7,-1.0057,0.21932,0.21751,0.0737
-14.6,-0.9991,0.21702,0.21521,0.0722
-14.5,-0.9925,0.21473,0.21292,0.0706
-14.4,-0.9858,0.21245,0.21064,0.0691
-14.3,-0.9792,0.21018,0.20837,0.0675
-14.2,-0.9725,0.20792,0.20611,0.066
-14.1,-0.9658,0.20567,0.20386,0.0644
-14,-0.9591,0.20342,0.20161,0.0629
-13.9,-0.9525,0.20119,0.19939,0.0614
-13.8,-0.9458,0.19896,0.19716,0.0599
-13.7,-0.939,0.19674,0.19495,0.0583
-13.6,-0.9323,0.19454,0.19274,0.0568
-13.5,-0.9256,0.19234,0.19054,0.0553
-13.4,-0.9188,0.19014,0.18834,0.0538
-13.3,-0.9121,0.18795,0.18615,0.0523
-13.2,-0.9053,0.18575,0.18395,0.0508
-13.1,-0.8985,0.18355,0.18176,0.0493
-13,-0.8916,0.18134,0.17955,0.0478
-12.9,-0.8848,0.17911,0.17732,0.0463
-12.8,-0.8778,0.17679,0.175,0.0448
-12.7,-0.8698,0.17402,0.17224,0.043
-12.6,-0.8632,0.17201,0.17023,0.0417
-12.5,-0.8565,0.16999,0.16822,0.0403
-12.4,-0.8501,0.16813,0.16636,0.039
-12.3,-0.8434,0.16615,0.16438,0.0376
-12.2,-0.8367,0.16418,0.16242,0.0363
-12.1,-0.8299,0.16222,0.16046,0.0349
-12,-0.8232,0.16029,0.15853,0.0336
-11.9,-0.8164,0.15837,0.15661,0.0323
-11.8,-0.8096,0.15646,0.1547,0.0309
-11.7,-0.8028,0.15456,0.15281,0.0296
-11.6,-0.796,0.15268,0.15093,0.0283
-11.5,-0.7891,0.15082,0.14907,0.027
-11.4,-0.7823,0.14897,0.14723,0.0257
-11.3,-0.7754,0.14714,0.1454,0.0244
-11.2,-0.7685,0.14532,0.14358,0.0231
-11.1,-0.7617,0.14352,0.14179,0.0219
-11,-0.7548,0.14173,0.14001,0.0206
-10.9,-0.7479,0.13996,0.13823,0.0193
-10.8,-0.7409,0.13821,0.13648,0.0181
-10.7,-0.7339,0.13646,0.13474,0.0168
-10.6,-0.7269,0.13473,0.13301,0.0155
-10.5,-0.7199,0.13301,0.1313,0.0143
-10.4,-0.7129,0.13131,0.1296,0.013
-10.3,-0.7058,0.12962,0.12792,0.0118
-10.2,-0.6988,0.12796,0.12626,0.0106
-10.1,-0.6917,0.1263,0.12461,0.0093
-10,-0.6847,0.12466,0.12297,0.0081
-9.9,-0.6776,0.12304,0.12136,0.0069
-9.8,-0.6705,0.12144,0.11976,0.0057
-9.7,-0.6635,0.11985,0.11818,0.0045
-9.6,-0.6564,0.11828,0.11661,0.0034
-9.5,-0.6493,0.11672,0.11506,0.0022
-9.4,-0.6422,0.11518,0.11352,0.001
-9.3,-0.6351,0.11365,0.112,-0.0001
-9.2,-0.6281,0.11215,0.1105,-0.0012
-9.1,-0.6211,0.11066,0.10902,-0.0023
-9,-0.6142,0.1092,0.10756,-0.0034
-8.9,-0.6059,0.10764,0.10601,-0.0049
-8.8,-0.5959,0.10594,0.10431,-0.0069
-8.7,-0.5858,0.10426,0.10264,-0.0089
-8.6,-0.5757,0.1026,0.10098,-0.0108
-8.5,-0.5651,0.10093,0.0993,-0.0129
-8.4,-0.5551,0.09931,0.09769,-0.0148
-8.3,-0.5451,0.09771,0.09609,-0.0167
-8.2,-0.5342,0.09607,0.09444,-0.0188
-8.1,-0.5243,0.09453,0.0929,-0.0205
-8,-0.5144,0.09299,0.09136,-0.0223
-7.9,-0.5056,0.09155,0.08991,-0.0237
-7.8,-0.4971,0.09015,0.08851,-0.025
-7.7,-0.4892,0.08881,0.08716,-0.0261
-7.6,-0.4814,0.08749,0.08582,-0.0271
-7.5,-0.4739,0.08621,0.08453,-0.0281
-7.4,-0.4659,0.0849,0.08321,-0.0292
-7.3,-0.4584,0.08364,0.08193,-0.0301
-7.2,-0.4501,0.08234,0.08062,-0.0313
-7.1,-0.4424,0.0811,0.07936,-0.0322
-7,-0.4339,0.07982,0.07806,-0.0335
-6.9,-0.4254,0.07855,0.07678,-0.0347
-6.8,-0.4172,0.0773,0.07551,-0.0358
-6.7,-0.4084,0.07603,0.07422,-0.0371
-6.6,-0.3996,0.07477,0.07295,-0.0384
-6.5,-0.3907,0.07351,0.07166,-0.0397
-6.4,-0.3814,0.07162,0.06976,-0.0414
-6.3,-0.372,0.07029,0.06841,-0.0428
-6.2,-0.3628,0.06913,0.06723,-0.0442
-6.1,-0.3537,0.06799,0.06606,-0.0456
-6,-0.3442,0.06685,0.06491,-0.0471
-5.9,-0.3348,0.06575,0.06379,-0.0486
-5.8,-0.3245,0.06465,0.06267,-0.0504
-5.7,-0.3118,0.06343,0.06143,-0.0527
-5.6,-0.2988,0.06222,0.06018,-0.055
-5.5,-0.2852,0.06099,0.05893,-0.0575
-5.4,-0.2713,0.05976,0.05768,-0.06
-5.3,-0.2568,0.05854,0.05643,-0.0625
-5.2,-0.2417,0.05728,0.05516,-0.0652
-5.1,-0.2262,0.05603,0.05388,-0.0679
-5,-0.2103,0.05478,0.0526,-0.0707
-4.9,-0.194,0.05353,0.05132,-0.0734
-4.8,-0.1771,0.05226,0.05002,-0.0763
-4.7,-0.16,0.05099,0.04872,-0.0791
-4.6,-0.142,0.04969,0.0474,-0.082
-4.5,-0.1237,0.0484,0.04608,-0.085
-4.2,-0.0666,0.04447,0.04204,-0.0938
-4.1,-0.0467,0.04314,0.04067,-0.0968
-4,-0.0265,0.0418,0.03928,-0.0997
-3.9,-0.0062,0.04047,0.03788,-0.1026
-3.8,0.0148,0.03909,0.03644,-0.1055
-3.7,0.0361,0.0377,0.03498,-0.1085
-3.6,0.0582,0.03623,0.03345,-0.1115
-3.5,0.0802,0.03475,0.03189,-0.1144
-3.4,0.1034,0.03311,0.03017,-0.1176
-3.3,0.1274,0.0312,0.02818,-0.1212
-3.2,0.1497,0.0299,0.02679,-0.1236
-3.1,0.1725,0.02859,0.02539,-0.126
-3,0.1938,0.02736,0.02402,-0.1281
-2.9,0.2166,0.02595,0.02251,-0.1303
-2.8,0.2394,0.02445,0.02089,-0.1326
-2.6,0.2857,0.02091,0.01704,-0.1374
-2.4,0.3303,0.01676,0.01247,-0.142
-2.2,0.3695,0.01265,0.00767,-0.1455
-2.1,0.3891,0.01147,0.00615,-0.1462
-2,0.4085,0.01077,0.00517,-0.1462
-1.9,0.4272,0.01048,0.00472,-0.1458
-1.7,0.4651,0.01009,0.00408,-0.145
-1.6,0.4834,0.00999,0.00387,-0.1446
-1.5,0.5012,0.00996,0.00373,-0.1441
-1.4,0.5196,0.00989,0.00359,-0.1437
-1.3,0.5378,0.00987,0.0035,-0.1433
-1.2,0.5559,0.00983,0.0034,-0.1429
-1.1,0.5739,0.00982,0.00333,-0.1425
-1,0.5917,0.00983,0.00328,-0.1421
-0.9,0.6085,0.0099,0.00326,-0.1416
-0.8,0.625,0.00999,0.00325,-0.141
-0.7,0.6421,0.01004,0.00325,-0.1406
-0.6,0.6589,0.01011,0.00326,-0.1402
-0.5,0.6747,0.01026,0.00331,-0.1396
-0.4,0.6897,0.01046,0.00338,-0.139
-0.3,0.7047,0.01066,0.00347,-0.1383
-0.1,0.7338,0.01116,0.00373,-0.1371
0,0.7505,0.01127,0.00379,-0.1367
0.1,0.7675,0.01135,0.00384,-0.1363
0.2,0.7845,0.01143,0.00391,-0.1359
0.3,0.8017,0.0115,0.00396,-0.1356
0.4,0.8188,0.01158,0.00401,-0.1352
0.5,0.836,0.01164,0.00409,-0.1349
0.6,0.8533,0.01171,0.00415,-0.1345
0.7,0.8706,0.01178,0.00421,-0.1341
0.8,0.8873,0.01189,0.0043,-0.1337
0.9,0.9047,0.01195,0.00437,-0.1334
1,0.922,0.01202,0.00445,-0.133
1.1,0.9392,0.0121,0.00452,-0.1326
1.2,0.9562,0.01219,0.00462,-0.1321
1.3,0.9736,0.01226,0.0047,-0.1317
1.4,0.991,0.01234,0.00478,-0.1313
1.5,1.0082,0.01241,0.00488,-0.1309
1.6,1.0251,0.01253,0.00498,-0.1304
1.7,1.0424,0.01262,0.00508,-0.1299
1.8,1.0598,0.01269,0.00518,-0.1294
1.9,1.0771,0.01278,0.00528,-0.1289
2,1.0944,0.01288,0.00539,-0.1284
2.1,1.1115,0.01298,0.00551,-0.1278
2.2,1.1287,0.01309,0.00564,-0.1272
2.3,1.1461,0.01318,0.00575,-0.1266
2.4,1.1635,0.01328,0.00587,-0.126
2.5,1.1809,0.01338,0.006,-0.1254
2.6,1.198,0.0135,0.00613,-0.1247
2.7,1.2151,0.01362,0.00628,-0.124
2.8,1.2325,0.01373,0.00642,-0.1233
2.9,1.25,0.01383,0.00657,-0.1226
3,1.2675,0.01395,0.00672,-0.1218
3.1,1.2849,0.01407,0.00687,-0.121
3.2,1.3024,0.01419,0.00704,-0.1202
3.3,1.3196,0.01432,0.00721,-0.1194
3.4,1.337,0.01445,0.00739,-0.1185
3.5,1.3547,0.01456,0.00757,-0.1176
3.7,1.3809,0.01348,0.00811,-0.1149
3.8,1.3985,0.01365,0.00831,-0.1139
3.9,1.4159,0.01384,0.00851,-0.1128
4,1.4332,0.01403,0.00874,-0.1116
4.1,1.4509,0.01422,0.00897,-0.1105
4.2,1.4686,0.01442,0.00921,-0.1093
4.3,1.4863,0.01464,0.00947,-0.108
4.4,1.504,0.01487,0.00974,-0.1068
4.5,1.5217,0.01511,0.01003,-0.1054
4.6,1.5392,0.01538,0.01035,-0.104
4.7,1.5566,0.01566,0.01069,-0.1026
4.8,1.5742,0.01598,0.01108,-0.1011
4.9,1.5917,0.01636,0.01154,-0.0996
5,1.6086,0.01678,0.01206,-0.098
5.1,1.6243,0.01727,0.01265,-0.0963
5.2,1.6383,0.01783,0.01333,-0.0945
5.3,1.65,0.01845,0.01409,-0.0925
5.4,1.658,0.01912,0.01489,-0.0901
5.5,1.6627,0.01982,0.01571,-0.0874
5.6,1.6651,0.02058,0.0166,-0.0847
5.7,1.665,0.02146,0.0176,-0.0819
5.8,1.6631,0.02242,0.0187,-0.0793
5.9,1.6599,0.02345,0.01985,-0.0768
6.1,1.6508,0.02573,0.02239,-0.0726
6.2,1.6452,0.027,0.02377,-0.0709
6.4,1.6328,0.02983,0.02682,-0.0686
6.5,1.6262,0.0314,0.0285,-0.068
6.6,1.6194,0.03308,0.03028,-0.0679
6.7,1.6125,0.03489,0.03219,-0.0682
6.9,1.6,0.03879,0.03627,-0.0702
7,1.5905,0.04117,0.03873,-0.0722
7.6,1.5394,0.05749,0.05543,-0.0899
7.7,1.5326,0.06027,0.05824,-0.0928
7.9,1.5221,0.06558,0.0636,-0.0982
8,1.5186,0.06803,0.06606,-0.1007
8.1,1.5091,0.07107,0.06911,-0.1041
8.2,1.5036,0.07373,0.07178,-0.1071
8.3,1.4993,0.07628,0.07434,-0.1099
8.4,1.4961,0.07873,0.07679,-0.1125
8.5,1.494,0.08108,0.07915,-0.1151
8.6,1.4928,0.08334,0.08141,-0.1174
8.7,1.4926,0.08551,0.08358,-0.1197
8.8,1.4931,0.08759,0.08567,-0.1218
8.9,1.4944,0.08959,0.08767,-0.1238
9,1.4948,0.09171,0.08978,-0.1259
9.1,1.4919,0.09423,0.0923,-0.1287
9.2,1.4906,0.09658,0.09466,-0.1312
9.3,1.4903,0.09884,0.09692,-0.1336
9.4,1.4909,0.10101,0.0991,-0.1357
9.5,1.4923,0.10307,0.10117,-0.1378
9.6,1.4942,0.10507,0.10318,-0.1397
9.7,1.4967,0.107,0.10511,-0.1415
9.8,1.4997,0.10888,0.10699,-0.1432
9.9,1.503,0.1107,0.10882,-0.1448
10,1.5067,0.11247,0.11059,-0.1464
10.1,1.5071,0.11474,0.11286,-0.1486
10.2,1.5073,0.11707,0.11519,-0.1509
10.3,1.5085,0.11925,0.11738,-0.153
10.4,1.5104,0.12134,0.11947,-0.1549
10.5,1.5127,0.12337,0.1215,-0.1568
10.6,1.5157,0.12532,0.12346,-0.1585
10.7,1.519,0.12722,0.12536,-0.1601
10.8,1.5226,0.12907,0.12722,-0.1617
10.9,1.5264,0.13087,0.12902,-0.1632
11,1.5305,0.13263,0.13079,-0.1647
11.1,1.5348,0.13435,0.13251,-0.1661
11.2,1.538,0.13629,0.13445,-0.1677
11.3,1.5389,0.13871,0.13687,-0.17
11.4,1.541,0.14091,0.13908,-0.172
11.5,1.5437,0.14302,0.1412,-0.1738
11.6,1.5468,0.14506,0.14324,-0.1756
11.7,1.5502,0.14706,0.14525,-0.1773
11.8,1.5538,0.14902,0.14721,-0.1789
11.9,1.5575,0.15093,0.14913,-0.1805
12,1.5619,0.15273,0.15093,-0.1819
12.1,1.5661,0.15454,0.15274,-0.1834
12.2,1.5705,0.15631,0.15453,-0.1848
12.3,1.575,0.15806,0.15628,-0.1862
12.4,1.5796,0.15977,0.15799,-0.1876
12.5,1.5821,0.1621,0.16032,-0.1896
12.6,1.5847,0.16449,0.16272,-0.1917
12.7,1.5879,0.16672,0.16495,-0.1936
12.8,1.5915,0.16887,0.16711,-0.1954
12.9,1.5953,0.17098,0.16922,-0.1971
13,1.5993,0.17304,0.17129,-0.1988
13.1,1.6035,0.17508,0.17333,-0.2004
13.2,1.6078,0.17709,0.17535,-0.2021
13.3,1.6123,0.17908,0.17734,-0.2037
13.4,1.6169,0.18105,0.17932,-0.2052
13.5,1.622,0.1829,0.18117,-0.2067
13.6,1.6268,0.1848,0.18307,-0.2082
13.7,1.6318,0.18668,0.18496,-0.2097
13.8,1.6368,0.18855,0.18683,-0.2112
13.9,1.6404,0.19106,0.18934,-0.2132
14,1.644,0.19364,0.19193,-0.2153
14.1,1.6481,0.19604,0.19433,-0.2172
14.2,1.6524,0.19838,0.19668,-0.2191
14.3,1.6569,0.20067,0.19897,-0.2209
14.4,1.6615,0.20293,0.20124,-0.2226
14.5,1.6662,0.20516,0.20348,-0.2244
14.6,1.6711,0.20738,0.20571,-0.2261
14.7,1.676,0.20959,0.20792,-0.2278
14.8,1.681,0.21178,0.21012,-0.2294
14.9,1.686,0.21397,0.21231,-0.2311
15,1.6912,0.21615,0.2145,-0.2328
15.1,1.6963,0.21833,0.21668,-0.2344
15.2,1.7016,0.22051,0.21887,-0.236
15.4,1.7125,0.22472,0.22309,-0.2392
15.5,1.7179,0.22685,0.22523,-0.2408
15.6,1.7231,0.2291,0.22747,-0.2425
15.7,1.7272,0.23223,0.23061,-0.2449
15.8,1.7319,0.23498,0.23337,-0.2469
15.9,1.7368,0.23763,0.23603,-0.2489
16,1.7419,0.24024,0.23864,-0.2508
16.1,1.7471,0.24281,0.24122,-0.2527
16.2,1.7523,0.24537,0.24378,-0.2545
16.3,1.7576,0.24792,0.24634,-0.2564
16.4,1.763,0.25045,0.24888,-0.2582
16.5,1.7685,0.25298,0.25141,-0.26
16.6,1.774,0.2555,0.25394,-0.2619
16.7,1.7795,0.25802,0.25646,-0.2637
16.8,1.7851,0.26053,0.25899,-0.2655
16.9,1.7909,0.26298,0.26144,-0.2672
17,1.7967,0.26543,0.26391,-0.269
17.1,1.8025,0.26786,0.26635,-0.2707
17.2,1.8075,0.27099,0.26947,-0.2729
17.3,1.8123,0.27445,0.27294,-0.2754
17.4,1.8174,0.27763,0.27613,-0.2776
17.5,1.8227,0.28091,0.27942,-0.2799
17.6,1.8282,0.28393,0.28245,-0.282
17.7,1.834,0.28678,0.2853,-0.2839
17.8,1.8398,0.28955,0.28808,-0.2859
17.9,1.845,0.29295,0.29148,-0.2882
18,1.8498,0.29706,0.29559,-0.291
18.1,1.8553,0.3003,0.29883,-0.2932
18.2,1.8609,0.30346,0.302,-0.2953
18.3,1.8666,0.30655,0.3051,-0.2974
18.4,1.8722,0.30986,0.3084,-0.2996
18.5,1.8774,0.31354,0.31209,-0.3021
18.6,1.8829,0.31704,0.31559,-0.3044
18.7,1.8884,0.32045,0.319,-0.3066
18.8,1.894,0.32382,0.32238,-0.3088
18.9,1.8997,0.32718,0.32575,-0.311
19,1.9054,0.33056,0.32913,-0.3132
19.1,1.9111,0.3339,0.33247,-0.3154
19.2,1.9168,0.33725,0.33582,-0.3176
19.3,1.9225,0.34075,0.33933,-0.3199
19.4,1.928,0.34453,0.3431,-0.3223
19.5,1.9334,0.34859,0.34717,-0.3248
19.6,1.9391,0.35223,0.35081,-0.3271
19.7,1.9448,0.35586,0.35445,-0.3294
19.8,1.9506,0.35951,0.35811,-0.3317
19.9,1.9563,0.36314,0.36173,-0.334
20,1.962,0.3668,0.3654,-0.3363
20.1,1.9678,0.37048,0.36908,-0.3386
20.2,1.9736,0.37416,0.37277,-0.3409
20.3,1.9793,0.37799,0.37659,-0.3432
20.4,1.9849,0.38197,0.38057,-0.3457
20.5,1.9906,0.38594,0.38454,-0.3481
20.6,1.9963,0.38989,0.3885,-0.3505
20.7,2.002,0.39384,0.39245,-0.3529
20.8,2.0078,0.39782,0.39643,-0.3553
20.9,2.0135,0.40184,0.40046,-0.3577
21,2.0192,0.40581,0.40443,-0.3601
21.1,2.025,0.40986,0.40848,-0.3626
21.2,2.0307,0.41389,0.41251,-0.365
21.3,2.0364,0.418,0.41662,-0.3674
21.4,2.0422,0.4221,0.42073,-0.3698
21.5,2.0479,0.42623,0.42485,-0.3723
21.6,2.0536,0.43039,0.42902,-0.3747
21.8,2.0651,0.43884,0.43747,-0.3796
21.9,2.0708,0.44308,0.44171,-0.3821
22,2.0765,0.44733,0.44596,-0.3845

