airfoilName st14.dat
Re 	9.300000e+05
M 	7.000000e-01
N 	4.500000e+00
VACC 	0 VACCflag 1
XTR 	1.00 	1.00 XTRflag 0
alpha,cl,cd,cdp,cm
-28.1,-1.8377,0.76184,0.75995,0.3773
-28,-1.8321,0.75536,0.75346,0.3743
-27.9,-1.8262,0.74866,0.74677,0.3712
-27.8,-1.8203,0.74201,0.74011,0.3681
-27.7,-1.8144,0.73546,0.73356,0.365
-27.6,-1.8084,0.72895,0.72705,0.362
-27.5,-1.8025,0.7225,0.7206,0.3589
-27.4,-1.7965,0.71612,0.71422,0.3559
-27.3,-1.7905,0.70975,0.70785,0.3528
-27.2,-1.7845,0.70349,0.70158,0.3498
-27.1,-1.7785,0.69725,0.69535,0.3468
-27,-1.7724,0.69105,0.68915,0.3438
-26.9,-1.7663,0.68493,0.68303,0.3408
-26.8,-1.7602,0.67883,0.67692,0.3378
-26.7,-1.7541,0.6728,0.67089,0.3348
-26.6,-1.7479,0.6668,0.66488,0.3318
-26.5,-1.7418,0.66088,0.65896,0.3289
-26.4,-1.7356,0.65499,0.65307,0.3259
-26.3,-1.7294,0.64918,0.64726,0.323
-26.2,-1.7231,0.64336,0.64144,0.3201
-26.1,-1.7169,0.63762,0.63571,0.3171
-26,-1.7106,0.63189,0.62997,0.3142
-25.9,-1.7042,0.62583,0.62391,0.3113
-25.8,-1.6978,0.62017,0.61825,0.3084
-25.7,-1.6916,0.61468,0.61276,0.3055
-25.6,-1.6852,0.60917,0.60724,0.3026
-25.5,-1.6789,0.6037,0.60178,0.2998
-25.4,-1.6725,0.59828,0.59635,0.2969
-25.3,-1.6661,0.59287,0.59095,0.2941
-25.2,-1.6597,0.58756,0.58564,0.2913
-25.1,-1.6533,0.58225,0.58033,0.2885
-25,-1.6468,0.577,0.57508,0.2856
-24.9,-1.6404,0.57181,0.56988,0.2829
-24.8,-1.6339,0.56665,0.56472,0.2801
-24.7,-1.6274,0.56147,0.55954,0.2773
-24.6,-1.6209,0.55635,0.55442,0.2745
-24.5,-1.6144,0.55129,0.54936,0.2718
-24.4,-1.6079,0.54627,0.54434,0.269
-24.3,-1.6013,0.54125,0.53932,0.2663
-24.2,-1.5947,0.53628,0.53434,0.2635
-24.1,-1.5881,0.53131,0.52937,0.2608
-24,-1.5814,0.52628,0.52434,0.258
-23.9,-1.5748,0.52142,0.51948,0.2553
-23.7,-1.5603,0.50883,0.50689,0.2486
-23.6,-1.5538,0.5044,0.50246,0.2461
-23.5,-1.5472,0.50001,0.49808,0.2435
-23.4,-1.5407,0.49564,0.49371,0.2409
-23.3,-1.5341,0.49133,0.4894,0.2384
-23.2,-1.5275,0.48705,0.48511,0.2358
-23.1,-1.521,0.48281,0.48087,0.2333
-23,-1.5144,0.47858,0.47664,0.2308
-22.9,-1.5078,0.47441,0.47247,0.2283
-22.8,-1.5011,0.47026,0.46832,0.2258
-22.7,-1.4945,0.46613,0.4642,0.2233
-22.6,-1.4879,0.46203,0.4601,0.2208
-22.5,-1.4812,0.45798,0.45604,0.2184
-22.4,-1.4746,0.45395,0.45201,0.2159
-22.3,-1.4679,0.44995,0.44801,0.2135
-22.2,-1.4612,0.44599,0.44405,0.2111
-22.1,-1.4545,0.44206,0.44012,0.2086
-22,-1.4479,0.43816,0.43622,0.2062
-21.9,-1.4412,0.4343,0.43236,0.2039
-21.8,-1.4345,0.43046,0.42852,0.2015
-21.7,-1.4278,0.42664,0.4247,0.1991
-21.6,-1.4211,0.42286,0.42092,0.1968
-21.5,-1.4143,0.41911,0.41717,0.1944
-21.4,-1.4076,0.41538,0.41344,0.1921
-21.3,-1.4009,0.41169,0.40975,0.1898
-21.2,-1.3942,0.40803,0.40608,0.1875
-21.1,-1.3874,0.40439,0.40245,0.1852
-21,-1.3807,0.40078,0.39883,0.1829
-20.9,-1.374,0.3972,0.39526,0.1806
-20.8,-1.3672,0.39364,0.3917,0.1783
-20.7,-1.3605,0.39012,0.38818,0.1761
-20.6,-1.3537,0.38661,0.38467,0.1739
-20.5,-1.347,0.38313,0.38119,0.1716
-20.4,-1.3402,0.37978,0.37784,0.1694
-20.3,-1.3335,0.37634,0.37441,0.1672
-20.2,-1.3267,0.37293,0.37099,0.165
-20.1,-1.3199,0.36955,0.36761,0.1628
-20,-1.3132,0.36619,0.36425,0.1606
-19.9,-1.3064,0.36286,0.36092,0.1585
-19.8,-1.2997,0.35955,0.35761,0.1563
-19.7,-1.2929,0.35626,0.35432,0.1542
-19.6,-1.2861,0.353,0.35107,0.1521
-19.5,-1.2794,0.34976,0.34783,0.15
-19.4,-1.2726,0.34655,0.34461,0.1479
-19.3,-1.2658,0.34336,0.34142,0.1458
-19.2,-1.2591,0.34019,0.33826,0.1437
-19.1,-1.2523,0.33705,0.33512,0.1416
-19,-1.2456,0.33393,0.33199,0.1396
-18.9,-1.2388,0.33083,0.32889,0.1376
-18.8,-1.2321,0.32776,0.32582,0.1355
-18.7,-1.2253,0.32469,0.32276,0.1335
-18.6,-1.2186,0.32166,0.31973,0.1315
-18.5,-1.2118,0.31865,0.31671,0.1295
-18.4,-1.2051,0.31566,0.31373,0.1275
-18.3,-1.1984,0.31269,0.31076,0.1255
-18.2,-1.1916,0.30974,0.3078,0.1236
-18.1,-1.1849,0.30681,0.30488,0.1216
-18,-1.1782,0.3039,0.30197,0.1197
-17.9,-1.1715,0.30101,0.29908,0.1177
-17.8,-1.1647,0.29813,0.2962,0.1158
-17.7,-1.158,0.29528,0.29335,0.1139
-17.6,-1.1513,0.29242,0.2905,0.1119
-17.5,-1.1446,0.28959,0.28766,0.11
-17.4,-1.1378,0.28678,0.28486,0.1081
-17.3,-1.1311,0.28397,0.28205,0.1062
-17.2,-1.1243,0.28116,0.27924,0.1042
-17.1,-1.1175,0.27837,0.27645,0.1023
-17,-1.1107,0.27554,0.27362,0.1004
-16.8,-1.0961,0.26918,0.26727,0.0961
-16.7,-1.0895,0.26655,0.26464,0.0944
-16.6,-1.083,0.26395,0.26204,0.0927
-16.5,-1.0764,0.26137,0.25946,0.091
-16.4,-1.0698,0.25881,0.2569,0.0893
-16.3,-1.0633,0.25627,0.25437,0.0876
-16.2,-1.0567,0.25376,0.25184,0.0859
-16.1,-1.0502,0.25126,0.24935,0.0843
-16,-1.0437,0.24878,0.24687,0.0826
-15.9,-1.0371,0.24633,0.24442,0.081
-15.8,-1.0306,0.24389,0.24198,0.0794
-15.7,-1.0241,0.24147,0.23956,0.0777
-15.6,-1.0176,0.23906,0.23715,0.0761
-15.4,-1.0047,0.2345,0.2326,0.0729
-15.3,-0.9981,0.23213,0.23023,0.0713
-15.2,-0.9916,0.22978,0.22788,0.0697
-15.1,-0.9851,0.22744,0.22554,0.0682
-15,-0.9786,0.22512,0.22322,0.0666
-14.9,-0.9721,0.22281,0.22092,0.0651
-14.8,-0.9656,0.22052,0.21862,0.0636
-14.7,-0.9591,0.21823,0.21634,0.0621
-14.6,-0.9525,0.21597,0.21408,0.0605
-14.5,-0.946,0.21371,0.21182,0.059
-14.4,-0.9394,0.21146,0.20957,0.0575
-14.3,-0.9329,0.20922,0.20734,0.056
-14.2,-0.9263,0.207,0.20512,0.0546
-14.1,-0.9197,0.20479,0.20291,0.0531
-14,-0.9131,0.2026,0.20072,0.0516
-13.9,-0.9066,0.20042,0.19854,0.0502
-13.8,-0.9,0.19825,0.19638,0.0487
-13.7,-0.8934,0.1961,0.19423,0.0473
-13.6,-0.8868,0.19396,0.19208,0.0458
-13.5,-0.8802,0.19183,0.18996,0.0444
-13.4,-0.8737,0.18972,0.18785,0.043
-13.3,-0.8671,0.18762,0.18575,0.0416
-13.2,-0.8605,0.18553,0.18367,0.0402
-13.1,-0.8539,0.18346,0.1816,0.0388
-13,-0.8473,0.18141,0.17954,0.0374
-12.9,-0.8406,0.17936,0.1775,0.036
-12.8,-0.834,0.17733,0.17547,0.0346
-12.7,-0.8274,0.17531,0.17346,0.0333
-12.6,-0.8208,0.17331,0.17145,0.0319
-12.5,-0.8141,0.17131,0.16946,0.0306
-12.4,-0.8074,0.16932,0.16747,0.0292
-12.3,-0.8007,0.16734,0.1655,0.0279
-12.2,-0.794,0.16538,0.16354,0.0265
-12.1,-0.7873,0.16343,0.16159,0.0252
-12,-0.7806,0.16149,0.15965,0.0238
-11.9,-0.7739,0.15956,0.15773,0.0225
-11.8,-0.7672,0.15765,0.15582,0.0212
-11.7,-0.7604,0.15575,0.15392,0.0199
-11.6,-0.7537,0.15386,0.15203,0.0186
-11.5,-0.747,0.15198,0.15016,0.0173
-11.4,-0.7402,0.15012,0.1483,0.016
-11.3,-0.7335,0.14827,0.14645,0.0147
-11.2,-0.7268,0.14643,0.14461,0.0135
-11.1,-0.7201,0.1446,0.14279,0.0122
-11,-0.7133,0.14278,0.14098,0.011
-10.9,-0.7066,0.14096,0.13916,0.0097
-10.8,-0.6998,0.13914,0.13733,0.0085
-10.7,-0.693,0.13733,0.13553,0.0073
-10.6,-0.6845,0.13466,0.13287,0.0055
-10.5,-0.678,0.13297,0.13118,0.0043
-10.4,-0.6715,0.1313,0.12952,0.0032
-10.3,-0.665,0.12965,0.12787,0.0021
-10.2,-0.6585,0.12802,0.12625,0.0011
-10.1,-0.6521,0.12641,0.12465,0
-10,-0.6457,0.12483,0.12307,-0.001
-9.9,-0.6393,0.12327,0.12151,-0.002
-9.8,-0.633,0.12173,0.11998,-0.003
-9.7,-0.6268,0.12022,0.11848,-0.004
-9.6,-0.6207,0.11873,0.117,-0.0049
-9.5,-0.6148,0.11728,0.11555,-0.0057
-9.4,-0.6071,0.11568,0.11396,-0.0071
-9.3,-0.5977,0.11394,0.11222,-0.009
-9.2,-0.5881,0.11221,0.11049,-0.0109
-9.1,-0.5784,0.11049,0.10877,-0.0128
-9,-0.569,0.10882,0.1071,-0.0147
-8.9,-0.5593,0.10715,0.10543,-0.0165
-8.8,-0.5493,0.10547,0.10376,-0.0185
-8.7,-0.5395,0.10384,0.10213,-0.0204
-8.6,-0.5297,0.10222,0.1005,-0.0222
-8.5,-0.5198,0.10062,0.09891,-0.0241
-8.4,-0.5097,0.09903,0.09731,-0.026
-8.3,-0.5003,0.09751,0.09579,-0.0277
-8.2,-0.4912,0.09603,0.09432,-0.0292
-8.1,-0.4818,0.09456,0.09284,-0.0309
-8,-0.4723,0.09308,0.09136,-0.0325
-7.9,-0.4635,0.09168,0.08996,-0.0339
-7.8,-0.455,0.09031,0.08859,-0.0352
-7.7,-0.4464,0.08896,0.08723,-0.0365
-7.6,-0.438,0.08764,0.08591,-0.0378
-7.5,-0.43,0.08636,0.08462,-0.0389
-7.4,-0.4221,0.08509,0.08334,-0.0399
-7.3,-0.4142,0.08384,0.08209,-0.0409
-7.2,-0.4065,0.08263,0.08086,-0.0419
-7.1,-0.3987,0.08141,0.07963,-0.0429
-7,-0.3905,0.08019,0.0784,-0.0439
-6.9,-0.3826,0.079,0.07719,-0.0449
-6.8,-0.374,0.07779,0.07596,-0.0462
-6.7,-0.3656,0.0766,0.07476,-0.0473
-6.6,-0.3571,0.07541,0.07355,-0.0484
-6.5,-0.3483,0.07422,0.07235,-0.0497
-6.4,-0.3393,0.07304,0.07115,-0.0509
-6.3,-0.3305,0.07187,0.06997,-0.0522
-6.2,-0.3213,0.07069,0.06878,-0.0535
-6.1,-0.3121,0.06954,0.0676,-0.0549
-6,-0.3031,0.06841,0.06645,-0.0562
-5.9,-0.2938,0.06729,0.06532,-0.0576
-5.8,-0.2827,0.0661,0.06411,-0.0595
-5.7,-0.2706,0.06486,0.06284,-0.0616
-5.6,-0.2578,0.0636,0.06157,-0.0639
-5.5,-0.2447,0.06232,0.06027,-0.0662
-5.4,-0.2312,0.06104,0.05897,-0.0686
-5.3,-0.2172,0.05974,0.05764,-0.071
-5.2,-0.2027,0.05841,0.0563,-0.0736
-5.1,-0.1879,0.05707,0.05493,-0.0762
-5,-0.1726,0.05569,0.05353,-0.0789
-4.9,-0.1568,0.05424,0.05205,-0.0817
-4.8,-0.1406,0.05267,0.05045,-0.0847
-4.6,-0.1055,0.05021,0.04795,-0.0906
-4.5,-0.0878,0.04898,0.04668,-0.0934
-4.4,-0.0693,0.04772,0.04541,-0.0963
-4.3,-0.0505,0.04646,0.04412,-0.0993
-4,0.0084,0.04265,0.0402,-0.1081
-3.9,0.0289,0.04136,0.03887,-0.1111
-3.8,0.0498,0.04005,0.03752,-0.1141
-3.7,0.0715,0.0387,0.03613,-0.1172
-3.6,0.0932,0.03735,0.03472,-0.1202
-3.5,0.1148,0.036,0.0333,-0.1231
-3.4,0.1377,0.03456,0.0318,-0.1262
-3.3,0.1607,0.03307,0.03023,-0.1293
-3.2,0.1845,0.03143,0.02851,-0.1326
-2.9,0.2566,0.02701,0.02384,-0.1414
-2.8,0.2794,0.02575,0.02246,-0.1437
-2.7,0.3032,0.02433,0.02095,-0.1462
-2.5,0.3511,0.021,0.01733,-0.1514
-2.2,0.4193,0.01493,0.01054,-0.1589
-2.1,0.4402,0.01239,0.00757,-0.1615
-2,0.4599,0.01111,0.00593,-0.1625
-1.9,0.4789,0.01057,0.00516,-0.1625
-1.8,0.4977,0.01035,0.00481,-0.1622
-1.7,0.5164,0.01007,0.00437,-0.1618
-1.6,0.5347,0.00989,0.00403,-0.1614
-1.5,0.5522,0.00981,0.00384,-0.1609
-1.4,0.5703,0.00974,0.00369,-0.1605
-1.3,0.5884,0.00968,0.00355,-0.1601
-1.2,0.6058,0.00969,0.00347,-0.1596
-1.1,0.6235,0.00966,0.00337,-0.1592
-1,0.6407,0.00967,0.0033,-0.1587
-0.9,0.6571,0.00973,0.00328,-0.1581
-0.8,0.6746,0.00974,0.00323,-0.1577
-0.7,0.6917,0.00977,0.0032,-0.1573
-0.5,0.7253,0.00987,0.0032,-0.1563
-0.4,0.7413,0.00998,0.00323,-0.1558
-0.3,0.7567,0.01011,0.00327,-0.1551
-0.2,0.7704,0.01034,0.00337,-0.1543
-0.1,0.785,0.01053,0.00345,-0.1536
0.1,0.8094,0.01122,0.00382,-0.1516
0.2,0.8245,0.0114,0.00392,-0.151
0.3,0.8407,0.01152,0.004,-0.1505
0.4,0.8568,0.01163,0.00409,-0.15
0.5,0.8735,0.01172,0.00416,-0.1496
0.6,0.89,0.01181,0.00423,-0.1492
0.7,0.9062,0.01193,0.00433,-0.1487
0.8,0.9229,0.01201,0.00441,-0.1482
0.9,0.9393,0.01211,0.00449,-0.1477
1,0.9561,0.01219,0.00458,-0.1473
1.1,0.9729,0.01227,0.00465,-0.1468
1.2,0.9896,0.01236,0.00474,-0.1463
1.3,1.006,0.01246,0.00485,-0.1458
1.4,1.0228,0.01255,0.00494,-0.1453
1.5,1.0394,0.01265,0.00503,-0.1448
1.6,1.056,0.01274,0.00514,-0.1442
1.7,1.0724,0.01285,0.00525,-0.1437
1.8,1.0892,0.01295,0.00536,-0.1431
1.9,1.106,0.01303,0.00547,-0.1425
2,1.1226,0.01313,0.00558,-0.1419
2.1,1.1392,0.01324,0.0057,-0.1412
2.2,1.1555,0.01337,0.00582,-0.1406
2.3,1.1722,0.01347,0.00595,-0.1399
2.4,1.1888,0.01358,0.00608,-0.1392
2.5,1.2054,0.0137,0.00622,-0.1385
2.6,1.2219,0.01382,0.00636,-0.1377
2.7,1.2382,0.01395,0.00651,-0.1369
2.8,1.2548,0.01407,0.00666,-0.1361
2.9,1.2715,0.01419,0.0068,-0.1352
3,1.288,0.01431,0.00696,-0.1344
3.1,1.3045,0.01445,0.00713,-0.1335
3.2,1.3209,0.01459,0.0073,-0.1325
3.3,1.337,0.01474,0.00748,-0.1315
3.4,1.3535,0.01488,0.00766,-0.1305
3.5,1.3699,0.01502,0.00784,-0.1295
3.6,1.3863,0.01517,0.00803,-0.1284
3.7,1.4024,0.01532,0.00823,-0.1272
3.8,1.4184,0.01549,0.00844,-0.126
3.9,1.4345,0.01565,0.00866,-0.1248
4,1.451,0.0158,0.00889,-0.1236
4.2,1.479,0.0149,0.00957,-0.1209
4.3,1.4953,0.01512,0.00983,-0.1195
4.4,1.5106,0.01533,0.01008,-0.118
4.5,1.5256,0.01557,0.01036,-0.1163
4.6,1.5413,0.01583,0.01066,-0.1147
4.7,1.5571,0.0161,0.01099,-0.1131
4.8,1.573,0.0164,0.01135,-0.1115
4.9,1.5889,0.01672,0.01174,-0.1098
5,1.6046,0.01707,0.01216,-0.108
5.1,1.6201,0.01746,0.01263,-0.1063
5.2,1.6351,0.0179,0.01316,-0.1044
5.3,1.6496,0.01842,0.01378,-0.1026
5.4,1.6621,0.01904,0.01453,-0.1006
5.5,1.6722,0.01975,0.01537,-0.0984
5.6,1.6794,0.02052,0.01629,-0.0961
5.7,1.6839,0.02137,0.01727,-0.0937
5.8,1.6861,0.02228,0.01831,-0.0912
5.9,1.6864,0.02325,0.01943,-0.0888
6,1.686,0.02426,0.02056,-0.0865
6.1,1.6836,0.02536,0.02179,-0.0843
6.2,1.6803,0.02653,0.02308,-0.0823
6.3,1.6756,0.02783,0.02449,-0.0806
6.4,1.669,0.02927,0.02606,-0.0791
6.5,1.662,0.03081,0.02772,-0.0781
6.7,1.6471,0.03421,0.03133,-0.077
6.8,1.6394,0.03606,0.03329,-0.0771
6.9,1.6316,0.03804,0.03536,-0.0776
7,1.6238,0.04013,0.03755,-0.0785
7.2,1.6083,0.04466,0.04225,-0.0816
7.3,1.6007,0.04711,0.04477,-0.0838
7.4,1.5934,0.04967,0.0474,-0.0862
7.5,1.5863,0.05231,0.0501,-0.0889
7.6,1.5767,0.05526,0.0531,-0.0921
7.7,1.567,0.05829,0.05618,-0.0954
7.8,1.558,0.06132,0.05926,-0.0987
8.1,1.5362,0.07011,0.06813,-0.1076
8.2,1.5311,0.0728,0.07084,-0.1103
8.4,1.5244,0.07782,0.07589,-0.1153
8.5,1.5225,0.08018,0.07825,-0.1177
8.6,1.5185,0.08279,0.08085,-0.1204
8.7,1.5135,0.08552,0.08359,-0.1233
8.8,1.5092,0.0882,0.08627,-0.1262
9,1.5056,0.09303,0.09111,-0.1311
9.1,1.5051,0.09532,0.0934,-0.1334
9.2,1.5053,0.09753,0.09562,-0.1356
9.3,1.5062,0.09967,0.09776,-0.1376
9.4,1.5077,0.10173,0.09983,-0.1395
9.5,1.5098,0.10372,0.10182,-0.1413
9.6,1.5105,0.10592,0.10401,-0.1434
9.7,1.5088,0.10848,0.10658,-0.146
9.8,1.5084,0.11086,0.10897,-0.1484
9.9,1.5088,0.11316,0.11126,-0.1506
10.1,1.5118,0.11748,0.1156,-0.1546
10.3,1.5167,0.12152,0.11964,-0.1581
10.4,1.5197,0.12345,0.12159,-0.1598
10.5,1.5231,0.12534,0.12349,-0.1613
10.6,1.5268,0.12718,0.12533,-0.1629
10.7,1.5286,0.12937,0.12751,-0.1648
10.8,1.5291,0.13182,0.12996,-0.1671
10.9,1.5306,0.13412,0.13227,-0.1692
11,1.5327,0.13631,0.13447,-0.1711
11.1,1.5352,0.13845,0.13661,-0.1729
11.2,1.5381,0.14054,0.13871,-0.1747
11.3,1.5412,0.14259,0.14076,-0.1764
11.4,1.5451,0.14452,0.1427,-0.178
11.5,1.5489,0.14644,0.14462,-0.1796
11.6,1.5528,0.14831,0.1465,-0.1811
11.7,1.5569,0.15014,0.14833,-0.1825
11.8,1.5612,0.15194,0.15013,-0.184
11.9,1.5639,0.15415,0.15234,-0.1859
12,1.5657,0.1566,0.15479,-0.188
12.1,1.5684,0.1589,0.1571,-0.1899
12.2,1.5714,0.16111,0.15932,-0.1918
12.3,1.5748,0.16326,0.16147,-0.1936
12.4,1.5784,0.16538,0.16359,-0.1953
12.5,1.5823,0.16745,0.16567,-0.197
12.6,1.5863,0.16949,0.16772,-0.1986
12.7,1.5904,0.17151,0.16974,-0.2003
12.8,1.5946,0.1735,0.17174,-0.2018
12.9,1.5995,0.17535,0.17359,-0.2033
13,1.6041,0.17725,0.17549,-0.2048
13.1,1.6088,0.17913,0.17738,-0.2063
13.2,1.6136,0.18098,0.17924,-0.2078
13.3,1.6166,0.18357,0.18182,-0.2099
13.4,1.6199,0.1861,0.18436,-0.212
13.5,1.6237,0.18848,0.18674,-0.2139
13.6,1.6278,0.19079,0.18906,-0.2158
13.7,1.6321,0.19306,0.19134,-0.2176
13.8,1.6365,0.19529,0.19357,-0.2193
13.9,1.641,0.19749,0.19578,-0.221
14,1.6456,0.19968,0.19797,-0.2227
14.1,1.6503,0.20185,0.20015,-0.2244
14.2,1.6551,0.20401,0.20231,-0.2261
14.3,1.66,0.20616,0.20447,-0.2277
14.4,1.665,0.2083,0.20661,-0.2294
14.5,1.67,0.21044,0.20875,-0.231
14.6,1.6754,0.21242,0.21074,-0.2325
14.7,1.6806,0.21451,0.21284,-0.2341
14.8,1.6858,0.21658,0.21491,-0.2357
14.9,1.691,0.21872,0.21706,-0.2374
15,1.6949,0.22179,0.22013,-0.2397
15.1,1.6994,0.22453,0.22287,-0.2417
15.2,1.7042,0.22713,0.22548,-0.2437
15.3,1.7091,0.22969,0.22804,-0.2456
15.4,1.7141,0.23221,0.23057,-0.2475
15.5,1.7193,0.2347,0.23307,-0.2493
15.6,1.7244,0.23718,0.23556,-0.2511
15.7,1.7297,0.23965,0.23804,-0.253
15.8,1.7351,0.24211,0.2405,-0.2548
15.9,1.7404,0.24455,0.24296,-0.2565
16,1.7459,0.247,0.2454,-0.2583
16.1,1.7515,0.24935,0.24777,-0.2601
16.2,1.7571,0.25173,0.25015,-0.2618
16.3,1.7628,0.25407,0.2525,-0.2635
16.4,1.7685,0.25639,0.25482,-0.2652
16.5,1.7728,0.26005,0.25848,-0.2678
16.6,1.7778,0.26321,0.26165,-0.2701
16.7,1.783,0.2662,0.26465,-0.2722
16.8,1.7883,0.26912,0.26758,-0.2743
16.9,1.7937,0.2721,0.27056,-0.2764
17,1.7994,0.27485,0.27332,-0.2784
17.1,1.8052,0.2775,0.27597,-0.2802
17.2,1.8104,0.28063,0.27911,-0.2824
17.3,1.8154,0.28423,0.28271,-0.2849
17.4,1.8207,0.28752,0.28601,-0.2872
17.5,1.8261,0.29069,0.28918,-0.2894
17.6,1.8317,0.29379,0.29229,-0.2915
17.8,1.8431,0.29975,0.29825,-0.2956
17.9,1.8483,0.30344,0.30194,-0.2981
18,1.8537,0.3069,0.3054,-0.3004
18.1,1.8593,0.31027,0.30878,-0.3026
18.2,1.8648,0.31359,0.3121,-0.3048
18.3,1.8705,0.31687,0.31539,-0.307
18.4,1.8761,0.32015,0.31867,-0.3092
18.5,1.8818,0.32339,0.32191,-0.3113
18.6,1.8875,0.32665,0.32518,-0.3135
18.7,1.8933,0.32989,0.32842,-0.3156
18.8,1.899,0.33314,0.33168,-0.3178
18.9,1.9045,0.3369,0.33543,-0.3202
19,1.9101,0.34052,0.33905,-0.3225
19.1,1.9158,0.34412,0.34265,-0.3248
19.2,1.9214,0.34771,0.34625,-0.3271
19.3,1.9271,0.35129,0.34983,-0.3294
19.5,1.9386,0.35867,0.35722,-0.334
19.6,1.9444,0.36225,0.3608,-0.3363
19.7,1.9501,0.36586,0.36441,-0.3386
19.8,1.9559,0.36946,0.36801,-0.3408
19.9,1.9617,0.37307,0.37163,-0.3431
20,1.9674,0.3767,0.37525,-0.3454
20.1,1.9732,0.38074,0.37929,-0.3478
20.2,1.9789,0.38466,0.38321,-0.3502
20.3,1.9846,0.3886,0.38715,-0.3526
20.4,1.9904,0.39255,0.39111,-0.355
20.5,1.9962,0.39648,0.39504,-0.3574
20.6,2.0019,0.40043,0.39899,-0.3598
20.7,2.0077,0.40442,0.40298,-0.3622
20.8,2.0135,0.40841,0.40698,-0.3646
20.9,2.0193,0.41243,0.411,-0.367
21,2.025,0.41647,0.41504,-0.3694
21.1,2.0308,0.42052,0.4191,-0.3718
21.2,2.0366,0.42459,0.42318,-0.3742
21.3,2.0423,0.42871,0.4273,-0.3766
21.4,2.0481,0.43286,0.43144,-0.3791
21.5,2.0539,0.43701,0.4356,-0.3815
21.6,2.0596,0.44121,0.4398,-0.3839
21.7,2.0654,0.44543,0.44402,-0.3864
21.8,2.0711,0.44966,0.44825,-0.3888
21.9,2.0759,0.45291,0.45151,-0.391
22,2.0817,0.45739,0.45599,-0.3935

