airfoilName st14.dat
Re 	3.500000e+05
M 	7.000000e-01
N 	4.500000e+00
VACC 	0 VACCflag 1
XTR 	1.00 	1.00 XTRflag 0
alpha,cl,cd,cdp,cm
-27.2,-1.7777,0.68987,0.68655,0.3456
-27.1,-1.7732,0.68864,0.68533,0.3432
-27,-1.7672,0.6827,0.67938,0.3402
-26.9,-1.7611,0.67669,0.67337,0.3372
-26.8,-1.7549,0.67069,0.66737,0.3342
-26.7,-1.7488,0.66477,0.66144,0.3313
-26.6,-1.7425,0.65887,0.65554,0.3283
-26.5,-1.7364,0.65305,0.64972,0.3253
-26.4,-1.7301,0.64728,0.64394,0.3224
-26.3,-1.7239,0.64158,0.63825,0.3194
-26.2,-1.7176,0.63589,0.63256,0.3165
-26.1,-1.7114,0.63028,0.62694,0.3136
-26,-1.7051,0.62468,0.62134,0.3107
-25.9,-1.6988,0.61919,0.61586,0.3078
-25.8,-1.6924,0.61369,0.61035,0.3049
-25.7,-1.6861,0.6083,0.60496,0.302
-25.6,-1.6798,0.60293,0.59959,0.2991
-25.5,-1.6734,0.5976,0.59425,0.2963
-25.4,-1.667,0.59232,0.58897,0.2934
-25.3,-1.6606,0.58708,0.58373,0.2906
-25.2,-1.6542,0.58189,0.57854,0.2878
-25.1,-1.6478,0.57676,0.57341,0.285
-25,-1.6413,0.57165,0.5683,0.2821
-24.9,-1.6348,0.56661,0.56326,0.2794
-24.8,-1.6284,0.56162,0.55826,0.2766
-24.7,-1.6219,0.55663,0.55328,0.2738
-24.6,-1.6154,0.55171,0.54835,0.271
-24.5,-1.6089,0.54684,0.54348,0.2683
-24.4,-1.6024,0.54201,0.53865,0.2656
-24.3,-1.5958,0.53721,0.53386,0.2628
-24.2,-1.5893,0.53246,0.52909,0.2601
-24.1,-1.5827,0.52776,0.52439,0.2574
-24,-1.5762,0.52308,0.51971,0.2547
-22.9,-1.5056,0.47742,0.47406,0.2236
-22.8,-1.4988,0.47318,0.46981,0.2211
-22.7,-1.4921,0.46895,0.46558,0.2187
-22.6,-1.4853,0.46476,0.46139,0.2162
-22.5,-1.4785,0.46063,0.45726,0.2137
-22.4,-1.4717,0.45651,0.45314,0.2113
-22.3,-1.465,0.45243,0.44906,0.2089
-22.2,-1.4582,0.44838,0.44502,0.2065
-22.1,-1.4514,0.44436,0.44099,0.2041
-22,-1.4446,0.44038,0.43701,0.2017
-21.9,-1.4378,0.43644,0.43307,0.1993
-21.8,-1.4309,0.43251,0.42914,0.1969
-21.7,-1.4241,0.4286,0.42524,0.1946
-21.6,-1.4173,0.42474,0.42137,0.1922
-21.5,-1.4104,0.42091,0.41754,0.1899
-21.4,-1.4036,0.41711,0.41373,0.1876
-21.3,-1.3968,0.41333,0.40995,0.1853
-21.2,-1.3899,0.40959,0.40621,0.183
-21.1,-1.3831,0.40589,0.40251,0.1807
-21,-1.3762,0.4022,0.39883,0.1784
-20.9,-1.3694,0.39857,0.39519,0.1762
-20.8,-1.3625,0.39494,0.39156,0.1739
-20.7,-1.3557,0.39135,0.38798,0.1717
-20.6,-1.3488,0.38779,0.38442,0.1695
-20.5,-1.342,0.38425,0.38088,0.1672
-20.4,-1.3352,0.38076,0.37739,0.1651
-20.3,-1.3283,0.37728,0.37391,0.1629
-20.2,-1.3215,0.37382,0.37045,0.1607
-20.1,-1.3146,0.37041,0.36704,0.1585
-20,-1.3078,0.36702,0.36365,0.1564
-19.9,-1.3009,0.36365,0.36028,0.1543
-19.8,-1.2941,0.36031,0.35695,0.1521
-19.7,-1.2872,0.357,0.35363,0.15
-19.6,-1.2804,0.35372,0.35035,0.1479
-19.5,-1.2736,0.35046,0.3471,0.1459
-19.4,-1.2667,0.34723,0.34386,0.1438
-19.3,-1.2599,0.34402,0.34066,0.1417
-19.2,-1.2531,0.34084,0.33748,0.1397
-19.1,-1.2463,0.33769,0.33433,0.1376
-19,-1.2395,0.33457,0.33119,0.1356
-18.9,-1.2327,0.33146,0.32809,0.1336
-18.8,-1.2259,0.32839,0.32502,0.1316
-18.7,-1.2191,0.32533,0.32197,0.1296
-18.6,-1.2123,0.32231,0.31895,0.1277
-18.5,-1.2055,0.3193,0.31594,0.1257
-18.4,-1.1987,0.31633,0.31297,0.1238
-18.3,-1.1919,0.31338,0.31002,0.1218
-18.2,-1.1852,0.31045,0.30709,0.1199
-18.1,-1.1784,0.30755,0.30419,0.118
-18,-1.1717,0.30467,0.30131,0.1161
-17.9,-1.1649,0.30181,0.29846,0.1142
-17.8,-1.1582,0.29898,0.29562,0.1123
-17.7,-1.1515,0.29617,0.29282,0.1105
-17.6,-1.145,0.29374,0.29039,0.1085
-17.5,-1.1383,0.29097,0.28762,0.1066
-17.4,-1.1316,0.28823,0.28489,0.1048
-17.3,-1.1249,0.28551,0.28216,0.1029
-17.2,-1.1182,0.2828,0.27946,0.1011
-17.1,-1.1115,0.28012,0.27678,0.0993
-17,-1.1048,0.27745,0.27411,0.0975
-16.9,-1.0981,0.27481,0.27147,0.0957
-16.8,-1.0914,0.27218,0.26884,0.0939
-16.7,-1.0847,0.26957,0.26623,0.0921
-16.6,-1.078,0.26698,0.26365,0.0903
-16.5,-1.0714,0.26441,0.26108,0.0886
-16.4,-1.0647,0.26186,0.25853,0.0868
-16.3,-1.058,0.25932,0.25599,0.0851
-16.2,-1.0514,0.2568,0.25347,0.0833
-16.1,-1.0447,0.2543,0.25097,0.0816
-16,-1.0381,0.25181,0.24848,0.0798
-15.9,-1.0314,0.24933,0.246,0.0781
-15.8,-1.0247,0.24686,0.24354,0.0764
-15.7,-1.0181,0.2444,0.24108,0.0747
-15.6,-1.0114,0.24193,0.23861,0.073
-15.5,-1.0047,0.23947,0.23615,0.0713
-15.2,-0.9838,0.23167,0.22837,0.0658
-15.1,-0.9772,0.22928,0.22598,0.0643
-15,-0.9707,0.22691,0.22361,0.0628
-14.9,-0.9641,0.22456,0.22126,0.0613
-14.8,-0.9576,0.22222,0.21893,0.0598
-14.7,-0.9511,0.2199,0.21662,0.0583
-14.6,-0.9445,0.2176,0.21432,0.0568
-14.5,-0.938,0.21532,0.21204,0.0553
-14.4,-0.9314,0.21304,0.20977,0.0539
-14.3,-0.9249,0.21079,0.20752,0.0524
-14.2,-0.9183,0.20855,0.20528,0.051
-14.1,-0.9118,0.20632,0.20305,0.0495
-14,-0.9052,0.2041,0.20084,0.0481
-13.9,-0.8987,0.2019,0.19864,0.0467
-13.8,-0.8921,0.19972,0.19646,0.0453
-13.7,-0.8855,0.19755,0.1943,0.0439
-13.6,-0.879,0.1954,0.19214,0.0425
-13.5,-0.8724,0.19327,0.19001,0.0411
-13.4,-0.8659,0.19115,0.18789,0.0397
-13.3,-0.8593,0.18904,0.18579,0.0384
-13.2,-0.8527,0.18695,0.1837,0.037
-13.1,-0.8462,0.18487,0.18163,0.0357
-13,-0.8396,0.18282,0.17958,0.0343
-12.9,-0.8331,0.18078,0.17754,0.033
-12.8,-0.8266,0.17875,0.17552,0.0317
-12.7,-0.82,0.17674,0.17351,0.0304
-12.5,-0.8068,0.17295,0.16973,0.0277
-12.4,-0.8003,0.17097,0.16776,0.0264
-12.3,-0.7937,0.16902,0.16581,0.0251
-12.2,-0.7872,0.16707,0.16387,0.0239
-12.1,-0.7806,0.16514,0.16195,0.0226
-12,-0.774,0.16323,0.16003,0.0214
-11.9,-0.7675,0.16133,0.15814,0.0201
-11.8,-0.7609,0.15944,0.15626,0.0189
-11.7,-0.7544,0.15757,0.1544,0.0177
-11.6,-0.7478,0.15572,0.15255,0.0165
-11.5,-0.7413,0.15388,0.15072,0.0153
-11.4,-0.7348,0.15206,0.1489,0.0141
-11.3,-0.7282,0.15026,0.1471,0.013
-11.2,-0.7217,0.14847,0.14532,0.0118
-11.1,-0.7152,0.1467,0.14356,0.0107
-11,-0.7088,0.14495,0.14181,0.0095
-10.9,-0.7023,0.14321,0.14007,0.0084
-10.8,-0.6958,0.14148,0.13836,0.0073
-10.7,-0.6894,0.13978,0.13666,0.0062
-10.6,-0.6829,0.13809,0.13497,0.0051
-10.5,-0.6765,0.13641,0.13331,0.004
-10.4,-0.6701,0.13476,0.13166,0.003
-10.3,-0.6637,0.13312,0.13003,0.0019
-10.2,-0.6574,0.1315,0.12841,0.0009
-10.1,-0.6511,0.12989,0.12682,-0.0001
-10,-0.6449,0.12831,0.12525,-0.0011
-9.9,-0.6387,0.12675,0.12369,-0.002
-9.8,-0.6327,0.12521,0.12216,-0.0029
-9.7,-0.6267,0.12369,0.12065,-0.0038
-9.6,-0.6207,0.12219,0.11917,-0.0047
-9.5,-0.615,0.12072,0.11771,-0.0055
-9.4,-0.6093,0.11928,0.11628,-0.0063
-9.3,-0.6038,0.11786,0.11487,-0.007
-9.2,-0.5986,0.11647,0.1135,-0.0076
-9.1,-0.5936,0.11513,0.11216,-0.0082
-9,-0.5891,0.11382,0.11087,-0.0087
-8.9,-0.5849,0.11257,0.10964,-0.009
-8.8,-0.5812,0.11137,0.10846,-0.0092
-8.7,-0.578,0.11021,0.10732,-0.0093
-8.6,-0.5736,0.10895,0.10608,-0.0098
-8.5,-0.563,0.10713,0.10426,-0.0119
-8.4,-0.5521,0.1053,0.10243,-0.0141
-8.3,-0.5408,0.10342,0.10055,-0.0165
-8.1,-0.5182,0.09974,0.09688,-0.0211
-8,-0.5072,0.09812,0.09526,-0.0233
-7.9,-0.4959,0.09649,0.09363,-0.0255
-7.8,-0.4853,0.09494,0.09208,-0.0275
-7.7,-0.475,0.09343,0.09057,-0.0294
-7.6,-0.464,0.09189,0.08904,-0.0315
-7.5,-0.4525,0.09034,0.0875,-0.0337
-7.4,-0.4404,0.08878,0.08593,-0.036
-7.3,-0.4307,0.08739,0.08454,-0.0377
-7.2,-0.4198,0.08595,0.08311,-0.0396
-7.1,-0.4083,0.08448,0.08164,-0.0417
-7,-0.3961,0.083,0.08016,-0.044
-6.9,-0.3863,0.08168,0.07885,-0.0456
-6.8,-0.3745,0.08025,0.07741,-0.0476
-6.7,-0.3621,0.0788,0.07596,-0.0498
-6.6,-0.3528,0.07757,0.07473,-0.0513
-6.5,-0.3425,0.07629,0.07345,-0.0529
-6.4,-0.3314,0.07497,0.07214,-0.0547
-6.3,-0.3208,0.07384,0.071,-0.0564
-6.2,-0.3114,0.07263,0.0698,-0.0578
-6.1,-0.3008,0.07137,0.06853,-0.0594
-6,-0.2914,0.07021,0.06737,-0.0608
-5.9,-0.2826,0.0691,0.06625,-0.062
-5.8,-0.2717,0.06789,0.06503,-0.0638
-5.7,-0.2603,0.06667,0.0638,-0.0656
-5.6,-0.2485,0.06544,0.06257,-0.0676
-5.5,-0.2359,0.06417,0.06129,-0.0697
-5.4,-0.223,0.0629,0.06,-0.0718
-5.3,-0.2103,0.06165,0.05874,-0.0739
-5.2,-0.1966,0.06034,0.05742,-0.0762
-5.1,-0.1822,0.05899,0.05605,-0.0786
-5,-0.1682,0.05765,0.0547,-0.081
-4.9,-0.1527,0.05616,0.05319,-0.0838
-4.6,-0.1064,0.05246,0.04946,-0.091
-4.5,-0.09,0.05127,0.04824,-0.0935
-4,-0.0017,0.04526,0.04209,-0.1063
-3.9,0.0176,0.04402,0.04082,-0.109
-3.8,0.0376,0.04276,0.03952,-0.1118
-3.7,0.0579,0.04149,0.03821,-0.1145
-3.6,0.0785,0.04021,0.03689,-0.1173
-3.5,0.1001,0.03886,0.03549,-0.1202
-3.4,0.1226,0.03747,0.03404,-0.1233
-3.3,0.1453,0.03599,0.03251,-0.1264
-3.2,0.1702,0.03419,0.03063,-0.1301
-3,0.2152,0.0321,0.02843,-0.1349
-2.9,0.2382,0.03085,0.02711,-0.1374
-2.8,0.2619,0.02953,0.0257,-0.14
-2.7,0.2863,0.02808,0.02415,-0.1427
-2.6,0.311,0.0264,0.02232,-0.1455
-2.5,0.3364,0.02466,0.02045,-0.1485
-2.4,0.3581,0.02371,0.0194,-0.1499
-2.1,0.4286,0.01908,0.01421,-0.1563
-2,0.4503,0.01775,0.01268,-0.1577
-1.9,0.4702,0.01685,0.01157,-0.1583
-1.8,0.491,0.01577,0.01027,-0.1593
-1.7,0.5116,0.01464,0.00884,-0.1602
-1.6,0.5313,0.01378,0.00771,-0.1607
-1.5,0.5502,0.0134,0.00719,-0.1606
-1.4,0.5687,0.01304,0.00666,-0.1604
-1.3,0.5866,0.01271,0.00613,-0.1601
-1.2,0.605,0.0124,0.00565,-0.1599
-1.1,0.6228,0.01233,0.00552,-0.1595
-1,0.6404,0.0122,0.00528,-0.159
-0.9,0.6578,0.01208,0.00505,-0.1585
-0.8,0.6745,0.012,0.00483,-0.1579
-0.7,0.6917,0.01194,0.00467,-0.1574
-0.6,0.709,0.01191,0.0046,-0.157
-0.5,0.7256,0.01195,0.00457,-0.1564
-0.4,0.7424,0.01193,0.00446,-0.1559
-0.3,0.7588,0.01195,0.00441,-0.1553
-0.2,0.7737,0.01204,0.00442,-0.1545
-0.1,0.79,0.01209,0.0044,-0.1539
0,0.8048,0.01221,0.00442,-0.1531
0.1,0.8205,0.01228,0.00444,-0.1524
0.2,0.8359,0.01237,0.00448,-0.1517
0.3,0.851,0.01248,0.00452,-0.1509
0.4,0.8656,0.01261,0.00456,-0.1501
0.5,0.8795,0.01277,0.00463,-0.1492
0.7,0.9024,0.0133,0.00495,-0.1467
0.8,0.9137,0.01358,0.0051,-0.1454
0.9,0.9248,0.01388,0.00528,-0.1442
1,0.9367,0.01416,0.00546,-0.1431
1.1,0.9495,0.01441,0.00564,-0.1421
1.2,0.9634,0.01462,0.0058,-0.1413
1.3,0.9775,0.01481,0.00599,-0.1405
1.4,0.9909,0.01505,0.00617,-0.1396
1.5,1.0058,0.01521,0.00633,-0.1389
1.6,1.0208,0.01538,0.00648,-0.1381
1.7,1.0354,0.01556,0.00666,-0.1373
1.8,1.0507,0.01571,0.00682,-0.1366
1.9,1.0659,0.01587,0.00699,-0.1358
2,1.0808,0.01604,0.00717,-0.1351
2.1,1.0956,0.01622,0.00736,-0.1342
2.2,1.1106,0.01639,0.00754,-0.1334
2.3,1.1258,0.01656,0.00773,-0.1326
2.4,1.1405,0.01676,0.00794,-0.1317
2.5,1.1558,0.01693,0.00813,-0.1308
2.6,1.1713,0.01708,0.00834,-0.13
2.7,1.1866,0.01727,0.00854,-0.1291
2.8,1.2015,0.01746,0.00877,-0.1282
2.9,1.2162,0.01767,0.009,-0.1272
3,1.232,0.01784,0.00922,-0.1264
3.1,1.2471,0.01803,0.00945,-0.1254
3.2,1.2622,0.01822,0.0097,-0.1244
3.3,1.2771,0.01842,0.00998,-0.1234
3.4,1.2926,0.0186,0.01025,-0.1224
3.6,1.3138,0.01772,0.01081,-0.1189
3.7,1.329,0.01799,0.0111,-0.1178
3.8,1.3437,0.01827,0.0114,-0.1165
3.9,1.3576,0.01856,0.01172,-0.1152
4,1.3725,0.01885,0.01205,-0.1139
4.1,1.3869,0.01913,0.01238,-0.1125
4.2,1.4012,0.01945,0.01275,-0.1112
4.3,1.4149,0.01979,0.01314,-0.1097
4.4,1.4281,0.02015,0.01355,-0.1082
4.5,1.4418,0.02053,0.01399,-0.1067
4.6,1.4562,0.02094,0.01449,-0.1053
4.7,1.4697,0.02139,0.01504,-0.1038
4.8,1.4822,0.02186,0.01561,-0.1022
4.9,1.4938,0.02237,0.01621,-0.1005
5,1.5044,0.02292,0.01685,-0.0987
5.1,1.514,0.0235,0.01752,-0.0969
5.2,1.5227,0.02417,0.0183,-0.0951
5.3,1.5302,0.0249,0.01917,-0.0933
5.4,1.536,0.0257,0.0201,-0.0915
5.5,1.5404,0.02655,0.02109,-0.0896
5.6,1.5435,0.02746,0.02212,-0.0878
5.7,1.5454,0.02844,0.02322,-0.0861
5.8,1.5463,0.02947,0.02437,-0.0845
5.9,1.5464,0.03058,0.02559,-0.0831
6,1.5442,0.03186,0.02699,-0.0819
6.2,1.5358,0.03482,0.03023,-0.0804
6.3,1.5307,0.03645,0.03199,-0.0801
6.5,1.5192,0.04005,0.03581,-0.0806
6.6,1.513,0.04201,0.03787,-0.0815
6.8,1.5005,0.04628,0.04233,-0.0843
7.1,1.4803,0.05377,0.05004,-0.0917
7.4,1.4554,0.06272,0.05916,-0.1017
7.6,1.4456,0.06822,0.06473,-0.1075
7.8,1.4419,0.073,0.06956,-0.1121
7.9,1.4419,0.07513,0.0717,-0.114
8,1.4371,0.07793,0.0745,-0.117
8.1,1.4306,0.08106,0.07765,-0.1206
8.2,1.4289,0.08346,0.08006,-0.123
8.3,1.4287,0.08572,0.08233,-0.1253
8.4,1.4294,0.08783,0.08444,-0.1273
8.5,1.431,0.08983,0.08644,-0.1291
8.6,1.4333,0.09171,0.08833,-0.1308
8.7,1.4364,0.0935,0.09012,-0.1323
8.8,1.4381,0.0955,0.09212,-0.1342
8.9,1.4359,0.09818,0.09481,-0.137
9,1.4359,0.10055,0.09718,-0.1394
9.1,1.437,0.10274,0.09939,-0.1415
9.2,1.4388,0.10483,0.10148,-0.1434
9.3,1.4412,0.10681,0.10347,-0.1452
9.4,1.4452,0.10856,0.10522,-0.1467
9.5,1.449,0.1103,0.10697,-0.1481
9.6,1.4531,0.11196,0.10864,-0.1494
9.7,1.4576,0.11356,0.11024,-0.1507
9.8,1.4577,0.11606,0.11273,-0.1531
9.9,1.4588,0.11841,0.11509,-0.1554
10,1.4609,0.12056,0.11726,-0.1573
10.1,1.4637,0.1226,0.11931,-0.1591
10.2,1.4668,0.12457,0.12128,-0.1608
10.3,1.4703,0.12646,0.12318,-0.1623
10.4,1.4741,0.1283,0.12502,-0.1638
10.5,1.4781,0.13008,0.12681,-0.1652
10.6,1.4824,0.13181,0.12855,-0.1665
10.7,1.4868,0.1335,0.13025,-0.1678
10.8,1.4919,0.135,0.13173,-0.169
10.9,1.4932,0.13759,0.13433,-0.1714
11,1.4959,0.13982,0.13659,-0.1734
11.1,1.499,0.14191,0.13869,-0.1751
11.2,1.5026,0.14392,0.14071,-0.1768
11.3,1.5064,0.14586,0.14265,-0.1784
11.4,1.5104,0.14775,0.14455,-0.1799
11.5,1.5146,0.14959,0.1464,-0.1813
11.6,1.519,0.15139,0.14821,-0.1827
11.7,1.5234,0.15315,0.14998,-0.184
11.8,1.528,0.15488,0.15171,-0.1853
11.9,1.5328,0.15658,0.15341,-0.1866
12,1.5376,0.15823,0.15508,-0.1878
12.1,1.5424,0.15986,0.15671,-0.189
12.2,1.5455,0.16227,0.15912,-0.191
12.3,1.5474,0.1653,0.16215,-0.194
12.4,1.5515,0.16737,0.16424,-0.1956
12.5,1.5558,0.1694,0.16627,-0.1973
12.6,1.5602,0.17138,0.16825,-0.1988
12.7,1.5648,0.17332,0.1702,-0.2003
12.8,1.5695,0.17523,0.17212,-0.2018
12.9,1.5743,0.17712,0.17402,-0.2033
13,1.5792,0.17897,0.17588,-0.2047
13.1,1.5841,0.18081,0.17772,-0.2061
13.2,1.5891,0.18262,0.17954,-0.2074
13.3,1.5942,0.1844,0.18133,-0.2088
13.4,1.5993,0.18616,0.1831,-0.2101
13.5,1.6044,0.1879,0.18486,-0.2114
13.6,1.608,0.19071,0.18766,-0.2137
13.7,1.6122,0.19321,0.19016,-0.2158
13.8,1.6167,0.19555,0.19252,-0.2176
13.9,1.6208,0.19814,0.19512,-0.2199
14,1.6257,0.2003,0.19728,-0.2216
14.1,1.6307,0.20243,0.19942,-0.2232
14.2,1.6358,0.20454,0.20154,-0.2248
14.3,1.641,0.20664,0.20365,-0.2264
14.4,1.6462,0.20871,0.20573,-0.228
14.5,1.6515,0.21078,0.20781,-0.2296
14.6,1.6568,0.21283,0.20987,-0.2311
14.7,1.6622,0.21487,0.21192,-0.2326
14.8,1.6676,0.2169,0.21395,-0.2341
14.9,1.6731,0.21891,0.21598,-0.2356
15,1.6786,0.22092,0.21799,-0.2371
15.1,1.6841,0.2229,0.21998,-0.2386
15.2,1.6891,0.22549,0.22256,-0.2406
15.3,1.6939,0.22841,0.2255,-0.2428
15.4,1.6989,0.23111,0.22821,-0.2449
15.5,1.7041,0.2337,0.23081,-0.2468
15.6,1.7091,0.2366,0.23371,-0.2492
15.7,1.7145,0.23904,0.23616,-0.251
15.8,1.72,0.24145,0.23859,-0.2528
15.9,1.7255,0.24385,0.241,-0.2546
16,1.7311,0.24623,0.2434,-0.2563
16.1,1.7367,0.24859,0.24577,-0.2581
16.2,1.7424,0.25093,0.24812,-0.2598
16.3,1.748,0.25326,0.25046,-0.2615
16.4,1.7537,0.25555,0.25277,-0.2631
16.5,1.7594,0.25784,0.25506,-0.2648
16.6,1.7652,0.26009,0.25732,-0.2664
16.7,1.7703,0.26331,0.26054,-0.2688
16.8,1.7751,0.26747,0.26471,-0.272
16.9,1.7807,0.27038,0.26763,-0.2741
17,1.7862,0.27321,0.27047,-0.2761
17.1,1.7919,0.27601,0.27328,-0.2781
17.2,1.7975,0.27876,0.27604,-0.28
17.3,1.8032,0.28147,0.27876,-0.282
17.4,1.8089,0.28416,0.28145,-0.2839
17.5,1.8147,0.28682,0.28412,-0.2857
17.6,1.8203,0.28959,0.28689,-0.2878
17.7,1.8257,0.2934,0.2907,-0.2904
17.8,1.8313,0.2968,0.29411,-0.2928
17.9,1.8369,0.30009,0.29741,-0.295
18,1.8426,0.30327,0.3006,-0.2972
18.1,1.8483,0.30641,0.30374,-0.2994
18.2,1.8541,0.30967,0.30701,-0.3017
18.3,1.8599,0.31262,0.30997,-0.3037
18.4,1.8657,0.31555,0.3129,-0.3057
18.5,1.8715,0.31845,0.31581,-0.3077
18.6,1.8771,0.32225,0.31961,-0.3102
18.7,1.8828,0.32598,0.32335,-0.3126
18.8,1.8886,0.32957,0.32695,-0.315
18.9,1.8944,0.3331,0.33048,-0.3173
19,1.9002,0.33656,0.33394,-0.3195
19.1,1.906,0.33999,0.33738,-0.3218
19.2,1.9118,0.34342,0.34081,-0.324
19.3,1.9178,0.34706,0.34446,-0.3264
19.4,1.9236,0.35037,0.34777,-0.3285
19.5,1.9295,0.35368,0.35109,-0.3307
19.6,1.9353,0.35698,0.35439,-0.3329
19.7,1.9411,0.36099,0.35839,-0.3354
19.8,1.947,0.36504,0.36245,-0.3379
19.9,1.9528,0.3689,0.36631,-0.3403
20,1.9587,0.37272,0.37014,-0.3427
20.1,1.9646,0.37656,0.37399,-0.345
20.2,1.9705,0.38034,0.37776,-0.3474
20.3,1.9763,0.38413,0.38156,-0.3497
20.4,1.9822,0.38793,0.38537,-0.3521
20.5,1.9881,0.39172,0.38916,-0.3544
20.6,1.9939,0.39551,0.39295,-0.3568
20.7,1.9998,0.39932,0.39677,-0.3591
20.8,2.0056,0.40303,0.40048,-0.3614
20.9,2.0083,0.40805,0.4055,-0.3628
21,2.0146,0.41237,0.40983,-0.3653

