airfoilName st14.dat
Re 	9.700000e+05
M 	7.000000e-01
N 	4.500000e+00
VACC 	0 VACCflag 1
XTR 	1.00 	1.00 XTRflag 0
alpha,cl,cd,cdp,cm
-28,-1.8321,0.7552,0.75335,0.3744
-27.9,-1.8262,0.7485,0.74665,0.3712
-27.8,-1.8203,0.74187,0.74002,0.3682
-27.7,-1.8144,0.73534,0.73349,0.3651
-27.6,-1.8085,0.72884,0.72699,0.362
-27.5,-1.8026,0.7224,0.72055,0.359
-27.4,-1.7966,0.71605,0.71419,0.3559
-27.3,-1.7906,0.70969,0.70783,0.3529
-27.2,-1.7846,0.70344,0.70159,0.3499
-27.1,-1.7786,0.69722,0.69536,0.3468
-27,-1.7725,0.69104,0.68918,0.3438
-26.9,-1.7664,0.68493,0.68307,0.3408
-26.8,-1.7603,0.67885,0.67699,0.3379
-26.7,-1.7542,0.67284,0.67098,0.3349
-26.6,-1.7481,0.66685,0.66498,0.3319
-26.5,-1.7419,0.66095,0.65908,0.329
-26.4,-1.7357,0.65508,0.65321,0.326
-26.3,-1.7296,0.64928,0.64741,0.3231
-26.2,-1.7233,0.64348,0.64161,0.3202
-26.1,-1.7171,0.63776,0.63589,0.3172
-26,-1.7108,0.63205,0.63018,0.3143
-25.9,-1.7046,0.62645,0.62458,0.3115
-25.8,-1.6981,0.62042,0.61855,0.3085
-25.7,-1.6918,0.61494,0.61307,0.3056
-25.6,-1.6855,0.60944,0.60757,0.3028
-25.5,-1.6791,0.604,0.60212,0.2999
-25.4,-1.6728,0.59859,0.59672,0.2971
-25.3,-1.6664,0.59321,0.59134,0.2942
-25.2,-1.66,0.58792,0.58604,0.2914
-25.1,-1.6536,0.58263,0.58076,0.2886
-25,-1.6472,0.5774,0.57552,0.2858
-24.9,-1.6407,0.57223,0.57035,0.283
-24.8,-1.6343,0.56709,0.56521,0.2802
-24.7,-1.6278,0.56195,0.56007,0.2775
-24.6,-1.6213,0.55686,0.55498,0.2747
-24.5,-1.6148,0.55184,0.54995,0.272
-24.4,-1.6083,0.54685,0.54497,0.2692
-24.3,-1.6017,0.54187,0.53999,0.2665
-24.2,-1.5952,0.53695,0.53506,0.2638
-24.1,-1.5886,0.53205,0.53016,0.2611
-24,-1.582,0.52711,0.52522,0.2583
-23.9,-1.5754,0.52232,0.52043,0.2556
-23.8,-1.5688,0.51748,0.51559,0.2529
-23.7,-1.5621,0.51256,0.51067,0.2502
-23.6,-1.5554,0.50773,0.50584,0.2475
-23.3,-1.5342,0.4912,0.48932,0.2384
-23.2,-1.5276,0.48692,0.48503,0.2359
-23.1,-1.5211,0.48268,0.48079,0.2334
-23,-1.5145,0.47846,0.47657,0.2309
-22.9,-1.5079,0.47429,0.4724,0.2284
-22.8,-1.5013,0.47014,0.46825,0.2259
-22.7,-1.4946,0.46602,0.46413,0.2234
-22.6,-1.488,0.46192,0.46003,0.2209
-22.5,-1.4813,0.45787,0.45598,0.2184
-22.4,-1.4747,0.45384,0.45195,0.216
-22.3,-1.468,0.44984,0.44795,0.2136
-22.2,-1.4613,0.44589,0.444,0.2111
-22.1,-1.4547,0.44195,0.44006,0.2087
-22,-1.448,0.43806,0.43617,0.2063
-21.9,-1.4413,0.4342,0.43231,0.2039
-21.8,-1.4346,0.43036,0.42847,0.2015
-21.7,-1.4279,0.42654,0.42466,0.1992
-21.6,-1.4212,0.42277,0.42087,0.1968
-21.5,-1.4145,0.41902,0.41712,0.1945
-21.4,-1.4078,0.4153,0.4134,0.1921
-21.3,-1.4011,0.4116,0.40971,0.1898
-21.2,-1.3943,0.40794,0.40605,0.1875
-21.1,-1.3876,0.40431,0.40242,0.1852
-21,-1.3809,0.4007,0.3988,0.1829
-20.9,-1.3741,0.39713,0.39523,0.1807
-20.8,-1.3674,0.39357,0.39167,0.1784
-20.7,-1.3606,0.39005,0.38815,0.1762
-20.6,-1.3539,0.38654,0.38465,0.1739
-20.5,-1.3472,0.38307,0.38117,0.1717
-20.4,-1.3404,0.37963,0.37774,0.1695
-20.3,-1.3337,0.3763,0.3744,0.1672
-20.2,-1.3269,0.37288,0.37099,0.1651
-20.1,-1.3202,0.3695,0.36761,0.1629
-20,-1.3134,0.36615,0.36426,0.1607
-19.9,-1.3066,0.36282,0.36093,0.1586
-19.8,-1.2999,0.35951,0.35763,0.1564
-19.7,-1.2931,0.35623,0.35434,0.1543
-19.6,-1.2864,0.35297,0.35109,0.1522
-19.5,-1.2796,0.34974,0.34785,0.1501
-19.4,-1.2728,0.34653,0.34464,0.148
-19.3,-1.2661,0.34334,0.34145,0.1459
-19.2,-1.2593,0.34018,0.33829,0.1438
-19.1,-1.2526,0.33704,0.33515,0.1418
-19,-1.2458,0.33392,0.33203,0.1397
-18.9,-1.2391,0.33082,0.32893,0.1377
-18.8,-1.2323,0.32776,0.32587,0.1356
-18.7,-1.2256,0.3247,0.32281,0.1336
-18.6,-1.2188,0.32167,0.31978,0.1316
-18.5,-1.2121,0.31866,0.31677,0.1296
-18.4,-1.2054,0.31568,0.31379,0.1277
-18.3,-1.1987,0.31271,0.31083,0.1257
-18.2,-1.1919,0.30976,0.30787,0.1237
-18.1,-1.1852,0.30684,0.30495,0.1218
-18,-1.1785,0.30393,0.30205,0.1198
-17.9,-1.1718,0.30105,0.29916,0.1179
-17.8,-1.1651,0.29817,0.29629,0.116
-17.7,-1.1584,0.29532,0.29344,0.1141
-17.6,-1.1516,0.29248,0.29059,0.1121
-17.5,-1.1449,0.28965,0.28777,0.1102
-17.4,-1.1382,0.28684,0.28496,0.1083
-17.3,-1.1314,0.28405,0.28217,0.1064
-17.2,-1.1247,0.28125,0.27937,0.1045
-17.1,-1.1179,0.27848,0.2766,0.1026
-17,-1.1112,0.2757,0.27382,0.1007
-16.9,-1.1044,0.27293,0.27106,0.0988
-16.8,-1.0976,0.27013,0.26826,0.0969
-16.6,-1.083,0.26384,0.26197,0.0927
-16.5,-1.0765,0.26125,0.25938,0.091
-16.4,-1.0699,0.25868,0.25682,0.0894
-16.3,-1.0634,0.25614,0.25428,0.0877
-16.2,-1.0568,0.25362,0.25175,0.086
-16.1,-1.0503,0.25112,0.24926,0.0843
-16,-1.0438,0.24864,0.24678,0.0827
-15.9,-1.0373,0.24619,0.24432,0.0811
-15.8,-1.0308,0.24375,0.24189,0.0794
-15.7,-1.0242,0.24132,0.23946,0.0778
-15.6,-1.0177,0.23892,0.23706,0.0762
-15.5,-1.0112,0.23654,0.23468,0.0746
-15.4,-1.0049,0.23437,0.23252,0.073
-15.3,-0.9983,0.232,0.23015,0.0714
-15.2,-0.9918,0.22965,0.2278,0.0698
-15.1,-0.9853,0.22731,0.22546,0.0683
-15,-0.9788,0.22499,0.22314,0.0667
-14.9,-0.9723,0.22269,0.22084,0.0652
-14.8,-0.9658,0.2204,0.21855,0.0637
-14.7,-0.9593,0.21812,0.21627,0.0621
-14.6,-0.9528,0.21586,0.21401,0.0606
-14.5,-0.9462,0.2136,0.21175,0.0591
-14.4,-0.9397,0.21135,0.20951,0.0576
-14.3,-0.9331,0.20912,0.20728,0.0561
-14.2,-0.9266,0.2069,0.20506,0.0546
-14.1,-0.92,0.20469,0.20286,0.0532
-14,-0.9134,0.2025,0.20067,0.0517
-13.9,-0.9068,0.20032,0.19849,0.0502
-13.8,-0.9003,0.19816,0.19633,0.0488
-13.7,-0.8937,0.19601,0.19418,0.0474
-13.6,-0.8871,0.19387,0.19204,0.0459
-13.5,-0.8805,0.19174,0.18992,0.0445
-13.4,-0.8739,0.18963,0.18781,0.0431
-13.3,-0.8673,0.18753,0.18571,0.0417
-13.2,-0.8607,0.18545,0.18363,0.0403
-13.1,-0.8541,0.18338,0.18156,0.0389
-13,-0.8475,0.18132,0.17951,0.0375
-12.9,-0.8409,0.17928,0.17747,0.0361
-12.8,-0.8343,0.17725,0.17544,0.0347
-12.7,-0.8277,0.17524,0.17343,0.0334
-12.6,-0.8211,0.17323,0.17142,0.032
-12.5,-0.8144,0.17124,0.16943,0.0306
-12.4,-0.8077,0.16925,0.16745,0.0293
-12.3,-0.801,0.16728,0.16548,0.0279
-12.2,-0.7943,0.16532,0.16352,0.0266
-12.1,-0.7876,0.16337,0.16157,0.0253
-12,-0.7809,0.16143,0.15964,0.0239
-11.9,-0.7742,0.15951,0.15772,0.0226
-11.8,-0.7674,0.1576,0.15581,0.0213
-11.7,-0.7607,0.1557,0.15392,0.02
-11.6,-0.754,0.15381,0.15203,0.0187
-11.5,-0.7472,0.15194,0.15016,0.0174
-11.4,-0.7405,0.15008,0.14831,0.0161
-11.3,-0.7338,0.14824,0.14647,0.0148
-11.2,-0.727,0.14641,0.14464,0.0136
-11.1,-0.7203,0.14459,0.14282,0.0123
-11,-0.7136,0.14278,0.14102,0.0111
-10.9,-0.7068,0.14097,0.13921,0.0098
-10.8,-0.7,0.13916,0.1374,0.0086
-10.7,-0.6933,0.13738,0.13562,0.0074
-10.6,-0.6865,0.13558,0.13383,0.0062
-10.5,-0.6782,0.13297,0.13122,0.0044
-10.4,-0.6713,0.13119,0.12946,0.0032
-10.3,-0.6648,0.12954,0.12781,0.0021
-10.2,-0.6583,0.1279,0.12618,0.0011
-10.1,-0.6519,0.12629,0.12457,0
-10,-0.6455,0.1247,0.12299,-0.001
-9.9,-0.6392,0.12314,0.12143,-0.002
-9.8,-0.6329,0.1216,0.11989,-0.003
-9.7,-0.6267,0.12008,0.11838,-0.004
-9.6,-0.6206,0.11859,0.1169,-0.0049
-9.5,-0.6146,0.11713,0.11545,-0.0058
-9.4,-0.6057,0.11542,0.11374,-0.0075
-9.3,-0.5963,0.11368,0.112,-0.0094
-9.2,-0.5866,0.11193,0.11025,-0.0113
-9.1,-0.5772,0.11024,0.10856,-0.0132
-9,-0.5677,0.10856,0.10688,-0.015
-8.9,-0.558,0.10689,0.10521,-0.0169
-8.8,-0.5479,0.10521,0.10353,-0.0189
-8.7,-0.5382,0.10358,0.10191,-0.0207
-8.6,-0.5287,0.10198,0.10031,-0.0225
-8.5,-0.5188,0.10039,0.09871,-0.0244
-8.4,-0.5087,0.09879,0.09712,-0.0263
-8.3,-0.4999,0.09732,0.09564,-0.0278
-8.2,-0.4908,0.09585,0.09417,-0.0294
-8.1,-0.4814,0.09437,0.09269,-0.031
-8,-0.4722,0.09292,0.09124,-0.0325
-7.9,-0.4638,0.09155,0.08987,-0.0338
-7.8,-0.4553,0.09019,0.0885,-0.0351
-7.7,-0.4469,0.08885,0.08715,-0.0364
-7.6,-0.4388,0.08755,0.08585,-0.0375
-7.5,-0.4309,0.08627,0.08457,-0.0386
-7.4,-0.4231,0.08502,0.08331,-0.0396
-7.3,-0.4152,0.08377,0.08205,-0.0406
-7.2,-0.4077,0.08257,0.08083,-0.0415
-7.1,-0.3999,0.08137,0.07961,-0.0425
-7,-0.3916,0.08014,0.07838,-0.0436
-6.9,-0.3836,0.07895,0.07716,-0.0446
-6.8,-0.3752,0.07775,0.07595,-0.0458
-6.7,-0.3667,0.07655,0.07474,-0.047
-6.6,-0.3581,0.07537,0.07354,-0.0481
-6.5,-0.3492,0.07417,0.07233,-0.0494
-6.4,-0.3403,0.073,0.07114,-0.0507
-6.3,-0.3313,0.07182,0.06995,-0.0519
-6.2,-0.3221,0.07065,0.06876,-0.0533
-6.1,-0.313,0.06951,0.06759,-0.0546
-6,-0.3038,0.06837,0.06644,-0.056
-5.9,-0.2945,0.06726,0.06531,-0.0574
-5.8,-0.2834,0.06607,0.0641,-0.0593
-5.7,-0.2711,0.06483,0.06284,-0.0615
-5.6,-0.2584,0.06357,0.06156,-0.0637
-5.5,-0.2452,0.0623,0.06027,-0.066
-5.4,-0.2315,0.06102,0.05897,-0.0685
-5.3,-0.2175,0.05973,0.05766,-0.0709
-5.2,-0.2032,0.05842,0.05632,-0.0734
-5.1,-0.188,0.05708,0.05497,-0.0761
-5,-0.1728,0.05573,0.05359,-0.0788
-4.9,-0.157,0.05434,0.05216,-0.0816
-4.8,-0.1406,0.05285,0.05066,-0.0845
-4.6,-0.1056,0.05009,0.04784,-0.0906
-4.5,-0.0877,0.04885,0.04658,-0.0935
-4.4,-0.0692,0.04759,0.0453,-0.0964
-4.3,-0.0504,0.04634,0.04401,-0.0994
-4.2,-0.0314,0.0451,0.04273,-0.1022
-3.9,0.0291,0.04125,0.03878,-0.1112
-3.8,0.0503,0.03993,0.03743,-0.1143
-3.7,0.0716,0.03861,0.03606,-0.1173
-3.6,0.0935,0.03726,0.03466,-0.1203
-3.5,0.1152,0.03592,0.03324,-0.1232
-3.4,0.1379,0.03451,0.03177,-0.1263
-3.3,0.1605,0.03307,0.03024,-0.1292
-3.2,0.1847,0.03145,0.02855,-0.1326
-3.1,0.2102,0.02955,0.02656,-0.1363
-3,0.2341,0.02805,0.02497,-0.1393
-2.9,0.2569,0.02684,0.02366,-0.1416
-2.8,0.2802,0.02554,0.02227,-0.144
-2.7,0.304,0.02413,0.02076,-0.1465
-2.5,0.3516,0.02085,0.01718,-0.1515
-2.4,0.3765,0.01855,0.01467,-0.1548
-2.2,0.4196,0.01452,0.01011,-0.1593
-2.1,0.4403,0.01214,0.00732,-0.1618
-2,0.4598,0.01098,0.0058,-0.1625
-1.9,0.479,0.01041,0.00501,-0.1626
-1.7,0.5165,0.00996,0.00428,-0.1619
-1.6,0.5338,0.00984,0.00399,-0.1613
-1.5,0.5521,0.00973,0.00377,-0.1609
-1.4,0.5704,0.00965,0.00362,-0.1605
-1.3,0.5884,0.00961,0.0035,-0.1601
-1.2,0.6059,0.0096,0.0034,-0.1596
-1.1,0.6237,0.00959,0.00332,-0.1592
-1,0.6399,0.00964,0.00328,-0.1586
-0.9,0.6573,0.00965,0.00323,-0.1582
-0.8,0.6746,0.00968,0.0032,-0.1577
-0.7,0.6918,0.00971,0.00317,-0.1573
-0.6,0.7088,0.00976,0.00316,-0.1569
-0.4,0.7413,0.00992,0.0032,-0.1558
-0.3,0.7566,0.01007,0.00326,-0.1552
-0.2,0.7702,0.01031,0.00336,-0.1543
-0.1,0.7845,0.01052,0.00345,-0.1535
0.1,0.8095,0.01119,0.00381,-0.1517
0.2,0.8251,0.01135,0.00391,-0.1512
0.3,0.8414,0.01146,0.00398,-0.1507
0.4,0.8578,0.01155,0.00406,-0.1502
0.5,0.8745,0.01164,0.00412,-0.1498
0.6,0.8909,0.01174,0.0042,-0.1494
0.7,0.9074,0.01184,0.00429,-0.1489
0.8,0.9241,0.01192,0.00437,-0.1485
0.9,0.9407,0.01201,0.00446,-0.148
1,0.9576,0.01209,0.00453,-0.1475
1.1,0.9744,0.01218,0.00461,-0.1471
1.2,0.991,0.01226,0.00469,-0.1466
1.3,1.0076,0.01236,0.0048,-0.1461
1.4,1.0245,0.01244,0.00489,-0.1456
1.5,1.041,0.01254,0.00498,-0.1451
1.6,1.0577,0.01264,0.00508,-0.1445
1.7,1.0743,0.01274,0.0052,-0.144
1.8,1.0911,0.01283,0.0053,-0.1434
1.9,1.1079,0.01292,0.00541,-0.1428
2,1.1246,0.01302,0.00552,-0.1422
2.1,1.1411,0.01313,0.00564,-0.1416
2.2,1.1576,0.01325,0.00577,-0.1409
2.3,1.1744,0.01335,0.00588,-0.1402
2.4,1.1911,0.01346,0.00601,-0.1395
2.5,1.2077,0.01357,0.00615,-0.1388
2.6,1.2242,0.0137,0.00629,-0.138
2.7,1.2407,0.01382,0.00644,-0.1373
2.8,1.2574,0.01393,0.00658,-0.1365
2.9,1.2741,0.01406,0.00672,-0.1356
3,1.2907,0.01418,0.00688,-0.1348
3.1,1.3072,0.01432,0.00704,-0.1339
3.2,1.3236,0.01445,0.00721,-0.1329
3.3,1.34,0.01459,0.00739,-0.1319
3.4,1.3565,0.01473,0.00756,-0.1309
3.5,1.373,0.01487,0.00774,-0.1299
3.6,1.3894,0.01502,0.00793,-0.1288
3.7,1.4054,0.01518,0.00812,-0.1276
3.8,1.4216,0.01534,0.00833,-0.1265
3.9,1.4381,0.01549,0.00855,-0.1253
4,1.4545,0.01565,0.00877,-0.1241
4.1,1.4711,0.0158,0.00901,-0.1228
4.2,1.4828,0.01473,0.00945,-0.1214
4.3,1.4992,0.01495,0.00971,-0.12
4.4,1.5149,0.01516,0.00995,-0.1185
4.5,1.5303,0.0154,0.01023,-0.1169
4.6,1.546,0.01564,0.01053,-0.1153
4.7,1.5618,0.01591,0.01085,-0.1137
4.8,1.5777,0.0162,0.0112,-0.112
4.9,1.5936,0.01652,0.01158,-0.1103
5,1.6094,0.01686,0.01199,-0.1085
5.1,1.625,0.01725,0.01245,-0.1068
5.2,1.6403,0.01768,0.01297,-0.1049
5.3,1.6552,0.01821,0.01361,-0.1031
5.4,1.6679,0.01882,0.01435,-0.1011
5.5,1.6781,0.01952,0.01518,-0.0989
5.6,1.6855,0.02029,0.01609,-0.0966
5.7,1.6901,0.02113,0.01707,-0.0942
5.8,1.6924,0.02202,0.0181,-0.0917
5.9,1.6927,0.02299,0.01921,-0.0892
6,1.6924,0.02398,0.02033,-0.0868
6.1,1.69,0.02507,0.02154,-0.0846
6.2,1.6866,0.02624,0.02282,-0.0825
6.3,1.6806,0.02759,0.0243,-0.0807
6.4,1.6742,0.02901,0.02584,-0.0792
6.5,1.6672,0.03054,0.02748,-0.0781
6.6,1.6599,0.03215,0.02921,-0.0773
6.7,1.6524,0.03388,0.03105,-0.0769
6.8,1.6448,0.03572,0.03299,-0.0769
6.9,1.6371,0.03767,0.03503,-0.0774
7,1.6294,0.03974,0.0372,-0.0782
7.2,1.614,0.04423,0.04185,-0.0812
7.3,1.6065,0.04665,0.04435,-0.0833
7.4,1.5992,0.04918,0.04694,-0.0856
7.5,1.5922,0.05179,0.04962,-0.0883
7.6,1.581,0.05486,0.05275,-0.0917
7.8,1.5629,0.06086,0.05884,-0.0981
8,1.5473,0.06679,0.06484,-0.1042
8.1,1.5412,0.06961,0.06768,-0.107
8.2,1.5362,0.07229,0.07038,-0.1096
8.4,1.5294,0.07731,0.07542,-0.1146
8.6,1.5211,0.08251,0.08063,-0.1201
8.7,1.5165,0.08523,0.08335,-0.123
8.8,1.5126,0.08785,0.08597,-0.1258
9,1.5091,0.09265,0.09078,-0.1306
9.1,1.5086,0.09493,0.09307,-0.1329
9.2,1.5088,0.09714,0.09528,-0.135
9.3,1.5097,0.09927,0.09741,-0.1371
9.4,1.5112,0.10133,0.09947,-0.139
9.5,1.5134,0.10332,0.10146,-0.1408
9.6,1.5118,0.1058,0.10395,-0.1433
9.7,1.5106,0.10829,0.10644,-0.1458
9.8,1.5105,0.11064,0.1088,-0.1481
9.9,1.511,0.11292,0.11107,-0.1503
10,1.5123,0.1151,0.11326,-0.1523
10.1,1.5142,0.1172,0.11536,-0.1542
10.2,1.5165,0.11923,0.1174,-0.156
10.3,1.5192,0.12122,0.11939,-0.1578
10.4,1.5223,0.12314,0.12133,-0.1594
10.5,1.5257,0.12503,0.12322,-0.161
10.6,1.5294,0.12686,0.12505,-0.1625
10.7,1.5294,0.12936,0.12755,-0.1649
10.8,1.5303,0.13172,0.12992,-0.167
10.9,1.532,0.13398,0.13218,-0.1691
11,1.5342,0.13616,0.13436,-0.171
11.1,1.5368,0.13828,0.13649,-0.1728
11.2,1.5397,0.14036,0.13857,-0.1745
11.3,1.5429,0.14239,0.14061,-0.1762
11.4,1.5469,0.1443,0.14252,-0.1778
11.5,1.5507,0.1462,0.14443,-0.1793
11.6,1.5547,0.14807,0.1463,-0.1808
11.7,1.5588,0.14989,0.14813,-0.1823
11.8,1.5631,0.15168,0.14992,-0.1837
11.9,1.5643,0.15425,0.15248,-0.186
12,1.5666,0.15659,0.15484,-0.188
12.1,1.5693,0.15885,0.15709,-0.1899
12.2,1.5725,0.16103,0.15928,-0.1917
12.3,1.576,0.16316,0.16142,-0.1935
12.4,1.5796,0.16526,0.16352,-0.1952
12.5,1.5835,0.16732,0.16558,-0.1969
12.6,1.5875,0.16935,0.16762,-0.1985
12.7,1.5916,0.17135,0.16963,-0.2001
12.8,1.5959,0.17334,0.17161,-0.2017
12.9,1.6008,0.17515,0.17344,-0.2032
13,1.6055,0.17704,0.17533,-0.2047
13.1,1.6101,0.17891,0.17721,-0.2062
13.2,1.614,0.18111,0.17941,-0.208
13.3,1.6169,0.18374,0.18204,-0.2101
13.4,1.6205,0.18617,0.18447,-0.2121
13.5,1.6244,0.1885,0.18681,-0.214
13.6,1.6286,0.19078,0.18909,-0.2158
13.7,1.6329,0.19303,0.19135,-0.2176
13.8,1.6373,0.19523,0.19356,-0.2193
13.9,1.6418,0.19742,0.19575,-0.221
14,1.6465,0.19959,0.19793,-0.2227
14.1,1.6512,0.20175,0.20009,-0.2244
14.2,1.656,0.2039,0.20224,-0.226
14.3,1.6609,0.20604,0.20439,-0.2277
14.4,1.6659,0.20816,0.20652,-0.2293
14.5,1.6709,0.21029,0.20865,-0.2309
14.6,1.6764,0.21225,0.21061,-0.2325
14.7,1.6815,0.21433,0.2127,-0.234
14.8,1.6868,0.21638,0.21476,-0.2356
14.9,1.6908,0.21931,0.21769,-0.2378
15,1.6952,0.22204,0.22042,-0.2399
15.1,1.6998,0.22467,0.22305,-0.2419
15.2,1.7047,0.22722,0.22561,-0.2438
15.3,1.7096,0.22974,0.22814,-0.2457
15.4,1.7147,0.23223,0.23064,-0.2475
15.5,1.7199,0.2347,0.23311,-0.2494
15.6,1.7251,0.23716,0.23558,-0.2512
15.7,1.7304,0.23961,0.23804,-0.253
15.8,1.7357,0.24205,0.24049,-0.2548
15.9,1.7411,0.24449,0.24293,-0.2565
16,1.7466,0.24691,0.24536,-0.2583
16.1,1.7523,0.24923,0.24769,-0.26
16.2,1.7579,0.25159,0.25005,-0.2617
16.3,1.7635,0.25392,0.25239,-0.2634
16.4,1.7684,0.25695,0.25542,-0.2656
16.5,1.7732,0.26025,0.25873,-0.268
16.6,1.7782,0.26332,0.2618,-0.2702
16.7,1.7834,0.26627,0.26476,-0.2723
16.8,1.7888,0.26915,0.26764,-0.2743
16.9,1.7943,0.27207,0.27057,-0.2764
17,1.8,0.27476,0.27327,-0.2783
17.1,1.8058,0.27738,0.27589,-0.2802
17.2,1.8107,0.28092,0.27944,-0.2827
17.3,1.8158,0.28436,0.28288,-0.285
17.4,1.8211,0.28759,0.28611,-0.2873
17.5,1.8266,0.29071,0.28924,-0.2894
17.6,1.8321,0.29378,0.29232,-0.2915
17.7,1.8379,0.29676,0.2953,-0.2936
17.8,1.8434,0.30001,0.29854,-0.2958
17.9,1.8486,0.30362,0.30215,-0.2982
18,1.8541,0.307,0.30554,-0.3005
18.1,1.8596,0.31033,0.30888,-0.3027
18.2,1.8652,0.31362,0.31217,-0.3049
18.3,1.8709,0.31688,0.31544,-0.3071
18.4,1.8765,0.32014,0.3187,-0.3092
18.5,1.8822,0.32337,0.32193,-0.3114
18.6,1.888,0.32661,0.32518,-0.3135
18.7,1.8937,0.32984,0.32841,-0.3156
18.8,1.8992,0.33346,0.33202,-0.318
18.9,1.9048,0.3371,0.33567,-0.3203
19,1.9104,0.34067,0.33925,-0.3226
19.1,1.9161,0.34424,0.34281,-0.3249
19.2,1.9218,0.34781,0.34639,-0.3272
19.3,1.9275,0.35137,0.34995,-0.3295
19.4,1.9332,0.35514,0.35372,-0.3318
19.5,1.939,0.35869,0.35727,-0.3341
19.6,1.9447,0.36226,0.36084,-0.3363
19.7,1.9505,0.36586,0.36444,-0.3386
19.8,1.9562,0.36945,0.36804,-0.3408
19.9,1.962,0.37305,0.37164,-0.3431
20,1.9677,0.37696,0.37555,-0.3455
20.1,1.9734,0.38096,0.37955,-0.348
20.2,1.9792,0.38483,0.38343,-0.3503
20.3,1.9849,0.38874,0.38734,-0.3527
20.4,1.9907,0.39268,0.39127,-0.3551
20.5,1.9964,0.39659,0.39519,-0.3575
20.6,2.0022,0.40053,0.39913,-0.3599
20.7,2.008,0.4045,0.40311,-0.3622
20.8,2.0138,0.40849,0.4071,-0.3646
20.9,2.0195,0.4125,0.41111,-0.367
21,2.0253,0.41653,0.41514,-0.3694
21.1,2.0311,0.42058,0.41919,-0.3718
21.2,2.0368,0.42465,0.42326,-0.3743
21.3,2.0426,0.42876,0.42738,-0.3767
21.4,2.0483,0.4329,0.43153,-0.3791
21.5,2.0541,0.43705,0.43568,-0.3815
21.6,2.0598,0.44124,0.43987,-0.384
21.7,2.0656,0.44546,0.44409,-0.3864
21.8,2.0713,0.44969,0.44832,-0.3889
22.1,2.0892,0.46717,0.46581,-0.3971
22.2,2.0888,0.47784,0.47649,-0.3985

