airfoilName st15.dat
Re 	8.300000e+05
M 	7.000000e-01
N 	4.500000e+00
VACC 	0 VACCflag 1
XTR 	1.00 	1.00 XTRflag 0
alpha,cl,cd,cdp,cm
-28.8,-1.8329,0.79177,0.78977,0.3873
-28.7,-1.8271,0.78446,0.78246,0.3841
-28.6,-1.8215,0.77779,0.77578,0.381
-28.5,-1.8158,0.77114,0.76913,0.3778
-28.4,-1.8101,0.76447,0.76247,0.3747
-28.3,-1.8044,0.75789,0.75588,0.3716
-28.2,-1.7986,0.75136,0.74935,0.3685
-28.1,-1.7928,0.74491,0.7429,0.3654
-28,-1.787,0.7385,0.73649,0.3624
-27.9,-1.7812,0.73216,0.73014,0.3593
-27.8,-1.7753,0.72586,0.72385,0.3563
-27.7,-1.7695,0.71962,0.71761,0.3532
-27.6,-1.7635,0.71342,0.7114,0.3502
-27.5,-1.7577,0.70732,0.7053,0.3472
-27.4,-1.7517,0.70124,0.69922,0.3442
-27.3,-1.7458,0.69522,0.69319,0.3411
-27.2,-1.7398,0.68925,0.68722,0.3381
-27.1,-1.7338,0.68333,0.6813,0.3352
-27,-1.7278,0.67746,0.67543,0.3322
-26.9,-1.7218,0.67166,0.66963,0.3292
-26.8,-1.7157,0.6659,0.66387,0.3263
-26.7,-1.7097,0.66019,0.65816,0.3234
-26.6,-1.7036,0.65453,0.6525,0.3204
-26.5,-1.6975,0.64892,0.64688,0.3175
-26.4,-1.6914,0.64336,0.64132,0.3146
-26.3,-1.6853,0.63782,0.63578,0.3117
-26.2,-1.6792,0.63236,0.63032,0.3088
-26.1,-1.673,0.62693,0.62489,0.3059
-26,-1.6668,0.62156,0.61952,0.3031
-25.9,-1.6606,0.61621,0.61417,0.3002
-25.8,-1.6544,0.61095,0.6089,0.2974
-25.7,-1.6482,0.60566,0.60362,0.2945
-25.6,-1.6419,0.60046,0.59842,0.2917
-25.5,-1.6357,0.5953,0.59325,0.2889
-25.4,-1.6294,0.59019,0.58814,0.2861
-25.3,-1.6231,0.58512,0.58307,0.2833
-25.2,-1.6168,0.58006,0.57801,0.2805
-25.1,-1.6105,0.57508,0.57303,0.2778
-25,-1.6042,0.57011,0.56806,0.275
-24.9,-1.5979,0.56523,0.56318,0.2723
-24.8,-1.5915,0.56032,0.55826,0.2695
-24.7,-1.5851,0.5555,0.55344,0.2668
-24.6,-1.5787,0.5507,0.54864,0.2641
-24.5,-1.5724,0.54594,0.54388,0.2614
-24.4,-1.5659,0.54121,0.53915,0.2587
-24.2,-1.5531,0.53183,0.52976,0.2533
-24.1,-1.5466,0.52721,0.52515,0.2507
-24,-1.5401,0.52263,0.52057,0.248
-23.9,-1.5337,0.51809,0.51603,0.2454
-23.8,-1.5272,0.51358,0.51152,0.2428
-23.7,-1.5207,0.50911,0.50705,0.2402
-23.6,-1.5142,0.50466,0.5026,0.2376
-23.5,-1.5077,0.50027,0.4982,0.235
-23.4,-1.5011,0.4959,0.49383,0.2324
-23.3,-1.4946,0.49155,0.48948,0.2298
-23.2,-1.488,0.48724,0.48518,0.2273
-23.1,-1.4815,0.48298,0.48092,0.2247
-23,-1.4749,0.47873,0.47666,0.2222
-22.9,-1.4683,0.4745,0.47244,0.2197
-22.8,-1.4617,0.47033,0.46827,0.2171
-22.7,-1.4551,0.46618,0.46412,0.2146
-22.6,-1.4485,0.46206,0.45999,0.2122
-22.5,-1.4418,0.45797,0.4559,0.2097
-22.4,-1.4352,0.45389,0.45182,0.2072
-22.3,-1.4285,0.44985,0.44779,0.2047
-22.2,-1.4219,0.44584,0.44377,0.2023
-22.1,-1.4152,0.44188,0.4398,0.1998
-22,-1.4085,0.43793,0.43586,0.1974
-21.9,-1.4018,0.43401,0.43194,0.195
-21.8,-1.3951,0.43009,0.42802,0.1926
-21.7,-1.3884,0.42622,0.42414,0.1902
-21.6,-1.3817,0.4224,0.42033,0.1878
-21.5,-1.375,0.41857,0.4165,0.1854
-21.4,-1.3683,0.41477,0.41269,0.183
-21.3,-1.3615,0.411,0.40893,0.1806
-21.2,-1.3548,0.40726,0.40518,0.1782
-21.1,-1.348,0.40352,0.40145,0.1759
-21,-1.3413,0.39984,0.39776,0.1735
-20.9,-1.3344,0.39612,0.39404,0.1711
-20.8,-1.3276,0.39246,0.39039,0.1686
-20.6,-1.3136,0.38476,0.3827,0.1633
-20.5,-1.3069,0.3813,0.37923,0.1611
-20.4,-1.3002,0.37787,0.3758,0.1589
-20.3,-1.2935,0.37447,0.3724,0.1568
-20.2,-1.2868,0.37108,0.36902,0.1546
-20.1,-1.2802,0.36774,0.36568,0.1525
-20,-1.2735,0.36443,0.36236,0.1503
-19.9,-1.2668,0.36113,0.35907,0.1482
-19.8,-1.2601,0.35787,0.35581,0.1461
-19.7,-1.2534,0.35463,0.35257,0.144
-19.6,-1.2468,0.35142,0.34935,0.142
-19.5,-1.2401,0.34823,0.34617,0.1399
-19.4,-1.2334,0.34506,0.34299,0.1378
-19.3,-1.2268,0.34192,0.33986,0.1358
-19.2,-1.2201,0.33881,0.33675,0.1338
-19.1,-1.2135,0.33572,0.33365,0.1318
-19,-1.2068,0.33265,0.33058,0.1298
-18.9,-1.2001,0.32961,0.32754,0.1278
-18.8,-1.1935,0.3266,0.32453,0.1258
-18.6,-1.1803,0.32086,0.31879,0.1218
-18.5,-1.1737,0.31788,0.31582,0.1199
-18.4,-1.167,0.31494,0.31288,0.118
-18.3,-1.1604,0.31201,0.30995,0.1161
-18.2,-1.1538,0.30911,0.30705,0.1142
-18.1,-1.1472,0.30624,0.30418,0.1123
-18,-1.1406,0.30338,0.30132,0.1104
-17.9,-1.134,0.30055,0.29849,0.1085
-17.8,-1.1273,0.29773,0.29567,0.1067
-17.7,-1.1207,0.29493,0.29287,0.1048
-17.6,-1.1141,0.29215,0.2901,0.103
-17.5,-1.1075,0.28939,0.28733,0.1012
-17.4,-1.1009,0.28664,0.28459,0.0994
-17.3,-1.0943,0.28391,0.28186,0.0976
-17.2,-1.0877,0.2812,0.27915,0.0958
-17.1,-1.0811,0.27851,0.27646,0.094
-17,-1.0745,0.27584,0.27379,0.0922
-16.9,-1.0679,0.27319,0.27114,0.0905
-16.8,-1.0613,0.27056,0.26851,0.0887
-16.7,-1.0548,0.26794,0.26589,0.087
-16.6,-1.0482,0.26534,0.26329,0.0853
-16.5,-1.0416,0.26276,0.26071,0.0835
-16.4,-1.0351,0.2602,0.25815,0.0818
-16.3,-1.0285,0.25765,0.25561,0.0801
-16.2,-1.022,0.25513,0.25308,0.0784
-16.1,-1.0155,0.25261,0.25057,0.0768
-16,-1.0089,0.25011,0.24807,0.0751
-15.9,-1.0024,0.24763,0.24559,0.0734
-15.8,-0.9959,0.24517,0.24313,0.0718
-15.7,-0.9894,0.24272,0.24068,0.0701
-15.6,-0.9829,0.24028,0.23824,0.0685
-15.5,-0.9763,0.23786,0.23583,0.0669
-15.4,-0.9698,0.23546,0.23342,0.0652
-15.3,-0.9633,0.23306,0.23103,0.0636
-15.2,-0.9568,0.23069,0.22865,0.062
-15.1,-0.9503,0.22832,0.22629,0.0604
-15,-0.9438,0.22596,0.22393,0.0588
-14.9,-0.9373,0.2236,0.22157,0.0572
-14.8,-0.9307,0.22124,0.21921,0.0556
-14.7,-0.9241,0.21888,0.21686,0.054
-14.6,-0.9175,0.21651,0.21449,0.0524
-14.5,-0.9109,0.21411,0.21209,0.0508
-14.3,-0.8962,0.20875,0.20674,0.0471
-14.2,-0.8898,0.2065,0.20449,0.0457
-14.1,-0.8835,0.20427,0.20227,0.0443
-14,-0.8771,0.20207,0.20006,0.0429
-13.9,-0.8708,0.19988,0.19788,0.0415
-13.8,-0.8644,0.19772,0.19571,0.0401
-13.7,-0.8582,0.19575,0.19374,0.0386
-13.6,-0.8518,0.19361,0.19161,0.0373
-13.5,-0.8454,0.19149,0.18949,0.0359
-13.4,-0.839,0.18938,0.18739,0.0345
-13.3,-0.8326,0.1873,0.1853,0.0332
-13.2,-0.8262,0.18523,0.18324,0.0318
-13.1,-0.8198,0.18318,0.18119,0.0305
-13,-0.8133,0.18115,0.17916,0.0292
-12.9,-0.8069,0.17913,0.17714,0.0279
-12.8,-0.8005,0.17712,0.17514,0.0266
-12.7,-0.7941,0.17514,0.17315,0.0253
-12.6,-0.7877,0.17316,0.17118,0.024
-12.5,-0.7812,0.1712,0.16923,0.0227
-12.4,-0.7748,0.16925,0.16728,0.0214
-12.3,-0.7683,0.16732,0.16534,0.0201
-12.2,-0.7619,0.1654,0.16343,0.0189
-12.1,-0.7554,0.1635,0.16153,0.0176
-12,-0.749,0.16161,0.15965,0.0164
-11.9,-0.7425,0.15974,0.15778,0.0151
-11.8,-0.7361,0.15788,0.15592,0.0139
-11.7,-0.7296,0.15604,0.15409,0.0127
-11.6,-0.7232,0.15422,0.15227,0.0115
-11.5,-0.7168,0.15241,0.15047,0.0103
-11.4,-0.7104,0.15062,0.14868,0.0092
-11.3,-0.704,0.14885,0.14692,0.008
-11.2,-0.6976,0.1471,0.14517,0.0069
-11.1,-0.6913,0.14536,0.14343,0.0057
-11,-0.6849,0.14364,0.14171,0.0046
-10.9,-0.6786,0.14193,0.14,0.0035
-10.8,-0.6723,0.14024,0.13831,0.0024
-10.7,-0.666,0.13856,0.13665,0.0014
-10.6,-0.6598,0.13691,0.135,0.0003
-10.5,-0.6536,0.13527,0.13337,-0.0007
-10.4,-0.6475,0.13366,0.13176,-0.0017
-10.3,-0.6415,0.13208,0.13018,-0.0026
-10.2,-0.6356,0.13051,0.12863,-0.0035
-10.1,-0.6299,0.12898,0.1271,-0.0044
-10,-0.6244,0.12749,0.12561,-0.0052
-9.9,-0.6191,0.12603,0.12416,-0.0059
-9.8,-0.6141,0.12461,0.12276,-0.0065
-9.7,-0.6057,0.12286,0.121,-0.0082
-9.6,-0.5963,0.12104,0.11918,-0.0101
-9.5,-0.5868,0.11922,0.11736,-0.012
-9.4,-0.5771,0.1174,0.11555,-0.014
-9.3,-0.5676,0.11562,0.11377,-0.0159
-9.2,-0.558,0.11384,0.11199,-0.0179
-9.1,-0.5485,0.1121,0.11025,-0.0198
-9,-0.5387,0.11036,0.1085,-0.0217
-8.9,-0.5286,0.1086,0.10674,-0.0237
-8.8,-0.5195,0.10694,0.10509,-0.0254
-8.7,-0.5102,0.10527,0.10342,-0.0272
-8.6,-0.5005,0.10359,0.10174,-0.0291
-8.5,-0.4899,0.10156,0.09971,-0.0313
-8.4,-0.4797,0.09982,0.09796,-0.0333
-8.3,-0.4708,0.09821,0.09635,-0.0348
-8.2,-0.4615,0.09657,0.09471,-0.0364
-8.1,-0.4518,0.09491,0.09304,-0.0382
-8,-0.4417,0.09324,0.09138,-0.04
-7.9,-0.4329,0.09175,0.0899,-0.0414
-7.8,-0.4246,0.09037,0.08851,-0.0427
-7.7,-0.416,0.08898,0.08712,-0.0441
-7.6,-0.4073,0.0876,0.08574,-0.0455
-7.5,-0.399,0.08627,0.08441,-0.0467
-7.4,-0.3911,0.08499,0.08313,-0.0478
-7.3,-0.3828,0.08371,0.08184,-0.049
-7.2,-0.3746,0.08244,0.08057,-0.0501
-7.1,-0.3665,0.08121,0.07933,-0.0512
-7,-0.3584,0.07998,0.0781,-0.0524
-6.9,-0.3501,0.07877,0.07688,-0.0535
-6.8,-0.3425,0.07761,0.07571,-0.0544
-6.7,-0.3341,0.07643,0.07451,-0.0556
-6.6,-0.3262,0.07528,0.07335,-0.0565
-6.5,-0.3177,0.07412,0.07218,-0.0577
-6.4,-0.3093,0.07299,0.07103,-0.0588
-6.3,-0.3006,0.07185,0.06988,-0.0599
-6.2,-0.2918,0.07073,0.06875,-0.0612
-6.1,-0.283,0.06961,0.06762,-0.0624
-6,-0.2743,0.06854,0.06652,-0.0636
-5.9,-0.2651,0.06747,0.06544,-0.065
-5.8,-0.2542,0.06631,0.06427,-0.0668
-5.7,-0.2424,0.06513,0.06306,-0.0687
-5.6,-0.23,0.06393,0.06185,-0.0709
-5.5,-0.2174,0.06273,0.06064,-0.073
-5.4,-0.2043,0.06153,0.05942,-0.0752
-5.3,-0.1907,0.06031,0.05818,-0.0775
-5.2,-0.1768,0.05909,0.05695,-0.0799
-5.1,-0.1624,0.05787,0.0557,-0.0823
-5,-0.1477,0.05663,0.05444,-0.0848
-4.9,-0.1324,0.05539,0.05318,-0.0873
-4.8,-0.1165,0.05412,0.05189,-0.09
-4.7,-0.1006,0.05287,0.05061,-0.0926
-4.6,-0.0838,0.05158,0.0493,-0.0954
-4.5,-0.0665,0.05028,0.04797,-0.0982
-4.4,-0.0488,0.04895,0.04662,-0.1011
-4.3,-0.0308,0.04763,0.04527,-0.104
-4.2,-0.0119,0.04625,0.04386,-0.1071
-4.1,0.0075,0.04482,0.0424,-0.1102
-4,0.0275,0.04333,0.04088,-0.1135
-3.9,0.0481,0.04166,0.03915,-0.117
-3.7,0.0908,0.03898,0.03641,-0.1234
-3.6,0.1124,0.03778,0.03517,-0.1264
-3.4,0.1568,0.03532,0.03262,-0.1323
-3.3,0.1797,0.03409,0.03134,-0.1353
-3.2,0.2032,0.03269,0.02988,-0.1384
-3.1,0.2275,0.03118,0.02832,-0.1418
-3,0.2512,0.02963,0.02666,-0.1449
-2.9,0.2774,0.02768,0.0246,-0.1488
-2.7,0.3259,0.02502,0.02178,-0.1543
-2.6,0.3493,0.02378,0.02044,-0.1566
-2.5,0.3729,0.02242,0.01895,-0.1589
-2.4,0.3973,0.02083,0.01722,-0.1616
-2.3,0.423,0.01875,0.01494,-0.1648
-2.1,0.4698,0.01468,0.01038,-0.1702
-2,0.492,0.01224,0.00755,-0.173
-1.8,0.5315,0.01032,0.00501,-0.1743
-1.7,0.5497,0.01007,0.00462,-0.174
-1.6,0.5682,0.00993,0.00438,-0.1737
-1.5,0.5847,0.00981,0.00407,-0.173
-1.4,0.6029,0.00967,0.0038,-0.1727
-1.3,0.6207,0.00958,0.00361,-0.1722
-1.2,0.6385,0.00952,0.00349,-0.1718
-1.1,0.6556,0.00951,0.00339,-0.1713
-1,0.6719,0.00956,0.00333,-0.1707
-0.9,0.6891,0.00955,0.00325,-0.1703
-0.8,0.7065,0.00953,0.00318,-0.1699
-0.7,0.7235,0.00955,0.00315,-0.1694
-0.6,0.7399,0.0096,0.00314,-0.1689
-0.5,0.756,0.00967,0.00313,-0.1683
-0.4,0.7726,0.00973,0.00312,-0.1678
-0.3,0.7875,0.00985,0.00317,-0.1671
-0.2,0.8035,0.00993,0.0032,-0.1665
-0.1,0.8186,0.01006,0.00325,-0.1658
0,0.8339,0.01017,0.0033,-0.1652
0.1,0.8487,0.01032,0.00336,-0.1644
0.2,0.8618,0.01054,0.00348,-0.1635
0.3,0.8747,0.01079,0.00363,-0.1625
0.5,0.8937,0.0117,0.00414,-0.1598
0.6,0.9089,0.01186,0.00424,-0.1592
0.7,0.9244,0.01199,0.00434,-0.1586
0.8,0.9401,0.01211,0.00444,-0.1581
0.9,0.9559,0.01223,0.00454,-0.1575
1,0.972,0.01233,0.00464,-0.157
1.1,0.9878,0.01244,0.00474,-0.1564
1.2,1.0035,0.01256,0.00485,-0.1558
1.3,1.0195,0.01267,0.00495,-0.1552
1.4,1.0353,0.01279,0.00506,-0.1546
1.5,1.0515,0.01288,0.00517,-0.154
1.6,1.0676,0.01298,0.00528,-0.1534
1.7,1.0836,0.01309,0.00539,-0.1528
1.8,1.0993,0.01322,0.00551,-0.1521
1.9,1.1155,0.01332,0.00563,-0.1515
2,1.1313,0.01344,0.00576,-0.1507
2.1,1.1471,0.01356,0.00588,-0.15
2.2,1.1627,0.01369,0.00602,-0.1492
2.3,1.1788,0.0138,0.00616,-0.1485
2.4,1.1948,0.01392,0.0063,-0.1477
2.5,1.2106,0.01404,0.00644,-0.1469
2.6,1.2262,0.01418,0.00658,-0.146
2.7,1.2417,0.01432,0.00675,-0.1451
2.8,1.2576,0.01444,0.0069,-0.1442
2.9,1.2731,0.01458,0.00706,-0.1433
3,1.2887,0.01472,0.00723,-0.1423
3.1,1.3039,0.01487,0.0074,-0.1413
3.2,1.3191,0.01503,0.00758,-0.1402
3.3,1.3347,0.01517,0.00776,-0.1391
3.4,1.3501,0.01532,0.00796,-0.138
3.5,1.3652,0.01548,0.00815,-0.1368
3.6,1.3802,0.01565,0.00835,-0.1355
3.7,1.3939,0.01583,0.00856,-0.1341
3.8,1.4075,0.01599,0.00877,-0.1325
3.9,1.421,0.01616,0.00899,-0.1309
4,1.4343,0.01634,0.00922,-0.1293
4.1,1.4483,0.01653,0.00947,-0.1278
4.2,1.4627,0.01674,0.00973,-0.1263
4.3,1.4774,0.01696,0.01001,-0.1248
4.4,1.493,0.01717,0.01031,-0.1235
4.5,1.5101,0.01622,0.01083,-0.1228
4.6,1.5252,0.01648,0.01115,-0.1212
4.7,1.5403,0.01676,0.01147,-0.1196
4.8,1.5551,0.01705,0.01181,-0.1179
4.9,1.5702,0.01736,0.01218,-0.1163
5,1.5856,0.01771,0.01259,-0.1146
5.1,1.6011,0.01808,0.01304,-0.1128
5.2,1.6162,0.01849,0.01354,-0.1111
5.3,1.6309,0.01895,0.01409,-0.1092
5.4,1.6449,0.01946,0.0147,-0.1073
5.5,1.6577,0.02004,0.01539,-0.1053
5.6,1.6689,0.02072,0.0162,-0.1033
5.7,1.6775,0.02153,0.01715,-0.1011
5.8,1.6833,0.02242,0.01819,-0.0989
5.9,1.6865,0.0234,0.01931,-0.0966
6,1.6875,0.02444,0.0205,-0.0943
6.1,1.6867,0.02556,0.02175,-0.0921
6.2,1.6845,0.02675,0.02308,-0.09
6.4,1.6769,0.02938,0.02595,-0.0865
6.5,1.6729,0.03076,0.02745,-0.0851
6.6,1.6676,0.03226,0.02906,-0.084
6.7,1.6599,0.034,0.03092,-0.0833
7,1.6354,0.03983,0.03706,-0.0834
7.1,1.627,0.04199,0.03933,-0.0843
7.2,1.6187,0.04427,0.04169,-0.0856
7.3,1.6104,0.04667,0.04419,-0.0872
7.4,1.6022,0.04919,0.04679,-0.0893
7.6,1.5865,0.05456,0.05229,-0.0943
7.7,1.579,0.05735,0.05513,-0.0971
7.8,1.572,0.06016,0.058,-0.1
7.9,1.5644,0.06314,0.06101,-0.1031
8,1.5532,0.06648,0.0644,-0.1066
8.2,1.5377,0.07268,0.07065,-0.1128
8.3,1.5317,0.07556,0.07356,-0.1156
8.4,1.5268,0.07833,0.07634,-0.1184
8.5,1.5228,0.08098,0.079,-0.121
8.6,1.5198,0.08353,0.08155,-0.1234
8.8,1.5164,0.08834,0.08637,-0.1281
8.9,1.5139,0.09087,0.0889,-0.1306
9.2,1.5041,0.0989,0.09694,-0.1388
9.3,1.5032,0.10133,0.09937,-0.1411
9.4,1.503,0.10368,0.10173,-0.1433
9.5,1.5034,0.10596,0.10401,-0.1455
9.6,1.5045,0.10816,0.10622,-0.1475
9.7,1.5061,0.11029,0.10835,-0.1494
9.8,1.5082,0.11235,0.11041,-0.1512
9.9,1.5107,0.11434,0.11241,-0.1529
10,1.5093,0.11696,0.11502,-0.1554
10.1,1.5089,0.11946,0.11753,-0.1578
10.2,1.5093,0.12186,0.11992,-0.16
10.3,1.5104,0.12417,0.12224,-0.1621
10.4,1.512,0.12643,0.12451,-0.1641
10.5,1.5143,0.12859,0.12667,-0.1659
10.6,1.5169,0.1307,0.12878,-0.1677
10.7,1.5199,0.13274,0.13084,-0.1694
10.8,1.5231,0.13475,0.13284,-0.1711
10.9,1.5267,0.1367,0.1348,-0.1727
11,1.5305,0.1386,0.13671,-0.1742
11.1,1.5321,0.14096,0.13906,-0.1762
11.2,1.5333,0.14345,0.14155,-0.1784
11.3,1.5352,0.1458,0.14391,-0.1805
11.4,1.5376,0.14808,0.14619,-0.1824
11.5,1.5403,0.15029,0.14841,-0.1842
11.6,1.5434,0.15246,0.15058,-0.186
11.7,1.5466,0.15459,0.15273,-0.1878
11.8,1.5501,0.15668,0.15483,-0.1894
11.9,1.5538,0.15875,0.1569,-0.1911
12,1.5583,0.16065,0.1588,-0.1926
12.1,1.5624,0.1626,0.16076,-0.1941
12.2,1.5667,0.16451,0.16267,-0.1956
12.3,1.5711,0.16639,0.16456,-0.1971
12.4,1.574,0.16877,0.16693,-0.1991
12.5,1.5766,0.17134,0.1695,-0.2012
12.6,1.5798,0.17372,0.17189,-0.2032
12.7,1.5834,0.17603,0.17421,-0.2051
12.8,1.5872,0.1783,0.17648,-0.2069
12.9,1.5912,0.18052,0.1787,-0.2087
13,1.5953,0.18271,0.1809,-0.2104
13.1,1.5996,0.18488,0.18307,-0.2121
13.2,1.604,0.18702,0.18522,-0.2138
13.3,1.6084,0.18913,0.18734,-0.2154
13.4,1.613,0.19123,0.18944,-0.2171
13.5,1.6176,0.19331,0.19152,-0.2187
13.6,1.6223,0.19538,0.1936,-0.2203
13.7,1.6275,0.19724,0.19547,-0.2218
13.8,1.6325,0.19923,0.19746,-0.2233
13.9,1.6374,0.20121,0.19944,-0.2249
14,1.6413,0.20393,0.20216,-0.227
14.1,1.6452,0.20665,0.20489,-0.2291
14.2,1.6496,0.20921,0.20746,-0.2311
14.3,1.6541,0.21169,0.20994,-0.233
14.4,1.6588,0.21413,0.21239,-0.2348
14.5,1.6637,0.21653,0.2148,-0.2366
14.6,1.6686,0.21892,0.2172,-0.2384
14.7,1.6737,0.22129,0.21957,-0.2402
14.8,1.6788,0.22364,0.22193,-0.242
14.9,1.6839,0.22599,0.22428,-0.2437
15,1.6891,0.22832,0.22662,-0.2455
15.1,1.6944,0.23064,0.22895,-0.2472
15.2,1.7,0.23281,0.23112,-0.2488
15.3,1.7055,0.23504,0.23336,-0.2505
15.4,1.711,0.23723,0.23555,-0.2522
15.5,1.7156,0.2403,0.23862,-0.2544
15.6,1.7203,0.2434,0.24173,-0.2567
15.7,1.7252,0.24632,0.24466,-0.2588
15.8,1.7304,0.24913,0.24748,-0.2609
15.9,1.7356,0.25189,0.25024,-0.2629
16,1.7409,0.25459,0.25295,-0.2648
16.1,1.7464,0.25728,0.25565,-0.2668
16.2,1.7519,0.25987,0.25824,-0.2687
16.3,1.7575,0.26241,0.26078,-0.2705
16.4,1.7626,0.2657,0.26407,-0.2729
16.5,1.7677,0.26899,0.26736,-0.2752
16.6,1.773,0.27208,0.27046,-0.2774
16.7,1.7784,0.27509,0.27348,-0.2795
16.8,1.7839,0.27803,0.27642,-0.2816
16.9,1.7895,0.28092,0.27932,-0.2836
17,1.7951,0.28378,0.28217,-0.2856
17.1,1.8007,0.28661,0.285,-0.2876
17.2,1.8064,0.2894,0.2878,-0.2896
17.3,1.8119,0.29258,0.29098,-0.2918
17.4,1.817,0.29676,0.29517,-0.2945
17.5,1.8226,0.29992,0.29833,-0.2967
17.6,1.8282,0.30309,0.30151,-0.2988
17.7,1.8338,0.30621,0.30463,-0.3009
17.8,1.8395,0.30933,0.30776,-0.303
17.9,1.8452,0.31243,0.31086,-0.3051
18,1.8509,0.31554,0.31396,-0.3072
18.1,1.8567,0.31864,0.31707,-0.3093
18.2,1.8624,0.32185,0.32028,-0.3114
18.3,1.868,0.32545,0.32388,-0.3138
18.4,1.8736,0.329,0.32743,-0.3161
18.5,1.8793,0.33247,0.3309,-0.3183
18.6,1.8851,0.33594,0.33437,-0.3206
18.7,1.8908,0.33942,0.33786,-0.3228
18.8,1.8966,0.34288,0.34132,-0.325
18.9,1.9024,0.34634,0.34478,-0.3273
19,1.9081,0.34982,0.34826,-0.3295
19.1,1.9139,0.35332,0.35177,-0.3317
19.2,1.9198,0.35683,0.35527,-0.334
19.4,1.9314,0.36393,0.36238,-0.3385
19.5,1.9372,0.36745,0.3659,-0.3407
19.6,1.943,0.37096,0.36942,-0.343
19.7,1.9488,0.37492,0.37337,-0.3454
19.8,1.9547,0.37891,0.37736,-0.3478
19.9,1.9605,0.38278,0.38124,-0.3502
20,1.9664,0.38664,0.3851,-0.3525
20.1,1.9722,0.39051,0.38897,-0.3549
20.2,1.9781,0.39443,0.39289,-0.3573
20.3,1.9839,0.39829,0.39677,-0.3596
20.4,1.9898,0.4022,0.40067,-0.362
20.5,1.9956,0.40613,0.4046,-0.3643
20.6,2.0014,0.41007,0.40855,-0.3667
20.7,2.0073,0.41405,0.41253,-0.3691
20.8,2.0131,0.41803,0.41652,-0.3715
20.9,2.0189,0.42206,0.42055,-0.3739
21,2.0248,0.4261,0.42459,-0.3763
21.1,2.0306,0.43019,0.42868,-0.3787
21.2,2.0364,0.43426,0.43275,-0.3811
21.3,2.0422,0.4384,0.43689,-0.3835
21.4,2.048,0.44254,0.44104,-0.386
21.5,2.0538,0.44671,0.4452,-0.3884
21.6,2.0596,0.45095,0.44944,-0.3909
21.7,2.0654,0.4552,0.4537,-0.3933
21.8,2.0711,0.45945,0.45796,-0.3958
21.9,2.0769,0.46384,0.46235,-0.3983

