airfoilName st15.dat
Re 	2.300000e+05
M 	7.000000e-01
N 	4.500000e+00
VACC 	0 VACCflag 1
XTR 	1.00 	1.00 XTRflag 0
alpha,cl,cd,cdp,cm
-29.6,-1.8328,0.93074,0.92674,0.3979
-29.1,-1.8499,0.81288,0.80879,0.394
-29,-1.8442,0.80564,0.80155,0.3907
-28.9,-1.8384,0.79848,0.79439,0.3875
-28.8,-1.8327,0.79152,0.78742,0.3843
-28.5,-1.8147,0.7696,0.76548,0.3744
-28.4,-1.8089,0.76289,0.75877,0.3713
-28.3,-1.803,0.75625,0.75212,0.3681
-28.2,-1.7972,0.74968,0.74555,0.365
-28.1,-1.7913,0.74319,0.73906,0.3619
-28,-1.7854,0.73673,0.73259,0.3588
-27.9,-1.7795,0.73034,0.7262,0.3557
-27.8,-1.7735,0.724,0.71987,0.3526
-27.7,-1.7676,0.71774,0.7136,0.3495
-27.6,-1.7616,0.71149,0.70735,0.3465
-27.5,-1.7556,0.70536,0.70121,0.3434
-27.4,-1.7495,0.69923,0.69507,0.3404
-27.3,-1.7435,0.69318,0.68902,0.3373
-27.2,-1.7374,0.68718,0.68302,0.3343
-27.1,-1.7313,0.68122,0.67706,0.3313
-27,-1.7253,0.67537,0.6712,0.3283
-26.9,-1.7191,0.66954,0.66536,0.3253
-26.8,-1.713,0.66375,0.65957,0.3224
-26.7,-1.7068,0.65802,0.65384,0.3194
-26.6,-1.7007,0.65231,0.64813,0.3164
-26.5,-1.6945,0.64669,0.64251,0.3135
-26.4,-1.6883,0.64114,0.63696,0.3106
-26.3,-1.682,0.63557,0.63139,0.3076
-26.2,-1.6758,0.63011,0.62592,0.3047
-26.1,-1.6695,0.62467,0.62048,0.3018
-26,-1.6633,0.61929,0.6151,0.2989
-25.9,-1.657,0.61395,0.60976,0.296
-25.8,-1.6507,0.60869,0.6045,0.2932
-25.7,-1.6444,0.6034,0.5992,0.2903
-25.6,-1.638,0.59821,0.59401,0.2875
-25.5,-1.6317,0.59306,0.58886,0.2846
-25.4,-1.6253,0.58797,0.58377,0.2818
-25.3,-1.619,0.58291,0.5787,0.279
-25.2,-1.6126,0.57786,0.57365,0.2762
-25.1,-1.6062,0.57291,0.5687,0.2734
-25,-1.5997,0.56796,0.56376,0.2706
-24.9,-1.5934,0.5631,0.55889,0.2679
-24.8,-1.5869,0.55824,0.55402,0.2651
-24.7,-1.5805,0.55346,0.54924,0.2624
-24.6,-1.574,0.5487,0.54448,0.2596
-24.5,-1.5675,0.54398,0.53976,0.2569
-24.4,-1.561,0.53931,0.53509,0.2542
-24.3,-1.5545,0.53468,0.53046,0.2515
-24.2,-1.548,0.53008,0.52585,0.2488
-24.1,-1.5415,0.52554,0.52131,0.2461
-24,-1.535,0.52103,0.5168,0.2435
-23.9,-1.5285,0.51657,0.51234,0.2408
-23.8,-1.522,0.51216,0.50792,0.2382
-23.7,-1.5154,0.50778,0.50355,0.2355
-23.6,-1.5089,0.50344,0.4992,0.2329
-23.5,-1.5023,0.49915,0.49492,0.2303
-23.4,-1.4958,0.49491,0.49067,0.2277
-23.3,-1.4892,0.4907,0.48647,0.2251
-23.2,-1.4826,0.48654,0.4823,0.2225
-23.1,-1.4761,0.48244,0.4782,0.2199
-23,-1.4695,0.47837,0.47413,0.2173
-21.5,-1.3724,0.42597,0.42173,0.1789
-21.4,-1.3656,0.42208,0.41785,0.1766
-21.3,-1.3588,0.41825,0.41401,0.1743
-21.2,-1.3519,0.41443,0.4102,0.172
-21.1,-1.3451,0.41064,0.40641,0.1698
-21,-1.3383,0.40691,0.40267,0.1675
-20.9,-1.3315,0.40316,0.39893,0.1653
-20.8,-1.3246,0.39948,0.39525,0.1631
-20.7,-1.3178,0.39582,0.39159,0.1609
-20.6,-1.311,0.39221,0.38797,0.1587
-20.5,-1.3042,0.3886,0.38437,0.1565
-20.4,-1.2973,0.38504,0.38081,0.1543
-20.3,-1.2905,0.38149,0.37726,0.1522
-20.2,-1.2837,0.37796,0.37373,0.15
-20.1,-1.2769,0.37447,0.37024,0.1479
-20,-1.2701,0.37102,0.36679,0.1458
-19.9,-1.2633,0.3676,0.36338,0.1437
-19.8,-1.2564,0.36419,0.35997,0.1416
-19.7,-1.2496,0.36082,0.3566,0.1395
-19.6,-1.2428,0.35747,0.35325,0.1375
-19.5,-1.236,0.35415,0.34993,0.1354
-19.4,-1.2292,0.35085,0.34661,0.1334
-19.3,-1.2224,0.34759,0.34335,0.1313
-19.2,-1.2156,0.34435,0.34012,0.1293
-19.1,-1.2089,0.34113,0.3369,0.1273
-19,-1.2021,0.33795,0.33372,0.1253
-18.9,-1.1953,0.33479,0.33056,0.1234
-18.8,-1.1885,0.33166,0.32743,0.1214
-18.7,-1.1818,0.32854,0.32431,0.1195
-18.6,-1.175,0.32547,0.32124,0.1175
-18.5,-1.1683,0.3224,0.31817,0.1156
-18.4,-1.1616,0.31937,0.31515,0.1137
-18.3,-1.1548,0.31635,0.31213,0.1118
-18.2,-1.1481,0.31338,0.30916,0.1099
-18.1,-1.1414,0.31042,0.3062,0.108
-18,-1.1347,0.30749,0.30327,0.1062
-17.9,-1.128,0.30458,0.30037,0.1043
-17.8,-1.1213,0.30169,0.29748,0.1025
-17.7,-1.1146,0.29882,0.29461,0.1006
-17.6,-1.1079,0.29599,0.29178,0.0988
-17.5,-1.1013,0.29317,0.28896,0.097
-17.4,-1.0946,0.29037,0.28617,0.0952
-17.3,-1.088,0.2876,0.2834,0.0935
-17.2,-1.0813,0.28485,0.28065,0.0917
-17.1,-1.0746,0.28212,0.27792,0.0899
-17,-1.068,0.27941,0.27521,0.0882
-16.9,-1.0613,0.27672,0.27253,0.0864
-16.8,-1.0549,0.27449,0.2703,0.0846
-16.7,-1.0483,0.27184,0.26764,0.0828
-16.6,-1.0416,0.26922,0.26502,0.0811
-16.5,-1.035,0.26662,0.26242,0.0794
-16.4,-1.0284,0.26403,0.25984,0.0777
-16.3,-1.0218,0.26147,0.25728,0.076
-16.2,-1.0152,0.25892,0.25473,0.0744
-16.1,-1.0086,0.2564,0.25221,0.0727
-16,-1.002,0.25389,0.24971,0.071
-15.9,-0.9954,0.2514,0.24722,0.0694
-15.8,-0.9889,0.24894,0.24476,0.0677
-15.7,-0.9823,0.24648,0.24231,0.0661
-15.6,-0.9757,0.24405,0.23988,0.0645
-15.5,-0.9691,0.24163,0.23746,0.0628
-15.4,-0.9626,0.23923,0.23506,0.0612
-15.3,-0.956,0.23683,0.23267,0.0596
-15.2,-0.9494,0.23446,0.2303,0.058
-15.1,-0.9428,0.2321,0.22794,0.0564
-15,-0.9362,0.22974,0.22558,0.0548
-14.9,-0.9296,0.22738,0.22323,0.0532
-14.8,-0.923,0.22504,0.22089,0.0516
-14.7,-0.9163,0.22268,0.21854,0.05
-14.6,-0.9097,0.22033,0.21619,0.0484
-14.3,-0.8889,0.21298,0.20887,0.0434
-14.2,-0.8825,0.21072,0.20661,0.042
-14.1,-0.876,0.20848,0.20438,0.0406
-14,-0.8696,0.20626,0.20216,0.0393
-13.9,-0.8632,0.20405,0.19995,0.0379
-13.8,-0.8568,0.20187,0.19776,0.0365
-13.7,-0.8504,0.19969,0.1956,0.0352
-13.6,-0.844,0.19754,0.19345,0.0339
-13.5,-0.8376,0.1954,0.19131,0.0325
-13.4,-0.8312,0.19328,0.1892,0.0312
-13.3,-0.8249,0.19118,0.1871,0.0299
-13.2,-0.8185,0.18909,0.18502,0.0286
-13.1,-0.8122,0.18702,0.18295,0.0274
-13,-0.8058,0.18497,0.18091,0.0261
-12.9,-0.7995,0.18294,0.17888,0.0248
-12.8,-0.7932,0.18092,0.17686,0.0236
-12.7,-0.7869,0.17892,0.17487,0.0224
-12.6,-0.7806,0.17694,0.17289,0.0212
-12.5,-0.7743,0.17497,0.17094,0.02
-12.4,-0.768,0.17302,0.16899,0.0188
-12.3,-0.7618,0.17109,0.16706,0.0176
-12.2,-0.7555,0.16917,0.16515,0.0164
-12.1,-0.7492,0.16727,0.16326,0.0153
-12,-0.743,0.16538,0.16137,0.0141
-11.9,-0.7368,0.16351,0.15951,0.013
-11.8,-0.7305,0.16166,0.15767,0.0118
-11.7,-0.7244,0.15983,0.15584,0.0107
-11.6,-0.7182,0.15801,0.15403,0.0096
-11.5,-0.712,0.15621,0.15223,0.0086
-11.4,-0.7057,0.15461,0.15065,0.0074
-11.3,-0.6996,0.15284,0.14889,0.0063
-11.2,-0.6935,0.15109,0.14714,0.0053
-11.1,-0.6874,0.14936,0.14541,0.0043
-11,-0.6814,0.14765,0.1437,0.0033
-10.9,-0.6754,0.14595,0.14202,0.0023
-10.8,-0.6695,0.14427,0.14034,0.0013
-10.7,-0.6636,0.14261,0.1387,0.0004
-10.6,-0.6577,0.14097,0.13706,-0.0006
-10.5,-0.6519,0.13935,0.13545,-0.0015
-10.4,-0.6461,0.13774,0.13386,-0.0023
-10.3,-0.6404,0.13616,0.13229,-0.0032
-10.2,-0.6348,0.1346,0.13074,-0.004
-10.1,-0.6293,0.13307,0.12922,-0.0048
-10,-0.6239,0.13156,0.12772,-0.0055
-9.9,-0.6186,0.13007,0.12624,-0.0063
-9.8,-0.6135,0.12861,0.1248,-0.0069
-9.7,-0.6085,0.12718,0.12338,-0.0075
-9.6,-0.6037,0.12579,0.122,-0.0081
-9.5,-0.5992,0.12442,0.12065,-0.0086
-9.4,-0.5949,0.12309,0.11934,-0.009
-9.3,-0.5908,0.1218,0.11807,-0.0093
-9.2,-0.5871,0.12054,0.11683,-0.0096
-9.1,-0.5836,0.11932,0.11563,-0.0098
-9,-0.5804,0.11814,0.11446,-0.0099
-8.9,-0.5776,0.11699,0.11334,-0.0099
-8.8,-0.5751,0.11589,0.11226,-0.0098
-8.7,-0.573,0.11483,0.11122,-0.0096
-8.6,-0.5714,0.11381,0.11023,-0.0094
-8.5,-0.5655,0.1124,0.10884,-0.0102
-8.4,-0.5549,0.11057,0.10701,-0.0124
-8.3,-0.5442,0.10874,0.10518,-0.0146
-8.2,-0.5331,0.1069,0.10333,-0.017
-8,-0.5113,0.10324,0.0997,-0.0215
-7.9,-0.5008,0.10161,0.09807,-0.0235
-7.8,-0.4889,0.09989,0.09634,-0.0259
-7.7,-0.4774,0.09823,0.09469,-0.0282
-7.6,-0.4679,0.09674,0.0932,-0.03
-7.5,-0.4575,0.09521,0.09168,-0.0319
-7.4,-0.4465,0.09366,0.09013,-0.034
-7.3,-0.4349,0.0921,0.08857,-0.0362
-7.2,-0.4228,0.09051,0.08698,-0.0386
-7.1,-0.413,0.08911,0.08558,-0.0402
-7,-0.4029,0.0877,0.08418,-0.042
-6.9,-0.3917,0.08625,0.08274,-0.044
-6.8,-0.3798,0.08477,0.08126,-0.0463
-6.7,-0.3672,0.08327,0.07976,-0.0487
-6.6,-0.3595,0.08209,0.07859,-0.0497
-6.5,-0.349,0.08077,0.07726,-0.0515
-6.4,-0.3373,0.07938,0.07588,-0.0535
-6.3,-0.3239,0.0779,0.0744,-0.056
-6.1,-0.3062,0.07555,0.07205,-0.0586
-6,-0.2936,0.07417,0.07067,-0.0608
-5.9,-0.2848,0.07304,0.06953,-0.0621
-5.7,-0.2631,0.0706,0.0671,-0.0656
-5.6,-0.2489,0.06923,0.06571,-0.0682
-5.5,-0.2394,0.06812,0.06461,-0.0695
-5.4,-0.2275,0.0669,0.06339,-0.0715
-5.3,-0.2105,0.0654,0.06188,-0.0748
-5.2,-0.1946,0.06394,0.0604,-0.0778
-5.1,-0.1851,0.06282,0.05929,-0.0791
-5,-0.1698,0.06136,0.05781,-0.0819
-4.9,-0.153,0.05987,0.05632,-0.085
-4.8,-0.1396,0.05869,0.05514,-0.087
-4.7,-0.1271,0.0576,0.05404,-0.0887
-4.4,-0.0801,0.05395,0.05035,-0.0959
-4.3,-0.0655,0.05283,0.04922,-0.0979
-4.2,-0.048,0.05157,0.04794,-0.1005
-4.1,-0.029,0.05027,0.04661,-0.1034
-4,-0.0128,0.04911,0.04544,-0.1056
-3.9,0.004,0.04794,0.04424,-0.108
-3.8,0.0237,0.04664,0.04291,-0.1108
-3.7,0.045,0.04529,0.04152,-0.1139
-3.6,0.0636,0.04406,0.04027,-0.1165
-3.5,0.0834,0.04276,0.03894,-0.1192
-3.4,0.1061,0.04131,0.03744,-0.1225
-3.3,0.1312,0.03969,0.03576,-0.1264
-2.9,0.2224,0.03481,0.03068,-0.1377
-2.8,0.245,0.03357,0.02939,-0.1403
-2.7,0.2687,0.03224,0.02798,-0.1431
-2.6,0.2955,0.03065,0.02629,-0.1465
-2.5,0.3255,0.02866,0.02418,-0.1508
-2.4,0.3466,0.02778,0.02324,-0.1525
-2.3,0.3685,0.02685,0.02222,-0.1541
-2.2,0.3921,0.02579,0.02105,-0.1561
-2.1,0.4172,0.02458,0.01971,-0.1584
-2,0.4466,0.02214,0.01702,-0.1625
-1.9,0.4673,0.02147,0.01625,-0.1634
-1.8,0.4896,0.02063,0.01526,-0.1645
-1.7,0.5104,0.01971,0.01419,-0.1655
-1.6,0.5336,0.01844,0.01267,-0.167
-1.5,0.5558,0.0171,0.01103,-0.1685
-1.4,0.5755,0.01663,0.01042,-0.1688
-1.3,0.5954,0.01606,0.00967,-0.169
-1.2,0.6149,0.01546,0.00886,-0.1693
-1.1,0.6351,0.01482,0.00794,-0.1696
-0.9,0.6713,0.01447,0.00743,-0.169
-0.8,0.6896,0.0142,0.00704,-0.1688
-0.7,0.7083,0.01391,0.00657,-0.1686
-0.6,0.7258,0.01377,0.00639,-0.1683
-0.5,0.7438,0.01368,0.00625,-0.168
-0.4,0.761,0.01363,0.00612,-0.1675
-0.3,0.7783,0.0135,0.00586,-0.167
-0.2,0.7958,0.01344,0.00579,-0.1666
-0.1,0.8131,0.0134,0.00571,-0.1662
0,0.8301,0.01336,0.0056,-0.1656
0.1,0.8462,0.0134,0.00552,-0.1648
0.2,0.8625,0.01341,0.00548,-0.1642
0.3,0.878,0.01345,0.00543,-0.1633
0.4,0.8941,0.01349,0.00539,-0.1627
0.5,0.9098,0.01353,0.00538,-0.1619
0.6,0.9251,0.01361,0.00542,-0.1612
0.8,0.9529,0.0139,0.00552,-0.159
0.9,0.9667,0.01404,0.0056,-0.158
1,0.9797,0.01421,0.0057,-0.1568
1.1,0.992,0.01441,0.0058,-0.1556
1.2,1.0032,0.01465,0.00592,-0.1541
1.3,1.0135,0.01492,0.0061,-0.1526
1.4,1.0228,0.01524,0.00632,-0.151
1.5,1.0286,0.01568,0.0066,-0.1489
1.6,1.0385,0.016,0.00681,-0.1474
1.7,1.0493,0.01629,0.00705,-0.1461
1.8,1.0609,0.01657,0.00728,-0.1449
1.9,1.0729,0.01684,0.00751,-0.1438
2,1.0858,0.01708,0.00772,-0.1427
2.1,1.0984,0.01733,0.00798,-0.1417
2.2,1.112,0.01755,0.00819,-0.1407
2.3,1.1234,0.01786,0.00848,-0.1394
2.4,1.1376,0.01806,0.00871,-0.1385
2.5,1.1513,0.01829,0.00894,-0.1375
2.6,1.1646,0.01854,0.0092,-0.1365
2.7,1.1788,0.01875,0.00945,-0.1355
2.8,1.193,0.01896,0.00972,-0.1345
2.9,1.2067,0.0192,0.00999,-0.1335
3,1.2198,0.01947,0.01028,-0.1323
3.1,1.2339,0.01969,0.01055,-0.1313
3.2,1.2478,0.01993,0.01084,-0.1302
3.3,1.2613,0.0202,0.01116,-0.1291
3.4,1.2755,0.02043,0.01148,-0.128
3.6,1.2943,0.0197,0.01203,-0.1241
3.7,1.3078,0.02002,0.01238,-0.1228
3.8,1.3207,0.02037,0.01274,-0.1214
3.9,1.3346,0.02071,0.0131,-0.1202
4.1,1.3619,0.0214,0.01388,-0.1175
4.2,1.3748,0.02179,0.01431,-0.1161
4.3,1.3881,0.02219,0.01475,-0.1148
4.4,1.4026,0.0226,0.01523,-0.1135
4.5,1.4162,0.02304,0.01575,-0.1121
4.6,1.4288,0.02351,0.01629,-0.1107
4.7,1.4405,0.024,0.01686,-0.1091
4.8,1.4512,0.02453,0.01745,-0.1074
4.9,1.4629,0.02511,0.01814,-0.1059
5,1.4728,0.0257,0.01885,-0.1043
5.1,1.4818,0.02636,0.01961,-0.1026
5.2,1.4896,0.02705,0.02041,-0.1009
5.3,1.4964,0.02779,0.02126,-0.0991
5.4,1.5021,0.02862,0.02221,-0.0974
5.5,1.5065,0.02956,0.0233,-0.0958
5.6,1.5095,0.03055,0.02444,-0.0942
5.7,1.5111,0.03162,0.02564,-0.0926
5.8,1.5116,0.03275,0.0269,-0.0912
5.9,1.5112,0.03395,0.02822,-0.0899
6,1.5101,0.03521,0.0296,-0.0888
6.1,1.5083,0.03655,0.03105,-0.0879
6.2,1.5061,0.03795,0.03256,-0.0871
6.5,1.4883,0.0434,0.03839,-0.0876
6.6,1.482,0.04542,0.04052,-0.0884
6.7,1.4757,0.04753,0.04273,-0.0896
6.8,1.4696,0.04974,0.04502,-0.0911
6.9,1.4638,0.05201,0.04737,-0.0928
7,1.4585,0.05432,0.04975,-0.0948
7.1,1.4541,0.05664,0.05212,-0.0968
7.3,1.4367,0.06268,0.05829,-0.1035
7.4,1.4291,0.06576,0.06142,-0.1069
7.5,1.4233,0.0687,0.06441,-0.1101
7.6,1.419,0.07146,0.0672,-0.1129
7.7,1.4163,0.07405,0.06982,-0.1153
7.8,1.4181,0.07601,0.07179,-0.1171
7.9,1.419,0.07805,0.07384,-0.1188
8,1.4129,0.08122,0.07702,-0.1222
8.1,1.4095,0.084,0.07982,-0.1251
8.2,1.408,0.08652,0.08235,-0.1276
8.3,1.4077,0.08884,0.08468,-0.1297
8.4,1.4085,0.091,0.08686,-0.1317
8.5,1.4101,0.09305,0.08891,-0.1335
8.6,1.4124,0.09497,0.09084,-0.1351
8.7,1.4154,0.09679,0.09267,-0.1365
8.8,1.4188,0.09851,0.09439,-0.1378
8.9,1.4192,0.10088,0.09675,-0.1401
9,1.4183,0.10345,0.09934,-0.1426
9.1,1.418,0.10609,0.10198,-0.1456
9.2,1.4205,0.10809,0.10399,-0.1473
9.3,1.4235,0.11,0.10591,-0.1488
9.4,1.427,0.11181,0.10775,-0.1503
9.5,1.4308,0.11356,0.1095,-0.1516
9.6,1.435,0.11522,0.11117,-0.1527
9.7,1.4395,0.11681,0.11277,-0.1538
9.8,1.4395,0.1195,0.11546,-0.1565
9.9,1.4411,0.12188,0.11784,-0.1587
10,1.4435,0.12407,0.12004,-0.1607
10.1,1.4464,0.12614,0.12213,-0.1624
10.2,1.4497,0.12814,0.12413,-0.1641
10.3,1.4533,0.13007,0.12607,-0.1656
10.4,1.4582,0.13168,0.12769,-0.1669
10.5,1.4626,0.13337,0.12938,-0.1681
10.6,1.4672,0.13499,0.13102,-0.1692
10.7,1.4719,0.13659,0.1326,-0.1703
10.8,1.4731,0.13932,0.13534,-0.1729
10.9,1.4758,0.14164,0.13767,-0.175
11,1.479,0.14381,0.13985,-0.1768
11.1,1.4827,0.14588,0.14193,-0.1785
11.2,1.4865,0.14788,0.14394,-0.1801
11.3,1.4906,0.14983,0.1459,-0.1816
11.4,1.4949,0.15173,0.14782,-0.183
11.5,1.4992,0.1536,0.14969,-0.1844
11.6,1.5038,0.15543,0.15153,-0.1858
11.7,1.5084,0.15723,0.15334,-0.1871
11.8,1.5131,0.15899,0.15511,-0.1883
11.9,1.5179,0.16066,0.15676,-0.1898
12,1.521,0.16321,0.15933,-0.1921
12.1,1.5248,0.16552,0.16164,-0.194
12.2,1.5289,0.1677,0.16384,-0.1958
12.3,1.5332,0.16981,0.16597,-0.1975
12.4,1.5377,0.17187,0.16804,-0.1991
12.5,1.5423,0.17389,0.17006,-0.2006
12.6,1.547,0.17586,0.17205,-0.2021
12.7,1.5517,0.17781,0.17401,-0.2036
12.8,1.5566,0.17974,0.17595,-0.2051
12.9,1.5616,0.18164,0.17786,-0.2065
13,1.5666,0.18352,0.17975,-0.2078
13.1,1.5716,0.18539,0.18163,-0.2092
13.2,1.5768,0.18724,0.18348,-0.2105
13.3,1.582,0.18907,0.18532,-0.2118
13.4,1.5872,0.19088,0.18714,-0.2131
13.5,1.5924,0.19267,0.18894,-0.2144
13.6,1.5949,0.19656,0.19282,-0.2183
13.7,1.5998,0.19881,0.19508,-0.2201
13.8,1.6048,0.20102,0.1973,-0.2218
13.9,1.6099,0.20319,0.19948,-0.2235
14,1.6151,0.20535,0.20165,-0.2251
14.1,1.6203,0.20748,0.2038,-0.2267
14.2,1.6256,0.2096,0.20593,-0.2283
14.3,1.631,0.21171,0.20804,-0.2299
14.4,1.6364,0.2138,0.21015,-0.2314
14.5,1.6418,0.21588,0.21223,-0.233
14.6,1.6473,0.21795,0.21431,-0.2345
14.7,1.6529,0.21999,0.21637,-0.236
14.8,1.6584,0.22203,0.21843,-0.2374
14.9,1.664,0.22405,0.22047,-0.2389
15,1.6696,0.22605,0.22248,-0.2403
15.1,1.6734,0.23012,0.22654,-0.2441
15.2,1.6787,0.23268,0.22911,-0.2461
15.3,1.6841,0.23517,0.23162,-0.248
15.4,1.6896,0.23763,0.23409,-0.2498
15.5,1.6951,0.24007,0.23653,-0.2516
15.6,1.7007,0.24248,0.23896,-0.2534
15.7,1.7063,0.24487,0.24136,-0.2552
15.8,1.7119,0.24724,0.24375,-0.2569
15.9,1.7176,0.2496,0.24611,-0.2586
16,1.7233,0.25193,0.24845,-0.2603
16.1,1.729,0.25424,0.25077,-0.262
16.2,1.7347,0.25653,0.25307,-0.2637
16.3,1.7396,0.26,0.25653,-0.2666
16.4,1.745,0.26302,0.25956,-0.2688
16.5,1.7506,0.26592,0.26247,-0.271
16.6,1.7562,0.26875,0.26531,-0.273
16.7,1.7619,0.27153,0.26811,-0.275
16.8,1.7676,0.27428,0.27086,-0.277
16.9,1.7733,0.27701,0.2736,-0.279
17,1.7791,0.27971,0.27631,-0.2809
17.1,1.7849,0.28239,0.279,-0.2828
17.2,1.7907,0.28505,0.28166,-0.2847
17.4,1.802,0.29049,0.2871,-0.2888
17.5,1.8076,0.29402,0.29064,-0.2913
17.6,1.8134,0.29737,0.294,-0.2937
17.7,1.8192,0.30059,0.29723,-0.2959
17.8,1.825,0.30375,0.3004,-0.2981
17.9,1.8308,0.30686,0.30352,-0.3002
18,1.8367,0.30994,0.30661,-0.3024
18.1,1.8425,0.31301,0.30969,-0.3045
18.3,1.8542,0.31896,0.31565,-0.3087
18.4,1.8601,0.32189,0.31858,-0.3108
18.5,1.866,0.3248,0.32149,-0.3128
18.6,1.8718,0.32794,0.32462,-0.3149
18.7,1.8777,0.33196,0.32864,-0.3175
18.8,1.8836,0.33565,0.33235,-0.32
18.9,1.8896,0.33923,0.33593,-0.3223
19,1.8955,0.34275,0.33946,-0.3246
19.1,1.9015,0.34627,0.34298,-0.3269
19.2,1.9074,0.34973,0.34645,-0.3292
19.3,1.9134,0.35317,0.3499,-0.3315
19.4,1.9193,0.35662,0.35334,-0.3337
19.5,1.9253,0.36008,0.35681,-0.336
19.6,1.9312,0.3635,0.36024,-0.3382
19.7,1.9372,0.36693,0.36368,-0.3404
19.8,1.9432,0.3704,0.36714,-0.3427

