airfoilName st16.dat
Re 	7.300000e+05
M 	7.000000e-01
N 	4.500000e+00
VACC 	0 VACCflag 1
XTR 	1.00 	1.00 XTRflag 0
alpha,cl,cd,cdp,cm
-30,-1.8677,0.88115,0.87903,0.4194
-29.9,-1.8623,0.8734,0.87128,0.4161
-29.8,-1.857,0.86578,0.86365,0.4128
-29.7,-1.8515,0.8581,0.85597,0.4096
-29.6,-1.8461,0.85053,0.8484,0.4063
-29.5,-1.8405,0.84299,0.84086,0.4031
-29.4,-1.8351,0.83563,0.83349,0.3999
-29.3,-1.8296,0.82827,0.82614,0.3966
-29.2,-1.8238,0.82032,0.81819,0.3933
-29.1,-1.8183,0.81305,0.81091,0.3901
-29,-1.8127,0.80594,0.8038,0.3869
-28.9,-1.807,0.79876,0.79662,0.3837
-28.8,-1.8014,0.79174,0.7896,0.3806
-28.7,-1.7957,0.78473,0.78259,0.3774
-28.6,-1.79,0.77787,0.77572,0.3742
-28.5,-1.7843,0.77104,0.7689,0.3711
-28.4,-1.7785,0.76423,0.76208,0.3679
-28.3,-1.7728,0.75751,0.75535,0.3648
-28.2,-1.7669,0.75079,0.74863,0.3616
-28.1,-1.7612,0.74421,0.74205,0.3585
-28,-1.7553,0.73761,0.73544,0.3554
-27.9,-1.7494,0.73106,0.72889,0.3523
-27.8,-1.7436,0.72456,0.72239,0.3492
-27.7,-1.7376,0.71816,0.71599,0.3461
-27.6,-1.7318,0.71187,0.7097,0.3431
-27.5,-1.7258,0.70556,0.70339,0.34
-27.4,-1.7198,0.69928,0.6971,0.3369
-27.1,-1.7018,0.67865,0.67648,0.3259
-27,-1.6957,0.6728,0.67063,0.3229
-26.9,-1.6897,0.66707,0.6649,0.32
-26.8,-1.6836,0.66131,0.65914,0.3171
-26.7,-1.6775,0.65565,0.65347,0.3142
-26.6,-1.6714,0.65004,0.64786,0.3113
-26.5,-1.6653,0.64442,0.64224,0.3084
-26.4,-1.6591,0.63887,0.63669,0.3055
-26.3,-1.653,0.6334,0.63121,0.3026
-26.2,-1.6468,0.62795,0.62577,0.2997
-26.1,-1.6407,0.62262,0.62044,0.2969
-26,-1.6344,0.61728,0.61509,0.2941
-25.9,-1.6282,0.61197,0.60978,0.2912
-25.8,-1.622,0.60672,0.60453,0.2884
-25.7,-1.6158,0.60152,0.59933,0.2856
-25.6,-1.6095,0.59637,0.59418,0.2828
-25.5,-1.6033,0.59127,0.58908,0.28
-25.4,-1.597,0.58621,0.58401,0.2773
-25.3,-1.5907,0.58115,0.57895,0.2745
-25.2,-1.5844,0.57619,0.57399,0.2718
-25.1,-1.5781,0.57129,0.56909,0.269
-25,-1.5718,0.56636,0.56416,0.2663
-24.9,-1.5655,0.56153,0.55933,0.2636
-24.8,-1.5591,0.55673,0.55453,0.2609
-24.7,-1.5528,0.55193,0.54973,0.2582
-24.6,-1.5464,0.54722,0.54501,0.2555
-24.5,-1.54,0.54253,0.54032,0.2529
-24.4,-1.5337,0.53788,0.53567,0.2502
-24.3,-1.5272,0.53325,0.53104,0.2476
-24.2,-1.5209,0.52869,0.52649,0.2449
-24.1,-1.5144,0.52416,0.52195,0.2423
-24,-1.508,0.51967,0.51747,0.2397
-23.9,-1.5016,0.51519,0.51298,0.2371
-23.8,-1.4951,0.51076,0.50855,0.2345
-23.7,-1.4887,0.50638,0.50417,0.232
-23.6,-1.4822,0.50205,0.49984,0.2294
-23.5,-1.4758,0.49773,0.49552,0.2269
-23.4,-1.4693,0.49345,0.49124,0.2243
-23.3,-1.4628,0.48921,0.487,0.2218
-23.2,-1.4563,0.48498,0.48277,0.2193
-23.1,-1.4498,0.48082,0.47861,0.2168
-23,-1.4433,0.47667,0.47446,0.2143
-22.8,-1.4304,0.46867,0.46645,0.2093
-22.7,-1.4238,0.4646,0.46238,0.2069
-22.6,-1.4173,0.46057,0.45835,0.2044
-22.5,-1.4107,0.45658,0.45436,0.202
-22.4,-1.4041,0.4526,0.45038,0.1995
-22.3,-1.3976,0.44866,0.44643,0.1971
-22.2,-1.391,0.44474,0.44251,0.1947
-22.1,-1.3844,0.44085,0.43863,0.1923
-22,-1.3778,0.437,0.43478,0.19
-21.9,-1.3712,0.43317,0.43095,0.1876
-21.8,-1.3646,0.42938,0.42716,0.1852
-21.7,-1.358,0.4256,0.42338,0.1829
-21.6,-1.3514,0.42187,0.41965,0.1805
-21.5,-1.3447,0.41815,0.41593,0.1782
-21.4,-1.3381,0.41447,0.41225,0.1759
-21.3,-1.3315,0.41083,0.4086,0.1736
-21.2,-1.3249,0.40719,0.40497,0.1713
-21.1,-1.3182,0.40358,0.40135,0.1691
-21,-1.3116,0.40002,0.3978,0.1668
-20.9,-1.3049,0.39647,0.39425,0.1645
-20.8,-1.2983,0.39295,0.39073,0.1623
-20.7,-1.2917,0.38946,0.38724,0.1601
-20.6,-1.285,0.386,0.38378,0.1579
-20.5,-1.2784,0.38255,0.38033,0.1557
-20.4,-1.2717,0.37914,0.37692,0.1535
-20.3,-1.2651,0.37575,0.37353,0.1513
-20.2,-1.2584,0.37239,0.37017,0.1491
-20.1,-1.2518,0.36904,0.36682,0.1469
-20,-1.2451,0.36573,0.3635,0.1448
-19.9,-1.2385,0.36244,0.36021,0.1427
-19.8,-1.2319,0.35917,0.35695,0.1405
-19.7,-1.2252,0.35592,0.35369,0.1384
-19.6,-1.2186,0.35271,0.35048,0.1363
-19.5,-1.2119,0.34951,0.34729,0.1342
-19.4,-1.2053,0.34634,0.34412,0.1321
-19.3,-1.1986,0.34319,0.34096,0.13
-19.2,-1.192,0.34007,0.33785,0.1279
-19.1,-1.1853,0.33698,0.33475,0.1259
-19,-1.1787,0.3339,0.33168,0.1238
-18.9,-1.1721,0.33086,0.32864,0.1217
-18.8,-1.1654,0.32785,0.32563,0.1197
-18.7,-1.1588,0.32486,0.32264,0.1176
-18.6,-1.1522,0.3219,0.31968,0.1156
-18.5,-1.1455,0.31898,0.31676,0.1134
-18.4,-1.1389,0.31606,0.31384,0.1113
-18.2,-1.1249,0.30988,0.30767,0.1068
-18.1,-1.1184,0.30696,0.30475,0.105
-18,-1.1119,0.30405,0.30185,0.1032
-17.9,-1.1054,0.30118,0.29898,0.1013
-17.8,-1.0989,0.29834,0.29613,0.0995
-17.7,-1.0924,0.29552,0.29331,0.0977
-17.6,-1.0859,0.29272,0.29052,0.0959
-17.5,-1.0794,0.28995,0.28775,0.0941
-17.4,-1.0729,0.28719,0.28499,0.0923
-17.3,-1.0664,0.28446,0.28226,0.0906
-17.2,-1.0599,0.28175,0.27955,0.0888
-17.1,-1.0534,0.27906,0.27685,0.0871
-17,-1.0471,0.27672,0.27452,0.0853
-16.9,-1.0406,0.27405,0.27185,0.0835
-16.8,-1.0341,0.2714,0.2692,0.0818
-16.7,-1.0276,0.26877,0.26657,0.0801
-16.6,-1.0211,0.26615,0.26395,0.0784
-16.5,-1.0146,0.26355,0.26135,0.0768
-16.4,-1.0081,0.26097,0.25877,0.0751
-16.3,-1.0017,0.25841,0.25622,0.0734
-16.2,-0.9952,0.25587,0.25368,0.0718
-16.1,-0.9888,0.25335,0.25115,0.0702
-16,-0.9823,0.25084,0.24864,0.0686
-15.9,-0.9759,0.24836,0.24617,0.0669
-15.8,-0.9695,0.24588,0.24369,0.0654
-15.7,-0.963,0.24343,0.24124,0.0638
-15.6,-0.9566,0.241,0.23881,0.0622
-15.5,-0.9502,0.23858,0.23639,0.0606
-15.4,-0.9438,0.23618,0.23399,0.0591
-15.3,-0.9374,0.2338,0.23161,0.0575
-15.2,-0.931,0.23143,0.22925,0.056
-15.1,-0.9246,0.22907,0.22689,0.0545
-15,-0.9183,0.22674,0.22456,0.053
-14.9,-0.9119,0.22442,0.22224,0.0515
-14.8,-0.9055,0.22211,0.21994,0.05
-14.7,-0.8991,0.21982,0.21765,0.0485
-14.6,-0.8927,0.21754,0.21537,0.047
-14.5,-0.8863,0.21527,0.2131,0.0455
-14.4,-0.8799,0.21302,0.21085,0.0441
-14.3,-0.8735,0.21078,0.20861,0.0426
-14.2,-0.8671,0.20856,0.20639,0.0412
-14.1,-0.8607,0.20635,0.20418,0.0397
-14,-0.8543,0.20415,0.20198,0.0383
-13.9,-0.8479,0.20197,0.1998,0.0369
-13.8,-0.8415,0.1998,0.19764,0.0354
-13.7,-0.8351,0.19765,0.19549,0.034
-13.6,-0.8287,0.1955,0.19335,0.0326
-13.5,-0.8223,0.19338,0.19122,0.0312
-13.4,-0.8159,0.19126,0.18911,0.0298
-13.3,-0.8095,0.18917,0.18701,0.0284
-13.2,-0.8032,0.18708,0.18493,0.0271
-13.1,-0.7968,0.18501,0.18286,0.0257
-13,-0.7904,0.18294,0.1808,0.0243
-12.9,-0.784,0.1809,0.17875,0.023
-12.8,-0.7776,0.17885,0.17671,0.0216
-12.7,-0.7713,0.17681,0.17467,0.0203
-12.6,-0.7649,0.17477,0.17264,0.019
-12.5,-0.7584,0.17272,0.17059,0.0176
-12.4,-0.752,0.17068,0.16855,0.0163
-12.3,-0.7455,0.1686,0.16647,0.015
-12.2,-0.7389,0.16647,0.16434,0.0137
-12.1,-0.7314,0.16415,0.16204,0.0119
-12,-0.7253,0.16225,0.16014,0.0108
-11.9,-0.7192,0.16036,0.15826,0.0097
-11.8,-0.7132,0.15851,0.15641,0.0085
-11.7,-0.7071,0.15667,0.15457,0.0074
-11.6,-0.7011,0.15485,0.15276,0.0063
-11.5,-0.6951,0.15305,0.15096,0.0053
-11.4,-0.6892,0.15128,0.14919,0.0042
-11.3,-0.6832,0.14952,0.14743,0.0032
-11.2,-0.6773,0.14779,0.14571,0.0022
-11.1,-0.6714,0.14608,0.144,0.0012
-11,-0.6656,0.14438,0.14231,0.0002
-10.9,-0.6598,0.14272,0.14065,-0.0008
-10.8,-0.6541,0.14107,0.13901,-0.0017
-10.7,-0.6485,0.13945,0.13739,-0.0026
-10.6,-0.6429,0.13786,0.13581,-0.0034
-10.5,-0.6375,0.1363,0.13426,-0.0042
-10.4,-0.6323,0.13477,0.13273,-0.005
-10.3,-0.6273,0.13328,0.13126,-0.0056
-10.2,-0.6227,0.13185,0.12983,-0.0062
-10.1,-0.6184,0.13046,0.12845,-0.0066
-10,-0.6145,0.12913,0.12713,-0.007
-9.9,-0.6067,0.12741,0.12542,-0.0084
-9.8,-0.5978,0.12559,0.12359,-0.0103
-9.7,-0.5886,0.12377,0.12177,-0.0122
-9.6,-0.5793,0.12195,0.11995,-0.0141
-9.5,-0.5691,0.12006,0.11806,-0.0163
-9.4,-0.5597,0.11828,0.11629,-0.0182
-9.3,-0.5507,0.11656,0.11456,-0.0199
-9.2,-0.5415,0.11484,0.11285,-0.0217
-9.1,-0.5322,0.11313,0.11113,-0.0236
-9,-0.5226,0.11141,0.10942,-0.0255
-8.9,-0.5126,0.10969,0.1077,-0.0275
-8.8,-0.5034,0.10804,0.10605,-0.0292
-8.7,-0.4943,0.10642,0.10442,-0.0309
-8.6,-0.4848,0.1048,0.1028,-0.0327
-8.5,-0.475,0.10316,0.10117,-0.0346
-8.4,-0.4649,0.10153,0.09953,-0.0366
-8.3,-0.4555,0.09996,0.09797,-0.0383
-8.2,-0.4469,0.09848,0.09648,-0.0397
-8.1,-0.4376,0.09696,0.09496,-0.0414
-8,-0.4279,0.09543,0.09343,-0.0431
-7.9,-0.4177,0.09386,0.09186,-0.045
-7.8,-0.4088,0.09242,0.09042,-0.0465
-7.7,-0.4003,0.09102,0.08903,-0.0479
-7.6,-0.3912,0.0896,0.0876,-0.0493
-7.5,-0.382,0.08818,0.08617,-0.0509
-7.4,-0.3727,0.08677,0.08476,-0.0524
-7.3,-0.3647,0.08546,0.08345,-0.0535
-7.2,-0.3561,0.08413,0.08212,-0.0548
-7.1,-0.3475,0.08279,0.08078,-0.0561
-7,-0.3388,0.08147,0.07945,-0.0574
-6.9,-0.3307,0.08021,0.07819,-0.0585
-6.8,-0.3222,0.07893,0.07691,-0.0597
-6.7,-0.3137,0.07765,0.07562,-0.0609
-6.6,-0.3046,0.07597,0.07393,-0.0625
-6.5,-0.2961,0.07467,0.07263,-0.0637
-6.4,-0.2875,0.07336,0.07131,-0.0649
-6.3,-0.2787,0.07205,0.06998,-0.0661
-6.2,-0.2701,0.0708,0.06874,-0.0674
-6.1,-0.2621,0.06968,0.0676,-0.0684
-6,-0.2541,0.06859,0.06649,-0.0694
-5.9,-0.2451,0.0675,0.06539,-0.0708
-5.8,-0.2344,0.06632,0.0642,-0.0726
-5.7,-0.223,0.06512,0.06298,-0.0745
-5.6,-0.2113,0.06393,0.06178,-0.0764
-5.5,-0.1993,0.06275,0.06058,-0.0785
-5.4,-0.1866,0.06155,0.05937,-0.0806
-5.3,-0.1738,0.06036,0.05816,-0.0827
-5.2,-0.1603,0.05916,0.05695,-0.085
-5.1,-0.1465,0.05796,0.05574,-0.0873
-5,-0.1322,0.05676,0.05452,-0.0897
-4.9,-0.1176,0.05556,0.05329,-0.092
-4.8,-0.1023,0.05435,0.05207,-0.0946
-4.7,-0.0865,0.05313,0.05083,-0.0972
-4.6,-0.0706,0.05192,0.04959,-0.0997
-4.5,-0.0539,0.05069,0.04834,-0.1024
-4.2,-0.0012,0.04696,0.04453,-0.1107
-4.1,0.0175,0.04569,0.04323,-0.1136
-4,0.0367,0.0444,0.04192,-0.1166
-3.9,0.0562,0.04311,0.04059,-0.1196
-3.8,0.0764,0.04178,0.03923,-0.1227
-3.7,0.0973,0.04041,0.03783,-0.1259
-3.6,0.1188,0.039,0.03638,-0.1291
-3.5,0.141,0.03753,0.03487,-0.1325
-3.4,0.164,0.03595,0.03323,-0.1361
-3,0.2584,0.03051,0.02758,-0.149
-2.9,0.2823,0.02925,0.02626,-0.1519
-2.8,0.3066,0.02793,0.02487,-0.1548
-2.7,0.3317,0.02649,0.02335,-0.158
-2.4,0.4075,0.02164,0.01812,-0.1672
-2.3,0.4318,0.02025,0.01661,-0.1697
-2.2,0.4568,0.01854,0.01474,-0.1725
-2.1,0.4833,0.0161,0.01203,-0.1762
-2,0.5085,0.01293,0.00842,-0.1805
-1.9,0.5284,0.01208,0.00739,-0.1812
-1.8,0.5482,0.01104,0.00603,-0.1821
-1.7,0.5676,0.01038,0.00511,-0.1824
-1.6,0.5867,0.00999,0.00454,-0.1824
-1.5,0.6045,0.00983,0.00426,-0.182
-1.4,0.6228,0.00972,0.00406,-0.1817
-1.3,0.6409,0.00956,0.00379,-0.1814
-1.2,0.6587,0.00945,0.00357,-0.181
-1.1,0.6764,0.00937,0.00341,-0.1806
-1,0.6929,0.00936,0.00331,-0.18
-0.9,0.71,0.00935,0.00321,-0.1796
-0.8,0.7264,0.00936,0.00314,-0.179
-0.7,0.7433,0.00938,0.00309,-0.1785
-0.6,0.7595,0.0094,0.00305,-0.178
-0.5,0.776,0.00944,0.00303,-0.1775
-0.4,0.7912,0.00953,0.00304,-0.1767
-0.3,0.8076,0.00958,0.00303,-0.1762
-0.2,0.8231,0.00967,0.00304,-0.1756
-0.1,0.8391,0.00973,0.00308,-0.1751
0,0.8548,0.00981,0.00311,-0.1745
0.1,0.8694,0.00994,0.00316,-0.1737
0.2,0.8817,0.01017,0.00327,-0.1725
0.3,0.896,0.01032,0.00334,-0.1717
0.4,0.9098,0.01049,0.00344,-0.1709
0.5,0.9227,0.0107,0.00357,-0.1699
0.8,0.9508,0.01191,0.00428,-0.1655
0.9,0.9641,0.01215,0.00444,-0.1647
1,0.9774,0.01239,0.00461,-0.1638
1.1,0.9923,0.01254,0.00474,-0.1631
1.2,1.0076,0.01267,0.00485,-0.1624
1.3,1.0225,0.0128,0.00499,-0.1618
1.4,1.0381,0.01292,0.0051,-0.1611
1.5,1.0534,0.01304,0.00521,-0.1604
1.6,1.0684,0.01318,0.00534,-0.1597
1.7,1.0836,0.01331,0.00547,-0.159
1.8,1.0989,0.01344,0.0056,-0.1583
1.9,1.114,0.01357,0.00574,-0.1575
2,1.1295,0.01369,0.00587,-0.1567
2.1,1.1449,0.01381,0.006,-0.156
2.2,1.16,0.01395,0.00615,-0.1552
2.3,1.1751,0.01409,0.0063,-0.1543
2.4,1.1904,0.01421,0.00644,-0.1534
2.5,1.2053,0.01436,0.0066,-0.1525
2.6,1.2201,0.01451,0.00676,-0.1516
2.7,1.235,0.01465,0.00693,-0.1506
2.8,1.2501,0.01479,0.00709,-0.1496
2.9,1.265,0.01493,0.00726,-0.1486
3,1.2796,0.01508,0.00744,-0.1475
3.1,1.2939,0.01526,0.00762,-0.1464
3.2,1.3086,0.01541,0.00781,-0.1452
3.3,1.3223,0.01556,0.008,-0.1439
3.4,1.3353,0.01573,0.00819,-0.1424
3.5,1.348,0.0159,0.0084,-0.1409
3.6,1.3607,0.01608,0.00862,-0.1393
3.7,1.3742,0.01626,0.00885,-0.1379
3.8,1.3882,0.01645,0.00908,-0.1365
3.9,1.4026,0.01665,0.00932,-0.1351
4,1.4167,0.01687,0.00958,-0.1337
4.1,1.4309,0.0171,0.00986,-0.1323
4.2,1.4458,0.01731,0.01013,-0.131
4.3,1.4609,0.01752,0.01042,-0.1296
4.4,1.4758,0.01775,0.01073,-0.1282
4.5,1.4919,0.01682,0.01125,-0.1275
4.6,1.5062,0.01711,0.01158,-0.1259
4.7,1.5211,0.0174,0.01192,-0.1243
4.8,1.5359,0.01771,0.01228,-0.1227
4.9,1.5506,0.01803,0.01266,-0.121
5,1.5651,0.01838,0.01307,-0.1193
5.1,1.5794,0.01875,0.01351,-0.1175
5.2,1.5941,0.01914,0.01398,-0.1157
5.3,1.6087,0.01959,0.01453,-0.1139
5.4,1.6227,0.02009,0.01513,-0.112
5.5,1.6361,0.02066,0.0158,-0.11
5.6,1.6483,0.0213,0.01656,-0.108
5.7,1.6588,0.02202,0.01741,-0.1059
5.8,1.667,0.02286,0.0184,-0.1037
5.9,1.6723,0.02384,0.01953,-0.1015
6,1.675,0.0249,0.02075,-0.0993
6.1,1.6756,0.02605,0.02205,-0.0971
6.2,1.6744,0.02727,0.02342,-0.095
6.3,1.6717,0.02857,0.02485,-0.0931
6.4,1.6679,0.02994,0.02636,-0.0914
6.5,1.6631,0.03141,0.02795,-0.0899
6.7,1.6517,0.03461,0.03138,-0.0877
6.8,1.6454,0.03634,0.03323,-0.0871
7,1.6292,0.0403,0.0374,-0.0871
7.2,1.6116,0.04476,0.04206,-0.0887
7.3,1.6029,0.04717,0.04456,-0.0902
7.5,1.5856,0.05234,0.04989,-0.0942
7.6,1.5773,0.0551,0.05272,-0.0967
7.7,1.5692,0.05795,0.05563,-0.0995
7.8,1.5616,0.06086,0.0586,-0.1024
7.9,1.5546,0.0638,0.06158,-0.1053
8,1.5482,0.06676,0.06458,-0.1083
8.1,1.5403,0.06993,0.06778,-0.1115
8.2,1.5317,0.07323,0.07112,-0.1148
8.3,1.5235,0.07649,0.0744,-0.118
8.4,1.5175,0.07944,0.07737,-0.1209
8.6,1.5085,0.08503,0.08297,-0.1264
8.7,1.5053,0.08767,0.08562,-0.1289
8.8,1.503,0.09024,0.08819,-0.1313
8.9,1.5015,0.0927,0.09066,-0.1337
9,1.5008,0.0951,0.09306,-0.1359
9.1,1.4993,0.09759,0.09555,-0.1382
9.2,1.4957,0.10041,0.09837,-0.1411
9.3,1.4933,0.1031,0.10107,-0.1437
9.4,1.4917,0.1057,0.10367,-0.1462
9.5,1.4908,0.10822,0.10621,-0.1486
9.6,1.4908,0.11065,0.10864,-0.1508
9.7,1.4914,0.11298,0.11097,-0.1529
9.8,1.4925,0.11525,0.11324,-0.1549
9.9,1.4941,0.11746,0.11546,-0.1568
10,1.4962,0.1196,0.1176,-0.1586
10.1,1.4986,0.12169,0.1197,-0.1604
10.2,1.5006,0.12388,0.12188,-0.1623
10.3,1.4999,0.12657,0.12458,-0.1648
10.4,1.5004,0.12909,0.1271,-0.1671
10.5,1.5015,0.13152,0.12953,-0.1692
10.6,1.5032,0.13388,0.1319,-0.1712
10.7,1.5052,0.13617,0.1342,-0.1732
10.8,1.5076,0.13843,0.13646,-0.175
10.9,1.5102,0.14064,0.13867,-0.1769
11,1.5137,0.14269,0.14072,-0.1785
11.1,1.517,0.14476,0.1428,-0.1802
11.2,1.5206,0.14679,0.14483,-0.1818
11.3,1.5243,0.14877,0.14682,-0.1833
11.4,1.5282,0.15072,0.14878,-0.1849
11.5,1.53,0.15324,0.15129,-0.187
11.6,1.532,0.15579,0.15384,-0.1892
11.7,1.5346,0.15819,0.15625,-0.1911
11.8,1.5376,0.16053,0.15859,-0.193
11.9,1.5408,0.16282,0.16088,-0.1949
12,1.5443,0.16506,0.16313,-0.1967
12.1,1.548,0.16727,0.16534,-0.1984
12.2,1.5519,0.16945,0.16753,-0.2001
12.3,1.5558,0.1716,0.16969,-0.2018
12.4,1.5599,0.17373,0.17182,-0.2035
12.5,1.5642,0.17583,0.17393,-0.2051
12.6,1.5685,0.17792,0.17602,-0.2067
12.7,1.5735,0.17978,0.17789,-0.2082
12.8,1.5781,0.18176,0.17987,-0.2097
12.9,1.5827,0.1837,0.18183,-0.2113
13,1.5863,0.18612,0.18424,-0.2132
13.1,1.5897,0.18884,0.18697,-0.2153
13.2,1.5935,0.19136,0.18949,-0.2173
13.3,1.5976,0.19379,0.19192,-0.2192
13.4,1.6019,0.19616,0.1943,-0.221
13.5,1.6063,0.1985,0.19665,-0.2228
13.6,1.6109,0.20081,0.19897,-0.2246
13.7,1.6156,0.20311,0.20127,-0.2264
13.8,1.6203,0.20538,0.20354,-0.2281
13.9,1.6252,0.20764,0.20581,-0.2298
14,1.6301,0.20988,0.20806,-0.2315
14.1,1.6351,0.21211,0.21029,-0.2332
14.2,1.6405,0.21411,0.2123,-0.2348
14.3,1.6457,0.21621,0.21441,-0.2364
14.4,1.651,0.21828,0.21648,-0.238
14.5,1.655,0.22149,0.21969,-0.2404
14.6,1.6596,0.22437,0.22257,-0.2426
14.7,1.6644,0.2271,0.22531,-0.2446
14.8,1.6693,0.22977,0.22798,-0.2466
14.9,1.6743,0.23237,0.2306,-0.2485
15,1.6795,0.23494,0.23317,-0.2504
15.1,1.6848,0.23747,0.2357,-0.2524
15.2,1.6901,0.23992,0.23816,-0.2542
15.3,1.6955,0.24233,0.24057,-0.256
15.4,1.701,0.24468,0.24293,-0.2578
15.5,1.7064,0.24715,0.24539,-0.2596
15.6,1.7107,0.25124,0.24949,-0.2625
15.7,1.716,0.25414,0.2524,-0.2646
15.8,1.7213,0.25698,0.25523,-0.2667
15.9,1.7267,0.25975,0.25801,-0.2686
16,1.7322,0.26248,0.26075,-0.2706
16.1,1.7378,0.26518,0.26346,-0.2726
16.2,1.7433,0.26785,0.26613,-0.2745
16.3,1.7489,0.27049,0.26878,-0.2764
16.4,1.7545,0.27312,0.2714,-0.2783
16.5,1.7598,0.27658,0.27486,-0.2806
16.6,1.7652,0.27977,0.27806,-0.2828
16.7,1.7707,0.28289,0.28117,-0.285
16.8,1.7762,0.28636,0.28465,-0.2873
16.9,1.7819,0.28934,0.28763,-0.2894
17,1.7875,0.29229,0.29059,-0.2914
17.1,1.7932,0.29525,0.29355,-0.2935
17.2,1.7989,0.2982,0.2965,-0.2955
17.3,1.8046,0.30113,0.29943,-0.2975
17.4,1.8103,0.30407,0.30237,-0.2996
17.5,1.8161,0.3071,0.3054,-0.3016
17.6,1.8217,0.31067,0.30898,-0.3039
17.7,1.8274,0.31406,0.31237,-0.3062
17.8,1.8332,0.31742,0.31573,-0.3084
17.9,1.839,0.32077,0.31908,-0.3106
18,1.8448,0.32409,0.3224,-0.3128
18.1,1.8506,0.32739,0.32571,-0.3149
18.2,1.8564,0.33072,0.32904,-0.3171
18.3,1.8622,0.33404,0.33236,-0.3193
18.4,1.8681,0.33737,0.33568,-0.3214
18.5,1.8739,0.34072,0.33904,-0.3236
18.6,1.8798,0.34407,0.34239,-0.3258
18.7,1.8856,0.34744,0.34577,-0.328
18.8,1.8915,0.35081,0.34914,-0.3302
18.9,1.8973,0.35421,0.35254,-0.3324
19,1.9032,0.3576,0.35593,-0.3345
19.1,1.909,0.36102,0.35936,-0.3367
19.2,1.9149,0.36481,0.36315,-0.3391
19.3,1.9209,0.36868,0.36701,-0.3415
19.4,1.9268,0.37252,0.37086,-0.3439
19.5,1.9327,0.37625,0.37459,-0.3462
19.6,1.9386,0.37999,0.37834,-0.3485
19.7,1.9446,0.38378,0.38213,-0.3508
19.8,1.9505,0.38752,0.38587,-0.3531
19.9,1.9564,0.39135,0.3897,-0.3555
20,1.9623,0.39514,0.39349,-0.3578
20.1,1.9682,0.39895,0.3973,-0.3601
20.2,1.9741,0.40277,0.40113,-0.3625
20.3,1.98,0.40664,0.405,-0.3648
20.4,1.9859,0.41052,0.40888,-0.3672
20.5,1.9918,0.41443,0.41279,-0.3695
20.6,1.9977,0.41835,0.41672,-0.3719
20.7,2.0036,0.4223,0.42067,-0.3743
20.8,2.0094,0.42628,0.42465,-0.3767
20.9,2.0153,0.43027,0.42864,-0.379
21,2.0211,0.4343,0.43267,-0.3814
21.1,2.027,0.43836,0.43674,-0.3839
21.2,2.0328,0.44244,0.44082,-0.3863
21.3,2.0387,0.44654,0.44492,-0.3887
21.4,2.0445,0.45067,0.44905,-0.3911
21.5,2.0503,0.45485,0.45323,-0.3936
21.6,2.0561,0.45905,0.45743,-0.396
21.7,2.0619,0.46324,0.46163,-0.3985
21.8,2.0676,0.46746,0.46585,-0.4009
22.1,2.0801,0.48052,0.47893,-0.407

