airfoilName st17.dat
Re 	3.000000e+04
M 	7.000000e-01
N 	4.500000e+00
VACC 	0 VACCflag 1
XTR 	1.00 	1.00 XTRflag 0
alpha,cl,cd,cdp,cm
-18.3,-1.1063,0.33934,0.32707,0.0946
-18.2,-1.0996,0.33615,0.32389,0.0928
-18.1,-1.0929,0.333,0.32075,0.091
-18,-1.0862,0.32988,0.31763,0.0892
-17.9,-1.0795,0.32679,0.31454,0.0874
-17.8,-1.0728,0.32372,0.31148,0.0856
-17.7,-1.0662,0.32066,0.30843,0.0839
-17.6,-1.0595,0.31764,0.30537,0.0821
-17.5,-1.0529,0.31465,0.30239,0.0804
-17.4,-1.0462,0.31167,0.29941,0.0787
-17.3,-1.0396,0.30871,0.29647,0.077
-17.2,-1.033,0.3058,0.29356,0.0753
-17.1,-1.0263,0.30289,0.29066,0.0736
-17,-1.0197,0.30002,0.28779,0.0719
-16.9,-1.0131,0.29717,0.28495,0.0703
-16.8,-1.0065,0.29433,0.28212,0.0686
-16.7,-0.9999,0.29153,0.27933,0.067
-16.6,-0.9933,0.28873,0.27654,0.0654
-16.5,-0.9868,0.28597,0.27379,0.0638
-16.4,-0.9802,0.28324,0.27106,0.0622
-16.3,-0.9737,0.28054,0.26836,0.0606
-16.2,-0.9671,0.27785,0.26569,0.059
-16.1,-0.9606,0.27519,0.26303,0.0575
-16,-0.9541,0.27254,0.26039,0.0559
-15.9,-0.9476,0.26992,0.25778,0.0544
-15.8,-0.9411,0.26732,0.25519,0.0529
-15.7,-0.9346,0.26474,0.25262,0.0514
-15.6,-0.9281,0.26219,0.25008,0.0499
-15.5,-0.9217,0.25967,0.24757,0.0484
-15.4,-0.9147,0.25768,0.24559,0.0465
-15.3,-0.9083,0.2552,0.24312,0.0451
-15.2,-0.9018,0.25275,0.24068,0.0436
-15.1,-0.8953,0.25031,0.23826,0.0421
-15,-0.8889,0.24791,0.23586,0.0406
-14.9,-0.8824,0.24553,0.23349,0.0392
-14.8,-0.876,0.24317,0.23114,0.0378
-14.7,-0.8695,0.24083,0.22878,0.0363
-14.6,-0.8631,0.23852,0.22648,0.0349
-14.5,-0.8566,0.23623,0.2242,0.0334
-14.4,-0.8502,0.23398,0.22196,0.032
-14.3,-0.8438,0.23175,0.21974,0.0306
-14.2,-0.8373,0.22956,0.21757,0.0292
-14.1,-0.8308,0.22741,0.21543,0.0277
-14,-0.8243,0.22532,0.21335,0.0262
-13.9,-0.8176,0.22328,0.21133,0.0247
-13.7,-0.8046,0.21935,0.2075,0.0217
-13.6,-0.7986,0.21713,0.20529,0.0205
-13.5,-0.7928,0.21494,0.20311,0.0194
-13.4,-0.7869,0.21276,0.20095,0.0183
-13.3,-0.7811,0.21061,0.19881,0.0173
-13.2,-0.7752,0.20848,0.1967,0.0162
-13.1,-0.7694,0.20638,0.19461,0.0151
-13,-0.7637,0.2043,0.19254,0.0141
-12.9,-0.7579,0.20224,0.1905,0.013
-12.8,-0.7522,0.2002,0.18848,0.012
-12.7,-0.7465,0.19819,0.18648,0.011
-12.6,-0.7408,0.19619,0.1845,0.01
-12.5,-0.7351,0.19422,0.18254,0.009
-12.4,-0.7295,0.19226,0.18061,0.0081
-12.3,-0.7239,0.19033,0.17869,0.0071
-12.2,-0.7184,0.18842,0.17679,0.0062
-12.1,-0.7128,0.18652,0.17492,0.0053
-12,-0.7073,0.18465,0.17306,0.0043
-11.9,-0.7018,0.1828,0.17123,0.0034
-11.8,-0.6964,0.18096,0.16941,0.0025
-11.7,-0.6909,0.17915,0.16759,0.0017
-11.6,-0.6855,0.17736,0.16581,0.0008
-11.5,-0.6802,0.17558,0.16406,0
-11.4,-0.6748,0.17382,0.16232,-0.0009
-11.3,-0.6696,0.17209,0.16061,-0.0017
-11.2,-0.6643,0.17038,0.15892,-0.0025
-11.1,-0.6591,0.16868,0.15725,-0.0033
-11,-0.6539,0.16701,0.15559,-0.0041
-10.9,-0.6488,0.16535,0.15396,-0.0048
-10.8,-0.6437,0.16372,0.15235,-0.0056
-10.7,-0.6386,0.16211,0.15077,-0.0063
-10.6,-0.6336,0.16052,0.1492,-0.007
-10.5,-0.6286,0.15895,0.14766,-0.0077
-10.4,-0.6237,0.1574,0.14613,-0.0084
-10.3,-0.6188,0.15588,0.14463,-0.0091
-10.2,-0.614,0.15438,0.14316,-0.0098
-10.1,-0.6092,0.1529,0.14171,-0.0104
-10,-0.6045,0.15145,0.14028,-0.011
-9.9,-0.5999,0.15002,0.13888,-0.0117
-9.8,-0.5952,0.14862,0.13751,-0.0123
-9.7,-0.5907,0.14725,0.13617,-0.0129
-9.6,-0.5838,0.14793,0.13691,-0.0156
-9.5,-0.5797,0.14646,0.13555,-0.016
-9.4,-0.5758,0.14494,0.13407,-0.0163
-9.3,-0.572,0.14347,0.13262,-0.0165
-9.2,-0.5683,0.14203,0.13121,-0.0168
-9.1,-0.5646,0.1406,0.12982,-0.017
-9,-0.5611,0.13921,0.12847,-0.0172
-8.9,-0.5576,0.13785,0.12714,-0.0173
-8.8,-0.5542,0.13651,0.12584,-0.0175
-8.6,-0.5477,0.13391,0.12328,-0.0177
-8.5,-0.5446,0.13265,0.12206,-0.0178
-8.4,-0.5416,0.13141,0.12086,-0.0179
-8.3,-0.5387,0.13019,0.11968,-0.0179
-8.2,-0.5359,0.12899,0.11852,-0.018
-8.1,-0.5332,0.12781,0.11739,-0.0179
-8,-0.5306,0.12666,0.11628,-0.0179
-7.9,-0.5282,0.12553,0.1152,-0.0179
-7.8,-0.5259,0.12443,0.11414,-0.0178
-7.7,-0.5236,0.12334,0.11309,-0.0177
-7.6,-0.5216,0.12227,0.11208,-0.0175
-7.5,-0.5196,0.12123,0.11108,-0.0174
-7.4,-0.5178,0.12021,0.11011,-0.0172
-7.3,-0.5162,0.11921,0.10916,-0.017
-7.2,-0.5147,0.11824,0.10824,-0.0168
-7.1,-0.5134,0.11729,0.10734,-0.0165
-7,-0.5122,0.11635,0.10645,-0.0162
-6.7,-0.5096,0.11369,0.10394,-0.0151
-6.6,-0.5092,0.11285,0.10316,-0.0147
-6.5,-0.5089,0.11203,0.1024,-0.0143
-6.4,-0.5087,0.11122,0.10164,-0.0139
-6.3,-0.5085,0.11042,0.1009,-0.0135
-6.2,-0.5081,0.10962,0.10015,-0.0131
-6.1,-0.5072,0.10878,0.09937,-0.0129
-6,-0.5058,0.10793,0.09856,-0.0129
-5.9,-0.5043,0.10708,0.09776,-0.0129
-5.8,-0.5026,0.10624,0.09697,-0.0129
-5.7,-0.5008,0.10542,0.0962,-0.0131
-5.6,-0.4987,0.10462,0.09545,-0.0133
-5.5,-0.4962,0.10386,0.09473,-0.0138
-5.4,-0.4932,0.10318,0.09409,-0.0145
-5.3,-0.491,0.10225,0.09329,-0.0147
-5.2,-0.4894,0.10114,0.09223,-0.0144
-4.7,-0.4749,0.09545,0.08669,-0.0148
-4.6,-0.4623,0.09383,0.08507,-0.0171
-4.5,-0.4494,0.09223,0.08347,-0.0195
-4.4,-0.4344,0.09056,0.08178,-0.0223
-4.3,-0.4213,0.08902,0.08024,-0.0247
-4.2,-0.4054,0.0877,0.07891,-0.0279
-4.1,-0.3906,0.08619,0.07738,-0.0307
-4,-0.375,0.08466,0.07584,-0.0336
-3.9,-0.3593,0.08319,0.07435,-0.0365
-3.8,-0.3417,0.08171,0.07285,-0.0399
-3.6,-0.3066,0.07887,0.06995,-0.0466
-3.5,-0.2856,0.07751,0.06855,-0.0508
-3.3,-0.2442,0.0745,0.06553,-0.0586
-3.2,-0.2326,0.07311,0.06413,-0.0598
-3.1,-0.2176,0.07168,0.06269,-0.0619
-3,-0.2004,0.07023,0.06121,-0.0644
-2.9,-0.1812,0.06876,0.05971,-0.0674
-2.7,-0.1461,0.06607,0.05691,-0.0723
-2.6,-0.1267,0.06474,0.05554,-0.0752
-2.5,-0.104,0.06337,0.05411,-0.0788
-2.4,-0.078,0.06198,0.05265,-0.0831
-2.2,-0.0245,0.05957,0.05007,-0.0922
-2.1,-0.0055,0.0583,0.04876,-0.0944
-2,0.0167,0.05703,0.04743,-0.0972
-1.9,0.0441,0.05569,0.046,-0.101
-1.5,0.1515,0.05113,0.04093,-0.1161
-1.4,0.1746,0.05004,0.03977,-0.1185
-1.3,0.2009,0.04899,0.03863,-0.1215
-1.2,0.2158,0.04824,0.0378,-0.1224
-1,0.2753,0.04651,0.03566,-0.1298
-0.9,0.3,0.04567,0.03474,-0.1322
-0.8,0.3285,0.04487,0.03378,-0.1352
-0.7,0.3445,0.0443,0.03305,-0.136
-0.6,0.3739,0.04362,0.0321,-0.1392
-0.5,0.3966,0.043,0.03143,-0.1409
-0.4,0.4264,0.04257,0.0307,-0.1439
-0.3,0.4439,0.04213,0.03013,-0.1445
-0.1,0.487,0.04126,0.02906,-0.1472
0,0.5177,0.04085,0.02835,-0.1499
0.1,0.53,0.0406,0.0281,-0.1496
0.2,0.5512,0.04056,0.02779,-0.1507
0.4,0.601,0.03992,0.027,-0.1539
0.7,0.6574,0.03958,0.02647,-0.1556
0.9,0.689,0.03949,0.02626,-0.1556
1,0.7138,0.03935,0.02609,-0.157
1.1,0.7224,0.03948,0.02618,-0.1559
1.2,0.7446,0.03932,0.02607,-0.1568
1.4,0.7765,0.03935,0.02617,-0.1568
1.5,0.8018,0.0393,0.02615,-0.158
1.6,0.8091,0.03936,0.02632,-0.1567
1.8,0.8418,0.03931,0.02657,-0.1566
2,0.8769,0.03919,0.02677,-0.1564
2.2,0.8935,0.03895,0.02678,-0.1523
2.3,0.9057,0.0387,0.02691,-0.1513
2.4,0.9234,0.03848,0.02704,-0.1509
2.6,0.9287,0.03877,0.02655,-0.143
2.7,0.9436,0.03904,0.02677,-0.1421
2.8,0.9473,0.03944,0.0271,-0.14
2.9,0.9607,0.03976,0.02738,-0.1389
3,0.9745,0.04009,0.02767,-0.1379
3.1,0.9834,0.04037,0.02791,-0.1361
3.2,0.9959,0.04078,0.0283,-0.1351
3.3,1.0086,0.0412,0.02871,-0.1341
3.4,1.0207,0.04141,0.02887,-0.1324
3.5,1.0345,0.04184,0.0293,-0.1315
3.6,1.0489,0.04227,0.02974,-0.1306
3.7,1.0621,0.0428,0.0303,-0.1297
3.8,1.0694,0.04337,0.03086,-0.1283
3.9,1.0832,0.04394,0.03146,-0.1274
4,1.0978,0.04449,0.03203,-0.1265
4.1,1.1136,0.04501,0.03257,-0.1256
4.2,1.1204,0.04573,0.03327,-0.1242
4.3,1.1354,0.04631,0.03386,-0.1233
4.4,1.146,0.04717,0.03476,-0.1226
4.5,1.1557,0.0481,0.03571,-0.1219
4.6,1.1707,0.04876,0.03637,-0.1209
4.7,1.176,0.04964,0.03723,-0.1196
4.8,1.1852,0.05063,0.03825,-0.1189
4.9,1.1925,0.05175,0.03939,-0.1182
5,1.2012,0.0528,0.04048,-0.1175
5.1,1.2075,0.05403,0.04171,-0.117
5.2,1.2134,0.05529,0.04302,-0.1165
5.3,1.2168,0.05634,0.04404,-0.1155
5.4,1.2263,0.0574,0.04509,-0.1147
5.5,1.2259,0.05911,0.04686,-0.1149
5.6,1.2335,0.06033,0.04811,-0.1143
5.7,1.2372,0.0618,0.04958,-0.1141
5.8,1.2381,0.06352,0.0514,-0.1144
5.9,1.2455,0.0648,0.05271,-0.1139
6,1.2432,0.06633,0.05422,-0.1138
6.1,1.2519,0.06754,0.05545,-0.1131
6.2,1.2508,0.06946,0.05737,-0.1139
6.3,1.2509,0.07133,0.05929,-0.1146
6.4,1.2561,0.07285,0.06084,-0.1145
6.6,1.2595,0.07645,0.06447,-0.1156
6.7,1.2605,0.07836,0.06641,-0.1164
6.9,1.2614,0.08181,0.06986,-0.1177
7,1.2644,0.08359,0.07168,-0.1183
7.1,1.2705,0.08513,0.07325,-0.1181
7.2,1.274,0.0869,0.075,-0.1186
7.3,1.2712,0.08924,0.07739,-0.1209
7.4,1.273,0.09123,0.07941,-0.1221
7.5,1.2775,0.09298,0.08118,-0.1225
7.6,1.2842,0.09453,0.08276,-0.1222
7.7,1.2853,0.09659,0.0848,-0.1237
7.8,1.2817,0.09864,0.08687,-0.1261
7.9,1.2877,0.10027,0.08852,-0.1261
8,1.292,0.10208,0.09032,-0.1267
8.1,1.2907,0.10447,0.09274,-0.1295
8.2,1.2928,0.10653,0.09482,-0.1311
8.3,1.2967,0.10841,0.09674,-0.1321
8.4,1.302,0.11018,0.09853,-0.1325
8.5,1.3086,0.11184,0.10022,-0.1323
8.6,1.3099,0.11399,0.10235,-0.1344
8.7,1.3108,0.11619,0.10458,-0.1368
8.8,1.3131,0.11771,0.10611,-0.1378
8.9,1.3194,0.11943,0.10786,-0.1379
9,1.322,0.12149,0.10989,-0.1397
9.1,1.3233,0.12366,0.11215,-0.1422
9.2,1.3266,0.12568,0.1142,-0.1439
9.3,1.3309,0.12762,0.11617,-0.1451
9.4,1.336,0.12951,0.11808,-0.1459
9.5,1.3418,0.13136,0.11996,-0.1464
9.6,1.3483,0.13319,0.12181,-0.1465
9.7,1.3504,0.1353,0.1239,-0.1489
9.8,1.3529,0.1374,0.12602,-0.1514
9.9,1.3567,0.13942,0.12806,-0.1531
10,1.3609,0.14083,0.12949,-0.1539
10.1,1.3671,0.14272,0.1314,-0.1542
10.2,1.3709,0.14474,0.1334,-0.1561
10.3,1.3736,0.14682,0.1355,-0.1587
10.4,1.3776,0.14884,0.13755,-0.1606
10.5,1.3823,0.15084,0.13957,-0.1622
10.6,1.3874,0.15283,0.14158,-0.1634
10.7,1.393,0.15482,0.1436,-0.1644
10.8,1.3989,0.15681,0.14562,-0.1652
10.9,1.4051,0.15883,0.14766,-0.1658
11,1.4112,0.16087,0.14967,-0.1664
11.1,1.4139,0.1629,0.15173,-0.1696
11.2,1.4179,0.16493,0.15378,-0.1719
11.4,1.4268,0.16839,0.15728,-0.1752
11.5,1.4329,0.17045,0.15937,-0.1761
11.6,1.4392,0.17254,0.16148,-0.1767
11.7,1.4446,0.17461,0.16352,-0.1782
11.8,1.4483,0.17661,0.16554,-0.181
11.9,1.4529,0.17864,0.1676,-0.1832
12,1.458,0.18071,0.16969,-0.1851
12.1,1.4634,0.18279,0.1718,-0.1867
12.2,1.469,0.1849,0.17399,-0.1882
12.3,1.4749,0.18704,0.17615,-0.1895
12.4,1.481,0.1892,0.17834,-0.1907
12.5,1.4872,0.1914,0.18056,-0.1917
12.6,1.4936,0.19364,0.18283,-0.1927
12.7,1.5002,0.19595,0.18516,-0.1935
12.8,1.5046,0.19796,0.18714,-0.1961
12.9,1.5067,0.19904,0.18823,-0.2002
13,1.5126,0.20122,0.19044,-0.2018
13.1,1.5185,0.20342,0.19266,-0.2033
13.2,1.5247,0.20566,0.19492,-0.2047
13.3,1.5309,0.20793,0.19722,-0.206
13.4,1.5373,0.21024,0.19955,-0.2073
13.5,1.5438,0.2126,0.20193,-0.2084
13.6,1.5504,0.21501,0.20437,-0.2094
13.7,1.5551,0.21705,0.20637,-0.2122
13.8,1.5603,0.21916,0.2085,-0.2147
13.9,1.5658,0.22136,0.21072,-0.2169
14,1.5715,0.22361,0.213,-0.2189
14.1,1.5775,0.22591,0.21532,-0.2207
14.2,1.5835,0.22825,0.21768,-0.2225
14.3,1.5897,0.23063,0.22008,-0.2242
14.4,1.596,0.23304,0.22252,-0.2258
14.5,1.6023,0.2355,0.225,-0.2273
14.7,1.6142,0.23958,0.22904,-0.2304
14.8,1.6195,0.24176,0.23125,-0.2331
15,1.631,0.24645,0.23598,-0.2375
15.1,1.6371,0.24888,0.23843,-0.2396
15.2,1.6432,0.25136,0.24097,-0.2415
15.3,1.6495,0.25386,0.2435,-0.2434
15.4,1.6558,0.2564,0.24606,-0.2452
15.5,1.6622,0.25898,0.24866,-0.247
15.6,1.6686,0.26159,0.25129,-0.2487
15.7,1.6751,0.26425,0.25396,-0.2504
15.8,1.6817,0.26693,0.25666,-0.252
15.9,1.6883,0.26966,0.25941,-0.2536
16,1.695,0.27245,0.26221,-0.2552
16.1,1.7017,0.27529,0.26507,-0.2567
16.2,1.7073,0.27769,0.26742,-0.2594
16.3,1.713,0.28012,0.26987,-0.262
16.4,1.7173,0.28144,0.27121,-0.2655
16.5,1.7236,0.28414,0.27392,-0.2675
16.6,1.73,0.28688,0.27668,-0.2695
16.7,1.7364,0.28965,0.27947,-0.2715
16.8,1.7429,0.29245,0.28228,-0.2734
16.9,1.7494,0.29527,0.28512,-0.2753
17,1.7559,0.29813,0.28799,-0.2772
17.1,1.7625,0.30102,0.29089,-0.2791
17.2,1.7691,0.30395,0.29384,-0.281
17.3,1.7758,0.30692,0.29682,-0.2828
17.4,1.7824,0.30993,0.29984,-0.2846
17.5,1.7891,0.31298,0.30291,-0.2864
17.6,1.7953,0.31583,0.3057,-0.2887
17.7,1.801,0.31843,0.30831,-0.2915
17.8,1.807,0.32122,0.31112,-0.2941
17.9,1.8131,0.3241,0.31402,-0.2966
18,1.8194,0.32704,0.31698,-0.2989
18.1,1.8257,0.33003,0.32003,-0.3012
18.2,1.832,0.33307,0.32308,-0.3035
18.3,1.8384,0.33614,0.32616,-0.3057
18.4,1.8449,0.33924,0.32928,-0.3079
18.5,1.8513,0.34238,0.33243,-0.3101
18.6,1.8578,0.34556,0.33562,-0.3123
18.7,1.8636,0.34755,0.33762,-0.3145
18.8,1.8702,0.35078,0.34086,-0.3166
18.9,1.8768,0.35405,0.34414,-0.3187
19,1.8834,0.35734,0.34745,-0.3208
19.1,1.89,0.36067,0.35079,-0.3229
19.2,1.8966,0.36404,0.35417,-0.325
19.3,1.9032,0.36745,0.35759,-0.3271
19.4,1.9095,0.3707,0.36078,-0.3296
19.5,1.9153,0.37377,0.36387,-0.3325
19.7,1.9276,0.38029,0.37042,-0.3378
19.8,1.9339,0.38364,0.37378,-0.3403
19.9,1.9402,0.38703,0.37719,-0.3428
20,1.9465,0.39047,0.38064,-0.3453
20.1,1.9528,0.39394,0.38413,-0.3477
20.2,1.9592,0.39745,0.38765,-0.3502
20.3,1.9656,0.40099,0.3912,-0.3526
20.4,1.972,0.40458,0.3948,-0.355
20.5,1.9784,0.4082,0.39843,-0.3574
20.6,1.9848,0.41185,0.4021,-0.3598
20.7,1.9912,0.41555,0.40581,-0.3622
20.8,1.9976,0.41926,0.40954,-0.3646
20.9,2.0041,0.42304,0.41333,-0.3671
21,2.0105,0.42683,0.41717,-0.3695
21.1,2.0169,0.43066,0.42101,-0.3719
21.2,2.0234,0.43454,0.42491,-0.3743
21.3,2.0298,0.43845,0.42883,-0.3767
21.4,2.0362,0.4424,0.43278,-0.3792
21.5,2.0427,0.44639,0.43679,-0.3816
21.6,2.0491,0.45043,0.44084,-0.3841
21.7,2.0555,0.45447,0.4449,-0.3865
21.8,2.062,0.45858,0.44901,-0.389
22.1,2.0812,0.47111,0.46158,-0.3964
22.2,2.0857,0.47541,0.46584,-0.4012
22.3,2.0918,0.4795,0.46996,-0.4039
22.4,2.0979,0.48363,0.4741,-0.4066
22.5,2.104,0.48781,0.47829,-0.4093
22.6,2.1101,0.49204,0.48253,-0.412
22.7,2.1162,0.4963,0.48681,-0.4146
22.8,2.1224,0.50061,0.49113,-0.4173
22.9,2.1285,0.50493,0.49546,-0.42
23.8,2.1835,0.54567,0.53632,-0.4443
24.3,2.2124,0.57992,0.57074,-0.4585
24.4,2.2184,0.58486,0.57568,-0.4613
24.5,2.2245,0.58982,0.58065,-0.4641
24.6,2.2306,0.59475,0.5856,-0.4668
24.7,2.2369,0.59943,0.59029,-0.4696
24.8,2.2437,0.60216,0.59301,-0.4724

