airfoilName st17.dat
Re 	210000
M 	7.000000e-01
N 	4.500000e+00
VACC 	0 VACCflag 1
XTR 	1.00 	1.00 XTRflag 0
alpha,cl,cd,cdp,cm
-30,-1.8397,0.86264,0.85842,0.4089
-29.9,-1.8342,0.85491,0.85068,0.4056
-29.8,-1.8287,0.84731,0.84308,0.4023
-29.7,-1.8232,0.83984,0.83561,0.399
-29.6,-1.8176,0.83236,0.82812,0.3957
-29.5,-1.812,0.82498,0.82074,0.3924
-29.4,-1.8064,0.81764,0.8134,0.3892
-29.2,-1.7969,0.81299,0.80875,0.3836
-29.1,-1.7913,0.80605,0.80181,0.3804
-29,-1.7856,0.79911,0.79486,0.3772
-28.9,-1.7799,0.79231,0.78806,0.374
-28.8,-1.7743,0.78559,0.78134,0.3708
-28.7,-1.7686,0.77893,0.77466,0.3677
-28.6,-1.7629,0.77225,0.76798,0.3645
-28.5,-1.7571,0.76569,0.76142,0.3614
-28.4,-1.7514,0.75916,0.75488,0.3582
-28.3,-1.7456,0.75267,0.74839,0.3551
-28.2,-1.7397,0.74631,0.74202,0.352
-28.1,-1.7339,0.74,0.73571,0.3489
-28,-1.7281,0.7337,0.72941,0.3458
-27.9,-1.7222,0.72743,0.72314,0.3427
-27.8,-1.7164,0.72131,0.71701,0.3396
-27.7,-1.7104,0.71518,0.71087,0.3366
-27.6,-1.7045,0.70913,0.70482,0.3335
-27.5,-1.6986,0.70309,0.69878,0.3305
-27.4,-1.6926,0.69715,0.69284,0.3275
-27.3,-1.6866,0.69126,0.68695,0.3244
-27.2,-1.6806,0.6854,0.68108,0.3214
-27.1,-1.6746,0.67963,0.67532,0.3184
-27,-1.6686,0.67388,0.66956,0.3154
-26.9,-1.6625,0.66819,0.66387,0.3125
-26.8,-1.6565,0.66257,0.65824,0.3095
-26.7,-1.6504,0.65699,0.65266,0.3066
-26.6,-1.6443,0.65144,0.6471,0.3036
-26.5,-1.6382,0.64598,0.64165,0.3007
-26.4,-1.6321,0.64055,0.63622,0.2978
-26.3,-1.6259,0.63517,0.63083,0.2949
-26.2,-1.6198,0.62984,0.6255,0.292
-26.1,-1.6136,0.62457,0.62021,0.2891
-26,-1.6074,0.61933,0.61497,0.2862
-25.9,-1.6012,0.61415,0.60979,0.2833
-25.8,-1.595,0.60903,0.60467,0.2805
-25.7,-1.5888,0.60395,0.59958,0.2776
-25.6,-1.5825,0.59891,0.59455,0.2748
-25.5,-1.5763,0.59393,0.58956,0.272
-25.4,-1.5706,0.591,0.58663,0.2688
-25.3,-1.5644,0.58622,0.58185,0.2659
-25.2,-1.5582,0.58151,0.57714,0.2631
-25.1,-1.5519,0.5769,0.57252,0.2603
-25,-1.5457,0.57241,0.56804,0.2575
-24.9,-1.5394,0.56793,0.56355,0.2547
-24.8,-1.5332,0.56362,0.55924,0.2519
-24.7,-1.527,0.55933,0.55495,0.2491
-22.2,-1.3669,0.45831,0.45392,0.1839
-22.1,-1.3602,0.45413,0.44973,0.1816
-22,-1.3535,0.45001,0.44561,0.1793
-21.9,-1.3469,0.44594,0.44154,0.1769
-21.8,-1.3402,0.44191,0.43751,0.1746
-21.7,-1.3335,0.43786,0.43347,0.1723
-21.6,-1.3269,0.43389,0.42949,0.17
-21.5,-1.3202,0.42994,0.42554,0.1678
-21.4,-1.3135,0.42603,0.42163,0.1655
-21.3,-1.3069,0.42214,0.41774,0.1633
-21.2,-1.3002,0.41829,0.41389,0.161
-21.1,-1.2935,0.41447,0.41007,0.1588
-21,-1.2869,0.41069,0.40629,0.1566
-20.9,-1.2802,0.40692,0.40252,0.1544
-20.8,-1.2735,0.40319,0.39879,0.1522
-20.7,-1.2669,0.3995,0.39511,0.15
-20.6,-1.2602,0.39582,0.39143,0.1479
-20.5,-1.2535,0.3922,0.3878,0.1457
-20.4,-1.2468,0.38859,0.38417,0.1436
-20.3,-1.2402,0.38501,0.3806,0.1415
-20.2,-1.2335,0.38147,0.37705,0.1394
-20.1,-1.2269,0.37795,0.37354,0.1373
-20,-1.2202,0.37448,0.37007,0.1352
-19.9,-1.2136,0.37102,0.36661,0.1331
-19.8,-1.2069,0.3676,0.36319,0.1311
-19.7,-1.2003,0.3642,0.35979,0.1291
-19.6,-1.1936,0.36083,0.35642,0.127
-19.5,-1.187,0.35749,0.35308,0.125
-19.4,-1.1804,0.35416,0.34975,0.123
-19.3,-1.1737,0.35089,0.34648,0.121
-19.2,-1.1671,0.34763,0.34323,0.119
-19.1,-1.1605,0.34439,0.33998,0.1171
-19,-1.1539,0.34119,0.33678,0.1151
-18.9,-1.1473,0.33802,0.33362,0.1132
-18.8,-1.1407,0.33488,0.33048,0.1112
-18.7,-1.1341,0.33176,0.32736,0.1093
-18.6,-1.1275,0.32866,0.32426,0.1074
-18.5,-1.121,0.3256,0.3212,0.1055
-18.4,-1.1146,0.32308,0.31869,0.1035
-18.3,-1.108,0.32008,0.31569,0.1017
-18.2,-1.1015,0.3171,0.31271,0.0998
-18.1,-1.0949,0.31415,0.30975,0.098
-18,-1.0884,0.31122,0.30683,0.0961
-17.9,-1.0819,0.30833,0.30394,0.0943
-17.8,-1.0754,0.30546,0.30107,0.0925
-17.7,-1.0688,0.30261,0.29822,0.0906
-17.6,-1.0623,0.29978,0.29538,0.0888
-17.5,-1.0558,0.29699,0.29259,0.087
-17.4,-1.0493,0.2942,0.28981,0.0853
-17.3,-1.0428,0.29144,0.28705,0.0835
-17.2,-1.0363,0.28872,0.28433,0.0817
-17.1,-1.0298,0.28601,0.28162,0.08
-17,-1.0233,0.28332,0.27893,0.0782
-16.9,-1.0168,0.28066,0.27627,0.0764
-16.8,-1.0103,0.27802,0.27363,0.0747
-16.7,-1.0038,0.27541,0.27102,0.073
-16.6,-0.9973,0.27281,0.26843,0.0712
-16.5,-0.9908,0.27024,0.26587,0.0695
-16.4,-0.9843,0.26769,0.26332,0.0678
-16.3,-0.9778,0.26516,0.26079,0.0661
-16.2,-0.9713,0.26264,0.25827,0.0644
-16.1,-0.9648,0.26014,0.25578,0.0626
-16,-0.9582,0.25764,0.25328,0.0609
-15.9,-0.9517,0.25515,0.25079,0.0592
-15.8,-0.9451,0.25268,0.24832,0.0575
-15.7,-0.9384,0.25017,0.24582,0.0558
-15.6,-0.9318,0.24766,0.24331,0.0541
-15.4,-0.9175,0.2423,0.23797,0.0503
-15.3,-0.9112,0.23982,0.2355,0.0489
-15.2,-0.9049,0.23736,0.23305,0.0474
-15.1,-0.8987,0.23493,0.23061,0.046
-15,-0.8924,0.23252,0.2282,0.0445
-14.9,-0.8862,0.23012,0.22581,0.0431
-14.8,-0.88,0.22774,0.22344,0.0417
-14.7,-0.8737,0.22539,0.22109,0.0403
-14.6,-0.8675,0.22305,0.21874,0.0389
-14.5,-0.8613,0.22072,0.21642,0.0375
-14.4,-0.8551,0.21842,0.21412,0.0362
-14.3,-0.8489,0.21614,0.21184,0.0348
-14.2,-0.8427,0.21387,0.20957,0.0335
-14.1,-0.8365,0.21162,0.20733,0.0321
-14,-0.8304,0.20939,0.2051,0.0308
-13.9,-0.8242,0.20717,0.20289,0.0295
-13.8,-0.8181,0.20498,0.2007,0.0282
-13.7,-0.812,0.2028,0.19852,0.027
-13.6,-0.8059,0.20064,0.19637,0.0257
-13.5,-0.7998,0.1985,0.19423,0.0244
-13.4,-0.7937,0.19638,0.19212,0.0232
-13.3,-0.7876,0.19427,0.19002,0.022
-13.2,-0.7816,0.19219,0.18794,0.0208
-13.1,-0.7756,0.19012,0.18588,0.0196
-13,-0.7695,0.18831,0.18407,0.0183
-12.9,-0.7635,0.18628,0.18205,0.0171
-12.8,-0.7575,0.18426,0.18003,0.016
-12.7,-0.7516,0.18227,0.17804,0.0148
-12.6,-0.7457,0.18028,0.17606,0.0137
-12.5,-0.7397,0.17832,0.17411,0.0126
-12.4,-0.7339,0.17638,0.17217,0.0115
-12.3,-0.728,0.17445,0.17025,0.0104
-12.2,-0.7221,0.17254,0.16834,0.0093
-12.1,-0.7163,0.17064,0.16645,0.0083
-12,-0.7105,0.16877,0.16458,0.0072
-11.9,-0.7047,0.16691,0.16273,0.0062
-11.8,-0.699,0.16507,0.1609,0.0052
-11.7,-0.6933,0.16326,0.15908,0.0042
-11.6,-0.6876,0.16146,0.15729,0.0032
-11.5,-0.682,0.15968,0.15552,0.0023
-11.4,-0.6764,0.15791,0.15376,0.0013
-11.3,-0.6709,0.15618,0.15203,0.0004
-11.2,-0.6654,0.15446,0.15032,-0.0005
-11.1,-0.66,0.15276,0.14863,-0.0013
-11,-0.6547,0.15108,0.14696,-0.0022
-10.9,-0.6494,0.14942,0.14531,-0.003
-10.8,-0.6442,0.14779,0.14369,-0.0038
-10.7,-0.639,0.14617,0.14209,-0.0045
-10.6,-0.634,0.14458,0.14051,-0.0053
-10.5,-0.6291,0.14302,0.13896,-0.006
-10.4,-0.6243,0.14147,0.13743,-0.0066
-10.3,-0.6196,0.13996,0.13593,-0.0072
-10.2,-0.6151,0.13848,0.13446,-0.0077
-10.1,-0.6108,0.13702,0.13302,-0.0082
-10,-0.6067,0.1356,0.13161,-0.0086
-9.9,-0.6027,0.1342,0.13023,-0.009
-9.8,-0.599,0.13284,0.12888,-0.0094
-9.7,-0.5954,0.13149,0.12755,-0.0096
-9.6,-0.592,0.13018,0.12625,-0.0098
-9.5,-0.5888,0.12889,0.12498,-0.01
-9.4,-0.5858,0.12763,0.12374,-0.0101
-9.3,-0.5831,0.12641,0.12254,-0.0101
-9.2,-0.5807,0.12521,0.12136,-0.0101
-9.1,-0.5785,0.12403,0.12021,-0.01
-9,-0.5766,0.12288,0.11908,-0.0098
-8.9,-0.5749,0.12174,0.11797,-0.0096
-8.8,-0.5727,0.12055,0.11679,-0.0095
-8.7,-0.563,0.11869,0.11497,-0.0115
-8.6,-0.5537,0.11693,0.11319,-0.0134
-8.5,-0.5442,0.11519,0.11145,-0.0154
-8.4,-0.5344,0.11345,0.10971,-0.0173
-8.3,-0.5248,0.11174,0.108,-0.0193
-8.2,-0.5155,0.11008,0.10634,-0.0211
-8.1,-0.5049,0.10833,0.10459,-0.0232
-8,-0.4949,0.10667,0.10293,-0.0252
-7.9,-0.4846,0.105,0.10126,-0.0273
-7.8,-0.4746,0.10338,0.09965,-0.0292
-7.7,-0.4657,0.10185,0.09812,-0.0308
-7.6,-0.456,0.1003,0.09657,-0.0327
-7.5,-0.4458,0.09873,0.095,-0.0346
-7.4,-0.434,0.09706,0.09333,-0.037
-7.3,-0.4227,0.09545,0.09172,-0.0392
-7.2,-0.4143,0.09407,0.09035,-0.0406
-7.1,-0.4053,0.09266,0.08895,-0.0421
-6.9,-0.3833,0.08984,0.08613,-0.0464
-6.8,-0.3716,0.0883,0.08459,-0.0486
-6.7,-0.3594,0.08675,0.08303,-0.051
-6.6,-0.3532,0.0856,0.0819,-0.0517
-6.5,-0.3436,0.08426,0.08056,-0.0533
-6.4,-0.3328,0.08284,0.07914,-0.0552
-6.3,-0.3211,0.0814,0.0777,-0.0574
-6.2,-0.3108,0.08006,0.07635,-0.0592
-6.1,-0.305,0.07901,0.0753,-0.0597
-6,-0.295,0.07772,0.07402,-0.0614
-5.7,-0.263,0.0738,0.0701,-0.0669
-5.6,-0.2522,0.07251,0.06881,-0.0687
-5.5,-0.239,0.0711,0.06739,-0.0711
-5.4,-0.2236,0.06955,0.06583,-0.0741
-5.3,-0.2134,0.06831,0.06459,-0.0757
-5.2,-0.2022,0.06702,0.0633,-0.0776
-5,-0.1722,0.06414,0.06042,-0.0831
-4.9,-0.1584,0.06285,0.05912,-0.0854
-4.8,-0.1501,0.06189,0.05817,-0.0863
-4.7,-0.1366,0.06068,0.05695,-0.0884
-4.6,-0.1204,0.05934,0.0556,-0.0911
-4.4,-0.0926,0.05697,0.05321,-0.0953
-4.3,-0.0794,0.05583,0.05207,-0.0971
-4.2,-0.0626,0.05456,0.05078,-0.0998
-4.1,-0.0442,0.05322,0.04942,-0.1028
-3.9,-0.0142,0.05091,0.04707,-0.1069
-3.8,0.0033,0.04966,0.04581,-0.1095
-3.7,0.0239,0.04828,0.04439,-0.1127
-3.6,0.0458,0.04686,0.04294,-0.1162
-3.4,0.0805,0.04442,0.04045,-0.1209
-3.3,0.1029,0.04297,0.03896,-0.1243
-3.2,0.1316,0.0412,0.03715,-0.1294
-3.1,0.1561,0.03988,0.03578,-0.1329
-3,0.1728,0.03889,0.03477,-0.1346
-2.9,0.1935,0.03775,0.03359,-0.1371
-2.8,0.2172,0.03649,0.03228,-0.1402
-2.7,0.2439,0.0351,0.03081,-0.1438
-2.6,0.2719,0.03362,0.02926,-0.1477
-2.5,0.2941,0.03231,0.02788,-0.1504
-2.4,0.3226,0.03042,0.02587,-0.1546
-2.3,0.3478,0.02922,0.02461,-0.1575
-2.2,0.3727,0.02822,0.02352,-0.16
-2.1,0.3993,0.02721,0.02241,-0.1627
-1.8,0.4758,0.02275,0.01752,-0.1711
-1.7,0.4989,0.022,0.01666,-0.1727
-1.6,0.523,0.02107,0.01559,-0.1744
-1.5,0.543,0.02011,0.01448,-0.1755
-1.4,0.5695,0.01826,0.01226,-0.1785
-1.3,0.5902,0.0178,0.01169,-0.1791
-1.2,0.613,0.01717,0.0109,-0.18
-1.1,0.6316,0.01659,0.01013,-0.1804
-0.9,0.6709,0.0156,0.00878,-0.1808
-0.8,0.6895,0.01532,0.00838,-0.1808
-0.7,0.7098,0.01497,0.00789,-0.1811
-0.6,0.7276,0.01464,0.0074,-0.1809
-0.5,0.7469,0.01443,0.00713,-0.1809
-0.4,0.7648,0.01442,0.00711,-0.1807
-0.3,0.7829,0.01421,0.00679,-0.1804
-0.2,0.8012,0.01404,0.00654,-0.1802
-0.1,0.8184,0.01398,0.00648,-0.1799
0,0.8371,0.01389,0.00635,-0.1798
0.1,0.8544,0.01382,0.00617,-0.1792
0.2,0.8716,0.01376,0.00614,-0.1789
0.3,0.8894,0.01371,0.00607,-0.1786
0.4,0.9065,0.01367,0.00599,-0.1782
0.5,0.9244,0.01361,0.00587,-0.1778
0.6,0.9413,0.01357,0.0058,-0.1772
0.7,0.9585,0.01359,0.00581,-0.1767
0.8,0.9755,0.01358,0.00572,-0.1761
0.9,0.9918,0.01359,0.00567,-0.1754
1,1.0081,0.01363,0.00567,-0.1747
1.1,1.0227,0.01372,0.00564,-0.1736
1.2,1.0374,0.01382,0.00565,-0.1726
1.3,1.0513,0.01396,0.00577,-0.1715
1.4,1.0643,0.01412,0.00584,-0.1702
1.5,1.0763,0.01433,0.00593,-0.1688
1.6,1.0869,0.01457,0.00608,-0.1672
1.7,1.0922,0.01498,0.0063,-0.1647
1.8,1.0991,0.01535,0.00655,-0.1626
1.9,1.1051,0.01577,0.00681,-0.1604
2,1.1113,0.01618,0.0071,-0.1583
2.1,1.1187,0.01658,0.00744,-0.1564
2.2,1.1275,0.01695,0.00773,-0.1548
2.3,1.1372,0.01728,0.00802,-0.1533
2.4,1.1476,0.01759,0.00831,-0.1519
2.5,1.1567,0.01797,0.00863,-0.1503
2.6,1.1685,0.01825,0.0089,-0.1491
2.7,1.1804,0.01852,0.00919,-0.1478
2.8,1.1924,0.0188,0.00949,-0.1466
2.9,1.205,0.01904,0.00978,-0.1454
3,1.2166,0.01933,0.01008,-0.1441
3.1,1.2288,0.01959,0.01038,-0.1428
3.2,1.2396,0.01988,0.0107,-0.1413
3.3,1.2508,0.02018,0.01102,-0.1399
3.4,1.2641,0.02042,0.01134,-0.1387
3.5,1.277,0.02068,0.01168,-0.1375
3.6,1.2903,0.02091,0.01208,-0.1365
3.7,1.2959,0.02015,0.01232,-0.1338
3.8,1.3096,0.02047,0.01267,-0.1326
3.9,1.3229,0.02082,0.01305,-0.1312
4,1.334,0.02121,0.01344,-0.1297
4.1,1.3481,0.02156,0.01383,-0.1284
4.2,1.3615,0.02194,0.01425,-0.1271
4.3,1.3742,0.02235,0.01471,-0.1257
4.4,1.3874,0.02276,0.01517,-0.1243
4.5,1.4018,0.02317,0.01565,-0.123
4.6,1.4153,0.02362,0.01616,-0.1215
4.7,1.4278,0.0241,0.0167,-0.12
4.8,1.4396,0.02457,0.01725,-0.1184
4.9,1.4527,0.0251,0.01787,-0.117
5,1.4644,0.02566,0.01852,-0.1153
5.1,1.4749,0.02627,0.01921,-0.1136
5.2,1.486,0.02693,0.01998,-0.112
5.3,1.4963,0.02766,0.02085,-0.1104
5.4,1.5048,0.02845,0.02178,-0.1086
5.5,1.5119,0.02929,0.02275,-0.1068
5.6,1.5176,0.03018,0.02376,-0.105
5.7,1.522,0.03113,0.02484,-0.1033
5.8,1.525,0.03222,0.02609,-0.1016
5.9,1.5265,0.03338,0.02741,-0.1
6,1.5268,0.03461,0.02877,-0.0985
6.1,1.5261,0.0359,0.0302,-0.0971
6.2,1.5246,0.03726,0.03168,-0.0959
6.3,1.5224,0.03868,0.03322,-0.0949
6.4,1.5178,0.04037,0.03503,-0.0942
6.5,1.512,0.04218,0.03699,-0.0939
6.6,1.5058,0.0441,0.03906,-0.0939
6.7,1.499,0.04611,0.0412,-0.0943
6.8,1.492,0.04823,0.04343,-0.0949
6.9,1.4849,0.05047,0.04578,-0.096
7,1.4777,0.05281,0.04821,-0.0974
7.3,1.459,0.06019,0.05579,-0.1033
7.4,1.45,0.06325,0.05893,-0.1064
7.5,1.4421,0.06634,0.06209,-0.1096
7.6,1.4352,0.06942,0.06522,-0.1129
7.8,1.4251,0.0753,0.07117,-0.1188
7.9,1.4221,0.07807,0.07397,-0.1214
8,1.4201,0.08065,0.07658,-0.1237
8.1,1.4192,0.08307,0.07902,-0.1257
8.2,1.4192,0.08532,0.08128,-0.1276
8.3,1.4172,0.08798,0.08392,-0.13
8.4,1.4134,0.09098,0.08694,-0.133
8.5,1.4112,0.09374,0.08972,-0.1356
8.6,1.4096,0.09651,0.09249,-0.1386
8.7,1.4103,0.09878,0.09477,-0.1405
8.8,1.4117,0.10093,0.09693,-0.1423
8.9,1.4136,0.10297,0.09898,-0.1439
9,1.4162,0.10492,0.10093,-0.1453
9.1,1.4172,0.10719,0.10319,-0.1473
9.2,1.4162,0.10998,0.10599,-0.15
9.3,1.4166,0.11252,0.10854,-0.1523
9.4,1.4177,0.11492,0.11095,-0.1544
9.5,1.4194,0.11722,0.11325,-0.1564
9.6,1.4216,0.11943,0.11547,-0.1582
9.7,1.4242,0.12156,0.11762,-0.1599
9.8,1.4271,0.12364,0.1197,-0.1615
10,1.436,0.12694,0.12301,-0.1638
10.1,1.4371,0.12958,0.12565,-0.1663
10.2,1.4387,0.13212,0.12819,-0.1685
10.3,1.4411,0.13448,0.13056,-0.1706
10.4,1.4439,0.13675,0.13284,-0.1724
10.5,1.447,0.13893,0.13503,-0.1742
10.6,1.4504,0.14106,0.13717,-0.1758
10.7,1.454,0.14314,0.13925,-0.1774
10.8,1.4578,0.14517,0.14129,-0.1789
10.9,1.4617,0.14716,0.14329,-0.1804
11,1.4659,0.14911,0.14525,-0.1818
11.1,1.4701,0.15101,0.14716,-0.1831
11.2,1.4744,0.15289,0.14905,-0.1844
11.3,1.4789,0.15473,0.15089,-0.1857
11.4,1.4834,0.15652,0.15272,-0.1869
11.5,1.4847,0.16008,0.15626,-0.1907
11.6,1.4886,0.16233,0.15852,-0.1925
11.7,1.4927,0.16452,0.16072,-0.1942
11.8,1.497,0.16667,0.16288,-0.1958
11.9,1.5014,0.16877,0.16499,-0.1974
12,1.5059,0.17084,0.16707,-0.1989
12.1,1.5105,0.17288,0.16912,-0.2004
12.2,1.5152,0.17489,0.17113,-0.2019
12.3,1.5199,0.17687,0.17312,-0.2033
12.4,1.5247,0.17882,0.17508,-0.2047
12.5,1.5297,0.18074,0.17702,-0.206
12.6,1.5346,0.18264,0.17893,-0.2074
12.7,1.5396,0.18451,0.1808,-0.2087
12.8,1.5439,0.18697,0.18325,-0.2106
12.9,1.5482,0.1897,0.18599,-0.2129
13,1.5519,0.19282,0.18912,-0.2159
13.1,1.5568,0.1951,0.19141,-0.2177
13.2,1.5618,0.19734,0.19366,-0.2193
13.3,1.5668,0.19955,0.19588,-0.221
13.4,1.5719,0.20174,0.19808,-0.2226
13.5,1.5771,0.20391,0.20026,-0.2242
13.6,1.5823,0.20605,0.20241,-0.2258
13.7,1.5876,0.20817,0.20454,-0.2273
13.8,1.5929,0.21027,0.20665,-0.2288
13.9,1.5983,0.21234,0.20872,-0.2303
14,1.6036,0.21438,0.21078,-0.2318
14.1,1.6088,0.21676,0.21314,-0.2336
14.2,1.6137,0.21978,0.21617,-0.236
14.3,1.6183,0.22315,0.21955,-0.2391
14.4,1.6236,0.22565,0.22205,-0.241
14.5,1.629,0.22811,0.22452,-0.2428
14.6,1.6345,0.23054,0.22698,-0.2446
14.7,1.64,0.23295,0.22939,-0.2463
14.8,1.6455,0.23533,0.23179,-0.2481
14.9,1.6511,0.2377,0.23416,-0.2498
15,1.6566,0.24004,0.23651,-0.2515
15.1,1.6622,0.24237,0.23884,-0.2532
15.2,1.6678,0.24468,0.24116,-0.2549
15.3,1.6734,0.24696,0.24344,-0.2565
15.4,1.679,0.24929,0.24576,-0.2582
15.5,1.684,0.25366,0.25013,-0.2619
15.6,1.6897,0.25642,0.2529,-0.2639
15.7,1.6954,0.25914,0.25563,-0.2659
15.8,1.7011,0.26184,0.25834,-0.2678
15.9,1.7068,0.26452,0.26102,-0.2697
16,1.7126,0.2672,0.2637,-0.2717
16.1,1.7184,0.26986,0.26637,-0.2736
16.2,1.7242,0.27251,0.26902,-0.2754
16.3,1.73,0.27515,0.27166,-0.2773
16.4,1.7359,0.27778,0.2743,-0.2792
16.5,1.7417,0.2804,0.27692,-0.2811
16.6,1.7476,0.28301,0.27954,-0.2829
16.7,1.7534,0.28562,0.28215,-0.2848
16.8,1.7591,0.28992,0.28644,-0.2881
16.9,1.765,0.29299,0.28952,-0.2902
17,1.7709,0.296,0.29253,-0.2923
17.1,1.7769,0.29902,0.29555,-0.2944
17.2,1.7829,0.30202,0.29856,-0.2965
17.3,1.7888,0.30501,0.30155,-0.2985
17.4,1.7948,0.308,0.30454,-0.3006
17.5,1.8008,0.31098,0.30753,-0.3026
17.6,1.8068,0.31397,0.31052,-0.3047
17.7,1.8128,0.31696,0.31353,-0.3067
17.8,1.8188,0.31994,0.31652,-0.3088
17.9,1.8248,0.32294,0.31952,-0.3108
18,1.8308,0.32594,0.32253,-0.3129
18.1,1.8368,0.32894,0.32553,-0.3149
18.2,1.8428,0.33195,0.32854,-0.317
18.3,1.8488,0.33496,0.33155,-0.3191
18.4,1.8548,0.33797,0.33457,-0.3211
18.5,1.8608,0.34146,0.33804,-0.3234
18.6,1.867,0.3453,0.34189,-0.3259
18.7,1.8731,0.34896,0.34555,-0.3283
18.8,1.8792,0.35336,0.34996,-0.3312
18.9,1.8853,0.35675,0.35335,-0.3335
19,1.8913,0.36017,0.35677,-0.3357
19.1,1.8974,0.36359,0.3602,-0.3379
19.2,1.9035,0.36702,0.36363,-0.3402
19.3,1.9096,0.37046,0.36708,-0.3424
19.4,1.9156,0.37391,0.37053,-0.3446
19.5,1.9217,0.37737,0.37399,-0.3469
19.6,1.9277,0.38086,0.37748,-0.3491
19.7,1.9338,0.38436,0.38098,-0.3514
19.8,1.9398,0.38786,0.38449,-0.3537
19.9,1.9459,0.39139,0.38803,-0.3559
20,1.9519,0.39494,0.39158,-0.3582
20.1,1.958,0.3985,0.39514,-0.3605
20.2,1.964,0.40207,0.39871,-0.3628
20.3,1.97,0.40566,0.40231,-0.3651
20.4,1.976,0.40927,0.40592,-0.3674
20.5,1.982,0.41289,0.40955,-0.3697
20.6,1.988,0.41653,0.41319,-0.372
20.7,1.9942,0.42113,0.41779,-0.3747
20.8,2.0002,0.42539,0.42206,-0.3773
20.9,2.0064,0.42967,0.42634,-0.3798
21,2.0124,0.4338,0.43048,-0.3823
21.1,2.0184,0.43794,0.43462,-0.3848
21.2,2.0245,0.4421,0.43878,-0.3873
21.7,2.0546,0.46321,0.45992,-0.3999
21.8,2.0612,0.46876,0.46548,-0.4027
22,2.0728,0.47702,0.47375,-0.4076
22.1,2.0783,0.48007,0.47679,-0.4099

