airfoilName st17.dat
Re 	550000
M 	7.000000e-01
N 	4.500000e+00
VACC 	0 VACCflag 1
XTR 	1.00 	1.00 XTRflag 0
alpha,cl,cd,cdp,cm
-30,-1.8395,0.87052,0.86805,0.4123
-29.9,-1.8342,0.86302,0.86055,0.409
-29.8,-1.8288,0.85561,0.85314,0.4058
-29.7,-1.8234,0.84832,0.84584,0.4025
-29.6,-1.818,0.84105,0.83857,0.3993
-29.5,-1.8126,0.83385,0.83137,0.3961
-29.4,-1.8071,0.82671,0.82423,0.3929
-29.3,-1.8016,0.81966,0.81717,0.3897
-29.2,-1.7961,0.81263,0.81014,0.3865
-29.1,-1.7906,0.80569,0.8032,0.3833
-29,-1.785,0.79875,0.79625,0.3801
-28.9,-1.7794,0.79192,0.78943,0.3769
-28.8,-1.7738,0.78519,0.7827,0.3737
-28.6,-1.7626,0.77181,0.76929,0.3674
-28.5,-1.7569,0.76522,0.7627,0.3643
-28.4,-1.7512,0.75849,0.75597,0.3611
-28.3,-1.7454,0.75197,0.74946,0.358
-28.2,-1.7397,0.74558,0.74306,0.3549
-28.1,-1.7339,0.73923,0.73671,0.3518
-28,-1.7282,0.7329,0.73038,0.3487
-27.9,-1.7223,0.72659,0.72407,0.3456
-27.8,-1.7165,0.72042,0.7179,0.3425
-27.7,-1.7107,0.71424,0.71172,0.3395
-27.6,-1.7048,0.70815,0.70562,0.3364
-27.5,-1.6989,0.70207,0.69953,0.3334
-27.4,-1.693,0.69606,0.69353,0.3304
-27.3,-1.6871,0.69013,0.6876,0.3273
-27.2,-1.6811,0.6842,0.68166,0.3243
-27.1,-1.6751,0.67839,0.67585,0.3213
-27,-1.6691,0.67257,0.67003,0.3183
-26.9,-1.6631,0.66682,0.66428,0.3154
-26.8,-1.6571,0.66114,0.6586,0.3124
-26.7,-1.6511,0.6555,0.65295,0.3094
-26.6,-1.645,0.64986,0.64732,0.3065
-26.5,-1.6389,0.64435,0.6418,0.3036
-26.4,-1.6329,0.63886,0.63631,0.3006
-26.3,-1.6268,0.63338,0.63083,0.2977
-26.2,-1.6206,0.62798,0.62543,0.2948
-26.1,-1.6145,0.62263,0.62008,0.2919
-26,-1.6083,0.61731,0.61475,0.289
-25.9,-1.6022,0.61204,0.60947,0.2861
-25.8,-1.596,0.60684,0.60428,0.2833
-25.7,-1.5898,0.60166,0.5991,0.2804
-25.6,-1.5835,0.59653,0.59396,0.2775
-25.5,-1.5773,0.59147,0.5889,0.2747
-25.4,-1.5711,0.58645,0.58388,0.2718
-25.3,-1.5649,0.58151,0.57894,0.269
-25.2,-1.5586,0.57662,0.57405,0.2661
-24.8,-1.5343,0.56118,0.55862,0.2533
-24.7,-1.528,0.55632,0.55375,0.2507
-24.6,-1.5216,0.55142,0.54885,0.248
-24.5,-1.5152,0.54664,0.54407,0.2454
-24.4,-1.5088,0.54189,0.53932,0.2427
-24.3,-1.5024,0.53715,0.53458,0.2401
-24.2,-1.496,0.53247,0.5299,0.2375
-24.1,-1.4895,0.52781,0.52523,0.2349
-24,-1.4831,0.52321,0.52064,0.2323
-23.9,-1.4767,0.51864,0.51607,0.2298
-23.8,-1.4702,0.51411,0.51153,0.2272
-23.7,-1.4638,0.50961,0.50704,0.2247
-23.6,-1.4573,0.50516,0.50259,0.2221
-23.5,-1.4508,0.50074,0.49816,0.2196
-23.4,-1.4444,0.49638,0.4938,0.2171
-23.3,-1.4379,0.49203,0.48945,0.2146
-23.2,-1.4314,0.48773,0.48514,0.2121
-23.1,-1.4249,0.48346,0.48087,0.2096
-23,-1.4184,0.47925,0.47666,0.2072
-22.9,-1.4119,0.47504,0.47245,0.2047
-22.8,-1.4054,0.47088,0.46829,0.2023
-22.7,-1.3989,0.46679,0.4642,0.1998
-22.6,-1.3924,0.46267,0.46008,0.1974
-22.5,-1.3858,0.45861,0.45602,0.195
-22.4,-1.3793,0.45458,0.45199,0.1926
-22.3,-1.3727,0.45059,0.44799,0.1903
-22.2,-1.3662,0.44664,0.44405,0.1879
-22.1,-1.3596,0.44269,0.44009,0.1855
-22,-1.3531,0.43877,0.43618,0.1832
-21.9,-1.3465,0.43492,0.43232,0.1808
-21.8,-1.3399,0.43109,0.4285,0.1785
-21.7,-1.3335,0.42756,0.42497,0.1762
-21.6,-1.3269,0.42379,0.42119,0.1739
-21.5,-1.3203,0.42003,0.41744,0.1716
-21.4,-1.3137,0.41632,0.41372,0.1693
-21.3,-1.3071,0.41263,0.41003,0.1671
-21.2,-1.3005,0.40897,0.40637,0.1648
-21.1,-1.2939,0.40533,0.40274,0.1626
-21,-1.2874,0.40174,0.39914,0.1603
-20.9,-1.2808,0.39816,0.39557,0.1581
-20.8,-1.2742,0.39462,0.39202,0.1559
-20.7,-1.2676,0.3911,0.38851,0.1537
-20.6,-1.261,0.38761,0.38501,0.1516
-20.5,-1.2544,0.38416,0.38156,0.1494
-20.4,-1.2478,0.38072,0.37812,0.1472
-20.3,-1.2412,0.37731,0.37471,0.1451
-20.2,-1.2347,0.37394,0.37134,0.143
-20.1,-1.2281,0.37059,0.36799,0.1408
-20,-1.2215,0.36727,0.36467,0.1387
-19.9,-1.2149,0.36397,0.36137,0.1366
-19.8,-1.2083,0.36071,0.35811,0.1346
-19.7,-1.2018,0.35747,0.35487,0.1325
-19.6,-1.1952,0.35424,0.35164,0.1304
-19.5,-1.1886,0.35105,0.34845,0.1284
-19.4,-1.1821,0.34787,0.34528,0.1263
-19.3,-1.1755,0.34474,0.34214,0.1243
-19.2,-1.169,0.34162,0.33902,0.1223
-19.1,-1.1624,0.33852,0.33592,0.1203
-19,-1.1559,0.33545,0.33285,0.1183
-18.9,-1.1493,0.33241,0.32981,0.1164
-18.8,-1.1428,0.32939,0.32679,0.1144
-18.7,-1.1363,0.32639,0.32379,0.1124
-18.6,-1.1298,0.32342,0.32082,0.1105
-18.5,-1.1233,0.32047,0.31788,0.1086
-18.4,-1.1167,0.31754,0.31495,0.1066
-18.3,-1.1102,0.31464,0.31205,0.1047
-18.2,-1.1038,0.31176,0.30917,0.1028
-18.1,-1.0973,0.30891,0.30632,0.1009
-18,-1.0908,0.30608,0.30349,0.099
-17.9,-1.0843,0.30327,0.30068,0.0972
-17.8,-1.0778,0.30049,0.2979,0.0953
-17.7,-1.0714,0.29773,0.29515,0.0934
-17.6,-1.0649,0.29499,0.2924,0.0916
-17.5,-1.0584,0.29227,0.28968,0.0897
-17.4,-1.0519,0.28959,0.28699,0.0879
-17.3,-1.0454,0.28691,0.28432,0.086
-17.2,-1.0389,0.28427,0.28168,0.0842
-17.1,-1.0324,0.28165,0.27906,0.0823
-17,-1.0259,0.27906,0.27648,0.0804
-16.9,-1.0193,0.27646,0.27388,0.0785
-16.6,-0.9987,0.26832,0.26575,0.0725
-16.5,-0.9923,0.26564,0.26307,0.0709
-16.4,-0.986,0.26299,0.26042,0.0693
-16.3,-0.9796,0.26036,0.2578,0.0677
-16.2,-0.9733,0.25776,0.25519,0.0661
-16.1,-0.9669,0.25518,0.25262,0.0645
-16,-0.9606,0.25262,0.25006,0.0629
-15.9,-0.9543,0.25009,0.24753,0.0613
-15.8,-0.948,0.24758,0.24502,0.0598
-15.7,-0.9417,0.2451,0.24254,0.0582
-15.6,-0.9353,0.24263,0.24008,0.0567
-15.5,-0.9292,0.24053,0.23798,0.055
-15.4,-0.9229,0.23809,0.23554,0.0535
-15.3,-0.9166,0.23567,0.23312,0.052
-15.2,-0.9103,0.23327,0.23072,0.0505
-15.1,-0.904,0.23088,0.22834,0.049
-15,-0.8977,0.22852,0.22597,0.0476
-14.9,-0.8914,0.22617,0.22362,0.0461
-14.8,-0.8851,0.22383,0.22129,0.0446
-14.7,-0.8788,0.22151,0.21897,0.0432
-14.6,-0.8726,0.21921,0.21666,0.0418
-14.5,-0.8663,0.21691,0.21437,0.0403
-14.4,-0.86,0.21464,0.2121,0.0389
-14.3,-0.8537,0.21239,0.20985,0.0375
-14.2,-0.8475,0.21014,0.20761,0.0361
-14.1,-0.8412,0.20792,0.20539,0.0347
-14,-0.8349,0.20572,0.20318,0.0334
-13.9,-0.8287,0.20353,0.201,0.032
-13.8,-0.8225,0.20135,0.19883,0.0306
-13.7,-0.8163,0.1992,0.19667,0.0293
-13.6,-0.8101,0.19706,0.19453,0.028
-13.5,-0.8039,0.19494,0.19242,0.0267
-13.4,-0.7977,0.19284,0.19032,0.0254
-13.3,-0.7915,0.19074,0.18823,0.0241
-13.2,-0.7853,0.18868,0.18616,0.0228
-13.1,-0.7792,0.18662,0.18411,0.0215
-13,-0.7731,0.18458,0.18208,0.0203
-12.9,-0.7669,0.18257,0.18007,0.019
-12.8,-0.7608,0.18057,0.17807,0.0178
-12.7,-0.7547,0.17859,0.17609,0.0166
-12.6,-0.7486,0.17661,0.17411,0.0153
-12.5,-0.7425,0.17465,0.17216,0.0141
-12.4,-0.7365,0.17271,0.17022,0.0129
-12.3,-0.7304,0.17078,0.1683,0.0118
-12.2,-0.7243,0.16887,0.16639,0.0106
-12.1,-0.7183,0.16698,0.1645,0.0094
-12,-0.7123,0.1651,0.16263,0.0083
-11.9,-0.7063,0.16323,0.16077,0.0071
-11.8,-0.7003,0.16139,0.15893,0.006
-11.7,-0.6944,0.15956,0.1571,0.0049
-11.6,-0.6886,0.15775,0.15529,0.0039
-11.5,-0.6827,0.15596,0.1535,0.0028
-11.4,-0.6769,0.15417,0.15172,0.0018
-11.3,-0.6712,0.15242,0.14997,0.0008
-11.2,-0.6655,0.15067,0.14823,-0.0002
-11.1,-0.6599,0.14894,0.1465,-0.0012
-11,-0.6544,0.14722,0.14479,-0.0021
-10.9,-0.649,0.1455,0.14308,-0.003
-10.8,-0.6436,0.14382,0.1414,-0.0038
-10.7,-0.6384,0.14213,0.13972,-0.0046
-10.6,-0.6319,0.14005,0.13767,-0.0059
-10.5,-0.6275,0.13854,0.13616,-0.0065
-10.4,-0.6233,0.13707,0.1347,-0.0069
-10.3,-0.6194,0.13565,0.13329,-0.0073
-10.2,-0.6158,0.13427,0.13192,-0.0075
-10.1,-0.6125,0.13294,0.1306,-0.0077
-10,-0.6096,0.13166,0.12934,-0.0078
-9.9,-0.6037,0.13009,0.12777,-0.0088
-9.8,-0.595,0.12821,0.1259,-0.0106
-9.7,-0.5854,0.12628,0.12396,-0.0126
-9.6,-0.5764,0.12444,0.12212,-0.0145
-9.5,-0.5672,0.1226,0.12028,-0.0164
-9.4,-0.5578,0.12077,0.11845,-0.0183
-9.3,-0.5489,0.11901,0.11669,-0.0201
-9.2,-0.54,0.11726,0.11494,-0.0219
-9.1,-0.5301,0.11545,0.11313,-0.0239
-9,-0.5207,0.11371,0.11139,-0.0258
-8.9,-0.5111,0.11197,0.10964,-0.0278
-8.8,-0.5012,0.11023,0.1079,-0.0298
-8.7,-0.4917,0.10856,0.10623,-0.0316
-8.6,-0.483,0.10697,0.10464,-0.0332
-8.5,-0.4739,0.10536,0.10304,-0.0349
-8.4,-0.4638,0.10369,0.10137,-0.0369
-8.3,-0.454,0.10207,0.09974,-0.0388
-8.2,-0.4437,0.10044,0.09811,-0.0408
-8.1,-0.4342,0.09888,0.09656,-0.0425
-8,-0.4257,0.09743,0.0951,-0.0439
-7.9,-0.4165,0.09593,0.09361,-0.0456
-7.8,-0.4068,0.09442,0.0921,-0.0473
-7.7,-0.3967,0.0929,0.09058,-0.0492
-7.6,-0.3861,0.09136,0.08904,-0.0511
-7.5,-0.3774,0.08997,0.08765,-0.0526
-7.4,-0.3686,0.0886,0.08628,-0.054
-7.3,-0.3592,0.0872,0.08488,-0.0556
-7.2,-0.3493,0.08577,0.08345,-0.0573
-7.1,-0.339,0.08434,0.08202,-0.0591
-7,-0.3307,0.08307,0.08075,-0.0602
-6.9,-0.3222,0.08179,0.07947,-0.0615
-6.8,-0.313,0.08048,0.07816,-0.063
-6.7,-0.3032,0.07913,0.0768,-0.0645
-6.6,-0.2944,0.07788,0.07555,-0.0658
-6.5,-0.2863,0.07668,0.07435,-0.0669
-6.4,-0.2775,0.07545,0.07311,-0.0682
-6.3,-0.2683,0.0742,0.07185,-0.0696
-6.2,-0.2594,0.07299,0.07064,-0.0709
-6.1,-0.2515,0.07185,0.0695,-0.0719
-6,-0.2429,0.07069,0.06833,-0.0731
-5.9,-0.233,0.06947,0.0671,-0.0747
-5.8,-0.222,0.0682,0.06582,-0.0765
-5.7,-0.2113,0.06695,0.06457,-0.0783
-5.6,-0.2,0.06567,0.06328,-0.0802
-5.5,-0.188,0.06432,0.0619,-0.0822
-5.4,-0.1761,0.06302,0.0606,-0.0842
-5.3,-0.1639,0.06167,0.05924,-0.0863
-5.2,-0.1506,0.06022,0.05777,-0.0887
-5.1,-0.1356,0.05886,0.05641,-0.0915
-4.8,-0.0938,0.05527,0.05278,-0.0983
-4.7,-0.0787,0.05405,0.05154,-0.1007
-4.6,-0.0635,0.05285,0.05032,-0.1031
-4.5,-0.0477,0.05164,0.0491,-0.1057
-4.4,-0.0312,0.05042,0.04785,-0.1083
-4.3,-0.0142,0.04918,0.04658,-0.1109
-4.2,0.0031,0.04794,0.04533,-0.1136
-4.1,0.0208,0.0467,0.04407,-0.1164
-4,0.0391,0.04545,0.04278,-0.1191
-3.9,0.0582,0.04417,0.04147,-0.1221
-3.8,0.0776,0.04289,0.04016,-0.125
-3.7,0.0976,0.04158,0.03883,-0.128
-3.6,0.1183,0.04025,0.03746,-0.1311
-3.5,0.1398,0.03887,0.03605,-0.1344
-3.4,0.1621,0.03743,0.03455,-0.1377
-3.3,0.1849,0.03593,0.03302,-0.1412
-2.8,0.3042,0.02915,0.02596,-0.1575
-2.7,0.3286,0.0279,0.02465,-0.1604
-2.6,0.3536,0.02656,0.02323,-0.1635
-2.5,0.3792,0.0251,0.02166,-0.1666
-2.4,0.4093,0.02279,0.01922,-0.1714
-2.3,0.4329,0.02171,0.01805,-0.1736
-2.2,0.457,0.02048,0.01671,-0.1759
-2,0.5075,0.01711,0.01297,-0.1816
-1.9,0.5354,0.01378,0.00917,-0.1865
-1.7,0.5764,0.01203,0.00702,-0.1884
-1.6,0.5957,0.01121,0.00587,-0.1889
-1.5,0.6152,0.01064,0.00509,-0.1892
-1.4,0.6338,0.01041,0.00476,-0.1891
-1.3,0.6522,0.01023,0.00447,-0.1889
-1.2,0.67,0.0101,0.00425,-0.1885
-1.1,0.6879,0.00994,0.00395,-0.1882
-1,0.7057,0.00982,0.00377,-0.1879
-0.9,0.7234,0.00975,0.00364,-0.1876
-0.8,0.7405,0.0097,0.00351,-0.1872
-0.7,0.7579,0.00965,0.0034,-0.1868
-0.6,0.7749,0.00964,0.00332,-0.1864
-0.5,0.7921,0.00961,0.00326,-0.1861
-0.4,0.809,0.0096,0.0032,-0.1856
-0.3,0.8248,0.00964,0.00316,-0.185
-0.2,0.8406,0.00968,0.00313,-0.1843
-0.1,0.8561,0.00974,0.0031,-0.1837
0,0.8721,0.0098,0.00314,-0.1831
0.1,0.8879,0.00986,0.00314,-0.1825
0.2,0.9018,0.00999,0.00318,-0.1816
0.3,0.9164,0.01011,0.00322,-0.1808
0.4,0.9313,0.01021,0.00327,-0.1801
0.5,0.9459,0.01033,0.00334,-0.1793
0.6,0.9582,0.01054,0.00346,-0.1781
0.7,0.9717,0.01071,0.00355,-0.1771
0.8,0.9805,0.01105,0.00374,-0.1754
0.9,0.9903,0.01136,0.00392,-0.1739
1,0.9983,0.01175,0.00416,-0.1721
1.2,1.0141,0.0126,0.00469,-0.1687
1.3,1.0247,0.01294,0.00493,-0.1674
1.4,1.0372,0.01318,0.00514,-0.1664
1.5,1.0505,0.01339,0.0053,-0.1655
1.6,1.0635,0.01362,0.00549,-0.1645
1.7,1.0775,0.01379,0.00565,-0.1636
1.8,1.0919,0.01394,0.0058,-0.1628
1.9,1.1057,0.01412,0.00598,-0.1619
2,1.1203,0.01426,0.00612,-0.1611
2.1,1.1346,0.01442,0.00627,-0.1602
2.2,1.1485,0.01459,0.00647,-0.1592
2.3,1.1626,0.01476,0.00663,-0.1582
2.4,1.1767,0.01492,0.0068,-0.1573
2.5,1.1905,0.0151,0.00699,-0.1562
2.6,1.2049,0.01524,0.00717,-0.1552
2.7,1.219,0.0154,0.00735,-0.1542
2.8,1.2327,0.01558,0.00753,-0.1531
2.9,1.2461,0.01575,0.00774,-0.1518
3,1.2589,0.01592,0.00793,-0.1505
3.1,1.2714,0.0161,0.00813,-0.1491
3.2,1.2835,0.01629,0.00834,-0.1476
3.3,1.2963,0.01647,0.00856,-0.1462
3.4,1.3094,0.01665,0.00878,-0.1448
3.5,1.3229,0.01685,0.00901,-0.1435
3.6,1.3364,0.01707,0.00926,-0.1422
3.7,1.3501,0.01729,0.00953,-0.1409
3.8,1.3643,0.0175,0.00979,-0.1396
3.9,1.3783,0.01773,0.01006,-0.1383
4,1.3921,0.01797,0.01035,-0.137
4.1,1.4062,0.01821,0.01066,-0.1356
4.2,1.4207,0.01845,0.01097,-0.1343
4.3,1.4353,0.01869,0.0113,-0.133
4.5,1.463,0.01811,0.01213,-0.1304
4.6,1.4773,0.0184,0.01248,-0.1288
4.7,1.4914,0.01872,0.01285,-0.1272
4.8,1.5053,0.01906,0.01324,-0.1256
4.9,1.5188,0.01942,0.01365,-0.1239
5,1.5331,0.0198,0.0141,-0.1222
5.1,1.5474,0.02021,0.01459,-0.1205
5.2,1.5613,0.02065,0.01512,-0.1187
5.3,1.5748,0.02113,0.01569,-0.1168
5.4,1.5879,0.02165,0.0163,-0.1149
5.5,1.6008,0.02227,0.01703,-0.113
5.6,1.613,0.02295,0.01785,-0.111
5.7,1.6232,0.02373,0.0188,-0.1089
5.8,1.6314,0.02461,0.01982,-0.1068
5.9,1.6372,0.02557,0.02094,-0.1047
6,1.641,0.02662,0.02214,-0.1025
6.1,1.6423,0.02782,0.02348,-0.1005
6.2,1.6411,0.02913,0.02496,-0.0985
6.3,1.6383,0.03053,0.02651,-0.0967
6.4,1.6344,0.032,0.02813,-0.0951
6.5,1.6295,0.03357,0.02983,-0.0938
6.6,1.6238,0.03522,0.03161,-0.0926
6.7,1.6174,0.03696,0.03348,-0.0918
6.9,1.6035,0.04074,0.03749,-0.0912
7,1.5961,0.04278,0.03963,-0.0914
7.1,1.5886,0.04493,0.04189,-0.092
7.2,1.5811,0.04719,0.04424,-0.093
7.3,1.5721,0.0497,0.04683,-0.0946
7.4,1.5625,0.05238,0.04959,-0.0965
7.9,1.52,0.06732,0.06486,-0.1109
8.1,1.5074,0.07357,0.07118,-0.1171
8.2,1.5025,0.07656,0.0742,-0.1199
8.3,1.4984,0.07939,0.07705,-0.1226
8.5,1.4885,0.08526,0.08293,-0.1282
8.6,1.4832,0.08826,0.08594,-0.1312
8.7,1.4781,0.0913,0.08898,-0.1342
8.8,1.4752,0.09403,0.09173,-0.1368
8.9,1.4732,0.09668,0.09438,-0.1393
9,1.4718,0.09926,0.09696,-0.1417
9.1,1.4711,0.10175,0.09946,-0.144
9.2,1.471,0.10416,0.10187,-0.1461
9.3,1.4715,0.10649,0.10421,-0.1482
9.4,1.4726,0.10874,0.10646,-0.1501
9.5,1.4734,0.11106,0.10876,-0.1522
9.6,1.4715,0.11386,0.11157,-0.1548
9.7,1.4708,0.1165,0.11421,-0.1572
9.8,1.4709,0.11905,0.11677,-0.1595
9.9,1.4714,0.12154,0.11926,-0.1617
10,1.4725,0.12396,0.12169,-0.1638
10.2,1.4763,0.12859,0.12633,-0.1677
10.3,1.4788,0.1308,0.12854,-0.1695
10.4,1.4815,0.13296,0.13071,-0.1713
10.5,1.4845,0.13507,0.13282,-0.173
10.6,1.4878,0.13713,0.13488,-0.1746
10.7,1.4912,0.13914,0.1369,-0.1762
10.8,1.4923,0.14175,0.1395,-0.1784
10.9,1.4938,0.14433,0.1421,-0.1806
11,1.4959,0.14679,0.14456,-0.1826
11.1,1.4985,0.14917,0.14695,-0.1846
11.2,1.5013,0.1515,0.14929,-0.1864
11.4,1.5077,0.15605,0.15385,-0.19
11.5,1.5112,0.15827,0.15607,-0.1918
11.6,1.5149,0.16047,0.15828,-0.1935
11.8,1.5233,0.1646,0.16241,-0.1967
11.9,1.5276,0.16664,0.16446,-0.1982
12,1.5319,0.16864,0.16647,-0.1998
12.1,1.5364,0.1706,0.16844,-0.2013
12.2,1.5398,0.17306,0.17089,-0.2032
12.3,1.5428,0.17576,0.17359,-0.2054
12.4,1.5464,0.17825,0.17609,-0.2073
12.5,1.5502,0.18069,0.17853,-0.2092
12.6,1.5542,0.18306,0.18091,-0.2111
12.7,1.5584,0.18539,0.18325,-0.2129
12.8,1.5627,0.18768,0.18555,-0.2146
12.9,1.5671,0.18996,0.18783,-0.2163
13,1.5716,0.19221,0.19009,-0.218
13.1,1.5762,0.19445,0.19233,-0.2197
13.2,1.5812,0.19649,0.19437,-0.2214
13.3,1.5861,0.19859,0.19648,-0.223
13.4,1.591,0.20064,0.19854,-0.2246
13.5,1.596,0.20264,0.20054,-0.2261
13.6,1.5999,0.20565,0.20355,-0.2284
13.7,1.6042,0.20846,0.20637,-0.2306
13.8,1.6088,0.2111,0.20901,-0.2326
13.9,1.6135,0.21369,0.21161,-0.2345
14,1.6183,0.21621,0.21414,-0.2364
14.1,1.6233,0.21872,0.21665,-0.2383
14.2,1.6283,0.22119,0.21912,-0.2401
14.3,1.6335,0.22354,0.22149,-0.242
14.4,1.6387,0.22587,0.22382,-0.2438
14.5,1.644,0.22816,0.22611,-0.2455
14.6,1.6493,0.2304,0.22836,-0.2472
14.7,1.6543,0.23316,0.23112,-0.2493
14.8,1.6592,0.23625,0.23421,-0.2515
14.9,1.6643,0.23912,0.23709,-0.2536
15,1.6694,0.24233,0.2403,-0.256
15.1,1.6747,0.24498,0.24295,-0.2579
15.2,1.6802,0.24761,0.24558,-0.2598
15.3,1.6856,0.2502,0.24818,-0.2617
15.4,1.6911,0.25278,0.25076,-0.2636
15.5,1.6967,0.25534,0.25332,-0.2655
15.6,1.7022,0.25787,0.25585,-0.2673
15.7,1.7077,0.26038,0.25836,-0.2692
15.8,1.7132,0.26347,0.26145,-0.2713
15.9,1.7186,0.2666,0.26458,-0.2735
16,1.7241,0.2697,0.26768,-0.2756
16.1,1.7297,0.27269,0.27068,-0.2777
16.2,1.7354,0.27565,0.27364,-0.2797
16.3,1.741,0.2786,0.27659,-0.2817
16.5,1.7524,0.28457,0.28256,-0.286
16.6,1.7581,0.28742,0.28542,-0.288
16.7,1.7639,0.29025,0.28826,-0.2899
16.8,1.7696,0.29309,0.29109,-0.2919
16.9,1.7754,0.29592,0.29392,-0.2939
17,1.7811,0.29875,0.29676,-0.2959
17.1,1.7869,0.30216,0.30016,-0.2981
17.2,1.7928,0.30559,0.30359,-0.3003
17.3,1.7986,0.30887,0.30688,-0.3025
17.4,1.8045,0.31214,0.31015,-0.3047
17.5,1.8104,0.3154,0.3134,-0.3068
17.6,1.8163,0.31863,0.31665,-0.3089
17.7,1.8222,0.32186,0.31988,-0.3111
17.8,1.8281,0.32509,0.32311,-0.3132
17.9,1.834,0.32833,0.32636,-0.3153
18,1.8399,0.33158,0.32961,-0.3175
18.1,1.8459,0.33484,0.33287,-0.3196
18.2,1.8518,0.33811,0.33614,-0.3218
18.3,1.8577,0.34138,0.33942,-0.3239
18.4,1.8637,0.34467,0.34271,-0.3261
18.5,1.8696,0.34798,0.34602,-0.3282
18.6,1.8755,0.3513,0.34934,-0.3304
18.7,1.8815,0.35462,0.35266,-0.3326
18.8,1.8874,0.35796,0.35601,-0.3347
18.9,1.8933,0.36132,0.35937,-0.3369
19,1.8992,0.36471,0.36276,-0.3391
19.1,1.9052,0.3681,0.36615,-0.3413
19.2,1.9111,0.3715,0.36955,-0.3435
19.3,1.917,0.37493,0.37298,-0.3457
19.4,1.9234,0.3801,0.37814,-0.3486
19.5,1.9294,0.38382,0.38187,-0.3509
19.6,1.9354,0.38758,0.38563,-0.3533
19.7,1.9414,0.39132,0.38938,-0.3556
19.8,1.9474,0.39508,0.39314,-0.3579
19.9,1.9534,0.39886,0.39692,-0.3602
20,1.9594,0.40264,0.4007,-0.3625
20.1,1.9653,0.40646,0.40452,-0.3649
20.2,1.9713,0.41029,0.40836,-0.3672
20.3,1.9773,0.41412,0.41219,-0.3696
20.4,1.9832,0.418,0.41607,-0.3719
20.5,1.9892,0.42192,0.41999,-0.3743
20.6,1.9951,0.42581,0.42389,-0.3766
20.7,2.001,0.42977,0.42786,-0.379
20.8,2.0069,0.43372,0.4318,-0.3814
20.9,2.0129,0.43774,0.43583,-0.3838
21,2.0188,0.44175,0.43984,-0.3862
21.1,2.0247,0.44579,0.44388,-0.3886
21.2,2.0306,0.44988,0.44798,-0.3911
21.3,2.0364,0.45398,0.45208,-0.3935
21.4,2.0423,0.45811,0.45621,-0.3959
21.5,2.0482,0.46228,0.46039,-0.3984
21.6,2.0541,0.46649,0.4646,-0.4008
21.7,2.0599,0.47069,0.4688,-0.4033
21.8,2.0657,0.47495,0.47306,-0.4058
21.9,2.0716,0.47922,0.47733,-0.4083
22,2.0774,0.48354,0.48166,-0.4108
22.1,2.0831,0.48776,0.48588,-0.4133
22.2,2.0888,0.49194,0.49006,-0.4157
22.3,2.0946,0.49626,0.49438,-0.4183
22.4,2.1009,0.5021,0.50023,-0.421
22.5,2.1064,0.51003,0.50816,-0.4236
22.6,2.1122,0.51398,0.51212,-0.4261

