airfoilName st18.dat
Re 	570000
M 	7.000000e-01
N 	4.500000e+00
VACC 	0 VACCflag 1
XTR 	1.00 	1.00 XTRflag 0
alpha,cl,cd,cdp,cm
-30,-1.8199,0.86772,0.86533,0.4071
-29.9,-1.8146,0.86039,0.85799,0.4039
-29.7,-1.8037,0.84579,0.84339,0.3974
-29.6,-1.7983,0.8386,0.8362,0.3942
-29.5,-1.7929,0.83153,0.82913,0.391
-29.4,-1.7874,0.82441,0.82201,0.3878
-29.3,-1.7819,0.81747,0.81506,0.3846
-29.2,-1.7763,0.81052,0.8081,0.3814
-29.1,-1.7708,0.80367,0.80124,0.3783
-29,-1.7652,0.79684,0.79442,0.3751
-28.9,-1.7597,0.79013,0.7877,0.372
-28.8,-1.7541,0.78349,0.78106,0.3688
-28.7,-1.7484,0.7768,0.77437,0.3657
-28.6,-1.7427,0.7702,0.76777,0.3626
-28.5,-1.7371,0.76372,0.76128,0.3595
-28.4,-1.7314,0.75726,0.75482,0.3564
-28.3,-1.7257,0.75087,0.74843,0.3533
-28.2,-1.7199,0.74453,0.74209,0.3502
-28.1,-1.7142,0.73828,0.73584,0.3471
-28,-1.7084,0.73202,0.72957,0.3441
-27.9,-1.7026,0.72584,0.72339,0.341
-27.8,-1.6968,0.71973,0.71728,0.338
-27.7,-1.691,0.71367,0.71122,0.335
-27.6,-1.6851,0.70766,0.70521,0.332
-27.5,-1.6792,0.70169,0.69923,0.329
-27.4,-1.6733,0.69578,0.69332,0.3259
-27.3,-1.6675,0.68992,0.68746,0.323
-27.2,-1.6616,0.68412,0.68166,0.32
-27.1,-1.6556,0.67837,0.67591,0.317
-27,-1.6497,0.67263,0.67017,0.3141
-26.9,-1.6437,0.66719,0.66473,0.3111
-26.8,-1.6377,0.66154,0.65907,0.3082
-26.7,-1.6317,0.65599,0.65352,0.3053
-26.6,-1.6257,0.65044,0.64797,0.3024
-26.5,-1.6197,0.64498,0.6425,0.2995
-26.4,-1.6136,0.63957,0.63709,0.2966
-26.3,-1.6075,0.63413,0.63165,0.2937
-26.2,-1.6015,0.62882,0.62634,0.2908
-26.1,-1.5954,0.62353,0.62104,0.288
-26,-1.5893,0.61827,0.61578,0.2851
-25.9,-1.5832,0.61308,0.61059,0.2823
-25.8,-1.577,0.60786,0.60537,0.2795
-25.7,-1.5708,0.60275,0.60026,0.2767
-25.6,-1.5647,0.59769,0.5952,0.2739
-25.5,-1.5585,0.59264,0.59015,0.2711
-25.4,-1.5523,0.58766,0.58517,0.2683
-25.3,-1.5461,0.5827,0.58021,0.2656
-25.2,-1.5399,0.57778,0.57528,0.2628
-25.1,-1.5337,0.57292,0.57042,0.2601
-25,-1.5274,0.56807,0.56557,0.2573
-24.9,-1.5212,0.56328,0.56078,0.2546
-24.8,-1.5149,0.55852,0.55602,0.2519
-24.7,-1.5087,0.55382,0.55132,0.2492
-24.6,-1.5024,0.54912,0.54662,0.2465
-24.5,-1.4961,0.54449,0.54199,0.2439
-24.4,-1.4898,0.53989,0.53739,0.2412
-24.3,-1.4835,0.53534,0.53284,0.2386
-24.2,-1.4772,0.5308,0.5283,0.2359
-24.1,-1.4708,0.52632,0.52381,0.2333
-24,-1.4645,0.52187,0.51936,0.2307
-23.9,-1.4581,0.51744,0.51492,0.2281
-23.8,-1.4518,0.51305,0.51054,0.2255
-23.7,-1.4454,0.50871,0.50619,0.223
-23.6,-1.4391,0.50442,0.5019,0.2204
-23.5,-1.4327,0.50013,0.49761,0.2178
-23.4,-1.4263,0.49589,0.49337,0.2153
-23.3,-1.4199,0.4917,0.48918,0.2128
-23.2,-1.4135,0.48751,0.48499,0.2103
-23.1,-1.4071,0.48337,0.48085,0.2078
-23,-1.4007,0.47927,0.47675,0.2053
-22.9,-1.3943,0.47519,0.47267,0.2028
-22.8,-1.3878,0.47116,0.46863,0.2003
-22.7,-1.3814,0.46714,0.46461,0.1979
-22.6,-1.3749,0.46316,0.46063,0.1954
-22.5,-1.3685,0.45922,0.45669,0.193
-22.4,-1.362,0.45529,0.45276,0.1906
-22.3,-1.3556,0.45142,0.44889,0.1881
-22.2,-1.3491,0.44757,0.44504,0.1857
-22.1,-1.3426,0.44374,0.44121,0.1833
-22,-1.3361,0.43994,0.43741,0.1809
-21.9,-1.3296,0.43617,0.43364,0.1786
-21.8,-1.3231,0.43244,0.42991,0.1762
-21.7,-1.3166,0.42874,0.42621,0.1738
-21.6,-1.3101,0.42508,0.42255,0.1715
-21.5,-1.3035,0.42146,0.41893,0.1691
-21.4,-1.297,0.41788,0.41535,0.1668
-21.3,-1.2905,0.41435,0.41182,0.1644
-21.2,-1.2839,0.41085,0.40832,0.1621
-21.1,-1.2774,0.40744,0.40491,0.1597
-21,-1.2709,0.40406,0.40152,0.1574
-20.9,-1.2643,0.4009,0.39836,0.1549
-20.8,-1.2578,0.39807,0.39553,0.1524
-20.7,-1.251,0.39621,0.39368,0.1493
-20.6,-1.2444,0.39257,0.39005,0.1471
-20.5,-1.2379,0.38896,0.38643,0.145
-20.4,-1.2314,0.3854,0.38287,0.1429
-20.3,-1.2249,0.38186,0.37933,0.1408
-20.2,-1.2183,0.37836,0.37583,0.1387
-20.1,-1.2118,0.37488,0.37236,0.1366
-20,-1.2053,0.37144,0.36891,0.1345
-19.9,-1.1988,0.36803,0.36551,0.1324
-19.7,-1.186,0.36174,0.35922,0.1283
-19.6,-1.1795,0.35842,0.35589,0.1263
-19.5,-1.173,0.35511,0.35258,0.1243
-19.4,-1.1665,0.35183,0.3493,0.1223
-19.3,-1.16,0.34857,0.34605,0.1203
-19.2,-1.1535,0.34533,0.34281,0.1183
-19.1,-1.147,0.34214,0.33962,0.1164
-19,-1.1405,0.33897,0.33645,0.1144
-18.9,-1.134,0.33581,0.33329,0.1125
-18.8,-1.1275,0.33268,0.33016,0.1106
-18.7,-1.1211,0.32959,0.32707,0.1087
-18.6,-1.1146,0.32651,0.32399,0.1068
-18.5,-1.1082,0.32346,0.32094,0.1049
-18.4,-1.1017,0.32043,0.31791,0.103
-18.3,-1.0953,0.31743,0.31491,0.1011
-18.2,-1.0888,0.31445,0.31193,0.0993
-18.1,-1.0824,0.31149,0.30897,0.0975
-18,-1.076,0.30856,0.30603,0.0957
-17.9,-1.0696,0.30565,0.30312,0.0938
-17.8,-1.0632,0.30276,0.30024,0.0921
-17.7,-1.0568,0.29989,0.29737,0.0903
-17.6,-1.0504,0.29704,0.29452,0.0885
-17.5,-1.0439,0.29422,0.2917,0.0867
-17.4,-1.0375,0.29142,0.28889,0.085
-17.3,-1.0311,0.28863,0.28611,0.0832
-17.2,-1.0247,0.28587,0.28335,0.0815
-17.1,-1.0183,0.28312,0.2806,0.0798
-17,-1.012,0.2804,0.27788,0.0781
-16.9,-1.0056,0.27769,0.27518,0.0764
-16.8,-0.9992,0.27502,0.2725,0.0747
-16.7,-0.9929,0.27235,0.26983,0.073
-16.6,-0.9865,0.26971,0.26719,0.0713
-16.5,-0.9802,0.26709,0.26458,0.0697
-16.4,-0.9738,0.26448,0.26197,0.068
-16.3,-0.9675,0.2619,0.25939,0.0664
-16.2,-0.9612,0.25934,0.25683,0.0648
-16.1,-0.9548,0.25679,0.25429,0.0632
-16,-0.9485,0.25427,0.25176,0.0616
-15.9,-0.9422,0.25177,0.24926,0.06
-15.8,-0.9359,0.24928,0.24678,0.0584
-15.7,-0.9297,0.24681,0.24431,0.0568
-15.6,-0.9234,0.24436,0.24186,0.0553
-15.5,-0.9171,0.24193,0.23943,0.0537
-15.4,-0.9108,0.23952,0.23702,0.0522
-15.3,-0.9046,0.23712,0.23463,0.0506
-15.2,-0.8983,0.23474,0.23225,0.0491
-15.1,-0.8921,0.23239,0.22989,0.0476
-15,-0.8858,0.23005,0.22755,0.046
-14.9,-0.8795,0.22772,0.22523,0.0445
-14.8,-0.8733,0.22541,0.22292,0.043
-14.7,-0.867,0.22312,0.22063,0.0415
-14.6,-0.8607,0.22084,0.21835,0.04
-14.5,-0.8544,0.21858,0.21609,0.0385
-14.4,-0.8481,0.21632,0.21383,0.037
-14.3,-0.8418,0.21408,0.21159,0.0354
-14.2,-0.8355,0.21184,0.20935,0.0339
-14.1,-0.8291,0.2096,0.20711,0.0324
-14,-0.8227,0.20735,0.20487,0.0309
-13.9,-0.8164,0.20508,0.20261,0.0295
-13.6,-0.7959,0.19799,0.19553,0.0247
-13.5,-0.79,0.19581,0.19336,0.0235
-13.4,-0.7844,0.19386,0.19141,0.0222
-13.3,-0.7785,0.19174,0.18929,0.021
-13.2,-0.7726,0.18964,0.1872,0.0198
-13.1,-0.7667,0.18757,0.18513,0.0186
-13,-0.7608,0.18551,0.18307,0.0174
-12.9,-0.7549,0.18348,0.18104,0.0162
-12.8,-0.7491,0.18147,0.17903,0.015
-12.7,-0.7432,0.17948,0.17705,0.0139
-12.6,-0.7374,0.1775,0.17507,0.0127
-12.5,-0.7315,0.17554,0.17312,0.0116
-12.4,-0.7257,0.17359,0.17117,0.0104
-12.3,-0.7199,0.17167,0.16925,0.0093
-12.2,-0.7141,0.16976,0.16735,0.0082
-12.1,-0.7083,0.16787,0.16546,0.0072
-12,-0.7026,0.16601,0.1636,0.0061
-11.9,-0.6969,0.16416,0.16175,0.0051
-11.8,-0.6912,0.16234,0.15993,0.004
-11.7,-0.6856,0.16053,0.15813,0.003
-11.6,-0.68,0.15875,0.15635,0.0021
-11.5,-0.6745,0.15699,0.1546,0.0011
-11.4,-0.6691,0.15525,0.15286,0.0002
-11.3,-0.6637,0.15353,0.15115,-0.0007
-11.2,-0.6584,0.15184,0.14947,-0.0016
-11.1,-0.6532,0.15017,0.1478,-0.0024
-11,-0.6482,0.14853,0.14617,-0.0032
-10.9,-0.6432,0.14692,0.14456,-0.0039
-10.8,-0.6384,0.14534,0.14299,-0.0046
-10.7,-0.6339,0.14379,0.14145,-0.0052
-10.6,-0.6296,0.1423,0.13997,-0.0057
-10.5,-0.6255,0.14083,0.13851,-0.0061
-10.4,-0.6217,0.13941,0.1371,-0.0065
-10.3,-0.6182,0.13803,0.13573,-0.0067
-10.2,-0.615,0.1367,0.13441,-0.0069
-10.1,-0.6122,0.13541,0.13314,-0.007
-9.9,-0.5962,0.13175,0.12948,-0.0102
-9.8,-0.5874,0.12987,0.12759,-0.012
-9.7,-0.5785,0.12799,0.12572,-0.0139
-9.6,-0.5695,0.12612,0.12385,-0.0158
-9.5,-0.5603,0.12426,0.12198,-0.0178
-9.4,-0.5506,0.12236,0.12008,-0.0198
-9.3,-0.5418,0.12057,0.11829,-0.0216
-9.2,-0.5329,0.11877,0.11649,-0.0234
-9.1,-0.5237,0.11698,0.1147,-0.0253
-9,-0.5142,0.1152,0.11291,-0.0272
-8.9,-0.5046,0.11339,0.11111,-0.0293
-8.8,-0.4939,0.11152,0.10923,-0.0315
-8.7,-0.4853,0.10985,0.10756,-0.0331
-8.6,-0.4765,0.10817,0.10588,-0.0348
-8.5,-0.466,0.10616,0.10388,-0.0371
-8.4,-0.4564,0.1044,0.10211,-0.039
-8.3,-0.4464,0.10261,0.10032,-0.0409
-8.2,-0.4358,0.10079,0.0985,-0.0431
-8.1,-0.4256,0.09905,0.09676,-0.045
-8,-0.417,0.0975,0.09522,-0.0465
-7.9,-0.4082,0.09597,0.09369,-0.0481
-7.8,-0.399,0.09442,0.09214,-0.0498
-7.7,-0.3894,0.09287,0.09059,-0.0515
-7.6,-0.3793,0.09131,0.08903,-0.0534
-7.5,-0.3707,0.08989,0.08761,-0.0549
-7.4,-0.3627,0.08853,0.08626,-0.0561
-7.3,-0.3537,0.08711,0.08484,-0.0576
-7.2,-0.3442,0.08569,0.08341,-0.0592
-7.1,-0.3344,0.08426,0.08198,-0.061
-7,-0.3256,0.08294,0.08065,-0.0624
-6.9,-0.3178,0.0817,0.07942,-0.0635
-6.8,-0.3091,0.08041,0.07813,-0.0648
-6.7,-0.2999,0.07911,0.07683,-0.0663
-6.6,-0.2903,0.0778,0.0755,-0.0678
-6.5,-0.2826,0.07664,0.07434,-0.0688
-6.4,-0.2745,0.07546,0.07316,-0.07
-6.3,-0.2657,0.07426,0.07195,-0.0712
-6.2,-0.2566,0.07305,0.07073,-0.0726
-6.1,-0.2485,0.07193,0.06962,-0.0737
-6,-0.2404,0.07085,0.06853,-0.0748
-5.9,-0.2304,0.06966,0.06734,-0.0764
-5.8,-0.2193,0.06843,0.0661,-0.0783
-5.7,-0.2081,0.0672,0.06486,-0.0801
-5.6,-0.1973,0.06602,0.06368,-0.0819
-5.5,-0.1857,0.06481,0.06246,-0.0838
-5.4,-0.1735,0.06358,0.06122,-0.0859
-5.3,-0.1607,0.06233,0.05995,-0.088
-5.2,-0.1483,0.06112,0.05873,-0.0901
-5.1,-0.1354,0.0599,0.05751,-0.0922
-5,-0.122,0.05865,0.05623,-0.0944
-4.9,-0.1077,0.05737,0.05494,-0.0968
-4.8,-0.0938,0.05614,0.0537,-0.099
-4.7,-0.0792,0.05488,0.05243,-0.1015
-4.5,-0.0479,0.05229,0.04979,-0.1066
-4.4,-0.0316,0.05098,0.04846,-0.1093
-4.3,-0.0153,0.04966,0.04712,-0.112
-4.2,0.002,0.04831,0.04575,-0.1148
-4.1,0.02,0.04691,0.04431,-0.1178
-4,0.039,0.04543,0.0428,-0.121
-3.9,0.058,0.0439,0.04125,-0.1242
-3.8,0.0782,0.04221,0.03954,-0.1277
-3.7,0.0982,0.04099,0.0383,-0.1308
-3.6,0.1189,0.03978,0.03705,-0.1339
-3.5,0.1401,0.03881,0.03605,-0.1368
-3.4,0.1614,0.03755,0.03476,-0.1399
-3.3,0.1833,0.03626,0.03342,-0.143
-3.2,0.2061,0.03494,0.03205,-0.1463
-3.1,0.2296,0.03357,0.03063,-0.1497
-3,0.2533,0.03216,0.02917,-0.153
-2.9,0.2782,0.03065,0.02761,-0.1566
-2.8,0.3045,0.02895,0.02583,-0.1606
-2.7,0.333,0.02688,0.02368,-0.1653
-2.5,0.3815,0.02462,0.02126,-0.1707
-2.4,0.4061,0.0234,0.01996,-0.1735
-2.3,0.4313,0.02204,0.0185,-0.1763
-2.2,0.4576,0.02045,0.01677,-0.1795
-2,0.5108,0.01669,0.01265,-0.1863
-1.9,0.5351,0.01506,0.01081,-0.1889
-1.8,0.5603,0.01266,0.00803,-0.1924
-1.7,0.5824,0.01121,0.00618,-0.1942
-1.6,0.6015,0.01062,0.00537,-0.1945
-1.5,0.6196,0.01046,0.00511,-0.1943
-1.4,0.6383,0.01011,0.00459,-0.1942
-1.3,0.657,0.00983,0.00417,-0.1942
-1.2,0.6747,0.00966,0.00389,-0.1939
-1.1,0.6926,0.00955,0.00371,-0.1936
-1,0.7103,0.00949,0.0036,-0.1933
-0.9,0.7282,0.00939,0.00342,-0.1931
-0.8,0.7455,0.00931,0.00327,-0.1928
-0.7,0.7629,0.00926,0.00317,-0.1924
-0.6,0.7803,0.00922,0.0031,-0.1922
-0.5,0.7973,0.0092,0.00302,-0.1918
-0.4,0.8137,0.00921,0.00295,-0.1913
-0.3,0.8304,0.00921,0.00293,-0.1909
-0.2,0.8472,0.00921,0.0029,-0.1905
-0.1,0.8638,0.00923,0.00287,-0.1901
0,0.8803,0.00925,0.00285,-0.1896
0.1,0.8952,0.00933,0.00284,-0.1888
0.2,0.9102,0.00941,0.00288,-0.1881
0.3,0.9247,0.00952,0.00291,-0.1873
0.4,0.9399,0.00961,0.00293,-0.1866
0.5,0.9549,0.0097,0.00298,-0.1859
0.6,0.9666,0.00992,0.00309,-0.1846
0.7,0.9806,0.01007,0.00317,-0.1837
0.8,0.994,0.01023,0.00327,-0.1828
0.9,1.0046,0.01051,0.00343,-0.1813
1,1.0163,0.01073,0.00358,-0.1801
1.1,1.0256,0.01106,0.00378,-0.1785
1.2,1.0299,0.0116,0.0041,-0.1761
1.4,1.0417,0.01264,0.00476,-0.1721
1.5,1.0534,0.01293,0.00497,-0.171
1.6,1.0662,0.01315,0.00516,-0.17
1.7,1.0796,0.01335,0.00533,-0.1691
1.8,1.0934,0.01353,0.0055,-0.1682
1.9,1.1062,0.01375,0.0057,-0.1672
2,1.1205,0.0139,0.00585,-0.1663
2.1,1.1344,0.01407,0.00602,-0.1654
2.2,1.1485,0.01424,0.00619,-0.1645
2.3,1.1627,0.01439,0.00635,-0.1635
2.4,1.1764,0.01456,0.00653,-0.1625
2.5,1.1901,0.01474,0.00672,-0.1615
2.6,1.204,0.01491,0.00689,-0.1604
2.7,1.2176,0.01508,0.00709,-0.1594
2.8,1.2317,0.01524,0.00728,-0.1583
2.9,1.2451,0.01541,0.00746,-0.1571
3,1.2577,0.01559,0.00766,-0.1557
3.1,1.2702,0.01576,0.00786,-0.1543
3.2,1.2824,0.01594,0.00806,-0.1528
3.3,1.2947,0.01613,0.00828,-0.1514
3.4,1.3075,0.01632,0.00852,-0.15
3.5,1.321,0.01652,0.00875,-0.1486
3.6,1.3347,0.01672,0.00899,-0.1473
3.7,1.3482,0.01695,0.00925,-0.146
3.8,1.362,0.01717,0.00951,-0.1447
3.9,1.376,0.01739,0.00978,-0.1434
4,1.3898,0.01763,0.01006,-0.142
4.1,1.4039,0.01786,0.01037,-0.1407
4.2,1.4184,0.0181,0.01068,-0.1393
4.3,1.4331,0.01832,0.01103,-0.138
4.4,1.447,0.01749,0.01151,-0.1369
4.5,1.4608,0.01779,0.01186,-0.1353
4.6,1.4749,0.01809,0.0122,-0.1337
4.7,1.4887,0.01841,0.01257,-0.132
4.8,1.5022,0.01876,0.01296,-0.1303
4.9,1.5163,0.01911,0.01339,-0.1285
5,1.5302,0.0195,0.01384,-0.1267
5.1,1.5439,0.01991,0.01433,-0.1249
5.2,1.5572,0.02036,0.01486,-0.1229
5.3,1.571,0.02088,0.01548,-0.1209
5.4,1.5844,0.02145,0.01618,-0.1189
5.5,1.5972,0.02208,0.01692,-0.1168
5.6,1.6089,0.02281,0.01779,-0.1146
5.7,1.6189,0.02365,0.01878,-0.1124
5.8,1.6267,0.02466,0.01998,-0.1102
5.9,1.6315,0.02579,0.02128,-0.108
6,1.6337,0.027,0.02268,-0.1058
6.1,1.6337,0.02829,0.02413,-0.1036
6.2,1.6318,0.02966,0.02565,-0.1016
6.3,1.6284,0.03109,0.02726,-0.0997
6.4,1.624,0.03261,0.02892,-0.098
6.6,1.6127,0.03589,0.03246,-0.0954
6.7,1.6062,0.03765,0.03434,-0.0945
6.8,1.5993,0.0395,0.03631,-0.0939
6.9,1.5919,0.04148,0.03838,-0.0937
7.1,1.5736,0.046,0.04312,-0.0946
7.2,1.5643,0.04843,0.04565,-0.0957
7.3,1.5545,0.05102,0.04834,-0.0973
7.4,1.5456,0.05369,0.05108,-0.0992
7.5,1.537,0.05649,0.05396,-0.1015
7.9,1.5068,0.06861,0.06631,-0.1132
8,1.501,0.07174,0.06949,-0.1164
8.2,1.4894,0.07818,0.07598,-0.1226
8.3,1.4829,0.08143,0.07925,-0.1258
8.5,1.4726,0.08754,0.08538,-0.1317
8.6,1.4686,0.09047,0.08832,-0.1345
8.7,1.4652,0.09332,0.09117,-0.1371
8.8,1.463,0.09607,0.09393,-0.1397
8.9,1.4613,0.09873,0.09659,-0.1422
9,1.4602,0.10132,0.09919,-0.1445
9.1,1.4597,0.10384,0.10171,-0.1467
9.2,1.4597,0.10629,0.10416,-0.1489
9.3,1.4602,0.10867,0.10655,-0.1509
9.4,1.4602,0.11118,0.10904,-0.1531
9.5,1.4586,0.11399,0.11186,-0.1557
9.6,1.4578,0.11671,0.11458,-0.1582
9.7,1.4578,0.11933,0.1172,-0.1605
9.8,1.4582,0.12189,0.11977,-0.1627
9.9,1.4591,0.1244,0.12228,-0.1648
10,1.4604,0.12687,0.12475,-0.1669
10.1,1.462,0.12929,0.12718,-0.1689
10.2,1.4639,0.13167,0.12956,-0.1709
10.3,1.466,0.13402,0.13192,-0.1728
10.4,1.4694,0.13615,0.13405,-0.1745
10.5,1.4723,0.13834,0.13625,-0.1762
10.6,1.4755,0.1405,0.13841,-0.1779
10.7,1.4788,0.14261,0.14052,-0.1795
10.8,1.4803,0.14524,0.14315,-0.1817
10.9,1.482,0.14787,0.14578,-0.1838
11,1.4843,0.15041,0.14833,-0.1859
11.1,1.487,0.15288,0.1508,-0.1879
11.2,1.4899,0.1553,0.15322,-0.1898
11.3,1.4931,0.15768,0.15561,-0.1916
11.4,1.4964,0.16003,0.15796,-0.1934
11.6,1.5037,0.16464,0.16259,-0.197
11.7,1.5075,0.1669,0.16485,-0.1987
11.8,1.5122,0.16896,0.16691,-0.2003
11.9,1.5164,0.17108,0.16904,-0.2019
12,1.5208,0.17315,0.17112,-0.2035
12.1,1.5241,0.17577,0.17374,-0.2056
12.2,1.5274,0.1785,0.17647,-0.2077
12.3,1.531,0.18107,0.17905,-0.2097
12.4,1.5349,0.18358,0.18157,-0.2116
12.5,1.5389,0.18604,0.18403,-0.2134
12.6,1.5431,0.18846,0.18646,-0.2153
12.7,1.5474,0.19086,0.18886,-0.2171
12.8,1.5518,0.19323,0.19123,-0.2189
12.9,1.5566,0.19545,0.19346,-0.2206
13,1.5613,0.19767,0.19568,-0.2224
13.1,1.5661,0.19985,0.19787,-0.224
13.2,1.571,0.20199,0.19999,-0.2257
13.3,1.575,0.20498,0.20299,-0.2279
13.4,1.5794,0.20775,0.20576,-0.23
13.5,1.584,0.21042,0.20844,-0.2319
13.6,1.5888,0.21303,0.21105,-0.2339
13.8,1.5986,0.21823,0.21625,-0.2379
13.9,1.6037,0.22065,0.21868,-0.2397
14,1.6088,0.22306,0.22109,-0.2415
14.1,1.614,0.22544,0.22347,-0.2433
14.2,1.6192,0.22779,0.22582,-0.2451
14.3,1.6245,0.23012,0.22816,-0.2468
14.4,1.6295,0.23323,0.23126,-0.249
14.5,1.6347,0.23612,0.23415,-0.2511
14.6,1.6399,0.23892,0.23695,-0.253
14.7,1.6453,0.24171,0.23975,-0.255
14.8,1.6507,0.24447,0.24251,-0.257
14.9,1.6561,0.2472,0.24524,-0.2589
15,1.6616,0.24991,0.24795,-0.2608
15.1,1.6671,0.25262,0.25066,-0.2628
15.2,1.6726,0.25533,0.25337,-0.2647
15.3,1.6782,0.25802,0.25607,-0.2666
15.4,1.6838,0.26051,0.25855,-0.2686
15.5,1.6894,0.2631,0.26115,-0.2704
15.6,1.695,0.26569,0.26374,-0.2723
15.7,1.7006,0.26895,0.267,-0.2745
15.8,1.7063,0.2721,0.27015,-0.2766
15.9,1.712,0.2751,0.27316,-0.2786
16,1.7177,0.27812,0.27618,-0.2807
16.1,1.7235,0.2811,0.27916,-0.2827
16.2,1.7293,0.28409,0.28215,-0.2847
16.3,1.7351,0.28706,0.28512,-0.2868
16.4,1.7409,0.29003,0.28809,-0.2888
16.5,1.7468,0.293,0.29107,-0.2908
16.6,1.7526,0.29598,0.29405,-0.2928
16.7,1.7585,0.29896,0.29703,-0.2948
16.8,1.7644,0.30195,0.30002,-0.2968
16.9,1.7703,0.30495,0.30302,-0.2989
17,1.7762,0.30796,0.30604,-0.3009
17.1,1.7821,0.31098,0.30905,-0.3029
17.2,1.788,0.31401,0.31208,-0.305
17.3,1.7939,0.31703,0.31511,-0.307
17.4,1.7998,0.32008,0.31816,-0.3091
17.5,1.8057,0.32315,0.32123,-0.3111
17.6,1.8116,0.32621,0.32429,-0.3132
17.7,1.8176,0.32929,0.32737,-0.3152
17.8,1.8235,0.33239,0.33048,-0.3173
17.9,1.8294,0.33549,0.33357,-0.3194
18,1.8354,0.33884,0.33692,-0.3216
18.1,1.8416,0.34259,0.34067,-0.3239
18.2,1.8476,0.34611,0.34419,-0.3261
18.3,1.8537,0.34965,0.34773,-0.3283
18.4,1.8601,0.35395,0.35203,-0.3309
18.5,1.8661,0.35737,0.35545,-0.3331
18.6,1.8721,0.36081,0.3589,-0.3353
18.7,1.8782,0.36428,0.36237,-0.3375
18.8,1.8842,0.36774,0.36583,-0.3398
18.9,1.8902,0.3712,0.3693,-0.342
19,1.8962,0.37472,0.37283,-0.3442
19.1,1.9022,0.37824,0.37635,-0.3464
19.2,1.9083,0.38179,0.3799,-0.3487
19.3,1.9143,0.38534,0.38345,-0.3509
19.4,1.9203,0.38893,0.38704,-0.3532
19.5,1.9263,0.39253,0.39064,-0.3554
19.6,1.9322,0.39614,0.39425,-0.3577
19.7,1.9383,0.3998,0.39792,-0.36
19.8,1.9442,0.40346,0.40158,-0.3623
19.9,1.9502,0.40716,0.40528,-0.3646
20,1.9562,0.41088,0.409,-0.3669
20.1,1.9622,0.41461,0.41273,-0.3692
20.2,1.9681,0.41838,0.41651,-0.3715
20.3,1.9741,0.42217,0.4203,-0.3739
20.4,1.9801,0.42599,0.42413,-0.3762
20.5,1.986,0.42984,0.42798,-0.3786
20.6,1.9919,0.43371,0.43184,-0.3809
20.7,1.9979,0.4376,0.43574,-0.3833
20.8,2.0038,0.44153,0.43967,-0.3857
20.9,2.0097,0.44547,0.44361,-0.3881
21,2.0156,0.44947,0.44761,-0.3905
21.1,2.0215,0.45346,0.4516,-0.3929
21.2,2.0274,0.45749,0.45564,-0.3953
21.3,2.0337,0.46236,0.46051,-0.398
21.4,2.0397,0.46684,0.46498,-0.4005
21.5,2.0458,0.47142,0.46957,-0.403
21.6,2.0517,0.47578,0.47393,-0.4055
21.7,2.0578,0.4803,0.47845,-0.4081
21.8,2.0637,0.48472,0.48288,-0.4106
21.9,2.0697,0.4893,0.48745,-0.4132
22,2.0756,0.4938,0.49197,-0.4157
22.1,2.0815,0.49832,0.49649,-0.4183
22.2,2.0873,0.50288,0.50106,-0.4209
22.3,2.0932,0.50748,0.50566,-0.4234
22.4,2.0991,0.51211,0.51028,-0.426
22.5,2.105,0.51678,0.51496,-0.4286
22.6,2.1107,0.52141,0.5196,-0.4312
22.7,2.1166,0.52618,0.52436,-0.4338
22.8,2.1224,0.53098,0.52917,-0.4364
22.9,2.1282,0.53585,0.53404,-0.4391
23,2.1341,0.54082,0.53902,-0.4417
23.4,2.1571,0.56234,0.56055,-0.4531

