airfoilName st19.dat
Re 	9.300000e+05
M 	7.000000e-01
N 	4.500000e+00
VACC 	0 VACCflag 1
XTR 	1.00 	1.00 XTRflag 0
alpha,cl,cd,cdp,cm
-30,-1.8022,0.87089,0.8691,0.4069
-29.9,-1.797,0.8636,0.8618,0.4036
-29.8,-1.7916,0.85632,0.85453,0.4004
-29.7,-1.7863,0.84916,0.84736,0.3972
-29.6,-1.781,0.84203,0.84023,0.3939
-29.5,-1.7756,0.83499,0.83319,0.3907
-29.4,-1.7702,0.82798,0.82617,0.3875
-29.3,-1.7648,0.82105,0.81924,0.3843
-29.2,-1.7594,0.81418,0.81238,0.3811
-29.1,-1.7539,0.80733,0.80552,0.378
-29,-1.7484,0.80059,0.79877,0.3748
-28.9,-1.7429,0.79389,0.79208,0.3716
-28.8,-1.7374,0.78726,0.78544,0.3685
-28.7,-1.7318,0.78073,0.77891,0.3654
-28.6,-1.7262,0.77416,0.77234,0.3622
-28.5,-1.7206,0.76768,0.76586,0.3591
-28.4,-1.715,0.76127,0.75945,0.356
-28.3,-1.7094,0.75489,0.75307,0.3529
-28.2,-1.7037,0.74859,0.74677,0.3498
-28.1,-1.698,0.74235,0.74052,0.3468
-28,-1.6923,0.73612,0.73429,0.3437
-27.9,-1.6866,0.72999,0.72816,0.3406
-27.8,-1.6809,0.72391,0.72208,0.3376
-27.7,-1.6751,0.71782,0.71599,0.3346
-27.6,-1.6693,0.71183,0.70999,0.3315
-27.5,-1.6635,0.70587,0.70402,0.3285
-27.4,-1.6577,0.69999,0.69814,0.3255
-27.3,-1.6518,0.69413,0.69228,0.3225
-27.2,-1.6459,0.68828,0.68644,0.3195
-27.1,-1.6401,0.68249,0.68064,0.3166
-27,-1.6342,0.67679,0.67494,0.3136
-26.9,-1.6283,0.67114,0.66929,0.3106
-26.8,-1.6223,0.66551,0.66366,0.3077
-26.7,-1.6163,0.6599,0.65805,0.3048
-26.6,-1.6103,0.65437,0.65251,0.3018
-26.5,-1.6044,0.64888,0.64703,0.2989
-26.4,-1.5984,0.64345,0.6416,0.296
-26.3,-1.5923,0.63805,0.63619,0.2931
-26.2,-1.5863,0.63265,0.63079,0.2902
-26.1,-1.5802,0.62736,0.6255,0.2874
-26,-1.5741,0.62206,0.6202,0.2845
-25.9,-1.5681,0.61686,0.615,0.2816
-25.8,-1.5619,0.61162,0.60976,0.2788
-25.7,-1.5558,0.60649,0.60463,0.2759
-25.6,-1.5496,0.60138,0.59951,0.2731
-25.5,-1.5434,0.59632,0.59445,0.2703
-25.4,-1.5373,0.59132,0.58945,0.2675
-25.3,-1.5311,0.58636,0.58449,0.2647
-25.2,-1.5248,0.58144,0.57957,0.2618
-25.1,-1.5186,0.57661,0.57474,0.2591
-25,-1.5123,0.57181,0.56994,0.2562
-24.9,-1.5061,0.5671,0.56523,0.2534
-24.8,-1.4998,0.56249,0.56061,0.2506
-24.1,-1.4554,0.53419,0.53232,0.2303
-24,-1.4491,0.52948,0.5276,0.2277
-23.9,-1.4428,0.52483,0.52295,0.2252
-23.8,-1.4364,0.52019,0.51832,0.2226
-23.7,-1.4301,0.51562,0.51374,0.2201
-23.6,-1.4237,0.51109,0.50921,0.2176
-23.5,-1.4174,0.50658,0.5047,0.2151
-23.4,-1.411,0.50214,0.50026,0.2126
-23.3,-1.4046,0.49773,0.49585,0.2101
-23.2,-1.3983,0.49333,0.49145,0.2077
-23.1,-1.3919,0.48899,0.48711,0.2052
-23,-1.3855,0.48471,0.48283,0.2028
-22.9,-1.3791,0.48045,0.47857,0.2003
-22.8,-1.3727,0.47623,0.47435,0.1979
-22.7,-1.3663,0.47203,0.47015,0.1955
-22.6,-1.3599,0.46789,0.466,0.1931
-22.5,-1.3535,0.46375,0.46186,0.1907
-22.4,-1.3471,0.45966,0.45778,0.1884
-22.3,-1.3407,0.45561,0.45372,0.186
-22.2,-1.3342,0.45158,0.4497,0.1836
-22.1,-1.3278,0.4476,0.44571,0.1813
-22,-1.3214,0.44363,0.44174,0.179
-21.9,-1.3149,0.43971,0.43781,0.1767
-21.8,-1.3085,0.43581,0.43392,0.1744
-21.7,-1.302,0.43196,0.43007,0.1721
-21.6,-1.2956,0.42814,0.42625,0.1698
-21.5,-1.2892,0.42434,0.42244,0.1675
-21.4,-1.2827,0.42057,0.41868,0.1653
-21.3,-1.2762,0.41685,0.41496,0.163
-21.2,-1.2698,0.41316,0.41127,0.1608
-21.1,-1.2634,0.4095,0.4076,0.1586
-21,-1.2569,0.40587,0.40398,0.1564
-20.9,-1.2505,0.40226,0.40036,0.1542
-20.8,-1.244,0.3987,0.3968,0.152
-20.7,-1.2376,0.39515,0.39325,0.1498
-20.6,-1.2311,0.39163,0.38973,0.1477
-20.5,-1.2247,0.38814,0.38624,0.1455
-20.4,-1.2182,0.38469,0.3828,0.1434
-20.3,-1.2118,0.38126,0.37936,0.1413
-20.2,-1.2054,0.37786,0.37597,0.1392
-20.1,-1.1989,0.37449,0.37259,0.1371
-20,-1.1925,0.37114,0.36925,0.135
-19.9,-1.186,0.36782,0.36592,0.1329
-19.8,-1.1796,0.36452,0.36262,0.1309
-19.7,-1.1732,0.36124,0.35935,0.1288
-19.6,-1.1668,0.358,0.3561,0.1268
-19.5,-1.1603,0.35478,0.35288,0.1248
-19.4,-1.1539,0.35158,0.34968,0.1228
-19.3,-1.1475,0.34841,0.34651,0.1208
-19.2,-1.1411,0.34525,0.34335,0.1188
-19.1,-1.1347,0.34214,0.34024,0.1168
-19,-1.1283,0.33902,0.33712,0.1148
-18.9,-1.1219,0.33595,0.33405,0.1129
-18.8,-1.1155,0.33289,0.33099,0.111
-18.7,-1.1091,0.32986,0.32796,0.1091
-18.6,-1.1027,0.32685,0.32495,0.1071
-18.5,-1.0963,0.32386,0.32196,0.1052
-18.4,-1.09,0.32089,0.31899,0.1034
-18.3,-1.0836,0.31794,0.31604,0.1015
-18.2,-1.0772,0.31503,0.31313,0.0996
-18.1,-1.0709,0.31213,0.31023,0.0978
-18,-1.0645,0.30925,0.30735,0.0959
-17.9,-1.0582,0.30639,0.30449,0.0941
-17.8,-1.0518,0.30355,0.30165,0.0923
-17.7,-1.0455,0.30074,0.29884,0.0905
-17.6,-1.0392,0.29793,0.29603,0.0887
-17.5,-1.0328,0.29515,0.29325,0.0869
-17.4,-1.0264,0.29237,0.29047,0.0851
-17.3,-1.0201,0.28962,0.28772,0.0833
-17.2,-1.0137,0.28689,0.28499,0.0816
-17.1,-1.0074,0.28417,0.28227,0.0798
-17,-1.001,0.28148,0.27958,0.0781
-16.9,-0.9947,0.2788,0.27691,0.0763
-16.8,-0.9883,0.27614,0.27425,0.0746
-16.7,-0.982,0.2735,0.27161,0.0729
-16.6,-0.9756,0.27088,0.26899,0.0712
-16.5,-0.9693,0.26828,0.26639,0.0694
-16.4,-0.9625,0.26618,0.26429,0.0672
-16.3,-0.9561,0.26358,0.26169,0.0655
-16.2,-0.9497,0.261,0.25911,0.0638
-16.1,-0.9434,0.25843,0.25654,0.0621
-16,-0.937,0.25586,0.25398,0.0605
-15.9,-0.9307,0.25329,0.2514,0.0588
-15.8,-0.9243,0.25073,0.24884,0.0572
-15.7,-0.918,0.24819,0.2463,0.0556
-15.6,-0.9116,0.24563,0.24374,0.054
-15.5,-0.9052,0.24308,0.24119,0.0524
-15.4,-0.8988,0.24051,0.23862,0.0508
-15.3,-0.8923,0.23795,0.23607,0.0492
-15,-0.8722,0.23063,0.22876,0.0442
-14.9,-0.8662,0.22817,0.2263,0.0428
-14.8,-0.8602,0.22573,0.22387,0.0414
-14.7,-0.8541,0.22333,0.22146,0.04
-14.6,-0.8482,0.22093,0.21906,0.0386
-14.5,-0.8422,0.21856,0.2167,0.0372
-14.4,-0.8362,0.21622,0.21435,0.0358
-14.3,-0.8302,0.2139,0.21204,0.0345
-14.2,-0.8242,0.2116,0.20974,0.0331
-14.1,-0.8183,0.20934,0.20748,0.0318
-14,-0.8123,0.20709,0.20524,0.0305
-13.9,-0.8064,0.20488,0.20302,0.0291
-13.8,-0.8004,0.20269,0.20083,0.0278
-13.7,-0.7945,0.20052,0.19867,0.0265
-13.6,-0.7886,0.19837,0.19652,0.0252
-13.5,-0.7827,0.19625,0.1944,0.0239
-13.4,-0.7767,0.19415,0.19231,0.0227
-13.3,-0.7708,0.19207,0.19022,0.0214
-13.2,-0.7649,0.19001,0.18817,0.0201
-13.1,-0.759,0.18797,0.18613,0.0189
-13,-0.7531,0.18595,0.18411,0.0177
-12.9,-0.7472,0.18395,0.1821,0.0164
-12.8,-0.7414,0.18196,0.18012,0.0152
-12.7,-0.7355,0.17999,0.17815,0.014
-12.6,-0.7296,0.17803,0.1762,0.0128
-12.5,-0.7238,0.17609,0.17425,0.0117
-12.4,-0.7179,0.17416,0.17233,0.0105
-12.3,-0.7121,0.17224,0.17042,0.0093
-12.2,-0.7063,0.17035,0.16852,0.0082
-12.1,-0.7005,0.16847,0.16664,0.0071
-12,-0.6947,0.1666,0.16478,0.006
-11.9,-0.689,0.16476,0.16294,0.0049
-11.8,-0.6834,0.16293,0.16112,0.0039
-11.7,-0.6777,0.16112,0.15931,0.0028
-11.6,-0.6722,0.15934,0.15753,0.0018
-11.5,-0.6667,0.15757,0.15576,0.0009
-11.4,-0.6613,0.15583,0.15403,-0.0001
-11.3,-0.656,0.15411,0.15231,-0.001
-11.2,-0.6507,0.15241,0.15062,-0.0018
-11.1,-0.6457,0.15074,0.14896,-0.0027
-11,-0.6408,0.14911,0.14733,-0.0034
-10.9,-0.6361,0.14751,0.14574,-0.0041
-10.8,-0.6317,0.14596,0.1442,-0.0047
-10.7,-0.6276,0.14445,0.14269,-0.0052
-10.6,-0.6238,0.14299,0.14124,-0.0056
-10.5,-0.6199,0.14152,0.13978,-0.006
-10.4,-0.6116,0.13955,0.13781,-0.0078
-10.3,-0.6022,0.13751,0.13577,-0.0101
-10.2,-0.5932,0.13544,0.1337,-0.0121
-10.1,-0.5847,0.13345,0.13171,-0.0139
-10,-0.5762,0.13147,0.12972,-0.0157
-9.9,-0.5674,0.12946,0.12771,-0.0176
-9.8,-0.5578,0.12738,0.12562,-0.0197
-9.7,-0.5493,0.12543,0.12367,-0.0214
-9.6,-0.5405,0.12349,0.12173,-0.0231
-9.5,-0.5311,0.12154,0.11978,-0.0251
-9.3,-0.5119,0.11777,0.11602,-0.0291
-9.2,-0.5034,0.11595,0.11421,-0.0308
-9.1,-0.4948,0.11415,0.11241,-0.0326
-9,-0.4874,0.11247,0.11073,-0.0339
-8.9,-0.4791,0.11075,0.109,-0.0355
-8.8,-0.4709,0.10905,0.1073,-0.0371
-8.7,-0.4624,0.10736,0.10561,-0.0387
-8.6,-0.4537,0.10567,0.10392,-0.0405
-8.5,-0.4447,0.10399,0.10224,-0.0422
-8.4,-0.4366,0.10242,0.10067,-0.0437
-8.3,-0.4289,0.10091,0.09916,-0.045
-8.2,-0.4205,0.09936,0.09761,-0.0466
-8.1,-0.4118,0.09782,0.09607,-0.0482
-8,-0.4029,0.09629,0.09453,-0.0498
-7.9,-0.3939,0.09477,0.09302,-0.0514
-7.8,-0.3866,0.09341,0.09166,-0.0526
-7.7,-0.3786,0.09202,0.09026,-0.0539
-7.6,-0.3703,0.09061,0.08885,-0.0552
-7.5,-0.3618,0.08922,0.08746,-0.0566
-7.4,-0.3536,0.08785,0.08609,-0.0579
-7.3,-0.346,0.08656,0.08479,-0.0591
-7.2,-0.338,0.08526,0.08348,-0.0602
-7.1,-0.33,0.08396,0.08217,-0.0615
-7,-0.3218,0.08267,0.08087,-0.0627
-6.9,-0.314,0.08142,0.07962,-0.0638
-6.8,-0.3061,0.08018,0.07838,-0.0649
-6.7,-0.2981,0.07894,0.07713,-0.0661
-6.6,-0.2901,0.07771,0.07589,-0.0672
-6.5,-0.2821,0.0765,0.07468,-0.0683
-6.4,-0.274,0.0753,0.07347,-0.0695
-6.3,-0.2659,0.07411,0.07227,-0.0706
-6.2,-0.2577,0.07292,0.07108,-0.0718
-6.1,-0.2494,0.07177,0.06991,-0.073
-6,-0.2404,0.0706,0.06874,-0.0744
-5.8,-0.2184,0.06808,0.06619,-0.0783
-5.7,-0.2073,0.06681,0.0649,-0.0802
-5.6,-0.1961,0.06554,0.06363,-0.0821
-5.5,-0.1843,0.06425,0.06233,-0.0842
-5.4,-0.1722,0.06297,0.06104,-0.0862
-5.3,-0.1597,0.06169,0.05974,-0.0884
-5.2,-0.1468,0.06039,0.05843,-0.0906
-5.1,-0.1336,0.05909,0.05712,-0.0929
-5,-0.12,0.0578,0.05581,-0.0952
-4.9,-0.1061,0.0565,0.05449,-0.0976
-4.7,-0.0771,0.05387,0.05182,-0.1025
-4.6,-0.0617,0.05255,0.05048,-0.1052
-4.5,-0.046,0.0512,0.0491,-0.1078
-4.4,-0.0296,0.04985,0.04773,-0.1106
-4.3,-0.0127,0.04846,0.04633,-0.1135
-4.2,0.0046,0.04706,0.0449,-0.1164
-4.1,0.0226,0.04562,0.04343,-0.1195
-4,0.0412,0.04413,0.04192,-0.1226
-3.9,0.0603,0.04261,0.04037,-0.1259
-3.8,0.0803,0.04117,0.03891,-0.1292
-3.7,0.1007,0.03986,0.03756,-0.1326
-3.6,0.1218,0.03857,0.03624,-0.1359
-3.5,0.1431,0.0373,0.03493,-0.1392
-3.4,0.1652,0.03601,0.03361,-0.1426
-3.3,0.1878,0.03472,0.03228,-0.1459
-3.2,0.2106,0.03341,0.03093,-0.1493
-3.1,0.2341,0.03207,0.02954,-0.1527
-3,0.2582,0.03069,0.0281,-0.1561
-2.9,0.2828,0.02924,0.0266,-0.1596
-2.8,0.3082,0.02772,0.02501,-0.1633
-2.7,0.3345,0.02608,0.0233,-0.1671
-2.6,0.3619,0.02423,0.02134,-0.1713
-2.5,0.3915,0.02195,0.01894,-0.1762
-2.4,0.4168,0.02058,0.01748,-0.1792
-2.3,0.442,0.01911,0.0159,-0.1822
-2.2,0.4681,0.01736,0.014,-0.1855
-2.1,0.4972,0.01446,0.01081,-0.1905
-2,0.5244,0.01107,0.00695,-0.1958
-1.9,0.5455,0.00991,0.0055,-0.1972
-1.8,0.5657,0.00924,0.00459,-0.1978
-1.7,0.5842,0.00882,0.00396,-0.1977
-1.6,0.6032,0.00851,0.00348,-0.1977
-1.5,0.6212,0.00837,0.00327,-0.1975
-1.4,0.6394,0.00823,0.00304,-0.1972
-1.3,0.6575,0.00812,0.00283,-0.197
-1.2,0.675,0.00804,0.00266,-0.1966
-1.1,0.6931,0.00795,0.00253,-0.1965
-1,0.7107,0.00792,0.00246,-0.1962
-0.9,0.7277,0.00789,0.00237,-0.1958
-0.8,0.7445,0.00788,0.00229,-0.1954
-0.7,0.7619,0.00785,0.00222,-0.1952
-0.6,0.7789,0.00784,0.00218,-0.1949
-0.5,0.7958,0.00785,0.00214,-0.1945
-0.4,0.8115,0.0079,0.00213,-0.194
-0.3,0.8281,0.00792,0.00211,-0.1936
-0.2,0.8444,0.00795,0.00211,-0.1932
-0.1,0.8596,0.00803,0.00212,-0.1925
0,0.8746,0.00812,0.00215,-0.1919
0.1,0.8881,0.00828,0.0022,-0.191
0.2,0.9034,0.00836,0.00225,-0.1904
0.3,0.9184,0.00846,0.00231,-0.1898
0.4,0.9332,0.00858,0.00237,-0.1891
0.5,0.9444,0.00885,0.0025,-0.1878
0.6,0.9584,0.009,0.00259,-0.187
0.7,0.9718,0.00917,0.0027,-0.1862
0.8,0.9831,0.00944,0.00286,-0.1849
0.9,0.9935,0.00976,0.00306,-0.1836
1.2,1.0153,0.01131,0.00398,-0.1784
1.3,1.0292,0.01149,0.00412,-0.1776
1.4,1.0439,0.01164,0.00425,-0.1769
1.5,1.0584,0.01179,0.00438,-0.1762
1.6,1.0734,0.01191,0.00451,-0.1756
1.7,1.0881,0.01205,0.00464,-0.1748
1.8,1.1025,0.01221,0.00477,-0.174
1.9,1.1174,0.01234,0.0049,-0.1733
2,1.1325,0.01245,0.00503,-0.1726
2.1,1.1474,0.01259,0.00516,-0.1718
2.2,1.1624,0.01271,0.00529,-0.171
2.3,1.1769,0.01287,0.00543,-0.1701
2.4,1.1918,0.013,0.00559,-0.1693
2.5,1.2069,0.01312,0.00572,-0.1684
2.6,1.2217,0.01326,0.00587,-0.1675
2.7,1.2364,0.0134,0.00603,-0.1666
2.8,1.2513,0.01354,0.00618,-0.1656
2.9,1.2655,0.01371,0.00636,-0.1645
3,1.2801,0.01385,0.00653,-0.1634
3.1,1.2949,0.01399,0.00671,-0.1624
3.2,1.3093,0.01415,0.00688,-0.1612
3.3,1.3234,0.01432,0.00707,-0.16
3.4,1.3369,0.01448,0.00726,-0.1586
3.5,1.3498,0.01464,0.00745,-0.1571
3.6,1.3624,0.01482,0.00765,-0.1554
3.7,1.3754,0.01498,0.00786,-0.1538
3.8,1.3886,0.01516,0.00807,-0.1523
3.9,1.4024,0.01536,0.00831,-0.1508
4,1.4167,0.01556,0.00856,-0.1493
4.1,1.431,0.01577,0.0088,-0.1479
4.2,1.4453,0.01599,0.00907,-0.1464
4.3,1.4601,0.01621,0.00935,-0.1449
4.4,1.475,0.01643,0.00965,-0.1433
4.6,1.5085,0.01584,0.01055,-0.1412
4.7,1.5231,0.01613,0.01087,-0.1394
4.8,1.5375,0.01644,0.01123,-0.1375
4.9,1.5518,0.01678,0.01164,-0.1355
5,1.566,0.01716,0.0121,-0.1333
5.1,1.5797,0.01759,0.01263,-0.1311
5.2,1.593,0.01808,0.01323,-0.1287
5.3,1.6059,0.01866,0.01392,-0.1263
5.4,1.6185,0.01932,0.01472,-0.1238
5.5,1.6304,0.02011,0.01566,-0.1214
5.6,1.6408,0.02105,0.01679,-0.1189
5.7,1.6484,0.02213,0.01806,-0.1164
5.8,1.6527,0.02331,0.01943,-0.1138
5.9,1.6538,0.02457,0.02087,-0.1112
6,1.6524,0.02589,0.02236,-0.1086
6.1,1.6492,0.02728,0.0239,-0.1061
6.2,1.6446,0.02873,0.02549,-0.1037
6.4,1.6324,0.03181,0.02885,-0.0996
6.5,1.6253,0.03348,0.03063,-0.098
6.6,1.6177,0.03522,0.03249,-0.0966
6.8,1.6022,0.03891,0.03639,-0.0948
6.9,1.5936,0.04094,0.03852,-0.0944
7,1.5835,0.04319,0.04087,-0.0945
7.1,1.5734,0.04553,0.04331,-0.095
7.2,1.5637,0.04798,0.04585,-0.0959
7.3,1.554,0.05056,0.0485,-0.0972
7.5,1.5353,0.05606,0.05415,-0.1011
7.6,1.5263,0.05902,0.05718,-0.1037
7.7,1.5179,0.0621,0.06032,-0.1066
7.8,1.5101,0.06528,0.06355,-0.1097
7.9,1.5027,0.06856,0.06689,-0.113
8,1.4962,0.0719,0.07027,-0.1164
8.1,1.4906,0.07531,0.07371,-0.1198
8.2,1.4854,0.07854,0.07697,-0.1229
8.4,1.4763,0.08469,0.08314,-0.1287
8.5,1.4708,0.08785,0.08631,-0.1317
8.6,1.4662,0.0909,0.08936,-0.1346
8.7,1.4623,0.09388,0.09235,-0.1374
8.8,1.459,0.0968,0.09528,-0.1401
8.9,1.4563,0.09966,0.09814,-0.1427
9,1.4541,0.10247,0.10096,-0.1452
9.1,1.4524,0.10522,0.10372,-0.1477
9.2,1.4512,0.10792,0.10642,-0.1501
9.4,1.4501,0.11322,0.11172,-0.1547
9.5,1.4502,0.11581,0.11431,-0.1569
9.6,1.4507,0.11836,0.11686,-0.159
9.7,1.4515,0.12087,0.11938,-0.1611
9.8,1.452,0.1235,0.122,-0.1634
9.9,1.4517,0.12628,0.12478,-0.1658
10,1.452,0.12899,0.12749,-0.1681
10.1,1.4528,0.13164,0.13015,-0.1703
10.2,1.454,0.13426,0.13277,-0.1724
10.3,1.4555,0.13683,0.13534,-0.1745
10.4,1.4572,0.13936,0.13787,-0.1765
10.5,1.4592,0.14186,0.14038,-0.1785
10.6,1.4615,0.14433,0.14285,-0.1805
10.7,1.4641,0.14677,0.14529,-0.1824
10.8,1.4669,0.14919,0.14772,-0.1843
10.9,1.4698,0.15158,0.15011,-0.1861
11,1.473,0.15395,0.15248,-0.188
11.1,1.4749,0.15674,0.15526,-0.1902
11.2,1.4774,0.15939,0.15792,-0.1923
11.3,1.4801,0.16201,0.16053,-0.1943
11.4,1.4832,0.16457,0.1631,-0.1963
11.5,1.4864,0.16711,0.16564,-0.1982
11.6,1.4899,0.16962,0.16815,-0.2001
11.7,1.4935,0.17209,0.17063,-0.202
11.8,1.4973,0.17455,0.17309,-0.2039
11.9,1.5018,0.17681,0.17535,-0.2056
12,1.506,0.17914,0.17767,-0.2074
12.1,1.5092,0.18194,0.18047,-0.2095
12.2,1.5127,0.18464,0.18317,-0.2115
12.3,1.5165,0.18727,0.1858,-0.2135
12.4,1.5205,0.18985,0.18839,-0.2154
12.5,1.5247,0.19239,0.19093,-0.2173
12.6,1.529,0.19494,0.19348,-0.2192
12.7,1.5334,0.19745,0.19599,-0.221
12.8,1.5379,0.19994,0.19848,-0.2229
12.9,1.5425,0.20242,0.20097,-0.2247
13,1.5471,0.20489,0.20344,-0.2266
13.1,1.5519,0.20735,0.2059,-0.2284
13.2,1.5567,0.20979,0.20833,-0.2302
13.3,1.5616,0.21221,0.21075,-0.232
13.4,1.5665,0.21461,0.21316,-0.2338
13.5,1.5709,0.218,0.21654,-0.2362
13.6,1.5758,0.22068,0.21922,-0.2381
13.7,1.5808,0.22333,0.22187,-0.24
13.8,1.5859,0.22597,0.22451,-0.2419
13.9,1.5911,0.22859,0.22713,-0.2438
14,1.5963,0.23121,0.22977,-0.2457
14.1,1.6016,0.23383,0.23239,-0.2476
14.2,1.6069,0.23644,0.235,-0.2495
14.3,1.6123,0.23905,0.23761,-0.2513
14.4,1.6177,0.24167,0.24022,-0.2532
14.5,1.6231,0.24427,0.24282,-0.2551
14.6,1.6286,0.24688,0.24544,-0.257
14.7,1.6341,0.2495,0.24806,-0.2588
14.8,1.6396,0.25211,0.25067,-0.2607
14.9,1.6451,0.25471,0.25327,-0.2626
15,1.6506,0.25757,0.25612,-0.2646
15.1,1.6562,0.26061,0.25916,-0.2666
15.2,1.6619,0.26362,0.26218,-0.2686
15.3,1.6675,0.26656,0.26511,-0.2705
15.4,1.6732,0.26949,0.26805,-0.2725
15.5,1.6789,0.2724,0.27095,-0.2745
15.6,1.6847,0.27532,0.27388,-0.2764
15.7,1.6904,0.27826,0.27682,-0.2784
15.8,1.6962,0.28119,0.27975,-0.2804
15.9,1.702,0.28417,0.28273,-0.2824
16,1.7078,0.28711,0.28568,-0.2843
16.1,1.7137,0.29007,0.28863,-0.2863
16.2,1.7196,0.29307,0.29163,-0.2883
16.3,1.7255,0.29605,0.29462,-0.2903
16.4,1.7314,0.29907,0.29763,-0.2923
16.6,1.7432,0.3051,0.30366,-0.2964
16.7,1.7491,0.30811,0.30667,-0.2985
16.8,1.755,0.3111,0.30967,-0.3005
16.9,1.7609,0.31414,0.3127,-0.3025
17,1.7668,0.31719,0.31575,-0.3045
17.1,1.7728,0.32023,0.3188,-0.3066
17.2,1.7787,0.32329,0.32186,-0.3086
17.3,1.7846,0.32637,0.32494,-0.3107
17.4,1.7905,0.32944,0.32802,-0.3128
17.5,1.7965,0.33266,0.33124,-0.3149
17.6,1.8028,0.33644,0.33501,-0.3171
17.7,1.809,0.33998,0.33855,-0.3193
17.8,1.8151,0.34344,0.34202,-0.3215
17.9,1.8212,0.34695,0.34553,-0.3237
18,1.8273,0.35036,0.34893,-0.3258
18.1,1.8334,0.35385,0.35243,-0.328
18.2,1.8395,0.3573,0.35588,-0.3302
18.3,1.8456,0.36076,0.35934,-0.3323
18.4,1.8517,0.36429,0.36287,-0.3345
18.5,1.8578,0.3678,0.36638,-0.3367
18.6,1.8638,0.37133,0.36991,-0.339
18.7,1.8699,0.37486,0.37345,-0.3412
18.8,1.876,0.37843,0.37702,-0.3434
18.9,1.8821,0.382,0.38059,-0.3456
19,1.8882,0.38561,0.3842,-0.3479
19.1,1.8942,0.38919,0.38779,-0.3501
19.2,1.9003,0.39285,0.39144,-0.3524
19.3,1.9063,0.39652,0.39511,-0.3546
19.4,1.9124,0.4002,0.39879,-0.3569
19.5,1.9184,0.40387,0.40247,-0.3592
19.6,1.9245,0.40764,0.40624,-0.3615
19.7,1.9305,0.41139,0.40999,-0.3638
19.8,1.9366,0.41515,0.41375,-0.3661
19.9,1.9426,0.41896,0.41756,-0.3684
20,1.9486,0.4228,0.4214,-0.3707
20.1,1.9546,0.42664,0.42525,-0.3731
20.2,1.9607,0.43053,0.42914,-0.3754
20.3,1.9667,0.43445,0.43306,-0.3778
20.4,1.9727,0.43837,0.43698,-0.3801
20.5,1.9787,0.44235,0.44096,-0.3825
20.6,1.9847,0.44633,0.44495,-0.3849
20.7,1.9906,0.45034,0.44896,-0.3873
20.8,1.9966,0.4544,0.45302,-0.3897
20.9,2.0026,0.45848,0.4571,-0.3921
21,2.0086,0.46259,0.46122,-0.3945
21.1,2.0145,0.46674,0.46537,-0.397
21.2,2.0205,0.4709,0.46953,-0.3994
21.3,2.0264,0.47512,0.47375,-0.4019
21.4,2.0323,0.47936,0.47799,-0.4043
21.5,2.0382,0.4836,0.48224,-0.4068
21.6,2.0442,0.48792,0.48655,-0.4093
21.7,2.0501,0.49226,0.4909,-0.4118
21.8,2.056,0.49659,0.49523,-0.4143
21.9,2.0618,0.50099,0.49963,-0.4168
22,2.0677,0.50542,0.50406,-0.4193
22.1,2.0736,0.50989,0.50853,-0.4219
22.3,2.0851,0.51881,0.51746,-0.427
22.4,2.0909,0.52335,0.52199,-0.4296
22.5,2.0967,0.52794,0.52659,-0.4322
22.6,2.1024,0.53253,0.53118,-0.4348
22.7,2.1082,0.53715,0.5358,-0.4374
22.8,2.1139,0.54183,0.54048,-0.44
23,2.126,0.55241,0.55106,-0.4454
23.1,2.1319,0.5577,0.55636,-0.4481
23.2,2.1378,0.56295,0.56161,-0.4508
23.3,2.1437,0.56817,0.56683,-0.4536
23.4,2.1495,0.57352,0.57218,-0.4563
23.5,2.1553,0.57874,0.5774,-0.459
23.6,2.161,0.584,0.58266,-0.4617
23.7,2.1667,0.58934,0.58802,-0.4645
23.8,2.1724,0.5947,0.59338,-0.4672
23.9,2.1781,0.60008,0.59876,-0.47
24.3,2.2006,0.62186,0.62055,-0.4811
24.4,2.206,0.62696,0.62566,-0.4838
24.6,2.2175,0.63946,0.63816,-0.4897
24.8,2.2285,0.65327,0.65197,-0.4954
24.9,2.2339,0.65891,0.65761,-0.4982
25,2.2394,0.66455,0.66326,-0.501
25.1,2.2447,0.67041,0.66911,-0.5038

