airfoilName st19.dat
Re 	750000
M 	7.000000e-01
N 	4.500000e+00
VACC 	0 VACCflag 1
XTR 	1.00 	1.00 XTRflag 0
alpha,cl,cd,cdp,cm
-30,-1.8024,0.8718,0.86977,0.4067
-29.9,-1.7971,0.86447,0.86243,0.4034
-29.8,-1.7918,0.85714,0.8551,0.4002
-29.7,-1.7865,0.84994,0.84791,0.3969
-29.6,-1.7811,0.84277,0.84073,0.3937
-29.5,-1.7757,0.8357,0.83366,0.3905
-29.4,-1.7703,0.82865,0.82661,0.3873
-29.3,-1.7649,0.82168,0.81963,0.3841
-29.2,-1.7594,0.81478,0.81273,0.3809
-29.1,-1.7539,0.80789,0.80584,0.3777
-29,-1.7484,0.80111,0.79906,0.3745
-28.9,-1.7429,0.79438,0.79233,0.3714
-28.8,-1.7374,0.78772,0.78567,0.3682
-28.7,-1.7318,0.78116,0.7791,0.3651
-28.6,-1.7262,0.77454,0.77248,0.3619
-28.5,-1.7206,0.76803,0.76597,0.3588
-28.4,-1.7149,0.76159,0.75953,0.3557
-28.3,-1.7093,0.75518,0.75311,0.3526
-28.2,-1.7036,0.74886,0.74679,0.3495
-28.1,-1.6979,0.74258,0.74051,0.3464
-28,-1.6921,0.73632,0.73425,0.3433
-27.9,-1.6864,0.73017,0.72809,0.3403
-27.8,-1.6807,0.72407,0.72199,0.3372
-27.7,-1.6749,0.71795,0.71587,0.3341
-27.6,-1.669,0.71193,0.70985,0.3311
-27.5,-1.6632,0.70595,0.70387,0.3281
-27.4,-1.6574,0.70006,0.69797,0.325
-27.3,-1.6515,0.69419,0.6921,0.322
-27.2,-1.6456,0.68833,0.68624,0.319
-27.1,-1.6397,0.68253,0.68044,0.316
-27,-1.6338,0.67684,0.67475,0.313
-26.9,-1.6278,0.6712,0.6691,0.31
-26.8,-1.6219,0.66559,0.66349,0.3071
-26.7,-1.6159,0.66001,0.65791,0.3041
-26.6,-1.6099,0.65452,0.65241,0.3011
-26.5,-1.6038,0.6491,0.647,0.2981
-26.4,-1.5978,0.64376,0.64165,0.2952
-25.1,-1.5182,0.58301,0.58091,0.2565
-25,-1.512,0.57787,0.57577,0.2539
-24.9,-1.5057,0.57281,0.57069,0.2512
-24.8,-1.4995,0.5678,0.56568,0.2485
-24.7,-1.4932,0.56285,0.56073,0.2459
-24.6,-1.4869,0.55789,0.55577,0.2432
-24.5,-1.4806,0.55303,0.55091,0.2406
-24.4,-1.4743,0.54823,0.54611,0.238
-24.3,-1.468,0.54345,0.54132,0.2354
-24.2,-1.4617,0.53867,0.53655,0.2328
-24.1,-1.4554,0.53398,0.53186,0.2302
-24,-1.4491,0.52932,0.5272,0.2276
-23.9,-1.4427,0.52472,0.52259,0.2251
-23.8,-1.4364,0.52014,0.51801,0.2225
-23.7,-1.4301,0.5156,0.51347,0.22
-23.6,-1.4237,0.51112,0.50899,0.2175
-23.5,-1.4174,0.50666,0.50453,0.215
-23.4,-1.411,0.50226,0.50013,0.2125
-23.3,-1.4046,0.49787,0.49575,0.21
-23.2,-1.3983,0.49352,0.49139,0.2075
-23.1,-1.3919,0.48922,0.48709,0.2051
-23,-1.3855,0.48497,0.48284,0.2026
-22.9,-1.3791,0.48075,0.47861,0.2002
-22.8,-1.3727,0.47655,0.47442,0.1978
-22.7,-1.3663,0.47239,0.47026,0.1953
-22.6,-1.3599,0.46828,0.46614,0.1929
-22.5,-1.3535,0.46417,0.46204,0.1906
-22.4,-1.3471,0.46012,0.45798,0.1882
-22.3,-1.3407,0.45608,0.45395,0.1858
-22.2,-1.3343,0.45209,0.44995,0.1835
-22.1,-1.3278,0.44813,0.44599,0.1811
-22,-1.3214,0.44418,0.44204,0.1788
-21.9,-1.3149,0.44028,0.43814,0.1765
-21.8,-1.3085,0.4364,0.43426,0.1742
-21.7,-1.302,0.43257,0.43042,0.1719
-21.6,-1.2956,0.42877,0.42662,0.1696
-21.5,-1.2891,0.42498,0.42283,0.1673
-21.4,-1.2827,0.42123,0.41908,0.1651
-21.3,-1.2762,0.41752,0.41537,0.1628
-21.2,-1.2697,0.41383,0.41169,0.1606
-21.1,-1.2633,0.41017,0.40803,0.1584
-21,-1.2568,0.40655,0.40441,0.1561
-20.9,-1.2504,0.40294,0.40079,0.154
-20.8,-1.2439,0.39938,0.39723,0.1518
-20.7,-1.2374,0.39583,0.39368,0.1496
-20.6,-1.231,0.39231,0.39016,0.1475
-20.5,-1.2245,0.38882,0.38667,0.1453
-20.4,-1.2181,0.38536,0.38321,0.1432
-20.3,-1.2116,0.38192,0.37977,0.1411
-20.2,-1.2052,0.37852,0.37637,0.1389
-20.1,-1.1987,0.37514,0.37299,0.1368
-20,-1.1923,0.37179,0.36964,0.1348
-19.9,-1.1858,0.36845,0.3663,0.1327
-19.8,-1.1794,0.36515,0.363,0.1306
-19.7,-1.1729,0.36187,0.35972,0.1286
-19.6,-1.1665,0.35862,0.35647,0.1266
-19.5,-1.16,0.35539,0.35324,0.1245
-19.4,-1.1536,0.35219,0.35004,0.1225
-19.3,-1.1472,0.34901,0.34686,0.1205
-19.2,-1.1407,0.34585,0.3437,0.1185
-19.1,-1.1343,0.34274,0.34059,0.1166
-19,-1.1279,0.33961,0.33746,0.1146
-18.9,-1.1215,0.33654,0.33439,0.1127
-18.8,-1.1151,0.33348,0.33132,0.1107
-18.7,-1.1087,0.33045,0.32829,0.1088
-18.6,-1.1023,0.32744,0.32529,0.1069
-18.5,-1.0959,0.32445,0.32229,0.105
-18.4,-1.0895,0.32148,0.31933,0.1031
-18.3,-1.0831,0.31854,0.31638,0.1012
-18.2,-1.0767,0.31562,0.31347,0.0993
-18.1,-1.0704,0.31273,0.31058,0.0975
-18,-1.064,0.30985,0.3077,0.0956
-17.9,-1.0576,0.307,0.30485,0.0938
-17.8,-1.0513,0.30417,0.30202,0.0919
-17.7,-1.0449,0.30136,0.29921,0.0901
-17.6,-1.0386,0.29857,0.29641,0.0883
-17.5,-1.0322,0.2958,0.29365,0.0865
-17.4,-1.0258,0.29304,0.29089,0.0847
-17.3,-1.0194,0.2903,0.28815,0.0829
-17.2,-1.013,0.28759,0.28544,0.0811
-17.1,-1.0066,0.28489,0.28275,0.0793
-17,-1.0002,0.28223,0.28008,0.0775
-16.9,-0.9938,0.27958,0.27744,0.0757
-16.8,-0.9865,0.27783,0.27568,0.0729
-16.3,-0.9527,0.26433,0.26221,0.0638
-16.2,-0.9465,0.26162,0.25949,0.0622
-16.1,-0.9403,0.25893,0.2568,0.0607
-16,-0.9342,0.25626,0.25414,0.0591
-15.9,-0.928,0.25361,0.25148,0.0576
-15.8,-0.9219,0.25099,0.24886,0.0561
-15.7,-0.9157,0.24841,0.24628,0.0546
-15.6,-0.9096,0.24584,0.24372,0.0531
-15.5,-0.9034,0.2433,0.24118,0.0516
-15.4,-0.8973,0.24078,0.23866,0.0501
-15.3,-0.8913,0.2383,0.23617,0.0486
-15.2,-0.8852,0.23583,0.23371,0.0472
-15.1,-0.8791,0.23339,0.23127,0.0457
-15,-0.873,0.23097,0.22885,0.0443
-14.9,-0.867,0.22858,0.22646,0.0429
-14.8,-0.8609,0.22621,0.22409,0.0414
-14.7,-0.8549,0.22385,0.22174,0.04
-14.6,-0.8488,0.22152,0.21941,0.0386
-14.5,-0.8428,0.21921,0.2171,0.0372
-14.4,-0.8367,0.21692,0.21481,0.0358
-14.3,-0.8307,0.21465,0.21254,0.0344
-14.2,-0.8246,0.2124,0.21029,0.0331
-14.1,-0.8186,0.21017,0.20806,0.0317
-14,-0.8126,0.20796,0.20585,0.0304
-13.9,-0.8066,0.20577,0.20366,0.029
-13.8,-0.8005,0.20359,0.20149,0.0277
-13.7,-0.7945,0.20144,0.19934,0.0264
-13.6,-0.7886,0.1993,0.19721,0.0251
-13.5,-0.7826,0.19718,0.19509,0.0238
-13.4,-0.7766,0.19508,0.19299,0.0225
-13.3,-0.7706,0.19299,0.1909,0.0212
-13.2,-0.7647,0.19093,0.18884,0.02
-13.1,-0.7588,0.18888,0.18679,0.0187
-13,-0.7529,0.18684,0.18476,0.0175
-12.9,-0.747,0.18482,0.18274,0.0163
-12.8,-0.7411,0.18282,0.18074,0.0151
-12.7,-0.7352,0.18084,0.17876,0.0139
-12.6,-0.7294,0.17886,0.17679,0.0127
-12.5,-0.7235,0.1769,0.17483,0.0116
-12.4,-0.7177,0.17496,0.17289,0.0104
-12.3,-0.7119,0.17303,0.17096,0.0093
-12.2,-0.7061,0.17112,0.16905,0.0082
-12.1,-0.7003,0.16923,0.16716,0.0071
-12,-0.6946,0.16735,0.16529,0.006
-11.9,-0.6889,0.16549,0.16344,0.0049
-11.8,-0.6832,0.16365,0.1616,0.0038
-11.7,-0.6776,0.16184,0.15979,0.0028
-11.6,-0.672,0.16004,0.15799,0.0018
-11.5,-0.6665,0.15826,0.15622,0.0008
-11.4,-0.6611,0.1565,0.15447,-0.0001
-11.3,-0.6558,0.15477,0.15274,-0.0011
-11.2,-0.6505,0.15306,0.15103,-0.002
-11.1,-0.6454,0.15137,0.14935,-0.0028
-11,-0.6404,0.14972,0.1477,-0.0036
-10.9,-0.6356,0.14809,0.14608,-0.0043
-10.8,-0.6311,0.14649,0.14449,-0.005
-10.7,-0.6258,0.14476,0.14277,-0.006
-10.6,-0.6217,0.14317,0.14118,-0.0064
-10.5,-0.6178,0.1416,0.13962,-0.0068
-10.4,-0.6141,0.14008,0.13811,-0.0071
-10.3,-0.6092,0.13845,0.13649,-0.0078
-10.1,-0.59,0.13429,0.13234,-0.012
-10,-0.582,0.13235,0.1304,-0.0137
-9.9,-0.574,0.13042,0.12847,-0.0153
-9.8,-0.5657,0.1285,0.12655,-0.0171
-9.7,-0.5566,0.12651,0.12455,-0.0191
-9.6,-0.5483,0.12464,0.12268,-0.0208
-9.5,-0.5403,0.12281,0.12085,-0.0224
-9.4,-0.5321,0.121,0.11904,-0.024
-9.3,-0.5231,0.11913,0.11717,-0.0259
-9.2,-0.5145,0.11734,0.11537,-0.0277
-9.1,-0.5057,0.11555,0.11359,-0.0295
-9,-0.4968,0.11378,0.11182,-0.0313
-8.9,-0.4877,0.11203,0.11007,-0.0332
-8.8,-0.4799,0.11041,0.10845,-0.0346
-8.7,-0.4712,0.10874,0.10677,-0.0363
-8.6,-0.4626,0.10709,0.10513,-0.038
-8.5,-0.4536,0.10545,0.10349,-0.0397
-8.4,-0.4444,0.10381,0.10184,-0.0415
-8.3,-0.4348,0.10216,0.1002,-0.0434
-8.2,-0.4263,0.10063,0.09867,-0.045
-8.1,-0.4181,0.09913,0.09716,-0.0464
-8,-0.4094,0.09762,0.09565,-0.048
-7.9,-0.4003,0.0961,0.09413,-0.0496
-7.8,-0.3909,0.09456,0.0926,-0.0514
-7.7,-0.3811,0.09303,0.09106,-0.0532
-7.6,-0.3734,0.09166,0.08969,-0.0544
-7.5,-0.3652,0.09028,0.08831,-0.0558
-7.4,-0.3566,0.08888,0.08691,-0.0572
-7.3,-0.3473,0.08744,0.08546,-0.0588
-7.2,-0.338,0.08602,0.08403,-0.0604
-7.1,-0.3303,0.08474,0.08275,-0.0615
-7,-0.3223,0.08344,0.08145,-0.0627
-6.9,-0.3138,0.08213,0.08014,-0.064
-6.8,-0.3051,0.08081,0.07881,-0.0654
-6.7,-0.2966,0.07952,0.07752,-0.0667
-6.6,-0.2888,0.0783,0.07629,-0.0677
-6.5,-0.2806,0.07706,0.07505,-0.0689
-6.4,-0.2723,0.07582,0.0738,-0.0701
-6.3,-0.2639,0.07458,0.07256,-0.0713
-6.2,-0.256,0.07341,0.07139,-0.0724
-6.1,-0.2472,0.07221,0.07018,-0.0739
-6,-0.2382,0.071,0.06896,-0.0753
-5.9,-0.2277,0.06971,0.06765,-0.077
-5.8,-0.2173,0.06844,0.06638,-0.0788
-5.7,-0.2065,0.06716,0.0651,-0.0806
-5.6,-0.1954,0.06587,0.06379,-0.0825
-5.5,-0.1837,0.06457,0.06248,-0.0845
-5.4,-0.1718,0.06327,0.06116,-0.0866
-5.3,-0.1596,0.06198,0.05987,-0.0886
-5.2,-0.147,0.06067,0.05855,-0.0908
-5.1,-0.134,0.05935,0.05721,-0.0931
-5,-0.1205,0.05802,0.05586,-0.0954
-4.9,-0.1068,0.05669,0.05452,-0.0977
-4.8,-0.0926,0.05536,0.05317,-0.1002
-4.7,-0.0782,0.05398,0.05177,-0.1026
-4.6,-0.063,0.05259,0.05034,-0.1052
-4.5,-0.0473,0.05115,0.04889,-0.1079
-4.4,-0.031,0.04973,0.04746,-0.1107
-4.3,-0.0143,0.04836,0.04607,-0.1135
-4.2,0.0028,0.04706,0.04475,-0.1164
-4.1,0.0206,0.04578,0.04344,-0.1194
-4,0.0387,0.04452,0.04217,-0.1223
-3.9,0.0576,0.04326,0.04089,-0.1254
-3.8,0.0769,0.04201,0.0396,-0.1284
-3.7,0.097,0.04075,0.0383,-0.1316
-3.6,0.1176,0.03948,0.037,-0.1347
-3.5,0.1385,0.03821,0.0357,-0.1379
-3.4,0.1601,0.03691,0.03437,-0.1412
-3.3,0.1822,0.03559,0.03301,-0.1444
-3.2,0.2051,0.03424,0.03161,-0.1478
-3.1,0.2285,0.03285,0.03017,-0.1513
-3,0.2524,0.03141,0.02869,-0.1548
-2.9,0.2775,0.02988,0.0271,-0.1585
-2.7,0.3309,0.02632,0.02336,-0.1668
-2.6,0.358,0.02459,0.02156,-0.1708
-2.5,0.3827,0.02335,0.02024,-0.1737
-2.4,0.4077,0.02204,0.01884,-0.1766
-2.3,0.4334,0.02056,0.01725,-0.1797
-2.2,0.4625,0.01821,0.01472,-0.1843
-2.1,0.4913,0.01565,0.0119,-0.1889
-2,0.5157,0.01392,0.00997,-0.1917
-1.9,0.5402,0.01161,0.0073,-0.1951
-1.8,0.5616,0.01033,0.00568,-0.1967
-1.7,0.5818,0.00959,0.00467,-0.1974
-1.6,0.6005,0.0093,0.00425,-0.1973
-1.5,0.6188,0.00904,0.00384,-0.1972
-1.4,0.6372,0.00883,0.00351,-0.197
-1.3,0.655,0.00868,0.00323,-0.1967
-1.2,0.6731,0.00855,0.00303,-0.1965
-1.1,0.6908,0.0085,0.00295,-0.1963
-1,0.7082,0.00843,0.0028,-0.1959
-0.9,0.7259,0.00836,0.00267,-0.1957
-0.8,0.7432,0.00831,0.00257,-0.1954
-0.7,0.7599,0.0083,0.0025,-0.195
-0.6,0.7771,0.00828,0.00244,-0.1947
-0.5,0.7942,0.00827,0.00241,-0.1944
-0.4,0.8114,0.00826,0.00236,-0.1941
-0.3,0.828,0.00826,0.00233,-0.1938
-0.2,0.8438,0.00831,0.00232,-0.1932
-0.1,0.8602,0.00833,0.0023,-0.1928
0,0.8758,0.00839,0.0023,-0.1922
0.1,0.8918,0.00844,0.00233,-0.1918
0.2,0.9049,0.00859,0.00237,-0.1907
0.3,0.92,0.00868,0.0024,-0.1901
0.4,0.9349,0.00879,0.00245,-0.1894
0.5,0.9497,0.00889,0.00251,-0.1887
0.6,0.9609,0.00914,0.00264,-0.1874
0.7,0.9746,0.0093,0.00274,-0.1865
0.8,0.9867,0.00953,0.00286,-0.1854
0.9,0.9991,0.00973,0.003,-0.1843
1,1.0095,0.01003,0.00318,-0.1829
1.1,1.0198,0.01034,0.00337,-0.1815
1.2,1.0285,0.01074,0.00361,-0.1799
1.3,1.0262,0.01171,0.00417,-0.1768
1.4,1.0386,0.01196,0.00437,-0.1758
1.5,1.0521,0.01216,0.00454,-0.1749
1.6,1.0663,0.01232,0.00469,-0.1742
1.7,1.0804,0.01249,0.00484,-0.1733
1.8,1.0949,0.01263,0.00497,-0.1726
1.9,1.1086,0.01282,0.00514,-0.1717
2,1.1231,0.01297,0.00528,-0.1709
2.1,1.1376,0.01311,0.00543,-0.17
2.2,1.1523,0.01325,0.00557,-0.1692
2.3,1.1666,0.0134,0.00573,-0.1683
2.4,1.1813,0.01354,0.00589,-0.1674
2.5,1.1953,0.01371,0.00604,-0.1665
2.6,1.2097,0.01386,0.00621,-0.1655
2.7,1.2243,0.014,0.00637,-0.1645
2.8,1.2385,0.01416,0.00654,-0.1635
2.9,1.2527,0.01432,0.00672,-0.1624
3,1.2668,0.01448,0.00692,-0.1613
3.1,1.2806,0.01465,0.00711,-0.1601
3.2,1.2941,0.01481,0.0073,-0.1588
3.3,1.3071,0.01497,0.00749,-0.1574
3.4,1.3196,0.01514,0.00769,-0.1558
3.5,1.332,0.01533,0.0079,-0.1543
3.6,1.3448,0.01551,0.00811,-0.1528
3.7,1.3581,0.01571,0.00834,-0.1513
3.8,1.372,0.01591,0.0086,-0.1499
3.9,1.3861,0.01611,0.00884,-0.1485
4,1.4003,0.01632,0.00911,-0.1471
4.1,1.4143,0.01656,0.00939,-0.1456
4.2,1.4288,0.01678,0.00967,-0.1442
4.3,1.4434,0.017,0.00997,-0.1428
4.4,1.4603,0.01615,0.0105,-0.1421
4.5,1.4745,0.01642,0.01082,-0.1405
4.6,1.4887,0.01672,0.01118,-0.1387
4.7,1.5027,0.01703,0.01154,-0.1369
4.8,1.5168,0.01736,0.01194,-0.135
4.9,1.5309,0.01771,0.01234,-0.1331
5,1.5446,0.01811,0.01281,-0.1311
5.1,1.5579,0.01856,0.01336,-0.1289
5.2,1.5711,0.01908,0.01398,-0.1266
5.3,1.5838,0.01967,0.0147,-0.1243
5.4,1.5963,0.02035,0.01552,-0.1219
5.5,1.6081,0.02113,0.01646,-0.1195
5.6,1.6185,0.02204,0.01755,-0.1172
5.7,1.6266,0.02306,0.01874,-0.1147
5.8,1.6317,0.02418,0.02004,-0.1123
5.9,1.6335,0.02545,0.02149,-0.1098
6,1.6327,0.0268,0.02302,-0.1074
6.2,1.6257,0.0297,0.02623,-0.1029
6.4,1.614,0.03286,0.02968,-0.0991
6.5,1.607,0.03457,0.03151,-0.0976
6.6,1.5995,0.03635,0.03342,-0.0964
6.8,1.5832,0.0402,0.03749,-0.095
6.9,1.5754,0.04224,0.03963,-0.0948
7,1.567,0.04441,0.0419,-0.095
7.2,1.5502,0.04906,0.04673,-0.0965
7.3,1.5413,0.05161,0.04935,-0.0979
7.4,1.5312,0.05441,0.05223,-0.0999
7.5,1.5216,0.05733,0.05523,-0.1022
7.7,1.5039,0.06356,0.06158,-0.1081
7.8,1.496,0.06681,0.06488,-0.1113
7.9,1.4886,0.07016,0.06829,-0.1148
8.1,1.4765,0.07696,0.07516,-0.1216
8.3,1.4667,0.08325,0.08149,-0.1275
8.4,1.4627,0.08623,0.08448,-0.1303
8.6,1.4579,0.09178,0.09003,-0.1353
8.7,1.4546,0.09468,0.09293,-0.138
8.8,1.4506,0.0977,0.09596,-0.1409
8.9,1.4476,0.10064,0.09889,-0.1436
9,1.4452,0.10347,0.10173,-0.1461
9.1,1.4434,0.10625,0.10451,-0.1486
9.2,1.4422,0.10899,0.10725,-0.151
9.3,1.4414,0.11169,0.10998,-0.1534
9.4,1.441,0.11434,0.11263,-0.1557
9.5,1.441,0.11696,0.11524,-0.1579
9.6,1.4415,0.11953,0.11782,-0.1601
9.7,1.4424,0.12206,0.12035,-0.1622
9.8,1.4436,0.12455,0.12285,-0.1643
9.9,1.445,0.12702,0.12532,-0.1663
10,1.4482,0.1292,0.1275,-0.168
10.1,1.4485,0.13196,0.13025,-0.1703
10.3,1.4503,0.13735,0.13564,-0.1748
10.4,1.4518,0.13994,0.13824,-0.1769
10.5,1.4537,0.1425,0.1408,-0.1789
10.6,1.4559,0.14501,0.14332,-0.1809
10.7,1.4584,0.14749,0.1458,-0.1829
10.8,1.4611,0.14995,0.14827,-0.1848
10.9,1.464,0.15238,0.15069,-0.1866
11,1.4671,0.15479,0.15311,-0.1885
11.1,1.4704,0.15716,0.15548,-0.1903
11.3,1.4774,0.16191,0.16022,-0.194
11.4,1.48,0.16463,0.16294,-0.1961
11.5,1.483,0.16727,0.16559,-0.1981
11.6,1.4863,0.16986,0.16818,-0.2001
11.7,1.4898,0.1724,0.17073,-0.202
11.8,1.4935,0.17492,0.17325,-0.2039
11.9,1.4974,0.17739,0.17572,-0.2058
12,1.5014,0.17984,0.17818,-0.2076
12.2,1.5102,0.18447,0.1828,-0.2112
12.3,1.5146,0.18675,0.18508,-0.2129
12.4,1.5182,0.18953,0.18786,-0.215
12.5,1.5222,0.19222,0.19055,-0.217
12.6,1.5263,0.19487,0.19321,-0.2189
12.7,1.5307,0.19746,0.19579,-0.2208
12.8,1.5351,0.20002,0.19835,-0.2227
12.9,1.5397,0.20256,0.20089,-0.2246
13,1.5443,0.20509,0.20342,-0.2264
13.1,1.5491,0.2076,0.20594,-0.2283
13.2,1.5539,0.21009,0.20844,-0.2301
13.3,1.5588,0.21257,0.21091,-0.2319
13.4,1.5638,0.21504,0.21338,-0.2337
13.5,1.5688,0.2175,0.21585,-0.2356
13.6,1.5739,0.21996,0.2183,-0.2374
13.7,1.579,0.2224,0.22074,-0.2392
13.8,1.5839,0.2256,0.22394,-0.2415
13.9,1.589,0.22832,0.22666,-0.2434
14,1.5942,0.23103,0.22938,-0.2453
14.1,1.5995,0.23372,0.23207,-0.2473
14.2,1.6048,0.2364,0.23475,-0.2492
14.3,1.6102,0.23906,0.23741,-0.251
14.4,1.6156,0.24174,0.2401,-0.253
14.5,1.6211,0.24439,0.24275,-0.2548
14.6,1.6266,0.24706,0.24542,-0.2567
14.7,1.6321,0.24973,0.24809,-0.2586
14.8,1.6377,0.2524,0.25076,-0.2605
14.9,1.6433,0.25506,0.25341,-0.2624
15,1.6489,0.25772,0.25608,-0.2642
15.1,1.6545,0.26038,0.25874,-0.2661
15.2,1.6601,0.26305,0.26141,-0.268
15.3,1.6657,0.26572,0.26408,-0.2699
15.4,1.6714,0.26838,0.26674,-0.2718
15.5,1.677,0.27107,0.26943,-0.2737
15.6,1.6828,0.27416,0.27251,-0.2757
15.7,1.6886,0.27729,0.27565,-0.2777
15.8,1.6944,0.28034,0.2787,-0.2798
15.9,1.7003,0.28345,0.2818,-0.2818
16,1.7062,0.28646,0.28482,-0.2838
16.1,1.712,0.28949,0.28784,-0.2858
16.2,1.718,0.29254,0.2909,-0.2878
16.3,1.7239,0.29559,0.29395,-0.2898
16.4,1.7298,0.29865,0.29701,-0.2918
16.5,1.7358,0.30169,0.30005,-0.2939
16.6,1.7417,0.30477,0.30314,-0.2959
16.7,1.7477,0.30785,0.30622,-0.2979
16.8,1.7536,0.31092,0.30928,-0.2999
17,1.7656,0.31722,0.31559,-0.3042
17.1,1.7716,0.32031,0.31868,-0.3063
17.2,1.7776,0.32341,0.32177,-0.3083
17.3,1.7836,0.32653,0.3249,-0.3104
17.4,1.7896,0.32966,0.32802,-0.3124
17.5,1.7956,0.3328,0.33118,-0.3145
17.6,1.8016,0.33596,0.33434,-0.3166
17.7,1.8076,0.33914,0.33752,-0.3187
17.8,1.8135,0.34231,0.34069,-0.3208
17.9,1.8195,0.34552,0.34391,-0.3229
18,1.8255,0.34874,0.34712,-0.325
18.1,1.8315,0.35197,0.35036,-0.3272
18.2,1.8375,0.35521,0.3536,-0.3293
18.3,1.8436,0.35882,0.3572,-0.3315
18.4,1.85,0.36276,0.36114,-0.3338
18.5,1.8562,0.36646,0.36484,-0.3361
18.6,1.8623,0.37012,0.3685,-0.3383
18.7,1.8685,0.37374,0.37212,-0.3406
18.8,1.8746,0.37739,0.37578,-0.3428
18.9,1.8808,0.38102,0.37941,-0.3451
19,1.8869,0.38469,0.38309,-0.3473
19.1,1.893,0.38831,0.3867,-0.3496
19.2,1.8991,0.39202,0.39041,-0.3519
19.3,1.9052,0.39573,0.39413,-0.3541
19.4,1.9113,0.39944,0.39783,-0.3564
19.5,1.9173,0.40314,0.40154,-0.3587
19.6,1.9235,0.40695,0.40535,-0.361
19.7,1.9295,0.41072,0.40912,-0.3633
19.8,1.9356,0.41451,0.41291,-0.3656
19.9,1.9417,0.41834,0.41675,-0.368
20,1.9477,0.42221,0.42061,-0.3703
20.1,1.9538,0.42607,0.42448,-0.3726
20.2,1.9598,0.42998,0.42839,-0.375
20.3,1.9659,0.43392,0.43233,-0.3774
20.4,1.9719,0.43785,0.43626,-0.3797
20.5,1.9779,0.44185,0.44026,-0.3821
20.6,1.9839,0.44585,0.44427,-0.3845
20.7,1.9899,0.44986,0.44829,-0.3869
20.8,1.9959,0.45395,0.45238,-0.3893
20.9,2.0019,0.45804,0.45647,-0.3917
21,2.0079,0.46217,0.46061,-0.3942
21.1,2.0139,0.46633,0.46476,-0.3966
21.2,2.0199,0.47051,0.46895,-0.399
21.3,2.0259,0.47474,0.47318,-0.4015
21.4,2.0318,0.47899,0.47743,-0.404
21.5,2.0377,0.48325,0.48169,-0.4065
21.6,2.0437,0.48757,0.48602,-0.409
21.7,2.0496,0.49193,0.49038,-0.4115
21.8,2.0555,0.49627,0.49472,-0.414
21.9,2.0614,0.50068,0.49913,-0.4165
22,2.0673,0.50513,0.50358,-0.419
22.1,2.0732,0.50961,0.50806,-0.4215
22.2,2.0791,0.51411,0.51256,-0.4241
22.3,2.085,0.51866,0.51711,-0.4266
22.4,2.0908,0.52321,0.52167,-0.4292
22.5,2.0967,0.52785,0.52631,-0.4318
22.6,2.1025,0.53247,0.53093,-0.4344
22.7,2.1081,0.53713,0.5356,-0.437
22.8,2.1139,0.54185,0.54032,-0.4397
22.9,2.1197,0.54658,0.54505,-0.4423
23,2.1254,0.55134,0.54982,-0.4449
23.1,2.1312,0.55614,0.55462,-0.4475
23.2,2.1369,0.56098,0.55945,-0.4502
23.3,2.1426,0.56584,0.56431,-0.4528
23.4,2.1483,0.57074,0.56922,-0.4555
23.9,2.1765,0.59606,0.59456,-0.469

