airfoilName st19.dat
Re 	90000
M 	7.000000e-01
N 	4.500000e+00
VACC 	0 VACCflag 1
XTR 	1.00 	1.00 XTRflag 0
alpha,cl,cd,cdp,cm
-20,-1.1899,0.39116,0.38435,0.1276
-19.9,-1.1833,0.38753,0.38072,0.1256
-19.8,-1.1768,0.38395,0.37714,0.1236
-19.7,-1.1702,0.38038,0.37357,0.1215
-19.6,-1.1637,0.37684,0.37003,0.1196
-19.5,-1.1571,0.37334,0.36653,0.1176
-19.4,-1.1506,0.36987,0.36306,0.1156
-19.3,-1.1441,0.3664,0.35959,0.1137
-19.2,-1.1375,0.36297,0.35616,0.1117
-19.1,-1.131,0.35958,0.35278,0.1098
-19,-1.1245,0.3562,0.34937,0.1079
-18.9,-1.118,0.35286,0.34604,0.106
-18.8,-1.1114,0.34953,0.34271,0.1041
-18.7,-1.105,0.3465,0.33967,0.1021
-18.6,-1.0985,0.34324,0.33642,0.1003
-18.5,-1.092,0.33999,0.33317,0.0984
-18.4,-1.0855,0.33678,0.32996,0.0966
-18.3,-1.079,0.33358,0.32676,0.0947
-18.2,-1.0725,0.33044,0.32362,0.0929
-18.1,-1.066,0.3273,0.32049,0.0911
-18,-1.0595,0.32419,0.31738,0.0893
-17.9,-1.0531,0.32111,0.3143,0.0875
-17.8,-1.0466,0.31806,0.31126,0.0857
-17.7,-1.0402,0.31503,0.30823,0.084
-17.6,-1.0337,0.31202,0.30522,0.0822
-17.5,-1.0273,0.30904,0.30224,0.0805
-17.4,-1.0208,0.30608,0.29928,0.0788
-17.3,-1.0144,0.30315,0.29636,0.0771
-17.2,-1.008,0.30024,0.29345,0.0753
-17.1,-1.0015,0.29735,0.29056,0.0736
-17,-0.9951,0.29448,0.28769,0.072
-16.9,-0.9887,0.29164,0.28486,0.0703
-16.8,-0.9823,0.28882,0.28204,0.0686
-16.7,-0.9759,0.28603,0.27925,0.067
-16.6,-0.9695,0.28326,0.27648,0.0653
-16.5,-0.9631,0.28051,0.27374,0.0637
-16.4,-0.9567,0.27779,0.27102,0.0621
-16.3,-0.9504,0.27508,0.26832,0.0605
-16.2,-0.944,0.27241,0.26565,0.0589
-16.1,-0.9377,0.26976,0.263,0.0573
-16,-0.9313,0.26713,0.26035,0.0557
-15.9,-0.925,0.26452,0.25774,0.0542
-15.8,-0.9186,0.26193,0.25516,0.0526
-15.7,-0.9123,0.25937,0.2526,0.0511
-15.6,-0.906,0.25683,0.25006,0.0495
-15.5,-0.8997,0.2543,0.24754,0.048
-15.4,-0.8934,0.2518,0.24505,0.0465
-15.3,-0.8871,0.24932,0.24257,0.045
-15.2,-0.8807,0.24686,0.24012,0.0435
-15.1,-0.8744,0.24441,0.23767,0.042
-15,-0.8681,0.24198,0.23525,0.0405
-14.9,-0.8618,0.23956,0.23283,0.039
-14.8,-0.8555,0.23716,0.23044,0.0375
-14.7,-0.8491,0.23478,0.22806,0.036
-14.6,-0.8428,0.2324,0.22569,0.0345
-14.5,-0.8363,0.23001,0.2233,0.033
-14.4,-0.8299,0.22764,0.22093,0.0315
-14.3,-0.8233,0.22522,0.21852,0.03
-14.1,-0.8099,0.22044,0.21379,0.0269
-14,-0.8041,0.21818,0.21154,0.0257
-13.9,-0.7983,0.21595,0.20931,0.0245
-13.8,-0.7925,0.21373,0.2071,0.0233
-13.7,-0.7867,0.21154,0.20492,0.0221
-13.6,-0.781,0.20936,0.20274,0.0209
-13.5,-0.7752,0.2072,0.20059,0.0198
-13.4,-0.7695,0.20506,0.19846,0.0186
-13.3,-0.7638,0.20294,0.19634,0.0175
-13.2,-0.7581,0.20083,0.19425,0.0164
-13.1,-0.7525,0.19875,0.19217,0.0153
-13,-0.7469,0.19668,0.19011,0.0142
-12.9,-0.7413,0.19463,0.18804,0.0131
-12.8,-0.7357,0.19259,0.18601,0.0121
-12.7,-0.7301,0.19058,0.18401,0.011
-12.6,-0.7246,0.18858,0.18202,0.01
-12.5,-0.7191,0.1866,0.18005,0.009
-12.4,-0.7136,0.18464,0.1781,0.008
-12.3,-0.7081,0.1827,0.17617,0.007
-12.2,-0.7027,0.18078,0.17425,0.006
-12,-0.6918,0.17721,0.17071,0.004
-11.9,-0.6865,0.17533,0.16884,0.0031
-11.8,-0.6811,0.17347,0.16699,0.0022
-11.7,-0.6758,0.17163,0.16516,0.0013
-11.6,-0.6706,0.16981,0.16335,0.0004
-11.5,-0.6654,0.168,0.16155,-0.0004
-11.4,-0.6602,0.16622,0.15978,-0.0013
-11.3,-0.6551,0.16446,0.15803,-0.0021
-11.2,-0.65,0.16271,0.15629,-0.0029
-11.1,-0.645,0.16098,0.15458,-0.0037
-11,-0.64,0.15928,0.15288,-0.0044
-10.9,-0.635,0.15759,0.15121,-0.0052
-10.8,-0.6302,0.15592,0.14956,-0.0059
-10.7,-0.6254,0.15427,0.14792,-0.0066
-10.6,-0.6206,0.15264,0.14631,-0.0073
-10.5,-0.6159,0.15104,0.14472,-0.0079
-10.4,-0.6113,0.14946,0.14315,-0.0085
-10.3,-0.6068,0.14789,0.1416,-0.0091
-10.2,-0.6024,0.14635,0.14008,-0.0097
-10.1,-0.598,0.14483,0.13857,-0.0102
-10,-0.5938,0.14333,0.1371,-0.0107
-9.9,-0.5897,0.14186,0.13564,-0.0112
-9.8,-0.5857,0.14041,0.13419,-0.0116
-9.7,-0.5818,0.13899,0.13278,-0.012
-9.6,-0.5779,0.13758,0.1314,-0.0124
-9.5,-0.5742,0.1362,0.13004,-0.0127
-9.4,-0.5706,0.13484,0.1287,-0.013
-9.3,-0.5671,0.13349,0.12738,-0.0133
-9.2,-0.5636,0.13217,0.12608,-0.0136
-9.1,-0.5603,0.13087,0.1248,-0.0138
-9,-0.5571,0.1296,0.12355,-0.014
-8.9,-0.554,0.12835,0.12233,-0.0142
-8.8,-0.5508,0.12713,0.12114,-0.0144
-8.7,-0.5476,0.12597,0.12001,-0.0147
-8.6,-0.5451,0.12482,0.11892,-0.0148
-8.5,-0.5431,0.12367,0.1178,-0.0146
-8.4,-0.5413,0.12253,0.1167,-0.0144
-8.3,-0.5396,0.12143,0.11562,-0.0142
-8.2,-0.5381,0.12036,0.11458,-0.0139
-8.1,-0.5367,0.1193,0.11355,-0.0136
-8,-0.5355,0.11827,0.11256,-0.0132
-7.9,-0.5345,0.11727,0.11158,-0.0128
-7.8,-0.5337,0.11629,0.11064,-0.0124
-7.7,-0.533,0.11533,0.10971,-0.0119
-7.4,-0.5321,0.11258,0.10706,-0.0103
-7.3,-0.5322,0.11171,0.10622,-0.0097
-7.2,-0.5325,0.11086,0.10541,-0.009
-7.1,-0.5221,0.10912,0.10367,-0.0112
-7,-0.5129,0.10752,0.10207,-0.013
-6.9,-0.5036,0.10593,0.10049,-0.0149
-6.8,-0.4946,0.10438,0.09893,-0.0166
-6.7,-0.4858,0.10286,0.09742,-0.0184
-6.6,-0.4766,0.10134,0.09591,-0.0201
-6.4,-0.4575,0.09831,0.09286,-0.0239
-6.3,-0.4493,0.09692,0.09148,-0.0254
-6.2,-0.4402,0.0955,0.09007,-0.0272
-6,-0.4215,0.09267,0.08724,-0.0308
-5.9,-0.4146,0.09143,0.08601,-0.0319
-5.8,-0.4041,0.08996,0.08455,-0.0339
-5.7,-0.3923,0.08845,0.08303,-0.0363
-5.6,-0.3762,0.08693,0.08151,-0.0401
-5.5,-0.3693,0.08574,0.08032,-0.0411
-5.4,-0.3592,0.08438,0.07897,-0.043
-5.3,-0.3455,0.08284,0.07742,-0.0459
-5.2,-0.3308,0.08129,0.07587,-0.049
-5.1,-0.3135,0.07968,0.07424,-0.0528
-5,-0.3068,0.07866,0.07326,-0.0539
-4.9,-0.296,0.07728,0.07188,-0.0557
-4.5,-0.2497,0.07189,0.06648,-0.0634
-4.4,-0.2362,0.0705,0.06509,-0.0656
-4.3,-0.2211,0.06907,0.06365,-0.0683
-4.2,-0.2045,0.0676,0.06216,-0.0712
-4,-0.1835,0.06529,0.05985,-0.074
-3.9,-0.1684,0.06395,0.05848,-0.0765
-3.8,-0.1508,0.06253,0.05703,-0.0795
-3.7,-0.1298,0.06096,0.05543,-0.0832
-3.6,-0.1183,0.05985,0.05431,-0.0847
-3.5,-0.1065,0.05874,0.05319,-0.0862
-3.4,-0.088,0.05736,0.05179,-0.0892
-3.3,-0.0652,0.0558,0.05019,-0.0932
-3.2,-0.0411,0.05423,0.04857,-0.0974
-2.9,0.0176,0.05015,0.0444,-0.1067
-2.8,0.0388,0.04882,0.04304,-0.1097
-2.7,0.0623,0.04766,0.04184,-0.1131
-2.5,0.098,0.0454,0.03949,-0.1174
-2.4,0.1214,0.04409,0.03813,-0.1206
-2.3,0.1486,0.04267,0.03663,-0.1247
-2.1,0.2177,0.03911,0.03282,-0.1361
-2,0.2428,0.03796,0.03161,-0.139
-1.8,0.2749,0.03633,0.02987,-0.1411
-1.7,0.3018,0.03518,0.02863,-0.1443
-1.6,0.3377,0.0336,0.02681,-0.1496
-1.5,0.3697,0.0321,0.02515,-0.1539
-1.4,0.3862,0.03147,0.02446,-0.1545
-1.3,0.4039,0.03083,0.02374,-0.1554
-1.2,0.4284,0.02995,0.02272,-0.1575
-1.1,0.4576,0.02879,0.02134,-0.1606
-1,0.4867,0.02779,0.0201,-0.1636
-0.9,0.5117,0.02714,0.01931,-0.1654
-0.8,0.5241,0.02675,0.0188,-0.165
-0.7,0.5474,0.02592,0.01766,-0.1666
-0.6,0.5711,0.02531,0.01687,-0.168
-0.4,0.6192,0.02441,0.01552,-0.1707
-0.3,0.6282,0.02436,0.01549,-0.1693
-0.2,0.6469,0.02415,0.01525,-0.1696
-0.1,0.6683,0.02385,0.01483,-0.1704
0.2,0.7189,0.02347,0.0142,-0.1701
0.3,0.7396,0.02327,0.01392,-0.1706
0.4,0.762,0.02306,0.0137,-0.1712
0.5,0.7708,0.02316,0.01378,-0.1699
0.6,0.7881,0.02319,0.01379,-0.1698
0.8,0.8205,0.02291,0.0134,-0.1686
0.9,0.8434,0.02266,0.0132,-0.1691
1,0.8516,0.02271,0.01326,-0.1673
1.2,0.8825,0.02262,0.01319,-0.1659
1.3,0.8948,0.02268,0.01324,-0.1649
1.4,0.9142,0.02248,0.0131,-0.1647
1.5,0.9243,0.02253,0.01317,-0.1631
1.6,0.9365,0.02255,0.01321,-0.1618
1.7,0.9494,0.02253,0.01323,-0.1606
1.8,0.9681,0.02239,0.01319,-0.1603
1.9,0.9795,0.02241,0.01325,-0.1589
2,0.9968,0.02233,0.01324,-0.1583
2.1,1.0131,0.02229,0.01328,-0.1576
2.2,1.0317,0.02215,0.01325,-0.1572
2.3,1.0547,0.02179,0.01298,-0.1569
2.4,1.0828,0.02138,0.01265,-0.1573
2.5,1.118,0.02067,0.012,-0.1582
2.6,1.15,0.02002,0.01155,-0.1589
2.7,1.1583,0.01911,0.011,-0.155
2.8,1.1768,0.01917,0.01084,-0.1536
2.9,1.1865,0.01951,0.01084,-0.1511
3,1.1947,0.01994,0.01109,-0.1489
3.1,1.2022,0.02043,0.01143,-0.1467
3.2,1.2099,0.02093,0.01181,-0.1447
3.3,1.218,0.02144,0.01226,-0.1428
3.4,1.2268,0.02195,0.0127,-0.1411
3.5,1.2314,0.0226,0.01322,-0.1388
3.6,1.2408,0.02311,0.01369,-0.1372
3.7,1.2504,0.02364,0.01419,-0.1355
3.8,1.2605,0.02417,0.01471,-0.1339
3.9,1.2714,0.02471,0.01525,-0.1325
4,1.2787,0.02535,0.01585,-0.1307
4.1,1.2908,0.02589,0.01643,-0.1293
4.2,1.3016,0.0265,0.01704,-0.1278
4.3,1.3147,0.02705,0.01768,-0.1265
4.4,1.3265,0.02768,0.01836,-0.1251
4.5,1.3389,0.02832,0.01906,-0.1238
4.6,1.3462,0.02902,0.01979,-0.122
4.7,1.359,0.02969,0.02058,-0.1207
4.8,1.3703,0.03043,0.02142,-0.1192
4.9,1.3804,0.03121,0.02227,-0.1177
5,1.3917,0.03205,0.02327,-0.1163
5.2,1.406,0.03381,0.02527,-0.113
5.3,1.4132,0.03481,0.02641,-0.1114
5.4,1.419,0.03584,0.02762,-0.1098
5.5,1.4239,0.03697,0.02887,-0.1083
5.6,1.4272,0.03823,0.03032,-0.1069
5.7,1.4289,0.03954,0.03179,-0.1055
5.8,1.4295,0.04088,0.03328,-0.1041
5.9,1.4293,0.04227,0.03479,-0.1028
6,1.4245,0.04376,0.03641,-0.1018
6.5,1.406,0.05234,0.04555,-0.0994
6.7,1.3907,0.0569,0.05031,-0.1012
6.8,1.3833,0.05929,0.0528,-0.1024
6.9,1.3764,0.06173,0.05532,-0.1039
7,1.3701,0.0642,0.05786,-0.1056
7.1,1.3648,0.06668,0.06041,-0.1074
7.2,1.3603,0.06913,0.06291,-0.1092
7.3,1.3569,0.07152,0.06535,-0.1109
7.4,1.3547,0.07382,0.06767,-0.1125
7.5,1.3537,0.07599,0.06987,-0.1138
7.6,1.3424,0.07994,0.07386,-0.1194
7.7,1.3405,0.0825,0.07645,-0.1216
7.8,1.3397,0.08494,0.07892,-0.1236
7.9,1.3398,0.08723,0.08123,-0.1252
8,1.3408,0.08935,0.08337,-0.1266
8.1,1.3412,0.09171,0.08571,-0.1283
8.2,1.3389,0.09475,0.08878,-0.1315
8.3,1.338,0.09753,0.09157,-0.1341
8.4,1.338,0.1001,0.09416,-0.1363
8.5,1.3388,0.10254,0.09662,-0.1383
8.6,1.3401,0.10485,0.09894,-0.1401
8.7,1.342,0.10705,0.10115,-0.1416
8.8,1.3444,0.10915,0.10327,-0.143
8.9,1.3472,0.11116,0.10529,-0.1442
9,1.3462,0.1141,0.1082,-0.148
9.1,1.348,0.11649,0.1106,-0.15
9.2,1.3503,0.11878,0.1129,-0.1518
9.3,1.353,0.12098,0.11511,-0.1534
9.4,1.356,0.1231,0.11724,-0.1549
9.5,1.3593,0.12514,0.1193,-0.1562
9.6,1.3628,0.12712,0.12129,-0.1574
9.7,1.3665,0.12904,0.12322,-0.1584
9.8,1.3705,0.13088,0.12507,-0.1593
9.9,1.3725,0.13355,0.12772,-0.1619
10,1.375,0.13613,0.13031,-0.1643
10.1,1.3779,0.13857,0.13276,-0.1664
10.2,1.3813,0.14091,0.13511,-0.1683
10.3,1.3849,0.14317,0.13738,-0.17
10.4,1.3887,0.14504,0.13926,-0.1719
10.5,1.393,0.14702,0.14126,-0.1731
10.6,1.3973,0.14896,0.1432,-0.1742
10.7,1.4018,0.15084,0.14514,-0.1752
10.8,1.4053,0.15337,0.14765,-0.1775
10.9,1.4088,0.15595,0.15023,-0.1798
11,1.4127,0.1584,0.15269,-0.1819
11.1,1.4168,0.16075,0.15506,-0.1838
11.2,1.4211,0.16305,0.15737,-0.1856
11.3,1.4255,0.1653,0.15963,-0.1873
11.4,1.4301,0.16751,0.16185,-0.1889
11.5,1.4347,0.16969,0.16405,-0.1904
11.6,1.4395,0.17185,0.16621,-0.1919
11.7,1.4443,0.17397,0.16835,-0.1933
11.9,1.4537,0.17793,0.17228,-0.1965
12,1.4583,0.18054,0.1749,-0.1988
12.1,1.463,0.18302,0.17739,-0.2009
12.2,1.4679,0.18545,0.17983,-0.2028
12.3,1.4729,0.18783,0.18222,-0.2046
12.4,1.478,0.19017,0.18457,-0.2064
12.5,1.4832,0.19249,0.1869,-0.2081
12.6,1.4884,0.19479,0.1892,-0.2098
12.7,1.4937,0.19707,0.19149,-0.2114
12.8,1.499,0.19933,0.19376,-0.2129
12.9,1.5045,0.20157,0.19601,-0.2145
13,1.5099,0.20381,0.19825,-0.216
13.1,1.5153,0.20603,0.20048,-0.2175
13.2,1.5208,0.20823,0.20269,-0.2189
13.3,1.5257,0.21093,0.20535,-0.222
13.4,1.5312,0.21352,0.20794,-0.2241
13.5,1.5367,0.21606,0.2105,-0.226
13.6,1.5423,0.21857,0.21301,-0.2279
13.7,1.5479,0.22106,0.21551,-0.2298
13.8,1.5536,0.22354,0.21799,-0.2316
13.9,1.5593,0.22599,0.22045,-0.2334
14,1.565,0.22844,0.22291,-0.2351
14.1,1.5708,0.23088,0.22536,-0.2368
14.2,1.5766,0.23332,0.2278,-0.2385
14.3,1.5824,0.23575,0.23024,-0.2402
14.5,1.5941,0.24061,0.23513,-0.2436
14.6,1.6,0.24303,0.23756,-0.2452
14.7,1.6058,0.24545,0.23998,-0.2468
14.8,1.6117,0.24787,0.24241,-0.2485
14.9,1.6176,0.25031,0.2448,-0.2501
15,1.6236,0.25343,0.24794,-0.2527
15.1,1.6294,0.25668,0.25119,-0.2561
15.2,1.6354,0.25942,0.25393,-0.2581
15.3,1.6415,0.26213,0.25665,-0.26
15.4,1.6476,0.26484,0.25937,-0.262
15.5,1.6536,0.26755,0.26208,-0.2639
15.6,1.6598,0.27026,0.2648,-0.2658
15.7,1.6659,0.27298,0.26752,-0.2677
15.8,1.672,0.27569,0.27023,-0.2695
15.9,1.6781,0.27842,0.27296,-0.2714
16,1.6843,0.28114,0.27569,-0.2733
16.1,1.6904,0.28388,0.27843,-0.2752
16.2,1.6966,0.28662,0.28118,-0.2771
16.3,1.7028,0.28937,0.28393,-0.2789
16.4,1.709,0.29213,0.28669,-0.2808
16.5,1.7152,0.29489,0.28946,-0.2827
16.6,1.7213,0.29767,0.29224,-0.2846
16.7,1.7275,0.30045,0.29503,-0.2864
16.8,1.7338,0.30378,0.29832,-0.2889
16.9,1.7401,0.30709,0.30164,-0.2913
17,1.7465,0.31031,0.30487,-0.2936
17.1,1.7528,0.31351,0.30806,-0.2958
17.2,1.7591,0.31667,0.31123,-0.298
17.3,1.7655,0.31984,0.31441,-0.3002
17.4,1.7715,0.32281,0.31738,-0.3028
17.5,1.7778,0.32591,0.32049,-0.3049
17.6,1.7841,0.32902,0.3236,-0.307
17.7,1.7904,0.33215,0.32673,-0.3091
17.8,1.7967,0.33528,0.3299,-0.3112
17.9,1.803,0.33845,0.33307,-0.3133
18,1.8093,0.3416,0.33623,-0.3154
18.1,1.8157,0.3448,0.33942,-0.3175
18.2,1.822,0.348,0.34263,-0.3197
18.3,1.8283,0.35121,0.34584,-0.3218
18.4,1.8346,0.35445,0.34909,-0.3239
18.5,1.8409,0.35771,0.35236,-0.3261
18.6,1.8472,0.36098,0.35563,-0.3282
18.7,1.8536,0.36428,0.35893,-0.3304
18.8,1.8599,0.36759,0.36225,-0.3325
18.9,1.8662,0.37092,0.36558,-0.3347
19,1.8725,0.37427,0.36894,-0.3369
19.1,1.8788,0.37784,0.37247,-0.3392
19.2,1.8852,0.38174,0.37638,-0.3418
19.3,1.8916,0.38554,0.38018,-0.3443
19.4,1.8979,0.38926,0.38392,-0.3467
19.5,1.9042,0.39295,0.38761,-0.3491
19.6,1.9106,0.39671,0.39137,-0.3516
19.7,1.9169,0.40043,0.39509,-0.354
19.8,1.9232,0.40414,0.39881,-0.3563
19.9,1.9295,0.40789,0.40257,-0.3587
20,1.9358,0.41166,0.40634,-0.3611
20.1,1.9421,0.41543,0.41011,-0.3635
20.2,1.9484,0.41923,0.41392,-0.3659
20.3,1.9547,0.42305,0.41775,-0.3683
20.4,1.961,0.42687,0.42158,-0.3707
20.5,1.9673,0.43075,0.42546,-0.3731
20.6,1.9735,0.43462,0.42934,-0.3755
20.7,1.9797,0.43852,0.43324,-0.3779
20.8,1.986,0.44247,0.4372,-0.3804
20.9,1.9922,0.44643,0.44119,-0.3828
21,1.9985,0.45043,0.44519,-0.3853
21.1,2.0047,0.45445,0.44922,-0.3877
21.2,2.0109,0.4585,0.45327,-0.3902
21.4,2.023,0.46599,0.46078,-0.3952
21.5,2.0291,0.4701,0.46489,-0.3977
21.6,2.0353,0.47425,0.46905,-0.4002
21.7,2.0415,0.47842,0.47322,-0.4027
21.8,2.0477,0.48263,0.47744,-0.4052
21.9,2.0538,0.48686,0.48167,-0.4077
22,2.06,0.49113,0.48596,-0.4102
22.1,2.0661,0.49544,0.49027,-0.4128
22.2,2.0723,0.49979,0.49462,-0.4153
22.3,2.0784,0.50416,0.499,-0.4179
22.4,2.0845,0.50856,0.50341,-0.4204
22.5,2.0906,0.51302,0.50787,-0.423
22.6,2.0966,0.51791,0.51275,-0.4259
22.7,2.1026,0.52271,0.51756,-0.4287
22.8,2.1087,0.5275,0.52235,-0.4315
22.9,2.1147,0.53227,0.52713,-0.4343
23,2.1207,0.53703,0.53189,-0.4371
23.1,2.1267,0.54181,0.53668,-0.4398
23.2,2.1327,0.54662,0.5415,-0.4426
23.3,2.1387,0.55146,0.54635,-0.4453
23.4,2.1446,0.55635,0.55124,-0.4481
23.5,2.1506,0.56121,0.55612,-0.4509
23.6,2.1565,0.56611,0.56102,-0.4536
23.7,2.1624,0.57099,0.56591,-0.4564
23.9,2.1724,0.55419,0.5491,-0.4612
24,2.1785,0.55991,0.55485,-0.4641
24.1,2.1846,0.5657,0.56066,-0.467
24.2,2.1905,0.57147,0.56644,-0.4698
24.3,2.1965,0.57735,0.57232,-0.4727
24.4,2.2025,0.58332,0.5783,-0.4755
24.5,2.2085,0.58929,0.58428,-0.4784
24.6,2.2144,0.59542,0.59042,-0.4813
24.7,2.2204,0.60173,0.59673,-0.4842
24.8,2.2262,0.60801,0.60302,-0.4871
24.9,2.2321,0.61472,0.60974,-0.49
25,2.2381,0.62295,0.61798,-0.493

