airfoilName st20.dat
Re 	790000
M 	7.000000e-01
N 	4.500000e+00
VACC 	0 VACCflag 1
XTR 	1.00 	1.00 XTRflag 0
alpha,cl,cd,cdp,cm
-30,-1.7829,0.87727,0.87532,0.4041
-29.9,-1.7776,0.86988,0.86793,0.4009
-29.8,-1.7723,0.86254,0.86058,0.3977
-29.7,-1.767,0.85529,0.85333,0.3945
-29.6,-1.7616,0.84811,0.84615,0.3912
-29.5,-1.7562,0.84091,0.83895,0.388
-29.4,-1.7508,0.83385,0.83189,0.3849
-29.3,-1.7454,0.82685,0.82489,0.3817
-29.2,-1.74,0.81995,0.81799,0.3785
-29.1,-1.7345,0.81304,0.81107,0.3754
-29,-1.729,0.80625,0.80429,0.3722
-28.9,-1.7235,0.7995,0.79753,0.3691
-28.8,-1.718,0.79284,0.79086,0.3659
-28.7,-1.7124,0.78612,0.78414,0.3628
-28.6,-1.7069,0.7796,0.77761,0.3597
-28.5,-1.7013,0.77313,0.77114,0.3566
-28.4,-1.6956,0.76662,0.76463,0.3535
-28.3,-1.69,0.76022,0.75823,0.3505
-28.2,-1.6844,0.75388,0.75189,0.3474
-28.1,-1.6787,0.74757,0.74557,0.3443
-28,-1.673,0.74133,0.73934,0.3413
-27.9,-1.6673,0.73514,0.73314,0.3382
-27.8,-1.6616,0.72902,0.72702,0.3352
-27.7,-1.6557,0.72291,0.72091,0.3322
-27.6,-1.65,0.7169,0.7149,0.3292
-27.5,-1.6442,0.71096,0.70896,0.3262
-27.4,-1.6384,0.70504,0.70303,0.3232
-27.3,-1.6326,0.69916,0.69715,0.3202
-27.2,-1.6268,0.69333,0.69133,0.3173
-27.1,-1.6209,0.68758,0.68557,0.3143
-27,-1.615,0.68183,0.67982,0.3114
-26.9,-1.6091,0.67616,0.67414,0.3084
-26.8,-1.6032,0.67053,0.66852,0.3055
-26.7,-1.5973,0.66492,0.6629,0.3026
-26.6,-1.5913,0.65939,0.65738,0.2997
-26.5,-1.5854,0.65394,0.65192,0.2968
-26.4,-1.5794,0.64847,0.64645,0.294
-26.3,-1.5734,0.64306,0.64104,0.2911
-26.2,-1.5674,0.63775,0.63573,0.2882
-26.1,-1.5613,0.63238,0.63036,0.2854
-26,-1.5553,0.62714,0.62511,0.2825
-25.9,-1.5492,0.62186,0.61983,0.2797
-25.8,-1.5432,0.61672,0.61468,0.2769
-25.7,-1.5371,0.61159,0.60955,0.2741
-25.6,-1.531,0.6065,0.60446,0.2713
-25.5,-1.5249,0.60145,0.59941,0.2685
-25.4,-1.5188,0.59643,0.59438,0.2657
-25.3,-1.5126,0.59146,0.58942,0.263
-25.2,-1.5064,0.58653,0.58448,0.2602
-25.1,-1.5003,0.58164,0.5796,0.2575
-25,-1.4941,0.57681,0.57476,0.2548
-24.9,-1.4879,0.57199,0.56994,0.252
-24.8,-1.4817,0.56723,0.56518,0.2493
-24.7,-1.4755,0.56252,0.56048,0.2466
-24.6,-1.4692,0.55783,0.55578,0.2439
-24.5,-1.463,0.55321,0.55116,0.2413
-24.4,-1.4567,0.54861,0.54656,0.2386
-24.3,-1.4505,0.54405,0.542,0.2359
-24.2,-1.4442,0.53955,0.5375,0.2333
-24.1,-1.4379,0.53511,0.53306,0.2306
-24,-1.4316,0.53068,0.52863,0.228
-23.9,-1.4253,0.52635,0.52429,0.2254
-23.8,-1.419,0.52203,0.51997,0.2227
-23.7,-1.4126,0.51772,0.51567,0.2201
-23.6,-1.4061,0.51597,0.51391,0.2168
-23.5,-1.3998,0.51216,0.5101,0.2141
-23.4,-1.3934,0.5081,0.50604,0.2115
-23.3,-1.3871,0.50449,0.50244,0.2088
-23.2,-1.3807,0.50052,0.49846,0.2063
-21.3,-1.258,0.42634,0.42428,0.1603
-21.2,-1.2515,0.4224,0.42034,0.1581
-21.1,-1.2451,0.41853,0.41647,0.156
-21,-1.2387,0.41466,0.4126,0.1538
-20.9,-1.2322,0.41085,0.40879,0.1516
-20.8,-1.2258,0.40707,0.40501,0.1495
-20.7,-1.2194,0.40332,0.40126,0.1473
-20.6,-1.213,0.39957,0.39751,0.1452
-20.5,-1.2066,0.39587,0.3938,0.1431
-20.4,-1.2001,0.39222,0.39015,0.141
-20.3,-1.1937,0.38861,0.38654,0.1389
-20.2,-1.1873,0.38499,0.38293,0.1369
-20.1,-1.1809,0.38143,0.37937,0.1348
-20,-1.1745,0.37787,0.3758,0.1328
-19.9,-1.1681,0.37439,0.37231,0.1307
-19.8,-1.1617,0.37087,0.3688,0.1287
-19.7,-1.1553,0.36743,0.36535,0.1267
-19.6,-1.1489,0.36402,0.36194,0.1247
-19.5,-1.1425,0.36065,0.35857,0.1227
-19.4,-1.1361,0.35728,0.35521,0.1207
-19.3,-1.1298,0.35396,0.35189,0.1188
-19.2,-1.1234,0.35068,0.3486,0.1168
-19.1,-1.117,0.34741,0.34533,0.1149
-19,-1.1107,0.34418,0.3421,0.1129
-18.9,-1.1043,0.34099,0.33891,0.111
-18.8,-1.098,0.33781,0.33574,0.1091
-18.7,-1.0917,0.33468,0.3326,0.1072
-18.6,-1.0853,0.33157,0.32949,0.1053
-18.5,-1.079,0.32848,0.32641,0.1035
-18.4,-1.0727,0.32543,0.32335,0.1016
-18.3,-1.0664,0.32239,0.32032,0.0997
-18.2,-1.06,0.31939,0.31732,0.0979
-18.1,-1.0537,0.31641,0.31433,0.0961
-18,-1.0474,0.31345,0.31137,0.0943
-17.9,-1.0412,0.31052,0.30845,0.0925
-17.8,-1.0349,0.3076,0.30553,0.0907
-17.7,-1.0286,0.30472,0.30264,0.0889
-17.6,-1.0223,0.30185,0.29978,0.0871
-17.5,-1.016,0.29899,0.29692,0.0854
-17.4,-1.0097,0.29616,0.29409,0.0836
-17.3,-1.0034,0.29334,0.29127,0.0819
-17.2,-0.9971,0.29054,0.28847,0.0802
-17.1,-0.9908,0.28776,0.2857,0.0784
-17,-0.9845,0.28501,0.28294,0.0767
-16.9,-0.9783,0.28227,0.2802,0.0751
-16.8,-0.972,0.27955,0.27747,0.0734
-16.7,-0.9657,0.27684,0.27477,0.0717
-16.6,-0.9595,0.27416,0.27209,0.07
-16.5,-0.9532,0.2715,0.26943,0.0684
-16.4,-0.947,0.26886,0.26679,0.0668
-16.3,-0.9407,0.26623,0.26416,0.0651
-16.2,-0.9345,0.26363,0.26156,0.0635
-16.1,-0.9283,0.26105,0.25898,0.0619
-16,-0.922,0.25848,0.25641,0.0603
-15.9,-0.9158,0.25593,0.25386,0.0587
-15.8,-0.9096,0.25341,0.25134,0.0571
-15.7,-0.9034,0.2509,0.24883,0.0556
-15.6,-0.8972,0.24841,0.24634,0.054
-15.5,-0.891,0.24594,0.24387,0.0524
-15.4,-0.8848,0.24349,0.24143,0.0509
-15.3,-0.8787,0.24106,0.239,0.0494
-15.2,-0.8725,0.23864,0.23659,0.0478
-15.1,-0.8663,0.23625,0.23419,0.0463
-15,-0.8602,0.23388,0.23182,0.0448
-14.9,-0.8533,0.232,0.22995,0.0428
-14.8,-0.8471,0.22964,0.22758,0.0413
-14.7,-0.8409,0.22728,0.22522,0.0398
-14.6,-0.8348,0.22493,0.22288,0.0383
-14.5,-0.8286,0.2226,0.22055,0.0368
-14.4,-0.8224,0.22027,0.21822,0.0354
-14.3,-0.8162,0.21795,0.21591,0.0339
-14.2,-0.81,0.21565,0.2136,0.0325
-14.1,-0.8039,0.21334,0.2113,0.0311
-14,-0.7978,0.21105,0.20901,0.0296
-13.9,-0.7916,0.20875,0.20672,0.0283
-13.8,-0.7855,0.20648,0.20444,0.0269
-13.7,-0.7794,0.20419,0.20215,0.0255
-13.6,-0.7733,0.20193,0.19989,0.0242
-13.5,-0.7671,0.19964,0.1976,0.0228
-13.4,-0.7608,0.19736,0.19532,0.0215
-13.3,-0.7543,0.19512,0.19309,0.0201
-13.1,-0.7409,0.19083,0.18881,0.0171
-13,-0.7353,0.18868,0.18666,0.016
-12.9,-0.7297,0.18654,0.18453,0.0149
-12.8,-0.7242,0.18443,0.18242,0.0138
-12.7,-0.7187,0.18234,0.18033,0.0127
-12.6,-0.7131,0.18028,0.17828,0.0116
-12.5,-0.7076,0.17825,0.17624,0.0105
-12.4,-0.7021,0.17623,0.17423,0.0094
-12.3,-0.6966,0.17423,0.17224,0.0083
-12.2,-0.6911,0.17227,0.17027,0.0073
-12.1,-0.6857,0.17033,0.16834,0.0062
-12,-0.6802,0.16842,0.16643,0.0052
-11.9,-0.6748,0.16653,0.16454,0.0041
-11.8,-0.6694,0.16467,0.16269,0.0031
-11.7,-0.664,0.16284,0.16086,0.0022
-11.6,-0.6587,0.16102,0.15905,0.0012
-11.5,-0.6533,0.15924,0.15727,0.0002
-11.4,-0.6481,0.15748,0.15551,-0.0007
-11.3,-0.6429,0.15574,0.15378,-0.0016
-11.2,-0.6378,0.15403,0.15207,-0.0024
-11.1,-0.6328,0.15235,0.1504,-0.0033
-11,-0.6278,0.15069,0.14874,-0.0041
-10.9,-0.623,0.14906,0.14712,-0.0048
-10.8,-0.6184,0.14747,0.14553,-0.0055
-10.7,-0.614,0.14591,0.14398,-0.0061
-10.6,-0.6099,0.14439,0.14246,-0.0066
-10.5,-0.6059,0.14291,0.14099,-0.007
-10.4,-0.6023,0.14147,0.13956,-0.0074
-10.3,-0.599,0.14008,0.13817,-0.0076
-10.2,-0.596,0.13874,0.13684,-0.0077
-10.1,-0.588,0.13682,0.13493,-0.0094
-10,-0.5791,0.13484,0.13294,-0.0114
-9.9,-0.5709,0.13295,0.13105,-0.0132
-9.8,-0.5626,0.13107,0.12917,-0.0149
-9.7,-0.5541,0.12919,0.12729,-0.0168
-9.5,-0.536,0.12537,0.12347,-0.0207
-9.4,-0.5278,0.12357,0.12167,-0.0224
-9.3,-0.5195,0.12177,0.11987,-0.0241
-9.2,-0.511,0.11998,0.11807,-0.0258
-9.1,-0.5022,0.11818,0.11628,-0.0276
-9,-0.4917,0.1163,0.1144,-0.0301
-8.9,-0.4826,0.11448,0.11257,-0.032
-8.8,-0.4735,0.11266,0.11075,-0.0339
-8.7,-0.4654,0.11096,0.10905,-0.0354
-8.6,-0.4572,0.10924,0.10734,-0.037
-8.5,-0.4483,0.1075,0.10559,-0.0387
-8.4,-0.4394,0.10576,0.10386,-0.0404
-8.3,-0.4303,0.10402,0.10211,-0.0422
-8.2,-0.4209,0.10227,0.10036,-0.0441
-8.1,-0.4117,0.10053,0.09862,-0.0459
-8,-0.4039,0.09895,0.09704,-0.0472
-7.9,-0.3951,0.09728,0.09537,-0.0488
-7.8,-0.3859,0.0956,0.09369,-0.0505
-7.7,-0.3762,0.09393,0.09201,-0.0523
-7.5,-0.3569,0.09075,0.08884,-0.0558
-7.4,-0.3497,0.08932,0.08741,-0.057
-7.3,-0.3419,0.08787,0.08597,-0.0583
-7.2,-0.3337,0.08642,0.0845,-0.0597
-7.1,-0.325,0.08494,0.08302,-0.0612
-7,-0.3174,0.08357,0.08166,-0.0624
-6.9,-0.3101,0.08226,0.08035,-0.0634
-6.8,-0.3024,0.08094,0.07902,-0.0647
-6.7,-0.2944,0.07962,0.07769,-0.0659
-6.6,-0.2861,0.07831,0.07637,-0.0672
-6.5,-0.2788,0.07709,0.07516,-0.0683
-6.4,-0.2712,0.07588,0.07394,-0.0694
-6.3,-0.2634,0.07466,0.07271,-0.0705
-6.2,-0.2553,0.07344,0.07148,-0.0717
-6.1,-0.2477,0.07229,0.07034,-0.0728
-6,-0.2395,0.07115,0.06918,-0.0741
-5.9,-0.2297,0.0699,0.06792,-0.0758
-5.8,-0.2192,0.06864,0.06665,-0.0776
-5.7,-0.2086,0.06737,0.06538,-0.0795
-5.5,-0.1866,0.06487,0.06286,-0.0833
-5.4,-0.1751,0.06361,0.06158,-0.0853
-5.3,-0.1628,0.06231,0.06027,-0.0875
-5.2,-0.1506,0.06105,0.059,-0.0896
-5.1,-0.1379,0.05977,0.05771,-0.0918
-5,-0.1248,0.05847,0.05639,-0.0941
-4.9,-0.1112,0.05717,0.05508,-0.0965
-4.8,-0.097,0.05586,0.05374,-0.099
-4.7,-0.0828,0.05456,0.05243,-0.1014
-4.6,-0.068,0.05325,0.0511,-0.104
-4.5,-0.0519,0.05184,0.04968,-0.1069
-4.4,-0.0363,0.05049,0.0483,-0.1095
-4.3,-0.0204,0.04914,0.04693,-0.1122
-4.2,-0.0038,0.04778,0.04554,-0.115
-4.1,0.0134,0.0464,0.04414,-0.1179
-4,0.0312,0.04501,0.04272,-0.1209
-3.9,0.0496,0.0436,0.04129,-0.1239
-3.8,0.0684,0.04218,0.03983,-0.1271
-3.7,0.088,0.04072,0.03835,-0.1303
-3.6,0.1083,0.03923,0.03682,-0.1337
-3.5,0.1294,0.03766,0.03521,-0.1372
-3.4,0.1512,0.03607,0.03358,-0.1408
-3.3,0.1733,0.03462,0.0321,-0.1443
-3.2,0.1961,0.03328,0.03072,-0.1478
-3.1,0.2191,0.03196,0.02936,-0.1512
-3,0.2425,0.03065,0.02799,-0.1546
-2.9,0.2662,0.02933,0.0266,-0.1579
-2.8,0.2902,0.02798,0.0252,-0.1612
-2.7,0.3149,0.02658,0.02374,-0.1645
-2.6,0.3401,0.02511,0.02219,-0.168
-2.5,0.3658,0.02354,0.02052,-0.1714
-2.4,0.3925,0.02181,0.01868,-0.1752
-2.3,0.4204,0.01977,0.0165,-0.1793
-2.2,0.4505,0.01706,0.01358,-0.1844
-2.1,0.4754,0.01539,0.01173,-0.1874
-2,0.5006,0.01326,0.00934,-0.1908
-1.9,0.5246,0.01092,0.00659,-0.1941
-1.8,0.5458,0.00977,0.0051,-0.1955
-1.6,0.5844,0.00889,0.00388,-0.196
-1.5,0.6032,0.00862,0.00348,-0.196
-1.4,0.6212,0.00843,0.00315,-0.1957
-1.3,0.6387,0.00834,0.003,-0.1954
-1.2,0.6566,0.00823,0.00282,-0.1951
-1.1,0.6739,0.00815,0.00264,-0.1948
-1,0.6916,0.00808,0.00251,-0.1946
-0.9,0.7091,0.00801,0.00241,-0.1944
-0.8,0.7259,0.008,0.00236,-0.194
-0.7,0.7434,0.00796,0.00228,-0.1938
-0.6,0.7605,0.00794,0.00221,-0.1935
-0.5,0.7773,0.00793,0.00217,-0.1932
-0.4,0.7936,0.00794,0.00213,-0.1928
-0.3,0.8106,0.00794,0.0021,-0.1925
-0.2,0.8269,0.00796,0.00209,-0.1921
-0.1,0.8436,0.00797,0.00209,-0.1918
0,0.8589,0.00803,0.00209,-0.1912
0.1,0.875,0.00808,0.00209,-0.1908
0.2,0.8908,0.00813,0.0021,-0.1903
0.3,0.9056,0.00822,0.00215,-0.1896
0.4,0.9177,0.00843,0.00222,-0.1884
0.5,0.9322,0.00854,0.00228,-0.1877
0.6,0.9458,0.0087,0.00236,-0.1869
0.7,0.9598,0.00884,0.00245,-0.1861
0.8,0.9734,0.00901,0.00255,-0.1852
0.9,0.9834,0.00932,0.00272,-0.1837
1,0.9942,0.00961,0.0029,-0.1824
1.1,1.0035,0.00997,0.00312,-0.1809
1.2,1.0126,0.01035,0.00335,-0.1794
1.4,1.0249,0.01149,0.00404,-0.1756
1.5,1.0366,0.01179,0.00426,-0.1745
1.6,1.0506,0.01197,0.00442,-0.1737
1.7,1.065,0.01212,0.00456,-0.173
1.8,1.0793,0.01227,0.00471,-0.1722
1.9,1.0939,0.01241,0.00484,-0.1715
2,1.1078,0.01259,0.00501,-0.1706
2.1,1.1224,0.01273,0.00514,-0.1698
2.2,1.137,0.01287,0.00529,-0.169
2.3,1.1517,0.01301,0.00543,-0.1682
2.4,1.1662,0.01316,0.00559,-0.1673
2.5,1.1805,0.01332,0.00575,-0.1664
2.6,1.1949,0.01347,0.00592,-0.1654
2.7,1.2096,0.01361,0.00608,-0.1645
2.8,1.2241,0.01377,0.00625,-0.1634
2.9,1.2384,0.01392,0.00643,-0.1624
3,1.2526,0.01409,0.00661,-0.1613
3.1,1.2666,0.01427,0.00682,-0.1601
3.2,1.281,0.01442,0.007,-0.159
3.3,1.2951,0.01459,0.0072,-0.1578
3.4,1.3084,0.01477,0.00741,-0.1564
3.5,1.3215,0.01493,0.00762,-0.1549
3.6,1.3335,0.01513,0.00783,-0.1532
3.7,1.3463,0.01531,0.00806,-0.1516
3.8,1.3594,0.0155,0.00829,-0.15
3.9,1.3729,0.01572,0.00855,-0.1485
4,1.3872,0.01591,0.00883,-0.1471
4.2,1.4184,0.01528,0.00963,-0.1451
4.3,1.4325,0.01554,0.00993,-0.1434
4.4,1.4464,0.01582,0.01025,-0.1417
4.5,1.4604,0.01612,0.0106,-0.1399
4.6,1.4744,0.01643,0.01097,-0.138
4.7,1.488,0.01678,0.01139,-0.136
4.8,1.5015,0.01716,0.01184,-0.1339
4.9,1.5146,0.0176,0.01239,-0.1317
5,1.5272,0.0181,0.01299,-0.1294
5.1,1.5394,0.01866,0.01368,-0.1269
5.2,1.5512,0.01931,0.01447,-0.1245
5.3,1.5626,0.02006,0.01537,-0.122
5.4,1.5733,0.02092,0.0164,-0.1195
5.5,1.5825,0.0219,0.01756,-0.117
5.6,1.5889,0.02307,0.01894,-0.1145
5.7,1.5923,0.02434,0.0204,-0.1119
5.8,1.5929,0.02569,0.02193,-0.1094
5.9,1.5912,0.02709,0.0235,-0.1069
6,1.5879,0.02856,0.02513,-0.1045
6.1,1.5831,0.03009,0.02681,-0.1023
6.2,1.5774,0.03168,0.02854,-0.1003
6.3,1.5709,0.03335,0.03034,-0.0985
6.4,1.5638,0.03509,0.03221,-0.097
6.7,1.5398,0.04084,0.0383,-0.0943
7,1.5137,0.04756,0.04529,-0.095
7.3,1.4849,0.05559,0.05357,-0.0996
7.4,1.476,0.05852,0.05657,-0.1019
7.7,1.4525,0.06807,0.06628,-0.1111
7.8,1.446,0.07145,0.06971,-0.1145
8,1.4355,0.07831,0.07664,-0.1213
8.2,1.4266,0.08459,0.08296,-0.1271
8.3,1.423,0.08759,0.08596,-0.1299
8.5,1.4161,0.09355,0.09191,-0.1353
8.6,1.4125,0.09657,0.09494,-0.138
8.7,1.4096,0.09952,0.0979,-0.1406
8.8,1.4072,0.10242,0.10079,-0.1432
8.9,1.4053,0.10525,0.10363,-0.1456
9,1.4039,0.10804,0.10642,-0.148
9.1,1.4029,0.11081,0.10919,-0.1504
9.2,1.4024,0.11353,0.11191,-0.1526
9.3,1.4022,0.11622,0.1146,-0.1549
9.4,1.4024,0.11887,0.11725,-0.157
9.5,1.403,0.1215,0.11988,-0.1592
9.6,1.4039,0.12409,0.12247,-0.1613
9.7,1.4051,0.12665,0.12503,-0.1633
9.9,1.4069,0.13204,0.13041,-0.1677
10,1.4077,0.13476,0.13314,-0.1698
10.1,1.409,0.13744,0.13582,-0.172
10.2,1.4106,0.14007,0.13845,-0.174
10.3,1.4126,0.14267,0.14105,-0.176
10.4,1.4147,0.14525,0.14364,-0.178
10.5,1.4171,0.1478,0.14619,-0.1799
10.6,1.4198,0.15033,0.14872,-0.1818
10.7,1.4226,0.15283,0.15122,-0.1837
10.8,1.4257,0.15531,0.1537,-0.1856
10.9,1.4294,0.15765,0.15603,-0.1874
11,1.4318,0.16044,0.15882,-0.1895
11.1,1.4346,0.16313,0.16151,-0.1915
11.2,1.4378,0.16575,0.16414,-0.1934
11.3,1.4411,0.16835,0.16674,-0.1953
11.4,1.4447,0.17092,0.16932,-0.1972
11.5,1.4484,0.17346,0.17186,-0.1991
11.6,1.4522,0.176,0.1744,-0.201
11.7,1.4562,0.1785,0.17691,-0.2028
11.8,1.4602,0.181,0.17941,-0.2046
11.9,1.4644,0.18347,0.18188,-0.2064
12,1.4686,0.18591,0.18432,-0.2082
12.1,1.4729,0.18835,0.18675,-0.21
12.2,1.4774,0.19077,0.18917,-0.2117
12.3,1.4819,0.19317,0.19158,-0.2135
12.4,1.4864,0.19555,0.19396,-0.2152
12.5,1.491,0.19792,0.19632,-0.217
12.6,1.4949,0.2015,0.1999,-0.2194
12.7,1.4995,0.2041,0.2025,-0.2213
12.8,1.5043,0.20667,0.20508,-0.2231
12.9,1.5092,0.20923,0.20763,-0.225
13,1.5141,0.21179,0.21019,-0.2268
13.1,1.5191,0.21433,0.21274,-0.2286
13.2,1.5241,0.21687,0.21527,-0.2304
13.3,1.5292,0.2194,0.21781,-0.2322
13.4,1.5344,0.22193,0.22034,-0.2341
13.5,1.5396,0.22445,0.22286,-0.2359
13.6,1.5449,0.22697,0.22537,-0.2377
13.7,1.5501,0.22948,0.22788,-0.2395
13.8,1.5555,0.23199,0.2304,-0.2413
13.9,1.5608,0.23449,0.23289,-0.2431
14,1.5662,0.237,0.2354,-0.245
14.1,1.5716,0.23994,0.23834,-0.2469
14.2,1.5771,0.24287,0.24127,-0.2489
14.3,1.5826,0.2457,0.2441,-0.2508
14.4,1.5882,0.24858,0.24698,-0.2527
14.5,1.5938,0.25138,0.24978,-0.2546
14.6,1.5994,0.25419,0.25259,-0.2565
14.7,1.6051,0.25703,0.25543,-0.2584
14.8,1.6108,0.25984,0.25824,-0.2603
14.9,1.6165,0.26266,0.26106,-0.2622
15,1.6223,0.26549,0.26389,-0.2641
15.1,1.628,0.26833,0.26673,-0.266
15.2,1.6338,0.27117,0.26957,-0.2679
15.3,1.6396,0.27403,0.27243,-0.2698
15.4,1.6455,0.2769,0.2753,-0.2718
15.5,1.6513,0.27979,0.2782,-0.2737
15.6,1.6572,0.28266,0.28108,-0.2756
15.7,1.6631,0.28557,0.28398,-0.2776
15.8,1.669,0.28847,0.28688,-0.2795
15.9,1.675,0.29141,0.28982,-0.2815
16.1,1.6868,0.2971,0.29552,-0.2855
16.2,1.6927,0.30002,0.29844,-0.2875
16.3,1.6986,0.30294,0.30136,-0.2894
16.4,1.7046,0.30589,0.3043,-0.2914
16.5,1.7105,0.30884,0.30725,-0.2934
16.6,1.7165,0.3118,0.31021,-0.2954
16.7,1.7224,0.31477,0.31319,-0.2974
16.8,1.7286,0.31818,0.31659,-0.2995
16.9,1.735,0.32179,0.3202,-0.3017
17,1.7412,0.32524,0.32365,-0.3038
17.1,1.7473,0.32857,0.32699,-0.3059
17.2,1.7535,0.33194,0.33036,-0.308
17.3,1.7597,0.33533,0.33375,-0.3102
17.4,1.7659,0.33865,0.33707,-0.3123
17.5,1.772,0.34202,0.34043,-0.3144
17.6,1.7782,0.34538,0.3438,-0.3165
17.7,1.7844,0.34879,0.34721,-0.3186
17.8,1.7905,0.35215,0.35057,-0.3208
17.9,1.7967,0.35556,0.35398,-0.3229
18,1.8029,0.359,0.35742,-0.3251
18.1,1.809,0.36243,0.36085,-0.3272
18.2,1.8152,0.36589,0.36431,-0.3294
18.3,1.8213,0.36933,0.36776,-0.3316
18.4,1.8275,0.37284,0.37126,-0.3338
18.5,1.8336,0.37631,0.37474,-0.336
18.6,1.8398,0.37987,0.37829,-0.3382
18.7,1.8459,0.38341,0.38184,-0.3404
18.8,1.8521,0.38698,0.38541,-0.3426
18.9,1.8582,0.39057,0.38901,-0.3448
19,1.8644,0.39417,0.39261,-0.3471
19.1,1.8705,0.39782,0.39626,-0.3493
19.2,1.8766,0.40148,0.39993,-0.3516
19.3,1.8827,0.40514,0.40359,-0.3538
19.4,1.8889,0.40884,0.40729,-0.3561
19.5,1.895,0.41259,0.41105,-0.3584
19.6,1.9011,0.41634,0.4148,-0.3607
19.7,1.9072,0.42012,0.41857,-0.363
19.8,1.9133,0.42393,0.42239,-0.3653
19.9,1.9194,0.42776,0.42621,-0.3676
20,1.9255,0.43162,0.43008,-0.37
20.1,1.9316,0.43549,0.43395,-0.3723
20.2,1.9377,0.43941,0.43787,-0.3747
20.3,1.9438,0.44335,0.44181,-0.377
20.4,1.9498,0.44732,0.44578,-0.3794
20.5,1.9559,0.45133,0.4498,-0.3818
20.6,1.962,0.45535,0.45382,-0.3842
20.7,1.968,0.45941,0.45788,-0.3866
20.8,1.9741,0.46351,0.46198,-0.389
20.9,1.9801,0.46762,0.4661,-0.3914
21,1.9861,0.47177,0.47025,-0.3938
21.1,1.9922,0.47596,0.47444,-0.3963
21.2,1.9982,0.48018,0.47866,-0.3987
21.3,2.0042,0.48444,0.48292,-0.4012
21.4,2.0103,0.48874,0.48722,-0.4037
21.5,2.0162,0.49301,0.49149,-0.4062
21.6,2.0222,0.49737,0.49586,-0.4086
21.7,2.0282,0.50175,0.50023,-0.4112
21.8,2.0342,0.50618,0.50467,-0.4137
21.9,2.0402,0.51063,0.50912,-0.4162
22,2.0461,0.5151,0.5136,-0.4187
22.1,2.0521,0.51961,0.51812,-0.4213
22.2,2.058,0.52414,0.52264,-0.4238
22.3,2.0639,0.52871,0.52721,-0.4264
22.4,2.0698,0.53332,0.53183,-0.429
22.5,2.0757,0.53796,0.53647,-0.4316
22.6,2.0816,0.54263,0.54114,-0.4341
22.9,2.0997,0.55855,0.55706,-0.4424
23,2.1058,0.56387,0.56239,-0.4452
23.1,2.1116,0.56893,0.56745,-0.4478
23.2,2.1176,0.57425,0.57277,-0.4506
23.3,2.1234,0.57944,0.57795,-0.4533
23.4,2.1293,0.58462,0.58314,-0.456
23.5,2.1352,0.58998,0.58851,-0.4588
23.6,2.1409,0.59514,0.59367,-0.4615
23.7,2.1467,0.60054,0.59907,-0.4643
23.8,2.1524,0.60583,0.60436,-0.467
23.9,2.1582,0.6113,0.60983,-0.4698
24,2.1638,0.61666,0.61519,-0.4726
24.1,2.1695,0.62206,0.6206,-0.4754
24.2,2.1752,0.62755,0.62609,-0.4782
24.3,2.1809,0.63314,0.63168,-0.481
24.4,2.1865,0.63869,0.63723,-0.4838
24.5,2.1921,0.6443,0.64285,-0.4866
24.6,2.1976,0.64984,0.64838,-0.4894
24.7,2.2032,0.65553,0.65408,-0.4922
24.8,2.2087,0.66128,0.65984,-0.495
24.9,2.2142,0.667,0.66556,-0.4979
25,2.2197,0.67278,0.67134,-0.5007
25.1,2.2252,0.67864,0.6772,-0.5036
25.2,2.2306,0.68448,0.68305,-0.5064
25.7,2.2547,0.71544,0.71402,-0.5199
25.8,2.26,0.72163,0.72022,-0.5228
25.9,2.2653,0.72786,0.72644,-0.5258
26,2.2704,0.73395,0.73254,-0.5286
26.8,2.3021,0.81708,0.81571,-0.5499
27.2,2.2111,1.00314,1.0018,-0.5297

