airfoilName st20.dat
Re 	70000
M 	7.000000e-01
N 	4.500000e+00
VACC 	0 VACCflag 1
XTR 	1.00 	1.00 XTRflag 0
alpha,cl,cd,cdp,cm
-18.8,-1.0927,0.35607,0.34834,0.1016
-18.7,-1.0863,0.35275,0.34502,0.0997
-18.6,-1.0798,0.34944,0.34171,0.0979
-18.5,-1.0734,0.34615,0.33842,0.0961
-18.4,-1.0669,0.34289,0.33517,0.0942
-18.3,-1.0605,0.33966,0.33194,0.0924
-18.2,-1.0541,0.33646,0.32874,0.0906
-18.1,-1.0477,0.33327,0.32555,0.0889
-18,-1.0413,0.33011,0.3224,0.0871
-17.9,-1.0349,0.32699,0.31928,0.0853
-17.8,-1.0285,0.32388,0.31617,0.0836
-17.7,-1.0221,0.3208,0.31309,0.0818
-17.6,-1.0157,0.31774,0.31003,0.0801
-17.5,-1.0093,0.3147,0.307,0.0784
-17.4,-1.003,0.31169,0.30398,0.0767
-17.3,-0.9966,0.3087,0.30101,0.075
-17.2,-0.9903,0.30574,0.29804,0.0734
-17.1,-0.9839,0.3028,0.2951,0.0717
-17,-0.9776,0.29988,0.29219,0.0701
-16.9,-0.9713,0.29699,0.2893,0.0684
-16.8,-0.9649,0.2941,0.28639,0.0668
-16.7,-0.9586,0.29126,0.28355,0.0652
-16.6,-0.9523,0.28843,0.28073,0.0636
-16.5,-0.946,0.28563,0.27793,0.062
-16.4,-0.9397,0.28285,0.27515,0.0604
-16.3,-0.9335,0.28009,0.27239,0.0589
-16.2,-0.9272,0.27736,0.26967,0.0573
-16.1,-0.921,0.27465,0.26697,0.0558
-16,-0.9147,0.27196,0.26428,0.0543
-15.9,-0.9085,0.26928,0.26161,0.0527
-15.8,-0.9023,0.26664,0.25897,0.0512
-15.7,-0.8961,0.26402,0.25635,0.0497
-15.6,-0.8899,0.26141,0.25375,0.0483
-15.5,-0.8837,0.25884,0.25118,0.0468
-15.4,-0.8775,0.25628,0.24862,0.0453
-15.3,-0.8714,0.25374,0.24609,0.0439
-15.2,-0.8652,0.25123,0.24358,0.0425
-15.1,-0.8591,0.24874,0.2411,0.041
-15,-0.853,0.24626,0.23863,0.0396
-14.9,-0.8468,0.24382,0.23619,0.0382
-14.8,-0.8407,0.24139,0.23376,0.0368
-14.7,-0.8347,0.23897,0.23136,0.0354
-14.6,-0.8286,0.23659,0.22898,0.0341
-14.5,-0.8225,0.23422,0.22661,0.0327
-14.4,-0.8165,0.23187,0.22427,0.0314
-14.3,-0.8104,0.22954,0.22194,0.03
-14.2,-0.8044,0.22722,0.21964,0.0287
-14.1,-0.7983,0.22493,0.21735,0.0273
-14,-0.7923,0.22265,0.21507,0.026
-13.9,-0.7862,0.22038,0.21281,0.0247
-13.8,-0.7802,0.21814,0.21058,0.0234
-13.7,-0.7741,0.2159,0.20832,0.0221
-13.6,-0.7681,0.21368,0.20611,0.0208
-13.5,-0.762,0.21148,0.20391,0.0195
-13.4,-0.7559,0.20928,0.20173,0.0182
-13.3,-0.7497,0.20709,0.19954,0.0169
-13.2,-0.7434,0.20492,0.19737,0.0155
-13,-0.7306,0.20065,0.19317,0.0127
-12.9,-0.7252,0.19856,0.19109,0.0117
-12.8,-0.7198,0.1965,0.18904,0.0107
-12.7,-0.7144,0.19446,0.187,0.0097
-12.6,-0.7091,0.19244,0.18499,0.0087
-12.5,-0.7037,0.19043,0.183,0.0077
-12.4,-0.6984,0.18845,0.18102,0.0067
-12.3,-0.6931,0.18648,0.17906,0.0058
-12.2,-0.6879,0.18453,0.17712,0.0049
-12.1,-0.6826,0.1826,0.17521,0.0039
-12,-0.6774,0.18069,0.17331,0.003
-11.9,-0.6722,0.1788,0.17142,0.0021
-11.8,-0.667,0.17692,0.16956,0.0012
-11.6,-0.6568,0.17348,0.16615,-0.0005
-11.5,-0.6517,0.17165,0.16433,-0.0014
-11.4,-0.6467,0.16985,0.16253,-0.0022
-11.3,-0.6416,0.16805,0.16075,-0.003
-11.2,-0.6366,0.16628,0.15899,-0.0038
-11.1,-0.6317,0.16452,0.15725,-0.0046
-11,-0.6268,0.16279,0.15553,-0.0053
-10.9,-0.6219,0.16107,0.15382,-0.006
-10.8,-0.6171,0.15938,0.15214,-0.0068
-10.7,-0.6124,0.15769,0.15048,-0.0075
-10.6,-0.6077,0.15604,0.14881,-0.0081
-10.5,-0.603,0.15439,0.14718,-0.0088
-10.4,-0.5984,0.15277,0.14557,-0.0094
-10.3,-0.5939,0.15117,0.14398,-0.01
-10.2,-0.5895,0.14958,0.14242,-0.0106
-10.1,-0.5851,0.14802,0.14088,-0.0112
-10,-0.5808,0.14648,0.13935,-0.0117
-9.9,-0.5766,0.14496,0.13785,-0.0122
-9.8,-0.5724,0.14347,0.13638,-0.0127
-9.7,-0.5684,0.14199,0.13492,-0.0131
-9.6,-0.5645,0.14054,0.13349,-0.0135
-9.5,-0.5606,0.13911,0.13208,-0.0139
-9.4,-0.5569,0.13771,0.1307,-0.0143
-9.3,-0.5533,0.13632,0.12934,-0.0146
-9.2,-0.5497,0.13496,0.128,-0.0149
-9.1,-0.5463,0.13361,0.12667,-0.0152
-9,-0.5429,0.13229,0.12538,-0.0154
-8.9,-0.5397,0.13098,0.1241,-0.0157
-8.8,-0.5365,0.12971,0.12285,-0.0159
-8.7,-0.5335,0.12845,0.12162,-0.0161
-8.6,-0.5305,0.12722,0.12042,-0.0162
-8.5,-0.5277,0.12602,0.11924,-0.0163
-8.4,-0.525,0.12484,0.1181,-0.0165
-8.3,-0.5223,0.1237,0.11699,-0.0166
-8.2,-0.5198,0.12261,0.11593,-0.0167
-8.1,-0.5171,0.12162,0.11497,-0.017
-8,-0.5153,0.12054,0.11397,-0.0169
-7.9,-0.5138,0.11941,0.11287,-0.0166
-7.8,-0.5124,0.11831,0.11181,-0.0163
-7.7,-0.5112,0.11724,0.11077,-0.016
-7.6,-0.5102,0.11619,0.10975,-0.0156
-7.5,-0.5092,0.11517,0.10876,-0.0152
-7.4,-0.5085,0.11417,0.1078,-0.0147
-7.3,-0.508,0.11319,0.10686,-0.0142
-7.2,-0.5076,0.11224,0.10594,-0.0137
-7.1,-0.5073,0.11131,0.10505,-0.0132
-7,-0.5073,0.1104,0.10417,-0.0126
-6.9,-0.5075,0.10951,0.10329,-0.0119
-6.6,-0.5091,0.10695,0.10085,-0.0098
-6.5,-0.5102,0.10616,0.1001,-0.009
-6.4,-0.5062,0.10497,0.09893,-0.0096
-6.3,-0.4963,0.10335,0.09731,-0.0116
-6.2,-0.4876,0.10185,0.09581,-0.0134
-6.1,-0.4791,0.10038,0.09434,-0.0151
-6,-0.4708,0.09893,0.09291,-0.0167
-5.9,-0.4618,0.09747,0.09144,-0.0186
-5.8,-0.4516,0.09594,0.08992,-0.0207
-5.6,-0.4316,0.09292,0.0869,-0.0246
-5.5,-0.4204,0.09137,0.08535,-0.0269
-5.4,-0.408,0.08978,0.08376,-0.0295
-5.3,-0.3996,0.08843,0.08241,-0.031
-5.2,-0.3896,0.08701,0.081,-0.0329
-5.1,-0.3731,0.08558,0.07956,-0.037
-5,-0.3591,0.08402,0.07799,-0.04
-4.9,-0.3471,0.08261,0.07657,-0.0425
-4.8,-0.337,0.08133,0.07529,-0.0445
-4.6,-0.3073,0.0783,0.07229,-0.0509
-4.5,-0.2936,0.07672,0.0707,-0.0534
-4.4,-0.2841,0.07539,0.06937,-0.0548
-4.3,-0.2746,0.07411,0.06809,-0.0562
-4.2,-0.262,0.0727,0.06667,-0.0583
-4.1,-0.2461,0.07114,0.06507,-0.0611
-4,-0.2299,0.06962,0.06353,-0.0641
-3.8,-0.209,0.06719,0.0611,-0.067
-3.7,-0.1931,0.06575,0.05964,-0.0696
-3.6,-0.1757,0.06428,0.05815,-0.0726
-3.5,-0.1566,0.06277,0.05661,-0.076
-3.3,-0.1299,0.06029,0.0541,-0.0798
-3.2,-0.1115,0.05888,0.05266,-0.0829
-3.1,-0.0903,0.05738,0.05113,-0.0866
-3,-0.0649,0.05573,0.04941,-0.0911
-2.9,-0.038,0.05407,0.04769,-0.0961
-2.8,-0.0265,0.05302,0.0466,-0.0975
-2.7,-0.0028,0.0515,0.04508,-0.1016
-2.6,0.0184,0.05011,0.04364,-0.1045
-2.5,0.0409,0.04896,0.04244,-0.1077
-2.4,0.0665,0.04753,0.04095,-0.1116
-2.2,0.1033,0.04524,0.03855,-0.116
-2.1,0.13,0.04385,0.03704,-0.12
-1.9,0.1952,0.04057,0.03351,-0.1307
-1.8,0.2211,0.03939,0.03226,-0.1337
-1.7,0.2368,0.03858,0.03139,-0.1348
-1.6,0.2564,0.03767,0.03041,-0.1366
-1.5,0.2819,0.0366,0.02922,-0.1395
-1.4,0.3237,0.0347,0.02697,-0.1464
-1.3,0.3465,0.0339,0.02612,-0.1483
-1.2,0.3717,0.03308,0.02519,-0.1506
-1,0.411,0.03159,0.02341,-0.1532
-0.9,0.4425,0.03025,0.02168,-0.1571
-0.8,0.4617,0.03008,0.02152,-0.1577
-0.7,0.4876,0.02936,0.02058,-0.1598
-0.6,0.5179,0.02839,0.01922,-0.1627
-0.5,0.5286,0.02824,0.01906,-0.1619
-0.4,0.5465,0.02794,0.01867,-0.1623
-0.3,0.5704,0.02752,0.01796,-0.1636
-0.2,0.5924,0.02721,0.0176,-0.1646
-0.1,0.6162,0.02684,0.01707,-0.1659
0,0.6263,0.02675,0.0168,-0.1649
0.1,0.6447,0.02657,0.01663,-0.1651
0.2,0.6663,0.02647,0.01637,-0.1659
0.3,0.6882,0.02626,0.01617,-0.1667
0.5,0.7159,0.02619,0.01595,-0.1657
0.6,0.7365,0.02606,0.01585,-0.1663
0.7,0.7596,0.02595,0.0157,-0.1671
0.8,0.765,0.02614,0.01591,-0.1653
0.9,0.7845,0.02608,0.01579,-0.1656
1,0.8068,0.0259,0.01566,-0.1663
1.1,0.8151,0.02608,0.01586,-0.1649
1.3,0.8452,0.02596,0.01574,-0.1634
1.4,0.867,0.02573,0.01561,-0.1638
1.5,0.8761,0.02578,0.01567,-0.1621
1.6,0.8899,0.02572,0.01569,-0.1612
1.7,0.9089,0.02552,0.01558,-0.1609
1.8,0.9183,0.02559,0.0157,-0.1594
1.9,0.9316,0.02536,0.01555,-0.1578
2,0.9421,0.02545,0.01571,-0.1565
2.1,0.9554,0.02549,0.01588,-0.1556
2.2,0.9675,0.02546,0.01595,-0.1543
2.3,0.982,0.02541,0.01615,-0.1536
2.4,0.9967,0.0254,0.0163,-0.1529
2.5,1.0124,0.02533,0.01644,-0.1522
2.7,1.0347,0.02431,0.01578,-0.1467
2.8,1.0535,0.02424,0.0157,-0.1457
2.9,1.0839,0.02361,0.01501,-0.1451
3,1.1214,0.02288,0.01421,-0.1454
3.1,1.1651,0.02201,0.01301,-0.1455
3.2,1.1834,0.0221,0.0129,-0.1439
3.3,1.1956,0.02245,0.01307,-0.142
3.5,1.2108,0.02354,0.01382,-0.1375
3.6,1.2198,0.02409,0.0143,-0.1357
3.7,1.2291,0.02467,0.01488,-0.134
3.8,1.2384,0.02528,0.01545,-0.1323
3.9,1.2435,0.026,0.01605,-0.1302
4,1.2527,0.02664,0.01668,-0.1285
4.1,1.2637,0.02726,0.01733,-0.127
4.2,1.2738,0.02795,0.01802,-0.1255
4.3,1.2857,0.02862,0.01877,-0.1241
4.4,1.2923,0.02939,0.01954,-0.1223
4.5,1.3027,0.03015,0.02033,-0.1208
4.6,1.3148,0.03091,0.02122,-0.1195
4.7,1.3254,0.03173,0.02213,-0.118
4.8,1.3364,0.0326,0.02311,-0.1166
4.9,1.3413,0.03347,0.02404,-0.1148
5,1.3508,0.03443,0.02517,-0.1134
5.1,1.3589,0.03544,0.02629,-0.1119
5.2,1.3663,0.03652,0.0275,-0.1104
5.3,1.3725,0.03769,0.02886,-0.109
5.4,1.3772,0.0389,0.03022,-0.1076
5.6,1.379,0.04141,0.033,-0.1046
5.7,1.3804,0.04277,0.03448,-0.1033
5.8,1.3805,0.04421,0.036,-0.102
5.9,1.3782,0.04588,0.03786,-0.1013
6,1.3751,0.0476,0.03973,-0.1006
6.1,1.3715,0.04936,0.04163,-0.1
6.2,1.3676,0.05117,0.04356,-0.0996
6.3,1.3636,0.053,0.04549,-0.0994
6.5,1.3569,0.05672,0.04935,-0.0991
6.6,1.3497,0.059,0.05172,-0.1
6.7,1.3422,0.06139,0.0542,-0.1012
6.9,1.3294,0.06591,0.05892,-0.1038
7,1.3269,0.06801,0.06107,-0.1047
7.1,1.3202,0.07072,0.06381,-0.1069
7.2,1.3142,0.07351,0.06666,-0.1094
7.3,1.3093,0.07624,0.06943,-0.1118
7.5,1.303,0.08146,0.07474,-0.1161
7.6,1.3015,0.08393,0.07723,-0.118
7.7,1.3009,0.08625,0.07958,-0.1196
7.8,1.3015,0.08845,0.0818,-0.1209
7.9,1.3029,0.09048,0.08384,-0.1218
8,1.3009,0.0933,0.08665,-0.1245
8.1,1.2993,0.09626,0.08964,-0.1274
8.2,1.2987,0.09898,0.09238,-0.1298
8.4,1.3011,0.10326,0.09668,-0.1331
8.5,1.3034,0.10528,0.09867,-0.1341
8.6,1.3028,0.10823,0.10163,-0.1371
8.7,1.3032,0.11091,0.10433,-0.1396
8.8,1.3044,0.11344,0.10687,-0.1418
8.9,1.3062,0.11583,0.10928,-0.1436
9,1.3084,0.11813,0.11159,-0.1453
9.1,1.3111,0.12034,0.11382,-0.1468
9.2,1.314,0.12248,0.11596,-0.1481
9.3,1.3173,0.12453,0.11803,-0.1492
9.4,1.3208,0.1265,0.12002,-0.1501
9.5,1.3246,0.1284,0.12192,-0.1508
9.6,1.3263,0.13113,0.12462,-0.1535
9.7,1.3285,0.13377,0.12727,-0.156
9.8,1.3299,0.13638,0.12988,-0.1595
9.9,1.3336,0.13853,0.13205,-0.1609
10,1.3374,0.14064,0.13417,-0.1622
10.1,1.3414,0.1427,0.13624,-0.1633
10.2,1.3455,0.1447,0.13825,-0.1643
10.3,1.3498,0.14664,0.14021,-0.1652
10.4,1.353,0.14924,0.14276,-0.1676
10.5,1.3563,0.15184,0.14538,-0.1701
10.6,1.3601,0.15431,0.14786,-0.1722
10.7,1.364,0.15671,0.15026,-0.1741
10.8,1.3682,0.15904,0.1526,-0.1759
10.9,1.3725,0.16133,0.15491,-0.1776
11,1.3769,0.16358,0.15717,-0.1791
11.1,1.3815,0.1658,0.1594,-0.1806
11.3,1.3908,0.16935,0.16296,-0.1826
11.4,1.3951,0.17193,0.1655,-0.185
11.5,1.3995,0.17453,0.1681,-0.1873
11.6,1.4041,0.17704,0.17062,-0.1895
11.7,1.4089,0.17947,0.17306,-0.1914
11.8,1.4138,0.18186,0.17547,-0.1933
11.9,1.4188,0.18423,0.17784,-0.195
12,1.4239,0.18656,0.18018,-0.1967
12.1,1.429,0.18888,0.18251,-0.1984
12.2,1.4343,0.19118,0.18481,-0.1999
12.3,1.4395,0.19347,0.18716,-0.2015
12.4,1.4449,0.19574,0.18944,-0.203
12.5,1.4502,0.198,0.19171,-0.2044
12.6,1.4557,0.20025,0.19396,-0.2058
12.7,1.4611,0.20249,0.19621,-0.2071
12.8,1.4666,0.20473,0.19846,-0.2084
12.9,1.4714,0.20767,0.20135,-0.2126
13,1.4769,0.2102,0.20388,-0.2146
13.1,1.4825,0.21269,0.20638,-0.2164
13.2,1.4882,0.21517,0.20887,-0.2183
13.3,1.4939,0.21764,0.21133,-0.22
13.4,1.4996,0.2201,0.2138,-0.2218
13.5,1.5053,0.22255,0.21626,-0.2235
13.6,1.5111,0.22499,0.21871,-0.2252
13.7,1.5169,0.22743,0.22115,-0.2269
13.8,1.5228,0.22988,0.2236,-0.2285
13.9,1.5286,0.23233,0.22605,-0.2301
14,1.5345,0.23477,0.2285,-0.2317
14.1,1.5404,0.23722,0.23095,-0.2333
14.2,1.5463,0.23967,0.23341,-0.2349
14.3,1.5522,0.24213,0.23587,-0.2365
14.4,1.5581,0.24471,0.2384,-0.2382
14.5,1.5642,0.24765,0.24135,-0.2408
14.6,1.5703,0.25051,0.24421,-0.2431
14.7,1.5764,0.25334,0.24705,-0.2452
14.8,1.5826,0.25612,0.24984,-0.2473
14.9,1.5885,0.25875,0.25246,-0.2501
15,1.5947,0.26145,0.25517,-0.2519
15.1,1.6008,0.26416,0.25788,-0.2538
15.2,1.607,0.26686,0.26059,-0.2557
15.3,1.6132,0.26958,0.26331,-0.2575
15.4,1.6194,0.27231,0.26604,-0.2594
15.5,1.6257,0.27505,0.26878,-0.2612
15.6,1.6319,0.27779,0.27153,-0.2631
15.7,1.6381,0.28054,0.27429,-0.2649
15.8,1.6444,0.28331,0.27709,-0.2668
15.9,1.6506,0.28609,0.27987,-0.2686
16,1.6569,0.28888,0.28267,-0.2704
16.1,1.6631,0.29168,0.28548,-0.2723
16.2,1.6694,0.2945,0.2883,-0.2741
16.3,1.6757,0.29744,0.29119,-0.2761
16.4,1.6822,0.30073,0.29449,-0.2787
16.5,1.6886,0.30394,0.2977,-0.281
16.6,1.6951,0.30711,0.30088,-0.2833
16.7,1.7015,0.31025,0.30403,-0.2855
16.8,1.7079,0.3134,0.30718,-0.2877
16.9,1.7143,0.31655,0.31033,-0.2898
17,1.7208,0.31971,0.31349,-0.292
17.1,1.7272,0.32286,0.31665,-0.2941
17.2,1.7336,0.32604,0.31983,-0.2962
17.3,1.7401,0.32923,0.32303,-0.2983
17.4,1.7465,0.33242,0.32623,-0.3004
17.5,1.753,0.33564,0.32945,-0.3025
17.6,1.7594,0.33887,0.33268,-0.3047
17.8,1.7719,0.34475,0.33857,-0.3091
17.9,1.7783,0.348,0.34182,-0.3112
18,1.7848,0.35127,0.3451,-0.3133
18.1,1.7912,0.35457,0.3484,-0.3154
18.2,1.7976,0.35789,0.35172,-0.3175
18.3,1.804,0.36121,0.35505,-0.3196
18.4,1.8105,0.36458,0.35842,-0.3218
18.5,1.8169,0.36794,0.36178,-0.3239
18.6,1.8233,0.37135,0.3652,-0.3261
18.7,1.8297,0.37478,0.36863,-0.3282
18.8,1.8362,0.37831,0.37212,-0.3305
18.9,1.8427,0.38216,0.37598,-0.3331
19,1.8492,0.38593,0.37976,-0.3356
19.1,1.8557,0.38968,0.38355,-0.3381
19.2,1.8622,0.39344,0.38731,-0.3405
19.3,1.8686,0.39715,0.39103,-0.3429
19.4,1.875,0.40089,0.39477,-0.3453
19.5,1.8815,0.40468,0.39856,-0.3477
19.6,1.8879,0.40845,0.40234,-0.35
19.7,1.8943,0.41224,0.40614,-0.3524
19.8,1.9008,0.41606,0.40996,-0.3548
19.9,1.9072,0.41988,0.41379,-0.3572
20,1.9136,0.42376,0.41768,-0.3596
20.1,1.9199,0.42763,0.42155,-0.362
20.2,1.9263,0.43154,0.42547,-0.3644
20.3,1.9327,0.43548,0.42941,-0.3668
20.4,1.9391,0.43944,0.43338,-0.3692
20.5,1.9455,0.44345,0.43739,-0.3716
20.6,1.9518,0.44747,0.44142,-0.374
20.7,1.9582,0.45152,0.44548,-0.3764
20.8,1.9645,0.4556,0.44957,-0.3789
20.9,1.9709,0.45972,0.45369,-0.3813
21,1.9772,0.46387,0.45784,-0.3838
21.1,1.9836,0.46804,0.46203,-0.3863
21.2,1.9899,0.47226,0.46625,-0.3887
21.3,1.9962,0.4765,0.4705,-0.3912
21.4,2.0025,0.48081,0.47481,-0.3937
21.5,2.0087,0.48508,0.47909,-0.3962
21.6,2.0151,0.48944,0.48345,-0.3987
21.7,2.0213,0.49381,0.48784,-0.4012
21.8,2.0276,0.49826,0.49229,-0.4038
21.9,2.0339,0.5027,0.49674,-0.4063
22,2.0402,0.50722,0.50126,-0.4088
22.1,2.0464,0.51174,0.50579,-0.4114
22.2,2.0526,0.51631,0.5104,-0.414
22.3,2.0589,0.52091,0.51501,-0.4166
22.4,2.0651,0.52557,0.51967,-0.4191
22.5,2.0713,0.53025,0.52437,-0.4217
22.6,2.0775,0.53499,0.52911,-0.4244
22.7,2.0837,0.53974,0.53387,-0.427
22.8,2.0899,0.54457,0.53871,-0.4296
22.9,2.096,0.5494,0.54354,-0.4322
23.1,2.1075,0.55831,0.55244,-0.4387
23.2,2.1137,0.56327,0.5574,-0.4415
23.3,2.1197,0.56823,0.56237,-0.4443
23.4,2.1257,0.57322,0.56737,-0.447
23.5,2.1318,0.57829,0.57245,-0.4499
23.6,2.1378,0.58336,0.57753,-0.4526
23.7,2.1439,0.58854,0.58272,-0.4554
23.8,2.1498,0.59369,0.58788,-0.4582
23.9,2.1558,0.59897,0.59316,-0.4611
24,2.1618,0.60421,0.59841,-0.4639
24.1,2.1677,0.60953,0.60374,-0.4667
24.2,2.1737,0.61492,0.60914,-0.4695
24.3,2.1797,0.62037,0.61459,-0.4724
24.4,2.1856,0.62585,0.62008,-0.4752
24.5,2.1916,0.6314,0.62564,-0.4781
24.6,2.1974,0.63691,0.63116,-0.481
24.7,2.2033,0.64254,0.6368,-0.4838
24.8,2.2091,0.64824,0.64251,-0.4867
25,2.2208,0.65974,0.65403,-0.4925
25.1,2.2266,0.66561,0.6599,-0.4954
25.2,2.2324,0.67149,0.66579,-0.4984
25.3,2.2382,0.67746,0.67177,-0.5013
25.4,2.244,0.68348,0.67783,-0.5042
25.5,2.2497,0.68954,0.68389,-0.5072
25.6,2.2554,0.69559,0.68996,-0.5101
25.7,2.2612,0.70182,0.6962,-0.5131
25.8,2.2668,0.70804,0.70243,-0.5161
25.9,2.2725,0.71434,0.70873,-0.5191
26,2.2782,0.72066,0.71506,-0.5221
26.1,2.2838,0.72702,0.72144,-0.5251
26.2,2.2894,0.7335,0.72792,-0.5281
26.3,2.295,0.74008,0.73451,-0.5311
26.4,2.3006,0.74659,0.74103,-0.5341
26.5,2.3061,0.75319,0.74764,-0.5372
26.6,2.3116,0.75986,0.75432,-0.5402
26.7,2.3172,0.76655,0.76101,-0.5433
27.9,2.3817,0.85061,0.84519,-0.5807
28,2.3868,0.85823,0.85283,-0.5839
28.1,2.392,0.86603,0.86063,-0.5871
28.2,2.3972,0.87404,0.86866,-0.5903
28.3,2.4023,0.88174,0.87636,-0.5935
28.4,2.4075,0.8885,0.88314,-0.5967

