airfoilName st20.dat
Re 	190000
M 	7.000000e-01
N 	4.500000e+00
VACC 	0 VACCflag 1
XTR 	1.00 	1.00 XTRflag 0
alpha,cl,cd,cdp,cm
-29.6,-1.7636,0.86602,0.8617,0.3876
-29.5,-1.7581,0.85855,0.85422,0.3844
-29.4,-1.7526,0.85122,0.84689,0.3812
-29.3,-1.7471,0.844,0.83966,0.378
-29.2,-1.7416,0.83682,0.83249,0.3749
-29,-1.7306,0.82342,0.81907,0.3684
-28.9,-1.725,0.81647,0.81212,0.3653
-28.8,-1.7194,0.80955,0.8052,0.3622
-28.7,-1.7137,0.80263,0.79826,0.359
-28.6,-1.7081,0.79587,0.7915,0.3559
-28.5,-1.7024,0.78922,0.78484,0.3528
-28.4,-1.6967,0.78247,0.77809,0.3497
-28.3,-1.691,0.77592,0.77154,0.3466
-28.2,-1.6853,0.76937,0.76498,0.3435
-28.1,-1.6795,0.76287,0.75847,0.3404
-28,-1.6737,0.75642,0.75202,0.3374
-27.9,-1.6679,0.75005,0.74564,0.3343
-27.8,-1.6621,0.74375,0.73934,0.3313
-27.7,-1.6563,0.73748,0.73307,0.3283
-27.6,-1.6505,0.7313,0.72688,0.3253
-27.5,-1.6446,0.7252,0.72078,0.3223
-27.4,-1.6387,0.71911,0.71469,0.3193
-27.3,-1.6329,0.71308,0.70866,0.3163
-27.2,-1.6269,0.70708,0.70265,0.3133
-27.1,-1.621,0.70118,0.69675,0.3104
-27,-1.615,0.69529,0.69085,0.3074
-26.9,-1.6091,0.68947,0.68503,0.3045
-26.8,-1.6031,0.6837,0.67926,0.3015
-26.7,-1.5971,0.67795,0.67351,0.2986
-26.6,-1.5911,0.67229,0.66784,0.2957
-26.5,-1.5851,0.66672,0.66227,0.2928
-26.4,-1.579,0.66112,0.65667,0.29
-26.3,-1.573,0.6556,0.65114,0.2871
-26.2,-1.5669,0.65017,0.64571,0.2842
-26.1,-1.5608,0.64469,0.64023,0.2814
-26,-1.5548,0.63935,0.63488,0.2785
-25.9,-1.5486,0.63397,0.62949,0.2757
-25.8,-1.5425,0.62872,0.62423,0.2729
-25.7,-1.5364,0.62349,0.619,0.2701
-25.6,-1.5302,0.61832,0.61383,0.2673
-25.5,-1.5241,0.61318,0.60869,0.2645
-25.4,-1.5179,0.60807,0.60358,0.2617
-25.3,-1.5117,0.60303,0.59853,0.259
-25.2,-1.5055,0.59801,0.59351,0.2562
-25.1,-1.4993,0.59306,0.58856,0.2535
-25,-1.4931,0.58814,0.58363,0.2508
-24.9,-1.4869,0.58325,0.57874,0.2481
-24.8,-1.4806,0.57842,0.57392,0.2454
-24.7,-1.4744,0.57365,0.56914,0.2427
-24.6,-1.4681,0.5689,0.56439,0.24
-24.5,-1.4619,0.5642,0.55969,0.2373
-24.4,-1.4556,0.55955,0.55503,0.2347
-24.3,-1.4493,0.55493,0.55041,0.232
-24.2,-1.443,0.55036,0.54584,0.2294
-24.1,-1.4367,0.54586,0.54134,0.2268
-24,-1.4304,0.54136,0.53684,0.2242
-23.9,-1.4241,0.53691,0.53238,0.2216
-23.8,-1.4178,0.53251,0.52799,0.219
-23.7,-1.4114,0.52816,0.52364,0.2164
-23.6,-1.4051,0.52383,0.5193,0.2139
-23.5,-1.3988,0.51958,0.51506,0.2113
-23.4,-1.3925,0.51537,0.51084,0.2088
-23.3,-1.3861,0.51124,0.50671,0.2062
-23.2,-1.3798,0.50704,0.50251,0.2037
-23.1,-1.3734,0.50302,0.49849,0.2012
-23,-1.367,0.49897,0.49442,0.1987
-22.9,-1.3607,0.49497,0.49042,0.1962
-22.8,-1.3543,0.49101,0.48646,0.1937
-22.7,-1.3479,0.48712,0.48257,0.1912
-22.6,-1.3415,0.48331,0.47876,0.1887
-22.5,-1.3351,0.4795,0.47494,0.1863
-22.4,-1.3287,0.47578,0.47122,0.1838
-22.3,-1.3223,0.47217,0.46762,0.1813
-22.2,-1.3159,0.46867,0.46412,0.1788
-22.1,-1.3094,0.46525,0.4607,0.1763
-22,-1.303,0.46194,0.45738,0.1738
-21.9,-1.2965,0.45877,0.45421,0.1712
-21.8,-1.29,0.45547,0.45092,0.1687
-19.8,-1.1593,0.38299,0.37844,0.124
-19.7,-1.1528,0.37943,0.37487,0.122
-19.6,-1.1464,0.3759,0.37134,0.12
-19.5,-1.14,0.3724,0.36784,0.118
-19.4,-1.1335,0.36891,0.36435,0.1161
-19.3,-1.1271,0.36545,0.36089,0.1141
-19.2,-1.1206,0.36202,0.35747,0.1122
-19.1,-1.1142,0.35861,0.35405,0.1103
-19,-1.1078,0.35522,0.35066,0.1084
-18.9,-1.1014,0.35188,0.34733,0.1065
-18.8,-1.0949,0.34855,0.34399,0.1046
-18.7,-1.0885,0.34525,0.34069,0.1028
-18.6,-1.0821,0.34197,0.33742,0.1009
-18.5,-1.0757,0.33872,0.33417,0.0991
-18.4,-1.0693,0.33549,0.33093,0.0972
-18.3,-1.0629,0.33228,0.32773,0.0954
-18.2,-1.0565,0.32911,0.32456,0.0936
-18.1,-1.0501,0.32595,0.3214,0.0918
-18,-1.0438,0.32282,0.31827,0.09
-17.9,-1.0374,0.31973,0.31518,0.0883
-17.8,-1.031,0.31664,0.3121,0.0865
-17.7,-1.0247,0.31359,0.30905,0.0848
-17.6,-1.0183,0.31056,0.30602,0.083
-17.5,-1.012,0.30755,0.30301,0.0813
-17.4,-1.0056,0.30457,0.30002,0.0796
-17.3,-0.9993,0.30161,0.29707,0.0779
-17.2,-0.9929,0.29867,0.29413,0.0762
-17.1,-0.9866,0.29575,0.29122,0.0745
-17,-0.9803,0.29287,0.28833,0.0729
-16.9,-0.974,0.29,0.28547,0.0712
-16.8,-0.9677,0.28715,0.2826,0.0696
-16.7,-0.9613,0.28434,0.27979,0.0679
-16.6,-0.9551,0.28154,0.27699,0.0663
-16.5,-0.9488,0.27877,0.27422,0.0647
-16.4,-0.9425,0.27602,0.27147,0.0631
-16.3,-0.9362,0.27328,0.26874,0.0615
-16.2,-0.93,0.27059,0.26605,0.0599
-16.1,-0.9237,0.26791,0.26337,0.0584
-16,-0.9175,0.26525,0.26071,0.0568
-15.9,-0.9113,0.26261,0.25808,0.0553
-15.8,-0.9051,0.26,0.25547,0.0537
-15.7,-0.8989,0.25741,0.25288,0.0522
-15.6,-0.8927,0.25484,0.25032,0.0507
-15.5,-0.8865,0.2523,0.24778,0.0492
-15.4,-0.8803,0.24977,0.24526,0.0477
-15.3,-0.8741,0.24728,0.24276,0.0462
-15.2,-0.868,0.2448,0.24029,0.0447
-15.1,-0.8618,0.24234,0.23783,0.0433
-15,-0.8557,0.2399,0.2354,0.0418
-14.9,-0.8496,0.23749,0.23299,0.0404
-14.8,-0.8434,0.2351,0.2306,0.0389
-14.7,-0.8373,0.23273,0.22823,0.0375
-14.6,-0.8312,0.23037,0.22588,0.0361
-14.5,-0.8251,0.22805,0.22356,0.0347
-14.4,-0.819,0.22573,0.22125,0.0333
-14.3,-0.8129,0.22343,0.21895,0.0319
-14.2,-0.8068,0.22115,0.21668,0.0305
-14.1,-0.8008,0.21889,0.21441,0.0291
-14,-0.7947,0.21664,0.21217,0.0277
-13.9,-0.7886,0.2144,0.20993,0.0263
-13.8,-0.7825,0.21217,0.20771,0.025
-13.7,-0.7764,0.20995,0.20548,0.0236
-13.6,-0.7703,0.20773,0.20327,0.0223
-13.5,-0.7642,0.20553,0.20107,0.0209
-13.4,-0.7581,0.20331,0.19885,0.0196
-13.3,-0.7519,0.20109,0.19663,0.0183
-13.2,-0.7457,0.19884,0.19439,0.017
-13,-0.7319,0.19416,0.18975,0.014
-12.9,-0.7264,0.19207,0.18766,0.0129
-12.8,-0.721,0.19001,0.18561,0.0118
-12.6,-0.7105,0.18619,0.1818,0.0097
-12.5,-0.7051,0.18419,0.1798,0.0087
-12.4,-0.6996,0.1822,0.17782,0.0076
-12.3,-0.6942,0.18024,0.17586,0.0066
-12.2,-0.6888,0.17829,0.17392,0.0056
-12.1,-0.6834,0.17636,0.17199,0.0047
-12,-0.6781,0.17444,0.17008,0.0037
-11.9,-0.6728,0.17254,0.16819,0.0027
-11.8,-0.6675,0.17067,0.16632,0.0018
-11.7,-0.6622,0.16881,0.16447,0.0009
-11.6,-0.657,0.16697,0.16263,0
-11.5,-0.6519,0.16515,0.16082,-0.0009
-11.4,-0.6467,0.16334,0.15903,-0.0017
-11.3,-0.6417,0.16156,0.15725,-0.0026
-11.2,-0.6366,0.1598,0.1555,-0.0034
-11.1,-0.6317,0.15806,0.15377,-0.0042
-11,-0.6268,0.15634,0.15206,-0.0049
-10.9,-0.6219,0.15464,0.15037,-0.0056
-10.8,-0.6171,0.15297,0.1487,-0.0064
-10.7,-0.6124,0.15131,0.14706,-0.007
-10.6,-0.6078,0.14968,0.14542,-0.0077
-10.5,-0.6033,0.14807,0.14382,-0.0083
-10.4,-0.5989,0.14649,0.14225,-0.0089
-10.3,-0.5946,0.14492,0.1407,-0.0094
-10.2,-0.5904,0.14339,0.13918,-0.0099
-10.1,-0.5864,0.14189,0.13769,-0.0103
-10,-0.5825,0.14041,0.13623,-0.0107
-9.9,-0.5788,0.13896,0.13479,-0.0111
-9.8,-0.5751,0.13754,0.13338,-0.0114
-9.7,-0.5717,0.13613,0.132,-0.0117
-9.6,-0.5683,0.13476,0.13063,-0.0119
-9.5,-0.5651,0.13341,0.12931,-0.0121
-9.4,-0.5621,0.13209,0.128,-0.0122
-9.3,-0.5593,0.1308,0.12673,-0.0123
-9.2,-0.5567,0.12954,0.12548,-0.0123
-9.1,-0.5542,0.1283,0.12427,-0.0123
-9,-0.552,0.1271,0.12309,-0.0122
-8.9,-0.5499,0.12591,0.12192,-0.0121
-8.8,-0.5482,0.12478,0.12082,-0.0118
-8.7,-0.5467,0.12367,0.11973,-0.0116
-8.6,-0.5454,0.12259,0.11867,-0.0112
-8.5,-0.5444,0.12154,0.11765,-0.0108
-8.4,-0.5435,0.12051,0.11664,-0.0104
-8.3,-0.5344,0.11868,0.11481,-0.0123
-8.2,-0.5243,0.11677,0.1129,-0.0145
-8.1,-0.5152,0.11499,0.11111,-0.0164
-8,-0.5059,0.11321,0.10934,-0.0184
-7.9,-0.4968,0.11146,0.10758,-0.0202
-7.8,-0.488,0.10974,0.10587,-0.022
-7.7,-0.4788,0.10802,0.10415,-0.0239
-7.6,-0.4693,0.10629,0.10242,-0.0258
-7.5,-0.4584,0.10445,0.10058,-0.0282
-7.4,-0.4491,0.10277,0.09889,-0.03
-7.3,-0.4404,0.10113,0.09725,-0.0317
-7.2,-0.4309,0.09946,0.09557,-0.0336
-7.1,-0.42,0.09769,0.09381,-0.036
-7,-0.4098,0.09605,0.09219,-0.0381
-6.9,-0.3997,0.09444,0.09058,-0.0401
-6.7,-0.3845,0.0919,0.08805,-0.0428
-6.6,-0.3752,0.09043,0.08658,-0.0445
-6.5,-0.3651,0.08892,0.08508,-0.0465
-6.4,-0.3543,0.08739,0.08354,-0.0486
-6.3,-0.3472,0.08614,0.08229,-0.0497
-6.2,-0.3407,0.08493,0.0811,-0.0507
-6.1,-0.3307,0.08351,0.07968,-0.0525
-6,-0.3201,0.08206,0.07822,-0.0545
-5.9,-0.308,0.08054,0.0767,-0.0569
-5.8,-0.2998,0.07929,0.07545,-0.0582
-5.7,-0.2922,0.0781,0.07427,-0.0593
-5.6,-0.2813,0.07672,0.07288,-0.0614
-5.5,-0.2689,0.07526,0.07142,-0.0638
-5.3,-0.2402,0.07218,0.06832,-0.0694
-5.2,-0.2369,0.07132,0.06747,-0.0693
-5.1,-0.2255,0.06999,0.06614,-0.0714
-5,-0.2121,0.06857,0.06471,-0.0738
-4.9,-0.1975,0.06709,0.06323,-0.0766
-4.8,-0.1808,0.0655,0.06162,-0.0799
-4.7,-0.1762,0.06462,0.06074,-0.08
-4.6,-0.1636,0.06331,0.05941,-0.0821
-4.5,-0.1479,0.06182,0.05792,-0.085
-4.4,-0.1312,0.06031,0.05639,-0.0881
-4.3,-0.1132,0.05874,0.0548,-0.0915
-4.2,-0.1064,0.05777,0.05383,-0.092
-4,-0.0716,0.05468,0.05069,-0.0984
-3.9,-0.0512,0.05302,0.04903,-0.1023
-3.8,-0.0312,0.05152,0.04751,-0.1057
-3.7,-0.0243,0.05068,0.04667,-0.1059
-3.6,-0.0081,0.04944,0.04541,-0.1083
-3.5,0.0115,0.04807,0.04401,-0.1114
-3.4,0.0323,0.04668,0.04259,-0.1148
-3.3,0.0545,0.04527,0.04114,-0.1184
-3.2,0.0679,0.04423,0.04008,-0.1198
-3.1,0.0862,0.04302,0.03885,-0.1223
-3,0.108,0.04167,0.03746,-0.1256
-2.9,0.1327,0.04021,0.03594,-0.1294
-2.8,0.1584,0.03871,0.03439,-0.1334
-2.7,0.1964,0.03617,0.03175,-0.141
-2.6,0.2127,0.03519,0.03072,-0.1426
-2.5,0.2319,0.03415,0.02963,-0.1446
-2.4,0.2557,0.03297,0.02839,-0.1476
-2.3,0.2813,0.03173,0.02707,-0.1509
-2.2,0.3093,0.03036,0.02561,-0.1546
-2.1,0.3379,0.02892,0.02407,-0.1584
-1.9,0.386,0.026,0.0209,-0.1642
-1.8,0.4143,0.02432,0.01907,-0.1679
-1.7,0.4363,0.02381,0.01849,-0.1693
-1.6,0.4631,0.0225,0.01701,-0.1722
-1.4,0.5214,0.01911,0.01304,-0.1791
-1.3,0.5356,0.01876,0.0126,-0.1788
-1.2,0.5558,0.01812,0.01179,-0.1796
-1.1,0.5802,0.01699,0.01025,-0.1815
-1,0.6009,0.01667,0.00984,-0.1821
-0.9,0.6232,0.01625,0.00929,-0.1829
-0.8,0.6384,0.01598,0.00888,-0.1825
-0.6,0.6745,0.01557,0.00829,-0.1826
-0.5,0.6953,0.01528,0.00789,-0.1831
-0.4,0.7164,0.01499,0.00745,-0.1836
-0.3,0.7289,0.015,0.00748,-0.1827
-0.2,0.7478,0.01487,0.00732,-0.1825
-0.1,0.7647,0.01471,0.00708,-0.1822
0,0.782,0.01458,0.00695,-0.1819
0.1,0.802,0.01445,0.00681,-0.1821
0.2,0.8158,0.01441,0.00673,-0.1812
0.3,0.8357,0.01432,0.00666,-0.1814
0.4,0.8506,0.01432,0.00665,-0.1808
0.5,0.8699,0.01417,0.00645,-0.1807
0.6,0.8856,0.01417,0.00649,-0.1803
0.7,0.9029,0.01413,0.00647,-0.18
0.9,0.9396,0.01398,0.00631,-0.1796
1,0.9552,0.01399,0.00634,-0.179
1.1,0.9738,0.01392,0.00628,-0.1788
1.2,0.9916,0.01384,0.0062,-0.1784
1.3,1.0095,0.01379,0.00614,-0.178
1.4,1.0274,0.01375,0.00612,-0.1775
1.5,1.0457,0.01368,0.00601,-0.177
1.6,1.0645,0.01361,0.00589,-0.1765
1.7,1.0816,0.01363,0.00583,-0.1757
1.8,1.0972,0.0137,0.00582,-0.1747
1.9,1.1108,0.01384,0.00586,-0.1734
2,1.1189,0.01417,0.00598,-0.171
2.1,1.1264,0.01452,0.00618,-0.1688
2.2,1.1313,0.01497,0.00644,-0.1662
2.3,1.1346,0.01549,0.00677,-0.1635
2.4,1.1383,0.01601,0.00716,-0.1611
2.5,1.1439,0.01651,0.00754,-0.1589
2.7,1.1574,0.01746,0.00834,-0.1552
2.8,1.1678,0.01779,0.00871,-0.1538
2.9,1.1787,0.01811,0.00905,-0.1525
3,1.1904,0.0184,0.00942,-0.1513
3.2,1.2028,0.01801,0.01,-0.1466
3.3,1.2135,0.01836,0.01034,-0.1451
3.4,1.2249,0.0187,0.01068,-0.1436
3.5,1.2359,0.01907,0.01109,-0.1421
3.6,1.2482,0.0194,0.01145,-0.1406
3.7,1.2595,0.01979,0.01184,-0.1391
3.8,1.2707,0.02017,0.01223,-0.1376
3.9,1.282,0.02057,0.01265,-0.136
4,1.2949,0.02094,0.01307,-0.1346
4.1,1.3068,0.02134,0.01351,-0.133
4.2,1.3192,0.02176,0.01397,-0.1315
4.3,1.33,0.0222,0.01444,-0.1298
4.4,1.3429,0.02263,0.01494,-0.1282
4.5,1.3554,0.0231,0.01548,-0.1266
4.6,1.3671,0.02361,0.01604,-0.1249
4.7,1.3807,0.02413,0.01667,-0.1233
4.9,1.4044,0.02528,0.018,-0.1198
5,1.4165,0.02594,0.01878,-0.118
5.1,1.4271,0.02667,0.0196,-0.1161
5.2,1.4393,0.02752,0.02063,-0.1144
5.3,1.4493,0.02845,0.02174,-0.1126
5.4,1.4573,0.02944,0.0229,-0.1107
5.5,1.4634,0.0305,0.02416,-0.1087
5.6,1.4677,0.03161,0.02543,-0.1067
5.7,1.4709,0.03291,0.02693,-0.105
5.8,1.4718,0.03424,0.02845,-0.1032
5.9,1.4712,0.03564,0.03002,-0.1015
6,1.4694,0.0371,0.03164,-0.1
6.1,1.4666,0.03864,0.03332,-0.0986
6.2,1.463,0.04024,0.03506,-0.0974
6.3,1.4586,0.04192,0.03684,-0.0965
6.4,1.4521,0.04386,0.03893,-0.096
6.5,1.4453,0.04589,0.04111,-0.0958
6.7,1.4302,0.05026,0.04572,-0.0965
6.8,1.4224,0.0526,0.04817,-0.0973
7,1.4067,0.05763,0.05339,-0.1002
7.6,1.3705,0.07467,0.07076,-0.1155
7.7,1.3653,0.07796,0.07409,-0.1188
7.8,1.3611,0.08118,0.07734,-0.1219
7.9,1.3577,0.08429,0.08047,-0.1248
8.1,1.3525,0.09012,0.08634,-0.13
8.2,1.3507,0.09288,0.08911,-0.1324
8.3,1.3496,0.09556,0.0918,-0.1346
8.4,1.3489,0.09816,0.0944,-0.1368
8.5,1.3487,0.10068,0.09693,-0.1388
8.6,1.3489,0.10314,0.09939,-0.1407
8.7,1.3496,0.10552,0.10177,-0.1425
8.8,1.3507,0.10782,0.10408,-0.1443
8.9,1.3522,0.11006,0.10633,-0.1459
9,1.3528,0.11255,0.1088,-0.1478
9.1,1.3501,0.11627,0.11252,-0.1519
9.2,1.3513,0.11879,0.11504,-0.1539
9.3,1.3528,0.12124,0.1175,-0.1558
9.4,1.3547,0.12365,0.11991,-0.1577
9.5,1.3569,0.126,0.12227,-0.1594
9.6,1.3592,0.1283,0.12457,-0.1611
9.7,1.3619,0.13055,0.12683,-0.1627
9.8,1.3647,0.13275,0.12904,-0.1643
9.9,1.3677,0.1349,0.13119,-0.1658
10,1.3709,0.137,0.1333,-0.1672
10.1,1.3737,0.13929,0.13557,-0.1688
10.2,1.3757,0.14207,0.13835,-0.1711
10.3,1.3783,0.14472,0.14101,-0.1732
10.4,1.3811,0.14729,0.14358,-0.1752
10.5,1.3839,0.15011,0.1464,-0.1779
10.6,1.3875,0.15244,0.14874,-0.1796
10.7,1.3911,0.15473,0.15103,-0.1812
10.8,1.395,0.15698,0.15329,-0.1828
10.9,1.3989,0.1592,0.15551,-0.1844
11,1.403,0.16138,0.1577,-0.1859
11.1,1.4071,0.16352,0.15985,-0.1874
11.2,1.4112,0.16562,0.16195,-0.1888
11.3,1.4154,0.16768,0.16401,-0.1901
11.4,1.4191,0.17055,0.16685,-0.1924
11.5,1.4231,0.17322,0.16953,-0.1945
11.6,1.4272,0.17582,0.17214,-0.1964
11.7,1.4315,0.17835,0.17467,-0.1983
11.8,1.4359,0.18085,0.17717,-0.2001
11.9,1.4405,0.18343,0.17978,-0.2024
12,1.4452,0.18574,0.1821,-0.204
12.1,1.4499,0.18804,0.18441,-0.2057
12.2,1.4548,0.19032,0.18668,-0.2073
12.3,1.4596,0.19258,0.18894,-0.2088
12.4,1.4645,0.19481,0.19118,-0.2104
12.5,1.4695,0.19702,0.19339,-0.2119
12.6,1.4744,0.19921,0.19558,-0.2135
12.7,1.4794,0.20166,0.19801,-0.2152
12.8,1.4845,0.20456,0.20091,-0.2174
12.9,1.4896,0.20729,0.20365,-0.2194
13,1.4949,0.20997,0.20633,-0.2213
13.1,1.5002,0.21259,0.20895,-0.2232
13.2,1.5055,0.21518,0.21155,-0.2251
13.3,1.5109,0.21775,0.21411,-0.2269
13.4,1.5163,0.22031,0.21667,-0.2287
13.5,1.5218,0.22277,0.21914,-0.2308
13.6,1.5273,0.2252,0.22157,-0.2326
13.7,1.5328,0.22763,0.224,-0.2343
13.8,1.5383,0.23005,0.22643,-0.236
13.9,1.5439,0.23247,0.22884,-0.2377
14,1.5494,0.23487,0.23124,-0.2393
14.1,1.555,0.23726,0.23364,-0.241
14.2,1.5606,0.23965,0.23602,-0.2427
14.3,1.5664,0.24262,0.23898,-0.2448
14.4,1.5723,0.24566,0.24201,-0.2469
14.5,1.5781,0.24853,0.24489,-0.249
14.6,1.584,0.25137,0.24773,-0.2509
14.7,1.5899,0.2542,0.25056,-0.2529
14.8,1.5958,0.25698,0.25335,-0.2548
14.9,1.6018,0.25977,0.25614,-0.2567
15,1.6077,0.26255,0.25892,-0.2586
15.1,1.6137,0.26534,0.26171,-0.2605
15.2,1.6197,0.26812,0.26449,-0.2624
15.3,1.6257,0.2709,0.26727,-0.2643
15.4,1.6317,0.27369,0.27007,-0.2662
15.5,1.6377,0.2765,0.27287,-0.2681
15.6,1.6438,0.2793,0.27567,-0.27
15.7,1.6498,0.28211,0.27851,-0.2719
15.8,1.6559,0.28492,0.28133,-0.2739
15.9,1.662,0.28776,0.28416,-0.2758
16,1.668,0.2906,0.28701,-0.2777
16.3,1.6861,0.29907,0.29546,-0.2839
16.4,1.6924,0.30239,0.29877,-0.286
16.5,1.6987,0.30565,0.30204,-0.2882
16.6,1.705,0.30886,0.30525,-0.2903
16.7,1.7113,0.31203,0.30843,-0.2924
16.8,1.7176,0.31522,0.31162,-0.2945
16.9,1.7238,0.31841,0.3148,-0.2966
17,1.7301,0.32159,0.31799,-0.2987
17.1,1.7364,0.32477,0.32117,-0.3007
17.2,1.7426,0.32797,0.32438,-0.3028
17.3,1.7489,0.33119,0.3276,-0.3049
17.4,1.7552,0.33441,0.33081,-0.307
17.5,1.7615,0.33765,0.33405,-0.3091
17.6,1.7677,0.34089,0.3373,-0.3112
17.7,1.774,0.34417,0.34058,-0.3134
17.8,1.7803,0.34744,0.34385,-0.3155
17.9,1.7865,0.35073,0.34715,-0.3176
18,1.7928,0.35406,0.35048,-0.3197
18.1,1.7991,0.35739,0.35382,-0.3219
18.2,1.8054,0.36075,0.35717,-0.324
18.3,1.8116,0.3641,0.36053,-0.3262
18.4,1.8179,0.3675,0.36393,-0.3284
18.5,1.8242,0.37089,0.36732,-0.3305
18.6,1.8304,0.37433,0.37076,-0.3327
18.7,1.8367,0.37777,0.37421,-0.3349
18.8,1.843,0.38125,0.37768,-0.3371
18.9,1.8492,0.38473,0.38117,-0.3393
19,1.8555,0.38823,0.3847,-0.3415
19.1,1.8617,0.39177,0.38823,-0.3438
19.2,1.868,0.39532,0.39179,-0.346
19.3,1.8742,0.39888,0.39535,-0.3482
19.4,1.8804,0.40247,0.39895,-0.3505
19.5,1.8867,0.40609,0.40257,-0.3528
19.6,1.8929,0.40974,0.40622,-0.355
19.7,1.8991,0.41338,0.40986,-0.3573
19.8,1.9053,0.41708,0.41356,-0.3596
19.9,1.9118,0.42138,0.41785,-0.3622
20,1.9182,0.42563,0.42211,-0.3647
20.1,1.9245,0.42965,0.42613,-0.3671
20.2,1.9308,0.43375,0.43024,-0.3696
20.3,1.9371,0.4378,0.43429,-0.372
20.4,1.9433,0.44187,0.43836,-0.3745
20.5,1.9496,0.44597,0.44247,-0.3769
20.6,1.9558,0.45005,0.44655,-0.3794
20.7,1.962,0.45415,0.45066,-0.3818
20.8,1.9683,0.4583,0.45481,-0.3843
20.9,1.9745,0.46245,0.45896,-0.3868
21,1.9805,0.46658,0.4631,-0.3896
21.1,1.9867,0.47076,0.46728,-0.392
21.2,1.9928,0.47497,0.47149,-0.3945
21.3,1.999,0.4792,0.47572,-0.397
21.4,2.0052,0.48349,0.48002,-0.3995
21.5,2.0112,0.48774,0.48427,-0.402
21.6,2.0174,0.49209,0.48863,-0.4045
21.7,2.0235,0.49644,0.49299,-0.407
21.8,2.0297,0.50088,0.49743,-0.4095
21.9,2.0358,0.50531,0.50187,-0.4121
22,2.0419,0.50979,0.50635,-0.4146
22.1,2.0479,0.5143,0.51088,-0.4172
22.2,2.054,0.51883,0.51542,-0.4198
22.3,2.0601,0.52342,0.52,-0.4223
22.4,2.0661,0.52805,0.52464,-0.4249
22.5,2.0722,0.5327,0.5293,-0.4275
22.6,2.0782,0.5374,0.534,-0.4301
22.7,2.0843,0.54214,0.53875,-0.4328
22.8,2.0903,0.54695,0.54357,-0.4354
22.9,2.0963,0.55172,0.54834,-0.438
23,2.1023,0.5566,0.55322,-0.4407
23.1,2.1082,0.56148,0.5581,-0.4433
23.2,2.1143,0.56644,0.56307,-0.446
23.3,2.1202,0.57141,0.56804,-0.4487
23.4,2.1261,0.57641,0.57305,-0.4514
23.5,2.1321,0.58151,0.57815,-0.4541
23.6,2.138,0.58658,0.58322,-0.4568
23.7,2.1439,0.59178,0.58843,-0.4595
23.8,2.1498,0.59693,0.59358,-0.4622
23.9,2.1557,0.60222,0.59888,-0.465
24,2.1615,0.60746,0.60412,-0.4677
24.1,2.1674,0.61277,0.60943,-0.4705
24.2,2.1732,0.61815,0.61483,-0.4733
24.3,2.1791,0.6236,0.62027,-0.4761
24.4,2.1849,0.62905,0.62573,-0.4788
24.6,2.1964,0.64006,0.63675,-0.4844
24.7,2.2021,0.64567,0.64237,-0.4873
24.8,2.2079,0.65135,0.64805,-0.4901
24.9,2.2136,0.65703,0.65374,-0.4929
25,2.2193,0.66275,0.65946,-0.4958
25.1,2.225,0.66855,0.66527,-0.4986
25.2,2.2307,0.67437,0.6711,-0.5015
25.3,2.2363,0.68026,0.67701,-0.5044
25.4,2.242,0.68617,0.68292,-0.5073
25.5,2.2476,0.6921,0.68885,-0.5102
26.1,1.3871,0.37866,0.37619,-0.2944
26.2,1.3888,0.38116,0.3787,-0.2958
26.3,1.3905,0.3836,0.38115,-0.2971
26.5,1.3943,0.38853,0.3861,-0.3001
26.6,1.3958,0.39092,0.3885,-0.3014
26.7,1.3974,0.39334,0.39092,-0.3028
26.8,1.399,0.39574,0.39333,-0.3041
26.9,1.4004,0.39804,0.39564,-0.3054
27,1.4019,0.40042,0.39803,-0.3068
27.1,1.4033,0.40281,0.40042,-0.3081
27.2,1.4047,0.40516,0.40279,-0.3095
27.3,1.4061,0.4075,0.40513,-0.3108
27.4,1.4075,0.40987,0.40752,-0.3122
27.5,1.4088,0.4122,0.40985,-0.3135
27.6,1.41,0.4145,0.41216,-0.3148
27.7,1.4113,0.41687,0.41453,-0.3161
27.8,1.4125,0.4192,0.41687,-0.3175
27.9,1.4137,0.42155,0.41923,-0.3188
28,1.4148,0.4239,0.42159,-0.3201
28.1,1.416,0.42629,0.42399,-0.3214

