airfoilName st20.dat
Re 	690000
M 	7.000000e-01
N 	4.500000e+00
VACC 	0 VACCflag 1
XTR 	1.00 	1.00 XTRflag 0
alpha,cl,cd,cdp,cm
-30,-1.7831,0.8775,0.87539,0.4042
-29.9,-1.7778,0.87012,0.86801,0.4009
-29.8,-1.7725,0.86279,0.86067,0.3977
-29.7,-1.7671,0.85554,0.85342,0.3945
-29.6,-1.7618,0.84836,0.84625,0.3912
-29.5,-1.7564,0.84118,0.83906,0.388
-29.4,-1.751,0.83412,0.832,0.3848
-29.3,-1.7455,0.82713,0.825,0.3817
-29.2,-1.7401,0.82023,0.81811,0.3785
-29.1,-1.7346,0.81333,0.8112,0.3753
-29,-1.7291,0.80654,0.80442,0.3722
-28.9,-1.7236,0.7998,0.79767,0.369
-28.8,-1.7181,0.79313,0.791,0.3659
-28.7,-1.7125,0.78643,0.78429,0.3628
-28.6,-1.7069,0.77991,0.77776,0.3597
-28.5,-1.7014,0.77344,0.77129,0.3566
-28.4,-1.6957,0.76694,0.76479,0.3535
-28.3,-1.6901,0.76055,0.7584,0.3504
-28.2,-1.6844,0.75421,0.75206,0.3473
-28.1,-1.6787,0.7479,0.74575,0.3442
-28,-1.673,0.74167,0.73951,0.3412
-27.9,-1.6673,0.73548,0.73332,0.3381
-27.8,-1.6616,0.72937,0.72721,0.3351
-27.7,-1.6558,0.72326,0.7211,0.3321
-27.6,-1.65,0.71726,0.7151,0.3291
-27.5,-1.6443,0.71132,0.70916,0.3261
-27.4,-1.6385,0.7054,0.70324,0.3231
-27.3,-1.6326,0.69953,0.69736,0.3201
-27.2,-1.6268,0.69371,0.69154,0.3171
-27.1,-1.6209,0.68796,0.68578,0.3142
-27,-1.615,0.68222,0.68005,0.3112
-26.9,-1.6091,0.67655,0.67437,0.3083
-26.8,-1.6032,0.67093,0.66875,0.3054
-26.7,-1.5972,0.66533,0.66315,0.3024
-26.6,-1.5913,0.65981,0.65763,0.2995
-26.5,-1.5853,0.65436,0.65217,0.2966
-26.4,-1.5793,0.64891,0.64672,0.2937
-26.3,-1.5733,0.6435,0.64132,0.2909
-26.2,-1.5673,0.6382,0.63601,0.288
-26.1,-1.5612,0.63285,0.63066,0.2851
-26,-1.5552,0.62761,0.62542,0.2823
-25.9,-1.5491,0.62236,0.62016,0.2794
-25.8,-1.543,0.61723,0.61503,0.2766
-25.7,-1.537,0.61212,0.60991,0.2738
-25.6,-1.5309,0.60704,0.60484,0.271
-25.5,-1.5247,0.60201,0.59981,0.2682
-25.4,-1.5186,0.59702,0.59481,0.2654
-25.3,-1.5124,0.59209,0.58989,0.2626
-25.2,-1.5062,0.58719,0.58498,0.2599
-25.1,-1.5001,0.58235,0.58014,0.2571
-25,-1.4939,0.57757,0.57536,0.2544
-24.9,-1.4876,0.57281,0.57059,0.2516
-24.8,-1.4814,0.56811,0.5659,0.2489
-24.7,-1.4752,0.56346,0.56124,0.2462
-24.6,-1.4689,0.55887,0.55666,0.2434
-24.5,-1.4627,0.55432,0.55211,0.2407
-24.4,-1.4564,0.54985,0.54764,0.238
-24.3,-1.4501,0.54545,0.54323,0.2353
-22.1,-1.3095,0.45804,0.45582,0.1785
-22,-1.3031,0.4539,0.45167,0.1762
-21.9,-1.2967,0.44979,0.44757,0.1739
-21.8,-1.2903,0.44577,0.44354,0.1716
-21.7,-1.2838,0.44167,0.43944,0.1693
-21.6,-1.2774,0.43769,0.43546,0.1671
-21.5,-1.271,0.43371,0.43148,0.1648
-21.4,-1.2646,0.42977,0.42754,0.1626
-21.3,-1.2581,0.42588,0.42365,0.1604
-21.2,-1.2517,0.42199,0.41976,0.1582
-21.1,-1.2453,0.41816,0.41593,0.156
-21,-1.2388,0.41434,0.41211,0.1538
-20.9,-1.2324,0.41057,0.40834,0.1517
-20.8,-1.226,0.40683,0.4046,0.1495
-20.7,-1.2196,0.40312,0.40089,0.1474
-20.6,-1.2131,0.39943,0.3972,0.1452
-20.5,-1.2067,0.39578,0.39355,0.1431
-20.4,-1.2003,0.39218,0.38994,0.141
-20.3,-1.1939,0.38861,0.38637,0.1389
-20.2,-1.1875,0.38504,0.38281,0.1368
-20.1,-1.1811,0.38152,0.37929,0.1348
-20,-1.1747,0.37802,0.37578,0.1327
-19.9,-1.1682,0.37457,0.37233,0.1307
-19.8,-1.1618,0.37112,0.36887,0.1286
-19.7,-1.1554,0.36772,0.36547,0.1266
-19.6,-1.149,0.36434,0.3621,0.1246
-19.5,-1.1427,0.361,0.35876,0.1226
-19.4,-1.1363,0.35768,0.35543,0.1206
-19.3,-1.1299,0.35439,0.35215,0.1186
-19.2,-1.1235,0.35114,0.34889,0.1167
-19.1,-1.1171,0.34789,0.34565,0.1147
-19,-1.1108,0.34468,0.34244,0.1128
-18.9,-1.1044,0.34151,0.33926,0.1109
-18.8,-1.098,0.33834,0.3361,0.109
-18.7,-1.0917,0.33522,0.33297,0.1071
-18.6,-1.0853,0.33211,0.32987,0.1052
-18.5,-1.079,0.32903,0.32679,0.1033
-18.4,-1.0726,0.32597,0.32373,0.1015
-18.3,-1.0663,0.32294,0.3207,0.0996
-18.2,-1.06,0.31993,0.31769,0.0978
-18.1,-1.0537,0.31694,0.31469,0.0959
-18,-1.0474,0.31397,0.31173,0.0941
-17.9,-1.0411,0.31103,0.30879,0.0923
-17.8,-1.0347,0.3081,0.30586,0.0905
-17.7,-1.0284,0.30521,0.30297,0.0888
-17.6,-1.0221,0.30233,0.30009,0.087
-17.5,-1.0158,0.29946,0.29722,0.0852
-17.4,-1.0095,0.29662,0.29438,0.0835
-17.3,-1.0032,0.2938,0.29156,0.0818
-17.2,-0.9969,0.29099,0.28875,0.08
-17.1,-0.9906,0.2882,0.28597,0.0783
-17,-0.9843,0.28544,0.28321,0.0766
-16.9,-0.9781,0.2827,0.28046,0.0749
-16.8,-0.9718,0.27997,0.27773,0.0732
-16.7,-0.9655,0.27727,0.27503,0.0716
-16.6,-0.9592,0.27459,0.27235,0.0699
-16.5,-0.953,0.27193,0.26969,0.0682
-16.4,-0.9467,0.26928,0.26704,0.0666
-16.3,-0.9404,0.26666,0.26442,0.065
-16.2,-0.9342,0.26406,0.26182,0.0633
-16.1,-0.9279,0.26148,0.25925,0.0617
-16,-0.9217,0.25892,0.25668,0.0601
-15.9,-0.9155,0.25637,0.25414,0.0585
-15.8,-0.9092,0.25386,0.25163,0.0569
-15.7,-0.903,0.25135,0.24912,0.0553
-15.6,-0.8968,0.24887,0.24664,0.0537
-15.5,-0.8906,0.24641,0.24418,0.0522
-15.4,-0.8844,0.24397,0.24174,0.0506
-15.3,-0.8782,0.24154,0.23932,0.0491
-15.2,-0.871,0.2398,0.23757,0.0468
-15.1,-0.8648,0.23738,0.23515,0.0452
-15,-0.8585,0.23497,0.23275,0.0437
-14.9,-0.8523,0.23256,0.23035,0.0421
-14.8,-0.846,0.23017,0.22795,0.0406
-14.7,-0.8398,0.22777,0.22555,0.0391
-14.6,-0.8336,0.22538,0.22316,0.0377
-14.5,-0.8274,0.22298,0.22076,0.0362
-14.4,-0.8211,0.22057,0.21836,0.0347
-14.3,-0.8149,0.21818,0.21597,0.0333
-14.2,-0.8085,0.21577,0.21357,0.0318
-13.8,-0.782,0.2065,0.20431,0.0258
-13.7,-0.7763,0.20422,0.20203,0.0246
-13.6,-0.7705,0.20197,0.19978,0.0233
-13.5,-0.7648,0.19973,0.19754,0.0221
-13.4,-0.7591,0.19752,0.19533,0.0209
-13.3,-0.7534,0.19533,0.19314,0.0197
-13.2,-0.7477,0.19316,0.19098,0.0186
-13.1,-0.7421,0.19102,0.18884,0.0174
-13,-0.7364,0.1889,0.18672,0.0162
-12.9,-0.7308,0.18681,0.18463,0.0151
-12.8,-0.7252,0.18474,0.18256,0.0139
-12.7,-0.7196,0.18269,0.18052,0.0128
-12.6,-0.714,0.18067,0.1785,0.0117
-12.5,-0.7085,0.17867,0.1765,0.0106
-12.4,-0.7029,0.17669,0.17453,0.0095
-12.3,-0.6973,0.17473,0.17257,0.0084
-12.2,-0.6917,0.17279,0.17064,0.0073
-12.1,-0.6862,0.17088,0.16873,0.0063
-12,-0.6807,0.16899,0.16684,0.0052
-11.9,-0.6752,0.16712,0.16497,0.0042
-11.8,-0.6697,0.16527,0.16313,0.0032
-11.7,-0.6643,0.16344,0.1613,0.0022
-11.6,-0.6589,0.16164,0.1595,0.0012
-11.5,-0.6535,0.15985,0.15772,0.0002
-11.4,-0.6483,0.15809,0.15596,-0.0007
-11.3,-0.643,0.15635,0.15422,-0.0016
-11.2,-0.6379,0.15463,0.15251,-0.0024
-11.1,-0.6328,0.15294,0.15082,-0.0033
-11,-0.6279,0.15127,0.14916,-0.0041
-10.9,-0.623,0.14962,0.14752,-0.0048
-10.8,-0.6183,0.14801,0.14592,-0.0055
-10.7,-0.6138,0.14643,0.14435,-0.0061
-10.6,-0.6096,0.14489,0.14281,-0.0067
-10.5,-0.6056,0.14339,0.14131,-0.0071
-10.4,-0.6018,0.14192,0.13985,-0.0075
-10.3,-0.5982,0.1405,0.13843,-0.0078
-10.2,-0.595,0.13912,0.13707,-0.008
-10.1,-0.5922,0.13779,0.13575,-0.0081
-9.9,-0.577,0.13409,0.13205,-0.0113
-9.8,-0.5687,0.13219,0.13015,-0.013
-9.7,-0.5603,0.1303,0.12826,-0.0148
-9.6,-0.5518,0.12841,0.12637,-0.0167
-9.5,-0.5423,0.12645,0.1244,-0.0187
-9.4,-0.5335,0.12456,0.12252,-0.0207
-9.3,-0.5253,0.12277,0.12072,-0.0223
-9.2,-0.5157,0.12091,0.11887,-0.0245
-9.1,-0.5071,0.11906,0.11702,-0.0263
-9,-0.4977,0.11715,0.1151,-0.0283
-8.9,-0.4887,0.11529,0.11324,-0.0302
-8.8,-0.4795,0.11343,0.11138,-0.0321
-8.7,-0.4701,0.11156,0.10951,-0.034
-8.6,-0.4617,0.1098,0.10775,-0.0356
-8.5,-0.4533,0.10806,0.10602,-0.0372
-8.4,-0.4441,0.10625,0.1042,-0.039
-8.3,-0.4348,0.10446,0.10241,-0.0408
-8.2,-0.425,0.10268,0.10063,-0.0428
-8,-0.4041,0.09916,0.09712,-0.047
-7.9,-0.397,0.09766,0.09562,-0.0481
-7.8,-0.3889,0.09608,0.09405,-0.0496
-7.7,-0.3804,0.09451,0.09247,-0.0511
-7.6,-0.3717,0.09293,0.09088,-0.0528
-7.5,-0.3624,0.09136,0.08931,-0.0545
-7.4,-0.3534,0.08982,0.08777,-0.0562
-7.3,-0.3464,0.08846,0.08641,-0.0573
-7.2,-0.3384,0.08705,0.08501,-0.0586
-7.1,-0.3299,0.08563,0.08358,-0.06
-7,-0.3207,0.08418,0.08212,-0.0617
-6.9,-0.3117,0.08277,0.08071,-0.0633
-6.8,-0.3046,0.08153,0.07947,-0.0643
-6.7,-0.2967,0.08024,0.07819,-0.0655
-6.6,-0.2883,0.07894,0.07688,-0.0668
-6.5,-0.2796,0.07763,0.07557,-0.0682
-6.4,-0.2716,0.0764,0.07433,-0.0694
-6.3,-0.2641,0.07522,0.07315,-0.0705
-6.2,-0.2562,0.07402,0.07194,-0.0716
-6.1,-0.2477,0.0728,0.07072,-0.0729
-6,-0.2393,0.07163,0.06954,-0.0743
-5.9,-0.2298,0.0704,0.06831,-0.0759
-5.8,-0.2196,0.06915,0.06705,-0.0776
-5.7,-0.2089,0.06787,0.06576,-0.0795
-5.6,-0.1977,0.06658,0.06445,-0.0814
-5.5,-0.1866,0.06532,0.06318,-0.0834
-5.4,-0.1754,0.06406,0.06192,-0.0853
-5.3,-0.1636,0.06278,0.06063,-0.0874
-5.2,-0.1511,0.06148,0.05931,-0.0895
-5.1,-0.1382,0.06017,0.05798,-0.0918
-5,-0.1256,0.05889,0.0567,-0.094
-4.9,-0.1123,0.0576,0.05539,-0.0963
-4.8,-0.0985,0.05628,0.05406,-0.0987
-4.7,-0.0841,0.05495,0.05271,-0.1012
-4.6,-0.0683,0.05349,0.05122,-0.1041
-4.5,-0.0535,0.05215,0.04987,-0.1066
-4.4,-0.0381,0.05079,0.0485,-0.1093
-4.3,-0.0222,0.04941,0.04709,-0.1119
-4.2,-0.0055,0.04801,0.04566,-0.1147
-4.1,0.0114,0.04662,0.04425,-0.1176
-4,0.0289,0.04519,0.0428,-0.1205
-3.9,0.0472,0.04374,0.04132,-0.1236
-3.8,0.0663,0.04223,0.03978,-0.1269
-3.7,0.0861,0.0407,0.03821,-0.1302
-3.6,0.1063,0.03922,0.03672,-0.1335
-3.5,0.1268,0.03788,0.03535,-0.1368
-3.4,0.148,0.03656,0.03399,-0.1401
-3.3,0.1698,0.03525,0.03264,-0.1435
-3.2,0.192,0.03396,0.0313,-0.1467
-3.1,0.2146,0.03267,0.02997,-0.15
-3,0.2377,0.03135,0.02861,-0.1533
-2.9,0.2613,0.03002,0.0272,-0.1566
-2.8,0.2855,0.02864,0.02576,-0.16
-2.7,0.3102,0.02721,0.02426,-0.1634
-2.6,0.3356,0.02569,0.02267,-0.1669
-2.5,0.3618,0.02405,0.02094,-0.1706
-2.3,0.4187,0.01983,0.01644,-0.1794
-2.2,0.4443,0.01826,0.01473,-0.1825
-2.1,0.4688,0.01675,0.01307,-0.1852
-2,0.4942,0.01485,0.01096,-0.1884
-1.9,0.5205,0.01211,0.00784,-0.1926
-1.7,0.5626,0.00988,0.00499,-0.1954
-1.6,0.582,0.00943,0.00435,-0.1956
-1.5,0.6009,0.00908,0.00385,-0.1957
-1.3,0.6368,0.00875,0.00332,-0.1952
-1.2,0.6547,0.00861,0.00309,-0.195
-1.1,0.6725,0.0085,0.00289,-0.1947
-1,0.6897,0.00842,0.00274,-0.1944
-0.9,0.7072,0.00838,0.00268,-0.1942
-0.8,0.7246,0.00832,0.00257,-0.1939
-0.7,0.7416,0.00829,0.00247,-0.1936
-0.6,0.7589,0.00825,0.0024,-0.1934
-0.5,0.776,0.00822,0.00236,-0.1931
-0.4,0.7926,0.00822,0.00231,-0.1928
-0.3,0.8091,0.00823,0.00228,-0.1924
-0.2,0.8259,0.00823,0.00226,-0.1921
-0.1,0.8423,0.00825,0.00224,-0.1917
0,0.859,0.00826,0.00223,-0.1914
0.1,0.8745,0.00832,0.00222,-0.1908
0.2,0.8905,0.00835,0.00225,-0.1904
0.3,0.9063,0.0084,0.00227,-0.1899
0.4,0.9205,0.00852,0.00229,-0.1891
0.5,0.9334,0.00868,0.00235,-0.188
0.6,0.9479,0.0088,0.00241,-0.1873
0.7,0.9614,0.00895,0.0025,-0.1864
0.8,0.9751,0.00911,0.00258,-0.1855
0.9,0.9884,0.00927,0.0027,-0.1846
1,0.9981,0.00959,0.00288,-0.183
1.1,1.0071,0.00995,0.00308,-0.1813
1.2,1.0171,0.01027,0.00328,-0.1799
1.3,1.0257,0.01067,0.00352,-0.1783
1.5,1.0363,0.01184,0.00425,-0.1742
1.6,1.0472,0.01218,0.00451,-0.173
1.7,1.0608,0.01238,0.00467,-0.1722
1.8,1.0749,0.01254,0.00483,-0.1714
1.9,1.0889,0.01271,0.00499,-0.1705
2,1.1032,0.01286,0.00513,-0.1697
2.1,1.1168,0.01305,0.00531,-0.1688
2.2,1.1311,0.0132,0.00546,-0.1679
2.3,1.1454,0.01336,0.00562,-0.167
2.4,1.1599,0.0135,0.00578,-0.1662
2.5,1.174,0.01366,0.00596,-0.1652
2.6,1.1881,0.01383,0.00612,-0.1642
2.7,1.2021,0.014,0.00631,-0.1632
2.8,1.2166,0.01415,0.00648,-0.1622
2.9,1.2308,0.01431,0.00666,-0.1611
3,1.2447,0.01449,0.00685,-0.16
3.1,1.2586,0.01466,0.00704,-0.1588
3.2,1.2722,0.01484,0.00728,-0.1576
3.3,1.2857,0.01501,0.00747,-0.1563
3.4,1.2985,0.01518,0.00768,-0.1548
3.5,1.3107,0.01538,0.0079,-0.1532
3.6,1.3235,0.01555,0.00813,-0.1517
3.7,1.3359,0.01576,0.00836,-0.1501
3.8,1.3494,0.01597,0.00862,-0.1486
3.9,1.3633,0.01618,0.00888,-0.1472
4,1.3778,0.01637,0.00919,-0.1459
4.1,1.3937,0.01551,0.00968,-0.1452
4.2,1.4073,0.01578,0.00997,-0.1436
4.3,1.4211,0.01606,0.01029,-0.1419
4.4,1.435,0.01634,0.01062,-0.1402
4.5,1.4486,0.01666,0.01097,-0.1384
4.6,1.4623,0.01699,0.01137,-0.1365
4.7,1.4758,0.01735,0.0118,-0.1346
4.8,1.4891,0.01775,0.01228,-0.1325
4.9,1.5018,0.0182,0.01283,-0.1303
5,1.5142,0.01871,0.01345,-0.128
5.1,1.5265,0.01927,0.01413,-0.1257
5.2,1.5383,0.01993,0.01493,-0.1233
5.3,1.5498,0.02069,0.01585,-0.1209
5.4,1.5605,0.02156,0.01689,-0.1184
5.5,1.5697,0.02255,0.01807,-0.116
5.6,1.5766,0.02365,0.01936,-0.1135
5.7,1.5809,0.02484,0.02073,-0.1111
5.8,1.5818,0.0262,0.02227,-0.1086
5.9,1.5804,0.02763,0.02388,-0.1062
6,1.5773,0.02912,0.02553,-0.1039
6.1,1.5727,0.03066,0.02724,-0.1018
6.2,1.5672,0.03228,0.02899,-0.0999
6.3,1.5608,0.03397,0.03082,-0.0982
6.4,1.5537,0.03574,0.03272,-0.0968
6.7,1.5299,0.04157,0.03889,-0.0944
6.8,1.5214,0.04371,0.04114,-0.0944
7.1,1.4967,0.0507,0.0484,-0.0964
7.2,1.4879,0.05334,0.0511,-0.0979
7.4,1.469,0.05922,0.05713,-0.1025
7.5,1.4603,0.06235,0.06032,-0.1054
7.6,1.4524,0.06558,0.06361,-0.1085
7.7,1.4451,0.06891,0.06699,-0.1119
7.8,1.4387,0.07232,0.07045,-0.1154
8,1.4281,0.07917,0.07736,-0.1221
8.2,1.4193,0.08544,0.08366,-0.1279
8.3,1.4157,0.08843,0.08666,-0.1306
8.4,1.4125,0.09137,0.0896,-0.1333
8.5,1.4099,0.09423,0.09247,-0.1358
8.6,1.4093,0.09683,0.09507,-0.1381
8.7,1.4059,0.09987,0.0981,-0.1408
8.8,1.4031,0.10282,0.10105,-0.1434
8.9,1.401,0.1057,0.10393,-0.1459
9,1.3995,0.10852,0.10675,-0.1483
9.1,1.3984,0.1113,0.10954,-0.1507
9.2,1.3978,0.11405,0.11229,-0.153
9.3,1.3976,0.11675,0.11499,-0.1552
9.5,1.3984,0.12207,0.12031,-0.1596
9.6,1.3992,0.12467,0.12292,-0.1617
9.7,1.4004,0.12725,0.12549,-0.1637
9.8,1.4019,0.12978,0.12803,-0.1657
9.9,1.4037,0.13228,0.13054,-0.1677
10,1.4058,0.13477,0.13301,-0.1697
10.1,1.4067,0.13755,0.13579,-0.1719
10.2,1.4081,0.14024,0.13848,-0.174
10.3,1.4099,0.14288,0.14112,-0.176
10.4,1.412,0.1455,0.14375,-0.178
10.5,1.4143,0.14808,0.14633,-0.18
10.6,1.4169,0.15063,0.14888,-0.1819
10.7,1.4197,0.15316,0.15141,-0.1838
10.8,1.4227,0.15566,0.15392,-0.1857
10.9,1.4259,0.15814,0.1564,-0.1875
11.1,1.4335,0.16285,0.16109,-0.1911
11.2,1.4363,0.16562,0.16387,-0.1932
11.3,1.4394,0.16831,0.16655,-0.1952
11.4,1.4428,0.17095,0.16919,-0.1971
11.5,1.4465,0.17351,0.17177,-0.199
11.6,1.4503,0.17608,0.17435,-0.2008
11.7,1.4542,0.17862,0.17688,-0.2027
11.8,1.4582,0.18114,0.17941,-0.2045
11.9,1.4623,0.18364,0.18191,-0.2063
12,1.4666,0.1861,0.18437,-0.2081
12.1,1.4709,0.18857,0.18684,-0.2099
12.2,1.4753,0.19102,0.18929,-0.2117
12.3,1.4798,0.19346,0.19173,-0.2134
12.4,1.4844,0.19587,0.19415,-0.2152
12.5,1.4891,0.19828,0.19655,-0.2169
12.6,1.4938,0.20067,0.19894,-0.2187
12.7,1.4986,0.20304,0.20131,-0.2204
12.8,1.5034,0.20539,0.20366,-0.2222
12.9,1.5077,0.20915,0.20741,-0.2247
13,1.5126,0.21175,0.21001,-0.2266
13.1,1.5176,0.21432,0.21259,-0.2284
13.2,1.5227,0.2169,0.21516,-0.2302
13.3,1.5278,0.21946,0.21773,-0.2321
13.4,1.533,0.22203,0.22029,-0.2339
13.5,1.5382,0.22459,0.22285,-0.2357
13.6,1.5435,0.22713,0.2254,-0.2375
13.7,1.5488,0.22968,0.22795,-0.2393
13.8,1.5541,0.23223,0.2305,-0.2412
13.9,1.5595,0.23477,0.23304,-0.243
14,1.565,0.23732,0.23558,-0.2448
14.1,1.5704,0.23986,0.23813,-0.2466
14.2,1.5759,0.2424,0.24067,-0.2484
14.3,1.5814,0.24494,0.24321,-0.2503
14.4,1.5869,0.24762,0.24588,-0.2521
14.5,1.5925,0.25063,0.24889,-0.2541
14.6,1.5982,0.25356,0.25182,-0.256
14.7,1.6039,0.25651,0.25477,-0.258
14.8,1.6096,0.25938,0.25764,-0.2599
14.9,1.6153,0.26225,0.26052,-0.2618
15,1.6211,0.26513,0.26339,-0.2637
15.1,1.6269,0.26801,0.26627,-0.2657
15.2,1.6327,0.27089,0.26915,-0.2676
15.3,1.6385,0.27377,0.27203,-0.2695
15.4,1.6444,0.27667,0.27494,-0.2714

