airfoilName st22.dat
Re 	610000
M 	7.000000e-01
N 	4.500000e+00
VACC 	0 VACCflag 1
XTR 	1.00 	1.00 XTRflag 0
alpha,cl,cd,cdp,cm
-30,-1.735,0.9071,0.90489,0.3991
-29.9,-1.7298,0.89927,0.89705,0.3959
-29.8,-1.7245,0.8916,0.88938,0.3928
-29.7,-1.7192,0.88386,0.88163,0.3896
-29.6,-1.7139,0.87636,0.87413,0.3865
-29.5,-1.7086,0.86886,0.86663,0.3833
-29.4,-1.7032,0.86142,0.85919,0.3802
-29.3,-1.6979,0.85395,0.85171,0.3771
-29.2,-1.6925,0.8467,0.84446,0.374
-29.1,-1.6871,0.83945,0.83721,0.3709
-29,-1.6816,0.83225,0.83,0.3678
-28.9,-1.6762,0.82516,0.82291,0.3648
-28.8,-1.6707,0.81808,0.81583,0.3617
-28.7,-1.6652,0.81119,0.80894,0.3587
-28.6,-1.6597,0.80424,0.80199,0.3556
-28.5,-1.6542,0.79744,0.79518,0.3526
-28.4,-1.6486,0.79053,0.78827,0.3496
-28.3,-1.643,0.78384,0.78158,0.3466
-28.2,-1.6375,0.77723,0.77497,0.3435
-28.1,-1.6318,0.77061,0.76835,0.3405
-28,-1.6262,0.76407,0.7618,0.3376
-27.9,-1.6206,0.75761,0.75534,0.3346
-27.8,-1.6149,0.75115,0.74888,0.3316
-27.7,-1.6092,0.74478,0.7425,0.3287
-27.6,-1.6035,0.73849,0.73621,0.3257
-27.5,-1.5977,0.73219,0.72991,0.3228
-27.4,-1.592,0.72606,0.72377,0.3199
-27.3,-1.5862,0.7199,0.71761,0.317
-27.2,-1.5805,0.7138,0.7115,0.3141
-27.1,-1.5746,0.70772,0.70542,0.3112
-27,-1.5688,0.7017,0.6994,0.3083
-26.9,-1.563,0.69584,0.69354,0.3054
-26.8,-1.5572,0.68988,0.68757,0.3026
-26.7,-1.5513,0.68413,0.68182,0.2997
-26.6,-1.5454,0.67836,0.67605,0.2969
-26.5,-1.5395,0.67263,0.67032,0.294
-26.4,-1.5336,0.66694,0.66462,0.2912
-26.3,-1.5276,0.6613,0.65898,0.2884
-26.2,-1.5217,0.65576,0.65344,0.2856
-26.1,-1.5157,0.65019,0.64787,0.2828
-26,-1.5097,0.64469,0.64237,0.28
-25.9,-1.5038,0.6393,0.63698,0.2773
-25.8,-1.4977,0.63386,0.63153,0.2745
-25.7,-1.4917,0.6286,0.62628,0.2718
-25.6,-1.4857,0.62329,0.62096,0.269
-25.5,-1.4796,0.61807,0.61574,0.2663
-25.4,-1.4736,0.61292,0.61059,0.2636
-25.3,-1.4674,0.6077,0.60537,0.2609
-25.2,-1.4614,0.60265,0.60031,0.2582
-25.1,-1.4552,0.59756,0.59523,0.2555
-25,-1.4491,0.59253,0.59019,0.2528
-24.9,-1.443,0.58761,0.58527,0.2502
-24.8,-1.4368,0.58271,0.58037,0.2475
-24.7,-1.4307,0.57782,0.57548,0.2449
-24.6,-1.4245,0.57301,0.57067,0.2422
-24.5,-1.4183,0.56821,0.56587,0.2396
-24.4,-1.4121,0.56348,0.56114,0.237
-24.3,-1.4059,0.55878,0.55643,0.2344
-24.2,-1.3997,0.55414,0.55179,0.2318
-24.1,-1.3934,0.54951,0.54715,0.2292
-24,-1.3872,0.54498,0.54262,0.2266
-23.9,-1.3809,0.54044,0.53808,0.224
-23.8,-1.3747,0.53599,0.53363,0.2215
-23.7,-1.3684,0.53154,0.52918,0.219
-23.6,-1.3622,0.52714,0.52478,0.2164
-23.5,-1.3559,0.52279,0.52042,0.2139
-23.4,-1.3495,0.51849,0.51612,0.2114
-23.3,-1.3429,0.51585,0.51348,0.2084
-23.2,-1.3366,0.51159,0.50922,0.2059
-23.1,-1.3303,0.50736,0.50499,0.2034
-23,-1.324,0.50323,0.50086,0.201
-22.9,-1.3176,0.49901,0.49664,0.1985
-22.8,-1.3113,0.49492,0.49255,0.1961
-22.7,-1.305,0.49081,0.48843,0.1936
-22.6,-1.2986,0.48674,0.48437,0.1912
-22.5,-1.2923,0.4827,0.48032,0.1888
-22.4,-1.2859,0.47868,0.47631,0.1864
-22.3,-1.2796,0.47471,0.47234,0.184
-22.2,-1.2732,0.47071,0.46833,0.1817
-22.1,-1.2669,0.46683,0.46445,0.1793
-22,-1.2605,0.46293,0.46055,0.1769
-21.9,-1.2541,0.45902,0.45664,0.1746
-21.8,-1.2478,0.45514,0.45277,0.1723
-21.7,-1.2414,0.45132,0.44895,0.17
-21.6,-1.235,0.44752,0.44514,0.1677
-21.5,-1.2286,0.44375,0.44137,0.1654
-21.4,-1.2222,0.44,0.43762,0.1631
-21.3,-1.2158,0.43625,0.43386,0.1608
-21.2,-1.2093,0.43263,0.43024,0.1585
-21.1,-1.2029,0.42889,0.42649,0.1563
-21,-1.1965,0.42526,0.42287,0.1541
-20.9,-1.1901,0.42158,0.41919,0.1519
-20.8,-1.1836,0.41812,0.41572,0.1496
-20.7,-1.1772,0.41437,0.41197,0.1474
-20.6,-1.1707,0.41092,0.40852,0.1452
-20.5,-1.1643,0.40736,0.40496,0.143
-20.4,-1.1578,0.40383,0.40143,0.1409
-20.3,-1.1513,0.40041,0.39801,0.1387
-20.2,-1.1449,0.39688,0.39449,0.1365
-20.1,-1.1384,0.39345,0.39106,0.1344
-20,-1.132,0.38992,0.38752,0.1323
-19.9,-1.1254,0.38664,0.38424,0.1301
-19.8,-1.1189,0.38318,0.38079,0.128
-19,-1.0653,0.3571,0.35472,0.1109
-18.9,-1.0591,0.35367,0.35129,0.1091
-18.8,-1.0529,0.35025,0.34787,0.1073
-18.7,-1.0466,0.34691,0.34453,0.1054
-18.6,-1.0403,0.34356,0.34118,0.1036
-18.5,-1.0341,0.34023,0.33785,0.1018
-18.4,-1.0279,0.33694,0.33456,0.1
-18.3,-1.0217,0.33368,0.3313,0.0982
-18.2,-1.0155,0.33043,0.32805,0.0965
-18.1,-1.0093,0.32722,0.32484,0.0947
-18,-1.0031,0.32403,0.32164,0.093
-17.9,-0.9968,0.3209,0.31851,0.0912
-17.8,-0.9907,0.31776,0.31536,0.0895
-17.7,-0.9845,0.31466,0.31227,0.0878
-17.6,-0.9784,0.3116,0.30921,0.0861
-17.5,-0.9722,0.30858,0.30619,0.0844
-17.4,-0.966,0.30557,0.30318,0.0827
-17.3,-0.9599,0.30261,0.30022,0.081
-17.2,-0.9538,0.29967,0.29728,0.0794
-17.1,-0.9476,0.29675,0.29437,0.0777
-17,-0.9415,0.29388,0.29149,0.0761
-16.9,-0.9353,0.29102,0.28863,0.0744
-16.8,-0.9292,0.28819,0.28581,0.0728
-16.7,-0.9231,0.28538,0.283,0.0711
-16.6,-0.9169,0.2826,0.28022,0.0695
-16.5,-0.9108,0.27985,0.27746,0.0679
-16.4,-0.9046,0.2771,0.27472,0.0663
-16.3,-0.8985,0.27438,0.272,0.0647
-16.2,-0.8924,0.2717,0.26931,0.0631
-16.1,-0.8862,0.26902,0.26664,0.0616
-16,-0.8801,0.26636,0.26398,0.06
-15.9,-0.874,0.26372,0.26135,0.0585
-15.8,-0.8679,0.2611,0.25873,0.0569
-15.7,-0.8618,0.2585,0.25612,0.0554
-15.6,-0.8557,0.25592,0.25355,0.0539
-15.5,-0.8496,0.25335,0.25098,0.0524
-15.4,-0.8436,0.25081,0.24844,0.0509
-15.3,-0.8375,0.24828,0.24591,0.0494
-15.2,-0.8315,0.24578,0.24341,0.048
-15.1,-0.8255,0.24329,0.24092,0.0465
-15,-0.8194,0.24082,0.23844,0.0451
-14.9,-0.8134,0.23837,0.23599,0.0436
-14.8,-0.8074,0.23593,0.23356,0.0422
-14.7,-0.8015,0.23352,0.23115,0.0408
-14.6,-0.7955,0.23113,0.22875,0.0394
-14.5,-0.7895,0.22875,0.22638,0.038
-14.4,-0.7836,0.2264,0.22403,0.0366
-14.3,-0.7776,0.22406,0.22169,0.0352
-14.2,-0.7717,0.22174,0.21937,0.0339
-14.1,-0.7658,0.21944,0.21708,0.0325
-14,-0.7599,0.21716,0.2148,0.0311
-13.9,-0.7539,0.21489,0.21253,0.0298
-13.8,-0.7471,0.21309,0.21073,0.0278
-13.7,-0.7412,0.21082,0.20847,0.0264
-13.6,-0.7353,0.20857,0.20622,0.0251
-13.5,-0.7293,0.20634,0.20398,0.0238
-13.4,-0.7234,0.20411,0.20176,0.0224
-13.3,-0.7176,0.2019,0.19955,0.0212
-13.2,-0.7117,0.19969,0.19734,0.0199
-13.1,-0.7059,0.1975,0.19515,0.0186
-13,-0.7,0.19531,0.19297,0.0174
-12.9,-0.6942,0.19313,0.19079,0.0161
-12.8,-0.6885,0.19096,0.18863,0.0149
-12.7,-0.6827,0.18881,0.18647,0.0137
-12.6,-0.6769,0.18665,0.18432,0.0125
-12.5,-0.6712,0.18452,0.18219,0.0114
-12.4,-0.6654,0.18237,0.18005,0.0102
-12.3,-0.6597,0.18024,0.17792,0.009
-12.2,-0.6538,0.1781,0.17578,0.0079
-12.1,-0.6478,0.17598,0.17366,0.0067
-12,-0.6416,0.17389,0.17157,0.0055
-11.8,-0.6289,0.16979,0.16748,0.0029
-11.7,-0.6238,0.1678,0.1655,0.0019
-11.6,-0.6187,0.16583,0.16354,0.001
-11.5,-0.6136,0.16389,0.16159,0.0001
-11.4,-0.6085,0.16196,0.15967,-0.0008
-11.3,-0.6035,0.16006,0.15777,-0.0017
-11.2,-0.5984,0.15818,0.1559,-0.0026
-11.1,-0.5935,0.15633,0.15405,-0.0035
-11,-0.5886,0.1545,0.15223,-0.0043
-10.9,-0.5837,0.1527,0.15043,-0.0052
-10.8,-0.5788,0.15093,0.14866,-0.006
-10.7,-0.574,0.14918,0.14692,-0.0068
-10.6,-0.5692,0.14746,0.14521,-0.0076
-10.5,-0.5645,0.14577,0.14352,-0.0083
-10.4,-0.5598,0.14409,0.14185,-0.0091
-10.3,-0.5552,0.14245,0.14021,-0.0098
-10.2,-0.5508,0.14083,0.1386,-0.0104
-10.1,-0.5464,0.13924,0.13702,-0.011
-10,-0.5421,0.13769,0.13547,-0.0116
-9.9,-0.5381,0.13617,0.13396,-0.0121
-9.8,-0.5343,0.13469,0.13249,-0.0126
-9.7,-0.5307,0.13324,0.13104,-0.0129
-9.6,-0.5273,0.13182,0.12964,-0.0132
-9.5,-0.5241,0.13045,0.12827,-0.0134
-9.4,-0.5212,0.12911,0.12695,-0.0136
-9.3,-0.5187,0.12782,0.12567,-0.0136
-9.2,-0.5165,0.12658,0.12444,-0.0135
-9.1,-0.5091,0.12477,0.12264,-0.0151
-9,-0.5004,0.12285,0.12071,-0.017
-8.9,-0.4924,0.12102,0.11888,-0.0187
-8.8,-0.4843,0.1192,0.11706,-0.0204
-8.7,-0.4761,0.11739,0.11525,-0.0222
-8.6,-0.4677,0.11557,0.11342,-0.024
-8.5,-0.459,0.11373,0.11158,-0.0258
-8.4,-0.451,0.11198,0.10983,-0.0275
-8.3,-0.4428,0.11023,0.10808,-0.0292
-8.2,-0.4344,0.10848,0.10633,-0.0309
-8.1,-0.4257,0.10673,0.10458,-0.0327
-7.9,-0.4064,0.10311,0.10096,-0.0371
-7.8,-0.3987,0.10147,0.09931,-0.0386
-7.7,-0.3905,0.09979,0.09764,-0.0402
-7.6,-0.3821,0.09812,0.09597,-0.0419
-7.5,-0.3733,0.09643,0.09428,-0.0436
-7.4,-0.3643,0.09474,0.09259,-0.0454
-7.3,-0.3543,0.09297,0.09081,-0.0476
-7.2,-0.3468,0.09145,0.08929,-0.0489
-7.1,-0.339,0.08989,0.08773,-0.0503
-7,-0.3304,0.08829,0.08614,-0.0519
-6.8,-0.3121,0.08503,0.08288,-0.0555
-6.7,-0.3022,0.08336,0.0812,-0.0575
-6.6,-0.2953,0.08194,0.07978,-0.0586
-6.5,-0.2869,0.08042,0.07827,-0.0601
-6.4,-0.2777,0.07888,0.07672,-0.0618
-6.3,-0.2677,0.07732,0.07516,-0.0638
-6.2,-0.2597,0.07591,0.07376,-0.0652
-6.1,-0.2535,0.07465,0.0725,-0.0661
-6,-0.2462,0.07333,0.07118,-0.0673
-5.9,-0.2381,0.07198,0.06983,-0.0688
-5.8,-0.2283,0.07056,0.06839,-0.0707
-5.7,-0.2205,0.06929,0.06713,-0.0721
-5.6,-0.2115,0.06797,0.0658,-0.0738
-5.5,-0.2015,0.06662,0.06443,-0.0757
-5.4,-0.1908,0.06525,0.06305,-0.0778
-5.3,-0.1801,0.06389,0.06169,-0.0798
-5.2,-0.1703,0.06262,0.06041,-0.0816
-5.1,-0.1594,0.06131,0.05909,-0.0836
-5,-0.1477,0.05995,0.05772,-0.0858
-4.9,-0.1353,0.05858,0.05633,-0.0881
-4.8,-0.1234,0.05726,0.05501,-0.0903
-4.7,-0.1112,0.05595,0.05368,-0.0925
-4.6,-0.0982,0.0546,0.05231,-0.0949
-4.5,-0.0844,0.05322,0.05092,-0.0975
-4.4,-0.0699,0.05181,0.04949,-0.1001
-4.3,-0.0559,0.05045,0.04812,-0.1026
-4.2,-0.0412,0.04907,0.04672,-0.1052
-4.1,-0.0256,0.04766,0.04528,-0.108
-4,-0.0093,0.04622,0.04382,-0.1109
-3.9,0.0073,0.04476,0.04232,-0.1137
-3.8,0.0241,0.04331,0.04085,-0.1166
-3.7,0.0419,0.04182,0.03933,-0.1197
-3.6,0.0606,0.04029,0.03776,-0.1229
-3.5,0.0802,0.03872,0.03615,-0.1263
-3.4,0.1023,0.03637,0.03375,-0.1308
-3.3,0.1225,0.03483,0.03218,-0.1342
-3.2,0.1434,0.03339,0.03069,-0.1375
-3.1,0.1649,0.03197,0.0292,-0.1407
-3,0.187,0.03055,0.02772,-0.144
-2.9,0.209,0.02914,0.02626,-0.1471
-2.8,0.2315,0.02771,0.02476,-0.1503
-2.7,0.2547,0.02624,0.02322,-0.1534
-2.6,0.2782,0.02472,0.0216,-0.1566
-2.5,0.3023,0.02312,0.01989,-0.1598
-2.4,0.3265,0.02142,0.01808,-0.163
-2.3,0.3514,0.01954,0.01606,-0.1663
-2.2,0.3771,0.01735,0.01366,-0.17
-2.1,0.4034,0.01453,0.01052,-0.1742
-2,0.4261,0.01259,0.00829,-0.1769
-1.9,0.4473,0.0113,0.0067,-0.1784
-1.8,0.4672,0.01041,0.00553,-0.1792
-1.7,0.4866,0.00978,0.00468,-0.1796
-1.6,0.5056,0.00934,0.00404,-0.1797
-1.5,0.5243,0.00903,0.00358,-0.1797
-1.4,0.5421,0.00893,0.00344,-0.1795
-1.3,0.5594,0.00875,0.00313,-0.1791
-1.2,0.5768,0.00866,0.00301,-0.1788
-1.1,0.5946,0.00855,0.00283,-0.1786
-1,0.6117,0.00847,0.00265,-0.1783
-0.9,0.6292,0.00838,0.00255,-0.1781
-0.8,0.6459,0.00834,0.00245,-0.1777
-0.7,0.6629,0.00831,0.00239,-0.1775
-0.6,0.6801,0.00827,0.00232,-0.1773
-0.5,0.6967,0.00825,0.00226,-0.1769
-0.4,0.7134,0.00823,0.00221,-0.1766
-0.3,0.7302,0.00822,0.00217,-0.1764
-0.2,0.7467,0.00822,0.00217,-0.1761
-0.1,0.7625,0.00824,0.00214,-0.1756
0,0.779,0.00826,0.00212,-0.1752
0.1,0.7953,0.00827,0.00212,-0.1749
0.2,0.8106,0.00833,0.00212,-0.1743
0.3,0.8261,0.00838,0.00214,-0.1738
0.4,0.8416,0.00844,0.00216,-0.1733
0.5,0.856,0.00854,0.00219,-0.1725
0.6,0.8675,0.00877,0.00225,-0.1712
0.7,0.8815,0.0089,0.00233,-0.1704
0.8,0.8949,0.00907,0.00242,-0.1696
0.9,0.907,0.0093,0.00255,-0.1684
1,0.9193,0.00952,0.00268,-0.1674
1.1,0.9247,0.01006,0.00296,-0.1652
1.2,0.9341,0.01044,0.00318,-0.1638
1.4,0.9478,0.01154,0.00382,-0.1603
1.5,0.9602,0.01181,0.00402,-0.1594
1.7,0.9867,0.01225,0.00438,-0.1577
1.8,1.0011,0.0124,0.00455,-0.157
1.9,1.0154,0.01256,0.00471,-0.1563
2,1.0299,0.0127,0.00485,-0.1555
2.1,1.0438,0.01288,0.00502,-0.1547
2.2,1.0582,0.01304,0.00518,-0.1539
2.3,1.0729,0.01318,0.00534,-0.1531
2.4,1.0874,0.01333,0.00551,-0.1522
2.5,1.102,0.01348,0.00568,-0.1514
2.6,1.116,0.01366,0.00586,-0.1504
2.7,1.1306,0.01381,0.00604,-0.1495
2.8,1.1451,0.01397,0.00622,-0.1485
2.9,1.1595,0.01413,0.00642,-0.1475
3,1.1738,0.0143,0.00662,-0.1465
3.1,1.1883,0.01447,0.00683,-0.1454
3.2,1.2028,0.01463,0.00705,-0.1443
3.3,1.2173,0.01479,0.0073,-0.1433
3.4,1.2272,0.01378,0.00769,-0.1417
3.5,1.2413,0.014,0.00792,-0.1404
3.6,1.2552,0.01424,0.00817,-0.1391
3.7,1.2691,0.01448,0.00842,-0.1376
3.8,1.2826,0.01472,0.0087,-0.1361
3.9,1.2957,0.01497,0.00898,-0.1344
4,1.3087,0.01524,0.0093,-0.1327
4.1,1.3219,0.01552,0.00961,-0.131
4.2,1.3348,0.01584,0.00997,-0.1291
4.3,1.3478,0.01617,0.01038,-0.1272
4.4,1.3605,0.01654,0.01082,-0.1252
4.5,1.3728,0.01695,0.01131,-0.1231
4.6,1.3846,0.01741,0.01187,-0.1209
4.7,1.3958,0.01794,0.01251,-0.1185
4.8,1.4064,0.01855,0.01326,-0.1161
4.9,1.4165,0.01925,0.01411,-0.1136
5,1.4262,0.02005,0.01507,-0.1111
5.1,1.4352,0.02096,0.01617,-0.1086
5.2,1.4431,0.022,0.0174,-0.1061
5.3,1.4499,0.02308,0.01866,-0.1037
5.4,1.4542,0.02431,0.02009,-0.1013
5.5,1.4558,0.02569,0.02165,-0.0989
5.6,1.455,0.02718,0.02333,-0.0966
5.7,1.4525,0.02873,0.02505,-0.0944
5.9,1.4441,0.03197,0.02863,-0.0905
6.1,1.432,0.03548,0.0324,-0.0874
6.3,1.4176,0.03931,0.03647,-0.0855
6.4,1.4099,0.04135,0.03861,-0.085
6.6,1.3938,0.04574,0.0432,-0.0852
6.7,1.3855,0.0481,0.04565,-0.0858
6.8,1.3773,0.05058,0.04821,-0.0868
7,1.3619,0.05584,0.0536,-0.09
7.1,1.3531,0.05885,0.05667,-0.0924
7.2,1.345,0.06197,0.05985,-0.0951
7.3,1.3376,0.06521,0.06314,-0.0981
7.4,1.3309,0.06857,0.06655,-0.1014
7.5,1.3252,0.07206,0.07008,-0.1049
7.6,1.3203,0.07556,0.07362,-0.1083
7.7,1.3155,0.07885,0.07694,-0.1113
7.8,1.3111,0.08201,0.08012,-0.1141
7.9,1.307,0.0851,0.08321,-0.1167
8,1.3033,0.08811,0.08623,-0.1193
8.2,1.2972,0.09396,0.09208,-0.1241
8.3,1.2948,0.09682,0.09494,-0.1264
8.4,1.2928,0.09963,0.09776,-0.1286
8.5,1.2911,0.1024,0.10053,-0.1308
8.6,1.2899,0.10513,0.10325,-0.1329
8.7,1.2889,0.10787,0.10598,-0.135
8.8,1.2872,0.11078,0.10889,-0.1373
8.9,1.286,0.11362,0.11173,-0.1394
9,1.2852,0.11644,0.11455,-0.1415
9.1,1.2849,0.1192,0.11732,-0.1436
9.2,1.2849,0.12195,0.12006,-0.1456
9.3,1.2852,0.12466,0.12277,-0.1476
9.4,1.2859,0.12735,0.12546,-0.1495
9.5,1.2868,0.13001,0.12812,-0.1514
9.6,1.288,0.13263,0.13074,-0.1533
9.7,1.2895,0.13523,0.13334,-0.1551
9.8,1.2911,0.1378,0.13591,-0.1569
9.9,1.293,0.14035,0.13847,-0.1587
10,1.2951,0.14287,0.14099,-0.1605
10.1,1.2971,0.14559,0.14369,-0.1625
10.2,1.2989,0.14834,0.14644,-0.1644
10.3,1.3011,0.15103,0.14913,-0.1663
10.4,1.3035,0.15371,0.15181,-0.1681
10.5,1.3061,0.15635,0.15445,-0.1699
10.6,1.3089,0.15897,0.15708,-0.1717
10.7,1.3119,0.16158,0.15968,-0.1735
10.8,1.3151,0.16414,0.16225,-0.1752
10.9,1.3185,0.1667,0.16481,-0.177
11,1.322,0.16925,0.16735,-0.1787
11.1,1.3256,0.17177,0.16987,-0.1804
11.2,1.3294,0.17426,0.17236,-0.1821
11.3,1.3332,0.17673,0.17484,-0.1838
11.4,1.3371,0.17918,0.17728,-0.1855
11.5,1.3412,0.18161,0.17971,-0.1871
11.6,1.3453,0.18403,0.18213,-0.1888
11.7,1.3494,0.18642,0.18452,-0.1905
11.8,1.3535,0.18905,0.18714,-0.1923
11.9,1.3571,0.19275,0.19084,-0.1947
12,1.3615,0.19535,0.19344,-0.1965
12.1,1.366,0.19795,0.19604,-0.1982
12.2,1.3706,0.20052,0.19861,-0.1999
12.3,1.3753,0.20309,0.20118,-0.2017
12.4,1.38,0.20565,0.20374,-0.2034
12.5,1.3849,0.2082,0.20629,-0.2052
12.6,1.3898,0.21074,0.20883,-0.2069
12.7,1.3947,0.21328,0.21137,-0.2086
12.8,1.3998,0.2158,0.21389,-0.2104
12.9,1.4048,0.21832,0.21641,-0.2121
13,1.41,0.22083,0.21891,-0.2139
13.1,1.4151,0.22333,0.22141,-0.2156
13.2,1.4203,0.22582,0.22391,-0.2174
13.3,1.4255,0.2283,0.22641,-0.2191
13.4,1.4309,0.23134,0.22943,-0.221
13.5,1.4363,0.23423,0.23233,-0.2229
13.6,1.4417,0.23712,0.23521,-0.2248
13.7,1.4472,0.23997,0.23806,-0.2266
13.8,1.4528,0.24279,0.24088,-0.2285
13.9,1.4583,0.24561,0.2437,-0.2303
14,1.4639,0.24841,0.24651,-0.2321
14.1,1.4696,0.25123,0.24932,-0.234
14.2,1.4753,0.25405,0.25214,-0.2358
14.3,1.481,0.25687,0.25496,-0.2377
14.4,1.4868,0.25968,0.25777,-0.2395
14.5,1.4926,0.26252,0.26061,-0.2414
14.6,1.4984,0.26535,0.26345,-0.2432
14.7,1.5042,0.26821,0.2663,-0.2451
14.8,1.5101,0.27108,0.26917,-0.247
14.9,1.516,0.27394,0.27203,-0.2488
15,1.5219,0.27682,0.27491,-0.2507
15.1,1.5279,0.27971,0.27781,-0.2526
15.2,1.5339,0.2826,0.28069,-0.2545
15.3,1.5399,0.28552,0.28361,-0.2564
15.4,1.5459,0.28844,0.28654,-0.2583
15.5,1.5519,0.29138,0.28947,-0.2602
15.6,1.558,0.29432,0.29241,-0.2621
15.8,1.5698,0.29975,0.29784,-0.2662
15.9,1.5758,0.30266,0.30075,-0.2681
16,1.5818,0.3056,0.30369,-0.2701
16.1,1.5882,0.30905,0.30714,-0.2721
16.2,1.5947,0.31267,0.31076,-0.2742
16.3,1.601,0.3161,0.31419,-0.2763
16.4,1.6073,0.3195,0.31759,-0.2784
16.5,1.6136,0.32284,0.32092,-0.2804
16.6,1.6199,0.32619,0.32427,-0.2825
16.7,1.6262,0.32953,0.32762,-0.2845
16.8,1.6325,0.33285,0.33094,-0.2866
16.9,1.6388,0.3362,0.33429,-0.2887
17,1.6451,0.33955,0.33764,-0.2907
17.1,1.6514,0.3429,0.341,-0.2928
17.2,1.6577,0.3463,0.3444,-0.2949
17.3,1.664,0.3497,0.3478,-0.297
17.4,1.6704,0.35311,0.35121,-0.2991
17.5,1.6766,0.35651,0.35461,-0.3012
17.6,1.683,0.35996,0.35807,-0.3034
17.7,1.6893,0.3634,0.36151,-0.3055
17.8,1.6956,0.36689,0.365,-0.3076
17.9,1.7019,0.37037,0.36848,-0.3098
18,1.7082,0.37388,0.37199,-0.3119
18.1,1.7145,0.37741,0.37552,-0.3141
18.2,1.7208,0.38097,0.37908,-0.3163
18.3,1.7271,0.38455,0.38266,-0.3184
18.4,1.7334,0.38813,0.38625,-0.3206
18.5,1.7398,0.39176,0.38987,-0.3228
18.6,1.7461,0.39539,0.39351,-0.325
18.7,1.7524,0.39905,0.39717,-0.3273
18.8,1.7587,0.40273,0.40085,-0.3295
18.9,1.765,0.40644,0.40457,-0.3317
19,1.7713,0.41018,0.4083,-0.334
19.1,1.7776,0.41394,0.41206,-0.3362
19.2,1.7839,0.41772,0.41585,-0.3385
19.3,1.7901,0.4215,0.41963,-0.3407
19.4,1.7965,0.42536,0.42349,-0.343
19.5,1.8027,0.42923,0.42736,-0.3453
19.6,1.809,0.43311,0.43125,-0.3476
19.7,1.8153,0.43703,0.43516,-0.35
19.8,1.8215,0.44096,0.4391,-0.3523
19.9,1.8278,0.44493,0.44307,-0.3546
20,1.8341,0.44893,0.44707,-0.357
20.1,1.8403,0.45295,0.4511,-0.3593
20.2,1.8466,0.45702,0.45517,-0.3617
20.3,1.8528,0.4611,0.45926,-0.364
20.4,1.859,0.46522,0.46338,-0.3664
20.5,1.8653,0.46937,0.46753,-0.3688
20.6,1.8715,0.47355,0.47172,-0.3712
20.7,1.8777,0.47779,0.47595,-0.3736
20.8,1.8839,0.48203,0.4802,-0.376
20.9,1.8901,0.48633,0.4845,-0.3785
21,1.8963,0.49065,0.48883,-0.3809
21.1,1.9026,0.49505,0.49322,-0.3834
21.2,1.9087,0.49943,0.49761,-0.3858
21.3,1.9149,0.50388,0.50206,-0.3883
21.4,1.9211,0.50837,0.50655,-0.3908
21.5,1.9273,0.51286,0.51104,-0.3933
21.6,1.9334,0.51742,0.5156,-0.3958
21.7,1.9396,0.52202,0.5202,-0.3983
21.8,1.9458,0.52667,0.52486,-0.4008
21.9,1.9519,0.5313,0.52949,-0.4034
22,1.958,0.53605,0.53425,-0.4059
22.1,1.9642,0.54082,0.53902,-0.4085
22.2,1.9703,0.54559,0.54379,-0.411
22.3,1.9764,0.55046,0.54866,-0.4136
22.4,1.9825,0.55535,0.55356,-0.4162
22.5,1.9886,0.56028,0.55849,-0.4188
22.6,1.9948,0.5653,0.5635,-0.4214
22.7,2.0008,0.57031,0.56852,-0.424
22.8,2.0068,0.57533,0.57354,-0.4267
22.9,2.013,0.58048,0.5787,-0.4293
23,2.019,0.58564,0.58385,-0.4319
23.1,2.025,0.59083,0.58904,-0.4346
23.2,2.0311,0.59612,0.59434,-0.4373
23.3,2.0371,0.60138,0.5996,-0.44
23.4,2.0431,0.60671,0.60494,-0.4426
23.5,2.0491,0.61211,0.61034,-0.4453
23.6,2.0563,0.61996,0.61819,-0.4493
23.7,2.0622,0.62545,0.62368,-0.452
23.8,2.0681,0.63097,0.6292,-0.4548
23.9,2.0741,0.63655,0.63479,-0.4576
24,2.08,0.64218,0.64042,-0.4605
24.1,2.086,0.64793,0.64618,-0.4633
24.2,2.0918,0.65362,0.65187,-0.4661
24.3,2.0977,0.65937,0.65762,-0.469
24.4,2.1036,0.66524,0.66349,-0.4719
24.5,2.1094,0.6711,0.66935,-0.4747
24.6,2.1152,0.677,0.67525,-0.4776
24.7,2.1211,0.68298,0.68124,-0.4804
24.8,2.1268,0.68891,0.68718,-0.4833
24.9,2.1326,0.69501,0.69328,-0.4862
25,2.1383,0.70111,0.69938,-0.4891
25.1,2.144,0.70725,0.70552,-0.492
25.2,2.1497,0.71347,0.71174,-0.4949
25.3,2.1554,0.71976,0.71803,-0.4978
25.4,2.161,0.72601,0.72429,-0.5008
25.5,2.1666,0.73242,0.7307,-0.5037
25.6,2.1722,0.73883,0.73711,-0.5066
25.7,2.1778,0.74527,0.74356,-0.5096
25.8,2.1834,0.75188,0.75017,-0.5125
25.9,2.189,0.75849,0.75679,-0.5155
26,2.1945,0.76514,0.76343,-0.5185
26.1,2.2,0.77186,0.77016,-0.5215
26.2,2.2055,0.77863,0.77693,-0.5244
26.3,2.2109,0.78547,0.78377,-0.5274
26.4,2.2163,0.7923,0.79061,-0.5304
26.5,2.2218,0.79932,0.79763,-0.5335
26.6,2.2271,0.80632,0.80464,-0.5365
26.7,2.2326,0.81352,0.81184,-0.5395
26.8,2.2378,0.82059,0.81892,-0.5426
26.9,2.2432,0.82784,0.82618,-0.5456
27,2.2485,0.83519,0.83352,-0.5487
27.1,2.2538,0.84255,0.84089,-0.5517
27.2,2.259,0.85001,0.84836,-0.5548
27.3,2.2642,0.85747,0.85582,-0.5579
27.4,2.2695,0.86513,0.86348,-0.561
27.5,2.2746,0.87276,0.87111,-0.5641
27.6,2.2797,0.88046,0.87882,-0.5672
27.7,2.285,0.8884,0.88676,-0.5703
27.8,2.2901,0.89624,0.8946,-0.5735
27.9,2.2951,0.90426,0.90263,-0.5766
28,2.3002,0.91232,0.91069,-0.5797
28.1,2.3053,0.92048,0.91886,-0.5829
28.2,2.3103,0.92874,0.92712,-0.586
28.3,2.3153,0.93706,0.93544,-0.5892
28.4,2.3202,0.94546,0.94384,-0.5924
28.5,2.3252,0.95394,0.95233,-0.5956
28.6,2.3301,0.96251,0.9609,-0.5988
28.7,2.3349,0.97114,0.96953,-0.602
28.8,2.3398,0.97991,0.97831,-0.6052
28.9,2.3446,0.98878,0.98718,-0.6084
29,2.3495,0.99774,0.99614,-0.6116
29.1,2.3543,1.00686,1.00526,-0.6148
29.2,2.359,1.01601,1.01442,-0.6181
29.3,2.3638,1.02528,1.0237,-0.6214
29.4,2.3685,1.03464,1.03306,-0.6246
29.5,2.3732,1.0441,1.04252,-0.6279
29.6,2.3779,1.05379,1.05222,-0.6312
29.7,2.3825,1.06342,1.06184,-0.6344
29.8,2.387,1.073,1.07144,-0.6377
29.9,2.3917,1.08303,1.08148,-0.641
30,2.3963,1.09307,1.09152,-0.6443

