airfoilName st22.dat
Re 	770000
M 	7.000000e-01
N 	4.500000e+00
VACC 	0 VACCflag 1
XTR 	1.00 	1.00 XTRflag 0
alpha,cl,cd,cdp,cm
-29.1,-1.6863,0.8419,0.83994,0.3704
-29,-1.6808,0.83461,0.83265,0.3673
-28.9,-1.6754,0.82746,0.82549,0.3643
-28.8,-1.67,0.82029,0.81832,0.3612
-28.7,-1.6645,0.81332,0.81135,0.3582
-28.6,-1.659,0.80629,0.80432,0.3552
-28.5,-1.6535,0.79942,0.79744,0.3522
-28.4,-1.6479,0.7924,0.79043,0.3492
-28.3,-1.6424,0.78565,0.78367,0.3462
-28.2,-1.6368,0.77896,0.77698,0.3432
-28.1,-1.6312,0.77225,0.77027,0.3402
-28,-1.6256,0.76563,0.76365,0.3372
-27.9,-1.62,0.7591,0.75711,0.3343
-27.8,-1.6143,0.75256,0.75057,0.3313
-27.7,-1.6087,0.74609,0.7441,0.3284
-27.6,-1.603,0.73974,0.73774,0.3255
-27.5,-1.5973,0.73335,0.73136,0.3226
-27.4,-1.5916,0.72716,0.72516,0.3197
-27.3,-1.5858,0.72093,0.71893,0.3168
-27.2,-1.58,0.71474,0.71274,0.3139
-27.1,-1.5742,0.70859,0.70658,0.311
-27,-1.5685,0.70249,0.70048,0.3082
-26.9,-1.5627,0.69657,0.69456,0.3053
-26.8,-1.5568,0.69051,0.6885,0.3025
-26.7,-1.551,0.68473,0.68271,0.2996
-26.6,-1.5451,0.67888,0.67686,0.2968
-26.5,-1.5392,0.67309,0.67106,0.294
-26.4,-1.5333,0.66732,0.66529,0.2912
-26.3,-1.5274,0.6616,0.65957,0.2884
-26.2,-1.5215,0.656,0.65398,0.2856
-26.1,-1.5155,0.65035,0.64832,0.2828
-26,-1.5096,0.64478,0.64275,0.2801
-25.9,-1.5036,0.63934,0.6373,0.2773
-25.8,-1.4976,0.6338,0.63177,0.2746
-25.7,-1.4916,0.62851,0.62648,0.2719
-25.6,-1.4856,0.62311,0.62107,0.2691
-25.5,-1.4796,0.61783,0.61579,0.2664
-25.4,-1.4735,0.61264,0.61061,0.2637
-25.3,-1.4674,0.60734,0.6053,0.2611
-25.2,-1.4614,0.60223,0.60019,0.2584
-25.1,-1.4553,0.59706,0.59502,0.2557
-25,-1.4491,0.59195,0.58991,0.2531
-24.9,-1.4431,0.58699,0.58494,0.2504
-24.8,-1.437,0.58203,0.57998,0.2478
-24.7,-1.4308,0.57707,0.57503,0.2451
-24.6,-1.4247,0.57222,0.57017,0.2425
-24.5,-1.4185,0.56735,0.5653,0.2399
-24.4,-1.4123,0.56256,0.56051,0.2373
-24.3,-1.4061,0.5578,0.55574,0.2347
-24.2,-1.3999,0.55308,0.55102,0.2322
-24.1,-1.3937,0.5484,0.54634,0.2296
-24,-1.3875,0.54379,0.54173,0.2271
-23.9,-1.3813,0.53918,0.53711,0.2245
-23.8,-1.3751,0.53466,0.5326,0.222
-23.7,-1.3688,0.53018,0.52811,0.2195
-23.6,-1.3626,0.52571,0.52364,0.217
-23.5,-1.3563,0.52129,0.51922,0.2145
-23.4,-1.35,0.5169,0.51483,0.212
-23.3,-1.3438,0.51257,0.51049,0.2095
-23.2,-1.3375,0.50827,0.50619,0.207
-23.1,-1.3312,0.50399,0.50192,0.2046
-23,-1.3249,0.49978,0.49771,0.2021
-22.9,-1.3186,0.49557,0.4935,0.1997
-22.8,-1.3122,0.49227,0.49019,0.197
-22.7,-1.3059,0.48813,0.48605,0.1946
-22.6,-1.2996,0.48399,0.48192,0.1922
-22.5,-1.2932,0.4799,0.47782,0.1899
-22.4,-1.2869,0.47583,0.47375,0.1875
-22.3,-1.2806,0.4718,0.46972,0.1851
-22.2,-1.2742,0.46778,0.4657,0.1828
-22.1,-1.2679,0.46383,0.46175,0.1805
-22,-1.2616,0.45989,0.45781,0.1781
-21.9,-1.2552,0.45594,0.45386,0.1758
-21.8,-1.2489,0.45207,0.44999,0.1735
-21.7,-1.2426,0.4482,0.44612,0.1713
-21.6,-1.2362,0.44437,0.44229,0.169
-21.5,-1.2299,0.44057,0.43848,0.1667
-21.4,-1.2235,0.43678,0.43469,0.1645
-21.3,-1.2171,0.43302,0.43093,0.1623
-21.2,-1.2108,0.42931,0.42721,0.16
-21.1,-1.2044,0.42559,0.42349,0.1578
-21,-1.198,0.42191,0.41981,0.1556
-20.9,-1.1916,0.41824,0.41614,0.1534
-20.8,-1.1852,0.41464,0.41254,0.1512
-20.7,-1.1788,0.41099,0.40889,0.1491
-20.6,-1.1724,0.40743,0.40533,0.1469
-20.5,-1.1661,0.40387,0.40177,0.1448
-20.4,-1.1597,0.40033,0.39823,0.1427
-20.3,-1.1533,0.39683,0.39473,0.1405
-20.2,-1.1469,0.39335,0.39125,0.1384
-20.1,-1.1405,0.3899,0.3878,0.1363
-20,-1.1341,0.38644,0.38434,0.1343
-19.9,-1.1277,0.38308,0.38098,0.1322
-19.8,-1.1213,0.37968,0.37758,0.1301
-19.7,-1.1149,0.3763,0.3742,0.1281
-19.6,-1.1085,0.37301,0.37091,0.126
-19.5,-1.1021,0.36969,0.36759,0.124
-19.4,-1.0957,0.36641,0.3643,0.1219
-19.3,-1.0893,0.36314,0.36104,0.1199
-19.2,-1.0829,0.35992,0.35781,0.1179
-19.1,-1.0764,0.35671,0.35461,0.1159
-19,-1.0701,0.3535,0.3514,0.114
-18.9,-1.0636,0.35037,0.34827,0.112
-18.8,-1.0572,0.34725,0.34514,0.11
-18.7,-1.0508,0.3441,0.342,0.108
-18.6,-1.0444,0.341,0.3389,0.1061
-18.5,-1.038,0.33795,0.33584,0.1041
-18.4,-1.0315,0.33489,0.33279,0.1022
-18.3,-1.0251,0.33186,0.32976,0.1003
-18.2,-1.0186,0.32888,0.32678,0.0983
-18.1,-1.0122,0.32586,0.32375,0.0964
-18,-1.0057,0.32288,0.32077,0.0945
-17.9,-0.9993,0.31988,0.31777,0.0926
-17.4,-0.965,0.30576,0.30367,0.0825
-17.3,-0.9589,0.30269,0.3006,0.0808
-17.2,-0.9528,0.29961,0.29753,0.0792
-17.1,-0.9467,0.2966,0.29451,0.0776
-17,-0.9406,0.29361,0.29152,0.076
-16.9,-0.9346,0.29062,0.28853,0.0744
-16.8,-0.9286,0.28769,0.2856,0.0728
-16.7,-0.9225,0.28477,0.28268,0.0712
-16.6,-0.9165,0.28189,0.27981,0.0697
-16.5,-0.9105,0.27905,0.27696,0.0681
-16.4,-0.9044,0.27625,0.27416,0.0665
-16.3,-0.8983,0.27347,0.27138,0.065
-16.2,-0.8923,0.27074,0.26865,0.0634
-16.1,-0.8863,0.26803,0.26595,0.0619
-16,-0.8802,0.26536,0.26327,0.0603
-15.9,-0.8742,0.26271,0.26063,0.0588
-15.8,-0.8681,0.26009,0.25801,0.0573
-15.7,-0.8621,0.2575,0.25542,0.0557
-15.6,-0.856,0.25493,0.25286,0.0542
-15.5,-0.85,0.25238,0.2503,0.0527
-15.4,-0.844,0.24986,0.24778,0.0512
-15.3,-0.838,0.24735,0.24527,0.0497
-15.2,-0.8319,0.24486,0.24279,0.0483
-15.1,-0.8259,0.2424,0.24032,0.0468
-15,-0.8199,0.23994,0.23786,0.0454
-14.9,-0.8139,0.23751,0.23543,0.0439
-14.8,-0.808,0.23509,0.23301,0.0425
-14.7,-0.802,0.2327,0.23062,0.0411
-14.6,-0.796,0.23031,0.22823,0.0397
-14.5,-0.7901,0.22795,0.22587,0.0383
-14.4,-0.7842,0.2256,0.22353,0.0369
-14.3,-0.7783,0.22327,0.2212,0.0355
-14.2,-0.7723,0.22095,0.21888,0.0342
-14.1,-0.7664,0.21866,0.21659,0.0328
-14,-0.7606,0.21638,0.21431,0.0315
-13.9,-0.7547,0.21411,0.21204,0.0302
-13.8,-0.7488,0.21186,0.20979,0.0288
-13.7,-0.7429,0.20962,0.20755,0.0275
-13.6,-0.737,0.20739,0.20533,0.0262
-13.5,-0.7311,0.20519,0.20313,0.0249
-13.4,-0.7246,0.20336,0.2013,0.0231
-13.3,-0.7188,0.20116,0.19911,0.0218
-13.2,-0.7129,0.19898,0.19693,0.0206
-13.1,-0.7071,0.19682,0.19477,0.0193
-13,-0.7013,0.19467,0.19262,0.0181
-12.9,-0.6955,0.19254,0.19049,0.0168
-12.8,-0.6898,0.19042,0.18837,0.0156
-12.7,-0.684,0.18831,0.18627,0.0144
-12.6,-0.6783,0.18622,0.18418,0.0132
-12.5,-0.6726,0.18414,0.1821,0.012
-12.4,-0.667,0.18208,0.18004,0.0108
-12.3,-0.6613,0.18003,0.178,0.0097
-12.2,-0.6557,0.17799,0.17596,0.0085
-12.1,-0.6501,0.17597,0.17394,0.0074
-12,-0.6444,0.17395,0.17192,0.0063
-11.8,-0.6333,0.16992,0.16789,0.0041
-11.7,-0.6277,0.16792,0.1659,0.003
-11.6,-0.6221,0.16593,0.16391,0.002
-11.5,-0.6166,0.16394,0.16192,0.0009
-11.4,-0.611,0.16195,0.15993,-0.0001
-11.3,-0.6055,0.15997,0.15795,-0.0012
-11.2,-0.5999,0.158,0.15599,-0.0022
-11.1,-0.5941,0.15601,0.154,-0.0032
-11,-0.588,0.15406,0.15205,-0.0043
-10.8,-0.5764,0.15038,0.14839,-0.0065
-10.7,-0.5717,0.14857,0.14659,-0.0072
-10.6,-0.5671,0.14678,0.14481,-0.008
-10.5,-0.5626,0.14502,0.14305,-0.0087
-10.4,-0.5581,0.1433,0.14133,-0.0094
-10.3,-0.5537,0.1416,0.13964,-0.01
-10.2,-0.5494,0.13995,0.13799,-0.0106
-10.1,-0.5453,0.13834,0.13639,-0.0112
-10,-0.5413,0.13677,0.13483,-0.0117
-9.9,-0.5376,0.13525,0.13332,-0.0121
-9.8,-0.534,0.13377,0.13185,-0.0125
-9.7,-0.5307,0.13234,0.13042,-0.0128
-9.6,-0.5276,0.13096,0.12905,-0.013
-9.5,-0.5249,0.12962,0.12772,-0.0131
-9.4,-0.5211,0.12819,0.1263,-0.0135
-9.3,-0.5134,0.12634,0.12445,-0.0152
-9.2,-0.5057,0.12451,0.12262,-0.0168
-9,-0.4893,0.1208,0.11891,-0.0204
-8.9,-0.4812,0.119,0.11711,-0.0222
-8.8,-0.4729,0.1172,0.11531,-0.0239
-8.7,-0.465,0.11544,0.11354,-0.0256
-8.6,-0.4566,0.11364,0.11174,-0.0274
-8.5,-0.4485,0.1119,0.11,-0.029
-8.4,-0.4402,0.11016,0.10826,-0.0308
-8.3,-0.4317,0.10842,0.10652,-0.0326
-8.2,-0.423,0.10668,0.10478,-0.0344
-8.1,-0.4136,0.10489,0.10298,-0.0364
-8,-0.406,0.10328,0.10137,-0.0379
-7.9,-0.3981,0.10165,0.09975,-0.0394
-7.8,-0.3898,0.10002,0.09812,-0.041
-7.7,-0.3807,0.09839,0.09649,-0.0431
-7.6,-0.3719,0.09673,0.09482,-0.0448
-7.4,-0.3548,0.09348,0.09157,-0.0482
-7.3,-0.3471,0.09194,0.09004,-0.0496
-7.2,-0.3389,0.09039,0.08849,-0.0511
-7.1,-0.3303,0.08882,0.08691,-0.0527
-7,-0.3213,0.08723,0.08532,-0.0545
-6.9,-0.3123,0.08566,0.08375,-0.0562
-6.8,-0.3055,0.08427,0.08236,-0.0573
-6.7,-0.2977,0.08281,0.0809,-0.0586
-6.6,-0.2894,0.08133,0.07942,-0.0601
-6.5,-0.2808,0.07984,0.07792,-0.0617
-6.4,-0.2731,0.07843,0.07651,-0.063
-6.3,-0.2662,0.07709,0.07517,-0.064
-6.2,-0.2586,0.07571,0.07378,-0.0653
-6.1,-0.2507,0.07429,0.07236,-0.0666
-6,-0.2428,0.07289,0.07095,-0.068
-5.9,-0.236,0.0716,0.06966,-0.069
-5.8,-0.2272,0.07018,0.06824,-0.0707
-5.7,-0.2174,0.0687,0.06674,-0.0725
-5.6,-0.2069,0.0672,0.06523,-0.0745
-5.5,-0.1968,0.06579,0.06381,-0.0764
-5.4,-0.1872,0.06442,0.06244,-0.0782
-5.3,-0.1773,0.06304,0.06106,-0.0801
-5.2,-0.1668,0.06166,0.05966,-0.0822
-5.1,-0.1561,0.06031,0.0583,-0.0842
-5,-0.145,0.05897,0.05695,-0.0863
-4.9,-0.1333,0.05763,0.05559,-0.0885
-4.8,-0.121,0.05628,0.05423,-0.0909
-4.7,-0.1081,0.05492,0.05285,-0.0933
-4.6,-0.095,0.05358,0.0515,-0.0958
-4.5,-0.0813,0.05223,0.05014,-0.0983
-4.4,-0.0671,0.05087,0.04876,-0.1009
-4.3,-0.0523,0.0495,0.04736,-0.1035
-4.2,-0.0369,0.0481,0.04594,-0.1063
-4.1,-0.0212,0.04672,0.04454,-0.1091
-4,-0.0053,0.04532,0.04311,-0.1118
-3.9,0.0117,0.04389,0.04165,-0.1148
-3.8,0.0291,0.04245,0.04017,-0.1178
-3.7,0.0472,0.04099,0.03869,-0.1209
-3.6,0.0659,0.03951,0.03717,-0.1241
-3.5,0.0852,0.03801,0.03563,-0.1273
-3.4,0.1053,0.03647,0.03405,-0.1307
-3.3,0.1271,0.03452,0.03205,-0.1347
-3.2,0.1485,0.03282,0.0303,-0.1383
-3.1,0.1708,0.03107,0.02848,-0.142
-3,0.1936,0.02932,0.02667,-0.1457
-2.9,0.2167,0.02779,0.02507,-0.1492
-2.8,0.2396,0.02633,0.02353,-0.1525
-2.7,0.2628,0.02486,0.02199,-0.1556
-2.6,0.2862,0.02337,0.02041,-0.1587
-2.5,0.3098,0.02181,0.01875,-0.1617
-2.4,0.3338,0.02016,0.01698,-0.1647
-2.3,0.3579,0.01835,0.01502,-0.1678
-2.2,0.3828,0.01625,0.01273,-0.1712
-2.1,0.4079,0.01364,0.00982,-0.175
-2,0.4313,0.0111,0.00684,-0.1784
-1.9,0.4521,0.00984,0.00523,-0.1797
-1.8,0.4716,0.00924,0.00441,-0.1801
-1.7,0.4906,0.00882,0.00382,-0.1802
-1.6,0.5093,0.00852,0.00338,-0.1801
-1.5,0.5271,0.00831,0.00302,-0.1798
-1.4,0.5451,0.00814,0.00276,-0.1796
-1.2,0.5799,0.00798,0.00248,-0.1789
-1.1,0.5974,0.00791,0.00239,-0.1787
-1,0.6146,0.00786,0.00227,-0.1784
-0.9,0.6315,0.00782,0.00216,-0.1781
-0.8,0.6487,0.00777,0.00209,-0.1779
-0.7,0.6654,0.00775,0.00203,-0.1776
-0.6,0.6822,0.00774,0.00198,-0.1773
-0.5,0.6992,0.00771,0.00194,-0.1771
-0.4,0.7159,0.00771,0.00191,-0.1768
-0.3,0.7317,0.00774,0.00188,-0.1763
-0.2,0.7481,0.00776,0.00186,-0.176
-0.1,0.7644,0.00777,0.00187,-0.1757
0,0.7806,0.0078,0.00186,-0.1753
0.1,0.7951,0.0079,0.00187,-0.1746
0.2,0.8106,0.00795,0.00189,-0.1741
0.3,0.8256,0.00804,0.00192,-0.1735
0.4,0.8402,0.00814,0.00196,-0.1728
0.5,0.851,0.00842,0.00208,-0.1715
0.6,0.8649,0.00857,0.00217,-0.1707
0.7,0.8784,0.00874,0.00226,-0.1699
0.8,0.8905,0.00899,0.00239,-0.1689
0.9,0.903,0.00921,0.00252,-0.1679
1,0.911,0.00967,0.00277,-0.1662
1.2,0.9238,0.01086,0.00343,-0.1627
1.3,0.9366,0.01111,0.00361,-0.1619
1.4,0.9506,0.01129,0.00375,-0.1612
1.5,0.964,0.01151,0.00392,-0.1604
1.6,0.9788,0.01164,0.00405,-0.1597
1.7,0.9934,0.01178,0.00419,-0.1591
1.8,1.0084,0.01191,0.00432,-0.1584
1.9,1.0231,0.01204,0.00447,-0.1577
2,1.0375,0.0122,0.00461,-0.157
2.1,1.0525,0.01233,0.00474,-0.1563
2.2,1.0675,0.01246,0.00488,-0.1555
2.3,1.0823,0.0126,0.00503,-0.1547
2.4,1.0968,0.01276,0.00518,-0.1539
2.5,1.1118,0.01289,0.00534,-0.1531
2.6,1.1267,0.01303,0.0055,-0.1522
2.7,1.1414,0.01318,0.00567,-0.1513
2.8,1.1565,0.01332,0.00584,-0.1504
2.9,1.1707,0.0135,0.00602,-0.1494
3,1.1857,0.01364,0.0062,-0.1484
3.1,1.2003,0.01381,0.00639,-0.1473
3.2,1.2152,0.01396,0.0066,-0.1462
3.3,1.23,0.01412,0.00681,-0.1451
3.4,1.2444,0.0143,0.00706,-0.1439
3.6,1.27,0.0135,0.00772,-0.1414
3.7,1.2846,0.01371,0.00795,-0.14
3.8,1.2989,0.01394,0.00821,-0.1386
3.9,1.3129,0.01418,0.00848,-0.137
4,1.3265,0.01443,0.00876,-0.1353
4.1,1.3397,0.0147,0.00907,-0.1335
4.2,1.3531,0.01498,0.00941,-0.1316
4.3,1.3663,0.01529,0.00978,-0.1297
4.4,1.3792,0.01564,0.0102,-0.1276
4.5,1.3917,0.01603,0.01068,-0.1254
4.6,1.4038,0.01647,0.01123,-0.1231
4.7,1.4151,0.01699,0.01186,-0.1207
4.8,1.4258,0.01758,0.01258,-0.1181
4.9,1.4359,0.01826,0.01341,-0.1155
5,1.446,0.01899,0.0143,-0.1129
5.1,1.4548,0.01988,0.01536,-0.1103
5.2,1.462,0.02095,0.01662,-0.1077
5.3,1.4674,0.02216,0.01803,-0.1051
5.4,1.4705,0.02347,0.01955,-0.1026
5.5,1.4714,0.02487,0.02113,-0.1001
5.6,1.4704,0.02631,0.02277,-0.0976
5.7,1.4677,0.02782,0.02445,-0.0953
5.8,1.4637,0.02938,0.02616,-0.0931
5.9,1.4588,0.03101,0.02793,-0.0911
6.1,1.4465,0.03444,0.03162,-0.0878
6.3,1.4321,0.0382,0.0356,-0.0856
6.4,1.4244,0.04019,0.0377,-0.0849
6.5,1.4163,0.04229,0.03989,-0.0846
6.6,1.407,0.04464,0.04232,-0.0849
6.7,1.3978,0.04705,0.04483,-0.0854
6.8,1.3887,0.04958,0.04743,-0.0864
7,1.3712,0.05496,0.05296,-0.0895
7.1,1.3629,0.05785,0.05592,-0.0917
7.3,1.3477,0.06404,0.06221,-0.0971
7.4,1.3411,0.06734,0.06557,-0.1003
7.5,1.3353,0.07076,0.06903,-0.1037
7.6,1.3305,0.07431,0.07261,-0.1072
7.7,1.3259,0.07764,0.07597,-0.1104
7.8,1.3216,0.08082,0.07916,-0.1132
7.9,1.3175,0.0839,0.08226,-0.1159
8,1.3138,0.0869,0.08527,-0.1184
8.1,1.3106,0.08984,0.08821,-0.1209
8.2,1.3077,0.09273,0.0911,-0.1232
8.3,1.3053,0.09557,0.09395,-0.1255
8.4,1.3007,0.0988,0.09717,-0.1283
8.5,1.298,0.10174,0.10011,-0.1306
8.6,1.2959,0.10461,0.10298,-0.1328
8.7,1.2941,0.10746,0.10582,-0.1351
8.8,1.2928,0.11028,0.10864,-0.1372
8.9,1.2918,0.11306,0.11143,-0.1393
9,1.2912,0.11583,0.11419,-0.1414
9.1,1.291,0.11856,0.11692,-0.1434
9.2,1.2911,0.12126,0.11963,-0.1454
9.3,1.2915,0.12394,0.12231,-0.1474
9.4,1.2922,0.1266,0.12496,-0.1493
9.5,1.2932,0.12922,0.12758,-0.1512
9.6,1.2945,0.13181,0.13017,-0.153
9.7,1.2951,0.13465,0.133,-0.1551
9.8,1.296,0.13742,0.13577,-0.1571
9.9,1.2972,0.14015,0.1385,-0.159
10,1.2987,0.14284,0.14119,-0.1609
10.1,1.3005,0.14552,0.14387,-0.1628
10.2,1.3026,0.14817,0.14653,-0.1646
10.3,1.3049,0.1508,0.14916,-0.1665
10.4,1.3074,0.15342,0.15177,-0.1683
10.5,1.3101,0.15601,0.15436,-0.17
10.6,1.313,0.15858,0.15693,-0.1718
10.7,1.3161,0.16114,0.1595,-0.1736
10.8,1.3193,0.16366,0.16202,-0.1753
10.9,1.3227,0.16618,0.16453,-0.177
11,1.3262,0.16868,0.16703,-0.1788
11.1,1.3298,0.17115,0.1695,-0.1805
11.2,1.3335,0.17359,0.17194,-0.1822
11.3,1.3369,0.1763,0.17464,-0.184
11.4,1.3395,0.17972,0.17806,-0.1863
11.5,1.3434,0.18233,0.18067,-0.188
11.6,1.3473,0.18494,0.18328,-0.1898
11.7,1.3514,0.18751,0.18585,-0.1915
11.8,1.3556,0.19009,0.18843,-0.1933
11.9,1.3599,0.19265,0.19099,-0.195
12,1.3644,0.19519,0.19353,-0.1968
12.1,1.3689,0.19773,0.19607,-0.1985
12.2,1.3735,0.20025,0.19859,-0.2002
12.3,1.3781,0.20277,0.20111,-0.202
12.4,1.3828,0.20527,0.2036,-0.2037
12.5,1.3876,0.20776,0.2061,-0.2055
12.6,1.3924,0.21023,0.20857,-0.2072
12.7,1.3973,0.21287,0.2112,-0.209
12.8,1.4021,0.21578,0.21411,-0.2109
12.9,1.4071,0.21856,0.21689,-0.2127
13,1.4121,0.22134,0.21967,-0.2145
13.1,1.4172,0.22409,0.22242,-0.2163
13.2,1.4224,0.22684,0.22517,-0.2182
13.3,1.4277,0.22959,0.22791,-0.22
13.4,1.433,0.23232,0.23066,-0.2218
13.5,1.4384,0.23505,0.23339,-0.2236
13.6,1.4438,0.2378,0.23614,-0.2254
13.7,1.4493,0.24055,0.23889,-0.2273
13.8,1.4548,0.24328,0.24162,-0.2291
13.9,1.4604,0.24604,0.24438,-0.2309
14,1.466,0.24878,0.24712,-0.2327
14.1,1.4716,0.25154,0.24988,-0.2345
14.2,1.4772,0.2543,0.25264,-0.2364
14.3,1.4829,0.25707,0.25541,-0.2382
14.4,1.4886,0.25983,0.25817,-0.24
14.5,1.4944,0.26262,0.26096,-0.2419
14.6,1.5001,0.26541,0.26375,-0.2437
14.7,1.5059,0.26822,0.26656,-0.2456
14.8,1.5118,0.27104,0.26938,-0.2475
14.9,1.5176,0.27386,0.2722,-0.2493
15,1.5235,0.27669,0.27503,-0.2512
15.1,1.5294,0.27953,0.27787,-0.2531
15.4,1.5472,0.28817,0.28651,-0.2591
15.5,1.5534,0.29157,0.2899,-0.2611
15.6,1.5596,0.29485,0.29318,-0.2631
15.7,1.5658,0.29812,0.29646,-0.2651
15.8,1.5719,0.30127,0.2996,-0.2671
15.9,1.5781,0.3045,0.30283,-0.2691
16,1.5843,0.30767,0.30601,-0.271
16.1,1.5905,0.31086,0.3092,-0.273
16.2,1.5967,0.31407,0.3124,-0.2751
16.3,1.6029,0.31727,0.31561,-0.2771
16.4,1.6091,0.32051,0.31884,-0.2791
16.5,1.6153,0.32373,0.32207,-0.2811
16.6,1.6216,0.32698,0.32532,-0.2832
16.7,1.6278,0.33024,0.32857,-0.2852
16.8,1.634,0.3335,0.33183,-0.2872
16.9,1.6403,0.33678,0.33511,-0.2893
17,1.6465,0.34007,0.33841,-0.2914
17.1,1.6528,0.34338,0.34173,-0.2934
17.2,1.6591,0.34672,0.34507,-0.2955
17.3,1.6653,0.35007,0.34842,-0.2976
17.4,1.6716,0.35344,0.35179,-0.2997
17.5,1.6778,0.3568,0.35515,-0.3018
17.6,1.6841,0.36021,0.35856,-0.3039
17.7,1.6904,0.36362,0.36197,-0.306
17.8,1.6967,0.36706,0.36541,-0.3082
17.9,1.703,0.37051,0.36887,-0.3103
18,1.7092,0.37399,0.37235,-0.3124
18.1,1.7155,0.37748,0.37584,-0.3146
18.2,1.7218,0.38101,0.37937,-0.3168
18.3,1.7281,0.38455,0.38291,-0.319
18.4,1.7343,0.3881,0.38646,-0.3211
18.5,1.7406,0.39169,0.39005,-0.3233
18.6,1.7469,0.39529,0.39366,-0.3255
18.7,1.7532,0.39892,0.39729,-0.3278
18.8,1.7594,0.40257,0.40094,-0.33
18.9,1.7657,0.40625,0.40462,-0.3322
19,1.772,0.40995,0.40832,-0.3345
19.1,1.7782,0.41369,0.41206,-0.3367
19.2,1.7845,0.41744,0.41581,-0.339
19.3,1.7907,0.4212,0.41957,-0.3412
19.4,1.797,0.42502,0.4234,-0.3435
19.5,1.8032,0.42887,0.42724,-0.3458
19.6,1.8095,0.43272,0.4311,-0.3481
19.7,1.8157,0.43662,0.435,-0.3504
19.8,1.822,0.44054,0.43892,-0.3528
19.9,1.8282,0.44448,0.44286,-0.3551
20,1.8344,0.44846,0.44684,-0.3574
20.1,1.8407,0.45246,0.45084,-0.3598
20.2,1.8469,0.4565,0.4549,-0.3621
20.3,1.8531,0.46056,0.45896,-0.3645
20.4,1.8593,0.46468,0.46308,-0.3669
20.5,1.8655,0.46878,0.46719,-0.3693
20.6,1.8717,0.47296,0.47136,-0.3716
20.7,1.8779,0.47718,0.47559,-0.3741
20.8,1.8841,0.4814,0.47981,-0.3765
20.9,1.8902,0.48569,0.4841,-0.3789
21,1.8964,0.49,0.48841,-0.3813
21.1,1.9026,0.49438,0.49279,-0.3838
21.2,1.9088,0.49877,0.49718,-0.3862
21.3,1.9149,0.5032,0.50162,-0.3887
21.4,1.9211,0.50767,0.50609,-0.3912
21.5,1.9273,0.51216,0.51058,-0.3937
21.6,1.9334,0.51672,0.51514,-0.3962
21.7,1.9396,0.52131,0.51973,-0.3987
21.8,1.9457,0.52595,0.52438,-0.4012
22.2,1.9575,0.56074,0.55917,-0.4077
22.3,1.9637,0.56595,0.56437,-0.4103
22.4,1.9699,0.57123,0.56966,-0.413
22.5,1.9761,0.57638,0.57481,-0.4156
22.6,1.9823,0.58175,0.58017,-0.4183
22.7,1.9885,0.58705,0.58548,-0.4209
22.8,1.9949,0.59281,0.59125,-0.4241
22.9,2.0011,0.59811,0.59654,-0.4268
23,2.0071,0.60338,0.60181,-0.4295
23.1,2.0132,0.60869,0.60712,-0.4322
23.2,2.0193,0.61409,0.61253,-0.435
23.3,2.0253,0.61943,0.61787,-0.4377
23.4,2.0313,0.62486,0.6233,-0.4404
23.5,2.0374,0.63036,0.62882,-0.4432
23.6,2.0434,0.63596,0.63442,-0.446
23.7,2.0493,0.64144,0.6399,-0.4487
23.8,2.0553,0.64703,0.64549,-0.4515
23.9,2.0612,0.65263,0.6511,-0.4543
24,2.0671,0.65833,0.65679,-0.4571
24.1,2.0731,0.66412,0.66259,-0.4599
24.2,2.0789,0.66984,0.66831,-0.4627
24.3,2.0848,0.67567,0.67415,-0.4655
24.4,2.0906,0.68158,0.68006,-0.4683
24.5,2.0965,0.68752,0.686,-0.4712
24.6,2.1023,0.69346,0.69195,-0.474
24.7,2.1081,0.69952,0.69801,-0.4768
24.8,2.1138,0.70553,0.70402,-0.4797
24.9,2.1196,0.71169,0.71018,-0.4826
25,2.1253,0.71787,0.71636,-0.4854
25.1,2.131,0.72408,0.72257,-0.4883
25.2,2.1367,0.73038,0.72888,-0.4912
25.3,2.1424,0.73674,0.73524,-0.4941
25.4,2.148,0.74309,0.74159,-0.497
25.5,2.1536,0.74956,0.74806,-0.4999
25.6,2.1592,0.75604,0.75455,-0.5028
25.7,2.1648,0.76261,0.76112,-0.5058
25.8,2.1704,0.76929,0.7678,-0.5087
25.9,2.1759,0.77598,0.77449,-0.5117
26,2.1814,0.78271,0.78122,-0.5146
26.1,2.1869,0.78952,0.78804,-0.5176
26.2,2.1923,0.79635,0.79487,-0.5206
26.3,2.1978,0.80332,0.80185,-0.5235
26.4,2.2032,0.81024,0.80877,-0.5265
26.5,2.2086,0.81737,0.8159,-0.5295
26.6,2.214,0.82447,0.82301,-0.5325
26.7,2.2194,0.83175,0.83029,-0.5356
26.8,2.2247,0.83894,0.83749,-0.5386
26.9,2.23,0.84627,0.84482,-0.5416
27,2.2353,0.8537,0.85225,-0.5447
27.1,2.2406,0.86117,0.85972,-0.5477
27.2,2.2458,0.86876,0.86732,-0.5508
27.3,2.251,0.87636,0.87492,-0.5538
27.4,2.2562,0.88411,0.88267,-0.5569
27.5,2.2613,0.89184,0.89041,-0.56
27.6,2.2664,0.89965,0.89823,-0.5631
27.7,2.2716,0.90768,0.90626,-0.5662
27.8,2.2767,0.91566,0.91424,-0.5693
27.9,2.2818,0.92382,0.9224,-0.5724
28,2.2868,0.93197,0.93055,-0.5755
28.1,2.2919,0.94027,0.93885,-0.5787
28.2,2.2969,0.94862,0.94721,-0.5818
28.3,2.3019,0.9571,0.95569,-0.585
28.4,2.3068,0.96562,0.96422,-0.5881
28.5,2.3117,0.97422,0.97281,-0.5913
28.6,2.3166,0.9829,0.9815,-0.5945
28.7,2.3214,0.99169,0.9903,-0.5976
28.8,2.3263,1.00059,0.99919,-0.6008
28.9,2.3311,1.00957,1.00818,-0.604
29,2.3359,1.01863,1.01724,-0.6072
29.1,2.3407,1.0279,1.02652,-0.6104
29.2,2.3454,1.0372,1.03582,-0.6137
29.3,2.3502,1.04662,1.04524,-0.6169
29.4,2.3549,1.05612,1.05474,-0.6201
29.5,2.3596,1.06576,1.06438,-0.6234
29.6,2.3643,1.07564,1.07427,-0.6266
29.7,2.3689,1.0854,1.08404,-0.6299
29.8,2.3734,1.09509,1.09374,-0.6331
29.9,2.378,1.10527,1.10392,-0.6364
30,2.3826,1.11546,1.11411,-0.6397

