airfoilName st22.dat
Re 	590000
M 	7.000000e-01
N 	4.500000e+00
VACC 	0 VACCflag 1
XTR 	1.00 	1.00 XTRflag 0
alpha,cl,cd,cdp,cm
-30,-1.7351,0.9067,0.90445,0.3992
-29.9,-1.7299,0.89889,0.89662,0.396
-29.8,-1.7247,0.89123,0.88896,0.3929
-29.7,-1.7193,0.8835,0.88123,0.3897
-29.6,-1.7141,0.87601,0.87374,0.3866
-29.5,-1.7087,0.86853,0.86625,0.3834
-29.4,-1.7033,0.8611,0.85882,0.3803
-29.3,-1.698,0.85364,0.85136,0.3772
-29.2,-1.6926,0.8464,0.84412,0.3741
-29.1,-1.6872,0.83916,0.83688,0.371
-29,-1.6817,0.83197,0.82968,0.3679
-28.9,-1.6763,0.8249,0.8226,0.3648
-28.8,-1.6708,0.81783,0.81554,0.3618
-28.7,-1.6653,0.81095,0.80865,0.3587
-28.6,-1.6598,0.80401,0.80171,0.3557
-28.5,-1.6543,0.79722,0.79492,0.3526
-28.4,-1.6487,0.79033,0.78802,0.3496
-28.3,-1.6431,0.78365,0.78134,0.3466
-28.2,-1.6375,0.77705,0.77474,0.3436
-28.1,-1.6319,0.77044,0.76813,0.3406
-28,-1.6263,0.76391,0.76159,0.3376
-27.9,-1.6206,0.75746,0.75514,0.3346
-27.8,-1.6149,0.75101,0.74869,0.3316
-27.7,-1.6093,0.74465,0.74233,0.3287
-27.6,-1.6035,0.73837,0.73604,0.3258
-27.5,-1.5978,0.73208,0.72976,0.3228
-27.4,-1.5921,0.72596,0.72363,0.3199
-27.3,-1.5863,0.71981,0.71748,0.317
-27.2,-1.5805,0.71372,0.71138,0.3141
-27.1,-1.5747,0.70766,0.70531,0.3112
-27,-1.5689,0.70165,0.6993,0.3083
-26.9,-1.5631,0.6958,0.69345,0.3054
-26.8,-1.5572,0.68985,0.6875,0.3026
-26.7,-1.5513,0.6841,0.68175,0.2997
-26.6,-1.5454,0.67834,0.67599,0.2969
-26.5,-1.5395,0.67263,0.67027,0.294
-26.4,-1.5336,0.66694,0.66459,0.2912
-26.3,-1.5277,0.66131,0.65895,0.2884
-26.2,-1.5217,0.65578,0.65342,0.2856
-26.1,-1.5157,0.65023,0.64786,0.2828
-26,-1.5097,0.64474,0.64238,0.28
-25.9,-1.5038,0.63936,0.63699,0.2773
-25.8,-1.4977,0.63393,0.63156,0.2745
-25.7,-1.4917,0.62868,0.62631,0.2717
-25.6,-1.4856,0.62338,0.621,0.269
-25.5,-1.4796,0.61817,0.61579,0.2663
-25.4,-1.4736,0.61302,0.61065,0.2636
-25.3,-1.4674,0.60782,0.60545,0.2608
-25.2,-1.4613,0.60277,0.60039,0.2581
-25.1,-1.4552,0.59771,0.59533,0.2554
-25,-1.449,0.59268,0.5903,0.2528
-24.9,-1.4429,0.58777,0.58539,0.2501
-24.8,-1.4368,0.58288,0.58049,0.2474
-24.7,-1.4306,0.57801,0.57562,0.2448
-24.6,-1.4245,0.5732,0.57081,0.2422
-24.5,-1.4182,0.56842,0.56603,0.2395
-24.4,-1.4121,0.5637,0.56131,0.2369
-24.3,-1.4058,0.55901,0.55661,0.2343
-24.2,-1.3996,0.55439,0.55199,0.2317
-24.1,-1.3934,0.54977,0.54736,0.2291
-24,-1.3871,0.54525,0.54284,0.2265
-23.9,-1.3808,0.54073,0.53832,0.2239
-23.8,-1.3746,0.53629,0.53388,0.2214
-23.7,-1.3683,0.53185,0.52944,0.2188
-23.6,-1.3621,0.52747,0.52506,0.2163
-23.5,-1.3558,0.52314,0.52073,0.2138
-23.4,-1.349,0.52072,0.51831,0.2107
-23.3,-1.3428,0.51643,0.51402,0.2082
-23.2,-1.3365,0.51218,0.50977,0.2057
-23.1,-1.3301,0.50798,0.50557,0.2032
-23,-1.3238,0.50389,0.50147,0.2007
-22.9,-1.3174,0.49968,0.49726,0.1983
-22.8,-1.3111,0.49562,0.4932,0.1958
-22.7,-1.3048,0.49151,0.48909,0.1934
-22.6,-1.2984,0.48748,0.48506,0.191
-22.5,-1.2921,0.48345,0.48103,0.1885
-22.4,-1.2857,0.47946,0.47704,0.1861
-22.3,-1.2793,0.47551,0.47309,0.1837
-22.2,-1.273,0.47152,0.4691,0.1814
-22.1,-1.2666,0.46767,0.46525,0.179
-22,-1.2602,0.46379,0.46137,0.1766
-21.9,-1.2538,0.45989,0.45747,0.1743
-21.8,-1.2475,0.45602,0.4536,0.172
-21.7,-1.2411,0.45223,0.4498,0.1696
-21.6,-1.2347,0.44843,0.44601,0.1673
-21.5,-1.2283,0.44468,0.44225,0.165
-21.4,-1.2218,0.44095,0.43852,0.1627
-21.3,-1.2154,0.4372,0.43478,0.1604
-21.2,-1.2089,0.43363,0.43119,0.1581
-21.1,-1.2025,0.42987,0.42743,0.1559
-21,-1.196,0.42626,0.42383,0.1536
-20.9,-1.1896,0.42258,0.42014,0.1514
-20.8,-1.1831,0.41913,0.41669,0.1491
-20.7,-1.1767,0.41534,0.4129,0.147
-20.6,-1.1701,0.41191,0.40947,0.1447
-20.5,-1.1637,0.4083,0.40586,0.1425
-20.4,-1.1572,0.40474,0.4023,0.1404
-20.3,-1.1507,0.40127,0.39883,0.1381
-19.2,-1.0781,0.3639,0.36148,0.1148
-19.1,-1.0718,0.36042,0.358,0.1129
-19,-1.0655,0.357,0.35457,0.111
-18.9,-1.0593,0.35357,0.35114,0.1092
-18.8,-1.053,0.35016,0.34773,0.1073
-18.7,-1.0468,0.34682,0.3444,0.1055
-18.6,-1.0405,0.34348,0.34106,0.1037
-18.5,-1.0343,0.34017,0.33774,0.1019
-18.4,-1.0281,0.33689,0.33446,0.1001
-18.3,-1.0218,0.33364,0.33121,0.0983
-18.2,-1.0156,0.3304,0.32797,0.0965
-18.1,-1.0094,0.32721,0.32478,0.0948
-18,-1.0032,0.32404,0.3216,0.093
-17.9,-0.997,0.32092,0.31848,0.0913
-17.8,-0.9908,0.31779,0.31536,0.0895
-17.7,-0.9846,0.31471,0.31228,0.0878
-17.6,-0.9785,0.31167,0.30923,0.0861
-17.5,-0.9723,0.30866,0.30622,0.0844
-17.4,-0.9661,0.30567,0.30323,0.0827
-17.3,-0.96,0.30271,0.30028,0.081
-17.2,-0.9538,0.29978,0.29735,0.0793
-17.1,-0.9476,0.29688,0.29445,0.0777
-17,-0.9415,0.29401,0.29158,0.076
-16.9,-0.9353,0.29116,0.28873,0.0744
-16.8,-0.9292,0.28834,0.28591,0.0727
-16.7,-0.9231,0.28553,0.2831,0.0711
-16.6,-0.9169,0.28276,0.28033,0.0695
-16.5,-0.9107,0.28,0.27757,0.0679
-16.4,-0.9046,0.27726,0.27483,0.0663
-16.3,-0.8984,0.27454,0.27211,0.0647
-16.2,-0.8923,0.27184,0.26942,0.0631
-16.1,-0.8862,0.26917,0.26674,0.0615
-16,-0.8801,0.2665,0.26408,0.06
-15.9,-0.874,0.26386,0.26144,0.0584
-15.8,-0.8678,0.26124,0.25881,0.0569
-15.7,-0.8617,0.25863,0.25621,0.0554
-15.6,-0.8557,0.25605,0.25363,0.0539
-15.5,-0.8496,0.25348,0.25106,0.0524
-15.4,-0.8435,0.25093,0.24852,0.0509
-15.3,-0.8375,0.2484,0.24598,0.0494
-15.2,-0.8314,0.2459,0.24348,0.0479
-15.1,-0.8254,0.2434,0.24099,0.0465
-15,-0.8194,0.24093,0.23851,0.045
-14.9,-0.8134,0.23848,0.23606,0.0436
-14.8,-0.8074,0.23605,0.23363,0.0422
-14.7,-0.8014,0.23364,0.23122,0.0408
-14.6,-0.7954,0.23124,0.22882,0.0393
-14.5,-0.7894,0.22887,0.22645,0.0379
-14.4,-0.7835,0.22652,0.2241,0.0366
-14.3,-0.7775,0.22418,0.22177,0.0352
-14.2,-0.7716,0.22186,0.21945,0.0338
-14.1,-0.7657,0.21956,0.21715,0.0324
-14,-0.7597,0.21728,0.21487,0.0311
-13.9,-0.7529,0.21549,0.21309,0.029
-13.8,-0.7469,0.21322,0.21081,0.0277
-13.7,-0.741,0.21095,0.20855,0.0263
-13.6,-0.735,0.20869,0.20629,0.025
-13.5,-0.7291,0.20644,0.20405,0.0236
-13.4,-0.7232,0.20421,0.20182,0.0223
-13.3,-0.7173,0.20199,0.1996,0.021
-13.2,-0.7115,0.19977,0.19738,0.0198
-13.1,-0.7056,0.19757,0.19518,0.0185
-13,-0.6998,0.19537,0.19298,0.0172
-12.9,-0.694,0.19318,0.19079,0.016
-12.8,-0.6882,0.191,0.18862,0.0148
-12.7,-0.6824,0.18883,0.18645,0.0136
-12.6,-0.6766,0.18666,0.18428,0.0124
-12.5,-0.6708,0.1845,0.18212,0.0112
-12.4,-0.6649,0.18232,0.17995,0.0101
-12.3,-0.659,0.18018,0.17781,0.0089
-12.2,-0.6528,0.17803,0.17566,0.0076
-12,-0.6397,0.17386,0.17152,0.0049
-11.9,-0.6345,0.17184,0.1695,0.0039
-11.8,-0.6293,0.16984,0.16749,0.0029
-11.7,-0.6241,0.16786,0.16551,0.002
-11.6,-0.619,0.1659,0.16356,0.0011
-11.5,-0.6139,0.16396,0.16162,0.0001
-11.4,-0.6089,0.16204,0.15971,-0.0008
-11.3,-0.6038,0.16015,0.15782,-0.0017
-11.2,-0.5988,0.15828,0.15595,-0.0026
-11.1,-0.5938,0.15643,0.15411,-0.0034
-11,-0.5889,0.15461,0.1523,-0.0043
-10.9,-0.5839,0.15282,0.15051,-0.0051
-10.8,-0.5791,0.15106,0.14875,-0.0059
-10.7,-0.5742,0.14932,0.14701,-0.0068
-10.6,-0.5694,0.1476,0.1453,-0.0075
-10.5,-0.5647,0.14591,0.14362,-0.0083
-10.4,-0.56,0.14424,0.14195,-0.009
-10.3,-0.5554,0.1426,0.14031,-0.0097
-10.2,-0.5509,0.14098,0.1387,-0.0104
-10.1,-0.5465,0.13939,0.13712,-0.011
-10,-0.5422,0.13783,0.13557,-0.0116
-9.9,-0.5381,0.13631,0.13405,-0.0121
-9.8,-0.5343,0.13482,0.13258,-0.0126
-9.7,-0.5306,0.13337,0.13113,-0.0129
-9.6,-0.5272,0.13195,0.12973,-0.0133
-9.5,-0.524,0.13057,0.12835,-0.0135
-9.4,-0.5211,0.12923,0.12702,-0.0136
-9.3,-0.5184,0.12793,0.12573,-0.0137
-9.2,-0.5162,0.12667,0.12449,-0.0136
-9.1,-0.5108,0.12509,0.12291,-0.0145
-9,-0.5021,0.12316,0.12098,-0.0165
-8.9,-0.4942,0.12132,0.11915,-0.0182
-8.8,-0.4861,0.1195,0.11732,-0.0199
-8.7,-0.4779,0.11768,0.1155,-0.0216
-8.6,-0.4696,0.11586,0.11368,-0.0234
-8.5,-0.4607,0.11401,0.11182,-0.0253
-8.4,-0.4527,0.11225,0.11006,-0.027
-8.3,-0.4445,0.1105,0.10832,-0.0287
-8.2,-0.4361,0.10875,0.10656,-0.0304
-8.1,-0.4275,0.107,0.10481,-0.0322
-7.9,-0.408,0.10333,0.10114,-0.0366
-7.8,-0.4002,0.10168,0.09949,-0.0381
-7.7,-0.3921,0.1,0.09781,-0.0397
-7.6,-0.3837,0.09832,0.09613,-0.0414
-7.5,-0.375,0.09663,0.09444,-0.0431
-7.4,-0.3659,0.09493,0.09274,-0.045
-7.3,-0.356,0.09315,0.09096,-0.0471
-7.2,-0.3479,0.09157,0.08938,-0.0486
-7.1,-0.3402,0.09002,0.08783,-0.0499
-7,-0.3318,0.08842,0.08623,-0.0515
-6.9,-0.3228,0.08679,0.0846,-0.0533
-6.8,-0.3134,0.08514,0.08295,-0.0552
-6.7,-0.3034,0.08347,0.08127,-0.0571
-6.6,-0.2958,0.08199,0.07979,-0.0584
-6.5,-0.2873,0.08049,0.07829,-0.06
-6.4,-0.2779,0.07896,0.07678,-0.0618
-6.3,-0.2694,0.07749,0.07531,-0.0634
-6.2,-0.2604,0.07602,0.07383,-0.0651
-6.1,-0.2547,0.0748,0.07261,-0.0659
-6,-0.2476,0.0735,0.07131,-0.067
-5.9,-0.2395,0.07217,0.06998,-0.0685
-5.8,-0.2297,0.07075,0.06854,-0.0704
-5.7,-0.2212,0.06944,0.06724,-0.072
-5.6,-0.2123,0.06815,0.06594,-0.0736
-5.5,-0.2025,0.06681,0.06459,-0.0755
-5.4,-0.1919,0.06544,0.06321,-0.0775
-5.3,-0.1806,0.06405,0.0618,-0.0797
-5.2,-0.1707,0.06278,0.06054,-0.0815
-5.1,-0.1601,0.06148,0.05923,-0.0834
-5,-0.1485,0.06013,0.05787,-0.0856
-4.9,-0.1362,0.05876,0.05648,-0.0879
-4.8,-0.1236,0.0574,0.05511,-0.0903
-4.7,-0.1118,0.0561,0.0538,-0.0924
-4.6,-0.0989,0.05476,0.05245,-0.0947
-4.5,-0.0853,0.05339,0.05105,-0.0972
-4.4,-0.0708,0.05198,0.04963,-0.0999
-4.3,-0.0564,0.05059,0.04822,-0.1025
-4.2,-0.0419,0.04922,0.04683,-0.105
-4.1,-0.0266,0.04781,0.0454,-0.1078
-4,-0.0104,0.04636,0.04394,-0.1106
-3.9,0.0068,0.04487,0.0424,-0.1136
-3.8,0.0232,0.04344,0.04095,-0.1164
-3.7,0.0409,0.04195,0.03943,-0.1195
-3.6,0.0595,0.04041,0.03785,-0.1227
-3.5,0.0813,0.03813,0.03552,-0.1272
-3.4,0.1017,0.03644,0.0338,-0.1308
-3.3,0.1214,0.03501,0.03233,-0.1339
-3.2,0.1421,0.03359,0.03086,-0.1372
-3.1,0.1635,0.03218,0.02939,-0.1404
-3,0.1855,0.03076,0.02791,-0.1436
-2.9,0.208,0.02934,0.02642,-0.1469
-2.8,0.2302,0.02792,0.02494,-0.1499
-2.7,0.2533,0.02644,0.02339,-0.1531
-2.6,0.2768,0.02491,0.02177,-0.1562
-2.4,0.3257,0.02157,0.0182,-0.1628
-2.3,0.3504,0.01969,0.01618,-0.1661
-2.2,0.3762,0.01745,0.01374,-0.1699
-2.1,0.4023,0.01473,0.01071,-0.174
-2,0.4248,0.01294,0.00865,-0.1764
-1.9,0.4462,0.01157,0.00697,-0.1781
-1.8,0.4664,0.0106,0.00572,-0.1791
-1.7,0.4859,0.00994,0.00482,-0.1795
-1.6,0.505,0.00948,0.00415,-0.1797
-1.4,0.5415,0.00905,0.00353,-0.1794
-1.3,0.559,0.00886,0.00322,-0.1791
-1.2,0.5762,0.00877,0.00308,-0.1788
-1.1,0.594,0.00865,0.0029,-0.1786
-1,0.6112,0.00857,0.00272,-0.1782
-0.9,0.6286,0.00848,0.00261,-0.1781
-0.8,0.6454,0.00843,0.00251,-0.1777
-0.7,0.6624,0.00841,0.00244,-0.1774
-0.6,0.6796,0.00835,0.00238,-0.1772
-0.5,0.6961,0.00834,0.00232,-0.1769
-0.4,0.713,0.00832,0.00227,-0.1766
-0.3,0.7297,0.00831,0.00222,-0.1763
-0.2,0.7463,0.0083,0.00222,-0.176
-0.1,0.7624,0.00832,0.00219,-0.1756
0,0.7786,0.00833,0.00217,-0.1752
0.1,0.795,0.00834,0.00217,-0.1749
0.2,0.8104,0.00839,0.00216,-0.1743
0.3,0.826,0.00844,0.00218,-0.1738
0.4,0.8416,0.00849,0.0022,-0.1733
0.5,0.8561,0.00859,0.00222,-0.1726
0.6,0.868,0.0088,0.00228,-0.1713
0.7,0.8818,0.00894,0.00235,-0.1705
0.8,0.8954,0.00909,0.00243,-0.1697
0.9,0.9076,0.00932,0.00256,-0.1685
1,0.9199,0.00953,0.00269,-0.1675
1.1,0.9256,0.01005,0.00295,-0.1654
1.2,0.9352,0.01042,0.00316,-0.1639
1.4,0.948,0.01155,0.00383,-0.1603
1.5,0.9599,0.01184,0.00403,-0.1593
1.6,0.9732,0.01206,0.00421,-0.1585
1.7,0.986,0.0123,0.00441,-0.1576
1.8,1.0001,0.01247,0.00458,-0.1568
1.9,1.0142,0.01264,0.00475,-0.156
2,1.0288,0.01278,0.00489,-0.1553
2.1,1.0425,0.01297,0.00507,-0.1544
2.2,1.057,0.01312,0.00522,-0.1536
2.3,1.0715,0.01326,0.00539,-0.1528
2.4,1.0861,0.01341,0.00555,-0.152
2.5,1.1005,0.01357,0.00573,-0.1511
2.6,1.1146,0.01375,0.00591,-0.1502
2.7,1.129,0.01391,0.00609,-0.1492
2.8,1.1436,0.01406,0.00628,-0.1483
2.9,1.1578,0.01423,0.00648,-0.1472
3,1.1725,0.01438,0.00668,-0.1462
3.1,1.1865,0.01457,0.0069,-0.1451
3.2,1.2011,0.01473,0.00712,-0.1441
3.4,1.2251,0.0139,0.00775,-0.1414
3.5,1.2392,0.01411,0.00799,-0.1401
3.6,1.253,0.01435,0.00824,-0.1387
3.7,1.2669,0.01459,0.00849,-0.1373
3.8,1.2801,0.01484,0.00877,-0.1357
3.9,1.2932,0.01509,0.00906,-0.134
4,1.3061,0.01537,0.00937,-0.1323
4.1,1.3193,0.01565,0.0097,-0.1306
4.2,1.3323,0.01596,0.01006,-0.1288
4.3,1.3451,0.0163,0.01046,-0.1269
4.4,1.3578,0.01667,0.01091,-0.1249
4.5,1.3701,0.01709,0.01141,-0.1228
4.6,1.3819,0.01755,0.01197,-0.1206
4.7,1.3931,0.01808,0.01261,-0.1182
4.8,1.4036,0.01869,0.01336,-0.1158
4.9,1.4138,0.01939,0.01421,-0.1133
5,1.4235,0.0202,0.01518,-0.1108
5.1,1.4326,0.02111,0.01628,-0.1084
5.2,1.4404,0.02216,0.01751,-0.1059
5.4,1.4516,0.02448,0.02021,-0.1011
5.5,1.4537,0.02579,0.0217,-0.0987
5.6,1.4529,0.02729,0.02339,-0.0964
5.7,1.4505,0.02885,0.02513,-0.0943
5.8,1.4468,0.03044,0.02691,-0.0922
5.9,1.442,0.0321,0.02872,-0.0904
6.1,1.43,0.03562,0.03251,-0.0874
6.3,1.4156,0.03946,0.03659,-0.0855
6.4,1.4079,0.04151,0.03874,-0.0851
6.6,1.3917,0.04592,0.04334,-0.0852
6.7,1.3835,0.04829,0.0458,-0.0859
6.8,1.3752,0.05077,0.04837,-0.0869
6.9,1.3671,0.05337,0.05103,-0.0883
7.1,1.3521,0.05895,0.05673,-0.0924
7.2,1.3438,0.06209,0.05994,-0.0952
7.3,1.3364,0.06535,0.06325,-0.0982
7.4,1.3296,0.06872,0.06667,-0.1015
7.5,1.3239,0.07222,0.07021,-0.105
7.6,1.3189,0.07572,0.07374,-0.1084
7.7,1.3142,0.07901,0.07706,-0.1114
7.8,1.3097,0.08217,0.08024,-0.1142
7.9,1.3056,0.08526,0.08333,-0.1169
8,1.3019,0.08827,0.08635,-0.1194
8.2,1.2958,0.09412,0.09221,-0.1242
8.3,1.2934,0.09698,0.09507,-0.1265
8.4,1.2914,0.0998,0.09789,-0.1287
8.5,1.2897,0.10257,0.10066,-0.1309
8.6,1.2884,0.1053,0.10339,-0.133
8.8,1.2866,0.11079,0.10886,-0.1372
8.9,1.2853,0.11366,0.11173,-0.1394
9,1.2845,0.11649,0.11456,-0.1415
9.1,1.2841,0.11927,0.11734,-0.1436
9.2,1.2841,0.12202,0.12009,-0.1456
9.3,1.2844,0.12474,0.12281,-0.1476
9.4,1.285,0.12743,0.12551,-0.1495
9.5,1.286,0.13009,0.12817,-0.1515
9.6,1.2872,0.13272,0.1308,-0.1533
9.7,1.2886,0.13533,0.1334,-0.1552
9.8,1.2903,0.13791,0.13598,-0.157
9.9,1.2921,0.14047,0.13854,-0.1587
10,1.2943,0.14299,0.14107,-0.1605
10.2,1.2985,0.14831,0.14637,-0.1643
10.3,1.3006,0.15102,0.14908,-0.1662
10.4,1.303,0.15372,0.15178,-0.168
10.5,1.3056,0.15637,0.15443,-0.1699
10.6,1.3084,0.159,0.15706,-0.1717
10.7,1.3114,0.16161,0.15968,-0.1734
10.8,1.3146,0.16418,0.16225,-0.1752
10.9,1.3179,0.16675,0.16482,-0.1769
11,1.3214,0.1693,0.16737,-0.1787
11.1,1.3251,0.17183,0.1699,-0.1804
11.2,1.3288,0.17433,0.17239,-0.1821
11.3,1.3326,0.17681,0.17488,-0.1838
11.4,1.3366,0.17927,0.17733,-0.1855
11.5,1.3406,0.18171,0.17977,-0.1871
11.6,1.3447,0.18414,0.1822,-0.1888
11.7,1.3489,0.18654,0.1846,-0.1905
11.8,1.3532,0.18893,0.18699,-0.1921
11.9,1.3567,0.19272,0.19078,-0.1946
12,1.3611,0.19534,0.19339,-0.1964
12.1,1.3656,0.19795,0.196,-0.1981
12.2,1.3702,0.20053,0.19858,-0.1999
12.3,1.3749,0.20311,0.20116,-0.2016
12.5,1.3845,0.20824,0.20629,-0.2051
12.6,1.3894,0.21079,0.20884,-0.2069
12.7,1.3944,0.21333,0.21138,-0.2086
12.8,1.3994,0.21587,0.21392,-0.2103
12.9,1.4045,0.21839,0.21644,-0.2121
13,1.4096,0.22091,0.21896,-0.2138
13.1,1.4148,0.22342,0.22147,-0.2156
13.2,1.42,0.22593,0.22398,-0.2173
13.3,1.4252,0.22842,0.22647,-0.2191
13.4,1.4305,0.23092,0.22897,-0.2208
13.5,1.4359,0.23395,0.232,-0.2227
13.6,1.4414,0.23691,0.23496,-0.2246
13.7,1.4469,0.2398,0.23785,-0.2265
13.8,1.4524,0.24264,0.2407,-0.2283
13.9,1.458,0.24548,0.24354,-0.2302
14,1.4636,0.24831,0.24636,-0.232
14.1,1.4693,0.25114,0.24919,-0.2339
14.2,1.475,0.25397,0.25203,-0.2357
14.3,1.4807,0.2568,0.25486,-0.2376
14.4,1.4865,0.25962,0.25768,-0.2394
14.5,1.4923,0.26247,0.26052,-0.2413
14.6,1.4981,0.26531,0.26337,-0.2431
14.7,1.504,0.26818,0.26623,-0.245
14.8,1.5099,0.27105,0.26911,-0.2469
14.9,1.5158,0.27392,0.27198,-0.2488
15,1.5217,0.27681,0.27487,-0.2506
15.1,1.5277,0.27971,0.27777,-0.2525
15.2,1.5336,0.28261,0.28066,-0.2544
15.3,1.5397,0.28553,0.28359,-0.2563
15.4,1.5457,0.28846,0.28652,-0.2582
15.5,1.5517,0.2914,0.28946,-0.2601
15.6,1.5578,0.29435,0.29241,-0.2621
15.9,1.5757,0.30277,0.30082,-0.268
16,1.5817,0.30572,0.30377,-0.27
16.1,1.5878,0.30867,0.30673,-0.2719
16.2,1.5941,0.31205,0.3101,-0.274
16.3,1.6006,0.31572,0.31376,-0.2761
16.4,1.607,0.31921,0.31726,-0.2782
16.5,1.6133,0.3226,0.32065,-0.2803
16.6,1.6196,0.32598,0.32403,-0.2823
16.7,1.626,0.32935,0.3274,-0.2844
16.8,1.6323,0.3327,0.33075,-0.2865
16.9,1.6386,0.33605,0.33411,-0.2886
17,1.6449,0.33942,0.33747,-0.2906
17.1,1.6512,0.34278,0.34085,-0.2927
17.2,1.6575,0.34619,0.34426,-0.2948
17.3,1.6638,0.3496,0.34767,-0.2969
17.4,1.6701,0.35302,0.35109,-0.299
17.5,1.6764,0.35643,0.3545,-0.3011
17.6,1.6828,0.35989,0.35796,-0.3033
17.7,1.6891,0.36334,0.36141,-0.3054
17.8,1.6954,0.36683,0.36491,-0.3075
17.9,1.7017,0.37032,0.36839,-0.3097
18,1.708,0.37384,0.37191,-0.3118
18.1,1.7143,0.37737,0.37544,-0.314
18.2,1.7207,0.38093,0.37901,-0.3162
18.3,1.727,0.38452,0.38259,-0.3184
18.4,1.7333,0.38811,0.38618,-0.3205
18.5,1.7396,0.39174,0.38982,-0.3227
18.6,1.7459,0.39538,0.39346,-0.325
18.7,1.7522,0.39904,0.39712,-0.3272
18.8,1.7586,0.40272,0.40081,-0.3294
18.9,1.7649,0.40644,0.40453,-0.3316
19,1.7712,0.41018,0.40827,-0.3339
19.1,1.7775,0.41394,0.41203,-0.3361
19.2,1.7838,0.41773,0.41582,-0.3384
19.3,1.79,0.42152,0.41961,-0.3407
19.4,1.7964,0.42538,0.42348,-0.343
19.5,1.8026,0.42925,0.42734,-0.3453
19.6,1.8089,0.43314,0.43124,-0.3476
19.7,1.8152,0.43706,0.43516,-0.3499
19.8,1.8215,0.441,0.4391,-0.3522
19.9,1.8277,0.44496,0.44307,-0.3545
20,1.834,0.44897,0.44707,-0.3569
20.1,1.8402,0.453,0.4511,-0.3592
20.2,1.8465,0.45706,0.45518,-0.3616
20.3,1.8527,0.46115,0.45927,-0.364
20.4,1.859,0.46527,0.4634,-0.3663
20.5,1.8652,0.46942,0.46755,-0.3687
20.6,1.8714,0.47361,0.47174,-0.3711
20.7,1.8777,0.47785,0.47598,-0.3736
20.8,1.8839,0.4821,0.48023,-0.376
20.9,1.8901,0.48639,0.48453,-0.3784
21,1.8963,0.49072,0.48886,-0.3809
21.1,1.9025,0.49512,0.49325,-0.3833
21.2,1.9087,0.49951,0.49765,-0.3858
21.3,1.9149,0.50395,0.5021,-0.3882
21.4,1.9211,0.50845,0.50659,-0.3907
21.5,1.9272,0.51294,0.51109,-0.3932
21.6,1.9334,0.5175,0.51565,-0.3957
21.7,1.9396,0.5221,0.52025,-0.3982
21.8,1.9457,0.52676,0.52491,-0.4008
21.9,1.9519,0.53139,0.52954,-0.4033
22,1.958,0.53614,0.5343,-0.4058
22.1,1.9642,0.54092,0.53908,-0.4084
22.2,1.9703,0.54569,0.54385,-0.411
22.3,1.9764,0.55056,0.54873,-0.4136
22.4,1.9825,0.55546,0.55362,-0.4162
22.5,1.9886,0.56039,0.55855,-0.4188
22.6,1.9948,0.5654,0.56357,-0.4214
22.7,2.0008,0.57042,0.56859,-0.424
22.8,2.0069,0.57543,0.57361,-0.4266
22.9,2.013,0.58059,0.57877,-0.4293
23,2.019,0.58575,0.58393,-0.4319
23.1,2.0251,0.59093,0.58912,-0.4346
23.2,2.0311,0.59623,0.59441,-0.4372
23.3,2.0371,0.60149,0.59968,-0.4399
23.4,2.0431,0.60682,0.60502,-0.4426
23.5,2.0491,0.61221,0.61042,-0.4453
23.6,2.0552,0.6177,0.61591,-0.448
23.7,2.0621,0.62532,0.62352,-0.4519
23.8,2.068,0.63085,0.62905,-0.4547
23.9,2.074,0.63644,0.63465,-0.4575
24,2.0799,0.64208,0.64029,-0.4603
24.1,2.0859,0.64785,0.64605,-0.4632
24.2,2.0918,0.65354,0.65175,-0.466
24.3,2.0976,0.6593,0.65751,-0.4689
24.4,2.1036,0.66517,0.66339,-0.4717
24.5,2.1094,0.67103,0.66925,-0.4746
24.6,2.1152,0.67694,0.67516,-0.4775
24.7,2.121,0.68292,0.68115,-0.4803
24.8,2.1267,0.68886,0.68709,-0.4832
24.9,2.1325,0.69496,0.69319,-0.4861
25,2.1383,0.70107,0.6993,-0.489
25.1,2.144,0.70721,0.70544,-0.4919
25.2,2.1497,0.71343,0.71167,-0.4948
25.3,2.1554,0.71973,0.71797,-0.4978
25.4,2.161,0.72598,0.72423,-0.5007
25.5,2.1666,0.73239,0.73064,-0.5036
25.6,2.1722,0.7388,0.73705,-0.5066
25.7,2.1778,0.74525,0.7435,-0.5095
25.8,2.1834,0.75186,0.75011,-0.5125
25.9,2.189,0.75848,0.75673,-0.5155
26,2.1945,0.76512,0.76338,-0.5184
26.1,2.2,0.77185,0.77011,-0.5214
26.2,2.2055,0.77862,0.77688,-0.5244
26.3,2.2109,0.78546,0.78373,-0.5274
26.4,2.2163,0.79229,0.79056,-0.5304
26.5,2.2218,0.79932,0.79759,-0.5334
26.6,2.2271,0.80631,0.8046,-0.5365
26.7,2.2326,0.81351,0.81181,-0.5395
26.8,2.2378,0.82059,0.81889,-0.5425
26.9,2.2432,0.82784,0.82614,-0.5456
27,2.2485,0.83519,0.83349,-0.5487
27.1,2.2538,0.84255,0.84086,-0.5517
27.2,2.2591,0.85002,0.84833,-0.5548
27.3,2.2642,0.85748,0.85579,-0.5579
27.4,2.2695,0.86514,0.86346,-0.561
27.5,2.2746,0.87276,0.87109,-0.5641
27.6,2.2798,0.88047,0.8788,-0.5672
27.7,2.285,0.88841,0.88674,-0.5703
27.8,2.2901,0.89628,0.89461,-0.5734
27.9,2.2952,0.90427,0.9026,-0.5766
28,2.3002,0.91233,0.91067,-0.5797
28.1,2.3053,0.9205,0.91884,-0.5829
28.2,2.3103,0.92876,0.9271,-0.586
28.3,2.3153,0.93708,0.93542,-0.5892
28.4,2.3202,0.94547,0.94383,-0.5924
28.5,2.3252,0.95396,0.95231,-0.5956
28.6,2.3301,0.96252,0.96088,-0.5988
28.7,2.335,0.97115,0.96952,-0.602
28.8,2.3398,0.97992,0.97829,-0.6052
28.9,2.3447,0.9888,0.98716,-0.6084
29,2.3495,0.99775,0.99612,-0.6116
29.1,2.3543,1.00687,1.00524,-0.6149
29.2,2.3591,1.01602,1.0144,-0.6181
29.3,2.3638,1.02529,1.02367,-0.6214
29.4,2.3685,1.03465,1.03303,-0.6246
29.5,2.3732,1.04411,1.0425,-0.6279
29.6,2.378,1.05379,1.05219,-0.6312
29.7,2.3826,1.06341,1.06181,-0.6345
29.8,2.3871,1.073,1.07141,-0.6377
29.9,2.3917,1.08303,1.08144,-0.641
30,2.3963,1.09306,1.09148,-0.6443

