airfoilName st23.dat
Re 	4.100000e+05
M 	7.000000e-01
N 	4.500000e+00
VACC 	0 VACCflag 1
XTR 	1.00 	1.00 XTRflag 0
alpha,cl,cd,cdp,cm
-30,-1.7081,0.91615,0.91337,0.3983
-29.9,-1.7029,0.90843,0.90565,0.3952
-29.8,-1.6977,0.90072,0.89794,0.392
-29.7,-1.6924,0.89306,0.89028,0.3889
-29.6,-1.6871,0.88552,0.88273,0.3857
-29.5,-1.6817,0.87802,0.87523,0.3826
-29.4,-1.6764,0.87063,0.86783,0.3795
-29.3,-1.671,0.8633,0.8605,0.3764
-29.2,-1.6656,0.85608,0.85328,0.3732
-29.1,-1.6602,0.84885,0.84605,0.3701
-29,-1.6547,0.8417,0.83889,0.367
-28.9,-1.6492,0.83463,0.83182,0.364
-28.8,-1.6437,0.82765,0.82484,0.3609
-28.7,-1.6382,0.82074,0.81793,0.3578
-28.6,-1.6327,0.81389,0.81107,0.3548
-28.5,-1.6271,0.80713,0.80431,0.3517
-28.4,-1.6216,0.80042,0.79759,0.3487
-28.3,-1.6159,0.79376,0.79093,0.3456
-28.2,-1.6103,0.78723,0.7844,0.3426
-28.1,-1.6047,0.78068,0.77785,0.3396
-28,-1.599,0.77424,0.7714,0.3366
-27.9,-1.5933,0.76783,0.76499,0.3336
-27.8,-1.5876,0.76152,0.75867,0.3306
-27.7,-1.5819,0.75526,0.75241,0.3277
-27.6,-1.5761,0.7491,0.74625,0.3247
-27.5,-1.5703,0.74294,0.74009,0.3217
-27.4,-1.5645,0.7369,0.73404,0.3187
-27.3,-1.5587,0.73091,0.72805,0.3158
-27.2,-1.5528,0.72501,0.72214,0.3128
-27.1,-1.547,0.71912,0.71624,0.3099
-27,-1.541,0.71328,0.71041,0.307
-26.9,-1.5351,0.70758,0.7047,0.304
-26.8,-1.5291,0.70201,0.69913,0.3011
-26.7,-1.5232,0.69632,0.69344,0.2982
-26.6,-1.5172,0.69091,0.68802,0.2952
-26.5,-1.5113,0.68532,0.68244,0.2924
-26.4,-1.5052,0.68005,0.67717,0.2894
-26.3,-1.4991,0.67489,0.672,0.2865
-26.2,-1.493,0.66968,0.66679,0.2836
-26.1,-1.4869,0.66457,0.66168,0.2806
-26,-1.4808,0.65945,0.65655,0.2778
-25.9,-1.4745,0.65482,0.65192,0.2747
-25.8,-1.4682,0.65034,0.64744,0.2717
-25.7,-1.4619,0.64592,0.64302,0.2686
-25.6,-1.4554,0.64196,0.63906,0.2655
-22.5,-1.2617,0.49635,0.49341,0.1851
-22.4,-1.2555,0.49194,0.48899,0.1829
-22.3,-1.2493,0.48756,0.48461,0.1806
-22.2,-1.2431,0.48322,0.48027,0.1784
-22.1,-1.2369,0.47892,0.47597,0.1761
-22,-1.2306,0.47464,0.4717,0.1739
-21.9,-1.2244,0.47042,0.46747,0.1717
-21.8,-1.2181,0.46621,0.46326,0.1695
-21.7,-1.2119,0.46205,0.4591,0.1673
-21.6,-1.2056,0.45792,0.45497,0.1651
-21.5,-1.1994,0.4538,0.45085,0.163
-21.4,-1.1931,0.44975,0.44679,0.1608
-21.3,-1.1868,0.44569,0.44274,0.1587
-21.2,-1.1806,0.4417,0.43873,0.1565
-21.1,-1.1743,0.43771,0.43474,0.1544
-21,-1.168,0.43377,0.43079,0.1523
-20.9,-1.1617,0.42986,0.42689,0.1502
-20.8,-1.1554,0.42597,0.42299,0.1481
-20.7,-1.1491,0.42211,0.41914,0.146
-20.6,-1.1428,0.41828,0.41531,0.144
-20.5,-1.1365,0.41451,0.41153,0.1419
-20.4,-1.1302,0.41072,0.40775,0.1399
-20.3,-1.1239,0.40699,0.40401,0.1378
-20.2,-1.1176,0.40327,0.40029,0.1358
-20.1,-1.1113,0.3996,0.39662,0.1338
-20,-1.105,0.39595,0.39297,0.1318
-19.9,-1.0987,0.39233,0.38935,0.1298
-19.8,-1.0924,0.38874,0.38576,0.1279
-19.7,-1.0861,0.38517,0.38219,0.1259
-19.6,-1.0798,0.38163,0.37865,0.1239
-19.5,-1.0735,0.37812,0.37514,0.122
-19.4,-1.0672,0.37464,0.37165,0.1201
-19.3,-1.0609,0.37118,0.3682,0.1182
-19.2,-1.0546,0.36774,0.36476,0.1163
-19.1,-1.0483,0.36434,0.36136,0.1144
-19,-1.042,0.36098,0.35799,0.1125
-18.9,-1.0357,0.35761,0.35462,0.1106
-18.8,-1.0294,0.35428,0.35129,0.1088
-18.7,-1.0231,0.35099,0.34801,0.1069
-18.6,-1.0168,0.34771,0.34473,0.1051
-18.5,-1.0106,0.34445,0.34147,0.1033
-18.4,-1.0043,0.34121,0.33823,0.1015
-18.3,-0.998,0.33802,0.33504,0.0997
-18.2,-0.9918,0.33484,0.33185,0.0979
-18.1,-0.9855,0.33168,0.32869,0.0961
-18,-0.9792,0.32856,0.32556,0.0943
-17.9,-0.973,0.32546,0.32246,0.0926
-17.8,-0.9667,0.32238,0.31938,0.0908
-17.7,-0.9605,0.31933,0.31634,0.0891
-17.6,-0.9542,0.31631,0.31331,0.0874
-17.5,-0.948,0.3133,0.31031,0.0857
-17.4,-0.9417,0.31033,0.30734,0.0839
-17.3,-0.9355,0.30739,0.3044,0.0822
-17.2,-0.9293,0.30446,0.30147,0.0805
-17.1,-0.9231,0.30156,0.29857,0.0789
-17,-0.9169,0.29868,0.29569,0.0772
-16.9,-0.9107,0.29583,0.29284,0.0755
-16.8,-0.9045,0.29301,0.29002,0.0738
-16.7,-0.8983,0.29021,0.28722,0.0722
-16.6,-0.8921,0.28742,0.28444,0.0705
-16.5,-0.8859,0.28468,0.28169,0.0689
-16.4,-0.8797,0.28195,0.27896,0.0673
-16.3,-0.8735,0.27924,0.27626,0.0656
-16.2,-0.8674,0.27655,0.27357,0.064
-16.1,-0.8612,0.27389,0.27091,0.0624
-16,-0.855,0.27124,0.26826,0.0607
-15.9,-0.8488,0.26862,0.26564,0.0591
-15.8,-0.8414,0.2668,0.26383,0.0563
-15.7,-0.8351,0.26414,0.26116,0.0547
-15.6,-0.8289,0.26144,0.25847,0.0531
-15.5,-0.8226,0.25874,0.25577,0.0515
-15.4,-0.8162,0.25603,0.25306,0.0499
-15.3,-0.8099,0.25331,0.25034,0.0483
-14.9,-0.7835,0.2426,0.23965,0.0418
-14.7,-0.7719,0.2375,0.23455,0.0392
-14.6,-0.7662,0.23501,0.23206,0.0379
-14.5,-0.7604,0.23253,0.22959,0.0366
-14.4,-0.7547,0.23008,0.22713,0.0353
-14.3,-0.749,0.22765,0.2247,0.034
-14.2,-0.7433,0.22524,0.22229,0.0328
-14.1,-0.7377,0.22285,0.21991,0.0315
-14,-0.732,0.22048,0.21754,0.0303
-13.9,-0.7264,0.21813,0.2152,0.029
-13.8,-0.7208,0.2158,0.21287,0.0278
-13.7,-0.7152,0.2135,0.21056,0.0266
-13.6,-0.7096,0.21121,0.20828,0.0254
-13.5,-0.7041,0.20895,0.20602,0.0242
-13.4,-0.6985,0.2067,0.20378,0.023
-13.3,-0.693,0.20448,0.20155,0.0218
-13.2,-0.6874,0.20227,0.19935,0.0207
-13.1,-0.6819,0.20008,0.19716,0.0195
-13,-0.6764,0.19791,0.19499,0.0184
-12.9,-0.6708,0.19575,0.19284,0.0172
-12.8,-0.6653,0.19362,0.19071,0.0161
-12.7,-0.6599,0.1915,0.1886,0.0149
-12.6,-0.6544,0.1894,0.1865,0.0138
-12.5,-0.6489,0.18732,0.18442,0.0127
-12.4,-0.6435,0.18526,0.18236,0.0116
-12.3,-0.6381,0.18321,0.18032,0.0105
-12.2,-0.6327,0.18118,0.17829,0.0095
-12.1,-0.6273,0.17917,0.17628,0.0084
-12,-0.622,0.17717,0.17427,0.0074
-11.9,-0.6166,0.17519,0.1723,0.0063
-11.8,-0.6113,0.17323,0.17034,0.0053
-11.7,-0.606,0.17127,0.16839,0.0043
-11.6,-0.6007,0.16934,0.16646,0.0033
-11.5,-0.5955,0.16742,0.16454,0.0023
-11.4,-0.5902,0.16551,0.16263,0.0013
-11.3,-0.5849,0.16361,0.16074,0.0003
-11.2,-0.5797,0.16173,0.15886,-0.0007
-11.1,-0.5745,0.15986,0.157,-0.0016
-11,-0.5694,0.158,0.15515,-0.0025
-10.9,-0.5642,0.15617,0.15331,-0.0035
-10.8,-0.5591,0.15434,0.1515,-0.0044
-10.7,-0.554,0.15253,0.14969,-0.0053
-10.6,-0.549,0.15074,0.1479,-0.0061
-10.5,-0.544,0.14896,0.14613,-0.007
-10.4,-0.5391,0.1472,0.14437,-0.0079
-10.3,-0.5341,0.14545,0.14263,-0.0087
-10.2,-0.5293,0.14371,0.1409,-0.0095
-10.1,-0.5245,0.14199,0.13918,-0.0103
-10,-0.5197,0.14029,0.13748,-0.0111
-9.9,-0.515,0.1386,0.1358,-0.0118
-9.8,-0.5103,0.13692,0.13413,-0.0125
-9.7,-0.5058,0.13526,0.13248,-0.0132
-9.6,-0.5013,0.13363,0.13085,-0.0139
-9.5,-0.497,0.132,0.12923,-0.0145
-9.4,-0.4917,0.13009,0.12733,-0.0157
-9.3,-0.4874,0.12844,0.12569,-0.0163
-9.2,-0.4832,0.12682,0.12407,-0.0168
-9.1,-0.4791,0.12521,0.12248,-0.0173
-9,-0.4749,0.12363,0.12091,-0.0179
-8.9,-0.471,0.12213,0.11944,-0.0185
-8.8,-0.4682,0.12073,0.11805,-0.0186
-8.7,-0.4657,0.11937,0.1167,-0.0186
-8.6,-0.4634,0.11804,0.11538,-0.0186
-8.5,-0.4614,0.11676,0.11411,-0.0185
-8.4,-0.4597,0.11553,0.11289,-0.0183
-8.3,-0.4583,0.11434,0.11172,-0.018
-8.2,-0.4567,0.11313,0.11053,-0.0179
-8.1,-0.4491,0.11132,0.10872,-0.0195
-8,-0.4415,0.10954,0.10694,-0.0211
-7.9,-0.4338,0.10778,0.10518,-0.0227
-7.8,-0.4259,0.10603,0.10342,-0.0244
-7.7,-0.4178,0.10428,0.10168,-0.0261
-7.6,-0.4095,0.10252,0.09992,-0.0279
-7.5,-0.4018,0.10084,0.09824,-0.0295
-7.4,-0.3938,0.09917,0.09657,-0.0312
-7.3,-0.3855,0.09749,0.09489,-0.0329
-7.2,-0.3769,0.09581,0.09322,-0.0348
-7.1,-0.3684,0.09416,0.09157,-0.0366
-7,-0.3604,0.09256,0.08996,-0.0382
-6.9,-0.3523,0.09098,0.08838,-0.0398
-6.8,-0.3437,0.08938,0.08678,-0.0416
-6.7,-0.3347,0.08776,0.08517,-0.0435
-6.6,-0.3253,0.08614,0.08355,-0.0455
-6.5,-0.3169,0.08461,0.08202,-0.0472
-6.4,-0.3099,0.0832,0.08061,-0.0485
-6.3,-0.3013,0.08168,0.07909,-0.0503
-6.2,-0.2924,0.08016,0.07757,-0.0521
-6.1,-0.283,0.07861,0.07602,-0.0541
-6,-0.2748,0.07717,0.07458,-0.0557
-5.9,-0.2686,0.07588,0.07329,-0.0567
-5.8,-0.2605,0.07447,0.07188,-0.0583
-5.7,-0.251,0.07298,0.07039,-0.0604
-5.6,-0.24,0.07142,0.06881,-0.0628
-5.5,-0.2313,0.07002,0.06741,-0.0645
-5.4,-0.2227,0.06863,0.06602,-0.0662
-5.3,-0.2124,0.06715,0.06453,-0.0683
-5.2,-0.201,0.06561,0.06299,-0.0708
-5.1,-0.1888,0.06404,0.0614,-0.0734
-5,-0.1795,0.06266,0.06002,-0.0752
-4.9,-0.1697,0.06125,0.05861,-0.0771
-4.8,-0.1578,0.05973,0.05707,-0.0796
-4.7,-0.145,0.05815,0.05548,-0.0823
-4.6,-0.1313,0.05653,0.05385,-0.0852
-4.5,-0.121,0.05513,0.05244,-0.0871
-4.4,-0.107,0.05297,0.05028,-0.0907
-4.3,-0.0937,0.05153,0.04882,-0.0933
-4.2,-0.0788,0.05002,0.04729,-0.0961
-4.1,-0.0631,0.04852,0.04576,-0.0991
-4,-0.0509,0.04723,0.04446,-0.1011
-3.9,-0.0362,0.04582,0.04303,-0.1037
-3.8,-0.0195,0.04432,0.0415,-0.1066
-3.7,-0.0015,0.04278,0.03992,-0.1099
-3.6,0.0142,0.04139,0.03851,-0.1124
-3.5,0.031,0.03995,0.03703,-0.1151
-3.4,0.0495,0.03844,0.03549,-0.1182
-3.3,0.0691,0.03689,0.03389,-0.1215
-3.2,0.0902,0.03527,0.03221,-0.1249
-3,0.1293,0.0322,0.02902,-0.1308
-2.9,0.151,0.03053,0.02727,-0.1342
-2.8,0.1741,0.02873,0.02538,-0.1377
-2.7,0.1981,0.02682,0.02336,-0.1415
-2.5,0.2441,0.02298,0.01929,-0.1482
-2.4,0.2662,0.02158,0.01778,-0.1506
-2.3,0.2888,0.02009,0.01614,-0.153
-2.2,0.3116,0.01849,0.01436,-0.1555
-2.1,0.3342,0.0167,0.01236,-0.1579
-2,0.3558,0.01476,0.01012,-0.1602
-1.9,0.3773,0.01311,0.00811,-0.1621
-1.7,0.4165,0.01161,0.00614,-0.1632
-1.6,0.4357,0.01103,0.00535,-0.1634
-1.5,0.4538,0.01061,0.00476,-0.1634
-1.3,0.4901,0.01019,0.00415,-0.163
-1.2,0.5073,0.00998,0.00385,-0.1626
-1.1,0.5252,0.00985,0.00365,-0.1624
-0.9,0.5597,0.00965,0.00334,-0.1618
-0.8,0.5767,0.00957,0.00322,-0.1614
-0.7,0.5939,0.00949,0.00309,-0.1612
-0.5,0.628,0.0094,0.00298,-0.1607
-0.4,0.6444,0.00936,0.00286,-0.1602
-0.3,0.6613,0.00933,0.00281,-0.16
-0.2,0.6781,0.0093,0.00278,-0.1597
0,0.7108,0.00929,0.00272,-0.1589
0.1,0.7273,0.00929,0.0027,-0.1586
0.2,0.7432,0.00931,0.00266,-0.158
0.3,0.7586,0.00934,0.00264,-0.1574
0.4,0.7744,0.00938,0.00264,-0.1569
0.5,0.7895,0.00944,0.00266,-0.1562
0.6,0.8044,0.00951,0.00267,-0.1556
0.7,0.8153,0.00975,0.00271,-0.154
0.8,0.8286,0.00991,0.00278,-0.1531
0.9,0.8405,0.01014,0.00289,-0.1519
1,0.8492,0.01052,0.00305,-0.1502
1.1,0.8595,0.01083,0.00324,-0.1488
1.4,0.8823,0.01228,0.00405,-0.1439
1.5,0.8943,0.01258,0.00428,-0.1429
1.6,0.9073,0.01281,0.00446,-0.1421
1.7,0.9208,0.01301,0.00465,-0.1413
1.8,0.9338,0.01324,0.00487,-0.1404
1.9,0.9481,0.0134,0.00503,-0.1397
2,0.9622,0.01357,0.00521,-0.1389
2.1,0.9765,0.01372,0.00538,-0.1382
2.2,0.9907,0.01389,0.00557,-0.1373
2.3,1.0044,0.01408,0.00575,-0.1365
2.4,1.019,0.01421,0.00594,-0.1357
2.5,1.0334,0.01437,0.00613,-0.1348
2.6,1.0478,0.01451,0.00635,-0.134
2.8,1.0685,0.01358,0.00684,-0.131
2.9,1.0829,0.01377,0.00705,-0.13
3,1.097,0.014,0.00726,-0.1289
3.1,1.1113,0.01421,0.0075,-0.1278
3.2,1.1254,0.01443,0.00773,-0.1267
3.3,1.1392,0.01467,0.00799,-0.1255
3.4,1.1532,0.0149,0.00825,-0.1243
3.5,1.1669,0.01515,0.00853,-0.1229
3.6,1.1807,0.0154,0.00882,-0.1216
3.7,1.1942,0.01567,0.00911,-0.1202
3.8,1.2076,0.01595,0.00944,-0.1187
3.9,1.2207,0.01622,0.00974,-0.1171
4,1.2331,0.01653,0.0101,-0.1154
4.1,1.2455,0.01686,0.01049,-0.1136
4.2,1.2577,0.01721,0.01091,-0.1117
4.3,1.2696,0.01761,0.01138,-0.1098
4.4,1.2813,0.01805,0.01191,-0.1078
4.5,1.2927,0.01854,0.01251,-0.1057
4.7,1.3148,0.01965,0.01382,-0.1015
4.8,1.325,0.02035,0.01467,-0.0993
4.9,1.3347,0.02113,0.01561,-0.0971
5,1.3436,0.02201,0.01666,-0.0949
5.1,1.3515,0.02298,0.01781,-0.0927
5.2,1.358,0.02404,0.01906,-0.0904
5.3,1.3629,0.02519,0.02038,-0.0883
5.4,1.3655,0.02652,0.02189,-0.0861
5.5,1.3661,0.02795,0.02352,-0.0841
5.6,1.3649,0.02945,0.02519,-0.0821
5.7,1.3625,0.031,0.02695,-0.0804
5.8,1.3588,0.03263,0.02872,-0.0787
5.9,1.3542,0.03432,0.03056,-0.0773
6,1.3487,0.03608,0.03246,-0.0761
6.1,1.3426,0.03793,0.03444,-0.0752
6.3,1.3299,0.04181,0.03854,-0.0743
6.4,1.3228,0.0439,0.04073,-0.0743
6.5,1.3154,0.04611,0.04303,-0.0747
6.6,1.308,0.04842,0.04542,-0.0754
6.7,1.3006,0.05085,0.04793,-0.0765
6.8,1.2931,0.0534,0.05054,-0.078
6.9,1.2842,0.05629,0.0535,-0.0801
7,1.276,0.0593,0.05657,-0.0826
7.2,1.2612,0.06568,0.06306,-0.0884
7.3,1.2549,0.06903,0.06646,-0.0916
7.5,1.2445,0.07578,0.07328,-0.0978
7.7,1.2352,0.08201,0.07953,-0.1031
7.9,1.2274,0.08794,0.08547,-0.1078
8,1.2242,0.09081,0.08835,-0.1101
8.1,1.2214,0.09364,0.09118,-0.1122
8.2,1.219,0.09642,0.09396,-0.1143
8.3,1.2188,0.09889,0.09643,-0.1161
8.4,1.2176,0.10149,0.09903,-0.118
8.5,1.2168,0.10404,0.10158,-0.1198
8.6,1.2157,0.10668,0.1042,-0.1217
8.7,1.2134,0.10964,0.10716,-0.1239
8.8,1.2118,0.1125,0.11002,-0.1259
8.9,1.2107,0.11531,0.11283,-0.1279
9,1.21,0.11808,0.11561,-0.1299
9.1,1.2097,0.12082,0.11835,-0.1317
9.2,1.2099,0.12351,0.12104,-0.1336
9.3,1.2103,0.12618,0.12371,-0.1354
9.4,1.211,0.1288,0.12634,-0.1372
9.5,1.2119,0.1314,0.12893,-0.1389
9.6,1.2131,0.13396,0.13149,-0.1405
9.7,1.2146,0.1365,0.13404,-0.1422
9.8,1.2163,0.13902,0.13655,-0.1438
9.9,1.2182,0.1415,0.13904,-0.1454
10,1.2218,0.14354,0.14108,-0.1469
10.1,1.224,0.14598,0.1435,-0.1485
10.2,1.2252,0.14892,0.14644,-0.1504
10.3,1.2269,0.15172,0.14925,-0.1523
10.4,1.229,0.15446,0.15199,-0.1541
10.5,1.2314,0.15716,0.15469,-0.1559
10.6,1.234,0.1598,0.15733,-0.1576
10.7,1.2369,0.16242,0.15995,-0.1593
10.8,1.2399,0.16501,0.16254,-0.161
10.9,1.2431,0.16756,0.1651,-0.1626
11,1.2464,0.17009,0.16763,-0.1642
11.1,1.2498,0.1726,0.17014,-0.1659
11.2,1.2534,0.17507,0.17261,-0.1674
11.3,1.2578,0.17711,0.17465,-0.169
11.4,1.2615,0.17955,0.17708,-0.1706
11.5,1.2648,0.18252,0.18005,-0.1725
11.6,1.2684,0.18535,0.18287,-0.1744
11.7,1.2723,0.1881,0.18563,-0.1762
11.8,1.2763,0.1908,0.18833,-0.1779
11.9,1.2804,0.19347,0.191,-0.1796
12,1.2847,0.19611,0.19364,-0.1814
12.1,1.2891,0.19873,0.19626,-0.1831
12.2,1.2936,0.20133,0.19886,-0.1848
12.3,1.2982,0.20392,0.20145,-0.1865
12.4,1.3028,0.20649,0.20402,-0.1881
12.5,1.3076,0.20904,0.20657,-0.1898
12.6,1.3124,0.21157,0.2091,-0.1915
12.7,1.3173,0.21408,0.21161,-0.1931
12.8,1.3222,0.21659,0.21412,-0.1948
12.9,1.3272,0.21907,0.2166,-0.1965
13,1.3323,0.22154,0.21909,-0.1981
13.1,1.3374,0.224,0.22155,-0.1998
13.2,1.3424,0.22791,0.22545,-0.2025
13.3,1.3476,0.23069,0.22823,-0.2043
13.4,1.3529,0.23344,0.23098,-0.2061
13.5,1.3583,0.23617,0.23371,-0.2079
13.6,1.3636,0.23891,0.23644,-0.2097
13.7,1.3691,0.24163,0.23917,-0.2114
13.8,1.3746,0.24435,0.24189,-0.2132
13.9,1.3801,0.24706,0.2446,-0.215
14,1.3857,0.24978,0.24732,-0.2168
14.1,1.3913,0.2525,0.25004,-0.2186
14.2,1.3969,0.25521,0.25275,-0.2204
14.3,1.4026,0.25793,0.25547,-0.2222
14.4,1.4084,0.26065,0.25819,-0.2239
14.5,1.4141,0.26337,0.26091,-0.2257
14.6,1.4199,0.2661,0.26364,-0.2275
14.7,1.4257,0.26882,0.26636,-0.2294
14.8,1.4315,0.27155,0.26909,-0.2312
14.9,1.4373,0.27429,0.27183,-0.233
15,1.4431,0.27701,0.27456,-0.2348
15.1,1.4492,0.28022,0.27775,-0.2368
15.2,1.4553,0.28362,0.28115,-0.2388
15.3,1.4615,0.28693,0.28446,-0.2409
15.4,1.4677,0.29018,0.28771,-0.2429
15.5,1.4738,0.29335,0.29088,-0.2448
15.6,1.48,0.29654,0.29407,-0.2468
15.7,1.4862,0.29972,0.29725,-0.2488
15.8,1.4923,0.30289,0.30042,-0.2507
15.9,1.4985,0.30605,0.30358,-0.2527
16,1.5048,0.30925,0.30679,-0.2547
16.1,1.511,0.31245,0.30998,-0.2567
16.2,1.5172,0.31564,0.31318,-0.2587
16.3,1.5235,0.31886,0.31639,-0.2607
16.4,1.5298,0.32207,0.3196,-0.2627
16.5,1.536,0.32532,0.32285,-0.2647
16.6,1.5423,0.32855,0.32609,-0.2667
16.7,1.5486,0.3318,0.32935,-0.2687
16.8,1.5549,0.33508,0.33263,-0.2708
17,1.5674,0.34125,0.3388,-0.2751
17.1,1.5737,0.34452,0.34207,-0.2771
17.2,1.58,0.34781,0.34536,-0.2792
17.3,1.5862,0.35109,0.34864,-0.2812
17.4,1.5925,0.35441,0.35197,-0.2833
17.5,1.5988,0.35775,0.35531,-0.2854
17.6,1.6051,0.36109,0.35865,-0.2875
17.7,1.6114,0.36447,0.36203,-0.2896
17.8,1.6177,0.36785,0.36541,-0.2917
17.9,1.624,0.37124,0.36881,-0.2938
18,1.6307,0.37545,0.373,-0.2961
18.1,1.6373,0.37948,0.37703,-0.2984
18.2,1.6439,0.38339,0.38094,-0.3006
18.3,1.6504,0.38726,0.38482,-0.3029
18.4,1.6568,0.39107,0.38863,-0.3051
18.5,1.6633,0.39495,0.39251,-0.3074
18.6,1.6698,0.39876,0.39632,-0.3096
18.7,1.6762,0.40264,0.4002,-0.3119
18.8,1.6827,0.40648,0.40405,-0.3141
18.9,1.6891,0.41035,0.40792,-0.3164
19,1.6955,0.41424,0.41181,-0.3187
19.1,1.7019,0.41816,0.41573,-0.3209
19.2,1.7084,0.42209,0.41967,-0.3232
19.3,1.7148,0.42603,0.42361,-0.3255
19.4,1.7212,0.43001,0.42759,-0.3278
19.5,1.7275,0.43398,0.43156,-0.3301
19.6,1.734,0.43801,0.43559,-0.3324
19.7,1.7403,0.44207,0.43965,-0.3348
19.8,1.7468,0.44616,0.44374,-0.3371
19.9,1.7531,0.45023,0.44783,-0.3394
20,1.7595,0.45438,0.45199,-0.3418
20.1,1.7659,0.45856,0.45617,-0.3442
20.2,1.7723,0.46276,0.46037,-0.3466
20.3,1.7786,0.46698,0.46459,-0.3489
20.4,1.785,0.47123,0.46884,-0.3513
20.5,1.7913,0.47552,0.47313,-0.3537
20.6,1.7976,0.47984,0.47746,-0.3561
20.7,1.804,0.48421,0.48183,-0.3585
20.8,1.8104,0.48863,0.48625,-0.361
20.9,1.8167,0.49306,0.49069,-0.3634
21,1.823,0.49752,0.49515,-0.3659
21.1,1.8293,0.50202,0.49965,-0.3683
21.2,1.8356,0.50655,0.50419,-0.3708
21.3,1.8419,0.51115,0.50879,-0.3733
21.4,1.8482,0.51581,0.51344,-0.3758
21.5,1.8545,0.52047,0.51811,-0.3783
21.6,1.8608,0.52518,0.52283,-0.3808
21.7,1.8671,0.52993,0.52758,-0.3833
21.8,1.8734,0.53472,0.53237,-0.3859
21.9,1.8796,0.53956,0.53721,-0.3884
22,1.8859,0.54443,0.54208,-0.391
22.1,1.8921,0.54936,0.54701,-0.3935
22.2,1.8984,0.55431,0.55197,-0.3961
22.3,1.9046,0.55931,0.55697,-0.3987
22.4,1.9109,0.56441,0.56207,-0.4013
22.5,1.917,0.56946,0.56712,-0.4039
22.6,1.9233,0.57466,0.57233,-0.4065
22.7,1.9295,0.57985,0.57752,-0.4091
22.8,1.9356,0.58508,0.58275,-0.4118
22.9,1.9418,0.59035,0.58802,-0.4144
23,1.948,0.59574,0.59343,-0.4171
23.1,1.9541,0.60111,0.5988,-0.4197
23.2,1.9603,0.60656,0.60426,-0.4224
23.3,1.9665,0.61205,0.60976,-0.4251
23.4,1.9726,0.6176,0.61531,-0.4278
23.5,1.9787,0.62318,0.62089,-0.4305
23.6,1.9848,0.62886,0.62657,-0.4333
23.7,1.9909,0.63453,0.63225,-0.436
23.8,1.997,0.6403,0.63801,-0.4387
23.9,2.003,0.64612,0.64384,-0.4415
24,2.009,0.65193,0.64965,-0.4442
24.1,2.015,0.65776,0.65548,-0.447
24.2,2.0211,0.66382,0.66155,-0.4498
24.3,2.027,0.66978,0.66751,-0.4526
24.4,2.033,0.67585,0.67358,-0.4554
24.5,2.0388,0.68118,0.67892,-0.4583
24.6,2.0448,0.68738,0.68513,-0.4612
24.7,2.0507,0.69355,0.6913,-0.464
24.8,2.0566,0.69984,0.69759,-0.4668
24.9,2.0625,0.70623,0.70398,-0.4697
25.1,2.0748,0.71989,0.71764,-0.4761
25.2,2.0806,0.72632,0.72407,-0.4792
25.3,2.0865,0.73279,0.73054,-0.4822
25.4,2.0923,0.73937,0.73712,-0.4853
25.5,2.0981,0.74597,0.74373,-0.4883
25.6,2.104,0.75261,0.75037,-0.4914
25.7,2.1097,0.7593,0.75707,-0.4944
25.8,2.1154,0.76603,0.7638,-0.4974
25.9,2.1212,0.77291,0.77069,-0.5005
26,2.1269,0.7798,0.77758,-0.5035
26.1,2.1325,0.78672,0.78451,-0.5066
26.2,2.1381,0.79374,0.79155,-0.5096
26.3,2.1437,0.80085,0.79866,-0.5127
26.4,2.1493,0.80802,0.80583,-0.5157
26.5,2.155,0.81532,0.81313,-0.5188
26.6,2.1605,0.82264,0.82046,-0.5219
26.7,2.166,0.82999,0.82781,-0.525
26.8,2.1715,0.83744,0.83526,-0.5281
26.9,2.177,0.845,0.84283,-0.5312
27,2.1824,0.85265,0.85048,-0.5343
27.1,2.1879,0.86037,0.85821,-0.5374
27.2,2.1933,0.86813,0.86597,-0.5405
27.3,2.1987,0.876,0.87384,-0.5436
27.4,2.204,0.88392,0.88177,-0.5467
27.5,2.2094,0.89199,0.88985,-0.5499
27.6,2.2147,0.90011,0.89797,-0.553
27.7,2.22,0.90834,0.9062,-0.5562
27.8,2.2253,0.91668,0.91454,-0.5594
27.9,2.2305,0.92507,0.92294,-0.5625
28,2.2357,0.93358,0.93145,-0.5657
28.1,2.2409,0.94216,0.94003,-0.5689
28.2,2.2461,0.95086,0.94874,-0.5721
28.3,2.2512,0.95957,0.95746,-0.5753
28.4,2.2563,0.96845,0.96634,-0.5785
28.5,2.2614,0.97735,0.97525,-0.5817
28.6,2.2665,0.9865,0.9844,-0.585
28.7,2.2716,0.9958,0.9937,-0.5882
28.8,2.2766,1.00497,1.00288,-0.5914
28.9,2.2816,1.01433,1.01224,-0.5947
29,2.2865,1.02386,1.02177,-0.5979
29.1,2.2915,1.03348,1.0314,-0.6012
29.2,2.2964,1.04313,1.04105,-0.6045
29.3,2.3013,1.05303,1.05097,-0.6077
29.4,2.3062,1.06294,1.06089,-0.611
29.5,2.311,1.07302,1.07097,-0.6143
29.6,2.3158,1.08322,1.08117,-0.6176
29.7,2.3205,1.09334,1.09129,-0.6209
29.8,2.3253,1.10372,1.10169,-0.6242
29.9,2.33,1.11436,1.11232,-0.6276
30,2.3347,1.12503,1.123,-0.6309

