airfoilName st23.dat
Re 	4.900000e+05
M 	7.000000e-01
N 	4.500000e+00
VACC 	0 VACCflag 1
XTR 	1.00 	1.00 XTRflag 0
alpha,cl,cd,cdp,cm
-1.1,0.5295,0.00914,0.00311,-0.1626
-1,0.5469,0.00906,0.00299,-0.1624
-0.9,0.5638,0.009,0.00286,-0.162
-0.8,0.581,0.00893,0.00277,-0.1617
-0.7,0.5982,0.00888,0.00268,-0.1615
-0.6,0.6147,0.00884,0.00258,-0.1611
-0.5,0.6314,0.00881,0.00254,-0.1608
-0.4,0.6482,0.00879,0.0025,-0.1605
-0.3,0.6648,0.00877,0.00243,-0.1602
-0.2,0.681,0.00877,0.0024,-0.1597
-0.1,0.6975,0.00877,0.00238,-0.1594
0,0.7138,0.00878,0.00237,-0.1591
0.1,0.7299,0.0088,0.00236,-0.1586
0.2,0.7446,0.00886,0.00234,-0.1579
0.3,0.7602,0.00891,0.00234,-0.1574
0.4,0.7748,0.009,0.00236,-0.1566
0.5,0.7893,0.0091,0.00239,-0.1559
0.6,0.8012,0.00931,0.00246,-0.1547
0.7,0.813,0.00954,0.00256,-0.1535
0.8,0.8249,0.00978,0.00267,-0.1524
1,0.8445,0.01047,0.00302,-0.1495
1.3,0.87,0.01187,0.00382,-0.1452
1.4,0.8829,0.01211,0.004,-0.1443
1.5,0.8967,0.01231,0.00416,-0.1436
1.6,0.9108,0.01247,0.00433,-0.1429
1.7,0.9244,0.01268,0.00451,-0.1421
1.8,0.9386,0.01285,0.00467,-0.1414
1.9,0.9533,0.01298,0.00483,-0.1407
2,0.9677,0.01313,0.00499,-0.14
2.1,0.9825,0.01327,0.00515,-0.1392
2.2,0.9965,0.01345,0.00532,-0.1384
2.3,1.0113,0.01358,0.00548,-0.1376
2.4,1.0257,0.01374,0.00565,-0.1368
2.5,1.0406,0.01387,0.00584,-0.136
2.6,1.0552,0.01401,0.00602,-0.1352
2.7,1.0697,0.01417,0.00622,-0.1343
2.9,1.0919,0.01319,0.00673,-0.1316
3,1.1066,0.01338,0.00693,-0.1306
3.1,1.121,0.01359,0.00715,-0.1295
3.2,1.1353,0.0138,0.00736,-0.1284
3.3,1.1496,0.01402,0.00759,-0.1272
3.4,1.1638,0.01424,0.00787,-0.126
3.5,1.1781,0.01447,0.00812,-0.1247
3.6,1.192,0.01471,0.00839,-0.1233
3.7,1.206,0.01496,0.00868,-0.1219
3.8,1.2198,0.01522,0.00895,-0.1205
3.9,1.2334,0.01549,0.00928,-0.1189
4,1.2465,0.01578,0.00961,-0.1173
4.1,1.2589,0.01609,0.00997,-0.1154
4.2,1.2712,0.01643,0.01038,-0.1135
4.3,1.2834,0.0168,0.01083,-0.1116
4.4,1.2957,0.01718,0.01127,-0.1096
4.5,1.3071,0.01765,0.01184,-0.1075
4.6,1.3181,0.01817,0.01248,-0.1053
4.7,1.3286,0.01876,0.0132,-0.103
4.8,1.3387,0.01943,0.01399,-0.1007
4.9,1.3483,0.02017,0.01489,-0.0984
5,1.3572,0.021,0.01588,-0.096
5.1,1.3648,0.02199,0.01704,-0.0937
5.2,1.3709,0.02312,0.01837,-0.0914
5.3,1.3752,0.02436,0.01981,-0.0892
5.4,1.3776,0.02568,0.02133,-0.087
5.5,1.3782,0.02708,0.02294,-0.0848
5.6,1.3771,0.02854,0.02457,-0.0828
5.7,1.3747,0.03007,0.02626,-0.0809
5.8,1.3712,0.03166,0.028,-0.0791
6,1.3626,0.03494,0.03154,-0.0763
6.1,1.3569,0.03672,0.03344,-0.0752
6.2,1.3507,0.03858,0.03542,-0.0744
6.3,1.3438,0.04056,0.03749,-0.074
6.4,1.3352,0.04277,0.03981,-0.074
6.5,1.3266,0.04508,0.04221,-0.0744
6.6,1.318,0.0475,0.04473,-0.0751
6.7,1.3094,0.05003,0.04734,-0.0763
6.8,1.301,0.05268,0.05007,-0.0778
7,1.2847,0.05838,0.05589,-0.082
7.1,1.2773,0.06143,0.059,-0.0846
7.2,1.2703,0.06462,0.06224,-0.0875
7.3,1.2641,0.06792,0.06559,-0.0907
7.5,1.254,0.07468,0.07242,-0.0971
7.6,1.2493,0.07785,0.0756,-0.0998
7.7,1.2449,0.0809,0.07867,-0.1024
7.9,1.2371,0.08679,0.08458,-0.1071
8,1.2361,0.08933,0.08711,-0.1091
8.1,1.2338,0.09207,0.08985,-0.1112
8.2,1.2302,0.09503,0.0928,-0.1135
8.3,1.2266,0.09803,0.0958,-0.1158
8.4,1.2236,0.10094,0.09872,-0.118
8.5,1.2211,0.10381,0.10158,-0.1201
8.6,1.2191,0.10664,0.10441,-0.1222
8.7,1.2175,0.10944,0.10722,-0.1242
8.8,1.2163,0.1122,0.10997,-0.1261
8.9,1.2155,0.11493,0.1127,-0.1281
9,1.215,0.11761,0.11539,-0.1299
9.1,1.215,0.12031,0.11808,-0.1318
9.2,1.2152,0.12294,0.12072,-0.1336
9.3,1.2157,0.12556,0.12334,-0.1353
9.4,1.2165,0.12814,0.12592,-0.137
9.6,1.2188,0.1332,0.13099,-0.1404
9.8,1.2226,0.13809,0.13586,-0.1437
9.9,1.2233,0.14093,0.1387,-0.1456
10,1.2244,0.14372,0.14149,-0.1475
10.1,1.2259,0.14645,0.14422,-0.1493
10.2,1.2277,0.14914,0.14692,-0.1511
10.3,1.2298,0.1518,0.14957,-0.1528
10.4,1.2321,0.15442,0.1522,-0.1545
10.5,1.2347,0.15702,0.1548,-0.1562
10.6,1.2374,0.15959,0.15737,-0.1579
10.7,1.2403,0.16214,0.15992,-0.1595
10.8,1.2434,0.16465,0.16244,-0.1612
10.9,1.2467,0.16715,0.16493,-0.1628
11,1.251,0.16918,0.16696,-0.1643
11.1,1.2537,0.17205,0.16981,-0.1662
11.2,1.2566,0.17487,0.17264,-0.168
11.3,1.2599,0.17764,0.17542,-0.1698
11.4,1.2633,0.18036,0.17813,-0.1716
11.5,1.2669,0.18303,0.1808,-0.1733
11.6,1.2707,0.18568,0.18345,-0.175
11.7,1.2746,0.1883,0.18608,-0.1767
11.8,1.2787,0.1909,0.18868,-0.1784
11.9,1.2829,0.19348,0.19126,-0.1801
12,1.2872,0.19604,0.19382,-0.1818
12.1,1.2916,0.19859,0.19636,-0.1834
12.2,1.296,0.20111,0.19889,-0.1851
12.3,1.3006,0.20362,0.20139,-0.1867
12.4,1.3052,0.20611,0.20389,-0.1884
12.5,1.3099,0.20858,0.20635,-0.19
12.6,1.3147,0.21103,0.2088,-0.1917
12.7,1.3195,0.21345,0.21122,-0.1933
12.8,1.324,0.21739,0.21515,-0.196
12.9,1.329,0.2201,0.21786,-0.1977
13,1.334,0.22284,0.2206,-0.1995
13.1,1.3391,0.22552,0.2233,-0.2013
13.2,1.3443,0.22821,0.22599,-0.2031
13.3,1.3495,0.23089,0.22867,-0.2048
13.4,1.3548,0.23356,0.23134,-0.2066
13.5,1.3601,0.23622,0.234,-0.2084
13.6,1.3654,0.23887,0.23665,-0.2101
13.7,1.3708,0.24152,0.2393,-0.2119
13.8,1.3763,0.24416,0.24194,-0.2136
13.9,1.3818,0.2468,0.24458,-0.2154
14,1.3873,0.24944,0.24722,-0.2172
14.1,1.3928,0.25207,0.24986,-0.2189
14.2,1.3984,0.25472,0.2525,-0.2207
14.3,1.404,0.25734,0.25512,-0.2225
14.4,1.4096,0.25999,0.25777,-0.2243
14.5,1.4153,0.26271,0.26047,-0.2261
14.6,1.4212,0.26612,0.26389,-0.2281
14.7,1.4272,0.26936,0.26713,-0.2301
14.8,1.4331,0.27245,0.27022,-0.232
14.9,1.4391,0.27554,0.27331,-0.2339
15,1.4451,0.27865,0.27642,-0.2359
15.1,1.4511,0.28171,0.27948,-0.2378
15.2,1.4571,0.28477,0.28254,-0.2397
15.3,1.4632,0.28785,0.28562,-0.2417
15.4,1.4692,0.29093,0.2887,-0.2436
15.5,1.4753,0.294,0.29177,-0.2455
15.6,1.4814,0.29707,0.29485,-0.2475
15.7,1.4876,0.30016,0.29793,-0.2494
15.8,1.4937,0.30325,0.30103,-0.2514
15.9,1.4999,0.30635,0.30412,-0.2533
16,1.5061,0.30948,0.30725,-0.2553
16.1,1.5123,0.31261,0.31039,-0.2572
16.2,1.5185,0.31576,0.31353,-0.2592
16.3,1.5247,0.31891,0.31669,-0.2612
16.5,1.537,0.32482,0.32259,-0.2654
16.6,1.5432,0.32795,0.32573,-0.2674
16.7,1.5494,0.33112,0.3289,-0.2694
16.8,1.5556,0.33428,0.33207,-0.2714
16.9,1.5618,0.33745,0.33524,-0.2734
17,1.568,0.34064,0.33843,-0.2755
17.1,1.5743,0.34383,0.34163,-0.2775
17.2,1.5805,0.34708,0.34486,-0.2796
17.3,1.5872,0.35133,0.34911,-0.2819
17.4,1.5938,0.35511,0.3529,-0.284
17.5,1.6002,0.35883,0.35661,-0.2862
17.6,1.6067,0.3625,0.36029,-0.2884
17.7,1.6131,0.36615,0.36394,-0.2905
17.8,1.6196,0.36984,0.36763,-0.2927
17.9,1.626,0.3735,0.37129,-0.2949
18,1.6324,0.37717,0.37496,-0.2971
18.1,1.6389,0.38085,0.37864,-0.2993
18.2,1.6453,0.38454,0.38234,-0.3015
18.3,1.6517,0.38825,0.38604,-0.3037
18.4,1.6581,0.39195,0.38975,-0.3059
18.5,1.6645,0.3957,0.3935,-0.3081
18.6,1.6709,0.39945,0.39725,-0.3103
18.7,1.6773,0.40324,0.40104,-0.3125
18.8,1.6837,0.40702,0.40482,-0.3148
18.9,1.6901,0.41083,0.40864,-0.317
19,1.6965,0.41466,0.41247,-0.3193
19.1,1.7029,0.41853,0.41634,-0.3215
19.2,1.7093,0.42242,0.42023,-0.3238
19.3,1.7156,0.42632,0.42413,-0.3261
19.4,1.722,0.43026,0.42807,-0.3284
19.5,1.7284,0.4342,0.43201,-0.3306
19.6,1.7348,0.43819,0.43601,-0.333
19.7,1.7411,0.44221,0.44003,-0.3353
19.8,1.7475,0.44626,0.44408,-0.3376
19.9,1.7538,0.45032,0.44815,-0.3399
20,1.7602,0.45443,0.45226,-0.3423
20.1,1.7666,0.45857,0.45641,-0.3447
20.2,1.7729,0.46274,0.46058,-0.347
20.3,1.7792,0.46694,0.46479,-0.3494
20.4,1.7855,0.47117,0.46901,-0.3518
20.5,1.7919,0.47543,0.47328,-0.3542
20.6,1.7982,0.47974,0.47759,-0.3566
20.7,1.8045,0.48408,0.48194,-0.359
20.8,1.8109,0.48848,0.48634,-0.3614
20.9,1.8172,0.4929,0.49075,-0.3638
21,1.8235,0.49733,0.49519,-0.3663
21.1,1.8297,0.50182,0.49968,-0.3687
21.2,1.836,0.50633,0.50419,-0.3712
21.3,1.8423,0.51091,0.50878,-0.3737
21.4,1.8486,0.51555,0.51341,-0.3762
21.5,1.8549,0.5202,0.51807,-0.3787
21.6,1.8612,0.52489,0.52276,-0.3812
21.7,1.8674,0.52963,0.52751,-0.3837
21.8,1.8737,0.5344,0.53228,-0.3862
21.9,1.88,0.53922,0.5371,-0.3888
22,1.8862,0.54407,0.54196,-0.3913
22.1,1.8924,0.54898,0.54687,-0.3939
22.2,1.8986,0.55392,0.55181,-0.3965
22.3,1.9049,0.55891,0.5568,-0.399
22.4,1.9111,0.56399,0.56188,-0.4016
22.5,1.9173,0.56902,0.56691,-0.4042
22.6,1.9235,0.5742,0.5721,-0.4069
22.7,1.9297,0.57938,0.57728,-0.4095
22.8,1.9358,0.58458,0.58249,-0.4121
22.9,1.942,0.58983,0.58774,-0.4148
23,1.9482,0.5952,0.59312,-0.4174
23.1,1.9543,0.60055,0.59847,-0.4201
23.2,1.9605,0.60599,0.60391,-0.4228
23.3,1.9666,0.61146,0.60939,-0.4255
23.4,1.9727,0.61699,0.61493,-0.4282
23.5,1.9788,0.62255,0.62048,-0.4309
23.6,1.9849,0.6282,0.62614,-0.4336
23.7,1.9909,0.63386,0.6318,-0.4363
23.8,1.997,0.63961,0.63755,-0.4391
24,2.0096,0.65187,0.64981,-0.4453
24.1,2.0155,0.65773,0.65567,-0.4481
24.2,2.0218,0.6639,0.66184,-0.4511
24.3,2.0277,0.66984,0.66778,-0.454
24.4,2.0337,0.67588,0.67383,-0.4569
24.5,2.0398,0.68197,0.67992,-0.4598
24.6,2.0458,0.68813,0.68608,-0.4627
24.7,2.0516,0.69423,0.69219,-0.4656
24.8,2.0576,0.70044,0.6984,-0.4686
24.9,2.0635,0.70673,0.70469,-0.4715
25,2.0694,0.71306,0.71102,-0.4745
25.1,2.0753,0.71944,0.71741,-0.4774
25.2,2.0811,0.72581,0.72378,-0.4803
25.3,2.0869,0.73226,0.73024,-0.4833
25.4,2.0927,0.73883,0.73681,-0.4862
25.5,2.0984,0.74545,0.74343,-0.4892
25.6,2.1042,0.75212,0.75011,-0.4922
25.7,2.11,0.75885,0.75684,-0.4952
25.8,2.1156,0.76557,0.76357,-0.4982
25.9,2.1214,0.77249,0.77049,-0.5012
26,2.127,0.77939,0.77739,-0.5042
26.1,2.1326,0.78632,0.78434,-0.5072
26.2,2.1382,0.79337,0.79138,-0.5102
26.3,2.1438,0.80048,0.7985,-0.5132
26.4,2.1494,0.80768,0.8057,-0.5162
26.5,2.155,0.81499,0.81302,-0.5193
26.6,2.1605,0.82233,0.82036,-0.5223
26.7,2.166,0.82968,0.82772,-0.5254
26.8,2.1715,0.83714,0.83517,-0.5285
26.9,2.1769,0.84473,0.84277,-0.5315
27,2.1824,0.85238,0.85043,-0.5346
27.1,2.1878,0.86011,0.85816,-0.5377
27.2,2.1932,0.86788,0.86593,-0.5408
27.3,2.1986,0.87576,0.87381,-0.5439
27.4,2.2039,0.88369,0.88175,-0.547
27.5,2.2092,0.89177,0.88983,-0.5501
27.6,2.2145,0.89989,0.89796,-0.5533
27.7,2.2198,0.90814,0.90621,-0.5564
27.8,2.2251,0.91648,0.91456,-0.5596
27.9,2.2303,0.92489,0.92297,-0.5627
28,2.2356,0.9334,0.93149,-0.5659
28.1,2.2407,0.94199,0.94008,-0.569
28.2,2.2459,0.95072,0.94881,-0.5722
28.3,2.251,0.95944,0.95753,-0.5754
28.4,2.2561,0.96833,0.96643,-0.5786
28.5,2.2612,0.97723,0.97533,-0.5818
28.6,2.2663,0.9864,0.9845,-0.585
28.7,2.2714,0.99571,0.99382,-0.5883
28.8,2.2763,1.0049,1.00301,-0.5915
28.9,2.2813,1.01427,1.01239,-0.5947
29,2.2863,1.02382,1.02194,-0.598
29.1,2.2912,1.03346,1.03158,-0.6012
29.2,2.2961,1.04312,1.04125,-0.6045
29.3,2.301,1.05304,1.05119,-0.6077
29.4,2.3059,1.06298,1.06113,-0.611
29.5,2.3107,1.07308,1.07123,-0.6143
29.6,2.3156,1.0833,1.08146,-0.6176
29.7,2.3202,1.09344,1.0916,-0.6209
29.8,2.325,1.10385,1.10202,-0.6242
29.9,2.3297,1.11452,1.11268,-0.6275
30,2.3344,1.12522,1.12339,-0.6308

