airfoilName st23.dat
Re 	6.300000e+05
M 	7.000000e-01
N 	4.500000e+00
VACC 	0 VACCflag 1
XTR 	1.00 	1.00 XTRflag 0
alpha,cl,cd,cdp,cm
-30,-1.7068,0.91723,0.91506,0.3979
-29.9,-1.7017,0.90935,0.90718,0.3948
-29.8,-1.6965,0.90155,0.89937,0.3917
-29.7,-1.6913,0.89375,0.89157,0.3886
-29.6,-1.686,0.88608,0.8839,0.3855
-29.5,-1.6808,0.87844,0.87626,0.3824
-29.4,-1.6755,0.8709,0.86871,0.3793
-29.3,-1.6702,0.86342,0.86123,0.3763
-29.2,-1.6648,0.85614,0.85395,0.3732
-29.1,-1.6595,0.84874,0.84654,0.3701
-29,-1.6541,0.84143,0.83923,0.3671
-28.9,-1.6486,0.83421,0.83201,0.364
-28.8,-1.6432,0.82707,0.82486,0.361
-28.7,-1.6378,0.82004,0.81783,0.358
-28.6,-1.6323,0.81302,0.81081,0.355
-28.5,-1.6269,0.80612,0.80391,0.352
-28.4,-1.6213,0.79932,0.7971,0.349
-28.3,-1.6158,0.79239,0.79017,0.3461
-28.2,-1.6103,0.7857,0.78348,0.3431
-28.1,-1.6047,0.77903,0.77681,0.3401
-28,-1.5991,0.77241,0.77018,0.3372
-27.9,-1.5935,0.76582,0.76359,0.3342
-27.8,-1.5879,0.75932,0.75709,0.3313
-27.7,-1.5822,0.75294,0.75071,0.3284
-27.6,-1.5766,0.74654,0.74431,0.3255
-27.5,-1.5708,0.74017,0.73794,0.3226
-27.4,-1.5651,0.7339,0.73166,0.3197
-27.3,-1.5594,0.72773,0.72548,0.3168
-27.2,-1.5537,0.72159,0.71934,0.3139
-27.1,-1.5479,0.71552,0.71327,0.3111
-27,-1.5421,0.70944,0.70718,0.3082
-26.9,-1.5363,0.70347,0.70121,0.3053
-26.8,-1.5304,0.69748,0.69522,0.3025
-26.7,-1.5246,0.69167,0.6894,0.2997
-26.6,-1.5188,0.68584,0.68358,0.2969
-26.5,-1.5129,0.6801,0.67783,0.2941
-26.4,-1.507,0.67437,0.6721,0.2913
-26.3,-1.5011,0.66872,0.66644,0.2885
-26.2,-1.4951,0.6631,0.66082,0.2857
-26.1,-1.4892,0.65753,0.65525,0.2829
-26,-1.4832,0.65207,0.64979,0.2802
-25.9,-1.4773,0.6466,0.64433,0.2774
-25.8,-1.4713,0.64118,0.6389,0.2747
-25.7,-1.4652,0.63584,0.63356,0.2719
-25.6,-1.4592,0.63055,0.62826,0.2692
-25.5,-1.4532,0.62527,0.62298,0.2665
-25.4,-1.4471,0.62008,0.61779,0.2638
-25.3,-1.441,0.61491,0.61262,0.2611
-25.2,-1.4349,0.6098,0.60751,0.2584
-25.1,-1.4288,0.60477,0.60247,0.2557
-25,-1.4227,0.59976,0.59747,0.253
-24.9,-1.4166,0.59478,0.59249,0.2504
-24.8,-1.4104,0.58989,0.5876,0.2477
-24.7,-1.4043,0.58502,0.58273,0.2451
-24.6,-1.3981,0.5802,0.5779,0.2424
-24.5,-1.3919,0.57543,0.57313,0.2398
-24.4,-1.3857,0.5707,0.56839,0.2372
-24.3,-1.3794,0.56605,0.56373,0.2346
-24.2,-1.3732,0.56144,0.55913,0.232
-24.1,-1.367,0.55683,0.55452,0.2294
-24,-1.3607,0.55234,0.55002,0.2268
-23.9,-1.3538,0.54989,0.54757,0.2235
-23.8,-1.3475,0.54553,0.54322,0.2209
-23.7,-1.3412,0.54109,0.53877,0.2184
-23.6,-1.335,0.53665,0.53433,0.2158
-23.5,-1.3287,0.53226,0.52994,0.2133
-23.4,-1.3223,0.52801,0.52569,0.2107
-23.3,-1.316,0.52381,0.52149,0.2082
-23.2,-1.3097,0.51942,0.5171,0.2057
-23.1,-1.3034,0.51506,0.51274,0.2033
-23,-1.297,0.51114,0.50882,0.2007
-22.9,-1.2907,0.50685,0.50452,0.1983
-22.8,-1.2844,0.50271,0.50039,0.1958
-22.7,-1.278,0.49865,0.49633,0.1933
-22.6,-1.2717,0.49451,0.49218,0.1909
-22.5,-1.2653,0.49049,0.48816,0.1885
-22.4,-1.259,0.48638,0.48406,0.1861
-22.3,-1.2526,0.48246,0.48013,0.1836
-22.2,-1.2462,0.47847,0.47614,0.1812
-22.1,-1.2399,0.47435,0.47202,0.1789
-22,-1.2334,0.47064,0.46831,0.1765
-21.9,-1.2271,0.4666,0.46427,0.1742
-21.8,-1.2207,0.46271,0.46038,0.1718
-21.7,-1.2143,0.45881,0.45647,0.1695
-21.6,-1.2079,0.45491,0.45258,0.1672
-21.5,-1.2014,0.45118,0.44884,0.1648
-21.4,-1.195,0.44729,0.44496,0.1626
-20.1,-1.1104,0.39904,0.39671,0.1339
-20,-1.1042,0.39531,0.39297,0.1319
-19.9,-1.0979,0.39162,0.38928,0.1299
-19.8,-1.0917,0.38796,0.38562,0.128
-19.7,-1.0854,0.38429,0.38195,0.1261
-19.6,-1.0792,0.38067,0.37833,0.1242
-19.5,-1.0729,0.37709,0.37475,0.1222
-19.4,-1.0666,0.37353,0.37119,0.1203
-19.3,-1.0604,0.37001,0.36767,0.1185
-19.2,-1.0542,0.36649,0.36415,0.1166
-19.1,-1.0479,0.36302,0.36068,0.1147
-19,-1.0417,0.35961,0.35727,0.1129
-18.9,-1.0355,0.35618,0.35384,0.111
-18.8,-1.0292,0.3528,0.35046,0.1092
-18.7,-1.023,0.34948,0.34713,0.1074
-18.6,-1.0168,0.34616,0.34382,0.1055
-18.5,-1.0106,0.34287,0.34053,0.1037
-18.4,-1.0044,0.33961,0.33727,0.102
-18.3,-0.9981,0.3364,0.33406,0.1002
-18.2,-0.9919,0.33321,0.33086,0.0984
-18.1,-0.9857,0.33004,0.32769,0.0966
-18,-0.9796,0.32695,0.32459,0.0949
-17.9,-0.9733,0.32382,0.32147,0.0931
-17.8,-0.9671,0.32075,0.3184,0.0914
-17.7,-0.9609,0.31772,0.31536,0.0896
-17.6,-0.9547,0.31471,0.31236,0.0879
-17.5,-0.9485,0.31171,0.30936,0.0862
-17.4,-0.9424,0.30875,0.3064,0.0845
-17.3,-0.9362,0.30582,0.30347,0.0828
-17.2,-0.93,0.3029,0.30055,0.0811
-17.1,-0.9238,0.3,0.29766,0.0794
-17,-0.9177,0.29713,0.29479,0.0778
-16.9,-0.9115,0.29428,0.29194,0.0761
-16.8,-0.9054,0.29146,0.28911,0.0745
-16.7,-0.8992,0.28865,0.2863,0.0729
-16.6,-0.893,0.28583,0.28348,0.0712
-16.5,-0.887,0.28309,0.28074,0.0697
-16.4,-0.8809,0.28034,0.278,0.0681
-16.3,-0.8748,0.27761,0.27527,0.0665
-16.2,-0.8687,0.27491,0.27256,0.0649
-16.1,-0.8626,0.27221,0.26987,0.0634
-16,-0.8565,0.26954,0.2672,0.0618
-15.9,-0.8504,0.26688,0.26454,0.0603
-15.8,-0.8443,0.26423,0.26189,0.0587
-15.7,-0.8382,0.26162,0.25928,0.0572
-15.6,-0.8321,0.25902,0.25668,0.0557
-15.5,-0.826,0.25644,0.2541,0.0542
-15.4,-0.82,0.25387,0.25154,0.0527
-15.3,-0.8139,0.25133,0.249,0.0512
-15.2,-0.8079,0.24881,0.24647,0.0497
-15.1,-0.8019,0.24631,0.24397,0.0482
-15,-0.7958,0.24383,0.24149,0.0468
-14.9,-0.7898,0.24136,0.23902,0.0453
-14.8,-0.7838,0.23891,0.23658,0.0438
-14.7,-0.7773,0.23694,0.23461,0.0418
-14.6,-0.7713,0.23451,0.23217,0.0403
-14.5,-0.7653,0.23208,0.22975,0.0389
-14.4,-0.7594,0.22967,0.22734,0.0375
-14.3,-0.7534,0.22728,0.22495,0.0361
-14.2,-0.7475,0.2249,0.22257,0.0347
-14.1,-0.7416,0.22253,0.2202,0.0333
-14,-0.7357,0.22017,0.21785,0.0319
-13.9,-0.7298,0.21782,0.2155,0.0306
-13.8,-0.724,0.21548,0.21316,0.0292
-13.7,-0.7181,0.21315,0.21083,0.0279
-13.6,-0.7123,0.21083,0.20851,0.0266
-13.5,-0.7065,0.20851,0.20619,0.0253
-13.4,-0.7007,0.2062,0.20389,0.0241
-13.3,-0.6948,0.20389,0.20158,0.0228
-13.2,-0.689,0.20158,0.19927,0.0215
-13.1,-0.6831,0.19928,0.19697,0.0202
-13,-0.6771,0.19697,0.19466,0.019
-12.9,-0.671,0.19467,0.19237,0.0177
-12.8,-0.6648,0.19239,0.19009,0.0163
-12.6,-0.6521,0.18797,0.18569,0.0135
-12.5,-0.6468,0.18582,0.18354,0.0125
-12.4,-0.6415,0.1837,0.18142,0.0114
-12.3,-0.6363,0.18159,0.17932,0.0104
-12.2,-0.631,0.1795,0.17723,0.0094
-12.1,-0.6258,0.17744,0.17517,0.0084
-12,-0.6207,0.1754,0.17312,0.0074
-11.9,-0.6155,0.17338,0.1711,0.0064
-11.8,-0.6103,0.17139,0.16911,0.0054
-11.7,-0.6051,0.1694,0.16713,0.0044
-11.6,-0.6,0.16746,0.16519,0.0034
-11.5,-0.5949,0.16554,0.16328,0.0024
-11.4,-0.5898,0.16363,0.16137,0.0015
-11.3,-0.5846,0.16175,0.15949,0.0005
-11.2,-0.5795,0.15988,0.15762,-0.0005
-11.1,-0.5743,0.15803,0.15578,-0.0014
-11,-0.5692,0.15619,0.15395,-0.0024
-10.9,-0.5641,0.15438,0.15213,-0.0033
-10.8,-0.559,0.15258,0.15034,-0.0042
-10.7,-0.554,0.1508,0.14856,-0.0051
-10.6,-0.549,0.14903,0.1468,-0.006
-10.5,-0.544,0.14728,0.14506,-0.0069
-10.4,-0.539,0.14556,0.14333,-0.0077
-10.3,-0.5341,0.14384,0.14162,-0.0086
-10.2,-0.5292,0.14214,0.13993,-0.0094
-10.1,-0.5244,0.14045,0.13824,-0.0102
-10,-0.5196,0.13878,0.13658,-0.011
-9.9,-0.5149,0.13713,0.13493,-0.0117
-9.8,-0.5102,0.1355,0.13331,-0.0124
-9.7,-0.5057,0.13389,0.1317,-0.0131
-9.6,-0.5013,0.1323,0.13012,-0.0138
-9.5,-0.497,0.13073,0.12856,-0.0144
-9.4,-0.4929,0.1292,0.12703,-0.0149
-9.3,-0.489,0.12769,0.12553,-0.0154
-9.2,-0.4854,0.12622,0.12407,-0.0158
-9.1,-0.482,0.12479,0.12265,-0.0161
-9,-0.4788,0.12339,0.12125,-0.0164
-8.9,-0.4759,0.12202,0.1199,-0.0165
-8.8,-0.4733,0.1207,0.11859,-0.0166
-8.7,-0.4712,0.11942,0.11731,-0.0165
-8.6,-0.466,0.11783,0.11573,-0.0174
-8.5,-0.4577,0.11588,0.11378,-0.0195
-8.3,-0.4414,0.1121,0.11,-0.023
-8.2,-0.4334,0.11025,0.10815,-0.0247
-8.1,-0.4252,0.10839,0.10629,-0.0265
-8,-0.4175,0.10658,0.10448,-0.0281
-7.9,-0.4097,0.10479,0.10269,-0.0297
-7.8,-0.401,0.10293,0.10083,-0.0316
-7.7,-0.3928,0.10112,0.09902,-0.0333
-7.6,-0.3842,0.0993,0.09719,-0.0352
-7.5,-0.3752,0.09745,0.09535,-0.0371
-7.4,-0.3668,0.09567,0.09357,-0.0389
-7.3,-0.3586,0.09394,0.09184,-0.0406
-7.2,-0.3495,0.09218,0.09008,-0.0425
-7.1,-0.3411,0.09049,0.08841,-0.0443
-7,-0.3328,0.08884,0.08676,-0.046
-6.9,-0.3243,0.08719,0.08511,-0.0478
-6.8,-0.3172,0.08568,0.0836,-0.0491
-6.7,-0.3102,0.0842,0.08211,-0.0504
-6.6,-0.3025,0.08268,0.0806,-0.052
-6.4,-0.2851,0.07958,0.07749,-0.0556
-6.3,-0.2779,0.07818,0.0761,-0.0569
-6.2,-0.2711,0.07683,0.07475,-0.0581
-6.1,-0.2635,0.07544,0.07335,-0.0595
-6,-0.2553,0.07402,0.07193,-0.0612
-5.9,-0.2467,0.07259,0.0705,-0.0629
-5.8,-0.2409,0.07139,0.0693,-0.0638
-5.7,-0.2329,0.07005,0.06795,-0.0654
-5.6,-0.2234,0.06863,0.06652,-0.0673
-5.5,-0.2133,0.06718,0.06506,-0.0695
-5.4,-0.2047,0.06585,0.06373,-0.0712
-5.3,-0.1954,0.0645,0.06237,-0.073
-5.2,-0.1853,0.0631,0.06096,-0.075
-5.1,-0.1745,0.06167,0.05952,-0.0772
-5,-0.1635,0.06024,0.05808,-0.0794
-4.9,-0.1535,0.05889,0.05672,-0.0814
-4.8,-0.1423,0.05748,0.0553,-0.0836
-4.7,-0.1304,0.05604,0.05384,-0.0859
-4.6,-0.1177,0.05457,0.05235,-0.0884
-4.5,-0.1056,0.05315,0.05092,-0.0908
-4.4,-0.093,0.05171,0.04946,-0.0932
-4.3,-0.0795,0.05023,0.04797,-0.0958
-4.2,-0.0652,0.04871,0.04642,-0.0985
-4.1,-0.0504,0.04718,0.04487,-0.1013
-4,-0.036,0.04568,0.04335,-0.104
-3.8,-0.0031,0.04199,0.03958,-0.1106
-3.7,0.0139,0.04026,0.03782,-0.1137
-3.6,0.0315,0.03855,0.03608,-0.117
-3.5,0.0496,0.03702,0.03451,-0.1201
-3.4,0.0685,0.03551,0.03295,-0.1233
-3.3,0.088,0.034,0.03138,-0.1264
-3.2,0.1077,0.03252,0.02985,-0.1295
-3.1,0.128,0.03102,0.0283,-0.1325
-3,0.1488,0.02952,0.02672,-0.1356
-2.9,0.1702,0.02797,0.02509,-0.1386
-2.8,0.192,0.02639,0.02343,-0.1416
-2.6,0.2363,0.02307,0.01991,-0.1476
-2.5,0.2592,0.02126,0.01797,-0.1506
-2.4,0.2823,0.01929,0.01585,-0.1536
-2.3,0.3057,0.01706,0.0134,-0.1568
-2.2,0.3291,0.01434,0.01037,-0.1604
-2.1,0.3503,0.01242,0.00813,-0.1626
-2,0.3704,0.01123,0.00665,-0.1638
-1.9,0.39,0.01037,0.00552,-0.1644
-1.8,0.409,0.00975,0.00467,-0.1646
-1.7,0.4274,0.00931,0.00403,-0.1645
-1.6,0.4455,0.00899,0.00354,-0.1642
-1.5,0.4635,0.00878,0.00323,-0.164
-1.4,0.4809,0.00868,0.00306,-0.1636
-1.3,0.4986,0.00854,0.00286,-0.1634
-1.2,0.5159,0.00847,0.00273,-0.163
-1.1,0.533,0.00839,0.00256,-0.1626
-1,0.5504,0.00831,0.00246,-0.1624
-0.9,0.5676,0.00826,0.00237,-0.1622
-0.8,0.5846,0.00822,0.0023,-0.1619
-0.7,0.6011,0.00819,0.00222,-0.1615
-0.6,0.6178,0.00817,0.00216,-0.1612
-0.5,0.6344,0.00816,0.00211,-0.1608
-0.3,0.667,0.00817,0.00205,-0.1601
-0.2,0.6835,0.00818,0.00203,-0.1598
-0.1,0.6997,0.00819,0.00202,-0.1594
0,0.7144,0.00827,0.00201,-0.1587
0.1,0.7299,0.00832,0.00201,-0.1582
0.2,0.7444,0.00842,0.00205,-0.1575
0.3,0.7582,0.00855,0.00209,-0.1567
0.4,0.7726,0.00868,0.00213,-0.156
0.5,0.7844,0.00892,0.00223,-0.1549
0.6,0.7971,0.00913,0.00234,-0.1539
0.7,0.809,0.00938,0.00246,-0.1529
0.8,0.8201,0.00968,0.00263,-0.1517
0.9,0.8312,0.01,0.0028,-0.1506
1.1,0.8454,0.01116,0.00341,-0.1474
1.2,0.8588,0.01138,0.00358,-0.1467
1.3,0.8731,0.01154,0.00371,-0.146
1.4,0.8877,0.01169,0.00384,-0.1454
1.5,0.9018,0.01187,0.004,-0.1447
1.6,0.9165,0.01201,0.00413,-0.1441
1.7,0.9315,0.01213,0.00426,-0.1435
1.8,0.9463,0.01226,0.00441,-0.1428
1.9,0.9614,0.01238,0.00453,-0.1422
2,0.9759,0.01254,0.00468,-0.1415
2.1,0.9911,0.01266,0.00482,-0.1408
2.2,1.0059,0.01279,0.00497,-0.1401
2.3,1.0211,0.01291,0.00512,-0.1393
2.4,1.0361,0.01305,0.00527,-0.1386
2.5,1.0507,0.0132,0.00543,-0.1377
2.6,1.0657,0.01334,0.0056,-0.1369
2.7,1.0807,0.01347,0.00578,-0.1361
2.8,1.0958,0.0136,0.00596,-0.1352
2.9,1.1108,0.01374,0.00615,-0.1343
3.1,1.1345,0.01279,0.00669,-0.1317
3.2,1.1492,0.01299,0.0069,-0.1307
3.3,1.1642,0.01318,0.00713,-0.1295
3.4,1.1788,0.01338,0.00735,-0.1283
3.5,1.1934,0.0136,0.00759,-0.1271
3.6,1.2079,0.01382,0.00783,-0.1258
3.7,1.2222,0.01405,0.00809,-0.1244
3.8,1.2367,0.01428,0.00837,-0.123
3.9,1.2508,0.01454,0.00866,-0.1215
4,1.2648,0.01481,0.00898,-0.1199
4.2,1.2912,0.0154,0.00966,-0.1163
4.3,1.3036,0.01573,0.01008,-0.1142
4.4,1.3157,0.01611,0.01054,-0.1121
4.5,1.3275,0.01654,0.01107,-0.1099
4.6,1.3387,0.01703,0.01166,-0.1076
4.7,1.3492,0.01759,0.01233,-0.1052
4.8,1.3588,0.01825,0.01313,-0.1027
4.9,1.3678,0.01901,0.01405,-0.1002
5,1.3761,0.01987,0.01509,-0.0977
5.1,1.3834,0.02085,0.01626,-0.0953
5.2,1.3893,0.02195,0.01755,-0.0929
5.3,1.3935,0.02316,0.01894,-0.0905
5.4,1.3959,0.02445,0.02044,-0.0881
5.5,1.3965,0.02581,0.02197,-0.0859
5.7,1.3945,0.02861,0.02509,-0.0816
5.8,1.3904,0.03022,0.02684,-0.0797
5.9,1.3848,0.03195,0.02872,-0.0781
6,1.3785,0.03374,0.03063,-0.0767
6.2,1.3643,0.03754,0.03467,-0.0747
6.3,1.3567,0.03956,0.0368,-0.0741
6.4,1.3487,0.04167,0.03901,-0.0739
6.5,1.3406,0.04389,0.04132,-0.0741
6.6,1.3323,0.04621,0.04373,-0.0746
6.7,1.324,0.04867,0.04627,-0.0756
6.8,1.3157,0.05123,0.04891,-0.0769
7.1,1.2923,0.05972,0.05758,-0.0831
7.2,1.2853,0.06283,0.06074,-0.0859
7.3,1.2791,0.06605,0.06401,-0.089
7.4,1.2737,0.06942,0.06742,-0.0923
7.6,1.2649,0.07601,0.07406,-0.0984
7.7,1.2591,0.07927,0.07733,-0.1012
7.9,1.249,0.0855,0.08358,-0.1064
8,1.2447,0.08851,0.08659,-0.1088
8.1,1.2408,0.09148,0.08957,-0.1112
8.2,1.2374,0.0944,0.09249,-0.1134
8.3,1.2344,0.09729,0.09537,-0.1156
8.4,1.2319,0.10013,0.09821,-0.1178
8.5,1.2297,0.10293,0.10102,-0.1198
8.6,1.2279,0.1057,0.10378,-0.1218
8.7,1.2264,0.10844,0.10653,-0.1238
8.8,1.2254,0.11115,0.10924,-0.1257
8.9,1.2246,0.11383,0.11192,-0.1276
9,1.2243,0.11648,0.11457,-0.1294
9.1,1.2243,0.11911,0.1172,-0.1312
9.2,1.2245,0.1217,0.11979,-0.133
9.3,1.2251,0.12426,0.12235,-0.1348
9.4,1.225,0.12708,0.12516,-0.1368
9.5,1.2248,0.12992,0.12799,-0.1388
9.6,1.225,0.13269,0.13077,-0.1406
9.7,1.2256,0.13542,0.1335,-0.1425
9.8,1.2265,0.13813,0.13621,-0.1443
9.9,1.2277,0.1408,0.13888,-0.1461
10,1.2292,0.14345,0.14153,-0.1478
10.1,1.231,0.14607,0.14416,-0.1495
10.2,1.233,0.14867,0.14676,-0.1513
10.3,1.2352,0.15124,0.14933,-0.1529
10.4,1.2376,0.15379,0.15188,-0.1546
10.5,1.2402,0.15631,0.1544,-0.1562
10.7,1.2456,0.16154,0.15962,-0.1598
10.8,1.248,0.16435,0.16242,-0.1616
10.9,1.2507,0.1671,0.16517,-0.1634
11,1.2536,0.16981,0.16789,-0.1652
11.1,1.2566,0.17248,0.17056,-0.1669
11.2,1.2599,0.1751,0.17318,-0.1686
11.3,1.2633,0.17772,0.1758,-0.1703
11.4,1.2669,0.18031,0.17839,-0.172
11.5,1.2706,0.18289,0.18097,-0.1737
11.6,1.2744,0.18544,0.18352,-0.1754
11.7,1.2784,0.18797,0.18605,-0.177
11.8,1.2824,0.19048,0.18856,-0.1787
11.9,1.2866,0.19297,0.19105,-0.1804
12,1.2909,0.19544,0.19352,-0.182
12.1,1.2952,0.19789,0.19597,-0.1836
12.2,1.2996,0.20031,0.19839,-0.1853
12.3,1.3033,0.2042,0.20227,-0.1878
12.4,1.3078,0.20691,0.20498,-0.1896
12.5,1.3124,0.20959,0.20766,-0.1913
12.6,1.3171,0.21226,0.21032,-0.1931
12.7,1.3219,0.2149,0.21297,-0.1948
12.8,1.3267,0.21754,0.21561,-0.1966
12.9,1.3317,0.22016,0.21823,-0.1983
13,1.3367,0.22277,0.22086,-0.2001
13.1,1.3418,0.22538,0.22347,-0.2018
13.2,1.3469,0.22798,0.22606,-0.2035
13.3,1.3521,0.23056,0.22865,-0.2053
13.4,1.3573,0.23313,0.23122,-0.207
13.5,1.3625,0.23569,0.23378,-0.2088
13.6,1.3678,0.23823,0.23632,-0.2105
13.7,1.3731,0.24078,0.23886,-0.2123
13.8,1.3784,0.24361,0.24168,-0.2141
13.9,1.3839,0.24674,0.24482,-0.216
14,1.3894,0.24974,0.24781,-0.2179
14.1,1.395,0.25276,0.25084,-0.2198
14.2,1.4006,0.25569,0.25377,-0.2217
14.3,1.4063,0.25867,0.25674,-0.2236
14.4,1.412,0.26158,0.25966,-0.2254
14.5,1.4178,0.2645,0.26258,-0.2273
14.6,1.4236,0.26745,0.26552,-0.2291
14.7,1.4294,0.27041,0.26848,-0.231
14.8,1.4353,0.27333,0.27141,-0.2329
14.9,1.4412,0.27628,0.27435,-0.2348
15,1.4471,0.27924,0.27732,-0.2367
15.1,1.453,0.28221,0.28028,-0.2386
15.2,1.459,0.28517,0.28325,-0.2405
15.3,1.465,0.28815,0.28623,-0.2424
15.4,1.471,0.29115,0.28923,-0.2443
15.5,1.4771,0.29415,0.29222,-0.2462
15.6,1.4831,0.29715,0.29523,-0.2481
15.7,1.4892,0.30016,0.29824,-0.25
16,1.5073,0.30872,0.3068,-0.2561
16.1,1.5134,0.3117,0.30978,-0.258
16.2,1.5194,0.31472,0.3128,-0.26
16.3,1.5257,0.31805,0.31612,-0.262
16.4,1.5322,0.32183,0.3199,-0.2642
16.5,1.5386,0.32549,0.32356,-0.2663
16.6,1.545,0.32895,0.32702,-0.2683
16.7,1.5513,0.33236,0.33044,-0.2704
16.8,1.5576,0.33583,0.33392,-0.2725
16.9,1.564,0.33928,0.33737,-0.2745
17,1.5703,0.34271,0.3408,-0.2766
17.1,1.5767,0.34621,0.3443,-0.2787
17.2,1.583,0.34965,0.34773,-0.2808
17.3,1.5893,0.35311,0.3512,-0.2829
17.4,1.5957,0.3566,0.35469,-0.285
17.5,1.6021,0.3601,0.35819,-0.2871
17.6,1.6084,0.3636,0.36169,-0.2893
17.7,1.6148,0.36713,0.36522,-0.2914
17.8,1.6212,0.37069,0.36878,-0.2936
17.9,1.6275,0.37424,0.37233,-0.2957
18,1.6339,0.37782,0.37591,-0.2979
18.1,1.6403,0.38142,0.37952,-0.3
18.2,1.6466,0.38505,0.38314,-0.3022
18.3,1.653,0.38868,0.38678,-0.3044
18.4,1.6594,0.39234,0.39044,-0.3066
18.5,1.6657,0.39602,0.39412,-0.3088
18.6,1.6721,0.39972,0.39783,-0.311
18.7,1.6785,0.40346,0.40156,-0.3132
18.8,1.6848,0.4072,0.4053,-0.3154
18.9,1.6912,0.41097,0.40907,-0.3177
19,1.6975,0.41475,0.41286,-0.3199
19.1,1.7039,0.41858,0.41669,-0.3222
19.2,1.7102,0.42241,0.42052,-0.3244
19.3,1.7166,0.42628,0.42439,-0.3267
19.4,1.7229,0.43018,0.42829,-0.329
19.5,1.7292,0.43409,0.4322,-0.3313
19.6,1.7356,0.43804,0.43616,-0.3336
19.7,1.7419,0.44202,0.44014,-0.3359
19.8,1.7483,0.44603,0.44414,-0.3382
19.9,1.7546,0.45006,0.4482,-0.3405
20,1.7609,0.45413,0.45227,-0.3429
20.1,1.7672,0.45824,0.45638,-0.3452
20.2,1.7736,0.46237,0.46051,-0.3476
20.3,1.7799,0.46655,0.46468,-0.35
20.4,1.7862,0.47075,0.46889,-0.3523
20.5,1.7925,0.47499,0.47313,-0.3547
20.6,1.7987,0.47926,0.4774,-0.3571
20.7,1.805,0.48358,0.48173,-0.3595
20.8,1.8114,0.48794,0.48609,-0.362
20.9,1.8176,0.49233,0.49048,-0.3644
21,1.8239,0.49674,0.4949,-0.3668
21.1,1.8302,0.50121,0.49937,-0.3693
21.2,1.8364,0.50569,0.50385,-0.3717
21.3,1.8427,0.51025,0.50841,-0.3742
21.4,1.849,0.51486,0.51302,-0.3767
21.5,1.8552,0.51949,0.51765,-0.3792
21.6,1.8615,0.52416,0.52232,-0.3817
21.7,1.8677,0.52888,0.52705,-0.3842
21.8,1.874,0.53363,0.5318,-0.3867
21.9,1.8802,0.53842,0.5366,-0.3893
22,1.8864,0.54326,0.54143,-0.3918
22.1,1.8926,0.54814,0.54631,-0.3944
22.2,1.8988,0.55306,0.55123,-0.3969
22.3,1.905,0.55803,0.55621,-0.3995
22.4,1.9113,0.56309,0.56127,-0.4021
22.5,1.9174,0.5681,0.56629,-0.4047
22.6,1.9236,0.57327,0.57146,-0.4073
22.7,1.9298,0.57843,0.57662,-0.4099
22.8,1.9359,0.58363,0.58182,-0.4125
22.9,1.942,0.58887,0.58707,-0.4152
23,1.9482,0.59423,0.59243,-0.4178
23.1,1.9543,0.59957,0.59778,-0.4205
23.2,1.9604,0.605,0.60321,-0.4232
23.3,1.9678,0.61276,0.61097,-0.427
23.4,1.974,0.61831,0.61652,-0.4298
23.5,1.9801,0.62388,0.62209,-0.4326
23.6,1.9863,0.62955,0.62776,-0.4354
23.7,1.9923,0.63518,0.63339,-0.4382
23.8,1.9984,0.64089,0.63911,-0.441
23.9,2.0045,0.64666,0.64488,-0.4438
24,2.0105,0.6524,0.65062,-0.4466
24.1,2.0164,0.65814,0.65636,-0.4494
24.2,2.0225,0.66412,0.66235,-0.4523
24.3,2.0284,0.66998,0.66821,-0.4551
24.4,2.0343,0.67596,0.67419,-0.4579
24.5,2.0403,0.682,0.68024,-0.4608
24.6,2.0463,0.68813,0.68636,-0.4637
24.7,2.0521,0.6942,0.69243,-0.4665
24.8,2.058,0.70038,0.69862,-0.4694
24.9,2.0639,0.70665,0.7049,-0.4723
25,2.0698,0.71297,0.71121,-0.4752
25.1,2.0756,0.71933,0.71758,-0.4781
25.2,2.0813,0.72569,0.72394,-0.481
25.3,2.0871,0.73213,0.73038,-0.4839
25.4,2.0929,0.73869,0.73694,-0.4868
25.5,2.0986,0.74529,0.74355,-0.4898
25.6,2.1044,0.75196,0.75022,-0.4927
25.7,2.1101,0.75868,0.75694,-0.4957
25.8,2.1157,0.7654,0.76366,-0.4986
25.9,2.1214,0.7723,0.77057,-0.5016
26,2.1271,0.7792,0.77747,-0.5046
26.1,2.1326,0.78612,0.78441,-0.5076
26.2,2.1382,0.79315,0.79144,-0.5106
26.3,2.1438,0.80026,0.79855,-0.5136
26.4,2.1494,0.80745,0.80575,-0.5166
26.5,2.1549,0.81476,0.81306,-0.5196
26.6,2.1604,0.82209,0.82039,-0.5226
26.7,2.1659,0.82944,0.82774,-0.5257
26.8,2.1713,0.83689,0.8352,-0.5287
26.9,2.1768,0.84447,0.84278,-0.5318
27,2.1822,0.85212,0.85044,-0.5348
27.1,2.1877,0.85985,0.85817,-0.5379
27.2,2.193,0.86761,0.86593,-0.541
27.3,2.1984,0.87549,0.87381,-0.5441
27.4,2.2037,0.88342,0.88175,-0.5472
27.5,2.209,0.8915,0.88983,-0.5503
27.6,2.2143,0.89962,0.89796,-0.5534
27.7,2.2196,0.90787,0.90621,-0.5565
27.8,2.2248,0.91621,0.91455,-0.5597
27.9,2.23,0.92462,0.92296,-0.5628
28,2.2353,0.93315,0.9315,-0.566
28.1,2.2404,0.94174,0.94009,-0.5691
28.2,2.2456,0.95047,0.94883,-0.5723
28.3,2.2507,0.95919,0.95755,-0.5755
28.4,2.2558,0.96809,0.96645,-0.5786
28.5,2.2608,0.97701,0.97537,-0.5818
28.6,2.2659,0.98619,0.98456,-0.585
28.7,2.271,0.99552,0.99389,-0.5883
28.8,2.276,1.00472,1.00309,-0.5915
28.9,2.2809,1.0141,1.01248,-0.5947
29,2.2859,1.02367,1.02205,-0.5979
29.1,2.2908,1.03334,1.03172,-0.6012
29.2,2.2957,1.04301,1.04141,-0.6044
29.3,2.3006,1.05297,1.05137,-0.6077
29.4,2.3055,1.06292,1.06133,-0.6109
29.5,2.3103,1.07306,1.07146,-0.6142
29.6,2.3152,1.08332,1.08173,-0.6175
29.7,2.3198,1.09347,1.09189,-0.6208
29.8,2.3246,1.10393,1.10235,-0.6241
29.9,2.3293,1.11463,1.11305,-0.6274
30,2.334,1.12537,1.1238,-0.6307

