airfoilName st23.dat
Re 	690000
M 	7.000000e-01
N 	4.500000e+00
VACC 	0 VACCflag 1
XTR 	1.00 	1.00 XTRflag 0
alpha,cl,cd,cdp,cm
-30,-1.7064,0.9181,0.91604,0.3976
-29.9,-1.7012,0.91019,0.90812,0.3945
-29.8,-1.6961,0.90236,0.90029,0.3914
-29.7,-1.6908,0.89454,0.89247,0.3883
-29.6,-1.6856,0.88684,0.88476,0.3853
-29.5,-1.6804,0.87917,0.8771,0.3822
-29.4,-1.6751,0.8716,0.86952,0.3791
-29.3,-1.6698,0.86408,0.862,0.3761
-29.2,-1.6644,0.85679,0.85471,0.373
-29.1,-1.6591,0.84935,0.84727,0.3699
-29,-1.6537,0.84201,0.83992,0.3669
-28.9,-1.6483,0.83476,0.83267,0.3639
-28.8,-1.6429,0.82758,0.82549,0.3609
-28.7,-1.6375,0.82052,0.81843,0.3579
-28.6,-1.632,0.81347,0.81137,0.3549
-28.5,-1.6266,0.80654,0.80444,0.3519
-28.4,-1.6211,0.79971,0.79761,0.3489
-28.3,-1.6156,0.79274,0.79064,0.3459
-28.2,-1.6101,0.78603,0.78392,0.343
-28.1,-1.6045,0.77933,0.77722,0.3401
-28,-1.5989,0.77267,0.77056,0.3371
-27.9,-1.5933,0.76606,0.76394,0.3342
-27.8,-1.5877,0.75952,0.7574,0.3313
-27.7,-1.582,0.75312,0.751,0.3283
-27.6,-1.5764,0.74669,0.74457,0.3254
-27.5,-1.5707,0.74028,0.73816,0.3225
-27.4,-1.565,0.73398,0.73185,0.3197
-27.3,-1.5593,0.72779,0.72565,0.3168
-27.2,-1.5535,0.72162,0.71948,0.3139
-27.1,-1.5478,0.71553,0.71339,0.3111
-27,-1.542,0.70942,0.70727,0.3082
-26.9,-1.5362,0.70342,0.70128,0.3054
-26.8,-1.5304,0.69739,0.69524,0.3026
-26.7,-1.5246,0.69156,0.68941,0.2997
-26.6,-1.5188,0.6857,0.68355,0.2969
-26.5,-1.5129,0.67994,0.67779,0.2941
-26.4,-1.507,0.67418,0.67203,0.2913
-26.3,-1.5011,0.66849,0.66634,0.2886
-26.2,-1.4952,0.66284,0.66069,0.2858
-26.1,-1.4892,0.65725,0.65509,0.283
-26,-1.4833,0.65177,0.64961,0.2803
-25.9,-1.4773,0.64627,0.64411,0.2775
-25.8,-1.4714,0.64081,0.63865,0.2748
-25.7,-1.4654,0.63544,0.63328,0.2721
-25.6,-1.4593,0.63013,0.62796,0.2694
-25.5,-1.4533,0.62481,0.62264,0.2667
-25.4,-1.4473,0.61959,0.61742,0.264
-25.3,-1.4412,0.6144,0.61222,0.2613
-25.2,-1.4351,0.60925,0.60707,0.2586
-25.1,-1.429,0.60418,0.60201,0.2559
-25,-1.4229,0.59915,0.59697,0.2533
-24.9,-1.4168,0.59414,0.59196,0.2506
-24.8,-1.4107,0.58922,0.58704,0.248
-24.7,-1.4046,0.58432,0.58214,0.2454
-24.6,-1.3984,0.57946,0.57727,0.2427
-24.5,-1.3922,0.57465,0.57246,0.2401
-24.4,-1.386,0.56988,0.56768,0.2375
-24.3,-1.3798,0.56516,0.56297,0.2349
-24.2,-1.3736,0.56051,0.55831,0.2323
-24.1,-1.3674,0.55587,0.55367,0.2298
-24,-1.3612,0.55131,0.54911,0.2272
-23.9,-1.3549,0.54673,0.54453,0.2246
-23.8,-1.3487,0.54226,0.54006,0.2221
-23.7,-1.3419,0.53936,0.53716,0.219
-23.6,-1.3357,0.53487,0.53267,0.2165
-23.5,-1.3294,0.53043,0.52823,0.214
-23.4,-1.3231,0.52609,0.52389,0.2115
-23.3,-1.3168,0.52179,0.51958,0.209
-23.2,-1.3106,0.51739,0.51519,0.2065
-23.1,-1.3043,0.51303,0.51082,0.2041
-23,-1.2979,0.50891,0.50671,0.2016
-22.9,-1.2917,0.50462,0.50241,0.1992
-22.8,-1.2854,0.50043,0.49822,0.1968
-22.7,-1.279,0.49629,0.49407,0.1943
-22.6,-1.2727,0.4921,0.48989,0.1919
-22.5,-1.2664,0.48802,0.48581,0.1895
-22.4,-1.2601,0.48389,0.48168,0.1872
-22.3,-1.2537,0.47989,0.47767,0.1848
-22.2,-1.2474,0.47585,0.47364,0.1825
-22.1,-1.2411,0.47177,0.46955,0.1802
-22,-1.2347,0.46793,0.46571,0.1778
-21.9,-1.2284,0.46393,0.46172,0.1755
-21.8,-1.222,0.46004,0.45782,0.1732
-21.7,-1.2157,0.45614,0.45392,0.1709
-21.6,-1.2093,0.45229,0.45007,0.1686
-21.5,-1.2029,0.44854,0.44632,0.1663
-21.4,-1.1966,0.44474,0.44252,0.164
-21.3,-1.1902,0.44097,0.43874,0.1618
-21.2,-1.1838,0.43722,0.43499,0.1595
-21.1,-1.1774,0.43356,0.43133,0.1572
-21,-1.171,0.42982,0.42759,0.155
-20.9,-1.1646,0.42621,0.42398,0.1528
-20.8,-1.1581,0.42259,0.42036,0.1506
-20.7,-1.1517,0.41889,0.41665,0.1484
-20.6,-1.1452,0.41539,0.41316,0.1461
-20.5,-1.1388,0.41175,0.40952,0.144
-20.4,-1.1323,0.40822,0.40599,0.1418
-20.3,-1.1258,0.40465,0.40242,0.1396
-19.6,-1.0788,0.38098,0.37876,0.124
-19.5,-1.0725,0.37739,0.37516,0.1221
-19.4,-1.0663,0.3738,0.37158,0.1202
-19.3,-1.06,0.37027,0.36805,0.1183
-19.2,-1.0538,0.36671,0.36449,0.1165
-19.1,-1.0476,0.36321,0.36099,0.1146
-19,-1.0413,0.35978,0.35755,0.1128
-18.9,-1.0351,0.35629,0.35407,0.1109
-18.8,-1.0289,0.35288,0.35066,0.1091
-18.7,-1.0227,0.34952,0.34729,0.1073
-18.6,-1.0165,0.34615,0.34393,0.1055
-18.5,-1.0103,0.34282,0.3406,0.1037
-18.4,-1.0042,0.33952,0.33729,0.102
-18.3,-0.9979,0.33624,0.33401,0.1002
-18.2,-0.9917,0.33302,0.33078,0.0984
-18.1,-0.9856,0.3298,0.32757,0.0967
-18,-0.9794,0.32664,0.32441,0.0949
-17.9,-0.9732,0.32352,0.32129,0.0932
-17.8,-0.967,0.32042,0.31819,0.0915
-17.7,-0.9609,0.31736,0.31513,0.0897
-17.6,-0.9547,0.31433,0.3121,0.088
-17.5,-0.9486,0.31133,0.3091,0.0863
-17.4,-0.9424,0.30836,0.30612,0.0846
-17.3,-0.9362,0.30542,0.30319,0.0829
-17.2,-0.9301,0.3025,0.30027,0.0813
-17.1,-0.9239,0.2996,0.29737,0.0796
-17,-0.9178,0.29673,0.2945,0.0779
-16.9,-0.9117,0.29389,0.29166,0.0763
-16.8,-0.9055,0.29107,0.28884,0.0747
-16.7,-0.8994,0.28827,0.28604,0.073
-16.6,-0.8933,0.28548,0.28325,0.0714
-16.5,-0.8872,0.28273,0.2805,0.0698
-16.4,-0.8811,0.27999,0.27777,0.0682
-16.3,-0.875,0.27727,0.27505,0.0666
-16.2,-0.8689,0.27457,0.27235,0.0651
-16.1,-0.8628,0.27188,0.26966,0.0635
-16,-0.8567,0.26922,0.26699,0.062
-15.9,-0.8506,0.26656,0.26434,0.0604
-15.8,-0.8445,0.26392,0.2617,0.0589
-15.7,-0.8384,0.26131,0.25909,0.0574
-15.6,-0.8324,0.25871,0.25649,0.0558
-15.5,-0.8263,0.25613,0.25392,0.0543
-15.4,-0.8202,0.25357,0.25136,0.0528
-15.3,-0.8142,0.25103,0.24882,0.0514
-15.2,-0.8082,0.24851,0.24629,0.0499
-15.1,-0.8022,0.24601,0.24378,0.0484
-15,-0.7961,0.24352,0.2413,0.0469
-14.9,-0.7901,0.24106,0.23884,0.0455
-14.8,-0.7842,0.23861,0.23639,0.0441
-14.7,-0.7782,0.23618,0.23396,0.0426
-14.6,-0.7722,0.23377,0.23155,0.0412
-14.5,-0.7658,0.23178,0.22957,0.0392
-14.4,-0.7598,0.22938,0.22716,0.0378
-14.3,-0.7539,0.227,0.22478,0.0364
-14.2,-0.748,0.22463,0.22241,0.035
-14.1,-0.7421,0.22227,0.22006,0.0337
-14,-0.7363,0.21993,0.21772,0.0323
-13.9,-0.7304,0.2176,0.21539,0.0309
-13.8,-0.7246,0.21529,0.21308,0.0296
-13.7,-0.7187,0.21298,0.21078,0.0283
-13.6,-0.7129,0.21069,0.20849,0.027
-13.5,-0.7071,0.20841,0.20621,0.0257
-13.4,-0.7013,0.20613,0.20393,0.0244
-13.3,-0.6955,0.20386,0.20166,0.0231
-13.2,-0.6898,0.2016,0.19941,0.0219
-13.1,-0.684,0.19935,0.19716,0.0206
-13,-0.6782,0.1971,0.19491,0.0194
-12.9,-0.6725,0.19486,0.19267,0.0181
-12.8,-0.6667,0.19263,0.19044,0.0169
-12.7,-0.6609,0.19038,0.1882,0.0157
-12.6,-0.6551,0.18815,0.18597,0.0145
-12.5,-0.6491,0.18591,0.18373,0.0132
-12.4,-0.6429,0.18367,0.1815,0.012
-12.2,-0.6303,0.17937,0.17721,0.0092
-12.1,-0.6251,0.17728,0.17513,0.0082
-12,-0.6199,0.17522,0.17305,0.0072
-11.9,-0.6148,0.17318,0.17101,0.0062
-11.8,-0.6097,0.17115,0.169,0.0053
-11.7,-0.6046,0.16916,0.167,0.0043
-11.6,-0.5994,0.16717,0.16501,0.0033
-11.5,-0.5944,0.16523,0.16308,0.0024
-11.4,-0.5893,0.1633,0.16115,0.0014
-11.3,-0.5842,0.16139,0.15925,0.0005
-11.2,-0.5791,0.15951,0.15737,-0.0005
-11.1,-0.574,0.15765,0.15551,-0.0014
-11,-0.569,0.15581,0.15367,-0.0024
-10.9,-0.5639,0.15399,0.15186,-0.0033
-10.8,-0.5589,0.15219,0.15006,-0.0042
-10.7,-0.5538,0.15041,0.14829,-0.0051
-10.6,-0.5488,0.14865,0.14653,-0.006
-10.5,-0.5439,0.14691,0.14479,-0.0069
-10.4,-0.5389,0.14518,0.14307,-0.0077
-10.3,-0.534,0.14347,0.14137,-0.0086
-10.2,-0.5292,0.14178,0.13968,-0.0094
-10.1,-0.5243,0.1401,0.138,-0.0102
-10,-0.5195,0.13843,0.13634,-0.011
-9.9,-0.5148,0.13679,0.1347,-0.0117
-9.8,-0.5102,0.13516,0.13308,-0.0124
-9.7,-0.5057,0.13356,0.13148,-0.0131
-9.6,-0.5013,0.13198,0.12991,-0.0138
-9.5,-0.497,0.13043,0.12836,-0.0144
-9.4,-0.493,0.1289,0.12684,-0.0149
-9.3,-0.4891,0.12741,0.12536,-0.0153
-9.2,-0.4855,0.12596,0.12392,-0.0157
-9.1,-0.4822,0.12454,0.12251,-0.016
-9,-0.4791,0.12315,0.12113,-0.0162
-8.9,-0.4763,0.1218,0.11979,-0.0164
-8.8,-0.4739,0.12051,0.11851,-0.0164
-8.7,-0.4693,0.11897,0.11697,-0.0171
-8.6,-0.4616,0.11713,0.11513,-0.0188
-8.5,-0.454,0.11531,0.11331,-0.0204
-8.4,-0.4449,0.11335,0.11134,-0.0227
-8.3,-0.437,0.11151,0.10951,-0.0244
-8.2,-0.4289,0.10967,0.10767,-0.0261
-8.1,-0.4211,0.10786,0.10586,-0.0277
-8,-0.4134,0.10609,0.10408,-0.0293
-7.9,-0.4056,0.10432,0.10231,-0.031
-7.8,-0.3969,0.10247,0.10047,-0.0328
-7.7,-0.3885,0.10069,0.09868,-0.0346
-7.6,-0.38,0.09889,0.09688,-0.0365
-7.5,-0.3714,0.0971,0.09509,-0.0383
-7.4,-0.364,0.09543,0.09343,-0.0397
-7.3,-0.3562,0.09372,0.09172,-0.0413
-7.2,-0.3474,0.09196,0.08996,-0.0431
-7.1,-0.3386,0.09021,0.0882,-0.045
-7,-0.3293,0.08843,0.08643,-0.0469
-6.9,-0.3206,0.08675,0.08475,-0.0488
-6.8,-0.3131,0.08521,0.08322,-0.0502
-6.7,-0.3057,0.08368,0.08169,-0.0516
-6.6,-0.2979,0.08213,0.08015,-0.0532
-6.5,-0.2891,0.08054,0.07855,-0.055
-6.4,-0.2814,0.07905,0.07706,-0.0565
-6.3,-0.275,0.0777,0.07571,-0.0576
-6.2,-0.2679,0.07629,0.0743,-0.0589
-6.1,-0.2601,0.07487,0.07288,-0.0605
-6,-0.2518,0.07344,0.07144,-0.0621
-5.9,-0.2457,0.07218,0.07019,-0.0631
-5.7,-0.2306,0.06954,0.06753,-0.066
-5.6,-0.221,0.06811,0.06609,-0.068
-5.5,-0.2125,0.06678,0.06475,-0.0697
-5.4,-0.2036,0.06544,0.06341,-0.0714
-5.3,-0.194,0.06406,0.06202,-0.0734
-5.2,-0.1837,0.06265,0.0606,-0.0755
-5.1,-0.1732,0.06125,0.05919,-0.0776
-5,-0.1632,0.0599,0.05783,-0.0796
-4.9,-0.1524,0.05851,0.05643,-0.0817
-4.8,-0.1409,0.05709,0.05499,-0.0839
-4.7,-0.1288,0.05565,0.05353,-0.0863
-4.6,-0.1171,0.05425,0.05212,-0.0886
-4.5,-0.1047,0.05282,0.05068,-0.091
-4.4,-0.0916,0.05137,0.0492,-0.0935
-4.3,-0.0779,0.04988,0.0477,-0.0962
-4.2,-0.0638,0.04839,0.04619,-0.0988
-4.1,-0.0496,0.04692,0.04469,-0.1015
-4,-0.0345,0.04539,0.04314,-0.1043
-3.9,-0.0187,0.04384,0.04154,-0.1071
-3.7,0.015,0.04025,0.03789,-0.1138
-3.6,0.0328,0.03854,0.03614,-0.117
-3.5,0.0513,0.03676,0.03431,-0.1204
-3.4,0.0706,0.03505,0.03256,-0.1238
-3.3,0.0899,0.03352,0.03098,-0.127
-3.2,0.11,0.032,0.02941,-0.1302
-3.1,0.1305,0.03048,0.02783,-0.1333
-3,0.1514,0.02897,0.02623,-0.1363
-2.9,0.1727,0.02744,0.02463,-0.1393
-2.8,0.1944,0.02588,0.02299,-0.1423
-2.7,0.2163,0.02427,0.02129,-0.1452
-2.6,0.2387,0.02259,0.01949,-0.1482
-2.5,0.2614,0.0208,0.01757,-0.1511
-2.4,0.2841,0.01889,0.01551,-0.154
-2.3,0.3072,0.01671,0.01313,-0.1571
-2.2,0.3302,0.01413,0.01024,-0.1604
-2.1,0.3521,0.0117,0.00741,-0.1632
-2,0.372,0.01064,0.00606,-0.1642
-1.9,0.3912,0.0099,0.00508,-0.1646
-1.8,0.41,0.00937,0.00433,-0.1647
-1.7,0.4285,0.00898,0.00376,-0.1645
-1.6,0.4464,0.0087,0.00332,-0.1642
-1.5,0.4646,0.0085,0.00301,-0.164
-1.3,0.4994,0.00829,0.00268,-0.1633
-1.2,0.5169,0.00822,0.00257,-0.1631
-1.1,0.5339,0.00815,0.00242,-0.1627
-1,0.5512,0.00808,0.00231,-0.1624
-0.9,0.5685,0.00803,0.00223,-0.1622
-0.8,0.5849,0.00802,0.00216,-0.1618
-0.7,0.602,0.00798,0.00209,-0.1615
-0.6,0.6186,0.00796,0.00204,-0.1612
-0.5,0.6345,0.00798,0.00199,-0.1607
-0.4,0.651,0.00798,0.00195,-0.1604
-0.3,0.6676,0.00798,0.00195,-0.1601
-0.2,0.6839,0.008,0.00193,-0.1597
-0.1,0.6986,0.00808,0.00191,-0.159
0,0.7142,0.00812,0.00192,-0.1586
0.1,0.7295,0.00819,0.00194,-0.158
0.2,0.7428,0.00835,0.00198,-0.1571
0.3,0.7573,0.00846,0.00203,-0.1565
0.4,0.7695,0.0087,0.00212,-0.1554
0.5,0.7824,0.0089,0.00221,-0.1545
0.6,0.7958,0.00908,0.00231,-0.1537
0.7,0.8085,0.00931,0.00243,-0.1528
0.8,0.8183,0.00969,0.00263,-0.1515
1,0.8328,0.01084,0.00324,-0.1484
1.1,0.8461,0.01107,0.00339,-0.1476
1.2,0.8604,0.01124,0.00352,-0.147
1.3,0.8751,0.01138,0.00365,-0.1464
1.4,0.8892,0.01156,0.0038,-0.1458
1.5,0.9041,0.01169,0.00392,-0.1452
1.6,0.9192,0.01181,0.00404,-0.1446
1.7,0.9342,0.01193,0.00417,-0.144
1.8,0.9494,0.01205,0.0043,-0.1434
1.9,0.9645,0.01217,0.00442,-0.1428
2,0.9792,0.01231,0.00456,-0.1421
2.1,0.9943,0.01243,0.0047,-0.1414
2.2,1.0095,0.01256,0.00484,-0.1407
2.3,1.0247,0.01268,0.00499,-0.14
2.4,1.0394,0.01283,0.00514,-0.1392
2.5,1.0546,0.01296,0.00529,-0.1384
2.6,1.0695,0.0131,0.00546,-0.1375
2.7,1.0848,0.01322,0.00563,-0.1367
2.8,1.0999,0.01335,0.0058,-0.1359
2.9,1.1149,0.0135,0.00599,-0.1349
3,1.13,0.01363,0.00618,-0.134
3.1,1.1392,0.01252,0.00655,-0.1325
3.2,1.1543,0.0127,0.00674,-0.1315
3.3,1.1693,0.01289,0.00696,-0.1304
3.4,1.184,0.0131,0.00719,-0.1292
3.5,1.1988,0.0133,0.00741,-0.128
3.6,1.2133,0.01353,0.00765,-0.1267
3.7,1.2281,0.01374,0.0079,-0.1253
3.8,1.2426,0.01397,0.00817,-0.1239
3.9,1.2569,0.01422,0.00846,-0.1224
4,1.2712,0.01448,0.00876,-0.1208
4.1,1.2852,0.01476,0.00907,-0.1191
4.2,1.2984,0.01506,0.00944,-0.1173
4.3,1.311,0.01538,0.00984,-0.1152
4.4,1.3232,0.01575,0.01029,-0.1131
4.5,1.335,0.01617,0.0108,-0.1108
4.6,1.3461,0.01665,0.01138,-0.1085
4.7,1.3565,0.01722,0.01208,-0.106
4.8,1.3661,0.01787,0.01287,-0.1035
4.9,1.375,0.01862,0.01378,-0.1009
5,1.3832,0.01947,0.0148,-0.0984
5.1,1.3904,0.02045,0.01596,-0.0959
5.2,1.3963,0.02153,0.01724,-0.0934
5.3,1.4004,0.02273,0.01864,-0.091
5.4,1.4028,0.024,0.0201,-0.0886
5.6,1.4035,0.02668,0.02309,-0.084
5.7,1.3999,0.02827,0.02485,-0.0819
5.8,1.3953,0.02991,0.02664,-0.08
6,1.3837,0.03337,0.03037,-0.0768
6.2,1.3697,0.03712,0.03436,-0.0747
6.3,1.3621,0.03913,0.03647,-0.0741
6.4,1.3543,0.04121,0.03865,-0.0738
6.5,1.3461,0.04341,0.04094,-0.0739
6.6,1.3379,0.04571,0.04333,-0.0744
6.7,1.3296,0.04814,0.04583,-0.0753
6.8,1.3214,0.05068,0.04845,-0.0765
6.9,1.3133,0.05334,0.05118,-0.0781
7.1,1.2981,0.05907,0.05703,-0.0826
7.2,1.2911,0.06215,0.06016,-0.0853
7.3,1.2848,0.06535,0.0634,-0.0883
7.5,1.2733,0.07234,0.07046,-0.0952
7.6,1.2676,0.07573,0.07388,-0.0983
7.7,1.2622,0.07895,0.07712,-0.1011
7.8,1.2571,0.08208,0.08026,-0.1037
7.9,1.2524,0.08514,0.08332,-0.1062
8,1.2482,0.08814,0.08632,-0.1086
8.1,1.2444,0.09109,0.08928,-0.111
8.2,1.2411,0.09399,0.09218,-0.1132
8.3,1.2381,0.09687,0.09506,-0.1154
8.4,1.2356,0.0997,0.09789,-0.1175
8.5,1.2334,0.10249,0.10068,-0.1196
8.6,1.2316,0.10524,0.10343,-0.1216
8.7,1.2302,0.10797,0.10617,-0.1235
8.8,1.2291,0.11067,0.10886,-0.1254
8.9,1.2284,0.11333,0.11153,-0.1273
9,1.2281,0.11597,0.11416,-0.1292
9.1,1.228,0.11858,0.11678,-0.131
9.2,1.2283,0.12116,0.11935,-0.1327
9.3,1.2268,0.12423,0.12241,-0.135
9.4,1.2264,0.12704,0.12522,-0.1369
9.5,1.2265,0.12982,0.128,-0.1388
9.7,1.2276,0.13525,0.13344,-0.1425
9.8,1.2285,0.13793,0.13612,-0.1443
9.9,1.2298,0.14057,0.13876,-0.1461
10,1.2314,0.1432,0.14139,-0.1478
10.1,1.2332,0.1458,0.14399,-0.1495
10.2,1.2352,0.14838,0.14657,-0.1512
10.3,1.2374,0.15093,0.14911,-0.1529
10.4,1.2399,0.15345,0.15164,-0.1545
10.5,1.2425,0.15606,0.15424,-0.1563
10.6,1.2444,0.15888,0.15706,-0.1582
10.7,1.2466,0.16167,0.15984,-0.16
10.8,1.2492,0.16439,0.16257,-0.1618
10.9,1.2519,0.16709,0.16527,-0.1636
11,1.2549,0.16977,0.16795,-0.1653
11.1,1.258,0.17241,0.17059,-0.167
11.2,1.2613,0.175,0.17318,-0.1687
11.3,1.2648,0.17759,0.17577,-0.1704
11.4,1.2683,0.18016,0.17834,-0.1721
11.5,1.272,0.1827,0.18088,-0.1738
11.6,1.2759,0.18523,0.18341,-0.1754
11.7,1.2798,0.18773,0.18591,-0.1771
11.8,1.2839,0.19021,0.18839,-0.1787
11.9,1.288,0.19267,0.19085,-0.1804
12,1.2923,0.1951,0.19328,-0.182
12.1,1.2965,0.19752,0.19569,-0.1837
12.2,1.2999,0.20158,0.19975,-0.1862
12.3,1.3043,0.20426,0.20243,-0.188
12.4,1.3088,0.20693,0.20511,-0.1897
12.5,1.3134,0.20958,0.20775,-0.1915
12.6,1.3181,0.21221,0.21039,-0.1932
12.7,1.3229,0.21483,0.213,-0.195
12.8,1.3277,0.21744,0.21561,-0.1967
12.9,1.3327,0.22003,0.2182,-0.1984
13,1.3377,0.22261,0.2208,-0.2002
13.1,1.3427,0.22519,0.22337,-0.2019
13.2,1.3478,0.22775,0.22594,-0.2037
13.3,1.353,0.2303,0.22848,-0.2054
13.4,1.3581,0.23283,0.23102,-0.2072
13.5,1.3633,0.23535,0.23354,-0.2089
13.6,1.3685,0.23839,0.23657,-0.2108
13.7,1.3739,0.24143,0.2396,-0.2127
13.8,1.3793,0.24439,0.24257,-0.2146
13.9,1.3847,0.24731,0.24549,-0.2164
14,1.3902,0.25019,0.24837,-0.2183
14.1,1.3958,0.25312,0.2513,-0.2201
14.2,1.4014,0.256,0.25417,-0.222
14.3,1.4071,0.25891,0.25709,-0.2238
14.4,1.4128,0.26179,0.25997,-0.2257
14.5,1.4185,0.26468,0.26286,-0.2275
14.6,1.4243,0.26759,0.26577,-0.2294
14.7,1.4301,0.27052,0.26869,-0.2313
14.8,1.4359,0.27342,0.27159,-0.2331
14.9,1.4418,0.27634,0.27452,-0.235
15,1.4477,0.27928,0.27746,-0.2369
15.1,1.4537,0.28222,0.2804,-0.2388
15.2,1.4596,0.28517,0.28334,-0.2407
15.3,1.4656,0.28812,0.2863,-0.2426
15.4,1.4716,0.2911,0.28927,-0.2445
15.5,1.4776,0.29407,0.29225,-0.2464
15.7,1.4895,0.29953,0.29771,-0.2504
15.8,1.4955,0.30247,0.30064,-0.2523
15.9,1.5015,0.3054,0.30358,-0.2543
16,1.5076,0.30836,0.30653,-0.2562
16.1,1.5141,0.31228,0.31045,-0.2584
16.2,1.5204,0.3158,0.31397,-0.2604
16.3,1.5268,0.31933,0.3175,-0.2625
16.4,1.5331,0.32271,0.32089,-0.2646
16.5,1.5394,0.32615,0.32432,-0.2666
16.6,1.5457,0.32951,0.32768,-0.2687
16.7,1.552,0.33286,0.33105,-0.2707
16.8,1.5583,0.33627,0.33445,-0.2728
16.9,1.5646,0.33966,0.33785,-0.2748
17,1.5709,0.34305,0.34124,-0.2769
17.1,1.5773,0.3465,0.34469,-0.279
17.2,1.5836,0.34991,0.3481,-0.2811
17.3,1.5899,0.35335,0.35153,-0.2832
17.4,1.5962,0.35681,0.35499,-0.2853
17.5,1.6026,0.36028,0.35847,-0.2874
17.6,1.6089,0.36376,0.36195,-0.2895
17.7,1.6153,0.36727,0.36546,-0.2916
17.8,1.6216,0.3708,0.369,-0.2938
17.9,1.628,0.37433,0.37253,-0.2959
18,1.6343,0.37789,0.37609,-0.2981
18.1,1.6407,0.38148,0.37968,-0.3002
18.2,1.647,0.38509,0.38328,-0.3024
18.3,1.6534,0.38871,0.3869,-0.3046
18.4,1.6597,0.39235,0.39055,-0.3068
18.5,1.6661,0.39601,0.39421,-0.309
18.6,1.6724,0.3997,0.3979,-0.3112
18.7,1.6788,0.40342,0.40162,-0.3134
18.8,1.6851,0.40714,0.40535,-0.3156
18.9,1.6915,0.4109,0.40911,-0.3179
19,1.6978,0.41467,0.41288,-0.3201
19.1,1.7042,0.41849,0.41669,-0.3224
19.2,1.7105,0.4223,0.42051,-0.3246
19.3,1.7169,0.42616,0.42437,-0.3269
19.4,1.7232,0.43004,0.42825,-0.3292
19.5,1.7295,0.43394,0.43215,-0.3315
19.6,1.7358,0.43789,0.4361,-0.3338
19.7,1.7421,0.44185,0.44006,-0.3361
19.8,1.7485,0.44584,0.44406,-0.3384
19.9,1.7548,0.44987,0.4481,-0.3407
20,1.7611,0.45392,0.45215,-0.3431
20.1,1.7674,0.45802,0.45625,-0.3454
20.2,1.7737,0.46214,0.46037,-0.3478
20.3,1.78,0.4663,0.46454,-0.3501
20.4,1.7863,0.47049,0.46873,-0.3525
20.5,1.7926,0.47472,0.47296,-0.3549
20.6,1.7989,0.47898,0.47723,-0.3573
20.7,1.8052,0.4833,0.48154,-0.3597
20.8,1.8115,0.48765,0.4859,-0.3621
20.9,1.8177,0.49203,0.49028,-0.3646
21,1.824,0.49643,0.49468,-0.367
21.1,1.8302,0.5009,0.49915,-0.3694
21.2,1.8365,0.50537,0.50363,-0.3719
21.3,1.8428,0.50992,0.50818,-0.3744
21.4,1.849,0.51453,0.51279,-0.3769
21.5,1.8553,0.51916,0.51742,-0.3794
21.6,1.8615,0.52382,0.52208,-0.3819
21.7,1.8678,0.52854,0.52681,-0.3844
21.8,1.874,0.53329,0.53155,-0.3869
21.9,1.8802,0.53808,0.53635,-0.3894
22,1.8864,0.54291,0.54118,-0.392
22.1,1.8926,0.54779,0.54606,-0.3945
22.2,1.8988,0.55271,0.55098,-0.3971
22.3,1.905,0.55769,0.55596,-0.3996
22.4,1.9112,0.56274,0.56102,-0.4022
22.5,1.9173,0.56776,0.56604,-0.4048
22.6,1.9236,0.57294,0.57122,-0.4074
22.8,1.9372,0.58595,0.58422,-0.4137
22.9,1.9434,0.59126,0.58954,-0.4164
23,1.9497,0.59671,0.595,-0.4192
23.1,1.9558,0.60207,0.60036,-0.4219
23.2,1.962,0.60753,0.60583,-0.4246
23.3,1.9682,0.613,0.6113,-0.4274
23.4,1.9743,0.61852,0.61682,-0.4301
23.5,1.9804,0.62406,0.62236,-0.4329
23.6,1.9865,0.62969,0.628,-0.4357
23.7,1.9926,0.6353,0.63361,-0.4385
23.8,1.9986,0.641,0.63931,-0.4413
23.9,2.0047,0.64675,0.64506,-0.4441
24,2.0107,0.65247,0.65078,-0.4469
24.1,2.0166,0.6582,0.65652,-0.4496
24.2,2.0227,0.66417,0.66249,-0.4525
24.3,2.0285,0.67002,0.66834,-0.4553
24.4,2.0345,0.67599,0.67431,-0.4581
24.5,2.0404,0.68202,0.68034,-0.461
24.6,2.0464,0.68813,0.68646,-0.4639
24.7,2.0522,0.69419,0.69252,-0.4667
24.8,2.0581,0.70037,0.6987,-0.4696
24.9,2.064,0.70663,0.70496,-0.4724
25,2.0698,0.71293,0.71127,-0.4754
25.1,2.0757,0.71929,0.71763,-0.4783
25.2,2.0814,0.72564,0.72398,-0.4811
25.3,2.0871,0.73207,0.73042,-0.484
25.4,2.0929,0.73862,0.73697,-0.487
25.5,2.0986,0.74522,0.74357,-0.4899
25.6,2.1044,0.75188,0.75024,-0.4928
25.7,2.1101,0.75859,0.75695,-0.4958
25.8,2.1157,0.7653,0.76366,-0.4987
25.9,2.1214,0.7722,0.77056,-0.5017
26,2.1271,0.77909,0.77746,-0.5047
26.1,2.1326,0.786,0.78438,-0.5077
26.2,2.1382,0.79303,0.79141,-0.5107
26.3,2.1438,0.80013,0.79852,-0.5136
26.4,2.1493,0.80732,0.8057,-0.5167
26.5,2.1549,0.81462,0.81301,-0.5197
26.6,2.1604,0.82194,0.82033,-0.5227
26.7,2.1658,0.82929,0.82768,-0.5257
26.8,2.1713,0.83673,0.83513,-0.5288
26.9,2.1767,0.8443,0.8427,-0.5318
27,2.1821,0.85195,0.85035,-0.5349
27.1,2.1876,0.85967,0.85808,-0.538
27.2,2.1929,0.86742,0.86583,-0.541
27.3,2.1983,0.8753,0.87371,-0.5441
27.4,2.2036,0.88323,0.88164,-0.5472
27.5,2.2089,0.89131,0.88973,-0.5503
27.6,2.2142,0.89943,0.89785,-0.5534
27.7,2.2195,0.90767,0.9061,-0.5566
27.8,2.2247,0.91604,0.91447,-0.5597
27.9,2.2299,0.92441,0.92285,-0.5628
28,2.2351,0.93294,0.93137,-0.566
28.1,2.2403,0.94153,0.93997,-0.5691
28.2,2.2455,0.95026,0.94871,-0.5723
28.3,2.2505,0.95898,0.95743,-0.5755
28.4,2.2556,0.96788,0.96632,-0.5787
28.5,2.2607,0.9768,0.97525,-0.5819
28.6,2.2658,0.98599,0.98444,-0.5851
28.7,2.2709,0.99532,0.99377,-0.5883
28.8,2.2758,1.00452,1.00298,-0.5915
28.9,2.2808,1.0139,1.01237,-0.5947
29,2.2858,1.02348,1.02195,-0.5979
29.1,2.2907,1.03316,1.03163,-0.6012
29.2,2.2955,1.04284,1.04132,-0.6044
29.3,2.3005,1.0528,1.05129,-0.6077
29.4,2.3053,1.06276,1.06125,-0.6109
29.5,2.3102,1.0729,1.07139,-0.6142
29.6,2.315,1.08318,1.08168,-0.6175
29.7,2.3197,1.09333,1.09183,-0.6207
29.8,2.3244,1.1038,1.1023,-0.624
29.9,2.3292,1.1145,1.11301,-0.6273
30,2.3339,1.12525,1.12376,-0.6306

