airfoilName st23.dat
Re 	9.700000e+05
M 	7.000000e-01
N 	4.500000e+00
VACC 	0 VACCflag 1
XTR 	1.00 	1.00 XTRflag 0
alpha,cl,cd,cdp,cm
-29.1,-1.6578,0.85156,0.84986,0.3693
-29,-1.6525,0.84412,0.84241,0.3663
-28.9,-1.6471,0.83677,0.83506,0.3633
-28.8,-1.6417,0.82949,0.82778,0.3603
-28.7,-1.6363,0.82235,0.82064,0.3573
-28.6,-1.6309,0.81521,0.81349,0.3544
-28.5,-1.6255,0.80819,0.80647,0.3514
-28.4,-1.62,0.80128,0.79956,0.3485
-28.3,-1.6145,0.79421,0.79249,0.3455
-28.2,-1.6091,0.78742,0.78569,0.3426
-28.1,-1.6036,0.78063,0.7789,0.3397
-28,-1.598,0.77389,0.77216,0.3368
-27.9,-1.5924,0.76719,0.76546,0.3338
-27.8,-1.5869,0.76056,0.75883,0.3309
-27.7,-1.5812,0.75409,0.75235,0.328
-27.6,-1.5756,0.74759,0.74585,0.3252
-27.5,-1.57,0.74109,0.73935,0.3223
-27.4,-1.5643,0.73471,0.73297,0.3194
-27.3,-1.5586,0.72845,0.72671,0.3166
-27.2,-1.5529,0.72221,0.72046,0.3137
-27.1,-1.5472,0.71604,0.71429,0.3109
-27,-1.5414,0.70985,0.7081,0.3081
-26.9,-1.5357,0.70378,0.70202,0.3053
-26.8,-1.5299,0.69766,0.6959,0.3025
-26.7,-1.5241,0.69176,0.69,0.2997
-26.6,-1.5184,0.68583,0.68407,0.2969
-26.5,-1.5125,0.68,0.67823,0.2941
-26.4,-1.5067,0.67416,0.67239,0.2914
-26.3,-1.5008,0.66839,0.66662,0.2886
-26.2,-1.4949,0.66266,0.66089,0.2859
-26.1,-1.489,0.65698,0.65521,0.2831
-26,-1.4831,0.65146,0.64969,0.2804
-25.9,-1.4772,0.64587,0.64409,0.2777
-25.8,-1.4713,0.64031,0.63853,0.275
-25.7,-1.4653,0.63487,0.6331,0.2723
-25.6,-1.4593,0.62948,0.6277,0.2696
-25.5,-1.4533,0.62406,0.62228,0.2669
-25.4,-1.4473,0.61879,0.61701,0.2643
-25.3,-1.4413,0.61349,0.61171,0.2616
-25.2,-1.4353,0.60826,0.60648,0.259
-25.1,-1.4292,0.60311,0.60133,0.2563
-25,-1.4232,0.598,0.59622,0.2537
-24.9,-1.4171,0.59294,0.59115,0.2511
-24.8,-1.411,0.58793,0.58615,0.2485
-24.7,-1.4049,0.58296,0.58117,0.2459
-24.6,-1.3988,0.57802,0.57623,0.2433
-24.5,-1.3927,0.57313,0.57134,0.2407
-24.4,-1.3866,0.56829,0.56649,0.2381
-24.3,-1.3804,0.56346,0.56166,0.2356
-24.2,-1.3742,0.55872,0.55692,0.233
-24.1,-1.3681,0.55403,0.55223,0.2305
-24,-1.3619,0.54938,0.54758,0.228
-23.9,-1.3557,0.54476,0.54296,0.2254
-23.8,-1.3495,0.54017,0.53836,0.2229
-23.7,-1.3433,0.53565,0.53385,0.2204
-23.6,-1.3371,0.53116,0.52936,0.2179
-23.5,-1.3308,0.52669,0.52488,0.2155
-23.4,-1.3246,0.52229,0.52048,0.213
-23.3,-1.3184,0.51792,0.5161,0.2105
-23.2,-1.3121,0.51357,0.51176,0.2081
-23.1,-1.3057,0.50989,0.50808,0.2055
-23,-1.2994,0.50561,0.5038,0.203
-22.9,-1.2932,0.50134,0.49952,0.2006
-22.8,-1.2869,0.49711,0.49529,0.1983
-22.7,-1.2806,0.49289,0.49108,0.1959
-22.6,-1.2743,0.4887,0.48688,0.1935
-22.5,-1.2681,0.48456,0.48274,0.1911
-22.4,-1.2618,0.48044,0.47862,0.1888
-22.3,-1.2555,0.47636,0.47454,0.1865
-22.2,-1.2492,0.47231,0.47049,0.1841
-22.1,-1.2429,0.46827,0.46645,0.1818
-22,-1.2366,0.46431,0.46248,0.1795
-21.9,-1.2303,0.46034,0.45851,0.1773
-21.8,-1.224,0.45641,0.45458,0.175
-21.7,-1.2177,0.4525,0.45068,0.1727
-21.6,-1.2113,0.44863,0.44681,0.1705
-21.5,-1.205,0.44479,0.44297,0.1682
-21.4,-1.1987,0.44098,0.43916,0.166
-21.3,-1.1924,0.43718,0.43534,0.1638
-21.2,-1.186,0.43343,0.43159,0.1616
-21.1,-1.1797,0.4297,0.42786,0.1594
-21,-1.1734,0.42598,0.42414,0.1572
-20.9,-1.167,0.42232,0.42048,0.1551
-20.8,-1.1607,0.41866,0.41682,0.1529
-20.7,-1.1543,0.41502,0.41318,0.1508
-20.6,-1.148,0.41144,0.4096,0.1486
-20.5,-1.1417,0.40786,0.40602,0.1465
-20.4,-1.1353,0.40431,0.40247,0.1444
-20.3,-1.1289,0.40078,0.39894,0.1423
-20.2,-1.1225,0.39728,0.39544,0.1402
-20.1,-1.1161,0.39378,0.39194,0.1381
-20,-1.1098,0.39031,0.38847,0.136
-19.9,-1.1034,0.38687,0.38503,0.134
-19.8,-1.097,0.38346,0.38162,0.1319
-19.7,-1.0906,0.38007,0.37823,0.1299
-19.6,-1.0842,0.37672,0.37488,0.1278
-19.5,-1.0778,0.37336,0.37152,0.1258
-19.4,-1.0714,0.37003,0.36819,0.1238
-19.3,-1.0651,0.36674,0.36489,0.1218
-19.2,-1.0586,0.36348,0.36163,0.1198
-19.1,-1.0523,0.36022,0.35838,0.1178
-19,-1.0459,0.35698,0.35514,0.1158
-18.9,-1.0395,0.35378,0.35194,0.1138
-18.8,-1.0331,0.3506,0.34876,0.1119
-18.7,-1.0267,0.34742,0.34558,0.11
-18.6,-1.0203,0.34429,0.34245,0.108
-18.5,-1.0139,0.34118,0.33934,0.106
-18.4,-1.0074,0.33809,0.33625,0.1041
-18.3,-1.0009,0.33502,0.33318,0.1021
-18.2,-0.9945,0.33193,0.33009,0.1002
-18.1,-0.988,0.32888,0.32703,0.0982
-18,-0.9815,0.32581,0.32397,0.0963
-17.5,-0.9475,0.31129,0.30946,0.0861
-17.4,-0.9415,0.30812,0.30629,0.0845
-17.3,-0.9354,0.30502,0.30319,0.0829
-17.2,-0.9294,0.30191,0.30008,0.0813
-17.1,-0.9234,0.29887,0.29704,0.0798
-17,-0.9174,0.29582,0.29399,0.0782
-16.9,-0.9114,0.29283,0.291,0.0766
-16.8,-0.9054,0.28992,0.28809,0.075
-16.7,-0.8994,0.28704,0.28521,0.0734
-16.6,-0.8934,0.28419,0.28237,0.0719
-16.5,-0.8874,0.2814,0.27957,0.0703
-16.4,-0.8814,0.27863,0.2768,0.0687
-16.3,-0.8754,0.2759,0.27407,0.0672
-16.2,-0.8694,0.27319,0.27137,0.0656
-16.1,-0.8634,0.27051,0.26869,0.0641
-16,-0.8573,0.26786,0.26603,0.0625
-15.9,-0.8513,0.26522,0.2634,0.061
-15.8,-0.8452,0.2626,0.26078,0.0595
-15.7,-0.8392,0.26001,0.25819,0.0579
-15.6,-0.8332,0.25744,0.25562,0.0564
-15.5,-0.8271,0.25489,0.25307,0.0549
-15.4,-0.8211,0.25236,0.25053,0.0534
-15.3,-0.8151,0.24984,0.24802,0.0519
-15.2,-0.8091,0.24734,0.24551,0.0504
-15.1,-0.8031,0.24486,0.24303,0.049
-15,-0.7971,0.24239,0.24057,0.0475
-14.9,-0.7911,0.23994,0.23812,0.0461
-14.8,-0.7852,0.23751,0.23568,0.0447
-14.7,-0.7792,0.2351,0.23327,0.0432
-14.6,-0.7733,0.23269,0.23087,0.0418
-14.5,-0.7674,0.23032,0.22849,0.0404
-14.4,-0.7615,0.22795,0.22613,0.039
-14.3,-0.7556,0.22561,0.22379,0.0377
-14.2,-0.7497,0.22328,0.22146,0.0363
-14.1,-0.7439,0.22096,0.21914,0.0349
-14,-0.7377,0.21897,0.21716,0.0332
-13.9,-0.7319,0.21667,0.21485,0.0319
-13.8,-0.7261,0.21438,0.21256,0.0306
-13.7,-0.7203,0.2121,0.21029,0.0293
-13.6,-0.7145,0.20985,0.20804,0.028
-13.5,-0.7087,0.2076,0.20579,0.0267
-13.4,-0.703,0.20536,0.20355,0.0254
-13.3,-0.6972,0.20314,0.20133,0.0241
-13.2,-0.6914,0.20093,0.19913,0.0229
-13.1,-0.6857,0.19874,0.19694,0.0216
-13,-0.68,0.19656,0.19476,0.0204
-12.9,-0.6743,0.19439,0.19259,0.0192
-12.8,-0.6686,0.19224,0.19044,0.0179
-12.7,-0.6629,0.1901,0.18831,0.0167
-12.6,-0.6573,0.18798,0.18618,0.0155
-12.5,-0.6516,0.18587,0.18407,0.0143
-12.4,-0.646,0.18377,0.18198,0.0132
-12.3,-0.6404,0.18168,0.17989,0.012
-12.2,-0.6349,0.1796,0.17782,0.0108
-12.1,-0.6293,0.17754,0.17574,0.0097
-12,-0.6238,0.17548,0.17369,0.0086
-11.9,-0.6183,0.17343,0.17165,0.0074
-11.8,-0.6128,0.17138,0.1696,0.0063
-11.7,-0.6073,0.16934,0.16756,0.0052
-11.6,-0.6018,0.16729,0.16551,0.0041
-11.5,-0.5962,0.16521,0.16344,0.0031
-11.4,-0.5906,0.16314,0.16137,0.002
-11.3,-0.5849,0.16104,0.15927,0.0009
-11.2,-0.579,0.15893,0.15716,-0.0003
-11.1,-0.573,0.15691,0.15514,-0.0014
-11,-0.5665,0.15495,0.1532,-0.0028
-10.9,-0.5616,0.15304,0.15129,-0.0037
-10.8,-0.5568,0.15115,0.1494,-0.0045
-10.7,-0.552,0.14928,0.14754,-0.0053
-10.6,-0.5473,0.14745,0.14571,-0.0062
-10.5,-0.5425,0.14565,0.14391,-0.007
-10.4,-0.5378,0.14388,0.14214,-0.0078
-10.3,-0.533,0.14214,0.14041,-0.0086
-10.2,-0.5283,0.14043,0.13871,-0.0094
-10.1,-0.5236,0.13875,0.13702,-0.0102
-10,-0.5189,0.13709,0.13537,-0.011
-9.9,-0.5143,0.13546,0.13374,-0.0117
-9.8,-0.5098,0.13385,0.13214,-0.0124
-9.7,-0.5053,0.13227,0.13056,-0.0131
-9.6,-0.501,0.13072,0.12902,-0.0137
-9.5,-0.4969,0.1292,0.12751,-0.0143
-9.4,-0.493,0.12772,0.12603,-0.0148
-9.3,-0.4894,0.12628,0.1246,-0.0152
-9.2,-0.4861,0.12488,0.12321,-0.0155
-9.1,-0.4831,0.12353,0.12187,-0.0157
-8.9,-0.4703,0.1201,0.11844,-0.0182
-8.8,-0.4628,0.1183,0.11664,-0.0199
-8.7,-0.4552,0.1165,0.11483,-0.0215
-8.6,-0.4468,0.11464,0.11297,-0.0233
-8.5,-0.439,0.11285,0.11118,-0.0251
-8.4,-0.431,0.11107,0.1094,-0.0268
-8.3,-0.4236,0.10934,0.10767,-0.0283
-8.2,-0.4159,0.10761,0.10595,-0.0299
-8.1,-0.4071,0.10585,0.10418,-0.032
-8,-0.3992,0.10411,0.10244,-0.0337
-7.9,-0.3912,0.10238,0.10071,-0.0353
-7.8,-0.3829,0.10064,0.09897,-0.0371
-7.7,-0.3758,0.09902,0.09735,-0.0384
-7.6,-0.3683,0.09738,0.09571,-0.0399
-7.5,-0.3601,0.09569,0.09402,-0.0416
-7.4,-0.3521,0.09403,0.09236,-0.0432
-7.3,-0.3437,0.09235,0.09068,-0.045
-7.2,-0.3357,0.09073,0.08906,-0.0466
-7.1,-0.3287,0.0892,0.08754,-0.0478
-7,-0.3213,0.08765,0.08598,-0.0492
-6.9,-0.3134,0.08607,0.0844,-0.0508
-6.8,-0.3053,0.08448,0.08281,-0.0524
-6.7,-0.2976,0.08292,0.08124,-0.0538
-6.6,-0.2909,0.08145,0.07978,-0.055
-6.5,-0.2837,0.07997,0.07829,-0.0563
-6.4,-0.2763,0.07843,0.07675,-0.0577
-6.3,-0.2687,0.07692,0.07523,-0.059
-6.2,-0.2624,0.07549,0.0738,-0.0601
-6.1,-0.2557,0.07404,0.07235,-0.0612
-6,-0.2486,0.07258,0.07088,-0.0624
-5.9,-0.2417,0.07118,0.06947,-0.0636
-5.8,-0.2347,0.06982,0.06811,-0.0649
-5.7,-0.2274,0.06845,0.06675,-0.0663
-5.6,-0.2194,0.06705,0.06533,-0.0679
-5.5,-0.211,0.06565,0.06392,-0.0697
-5.4,-0.2024,0.06427,0.06252,-0.0715
-5.3,-0.1932,0.06288,0.06113,-0.0734
-5.2,-0.1836,0.06149,0.05972,-0.0754
-5.1,-0.1736,0.0601,0.05832,-0.0774
-5,-0.1632,0.05873,0.05693,-0.0795
-4.9,-0.1523,0.05734,0.05553,-0.0818
-4.8,-0.1408,0.05594,0.05411,-0.0841
-4.7,-0.1289,0.05453,0.05269,-0.0865
-4.6,-0.1165,0.05312,0.05126,-0.0889
-4.5,-0.1036,0.05169,0.04982,-0.0915
-4.4,-0.0902,0.05025,0.04836,-0.0941
-4.3,-0.0765,0.04881,0.04688,-0.0967
-4.2,-0.0622,0.04735,0.0454,-0.0994
-4.1,-0.0473,0.04587,0.04389,-0.1022
-4,-0.032,0.04439,0.04237,-0.105
-3.9,-0.0159,0.04287,0.04082,-0.108
-3.8,0.0007,0.04134,0.03926,-0.111
-3.7,0.0181,0.03978,0.03767,-0.1141
-3.6,0.0358,0.03821,0.03606,-0.1172
-3.5,0.0546,0.03647,0.03426,-0.1206
-3.3,0.0936,0.0331,0.0308,-0.1273
-3.2,0.1139,0.03136,0.029,-0.1307
-3.1,0.1351,0.02954,0.0271,-0.1342
-3,0.1566,0.02769,0.02517,-0.1377
-2.9,0.179,0.02571,0.02312,-0.1414
-2.7,0.2235,0.02235,0.01955,-0.1476
-2.6,0.2456,0.02066,0.01775,-0.1504
-2.5,0.268,0.01889,0.01584,-0.1532
-2.4,0.2902,0.01698,0.01377,-0.1559
-2.3,0.3126,0.01479,0.01136,-0.1588
-2.2,0.3343,0.0122,0.00845,-0.1619
-2.1,0.355,0.01036,0.00623,-0.1639
-2,0.3745,0.00929,0.00483,-0.1646
-1.9,0.3933,0.00866,0.00393,-0.1647
-1.8,0.4122,0.00824,0.00333,-0.1647
-1.7,0.4305,0.00799,0.00294,-0.1645
-1.6,0.4485,0.00781,0.00265,-0.1641
-1.5,0.4663,0.00768,0.00243,-0.1638
-1.4,0.4837,0.0076,0.00225,-0.1634
-1.3,0.5013,0.00752,0.00212,-0.1632
-1.2,0.5188,0.00746,0.00203,-0.1629
-1.1,0.536,0.00742,0.00194,-0.1626
-1,0.5526,0.00741,0.00189,-0.1623
-0.9,0.5698,0.00737,0.00182,-0.162
-0.8,0.5862,0.00737,0.00177,-0.1616
-0.7,0.6023,0.00739,0.00173,-0.1612
-0.6,0.6189,0.00739,0.0017,-0.1609
-0.5,0.6354,0.0074,0.00167,-0.1606
-0.4,0.6512,0.00745,0.00166,-0.1601
-0.3,0.6672,0.00749,0.00165,-0.1597
-0.2,0.6811,0.00763,0.00167,-0.159
-0.1,0.6963,0.00771,0.00171,-0.1585
0,0.7108,0.00784,0.00175,-0.1578
0.1,0.725,0.00799,0.00181,-0.1572
0.2,0.7376,0.00822,0.00192,-0.1563
0.3,0.7519,0.00837,0.00199,-0.1557
0.4,0.7649,0.0086,0.0021,-0.1549
0.5,0.7782,0.0088,0.00221,-0.1541
0.6,0.7909,0.00906,0.00234,-0.1533
0.8,0.8075,0.01018,0.00291,-0.1505
0.9,0.8222,0.01032,0.00302,-0.15
1.1,0.8525,0.01056,0.00322,-0.1491
1.3,0.8828,0.0108,0.00342,-0.148
1.4,0.8983,0.0109,0.00351,-0.1476
1.5,0.9138,0.01099,0.00362,-0.147
1.6,0.9293,0.01109,0.00371,-0.1465
1.7,0.9448,0.01119,0.00384,-0.146
1.8,0.9601,0.01131,0.00395,-0.1454
1.9,0.9755,0.01142,0.00406,-0.1448
2,0.9912,0.01152,0.00417,-0.1442
2.1,1.0066,0.01163,0.00429,-0.1436
2.2,1.0219,0.01176,0.00442,-0.1429
2.3,1.0374,0.01187,0.00455,-0.1422
2.4,1.0529,0.01199,0.00469,-0.1415
2.5,1.0685,0.0121,0.00482,-0.1407
2.6,1.0839,0.01223,0.00497,-0.1399
2.7,1.0994,0.01235,0.00512,-0.1391
2.8,1.1146,0.0125,0.00528,-0.1382
2.9,1.13,0.01262,0.00545,-0.1374
3,1.1457,0.01275,0.00562,-0.1365
3.1,1.161,0.01289,0.00579,-0.1355
3.2,1.1766,0.01302,0.00601,-0.1345
3.4,1.2026,0.01211,0.00661,-0.1322
3.5,1.2182,0.01229,0.00681,-0.131
3.6,1.2336,0.01248,0.00702,-0.1298
3.7,1.2487,0.01269,0.00726,-0.1285
3.8,1.2639,0.0129,0.00749,-0.1271
3.9,1.2788,0.01313,0.00775,-0.1256
4,1.2939,0.01336,0.00803,-0.1241
4.1,1.3088,0.0136,0.00832,-0.1225
4.2,1.3234,0.01388,0.00865,-0.1207
4.3,1.3375,0.01418,0.00903,-0.1188
4.4,1.351,0.01452,0.00946,-0.1167
4.5,1.363,0.0149,0.00994,-0.1143
4.6,1.3742,0.01536,0.0105,-0.1118
4.7,1.3846,0.01589,0.01116,-0.1092
4.8,1.3942,0.01651,0.01191,-0.1064
4.9,1.403,0.01722,0.01278,-0.1037
5,1.4108,0.01805,0.01377,-0.101
5.1,1.4176,0.01899,0.0149,-0.0982
5.2,1.4231,0.02006,0.01615,-0.0956
5.3,1.4262,0.02129,0.01757,-0.0929
5.4,1.4274,0.02262,0.01908,-0.0904
5.5,1.4267,0.02402,0.02065,-0.0878
5.6,1.4245,0.02548,0.02228,-0.0854
5.7,1.421,0.027,0.02394,-0.0831
5.8,1.4164,0.02857,0.02566,-0.081
5.9,1.411,0.03021,0.02743,-0.0791
6,1.4049,0.03191,0.02925,-0.0774
6.2,1.391,0.03554,0.0331,-0.0748
6.3,1.3835,0.03747,0.03514,-0.074
6.4,1.3758,0.03949,0.03725,-0.0735
6.5,1.3677,0.04161,0.03946,-0.0734
6.6,1.3595,0.04383,0.04176,-0.0736
6.7,1.3513,0.04617,0.04418,-0.0742
6.8,1.3425,0.04869,0.04677,-0.0752
7,1.3229,0.05436,0.05257,-0.0788
7.1,1.3145,0.0573,0.05557,-0.0811
7.2,1.3066,0.0604,0.05872,-0.0838
7.3,1.2993,0.06363,0.062,-0.0868
7.4,1.2927,0.067,0.06541,-0.0901
7.5,1.2872,0.07055,0.069,-0.0936
7.6,1.2821,0.074,0.07248,-0.0969
7.7,1.2771,0.07723,0.07573,-0.0998
7.8,1.2723,0.08034,0.07886,-0.1024
7.9,1.2677,0.08338,0.0819,-0.1049
8,1.2637,0.08635,0.08488,-0.1073
8.1,1.26,0.08927,0.0878,-0.1096
8.2,1.2567,0.09214,0.09068,-0.1119
8.3,1.2538,0.09498,0.09352,-0.114
8.4,1.2513,0.09779,0.09633,-0.1162
8.5,1.2491,0.10056,0.0991,-0.1182
8.6,1.2472,0.1033,0.10183,-0.1203
8.7,1.2443,0.10622,0.10475,-0.1224
8.8,1.2402,0.10941,0.10793,-0.1248
8.9,1.2384,0.11225,0.11078,-0.1269
9,1.237,0.11507,0.1136,-0.1289
9.1,1.2359,0.11788,0.1164,-0.1309
9.2,1.2352,0.12064,0.11916,-0.1329
9.3,1.2349,0.12339,0.12192,-0.1348
9.4,1.2349,0.12611,0.12464,-0.1367
9.5,1.2352,0.12881,0.12734,-0.1385
9.6,1.2358,0.13147,0.13,-0.1403
9.7,1.2367,0.13411,0.13263,-0.1421
9.8,1.2378,0.13672,0.13524,-0.1438
9.9,1.2391,0.13929,0.13782,-0.1456
10.1,1.2406,0.14495,0.14347,-0.1494
10.2,1.2418,0.14775,0.14627,-0.1513
10.3,1.2433,0.1505,0.14902,-0.1531
10.4,1.2451,0.15322,0.15174,-0.1549
10.5,1.2472,0.15592,0.15444,-0.1567
10.6,1.2495,0.15859,0.15711,-0.1585
10.7,1.252,0.16124,0.15977,-0.1602
10.8,1.2547,0.16387,0.16239,-0.1619
10.9,1.2577,0.16648,0.165,-0.1637
11,1.2608,0.16906,0.16758,-0.1654
11.1,1.264,0.17163,0.17015,-0.1671
11.2,1.2673,0.17415,0.17267,-0.1687
11.3,1.2708,0.17666,0.17518,-0.1704
11.4,1.2743,0.17914,0.17766,-0.1721
11.5,1.2773,0.18198,0.1805,-0.1739
11.6,1.2797,0.18544,0.18396,-0.1761
11.7,1.2834,0.18813,0.18665,-0.1779
11.8,1.2872,0.1908,0.18931,-0.1796
11.9,1.2912,0.19344,0.19196,-0.1814
12,1.2953,0.19607,0.19458,-0.1831
12.1,1.2995,0.19869,0.1972,-0.1848
12.2,1.3039,0.20128,0.1998,-0.1866
12.3,1.3083,0.20387,0.20238,-0.1883
12.4,1.3128,0.20643,0.20495,-0.19
12.5,1.3174,0.20898,0.20749,-0.1918
12.6,1.322,0.21152,0.21003,-0.1935
12.7,1.3267,0.21408,0.21258,-0.1953
12.8,1.3312,0.21704,0.21555,-0.1972
12.9,1.3359,0.21986,0.21837,-0.199
13,1.3407,0.22274,0.22126,-0.2008
13.1,1.3456,0.22556,0.22408,-0.2026
13.2,1.3507,0.22837,0.22689,-0.2045
13.3,1.3557,0.23118,0.2297,-0.2063
13.4,1.3609,0.23399,0.2325,-0.2081
13.5,1.3661,0.23677,0.23529,-0.2099
13.6,1.3714,0.23956,0.23807,-0.2117
13.7,1.3767,0.24235,0.24086,-0.2136
13.8,1.3821,0.24513,0.24365,-0.2154
13.9,1.3875,0.24791,0.24642,-0.2172
14,1.3929,0.25069,0.2492,-0.219
14.1,1.3984,0.2535,0.25201,-0.2208
14.2,1.404,0.25629,0.25481,-0.2227
14.3,1.4096,0.25911,0.25762,-0.2245
14.4,1.4153,0.26191,0.26043,-0.2263
14.5,1.4209,0.26473,0.26324,-0.2282
14.6,1.4266,0.26756,0.26607,-0.23
14.7,1.4324,0.27039,0.26891,-0.2319
14.8,1.4382,0.27323,0.27174,-0.2338
14.9,1.444,0.27608,0.27459,-0.2356
15.2,1.4616,0.28498,0.28349,-0.2416
15.3,1.4677,0.28836,0.28687,-0.2436
15.4,1.4737,0.29165,0.29015,-0.2456
15.5,1.4798,0.29486,0.29337,-0.2475
15.6,1.4859,0.29805,0.29656,-0.2495
15.7,1.492,0.30125,0.29976,-0.2515
15.8,1.4981,0.30444,0.30295,-0.2534
15.9,1.5043,0.30761,0.30612,-0.2554
16,1.5105,0.31085,0.30936,-0.2574
16.1,1.5166,0.31407,0.31258,-0.2594
16.2,1.5228,0.31729,0.3158,-0.2614
16.3,1.529,0.32054,0.31905,-0.2634
16.4,1.5352,0.32377,0.32229,-0.2655
16.5,1.5415,0.32705,0.32557,-0.2675
16.6,1.5477,0.33031,0.32882,-0.2695
16.7,1.5539,0.33359,0.33211,-0.2715
16.8,1.5602,0.33689,0.33541,-0.2736
16.9,1.5664,0.34019,0.33871,-0.2756
17,1.5727,0.34351,0.34204,-0.2777
17.1,1.579,0.34686,0.34539,-0.2798
17.2,1.5852,0.35022,0.34874,-0.2819
17.3,1.5915,0.35357,0.3521,-0.2839
17.4,1.5978,0.35697,0.35549,-0.286
17.5,1.6041,0.36037,0.3589,-0.2881
17.6,1.6104,0.36379,0.36232,-0.2903
17.7,1.6167,0.36724,0.36577,-0.2924
17.8,1.623,0.3707,0.36923,-0.2945
17.9,1.6293,0.37416,0.37269,-0.2967
18,1.6356,0.37766,0.3762,-0.2988
18.1,1.6419,0.3812,0.37973,-0.301
18.2,1.6482,0.38474,0.38327,-0.3031
18.3,1.6545,0.3883,0.38683,-0.3053
18.4,1.6608,0.39189,0.39042,-0.3075
18.5,1.6671,0.39548,0.39401,-0.3097
18.6,1.6734,0.39912,0.39766,-0.3119
18.7,1.6797,0.40276,0.4013,-0.3141
18.8,1.686,0.40645,0.40498,-0.3163
18.9,1.6923,0.41017,0.40871,-0.3186
19,1.6986,0.41388,0.41242,-0.3208
19.1,1.7049,0.41764,0.41619,-0.3231
19.2,1.7111,0.42139,0.41993,-0.3253
19.3,1.7174,0.42522,0.42376,-0.3276
19.4,1.7237,0.42906,0.4276,-0.3299
19.5,1.73,0.43293,0.43148,-0.3321
19.6,1.7363,0.43685,0.4354,-0.3344
19.7,1.7425,0.44077,0.43932,-0.3367
19.8,1.7488,0.44473,0.44329,-0.339
19.9,1.7551,0.44876,0.44732,-0.3414
20,1.7613,0.45279,0.45135,-0.3437
20.1,1.7681,0.45762,0.45617,-0.3462
20.2,1.7746,0.46229,0.46085,-0.3486
20.3,1.7811,0.46676,0.46532,-0.351
20.4,1.7874,0.47116,0.46972,-0.3534
20.5,1.7938,0.4756,0.47416,-0.3558
20.6,1.8002,0.48014,0.4787,-0.3582
20.7,1.8065,0.48458,0.48314,-0.3606
20.8,1.813,0.48924,0.4878,-0.3631
20.9,1.8193,0.49376,0.49233,-0.3656
21,1.8256,0.49835,0.49691,-0.368
21.1,1.8319,0.50288,0.50145,-0.3705
21.2,1.8382,0.50754,0.50611,-0.373
21.3,1.8445,0.51223,0.5108,-0.3755
21.4,1.8509,0.51697,0.51554,-0.378
21.5,1.8571,0.52167,0.52025,-0.3805
21.6,1.8634,0.52649,0.52506,-0.383
21.7,1.8697,0.53125,0.52983,-0.3856
21.8,1.8759,0.53611,0.53469,-0.3881
21.9,1.8822,0.54103,0.53961,-0.3907
22,1.8885,0.54595,0.54454,-0.3933
22.1,1.8949,0.55119,0.54977,-0.3962
22.2,1.9011,0.55614,0.55472,-0.3988
22.3,1.9073,0.56113,0.55972,-0.4014
22.4,1.9136,0.56621,0.5648,-0.4041
22.5,1.9197,0.57124,0.56983,-0.4067
22.6,1.926,0.5764,0.575,-0.4094
22.7,1.9321,0.58155,0.58014,-0.412
22.8,1.9382,0.58672,0.58532,-0.4147
22.9,1.9444,0.59194,0.59054,-0.4174
23,1.9506,0.59727,0.59588,-0.4201
23.1,1.9566,0.60256,0.60117,-0.4228
23.2,1.9628,0.60794,0.60656,-0.4255
23.3,1.9689,0.61334,0.61195,-0.4282
23.4,1.9749,0.6188,0.61741,-0.4309
23.5,1.981,0.62428,0.62289,-0.4337
23.6,1.9871,0.62984,0.62846,-0.4364
23.7,1.9931,0.63541,0.63403,-0.4392
23.8,1.9991,0.64105,0.63967,-0.4419
23.9,2.0051,0.64674,0.64537,-0.4447
24,2.011,0.65242,0.65105,-0.4475
24.1,2.0169,0.65812,0.65675,-0.4502
24.2,2.023,0.66402,0.66265,-0.4531
24.3,2.0288,0.66984,0.66847,-0.4559
24.4,2.0347,0.67576,0.6744,-0.4587
24.5,2.0406,0.68174,0.68038,-0.4615
24.6,2.0466,0.68781,0.68645,-0.4644
24.7,2.0524,0.69384,0.69248,-0.4672
24.8,2.0582,0.69998,0.69862,-0.4701
24.9,2.064,0.70618,0.70483,-0.4729
25,2.0699,0.71244,0.71109,-0.4758
25.1,2.0757,0.71877,0.71742,-0.4787
25.2,2.0814,0.72507,0.72372,-0.4816
25.3,2.0871,0.73146,0.73012,-0.4845
25.4,2.0929,0.73798,0.73664,-0.4874
25.5,2.0986,0.74453,0.74319,-0.4903
25.6,2.1043,0.75114,0.74981,-0.4933
25.7,2.11,0.7578,0.75646,-0.4962
25.8,2.1156,0.76449,0.76316,-0.4991
25.9,2.1213,0.77132,0.76999,-0.5021
26,2.1269,0.77819,0.77686,-0.5051
26.1,2.1324,0.78507,0.78375,-0.508
26.2,2.138,0.79205,0.79074,-0.511
26.3,2.1435,0.79912,0.7978,-0.514
26.4,2.149,0.80625,0.80494,-0.517
26.5,2.1546,0.81351,0.8122,-0.5201
26.6,2.1601,0.82079,0.81949,-0.5231
26.7,2.1655,0.82812,0.82681,-0.5261
26.8,2.1709,0.83552,0.83422,-0.5291
26.9,2.1764,0.84305,0.84175,-0.5322
27,2.1817,0.85066,0.84937,-0.5352
27.1,2.1872,0.85835,0.85705,-0.5383
27.2,2.1925,0.86607,0.86478,-0.5414
27.3,2.1978,0.87392,0.87263,-0.5445
27.4,2.2031,0.88183,0.88054,-0.5475
27.5,2.2084,0.88989,0.8886,-0.5507
27.6,2.2137,0.89798,0.8967,-0.5538
27.7,2.219,0.9062,0.90492,-0.5569
27.8,2.2242,0.91455,0.91327,-0.56
27.9,2.2294,0.92289,0.92161,-0.5631
28,2.2346,0.93139,0.93012,-0.5663
28.1,2.2397,0.93998,0.93871,-0.5694
28.2,2.2449,0.9487,0.94743,-0.5726
28.3,2.25,0.9574,0.95613,-0.5757
28.4,2.255,0.96627,0.96501,-0.5789
28.5,2.2601,0.97519,0.97394,-0.5821
28.6,2.2652,0.9844,0.98314,-0.5853
28.7,2.2703,0.99372,0.99247,-0.5885
28.8,2.2752,1.00293,1.00168,-0.5917
28.9,2.2801,1.0123,1.01105,-0.5949
29,2.2851,1.02189,1.02064,-0.5981
29.1,2.29,1.03158,1.03034,-0.6013
29.2,2.2949,1.04125,1.04002,-0.6046
29.3,2.2998,1.05124,1.05001,-0.6078
29.4,2.3047,1.0612,1.05997,-0.6111
29.5,2.3095,1.07135,1.07012,-0.6143
29.6,2.3143,1.08167,1.08045,-0.6176
29.7,2.319,1.09182,1.09059,-0.6208
29.8,2.3238,1.10231,1.10109,-0.6241

