airfoilName st23.dat
Re 	750000
M 	7.000000e-01
N 	4.500000e+00
VACC 	0 VACCflag 1
XTR 	1.00 	1.00 XTRflag 0
alpha,cl,cd,cdp,cm
-30,-1.7059,0.91897,0.91701,0.3974
-29.9,-1.7008,0.91102,0.90906,0.3943
-29.8,-1.6956,0.90317,0.9012,0.3912
-29.7,-1.6904,0.89533,0.89336,0.3881
-29.6,-1.6852,0.8876,0.88563,0.385
-29.5,-1.68,0.87991,0.87793,0.382
-29.4,-1.6747,0.8723,0.87033,0.3789
-29.3,-1.6694,0.86476,0.86278,0.3759
-29.2,-1.6641,0.85745,0.85546,0.3728
-29.1,-1.6588,0.84998,0.848,0.3698
-29,-1.6534,0.84261,0.84062,0.3667
-28.9,-1.648,0.83533,0.83334,0.3637
-28.8,-1.6426,0.82813,0.82613,0.3607
-28.7,-1.6372,0.82105,0.81905,0.3577
-28.6,-1.6318,0.81397,0.81197,0.3547
-28.5,-1.6263,0.80701,0.80501,0.3518
-28.4,-1.6208,0.80017,0.79816,0.3488
-28.3,-1.6153,0.79316,0.79115,0.3458
-28.2,-1.6098,0.78642,0.78441,0.3429
-28.1,-1.6043,0.77969,0.77768,0.34
-28,-1.5987,0.77301,0.771,0.337
-27.9,-1.593,0.76637,0.76436,0.3341
-27.8,-1.5875,0.75981,0.75779,0.3312
-27.7,-1.5818,0.75339,0.75137,0.3283
-27.6,-1.5762,0.74693,0.74491,0.3254
-27.5,-1.5705,0.7405,0.73847,0.3225
-27.4,-1.5648,0.73417,0.73214,0.3196
-27.3,-1.5591,0.72795,0.72593,0.3167
-27.2,-1.5534,0.72176,0.71972,0.3139
-27.1,-1.5477,0.71564,0.7136,0.311
-27,-1.5419,0.7095,0.70746,0.3082
-26.9,-1.5361,0.70348,0.70144,0.3054
-26.8,-1.5303,0.69741,0.69537,0.3026
-26.7,-1.5245,0.69157,0.68952,0.2997
-26.6,-1.5187,0.68568,0.68363,0.297
-26.5,-1.5128,0.6799,0.67785,0.2942
-26.4,-1.5069,0.67411,0.67206,0.2914
-26.3,-1.5011,0.6684,0.66634,0.2886
-26.2,-1.4951,0.66272,0.66067,0.2858
-26.1,-1.4892,0.6571,0.65504,0.2831
-26,-1.4833,0.65161,0.64956,0.2803
-25.9,-1.4774,0.64608,0.64402,0.2776
-25.8,-1.4714,0.64059,0.63853,0.2749
-25.7,-1.4654,0.63521,0.63314,0.2722
-25.6,-1.4594,0.62987,0.6278,0.2695
-25.5,-1.4534,0.62452,0.62245,0.2668
-25.4,-1.4473,0.61929,0.61722,0.2641
-25.3,-1.4413,0.61406,0.61199,0.2614
-25.2,-1.4352,0.60889,0.60681,0.2587
-25.1,-1.4291,0.6038,0.60172,0.2561
-25,-1.4231,0.59874,0.59667,0.2534
-24.9,-1.417,0.59372,0.59164,0.2508
-24.8,-1.4108,0.58877,0.58669,0.2482
-24.7,-1.4047,0.58384,0.58177,0.2455
-24.6,-1.3986,0.57896,0.57688,0.2429
-24.5,-1.3924,0.57412,0.57204,0.2403
-24.4,-1.3863,0.56933,0.56724,0.2377
-24.3,-1.38,0.56458,0.56249,0.2351
-24.2,-1.3738,0.55989,0.5578,0.2326
-24.1,-1.3677,0.55524,0.55314,0.23
-24,-1.3614,0.55065,0.54855,0.2275
-23.9,-1.3552,0.54605,0.54396,0.2249
-23.8,-1.349,0.54153,0.53944,0.2224
-23.7,-1.3427,0.53706,0.53496,0.2198
-23.6,-1.3365,0.53262,0.53052,0.2173
-23.5,-1.3299,0.52936,0.52726,0.2145
-23.4,-1.3236,0.52497,0.52287,0.212
-23.3,-1.3173,0.52063,0.51852,0.2095
-23.2,-1.3111,0.51623,0.51413,0.207
-23.1,-1.3048,0.51186,0.50976,0.2046
-23,-1.2984,0.50768,0.50557,0.2021
-22.9,-1.2922,0.50339,0.50129,0.1997
-22.8,-1.2859,0.49918,0.49707,0.1973
-22.7,-1.2796,0.495,0.49289,0.1949
-22.6,-1.2733,0.49081,0.4887,0.1925
-22.5,-1.267,0.4867,0.48459,0.1901
-22.4,-1.2607,0.48257,0.48046,0.1878
-22.3,-1.2544,0.47853,0.47641,0.1854
-22.2,-1.248,0.47448,0.47237,0.1831
-22.1,-1.2418,0.47041,0.4683,0.1808
-22,-1.2354,0.46651,0.46439,0.1784
-21.9,-1.2291,0.46252,0.46041,0.1762
-21.8,-1.2228,0.4586,0.45649,0.1739
-21.7,-1.2164,0.4547,0.45258,0.1716
-21.6,-1.2101,0.45083,0.44872,0.1693
-21.5,-1.2037,0.44703,0.44492,0.1671
-21.4,-1.1974,0.44323,0.44111,0.1648
-21.3,-1.191,0.43943,0.43731,0.1626
-21.2,-1.1847,0.43568,0.43355,0.1604
-21.1,-1.1783,0.43199,0.42986,0.1581
-21,-1.1719,0.42825,0.42612,0.1559
-20.9,-1.1656,0.42462,0.42249,0.1537
-20.8,-1.1592,0.42099,0.41886,0.1515
-20.7,-1.1528,0.41732,0.41519,0.1494
-20.6,-1.1463,0.4138,0.41167,0.1472
-20.5,-1.14,0.41021,0.40808,0.145
-20.4,-1.1335,0.40671,0.40458,0.1428
-20.3,-1.1271,0.40321,0.40108,0.1407
-20.2,-1.1206,0.39975,0.39762,0.1385
-20.1,-1.1142,0.39624,0.3941,0.1364
-20,-1.1077,0.39278,0.39065,0.1343
-19.9,-1.1013,0.38935,0.38722,0.1321
-19.8,-1.0948,0.38594,0.38381,0.13
-19.7,-1.0883,0.38255,0.38042,0.1279
-19.6,-1.0817,0.37921,0.37708,0.1258
-19,-1.041,0.36009,0.35797,0.1126
-18.9,-1.0348,0.35658,0.35446,0.1108
-18.8,-1.0285,0.35314,0.35102,0.109
-18.7,-1.0223,0.34976,0.34764,0.1072
-18.6,-1.0161,0.34636,0.34424,0.1054
-18.5,-1.01,0.34299,0.34087,0.1036
-18.4,-1.0038,0.33962,0.3375,0.1019
-18.3,-0.9976,0.33632,0.3342,0.1001
-18.2,-0.9915,0.33305,0.33092,0.0984
-18.1,-0.9853,0.32978,0.32765,0.0966
-18,-0.9792,0.32658,0.32445,0.0949
-17.9,-0.973,0.3234,0.32128,0.0932
-17.8,-0.9669,0.32026,0.31813,0.0915
-17.7,-0.9607,0.31716,0.31503,0.0898
-17.6,-0.9546,0.31409,0.31197,0.0881
-17.5,-0.9485,0.31105,0.30893,0.0864
-17.4,-0.9423,0.30805,0.30592,0.0847
-17.3,-0.9362,0.30509,0.30297,0.083
-17.2,-0.9301,0.30216,0.30003,0.0814
-17.1,-0.924,0.29925,0.29712,0.0797
-17,-0.9178,0.29637,0.29425,0.0781
-16.9,-0.9117,0.29352,0.2914,0.0764
-16.8,-0.9056,0.2907,0.28858,0.0748
-16.7,-0.8995,0.2879,0.28578,0.0732
-16.6,-0.8934,0.28512,0.283,0.0716
-16.5,-0.8873,0.28237,0.28025,0.07
-16.4,-0.8812,0.27964,0.27752,0.0684
-16.3,-0.8751,0.27693,0.27481,0.0668
-16.2,-0.869,0.27424,0.27212,0.0652
-16.1,-0.863,0.27156,0.26944,0.0636
-16,-0.8569,0.2689,0.26678,0.0621
-15.9,-0.8508,0.26626,0.26414,0.0605
-15.8,-0.8447,0.26362,0.26151,0.059
-15.7,-0.8386,0.26102,0.2589,0.0575
-15.6,-0.8326,0.25842,0.25631,0.056
-15.5,-0.8266,0.25587,0.25375,0.0545
-15.4,-0.8205,0.25329,0.25118,0.053
-15.3,-0.8144,0.25076,0.24864,0.0515
-15.2,-0.8084,0.24824,0.24612,0.05
-15.1,-0.8024,0.24574,0.24362,0.0486
-15,-0.7964,0.24325,0.24114,0.0471
-14.9,-0.7904,0.24079,0.23867,0.0457
-14.8,-0.7844,0.23834,0.23622,0.0442
-14.7,-0.7785,0.23592,0.2338,0.0428
-14.6,-0.7725,0.23351,0.23139,0.0414
-14.5,-0.7666,0.23112,0.229,0.04
-14.4,-0.7602,0.22912,0.22701,0.0381
-14.3,-0.7543,0.22674,0.22463,0.0367
-14.2,-0.7484,0.22437,0.22227,0.0353
-14.1,-0.7425,0.22203,0.21992,0.0339
-14,-0.7367,0.21969,0.21759,0.0326
-13.9,-0.7308,0.21737,0.21527,0.0312
-13.8,-0.725,0.21507,0.21296,0.0299
-13.7,-0.7192,0.21278,0.21067,0.0286
-13.6,-0.7134,0.2105,0.2084,0.0273
-13.5,-0.7076,0.20824,0.20614,0.026
-13.4,-0.7018,0.20598,0.20388,0.0247
-13.3,-0.696,0.20373,0.20164,0.0234
-13.2,-0.6903,0.20149,0.1994,0.0221
-13.1,-0.6845,0.19927,0.19718,0.0209
-13,-0.6788,0.19706,0.19497,0.0196
-12.9,-0.6731,0.19485,0.19276,0.0184
-12.8,-0.6674,0.19265,0.19056,0.0172
-12.7,-0.6617,0.19046,0.18837,0.016
-12.6,-0.656,0.18827,0.18619,0.0148
-12.5,-0.6503,0.18609,0.18401,0.0136
-12.4,-0.6446,0.1839,0.18183,0.0124
-12.3,-0.6388,0.18172,0.17965,0.0113
-12.2,-0.633,0.17953,0.17745,0.0101
-12.1,-0.627,0.17733,0.17526,0.0089
-12,-0.6208,0.17516,0.17309,0.0076
-11.8,-0.6089,0.17103,0.16897,0.0051
-11.7,-0.6038,0.16901,0.16696,0.0041
-11.6,-0.5988,0.16701,0.16496,0.0032
-11.5,-0.5937,0.16502,0.16297,0.0022
-11.4,-0.5887,0.16307,0.16102,0.0013
-11.3,-0.5836,0.16114,0.15909,0.0004
-11.2,-0.5786,0.15923,0.15719,-0.0006
-11.1,-0.5736,0.15735,0.15531,-0.0015
-11,-0.5686,0.15549,0.15346,-0.0024
-10.9,-0.5636,0.15366,0.15163,-0.0033
-10.8,-0.5586,0.15185,0.14982,-0.0042
-10.7,-0.5536,0.15007,0.14804,-0.0051
-10.6,-0.5487,0.1483,0.14628,-0.006
-10.5,-0.5437,0.14656,0.14454,-0.0069
-10.4,-0.5388,0.14483,0.14282,-0.0077
-10.3,-0.5339,0.14313,0.14112,-0.0085
-10.2,-0.5291,0.14144,0.13944,-0.0094
-10.1,-0.5242,0.13976,0.13776,-0.0102
-10,-0.5195,0.13811,0.13611,-0.011
-9.9,-0.5148,0.13647,0.13448,-0.0117
-9.8,-0.5101,0.13485,0.13286,-0.0124
-9.7,-0.5056,0.13325,0.13128,-0.0131
-9.6,-0.5012,0.13168,0.12971,-0.0138
-9.5,-0.497,0.13014,0.12817,-0.0143
-9.4,-0.493,0.12862,0.12666,-0.0149
-9.3,-0.4892,0.12714,0.12519,-0.0153
-9.2,-0.4857,0.1257,0.12376,-0.0157
-9.1,-0.4824,0.1243,0.12236,-0.0159
-9,-0.4794,0.12293,0.121,-0.0161
-8.9,-0.4767,0.1216,0.11969,-0.0162
-8.8,-0.4731,0.12018,0.11827,-0.0166
-8.7,-0.4655,0.11834,0.11642,-0.0183
-8.6,-0.4579,0.11651,0.1146,-0.0199
-8.5,-0.4502,0.1147,0.11279,-0.0216
-8.4,-0.4417,0.11282,0.1109,-0.0235
-8.3,-0.4331,0.11096,0.10905,-0.0255
-8.2,-0.4251,0.10915,0.10723,-0.0273
-8.1,-0.4176,0.10738,0.10546,-0.0288
-8,-0.4098,0.10561,0.1037,-0.0304
-7.9,-0.4013,0.10379,0.10187,-0.0323
-7.8,-0.3931,0.10202,0.10011,-0.034
-7.7,-0.3847,0.10025,0.09833,-0.0358
-7.6,-0.3762,0.09847,0.09656,-0.0376
-7.5,-0.3687,0.0968,0.09489,-0.0391
-7.4,-0.3612,0.09514,0.09323,-0.0405
-7.3,-0.3528,0.09341,0.09149,-0.0423
-7.2,-0.3444,0.09171,0.08979,-0.044
-7.1,-0.3357,0.08997,0.08805,-0.0458
-7,-0.3267,0.08824,0.08632,-0.0477
-6.9,-0.3198,0.08667,0.08475,-0.049
-6.8,-0.3119,0.08505,0.08313,-0.0505
-6.7,-0.3034,0.08339,0.08148,-0.0522
-6.5,-0.2849,0.08009,0.07818,-0.0561
-6.4,-0.279,0.07872,0.07682,-0.057
-6.3,-0.2722,0.07731,0.0754,-0.0583
-6.2,-0.2648,0.07586,0.07395,-0.0597
-6.1,-0.257,0.07442,0.0725,-0.0612
-6,-0.2505,0.07309,0.07117,-0.0624
-5.9,-0.2443,0.07181,0.06989,-0.0634
-5.8,-0.2372,0.07049,0.06857,-0.0647
-5.7,-0.2289,0.06912,0.06719,-0.0664
-5.6,-0.2205,0.06777,0.06583,-0.0681
-5.5,-0.212,0.06644,0.06449,-0.0698
-5.4,-0.2028,0.06507,0.06311,-0.0717
-5.3,-0.193,0.06368,0.06171,-0.0736
-5.2,-0.1829,0.0623,0.06032,-0.0757
-5.1,-0.1732,0.06095,0.05897,-0.0776
-5,-0.1627,0.05958,0.05758,-0.0797
-4.9,-0.1517,0.05818,0.05616,-0.0819
-4.8,-0.1401,0.05676,0.05473,-0.0842
-4.7,-0.1287,0.05537,0.05333,-0.0864
-4.6,-0.1166,0.05396,0.0519,-0.0888
-4.5,-0.104,0.05252,0.05045,-0.0912
-4.4,-0.0907,0.05106,0.04897,-0.0938
-4.3,-0.0772,0.0496,0.04749,-0.0964
-4.2,-0.0632,0.04813,0.046,-0.099
-4.1,-0.0486,0.04665,0.04449,-0.1017
-3.9,-0.0178,0.0436,0.04138,-0.1074
-3.8,-0.0015,0.04205,0.0398,-0.1103
-3.7,0.0161,0.04016,0.03786,-0.1139
-3.6,0.0338,0.03849,0.03615,-0.117
-3.5,0.0523,0.03677,0.03439,-0.1204
-3.4,0.0713,0.03501,0.03258,-0.1238
-3.3,0.0913,0.03318,0.0307,-0.1273
-3.2,0.1115,0.03158,0.02904,-0.1306
-3.1,0.1324,0.03002,0.02742,-0.1339
-3,0.1532,0.0285,0.02583,-0.1369
-2.9,0.1747,0.02696,0.02421,-0.14
-2.8,0.1963,0.0254,0.02257,-0.1429
-2.7,0.2183,0.0238,0.02087,-0.1458
-2.6,0.2406,0.02214,0.01909,-0.1487
-2.5,0.263,0.02037,0.0172,-0.1515
-2.4,0.2858,0.01847,0.01514,-0.1544
-2.3,0.3087,0.01631,0.01278,-0.1574
-2.2,0.3313,0.01377,0.00993,-0.1606
-2.1,0.353,0.01144,0.0072,-0.1633
-2,0.3731,0.01018,0.00561,-0.1645
-1.9,0.3923,0.00951,0.00471,-0.1648
-1.8,0.4107,0.00905,0.00404,-0.1647
-1.7,0.429,0.00871,0.00353,-0.1645
-1.6,0.4471,0.00846,0.00314,-0.1642
-1.5,0.465,0.00828,0.00284,-0.1639
-1.4,0.4828,0.00815,0.00265,-0.1636
-1.3,0.5001,0.00808,0.00254,-0.1633
-1.2,0.5171,0.00803,0.00242,-0.1629
-1.1,0.5346,0.00795,0.0023,-0.1627
-1,0.552,0.00789,0.00219,-0.1625
-0.9,0.5689,0.00785,0.00211,-0.1621
-0.8,0.5856,0.00783,0.00204,-0.1618
-0.7,0.6023,0.00781,0.00198,-0.1614
-0.6,0.6188,0.0078,0.00194,-0.1611
-0.5,0.6349,0.00782,0.0019,-0.1607
-0.4,0.6515,0.00782,0.00187,-0.1604
-0.3,0.6678,0.00783,0.00186,-0.1601
-0.2,0.6837,0.00787,0.00185,-0.1596
-0.1,0.6984,0.00796,0.00184,-0.1589
0,0.7138,0.00802,0.00186,-0.1584
0.1,0.728,0.00814,0.00189,-0.1577
0.2,0.7419,0.00828,0.00193,-0.157
0.3,0.7565,0.0084,0.002,-0.1563
0.4,0.7685,0.00864,0.00211,-0.1553
0.5,0.7814,0.00886,0.00221,-0.1544
0.6,0.7946,0.00906,0.00231,-0.1536
0.8,0.8166,0.00972,0.00265,-0.1514
1,0.8332,0.01079,0.00323,-0.1486
1.1,0.8474,0.01096,0.00336,-0.148
1.2,0.862,0.01111,0.00348,-0.1474
1.3,0.8769,0.01124,0.00359,-0.1468
1.4,0.8913,0.0114,0.00373,-0.1462
1.5,0.9064,0.01152,0.00385,-0.1457
1.6,0.9217,0.01163,0.00396,-0.1451
1.7,0.9368,0.01175,0.00409,-0.1445
1.8,0.9521,0.01186,0.0042,-0.1439
1.9,0.9669,0.012,0.00434,-0.1432
2,0.9822,0.01211,0.00446,-0.1426
2.1,0.9973,0.01224,0.0046,-0.1419
2.2,1.0127,0.01234,0.00474,-0.1412
2.3,1.0279,0.01247,0.00487,-0.1405
2.4,1.0428,0.01261,0.00502,-0.1397
2.5,1.058,0.01274,0.00517,-0.139
2.6,1.0732,0.01287,0.00533,-0.1381
2.7,1.0885,0.013,0.00549,-0.1373
2.8,1.1035,0.01314,0.00567,-0.1364
2.9,1.1186,0.01328,0.00585,-0.1355
3,1.1337,0.01342,0.00603,-0.1346
3.2,1.1589,0.01245,0.0066,-0.1322
3.3,1.1738,0.01264,0.00682,-0.1311
3.4,1.1889,0.01283,0.00704,-0.1299
3.5,1.2036,0.01304,0.00725,-0.1287
3.6,1.2185,0.01326,0.00749,-0.1274
3.7,1.2334,0.01346,0.00773,-0.1261
3.8,1.2479,0.0137,0.00799,-0.1247
3.9,1.2625,0.01394,0.00828,-0.1232
4,1.2769,0.01419,0.00856,-0.1216
4.1,1.291,0.01446,0.00888,-0.12
4.2,1.3049,0.01475,0.00924,-0.1182
4.3,1.3177,0.01507,0.00963,-0.1161
4.4,1.33,0.01543,0.01006,-0.114
4.5,1.3418,0.01584,0.01057,-0.1117
4.6,1.3528,0.01632,0.01116,-0.1093
4.7,1.3632,0.01688,0.01185,-0.1068
4.8,1.3728,0.01752,0.01263,-0.1042
4.9,1.3817,0.01826,0.01353,-0.1016
5,1.3898,0.01911,0.01455,-0.099
5.1,1.3969,0.02008,0.01569,-0.0964
5.2,1.4027,0.02116,0.01696,-0.0939
5.3,1.4069,0.02234,0.01834,-0.0914
5.5,1.4104,0.0249,0.02124,-0.0866
5.6,1.4082,0.02642,0.02293,-0.0844
5.7,1.4048,0.02797,0.02465,-0.0822
5.8,1.4003,0.0296,0.02642,-0.0803
6,1.3887,0.03302,0.03011,-0.077
6.2,1.3748,0.03674,0.03406,-0.0747
6.3,1.3673,0.03872,0.03615,-0.0741
6.5,1.3513,0.04296,0.04058,-0.0738
6.6,1.3432,0.04525,0.04295,-0.0742
6.7,1.3349,0.04765,0.04543,-0.075
6.8,1.3268,0.05017,0.04802,-0.0762
6.9,1.3186,0.05281,0.05073,-0.0777
7.1,1.3034,0.05848,0.05652,-0.082
7.2,1.2964,0.06153,0.05962,-0.0847
7.3,1.2887,0.0649,0.06303,-0.088
7.4,1.282,0.06838,0.06656,-0.0914
7.5,1.2763,0.07198,0.07019,-0.0949
7.6,1.2708,0.07537,0.07361,-0.098
7.7,1.2655,0.07858,0.07684,-0.1008
7.8,1.2605,0.08171,0.07997,-0.1035
7.9,1.2559,0.08475,0.08303,-0.106
8,1.2517,0.08774,0.08602,-0.1084
8.1,1.248,0.09068,0.08896,-0.1107
8.2,1.2446,0.09358,0.09186,-0.1129
8.3,1.2417,0.09644,0.09472,-0.1151
8.4,1.2392,0.09926,0.09754,-0.1172
8.5,1.237,0.10204,0.10033,-0.1193
8.6,1.2353,0.10479,0.10307,-0.1213
8.7,1.2338,0.10751,0.10579,-0.1232
8.8,1.2328,0.11019,0.10847,-0.1251
8.9,1.2321,0.11285,0.11113,-0.127
9,1.2317,0.11548,0.11376,-0.1289
9.1,1.2316,0.11809,0.11637,-0.1307
9.2,1.2289,0.12131,0.11958,-0.1331
9.3,1.2284,0.12412,0.1224,-0.135
9.4,1.2282,0.1269,0.12517,-0.137
9.5,1.2283,0.12965,0.12792,-0.1388
9.6,1.2288,0.13236,0.13063,-0.1407
9.7,1.2296,0.13504,0.13331,-0.1425
9.8,1.2306,0.1377,0.13597,-0.1443
9.9,1.2319,0.14032,0.13859,-0.146
10,1.2335,0.14292,0.1412,-0.1477
10.1,1.2353,0.14551,0.14378,-0.1494
10.2,1.2373,0.14806,0.14634,-0.1511
10.3,1.2396,0.15059,0.14887,-0.1528
10.4,1.2415,0.15336,0.15163,-0.1547
10.5,1.2433,0.15618,0.15444,-0.1565
10.6,1.2454,0.15892,0.15719,-0.1584
10.7,1.2478,0.16166,0.15992,-0.1601
10.8,1.2504,0.16435,0.16262,-0.1619
10.9,1.2532,0.16702,0.16529,-0.1637
11,1.2562,0.16966,0.16793,-0.1654
11.1,1.2594,0.17228,0.17055,-0.1671
11.2,1.2627,0.17486,0.17313,-0.1688
11.3,1.2661,0.17742,0.17569,-0.1705
11.4,1.2697,0.17997,0.17824,-0.1721
11.5,1.2734,0.18249,0.18076,-0.1738
11.6,1.2773,0.18499,0.18326,-0.1755
11.7,1.2812,0.18746,0.18573,-0.1771
11.8,1.2852,0.18991,0.18818,-0.1788
11.9,1.2893,0.19235,0.19062,-0.1804
12,1.2923,0.19623,0.19449,-0.1828
12.1,1.2965,0.19893,0.19719,-0.1846
12.2,1.3008,0.20159,0.19985,-0.1863
12.3,1.3052,0.20424,0.20251,-0.1881
12.4,1.3097,0.20689,0.20515,-0.1898
12.5,1.3143,0.20951,0.20777,-0.1916
12.6,1.319,0.21212,0.21038,-0.1933
12.7,1.3238,0.21471,0.21297,-0.1951
12.8,1.3287,0.21729,0.21555,-0.1968
12.9,1.3336,0.21985,0.21813,-0.1985
13,1.3385,0.2224,0.22068,-0.2003
13.1,1.3435,0.22495,0.22323,-0.202
13.2,1.3486,0.22748,0.22576,-0.2038
13.3,1.3537,0.22999,0.22827,-0.2055
13.4,1.3588,0.23307,0.23133,-0.2074
13.5,1.364,0.23604,0.2343,-0.2093
13.6,1.3693,0.23897,0.23723,-0.2111
13.7,1.3746,0.24186,0.24013,-0.213
13.8,1.38,0.24474,0.243,-0.2148
13.9,1.3854,0.24759,0.24586,-0.2167
14,1.3909,0.25043,0.2487,-0.2185
14.1,1.3965,0.25332,0.25158,-0.2203
14.2,1.4021,0.25616,0.25443,-0.2222
14.3,1.4077,0.25905,0.25731,-0.224
14.4,1.4134,0.2619,0.26017,-0.2259
14.5,1.4191,0.26477,0.26303,-0.2277
14.6,1.4249,0.26766,0.26592,-0.2296
14.7,1.4307,0.27056,0.26882,-0.2314
14.8,1.4365,0.27344,0.27171,-0.2333
14.9,1.4424,0.27635,0.27461,-0.2352
15,1.4483,0.27926,0.27753,-0.237
15.1,1.4542,0.28218,0.28045,-0.2389
15.2,1.4601,0.28511,0.28337,-0.2408
15.3,1.4661,0.28804,0.28631,-0.2427
15.6,1.4838,0.29633,0.2946,-0.2486
15.7,1.4898,0.29922,0.29749,-0.2506
15.8,1.496,0.30257,0.30083,-0.2526
15.9,1.5023,0.30618,0.30444,-0.2546
16,1.5086,0.30971,0.30797,-0.2567
16.1,1.5149,0.31312,0.31138,-0.2587
16.2,1.5211,0.31646,0.31472,-0.2608
16.3,1.5274,0.31983,0.31809,-0.2628
16.4,1.5337,0.32315,0.32141,-0.2648
16.5,1.54,0.32652,0.32478,-0.2669
16.6,1.5462,0.32984,0.3281,-0.2689
16.7,1.5525,0.33316,0.33143,-0.2709
16.8,1.5588,0.33653,0.3348,-0.273
16.9,1.5651,0.33989,0.33817,-0.2751
17,1.5714,0.34326,0.34153,-0.2771
17.1,1.5777,0.34668,0.34496,-0.2792
17.2,1.584,0.35007,0.34835,-0.2813
17.3,1.5903,0.35348,0.35176,-0.2834
17.4,1.5967,0.35692,0.3552,-0.2855
17.5,1.603,0.36038,0.35866,-0.2876
17.6,1.6093,0.36384,0.36212,-0.2897
17.7,1.6157,0.36733,0.36561,-0.2918
17.8,1.622,0.37085,0.36913,-0.294
17.9,1.6283,0.37436,0.37264,-0.2961
18,1.6347,0.37791,0.37619,-0.2983
18.1,1.641,0.38148,0.37977,-0.3004
18.2,1.6474,0.38507,0.38335,-0.3026
18.3,1.6537,0.38868,0.38696,-0.3048
18.4,1.6601,0.39231,0.3906,-0.307
18.5,1.6664,0.39595,0.39424,-0.3092
18.6,1.6727,0.39963,0.39792,-0.3114
18.7,1.6791,0.40333,0.40162,-0.3136
18.8,1.6854,0.40705,0.40534,-0.3158
18.9,1.6917,0.4108,0.40909,-0.318
19,1.6981,0.41455,0.41284,-0.3203
19.1,1.7044,0.41835,0.41665,-0.3225
19.2,1.7107,0.42214,0.42044,-0.3248
19.3,1.7171,0.426,0.42429,-0.3271
19.4,1.7234,0.42986,0.42816,-0.3294
19.5,1.7297,0.43375,0.43206,-0.3316
19.6,1.736,0.43769,0.43599,-0.3339
19.7,1.7423,0.44163,0.43994,-0.3363
19.8,1.7486,0.44561,0.44392,-0.3386
19.9,1.7549,0.44964,0.44796,-0.3409
20,1.7612,0.45368,0.452,-0.3432
20.1,1.7675,0.45776,0.45609,-0.3456
20.2,1.7738,0.46187,0.46019,-0.3479
20.3,1.7801,0.46603,0.46435,-0.3503
20.4,1.7864,0.47022,0.46854,-0.3527
20.5,1.7927,0.47444,0.47277,-0.3551
20.6,1.7989,0.47869,0.47702,-0.3575
20.7,1.8052,0.48301,0.48134,-0.3599
20.8,1.8115,0.48735,0.48568,-0.3623
20.9,1.8178,0.49173,0.49006,-0.3647
21,1.824,0.49612,0.49446,-0.3672
21.1,1.8303,0.50059,0.49893,-0.3696
21.2,1.8365,0.50506,0.5034,-0.3721
21.3,1.8428,0.5096,0.50794,-0.3745
21.4,1.8491,0.51421,0.51256,-0.377
21.5,1.8553,0.51884,0.51718,-0.3795
21.6,1.8615,0.5235,0.52185,-0.382
21.7,1.8677,0.52823,0.52658,-0.3845
21.8,1.874,0.53297,0.53132,-0.387
21.9,1.8802,0.53777,0.53612,-0.3895
22,1.8864,0.5426,0.54096,-0.3921
22.3,1.9057,0.55891,0.55726,-0.4001
22.4,1.9121,0.56437,0.56273,-0.4028
22.5,1.9184,0.56964,0.568,-0.4054
22.6,1.9247,0.57509,0.57345,-0.4081
22.7,1.9314,0.58101,0.57937,-0.4113
22.8,1.9376,0.58625,0.58461,-0.414
22.9,1.9438,0.59154,0.5899,-0.4167
23,1.95,0.59693,0.59531,-0.4195
23.1,1.9561,0.60227,0.60064,-0.4222
23.2,1.9623,0.6077,0.60608,-0.4249
23.3,1.9684,0.61315,0.61153,-0.4276
23.4,1.9745,0.61865,0.61703,-0.4304
23.5,1.9806,0.62417,0.62255,-0.4332
23.6,1.9867,0.62978,0.62817,-0.4359
23.7,1.9927,0.63538,0.63377,-0.4387
23.8,1.9988,0.64106,0.63945,-0.4415
23.9,2.0048,0.6468,0.64519,-0.4443
24,2.0108,0.65251,0.6509,-0.447
24.1,2.0167,0.65823,0.65663,-0.4498
24.2,2.0228,0.66418,0.66258,-0.4527
24.3,2.0286,0.67002,0.66843,-0.4555
24.4,2.0346,0.67598,0.67439,-0.4583
24.5,2.0405,0.682,0.68041,-0.4611
24.6,2.0465,0.68811,0.68651,-0.464
24.7,2.0523,0.69415,0.69257,-0.4668
24.8,2.0581,0.70032,0.69874,-0.4697
24.9,2.064,0.70657,0.70499,-0.4726
25,2.0699,0.71287,0.71129,-0.4755
25.1,2.0757,0.71922,0.71764,-0.4784
25.2,2.0814,0.72556,0.72398,-0.4812
25.3,2.0872,0.73198,0.73041,-0.4842
25.4,2.0929,0.73853,0.73696,-0.4871
25.5,2.0986,0.74512,0.74355,-0.49
25.6,2.1044,0.75177,0.7502,-0.4929
25.7,2.1101,0.75846,0.7569,-0.4959
25.8,2.1157,0.76517,0.76361,-0.4988
25.9,2.1214,0.77206,0.7705,-0.5018
26,2.127,0.77895,0.77739,-0.5048
26.1,2.1326,0.78586,0.78431,-0.5077
26.2,2.1382,0.79288,0.79134,-0.5107
26.3,2.1437,0.79997,0.79844,-0.5137
26.4,2.1493,0.80715,0.80561,-0.5167
26.5,2.1548,0.81444,0.81291,-0.5198
26.6,2.1603,0.82176,0.82023,-0.5228
26.7,2.1658,0.8291,0.82757,-0.5258
26.8,2.1712,0.83653,0.83501,-0.5288
26.9,2.1767,0.8441,0.84258,-0.5319
27,2.1821,0.85174,0.85022,-0.5349
27.1,2.1875,0.85945,0.85794,-0.538
27.2,2.1928,0.8672,0.86569,-0.5411
27.3,2.1982,0.87507,0.87356,-0.5442
27.4,2.2035,0.88299,0.88149,-0.5473
27.5,2.2088,0.89107,0.88956,-0.5504
27.6,2.2141,0.89918,0.89768,-0.5535
27.7,2.2193,0.90742,0.90592,-0.5566
27.8,2.2246,0.91572,0.91423,-0.5597
27.9,2.2298,0.92415,0.92266,-0.5629
28,2.235,0.93267,0.93118,-0.566
28.1,2.2402,0.94126,0.93978,-0.5692
28.2,2.2453,0.94999,0.9485,-0.5724
28.3,2.2504,0.9587,0.95722,-0.5755
28.4,2.2555,0.96759,0.96611,-0.5787
28.5,2.2606,0.97651,0.97504,-0.5819
28.6,2.2656,0.98571,0.98424,-0.5851
28.7,2.2707,0.99503,0.99357,-0.5883
28.8,2.2757,1.00424,1.00278,-0.5915
28.9,2.2806,1.01361,1.01215,-0.5947
29,2.2856,1.0232,1.02174,-0.5979
29.1,2.2905,1.03288,1.03143,-0.6012
29.2,2.2954,1.04256,1.04111,-0.6044
29.3,2.3003,1.05253,1.05109,-0.6077
29.4,2.3052,1.06249,1.06105,-0.6109
29.5,2.31,1.07262,1.07119,-0.6142
29.6,2.3148,1.08292,1.08149,-0.6175
29.7,2.3195,1.09306,1.09163,-0.6207
29.8,2.3243,1.10354,1.10211,-0.624
29.9,2.329,1.11425,1.11282,-0.6273
30,2.3337,1.125,1.12358,-0.6306

