airfoilName st23.dat
Re 	310000
M 	7.000000e-01
N 	4.500000e+00
VACC 	0 VACCflag 1
XTR 	1.00 	1.00 XTRflag 0
alpha,cl,cd,cdp,cm
-30,-1.7071,0.92132,0.91808,0.3971
-29.9,-1.7019,0.91381,0.91057,0.3939
-29.8,-1.6965,0.90625,0.903,0.3907
-29.7,-1.6911,0.89881,0.89556,0.3874
-29.6,-1.6857,0.8915,0.88825,0.3842
-29.5,-1.6803,0.8843,0.88104,0.381
-29.4,-1.6748,0.87722,0.87396,0.3778
-29.3,-1.6693,0.87022,0.86696,0.3746
-29.2,-1.6639,0.86314,0.85987,0.3714
-29.1,-1.6582,0.85643,0.85316,0.3682
-29,-1.6526,0.84969,0.84641,0.365
-28.9,-1.647,0.84308,0.8398,0.3618
-28.8,-1.6413,0.83664,0.83336,0.3585
-28.7,-1.6356,0.8303,0.82702,0.3553
-28.6,-1.6298,0.82421,0.82092,0.3521
-28.5,-1.624,0.8183,0.81501,0.3488
-28.4,-1.6182,0.81234,0.80905,0.3455
-23.9,-1.3487,0.56228,0.55887,0.2182
-23.8,-1.3425,0.55729,0.55388,0.2158
-23.7,-1.3364,0.55242,0.54901,0.2133
-23.6,-1.3303,0.54756,0.54414,0.2109
-23.5,-1.3241,0.54274,0.53932,0.2085
-23.4,-1.318,0.53795,0.53453,0.2062
-23.3,-1.3118,0.53321,0.52978,0.2038
-23.2,-1.3056,0.52851,0.52509,0.2014
-23.1,-1.2994,0.52386,0.52043,0.1991
-23,-1.2932,0.51921,0.51578,0.1967
-22.9,-1.2871,0.51465,0.51122,0.1944
-22.8,-1.2808,0.51012,0.50669,0.1921
-22.7,-1.2746,0.50559,0.50216,0.1898
-22.6,-1.2684,0.50111,0.49768,0.1875
-22.5,-1.2622,0.49668,0.49324,0.1852
-22.4,-1.256,0.49228,0.48884,0.1829
-22.3,-1.2497,0.48791,0.48447,0.1806
-22.2,-1.2435,0.48358,0.48014,0.1784
-22.1,-1.2372,0.4793,0.47585,0.1762
-22,-1.231,0.47502,0.47158,0.1739
-21.9,-1.2247,0.47082,0.46737,0.1717
-21.8,-1.2185,0.46662,0.46317,0.1695
-21.7,-1.2122,0.46247,0.45902,0.1673
-21.6,-1.2059,0.45835,0.4549,0.1651
-21.5,-1.1997,0.45422,0.45077,0.163
-21.4,-1.1934,0.45018,0.44672,0.1608
-21.3,-1.1871,0.44612,0.44265,0.1587
-21.2,-1.1808,0.44214,0.43867,0.1565
-21.1,-1.1745,0.43816,0.43468,0.1544
-21,-1.1682,0.43422,0.43075,0.1523
-20.9,-1.1619,0.43032,0.42684,0.1502
-20.8,-1.1556,0.42643,0.42295,0.1481
-20.7,-1.1493,0.42258,0.41911,0.146
-20.6,-1.143,0.41875,0.41527,0.144
-20.5,-1.1367,0.41499,0.41151,0.1419
-20.4,-1.1304,0.4112,0.40772,0.1399
-20.3,-1.1241,0.40747,0.40399,0.1378
-20.2,-1.1177,0.40375,0.40027,0.1358
-20.1,-1.1114,0.40009,0.39661,0.1338
-20,-1.1051,0.39644,0.39296,0.1318
-19.9,-1.0988,0.39283,0.38935,0.1298
-19.8,-1.0925,0.38925,0.38577,0.1278
-19.7,-1.0861,0.38568,0.3822,0.1259
-19.6,-1.0798,0.38216,0.37867,0.1239
-19.5,-1.0735,0.37866,0.37517,0.122
-19.4,-1.0671,0.37519,0.37171,0.12
-19.3,-1.0608,0.37176,0.36827,0.1181
-19.2,-1.0545,0.36833,0.36485,0.1162
-19.1,-1.0482,0.36496,0.36147,0.1143
-19,-1.0419,0.36162,0.35813,0.1124
-18.9,-1.0355,0.35828,0.35479,0.1105
-18.8,-1.0292,0.35498,0.35149,0.1086
-18.7,-1.0229,0.35172,0.34824,0.1068
-18.6,-1.0166,0.34848,0.34499,0.1049
-18.5,-1.0102,0.34526,0.34178,0.103
-18.4,-1.0039,0.34206,0.33858,0.1012
-18.3,-0.9976,0.33891,0.33541,0.0994
-18.2,-0.9913,0.33577,0.33228,0.0975
-18.1,-0.985,0.33267,0.32917,0.0957
-18,-0.9787,0.32959,0.32609,0.0939
-17.9,-0.9724,0.32654,0.32304,0.0921
-17.8,-0.9661,0.32352,0.32002,0.0903
-17.7,-0.9598,0.32052,0.31703,0.0885
-17.6,-0.9535,0.31756,0.31407,0.0867
-17.5,-0.9471,0.31462,0.31112,0.0849
-17.4,-0.9408,0.31171,0.30822,0.0831
-17.3,-0.9345,0.30882,0.30533,0.0814
-17.2,-0.9282,0.30597,0.30248,0.0796
-17.1,-0.9219,0.30313,0.29964,0.0778
-17,-0.9156,0.30032,0.29684,0.076
-16.9,-0.9093,0.29755,0.29406,0.0742
-16.8,-0.903,0.29479,0.29131,0.0725
-16.7,-0.8967,0.29206,0.28857,0.0707
-16.3,-0.8677,0.28088,0.27743,0.062
-16.2,-0.8617,0.27808,0.27463,0.0605
-16.1,-0.8558,0.27528,0.27183,0.059
-16,-0.8499,0.27253,0.26908,0.0576
-15.9,-0.8439,0.26978,0.26633,0.0561
-15.8,-0.838,0.26706,0.26361,0.0546
-15.7,-0.8321,0.26436,0.26091,0.0532
-15.6,-0.8261,0.26168,0.25824,0.0518
-15.5,-0.8202,0.25903,0.25558,0.0503
-15.4,-0.8143,0.25639,0.25295,0.0489
-15.3,-0.8084,0.25378,0.25034,0.0475
-15.2,-0.8025,0.25119,0.24775,0.0461
-15.1,-0.7967,0.24863,0.24517,0.0447
-15,-0.7908,0.24608,0.24263,0.0434
-14.9,-0.785,0.24355,0.24011,0.042
-14.8,-0.7791,0.24104,0.2376,0.0406
-14.7,-0.7733,0.23856,0.23512,0.0393
-14.6,-0.7675,0.2361,0.23266,0.038
-14.5,-0.7617,0.23365,0.23021,0.0366
-14.4,-0.7559,0.23123,0.22779,0.0353
-14.3,-0.7501,0.22883,0.22539,0.034
-14.2,-0.7444,0.22644,0.22301,0.0327
-14.1,-0.7386,0.22408,0.22065,0.0315
-14,-0.7329,0.22173,0.2183,0.0302
-13.9,-0.7272,0.2194,0.21598,0.0289
-13.8,-0.7215,0.2171,0.21367,0.0277
-13.7,-0.7158,0.2148,0.21138,0.0265
-13.6,-0.7102,0.21253,0.20912,0.0252
-13.5,-0.7045,0.21028,0.20686,0.024
-13.4,-0.6989,0.20804,0.20463,0.0228
-13.3,-0.6933,0.20582,0.20241,0.0216
-13.2,-0.6877,0.20361,0.20021,0.0205
-13.1,-0.6821,0.20142,0.19802,0.0193
-13,-0.6765,0.19925,0.19585,0.0181
-12.9,-0.6709,0.19709,0.19369,0.017
-12.8,-0.6654,0.19495,0.19156,0.0158
-12.7,-0.6599,0.19283,0.18944,0.0147
-12.6,-0.6544,0.19072,0.18733,0.0136
-12.5,-0.6489,0.18863,0.18524,0.0125
-12.4,-0.6434,0.18655,0.18318,0.0114
-12.3,-0.638,0.18449,0.18112,0.0103
-12.2,-0.6326,0.18244,0.17907,0.0093
-12.1,-0.6272,0.18042,0.17704,0.0082
-12,-0.6218,0.17841,0.17503,0.0072
-11.9,-0.6164,0.17641,0.17303,0.0061
-11.8,-0.6111,0.17442,0.17105,0.0051
-11.7,-0.6058,0.17246,0.16909,0.0041
-11.6,-0.6005,0.1705,0.16714,0.0031
-11.5,-0.5952,0.16856,0.16521,0.0021
-11.4,-0.59,0.16664,0.16329,0.0011
-11.3,-0.5847,0.16472,0.16138,0.0001
-11.2,-0.5795,0.16282,0.15948,-0.0008
-11.1,-0.5743,0.16094,0.1576,-0.0018
-11,-0.5691,0.15906,0.15573,-0.0027
-10.9,-0.564,0.1572,0.15387,-0.0037
-10.8,-0.5589,0.15535,0.15203,-0.0046
-10.7,-0.5538,0.15351,0.1502,-0.0055
-10.6,-0.5487,0.15169,0.14838,-0.0064
-10.5,-0.5437,0.14988,0.14657,-0.0073
-10.4,-0.5388,0.14807,0.14477,-0.0081
-10.3,-0.5338,0.14628,0.14299,-0.009
-10.1,-0.5201,0.14202,0.13876,-0.0122
-10,-0.5157,0.1403,0.13705,-0.0128
-9.9,-0.5114,0.13861,0.13536,-0.0135
-9.8,-0.5071,0.13693,0.1337,-0.0141
-9.7,-0.5029,0.13529,0.13206,-0.0146
-9.6,-0.4987,0.13366,0.13044,-0.0152
-9.5,-0.4946,0.13207,0.12886,-0.0157
-9.4,-0.4907,0.1305,0.1273,-0.0162
-9.3,-0.4868,0.12896,0.12577,-0.0167
-9.2,-0.4831,0.12745,0.12426,-0.0171
-9.1,-0.4795,0.12597,0.1228,-0.0174
-9,-0.476,0.12452,0.12136,-0.0178
-8.9,-0.4728,0.1231,0.11995,-0.018
-8.8,-0.4697,0.12171,0.11858,-0.0182
-8.7,-0.4668,0.12035,0.11721,-0.0184
-8.6,-0.4641,0.11902,0.1159,-0.0185
-8.5,-0.4616,0.11773,0.11462,-0.0185
-8.4,-0.4593,0.11646,0.11337,-0.0185
-8.3,-0.4573,0.11524,0.11216,-0.0184
-8.2,-0.4556,0.11405,0.111,-0.0183
-8.1,-0.4541,0.1129,0.10986,-0.018
-8,-0.453,0.11179,0.10877,-0.0177
-7.9,-0.4523,0.11073,0.10773,-0.0172
-7.8,-0.4477,0.10929,0.1063,-0.0179
-7.7,-0.4398,0.10753,0.10454,-0.0196
-7.6,-0.4309,0.10571,0.10272,-0.0216
-7.5,-0.4227,0.10399,0.101,-0.0233
-7.4,-0.4143,0.10226,0.09928,-0.0251
-7.3,-0.4066,0.10059,0.09761,-0.0267
-7.2,-0.3986,0.09894,0.09596,-0.0284
-7.1,-0.3904,0.09728,0.0943,-0.0301
-7,-0.3819,0.09562,0.09264,-0.0319
-6.9,-0.372,0.09385,0.09087,-0.0341
-6.8,-0.3646,0.0923,0.08933,-0.0356
-6.7,-0.3568,0.09075,0.08777,-0.0371
-6.6,-0.3483,0.08915,0.08618,-0.0389
-6.5,-0.3393,0.08754,0.08457,-0.0408
-6.4,-0.3299,0.0859,0.08293,-0.0429
-6.3,-0.3213,0.08435,0.08138,-0.0446
-6.2,-0.314,0.0829,0.07993,-0.046
-6.1,-0.3056,0.08138,0.07841,-0.0478
-6,-0.2964,0.07983,0.07686,-0.0497
-5.9,-0.2867,0.07825,0.07528,-0.0518
-5.8,-0.2785,0.07679,0.07382,-0.0535
-5.7,-0.2723,0.07548,0.07251,-0.0546
-5.6,-0.2627,0.07395,0.07098,-0.0566
-5.5,-0.2514,0.07231,0.06932,-0.0591
-5.4,-0.2397,0.07066,0.06767,-0.0618
-5.3,-0.2303,0.06919,0.06619,-0.0637
-5.2,-0.2223,0.0678,0.0648,-0.0653
-5.1,-0.2116,0.06624,0.06324,-0.0676
-5,-0.1996,0.06459,0.06158,-0.0703
-4.9,-0.1865,0.06286,0.05984,-0.0732
-4.8,-0.1749,0.06121,0.0582,-0.0761
-4.7,-0.1655,0.05992,0.0569,-0.0778
-4.6,-0.1534,0.05848,0.05546,-0.0802
-4.5,-0.14,0.05699,0.05395,-0.0829
-4.4,-0.1254,0.05546,0.05241,-0.0858
-4.3,-0.112,0.05401,0.05095,-0.0883
-4.2,-0.102,0.05276,0.04969,-0.0899
-4.1,-0.0879,0.05132,0.04823,-0.0925
-4,-0.0723,0.0498,0.04669,-0.0955
-3.9,-0.0549,0.0482,0.04506,-0.0988
-3.8,-0.0415,0.04683,0.04367,-0.1009
-3.7,-0.0265,0.0454,0.04221,-0.1035
-3.6,-0.009,0.04384,0.04062,-0.1066
-3.5,0.0099,0.04223,0.03897,-0.11
-3.4,0.0306,0.04052,0.03721,-0.1137
-3.3,0.0462,0.03909,0.03575,-0.1161
-3.2,0.0647,0.0375,0.03412,-0.1191
-3.1,0.0859,0.03574,0.0323,-0.1228
-3,0.1087,0.03385,0.03033,-0.1267
-2.9,0.1341,0.03159,0.02796,-0.1315
-2.8,0.1542,0.03022,0.02654,-0.1342
-2.7,0.174,0.02891,0.02517,-0.1366
-2.6,0.1959,0.02752,0.02369,-0.1393
-2.5,0.219,0.02606,0.02213,-0.1422
-2.4,0.2433,0.02449,0.02043,-0.1453
-2.3,0.2679,0.02284,0.01864,-0.1484
-2.2,0.289,0.02126,0.01691,-0.1507
-2.1,0.312,0.01939,0.01484,-0.1533
-1.9,0.3573,0.01618,0.01116,-0.1578
-1.8,0.3799,0.0148,0.00947,-0.1596
-1.7,0.401,0.01364,0.00798,-0.1608
-1.6,0.4193,0.01283,0.0069,-0.1612
-1.5,0.438,0.01245,0.0064,-0.1613
-1.4,0.4568,0.01214,0.00595,-0.1613
-1.3,0.4766,0.01173,0.00539,-0.1615
-1.2,0.4939,0.01154,0.00514,-0.1613
-1.1,0.5115,0.01133,0.00482,-0.161
-1,0.5294,0.01115,0.00458,-0.1607
-0.9,0.5469,0.01103,0.00441,-0.1605
-0.8,0.565,0.01086,0.00416,-0.1603
-0.7,0.582,0.01076,0.00401,-0.16
-0.6,0.5994,0.01071,0.00397,-0.1599
-0.5,0.6166,0.01061,0.00381,-0.1595
-0.4,0.6339,0.01055,0.00373,-0.1593
-0.3,0.6511,0.01048,0.00365,-0.1591
-0.2,0.6681,0.01044,0.00357,-0.1587
-0.1,0.6849,0.0104,0.00353,-0.1585
0,0.7018,0.01037,0.00348,-0.1582
0.1,0.7185,0.01033,0.0034,-0.1578
0.2,0.7353,0.01031,0.00338,-0.1575
0.3,0.7519,0.0103,0.00336,-0.1571
0.4,0.7683,0.01029,0.00334,-0.1567
0.5,0.7844,0.0103,0.00329,-0.1561
0.6,0.8004,0.01032,0.00327,-0.1556
0.7,0.8161,0.01035,0.00326,-0.155
0.9,0.8452,0.01051,0.00327,-0.1532
1,0.8545,0.01081,0.00331,-0.1513
1.1,0.8664,0.01102,0.00341,-0.15
1.2,0.8772,0.01129,0.00355,-0.1486
1.3,0.8868,0.01162,0.00373,-0.147
1.4,0.8949,0.01202,0.00394,-0.1453
1.5,0.8979,0.01268,0.00432,-0.1429
1.6,0.9065,0.01312,0.0046,-0.1415
1.7,0.9173,0.01346,0.00484,-0.1403
1.8,0.9294,0.01374,0.0051,-0.1394
1.9,0.9424,0.01396,0.0053,-0.1385
2,0.9546,0.01424,0.00554,-0.1375
2.1,0.9682,0.01442,0.00575,-0.1366
2.2,0.9817,0.01461,0.00597,-0.1358
2.3,0.9957,0.01478,0.00618,-0.1349
2.4,1.0093,0.01496,0.00641,-0.1341
2.5,1.0231,0.01512,0.00666,-0.1332
2.6,1.0279,0.01407,0.00689,-0.1307
2.7,1.0419,0.01428,0.0071,-0.1298
2.8,1.0555,0.01452,0.00734,-0.1287
2.9,1.0694,0.01475,0.00758,-0.1276
3,1.0831,0.01499,0.00782,-0.1265
3.1,1.0965,0.01524,0.00807,-0.1254
3.2,1.1099,0.0155,0.00834,-0.1242
3.3,1.1235,0.01576,0.00862,-0.1229
3.4,1.137,0.01602,0.00891,-0.1216
3.5,1.1499,0.01631,0.00925,-0.1203
3.6,1.1634,0.01657,0.00954,-0.1189
3.7,1.1762,0.01688,0.00987,-0.1175
3.8,1.1891,0.01718,0.01023,-0.1159
3.9,1.2013,0.0175,0.01059,-0.1143
4,1.2131,0.01784,0.01099,-0.1125
4.1,1.2253,0.01821,0.01143,-0.1108
4.2,1.2374,0.01857,0.01183,-0.1091
4.3,1.2494,0.019,0.01235,-0.1072
4.4,1.261,0.01947,0.01291,-0.1053
4.5,1.2722,0.01998,0.0135,-0.1034
4.6,1.2834,0.02057,0.01421,-0.1014
4.7,1.2943,0.02123,0.01502,-0.0993
4.8,1.3047,0.02197,0.0159,-0.0973
4.9,1.3145,0.02278,0.01686,-0.0952
5.1,1.3317,0.02466,0.01909,-0.0912
5.2,1.3378,0.02581,0.02043,-0.0891
5.3,1.3421,0.02704,0.02186,-0.0871
5.4,1.3447,0.02834,0.02335,-0.0851
5.5,1.3456,0.0297,0.02488,-0.0831
5.7,1.3432,0.03261,0.02811,-0.0796
5.8,1.3403,0.03415,0.0298,-0.0781
5.9,1.3365,0.03575,0.03154,-0.0767
6,1.3319,0.03745,0.03338,-0.0756
6.1,1.3254,0.0394,0.03546,-0.0749
6.2,1.3183,0.04142,0.03761,-0.0745
6.3,1.3108,0.04353,0.03984,-0.0745
6.4,1.303,0.04575,0.04216,-0.0747
6.6,1.2869,0.05053,0.04712,-0.0764
6.7,1.2788,0.0531,0.04978,-0.0778
6.9,1.2632,0.05867,0.05549,-0.0819
7,1.2563,0.06158,0.05846,-0.0843
7.1,1.25,0.06459,0.06152,-0.087
7.2,1.2444,0.06769,0.06467,-0.0899
7.3,1.2397,0.07085,0.06787,-0.0928
7.4,1.2357,0.07401,0.07105,-0.0956
7.5,1.2321,0.07701,0.07408,-0.0982
7.7,1.2252,0.08279,0.07986,-0.1029
7.8,1.2205,0.08592,0.083,-0.1055
7.9,1.2163,0.08896,0.08605,-0.1079
8,1.2127,0.09193,0.08902,-0.1102
8.1,1.2096,0.09484,0.09193,-0.1125
8.2,1.207,0.0977,0.09479,-0.1146
8.3,1.2048,0.1005,0.0976,-0.1167
8.4,1.2031,0.10326,0.10036,-0.1187
8.5,1.2017,0.10598,0.10308,-0.1206
8.6,1.2007,0.10867,0.10577,-0.1225
8.7,1.2001,0.11133,0.10843,-0.1243
8.8,1.2008,0.1138,0.1109,-0.1262
8.9,1.2012,0.11629,0.11339,-0.1278
9,1.202,0.11872,0.11582,-0.1294
9.1,1.2031,0.1211,0.11821,-0.131
9.2,1.2044,0.12344,0.12055,-0.1325
9.3,1.205,0.12604,0.12312,-0.1342
9.4,1.2049,0.12892,0.12601,-0.1363
9.6,1.2062,0.13441,0.13151,-0.14
9.7,1.2074,0.13709,0.13419,-0.1418
9.8,1.2089,0.13973,0.13683,-0.1435
9.9,1.2107,0.14232,0.13942,-0.1452
10,1.2127,0.14489,0.14199,-0.1469
10.1,1.215,0.14743,0.14453,-0.1485
10.2,1.2175,0.14994,0.14705,-0.1501
10.3,1.2201,0.15242,0.14954,-0.1517
10.4,1.2237,0.15461,0.15172,-0.1533
10.5,1.2268,0.15691,0.15402,-0.1547
10.6,1.2301,0.15917,0.15629,-0.1562
10.7,1.233,0.16166,0.15876,-0.1578
10.8,1.2356,0.16458,0.16168,-0.1597
10.9,1.2384,0.16737,0.16447,-0.1616
11,1.2416,0.1701,0.1672,-0.1634
11.1,1.2449,0.17276,0.16987,-0.1651
11.2,1.2484,0.17537,0.17248,-0.1668
11.3,1.252,0.17797,0.17508,-0.1685
11.4,1.2559,0.18054,0.17765,-0.1701
11.5,1.2598,0.18308,0.18019,-0.1718
11.6,1.2639,0.18559,0.18271,-0.1734
11.8,1.2726,0.1902,0.18731,-0.1766
11.9,1.277,0.19251,0.18963,-0.1781
12,1.2813,0.19479,0.1919,-0.1797
12.1,1.2855,0.19781,0.19491,-0.1816
12.2,1.2899,0.2007,0.1978,-0.1835
12.3,1.2945,0.20352,0.20062,-0.1854
12.4,1.2991,0.20627,0.20337,-0.1872
12.5,1.3039,0.20899,0.20609,-0.1889
12.6,1.3088,0.21167,0.20877,-0.1907
12.7,1.3137,0.21433,0.21143,-0.1924
12.8,1.3187,0.21698,0.21408,-0.1942
12.9,1.3238,0.2196,0.2167,-0.1959
13,1.3289,0.22222,0.21932,-0.1976
13.1,1.3341,0.22482,0.22192,-0.1993
13.2,1.3393,0.2274,0.22453,-0.201
13.3,1.3446,0.22998,0.2271,-0.2027
13.4,1.3499,0.23254,0.22966,-0.2044
13.5,1.3553,0.23509,0.23222,-0.2061
13.6,1.3607,0.23764,0.23477,-0.2077
13.7,1.3661,0.24019,0.23732,-0.2094
13.8,1.3716,0.24367,0.24078,-0.212
13.9,1.3772,0.24657,0.24368,-0.2139
14,1.3828,0.24944,0.24655,-0.2158
14.1,1.3885,0.25233,0.24944,-0.2176
14.2,1.3942,0.25517,0.25228,-0.2195
14.3,1.4,0.25803,0.25515,-0.2213
14.4,1.4058,0.26087,0.25799,-0.2232
14.5,1.4116,0.26371,0.26082,-0.225
14.6,1.4175,0.26656,0.26368,-0.2268
14.7,1.4234,0.26942,0.26653,-0.2287
14.8,1.4293,0.27226,0.26938,-0.2305
14.9,1.4353,0.27512,0.27224,-0.2324
15,1.4412,0.27799,0.2751,-0.2342
15.1,1.4472,0.28086,0.27797,-0.2361
15.2,1.4532,0.28373,0.28085,-0.2379
15.3,1.4593,0.28662,0.28373,-0.2398
15.4,1.4653,0.28952,0.28664,-0.2417
15.5,1.4714,0.29243,0.28954,-0.2435
15.6,1.4775,0.29533,0.29245,-0.2454
15.7,1.4835,0.29824,0.29536,-0.2473
15.8,1.4896,0.30117,0.29829,-0.2492
15.9,1.4957,0.30409,0.30121,-0.2511
16,1.5018,0.30705,0.30417,-0.253
16.1,1.5082,0.31059,0.30769,-0.2551
16.2,1.5146,0.31417,0.31127,-0.2573
16.3,1.5211,0.31768,0.31479,-0.2594
16.4,1.5275,0.3211,0.31821,-0.2615
16.5,1.5338,0.32454,0.32164,-0.2636
16.6,1.5402,0.32791,0.32502,-0.2656
16.7,1.5466,0.33128,0.32839,-0.2677
16.8,1.5529,0.33467,0.33179,-0.2698
16.9,1.5593,0.33805,0.33518,-0.2718
17,1.5657,0.34144,0.33857,-0.2739
17.1,1.5721,0.34487,0.342,-0.276
17.2,1.5784,0.34828,0.34541,-0.2781
17.3,1.5848,0.3517,0.34883,-0.2802
17.4,1.5912,0.35515,0.35228,-0.2823
17.5,1.5976,0.35861,0.35575,-0.2844
17.6,1.604,0.36209,0.35922,-0.2865
17.7,1.6104,0.36558,0.36272,-0.2886
17.9,1.6231,0.37225,0.36939,-0.2931
18,1.6295,0.37576,0.37291,-0.2952
18.1,1.6359,0.37931,0.37645,-0.2974
18.2,1.6422,0.38286,0.38001,-0.2995
18.3,1.6486,0.38645,0.38359,-0.3017
18.4,1.655,0.39005,0.38719,-0.3039
18.5,1.6614,0.39365,0.39081,-0.306
18.6,1.6677,0.3973,0.39446,-0.3082
18.7,1.6741,0.40097,0.39812,-0.3104
18.8,1.6805,0.40464,0.4018,-0.3126
18.9,1.6868,0.40836,0.40552,-0.3148
19,1.6932,0.41207,0.40924,-0.317
19.1,1.6995,0.41584,0.413,-0.3193
19.2,1.7059,0.41961,0.41678,-0.3215
19.3,1.7122,0.42344,0.42061,-0.3238
19.4,1.719,0.42805,0.42521,-0.3263
19.5,1.7255,0.43237,0.42953,-0.3287
19.6,1.7321,0.43662,0.43378,-0.3311
19.7,1.7386,0.44092,0.43809,-0.3335
19.8,1.7451,0.44518,0.44234,-0.3359
19.9,1.7515,0.44934,0.44653,-0.3383
20,1.758,0.45364,0.45082,-0.3407
20.1,1.7644,0.45791,0.4551,-0.3431
20.2,1.7709,0.4622,0.45939,-0.3455
20.3,1.7773,0.4665,0.46369,-0.3479
20.4,1.7837,0.4708,0.468,-0.3503
20.5,1.7901,0.47515,0.47235,-0.3527
20.6,1.7964,0.47954,0.47674,-0.3552
20.7,1.8028,0.48395,0.48116,-0.3576
20.8,1.8093,0.48844,0.48564,-0.3601
20.9,1.8156,0.49291,0.49012,-0.3625
21,1.822,0.49742,0.49463,-0.365
21.1,1.8283,0.50195,0.49917,-0.3675
21.2,1.8346,0.50653,0.50375,-0.37
21.3,1.841,0.51116,0.50838,-0.3725
21.4,1.8474,0.51585,0.51308,-0.375
21.5,1.8537,0.52054,0.51777,-0.3775
21.6,1.86,0.52529,0.52252,-0.3801
21.7,1.8663,0.53006,0.52729,-0.3826
21.8,1.8726,0.53488,0.53211,-0.3851
21.9,1.8789,0.53974,0.53698,-0.3877
22,1.8852,0.54464,0.54188,-0.3903
22.1,1.8915,0.54959,0.54684,-0.3929
22.2,1.8977,0.55457,0.55182,-0.3954
22.3,1.904,0.55959,0.55685,-0.398
22.4,1.9103,0.56471,0.56197,-0.4007
22.5,1.9165,0.56978,0.56704,-0.4033
22.6,1.9227,0.57501,0.57227,-0.4059
22.7,1.929,0.58021,0.57748,-0.4085
22.8,1.9351,0.58546,0.58273,-0.4112
22.9,1.9413,0.59075,0.58803,-0.4139
23,1.9476,0.59616,0.59345,-0.4165
23.1,1.9537,0.60155,0.59885,-0.4192
23.2,1.9599,0.60704,0.60433,-0.4219
23.3,1.9661,0.61255,0.60985,-0.4246
23.4,1.9722,0.61812,0.61542,-0.4273
23.5,1.9784,0.62372,0.62102,-0.43
23.6,1.9845,0.62942,0.62673,-0.4328
23.7,1.9906,0.63511,0.63242,-0.4355
23.8,1.9967,0.6409,0.63822,-0.4383
23.9,2.0028,0.64675,0.64407,-0.441
24,2.0088,0.65258,0.64991,-0.4438
24.1,2.0148,0.65842,0.65575,-0.4465
24.2,2.0209,0.66453,0.66186,-0.4493
24.3,2.0268,0.67051,0.66785,-0.4521
24.4,2.0328,0.67661,0.67395,-0.4549
24.5,2.0388,0.68279,0.68014,-0.4577
24.6,2.0448,0.68906,0.68641,-0.4606
24.7,2.0507,0.69528,0.69263,-0.4634
24.8,2.0567,0.70161,0.69896,-0.4663
24.9,2.0626,0.70806,0.70542,-0.4691
25,2.0685,0.71455,0.71191,-0.472
25.1,2.0744,0.72107,0.71844,-0.4749
25.2,2.0802,0.72762,0.72499,-0.4777
25.3,2.0861,0.73424,0.73162,-0.4806
25.4,2.0919,0.74099,0.73837,-0.4835
25.6,2.1034,0.75388,0.75126,-0.4895
25.7,2.1092,0.76078,0.75817,-0.4924
25.8,2.1149,0.76777,0.76517,-0.4954
25.9,2.1207,0.77479,0.7722,-0.4983
26,2.1264,0.78189,0.7793,-0.5013
26.1,2.132,0.78902,0.78645,-0.5042
26.2,2.1377,0.79627,0.7937,-0.5072
26.3,2.1433,0.8036,0.80103,-0.5102
26.4,2.1489,0.81099,0.80843,-0.5132
26.5,2.1545,0.81854,0.81599,-0.5162
26.6,2.1601,0.82611,0.82356,-0.5192
26.7,2.1656,0.83367,0.83113,-0.5222
26.8,2.1711,0.84136,0.83882,-0.5253
26.9,2.1767,0.84919,0.84666,-0.5283
27,2.1821,0.85708,0.85455,-0.5313
27.3,2.1987,0.87887,0.87634,-0.542
27.4,2.2041,0.88666,0.88414,-0.5452
27.5,2.2095,0.89446,0.89194,-0.5485
27.6,2.2148,0.9024,0.89988,-0.5517
27.7,2.2201,0.91044,0.90793,-0.555
27.8,2.2255,0.91865,0.91614,-0.5583
27.9,2.2307,0.92691,0.92441,-0.5615
28,2.236,0.93528,0.93278,-0.5648
28.1,2.2412,0.94376,0.94127,-0.568
28.2,2.2464,0.95236,0.94987,-0.5713
28.3,2.2515,0.96104,0.95855,-0.5745
28.4,2.2567,0.96979,0.96732,-0.5778
28.5,2.2618,0.97867,0.9762,-0.581
28.6,2.2669,0.98777,0.9853,-0.5843
28.7,2.272,0.99697,0.99451,-0.5876
28.8,2.277,1.00609,1.00363,-0.5909
28.9,2.282,1.01541,1.01295,-0.5941
29,2.287,1.02485,1.02241,-0.5974
29.1,2.2919,1.03444,1.032,-0.6007
29.2,2.2968,1.04404,1.04161,-0.604
29.3,2.3018,1.05389,1.05147,-0.6074
29.4,2.3066,1.06376,1.06135,-0.6107
29.5,2.3115,1.07378,1.07137,-0.614
29.6,2.3163,1.08395,1.08155,-0.6173
29.7,2.321,1.09402,1.09162,-0.6206
29.8,2.3258,1.10437,1.10198,-0.624
29.9,2.3306,1.11494,1.11255,-0.6274
30,2.3353,1.12556,1.12318,-0.6307

