airfoilName st24.dat
Re 	1.500000e+05
M 	7.000000e-01
N 	4.500000e+00
VACC 	0 VACCflag 1
XTR 	1.00 	1.00 XTRflag 0
alpha,cl,cd,cdp,cm
-23.3,-1.2849,0.54355,0.53846,0.2015
-23.2,-1.2789,0.53898,0.53389,0.1992
-23.1,-1.2728,0.53421,0.52911,0.1969
-23,-1.2666,0.52954,0.52444,0.1946
-22.9,-1.2605,0.52483,0.51973,0.1923
-22.8,-1.2543,0.52023,0.51512,0.1901
-22.7,-1.2481,0.51562,0.51051,0.1878
-22.6,-1.2419,0.51108,0.50597,0.1856
-22.5,-1.2358,0.50656,0.50145,0.1833
-22.4,-1.2296,0.50208,0.49696,0.1811
-22.3,-1.2234,0.49762,0.4925,0.1789
-22.2,-1.2172,0.49323,0.48811,0.1767
-22.1,-1.2109,0.48886,0.48374,0.1745
-22,-1.2047,0.4845,0.47938,0.1723
-21.9,-1.1985,0.48022,0.47509,0.1701
-21.8,-1.1922,0.47595,0.47082,0.168
-21.7,-1.186,0.47169,0.46656,0.1658
-21.6,-1.1798,0.46748,0.46235,0.1637
-21.5,-1.1735,0.46332,0.45819,0.1615
-21.4,-1.1673,0.45921,0.45407,0.1594
-21.3,-1.161,0.45507,0.44993,0.1573
-21.2,-1.1547,0.451,0.44586,0.1552
-21.1,-1.1484,0.44699,0.44185,0.1531
-21,-1.1422,0.44297,0.43783,0.151
-20.9,-1.1359,0.43901,0.43387,0.149
-20.8,-1.1296,0.43507,0.4299,0.1469
-20.7,-1.1233,0.43119,0.42602,0.1449
-20.6,-1.117,0.4273,0.42213,0.1428
-20.5,-1.1107,0.42345,0.41828,0.1408
-20.4,-1.1044,0.41965,0.41448,0.1388
-20.3,-1.0981,0.41587,0.4107,0.1367
-20.2,-1.0918,0.41213,0.40695,0.1347
-20.1,-1.0855,0.4084,0.40323,0.1328
-20,-1.0792,0.40473,0.39955,0.1308
-19.9,-1.0729,0.40106,0.39589,0.1288
-19.8,-1.0666,0.39743,0.39226,0.1268
-19.7,-1.0603,0.39383,0.38865,0.1249
-19.6,-1.0539,0.39028,0.38511,0.1229
-19.5,-1.0476,0.38674,0.38156,0.121
-19.4,-1.0413,0.38322,0.37805,0.119
-19.3,-1.035,0.37973,0.37456,0.1171
-19.2,-1.0287,0.37628,0.37111,0.1152
-19.1,-1.0223,0.37286,0.36769,0.1133
-19,-1.016,0.36946,0.36428,0.1114
-18.9,-1.0097,0.36609,0.36092,0.1095
-18.8,-1.0034,0.36274,0.35757,0.1076
-18.7,-0.997,0.35942,0.35425,0.1057
-18.6,-0.9907,0.35614,0.35097,0.1039
-18.5,-0.9844,0.35288,0.34771,0.102
-18.4,-0.9781,0.34964,0.34447,0.1001
-18.3,-0.9718,0.34643,0.34126,0.0983
-18.2,-0.9655,0.34325,0.33809,0.0964
-18.1,-0.9591,0.34009,0.33492,0.0946
-18,-0.9528,0.33696,0.33179,0.0928
-17.9,-0.9465,0.33384,0.32866,0.091
-17.8,-0.9402,0.33074,0.32556,0.0891
-17.7,-0.9339,0.32766,0.32248,0.0873
-17.6,-0.9276,0.32461,0.31943,0.0855
-17.5,-0.9213,0.32155,0.31637,0.0837
-17.4,-0.9149,0.3185,0.31333,0.0819
-17.3,-0.9086,0.31547,0.31029,0.0801
-17.2,-0.9023,0.31245,0.30727,0.0783
-17.1,-0.8959,0.30941,0.30424,0.0766
-17,-0.8895,0.30637,0.3012,0.0748
-16.9,-0.883,0.30333,0.29816,0.073
-16.6,-0.8629,0.29394,0.28881,0.0674
-16.5,-0.8569,0.29107,0.28594,0.0659
-16.4,-0.8509,0.28823,0.2831,0.0644
-16.3,-0.8449,0.28541,0.28028,0.0629
-16.2,-0.8389,0.28262,0.27749,0.0614
-16.1,-0.8329,0.27984,0.27472,0.06
-16,-0.827,0.27709,0.27197,0.0585
-15.9,-0.821,0.27436,0.26924,0.057
-15.8,-0.8151,0.27166,0.26654,0.0556
-15.7,-0.8091,0.26897,0.26385,0.0542
-15.5,-0.7976,0.26394,0.25883,0.0513
-15.4,-0.7917,0.26131,0.2562,0.0499
-15.3,-0.7858,0.25871,0.2536,0.0485
-15.2,-0.7799,0.25611,0.25101,0.0471
-15.1,-0.774,0.25354,0.24844,0.0458
-15,-0.7681,0.25099,0.24589,0.0444
-14.9,-0.7622,0.24845,0.24336,0.0431
-14.8,-0.7564,0.24593,0.24082,0.0417
-14.7,-0.7505,0.24343,0.23832,0.0404
-14.6,-0.7447,0.24095,0.23584,0.0391
-14.5,-0.7389,0.23848,0.23338,0.0378
-14.4,-0.7331,0.23604,0.23093,0.0365
-14.3,-0.7273,0.2336,0.22851,0.0352
-14.2,-0.7215,0.23119,0.22609,0.034
-14.1,-0.7158,0.2288,0.22371,0.0327
-14,-0.71,0.22642,0.22133,0.0315
-13.9,-0.7043,0.22406,0.21898,0.0302
-13.8,-0.6986,0.22173,0.21664,0.029
-13.7,-0.693,0.2194,0.21432,0.0278
-13.6,-0.6873,0.21709,0.21202,0.0266
-13.5,-0.6816,0.21479,0.20972,0.0254
-13.4,-0.676,0.21252,0.20745,0.0242
-13.3,-0.6704,0.21027,0.2052,0.0231
-13.2,-0.6648,0.20802,0.20296,0.0219
-13.1,-0.6593,0.2058,0.20074,0.0208
-13,-0.6537,0.20359,0.19854,0.0196
-12.9,-0.6482,0.20139,0.19634,0.0185
-12.8,-0.6427,0.19921,0.19417,0.0174
-12.7,-0.6372,0.19704,0.19201,0.0163
-12.6,-0.6318,0.19489,0.18986,0.0152
-12.5,-0.6264,0.19276,0.18773,0.0141
-12.4,-0.6209,0.19063,0.18561,0.013
-12.3,-0.6155,0.18852,0.1835,0.0119
-12.2,-0.6101,0.18642,0.18141,0.0108
-12.1,-0.6048,0.18433,0.17933,0.0098
-12,-0.5994,0.18226,0.17726,0.0087
-11.9,-0.5941,0.18019,0.17518,0.0077
-11.8,-0.5887,0.17815,0.17314,0.0066
-11.7,-0.5835,0.1761,0.17111,0.0056
-11.6,-0.5782,0.17408,0.16908,0.0046
-11.5,-0.5729,0.17206,0.16707,0.0036
-11.4,-0.5677,0.17005,0.16507,0.0026
-11.3,-0.5625,0.16805,0.16307,0.0016
-11.2,-0.5573,0.16606,0.16109,0.0006
-11.1,-0.5521,0.16407,0.15911,-0.0005
-11,-0.5469,0.16208,0.15713,-0.0015
-10.9,-0.5417,0.16009,0.15515,-0.0025
-10.8,-0.5364,0.15809,0.15315,-0.0036
-10.7,-0.5309,0.15605,0.15112,-0.0048
-10.6,-0.5259,0.15414,0.14924,-0.0058
-10.5,-0.5212,0.15232,0.14744,-0.0066
-10.4,-0.5165,0.15053,0.14565,-0.0073
-10.3,-0.5118,0.14875,0.14388,-0.0081
-10.2,-0.5072,0.14698,0.14211,-0.0088
-10.1,-0.5026,0.14525,0.14039,-0.0095
-10,-0.498,0.14352,0.13868,-0.0103
-9.9,-0.4935,0.14181,0.13698,-0.011
-9.8,-0.489,0.14011,0.13529,-0.0116
-9.6,-0.4803,0.13698,0.13218,-0.0131
-9.5,-0.4759,0.13533,0.13053,-0.0137
-9.4,-0.4715,0.13369,0.1289,-0.0144
-9.3,-0.4672,0.13206,0.12729,-0.015
-9.2,-0.4629,0.13045,0.12569,-0.0156
-9.1,-0.4586,0.12885,0.1241,-0.0162
-9,-0.4545,0.12727,0.12254,-0.0168
-8.9,-0.4504,0.12571,0.12099,-0.0174
-8.8,-0.4463,0.12417,0.11946,-0.0179
-8.7,-0.4424,0.12264,0.11794,-0.0184
-8.6,-0.4386,0.12114,0.11643,-0.0189
-8.5,-0.4348,0.11965,0.11496,-0.0193
-8.4,-0.4312,0.11818,0.1135,-0.0198
-8.3,-0.4276,0.11673,0.11207,-0.0201
-8.2,-0.4242,0.1153,0.11066,-0.0205
-8.1,-0.421,0.11389,0.10927,-0.0208
-8,-0.4179,0.11251,0.10791,-0.0211
-7.9,-0.415,0.11116,0.10657,-0.0213
-7.8,-0.4123,0.10983,0.10526,-0.0215
-7.7,-0.4098,0.10852,0.10397,-0.0216
-7.6,-0.4075,0.10724,0.10271,-0.0217
-7.5,-0.4054,0.10597,0.10147,-0.0217
-7.4,-0.4035,0.10474,0.10026,-0.0217
-7.3,-0.4018,0.10353,0.09907,-0.0216
-7.2,-0.4004,0.10235,0.09791,-0.0215
-7.1,-0.3993,0.10119,0.09678,-0.0213
-7,-0.3984,0.10006,0.09567,-0.0211
-6.9,-0.3978,0.09895,0.0946,-0.0208
-6.8,-0.3976,0.09788,0.09355,-0.0204
-6.7,-0.3977,0.09684,0.09254,-0.02
-6.6,-0.3982,0.09582,0.09155,-0.0195
-6.5,-0.399,0.09484,0.0906,-0.0189
-6.4,-0.4003,0.09388,0.08968,-0.0182
-6.3,-0.402,0.09295,0.08878,-0.0175
-6.2,-0.3988,0.09157,0.08742,-0.0183
-6.1,-0.3909,0.08976,0.08564,-0.0206
-6,-0.3833,0.08817,0.08405,-0.0223
-5.9,-0.3759,0.0866,0.08249,-0.0239
-5.8,-0.3687,0.08508,0.08097,-0.0255
-5.7,-0.3611,0.08354,0.07944,-0.0272
-5.6,-0.3522,0.08193,0.07782,-0.0293
-5.5,-0.3455,0.08048,0.07638,-0.0308
-5.4,-0.3373,0.07894,0.07484,-0.0326
-5.3,-0.3271,0.07728,0.07318,-0.0351
-5.2,-0.3171,0.07565,0.07155,-0.0374
-5.1,-0.3097,0.0742,0.07011,-0.039
-5,-0.2993,0.07259,0.06849,-0.0414
-4.9,-0.2885,0.07096,0.06685,-0.0439
-4.8,-0.2765,0.06929,0.06517,-0.0467
-4.7,-0.2689,0.0679,0.06377,-0.0483
-4.6,-0.2589,0.06636,0.06224,-0.0505
-4.5,-0.2473,0.06476,0.06062,-0.0531
-4.4,-0.2343,0.06308,0.05894,-0.0561
-4.2,-0.2131,0.06004,0.05588,-0.0605
-4.1,-0.1999,0.05838,0.05421,-0.0633
-4,-0.1842,0.05659,0.05239,-0.0668
-3.9,-0.1633,0.05382,0.04956,-0.0736
-3.8,-0.1544,0.0525,0.04826,-0.0749
-3.7,-0.1415,0.05106,0.0468,-0.0771
-3.6,-0.1259,0.04951,0.04522,-0.0799
-3.5,-0.1073,0.04783,0.0435,-0.0833
-3.4,-0.0885,0.04617,0.0418,-0.0868
-3.2,-0.0617,0.04341,0.03897,-0.0906
-3.1,-0.0425,0.04177,0.03727,-0.0938
-3,-0.0206,0.03999,0.03542,-0.0976
-2.9,0.0018,0.03819,0.03354,-0.1014
-2.8,0.0144,0.03687,0.03216,-0.1027
-2.7,0.0354,0.03507,0.03026,-0.106
-2.6,0.059,0.03303,0.02809,-0.1099
-2.5,0.0849,0.0308,0.0257,-0.1143
-2.4,0.1077,0.02946,0.02425,-0.1169
-2.3,0.1226,0.02842,0.02312,-0.1177
-2.2,0.1428,0.02712,0.02169,-0.1196
-2.1,0.1666,0.02543,0.01978,-0.1224
-2,0.1917,0.02337,0.0174,-0.1256
-1.9,0.2158,0.02213,0.01597,-0.1277
-1.8,0.2332,0.02137,0.01505,-0.1281
-1.7,0.2513,0.02052,0.01401,-0.1287
-1.6,0.273,0.01948,0.01269,-0.1299
-1.5,0.2949,0.01868,0.01165,-0.1309
-1.4,0.3168,0.01807,0.01085,-0.1318
-1.3,0.3332,0.01754,0.01013,-0.1315
-1.2,0.3516,0.01702,0.00942,-0.1316
-1.1,0.3715,0.01684,0.00919,-0.1318
-1,0.3927,0.0164,0.00859,-0.1323
-0.9,0.4075,0.0162,0.00834,-0.1315
-0.8,0.4308,0.0158,0.00784,-0.132
-0.7,0.444,0.01578,0.00782,-0.1311
-0.6,0.4625,0.0156,0.00758,-0.1311
-0.5,0.4802,0.01536,0.00728,-0.1307
-0.4,0.4985,0.01523,0.00716,-0.1307
-0.3,0.516,0.01512,0.00704,-0.1304
-0.2,0.534,0.01499,0.00689,-0.1302
-0.1,0.5515,0.01487,0.00675,-0.13
0,0.5714,0.01468,0.00655,-0.13
0.1,0.5866,0.01467,0.00658,-0.1295
0.2,0.6065,0.01454,0.00644,-0.1296
0.3,0.6233,0.01444,0.00635,-0.1292
0.4,0.6421,0.01429,0.00619,-0.1289
0.5,0.6605,0.01417,0.0061,-0.1287
0.6,0.6799,0.01401,0.00593,-0.1285
0.7,0.6982,0.01392,0.00584,-0.1283
0.8,0.7175,0.01377,0.00567,-0.128
0.9,0.7362,0.01366,0.00557,-0.1278
1,0.7548,0.01356,0.00543,-0.1273
1.1,0.7721,0.01352,0.00531,-0.1267
1.2,0.7862,0.01357,0.00518,-0.1253
1.4,0.8094,0.01387,0.00532,-0.1225
1.5,0.8185,0.01411,0.00548,-0.1209
1.7,0.8257,0.01363,0.00578,-0.1149
1.8,0.8324,0.01417,0.00606,-0.1132
1.9,0.8433,0.01455,0.00631,-0.112
2,0.8549,0.0149,0.00656,-0.1109
2.1,0.867,0.01524,0.00683,-0.1098
2.2,0.8793,0.01558,0.00709,-0.1088
2.3,0.8922,0.01588,0.00736,-0.1078
2.4,0.9038,0.01626,0.00767,-0.1067
2.5,0.9166,0.01658,0.00797,-0.1057
2.6,0.9299,0.01689,0.00827,-0.1047
2.7,0.943,0.01721,0.00858,-0.1036
2.8,0.9559,0.01754,0.00891,-0.1026
2.9,0.9695,0.01785,0.00924,-0.1016
3,0.9817,0.01821,0.00958,-0.1004
3.1,0.9952,0.01854,0.00994,-0.0993
3.2,1.0078,0.01891,0.01032,-0.0981
3.3,1.0216,0.01925,0.01074,-0.097
3.4,1.035,0.01962,0.01115,-0.0959
3.5,1.0475,0.02003,0.01158,-0.0946
3.6,1.0608,0.02039,0.01199,-0.0934
3.7,1.0731,0.02082,0.01245,-0.0921
3.8,1.0868,0.02125,0.01296,-0.0909
3.9,1.1001,0.02171,0.01351,-0.0896
4,1.1123,0.02221,0.01407,-0.0882
4.1,1.1251,0.02274,0.01468,-0.0868
4.2,1.1369,0.02321,0.01524,-0.0853
4.3,1.1484,0.0238,0.0159,-0.0838
4.4,1.1609,0.02448,0.01674,-0.0824
4.5,1.172,0.02519,0.01759,-0.0809
4.6,1.1814,0.02592,0.01843,-0.0792
4.7,1.1894,0.02668,0.01928,-0.0773
4.8,1.1977,0.02767,0.02046,-0.0757
4.9,1.2039,0.02845,0.02139,-0.0738
5,1.2089,0.02938,0.02245,-0.0719
5.1,1.2129,0.03054,0.02376,-0.0702
5.2,1.2152,0.03181,0.02522,-0.0686
5.3,1.216,0.03312,0.02674,-0.067
5.4,1.2157,0.03447,0.02825,-0.0655
5.5,1.2143,0.03588,0.0298,-0.0641
5.6,1.2121,0.03733,0.03139,-0.0629
5.7,1.2092,0.03885,0.03303,-0.0618
5.8,1.2056,0.04042,0.03472,-0.0609
5.9,1.2016,0.04206,0.03646,-0.0602
6,1.1973,0.04376,0.03825,-0.0597
6.2,1.1832,0.04793,0.04261,-0.0602
6.3,1.1753,0.05023,0.04501,-0.061
6.6,1.1505,0.05791,0.05293,-0.066
6.7,1.144,0.0605,0.05558,-0.0678
6.8,1.1382,0.06316,0.05828,-0.0699
6.9,1.1331,0.06583,0.06099,-0.072
7,1.1289,0.06847,0.06367,-0.0741
7.1,1.1255,0.07106,0.06628,-0.076
7.2,1.123,0.07356,0.0688,-0.0779
7.4,1.1125,0.08005,0.07531,-0.0834
7.5,1.1084,0.08308,0.07836,-0.0859
7.6,1.1049,0.08598,0.08127,-0.0881
7.7,1.102,0.08878,0.08407,-0.0902
7.8,1.0997,0.09147,0.08678,-0.0921
7.9,1.098,0.09408,0.08939,-0.0939
8,1.0968,0.09661,0.09192,-0.0955
8.1,1.096,0.09907,0.09438,-0.0971
8.2,1.0958,0.10145,0.09677,-0.0985
8.3,1.0959,0.10376,0.09908,-0.0999
8.4,1.0965,0.10601,0.10133,-0.1011
8.5,1.0965,0.10833,0.10363,-0.1029
8.6,1.0953,0.11115,0.10645,-0.1049
8.7,1.0948,0.11385,0.10915,-0.1068
8.8,1.0948,0.11644,0.11174,-0.1085
8.9,1.0953,0.11896,0.11427,-0.1101
9,1.0962,0.12142,0.11673,-0.1116
9.1,1.0973,0.12381,0.11913,-0.1131
9.2,1.0988,0.12614,0.12146,-0.1144
9.3,1.1006,0.12844,0.12377,-0.1157
9.4,1.1027,0.13068,0.12601,-0.117
9.5,1.105,0.13287,0.12821,-0.1182
9.6,1.1076,0.13502,0.13037,-0.1193
9.7,1.1103,0.13712,0.13247,-0.1203
9.8,1.1133,0.13917,0.13453,-0.1213
9.9,1.1164,0.14117,0.13654,-0.1222
10,1.1191,0.14335,0.13869,-0.1234
10.1,1.1201,0.14643,0.14178,-0.1257
10.2,1.1195,0.15014,0.14549,-0.1292
10.3,1.1223,0.15257,0.14793,-0.1307
10.4,1.1253,0.15497,0.15033,-0.1322
10.5,1.1285,0.15731,0.15268,-0.1336
10.6,1.1318,0.15962,0.15499,-0.1349
10.7,1.1353,0.16189,0.15727,-0.1362
10.8,1.1389,0.16412,0.15951,-0.1374
10.9,1.1427,0.16632,0.16172,-0.1386
11,1.1466,0.16848,0.16388,-0.1398
11.1,1.1506,0.17061,0.16602,-0.1409
11.2,1.1547,0.17269,0.16811,-0.142
11.3,1.1589,0.17474,0.17016,-0.143
11.4,1.162,0.17763,0.17303,-0.145
11.5,1.1653,0.18061,0.17601,-0.1472
11.6,1.169,0.18343,0.17887,-0.1491
11.7,1.1728,0.18616,0.1816,-0.1509
11.8,1.1762,0.18909,0.18454,-0.1534
11.9,1.1806,0.19154,0.187,-0.1549
12,1.185,0.19396,0.18942,-0.1564
12.1,1.1896,0.19634,0.19181,-0.1578
12.2,1.1943,0.1987,0.19418,-0.1592
12.3,1.199,0.20104,0.19652,-0.1606
12.4,1.2039,0.20334,0.19882,-0.162
12.5,1.2087,0.20561,0.2011,-0.1633
12.6,1.2136,0.20785,0.20334,-0.1645
12.7,1.2186,0.21005,0.20555,-0.1657
12.8,1.2231,0.21308,0.20856,-0.1679
12.9,1.2277,0.21621,0.2117,-0.1701
13,1.2326,0.21917,0.21466,-0.1721
13.1,1.2375,0.22203,0.21752,-0.174
13.2,1.2426,0.22484,0.22033,-0.1759
13.3,1.2474,0.22765,0.22315,-0.1782
13.4,1.2526,0.23023,0.22573,-0.1799
13.5,1.258,0.23281,0.22832,-0.1815
13.6,1.2634,0.23536,0.23087,-0.1831
13.7,1.2688,0.2379,0.23341,-0.1846
13.8,1.2743,0.24043,0.23594,-0.1862
13.9,1.2798,0.24293,0.23845,-0.1877
14,1.2853,0.24542,0.24094,-0.1892
14.1,1.2909,0.24789,0.24341,-0.1907
14.2,1.2964,0.25048,0.24598,-0.1923
14.3,1.302,0.25397,0.24947,-0.1948
14.4,1.3077,0.25724,0.25274,-0.197
14.5,1.3134,0.26036,0.25587,-0.199
14.6,1.3192,0.26342,0.25893,-0.201
14.7,1.325,0.26644,0.26195,-0.2029
14.8,1.3306,0.26935,0.26487,-0.2054
14.9,1.3365,0.27221,0.26772,-0.2072
15,1.3424,0.27505,0.27057,-0.209
15.1,1.3484,0.27789,0.27341,-0.2107
15.2,1.3544,0.28073,0.27628,-0.2125
15.3,1.3604,0.28357,0.27912,-0.2143
15.4,1.3664,0.28639,0.28195,-0.216
15.5,1.3725,0.28923,0.28478,-0.2178
15.6,1.3785,0.29205,0.28761,-0.2195
15.7,1.3845,0.29487,0.29043,-0.2213
15.8,1.3906,0.298,0.29353,-0.2232
15.9,1.3969,0.3017,0.29724,-0.2257
16,1.4031,0.30522,0.30076,-0.2279
16.1,1.4094,0.30861,0.30415,-0.23
16.2,1.4157,0.312,0.30754,-0.2321
16.3,1.422,0.31532,0.31086,-0.2342
16.4,1.4283,0.31863,0.31418,-0.2363
16.5,1.4346,0.32194,0.31749,-0.2383
16.6,1.4409,0.32526,0.32081,-0.2403
16.7,1.4472,0.32856,0.32412,-0.2423
16.8,1.4536,0.33188,0.32744,-0.2443
16.9,1.4599,0.33523,0.33079,-0.2464
17,1.4663,0.33856,0.33413,-0.2484
17.1,1.4726,0.3419,0.33747,-0.2504
17.3,1.4851,0.34786,0.34343,-0.2546
17.4,1.4914,0.35116,0.34673,-0.2566
17.5,1.4978,0.35449,0.35006,-0.2586
17.6,1.5041,0.35782,0.35339,-0.2606
17.7,1.5105,0.36117,0.35675,-0.2626
17.8,1.5171,0.36532,0.36088,-0.2651
17.9,1.5236,0.36922,0.36478,-0.2675
18,1.5302,0.37314,0.3687,-0.2698
18.1,1.5367,0.37693,0.37249,-0.2721
18.2,1.5432,0.38073,0.3763,-0.2743
18.3,1.5497,0.38453,0.3801,-0.2766
18.4,1.5562,0.38832,0.38389,-0.2788
18.5,1.5627,0.39213,0.38772,-0.281
18.6,1.5692,0.39595,0.39155,-0.2833
18.7,1.5757,0.39978,0.39538,-0.2855
18.8,1.5821,0.40363,0.39923,-0.2877
18.9,1.5886,0.40751,0.40312,-0.29
19,1.5951,0.41141,0.40702,-0.2922
19.1,1.6016,0.41533,0.41094,-0.2945
19.2,1.6081,0.41928,0.4149,-0.2967
19.3,1.6146,0.42324,0.41886,-0.299
19.4,1.6211,0.42726,0.42288,-0.3012
19.5,1.6275,0.43128,0.42691,-0.3035
19.6,1.634,0.43533,0.43096,-0.3058
19.7,1.6405,0.43943,0.43506,-0.308
19.8,1.647,0.44354,0.43918,-0.3103
19.9,1.6534,0.44769,0.44334,-0.3126
20,1.6599,0.45188,0.44753,-0.3149
20.1,1.6664,0.45609,0.45174,-0.3172
20.2,1.6728,0.46036,0.45601,-0.3196
20.3,1.6793,0.46462,0.46028,-0.3219
20.4,1.6857,0.46894,0.4646,-0.3242
20.5,1.6921,0.47329,0.46895,-0.3266
20.6,1.6986,0.47768,0.47335,-0.3289
20.7,1.705,0.4821,0.47778,-0.3313
20.8,1.7114,0.48659,0.48227,-0.3337
20.9,1.7179,0.49107,0.48676,-0.3361
21,1.7243,0.49563,0.49131,-0.3385
21.1,1.7308,0.50048,0.49614,-0.3411
21.2,1.7374,0.50552,0.50119,-0.3438
21.3,1.7439,0.5105,0.50618,-0.3465
21.4,1.7504,0.51543,0.51113,-0.3491
21.5,1.7569,0.52038,0.51608,-0.3517
21.6,1.7634,0.5253,0.52101,-0.3543
21.7,1.77,0.5296,0.52531,-0.3576
21.8,1.7764,0.53457,0.53028,-0.3602
21.9,1.7828,0.53954,0.53526,-0.3627
22,1.7892,0.5446,0.54032,-0.3653
22.1,1.7956,0.54967,0.5454,-0.3679
22.2,1.802,0.55479,0.55053,-0.3705
22.3,1.8084,0.55999,0.55573,-0.3731
22.4,1.8148,0.56522,0.56096,-0.3757
22.5,1.8211,0.57046,0.56621,-0.3783
22.6,1.8275,0.57578,0.57153,-0.3809
22.7,1.8338,0.58117,0.57693,-0.3836
22.8,1.8401,0.58656,0.58232,-0.3862
22.9,1.8464,0.59206,0.58783,-0.3888
23,1.8527,0.59758,0.59335,-0.3915
23.1,1.859,0.60315,0.59893,-0.3942
23.2,1.8653,0.6088,0.60458,-0.3969
23.3,1.8716,0.61451,0.6103,-0.3995
23.4,1.8778,0.62019,0.61598,-0.4022
23.5,1.8841,0.62602,0.62182,-0.4049
23.6,1.8903,0.63186,0.62767,-0.4076
23.7,1.8965,0.63783,0.63364,-0.4104
23.8,1.9027,0.64376,0.63958,-0.4131
23.9,1.9089,0.64986,0.64568,-0.4158
24,1.915,0.65589,0.65172,-0.4186
24.1,1.9212,0.66205,0.65788,-0.4213
24.2,1.9274,0.66831,0.66415,-0.4241
24.3,1.9335,0.67458,0.67043,-0.4269

