airfoilName st24.dat
Re 	10000
M 	7.000000e-01
N 	4.500000e+00
VACC 	0 VACCflag 1
XTR 	1.00 	1.00 XTRflag 0
alpha,cl,cd,cdp,cm
-11.6,-0.6367,0.219,0.19961,-0.0034
-11.3,-0.6218,0.21237,0.19298,-0.0058
-11.2,-0.6103,0.20825,0.18865,-0.0069
-11.1,-0.6068,0.20664,0.18706,-0.0079
-11,-0.6036,0.20512,0.18559,-0.009
-10.7,-0.5935,0.20018,0.18094,-0.012
-10.3,-0.5714,0.19069,0.17153,-0.014
-10.2,-0.5663,0.18849,0.16936,-0.0144
-10.1,-0.5612,0.18632,0.16721,-0.0149
-10,-0.5563,0.1842,0.16511,-0.0154
-9.9,-0.5514,0.18212,0.16306,-0.0159
-9.8,-0.5466,0.18007,0.16104,-0.0164
-9.7,-0.5419,0.17807,0.15907,-0.0168
-9.6,-0.5373,0.17611,0.15714,-0.0173
-9.5,-0.532,0.17419,0.15507,-0.0185
-9.4,-0.5309,0.17322,0.15433,-0.0196
-9.3,-0.5257,0.17104,0.15217,-0.0199
-9.2,-0.5207,0.16894,0.1501,-0.0201
-9.1,-0.5159,0.1669,0.14809,-0.0204
-9,-0.5112,0.16493,0.14614,-0.0207
-8.8,-0.5021,0.16112,0.1424,-0.0213
-8.7,-0.498,0.1593,0.14062,-0.0216
-8.6,-0.4939,0.15753,0.13888,-0.0219
-8.5,-0.4899,0.15579,0.13718,-0.0222
-8.1,-0.4753,0.14923,0.13072,-0.0235
-8,-0.4719,0.14767,0.1292,-0.0239
-7.9,-0.4685,0.14614,0.12771,-0.0244
-7.8,-0.4653,0.14464,0.12626,-0.0248
-7.7,-0.4622,0.14318,0.12485,-0.0253
-7.6,-0.4591,0.14175,0.12346,-0.0259
-7.5,-0.4564,0.1404,0.12215,-0.0264
-7.4,-0.4539,0.13908,0.12089,-0.0271
-7.3,-0.4517,0.13783,0.11968,-0.0277
-7.2,-0.4498,0.13665,0.11855,-0.0285
-7.1,-0.4484,0.13556,0.11752,-0.0294
-7,-0.4476,0.13462,0.11663,-0.0304
-6.9,-0.4443,0.13306,0.11526,-0.0306
-6.8,-0.4399,0.13128,0.11352,-0.0305
-6.7,-0.4358,0.12959,0.11187,-0.0304
-6.5,-0.4282,0.12636,0.10873,-0.0303
-6.2,-0.4217,0.1226,0.10512,-0.031
-6.1,-0.4193,0.12132,0.10389,-0.0313
-6,-0.4172,0.12009,0.10271,-0.0318
-5.9,-0.4154,0.11892,0.10158,-0.0323
-5.8,-0.4139,0.11782,0.10052,-0.033
-5.7,-0.4128,0.11682,0.09956,-0.0339
-5.6,-0.4114,0.11572,0.09865,-0.0346
-5.5,-0.4072,0.11405,0.09702,-0.0342
-5.4,-0.4033,0.11245,0.09548,-0.0339
-5.3,-0.3993,0.1109,0.09397,-0.0337
-5.2,-0.3957,0.10943,0.09254,-0.0335
-5.1,-0.3922,0.10799,0.09115,-0.0334
-5,-0.3888,0.1066,0.0898,-0.0334
-4.9,-0.3856,0.10524,0.08849,-0.0334
-4.7,-0.3792,0.10262,0.08594,-0.0338
-4.6,-0.3761,0.10136,0.08472,-0.0341
-4.5,-0.3731,0.10014,0.08353,-0.0346
-4.4,-0.37,0.09896,0.08237,-0.0353
-4.3,-0.367,0.09784,0.08126,-0.0363
-4.2,-0.3641,0.09682,0.08016,-0.0377
-4.1,-0.3595,0.0953,0.07882,-0.0373
-4,-0.3545,0.09379,0.07736,-0.037
-3.9,-0.3499,0.09236,0.07597,-0.0368
-3.8,-0.3452,0.09097,0.0746,-0.0368
-3.7,-0.3403,0.08961,0.07327,-0.0369
-3.6,-0.3351,0.08828,0.07196,-0.0373
-3.5,-0.3298,0.08699,0.07067,-0.0378
-3.3,-0.3176,0.0845,0.06815,-0.04
-3.2,-0.3102,0.08336,0.06692,-0.0422
-3,-0.2972,0.08046,0.0642,-0.0417
-2.9,-0.2901,0.07908,0.06283,-0.0419
-2.7,-0.2735,0.07643,0.06013,-0.0435
-2.6,-0.2633,0.07515,0.05878,-0.0452
-2.5,-0.251,0.07394,0.05751,-0.0479
-2.3,-0.2334,0.07134,0.0549,-0.0485
-2.2,-0.2185,0.07013,0.05348,-0.0515
-2.1,-0.2086,0.06876,0.05222,-0.0517
-2,-0.1981,0.06743,0.05088,-0.052
-1.9,-0.1852,0.06617,0.04954,-0.0533
-1.7,-0.156,0.06372,0.04692,-0.0567
-1.6,-0.1434,0.06249,0.04564,-0.0574
-1.5,-0.1262,0.06136,0.04424,-0.0596
-1.4,-0.1113,0.06019,0.04306,-0.0608
-1.3,-0.0971,0.05905,0.04186,-0.0617
-1.2,-0.0775,0.05805,0.04066,-0.0643
-1.1,-0.0616,0.0571,0.03961,-0.0657
-1,-0.0487,0.05599,0.03853,-0.0659
-0.9,-0.0292,0.05509,0.03745,-0.068
-0.8,-0.0151,0.05408,0.03643,-0.0684
-0.7,0.0026,0.05321,0.03545,-0.0698
-0.5,0.0358,0.05151,0.03362,-0.0717
-0.4,0.0517,0.05072,0.03286,-0.0726
0,0.1174,0.04784,0.03002,-0.0754
0.1,0.1313,0.04706,0.02944,-0.0754
0.2,0.1473,0.04641,0.02885,-0.0758
0.3,0.163,0.0458,0.02836,-0.0761
0.4,0.1777,0.04519,0.02789,-0.076
0.5,0.1872,0.04428,0.0274,-0.0746
0.6,0.1988,0.04363,0.02699,-0.0735
0.7,0.2082,0.04301,0.0266,-0.0718
0.8,0.2171,0.04385,0.0258,-0.0689
0.9,0.2382,0.04431,0.02569,-0.0706
1,0.2573,0.04477,0.02564,-0.0718
1.1,0.275,0.04522,0.02564,-0.0728
1.2,0.2916,0.04567,0.02568,-0.0735
1.3,0.3073,0.04612,0.02577,-0.074
1.4,0.3222,0.04658,0.02591,-0.0745
1.5,0.3365,0.04706,0.0261,-0.0748
1.6,0.3502,0.04754,0.02632,-0.0751
1.7,0.3635,0.04804,0.0266,-0.0753
1.8,0.3764,0.04855,0.02691,-0.0756
1.9,0.3889,0.04907,0.02727,-0.0758
2,0.4011,0.04962,0.02765,-0.076
2.1,0.413,0.05018,0.02809,-0.0762
2.2,0.4246,0.05076,0.02856,-0.0764
2.3,0.4388,0.05143,0.02914,-0.0772
2.4,0.4648,0.05246,0.03006,-0.0801
2.5,0.4901,0.0535,0.03102,-0.083
2.6,0.5143,0.05453,0.03201,-0.0856
2.7,0.5378,0.05556,0.03303,-0.0882
2.8,0.5606,0.0566,0.03408,-0.0906
2.9,0.5831,0.05765,0.03517,-0.0929
3,0.6057,0.05873,0.03631,-0.0952
3.1,0.6279,0.0598,0.03744,-0.0973
3.2,0.6431,0.06068,0.0384,-0.0982
3.3,0.6674,0.06173,0.03959,-0.1002
3.4,0.6791,0.06253,0.04049,-0.1003
3.5,0.7003,0.06358,0.04165,-0.1017
3.6,0.7101,0.06436,0.0425,-0.1014
3.7,0.727,0.06531,0.04352,-0.1019
3.8,0.7388,0.06615,0.04447,-0.1016
3.9,0.7531,0.06727,0.04569,-0.1022
4,0.7609,0.06809,0.04655,-0.1014
4.1,0.7731,0.06923,0.0478,-0.1017
4.2,0.7835,0.07013,0.04874,-0.101
4.3,0.7942,0.07131,0.05001,-0.1012
4.4,0.8051,0.07254,0.05132,-0.1013
4.5,0.8191,0.07352,0.05235,-0.1007
4.6,0.8304,0.0748,0.05372,-0.1008
4.7,0.842,0.07613,0.05512,-0.1009
4.8,0.8436,0.07708,0.0561,-0.0996
4.9,0.8533,0.07845,0.05753,-0.0996
5,0.8635,0.07986,0.059,-0.0996
5.1,0.8719,0.08092,0.0601,-0.0985
5.2,0.8786,0.08237,0.06159,-0.0984
5.3,0.887,0.08385,0.06311,-0.0984
5.4,0.8977,0.08537,0.06478,-0.0983
5.6,0.9095,0.08807,0.06752,-0.0971
5.7,0.9211,0.08965,0.0692,-0.097
5.8,0.9223,0.09127,0.07081,-0.0971
5.9,0.9308,0.09291,0.07247,-0.097
6.1,0.9449,0.09582,0.07541,-0.0958
6.2,0.945,0.09754,0.07716,-0.0961
6.3,0.9539,0.09927,0.0789,-0.096
6.4,0.9577,0.10102,0.0807,-0.0962
6.5,0.9641,0.10279,0.08248,-0.0962
6.6,0.9693,0.10459,0.08433,-0.0964
6.7,0.9709,0.10595,0.08567,-0.0956
6.8,0.9766,0.10778,0.08749,-0.0957
6.9,0.9799,0.10963,0.08938,-0.0961
7,0.9888,0.11151,0.09127,-0.096
7.1,0.9886,0.11338,0.09316,-0.0966
7.2,1.0014,0.11533,0.09521,-0.0962
7.3,0.9985,0.11721,0.09703,-0.0971
7.4,1.0014,0.11869,0.09849,-0.0966
7.5,1.0031,0.12062,0.10045,-0.0972
7.6,1.0149,0.12267,0.10258,-0.0969
7.7,1.0131,0.12459,0.10445,-0.0979
7.8,1.0167,0.12659,0.10649,-0.0984
7.9,1.0293,0.12873,0.10872,-0.098
8,1.0261,0.13066,0.11058,-0.0992
8.1,1.0293,0.1327,0.11266,-0.0999
8.2,1.0398,0.1349,0.11493,-0.0997
8.3,1.0337,0.13635,0.1163,-0.1005
8.4,1.0428,0.13856,0.11857,-0.1005
8.5,1.0462,0.14067,0.12077,-0.1012
8.6,1.0459,0.14268,0.1228,-0.1024
8.7,1.0508,0.14484,0.125,-0.103
8.8,1.0608,0.14719,0.12742,-0.1029
8.9,1.0618,0.14927,0.12945,-0.1041
9,1.0621,0.15132,0.13151,-0.1053
9.1,1.0667,0.15353,0.13377,-0.106
9.2,1.0755,0.15595,0.13624,-0.1062
9.3,1.0801,0.15821,0.13846,-0.1069
9.4,1.0749,0.1596,0.13983,-0.1083
9.5,1.0832,0.16204,0.14233,-0.1085
9.6,1.0886,0.16438,0.14463,-0.1092
9.7,1.0877,0.16638,0.14664,-0.1109
9.8,1.0904,0.16857,0.14885,-0.1121
9.9,1.0959,0.17094,0.15126,-0.1129
10,1.1041,0.1735,0.15388,-0.1132
10.1,1.1101,0.17596,0.15629,-0.1139
10.2,1.1093,0.17794,0.15828,-0.1158
10.3,1.1118,0.18015,0.16051,-0.1171
10.4,1.1166,0.18254,0.16293,-0.1181
10.5,1.1235,0.18512,0.16556,-0.1187
10.6,1.1328,0.18794,0.16844,-0.1189
10.7,1.1341,0.19009,0.17051,-0.1206
10.8,1.1302,0.19131,0.17171,-0.1227
10.9,1.1367,0.19391,0.17435,-0.1234
11,1.1449,0.19672,0.17721,-0.1238
11.1,1.1499,0.19924,0.17966,-0.1249
11.2,1.1505,0.20126,0.18169,-0.127
11.4,1.1578,0.20598,0.18646,-0.13
11.5,1.1636,0.20861,0.18912,-0.131
11.6,1.1707,0.21143,0.19199,-0.1317
11.7,1.1791,0.21448,0.19508,-0.1321
11.8,1.1824,0.21685,0.19737,-0.1338
11.9,1.184,0.21894,0.19947,-0.136
12,1.1874,0.22129,0.20183,-0.1377
12.1,1.1921,0.22384,0.20441,-0.1391
12.2,1.1978,0.22658,0.2073,-0.1403
12.3,1.2045,0.2295,0.21025,-0.1413
12.4,1.2121,0.2326,0.2134,-0.142
12.5,1.2207,0.23595,0.2168,-0.1425
12.6,1.2144,0.23607,0.21676,-0.1464
12.7,1.2195,0.23873,0.21945,-0.1479
12.8,1.2254,0.24156,0.2223,-0.1492
12.9,1.232,0.24455,0.22533,-0.1503
13,1.2392,0.24772,0.22854,-0.1512
13.1,1.2471,0.2511,0.23196,-0.1519
13.2,1.2511,0.25362,0.23439,-0.1539
13.3,1.2538,0.25578,0.23655,-0.1562
13.4,1.2579,0.25823,0.23902,-0.1583
13.5,1.2627,0.2609,0.24171,-0.1601
13.6,1.2682,0.26374,0.24457,-0.1617
13.7,1.2742,0.26675,0.2476,-0.1631
13.8,1.2808,0.26991,0.25079,-0.1644
13.9,1.2877,0.27323,0.25414,-0.1656
14,1.295,0.27673,0.25768,-0.1665
14.1,1.3029,0.28043,0.26142,-0.1674
14.2,1.3062,0.28273,0.26361,-0.1699
14.3,1.3098,0.28503,0.26591,-0.1724
14.4,1.3144,0.28764,0.26853,-0.1745
14.5,1.3196,0.29047,0.27138,-0.1765
14.6,1.3252,0.29347,0.2744,-0.1783
14.7,1.3312,0.29663,0.27758,-0.1799
14.8,1.3376,0.29993,0.28091,-0.1815
14.9,1.3442,0.30338,0.28438,-0.1829
15,1.3517,0.30689,0.28779,-0.1833
15.1,1.3551,0.30895,0.28986,-0.1862
15.2,1.3595,0.31147,0.29238,-0.1887
15.3,1.3646,0.31426,0.29518,-0.191
15.4,1.3702,0.31724,0.29819,-0.193
15.5,1.3761,0.32041,0.30146,-0.195
15.6,1.3822,0.32371,0.30479,-0.1968
15.7,1.3885,0.32715,0.30825,-0.1985
15.8,1.395,0.3307,0.31182,-0.2002
15.9,1.4017,0.33439,0.31553,-0.2018
16,1.4085,0.33819,0.31936,-0.2033
16.1,1.4155,0.34212,0.32331,-0.2047
16.2,1.4226,0.34622,0.32744,-0.2061
16.3,1.4299,0.35045,0.3317,-0.2074
16.4,1.4352,0.35344,0.33456,-0.2098
16.5,1.4397,0.35592,0.33705,-0.2127
16.6,1.445,0.35881,0.33995,-0.2153
16.7,1.4507,0.36194,0.3431,-0.2176
16.8,1.4566,0.36527,0.34644,-0.2199
16.9,1.4627,0.36874,0.34992,-0.222
17,1.469,0.3724,0.35361,-0.2241
17.1,1.4754,0.37614,0.35736,-0.226
17.2,1.4819,0.38001,0.36126,-0.228
17.3,1.4885,0.38398,0.36525,-0.2299
17.4,1.4951,0.38805,0.36934,-0.2317
17.5,1.5019,0.39224,0.37355,-0.2335
17.6,1.5087,0.39652,0.37785,-0.2353
17.7,1.5155,0.40091,0.38227,-0.237
17.8,1.5224,0.40542,0.3868,-0.2387
17.9,1.5294,0.41004,0.39145,-0.2403
18,1.5365,0.41483,0.39626,-0.2419
18.1,1.5429,0.41901,0.40031,-0.244
18.2,1.5479,0.42162,0.40292,-0.2472
18.3,1.5535,0.42476,0.40608,-0.2501
18.4,1.5594,0.42826,0.40959,-0.2528
18.5,1.5655,0.43196,0.41331,-0.2553
18.6,1.5717,0.43586,0.4173,-0.2577
18.7,1.5781,0.4399,0.42136,-0.2601
18.8,1.5845,0.44406,0.42554,-0.2624
18.9,1.5909,0.44834,0.42984,-0.2646
19,1.5974,0.45272,0.43424,-0.2669
19.1,1.604,0.4572,0.43874,-0.2691
19.2,1.6106,0.4618,0.44336,-0.2713
19.3,1.6172,0.46645,0.44803,-0.2734
19.4,1.6239,0.4712,0.4528,-0.2756
19.5,1.6305,0.47605,0.45768,-0.2777
19.6,1.6372,0.48097,0.46262,-0.2798
19.7,1.6439,0.486,0.46767,-0.2819
19.8,1.6506,0.49109,0.47278,-0.284
19.9,1.6574,0.4963,0.47802,-0.286
20,1.6641,0.5016,0.48333,-0.2881
20.1,1.6709,0.50698,0.48874,-0.2901
20.2,1.6776,0.51246,0.49423,-0.2922
20.3,1.6844,0.51802,0.49983,-0.2942
20.4,1.6912,0.5237,0.50552,-0.2962
20.5,1.698,0.52949,0.51134,-0.2982
20.6,1.7039,0.53345,0.51515,-0.3013
20.7,1.7097,0.53717,0.51889,-0.3045
20.8,1.7158,0.54137,0.5231,-0.3076
20.9,1.722,0.54584,0.5276,-0.3105
21,1.7283,0.55057,0.53234,-0.3132
21.1,1.7346,0.55547,0.53726,-0.316
21.2,1.741,0.56049,0.54231,-0.3187
21.3,1.7474,0.56566,0.54749,-0.3213
21.4,1.7539,0.57093,0.55279,-0.3239
21.5,1.7603,0.57634,0.55829,-0.3265
21.6,1.7668,0.58177,0.56375,-0.3291
21.7,1.7732,0.58737,0.56937,-0.3317
21.8,1.7797,0.59305,0.57507,-0.3343
21.9,1.7862,0.59879,0.58084,-0.3368
22,1.7927,0.60466,0.58673,-0.3394
22.1,1.7992,0.61058,0.59268,-0.3419
22.2,1.8057,0.61659,0.5987,-0.3444
22.3,1.8122,0.6227,0.60484,-0.347
22.4,1.8186,0.62887,0.61104,-0.3495
22.5,1.8251,0.63512,0.61731,-0.3521
22.6,1.8315,0.64145,0.62366,-0.3546
22.7,1.838,0.64788,0.63012,-0.3572
22.8,1.8444,0.65435,0.63661,-0.3597
22.9,1.8508,0.66095,0.64324,-0.3622
23,1.8573,0.66763,0.64994,-0.3648
23.1,1.8637,0.67434,0.65667,-0.3673

