airfoilName st24.dat
Re 	310000
M 	7.000000e-01
N 	4.500000e+00
VACC 	0 VACCflag 1
XTR 	1.00 	1.00 XTRflag 0
alpha,cl,cd,cdp,cm
-28.4,-1.5891,0.82547,0.82218,0.343
-28.2,-1.5783,0.81137,0.80807,0.3373
-28.1,-1.5729,0.8042,0.8009,0.3345
-28,-1.5673,0.79718,0.79387,0.3316
-27.9,-1.5619,0.79022,0.78691,0.3288
-27.8,-1.5563,0.78334,0.78003,0.3259
-27.7,-1.5507,0.77662,0.77331,0.3231
-27.6,-1.5452,0.7699,0.76658,0.3203
-27.5,-1.5396,0.76319,0.75987,0.3175
-27.4,-1.534,0.75652,0.75319,0.3147
-27.3,-1.5283,0.75001,0.74668,0.3119
-27.2,-1.5227,0.74347,0.74013,0.3091
-27.1,-1.517,0.7371,0.73376,0.3064
-27,-1.5113,0.73057,0.72723,0.3036
-26.9,-1.5056,0.72429,0.72094,0.3009
-26.8,-1.4999,0.71806,0.71471,0.2981
-26.7,-1.4941,0.71187,0.7085,0.2954
-26.6,-1.4883,0.70574,0.70237,0.2926
-26.5,-1.4825,0.6996,0.69623,0.2899
-26.4,-1.4767,0.69361,0.69024,0.2872
-26.3,-1.4709,0.68762,0.68425,0.2845
-26.2,-1.4651,0.68164,0.67826,0.2818
-26.1,-1.4592,0.6758,0.67242,0.2792
-26,-1.4534,0.66997,0.66658,0.2765
-25.9,-1.4475,0.66418,0.66079,0.2738
-25.8,-1.4416,0.65846,0.65507,0.2712
-25.7,-1.4357,0.65279,0.64939,0.2685
-25.6,-1.4297,0.64722,0.64382,0.2659
-25.5,-1.4238,0.64166,0.63826,0.2633
-25.4,-1.4178,0.63612,0.63271,0.2607
-25.3,-1.4119,0.63062,0.62722,0.2581
-25.2,-1.4059,0.62522,0.62181,0.2555
-25.1,-1.3999,0.61984,0.61643,0.2529
-25,-1.3939,0.61458,0.61117,0.2503
-24.9,-1.3878,0.60926,0.60585,0.2478
-24.8,-1.3818,0.60405,0.60063,0.2452
-24.7,-1.3758,0.5989,0.59548,0.2427
-24.6,-1.3697,0.59374,0.59032,0.2401
-24.5,-1.3636,0.58866,0.58523,0.2376
-24.4,-1.3576,0.58359,0.58017,0.2351
-24.3,-1.3514,0.57858,0.57515,0.2326
-24.2,-1.3453,0.57363,0.5702,0.2301
-24.1,-1.3392,0.56872,0.56529,0.2276
-24,-1.3331,0.56383,0.5604,0.2252
-23.9,-1.3269,0.55902,0.55558,0.2227
-23.8,-1.3208,0.55423,0.55078,0.2202
-23.7,-1.3146,0.5495,0.54604,0.2178
-23.6,-1.3084,0.54476,0.54131,0.2154
-23.5,-1.3023,0.54013,0.53667,0.213
-23.4,-1.2961,0.5355,0.53204,0.2105
-23.3,-1.2899,0.53091,0.52745,0.2081
-23.2,-1.2837,0.52639,0.52293,0.2058
-23.1,-1.2775,0.52186,0.5184,0.2034
-23,-1.2713,0.51742,0.51396,0.201
-22.9,-1.265,0.51297,0.5095,0.1986
-22.8,-1.2588,0.5086,0.50513,0.1963
-22.7,-1.2525,0.50425,0.50078,0.1939
-22.6,-1.2462,0.49994,0.49647,0.1916
-22.5,-1.24,0.49568,0.4922,0.1893
-22.4,-1.2337,0.49145,0.48797,0.187
-22.3,-1.2274,0.48726,0.48378,0.1846
-22.2,-1.2211,0.48309,0.47962,0.1823
-22.1,-1.2148,0.47899,0.47551,0.18
-22,-1.2085,0.47492,0.47144,0.1778
-21.9,-1.2022,0.47087,0.46739,0.1755
-21.8,-1.1959,0.46687,0.46339,0.1732
-21.7,-1.1896,0.46293,0.45945,0.1709
-21.6,-1.1832,0.45899,0.4555,0.1687
-21.5,-1.1769,0.4551,0.45162,0.1664
-21.4,-1.1706,0.45126,0.44778,0.1642
-21.3,-1.1642,0.44745,0.44397,0.1619
-21.2,-1.1578,0.44371,0.44023,0.1597
-21.1,-1.1515,0.43998,0.43649,0.1574
-21,-1.1451,0.43633,0.43284,0.1552
-20.8,-1.1323,0.42909,0.42559,0.1507
-20.7,-1.1259,0.42554,0.42203,0.1485
-20.6,-1.1195,0.42209,0.41859,0.1462
-20.5,-1.113,0.41865,0.41515,0.1439
-20.4,-1.1066,0.4152,0.4117,0.1416
-20.3,-1.1001,0.41189,0.40839,0.1392
-20.2,-1.0936,0.4086,0.4051,0.1369
-20.1,-1.0869,0.4053,0.4018,0.1344
-19.9,-1.0728,0.39829,0.39481,0.1292
-19.8,-1.0665,0.39464,0.39116,0.1272
-19.7,-1.0603,0.391,0.38752,0.1253
-19.6,-1.054,0.38743,0.38395,0.1234
-19.5,-1.0478,0.38385,0.38037,0.1215
-19.4,-1.0416,0.3803,0.37682,0.1196
-19.3,-1.0353,0.37678,0.3733,0.1177
-19.2,-1.0291,0.37329,0.36981,0.1159
-19.1,-1.0228,0.36984,0.36635,0.114
-19,-1.0166,0.36639,0.36291,0.1122
-18.9,-1.0103,0.36299,0.35951,0.1103
-18.8,-1.0041,0.35961,0.35613,0.1085
-18.7,-0.9978,0.35625,0.35276,0.1067
-18.6,-0.9916,0.35292,0.34944,0.1049
-18.5,-0.9853,0.34962,0.34614,0.1031
-18.4,-0.9791,0.34634,0.34286,0.1013
-18.3,-0.9728,0.34308,0.3396,0.0996
-18.2,-0.9666,0.33985,0.33637,0.0978
-18.1,-0.9604,0.33665,0.33317,0.0961
-18,-0.9542,0.33348,0.33,0.0943
-17.9,-0.948,0.33032,0.32684,0.0926
-17.8,-0.9417,0.32718,0.32369,0.0909
-17.7,-0.9355,0.32407,0.32057,0.0892
-17.6,-0.9293,0.321,0.3175,0.0875
-17.5,-0.9231,0.31792,0.31443,0.0858
-17.4,-0.9169,0.31489,0.3114,0.0842
-17.3,-0.9108,0.31187,0.30838,0.0825
-17.2,-0.9046,0.30887,0.30538,0.0809
-17.1,-0.8984,0.30591,0.30242,0.0792
-17,-0.8923,0.30296,0.29947,0.0776
-16.9,-0.8861,0.30003,0.29655,0.076
-16.8,-0.8799,0.29713,0.29364,0.0744
-16.7,-0.8738,0.29425,0.29076,0.0728
-16.6,-0.8677,0.2914,0.28791,0.0713
-16.5,-0.8616,0.28855,0.28507,0.0697
-16.4,-0.8555,0.28574,0.28226,0.0681
-16.3,-0.8494,0.28295,0.27946,0.0666
-16.2,-0.8433,0.28018,0.2767,0.0651
-16.1,-0.8372,0.27743,0.27395,0.0636
-16,-0.8312,0.2747,0.27122,0.0621
-15.9,-0.8251,0.27199,0.26851,0.0606
-15.8,-0.8191,0.2693,0.26583,0.0591
-15.7,-0.8131,0.26663,0.26316,0.0576
-15.6,-0.8071,0.26399,0.26051,0.0561
-15.5,-0.8011,0.26136,0.25789,0.0547
-15.4,-0.7951,0.25876,0.25529,0.0532
-15.3,-0.7891,0.25617,0.2527,0.0518
-15.2,-0.7832,0.2536,0.25013,0.0504
-15.1,-0.7772,0.25105,0.24758,0.0489
-15,-0.7713,0.24851,0.24504,0.0475
-14.9,-0.7653,0.24599,0.24252,0.0461
-14.8,-0.7594,0.24348,0.24001,0.0447
-14.7,-0.7535,0.241,0.23753,0.0433
-14.6,-0.7476,0.23853,0.23506,0.0419
-14.5,-0.7417,0.23608,0.23261,0.0406
-14.4,-0.7358,0.23364,0.23018,0.0392
-14.3,-0.73,0.23122,0.22776,0.0378
-14.2,-0.7241,0.22882,0.22536,0.0365
-14.1,-0.7183,0.22643,0.22298,0.0351
-14,-0.7125,0.22405,0.2206,0.0338
-13.9,-0.7067,0.22169,0.21824,0.0325
-13.8,-0.701,0.21934,0.21589,0.0311
-13.7,-0.6952,0.217,0.21355,0.0298
-13.6,-0.6894,0.21466,0.21121,0.0285
-13.5,-0.6837,0.21232,0.20888,0.0272
-13.4,-0.6779,0.21,0.20656,0.0259
-13.3,-0.6722,0.20767,0.20423,0.0246
-13.2,-0.6664,0.20533,0.2019,0.0233
-13.1,-0.6606,0.20299,0.19956,0.022
-13,-0.6548,0.20061,0.19718,0.0207
-12.8,-0.6423,0.1957,0.1923,0.0176
-12.7,-0.637,0.19354,0.19014,0.0166
-12.6,-0.6317,0.1914,0.18801,0.0155
-12.5,-0.6264,0.18928,0.18589,0.0144
-12.4,-0.6211,0.18717,0.18378,0.0134
-12.3,-0.6158,0.18508,0.18169,0.0124
-12.2,-0.6105,0.18301,0.17963,0.0113
-12.1,-0.6053,0.18095,0.17757,0.0103
-12,-0.6,0.17891,0.17554,0.0093
-11.9,-0.5948,0.17689,0.17351,0.0083
-11.8,-0.5896,0.17488,0.1715,0.0073
-11.7,-0.5844,0.17289,0.16951,0.0063
-11.6,-0.5793,0.17092,0.16754,0.0053
-11.5,-0.5741,0.16895,0.16558,0.0043
-11.4,-0.569,0.16701,0.16365,0.0034
-11.3,-0.5639,0.16508,0.16172,0.0024
-11.2,-0.5588,0.16317,0.15981,0.0015
-11.1,-0.5537,0.16127,0.15791,0.0006
-11,-0.5487,0.15938,0.15603,-0.0003
-10.9,-0.5436,0.15751,0.15417,-0.0013
-10.8,-0.5386,0.15565,0.15231,-0.0021
-10.7,-0.5336,0.1538,0.15047,-0.003
-10.6,-0.5287,0.15197,0.14864,-0.0039
-10.4,-0.5188,0.14834,0.14503,-0.0056
-10.3,-0.5139,0.14655,0.14324,-0.0065
-10.2,-0.509,0.14478,0.14147,-0.0073
-10.1,-0.5042,0.14302,0.13972,-0.0081
-10,-0.4994,0.14127,0.13798,-0.0089
-9.9,-0.4947,0.13954,0.13625,-0.0097
-9.8,-0.49,0.13782,0.13454,-0.0105
-9.7,-0.4853,0.13612,0.13285,-0.0112
-9.6,-0.4807,0.13443,0.13116,-0.012
-9.5,-0.4761,0.13275,0.1295,-0.0127
-9.4,-0.4715,0.13109,0.12784,-0.0134
-9.3,-0.4671,0.12944,0.1262,-0.0141
-9.2,-0.4626,0.12781,0.12458,-0.0148
-9.1,-0.4583,0.12619,0.12297,-0.0155
-9,-0.454,0.12459,0.12138,-0.0161
-8.9,-0.4498,0.12301,0.11981,-0.0167
-8.8,-0.4457,0.12145,0.11826,-0.0173
-8.7,-0.4418,0.11991,0.11672,-0.0178
-8.6,-0.4379,0.11838,0.1152,-0.0183
-8.5,-0.4342,0.11688,0.1137,-0.0188
-8.4,-0.4306,0.11539,0.11223,-0.0192
-8.3,-0.4272,0.11394,0.11079,-0.0196
-8.2,-0.4241,0.11251,0.10937,-0.0199
-8.1,-0.4212,0.11111,0.10799,-0.0201
-8,-0.4185,0.10974,0.10663,-0.0203
-7.9,-0.416,0.10839,0.1053,-0.0204
-7.8,-0.4139,0.10708,0.104,-0.0205
-7.7,-0.412,0.10578,0.10272,-0.0205
-7.6,-0.4104,0.10452,0.10148,-0.0204
-7.5,-0.4091,0.10329,0.10026,-0.0202
-7.4,-0.4082,0.1021,0.09909,-0.02
-7.3,-0.408,0.10067,0.09771,-0.0201
-7.2,-0.4062,0.09948,0.09654,-0.0201
-7.1,-0.3986,0.09777,0.09482,-0.0218
-7,-0.391,0.09607,0.09313,-0.0234
-6.9,-0.3832,0.09439,0.09144,-0.0252
-6.8,-0.3745,0.09264,0.08969,-0.0272
-6.7,-0.3671,0.09101,0.08807,-0.0288
-6.6,-0.3594,0.08939,0.08645,-0.0305
-6.5,-0.3513,0.08775,0.08481,-0.0323
-6.4,-0.3428,0.0861,0.08317,-0.0342
-6.3,-0.3354,0.08455,0.08162,-0.0358
-6.2,-0.3273,0.08295,0.08002,-0.0376
-6.1,-0.3191,0.08137,0.07844,-0.0394
-6,-0.3104,0.07976,0.07684,-0.0414
-5.9,-0.3011,0.07813,0.0752,-0.0436
-5.8,-0.2953,0.07677,0.07385,-0.0447
-5.7,-0.2878,0.07529,0.07237,-0.0463
-5.6,-0.2792,0.07374,0.07082,-0.0483
-5.5,-0.2686,0.07206,0.06914,-0.0509
-5.4,-0.2604,0.07058,0.06765,-0.0527
-5.3,-0.2526,0.06913,0.06621,-0.0544
-5.2,-0.2428,0.06757,0.06464,-0.0567
-5.1,-0.232,0.06595,0.06301,-0.0593
-5,-0.2201,0.06429,0.06134,-0.0621
-4.9,-0.2119,0.06286,0.0599,-0.0639
-4.8,-0.2023,0.06136,0.0584,-0.066
-4.7,-0.1908,0.05975,0.05679,-0.0686
-4.6,-0.1782,0.05808,0.0551,-0.0715
-4.5,-0.1646,0.05636,0.05337,-0.0747
-4.4,-0.1563,0.05498,0.05198,-0.0762
-4.3,-0.1444,0.05338,0.05036,-0.0788
-4.2,-0.1308,0.05166,0.04863,-0.0818
-4,-0.1035,0.0482,0.04511,-0.0876
-3.9,-0.0897,0.04639,0.04327,-0.0906
-3.8,-0.0737,0.04439,0.04125,-0.0942
-3.7,-0.0563,0.04276,0.03958,-0.0975
-3.6,-0.0416,0.04131,0.0381,-0.1
-3.5,-0.027,0.03988,0.03664,-0.1023
-3.4,-0.0096,0.03833,0.03504,-0.1052
-3.3,0.0097,0.03669,0.03335,-0.1084
-3.2,0.0297,0.03503,0.03162,-0.1117
-3.1,0.0457,0.03357,0.0301,-0.1139
-3,0.0647,0.03195,0.02841,-0.1167
-2.9,0.0856,0.03021,0.02657,-0.1198
-2.8,0.1072,0.0284,0.02466,-0.1229
-2.7,0.132,0.02553,0.02162,-0.1277
-2.6,0.1495,0.02423,0.0202,-0.1293
-2.5,0.1697,0.0228,0.01865,-0.1312
-2.4,0.1909,0.02125,0.01693,-0.1333
-2.3,0.2124,0.01957,0.01506,-0.1355
-2.2,0.2337,0.01779,0.01304,-0.1375
-2.1,0.2527,0.01619,0.01115,-0.1389
-2,0.2728,0.01468,0.00926,-0.1402
-1.9,0.2925,0.01379,0.00815,-0.1408
-1.8,0.3125,0.01314,0.00728,-0.1411
-1.7,0.3301,0.01265,0.0066,-0.1409
-1.6,0.3496,0.01212,0.00589,-0.1409
-1.5,0.3674,0.01183,0.0055,-0.1406
-1.4,0.3857,0.01153,0.00508,-0.1404
-1.3,0.404,0.01133,0.00481,-0.1402
-1.2,0.4213,0.01115,0.00456,-0.1398
-1.1,0.4396,0.01097,0.00427,-0.1396
-0.9,0.4743,0.01075,0.00397,-0.1389
-0.8,0.4914,0.01065,0.00382,-0.1386
-0.7,0.5089,0.01056,0.00371,-0.1384
-0.6,0.5258,0.01052,0.00364,-0.1381
-0.5,0.5427,0.01044,0.00353,-0.1376
-0.4,0.5597,0.01039,0.00343,-0.1373
-0.3,0.5765,0.01035,0.00336,-0.1369
-0.2,0.5933,0.01031,0.00332,-0.1366
-0.1,0.6098,0.0103,0.00328,-0.1362
0,0.6259,0.01029,0.00323,-0.1356
0.1,0.6418,0.0103,0.00317,-0.135
0.2,0.6577,0.01031,0.00314,-0.1345
0.3,0.673,0.01035,0.00312,-0.1338
0.4,0.6853,0.01052,0.00309,-0.1324
0.5,0.6978,0.01069,0.00311,-0.1313
0.6,0.7108,0.01087,0.00317,-0.1303
0.7,0.723,0.01107,0.00326,-0.1292
0.8,0.7346,0.01133,0.00337,-0.128
0.9,0.7451,0.01163,0.00353,-0.1267
1,0.7514,0.01216,0.00377,-0.1249
1.1,0.7611,0.01256,0.004,-0.1236
1.2,0.7725,0.01288,0.0042,-0.1226
1.3,0.7851,0.01314,0.00438,-0.1218
1.4,0.7987,0.01333,0.00456,-0.1211
1.5,0.8126,0.0135,0.00473,-0.1204
1.6,0.8259,0.01372,0.00494,-0.1196
1.7,0.8401,0.01387,0.0051,-0.119
1.8,0.8545,0.01401,0.00528,-0.1183
1.9,0.8689,0.01415,0.00545,-0.1176
2,0.8834,0.01428,0.00565,-0.117
2.2,0.9014,0.01322,0.00604,-0.1135
2.3,0.916,0.0134,0.00622,-0.1127
2.4,0.9303,0.01361,0.00642,-0.1119
2.5,0.9447,0.01382,0.00662,-0.111
2.6,0.9592,0.01402,0.00683,-0.1101
2.7,0.9733,0.01425,0.00705,-0.1092
2.8,0.9876,0.01446,0.00726,-0.1082
2.9,1.0017,0.01469,0.00749,-0.1072
3,1.0158,0.01492,0.00774,-0.1062
3.1,1.0301,0.01515,0.00802,-0.1051
3.2,1.0441,0.0154,0.00829,-0.104
3.3,1.0578,0.01566,0.00857,-0.1028
3.4,1.072,0.0159,0.00884,-0.1017
3.5,1.0856,0.01618,0.00914,-0.1004
3.6,1.0993,0.01646,0.00947,-0.0991
3.7,1.113,0.01676,0.00982,-0.0977
3.8,1.1263,0.01707,0.01018,-0.0963
3.9,1.1392,0.0174,0.01055,-0.0949
4,1.1524,0.01776,0.01099,-0.0933
4.1,1.1655,0.01808,0.01136,-0.0918
4.2,1.1774,0.01847,0.01181,-0.0901
4.3,1.1892,0.01891,0.01235,-0.0882
4.4,1.2007,0.01938,0.01292,-0.0864
4.5,1.2119,0.01988,0.01352,-0.0845
4.6,1.2225,0.02043,0.01416,-0.0826
4.7,1.233,0.02113,0.01501,-0.0807
4.8,1.2427,0.02189,0.01592,-0.0787
4.9,1.2523,0.02258,0.01677,-0.0768
5,1.2602,0.02341,0.01774,-0.0748
5.1,1.2665,0.02446,0.01896,-0.0728
5.2,1.2712,0.02563,0.02032,-0.0709
5.3,1.2741,0.02686,0.02174,-0.069
5.4,1.2755,0.02816,0.02321,-0.0671
5.5,1.2754,0.02952,0.02474,-0.0654
5.6,1.2741,0.03094,0.02632,-0.0637
5.7,1.2717,0.03243,0.02795,-0.0622
5.8,1.2684,0.03399,0.02964,-0.0609
5.9,1.2643,0.03561,0.03139,-0.0598
6,1.2594,0.03732,0.03321,-0.059
6.1,1.2541,0.0391,0.03511,-0.0584
6.2,1.2482,0.04098,0.03709,-0.0582
6.3,1.242,0.04295,0.03915,-0.0582
6.4,1.2337,0.04524,0.04152,-0.0588
6.5,1.2251,0.04767,0.04404,-0.0598
6.6,1.2164,0.05023,0.04669,-0.0612
6.7,1.2058,0.05324,0.04979,-0.0635
6.8,1.1978,0.05603,0.05265,-0.0656
6.9,1.1902,0.05896,0.05563,-0.0681
7,1.1831,0.06201,0.05873,-0.0708
7.1,1.1767,0.06515,0.06191,-0.0736
7.2,1.1712,0.06837,0.06517,-0.0766
7.4,1.1618,0.07453,0.07138,-0.0819
7.6,1.1541,0.08016,0.07704,-0.0862
7.7,1.1509,0.08285,0.07972,-0.0882
7.8,1.1483,0.08545,0.08233,-0.0901
7.9,1.1462,0.08798,0.08487,-0.0918
8,1.1428,0.09078,0.08764,-0.0939
8.1,1.1383,0.09381,0.09067,-0.0961
8.2,1.1347,0.09673,0.0936,-0.0983
8.3,1.1317,0.09959,0.09645,-0.1003
8.4,1.1293,0.10237,0.09924,-0.1022
8.5,1.1273,0.10511,0.10198,-0.1041
8.6,1.1259,0.1078,0.10467,-0.1059
8.7,1.1248,0.11044,0.10732,-0.1076
8.8,1.1242,0.11303,0.10991,-0.1093
8.9,1.1246,0.11552,0.11239,-0.1111
9,1.1251,0.11793,0.11481,-0.1126
9.1,1.126,0.12029,0.11717,-0.114
9.2,1.1271,0.12261,0.11949,-0.1154
9.3,1.1285,0.12487,0.12176,-0.1167
9.4,1.1302,0.12709,0.12398,-0.118
9.5,1.132,0.12926,0.12615,-0.1192
9.6,1.1322,0.13197,0.12884,-0.121
9.7,1.1321,0.13489,0.13177,-0.123
9.8,1.1326,0.13768,0.13456,-0.1248
9.9,1.1337,0.14036,0.13725,-0.1265
10,1.1351,0.14299,0.13988,-0.1281
10.1,1.1368,0.14557,0.14246,-0.1298
10.2,1.1388,0.14811,0.145,-0.1313
10.3,1.1411,0.15061,0.14751,-0.1328
10.4,1.1435,0.15308,0.14999,-0.1343
10.5,1.1462,0.15552,0.15243,-0.1358
10.6,1.149,0.15793,0.15484,-0.1373
10.7,1.1527,0.16001,0.15692,-0.1386
10.8,1.1561,0.16222,0.15914,-0.1399
10.9,1.1595,0.1644,0.16132,-0.1412
11,1.163,0.16652,0.16345,-0.1425
11.1,1.166,0.16898,0.16589,-0.144
11.2,1.1683,0.17207,0.16898,-0.146
11.3,1.1711,0.17494,0.17188,-0.1479
11.4,1.1742,0.1777,0.17464,-0.1497
11.5,1.1776,0.18036,0.17731,-0.1513
11.6,1.1812,0.18299,0.17995,-0.153
11.7,1.1849,0.18558,0.18255,-0.1546
11.8,1.1888,0.18814,0.1851,-0.1562
11.9,1.1928,0.19066,0.18763,-0.1578
12,1.1969,0.19315,0.19013,-0.1593
12.1,1.2014,0.19534,0.19232,-0.1609
12.2,1.2058,0.19764,0.19462,-0.1624
12.3,1.2102,0.19988,0.19687,-0.1638
12.4,1.2147,0.20208,0.19907,-0.1652
12.5,1.219,0.20469,0.20166,-0.1669
12.6,1.2231,0.20793,0.2049,-0.169
12.7,1.2275,0.21093,0.20791,-0.1709
12.8,1.232,0.21381,0.21079,-0.1728
12.9,1.2366,0.21661,0.2136,-0.1746
13,1.2414,0.21936,0.21635,-0.1763
13.1,1.2462,0.22206,0.21905,-0.1781
13.2,1.2512,0.22474,0.22174,-0.1798
13.3,1.2561,0.2272,0.22419,-0.1817
13.4,1.2611,0.22967,0.22666,-0.1833
13.5,1.2663,0.23211,0.22911,-0.1849
13.6,1.2714,0.23452,0.23152,-0.1865
13.7,1.2766,0.23689,0.23389,-0.1881
13.8,1.2818,0.23952,0.23651,-0.1898
13.9,1.287,0.24294,0.23993,-0.192
14,1.2924,0.24614,0.24313,-0.194
14.1,1.2978,0.24917,0.24616,-0.1959
14.2,1.3033,0.25216,0.24915,-0.1978
14.3,1.3088,0.25508,0.25208,-0.1997
14.4,1.3144,0.258,0.25499,-0.2016
14.5,1.3201,0.26088,0.25788,-0.2034
14.6,1.3258,0.26375,0.26075,-0.2052
14.7,1.3315,0.26662,0.26362,-0.2071
14.8,1.3373,0.26946,0.26646,-0.2089
14.9,1.3431,0.27229,0.26929,-0.2107
15.2,1.3602,0.27977,0.27679,-0.2162
15.3,1.3662,0.28351,0.28051,-0.2184
15.4,1.3723,0.28691,0.28392,-0.2205
15.5,1.3783,0.2902,0.28721,-0.2225
15.6,1.3844,0.29351,0.29053,-0.2246
15.7,1.3905,0.29672,0.29373,-0.2266
15.8,1.3966,0.29991,0.29693,-0.2285
15.9,1.4027,0.30309,0.30011,-0.2305
16,1.4089,0.30628,0.3033,-0.2325
16.1,1.415,0.30944,0.30645,-0.2345
16.2,1.4212,0.31261,0.30963,-0.2364
16.3,1.4274,0.31579,0.31281,-0.2384
16.4,1.4336,0.31897,0.31599,-0.2404
16.5,1.4398,0.32215,0.31917,-0.2424
16.6,1.4461,0.32533,0.32236,-0.2443
16.7,1.4523,0.32853,0.32556,-0.2463
16.8,1.4586,0.33173,0.32876,-0.2483
16.9,1.4649,0.33496,0.33199,-0.2503
17,1.4711,0.33818,0.33521,-0.2523
17.1,1.4774,0.34141,0.33844,-0.2543
17.2,1.4837,0.34465,0.34168,-0.2563
17.3,1.4899,0.3479,0.34494,-0.2583
17.4,1.4962,0.35116,0.3482,-0.2604
17.5,1.5025,0.35443,0.35147,-0.2624
17.6,1.5088,0.35771,0.35474,-0.2644
17.7,1.5153,0.36168,0.3587,-0.2667
17.8,1.5219,0.36575,0.36277,-0.269
17.9,1.5283,0.3696,0.36663,-0.2713
18,1.5348,0.37352,0.37055,-0.2735
18.1,1.5413,0.37728,0.37431,-0.2758
18.2,1.5478,0.38108,0.37811,-0.278
18.3,1.5542,0.38486,0.3819,-0.2802
18.4,1.5607,0.38863,0.38568,-0.2824
18.5,1.5671,0.39239,0.38944,-0.2851
18.6,1.5736,0.39611,0.39316,-0.2872
18.7,1.58,0.39984,0.3969,-0.2895
18.8,1.5864,0.4036,0.40066,-0.2917
18.9,1.5928,0.4074,0.40445,-0.2939
19,1.5992,0.4112,0.40826,-0.2961
19.1,1.6057,0.41503,0.41209,-0.2983
19.2,1.6121,0.41889,0.41596,-0.3006
19.3,1.6185,0.42277,0.41983,-0.3028
19.4,1.6249,0.42669,0.42376,-0.3051
19.5,1.6313,0.43062,0.4277,-0.3074
19.6,1.6377,0.4346,0.43167,-0.3096
19.7,1.6442,0.4386,0.43568,-0.3119
19.8,1.6506,0.44263,0.43971,-0.3142
19.9,1.657,0.4467,0.44378,-0.3165
20,1.6634,0.4508,0.44789,-0.3188
20.1,1.6698,0.45493,0.45201,-0.3212
20.2,1.6762,0.45909,0.45618,-0.3235
20.3,1.6826,0.46327,0.46036,-0.3258
20.4,1.689,0.4675,0.4646,-0.3282
20.5,1.6954,0.47177,0.46887,-0.3306
20.6,1.7018,0.47607,0.47317,-0.3329
20.7,1.7081,0.4804,0.4775,-0.3353
20.8,1.7145,0.48478,0.48189,-0.3377
20.9,1.7211,0.48962,0.48671,-0.3403
21,1.7276,0.49465,0.49175,-0.3429
21.1,1.7342,0.49955,0.49665,-0.3455
21.2,1.7407,0.50439,0.50149,-0.348
21.3,1.7471,0.50926,0.50636,-0.3506
21.4,1.7536,0.51412,0.51124,-0.3531
21.5,1.76,0.51899,0.51612,-0.3557
21.6,1.7664,0.52386,0.52098,-0.3582
21.7,1.7729,0.52878,0.52592,-0.3608
21.8,1.7793,0.53376,0.53089,-0.3634
21.9,1.7856,0.53873,0.53587,-0.366
22,1.7921,0.54376,0.5409,-0.3686
22.1,1.7984,0.54881,0.54595,-0.3712
22.2,1.8048,0.5539,0.55104,-0.3738
22.3,1.8112,0.55906,0.5562,-0.3764
22.4,1.8175,0.56422,0.56137,-0.379
22.5,1.8238,0.5694,0.56655,-0.3817
22.6,1.8301,0.57465,0.57181,-0.3843
22.7,1.8364,0.57997,0.57713,-0.387
22.8,1.8427,0.58526,0.58242,-0.3896
22.9,1.849,0.59067,0.58784,-0.3923
23,1.8553,0.59609,0.59326,-0.395
23.1,1.8615,0.60156,0.59873,-0.3976
23.2,1.8678,0.60709,0.60427,-0.4003
23.3,1.874,0.61268,0.60987,-0.4031
23.4,1.8802,0.61824,0.61542,-0.4057
23.5,1.8864,0.62396,0.62115,-0.4085
23.6,1.8926,0.62966,0.62685,-0.4112
23.7,1.8988,0.63549,0.63269,-0.414
23.8,1.9049,0.64128,0.63848,-0.4167
23.9,1.9111,0.64721,0.64442,-0.4195
24,1.9172,0.6531,0.65031,-0.4222
24.1,1.9233,0.6591,0.65631,-0.425
24.2,1.9294,0.66519,0.66241,-0.4278
24.3,1.9355,0.67128,0.6685,-0.4306
24.4,1.9416,0.6775,0.67474,-0.4334
24.5,1.9476,0.68376,0.681,-0.4362
24.6,1.9537,0.69005,0.68729,-0.439
24.7,1.9596,0.69558,0.69282,-0.442
24.8,1.9656,0.70195,0.69921,-0.4448
24.9,1.9716,0.70842,0.70568,-0.4477
25,1.9777,0.71505,0.71231,-0.4506
25.1,1.9836,0.72159,0.71886,-0.4534
25.2,1.9895,0.72827,0.72555,-0.4563
25.3,1.9954,0.73496,0.73223,-0.4592
25.4,2.0013,0.74185,0.73912,-0.4621
25.5,2.0072,0.74875,0.74603,-0.465
25.6,2.0131,0.75563,0.75292,-0.4679
25.7,2.0189,0.76268,0.75997,-0.4708
25.8,2.0247,0.76978,0.76707,-0.4737
25.9,2.0306,0.77696,0.77426,-0.4767
26,2.0363,0.78421,0.78152,-0.4796
26.1,2.0421,0.79154,0.78885,-0.4826
26.2,2.0479,0.799,0.79632,-0.4856
26.3,2.0536,0.80644,0.80377,-0.4885
26.4,2.0593,0.81407,0.81139,-0.4915
26.5,2.0651,0.82178,0.81911,-0.4945
26.6,2.0707,0.8295,0.82684,-0.4975
26.7,2.0764,0.83738,0.83473,-0.5005
26.8,2.082,0.8453,0.84265,-0.5036
26.9,2.0876,0.85331,0.85066,-0.5066
27,2.0932,0.86143,0.85879,-0.5096
27.1,2.0987,0.86963,0.86699,-0.5127
27.4,2.116,0.89405,0.89142,-0.523
27.5,2.1215,0.90234,0.89972,-0.5263
27.6,2.1271,0.9106,0.90798,-0.5296
27.7,2.1325,0.91895,0.91634,-0.5329
27.8,2.1382,0.92774,0.92513,-0.5362
27.9,2.1435,0.93621,0.93361,-0.5394
28,2.149,0.94506,0.94246,-0.5427
28.1,2.1544,0.95397,0.95138,-0.546
28.2,2.1598,0.9628,0.96021,-0.5493
28.3,2.1651,0.97187,0.96929,-0.5525
28.4,2.1705,0.98119,0.97861,-0.5558
28.5,2.1758,0.99041,0.98783,-0.5591
28.6,2.1811,0.99991,0.99734,-0.5624
28.7,2.1863,1.00937,1.00681,-0.5657
28.8,2.1915,1.01912,1.01656,-0.569
28.9,2.1967,1.02895,1.0264,-0.5723
29,2.2018,1.03871,1.03616,-0.5756
29.1,2.2069,1.04869,1.04615,-0.5789
29.2,2.212,1.05894,1.0564,-0.5822
29.3,2.2171,1.06925,1.06672,-0.5856
29.4,2.2222,1.07969,1.07716,-0.5889
29.5,2.2272,1.09013,1.08761,-0.5922
29.6,2.2321,1.10067,1.09815,-0.5956
29.7,2.2371,1.11147,1.10896,-0.5989
29.8,2.2419,1.1223,1.11979,-0.6022
29.9,2.2468,1.13338,1.13087,-0.6056
30,2.2518,1.14478,1.14228,-0.609

