airfoilName st25.dat
Re 	3.900000e+05
M 	7.000000e-01
N 	4.500000e+00
VACC 	0 VACCflag 1
XTR 	1.00 	1.00 XTRflag 0
alpha,cl,cd,cdp,cm
-30,-1.6575,0.94925,0.94638,0.3999
-29.9,-1.6523,0.94093,0.93805,0.3968
-29.8,-1.6471,0.93266,0.92978,0.3938
-29.7,-1.6419,0.92456,0.92167,0.3907
-29.6,-1.6367,0.91653,0.91364,0.3877
-29.5,-1.6315,0.90852,0.90563,0.3847
-29.4,-1.6262,0.90062,0.89772,0.3817
-29.3,-1.6209,0.89281,0.88991,0.3787
-29.2,-1.6156,0.88512,0.88222,0.3757
-29.1,-1.6103,0.87742,0.87451,0.3727
-29,-1.6049,0.86988,0.86696,0.3697
-28.9,-1.5995,0.86231,0.85939,0.3667
-28.8,-1.5941,0.8549,0.85198,0.3637
-28.7,-1.5886,0.84755,0.84462,0.3608
-28.6,-1.5832,0.84027,0.83733,0.3578
-28.5,-1.5777,0.83311,0.83017,0.3549
-28.4,-1.5722,0.82598,0.82304,0.3519
-28.3,-1.5667,0.81894,0.816,0.349
-28.2,-1.5611,0.81198,0.80903,0.346
-28.1,-1.5556,0.80505,0.8021,0.3431
-28,-1.55,0.79821,0.79526,0.3402
-27.9,-1.5444,0.79144,0.78849,0.3373
-27.8,-1.5387,0.78472,0.78177,0.3344
-27.7,-1.5331,0.7781,0.77514,0.3315
-27.6,-1.5274,0.77153,0.76857,0.3286
-27.5,-1.5217,0.76505,0.76208,0.3258
-27.4,-1.516,0.75859,0.75562,0.3229
-27.3,-1.5103,0.75224,0.74927,0.32
-27.2,-1.5046,0.74594,0.74297,0.3172
-27.1,-1.4988,0.73967,0.73669,0.3143
-27,-1.493,0.73352,0.73054,0.3115
-26.9,-1.4872,0.72741,0.72442,0.3086
-26.8,-1.4814,0.72135,0.71837,0.3058
-26.7,-1.4755,0.71538,0.71239,0.303
-26.6,-1.4697,0.70947,0.70648,0.3002
-26.5,-1.4638,0.70361,0.70062,0.2974
-26.4,-1.4579,0.69777,0.69477,0.2946
-26.3,-1.452,0.69208,0.68907,0.2918
-26.2,-1.446,0.68643,0.68342,0.2889
-26.1,-1.4401,0.68076,0.67775,0.2862
-26,-1.4341,0.67521,0.6722,0.2834
-25.9,-1.4281,0.66976,0.66675,0.2806
-25.8,-1.422,0.66442,0.66141,0.2777
-25.7,-1.416,0.65905,0.65604,0.275
-25.6,-1.4099,0.65391,0.65089,0.2721
-25.5,-1.4039,0.64872,0.6457,0.2693
-25.4,-1.3977,0.64374,0.64072,0.2664
-25.3,-1.3916,0.63871,0.63569,0.2636
-25.2,-1.3855,0.63414,0.63112,0.2606
-25.1,-1.3792,0.62966,0.62664,0.2575
-24.4,-1.3356,0.5959,0.59288,0.2374
-24.3,-1.3296,0.59066,0.58764,0.235
-24.2,-1.3235,0.58549,0.58247,0.2326
-24.1,-1.3175,0.58036,0.57733,0.2302
-24,-1.3114,0.57526,0.57224,0.2277
-23.9,-1.3053,0.57021,0.56718,0.2254
-23.8,-1.2992,0.56521,0.56218,0.223
-23.7,-1.293,0.56022,0.55719,0.2206
-23.6,-1.2869,0.55532,0.55228,0.2183
-23.5,-1.2807,0.55044,0.54739,0.2159
-23.4,-1.2746,0.5456,0.54255,0.2136
-23.3,-1.2684,0.54077,0.53772,0.2113
-23.1,-1.2561,0.53173,0.52868,0.2065
-23,-1.2499,0.52705,0.52399,0.2043
-22.9,-1.2437,0.52239,0.51933,0.202
-22.8,-1.2375,0.51779,0.51473,0.1997
-22.7,-1.2313,0.51319,0.51013,0.1974
-22.6,-1.225,0.50866,0.5056,0.1952
-22.5,-1.2188,0.50416,0.5011,0.193
-22.4,-1.2125,0.49968,0.49662,0.1907
-22.3,-1.2062,0.49528,0.49221,0.1885
-22.2,-1.2,0.49087,0.48781,0.1863
-22.1,-1.1937,0.48651,0.48344,0.1841
-22,-1.1874,0.48221,0.47914,0.1819
-21.9,-1.1811,0.47789,0.47482,0.1797
-21.8,-1.1748,0.47367,0.4706,0.1776
-21.7,-1.1685,0.46946,0.46639,0.1754
-21.6,-1.1622,0.46527,0.4622,0.1733
-21.5,-1.1559,0.46111,0.45804,0.1711
-21.4,-1.1495,0.45701,0.45394,0.169
-21.3,-1.1432,0.45293,0.44986,0.1669
-21.2,-1.1369,0.44891,0.44584,0.1648
-21.1,-1.1305,0.44488,0.4418,0.1627
-21,-1.1242,0.44093,0.43785,0.1606
-20.9,-1.1178,0.43698,0.4339,0.1585
-20.8,-1.1115,0.43305,0.42997,0.1564
-20.7,-1.1051,0.42917,0.4261,0.1544
-20.6,-1.0988,0.42534,0.42225,0.1523
-20.5,-1.0924,0.42152,0.41843,0.1503
-20.4,-1.0861,0.41775,0.41466,0.1483
-20.3,-1.0797,0.414,0.41091,0.1463
-20.2,-1.0733,0.41027,0.40718,0.1443
-20.1,-1.067,0.40659,0.40349,0.1423
-20,-1.0606,0.40292,0.39983,0.1403
-19.9,-1.0542,0.39929,0.3962,0.1383
-19.8,-1.0479,0.39568,0.39259,0.1363
-19.7,-1.0415,0.39213,0.38903,0.1344
-19.6,-1.0352,0.38858,0.38549,0.1324
-19.5,-1.0288,0.38507,0.38198,0.1305
-19.4,-1.0224,0.38159,0.3785,0.1286
-19.3,-1.0161,0.37814,0.37504,0.1266
-19.2,-1.0097,0.3747,0.37161,0.1247
-19.1,-1.0034,0.37131,0.36821,0.1228
-19,-0.997,0.36794,0.36485,0.1209
-18.9,-0.9907,0.3646,0.3615,0.119
-18.8,-0.9844,0.36127,0.35818,0.1172
-18.7,-0.978,0.35798,0.35489,0.1153
-18.6,-0.9717,0.35472,0.35163,0.1134
-18.5,-0.9654,0.35148,0.34839,0.1116
-18.4,-0.9591,0.34826,0.34517,0.1097
-18.3,-0.9528,0.34507,0.34198,0.1079
-18.2,-0.9465,0.3419,0.33881,0.106
-18.1,-0.9402,0.33876,0.33567,0.1042
-18,-0.9339,0.33563,0.33254,0.1024
-17.9,-0.9276,0.33253,0.32944,0.1006
-17.8,-0.9213,0.32945,0.32636,0.0987
-17.7,-0.915,0.32638,0.32328,0.0969
-17.6,-0.9088,0.32332,0.32023,0.0951
-17.5,-0.9025,0.32029,0.3172,0.0933
-17.4,-0.8962,0.31726,0.31416,0.0915
-17.3,-0.89,0.31424,0.31115,0.0897
-17.2,-0.8837,0.31122,0.30812,0.0879
-17.1,-0.8774,0.3082,0.30511,0.0861
-17,-0.8711,0.30517,0.30208,0.0843
-16.9,-0.8648,0.30212,0.29904,0.0825
-16.8,-0.8584,0.29903,0.29594,0.0808
-16.6,-0.8444,0.29226,0.28919,0.0766
-16.5,-0.8384,0.2894,0.28633,0.0751
-16.4,-0.8323,0.28655,0.28349,0.0736
-16.3,-0.8262,0.28373,0.28067,0.0721
-16.2,-0.8201,0.28094,0.27787,0.0706
-16.1,-0.8146,0.27846,0.2754,0.0691
-16,-0.8085,0.27571,0.27265,0.0676
-15.9,-0.8024,0.27298,0.26992,0.0661
-15.8,-0.7964,0.27028,0.26722,0.0646
-15.7,-0.7903,0.26759,0.26454,0.0631
-15.6,-0.7843,0.26493,0.26187,0.0617
-15.5,-0.7783,0.26228,0.25923,0.0602
-15.4,-0.7723,0.25966,0.2566,0.0588
-15.3,-0.7663,0.25705,0.254,0.0574
-15.2,-0.7603,0.25447,0.25141,0.0559
-15.1,-0.7544,0.2519,0.24885,0.0545
-15,-0.7484,0.24935,0.2463,0.0531
-14.9,-0.7425,0.24681,0.24377,0.0517
-14.8,-0.7366,0.2443,0.24125,0.0504
-14.7,-0.7307,0.2418,0.23875,0.049
-14.6,-0.7248,0.23932,0.23627,0.0476
-14.5,-0.7189,0.23686,0.23381,0.0463
-14.4,-0.7131,0.23442,0.23137,0.045
-14.3,-0.7073,0.23198,0.22894,0.0436
-14.2,-0.7014,0.22957,0.22653,0.0423
-14.1,-0.6956,0.22718,0.22414,0.041
-14,-0.6899,0.22479,0.22176,0.0397
-13.9,-0.6841,0.22243,0.21939,0.0384
-13.8,-0.6783,0.22007,0.21704,0.0372
-13.7,-0.6726,0.21772,0.2147,0.0359
-13.6,-0.6669,0.2154,0.21237,0.0346
-13.5,-0.6611,0.21309,0.21006,0.0334
-13.4,-0.6555,0.21078,0.20776,0.0322
-13.3,-0.6498,0.20849,0.20548,0.0309
-13.2,-0.6441,0.20622,0.20321,0.0297
-13.1,-0.6385,0.20397,0.20095,0.0285
-13,-0.6329,0.20172,0.1987,0.0273
-12.9,-0.6274,0.19949,0.19648,0.0261
-12.8,-0.6218,0.19727,0.19426,0.0249
-12.7,-0.6163,0.19506,0.19206,0.0238
-12.6,-0.6108,0.19286,0.18986,0.0226
-12.5,-0.6053,0.19068,0.18768,0.0214
-12.4,-0.5999,0.18851,0.18552,0.0203
-12.3,-0.5944,0.18635,0.18336,0.0192
-12.2,-0.5891,0.1842,0.18122,0.018
-12.1,-0.5837,0.18206,0.17908,0.0169
-12,-0.5783,0.17993,0.17695,0.0158
-11.9,-0.573,0.17781,0.17483,0.0147
-11.8,-0.5677,0.1757,0.17272,0.0136
-11.7,-0.5624,0.17359,0.17061,0.0125
-11.6,-0.5572,0.17149,0.16851,0.0114
-11.5,-0.5519,0.16939,0.16642,0.0104
-11.4,-0.5466,0.1673,0.16433,0.0093
-11.3,-0.5414,0.16519,0.16223,0.0082
-11.2,-0.5362,0.16309,0.16012,0.0071
-11.1,-0.5309,0.16098,0.15802,0.0061
-11,-0.5257,0.15885,0.15589,0.005
-10.9,-0.52,0.15621,0.15327,0.0032
-10.8,-0.5151,0.1543,0.15137,0.0023
-10.7,-0.5103,0.15241,0.14948,0.0014
-10.6,-0.5055,0.15054,0.14761,0.0005
-10.5,-0.5006,0.14868,0.14576,-0.0004
-10.4,-0.4959,0.14683,0.14392,-0.0013
-10.3,-0.4911,0.145,0.14209,-0.0021
-10.2,-0.4864,0.14319,0.14028,-0.003
-10.1,-0.4816,0.14138,0.13848,-0.0038
-10,-0.4769,0.13959,0.13669,-0.0047
-9.9,-0.4722,0.1378,0.13491,-0.0055
-9.8,-0.4675,0.13603,0.13314,-0.0064
-9.7,-0.4629,0.13427,0.13139,-0.0072
-9.6,-0.4582,0.13252,0.12965,-0.008
-9.5,-0.4537,0.13079,0.12792,-0.0089
-9.4,-0.4491,0.12907,0.12621,-0.0097
-9.3,-0.4446,0.12736,0.1245,-0.0105
-9.2,-0.4401,0.12566,0.12281,-0.0113
-9.1,-0.4356,0.12398,0.12114,-0.012
-9,-0.4312,0.12231,0.11947,-0.0128
-8.9,-0.4268,0.12065,0.11782,-0.0136
-8.8,-0.4224,0.119,0.11618,-0.0143
-8.7,-0.4181,0.11736,0.11455,-0.0151
-8.6,-0.4139,0.11574,0.11293,-0.0158
-8.5,-0.4097,0.11413,0.11132,-0.0165
-8.4,-0.4055,0.11253,0.10973,-0.0172
-8.3,-0.4014,0.11095,0.10816,-0.0179
-8.2,-0.3975,0.10938,0.1066,-0.0186
-8.1,-0.3936,0.10783,0.10506,-0.0192
-8,-0.3897,0.10629,0.10353,-0.0199
-7.9,-0.386,0.10477,0.10202,-0.0205
-7.8,-0.3824,0.10326,0.10052,-0.021
-7.7,-0.379,0.10177,0.09905,-0.0216
-7.6,-0.3757,0.10031,0.09759,-0.0221
-7.5,-0.3726,0.09887,0.09616,-0.0225
-7.4,-0.3698,0.09745,0.09476,-0.0229
-7.3,-0.3672,0.09607,0.09339,-0.0232
-7.2,-0.365,0.09472,0.09206,-0.0234
-7.1,-0.3633,0.09342,0.09077,-0.0235
-7,-0.362,0.09216,0.08953,-0.0235
-6.9,-0.3611,0.09095,0.08834,-0.0234
-6.8,-0.3608,0.08978,0.08719,-0.0232
-6.7,-0.3587,0.08845,0.08587,-0.0235
-6.6,-0.3516,0.08665,0.08408,-0.0253
-6.5,-0.3444,0.08484,0.08227,-0.0272
-6.4,-0.337,0.08303,0.08046,-0.0292
-6.3,-0.3301,0.08126,0.0787,-0.0311
-6.2,-0.3229,0.07946,0.0769,-0.033
-6.1,-0.3145,0.07756,0.075,-0.0354
-6,-0.3075,0.07576,0.0732,-0.0374
-5.9,-0.3009,0.074,0.07144,-0.0393
-5.8,-0.2938,0.07216,0.0696,-0.0414
-5.7,-0.2862,0.07025,0.06769,-0.0437
-5.6,-0.2805,0.06841,0.06585,-0.0456
-5.5,-0.2741,0.06673,0.06418,-0.0476
-5.4,-0.2669,0.06511,0.06257,-0.0497
-5.3,-0.26,0.06353,0.06098,-0.0518
-5.2,-0.2525,0.06191,0.05936,-0.054
-5.1,-0.2427,0.06015,0.05758,-0.0569
-5,-0.2348,0.05853,0.05596,-0.0592
-4.9,-0.2267,0.05691,0.05433,-0.0616
-4.8,-0.2173,0.05521,0.0526,-0.0643
-4.7,-0.208,0.05352,0.0509,-0.0668
-4.5,-0.1887,0.05019,0.04753,-0.072
-4.4,-0.1788,0.04844,0.04576,-0.0746
-4.3,-0.1694,0.04674,0.04403,-0.0769
-4.2,-0.1584,0.04494,0.0422,-0.0795
-4.1,-0.147,0.04309,0.04031,-0.0822
-4,-0.1362,0.0413,0.03848,-0.0847
-3.9,-0.1239,0.03941,0.03653,-0.0873
-3.8,-0.1106,0.03743,0.03449,-0.0902
-3.7,-0.0984,0.0355,0.03249,-0.0926
-3.6,-0.0849,0.03344,0.03034,-0.0952
-3.5,-0.0705,0.03115,0.02795,-0.0981
-3.4,-0.0562,0.02934,0.02605,-0.1001
-3.3,-0.0411,0.02764,0.02425,-0.102
-3.2,-0.0254,0.02593,0.02242,-0.1038
-3.1,-0.0096,0.02421,0.02055,-0.1053
-3,0.0062,0.0225,0.01869,-0.1067
-2.9,0.0224,0.02076,0.01676,-0.108
-2.8,0.0389,0.01903,0.01481,-0.1091
-2.7,0.0554,0.01743,0.01297,-0.11
-2.6,0.0724,0.01596,0.01122,-0.1107
-2.5,0.0898,0.01467,0.00962,-0.1111
-2.4,0.1073,0.01358,0.00824,-0.1111
-2.3,0.1247,0.01278,0.00718,-0.1108
-2.1,0.16,0.01189,0.00593,-0.1099
-2,0.1779,0.01146,0.00533,-0.1095
-1.9,0.1954,0.01114,0.00488,-0.109
-1.8,0.2132,0.0109,0.00455,-0.1086
-1.7,0.2307,0.0107,0.00424,-0.1081
-1.6,0.2477,0.01056,0.00403,-0.1075
-1.5,0.2651,0.01042,0.00382,-0.1071
-1.4,0.2823,0.01031,0.00362,-0.1067
-1.3,0.299,0.01023,0.0035,-0.1062
-1.2,0.3161,0.01016,0.00336,-0.1058
-1.1,0.3328,0.0101,0.00326,-0.1053
-1,0.3494,0.01006,0.00315,-0.1049
-0.9,0.3658,0.01003,0.00308,-0.1044
-0.8,0.3818,0.01003,0.003,-0.1039
-0.7,0.3981,0.01002,0.00295,-0.1035
-0.6,0.4134,0.01006,0.00289,-0.1028
-0.5,0.4288,0.0101,0.00287,-0.1022
-0.4,0.4445,0.01014,0.00285,-0.1018
-0.3,0.459,0.01024,0.00285,-0.1011
-0.2,0.4745,0.0103,0.00285,-0.1006
-0.1,0.4898,0.01037,0.00288,-0.1001
0,0.5049,0.01045,0.00291,-0.0996
0.1,0.5188,0.0106,0.00295,-0.0989
0.2,0.5336,0.01072,0.00301,-0.0984
0.3,0.5481,0.01083,0.00307,-0.0978
0.4,0.5624,0.01097,0.00314,-0.0972
0.5,0.5765,0.01113,0.00322,-0.0966
0.6,0.5902,0.01131,0.00331,-0.096
0.7,0.6023,0.01158,0.00346,-0.0952
0.8,0.6161,0.01177,0.00358,-0.0946
0.9,0.6303,0.01194,0.00371,-0.0941
1,0.6448,0.01207,0.00383,-0.0936
1.1,0.6597,0.01217,0.00395,-0.0932
1.2,0.6747,0.01218,0.0041,-0.0929
1.3,0.6891,0.01225,0.00426,-0.0924
1.4,0.7042,0.01221,0.0044,-0.0921
1.6,0.7239,0.01126,0.00465,-0.0885
1.7,0.7392,0.01142,0.00478,-0.0879
1.8,0.7545,0.01157,0.00492,-0.0873
1.9,0.7695,0.01175,0.00506,-0.0867
2,0.7847,0.01191,0.00521,-0.0861
2.1,0.8001,0.01207,0.00535,-0.0855
2.2,0.8153,0.01223,0.00551,-0.0848
2.3,0.8305,0.01241,0.00568,-0.0841
2.4,0.8458,0.01257,0.00584,-0.0834
2.5,0.861,0.01274,0.00602,-0.0827
2.6,0.8759,0.01293,0.00621,-0.0819
2.7,0.8911,0.01311,0.00639,-0.0812
2.8,0.906,0.0133,0.00659,-0.0803
2.9,0.9209,0.0135,0.0068,-0.0795
3,0.936,0.01369,0.00701,-0.0786
3.1,0.9509,0.0139,0.00724,-0.0776
3.2,0.9654,0.01412,0.00747,-0.0767
3.3,0.9803,0.01432,0.0077,-0.0757
3.4,0.995,0.01455,0.00796,-0.0746
3.5,1.0092,0.01479,0.00822,-0.0735
3.6,1.0236,0.01503,0.00851,-0.0724
3.7,1.0379,0.01529,0.00881,-0.0712
3.8,1.0518,0.01556,0.00912,-0.0699
3.9,1.0654,0.01584,0.00945,-0.0686
4,1.0794,0.01612,0.00977,-0.0673
4.1,1.0927,0.01643,0.01016,-0.0658
4.2,1.1057,0.01675,0.01055,-0.0643
4.3,1.1183,0.01711,0.01095,-0.0628
4.4,1.1305,0.01749,0.01143,-0.0611
4.5,1.1417,0.0179,0.01193,-0.0593
4.6,1.1521,0.01833,0.01245,-0.0573
4.7,1.1622,0.0188,0.013,-0.0554
4.8,1.1718,0.01931,0.01359,-0.0534
4.9,1.1814,0.01989,0.0143,-0.0515
5,1.1898,0.02055,0.01507,-0.0495
5.1,1.1974,0.02126,0.0159,-0.0475
5.2,1.2042,0.02202,0.01679,-0.0455
5.3,1.2098,0.02287,0.01776,-0.0435
5.4,1.2131,0.02393,0.01898,-0.0416
5.5,1.2152,0.02507,0.02028,-0.0397
5.6,1.2158,0.0263,0.02166,-0.038
5.7,1.2152,0.0276,0.02312,-0.0364
5.8,1.2134,0.02899,0.02465,-0.035
5.9,1.2105,0.03047,0.02626,-0.0338
6,1.2066,0.03204,0.02795,-0.0328
6.1,1.202,0.03369,0.02973,-0.0321
6.2,1.1968,0.03544,0.03159,-0.0317
6.3,1.1909,0.0373,0.03355,-0.0316
6.4,1.1847,0.03927,0.03561,-0.0318
6.5,1.178,0.04135,0.03777,-0.0323
6.6,1.1671,0.04398,0.04049,-0.0338
6.7,1.1582,0.04652,0.04312,-0.0354
6.8,1.1492,0.04922,0.04588,-0.0373
6.9,1.1402,0.05207,0.0488,-0.0397
7,1.1314,0.05505,0.05185,-0.0423
7.1,1.1227,0.05815,0.05499,-0.0451
7.2,1.1144,0.06133,0.05821,-0.0479
7.4,1.0997,0.06768,0.06463,-0.0533
7.5,1.0932,0.0707,0.06766,-0.0556
7.6,1.0873,0.0736,0.07057,-0.0578
7.7,1.0819,0.0764,0.07338,-0.0598
7.9,1.0732,0.08173,0.07874,-0.0635
8,1.0698,0.08427,0.08129,-0.0652
8.1,1.0671,0.08674,0.08376,-0.0669
8.2,1.0609,0.08976,0.08676,-0.069
8.3,1.055,0.0928,0.0898,-0.0712
8.4,1.0499,0.09576,0.09276,-0.0733
8.5,1.0456,0.09863,0.09564,-0.0752
8.6,1.042,0.10143,0.09844,-0.0771
8.7,1.0387,0.10432,0.10133,-0.0791
8.8,1.0369,0.10689,0.1039,-0.0807
8.9,1.0357,0.1094,0.10641,-0.0823
9,1.035,0.11185,0.10887,-0.0838
9.1,1.0348,0.11424,0.11126,-0.0852
9.2,1.0351,0.11656,0.11358,-0.0865
9.3,1.0358,0.11882,0.11584,-0.0878
9.4,1.0369,0.12101,0.11804,-0.089
9.5,1.0382,0.12316,0.12018,-0.0902
9.6,1.0372,0.12584,0.12285,-0.0919
9.7,1.0352,0.12887,0.12588,-0.0939
9.8,1.0342,0.13171,0.12873,-0.0957
9.9,1.0339,0.13445,0.13147,-0.0974
10,1.0342,0.13709,0.13411,-0.099
10.1,1.0349,0.13967,0.1367,-0.1005
10.2,1.036,0.1422,0.13924,-0.1021
10.3,1.0375,0.14469,0.14172,-0.1035
10.4,1.0392,0.14712,0.14416,-0.1049
10.5,1.0412,0.14952,0.14656,-0.1063
10.6,1.0434,0.15187,0.14892,-0.1077
10.7,1.0471,0.15384,0.15088,-0.1089
10.8,1.0499,0.15601,0.15306,-0.1101
10.9,1.053,0.15814,0.15519,-0.1113
11,1.0562,0.16022,0.15727,-0.1124
11.1,1.0594,0.16225,0.15931,-0.1136
11.2,1.0607,0.16521,0.16226,-0.1155
11.3,1.062,0.16827,0.16532,-0.1174
11.4,1.0642,0.17107,0.16813,-0.1192
11.5,1.0667,0.17378,0.17084,-0.1209
11.6,1.0695,0.17639,0.17346,-0.1224
11.7,1.0727,0.17895,0.17602,-0.124
11.8,1.076,0.18146,0.17854,-0.1255
11.9,1.0795,0.18394,0.18101,-0.127
12,1.0831,0.18638,0.18346,-0.1285
12.1,1.0869,0.18879,0.18588,-0.1299
12.2,1.0909,0.19118,0.18827,-0.1314
12.3,1.0949,0.19354,0.19063,-0.1328
12.4,1.0991,0.19587,0.19297,-0.1342
12.5,1.1034,0.19818,0.19529,-0.1356
12.6,1.1081,0.19992,0.19703,-0.1368
12.7,1.1126,0.20203,0.19916,-0.1381
12.8,1.1171,0.2041,0.20124,-0.1394
12.9,1.1209,0.20703,0.20416,-0.1413
13,1.1244,0.21044,0.20757,-0.1435
13.1,1.1284,0.21347,0.21061,-0.1454
13.2,1.1326,0.21633,0.21347,-0.1472
13.3,1.137,0.21911,0.21625,-0.149
13.4,1.1415,0.22181,0.21896,-0.1507
13.5,1.1462,0.22447,0.22163,-0.1524
13.6,1.151,0.2271,0.22427,-0.154
13.7,1.1559,0.2297,0.22687,-0.1557
13.8,1.1608,0.23227,0.22944,-0.1573
13.9,1.1659,0.2348,0.23199,-0.1589
14.1,1.1761,0.23919,0.23638,-0.162
14.2,1.1813,0.24143,0.23862,-0.1635
14.3,1.1865,0.24359,0.24079,-0.165
14.4,1.1911,0.24745,0.24464,-0.1674
14.5,1.1961,0.25092,0.24811,-0.1696
14.6,1.2012,0.25418,0.25138,-0.1716
14.7,1.2064,0.25728,0.25448,-0.1736
14.8,1.2118,0.26029,0.2575,-0.1755
14.9,1.2169,0.26322,0.26043,-0.1777
15,1.2224,0.26593,0.26315,-0.1794
15.1,1.228,0.2686,0.26582,-0.1812
15.2,1.2336,0.27122,0.26844,-0.1829
15.3,1.2393,0.27377,0.271,-0.1846
15.4,1.245,0.27626,0.27349,-0.1863
15.5,1.2506,0.27895,0.27617,-0.1881
15.6,1.2562,0.28299,0.28021,-0.1905
15.7,1.2619,0.28662,0.28385,-0.1927
15.8,1.2676,0.29004,0.28727,-0.1948
15.9,1.2735,0.29334,0.29057,-0.1968
16.1,1.2849,0.29974,0.29697,-0.2012
16.2,1.2909,0.3027,0.29994,-0.2031
16.3,1.2969,0.30563,0.30288,-0.205
16.4,1.3029,0.30853,0.30578,-0.2069
16.5,1.3089,0.3114,0.30866,-0.2088
16.6,1.3149,0.31424,0.31149,-0.2106
16.7,1.3209,0.31718,0.31442,-0.2126
16.8,1.3271,0.32146,0.31871,-0.215
16.9,1.3332,0.32526,0.32251,-0.2172
17,1.3394,0.32894,0.32619,-0.2194
17.1,1.3456,0.33251,0.32976,-0.2215
17.2,1.3517,0.33601,0.33327,-0.2236
17.3,1.358,0.33951,0.33677,-0.2257
17.4,1.3642,0.34298,0.34024,-0.2278
17.5,1.3705,0.34641,0.34367,-0.2299
17.6,1.3767,0.34985,0.34711,-0.232
17.7,1.383,0.35326,0.35052,-0.2341
17.8,1.3893,0.35667,0.35393,-0.2361
17.9,1.3956,0.36007,0.35734,-0.2382
18,1.4019,0.36349,0.36076,-0.2403
18.1,1.4082,0.3669,0.36417,-0.2424
18.2,1.4145,0.3703,0.36757,-0.2445
18.3,1.4208,0.37371,0.37099,-0.2466
18.4,1.4271,0.37712,0.3744,-0.2487
18.5,1.4334,0.38054,0.37781,-0.2508
18.6,1.4397,0.38397,0.38125,-0.2529
18.7,1.4463,0.38964,0.38691,-0.2562
18.8,1.4527,0.39356,0.39083,-0.2584
18.9,1.4591,0.39747,0.39474,-0.2607
19,1.4655,0.40134,0.39861,-0.2629
19.1,1.472,0.40525,0.40253,-0.2652
19.2,1.4784,0.40915,0.40642,-0.2674
19.3,1.4849,0.41308,0.41037,-0.2697
19.4,1.4913,0.417,0.41429,-0.272
19.5,1.4977,0.42095,0.41825,-0.2742
19.6,1.5042,0.42492,0.42221,-0.2765
19.7,1.5106,0.4289,0.4262,-0.2788
19.8,1.5171,0.43292,0.43022,-0.2811
19.9,1.5235,0.43695,0.43425,-0.2834
20,1.53,0.44103,0.43833,-0.2857
20.1,1.5364,0.44511,0.44241,-0.288
20.2,1.5428,0.4492,0.44651,-0.2904
20.3,1.5493,0.45335,0.45066,-0.2927
20.4,1.5557,0.45753,0.45485,-0.295
20.5,1.5621,0.46171,0.45903,-0.2974
20.6,1.5686,0.46595,0.46327,-0.2998
20.7,1.575,0.47022,0.46754,-0.3021
20.8,1.5814,0.47448,0.4718,-0.3045
20.9,1.5879,0.4788,0.47612,-0.3069
21,1.5943,0.48316,0.48049,-0.3093
21.1,1.6007,0.48755,0.48488,-0.3117
21.2,1.6071,0.49193,0.48927,-0.3141
21.3,1.6135,0.49641,0.49375,-0.3165
21.4,1.62,0.50168,0.49901,-0.3192
21.5,1.6266,0.50694,0.50427,-0.3218
21.6,1.6332,0.51216,0.50949,-0.3244
21.7,1.6397,0.51726,0.51459,-0.327
21.8,1.6462,0.52233,0.51966,-0.3296
21.9,1.6526,0.52741,0.52474,-0.3322
22,1.6592,0.53255,0.52989,-0.3348
22.1,1.6656,0.53764,0.53498,-0.3374
22.2,1.672,0.54272,0.54006,-0.34
22.3,1.6784,0.54792,0.54528,-0.3426
22.4,1.6848,0.55309,0.55045,-0.3453
22.5,1.6912,0.55828,0.55564,-0.3479
22.6,1.6976,0.56359,0.56095,-0.3505
22.7,1.704,0.56885,0.56622,-0.3531
22.8,1.7104,0.5742,0.57158,-0.3558
22.9,1.7167,0.57958,0.57695,-0.3584
23,1.7231,0.58499,0.58237,-0.3611
23.1,1.7294,0.59003,0.58741,-0.3641
23.2,1.7357,0.59546,0.59284,-0.3667
23.3,1.742,0.60098,0.59836,-0.3694
23.4,1.7483,0.60656,0.60395,-0.3721
23.5,1.7546,0.61219,0.60958,-0.3748
23.6,1.7609,0.61785,0.61524,-0.3775
23.7,1.7672,0.62357,0.62097,-0.3802
23.8,1.7733,0.62929,0.62669,-0.383
23.9,1.7796,0.63515,0.63256,-0.3857
24,1.7859,0.64103,0.63844,-0.3885
24.1,1.7921,0.64698,0.6444,-0.3912
24.2,1.7983,0.653,0.65042,-0.394
24.3,1.8045,0.65906,0.65648,-0.3967
24.4,1.8106,0.66519,0.66262,-0.3995
24.5,1.8168,0.67138,0.66881,-0.4023
24.6,1.8229,0.67762,0.67506,-0.4051
24.7,1.829,0.68395,0.68139,-0.4079
24.8,1.8352,0.69034,0.68778,-0.4108
24.9,1.8413,0.69679,0.69424,-0.4136
25,1.8473,0.70331,0.70076,-0.4164
25.1,1.8534,0.70994,0.70739,-0.4193
25.2,1.8595,0.7166,0.71407,-0.4222
25.3,1.8655,0.72335,0.72082,-0.425
25.4,1.8715,0.73017,0.72764,-0.4279
25.5,1.8775,0.73709,0.73457,-0.4308
25.6,1.8835,0.74408,0.74156,-0.4337
25.7,1.8895,0.75112,0.74861,-0.4366
25.8,1.8955,0.75827,0.75576,-0.4395
26,1.9077,0.77388,0.77136,-0.4458
26.1,1.9139,0.7819,0.77939,-0.4491
26.2,1.9198,0.78951,0.787,-0.4521
26.3,1.9258,0.79733,0.79482,-0.4553
26.4,1.9317,0.80502,0.80252,-0.4583
26.5,1.9376,0.81289,0.81039,-0.4614
26.6,1.9435,0.82082,0.81833,-0.4645
26.7,1.9493,0.82876,0.82627,-0.4676
26.8,1.9552,0.83693,0.83444,-0.4708
26.9,1.961,0.84507,0.84259,-0.4739
27,1.9669,0.85337,0.85089,-0.4771
27.1,1.9726,0.86161,0.85913,-0.4802
27.2,1.9784,0.87002,0.86755,-0.4833
27.3,1.9842,0.87859,0.87613,-0.4865
27.4,1.9898,0.88708,0.88462,-0.4896
27.5,1.9955,0.89584,0.89338,-0.4928
27.6,2.0012,0.90467,0.90222,-0.4959
27.7,2.0067,0.91348,0.91103,-0.4991
27.8,2.0124,0.92257,0.92012,-0.5023
27.9,2.0179,0.93157,0.92913,-0.5055
28,2.0235,0.94081,0.93837,-0.5086
28.1,2.029,0.9502,0.94777,-0.5118
28.2,2.0345,0.95954,0.95713,-0.515
28.3,2.04,0.96914,0.96672,-0.5182
28.4,2.0454,0.9789,0.97649,-0.5214
28.5,2.0508,0.9885,0.9861,-0.5247
28.6,2.0562,0.99851,0.99611,-0.5279
28.7,2.0616,1.00857,1.00617,-0.5311
28.8,2.067,1.01768,1.01529,-0.5346
28.9,2.0722,1.02782,1.02544,-0.5378
29,2.0775,1.0383,1.03592,-0.541
29.1,2.0827,1.04883,1.04645,-0.5443
29.2,2.0879,1.05941,1.05703,-0.5475
29.3,2.0931,1.07027,1.0679,-0.5508
29.4,2.0983,1.08121,1.07885,-0.5541
29.5,2.1034,1.09233,1.08997,-0.5573
29.6,2.1085,1.10352,1.10117,-0.5606
29.7,2.1135,1.11474,1.11239,-0.5639
29.8,2.1185,1.12623,1.12389,-0.5672
29.9,2.1235,1.13795,1.13561,-0.5704
30,2.1284,1.14977,1.14743,-0.5737

