airfoilName st25.dat
Re 	1.100000e+05
M 	7.000000e-01
N 	4.500000e+00
VACC 	0 VACCflag 1
XTR 	1.00 	1.00 XTRflag 0
alpha,cl,cd,cdp,cm
-0.8,0.3118,0.01742,0.00873,-0.0994
-0.7,0.3332,0.0172,0.0085,-0.0997
-0.6,0.3493,0.01703,0.00832,-0.0991
-0.5,0.3665,0.01691,0.00818,-0.0988
-0.4,0.3869,0.01669,0.008,-0.099
-0.3,0.4044,0.01653,0.00781,-0.0985
-0.2,0.4218,0.01637,0.00766,-0.0982
-0.1,0.4408,0.01615,0.00748,-0.098
0,0.4581,0.01604,0.00739,-0.0977
0.1,0.4763,0.0159,0.00729,-0.0976
0.2,0.4947,0.0157,0.0072,-0.0976
0.3,0.5129,0.0155,0.00706,-0.0973
0.4,0.5309,0.01533,0.00699,-0.0971
0.5,0.548,0.01501,0.00693,-0.0968
0.6,0.564,0.01464,0.00685,-0.0962
0.7,0.5789,0.01375,0.00658,-0.0931
0.8,0.5967,0.01376,0.00645,-0.0926
0.9,0.6137,0.01381,0.00637,-0.0919
1,0.6298,0.01389,0.0063,-0.0911
1.1,0.6444,0.01402,0.00623,-0.0899
1.2,0.6587,0.01418,0.00624,-0.0889
1.3,0.6723,0.01437,0.00629,-0.0878
1.4,0.6855,0.01458,0.00637,-0.0867
1.5,0.6982,0.01482,0.00648,-0.0856
1.6,0.709,0.01513,0.00659,-0.0842
1.7,0.7212,0.01541,0.00675,-0.0831
1.8,0.7334,0.0157,0.00693,-0.082
1.9,0.7457,0.01599,0.00713,-0.0809
2,0.7582,0.01629,0.00735,-0.0799
2.1,0.7693,0.01665,0.0076,-0.0788
2.2,0.7819,0.01697,0.00786,-0.0778
2.3,0.7948,0.01729,0.00813,-0.0769
2.4,0.8075,0.01762,0.00842,-0.0759
2.5,0.8205,0.01795,0.00873,-0.075
2.6,0.8334,0.0183,0.00905,-0.074
2.7,0.8446,0.01871,0.0094,-0.0729
2.8,0.8583,0.01904,0.00977,-0.072
2.9,0.8712,0.01942,0.01015,-0.071
3,0.8843,0.0198,0.01054,-0.07
3.1,0.8977,0.02018,0.01095,-0.0691
3.2,0.9102,0.02059,0.01138,-0.068
3.3,0.9225,0.021,0.01181,-0.0669
3.4,0.9348,0.02144,0.01227,-0.0658
3.5,0.948,0.02188,0.01277,-0.0648
3.6,0.961,0.02234,0.0133,-0.0637
3.7,0.9729,0.02283,0.01384,-0.0625
3.8,0.9853,0.02335,0.01442,-0.0614
3.9,0.9962,0.02384,0.01497,-0.0601
4,1.0074,0.02439,0.01558,-0.0588
4.1,1.0194,0.025,0.01632,-0.0577
4.2,1.0302,0.02564,0.01706,-0.0564
4.3,1.04,0.02629,0.01779,-0.0551
4.4,1.0494,0.027,0.01858,-0.0537
4.5,1.0585,0.02782,0.01959,-0.0524
4.6,1.0663,0.02865,0.02056,-0.051
4.7,1.0716,0.02929,0.02123,-0.0493
4.8,1.0764,0.03026,0.02236,-0.0477
4.9,1.08,0.03124,0.02348,-0.0462
5,1.0827,0.03225,0.02461,-0.0446
5.1,1.0849,0.03328,0.02575,-0.043
5.2,1.0865,0.03433,0.02688,-0.0415
5.3,1.086,0.0356,0.02826,-0.0403
5.4,1.0834,0.03707,0.02988,-0.0393
5.5,1.0801,0.03858,0.03153,-0.0384
5.6,1.0762,0.04016,0.03322,-0.0378
5.7,1.0719,0.04179,0.03496,-0.0373
5.8,1.0672,0.04349,0.03675,-0.037
5.9,1.0648,0.0448,0.03807,-0.0366
6,1.0566,0.04695,0.04033,-0.0372
6.1,1.0485,0.04918,0.04265,-0.0381
6.2,1.0405,0.0515,0.04505,-0.0392
6.3,1.0328,0.0539,0.04751,-0.0405
6.4,1.0256,0.05634,0.05001,-0.0421
6.5,1.0192,0.05881,0.05253,-0.0437
6.6,1.0137,0.06125,0.055,-0.0453
6.7,1.0093,0.06362,0.0574,-0.0469
6.8,1.0062,0.06588,0.05969,-0.0482
6.9,1.0044,0.06799,0.06182,-0.0494
7,1.0017,0.07028,0.0641,-0.0508
7.1,0.9936,0.0736,0.06746,-0.0538
7.2,0.9874,0.07671,0.07059,-0.0564
7.3,0.983,0.07959,0.07349,-0.0586
7.4,0.9799,0.08226,0.07617,-0.0604
7.5,0.9779,0.08474,0.07867,-0.062
7.6,0.9768,0.08707,0.081,-0.0633
7.8,0.9777,0.09092,0.08483,-0.0654
7.9,0.9736,0.09394,0.08786,-0.0677
8,0.9711,0.09668,0.0906,-0.0696
8.1,0.9697,0.09921,0.09314,-0.0713
8.2,0.9693,0.10159,0.09553,-0.0727
8.3,0.9695,0.10384,0.09779,-0.0739
8.4,0.9705,0.10599,0.09995,-0.075
8.5,0.972,0.10803,0.10199,-0.076
8.6,0.974,0.10997,0.10394,-0.0768
8.7,0.9766,0.11181,0.10578,-0.0774
8.8,0.9796,0.11355,0.10753,-0.078
8.9,0.9801,0.11593,0.10989,-0.0794
9,0.9781,0.11898,0.11295,-0.0817
9.1,0.9777,0.1217,0.11568,-0.0836
9.2,0.9782,0.12424,0.11823,-0.0852
9.4,0.9805,0.12873,0.12273,-0.0881
9.5,0.9835,0.13071,0.1247,-0.089
9.6,0.9867,0.1326,0.12664,-0.0898
9.7,0.9903,0.13442,0.12847,-0.0904
9.8,0.9942,0.13616,0.13022,-0.091
9.9,0.9942,0.13912,0.13315,-0.0932
10,0.9948,0.14199,0.13603,-0.0952
10.1,0.9963,0.14463,0.13868,-0.097
10.2,0.9984,0.14714,0.14119,-0.0986
10.3,1.0009,0.14954,0.14361,-0.1
10.4,1.0038,0.15187,0.14594,-0.1013
10.5,1.0069,0.15413,0.14821,-0.1026
10.6,1.0104,0.15634,0.15043,-0.1038
10.7,1.014,0.1585,0.1526,-0.1049
10.8,1.0179,0.16062,0.15472,-0.1059
10.9,1.0219,0.1627,0.15681,-0.1069
11.1,1.0288,0.16674,0.16083,-0.1094
11.2,1.0311,0.16962,0.16372,-0.1115
11.3,1.0341,0.17231,0.16642,-0.1133
11.5,1.0411,0.17736,0.17148,-0.1165
11.6,1.045,0.17978,0.17391,-0.1179
11.7,1.0491,0.18215,0.17629,-0.1193
11.8,1.0534,0.18449,0.17864,-0.1207
11.9,1.0578,0.18679,0.18095,-0.122
12,1.0624,0.18906,0.18323,-0.1233
12.1,1.0671,0.19131,0.18549,-0.1245
12.2,1.072,0.19353,0.18772,-0.1257
12.3,1.0769,0.19572,0.18992,-0.1268
12.4,1.082,0.1979,0.19211,-0.1279
12.5,1.0872,0.20004,0.19426,-0.129
12.6,1.0924,0.20216,0.19639,-0.13
12.7,1.0977,0.20424,0.19849,-0.131
12.8,1.0979,0.20857,0.20278,-0.1355
12.9,1.1024,0.21123,0.20545,-0.1372
13,1.1072,0.21384,0.20807,-0.1389
13.1,1.1121,0.21641,0.21064,-0.1405
13.2,1.1171,0.21894,0.21321,-0.142
13.3,1.1222,0.22145,0.21573,-0.1436
13.4,1.1275,0.22393,0.21823,-0.145
13.5,1.1328,0.2264,0.22071,-0.1465
13.6,1.1382,0.22886,0.22317,-0.1479
13.7,1.1437,0.23129,0.22562,-0.1493
13.8,1.1492,0.23371,0.22804,-0.1506
13.9,1.1548,0.23611,0.23046,-0.1519
14,1.1605,0.23849,0.23285,-0.1532
14.1,1.1663,0.24085,0.23522,-0.1544
14.2,1.172,0.24322,0.23756,-0.1556
14.3,1.1763,0.24688,0.24123,-0.1585
14.4,1.1796,0.25065,0.245,-0.1622
14.5,1.1851,0.25352,0.24787,-0.164
14.6,1.1906,0.25635,0.25072,-0.1658
14.7,1.1963,0.25916,0.25354,-0.1675
14.8,1.202,0.26196,0.25634,-0.1692
14.9,1.2078,0.26474,0.25913,-0.1709
15,1.2136,0.26751,0.26191,-0.1726
15.1,1.2195,0.27026,0.26466,-0.1742
15.2,1.2255,0.273,0.26742,-0.1758
15.3,1.2315,0.27573,0.27015,-0.1774
15.4,1.2375,0.27845,0.27288,-0.1789
15.5,1.2435,0.28115,0.27559,-0.1804
15.6,1.2496,0.28384,0.27829,-0.1819
15.7,1.2554,0.28695,0.28137,-0.1839
15.8,1.2595,0.29129,0.2857,-0.188
15.9,1.2655,0.29448,0.28891,-0.19
16,1.2715,0.29767,0.2921,-0.192
16.1,1.2775,0.30083,0.29526,-0.194
16.2,1.2836,0.30397,0.29841,-0.1959
16.3,1.2897,0.3071,0.30157,-0.1978
16.4,1.2959,0.31022,0.3047,-0.1997
16.5,1.3021,0.31335,0.30783,-0.2015
16.6,1.3083,0.31647,0.31096,-0.2034
16.7,1.3146,0.31958,0.31407,-0.2052
16.8,1.3209,0.3227,0.3172,-0.207
16.9,1.3271,0.32581,0.32031,-0.2088
17,1.3334,0.32892,0.32343,-0.2106
17.1,1.3397,0.33203,0.32655,-0.2123
17.2,1.346,0.33514,0.32966,-0.2141
17.3,1.3521,0.33911,0.3336,-0.2167
17.4,1.3574,0.34331,0.3378,-0.2205
17.5,1.3637,0.34685,0.34134,-0.2226
17.6,1.3701,0.35039,0.34489,-0.2248
17.7,1.3764,0.35391,0.34841,-0.2269
17.8,1.3828,0.35744,0.35195,-0.2289
17.9,1.3892,0.36098,0.35549,-0.231
18,1.3956,0.36454,0.35905,-0.2331
18.1,1.402,0.36809,0.36261,-0.2351
18.2,1.4084,0.37167,0.36619,-0.2372
18.3,1.4148,0.37524,0.36977,-0.2392
18.4,1.4213,0.37884,0.37337,-0.2413
18.5,1.4277,0.38246,0.377,-0.2433
18.6,1.4342,0.38609,0.38064,-0.2454
18.7,1.4406,0.38973,0.38428,-0.2474
18.8,1.447,0.39339,0.38795,-0.2494
18.9,1.4535,0.39709,0.39164,-0.2515
19,1.4599,0.4009,0.39543,-0.2536
19.1,1.4663,0.40547,0.4,-0.2565
19.2,1.4728,0.40975,0.40428,-0.259
19.3,1.4793,0.414,0.40856,-0.2615
19.4,1.4857,0.41818,0.41275,-0.2639
19.5,1.4922,0.42237,0.41694,-0.2663
19.6,1.4984,0.42597,0.42055,-0.2693
19.7,1.5049,0.43008,0.42466,-0.2716
19.8,1.5114,0.43424,0.42882,-0.2738
19.9,1.5179,0.43841,0.433,-0.2761
20,1.5244,0.44262,0.43722,-0.2784
20.1,1.5309,0.44685,0.44145,-0.2807
20.2,1.5375,0.45111,0.44571,-0.283
20.3,1.544,0.45541,0.45002,-0.2853
20.4,1.5505,0.45975,0.45436,-0.2876
20.5,1.557,0.46409,0.45871,-0.2899
20.6,1.5635,0.46851,0.46313,-0.2922
20.7,1.57,0.47294,0.46757,-0.2945
20.8,1.5765,0.4774,0.47203,-0.2968
20.9,1.583,0.48191,0.47655,-0.2991
21,1.5895,0.48646,0.4811,-0.3015
21.1,1.5959,0.49105,0.4857,-0.3038
21.2,1.6024,0.4957,0.49033,-0.3062
21.3,1.6089,0.50089,0.49552,-0.3091
21.4,1.6154,0.50596,0.50059,-0.3119
21.5,1.622,0.51095,0.50559,-0.3146
21.6,1.6285,0.51597,0.51061,-0.3172
21.7,1.635,0.52097,0.51562,-0.3198
21.8,1.6414,0.52601,0.52066,-0.3225
21.9,1.6479,0.53109,0.52575,-0.3251
22,1.6544,0.53623,0.53089,-0.3277
22.1,1.6609,0.54135,0.53602,-0.3303
22.2,1.6673,0.54653,0.5412,-0.3329
22.3,1.6738,0.5518,0.5465,-0.3355
22.4,1.6802,0.55707,0.55178,-0.3381
22.5,1.6867,0.56238,0.55709,-0.3407
22.6,1.6931,0.5678,0.56252,-0.3433
22.7,1.6995,0.57322,0.56794,-0.3459
22.8,1.7059,0.57873,0.57346,-0.3485
22.9,1.7123,0.58427,0.579,-0.3511
23,1.7187,0.58988,0.58462,-0.3538
23.1,1.7251,0.59554,0.59029,-0.3564
23.2,1.7314,0.60124,0.596,-0.359
23.3,1.7378,0.60703,0.60179,-0.3617
23.4,1.7442,0.6129,0.60767,-0.3643
23.5,1.7505,0.61882,0.61359,-0.367
23.7,1.763,0.62952,0.62431,-0.3725
23.8,1.7692,0.6355,0.63029,-0.3752
23.9,1.7756,0.64168,0.63648,-0.3779
24,1.7818,0.64786,0.64267,-0.3806
24.1,1.7881,0.65414,0.64895,-0.3833
24.2,1.7943,0.66049,0.65531,-0.386
24.3,1.8006,0.66688,0.6617,-0.3887
24.4,1.8069,0.67331,0.66812,-0.3919
24.5,1.8131,0.67975,0.67456,-0.3949
24.6,1.8194,0.68621,0.68103,-0.398
24.7,1.8256,0.69273,0.68756,-0.401
24.8,1.8319,0.69935,0.69419,-0.404
24.9,1.838,0.706,0.70085,-0.407
25,1.8442,0.71272,0.70757,-0.41
25.1,1.8504,0.71954,0.71439,-0.413
25.2,1.8566,0.72642,0.72128,-0.4159
25.3,1.8627,0.73336,0.72825,-0.4189
25.4,1.8688,0.7404,0.7353,-0.4219
25.5,1.8749,0.74754,0.74244,-0.4248
25.6,1.881,0.75475,0.74966,-0.4278
25.7,1.887,0.76206,0.75699,-0.4308
25.8,1.8931,0.76946,0.7644,-0.4338
25.9,1.8991,0.77697,0.7719,-0.4368
26,1.905,0.78449,0.77944,-0.4398
26.1,1.9111,0.79229,0.78724,-0.4428
26.2,1.917,0.80003,0.79499,-0.4458
26.3,1.923,0.80793,0.8029,-0.4488
26.4,1.9289,0.8158,0.81078,-0.4518
26.5,1.9348,0.82396,0.81894,-0.4548
26.6,1.9407,0.83215,0.82715,-0.4578
26.7,1.9465,0.84039,0.83539,-0.4608
26.8,1.9523,0.84888,0.84389,-0.4638
26.9,1.9582,0.85738,0.8524,-0.4669
27,1.964,0.86608,0.86111,-0.4699
27.1,1.9697,0.87475,0.86979,-0.473
27.2,1.9755,0.88358,0.87862,-0.476
27.3,1.9813,0.89265,0.8877,-0.4791
27.4,1.9869,0.90164,0.8967,-0.4821
27.5,1.9926,0.91088,0.90595,-0.4852
27.6,1.9983,0.9202,0.91528,-0.4883
27.7,2.0038,0.92956,0.92465,-0.4914
27.8,2.0095,0.93922,0.93431,-0.4945
27.9,2.015,0.94882,0.94393,-0.4976
28,2.0206,0.95867,0.95379,-0.5007
28.1,2.0262,0.96865,0.96377,-0.5038
28.2,2.0316,0.97863,0.97376,-0.5069
28.3,2.0371,0.98888,0.98404,-0.51
28.4,2.0425,0.99918,0.99435,-0.5132
28.5,2.0479,1.00954,1.00471,-0.5163
28.6,2.0534,1.02023,1.01541,-0.5194
28.7,2.0588,1.03101,1.0262,-0.5226
28.8,2.0641,1.04176,1.03696,-0.5258
28.9,2.0693,1.05269,1.04791,-0.5289
29,2.0746,1.06393,1.05915,-0.5321
29.1,2.0799,1.07523,1.07046,-0.5353
29.2,2.0851,1.08655,1.08179,-0.5385
29.3,2.0903,1.09822,1.09346,-0.5417
29.4,2.0955,1.10996,1.10522,-0.5449
29.5,2.1006,1.12187,1.11714,-0.548
29.6,2.1057,1.13386,1.12914,-0.5513
29.7,2.112,1.13672,1.13198,-0.5574
29.8,2.1172,1.14807,1.14334,-0.5609
29.9,2.1223,1.15967,1.15494,-0.5644
30,2.1274,1.17153,1.16681,-0.5679

