airfoilName st25.dat
Re 	4.100000e+05
M 	7.000000e-01
N 	4.500000e+00
VACC 	0 VACCflag 1
XTR 	1.00 	1.00 XTRflag 0
alpha,cl,cd,cdp,cm
-30,-1.6575,0.94914,0.94634,0.3999
-29.9,-1.6523,0.94079,0.938,0.3969
-29.8,-1.6472,0.9325,0.9297,0.3938
-29.7,-1.642,0.92438,0.92158,0.3908
-29.6,-1.6368,0.91634,0.91353,0.3878
-29.5,-1.6315,0.90831,0.9055,0.3848
-29.4,-1.6263,0.90038,0.89756,0.3818
-29.3,-1.621,0.89256,0.88974,0.3787
-29.2,-1.6157,0.88484,0.88202,0.3758
-29.1,-1.6103,0.87713,0.87429,0.3728
-29,-1.605,0.86957,0.86673,0.3698
-28.9,-1.5996,0.86197,0.85913,0.3668
-28.8,-1.5942,0.85454,0.8517,0.3639
-28.7,-1.5888,0.84717,0.84432,0.3609
-28.6,-1.5833,0.83985,0.837,0.358
-28.5,-1.5779,0.83268,0.82983,0.355
-28.4,-1.5724,0.82553,0.82267,0.3521
-28.3,-1.5669,0.81846,0.8156,0.3492
-28.2,-1.5613,0.81148,0.80862,0.3462
-28.1,-1.5558,0.80454,0.80167,0.3433
-28,-1.5502,0.79767,0.7948,0.3404
-27.9,-1.5446,0.79089,0.78802,0.3375
-27.8,-1.5389,0.78414,0.78127,0.3346
-27.7,-1.5333,0.77749,0.77461,0.3318
-27.6,-1.5277,0.7709,0.76802,0.3289
-27.5,-1.522,0.76439,0.76151,0.326
-27.4,-1.5163,0.7579,0.75502,0.3232
-27.3,-1.5105,0.75152,0.74863,0.3203
-27.2,-1.5048,0.7452,0.74231,0.3175
-27.1,-1.499,0.7389,0.736,0.3147
-27,-1.4933,0.73271,0.72981,0.3118
-26.9,-1.4875,0.72656,0.72366,0.309
-26.8,-1.4817,0.72049,0.71759,0.3062
-26.7,-1.4759,0.71448,0.71157,0.3034
-26.6,-1.47,0.70852,0.70561,0.3006
-26.5,-1.4641,0.70261,0.6997,0.2978
-26.4,-1.4582,0.69674,0.69382,0.295
-26.3,-1.4523,0.69099,0.68807,0.2923
-26.2,-1.4464,0.68527,0.68234,0.2895
-26.1,-1.4405,0.67957,0.67664,0.2867
-26,-1.4345,0.67395,0.67102,0.284
-25.9,-1.4285,0.66842,0.66549,0.2812
-25.8,-1.4225,0.66296,0.66003,0.2784
-25.7,-1.4165,0.65751,0.65458,0.2757
-25.6,-1.4104,0.65221,0.64928,0.2729
-25.5,-1.4044,0.64689,0.64395,0.2702
-25.4,-1.3983,0.6417,0.63876,0.2674
-25.3,-1.3922,0.63649,0.63354,0.2647
-25.2,-1.3861,0.63152,0.62858,0.2619
-25.1,-1.38,0.62656,0.62361,0.2591
-25,-1.3738,0.62172,0.61877,0.2562
-24.9,-1.3676,0.61703,0.61409,0.2534
-24.8,-1.3615,0.61225,0.6093,0.2506
-24.7,-1.3552,0.60802,0.60507,0.2475
-24.6,-1.3489,0.60393,0.60098,0.2444
-24.1,-1.3175,0.58014,0.5772,0.2302
-24,-1.3114,0.57504,0.5721,0.2278
-23.9,-1.3053,0.56998,0.56704,0.2254
-23.8,-1.2992,0.56498,0.56204,0.2231
-23.7,-1.293,0.55999,0.55704,0.2207
-23.6,-1.2869,0.55508,0.55213,0.2183
-23.5,-1.2808,0.5502,0.54724,0.216
-23.4,-1.2746,0.54537,0.5424,0.2137
-23.3,-1.2684,0.54054,0.53757,0.2113
-23.2,-1.2623,0.53579,0.53283,0.209
-23.1,-1.2561,0.53107,0.5281,0.2067
-23,-1.25,0.52686,0.52389,0.2043
-22.9,-1.2438,0.5222,0.51923,0.202
-22.8,-1.2376,0.51761,0.51464,0.1998
-22.7,-1.2314,0.51301,0.51004,0.1975
-22.6,-1.2251,0.50849,0.50551,0.1953
-22.5,-1.2189,0.50399,0.50101,0.193
-22.4,-1.2126,0.49951,0.49654,0.1908
-22.3,-1.2063,0.49511,0.49213,0.1886
-22.2,-1.2001,0.49071,0.48773,0.1863
-22.1,-1.1938,0.48634,0.48336,0.1841
-22,-1.1875,0.48205,0.47907,0.182
-21.9,-1.1812,0.47773,0.47474,0.1798
-21.8,-1.1749,0.47351,0.47053,0.1776
-21.7,-1.1686,0.4693,0.46632,0.1755
-21.6,-1.1623,0.46512,0.46213,0.1733
-21.5,-1.156,0.46097,0.45798,0.1712
-21.4,-1.1496,0.45687,0.45388,0.169
-21.3,-1.1433,0.45279,0.4498,0.1669
-21.2,-1.137,0.44877,0.44578,0.1648
-21.1,-1.1307,0.44473,0.44174,0.1627
-21,-1.1243,0.44078,0.43779,0.1607
-20.9,-1.118,0.43683,0.43384,0.1586
-20.8,-1.1116,0.4329,0.42991,0.1565
-20.7,-1.1053,0.42903,0.42603,0.1545
-20.6,-1.0989,0.42519,0.42219,0.1524
-20.5,-1.0926,0.42137,0.41837,0.1504
-20.4,-1.0862,0.4176,0.41459,0.1484
-20.3,-1.0798,0.41384,0.41084,0.1463
-20.2,-1.0735,0.41011,0.40711,0.1443
-20.1,-1.0671,0.40643,0.40342,0.1423
-20,-1.0608,0.40277,0.39976,0.1404
-19.9,-1.0544,0.39913,0.39612,0.1384
-19.8,-1.048,0.39552,0.39251,0.1364
-19.7,-1.0417,0.39196,0.38895,0.1345
-19.6,-1.0353,0.38841,0.38541,0.1325
-19.5,-1.029,0.3849,0.38189,0.1306
-19.4,-1.0226,0.38142,0.37841,0.1287
-19.3,-1.0162,0.37796,0.37495,0.1268
-19.2,-1.0099,0.37452,0.37151,0.1249
-19.1,-1.0035,0.37112,0.36811,0.123
-19,-0.9972,0.36775,0.36474,0.1211
-18.9,-0.9909,0.3644,0.3614,0.1192
-18.8,-0.9845,0.36107,0.35806,0.1173
-18.7,-0.9782,0.35778,0.35477,0.1155
-18.6,-0.9719,0.35452,0.35151,0.1136
-18.5,-0.9655,0.35128,0.34827,0.1118
-18.4,-0.9592,0.34805,0.34504,0.1099
-18.3,-0.9529,0.34486,0.34185,0.1081
-18.2,-0.9466,0.34168,0.33868,0.1063
-18.1,-0.9403,0.33855,0.33554,0.1045
-18,-0.934,0.33541,0.33241,0.1026
-17.9,-0.9277,0.33231,0.32931,0.1008
-17.8,-0.9214,0.32923,0.32623,0.099
-17.7,-0.9152,0.32616,0.32315,0.0972
-17.6,-0.9089,0.32311,0.3201,0.0954
-17.5,-0.9026,0.32009,0.31708,0.0936
-17.4,-0.8963,0.31707,0.31406,0.0918
-17.3,-0.8901,0.31407,0.31107,0.0901
-17.2,-0.8838,0.31108,0.30808,0.0883
-17.1,-0.8776,0.30811,0.3051,0.0865
-17,-0.8713,0.30513,0.30213,0.0847
-16.9,-0.8651,0.30216,0.29915,0.083
-16.8,-0.8588,0.29918,0.29618,0.0812
-16.7,-0.8525,0.29617,0.29317,0.0795
-16.6,-0.8461,0.29312,0.29012,0.0777
-16.5,-0.8397,0.29002,0.28702,0.0759
-16.3,-0.8261,0.28357,0.28059,0.0721
-16.2,-0.82,0.28076,0.27778,0.0706
-16.1,-0.814,0.27798,0.275,0.0691
-15.9,-0.8024,0.27277,0.26979,0.0661
-15.8,-0.7964,0.27006,0.26709,0.0647
-15.7,-0.7903,0.26738,0.2644,0.0632
-15.6,-0.7843,0.26472,0.26174,0.0618
-15.5,-0.7783,0.26207,0.2591,0.0603
-15.4,-0.7723,0.25944,0.25647,0.0589
-15.3,-0.7664,0.25684,0.25387,0.0574
-15.2,-0.7604,0.25426,0.25129,0.056
-15.1,-0.7544,0.25169,0.24872,0.0546
-15,-0.7485,0.24914,0.24618,0.0532
-14.9,-0.7426,0.24661,0.24365,0.0518
-14.8,-0.7367,0.2441,0.24114,0.0505
-14.7,-0.7308,0.2416,0.23863,0.0491
-14.6,-0.7249,0.23912,0.23615,0.0477
-14.5,-0.7191,0.23667,0.2337,0.0464
-14.4,-0.7132,0.23422,0.23126,0.0451
-14.3,-0.7074,0.2318,0.22884,0.0437
-14.2,-0.7016,0.22939,0.22643,0.0424
-14.1,-0.6958,0.22699,0.22404,0.0411
-14,-0.69,0.22462,0.22166,0.0398
-13.9,-0.6843,0.22225,0.2193,0.0385
-13.8,-0.6785,0.2199,0.21695,0.0373
-13.7,-0.6728,0.21756,0.21461,0.036
-13.6,-0.667,0.21523,0.21229,0.0347
-13.5,-0.6613,0.21293,0.20999,0.0335
-13.4,-0.6556,0.21063,0.20769,0.0323
-13.3,-0.65,0.20835,0.20541,0.031
-13.2,-0.6444,0.20608,0.20315,0.0298
-13.1,-0.6387,0.20383,0.2009,0.0286
-13,-0.6331,0.20158,0.19865,0.0274
-12.9,-0.6276,0.19936,0.19643,0.0262
-12.8,-0.622,0.19715,0.19422,0.025
-12.7,-0.6165,0.19494,0.19202,0.0239
-12.6,-0.611,0.19275,0.18983,0.0227
-12.5,-0.6055,0.19058,0.18766,0.0216
-12.4,-0.6001,0.18841,0.1855,0.0204
-12.3,-0.5947,0.18626,0.18335,0.0193
-12.2,-0.5893,0.18412,0.18121,0.0182
-12.1,-0.5839,0.18199,0.17908,0.0171
-12,-0.5786,0.17987,0.17697,0.016
-11.9,-0.5733,0.17776,0.17486,0.0149
-11.8,-0.568,0.17566,0.17276,0.0138
-11.7,-0.5627,0.17356,0.17066,0.0127
-11.6,-0.5575,0.17147,0.16858,0.0116
-11.5,-0.5522,0.16939,0.1665,0.0105
-11.4,-0.547,0.16732,0.16443,0.0095
-11.3,-0.5418,0.16523,0.16235,0.0084
-11.2,-0.5366,0.16316,0.16028,0.0073
-11.1,-0.5314,0.16109,0.15821,0.0063
-11,-0.5262,0.15901,0.15614,0.0052
-10.9,-0.5211,0.15694,0.15406,0.0042
-10.8,-0.515,0.1541,0.15125,0.0022
-10.7,-0.5102,0.15221,0.14936,0.0013
-10.6,-0.5054,0.15033,0.14749,0.0005
-10.5,-0.5006,0.14847,0.14563,-0.0004
-10.4,-0.4959,0.14662,0.14378,-0.0013
-10.3,-0.4911,0.14478,0.14195,-0.0021
-10.2,-0.4864,0.14297,0.14014,-0.003
-10.1,-0.4817,0.14116,0.13834,-0.0039
-10,-0.477,0.13936,0.13655,-0.0047
-9.9,-0.4723,0.13758,0.13477,-0.0055
-9.8,-0.4676,0.13581,0.133,-0.0064
-9.7,-0.463,0.13405,0.13125,-0.0072
-9.6,-0.4584,0.1323,0.12951,-0.008
-9.5,-0.4538,0.13057,0.12778,-0.0089
-9.4,-0.4492,0.12885,0.12607,-0.0097
-9.3,-0.4447,0.12714,0.12437,-0.0105
-9.2,-0.4402,0.12545,0.12268,-0.0113
-9.1,-0.4358,0.12377,0.12101,-0.012
-9,-0.4313,0.1221,0.11934,-0.0128
-8.9,-0.4269,0.12045,0.1177,-0.0136
-8.8,-0.4226,0.1188,0.11605,-0.0143
-8.7,-0.4183,0.11716,0.11443,-0.0151
-8.6,-0.414,0.11554,0.11281,-0.0158
-8.5,-0.4098,0.11393,0.1112,-0.0165
-8.4,-0.4057,0.11234,0.10962,-0.0172
-8.3,-0.4016,0.11076,0.10805,-0.0179
-8.2,-0.3976,0.1092,0.10649,-0.0186
-8.1,-0.3937,0.10764,0.10495,-0.0192
-8,-0.3899,0.10611,0.10342,-0.0199
-7.9,-0.3861,0.10459,0.10192,-0.0205
-7.8,-0.3825,0.10309,0.10042,-0.021
-7.7,-0.3791,0.10161,0.09895,-0.0216
-7.6,-0.3758,0.10014,0.0975,-0.0221
-7.5,-0.3727,0.09871,0.09608,-0.0225
-7.4,-0.3699,0.0973,0.09468,-0.0229
-7.3,-0.3673,0.09592,0.09332,-0.0232
-7.2,-0.3652,0.09458,0.09199,-0.0234
-7.1,-0.3635,0.09329,0.09072,-0.0235
-7,-0.3622,0.09204,0.08948,-0.0235
-6.9,-0.3615,0.09084,0.0883,-0.0233
-6.8,-0.3613,0.08969,0.08718,-0.0231
-6.7,-0.3558,0.08805,0.08554,-0.0244
-6.6,-0.3486,0.08626,0.08376,-0.0262
-6.5,-0.3413,0.08446,0.08196,-0.0282
-6.4,-0.3341,0.08268,0.08018,-0.0301
-6.3,-0.3271,0.08092,0.07842,-0.0319
-6.2,-0.3197,0.07912,0.07663,-0.0339
-6.1,-0.3112,0.07724,0.07474,-0.0363
-6,-0.3047,0.07551,0.07301,-0.0381
-5.9,-0.2979,0.07376,0.07127,-0.04
-5.8,-0.2906,0.07195,0.06946,-0.0421
-5.7,-0.283,0.07011,0.06762,-0.0444
-5.6,-0.2779,0.06844,0.06595,-0.046
-5.5,-0.2711,0.06657,0.06407,-0.0482
-5.4,-0.2639,0.06459,0.0621,-0.0508
-5.3,-0.2583,0.06309,0.0606,-0.0525
-5.2,-0.2501,0.06142,0.05893,-0.0549
-5.1,-0.2398,0.05961,0.05711,-0.058
-5,-0.2334,0.05811,0.0556,-0.0599
-4.9,-0.2247,0.05645,0.05393,-0.0624
-4.8,-0.2146,0.0547,0.05215,-0.0653
-4.7,-0.2071,0.05315,0.05059,-0.0673
-4.6,-0.1979,0.05149,0.04891,-0.0697
-4.4,-0.1779,0.04816,0.04554,-0.0749
-4.3,-0.1679,0.04643,0.04377,-0.0774
-4.2,-0.1567,0.04462,0.04193,-0.0801
-4.1,-0.1462,0.04286,0.04013,-0.0825
-4,-0.1348,0.04105,0.03828,-0.085
-3.9,-0.1224,0.03916,0.03633,-0.0877
-3.8,-0.11,0.03728,0.0344,-0.0902
-3.7,-0.0973,0.03535,0.0324,-0.0927
-3.6,-0.0835,0.03334,0.0303,-0.0953
-3.5,-0.0693,0.03122,0.02809,-0.0979
-3.4,-0.0554,0.029,0.02575,-0.1004
-3.3,-0.0403,0.02719,0.02384,-0.1024
-3.2,-0.0245,0.02548,0.02199,-0.1041
-3.1,-0.0091,0.02379,0.02017,-0.1056
-3,0.0068,0.02209,0.01831,-0.107
-2.9,0.023,0.02036,0.0164,-0.1082
-2.8,0.0392,0.01868,0.0145,-0.1092
-2.7,0.0558,0.0171,0.01268,-0.1101
-2.6,0.0729,0.01566,0.01096,-0.1107
-2.5,0.0901,0.01441,0.00941,-0.111
-2.4,0.1077,0.01336,0.00807,-0.1111
-2.3,0.125,0.01252,0.00694,-0.1107
-2.2,0.1427,0.01199,0.00622,-0.1103
-2.1,0.1602,0.01167,0.00576,-0.1098
-2,0.1782,0.01126,0.00518,-0.1094
-1.9,0.1957,0.01094,0.00473,-0.1089
-1.8,0.2133,0.01071,0.0044,-0.1084
-1.7,0.2307,0.01052,0.00411,-0.1079
-1.6,0.2478,0.01039,0.0039,-0.1074
-1.5,0.2653,0.01025,0.0037,-0.107
-1.4,0.2825,0.01015,0.00352,-0.1066
-1.2,0.3162,0.01001,0.00327,-0.1057
-1.1,0.333,0.00995,0.00316,-0.1053
-1,0.3495,0.00992,0.00306,-0.1048
-0.9,0.3658,0.0099,0.003,-0.1043
-0.8,0.3817,0.00991,0.00292,-0.1038
-0.7,0.3979,0.0099,0.00286,-0.1033
-0.6,0.4132,0.00995,0.00282,-0.1027
-0.5,0.4285,0.01,0.0028,-0.1021
-0.4,0.4432,0.01009,0.00278,-0.1015
-0.3,0.4588,0.01015,0.00279,-0.101
-0.2,0.4742,0.01022,0.00279,-0.1005
-0.1,0.4895,0.01029,0.00283,-0.1
0,0.5047,0.01037,0.00286,-0.0996
0.1,0.5186,0.01053,0.00291,-0.0989
0.2,0.5333,0.01064,0.00296,-0.0983
0.3,0.5479,0.01076,0.00303,-0.0978
0.4,0.5622,0.0109,0.0031,-0.0972
0.5,0.5762,0.01107,0.00319,-0.0966
0.6,0.5885,0.01135,0.00331,-0.0958
0.7,0.6022,0.01155,0.00342,-0.0952
0.8,0.6162,0.01171,0.00355,-0.0947
0.9,0.6306,0.01187,0.00366,-0.0942
1,0.6454,0.01199,0.00378,-0.0938
1.1,0.6603,0.0121,0.00391,-0.0933
1.2,0.6755,0.01211,0.00405,-0.093
1.3,0.6902,0.01217,0.0042,-0.0926
1.4,0.7053,0.01217,0.00434,-0.0922
1.6,0.7251,0.01112,0.00459,-0.0887
1.7,0.7403,0.01129,0.00473,-0.0881
1.8,0.7559,0.01143,0.00486,-0.0876
1.9,0.7708,0.01161,0.005,-0.087
2,0.7863,0.01176,0.00514,-0.0864
2.1,0.8017,0.01191,0.00528,-0.0858
2.2,0.8168,0.01209,0.00544,-0.0851
2.3,0.8323,0.01224,0.0056,-0.0845
2.4,0.8477,0.0124,0.00576,-0.0838
2.5,0.8626,0.01259,0.00593,-0.083
2.6,0.878,0.01276,0.00612,-0.0823
2.7,0.8932,0.01293,0.0063,-0.0815
2.8,0.908,0.01313,0.00649,-0.0807
2.9,0.9233,0.01331,0.0067,-0.0798
3,0.9384,0.0135,0.00691,-0.079
3.1,0.9533,0.0137,0.00713,-0.078
3.2,0.9681,0.01391,0.00734,-0.0771
3.3,0.983,0.01412,0.00758,-0.0761
3.4,0.9977,0.01434,0.00783,-0.0751
3.5,1.0121,0.01458,0.00809,-0.0739
3.6,1.0266,0.01481,0.00837,-0.0728
3.7,1.0409,0.01506,0.00867,-0.0716
3.8,1.055,0.01533,0.00897,-0.0703
3.9,1.0686,0.01561,0.00929,-0.069
4,1.0828,0.01588,0.00963,-0.0677
4.1,1.0963,0.01618,0.00999,-0.0663
4.2,1.1094,0.0165,0.01036,-0.0648
4.3,1.1221,0.01685,0.01078,-0.0632
4.4,1.1345,0.01723,0.01124,-0.0615
4.5,1.1459,0.01762,0.01172,-0.0597
4.6,1.1564,0.01804,0.01222,-0.0578
4.7,1.1665,0.01849,0.01275,-0.0558
4.8,1.176,0.01903,0.01339,-0.0538
4.9,1.1859,0.01957,0.01405,-0.0519
5,1.1944,0.02021,0.01479,-0.0498
5.1,1.2022,0.02089,0.0156,-0.0478
5.2,1.2091,0.02163,0.01646,-0.0458
5.3,1.2141,0.02256,0.01753,-0.0438
5.4,1.2177,0.02359,0.01872,-0.0418
5.5,1.2199,0.02471,0.01999,-0.0399
5.6,1.2208,0.02591,0.02135,-0.0382
5.7,1.2204,0.0272,0.02278,-0.0365
5.8,1.2188,0.02857,0.02429,-0.0351
5.9,1.2162,0.03002,0.02587,-0.0338
6,1.2126,0.03156,0.02754,-0.0328
6.1,1.2082,0.03319,0.02928,-0.032
6.2,1.2032,0.03491,0.03111,-0.0315
6.3,1.1976,0.03673,0.03304,-0.0313
6.4,1.1914,0.03868,0.03506,-0.0315
6.5,1.1803,0.04119,0.0377,-0.0325
6.6,1.1718,0.04355,0.04015,-0.0336
6.7,1.163,0.04606,0.04273,-0.0351
6.9,1.1454,0.05153,0.04834,-0.0392
7,1.1368,0.05448,0.05135,-0.0418
7.1,1.1283,0.05754,0.05446,-0.0445
7.2,1.1202,0.06067,0.05763,-0.0473
7.3,1.1127,0.06385,0.06086,-0.0501
7.4,1.1059,0.06697,0.064,-0.0527
7.5,1.0995,0.06997,0.06702,-0.055
7.6,1.0937,0.07285,0.06993,-0.0572
7.7,1.0885,0.07562,0.07271,-0.0592
7.9,1.08,0.08091,0.078,-0.0629
8,1.0755,0.0836,0.08068,-0.0647
8.1,1.0684,0.08671,0.08379,-0.067
8.2,1.0622,0.08973,0.08681,-0.0692
8.3,1.0568,0.09268,0.08977,-0.0713
8.4,1.0521,0.09557,0.09266,-0.0733
8.5,1.0481,0.0984,0.09549,-0.0752
8.6,1.0444,0.10127,0.09836,-0.0772
8.7,1.0422,0.10387,0.10096,-0.0789
8.8,1.0406,0.10641,0.1035,-0.0805
8.9,1.0395,0.10889,0.10599,-0.082
9,1.0389,0.11131,0.10841,-0.0834
9.1,1.0388,0.11366,0.11076,-0.0848
9.2,1.0392,0.11595,0.11305,-0.0861
9.3,1.0399,0.11819,0.11529,-0.0874
9.4,1.041,0.12035,0.11746,-0.0886
9.5,1.0394,0.12312,0.12021,-0.0904
9.6,1.0371,0.12613,0.12322,-0.0924
9.7,1.0358,0.12897,0.12607,-0.0942
9.8,1.0353,0.1317,0.12881,-0.0959
9.9,1.0352,0.13437,0.13147,-0.0975
10,1.0357,0.13696,0.13407,-0.0991
10.1,1.0366,0.1395,0.13661,-0.1006
10.2,1.0377,0.142,0.13911,-0.102
10.3,1.0392,0.14444,0.14156,-0.1035
10.4,1.041,0.14685,0.14397,-0.1049
10.5,1.0431,0.14922,0.14634,-0.1062
10.6,1.0466,0.1512,0.14833,-0.1074
10.7,1.0493,0.15339,0.15052,-0.1087
10.8,1.0522,0.15553,0.15266,-0.1099
10.9,1.0553,0.15763,0.15477,-0.1111
11,1.0584,0.15969,0.15682,-0.1122
11.1,1.0593,0.16267,0.1598,-0.1141
11.2,1.0606,0.1657,0.16283,-0.116
11.3,1.0624,0.16852,0.16565,-0.1178
11.4,1.0648,0.1712,0.16834,-0.1194
11.5,1.0675,0.17382,0.17097,-0.1211
11.6,1.0704,0.17638,0.17352,-0.1226
11.7,1.0736,0.17889,0.17604,-0.1241
11.8,1.077,0.18136,0.17851,-0.1256
11.9,1.0805,0.1838,0.18096,-0.1271
12,1.0842,0.18621,0.18337,-0.1285
12.1,1.088,0.18859,0.18576,-0.13
12.2,1.092,0.19095,0.18812,-0.1314
12.3,1.096,0.19328,0.19046,-0.1328
12.4,1.1002,0.19558,0.19277,-0.1342
12.5,1.1049,0.19736,0.19454,-0.1354
12.6,1.1093,0.19947,0.19666,-0.1367
12.7,1.1138,0.20155,0.19876,-0.138
12.8,1.1175,0.20433,0.20153,-0.1398
12.9,1.1209,0.20775,0.20496,-0.142
13,1.1247,0.21081,0.20802,-0.1439
13.1,1.1288,0.21368,0.2109,-0.1457
13.2,1.1331,0.21643,0.21366,-0.1475
13.3,1.1376,0.21915,0.21638,-0.1492
13.4,1.1422,0.22179,0.21903,-0.1509
13.5,1.1469,0.22441,0.22165,-0.1525
13.6,1.1516,0.227,0.22424,-0.1541
13.7,1.1565,0.22955,0.2268,-0.1558
13.8,1.1615,0.23208,0.22934,-0.1574
13.9,1.1665,0.23458,0.23184,-0.1589
14,1.1716,0.23651,0.23378,-0.1605
14.1,1.1768,0.23876,0.23603,-0.1619
14.2,1.1819,0.24093,0.23821,-0.1634
14.3,1.1866,0.24442,0.24169,-0.1656
14.4,1.1914,0.248,0.24527,-0.1679
14.5,1.1964,0.25124,0.24851,-0.1699
14.6,1.2016,0.25436,0.25164,-0.1719
14.7,1.2069,0.25737,0.25465,-0.1738
14.8,1.2119,0.26033,0.25762,-0.176
14.9,1.2174,0.26305,0.26034,-0.1777
15,1.2229,0.2657,0.263,-0.1795
15.1,1.2285,0.26831,0.26561,-0.1812
15.2,1.2341,0.27086,0.26816,-0.1829
15.3,1.2398,0.27334,0.27065,-0.1846
15.4,1.2454,0.27578,0.27308,-0.1863
15.5,1.2508,0.27997,0.27726,-0.1887
15.6,1.2565,0.28354,0.28084,-0.1909
15.7,1.2622,0.28696,0.28426,-0.193
15.8,1.268,0.29026,0.28757,-0.195
15.9,1.2738,0.29348,0.29078,-0.197
16,1.2794,0.29662,0.29393,-0.1994
16.1,1.2853,0.29957,0.29688,-0.2013
16.2,1.2912,0.30247,0.2998,-0.2032
16.3,1.2972,0.30535,0.30268,-0.2051
16.4,1.3032,0.30818,0.30551,-0.2069
16.5,1.3092,0.31098,0.30831,-0.2088
16.6,1.3152,0.31417,0.31149,-0.2108
16.7,1.3213,0.31831,0.31563,-0.2132
16.8,1.3274,0.32208,0.31941,-0.2154
16.9,1.3335,0.32569,0.32301,-0.2175
17,1.3397,0.32924,0.32656,-0.2196
17.1,1.3459,0.33272,0.33005,-0.2217
17.2,1.3521,0.33616,0.33349,-0.2238
17.3,1.3583,0.3396,0.33693,-0.2259
17.4,1.3645,0.34302,0.34036,-0.228
17.5,1.3708,0.34641,0.34374,-0.2301
17.6,1.377,0.3498,0.34714,-0.2321
17.7,1.3833,0.35317,0.35051,-0.2342
17.8,1.3896,0.35654,0.35388,-0.2363
17.9,1.3958,0.35991,0.35725,-0.2383
18,1.4021,0.36328,0.36063,-0.2404
18.1,1.4084,0.36665,0.364,-0.2425
18.2,1.4147,0.37,0.36735,-0.2446
18.3,1.421,0.37338,0.37072,-0.2467
18.4,1.4273,0.37674,0.37409,-0.2488
18.5,1.4336,0.38009,0.37745,-0.2509
18.6,1.4402,0.38607,0.38341,-0.2542
18.7,1.4466,0.3899,0.38725,-0.2564
18.8,1.453,0.39376,0.3911,-0.2586
18.9,1.4594,0.39761,0.39496,-0.2609
19,1.4658,0.40145,0.39879,-0.2631
19.1,1.4723,0.40533,0.40268,-0.2654
19.2,1.4787,0.40919,0.40654,-0.2676
19.3,1.4851,0.41308,0.41045,-0.2699
19.4,1.4915,0.41698,0.41435,-0.2721
19.5,1.498,0.42091,0.41828,-0.2744
19.6,1.5044,0.42485,0.42222,-0.2767
19.7,1.5108,0.42881,0.42618,-0.2789
19.8,1.5173,0.4328,0.43017,-0.2812
19.9,1.5237,0.43681,0.43418,-0.2835
20,1.5302,0.44085,0.43823,-0.2858
20.1,1.5366,0.44491,0.4423,-0.2881
20.2,1.543,0.44898,0.44636,-0.2905
20.3,1.5494,0.4531,0.45049,-0.2928
20.4,1.5559,0.45726,0.45465,-0.2951
20.5,1.5623,0.46141,0.4588,-0.2975
20.6,1.5687,0.46562,0.46302,-0.2999
20.7,1.5751,0.46987,0.46726,-0.3022
20.8,1.5815,0.4741,0.4715,-0.3046
20.9,1.5879,0.4784,0.4758,-0.307
21,1.5943,0.48273,0.48013,-0.3094
21.1,1.6007,0.4871,0.4845,-0.3118
21.2,1.6074,0.49254,0.48993,-0.3145
21.3,1.6139,0.49762,0.49501,-0.3171
21.4,1.6205,0.50275,0.50015,-0.3196
21.5,1.627,0.50772,0.50512,-0.3222
21.6,1.6335,0.51274,0.51014,-0.3248
21.7,1.64,0.51771,0.51512,-0.3273
21.8,1.6464,0.5227,0.52011,-0.3299
21.9,1.6529,0.52771,0.52512,-0.3325
22,1.6594,0.53279,0.53021,-0.3351
22.1,1.6658,0.53783,0.53525,-0.3377
22.2,1.6722,0.54288,0.5403,-0.3402
22.3,1.6786,0.54805,0.54548,-0.3429
22.4,1.685,0.55319,0.55063,-0.3455
22.5,1.6914,0.55835,0.55579,-0.3481
22.6,1.6978,0.56363,0.56107,-0.3507
22.7,1.7042,0.56888,0.56632,-0.3533
22.8,1.7105,0.57421,0.57165,-0.356
22.9,1.7169,0.57917,0.57662,-0.3589
23,1.7232,0.58452,0.58197,-0.3615
23.1,1.7295,0.58991,0.58737,-0.3642
23.2,1.7358,0.59533,0.59279,-0.3669
23.3,1.7421,0.60083,0.5983,-0.3695
23.4,1.7484,0.6064,0.60386,-0.3722
23.5,1.7547,0.61202,0.60948,-0.3749
23.6,1.761,0.61766,0.61513,-0.3776
23.7,1.7673,0.62337,0.62084,-0.3804
23.8,1.7734,0.62907,0.62655,-0.3831
23.9,1.7797,0.63492,0.6324,-0.3858
24,1.7859,0.64078,0.63827,-0.3886
24.1,1.7921,0.64672,0.64421,-0.3913
24.2,1.7983,0.65272,0.65021,-0.3941
24.3,1.8045,0.65876,0.65625,-0.3969
24.4,1.8107,0.66488,0.66237,-0.3996
24.5,1.8168,0.67105,0.66855,-0.4024
24.6,1.823,0.67728,0.67478,-0.4052
24.7,1.8291,0.68359,0.68109,-0.408
24.8,1.8352,0.68995,0.68746,-0.4109
24.9,1.8413,0.69639,0.69391,-0.4137
25,1.8474,0.7029,0.70042,-0.4165
25.1,1.8535,0.70951,0.70704,-0.4194
25.2,1.8595,0.71616,0.7137,-0.4223
25.3,1.8655,0.7229,0.72044,-0.4251
25.4,1.8715,0.7297,0.72725,-0.428
25.5,1.8775,0.73662,0.73417,-0.4309
25.7,1.8899,0.75199,0.74953,-0.4372
25.8,1.896,0.75949,0.75704,-0.4403
25.9,1.9021,0.76702,0.76457,-0.4433
26,1.908,0.77439,0.77194,-0.4464
26.1,1.9141,0.78214,0.7797,-0.4495
26.2,1.9201,0.78968,0.78724,-0.4525
26.3,1.926,0.79739,0.79495,-0.4557
26.4,1.9319,0.80504,0.80261,-0.4587
26.5,1.9378,0.81286,0.81043,-0.4618
26.6,1.9437,0.82075,0.81833,-0.4649
26.7,1.9495,0.82867,0.82625,-0.4679
26.8,1.9554,0.8368,0.83439,-0.4711
26.9,1.9612,0.84492,0.84251,-0.4742
27,1.967,0.85321,0.8508,-0.4773
27.1,1.9728,0.86143,0.85902,-0.4804
27.2,1.9785,0.86983,0.86743,-0.4835
27.3,1.9843,0.8784,0.876,-0.4867
27.4,1.9899,0.88687,0.88448,-0.4898
27.5,1.9956,0.89562,0.89323,-0.493
27.6,2.0012,0.90445,0.90206,-0.4961
27.7,2.0068,0.91324,0.91086,-0.4993
27.8,2.0125,0.92233,0.91995,-0.5024
27.9,2.018,0.93132,0.92895,-0.5056
28,2.0235,0.94056,0.93819,-0.5088
28.1,2.0291,0.94995,0.94759,-0.512
28.2,2.0345,0.95929,0.95694,-0.5152
28.3,2.04,0.96888,0.96653,-0.5184
28.4,2.0454,0.97862,0.97628,-0.5216
28.5,2.0508,0.98823,0.98589,-0.5248
28.7,2.0617,1.00734,1.00501,-0.5314
28.8,2.0669,1.01739,1.01507,-0.5346
28.9,2.0722,1.02753,1.02521,-0.5379
29,2.0775,1.038,1.03568,-0.5411
29.1,2.0827,1.04852,1.04621,-0.5443
29.2,2.0879,1.05909,1.05678,-0.5476
29.3,2.0931,1.06995,1.06765,-0.5508
29.4,2.0982,1.08089,1.07859,-0.5541
29.5,2.1033,1.09199,1.0897,-0.5574
29.6,2.1084,1.10318,1.10089,-0.5607
29.7,2.1134,1.1144,1.11211,-0.5639
29.8,2.1184,1.12588,1.1236,-0.5672
29.9,2.1234,1.13759,1.13532,-0.5705
30,2.1284,1.1494,1.14713,-0.5738

