airfoilName st25.dat
Re 	570000
M 	7.000000e-01
N 	4.500000e+00
VACC 	0 VACCflag 1
XTR 	1.00 	1.00 XTRflag 0
alpha,cl,cd,cdp,cm
-30,-1.6567,0.95,0.94768,0.3992
-29.9,-1.6516,0.94154,0.93922,0.3963
-29.8,-1.6466,0.93312,0.9308,0.3933
-29.7,-1.6414,0.92491,0.92259,0.3903
-29.6,-1.6363,0.91678,0.91445,0.3873
-29.5,-1.6311,0.90862,0.90629,0.3844
-29.4,-1.6259,0.90056,0.89823,0.3815
-29.3,-1.6207,0.89295,0.89061,0.3785
-29.2,-1.6155,0.88511,0.88277,0.3755
-29.1,-1.6102,0.8773,0.87494,0.3726
-29,-1.6049,0.86964,0.86728,0.3697
-28.9,-1.5995,0.86192,0.85956,0.3667
-28.8,-1.5942,0.85439,0.85203,0.3638
-28.7,-1.5888,0.8469,0.84453,0.3609
-28.6,-1.5834,0.83948,0.83711,0.358
-28.5,-1.578,0.83224,0.82987,0.3551
-28.4,-1.5726,0.82495,0.82257,0.3523
-28.3,-1.5671,0.81777,0.8154,0.3494
-28.1,-1.5561,0.8037,0.80132,0.3436
-28,-1.5506,0.7967,0.79432,0.3408
-27.9,-1.5451,0.78986,0.78748,0.338
-27.8,-1.5394,0.783,0.78061,0.3351
-27.7,-1.5339,0.77622,0.77384,0.3323
-27.6,-1.5283,0.76953,0.76713,0.3295
-27.5,-1.5226,0.76295,0.76056,0.3267
-27.4,-1.517,0.75633,0.75394,0.3239
-27.3,-1.5113,0.74983,0.74743,0.3211
-27.2,-1.5056,0.74346,0.74106,0.3183
-27.1,-1.4999,0.73704,0.73464,0.3155
-27,-1.4942,0.73073,0.72833,0.3127
-26.9,-1.4884,0.72446,0.72205,0.31
-26.8,-1.4827,0.71834,0.71592,0.3072
-26.7,-1.4769,0.71219,0.70978,0.3045
-26.6,-1.4711,0.70608,0.70367,0.3017
-26.5,-1.4653,0.70006,0.69765,0.299
-26.4,-1.4594,0.6941,0.69167,0.2963
-26.3,-1.4536,0.68822,0.68579,0.2936
-26.2,-1.4477,0.68233,0.6799,0.2909
-26.1,-1.4418,0.67655,0.67411,0.2882
-26,-1.4359,0.67079,0.66835,0.2855
-25.9,-1.43,0.6651,0.66266,0.2828
-25.8,-1.424,0.65942,0.65698,0.2802
-25.7,-1.4181,0.65385,0.65141,0.2775
-25.6,-1.4121,0.64831,0.64587,0.2748
-25.5,-1.4061,0.64282,0.64038,0.2722
-25.4,-1.4001,0.63738,0.63493,0.2696
-25.3,-1.3941,0.63198,0.62953,0.2669
-25.2,-1.3881,0.62666,0.62421,0.2643
-25.1,-1.382,0.62136,0.6189,0.2617
-25,-1.3759,0.61611,0.61366,0.2591
-24.9,-1.3698,0.61092,0.60847,0.2565
-24.8,-1.3637,0.60577,0.60332,0.254
-24.7,-1.3576,0.60067,0.59821,0.2514
-24.6,-1.3515,0.59562,0.59316,0.2488
-24.5,-1.3454,0.59063,0.58817,0.2462
-24.4,-1.3392,0.58564,0.58318,0.2437
-24.3,-1.3331,0.58075,0.57828,0.2411
-24.2,-1.3269,0.57588,0.57341,0.2386
-24.1,-1.3207,0.57106,0.5686,0.2361
-24,-1.3145,0.5663,0.56383,0.2335
-23.9,-1.3083,0.56156,0.55909,0.231
-23.8,-1.302,0.5569,0.55443,0.2285
-23.7,-1.2958,0.55232,0.54985,0.2259
-23.6,-1.2896,0.54767,0.54519,0.2235
-23.5,-1.2833,0.54314,0.54065,0.221
-23.4,-1.277,0.53873,0.53624,0.2184
-23.3,-1.2707,0.53427,0.53178,0.2159
-23.2,-1.2644,0.52989,0.52741,0.2134
-23.1,-1.2581,0.52556,0.52308,0.2109
-23,-1.2518,0.52133,0.51885,0.2084
-22.9,-1.2455,0.51712,0.51464,0.2058
-22.8,-1.2392,0.51296,0.51048,0.2033
-22.7,-1.2328,0.50899,0.50651,0.2007
-22.6,-1.2265,0.50496,0.50247,0.1981
-22.5,-1.2201,0.50107,0.49858,0.1954
-22.1,-1.1941,0.48493,0.48246,0.1847
-22,-1.1878,0.48062,0.47815,0.1825
-21.9,-1.1816,0.47628,0.4738,0.1804
-21.8,-1.1753,0.47205,0.46957,0.1782
-21.7,-1.169,0.46784,0.46536,0.176
-21.6,-1.1627,0.46365,0.46117,0.1739
-21.5,-1.1564,0.45949,0.45701,0.1718
-21.4,-1.1501,0.45538,0.4529,0.1696
-21.3,-1.1438,0.45131,0.44883,0.1675
-21.2,-1.1375,0.44729,0.44481,0.1654
-21.1,-1.1312,0.44326,0.44077,0.1633
-21,-1.1249,0.43931,0.43683,0.1613
-20.9,-1.1185,0.43537,0.43289,0.1592
-20.8,-1.1122,0.43145,0.42897,0.1571
-20.7,-1.1059,0.42759,0.4251,0.1551
-20.6,-1.0996,0.42376,0.42127,0.153
-20.5,-1.0932,0.41995,0.41745,0.151
-20.4,-1.0869,0.41618,0.41369,0.149
-20.3,-1.0805,0.41244,0.40995,0.147
-20.2,-1.0742,0.40872,0.40623,0.145
-20.1,-1.0679,0.40505,0.40256,0.143
-20,-1.0615,0.40141,0.39891,0.141
-19.9,-1.0552,0.39779,0.39529,0.139
-19.8,-1.0488,0.39419,0.39169,0.1371
-19.7,-1.0425,0.39065,0.38815,0.1351
-19.6,-1.0361,0.38712,0.38462,0.1332
-19.5,-1.0298,0.38361,0.38111,0.1313
-19.4,-1.0235,0.38014,0.37764,0.1293
-19.3,-1.0171,0.37669,0.37419,0.1274
-19.2,-1.0108,0.37327,0.37077,0.1255
-19.1,-1.0044,0.36988,0.36738,0.1237
-19,-0.9981,0.36652,0.36402,0.1218
-18.9,-0.9918,0.36318,0.36068,0.1199
-18.8,-0.9855,0.35986,0.35736,0.1181
-18.7,-0.9791,0.35657,0.35408,0.1162
-18.6,-0.9728,0.35332,0.35082,0.1144
-18.5,-0.9665,0.35008,0.34758,0.1126
-18.4,-0.9602,0.34686,0.34436,0.1108
-18.3,-0.9539,0.34367,0.34117,0.109
-18.2,-0.9476,0.3405,0.338,0.1072
-18.1,-0.9413,0.33736,0.33487,0.1054
-18,-0.935,0.33423,0.33174,0.1037
-17.9,-0.9287,0.33113,0.32864,0.1019
-17.8,-0.9224,0.32805,0.32555,0.1002
-17.7,-0.9161,0.32499,0.32249,0.0984
-17.6,-0.9098,0.32194,0.31944,0.0967
-17.5,-0.9035,0.31893,0.31643,0.095
-17.4,-0.8973,0.31593,0.31343,0.0932
-17.3,-0.891,0.31295,0.31045,0.0915
-17.2,-0.8847,0.30999,0.30749,0.0898
-17.1,-0.8785,0.30705,0.30455,0.0881
-17,-0.8723,0.30414,0.30164,0.0865
-16.9,-0.866,0.30124,0.29874,0.0848
-16.8,-0.8598,0.29836,0.29586,0.0831
-16.7,-0.8536,0.2955,0.293,0.0814
-16.6,-0.8474,0.29265,0.29015,0.0798
-16.5,-0.8412,0.28982,0.28733,0.0781
-16.4,-0.8351,0.28701,0.28452,0.0765
-16.3,-0.8289,0.28422,0.28173,0.0748
-16.2,-0.8228,0.28144,0.27895,0.0732
-16.1,-0.8166,0.27867,0.27618,0.0716
-16,-0.8105,0.27591,0.27342,0.0699
-15.9,-0.8044,0.27316,0.27067,0.0683
-15.8,-0.7983,0.27041,0.26793,0.0667
-15.7,-0.7922,0.26767,0.26518,0.0651
-15.6,-0.7861,0.26493,0.26244,0.0635
-15.5,-0.78,0.26217,0.25968,0.0619
-15.4,-0.7739,0.25941,0.25693,0.0603
-15.3,-0.7677,0.25662,0.25414,0.0588
-15.2,-0.7602,0.25305,0.25058,0.0563
-15.1,-0.7543,0.25046,0.24799,0.0549
-15,-0.7485,0.24789,0.24543,0.0536
-14.9,-0.7426,0.24534,0.24288,0.0522
-14.8,-0.7368,0.24281,0.24035,0.0509
-14.7,-0.731,0.24032,0.23785,0.0496
-14.6,-0.7252,0.23783,0.23536,0.0482
-14.5,-0.7194,0.23538,0.23291,0.0469
-14.4,-0.7136,0.23294,0.23048,0.0456
-14.3,-0.7079,0.23052,0.22806,0.0443
-14.2,-0.7021,0.22812,0.22566,0.043
-14.1,-0.6964,0.22574,0.22328,0.0417
-14,-0.6907,0.22337,0.22092,0.0404
-13.9,-0.685,0.22102,0.21857,0.0392
-13.8,-0.6793,0.21869,0.21624,0.0379
-13.7,-0.6736,0.21637,0.21392,0.0366
-13.6,-0.6679,0.21406,0.21162,0.0354
-13.5,-0.6623,0.21178,0.20933,0.0341
-13.4,-0.6567,0.20951,0.20706,0.0329
-13.3,-0.6511,0.20725,0.20481,0.0317
-13.2,-0.6455,0.20501,0.20257,0.0305
-13.1,-0.6399,0.20278,0.20034,0.0293
-13,-0.6344,0.20056,0.19813,0.0281
-12.9,-0.6288,0.19836,0.19593,0.0269
-12.8,-0.6233,0.19618,0.19375,0.0257
-12.7,-0.6178,0.194,0.19158,0.0246
-12.6,-0.6124,0.19185,0.18942,0.0234
-12.5,-0.607,0.1897,0.18728,0.0223
-12.4,-0.6015,0.18757,0.18515,0.0211
-12.3,-0.5962,0.18545,0.18303,0.02
-12.2,-0.5908,0.18334,0.18093,0.0189
-12.1,-0.5855,0.18125,0.17883,0.0178
-12,-0.5802,0.17917,0.17676,0.0167
-11.9,-0.5749,0.1771,0.17469,0.0156
-11.8,-0.5696,0.17504,0.17263,0.0145
-11.7,-0.5644,0.17299,0.17058,0.0135
-11.6,-0.5591,0.17094,0.16853,0.0124
-11.5,-0.5539,0.16891,0.16651,0.0113
-11.4,-0.5487,0.16689,0.16449,0.0103
-11.3,-0.5435,0.16487,0.16247,0.0093
-11.2,-0.5384,0.16287,0.16047,0.0082
-11.1,-0.5332,0.16087,0.15848,0.0072
-11,-0.5281,0.15889,0.1565,0.0062
-10.9,-0.5231,0.15691,0.15453,0.0052
-10.8,-0.518,0.15495,0.15257,0.0042
-10.7,-0.513,0.15299,0.15061,0.0032
-10.6,-0.508,0.15105,0.14867,0.0022
-10.5,-0.5031,0.14912,0.14674,0.0012
-10.4,-0.4982,0.14718,0.14481,0.0002
-10.3,-0.4932,0.14526,0.1429,-0.0007
-10.2,-0.4884,0.14334,0.14098,-0.0017
-10.1,-0.4829,0.1408,0.13845,-0.0032
-10,-0.4779,0.13882,0.13647,-0.0042
-9.9,-0.4728,0.13682,0.13447,-0.0052
-9.8,-0.4677,0.13483,0.13248,-0.0063
-9.7,-0.4625,0.13279,0.13046,-0.0075
-9.6,-0.458,0.13102,0.12869,-0.0083
-9.5,-0.4535,0.12926,0.12694,-0.0091
-9.4,-0.4491,0.12752,0.12521,-0.0099
-9.3,-0.4446,0.1258,0.12349,-0.0106
-9.2,-0.4403,0.12409,0.12178,-0.0114
-9.1,-0.4359,0.1224,0.1201,-0.0122
-9,-0.4316,0.12072,0.11843,-0.013
-8.9,-0.4272,0.11907,0.11678,-0.0137
-8.8,-0.4229,0.11741,0.11513,-0.0145
-8.7,-0.4187,0.11578,0.1135,-0.0152
-8.6,-0.4145,0.11416,0.11189,-0.016
-8.5,-0.4103,0.11256,0.11029,-0.0167
-8.4,-0.4061,0.11096,0.10869,-0.0174
-8.3,-0.4021,0.1094,0.10714,-0.0181
-8.2,-0.3981,0.10784,0.10559,-0.0188
-8.1,-0.3943,0.10631,0.10406,-0.0194
-8,-0.3904,0.10478,0.10255,-0.0201
-7.9,-0.3867,0.10328,0.10105,-0.0207
-7.8,-0.3831,0.10179,0.09958,-0.0213
-7.7,-0.3796,0.10033,0.09812,-0.0218
-7.6,-0.3764,0.09889,0.09669,-0.0223
-7.5,-0.3734,0.09748,0.0953,-0.0227
-7.4,-0.3706,0.09611,0.09393,-0.0231
-7.3,-0.3683,0.09477,0.09261,-0.0234
-7.2,-0.3665,0.09349,0.09134,-0.0235
-7.1,-0.3651,0.09226,0.09012,-0.0234
-6.9,-0.3533,0.08895,0.08683,-0.0263
-6.8,-0.3461,0.08719,0.08507,-0.0281
-6.7,-0.3387,0.08543,0.08331,-0.03
-6.6,-0.3319,0.08372,0.08161,-0.0317
-6.5,-0.3248,0.082,0.07988,-0.0335
-6.4,-0.3175,0.08027,0.07816,-0.0354
-6.3,-0.3103,0.07856,0.07645,-0.0372
-6.2,-0.3035,0.07686,0.07476,-0.039
-6.1,-0.2964,0.07517,0.07307,-0.0409
-6,-0.2889,0.07344,0.07134,-0.0429
-5.9,-0.2825,0.07181,0.0697,-0.0446
-5.8,-0.2764,0.07019,0.06809,-0.0463
-5.7,-0.2696,0.06853,0.06642,-0.0482
-5.6,-0.2623,0.0668,0.0647,-0.0503
-5.5,-0.2575,0.06527,0.06317,-0.0517
-5.4,-0.2513,0.06363,0.06152,-0.0536
-5.3,-0.245,0.062,0.05988,-0.0556
-5.2,-0.2383,0.06032,0.05818,-0.0577
-5.1,-0.2305,0.05857,0.05642,-0.0602
-5,-0.224,0.05691,0.05475,-0.0622
-4.9,-0.2167,0.05517,0.05299,-0.0645
-4.8,-0.2089,0.05341,0.0512,-0.0668
-4.7,-0.2014,0.05165,0.04942,-0.0691
-4.6,-0.1933,0.04981,0.04755,-0.0716
-4.5,-0.1848,0.04789,0.04561,-0.0742
-4.4,-0.1762,0.04595,0.04365,-0.0767
-4.3,-0.1662,0.04428,0.04194,-0.0792
-4.2,-0.1558,0.0426,0.04023,-0.0815
-4.1,-0.1448,0.04091,0.03849,-0.084
-4,-0.1333,0.03919,0.03672,-0.0863
-3.8,-0.1079,0.03583,0.03325,-0.0911
-3.7,-0.0949,0.034,0.03135,-0.0934
-3.6,-0.0812,0.03215,0.02941,-0.0957
-3.5,-0.0673,0.03026,0.02743,-0.098
-3.4,-0.0528,0.02834,0.02541,-0.1001
-3.3,-0.038,0.02638,0.02332,-0.1021
-3.2,-0.0231,0.02438,0.02119,-0.104
-3.1,-0.0078,0.02233,0.01897,-0.1057
-3,0.0074,0.02019,0.01663,-0.1073
-2.9,0.0225,0.01788,0.01409,-0.1089
-2.8,0.0387,0.01632,0.01231,-0.1097
-2.7,0.0554,0.01495,0.01067,-0.1102
-2.6,0.072,0.01376,0.00921,-0.1104
-2.5,0.0891,0.01275,0.00792,-0.1104
-2.4,0.1067,0.0119,0.00682,-0.1102
-2.3,0.1242,0.01124,0.00592,-0.1099
-2.2,0.1419,0.01072,0.00518,-0.1094
-2.1,0.16,0.01032,0.0046,-0.109
-2,0.1778,0.01002,0.00415,-0.1085
-1.9,0.1953,0.00982,0.00383,-0.108
-1.8,0.2127,0.00969,0.00362,-0.1075
-1.7,0.2304,0.00954,0.00338,-0.1071
-1.6,0.2472,0.00945,0.0032,-0.1065
-1.5,0.2645,0.00937,0.00306,-0.1061
-1.4,0.2817,0.0093,0.00293,-0.1058
-1.3,0.2986,0.00926,0.00281,-0.1053
-1.2,0.3156,0.00921,0.00271,-0.1049
-1.1,0.3312,0.00924,0.00265,-0.1043
-1,0.3473,0.00925,0.00257,-0.1038
-0.9,0.3637,0.00926,0.00252,-0.1034
-0.8,0.3799,0.00929,0.00248,-0.103
-0.7,0.3955,0.00933,0.00246,-0.1025
-0.6,0.4097,0.00947,0.00247,-0.1018
-0.5,0.4257,0.00952,0.00247,-0.1015
-0.4,0.4415,0.00958,0.00247,-0.1011
-0.3,0.4572,0.00964,0.0025,-0.1007
-0.2,0.4728,0.00971,0.00252,-0.1003
-0.1,0.4872,0.00987,0.00257,-0.0997
0,0.5024,0.00997,0.00261,-0.0993
0.1,0.5174,0.0101,0.00266,-0.0988
0.2,0.5322,0.01023,0.00273,-0.0984
0.3,0.5467,0.01039,0.00281,-0.0979
0.4,0.5595,0.01068,0.00295,-0.0972
0.5,0.5738,0.01087,0.00305,-0.0967
0.6,0.5885,0.01102,0.00315,-0.0963
0.7,0.6037,0.01115,0.00325,-0.0959
0.8,0.619,0.01126,0.00335,-0.0955
0.9,0.6347,0.01135,0.00343,-0.0951
1,0.6503,0.01142,0.00353,-0.0947
1.1,0.6656,0.01154,0.00364,-0.0943
1.2,0.6815,0.01161,0.00374,-0.094
1.3,0.6973,0.01167,0.00384,-0.0936
1.4,0.713,0.01167,0.00397,-0.0933
1.5,0.729,0.01168,0.00409,-0.093
1.6,0.7443,0.0117,0.00423,-0.0926
1.7,0.7602,0.01165,0.00435,-0.0923
1.9,0.7806,0.0107,0.0046,-0.0889
2,0.7966,0.01082,0.00472,-0.0883
2.1,0.8125,0.01096,0.00484,-0.0878
2.2,0.8282,0.0111,0.00497,-0.0872
2.3,0.8439,0.01125,0.00511,-0.0866
2.4,0.8598,0.01139,0.00525,-0.086
2.5,0.8753,0.01155,0.0054,-0.0853
2.6,0.8912,0.01169,0.00557,-0.0846
2.7,0.907,0.01184,0.00573,-0.0839
2.8,0.9226,0.01201,0.00589,-0.0831
2.9,0.9381,0.01218,0.00608,-0.0823
3,0.9539,0.01234,0.00625,-0.0815
3.1,0.9694,0.01252,0.00643,-0.0806
3.2,0.9847,0.01271,0.00664,-0.0797
3.3,1.0003,0.01289,0.00685,-0.0788
3.4,1.0157,0.01308,0.00706,-0.0778
3.5,1.0309,0.01328,0.00729,-0.0768
3.6,1.0459,0.0135,0.00754,-0.0757
3.7,1.0612,0.0137,0.00777,-0.0746
3.8,1.0761,0.01392,0.00804,-0.0734
3.9,1.0908,0.01417,0.00833,-0.0721
4,1.1053,0.01442,0.00863,-0.0708
4.1,1.1197,0.01468,0.00895,-0.0694
4.2,1.1338,0.01495,0.00928,-0.0679
4.3,1.1476,0.01525,0.00964,-0.0664
4.4,1.1609,0.01557,0.01002,-0.0647
4.5,1.1742,0.0159,0.01042,-0.0631
4.6,1.1865,0.01627,0.01087,-0.0612
4.7,1.1975,0.01666,0.01135,-0.0592
4.8,1.2078,0.01709,0.01186,-0.0571
4.9,1.2171,0.01762,0.01249,-0.0548
5,1.2255,0.01821,0.0132,-0.0526
5.1,1.2332,0.01887,0.01398,-0.0503
5.2,1.2399,0.01961,0.01486,-0.048
5.3,1.2457,0.02043,0.01581,-0.0458
5.4,1.2504,0.02133,0.01685,-0.0436
5.5,1.2538,0.02231,0.01798,-0.0415
5.6,1.2557,0.0234,0.0192,-0.0394
5.7,1.255,0.02468,0.02064,-0.0375
5.8,1.2529,0.02606,0.02217,-0.0358
5.9,1.2498,0.02753,0.02379,-0.0343
6,1.2458,0.02907,0.02547,-0.033
6.1,1.2408,0.03071,0.02723,-0.032
6.2,1.2352,0.03243,0.02909,-0.0313
6.3,1.2289,0.03426,0.03102,-0.0308
6.4,1.2221,0.03619,0.03305,-0.0308
6.5,1.215,0.03823,0.03519,-0.031
6.6,1.2076,0.0404,0.03744,-0.0317
6.7,1.2,0.04267,0.0398,-0.0327
6.8,1.1923,0.04508,0.04228,-0.0341
6.9,1.1847,0.04764,0.0449,-0.0358
7,1.1769,0.05035,0.04766,-0.038
7.1,1.1672,0.05341,0.05079,-0.0407
7.2,1.1577,0.05659,0.05401,-0.0436
7.3,1.1486,0.05985,0.05732,-0.0465
7.4,1.1399,0.06316,0.06067,-0.0494
7.5,1.1316,0.06645,0.064,-0.0522
7.6,1.1236,0.06961,0.06718,-0.0547
7.7,1.1159,0.0727,0.07028,-0.0571
7.8,1.1087,0.07572,0.07331,-0.0594
7.9,1.102,0.07867,0.07627,-0.0616
8.1,1.0917,0.08427,0.08186,-0.0656
8.2,1.087,0.08702,0.08462,-0.0675
8.3,1.083,0.08971,0.08731,-0.0693
8.4,1.0796,0.09234,0.08994,-0.0711
8.5,1.0768,0.09492,0.09252,-0.0728
8.6,1.0745,0.09745,0.09505,-0.0745
8.7,1.0727,0.09991,0.09751,-0.076
8.8,1.0685,0.10274,0.10033,-0.078
8.9,1.0636,0.10575,0.10334,-0.08
9,1.0597,0.10868,0.10627,-0.082
9.1,1.0564,0.11153,0.10912,-0.0839
9.2,1.0539,0.11433,0.11192,-0.0857
9.3,1.0519,0.11708,0.11467,-0.0875
9.4,1.0503,0.11978,0.11738,-0.0892
9.5,1.0493,0.12243,0.12003,-0.0908
9.6,1.0487,0.12503,0.12263,-0.0924
9.7,1.0485,0.12758,0.12518,-0.094
9.8,1.0487,0.13008,0.12768,-0.0955
9.9,1.0492,0.13254,0.13015,-0.0969
10,1.05,0.13496,0.13257,-0.0983
10.2,1.0548,0.13921,0.13682,-0.1008
10.3,1.0567,0.14144,0.13905,-0.1021
10.4,1.0586,0.1437,0.14129,-0.1034
10.5,1.0571,0.14692,0.14452,-0.1055
10.6,1.0571,0.14984,0.14744,-0.1073
10.7,1.0578,0.15263,0.15024,-0.1091
10.8,1.059,0.15533,0.15294,-0.1107
10.9,1.0606,0.15796,0.15558,-0.1123
11,1.0624,0.16055,0.15817,-0.1139
11.1,1.0646,0.16308,0.1607,-0.1154
11.2,1.067,0.16557,0.16319,-0.1169
11.3,1.0696,0.16802,0.16565,-0.1184
11.4,1.0724,0.17043,0.16806,-0.1198
11.5,1.0754,0.17282,0.17045,-0.1212
11.6,1.0786,0.17517,0.17281,-0.1226
11.7,1.0819,0.1775,0.17514,-0.124
11.8,1.0853,0.1798,0.17745,-0.1254
11.9,1.0889,0.18207,0.17972,-0.1268
12,1.0926,0.18432,0.18198,-0.1281
12.1,1.0964,0.18654,0.18419,-0.1295
12.2,1.1004,0.18856,0.1862,-0.1308
12.3,1.1027,0.19192,0.18957,-0.133
12.4,1.1056,0.19493,0.19258,-0.1349
12.5,1.109,0.19776,0.19542,-0.1367
12.6,1.1126,0.20052,0.19818,-0.1384
12.7,1.1165,0.20319,0.20087,-0.1401
12.8,1.1205,0.20581,0.20349,-0.1417
12.9,1.1246,0.20839,0.20608,-0.1433
13,1.1289,0.21093,0.20863,-0.1449
13.1,1.1333,0.21344,0.21114,-0.1465
13.2,1.1378,0.21592,0.21362,-0.1481
13.3,1.1424,0.21836,0.21607,-0.1496
13.4,1.1471,0.22076,0.21848,-0.1512
13.5,1.1518,0.22314,0.22086,-0.1527
13.6,1.1566,0.22549,0.22321,-0.1542
13.7,1.1614,0.2278,0.22553,-0.1557
13.8,1.166,0.22994,0.22766,-0.1574
13.9,1.1701,0.2337,0.23142,-0.1597
14,1.1746,0.237,0.23472,-0.1617
14.1,1.1793,0.24007,0.2378,-0.1637
14.2,1.1842,0.24301,0.24075,-0.1655
14.3,1.1892,0.24589,0.24363,-0.1674
14.5,1.1994,0.25123,0.24898,-0.1711
14.6,1.2047,0.25374,0.2515,-0.1728
14.7,1.21,0.25618,0.25393,-0.1745
14.8,1.2154,0.25854,0.2563,-0.1761
14.9,1.2207,0.26131,0.25906,-0.178
15,1.2257,0.26535,0.26311,-0.1803
15.1,1.2311,0.26874,0.26649,-0.1824
15.2,1.2365,0.27202,0.26977,-0.1844
15.3,1.242,0.27517,0.27293,-0.1864
15.4,1.2476,0.27826,0.27603,-0.1883
15.5,1.253,0.28118,0.27894,-0.1905
15.6,1.2587,0.28397,0.28174,-0.1924
15.7,1.2645,0.2867,0.28447,-0.1942
15.8,1.2702,0.28938,0.28715,-0.196
15.9,1.276,0.29203,0.2898,-0.1979
16,1.2817,0.29602,0.29379,-0.2002
16.1,1.2875,0.29976,0.29754,-0.2023
16.2,1.2934,0.30324,0.30102,-0.2044
16.3,1.2994,0.30662,0.3044,-0.2065
16.4,1.3053,0.30997,0.30776,-0.2085
16.5,1.3113,0.31326,0.31105,-0.2106
16.6,1.3174,0.31653,0.31432,-0.2126
16.7,1.3234,0.31977,0.31755,-0.2146
16.8,1.3295,0.32299,0.32078,-0.2166
16.9,1.3356,0.32619,0.32398,-0.2186
17,1.3417,0.32939,0.32718,-0.2206
17.1,1.3479,0.33257,0.33036,-0.2227
17.2,1.354,0.33574,0.33353,-0.2247
17.3,1.3602,0.33887,0.33667,-0.2267
17.4,1.3663,0.34199,0.33979,-0.2287
17.5,1.3725,0.34511,0.34291,-0.2307
17.6,1.3786,0.34818,0.34598,-0.2327
17.7,1.3849,0.35192,0.34971,-0.2349
17.8,1.3913,0.35764,0.35543,-0.2379
17.9,1.3976,0.36123,0.35903,-0.24
18,1.4039,0.36486,0.36266,-0.2422
18.1,1.4102,0.36844,0.36624,-0.2444
18.2,1.4165,0.37204,0.36983,-0.2465
18.3,1.4229,0.37562,0.37341,-0.2487
18.4,1.4292,0.3792,0.377,-0.2508
18.5,1.4355,0.38281,0.38061,-0.253
18.6,1.4419,0.38643,0.38424,-0.2552
18.7,1.4482,0.39004,0.38785,-0.2574
18.8,1.4546,0.39368,0.39148,-0.2596
18.9,1.4609,0.39732,0.39513,-0.2618
19,1.4673,0.40098,0.39879,-0.264
19.1,1.4736,0.40467,0.40247,-0.2662
19.2,1.48,0.40836,0.40618,-0.2684
19.3,1.4864,0.41204,0.40986,-0.2706
19.4,1.4927,0.41578,0.4136,-0.2729
19.5,1.4991,0.41953,0.41735,-0.2751
19.6,1.5054,0.42329,0.42111,-0.2774
19.7,1.5118,0.4271,0.42492,-0.2796
19.8,1.5183,0.43155,0.42937,-0.282
19.9,1.5249,0.43631,0.43413,-0.2845
20,1.5315,0.44092,0.43874,-0.2869
20.1,1.5379,0.44535,0.44318,-0.2893
20.2,1.5445,0.44987,0.4477,-0.2917
20.3,1.551,0.45434,0.45217,-0.2941
20.4,1.5575,0.45879,0.45662,-0.2965
20.5,1.5639,0.46324,0.46107,-0.299
20.6,1.5704,0.46776,0.46559,-0.3014
20.7,1.5769,0.47226,0.47009,-0.3038
20.8,1.5834,0.47672,0.47455,-0.3063
20.9,1.5898,0.48125,0.47909,-0.3087
21,1.5963,0.4858,0.48364,-0.3111
21.1,1.6027,0.49038,0.48822,-0.3136
21.2,1.6091,0.49498,0.49283,-0.3161
21.3,1.6156,0.49962,0.49747,-0.3185
21.4,1.622,0.50432,0.50217,-0.321
21.5,1.6285,0.50903,0.50688,-0.3235
21.6,1.6349,0.51378,0.51163,-0.326
21.7,1.6413,0.51853,0.51639,-0.3286
21.8,1.6477,0.52334,0.5212,-0.3311
21.9,1.6541,0.52819,0.52605,-0.3336
22.1,1.6668,0.53755,0.53541,-0.3389
22.2,1.6732,0.54244,0.54031,-0.3415
22.3,1.6796,0.5474,0.54528,-0.3441
22.4,1.6859,0.55238,0.55026,-0.3466
22.5,1.6923,0.55738,0.55526,-0.3492
22.6,1.6986,0.56248,0.56037,-0.3518
22.7,1.7049,0.56757,0.56545,-0.3544
22.8,1.7112,0.57272,0.5706,-0.357
22.9,1.7175,0.57792,0.57581,-0.3597
23,1.7238,0.58315,0.58104,-0.3623
23.1,1.7301,0.58843,0.58632,-0.365
23.2,1.7364,0.59375,0.59165,-0.3676
23.3,1.7426,0.59914,0.59704,-0.3703
23.4,1.7489,0.60458,0.60249,-0.373
23.5,1.7552,0.61008,0.60799,-0.3757
23.6,1.7614,0.6156,0.61351,-0.3783
23.7,1.7676,0.6212,0.61911,-0.3811
23.8,1.7738,0.62683,0.62474,-0.3837
23.9,1.7804,0.63428,0.63219,-0.3868
24,1.7868,0.64076,0.63867,-0.3897
24.1,1.7931,0.64701,0.64493,-0.3926
24.2,1.7994,0.65349,0.6514,-0.3955
24.3,1.8057,0.65974,0.65766,-0.3983
24.4,1.8119,0.66605,0.66397,-0.4012
24.5,1.8181,0.67237,0.6703,-0.404
24.6,1.8242,0.67879,0.67672,-0.4069
24.7,1.8304,0.68521,0.68314,-0.4098
24.8,1.8366,0.69176,0.68969,-0.4127
24.9,1.8427,0.69829,0.69623,-0.4156
25,1.8488,0.70494,0.70288,-0.4185
25.1,1.855,0.71162,0.70956,-0.4214
25.2,1.861,0.71832,0.71627,-0.4243
25.3,1.8671,0.72509,0.72305,-0.4272
25.4,1.8731,0.73197,0.72993,-0.4301
25.5,1.8791,0.7389,0.73687,-0.4331
25.6,1.8852,0.74589,0.74386,-0.436
25.7,1.8912,0.75295,0.75092,-0.439
25.8,1.8971,0.76009,0.75806,-0.442
25.9,1.9031,0.76734,0.76531,-0.4449
26,1.909,0.77452,0.7725,-0.4479
26.1,1.915,0.78203,0.78002,-0.4509
26.2,1.9209,0.78945,0.78743,-0.4539
26.3,1.9268,0.79698,0.79497,-0.4569
26.4,1.9326,0.80453,0.80252,-0.4599
26.5,1.9384,0.81223,0.81023,-0.463
26.6,1.9443,0.82002,0.81801,-0.466
26.7,1.9501,0.82785,0.82585,-0.469
26.8,1.9559,0.83588,0.83388,-0.4721
26.9,1.9617,0.84391,0.84192,-0.4752
27,1.9674,0.85211,0.85012,-0.4782
27.1,1.9731,0.86026,0.85827,-0.4813
27.2,1.9788,0.8686,0.86662,-0.4844
27.3,1.9846,0.87709,0.87511,-0.4875
27.4,1.9902,0.8855,0.88352,-0.4906
27.5,1.9958,0.89419,0.89222,-0.4937
27.6,2.0014,0.90296,0.90099,-0.4968
27.7,2.007,0.91169,0.90973,-0.4999
27.8,2.0126,0.91988,0.91792,-0.5033
27.9,2.0181,0.92878,0.92682,-0.5064
28,2.0236,0.93789,0.93593,-0.5096
28.1,2.0291,0.94718,0.94523,-0.5127
28.2,2.0345,0.95642,0.95448,-0.5159
28.3,2.04,0.9659,0.96396,-0.5191
28.4,2.0454,0.97545,0.97352,-0.5222
28.5,2.0507,0.98506,0.98313,-0.5254
28.6,2.0561,0.99495,0.99302,-0.5286
28.7,2.0615,1.00489,1.00297,-0.5318
28.8,2.0668,1.01489,1.01297,-0.535
28.9,2.072,1.02494,1.02302,-0.5383
29,2.0773,1.03532,1.0334,-0.5415
29.1,2.0825,1.04575,1.04384,-0.5447
29.2,2.0876,1.05626,1.05436,-0.548
29.3,2.0928,1.06702,1.06511,-0.5512
29.4,2.0979,1.07788,1.07598,-0.5545
29.5,2.103,1.08889,1.08699,-0.5577
29.6,2.1081,1.09999,1.09809,-0.561
29.7,2.1131,1.11117,1.10928,-0.5642
29.8,2.1181,1.12256,1.12068,-0.5675
30,2.1287,1.14678,1.14489,-0.5751

