airfoilName st4.dat
Re 	3.500000e+05
M 	7.000000e-01
N 	4.500000e+00
VACC 	0 VACCflag 1
XTR 	1.00 	1.00 XTRflag 0
alpha,cl,cd,cdp,cm
-4.2,-0.4529,0.01515,0.00669,-0.074
-4.1,-0.4281,0.01501,0.00639,-0.0736
-4,-0.4033,0.01485,0.0062,-0.0731
-3.8,-0.3546,0.01458,0.00587,-0.0724
-3.7,-0.3307,0.01447,0.00572,-0.072
-3.6,-0.3068,0.01435,0.00559,-0.0717
-3.5,-0.2831,0.01423,0.00547,-0.0714
-3.4,-0.2598,0.01416,0.00535,-0.0711
-3.3,-0.2364,0.01408,0.00523,-0.0708
-3.2,-0.2131,0.01397,0.00514,-0.0706
-3.1,-0.19,0.01389,0.00504,-0.0704
-3,-0.167,0.01383,0.00494,-0.0702
-2.9,-0.1441,0.01374,0.00488,-0.07
-2.8,-0.1212,0.01366,0.0048,-0.0698
-2.7,-0.0985,0.0136,0.00473,-0.0696
-2.6,-0.0761,0.01357,0.00467,-0.0694
-2.5,-0.0536,0.01351,0.00462,-0.0693
-2.4,-0.0313,0.01348,0.00456,-0.0692
-2.3,-0.0088,0.01342,0.00451,-0.0691
-2.2,0.0133,0.01339,0.00447,-0.0689
-2.1,0.0355,0.01337,0.00443,-0.0688
-2,0.0575,0.01335,0.0044,-0.0686
-1.9,0.0796,0.01333,0.00437,-0.0686
-1.8,0.1011,0.01337,0.00436,-0.0684
-1.7,0.1224,0.01342,0.00435,-0.0683
-1.6,0.1439,0.01346,0.00434,-0.0682
-1.5,0.1651,0.01354,0.00434,-0.0681
-1.4,0.1861,0.01363,0.00436,-0.068
-1.3,0.2066,0.01379,0.0044,-0.068
-1.2,0.2268,0.014,0.00445,-0.0679
-1.1,0.2473,0.01418,0.00451,-0.0679
-1,0.2684,0.01433,0.00457,-0.068
-0.9,0.2899,0.01442,0.00459,-0.068
-0.8,0.3115,0.01453,0.00465,-0.0681
-0.7,0.3333,0.0146,0.00469,-0.0681
-0.6,0.355,0.01471,0.00474,-0.0682
-0.5,0.3769,0.01481,0.00479,-0.0682
-0.4,0.399,0.01487,0.00484,-0.0683
-0.3,0.4213,0.01492,0.0049,-0.0683
-0.2,0.4436,0.01501,0.00495,-0.0684
-0.1,0.4659,0.01511,0.005,-0.0684
0,0.4883,0.01522,0.00508,-0.0685
0.1,0.5107,0.01532,0.00516,-0.0685
0.2,0.5335,0.01539,0.00524,-0.0686
0.3,0.5563,0.01548,0.00532,-0.0686
0.4,0.5792,0.01559,0.0054,-0.0687
0.5,0.6021,0.01572,0.00551,-0.0687
0.7,0.6485,0.01603,0.00574,-0.0689
0.8,0.6719,0.01614,0.00586,-0.0689
0.9,0.6955,0.01626,0.00598,-0.0689
1,0.7193,0.0164,0.00612,-0.069
1.1,0.7432,0.01655,0.00626,-0.069
1.2,0.7672,0.01673,0.00643,-0.0691
1.3,0.7914,0.01693,0.0066,-0.0691
1.4,0.8159,0.01716,0.0068,-0.0691
1.5,0.8405,0.01742,0.00701,-0.0692
1.6,0.8651,0.01757,0.00721,-0.0692
1.7,0.8896,0.01772,0.0074,-0.0691
1.8,0.9143,0.01791,0.00763,-0.069
2.9,1.191,0.02021,0.01125,-0.0672
3,1.2155,0.02043,0.01173,-0.067
3.1,1.2395,0.02069,0.01225,-0.0667
3.2,1.263,0.02099,0.01281,-0.0665
3.3,1.2859,0.02132,0.01342,-0.0663
3.4,1.308,0.02171,0.01408,-0.0661
3.5,1.3294,0.02215,0.0148,-0.066
3.6,1.3497,0.02263,0.01558,-0.0659
3.7,1.3691,0.02319,0.01642,-0.066
3.8,1.3874,0.02382,0.01731,-0.0661
4,1.4152,0.02541,0.01952,-0.0673
4.1,1.427,0.02631,0.0207,-0.0681
4.6,1.4766,0.03168,0.027,-0.0752
4.8,1.4849,0.0346,0.03024,-0.0817
4.9,1.4922,0.03598,0.03174,-0.085
5,1.5015,0.03731,0.03316,-0.0883
5.1,1.5119,0.03855,0.03449,-0.0914
5.2,1.5233,0.03972,0.03573,-0.0945
5.3,1.5342,0.04075,0.03685,-0.0972
5.4,1.5416,0.04222,0.03839,-0.1022
5.5,1.5507,0.04343,0.03968,-0.1064
5.6,1.5609,0.04443,0.04074,-0.1095
5.7,1.5705,0.04532,0.04168,-0.1122
5.8,1.5785,0.04607,0.04249,-0.1143
5.9,1.5913,0.04698,0.0434,-0.1175
6,1.6047,0.04792,0.04436,-0.1209
6.1,1.6169,0.0488,0.04525,-0.1239
6.2,1.6247,0.04985,0.0463,-0.1276
6.3,1.6326,0.05088,0.04733,-0.131
6.4,1.6407,0.05186,0.04832,-0.1341
6.5,1.65,0.05276,0.04923,-0.1367
6.6,1.6594,0.05365,0.05012,-0.1392
6.7,1.6689,0.05453,0.05099,-0.1415
6.8,1.6785,0.05539,0.05186,-0.1438
6.9,1.6881,0.05625,0.05271,-0.1459
7,1.6977,0.0571,0.05356,-0.148
7.1,1.7074,0.05794,0.05441,-0.15
7.2,1.717,0.05879,0.05525,-0.1519
7.3,1.7227,0.0599,0.05635,-0.155
7.4,1.7304,0.06089,0.05735,-0.1574
7.5,1.7379,0.06189,0.05834,-0.1598
7.6,1.7464,0.06283,0.05929,-0.1619
7.7,1.755,0.06377,0.06023,-0.1639
7.8,1.7637,0.0647,0.06116,-0.1659
7.9,1.7725,0.06564,0.0621,-0.1678
8,1.7813,0.06658,0.06304,-0.1696
8.1,1.7901,0.06752,0.06398,-0.1714
8.2,1.7989,0.06847,0.06493,-0.1732
8.3,1.8078,0.06943,0.06588,-0.1749
8.4,1.8167,0.07039,0.06685,-0.1766
8.5,1.8242,0.07152,0.06797,-0.1788
8.6,1.8309,0.07276,0.06921,-0.1812
8.7,1.8385,0.07391,0.07037,-0.1833
8.8,1.8465,0.07505,0.07151,-0.1853
8.9,1.8541,0.07623,0.07269,-0.1874
9,1.8624,0.07735,0.07382,-0.1892
9.1,1.8708,0.07848,0.07494,-0.1911
9.2,1.8792,0.0796,0.07607,-0.1928
9.3,1.8876,0.08074,0.07721,-0.1946
9.4,1.896,0.08187,0.07834,-0.1963
9.5,1.9045,0.08302,0.07949,-0.1981
9.6,1.9129,0.08417,0.08064,-0.1997
9.7,1.9214,0.08532,0.0818,-0.2014
9.8,1.9299,0.08649,0.08296,-0.2031
9.9,1.9384,0.08765,0.08413,-0.2047
10,1.9443,0.08926,0.08574,-0.2073
10.1,1.9516,0.09068,0.08716,-0.2094
10.2,1.9591,0.09205,0.08854,-0.2113
10.3,1.9664,0.0935,0.08999,-0.2134
10.4,1.9742,0.09485,0.09134,-0.2152
10.5,1.9821,0.0962,0.0927,-0.217
10.6,1.99,0.09755,0.09405,-0.2187
10.7,1.998,0.09891,0.09541,-0.2204
10.8,2.0059,0.10027,0.09678,-0.2221
10.9,2.0138,0.10164,0.09815,-0.2237
11,2.0217,0.10302,0.09953,-0.2254
11.1,2.0296,0.1044,0.10092,-0.227
11.2,2.0375,0.10579,0.10231,-0.2286
11.3,2.0453,0.10719,0.10371,-0.2302
11.4,2.0532,0.1086,0.10513,-0.2318
11.5,2.061,0.11002,0.10654,-0.2333

