airfoilName st4.dat
Re 	590000
M 	7.000000e-01
N 	4.500000e+00
VACC 	0 VACCflag 1
XTR 	1.00 	1.00 XTRflag 0
alpha,cl,cd,cdp,cm
-9.2,-1.4898,0.0833,0.08073,0.0953
-9.1,-1.48,0.08143,0.07887,0.0932
-9,-1.4702,0.07957,0.07702,0.091
-8.9,-1.4603,0.07774,0.07519,0.0887
-8.8,-1.4503,0.07592,0.07337,0.0864
-8.7,-1.4403,0.0741,0.07156,0.084
-8.6,-1.4303,0.07227,0.06973,0.0815
-8.4,-1.4097,0.06875,0.06623,0.0763
-8.3,-1.3986,0.06715,0.06464,0.0738
-8.2,-1.3874,0.06558,0.06307,0.0714
-8.1,-1.3762,0.06403,0.06153,0.0688
-8,-1.3649,0.0625,0.06001,0.0662
-7.9,-1.3587,0.06164,0.05876,0.0656
-7.8,-1.3478,0.06026,0.05728,0.0631
-7.7,-1.3364,0.05887,0.05581,0.0604
-7.6,-1.325,0.05748,0.05437,0.0575
-7.5,-1.3136,0.05609,0.05292,0.0544
-7.4,-1.3027,0.05462,0.05142,0.051
-7.3,-1.2899,0.05342,0.05019,0.0481
-7.2,-1.2769,0.05221,0.04896,0.045
-7.1,-1.2638,0.05102,0.04775,0.0418
-7,-1.2502,0.04982,0.04653,0.0385
-6.9,-1.2363,0.04862,0.04529,0.0348
-6.8,-1.222,0.04739,0.04404,0.031
-6.7,-1.2074,0.04612,0.04275,0.0268
-6.6,-1.1936,0.04484,0.04145,0.0223
-6.4,-1.1434,0.04187,0.03844,0.0081
-6.3,-1.1086,0.04004,0.03656,-0.0013
-6.2,-1.069,0.03783,0.03426,-0.0124
-6.1,-1.0243,0.03474,0.03108,-0.0268
-5.8,-0.9122,0.02515,0.02083,-0.061
-5.5,-0.8124,0.01842,0.01268,-0.0779
-5.3,-0.7465,0.01647,0.00988,-0.0802
-5.2,-0.715,0.01583,0.00891,-0.0802
-5.1,-0.6847,0.01534,0.00816,-0.0799
-5,-0.6555,0.01494,0.00757,-0.0793
-4.9,-0.6273,0.01462,0.00709,-0.0786
-4.8,-0.6002,0.01439,0.00679,-0.0779
-4.7,-0.5736,0.01418,0.0065,-0.0772
-4.6,-0.5476,0.014,0.00625,-0.0765
-4.5,-0.5218,0.01383,0.00602,-0.0758
-4.4,-0.4965,0.01368,0.00583,-0.0752
-4.3,-0.4715,0.01355,0.00567,-0.0747
-4.2,-0.4466,0.01342,0.00552,-0.0741
-4.1,-0.4221,0.01331,0.00537,-0.0736
-4,-0.3977,0.01321,0.00523,-0.0732
-3.9,-0.3738,0.01312,0.00513,-0.0728
-3.8,-0.3498,0.01302,0.00502,-0.0724
-3.7,-0.326,0.01293,0.00492,-0.072
-3.6,-0.3024,0.01285,0.00481,-0.0717
-3.5,-0.279,0.01277,0.00473,-0.0714
-3.4,-0.2556,0.01269,0.00465,-0.0711
-3.3,-0.2323,0.01262,0.00457,-0.0708
-3.2,-0.2091,0.01254,0.00449,-0.0706
-3.1,-0.1864,0.01252,0.00443,-0.0704
-3,-0.1635,0.01246,0.00436,-0.0701
-2.9,-0.1408,0.01243,0.0043,-0.0699
-2.8,-0.1181,0.01238,0.00425,-0.0698
-2.7,-0.0955,0.01233,0.0042,-0.0696
-2.6,-0.0731,0.01231,0.00416,-0.0695
-2.5,-0.0505,0.01226,0.00411,-0.0694
-2.4,-0.0282,0.01224,0.00407,-0.0692
-2.3,-0.0059,0.01223,0.00404,-0.0691
-2.2,0.0157,0.01228,0.00403,-0.069
-2.1,0.0376,0.01228,0.00401,-0.0689
-2,0.0593,0.01233,0.004,-0.0688
-1.9,0.0805,0.01243,0.00401,-0.0687
-1.8,0.1015,0.01255,0.00404,-0.0687
-1.6,0.1417,0.0131,0.00422,-0.0688
-1.5,0.1633,0.01319,0.00424,-0.0688
-1.4,0.185,0.01326,0.00427,-0.0688
-1.3,0.2069,0.01331,0.00429,-0.0688
-1.2,0.2288,0.01336,0.00431,-0.0688
-1.1,0.2506,0.01343,0.00435,-0.0689
-1,0.2727,0.01346,0.00436,-0.0689
-0.9,0.2948,0.0135,0.00439,-0.069
-0.8,0.3168,0.01355,0.00442,-0.069
-0.7,0.3388,0.01363,0.00446,-0.069
-0.6,0.3611,0.01366,0.00449,-0.069
-0.5,0.3834,0.01369,0.00452,-0.0691
-0.4,0.4057,0.01374,0.00455,-0.0691
-0.3,0.4281,0.0138,0.00459,-0.0692
-0.2,0.4506,0.01388,0.00464,-0.0692
-0.1,0.4731,0.01398,0.00469,-0.0693
0,0.4957,0.01403,0.00475,-0.0694
0.1,0.5184,0.0141,0.00481,-0.0694
0.2,0.5413,0.01418,0.00486,-0.0695
0.3,0.5642,0.01426,0.00493,-0.0695
0.4,0.5873,0.01438,0.00501,-0.0696
0.5,0.6106,0.01447,0.00508,-0.0697
0.6,0.6338,0.01461,0.00518,-0.0697
0.7,0.6572,0.01472,0.00527,-0.0698
0.8,0.6808,0.01482,0.00537,-0.0698
0.9,0.7046,0.01495,0.00548,-0.0699
1,0.7285,0.01506,0.00559,-0.07
1.2,0.7766,0.01537,0.00584,-0.07
1.3,0.8011,0.01557,0.00599,-0.0701
1.4,0.8258,0.01579,0.00616,-0.0702
3.5,1.3563,0.02033,0.01318,-0.0665
3.6,1.3781,0.0207,0.01386,-0.0663
3.7,1.399,0.02115,0.01461,-0.0661
3.8,1.4188,0.02167,0.01542,-0.0661
3.9,1.4374,0.02228,0.01631,-0.0661
4,1.4546,0.02296,0.01726,-0.0663
4.1,1.4691,0.02376,0.01835,-0.0667
4.3,1.4907,0.02576,0.02089,-0.0684
4.4,1.5001,0.02687,0.02222,-0.0695
4.5,1.5084,0.02803,0.02358,-0.0709
4.6,1.5161,0.02924,0.02497,-0.0726
4.7,1.5238,0.03045,0.02634,-0.0745
4.8,1.5315,0.0317,0.02773,-0.0766

