airfoilName st4.dat
Re 	450000
M 	7.000000e-01
N 	4.500000e+00
VACC 	0 VACCflag 1
XTR 	1.00 	1.00 XTRflag 0
alpha,cl,cd,cdp,cm
-12.5,-1.791,0.16507,0.16197,0.157
-12.4,-1.7818,0.16218,0.15908,0.1552
-12.3,-1.7726,0.1593,0.15621,0.1534
-12.2,-1.7634,0.15646,0.15337,0.1516
-12.1,-1.7542,0.15364,0.15055,0.1498
-12,-1.745,0.15085,0.14776,0.148
-11.9,-1.7358,0.14808,0.14499,0.1463
-11.8,-1.7266,0.14533,0.14225,0.1445
-11.7,-1.7173,0.14253,0.13945,0.1426
-11.6,-1.7081,0.13983,0.13675,0.1408
-11.5,-1.6989,0.13715,0.13407,0.139
-11.4,-1.6896,0.13449,0.13142,0.1372
-11.3,-1.6804,0.13185,0.12877,0.1353
-11.2,-1.6712,0.12922,0.12615,0.1335
-11.1,-1.6619,0.12662,0.12355,0.1316
-11,-1.6527,0.12402,0.12095,0.1298
-10.9,-1.6436,0.12143,0.11836,0.1278
-10.8,-1.6345,0.11882,0.11575,0.1259
-10.7,-1.6256,0.11613,0.11307,0.1238
-10.6,-1.6163,0.11366,0.11061,0.1219
-10.5,-1.6068,0.11133,0.10828,0.1201
-10.4,-1.5973,0.10903,0.10598,0.1183
-10.3,-1.5878,0.10676,0.10371,0.1165
-10.2,-1.5784,0.10451,0.10147,0.1146
-10.1,-1.5689,0.10225,0.09921,0.1127
-10,-1.5595,0.10006,0.09703,0.1109
-9.9,-1.5501,0.09791,0.09488,0.109
-9.8,-1.5407,0.09578,0.09276,0.1071
-9.7,-1.5313,0.09369,0.09067,0.1051
-9.6,-1.5219,0.09161,0.0886,0.1032
-9.5,-1.5126,0.08956,0.08655,0.1011
-9.4,-1.5033,0.08751,0.08451,0.099
-9.3,-1.494,0.08546,0.08245,0.0969
-9.2,-1.4851,0.08333,0.08033,0.0945
-9.1,-1.4755,0.08146,0.07847,0.0924
-9,-1.4655,0.07971,0.07672,0.0904
-8.9,-1.4555,0.07797,0.075,0.0883
-8.8,-1.4453,0.07626,0.07329,0.0862
-8.7,-1.4351,0.07455,0.07158,0.084
-8.6,-1.4247,0.07286,0.0699,0.0817
-8.5,-1.4143,0.07119,0.06824,0.0794
-8.4,-1.4036,0.06953,0.06658,0.077
-8.3,-1.3929,0.06787,0.06493,0.0745
-8.2,-1.3822,0.06623,0.06329,0.0719
-8.1,-1.3714,0.06458,0.06165,0.0692
-8,-1.3609,0.0629,0.05998,0.0663
-7.9,-1.3501,0.0613,0.05839,0.0635
-7.8,-1.3384,0.0599,0.05701,0.061
-7.7,-1.3265,0.05853,0.05565,0.0584
-7.5,-1.3025,0.05585,0.05298,0.053
-7.4,-1.2946,0.05506,0.05188,0.0518
-7.3,-1.2834,0.05392,0.05062,0.0493
-7.2,-1.2714,0.05272,0.04934,0.0464
-7.1,-1.259,0.05149,0.04805,0.0432
-7,-1.2464,0.05021,0.04673,0.0396
-6.9,-1.2336,0.0489,0.04538,0.0357
-6.8,-1.2188,0.04779,0.04424,0.0323
-6.7,-1.2039,0.04668,0.0431,0.0287
-6.6,-1.1886,0.04554,0.04194,0.0248
-6.5,-1.174,0.04447,0.04082,0.0208
-6.4,-1.1498,0.04306,0.03937,0.0141
-6.3,-1.1187,0.04129,0.03755,0.0051
-6.2,-1.0817,0.03919,0.03539,-0.0057
-6.1,-1.043,0.03723,0.03335,-0.0153
-6,-1.002,0.03483,0.03085,-0.0263
-5.6,-0.8547,0.02268,0.01759,-0.0681
-5.3,-0.7553,0.01815,0.01171,-0.0776
-5.2,-0.7231,0.01726,0.01031,-0.0787
-5.1,-0.6922,0.01665,0.00945,-0.0787
-5,-0.6623,0.01617,0.00873,-0.0785
-4.9,-0.6336,0.01579,0.00815,-0.078
-4.8,-0.6056,0.01546,0.00765,-0.0775
-4.7,-0.5784,0.01519,0.00723,-0.0769
-4.6,-0.5517,0.01495,0.00693,-0.0763
-4.5,-0.5256,0.01474,0.00667,-0.0757
-4.4,-0.4999,0.01456,0.00643,-0.0751
-4.3,-0.4749,0.01443,0.0062,-0.0746
-4.2,-0.4498,0.01427,0.00601,-0.074
-4.1,-0.425,0.01413,0.00586,-0.0736
-4,-0.4005,0.014,0.0057,-0.0732
-3.9,-0.3763,0.0139,0.00555,-0.0727
-3.8,-0.3523,0.0138,0.00541,-0.0724
-3.7,-0.3285,0.01369,0.0053,-0.072
-3.6,-0.3047,0.01359,0.00518,-0.0716
-3.5,-0.2811,0.01351,0.00507,-0.0714
-3.4,-0.2578,0.01342,0.00498,-0.0711
-3.3,-0.2344,0.01332,0.00489,-0.0708
-3.2,-0.2111,0.01324,0.0048,-0.0706
-3.1,-0.1882,0.0132,0.0047,-0.0703
-3,-0.1653,0.01312,0.00464,-0.0701
-2.8,-0.1198,0.01303,0.0045,-0.0697
-2.7,-0.0973,0.01297,0.00446,-0.0695
-2.6,-0.0746,0.01291,0.0044,-0.0694
-2.5,-0.0522,0.01289,0.00435,-0.0692
-2.4,-0.0297,0.01284,0.0043,-0.0691
-2.3,-0.0074,0.01279,0.00426,-0.069
-2.2,0.0147,0.0128,0.00423,-0.0689
-2.1,0.0368,0.01278,0.00419,-0.0688
-2,0.0587,0.01278,0.00417,-0.0687
-1.9,0.0802,0.01284,0.00416,-0.0685
-1.8,0.1015,0.01291,0.00415,-0.0684
-1.7,0.1226,0.01299,0.00417,-0.0684
-1.6,0.1435,0.01313,0.0042,-0.0683
-1.5,0.1638,0.01332,0.00424,-0.0682
-1.4,0.1841,0.01354,0.00431,-0.0683
-1.3,0.2051,0.01371,0.00438,-0.0683
-1.2,0.2266,0.0138,0.0044,-0.0684
-1.1,0.2482,0.01388,0.00445,-0.0684
-1,0.2701,0.01395,0.00447,-0.0684
-0.9,0.2917,0.01405,0.00451,-0.0685
-0.8,0.3136,0.01411,0.00456,-0.0685
-0.7,0.3357,0.01415,0.00459,-0.0686
-0.6,0.3579,0.0142,0.00462,-0.0686
-0.5,0.38,0.01426,0.00466,-0.0687
-0.4,0.4022,0.01436,0.00471,-0.0687
-0.3,0.4244,0.01443,0.00477,-0.0687
-0.2,0.4469,0.01448,0.00481,-0.0688
-0.1,0.4694,0.01454,0.00486,-0.0689
0,0.492,0.01462,0.00492,-0.0689
0.1,0.5146,0.01472,0.00499,-0.0689
0.2,0.5373,0.01484,0.00506,-0.069
0.3,0.56,0.01495,0.00515,-0.0691
0.4,0.5831,0.01503,0.00522,-0.0691
0.5,0.6063,0.01512,0.00531,-0.0692
0.6,0.6295,0.01524,0.0054,-0.0692
0.7,0.6529,0.01536,0.0055,-0.0693
0.9,0.7001,0.01563,0.00573,-0.0694
1,0.7241,0.01582,0.00587,-0.0695
1.1,0.7481,0.01602,0.00602,-0.0696
1.3,0.7966,0.0163,0.00632,-0.0696
1.4,0.8209,0.01646,0.00648,-0.0696
1.5,0.8454,0.01665,0.00666,-0.0696
3.3,1.2986,0.02052,0.01267,-0.0667
3.4,1.3211,0.02083,0.0133,-0.0664
3.6,1.3633,0.02164,0.01474,-0.0662
3.7,1.3829,0.02218,0.01557,-0.0662
3.8,1.4014,0.02276,0.01648,-0.0664
3.9,1.4183,0.02346,0.01745,-0.0666
4,1.434,0.02423,0.01849,-0.067
4.1,1.4483,0.02508,0.01959,-0.0675
4.2,1.4613,0.02599,0.02073,-0.0683
4.3,1.4733,0.02697,0.02191,-0.0691

