airfoilName st4.dat
Re 	330000
M 	7.000000e-01
N 	4.500000e+00
VACC 	0 VACCflag 1
XTR 	1.00 	1.00 XTRflag 0
alpha,cl,cd,cdp,cm
-12.4,-1.7741,0.16253,0.15883,0.1542
-12.3,-1.7652,0.15955,0.15585,0.1523
-12.1,-1.7475,0.15351,0.14982,0.1484
-12,-1.7385,0.15061,0.14692,0.1465
-11.9,-1.7292,0.14786,0.14418,0.1447
-11.8,-1.7199,0.14514,0.14147,0.143
-11.7,-1.7106,0.14245,0.13878,0.1412
-11.6,-1.7013,0.13979,0.13612,0.1394
-11.5,-1.692,0.13714,0.13348,0.1377
-11.4,-1.6827,0.13453,0.13087,0.1359
-11.3,-1.6734,0.13193,0.12827,0.1341
-11.2,-1.664,0.12936,0.1257,0.1323
-11.1,-1.6547,0.12681,0.12315,0.1305
-11,-1.6453,0.12428,0.12063,0.1287
-10.9,-1.6359,0.12177,0.11812,0.1269
-10.8,-1.6266,0.11928,0.11564,0.1251
-10.7,-1.6174,0.11662,0.11297,0.1231
-10.6,-1.6081,0.11415,0.11051,0.1212
-10.5,-1.5988,0.1117,0.10807,0.1192
-10.4,-1.5896,0.10925,0.10562,0.1173
-10.3,-1.5805,0.10676,0.10313,0.1152
-10.2,-1.5716,0.10423,0.1006,0.1131
-10.1,-1.562,0.10207,0.09846,0.1113
-10,-1.5525,0.09995,0.09634,0.1095
-9.9,-1.543,0.09787,0.09426,0.1077
-9.8,-1.5335,0.09581,0.09221,0.1059
-9.7,-1.524,0.09379,0.0902,0.1041
-9.6,-1.5146,0.0918,0.08821,0.1022
-9.5,-1.5051,0.08985,0.08626,0.1004
-9.4,-1.4957,0.08792,0.08434,0.0985
-9.3,-1.4862,0.08602,0.08244,0.0965
-9.2,-1.477,0.08401,0.08044,0.0943
-9.1,-1.4676,0.08214,0.07857,0.0923
-9,-1.4581,0.08027,0.07671,0.0901
-8.9,-1.4487,0.07839,0.07483,0.0878
-8.8,-1.4396,0.07645,0.0729,0.0854
-8.7,-1.4298,0.07471,0.07117,0.0831
-8.6,-1.4194,0.07311,0.06958,0.081
-8.5,-1.4088,0.07153,0.06801,0.0789
-8.4,-1.3981,0.06997,0.06645,0.0767
-8.3,-1.3872,0.06841,0.0649,0.0744
-8.2,-1.3762,0.06686,0.06337,0.0721
-8.1,-1.3651,0.06533,0.06184,0.0697
-8,-1.3543,0.06376,0.06028,0.067
-7.9,-1.3432,0.06224,0.05877,0.0645
-7.8,-1.332,0.06074,0.05727,0.0618
-7.7,-1.321,0.05923,0.05578,0.059
-7.6,-1.3104,0.05767,0.05422,0.0558
-7.5,-1.2985,0.05633,0.0529,0.0531
-7.4,-1.2861,0.05509,0.05167,0.0505
-7.3,-1.2735,0.05387,0.05047,0.0479
-7.2,-1.2608,0.05266,0.04927,0.0451
-7.1,-1.2477,0.05146,0.04808,0.0421
-7,-1.2345,0.05027,0.0469,0.039
-6.9,-1.22,0.04917,0.04567,0.0355
-6.8,-1.2094,0.0482,0.04455,0.033
-6.7,-1.1968,0.04706,0.04331,0.0295
-6.6,-1.1832,0.04584,0.04203,0.0253
-6.5,-1.1679,0.04484,0.04096,0.0219
-6.4,-1.1507,0.04382,0.0399,0.0178
-6.3,-1.1247,0.04252,0.03852,0.0114
-6.2,-1.0937,0.04097,0.03692,0.0035
-6.1,-1.0574,0.039,0.03485,-0.0069
-6,-1.017,0.03672,0.03247,-0.0182
-5.9,-0.9782,0.03468,0.03033,-0.0272
-5.7,-0.9004,0.0288,0.02404,-0.0497
-5.2,-0.7328,0.0194,0.01272,-0.0752
-5.1,-0.7009,0.01848,0.01142,-0.0764
-5,-0.6702,0.01778,0.01034,-0.077
-4.8,-0.6122,0.01687,0.00893,-0.0767
-4.7,-0.5843,0.01651,0.00842,-0.0764
-4.6,-0.5573,0.01623,0.00796,-0.0759
-4.5,-0.5306,0.01597,0.00755,-0.0755
-4.4,-0.5046,0.01576,0.0073,-0.075
-4.3,-0.479,0.01556,0.00702,-0.0745
-4.2,-0.4536,0.01536,0.00675,-0.074
-4.1,-0.4285,0.0152,0.00651,-0.0736
-4,-0.4041,0.01506,0.00635,-0.0731
-3.9,-0.3796,0.01491,0.00617,-0.0728
-3.8,-0.3552,0.01477,0.00599,-0.0724
-3.7,-0.3312,0.01465,0.00584,-0.072
-3.6,-0.3073,0.01454,0.00569,-0.0718
-3.5,-0.2837,0.01443,0.00557,-0.0714
-3.4,-0.26,0.01433,0.00544,-0.0711
-3.3,-0.2368,0.01424,0.00532,-0.0709
-3.2,-0.2137,0.01416,0.00523,-0.0706
-3.1,-0.1904,0.01407,0.00514,-0.0704
-3,-0.1674,0.01399,0.00504,-0.0702
-2.9,-0.1445,0.01391,0.00495,-0.07
-2.8,-0.1217,0.01384,0.00489,-0.0698
-2.7,-0.0988,0.01377,0.0048,-0.0697
-2.6,-0.0762,0.01369,0.00473,-0.0695
-2.5,-0.0541,0.01368,0.00469,-0.0693
-2.4,-0.0315,0.01362,0.00462,-0.0692
-2.3,-0.0092,0.01357,0.00458,-0.0691
-2.2,0.013,0.01354,0.00454,-0.0689
-2.1,0.0352,0.01353,0.00448,-0.0688
-2,0.0573,0.01348,0.00446,-0.0687
-1.9,0.0792,0.01348,0.00443,-0.0686
-1.8,0.1008,0.01351,0.0044,-0.0685
-1.7,0.1226,0.0135,0.00439,-0.0684
-1.6,0.1437,0.01358,0.00439,-0.0682
-1.5,0.1651,0.01364,0.00438,-0.0681
-1.4,0.1863,0.0137,0.0044,-0.068
-1.3,0.207,0.01384,0.00441,-0.0679
-1.2,0.2273,0.01402,0.00446,-0.0678
-1.1,0.2476,0.01421,0.00453,-0.0678
-1,0.2684,0.01439,0.00458,-0.0679
-0.9,0.2896,0.0145,0.00463,-0.0679
-0.8,0.3112,0.0146,0.00466,-0.068
-0.7,0.3327,0.01472,0.00472,-0.068
-0.6,0.3544,0.01482,0.00477,-0.0681
-0.5,0.3763,0.0149,0.00482,-0.0681
-0.4,0.3983,0.015,0.00487,-0.0682
-0.3,0.4205,0.01506,0.00493,-0.0682
-0.2,0.4428,0.01515,0.00499,-0.0682
-0.1,0.4651,0.01522,0.00504,-0.0683
0,0.4875,0.01533,0.00511,-0.0683
0.1,0.51,0.01543,0.00519,-0.0684
0.2,0.5325,0.01555,0.00529,-0.0685
0.3,0.5553,0.01564,0.00537,-0.0685
0.4,0.5782,0.01573,0.00545,-0.0685
0.5,0.6011,0.01585,0.00556,-0.0686
0.6,0.6241,0.01596,0.00566,-0.0687
0.7,0.6473,0.01612,0.00579,-0.0687
0.8,0.6708,0.01633,0.00592,-0.0688
0.9,0.6944,0.01643,0.00604,-0.0688
1,0.7181,0.01655,0.00617,-0.0689
1.1,0.742,0.0167,0.00633,-0.0689
1.2,0.7659,0.01687,0.00649,-0.0689
1.3,0.7901,0.01705,0.00666,-0.0689
1.4,0.8144,0.01727,0.00686,-0.069
1.5,0.839,0.01749,0.00706,-0.069
1.6,0.8637,0.01777,0.0073,-0.069
1.7,0.8882,0.01789,0.00748,-0.069
1.8,0.9129,0.01807,0.00772,-0.0689
1.9,0.9378,0.01828,0.00796,-0.0688
2.8,1.1641,0.02017,0.01094,-0.0673
2.9,1.1887,0.02037,0.01139,-0.0671
3,1.2128,0.0206,0.01188,-0.0668
3.1,1.2366,0.02087,0.01241,-0.0666
3.2,1.2598,0.02118,0.01298,-0.0663
3.3,1.2824,0.02152,0.01361,-0.0661
3.4,1.3042,0.02192,0.01429,-0.066
3.5,1.3252,0.02236,0.01503,-0.0659
3.6,1.3452,0.02287,0.01582,-0.0659
3.7,1.3642,0.02346,0.01668,-0.066
3.8,1.3821,0.0241,0.01758,-0.0662
3.9,1.3988,0.02481,0.01855,-0.0665
4,1.4143,0.02556,0.01955,-0.0668
4.1,1.4226,0.02658,0.0209,-0.0681
4.7,1.4785,0.03312,0.02853,-0.0775
4.9,1.4869,0.0362,0.0319,-0.0851
5,1.4957,0.03754,0.03334,-0.0885
5.1,1.5058,0.03878,0.03466,-0.0916
5.2,1.5157,0.03986,0.03584,-0.0944
5.3,1.527,0.04093,0.03697,-0.0972
5.4,1.5384,0.04193,0.03804,-0.0999
5.5,1.5436,0.04334,0.03952,-0.1051
5.6,1.5515,0.04429,0.04054,-0.1079
5.8,1.5742,0.04621,0.0425,-0.1145
5.9,1.5876,0.0472,0.04351,-0.1181
6,1.6009,0.04814,0.04446,-0.1214
6.1,1.6126,0.04902,0.04535,-0.1244
6.2,1.6234,0.04987,0.0462,-0.1269
6.3,1.6318,0.05085,0.04718,-0.1301
6.4,1.6381,0.05194,0.04828,-0.1339
6.5,1.647,0.05288,0.04922,-0.1367
6.6,1.6562,0.05378,0.05013,-0.1392
6.7,1.6655,0.05467,0.05101,-0.1416
6.8,1.6749,0.05554,0.05188,-0.1439
6.9,1.6844,0.0564,0.05275,-0.1461
7,1.6939,0.05726,0.0536,-0.1482
7.1,1.7035,0.05811,0.05446,-0.1502
7.2,1.713,0.05896,0.0553,-0.1521
7.3,1.7225,0.05981,0.05615,-0.154
7.4,1.7297,0.06082,0.05715,-0.1566
7.5,1.7367,0.06186,0.05819,-0.1592
7.6,1.7438,0.06289,0.05923,-0.1617
7.7,1.7522,0.06385,0.06018,-0.1638
7.8,1.7607,0.0648,0.06114,-0.1658
7.9,1.7694,0.06575,0.06209,-0.1677
8,1.778,0.0667,0.06304,-0.1696
8.1,1.7868,0.06765,0.06399,-0.1714
8.2,1.7955,0.06861,0.06495,-0.1732
8.3,1.8044,0.06958,0.06592,-0.175
8.4,1.8132,0.07055,0.06689,-0.1767
8.5,1.8221,0.07153,0.06787,-0.1784
8.6,1.831,0.07252,0.06886,-0.1801
8.7,1.8378,0.07375,0.07008,-0.1825
8.8,1.8449,0.07499,0.07133,-0.1848
8.9,1.8526,0.07617,0.07251,-0.1868
9,1.86,0.07739,0.07374,-0.189
9.1,1.8682,0.07854,0.07489,-0.1909
9.2,1.8764,0.07968,0.07603,-0.1927
9.3,1.8847,0.08083,0.07718,-0.1945
9.4,1.8931,0.08198,0.07834,-0.1963
9.5,1.9015,0.08314,0.07949,-0.198
9.6,1.9099,0.0843,0.08066,-0.1997
9.7,1.9183,0.08547,0.08183,-0.2014
9.8,1.9267,0.08664,0.083,-0.2031
9.9,1.9352,0.08782,0.08418,-0.2048
10,1.9436,0.08901,0.08537,-0.2064
10.1,1.952,0.0902,0.08657,-0.2081
10.2,1.9581,0.09182,0.08818,-0.2106
10.3,1.9652,0.09328,0.08965,-0.2126
10.4,1.9721,0.09481,0.09118,-0.2148
10.5,1.9798,0.09619,0.09257,-0.2167
10.6,1.9876,0.09757,0.09395,-0.2184
10.7,1.9954,0.09895,0.09534,-0.2202
10.8,2.0033,0.10033,0.09672,-0.2219
10.9,2.0111,0.10172,0.09811,-0.2236
11,2.019,0.10311,0.0995,-0.2253
11.1,2.0268,0.10451,0.1009,-0.2269
11.2,2.0346,0.10591,0.10231,-0.2285
11.3,2.0425,0.10732,0.10373,-0.2301
11.4,2.0503,0.10875,0.10515,-0.2317
11.5,2.0581,0.11017,0.10659,-0.2333
11.6,2.0659,0.11161,0.10803,-0.2349
11.7,2.0737,0.11306,0.10948,-0.2365
11.9,2.0875,0.11678,0.1132,-0.2406
12,2.0944,0.11882,0.11525,-0.2428
12.1,2.1019,0.12054,0.11698,-0.2446
12.2,2.1094,0.12225,0.11869,-0.2464
12.3,2.117,0.12396,0.1204,-0.2481
12.4,2.1246,0.12567,0.12211,-0.2498
12.5,2.1322,0.12738,0.12383,-0.2515
12.6,2.1398,0.1291,0.12556,-0.2532
12.7,2.1474,0.13082,0.12729,-0.2549
12.8,2.155,0.13256,0.12903,-0.2565
12.9,2.1626,0.1343,0.13078,-0.2582
13,2.1703,0.13605,0.13253,-0.2598
13.1,2.1779,0.13781,0.1343,-0.2615
13.2,2.1855,0.13959,0.13607,-0.2631
13.3,2.1931,0.14137,0.13786,-0.2648
13.4,2.2007,0.14316,0.13966,-0.2664
13.5,2.2083,0.14497,0.14147,-0.268
13.6,2.2159,0.14679,0.14329,-0.2697

