airfoilName st4.dat
Re 	6.300000e+05
M 	7.000000e-01
N 	4.500000e+00
VACC 	0 VACCflag 1
XTR 	1.00 	1.00 XTRflag 0
alpha,cl,cd,cdp,cm
-13,-1.8425,0.17982,0.17725,0.1672
-12.9,-1.8333,0.17679,0.17421,0.1654
-12.8,-1.8241,0.17375,0.17118,0.1636
-12.7,-1.815,0.17076,0.16819,0.1618
-12.6,-1.8058,0.1678,0.16523,0.16
-12.5,-1.7967,0.16486,0.1623,0.1581
-12.4,-1.7876,0.16196,0.1594,0.1563
-12.3,-1.7785,0.15908,0.15652,0.1545
-12.2,-1.7694,0.15622,0.15366,0.1527
-12.1,-1.7603,0.15339,0.15083,0.1509
-12,-1.7512,0.15058,0.14803,0.1491
-11.9,-1.742,0.14779,0.14524,0.1473
-11.8,-1.7329,0.14502,0.14247,0.1455
-11.7,-1.7238,0.14226,0.13972,0.1436
-11.6,-1.7147,0.13952,0.13698,0.1418
-11.5,-1.7056,0.1368,0.13425,0.1399
-11.4,-1.6965,0.13408,0.13154,0.138
-11.3,-1.6875,0.13135,0.12881,0.1361
-11.2,-1.6787,0.12858,0.12604,0.1341
-11.1,-1.6696,0.12588,0.12335,0.1321
-11,-1.6602,0.12337,0.12084,0.1303
-10.9,-1.6508,0.1209,0.11837,0.1285
-10.8,-1.6414,0.11844,0.11592,0.1267
-10.7,-1.632,0.11602,0.11349,0.1249
-10.6,-1.6227,0.11362,0.1111,0.123
-10.5,-1.6133,0.11124,0.10873,0.1212
-10.4,-1.6039,0.1089,0.10639,0.1193
-10.3,-1.5945,0.10658,0.10407,0.1174
-10.2,-1.5852,0.10429,0.10178,0.1155
-10.1,-1.5759,0.10202,0.09951,0.1136
-10,-1.5666,0.09977,0.09727,0.1116
-9.9,-1.5573,0.09753,0.09503,0.1096
-9.8,-1.5481,0.09531,0.09281,0.1076
-9.7,-1.5391,0.09307,0.09057,0.1054
-9.6,-1.5301,0.09082,0.08833,0.1032
-9.5,-1.5204,0.08885,0.08637,0.1012
-9.4,-1.5108,0.08692,0.08444,0.0993
-9.3,-1.5011,0.08501,0.08254,0.0973
-9.2,-1.4913,0.08313,0.08066,0.0952
-9.1,-1.4814,0.08127,0.07881,0.0931
-9,-1.4715,0.07944,0.07698,0.0909
-8.9,-1.4615,0.07762,0.07516,0.0887
-8.8,-1.4515,0.07582,0.07337,0.0864
-8.7,-1.4413,0.07404,0.07159,0.0841
-8.6,-1.4311,0.07226,0.06982,0.0816
-8.5,-1.4208,0.07047,0.06803,0.079
-8.4,-1.4113,0.06851,0.06609,0.076
-8.3,-1.4001,0.06693,0.06451,0.0736
-8.2,-1.3889,0.06537,0.06295,0.0711
-8.1,-1.3776,0.06383,0.06142,0.0686
-8,-1.3716,0.06299,0.06014,0.0681
-7.9,-1.3605,0.06159,0.05865,0.0656
-7.8,-1.3491,0.06019,0.05718,0.063
-7.7,-1.3375,0.05879,0.05574,0.0602
-7.6,-1.3259,0.05742,0.05432,0.0574
-7.5,-1.3142,0.05605,0.05292,0.0544
-7.4,-1.3026,0.05469,0.05152,0.0512
-7.3,-1.2913,0.05322,0.05004,0.0475
-7.2,-1.2781,0.05201,0.04881,0.0444
-7.1,-1.265,0.05084,0.04761,0.0413
-7,-1.2513,0.04966,0.0464,0.0379
-6.9,-1.2372,0.04845,0.04518,0.0343
-6.8,-1.2228,0.04723,0.04394,0.0304
-6.7,-1.2081,0.04598,0.04268,0.0263
-6.6,-1.1942,0.04475,0.04143,0.022
-6.5,-1.1719,0.04317,0.03983,0.0147
-6.4,-1.1411,0.04151,0.03813,0.0062
-6.3,-1.1054,0.03965,0.03621,-0.0033
-6.2,-1.065,0.03737,0.03387,-0.0146
-5.8,-0.9101,0.02432,0.01999,-0.0635
-5.6,-0.8443,0.01967,0.01447,-0.0753
-5.5,-0.8103,0.01797,0.01219,-0.0788
-5.3,-0.7442,0.01609,0.00948,-0.0807
-5.2,-0.713,0.01551,0.00859,-0.0806
-5.1,-0.683,0.01505,0.00789,-0.0801
-5,-0.654,0.01469,0.00735,-0.0795
-4.9,-0.6261,0.01439,0.00691,-0.0787
-4.8,-0.5989,0.01414,0.00658,-0.078
-4.7,-0.5726,0.01397,0.00634,-0.0772
-4.6,-0.5466,0.01379,0.00611,-0.0765
-4.5,-0.521,0.01363,0.0059,-0.0759
-4.4,-0.4957,0.01349,0.00571,-0.0752
-4.3,-0.4706,0.01335,0.00555,-0.0747
-4.2,-0.4459,0.01323,0.00541,-0.0742
-4.1,-0.4214,0.01313,0.00527,-0.0737
-4,-0.3973,0.01304,0.00516,-0.0732
-3.9,-0.3731,0.01294,0.00504,-0.0728
-3.8,-0.3492,0.01284,0.00494,-0.0724
-3.7,-0.3255,0.01277,0.00484,-0.072
-3.6,-0.3019,0.01269,0.00475,-0.0717
-3.5,-0.2783,0.0126,0.00465,-0.0714
-3.4,-0.255,0.01252,0.00458,-0.0711
-3.3,-0.2318,0.01246,0.0045,-0.0709
-3.2,-0.2089,0.01242,0.00443,-0.0706
-3.1,-0.186,0.01236,0.00437,-0.0704
-3,-0.1631,0.01232,0.0043,-0.0702
-2.9,-0.1404,0.01228,0.00425,-0.07
-2.8,-0.1177,0.01223,0.00419,-0.0698
-2.7,-0.0952,0.0122,0.00415,-0.0697
-2.6,-0.0725,0.01216,0.00411,-0.0695
-2.5,-0.0502,0.01213,0.00406,-0.0694
-2.4,-0.0278,0.01211,0.00403,-0.0693
-2.3,-0.0056,0.0121,0.004,-0.0692
-2.2,0.0161,0.01215,0.00398,-0.069
-2.1,0.0378,0.01218,0.00397,-0.069
-2,0.0594,0.01223,0.00397,-0.0689
-1.7,0.1206,0.01292,0.00416,-0.0689
-1.6,0.142,0.01303,0.0042,-0.0689
-1.5,0.1637,0.0131,0.00423,-0.0689
-1.4,0.1856,0.01314,0.00425,-0.0689
-1.3,0.2075,0.0132,0.00427,-0.0689
-1.2,0.2293,0.01327,0.0043,-0.069
-1.1,0.2514,0.01329,0.00432,-0.069
-1,0.2734,0.01333,0.00434,-0.069
-0.9,0.2955,0.01337,0.00436,-0.0691
-0.8,0.3175,0.01344,0.00439,-0.0691
-0.7,0.3397,0.01347,0.00442,-0.0691
-0.6,0.3619,0.01351,0.00445,-0.0691
-0.5,0.3843,0.01354,0.00448,-0.0692
-0.4,0.4066,0.0136,0.00452,-0.0692
-0.3,0.429,0.01367,0.00455,-0.0693
-0.2,0.4515,0.01375,0.0046,-0.0694
-0.1,0.4739,0.01382,0.00466,-0.0694
0,0.4966,0.01386,0.0047,-0.0695
0.1,0.5194,0.01394,0.00476,-0.0695
0.2,0.5422,0.01403,0.00482,-0.0696
0.3,0.5652,0.01411,0.00488,-0.0696
0.4,0.5883,0.01422,0.00495,-0.0697
0.5,0.6115,0.01433,0.00503,-0.0698
0.6,0.6348,0.01443,0.00512,-0.0699
0.7,0.6582,0.01454,0.00521,-0.0699
0.8,0.6819,0.01465,0.0053,-0.0699
0.9,0.7057,0.01477,0.00541,-0.07
1,0.7296,0.0149,0.00552,-0.0701
1.1,0.7535,0.01504,0.00564,-0.0701
1.2,0.7776,0.0152,0.00577,-0.0701
1.3,0.8022,0.01543,0.00593,-0.0702
3.5,1.3596,0.02015,0.013,-0.0665
3.6,1.3818,0.0205,0.01366,-0.0663
3.7,1.4029,0.02092,0.01438,-0.0661
3.8,1.423,0.02142,0.01518,-0.066
3.9,1.4419,0.022,0.01604,-0.066
4,1.4578,0.02271,0.01705,-0.0662
4.1,1.4717,0.02353,0.01818,-0.0667
4.2,1.4842,0.02445,0.01938,-0.0674
4.4,1.5051,0.02654,0.02192,-0.0692
4.5,1.5139,0.02768,0.02326,-0.0705
4.6,1.5219,0.02887,0.02462,-0.072

