airfoilName st5.dat
Re 	590000
M 	7.000000e-01
N 	4.500000e+00
VACC 	0 VACCflag 1
XTR 	1.00 	1.00 XTRflag 0
alpha,cl,cd,cdp,cm
-14.1,-1.7073,0.21001,0.20746,0.1638
-14,-1.6997,0.20701,0.20446,0.1621
-13.9,-1.6915,0.20391,0.20136,0.1603
-13.8,-1.6832,0.20083,0.19829,0.1585
-13.7,-1.6749,0.19777,0.19523,0.1567
-13.6,-1.6666,0.19474,0.1922,0.1548
-13.5,-1.6583,0.19174,0.1892,0.153
-13.4,-1.6501,0.18876,0.18623,0.1512
-13.3,-1.6418,0.18582,0.18329,0.1494
-13.2,-1.6336,0.18289,0.18036,0.1476
-13.1,-1.6253,0.18,0.17748,0.1459
-13,-1.6171,0.17714,0.17461,0.1441
-12.9,-1.6087,0.17418,0.17166,0.1422
-12.8,-1.6005,0.17136,0.16884,0.1405
-12.7,-1.5923,0.16856,0.16605,0.1387
-12.6,-1.584,0.1658,0.16328,0.1369
-12.5,-1.5758,0.16306,0.16054,0.1352
-12.4,-1.5676,0.16034,0.15782,0.1334
-12.3,-1.5593,0.15764,0.15513,0.1316
-12.2,-1.5511,0.15496,0.15246,0.1299
-12.1,-1.5429,0.15231,0.14981,0.1281
-12,-1.5346,0.14968,0.14718,0.1263
-11.9,-1.5264,0.14706,0.14456,0.1246
-11.8,-1.5182,0.14445,0.14196,0.1228
-11.7,-1.51,0.14187,0.13938,0.121
-11.6,-1.5017,0.13926,0.13677,0.1192
-11.5,-1.4936,0.13665,0.13416,0.1173
-11.4,-1.4854,0.13415,0.13167,0.1155
-11.3,-1.4771,0.1318,0.12932,0.1138
-11.2,-1.4688,0.12947,0.127,0.1121
-11.1,-1.4605,0.12717,0.12471,0.1104
-11,-1.4522,0.12491,0.12244,0.1087
-10.9,-1.4439,0.12266,0.12021,0.107
-10.8,-1.4356,0.12046,0.118,0.1053
-10.7,-1.4273,0.11828,0.11583,0.1036
-10.6,-1.419,0.11613,0.11368,0.1019
-10.5,-1.4107,0.11401,0.11157,0.1001
-10.4,-1.4024,0.11192,0.10948,0.0984
-10.3,-1.3941,0.10974,0.10731,0.0965
-10.2,-1.3858,0.10769,0.10526,0.0948
-10.1,-1.3775,0.10566,0.10323,0.093
-10,-1.3691,0.10365,0.10123,0.0912
-9.9,-1.3606,0.10165,0.09924,0.0893
-9.8,-1.3521,0.09967,0.09726,0.0874
-9.7,-1.3436,0.09769,0.09529,0.0855
-9.6,-1.335,0.0957,0.0933,0.0835
-9.5,-1.3265,0.09362,0.09123,0.0814
-9.4,-1.3175,0.09184,0.08946,0.0795
-9.3,-1.3084,0.09008,0.0877,0.0776
-9.2,-1.2991,0.08833,0.08596,0.0757
-9.1,-1.2897,0.08659,0.08422,0.0737
-9,-1.2802,0.08486,0.0825,0.0717
-8.9,-1.2705,0.08314,0.08079,0.0696
-8.8,-1.2607,0.08144,0.07909,0.0675
-8.7,-1.2508,0.07975,0.07741,0.0653
-8.6,-1.2409,0.07801,0.07568,0.063
-8.5,-1.2309,0.07634,0.07402,0.0607
-8.4,-1.2208,0.0747,0.07238,0.0584
-8.3,-1.2106,0.07306,0.07075,0.0561
-8.2,-1.2004,0.07144,0.06914,0.0537
-8.1,-1.1902,0.0698,0.0675,0.0512
-8,-1.1798,0.06819,0.06591,0.0486
-7.9,-1.1689,0.06679,0.06451,0.0463
-7.8,-1.1579,0.0654,0.06313,0.0439
-7.7,-1.1467,0.06403,0.06177,0.0415
-7.6,-1.1353,0.06267,0.06042,0.039
-7.5,-1.1237,0.06132,0.05908,0.0364
-7.4,-1.1119,0.05998,0.05775,0.0337
-7.3,-1.1,0.05864,0.05643,0.0309
-7.2,-1.0854,0.05724,0.05495,0.0274
-7.1,-1.0767,0.05616,0.05377,0.0256
-7,-1.066,0.05495,0.05248,0.0231
-6.9,-1.0548,0.05367,0.05112,0.0202
-6.8,-1.0417,0.05244,0.04985,0.0171
-6.7,-1.0278,0.05128,0.04863,0.0139
-6.6,-1.0133,0.05008,0.0474,0.0105
-6.5,-0.999,0.04894,0.04622,0.007
-6.4,-0.9771,0.04752,0.04476,0.0015
-6.3,-0.9514,0.04593,0.04312,-0.005
-6.2,-0.9229,0.04408,0.04122,-0.0126
-6.1,-0.8923,0.04202,0.03907,-0.0209
-6,-0.8611,0.04009,0.03708,-0.0284
-5.9,-0.8293,0.03811,0.03504,-0.0356
-5.8,-0.7977,0.03597,0.0328,-0.043
-5.7,-0.7663,0.03358,0.03029,-0.0505
-5.4,-0.6821,0.02559,0.02175,-0.0705
-5.3,-0.6573,0.02305,0.01893,-0.0753
-5,-0.5804,0.01734,0.01205,-0.0836
-4.8,-0.5266,0.01528,0.00926,-0.0845
-4.7,-0.5002,0.01459,0.00828,-0.0842
-4.6,-0.474,0.01406,0.00753,-0.0837
-4.5,-0.4485,0.0137,0.00702,-0.0831
-4.4,-0.4243,0.01346,0.00663,-0.0823
-4.3,-0.4,0.01323,0.00627,-0.0817
-4.2,-0.3759,0.01301,0.00595,-0.0811
-4.1,-0.3525,0.01287,0.0057,-0.0804
-4,-0.3291,0.01272,0.00549,-0.0799
-3.9,-0.3059,0.01258,0.0053,-0.0794
-3.8,-0.2833,0.0125,0.00513,-0.0789
-3.7,-0.2607,0.01241,0.00497,-0.0784
-3.6,-0.2383,0.01231,0.00484,-0.0781
-3.5,-0.2159,0.01222,0.00471,-0.0777
-3.4,-0.1937,0.01214,0.00459,-0.0773
-3.3,-0.1718,0.01207,0.00448,-0.077
-3.2,-0.1499,0.012,0.00438,-0.0767
-3.1,-0.128,0.01193,0.00428,-0.0764
-3,-0.1067,0.01189,0.0042,-0.0762
-2.9,-0.085,0.01182,0.00412,-0.0759
-2.8,-0.0637,0.01179,0.00405,-0.0757
-2.7,-0.0424,0.01174,0.00398,-0.0755
-2.6,-0.021,0.01168,0.00391,-0.0753
-2.5,0.0002,0.01164,0.00385,-0.0752
-2.4,0.0212,0.01161,0.0038,-0.075
-2.3,0.0419,0.0116,0.00376,-0.0748
-2.2,0.0629,0.01158,0.00372,-0.0747
-2.1,0.0839,0.01154,0.00367,-0.0746
-2,0.1045,0.01153,0.00364,-0.0745
-1.9,0.1251,0.01153,0.00361,-0.0744
-1.8,0.1458,0.01152,0.00359,-0.0743
-1.7,0.1662,0.01153,0.00357,-0.0742
-1.6,0.1868,0.01153,0.00355,-0.0741
-1.5,0.2068,0.01158,0.00356,-0.074
-1.4,0.2271,0.0116,0.00355,-0.0739
-1.3,0.2474,0.01163,0.00355,-0.0739
-1.2,0.2675,0.01168,0.00356,-0.0738
-1.1,0.2874,0.01175,0.00357,-0.0737
-1,0.3071,0.01184,0.00361,-0.0737
-0.9,0.3267,0.01195,0.00365,-0.0737
-0.8,0.346,0.0121,0.00371,-0.0736
-0.6,0.3846,0.01244,0.00385,-0.0736
-0.5,0.4048,0.01252,0.00389,-0.0736
-0.4,0.425,0.01259,0.00394,-0.0737
-0.3,0.4455,0.01265,0.00398,-0.0737
-0.2,0.4659,0.01272,0.00402,-0.0737
-0.1,0.4864,0.01276,0.00407,-0.0737
0,0.5071,0.01281,0.00411,-0.0737
0.1,0.5278,0.01285,0.00415,-0.0738
0.2,0.5485,0.01292,0.00421,-0.0738
0.3,0.5692,0.01298,0.00427,-0.0738
0.4,0.5901,0.01303,0.00431,-0.0738
0.5,0.6111,0.01308,0.00437,-0.0739
0.6,0.6322,0.01314,0.00442,-0.0739
0.7,0.6534,0.0132,0.00448,-0.074
0.8,0.6745,0.01326,0.00455,-0.074
0.9,0.696,0.01332,0.00462,-0.074
1,0.7175,0.01337,0.00468,-0.074
1.1,0.7391,0.01342,0.00475,-0.074
1.2,0.7608,0.0135,0.00483,-0.0741
1.3,0.7825,0.0136,0.00491,-0.0741
1.4,0.8044,0.01367,0.005,-0.0741
1.5,0.8266,0.01372,0.00508,-0.0741
1.6,0.8489,0.01379,0.00517,-0.0741
1.7,0.8714,0.01388,0.00527,-0.0741
1.8,0.894,0.01398,0.00537,-0.0741
1.9,0.9166,0.01405,0.00548,-0.0741
2,0.9394,0.01416,0.0056,-0.0741
2.1,0.9627,0.01426,0.00572,-0.0741
2.2,0.9861,0.01436,0.00585,-0.074
2.3,1.0097,0.01444,0.00599,-0.074
2.4,1.0332,0.01455,0.00613,-0.074
2.5,1.0572,0.01469,0.00629,-0.0739
2.6,1.0815,0.01483,0.00646,-0.0738
2.7,1.1059,0.01496,0.00664,-0.0738
2.8,1.1305,0.0151,0.00685,-0.0736
2.9,1.1552,0.01525,0.00708,-0.0735
3,1.18,0.01541,0.00733,-0.0732
3.1,1.2047,0.01556,0.00759,-0.0729
3.2,1.2297,0.01577,0.00788,-0.0726
3.3,1.2547,0.01599,0.00819,-0.0723
3.4,1.2797,0.01622,0.00852,-0.0718
3.5,1.304,0.01643,0.00887,-0.0712
3.6,1.3283,0.01668,0.00927,-0.0707
3.7,1.3517,0.01693,0.00973,-0.07
3.8,1.3743,0.01721,0.01022,-0.0692
3.9,1.3962,0.01751,0.01077,-0.0684
4,1.4169,0.01784,0.01136,-0.0675
4.1,1.4365,0.0182,0.01198,-0.0666
4.2,1.4525,0.01854,0.01261,-0.0652
4.3,1.4688,0.01899,0.01333,-0.064
4.4,1.4833,0.01947,0.01407,-0.0627
4.5,1.4963,0.02,0.01484,-0.0614
4.6,1.5087,0.0206,0.01569,-0.0603
4.7,1.5234,0.02137,0.0167,-0.0599
4.8,1.5338,0.0223,0.01786,-0.0596
4.9,1.541,0.02335,0.01915,-0.0595
5,1.5468,0.02446,0.02047,-0.0594
5.1,1.5511,0.02563,0.02183,-0.0595
5.2,1.554,0.02684,0.02321,-0.0598
5.3,1.5556,0.0281,0.02462,-0.0603
5.4,1.5567,0.02939,0.02602,-0.061
5.5,1.5571,0.03071,0.02746,-0.0621
5.6,1.5514,0.0324,0.02926,-0.0643
5.7,1.5461,0.03418,0.03115,-0.0672
5.8,1.544,0.03601,0.03305,-0.0707
6,1.5499,0.03983,0.037,-0.0797
6.2,1.5605,0.04372,0.04098,-0.0911
6.3,1.5656,0.04534,0.04263,-0.0956
6.4,1.5717,0.04679,0.0441,-0.0995
6.5,1.5783,0.04812,0.04544,-0.1029
6.6,1.5854,0.04937,0.0467,-0.1059
6.7,1.5929,0.05055,0.04788,-0.1087
6.8,1.6006,0.05169,0.04902,-0.1113
6.9,1.6045,0.05314,0.05048,-0.115
7,1.6102,0.05443,0.05177,-0.118
7.1,1.6166,0.05564,0.05298,-0.1208
7.2,1.6234,0.05679,0.05413,-0.1233
7.3,1.6305,0.0579,0.05524,-0.1257
7.4,1.6379,0.05898,0.05633,-0.1279
7.5,1.6455,0.06004,0.05739,-0.13
7.6,1.6532,0.06108,0.05844,-0.1321
7.7,1.661,0.06211,0.05946,-0.1341
7.8,1.6671,0.06329,0.06063,-0.1365
7.9,1.6716,0.06462,0.06197,-0.1393
8,1.678,0.06578,0.06313,-0.1415
8.1,1.6848,0.0669,0.06426,-0.1436
8.2,1.6918,0.06801,0.06537,-0.1456
8.3,1.6989,0.0691,0.06646,-0.1476
8.4,1.7062,0.07018,0.06754,-0.1494
8.5,1.7136,0.07124,0.06861,-0.1513
8.6,1.721,0.0723,0.06967,-0.153
8.7,1.7285,0.07336,0.07072,-0.1547
8.8,1.736,0.07441,0.07178,-0.1564
8.9,1.7411,0.07576,0.07313,-0.1588
9,1.7464,0.07711,0.07448,-0.1611
9.1,1.7529,0.07833,0.0757,-0.1631
9.2,1.7597,0.07953,0.0769,-0.165
9.3,1.7666,0.08072,0.0781,-0.1668
9.4,1.7736,0.08191,0.07929,-0.1686
9.5,1.7807,0.08309,0.08047,-0.1703
9.6,1.7879,0.08427,0.08166,-0.172
9.7,1.7951,0.08545,0.08284,-0.1737
9.8,1.8024,0.08663,0.08402,-0.1754
9.9,1.8097,0.08781,0.0852,-0.177
10,1.8167,0.08905,0.08644,-0.1787
10.1,1.822,0.09056,0.08795,-0.181
10.2,1.8281,0.09197,0.08937,-0.183
10.3,1.834,0.09341,0.09082,-0.1851
10.4,1.8406,0.09476,0.09217,-0.1869
10.5,1.8473,0.09609,0.09351,-0.1887
10.6,1.854,0.09742,0.09484,-0.1904
10.7,1.8607,0.09874,0.09616,-0.1921
10.8,1.8675,0.10006,0.09748,-0.1937
10.9,1.8743,0.10137,0.0988,-0.1954
11,1.8811,0.10269,0.10012,-0.197
11.1,1.8879,0.104,0.10143,-0.1985
11.2,1.8947,0.10531,0.10274,-0.2001
11.3,1.901,0.10671,0.10414,-0.2017
11.4,1.9062,0.10841,0.10585,-0.2039
11.5,1.9121,0.10997,0.10742,-0.2057
11.6,1.9177,0.11162,0.10907,-0.2077
11.7,1.9239,0.11314,0.11059,-0.2094
11.8,1.9301,0.11465,0.11211,-0.2111
11.9,1.9365,0.11616,0.11363,-0.2127
12,1.9428,0.11768,0.11514,-0.2143
12.1,1.9493,0.1192,0.11667,-0.2159
12.2,1.9557,0.12072,0.1182,-0.2175
12.3,1.9622,0.12225,0.11973,-0.219
12.4,1.9688,0.12379,0.12128,-0.2206
12.5,1.9753,0.12534,0.12283,-0.2221
12.6,1.982,0.1269,0.12439,-0.2236
12.7,1.9885,0.12852,0.12601,-0.2252
12.8,1.9939,0.13056,0.12805,-0.2273
12.9,1.9999,0.13244,0.12994,-0.2292
13,2.006,0.13428,0.13179,-0.231
13.1,2.0121,0.13626,0.13377,-0.2329
13.2,2.0185,0.13807,0.13559,-0.2346
13.3,2.0249,0.13989,0.13741,-0.2363
13.4,2.0314,0.14171,0.13924,-0.238
13.5,2.0379,0.14354,0.14107,-0.2396
13.6,2.0445,0.14537,0.14291,-0.2413
13.7,2.0511,0.14721,0.14476,-0.2429
13.8,2.0577,0.14906,0.14661,-0.2445
13.9,2.0643,0.15092,0.14847,-0.2462
14,2.0709,0.15279,0.15034,-0.2478
14.1,2.0776,0.15466,0.15223,-0.2494
14.2,2.0842,0.15655,0.15412,-0.251
14.3,2.0901,0.15884,0.15641,-0.253
14.4,2.0962,0.16106,0.15864,-0.255
14.5,2.1024,0.16323,0.16081,-0.2568
14.6,2.1086,0.16554,0.16313,-0.2588
14.7,2.115,0.16767,0.16526,-0.2606
14.8,2.1215,0.16979,0.16739,-0.2624
14.9,2.128,0.17191,0.16952,-0.2641
15,2.1344,0.17403,0.17164,-0.2659
15.1,2.1409,0.17616,0.17377,-0.2676
15.2,2.1474,0.17829,0.17591,-0.2693
15.3,2.154,0.18043,0.17806,-0.271
15.4,2.1605,0.18258,0.18021,-0.2727
15.5,2.167,0.18474,0.18238,-0.2745
15.6,2.1736,0.18691,0.18455,-0.2762
15.7,2.1801,0.18909,0.18673,-0.2779
15.8,2.1867,0.19128,0.18893,-0.2796
15.9,2.1933,0.19348,0.19114,-0.2813
16,2.1991,0.19606,0.19372,-0.2834
16.1,2.2052,0.19855,0.19621,-0.2854
16.2,2.2113,0.20119,0.19887,-0.2874
16.3,2.2176,0.20361,0.20128,-0.2893
16.4,2.224,0.20601,0.20369,-0.2912
16.5,2.2303,0.20842,0.20611,-0.293
16.6,2.2367,0.21083,0.20853,-0.2949
16.7,2.2431,0.21324,0.21095,-0.2967
16.8,2.2495,0.21568,0.21339,-0.2985
16.9,2.2559,0.21811,0.21582,-0.3004
17,2.2624,0.22055,0.21827,-0.3022
17.1,2.2688,0.22301,0.22073,-0.3041
17.2,2.2753,0.22547,0.2232,-0.3059
17.3,2.2817,0.22796,0.22569,-0.3077
17.4,2.2882,0.23045,0.22819,-0.3096
17.5,2.2946,0.23294,0.23069,-0.3114
17.6,2.301,0.23546,0.23321,-0.3133
17.7,2.3076,0.23802,0.23577,-0.3151

