airfoilName st5.dat
Re 	810000
M 	7.000000e-01
N 	4.500000e+00
VACC 	0 VACCflag 1
XTR 	1.00 	1.00 XTRflag 0
alpha,cl,cd,cdp,cm
-14,-1.7048,0.20753,0.2054,0.1635
-13.9,-1.6965,0.20438,0.20226,0.1617
-13.8,-1.6883,0.20128,0.19916,0.1598
-13.7,-1.68,0.1982,0.19608,0.158
-13.6,-1.6718,0.19515,0.19303,0.1561
-13.5,-1.6636,0.19212,0.19001,0.1543
-13.4,-1.6554,0.18911,0.187,0.1525
-13.3,-1.6472,0.18614,0.18403,0.1507
-13.2,-1.639,0.18318,0.18107,0.1489
-13.1,-1.6308,0.18025,0.17814,0.1471
-13,-1.6227,0.17734,0.17524,0.1452
-12.9,-1.6145,0.17444,0.17234,0.1434
-12.8,-1.6064,0.17155,0.16945,0.1416
-12.7,-1.5982,0.16866,0.16657,0.1398
-12.6,-1.5902,0.16575,0.16365,0.1379
-12.5,-1.5821,0.16288,0.16079,0.1361
-12.4,-1.5738,0.16019,0.1581,0.1343
-12.3,-1.5656,0.15753,0.15544,0.1326
-12.2,-1.5573,0.15489,0.1528,0.1309
-12,-1.5407,0.14965,0.14756,0.1274
-11.9,-1.5324,0.14708,0.145,0.1256
-11.8,-1.5241,0.14455,0.14247,0.1239
-11.7,-1.5159,0.14204,0.13997,0.1222
-11.6,-1.5076,0.13956,0.13749,0.1204
-11.5,-1.4993,0.13711,0.13504,0.1187
-11.4,-1.4911,0.13468,0.13262,0.1169
-11.3,-1.4828,0.13228,0.13022,0.1152
-11.2,-1.4745,0.12991,0.12785,0.1135
-11.1,-1.4663,0.12756,0.12551,0.1117
-11,-1.458,0.12525,0.1232,0.11
-10.9,-1.4498,0.12294,0.1209,0.1082
-10.8,-1.4415,0.12068,0.11864,0.1065
-10.7,-1.4333,0.11844,0.1164,0.1047
-10.6,-1.425,0.11621,0.11417,0.1029
-10.5,-1.4168,0.114,0.11196,0.1011
-10.4,-1.4086,0.11179,0.10976,0.0992
-10.3,-1.4004,0.10957,0.10754,0.0973
-10.2,-1.3922,0.10735,0.10533,0.0954
-10.1,-1.3837,0.10536,0.10335,0.0936
-10,-1.3752,0.10341,0.1014,0.0919
-9.9,-1.3666,0.10146,0.09946,0.09
-9.7,-1.3492,0.09762,0.09562,0.0863
-9.6,-1.3404,0.09573,0.09374,0.0844
-9.5,-1.3315,0.09386,0.09187,0.0825
-9.4,-1.3224,0.092,0.09002,0.0805
-9.3,-1.3133,0.09015,0.08818,0.0785
-9.2,-1.304,0.08832,0.08635,0.0765
-9.1,-1.2946,0.08649,0.08453,0.0744
-9,-1.2851,0.08467,0.08271,0.0722
-8.9,-1.2754,0.08285,0.0809,0.07
-8.8,-1.2658,0.08104,0.07909,0.0677
-8.7,-1.2561,0.0792,0.07726,0.0654
-8.6,-1.2464,0.07738,0.07544,0.0629
-8.5,-1.2362,0.07577,0.07385,0.0607
-8.4,-1.2259,0.07419,0.07227,0.0585
-8.3,-1.2155,0.07263,0.07072,0.0562
-8.2,-1.205,0.07109,0.06919,0.0539
-8.1,-1.1944,0.06956,0.06766,0.0515
-8,-1.1836,0.06805,0.06616,0.0491
-7.9,-1.1728,0.06657,0.06468,0.0466
-7.8,-1.1619,0.0651,0.06322,0.044
-7.6,-1.1429,0.06256,0.0605,0.04
-7.5,-1.1335,0.06129,0.05913,0.0379
-7.4,-1.1232,0.05989,0.05767,0.0352
-7.3,-1.1121,0.05862,0.05633,0.0326
-7.2,-1.0999,0.0574,0.05505,0.0299
-7.1,-1.0873,0.05615,0.05378,0.027
-7,-1.0743,0.0549,0.0525,0.024
-6.9,-1.0608,0.05362,0.05119,0.0207
-6.8,-1.047,0.05234,0.04987,0.0173
-6.7,-1.0327,0.05102,0.04853,0.0137
-6.6,-1.0186,0.0497,0.04719,0.0099
-6.5,-1.0009,0.04832,0.04576,0.0049
-6.4,-0.9754,0.04647,0.04388,-0.0025
-6.3,-0.9477,0.04483,0.0422,-0.0093
-6.2,-0.9179,0.04304,0.04036,-0.0167
-6.1,-0.8865,0.04107,0.03833,-0.0245
-6,-0.854,0.03887,0.03606,-0.0327
-5.8,-0.789,0.03377,0.03077,-0.0498
-5.7,-0.7593,0.03133,0.0282,-0.0567
-5.6,-0.7314,0.0286,0.0253,-0.0637
-5,-0.579,0.01534,0.00993,-0.0855
-4.9,-0.5517,0.01447,0.00875,-0.0855
-4.8,-0.5247,0.01381,0.00782,-0.0851
-4.7,-0.4987,0.01335,0.00712,-0.0844
-4.6,-0.4732,0.013,0.00658,-0.0837
-4.5,-0.4479,0.0127,0.00615,-0.0829
-4.4,-0.4234,0.01249,0.00582,-0.0822
-4.3,-0.3991,0.01231,0.00556,-0.0815
-4.2,-0.3751,0.01216,0.00534,-0.0809
-4.1,-0.3516,0.01203,0.00515,-0.0804
-4,-0.3284,0.01194,0.00498,-0.0798
-3.9,-0.3055,0.01185,0.00483,-0.0793
-3.8,-0.2827,0.01176,0.0047,-0.0788
-3.7,-0.26,0.01167,0.00457,-0.0784
-3.6,-0.2376,0.01161,0.00446,-0.078
-3.5,-0.2153,0.01154,0.00435,-0.0776
-3.4,-0.1931,0.01145,0.00425,-0.0773
-3.3,-0.1713,0.01142,0.00417,-0.077
-3.2,-0.1494,0.01136,0.00408,-0.0767
-3.1,-0.1275,0.01129,0.00399,-0.0764
-3,-0.1058,0.01123,0.00392,-0.0762
-2.9,-0.0843,0.0112,0.00385,-0.076
-2.8,-0.0629,0.01115,0.00379,-0.0758
-2.7,-0.0415,0.0111,0.00373,-0.0756
-2.6,-0.0206,0.01111,0.00369,-0.0754
-2.5,0.0006,0.01108,0.00363,-0.0752
-2.4,0.0217,0.01104,0.00359,-0.0751
-2.3,0.0428,0.011,0.00354,-0.075
-2.2,0.0637,0.01098,0.0035,-0.0748
-2.1,0.0847,0.01095,0.00347,-0.0747
-2,0.1053,0.01097,0.00345,-0.0746
-1.9,0.126,0.01097,0.00342,-0.0745
-1.8,0.1463,0.01099,0.00342,-0.0744
-1.7,0.1667,0.01103,0.00341,-0.0743
-1.6,0.1871,0.01105,0.0034,-0.0743
-1.5,0.2075,0.01108,0.0034,-0.0742
-1.4,0.2276,0.01114,0.00341,-0.0742
-1.3,0.2476,0.01121,0.00343,-0.0741
-1.2,0.2674,0.01131,0.00346,-0.0741
-1.1,0.2869,0.01145,0.00352,-0.0741
-1,0.3063,0.01161,0.00358,-0.0741
-0.9,0.3257,0.01179,0.00365,-0.0741
-0.8,0.3458,0.01186,0.0037,-0.0741
-0.7,0.3663,0.01192,0.00372,-0.0741
-0.6,0.3868,0.01196,0.00375,-0.0741
-0.5,0.4072,0.01202,0.0038,-0.0741
-0.4,0.4278,0.01204,0.00382,-0.0742
-0.3,0.4485,0.01208,0.00385,-0.0742
-0.2,0.4691,0.01213,0.00388,-0.0742
-0.1,0.4897,0.01219,0.00393,-0.0742
0,0.5106,0.01222,0.00396,-0.0742
0.1,0.5313,0.01225,0.004,-0.0743
0.2,0.5522,0.0123,0.00404,-0.0743
0.3,0.5731,0.01235,0.00408,-0.0743
0.4,0.5941,0.0124,0.00414,-0.0743
0.5,0.6152,0.01243,0.00418,-0.0744
0.6,0.6364,0.01247,0.00423,-0.0744
0.7,0.6576,0.01252,0.00427,-0.0744
0.8,0.6789,0.01257,0.00433,-0.0744
0.9,0.7004,0.01262,0.00438,-0.0745
1,0.7218,0.01269,0.00445,-0.0745
1.1,0.7434,0.01274,0.00451,-0.0745
1.2,0.7652,0.0128,0.00457,-0.0745
1.3,0.7871,0.01284,0.00464,-0.0745
1.4,0.8092,0.01292,0.0047,-0.0745
1.5,0.8313,0.013,0.00478,-0.0746
1.6,0.8536,0.01309,0.00486,-0.0746
1.7,0.876,0.01313,0.00495,-0.0746
1.8,0.8987,0.0132,0.00504,-0.0746
1.9,0.9215,0.01329,0.00513,-0.0745
2,0.9446,0.01338,0.00523,-0.0745
2.1,0.9679,0.01346,0.00533,-0.0745
2.2,0.9911,0.01357,0.00543,-0.0745
2.3,1.0143,0.01367,0.00555,-0.0744
2.4,1.0385,0.01379,0.00568,-0.0744
2.5,1.0625,0.01388,0.00582,-0.0744
2.6,1.087,0.01401,0.00596,-0.0743
2.7,1.1117,0.01416,0.00613,-0.0742
2.8,1.1367,0.01432,0.0063,-0.0741
2.9,1.1621,0.01446,0.00649,-0.0741
3,1.1877,0.01465,0.00669,-0.074
3.1,1.2137,0.01486,0.00692,-0.0739
3.2,1.2398,0.01508,0.00718,-0.0737
3.3,1.266,0.01526,0.00748,-0.0735
3.4,1.2923,0.01549,0.00781,-0.0732
3.9,1.4194,0.01678,0.00992,-0.0708
4,1.4429,0.01708,0.01046,-0.0701
4.1,1.4653,0.01741,0.01106,-0.0694
4.2,1.4863,0.0178,0.01173,-0.0686
4.3,1.5052,0.01825,0.0125,-0.0678
4.4,1.5226,0.01878,0.01335,-0.0671
4.5,1.5378,0.01934,0.01425,-0.0662
4.6,1.5518,0.02002,0.01523,-0.0654
4.7,1.564,0.02077,0.01626,-0.0647
4.8,1.5741,0.02158,0.01734,-0.0639
4.9,1.5821,0.02244,0.01845,-0.0631
5,1.5881,0.02334,0.01957,-0.0623
5.1,1.5889,0.02407,0.02053,-0.0605
5.2,1.5911,0.02493,0.02159,-0.0596
5.3,1.5943,0.02612,0.02292,-0.0597
5.4,1.5899,0.02762,0.02461,-0.0604
5.5,1.5872,0.02907,0.02619,-0.0613
5.6,1.5843,0.03054,0.02778,-0.0626
5.7,1.5814,0.03207,0.0294,-0.0643
5.8,1.5794,0.03364,0.03106,-0.0666
6.2,1.5814,0.04197,0.03966,-0.0867
6.3,1.5878,0.04362,0.04134,-0.0915
6.4,1.5945,0.0451,0.04284,-0.0956
6.5,1.6013,0.04647,0.04421,-0.0991
6.6,1.604,0.04815,0.04591,-0.1036
6.7,1.6084,0.04962,0.04739,-0.1073
6.8,1.6142,0.05094,0.04872,-0.1106
6.9,1.6206,0.05219,0.04997,-0.1135
7,1.6275,0.05339,0.05117,-0.1162
7.1,1.6346,0.05454,0.05232,-0.1188
7.2,1.6419,0.05565,0.05343,-0.1212
7.3,1.6495,0.05672,0.05451,-0.1235
7.4,1.6538,0.05809,0.05588,-0.1266
7.5,1.6594,0.05934,0.05713,-0.1293
7.6,1.6655,0.06054,0.05833,-0.1318
7.7,1.6719,0.06171,0.0595,-0.1342
7.8,1.6787,0.06283,0.06062,-0.1364
7.9,1.6858,0.06392,0.06172,-0.1385
8,1.6929,0.065,0.0628,-0.1405
8.1,1.7002,0.06606,0.06386,-0.1425
8.2,1.7077,0.06712,0.06492,-0.1444
8.3,1.7145,0.06824,0.06603,-0.1464
8.4,1.7196,0.06955,0.06734,-0.1489
8.5,1.7255,0.07077,0.06857,-0.1511
8.6,1.7318,0.07196,0.06976,-0.1532
8.7,1.7384,0.07313,0.07093,-0.1552
8.8,1.7449,0.07429,0.0721,-0.1572
8.9,1.7518,0.07544,0.07325,-0.159
9,1.7588,0.07657,0.07439,-0.1608
9.1,1.7659,0.07771,0.07552,-0.1626
9.2,1.7731,0.07884,0.07665,-0.1644
9.3,1.7804,0.07997,0.07779,-0.1661
9.4,1.7874,0.08115,0.07896,-0.1679
9.5,1.7926,0.08258,0.08039,-0.1702
9.6,1.7986,0.08392,0.08174,-0.1722
9.7,1.8049,0.08523,0.08305,-0.1742
9.8,1.8115,0.08652,0.08435,-0.1761
9.9,1.8181,0.08781,0.08564,-0.1779
10,1.8247,0.08911,0.08694,-0.1798
10.1,1.8316,0.09038,0.08822,-0.1816
10.2,1.8385,0.09166,0.08949,-0.1833
10.3,1.8455,0.09293,0.09077,-0.185
10.4,1.8525,0.09419,0.09204,-0.1867
10.5,1.8595,0.09546,0.09331,-0.1884
10.6,1.8665,0.09672,0.09457,-0.19
10.7,1.8718,0.09832,0.09616,-0.1922
10.8,1.8775,0.09982,0.09767,-0.1942
10.9,1.8836,0.10128,0.09914,-0.1961
11,1.8898,0.10273,0.10059,-0.1979
11.1,1.8961,0.10416,0.10203,-0.1997
11.2,1.9025,0.10559,0.10346,-0.2014
11.4,1.9153,0.10847,0.10634,-0.2048
11.5,1.9218,0.10989,0.10777,-0.2065
11.6,1.9283,0.11132,0.1092,-0.2081
11.7,1.9348,0.11275,0.11063,-0.2096
11.8,1.9414,0.11418,0.11206,-0.2112
11.9,1.9479,0.11561,0.1135,-0.2127
12,1.9536,0.11732,0.11521,-0.2146
12.1,1.9591,0.11908,0.11698,-0.2166
12.2,1.965,0.12078,0.11868,-0.2184
12.3,1.971,0.12246,0.12036,-0.2202
12.4,1.9772,0.12413,0.12204,-0.2219
12.5,1.9834,0.1258,0.12371,-0.2236
12.6,1.9897,0.12748,0.12539,-0.2253
12.7,1.9961,0.12915,0.12707,-0.2269
12.8,2.0025,0.13088,0.1288,-0.2286
12.9,2.009,0.13258,0.1305,-0.2302
13,2.0155,0.13428,0.13221,-0.2318
13.1,2.022,0.13599,0.13393,-0.2334
13.2,2.0286,0.13772,0.13565,-0.235
13.3,2.0352,0.13945,0.13739,-0.2366
13.4,2.0417,0.14127,0.13921,-0.2383
13.5,2.0473,0.14342,0.14137,-0.2403
13.6,2.0533,0.14545,0.1434,-0.2422
13.7,2.0594,0.14744,0.1454,-0.244
13.8,2.0657,0.14941,0.14737,-0.2458
13.9,2.072,0.15138,0.14935,-0.2475
14,2.0784,0.15335,0.15132,-0.2493
14.1,2.0848,0.15532,0.1533,-0.251
14.2,2.0913,0.15736,0.15534,-0.2527
14.3,2.0978,0.15935,0.15733,-0.2544
14.4,2.1043,0.16134,0.15933,-0.2561
14.5,2.1109,0.16335,0.16134,-0.2578
14.6,2.1174,0.16536,0.16336,-0.2595
14.7,2.124,0.16739,0.16539,-0.2612
14.8,2.1306,0.16943,0.16743,-0.2628
14.9,2.1372,0.17147,0.16948,-0.2645
15,2.1432,0.17378,0.17179,-0.2664
15.1,2.1491,0.17613,0.17414,-0.2684
15.2,2.1552,0.17841,0.17643,-0.2703
15.3,2.1615,0.18067,0.17869,-0.2721
15.4,2.1677,0.18291,0.18094,-0.2739
15.5,2.174,0.18515,0.18319,-0.2757
15.6,2.1804,0.18739,0.18544,-0.2775
15.7,2.1867,0.18964,0.18769,-0.2793
15.8,2.1931,0.19197,0.19002,-0.2811
15.9,2.1995,0.19424,0.19229,-0.2829
16,2.206,0.19651,0.19457,-0.2847
16.1,2.2124,0.19879,0.19686,-0.2864
16.2,2.2189,0.20109,0.19916,-0.2882
16.3,2.2253,0.2034,0.20147,-0.29
16.4,2.2318,0.20572,0.2038,-0.2918
16.5,2.2383,0.20806,0.20614,-0.2935
16.6,2.2447,0.2104,0.20849,-0.2953
16.7,2.2509,0.21289,0.21098,-0.2972
16.8,2.2567,0.21551,0.21361,-0.2993
16.9,2.2628,0.21805,0.21615,-0.3012
17,2.269,0.22057,0.21867,-0.3031
17.1,2.2752,0.22308,0.22119,-0.305
17.2,2.2814,0.22559,0.22371,-0.3069
17.3,2.2877,0.22812,0.22624,-0.3088
17.4,2.294,0.23065,0.22877,-0.3106
17.5,2.3003,0.23325,0.23138,-0.3125
17.6,2.3067,0.2358,0.23394,-0.3144
17.7,2.313,0.23836,0.2365,-0.3163
17.8,2.3192,0.24089,0.23904,-0.3181
17.9,2.3258,0.24356,0.24171,-0.32

