airfoilName st5.dat
Re 	2.900000e+05
M 	7.000000e-01
N 	4.500000e+00
VACC 	0 VACCflag 1
XTR 	1.00 	1.00 XTRflag 0
alpha,cl,cd,cdp,cm
-13.7,-1.6588,0.1969,0.19311,0.1533
-13.6,-1.6505,0.19385,0.19006,0.1514
-13.5,-1.6422,0.19081,0.18703,0.1496
-13.4,-1.6339,0.1878,0.18402,0.1477
-13.1,-1.6089,0.1789,0.17512,0.1422
-13,-1.6006,0.17596,0.17219,0.1404
-12.9,-1.5921,0.17224,0.16848,0.138
-12.8,-1.5838,0.16947,0.16572,0.1362
-12.6,-1.5672,0.16403,0.16027,0.1327
-12.5,-1.5589,0.16135,0.1576,0.131
-12.4,-1.5506,0.1587,0.15495,0.1293
-12.3,-1.5423,0.15607,0.15233,0.1276
-12.2,-1.534,0.15347,0.14973,0.1259
-12.1,-1.5257,0.1509,0.14717,0.1242
-12,-1.5174,0.14836,0.14464,0.1224
-11.9,-1.5092,0.14585,0.14212,0.1207
-11.8,-1.5009,0.14336,0.13964,0.119
-11.7,-1.4926,0.1409,0.13719,0.1174
-11.6,-1.4844,0.13847,0.13476,0.1157
-11.5,-1.4761,0.13606,0.13235,0.114
-11.4,-1.4678,0.13368,0.12998,0.1123
-11.3,-1.4596,0.13132,0.12763,0.1106
-11.2,-1.4513,0.12899,0.1253,0.1089
-11.1,-1.4431,0.12669,0.123,0.1072
-11,-1.4348,0.12441,0.12073,0.1054
-10.9,-1.4266,0.12216,0.11848,0.1037
-10.8,-1.4184,0.11993,0.11626,0.102
-10.7,-1.4102,0.11772,0.11406,0.1003
-10.6,-1.402,0.11553,0.11186,0.0985
-10.5,-1.3938,0.11335,0.10969,0.0967
-10.4,-1.3857,0.11117,0.10752,0.0949
-10.3,-1.3777,0.10873,0.10509,0.0927
-10.2,-1.3695,0.10682,0.10318,0.0911
-10.1,-1.3613,0.10494,0.10131,0.0894
-10,-1.3531,0.10309,0.09947,0.0878
-9.9,-1.3448,0.10126,0.09765,0.0861
-9.8,-1.3365,0.09945,0.09585,0.0844
-9.7,-1.3281,0.09766,0.09407,0.0827
-9.6,-1.3196,0.09589,0.0923,0.081
-9.5,-1.3111,0.09413,0.09055,0.0792
-9.4,-1.3024,0.09238,0.08881,0.0774
-9.3,-1.2936,0.09064,0.08708,0.0756
-9.2,-1.2846,0.08891,0.08536,0.0737
-9.1,-1.2756,0.08719,0.08364,0.0718
-9,-1.2664,0.08547,0.08193,0.0698
-8.9,-1.2571,0.08375,0.08022,0.0678
-8.8,-1.2477,0.08203,0.07851,0.0657
-8.7,-1.2382,0.0803,0.07679,0.0635
-8.6,-1.2288,0.07853,0.07502,0.0611
-8.5,-1.2191,0.07687,0.07339,0.0588
-8.4,-1.2089,0.07536,0.07188,0.0567
-8.3,-1.1987,0.07386,0.07039,0.0547
-8.2,-1.1884,0.07238,0.06892,0.0526
-8.1,-1.178,0.07092,0.06747,0.0504
-8,-1.1675,0.06948,0.06605,0.0483
-7.9,-1.1569,0.06807,0.06464,0.046
-7.8,-1.1461,0.06666,0.06325,0.0438
-7.7,-1.1353,0.06528,0.06188,0.0414
-7.6,-1.1243,0.06391,0.06052,0.039
-7.5,-1.1133,0.06255,0.05917,0.0365
-7.4,-1.1021,0.06118,0.05782,0.0339
-7.3,-1.0908,0.0598,0.05645,0.0311
-7.2,-1.0796,0.05834,0.055,0.028
-7.1,-1.0672,0.05724,0.05393,0.0256
-7,-1.0546,0.05605,0.05276,0.0229
-6.9,-1.0419,0.05486,0.05159,0.0202
-6.8,-1.0289,0.05368,0.05042,0.0174
-6.7,-1.0157,0.0525,0.04925,0.0144
-6.6,-1.0023,0.05131,0.04808,0.0113
-6.5,-0.989,0.05013,0.04691,0.0082
-6.4,-0.9675,0.04864,0.04542,0.0027
-6.3,-0.9403,0.04694,0.04368,-0.0043
-6.2,-0.913,0.04519,0.04188,-0.0115
-6.1,-0.8872,0.04389,0.04051,-0.0168
-5.9,-0.8332,0.04083,0.03728,-0.0284
-5.8,-0.804,0.03906,0.03541,-0.0349
-5.7,-0.7734,0.03704,0.03328,-0.0419
-5.6,-0.7422,0.03471,0.03083,-0.0495
-5.5,-0.7135,0.03291,0.02889,-0.0547
-5.4,-0.6852,0.03094,0.02677,-0.06
-5.3,-0.6573,0.02865,0.02427,-0.0657
-4.8,-0.5268,0.01958,0.01352,-0.0822
-4.7,-0.5008,0.0185,0.01209,-0.083
-4.6,-0.4751,0.01776,0.01106,-0.0832
-4.5,-0.4494,0.01708,0.01012,-0.0832
-4.4,-0.4242,0.01651,0.0093,-0.083
-4.3,-0.3997,0.01604,0.00859,-0.0826
-4.2,-0.3753,0.01571,0.00814,-0.0822
-4.1,-0.3513,0.01539,0.00768,-0.0818
-4,-0.3277,0.0151,0.00726,-0.0813
-3.9,-0.3042,0.01484,0.00688,-0.0808
-3.8,-0.2814,0.01465,0.00663,-0.0803
-3.7,-0.259,0.01449,0.00638,-0.0798
-3.6,-0.2363,0.01433,0.00613,-0.0794
-3.5,-0.2142,0.01419,0.00594,-0.079
-3.4,-0.1925,0.01408,0.00575,-0.0785
-3.3,-0.1705,0.01396,0.00557,-0.0782
-3.2,-0.1484,0.01383,0.0054,-0.0779
-3.1,-0.1267,0.01372,0.00525,-0.0776
-3,-0.1055,0.01365,0.00513,-0.0772
-2.9,-0.084,0.01356,0.005,-0.077
-2.8,-0.0626,0.01347,0.00489,-0.0767
-2.7,-0.0414,0.01341,0.00478,-0.0764
-2.6,-0.0206,0.01336,0.00469,-0.0762
-2.5,0.0006,0.01328,0.00461,-0.076
-2.4,0.0216,0.01323,0.00452,-0.0758
-2.3,0.0422,0.01319,0.00446,-0.0756
-2.2,0.0629,0.01317,0.00439,-0.0753
-2.1,0.0837,0.01312,0.00433,-0.0752
-2,0.1043,0.01309,0.00429,-0.0751
-1.9,0.1249,0.01306,0.00424,-0.0749
-1.8,0.1454,0.01304,0.0042,-0.0748
-1.7,0.1654,0.01307,0.00417,-0.0745
-1.6,0.1857,0.01306,0.00415,-0.0744
-1.5,0.2063,0.01303,0.00412,-0.0743
-1.4,0.2265,0.01303,0.0041,-0.0742
-1.3,0.247,0.01303,0.00408,-0.0741
-1.2,0.2671,0.01303,0.00407,-0.074
-1.1,0.2874,0.01304,0.00406,-0.0739
-1,0.3075,0.01305,0.00405,-0.0738
-0.9,0.327,0.01312,0.00407,-0.0736
-0.8,0.3469,0.01316,0.00408,-0.0735
-0.7,0.3667,0.01322,0.0041,-0.0734
-0.6,0.3864,0.01327,0.00412,-0.0733
-0.5,0.4059,0.01335,0.00415,-0.0732
-0.4,0.4254,0.01345,0.00418,-0.0731
-0.3,0.4447,0.01357,0.00423,-0.073
-0.2,0.4639,0.01368,0.00429,-0.0729
-0.1,0.4833,0.01381,0.00435,-0.0728
0,0.5022,0.01398,0.00442,-0.0728
0.1,0.522,0.0141,0.00448,-0.0728
0.2,0.5419,0.01419,0.00456,-0.0728
0.3,0.5622,0.01427,0.00462,-0.0728
0.4,0.5824,0.01437,0.00469,-0.0728
0.5,0.6029,0.01446,0.00478,-0.0728
0.6,0.6235,0.01451,0.00485,-0.0728
0.7,0.6442,0.0146,0.00493,-0.0728
0.8,0.6648,0.01472,0.00502,-0.0728
0.9,0.6857,0.0148,0.00512,-0.0728
1,0.7068,0.01485,0.00521,-0.0728
1.1,0.7279,0.01495,0.00531,-0.0728
1.2,0.749,0.01507,0.00542,-0.0728
1.3,0.7704,0.01514,0.00554,-0.0728
1.4,0.7918,0.01517,0.00565,-0.0727
1.5,0.8134,0.01526,0.00578,-0.0727
1.7,0.8566,0.01547,0.00606,-0.0725
1.8,0.878,0.01554,0.00621,-0.0723
1.9,0.8995,0.01559,0.00636,-0.0721
2,0.9209,0.01568,0.00652,-0.0718
2.1,0.9424,0.01578,0.0067,-0.0715
2.2,0.9625,0.01585,0.00687,-0.0709
2.3,0.9833,0.01599,0.00705,-0.0703
2.4,1.0039,0.01613,0.00724,-0.0697
2.5,1.0241,0.01623,0.00744,-0.0689
2.6,1.0411,0.01627,0.00761,-0.0674
2.7,1.06,0.01639,0.0078,-0.0663
2.8,1.079,0.01651,0.00799,-0.0652
2.9,1.0988,0.01666,0.0082,-0.0642
3.1,1.1475,0.01709,0.00867,-0.0638
3.2,1.1711,0.01735,0.00905,-0.0634
3.3,1.1947,0.01764,0.00946,-0.0631
3.4,1.2182,0.01796,0.00989,-0.0628
3.5,1.2415,0.0183,0.01036,-0.0624
3.6,1.2644,0.01866,0.01086,-0.062
3.7,1.2871,0.01906,0.0114,-0.0616
3.8,1.3093,0.01948,0.01198,-0.0612
3.9,1.331,0.01994,0.01261,-0.0608
4,1.3509,0.02044,0.01332,-0.0603
4.1,1.3693,0.02101,0.01415,-0.06
4.2,1.3865,0.02164,0.01503,-0.0596
4.3,1.4025,0.02233,0.01597,-0.0593
4.4,1.4171,0.02309,0.01696,-0.059
4.5,1.4302,0.0239,0.018,-0.0588
4.6,1.4419,0.02478,0.01908,-0.0587
4.8,1.4621,0.02664,0.02131,-0.0587
4.9,1.4702,0.02765,0.02247,-0.0589
5.2,1.4712,0.03165,0.02699,-0.0621
5.3,1.4723,0.03301,0.02846,-0.0637
5.4,1.4739,0.03438,0.02993,-0.0657
5.5,1.4767,0.03575,0.03138,-0.0679
5.8,1.4829,0.04131,0.03717,-0.0811
5.9,1.4915,0.04294,0.03885,-0.0857
6,1.5001,0.04434,0.04028,-0.0895
6.1,1.5089,0.04561,0.04157,-0.0929
6.2,1.518,0.04679,0.04277,-0.0958
6.4,1.5274,0.04981,0.04581,-0.1043
6.5,1.5348,0.051,0.04702,-0.1073
6.6,1.5427,0.05213,0.04815,-0.1099
6.7,1.5509,0.0532,0.04923,-0.1124
6.8,1.5594,0.05424,0.05027,-0.1146
6.9,1.568,0.05524,0.05127,-0.1167
7,1.5768,0.05621,0.05225,-0.1187
7.1,1.5822,0.05747,0.0535,-0.1218
7.2,1.5882,0.05868,0.05471,-0.1246
7.3,1.5944,0.05984,0.05588,-0.1273
7.4,1.602,0.0609,0.05693,-0.1294
7.5,1.6097,0.06192,0.05796,-0.1314
7.6,1.6176,0.06292,0.05896,-0.1334
7.7,1.6257,0.06391,0.05996,-0.1352
7.8,1.6339,0.06489,0.06093,-0.1369
7.9,1.6422,0.06585,0.06189,-0.1386
8,1.6505,0.0668,0.06285,-0.1402
8.1,1.6553,0.0681,0.06414,-0.143
8.2,1.6614,0.06927,0.06532,-0.1453
8.3,1.6682,0.07039,0.06644,-0.1473
8.4,1.6752,0.07149,0.06754,-0.1492
8.5,1.6822,0.07257,0.06863,-0.1512
8.6,1.6896,0.07363,0.06969,-0.1529
8.7,1.6972,0.07467,0.07074,-0.1546
8.8,1.7049,0.07571,0.07178,-0.1562
8.9,1.7127,0.07675,0.07282,-0.1577
9,1.7206,0.07779,0.07386,-0.1593
9.1,1.7285,0.07882,0.0749,-0.1608
9.2,1.7338,0.08018,0.07625,-0.1631
9.3,1.7398,0.08148,0.07756,-0.1653
9.4,1.7464,0.08273,0.07881,-0.1672
9.5,1.7532,0.08395,0.08004,-0.169
9.6,1.7602,0.08516,0.08125,-0.1708
9.7,1.7671,0.08638,0.08247,-0.1726
9.8,1.7744,0.08756,0.08366,-0.1743
9.9,1.7817,0.08875,0.08485,-0.1758
10,1.7891,0.08992,0.08603,-0.1774
10.1,1.7965,0.0911,0.08721,-0.1789
10.2,1.8039,0.09227,0.08838,-0.1804
10.3,1.8114,0.09344,0.08955,-0.1819
10.4,1.8177,0.09479,0.0909,-0.1838
10.5,1.8232,0.09631,0.09244,-0.186
10.6,1.8293,0.09772,0.09385,-0.1879
10.7,1.8356,0.0991,0.09523,-0.1897
10.8,1.8421,0.10044,0.09659,-0.1914
10.9,1.8486,0.10178,0.09792,-0.1931
11,1.8552,0.1031,0.09925,-0.1947
11.1,1.8616,0.10442,0.10058,-0.1964
11.2,1.8682,0.10572,0.10188,-0.1979
11.3,1.8749,0.10701,0.10318,-0.1994
11.4,1.8815,0.10831,0.10448,-0.2008
11.5,1.8882,0.1096,0.10578,-0.2022
11.6,1.8948,0.11089,0.10707,-0.2036
11.7,1.9015,0.11219,0.10837,-0.205
11.8,1.9068,0.1139,0.11008,-0.2071
11.9,1.9123,0.11559,0.11178,-0.2091
12,1.9183,0.1172,0.1134,-0.2109
12.1,1.9244,0.11877,0.11498,-0.2126
12.2,1.9306,0.12034,0.11656,-0.2142
12.3,1.9369,0.1219,0.11812,-0.2159
12.4,1.9433,0.12346,0.11969,-0.2175
12.5,1.9497,0.12502,0.12126,-0.219
12.6,1.9561,0.12664,0.12289,-0.2207
12.7,1.9627,0.12821,0.12446,-0.2222
12.8,1.9693,0.12977,0.12603,-0.2237
12.9,1.9759,0.13135,0.12761,-0.2252
13,1.9825,0.13293,0.1292,-0.2267
13.1,1.9892,0.13452,0.13079,-0.2282
13.2,1.9958,0.13611,0.13239,-0.2297
13.3,2.0016,0.13828,0.13456,-0.2319
13.4,2.0077,0.14036,0.13664,-0.2339
13.5,2.014,0.14232,0.13862,-0.2357
13.6,2.0204,0.14426,0.14056,-0.2375
13.7,2.0268,0.14617,0.14248,-0.2393
13.8,2.0333,0.14807,0.14439,-0.241
13.9,2.0398,0.14996,0.1463,-0.2427
14,2.0464,0.15186,0.1482,-0.2444
14.1,2.0529,0.15376,0.15011,-0.246
14.2,2.0597,0.1558,0.15215,-0.2478
14.3,2.0663,0.1577,0.15406,-0.2494
14.4,2.073,0.15961,0.15597,-0.251
14.5,2.0796,0.16152,0.1579,-0.2527
14.6,2.0863,0.16345,0.15982,-0.2543
14.7,2.0929,0.16538,0.16176,-0.2559
14.8,2.0996,0.16732,0.16371,-0.2575
14.9,2.106,0.16953,0.16592,-0.2594
15,2.1122,0.17212,0.16852,-0.2616
15.1,2.1186,0.17448,0.17089,-0.2636
15.2,2.1251,0.17677,0.1732,-0.2655
15.3,2.1316,0.17903,0.17546,-0.2674
15.4,2.138,0.18127,0.17771,-0.2692
15.5,2.1446,0.1835,0.17995,-0.271
15.6,2.1511,0.18572,0.18218,-0.2728
15.7,2.1576,0.18795,0.18441,-0.2746
15.8,2.1644,0.19038,0.18685,-0.2765
15.9,2.1709,0.19261,0.18909,-0.2783
16,2.1775,0.19484,0.19133,-0.28
16.1,2.1841,0.19708,0.19358,-0.2818
16.2,2.1907,0.19934,0.19584,-0.2835
16.3,2.1972,0.20159,0.1981,-0.2853
16.4,2.2038,0.20386,0.20038,-0.2871
16.5,2.2104,0.20614,0.20266,-0.2888
16.6,2.2169,0.20842,0.20495,-0.2906
16.7,2.2235,0.21071,0.20726,-0.2924
16.8,2.2297,0.21345,0.21,-0.2945
16.9,2.2361,0.21628,0.21283,-0.2967
17,2.2424,0.21895,0.21551,-0.2987
17.1,2.2488,0.22158,0.21815,-0.3007

