airfoilName st5.dat
Re 	70000
M 	7.000000e-01
N 	4.500000e+00
VACC 	0 VACCflag 1
XTR 	1.00 	1.00 XTRflag 0
alpha,cl,cd,cdp,cm
-13.2,-1.5597,0.17355,0.16533,0.1292
-13.1,-1.5512,0.17074,0.16253,0.1274
-13,-1.5427,0.16796,0.15975,0.1256
-12.9,-1.5342,0.16519,0.15699,0.1237
-12.8,-1.5257,0.16246,0.15426,0.1219
-12.7,-1.5172,0.15973,0.15154,0.12
-12.6,-1.5087,0.15703,0.14884,0.1182
-12.5,-1.5002,0.15434,0.14616,0.1163
-12.4,-1.4901,0.14961,0.14146,0.1125
-12.3,-1.4819,0.14728,0.13913,0.1109
-12.2,-1.4738,0.14497,0.13683,0.1093
-12.1,-1.4657,0.1427,0.13457,0.1077
-12,-1.4577,0.14046,0.13234,0.1061
-11.9,-1.4497,0.13825,0.13014,0.1046
-11.8,-1.4417,0.13607,0.12797,0.103
-11.7,-1.4338,0.13393,0.12584,0.1015
-11.6,-1.4259,0.13182,0.12373,0.1
-11.5,-1.4181,0.12974,0.12166,0.0985
-11.4,-1.4104,0.12769,0.11962,0.0969
-11.3,-1.4026,0.12568,0.11762,0.0954
-11.2,-1.395,0.12369,0.11564,0.0939
-11.1,-1.3873,0.12173,0.11369,0.0924
-11,-1.3797,0.11981,0.11178,0.0909
-10.9,-1.3722,0.11791,0.10988,0.0894
-10.8,-1.3647,0.11604,0.10802,0.0879
-10.7,-1.3572,0.1142,0.10619,0.0864
-10.6,-1.3499,0.11239,0.10438,0.0849
-10.5,-1.3425,0.1106,0.10261,0.0834
-10.4,-1.3352,0.10884,0.10085,0.0818
-10.3,-1.328,0.1071,0.09912,0.0803
-10.2,-1.3209,0.10536,0.0974,0.0787
-10.1,-1.3138,0.10364,0.09569,0.077
-10,-1.3083,0.1017,0.09378,0.0744
-9.9,-1.3009,0.10025,0.09234,0.0731
-9.8,-1.2935,0.0988,0.09091,0.0718
-9.7,-1.286,0.09735,0.08948,0.0705
-9.6,-1.2784,0.09591,0.08805,0.0691
-9.5,-1.2707,0.09447,0.08662,0.0677
-9.4,-1.2628,0.09303,0.0852,0.0663
-9.3,-1.2549,0.09159,0.08377,0.0648
-9.2,-1.2467,0.09013,0.08233,0.0633
-9.1,-1.2384,0.08867,0.08088,0.0617
-9,-1.2299,0.0872,0.07942,0.0601
-8.9,-1.2213,0.08571,0.07796,0.0584
-8.8,-1.2124,0.08422,0.07647,0.0567
-8.7,-1.2034,0.08272,0.07499,0.0549
-8.6,-1.1943,0.08122,0.0735,0.053
-8.5,-1.1852,0.07971,0.07201,0.051
-8.4,-1.1761,0.07821,0.07053,0.0489
-8.3,-1.1672,0.0767,0.06903,0.0466
-8,-1.1382,0.07285,0.06528,0.041
-7.9,-1.1281,0.07159,0.06404,0.0393
-7.8,-1.118,0.07035,0.06283,0.0375
-7.7,-1.1078,0.06914,0.06163,0.0357
-7.6,-1.0976,0.06794,0.06046,0.0338
-7.5,-1.0873,0.06676,0.0593,0.0318
-7.4,-1.0769,0.0656,0.05816,0.0298
-7.3,-1.0664,0.06445,0.05704,0.0276
-7.2,-1.0559,0.06332,0.05593,0.0253
-7.1,-1.0454,0.0622,0.05484,0.0228
-7,-1.035,0.06108,0.05374,0.0199
-6.9,-1.024,0.06,0.05273,0.0173
-6.8,-1.012,0.05897,0.05172,0.0154
-6.7,-1,0.05794,0.05072,0.0135
-6.5,-0.9756,0.05607,0.04891,0.0091
-6.4,-0.9633,0.05506,0.04793,0.0067
-6.3,-0.9511,0.05407,0.04697,0.0041
-6.2,-0.9385,0.05308,0.046,0.0013
-6.1,-0.9226,0.05199,0.04493,-0.0027
-6,-0.9021,0.05071,0.04369,-0.0086
-5.9,-0.8832,0.04959,0.04257,-0.0116
-5.8,-0.8631,0.04841,0.04139,-0.0148
-5.7,-0.8423,0.0472,0.04018,-0.0184
-5.6,-0.8204,0.04594,0.0389,-0.0221
-5.5,-0.7938,0.04454,0.03745,-0.0282
-5.4,-0.7655,0.04278,0.03564,-0.0351
-5.2,-0.7205,0.04024,0.03303,-0.0407
-5.1,-0.6962,0.03887,0.03159,-0.0441
-4.3,-0.4617,0.02755,0.01891,-0.0731
-4.2,-0.4276,0.02636,0.01739,-0.0764
-1.5,0.2101,0.01692,0.00573,-0.0823
-1.2,0.2656,0.01673,0.00554,-0.0807
-1.1,0.2834,0.01673,0.00552,-0.08
-0.3,0.4286,0.01648,0.00544,-0.0752
0.9,0.6245,0.01661,0.00565,-0.0614
1,0.6447,0.01689,0.00584,-0.0611
1.2,0.6859,0.01743,0.00622,-0.0607
1.3,0.7062,0.01772,0.00645,-0.0604
1.5,0.7466,0.0184,0.00695,-0.0599
1.6,0.7669,0.01874,0.00725,-0.0597
1.8,0.8081,0.01944,0.00785,-0.0593
1.9,0.829,0.01978,0.00819,-0.0592
2,0.8498,0.02015,0.00853,-0.0591
2.1,0.8707,0.02053,0.00888,-0.0589
2.2,0.8917,0.02091,0.00928,-0.0588
2.4,0.933,0.02174,0.01007,-0.0585
2.5,0.954,0.02216,0.01051,-0.0584
2.6,0.9748,0.02263,0.01096,-0.0582
2.8,1.0161,0.02356,0.01203,-0.0581
2.9,1.0365,0.02407,0.01259,-0.058
3,1.057,0.02461,0.01316,-0.0579
3.3,1.1146,0.02632,0.01518,-0.0578
3.4,1.1336,0.02696,0.01588,-0.0577
3.5,1.1528,0.02762,0.01654,-0.0576
4.1,1.2429,0.03235,0.02217,-0.0589
4.2,1.2538,0.03328,0.02322,-0.0595
4.3,1.2608,0.03431,0.02447,-0.0605
4.6,1.2892,0.03725,0.02773,-0.0629
4.9,1.3074,0.0406,0.03136,-0.0675
5,1.3132,0.04174,0.03259,-0.0695
5.2,1.3294,0.04389,0.03485,-0.0729
5.5,1.3521,0.04719,0.03828,-0.0804
5.7,1.3717,0.04955,0.04072,-0.0861
5.8,1.3828,0.05061,0.04181,-0.0884
5.9,1.3937,0.05162,0.04284,-0.0902
6,1.405,0.05261,0.04383,-0.0919
6.1,1.4166,0.05358,0.04482,-0.0933
6.3,1.4295,0.0558,0.04707,-0.102
6.4,1.4392,0.05678,0.04806,-0.104
6.5,1.4493,0.05773,0.04902,-0.1058
6.6,1.4595,0.05868,0.04997,-0.1075
6.7,1.4699,0.05962,0.05092,-0.1089
6.8,1.4805,0.06056,0.05187,-0.1102
6.9,1.4913,0.06151,0.05282,-0.1114
7,1.4953,0.0625,0.05379,-0.1155
7.1,1.5026,0.06346,0.05477,-0.1181
7.2,1.5108,0.06441,0.05572,-0.1202
7.3,1.5193,0.06535,0.05667,-0.122
7.4,1.5282,0.06616,0.05747,-0.1237
7.5,1.5376,0.06709,0.05841,-0.1251
7.6,1.5472,0.06803,0.05935,-0.1264
7.7,1.5569,0.06898,0.0603,-0.1276
7.9,1.5705,0.07085,0.06216,-0.132
8,1.5768,0.0718,0.06312,-0.1344
8.1,1.5841,0.07275,0.06408,-0.1363
8.2,1.5918,0.07371,0.06505,-0.138
8.3,1.5997,0.07467,0.06602,-0.1396
8.4,1.6079,0.07564,0.067,-0.1411
8.5,1.6162,0.07662,0.06798,-0.1425
8.9,1.6495,0.08043,0.07177,-0.1479
9,1.6536,0.08144,0.0728,-0.1506
9.1,1.6599,0.08247,0.07384,-0.1526
9.2,1.6667,0.08351,0.07489,-0.1543
9.3,1.674,0.08456,0.07595,-0.1559
9.4,1.6815,0.08562,0.07701,-0.1574
9.5,1.6891,0.08668,0.07809,-0.1589
9.6,1.6969,0.08775,0.07917,-0.1602
9.7,1.7047,0.08884,0.08026,-0.1616
9.8,1.7127,0.08992,0.08136,-0.1628
9.9,1.7207,0.09102,0.08246,-0.1641
10,1.7287,0.09212,0.08357,-0.1653
10.2,1.7401,0.09438,0.08582,-0.1695
10.3,1.7462,0.0956,0.08706,-0.1714
10.4,1.7529,0.09682,0.08829,-0.1731
10.5,1.7598,0.09803,0.08951,-0.1747
10.6,1.7668,0.09924,0.09073,-0.1762
10.7,1.7739,0.10044,0.09194,-0.1777
10.8,1.781,0.10164,0.09315,-0.1791
10.9,1.7882,0.10284,0.09436,-0.1804
11,1.7954,0.10404,0.09557,-0.1817
11.1,1.8027,0.10523,0.09678,-0.183
11.2,1.8099,0.10642,0.09798,-0.1842
11.3,1.8171,0.10762,0.09918,-0.1854
11.4,1.8243,0.10881,0.10038,-0.1866
11.5,1.8315,0.11,0.10158,-0.1877
11.6,1.8387,0.1112,0.10279,-0.1889
11.7,1.8383,0.11273,0.10432,-0.1926
11.8,1.8442,0.11403,0.10563,-0.1941
11.9,1.8502,0.11531,0.10693,-0.1956
12,1.8564,0.11659,0.10822,-0.197
12.1,1.8626,0.11787,0.10951,-0.1984
12.2,1.8689,0.11914,0.1108,-0.1997
12.3,1.8752,0.12042,0.11209,-0.201
12.4,1.8816,0.1217,0.11338,-0.2023
12.5,1.888,0.12298,0.11468,-0.2035
12.6,1.8944,0.12426,0.11597,-0.2048
12.7,1.9009,0.12555,0.11727,-0.206
12.8,1.9074,0.12684,0.11857,-0.2072
12.9,1.9139,0.12813,0.11987,-0.2084
13,1.9204,0.12943,0.12118,-0.2096
13.1,1.9269,0.13072,0.12249,-0.2107
13.2,1.9274,0.13295,0.12471,-0.2146
13.3,1.9333,0.13449,0.12627,-0.2162
13.4,1.9393,0.13602,0.12781,-0.2178
13.5,1.9454,0.13754,0.12935,-0.2193
13.6,1.9516,0.13907,0.13089,-0.2207
13.7,1.9578,0.1406,0.13243,-0.2222
13.8,1.9641,0.14212,0.13398,-0.2236
13.9,1.9704,0.14365,0.13552,-0.2251
14,1.9767,0.14519,0.13706,-0.2265
14.1,1.9831,0.14672,0.13863,-0.2279
14.2,1.9894,0.14826,0.14018,-0.2293
14.3,1.9958,0.1498,0.14173,-0.2307
14.4,2.0022,0.15135,0.14329,-0.232
14.5,2.0086,0.15289,0.14485,-0.2334
14.6,2.015,0.15444,0.14641,-0.2347
14.7,2.0214,0.15599,0.14797,-0.2361

