airfoilName st5.dat
Re 	370000
M 	7.000000e-01
N 	4.500000e+00
VACC 	0 VACCflag 1
XTR 	1.00 	1.00 XTRflag 0
alpha,cl,cd,cdp,cm
-14,-1.69,0.20619,0.20288,0.1599
-13.9,-1.6818,0.2031,0.19978,0.158
-13.8,-1.6734,0.20003,0.19672,0.1562
-13.7,-1.6651,0.19698,0.19368,0.1544
-13.6,-1.6568,0.19397,0.19066,0.1526
-13.5,-1.6484,0.19098,0.18768,0.1508
-13.4,-1.6401,0.18801,0.18472,0.149
-13.3,-1.6318,0.18508,0.18179,0.1472
-13.2,-1.6235,0.18217,0.17888,0.1454
-13.1,-1.6152,0.1793,0.17601,0.1436
-13,-1.6069,0.17644,0.17316,0.1418
-12.9,-1.5986,0.17362,0.17033,0.14
-12.8,-1.5903,0.17081,0.16753,0.1383
-12.7,-1.582,0.16803,0.16476,0.1365
-12.6,-1.5737,0.16528,0.16201,0.1348
-12.5,-1.5655,0.16256,0.15929,0.133
-12.4,-1.5572,0.15986,0.15659,0.1313
-12.3,-1.5489,0.15718,0.15392,0.1295
-12.2,-1.5406,0.15453,0.15126,0.1278
-12.1,-1.5324,0.1519,0.14864,0.126
-12,-1.5241,0.1493,0.14604,0.1243
-11.9,-1.5158,0.14671,0.14346,0.1225
-11.8,-1.5076,0.14414,0.14089,0.1208
-11.7,-1.4993,0.1411,0.13785,0.1186
-11.5,-1.4829,0.13584,0.1326,0.1149
-11.4,-1.4746,0.13342,0.13019,0.1131
-11.3,-1.4664,0.1311,0.12788,0.1115
-11.2,-1.4581,0.12881,0.1256,0.1098
-11.1,-1.4498,0.12655,0.12334,0.1081
-11,-1.4415,0.12433,0.12112,0.1064
-10.9,-1.4333,0.12212,0.11892,0.1048
-10.8,-1.425,0.11996,0.11676,0.1031
-10.7,-1.4167,0.11782,0.11463,0.1014
-10.6,-1.4085,0.11571,0.11252,0.0997
-10.5,-1.4002,0.11363,0.11044,0.098
-10.4,-1.392,0.11158,0.1084,0.0964
-10.3,-1.3837,0.10956,0.10638,0.0947
-10.2,-1.3755,0.10756,0.10439,0.0929
-10.1,-1.3672,0.10559,0.10243,0.0912
-10,-1.3589,0.10365,0.10049,0.0895
-9.9,-1.3506,0.10171,0.09856,0.0877
-9.8,-1.3421,0.0998,0.09666,0.0859
-9.7,-1.3337,0.0979,0.09476,0.0841
-9.6,-1.3257,0.09557,0.09244,0.0817
-9.5,-1.3173,0.09356,0.09044,0.0796
-9.4,-1.3085,0.09185,0.08874,0.0778
-9.3,-1.2996,0.09015,0.08704,0.076
-9.2,-1.2905,0.08846,0.08536,0.0742
-9.1,-1.2812,0.08678,0.08369,0.0723
-9,-1.2718,0.08511,0.08203,0.0703
-8.9,-1.2623,0.08345,0.08038,0.0684
-8.8,-1.2526,0.0818,0.07874,0.0664
-8.7,-1.2428,0.08016,0.0771,0.0643
-8.6,-1.2329,0.07853,0.07549,0.0622
-8.5,-1.2229,0.07692,0.07388,0.0601
-8.4,-1.2128,0.07533,0.07229,0.0579
-8.3,-1.2026,0.07375,0.07072,0.0557
-8.2,-1.1924,0.07219,0.06918,0.0534
-8.1,-1.1821,0.07064,0.06764,0.0511
-8,-1.1728,0.06872,0.06573,0.0479
-7.9,-1.162,0.06734,0.06437,0.0457
-7.8,-1.151,0.06599,0.06302,0.0435
-7.7,-1.1399,0.06465,0.0617,0.0412
-7.6,-1.1287,0.06334,0.0604,0.0388
-7.5,-1.1173,0.06204,0.05911,0.0364
-7.4,-1.1057,0.06074,0.05782,0.0339
-7.3,-1.0939,0.05946,0.05655,0.0314
-7.2,-1.0819,0.05819,0.05529,0.0287
-7.1,-1.0696,0.05692,0.05403,0.026
-7,-1.0571,0.05564,0.05277,0.023
-6.9,-1.0444,0.05436,0.0515,0.02
-6.8,-1.0325,0.05275,0.04991,0.0158
-6.7,-1.0145,0.05146,0.04863,0.0117
-6.6,-0.9948,0.05011,0.04726,0.0074
-6.5,-0.9808,0.04903,0.04611,0.0045
-6.4,-0.9664,0.04798,0.04499,0.0013
-6.3,-0.9461,0.04673,0.04365,-0.0033
-6.2,-0.9218,0.04529,0.04214,-0.0091
-6.1,-0.8952,0.0437,0.04047,-0.0154
-6,-0.8659,0.04188,0.03858,-0.0227
-5.9,-0.8349,0.03982,0.03644,-0.0306
-5.8,-0.8045,0.03804,0.03458,-0.0371
-5.6,-0.7432,0.034,0.03031,-0.0503
-5.5,-0.7135,0.03164,0.02777,-0.057
-5.3,-0.6581,0.02682,0.02256,-0.0687
-5.1,-0.6067,0.02245,0.01758,-0.0772
-5,-0.5804,0.02036,0.01504,-0.0807
-4.7,-0.5016,0.01711,0.01076,-0.0834
-4.6,-0.4756,0.01634,0.00966,-0.0834
-4.5,-0.45,0.01574,0.0088,-0.0832
-4.4,-0.4248,0.01531,0.00821,-0.0827
-4.3,-0.4,0.01494,0.00769,-0.0822
-4.2,-0.3757,0.01462,0.00722,-0.0817
-4.1,-0.3518,0.01435,0.00682,-0.0812
-4,-0.3284,0.01416,0.00655,-0.0807
-3.9,-0.3055,0.01399,0.00628,-0.0801
-3.8,-0.2824,0.0138,0.00602,-0.0797
-3.7,-0.2601,0.01368,0.00579,-0.0791
-3.6,-0.2375,0.01354,0.00561,-0.0787
-3.5,-0.2155,0.01344,0.00543,-0.0783
-3.4,-0.1932,0.01332,0.00527,-0.0779
-3.3,-0.1712,0.01321,0.00513,-0.0776
-3.2,-0.1496,0.01314,0.00499,-0.0772
-3.1,-0.1278,0.01305,0.00486,-0.0769
-3,-0.1063,0.01298,0.00474,-0.0766
-2.9,-0.0848,0.0129,0.00464,-0.0764
-2.8,-0.0634,0.01284,0.00454,-0.0761
-2.7,-0.0421,0.01277,0.00445,-0.0759
-2.6,-0.0214,0.01275,0.00438,-0.0756
-2.5,-0.0002,0.0127,0.00431,-0.0754
-2.4,0.0209,0.01263,0.00423,-0.0753
-2.3,0.0416,0.01261,0.00417,-0.0751
-2.2,0.0627,0.01256,0.00412,-0.075
-2.1,0.0836,0.01252,0.00406,-0.0749
-2,0.1042,0.01251,0.00403,-0.0747
-1.9,0.1245,0.0125,0.00399,-0.0745
-1.8,0.1451,0.01249,0.00396,-0.0744
-1.7,0.1654,0.01249,0.00394,-0.0743
-1.6,0.186,0.01247,0.00391,-0.0742
-1.5,0.2064,0.01248,0.00389,-0.0741
-1.4,0.2269,0.01247,0.00387,-0.074
-1.3,0.2471,0.01248,0.00386,-0.0739
-1.2,0.2674,0.01249,0.00385,-0.0738
-1.1,0.2872,0.01256,0.00386,-0.0737
-1,0.3072,0.01259,0.00386,-0.0736
-0.9,0.3272,0.01263,0.00388,-0.0735
-0.8,0.347,0.01269,0.00389,-0.0734
-0.7,0.3667,0.01277,0.00392,-0.0733
-0.6,0.3862,0.01287,0.00394,-0.0732
-0.5,0.4055,0.01299,0.004,-0.0731
-0.4,0.4248,0.01311,0.00405,-0.0731
-0.3,0.4435,0.01331,0.00414,-0.0731
-0.2,0.4631,0.01344,0.00419,-0.073
-0.1,0.483,0.01355,0.00426,-0.073
0,0.5031,0.01362,0.00431,-0.0731
0.1,0.5233,0.01372,0.00437,-0.0731
0.2,0.5438,0.01379,0.00443,-0.0731
0.3,0.5643,0.01386,0.0045,-0.0731
0.4,0.5848,0.01393,0.00456,-0.0732
0.5,0.6055,0.01401,0.00464,-0.0732
0.6,0.6264,0.01407,0.00471,-0.0732
0.7,0.6472,0.01417,0.00479,-0.0732
0.8,0.6682,0.01424,0.00486,-0.0733
0.9,0.6893,0.01433,0.00496,-0.0733
1,0.7106,0.01439,0.00504,-0.0733
1.1,0.7321,0.01446,0.00513,-0.0733
1.2,0.7536,0.01452,0.00522,-0.0733
1.3,0.7752,0.01462,0.00532,-0.0733
1.4,0.7968,0.01474,0.00545,-0.0733
1.5,0.8188,0.0148,0.00555,-0.0733
1.7,0.8628,0.01494,0.00579,-0.0733
1.8,0.885,0.01505,0.00592,-0.0732
1.9,0.9075,0.01517,0.00606,-0.0732
2,0.93,0.01526,0.0062,-0.0732
2.1,0.9526,0.01534,0.00636,-0.073
2.2,0.9753,0.01543,0.00653,-0.0729
2.3,0.9979,0.01554,0.00672,-0.0727
2.4,1.02,0.01561,0.0069,-0.0724
2.5,1.0426,0.01575,0.0071,-0.072
2.6,1.0653,0.01591,0.00731,-0.0717
2.7,1.0879,0.01608,0.00752,-0.0713
2.8,1.1085,0.01614,0.00774,-0.0704
2.9,1.1302,0.01629,0.00799,-0.0697
3,1.1516,0.01645,0.00824,-0.069
3.1,1.1726,0.01661,0.00851,-0.0681
3.2,1.1897,0.0167,0.00872,-0.0665
3.3,1.2098,0.01688,0.00899,-0.0654
3.4,1.2305,0.01708,0.00928,-0.0643
3.5,1.2523,0.0173,0.00961,-0.0635
3.7,1.3009,0.01791,0.01057,-0.0629
3.8,1.3235,0.01829,0.01114,-0.0624
3.9,1.3454,0.01871,0.01175,-0.062
4,1.3665,0.01918,0.01243,-0.0615
4.1,1.3867,0.01969,0.01315,-0.061
4.2,1.4059,0.02025,0.01394,-0.0605
4.3,1.4239,0.02087,0.01478,-0.0601
4.4,1.4407,0.02155,0.01568,-0.0596
4.5,1.4561,0.02228,0.01663,-0.0593
4.6,1.467,0.02316,0.01777,-0.0591
4.8,1.4844,0.02514,0.02021,-0.059
4.9,1.491,0.02622,0.02149,-0.0591
5,1.4963,0.02734,0.02279,-0.0594
5.1,1.5004,0.02851,0.02411,-0.0599
5.2,1.5037,0.02971,0.02544,-0.0606
5.3,1.5065,0.03094,0.02678,-0.0615
5.5,1.4986,0.03421,0.0303,-0.0663
5.7,1.4998,0.03751,0.03376,-0.0727
5.9,1.5126,0.04084,0.03721,-0.0806
6,1.5169,0.04296,0.03938,-0.087
6.1,1.5224,0.04465,0.04111,-0.0919
6.2,1.5289,0.04613,0.04261,-0.096
6.3,1.5364,0.04742,0.04392,-0.0994
6.4,1.5444,0.04862,0.04513,-0.1024
6.5,1.5527,0.04975,0.04627,-0.1051
6.6,1.5613,0.05083,0.04735,-0.1075
6.7,1.5654,0.05229,0.04881,-0.1113
6.8,1.5714,0.05356,0.05009,-0.1145
6.9,1.5782,0.05474,0.05127,-0.1172
7,1.5854,0.05586,0.0524,-0.1197
7.1,1.593,0.05694,0.05347,-0.1221
7.2,1.6009,0.05797,0.05451,-0.1242
7.3,1.609,0.05898,0.05552,-0.1263
7.4,1.6173,0.05997,0.05651,-0.1282
7.5,1.6257,0.06094,0.05749,-0.1301
7.6,1.6302,0.06227,0.05881,-0.1331
7.7,1.6364,0.06344,0.05999,-0.1355
7.8,1.6431,0.06456,0.06111,-0.1377
7.9,1.6502,0.06565,0.0622,-0.1398
8,1.6574,0.06671,0.06327,-0.1418
8.1,1.6649,0.06776,0.06432,-0.1437
8.2,1.6726,0.06878,0.06534,-0.1455
8.3,1.6803,0.0698,0.06636,-0.1472
8.4,1.6882,0.0708,0.06736,-0.1489
8.5,1.6961,0.0718,0.06836,-0.1505
8.6,1.702,0.07302,0.06957,-0.1527
8.7,1.7077,0.07428,0.07084,-0.155
8.8,1.7141,0.07548,0.07204,-0.1571
8.9,1.7209,0.07665,0.07321,-0.159
9,1.7278,0.0778,0.07438,-0.1608
9.1,1.7349,0.07895,0.07553,-0.1626
9.2,1.7421,0.08009,0.07667,-0.1643
9.3,1.7494,0.08123,0.07781,-0.166
9.5,1.7645,0.08346,0.08005,-0.1692
9.6,1.772,0.08458,0.08117,-0.1708
9.7,1.7796,0.08569,0.08229,-0.1723
9.8,1.785,0.08715,0.08374,-0.1746
9.9,1.791,0.08854,0.08514,-0.1767
10,1.7975,0.08988,0.08648,-0.1786
10.1,1.8041,0.09119,0.08779,-0.1805
10.2,1.8109,0.09248,0.0891,-0.1822
10.3,1.8178,0.09377,0.09039,-0.1839
10.4,1.8247,0.09505,0.09167,-0.1856
10.5,1.8316,0.09632,0.09295,-0.1873
10.6,1.8386,0.09758,0.09422,-0.1889
10.7,1.8455,0.09885,0.09549,-0.1904
10.8,1.8525,0.10007,0.09671,-0.192
10.9,1.8595,0.10131,0.09795,-0.1934
11,1.8665,0.10255,0.09919,-0.1949
11.1,1.8717,0.10417,0.10081,-0.1971
11.2,1.8773,0.10573,0.10238,-0.1991
11.3,1.8833,0.10721,0.10386,-0.2009
11.4,1.8894,0.10867,0.10533,-0.2026
11.5,1.8956,0.11011,0.10678,-0.2043
11.6,1.9019,0.11155,0.10823,-0.2059
11.7,1.9082,0.11299,0.10967,-0.2075
11.8,1.9146,0.11443,0.11111,-0.2091
11.9,1.9211,0.11587,0.11256,-0.2106
12,1.9276,0.11731,0.11401,-0.2121
12.1,1.9341,0.11876,0.11547,-0.2136
12.3,1.9473,0.12166,0.11837,-0.2166
12.4,1.954,0.12312,0.11984,-0.218
12.5,1.9596,0.125,0.12171,-0.2201
12.6,1.9654,0.1269,0.12362,-0.2221
12.7,1.9715,0.12871,0.12543,-0.2239
12.8,1.9777,0.13048,0.12721,-0.2257
12.9,1.9841,0.13223,0.12897,-0.2274
13,1.9905,0.13398,0.13073,-0.2291
13.1,1.9969,0.13572,0.13248,-0.2307
13.2,2.0034,0.13747,0.13423,-0.2324
13.3,2.01,0.13922,0.13599,-0.234
13.4,2.0166,0.14098,0.13775,-0.2356
13.5,2.0232,0.14274,0.13952,-0.2372
13.6,2.0298,0.14451,0.1413,-0.2388
13.7,2.0364,0.14629,0.14308,-0.2404
13.8,2.0432,0.14811,0.1449,-0.242
13.9,2.0499,0.14989,0.1467,-0.2435
14,2.0565,0.15178,0.14858,-0.2452
14.1,2.0623,0.15424,0.15105,-0.2474
14.2,2.0686,0.15643,0.15325,-0.2494
14.3,2.075,0.15856,0.15539,-0.2513
14.4,2.0814,0.16066,0.1575,-0.2531
14.5,2.0879,0.16275,0.15959,-0.2549
14.6,2.0944,0.16482,0.16166,-0.2566
14.7,2.1009,0.16689,0.16374,-0.2583
14.8,2.1075,0.16896,0.16582,-0.2601
14.9,2.114,0.17103,0.1679,-0.2618
15,2.1206,0.17311,0.16998,-0.2635
15.1,2.1272,0.17519,0.17207,-0.2652
15.2,2.1338,0.17728,0.17417,-0.2669
15.3,2.1403,0.17938,0.17627,-0.2686
15.4,2.1471,0.18156,0.17846,-0.2703
15.5,2.1537,0.18368,0.18058,-0.272
15.6,2.1604,0.1858,0.18271,-0.2737
15.7,2.167,0.18793,0.18485,-0.2754
15.8,2.1729,0.19074,0.18767,-0.2777
15.9,2.1792,0.19327,0.1902,-0.2797
16,2.1856,0.19571,0.19265,-0.2817
16.1,2.192,0.19812,0.19506,-0.2835
16.2,2.1984,0.20051,0.19747,-0.2854
16.3,2.2049,0.2029,0.19986,-0.2873
16.4,2.2113,0.20528,0.20224,-0.2891
16.5,2.2178,0.20766,0.20464,-0.291
16.6,2.2243,0.21005,0.20703,-0.2928
16.7,2.2308,0.21244,0.20943,-0.2946
16.8,2.2373,0.21485,0.21185,-0.2965
16.9,2.2437,0.21726,0.21426,-0.2983
17,2.2502,0.21967,0.21669,-0.3001
17.2,2.2633,0.22464,0.22167,-0.3038
17.3,2.2698,0.22711,0.22414,-0.3057

