airfoilName st6.dat
Re 	2.900000e+05
M 	7.000000e-01
N 	4.500000e+00
VACC 	0 VACCflag 1
XTR 	1.00 	1.00 XTRflag 0
alpha,cl,cd,cdp,cm
-0.1,0.5158,0.01313,0.00415,-0.0798
0,0.5343,0.01323,0.00421,-0.0797
0.1,0.552,0.01338,0.00427,-0.0795
0.2,0.5703,0.01346,0.00433,-0.0793
0.3,0.5887,0.01357,0.0044,-0.0792
0.4,0.6074,0.01367,0.00448,-0.0791
0.5,0.6262,0.01377,0.00456,-0.079
0.6,0.6449,0.01382,0.00463,-0.079
0.7,0.6641,0.0139,0.00472,-0.0789
0.8,0.6833,0.01397,0.0048,-0.0788
0.9,0.7023,0.014,0.00489,-0.0788
1,0.7214,0.01407,0.00498,-0.0787
1.1,0.7408,0.01413,0.00508,-0.0786
1.2,0.7597,0.01411,0.00518,-0.0784
1.3,0.779,0.01411,0.00527,-0.0782
1.4,0.7977,0.01409,0.00538,-0.0779
1.5,0.8155,0.01407,0.00549,-0.0773
1.6,0.8297,0.01397,0.00559,-0.076
1.7,0.8438,0.01393,0.00569,-0.0744
1.8,0.8572,0.0139,0.00575,-0.0727
1.9,0.8724,0.01391,0.00581,-0.0713
2.1,0.9172,0.01418,0.00601,-0.0714
2.2,0.9386,0.01435,0.00619,-0.0712
2.3,0.9601,0.01453,0.00636,-0.0711
2.4,0.9816,0.01472,0.00655,-0.0709
2.5,1.0033,0.01493,0.00675,-0.0707
2.6,1.025,0.01516,0.00695,-0.0706
2.7,1.0471,0.01537,0.00716,-0.0704
2.8,1.0693,0.01558,0.0074,-0.0702
3,1.1137,0.01602,0.00788,-0.0697
3.1,1.1361,0.01628,0.00815,-0.0694
3.2,1.1586,0.01654,0.00842,-0.0692
3.3,1.1812,0.01679,0.00875,-0.0688
3.4,1.2037,0.01707,0.00909,-0.0685
3.5,1.2262,0.01736,0.00946,-0.0681
3.6,1.2486,0.01767,0.00986,-0.0677
3.7,1.2708,0.01801,0.01028,-0.0672
3.8,1.2929,0.01836,0.01072,-0.0668
3.9,1.3145,0.01875,0.01121,-0.0663
4,1.335,0.01918,0.01181,-0.0657
4.2,1.3738,0.02013,0.01313,-0.0644
4.3,1.392,0.02069,0.01387,-0.0638
4.4,1.4091,0.02128,0.01465,-0.0631
4.5,1.425,0.02193,0.01547,-0.0623
4.6,1.4397,0.02262,0.01635,-0.0616
4.7,1.4513,0.02341,0.01735,-0.0609
4.8,1.4596,0.02432,0.01849,-0.0602
5.1,1.4747,0.02733,0.02209,-0.0585
5.2,1.4767,0.02842,0.02334,-0.0581
5.3,1.4773,0.02954,0.0246,-0.0578
5.4,1.477,0.03069,0.02588,-0.0577
5.6,1.4676,0.03334,0.02875,-0.0587
5.8,1.4508,0.03645,0.03206,-0.062
6,1.4492,0.04024,0.03602,-0.0705
6.2,1.4598,0.04392,0.0398,-0.0784
6.3,1.4565,0.04656,0.04249,-0.0847
6.4,1.46,0.04828,0.04423,-0.0884
6.5,1.465,0.04981,0.04578,-0.0915
6.6,1.4709,0.0512,0.04718,-0.0943
6.7,1.4774,0.05249,0.04848,-0.0967
6.8,1.4846,0.05371,0.0497,-0.0989
6.9,1.4894,0.05514,0.05113,-0.1018
7,1.4926,0.05675,0.05274,-0.1051
7.1,1.4976,0.05816,0.05417,-0.1079
7.2,1.5032,0.05949,0.0555,-0.1105
7.3,1.5097,0.0607,0.05672,-0.1127
7.4,1.5168,0.06186,0.05788,-0.1146
7.5,1.5241,0.06298,0.059,-0.1165
7.6,1.5316,0.06407,0.06009,-0.1182
7.7,1.5386,0.0652,0.06122,-0.1201
7.8,1.5422,0.06673,0.06275,-0.123
7.9,1.5475,0.06806,0.06408,-0.1253
8,1.5535,0.06931,0.06535,-0.1274
8.1,1.5598,0.07053,0.06656,-0.1294
8.2,1.5664,0.07171,0.06775,-0.1312
8.3,1.5734,0.07282,0.06886,-0.1329
8.4,1.5806,0.07392,0.06998,-0.1345
8.5,1.5879,0.07501,0.07106,-0.1361
8.6,1.5953,0.07607,0.07213,-0.1375
8.7,1.6005,0.07742,0.07348,-0.1397
8.8,1.6053,0.07884,0.07489,-0.142
8.9,1.6109,0.08015,0.07621,-0.144
9,1.617,0.08141,0.07748,-0.1458
9.1,1.6232,0.08265,0.07873,-0.1475
9.2,1.6297,0.08387,0.07995,-0.1492
9.3,1.6362,0.08508,0.08116,-0.1508
9.4,1.6429,0.08627,0.08236,-0.1523
9.5,1.6497,0.08745,0.08355,-0.1538
9.6,1.6571,0.08853,0.08463,-0.1552
9.7,1.6642,0.08966,0.08577,-0.1565
9.8,1.6691,0.09115,0.08725,-0.1587
9.9,1.6742,0.09263,0.08875,-0.1608
10,1.6798,0.09403,0.09015,-0.1626
10.1,1.6857,0.09539,0.09152,-0.1644
10.2,1.6918,0.09673,0.09286,-0.166
10.3,1.6979,0.09804,0.09418,-0.1676
10.4,1.7042,0.09935,0.09549,-0.1692
10.5,1.7105,0.10063,0.09678,-0.1707
10.6,1.7169,0.10191,0.09806,-0.1721
10.7,1.7232,0.10317,0.09933,-0.1735
10.8,1.7296,0.10443,0.10059,-0.1749
11,1.7413,0.1071,0.10326,-0.1781
11.1,1.746,0.1087,0.10487,-0.1801
11.2,1.7511,0.1102,0.10638,-0.1819
11.3,1.7565,0.11165,0.10783,-0.1836
11.4,1.7621,0.11307,0.10927,-0.1852
11.5,1.7677,0.11448,0.11068,-0.1867
11.6,1.7733,0.11587,0.11208,-0.1882
11.7,1.7791,0.11725,0.11347,-0.1896
11.8,1.7848,0.11862,0.11485,-0.1911
11.9,1.7906,0.12,0.11623,-0.1924
12,1.7964,0.12136,0.1176,-0.1938
12.1,1.8023,0.12273,0.11898,-0.1951
12.2,1.8082,0.1241,0.12035,-0.1965
12.3,1.8142,0.12547,0.12173,-0.1978
12.4,1.8182,0.12744,0.1237,-0.2001
12.5,1.8233,0.12917,0.12544,-0.202
12.6,1.8287,0.13085,0.12712,-0.2037
12.7,1.8342,0.1325,0.12878,-0.2053
12.8,1.8398,0.13414,0.13043,-0.2069
12.9,1.8455,0.13577,0.13207,-0.2085
13,1.8512,0.1374,0.13371,-0.21
13.1,1.857,0.13903,0.13534,-0.2115
13.2,1.8629,0.14065,0.13697,-0.213
13.3,1.8688,0.14228,0.13861,-0.2145
13.4,1.8747,0.14391,0.14025,-0.2159
13.5,1.8807,0.14555,0.1419,-0.2174
13.6,1.8867,0.14719,0.14355,-0.2188
13.7,1.8927,0.14884,0.1452,-0.2202
13.8,1.8987,0.15048,0.14685,-0.2217
13.9,1.9033,0.15321,0.14958,-0.2245
14,1.909,0.15524,0.15162,-0.2263
14.1,1.9147,0.15723,0.15362,-0.2281
14.2,1.9205,0.15921,0.15561,-0.2298
14.3,1.9264,0.16117,0.15757,-0.2315
14.4,1.9323,0.16312,0.15953,-0.2331
14.5,1.9383,0.16506,0.16148,-0.2348
14.6,1.9443,0.16701,0.16344,-0.2364
14.7,1.9503,0.16896,0.1654,-0.238
14.8,1.9564,0.17091,0.16736,-0.2396
14.9,1.9624,0.17287,0.16932,-0.2412
15,1.9685,0.17483,0.17129,-0.2428
15.1,1.9746,0.1768,0.17327,-0.2444
15.2,1.9807,0.17877,0.17525,-0.246
15.3,1.9868,0.18075,0.17724,-0.2476
15.4,1.993,0.18274,0.17924,-0.2491
15.5,1.9989,0.18495,0.18145,-0.2509
15.6,2.0043,0.18841,0.18492,-0.254
15.7,2.0103,0.19076,0.18728,-0.2559
15.8,2.0163,0.19307,0.1896,-0.2577
15.9,2.0223,0.19538,0.19191,-0.2595
16,2.0284,0.19767,0.19422,-0.2613
16.1,2.0345,0.19996,0.19652,-0.2631
16.2,2.0406,0.20226,0.19882,-0.2649
16.3,2.0467,0.20454,0.20111,-0.2666
16.4,2.0528,0.20684,0.20342,-0.2684
16.5,2.0589,0.20914,0.20572,-0.2701
16.6,2.0651,0.21144,0.20804,-0.2719
16.7,2.0712,0.21375,0.21036,-0.2737
16.8,2.0774,0.21607,0.21269,-0.2754
16.9,2.0835,0.21839,0.21502,-0.2772
17,2.0897,0.22072,0.21736,-0.2789
17.1,2.0958,0.22307,0.21971,-0.2807
17.2,2.102,0.22542,0.22207,-0.2824
17.3,2.1081,0.22778,0.22444,-0.2842
17.4,2.1139,0.23171,0.22837,-0.2872
17.5,2.1199,0.23441,0.23109,-0.2892
17.6,2.126,0.23709,0.23378,-0.2912
17.7,2.1321,0.23975,0.23645,-0.2932
17.8,2.1382,0.2424,0.23911,-0.2951
17.9,2.1443,0.24506,0.24177,-0.297
18,2.1504,0.24771,0.24443,-0.299
18.1,2.1565,0.25036,0.2471,-0.3009

