airfoilName st6.dat
Re 	3.900000e+05
M 	7.000000e-01
N 	4.500000e+00
VACC 	0 VACCflag 1
XTR 	1.00 	1.00 XTRflag 0
alpha,cl,cd,cdp,cm
-15.3,-1.6075,0.24081,0.23764,0.1633
-15.2,-1.5996,0.23756,0.23439,0.1614
-15.1,-1.5917,0.23435,0.23118,0.1594
-15,-1.5838,0.23116,0.228,0.1575
-14.9,-1.5759,0.22802,0.22486,0.1556
-14.8,-1.568,0.22489,0.22173,0.1538
-14.7,-1.5601,0.22179,0.21864,0.1519
-14.6,-1.5522,0.21873,0.21557,0.15
-14.5,-1.5443,0.21569,0.21253,0.1482
-14.4,-1.5365,0.21268,0.20953,0.1463
-14.3,-1.5286,0.20969,0.20655,0.1445
-14.2,-1.5208,0.20673,0.20359,0.1427
-14.1,-1.513,0.20381,0.20066,0.1409
-14,-1.5052,0.2009,0.19776,0.139
-13.9,-1.4974,0.19802,0.19488,0.1372
-13.8,-1.4896,0.19516,0.19203,0.1355
-13.7,-1.4818,0.19232,0.18919,0.1337
-13.6,-1.474,0.18952,0.18639,0.1319
-13.5,-1.4663,0.18673,0.1836,0.1301
-13.4,-1.4578,0.18282,0.1797,0.1276
-13.3,-1.4502,0.18019,0.17708,0.1259
-13.2,-1.4425,0.1776,0.17449,0.1242
-13.1,-1.4349,0.17504,0.17193,0.1226
-13,-1.4272,0.1725,0.16939,0.1209
-12.9,-1.4196,0.16999,0.16688,0.1192
-12.8,-1.412,0.16751,0.16441,0.1176
-12.7,-1.4044,0.16506,0.16196,0.1159
-12.6,-1.3968,0.16263,0.15953,0.1143
-12.5,-1.3892,0.16022,0.15713,0.1127
-12.4,-1.3816,0.15785,0.15476,0.111
-12.3,-1.374,0.1555,0.15241,0.1094
-12.2,-1.3664,0.15318,0.1501,0.1078
-12.1,-1.3588,0.15088,0.14781,0.1062
-12,-1.3513,0.14862,0.14554,0.1046
-11.9,-1.3438,0.14638,0.14331,0.103
-11.8,-1.3362,0.14416,0.1411,0.1014
-11.7,-1.3287,0.14198,0.13891,0.0998
-11.6,-1.3212,0.13982,0.13676,0.0982
-11.5,-1.3137,0.13768,0.13463,0.0967
-11.4,-1.3061,0.13558,0.13253,0.0951
-11.3,-1.2986,0.13349,0.13045,0.0935
-11.2,-1.2911,0.13143,0.12839,0.092
-11.1,-1.2836,0.1294,0.12637,0.0904
-11,-1.2761,0.12739,0.12436,0.0889
-10.9,-1.2686,0.12541,0.12239,0.0873
-10.8,-1.2611,0.12344,0.12042,0.0857
-10.7,-1.2535,0.1215,0.11848,0.0842
-10.6,-1.2459,0.11956,0.11655,0.0826
-10.5,-1.2383,0.11765,0.11465,0.081
-10.4,-1.2306,0.11575,0.11276,0.0794
-10.3,-1.2228,0.11387,0.11088,0.0778
-10.2,-1.2151,0.112,0.10902,0.0762
-10.1,-1.2072,0.11014,0.10716,0.0745
-10,-1.1993,0.10828,0.10531,0.0728
-9.9,-1.1913,0.10643,0.10347,0.0711
-9.8,-1.1832,0.10457,0.10162,0.0694
-9.7,-1.175,0.1027,0.09974,0.0676
-9.6,-1.1668,0.10075,0.0978,0.0657
-9.3,-1.141,0.09571,0.0928,0.0605
-9.2,-1.1321,0.09404,0.09113,0.0587
-9.1,-1.1232,0.09238,0.08948,0.0569
-9,-1.1141,0.09072,0.08784,0.0551
-8.9,-1.105,0.0891,0.08622,0.0533
-8.8,-1.0957,0.08748,0.08461,0.0515
-8.7,-1.0864,0.08588,0.08303,0.0496
-8.6,-1.0771,0.0843,0.08145,0.0477
-8.5,-1.0676,0.08275,0.0799,0.0458
-8.4,-1.058,0.0812,0.07837,0.0439
-8.3,-1.0484,0.07967,0.07685,0.042
-8.2,-1.0386,0.07816,0.07534,0.04
-8.1,-1.0288,0.07666,0.07385,0.038
-8,-1.0189,0.07518,0.07239,0.0359
-7.9,-1.0089,0.07372,0.07093,0.0339
-7.8,-0.9988,0.07226,0.06949,0.0317
-7.7,-0.9886,0.07079,0.06803,0.0295
-7.6,-0.9783,0.0693,0.06655,0.0272
-7.5,-0.9679,0.06783,0.0651,0.0249
-7.4,-0.9571,0.06656,0.06385,0.0227
-7.3,-0.9461,0.0653,0.0626,0.0206
-7.2,-0.9349,0.06404,0.06135,0.0183
-7,-0.912,0.06157,0.05892,0.0136
-6.9,-0.9003,0.06032,0.05768,0.0112
-6.8,-0.8885,0.05907,0.05645,0.0087
-6.7,-0.8715,0.05763,0.05501,0.0048
-6.6,-0.8537,0.05613,0.0535,0.0008
-6.5,-0.8379,0.05475,0.05209,-0.0027
-6.4,-0.8248,0.05348,0.05079,-0.0055
-6.3,-0.8122,0.05223,0.04951,-0.0084
-6.2,-0.7967,0.05081,0.04804,-0.0123
-6.1,-0.7768,0.0495,0.0467,-0.0166
-5.9,-0.7327,0.0467,0.04381,-0.026
-5.8,-0.7094,0.04522,0.04226,-0.0309
-5.7,-0.684,0.04355,0.04053,-0.0364
-5.6,-0.6579,0.04178,0.03869,-0.042
-5.5,-0.6307,0.03981,0.03665,-0.048
-5.3,-0.5766,0.03594,0.03262,-0.0588
-5.2,-0.5501,0.03408,0.03065,-0.0636
-5.1,-0.5245,0.0321,0.02854,-0.0681
-4.8,-0.4513,0.02501,0.02088,-0.0816
-4.6,-0.4062,0.0213,0.0166,-0.0867
-4.3,-0.3367,0.01694,0.01116,-0.0904
-4.2,-0.3132,0.0161,0.01004,-0.0904
-4.1,-0.2899,0.0154,0.00907,-0.0902
-4,-0.2667,0.01482,0.00825,-0.0899
-3.9,-0.2437,0.01433,0.00755,-0.0894
-3.7,-0.199,0.01372,0.0067,-0.0884
-3.6,-0.1771,0.01348,0.00631,-0.0879
-3.5,-0.156,0.01329,0.00598,-0.0873
-3.4,-0.1344,0.01311,0.00572,-0.0868
-3.3,-0.1138,0.013,0.0055,-0.0862
-3.2,-0.0924,0.01286,0.00528,-0.0858
-3.1,-0.0715,0.01275,0.0051,-0.0854
-3,-0.0505,0.01263,0.00493,-0.0851
-2.9,-0.0301,0.01255,0.00478,-0.0847
-2.8,-0.0097,0.01249,0.00464,-0.0843
-2.7,0.0107,0.01242,0.00452,-0.084
-2.6,0.0312,0.01234,0.00441,-0.0838
-2.5,0.0512,0.01231,0.00431,-0.0834
-2.4,0.0716,0.01223,0.00422,-0.0832
-2.3,0.0911,0.01223,0.00415,-0.0829
-2.2,0.1113,0.01218,0.00406,-0.0827
-2.1,0.1312,0.01214,0.00401,-0.0825
-2,0.1513,0.01209,0.00394,-0.0824
-1.9,0.1708,0.01208,0.0039,-0.0822
-1.8,0.1906,0.01207,0.00385,-0.082
-1.7,0.2097,0.01208,0.00382,-0.0818
-1.6,0.2293,0.01207,0.00378,-0.0816
-1.5,0.249,0.01205,0.00376,-0.0815
-1.4,0.2685,0.01205,0.00373,-0.0814
-1.3,0.2882,0.01204,0.00371,-0.0813
-1.2,0.3075,0.01206,0.0037,-0.0811
-1.1,0.327,0.01204,0.0037,-0.081
-1,0.3463,0.01206,0.00369,-0.0809
-0.9,0.3652,0.01212,0.00371,-0.0807
-0.8,0.3843,0.01216,0.00371,-0.0806
-0.7,0.4034,0.01218,0.00372,-0.0805
-0.6,0.4224,0.01224,0.00374,-0.0804
-0.5,0.4413,0.0123,0.00377,-0.0803
-0.4,0.4601,0.01238,0.0038,-0.0801
-0.3,0.4786,0.01245,0.00384,-0.08
-0.2,0.4972,0.01256,0.00389,-0.0799
-0.1,0.5149,0.01273,0.00397,-0.0797
0,0.5334,0.01285,0.00403,-0.0796
0.1,0.5519,0.01295,0.0041,-0.0796
0.2,0.5708,0.01305,0.00417,-0.0795
0.3,0.5897,0.01315,0.00424,-0.0795
0.4,0.6089,0.01321,0.00431,-0.0795
0.5,0.6282,0.0133,0.00439,-0.0794
0.6,0.6477,0.01336,0.00446,-0.0794
0.7,0.667,0.01346,0.00454,-0.0793
0.8,0.6865,0.01351,0.00463,-0.0793
0.9,0.7064,0.01355,0.0047,-0.0793
1,0.7262,0.01361,0.00478,-0.0793
1.1,0.746,0.01364,0.00487,-0.0793
1.2,0.7659,0.01371,0.00496,-0.0792
1.3,0.7861,0.01374,0.00505,-0.0792
1.4,0.8064,0.01378,0.00515,-0.0791
1.5,0.8264,0.01377,0.00524,-0.0791
1.6,0.8465,0.01381,0.00534,-0.0789
1.7,0.8662,0.01383,0.00547,-0.0788
1.8,0.8848,0.01371,0.00557,-0.0783
1.9,0.9036,0.01371,0.00569,-0.0777
2,0.9216,0.01372,0.00581,-0.077
2.2,0.9495,0.01367,0.00599,-0.0736
2.3,0.9656,0.01369,0.00606,-0.0723
2.4,0.986,0.01376,0.00615,-0.0718
2.5,1.011,0.01387,0.00626,-0.0721
2.6,1.0331,0.01405,0.00643,-0.0719
2.7,1.055,0.01424,0.0066,-0.0717
2.8,1.0773,0.01444,0.00679,-0.0715
2.9,1.1,0.01462,0.007,-0.0713
3,1.1227,0.01481,0.00721,-0.0711
3.1,1.1455,0.01502,0.00744,-0.0708
3.2,1.1685,0.01524,0.00769,-0.0706
3.3,1.1916,0.01547,0.00794,-0.0703
3.4,1.2148,0.01572,0.00821,-0.07
3.5,1.2381,0.01597,0.00852,-0.0696
3.6,1.2613,0.01624,0.00887,-0.0692
3.7,1.2844,0.01654,0.00925,-0.0688
3.8,1.3073,0.01683,0.00964,-0.0683
3.9,1.3302,0.01717,0.01007,-0.0678
4,1.3527,0.01753,0.01054,-0.0672
4.1,1.3748,0.01793,0.01106,-0.0666
4.2,1.3953,0.01838,0.0117,-0.066
4.3,1.4148,0.0189,0.01241,-0.0652
4.4,1.4331,0.01946,0.01318,-0.0645
4.5,1.4501,0.02007,0.01401,-0.0637
4.6,1.4656,0.02075,0.0149,-0.063
4.7,1.4795,0.02148,0.01584,-0.0622
4.8,1.4917,0.02227,0.01684,-0.0613
4.9,1.5022,0.02311,0.01787,-0.0605
5,1.511,0.02399,0.01894,-0.0597
5.1,1.517,0.02497,0.02009,-0.059
5.2,1.5181,0.02611,0.02145,-0.0584
5.3,1.5169,0.02731,0.02283,-0.058
6.2,1.4809,0.04206,0.03853,-0.0759
6.3,1.4845,0.04401,0.04053,-0.0801
6.4,1.4893,0.04569,0.04224,-0.0836
6.6,1.4928,0.04946,0.04604,-0.0918
6.7,1.496,0.05112,0.04772,-0.0952
6.8,1.5005,0.05263,0.04923,-0.0983
6.9,1.5058,0.05403,0.05064,-0.101
7,1.5122,0.0553,0.05191,-0.1034
7.1,1.5189,0.05652,0.05314,-0.1056
7.2,1.526,0.05769,0.05431,-0.1077
7.3,1.5285,0.05934,0.05596,-0.1111
7.4,1.5329,0.0608,0.05741,-0.1138
7.5,1.5382,0.06214,0.05876,-0.1163
7.6,1.5441,0.06342,0.06004,-0.1185
7.7,1.5505,0.06464,0.06127,-0.1206
7.8,1.5571,0.06583,0.06247,-0.1226
7.9,1.5638,0.06699,0.06363,-0.1245
8,1.5708,0.06812,0.06476,-0.1262
8.1,1.5788,0.06913,0.06577,-0.1277
8.2,1.5821,0.07069,0.06733,-0.1306
8.3,1.5871,0.07206,0.0687,-0.1329
8.4,1.5928,0.07335,0.07,-0.1349
8.5,1.5989,0.0746,0.07126,-0.1369
8.6,1.6052,0.07582,0.07248,-0.1387
8.7,1.6118,0.07701,0.07367,-0.1404
8.8,1.6184,0.07818,0.07485,-0.1421
8.9,1.6252,0.07934,0.07601,-0.1437
9,1.6321,0.08048,0.07716,-0.1453
9.1,1.639,0.08161,0.07829,-0.1468
9.2,1.6461,0.08273,0.07941,-0.1482
9.3,1.6489,0.08446,0.08114,-0.1511
9.4,1.6545,0.08582,0.0825,-0.153
9.5,1.6604,0.08714,0.08383,-0.1548
9.6,1.6666,0.08843,0.08513,-0.1565
9.7,1.6729,0.08971,0.08641,-0.1582
9.8,1.6793,0.09097,0.08768,-0.1598
9.9,1.6858,0.09222,0.08894,-0.1614
10,1.6924,0.09346,0.09018,-0.1629
10.1,1.699,0.09469,0.09141,-0.1644
10.2,1.7057,0.09591,0.09263,-0.1658
10.3,1.7124,0.09712,0.09385,-0.1672
10.4,1.7177,0.09858,0.09531,-0.1691
10.5,1.7215,0.10034,0.09707,-0.1716
10.6,1.7271,0.10177,0.09851,-0.1734
10.7,1.7329,0.10317,0.09991,-0.1751
10.8,1.7387,0.10455,0.1013,-0.1767
10.9,1.7446,0.10591,0.10266,-0.1783
11,1.7506,0.10725,0.10401,-0.1798
11.1,1.7566,0.10858,0.10534,-0.1813
11.2,1.7626,0.1099,0.10667,-0.1827
11.3,1.7686,0.11121,0.10798,-0.1842
11.4,1.7747,0.11251,0.10929,-0.1855
11.5,1.7807,0.1138,0.11059,-0.1869
11.6,1.7868,0.11508,0.11188,-0.1882
11.7,1.791,0.11686,0.11365,-0.1903
11.8,1.7958,0.11849,0.11529,-0.1922
11.9,1.8004,0.12022,0.11703,-0.1942
12,1.8058,0.12174,0.11856,-0.1958
12.1,1.8113,0.12325,0.12007,-0.1974
12.2,1.8169,0.12476,0.12158,-0.1989
12.3,1.8226,0.12626,0.12309,-0.2004
12.4,1.8283,0.12776,0.1246,-0.2019
12.5,1.8341,0.12926,0.1261,-0.2033
12.6,1.8399,0.13076,0.12761,-0.2048
12.7,1.8458,0.13226,0.12912,-0.2062
12.8,1.8518,0.13377,0.13063,-0.2076
12.9,1.8578,0.13528,0.13214,-0.209
13,1.8633,0.13698,0.13385,-0.2106
13.1,1.8681,0.13902,0.13589,-0.2127
13.2,1.8734,0.14091,0.1378,-0.2145
13.3,1.8789,0.14276,0.13966,-0.2163
13.4,1.8842,0.14479,0.14169,-0.2183
13.5,1.89,0.14659,0.1435,-0.2199
13.6,1.8958,0.14839,0.1453,-0.2215
13.7,1.9017,0.15019,0.14711,-0.2231
13.8,1.9076,0.15199,0.14892,-0.2247
13.9,1.9136,0.15379,0.15072,-0.2262
14,1.9196,0.15559,0.15253,-0.2278
14.1,1.9256,0.1574,0.15435,-0.2293
14.2,1.9316,0.15922,0.15617,-0.2309
14.3,1.9377,0.16104,0.158,-0.2324
14.4,1.9438,0.16286,0.15983,-0.2339
14.5,1.9495,0.16499,0.16196,-0.2358
14.6,1.9549,0.16736,0.16433,-0.2379
14.7,1.9605,0.16958,0.16656,-0.2398
14.8,1.9663,0.17176,0.16875,-0.2416
14.9,1.972,0.17418,0.17119,-0.2437
15,1.9779,0.17631,0.17332,-0.2454
15.1,1.9839,0.17844,0.17545,-0.2471
15.2,1.9899,0.18056,0.17758,-0.2489
15.3,1.996,0.18268,0.17972,-0.2506
15.4,2.002,0.18481,0.18185,-0.2523
15.5,2.0081,0.18694,0.18399,-0.2539
15.6,2.0142,0.18907,0.18613,-0.2556
15.7,2.0203,0.19122,0.18828,-0.2573
15.8,2.0264,0.19336,0.19043,-0.259
15.9,2.0325,0.19552,0.19259,-0.2606
16,2.0387,0.19768,0.19477,-0.2623
16.1,2.0448,0.19985,0.19694,-0.264
16.2,2.0504,0.20251,0.1996,-0.2661
16.3,2.0562,0.20514,0.20223,-0.2682
16.4,2.062,0.20766,0.20477,-0.2701
16.5,2.0679,0.21015,0.20727,-0.2721
16.6,2.0739,0.21295,0.21007,-0.2742
16.7,2.0799,0.2154,0.21254,-0.2761
16.8,2.0859,0.21785,0.21499,-0.2779
16.9,2.092,0.2203,0.21745,-0.2798
17,2.098,0.22275,0.21991,-0.2816
17.1,2.1041,0.22521,0.22238,-0.2834
17.2,2.1102,0.22767,0.22485,-0.2853
17.3,2.1163,0.23014,0.22732,-0.2871
17.4,2.1224,0.23262,0.22981,-0.2889
17.5,2.1285,0.2351,0.2323,-0.2907
17.6,2.1347,0.23759,0.2348,-0.2926
17.7,2.1408,0.2401,0.23731,-0.2944
17.8,2.1469,0.24261,0.23983,-0.2962
17.9,2.1531,0.24513,0.24237,-0.298
18,2.1592,0.24767,0.24491,-0.2999
18.1,2.1651,0.2504,0.24764,-0.3018
18.2,2.1704,0.25348,0.25073,-0.304

