airfoilName st7.dat
Re 	810000
M 	7.000000e-01
N 	4.500000e+00
VACC 	0 VACCflag 1
XTR 	1.00 	1.00 XTRflag 0
alpha,cl,cd,cdp,cm
-17,-1.5929,0.29049,0.2884,0.18
-16.9,-1.5852,0.2869,0.28481,0.178
-16.8,-1.5776,0.28345,0.28136,0.1759
-16.7,-1.57,0.28003,0.27795,0.1739
-16.6,-1.5623,0.27664,0.27455,0.1719
-16.5,-1.5548,0.2733,0.27122,0.1699
-16.4,-1.5472,0.26998,0.2679,0.1679
-16.3,-1.5396,0.26668,0.2646,0.1659
-16.2,-1.532,0.26343,0.26135,0.164
-16.1,-1.5244,0.2602,0.25813,0.162
-16,-1.5169,0.25701,0.25493,0.1601
-15.9,-1.5093,0.25384,0.25176,0.1582
-15.8,-1.5018,0.2507,0.24863,0.1562
-15.7,-1.4942,0.24759,0.24552,0.1543
-15.6,-1.4867,0.24451,0.24244,0.1525
-15.5,-1.4792,0.24146,0.2394,0.1506
-15.4,-1.4717,0.23844,0.23637,0.1487
-15.3,-1.4642,0.23544,0.23338,0.1468
-15.2,-1.4567,0.23247,0.23041,0.145
-15.1,-1.4492,0.22953,0.22747,0.1432
-15,-1.4417,0.22662,0.22456,0.1413
-14.9,-1.4342,0.22374,0.22167,0.1395
-14.8,-1.4268,0.22088,0.21882,0.1377
-14.7,-1.4193,0.21805,0.21599,0.1359
-14.6,-1.4119,0.21525,0.21319,0.1341
-14.5,-1.4045,0.21248,0.21042,0.1324
-14.4,-1.397,0.20972,0.20767,0.1306
-14.3,-1.3897,0.20701,0.20495,0.1289
-14.2,-1.3823,0.20431,0.20226,0.1271
-14.1,-1.3749,0.20164,0.19959,0.1254
-14,-1.3675,0.19899,0.19694,0.1237
-13.9,-1.3602,0.19638,0.19434,0.122
-13.8,-1.3528,0.19378,0.19174,0.1203
-13.7,-1.3455,0.19122,0.18918,0.1186
-13.6,-1.3382,0.18867,0.18663,0.1169
-13.5,-1.3309,0.18615,0.18411,0.1152
-13.4,-1.3236,0.18365,0.18162,0.1135
-13.3,-1.3163,0.18118,0.17915,0.1119
-13.2,-1.3091,0.17873,0.1767,0.1102
-13.1,-1.3018,0.17631,0.17428,0.1086
-13,-1.2946,0.1739,0.17187,0.107
-12.9,-1.2874,0.17152,0.16949,0.1053
-12.8,-1.2801,0.16916,0.16714,0.1037
-12.7,-1.2726,0.1663,0.16428,0.1018
-12.6,-1.2654,0.16397,0.16195,0.1002
-12.5,-1.2582,0.16161,0.15959,0.0986
-12.4,-1.2509,0.1592,0.15718,0.0969
-12.3,-1.2437,0.15686,0.15486,0.0953
-12.2,-1.2365,0.15473,0.15273,0.0938
-12.1,-1.2294,0.15262,0.15062,0.0922
-12,-1.2222,0.15053,0.14853,0.0907
-11.9,-1.2151,0.14847,0.14647,0.0892
-11.8,-1.2079,0.14642,0.14443,0.0877
-11.7,-1.2008,0.14439,0.1424,0.0862
-11.6,-1.1936,0.14239,0.1404,0.0847
-11.5,-1.1864,0.1404,0.13842,0.0832
-11.4,-1.1792,0.13843,0.13646,0.0817
-11.3,-1.172,0.13649,0.13452,0.0802
-11.2,-1.1647,0.13456,0.13259,0.0787
-11.1,-1.1575,0.13265,0.13069,0.0772
-11,-1.1502,0.13075,0.12879,0.0757
-10.9,-1.1429,0.12888,0.12692,0.0742
-10.8,-1.1355,0.12701,0.12506,0.0727
-10.7,-1.128,0.12516,0.12321,0.0712
-10.6,-1.1204,0.12332,0.12137,0.0696
-10.5,-1.1128,0.12148,0.11954,0.0681
-10.4,-1.1051,0.11965,0.11771,0.0666
-10.3,-1.0973,0.11782,0.11589,0.065
-10.2,-1.0894,0.11601,0.11408,0.0634
-10.1,-1.0814,0.11421,0.11229,0.0618
-10,-1.0733,0.11242,0.1105,0.0602
-9.9,-1.0652,0.11063,0.10872,0.0586
-9.8,-1.0569,0.10886,0.10696,0.057
-9.7,-1.0486,0.10711,0.10521,0.0554
-9.6,-1.0403,0.10537,0.10347,0.0537
-9.5,-1.0318,0.10364,0.10174,0.0521
-9.4,-1.0232,0.10192,0.10003,0.0504
-9.3,-1.0146,0.10021,0.09833,0.0487
-9.2,-1.0059,0.09852,0.09664,0.047
-9.1,-0.9971,0.09684,0.09498,0.0453
-9,-0.9882,0.09518,0.09332,0.0436
-8.9,-0.9793,0.09354,0.09169,0.0418
-8.8,-0.9703,0.09192,0.09007,0.0401
-8.7,-0.9613,0.09031,0.08847,0.0384
-8.6,-0.9522,0.08872,0.08689,0.0366
-8.5,-0.9431,0.08715,0.08532,0.0348
-8.4,-0.9338,0.08559,0.08377,0.033
-8.3,-0.9244,0.08404,0.08222,0.0312
-8.2,-0.915,0.08249,0.08068,0.0293
-8.1,-0.9055,0.08097,0.07917,0.0274
-8,-0.8959,0.07945,0.07766,0.0255
-7.9,-0.8862,0.0779,0.07612,0.0235
-7.8,-0.8766,0.07625,0.07448,0.0214
-7.7,-0.8651,0.07483,0.07306,0.0191
-7.6,-0.8517,0.07333,0.07154,0.0163
-7.5,-0.8418,0.07204,0.07023,0.0145
-7.3,-0.8242,0.06968,0.06782,0.0117
-7.2,-0.815,0.06848,0.06658,0.0102
-7.1,-0.8057,0.06729,0.06534,0.0087
-7,-0.7954,0.06604,0.06407,0.0068
-6.9,-0.7849,0.06481,0.06281,0.0049
-6.8,-0.7738,0.06355,0.06153,0.0028
-6.7,-0.7626,0.06231,0.06026,0.0006
-6.6,-0.7512,0.06108,0.05899,-0.0015
-6.5,-0.7391,0.05981,0.0577,-0.0039
-6.4,-0.7269,0.05854,0.0564,-0.0064
-6.3,-0.7143,0.05727,0.05511,-0.009
-6.2,-0.7017,0.05601,0.05382,-0.0117
-6.1,-0.6879,0.05475,0.05253,-0.0149
-5.9,-0.6493,0.05171,0.04941,-0.0237
-5.8,-0.628,0.05001,0.04767,-0.0287
-5.7,-0.6059,0.04835,0.04597,-0.0337
-5.6,-0.583,0.04679,0.04437,-0.0385
-5.5,-0.5595,0.0452,0.04273,-0.0432
-5.3,-0.5107,0.04179,0.03922,-0.053
-5.2,-0.486,0.04,0.03735,-0.0578
-5.1,-0.4602,0.03793,0.03521,-0.0631
-5,-0.4347,0.03579,0.03298,-0.0682
-4.9,-0.409,0.03344,0.03054,-0.0734
-4.8,-0.3846,0.03146,0.02845,-0.0775
-4.6,-0.338,0.02712,0.02384,-0.0852
-4,-0.2129,0.01493,0.00994,-0.0981
-3.9,-0.1915,0.01387,0.00851,-0.0981
-3.8,-0.1695,0.01304,0.00735,-0.0979
-3.6,-0.1253,0.01215,0.00606,-0.0969
-3.5,-0.1033,0.01183,0.00559,-0.0963
-3.4,-0.0822,0.01165,0.00523,-0.0957
-3.3,-0.0607,0.01145,0.00493,-0.0952
-3.2,-0.0396,0.01132,0.00471,-0.0948
-3.1,-0.0185,0.01119,0.00451,-0.0944
-3,0.0024,0.0111,0.00435,-0.094
-2.9,0.0227,0.01104,0.0042,-0.0935
-2.8,0.043,0.01097,0.00407,-0.0932
-2.7,0.0635,0.01089,0.00395,-0.0929
-2.6,0.0838,0.01083,0.00384,-0.0926
-2.5,0.1037,0.01081,0.00376,-0.0923
-2.4,0.1238,0.01075,0.00366,-0.092
-2.3,0.1437,0.0107,0.00359,-0.0918
-2.2,0.1634,0.01069,0.00353,-0.0915
-2.1,0.1829,0.01067,0.00347,-0.0913
-2,0.2027,0.01064,0.00342,-0.0911
-1.9,0.2222,0.01063,0.00337,-0.0909
-1.8,0.2416,0.0106,0.00333,-0.0908
-1.7,0.261,0.0106,0.0033,-0.0906
-1.6,0.2799,0.01063,0.00327,-0.0904
-1.5,0.2992,0.01063,0.00325,-0.0903
-1.4,0.3184,0.01064,0.00323,-0.0902
-1.3,0.3376,0.01062,0.00322,-0.0901
-1.2,0.3566,0.01064,0.00321,-0.0899
-1.1,0.3756,0.01066,0.00321,-0.0898
-1,0.3945,0.01069,0.00321,-0.0897
-0.9,0.4132,0.01073,0.00323,-0.0896
-0.8,0.4312,0.01084,0.00327,-0.0895
-0.7,0.4495,0.01093,0.00332,-0.0893
-0.6,0.4677,0.01103,0.00336,-0.0892
-0.5,0.4857,0.01113,0.00341,-0.0891
-0.4,0.5038,0.01126,0.00349,-0.089
-0.3,0.5221,0.01137,0.00355,-0.0889
-0.2,0.5408,0.01143,0.0036,-0.0889
-0.1,0.5595,0.0115,0.00366,-0.0888
0,0.5782,0.0116,0.00372,-0.0887
0.1,0.5972,0.01165,0.00378,-0.0887
0.2,0.6163,0.0117,0.00382,-0.0886
0.3,0.6354,0.01174,0.00388,-0.0886
0.4,0.6545,0.0118,0.00394,-0.0885
0.5,0.6738,0.01184,0.00399,-0.0884
0.6,0.6931,0.01187,0.00405,-0.0884
0.7,0.7124,0.01192,0.00411,-0.0883
0.8,0.7317,0.01199,0.00417,-0.0882
0.9,0.751,0.01201,0.00424,-0.0882
1,0.7706,0.01206,0.00431,-0.0881
1.1,0.7901,0.01211,0.00438,-0.0881
1.2,0.8096,0.01214,0.00445,-0.088
1.3,0.8293,0.01219,0.00453,-0.0879
1.4,0.8491,0.01223,0.0046,-0.0878
1.5,0.869,0.01223,0.00468,-0.0878
1.6,0.8889,0.01228,0.00476,-0.0877
1.7,0.9089,0.01233,0.00484,-0.0876
1.8,0.929,0.01234,0.00493,-0.0876
1.9,0.949,0.01237,0.00503,-0.0874
2,0.9694,0.0124,0.00512,-0.0873
2.1,0.9897,0.01236,0.00521,-0.0872
2.2,1.0102,0.01238,0.00531,-0.0871
2.4,1.0505,0.01235,0.00555,-0.0867
2.5,1.0693,0.01224,0.00567,-0.0861
2.6,1.0883,0.01224,0.00579,-0.0854
2.7,1.1062,0.01224,0.0059,-0.0845
2.8,1.1158,0.01213,0.00596,-0.0818
2.9,1.1343,0.01217,0.00602,-0.0809
3,1.1574,0.01227,0.00613,-0.0808
3.1,1.1798,0.01239,0.00626,-0.0806
3.2,1.202,0.01253,0.00641,-0.0803
3.3,1.2244,0.01267,0.00656,-0.0799
3.4,1.2471,0.01282,0.00672,-0.0796
3.5,1.2699,0.01298,0.0069,-0.0792
3.6,1.2929,0.01315,0.00708,-0.0788
3.7,1.3162,0.01333,0.00727,-0.0784
3.8,1.3399,0.01352,0.00749,-0.0779
3.9,1.3641,0.01373,0.00774,-0.0775
4,1.3883,0.01396,0.00802,-0.077
4.1,1.4127,0.01422,0.00833,-0.0765
4.2,1.437,0.01449,0.00867,-0.0759
4.3,1.4613,0.01481,0.00907,-0.0752
4.4,1.4851,0.01517,0.00953,-0.0745
4.5,1.508,0.01559,0.01007,-0.0738
4.6,1.5291,0.0161,0.01076,-0.0729
4.7,1.5483,0.01668,0.01153,-0.0719
4.8,1.5654,0.01732,0.01238,-0.0707
4.9,1.5802,0.01803,0.0133,-0.0695
5,1.5927,0.01881,0.01429,-0.0682
5.1,1.6029,0.01964,0.01533,-0.0668
5.2,1.6109,0.02053,0.01641,-0.0654
5.3,1.6167,0.02145,0.01753,-0.0639
5.4,1.6204,0.02242,0.01867,-0.0624
5.5,1.6222,0.02342,0.01983,-0.0609
5.6,1.6191,0.02456,0.02112,-0.0594
5.7,1.6139,0.02573,0.02244,-0.058
5.8,1.6064,0.02692,0.02377,-0.0566
6,1.588,0.02926,0.02631,-0.0541
6.1,1.5761,0.03042,0.02755,-0.0529
6.9,1.5256,0.04871,0.04642,-0.0841
7,1.5264,0.05061,0.04833,-0.0873
7.1,1.5284,0.05236,0.0501,-0.0903
7.2,1.5259,0.05454,0.05227,-0.0941
7.3,1.5255,0.0565,0.05424,-0.0976
7.4,1.5268,0.0583,0.05605,-0.1006
7.5,1.529,0.06,0.05775,-0.1035
7.6,1.5324,0.06158,0.05933,-0.106
7.7,1.5364,0.06309,0.06084,-0.1084
7.8,1.541,0.06453,0.06229,-0.1106
7.9,1.5461,0.06592,0.06367,-0.1126
8,1.5477,0.06768,0.06544,-0.1155
8.1,1.5501,0.06937,0.06713,-0.1182
8.2,1.5535,0.07095,0.06871,-0.1206
8.3,1.5575,0.07247,0.07023,-0.1229
8.4,1.5621,0.07392,0.07169,-0.125
8.5,1.5669,0.07534,0.07312,-0.127
8.6,1.572,0.07673,0.0745,-0.1289
8.7,1.578,0.07801,0.0758,-0.1306
8.8,1.5839,0.07931,0.0771,-0.1323
8.9,1.5882,0.08082,0.07859,-0.1344
9,1.5911,0.08248,0.08027,-0.1367
9.1,1.5951,0.08404,0.08182,-0.1389
9.2,1.5997,0.08553,0.08332,-0.1408
9.3,1.6046,0.08699,0.08478,-0.1427
9.4,1.6097,0.08841,0.08621,-0.1445
9.5,1.6151,0.08981,0.08761,-0.1463
9.6,1.6206,0.09118,0.08899,-0.1479
9.7,1.6262,0.09254,0.09035,-0.1495
9.8,1.632,0.09387,0.09169,-0.1511
10,1.6418,0.09684,0.09465,-0.1547
10.1,1.6457,0.09848,0.0963,-0.1567
10.2,1.6503,0.10004,0.09786,-0.1586
10.3,1.6551,0.10156,0.09939,-0.1604
10.4,1.6602,0.10305,0.10088,-0.1621
10.5,1.6654,0.10452,0.10236,-0.1638
10.6,1.6708,0.10597,0.10381,-0.1654
10.7,1.6762,0.1074,0.10525,-0.167
10.8,1.6817,0.10881,0.10666,-0.1685
10.9,1.6873,0.1102,0.10806,-0.17
11,1.693,0.11158,0.10944,-0.1715
11.1,1.6986,0.11293,0.1108,-0.1729
11.2,1.7018,0.11477,0.11263,-0.175
11.3,1.7059,0.11644,0.11431,-0.1769
11.4,1.7104,0.11804,0.11592,-0.1786
11.5,1.7151,0.11961,0.11749,-0.1803
11.6,1.7199,0.12115,0.11904,-0.1819
11.7,1.7248,0.12268,0.12057,-0.1835
11.8,1.7299,0.12419,0.12208,-0.185
11.9,1.735,0.12569,0.12359,-0.1865
12,1.7402,0.12719,0.12509,-0.188
12.1,1.7454,0.12868,0.12658,-0.1895
12.2,1.7508,0.13016,0.12807,-0.1909
12.3,1.7562,0.13163,0.12955,-0.1923
12.4,1.7617,0.13311,0.13103,-0.1937
12.5,1.7658,0.13494,0.13286,-0.1955
12.6,1.7693,0.13706,0.13498,-0.1977
12.7,1.774,0.13883,0.13676,-0.1995
12.8,1.7788,0.14058,0.13852,-0.2011
12.9,1.7839,0.14232,0.14026,-0.2027
13,1.789,0.14405,0.14199,-0.2043
13.1,1.7942,0.14577,0.14372,-0.2059
13.2,1.7994,0.14749,0.14545,-0.2075
13.3,1.8048,0.1492,0.14716,-0.209
13.4,1.8102,0.15092,0.14889,-0.2105
13.5,1.8156,0.15264,0.15061,-0.212
13.6,1.8212,0.15436,0.15233,-0.2135
13.7,1.8267,0.15608,0.15407,-0.215
13.8,1.8324,0.15781,0.1558,-0.2165
13.9,1.8366,0.16005,0.15803,-0.2185
14,1.8408,0.16242,0.16041,-0.2207
14.1,1.8459,0.16446,0.16246,-0.2224
14.2,1.8511,0.16648,0.16449,-0.2242
14.3,1.8564,0.1685,0.16651,-0.2259
14.4,1.8617,0.17051,0.16853,-0.2276
14.5,1.8672,0.17252,0.17054,-0.2292
14.6,1.8727,0.17452,0.17255,-0.2309
14.7,1.8783,0.17654,0.17457,-0.2325
14.8,1.8839,0.17855,0.17659,-0.2341
14.9,1.8895,0.18057,0.17862,-0.2358
15,1.8953,0.1826,0.18065,-0.2374
15.1,1.901,0.18463,0.18269,-0.239
15.2,1.9068,0.18667,0.18473,-0.2406
15.3,1.9126,0.18872,0.18679,-0.2422
15.4,1.9172,0.19129,0.18936,-0.2443
15.5,1.9219,0.19397,0.19204,-0.2465
15.6,1.9273,0.19632,0.1944,-0.2484
15.7,1.9327,0.19865,0.19673,-0.2502
15.8,1.9383,0.20097,0.19906,-0.252
15.9,1.9438,0.20329,0.20139,-0.2538
16,1.9495,0.20561,0.20371,-0.2556
16.1,1.9552,0.20793,0.20604,-0.2574
16.2,1.9609,0.21026,0.20838,-0.2592
16.3,1.9666,0.21259,0.21071,-0.2609
16.4,1.9724,0.21493,0.21306,-0.2627
16.5,1.9782,0.21727,0.21541,-0.2644
16.6,1.984,0.21963,0.21777,-0.2662
16.7,1.9898,0.22199,0.22013,-0.2679
16.8,1.9957,0.22436,0.22251,-0.2697
16.9,2.0016,0.22673,0.22489,-0.2714
17,2.0075,0.22913,0.22729,-0.2732
17.1,2.013,0.23174,0.2299,-0.2751
17.2,2.0182,0.23453,0.2327,-0.2772
17.3,2.0234,0.23752,0.23569,-0.2795
17.4,2.029,0.24018,0.23837,-0.2814
17.5,2.0346,0.24283,0.24102,-0.2833
17.6,2.0403,0.24548,0.24368,-0.2853
17.7,2.0461,0.24812,0.24633,-0.2872
17.8,2.0519,0.25078,0.24899,-0.2891
17.9,2.0577,0.25343,0.25164,-0.291
18,2.0635,0.2561,0.25432,-0.2929
18.1,2.0693,0.25876,0.25699,-0.2947
18.2,2.0752,0.26144,0.25968,-0.2966
18.3,2.0811,0.26413,0.26237,-0.2985
18.4,2.0871,0.26682,0.26508,-0.3004
18.5,2.093,0.26953,0.2678,-0.3023
18.6,2.099,0.27225,0.27052,-0.3042
18.7,2.105,0.27499,0.27327,-0.306
18.8,2.111,0.27774,0.27603,-0.3079
18.9,2.116,0.28128,0.27957,-0.3105
19,2.1215,0.2844,0.2827,-0.3126
19.1,2.1271,0.28749,0.28579,-0.3148
19.2,2.1329,0.29055,0.28887,-0.3169
19.3,2.1387,0.29362,0.29194,-0.3189
19.4,2.1445,0.29668,0.29501,-0.321

