airfoilName st7.dat
Re 	8.700000e+05
M 	7.000000e-01
N 	4.500000e+00
VACC 	0 VACCflag 1
XTR 	1.00 	1.00 XTRflag 0
alpha,cl,cd,cdp,cm
-17,-1.5938,0.29053,0.28852,0.1802
-16.9,-1.5862,0.28692,0.28492,0.1782
-16.8,-1.5786,0.28348,0.28147,0.1762
-16.7,-1.571,0.28006,0.27806,0.1741
-16.6,-1.5634,0.27667,0.27467,0.1721
-16.5,-1.5558,0.27333,0.27134,0.1701
-16.4,-1.5482,0.27002,0.26802,0.1681
-16.3,-1.5406,0.26672,0.26473,0.1662
-16.2,-1.533,0.26347,0.26148,0.1642
-16.1,-1.5255,0.26025,0.25825,0.1623
-16,-1.5179,0.25705,0.25506,0.1603
-15.9,-1.5104,0.25388,0.25189,0.1584
-15.8,-1.5029,0.25075,0.24876,0.1565
-15.7,-1.4953,0.24764,0.24565,0.1546
-15.6,-1.4878,0.24456,0.24258,0.1527
-15.5,-1.4803,0.24151,0.23953,0.1508
-15.4,-1.4728,0.23849,0.23651,0.149
-15.3,-1.4653,0.23549,0.23351,0.1471
-15.2,-1.4578,0.23253,0.23055,0.1453
-15.1,-1.4503,0.22959,0.22761,0.1434
-15,-1.4428,0.22668,0.22471,0.1416
-14.9,-1.4354,0.2238,0.22182,0.1398
-14.8,-1.4279,0.22094,0.21897,0.138
-14.7,-1.4205,0.21812,0.21615,0.1362
-14.6,-1.413,0.21532,0.21335,0.1344
-14.5,-1.4056,0.21255,0.21058,0.1326
-14.4,-1.3982,0.2098,0.20784,0.1309
-14.3,-1.3908,0.20709,0.20512,0.1291
-14.2,-1.3834,0.2044,0.20243,0.1274
-14.1,-1.3761,0.20173,0.19977,0.1257
-14,-1.3687,0.19909,0.19713,0.124
-13.9,-1.3614,0.19649,0.19453,0.1223
-13.8,-1.3541,0.19389,0.19194,0.1206
-13.7,-1.3467,0.19134,0.18938,0.1189
-13.6,-1.3394,0.1888,0.18684,0.1172
-13.5,-1.3322,0.18628,0.18433,0.1155
-13.4,-1.3249,0.1838,0.18185,0.1139
-13.3,-1.3176,0.18134,0.17939,0.1122
-13.2,-1.3103,0.1789,0.17695,0.1106
-13.1,-1.3031,0.17648,0.17454,0.1089
-13,-1.2959,0.17409,0.17214,0.1073
-12.9,-1.2886,0.17172,0.16978,0.1057
-12.8,-1.2814,0.16938,0.16744,0.1041
-12.7,-1.2742,0.16704,0.16511,0.1025
-12.6,-1.267,0.16475,0.16282,0.1009
-12.5,-1.2598,0.16246,0.16053,0.0993
-12.4,-1.2524,0.15981,0.15788,0.0975
-12.3,-1.2452,0.15755,0.15562,0.0959
-12.2,-1.2379,0.1553,0.15337,0.0943
-12.1,-1.2307,0.15305,0.15113,0.0927
-12,-1.2235,0.15081,0.14889,0.0911
-11.9,-1.2162,0.14852,0.1466,0.0895
-11.8,-1.209,0.14631,0.1444,0.0879
-11.7,-1.2019,0.14428,0.14238,0.0864
-11.6,-1.1947,0.14228,0.14038,0.0849
-11.5,-1.1875,0.1403,0.1384,0.0834
-11.4,-1.1803,0.13833,0.13644,0.0819
-11.3,-1.1731,0.13639,0.1345,0.0804
-11.2,-1.1659,0.13446,0.13257,0.0789
-11.1,-1.1586,0.13255,0.13067,0.0774
-11,-1.1513,0.13066,0.12878,0.0759
-10.9,-1.144,0.12878,0.12691,0.0744
-10.8,-1.1366,0.12692,0.12505,0.0729
-10.7,-1.1291,0.12507,0.1232,0.0714
-10.6,-1.1215,0.12323,0.12136,0.0698
-10.5,-1.1139,0.12139,0.11953,0.0683
-10.4,-1.1062,0.11956,0.11771,0.0667
-10.3,-1.0983,0.11774,0.11589,0.0652
-10.2,-1.0904,0.11593,0.11408,0.0636
-10.1,-1.0825,0.11413,0.11229,0.062
-10,-1.0744,0.11234,0.1105,0.0604
-9.9,-1.0662,0.11056,0.10872,0.0588
-9.8,-1.058,0.10879,0.10696,0.0572
-9.7,-1.0497,0.10704,0.10521,0.0555
-9.6,-1.0413,0.1053,0.10348,0.0539
-9.5,-1.0328,0.10357,0.10176,0.0522
-9.4,-1.0242,0.10186,0.10005,0.0506
-9.3,-1.0156,0.10015,0.09835,0.0489
-9.2,-1.0068,0.09846,0.09667,0.0472
-9.1,-0.998,0.09679,0.095,0.0455
-9,-0.9892,0.09514,0.09335,0.0437
-8.9,-0.9802,0.0935,0.09172,0.042
-8.8,-0.9713,0.09188,0.09011,0.0403
-8.7,-0.9622,0.09029,0.08852,0.0385
-8.6,-0.9531,0.0887,0.08695,0.0368
-8.5,-0.9439,0.08714,0.08539,0.035
-8.4,-0.9346,0.08559,0.08385,0.0332
-8.3,-0.9252,0.08405,0.08231,0.0313
-8.2,-0.9157,0.08252,0.08079,0.0295
-8.1,-0.9062,0.08102,0.07929,0.0276
-8,-0.8965,0.07952,0.07781,0.0257
-7.9,-0.8868,0.07803,0.07632,0.0238
-7.8,-0.8761,0.07651,0.07481,0.0215
-7.7,-0.8629,0.07485,0.07312,0.0186
-7.6,-0.8535,0.07335,0.0716,0.0168
-7.5,-0.8452,0.07203,0.07025,0.0154
-7.4,-0.8366,0.07084,0.06903,0.014
-7.1,-0.808,0.06726,0.06535,0.0092
-7,-0.7977,0.06603,0.06408,0.0073
-6.9,-0.7868,0.06477,0.06281,0.0052
-6.8,-0.7757,0.06353,0.06153,0.0031
-6.7,-0.7645,0.0623,0.06026,0.001
-6.6,-0.7527,0.06104,0.05898,-0.0013
-6.5,-0.7406,0.05978,0.05769,-0.0037
-6.4,-0.7282,0.05851,0.05641,-0.0062
-6.3,-0.7156,0.05724,0.05511,-0.0088
-6.2,-0.703,0.056,0.05384,-0.0115
-6.1,-0.6886,0.05472,0.05253,-0.0148
-6,-0.6699,0.05327,0.05104,-0.019
-5.9,-0.6497,0.05172,0.04945,-0.0237
-5.8,-0.6285,0.0501,0.04779,-0.0285
-5.7,-0.606,0.04835,0.046,-0.0337
-5.6,-0.5828,0.04656,0.04417,-0.0389
-5.5,-0.5591,0.04496,0.04252,-0.0437
-5.4,-0.5348,0.04328,0.0408,-0.0486
-5.3,-0.5104,0.04158,0.03903,-0.0534
-5.2,-0.4853,0.03976,0.03715,-0.0583
-5.1,-0.4601,0.03787,0.03517,-0.0631
-4.8,-0.3841,0.03105,0.02806,-0.0782
-4.1,-0.2351,0.01594,0.0113,-0.0977
-3.9,-0.1918,0.01359,0.00825,-0.0982
-3.8,-0.1698,0.01281,0.00715,-0.0979
-3.7,-0.1477,0.01227,0.00635,-0.0974
-3.6,-0.1254,0.01193,0.00587,-0.0969
-3.5,-0.1041,0.01169,0.00546,-0.0963
-3.4,-0.0823,0.01147,0.0051,-0.0957
-3.3,-0.0609,0.0113,0.00482,-0.0952
-3.2,-0.0395,0.01115,0.0046,-0.0948
-3.1,-0.0185,0.01103,0.00441,-0.0943
-3,0.0023,0.01094,0.00425,-0.0939
-2.9,0.0227,0.01089,0.00412,-0.0935
-2.8,0.0431,0.01082,0.00399,-0.0932
-2.7,0.0635,0.01075,0.00388,-0.0929
-2.6,0.0837,0.0107,0.00378,-0.0926
-2.5,0.1038,0.01066,0.00369,-0.0923
-2.4,0.1238,0.01062,0.0036,-0.092
-2.3,0.1435,0.01059,0.00354,-0.0918
-2.2,0.1633,0.01057,0.00348,-0.0916
-2.1,0.1831,0.01054,0.00342,-0.0913
-2,0.2027,0.01052,0.00337,-0.0912
-1.9,0.2224,0.0105,0.00332,-0.091
-1.8,0.2417,0.0105,0.00328,-0.0908
-1.7,0.2613,0.01047,0.00325,-0.0907
-1.6,0.2801,0.01051,0.00323,-0.0905
-1.5,0.2993,0.01051,0.00321,-0.0904
-1.4,0.3186,0.01052,0.0032,-0.0902
-1.3,0.3377,0.01052,0.00319,-0.0901
-1.2,0.3568,0.01053,0.00318,-0.09
-1.1,0.3758,0.01055,0.00317,-0.0899
-1,0.3946,0.0106,0.00319,-0.0898
-0.9,0.4128,0.01068,0.00322,-0.0896
-0.8,0.4313,0.01075,0.00324,-0.0895
-0.7,0.4495,0.01085,0.00329,-0.0894
-0.6,0.4677,0.01097,0.00334,-0.0893
-0.5,0.4857,0.01108,0.0034,-0.0892
-0.4,0.5039,0.01119,0.00347,-0.0891
-0.3,0.5226,0.01128,0.00352,-0.089
-0.2,0.5413,0.01135,0.00358,-0.089
-0.1,0.5603,0.01139,0.00362,-0.0889
0,0.5789,0.01148,0.00369,-0.0889
0.1,0.5981,0.01152,0.00374,-0.0888
0.2,0.6172,0.01157,0.00378,-0.0887
0.3,0.6362,0.01162,0.00384,-0.0887
0.4,0.6556,0.01166,0.00389,-0.0886
0.5,0.6749,0.0117,0.00394,-0.0886
0.6,0.6942,0.01173,0.004,-0.0885
0.7,0.7134,0.01179,0.00406,-0.0885
0.8,0.7329,0.01184,0.00413,-0.0884
0.9,0.7523,0.01187,0.00419,-0.0884
1,0.7718,0.01192,0.00425,-0.0883
1.1,0.7914,0.01197,0.00432,-0.0882
1.2,0.8109,0.01203,0.0044,-0.0881
1.3,0.8307,0.01204,0.00446,-0.0881
1.4,0.8506,0.01208,0.00453,-0.088
1.5,0.8705,0.01212,0.00461,-0.0879
1.6,0.8904,0.01214,0.00469,-0.0879
1.7,0.9103,0.01219,0.00477,-0.0877
1.8,0.9304,0.01224,0.00486,-0.0876
1.9,0.9507,0.01224,0.00495,-0.0876
2,0.971,0.01227,0.00504,-0.0875
2.1,0.9914,0.01231,0.00513,-0.0873
2.2,1.012,0.01228,0.00522,-0.0873
2.3,1.0325,0.0123,0.00533,-0.0871
2.6,1.0928,0.01216,0.00568,-0.0862
2.7,1.1122,0.01217,0.00581,-0.0856
2.8,1.1268,0.01209,0.00591,-0.0839
3,1.158,0.01211,0.00607,-0.0809
3.1,1.1808,0.0122,0.00617,-0.0807
3.2,1.2042,0.0123,0.00629,-0.0806
3.3,1.2266,0.01244,0.00644,-0.0802
3.4,1.2492,0.01259,0.00659,-0.0799
3.5,1.272,0.01274,0.00676,-0.0795
3.6,1.2951,0.01291,0.00693,-0.0791
3.7,1.3185,0.01308,0.00712,-0.0787
3.8,1.3424,0.01326,0.00733,-0.0782
3.9,1.3666,0.01347,0.00757,-0.0778
4,1.391,0.01369,0.00783,-0.0773
4.1,1.4154,0.01392,0.00811,-0.0768
4.2,1.4402,0.01419,0.00844,-0.0762
4.3,1.4649,0.0145,0.00881,-0.0756
4.4,1.4892,0.01484,0.00925,-0.075
4.5,1.5123,0.01528,0.00983,-0.0742
4.6,1.534,0.01578,0.01049,-0.0733
4.7,1.5539,0.01634,0.01124,-0.0723
4.8,1.5715,0.01697,0.01208,-0.0712
4.9,1.5869,0.01767,0.01299,-0.07
5,1.6,0.01843,0.01396,-0.0687
5.1,1.6109,0.01925,0.01499,-0.0673
5.2,1.6194,0.02012,0.01606,-0.0659
5.3,1.6259,0.02104,0.01717,-0.0644
5.4,1.6302,0.02199,0.01829,-0.0629
5.6,1.6272,0.02421,0.02085,-0.0598
5.7,1.6228,0.02536,0.02214,-0.0583
5.8,1.6164,0.02653,0.02345,-0.0569
6,1.5994,0.02884,0.02597,-0.0543
6.1,1.5877,0.02994,0.02715,-0.0529
6.8,1.5346,0.0459,0.04368,-0.0792
6.9,1.5336,0.04803,0.04582,-0.0829
7.1,1.5328,0.05203,0.04984,-0.0897
7.2,1.5308,0.05415,0.05197,-0.0935
7.3,1.5308,0.05607,0.0539,-0.0968
7.4,1.5322,0.05786,0.0557,-0.0999
7.5,1.5345,0.05955,0.05739,-0.1027
7.6,1.538,0.06111,0.05895,-0.1052
7.7,1.5421,0.06262,0.06046,-0.1075
7.8,1.5467,0.06406,0.06191,-0.1097
7.9,1.5493,0.06571,0.06355,-0.1124
8,1.5508,0.06747,0.06532,-0.1153
8.1,1.5537,0.0691,0.06695,-0.1178
8.2,1.5574,0.07066,0.06851,-0.1202
8.3,1.5616,0.07215,0.07001,-0.1224
8.4,1.5662,0.0736,0.07146,-0.1245
8.5,1.5711,0.07501,0.07287,-0.1265
8.6,1.5764,0.07638,0.07424,-0.1283
8.7,1.5825,0.07765,0.07552,-0.13
8.8,1.5875,0.07905,0.07691,-0.1319
8.9,1.59,0.08076,0.07863,-0.1344
9,1.5937,0.08234,0.08021,-0.1366
9.1,1.5981,0.08385,0.08173,-0.1387
9.2,1.6028,0.08531,0.0832,-0.1406
9.3,1.6078,0.08675,0.08464,-0.1424
9.4,1.6131,0.08816,0.08605,-0.1442
9.5,1.6185,0.08954,0.08744,-0.1459
9.6,1.6241,0.0909,0.0888,-0.1476
9.7,1.6298,0.09225,0.09015,-0.1492
9.8,1.6357,0.09357,0.09147,-0.1507
9.9,1.6397,0.09518,0.09307,-0.1527
10,1.6435,0.09682,0.09472,-0.1548
10.1,1.6479,0.09839,0.0963,-0.1567
10.2,1.6527,0.09991,0.09782,-0.1585
10.3,1.6577,0.1014,0.09932,-0.1603
10.4,1.6629,0.10287,0.10079,-0.162
10.5,1.6682,0.10432,0.10225,-0.1636
10.6,1.6737,0.10576,0.10369,-0.1652
10.7,1.6792,0.10717,0.10511,-0.1667
10.8,1.6848,0.10857,0.10651,-0.1683
10.9,1.6905,0.10995,0.1079,-0.1697
11,1.6962,0.11131,0.10926,-0.1712
11.1,1.7006,0.1129,0.11085,-0.173
11.2,1.7034,0.11481,0.11277,-0.1752
11.3,1.7079,0.11642,0.11437,-0.177
11.4,1.7126,0.11798,0.11594,-0.1787
11.5,1.7174,0.11952,0.11748,-0.1803
11.6,1.7223,0.12104,0.11901,-0.1819
11.7,1.7273,0.12254,0.12052,-0.1834
11.8,1.7324,0.12404,0.12202,-0.1849
11.9,1.7376,0.12552,0.1235,-0.1864
12,1.7428,0.127,0.12499,-0.1879
12.1,1.7482,0.12847,0.12646,-0.1893
12.2,1.7535,0.12993,0.12793,-0.1907
12.3,1.759,0.13139,0.12939,-0.1921
12.4,1.7627,0.13332,0.13132,-0.1941
12.5,1.7664,0.13533,0.13334,-0.1962
12.6,1.771,0.13709,0.1351,-0.1979
12.7,1.7759,0.13882,0.13683,-0.1996
12.8,1.7808,0.14054,0.13856,-0.2012
12.9,1.7859,0.14225,0.14027,-0.2028
13,1.7911,0.14395,0.14199,-0.2044
13.1,1.7964,0.14566,0.14369,-0.2059
13.2,1.8017,0.14736,0.1454,-0.2075
13.3,1.8071,0.14905,0.1471,-0.209
13.4,1.8125,0.15075,0.14881,-0.2105
13.5,1.818,0.15246,0.15051,-0.212
13.6,1.8236,0.15416,0.15222,-0.2134
13.7,1.8288,0.15602,0.15408,-0.2151
13.8,1.833,0.15822,0.15628,-0.2171
13.9,1.8373,0.16048,0.15856,-0.2192
14,1.8424,0.16249,0.16057,-0.2209
14.1,1.8475,0.16449,0.16257,-0.2226
14.2,1.8528,0.16648,0.16456,-0.2243
14.3,1.8582,0.16846,0.16656,-0.226
14.4,1.8636,0.17045,0.16855,-0.2276
14.5,1.8691,0.17244,0.17054,-0.2293
14.6,1.8747,0.17443,0.17254,-0.2309
14.7,1.8803,0.17642,0.17454,-0.2325
14.8,1.8859,0.17842,0.17654,-0.2342
14.9,1.8916,0.18043,0.17855,-0.2358
15,1.8974,0.18244,0.18057,-0.2374
15.1,1.9031,0.18446,0.1826,-0.239
15.2,1.9081,0.18681,0.18495,-0.2409
15.3,1.913,0.18924,0.18738,-0.2429
15.4,1.9179,0.19179,0.18994,-0.245
15.5,1.9233,0.1941,0.19225,-0.2468
15.6,1.9287,0.1964,0.19456,-0.2486
15.7,1.9342,0.1987,0.19686,-0.2504
15.8,1.9398,0.20099,0.19916,-0.2522
15.9,1.9454,0.20328,0.20146,-0.254
16,1.9511,0.20558,0.20376,-0.2557
16.1,1.9568,0.20788,0.20607,-0.2575
16.2,1.9625,0.21019,0.20839,-0.2592
16.3,1.9683,0.21251,0.21071,-0.261
16.4,1.9741,0.21483,0.21304,-0.2627
16.5,1.9799,0.21716,0.21538,-0.2645
16.6,1.9857,0.21951,0.21772,-0.2662
16.7,1.9916,0.22186,0.22008,-0.2679
16.8,1.9975,0.22422,0.22245,-0.2697
16.9,2.003,0.22677,0.225,-0.2716
17,2.0082,0.22955,0.22778,-0.2737
17.1,2.0136,0.2322,0.23045,-0.2757
17.2,2.0188,0.23506,0.23331,-0.2778
17.3,2.0245,0.23768,0.23593,-0.2798
17.4,2.0301,0.24029,0.23855,-0.2817
17.5,2.0358,0.2429,0.24117,-0.2836
17.6,2.0416,0.24553,0.2438,-0.2855
17.7,2.0474,0.24815,0.24643,-0.2873
17.8,2.0532,0.25078,0.24906,-0.2892
17.9,2.059,0.25341,0.2517,-0.2911
18,2.0648,0.25606,0.25435,-0.293
18.1,2.0707,0.2587,0.25701,-0.2948
18.2,2.0766,0.26136,0.25968,-0.2967
18.3,2.0826,0.26403,0.26236,-0.2986
18.4,2.0885,0.26671,0.26504,-0.3005
18.5,2.0945,0.26941,0.26775,-0.3023
18.6,2.1005,0.27212,0.27046,-0.3042
18.7,2.1065,0.27486,0.2732,-0.3061
18.8,2.1112,0.27842,0.27678,-0.3087
18.9,2.1168,0.28148,0.27985,-0.3108
19,2.1224,0.28451,0.28288,-0.3129
19.1,2.1281,0.28754,0.28591,-0.315
19.2,2.1339,0.29056,0.28894,-0.317
19.3,2.1397,0.29359,0.29198,-0.3191
19.4,2.1456,0.29663,0.29502,-0.3211
19.5,2.1512,0.29966,0.29807,-0.323

