airfoilName st8.dat
Re 	70000
M 	7.000000e-01
N 	4.500000e+00
VACC 	0 VACCflag 1
XTR 	1.00 	1.00 XTRflag 0
alpha,cl,cd,cdp,cm
-17.6,-1.4527,0.27956,0.27149,0.1545
-17.5,-1.4449,0.27654,0.26847,0.1524
-17.4,-1.4382,0.27427,0.26621,0.1507
-17.1,-1.4155,0.26588,0.25784,0.1447
-17,-1.4078,0.26303,0.255,0.1427
-16.9,-1.4001,0.26026,0.25223,0.1407
-16.8,-1.3925,0.25751,0.24948,0.1387
-16.7,-1.3849,0.25479,0.24676,0.1368
-16.6,-1.3774,0.2521,0.24408,0.1349
-16.5,-1.3698,0.24945,0.24143,0.133
-16.4,-1.3623,0.24682,0.2388,0.1311
-16.3,-1.3548,0.24422,0.23621,0.1292
-16.2,-1.3473,0.24165,0.23365,0.1273
-16.1,-1.3399,0.2391,0.23111,0.1255
-16,-1.3324,0.23659,0.2286,0.1237
-15.9,-1.325,0.2341,0.22611,0.1219
-15.8,-1.3176,0.23163,0.22366,0.12
-15.7,-1.3103,0.22919,0.22122,0.1183
-15.6,-1.3029,0.22678,0.21881,0.1165
-15.5,-1.2956,0.22438,0.21643,0.1147
-15.4,-1.2883,0.22201,0.21407,0.113
-15.3,-1.281,0.21967,0.21173,0.1113
-15.2,-1.2738,0.21735,0.20941,0.1095
-15.1,-1.2665,0.21504,0.20712,0.1078
-15,-1.2593,0.21276,0.20484,0.1061
-14.9,-1.2521,0.2105,0.20259,0.1045
-14.8,-1.245,0.20826,0.20036,0.1028
-14.7,-1.2379,0.20604,0.19815,0.1011
-14.6,-1.2308,0.20384,0.19596,0.0995
-14.5,-1.2237,0.20166,0.19378,0.0979
-14.4,-1.2166,0.1995,0.19161,0.0963
-14.3,-1.2095,0.19735,0.18947,0.0947
-14.2,-1.2025,0.19522,0.18735,0.0931
-14.1,-1.1955,0.1931,0.18524,0.0915
-14,-1.1884,0.191,0.18314,0.0899
-13.9,-1.1814,0.18891,0.18106,0.0883
-13.8,-1.1744,0.18684,0.179,0.0868
-13.7,-1.1675,0.18478,0.17695,0.0852
-13.6,-1.1605,0.18274,0.17492,0.0837
-13.5,-1.1536,0.18071,0.1729,0.0822
-13.4,-1.1467,0.17869,0.17089,0.0807
-13.3,-1.1398,0.17669,0.1689,0.0792
-13.2,-1.1329,0.1747,0.16692,0.0776
-13.1,-1.126,0.17273,0.16495,0.0761
-13,-1.1191,0.17076,0.16299,0.0747
-12.9,-1.1123,0.16881,0.16105,0.0732
-12.8,-1.1055,0.16686,0.15911,0.0717
-12.7,-1.0986,0.16492,0.15719,0.0702
-12.6,-1.0918,0.16299,0.15527,0.0687
-12.5,-1.085,0.16107,0.15335,0.0672
-12.4,-1.0781,0.15913,0.15143,0.0656
-12.3,-1.0712,0.15719,0.14949,0.0641
-12.2,-1.0644,0.15525,0.14759,0.0624
-12.1,-1.0576,0.15347,0.14583,0.0611
-12,-1.0509,0.1517,0.14407,0.0598
-11.9,-1.0441,0.14994,0.14233,0.0585
-11.8,-1.0374,0.14819,0.14057,0.0572
-11.7,-1.0306,0.14645,0.13884,0.0559
-11.6,-1.0238,0.14472,0.13712,0.0546
-11.4,-1.0106,0.14151,0.13395,0.0521
-11.3,-1.0037,0.13979,0.13224,0.0508
-11.2,-0.9968,0.13807,0.13053,0.0495
-11.1,-0.9898,0.13635,0.12883,0.0482
-11,-0.9828,0.13465,0.12714,0.0469
-10.9,-0.9758,0.13294,0.12544,0.0456
-10.8,-0.9687,0.13125,0.12376,0.0443
-10.7,-0.9615,0.12955,0.12208,0.0429
-10.6,-0.9543,0.12786,0.12041,0.0416
-10.5,-0.947,0.12617,0.11873,0.0403
-10.4,-0.9397,0.12449,0.11707,0.039
-10.3,-0.9323,0.12282,0.11542,0.0376
-10.2,-0.9249,0.12116,0.11377,0.0363
-10.1,-0.9174,0.1195,0.11213,0.0349
-10,-0.9099,0.11786,0.11051,0.0336
-9.9,-0.9023,0.11623,0.10889,0.0322
-9.8,-0.8947,0.11461,0.10729,0.0309
-9.7,-0.8871,0.11301,0.1057,0.0295
-9.6,-0.8795,0.11142,0.10413,0.0281
-9.5,-0.8718,0.10984,0.10257,0.0267
-9.4,-0.864,0.10828,0.10103,0.0253
-9.3,-0.8563,0.10673,0.09948,0.0239
-9.2,-0.8484,0.10519,0.09797,0.0224
-9.1,-0.8406,0.10367,0.09646,0.021
-9,-0.8327,0.10217,0.09498,0.0194
-8.8,-0.8168,0.09922,0.09211,0.0162
-8.7,-0.8091,0.09783,0.09075,0.015
-8.6,-0.8013,0.09647,0.08941,0.0138
-8.5,-0.7935,0.09512,0.08808,0.0126
-8.4,-0.7857,0.09378,0.08677,0.0114
-8.3,-0.7779,0.09246,0.08547,0.0102
-8.2,-0.77,0.09116,0.0842,0.009
-8.1,-0.7622,0.08987,0.08294,0.0077
-8,-0.7543,0.0886,0.0817,0.0065
-7.9,-0.7464,0.08735,0.08047,0.0053
-7.8,-0.7385,0.08612,0.07927,0.0041
-7.7,-0.7306,0.0849,0.07808,0.0029
-7.6,-0.7227,0.0837,0.07691,0.0016
-7.5,-0.7148,0.08251,0.07575,0.0004
-7.4,-0.7067,0.08148,0.07475,-0.0011
-7.3,-0.6989,0.08033,0.07364,-0.0024
-7.2,-0.6911,0.07919,0.07254,-0.0037
-7.1,-0.6833,0.07808,0.07146,-0.0049
-7,-0.6757,0.07698,0.0704,-0.0062
-6.9,-0.6681,0.07591,0.06937,-0.0075
-6.8,-0.6608,0.07487,0.06836,-0.0087
-6.7,-0.6536,0.07385,0.06737,-0.01
-6.6,-0.6466,0.07286,0.06642,-0.0113
-6.5,-0.6398,0.07191,0.06551,-0.0128
-6.4,-0.6341,0.07099,0.06468,-0.0135
-6.3,-0.629,0.07011,0.06385,-0.0141
-6.2,-0.6246,0.06927,0.06307,-0.0145
-6.1,-0.6208,0.06848,0.06233,-0.0148
-6,-0.6185,0.06777,0.06167,-0.0148
-5.9,-0.6171,0.06711,0.06107,-0.0147
-5.6,-0.6002,0.06451,0.05861,-0.0175
-5.5,-0.5779,0.06289,0.05699,-0.0221
-5.4,-0.5544,0.06126,0.05535,-0.027
-5.3,-0.5301,0.05962,0.05369,-0.032
-5.2,-0.5049,0.05796,0.05201,-0.0371
-5.1,-0.4821,0.05641,0.05045,-0.0416
-5,-0.4456,0.0544,0.04841,-0.0505
-4.9,-0.4244,0.05292,0.04691,-0.0539
-4.7,-0.378,0.04989,0.04381,-0.0615
-4.6,-0.356,0.04844,0.04231,-0.065
-4.5,-0.328,0.04676,0.04057,-0.0696
-2.1,0.2187,0.02107,0.01112,-0.109
-1.8,0.2758,0.02024,0.01014,-0.1082
-1.6,0.3146,0.01977,0.00959,-0.1076
-1.5,0.3325,0.0196,0.00942,-0.1072
-1.4,0.3515,0.01941,0.0092,-0.1069
-1.3,0.3695,0.01927,0.00902,-0.1064
-1.2,0.3864,0.01911,0.0089,-0.1059
-1.1,0.4026,0.019,0.00874,-0.1049
-1,0.4218,0.01885,0.00855,-0.1045
-0.9,0.4372,0.01871,0.00845,-0.1036
-0.8,0.4553,0.01859,0.00834,-0.1032
-0.7,0.4727,0.01849,0.00827,-0.1027
-0.5,0.5067,0.01821,0.00808,-0.1014
-0.4,0.5225,0.01803,0.00804,-0.1008
-0.3,0.539,0.01791,0.00798,-0.1001
-0.2,0.5539,0.01764,0.0079,-0.0991
0.1,0.5935,0.01663,0.00743,-0.0924
1.6,0.8545,0.02003,0.00953,-0.0839
1.7,0.8705,0.02034,0.00974,-0.0832
1.8,0.8872,0.02065,0.01,-0.0827
1.9,0.9041,0.02098,0.0103,-0.0821
2,0.9204,0.02133,0.01062,-0.0816
2.1,0.9371,0.02168,0.01096,-0.0811
2.2,0.9536,0.02205,0.01129,-0.0805
2.3,0.9701,0.02243,0.01168,-0.08
2.4,0.9854,0.02282,0.01202,-0.0793
2.5,1.0017,0.02323,0.01243,-0.0788
2.6,1.0177,0.02365,0.01283,-0.0782
2.7,1.0335,0.02411,0.01333,-0.0777
2.8,1.0492,0.02457,0.01381,-0.0771
2.9,1.065,0.02503,0.01427,-0.0765
3,1.0797,0.02556,0.01486,-0.076
3.1,1.0943,0.0261,0.01545,-0.0754
3.2,1.1082,0.0266,0.01591,-0.0746
3.3,1.1215,0.0272,0.01661,-0.074
3.4,1.1347,0.02781,0.01728,-0.0733
3.5,1.1481,0.02842,0.01793,-0.0726
3.6,1.1605,0.02908,0.01861,-0.0719
3.7,1.1699,0.02985,0.01952,-0.0713
3.8,1.1792,0.03062,0.0204,-0.0706
3.9,1.1885,0.03139,0.02125,-0.0699
4,1.1981,0.03216,0.02207,-0.0691
4.1,1.2018,0.03303,0.02303,-0.0683
4.2,1.2059,0.03399,0.02409,-0.0677
4.3,1.2103,0.03493,0.02512,-0.0671
4.4,1.2154,0.03585,0.02611,-0.0664
4.5,1.2213,0.03676,0.02706,-0.0657
4.6,1.2211,0.03787,0.02823,-0.0653
4.7,1.2161,0.03917,0.02966,-0.0653
4.9,1.2098,0.04159,0.03223,-0.0651
5,1.2103,0.04278,0.03346,-0.0653
5.1,1.2133,0.04391,0.03462,-0.0656
5.2,1.2086,0.04538,0.03614,-0.0672
5.4,1.2089,0.04844,0.03932,-0.071
5.5,1.2132,0.04975,0.04066,-0.0723
5.6,1.2193,0.05093,0.04186,-0.0732
5.7,1.2269,0.052,0.04295,-0.0738
5.8,1.2244,0.0541,0.04509,-0.078
5.9,1.2267,0.05583,0.04686,-0.0809
6,1.2315,0.0573,0.04835,-0.0828
6.1,1.2377,0.05861,0.04968,-0.0843
6.4,1.2522,0.06295,0.05405,-0.0908
6.5,1.2579,0.06435,0.05546,-0.0926
6.6,1.2646,0.06562,0.05675,-0.0941
6.7,1.2718,0.0668,0.05794,-0.0952
6.8,1.2796,0.06793,0.05907,-0.096
6.9,1.2878,0.069,0.06015,-0.0966
7,1.2912,0.07066,0.0618,-0.0996
7.1,1.2953,0.07223,0.06339,-0.1022
7.2,1.3006,0.07348,0.06467,-0.1045
7.3,1.3078,0.07465,0.06585,-0.1056
7.4,1.3155,0.07579,0.06699,-0.1064
7.5,1.3234,0.07689,0.0681,-0.1072
7.6,1.3299,0.07817,0.06936,-0.1086
7.7,1.3333,0.07977,0.07099,-0.1117
7.8,1.3386,0.08117,0.07239,-0.1137
7.9,1.3447,0.08247,0.07371,-0.1153
8,1.3513,0.08373,0.07499,-0.1167
8.1,1.3582,0.08496,0.07622,-0.1178
8.2,1.3653,0.08616,0.07744,-0.1188
8.4,1.3778,0.0885,0.07976,-0.1218
8.5,1.3826,0.08993,0.08121,-0.124
8.6,1.3883,0.09127,0.08256,-0.1257
8.7,1.3944,0.09257,0.08387,-0.1271
8.8,1.4009,0.09384,0.08516,-0.1284
8.9,1.4075,0.09509,0.08642,-0.1295
9,1.4144,0.09632,0.08768,-0.1306
9.1,1.4214,0.09754,0.08891,-0.1315
9.2,1.4286,0.09876,0.09014,-0.1323
9.3,1.4359,0.09997,0.09136,-0.133
9.4,1.4408,0.10137,0.09275,-0.1349
9.5,1.445,0.10286,0.09425,-0.1372
9.6,1.4486,0.10414,0.09556,-0.1398
9.7,1.4548,0.10545,0.09688,-0.141
9.8,1.4612,0.10674,0.09818,-0.1421
9.9,1.4677,0.10803,0.09948,-0.1431
10,1.4743,0.1093,0.10077,-0.1441
10.1,1.481,0.11057,0.10205,-0.1449
10.2,1.4879,0.11184,0.10333,-0.1457
10.3,1.4938,0.1132,0.10467,-0.147
10.4,1.4974,0.11475,0.10624,-0.1494
10.5,1.5022,0.11621,0.10773,-0.1512
10.6,1.5075,0.11764,0.10917,-0.1528
10.7,1.513,0.11905,0.1106,-0.1542
10.8,1.5187,0.12045,0.11203,-0.1555
10.9,1.5242,0.12154,0.11312,-0.1567
11,1.5304,0.12287,0.11447,-0.1577
11.1,1.5367,0.1242,0.11581,-0.1586
11.2,1.543,0.12552,0.11715,-0.1595
11.3,1.5495,0.12684,0.11849,-0.1603
11.4,1.553,0.12843,0.12006,-0.1626
11.5,1.5573,0.12997,0.12162,-0.1645
11.6,1.5621,0.13148,0.12314,-0.1661
11.7,1.5673,0.13295,0.12464,-0.1676
11.8,1.5726,0.13442,0.12612,-0.169
11.9,1.5781,0.13587,0.12759,-0.1703
12,1.5837,0.13732,0.12906,-0.1715
12.1,1.5894,0.13877,0.13052,-0.1727
12.2,1.5952,0.14021,0.13198,-0.1738
12.3,1.601,0.14165,0.13344,-0.1749
12.5,1.6123,0.14409,0.13588,-0.1769
12.6,1.6159,0.14576,0.13758,-0.1791
12.7,1.6203,0.14737,0.1392,-0.1809
12.8,1.6252,0.14895,0.1408,-0.1825
12.9,1.6303,0.15051,0.14238,-0.184
13,1.6356,0.15206,0.14395,-0.1854
13.1,1.6409,0.1536,0.14551,-0.1868
13.2,1.6464,0.15515,0.14707,-0.1881
13.3,1.652,0.15669,0.14863,-0.1894
13.4,1.6577,0.15823,0.15019,-0.1906
13.5,1.6634,0.15977,0.15175,-0.1918
13.6,1.6692,0.16131,0.1533,-0.1931
13.7,1.675,0.16284,0.15486,-0.1942
13.8,1.6809,0.16438,0.15641,-0.1954
13.9,1.6869,0.16593,0.15797,-0.1965
14,1.6929,0.16747,0.15953,-0.1976
14.1,1.6935,0.16931,0.16136,-0.2011
14.2,1.6988,0.17102,0.16309,-0.2027
14.3,1.7041,0.17273,0.16482,-0.2043
14.4,1.7096,0.17442,0.16655,-0.2058
14.5,1.7151,0.17612,0.16826,-0.2072
14.6,1.7207,0.17781,0.16997,-0.2087
14.7,1.7264,0.17949,0.17167,-0.2101
14.8,1.7321,0.18118,0.17337,-0.2115
14.9,1.7378,0.18286,0.17508,-0.2129
15,1.7436,0.18455,0.17678,-0.2142
15.1,1.7495,0.18623,0.17848,-0.2156
15.2,1.7553,0.18791,0.18018,-0.2169
15.3,1.7612,0.18959,0.18188,-0.2182
15.4,1.7672,0.19127,0.18358,-0.2195
15.5,1.7732,0.19295,0.18528,-0.2208
15.6,1.7776,0.19513,0.18744,-0.2232
15.7,1.7804,0.19749,0.18982,-0.2263
15.8,1.786,0.19943,0.19179,-0.228
15.9,1.7917,0.20137,0.19375,-0.2297
16,1.7974,0.2033,0.1957,-0.2313
16.1,1.8032,0.20523,0.19765,-0.233
16.2,1.809,0.20716,0.1996,-0.2346
16.3,1.8149,0.20908,0.20156,-0.2361
16.4,1.8207,0.21101,0.2035,-0.2377
16.5,1.8267,0.21294,0.20545,-0.2393
16.6,1.8326,0.21487,0.2074,-0.2408
16.7,1.8386,0.21679,0.20935,-0.2424
16.8,1.8446,0.21872,0.21129,-0.2439
16.9,1.8506,0.22064,0.21324,-0.2455
17,1.8567,0.22257,0.21519,-0.247
17.1,1.8628,0.22449,0.21713,-0.2485
17.2,1.8687,0.22652,0.21915,-0.2502
17.3,1.8739,0.22941,0.22206,-0.2528
17.4,1.8796,0.23206,0.22473,-0.2551
17.5,1.8849,0.23542,0.22812,-0.2582
17.6,1.891,0.23782,0.23054,-0.2601
17.7,1.8971,0.2402,0.23295,-0.262
17.8,1.9032,0.24258,0.23535,-0.2638
17.9,1.9093,0.24495,0.23774,-0.2657
18,1.9155,0.24731,0.24012,-0.2675
18.1,1.9217,0.24968,0.24252,-0.2693
18.2,1.9282,0.25215,0.24501,-0.2712
18.3,1.9342,0.25442,0.24732,-0.273

