airfoilName st8.dat
Re 	790000
M 	7.000000e-01
N 	4.500000e+00
VACC 	0 VACCflag 1
XTR 	1.00 	1.00 XTRflag 0
alpha,cl,cd,cdp,cm
-18.4,-1.5676,0.3313,0.32918,0.1918
-18.3,-1.56,0.32754,0.32542,0.1896
-18.2,-1.5525,0.3239,0.32178,0.1874
-18.1,-1.545,0.32028,0.31816,0.1853
-18,-1.5375,0.31669,0.31457,0.1831
-17.9,-1.53,0.31314,0.31102,0.181
-17.8,-1.5225,0.30963,0.30751,0.1789
-17.7,-1.515,0.30614,0.30403,0.1768
-17.6,-1.5076,0.30269,0.30057,0.1747
-17.5,-1.5001,0.29926,0.29715,0.1727
-17.4,-1.4926,0.29587,0.29376,0.1706
-17.3,-1.4851,0.29251,0.2904,0.1685
-17.2,-1.4777,0.28918,0.28707,0.1665
-17.1,-1.4702,0.28588,0.28377,0.1645
-17,-1.4628,0.2826,0.2805,0.1625
-16.9,-1.4553,0.27937,0.27726,0.1605
-16.8,-1.4479,0.27616,0.27405,0.1585
-16.7,-1.4405,0.27297,0.27086,0.1565
-16.6,-1.433,0.26981,0.26771,0.1545
-16.5,-1.4256,0.26668,0.26458,0.1526
-16.4,-1.4182,0.26358,0.26148,0.1506
-16.3,-1.4108,0.26051,0.2584,0.1487
-16.2,-1.4035,0.25746,0.25536,0.1468
-16.1,-1.3961,0.25444,0.25235,0.1448
-16,-1.3887,0.25145,0.24936,0.1429
-15.9,-1.3814,0.24847,0.24638,0.1411
-15.8,-1.3737,0.24521,0.24312,0.139
-15.7,-1.3664,0.24231,0.24022,0.1371
-15.6,-1.3591,0.23944,0.23734,0.1353
-15.5,-1.3518,0.23658,0.23449,0.1334
-15.4,-1.3445,0.23375,0.23167,0.1316
-15.3,-1.3372,0.23094,0.22886,0.1298
-15.2,-1.33,0.22819,0.2261,0.128
-15.1,-1.3227,0.22543,0.22334,0.1262
-15,-1.3155,0.2227,0.22062,0.1244
-14.9,-1.3083,0.22,0.21792,0.1226
-14.8,-1.3011,0.21731,0.21523,0.1209
-14.7,-1.2939,0.21465,0.21257,0.1191
-14.6,-1.2868,0.21201,0.20993,0.1174
-14.5,-1.2796,0.20938,0.20731,0.1157
-14.4,-1.2724,0.20676,0.20469,0.1139
-14.3,-1.2652,0.20414,0.20208,0.1122
-14.2,-1.258,0.20152,0.19945,0.1105
-14,-1.2434,0.19615,0.19409,0.107
-13.9,-1.2364,0.19379,0.19173,0.1053
-13.8,-1.2294,0.19145,0.1894,0.1037
-13.7,-1.2224,0.18914,0.18709,0.1021
-13.6,-1.2154,0.18685,0.1848,0.1006
-13.5,-1.2084,0.18458,0.18253,0.099
-13.4,-1.2015,0.18233,0.18029,0.0974
-13.3,-1.1945,0.1801,0.17806,0.0959
-13.2,-1.1875,0.1779,0.17586,0.0943
-13.1,-1.1806,0.17571,0.17367,0.0928
-13,-1.1737,0.17354,0.17151,0.0912
-12.9,-1.1667,0.1714,0.16936,0.0897
-12.8,-1.1598,0.16927,0.16724,0.0882
-12.7,-1.1529,0.16717,0.16514,0.0867
-12.6,-1.146,0.16508,0.16306,0.0852
-12.5,-1.139,0.16301,0.16099,0.0837
-12.4,-1.1321,0.16097,0.15895,0.0823
-12.3,-1.1252,0.15894,0.15692,0.0808
-12.2,-1.1183,0.15693,0.15492,0.0793
-12.1,-1.1113,0.15494,0.15293,0.0779
-12,-1.1044,0.15295,0.15095,0.0764
-11.9,-1.0974,0.15098,0.14898,0.0749
-11.8,-1.0904,0.14902,0.14702,0.0735
-11.7,-1.0833,0.14708,0.14508,0.072
-11.6,-1.0762,0.14514,0.14315,0.0706
-11.5,-1.0691,0.14323,0.14123,0.0691
-11.4,-1.062,0.14132,0.13933,0.0677
-11.3,-1.0548,0.13943,0.13745,0.0662
-11.2,-1.0476,0.13754,0.13556,0.0648
-11.1,-1.0404,0.13567,0.13369,0.0633
-11,-1.0331,0.13381,0.13184,0.0618
-10.9,-1.0257,0.13195,0.12998,0.0604
-10.8,-1.0183,0.13011,0.12815,0.0589
-10.7,-1.0108,0.12827,0.12632,0.0574
-10.6,-1.0032,0.12645,0.12449,0.0559
-10.5,-0.9956,0.12462,0.12267,0.0544
-10.4,-0.9879,0.12281,0.12086,0.0529
-10.3,-0.9801,0.121,0.11906,0.0514
-10.2,-0.9721,0.11912,0.11719,0.0497
-10.1,-0.9642,0.11732,0.11539,0.0482
-10,-0.9562,0.11555,0.11362,0.0467
-9.9,-0.9482,0.11377,0.11186,0.0451
-9.8,-0.9401,0.11202,0.1101,0.0436
-9.7,-0.9319,0.11027,0.10836,0.042
-9.6,-0.9238,0.10854,0.10664,0.0405
-9.5,-0.9155,0.10684,0.10494,0.0389
-9.4,-0.9072,0.10514,0.10325,0.0374
-9.3,-0.8989,0.10346,0.10157,0.0358
-9.2,-0.8905,0.10179,0.09991,0.0342
-9.1,-0.882,0.10012,0.09824,0.0326
-9,-0.8734,0.09847,0.09661,0.031
-8.9,-0.8648,0.09684,0.09497,0.0294
-8.8,-0.8562,0.09521,0.09335,0.0278
-8.7,-0.8475,0.0936,0.09175,0.0262
-8.6,-0.8388,0.092,0.09016,0.0246
-8.5,-0.83,0.09042,0.08858,0.0229
-8.4,-0.8211,0.08882,0.08699,0.0212
-8.3,-0.8122,0.08718,0.08536,0.0195
-8.2,-0.8031,0.08562,0.08382,0.0178
-8.1,-0.794,0.0842,0.08241,0.0161
-8,-0.7836,0.08275,0.08096,0.0141
-7.9,-0.7714,0.08121,0.07941,0.0116
-7.8,-0.76,0.07973,0.07792,0.0094
-7.7,-0.7506,0.07839,0.07657,0.0078
-7.6,-0.7421,0.07713,0.07529,0.0066
-7.5,-0.7337,0.0759,0.07403,0.0053
-7.4,-0.7257,0.07471,0.07281,0.0042
-7.3,-0.7169,0.07348,0.07156,0.0028
-7.2,-0.7077,0.07225,0.0703,0.0014
-7.1,-0.6981,0.07101,0.06904,-0.0002
-7,-0.6885,0.06978,0.06778,-0.0018
-6.9,-0.6787,0.06858,0.06655,-0.0034
-6.8,-0.6685,0.06735,0.0653,-0.0052
-6.7,-0.6578,0.06611,0.06404,-0.0071
-6.6,-0.6471,0.06489,0.06278,-0.009
-6.5,-0.6359,0.06366,0.06153,-0.011
-6.4,-0.6246,0.06244,0.06028,-0.013
-6.3,-0.6132,0.06122,0.05903,-0.0151
-6.2,-0.6014,0.06,0.05778,-0.0173
-6.1,-0.5895,0.05876,0.05652,-0.0197
-6,-0.5778,0.05759,0.05532,-0.022
-5.9,-0.563,0.05631,0.05401,-0.0251
-5.8,-0.5458,0.05491,0.05258,-0.0288
-5.7,-0.5275,0.05346,0.0511,-0.0327
-5.6,-0.5088,0.05199,0.04958,-0.0366
-5.5,-0.489,0.05044,0.048,-0.0408
-5.4,-0.4683,0.0488,0.04632,-0.0451
-5.2,-0.4252,0.04554,0.04299,-0.0539
-5.1,-0.4031,0.04398,0.04138,-0.058
-5,-0.3806,0.04238,0.03973,-0.0621
-4.9,-0.3578,0.04074,0.03802,-0.0662
-4.8,-0.3345,0.03903,0.03624,-0.0703
-4.6,-0.2874,0.0354,0.03245,-0.0784
-4.5,-0.2637,0.03344,0.03041,-0.0824
-4.3,-0.2173,0.02915,0.02588,-0.0901
-3.5,-0.0536,0.0143,0.00898,-0.105
-3.4,-0.0324,0.01343,0.00783,-0.1049
-3.3,-0.0117,0.01279,0.0069,-0.1046
-3.2,0.0097,0.01225,0.00615,-0.1042
-3.1,0.0309,0.01185,0.00556,-0.1038
-3,0.0518,0.01162,0.00522,-0.1033
-2.9,0.0727,0.01141,0.0049,-0.1029
-2.8,0.0933,0.01125,0.00463,-0.1025
-2.7,0.1134,0.01114,0.00441,-0.102
-2.6,0.1336,0.01103,0.00424,-0.1017
-2.5,0.1533,0.01099,0.00412,-0.1013
-2.4,0.1732,0.01092,0.00399,-0.101
-2.3,0.1931,0.01085,0.00387,-0.1007
-2.2,0.2129,0.01079,0.00377,-0.1004
-2.1,0.2321,0.01077,0.00369,-0.1001
-2,0.2517,0.01074,0.00361,-0.0999
-1.9,0.2711,0.0107,0.00354,-0.0996
-1.8,0.2903,0.01068,0.00349,-0.0994
-1.7,0.3093,0.01069,0.00345,-0.0992
-1.6,0.3285,0.01066,0.0034,-0.099
-1.5,0.3473,0.01067,0.00337,-0.0988
-1.4,0.3658,0.01069,0.00335,-0.0986
-1.3,0.3848,0.0107,0.00333,-0.0985
-1.2,0.4036,0.01071,0.00331,-0.0983
-1.1,0.4222,0.01073,0.00331,-0.0981
-1,0.4409,0.01075,0.0033,-0.098
-0.9,0.4593,0.01077,0.00332,-0.0978
-0.8,0.4776,0.01082,0.00333,-0.0977
-0.7,0.4951,0.01094,0.00338,-0.0975
-0.6,0.5129,0.01101,0.00343,-0.0973
-0.5,0.5306,0.01112,0.00347,-0.0971
-0.4,0.5481,0.01125,0.00354,-0.0969
-0.3,0.5656,0.01138,0.00362,-0.0968
-0.2,0.5834,0.01149,0.00369,-0.0966
-0.1,0.6016,0.01155,0.00374,-0.0965
0,0.6199,0.01163,0.00382,-0.0964
0.1,0.6384,0.01169,0.00387,-0.0963
0.2,0.6568,0.01174,0.00393,-0.0962
0.3,0.6752,0.01182,0.00401,-0.0961
0.4,0.6939,0.01187,0.00407,-0.096
0.5,0.7125,0.01192,0.00414,-0.0959
0.6,0.7313,0.01198,0.00421,-0.0957
0.7,0.7502,0.01203,0.00427,-0.0956
0.8,0.769,0.01208,0.00434,-0.0955
0.9,0.7878,0.01212,0.00441,-0.0954
1,0.8067,0.01218,0.0045,-0.0953
1.1,0.8256,0.01221,0.00458,-0.0952
1.2,0.8447,0.01225,0.00465,-0.095
1.3,0.8637,0.01231,0.00474,-0.0949
1.4,0.8827,0.01234,0.00483,-0.0948
1.5,0.902,0.01238,0.00492,-0.0947
1.6,0.9213,0.01242,0.00501,-0.0945
1.7,0.9407,0.01241,0.0051,-0.0944
1.8,0.9601,0.01244,0.0052,-0.0943
1.9,0.9795,0.01248,0.0053,-0.0941
2,0.9988,0.01242,0.00542,-0.094
2.2,1.0359,0.01216,0.00566,-0.0933
2.3,1.0489,0.01197,0.00578,-0.0916
2.4,1.0614,0.01194,0.00586,-0.0898
2.5,1.0766,0.01196,0.00593,-0.0884
2.6,1.0987,0.01202,0.00601,-0.0884
2.7,1.1192,0.01214,0.00614,-0.0881
2.8,1.1397,0.01227,0.00627,-0.0877
2.9,1.1603,0.0124,0.00641,-0.0873
3,1.1809,0.01254,0.00655,-0.087
3.1,1.2017,0.01268,0.0067,-0.0866
3.2,1.2223,0.01283,0.00685,-0.0861
3.3,1.2436,0.01298,0.00701,-0.0857
3.4,1.265,0.01313,0.00719,-0.0852
3.5,1.2867,0.01328,0.00737,-0.0847
3.6,1.3085,0.01345,0.00756,-0.0842
3.7,1.3304,0.01362,0.00776,-0.0837
3.8,1.3525,0.01381,0.00797,-0.0832
3.9,1.3747,0.01401,0.0082,-0.0826
4,1.3975,0.01423,0.00846,-0.082
4.1,1.4204,0.01447,0.00876,-0.0814
4.2,1.4434,0.01474,0.00909,-0.0807
4.3,1.4662,0.01504,0.00947,-0.08
4.4,1.4887,0.01538,0.00991,-0.0793
4.5,1.5106,0.01577,0.0104,-0.0784
4.6,1.5316,0.01618,0.01093,-0.0774
4.7,1.5512,0.01668,0.01156,-0.0764
4.8,1.5681,0.01729,0.01235,-0.0752
4.9,1.5826,0.01798,0.01322,-0.0738
5,1.5945,0.01872,0.01416,-0.0723
5.1,1.6038,0.01953,0.01515,-0.0707
5.2,1.6106,0.02038,0.01619,-0.069
5.3,1.615,0.02127,0.01725,-0.0672
5.4,1.6172,0.0222,0.01834,-0.0653
5.5,1.6171,0.02316,0.01944,-0.0634
5.6,1.615,0.02412,0.02055,-0.0614
5.7,1.6108,0.02509,0.02164,-0.0593
5.9,1.5925,0.02708,0.02383,-0.0549
6,1.5808,0.02827,0.02511,-0.0533
6.3,1.5511,0.03314,0.0303,-0.0556
7,1.5016,0.05085,0.04848,-0.0836
7.1,1.4985,0.05311,0.05075,-0.087
7.2,1.4973,0.05517,0.05283,-0.09
7.3,1.4974,0.05708,0.05475,-0.0928
7.4,1.4989,0.05888,0.05655,-0.0954
7.5,1.4988,0.06083,0.05849,-0.0982
7.6,1.4965,0.06299,0.06067,-0.1016
7.7,1.4964,0.06496,0.06264,-0.1045
7.8,1.4975,0.0668,0.06449,-0.1072
7.9,1.4996,0.06854,0.06623,-0.1096
8,1.5024,0.07019,0.06789,-0.1119
8.1,1.5066,0.07171,0.0694,-0.1139
8.2,1.5109,0.07321,0.07091,-0.1159
8.3,1.5158,0.07465,0.07235,-0.1177
8.4,1.5165,0.07657,0.07426,-0.1204
8.5,1.5182,0.07839,0.07609,-0.1229
8.6,1.521,0.08009,0.07779,-0.1252
8.7,1.5245,0.08172,0.07943,-0.1273
8.8,1.5284,0.08329,0.081,-0.1292
8.9,1.5328,0.0848,0.08252,-0.1311
9,1.5375,0.08628,0.084,-0.1328
9.1,1.5425,0.08772,0.08545,-0.1345
9.3,1.5538,0.09044,0.08816,-0.1375
9.4,1.5552,0.09238,0.09011,-0.14
9.5,1.5583,0.0941,0.09183,-0.1421
9.6,1.5621,0.09574,0.09348,-0.144
9.7,1.5664,0.09732,0.09506,-0.1458
9.8,1.5709,0.09886,0.09662,-0.1475
9.9,1.5758,0.10037,0.09813,-0.1492
10,1.5808,0.10186,0.09962,-0.1508
10.1,1.586,0.10331,0.10108,-0.1523
10.2,1.5913,0.10474,0.10251,-0.1538
10.3,1.5968,0.10614,0.10391,-0.1552
10.4,1.6023,0.10751,0.10529,-0.1566
10.5,1.6045,0.10947,0.10725,-0.1589
10.6,1.6081,0.1112,0.10898,-0.1608
10.7,1.6121,0.11286,0.11064,-0.1625
10.8,1.6165,0.11446,0.11225,-0.1642
10.9,1.621,0.11603,0.11383,-0.1658
11,1.6258,0.11757,0.11538,-0.1673
11.1,1.6306,0.11909,0.1169,-0.1688
11.2,1.6356,0.12058,0.11839,-0.1703
11.3,1.6406,0.12205,0.11986,-0.1717
11.4,1.6458,0.12349,0.12132,-0.1731
11.5,1.651,0.12492,0.12275,-0.1744
11.6,1.6563,0.12632,0.12416,-0.1758
11.7,1.6602,0.12806,0.12589,-0.1775
11.8,1.6627,0.13017,0.128,-0.1797
11.9,1.6667,0.1319,0.12974,-0.1815
12,1.6711,0.13359,0.13144,-0.1831
12.1,1.6756,0.13524,0.1331,-0.1847
12.2,1.6802,0.13687,0.13473,-0.1862
12.3,1.685,0.13849,0.13635,-0.1877
12.4,1.6898,0.14009,0.13796,-0.1891
12.5,1.6948,0.14168,0.13956,-0.1906
12.6,1.6999,0.14326,0.14114,-0.192
12.7,1.7051,0.14484,0.14272,-0.1934
12.8,1.7103,0.1464,0.1443,-0.1948
12.9,1.7156,0.14796,0.14586,-0.1961
13,1.72,0.14983,0.14773,-0.1979
13.1,1.7237,0.15195,0.14986,-0.1998
13.2,1.7275,0.15411,0.15202,-0.2019
13.3,1.7321,0.15601,0.15393,-0.2036
13.4,1.7369,0.15788,0.1558,-0.2052
13.5,1.7419,0.15974,0.15767,-0.2068
13.6,1.7469,0.16159,0.15952,-0.2084
13.7,1.752,0.16342,0.16137,-0.21
13.8,1.7572,0.16526,0.1632,-0.2115
13.9,1.7625,0.16709,0.16504,-0.213
14,1.7679,0.16891,0.16687,-0.2145
14.1,1.7733,0.17073,0.1687,-0.216
14.2,1.7788,0.17255,0.17052,-0.2175
14.3,1.7844,0.17437,0.17235,-0.219
14.4,1.789,0.17656,0.17453,-0.2208
14.5,1.7933,0.17893,0.17691,-0.2229
14.6,1.7981,0.18117,0.17915,-0.2247
14.7,1.8027,0.18353,0.18152,-0.2267
14.8,1.8078,0.18567,0.18367,-0.2285
14.9,1.813,0.1878,0.18581,-0.2302
15,1.8183,0.18993,0.18794,-0.2319
15.1,1.8236,0.19204,0.19006,-0.2336
15.2,1.829,0.19416,0.19218,-0.2352
15.3,1.8345,0.19628,0.19431,-0.2369
15.4,1.84,0.1984,0.19643,-0.2385
15.5,1.8456,0.20052,0.19856,-0.2401
15.6,1.8512,0.20265,0.20069,-0.2418
15.7,1.8568,0.20477,0.20283,-0.2434
15.8,1.8625,0.20691,0.20497,-0.245
15.9,1.8682,0.20905,0.20712,-0.2466
16,1.8728,0.21177,0.20983,-0.2488
16.1,1.8778,0.21436,0.21244,-0.2508
16.2,1.8829,0.21688,0.21496,-0.2528
16.3,1.8882,0.21935,0.21744,-0.2546
16.4,1.8935,0.222,0.2201,-0.2567
16.5,1.899,0.22445,0.22255,-0.2585
16.6,1.9045,0.2269,0.22501,-0.2603
16.7,1.9101,0.22935,0.22746,-0.2621
16.8,1.9157,0.23179,0.22991,-0.2639
16.9,1.9213,0.23424,0.23237,-0.2657
17,1.927,0.2367,0.23483,-0.2675
17.1,1.9328,0.23916,0.2373,-0.2693
17.2,1.9385,0.24162,0.23977,-0.2711
17.3,1.9443,0.2441,0.24225,-0.2729
17.4,1.9502,0.24658,0.24474,-0.2746
17.5,1.956,0.24907,0.24724,-0.2764
17.6,1.9619,0.25156,0.24974,-0.2782
17.7,1.9678,0.25407,0.25226,-0.28
17.8,1.9737,0.25661,0.2548,-0.2818
17.9,1.9786,0.25976,0.25796,-0.2841
18,1.984,0.26271,0.26091,-0.2862
18.1,1.9895,0.26557,0.26378,-0.2882
18.2,1.9949,0.26865,0.26687,-0.2904
18.3,2.0006,0.2715,0.26973,-0.2924
18.4,2.0064,0.27435,0.27258,-0.2944
18.5,2.0122,0.27719,0.27544,-0.2964
18.6,2.018,0.28004,0.27829,-0.2983
18.7,2.0239,0.28291,0.28117,-0.3003
18.8,2.0298,0.28577,0.28404,-0.3022
18.9,2.0357,0.28864,0.28693,-0.3041
19,2.0418,0.29153,0.28982,-0.3061
19.1,2.0478,0.29443,0.29273,-0.308
19.2,2.0534,0.29779,0.29609,-0.3103
19.3,2.0585,0.3014,0.29971,-0.3128
19.4,2.064,0.3048,0.30312,-0.3151
19.5,2.0697,0.30815,0.30647,-0.3173
19.6,2.0754,0.31145,0.30978,-0.3195
19.7,2.0812,0.31473,0.31307,-0.3217
19.8,2.0872,0.31806,0.31642,-0.3238

