airfoilName st8.dat
Re 	890000
M 	7.000000e-01
N 	4.500000e+00
VACC 	0 VACCflag 1
XTR 	1.00 	1.00 XTRflag 0
alpha,cl,cd,cdp,cm
-18.4,-1.5689,0.33136,0.32938,0.1921
-18.3,-1.5614,0.3276,0.32562,0.19
-18.2,-1.5539,0.32396,0.32199,0.1878
-18.1,-1.5464,0.32035,0.31837,0.1857
-18,-1.5389,0.31677,0.3148,0.1835
-17.9,-1.5314,0.31323,0.31126,0.1814
-17.8,-1.524,0.30972,0.30775,0.1793
-17.7,-1.5165,0.30625,0.30428,0.1772
-17.6,-1.509,0.3028,0.30083,0.1751
-17.5,-1.5016,0.29939,0.29742,0.1731
-17.4,-1.4941,0.29601,0.29404,0.171
-17.3,-1.4867,0.29266,0.29069,0.169
-17.2,-1.4792,0.28934,0.28737,0.1669
-17.1,-1.4718,0.28605,0.28408,0.1649
-17,-1.4644,0.28278,0.28082,0.1629
-16.9,-1.457,0.27956,0.2776,0.1609
-16.8,-1.4495,0.27636,0.2744,0.1589
-16.7,-1.4421,0.27319,0.27122,0.1569
-16.6,-1.4347,0.27004,0.26808,0.155
-16.5,-1.4274,0.26693,0.26497,0.153
-16.4,-1.42,0.26384,0.26188,0.1511
-16.3,-1.4126,0.26078,0.25882,0.1492
-16.2,-1.4052,0.25776,0.2558,0.1473
-16.1,-1.3979,0.25475,0.25279,0.1454
-16,-1.3906,0.25178,0.24982,0.1435
-15.9,-1.3832,0.24882,0.24686,0.1416
-15.8,-1.3759,0.24589,0.24394,0.1397
-15.7,-1.3686,0.243,0.24105,0.1379
-15.6,-1.3613,0.24013,0.23818,0.136
-15.5,-1.3538,0.23707,0.23512,0.1341
-15.4,-1.3465,0.23426,0.23231,0.1322
-15.3,-1.3393,0.23147,0.22952,0.1304
-15.2,-1.3321,0.22873,0.22678,0.1286
-15.1,-1.3249,0.22599,0.22405,0.1269
-15,-1.3177,0.22329,0.22135,0.1251
-14.9,-1.3105,0.22061,0.21867,0.1233
-14.8,-1.3033,0.21795,0.21601,0.1216
-14.7,-1.2961,0.21532,0.21338,0.1199
-14.6,-1.289,0.21271,0.21078,0.1181
-14.5,-1.2819,0.21013,0.2082,0.1164
-14.4,-1.2747,0.20756,0.20563,0.1147
-14.3,-1.2676,0.20501,0.20308,0.113
-14.2,-1.2604,0.20249,0.20056,0.1113
-14.1,-1.2533,0.19998,0.19805,0.1096
-14,-1.2462,0.19749,0.19556,0.108
-13.9,-1.2391,0.19501,0.19308,0.1063
-13.8,-1.2319,0.19255,0.19063,0.1046
-13.7,-1.2248,0.19012,0.1882,0.103
-13.6,-1.2177,0.18769,0.18577,0.1014
-13.5,-1.2107,0.18527,0.18336,0.0997
-13.4,-1.2035,0.18283,0.18092,0.0981
-13.3,-1.1964,0.18035,0.17844,0.0964
-13.2,-1.1891,0.17772,0.17582,0.0947
-13.1,-1.1821,0.17554,0.17363,0.0932
-13,-1.1752,0.17337,0.17147,0.0916
-12.9,-1.1683,0.17123,0.16933,0.0901
-12.8,-1.1614,0.16911,0.16721,0.0886
-12.7,-1.1545,0.16701,0.16512,0.0871
-12.6,-1.1476,0.16492,0.16304,0.0856
-12.5,-1.1407,0.16286,0.16098,0.0841
-12.4,-1.1338,0.16082,0.15894,0.0826
-12.3,-1.1269,0.15879,0.15692,0.0812
-12.2,-1.12,0.15679,0.15491,0.0797
-12.1,-1.113,0.1548,0.15292,0.0783
-12,-1.1061,0.15281,0.15094,0.0768
-11.9,-1.0991,0.15084,0.14898,0.0753
-11.8,-1.092,0.14889,0.14702,0.0739
-11.7,-1.085,0.14695,0.14509,0.0724
-11.6,-1.0779,0.14502,0.14316,0.0709
-11.5,-1.0708,0.1431,0.14124,0.0695
-11.4,-1.0637,0.1412,0.13935,0.068
-11.3,-1.0565,0.13931,0.13746,0.0666
-11.2,-1.0493,0.13743,0.13558,0.0651
-11.1,-1.0421,0.13556,0.13372,0.0637
-11,-1.0348,0.1337,0.13186,0.0622
-10.9,-1.0274,0.13185,0.13002,0.0607
-10.8,-1.02,0.13001,0.12818,0.0593
-10.7,-1.0125,0.12818,0.12636,0.0578
-10.6,-1.0049,0.12636,0.12454,0.0563
-10.5,-0.9973,0.12454,0.12272,0.0548
-10.4,-0.9895,0.12273,0.12092,0.0533
-10.3,-0.9817,0.12092,0.11911,0.0517
-10.2,-0.9738,0.11912,0.11732,0.0502
-10.1,-0.9659,0.11733,0.11554,0.0487
-10,-0.9579,0.11557,0.11377,0.0471
-9.9,-0.9497,0.11376,0.11197,0.0455
-9.8,-0.9416,0.11201,0.11022,0.044
-9.7,-0.9335,0.11027,0.10849,0.0424
-9.6,-0.9253,0.10855,0.10678,0.0409
-9.5,-0.917,0.10685,0.10508,0.0393
-9.4,-0.9087,0.10516,0.1034,0.0377
-9.3,-0.9004,0.10349,0.10173,0.0362
-9.2,-0.8919,0.10183,0.10008,0.0346
-9.1,-0.8834,0.10017,0.09843,0.033
-9,-0.8748,0.09854,0.0968,0.0314
-8.9,-0.8662,0.09692,0.09519,0.0298
-8.8,-0.8575,0.09532,0.09359,0.0282
-8.7,-0.8488,0.09373,0.09201,0.0266
-8.6,-0.84,0.09216,0.09045,0.0249
-8.5,-0.8311,0.09062,0.08891,0.0233
-8.4,-0.8222,0.08908,0.08738,0.0217
-8.3,-0.8132,0.08754,0.08585,0.02
-8.2,-0.8041,0.08602,0.08433,0.0183
-8.1,-0.7927,0.08439,0.08271,0.0159
-8,-0.7808,0.08273,0.08103,0.0135
-7.9,-0.7716,0.08125,0.07953,0.0118
-7.8,-0.7635,0.07984,0.0781,0.0105
-7.7,-0.7554,0.0784,0.07664,0.0092
-7.6,-0.7473,0.07709,0.07531,0.008
-7.5,-0.7394,0.07589,0.07407,0.0068
-7.4,-0.7303,0.07464,0.0728,0.0054
-7.3,-0.7212,0.0734,0.07153,0.0039
-7.2,-0.7117,0.07216,0.07026,0.0023
-7.1,-0.7019,0.07091,0.069,0.0006
-7,-0.6923,0.06971,0.06775,-0.0009
-6.9,-0.6819,0.06846,0.06649,-0.0028
-6.8,-0.6715,0.06724,0.06523,-0.0046
-6.7,-0.6606,0.066,0.06397,-0.0065
-6.6,-0.6497,0.06477,0.06272,-0.0085
-6.5,-0.6384,0.06354,0.06147,-0.0105
-6.4,-0.6272,0.06234,0.06022,-0.0126
-6.3,-0.6154,0.0611,0.05897,-0.0148
-6.2,-0.6035,0.05988,0.05772,-0.017
-6.1,-0.5916,0.05866,0.05647,-0.0194
-6,-0.5798,0.0575,0.05529,-0.0217
-5.9,-0.5643,0.0562,0.05396,-0.025
-5.8,-0.547,0.05482,0.05253,-0.0287
-5.7,-0.5286,0.05338,0.05107,-0.0326
-5.6,-0.5094,0.0519,0.04955,-0.0367
-5.5,-0.4895,0.05039,0.048,-0.0408
-5.4,-0.4688,0.04882,0.0464,-0.0451
-5.3,-0.4475,0.04718,0.04472,-0.0494
-5.2,-0.4256,0.04548,0.04297,-0.0539
-5,-0.3802,0.04203,0.03941,-0.0627
-4.9,-0.3571,0.04037,0.0377,-0.0669
-4.8,-0.3337,0.03866,0.03592,-0.071
-4.6,-0.2865,0.03503,0.03215,-0.079
-4.5,-0.2631,0.0331,0.03012,-0.0829
-3.6,-0.0748,0.01494,0.00997,-0.1049
-3.5,-0.054,0.01375,0.00844,-0.1052
-3.4,-0.0333,0.013,0.0074,-0.105
-3.3,-0.0118,0.01237,0.00653,-0.1047
-3.2,0.0095,0.0119,0.00586,-0.1043
-3.1,0.0308,0.01153,0.00533,-0.1038
-3,0.0519,0.01127,0.00491,-0.1034
-2.9,0.0726,0.01112,0.00469,-0.1029
-2.8,0.093,0.011,0.00446,-0.1025
-2.7,0.1134,0.01088,0.00426,-0.1021
-2.6,0.1333,0.01081,0.0041,-0.1017
-2.5,0.1534,0.01073,0.00397,-0.1013
-2.4,0.1734,0.01067,0.00386,-0.101
-2.3,0.1932,0.01062,0.00375,-0.1007
-2.2,0.2127,0.01058,0.00366,-0.1004
-2.1,0.2323,0.01055,0.00358,-0.1002
-2,0.2519,0.01051,0.00351,-0.0999
-1.9,0.2714,0.01049,0.00344,-0.0997
-1.7,0.3095,0.01047,0.00335,-0.0993
-1.6,0.3288,0.01046,0.00331,-0.0991
-1.5,0.3473,0.0105,0.0033,-0.0989
-1.4,0.3662,0.01051,0.00327,-0.0987
-1.3,0.3851,0.0105,0.00325,-0.0986
-1.2,0.4039,0.01052,0.00325,-0.0984
-1.1,0.4226,0.01054,0.00323,-0.0982
-1,0.4412,0.01057,0.00324,-0.0981
-0.9,0.4596,0.01061,0.00325,-0.0979
-0.8,0.4779,0.01066,0.00328,-0.0978
-0.7,0.4951,0.0108,0.00334,-0.0976
-0.6,0.5129,0.01091,0.00338,-0.0974
-0.5,0.5304,0.01103,0.00345,-0.0972
-0.4,0.5481,0.01115,0.00352,-0.0971
-0.3,0.566,0.01126,0.00358,-0.0969
-0.2,0.5843,0.01133,0.00364,-0.0968
-0.1,0.6027,0.01138,0.0037,-0.0968
0,0.6213,0.01143,0.00375,-0.0967
0.1,0.6398,0.0115,0.00381,-0.0965
0.2,0.6583,0.01155,0.00388,-0.0965
0.3,0.677,0.01159,0.00393,-0.0964
0.4,0.6956,0.01166,0.00399,-0.0963
0.5,0.7145,0.0117,0.00406,-0.0961
0.6,0.7334,0.01173,0.00412,-0.0961
0.7,0.7523,0.01179,0.00417,-0.0959
0.8,0.7712,0.01185,0.00425,-0.0958
0.9,0.7901,0.01188,0.00432,-0.0957
1.1,0.8282,0.01199,0.00446,-0.0955
1.2,0.8472,0.01202,0.00454,-0.0954
1.3,0.8662,0.01208,0.00463,-0.0952
1.4,0.8856,0.01212,0.00471,-0.0951
1.5,0.9049,0.01213,0.00479,-0.095
1.6,0.9243,0.01217,0.00487,-0.0949
1.7,0.9437,0.01222,0.00497,-0.0947
1.8,0.9631,0.01223,0.00506,-0.0946
1.9,0.9826,0.01227,0.00517,-0.0944
2,1.0022,0.01224,0.00527,-0.0943
2.1,1.0219,0.01224,0.00536,-0.0942
2.2,1.0417,0.01224,0.00547,-0.094
2.4,1.0763,0.01189,0.00574,-0.0927
2.5,1.0913,0.01185,0.00585,-0.0913
2.6,1.1008,0.01174,0.00589,-0.0887
2.7,1.1233,0.01179,0.00596,-0.0887
2.8,1.1438,0.01192,0.00609,-0.0883
2.9,1.1645,0.01204,0.00622,-0.088
3,1.185,0.01218,0.00636,-0.0876
3.1,1.2056,0.01232,0.0065,-0.0872
3.2,1.2268,0.01245,0.00665,-0.0867
3.3,1.2481,0.01259,0.0068,-0.0863
3.4,1.2696,0.01273,0.00696,-0.0858
3.5,1.2912,0.01288,0.00712,-0.0854
3.6,1.313,0.01304,0.0073,-0.0849
3.7,1.335,0.0132,0.00748,-0.0843
3.8,1.3571,0.01338,0.00768,-0.0838
3.9,1.3798,0.01356,0.00791,-0.0832
4,1.4028,0.01376,0.00815,-0.0827
4.1,1.426,0.01399,0.00842,-0.0821
4.2,1.4493,0.01423,0.00872,-0.0814
4.3,1.4727,0.01451,0.00906,-0.0807
4.4,1.4959,0.01483,0.00946,-0.08
4.5,1.5187,0.01516,0.00988,-0.0792
4.6,1.5406,0.01559,0.01042,-0.0783
4.7,1.5608,0.01611,0.01109,-0.0772
4.8,1.5788,0.0167,0.01186,-0.0761
4.9,1.5944,0.01736,0.0127,-0.0748
5,1.6075,0.01809,0.01361,-0.0733
5.1,1.6179,0.01887,0.01459,-0.0717
5.2,1.6258,0.0197,0.0156,-0.07
5.3,1.6313,0.02058,0.01665,-0.0681
5.4,1.6344,0.02148,0.01772,-0.0662
5.5,1.6355,0.02243,0.01882,-0.0643
5.6,1.6341,0.02339,0.01992,-0.0623
5.7,1.628,0.02446,0.02112,-0.0602
5.8,1.6201,0.02551,0.0223,-0.0581
6,1.5982,0.02757,0.02454,-0.0537
6.1,1.5876,0.02885,0.02592,-0.0527
6.3,1.5693,0.03201,0.02929,-0.0542
6.4,1.5615,0.03396,0.03134,-0.0566
7,1.5159,0.04962,0.04739,-0.0817
7.1,1.513,0.05187,0.04967,-0.085
7.2,1.5115,0.05395,0.05176,-0.088
7.3,1.5115,0.05588,0.05369,-0.0908
7.5,1.5069,0.0602,0.05803,-0.0974
7.6,1.5056,0.06224,0.06007,-0.1004
7.7,1.5058,0.06415,0.06199,-0.1032
7.8,1.5072,0.06597,0.06381,-0.1059
7.9,1.5094,0.06769,0.06554,-0.1083
8.1,1.5167,0.07082,0.06867,-0.1125
8.2,1.5211,0.07231,0.07016,-0.1144
8.3,1.5207,0.07432,0.07217,-0.1174
8.4,1.5222,0.07615,0.074,-0.1199
8.5,1.5247,0.07787,0.07573,-0.1222
8.6,1.5278,0.07952,0.07738,-0.1244
8.7,1.5316,0.08112,0.07898,-0.1264
8.8,1.5357,0.08266,0.08053,-0.1283
8.9,1.5403,0.08416,0.08203,-0.1302
9,1.5451,0.08561,0.08349,-0.1319
9.1,1.5502,0.08703,0.08491,-0.1335
9.2,1.5545,0.08857,0.08644,-0.1354
9.3,1.5564,0.09041,0.08829,-0.1377
9.4,1.5595,0.09212,0.09,-0.1398
9.5,1.5633,0.09375,0.09163,-0.1418
9.6,1.5675,0.09533,0.09322,-0.1436
9.7,1.5719,0.09688,0.09478,-0.1453
9.8,1.5767,0.09839,0.09629,-0.147
9.9,1.5817,0.09987,0.09778,-0.1486
10,1.5869,0.10133,0.09924,-0.1501
10.1,1.5922,0.10276,0.10067,-0.1516
10.2,1.5977,0.10416,0.10208,-0.1531
10.3,1.6031,0.10557,0.10349,-0.1545
10.4,1.6053,0.10749,0.10541,-0.1568
10.5,1.608,0.10937,0.10729,-0.1589
10.6,1.6121,0.111,0.10893,-0.1607
10.7,1.6165,0.11259,0.11053,-0.1623
10.8,1.6211,0.11415,0.1121,-0.1639
10.9,1.6258,0.11569,0.11364,-0.1655
11,1.6307,0.1172,0.11515,-0.167
11.1,1.6357,0.11868,0.11664,-0.1685
11.2,1.6408,0.12015,0.1181,-0.1699
11.3,1.646,0.12158,0.11955,-0.1713
11.4,1.6512,0.123,0.12097,-0.1726
11.5,1.6558,0.12455,0.12251,-0.1741
11.6,1.6586,0.12651,0.12449,-0.1762
11.7,1.6623,0.12829,0.12627,-0.178
11.8,1.666,0.13011,0.1281,-0.1799
11.9,1.6703,0.13178,0.12977,-0.1815
12,1.6749,0.13341,0.1314,-0.183
12.1,1.6795,0.13502,0.13302,-0.1846
12.2,1.6843,0.13661,0.13462,-0.1861
12.3,1.6892,0.13819,0.1362,-0.1875
12.4,1.6942,0.13976,0.13777,-0.1889
12.5,1.6992,0.14132,0.13933,-0.1904
12.6,1.7044,0.14286,0.14089,-0.1917
12.7,1.7097,0.1444,0.14243,-0.1931
12.8,1.7142,0.14615,0.14418,-0.1947
12.9,1.7176,0.14827,0.14631,-0.1967
13,1.7217,0.15023,0.14827,-0.1985
13.1,1.7261,0.15213,0.15018,-0.2003
13.2,1.7305,0.1541,0.15215,-0.2021
13.3,1.7353,0.15593,0.15399,-0.2037
13.4,1.7402,0.15776,0.15582,-0.2053
13.5,1.7453,0.15957,0.15763,-0.2068
13.6,1.7504,0.16138,0.15945,-0.2084
13.7,1.7557,0.16318,0.16126,-0.2099
13.8,1.761,0.16498,0.16306,-0.2114
13.9,1.7663,0.16678,0.16487,-0.2129
14,1.7718,0.16857,0.16667,-0.2144
14.1,1.7773,0.17036,0.16846,-0.2159
14.2,1.7817,0.17255,0.17065,-0.2177
14.3,1.7859,0.17487,0.17297,-0.2197
14.4,1.7906,0.17706,0.17517,-0.2216
14.5,1.7954,0.17921,0.17733,-0.2234
14.6,1.8003,0.18145,0.17957,-0.2253
14.7,1.8054,0.18355,0.18168,-0.227
14.8,1.8107,0.18564,0.18378,-0.2287
14.9,1.816,0.18773,0.18587,-0.2303
15,1.8213,0.18982,0.18796,-0.232
15.1,1.8267,0.1919,0.19005,-0.2336
15.2,1.8322,0.19399,0.19214,-0.2353
15.3,1.8377,0.19607,0.19423,-0.2369
15.4,1.8433,0.19816,0.19633,-0.2385
15.5,1.8489,0.20025,0.19843,-0.2401
15.6,1.8546,0.20235,0.20054,-0.2417
15.7,1.8597,0.20471,0.20289,-0.2436
15.8,1.8642,0.20736,0.20555,-0.2457
15.9,1.8692,0.20986,0.20805,-0.2476
16,1.8744,0.2123,0.21051,-0.2495
16.1,1.8796,0.21473,0.21293,-0.2514
16.2,1.8849,0.21727,0.21548,-0.2533
16.3,1.8903,0.21967,0.21789,-0.2551
16.4,1.8958,0.22207,0.2203,-0.2569
16.5,1.9014,0.22447,0.2227,-0.2587
16.6,1.907,0.22688,0.22512,-0.2605
16.7,1.9126,0.22929,0.22754,-0.2623
16.8,1.9182,0.23171,0.22996,-0.2641
16.9,1.924,0.23413,0.23239,-0.2658
17,1.9297,0.23656,0.23482,-0.2676
17.1,1.9355,0.23899,0.23726,-0.2694
17.2,1.9412,0.24144,0.23971,-0.2711
17.3,1.9471,0.24389,0.24217,-0.2729
17.4,1.9529,0.24634,0.24463,-0.2746
17.5,1.9588,0.24882,0.24711,-0.2764
17.6,1.9636,0.25191,0.25021,-0.2787
17.7,1.9689,0.25477,0.25308,-0.2808
17.8,1.9743,0.25758,0.2559,-0.2828
17.9,1.9799,0.26036,0.25868,-0.2848
18,1.9855,0.26313,0.26146,-0.2868
18.1,1.991,0.26604,0.26437,-0.2888
18.2,1.9968,0.26881,0.26715,-0.2908
18.3,2.0025,0.27159,0.26994,-0.2927
18.4,2.0083,0.27438,0.27274,-0.2946
18.5,2.0142,0.27717,0.27554,-0.2965
18.6,2.0201,0.27996,0.27834,-0.2985
18.7,2.026,0.28278,0.28117,-0.3004
18.8,2.032,0.2856,0.284,-0.3023
18.9,2.038,0.28844,0.28684,-0.3042
19,2.0441,0.29129,0.2897,-0.3061
19.1,2.0496,0.2945,0.29291,-0.3083
19.2,2.0544,0.29832,0.29674,-0.3109
19.3,2.0599,0.30164,0.30007,-0.3132
19.4,2.0656,0.3049,0.30334,-0.3154
19.5,2.0713,0.30815,0.30659,-0.3175
19.6,2.0772,0.31137,0.30983,-0.3197
19.8,2.0892,0.31783,0.3163,-0.3238
19.9,2.094,0.32189,0.32036,-0.3266
20,2.0995,0.32552,0.32399,-0.329
20.1,2.1051,0.32907,0.32755,-0.3313

