airfoilName st8.dat
Re 	590000
M 	7.000000e-01
N 	4.500000e+00
VACC 	0 VACCflag 1
XTR 	1.00 	1.00 XTRflag 0
alpha,cl,cd,cdp,cm
-18.3,-1.555,0.3301,0.32759,0.1881
-18.2,-1.5475,0.32644,0.32394,0.186
-18.1,-1.54,0.32279,0.32029,0.1838
-18,-1.5324,0.31919,0.31669,0.1817
-17.9,-1.5249,0.31561,0.31311,0.1795
-17.8,-1.5174,0.31207,0.30957,0.1774
-17.7,-1.5099,0.30856,0.30606,0.1753
-17.6,-1.5023,0.30506,0.30256,0.1732
-17.5,-1.4948,0.3016,0.2991,0.1711
-17.4,-1.4873,0.29817,0.29568,0.169
-17.3,-1.4798,0.29476,0.29226,0.167
-17.2,-1.4723,0.29138,0.28888,0.1649
-17.1,-1.4648,0.288,0.28551,0.1629
-17,-1.4573,0.28466,0.28217,0.1608
-16.9,-1.4499,0.28136,0.27887,0.1588
-16.8,-1.4424,0.27808,0.27559,0.1568
-16.5,-1.4188,0.26318,0.2607,0.1499
-16.4,-1.4115,0.26018,0.25769,0.148
-16.3,-1.4041,0.25721,0.25473,0.1461
-16.2,-1.3968,0.25427,0.25179,0.1442
-16.1,-1.3895,0.25136,0.24888,0.1424
-16,-1.3822,0.24848,0.246,0.1405
-15.9,-1.3749,0.24562,0.24314,0.1387
-15.8,-1.3676,0.24279,0.24032,0.1368
-15.7,-1.3604,0.23999,0.23752,0.135
-15.6,-1.3531,0.23722,0.23475,0.1332
-15.5,-1.3459,0.23447,0.23201,0.1314
-15.4,-1.3387,0.23175,0.22929,0.1296
-15.3,-1.3315,0.22906,0.22659,0.1278
-15.2,-1.3243,0.2264,0.22393,0.1261
-15.1,-1.3171,0.22375,0.22129,0.1243
-15,-1.31,0.22114,0.21868,0.1226
-14.9,-1.3028,0.21855,0.2161,0.1209
-14.8,-1.2957,0.21598,0.21353,0.1192
-14.7,-1.2886,0.21345,0.211,0.1175
-14.6,-1.2815,0.21094,0.20849,0.1158
-14.5,-1.2744,0.20845,0.20601,0.1141
-14.4,-1.2674,0.20599,0.20354,0.1124
-14.3,-1.2603,0.20355,0.20111,0.1108
-14.2,-1.2533,0.20113,0.19869,0.1091
-14.1,-1.2462,0.19874,0.1963,0.1075
-14,-1.2392,0.19636,0.19392,0.1059
-13.9,-1.2321,0.194,0.19156,0.1043
-13.8,-1.2251,0.19166,0.18923,0.1027
-13.7,-1.2181,0.18935,0.18692,0.1011
-13.6,-1.2111,0.18706,0.18463,0.0995
-13.5,-1.204,0.18479,0.18236,0.0979
-13.4,-1.1971,0.18253,0.18011,0.0963
-13.3,-1.1901,0.1803,0.17788,0.0948
-13.2,-1.1831,0.1781,0.17568,0.0932
-13.1,-1.1761,0.17591,0.17349,0.0917
-13,-1.1692,0.17373,0.17132,0.0902
-12.9,-1.1622,0.17159,0.16918,0.0887
-12.8,-1.1553,0.16945,0.16705,0.0871
-12.7,-1.1483,0.16735,0.16495,0.0856
-12.6,-1.1414,0.16525,0.16286,0.0842
-12.5,-1.1344,0.16318,0.16079,0.0827
-12.4,-1.1275,0.16112,0.15873,0.0812
-12.3,-1.1206,0.15909,0.1567,0.0797
-12.2,-1.1137,0.15707,0.15469,0.0782
-12.1,-1.1067,0.15507,0.15269,0.0768
-12,-1.0998,0.15308,0.15071,0.0753
-11.9,-1.0928,0.15111,0.14874,0.0739
-11.8,-1.0858,0.14914,0.14678,0.0724
-11.7,-1.0787,0.14719,0.14483,0.071
-11.6,-1.0717,0.14525,0.14288,0.0695
-11.5,-1.0646,0.14332,0.14096,0.068
-11.4,-1.0574,0.1414,0.13904,0.0666
-11.3,-1.0503,0.13949,0.13714,0.0651
-11.2,-1.0431,0.13759,0.13524,0.0637
-11.1,-1.0358,0.1357,0.13336,0.0622
-11,-1.0284,0.13362,0.13128,0.0605
-10.9,-1.021,0.13172,0.12939,0.059
-10.8,-1.0136,0.12985,0.12752,0.0576
-10.7,-1.0062,0.12798,0.12566,0.0561
-10.6,-0.9986,0.12612,0.1238,0.0546
-10.5,-0.991,0.12425,0.12193,0.0531
-10.4,-0.9834,0.12239,0.12008,0.0515
-10.3,-0.9756,0.12052,0.11822,0.05
-10.2,-0.9678,0.11864,0.11634,0.0485
-10.1,-0.9599,0.11672,0.11442,0.0469
-10,-0.9519,0.11472,0.11245,0.0452
-9.9,-0.944,0.11302,0.11075,0.0437
-9.8,-0.936,0.11133,0.10907,0.0422
-9.7,-0.9279,0.10965,0.10739,0.0407
-9.6,-0.9198,0.10799,0.10574,0.0392
-9.5,-0.9116,0.10635,0.1041,0.0377
-9.4,-0.9034,0.10472,0.10248,0.0362
-9.3,-0.8951,0.1031,0.10087,0.0347
-9.2,-0.8868,0.1015,0.09928,0.0331
-9.1,-0.8784,0.09991,0.09769,0.0316
-9,-0.8699,0.09834,0.09612,0.03
-8.9,-0.8613,0.09678,0.09457,0.0285
-8.8,-0.8527,0.09523,0.09304,0.0269
-8.7,-0.844,0.09371,0.09152,0.0253
-8.6,-0.8353,0.0922,0.09002,0.0238
-8.5,-0.8265,0.09072,0.08855,0.0222
-8.4,-0.8177,0.08925,0.08708,0.0206
-8.3,-0.8088,0.08779,0.08563,0.019
-8.2,-0.7998,0.08634,0.0842,0.0174
-8.1,-0.7907,0.08491,0.08278,0.0157
-8,-0.7815,0.0835,0.08137,0.0141
-7.9,-0.7723,0.0821,0.07999,0.0124
-7.8,-0.763,0.08072,0.07862,0.0108
-7.7,-0.7534,0.07935,0.07726,0.009
-7.6,-0.7406,0.07782,0.07573,0.0064
-7.5,-0.7271,0.07625,0.07416,0.0036
-7.4,-0.7155,0.07482,0.07272,0.0014
-7.3,-0.705,0.07347,0.07136,-0.0004
-7.2,-0.6954,0.0722,0.07007,-0.0019
-7.1,-0.6862,0.07096,0.06881,-0.0034
-7,-0.6775,0.06976,0.06759,-0.0047
-6.9,-0.6681,0.06855,0.06636,-0.0061
-6.8,-0.6585,0.06734,0.06512,-0.0077
-6.7,-0.6485,0.06611,0.06387,-0.0094
-6.6,-0.6383,0.06488,0.06262,-0.0111
-6.5,-0.628,0.06367,0.06138,-0.0129
-6.4,-0.6173,0.06244,0.06012,-0.0148
-6.3,-0.606,0.06117,0.05883,-0.0169
-6.2,-0.5948,0.05992,0.05755,-0.019
-6.1,-0.5831,0.05861,0.05622,-0.0213
-6,-0.5717,0.05732,0.0549,-0.0236
-5.9,-0.5585,0.05601,0.05356,-0.0265
-5.8,-0.5419,0.05473,0.05225,-0.0299
-5.6,-0.5055,0.05213,0.04959,-0.0372
-5.5,-0.4862,0.05072,0.04814,-0.041
-5.4,-0.4664,0.04927,0.04665,-0.0449
-5.3,-0.4462,0.04781,0.04514,-0.0489
-5.2,-0.425,0.04628,0.04357,-0.0529
-5.1,-0.4034,0.04472,0.04195,-0.057
-5,-0.381,0.04308,0.04027,-0.0612
-4.8,-0.335,0.03962,0.03669,-0.0696
-4.7,-0.3114,0.03774,0.03473,-0.0739
-4.6,-0.2876,0.03564,0.03254,-0.0784
-4.3,-0.2183,0.03035,0.02695,-0.0887
-4.2,-0.1958,0.02842,0.02489,-0.0919
-4,-0.1527,0.02396,0.02007,-0.098
-3.6,-0.072,0.01688,0.01187,-0.1042
-3.4,-0.0307,0.01457,0.0089,-0.1048
-3.3,-0.0098,0.01373,0.00773,-0.1047
-3.2,0.0111,0.01323,0.00704,-0.1043
-3.1,0.0322,0.01278,0.0064,-0.104
-3,0.0524,0.01247,0.00588,-0.1034
-2.9,0.0731,0.01219,0.00545,-0.103
-2.8,0.0935,0.01199,0.00514,-0.1025
-2.7,0.114,0.01182,0.00489,-0.1022
-2.6,0.1341,0.01171,0.0047,-0.1018
-2.5,0.1538,0.01162,0.0045,-0.1014
-2.4,0.1733,0.01154,0.00436,-0.101
-2.3,0.193,0.01147,0.00422,-0.1007
-2.2,0.2126,0.01142,0.0041,-0.1004
-2,0.2517,0.0113,0.0039,-0.0999
-1.9,0.2707,0.01128,0.00383,-0.0996
-1.8,0.29,0.01125,0.00375,-0.0994
-1.7,0.3088,0.01124,0.0037,-0.0991
-1.6,0.3278,0.01123,0.00366,-0.0989
-1.5,0.3467,0.01121,0.00361,-0.0987
-1.4,0.3656,0.01121,0.00358,-0.0985
-1.3,0.3845,0.0112,0.00354,-0.0983
-1.2,0.4028,0.01123,0.00353,-0.0981
-1.1,0.4214,0.01123,0.00352,-0.098
-1,0.4401,0.01124,0.00351,-0.0978
-0.9,0.4586,0.01126,0.00351,-0.0976
-0.8,0.4769,0.0113,0.00352,-0.0974
-0.7,0.4952,0.01132,0.00353,-0.0973
-0.6,0.5134,0.01136,0.00355,-0.0971
-0.5,0.5313,0.01143,0.00358,-0.0969
-0.4,0.5483,0.01157,0.00366,-0.0967
-0.3,0.5657,0.01166,0.00371,-0.0965
-0.2,0.5831,0.01178,0.00378,-0.0963
-0.1,0.6004,0.01191,0.00387,-0.096
0,0.6178,0.01202,0.00395,-0.0959
0.1,0.6356,0.01214,0.00404,-0.0957
0.2,0.6537,0.01222,0.0041,-0.0956
0.3,0.6717,0.01232,0.00418,-0.0954
0.4,0.6901,0.01237,0.00425,-0.0953
0.5,0.708,0.01249,0.00434,-0.0951
0.6,0.7266,0.01254,0.00442,-0.095
0.7,0.7452,0.01258,0.0045,-0.0949
0.8,0.7637,0.01265,0.00458,-0.0948
0.9,0.7822,0.01272,0.00467,-0.0946
1,0.801,0.01274,0.00475,-0.0945
1.1,0.8199,0.01279,0.00483,-0.0944
1.2,0.8386,0.01284,0.00493,-0.0943
1.3,0.8571,0.01288,0.00504,-0.0941
1.4,0.8761,0.01291,0.00513,-0.094
1.5,0.8952,0.01294,0.00523,-0.0939
1.6,0.9141,0.01291,0.00533,-0.0938
1.7,0.933,0.01292,0.00544,-0.0936
2,0.9787,0.01239,0.00579,-0.0906
2.1,0.988,0.01226,0.00581,-0.088
2.2,1.0104,0.01234,0.00589,-0.0882
2.3,1.0296,0.01249,0.00602,-0.0879
2.4,1.0494,0.01263,0.00616,-0.0876
2.5,1.0695,0.01276,0.00629,-0.0873
2.6,1.0895,0.0129,0.00644,-0.0869
2.7,1.1096,0.01304,0.00659,-0.0866
2.8,1.1298,0.0132,0.00674,-0.0862
2.9,1.15,0.01336,0.0069,-0.0858
3,1.1705,0.01352,0.00707,-0.0854
3.1,1.1913,0.01367,0.00724,-0.085
3.2,1.2123,0.01383,0.00743,-0.0846
3.3,1.2333,0.014,0.00762,-0.0842
3.4,1.2541,0.01418,0.00781,-0.0837
3.5,1.2752,0.01437,0.00802,-0.0832
3.6,1.2966,0.01456,0.00824,-0.0827
3.7,1.3184,0.01477,0.00849,-0.0821
3.8,1.3402,0.01499,0.00876,-0.0816
3.9,1.3621,0.01523,0.00906,-0.081
4,1.3839,0.01549,0.00937,-0.0804
4.1,1.4057,0.01577,0.00972,-0.0797
4.2,1.4273,0.01607,0.01009,-0.079
4.3,1.4486,0.01641,0.01052,-0.0782
4.4,1.4692,0.01683,0.01105,-0.0773
4.5,1.4887,0.01729,0.01165,-0.0764
4.6,1.5068,0.01781,0.01232,-0.0753
4.7,1.5234,0.01836,0.01303,-0.0741
4.8,1.538,0.01898,0.01382,-0.0728
4.9,1.5507,0.01966,0.01467,-0.0714
5,1.5613,0.02039,0.01556,-0.0699
5.1,1.5698,0.02116,0.0165,-0.0683
5.2,1.5744,0.02204,0.01755,-0.0666
5.3,1.5756,0.023,0.01869,-0.0648
5.4,1.5748,0.02399,0.01984,-0.063
5.5,1.5718,0.02499,0.02098,-0.0611
5.6,1.5666,0.026,0.02212,-0.0592
5.8,1.5494,0.02799,0.02432,-0.0551
5.9,1.5405,0.02916,0.02559,-0.0539
6,1.5323,0.03051,0.02704,-0.0537
6.2,1.5186,0.0338,0.03054,-0.0564
6.8,1.476,0.04899,0.04617,-0.0809
7.1,1.4674,0.05581,0.05304,-0.0912
7.2,1.4658,0.05791,0.05514,-0.0944
7.3,1.466,0.05985,0.05709,-0.0972
7.4,1.4675,0.06165,0.0589,-0.0999
7.5,1.47,0.06331,0.06057,-0.1022
7.6,1.4737,0.06491,0.06217,-0.1044
7.7,1.4779,0.06642,0.06368,-0.1065
7.8,1.4794,0.06822,0.06547,-0.1091
7.9,1.4796,0.07018,0.06745,-0.112
8,1.4815,0.07196,0.06923,-0.1145
8.1,1.4844,0.07365,0.07093,-0.1168
8.2,1.4883,0.07521,0.07249,-0.1189
8.3,1.4927,0.07671,0.07399,-0.1208
8.4,1.4977,0.07814,0.07543,-0.1226
8.5,1.5031,0.07953,0.07682,-0.1242
8.6,1.5088,0.08087,0.07816,-0.1258
8.7,1.5114,0.08261,0.0799,-0.1281
8.8,1.5136,0.0844,0.0817,-0.1305
8.9,1.5171,0.08606,0.08336,-0.1326
9,1.5211,0.08764,0.08495,-0.1345
9.1,1.5255,0.08917,0.08648,-0.1363
9.2,1.5303,0.09065,0.08797,-0.138
9.3,1.5358,0.09204,0.08937,-0.1396
9.4,1.5413,0.09343,0.09076,-0.1411
9.5,1.547,0.09478,0.09211,-0.1425
9.6,1.5529,0.0961,0.09344,-0.1439
9.7,1.5566,0.09776,0.09509,-0.1458
9.8,1.5595,0.09958,0.09691,-0.148
9.9,1.5633,0.10125,0.09859,-0.1499
10,1.5677,0.10284,0.1002,-0.1517
10.1,1.5723,0.10439,0.10175,-0.1534
10.2,1.5772,0.1059,0.10327,-0.155
10.3,1.5822,0.10738,0.10475,-0.1565
10.4,1.5873,0.10883,0.10621,-0.158
10.5,1.5926,0.11026,0.10764,-0.1594
10.7,1.6041,0.11292,0.11031,-0.162
10.8,1.6094,0.11432,0.11171,-0.1633
10.9,1.6118,0.11632,0.11371,-0.1656
11,1.6156,0.11805,0.11545,-0.1674
11.1,1.6198,0.11971,0.11712,-0.1691
11.2,1.6243,0.12132,0.11873,-0.1707
11.3,1.6289,0.12289,0.1203,-0.1723
11.4,1.6337,0.12443,0.12185,-0.1738
11.5,1.6385,0.12595,0.12337,-0.1752
11.6,1.6435,0.12744,0.12487,-0.1766
11.7,1.6486,0.12892,0.12635,-0.178
11.8,1.6537,0.13038,0.12782,-0.1793
11.9,1.6589,0.13181,0.12927,-0.1807
12,1.6642,0.13324,0.1307,-0.1819
12.1,1.6682,0.13502,0.13247,-0.1837
12.2,1.6718,0.13694,0.13441,-0.1857
12.3,1.6759,0.13875,0.13622,-0.1874
12.4,1.6803,0.14049,0.13797,-0.189
12.5,1.685,0.14221,0.13969,-0.1906
12.6,1.6897,0.1439,0.14139,-0.1922
12.7,1.6946,0.14558,0.14308,-0.1937
12.8,1.6996,0.14725,0.14475,-0.1952
12.9,1.7047,0.1489,0.14641,-0.1966
13,1.7099,0.15054,0.14806,-0.198
13.1,1.7151,0.15218,0.14971,-0.1994
13.2,1.7204,0.15382,0.15135,-0.2008
13.3,1.7258,0.15545,0.15298,-0.2022
13.4,1.7313,0.15707,0.15461,-0.2036
13.5,1.7349,0.15942,0.15695,-0.2058
13.6,1.7393,0.16151,0.15905,-0.2077
13.7,1.744,0.16353,0.16108,-0.2094
13.8,1.7489,0.1655,0.16306,-0.2111
13.9,1.7539,0.16745,0.16502,-0.2128
14,1.7591,0.16938,0.16695,-0.2144
14.1,1.7643,0.1713,0.16888,-0.216
14.2,1.7695,0.17321,0.1708,-0.2176
14.3,1.7749,0.17512,0.17272,-0.2192
14.4,1.7803,0.17702,0.17463,-0.2207
14.5,1.7858,0.17892,0.17653,-0.2222
14.6,1.7913,0.18082,0.17843,-0.2237
14.7,1.7968,0.18271,0.18033,-0.2253
14.8,1.8024,0.18461,0.18224,-0.2267
14.9,1.808,0.1865,0.18414,-0.2282
15,1.8129,0.18877,0.1864,-0.2301
15.1,1.8168,0.19174,0.18939,-0.2327
15.2,1.8219,0.19403,0.19168,-0.2345
15.3,1.8272,0.19628,0.19394,-0.2363
15.4,1.8325,0.19852,0.19618,-0.238
15.5,1.8379,0.20074,0.19841,-0.2398
15.6,1.8433,0.20296,0.20065,-0.2415
15.7,1.8489,0.20518,0.20287,-0.2432
15.8,1.8544,0.20739,0.20509,-0.2449
15.9,1.86,0.20961,0.20732,-0.2466
16,1.8656,0.21183,0.20954,-0.2483
16.1,1.8713,0.21405,0.21177,-0.2499
16.2,1.877,0.21628,0.21401,-0.2516
16.3,1.8828,0.21851,0.21625,-0.2533
16.4,1.8885,0.22075,0.21849,-0.2549
16.5,1.8943,0.22299,0.22074,-0.2566
16.6,1.9001,0.22525,0.223,-0.2583
16.7,1.9055,0.22779,0.22554,-0.2602
16.8,1.91,0.23119,0.22895,-0.2628
16.9,1.9155,0.23381,0.23158,-0.2648
17,1.921,0.23641,0.23419,-0.2667
17.1,1.9266,0.239,0.23678,-0.2686
17.2,1.9323,0.24157,0.23936,-0.2705
17.3,1.938,0.24414,0.24194,-0.2724
17.4,1.9437,0.24671,0.24453,-0.2742
17.5,1.9495,0.24929,0.24711,-0.2761
17.6,1.9553,0.25186,0.24969,-0.2779
17.7,1.9611,0.25444,0.25228,-0.2797
17.8,1.9669,0.25703,0.25488,-0.2816
17.9,1.9728,0.25962,0.25748,-0.2834
18,1.9787,0.26222,0.26009,-0.2852
18.1,1.9847,0.26482,0.2627,-0.2871
18.2,1.9906,0.26744,0.26533,-0.2889
18.3,1.9966,0.27007,0.26797,-0.2907
18.4,2.0026,0.2727,0.27061,-0.2925
18.5,2.0079,0.27621,0.27412,-0.295
18.6,2.0134,0.27942,0.27734,-0.2973
18.7,2.019,0.28254,0.28047,-0.2994
18.8,2.0248,0.28561,0.28355,-0.3015
18.9,2.0305,0.28866,0.28661,-0.3036
19,2.0364,0.29171,0.28967,-0.3057
19.1,2.0423,0.29474,0.29272,-0.3077
19.2,2.0482,0.29777,0.29575,-0.3098
19.3,2.0541,0.30081,0.2988,-0.3118
19.4,2.0604,0.30391,0.30191,-0.3138

