airfoilName st8.dat
Re 	310000
M 	7.000000e-01
N 	4.500000e+00
VACC 	0 VACCflag 1
XTR 	1.00 	1.00 XTRflag 0
alpha,cl,cd,cdp,cm
-18.1,-1.5287,0.31495,0.31136,0.1799
-18,-1.5211,0.31132,0.30773,0.1777
-17.9,-1.5135,0.30783,0.30423,0.1756
-17.8,-1.5059,0.30437,0.30077,0.1735
-17.7,-1.4984,0.30094,0.29735,0.1714
-17.6,-1.4908,0.29754,0.29395,0.1693
-17.5,-1.4832,0.29417,0.29059,0.1672
-17.4,-1.4757,0.29084,0.28726,0.1651
-17.3,-1.4681,0.28755,0.28396,0.1631
-17.2,-1.4606,0.28428,0.28069,0.161
-17.1,-1.4531,0.28103,0.27745,0.159
-17,-1.4455,0.27782,0.27425,0.157
-16.9,-1.438,0.27465,0.27107,0.155
-16.8,-1.4305,0.27151,0.26794,0.153
-16.7,-1.423,0.26839,0.26482,0.151
-16.6,-1.4155,0.2653,0.26173,0.149
-16.5,-1.4081,0.26225,0.25867,0.1471
-16.4,-1.4006,0.25922,0.25565,0.1451
-16.3,-1.3931,0.25623,0.25266,0.1432
-16.2,-1.3857,0.25326,0.24969,0.1413
-16.1,-1.3783,0.25032,0.24676,0.1394
-16,-1.3709,0.24742,0.24386,0.1375
-15.9,-1.3635,0.24453,0.24097,0.1356
-15.8,-1.3561,0.24168,0.23812,0.1337
-15.7,-1.3487,0.23885,0.2353,0.1319
-15.6,-1.3414,0.23605,0.2325,0.13
-15.5,-1.334,0.23328,0.22973,0.1282
-15.4,-1.3267,0.23053,0.22698,0.1264
-15.3,-1.3194,0.2278,0.22426,0.1245
-15.2,-1.3121,0.22512,0.22158,0.1227
-15.1,-1.3048,0.22244,0.2189,0.121
-15,-1.2976,0.21979,0.21626,0.1192
-14.9,-1.2903,0.21717,0.21364,0.1174
-14.8,-1.2831,0.21456,0.21103,0.1157
-14.7,-1.2759,0.21197,0.20844,0.1139
-14.6,-1.2687,0.2094,0.20588,0.1122
-14.5,-1.2615,0.20685,0.20333,0.1104
-14.4,-1.2543,0.2043,0.20079,0.1087
-14.3,-1.2471,0.20176,0.19825,0.1069
-14.2,-1.2398,0.19922,0.19571,0.1052
-14,-1.2252,0.19394,0.19044,0.1016
-13.9,-1.2183,0.19169,0.18819,0.1
-13.8,-1.2113,0.18945,0.18595,0.0985
-13.7,-1.2044,0.18723,0.18374,0.0969
-13.5,-1.1907,0.18295,0.17947,0.0938
-13.4,-1.1838,0.18078,0.17731,0.0922
-13.3,-1.1768,0.17863,0.17516,0.0907
-13.2,-1.1699,0.17649,0.17302,0.0892
-13.1,-1.163,0.17438,0.17091,0.0877
-13,-1.1561,0.17228,0.16882,0.0862
-12.9,-1.1492,0.1702,0.16674,0.0847
-12.8,-1.1423,0.16813,0.16468,0.0832
-12.7,-1.1354,0.16609,0.16264,0.0818
-12.6,-1.1285,0.16406,0.16062,0.0803
-12.5,-1.1217,0.16205,0.15861,0.0788
-12.4,-1.1148,0.16005,0.15662,0.0774
-12.3,-1.1079,0.15807,0.15465,0.076
-12.2,-1.101,0.15611,0.15269,0.0745
-12.1,-1.0941,0.15417,0.15075,0.0731
-12,-1.0873,0.15224,0.14883,0.0717
-11.9,-1.0804,0.15032,0.14692,0.0703
-11.8,-1.0735,0.14842,0.14502,0.0689
-11.7,-1.0666,0.14654,0.14314,0.0674
-11.6,-1.0596,0.14466,0.14126,0.066
-11.5,-1.0526,0.14279,0.1394,0.0646
-11.4,-1.0456,0.14093,0.13754,0.0632
-11.3,-1.0385,0.13908,0.1357,0.0618
-11.2,-1.0314,0.13724,0.13387,0.0604
-11.1,-1.0242,0.1354,0.13204,0.059
-11,-1.017,0.13358,0.13023,0.0576
-10.9,-1.0098,0.13176,0.12841,0.0561
-10.8,-1.0025,0.12996,0.12661,0.0547
-10.7,-0.9951,0.12816,0.12482,0.0533
-10.6,-0.9877,0.12637,0.12304,0.0518
-10.5,-0.9802,0.12458,0.12126,0.0504
-10.4,-0.9726,0.12281,0.11949,0.0489
-10.3,-0.965,0.12104,0.11773,0.0475
-10.2,-0.9573,0.11927,0.11598,0.046
-10.1,-0.9496,0.11751,0.11422,0.0445
-10,-0.9417,0.11577,0.11249,0.043
-9.9,-0.9338,0.11403,0.11076,0.0416
-9.8,-0.9259,0.1123,0.10903,0.0401
-9.7,-0.9179,0.11058,0.10732,0.0385
-9.6,-0.9098,0.10887,0.10563,0.037
-9.5,-0.9017,0.10718,0.10394,0.0355
-9.4,-0.8935,0.1055,0.10227,0.034
-9.3,-0.8854,0.10382,0.1006,0.0325
-9.2,-0.8771,0.10216,0.09895,0.0309
-9.1,-0.8688,0.10049,0.09729,0.0294
-9,-0.8605,0.09883,0.09564,0.0278
-8.9,-0.8521,0.09713,0.09394,0.0261
-8.8,-0.8436,0.09547,0.09231,0.0245
-8.7,-0.8351,0.09399,0.09084,0.023
-8.6,-0.8266,0.09253,0.08939,0.0215
-8.5,-0.8181,0.09109,0.08796,0.02
-8.4,-0.8095,0.08966,0.08654,0.0185
-8.3,-0.8008,0.08825,0.08515,0.017
-8.2,-0.7921,0.08686,0.08376,0.0155
-8.1,-0.7833,0.08547,0.08239,0.014
-8,-0.7744,0.08411,0.08104,0.0125
-7.9,-0.7655,0.08275,0.0797,0.0109
-7.8,-0.7565,0.08142,0.07838,0.0094
-7.7,-0.7475,0.0801,0.07708,0.0078
-7.6,-0.7385,0.0788,0.07579,0.0062
-7.5,-0.7294,0.07751,0.07452,0.0047
-7.4,-0.72,0.07625,0.07328,0.0029
-7.3,-0.7109,0.07499,0.07203,0.0013
-7.2,-0.7017,0.07373,0.07079,-0.0003
-7.1,-0.6926,0.0725,0.06958,-0.0018
-7,-0.681,0.07115,0.06824,-0.0041
-6.9,-0.6666,0.06966,0.06675,-0.0071
-6.8,-0.6519,0.06816,0.06526,-0.0101
-6.7,-0.6364,0.06664,0.06373,-0.0133
-6.6,-0.6222,0.06519,0.06228,-0.0161
-6.5,-0.6088,0.0638,0.06089,-0.0187
-6.4,-0.5957,0.06242,0.05951,-0.0212
-6.3,-0.5835,0.06108,0.05815,-0.0235
-6.2,-0.5718,0.05972,0.05678,-0.0258
-6.1,-0.5604,0.05855,0.0556,-0.0278
-6,-0.549,0.05746,0.0545,-0.0297
-5.9,-0.5376,0.0564,0.05343,-0.0317
-5.8,-0.5229,0.05522,0.05222,-0.0345
-5.7,-0.5074,0.054,0.05098,-0.0374
-5.6,-0.4907,0.05274,0.04968,-0.0406
-5.5,-0.4732,0.05144,0.04836,-0.0439
-5.4,-0.4549,0.05011,0.047,-0.0473
-5.3,-0.4361,0.04875,0.0456,-0.0507
-5.2,-0.4167,0.04736,0.04416,-0.0543
-5.1,-0.3966,0.04592,0.04268,-0.0579
-5,-0.3755,0.04442,0.04114,-0.0617
-4.9,-0.354,0.04288,0.03953,-0.0654
-4.8,-0.3291,0.04064,0.03724,-0.0708
-4.7,-0.3073,0.03919,0.03572,-0.0742
-4.6,-0.2853,0.03769,0.03414,-0.0775
-4.5,-0.2631,0.03614,0.0325,-0.0808
-4.1,-0.1731,0.02917,0.02507,-0.0934
-4,-0.1509,0.02715,0.02288,-0.0963
-3.5,-0.0455,0.01886,0.0133,-0.1049
-3.3,-0.0037,0.01658,0.01038,-0.1057
-3.2,0.0169,0.01591,0.00947,-0.1055
-3.1,0.0373,0.01532,0.00864,-0.1052
-3,0.0574,0.01484,0.00789,-0.1048
-2.9,0.078,0.01439,0.00729,-0.1044
-2.8,0.0974,0.01411,0.00685,-0.1038
-2.7,0.1175,0.01384,0.00644,-0.1034
-2.6,0.1372,0.01361,0.00608,-0.103
-2.5,0.1569,0.01344,0.00582,-0.1026
-2.4,0.1762,0.01329,0.00557,-0.1021
-2.3,0.1956,0.01316,0.00534,-0.1017
-2.2,0.2149,0.01305,0.00513,-0.1013
-2.1,0.2341,0.01295,0.00498,-0.101
-2,0.2532,0.01288,0.00485,-0.1007
-1.9,0.2719,0.01283,0.00472,-0.1003
-1.8,0.291,0.01277,0.00461,-0.1
-1.7,0.3098,0.01273,0.00452,-0.0997
-1.6,0.3283,0.0127,0.00445,-0.0994
-1.5,0.3471,0.01268,0.00438,-0.0992
-1.4,0.3657,0.01265,0.00433,-0.0989
-1.3,0.384,0.01266,0.00427,-0.0986
-1.2,0.4026,0.01263,0.00425,-0.0984
-1.1,0.4212,0.01261,0.00421,-0.0982
-1,0.4397,0.01261,0.00419,-0.098
-0.9,0.4581,0.01262,0.00418,-0.0978
-0.8,0.4765,0.0126,0.00418,-0.0976
-0.7,0.4947,0.01262,0.00419,-0.0974
-0.6,0.5123,0.01268,0.0042,-0.0971
-0.5,0.5304,0.01271,0.00421,-0.0969
-0.4,0.5484,0.01273,0.00424,-0.0967
-0.3,0.5662,0.01278,0.00426,-0.0965
-0.2,0.5839,0.01284,0.0043,-0.0962
-0.1,0.6015,0.01289,0.00435,-0.096
0,0.6189,0.01296,0.0044,-0.0957
0.1,0.6354,0.01309,0.00446,-0.0953
0.2,0.6525,0.01319,0.00452,-0.095
0.3,0.6694,0.01328,0.0046,-0.0948
0.4,0.6864,0.01339,0.00469,-0.0945
0.5,0.7035,0.0135,0.00478,-0.0942
0.6,0.7206,0.01356,0.00488,-0.094
0.7,0.7379,0.01365,0.00498,-0.0938
0.8,0.7552,0.01373,0.00508,-0.0935
0.9,0.7727,0.01373,0.00519,-0.0934
1,0.7895,0.01382,0.00532,-0.0931
1.1,0.8071,0.0138,0.00542,-0.0928
1.5,0.8608,0.01316,0.0057,-0.0872
1.6,0.8795,0.01333,0.00584,-0.0869
1.7,0.898,0.01352,0.00599,-0.0866
1.8,0.9166,0.0137,0.00615,-0.0863
1.9,0.9355,0.01388,0.00631,-0.086
2,0.9544,0.01406,0.00647,-0.0858
2.1,0.9728,0.01425,0.00666,-0.0854
2.2,0.9922,0.01444,0.00682,-0.0851
2.3,1.0117,0.01461,0.007,-0.0848
2.4,1.0311,0.01479,0.00718,-0.0845
2.5,1.0505,0.01499,0.00738,-0.0841
2.6,1.0698,0.0152,0.00758,-0.0837
2.7,1.0892,0.01542,0.00779,-0.0834
2.8,1.1091,0.0156,0.008,-0.083
2.9,1.129,0.01581,0.00823,-0.0826
3,1.1489,0.01603,0.00847,-0.0822
3.1,1.1687,0.01627,0.00872,-0.0817
3.2,1.1885,0.01651,0.00897,-0.0812
3.3,1.2089,0.01675,0.00926,-0.0808
3.4,1.2292,0.017,0.00957,-0.0803
3.5,1.2493,0.01727,0.0099,-0.0797
3.6,1.2693,0.01756,0.01024,-0.0792
3.7,1.2892,0.01786,0.0106,-0.0786
3.8,1.3087,0.01819,0.01097,-0.0779
3.9,1.328,0.01852,0.01141,-0.0772
4,1.347,0.0189,0.0119,-0.0764
4.1,1.3655,0.01931,0.01242,-0.0756
4.2,1.3832,0.01975,0.01297,-0.0747
4.3,1.4001,0.02022,0.01356,-0.0738
4.4,1.4161,0.02073,0.01418,-0.0727
4.5,1.4305,0.0213,0.01488,-0.0716
4.6,1.4425,0.02196,0.01573,-0.0704
4.7,1.4527,0.02267,0.01661,-0.0691
4.8,1.4611,0.02342,0.01754,-0.0678
4.9,1.4675,0.02422,0.0185,-0.0663
5,1.472,0.02506,0.01949,-0.0649
5.1,1.4746,0.02593,0.02051,-0.0633
5.2,1.4753,0.02683,0.02154,-0.0618
5.6,1.4513,0.03096,0.02615,-0.0559
5.7,1.4427,0.03236,0.02767,-0.0559
6.1,1.4179,0.03979,0.03551,-0.065
6.2,1.4152,0.0419,0.03769,-0.0686
6.5,1.3989,0.04983,0.0458,-0.0819
6.6,1.3985,0.05194,0.04793,-0.085
6.8,1.4027,0.05548,0.0515,-0.09
6.9,1.4068,0.05701,0.05303,-0.0921
7,1.4052,0.05918,0.05521,-0.0955
7.1,1.405,0.06125,0.0573,-0.0987
7.2,1.4069,0.06305,0.0591,-0.1013
7.3,1.4102,0.06471,0.06076,-0.1037
7.4,1.415,0.06616,0.06222,-0.1057
7.5,1.4202,0.06755,0.06361,-0.1075
7.6,1.426,0.06886,0.06493,-0.1091
7.7,1.4318,0.07016,0.06622,-0.1107
7.8,1.4319,0.07223,0.0683,-0.1139
7.9,1.4349,0.07395,0.07002,-0.1163
8,1.4389,0.07551,0.0716,-0.1184
8.1,1.4436,0.07699,0.07308,-0.1203
8.2,1.4488,0.07841,0.0745,-0.1221
8.3,1.4544,0.07976,0.07587,-0.1237
8.4,1.4602,0.08108,0.07719,-0.1252
8.5,1.4664,0.08235,0.07847,-0.1266
8.6,1.4725,0.0836,0.07971,-0.1281
8.7,1.4747,0.08547,0.08159,-0.1306
8.8,1.4786,0.08709,0.08322,-0.1327
8.9,1.4833,0.08861,0.08474,-0.1345
9,1.4883,0.09006,0.0862,-0.1362
9.1,1.4937,0.09146,0.08761,-0.1377
9.2,1.4994,0.09282,0.08897,-0.1392
9.3,1.5052,0.09415,0.09031,-0.1406
9.4,1.5112,0.09544,0.09161,-0.1419
9.5,1.5173,0.09671,0.09289,-0.1432
9.6,1.5236,0.09796,0.09414,-0.1444
9.7,1.5289,0.09936,0.09554,-0.1459
9.8,1.5303,0.10153,0.09771,-0.1488
9.9,1.535,0.10307,0.09926,-0.1505
10,1.54,0.10456,0.10076,-0.1521
10.1,1.5452,0.106,0.10221,-0.1536
10.2,1.5506,0.10741,0.10363,-0.155
10.3,1.5561,0.10879,0.10502,-0.1563
10.4,1.5617,0.11014,0.10638,-0.1576
10.5,1.5674,0.11147,0.10771,-0.1589
10.6,1.5732,0.11277,0.10902,-0.1601
10.7,1.579,0.11405,0.1103,-0.1612
10.8,1.5843,0.11544,0.11169,-0.1625
10.9,1.5873,0.11738,0.11364,-0.1647
11,1.5915,0.11908,0.11534,-0.1665
11.1,1.5959,0.1207,0.11697,-0.1682
11.2,1.6002,0.12234,0.11863,-0.17
11.3,1.6053,0.12382,0.12011,-0.1714
11.4,1.6104,0.12527,0.12157,-0.1727
11.5,1.6156,0.1267,0.123,-0.174
11.6,1.6209,0.1281,0.12441,-0.1753
11.7,1.6263,0.12948,0.1258,-0.1765
11.8,1.6317,0.13085,0.12717,-0.1777
11.9,1.6371,0.13219,0.12853,-0.1788
12,1.6427,0.13352,0.12987,-0.18
12.1,1.646,0.13556,0.13191,-0.1821
12.2,1.65,0.13742,0.13377,-0.184
12.3,1.6545,0.13917,0.13553,-0.1856
12.4,1.6592,0.14087,0.13724,-0.1872
12.5,1.664,0.14253,0.13892,-0.1887
12.6,1.6688,0.14421,0.1406,-0.1904
12.7,1.674,0.1458,0.1422,-0.1918
12.8,1.6792,0.14738,0.14379,-0.1931
12.9,1.6845,0.14894,0.14536,-0.1945
13,1.6899,0.15049,0.14692,-0.1958
13.1,1.6953,0.15204,0.14847,-0.1971
13.2,1.7008,0.15357,0.15001,-0.1983
13.3,1.7064,0.15508,0.15153,-0.1996
13.4,1.7109,0.15708,0.15352,-0.2014
13.5,1.7151,0.15925,0.1557,-0.2035
13.6,1.7198,0.16125,0.15772,-0.2053
13.7,1.7247,0.1632,0.15967,-0.207
13.8,1.7298,0.1651,0.16159,-0.2086
13.9,1.7349,0.16698,0.16348,-0.2102
14,1.7401,0.16885,0.16535,-0.2118
14.2,1.7508,0.17255,0.16908,-0.2149
14.3,1.7562,0.17436,0.17089,-0.2164
14.4,1.7618,0.17616,0.1727,-0.2179
14.5,1.7673,0.17795,0.1745,-0.2193
14.6,1.7729,0.17974,0.1763,-0.2207
14.7,1.7785,0.18152,0.17809,-0.2221
14.8,1.7841,0.1833,0.17988,-0.2235
14.9,1.7888,0.18583,0.18241,-0.2257
15,1.7937,0.18826,0.18485,-0.2278
15.1,1.7989,0.19054,0.18714,-0.2296
15.2,1.8042,0.19278,0.18938,-0.2315
15.3,1.8096,0.19497,0.19159,-0.2332
15.4,1.815,0.19715,0.19378,-0.2349
15.5,1.8206,0.19932,0.19595,-0.2367
15.6,1.8261,0.20148,0.19813,-0.2383
15.7,1.8317,0.20363,0.20029,-0.24
15.8,1.8375,0.20589,0.20256,-0.2418
15.9,1.8432,0.20802,0.2047,-0.2434
16,1.8489,0.21015,0.20684,-0.2451
16.1,1.8547,0.21228,0.20898,-0.2467
16.2,1.8605,0.21442,0.21113,-0.2483
16.3,1.8663,0.21655,0.21327,-0.2499
16.4,1.8721,0.21869,0.21542,-0.2515
16.5,1.878,0.22083,0.21756,-0.2531
16.6,1.8833,0.22358,0.22032,-0.2552
16.7,1.8887,0.22644,0.22318,-0.2575
16.8,1.8943,0.22911,0.22587,-0.2595
16.9,1.8999,0.23173,0.2285,-0.2615
17,1.9056,0.23431,0.23109,-0.2634
17.1,1.9114,0.23686,0.23366,-0.2653
17.2,1.9171,0.2394,0.23621,-0.2672
17.3,1.9229,0.24194,0.23876,-0.269
17.4,1.9288,0.24448,0.2413,-0.2709
17.5,1.9346,0.24701,0.24385,-0.2727
17.6,1.9405,0.24954,0.2464,-0.2746
17.7,1.9466,0.25227,0.24913,-0.2765
17.8,1.9526,0.2548,0.25168,-0.2783
17.9,1.9586,0.25733,0.25423,-0.2802
18,1.9646,0.25987,0.25678,-0.2819
18.1,1.9706,0.26241,0.25933,-0.2837
18.2,1.9766,0.26495,0.26188,-0.2855
18.3,1.9827,0.2675,0.26444,-0.2873
18.5,1.9942,0.27386,0.27082,-0.2918
18.6,1.9999,0.27709,0.27406,-0.2941
18.7,2.0058,0.28022,0.27721,-0.2963
18.8,2.0117,0.28329,0.28029,-0.2984
18.9,2.0176,0.28634,0.28335,-0.3005
19,2.0237,0.2898,0.28682,-0.3028

