airfoilName st8.dat
Re 	850000
M 	7.000000e-01
N 	4.500000e+00
VACC 	0 VACCflag 1
XTR 	1.00 	1.00 XTRflag 0
alpha,cl,cd,cdp,cm
-18.4,-1.5684,0.33135,0.32931,0.192
-18.3,-1.5609,0.32758,0.32555,0.1898
-18.2,-1.5534,0.32394,0.32191,0.1877
-18.1,-1.5459,0.32033,0.3183,0.1855
-18,-1.5384,0.31675,0.31472,0.1834
-17.9,-1.5309,0.3132,0.31118,0.1813
-17.8,-1.5234,0.3097,0.30767,0.1792
-17.7,-1.516,0.30622,0.30419,0.1771
-17.6,-1.5085,0.30277,0.30074,0.175
-17.5,-1.501,0.29935,0.29732,0.1729
-17.4,-1.4935,0.29597,0.29394,0.1708
-17.3,-1.4861,0.29261,0.29059,0.1688
-17.2,-1.4786,0.28929,0.28727,0.1668
-17.1,-1.4712,0.28599,0.28397,0.1647
-17,-1.4638,0.28273,0.28071,0.1627
-16.9,-1.4563,0.2795,0.27748,0.1607
-16.8,-1.4489,0.2763,0.27428,0.1587
-16.7,-1.4415,0.27311,0.2711,0.1568
-16.6,-1.4341,0.26996,0.26795,0.1548
-16.5,-1.4267,0.26685,0.26484,0.1529
-16.4,-1.4193,0.26376,0.26174,0.1509
-16.3,-1.4119,0.26069,0.25868,0.149
-16.2,-1.4046,0.25766,0.25565,0.1471
-16.1,-1.3972,0.25465,0.25264,0.1452
-16,-1.3899,0.25167,0.24966,0.1433
-15.9,-1.3825,0.24871,0.2467,0.1414
-15.8,-1.3752,0.24578,0.24377,0.1395
-15.7,-1.3676,0.24262,0.24061,0.1375
-15.6,-1.3603,0.23975,0.23775,0.1357
-15.5,-1.3531,0.23691,0.23491,0.1338
-15.4,-1.3458,0.23409,0.23209,0.132
-15.3,-1.3385,0.2313,0.2293,0.1302
-15.2,-1.3313,0.22855,0.22655,0.1284
-15.1,-1.3241,0.22581,0.22381,0.1266
-15,-1.3169,0.2231,0.2211,0.1249
-14.9,-1.3097,0.22041,0.21842,0.1231
-14.8,-1.3025,0.21775,0.21576,0.1213
-14.7,-1.2953,0.21511,0.21312,0.1196
-14.6,-1.2882,0.21249,0.21051,0.1179
-14.5,-1.281,0.2099,0.20792,0.1162
-14.4,-1.2739,0.20732,0.20534,0.1144
-14.3,-1.2667,0.20476,0.20278,0.1127
-14.2,-1.2596,0.20223,0.20025,0.111
-14.1,-1.2524,0.1997,0.19772,0.1094
-14,-1.2453,0.19719,0.19521,0.1077
-13.9,-1.2382,0.19468,0.1927,0.106
-13.8,-1.231,0.19218,0.1902,0.1043
-13.7,-1.2239,0.18969,0.18772,0.1027
-13.5,-1.2094,0.18447,0.18251,0.0992
-13.4,-1.2024,0.18223,0.18027,0.0977
-13.3,-1.1955,0.18,0.17804,0.0961
-13.2,-1.1885,0.1778,0.17584,0.0946
-13.1,-1.1816,0.17561,0.17366,0.093
-13,-1.1746,0.17345,0.1715,0.0915
-12.9,-1.1677,0.1713,0.16935,0.09
-12.8,-1.1608,0.16918,0.16723,0.0885
-12.7,-1.1539,0.16708,0.16513,0.087
-12.6,-1.147,0.16499,0.16305,0.0855
-12.5,-1.1401,0.16293,0.16099,0.084
-12.4,-1.1332,0.16088,0.15895,0.0825
-12.3,-1.1263,0.15886,0.15693,0.081
-12.2,-1.1193,0.15685,0.15492,0.0796
-12.1,-1.1124,0.15486,0.15293,0.0781
-12,-1.1054,0.15287,0.15095,0.0766
-11.9,-1.0984,0.1509,0.14898,0.0752
-11.8,-1.0914,0.14894,0.14703,0.0737
-11.7,-1.0844,0.147,0.14509,0.0723
-11.6,-1.0773,0.14507,0.14316,0.0708
-11.5,-1.0702,0.14315,0.14125,0.0694
-11.4,-1.0631,0.14125,0.13935,0.0679
-11.3,-1.0559,0.13936,0.13746,0.0664
-11.2,-1.0487,0.13748,0.13558,0.065
-11.1,-1.0414,0.13561,0.13371,0.0635
-11,-1.0341,0.13375,0.13186,0.0621
-10.9,-1.0267,0.13189,0.13001,0.0606
-10.8,-1.0193,0.13005,0.12817,0.0591
-10.7,-1.0118,0.12822,0.12635,0.0576
-10.6,-1.0043,0.1264,0.12453,0.0561
-10.5,-0.9966,0.12458,0.12271,0.0546
-10.4,-0.9889,0.12276,0.1209,0.0531
-10.3,-0.9811,0.12095,0.1191,0.0516
-10.2,-0.9732,0.11916,0.11731,0.0501
-10.1,-0.9653,0.11737,0.11552,0.0486
-10,-0.9572,0.11554,0.1137,0.0469
-9.9,-0.9491,0.11377,0.11194,0.0454
-9.8,-0.941,0.11202,0.11019,0.0438
-9.7,-0.9329,0.11028,0.10845,0.0423
-9.6,-0.9247,0.10856,0.10674,0.0407
-9.5,-0.9164,0.10685,0.10504,0.0392
-9.4,-0.9081,0.10516,0.10335,0.0376
-9.3,-0.8998,0.10349,0.10168,0.036
-9.2,-0.8914,0.10182,0.10002,0.0345
-9.1,-0.8828,0.10016,0.09837,0.0329
-9,-0.8743,0.09853,0.09674,0.0313
-8.9,-0.8657,0.09691,0.09512,0.0297
-8.8,-0.857,0.0953,0.09352,0.0281
-8.7,-0.8483,0.09371,0.09194,0.0264
-8.6,-0.8395,0.09213,0.09036,0.0248
-8.5,-0.8307,0.09058,0.08882,0.0232
-8.4,-0.8218,0.08902,0.08727,0.0215
-8.3,-0.8128,0.08748,0.08574,0.0198
-8.2,-0.8037,0.08593,0.0842,0.0181
-8.1,-0.7938,0.08437,0.08264,0.0162
-8,-0.7818,0.08265,0.08092,0.0136
-7.9,-0.7708,0.08093,0.07919,0.0113
-7.8,-0.7617,0.07961,0.07785,0.0099
-7.7,-0.7536,0.07835,0.07657,0.0087
-7.6,-0.7453,0.07711,0.07531,0.0074
-7.5,-0.7375,0.07591,0.07407,0.0063
-7.4,-0.7287,0.07468,0.07281,0.005
-7.3,-0.7196,0.07344,0.07155,0.0035
-7.2,-0.7102,0.0722,0.07029,0.0019
-7.1,-0.7006,0.07096,0.06902,0.0004
-7,-0.6909,0.06975,0.06777,-0.0012
-6.9,-0.6808,0.06852,0.06652,-0.003
-6.8,-0.6703,0.06728,0.06526,-0.0048
-6.7,-0.6597,0.06605,0.06401,-0.0067
-6.6,-0.6486,0.06482,0.06275,-0.0087
-6.5,-0.6376,0.0636,0.0615,-0.0107
-6.4,-0.6263,0.06238,0.06025,-0.0127
-6.3,-0.6146,0.06116,0.059,-0.0149
-6.2,-0.6027,0.05993,0.05775,-0.0172
-6.1,-0.5909,0.05871,0.0565,-0.0194
-6,-0.579,0.05754,0.05531,-0.0218
-5.9,-0.5639,0.05625,0.05399,-0.025
-5.8,-0.5464,0.05485,0.05256,-0.0288
-5.7,-0.5283,0.05343,0.05109,-0.0326
-5.6,-0.5092,0.05194,0.04958,-0.0366
-5.5,-0.4893,0.05042,0.04801,-0.0408
-5.4,-0.4688,0.04885,0.0464,-0.045
-5.2,-0.4254,0.0454,0.04287,-0.054
-5.1,-0.4029,0.04376,0.04119,-0.0584
-5,-0.3804,0.04217,0.03954,-0.0625
-4.9,-0.3574,0.04052,0.03783,-0.0666
-4.8,-0.334,0.0388,0.03605,-0.0707
-4.6,-0.2869,0.03518,0.03227,-0.0788
-4.5,-0.2633,0.03324,0.03024,-0.0827
-3.6,-0.0746,0.01506,0.01007,-0.1049
-3.5,-0.0539,0.01396,0.00865,-0.1051
-3.4,-0.0328,0.01315,0.00755,-0.105
-3.3,-0.0117,0.01253,0.00667,-0.1047
-3.2,0.0096,0.01203,0.00597,-0.1043
-3.1,0.0308,0.01166,0.00542,-0.1038
-2.9,0.0726,0.01123,0.00477,-0.1029
-2.8,0.093,0.0111,0.00453,-0.1025
-2.7,0.1134,0.01098,0.00431,-0.102
-2.6,0.1335,0.01089,0.00415,-0.1017
-2.5,0.1533,0.01083,0.00402,-0.1013
-2.4,0.1733,0.01076,0.00391,-0.101
-2.3,0.1932,0.01071,0.00379,-0.1007
-2.2,0.2129,0.01065,0.0037,-0.1004
-2.1,0.2323,0.01063,0.00362,-0.1002
-2,0.2518,0.0106,0.00355,-0.0999
-1.9,0.2713,0.01057,0.00347,-0.0997
-1.8,0.2903,0.01055,0.00343,-0.0995
-1.7,0.3095,0.01055,0.00339,-0.0993
-1.6,0.3286,0.01054,0.00334,-0.0991
-1.5,0.3471,0.01058,0.00333,-0.0988
-1.4,0.3661,0.01058,0.0033,-0.0987
-1.3,0.385,0.01057,0.00328,-0.0985
-1.2,0.4038,0.01059,0.00327,-0.0984
-1.1,0.4225,0.0106,0.00326,-0.0982
-1,0.4411,0.01064,0.00327,-0.098
-0.9,0.4595,0.01068,0.00328,-0.0979
-0.8,0.4778,0.01072,0.00329,-0.0977
-0.7,0.4952,0.01085,0.00335,-0.0975
-0.6,0.5129,0.01095,0.00339,-0.0973
-0.5,0.5305,0.01106,0.00346,-0.0972
-0.4,0.548,0.01119,0.00353,-0.097
-0.3,0.5658,0.0113,0.00359,-0.0969
-0.2,0.584,0.01139,0.00366,-0.0967
-0.1,0.6022,0.01145,0.00373,-0.0967
0,0.6207,0.0115,0.00377,-0.0966
0.1,0.6393,0.01157,0.00383,-0.0964
0.2,0.6576,0.01163,0.0039,-0.0964
0.3,0.6763,0.01168,0.00396,-0.0963
0.4,0.695,0.01174,0.00402,-0.0961
0.5,0.7137,0.01178,0.00409,-0.0961
0.6,0.7326,0.01183,0.00415,-0.0959
0.7,0.7515,0.01188,0.00421,-0.0958
0.8,0.7704,0.01194,0.00428,-0.0957
0.9,0.7891,0.01198,0.00436,-0.0956
1,0.8082,0.01202,0.00443,-0.0955
1.1,0.8272,0.01208,0.00451,-0.0953
1.2,0.8462,0.01211,0.00459,-0.0952
1.3,0.8653,0.01217,0.00467,-0.0951
1.4,0.8844,0.01219,0.00476,-0.095
1.5,0.9038,0.01222,0.00484,-0.0949
1.6,0.9232,0.01227,0.00493,-0.0947
1.7,0.9426,0.01231,0.00502,-0.0946
1.8,0.9619,0.01231,0.00511,-0.0945
1.9,0.9814,0.01236,0.00522,-0.0943
2,1.0009,0.01231,0.00532,-0.0942
2.1,1.0206,0.01231,0.00542,-0.094
2.3,1.0561,0.01194,0.00568,-0.093
2.4,1.0717,0.0119,0.00579,-0.0918
2.5,1.0848,0.01189,0.00589,-0.09
2.6,1.0999,0.01184,0.00593,-0.0885
2.7,1.1217,0.01193,0.00603,-0.0884
2.8,1.1422,0.01205,0.00616,-0.0881
2.9,1.1629,0.01218,0.00629,-0.0877
3,1.1834,0.01231,0.00643,-0.0873
3.1,1.2043,0.01245,0.00658,-0.0869
3.2,1.2251,0.0126,0.00672,-0.0865
3.3,1.2464,0.01273,0.00688,-0.0861
3.4,1.2678,0.01288,0.00704,-0.0856
3.5,1.2895,0.01303,0.00722,-0.0851
3.6,1.3113,0.01319,0.0074,-0.0846
3.7,1.3332,0.01336,0.00759,-0.0841
3.8,1.3553,0.01354,0.00779,-0.0836
3.9,1.3779,0.01373,0.00801,-0.083
4,1.4008,0.01394,0.00827,-0.0824
4.1,1.4239,0.01417,0.00855,-0.0818
4.2,1.4471,0.01442,0.00886,-0.0812
4.3,1.4702,0.01471,0.00922,-0.0805
4.4,1.4932,0.01504,0.00963,-0.0797
4.5,1.5157,0.01538,0.01006,-0.0789
4.6,1.5373,0.0158,0.0106,-0.0779
4.7,1.5571,0.01633,0.01127,-0.0769
4.8,1.5747,0.01693,0.01205,-0.0757
4.9,1.5898,0.0176,0.0129,-0.0744
5,1.6025,0.01833,0.01383,-0.0729
5.1,1.6125,0.01912,0.0148,-0.0713
5.2,1.62,0.01996,0.01583,-0.0696
5.3,1.625,0.02085,0.01688,-0.0678
5.4,1.6278,0.02176,0.01796,-0.0659
5.5,1.6284,0.02271,0.01906,-0.0639
5.6,1.627,0.02367,0.02016,-0.0619
5.7,1.6223,0.02467,0.02128,-0.0599
5.8,1.6139,0.02574,0.02247,-0.0578
6,1.5913,0.02784,0.02477,-0.0535
6.3,1.5623,0.03244,0.02968,-0.0547
7,1.5103,0.0501,0.04782,-0.0825
7.1,1.5073,0.05235,0.05009,-0.0858
7.2,1.5059,0.05442,0.05217,-0.0888
7.4,1.5074,0.05815,0.05591,-0.0941
7.5,1.5034,0.06047,0.05823,-0.0978
7.6,1.5019,0.06255,0.06032,-0.1009
7.7,1.5021,0.06447,0.06225,-0.1038
7.8,1.5034,0.0663,0.06408,-0.1064
7.9,1.5055,0.06802,0.06581,-0.1088
8.1,1.5127,0.07117,0.06896,-0.1131
8.2,1.5171,0.07266,0.07045,-0.115
8.3,1.5188,0.07445,0.07223,-0.1175
8.4,1.5198,0.07634,0.07413,-0.1202
8.5,1.522,0.07808,0.07588,-0.1225
8.6,1.5251,0.07975,0.07755,-0.1247
8.7,1.5287,0.08136,0.07916,-0.1268
8.8,1.5329,0.08291,0.08072,-0.1287
8.9,1.5374,0.08441,0.08223,-0.1305
9,1.5421,0.08588,0.08369,-0.1323
9.1,1.5472,0.08731,0.08513,-0.1339
9.3,1.5549,0.09049,0.08831,-0.1378
9.4,1.5577,0.09224,0.09007,-0.1399
9.5,1.5613,0.0939,0.09173,-0.1419
9.6,1.5653,0.0955,0.09333,-0.1438
9.7,1.5697,0.09706,0.0949,-0.1455
9.8,1.5744,0.09858,0.09643,-0.1472
9.9,1.5794,0.10007,0.09792,-0.1488
10,1.5845,0.10154,0.09939,-0.1504
10.1,1.5898,0.10298,0.10084,-0.1519
10.2,1.5952,0.10439,0.10225,-0.1534
10.3,1.6008,0.10577,0.10364,-0.1548
10.4,1.6046,0.10743,0.10529,-0.1566
10.5,1.6065,0.10943,0.1073,-0.1589
10.6,1.6105,0.11109,0.10897,-0.1607
10.7,1.6147,0.11271,0.11059,-0.1624
10.8,1.6193,0.11428,0.11217,-0.164
10.9,1.6239,0.11583,0.11372,-0.1656
11,1.6288,0.11735,0.11524,-0.1671
11.1,1.6337,0.11885,0.11675,-0.1686
11.2,1.6387,0.12032,0.11822,-0.1701
11.3,1.6439,0.12177,0.11968,-0.1714
11.4,1.6491,0.1232,0.12111,-0.1728
11.5,1.6544,0.1246,0.12252,-0.1741
11.6,1.6579,0.12639,0.12431,-0.176
11.7,1.6612,0.12826,0.12618,-0.1779
11.8,1.6646,0.13016,0.12809,-0.1799
11.9,1.6689,0.13184,0.12978,-0.1815
12,1.6734,0.13349,0.13143,-0.1831
12.1,1.678,0.13512,0.13306,-0.1846
12.2,1.6827,0.13672,0.13467,-0.1861
12.3,1.6875,0.13831,0.13627,-0.1876
12.4,1.6925,0.13989,0.13785,-0.189
12.5,1.6975,0.14146,0.13943,-0.1905
12.6,1.7027,0.14303,0.141,-0.1919
12.7,1.7079,0.14458,0.14255,-0.1932
12.8,1.7132,0.14612,0.1441,-0.1946
12.9,1.7171,0.14809,0.14607,-0.1964
13,1.7208,0.15015,0.14813,-0.1984
13.1,1.7251,0.1521,0.15009,-0.2001
13.2,1.7293,0.15412,0.15212,-0.202
13.3,1.734,0.15598,0.15398,-0.2037
13.4,1.7389,0.15782,0.15583,-0.2053
13.5,1.7439,0.15965,0.15766,-0.2068
13.6,1.749,0.16147,0.15949,-0.2084
13.7,1.7542,0.16328,0.16131,-0.2099
13.8,1.7595,0.16509,0.16313,-0.2115
13.9,1.7649,0.16691,0.16494,-0.213
14,1.7703,0.16871,0.16676,-0.2145
14.1,1.7758,0.17051,0.16856,-0.2159
14.2,1.7813,0.17231,0.17037,-0.2174
14.3,1.7854,0.17466,0.17271,-0.2194
14.4,1.7898,0.17695,0.17501,-0.2214
14.5,1.7946,0.17915,0.17721,-0.2232
14.6,1.7995,0.1813,0.17937,-0.225
14.7,1.8044,0.18356,0.18164,-0.2269
14.8,1.8095,0.18567,0.18375,-0.2286
14.9,1.8148,0.18777,0.18586,-0.2303
15,1.8201,0.18987,0.18797,-0.232
15.1,1.8255,0.19196,0.19007,-0.2336
15.2,1.831,0.19406,0.19217,-0.2353
15.3,1.8365,0.19616,0.19427,-0.2369
15.4,1.842,0.19826,0.19638,-0.2385
15.5,1.8476,0.20037,0.19849,-0.2401
15.6,1.8533,0.20247,0.20061,-0.2418
15.7,1.8589,0.20458,0.20272,-0.2434
15.8,1.864,0.20702,0.20516,-0.2453
15.9,1.8686,0.20966,0.2078,-0.2474
16,1.8737,0.21217,0.21032,-0.2493
16.1,1.8789,0.21463,0.21279,-0.2512
16.2,1.8842,0.21707,0.21523,-0.2531
16.3,1.8894,0.21965,0.21782,-0.255
16.4,1.8949,0.22206,0.22024,-0.2568
16.5,1.9004,0.22448,0.22266,-0.2587
16.6,1.906,0.22691,0.22509,-0.2605
16.7,1.9116,0.22933,0.22752,-0.2622
16.8,1.9172,0.23175,0.22995,-0.264
16.9,1.9229,0.23419,0.23239,-0.2658
17,1.9287,0.23663,0.23484,-0.2676
17.1,1.9344,0.23907,0.23729,-0.2694
17.2,1.9402,0.24152,0.23974,-0.2711
17.3,1.946,0.24398,0.24221,-0.2729
17.4,1.9519,0.24644,0.24468,-0.2747
17.5,1.9577,0.24892,0.24717,-0.2764
17.6,1.9636,0.2514,0.24966,-0.2782
17.7,1.9686,0.25445,0.25271,-0.2804
17.8,1.9738,0.25738,0.25564,-0.2826
17.9,1.9793,0.2602,0.25848,-0.2846
18,1.9848,0.26302,0.2613,-0.2866
18.1,1.9904,0.2658,0.26409,-0.2885
18.2,1.996,0.26877,0.26707,-0.2906
18.3,2.0018,0.27157,0.26988,-0.2926
18.4,2.0076,0.27438,0.2727,-0.2945
18.5,2.0134,0.27719,0.27552,-0.2965
18.6,2.0193,0.28001,0.27834,-0.2984
18.7,2.0252,0.28284,0.28118,-0.3003
18.8,2.0311,0.28568,0.28403,-0.3023
18.9,2.0371,0.28853,0.28688,-0.3042
19,2.0432,0.29139,0.28976,-0.3061
19.1,2.0493,0.29427,0.29264,-0.308
19.2,2.0539,0.29819,0.29656,-0.3108
19.3,2.0594,0.30158,0.29997,-0.3131
19.4,2.065,0.30489,0.30328,-0.3153
19.5,2.0707,0.30816,0.30656,-0.3175
19.6,2.0765,0.31141,0.30982,-0.3196
19.8,2.0885,0.31793,0.31636,-0.3238

