airfoilName st9.dat
Re 	990000
M 	7.000000e-01
N 	4.500000e+00
VACC 	0 VACCflag 1
XTR 	1.00 	1.00 XTRflag 0
alpha,cl,cd,cdp,cm
-19.9,-1.5799,0.38145,0.37959,0.2119
-19.8,-1.5725,0.37741,0.37555,0.2095
-19.7,-1.5651,0.37345,0.37159,0.2072
-19.6,-1.5578,0.36952,0.36766,0.2049
-19.5,-1.5504,0.36562,0.36376,0.2027
-19.4,-1.5431,0.36178,0.35991,0.2004
-19.3,-1.5357,0.35794,0.35608,0.1981
-19.2,-1.5283,0.35416,0.3523,0.1959
-19.1,-1.521,0.35039,0.34853,0.1936
-19,-1.5136,0.34666,0.3448,0.1914
-18.9,-1.5062,0.34294,0.34108,0.1892
-18.8,-1.4989,0.33927,0.33742,0.187
-18.7,-1.4911,0.33521,0.33335,0.1846
-18.6,-1.4838,0.3316,0.32974,0.1824
-18.5,-1.4764,0.32803,0.32618,0.1802
-18.4,-1.469,0.32448,0.32262,0.1781
-18.3,-1.4617,0.32095,0.3191,0.1759
-18.2,-1.4543,0.31745,0.3156,0.1738
-18.1,-1.4469,0.314,0.31215,0.1716
-18,-1.4396,0.31055,0.3087,0.1695
-17.9,-1.4322,0.30714,0.30529,0.1674
-17.8,-1.4248,0.30376,0.30192,0.1653
-17.7,-1.4175,0.30042,0.29857,0.1632
-17.6,-1.4101,0.29706,0.29521,0.1611
-17.5,-1.4027,0.29373,0.29189,0.159
-17.4,-1.3953,0.29043,0.28858,0.157
-17.3,-1.388,0.28716,0.28532,0.1549
-17.2,-1.3806,0.28389,0.28205,0.1529
-17.1,-1.3732,0.28065,0.2788,0.1508
-17,-1.3658,0.27745,0.27561,0.1488
-16.7,-1.343,0.26714,0.2653,0.1425
-16.6,-1.3359,0.26427,0.26243,0.1406
-16.5,-1.3288,0.26143,0.2596,0.1387
-16.4,-1.3217,0.25861,0.25678,0.1368
-16.3,-1.3145,0.25582,0.25399,0.135
-16.2,-1.3074,0.25305,0.25122,0.1331
-16.1,-1.3003,0.25031,0.24848,0.1313
-16,-1.2932,0.24759,0.24576,0.1295
-15.9,-1.2862,0.2449,0.24307,0.1277
-15.8,-1.2791,0.24222,0.2404,0.1259
-15.7,-1.272,0.23958,0.23776,0.1241
-15.6,-1.265,0.23695,0.23513,0.1224
-15.5,-1.258,0.23435,0.23253,0.1206
-15.4,-1.2509,0.23177,0.22995,0.1189
-15.3,-1.2439,0.22922,0.2274,0.1172
-15.2,-1.2369,0.22668,0.22487,0.1154
-15.1,-1.2299,0.22417,0.22235,0.1137
-15,-1.223,0.22168,0.21986,0.112
-14.9,-1.216,0.21921,0.2174,0.1104
-14.8,-1.209,0.21677,0.21496,0.1087
-14.7,-1.2021,0.21434,0.21254,0.107
-14.6,-1.1952,0.21194,0.21013,0.1054
-14.5,-1.1882,0.20956,0.20776,0.1037
-14.4,-1.1813,0.2072,0.2054,0.1021
-14.3,-1.1744,0.20486,0.20306,0.1005
-14.2,-1.1676,0.20254,0.20075,0.0989
-14.1,-1.1607,0.20024,0.19844,0.0973
-14,-1.1538,0.19795,0.19615,0.0957
-13.9,-1.1468,0.19569,0.19389,0.0941
-13.8,-1.1399,0.19342,0.19163,0.0925
-13.7,-1.133,0.19118,0.1894,0.0909
-13.6,-1.1261,0.18896,0.18717,0.0894
-13.5,-1.1192,0.18675,0.18497,0.0878
-13.4,-1.1123,0.18457,0.18279,0.0863
-13.3,-1.1054,0.18239,0.18062,0.0848
-13.2,-1.0986,0.18024,0.17847,0.0833
-13.1,-1.0917,0.1781,0.17633,0.0818
-13,-1.0848,0.17598,0.17422,0.0803
-12.9,-1.0779,0.17388,0.17212,0.0788
-12.8,-1.0711,0.1718,0.17003,0.0773
-12.7,-1.0642,0.16973,0.16797,0.0758
-12.6,-1.0573,0.16767,0.16591,0.0744
-12.5,-1.0505,0.16563,0.16387,0.0729
-12.4,-1.0436,0.16361,0.16185,0.0715
-12.3,-1.0367,0.1616,0.15985,0.07
-12.2,-1.0298,0.15961,0.15786,0.0686
-12.1,-1.0229,0.15763,0.15588,0.0671
-12,-1.0159,0.15565,0.15391,0.0657
-11.9,-1.0089,0.15369,0.15194,0.0643
-11.8,-1.0018,0.15172,0.14999,0.0628
-11.7,-0.9947,0.14978,0.14804,0.0614
-11.6,-0.9876,0.14783,0.1461,0.0599
-11.5,-0.9804,0.1459,0.14417,0.0585
-11.4,-0.9732,0.14398,0.14225,0.057
-11.3,-0.966,0.14207,0.14035,0.0556
-11.2,-0.9587,0.14016,0.13844,0.0541
-11.1,-0.9513,0.13827,0.13656,0.0527
-11,-0.9439,0.13639,0.13468,0.0512
-10.9,-0.9365,0.13451,0.13281,0.0498
-10.8,-0.929,0.13265,0.13095,0.0483
-10.7,-0.9215,0.13079,0.12909,0.0469
-10.6,-0.9139,0.12896,0.12726,0.0454
-10.5,-0.9063,0.12712,0.12543,0.0439
-10.4,-0.8986,0.1253,0.12361,0.0425
-10.3,-0.8908,0.12348,0.1218,0.041
-10.2,-0.883,0.12167,0.11999,0.0395
-10.1,-0.8752,0.11987,0.1182,0.038
-10,-0.8673,0.11808,0.11641,0.0365
-9.9,-0.8594,0.11631,0.11464,0.0351
-9.8,-0.8514,0.11455,0.11289,0.0336
-9.7,-0.8434,0.1128,0.11114,0.0321
-9.6,-0.8354,0.11106,0.10941,0.0306
-9.5,-0.8273,0.10932,0.10767,0.0291
-9.4,-0.8192,0.1076,0.10595,0.0276
-9.3,-0.811,0.10587,0.10423,0.0261
-9.2,-0.8028,0.10411,0.10248,0.0246
-9.1,-0.7945,0.10221,0.10058,0.023
-9,-0.7861,0.10052,0.0989,0.0214
-8.9,-0.7778,0.09898,0.09737,0.0199
-8.8,-0.7693,0.09746,0.09586,0.0184
-8.7,-0.7609,0.09596,0.09436,0.0169
-8.6,-0.7515,0.09443,0.09284,0.0151
-8.5,-0.7405,0.09281,0.09122,0.0129
-8.4,-0.7302,0.09124,0.08964,0.0109
-8.3,-0.721,0.08978,0.08817,0.0093
-8.2,-0.7132,0.08843,0.08679,0.0082
-8.1,-0.7057,0.08711,0.08546,0.0072
-8,-0.698,0.0858,0.08412,0.0061
-7.9,-0.6906,0.08454,0.08283,0.0051
-7.7,-0.674,0.08199,0.08023,0.0026
-7.6,-0.6654,0.08068,0.0789,0.0013
-7.5,-0.6566,0.07937,0.07756,-0.0001
-7.4,-0.6479,0.0781,0.07626,-0.0014
-7.3,-0.6389,0.07682,0.07494,-0.0029
-7.2,-0.6294,0.07552,0.07363,-0.0045
-7.1,-0.6199,0.07424,0.07232,-0.006
-7,-0.61,0.07296,0.07102,-0.0077
-6.9,-0.6001,0.07169,0.06973,-0.0093
-6.8,-0.5902,0.07045,0.06845,-0.011
-6.7,-0.5799,0.0692,0.06717,-0.0127
-6.6,-0.5694,0.06793,0.06589,-0.0146
-6.5,-0.5587,0.06669,0.06462,-0.0164
-6.4,-0.5478,0.06545,0.06336,-0.0183
-6.3,-0.5367,0.0642,0.0621,-0.0203
-6.2,-0.5257,0.06298,0.06084,-0.0223
-6.1,-0.5143,0.06175,0.05959,-0.0244
-6,-0.5031,0.06054,0.05835,-0.0264
-5.9,-0.492,0.05937,0.05717,-0.0286
-5.8,-0.4778,0.05809,0.05586,-0.0315
-5.7,-0.4616,0.05672,0.05446,-0.0349
-5.6,-0.4447,0.05532,0.05303,-0.0384
-5.5,-0.4275,0.05392,0.05159,-0.0419
-5.4,-0.4093,0.05246,0.0501,-0.0455
-5.3,-0.3906,0.05098,0.04859,-0.0492
-5.2,-0.3712,0.04946,0.04703,-0.0531
-5.1,-0.3513,0.0479,0.04543,-0.0569
-5,-0.3309,0.04629,0.04377,-0.0608
-4.9,-0.3099,0.04459,0.04204,-0.0649
-4.8,-0.2887,0.04285,0.04023,-0.0689
-4.7,-0.2669,0.04131,0.03865,-0.0726
-4.6,-0.245,0.03976,0.03704,-0.0763
-4.5,-0.2228,0.03817,0.03538,-0.0798
-4.4,-0.2005,0.03654,0.03368,-0.0833
-4.3,-0.1785,0.03491,0.03196,-0.0866
-4,-0.1125,0.02966,0.02636,-0.0959
-3.9,-0.0911,0.02778,0.02434,-0.0987
-3.3,0.0306,0.01617,0.0115,-0.1102
-3.2,0.0507,0.01477,0.00979,-0.1109
-3,0.0918,0.01265,0.00709,-0.1112
-2.9,0.1123,0.01197,0.00614,-0.1109
-2.8,0.1331,0.01149,0.00547,-0.1106
-2.7,0.1534,0.0112,0.00502,-0.1101
-2.6,0.1739,0.01096,0.00465,-0.1097
-2.5,0.1942,0.01079,0.00436,-0.1093
-2.4,0.2144,0.01065,0.00413,-0.1089
-2.3,0.2343,0.01056,0.00399,-0.1086
-2.2,0.2539,0.01049,0.00385,-0.1083
-2.1,0.2736,0.01043,0.00372,-0.1079
-2,0.2927,0.0104,0.00363,-0.1076
-1.9,0.3118,0.01038,0.00356,-0.1073
-1.8,0.3312,0.01035,0.00348,-0.1071
-1.7,0.3504,0.01032,0.00341,-0.1069
-1.6,0.3692,0.01032,0.00337,-0.1066
-1.5,0.3882,0.01031,0.00333,-0.1064
-1.4,0.4068,0.01032,0.0033,-0.1062
-1.3,0.4251,0.01037,0.00329,-0.1059
-1.2,0.4437,0.01039,0.00327,-0.1057
-1.1,0.4621,0.01041,0.00326,-0.1055
-1,0.4805,0.01045,0.00326,-0.1053
-0.9,0.4987,0.01049,0.00327,-0.1052
-0.8,0.5166,0.01056,0.0033,-0.105
-0.7,0.5343,0.01065,0.00333,-0.1047
-0.6,0.5517,0.01077,0.0034,-0.1045
-0.5,0.5678,0.01098,0.0035,-0.1042
-0.4,0.5854,0.01109,0.00356,-0.104
-0.3,0.6032,0.01118,0.00363,-0.1039
-0.2,0.6213,0.01124,0.00367,-0.1037
-0.1,0.6395,0.01128,0.00373,-0.1036
0,0.6579,0.01133,0.00378,-0.1035
0.1,0.6761,0.01139,0.00384,-0.1033
0.2,0.6946,0.01141,0.0039,-0.1032
0.3,0.7131,0.01145,0.00395,-0.1031
0.4,0.7312,0.01153,0.00402,-0.1029
0.5,0.7497,0.01156,0.00409,-0.1028
0.6,0.7683,0.0116,0.00415,-0.1027
0.7,0.7869,0.01165,0.00422,-0.1025
0.8,0.8054,0.01169,0.00429,-0.1024
0.9,0.8239,0.01176,0.00437,-0.1022
1,0.8426,0.01181,0.00444,-0.1021
1.1,0.8614,0.01183,0.00451,-0.1019
1.2,0.8802,0.01189,0.00459,-0.1017
1.3,0.8987,0.01196,0.00468,-0.1015
1.4,0.9174,0.01199,0.00477,-0.1014
1.5,0.9363,0.01203,0.00486,-0.1012
1.6,0.9553,0.01208,0.00495,-0.101
1.7,0.9743,0.01209,0.00504,-0.1008
1.8,0.9933,0.01214,0.00514,-0.1006
1.9,1.0122,0.01214,0.00525,-0.1005
2,1.0313,0.01218,0.00536,-0.1002
2.1,1.0506,0.01219,0.00547,-0.1
2.4,1.0893,0.01139,0.00579,-0.0955
2.5,1.1107,0.01147,0.00587,-0.0954
2.6,1.1301,0.0116,0.006,-0.095
2.7,1.1498,0.01171,0.00613,-0.0946
2.8,1.1697,0.01183,0.00625,-0.0942
2.9,1.1896,0.01196,0.00639,-0.0938
3,1.2095,0.01208,0.00652,-0.0933
3.1,1.2295,0.01222,0.00667,-0.0928
3.2,1.2495,0.01236,0.00682,-0.0923
3.3,1.2696,0.01251,0.00698,-0.0917
3.4,1.2902,0.01264,0.00714,-0.0912
3.5,1.3107,0.01278,0.0073,-0.0906
3.6,1.3315,0.01294,0.00747,-0.09
3.7,1.3523,0.01309,0.00765,-0.0894
3.8,1.3733,0.01326,0.00785,-0.0887
3.9,1.3945,0.01344,0.00805,-0.088
4,1.4159,0.01362,0.00827,-0.0873
4.1,1.4378,0.01383,0.00852,-0.0866
4.2,1.4599,0.01405,0.00879,-0.0859
4.3,1.482,0.01429,0.00909,-0.0851
4.4,1.5042,0.01457,0.00943,-0.0842
4.5,1.5262,0.01488,0.00982,-0.0834
4.6,1.5479,0.01525,0.01028,-0.0824
4.7,1.5687,0.01566,0.0108,-0.0814
4.8,1.588,0.01614,0.0114,-0.0802
4.9,1.6047,0.01675,0.01216,-0.0788
5,1.6186,0.01742,0.013,-0.0773
5.1,1.6297,0.01816,0.01391,-0.0756
5.2,1.638,0.01895,0.01487,-0.0737
5.3,1.6435,0.01978,0.01587,-0.0717
5.4,1.6464,0.02065,0.0169,-0.0695
5.5,1.6466,0.02153,0.01792,-0.0672
5.6,1.6445,0.02243,0.01896,-0.0648
5.7,1.6404,0.02334,0.01998,-0.0624
5.8,1.633,0.02419,0.02093,-0.0596
5.9,1.6244,0.02511,0.02194,-0.0569
6.1,1.6049,0.02756,0.0246,-0.054
6.3,1.5865,0.0307,0.02796,-0.0543
6.4,1.5779,0.03257,0.02993,-0.0558
6.6,1.5615,0.03689,0.03444,-0.061
6.7,1.5545,0.0393,0.03693,-0.0645
6.8,1.5476,0.04182,0.03952,-0.0682
7.2,1.5147,0.05268,0.05055,-0.0831
7.4,1.5048,0.05749,0.0554,-0.0894
7.5,1.5023,0.05968,0.0576,-0.0923
7.7,1.5022,0.06352,0.06146,-0.0972
7.9,1.4968,0.06795,0.06589,-0.1032
8,1.4954,0.07004,0.06799,-0.1061
8.1,1.4953,0.07202,0.06997,-0.1087
8.2,1.4963,0.07391,0.07186,-0.1111
8.3,1.498,0.07571,0.07366,-0.1133
8.4,1.5005,0.07744,0.0754,-0.1154
8.5,1.5037,0.07909,0.07706,-0.1174
8.6,1.5074,0.08069,0.07866,-0.1193
8.7,1.5115,0.08224,0.08021,-0.121
8.8,1.5093,0.08451,0.08248,-0.1241
8.9,1.5109,0.08638,0.08436,-0.1264
9,1.5132,0.08817,0.08615,-0.1285
9.1,1.5162,0.08989,0.08787,-0.1305
9.2,1.5197,0.09155,0.08953,-0.1323
9.3,1.5236,0.09316,0.09115,-0.1341
9.4,1.5279,0.09473,0.09272,-0.1358
9.5,1.5325,0.09626,0.09425,-0.1374
9.6,1.5374,0.09775,0.09575,-0.1389
9.7,1.542,0.09927,0.09727,-0.1405
9.8,1.5428,0.10133,0.09933,-0.1429
9.9,1.5445,0.10328,0.10129,-0.1451
10,1.5477,0.10501,0.10303,-0.1469
10.1,1.5514,0.10669,0.10471,-0.1487
10.2,1.5555,0.10833,0.10635,-0.1503
10.3,1.5598,0.10992,0.10795,-0.1519
10.4,1.5643,0.11149,0.10952,-0.1535
10.5,1.5691,0.11302,0.11105,-0.1549
10.6,1.574,0.11452,0.11256,-0.1563
10.7,1.5791,0.11599,0.11403,-0.1577
10.8,1.5839,0.1175,0.11554,-0.1592
10.9,1.5854,0.11958,0.11762,-0.1614
11,1.5884,0.12144,0.11949,-0.1633
11.1,1.5918,0.12322,0.12128,-0.165
11.2,1.5955,0.12499,0.12306,-0.1668
11.3,1.5996,0.12666,0.12473,-0.1684
11.4,1.6039,0.12829,0.12636,-0.1699
11.5,1.6084,0.12988,0.12796,-0.1714
11.6,1.613,0.13145,0.12953,-0.1728
11.7,1.6178,0.13299,0.13108,-0.1742
11.8,1.6226,0.13451,0.1326,-0.1755
11.9,1.6276,0.13601,0.1341,-0.1769
12,1.6327,0.13749,0.13559,-0.1782
12.1,1.6352,0.13958,0.13768,-0.1802
12.2,1.6383,0.14156,0.13967,-0.1821
12.3,1.642,0.14345,0.14156,-0.1839
12.4,1.646,0.14527,0.14339,-0.1855
12.5,1.6502,0.14707,0.14519,-0.1872
12.6,1.6546,0.14887,0.147,-0.1888
12.7,1.6592,0.1506,0.14874,-0.1903
12.8,1.6639,0.15232,0.15046,-0.1918
12.9,1.6688,0.15403,0.15217,-0.1933
13,1.6738,0.15572,0.15387,-0.1947
13.1,1.6789,0.1574,0.15555,-0.1962
13.2,1.6841,0.15907,0.15723,-0.1976
13.3,1.6893,0.16073,0.15889,-0.199
13.4,1.6935,0.16274,0.16091,-0.2007
13.5,1.6969,0.16503,0.1632,-0.2028
13.6,1.7009,0.16714,0.16531,-0.2046
13.7,1.7053,0.16919,0.16737,-0.2064
13.8,1.7098,0.1712,0.16939,-0.2081
13.9,1.7145,0.17319,0.17138,-0.2097
14,1.7193,0.17516,0.17336,-0.2113
14.1,1.7243,0.17714,0.17535,-0.213
14.2,1.7293,0.17908,0.17729,-0.2146
14.3,1.7345,0.18101,0.17923,-0.2161
14.4,1.7398,0.18294,0.18116,-0.2177
14.5,1.7451,0.18486,0.18308,-0.2192
14.6,1.7505,0.18678,0.18501,-0.2207
14.7,1.756,0.18869,0.18693,-0.2222
14.8,1.7612,0.19071,0.18895,-0.2238
14.9,1.7648,0.1934,0.19164,-0.2261
15,1.7693,0.1958,0.19405,-0.228
15.1,1.774,0.19813,0.19639,-0.2299
15.2,1.7789,0.20041,0.19868,-0.2317
15.3,1.7839,0.20268,0.20095,-0.2335
15.4,1.7891,0.20494,0.20321,-0.2352
15.5,1.7943,0.20718,0.20546,-0.237
15.6,1.7996,0.20947,0.20775,-0.2387
15.7,1.805,0.2117,0.20999,-0.2405
15.8,1.8104,0.21393,0.21223,-0.2421
15.9,1.8159,0.21616,0.21447,-0.2438
16,1.8215,0.2184,0.21671,-0.2455
16.1,1.8271,0.22063,0.21895,-0.2472
16.2,1.8327,0.22287,0.22119,-0.2489
16.3,1.8384,0.22512,0.22345,-0.2505
16.4,1.8441,0.22737,0.2257,-0.2522
16.5,1.8485,0.23026,0.2286,-0.2544
16.6,1.8534,0.23301,0.23135,-0.2565
16.7,1.8585,0.23565,0.23401,-0.2585
16.8,1.8637,0.23827,0.23663,-0.2604
16.9,1.8691,0.24085,0.23922,-0.2623
17,1.8745,0.24343,0.2418,-0.2642
17.1,1.8799,0.246,0.24438,-0.2661
17.2,1.8855,0.24857,0.24695,-0.268
17.3,1.891,0.25114,0.24953,-0.2698
17.4,1.8967,0.25371,0.25211,-0.2716
17.5,1.9024,0.25634,0.25474,-0.2735
17.6,1.9081,0.25892,0.25733,-0.2754
17.7,1.9139,0.2615,0.25992,-0.2772
17.8,1.9197,0.26409,0.26252,-0.279
17.9,1.9255,0.26668,0.26511,-0.2808
18,1.9314,0.26928,0.26772,-0.2826
18.1,1.9373,0.27188,0.27034,-0.2844
18.2,1.9433,0.27449,0.27295,-0.2862
18.3,1.9493,0.27711,0.27558,-0.288
18.4,1.9543,0.28038,0.27885,-0.2903
18.5,1.9594,0.28365,0.28213,-0.2926
18.6,1.9649,0.28677,0.28526,-0.2948
18.7,1.9704,0.28986,0.28835,-0.2969
18.8,1.976,0.29307,0.29158,-0.2991
18.9,1.9818,0.29613,0.29465,-0.3011
19.1,1.9938,0.30224,0.30077,-0.3051
19.2,2,0.30523,0.30377,-0.3071
19.3,2.0042,0.30963,0.30818,-0.3101
19.4,2.0097,0.31313,0.31169,-0.3124
19.5,2.0154,0.31652,0.31508,-0.3147
19.6,2.0213,0.31982,0.31839,-0.3168
19.7,2.027,0.32331,0.32188,-0.3191
19.8,2.032,0.32725,0.32583,-0.3217
19.9,2.0374,0.33091,0.32949,-0.3241
20,2.0431,0.33448,0.33306,-0.3264
20.1,2.0488,0.33799,0.33658,-0.3286
20.2,2.0546,0.34148,0.34008,-0.3308
20.3,2.06,0.3453,0.34389,-0.3333
20.4,2.0652,0.34928,0.34788,-0.3359
20.5,2.0709,0.35301,0.35161,-0.3382
20.6,2.0765,0.3567,0.3553,-0.3405
20.7,2.0823,0.36039,0.359,-0.3429
20.8,2.088,0.36409,0.3627,-0.3452

