airfoilName st9.dat
Re 	3.500000e+05
M 	7.000000e-01
N 	4.500000e+00
VACC 	0 VACCflag 1
XTR 	1.00 	1.00 XTRflag 0
alpha,cl,cd,cdp,cm
-19.5,-1.5355,0.35893,0.35556,0.1971
-19.4,-1.5281,0.35521,0.35184,0.1949
-19.3,-1.5205,0.3514,0.34803,0.1925
-19.2,-1.5131,0.34768,0.34431,0.1903
-19.1,-1.5056,0.344,0.34063,0.188
-19,-1.4982,0.34037,0.337,0.1858
-18.9,-1.4907,0.33676,0.3334,0.1836
-18.8,-1.4833,0.33319,0.32983,0.1814
-18.7,-1.4759,0.32966,0.3263,0.1792
-18.6,-1.4685,0.32615,0.32279,0.177
-18.5,-1.4611,0.32269,0.31933,0.1748
-18.4,-1.4536,0.31925,0.3159,0.1727
-18.3,-1.4462,0.31585,0.31249,0.1705
-18.2,-1.4388,0.31247,0.30911,0.1684
-18.1,-1.4314,0.30913,0.30578,0.1663
-18,-1.424,0.30582,0.30247,0.1642
-17.9,-1.4167,0.30254,0.29919,0.1621
-17.8,-1.4093,0.2993,0.29595,0.16
-17.7,-1.4019,0.29609,0.29274,0.1579
-17.6,-1.3946,0.29288,0.28953,0.1559
-17.5,-1.3872,0.28972,0.28637,0.1538
-17.4,-1.3798,0.28658,0.28324,0.1518
-17.3,-1.3725,0.28348,0.28014,0.1498
-17.2,-1.3652,0.28039,0.27705,0.1478
-17.1,-1.3578,0.27734,0.274,0.1457
-17,-1.3505,0.27432,0.27098,0.1438
-16.9,-1.3432,0.2713,0.26796,0.1418
-16.6,-1.3198,0.26065,0.25733,0.1347
-16.5,-1.3127,0.25792,0.2546,0.1329
-16.4,-1.3055,0.25521,0.25189,0.131
-16.3,-1.2984,0.25252,0.2492,0.1292
-16.2,-1.2913,0.24985,0.24653,0.1274
-16.1,-1.2841,0.2472,0.24389,0.1256
-16,-1.277,0.24457,0.24126,0.1238
-15.9,-1.2699,0.24197,0.23866,0.122
-15.8,-1.2628,0.23938,0.23608,0.1203
-15.7,-1.2557,0.23682,0.23352,0.1185
-15.6,-1.2486,0.23428,0.23098,0.1168
-15.5,-1.2416,0.23176,0.22846,0.115
-15.4,-1.2345,0.22926,0.22597,0.1133
-15.3,-1.2274,0.22679,0.2235,0.1116
-15.2,-1.2204,0.22433,0.22103,0.1099
-15.1,-1.2134,0.22189,0.2186,0.1082
-15,-1.2064,0.21947,0.21619,0.1065
-14.9,-1.1994,0.21708,0.21379,0.1049
-14.8,-1.1924,0.2147,0.21142,0.1032
-14.7,-1.1854,0.21234,0.20907,0.1016
-14.6,-1.1785,0.21,0.20673,0.1
-14.5,-1.1715,0.20769,0.20442,0.0984
-14.4,-1.1646,0.20539,0.20212,0.0968
-14.3,-1.1577,0.2031,0.19984,0.0952
-14.2,-1.1508,0.20085,0.19759,0.0936
-14.1,-1.1439,0.19861,0.19535,0.092
-14,-1.137,0.19638,0.19313,0.0905
-13.9,-1.1301,0.19418,0.19093,0.0889
-13.8,-1.1233,0.19199,0.18875,0.0874
-13.7,-1.1164,0.18982,0.18658,0.0859
-13.6,-1.1096,0.18767,0.18443,0.0844
-13.5,-1.1027,0.18553,0.1823,0.0829
-13.4,-1.0959,0.18341,0.18018,0.0814
-13.3,-1.089,0.1813,0.17807,0.0799
-13.2,-1.0822,0.1792,0.17598,0.0784
-13.1,-1.0753,0.17712,0.17391,0.0769
-13,-1.0685,0.17506,0.17185,0.0754
-12.9,-1.0616,0.17301,0.1698,0.074
-12.8,-1.0548,0.17097,0.16777,0.0725
-12.7,-1.0479,0.16895,0.16575,0.0711
-12.6,-1.0411,0.16695,0.16375,0.0697
-12.5,-1.0343,0.16495,0.16176,0.0682
-12.4,-1.0274,0.16298,0.15979,0.0668
-12.3,-1.0205,0.16102,0.15783,0.0654
-12.2,-1.0137,0.15907,0.15589,0.064
-12.1,-1.0068,0.15713,0.15396,0.0626
-12,-0.9999,0.1552,0.15203,0.0612
-11.9,-0.9929,0.15329,0.15013,0.0598
-11.8,-0.986,0.15139,0.14823,0.0584
-11.7,-0.979,0.14949,0.14634,0.057
-11.6,-0.972,0.1476,0.14445,0.0556
-11.5,-0.9649,0.14571,0.14257,0.0542
-11.4,-0.9577,0.14384,0.1407,0.0528
-11.3,-0.9506,0.14197,0.13884,0.0513
-11.2,-0.9433,0.14011,0.13699,0.0499
-11.1,-0.9361,0.13826,0.13514,0.0485
-11,-0.9288,0.13641,0.1333,0.0471
-10.9,-0.9214,0.13458,0.13147,0.0457
-10.8,-0.914,0.13275,0.12965,0.0443
-10.7,-0.9066,0.13093,0.12784,0.0429
-10.6,-0.8987,0.12893,0.12585,0.0412
-10.5,-0.8912,0.1271,0.12403,0.0397
-10.4,-0.8836,0.1253,0.12223,0.0383
-10.3,-0.876,0.1235,0.12043,0.0369
-10.2,-0.8683,0.12169,0.11864,0.0354
-10.1,-0.8606,0.1199,0.11684,0.034
-10,-0.8528,0.1181,0.11505,0.0325
-9.9,-0.8449,0.11628,0.11324,0.031
-9.8,-0.8369,0.11442,0.11139,0.0295
-9.7,-0.8289,0.11258,0.10957,0.0279
-9.6,-0.8211,0.11097,0.10796,0.0265
-9.5,-0.8133,0.10937,0.10637,0.0252
-9.4,-0.8054,0.10778,0.1048,0.0238
-9.3,-0.7975,0.10622,0.10324,0.0224
-9.2,-0.7895,0.10466,0.1017,0.021
-9.1,-0.7815,0.10313,0.10017,0.0196
-9,-0.7735,0.1016,0.09866,0.0182
-8.9,-0.7654,0.10009,0.09716,0.0168
-8.8,-0.7572,0.0986,0.09567,0.0154
-8.7,-0.749,0.09712,0.09421,0.014
-8.6,-0.7408,0.09566,0.09276,0.0126
-8.5,-0.7325,0.09421,0.09132,0.0112
-8.4,-0.7242,0.09278,0.0899,0.0098
-8.3,-0.7159,0.09137,0.0885,0.0084
-8.2,-0.7075,0.08997,0.08712,0.007
-8.1,-0.6991,0.08859,0.08575,0.0056
-8,-0.6907,0.08723,0.0844,0.0042
-7.9,-0.6822,0.08588,0.08306,0.0028
-7.8,-0.6737,0.08455,0.08175,0.0014
-7.7,-0.6653,0.08323,0.08045,0
-7.6,-0.6569,0.08194,0.07917,-0.0014
-7.5,-0.6485,0.08067,0.07792,-0.0028
-7.4,-0.6366,0.07921,0.07647,-0.0051
-7.3,-0.6235,0.0777,0.07495,-0.0077
-7.2,-0.6103,0.07618,0.07345,-0.0103
-7.1,-0.5971,0.0747,0.07196,-0.0129
-7,-0.5839,0.07323,0.07049,-0.0154
-6.9,-0.5714,0.07182,0.06909,-0.0177
-6.8,-0.5599,0.07049,0.06775,-0.0197
-6.7,-0.5487,0.06919,0.06645,-0.0216
-6.6,-0.5382,0.06795,0.06519,-0.0232
-6.5,-0.5279,0.06674,0.06398,-0.0249
-6.4,-0.5178,0.06555,0.06277,-0.0264
-6.3,-0.5076,0.06436,0.06158,-0.028
-6.2,-0.4978,0.06321,0.0604,-0.0295
-6.1,-0.4874,0.06203,0.05921,-0.0312
-6,-0.477,0.06087,0.05803,-0.0329
-5.9,-0.4665,0.0597,0.05685,-0.0347
-5.8,-0.4559,0.05858,0.05571,-0.0365
-5.7,-0.4422,0.05731,0.05441,-0.0392
-5.6,-0.4277,0.05599,0.05306,-0.042
-5.5,-0.4118,0.05458,0.05162,-0.0452
-5.4,-0.3951,0.05305,0.05007,-0.0486
-5.3,-0.3781,0.05178,0.04877,-0.0517
-5.2,-0.3608,0.0505,0.04744,-0.0548
-5.1,-0.3426,0.04918,0.0461,-0.058
-4.9,-0.3045,0.04658,0.04341,-0.0645
-4.8,-0.2848,0.04516,0.04194,-0.0679
-4.7,-0.2647,0.04372,0.04044,-0.0712
-4.6,-0.2438,0.04221,0.03889,-0.0746
-4.5,-0.2227,0.04068,0.0373,-0.078
-4.4,-0.2011,0.03909,0.03564,-0.0814
-4.2,-0.1571,0.03568,0.03206,-0.0882
-4.1,-0.1339,0.03368,0.02996,-0.0919
-4,-0.1124,0.03218,0.02836,-0.0946
-3.9,-0.0907,0.03062,0.0267,-0.0972
-3.4,0.0151,0.02221,0.01743,-0.1077
-3.3,0.0361,0.02019,0.0151,-0.1096
-3.2,0.0562,0.019,0.01364,-0.1103
-3,0.0964,0.01687,0.01092,-0.1111
-2.9,0.1165,0.01598,0.00973,-0.1111
-2.8,0.1364,0.01521,0.00867,-0.1109
-2.7,0.1566,0.01454,0.00774,-0.1107
-2.6,0.1766,0.01412,0.00716,-0.1104
-2.5,0.196,0.01386,0.00675,-0.1099
-2.4,0.2152,0.01356,0.00625,-0.1094
-2.3,0.2347,0.0133,0.00587,-0.109
-2.2,0.2541,0.01312,0.00559,-0.1086
-2.1,0.2735,0.01296,0.00533,-0.1083
-2,0.2928,0.01284,0.00513,-0.1079
-1.9,0.3119,0.01273,0.00496,-0.1076
-1.8,0.3299,0.01269,0.00481,-0.1071
-1.7,0.349,0.01262,0.00466,-0.1068
-1.6,0.3677,0.01256,0.00458,-0.1066
-1.5,0.3864,0.01252,0.00448,-0.1063
-1.4,0.4047,0.01249,0.0044,-0.106
-1.3,0.4234,0.01246,0.00433,-0.1057
-1.1,0.4597,0.01245,0.00424,-0.1051
-1,0.4781,0.01243,0.00421,-0.1049
-0.9,0.4963,0.01245,0.00419,-0.1047
-0.8,0.5145,0.01243,0.00418,-0.1045
-0.7,0.5325,0.01244,0.00418,-0.1042
-0.6,0.5505,0.01246,0.00418,-0.104
-0.5,0.5677,0.01252,0.00419,-0.1037
-0.4,0.5854,0.01253,0.00423,-0.1034
-0.3,0.6029,0.01258,0.00426,-0.1032
-0.2,0.6203,0.01264,0.00429,-0.1029
-0.1,0.6374,0.0127,0.00435,-0.1026
0,0.6544,0.01278,0.00441,-0.1023
0.1,0.6712,0.01288,0.00447,-0.1019
0.2,0.6878,0.01297,0.00455,-0.1016
0.3,0.7033,0.01315,0.00466,-0.1011
0.4,0.7198,0.01327,0.00475,-0.1008
0.5,0.7364,0.0134,0.00485,-0.1004
0.6,0.753,0.01348,0.00497,-0.1002
0.7,0.7701,0.01358,0.00507,-0.0999
0.8,0.787,0.01363,0.00519,-0.0997
0.9,0.8044,0.0137,0.0053,-0.0994
1,0.8215,0.01377,0.00542,-0.0992
1.1,0.8387,0.01371,0.00554,-0.099
1.2,0.8553,0.01372,0.00567,-0.0987
1.4,0.8729,0.01287,0.00577,-0.0938
1.5,0.891,0.01303,0.0059,-0.0935
1.6,0.9091,0.0132,0.00604,-0.0932
1.7,0.927,0.01338,0.00619,-0.0928
1.8,0.945,0.01355,0.00635,-0.0924
1.9,0.9634,0.01371,0.0065,-0.0921
2,0.9818,0.01388,0.00665,-0.0917
2.2,1.0176,0.01428,0.00701,-0.0908
2.3,1.0363,0.01444,0.00718,-0.0905
2.4,1.055,0.01462,0.00736,-0.09
2.5,1.0736,0.0148,0.00755,-0.0896
2.6,1.0921,0.015,0.00775,-0.0891
2.7,1.1105,0.01522,0.00796,-0.0886
2.8,1.1295,0.01541,0.00817,-0.0882
2.9,1.1487,0.0156,0.00839,-0.0877
3,1.1678,0.01581,0.00862,-0.0872
3.1,1.1863,0.01603,0.00885,-0.0866
3.2,1.205,0.01627,0.00911,-0.086
3.3,1.2241,0.0165,0.00937,-0.0854
3.4,1.2436,0.01674,0.00966,-0.0849
3.5,1.2628,0.01699,0.00996,-0.0842
3.6,1.2819,0.01726,0.01028,-0.0836
3.7,1.3008,0.01755,0.01062,-0.0828
3.8,1.3194,0.01785,0.01097,-0.0821
3.9,1.3378,0.01817,0.01134,-0.0813
4,1.3563,0.01852,0.0118,-0.0805
4.1,1.3742,0.01891,0.01228,-0.0796
4.2,1.3913,0.01932,0.0128,-0.0786
4.3,1.4076,0.01974,0.01332,-0.0775
4.4,1.4231,0.02021,0.0139,-0.0764
4.5,1.4375,0.02071,0.01452,-0.0752
4.6,1.4503,0.02128,0.0152,-0.0738
4.7,1.4606,0.02194,0.01602,-0.0724
4.8,1.4691,0.02264,0.01688,-0.0709
4.9,1.4755,0.02339,0.01778,-0.0692
5,1.4797,0.02417,0.0187,-0.0675
5.1,1.4818,0.02498,0.01965,-0.0656
5.2,1.4818,0.02582,0.02062,-0.0637
5.3,1.4786,0.02665,0.02156,-0.0615
5.4,1.474,0.02754,0.02255,-0.0595
5.5,1.4698,0.02853,0.02365,-0.0579
5.7,1.4596,0.03094,0.02627,-0.0565
5.8,1.4498,0.03262,0.0281,-0.0571
6,1.4355,0.03627,0.03199,-0.0603
6.1,1.429,0.03838,0.03419,-0.063
6.2,1.4232,0.04059,0.03649,-0.0661
6.4,1.415,0.04511,0.04115,-0.0727
6.7,1.3951,0.05322,0.0494,-0.0845
6.8,1.392,0.05556,0.05178,-0.0876
6.9,1.3923,0.05755,0.05378,-0.0902
7,1.3939,0.05936,0.0556,-0.0925
7.1,1.3967,0.06102,0.05727,-0.0945
7.2,1.3974,0.06292,0.05917,-0.097
7.3,1.3943,0.06531,0.06157,-0.1004
7.4,1.3944,0.06734,0.06361,-0.1031
7.5,1.3961,0.06916,0.06544,-0.1055
7.6,1.3991,0.07085,0.06714,-0.1076
7.7,1.4028,0.07243,0.06873,-0.1095
7.8,1.4073,0.07393,0.07023,-0.1113
7.9,1.4123,0.07535,0.07165,-0.1129
8,1.4169,0.07684,0.07313,-0.1147
8.1,1.4171,0.07894,0.07524,-0.1175
8.2,1.4196,0.08073,0.07704,-0.1197
8.3,1.4231,0.08238,0.0787,-0.1217
8.4,1.4273,0.08395,0.08027,-0.1235
8.5,1.432,0.08543,0.08176,-0.1251
8.6,1.4372,0.08686,0.08319,-0.1266
8.7,1.4426,0.08824,0.08457,-0.128
8.8,1.4484,0.08957,0.08591,-0.1294
8.9,1.4544,0.09085,0.0872,-0.1306
9,1.4578,0.09256,0.0889,-0.1325
9.1,1.4585,0.09476,0.09112,-0.1354
9.2,1.4626,0.09638,0.09275,-0.1372
9.3,1.4672,0.09793,0.09431,-0.1388
9.4,1.4721,0.09942,0.0958,-0.1403
9.5,1.4772,0.10086,0.09725,-0.1417
9.6,1.4826,0.10226,0.09865,-0.1431
9.7,1.4882,0.10362,0.10002,-0.1443
9.8,1.494,0.10494,0.10135,-0.1455
9.9,1.4998,0.10623,0.10264,-0.1466
10,1.5038,0.10788,0.10429,-0.1484
10.1,1.5064,0.10984,0.10626,-0.1505
10.2,1.5101,0.11159,0.10801,-0.1523
10.3,1.5143,0.11324,0.10967,-0.154
10.4,1.5188,0.11483,0.11127,-0.1555
10.5,1.5236,0.11637,0.11282,-0.1571
10.6,1.5288,0.11783,0.11428,-0.1584
10.7,1.534,0.11925,0.11571,-0.1597
10.8,1.5393,0.12064,0.11711,-0.1609
10.9,1.5448,0.12199,0.11847,-0.162
11,1.5503,0.12331,0.1198,-0.1631
11.1,1.5559,0.1246,0.1211,-0.1642
11.2,1.558,0.12678,0.12327,-0.1665
11.3,1.5616,0.12863,0.12514,-0.1684
11.4,1.5657,0.13036,0.12687,-0.17
11.5,1.5701,0.13202,0.12855,-0.1716
11.6,1.5746,0.13364,0.13017,-0.173
11.7,1.5794,0.13523,0.13177,-0.1744
11.8,1.5842,0.1368,0.13334,-0.1758
11.9,1.5894,0.13824,0.13479,-0.1771
12,1.5946,0.13971,0.13627,-0.1784
12.1,1.5999,0.14116,0.13773,-0.1796
12.2,1.6052,0.14258,0.13916,-0.1807
12.3,1.6107,0.14399,0.14057,-0.1819
12.4,1.6147,0.14587,0.14245,-0.1836
12.5,1.6182,0.148,0.14459,-0.1857
12.6,1.6224,0.14991,0.14651,-0.1875
12.7,1.6269,0.15175,0.14836,-0.1891
12.8,1.6316,0.15354,0.15016,-0.1907
12.9,1.6364,0.15529,0.15192,-0.1922
13,1.6413,0.15702,0.15366,-0.1936
13.1,1.6463,0.15873,0.15538,-0.1951
13.2,1.6514,0.16042,0.15708,-0.1965
13.3,1.6566,0.16211,0.15877,-0.1979
13.5,1.6675,0.16525,0.16193,-0.2005
13.6,1.673,0.16684,0.16353,-0.2017
13.7,1.6785,0.16842,0.16512,-0.203
13.8,1.6824,0.17079,0.16749,-0.2051
13.9,1.6867,0.17306,0.16977,-0.2071
14,1.6913,0.17518,0.17189,-0.209
14.1,1.6962,0.17723,0.17395,-0.2107
14.2,1.7012,0.17924,0.17597,-0.2123
14.3,1.7064,0.18122,0.17796,-0.214
14.4,1.7116,0.18318,0.17993,-0.2155
14.5,1.7169,0.18513,0.18189,-0.2171
14.6,1.7222,0.18707,0.18384,-0.2187
14.7,1.7276,0.189,0.18578,-0.2202
14.8,1.7331,0.19092,0.18771,-0.2217
14.9,1.7385,0.19284,0.18965,-0.2232
15.1,1.75,0.19649,0.19332,-0.2261
15.2,1.7556,0.19835,0.19518,-0.2275
15.3,1.7605,0.20086,0.19769,-0.2296
15.4,1.7652,0.2035,0.20034,-0.2317
15.5,1.7703,0.20594,0.20279,-0.2337
15.6,1.7755,0.20831,0.20517,-0.2356
15.7,1.7809,0.21063,0.2075,-0.2374
15.8,1.7863,0.21292,0.2098,-0.2392
15.9,1.7918,0.21519,0.21208,-0.2409
16,1.7973,0.21746,0.21436,-0.2427
16.1,1.8029,0.21971,0.21662,-0.2444
16.2,1.8085,0.22196,0.21888,-0.2461
16.3,1.8142,0.22421,0.22114,-0.2478
16.4,1.8198,0.22646,0.2234,-0.2494
16.5,1.8255,0.22871,0.22566,-0.2511
16.6,1.8313,0.23096,0.22792,-0.2528
16.7,1.837,0.23321,0.23018,-0.2545
16.8,1.8428,0.23546,0.23244,-0.2561
16.9,1.8489,0.23763,0.23463,-0.2577
17,1.8547,0.23986,0.23687,-0.2594
17.1,1.8604,0.24232,0.23932,-0.2612
17.2,1.8655,0.24554,0.24256,-0.2636
17.3,1.871,0.24845,0.24548,-0.2658
17.4,1.8766,0.25123,0.24827,-0.2678
17.5,1.8822,0.25395,0.25101,-0.2698
17.6,1.8879,0.25665,0.25372,-0.2718
17.7,1.8937,0.25934,0.25642,-0.2737
17.8,1.8995,0.262,0.2591,-0.2756
17.9,1.9053,0.26466,0.26177,-0.2775
18,1.9112,0.26733,0.26445,-0.2794
18.1,1.9171,0.26999,0.26712,-0.2813
18.2,1.923,0.27265,0.2698,-0.2831
18.3,1.9289,0.27531,0.27248,-0.285
18.4,1.9349,0.27799,0.27516,-0.2868
18.5,1.9412,0.28071,0.2779,-0.2887
18.6,1.9473,0.28335,0.28055,-0.2905
18.7,1.9534,0.28599,0.2832,-0.2923
18.8,1.9588,0.28964,0.28686,-0.2948
18.9,1.9644,0.29329,0.29053,-0.2974
19,1.9701,0.2967,0.29394,-0.2997
19.1,1.9759,0.29999,0.29726,-0.3019
19.2,1.9818,0.30323,0.30051,-0.3041
19.3,1.9878,0.30672,0.30401,-0.3064
19.4,1.9938,0.30986,0.30717,-0.3085

