airfoilName st10.dat
Re 	310000
M 	5.000000e-01
N 	4.500000e+00
VACC 	0 VACCflag 1
XTR 	1.00 	1.00 XTRflag 0
alpha,cl,cd,cdp,cm
-29.4,-1.8096,0.51285,0.50997,0.3627
-29.2,-1.787,0.49208,0.48919,0.3535
-29.1,-1.8115,0.52196,0.51908,0.36
-29,-1.793,0.51128,0.50838,0.3527
-28.9,-1.7887,0.50824,0.50534,0.3502
-28.8,-1.7838,0.50479,0.50189,0.3476
-28.3,-1.7729,0.49388,0.49097,0.3385
-28.2,-1.7686,0.49106,0.48814,0.3361
-28.1,-1.7644,0.48824,0.48532,0.3338
-28,-1.7601,0.48532,0.4824,0.3314
-27.9,-1.7557,0.48239,0.47946,0.329
-27.8,-1.7513,0.4795,0.47657,0.3266
-27.7,-1.7469,0.47661,0.47367,0.3242
-27.6,-1.7424,0.47372,0.47078,0.3218
-27.5,-1.738,0.47084,0.4679,0.3194
-27.4,-1.7335,0.46798,0.46504,0.3171
-27.3,-1.729,0.46512,0.46218,0.3147
-27.2,-1.7245,0.46229,0.45934,0.3123
-27.1,-1.72,0.45945,0.4565,0.31
-27,-1.7155,0.45663,0.45367,0.3076
-26.9,-1.711,0.45381,0.45086,0.3053
-26.8,-1.7064,0.451,0.44805,0.3029
-26.7,-1.7018,0.44821,0.44525,0.3006
-26.6,-1.6972,0.44544,0.44247,0.2982
-26.5,-1.6926,0.44266,0.4397,0.2959
-26.4,-1.6879,0.4399,0.43694,0.2935
-26.3,-1.6833,0.43716,0.43419,0.2912
-26.2,-1.6786,0.43443,0.43146,0.2888
-26.1,-1.6739,0.43171,0.42874,0.2864
-26,-1.6692,0.429,0.42602,0.284
-25.9,-1.6644,0.4263,0.42333,0.2816
-25.8,-1.6596,0.42363,0.42065,0.2792
-25.7,-1.6548,0.42096,0.41797,0.2767
-25.5,-1.6435,0.41421,0.41123,0.2705
-25.4,-1.6388,0.41159,0.4086,0.2684
-25.3,-1.6341,0.40897,0.40599,0.2663
-25.2,-1.6294,0.40638,0.40339,0.2641
-25,-1.6202,0.40159,0.3986,0.2599
-24.9,-1.6154,0.39901,0.39602,0.2578
-24.8,-1.6107,0.39645,0.39345,0.2557
-24.7,-1.6059,0.39388,0.39089,0.2536
-24.6,-1.6011,0.39133,0.38833,0.2515
-24.5,-1.5963,0.38879,0.38579,0.2494
-24.4,-1.5914,0.38627,0.38327,0.2474
-24.3,-1.5866,0.38374,0.38074,0.2453
-24.2,-1.5818,0.38124,0.37823,0.2433
-24.1,-1.5769,0.37873,0.37572,0.2412
-24,-1.572,0.37624,0.37323,0.2392
-23.9,-1.5672,0.37375,0.37074,0.2372
-23.8,-1.5623,0.37128,0.36827,0.2351
-23.7,-1.5574,0.36882,0.36581,0.2331
-23.6,-1.5525,0.36636,0.36334,0.2311
-23.5,-1.5475,0.36391,0.36089,0.2291
-23.4,-1.5426,0.36148,0.35846,0.2272
-23.3,-1.5377,0.35904,0.35602,0.2252
-23.2,-1.5327,0.35662,0.35359,0.2232
-23.1,-1.5277,0.35421,0.35118,0.2213
-23,-1.5228,0.35181,0.34878,0.2193
-22.9,-1.5178,0.34942,0.34639,0.2174
-22.8,-1.5128,0.34704,0.34401,0.2155
-22.7,-1.5078,0.34467,0.34164,0.2135
-22.6,-1.5028,0.3423,0.33927,0.2116
-22.5,-1.4978,0.33994,0.33691,0.2097
-22.4,-1.4928,0.3376,0.33456,0.2078
-22.3,-1.4878,0.33526,0.33222,0.2059
-22.2,-1.4828,0.33293,0.32989,0.204
-22.1,-1.4777,0.33061,0.32757,0.2022
-22,-1.4727,0.3283,0.32526,0.2003
-21.9,-1.4676,0.326,0.32296,0.1984
-21.8,-1.4626,0.32371,0.32067,0.1966
-21.7,-1.4575,0.32143,0.31838,0.1947
-21.6,-1.4524,0.31915,0.31611,0.1929
-21.5,-1.4474,0.31689,0.31384,0.1911
-21.4,-1.4423,0.31463,0.31159,0.1893
-21.3,-1.4372,0.31239,0.30934,0.1875
-21.2,-1.4321,0.31014,0.30709,0.1857
-21.1,-1.427,0.30792,0.30487,0.1839
-21,-1.4219,0.3057,0.30264,0.1821
-20.9,-1.4168,0.30349,0.30043,0.1803
-20.8,-1.4117,0.30128,0.29821,0.1785
-20.7,-1.4065,0.29909,0.29602,0.1767
-20.6,-1.4014,0.2969,0.29383,0.175
-20.5,-1.3963,0.29472,0.29166,0.1732
-20.4,-1.3912,0.29255,0.28949,0.1715
-20.3,-1.386,0.29039,0.28733,0.1697
-20.2,-1.3809,0.28824,0.28517,0.168
-20.1,-1.3757,0.28609,0.28303,0.1663
-20,-1.3705,0.28396,0.28089,0.1645
-19.9,-1.3654,0.28183,0.27876,0.1628
-19.8,-1.3602,0.2797,0.27663,0.1611
-19.7,-1.355,0.27758,0.27451,0.1594
-19.6,-1.3498,0.27546,0.2724,0.1577
-19.5,-1.3445,0.27334,0.27027,0.156
-19.4,-1.3393,0.27123,0.26816,0.1543
-19.3,-1.334,0.26912,0.26605,0.1525
-19.2,-1.3284,0.26706,0.26399,0.1505
-19.1,-1.3231,0.2649,0.26183,0.1488
-19,-1.3178,0.26271,0.25965,0.1471
-18.9,-1.3124,0.26053,0.25746,0.1454
-18.8,-1.307,0.25832,0.25525,0.1437
-18.7,-1.3016,0.25609,0.25302,0.142
-18.6,-1.296,0.25377,0.2507,0.1402
-18.3,-1.2771,0.24545,0.24239,0.1344
-18.2,-1.272,0.24347,0.24041,0.1329
-18.1,-1.2669,0.2415,0.23843,0.1314
-18,-1.2619,0.23953,0.23647,0.1299
-17.9,-1.2568,0.23758,0.23451,0.1284
-17.8,-1.2517,0.23563,0.23257,0.1269
-17.7,-1.2466,0.2337,0.23063,0.1255
-17.6,-1.2415,0.23177,0.2287,0.124
-17.5,-1.2364,0.22984,0.22678,0.1225
-17.4,-1.2312,0.22793,0.22486,0.1211
-17.3,-1.2261,0.22603,0.22296,0.1196
-17.2,-1.221,0.22413,0.22106,0.1182
-17.1,-1.2158,0.22223,0.21917,0.1167
-17,-1.2106,0.22035,0.21728,0.1153
-16.9,-1.2055,0.21847,0.21541,0.1139
-16.8,-1.2003,0.21659,0.21353,0.1125
-16.7,-1.1951,0.21473,0.21167,0.111
-16.6,-1.1898,0.21286,0.2098,0.1096
-16.5,-1.1846,0.211,0.20794,0.1082
-16.4,-1.1793,0.20914,0.20608,0.1068
-16.3,-1.174,0.20729,0.20423,0.1054
-16.2,-1.1687,0.20543,0.20238,0.104
-16.1,-1.1633,0.20359,0.20053,0.1026
-16,-1.1579,0.20175,0.19868,0.1012
-15.9,-1.1526,0.19991,0.19684,0.0998
-15.8,-1.1472,0.19808,0.19502,0.0984
-15.7,-1.1417,0.19625,0.19319,0.097
-15.6,-1.1363,0.19443,0.19137,0.0957
-15.5,-1.1308,0.19261,0.18955,0.0943
-15.4,-1.1253,0.19079,0.18774,0.0929
-15.3,-1.1198,0.18899,0.18593,0.0915
-15.2,-1.1143,0.18718,0.18413,0.0902
-15.1,-1.1088,0.18539,0.18234,0.0888
-15,-1.1032,0.1836,0.18054,0.0875
-14.9,-1.0976,0.18181,0.17876,0.0861
-14.8,-1.092,0.18003,0.17698,0.0848
-14.7,-1.0864,0.17826,0.17521,0.0834
-14.6,-1.0807,0.17649,0.17345,0.0821
-14.5,-1.0751,0.17473,0.17169,0.0807
-14.4,-1.0694,0.17297,0.16993,0.0794
-14.3,-1.0636,0.17122,0.16818,0.0781
-14.2,-1.0579,0.16947,0.16644,0.0767
-14.1,-1.0518,0.16783,0.1648,0.0753
-14,-1.046,0.16609,0.16305,0.0739
-13.9,-1.0401,0.16435,0.16132,0.0726
-13.8,-1.0343,0.16261,0.15958,0.0713
-13.7,-1.0284,0.16089,0.15786,0.0699
-13.6,-1.0225,0.15917,0.15615,0.0686
-13.5,-1.0166,0.15746,0.15443,0.0673
-13.4,-1.0106,0.15576,0.15273,0.066
-13.3,-1.0046,0.15406,0.15104,0.0647
-13.2,-0.9986,0.15238,0.14936,0.0634
-13.1,-0.9926,0.1507,0.14768,0.0621
-13,-0.9866,0.14903,0.14601,0.0607
-12.9,-0.9805,0.14736,0.14435,0.0594
-12.8,-0.9744,0.14571,0.1427,0.0581
-12.7,-0.9683,0.14406,0.14105,0.0568
-12.6,-0.9622,0.14241,0.13941,0.0555
-12.5,-0.956,0.14078,0.13777,0.0542
-12.4,-0.9497,0.13914,0.13615,0.0529
-12.3,-0.9435,0.13752,0.13453,0.0516
-12.2,-0.9372,0.13589,0.1329,0.0503
-12.1,-0.9308,0.13428,0.13129,0.049
-12,-0.9244,0.13267,0.12969,0.0477
-11.9,-0.918,0.13106,0.12808,0.0463
-11.8,-0.9116,0.12947,0.12649,0.045
-11.7,-0.9051,0.12786,0.12489,0.0437
-11.6,-0.8986,0.12627,0.1233,0.0424
-11.5,-0.892,0.12466,0.1217,0.041
-11.4,-0.8854,0.12307,0.12011,0.0397
-11.3,-0.8787,0.12146,0.1185,0.0383
-11.2,-0.872,0.11983,0.11688,0.037
-11.1,-0.8651,0.11819,0.11524,0.0356
-11,-0.8581,0.11647,0.11353,0.0341
-10.9,-0.8509,0.11467,0.11172,0.0326
-10.8,-0.8425,0.11242,0.10949,0.0307
-10.7,-0.836,0.11107,0.10814,0.0294
-10.6,-0.8294,0.10972,0.1068,0.0282
-10.5,-0.8227,0.10839,0.10548,0.0269
-10.4,-0.8159,0.10706,0.10416,0.0256
-10.3,-0.8091,0.10575,0.10285,0.0243
-10.2,-0.8022,0.10445,0.10155,0.023
-10.1,-0.7952,0.10315,0.10026,0.0217
-10,-0.7881,0.10186,0.09898,0.0204
-9.9,-0.781,0.10059,0.09771,0.019
-9.8,-0.7739,0.09932,0.09645,0.0177
-9.7,-0.7667,0.09806,0.0952,0.0164
-9.6,-0.7594,0.09682,0.09396,0.015
-9.5,-0.752,0.09557,0.09272,0.0137
-9.4,-0.7446,0.09434,0.0915,0.0123
-9.3,-0.7371,0.09311,0.09028,0.0109
-9.2,-0.7296,0.0919,0.08908,0.0096
-9.1,-0.722,0.09069,0.08788,0.0082
-9,-0.7144,0.08949,0.08669,0.0068
-8.9,-0.7067,0.0883,0.08551,0.0054
-8.8,-0.6991,0.08712,0.08434,0.004
-8.7,-0.6914,0.08595,0.08318,0.0026
-8.6,-0.6837,0.08479,0.08203,0.0012
-8.5,-0.6761,0.08365,0.08089,-0.0002
-8.4,-0.6685,0.08251,0.07976,-0.0015
-8.3,-0.661,0.0814,0.07865,-0.0029
-8.2,-0.6537,0.0803,0.07757,-0.0042
-8.1,-0.6467,0.07923,0.07651,-0.0054
-8,-0.6401,0.07819,0.07548,-0.0066
-7.9,-0.6341,0.0772,0.07451,-0.0077
-7.8,-0.6289,0.07627,0.0736,-0.0085
-7.7,-0.6152,0.07481,0.07213,-0.0116
-7.6,-0.6001,0.07324,0.07056,-0.015
-7.5,-0.5845,0.07165,0.06895,-0.0185
-7.4,-0.5685,0.07003,0.06733,-0.0221
-7.3,-0.5508,0.0683,0.06558,-0.026
-7.2,-0.5347,0.06664,0.06391,-0.0296
-7.1,-0.5174,0.06487,0.06213,-0.0334
-7,-0.4993,0.06297,0.0602,-0.0374
-6.9,-0.4816,0.06096,0.05817,-0.0414
-6.8,-0.4605,0.0582,0.05539,-0.0466
-6.7,-0.4447,0.05681,0.05398,-0.0496
-6.6,-0.4287,0.05542,0.05256,-0.0525
-6.5,-0.4121,0.05399,0.05112,-0.0556
-6.4,-0.3963,0.05261,0.0497,-0.0583
-6.3,-0.3803,0.05121,0.04826,-0.061
-6.2,-0.3638,0.04976,0.04677,-0.0638
-6.1,-0.3477,0.04832,0.04529,-0.0663
-6,-0.3313,0.04683,0.04377,-0.0689
-5.7,-0.2817,0.04211,0.03888,-0.0764
-5.6,-0.2648,0.0404,0.03709,-0.0789
-5.4,-0.2308,0.03658,0.0331,-0.0838
-4.7,-0.1207,0.02041,0.01541,-0.0964
-4.6,-0.1063,0.01936,0.01414,-0.0967
-4.5,-0.0918,0.01838,0.01293,-0.0969
-4.4,-0.0772,0.01746,0.01179,-0.0971
-4.3,-0.0627,0.01663,0.01074,-0.0971
-4.1,-0.0337,0.0154,0.00911,-0.0969
-4,-0.0192,0.015,0.0086,-0.0968
-3.9,-0.0048,0.01462,0.00811,-0.0966
-3.8,0.0099,0.01425,0.00764,-0.0964
-3.7,0.0245,0.0139,0.00717,-0.0963
-3.6,0.039,0.01357,0.00673,-0.0961
-3.5,0.0534,0.01328,0.0063,-0.0958
-3.4,0.0679,0.01303,0.006,-0.0957
-3.3,0.0822,0.01284,0.00575,-0.0955
-3.2,0.0967,0.01266,0.00552,-0.0954
-3.1,0.1111,0.01255,0.00534,-0.0953
-3,0.1255,0.01237,0.0051,-0.0951
-2.9,0.1397,0.01222,0.0049,-0.0949
-2.8,0.1534,0.01212,0.00473,-0.0946
-2.7,0.1678,0.01199,0.00455,-0.0945
-2.6,0.1818,0.01191,0.00438,-0.0942
-2.5,0.1957,0.01183,0.00428,-0.0941
-2.4,0.21,0.01174,0.00415,-0.094
-2.3,0.2237,0.01169,0.00402,-0.0937
-2.2,0.238,0.01162,0.00389,-0.0936
-2.1,0.2521,0.01154,0.00379,-0.0935
-2,0.2662,0.01149,0.00373,-0.0934
-1.9,0.2804,0.01143,0.00363,-0.0933
-1.8,0.2939,0.01142,0.00355,-0.0931
-1.7,0.3077,0.0114,0.00349,-0.093
-1.6,0.3216,0.01135,0.00343,-0.0929
-1.5,0.3357,0.01133,0.00338,-0.0928
-1.4,0.3496,0.0113,0.00332,-0.0927
-1.3,0.3636,0.01128,0.00329,-0.0927
-1.2,0.3768,0.01131,0.00324,-0.0925
-1.1,0.3904,0.01132,0.00322,-0.0924
-1,0.4043,0.0113,0.0032,-0.0923
-0.9,0.4179,0.01131,0.00318,-0.0922
-0.8,0.4318,0.01129,0.00318,-0.0922
-0.7,0.4456,0.01129,0.00317,-0.0922
-0.6,0.4594,0.01129,0.00316,-0.0921
-0.5,0.4728,0.01132,0.00317,-0.092
-0.4,0.4865,0.01132,0.00317,-0.092
-0.3,0.5003,0.01131,0.00318,-0.092
-0.2,0.5139,0.01133,0.00318,-0.0919
-0.1,0.5277,0.01133,0.00319,-0.0919
0,0.5413,0.01132,0.0032,-0.0919
0.1,0.555,0.01132,0.00322,-0.0919
0.2,0.5681,0.01136,0.00324,-0.0918
0.3,0.5815,0.01131,0.00328,-0.0918
0.4,0.5951,0.01129,0.0033,-0.0918
0.5,0.6084,0.01127,0.00333,-0.0917
0.6,0.6217,0.01123,0.00336,-0.0917
0.7,0.6343,0.01101,0.00339,-0.0917
0.9,0.6486,0.01002,0.00332,-0.0881
1.1,0.6751,0.01031,0.00342,-0.0879
1.2,0.6883,0.01045,0.00348,-0.0878
1.3,0.7014,0.0106,0.00355,-0.0876
1.4,0.7144,0.01076,0.00363,-0.0874
1.5,0.7273,0.01092,0.00371,-0.0873
1.6,0.7402,0.01109,0.00379,-0.0871
1.7,0.7532,0.01126,0.00388,-0.087
1.8,0.7661,0.01143,0.00397,-0.0868
1.9,0.7785,0.01165,0.00409,-0.0866
2,0.7916,0.01181,0.00419,-0.0865
2.1,0.8048,0.01196,0.00428,-0.0863
2.2,0.8179,0.01212,0.00438,-0.0862
2.3,0.8313,0.01225,0.00449,-0.0861
2.4,0.8447,0.01239,0.00458,-0.0859
2.5,0.8579,0.01254,0.00469,-0.0858
2.6,0.8712,0.01268,0.0048,-0.0856
2.7,0.8847,0.01281,0.00491,-0.0855
2.8,0.8977,0.01298,0.00503,-0.0853
2.9,0.911,0.01313,0.00515,-0.0852
3,0.9246,0.01325,0.00526,-0.085
3.1,0.9381,0.01338,0.00537,-0.0849
3.2,0.9515,0.01352,0.00549,-0.0847
3.3,0.9647,0.01367,0.00561,-0.0845
3.4,0.9781,0.01381,0.00574,-0.0843
3.5,0.9916,0.01394,0.00586,-0.0841
3.6,1.0051,0.01407,0.00598,-0.084
3.7,1.0185,0.01421,0.00611,-0.0838
3.8,1.0314,0.0144,0.00625,-0.0835
3.9,1.0449,0.01453,0.00638,-0.0833
4,1.0585,0.01466,0.00652,-0.0831
4.1,1.0719,0.0148,0.00666,-0.0829
4.2,1.0853,0.01495,0.0068,-0.0826
4.3,1.0985,0.01511,0.00695,-0.0824
4.4,1.1116,0.01528,0.0071,-0.0821
4.5,1.1251,0.01542,0.00725,-0.0818
4.6,1.1386,0.01556,0.0074,-0.0816
4.7,1.152,0.01571,0.00756,-0.0813
4.8,1.1651,0.01588,0.0077,-0.081
4.9,1.1782,0.01605,0.00787,-0.0806
5,1.1912,0.01623,0.00804,-0.0803
5.1,1.2047,0.01638,0.00821,-0.08
5.2,1.2181,0.01653,0.00839,-0.0797
5.3,1.2314,0.0167,0.00857,-0.0793
5.4,1.2446,0.01687,0.00875,-0.079
5.5,1.2577,0.01705,0.00894,-0.0786
5.6,1.2705,0.01724,0.00913,-0.0782
5.7,1.2832,0.01745,0.00932,-0.0777
5.8,1.2967,0.0176,0.00951,-0.0774
5.9,1.3099,0.01778,0.00971,-0.0769
6,1.3229,0.01796,0.00992,-0.0765
6.1,1.3358,0.01816,0.01014,-0.076
6.2,1.3485,0.01836,0.01035,-0.0755
6.3,1.361,0.01858,0.01057,-0.075
6.4,1.3737,0.01879,0.0108,-0.0745
6.5,1.3867,0.01899,0.01105,-0.074
6.6,1.3996,0.0192,0.01129,-0.0734
6.7,1.4123,0.01942,0.01154,-0.0729
6.8,1.4249,0.01964,0.01179,-0.0723
6.9,1.4369,0.01985,0.01201,-0.0717
7,1.4489,0.02009,0.01227,-0.071
7.1,1.4607,0.02034,0.01255,-0.0703
7.2,1.4733,0.02058,0.01284,-0.0697
7.3,1.4855,0.02082,0.01314,-0.069
7.4,1.4976,0.02108,0.01344,-0.0683
7.5,1.5094,0.02134,0.01375,-0.0676
7.6,1.5209,0.0216,0.01405,-0.0668
7.7,1.5321,0.02188,0.01437,-0.066
7.8,1.5429,0.02216,0.01468,-0.0652
7.9,1.5533,0.02246,0.015,-0.0642
8,1.564,0.02277,0.01535,-0.0633
8.1,1.5751,0.02304,0.01571,-0.0625
8.2,1.5855,0.02336,0.0161,-0.0615
8.3,1.5954,0.02368,0.01649,-0.0605
8.4,1.6049,0.02401,0.01688,-0.0595
8.5,1.6139,0.02435,0.01727,-0.0584
8.6,1.6224,0.0247,0.01767,-0.0572
8.7,1.6298,0.02505,0.01806,-0.0559
8.8,1.6356,0.02542,0.01847,-0.0544
8.9,1.6421,0.02582,0.01894,-0.053
9,1.6489,0.02626,0.01947,-0.0517
9.1,1.6552,0.02672,0.02001,-0.0504
9.2,1.6612,0.02719,0.02057,-0.0491
9.3,1.6669,0.02769,0.02115,-0.0479
9.4,1.6723,0.0282,0.02175,-0.0467
9.5,1.6775,0.02874,0.02236,-0.0455
9.6,1.683,0.02918,0.02287,-0.0444
9.7,1.6878,0.02974,0.0235,-0.0434
9.8,1.6923,0.03032,0.02414,-0.0424
9.9,1.6965,0.03094,0.02482,-0.0415
10,1.7004,0.03168,0.02567,-0.0407
10.1,1.7039,0.03246,0.02657,-0.04
10.2,1.7069,0.03329,0.02751,-0.0394
10.3,1.7096,0.03415,0.02848,-0.0389
10.4,1.712,0.03505,0.0295,-0.0386
10.5,1.7142,0.03601,0.03056,-0.0384
10.6,1.7163,0.03701,0.03166,-0.0385
10.7,1.7183,0.03805,0.03281,-0.0387
10.8,1.7203,0.03915,0.03401,-0.0391
10.9,1.7222,0.0403,0.03526,-0.0397
11,1.7242,0.0415,0.03656,-0.0406
11.1,1.7261,0.04276,0.03791,-0.0417
11.2,1.7282,0.04408,0.03931,-0.043
11.5,1.7215,0.05012,0.0458,-0.0509
11.6,1.7177,0.05257,0.04839,-0.0545
12.3,1.6614,0.0764,0.07295,-0.0896
12.4,1.6576,0.07915,0.07573,-0.0931
12.5,1.6569,0.08131,0.07791,-0.0959
12.7,1.6019,0.09493,0.09164,-0.1139
12.8,1.5961,0.09806,0.09479,-0.1178
12.9,1.595,0.10036,0.09711,-0.1206
13,1.5963,0.10222,0.09899,-0.1228
13.1,1.5989,0.10382,0.1006,-0.1246
13.2,1.6065,0.10451,0.10129,-0.1254
13.3,1.6113,0.10566,0.10245,-0.1267
13.4,1.6167,0.10668,0.10349,-0.1278
13.8,1.5755,0.13442,0.13131,-0.1388
13.9,1.5788,0.13569,0.1326,-0.1405
14,1.5827,0.1368,0.13372,-0.142
14.1,1.587,0.13778,0.13472,-0.1434
14.2,1.5918,0.13865,0.1356,-0.1447
14.3,1.5967,0.13944,0.1364,-0.1459
14.4,1.6019,0.14015,0.13712,-0.147
14.5,1.6072,0.14078,0.13776,-0.1481
14.8,1.5985,0.14995,0.14696,-0.1587
14.9,1.6018,0.15123,0.14825,-0.1603
15,1.6055,0.15237,0.14941,-0.1618
15.1,1.6095,0.15341,0.15046,-0.1631
15.2,1.6137,0.15437,0.15143,-0.1644
15.3,1.6181,0.15525,0.15232,-0.1657
15.4,1.6227,0.15607,0.15315,-0.1668
15.5,1.6273,0.15683,0.15393,-0.1679
15.6,1.6321,0.15755,0.15465,-0.169
15.7,1.6369,0.1582,0.15532,-0.17
16,1.6332,0.1675,0.16465,-0.1795
16.1,1.6364,0.16898,0.16614,-0.1814
16.2,1.6401,0.17025,0.16743,-0.1828
16.3,1.6438,0.17144,0.16863,-0.1843
16.4,1.6478,0.17255,0.16975,-0.1856
16.5,1.6518,0.1736,0.17082,-0.1869
16.6,1.656,0.17461,0.17183,-0.1881
16.7,1.6602,0.17555,0.1728,-0.1893
16.8,1.6646,0.17647,0.17373,-0.1905
16.9,1.669,0.17732,0.1746,-0.1916
17,1.6734,0.17815,0.17544,-0.1927
17.1,1.6779,0.17894,0.17625,-0.1938
17.4,1.6783,0.18881,0.18614,-0.2029
17.5,1.6817,0.19044,0.18779,-0.2046
17.6,1.6852,0.19197,0.18934,-0.2062
17.7,1.6893,0.19326,0.19063,-0.2078
17.8,1.6933,0.19455,0.19194,-0.2092
17.9,1.6974,0.19578,0.19319,-0.2106
18,1.7015,0.19697,0.19439,-0.212
18.1,1.7058,0.19809,0.19553,-0.2133
18.2,1.7101,0.19917,0.19662,-0.2145
18.3,1.7145,0.20019,0.19766,-0.2158
18.4,1.719,0.20115,0.19864,-0.217
18.5,1.7235,0.20205,0.19956,-0.2182
18.6,1.7224,0.20706,0.20456,-0.2224
18.7,1.7242,0.21047,0.20799,-0.2255
18.8,1.7278,0.21221,0.20974,-0.2273
18.9,1.7319,0.21371,0.21126,-0.229
19,1.7361,0.21509,0.21265,-0.2305
19.1,1.7404,0.21636,0.21394,-0.232
19.2,1.7448,0.21752,0.21512,-0.2334
19.3,1.7493,0.21856,0.21617,-0.2347
19.4,1.7514,0.22185,0.21946,-0.2377
19.5,1.7536,0.22507,0.2227,-0.2405
19.6,1.7569,0.22753,0.22518,-0.2428
19.7,1.761,0.22916,0.22683,-0.2445
19.8,1.7653,0.23055,0.22823,-0.2461
19.9,1.7697,0.23217,0.22985,-0.248
20,1.7714,0.23621,0.23391,-0.2512
20.1,1.7749,0.2386,0.23631,-0.2534
20.2,1.7788,0.24049,0.23822,-0.2552
20.3,1.783,0.24207,0.23981,-0.2569
20.4,1.7875,0.2434,0.24116,-0.2584
20.5,1.7904,0.2464,0.24415,-0.2609
20.6,1.7934,0.24942,0.24718,-0.2634
20.7,1.7971,0.2517,0.24948,-0.2655
20.8,1.801,0.25366,0.25145,-0.2673
20.9,1.8051,0.25542,0.25323,-0.2691
21,1.8093,0.25702,0.25484,-0.2707
21.1,1.8136,0.25847,0.2563,-0.2723
21.2,1.8165,0.26172,0.25954,-0.2749
21.3,1.82,0.26435,0.26218,-0.2771
21.4,1.8237,0.26667,0.2645,-0.2792
21.5,1.8276,0.2688,0.26665,-0.2811
21.6,1.8315,0.27081,0.26866,-0.283
21.8,1.8396,0.27467,0.27252,-0.2867
21.9,1.843,0.27755,0.27541,-0.2891
22,1.8466,0.28011,0.27797,-0.2912
22.1,1.8504,0.28247,0.28034,-0.2933
22.2,1.8542,0.28471,0.2826,-0.2953
22.3,1.858,0.28688,0.28477,-0.2973
22.4,1.8619,0.28896,0.28686,-0.2992
22.5,1.8658,0.29101,0.28891,-0.3011
22.6,1.8697,0.293,0.29091,-0.3029
22.7,1.8736,0.29492,0.29284,-0.3048
22.8,1.8775,0.29684,0.29477,-0.3066
22.9,1.8813,0.29896,0.29689,-0.3086
23,1.8849,0.30204,0.29997,-0.311
23.1,1.8886,0.30474,0.30268,-0.3132
23.2,1.8923,0.30729,0.30523,-0.3154
23.3,1.8961,0.30975,0.3077,-0.3175
23.4,1.8998,0.31213,0.31008,-0.3195
23.5,1.9036,0.31448,0.31244,-0.3216
23.6,1.9074,0.31679,0.31475,-0.3236
23.7,1.9112,0.31906,0.31703,-0.3256
23.8,1.915,0.3213,0.31927,-0.3276
23.9,1.9187,0.32352,0.3215,-0.3296
24.2,1.9299,0.32948,0.32748,-0.3354
24.3,1.9336,0.33264,0.33062,-0.3378
24.4,1.9373,0.33562,0.33361,-0.3401
24.5,1.9411,0.33844,0.33643,-0.3424
24.6,1.9449,0.34109,0.33909,-0.3446
24.7,1.9486,0.34369,0.3417,-0.3468
24.8,1.9523,0.34624,0.34425,-0.3489
24.9,1.9561,0.34876,0.34678,-0.3511
25,1.9598,0.35125,0.34927,-0.3532
25.1,1.9635,0.35371,0.35174,-0.3553
25.2,1.9672,0.35615,0.35418,-0.3575
25.3,1.9708,0.35858,0.35661,-0.3596
25.4,1.9744,0.36102,0.35906,-0.3617
25.5,1.9773,0.36425,0.36229,-0.3636

