airfoilName st10.dat
Re 	270000
M 	5.000000e-01
N 	4.500000e+00
VACC 	0 VACCflag 1
XTR 	1.00 	1.00 XTRflag 0
alpha,cl,cd,cdp,cm
-29.3,-1.8174,0.53159,0.52848,0.3642
-29.2,-1.8133,0.52781,0.5247,0.3616
-29.1,-1.8091,0.52467,0.52155,0.3591
-29,-1.805,0.52186,0.51874,0.3567
-28.9,-1.8008,0.51894,0.51581,0.3542
-28.4,-1.7762,0.4963,0.49314,0.3404
-28.3,-1.772,0.49349,0.49033,0.3379
-28.2,-1.7677,0.49062,0.48746,0.3355
-28.1,-1.7634,0.48774,0.48457,0.3331
-28,-1.759,0.48481,0.48165,0.3306
-27.9,-1.7545,0.48188,0.4787,0.3282
-27.8,-1.7501,0.47898,0.47581,0.3258
-27.7,-1.7457,0.47609,0.47291,0.3233
-27.6,-1.7412,0.47321,0.47003,0.3209
-27.5,-1.7367,0.47035,0.46716,0.3184
-27.4,-1.7322,0.4675,0.46431,0.316
-27.3,-1.7277,0.46467,0.46147,0.3135
-27.2,-1.7232,0.46186,0.45867,0.3111
-27.1,-1.7186,0.45906,0.45587,0.3086
-27,-1.714,0.45629,0.45309,0.3061
-26.9,-1.7094,0.45356,0.45036,0.3035
-26.8,-1.7048,0.45084,0.44764,0.301
-26.6,-1.6941,0.44441,0.44121,0.2944
-26.5,-1.6895,0.44167,0.43848,0.2922
-26.4,-1.685,0.43895,0.43575,0.29
-26.3,-1.6804,0.43625,0.43304,0.2878
-26.2,-1.6758,0.43354,0.43034,0.2856
-26.1,-1.6712,0.43086,0.42765,0.2834
-26,-1.6666,0.42817,0.42496,0.2812
-25.9,-1.662,0.4255,0.42229,0.279
-25.8,-1.6573,0.42285,0.41963,0.2768
-25.7,-1.6527,0.42019,0.41698,0.2746
-25.6,-1.648,0.41755,0.41432,0.2725
-25.5,-1.6433,0.41493,0.4117,0.2703
-25.4,-1.6388,0.41267,0.40944,0.2681
-25.3,-1.6341,0.41004,0.40681,0.266
-25.2,-1.6293,0.40742,0.40419,0.2639
-25.1,-1.6245,0.40481,0.40157,0.2618
-25,-1.6198,0.40221,0.39897,0.2596
-24.9,-1.615,0.39962,0.39637,0.2575
-24.8,-1.6102,0.39704,0.3938,0.2554
-24.7,-1.6054,0.39447,0.39122,0.2533
-24.6,-1.6005,0.3919,0.38865,0.2513
-24.5,-1.5957,0.38935,0.3861,0.2492
-24.4,-1.5908,0.38681,0.38356,0.2471
-24.3,-1.586,0.38427,0.38102,0.2451
-24.2,-1.5811,0.38175,0.3785,0.243
-24.1,-1.5762,0.37923,0.37598,0.241
-24,-1.5713,0.37673,0.37347,0.2389
-23.9,-1.5664,0.37422,0.37097,0.2369
-23.8,-1.5615,0.37175,0.36849,0.2349
-23.7,-1.5566,0.36927,0.36601,0.2329
-23.6,-1.5517,0.3668,0.36354,0.2309
-23.5,-1.5467,0.36434,0.36108,0.2289
-23.4,-1.5418,0.3619,0.35863,0.2269
-23.3,-1.5368,0.35945,0.35618,0.2249
-23.2,-1.5318,0.35702,0.35374,0.223
-23.1,-1.5268,0.3546,0.35132,0.221
-23,-1.5219,0.35219,0.34891,0.219
-22.9,-1.5169,0.34979,0.34651,0.2171
-22.8,-1.5119,0.3474,0.34412,0.2152
-22.7,-1.5069,0.34502,0.34174,0.2132
-22.6,-1.5018,0.34265,0.33936,0.2113
-22.5,-1.4968,0.34028,0.33699,0.2094
-22.4,-1.4918,0.33793,0.33465,0.2075
-22.3,-1.4867,0.33559,0.3323,0.2056
-22.2,-1.4817,0.33326,0.32996,0.2037
-22.1,-1.4766,0.33093,0.32764,0.2018
-22,-1.4715,0.32862,0.32532,0.1999
-21.9,-1.4665,0.32631,0.32302,0.1981
-21.8,-1.4614,0.32402,0.32072,0.1962
-21.7,-1.4563,0.32173,0.31843,0.1943
-21.6,-1.4512,0.31945,0.31616,0.1925
-21.5,-1.4461,0.31719,0.31389,0.1906
-21.4,-1.441,0.31493,0.31163,0.1888
-21.3,-1.4359,0.31268,0.30938,0.187
-21.2,-1.4308,0.31043,0.30713,0.1852
-21.1,-1.4256,0.3082,0.3049,0.1833
-21,-1.4205,0.30598,0.30267,0.1815
-20.9,-1.4154,0.30377,0.30046,0.1797
-20.8,-1.4102,0.30156,0.29824,0.1779
-20.7,-1.4051,0.29936,0.29605,0.1761
-20.6,-1.3999,0.29717,0.29385,0.1743
-20.5,-1.3947,0.29499,0.29167,0.1725
-20.4,-1.3896,0.29281,0.2895,0.1708
-20.3,-1.3844,0.29064,0.28732,0.169
-20.2,-1.3792,0.28847,0.28516,0.1672
-20.1,-1.374,0.28631,0.28299,0.1654
-20,-1.3688,0.28415,0.28083,0.1637
-19.9,-1.3635,0.28199,0.27867,0.1619
-19.8,-1.3583,0.27983,0.27651,0.1601
-19.7,-1.3523,0.27745,0.27413,0.1578
-19.6,-1.3469,0.27514,0.27182,0.156
-19.3,-1.3279,0.2665,0.26319,0.1498
-19.2,-1.3229,0.26444,0.26113,0.1482
-19.1,-1.3178,0.26238,0.25908,0.1466
-19,-1.3127,0.26034,0.25703,0.1451
-18.9,-1.3076,0.25831,0.255,0.1435
-18.8,-1.3025,0.25629,0.25298,0.1419
-18.7,-1.2974,0.25427,0.25096,0.1404
-18.6,-1.2923,0.25226,0.24896,0.1388
-18.5,-1.2872,0.25027,0.24695,0.1373
-18.4,-1.2821,0.24828,0.24496,0.1357
-18.3,-1.277,0.24629,0.24297,0.1342
-18.2,-1.2718,0.24432,0.241,0.1327
-18.1,-1.2667,0.24235,0.23903,0.1312
-18,-1.2615,0.24039,0.23707,0.1297
-17.9,-1.2564,0.23843,0.23511,0.1282
-17.8,-1.2512,0.23648,0.23317,0.1267
-17.7,-1.246,0.23454,0.23123,0.1252
-17.6,-1.2408,0.23261,0.22929,0.1237
-17.5,-1.2357,0.23068,0.22736,0.1222
-17.4,-1.2305,0.22876,0.22544,0.1208
-17.3,-1.2253,0.22685,0.22353,0.1193
-17.2,-1.22,0.22494,0.22162,0.1178
-17.1,-1.2148,0.22303,0.21972,0.1164
-17,-1.2096,0.22114,0.21782,0.115
-16.9,-1.2044,0.21925,0.21593,0.1135
-16.8,-1.1991,0.21736,0.21405,0.1121
-16.7,-1.1938,0.21548,0.21217,0.1107
-16.6,-1.1886,0.2136,0.21029,0.1092
-16.5,-1.1832,0.21173,0.20842,0.1078
-16.4,-1.1779,0.20986,0.20655,0.1064
-16.3,-1.1726,0.20799,0.20468,0.105
-16.2,-1.1672,0.20613,0.20282,0.1036
-16.1,-1.1618,0.20427,0.20096,0.1022
-16,-1.1564,0.20242,0.1991,0.1008
-15.9,-1.151,0.20056,0.19725,0.0994
-15.8,-1.1455,0.19872,0.19541,0.098
-15.7,-1.1401,0.19688,0.19357,0.0966
-15.6,-1.1346,0.19504,0.19173,0.0952
-15.5,-1.1291,0.19321,0.1899,0.0938
-15.4,-1.1236,0.19138,0.18808,0.0925
-15.3,-1.118,0.18956,0.18625,0.0911
-15.2,-1.1125,0.18774,0.18444,0.0897
-15.1,-1.1069,0.18593,0.18263,0.0884
-15,-1.1013,0.18412,0.18082,0.087
-14.9,-1.0957,0.18232,0.17902,0.0856
-14.8,-1.0901,0.18053,0.17723,0.0843
-14.7,-1.0844,0.17874,0.17545,0.0829
-14.6,-1.0787,0.17696,0.17366,0.0816
-14.4,-1.067,0.17347,0.17018,0.0788
-14.3,-1.0612,0.17169,0.1684,0.0774
-14.2,-1.0554,0.16992,0.16663,0.0761
-14.1,-1.0496,0.16815,0.16487,0.0747
-14,-1.0438,0.16638,0.1631,0.0734
-13.9,-1.0379,0.16462,0.16134,0.0721
-13.8,-1.032,0.16287,0.15959,0.0707
-13.7,-1.0261,0.16112,0.15785,0.0694
-13.6,-1.0202,0.15938,0.15611,0.0681
-13.5,-1.0142,0.15765,0.15437,0.0667
-13.4,-1.0083,0.15591,0.15264,0.0654
-13.3,-1.0023,0.1542,0.15092,0.0641
-13.2,-0.9963,0.15248,0.14921,0.0628
-13.1,-0.9902,0.15077,0.1475,0.0614
-13,-0.9841,0.14906,0.1458,0.0601
-12.9,-0.978,0.14736,0.1441,0.0588
-12.8,-0.9719,0.14567,0.14241,0.0575
-12.7,-0.9658,0.14398,0.14072,0.0562
-12.6,-0.9596,0.14228,0.13903,0.0548
-12.5,-0.9533,0.14059,0.13734,0.0535
-12.4,-0.947,0.1389,0.13565,0.0522
-12.3,-0.9407,0.1372,0.13395,0.0508
-12.2,-0.9343,0.13548,0.13224,0.0495
-12.1,-0.9278,0.13375,0.13051,0.0481
-12,-0.9213,0.13202,0.12879,0.0468
-11.9,-0.9146,0.13022,0.12699,0.0453
-11.8,-0.9078,0.12836,0.12514,0.0439
-11.7,-0.8996,0.12599,0.12278,0.0419
-11.6,-0.8935,0.12454,0.12134,0.0407
-11.5,-0.8873,0.1231,0.11991,0.0395
-11.4,-0.881,0.12168,0.11849,0.0383
-11.3,-0.8747,0.12027,0.11708,0.037
-11.2,-0.8683,0.11886,0.11568,0.0358
-11.1,-0.8618,0.11746,0.11429,0.0345
-11,-0.8553,0.11608,0.11291,0.0332
-10.9,-0.8487,0.1147,0.11152,0.032
-10.8,-0.8421,0.11333,0.11016,0.0307
-10.7,-0.8354,0.11197,0.10881,0.0294
-10.6,-0.8287,0.11063,0.10747,0.0281
-10.5,-0.8219,0.10929,0.10614,0.0269
-10.4,-0.815,0.10796,0.10482,0.0256
-10.3,-0.8081,0.10664,0.1035,0.0243
-10.2,-0.8011,0.10532,0.10219,0.023
-10.1,-0.7941,0.10401,0.10089,0.0217
-10,-0.787,0.10271,0.0996,0.0203
-9.9,-0.7799,0.10142,0.09832,0.019
-9.8,-0.7727,0.10014,0.09704,0.0177
-9.7,-0.7654,0.09887,0.09578,0.0164
-9.6,-0.7581,0.09761,0.09452,0.015
-9.5,-0.7507,0.09635,0.09327,0.0137
-9.4,-0.7433,0.0951,0.09203,0.0123
-9.3,-0.7359,0.09386,0.0908,0.0109
-9.2,-0.7284,0.09263,0.08958,0.0096
-9.1,-0.7208,0.0914,0.08836,0.0082
-9,-0.7132,0.09019,0.08716,0.0068
-8.9,-0.7056,0.08898,0.08596,0.0054
-8.8,-0.698,0.08778,0.08477,0.0041
-8.7,-0.6903,0.0866,0.08359,0.0027
-8.6,-0.6827,0.08542,0.08243,0.0013
-8.5,-0.6751,0.08425,0.08127,-0.0001
-8.4,-0.6676,0.0831,0.08012,-0.0014
-8.3,-0.6602,0.08196,0.07899,-0.0028
-8.2,-0.6529,0.08084,0.07789,-0.0041
-8.1,-0.6459,0.07975,0.0768,-0.0053
-8,-0.6383,0.07855,0.07562,-0.0069
-7.9,-0.6323,0.0775,0.07458,-0.008
-7.8,-0.6271,0.07651,0.07361,-0.0089
-7.7,-0.623,0.0756,0.07272,-0.0096
-7.6,-0.6089,0.074,0.07112,-0.0128
-7.5,-0.5919,0.07219,0.0693,-0.0167
-7.4,-0.5747,0.07033,0.06743,-0.0208
-7.2,-0.5364,0.06573,0.06281,-0.0302
-7.1,-0.5202,0.06428,0.06134,-0.0336
-7,-0.5039,0.06284,0.05989,-0.0369
-6.9,-0.4866,0.06136,0.0584,-0.0404
-6.8,-0.4701,0.05993,0.05695,-0.0436
-6.7,-0.4534,0.05849,0.05549,-0.0468
-6.6,-0.4359,0.05701,0.05399,-0.0502
-6.5,-0.4192,0.05557,0.05252,-0.0532
-6.4,-0.4025,0.05411,0.05103,-0.0562
-6.3,-0.385,0.0526,0.04949,-0.0593
-6.2,-0.368,0.0511,0.04795,-0.0622
-6.1,-0.3515,0.04959,0.0464,-0.065
-5.9,-0.3168,0.04639,0.04311,-0.0707
-5.8,-0.3,0.04474,0.04141,-0.0733
-5.7,-0.2825,0.04298,0.03959,-0.0761
-5.5,-0.2473,0.039,0.03544,-0.0816
-4.9,-0.1483,0.02513,0.02059,-0.0948
-4.8,-0.1335,0.02361,0.01886,-0.0958
-4.7,-0.1188,0.02215,0.01716,-0.0965
-4.4,-0.075,0.01797,0.01204,-0.0978
-4.3,-0.0606,0.01742,0.01135,-0.0978
-4.2,-0.0462,0.01689,0.01069,-0.0977
-4.1,-0.0317,0.01638,0.01005,-0.0976
-4,-0.0172,0.01588,0.00941,-0.0975
-3.9,-0.0029,0.01541,0.00879,-0.0973
-3.8,0.0117,0.01495,0.00819,-0.0971
-3.7,0.0262,0.01452,0.00761,-0.0969
-3.6,0.0406,0.01415,0.00713,-0.0967
-3.5,0.0551,0.01388,0.00681,-0.0966
-3.4,0.0693,0.01366,0.00651,-0.0964
-3.3,0.0836,0.01344,0.00621,-0.0962
-3.2,0.0981,0.01329,0.00598,-0.096
-3.1,0.1124,0.01306,0.0057,-0.0959
-3,0.1267,0.01289,0.00548,-0.0957
-2.9,0.1411,0.01272,0.00527,-0.0956
-2.8,0.1552,0.01258,0.00506,-0.0953
-2.7,0.1689,0.01247,0.00485,-0.095
-2.6,0.183,0.01237,0.00474,-0.0949
-2.5,0.197,0.01226,0.00458,-0.0947
-2.4,0.2109,0.01217,0.00442,-0.0944
-2.3,0.2252,0.01208,0.00428,-0.0943
-2.2,0.2391,0.012,0.00416,-0.0942
-2.1,0.2528,0.01195,0.00407,-0.094
-2,0.267,0.01188,0.00396,-0.0938
-1.9,0.2811,0.01181,0.00387,-0.0938
-1.8,0.2952,0.01176,0.00378,-0.0936
-1.7,0.3089,0.01171,0.00372,-0.0935
-1.6,0.3223,0.0117,0.00365,-0.0933
-1.5,0.3363,0.01167,0.00358,-0.0932
-1.4,0.3503,0.01163,0.00353,-0.0931
-1.3,0.3641,0.01159,0.00349,-0.093
-1.2,0.378,0.01158,0.00345,-0.0929
-1.1,0.3914,0.01158,0.00341,-0.0928
-1,0.4048,0.01161,0.00337,-0.0926
-0.9,0.4182,0.0116,0.00337,-0.0925
-0.8,0.4321,0.01159,0.00335,-0.0924
-0.7,0.4458,0.01159,0.00334,-0.0924
-0.6,0.4596,0.01158,0.00332,-0.0923
-0.5,0.4732,0.01157,0.00333,-0.0923
-0.3,0.5003,0.0116,0.00332,-0.0921
-0.2,0.5139,0.01161,0.00332,-0.0921
-0.1,0.5276,0.01157,0.00334,-0.092
0,0.5411,0.01158,0.00335,-0.092
0.1,0.5548,0.01156,0.00336,-0.092
0.2,0.5681,0.0115,0.00339,-0.092
0.3,0.5817,0.01147,0.00341,-0.0919
0.4,0.5945,0.01147,0.00344,-0.0918
0.5,0.6073,0.01129,0.00346,-0.0918
0.6,0.6199,0.01114,0.00348,-0.0917
0.8,0.6356,0.0102,0.00336,-0.0883
0.9,0.6491,0.01031,0.00341,-0.0881
1,0.6624,0.01043,0.00346,-0.088
1.1,0.6756,0.01057,0.00352,-0.0878
1.2,0.6882,0.01075,0.00359,-0.0876
1.3,0.7012,0.01089,0.00365,-0.0874
1.4,0.7142,0.01104,0.00372,-0.0872
1.5,0.7271,0.0112,0.0038,-0.0871
1.6,0.7399,0.01137,0.00388,-0.0869
1.7,0.7528,0.01154,0.00397,-0.0867
1.8,0.7656,0.01171,0.00407,-0.0865
1.9,0.7785,0.01188,0.00415,-0.0863
2,0.7914,0.01205,0.00425,-0.0862
2.1,0.8037,0.01227,0.00437,-0.0859
2.2,0.8167,0.01244,0.00448,-0.0858
2.3,0.8298,0.01259,0.00458,-0.0856
2.4,0.8429,0.01276,0.00469,-0.0855
2.5,0.8561,0.01291,0.00481,-0.0853
2.6,0.8694,0.01305,0.00491,-0.0852
2.7,0.8825,0.01321,0.00503,-0.085
2.8,0.8957,0.01337,0.00516,-0.0848
2.9,0.9091,0.0135,0.00527,-0.0847
3,0.922,0.01368,0.0054,-0.0845
3.1,0.935,0.01385,0.00554,-0.0843
3.2,0.9485,0.01398,0.00566,-0.0841
3.3,0.9619,0.01412,0.00579,-0.0839
3.4,0.9752,0.01427,0.00592,-0.0837
3.5,0.9884,0.01443,0.00605,-0.0835
3.6,1.0015,0.0146,0.0062,-0.0833
3.7,1.015,0.01473,0.00633,-0.0831
3.8,1.0284,0.01487,0.00647,-0.0829
3.9,1.0414,0.01504,0.00661,-0.0826
4,1.0544,0.01522,0.00676,-0.0824
4.1,1.0677,0.01537,0.00691,-0.0821
4.2,1.0812,0.01551,0.00707,-0.0819
4.3,1.0946,0.01566,0.00722,-0.0817
4.4,1.1078,0.01582,0.00738,-0.0814
4.5,1.1209,0.01599,0.00754,-0.0811
4.6,1.1339,0.01618,0.00771,-0.0808
4.7,1.1471,0.01635,0.00788,-0.0805
4.8,1.1605,0.0165,0.00805,-0.0802
4.9,1.1737,0.01666,0.00821,-0.0799
5,1.1868,0.01683,0.00838,-0.0796
5.1,1.1998,0.01702,0.00856,-0.0792
5.2,1.2125,0.01722,0.00876,-0.0788
5.3,1.2258,0.01739,0.00895,-0.0785
5.4,1.2391,0.01756,0.00915,-0.0781
5.5,1.2523,0.01774,0.00935,-0.0777
5.6,1.2653,0.01793,0.00955,-0.0773
5.7,1.2782,0.01813,0.00976,-0.0769
5.8,1.2909,0.01834,0.00997,-0.0765
5.9,1.3034,0.01856,0.01018,-0.076
6,1.3165,0.01873,0.01039,-0.0756
6.1,1.3295,0.01893,0.01062,-0.0751
6.2,1.3424,0.01914,0.01087,-0.0746
6.3,1.3551,0.01935,0.0111,-0.0741
6.4,1.3675,0.01957,0.01134,-0.0736
6.5,1.3798,0.01981,0.01159,-0.073
6.6,1.3917,0.02006,0.01183,-0.0724
6.7,1.4046,0.02028,0.01211,-0.0719
6.8,1.4173,0.02051,0.01239,-0.0713
6.9,1.4297,0.02075,0.01268,-0.0707
7,1.4419,0.021,0.01297,-0.0701
7.1,1.4535,0.02123,0.01321,-0.0694
7.2,1.4651,0.02149,0.01351,-0.0687
7.3,1.4763,0.02177,0.0138,-0.068
7.4,1.4882,0.02204,0.01413,-0.0673
7.5,1.5001,0.02232,0.01447,-0.0666
7.6,1.5116,0.02261,0.01483,-0.0658
7.7,1.5228,0.02291,0.01518,-0.065
7.8,1.5337,0.02322,0.01554,-0.0642
7.9,1.5442,0.02353,0.01589,-0.0633
8,1.5543,0.02384,0.01625,-0.0623
8.1,1.564,0.02417,0.01661,-0.0614
8.2,1.5731,0.02451,0.01698,-0.0603
8.3,1.5832,0.02483,0.01741,-0.0594
8.4,1.5925,0.0252,0.01786,-0.0583
8.5,1.6012,0.02558,0.01831,-0.0572
8.6,1.6094,0.02597,0.01877,-0.0561
8.7,1.6162,0.02636,0.01922,-0.0548
8.8,1.622,0.02675,0.01968,-0.0533
8.9,1.6276,0.02716,0.02015,-0.0519
9,1.633,0.02759,0.02063,-0.0505
9.1,1.6382,0.02804,0.02113,-0.0492
9.2,1.6436,0.02855,0.0217,-0.0479
9.3,1.6489,0.02912,0.02238,-0.0468
9.4,1.6538,0.02971,0.02308,-0.0456
9.5,1.6583,0.03033,0.0238,-0.0445
9.6,1.6624,0.03097,0.02453,-0.0435
9.7,1.6662,0.03163,0.0253,-0.0426
9.9,1.6744,0.03287,0.0267,-0.0409
10,1.6779,0.03358,0.02749,-0.0403
10.1,1.6813,0.03432,0.0283,-0.0397
10.2,1.6846,0.03508,0.02913,-0.0393
10.3,1.687,0.03597,0.03011,-0.039
10.4,1.688,0.03706,0.03134,-0.0389
10.5,1.6886,0.0382,0.03262,-0.0391
10.6,1.6891,0.03941,0.03396,-0.0395
10.7,1.6894,0.04068,0.03536,-0.0401
10.8,1.6895,0.04202,0.03683,-0.041
10.9,1.6895,0.04345,0.03837,-0.0423
11,1.6895,0.04495,0.04,-0.0438
11.1,1.6895,0.04655,0.04171,-0.0456
11.2,1.6896,0.04823,0.0435,-0.0478
11.3,1.6896,0.05002,0.0454,-0.0502
11.4,1.6896,0.05189,0.04737,-0.0529
11.5,1.6896,0.05384,0.04941,-0.0558
11.6,1.6896,0.05586,0.05151,-0.0588
12.2,1.6011,0.08377,0.08013,-0.0998
12.3,1.5993,0.0862,0.08257,-0.1028
12.4,1.6004,0.08808,0.08447,-0.1051
12.5,1.6036,0.08959,0.086,-0.1069
12.6,1.608,0.09084,0.08726,-0.1084
12.8,1.5742,0.10144,0.09791,-0.1218
12.9,1.5732,0.10381,0.1003,-0.1246
13,1.5746,0.10569,0.1022,-0.1268
13.1,1.5773,0.1073,0.10382,-0.1286
13.2,1.5808,0.10872,0.10525,-0.1301
13.3,1.5883,0.10936,0.1059,-0.1309
13.4,1.5934,0.11043,0.10698,-0.1321
13.5,1.5988,0.11139,0.10796,-0.1331

