airfoilName st10.dat
Re 	3.900000e+05
M 	5.000000e-01
N 	4.500000e+00
VACC 	0 VACCflag 1
XTR 	1.00 	1.00 XTRflag 0
alpha,cl,cd,cdp,cm
-29.1,-1.8061,0.5152,0.51267,0.3577
-29,-1.8016,0.51157,0.50904,0.3551
-28.9,-1.7974,0.5087,0.50617,0.3527
-28.8,-1.7933,0.5059,0.50336,0.3503
-28.3,-1.7741,0.49425,0.49171,0.3389
-28.2,-1.7698,0.49138,0.48883,0.3365
-28.1,-1.7656,0.48854,0.48599,0.3342
-28,-1.7613,0.48564,0.48309,0.3318
-27.9,-1.7569,0.48273,0.48017,0.3294
-27.8,-1.7526,0.47985,0.47729,0.3271
-27.7,-1.7482,0.47698,0.47441,0.3247
-27.6,-1.7438,0.47411,0.47154,0.3224
-27.5,-1.7394,0.47125,0.46868,0.32
-27.4,-1.735,0.46841,0.46584,0.3177
-27.3,-1.7306,0.46557,0.46299,0.3154
-27.2,-1.7261,0.46275,0.46017,0.3131
-27.1,-1.7216,0.45993,0.45735,0.3108
-27,-1.7172,0.45713,0.45455,0.3085
-26.9,-1.7127,0.45433,0.45175,0.3062
-26.8,-1.7081,0.45154,0.44895,0.3039
-26.7,-1.7036,0.44876,0.44617,0.3016
-26.6,-1.6991,0.446,0.44341,0.2993
-26.5,-1.6945,0.44323,0.44064,0.2971
-26.4,-1.6899,0.44048,0.43789,0.2948
-26.3,-1.6853,0.43775,0.43515,0.2925
-26.2,-1.6807,0.43501,0.43241,0.2903
-26.1,-1.6761,0.43229,0.42969,0.288
-26,-1.6715,0.42957,0.42697,0.2858
-25.9,-1.6668,0.42686,0.42426,0.2836
-25.8,-1.6621,0.42417,0.42156,0.2813
-25.7,-1.6574,0.42147,0.41886,0.2791
-25.6,-1.6527,0.41879,0.41617,0.2769
-25.5,-1.648,0.41612,0.4135,0.2746
-25.4,-1.6432,0.41345,0.41083,0.2724
-25.3,-1.6385,0.41078,0.40816,0.2702
-25.2,-1.6337,0.40813,0.40551,0.268
-25.1,-1.6289,0.40548,0.40286,0.2658
-25,-1.6241,0.40285,0.40023,0.2636
-24.9,-1.6192,0.40022,0.39759,0.2613
-24.8,-1.6144,0.39761,0.39498,0.2591
-24.7,-1.6095,0.395,0.39236,0.2569
-24.6,-1.6046,0.39238,0.38975,0.2547
-24.5,-1.5997,0.38979,0.38715,0.2524
-24.4,-1.5947,0.3872,0.38457,0.2502
-24.2,-1.5821,0.38006,0.37743,0.2437
-24.1,-1.5773,0.37756,0.37493,0.2416
-24,-1.5725,0.37507,0.37244,0.2396
-23.9,-1.5677,0.37258,0.36995,0.2376
-23.8,-1.5629,0.37013,0.36749,0.2356
-23.7,-1.558,0.36767,0.36504,0.2336
-23.6,-1.5532,0.36522,0.36258,0.2316
-23.5,-1.5483,0.36278,0.36015,0.2296
-23.4,-1.5435,0.36037,0.35773,0.2277
-23.3,-1.5386,0.35795,0.3553,0.2257
-23.2,-1.5337,0.35554,0.35289,0.2237
-23.1,-1.5288,0.35314,0.35049,0.2218
-23,-1.5239,0.35076,0.34811,0.2198
-22.9,-1.5189,0.34839,0.34573,0.2179
-22.8,-1.514,0.34602,0.34337,0.216
-22.7,-1.509,0.34366,0.34101,0.2141
-22.6,-1.5041,0.34132,0.33866,0.2121
-22.5,-1.4991,0.33897,0.33632,0.2102
-22.4,-1.4942,0.33665,0.33399,0.2083
-22.3,-1.4892,0.33433,0.33167,0.2065
-22.2,-1.4842,0.33202,0.32935,0.2046
-22.1,-1.4792,0.32972,0.32706,0.2027
-22,-1.4742,0.32742,0.32476,0.2008
-21.9,-1.4692,0.32514,0.32248,0.199
-21.8,-1.4641,0.32287,0.3202,0.1971
-21.7,-1.4591,0.3206,0.31794,0.1953
-21.6,-1.4541,0.31835,0.31568,0.1935
-21.5,-1.4491,0.3161,0.31343,0.1917
-21.4,-1.444,0.31386,0.31119,0.1899
-21.3,-1.439,0.31163,0.30896,0.188
-21.2,-1.4339,0.3094,0.30673,0.1863
-21.1,-1.4289,0.30719,0.30452,0.1845
-21,-1.4238,0.30499,0.30231,0.1827
-20.9,-1.4187,0.30279,0.30011,0.1809
-20.8,-1.4136,0.3006,0.29792,0.1792
-20.7,-1.4086,0.29842,0.29574,0.1774
-20.6,-1.4035,0.29625,0.29357,0.1757
-20.5,-1.3984,0.29409,0.29141,0.1739
-20.4,-1.3933,0.29194,0.28925,0.1722
-20.3,-1.3882,0.28979,0.28711,0.1705
-20.2,-1.3831,0.28765,0.28497,0.1688
-20.1,-1.378,0.28552,0.28284,0.1671
-20,-1.3729,0.2834,0.28072,0.1654
-19.9,-1.3677,0.28129,0.2786,0.1637
-19.8,-1.3626,0.27918,0.27649,0.162
-19.7,-1.3575,0.27708,0.27439,0.1603
-19.6,-1.3523,0.27498,0.2723,0.1587
-19.5,-1.3471,0.27289,0.2702,0.157
-19.4,-1.342,0.2708,0.26812,0.1553
-19.3,-1.3368,0.26873,0.26604,0.1537
-19.2,-1.3316,0.26665,0.26397,0.152
-19.1,-1.3264,0.26459,0.2619,0.1504
-19,-1.3212,0.26253,0.25984,0.1487
-18.9,-1.316,0.26047,0.25779,0.1471
-18.8,-1.3108,0.25842,0.25574,0.1455
-18.7,-1.3055,0.25638,0.2537,0.1439
-18.6,-1.3002,0.25448,0.25179,0.1421
-18.5,-1.2949,0.25243,0.24973,0.1404
-18.4,-1.2897,0.25038,0.24768,0.1388
-18.3,-1.2844,0.24832,0.24563,0.1372
-18.2,-1.2791,0.24628,0.24358,0.1356
-18.1,-1.2739,0.24423,0.24153,0.134
-18,-1.2686,0.24218,0.23948,0.1324
-17.9,-1.2633,0.24013,0.23743,0.1309
-17.8,-1.2579,0.23807,0.23538,0.1293
-17.7,-1.2526,0.23601,0.23332,0.1277
-17.6,-1.2473,0.23395,0.23125,0.1261
-17.5,-1.2419,0.23185,0.22916,0.1246
-17.4,-1.2365,0.22977,0.22707,0.123
-17.3,-1.2311,0.22765,0.22495,0.1214
-17.2,-1.2256,0.22549,0.22279,0.1198
-17.1,-1.22,0.22327,0.22058,0.1182
-17,-1.2142,0.22096,0.21826,0.1166
-16.8,-1.2009,0.2153,0.21262,0.1128
-16.7,-1.1958,0.21342,0.21074,0.1114
-16.6,-1.1907,0.21155,0.20887,0.11
-16.5,-1.1856,0.20969,0.20701,0.1086
-16.4,-1.1804,0.20784,0.20515,0.1073
-16.3,-1.1753,0.20599,0.20331,0.1059
-16.2,-1.1701,0.20414,0.20146,0.1045
-16.1,-1.1649,0.20231,0.19963,0.1031
-16,-1.1596,0.20048,0.1978,0.1017
-15.9,-1.1543,0.19865,0.19597,0.1004
-15.8,-1.149,0.19683,0.19415,0.099
-15.7,-1.1437,0.19502,0.19234,0.0976
-15.6,-1.1384,0.19322,0.19053,0.0963
-15.5,-1.133,0.19142,0.18873,0.0949
-15.4,-1.1276,0.18962,0.18694,0.0935
-15.3,-1.1222,0.18783,0.18515,0.0922
-15.2,-1.1168,0.18605,0.18337,0.0908
-15.1,-1.1114,0.18428,0.1816,0.0895
-15,-1.1059,0.18251,0.17983,0.0881
-14.9,-1.1004,0.18074,0.17807,0.0868
-14.8,-1.0948,0.17899,0.17631,0.0855
-14.7,-1.0893,0.17724,0.17457,0.0841
-14.6,-1.0837,0.17549,0.17282,0.0828
-14.5,-1.0781,0.17376,0.17109,0.0814
-14.4,-1.0724,0.17202,0.16935,0.0801
-14.3,-1.0667,0.17029,0.16763,0.0788
-14.2,-1.061,0.16857,0.1659,0.0774
-14.1,-1.0553,0.16685,0.16419,0.0761
-14,-1.0495,0.16514,0.16248,0.0748
-13.9,-1.0437,0.16343,0.16077,0.0734
-13.8,-1.0378,0.16173,0.15908,0.0721
-13.7,-1.032,0.16004,0.15739,0.0708
-13.6,-1.0258,0.15849,0.15584,0.0694
-13.5,-1.0199,0.1568,0.15415,0.068
-13.4,-1.014,0.15512,0.15247,0.0667
-13.3,-1.0081,0.15346,0.1508,0.0654
-13.2,-1.0021,0.1518,0.14915,0.0641
-13.1,-0.9961,0.15015,0.1475,0.0628
-13,-0.9901,0.1485,0.14586,0.0615
-12.9,-0.984,0.14687,0.14423,0.0602
-12.8,-0.978,0.14524,0.1426,0.0589
-12.7,-0.9719,0.14363,0.14099,0.0576
-12.6,-0.9657,0.14201,0.13938,0.0563
-12.5,-0.9595,0.14041,0.13778,0.055
-12.4,-0.9533,0.13881,0.13618,0.0537
-12.3,-0.947,0.13722,0.1346,0.0524
-12.2,-0.9407,0.13564,0.13302,0.0511
-12.1,-0.9344,0.13407,0.13145,0.0498
-12,-0.9281,0.13251,0.12989,0.0485
-11.9,-0.9217,0.13095,0.12834,0.0472
-11.8,-0.9153,0.12941,0.1268,0.0459
-11.7,-0.9088,0.12787,0.12527,0.0446
-11.6,-0.9024,0.12634,0.12374,0.0433
-11.5,-0.8958,0.12482,0.12222,0.042
-11.4,-0.8893,0.12331,0.12071,0.0407
-11.3,-0.8826,0.1218,0.11921,0.0393
-11.2,-0.876,0.12029,0.11771,0.038
-11.1,-0.8692,0.1188,0.11622,0.0367
-11,-0.8625,0.1173,0.11472,0.0354
-10.9,-0.8557,0.11581,0.11323,0.034
-10.8,-0.8488,0.11433,0.11176,0.0327
-10.7,-0.8419,0.11286,0.11029,0.0313
-10.6,-0.835,0.11139,0.10882,0.03
-10.5,-0.828,0.10992,0.10735,0.0286
-10.4,-0.8209,0.10846,0.1059,0.0272
-10.3,-0.8138,0.107,0.10445,0.0259
-10.2,-0.8066,0.1055,0.10296,0.0244
-10.1,-0.7993,0.10404,0.1015,0.023
-10,-0.792,0.10255,0.10002,0.0216
-9.9,-0.7846,0.10105,0.09852,0.0202
-9.8,-0.7771,0.09953,0.097,0.0187
-9.7,-0.7696,0.09796,0.09544,0.0172
-9.6,-0.7617,0.09621,0.09369,0.0155
-9.5,-0.7529,0.09415,0.09164,0.0136
-9.4,-0.7456,0.09289,0.0904,0.0122
-9.3,-0.7382,0.09167,0.08919,0.0108
-9.2,-0.7308,0.09046,0.08799,0.0094
-9.1,-0.7233,0.08927,0.0868,0.008
-9,-0.7158,0.08808,0.08562,0.0066
-8.9,-0.7081,0.08691,0.08445,0.0052
-8.8,-0.7005,0.08575,0.0833,0.0038
-8.7,-0.6928,0.0846,0.08216,0.0023
-8.6,-0.6851,0.08346,0.08104,0.0009
-8.5,-0.6774,0.08234,0.07992,-0.0005
-8.4,-0.6697,0.08123,0.07882,-0.0019
-8.3,-0.6622,0.08014,0.07773,-0.0033
-8.2,-0.6549,0.07908,0.07668,-0.0046
-8.1,-0.6478,0.07804,0.07565,-0.0059
-8,-0.6413,0.07704,0.07466,-0.007
-7.9,-0.629,0.07569,0.07332,-0.0097
-7.8,-0.6162,0.07433,0.07195,-0.0125
-7.7,-0.6032,0.07295,0.07057,-0.0153
-7.6,-0.5875,0.07145,0.06906,-0.0188
-7.5,-0.5728,0.07002,0.06763,-0.0219
-7.4,-0.5573,0.06855,0.06614,-0.0253
-7.2,-0.5252,0.06561,0.06318,-0.032
-7.1,-0.5093,0.06408,0.06163,-0.0353
-7,-0.4938,0.06257,0.0601,-0.0385
-6.9,-0.4784,0.06105,0.05856,-0.0415
-6.8,-0.4625,0.05948,0.05696,-0.0447
-6.6,-0.4312,0.05628,0.05371,-0.0508
-6.5,-0.4153,0.05459,0.05199,-0.0538
-6.4,-0.3988,0.05277,0.05013,-0.057
-6.1,-0.3458,0.04597,0.04317,-0.068
-5.6,-0.2648,0.03835,0.03524,-0.0797
-5.5,-0.2483,0.03665,0.03345,-0.082
-4.9,-0.1531,0.02226,0.01796,-0.0941
-4.6,-0.1098,0.01686,0.01154,-0.0963
-4.5,-0.0951,0.01622,0.01073,-0.0963
-4.4,-0.0808,0.01564,0.00999,-0.0962
-4.3,-0.0662,0.01511,0.00929,-0.0961
-4.2,-0.0514,0.0146,0.00864,-0.0961
-4.1,-0.0367,0.01414,0.00803,-0.0959
-4,-0.0221,0.01372,0.00746,-0.0958
-3.9,-0.0073,0.01333,0.00695,-0.0956
-3.7,0.0217,0.01288,0.00633,-0.0953
-3.6,0.0364,0.01264,0.00601,-0.0951
-3.5,0.051,0.01241,0.0057,-0.095
-3.4,0.0655,0.0122,0.0054,-0.0948
-3.3,0.0803,0.012,0.00512,-0.0947
-3.2,0.0946,0.01184,0.00489,-0.0945
-3.1,0.1086,0.01172,0.0047,-0.0942
-3,0.123,0.01161,0.00453,-0.0941
-2.9,0.1372,0.01155,0.0044,-0.0939
-2.8,0.1513,0.01144,0.00423,-0.0937
-2.7,0.1658,0.01133,0.00409,-0.0936
-2.6,0.18,0.01125,0.00396,-0.0935
-2.5,0.1939,0.01121,0.00383,-0.0933
-2.4,0.2082,0.01114,0.00375,-0.0932
-2.3,0.2225,0.01107,0.00364,-0.0931
-2.2,0.2367,0.01101,0.00355,-0.093
-2.1,0.251,0.01096,0.00345,-0.093
-2,0.2648,0.01094,0.00336,-0.0928
-1.9,0.2784,0.01094,0.00331,-0.0926
-1.8,0.2925,0.01092,0.00324,-0.0925
-1.7,0.3066,0.01088,0.00318,-0.0925
-1.6,0.3206,0.01086,0.00313,-0.0924
-1.5,0.3343,0.01088,0.00309,-0.0923
-1.4,0.3483,0.01085,0.00306,-0.0923
-1.3,0.3621,0.01086,0.00302,-0.0922
-1.2,0.3759,0.01086,0.003,-0.0921
-1.1,0.3899,0.01086,0.00297,-0.0921
-1,0.4036,0.01085,0.00297,-0.092
-0.9,0.4175,0.01085,0.00295,-0.092
-0.8,0.4311,0.01089,0.00294,-0.0919
-0.7,0.445,0.01089,0.00295,-0.0919
-0.6,0.4589,0.01087,0.00295,-0.0919
-0.5,0.4727,0.01088,0.00295,-0.0919
-0.4,0.4866,0.01089,0.00294,-0.0918
-0.3,0.5004,0.01091,0.00296,-0.0918
-0.2,0.5142,0.01089,0.00297,-0.0918
-0.1,0.5279,0.01091,0.00298,-0.0918
0,0.5412,0.01097,0.00301,-0.0917
0.1,0.555,0.01099,0.00302,-0.0917
0.2,0.5686,0.01098,0.00305,-0.0917
0.3,0.5822,0.01101,0.00307,-0.0917
0.4,0.5958,0.01102,0.0031,-0.0917
0.5,0.6092,0.01099,0.00314,-0.0917
0.6,0.6227,0.011,0.00318,-0.0917
0.7,0.6361,0.011,0.00322,-0.0917
0.8,0.6487,0.01105,0.00327,-0.0916
0.9,0.6615,0.01091,0.00333,-0.0916
1.1,0.6735,0.00993,0.00335,-0.0878
1.2,0.6887,0.01004,0.00337,-0.0881
1.3,0.7018,0.0102,0.00344,-0.088
1.4,0.7149,0.01036,0.00352,-0.0879
1.5,0.7279,0.01053,0.00361,-0.0877
1.6,0.741,0.01069,0.00369,-0.0876
1.7,0.7537,0.0109,0.0038,-0.0875
1.8,0.7671,0.01104,0.00388,-0.0874
1.9,0.7804,0.01119,0.00398,-0.0872
2,0.7939,0.01131,0.00405,-0.0872
2.1,0.8074,0.01143,0.00414,-0.0871
2.2,0.8208,0.01158,0.00423,-0.0869
2.3,0.8344,0.01169,0.00433,-0.0868
2.4,0.8481,0.0118,0.00441,-0.0867
2.5,0.8616,0.01193,0.00451,-0.0866
2.6,0.8748,0.01208,0.00462,-0.0865
2.7,0.8885,0.01219,0.00471,-0.0864
2.8,0.9021,0.01231,0.00481,-0.0862
2.9,0.9156,0.01244,0.00491,-0.0861
3,0.929,0.01258,0.00502,-0.086
3.1,0.9428,0.01268,0.00512,-0.0858
3.2,0.9565,0.0128,0.00522,-0.0857
3.3,0.9701,0.01292,0.00533,-0.0855
3.4,0.9836,0.01305,0.00544,-0.0854
3.5,0.9968,0.0132,0.00556,-0.0852
3.6,1.0106,0.01331,0.00567,-0.085
3.7,1.0242,0.01343,0.00578,-0.0848
3.8,1.0378,0.01356,0.00589,-0.0847
3.9,1.0513,0.01369,0.00601,-0.0845
4,1.0647,0.01384,0.00614,-0.0842
4.1,1.0782,0.01397,0.00628,-0.084
4.2,1.0919,0.01409,0.0064,-0.0838
4.3,1.1056,0.01422,0.00653,-0.0836
4.4,1.1192,0.01435,0.00666,-0.0834
4.5,1.1324,0.0145,0.00679,-0.0831
4.6,1.1457,0.01466,0.00693,-0.0828
4.7,1.1593,0.01479,0.00707,-0.0825
4.8,1.1729,0.01493,0.00721,-0.0823
4.9,1.1865,0.01506,0.00736,-0.082
5,1.2,0.01521,0.0075,-0.0817
5.1,1.2134,0.01536,0.00767,-0.0814
5.2,1.2267,0.01552,0.00783,-0.081
5.3,1.2398,0.0157,0.00799,-0.0807
5.4,1.2533,0.01585,0.00816,-0.0804
5.5,1.2668,0.01599,0.00832,-0.08
5.6,1.2803,0.01614,0.00848,-0.0796
5.7,1.2935,0.01631,0.00865,-0.0793
5.8,1.3067,0.01648,0.00883,-0.0788
5.9,1.3197,0.01666,0.00901,-0.0784
6,1.3327,0.01685,0.00921,-0.078
6.1,1.3461,0.01701,0.00941,-0.0775
6.2,1.3595,0.01718,0.0096,-0.0771
6.3,1.3727,0.01736,0.00981,-0.0766
6.4,1.3858,0.01754,0.01001,-0.0761
6.5,1.3987,0.01773,0.01022,-0.0756
6.6,1.4115,0.01793,0.01043,-0.0751
6.7,1.4237,0.01815,0.01063,-0.0745
6.8,1.4368,0.01833,0.01086,-0.0739
6.9,1.4498,0.01853,0.0111,-0.0734
7,1.4626,0.01874,0.01134,-0.0728
7.1,1.4752,0.01895,0.01159,-0.0722
7.2,1.4877,0.01917,0.01184,-0.0715
7.3,1.5,0.01939,0.01209,-0.0708
7.4,1.512,0.01963,0.01235,-0.0701
7.5,1.5237,0.01988,0.01262,-0.0693
7.6,1.5357,0.02012,0.0129,-0.0686
7.7,1.5478,0.02036,0.0132,-0.0678
7.9,1.5715,0.02084,0.01377,-0.0662
8,1.5828,0.02111,0.01407,-0.0654
8.1,1.5937,0.02138,0.01439,-0.0645
8.2,1.6043,0.02166,0.01471,-0.0635
8.3,1.6144,0.02195,0.01504,-0.0625
8.4,1.6242,0.02225,0.01538,-0.0614
8.5,1.6346,0.02256,0.01576,-0.0604
8.6,1.6445,0.02288,0.01614,-0.0593
8.7,1.654,0.02321,0.01654,-0.0582
8.8,1.6628,0.02355,0.01694,-0.057
8.9,1.67,0.02389,0.01734,-0.0556
9,1.6768,0.02425,0.01776,-0.0541
9.1,1.6834,0.02462,0.0182,-0.0527
9.2,1.6896,0.02497,0.01857,-0.0513
9.3,1.6956,0.02538,0.01904,-0.0499
9.4,1.7016,0.02583,0.01954,-0.0486
9.5,1.7082,0.0263,0.02011,-0.0474
9.6,1.7144,0.0268,0.0207,-0.0462
9.7,1.7204,0.02732,0.02131,-0.045
9.8,1.7259,0.02787,0.02194,-0.0439
9.9,1.7312,0.02844,0.0226,-0.0428
10,1.7361,0.02904,0.02328,-0.0418
10.1,1.7409,0.02966,0.02398,-0.0409
10.2,1.7455,0.03031,0.02472,-0.0401
10.3,1.7498,0.031,0.02548,-0.0393
10.4,1.7539,0.03172,0.02628,-0.0387
10.5,1.7577,0.03247,0.02711,-0.0382
10.6,1.7613,0.03327,0.02798,-0.0378
10.7,1.7642,0.03419,0.029,-0.0375
10.8,1.7665,0.0352,0.03014,-0.0374
10.9,1.7693,0.03621,0.03128,-0.0375
11,1.7712,0.03734,0.03251,-0.0378
11.1,1.7729,0.03853,0.03382,-0.0384
11.2,1.7745,0.03979,0.03521,-0.0392
11.3,1.7758,0.04113,0.03666,-0.0403
11.4,1.7769,0.04257,0.0382,-0.0416
11.5,1.7779,0.04409,0.03984,-0.0433
11.6,1.7788,0.04572,0.04158,-0.0452
11.7,1.7795,0.04745,0.04341,-0.0474
11.8,1.7798,0.0493,0.04536,-0.05
11.9,1.7798,0.05128,0.04743,-0.0528
12,1.7776,0.05358,0.04983,-0.0561
12.1,1.7707,0.05658,0.05298,-0.0606
12.9,1.6573,0.0907,0.08782,-0.1078
13,1.6612,0.09216,0.08928,-0.1095
13.1,1.6615,0.09412,0.09126,-0.1119
13.2,1.6637,0.09575,0.0929,-0.1139
13.3,1.6472,0.10053,0.09769,-0.1202
13.4,1.626,0.10634,0.10354,-0.1276
13.5,1.6213,0.10928,0.1065,-0.1311
13.6,1.6207,0.11152,0.10875,-0.1337
13.7,1.6219,0.11339,0.11063,-0.1358
13.8,1.6243,0.11502,0.11227,-0.1377
13.9,1.6276,0.11648,0.11375,-0.1393
14,1.6315,0.1178,0.11508,-0.1408
14.1,1.6357,0.11902,0.11631,-0.1421
14.2,1.6405,0.12011,0.11741,-0.1433
14.3,1.6454,0.12114,0.11845,-0.1444

