airfoilName st10.dat
Re 	590000
M 	5.000000e-01
N 	4.500000e+00
VACC 	0 VACCflag 1
XTR 	1.00 	1.00 XTRflag 0
alpha,cl,cd,cdp,cm
-28.6,-1.7894,0.50353,0.50155,0.3471
-28.5,-1.7852,0.50052,0.49854,0.3446
-28.2,-1.7707,0.49046,0.48847,0.3368
-28.1,-1.7666,0.48769,0.4857,0.3345
-28,-1.7624,0.48482,0.48283,0.3322
-27.9,-1.7581,0.48194,0.47995,0.3298
-27.8,-1.7538,0.47909,0.47709,0.3275
-27.7,-1.7495,0.47624,0.47424,0.3252
-27.6,-1.7452,0.4734,0.4714,0.3228
-27.5,-1.7408,0.47057,0.46856,0.3205
-27.4,-1.7365,0.46776,0.46575,0.3182
-27.3,-1.7321,0.46495,0.46294,0.3159
-27.2,-1.7277,0.46214,0.46013,0.3136
-27.1,-1.7233,0.45936,0.45735,0.3113
-27,-1.7189,0.45658,0.45457,0.309
-26.9,-1.7144,0.45382,0.4518,0.3068
-26.8,-1.7099,0.45105,0.44903,0.3045
-26.7,-1.7055,0.4483,0.44628,0.3022
-26.6,-1.701,0.44557,0.44355,0.3
-26.5,-1.6965,0.44284,0.44082,0.2977
-26.4,-1.692,0.44012,0.4381,0.2955
-26.3,-1.6874,0.43741,0.43539,0.2933
-26.2,-1.6829,0.43471,0.43268,0.2911
-26.1,-1.6783,0.43202,0.42999,0.2888
-26,-1.6737,0.42933,0.4273,0.2866
-25.9,-1.6691,0.42666,0.42463,0.2844
-25.8,-1.6645,0.42399,0.42196,0.2822
-25.7,-1.6599,0.42134,0.4193,0.2801
-25.6,-1.6552,0.41869,0.41664,0.2779
-25.5,-1.6506,0.41606,0.41402,0.2757
-25.4,-1.6459,0.41343,0.41138,0.2736
-25.3,-1.6412,0.4108,0.40875,0.2714
-25.2,-1.6365,0.40819,0.40614,0.2693
-25.1,-1.6318,0.40559,0.40354,0.2671
-25,-1.6271,0.40301,0.40095,0.265
-24.9,-1.6223,0.40042,0.39837,0.2629
-24.8,-1.6176,0.39785,0.3958,0.2607
-24.7,-1.6128,0.39528,0.39323,0.2586
-24.6,-1.608,0.39272,0.39067,0.2565
-24.5,-1.6033,0.39018,0.38812,0.2544
-24.4,-1.5985,0.38764,0.38558,0.2523
-24.3,-1.5936,0.3851,0.38304,0.2503
-24.2,-1.5888,0.38259,0.38052,0.2482
-24.1,-1.584,0.38007,0.37801,0.2461
-24,-1.5791,0.37757,0.3755,0.2441
-23.9,-1.5742,0.37506,0.37299,0.242
-23.8,-1.5694,0.37258,0.37051,0.2399
-23.7,-1.5645,0.37009,0.36802,0.2379
-23.6,-1.5596,0.36761,0.36554,0.2359
-23.5,-1.5547,0.36514,0.36307,0.2338
-23.4,-1.5497,0.36268,0.3606,0.2318
-23.3,-1.5448,0.36021,0.35813,0.2298
-23.2,-1.5398,0.35776,0.35568,0.2278
-23.1,-1.5349,0.35531,0.35323,0.2257
-23,-1.5299,0.35287,0.35079,0.2237
-22.9,-1.5249,0.35044,0.34836,0.2217
-22.8,-1.5199,0.34801,0.34593,0.2197
-22.7,-1.5147,0.34558,0.3435,0.2175
-22.6,-1.5096,0.34315,0.34106,0.2155
-22.5,-1.5045,0.34071,0.33862,0.2134
-22.4,-1.4994,0.33828,0.33619,0.2114
-22.3,-1.4943,0.33585,0.33376,0.2094
-22.2,-1.4892,0.33341,0.33132,0.2074
-22.1,-1.4841,0.33096,0.32887,0.2054
-22,-1.4789,0.3285,0.32641,0.2034
-21.9,-1.4736,0.32599,0.32389,0.2013
-21.8,-1.4684,0.32347,0.32138,0.1993
-21.6,-1.4553,0.31637,0.31428,0.1943
-21.5,-1.4504,0.3141,0.31201,0.1925
-21.4,-1.4455,0.31185,0.30976,0.1907
-21.3,-1.4406,0.30961,0.30752,0.189
-21.2,-1.4357,0.30738,0.30529,0.1872
-21.1,-1.4307,0.30517,0.30308,0.1854
-21,-1.4258,0.30297,0.30088,0.1837
-20.9,-1.4208,0.30079,0.29869,0.1819
-20.8,-1.4159,0.29862,0.29652,0.1802
-20.7,-1.4109,0.29646,0.29436,0.1785
-20.6,-1.4059,0.29431,0.29221,0.1767
-20.5,-1.4009,0.29217,0.29007,0.175
-20.4,-1.396,0.29004,0.28794,0.1733
-20.3,-1.391,0.28793,0.28583,0.1716
-20.2,-1.386,0.28582,0.28372,0.1699
-20.1,-1.3809,0.28372,0.28162,0.1682
-20,-1.3759,0.28163,0.27953,0.1665
-19.9,-1.3709,0.27955,0.27744,0.1648
-19.8,-1.3658,0.27747,0.27537,0.1632
-19.7,-1.3607,0.27541,0.2733,0.1615
-19.6,-1.3557,0.27335,0.27124,0.1599
-19.5,-1.3506,0.27129,0.26918,0.1582
-19.4,-1.3455,0.26924,0.26714,0.1565
-19.3,-1.3404,0.2672,0.2651,0.1549
-19.2,-1.3352,0.26517,0.26307,0.1533
-19.1,-1.3301,0.26314,0.26104,0.1517
-19,-1.325,0.26113,0.25902,0.15
-18.9,-1.3199,0.25912,0.25701,0.1484
-18.8,-1.3147,0.25712,0.25501,0.1468
-18.7,-1.3096,0.25512,0.25301,0.1452
-18.6,-1.3045,0.25313,0.25102,0.1437
-18.5,-1.2993,0.25114,0.24903,0.1421
-18.4,-1.2942,0.24916,0.24705,0.1405
-18.3,-1.289,0.24718,0.24507,0.1389
-18.2,-1.2838,0.24522,0.24311,0.1374
-18.1,-1.2787,0.24326,0.24115,0.1358
-18,-1.2735,0.2413,0.23919,0.1343
-17.9,-1.2683,0.23935,0.23723,0.1328
-17.8,-1.2631,0.2374,0.23529,0.1312
-17.7,-1.2579,0.23562,0.23351,0.1296
-17.6,-1.2527,0.23367,0.23156,0.1281
-17.5,-1.2475,0.23173,0.22962,0.1266
-17.4,-1.2423,0.22979,0.22768,0.1251
-17.3,-1.2371,0.22786,0.22575,0.1236
-17.2,-1.2319,0.22592,0.22382,0.1221
-17.1,-1.2266,0.224,0.22189,0.1207
-17,-1.2214,0.22208,0.21997,0.1192
-16.9,-1.2161,0.22016,0.21805,0.1177
-16.8,-1.2109,0.21824,0.21613,0.1162
-16.7,-1.2056,0.21633,0.21422,0.1148
-16.6,-1.2002,0.21441,0.2123,0.1133
-16.5,-1.1949,0.21249,0.21038,0.1118
-16.4,-1.1895,0.21057,0.20847,0.1104
-16.3,-1.1841,0.20865,0.20655,0.1089
-16.2,-1.1787,0.20673,0.20463,0.1075
-16.1,-1.1733,0.20482,0.20271,0.106
-16,-1.1679,0.2029,0.20079,0.1046
-15.9,-1.1624,0.20099,0.19888,0.1031
-15.8,-1.1569,0.19905,0.19694,0.1017
-15.7,-1.1514,0.19713,0.19502,0.1002
-15.6,-1.1459,0.1952,0.19309,0.0988
-15.5,-1.1403,0.19327,0.19116,0.0973
-15.4,-1.1347,0.19133,0.18922,0.0959
-15.3,-1.1291,0.18937,0.18726,0.0945
-15.2,-1.1235,0.18741,0.1853,0.093
-15.1,-1.1178,0.18541,0.1833,0.0916
-15,-1.1121,0.18339,0.18128,0.0901
-14.9,-1.1063,0.18134,0.17923,0.0887
-14.8,-1.1004,0.17919,0.17708,0.0872
-14.7,-1.0943,0.17696,0.17485,0.0857
-14.5,-1.0805,0.17182,0.16972,0.0822
-14.4,-1.0751,0.17007,0.16797,0.0809
-14.3,-1.0696,0.16833,0.16624,0.0796
-14.2,-1.0641,0.1666,0.16451,0.0783
-14.1,-1.0586,0.16488,0.16279,0.077
-14,-1.053,0.16317,0.16108,0.0757
-13.9,-1.0474,0.16147,0.15938,0.0744
-13.8,-1.0418,0.15979,0.1577,0.0731
-13.7,-1.0361,0.15811,0.15602,0.0718
-13.6,-1.0304,0.15644,0.15436,0.0705
-13.5,-1.0246,0.15479,0.15271,0.0692
-13.4,-1.0188,0.15314,0.15106,0.0679
-13.3,-1.013,0.15151,0.14942,0.0666
-13.2,-1.0072,0.14989,0.1478,0.0653
-13.1,-1.0013,0.14827,0.14619,0.064
-12.9,-0.9893,0.14525,0.14317,0.0613
-12.8,-0.9833,0.14366,0.14158,0.06
-12.7,-0.9772,0.14207,0.14,0.0587
-12.6,-0.9711,0.14049,0.13842,0.0574
-12.5,-0.965,0.13891,0.13684,0.0561
-12.4,-0.9588,0.13735,0.13528,0.0548
-12.3,-0.9525,0.1358,0.13373,0.0535
-12.2,-0.9463,0.13425,0.13219,0.0522
-12.1,-0.94,0.13272,0.13066,0.0509
-12,-0.9336,0.13119,0.12914,0.0496
-11.9,-0.9273,0.12967,0.12762,0.0483
-11.8,-0.9209,0.12817,0.12612,0.047
-11.7,-0.9144,0.12668,0.12463,0.0457
-11.6,-0.908,0.12519,0.12315,0.0444
-11.5,-0.9014,0.12371,0.12167,0.043
-11.4,-0.8948,0.12224,0.12021,0.0417
-11.3,-0.8882,0.12078,0.11875,0.0404
-11.2,-0.8815,0.11932,0.11729,0.0391
-11.1,-0.8747,0.11787,0.11585,0.0377
-11,-0.8679,0.11643,0.11441,0.0364
-10.9,-0.8611,0.115,0.11298,0.0351
-10.8,-0.8542,0.11358,0.11156,0.0337
-10.7,-0.8473,0.11217,0.11016,0.0324
-10.6,-0.8404,0.11077,0.10876,0.031
-10.5,-0.8333,0.10937,0.10737,0.0297
-10.4,-0.8262,0.10798,0.10598,0.0283
-10.3,-0.819,0.1066,0.1046,0.0269
-10.2,-0.8118,0.10522,0.10322,0.0255
-10.1,-0.8045,0.10385,0.10186,0.0241
-10,-0.7972,0.10249,0.10051,0.0227
-9.9,-0.7898,0.10114,0.09916,0.0213
-9.8,-0.7824,0.0998,0.09782,0.0199
-9.7,-0.7749,0.09846,0.09649,0.0185
-9.6,-0.7673,0.09711,0.09515,0.017
-9.5,-0.7596,0.09579,0.09382,0.0156
-9.4,-0.7519,0.09446,0.09251,0.0141
-9.3,-0.7441,0.09315,0.09119,0.0127
-9.2,-0.7363,0.09183,0.08988,0.0112
-9.1,-0.7285,0.09053,0.08859,0.0097
-9,-0.7205,0.08921,0.08728,0.0082
-8.9,-0.7126,0.08792,0.08599,0.0067
-8.8,-0.7045,0.08662,0.08469,0.0051
-8.7,-0.6965,0.08533,0.08341,0.0036
-8.6,-0.6885,0.08403,0.08212,0.0021
-8.5,-0.6804,0.08274,0.08083,0.0005
-8.4,-0.6725,0.08146,0.07956,-0.0011
-8.3,-0.6632,0.08009,0.07819,-0.003
-8.2,-0.651,0.0785,0.07659,-0.0057
-8.1,-0.6381,0.07682,0.07491,-0.0086
-7.9,-0.6141,0.07344,0.07152,-0.0141
-7.8,-0.6021,0.07154,0.0696,-0.017
-7.7,-0.5897,0.06962,0.06768,-0.02
-7.6,-0.577,0.06831,0.06636,-0.0228
-7.5,-0.5641,0.06702,0.06505,-0.0255
-7.4,-0.5513,0.06575,0.06376,-0.0281
-7.3,-0.5381,0.06447,0.06245,-0.0308
-7.2,-0.5246,0.06318,0.06114,-0.0335
-7.1,-0.5111,0.06189,0.05983,-0.0361
-7,-0.4971,0.06057,0.05848,-0.0388
-6.9,-0.4827,0.05923,0.05712,-0.0416
-6.8,-0.4678,0.05786,0.05572,-0.0444
-6.7,-0.4532,0.05674,0.05456,-0.0468
-6.6,-0.4378,0.05529,0.05308,-0.0496
-6.5,-0.4222,0.05381,0.05156,-0.0525
-6.4,-0.4064,0.05231,0.05001,-0.0552
-6.1,-0.3574,0.04751,0.04507,-0.0637
-6,-0.3402,0.04576,0.04327,-0.0666
-5.9,-0.323,0.04395,0.04139,-0.0695
-5.7,-0.2881,0.03995,0.03724,-0.0754
-5.6,-0.2701,0.0376,0.03479,-0.0785
-5.5,-0.2518,0.03474,0.0318,-0.0819
-4.9,-0.1591,0.01817,0.01379,-0.0944
-4.7,-0.13,0.01579,0.01092,-0.0951
-4.6,-0.1153,0.01489,0.0098,-0.0952
-4.5,-0.1005,0.01415,0.00885,-0.0952
-4.4,-0.0856,0.01352,0.00803,-0.0952
-4.3,-0.0708,0.013,0.00733,-0.095
-4.2,-0.0559,0.01257,0.00673,-0.0949
-4.1,-0.0408,0.01219,0.00622,-0.0948
-4,-0.0259,0.0119,0.00584,-0.0946
-3.9,-0.0111,0.01168,0.00553,-0.0945
-3.8,0.0038,0.01148,0.00527,-0.0943
-3.7,0.0185,0.01131,0.00502,-0.0942
-3.6,0.0332,0.01115,0.00478,-0.094
-3.5,0.0475,0.01103,0.00456,-0.0938
-3.4,0.0623,0.01089,0.00435,-0.0937
-3.3,0.0767,0.01079,0.00416,-0.0935
-3.1,0.1056,0.01065,0.00394,-0.0932
-3,0.1201,0.01057,0.00379,-0.0931
-2.9,0.1343,0.01052,0.00366,-0.0929
-2.8,0.1488,0.01044,0.00354,-0.0929
-2.7,0.1632,0.01037,0.00344,-0.0928
-2.6,0.1776,0.01034,0.00336,-0.0927
-2.5,0.1917,0.01031,0.00327,-0.0926
-2.4,0.206,0.01026,0.00319,-0.0925
-2.3,0.2203,0.01022,0.00311,-0.0924
-2.2,0.2344,0.01022,0.00304,-0.0923
-2.1,0.2484,0.01021,0.00299,-0.0922
-2,0.2627,0.01017,0.00293,-0.0922
-1.9,0.2766,0.01019,0.00289,-0.0921
-1.8,0.2909,0.01017,0.00283,-0.0921
-1.7,0.3051,0.01015,0.00279,-0.092
-1.6,0.3194,0.01013,0.00276,-0.092
-1.5,0.3333,0.01014,0.00273,-0.092
-1.4,0.3475,0.01012,0.00271,-0.092
-1.3,0.3614,0.01015,0.00269,-0.0919
-1.2,0.3752,0.01017,0.00267,-0.0919
-1.1,0.3891,0.01018,0.00267,-0.0919
-1,0.4032,0.01017,0.00265,-0.0919
-0.9,0.4173,0.01018,0.00264,-0.0919
-0.8,0.4313,0.01018,0.00263,-0.0919
-0.7,0.4453,0.01019,0.00264,-0.0919
-0.6,0.4593,0.01018,0.00264,-0.0919
-0.5,0.4729,0.01023,0.00265,-0.0918
-0.4,0.4868,0.01025,0.00265,-0.0918
-0.3,0.5007,0.01027,0.00267,-0.0918
-0.2,0.5145,0.01027,0.00269,-0.0919
-0.1,0.5284,0.0103,0.0027,-0.0919
0,0.5422,0.01033,0.00272,-0.0919
0.1,0.5559,0.01035,0.00275,-0.0919
0.2,0.5697,0.01039,0.00277,-0.0919
0.3,0.5828,0.0105,0.00283,-0.0918
0.4,0.5964,0.01056,0.00286,-0.0918
0.5,0.6099,0.0106,0.00291,-0.0918
0.6,0.6233,0.01067,0.00295,-0.0917
0.7,0.6367,0.01074,0.00301,-0.0917
0.8,0.65,0.01078,0.00307,-0.0917
0.9,0.6632,0.01086,0.00314,-0.0917
1,0.6764,0.01093,0.0032,-0.0917
1.1,0.6897,0.01099,0.00328,-0.0917
1.2,0.7031,0.01095,0.00336,-0.0918
1.3,0.7161,0.01101,0.00345,-0.0918
1.4,0.7297,0.01095,0.00351,-0.0918
1.6,0.7446,0.01,0.00354,-0.0887
1.7,0.7584,0.0101,0.00361,-0.0887
1.8,0.7723,0.01019,0.00367,-0.0886
1.9,0.7861,0.0103,0.00374,-0.0886
2,0.7997,0.01041,0.00381,-0.0885
2.1,0.8136,0.0105,0.00389,-0.0885
2.2,0.8274,0.01061,0.00396,-0.0884
2.3,0.8412,0.01071,0.00404,-0.0883
2.4,0.8549,0.01083,0.00412,-0.0882
2.5,0.8688,0.01091,0.00419,-0.0882
2.6,0.8828,0.011,0.00426,-0.0881
2.7,0.8966,0.0111,0.00434,-0.088
2.8,0.9105,0.0112,0.00442,-0.0879
2.9,0.9242,0.01131,0.00451,-0.0878
3,0.9381,0.01141,0.00459,-0.0877
3.1,0.952,0.01151,0.00468,-0.0876
3.2,0.9658,0.01161,0.00476,-0.0875
3.3,0.9797,0.01172,0.00485,-0.0874
3.4,0.9934,0.01183,0.00494,-0.0872
3.5,1.0072,0.01194,0.00504,-0.0871
3.6,1.0212,0.01203,0.00513,-0.087
3.7,1.0351,0.01213,0.00523,-0.0868
3.8,1.049,0.01224,0.00532,-0.0867
3.9,1.0628,0.01235,0.00542,-0.0865
4,1.0766,0.01247,0.00553,-0.0863
4.1,1.0903,0.01259,0.00564,-0.0861
4.2,1.1042,0.0127,0.00574,-0.086
4.3,1.1181,0.01281,0.00585,-0.0858
4.4,1.132,0.01292,0.00596,-0.0856
4.5,1.1458,0.01304,0.00607,-0.0853
4.6,1.1595,0.01317,0.00619,-0.0851
4.7,1.1731,0.01331,0.00632,-0.0849
4.8,1.1871,0.01342,0.00644,-0.0846
4.9,1.201,0.01353,0.00656,-0.0844
5,1.2149,0.01365,0.00669,-0.0841
5.1,1.2287,0.01378,0.00682,-0.0838
5.2,1.2423,0.01392,0.00694,-0.0835
5.3,1.2559,0.01406,0.00708,-0.0832
5.4,1.2695,0.0142,0.00723,-0.0829
5.5,1.2834,0.01433,0.00736,-0.0826
5.6,1.2972,0.01446,0.0075,-0.0823
5.7,1.311,0.01459,0.00765,-0.0819
5.8,1.3247,0.01473,0.0078,-0.0816
5.9,1.3384,0.01488,0.00795,-0.0812
6,1.3519,0.01504,0.00812,-0.0808
6.1,1.3652,0.0152,0.00829,-0.0804
6.2,1.3788,0.01536,0.00846,-0.0799
6.3,1.3926,0.01549,0.00861,-0.0795
6.4,1.4062,0.01564,0.00878,-0.0791
6.5,1.4198,0.0158,0.00895,-0.0786
6.6,1.4332,0.01597,0.00913,-0.0781
6.7,1.4465,0.01614,0.00932,-0.0776
6.8,1.4597,0.01633,0.00951,-0.0771
6.9,1.4727,0.01651,0.00971,-0.0765
7,1.4863,0.01668,0.00991,-0.076
7.1,1.4996,0.01685,0.01012,-0.0754
7.2,1.5129,0.01703,0.01032,-0.0748
7.3,1.5261,0.01721,0.01054,-0.0742
7.4,1.539,0.0174,0.01073,-0.0736
7.5,1.5518,0.0176,0.01096,-0.0729
7.6,1.5644,0.01782,0.01119,-0.0722
7.7,1.5768,0.01804,0.01143,-0.0714
7.8,1.5897,0.01823,0.01167,-0.0707
7.9,1.6024,0.01844,0.01192,-0.07
8,1.6149,0.01866,0.01219,-0.0692
8.1,1.6272,0.01888,0.01245,-0.0683
8.2,1.6393,0.01911,0.01271,-0.0675
8.3,1.6511,0.01935,0.01299,-0.0666
8.4,1.6626,0.01959,0.01327,-0.0656
8.5,1.6737,0.01985,0.01356,-0.0647
8.6,1.6844,0.02013,0.01387,-0.0636
8.7,1.6957,0.02037,0.01416,-0.0626
8.8,1.7066,0.02063,0.01448,-0.0615
8.9,1.7171,0.02091,0.01481,-0.0604
9,1.7272,0.0212,0.01515,-0.0592
9.1,1.7369,0.0215,0.01551,-0.058
9.2,1.7453,0.0218,0.01587,-0.0566
9.3,1.7525,0.02212,0.01624,-0.0551
9.4,1.7593,0.02246,0.01663,-0.0535
9.5,1.766,0.02283,0.01704,-0.052
9.6,1.7724,0.02322,0.01748,-0.0505
9.7,1.7791,0.02362,0.01795,-0.0491
9.8,1.7862,0.02404,0.01844,-0.0478
9.9,1.793,0.02448,0.01895,-0.0464
10,1.7996,0.02494,0.01949,-0.0451
10.1,1.8059,0.02543,0.02006,-0.0439
10.2,1.8128,0.0259,0.02059,-0.0428
10.3,1.8186,0.02643,0.0212,-0.0416
10.4,1.8242,0.02699,0.02183,-0.0405
10.5,1.8296,0.02758,0.0225,-0.0395
10.6,1.8347,0.0282,0.02319,-0.0386
10.7,1.8396,0.02886,0.02393,-0.0377
10.8,1.8442,0.02957,0.02471,-0.037
10.9,1.8484,0.03033,0.02556,-0.0363
11,1.8523,0.03116,0.02648,-0.0358
11.1,1.8557,0.03204,0.02747,-0.0354
11.2,1.8589,0.03298,0.02851,-0.0352
11.3,1.8617,0.03398,0.02963,-0.0351
11.4,1.8642,0.03506,0.03081,-0.0353
11.5,1.8665,0.03621,0.03207,-0.0357
11.6,1.8685,0.03744,0.03341,-0.0363
11.7,1.8703,0.03876,0.03483,-0.0372
11.8,1.8718,0.04018,0.03636,-0.0384
11.9,1.8729,0.04169,0.03798,-0.0399
12,1.8737,0.04333,0.03972,-0.0416
12.1,1.8769,0.04482,0.0413,-0.0434
12.2,1.8772,0.04667,0.04325,-0.0457
12.3,1.8764,0.04869,0.04536,-0.0484
12.4,1.8725,0.05114,0.04795,-0.0517
12.6,1.8609,0.05668,0.05373,-0.0595
12.7,1.8531,0.05978,0.05694,-0.0638
13.4,1.7617,0.08658,0.08427,-0.0995
13.6,1.7382,0.0939,0.09166,-0.1091
13.8,1.726,0.09964,0.09743,-0.1165
13.9,1.7237,0.10197,0.09978,-0.1195
14,1.7235,0.10395,0.10176,-0.1219
14.1,1.7117,0.10774,0.10556,-0.1269
14.3,1.6769,0.1176,0.11548,-0.1396
14.4,1.6745,0.12009,0.11798,-0.1426
14.5,1.6746,0.12213,0.12004,-0.1449
14.6,1.6759,0.12394,0.12186,-0.147
14.7,1.6783,0.12554,0.12346,-0.1488
14.8,1.6813,0.127,0.12493,-0.1504
14.9,1.6847,0.12835,0.1263,-0.1519
15,1.6884,0.12963,0.12757,-0.1534
15.1,1.6925,0.13081,0.12876,-0.1547

