airfoilName st11.dat
Re 	910000
M 	5.000000e-01
N 	4.500000e+00
VACC 	0 VACCflag 1
XTR 	1.00 	1.00 XTRflag 0
alpha,cl,cd,cdp,cm
-30,-1.7937,0.54811,0.54662,0.3759
-29.9,-1.7898,0.54503,0.54354,0.3734
-29.8,-1.7859,0.54203,0.54054,0.371
-29.7,-1.782,0.53901,0.53752,0.3685
-29.6,-1.7781,0.53602,0.53452,0.366
-29.5,-1.7741,0.533,0.53151,0.3636
-29.4,-1.7701,0.53003,0.52853,0.3611
-29.3,-1.7661,0.52706,0.52556,0.3587
-29.2,-1.7622,0.52411,0.52261,0.3562
-29.1,-1.7581,0.52116,0.51965,0.3538
-29,-1.7541,0.51822,0.51671,0.3514
-28.9,-1.75,0.51529,0.51378,0.349
-28.8,-1.746,0.51238,0.51087,0.3466
-28.7,-1.7419,0.50947,0.50796,0.3442
-28.6,-1.7377,0.50658,0.50507,0.3418
-28.5,-1.7336,0.50369,0.50218,0.3394
-28.4,-1.7295,0.50081,0.4993,0.337
-28.3,-1.7253,0.49796,0.49644,0.3346
-28.2,-1.7211,0.49509,0.49356,0.3323
-28.1,-1.7169,0.49224,0.49072,0.3299
-28,-1.7127,0.4894,0.48787,0.3276
-27.9,-1.7085,0.48659,0.48506,0.3252
-27.8,-1.7043,0.48376,0.48223,0.3229
-27.7,-1.7,0.48095,0.47942,0.3206
-27.6,-1.6958,0.47814,0.47661,0.3182
-27.5,-1.6914,0.47535,0.47382,0.3159
-27.4,-1.6872,0.47257,0.47104,0.3136
-27.3,-1.6828,0.4698,0.46826,0.3113
-27.2,-1.6785,0.46702,0.46548,0.309
-27.1,-1.6741,0.46428,0.46274,0.3067
-27,-1.6698,0.46152,0.45998,0.3045
-26.9,-1.6654,0.45878,0.45724,0.3022
-26.8,-1.661,0.45605,0.45451,0.2999
-26.7,-1.6566,0.45332,0.45178,0.2977
-26.6,-1.6521,0.4506,0.44906,0.2954
-26.5,-1.6477,0.44789,0.44634,0.2932
-26.4,-1.6432,0.44518,0.44363,0.2909
-26.3,-1.6387,0.44248,0.44093,0.2887
-26.2,-1.6342,0.43979,0.43823,0.2865
-26.1,-1.6297,0.4371,0.43554,0.2843
-26,-1.6251,0.43442,0.43286,0.282
-25.9,-1.6206,0.43173,0.43017,0.2798
-25.8,-1.616,0.42906,0.4275,0.2776
-25.7,-1.6114,0.42644,0.42488,0.2754
-25.6,-1.6067,0.42377,0.4222,0.2732
-25.5,-1.6021,0.42113,0.41956,0.271
-25.4,-1.5975,0.41846,0.41689,0.2688
-25.3,-1.5928,0.41582,0.41425,0.2667
-25.2,-1.5881,0.41317,0.4116,0.2645
-25.1,-1.5835,0.41053,0.40896,0.2623
-25,-1.5788,0.40791,0.40634,0.2602
-24.9,-1.574,0.40528,0.4037,0.258
-24.8,-1.5693,0.40265,0.40108,0.2559
-24.7,-1.5645,0.40003,0.39846,0.2537
-24.6,-1.5597,0.39741,0.39583,0.2516
-24.5,-1.5549,0.39479,0.39321,0.2495
-24.4,-1.5501,0.39218,0.3906,0.2473
-24.3,-1.5453,0.38955,0.38797,0.2452
-24.2,-1.5405,0.38694,0.38536,0.2431
-24.1,-1.5356,0.38433,0.38275,0.2409
-24,-1.5306,0.38166,0.38008,0.2388
-23.9,-1.5257,0.37901,0.37743,0.2366
-23.8,-1.5207,0.3763,0.37471,0.2344
-23.7,-1.5156,0.3735,0.37191,0.2322
-23.5,-1.5034,0.36603,0.36444,0.2269
-23.4,-1.4986,0.36359,0.362,0.225
-23.3,-1.4939,0.36117,0.35958,0.223
-23.2,-1.4892,0.35876,0.35717,0.2211
-23.1,-1.4844,0.35638,0.35479,0.2192
-23,-1.4796,0.35401,0.35241,0.2172
-22.9,-1.4749,0.35167,0.35008,0.2153
-22.8,-1.4701,0.34934,0.34774,0.2134
-22.7,-1.4653,0.34701,0.34542,0.2115
-22.6,-1.4605,0.34471,0.34311,0.2096
-22.5,-1.4557,0.34241,0.34081,0.2078
-22.4,-1.4508,0.34012,0.33852,0.2059
-22.3,-1.446,0.33785,0.33625,0.204
-22.2,-1.4411,0.33559,0.33399,0.2021
-22.1,-1.4362,0.33333,0.33173,0.2003
-22,-1.4314,0.33108,0.32948,0.1984
-21.9,-1.4265,0.32885,0.32724,0.1966
-21.8,-1.4216,0.32662,0.32501,0.1948
-21.7,-1.4167,0.3244,0.32279,0.1929
-21.6,-1.4118,0.32218,0.32058,0.1911
-21.5,-1.4069,0.31998,0.31837,0.1893
-21.4,-1.4019,0.31779,0.31617,0.1875
-21.3,-1.397,0.31559,0.31398,0.1857
-21.2,-1.3921,0.3134,0.31179,0.1839
-21.1,-1.3871,0.31123,0.30961,0.1822
-21,-1.3822,0.30905,0.30744,0.1804
-20.9,-1.3772,0.30688,0.30527,0.1786
-20.8,-1.3722,0.30473,0.30312,0.1769
-20.7,-1.3673,0.30257,0.30096,0.1752
-20.6,-1.3623,0.30043,0.29881,0.1734
-20.5,-1.3573,0.29846,0.29685,0.1716
-20.4,-1.3523,0.29632,0.2947,0.1699
-20.3,-1.3473,0.29418,0.29256,0.1682
-20.2,-1.3423,0.29203,0.29042,0.1665
-20.1,-1.3373,0.2899,0.28829,0.1648
-20,-1.3322,0.28777,0.28616,0.1631
-19.9,-1.3271,0.28565,0.28403,0.1614
-19.8,-1.3221,0.28353,0.28191,0.1597
-19.7,-1.317,0.28141,0.27979,0.1581
-19.6,-1.3119,0.2793,0.27768,0.1564
-19.5,-1.3068,0.27719,0.27557,0.1547
-19.4,-1.3017,0.27509,0.27347,0.1531
-19.3,-1.2966,0.27299,0.27138,0.1514
-19.2,-1.2915,0.2709,0.26928,0.1498
-19.1,-1.2864,0.26881,0.26719,0.1481
-19,-1.2813,0.26673,0.26511,0.1465
-18.9,-1.2762,0.26465,0.26302,0.1449
-18.8,-1.271,0.26257,0.26094,0.1432
-18.7,-1.2659,0.26049,0.25886,0.1416
-18.6,-1.2607,0.25841,0.25678,0.14
-18.5,-1.2556,0.25633,0.2547,0.1384
-18.4,-1.2504,0.25425,0.25262,0.1368
-18.3,-1.2452,0.25216,0.25053,0.1351
-18.2,-1.24,0.25006,0.24843,0.1335
-18.1,-1.2348,0.24797,0.24634,0.1319
-18,-1.2296,0.24585,0.24422,0.1303
-17.9,-1.2243,0.24369,0.24206,0.1287
-17.8,-1.219,0.24153,0.2399,0.1271
-17.7,-1.2137,0.23927,0.23764,0.1254
-17.6,-1.2082,0.23687,0.23524,0.1238
-17.4,-1.1946,0.23084,0.22922,0.1197
-17.3,-1.1897,0.22885,0.22723,0.1183
-17.2,-1.1848,0.22688,0.22525,0.1169
-17.1,-1.1799,0.22492,0.2233,0.1155
-17,-1.1749,0.22298,0.22135,0.1141
-16.9,-1.17,0.22105,0.21943,0.1127
-16.8,-1.1649,0.21914,0.21752,0.1113
-16.7,-1.1599,0.21723,0.21561,0.1099
-16.6,-1.1549,0.21534,0.21372,0.1085
-16.5,-1.1498,0.21346,0.21184,0.1071
-16.4,-1.1447,0.2116,0.20997,0.1057
-16.3,-1.1396,0.20974,0.20811,0.1043
-16.2,-1.1344,0.20789,0.20626,0.103
-16.1,-1.1292,0.20605,0.20442,0.1016
-16,-1.124,0.20421,0.20259,0.1002
-15.8,-1.1136,0.20074,0.19911,0.0974
-15.7,-1.1083,0.19891,0.19729,0.096
-15.6,-1.103,0.1971,0.19547,0.0946
-15.5,-1.0976,0.19529,0.19366,0.0933
-15.4,-1.0923,0.19348,0.19186,0.0919
-15.3,-1.0869,0.19168,0.19006,0.0906
-15.2,-1.0815,0.18989,0.18826,0.0892
-15.1,-1.0761,0.1881,0.18648,0.0878
-15,-1.0706,0.18632,0.1847,0.0865
-14.9,-1.0652,0.18455,0.18293,0.0851
-14.8,-1.0597,0.18278,0.18116,0.0838
-14.7,-1.0542,0.18102,0.1794,0.0825
-14.6,-1.0487,0.17926,0.17765,0.0811
-14.5,-1.0431,0.17751,0.17589,0.0798
-14.4,-1.0375,0.17575,0.17414,0.0784
-14.3,-1.0318,0.17401,0.17239,0.0771
-14.2,-1.0261,0.17227,0.17065,0.0758
-14.1,-1.0205,0.17053,0.16892,0.0744
-14,-1.0147,0.1688,0.16719,0.0731
-13.9,-1.009,0.16708,0.16547,0.0718
-13.8,-1.0033,0.16536,0.16375,0.0704
-13.7,-0.9975,0.16366,0.16204,0.0691
-13.6,-0.9917,0.16195,0.16034,0.0678
-13.5,-0.9859,0.16026,0.15864,0.0665
-13.4,-0.98,0.15857,0.15695,0.0652
-13.3,-0.9742,0.15689,0.15528,0.0639
-13.2,-0.9683,0.15521,0.15361,0.0625
-13.1,-0.9624,0.15355,0.15194,0.0612
-13,-0.9565,0.15188,0.15028,0.0599
-12.9,-0.9505,0.15023,0.14863,0.0586
-12.8,-0.9445,0.14858,0.14697,0.0573
-12.7,-0.9385,0.14693,0.14533,0.056
-12.6,-0.9324,0.14528,0.14368,0.0547
-12.5,-0.9263,0.14365,0.14205,0.0534
-12.4,-0.9202,0.14201,0.14041,0.0521
-12.3,-0.914,0.14039,0.13879,0.0508
-12.2,-0.9078,0.13877,0.13717,0.0495
-12.1,-0.9016,0.13715,0.13555,0.0482
-12,-0.8954,0.13554,0.13395,0.0469
-11.9,-0.8891,0.13394,0.13235,0.0456
-11.8,-0.8828,0.13234,0.13075,0.0443
-11.7,-0.8765,0.13075,0.12916,0.0429
-11.6,-0.8702,0.12915,0.12757,0.0416
-11.5,-0.8637,0.12755,0.12597,0.0403
-11.4,-0.8573,0.12596,0.12438,0.039
-11.3,-0.8508,0.12437,0.12279,0.0377
-11.2,-0.8442,0.12277,0.12119,0.0363
-11.1,-0.8377,0.12118,0.1196,0.035
-11,-0.831,0.11957,0.11799,0.0337
-10.9,-0.8244,0.11797,0.11639,0.0324
-10.8,-0.8177,0.11636,0.11479,0.031
-10.7,-0.811,0.1147,0.11313,0.0297
-10.6,-0.803,0.11222,0.11065,0.028
-10.5,-0.7959,0.1106,0.10903,0.0266
-10.4,-0.7885,0.10897,0.1074,0.0251
-10.3,-0.7811,0.10738,0.10583,0.0237
-10.2,-0.7744,0.10598,0.10444,0.0224
-10.1,-0.7677,0.1046,0.10305,0.0211
-10,-0.761,0.10323,0.10169,0.0198
-9.9,-0.7542,0.10187,0.10033,0.0185
-9.8,-0.7473,0.10052,0.09899,0.0171
-9.7,-0.7404,0.09919,0.09766,0.0158
-9.6,-0.7333,0.09786,0.09633,0.0144
-9.5,-0.7262,0.09655,0.09503,0.0131
-9.4,-0.7191,0.09525,0.09373,0.0117
-9.3,-0.7119,0.09397,0.09245,0.0103
-9.2,-0.7046,0.0927,0.09118,0.0089
-9.1,-0.6972,0.09144,0.08993,0.0075
-9,-0.6898,0.09019,0.08869,0.0061
-8.9,-0.6823,0.08896,0.08747,0.0046
-8.8,-0.6748,0.08775,0.08626,0.0032
-8.7,-0.6665,0.0865,0.08501,0.0016
-8.6,-0.6559,0.08511,0.08361,-0.0007
-8.5,-0.6451,0.08372,0.08223,-0.003
-8.4,-0.6339,0.08232,0.08082,-0.0053
-8.3,-0.6241,0.08104,0.07953,-0.0073
-8.2,-0.6143,0.07976,0.07825,-0.0092
-8.1,-0.6055,0.07857,0.07705,-0.0109
-8,-0.5971,0.07742,0.07588,-0.0124
-7.9,-0.5888,0.07628,0.07473,-0.014
-7.8,-0.5811,0.07519,0.07362,-0.0153
-7.7,-0.5726,0.07407,0.07248,-0.017
-7.6,-0.563,0.07292,0.0713,-0.0189
-7.5,-0.5518,0.07167,0.07003,-0.0212
-7.4,-0.5402,0.0704,0.06874,-0.0236
-7.3,-0.5278,0.06909,0.06741,-0.0261
-7.2,-0.5152,0.06777,0.06606,-0.0287
-7.1,-0.5026,0.06645,0.06471,-0.0311
-7,-0.4892,0.06508,0.06331,-0.0338
-6.9,-0.4756,0.0637,0.0619,-0.0365
-6.8,-0.4615,0.06228,0.06045,-0.0392
-6.7,-0.447,0.06083,0.05897,-0.042
-6.6,-0.4327,0.05938,0.05748,-0.0447
-6.5,-0.4175,0.05787,0.05593,-0.0476
-6.4,-0.4021,0.05632,0.05434,-0.0505
-6.2,-0.3702,0.05305,0.051,-0.0564
-6.1,-0.3538,0.05132,0.04922,-0.0595
-6,-0.3372,0.04952,0.04736,-0.0625
-5.9,-0.3197,0.04751,0.0453,-0.0658
-5.6,-0.2638,0.03988,0.03745,-0.0772
-5.5,-0.2467,0.03822,0.0357,-0.0797
-5.4,-0.2293,0.03646,0.03388,-0.0822
-5.3,-0.212,0.03466,0.03199,-0.0846
-5.1,-0.1778,0.03056,0.02768,-0.0892
-4.7,-0.1159,0.01576,0.0116,-0.0994
-4.6,-0.1014,0.01416,0.00967,-0.1
-4.5,-0.0866,0.01309,0.00832,-0.1002
-4.4,-0.0717,0.01239,0.0074,-0.1002
-4.3,-0.0566,0.01186,0.00672,-0.1001
-4.2,-0.0415,0.01147,0.0062,-0.1
-4.1,-0.0267,0.01117,0.00577,-0.0999
-4,-0.0116,0.01089,0.0054,-0.0997
-3.9,0.0033,0.01066,0.00507,-0.0996
-3.8,0.0183,0.01045,0.00478,-0.0994
-3.7,0.0325,0.01033,0.00452,-0.0992
-3.6,0.0474,0.01017,0.00428,-0.099
-3.5,0.062,0.01004,0.00406,-0.0988
-3.4,0.0765,0.00995,0.00387,-0.0986
-3.3,0.0912,0.00985,0.0037,-0.0985
-3.2,0.1058,0.00975,0.00355,-0.0984
-3.1,0.1201,0.0097,0.00344,-0.0982
-3,0.1347,0.00963,0.00332,-0.0981
-2.9,0.1492,0.00958,0.00321,-0.098
-2.8,0.1633,0.00957,0.00311,-0.0978
-2.7,0.1778,0.00952,0.00302,-0.0977
-2.6,0.192,0.0095,0.00295,-0.0976
-2.5,0.2064,0.00946,0.00288,-0.0975
-2.4,0.2208,0.00943,0.00281,-0.0975
-2.3,0.2348,0.00943,0.00277,-0.0974
-2.2,0.2491,0.00941,0.00273,-0.0973
-2.1,0.2635,0.00938,0.00267,-0.0973
-2,0.2775,0.00939,0.00262,-0.0972
-1.9,0.2918,0.00935,0.00257,-0.0972
-1.8,0.3059,0.00936,0.00254,-0.0971
-1.7,0.3198,0.00939,0.00251,-0.097
-1.6,0.334,0.00939,0.00248,-0.097
-1.5,0.3482,0.00937,0.00245,-0.097
-1.4,0.3623,0.00936,0.00243,-0.0969
-1.3,0.3765,0.00936,0.0024,-0.0969
-1.2,0.3902,0.0094,0.00239,-0.0969
-1.1,0.4043,0.00941,0.00237,-0.0968
-1,0.418,0.00946,0.00238,-0.0968
-0.9,0.432,0.00946,0.00237,-0.0968
-0.8,0.446,0.00948,0.00236,-0.0968
-0.7,0.46,0.0095,0.00237,-0.0967
-0.6,0.4739,0.00952,0.00236,-0.0967
-0.5,0.4879,0.00954,0.00238,-0.0967
-0.4,0.5017,0.00957,0.00238,-0.0967
-0.3,0.5156,0.0096,0.00239,-0.0967
-0.2,0.529,0.0097,0.00242,-0.0966
-0.1,0.5427,0.00975,0.00244,-0.0966
0,0.5564,0.0098,0.00248,-0.0966
0.1,0.57,0.00986,0.00251,-0.0966
0.2,0.5835,0.00994,0.00254,-0.0965
0.3,0.597,0.01001,0.00258,-0.0965
0.4,0.6104,0.01011,0.00263,-0.0964
0.5,0.6237,0.01021,0.00269,-0.0964
0.6,0.637,0.01033,0.00275,-0.0963
0.7,0.6499,0.01049,0.00282,-0.0962
0.8,0.6634,0.01057,0.00288,-0.0962
0.9,0.6772,0.01061,0.00292,-0.0962
1,0.6909,0.01068,0.00297,-0.0962
1.1,0.7046,0.01073,0.00302,-0.0961
1.2,0.7185,0.01076,0.00307,-0.0961
1.3,0.7323,0.01081,0.00311,-0.0961
1.4,0.746,0.01086,0.00318,-0.0961
1.5,0.7597,0.01091,0.00323,-0.0961
1.6,0.7736,0.01095,0.00327,-0.096
1.7,0.7874,0.01095,0.00334,-0.0961
1.8,0.8013,0.01095,0.0034,-0.0961
1.9,0.8152,0.01093,0.00346,-0.0961
2,0.8291,0.01091,0.00352,-0.0962
2.1,0.843,0.01078,0.0036,-0.0963
2.3,0.8595,0.00969,0.0037,-0.0939
2.4,0.8734,0.00977,0.00376,-0.0938
2.5,0.8874,0.00985,0.00382,-0.0937
2.6,0.9012,0.00994,0.00388,-0.0937
2.7,0.9151,0.01004,0.00395,-0.0936
2.8,0.929,0.01012,0.00402,-0.0935
2.9,0.943,0.01019,0.00409,-0.0934
3,0.957,0.01027,0.00415,-0.0933
3.1,0.9709,0.01036,0.00422,-0.0932
3.2,0.9848,0.01045,0.0043,-0.0931
3.3,0.9986,0.01055,0.00438,-0.0929
3.4,1.0125,0.01064,0.00446,-0.0928
3.5,1.0265,0.01073,0.00454,-0.0927
3.6,1.0404,0.01082,0.00461,-0.0925
3.7,1.0543,0.01091,0.0047,-0.0924
3.8,1.0682,0.01102,0.00478,-0.0922
3.9,1.082,0.01113,0.00487,-0.0921
4,1.096,0.01121,0.00496,-0.0919
4.1,1.11,0.0113,0.00505,-0.0917
4.2,1.124,0.0114,0.00514,-0.0915
4.4,1.1516,0.01162,0.00533,-0.0911
4.5,1.1654,0.01174,0.00544,-0.0909
4.6,1.1794,0.01183,0.00554,-0.0907
4.7,1.1934,0.01193,0.00564,-0.0904
4.8,1.2074,0.01203,0.00574,-0.0902
4.9,1.2213,0.01214,0.00585,-0.09
5,1.2352,0.01225,0.00596,-0.0897
5.1,1.249,0.01237,0.00607,-0.0894
5.2,1.2628,0.0125,0.0062,-0.0891
5.3,1.2767,0.01262,0.00632,-0.0888
5.4,1.2907,0.01272,0.00644,-0.0885
5.5,1.3045,0.01284,0.00655,-0.0882
5.6,1.3184,0.01296,0.00667,-0.0878
5.7,1.3322,0.01309,0.0068,-0.0875
5.8,1.346,0.01323,0.00694,-0.0871
5.9,1.3596,0.01337,0.00708,-0.0867
6,1.3735,0.0135,0.00722,-0.0863
6.1,1.3874,0.01362,0.00735,-0.0859
6.2,1.4013,0.01374,0.0075,-0.0855
6.3,1.4151,0.01388,0.00764,-0.0851
6.4,1.4289,0.01402,0.00779,-0.0846
6.5,1.4424,0.01418,0.00795,-0.0842
6.6,1.4559,0.01434,0.00811,-0.0837
6.7,1.4695,0.01449,0.00828,-0.0832
6.8,1.4833,0.01463,0.00844,-0.0826
6.9,1.497,0.01477,0.0086,-0.0821
7,1.5106,0.01492,0.00877,-0.0816
7.1,1.5242,0.01508,0.00894,-0.081
7.2,1.5377,0.01524,0.00913,-0.0804
7.3,1.551,0.01541,0.00932,-0.0798
7.4,1.5643,0.01559,0.00951,-0.0791
7.5,1.5773,0.01579,0.00972,-0.0784
7.6,1.5908,0.01594,0.00991,-0.0778
7.7,1.6041,0.01612,0.01011,-0.0771
7.8,1.6173,0.01629,0.01031,-0.0763
7.9,1.6303,0.01648,0.01052,-0.0756
8,1.6433,0.01667,0.01074,-0.0748
8.1,1.656,0.01687,0.01097,-0.074
8.2,1.6684,0.01709,0.01121,-0.0731
8.3,1.6806,0.01732,0.01147,-0.0722
8.4,1.6933,0.01751,0.01171,-0.0713
8.5,1.7057,0.01772,0.01196,-0.0703
8.6,1.7179,0.01794,0.01221,-0.0694
8.7,1.7298,0.01816,0.01247,-0.0683
8.8,1.7415,0.01839,0.01274,-0.0673
8.9,1.7529,0.01862,0.01301,-0.0662
9,1.764,0.01888,0.0133,-0.065
9.1,1.7746,0.01914,0.0136,-0.0638
9.2,1.7847,0.01943,0.01393,-0.0626
9.3,1.7951,0.01969,0.01424,-0.0613
9.4,1.8049,0.01996,0.01458,-0.0599
9.5,1.8129,0.02025,0.01491,-0.0583
9.6,1.8205,0.02055,0.01527,-0.0567
9.7,1.8279,0.02088,0.01565,-0.055
9.8,1.8353,0.02122,0.01605,-0.0534
9.9,1.8427,0.02158,0.01647,-0.0519
10,1.8499,0.02196,0.0169,-0.0503
10.1,1.8569,0.02236,0.01736,-0.0488
10.2,1.8637,0.02279,0.01784,-0.0473
10.3,1.8702,0.02324,0.01835,-0.0459
10.4,1.877,0.02369,0.01886,-0.0445
10.5,1.8834,0.02418,0.01942,-0.0431
10.6,1.8895,0.0247,0.02002,-0.0418
10.7,1.8952,0.02525,0.02065,-0.0405
10.8,1.9007,0.02584,0.02131,-0.0393
10.9,1.9058,0.02646,0.02201,-0.0381
11,1.9107,0.02712,0.02276,-0.037
11.1,1.9153,0.02782,0.02354,-0.036
11.2,1.9196,0.02857,0.02436,-0.0351
11.3,1.9236,0.02936,0.02524,-0.0344
11.4,1.9272,0.03021,0.02616,-0.0337
11.5,1.9305,0.03111,0.02715,-0.0332
11.6,1.9335,0.03207,0.0282,-0.0328
11.7,1.9361,0.03311,0.02933,-0.0327
11.8,1.9379,0.03427,0.03058,-0.0327
11.9,1.9392,0.03552,0.03194,-0.033
12,1.9415,0.03675,0.03327,-0.0334
12.1,1.9421,0.03818,0.03481,-0.0342
12.2,1.9422,0.03974,0.03648,-0.0353
12.3,1.9417,0.04142,0.03827,-0.0368
12.4,1.9407,0.04325,0.04021,-0.0386
12.5,1.941,0.04503,0.04209,-0.0404
12.6,1.9389,0.04713,0.04429,-0.0428
12.7,1.936,0.0494,0.04667,-0.0455
12.8,1.9324,0.05182,0.04919,-0.0485
12.9,1.9276,0.05441,0.05188,-0.0517
13,1.9218,0.0572,0.05475,-0.0553
13.1,1.9148,0.06013,0.05777,-0.0589
13.2,1.9067,0.06324,0.06096,-0.0628
13.3,1.8973,0.06652,0.06431,-0.0669
13.4,1.8867,0.0699,0.06776,-0.071
13.5,1.8752,0.0734,0.07131,-0.0752
13.6,1.8622,0.07707,0.07504,-0.0796
14,1.8116,0.09142,0.08957,-0.0974
14.1,1.8002,0.09489,0.09308,-0.1019
14.2,1.7894,0.09829,0.09651,-0.1063
14.3,1.7791,0.10164,0.09989,-0.1106
14.4,1.7689,0.10503,0.10331,-0.1149
14.5,1.7597,0.1083,0.1066,-0.1191
14.6,1.7504,0.11162,0.10995,-0.1233
14.7,1.7421,0.11482,0.11318,-0.1274
14.8,1.7343,0.11799,0.11637,-0.1314
14.9,1.7284,0.1209,0.11929,-0.135
15,1.7232,0.12373,0.12213,-0.1384
15.1,1.7203,0.12619,0.1246,-0.1414
15.2,1.7234,0.12766,0.12608,-0.1429
15.3,1.7236,0.12958,0.12799,-0.1451
15.4,1.7167,0.13269,0.13111,-0.1489
15.5,1.703,0.13706,0.13551,-0.1544
15.6,1.6931,0.14092,0.1394,-0.159
15.7,1.687,0.14415,0.14264,-0.1628
15.8,1.6844,0.14678,0.14528,-0.1657
15.9,1.6836,0.14906,0.14757,-0.1682
16,1.6842,0.15108,0.1496,-0.1704
16.1,1.6856,0.15293,0.15146,-0.1724
16.2,1.6876,0.15466,0.15319,-0.1742
16.3,1.6941,0.15549,0.15402,-0.175
16.4,1.6974,0.15693,0.15547,-0.1765
16.5,1.7003,0.15845,0.15698,-0.1781
16.6,1.6869,0.16386,0.16242,-0.1839
16.7,1.685,0.16667,0.16524,-0.1868
16.8,1.6852,0.16905,0.16763,-0.1892
16.9,1.6868,0.17107,0.16966,-0.1912
17,1.6889,0.17296,0.17155,-0.193
17.1,1.6917,0.17471,0.17332,-0.1947
17.2,1.6947,0.17639,0.175,-0.1964
17.3,1.698,0.17798,0.1766,-0.1979
17.4,1.7017,0.17951,0.17815,-0.1994
17.5,1.7055,0.18101,0.17966,-0.2009
17.6,1.7095,0.18245,0.1811,-0.2023
17.7,1.7066,0.18597,0.18462,-0.2057
17.8,1.705,0.18925,0.18792,-0.2087
17.9,1.7058,0.19191,0.19058,-0.2111
18,1.7083,0.19398,0.19266,-0.2131
18.1,1.7112,0.19589,0.19458,-0.2148
18.2,1.7152,0.1975,0.1962,-0.2163
18.3,1.7191,0.19911,0.19782,-0.2178
18.4,1.7233,0.20063,0.19934,-0.2192
18.5,1.7277,0.2021,0.20082,-0.2206
18.6,1.7276,0.20519,0.20391,-0.2234
18.7,1.7275,0.20843,0.20717,-0.2263
18.8,1.7295,0.2109,0.20964,-0.2285
18.9,1.7324,0.21303,0.21179,-0.2304
19,1.7363,0.2148,0.21356,-0.2319
19.1,1.7406,0.2164,0.21517,-0.2334
19.2,1.7433,0.21866,0.21743,-0.2354
19.3,1.7439,0.22189,0.22068,-0.2382
19.4,1.7466,0.22424,0.22304,-0.2402
19.5,1.7501,0.22621,0.22501,-0.242
19.6,1.7541,0.22793,0.22674,-0.2435
19.7,1.7564,0.23051,0.22932,-0.2458
19.8,1.7599,0.23253,0.23136,-0.2475
19.9,1.7641,0.23422,0.23305,-0.249
20,1.7679,0.23609,0.23493,-0.2506
20.1,1.7717,0.23801,0.23686,-0.2523
20.2,1.7753,0.24,0.23884,-0.2541
20.3,1.7789,0.24203,0.24088,-0.2559
20.4,1.7825,0.24403,0.24289,-0.2576
20.5,1.7862,0.24602,0.24489,-0.2594
20.6,1.7897,0.24815,0.24703,-0.2612
20.7,1.7929,0.25039,0.24927,-0.2632
20.8,1.7961,0.25269,0.25158,-0.2652
20.9,1.799,0.2551,0.25398,-0.2673
21,1.802,0.25754,0.25643,-0.2694
21.1,1.805,0.25999,0.25889,-0.2715
21.2,1.808,0.26241,0.26132,-0.2736
21.3,1.8111,0.26486,0.26377,-0.2757
21.4,1.8143,0.26728,0.26619,-0.2778
21.5,1.8175,0.26965,0.26857,-0.2798
21.6,1.8209,0.27202,0.27094,-0.2818
21.7,1.8242,0.27437,0.27329,-0.2838
21.8,1.8276,0.27669,0.27561,-0.2858
21.9,1.8311,0.27898,0.2779,-0.2878
22,1.8342,0.28156,0.28048,-0.29
22.1,1.8368,0.28449,0.28342,-0.2925
22.2,1.8396,0.28737,0.28631,-0.2949
22.3,1.8426,0.29018,0.28912,-0.2972
22.4,1.8457,0.29291,0.29185,-0.2994
22.5,1.8489,0.29559,0.29454,-0.3017
22.6,1.8522,0.29822,0.29717,-0.3039
22.8,1.8591,0.30323,0.30218,-0.308
22.9,1.8626,0.30571,0.30467,-0.3101
23,1.8661,0.30816,0.30712,-0.3122
23.1,1.8696,0.31059,0.30956,-0.3142
23.2,1.8732,0.31298,0.31195,-0.3163
23.3,1.8768,0.31536,0.31433,-0.3183
23.4,1.8803,0.31772,0.31669,-0.3203
23.5,1.8839,0.32007,0.31905,-0.3223
23.6,1.8875,0.32241,0.32139,-0.3243
23.7,1.8907,0.32571,0.32469,-0.3269
23.8,1.894,0.32893,0.32791,-0.3293
23.9,1.8975,0.3319,0.33088,-0.3317
24,1.901,0.33472,0.3337,-0.3339
24.1,1.9046,0.33746,0.33645,-0.3361
24.2,1.9082,0.34017,0.33916,-0.3383
24.3,1.9118,0.34281,0.3418,-0.3404
24.4,1.9154,0.34543,0.34443,-0.3426
24.5,1.9191,0.34802,0.34702,-0.3447
24.6,1.9227,0.35059,0.3496,-0.3468
24.7,1.9263,0.35316,0.35217,-0.3489
24.8,1.9299,0.35569,0.35471,-0.3511
24.9,1.9335,0.35823,0.35724,-0.3532
25,1.9371,0.36074,0.35976,-0.3553
25.1,1.9406,0.36325,0.36227,-0.3574
25.2,1.9441,0.36574,0.36476,-0.3595
25.3,1.9477,0.36822,0.36725,-0.3616
25.4,1.9511,0.37048,0.36951,-0.3636
25.5,1.9546,0.37293,0.37196,-0.3657
25.6,1.958,0.37534,0.37438,-0.3678
25.7,1.9615,0.37777,0.37681,-0.3699
25.8,1.9656,0.38212,0.38116,-0.3728
25.9,1.9694,0.38533,0.38437,-0.3752
26,1.9731,0.38832,0.38735,-0.3775
26.1,1.9767,0.39124,0.39028,-0.3798
26.2,1.9803,0.39406,0.3931,-0.382
26.3,1.9839,0.39683,0.39588,-0.3843
26.4,1.9875,0.39964,0.39869,-0.3865
26.5,1.991,0.40237,0.40143,-0.3888
26.6,1.9945,0.40508,0.40414,-0.391
26.7,1.9979,0.40779,0.40685,-0.3932
26.8,2.0014,0.41049,0.40955,-0.3954
26.9,2.0048,0.41316,0.41222,-0.3977
27,2.0084,0.41595,0.41502,-0.4

