airfoilName st11.dat
Re 	430000
M 	5.000000e-01
N 	4.500000e+00
VACC 	0 VACCflag 1
XTR 	1.00 	1.00 XTRflag 0
alpha,cl,cd,cdp,cm
-30,-1.7923,0.54918,0.54682,0.3751
-29.9,-1.7883,0.54607,0.54371,0.3726
-29.8,-1.7843,0.54298,0.54061,0.37
-29.7,-1.7802,0.5399,0.53753,0.3675
-29.6,-1.7762,0.53682,0.53445,0.365
-29.5,-1.7721,0.53376,0.53138,0.3624
-29.4,-1.768,0.5307,0.52832,0.3599
-29.3,-1.7639,0.52766,0.52528,0.3574
-29.2,-1.7598,0.5246,0.52221,0.3549
-29.1,-1.7556,0.52158,0.5192,0.3524
-29,-1.7515,0.51855,0.51616,0.3498
-28.9,-1.7473,0.51553,0.51314,0.3473
-28.8,-1.743,0.51253,0.51014,0.3448
-28.7,-1.7388,0.50954,0.50714,0.3423
-28.6,-1.7345,0.50654,0.50414,0.3397
-28.5,-1.7302,0.50358,0.50118,0.3372
-28.4,-1.7259,0.5006,0.49819,0.3346
-28.3,-1.7215,0.49764,0.49523,0.3319
-28.2,-1.7156,0.4945,0.4921,0.3272
-28.1,-1.7114,0.49158,0.48918,0.3249
-28,-1.7071,0.48866,0.48625,0.3226
-27.9,-1.7029,0.48578,0.48337,0.3202
-27.8,-1.6986,0.4829,0.48048,0.3179
-27.7,-1.6943,0.48002,0.4776,0.3156
-27.6,-1.6899,0.47716,0.47474,0.3133
-27.5,-1.6856,0.47431,0.47189,0.311
-27.4,-1.6812,0.47148,0.46906,0.3087
-27.3,-1.6769,0.46866,0.46624,0.3064
-27.2,-1.6725,0.46584,0.46341,0.3042
-27.1,-1.6681,0.46305,0.46062,0.3019
-27,-1.6637,0.46026,0.45783,0.2996
-26.9,-1.6593,0.45748,0.45505,0.2974
-26.8,-1.6548,0.45472,0.45228,0.2952
-26.7,-1.6504,0.45197,0.44953,0.2929
-26.6,-1.6459,0.44921,0.44677,0.2907
-26.5,-1.6414,0.44648,0.44404,0.2885
-26.4,-1.6369,0.44375,0.44131,0.2863
-26.3,-1.6324,0.44104,0.4386,0.2841
-26.2,-1.6279,0.43834,0.43589,0.2819
-26.1,-1.6234,0.43565,0.43319,0.2797
-26,-1.6188,0.43296,0.43051,0.2775
-25.9,-1.6142,0.43028,0.42782,0.2754
-25.8,-1.6097,0.42762,0.42516,0.2732
-25.7,-1.6051,0.42497,0.4225,0.271
-25.6,-1.6004,0.42231,0.41985,0.2689
-25.5,-1.5958,0.41969,0.41722,0.2668
-25.4,-1.5912,0.41705,0.41458,0.2646
-25.3,-1.5865,0.41443,0.41196,0.2625
-25.2,-1.5819,0.41182,0.40935,0.2604
-25.1,-1.5772,0.40922,0.40675,0.2583
-25,-1.5725,0.40664,0.40416,0.2562
-24.9,-1.5678,0.40405,0.40157,0.2541
-24.8,-1.5631,0.40148,0.39901,0.252
-24.7,-1.5583,0.39892,0.39644,0.2499
-24.6,-1.5536,0.39637,0.39389,0.2478
-24.5,-1.5488,0.39383,0.39135,0.2458
-24.4,-1.5441,0.39131,0.38882,0.2437
-24.3,-1.5393,0.38878,0.3863,0.2417
-24.2,-1.5345,0.38628,0.38379,0.2396
-24.1,-1.5297,0.38378,0.38129,0.2376
-24,-1.5249,0.38128,0.37879,0.2356
-23.9,-1.5201,0.37881,0.37631,0.2336
-23.8,-1.5153,0.37634,0.37384,0.2315
-23.7,-1.5104,0.37387,0.37137,0.2295
-23.6,-1.5056,0.37143,0.36892,0.2275
-23.5,-1.5007,0.36899,0.36648,0.2255
-23.4,-1.4958,0.36656,0.36405,0.2235
-23.3,-1.4909,0.36414,0.36163,0.2216
-23.2,-1.486,0.36173,0.35922,0.2196
-23.1,-1.4811,0.35932,0.35681,0.2176
-23,-1.4762,0.35693,0.35442,0.2156
-22.9,-1.4713,0.35455,0.35204,0.2137
-22.8,-1.4664,0.35217,0.34966,0.2117
-22.7,-1.4614,0.34981,0.3473,0.2098
-22.6,-1.4564,0.34746,0.34495,0.2078
-22.5,-1.4515,0.34511,0.3426,0.2059
-22.4,-1.4465,0.34278,0.34026,0.2039
-22.3,-1.4415,0.34045,0.33794,0.202
-22.2,-1.4365,0.33814,0.33562,0.2
-22.1,-1.4315,0.33583,0.33331,0.1981
-22,-1.4263,0.33387,0.33135,0.1958
-21.9,-1.4212,0.33156,0.32904,0.1938
-21.8,-1.4161,0.32925,0.32673,0.1919
-21.7,-1.411,0.32694,0.32442,0.1899
-21.6,-1.4059,0.32462,0.3221,0.188
-21.5,-1.4007,0.32228,0.31975,0.186
-21.4,-1.3955,0.3199,0.31736,0.184
-21.1,-1.3775,0.31119,0.30866,0.1773
-21,-1.3726,0.30891,0.30639,0.1755
-20.9,-1.3677,0.30665,0.30412,0.1738
-20.8,-1.3628,0.3044,0.30188,0.1721
-20.7,-1.3578,0.30217,0.29964,0.1704
-20.6,-1.3529,0.29996,0.29743,0.1687
-20.5,-1.348,0.29775,0.29522,0.1671
-20.4,-1.343,0.29557,0.29304,0.1654
-20.3,-1.338,0.29339,0.29086,0.1637
-20.2,-1.3331,0.29123,0.28869,0.162
-20.1,-1.3281,0.28908,0.28654,0.1604
-20,-1.3231,0.28693,0.2844,0.1587
-19.9,-1.3181,0.2848,0.28226,0.1571
-19.8,-1.3131,0.28267,0.28014,0.1554
-19.7,-1.3081,0.28055,0.27802,0.1538
-19.6,-1.3031,0.27845,0.27591,0.1522
-19.5,-1.298,0.27635,0.27381,0.1505
-19.4,-1.293,0.27426,0.27172,0.1489
-19.3,-1.2879,0.27217,0.26964,0.1473
-19.2,-1.2828,0.2701,0.26757,0.1457
-19.1,-1.2778,0.26804,0.2655,0.1441
-19,-1.2727,0.26598,0.26345,0.1425
-18.9,-1.2676,0.26394,0.26139,0.141
-18.8,-1.2625,0.2619,0.25935,0.1394
-18.7,-1.2574,0.25987,0.25732,0.1378
-18.6,-1.2523,0.25784,0.25529,0.1363
-18.5,-1.2472,0.25582,0.25327,0.1347
-18.4,-1.2421,0.25382,0.25127,0.1332
-18.3,-1.237,0.25181,0.24926,0.1316
-18.2,-1.2318,0.24982,0.24727,0.1301
-18.1,-1.2267,0.24782,0.24528,0.1286
-18,-1.2216,0.24584,0.24329,0.1271
-17.9,-1.2164,0.24386,0.24132,0.1256
-17.8,-1.2113,0.24189,0.23934,0.1241
-17.7,-1.2061,0.23993,0.23738,0.1226
-17.6,-1.2009,0.23797,0.23542,0.1211
-17.5,-1.1958,0.23601,0.23347,0.1196
-17.4,-1.1906,0.23406,0.23152,0.1181
-17.3,-1.1854,0.23212,0.22957,0.1167
-17.2,-1.1802,0.23018,0.22763,0.1152
-17.1,-1.175,0.22824,0.2257,0.1137
-17,-1.1696,0.22651,0.22397,0.1122
-16.9,-1.1644,0.22457,0.22203,0.1107
-16.8,-1.1591,0.22263,0.22009,0.1093
-16.7,-1.1538,0.22069,0.21815,0.1078
-16.6,-1.1485,0.21875,0.21621,0.1064
-16.5,-1.1431,0.21682,0.21427,0.1049
-16.4,-1.1378,0.21489,0.21234,0.1035
-16.3,-1.1324,0.21295,0.2104,0.1021
-16.2,-1.127,0.21103,0.20848,0.1007
-16.1,-1.1216,0.2091,0.20656,0.0992
-16,-1.1162,0.20719,0.20464,0.0978
-15.9,-1.1108,0.20527,0.20273,0.0964
-15.8,-1.1053,0.20335,0.20081,0.095
-15.7,-1.0999,0.20144,0.1989,0.0936
-15.6,-1.0944,0.19954,0.19699,0.0922
-15.5,-1.0889,0.19763,0.19509,0.0908
-15.4,-1.0834,0.19573,0.19319,0.0894
-15.3,-1.0778,0.19383,0.19128,0.088
-15.2,-1.0723,0.19193,0.18939,0.0866
-15.1,-1.0667,0.19003,0.18749,0.0852
-15,-1.0611,0.18813,0.18559,0.0838
-14.9,-1.0555,0.18623,0.18369,0.0824
-14.8,-1.0499,0.18434,0.1818,0.081
-14.7,-1.0442,0.18242,0.17988,0.0796
-14.6,-1.0385,0.18051,0.17797,0.0783
-14.5,-1.0328,0.1786,0.17606,0.0769
-14.4,-1.0271,0.17667,0.17413,0.0755
-14.3,-1.0213,0.17472,0.17218,0.0741
-14.2,-1.0154,0.17272,0.17019,0.0727
-14.1,-1.0095,0.17068,0.16815,0.0713
-14,-1.0033,0.16851,0.16598,0.0698
-13.8,-0.9893,0.16361,0.16109,0.0665
-13.7,-0.9839,0.16191,0.15938,0.0652
-13.6,-0.9784,0.16021,0.15769,0.064
-13.5,-0.9729,0.15854,0.15602,0.0627
-13.4,-0.9674,0.15687,0.15435,0.0615
-13.3,-0.9618,0.15522,0.1527,0.0603
-13.2,-0.9562,0.15358,0.15107,0.059
-13.1,-0.9506,0.15195,0.14944,0.0578
-13,-0.9449,0.15034,0.14783,0.0566
-12.9,-0.9392,0.14874,0.14623,0.0553
-12.8,-0.9334,0.14715,0.14464,0.0541
-12.7,-0.9276,0.14556,0.14306,0.0529
-12.6,-0.9218,0.14399,0.14149,0.0516
-12.5,-0.9159,0.14242,0.13993,0.0504
-12.4,-0.91,0.14087,0.13837,0.0491
-12.3,-0.904,0.13932,0.13683,0.0479
-12.2,-0.898,0.13778,0.1353,0.0466
-12.1,-0.8919,0.13625,0.13377,0.0454
-11.9,-0.8795,0.13342,0.13095,0.0428
-11.8,-0.8734,0.13191,0.12944,0.0416
-11.7,-0.8672,0.13041,0.12794,0.0404
-11.6,-0.8609,0.12892,0.12645,0.0391
-11.5,-0.8547,0.12744,0.12498,0.0379
-11.4,-0.8484,0.12597,0.12351,0.0366
-11.3,-0.842,0.1245,0.12204,0.0354
-11.2,-0.8356,0.12304,0.12058,0.0341
-11.1,-0.8291,0.12159,0.11913,0.0329
-11,-0.8226,0.12014,0.11769,0.0316
-10.9,-0.8161,0.11871,0.11626,0.0303
-10.8,-0.8095,0.11729,0.11485,0.0291
-10.7,-0.8029,0.11588,0.11344,0.0278
-10.6,-0.7963,0.11447,0.11204,0.0266
-10.5,-0.7896,0.11308,0.11065,0.0253
-10.4,-0.7828,0.11169,0.10927,0.024
-10.3,-0.776,0.11031,0.10789,0.0227
-10.2,-0.7692,0.10893,0.10652,0.0215
-10.1,-0.7623,0.10757,0.10516,0.0202
-10,-0.7553,0.10621,0.10381,0.0189
-9.9,-0.7484,0.10487,0.10247,0.0176
-9.8,-0.7414,0.10353,0.10113,0.0163
-9.7,-0.7343,0.1022,0.09981,0.015
-9.6,-0.7272,0.10088,0.09849,0.0137
-9.5,-0.7201,0.09956,0.09718,0.0124
-9.4,-0.7129,0.09825,0.09588,0.011
-9.3,-0.7056,0.09695,0.09459,0.0097
-9.2,-0.6984,0.09566,0.0933,0.0084
-9.1,-0.6911,0.09438,0.09203,0.007
-9,-0.6838,0.0931,0.09076,0.0057
-8.9,-0.6764,0.09183,0.08949,0.0044
-8.8,-0.6691,0.09057,0.08824,0.003
-8.7,-0.6618,0.08932,0.08699,0.0017
-8.6,-0.6545,0.08808,0.08576,0.0004
-8.5,-0.6472,0.08685,0.08454,-0.001
-8.4,-0.6401,0.08563,0.08333,-0.0023
-8.3,-0.6331,0.08443,0.08214,-0.0035
-8.2,-0.6263,0.08325,0.08096,-0.0047
-8,-0.6127,0.08088,0.07861,-0.0073
-7.9,-0.6006,0.07931,0.07705,-0.01
-7.8,-0.5885,0.07772,0.07545,-0.0127
-7.7,-0.5755,0.07605,0.07377,-0.0156
-7.5,-0.5476,0.07229,0.07,-0.0223
-7.4,-0.5317,0.07001,0.06771,-0.0263
-7.3,-0.5171,0.0686,0.06629,-0.0294
-7.2,-0.5036,0.06727,0.06495,-0.0322
-7.1,-0.4893,0.06591,0.06358,-0.0352
-7,-0.4751,0.06458,0.06224,-0.038
-6.9,-0.4613,0.06329,0.06092,-0.0406
-6.8,-0.4469,0.06196,0.05958,-0.0434
-6.7,-0.4329,0.06065,0.05825,-0.046
-6.6,-0.4187,0.05934,0.05692,-0.0486
-6.5,-0.4043,0.05801,0.05556,-0.0511
-6.4,-0.3898,0.05668,0.0542,-0.0536
-6.3,-0.375,0.05532,0.05282,-0.0562
-6.2,-0.3599,0.05394,0.0514,-0.0587
-6.1,-0.345,0.05255,0.04998,-0.0611
-6,-0.3295,0.05111,0.0485,-0.0636
-5.9,-0.3138,0.04964,0.04698,-0.0661
-5.8,-0.2965,0.04791,0.04522,-0.0691
-5.7,-0.2798,0.04618,0.04343,-0.0718
-5.6,-0.2632,0.04432,0.04151,-0.0745
-5.5,-0.2453,0.04215,0.03927,-0.0777
-5,-0.159,0.03201,0.02865,-0.0903
-4.9,-0.1427,0.03029,0.02682,-0.0921
-4.4,-0.0644,0.01798,0.01323,-0.1003
-4.3,-0.0499,0.01632,0.01119,-0.1009
-4.2,-0.0352,0.01511,0.00966,-0.1011
-4.1,-0.0204,0.01441,0.00879,-0.1012
-4,-0.0058,0.01397,0.00822,-0.1011
-3.9,0.0088,0.01358,0.0077,-0.101
-3.8,0.0234,0.01321,0.0072,-0.1008
-3.7,0.038,0.01287,0.00674,-0.1007
-3.6,0.0526,0.01255,0.0063,-0.1005
-3.5,0.0673,0.01225,0.00589,-0.1004
-3.4,0.0819,0.01198,0.00551,-0.1002
-3.2,0.1107,0.01172,0.00516,-0.0999
-3.1,0.1248,0.01157,0.0049,-0.0996
-3,0.1391,0.01141,0.00465,-0.0994
-2.9,0.1532,0.01128,0.00444,-0.0992
-2.8,0.1676,0.01115,0.00427,-0.0991
-2.6,0.1954,0.01104,0.00402,-0.0986
-2.5,0.2098,0.01095,0.00387,-0.0985
-2.4,0.2239,0.01085,0.00373,-0.0984
-2.3,0.2382,0.01078,0.00363,-0.0983
-2.2,0.252,0.01075,0.00352,-0.0981
-2.1,0.2662,0.01071,0.00344,-0.098
-2,0.2801,0.01066,0.00335,-0.0978
-1.9,0.2941,0.01062,0.00327,-0.0977
-1.8,0.3082,0.01059,0.00319,-0.0976
-1.7,0.3219,0.01059,0.00312,-0.0974
-1.6,0.3353,0.0106,0.00309,-0.0973
-1.5,0.3494,0.01058,0.00303,-0.0972
-1.4,0.3633,0.01058,0.00298,-0.0971
-1.3,0.3771,0.01057,0.00295,-0.097
-1.2,0.3909,0.01057,0.00291,-0.0969
-1.1,0.4049,0.01056,0.00289,-0.0969
-1,0.4179,0.01064,0.00288,-0.0967
-0.9,0.4317,0.01065,0.00287,-0.0966
-0.8,0.4456,0.01065,0.00284,-0.0966
-0.7,0.4594,0.01066,0.00284,-0.0965
-0.6,0.4732,0.01066,0.00284,-0.0965
-0.5,0.4869,0.01069,0.00284,-0.0964
-0.4,0.5007,0.0107,0.00283,-0.0963
-0.3,0.514,0.01076,0.00285,-0.0962
-0.2,0.5276,0.01078,0.00287,-0.0962
-0.1,0.5414,0.01081,0.00287,-0.0961
0,0.555,0.01084,0.00289,-0.0961
0.1,0.5686,0.01088,0.00291,-0.096
0.2,0.5822,0.01092,0.00293,-0.0959
0.3,0.5956,0.01096,0.00296,-0.0959
0.4,0.6092,0.011,0.00299,-0.0958
0.5,0.6221,0.0111,0.00302,-0.0957
0.6,0.6355,0.01116,0.00306,-0.0956
0.7,0.6488,0.01121,0.00311,-0.0955
0.8,0.662,0.01127,0.00315,-0.0955
0.9,0.6752,0.01135,0.0032,-0.0954
1,0.6882,0.01142,0.00326,-0.0953
1.1,0.7012,0.0115,0.00332,-0.0952
1.2,0.7141,0.01149,0.0034,-0.0952
1.3,0.7263,0.01158,0.00349,-0.0951
1.4,0.7391,0.01158,0.00358,-0.0951
1.6,0.7534,0.01045,0.00363,-0.0921
1.7,0.7667,0.01059,0.00371,-0.092
1.8,0.7798,0.01074,0.00381,-0.0919
1.9,0.7932,0.01086,0.00388,-0.0918
2,0.8066,0.01099,0.00396,-0.0916
2.1,0.8199,0.01112,0.00405,-0.0915
2.2,0.8331,0.01126,0.00414,-0.0914
2.3,0.8465,0.01139,0.00423,-0.0912
2.4,0.8599,0.01151,0.00433,-0.0911
2.5,0.8734,0.01161,0.00441,-0.091
2.6,0.887,0.01173,0.0045,-0.0908
2.7,0.9004,0.01185,0.00459,-0.0907
2.8,0.9137,0.01198,0.0047,-0.0905
2.9,0.9273,0.01208,0.00478,-0.0904
3,0.9408,0.01219,0.00488,-0.0902
3.1,0.9541,0.01233,0.00498,-0.09
3.2,0.9673,0.01247,0.00508,-0.0898
3.3,0.9809,0.01257,0.00519,-0.0897
3.4,0.9945,0.01268,0.00529,-0.0895
3.5,1.008,0.0128,0.0054,-0.0893
3.6,1.0214,0.01292,0.00551,-0.0891
3.7,1.0347,0.01306,0.00562,-0.0889
3.8,1.0481,0.01319,0.00574,-0.0887
3.9,1.0617,0.0133,0.00585,-0.0884
4,1.0752,0.01342,0.00597,-0.0882
4.1,1.0885,0.01355,0.00608,-0.088
4.2,1.1018,0.01369,0.00621,-0.0877
4.3,1.115,0.01384,0.00635,-0.0874
4.4,1.1286,0.01396,0.00647,-0.0872
4.5,1.1421,0.01408,0.0066,-0.0869
4.6,1.1555,0.01421,0.00673,-0.0866
4.7,1.1689,0.01435,0.00687,-0.0863
4.8,1.1821,0.0145,0.00701,-0.086
4.9,1.1952,0.01466,0.00716,-0.0857
5,1.2086,0.01479,0.0073,-0.0854
5.1,1.222,0.01493,0.00744,-0.085
5.2,1.2353,0.01507,0.00759,-0.0847
5.3,1.2486,0.01522,0.00775,-0.0843
5.4,1.2617,0.01538,0.00792,-0.0839
5.5,1.2746,0.01555,0.00809,-0.0835
5.6,1.2877,0.01572,0.00826,-0.0831
5.7,1.3011,0.01586,0.00843,-0.0827
5.8,1.3143,0.01602,0.0086,-0.0822
5.9,1.3274,0.01618,0.00878,-0.0818
6,1.3404,0.01635,0.00896,-0.0813
6.1,1.3531,0.01653,0.00914,-0.0808
6.2,1.3657,0.01673,0.00933,-0.0803
6.3,1.3788,0.0169,0.00953,-0.0798
6.4,1.3918,0.01707,0.00974,-0.0792
6.5,1.4047,0.01725,0.00995,-0.0787
6.6,1.4175,0.01744,0.01016,-0.0781
6.7,1.4301,0.01763,0.01038,-0.0775
6.8,1.4426,0.01784,0.0106,-0.0769
6.9,1.4548,0.01805,0.01083,-0.0762
7,1.4668,0.01828,0.01107,-0.0755
7.1,1.4794,0.01848,0.01131,-0.0749
7.2,1.492,0.01867,0.01153,-0.0742
7.3,1.5042,0.01888,0.01178,-0.0735
7.4,1.5162,0.01911,0.01205,-0.0727
7.5,1.5279,0.01934,0.01231,-0.0719
7.6,1.5393,0.01958,0.01258,-0.0711
7.7,1.5503,0.01984,0.01286,-0.0702
7.8,1.5616,0.0201,0.01316,-0.0693
7.9,1.5731,0.02034,0.01346,-0.0684
8,1.5842,0.0206,0.01377,-0.0675
8.1,1.595,0.02087,0.01409,-0.0665
8.2,1.6055,0.02115,0.01442,-0.0655
8.3,1.6156,0.02143,0.01475,-0.0644
8.4,1.6251,0.0217,0.01504,-0.0633
8.5,1.6341,0.02201,0.0154,-0.0621
8.6,1.6421,0.02233,0.01575,-0.0608
8.7,1.6502,0.02265,0.01614,-0.0594
8.8,1.6579,0.02298,0.01654,-0.058
8.9,1.6653,0.02334,0.01697,-0.0566
9,1.6726,0.02371,0.0174,-0.0552
9.1,1.6797,0.0241,0.01786,-0.0539
9.2,1.6865,0.02451,0.01833,-0.0525
9.3,1.6931,0.02493,0.01881,-0.0512
9.4,1.6995,0.02537,0.01931,-0.0499
9.5,1.7055,0.02584,0.01984,-0.0487
9.6,1.7112,0.02633,0.02039,-0.0475
9.7,1.7167,0.02686,0.02097,-0.0463
9.8,1.7225,0.02742,0.02162,-0.0451
9.9,1.7289,0.02795,0.02224,-0.0441
10,1.734,0.02856,0.02295,-0.0431
10.1,1.7388,0.0292,0.02367,-0.0421
10.2,1.7434,0.02987,0.02443,-0.0412
10.3,1.7477,0.03058,0.02522,-0.0404
10.4,1.7518,0.03131,0.02604,-0.0397
10.5,1.7556,0.03209,0.0269,-0.0391
10.6,1.7592,0.0329,0.0278,-0.0386
10.7,1.7626,0.03377,0.02874,-0.0383
10.8,1.7657,0.03469,0.02974,-0.0381
10.9,1.7679,0.03575,0.0309,-0.0381
11,1.7696,0.03688,0.03216,-0.0382
11.1,1.7711,0.03809,0.03349,-0.0386
11.2,1.7721,0.03939,0.0349,-0.0392
11.3,1.7728,0.04077,0.0364,-0.04
11.4,1.7732,0.04224,0.03799,-0.0411
11.5,1.7733,0.04383,0.03969,-0.0426
11.7,1.7753,0.04707,0.04314,-0.0461
11.8,1.7749,0.04897,0.04514,-0.0484
11.9,1.7739,0.051,0.04728,-0.051
12,1.7725,0.05317,0.04956,-0.0538
12.1,1.7705,0.05549,0.05197,-0.057
12.2,1.7677,0.05795,0.05452,-0.0603
13.2,1.634,0.09925,0.09659,-0.1143
13.3,1.6298,0.10201,0.09936,-0.1176
13.4,1.6285,0.10427,0.10164,-0.1203
13.5,1.6293,0.10616,0.10354,-0.1224
13.6,1.6315,0.10781,0.1052,-0.1243
13.7,1.6346,0.10928,0.10668,-0.1259
13.8,1.6058,0.11676,0.11417,-0.135
13.9,1.6008,0.11987,0.11731,-0.1386
14,1.5998,0.12224,0.11969,-0.1412
14.1,1.6006,0.12422,0.12168,-0.1433
14.2,1.6025,0.12595,0.12342,-0.1452
14.3,1.6052,0.12752,0.12501,-0.1468
14.4,1.6084,0.12895,0.12644,-0.1483
14.5,1.6121,0.13027,0.12777,-0.1497
14.6,1.6163,0.13146,0.12897,-0.1509
14.7,1.6206,0.13258,0.13011,-0.1521
14.8,1.6239,0.1339,0.13142,-0.1536

