airfoilName st11.dat
Re 	330000
M 	5.000000e-01
N 	4.500000e+00
VACC 	0 VACCflag 1
XTR 	1.00 	1.00 XTRflag 0
alpha,cl,cd,cdp,cm
-30,-1.7894,0.54969,0.54694,0.3705
-29.9,-1.7855,0.54654,0.54379,0.368
-29.8,-1.7814,0.54341,0.54066,0.3655
-29.7,-1.7774,0.5403,0.53754,0.3631
-29.6,-1.7734,0.5372,0.53444,0.3606
-29.5,-1.7693,0.53411,0.53135,0.3582
-29.4,-1.7652,0.53104,0.52827,0.3557
-29.3,-1.7612,0.52798,0.52521,0.3533
-29.2,-1.7571,0.52492,0.52215,0.3509
-29.1,-1.7529,0.52188,0.51911,0.3484
-29,-1.7488,0.51885,0.51607,0.346
-28.9,-1.7448,0.51614,0.51336,0.3436
-28.8,-1.7406,0.51313,0.51035,0.3412
-28.7,-1.7364,0.51012,0.50733,0.3389
-28.6,-1.7322,0.50711,0.50433,0.3365
-28.5,-1.728,0.50415,0.50135,0.3341
-28.4,-1.7237,0.50116,0.49836,0.3317
-28.3,-1.7195,0.49819,0.49538,0.3294
-28.2,-1.7152,0.49525,0.49244,0.327
-28.1,-1.7109,0.49231,0.4895,0.3247
-28,-1.7066,0.48938,0.48656,0.3224
-27.9,-1.7023,0.48648,0.48367,0.32
-27.8,-1.698,0.48358,0.48076,0.3177
-27.7,-1.6936,0.4807,0.47787,0.3154
-27.6,-1.6893,0.47782,0.475,0.3131
-27.5,-1.6849,0.47495,0.47212,0.3108
-27.4,-1.6805,0.4721,0.46927,0.3085
-27.3,-1.6761,0.46926,0.46643,0.3062
-27.2,-1.6717,0.46642,0.46359,0.304
-27.1,-1.6673,0.46362,0.46078,0.3017
-27,-1.6628,0.46081,0.45797,0.2994
-26.9,-1.6584,0.45801,0.45517,0.2972
-26.8,-1.6539,0.45523,0.45239,0.2949
-26.7,-1.6494,0.45247,0.44962,0.2927
-26.6,-1.6449,0.44969,0.44684,0.2905
-26.5,-1.6404,0.44696,0.44411,0.2882
-26.4,-1.6359,0.44421,0.44136,0.286
-26.3,-1.6313,0.44149,0.43863,0.2838
-26.2,-1.6268,0.43877,0.43592,0.2816
-26.1,-1.6222,0.43607,0.43321,0.2794
-26,-1.6176,0.43339,0.43052,0.2772
-25.9,-1.613,0.43069,0.42782,0.275
-25.8,-1.6084,0.42804,0.42516,0.2729
-25.7,-1.6038,0.42537,0.42249,0.2707
-25.6,-1.5992,0.42272,0.41984,0.2685
-25.5,-1.5945,0.42009,0.41721,0.2664
-25.4,-1.5898,0.41746,0.41457,0.2642
-25.3,-1.5852,0.41484,0.41196,0.2621
-25.2,-1.5805,0.41223,0.40934,0.2599
-25.1,-1.5758,0.40964,0.40675,0.2578
-25,-1.571,0.40706,0.40417,0.2557
-24.9,-1.5663,0.40448,0.40158,0.2536
-24.8,-1.5615,0.40191,0.39902,0.2514
-24.7,-1.5568,0.39936,0.39647,0.2493
-24.6,-1.552,0.39682,0.39392,0.2472
-24.5,-1.5472,0.39429,0.39139,0.2451
-24.4,-1.5424,0.39178,0.38888,0.243
-24.3,-1.5376,0.38927,0.38637,0.2409
-24.2,-1.5328,0.38678,0.38388,0.2388
-24.1,-1.5279,0.3843,0.3814,0.2367
-24,-1.5231,0.38183,0.37892,0.2347
-23.9,-1.5182,0.37937,0.37646,0.2326
-23.8,-1.5133,0.37694,0.37402,0.2305
-23.7,-1.5084,0.37451,0.37159,0.2284
-23.6,-1.5035,0.3721,0.36918,0.2263
-23.5,-1.4986,0.3697,0.36678,0.2243
-23.4,-1.4937,0.36732,0.3644,0.2222
-23.3,-1.4887,0.36496,0.36203,0.2201
-23.2,-1.4837,0.36261,0.35968,0.218
-23.1,-1.4787,0.36027,0.35734,0.2159
-23,-1.4737,0.35794,0.35501,0.2138
-22.9,-1.466,0.35469,0.35177,0.2097
-22.8,-1.4611,0.35223,0.34932,0.2078
-22.7,-1.4562,0.34981,0.34689,0.2059
-22.6,-1.4513,0.34739,0.34447,0.204
-22.5,-1.4465,0.34498,0.34206,0.2022
-22.4,-1.4416,0.34259,0.33967,0.2003
-22.3,-1.4366,0.34021,0.33729,0.1985
-22.2,-1.4317,0.33785,0.33492,0.1966
-22.1,-1.4268,0.33549,0.33257,0.1948
-22,-1.4219,0.33315,0.33022,0.1929
-21.9,-1.4169,0.33082,0.32789,0.1911
-21.8,-1.412,0.3285,0.32557,0.1893
-21.7,-1.407,0.3262,0.32327,0.1875
-21.6,-1.4021,0.3239,0.32097,0.1857
-21.5,-1.3971,0.32161,0.31868,0.1839
-21.4,-1.3921,0.31934,0.31641,0.1821
-21.3,-1.3871,0.31707,0.31412,0.1804
-21.2,-1.3821,0.31482,0.31187,0.1786
-21.1,-1.3771,0.31257,0.30962,0.1768
-21,-1.3721,0.31034,0.30739,0.1751
-20.9,-1.3671,0.3081,0.30516,0.1734
-20.8,-1.3621,0.30589,0.30294,0.1716
-20.7,-1.3571,0.30368,0.30073,0.1699
-20.6,-1.3521,0.30148,0.29853,0.1682
-20.5,-1.347,0.29929,0.29633,0.1665
-20.4,-1.342,0.29711,0.29415,0.1648
-20.3,-1.3369,0.29493,0.29198,0.1631
-20.2,-1.3319,0.29276,0.28981,0.1614
-20.1,-1.3268,0.29061,0.28766,0.1597
-20,-1.3218,0.28846,0.2855,0.1581
-19.9,-1.3167,0.28631,0.28336,0.1564
-19.8,-1.3116,0.28418,0.28122,0.1548
-19.7,-1.3065,0.28205,0.27909,0.1531
-19.6,-1.3014,0.27993,0.27697,0.1515
-19.5,-1.2963,0.27781,0.27485,0.1498
-19.4,-1.2912,0.2757,0.27275,0.1482
-19.3,-1.2861,0.2736,0.27064,0.1466
-19.2,-1.2809,0.27151,0.26855,0.145
-19.1,-1.2758,0.26942,0.26646,0.1434
-19,-1.2707,0.26734,0.26439,0.1418
-18.9,-1.2655,0.26528,0.26231,0.1402
-18.8,-1.2604,0.26321,0.26024,0.1386
-18.7,-1.2552,0.26116,0.25819,0.1371
-18.6,-1.2501,0.2591,0.25614,0.1355
-18.5,-1.2449,0.25706,0.25409,0.1339
-18.4,-1.2397,0.25503,0.25206,0.1324
-18.3,-1.2346,0.25299,0.25002,0.1308
-18.2,-1.2294,0.25097,0.248,0.1293
-18.1,-1.2242,0.24895,0.24598,0.1278
-18,-1.219,0.24694,0.24397,0.1262
-17.9,-1.2138,0.24493,0.24196,0.1247
-17.8,-1.2086,0.24293,0.23996,0.1232
-17.7,-1.2034,0.24093,0.23796,0.1217
-17.6,-1.198,0.23914,0.23617,0.12
-17.5,-1.1927,0.23713,0.23416,0.1185
-17.4,-1.1874,0.23512,0.23216,0.117
-17.3,-1.1822,0.23313,0.23016,0.1155
-17.2,-1.1769,0.23113,0.22816,0.114
-17.1,-1.1716,0.22914,0.22617,0.1125
-17,-1.1663,0.22714,0.22418,0.111
-16.9,-1.1609,0.22515,0.22219,0.1096
-16.8,-1.1556,0.22316,0.2202,0.1081
-16.7,-1.1502,0.22116,0.2182,0.1066
-16.6,-1.1448,0.21917,0.21621,0.1051
-16.5,-1.1393,0.21717,0.21421,0.1036
-16.4,-1.1339,0.21516,0.21219,0.1022
-16.3,-1.1284,0.21314,0.21017,0.1007
-16.2,-1.1229,0.21113,0.20816,0.0992
-16.1,-1.1173,0.2091,0.20613,0.0978
-16,-1.1118,0.20707,0.2041,0.0963
-15.9,-1.1062,0.20503,0.20206,0.0948
-15.8,-1.1005,0.20294,0.19997,0.0933
-15.7,-1.0948,0.20082,0.19785,0.0919
-15.6,-1.089,0.19864,0.19567,0.0903
-15.5,-1.0829,0.19631,0.19334,0.0888
-15.4,-1.0748,0.19313,0.19018,0.0866
-15.3,-1.0696,0.1913,0.18834,0.0853
-15.2,-1.0644,0.18948,0.18652,0.084
-15.1,-1.0591,0.18766,0.18471,0.0827
-15,-1.0539,0.18586,0.18292,0.0814
-14.9,-1.0486,0.18407,0.18113,0.0801
-14.8,-1.0432,0.18229,0.17935,0.0789
-14.7,-1.0379,0.18053,0.17758,0.0776
-14.6,-1.0325,0.17876,0.17582,0.0763
-14.5,-1.0271,0.17701,0.17407,0.075
-14.4,-1.0216,0.17527,0.17233,0.0737
-14.3,-1.0162,0.17353,0.1706,0.0725
-14.2,-1.0107,0.17181,0.16887,0.0712
-14.1,-1.0051,0.17009,0.16715,0.0699
-14,-0.9996,0.16837,0.16544,0.0686
-13.9,-0.994,0.16667,0.16374,0.0674
-13.8,-0.9883,0.16497,0.16203,0.0661
-13.7,-0.9827,0.16329,0.16035,0.0648
-13.6,-0.977,0.16161,0.15867,0.0635
-13.5,-0.9713,0.15994,0.15701,0.0623
-13.4,-0.9656,0.15828,0.15535,0.061
-13.3,-0.9599,0.15664,0.15371,0.0598
-13.2,-0.9541,0.155,0.15207,0.0585
-13.1,-0.9483,0.15336,0.15044,0.0573
-13,-0.9425,0.15174,0.14882,0.056
-12.9,-0.9367,0.15013,0.14721,0.0548
-12.8,-0.9308,0.14853,0.14561,0.0535
-12.7,-0.9249,0.14693,0.14402,0.0523
-12.6,-0.919,0.14534,0.14243,0.051
-12.4,-0.9066,0.14234,0.13944,0.0484
-12.3,-0.9006,0.14076,0.13786,0.0472
-12.2,-0.8945,0.13919,0.1363,0.0459
-12.1,-0.8884,0.13763,0.13474,0.0447
-12,-0.8823,0.13608,0.1332,0.0434
-11.9,-0.8761,0.13454,0.13166,0.0422
-11.8,-0.87,0.13301,0.13013,0.041
-11.7,-0.8637,0.13149,0.12861,0.0397
-11.6,-0.8575,0.12998,0.1271,0.0385
-11.5,-0.8512,0.12847,0.1256,0.0372
-11.4,-0.8449,0.12698,0.12411,0.036
-11.3,-0.8386,0.12549,0.12262,0.0348
-11.2,-0.8321,0.124,0.12114,0.0335
-11.1,-0.8257,0.12253,0.11967,0.0323
-11,-0.8192,0.12106,0.1182,0.031
-10.9,-0.8127,0.1196,0.11675,0.0298
-10.8,-0.8061,0.11815,0.11531,0.0285
-10.7,-0.7995,0.11671,0.11387,0.0272
-10.6,-0.7929,0.11528,0.11244,0.026
-10.5,-0.7862,0.11386,0.11103,0.0247
-10.4,-0.7795,0.11244,0.10961,0.0234
-10.3,-0.7728,0.11102,0.10821,0.0222
-10.2,-0.766,0.10962,0.1068,0.0209
-10.1,-0.7591,0.10821,0.10541,0.0196
-10,-0.7522,0.10682,0.10402,0.0183
-9.9,-0.7453,0.10543,0.10264,0.017
-9.8,-0.7383,0.10405,0.10126,0.0157
-9.7,-0.7313,0.10268,0.0999,0.0144
-9.6,-0.7242,0.10131,0.09853,0.0131
-9.5,-0.7171,0.09994,0.09717,0.0118
-9.4,-0.71,0.09856,0.0958,0.0105
-9.3,-0.7028,0.0972,0.09445,0.0091
-9.2,-0.6955,0.09583,0.09308,0.0078
-9.1,-0.6883,0.09446,0.09172,0.0064
-9,-0.681,0.09308,0.09035,0.005
-8.9,-0.6736,0.09168,0.08895,0.0036
-8.8,-0.6662,0.09024,0.08753,0.0022
-8.7,-0.6588,0.08879,0.08608,0.0008
-8.6,-0.651,0.08711,0.0844,-0.0009
-8.5,-0.6431,0.08546,0.08277,-0.0026
-8.4,-0.6365,0.08436,0.08169,-0.0037
-8.3,-0.63,0.0833,0.08063,-0.0049
-8.2,-0.6237,0.08226,0.07961,-0.006
-8.1,-0.6177,0.08126,0.07862,-0.007
-8,-0.6123,0.0803,0.07768,-0.0079
-7.9,-0.6076,0.07941,0.0768,-0.0086
-7.8,-0.6013,0.07843,0.07583,-0.0097
-7.7,-0.588,0.077,0.0744,-0.0127
-7.6,-0.5754,0.07563,0.07303,-0.0154
-7.5,-0.5615,0.07421,0.07161,-0.0184
-7.4,-0.5464,0.07274,0.07013,-0.0217
-7.3,-0.531,0.07127,0.06865,-0.0251
-7.2,-0.5165,0.06986,0.06723,-0.0281
-7.1,-0.5008,0.06839,0.06575,-0.0314
-7,-0.4848,0.06691,0.06425,-0.0347
-6.9,-0.47,0.0655,0.06283,-0.0377
-6.8,-0.4544,0.06404,0.06136,-0.0407
-6.7,-0.4383,0.06256,0.05986,-0.0439
-6.6,-0.4231,0.06112,0.0584,-0.0468
-6.5,-0.4077,0.05967,0.05692,-0.0497
-6.4,-0.3916,0.05816,0.05539,-0.0527
-6.3,-0.376,0.05666,0.05387,-0.0555
-6.2,-0.3581,0.05465,0.05182,-0.0591
-6,-0.3237,0.05069,0.04778,-0.0658
-5.9,-0.304,0.04781,0.04485,-0.0702
-5.8,-0.2884,0.04648,0.04348,-0.0726
-5.7,-0.2731,0.04517,0.04212,-0.0747
-5.6,-0.2574,0.04383,0.04074,-0.0769
-5.5,-0.2414,0.04246,0.03932,-0.079
-5.1,-0.1766,0.03657,0.03315,-0.0871
-5,-0.1599,0.0349,0.03139,-0.0891
-4.8,-0.1261,0.031,0.02726,-0.0931
-4.7,-0.1092,0.02848,0.02456,-0.0952
-4.5,-0.0756,0.02031,0.01554,-0.1008
-4.4,-0.0611,0.01931,0.01435,-0.1012
-4.3,-0.0464,0.01837,0.01322,-0.1015
-4.2,-0.0318,0.01749,0.01215,-0.1017
-4.1,-0.0176,0.0167,0.01113,-0.1017
-4,-0.0029,0.01594,0.01019,-0.1018
-3.9,0.0117,0.01525,0.00929,-0.1018
-3.8,0.0263,0.01462,0.00847,-0.1017
-3.7,0.0408,0.01407,0.00774,-0.1016
-3.5,0.0695,0.0136,0.00711,-0.1013
-3.4,0.084,0.01329,0.00669,-0.1011
-3.3,0.0985,0.01298,0.00628,-0.101
-3.2,0.113,0.0127,0.00588,-0.1008
-3.1,0.1273,0.01247,0.00557,-0.1006
-3,0.1418,0.01229,0.00535,-0.1005
-2.8,0.1699,0.01206,0.00497,-0.1
-2.7,0.1835,0.01193,0.00474,-0.0996
-2.6,0.1978,0.01178,0.00456,-0.0995
-2.5,0.2119,0.01168,0.00441,-0.0994
-2.4,0.2258,0.01159,0.00425,-0.0991
-2.2,0.2536,0.01145,0.00401,-0.0988
-2.1,0.2678,0.01137,0.00389,-0.0987
-2,0.2819,0.0113,0.00377,-0.0985
-1.9,0.2956,0.01127,0.00366,-0.0983
-1.7,0.3234,0.01118,0.00352,-0.0981
-1.6,0.3371,0.01117,0.00344,-0.0979
-1.5,0.3509,0.01113,0.00337,-0.0978
-1.4,0.3649,0.0111,0.00332,-0.0977
-1.3,0.3782,0.01112,0.00327,-0.0974
-1.2,0.3917,0.01112,0.00323,-0.0973
-1.1,0.4056,0.01111,0.00319,-0.0972
-1,0.4193,0.01112,0.00315,-0.0971
-0.9,0.4326,0.01115,0.00313,-0.0969
-0.8,0.4464,0.01115,0.00312,-0.0968
-0.7,0.4596,0.01119,0.00312,-0.0967
-0.6,0.4734,0.0112,0.0031,-0.0966
-0.5,0.487,0.01122,0.0031,-0.0965
-0.4,0.5007,0.01122,0.0031,-0.0965
-0.3,0.5144,0.01125,0.0031,-0.0964
-0.2,0.5281,0.01127,0.0031,-0.0963
-0.1,0.5416,0.01129,0.00311,-0.0962
0,0.5547,0.01136,0.00313,-0.0961
0.1,0.5683,0.01138,0.00314,-0.096
0.2,0.5818,0.01141,0.00317,-0.0959
0.3,0.5953,0.01145,0.00318,-0.0959
0.4,0.6088,0.01149,0.00321,-0.0958
0.5,0.6221,0.01151,0.00325,-0.0957
0.6,0.6355,0.01155,0.00327,-0.0956
0.7,0.6482,0.01163,0.00331,-0.0954
0.8,0.6615,0.01167,0.00335,-0.0954
0.9,0.6746,0.01165,0.0034,-0.0953
1,0.6876,0.01165,0.00346,-0.0953
1.1,0.7005,0.01163,0.00352,-0.0952
1.2,0.7131,0.01156,0.00358,-0.0952
1.4,0.7276,0.01049,0.00357,-0.092
1.5,0.7404,0.01065,0.00364,-0.0918
1.6,0.7524,0.01088,0.00375,-0.0916
1.7,0.7651,0.01106,0.00384,-0.0914
1.8,0.7779,0.01123,0.00393,-0.0912
1.9,0.7908,0.01139,0.00401,-0.091
2,0.8038,0.01155,0.00411,-0.0908
2.1,0.8168,0.0117,0.0042,-0.0907
2.2,0.8299,0.01185,0.00431,-0.0905
2.3,0.8431,0.01199,0.0044,-0.0903
2.4,0.8557,0.01218,0.00453,-0.0901
2.5,0.8691,0.0123,0.00462,-0.09
2.6,0.8823,0.01243,0.00472,-0.0898
2.7,0.8954,0.01258,0.00483,-0.0896
2.8,0.9087,0.01272,0.00494,-0.0895
2.9,0.9221,0.01284,0.00505,-0.0893
3,0.9354,0.01297,0.00515,-0.0891
3.1,0.9485,0.01311,0.00527,-0.0889
3.2,0.9616,0.01326,0.0054,-0.0887
3.3,0.9751,0.01338,0.00551,-0.0885
3.4,0.9882,0.01352,0.00563,-0.0883
3.5,1.0014,0.01367,0.00575,-0.0881
3.6,1.0144,0.01383,0.00588,-0.0878
3.7,1.0278,0.01395,0.00601,-0.0876
3.8,1.0412,0.01408,0.00613,-0.0874
3.9,1.0544,0.01421,0.00626,-0.0871
4,1.0676,0.01436,0.00639,-0.0869
4.1,1.0807,0.01452,0.00653,-0.0866
4.2,1.0937,0.01467,0.00668,-0.0863
4.3,1.1071,0.0148,0.00682,-0.086
4.4,1.1203,0.01494,0.00696,-0.0857
4.5,1.1335,0.0151,0.00711,-0.0854
4.6,1.1464,0.01526,0.00726,-0.0851
4.7,1.1592,0.01544,0.00742,-0.0848
4.8,1.1726,0.01557,0.00758,-0.0844
4.9,1.1859,0.01572,0.00773,-0.0841
5,1.199,0.01588,0.0079,-0.0838
5.1,1.2121,0.01604,0.00806,-0.0834
5.2,1.225,0.01621,0.00824,-0.083
5.3,1.2375,0.0164,0.0084,-0.0826
5.4,1.2507,0.01656,0.0086,-0.0822
5.5,1.2638,0.01672,0.00878,-0.0818
5.6,1.2768,0.01689,0.00896,-0.0813
5.7,1.2896,0.01707,0.00916,-0.0809
5.8,1.3023,0.01726,0.00935,-0.0804
5.9,1.3148,0.01746,0.00955,-0.0799
6,1.3274,0.01766,0.00976,-0.0794
6.1,1.3404,0.01784,0.00998,-0.0789
6.2,1.3532,0.01803,0.01019,-0.0784
6.3,1.3659,0.01822,0.01042,-0.0779
6.4,1.3782,0.01842,0.01063,-0.0773
6.5,1.3904,0.01863,0.01086,-0.0767
6.6,1.4023,0.01886,0.0111,-0.076
6.7,1.4147,0.01908,0.01134,-0.0754
6.8,1.4272,0.01929,0.0116,-0.0748
6.9,1.4395,0.01951,0.01186,-0.0742
7,1.4516,0.01974,0.01213,-0.0735
7.1,1.4635,0.01998,0.0124,-0.0728
7.2,1.4751,0.02022,0.01267,-0.072
7.3,1.4864,0.02048,0.01295,-0.0712
7.4,1.4973,0.02075,0.01324,-0.0704
7.5,1.5091,0.02098,0.01353,-0.0696
7.6,1.5204,0.02124,0.01385,-0.0688
7.7,1.5315,0.02152,0.01417,-0.0679
7.8,1.5422,0.0218,0.0145,-0.067
7.9,1.5526,0.02208,0.01483,-0.0661
8,1.5625,0.02238,0.01517,-0.065
8.1,1.5719,0.02269,0.01551,-0.064
8.2,1.5807,0.02301,0.01587,-0.0628
8.3,1.5905,0.02334,0.01626,-0.0618
8.4,1.5997,0.02368,0.01668,-0.0607
8.5,1.6076,0.02403,0.01709,-0.0593
8.6,1.6148,0.02439,0.01752,-0.058
8.7,1.6217,0.02476,0.01797,-0.0566
8.8,1.6284,0.0251,0.01835,-0.0552
8.9,1.6348,0.0255,0.0188,-0.0538
9,1.6408,0.02592,0.01928,-0.0525
9.1,1.6465,0.02637,0.01977,-0.0512
9.2,1.6528,0.02685,0.02033,-0.05
9.3,1.659,0.02736,0.02093,-0.0488
9.4,1.6649,0.0279,0.02156,-0.0476
9.5,1.6704,0.02846,0.02221,-0.0465
9.6,1.6754,0.02904,0.02288,-0.0454
9.7,1.6802,0.02965,0.02357,-0.0444
9.8,1.6847,0.03028,0.02429,-0.0434
9.9,1.6889,0.03094,0.02503,-0.0425
10,1.6929,0.03163,0.0258,-0.0417
10.1,1.6966,0.03235,0.0266,-0.041
10.3,1.704,0.03388,0.02829,-0.0399
10.4,1.7064,0.03482,0.02934,-0.0395
10.5,1.7085,0.03581,0.03045,-0.0392
10.6,1.7104,0.03686,0.03161,-0.0392
10.7,1.712,0.03796,0.03283,-0.0393
10.8,1.7133,0.03913,0.0341,-0.0396
10.9,1.7144,0.04036,0.03544,-0.0402
11,1.7154,0.04166,0.03685,-0.0409
11.1,1.7164,0.04302,0.03832,-0.042
11.2,1.7173,0.04447,0.03987,-0.0432
11.3,1.7181,0.046,0.0415,-0.0448
11.4,1.7188,0.04761,0.04321,-0.0466
11.5,1.7195,0.04932,0.045,-0.0487
11.6,1.7185,0.05128,0.04706,-0.0512
11.7,1.7137,0.05386,0.04979,-0.0547
12.7,1.6163,0.09067,0.0875,-0.1044
12.8,1.6168,0.09262,0.08946,-0.1067
12.9,1.6192,0.09422,0.09107,-0.1086
13.2,1.5708,0.10939,0.10633,-0.1271
13.3,1.5708,0.11155,0.1085,-0.1295
13.4,1.5724,0.11337,0.11033,-0.1315
13.5,1.5751,0.11496,0.11193,-0.1332
13.6,1.5786,0.11638,0.11337,-0.1347
13.7,1.5826,0.11768,0.11467,-0.1361
13.8,1.587,0.11885,0.11586,-0.1373
13.9,1.5919,0.1199,0.11692,-0.1384
14.1,1.5731,0.12875,0.12579,-0.1481
14.2,1.5746,0.13066,0.12771,-0.1501
14.3,1.577,0.13233,0.1294,-0.1518
14.4,1.5801,0.13384,0.13092,-0.1533
14.5,1.5835,0.13523,0.13232,-0.1547
14.6,1.5873,0.1365,0.13361,-0.156
14.7,1.5913,0.1377,0.13481,-0.1572
14.8,1.5956,0.13882,0.13595,-0.1584
14.9,1.5999,0.13988,0.13702,-0.1595
15,1.6044,0.14087,0.13802,-0.1605

