airfoilName st12.dat
Re 	570000
M 	5.000000e-01
N 	4.500000e+00
VACC 	0 VACCflag 1
XTR 	1.00 	1.00 XTRflag 0
alpha,cl,cd,cdp,cm
-30,-1.7475,0.55142,0.54944,0.3668
-29.9,-1.7436,0.5483,0.54633,0.3644
-29.8,-1.7397,0.54519,0.54321,0.3619
-29.7,-1.7358,0.5421,0.54012,0.3595
-29.6,-1.7318,0.53903,0.53705,0.357
-29.5,-1.7279,0.53597,0.53399,0.3546
-29.4,-1.7239,0.53293,0.53094,0.3522
-29.3,-1.7199,0.52991,0.52792,0.3498
-29.2,-1.7159,0.5269,0.52491,0.3473
-29.1,-1.7119,0.5239,0.5219,0.3449
-29,-1.7078,0.52091,0.51891,0.3425
-28.9,-1.7038,0.51794,0.51593,0.3401
-28.8,-1.6997,0.51498,0.51297,0.3378
-28.7,-1.6956,0.51204,0.51003,0.3354
-28.6,-1.6915,0.5091,0.50709,0.333
-28.5,-1.6874,0.50618,0.50416,0.3306
-28.4,-1.6833,0.50327,0.50126,0.3283
-28.3,-1.6792,0.50039,0.49837,0.3259
-28.2,-1.675,0.49751,0.49549,0.3236
-28.1,-1.6708,0.49463,0.49261,0.3213
-28,-1.6666,0.49178,0.48975,0.3189
-27.9,-1.6624,0.48892,0.48689,0.3166
-27.8,-1.6582,0.48609,0.48406,0.3143
-27.7,-1.654,0.48327,0.48123,0.312
-27.6,-1.6497,0.48045,0.47842,0.3097
-27.5,-1.6454,0.47765,0.47561,0.3074
-27.4,-1.6412,0.47486,0.47282,0.3052
-27.3,-1.6369,0.47208,0.47004,0.3029
-27.2,-1.6325,0.46931,0.46726,0.3006
-27.1,-1.6282,0.46655,0.4645,0.2984
-27,-1.6239,0.4638,0.46175,0.2961
-26.9,-1.6195,0.46106,0.45901,0.2939
-26.8,-1.6152,0.45833,0.45627,0.2917
-26.7,-1.6108,0.45561,0.45355,0.2894
-26.6,-1.6064,0.45291,0.45085,0.2872
-26.5,-1.602,0.45022,0.44816,0.285
-26.4,-1.5976,0.44752,0.44546,0.2828
-26.3,-1.5931,0.44485,0.44278,0.2806
-26.2,-1.5887,0.44219,0.44012,0.2784
-26.1,-1.5842,0.43952,0.43745,0.2762
-26,-1.5797,0.43688,0.43481,0.274
-25.9,-1.5752,0.43424,0.43217,0.2719
-25.8,-1.5707,0.43161,0.42954,0.2697
-25.7,-1.5661,0.42899,0.42691,0.2675
-25.6,-1.5616,0.42636,0.42429,0.2654
-25.5,-1.557,0.42376,0.42168,0.2632
-25.4,-1.5524,0.42117,0.41909,0.2611
-25.3,-1.5478,0.41858,0.4165,0.259
-25.2,-1.5432,0.416,0.41392,0.2568
-25.1,-1.5386,0.41343,0.41134,0.2547
-25,-1.534,0.41087,0.40878,0.2526
-24.9,-1.5293,0.40832,0.40623,0.2505
-24.8,-1.5247,0.40577,0.40368,0.2484
-24.7,-1.52,0.40324,0.40114,0.2463
-24.6,-1.5153,0.40071,0.39861,0.2442
-24.5,-1.5105,0.39844,0.39634,0.242
-24.4,-1.5058,0.39592,0.39382,0.2399
-24.3,-1.5011,0.39341,0.3913,0.2378
-24.2,-1.4963,0.39091,0.3888,0.2357
-24.1,-1.4915,0.38841,0.38631,0.2337
-24,-1.4868,0.38593,0.38382,0.2316
-23.9,-1.482,0.38346,0.38135,0.2295
-23.8,-1.4772,0.38099,0.37888,0.2275
-23.7,-1.4723,0.37854,0.37643,0.2254
-23.6,-1.4675,0.37609,0.37398,0.2233
-23.5,-1.4626,0.37366,0.37154,0.2213
-23.4,-1.4577,0.37122,0.36911,0.2192
-23.3,-1.4528,0.36881,0.36669,0.2171
-23.2,-1.4479,0.3664,0.36429,0.2151
-23.1,-1.4429,0.364,0.36188,0.2129
-23,-1.438,0.3616,0.35948,0.2109
-22.9,-1.4329,0.35917,0.35705,0.2087
-22.6,-1.4159,0.35086,0.34874,0.2015
-22.5,-1.4111,0.34839,0.34628,0.1997
-22.4,-1.4063,0.34595,0.34383,0.1979
-22.3,-1.4015,0.34353,0.34141,0.196
-22.2,-1.3967,0.34112,0.339,0.1942
-22.1,-1.3919,0.33874,0.33662,0.1924
-22,-1.3871,0.33638,0.33426,0.1906
-21.9,-1.3823,0.33404,0.33191,0.1888
-21.8,-1.3774,0.33171,0.32958,0.187
-21.7,-1.3726,0.3294,0.32727,0.1852
-21.6,-1.3677,0.3271,0.32497,0.1834
-21.5,-1.3629,0.32483,0.32269,0.1816
-21.4,-1.358,0.32256,0.32042,0.1799
-21.3,-1.3531,0.32031,0.31817,0.1781
-21.2,-1.3483,0.31808,0.31594,0.1764
-21.1,-1.3434,0.31585,0.31371,0.1746
-21,-1.3385,0.31364,0.3115,0.1729
-20.9,-1.3336,0.31143,0.30929,0.1712
-20.8,-1.3287,0.30924,0.3071,0.1694
-20.7,-1.3238,0.30706,0.30492,0.1677
-20.6,-1.3189,0.30489,0.30275,0.166
-20.5,-1.3139,0.30272,0.30058,0.1643
-20.4,-1.309,0.30057,0.29843,0.1626
-20.3,-1.3041,0.29842,0.29628,0.161
-20.2,-1.2991,0.29628,0.29413,0.1593
-20.1,-1.2941,0.29414,0.292,0.1576
-20,-1.2891,0.29201,0.28987,0.1559
-19.9,-1.2841,0.28989,0.28774,0.1543
-19.8,-1.2791,0.28777,0.28562,0.1526
-19.7,-1.2741,0.28565,0.2835,0.151
-19.6,-1.2691,0.28354,0.2814,0.1494
-19.5,-1.2641,0.28144,0.27929,0.1477
-19.4,-1.259,0.27935,0.27719,0.1461
-19.3,-1.254,0.27726,0.2751,0.1445
-19.2,-1.2489,0.27547,0.27331,0.1428
-19.1,-1.2439,0.27337,0.27121,0.1412
-19,-1.2388,0.27128,0.26912,0.1396
-18.9,-1.2337,0.26919,0.26704,0.138
-18.8,-1.2286,0.26712,0.26496,0.1364
-18.7,-1.2236,0.26504,0.26289,0.1349
-18.6,-1.2185,0.26298,0.26082,0.1333
-18.5,-1.2134,0.26092,0.25876,0.1317
-18.4,-1.2083,0.25886,0.2567,0.1302
-18.3,-1.2032,0.25681,0.25465,0.1286
-18.2,-1.1981,0.25476,0.25261,0.1271
-18.1,-1.1929,0.25272,0.25056,0.1255
-18,-1.1878,0.25069,0.24853,0.124
-17.9,-1.1826,0.24865,0.24649,0.1225
-17.8,-1.1775,0.24663,0.24447,0.121
-17.7,-1.1723,0.2446,0.24244,0.1194
-17.6,-1.1671,0.24258,0.24042,0.1179
-17.5,-1.1619,0.24055,0.2384,0.1164
-17.4,-1.1567,0.23853,0.23638,0.1149
-17.3,-1.1515,0.23652,0.23436,0.1134
-17.2,-1.1463,0.2345,0.23234,0.1119
-17.1,-1.141,0.23247,0.23032,0.1103
-17,-1.1357,0.23044,0.22829,0.1088
-16.9,-1.1304,0.22841,0.22624,0.1073
-16.8,-1.125,0.22636,0.22419,0.1058
-16.7,-1.1196,0.22429,0.22212,0.1043
-16.6,-1.1142,0.22221,0.22005,0.1028
-16.5,-1.1087,0.2201,0.21793,0.1012
-16.4,-1.1032,0.21795,0.21579,0.0997
-16.3,-1.0976,0.21577,0.2136,0.0982
-16.2,-1.0918,0.21343,0.21126,0.0966
-16,-1.0775,0.20797,0.20581,0.0927
-15.9,-1.0725,0.20602,0.20387,0.0914
-15.8,-1.0674,0.20409,0.20193,0.0901
-15.7,-1.0623,0.20217,0.20001,0.0888
-15.6,-1.0572,0.20026,0.19811,0.0875
-15.5,-1.0522,0.19837,0.19622,0.0862
-15.4,-1.047,0.19649,0.19434,0.0849
-15.3,-1.0419,0.19463,0.19248,0.0836
-15.2,-1.0367,0.19279,0.19064,0.0823
-15.1,-1.0315,0.19095,0.1888,0.081
-15,-1.0263,0.18913,0.18698,0.0797
-14.9,-1.0211,0.18732,0.18518,0.0785
-14.8,-1.0158,0.18553,0.18338,0.0772
-14.7,-1.0105,0.18374,0.1816,0.0759
-14.6,-1.0052,0.18197,0.17982,0.0746
-14.5,-0.9999,0.1802,0.17806,0.0733
-14.4,-0.9944,0.17864,0.1765,0.072
-14.3,-0.989,0.17688,0.17474,0.0707
-14.2,-0.9835,0.17513,0.17299,0.0694
-14.1,-0.978,0.17339,0.17125,0.0682
-14,-0.9725,0.17166,0.16952,0.0669
-13.9,-0.967,0.16994,0.1678,0.0656
-13.8,-0.9614,0.16823,0.16609,0.0643
-13.7,-0.9558,0.16653,0.16439,0.0631
-13.6,-0.9502,0.16484,0.1627,0.0618
-13.5,-0.9446,0.16315,0.16101,0.0606
-13.4,-0.939,0.16148,0.15934,0.0593
-13.3,-0.9333,0.15981,0.15768,0.0581
-13.2,-0.9277,0.15816,0.15602,0.0568
-13.1,-0.922,0.15651,0.15438,0.0556
-13,-0.9163,0.15487,0.15274,0.0543
-12.9,-0.9105,0.15324,0.15111,0.0531
-12.8,-0.9047,0.15162,0.14949,0.0519
-12.7,-0.8989,0.15,0.14788,0.0506
-12.6,-0.893,0.14839,0.14627,0.0494
-12.5,-0.8871,0.14678,0.14466,0.0481
-12.4,-0.8812,0.14519,0.14307,0.0469
-12.3,-0.8753,0.1436,0.14149,0.0456
-12.2,-0.8693,0.14202,0.13991,0.0444
-12.1,-0.8633,0.14045,0.13834,0.0432
-12,-0.8573,0.13889,0.13678,0.042
-11.9,-0.8513,0.13734,0.13523,0.0407
-11.8,-0.8452,0.13579,0.13369,0.0395
-11.7,-0.8391,0.13426,0.13216,0.0383
-11.6,-0.833,0.13273,0.13062,0.037
-11.5,-0.8268,0.13121,0.1291,0.0358
-11.4,-0.8206,0.12969,0.12759,0.0345
-11.3,-0.8143,0.12817,0.12608,0.0333
-11.2,-0.808,0.12667,0.12457,0.0321
-11.1,-0.8017,0.12517,0.12308,0.0308
-11,-0.7953,0.12368,0.12159,0.0296
-10.9,-0.7889,0.1222,0.12011,0.0283
-10.8,-0.7825,0.12072,0.11864,0.0271
-10.7,-0.776,0.11925,0.11717,0.0258
-10.6,-0.7695,0.11779,0.11572,0.0246
-10.5,-0.763,0.11633,0.11426,0.0233
-10.4,-0.7564,0.11487,0.11281,0.0221
-10.3,-0.7497,0.11342,0.11136,0.0208
-10.2,-0.7431,0.11198,0.10991,0.0195
-10.1,-0.7364,0.11053,0.10848,0.0183
-10,-0.7296,0.1091,0.10704,0.017
-9.9,-0.7228,0.10767,0.10562,0.0157
-9.8,-0.716,0.10624,0.10419,0.0144
-9.7,-0.7092,0.1048,0.10276,0.0131
-9.6,-0.7022,0.10338,0.10134,0.0118
-9.5,-0.6953,0.10194,0.09991,0.0105
-9.4,-0.6883,0.10051,0.09848,0.0092
-9.3,-0.6813,0.09905,0.09703,0.0079
-9.2,-0.6743,0.09762,0.0956,0.0066
-9.1,-0.6672,0.09613,0.09412,0.0052
-9,-0.66,0.09463,0.09262,0.0039
-8.9,-0.6528,0.09312,0.0911,0.0025
-8.8,-0.644,0.09101,0.08902,0.0006
-8.7,-0.6374,0.08981,0.08782,-0.0007
-8.6,-0.6307,0.08862,0.08664,-0.0018
-8.5,-0.6242,0.08745,0.08548,-0.003
-8.4,-0.6177,0.08632,0.08435,-0.0042
-8.3,-0.6115,0.08521,0.08325,-0.0052
-8.2,-0.6054,0.08413,0.08218,-0.0063
-8.1,-0.5937,0.08267,0.08072,-0.0089
-8,-0.5822,0.08124,0.07929,-0.0113
-7.9,-0.5709,0.07985,0.0779,-0.0138
-7.8,-0.5601,0.07851,0.07656,-0.016
-7.7,-0.5479,0.0771,0.07514,-0.0187
-7.6,-0.5373,0.07583,0.07387,-0.0208
-7.5,-0.5246,0.07445,0.07247,-0.0236
-7.4,-0.5122,0.07311,0.07112,-0.0262
-7.3,-0.5,0.07179,0.0698,-0.0287
-7.2,-0.487,0.07044,0.06843,-0.0313
-7.1,-0.4748,0.06915,0.06713,-0.0337
-7,-0.4623,0.06785,0.06582,-0.0361
-6.9,-0.4497,0.06655,0.0645,-0.0385
-6.8,-0.437,0.06525,0.06318,-0.0409
-6.7,-0.4241,0.06395,0.06186,-0.0433
-6.6,-0.4109,0.06263,0.06052,-0.0457
-6.5,-0.3977,0.06132,0.05919,-0.048
-6.4,-0.384,0.05999,0.05783,-0.0504
-6.3,-0.3701,0.05864,0.05645,-0.0528
-6.2,-0.3561,0.05729,0.05507,-0.0552
-6.1,-0.3416,0.0559,0.05365,-0.0576
-6,-0.3268,0.05449,0.05221,-0.0601
-5.9,-0.3116,0.05305,0.05074,-0.0626
-5.8,-0.2965,0.05161,0.04924,-0.065
-5.6,-0.2645,0.04853,0.04609,-0.0701
-5.5,-0.2481,0.04689,0.0444,-0.0727
-5.4,-0.2312,0.04517,0.04262,-0.0754
-5.3,-0.214,0.0433,0.04069,-0.0781
-4.7,-0.1076,0.0317,0.02858,-0.0932
-4.6,-0.0907,0.03003,0.0268,-0.095
-4.2,-0.0223,0.0173,0.01297,-0.1043
-4.1,-0.0076,0.01507,0.0103,-0.1053
-4,0.0072,0.01376,0.00864,-0.1056
-3.8,0.0364,0.01303,0.0077,-0.1055
-3.7,0.0512,0.01254,0.00705,-0.1055
-3.6,0.066,0.0121,0.00648,-0.1054
-3.5,0.0804,0.01174,0.00596,-0.1052
-3.4,0.0952,0.01141,0.00551,-0.1051
-3.3,0.1099,0.01113,0.00511,-0.1049
-3.2,0.1239,0.01094,0.00481,-0.1046
-3.1,0.1384,0.01077,0.00458,-0.1045
-3,0.1526,0.01064,0.00436,-0.1043
-2.9,0.1666,0.01054,0.00416,-0.104
-2.8,0.181,0.01042,0.00397,-0.1039
-2.7,0.1953,0.01031,0.00379,-0.1037
-2.6,0.2097,0.0102,0.00364,-0.1036
-2.5,0.2235,0.01018,0.00358,-0.1034
-2.4,0.2378,0.0101,0.00344,-0.1033
-2.3,0.2517,0.01006,0.00331,-0.1031
-2.2,0.2656,0.01001,0.00321,-0.1029
-2.1,0.2797,0.00995,0.00312,-0.1028
-2,0.2933,0.00997,0.00306,-0.1026
-1.9,0.3073,0.00994,0.00297,-0.1025
-1.8,0.3213,0.0099,0.00289,-0.1024
-1.7,0.3353,0.00987,0.00283,-0.1023
-1.6,0.349,0.00988,0.00278,-0.1021
-1.5,0.3625,0.00991,0.00274,-0.102
-1.4,0.3764,0.00989,0.0027,-0.1019
-1.3,0.39,0.00991,0.00267,-0.1018
-1.2,0.404,0.0099,0.00263,-0.1017
-1.1,0.4178,0.00991,0.0026,-0.1016
-1,0.4315,0.00993,0.00257,-0.1015
-0.9,0.4453,0.00993,0.00257,-0.1015
-0.8,0.4584,0.01001,0.00257,-0.1013
-0.7,0.4722,0.01002,0.00255,-0.1012
-0.6,0.4859,0.01003,0.00255,-0.1012
-0.5,0.4997,0.01006,0.00254,-0.1011
-0.4,0.5134,0.01007,0.00255,-0.1011
-0.3,0.527,0.01011,0.00256,-0.101
-0.2,0.5407,0.01014,0.00256,-0.1009
-0.1,0.5539,0.01021,0.00258,-0.1008
0,0.5674,0.01026,0.0026,-0.1007
0.1,0.5809,0.01029,0.00262,-0.1007
0.2,0.5944,0.01035,0.00265,-0.1006
0.3,0.6078,0.01041,0.00267,-0.1005
0.4,0.6213,0.01046,0.0027,-0.1004
0.5,0.6346,0.01053,0.00274,-0.1003
0.6,0.6479,0.0106,0.00278,-0.1002
0.7,0.6604,0.01076,0.00284,-0.1
0.8,0.6735,0.01086,0.00289,-0.0999
0.9,0.6864,0.01097,0.00295,-0.0998
1,0.6994,0.0111,0.00302,-0.0997
1.1,0.7122,0.01121,0.00309,-0.0996
1.2,0.7251,0.01133,0.00316,-0.0994
1.3,0.7381,0.01145,0.00324,-0.0993
1.4,0.7512,0.01155,0.0033,-0.0992
1.5,0.764,0.01169,0.00339,-0.0991
1.6,0.7772,0.01176,0.00347,-0.099
1.7,0.7907,0.01181,0.00353,-0.0989
1.8,0.8041,0.01187,0.0036,-0.0988
1.9,0.8174,0.01192,0.00368,-0.0988
2.1,0.8337,0.01039,0.00381,-0.0967
2.2,0.8472,0.01049,0.00388,-0.0966
2.3,0.8605,0.01061,0.00397,-0.0964
2.4,0.874,0.01072,0.00404,-0.0963
2.5,0.8875,0.01082,0.00411,-0.0961
2.6,0.9009,0.01093,0.0042,-0.096
2.7,0.9144,0.01104,0.00428,-0.0958
2.8,0.928,0.01113,0.00436,-0.0957
2.9,0.9416,0.01122,0.00444,-0.0956
3,0.9551,0.01133,0.00452,-0.0954
3.1,0.9685,0.01144,0.00461,-0.0952
3.2,0.982,0.01155,0.00471,-0.095
3.3,0.9955,0.01166,0.00479,-0.0949
3.4,1.009,0.01176,0.00488,-0.0947
3.5,1.0225,0.01187,0.00497,-0.0945
3.6,1.0358,0.01199,0.00508,-0.0943
3.7,1.0493,0.0121,0.00518,-0.0941
3.8,1.0629,0.0122,0.00528,-0.0938
3.9,1.0765,0.01231,0.00538,-0.0936
4,1.09,0.01242,0.00548,-0.0934
4.1,1.1034,0.01254,0.00559,-0.0931
4.2,1.1167,0.01267,0.00571,-0.0929
4.3,1.1301,0.01279,0.00582,-0.0926
4.4,1.1437,0.0129,0.00593,-0.0923
4.5,1.1571,0.01302,0.00605,-0.0921
4.6,1.1705,0.01315,0.00617,-0.0918
4.7,1.1838,0.01328,0.0063,-0.0915
4.8,1.1971,0.01342,0.00644,-0.0911
4.9,1.2106,0.01354,0.00656,-0.0908
5,1.2241,0.01366,0.00669,-0.0905
5.1,1.2375,0.01379,0.00682,-0.0901
5.2,1.2507,0.01394,0.00696,-0.0898
5.3,1.2638,0.01409,0.0071,-0.0894
5.4,1.277,0.01423,0.00725,-0.089
5.5,1.2904,0.01436,0.0074,-0.0886
5.6,1.3038,0.0145,0.00755,-0.0882
5.7,1.3171,0.01464,0.00771,-0.0877
5.8,1.3303,0.01479,0.00787,-0.0873
5.9,1.3434,0.01495,0.00803,-0.0868
6,1.3563,0.01512,0.0082,-0.0863
6.1,1.3693,0.01529,0.00838,-0.0858
6.2,1.3826,0.01543,0.00854,-0.0853
6.3,1.3957,0.01559,0.00872,-0.0848
6.4,1.4087,0.01575,0.0089,-0.0843
6.5,1.4216,0.01593,0.00909,-0.0837
6.6,1.4343,0.01611,0.00928,-0.0831
6.7,1.4469,0.01631,0.00948,-0.0825
6.8,1.4597,0.01649,0.0097,-0.0818
6.9,1.4726,0.01666,0.00991,-0.0812
7,1.4853,0.01684,0.01012,-0.0805
7.1,1.4979,0.01703,0.01034,-0.0798
7.2,1.5104,0.01723,0.01056,-0.0791
7.3,1.5226,0.01744,0.01077,-0.0784
7.4,1.5345,0.01766,0.01102,-0.0776
7.5,1.5466,0.01788,0.01126,-0.0768
7.6,1.5588,0.01808,0.01151,-0.076
7.7,1.5709,0.0183,0.01177,-0.0751
7.8,1.5827,0.01852,0.01204,-0.0742
7.9,1.5942,0.01875,0.01231,-0.0733
8,1.6055,0.019,0.01259,-0.0724
8.1,1.6165,0.01925,0.01287,-0.0713
8.2,1.6271,0.01951,0.01317,-0.0703
8.3,1.6372,0.01979,0.01348,-0.0692
8.4,1.6484,0.02003,0.01377,-0.0681
8.5,1.6586,0.0203,0.01409,-0.067
8.6,1.6686,0.02058,0.01443,-0.0658
8.7,1.6778,0.02087,0.01477,-0.0645
8.8,1.6856,0.02117,0.01511,-0.063
8.9,1.6932,0.02148,0.01548,-0.0615
9,1.7004,0.02182,0.01586,-0.06
9.1,1.7073,0.02219,0.01628,-0.0585
9.2,1.7143,0.02257,0.01671,-0.057
9.3,1.7217,0.02295,0.01717,-0.0556
9.4,1.7289,0.02335,0.01764,-0.0542
9.5,1.7358,0.02378,0.01813,-0.0528
9.6,1.7425,0.02422,0.01865,-0.0514
9.7,1.749,0.02469,0.01919,-0.05
9.8,1.7559,0.02513,0.01968,-0.0488
9.9,1.7619,0.02564,0.02026,-0.0475
10,1.7674,0.02618,0.02087,-0.0463
10.1,1.7726,0.02675,0.02151,-0.0451
10.2,1.7773,0.02737,0.02219,-0.0439
10.3,1.7821,0.02802,0.02293,-0.0428
10.4,1.7866,0.02871,0.02371,-0.0418
10.5,1.7907,0.02944,0.02454,-0.0409
10.6,1.7943,0.03022,0.02541,-0.04
10.7,1.7976,0.03105,0.02633,-0.0392
10.8,1.8006,0.03193,0.02731,-0.0386
10.9,1.8033,0.03285,0.02833,-0.0381
11,1.8058,0.03384,0.02941,-0.0378
11.1,1.8081,0.03488,0.03055,-0.0376
11.2,1.81,0.036,0.03176,-0.0376
11.3,1.8118,0.03718,0.03304,-0.0378
11.4,1.8132,0.03844,0.03439,-0.0383
11.5,1.8143,0.03979,0.03584,-0.0389
11.6,1.815,0.04125,0.03739,-0.0399
11.7,1.8143,0.0429,0.03915,-0.0412
11.8,1.8136,0.04463,0.04101,-0.0426
11.9,1.8119,0.04657,0.04307,-0.0446
12,1.8095,0.04867,0.04529,-0.0469
12.1,1.8066,0.05093,0.04767,-0.0496
12.2,1.8028,0.05338,0.05023,-0.0526
12.3,1.7982,0.05601,0.05297,-0.0559
12.5,1.7862,0.06184,0.05901,-0.0634
12.7,1.7696,0.06843,0.06578,-0.0718
13.2,1.715,0.08691,0.08457,-0.0943
13.3,1.705,0.09042,0.08812,-0.0985
13.4,1.6963,0.09377,0.0915,-0.1026
13.5,1.6892,0.09686,0.09461,-0.1063
13.6,1.6839,0.09965,0.09741,-0.1096
13.7,1.6771,0.10273,0.1005,-0.1134
13.8,1.6596,0.10756,0.10538,-0.1194
13.9,1.6416,0.1126,0.11046,-0.1257
14.1,1.6165,0.12124,0.11914,-0.136
14.2,1.6112,0.12435,0.12226,-0.1395
14.3,1.6116,0.12643,0.12436,-0.1417
14.4,1.6115,0.12856,0.12649,-0.144
14.5,1.6128,0.13042,0.12836,-0.146
14.6,1.6148,0.13212,0.13007,-0.1478
14.7,1.6174,0.13369,0.13165,-0.1494
14.8,1.6205,0.13514,0.13311,-0.1509
14.9,1.6237,0.13653,0.13449,-0.1524
15,1.6056,0.1427,0.14068,-0.1591
15.1,1.6017,0.14585,0.14384,-0.1623
15.2,1.6012,0.1483,0.14631,-0.1648
15.3,1.602,0.15041,0.14843,-0.1669
15.4,1.6036,0.15232,0.15034,-0.1688
15.5,1.6059,0.15406,0.15209,-0.1706
15.6,1.6085,0.15568,0.15373,-0.1722
15.7,1.6115,0.1572,0.15525,-0.1737
15.8,1.6147,0.15865,0.15671,-0.1752
15.9,1.6181,0.16005,0.15812,-0.1766
16,1.6216,0.16137,0.15945,-0.1779
16.1,1.6253,0.16266,0.16075,-0.1793
16.3,1.6183,0.17039,0.16849,-0.1865
16.4,1.6201,0.17248,0.17059,-0.1884
16.5,1.6225,0.17438,0.17249,-0.1902
16.6,1.6253,0.17615,0.17427,-0.1919
16.7,1.6285,0.17781,0.17595,-0.1935
16.8,1.6318,0.17939,0.17754,-0.195
16.9,1.6354,0.18089,0.17904,-0.1964
17,1.6392,0.18232,0.18049,-0.1978
17.1,1.643,0.18371,0.1819,-0.1992
17.2,1.6471,0.18504,0.18324,-0.2005
17.3,1.6512,0.18631,0.18452,-0.2017
17.4,1.6555,0.18753,0.18575,-0.203
17.5,1.6498,0.19346,0.19168,-0.2079
17.6,1.6516,0.19613,0.19436,-0.2102
17.7,1.6548,0.19805,0.19629,-0.212
17.8,1.6582,0.19982,0.19807,-0.2136
17.9,1.662,0.20144,0.19971,-0.2151
18,1.6659,0.20296,0.20123,-0.2166
18.1,1.6702,0.20434,0.20263,-0.2179
18.2,1.6746,0.20562,0.20392,-0.2192
18.3,1.6727,0.21077,0.20906,-0.2233
18.4,1.6756,0.21302,0.21132,-0.2253
18.5,1.6791,0.21494,0.21325,-0.227
18.6,1.6831,0.2166,0.21493,-0.2286
18.7,1.6874,0.21805,0.21638,-0.23
18.8,1.6905,0.22021,0.21854,-0.2319
18.9,1.6914,0.22393,0.22228,-0.2348
19,1.6943,0.22641,0.22476,-0.2369
19.1,1.6978,0.22843,0.2268,-0.2387
19.2,1.7018,0.23017,0.22855,-0.2403
19.3,1.7061,0.23172,0.2301,-0.2417
19.4,1.7078,0.23504,0.23342,-0.2444
19.5,1.7109,0.23753,0.23592,-0.2464
19.6,1.7143,0.2397,0.2381,-0.2483
19.7,1.718,0.24172,0.24013,-0.25
19.8,1.7219,0.2436,0.24201,-0.2517
19.9,1.7258,0.24539,0.24382,-0.2533
20,1.7294,0.24748,0.2459,-0.2551
20.1,1.7323,0.25016,0.24859,-0.2573
20.2,1.7355,0.25266,0.25109,-0.2594
20.3,1.7389,0.255,0.25344,-0.2614
20.4,1.7424,0.25726,0.25571,-0.2633
20.5,1.7461,0.25945,0.25791,-0.2651
20.6,1.7497,0.26157,0.26004,-0.267
20.7,1.7535,0.26366,0.26213,-0.2688
20.9,1.761,0.26791,0.26639,-0.2724
21,1.7643,0.27053,0.269,-0.2746
21.1,1.7677,0.27301,0.27149,-0.2766
21.2,1.7712,0.27544,0.27392,-0.2786
21.3,1.7748,0.27782,0.27631,-0.2806
21.4,1.7784,0.28015,0.27864,-0.2825
21.5,1.7821,0.28244,0.28094,-0.2845
21.6,1.7858,0.28471,0.28321,-0.2864
21.7,1.7895,0.28693,0.28544,-0.2883
21.8,1.7932,0.28914,0.28765,-0.2901
21.9,1.7969,0.29131,0.28983,-0.292
22,1.8007,0.29346,0.29198,-0.2939
22.1,1.8044,0.29561,0.29413,-0.2958
22.2,1.8082,0.29772,0.29624,-0.2976
22.3,1.8119,0.29981,0.29834,-0.2994
22.4,1.8155,0.30245,0.30097,-0.3016
22.5,1.8189,0.30553,0.30405,-0.3039
22.6,1.8225,0.30836,0.30689,-0.3061
22.7,1.8262,0.31105,0.30958,-0.3082
22.8,1.8299,0.31365,0.31219,-0.3103
22.9,1.8336,0.31619,0.31473,-0.3124
23,1.8373,0.3187,0.31725,-0.3144
23.1,1.841,0.32117,0.31972,-0.3164
23.2,1.8448,0.32364,0.32219,-0.3185
23.3,1.8485,0.32606,0.32462,-0.3205
23.4,1.8523,0.32848,0.32703,-0.3225
23.5,1.856,0.33077,0.32933,-0.3245
23.6,1.8597,0.3331,0.33166,-0.3264
23.7,1.8634,0.3354,0.33397,-0.3284
23.8,1.8671,0.33769,0.33628,-0.3304
23.9,1.8707,0.33997,0.33856,-0.3324
24,1.8744,0.34223,0.34082,-0.3343
24.1,1.878,0.34449,0.34309,-0.3363
24.2,1.8816,0.34673,0.34533,-0.3383
24.3,1.8851,0.34896,0.34757,-0.3403
24.4,1.8889,0.3521,0.35069,-0.3426
24.5,1.8929,0.35561,0.35421,-0.3451
24.6,1.8967,0.35863,0.35723,-0.3473
24.7,1.9006,0.36153,0.36014,-0.3496
24.8,1.9043,0.36427,0.36288,-0.3517
24.9,1.9081,0.36699,0.3656,-0.3539
25,1.9118,0.36966,0.36828,-0.356
25.1,1.9155,0.37233,0.37095,-0.3582
25.2,1.9192,0.37493,0.37356,-0.3603
25.3,1.9229,0.37754,0.37617,-0.3625
25.4,1.9265,0.38012,0.37875,-0.3646
25.5,1.9301,0.3827,0.38133,-0.3667
25.6,1.9337,0.38524,0.38388,-0.3688
25.7,1.9373,0.3878,0.38644,-0.371
25.8,1.9409,0.39033,0.38898,-0.3731
25.9,1.9445,0.39287,0.39152,-0.3753
26,1.948,0.39539,0.39404,-0.3774
26.1,1.9515,0.39791,0.39656,-0.3795
26.2,1.955,0.40043,0.39909,-0.3817
26.3,1.9585,0.40293,0.40159,-0.3838
26.4,1.9619,0.40542,0.40409,-0.386
26.5,1.9651,0.40761,0.40629,-0.3881
26.6,1.9684,0.41006,0.40874,-0.3902
26.7,1.9717,0.41245,0.41114,-0.3924
26.8,1.9751,0.41488,0.41357,-0.3946
26.9,1.9852,0.42333,0.42201,-0.3993
27,1.9889,0.42659,0.42529,-0.4016
27.1,1.9923,0.42951,0.42822,-0.4039
27.2,1.9956,0.43232,0.43103,-0.4061
27.3,1.9988,0.4351,0.43381,-0.4082
27.4,2.0017,0.43768,0.43639,-0.4103
27.5,2.0049,0.44044,0.43915,-0.4125

