airfoilName st12.dat
Re 	950000
M 	5.000000e-01
N 	4.500000e+00
VACC 	0 VACCflag 1
XTR 	1.00 	1.00 XTRflag 0
alpha,cl,cd,cdp,cm
-30,-1.7518,0.55233,0.55089,0.371
-29.9,-1.7479,0.5493,0.54786,0.3685
-29.8,-1.744,0.54628,0.54484,0.366
-29.7,-1.7401,0.54327,0.54183,0.3635
-29.6,-1.7362,0.54027,0.53882,0.3611
-29.5,-1.7323,0.53727,0.53582,0.3586
-29.4,-1.7283,0.53428,0.53283,0.3561
-29.3,-1.7243,0.53138,0.52992,0.3536
-29.2,-1.7203,0.5284,0.52694,0.3512
-29.1,-1.7163,0.52542,0.52396,0.3487
-29,-1.7122,0.52245,0.52099,0.3463
-28.9,-1.7082,0.5195,0.51804,0.3438
-28.8,-1.7041,0.51654,0.51508,0.3414
-28.7,-1.7,0.5136,0.51213,0.339
-28.6,-1.6958,0.51066,0.50919,0.3366
-28.5,-1.6917,0.50772,0.50625,0.3341
-28.4,-1.6875,0.5048,0.50333,0.3317
-28.3,-1.6834,0.50189,0.50041,0.3293
-28.2,-1.6792,0.49898,0.4975,0.3269
-28.1,-1.6749,0.49606,0.49458,0.3245
-28,-1.6707,0.49316,0.49168,0.3221
-27.9,-1.6664,0.49025,0.48877,0.3197
-27.8,-1.6622,0.48737,0.48589,0.3174
-27.7,-1.6579,0.48445,0.48297,0.315
-27.6,-1.6535,0.48155,0.48007,0.3126
-27.5,-1.6492,0.47866,0.47718,0.3102
-27.4,-1.6448,0.47577,0.47428,0.3078
-27.3,-1.6404,0.47285,0.47136,0.3054
-27.2,-1.6358,0.46984,0.46835,0.3029
-27.1,-1.6313,0.4669,0.4654,0.3005
-27,-1.6267,0.46385,0.46236,0.2981
-26.8,-1.6158,0.45637,0.45488,0.2922
-26.7,-1.6115,0.4536,0.4521,0.29
-26.6,-1.6071,0.45084,0.44934,0.2878
-26.5,-1.6028,0.44812,0.44662,0.2856
-26.4,-1.5984,0.44541,0.44391,0.2835
-26.3,-1.5941,0.44272,0.44122,0.2813
-26.2,-1.5897,0.44006,0.43855,0.2791
-26.1,-1.5853,0.43741,0.4359,0.2769
-26,-1.5809,0.43477,0.43326,0.2748
-25.9,-1.5764,0.43215,0.43064,0.2726
-25.8,-1.572,0.42955,0.42803,0.2705
-25.7,-1.5675,0.42695,0.42543,0.2683
-25.6,-1.563,0.42435,0.42283,0.2662
-25.5,-1.5585,0.42178,0.42026,0.2641
-25.4,-1.554,0.41922,0.4177,0.2619
-25.3,-1.5495,0.41667,0.41515,0.2598
-25.2,-1.5449,0.41414,0.41262,0.2577
-25.1,-1.5404,0.4116,0.41008,0.2556
-25,-1.5358,0.40908,0.40756,0.2535
-24.9,-1.5312,0.40657,0.40505,0.2515
-24.8,-1.5266,0.40407,0.40254,0.2494
-24.7,-1.522,0.40157,0.40004,0.2473
-24.6,-1.5174,0.39908,0.39755,0.2452
-24.5,-1.5128,0.39661,0.39509,0.2432
-24.4,-1.5081,0.39413,0.3926,0.2411
-24.3,-1.5035,0.39167,0.39014,0.2391
-24.2,-1.4988,0.38922,0.38768,0.2371
-24.1,-1.4941,0.38677,0.38524,0.2351
-24,-1.4894,0.38433,0.38279,0.233
-23.9,-1.4847,0.3819,0.38036,0.231
-23.8,-1.48,0.37948,0.37794,0.229
-23.7,-1.4753,0.37725,0.37571,0.227
-23.6,-1.4705,0.37482,0.37328,0.225
-23.5,-1.4658,0.37241,0.37087,0.223
-23.4,-1.461,0.36999,0.36845,0.2211
-23.3,-1.4563,0.36759,0.36605,0.2191
-23.2,-1.4515,0.3652,0.36365,0.2172
-23.1,-1.4467,0.36281,0.36126,0.2152
-23,-1.4419,0.36043,0.35889,0.2133
-22.9,-1.4371,0.35805,0.3565,0.2114
-22.8,-1.4322,0.35569,0.35414,0.2094
-22.7,-1.4274,0.35334,0.35179,0.2075
-22.6,-1.4226,0.35098,0.34943,0.2056
-22.5,-1.4177,0.34864,0.34708,0.2037
-22.4,-1.4129,0.3463,0.34475,0.2018
-22.3,-1.408,0.34397,0.34241,0.1999
-22.2,-1.4031,0.34164,0.34009,0.1981
-22.1,-1.3982,0.33932,0.33777,0.1962
-22,-1.3933,0.33701,0.33545,0.1943
-21.9,-1.3884,0.33471,0.33315,0.1925
-21.8,-1.3835,0.33241,0.33084,0.1906
-21.7,-1.3786,0.33011,0.32854,0.1888
-21.6,-1.3737,0.32782,0.32625,0.1869
-21.5,-1.3687,0.32553,0.32397,0.1851
-21.4,-1.3638,0.32325,0.32168,0.1832
-21.3,-1.3588,0.32098,0.31941,0.1814
-21.2,-1.3538,0.31869,0.31712,0.1796
-21.1,-1.3489,0.31642,0.31486,0.1777
-21,-1.3439,0.31415,0.31258,0.1759
-20.9,-1.3388,0.31187,0.3103,0.1741
-20.8,-1.3338,0.30959,0.30802,0.1722
-20.7,-1.3287,0.30728,0.30571,0.1704
-20.6,-1.3236,0.30497,0.30339,0.1685
-20.5,-1.3185,0.30263,0.30105,0.1667
-20.4,-1.3133,0.30018,0.2986,0.1648
-20.2,-1.3004,0.29392,0.29236,0.1602
-20.1,-1.2956,0.29168,0.29011,0.1585
-20,-1.2908,0.28944,0.28787,0.1569
-19.9,-1.286,0.28725,0.28567,0.1553
-19.8,-1.2811,0.28507,0.2835,0.1537
-19.7,-1.2763,0.28292,0.28134,0.1521
-19.6,-1.2714,0.28079,0.27922,0.1505
-19.5,-1.2665,0.27868,0.27711,0.1489
-19.4,-1.2616,0.27659,0.27501,0.1473
-19.3,-1.2567,0.27452,0.27294,0.1457
-19.2,-1.2518,0.27246,0.27088,0.1441
-19.1,-1.2469,0.27042,0.26884,0.1425
-19,-1.242,0.26838,0.2668,0.141
-18.9,-1.237,0.26636,0.26478,0.1394
-18.8,-1.2321,0.26435,0.26277,0.1378
-18.7,-1.2271,0.26234,0.26076,0.1363
-18.6,-1.2221,0.26035,0.25877,0.1347
-18.5,-1.2172,0.25862,0.25704,0.1332
-18.4,-1.2122,0.25662,0.25504,0.1316
-18.3,-1.2072,0.25463,0.25305,0.1301
-18.2,-1.2022,0.25265,0.25107,0.1286
-18.1,-1.1971,0.25067,0.24909,0.1271
-18,-1.1921,0.2487,0.24712,0.1256
-17.9,-1.1871,0.24673,0.24515,0.1241
-17.8,-1.182,0.24477,0.24319,0.1226
-17.7,-1.177,0.24281,0.24123,0.1211
-17.6,-1.1719,0.24087,0.23929,0.1196
-17.5,-1.1668,0.23892,0.23734,0.1181
-17.4,-1.1617,0.23698,0.2354,0.1167
-17.3,-1.1566,0.23504,0.23346,0.1152
-17.2,-1.1515,0.23311,0.23153,0.1137
-17.1,-1.1464,0.23118,0.2296,0.1123
-17,-1.1413,0.22925,0.22767,0.1108
-16.9,-1.1361,0.22732,0.22574,0.1094
-16.8,-1.1309,0.22539,0.22381,0.1079
-16.7,-1.1256,0.22347,0.22188,0.1065
-16.6,-1.1204,0.22154,0.21996,0.1051
-16.5,-1.1152,0.21962,0.21804,0.1036
-16.4,-1.1099,0.21771,0.21612,0.1022
-16.3,-1.1046,0.21579,0.2142,0.1008
-16.2,-1.0993,0.21388,0.21229,0.0993
-16.1,-1.094,0.21197,0.21038,0.0979
-16,-1.0886,0.21006,0.20847,0.0965
-15.9,-1.0833,0.20815,0.20656,0.0951
-15.8,-1.0779,0.20624,0.20466,0.0937
-15.7,-1.0725,0.20434,0.20275,0.0922
-15.6,-1.0671,0.20244,0.20085,0.0908
-15.5,-1.0617,0.20053,0.19895,0.0894
-15.4,-1.0563,0.19863,0.19705,0.088
-15.3,-1.0508,0.19673,0.19515,0.0866
-15.2,-1.0453,0.19483,0.19325,0.0852
-15.1,-1.0399,0.19293,0.19135,0.0838
-15,-1.0344,0.19103,0.18944,0.0824
-14.9,-1.0288,0.18911,0.18753,0.081
-14.8,-1.0233,0.18721,0.18563,0.0796
-14.7,-1.0177,0.18529,0.1837,0.0783
-14.6,-1.0121,0.18333,0.18175,0.0769
-14.5,-1.0064,0.18135,0.17977,0.0755
-14.4,-1.0007,0.17934,0.17776,0.0741
-14.3,-0.995,0.1773,0.17572,0.0727
-14.2,-0.9891,0.17516,0.17358,0.0713
-14.1,-0.983,0.17292,0.17134,0.0698
-14,-0.9765,0.17067,0.16908,0.0683
-13.8,-0.9629,0.16651,0.16494,0.0651
-13.7,-0.9577,0.16475,0.16317,0.0639
-13.6,-0.9527,0.163,0.16143,0.0627
-13.5,-0.9474,0.16127,0.1597,0.0615
-13.4,-0.942,0.15955,0.15797,0.0603
-13.3,-0.9366,0.15784,0.15627,0.0591
-13.2,-0.9312,0.15615,0.15458,0.0579
-13.1,-0.9257,0.15447,0.1529,0.0566
-13,-0.9202,0.1528,0.15123,0.0554
-12.9,-0.9147,0.15115,0.14958,0.0542
-12.8,-0.9091,0.14951,0.14794,0.053
-12.7,-0.9035,0.14788,0.14631,0.0518
-12.6,-0.8978,0.14626,0.1447,0.0505
-12.5,-0.8921,0.14466,0.1431,0.0493
-12.4,-0.8863,0.14307,0.14151,0.0481
-12.3,-0.8806,0.1415,0.13995,0.0468
-12.2,-0.8747,0.13994,0.13838,0.0456
-12.1,-0.8689,0.13839,0.13684,0.0444
-12,-0.8629,0.13685,0.1353,0.0432
-11.9,-0.857,0.13533,0.13378,0.0419
-11.8,-0.851,0.13382,0.13227,0.0407
-11.7,-0.845,0.13232,0.13077,0.0395
-11.6,-0.8389,0.13083,0.12928,0.0382
-11.5,-0.8327,0.12934,0.1278,0.037
-11.4,-0.8265,0.12787,0.12632,0.0357
-11.3,-0.8203,0.1264,0.12486,0.0345
-11.2,-0.814,0.12495,0.12341,0.0332
-11.1,-0.8076,0.1235,0.12196,0.032
-11,-0.8012,0.12206,0.12052,0.0307
-10.9,-0.7948,0.12063,0.1191,0.0295
-10.8,-0.7884,0.11922,0.11769,0.0282
-10.7,-0.7819,0.11781,0.11628,0.0269
-10.6,-0.7753,0.11641,0.11488,0.0257
-10.5,-0.7687,0.11501,0.11349,0.0244
-10.4,-0.762,0.11362,0.1121,0.0231
-10.3,-0.7553,0.11223,0.11071,0.0218
-10.2,-0.7486,0.11085,0.10934,0.0206
-10.1,-0.7418,0.10948,0.10797,0.0193
-10,-0.7349,0.10812,0.10662,0.018
-9.9,-0.7281,0.10677,0.10527,0.0167
-9.8,-0.7211,0.10543,0.10392,0.0154
-9.7,-0.7141,0.10408,0.10259,0.0141
-9.6,-0.7071,0.10275,0.10125,0.0128
-9.5,-0.7,0.10142,0.09993,0.0115
-9.4,-0.6929,0.1001,0.09861,0.0101
-9.3,-0.6857,0.09879,0.0973,0.0088
-9.2,-0.6786,0.09748,0.096,0.0075
-9.1,-0.6713,0.09618,0.09471,0.0062
-9,-0.6641,0.09489,0.09342,0.0048
-8.9,-0.6568,0.09361,0.09213,0.0035
-8.8,-0.6496,0.09234,0.09087,0.0022
-8.7,-0.6423,0.09108,0.08961,0.0009
-8.6,-0.6328,0.08966,0.08819,-0.0011
-8.5,-0.6225,0.08819,0.08672,-0.0033
-8.4,-0.6114,0.08667,0.0852,-0.0056
-8.3,-0.6013,0.08523,0.08376,-0.0077
-8.2,-0.5912,0.08381,0.08233,-0.0098
-8.1,-0.5816,0.08243,0.08094,-0.0117
-8,-0.5726,0.08109,0.0796,-0.0134
-7.9,-0.5644,0.07982,0.07832,-0.0149
-7.8,-0.5561,0.0783,0.07678,-0.0166
-7.7,-0.5481,0.07706,0.07553,-0.0181
-7.6,-0.5403,0.07583,0.07428,-0.0196
-7.5,-0.5303,0.07449,0.07292,-0.0217
-7.4,-0.5197,0.07309,0.0715,-0.0238
-7.3,-0.5083,0.07164,0.07003,-0.0262
-7.2,-0.4973,0.07022,0.06857,-0.0284
-7.1,-0.4853,0.06871,0.06705,-0.0309
-7,-0.4729,0.06715,0.06546,-0.0335
-6.9,-0.4603,0.06557,0.06385,-0.036
-6.8,-0.4474,0.06399,0.06224,-0.0386
-6.7,-0.4337,0.06235,0.06057,-0.0414
-6.6,-0.4197,0.06072,0.05893,-0.0441
-6.5,-0.4057,0.05927,0.05744,-0.0469
-6.4,-0.3917,0.05787,0.05598,-0.0496
-6.3,-0.3768,0.05643,0.05452,-0.0524
-6.2,-0.3617,0.05501,0.05307,-0.0552
-6.1,-0.3464,0.05361,0.05163,-0.0579
-6,-0.3307,0.05221,0.05019,-0.0606
-5.9,-0.315,0.05081,0.04875,-0.0632
-5.8,-0.299,0.04941,0.04731,-0.0658
-5.7,-0.2825,0.04797,0.04582,-0.0684
-5.6,-0.266,0.04651,0.04432,-0.0709
-5.5,-0.2493,0.04504,0.0428,-0.0734
-5.2,-0.1982,0.04035,0.03793,-0.0808
-5.1,-0.1806,0.03863,0.03615,-0.0833
-5,-0.1627,0.0368,0.03424,-0.0858
-4.9,-0.1446,0.03478,0.03214,-0.0883
-4.8,-0.1263,0.03248,0.02972,-0.091
-4.7,-0.107,0.02953,0.02662,-0.0941
-4.6,-0.0861,0.02392,0.02067,-0.099
-4.5,-0.0703,0.01608,0.01214,-0.104
-4.4,-0.0557,0.01438,0.01016,-0.1048
-4.3,-0.0409,0.01332,0.00886,-0.1052
-4.2,-0.026,0.01253,0.00786,-0.1053
-4.1,-0.0113,0.01192,0.00706,-0.1053
-4,0.0037,0.01142,0.0064,-0.1052
-3.9,0.0186,0.01103,0.00586,-0.1051
-3.8,0.0335,0.01069,0.00539,-0.105
-3.7,0.0485,0.0104,0.00499,-0.1048
-3.6,0.0629,0.0102,0.00465,-0.1046
-3.5,0.0777,0.00999,0.00434,-0.1044
-3.4,0.0917,0.00989,0.0041,-0.1041
-3.3,0.1065,0.00974,0.00388,-0.104
-3.2,0.1211,0.00962,0.0037,-0.1039
-3.1,0.1355,0.00957,0.00363,-0.1037
-3,0.1497,0.0095,0.00346,-0.1035
-2.9,0.1642,0.00942,0.00331,-0.1034
-2.8,0.1785,0.00936,0.00318,-0.1032
-2.7,0.1928,0.0093,0.00307,-0.1031
-2.6,0.2068,0.00928,0.00298,-0.1029
-2.5,0.2208,0.00928,0.0029,-0.1028
-2.4,0.2351,0.00924,0.00282,-0.1027
-2.3,0.2494,0.0092,0.00274,-0.1026
-2.2,0.2636,0.00917,0.00267,-0.1025
-2.1,0.2779,0.00914,0.00263,-0.1024
-2,0.292,0.00913,0.00257,-0.1023
-1.9,0.3057,0.00916,0.00252,-0.1022
-1.8,0.3199,0.00913,0.00248,-0.1021
-1.7,0.3339,0.00913,0.00245,-0.1021
-1.6,0.3481,0.00912,0.0024,-0.102
-1.5,0.3619,0.00913,0.00237,-0.1019
-1.4,0.376,0.00912,0.00234,-0.1019
-1.3,0.39,0.00912,0.00232,-0.1018
-1.2,0.4035,0.00919,0.00231,-0.1017
-1.1,0.4175,0.00918,0.00229,-0.1017
-1,0.4314,0.00919,0.00228,-0.1017
-0.9,0.4452,0.00923,0.00227,-0.1016
-0.8,0.4591,0.00925,0.00226,-0.1016
-0.7,0.473,0.00926,0.00225,-0.1015
-0.6,0.4869,0.00928,0.00226,-0.1015
-0.5,0.5002,0.00936,0.00228,-0.1014
-0.4,0.514,0.00939,0.00228,-0.1014
-0.3,0.5278,0.00942,0.00229,-0.1013
-0.2,0.5414,0.00947,0.00231,-0.1013
-0.1,0.5551,0.00952,0.00232,-0.1012
0,0.5687,0.00956,0.00235,-0.1012
0.1,0.5823,0.00963,0.00237,-0.1011
0.2,0.5951,0.00977,0.00243,-0.101
0.3,0.6085,0.00986,0.00247,-0.101
0.4,0.6217,0.00997,0.00252,-0.1009
0.5,0.6349,0.01007,0.00257,-0.1008
0.6,0.6481,0.01019,0.00263,-0.1007
0.7,0.6613,0.01029,0.00268,-0.1006
0.8,0.6747,0.01039,0.00274,-0.1006
0.9,0.6882,0.01044,0.00279,-0.1005
1,0.7017,0.01052,0.00285,-0.1005
1.1,0.7151,0.01061,0.0029,-0.1004
1.2,0.7287,0.01067,0.00295,-0.1003
1.3,0.7424,0.01072,0.003,-0.1003
1.4,0.7562,0.01076,0.00305,-0.1003
1.5,0.7699,0.01081,0.0031,-0.1002
1.6,0.7835,0.01088,0.00316,-0.1001
1.7,0.7973,0.01092,0.0032,-0.1001
1.8,0.811,0.01096,0.00325,-0.1
1.9,0.8245,0.01102,0.00331,-0.1
2,0.8382,0.01107,0.00338,-0.0999
2.1,0.8521,0.0111,0.00343,-0.0999
2.2,0.8659,0.01114,0.00348,-0.0998
2.5,0.897,0.00969,0.00373,-0.098
2.6,0.9109,0.00976,0.00379,-0.0979
2.7,0.9247,0.00983,0.00385,-0.0978
2.8,0.9386,0.00991,0.00391,-0.0977
2.9,0.9521,0.01003,0.00398,-0.0976
3,0.9658,0.01012,0.00406,-0.0974
3.1,0.9797,0.01019,0.00413,-0.0973
3.2,0.9936,0.01027,0.0042,-0.0972
3.3,1.0074,0.01036,0.00427,-0.097
3.4,1.0212,0.01045,0.00434,-0.0969
3.5,1.0349,0.01055,0.00443,-0.0967
3.6,1.0486,0.01065,0.00452,-0.0966
3.7,1.0625,0.01073,0.00459,-0.0964
3.8,1.0764,0.01082,0.00467,-0.0962
3.9,1.09,0.01092,0.00476,-0.096
4,1.1038,0.01103,0.00485,-0.0958
4.1,1.1174,0.01114,0.00494,-0.0956
4.2,1.1313,0.01123,0.00503,-0.0954
4.3,1.1451,0.01132,0.00512,-0.0952
4.4,1.159,0.01142,0.00522,-0.095
4.5,1.1728,0.01152,0.00531,-0.0947
4.6,1.1865,0.01163,0.00542,-0.0945
4.7,1.2002,0.01174,0.00553,-0.0942
4.8,1.2138,0.01187,0.00564,-0.0939
4.9,1.2277,0.01197,0.00574,-0.0937
5,1.2415,0.01207,0.00585,-0.0934
5.1,1.2553,0.01219,0.00596,-0.0931
5.2,1.269,0.0123,0.00607,-0.0927
5.3,1.2827,0.01243,0.00619,-0.0924
5.4,1.2962,0.01257,0.00632,-0.0921
5.5,1.3101,0.01267,0.00644,-0.0917
5.6,1.3239,0.01279,0.00657,-0.0913
5.7,1.3377,0.01291,0.0067,-0.091
5.8,1.3513,0.01304,0.00683,-0.0906
5.9,1.3649,0.01318,0.00697,-0.0902
6,1.3784,0.01332,0.00711,-0.0897
6.1,1.392,0.01346,0.00726,-0.0893
6.2,1.4057,0.01359,0.0074,-0.0888
6.3,1.4195,0.01372,0.00754,-0.0884
6.4,1.4331,0.01385,0.00769,-0.0879
6.5,1.4467,0.01399,0.00784,-0.0874
6.6,1.4602,0.01414,0.00801,-0.0869
6.7,1.4736,0.0143,0.00818,-0.0863
6.8,1.4868,0.01448,0.00836,-0.0857
6.9,1.5004,0.01462,0.00852,-0.0852
7,1.5139,0.01477,0.00869,-0.0846
7.1,1.5273,0.01493,0.00887,-0.084
7.2,1.5407,0.01509,0.00905,-0.0833
7.3,1.5539,0.01526,0.00924,-0.0827
7.4,1.567,0.01544,0.00943,-0.082
7.5,1.58,0.01563,0.00964,-0.0813
7.6,1.5929,0.01582,0.00985,-0.0805
7.7,1.6061,0.01599,0.01006,-0.0798
7.8,1.6192,0.01617,0.01027,-0.079
7.9,1.6321,0.01635,0.01048,-0.0782
8,1.6448,0.01655,0.0107,-0.0774
8.1,1.6574,0.01675,0.01093,-0.0765
8.2,1.6697,0.01697,0.01117,-0.0756
8.3,1.6817,0.0172,0.01143,-0.0746
8.4,1.6939,0.01741,0.01169,-0.0736
8.5,1.7061,0.01762,0.01194,-0.0726
8.6,1.718,0.01784,0.0122,-0.0716
8.7,1.7297,0.01807,0.01247,-0.0705
8.8,1.7411,0.01831,0.01275,-0.0694
8.9,1.7523,0.01855,0.01304,-0.0682
9,1.7631,0.01881,0.01334,-0.067
9.1,1.7735,0.01908,0.01365,-0.0657
9.2,1.7831,0.01938,0.01397,-0.0644
9.3,1.793,0.01965,0.0143,-0.063
9.4,1.8012,0.01993,0.01464,-0.0614
9.5,1.809,0.02023,0.01499,-0.0597
9.6,1.8166,0.02055,0.01537,-0.058
9.7,1.8241,0.02089,0.01576,-0.0564
9.8,1.8315,0.02125,0.01618,-0.0548
9.9,1.8388,0.02163,0.01661,-0.0532
10,1.8459,0.02202,0.01707,-0.0517
10.1,1.8527,0.02244,0.01755,-0.0501
10.2,1.8592,0.02289,0.01805,-0.0486
10.3,1.8654,0.02337,0.0186,-0.0471
10.4,1.8714,0.02387,0.01917,-0.0456
10.5,1.8774,0.02439,0.01977,-0.0442
10.6,1.8828,0.02495,0.02041,-0.0428
10.7,1.8879,0.02554,0.02108,-0.0414
10.8,1.8936,0.02612,0.02173,-0.0402
10.9,1.8981,0.02679,0.02248,-0.039
11,1.9023,0.0275,0.02327,-0.0378
11.1,1.9062,0.02825,0.02411,-0.0368
11.2,1.9097,0.02906,0.025,-0.0358
11.3,1.9149,0.02978,0.02578,-0.035
11.4,1.9178,0.03068,0.02676,-0.0343
11.5,1.9202,0.03165,0.02782,-0.0338
11.6,1.9218,0.03273,0.02899,-0.0334
11.7,1.923,0.03388,0.03025,-0.0332
11.8,1.9236,0.03514,0.03161,-0.0333
11.9,1.9239,0.03648,0.03306,-0.0336
12,1.9238,0.03794,0.03462,-0.0342
12.1,1.9231,0.03951,0.03631,-0.0351
12.2,1.9219,0.0412,0.03811,-0.0364
12.3,1.9203,0.04304,0.04005,-0.0379
12.4,1.9181,0.04503,0.04215,-0.0399
12.5,1.9153,0.04718,0.04441,-0.0422
12.6,1.9117,0.0495,0.04683,-0.0448
12.7,1.9074,0.05199,0.04945,-0.0478
12.8,1.9022,0.05467,0.05222,-0.051
13,1.8887,0.06055,0.05829,-0.0583
13.2,1.8706,0.0671,0.065,-0.0662
13.3,1.8598,0.0706,0.06856,-0.0703
13.5,1.8361,0.07783,0.07591,-0.0787
13.6,1.8239,0.08145,0.07958,-0.0829
13.7,1.8119,0.08502,0.08318,-0.0871
13.8,1.8007,0.08851,0.08671,-0.0913
13.9,1.7904,0.0919,0.09012,-0.0954
14,1.7823,0.095,0.09323,-0.0991
14.2,1.7618,0.10175,0.10005,-0.1075
14.3,1.7522,0.10511,0.10342,-0.1117
14.4,1.7429,0.10842,0.10677,-0.1158
14.5,1.7341,0.11172,0.11009,-0.1199
14.6,1.7253,0.11505,0.11344,-0.124
14.7,1.717,0.11831,0.11673,-0.128
14.9,1.7013,0.12485,0.12331,-0.136
15,1.6942,0.12804,0.12652,-0.1398
15.1,1.6882,0.13106,0.12955,-0.1434
15.2,1.6838,0.13384,0.13235,-0.1467
15.3,1.6805,0.13648,0.135,-0.1497
15.4,1.6785,0.13891,0.13744,-0.1524
15.5,1.6782,0.14101,0.13955,-0.1548
15.6,1.6788,0.14293,0.14149,-0.1569
15.7,1.6801,0.14472,0.14328,-0.1589
15.8,1.6739,0.148,0.14657,-0.1627
15.9,1.6616,0.15269,0.15127,-0.168
16,1.6551,0.1563,0.15489,-0.1719
16.1,1.6529,0.15911,0.15771,-0.1748
16.2,1.6527,0.16144,0.16005,-0.1772
16.3,1.6535,0.16352,0.16214,-0.1794
16.4,1.6552,0.16545,0.16408,-0.1813
16.5,1.6605,0.16655,0.16519,-0.1823
16.6,1.6634,0.1682,0.16685,-0.1839
16.7,1.6665,0.16978,0.16843,-0.1855
16.8,1.6661,0.17235,0.171,-0.1881
16.9,1.6611,0.17621,0.17487,-0.1918
17,1.6604,0.17899,0.17766,-0.1945
17.1,1.6612,0.1814,0.18008,-0.1968
17.2,1.6629,0.18356,0.18225,-0.1988
17.3,1.6653,0.18555,0.18425,-0.2007
17.4,1.6682,0.1874,0.18611,-0.2024
17.5,1.6726,0.18886,0.18757,-0.2038
17.6,1.6765,0.19042,0.18914,-0.2052
17.7,1.6808,0.19188,0.19061,-0.2066
17.8,1.6812,0.19457,0.1933,-0.2091
17.9,1.6794,0.19817,0.19691,-0.2123
18,1.6805,0.20084,0.19959,-0.2147
18.1,1.6828,0.20312,0.20187,-0.2167
18.2,1.6859,0.20513,0.2039,-0.2185
18.3,1.6901,0.20672,0.20549,-0.2199
18.4,1.6946,0.20821,0.20699,-0.2213
18.5,1.6952,0.21123,0.21002,-0.2239
18.6,1.6962,0.21418,0.21298,-0.2265
18.7,1.6988,0.2165,0.2153,-0.2285
18.8,1.7022,0.21846,0.21727,-0.2302
18.9,1.7063,0.22016,0.21897,-0.2317
19,1.7083,0.22275,0.22158,-0.234
19.1,1.7111,0.22507,0.2239,-0.236
19.2,1.7145,0.22709,0.22592,-0.2377
19.3,1.7183,0.22892,0.22776,-0.2393
19.4,1.7224,0.23068,0.22953,-0.2409
19.5,1.7255,0.23285,0.2317,-0.2428
19.6,1.7287,0.23504,0.23389,-0.2447
19.7,1.7319,0.2372,0.23607,-0.2466
19.8,1.7352,0.23938,0.23825,-0.2485
19.9,1.7386,0.24153,0.24042,-0.2503
20.1,1.7465,0.24531,0.24419,-0.2536
20.2,1.7494,0.2477,0.24659,-0.2557
20.3,1.7523,0.25016,0.24905,-0.2578
20.4,1.7552,0.25262,0.25152,-0.2599
20.5,1.7582,0.25508,0.25398,-0.262
20.6,1.7612,0.25756,0.25646,-0.2641
20.7,1.7642,0.26002,0.25893,-0.2662
20.8,1.7674,0.26244,0.26136,-0.2682
20.9,1.7706,0.26486,0.26377,-0.2703
21,1.774,0.26722,0.26614,-0.2723
21.1,1.7773,0.26957,0.2685,-0.2743
21.2,1.7807,0.2719,0.27083,-0.2763
21.3,1.7842,0.27419,0.27312,-0.2782
21.4,1.7877,0.27647,0.2754,-0.2802
21.5,1.7907,0.27918,0.27811,-0.2824
21.6,1.7934,0.28217,0.2811,-0.2849
21.7,1.7963,0.28505,0.28399,-0.2872
21.8,1.7994,0.28781,0.28675,-0.2895
21.9,1.8027,0.29051,0.28946,-0.2917
22,1.806,0.29315,0.2921,-0.2938
22.1,1.8094,0.29573,0.29468,-0.296
22.2,1.8129,0.29827,0.29723,-0.2981
22.3,1.8164,0.30078,0.29973,-0.3001
22.4,1.82,0.30327,0.30222,-0.3022
22.5,1.8236,0.30571,0.30468,-0.3042
22.6,1.8272,0.30815,0.30712,-0.3062
22.7,1.8308,0.31055,0.30952,-0.3082
22.8,1.8344,0.31295,0.31192,-0.3102
22.9,1.8381,0.31532,0.31429,-0.3122
23.1,1.8455,0.31974,0.31872,-0.3161
23.2,1.8491,0.32203,0.32101,-0.318
23.3,1.8527,0.32435,0.32333,-0.32
23.4,1.8561,0.32819,0.32717,-0.3227
23.5,1.8597,0.33129,0.33027,-0.3251
23.6,1.8633,0.33414,0.33313,-0.3273
23.7,1.867,0.33688,0.33587,-0.3294
23.8,1.8707,0.3396,0.33859,-0.3316
23.9,1.8744,0.34224,0.34123,-0.3337
24,1.8782,0.34487,0.34387,-0.3358
24.1,1.8818,0.34743,0.34644,-0.3379
24.2,1.8855,0.34999,0.349,-0.34
24.3,1.8892,0.35253,0.35154,-0.3421
24.4,1.8928,0.35506,0.35407,-0.3442
24.5,1.8965,0.35756,0.35658,-0.3462
24.6,1.9001,0.36006,0.35908,-0.3483
24.7,1.9038,0.36254,0.36156,-0.3504
24.8,1.9074,0.36501,0.36403,-0.3525
24.9,1.911,0.36748,0.36651,-0.3545
25,1.9145,0.36994,0.36897,-0.3566
25.1,1.9181,0.37238,0.37141,-0.3587
25.2,1.9216,0.37482,0.37386,-0.3608
25.3,1.9251,0.37724,0.37629,-0.3628
25.4,1.9286,0.37967,0.37872,-0.3649
25.5,1.9321,0.3821,0.38114,-0.367
25.6,1.9355,0.38452,0.38358,-0.3691
25.7,1.939,0.38695,0.386,-0.3712
25.8,1.9424,0.38937,0.38843,-0.3734
25.9,1.9476,0.39516,0.39421,-0.3765
26,1.9512,0.39801,0.39706,-0.3788
26.1,1.9549,0.40089,0.39995,-0.381
26.2,1.9586,0.4037,0.40276,-0.3833
26.3,1.9622,0.40644,0.4055,-0.3855
26.4,1.9657,0.40922,0.40828,-0.3877
26.5,1.9693,0.41196,0.41102,-0.3899
26.6,1.9728,0.41467,0.41373,-0.3922
26.7,1.9763,0.41738,0.41645,-0.3944
26.8,1.9798,0.42008,0.41915,-0.3966
26.9,1.9832,0.42276,0.42183,-0.3988
27,1.9867,0.42543,0.42451,-0.4011
27.1,1.9901,0.42809,0.42718,-0.4033
27.2,1.9934,0.43075,0.42984,-0.4055
27.3,1.9968,0.4334,0.4325,-0.4077
27.4,2.0001,0.43605,0.43515,-0.41
27.5,2.0034,0.43869,0.43779,-0.4122
27.6,2.007,0.44149,0.4406,-0.4146
27.7,2.0098,0.44386,0.44297,-0.4167

