airfoilName st12.dat
Re 	910000
M 	5.000000e-01
N 	4.500000e+00
VACC 	0 VACCflag 1
XTR 	1.00 	1.00 XTRflag 0
alpha,cl,cd,cdp,cm
-30,-1.7517,0.55237,0.55089,0.371
-29.9,-1.7478,0.54934,0.54786,0.3685
-29.8,-1.7439,0.54631,0.54483,0.366
-29.7,-1.74,0.5433,0.54181,0.3635
-29.6,-1.7361,0.54029,0.5388,0.361
-29.5,-1.7321,0.53728,0.5358,0.3585
-29.4,-1.7282,0.53429,0.5328,0.356
-29.3,-1.7242,0.53136,0.52987,0.3535
-29.2,-1.7201,0.52838,0.52689,0.3511
-29.1,-1.7161,0.52539,0.52389,0.3486
-29,-1.712,0.52242,0.52091,0.3461
-28.9,-1.708,0.51946,0.51796,0.3437
-28.8,-1.7039,0.51649,0.51499,0.3413
-28.7,-1.6998,0.51354,0.51204,0.3388
-28.6,-1.6956,0.51059,0.50908,0.3364
-28.5,-1.6915,0.50764,0.50613,0.334
-28.4,-1.6873,0.50472,0.5032,0.3316
-28.3,-1.6831,0.50179,0.50028,0.3292
-28.2,-1.6789,0.49887,0.49736,0.3268
-28.1,-1.6747,0.49594,0.49442,0.3243
-28,-1.6704,0.49302,0.4915,0.3219
-27.9,-1.6661,0.4901,0.48858,0.3195
-27.8,-1.6618,0.48719,0.48567,0.3171
-27.7,-1.6575,0.48425,0.48272,0.3147
-27.6,-1.6531,0.48131,0.47979,0.3123
-27.5,-1.6487,0.47839,0.47686,0.3099
-27.4,-1.6443,0.47544,0.47391,0.3074
-27.3,-1.6398,0.47244,0.47091,0.305
-27.1,-1.6287,0.4648,0.46327,0.2989
-27,-1.6244,0.46198,0.46045,0.2966
-26.9,-1.6201,0.45918,0.45765,0.2944
-26.8,-1.6158,0.45643,0.4549,0.2922
-26.7,-1.6115,0.45368,0.45214,0.29
-26.6,-1.6071,0.45095,0.44941,0.2878
-26.5,-1.6028,0.44825,0.44671,0.2856
-26.4,-1.5984,0.44556,0.44402,0.2834
-26.3,-1.5941,0.44289,0.44134,0.2812
-26.2,-1.5897,0.44024,0.4387,0.2791
-26.1,-1.5853,0.4376,0.43605,0.2769
-26,-1.5808,0.43497,0.43342,0.2747
-25.9,-1.5764,0.43235,0.4308,0.2726
-25.8,-1.5719,0.42975,0.4282,0.2704
-25.7,-1.5675,0.42716,0.4256,0.2683
-25.6,-1.563,0.42456,0.423,0.2661
-25.5,-1.5584,0.42199,0.42043,0.264
-25.4,-1.5539,0.41943,0.41788,0.2619
-25.3,-1.5494,0.41689,0.41533,0.2598
-25.2,-1.5448,0.41435,0.41279,0.2577
-25.1,-1.5403,0.41181,0.41025,0.2556
-25,-1.5357,0.40929,0.40772,0.2535
-24.9,-1.5311,0.40678,0.40521,0.2514
-24.8,-1.5265,0.40427,0.4027,0.2493
-24.7,-1.5219,0.40177,0.4002,0.2472
-24.6,-1.5173,0.39927,0.3977,0.2452
-24.5,-1.5126,0.3968,0.39523,0.2431
-24.4,-1.508,0.39432,0.39274,0.2411
-24.3,-1.5033,0.39185,0.39027,0.239
-24.2,-1.4987,0.38939,0.38781,0.237
-24.1,-1.494,0.38694,0.38536,0.235
-24,-1.4893,0.3845,0.38292,0.233
-23.9,-1.4846,0.38206,0.38048,0.231
-23.7,-1.4751,0.3774,0.37582,0.2269
-23.6,-1.4704,0.37496,0.37338,0.2249
-23.5,-1.4656,0.37255,0.37096,0.223
-23.4,-1.4608,0.37012,0.36854,0.221
-23.3,-1.4561,0.36772,0.36613,0.219
-23.2,-1.4513,0.36532,0.36373,0.2171
-23.1,-1.4465,0.36293,0.36134,0.2151
-23,-1.4417,0.36055,0.35896,0.2132
-22.9,-1.4368,0.35816,0.35657,0.2113
-22.8,-1.432,0.3558,0.35421,0.2093
-22.7,-1.4272,0.35344,0.35185,0.2074
-22.6,-1.4223,0.35108,0.34948,0.2055
-22.5,-1.4175,0.34873,0.34713,0.2036
-22.4,-1.4126,0.34639,0.34479,0.2017
-22.3,-1.4077,0.34405,0.34245,0.1998
-22.2,-1.4028,0.34172,0.34012,0.1979
-22.1,-1.398,0.3394,0.3378,0.1961
-22,-1.393,0.33708,0.33547,0.1942
-21.9,-1.3881,0.33477,0.33316,0.1923
-21.8,-1.3832,0.33246,0.33085,0.1905
-21.7,-1.3783,0.33016,0.32855,0.1886
-21.6,-1.3733,0.32786,0.32625,0.1868
-21.5,-1.3684,0.32557,0.32396,0.1849
-21.4,-1.3634,0.32328,0.32167,0.1831
-21.3,-1.3584,0.32099,0.31938,0.1812
-21.2,-1.3534,0.31869,0.31708,0.1793
-21.1,-1.3484,0.31642,0.3148,0.1775
-21,-1.3434,0.31412,0.31251,0.1756
-20.9,-1.3384,0.31182,0.31021,0.1738
-20.8,-1.3333,0.30951,0.3079,0.1719
-20.7,-1.3281,0.30714,0.30552,0.17
-20.6,-1.3229,0.30472,0.3031,0.1681
-20.4,-1.3101,0.29846,0.29685,0.1634
-20.3,-1.3053,0.29618,0.29457,0.1618
-20.2,-1.3005,0.29394,0.29232,0.1601
-20.1,-1.2956,0.29172,0.29011,0.1585
-20,-1.2908,0.28952,0.28791,0.1569
-19.9,-1.2859,0.28736,0.28574,0.1553
-19.8,-1.2811,0.28521,0.28359,0.1536
-19.7,-1.2762,0.28308,0.28146,0.152
-19.6,-1.2713,0.28097,0.27936,0.1504
-19.5,-1.2664,0.27888,0.27727,0.1488
-19.4,-1.2615,0.2768,0.27518,0.1472
-19.3,-1.2566,0.27474,0.27312,0.1456
-19.2,-1.2517,0.27269,0.27107,0.144
-19.1,-1.2467,0.27065,0.26903,0.1425
-19,-1.2418,0.26862,0.26699,0.1409
-18.9,-1.2368,0.2666,0.26497,0.1393
-18.8,-1.2319,0.26459,0.26296,0.1378
-18.7,-1.2269,0.26258,0.26096,0.1362
-18.6,-1.2219,0.26059,0.25896,0.1346
-18.5,-1.2169,0.25886,0.25723,0.1331
-18.4,-1.2119,0.25685,0.25523,0.1315
-18.3,-1.2069,0.25486,0.25323,0.13
-18.2,-1.2019,0.25287,0.25125,0.1285
-18.1,-1.1968,0.25089,0.24926,0.127
-18,-1.1918,0.24891,0.24729,0.1254
-17.9,-1.1867,0.24694,0.24531,0.1239
-17.8,-1.1817,0.24497,0.24334,0.1225
-17.7,-1.1766,0.24301,0.24138,0.121
-17.6,-1.1715,0.24106,0.23943,0.1195
-17.5,-1.1665,0.2391,0.23747,0.118
-17.4,-1.1614,0.23715,0.23553,0.1165
-17.3,-1.1563,0.23521,0.23359,0.1151
-17.2,-1.1512,0.23327,0.23165,0.1136
-17.1,-1.146,0.23134,0.22971,0.1122
-17,-1.1409,0.2294,0.22778,0.1107
-16.9,-1.1357,0.22747,0.22584,0.1093
-16.8,-1.1305,0.22553,0.2239,0.1078
-16.7,-1.1252,0.2236,0.22197,0.1064
-16.6,-1.12,0.22167,0.22004,0.1049
-16.5,-1.1147,0.21974,0.21811,0.1035
-16.4,-1.1094,0.21782,0.21619,0.102
-16.3,-1.1042,0.2159,0.21427,0.1006
-16.2,-1.0988,0.21397,0.21235,0.0992
-16.1,-1.0935,0.21206,0.21043,0.0978
-16,-1.0882,0.21014,0.20851,0.0963
-15.9,-1.0828,0.20822,0.2066,0.0949
-15.8,-1.0774,0.20631,0.20468,0.0935
-15.7,-1.072,0.2044,0.20277,0.0921
-15.6,-1.0666,0.20249,0.20086,0.0907
-15.5,-1.0612,0.20057,0.19894,0.0893
-15.4,-1.0557,0.19866,0.19703,0.0878
-15.3,-1.0503,0.19674,0.19512,0.0864
-15.2,-1.0448,0.19483,0.19321,0.085
-15.1,-1.0393,0.19291,0.19129,0.0836
-15,-1.0338,0.19099,0.18936,0.0822
-14.9,-1.0282,0.18905,0.18742,0.0808
-14.8,-1.0227,0.18712,0.18549,0.0794
-14.7,-1.0171,0.18516,0.18353,0.078
-14.6,-1.0114,0.18315,0.18152,0.0766
-14.5,-1.0057,0.18111,0.17949,0.0752
-14.4,-0.9999,0.17899,0.17736,0.0738
-14.3,-0.994,0.17679,0.17516,0.0724
-14.2,-0.9876,0.17445,0.17282,0.0708
-14.1,-0.9805,0.17217,0.17053,0.0692
-14,-0.9736,0.17009,0.16848,0.0675
-13.9,-0.9684,0.16831,0.16669,0.0663
-13.8,-0.9631,0.16654,0.16492,0.0651
-13.7,-0.9582,0.1648,0.16318,0.0639
-13.6,-0.9528,0.16306,0.16145,0.0627
-13.5,-0.9474,0.16134,0.15972,0.0615
-13.4,-0.942,0.15962,0.15801,0.0602
-13.3,-0.9366,0.15792,0.15631,0.059
-13.2,-0.9311,0.15624,0.15463,0.0578
-13.1,-0.9257,0.15457,0.15296,0.0566
-13,-0.9202,0.15292,0.15131,0.0554
-12.9,-0.9146,0.15128,0.14967,0.0542
-12.8,-0.909,0.14965,0.14804,0.0529
-12.7,-0.9033,0.14802,0.14642,0.0517
-12.6,-0.8976,0.14642,0.14481,0.0505
-12.5,-0.8919,0.14482,0.14322,0.0492
-12.4,-0.8861,0.14324,0.14164,0.048
-12.3,-0.8803,0.14167,0.14007,0.0468
-12.2,-0.8744,0.14011,0.13851,0.0455
-12.1,-0.8685,0.13857,0.13697,0.0443
-12,-0.8626,0.13702,0.13543,0.0431
-11.9,-0.8566,0.13551,0.13392,0.0418
-11.8,-0.8506,0.134,0.13241,0.0406
-11.7,-0.8446,0.1325,0.13091,0.0394
-11.6,-0.8385,0.13101,0.12942,0.0381
-11.5,-0.8323,0.12952,0.12793,0.0369
-11.4,-0.8261,0.12805,0.12646,0.0356
-11.3,-0.8198,0.12658,0.125,0.0344
-11.2,-0.8135,0.12512,0.12354,0.0331
-11.1,-0.8071,0.12367,0.12209,0.0319
-11,-0.8008,0.12223,0.12065,0.0306
-10.9,-0.7944,0.1208,0.11923,0.0294
-10.8,-0.7879,0.11938,0.11781,0.0281
-10.7,-0.7814,0.11797,0.1164,0.0269
-10.6,-0.7749,0.11656,0.115,0.0256
-10.5,-0.7682,0.11516,0.1136,0.0243
-10.4,-0.7616,0.11376,0.1122,0.0231
-10.3,-0.7549,0.11237,0.11082,0.0218
-10.2,-0.7481,0.11099,0.10944,0.0205
-10.1,-0.7413,0.10962,0.10807,0.0192
-10,-0.7345,0.10825,0.10671,0.0179
-9.9,-0.7276,0.1069,0.10535,0.0166
-9.8,-0.7207,0.10555,0.104,0.0153
-9.7,-0.7137,0.1042,0.10266,0.014
-9.6,-0.7067,0.10286,0.10132,0.0127
-9.5,-0.6996,0.10153,0.09999,0.0114
-9.4,-0.6925,0.1002,0.09867,0.0101
-9.3,-0.6854,0.09888,0.09736,0.0088
-9.2,-0.6782,0.09757,0.09605,0.0075
-9.1,-0.671,0.09627,0.09475,0.0061
-9,-0.6638,0.09497,0.09346,0.0048
-8.9,-0.6565,0.09369,0.09217,0.0035
-8.8,-0.6493,0.09241,0.0909,0.0021
-8.7,-0.6421,0.09114,0.08964,0.0008
-8.6,-0.6346,0.08986,0.08836,-0.0006
-8.5,-0.6234,0.08833,0.08682,-0.003
-8.4,-0.6129,0.08684,0.08534,-0.0052
-8.3,-0.6021,0.08535,0.08384,-0.0075
-8.2,-0.5916,0.08387,0.08236,-0.0097
-8.1,-0.5818,0.08247,0.08095,-0.0116
-8,-0.5723,0.08108,0.07956,-0.0135
-7.9,-0.5633,0.07946,0.07793,-0.0154
-7.8,-0.5552,0.07818,0.07662,-0.0169
-7.7,-0.5471,0.07692,0.07535,-0.0184
-7.6,-0.5388,0.07563,0.07405,-0.0201
-7.5,-0.5291,0.07429,0.07269,-0.022
-7.4,-0.5184,0.07285,0.07123,-0.0243
-7.3,-0.5073,0.07139,0.06975,-0.0266
-7.2,-0.4956,0.06989,0.06823,-0.029
-7.1,-0.4843,0.06841,0.06672,-0.0313
-7,-0.4717,0.06682,0.0651,-0.0339
-6.7,-0.4326,0.06217,0.06038,-0.0417
-6.6,-0.4192,0.06076,0.05894,-0.0444
-6.5,-0.4052,0.05935,0.0575,-0.0471
-6.4,-0.3908,0.05795,0.05607,-0.0499
-6.3,-0.3765,0.05659,0.05466,-0.0525
-6.2,-0.3613,0.0552,0.05324,-0.0552
-6.1,-0.346,0.05381,0.05181,-0.0579
-6,-0.3306,0.05243,0.0504,-0.0605
-5.9,-0.3149,0.05104,0.04897,-0.063
-5.8,-0.2989,0.04964,0.04752,-0.0656
-5.7,-0.2827,0.04822,0.04606,-0.0681
-5.6,-0.2662,0.04676,0.04455,-0.0707
-5.5,-0.2495,0.04528,0.04303,-0.0732
-5.3,-0.2157,0.04221,0.03984,-0.0781
-5.2,-0.1984,0.04058,0.03815,-0.0806
-5.1,-0.181,0.03887,0.03637,-0.083
-5,-0.1631,0.03702,0.03445,-0.0856
-4.9,-0.1449,0.03498,0.03232,-0.0882
-4.8,-0.1263,0.03262,0.02985,-0.0909
-4.7,-0.107,0.02957,0.02664,-0.0941
-4.5,-0.0698,0.017,0.01316,-0.1036
-4.4,-0.0554,0.01494,0.01077,-0.1046
-4.3,-0.0406,0.01372,0.0093,-0.105
-4.2,-0.0258,0.01283,0.00819,-0.1052
-4.1,-0.0109,0.01216,0.00731,-0.1053
-4,0.0039,0.01163,0.00661,-0.1052
-3.9,0.0188,0.01119,0.00602,-0.1051
-3.8,0.0337,0.01083,0.00553,-0.105
-3.7,0.0486,0.01053,0.0051,-0.1049
-3.6,0.063,0.01032,0.00474,-0.1046
-3.5,0.0779,0.0101,0.00443,-0.1045
-3.4,0.0921,0.00997,0.00418,-0.1042
-3.3,0.1066,0.00983,0.00396,-0.104
-3.1,0.1356,0.00966,0.00369,-0.1037
-3,0.1502,0.00955,0.00351,-0.1036
-2.9,0.1644,0.0095,0.00336,-0.1034
-2.8,0.1788,0.00941,0.00323,-0.1033
-2.7,0.193,0.00937,0.00312,-0.1031
-2.6,0.207,0.00935,0.00303,-0.103
-2.5,0.2209,0.00934,0.00294,-0.1028
-2.4,0.2352,0.00932,0.00285,-0.1027
-2.3,0.2495,0.00926,0.00277,-0.1026
-2.2,0.2636,0.00924,0.00273,-0.1025
-2.1,0.2779,0.00921,0.00266,-0.1024
-2,0.2921,0.00919,0.0026,-0.1023
-1.9,0.3057,0.00922,0.00255,-0.1022
-1.8,0.3199,0.0092,0.00251,-0.1021
-1.7,0.334,0.00918,0.00247,-0.1021
-1.6,0.348,0.00918,0.00243,-0.102
-1.5,0.3619,0.00919,0.00239,-0.1019
-1.4,0.376,0.00918,0.00237,-0.1019
-1.3,0.39,0.00918,0.00234,-0.1018
-1.2,0.4035,0.00925,0.00233,-0.1017
-1.1,0.4174,0.00924,0.00231,-0.1017
-1,0.4314,0.00925,0.0023,-0.1016
-0.9,0.4451,0.00929,0.00229,-0.1016
-0.8,0.459,0.00931,0.00228,-0.1015
-0.7,0.4729,0.00932,0.00228,-0.1015
-0.6,0.4867,0.00934,0.00228,-0.1014
-0.5,0.5001,0.00942,0.00229,-0.1014
-0.4,0.5139,0.00944,0.0023,-0.1013
-0.3,0.5276,0.00948,0.00231,-0.1013
-0.2,0.5413,0.00952,0.00232,-0.1012
-0.1,0.555,0.00955,0.00234,-0.1012
0,0.5686,0.00961,0.00237,-0.1011
0.1,0.5821,0.00968,0.00239,-0.1011
0.2,0.5957,0.00974,0.00242,-0.101
0.3,0.6084,0.0099,0.00248,-0.1009
0.4,0.6217,0.01,0.00252,-0.1008
0.5,0.6349,0.01009,0.00258,-0.1008
0.6,0.648,0.01022,0.00263,-0.1007
0.7,0.6611,0.01033,0.00269,-0.1006
0.8,0.6745,0.01043,0.00275,-0.1005
0.9,0.6879,0.0105,0.00281,-0.1004
1,0.7014,0.01058,0.00285,-0.1004
1.1,0.7147,0.01068,0.00292,-0.1003
1.2,0.7283,0.01074,0.00297,-0.1003
1.3,0.7419,0.0108,0.00303,-0.1002
1.4,0.7556,0.01084,0.00307,-0.1002
1.5,0.7693,0.01089,0.00312,-0.1001
1.6,0.783,0.01094,0.00317,-0.1
1.7,0.7967,0.011,0.00323,-0.1
1.8,0.8104,0.01104,0.00328,-0.0999
1.9,0.8242,0.01107,0.00334,-0.0999
2,0.8376,0.01115,0.0034,-0.0998
2.1,0.8514,0.01119,0.00346,-0.0998
2.2,0.8652,0.01122,0.00352,-0.0997
2.5,0.8963,0.00977,0.00375,-0.0979
2.6,0.91,0.00986,0.00382,-0.0978
2.7,0.9239,0.00993,0.00388,-0.0977
2.8,0.9377,0.01001,0.00395,-0.0975
2.9,0.9513,0.01011,0.00402,-0.0974
3,0.9649,0.01021,0.00409,-0.0973
3.1,0.9788,0.0103,0.00417,-0.0971
3.2,0.9926,0.01038,0.00424,-0.097
3.3,1.0064,0.01046,0.00431,-0.0969
3.4,1.0202,0.01055,0.00438,-0.0967
3.5,1.0339,0.01065,0.00447,-0.0966
3.6,1.0476,0.01075,0.00455,-0.0964
3.7,1.0614,0.01084,0.00464,-0.0962
3.8,1.0753,0.01093,0.00472,-0.096
3.9,1.0889,0.01103,0.0048,-0.0958
4,1.1027,0.01113,0.00489,-0.0956
4.1,1.1164,0.01124,0.00499,-0.0954
4.2,1.13,0.01135,0.00509,-0.0952
4.3,1.1439,0.01144,0.00518,-0.095
4.4,1.1577,0.01153,0.00527,-0.0948
4.5,1.1715,0.01163,0.00537,-0.0945
4.6,1.1853,0.01174,0.00548,-0.0943
4.7,1.199,0.01186,0.00558,-0.094
4.8,1.2124,0.01199,0.0057,-0.0937
4.9,1.2263,0.01209,0.0058,-0.0934
5,1.2401,0.0122,0.00591,-0.0931
5.1,1.2539,0.01231,0.00602,-0.0928
5.2,1.2676,0.01242,0.00614,-0.0925
5.3,1.2812,0.01255,0.00626,-0.0922
5.4,1.2948,0.01268,0.00638,-0.0918
5.5,1.3085,0.01281,0.00652,-0.0915
5.6,1.3223,0.01292,0.00665,-0.0911
5.7,1.336,0.01304,0.00678,-0.0907
5.8,1.3497,0.01316,0.00691,-0.0903
5.9,1.3632,0.01331,0.00704,-0.0899
6,1.3768,0.01345,0.00719,-0.0895
6.1,1.3902,0.0136,0.00734,-0.089
6.2,1.4038,0.01373,0.00749,-0.0885
6.3,1.4175,0.01386,0.00763,-0.0881
6.4,1.4312,0.014,0.00778,-0.0876
6.5,1.4447,0.01414,0.00794,-0.0871
6.6,1.4582,0.01429,0.0081,-0.0866
6.7,1.4716,0.01444,0.00827,-0.086
6.8,1.4849,0.01461,0.00845,-0.0854
6.9,1.4981,0.01478,0.00863,-0.0848
7,1.5116,0.01493,0.0088,-0.0843
7.1,1.525,0.01509,0.00898,-0.0836
7.2,1.5383,0.01525,0.00916,-0.083
7.3,1.5515,0.01542,0.00935,-0.0823
7.4,1.5646,0.0156,0.00955,-0.0816
7.5,1.5775,0.01579,0.00975,-0.0809
7.6,1.5903,0.01599,0.00997,-0.0802
7.7,1.6033,0.01617,0.01019,-0.0794
7.8,1.6163,0.01635,0.01041,-0.0786
7.9,1.6291,0.01654,0.01062,-0.0778
8,1.6418,0.01673,0.01084,-0.077
8.1,1.6543,0.01693,0.01107,-0.0761
8.2,1.6666,0.01715,0.01132,-0.0752
8.3,1.6786,0.01738,0.01157,-0.0742
8.4,1.6902,0.01762,0.01184,-0.0732
8.5,1.7023,0.01783,0.0121,-0.0722
8.6,1.7141,0.01805,0.01236,-0.0711
8.7,1.7257,0.01828,0.01264,-0.07
8.8,1.737,0.01852,0.01293,-0.0689
8.9,1.748,0.01877,0.01322,-0.0677
9,1.7586,0.01903,0.01353,-0.0665
9.1,1.7689,0.01931,0.01384,-0.0652
9.2,1.7785,0.01959,0.01416,-0.0639
9.3,1.7868,0.01989,0.0145,-0.0623
9.4,1.7948,0.02018,0.01485,-0.0607
9.5,1.8025,0.02049,0.01522,-0.059
9.6,1.8101,0.02082,0.0156,-0.0574
9.7,1.8176,0.02117,0.01601,-0.0558
9.8,1.8251,0.02154,0.01644,-0.0542
9.9,1.8323,0.02192,0.01688,-0.0527
10,1.8393,0.02233,0.01735,-0.0511
10.1,1.8461,0.02276,0.01784,-0.0496
10.2,1.8526,0.02321,0.01835,-0.0481
10.3,1.8588,0.0237,0.01891,-0.0466
10.4,1.8645,0.02422,0.0195,-0.0452
10.5,1.8701,0.02477,0.02011,-0.0438
10.6,1.8755,0.02534,0.02077,-0.0424
10.7,1.8804,0.02595,0.02146,-0.0411
10.9,1.8903,0.02724,0.02291,-0.0388
11,1.8943,0.02797,0.02372,-0.0377
11.1,1.898,0.02875,0.02459,-0.0367
11.2,1.9012,0.02958,0.02551,-0.0358
11.3,1.9041,0.03046,0.02648,-0.0351
11.4,1.9091,0.03125,0.02732,-0.0344
11.5,1.9114,0.03225,0.02841,-0.034
11.6,1.9135,0.03331,0.02956,-0.0337
11.7,1.9146,0.0345,0.03085,-0.0336
11.8,1.9152,0.03579,0.03224,-0.0338
11.9,1.9153,0.03717,0.03374,-0.0343
12,1.9149,0.03867,0.03535,-0.035
12.1,1.9141,0.04029,0.03708,-0.036
12.2,1.9127,0.04204,0.03894,-0.0374
12.3,1.9108,0.04394,0.04095,-0.0391
12.4,1.9084,0.046,0.04312,-0.0412
12.5,1.9053,0.04822,0.04545,-0.0437
12.7,1.8967,0.05319,0.05063,-0.0496
12.8,1.891,0.05595,0.05349,-0.0529
12.9,1.8842,0.05889,0.05654,-0.0566
13,1.8765,0.06201,0.05974,-0.0604
13.1,1.8675,0.06528,0.06309,-0.0644
13.2,1.8573,0.0687,0.06659,-0.0685
13.4,1.8342,0.0759,0.07391,-0.077
13.5,1.8223,0.07952,0.07758,-0.0811
13.6,1.8102,0.08314,0.08124,-0.0853
13.7,1.7987,0.08668,0.08482,-0.0896
13.8,1.7877,0.09015,0.08832,-0.0938
13.9,1.7777,0.09351,0.09171,-0.0979
14.1,1.763,0.09953,0.09776,-0.1051
14.3,1.7437,0.10622,0.1045,-0.1134
14.4,1.7341,0.10962,0.10793,-0.1176
14.5,1.7252,0.11295,0.11129,-0.1218
14.6,1.7158,0.1164,0.11476,-0.126
14.7,1.7072,0.11975,0.11814,-0.1302
14.8,1.6984,0.1232,0.12162,-0.1344
14.9,1.6905,0.1265,0.12493,-0.1384
15,1.6829,0.1298,0.12825,-0.1423
15.1,1.6773,0.1328,0.13127,-0.1459
15.2,1.6727,0.13567,0.13415,-0.1492
15.3,1.6702,0.13816,0.13665,-0.152
15.4,1.669,0.1405,0.139,-0.1546
15.5,1.6689,0.14258,0.14109,-0.1569
15.6,1.6699,0.14446,0.14297,-0.1589
15.7,1.6717,0.14617,0.14469,-0.1608
15.8,1.6717,0.14822,0.14674,-0.1631
15.9,1.6564,0.15359,0.15213,-0.1692
16.1,1.648,0.16004,0.15861,-0.1759
16.2,1.6481,0.16231,0.16089,-0.1783
16.3,1.6492,0.16436,0.16294,-0.1803
16.4,1.651,0.16626,0.16485,-0.1822
16.5,1.6533,0.16806,0.16667,-0.184
16.6,1.656,0.16974,0.16835,-0.1857
16.7,1.6622,0.17063,0.16925,-0.1865
16.8,1.6659,0.17209,0.17071,-0.1879
17,1.6579,0.17949,0.17812,-0.1951
17.1,1.6587,0.18195,0.18059,-0.1974
17.2,1.6604,0.18414,0.18279,-0.1994
17.3,1.6627,0.18615,0.18481,-0.2013
17.4,1.6656,0.18801,0.18668,-0.203
17.5,1.6699,0.1895,0.18817,-0.2044
17.6,1.6737,0.19106,0.18975,-0.2059
17.7,1.6779,0.19254,0.19123,-0.2072
17.8,1.6823,0.19396,0.19266,-0.2086
17.9,1.6782,0.19836,0.19706,-0.2125
18,1.679,0.20119,0.1999,-0.215
18.1,1.6811,0.20354,0.20226,-0.2171
18.2,1.684,0.20561,0.20434,-0.219
18.3,1.6881,0.20727,0.20601,-0.2204
18.4,1.6925,0.20879,0.20754,-0.2218
18.5,1.6947,0.21118,0.20993,-0.2239
18.6,1.6949,0.21451,0.21326,-0.2268
18.7,1.6973,0.21694,0.2157,-0.2289
18.8,1.7006,0.21897,0.21774,-0.2307
18.9,1.7045,0.22073,0.21951,-0.2322
19,1.7071,0.22308,0.22186,-0.2343
19.1,1.7096,0.22555,0.22435,-0.2364
19.2,1.7128,0.22768,0.22649,-0.2382
19.3,1.7164,0.22962,0.22843,-0.2399
19.4,1.7206,0.23132,0.23013,-0.2414
19.5,1.7238,0.23348,0.2323,-0.2433
19.6,1.7269,0.23572,0.23454,-0.2452
19.7,1.7301,0.23792,0.23675,-0.2472
19.8,1.7334,0.24011,0.23895,-0.2491
19.9,1.7367,0.24227,0.24112,-0.2509
20,1.7402,0.24437,0.24323,-0.2527
20.2,1.7478,0.24832,0.24718,-0.2562
20.3,1.7508,0.25074,0.2496,-0.2582
20.4,1.7538,0.25318,0.25204,-0.2603
20.5,1.7569,0.25562,0.25449,-0.2624
20.7,1.763,0.26053,0.2594,-0.2666
20.8,1.7663,0.26294,0.26182,-0.2686
20.9,1.7695,0.26535,0.26423,-0.2707
21,1.7728,0.26771,0.2666,-0.2727
21.1,1.7762,0.27005,0.26894,-0.2747
21.2,1.7797,0.27238,0.27127,-0.2766
21.3,1.7832,0.27466,0.27355,-0.2786
21.4,1.7867,0.27692,0.27582,-0.2805
21.5,1.7903,0.27915,0.27806,-0.2824
21.6,1.793,0.28215,0.28105,-0.2849
21.7,1.7959,0.2851,0.284,-0.2873
21.8,1.799,0.28789,0.2868,-0.2895
21.9,1.8022,0.29061,0.28953,-0.2918
22,1.8055,0.29327,0.29218,-0.2939
22.1,1.809,0.29586,0.29477,-0.296
22.2,1.8125,0.29841,0.29733,-0.2981
22.3,1.816,0.30092,0.29984,-0.3002
22.4,1.8195,0.30341,0.30234,-0.3022
22.5,1.8231,0.30587,0.3048,-0.3043
22.6,1.8267,0.30831,0.30724,-0.3063
22.7,1.8304,0.31071,0.30965,-0.3083
22.8,1.834,0.31311,0.31205,-0.3103
22.9,1.8377,0.31549,0.31443,-0.3123
23.1,1.8451,0.31993,0.31888,-0.3161
23.2,1.8487,0.32222,0.32117,-0.3181
23.3,1.8524,0.32453,0.32348,-0.3201
23.4,1.8559,0.32739,0.32634,-0.3224
23.5,1.8594,0.33095,0.3299,-0.3249
23.6,1.863,0.33393,0.33288,-0.3272
23.7,1.8667,0.33673,0.3357,-0.3294
23.8,1.8705,0.3395,0.33846,-0.3315
23.9,1.8742,0.34217,0.34114,-0.3337
24,1.8779,0.34483,0.3438,-0.3358
24.1,1.8816,0.34741,0.34638,-0.3379
24.2,1.8853,0.34998,0.34896,-0.34
24.3,1.8889,0.35254,0.35152,-0.342
24.4,1.8926,0.35508,0.35407,-0.3441
24.5,1.8963,0.3576,0.35658,-0.3462
24.6,1.8999,0.36011,0.35909,-0.3483
24.7,1.9036,0.3626,0.36159,-0.3504
24.8,1.9072,0.36508,0.36407,-0.3524
24.9,1.9108,0.36756,0.36656,-0.3545
25,1.9144,0.37002,0.36902,-0.3566
25.1,1.9179,0.37247,0.37148,-0.3587
25.2,1.9215,0.37492,0.37393,-0.3608
25.3,1.925,0.37736,0.37637,-0.3628
25.4,1.9285,0.37979,0.3788,-0.3649
25.5,1.932,0.38222,0.38124,-0.367
25.6,1.9354,0.38465,0.38367,-0.3691
25.7,1.9389,0.38708,0.3861,-0.3712
25.8,1.9423,0.38951,0.38853,-0.3734
25.9,1.9457,0.39191,0.39094,-0.3755
26,1.9509,0.39771,0.39673,-0.3787
26.1,1.9547,0.40066,0.39969,-0.3809
26.2,1.9583,0.40352,0.40255,-0.3832
26.3,1.9619,0.40629,0.40532,-0.3854
26.4,1.9655,0.4091,0.40813,-0.3876
26.5,1.9691,0.41186,0.4109,-0.3899
26.6,1.9726,0.41459,0.41362,-0.3921
26.7,1.9762,0.41732,0.41636,-0.3943
26.8,1.9797,0.42004,0.41908,-0.3966
26.9,1.9831,0.42273,0.42177,-0.3988
27,1.9866,0.42541,0.42447,-0.401
27.1,1.99,0.42809,0.42715,-0.4032
27.2,1.9934,0.43076,0.42982,-0.4055
27.3,1.9967,0.43342,0.43249,-0.4077
27.4,2.0001,0.43608,0.43515,-0.41
27.5,2.0034,0.43873,0.4378,-0.4122
27.6,2.007,0.44156,0.44063,-0.4145
27.7,2.0096,0.44366,0.44274,-0.4166

