airfoilName st12.dat
Re 	330000
M 	5.000000e-01
N 	4.500000e+00
VACC 	0 VACCflag 1
XTR 	1.00 	1.00 XTRflag 0
alpha,cl,cd,cdp,cm
-30,-1.7467,0.55177,0.54904,0.3667
-29.9,-1.7427,0.54871,0.54597,0.3642
-29.8,-1.7388,0.54563,0.54289,0.3618
-29.7,-1.7348,0.54259,0.53984,0.3593
-29.6,-1.7308,0.53956,0.53681,0.3568
-29.5,-1.7268,0.53654,0.53379,0.3544
-29.4,-1.7228,0.53352,0.53077,0.3519
-29.3,-1.7188,0.53053,0.52777,0.3494
-29.2,-1.7147,0.52754,0.52478,0.347
-29.1,-1.7107,0.52457,0.5218,0.3446
-29,-1.7066,0.5216,0.51882,0.3421
-28.9,-1.7025,0.51866,0.51588,0.3397
-28.8,-1.6983,0.51571,0.51293,0.3373
-28.7,-1.6942,0.51279,0.51001,0.3349
-28.6,-1.6901,0.50988,0.5071,0.3325
-28.5,-1.6859,0.50697,0.50418,0.33
-28.4,-1.6817,0.50409,0.5013,0.3277
-28.3,-1.6775,0.50122,0.49843,0.3253
-28.2,-1.6733,0.49837,0.49558,0.3229
-28.1,-1.669,0.49552,0.49272,0.3205
-28,-1.6648,0.49269,0.48989,0.3181
-27.9,-1.6605,0.48987,0.48706,0.3157
-27.8,-1.6563,0.48707,0.48426,0.3134
-27.7,-1.6519,0.48429,0.48148,0.311
-27.6,-1.6476,0.48151,0.47869,0.3086
-27.5,-1.6433,0.47875,0.47593,0.3063
-27.4,-1.6389,0.47601,0.47319,0.304
-27.3,-1.6346,0.47331,0.47049,0.3016
-27.2,-1.6302,0.47062,0.46779,0.2992
-27.1,-1.6258,0.46795,0.46512,0.2969
-27,-1.6214,0.4653,0.46247,0.2945
-26.9,-1.6169,0.46268,0.45985,0.2921
-26.8,-1.6125,0.46007,0.45723,0.2898
-26.7,-1.608,0.45751,0.45466,0.2874
-26.6,-1.6035,0.45503,0.45218,0.285
-26.4,-1.5932,0.45329,0.45045,0.2777
-26.3,-1.5887,0.45043,0.44759,0.2755
-26.2,-1.5842,0.44758,0.44474,0.2734
-26.1,-1.5797,0.44475,0.4419,0.2712
-26,-1.5752,0.44195,0.4391,0.2691
-25.9,-1.5707,0.43915,0.4363,0.2669
-25.8,-1.5661,0.43636,0.43351,0.2648
-25.7,-1.5615,0.43359,0.43074,0.2626
-25.6,-1.5569,0.43083,0.42797,0.2605
-25.5,-1.5523,0.42809,0.42523,0.2584
-25.4,-1.5478,0.42537,0.42252,0.2563
-25.3,-1.5431,0.42266,0.4198,0.2542
-25.2,-1.5385,0.41995,0.41709,0.2521
-25.1,-1.5339,0.41726,0.41439,0.25
-25,-1.5292,0.41458,0.41172,0.2479
-24.9,-1.5245,0.41192,0.40905,0.2459
-24.8,-1.5199,0.40926,0.40639,0.2438
-24.7,-1.5152,0.40662,0.40375,0.2417
-24.6,-1.5105,0.40399,0.40111,0.2397
-24.5,-1.5058,0.40137,0.39849,0.2377
-24.4,-1.501,0.39875,0.39586,0.2356
-24.3,-1.4963,0.39615,0.39326,0.2336
-24.2,-1.4915,0.39356,0.39067,0.2316
-24.1,-1.4868,0.39097,0.38808,0.2296
-24,-1.482,0.3884,0.38551,0.2276
-23.9,-1.4772,0.38584,0.38295,0.2256
-23.8,-1.4725,0.38329,0.3804,0.2236
-23.7,-1.4677,0.38075,0.37785,0.2217
-23.6,-1.4629,0.37822,0.37532,0.2197
-23.5,-1.458,0.37571,0.3728,0.2178
-23.4,-1.4532,0.37319,0.37029,0.2158
-23.3,-1.4484,0.37069,0.36779,0.2139
-23.2,-1.4435,0.36821,0.3653,0.212
-23.1,-1.4387,0.36573,0.36282,0.21
-23,-1.4338,0.36327,0.36036,0.2081
-22.9,-1.429,0.36081,0.3579,0.2062
-22.8,-1.4241,0.35837,0.35545,0.2043
-22.7,-1.4192,0.35594,0.35302,0.2025
-22.6,-1.4143,0.35351,0.3506,0.2006
-22.5,-1.4094,0.3511,0.34818,0.1987
-22.4,-1.4045,0.3487,0.34578,0.1968
-22.3,-1.3996,0.34631,0.34339,0.195
-22.2,-1.3947,0.34392,0.341,0.1931
-22.1,-1.3898,0.34156,0.33863,0.1913
-22,-1.3848,0.3392,0.33627,0.1895
-21.9,-1.3799,0.33686,0.33392,0.1876
-21.8,-1.375,0.33452,0.33158,0.1858
-21.7,-1.37,0.3322,0.32926,0.184
-21.6,-1.365,0.32989,0.32695,0.1822
-21.5,-1.3601,0.32758,0.32464,0.1804
-21.4,-1.3551,0.32529,0.32235,0.1786
-21.3,-1.3501,0.32302,0.32008,0.1768
-21.2,-1.3451,0.32075,0.31781,0.1751
-21.1,-1.3402,0.3185,0.31555,0.1733
-21,-1.3352,0.31626,0.31331,0.1715
-20.9,-1.3302,0.31402,0.31108,0.1697
-20.8,-1.3252,0.3118,0.30886,0.168
-20.7,-1.3202,0.3096,0.30665,0.1662
-20.6,-1.3151,0.30739,0.30445,0.1645
-20.5,-1.3101,0.30521,0.30226,0.1627
-20.4,-1.305,0.30355,0.3006,0.1607
-20.3,-1.2999,0.30136,0.29841,0.1589
-20.2,-1.2948,0.29918,0.29623,0.1572
-20.1,-1.2897,0.29701,0.29405,0.1554
-20,-1.2846,0.29483,0.29188,0.1537
-19.9,-1.2794,0.29266,0.28971,0.1519
-19.8,-1.2742,0.29048,0.28753,0.1502
-19.7,-1.269,0.28829,0.28534,0.1484
-19.6,-1.2638,0.2861,0.28315,0.1467
-19.5,-1.2585,0.28389,0.28093,0.1449
-19.4,-1.2532,0.28165,0.27868,0.1432
-19.3,-1.2479,0.27938,0.27642,0.1414
-19.2,-1.2424,0.27704,0.27408,0.1396
-18.9,-1.2236,0.26883,0.26588,0.1336
-18.8,-1.2186,0.26667,0.26371,0.1321
-18.7,-1.2137,0.26452,0.26157,0.1306
-18.6,-1.2087,0.26238,0.25943,0.1291
-18.5,-1.2037,0.26026,0.25731,0.1276
-18.4,-1.1987,0.25815,0.2552,0.1261
-18.3,-1.1937,0.25606,0.2531,0.1246
-18.2,-1.1887,0.25397,0.25101,0.1231
-18.1,-1.1837,0.25189,0.24894,0.1216
-18,-1.1786,0.24983,0.24687,0.1201
-17.9,-1.1736,0.24777,0.24482,0.1187
-17.8,-1.1685,0.24573,0.24277,0.1172
-17.7,-1.1634,0.24369,0.24073,0.1157
-17.6,-1.1584,0.24166,0.23871,0.1143
-17.5,-1.1533,0.23964,0.23669,0.1128
-17.4,-1.1482,0.23764,0.23468,0.1114
-17.3,-1.1431,0.23564,0.23269,0.11
-17.2,-1.1379,0.23365,0.2307,0.1085
-17.1,-1.1328,0.23167,0.22872,0.1071
-17,-1.1276,0.22969,0.22674,0.1057
-16.9,-1.1225,0.22773,0.22477,0.1043
-16.8,-1.1173,0.22577,0.22281,0.1029
-16.7,-1.1121,0.22381,0.22085,0.1015
-16.6,-1.1068,0.22187,0.2189,0.1001
-16.5,-1.1016,0.21992,0.21696,0.0986
-16.4,-1.0963,0.21799,0.21502,0.0973
-16.3,-1.091,0.21606,0.2131,0.0959
-16.2,-1.0857,0.21414,0.21118,0.0945
-16.1,-1.0804,0.21223,0.20926,0.0931
-16,-1.0751,0.21032,0.20736,0.0917
-15.9,-1.0698,0.20842,0.20546,0.0904
-15.8,-1.0645,0.20653,0.20357,0.089
-15.7,-1.0591,0.20464,0.20168,0.0876
-15.6,-1.0537,0.20276,0.19981,0.0863
-15.5,-1.0483,0.20089,0.19794,0.0849
-15.4,-1.0427,0.19924,0.19628,0.0835
-15.3,-1.0373,0.19737,0.19442,0.0821
-15.2,-1.0319,0.19551,0.19256,0.0808
-15.1,-1.0265,0.19366,0.19071,0.0795
-15,-1.021,0.19182,0.18887,0.0782
-14.9,-1.0156,0.18998,0.18704,0.0768
-14.8,-1.0101,0.18816,0.18521,0.0755
-14.7,-1.0047,0.18634,0.1834,0.0742
-14.6,-0.9992,0.18453,0.18158,0.0729
-14.5,-0.9937,0.18272,0.17978,0.0716
-14.4,-0.9881,0.18092,0.17798,0.0703
-14.3,-0.9826,0.17913,0.17618,0.069
-14.2,-0.977,0.17734,0.17439,0.0678
-14.1,-0.9714,0.17556,0.17261,0.0665
-14,-0.9658,0.17379,0.17084,0.0652
-13.9,-0.9602,0.17202,0.16907,0.0639
-13.8,-0.9545,0.17026,0.16732,0.0626
-13.7,-0.9489,0.16851,0.16557,0.0614
-13.6,-0.9432,0.16676,0.16382,0.0601
-13.5,-0.9375,0.16502,0.16209,0.0588
-13.4,-0.9318,0.16329,0.16036,0.0576
-13.3,-0.9261,0.16157,0.15863,0.0563
-13.2,-0.9204,0.15985,0.15692,0.055
-13.1,-0.9146,0.15814,0.15521,0.0538
-13,-0.9089,0.15644,0.15351,0.0525
-12.9,-0.9031,0.15473,0.15181,0.0513
-12.8,-0.8972,0.15304,0.15012,0.05
-12.7,-0.8914,0.15134,0.14843,0.0488
-12.6,-0.8855,0.14965,0.14674,0.0475
-12.5,-0.8795,0.14797,0.14506,0.0463
-12.4,-0.8736,0.14628,0.14337,0.045
-12.3,-0.8676,0.14458,0.14167,0.0437
-12.2,-0.8616,0.1429,0.13999,0.0425
-12.1,-0.8555,0.14119,0.13829,0.0412
-12,-0.8494,0.1395,0.1366,0.04
-11.9,-0.8433,0.13778,0.13488,0.0387
-11.8,-0.837,0.13604,0.13314,0.0374
-11.7,-0.8307,0.13426,0.13136,0.0361
-11.6,-0.8242,0.13241,0.12952,0.0347
-11.5,-0.8172,0.1304,0.1275,0.0332
-11.4,-0.8096,0.1283,0.12543,0.0316
-11.3,-0.8038,0.12683,0.12396,0.0304
-11.2,-0.7979,0.12537,0.1225,0.0293
-11.1,-0.792,0.12392,0.12106,0.0281
-11,-0.786,0.12249,0.11963,0.027
-10.9,-0.7799,0.12107,0.11821,0.0258
-10.8,-0.7739,0.11966,0.11681,0.0246
-10.7,-0.7677,0.11827,0.11542,0.0235
-10.6,-0.7615,0.11688,0.11404,0.0223
-10.5,-0.7553,0.11551,0.11268,0.0211
-10.4,-0.749,0.11415,0.11132,0.02
-10.3,-0.7426,0.1128,0.10997,0.0188
-10.2,-0.7362,0.11146,0.10864,0.0176
-10.1,-0.7297,0.11012,0.10731,0.0164
-10,-0.7232,0.1088,0.106,0.0152
-9.9,-0.7167,0.10749,0.10469,0.014
-9.7,-0.7031,0.10513,0.10234,0.0115
-9.6,-0.6965,0.10383,0.10105,0.0103
-9.5,-0.6898,0.10255,0.09977,0.0092
-9.4,-0.683,0.10127,0.0985,0.008
-9.3,-0.6763,0.1,0.09724,0.0068
-9.2,-0.6695,0.09875,0.096,0.0056
-9.1,-0.6628,0.09751,0.09476,0.0044
-9,-0.656,0.09627,0.09354,0.0032
-8.9,-0.6492,0.09505,0.09232,0.002
-8.8,-0.6425,0.09384,0.09112,0.0008
-8.7,-0.6358,0.09265,0.08994,-0.0003
-8.6,-0.6292,0.09147,0.08877,-0.0014
-8.5,-0.6226,0.09032,0.08762,-0.0026
-8.4,-0.6162,0.08917,0.08649,-0.0036
-8.3,-0.61,0.08806,0.08538,-0.0047
-8.2,-0.604,0.08697,0.08431,-0.0056
-8.1,-0.5985,0.08592,0.08327,-0.0065
-8,-0.5935,0.08492,0.08229,-0.0073
-7.9,-0.5894,0.08399,0.08137,-0.0078
-7.8,-0.5867,0.08318,0.08058,-0.008
-7.7,-0.576,0.0818,0.0792,-0.0103
-7.6,-0.5636,0.08032,0.07772,-0.013
-7.5,-0.5503,0.07878,0.07618,-0.0159
-7.4,-0.536,0.07721,0.0746,-0.0191
-7.3,-0.5218,0.07566,0.07304,-0.0221
-7.2,-0.5071,0.07409,0.07146,-0.0253
-7.1,-0.4914,0.07245,0.06981,-0.0287
-7,-0.4774,0.07093,0.06828,-0.0316
-6.9,-0.4623,0.06933,0.06667,-0.0348
-6.8,-0.4454,0.06761,0.06493,-0.0384
-6.6,-0.4159,0.06435,0.06164,-0.0444
-6.5,-0.3987,0.06246,0.05973,-0.048
-6.4,-0.3821,0.06038,0.05762,-0.0516
-6.3,-0.3655,0.0583,0.05553,-0.0551
-6.2,-0.35,0.05694,0.05415,-0.0578
-6.1,-0.3351,0.05562,0.05281,-0.0604
-6,-0.3206,0.05435,0.05152,-0.0627
-5.9,-0.3052,0.05304,0.05017,-0.0652
-5.8,-0.2895,0.05172,0.04883,-0.0677
-5.7,-0.2745,0.05044,0.04752,-0.0699
-5.6,-0.2589,0.04912,0.04616,-0.0722
-5.5,-0.2429,0.04777,0.04477,-0.0745
-5.4,-0.2271,0.04642,0.04338,-0.0767
-5.3,-0.211,0.04503,0.04195,-0.0789
-5,-0.1612,0.04057,0.03732,-0.0855
-4.9,-0.1439,0.03891,0.03559,-0.0878
-4.7,-0.1077,0.0349,0.03138,-0.0927
-4.4,-0.0547,0.02891,0.02504,-0.0989
-4.3,-0.0384,0.02727,0.02327,-0.1004
-4.2,-0.0218,0.02532,0.02115,-0.1019
-3.9,0.0268,0.0171,0.01177,-0.1066
-3.8,0.0416,0.01599,0.0104,-0.1069
-3.7,0.056,0.01545,0.00973,-0.1069
-3.6,0.0706,0.01495,0.00909,-0.1069
-3.5,0.0851,0.01446,0.00846,-0.1068
-3.4,0.0993,0.014,0.00785,-0.1066
-3.3,0.1139,0.01355,0.00725,-0.1065
-3.2,0.1284,0.01314,0.00668,-0.1064
-3.1,0.1427,0.01277,0.00615,-0.1062
-3,0.1569,0.01272,0.00613,-0.1061
-2.9,0.1711,0.01248,0.00579,-0.1058
-2.8,0.1853,0.01225,0.00546,-0.1056
-2.7,0.1997,0.01203,0.00514,-0.1055
-2.6,0.2133,0.01186,0.00489,-0.1051
-2.5,0.2272,0.01173,0.00471,-0.1049
-2.4,0.2409,0.01169,0.00461,-0.1047
-2.3,0.2548,0.01156,0.00439,-0.1044
-2.2,0.2689,0.01143,0.00421,-0.1043
-2.1,0.283,0.01132,0.00408,-0.1041
-2,0.2967,0.01126,0.00394,-0.1039
-1.9,0.3103,0.01121,0.00381,-0.1036
-1.8,0.3243,0.01115,0.00372,-0.1035
-1.7,0.338,0.0111,0.00363,-0.1033
-1.6,0.3519,0.01104,0.00354,-0.1032
-1.5,0.3654,0.01102,0.00344,-0.103
-1.4,0.3792,0.01099,0.00336,-0.1028
-1.3,0.3929,0.01096,0.00333,-0.1027
-1.2,0.4064,0.01095,0.00326,-0.1025
-1.1,0.4198,0.01097,0.00319,-0.1023
-1,0.4335,0.01094,0.00315,-0.1022
-0.9,0.4467,0.01098,0.00312,-0.1019
-0.8,0.4599,0.01101,0.0031,-0.1017
-0.7,0.4733,0.01103,0.00308,-0.1016
-0.6,0.4869,0.01104,0.00306,-0.1015
-0.5,0.5004,0.01106,0.00304,-0.1013
-0.4,0.514,0.01107,0.00303,-0.1012
-0.3,0.5274,0.0111,0.00304,-0.1011
-0.2,0.5404,0.01116,0.00304,-0.1009
-0.1,0.554,0.01119,0.00305,-0.1008
0,0.5674,0.01123,0.00306,-0.1007
0.1,0.5808,0.01126,0.00307,-0.1006
0.2,0.5942,0.0113,0.00309,-0.1005
0.3,0.6076,0.01134,0.00311,-0.1004
0.4,0.621,0.01139,0.00313,-0.1002
0.5,0.6337,0.01148,0.00316,-0.1
0.6,0.6469,0.01153,0.0032,-0.0999
0.7,0.66,0.01159,0.00323,-0.0998
0.8,0.6732,0.01165,0.00326,-0.0996
0.9,0.6863,0.01172,0.00331,-0.0995
1,0.6992,0.01179,0.00335,-0.0993
1.1,0.7121,0.01185,0.00341,-0.0992
1.2,0.7243,0.01199,0.00347,-0.099
1.3,0.737,0.01208,0.00352,-0.0988
1.4,0.7497,0.01216,0.00359,-0.0986
1.5,0.7622,0.01223,0.00368,-0.0985
1.7,0.7764,0.01084,0.00375,-0.0958
1.8,0.7889,0.01102,0.00384,-0.0956
1.9,0.8015,0.01119,0.00394,-0.0954
2,0.8142,0.01137,0.00403,-0.0952
2.1,0.8263,0.01159,0.00415,-0.0949
2.2,0.8393,0.01173,0.00424,-0.0947
2.3,0.8522,0.01188,0.00434,-0.0945
2.4,0.8652,0.01203,0.00444,-0.0943
2.5,0.8783,0.01216,0.00454,-0.0941
2.6,0.8913,0.0123,0.00465,-0.0939
2.7,0.9043,0.01245,0.00476,-0.0937
2.8,0.9175,0.01257,0.00486,-0.0935
2.9,0.9302,0.01274,0.00498,-0.0933
3,0.9432,0.01289,0.0051,-0.093
3.1,0.9564,0.01301,0.00521,-0.0928
3.2,0.9696,0.01314,0.00532,-0.0926
3.3,0.9827,0.01327,0.00543,-0.0924
3.4,0.9956,0.01343,0.00556,-0.0921
3.5,1.0087,0.01356,0.00568,-0.0919
3.6,1.022,0.01369,0.00581,-0.0916
3.7,1.0351,0.01382,0.00593,-0.0914
3.8,1.0478,0.01399,0.00607,-0.0911
3.9,1.0607,0.01414,0.00621,-0.0908
4,1.074,0.01427,0.00633,-0.0905
4.1,1.0871,0.0144,0.00647,-0.0902
4.2,1.1001,0.01455,0.0066,-0.0899
4.3,1.1131,0.01471,0.00675,-0.0896
4.4,1.1257,0.01488,0.0069,-0.0893
4.5,1.1389,0.01501,0.00705,-0.0889
4.6,1.1521,0.01516,0.0072,-0.0886
4.7,1.1651,0.01531,0.00736,-0.0883
4.8,1.1778,0.01547,0.00751,-0.0879
4.9,1.1904,0.01565,0.00768,-0.0875
5,1.2034,0.01581,0.00785,-0.0871
5.1,1.2164,0.01596,0.00802,-0.0867
5.2,1.2294,0.01612,0.00819,-0.0863
5.3,1.2422,0.01629,0.00836,-0.0859
5.4,1.2548,0.01647,0.00855,-0.0854
5.5,1.2673,0.01666,0.00873,-0.0849
5.6,1.2798,0.01685,0.00893,-0.0844
5.7,1.2928,0.017,0.00911,-0.084
5.8,1.3055,0.01718,0.00932,-0.0835
5.9,1.3181,0.01737,0.00953,-0.083
6,1.3304,0.01757,0.00973,-0.0824
6.1,1.3426,0.01778,0.00995,-0.0818
6.2,1.3549,0.01799,0.01017,-0.0812
6.3,1.3675,0.01818,0.0104,-0.0807
6.4,1.38,0.01838,0.01064,-0.0801
6.5,1.3922,0.01859,0.01087,-0.0795
6.6,1.4043,0.01881,0.01112,-0.0788
6.7,1.4162,0.01903,0.01136,-0.0781
6.8,1.4273,0.01927,0.01159,-0.0774
6.9,1.4396,0.01949,0.01187,-0.0767
7,1.4516,0.01972,0.01215,-0.076
7.1,1.4633,0.01996,0.01243,-0.0752
7.2,1.4748,0.02021,0.01271,-0.0744
7.3,1.486,0.02046,0.013,-0.0736
7.4,1.4969,0.02072,0.0133,-0.0727
7.5,1.5074,0.021,0.0136,-0.0718
7.6,1.5178,0.02129,0.01392,-0.0708
7.7,1.5287,0.02157,0.01426,-0.0699
7.8,1.5393,0.02186,0.01462,-0.069
7.9,1.5497,0.02212,0.01492,-0.068
8,1.5594,0.02242,0.01528,-0.0669
8.1,1.5687,0.02274,0.01565,-0.0658
8.2,1.5774,0.02306,0.01601,-0.0646
8.3,1.5847,0.0234,0.01638,-0.0633
8.4,1.5922,0.02375,0.01679,-0.0619
8.5,1.5999,0.02411,0.01724,-0.0605
8.6,1.6073,0.02449,0.01769,-0.0592
8.7,1.6143,0.0249,0.01817,-0.0578
8.8,1.6211,0.02531,0.01865,-0.0565
8.9,1.6277,0.02574,0.01915,-0.0552
9,1.6339,0.02619,0.01967,-0.0539
9.1,1.6398,0.02666,0.0202,-0.0526
9.2,1.6452,0.02708,0.02064,-0.0513
9.3,1.651,0.02761,0.02125,-0.0501
9.4,1.6567,0.02818,0.02191,-0.0489
9.5,1.6619,0.02877,0.02261,-0.0478
9.6,1.6667,0.02939,0.02332,-0.0467
9.7,1.6712,0.03003,0.02406,-0.0456
9.8,1.6753,0.03071,0.02483,-0.0446
9.9,1.6792,0.03142,0.02562,-0.0437
10,1.6827,0.03216,0.02644,-0.0429
10.1,1.686,0.03293,0.0273,-0.0421
10.2,1.689,0.03374,0.02818,-0.0415
10.3,1.6917,0.03459,0.02911,-0.041
10.4,1.694,0.03551,0.03011,-0.0406
10.5,1.6954,0.03659,0.03132,-0.0404
10.6,1.6964,0.03774,0.03259,-0.0403
10.7,1.697,0.03895,0.03393,-0.0405
10.8,1.6972,0.04024,0.03534,-0.0409
10.9,1.6989,0.04145,0.03666,-0.0414
11,1.699,0.04286,0.03818,-0.0422
11.1,1.6989,0.04436,0.03979,-0.0433
11.2,1.6987,0.04595,0.04148,-0.0447
11.3,1.6984,0.04763,0.04327,-0.0464
11.4,1.698,0.04943,0.04517,-0.0484
11.5,1.6974,0.05132,0.04717,-0.0506
11.6,1.6965,0.05334,0.04927,-0.0532
11.7,1.6954,0.05547,0.05149,-0.0559
11.8,1.6888,0.05839,0.05455,-0.0599
12.6,1.5799,0.09379,0.09071,-0.1062
12.7,1.5732,0.09705,0.09399,-0.11
12.8,1.5706,0.09966,0.09661,-0.113
12.9,1.5706,0.10176,0.09873,-0.1154
13,1.5723,0.10354,0.10051,-0.1174
13.1,1.5751,0.10508,0.10206,-0.119
13.2,1.5562,0.11098,0.10797,-0.126
13.3,1.5469,0.11509,0.1121,-0.1306
13.4,1.5444,0.11785,0.11487,-0.1336
13.5,1.5444,0.12007,0.11711,-0.1359
13.6,1.5459,0.12197,0.11902,-0.1379
13.7,1.5483,0.12365,0.12071,-0.1396
13.8,1.5514,0.12516,0.12223,-0.1411
13.9,1.5549,0.12654,0.12363,-0.1426
14,1.5588,0.12782,0.12492,-0.1438
14.1,1.5631,0.12899,0.1261,-0.145
14.2,1.5676,0.13006,0.12719,-0.1461
14.4,1.5527,0.13859,0.13573,-0.1548
14.5,1.5533,0.14088,0.13803,-0.157
14.6,1.555,0.14284,0.14001,-0.1589
14.7,1.5583,0.14438,0.14156,-0.1605
14.8,1.5615,0.14586,0.14306,-0.1619
14.9,1.565,0.14726,0.14447,-0.1633
15,1.5687,0.14856,0.14578,-0.1646
15.1,1.5726,0.14978,0.14701,-0.1658
15.2,1.5766,0.15093,0.14817,-0.1669
15.3,1.5807,0.15203,0.14928,-0.168
15.4,1.5848,0.15307,0.15034,-0.1691
15.7,1.58,0.16305,0.16034,-0.1783
15.8,1.5824,0.16498,0.16228,-0.1801
15.9,1.5851,0.16675,0.16407,-0.1818
16,1.5882,0.1684,0.16573,-0.1833
16.1,1.5915,0.16996,0.1673,-0.1847
16.2,1.5949,0.17144,0.1688,-0.1861
16.3,1.5985,0.17286,0.17023,-0.1875
16.5,1.6072,0.17502,0.17242,-0.1897
16.6,1.6112,0.17619,0.17361,-0.1909
16.7,1.6153,0.17732,0.17474,-0.192
16.8,1.6195,0.17839,0.17583,-0.1931
17.1,1.6208,0.18835,0.18581,-0.2017
17.2,1.6237,0.19036,0.18784,-0.2035
17.3,1.627,0.19221,0.1897,-0.2052
17.4,1.6304,0.19394,0.19144,-0.2067
17.5,1.634,0.19557,0.19309,-0.2082
17.6,1.6377,0.19712,0.19467,-0.2097
17.7,1.6421,0.19824,0.1958,-0.2109
17.8,1.6461,0.19954,0.19711,-0.2122
17.9,1.6502,0.20075,0.19834,-0.2134
18,1.6559,0.20085,0.19846,-0.2141
18.1,1.6539,0.20687,0.20447,-0.2188
18.2,1.6566,0.20938,0.207,-0.2209
18.3,1.6599,0.21161,0.20923,-0.223
18.4,1.6636,0.21328,0.21092,-0.2246
18.5,1.6681,0.21443,0.21208,-0.2259
18.6,1.6724,0.21559,0.21326,-0.2272
18.7,1.677,0.2166,0.21428,-0.2284
18.8,1.6771,0.22165,0.21932,-0.2322
18.9,1.68,0.22437,0.22206,-0.2345
19,1.6835,0.22652,0.22422,-0.2364
19.1,1.6872,0.22836,0.22607,-0.238
19.2,1.6912,0.22995,0.22768,-0.2396
19.3,1.6954,0.23135,0.22909,-0.241
19.4,1.6997,0.23259,0.23034,-0.2423
19.5,1.7016,0.23665,0.23439,-0.2454
19.6,1.7044,0.24013,0.23788,-0.2482
19.7,1.7083,0.24202,0.23978,-0.2499
19.8,1.7122,0.24373,0.24151,-0.2514
19.9,1.7163,0.2453,0.24309,-0.253
20,1.72,0.2473,0.24508,-0.2547
20.1,1.7228,0.25065,0.24844,-0.2573
20.2,1.7263,0.25327,0.25106,-0.2594
20.3,1.7299,0.25558,0.25338,-0.2613
20.4,1.7336,0.25773,0.25554,-0.2631
20.5,1.7374,0.25976,0.25758,-0.2649
20.6,1.7413,0.26168,0.25951,-0.2666
20.7,1.7452,0.26353,0.26136,-0.2683
20.8,1.7491,0.26529,0.26314,-0.2699
20.9,1.7531,0.26699,0.26485,-0.2715
21,1.7566,0.26951,0.26737,-0.2736
21.1,1.76,0.27267,0.27052,-0.276
21.2,1.7636,0.27532,0.27319,-0.278
21.3,1.7673,0.27777,0.27564,-0.28
21.4,1.7711,0.2801,0.27798,-0.282
21.5,1.7749,0.28235,0.28023,-0.2839
21.6,1.7787,0.28453,0.28241,-0.2857
21.8,1.7865,0.28828,0.28618,-0.2892
21.9,1.7904,0.29015,0.28806,-0.291
22,1.7941,0.29252,0.29042,-0.293
22.1,1.7978,0.29566,0.29356,-0.2953
22.2,1.8015,0.2984,0.29631,-0.2974
22.3,1.8053,0.30097,0.29888,-0.2995
22.4,1.8091,0.30344,0.30135,-0.3015
22.5,1.813,0.30584,0.30375,-0.3034
22.6,1.8168,0.30819,0.30611,-0.3054
22.7,1.8206,0.3105,0.30843,-0.3074
22.8,1.8244,0.31279,0.31072,-0.3093
22.9,1.8282,0.31502,0.31296,-0.3112
23,1.832,0.31724,0.31518,-0.3131
23.1,1.8357,0.31944,0.31739,-0.315
23.2,1.8395,0.32161,0.31956,-0.3169
23.3,1.8432,0.32377,0.32173,-0.3188
23.4,1.847,0.32589,0.32386,-0.3207
23.5,1.8507,0.328,0.32597,-0.3226
23.6,1.8543,0.3301,0.32807,-0.3245
23.7,1.858,0.33215,0.33014,-0.3264
23.8,1.8616,0.3342,0.33219,-0.3283
23.9,1.8656,0.33765,0.33564,-0.3307
24,1.8695,0.34081,0.33881,-0.3331
24.1,1.8734,0.34363,0.34163,-0.3353
24.2,1.8773,0.34638,0.34438,-0.3374
24.3,1.8811,0.34903,0.34703,-0.3395
24.4,1.885,0.35209,0.3501,-0.3419
24.5,1.8888,0.35455,0.35257,-0.3439
24.6,1.8925,0.357,0.35502,-0.346
24.7,1.8962,0.35943,0.35745,-0.348
24.8,1.8999,0.36183,0.35986,-0.3501
24.9,1.9036,0.36423,0.36227,-0.3521
25,1.9072,0.36661,0.36465,-0.3542
25.1,1.9108,0.36898,0.36703,-0.3563
25.2,1.9144,0.37133,0.36939,-0.3583
25.3,1.918,0.37368,0.37174,-0.3604
25.4,1.9216,0.376,0.37407,-0.3624
25.5,1.9251,0.37833,0.3764,-0.3645
25.6,1.9286,0.38064,0.37872,-0.3665
25.7,1.9321,0.38293,0.38101,-0.3686
25.8,1.9356,0.38523,0.38332,-0.3707
25.9,1.939,0.38748,0.38557,-0.3727
26,1.9424,0.38973,0.38784,-0.3748
26.1,1.947,0.39416,0.39225,-0.3776
26.2,1.9509,0.39739,0.39548,-0.38
26.3,1.9548,0.40044,0.39854,-0.3823
26.4,1.9586,0.40341,0.40151,-0.3846
26.5,1.9623,0.40629,0.40439,-0.3869
26.6,1.966,0.40908,0.40719,-0.3891
26.7,1.9696,0.41189,0.41001,-0.3914
26.8,1.9733,0.41466,0.41278,-0.3937
26.9,1.9772,0.41768,0.4158,-0.396

