airfoilName st12.dat
Re 	1.500000e+05
M 	5.000000e-01
N 	4.500000e+00
VACC 	0 VACCflag 1
XTR 	1.00 	1.00 XTRflag 0
alpha,cl,cd,cdp,cm
-30,-1.7441,0.56085,0.55658,0.3617
-29.9,-1.74,0.55757,0.55329,0.3592
-29.8,-1.736,0.55425,0.54997,0.3567
-29.7,-1.7319,0.55099,0.5467,0.3543
-29.6,-1.7279,0.54776,0.54347,0.3518
-29.5,-1.7238,0.54454,0.54024,0.3494
-29.4,-1.7197,0.54132,0.53702,0.3469
-29.3,-1.7157,0.53853,0.53422,0.3445
-29.2,-1.7115,0.53536,0.53105,0.3421
-29.1,-1.7074,0.53222,0.52789,0.3396
-29,-1.7032,0.52908,0.52475,0.3372
-28.9,-1.699,0.52599,0.52166,0.3348
-28.8,-1.6948,0.52287,0.51853,0.3324
-28.7,-1.6906,0.51981,0.51546,0.33
-28.6,-1.6864,0.51675,0.5124,0.3276
-28.5,-1.6821,0.51368,0.50933,0.3252
-28.4,-1.6779,0.51066,0.50631,0.3228
-28.3,-1.6736,0.50766,0.5033,0.3205
-28.2,-1.6693,0.50468,0.50032,0.3181
-28.1,-1.665,0.50169,0.49732,0.3157
-28,-1.6607,0.49874,0.49437,0.3134
-27.9,-1.6564,0.4958,0.49142,0.311
-27.8,-1.6521,0.49289,0.48851,0.3087
-27.7,-1.6477,0.48998,0.48559,0.3064
-27.6,-1.6433,0.48709,0.4827,0.304
-27.5,-1.6389,0.48423,0.47984,0.3017
-27.4,-1.6345,0.48139,0.47699,0.2994
-27.3,-1.6301,0.47855,0.47415,0.2971
-27.2,-1.6257,0.47573,0.47132,0.2948
-27.1,-1.6213,0.47293,0.46853,0.2925
-27,-1.6168,0.47016,0.46575,0.2902
-26.9,-1.6123,0.46739,0.46296,0.2879
-26.8,-1.6079,0.46466,0.46022,0.2857
-26.7,-1.6034,0.46194,0.4575,0.2834
-26.6,-1.5989,0.45923,0.45479,0.2811
-26.5,-1.5944,0.45655,0.45211,0.2789
-26.4,-1.5899,0.45389,0.44944,0.2766
-26.3,-1.5853,0.45125,0.4468,0.2743
-26.2,-1.5808,0.44863,0.44418,0.2721
-26.1,-1.5762,0.44603,0.44157,0.2698
-26,-1.5716,0.44345,0.43899,0.2676
-25.9,-1.567,0.44091,0.43645,0.2654
-25.8,-1.5624,0.43838,0.43392,0.2631
-25.7,-1.5578,0.43589,0.43142,0.2609
-25.6,-1.5532,0.4334,0.42893,0.2587
-25.5,-1.5485,0.43098,0.42651,0.2564
-25.4,-1.5439,0.42857,0.42409,0.2542
-25.3,-1.5392,0.42616,0.42168,0.2519
-25.2,-1.5345,0.4238,0.41932,0.2497
-25.1,-1.5298,0.42151,0.41702,0.2474
-25,-1.5251,0.41922,0.41474,0.2452
-24.9,-1.5203,0.41696,0.41247,0.2429
-24.8,-1.5155,0.41478,0.41029,0.2406
-24.7,-1.5107,0.41253,0.40804,0.2383
-23.7,-1.4608,0.38692,0.38242,0.2163
-23.6,-1.456,0.38432,0.37981,0.2144
-23.5,-1.4511,0.38173,0.37722,0.2124
-23.4,-1.4462,0.37914,0.37463,0.2105
-23.3,-1.4414,0.37655,0.37204,0.2086
-23.2,-1.4365,0.37399,0.36948,0.2067
-23.1,-1.4316,0.37144,0.36692,0.2047
-23,-1.4267,0.36889,0.36437,0.2028
-22.9,-1.4218,0.36635,0.36183,0.2009
-22.8,-1.4168,0.36383,0.35931,0.1991
-22.7,-1.4119,0.36132,0.35679,0.1972
-22.6,-1.407,0.35881,0.35428,0.1953
-22.5,-1.402,0.35631,0.35178,0.1935
-22.4,-1.397,0.35382,0.34929,0.1916
-22.3,-1.3921,0.35135,0.34681,0.1898
-22.2,-1.3871,0.34888,0.34434,0.1879
-22.1,-1.3821,0.34642,0.34188,0.1861
-22,-1.3771,0.34398,0.33942,0.1843
-21.9,-1.3721,0.34154,0.33699,0.1825
-21.8,-1.3671,0.33911,0.33455,0.1807
-21.7,-1.3621,0.3367,0.33214,0.1789
-21.6,-1.3571,0.33429,0.32973,0.1771
-21.5,-1.3521,0.33189,0.32733,0.1753
-21.4,-1.347,0.3295,0.32494,0.1735
-21.3,-1.342,0.32713,0.32257,0.1718
-21.2,-1.3369,0.32475,0.32019,0.17
-21.1,-1.3319,0.3224,0.31783,0.1683
-21,-1.3269,0.32005,0.31548,0.1666
-20.9,-1.3218,0.31771,0.31314,0.1648
-20.8,-1.3167,0.31538,0.31081,0.1631
-20.7,-1.3116,0.31306,0.30849,0.1614
-20.6,-1.3066,0.31075,0.30617,0.1597
-20.5,-1.3015,0.30845,0.30387,0.158
-20.4,-1.2964,0.30615,0.30158,0.1563
-20.3,-1.2913,0.30387,0.29929,0.1546
-20.2,-1.2862,0.30159,0.29701,0.1529
-20.1,-1.281,0.29933,0.29475,0.1513
-20,-1.2759,0.29707,0.29249,0.1496
-19.9,-1.2708,0.29483,0.29024,0.148
-19.8,-1.2656,0.29258,0.288,0.1463
-19.7,-1.2605,0.29035,0.28576,0.1447
-19.6,-1.2553,0.28812,0.28354,0.143
-19.5,-1.2501,0.2859,0.2813,0.1414
-19.4,-1.2449,0.28369,0.27909,0.1398
-19.3,-1.2397,0.28149,0.27689,0.1382
-19.2,-1.2345,0.2793,0.2747,0.1365
-19.1,-1.2293,0.27712,0.27252,0.1349
-19,-1.2241,0.27494,0.27034,0.1333
-18.9,-1.2189,0.27277,0.26817,0.1317
-18.8,-1.2137,0.27061,0.26601,0.1301
-18.7,-1.2084,0.26846,0.26386,0.1286
-18.6,-1.2032,0.26631,0.26171,0.127
-18.5,-1.1979,0.26417,0.25956,0.1254
-18.4,-1.1926,0.26203,0.25743,0.1238
-18.3,-1.1873,0.25991,0.25531,0.1223
-18.2,-1.182,0.25779,0.25319,0.1207
-18.1,-1.1767,0.25567,0.25107,0.1192
-18,-1.1714,0.25356,0.24896,0.1176
-17.9,-1.1661,0.25145,0.24685,0.1161
-17.8,-1.1607,0.24934,0.24474,0.1145
-17.7,-1.1546,0.2473,0.2427,0.1126
-17.6,-1.1492,0.24515,0.24055,0.111
-17.5,-1.1437,0.24299,0.23839,0.1095
-17.4,-1.1381,0.24083,0.23622,0.1079
-17.3,-1.1326,0.23866,0.23406,0.1063
-17.2,-1.127,0.23648,0.23187,0.1048
-17.1,-1.1213,0.23425,0.22965,0.1032
-17,-1.1156,0.23199,0.22739,0.1016
-16.9,-1.1096,0.22966,0.22504,0.1
-16.7,-1.0961,0.2244,0.21981,0.0962
-16.6,-1.091,0.22245,0.21786,0.0948
-16.5,-1.0858,0.2205,0.21591,0.0935
-16.4,-1.0807,0.21856,0.21397,0.0921
-16.3,-1.0755,0.21663,0.21204,0.0908
-16.2,-1.0703,0.2147,0.21012,0.0895
-16.1,-1.0651,0.21279,0.2082,0.0881
-16,-1.0598,0.21088,0.2063,0.0868
-15.9,-1.0546,0.20898,0.2044,0.0855
-15.8,-1.0493,0.20709,0.20251,0.0841
-15.7,-1.044,0.2052,0.20062,0.0828
-15.6,-1.0387,0.20333,0.19875,0.0815
-15.5,-1.0334,0.20146,0.19688,0.0802
-15.4,-1.028,0.1996,0.19503,0.0789
-15.3,-1.0227,0.19775,0.19318,0.0776
-15.2,-1.0174,0.19591,0.19134,0.0763
-15.1,-1.012,0.19408,0.18951,0.075
-15,-1.0066,0.19225,0.18769,0.0737
-14.9,-1.0012,0.19044,0.18587,0.0725
-14.8,-0.9958,0.18863,0.18407,0.0712
-14.7,-0.9904,0.18684,0.18228,0.0699
-14.6,-0.985,0.18505,0.18049,0.0687
-14.5,-0.9796,0.18327,0.17871,0.0674
-14.4,-0.9741,0.1815,0.17695,0.0662
-14.3,-0.9686,0.17974,0.17517,0.0649
-14.2,-0.9632,0.17798,0.17342,0.0637
-14.1,-0.9577,0.17624,0.17168,0.0624
-14,-0.9521,0.1745,0.16994,0.0612
-13.9,-0.9466,0.17276,0.16821,0.06
-13.8,-0.941,0.17104,0.16649,0.0588
-13.7,-0.9355,0.16933,0.16478,0.0575
-13.6,-0.9299,0.16763,0.16308,0.0563
-13.5,-0.9243,0.16593,0.16138,0.0551
-13.4,-0.9187,0.16424,0.1597,0.0539
-13.3,-0.9131,0.16256,0.15802,0.0527
-13.2,-0.9074,0.16089,0.15635,0.0515
-13.1,-0.9017,0.15922,0.15469,0.0503
-13,-0.8961,0.15757,0.15304,0.0491
-12.9,-0.8904,0.15592,0.1514,0.0479
-12.8,-0.8847,0.15429,0.14977,0.0467
-12.7,-0.8789,0.15266,0.14815,0.0455
-12.6,-0.8732,0.15104,0.14653,0.0443
-12.5,-0.8674,0.14943,0.14493,0.0431
-12.4,-0.8616,0.14783,0.14333,0.0419
-12.3,-0.8557,0.14623,0.14173,0.0407
-12.2,-0.8499,0.14464,0.14015,0.0396
-12.1,-0.844,0.14306,0.13857,0.0384
-12,-0.838,0.14149,0.13701,0.0372
-11.9,-0.8314,0.13994,0.13546,0.0358
-11.8,-0.8254,0.13836,0.13389,0.0346
-11.7,-0.8193,0.1368,0.13232,0.0334
-11.6,-0.8133,0.13524,0.13076,0.0322
-11.5,-0.8072,0.13368,0.12922,0.031
-11.4,-0.8011,0.13213,0.12767,0.0298
-11.3,-0.7949,0.13059,0.12613,0.0286
-11.2,-0.7887,0.12904,0.12459,0.0274
-11.1,-0.7824,0.1275,0.12306,0.0262
-11,-0.776,0.12596,0.12153,0.0249
-10.9,-0.7697,0.12442,0.11999,0.0237
-10.7,-0.7566,0.1213,0.11689,0.0211
-10.6,-0.7498,0.11973,0.11532,0.0198
-10.5,-0.7428,0.11812,0.11371,0.0184
-10.4,-0.735,0.11635,0.11196,0.0167
-10.3,-0.7276,0.11475,0.11039,0.0151
-10.2,-0.7217,0.11342,0.10906,0.0141
-10.1,-0.7157,0.11209,0.10775,0.013
-10,-0.7096,0.11078,0.10645,0.0119
-9.9,-0.7035,0.10948,0.10516,0.0109
-9.8,-0.6973,0.1082,0.10388,0.0098
-9.7,-0.6912,0.10692,0.10262,0.0087
-9.6,-0.6849,0.10566,0.10137,0.0077
-9.5,-0.6787,0.10441,0.10013,0.0066
-9.4,-0.6724,0.10317,0.0989,0.0055
-9.3,-0.6661,0.10194,0.09768,0.0045
-9.2,-0.6598,0.10072,0.09648,0.0034
-9.1,-0.6535,0.09952,0.09529,0.0023
-9,-0.6472,0.09833,0.09409,0.0013
-8.9,-0.6409,0.09715,0.09293,0.0002
-8.8,-0.6346,0.09598,0.09178,-0.0008
-8.7,-0.6284,0.09483,0.09064,-0.0018
-8.6,-0.6222,0.0937,0.08952,-0.0028
-8.5,-0.6162,0.09258,0.08842,-0.0038
-8.4,-0.6102,0.09148,0.08733,-0.0048
-8.3,-0.6044,0.0904,0.08627,-0.0057
-8.2,-0.5988,0.08935,0.08523,-0.0065
-8.1,-0.5935,0.08832,0.08422,-0.0073
-8,-0.5885,0.08733,0.08325,-0.008
-7.9,-0.584,0.08637,0.08232,-0.0087
-7.8,-0.5801,0.08547,0.08144,-0.0092
-7.6,-0.5748,0.08386,0.07988,-0.0096
-7.5,-0.5734,0.08315,0.0792,-0.0095
-7.4,-0.5722,0.08245,0.07853,-0.0095
-7.3,-0.57,0.08168,0.0778,-0.0096
-7.2,-0.568,0.08092,0.07706,-0.0098
-7.1,-0.5637,0.08001,0.07618,-0.0105
-7,-0.5484,0.07838,0.07455,-0.0138
-6.9,-0.531,0.07665,0.07279,-0.0176
-6.8,-0.5153,0.07502,0.07116,-0.0209
-6.6,-0.4804,0.07157,0.06767,-0.0283
-6.3,-0.4262,0.06613,0.06216,-0.0397
-6.1,-0.3852,0.06188,0.05787,-0.0486
-6,-0.3698,0.06052,0.05649,-0.0512
-5.9,-0.3531,0.05911,0.05506,-0.0541
-5.8,-0.3342,0.058,0.05393,-0.0573
-5.7,-0.3189,0.05664,0.05254,-0.0597
-5.6,-0.3029,0.05523,0.05111,-0.0622
-5.5,-0.2843,0.05369,0.04953,-0.0653
-5.4,-0.2654,0.05212,0.04792,-0.0684
-5.3,-0.2479,0.0506,0.04636,-0.0711
-5.1,-0.212,0.04736,0.04302,-0.0766
-4.8,-0.1488,0.04057,0.03597,-0.0872
-4.7,-0.1323,0.03942,0.03476,-0.0889
-4.6,-0.1147,0.0382,0.03347,-0.0909
-4.4,-0.0819,0.03573,0.03085,-0.094
-4.2,-0.0458,0.03278,0.02769,-0.0976
-3.8,0.0266,0.02527,0.01938,-0.1046
-3.7,0.0436,0.02419,0.01814,-0.1056
-3.6,0.0584,0.02309,0.01685,-0.1061
-3.5,0.0744,0.02181,0.01531,-0.1068
-3.4,0.0915,0.0203,0.01341,-0.1076
-3.3,0.1079,0.01936,0.01224,-0.1081
-3.2,0.1215,0.01895,0.01178,-0.108
-3.1,0.1363,0.01849,0.01121,-0.108
-3,0.1518,0.01797,0.01055,-0.1082
-2.9,0.1671,0.0174,0.0097,-0.1082
-2.8,0.1815,0.01698,0.00923,-0.1082
-2.7,0.1964,0.01667,0.00887,-0.1082
-2.6,0.2116,0.01634,0.00846,-0.1082
-2.5,0.2256,0.01601,0.00805,-0.108
-2.4,0.2402,0.01566,0.00755,-0.1078
-2.3,0.2548,0.01552,0.00742,-0.1078
-2.2,0.2687,0.0153,0.00715,-0.1076
-2.1,0.2831,0.01505,0.00682,-0.1075
-2,0.2975,0.01481,0.00646,-0.1073
-1.9,0.3114,0.01463,0.00631,-0.1071
-1.8,0.3255,0.01456,0.00621,-0.107
-1.7,0.3393,0.01438,0.00595,-0.1067
-1.6,0.3529,0.01423,0.00577,-0.1063
-1.5,0.3665,0.01411,0.00563,-0.1061
-1.4,0.3805,0.01404,0.00551,-0.1059
-1.3,0.3937,0.01393,0.00538,-0.1055
-1.2,0.4075,0.01384,0.00526,-0.1053
-1.1,0.4211,0.01375,0.00511,-0.1051
-1,0.4348,0.01367,0.00503,-0.1049
-0.9,0.448,0.01365,0.00496,-0.1046
-0.8,0.4617,0.01358,0.00489,-0.1044
-0.7,0.4748,0.01353,0.0048,-0.104
-0.6,0.4884,0.01349,0.00472,-0.1039
-0.5,0.5017,0.01347,0.0047,-0.1036
-0.4,0.5145,0.01345,0.00462,-0.1032
-0.3,0.5279,0.01342,0.00457,-0.103
-0.2,0.5414,0.0134,0.00452,-0.1028
-0.1,0.5546,0.01339,0.0045,-0.1026
0,0.568,0.01336,0.00447,-0.1024
0.1,0.5812,0.01336,0.00444,-0.1021
0.2,0.5939,0.01338,0.0044,-0.1018
0.3,0.6071,0.01339,0.00438,-0.1015
0.4,0.6202,0.01337,0.00437,-0.1013
0.5,0.6332,0.01338,0.00436,-0.1011
0.6,0.6464,0.01337,0.00437,-0.1009
0.7,0.6593,0.01338,0.00437,-0.1007
0.8,0.6715,0.01334,0.00439,-0.1004
0.9,0.6842,0.01329,0.00442,-0.1003
1.1,0.7006,0.01195,0.00426,-0.0972
1.2,0.7134,0.01208,0.00429,-0.0969
1.3,0.7263,0.0122,0.00433,-0.0966
1.4,0.7391,0.01234,0.00439,-0.0963
1.5,0.7518,0.01248,0.00445,-0.096
1.6,0.7637,0.01266,0.00451,-0.0955
1.7,0.7762,0.01281,0.00458,-0.0952
1.8,0.7886,0.01297,0.00465,-0.0948
1.9,0.8009,0.01314,0.00473,-0.0945
2,0.8131,0.01331,0.00482,-0.0941
2.1,0.8253,0.01349,0.00491,-0.0937
2.2,0.8374,0.01367,0.00501,-0.0934
2.3,0.8486,0.0139,0.00511,-0.0929
2.4,0.8606,0.0141,0.00522,-0.0925
2.5,0.8725,0.0143,0.00534,-0.0921
2.6,0.8845,0.0145,0.00547,-0.0917
2.7,0.8965,0.0147,0.0056,-0.0914
2.8,0.9086,0.0149,0.00574,-0.091
2.9,0.9207,0.01511,0.00588,-0.0907
3,0.9329,0.01531,0.00602,-0.0903
3.1,0.9442,0.01557,0.00619,-0.0899
3.2,0.9563,0.01578,0.00635,-0.0895
3.3,0.9684,0.01599,0.00652,-0.0892
3.4,0.9807,0.01619,0.00668,-0.0888
3.5,0.9928,0.01642,0.00686,-0.0885
3.6,1.005,0.01663,0.00705,-0.0881
3.7,1.0175,0.01683,0.00724,-0.0878
3.8,1.0297,0.01705,0.00743,-0.0874
3.9,1.0416,0.0173,0.00764,-0.087
4,1.0537,0.01752,0.00784,-0.0866
4.1,1.066,0.01774,0.00804,-0.0862
4.2,1.078,0.01798,0.00826,-0.0858
4.3,1.0902,0.01821,0.00848,-0.0854
4.4,1.1028,0.01841,0.00869,-0.0851
4.5,1.1152,0.01863,0.00892,-0.0847
4.6,1.1273,0.01887,0.00915,-0.0843
4.7,1.1391,0.01913,0.00939,-0.0838
4.8,1.1516,0.01936,0.00962,-0.0834
4.9,1.1638,0.01957,0.00987,-0.083
5,1.1759,0.01982,0.01012,-0.0825
5.1,1.1877,0.02008,0.01037,-0.082
5.2,1.1996,0.02034,0.01063,-0.0815
5.3,1.2122,0.02057,0.0109,-0.0811
5.4,1.2245,0.02082,0.01118,-0.0806
5.5,1.2365,0.02108,0.01145,-0.0801
5.6,1.2484,0.02135,0.01174,-0.0796
5.7,1.2599,0.02164,0.01202,-0.079
5.8,1.2718,0.02188,0.01229,-0.0785
5.9,1.2838,0.02215,0.01261,-0.0779
6,1.2955,0.02243,0.01294,-0.0774
6.1,1.307,0.02272,0.01325,-0.0768
6.2,1.3182,0.02303,0.01357,-0.0761
6.3,1.3297,0.02334,0.0139,-0.0755
6.4,1.3416,0.02365,0.01427,-0.0749
6.5,1.3532,0.02396,0.01465,-0.0743
6.6,1.3645,0.02429,0.01502,-0.0736
6.7,1.3755,0.02463,0.0154,-0.0729
6.9,1.3961,0.02526,0.01608,-0.0713
7,1.4071,0.02562,0.01653,-0.0706
7.1,1.4177,0.026,0.01699,-0.0699
7.2,1.4279,0.02638,0.01743,-0.069
7.3,1.4378,0.02676,0.01786,-0.0682
7.4,1.4473,0.02715,0.01829,-0.0673
7.5,1.4564,0.02754,0.0187,-0.0664
7.6,1.4658,0.02799,0.01922,-0.0655
7.7,1.475,0.02846,0.01982,-0.0645
7.8,1.4836,0.02895,0.0204,-0.0636
8,1.4982,0.02975,0.02133,-0.0613
8.1,1.5052,0.03021,0.02183,-0.0602
8.2,1.5117,0.03066,0.02232,-0.059
8.3,1.517,0.03122,0.02297,-0.0577
8.4,1.5216,0.03182,0.02371,-0.0563
8.5,1.5256,0.03244,0.02446,-0.055
8.6,1.5293,0.03307,0.02519,-0.0536
8.7,1.5327,0.0337,0.02592,-0.0524
8.8,1.5359,0.03435,0.02666,-0.0511
8.9,1.539,0.035,0.02739,-0.0499
9,1.542,0.03566,0.02812,-0.0488
9.1,1.5449,0.03633,0.02885,-0.0477
9.2,1.5478,0.037,0.02958,-0.0467
9.4,1.5462,0.03901,0.03189,-0.0452
9.5,1.5459,0.04003,0.03303,-0.0447
9.6,1.5456,0.04108,0.0342,-0.0442
9.7,1.5452,0.04216,0.03539,-0.0439
9.8,1.5449,0.04326,0.03659,-0.0438
9.9,1.5447,0.04439,0.03781,-0.0439
10,1.5447,0.04553,0.03903,-0.0441
10.1,1.5452,0.04667,0.04025,-0.0444
10.2,1.546,0.04781,0.04146,-0.0448
10.4,1.5386,0.05136,0.04526,-0.0477
10.5,1.5314,0.05379,0.04786,-0.0505
11.1,1.4895,0.07246,0.06728,-0.0773
11.2,1.4878,0.07501,0.06988,-0.0806
11.7,1.4567,0.09347,0.08854,-0.1042
11.8,1.4588,0.09525,0.09035,-0.1061
11.9,1.4621,0.09673,0.09185,-0.1076
12,1.4664,0.09799,0.09312,-0.1088
12.1,1.4713,0.09906,0.09422,-0.1098
12.2,1.4768,0.09998,0.09516,-0.1106
12.4,1.46,0.10908,0.10427,-0.1212
12.5,1.461,0.11127,0.1065,-0.1235
12.6,1.4633,0.11307,0.10832,-0.1253
12.7,1.469,0.11401,0.10927,-0.1265
12.8,1.4734,0.1152,0.11048,-0.1276
12.9,1.4781,0.11627,0.11156,-0.1285
13,1.4832,0.11722,0.11254,-0.1293
13.1,1.4884,0.1181,0.11342,-0.13
13.4,1.4815,0.12802,0.12339,-0.1408
13.5,1.4843,0.12976,0.12514,-0.1425
13.6,1.4876,0.13131,0.12671,-0.1439
13.7,1.4912,0.13272,0.12814,-0.1452
13.8,1.4952,0.13403,0.12947,-0.1463
13.9,1.4993,0.13525,0.1307,-0.1474
14,1.5036,0.13639,0.13186,-0.1483
14.1,1.508,0.13745,0.13295,-0.1492
14.3,1.5085,0.14295,0.13845,-0.1553
14.4,1.5103,0.14521,0.14073,-0.1575
14.5,1.513,0.14709,0.14263,-0.1593
14.6,1.5161,0.14876,0.14432,-0.1608
14.7,1.5195,0.15029,0.14587,-0.1622
14.8,1.5231,0.15172,0.14732,-0.1635
14.9,1.5268,0.15307,0.14869,-0.1647
15,1.5307,0.15434,0.14997,-0.1658
15.1,1.5347,0.15555,0.1512,-0.1668
15.2,1.5388,0.1567,0.15238,-0.1677
15.3,1.543,0.15779,0.1535,-0.1687
15.4,1.5472,0.15884,0.15456,-0.1695
15.5,1.5514,0.15983,0.15558,-0.1703
15.6,1.5557,0.16079,0.15655,-0.1711
15.8,1.5541,0.16891,0.16468,-0.1796
15.9,1.5575,0.17058,0.16636,-0.1811
16,1.5611,0.17214,0.16794,-0.1825
16.1,1.5648,0.17362,0.16944,-0.1839
16.2,1.5686,0.17503,0.17087,-0.1851
16.3,1.5725,0.17637,0.17224,-0.1863
16.4,1.5764,0.17766,0.17355,-0.1874
16.5,1.5804,0.1789,0.17481,-0.1885
16.6,1.5845,0.18008,0.17601,-0.1896
16.7,1.5886,0.18121,0.17716,-0.1905
16.8,1.5927,0.1823,0.17827,-0.1915
16.9,1.5969,0.18333,0.17932,-0.1924
17,1.5976,0.18724,0.18321,-0.1961
17.1,1.5998,0.19017,0.18616,-0.1989
17.2,1.6023,0.19272,0.18874,-0.2016
17.3,1.6059,0.19446,0.1905,-0.2032
17.4,1.6096,0.19609,0.19215,-0.2047
17.5,1.6134,0.19763,0.19371,-0.2061
17.6,1.6172,0.19909,0.19519,-0.2074
17.7,1.6211,0.20049,0.19661,-0.2087
17.8,1.6251,0.20181,0.19795,-0.2099
17.9,1.6291,0.20307,0.19925,-0.211
18,1.6332,0.20424,0.20045,-0.2121
18.1,1.6372,0.20535,0.20157,-0.2131
18.2,1.6413,0.20636,0.20261,-0.2141
18.3,1.6419,0.21196,0.20819,-0.2195
18.4,1.6453,0.21416,0.21041,-0.2215
18.5,1.6489,0.2161,0.21237,-0.2233
18.6,1.6527,0.21787,0.21416,-0.2249
18.7,1.6565,0.21951,0.21582,-0.2264
18.8,1.6604,0.22103,0.21736,-0.2278
18.9,1.6644,0.22245,0.2188,-0.2292
19,1.6683,0.22376,0.22013,-0.2304
19.2,1.6752,0.22789,0.22426,-0.2346
19.3,1.6784,0.23106,0.22745,-0.2374
19.4,1.6819,0.23364,0.23004,-0.24
19.5,1.6857,0.23538,0.2318,-0.2416
19.6,1.6896,0.23695,0.23339,-0.2431
19.7,1.6936,0.23837,0.23483,-0.2445
19.9,1.7007,0.24348,0.23993,-0.2494
20,1.7044,0.24614,0.2426,-0.2516
20.1,1.7082,0.24838,0.24486,-0.2535
20.2,1.712,0.2504,0.24689,-0.2553
20.3,1.7159,0.25226,0.24876,-0.257
20.4,1.7198,0.25397,0.25049,-0.2587
20.5,1.7238,0.25555,0.25208,-0.2602
20.6,1.7277,0.25702,0.25356,-0.2617
20.7,1.7316,0.25837,0.25493,-0.2631
20.8,1.7353,0.26034,0.25688,-0.2649
20.9,1.7391,0.26436,0.26091,-0.2679
21,1.743,0.26718,0.26374,-0.2701
21.1,1.7469,0.26963,0.26622,-0.2722
21.2,1.7508,0.27187,0.26847,-0.2741
21.3,1.7547,0.27377,0.27037,-0.2761
21.4,1.7586,0.27549,0.27211,-0.2778
21.5,1.7625,0.27713,0.27376,-0.2794
21.6,1.7663,0.27867,0.27531,-0.2809
21.7,1.7701,0.28024,0.27687,-0.2825
21.8,1.7742,0.28437,0.281,-0.2854
21.9,1.7782,0.2873,0.28393,-0.2877
22,1.7822,0.28988,0.28652,-0.2898
22.1,1.7861,0.29226,0.28891,-0.2918
22.2,1.7901,0.29453,0.29119,-0.2937
22.3,1.794,0.29671,0.29337,-0.2956
22.4,1.7979,0.2988,0.29548,-0.2975
22.5,1.8017,0.30084,0.29752,-0.2993
22.6,1.8056,0.3028,0.2995,-0.3011
22.7,1.8094,0.30472,0.30143,-0.3029
22.8,1.8132,0.30658,0.30329,-0.3047
22.9,1.8169,0.30838,0.30511,-0.3064
23,1.8207,0.31012,0.30685,-0.3082
23.1,1.8243,0.31183,0.30857,-0.3099
23.2,1.8287,0.31585,0.31257,-0.3127
23.3,1.8328,0.31893,0.31565,-0.315
23.4,1.8369,0.32172,0.31845,-0.3172
23.5,1.8409,0.32433,0.32107,-0.3193
23.6,1.845,0.32725,0.324,-0.3217
23.7,1.8488,0.32947,0.32622,-0.3237
23.8,1.8526,0.33164,0.3284,-0.3256
23.9,1.8564,0.33377,0.33054,-0.3276
24,1.8602,0.33586,0.33264,-0.3295
24.1,1.8639,0.33792,0.33471,-0.3314
24.2,1.8676,0.33994,0.33675,-0.3333
24.3,1.8712,0.34191,0.33874,-0.3352
24.4,1.8748,0.34384,0.34068,-0.3371
24.5,1.8786,0.34631,0.34313,-0.3392
24.6,1.883,0.34996,0.34678,-0.3417
24.7,1.8871,0.35304,0.34987,-0.3441
24.8,1.8911,0.35586,0.3527,-0.3463
24.9,1.895,0.35857,0.35541,-0.3485
25,1.8989,0.3612,0.35805,-0.3507
25.1,1.9027,0.36378,0.36064,-0.3528
25.2,1.9065,0.3663,0.36316,-0.3549
25.3,1.9103,0.36879,0.36566,-0.3571
25.4,1.914,0.37124,0.36812,-0.3592
25.5,1.9178,0.37367,0.37055,-0.3613
25.6,1.9214,0.37606,0.37296,-0.3634
25.7,1.9251,0.37844,0.37534,-0.3655
25.8,1.9287,0.3808,0.37771,-0.3676
25.9,1.9323,0.38313,0.38005,-0.3697
26,1.9359,0.38545,0.38238,-0.3717
26.1,1.9396,0.38783,0.38477,-0.3739

