airfoilName st12.dat
Re 	370000
M 	5.000000e-01
N 	4.500000e+00
VACC 	0 VACCflag 1
XTR 	1.00 	1.00 XTRflag 0
alpha,cl,cd,cdp,cm
-30,-1.747,0.55195,0.54939,0.3668
-29.9,-1.7431,0.54887,0.54631,0.3643
-29.8,-1.7391,0.54578,0.54322,0.3618
-29.7,-1.7352,0.54272,0.54015,0.3594
-29.6,-1.7312,0.53967,0.5371,0.3569
-29.5,-1.7272,0.53664,0.53406,0.3544
-29.4,-1.7232,0.53361,0.53103,0.352
-29.3,-1.7192,0.5306,0.52802,0.3496
-29.2,-1.7151,0.5276,0.52501,0.3471
-29.1,-1.7111,0.52461,0.52201,0.3447
-29,-1.707,0.52162,0.51902,0.3423
-28.9,-1.7029,0.51867,0.51607,0.3399
-28.8,-1.6988,0.5157,0.5131,0.3375
-28.7,-1.6947,0.51277,0.51016,0.3351
-28.6,-1.6905,0.50984,0.50723,0.3327
-28.5,-1.6864,0.50691,0.5043,0.3303
-28.4,-1.6822,0.50401,0.5014,0.3279
-28.3,-1.678,0.50112,0.4985,0.3256
-28.2,-1.6738,0.49825,0.49563,0.3232
-28.1,-1.6696,0.49537,0.49275,0.3208
-28,-1.6653,0.49252,0.4899,0.3185
-27.9,-1.6611,0.48967,0.48704,0.3161
-27.8,-1.6568,0.48685,0.48422,0.3138
-27.7,-1.6525,0.48402,0.48139,0.3115
-27.6,-1.6482,0.48121,0.47858,0.3091
-27.5,-1.6439,0.47842,0.47579,0.3068
-27.4,-1.6396,0.47564,0.473,0.3045
-27.3,-1.6353,0.47288,0.47024,0.3022
-27.2,-1.6309,0.47012,0.46747,0.2998
-27.1,-1.6265,0.46738,0.46473,0.2975
-27,-1.6221,0.46465,0.462,0.2952
-26.9,-1.6177,0.46193,0.45927,0.2929
-26.8,-1.6133,0.45922,0.45656,0.2907
-26.7,-1.6088,0.45654,0.45388,0.2884
-26.6,-1.6044,0.45387,0.45121,0.2861
-26.5,-1.5999,0.45123,0.44856,0.2838
-26.4,-1.5954,0.44858,0.44591,0.2815
-26.3,-1.5909,0.44596,0.44329,0.2792
-26.2,-1.5864,0.44338,0.44071,0.2769
-26.1,-1.5818,0.44081,0.43814,0.2746
-26,-1.5773,0.43826,0.43559,0.2723
-25.9,-1.5727,0.43575,0.43307,0.27
-25.8,-1.5679,0.43475,0.43207,0.2668
-25.7,-1.5631,0.43248,0.4298,0.2644
-25.5,-1.5523,0.42756,0.42489,0.2585
-25.4,-1.5478,0.42481,0.42214,0.2564
-25.3,-1.5432,0.42207,0.41939,0.2544
-25.2,-1.5386,0.41933,0.41666,0.2523
-25.1,-1.5339,0.41661,0.41394,0.2502
-25,-1.5293,0.41393,0.41124,0.2481
-24.9,-1.5247,0.41125,0.40857,0.2461
-24.8,-1.52,0.40858,0.4059,0.244
-24.7,-1.5153,0.40593,0.40325,0.2419
-24.6,-1.5107,0.4033,0.40061,0.2399
-24.5,-1.506,0.40068,0.39799,0.2379
-24.4,-1.5013,0.39807,0.39537,0.2358
-24.3,-1.4966,0.39548,0.39277,0.2338
-24.2,-1.4918,0.3929,0.39019,0.2318
-24.1,-1.4871,0.39032,0.38761,0.2298
-24,-1.4823,0.38776,0.38505,0.2278
-23.9,-1.4776,0.38522,0.38251,0.2258
-23.8,-1.4728,0.38269,0.37998,0.2239
-23.7,-1.4681,0.38016,0.37745,0.2219
-23.6,-1.4633,0.37765,0.37493,0.2199
-23.5,-1.4585,0.37515,0.37243,0.218
-23.4,-1.4537,0.37265,0.36993,0.216
-23.3,-1.4489,0.37016,0.36744,0.2141
-23.2,-1.444,0.3677,0.36498,0.2122
-23.1,-1.4392,0.36523,0.36251,0.2102
-23,-1.4344,0.36278,0.36006,0.2083
-22.9,-1.4295,0.36033,0.3576,0.2064
-22.8,-1.4247,0.3579,0.35518,0.2045
-22.7,-1.4198,0.35548,0.35275,0.2027
-22.6,-1.4149,0.35307,0.35034,0.2008
-22.5,-1.41,0.35066,0.34793,0.1989
-22.4,-1.4052,0.34827,0.34554,0.1971
-22.3,-1.4003,0.34588,0.34315,0.1952
-22.2,-1.3953,0.34351,0.34077,0.1934
-22.1,-1.3904,0.34114,0.33841,0.1915
-22,-1.3855,0.33879,0.33604,0.1897
-21.9,-1.3806,0.33645,0.3337,0.1879
-21.8,-1.3757,0.33411,0.33137,0.1861
-21.7,-1.3707,0.33179,0.32904,0.1843
-21.6,-1.3658,0.32948,0.32673,0.1825
-21.5,-1.3609,0.32718,0.32443,0.1807
-21.4,-1.3559,0.32489,0.32213,0.1789
-21.3,-1.3509,0.32261,0.31985,0.1771
-21.2,-1.346,0.32034,0.31758,0.1754
-21.1,-1.341,0.31808,0.31532,0.1736
-21,-1.3361,0.31583,0.31307,0.1719
-20.9,-1.3311,0.31359,0.31083,0.1701
-20.8,-1.3261,0.31136,0.3086,0.1684
-20.7,-1.3211,0.30914,0.30638,0.1667
-20.6,-1.3161,0.30693,0.30417,0.1649
-20.5,-1.3111,0.30473,0.30197,0.1632
-20.4,-1.3061,0.30254,0.29978,0.1615
-20.3,-1.3011,0.30036,0.2976,0.1598
-20.2,-1.296,0.29819,0.29543,0.1581
-20.1,-1.2909,0.29645,0.29368,0.1562
-20,-1.2858,0.29427,0.2915,0.1544
-19.9,-1.2807,0.2921,0.28934,0.1527
-19.8,-1.2756,0.28994,0.28718,0.151
-19.7,-1.2705,0.28778,0.28501,0.1493
-19.6,-1.2654,0.28563,0.28286,0.1476
-19.5,-1.2602,0.28348,0.28071,0.1459
-19.4,-1.2551,0.28133,0.27856,0.1442
-19.3,-1.2499,0.27919,0.27642,0.1425
-19.2,-1.2447,0.27705,0.27427,0.1408
-19.1,-1.2395,0.2749,0.27213,0.1392
-19,-1.2343,0.27276,0.26998,0.1375
-18.9,-1.229,0.27058,0.2678,0.1358
-18.8,-1.2237,0.26839,0.26561,0.1341
-18.7,-1.2184,0.26618,0.2634,0.1324
-18.6,-1.213,0.26393,0.26115,0.1307
-18.5,-1.2075,0.2616,0.25882,0.129
-18.3,-1.1934,0.25564,0.25287,0.1246
-18.2,-1.1885,0.25352,0.25075,0.1232
-18.1,-1.1835,0.25141,0.24864,0.1217
-18,-1.1786,0.24932,0.24655,0.1202
-17.9,-1.1736,0.24724,0.24448,0.1188
-17.8,-1.1686,0.24518,0.24241,0.1173
-17.7,-1.1636,0.24313,0.24036,0.1159
-17.6,-1.1586,0.24109,0.23832,0.1145
-17.5,-1.1536,0.23906,0.23629,0.113
-17.4,-1.1486,0.23704,0.23427,0.1116
-17.3,-1.1435,0.23503,0.23227,0.1102
-17.2,-1.1384,0.23304,0.23027,0.1088
-17.1,-1.1334,0.23105,0.22829,0.1074
-17,-1.1283,0.22907,0.22631,0.106
-16.9,-1.1232,0.22711,0.22434,0.1046
-16.8,-1.118,0.22515,0.22237,0.1032
-16.7,-1.1129,0.22319,0.22042,0.1018
-16.6,-1.1077,0.22125,0.21847,0.1004
-16.5,-1.1025,0.21931,0.21653,0.099
-16.4,-1.0973,0.21738,0.2146,0.0976
-16.3,-1.092,0.21545,0.21268,0.0962
-16.2,-1.0868,0.21354,0.21077,0.0948
-16.1,-1.0815,0.21164,0.20886,0.0934
-16,-1.0763,0.20974,0.20696,0.0921
-15.9,-1.071,0.20785,0.20508,0.0907
-15.8,-1.0656,0.20596,0.20319,0.0893
-15.7,-1.0603,0.20409,0.20132,0.088
-15.6,-1.055,0.20222,0.19945,0.0866
-15.5,-1.0496,0.20036,0.19759,0.0853
-15.4,-1.0443,0.19851,0.19574,0.0839
-15.3,-1.0389,0.19666,0.1939,0.0826
-15.1,-1.0279,0.1932,0.19043,0.0798
-15,-1.0224,0.19136,0.1886,0.0785
-14.9,-1.017,0.18954,0.18678,0.0772
-14.8,-1.0116,0.18772,0.18496,0.0759
-14.7,-1.0061,0.18592,0.18316,0.0746
-14.6,-1.0007,0.18411,0.18136,0.0733
-14.5,-0.9952,0.18232,0.17956,0.072
-14.4,-0.9897,0.18053,0.17777,0.0707
-14.3,-0.9841,0.17874,0.17599,0.0694
-14.2,-0.9786,0.17697,0.17421,0.0681
-14.1,-0.973,0.1752,0.17244,0.0669
-14,-0.9674,0.17344,0.17068,0.0656
-13.9,-0.9618,0.17169,0.16893,0.0643
-13.8,-0.9561,0.16994,0.16719,0.063
-13.7,-0.9505,0.16821,0.16545,0.0618
-13.6,-0.9449,0.16648,0.16372,0.0605
-13.5,-0.9392,0.16475,0.16201,0.0592
-13.4,-0.9335,0.16304,0.16029,0.058
-13.3,-0.9278,0.16133,0.15859,0.0567
-13.2,-0.9221,0.15964,0.15689,0.0555
-13.1,-0.9163,0.15794,0.1552,0.0542
-13,-0.9106,0.15626,0.15352,0.053
-12.9,-0.9048,0.15458,0.15185,0.0517
-12.8,-0.899,0.15292,0.15018,0.0505
-12.7,-0.8932,0.15125,0.14852,0.0493
-12.6,-0.8873,0.14959,0.14686,0.048
-12.5,-0.8814,0.14793,0.14521,0.0468
-12.4,-0.8754,0.14629,0.14356,0.0455
-12.3,-0.8695,0.14464,0.14191,0.0443
-12.2,-0.8635,0.143,0.14028,0.043
-12.1,-0.8575,0.14136,0.13864,0.0418
-12,-0.8515,0.13973,0.13702,0.0405
-11.9,-0.8454,0.1381,0.13539,0.0393
-11.8,-0.8393,0.13647,0.13376,0.0381
-11.7,-0.8332,0.13485,0.13214,0.0368
-11.6,-0.827,0.13322,0.13051,0.0356
-11.5,-0.8208,0.1316,0.12889,0.0343
-11.4,-0.8146,0.12994,0.12723,0.033
-11.3,-0.8083,0.12828,0.12558,0.0318
-11.2,-0.8018,0.1266,0.1239,0.0305
-11.1,-0.7954,0.1249,0.1222,0.0292
-11,-0.7887,0.12313,0.12044,0.0278
-10.9,-0.7817,0.12124,0.11855,0.0264
-10.8,-0.7736,0.11906,0.11639,0.0246
-10.7,-0.7676,0.11765,0.11498,0.0235
-10.6,-0.7615,0.11625,0.11359,0.0223
-10.5,-0.7554,0.11486,0.11221,0.0212
-10.4,-0.7492,0.11349,0.11084,0.02
-10.3,-0.7429,0.11213,0.10948,0.0188
-10.2,-0.7366,0.11078,0.10814,0.0176
-10.1,-0.7302,0.10944,0.10681,0.0164
-10,-0.7238,0.10812,0.10549,0.0152
-9.9,-0.7173,0.10681,0.10419,0.0141
-9.8,-0.7108,0.10551,0.1029,0.0129
-9.7,-0.7042,0.10423,0.10162,0.0117
-9.5,-0.6906,0.10193,0.09934,0.0092
-9.4,-0.6839,0.10067,0.09807,0.008
-9.3,-0.6771,0.09941,0.09682,0.0068
-9.2,-0.6704,0.09816,0.09558,0.0056
-9.1,-0.6636,0.09692,0.09435,0.0044
-9,-0.6568,0.0957,0.09314,0.0032
-8.9,-0.65,0.09449,0.09192,0.002
-8.8,-0.6432,0.09329,0.09073,0.0008
-8.7,-0.6365,0.0921,0.08956,-0.0003
-8.6,-0.6298,0.09093,0.0884,-0.0015
-8.5,-0.6232,0.08978,0.08725,-0.0026
-8.4,-0.6168,0.08865,0.08613,-0.0037
-8.3,-0.6105,0.08755,0.08504,-0.0047
-8.2,-0.6046,0.08647,0.08397,-0.0057
-8.1,-0.599,0.08543,0.08295,-0.0066
-8,-0.5941,0.08445,0.08198,-0.0073
-7.9,-0.5902,0.08355,0.0811,-0.0078
-7.8,-0.5811,0.0823,0.07986,-0.0096
-7.7,-0.5691,0.08086,0.07841,-0.0123
-7.6,-0.5564,0.07938,0.07692,-0.015
-7.5,-0.5428,0.07786,0.0754,-0.018
-7.4,-0.5296,0.07639,0.07392,-0.0208
-7.3,-0.5151,0.07486,0.07239,-0.024
-7.2,-0.5003,0.07332,0.07083,-0.0271
-7.1,-0.4864,0.07184,0.06936,-0.03
-7,-0.4709,0.07027,0.06777,-0.0333
-6.9,-0.4559,0.06874,0.06622,-0.0364
-6.8,-0.4423,0.06729,0.06476,-0.0391
-6.7,-0.4271,0.06574,0.06319,-0.0421
-6.6,-0.4114,0.06415,0.06158,-0.0453
-6.5,-0.3976,0.06266,0.06008,-0.0479
-6.3,-0.3666,0.05937,0.05674,-0.0538
-6.2,-0.3515,0.05765,0.055,-0.0567
-6,-0.3171,0.05321,0.0505,-0.0639
-5.9,-0.3026,0.05194,0.0492,-0.0661
-5.8,-0.2877,0.05067,0.0479,-0.0685
-5.7,-0.2723,0.04938,0.04658,-0.0708
-5.6,-0.2571,0.0481,0.04526,-0.0729
-5.5,-0.2416,0.04682,0.04394,-0.0751
-5.4,-0.2257,0.0455,0.04258,-0.0773
-5.3,-0.2097,0.04416,0.0412,-0.0794
-5.2,-0.1938,0.04281,0.03979,-0.0814
-4.9,-0.1438,0.03841,0.03521,-0.0877
-4.8,-0.1267,0.03677,0.03349,-0.0898
-4.6,-0.0915,0.03293,0.02944,-0.0942
-4.3,-0.0376,0.0257,0.02173,-0.1009
-4.2,-0.0213,0.02377,0.01963,-0.1023
-4,0.0103,0.01869,0.01391,-0.1052
-3.9,0.0255,0.01683,0.0117,-0.106
-3.7,0.0552,0.0145,0.00875,-0.1066
-3.6,0.0696,0.01407,0.00819,-0.1065
-3.5,0.084,0.01369,0.0077,-0.1064
-3.4,0.0985,0.01332,0.00722,-0.1063
-3.3,0.1129,0.01297,0.00674,-0.1061
-3.2,0.1275,0.01263,0.00629,-0.106
-3.1,0.1419,0.01232,0.00586,-0.1058
-3,0.1561,0.01205,0.00544,-0.1055
-2.9,0.1703,0.01199,0.0054,-0.1055
-2.8,0.1843,0.01181,0.00512,-0.1052
-2.7,0.1984,0.01163,0.00485,-0.1049
-2.6,0.2123,0.01148,0.00459,-0.1047
-2.5,0.2262,0.01134,0.0044,-0.1044
-2.4,0.2402,0.01124,0.00424,-0.1042
-2.3,0.2542,0.01119,0.00415,-0.1041
-2.2,0.2683,0.01109,0.00397,-0.1039
-2.1,0.2821,0.011,0.00382,-0.1037
-2,0.2959,0.01093,0.00371,-0.1035
-1.9,0.3099,0.01087,0.0036,-0.1034
-1.7,0.3375,0.01079,0.00342,-0.103
-1.6,0.351,0.01076,0.00334,-0.1028
-1.5,0.3649,0.01072,0.00326,-0.1027
-1.4,0.3787,0.0107,0.00318,-0.1026
-1.3,0.3923,0.01069,0.00312,-0.1024
-1.2,0.4057,0.0107,0.0031,-0.1022
-1.1,0.4193,0.0107,0.00304,-0.1021
-1,0.4325,0.01073,0.003,-0.1019
-0.9,0.4462,0.01073,0.00297,-0.1018
-0.8,0.4596,0.01076,0.00295,-0.1016
-0.7,0.473,0.01079,0.00294,-0.1014
-0.6,0.4866,0.01079,0.00293,-0.1014
-0.5,0.5002,0.01082,0.00291,-0.1012
-0.4,0.5133,0.01087,0.00291,-0.1011
-0.3,0.5269,0.0109,0.00291,-0.101
-0.2,0.5404,0.01093,0.00292,-0.1009
-0.1,0.5539,0.01095,0.00293,-0.1008
0,0.5673,0.011,0.00294,-0.1007
0.1,0.5809,0.01102,0.00295,-0.1006
0.2,0.5942,0.01107,0.00298,-0.1005
0.3,0.6071,0.01115,0.00301,-0.1003
0.4,0.6204,0.0112,0.00303,-0.1002
0.5,0.6338,0.01125,0.00305,-0.1
0.6,0.647,0.01132,0.00309,-0.0999
0.7,0.6601,0.01137,0.00312,-0.0998
0.8,0.6733,0.01144,0.00316,-0.0997
0.9,0.6864,0.01151,0.00321,-0.0995
1,0.6994,0.0116,0.00326,-0.0994
1.1,0.7116,0.01174,0.00332,-0.0991
1.2,0.7244,0.01182,0.00338,-0.099
1.3,0.7371,0.01193,0.00344,-0.0988
1.4,0.7497,0.01203,0.00352,-0.0987
1.5,0.7623,0.01213,0.0036,-0.0985
1.6,0.7749,0.0122,0.00369,-0.0984
1.8,0.7894,0.01082,0.00378,-0.0959
1.9,0.8016,0.01104,0.00389,-0.0956
2,0.8145,0.01119,0.00399,-0.0954
2.1,0.8276,0.01133,0.00407,-0.0952
2.2,0.8405,0.01148,0.00418,-0.0951
2.3,0.8538,0.01161,0.00426,-0.0949
2.4,0.8669,0.01174,0.00435,-0.0947
2.5,0.8799,0.01189,0.00445,-0.0945
2.6,0.8932,0.012,0.00455,-0.0943
2.7,0.9064,0.01212,0.00465,-0.0942
2.8,0.9191,0.0123,0.00476,-0.0939
2.9,0.9324,0.01241,0.00487,-0.0937
3,0.9457,0.01253,0.00497,-0.0935
3.1,0.9589,0.01265,0.00507,-0.0933
3.2,0.972,0.01279,0.00518,-0.0931
3.3,0.9851,0.01293,0.0053,-0.0929
3.4,0.9985,0.01304,0.00541,-0.0927
3.5,1.0117,0.01317,0.00552,-0.0924
3.6,1.0249,0.0133,0.00565,-0.0922
3.7,1.0375,0.01347,0.00578,-0.0919
3.8,1.0509,0.01359,0.00589,-0.0917
3.9,1.0642,0.01371,0.00601,-0.0914
4,1.0774,0.01384,0.00614,-0.0911
4.1,1.0904,0.01399,0.00627,-0.0908
4.2,1.1034,0.01414,0.0064,-0.0905
4.3,1.1165,0.01428,0.00654,-0.0902
4.4,1.1298,0.01441,0.00668,-0.0899
4.5,1.1429,0.01455,0.00682,-0.0896
4.6,1.156,0.01469,0.00696,-0.0893
4.7,1.1686,0.01486,0.00712,-0.0889
4.8,1.1816,0.01502,0.00727,-0.0885
4.9,1.1948,0.01516,0.00742,-0.0882
5,1.2079,0.0153,0.00758,-0.0878
5.1,1.221,0.01546,0.00774,-0.0874
5.2,1.2338,0.01562,0.0079,-0.087
5.3,1.2465,0.0158,0.00807,-0.0866
5.4,1.2591,0.01598,0.00826,-0.0861
5.5,1.2722,0.01613,0.00843,-0.0857
5.6,1.2852,0.01628,0.00859,-0.0852
5.7,1.298,0.01646,0.00878,-0.0848
5.8,1.3107,0.01664,0.00898,-0.0843
5.9,1.3231,0.01683,0.00918,-0.0837
6,1.3355,0.01703,0.00938,-0.0832
6.1,1.3484,0.0172,0.00959,-0.0827
6.2,1.3611,0.01738,0.0098,-0.0821
6.3,1.3737,0.01757,0.01001,-0.0815
6.4,1.3861,0.01777,0.01023,-0.0809
6.5,1.3983,0.01798,0.01045,-0.0803
6.6,1.4103,0.01819,0.01069,-0.0797
6.7,1.4223,0.0184,0.0109,-0.079
6.8,1.4347,0.01861,0.01115,-0.0783
6.9,1.4468,0.01882,0.01142,-0.0776
7,1.4588,0.01904,0.01167,-0.0769
7.1,1.4706,0.01928,0.01193,-0.0762
7.2,1.482,0.01952,0.0122,-0.0754
7.3,1.4931,0.01977,0.01248,-0.0745
7.4,1.5041,0.02003,0.01276,-0.0736
7.5,1.5157,0.02028,0.01307,-0.0728
7.6,1.5269,0.02054,0.01338,-0.0719
7.7,1.538,0.02077,0.01365,-0.071
7.8,1.5485,0.02105,0.01397,-0.07
7.9,1.5587,0.02133,0.01429,-0.069
8,1.5684,0.02162,0.01463,-0.0679
8.1,1.5776,0.02193,0.01498,-0.0668
8.2,1.5872,0.02224,0.01534,-0.0657
8.3,1.5967,0.02256,0.01573,-0.0645
8.4,1.6048,0.02288,0.01612,-0.0632
8.5,1.6124,0.02322,0.01652,-0.0618
8.6,1.6197,0.02358,0.01693,-0.0604
8.7,1.6268,0.02395,0.01736,-0.059
8.8,1.6337,0.02433,0.0178,-0.0576
8.9,1.6402,0.02474,0.01826,-0.0562
9,1.6461,0.02513,0.01866,-0.0549
9.1,1.6531,0.02558,0.0192,-0.0536
9.2,1.6597,0.02605,0.01976,-0.0523
9.3,1.6659,0.02655,0.02034,-0.0511
9.4,1.6718,0.02707,0.02096,-0.0498
9.5,1.6774,0.02761,0.02158,-0.0486
9.6,1.6826,0.02817,0.02222,-0.0475
9.7,1.6875,0.02876,0.02289,-0.0464
9.8,1.6922,0.02938,0.02358,-0.0453
9.9,1.6965,0.03002,0.0243,-0.0443
10,1.7004,0.03071,0.02505,-0.0434
10.1,1.7039,0.03145,0.02585,-0.0426
10.2,1.7072,0.03227,0.02679,-0.0418
10.3,1.71,0.03314,0.02777,-0.0411
10.4,1.7124,0.03406,0.0288,-0.0406
10.5,1.7145,0.03504,0.02989,-0.0402
10.6,1.7178,0.03595,0.03089,-0.0399
10.7,1.7196,0.03701,0.03206,-0.0398
10.8,1.7212,0.03813,0.03328,-0.0399
10.9,1.7227,0.03931,0.03455,-0.0402
11,1.7238,0.04055,0.0359,-0.0407
11.1,1.7249,0.04187,0.03731,-0.0415
11.2,1.7258,0.04327,0.0388,-0.0425
11.3,1.7266,0.04475,0.04037,-0.0437
11.4,1.7249,0.04657,0.04231,-0.0454
11.5,1.7225,0.04858,0.04447,-0.0475
11.7,1.7158,0.05312,0.04928,-0.053
11.9,1.706,0.0585,0.05492,-0.0601
12.7,1.6213,0.08933,0.08641,-0.1001
12.8,1.6147,0.0925,0.08961,-0.1039
12.9,1.6115,0.09511,0.09223,-0.107
13.1,1.5865,0.10373,0.10089,-0.1174
13.3,1.5632,0.1124,0.1096,-0.1275
13.4,1.5607,0.11509,0.1123,-0.1305
13.5,1.5605,0.11731,0.11453,-0.1329
13.6,1.5618,0.11921,0.11645,-0.1349
13.7,1.5642,0.12088,0.11813,-0.1367
13.8,1.5673,0.12238,0.11964,-0.1382
13.9,1.5709,0.12374,0.12101,-0.1396
14,1.575,0.12498,0.12227,-0.1409
14.1,1.5794,0.12611,0.12341,-0.142

