airfoilName st13.dat
Re 	550000
M 	5.000000e-01
N 	4.500000e+00
VACC 	0 VACCflag 1
XTR 	1.00 	1.00 XTRflag 0
alpha,cl,cd,cdp,cm
-30,-1.693,0.54965,0.54761,0.3566
-29.9,-1.6891,0.54667,0.54463,0.3541
-29.8,-1.6852,0.5437,0.54166,0.3516
-29.7,-1.6813,0.54073,0.53869,0.3492
-29.6,-1.6774,0.53778,0.53574,0.3467
-29.5,-1.6735,0.53483,0.53279,0.3442
-29.4,-1.6695,0.5319,0.52985,0.3417
-29.3,-1.6655,0.52899,0.52693,0.3393
-29.2,-1.6615,0.52607,0.52401,0.3368
-29.1,-1.6575,0.52317,0.5211,0.3344
-29,-1.6534,0.52028,0.51822,0.3319
-28.9,-1.6494,0.51739,0.51533,0.3295
-28.8,-1.6453,0.51454,0.51247,0.3271
-28.7,-1.6412,0.51168,0.50961,0.3246
-28.6,-1.637,0.50916,0.50708,0.322
-28.5,-1.6329,0.50632,0.50424,0.3196
-28.4,-1.6287,0.50349,0.50141,0.3171
-28.3,-1.6245,0.5007,0.49862,0.3147
-28.2,-1.6203,0.4979,0.49581,0.3123
-28.1,-1.616,0.49515,0.49307,0.3098
-28,-1.6117,0.49241,0.49032,0.3073
-27.9,-1.6075,0.48968,0.48759,0.3049
-27.8,-1.6031,0.487,0.48491,0.3024
-27.7,-1.5987,0.48438,0.48229,0.2998
-27.5,-1.5887,0.47961,0.47752,0.2936
-27.4,-1.5844,0.47665,0.47456,0.2914
-27.3,-1.5802,0.47371,0.47162,0.2892
-27.2,-1.5759,0.47081,0.46871,0.2869
-27.1,-1.5716,0.46791,0.46582,0.2847
-27,-1.5673,0.46506,0.46296,0.2825
-26.9,-1.563,0.46219,0.46008,0.2803
-26.8,-1.5587,0.45938,0.45727,0.2781
-26.7,-1.5544,0.45657,0.45446,0.2759
-26.6,-1.55,0.45378,0.45166,0.2737
-26.5,-1.5457,0.45101,0.4489,0.2716
-26.4,-1.5413,0.44826,0.44614,0.2694
-26.3,-1.5369,0.44552,0.44339,0.2672
-26.2,-1.5325,0.44279,0.44067,0.2651
-26.1,-1.528,0.44009,0.43797,0.2629
-26,-1.5236,0.43739,0.43526,0.2608
-25.9,-1.5191,0.43471,0.43258,0.2586
-25.8,-1.5147,0.43204,0.42991,0.2565
-25.7,-1.5102,0.42938,0.42725,0.2544
-25.6,-1.5057,0.42673,0.4246,0.2523
-25.5,-1.5012,0.4241,0.42196,0.2502
-25.4,-1.4967,0.42148,0.41934,0.2481
-25.3,-1.4922,0.41887,0.41673,0.246
-25.2,-1.4876,0.41627,0.41413,0.2439
-25.1,-1.483,0.41368,0.41154,0.2418
-25,-1.4785,0.41111,0.40896,0.2398
-24.9,-1.4739,0.40855,0.4064,0.2377
-24.8,-1.4693,0.40599,0.40384,0.2357
-24.7,-1.4647,0.40344,0.40129,0.2336
-24.6,-1.4601,0.40091,0.39875,0.2316
-24.5,-1.4555,0.39839,0.39622,0.2296
-24.4,-1.4509,0.39587,0.39371,0.2276
-24.3,-1.4462,0.39337,0.39121,0.2255
-24.2,-1.4416,0.39087,0.38871,0.2235
-24.1,-1.4369,0.38839,0.38623,0.2215
-24,-1.4322,0.38592,0.38375,0.2196
-23.9,-1.4275,0.38346,0.38129,0.2176
-23.8,-1.4228,0.381,0.37883,0.2156
-23.7,-1.4181,0.37856,0.37638,0.2136
-23.6,-1.4134,0.37612,0.37395,0.2117
-23.5,-1.4087,0.37369,0.37152,0.2097
-23.4,-1.404,0.37128,0.36911,0.2078
-23.3,-1.3992,0.36887,0.36669,0.2059
-23.2,-1.3945,0.36647,0.36429,0.2039
-23.1,-1.3897,0.36408,0.3619,0.202
-23,-1.3849,0.3617,0.35952,0.2001
-22.9,-1.3802,0.35968,0.3575,0.1981
-22.8,-1.3754,0.35731,0.35512,0.1962
-22.7,-1.3706,0.35495,0.35276,0.1943
-22.6,-1.3657,0.35258,0.35039,0.1924
-22.5,-1.3609,0.35023,0.34804,0.1905
-22.4,-1.3561,0.34789,0.34571,0.1886
-22.3,-1.3512,0.34557,0.34338,0.1868
-22.2,-1.3464,0.34325,0.34106,0.1849
-22.1,-1.3415,0.34094,0.33874,0.183
-22,-1.3367,0.33864,0.33644,0.1812
-21.9,-1.3318,0.33635,0.33415,0.1793
-21.8,-1.3269,0.33408,0.33188,0.1775
-21.7,-1.322,0.33181,0.32961,0.1756
-21.6,-1.3171,0.32954,0.32734,0.1738
-21.5,-1.3122,0.3273,0.32509,0.1719
-21.4,-1.3073,0.32506,0.32285,0.1701
-21.3,-1.3023,0.32284,0.32063,0.1682
-21.2,-1.2974,0.32062,0.31841,0.1664
-21.1,-1.2924,0.31839,0.31619,0.1645
-21,-1.2874,0.31618,0.31397,0.1627
-20.9,-1.2823,0.31395,0.31174,0.1608
-20.8,-1.2772,0.3117,0.30949,0.1589
-20.5,-1.2596,0.30395,0.30175,0.1523
-20.4,-1.2548,0.3016,0.2994,0.1507
-20.3,-1.2499,0.29929,0.29708,0.149
-20.2,-1.2451,0.29698,0.29478,0.1474
-20.1,-1.2403,0.29472,0.29251,0.1458
-20,-1.2354,0.29247,0.29026,0.1442
-19.9,-1.2306,0.29024,0.28803,0.1426
-19.8,-1.2257,0.28803,0.28582,0.141
-19.7,-1.2208,0.28584,0.28363,0.1394
-19.6,-1.216,0.28367,0.28146,0.1378
-19.5,-1.2111,0.28151,0.27929,0.1363
-19.4,-1.2062,0.27937,0.27715,0.1347
-19.3,-1.2013,0.27724,0.27502,0.1331
-19.2,-1.1964,0.27513,0.27291,0.1316
-19.1,-1.1914,0.27304,0.27082,0.13
-19,-1.1865,0.27095,0.26873,0.1285
-18.9,-1.1816,0.26887,0.26665,0.1269
-18.8,-1.1766,0.26681,0.26459,0.1254
-18.7,-1.1716,0.26475,0.26253,0.1238
-18.6,-1.1667,0.26271,0.26049,0.1223
-18.5,-1.1617,0.26067,0.25845,0.1208
-18.4,-1.1567,0.25864,0.25642,0.1193
-18.3,-1.1517,0.25662,0.2544,0.1178
-18.2,-1.1467,0.2546,0.25238,0.1163
-18.1,-1.1416,0.25259,0.25037,0.1148
-18,-1.1366,0.25059,0.24837,0.1133
-17.9,-1.1316,0.2486,0.24637,0.1118
-17.7,-1.1214,0.24491,0.24269,0.1088
-17.6,-1.1163,0.24291,0.24068,0.1073
-17.5,-1.1112,0.24091,0.23869,0.1058
-17.4,-1.1061,0.23893,0.2367,0.1044
-17.3,-1.101,0.23695,0.23472,0.103
-17.2,-1.0959,0.23497,0.23274,0.1015
-17.1,-1.0907,0.233,0.23077,0.1001
-17,-1.0856,0.23102,0.2288,0.0987
-16.9,-1.0804,0.22905,0.22682,0.0972
-16.8,-1.0752,0.22709,0.22486,0.0958
-16.7,-1.07,0.22514,0.22291,0.0944
-16.6,-1.0648,0.22319,0.22095,0.093
-16.5,-1.0595,0.22124,0.21901,0.0916
-16.4,-1.0543,0.2193,0.21707,0.0902
-16.3,-1.0491,0.21736,0.21513,0.0888
-16.2,-1.0438,0.21543,0.2132,0.0874
-16.1,-1.0385,0.21351,0.21128,0.086
-16,-1.0332,0.21159,0.20936,0.0846
-15.9,-1.0279,0.20967,0.20744,0.0832
-15.8,-1.0226,0.20776,0.20553,0.0818
-15.7,-1.0173,0.20585,0.20362,0.0804
-15.6,-1.0119,0.20395,0.20172,0.0791
-15.5,-1.0066,0.20205,0.19982,0.0777
-15.4,-1.0012,0.20015,0.19793,0.0763
-15.3,-0.9958,0.19827,0.19604,0.075
-15.2,-0.9904,0.19637,0.19415,0.0736
-15.1,-0.985,0.19448,0.19226,0.0722
-15,-0.9796,0.19259,0.19036,0.0709
-14.9,-0.9741,0.1907,0.18848,0.0695
-14.8,-0.9686,0.1888,0.18657,0.0682
-14.7,-0.9631,0.18689,0.18466,0.0668
-14.6,-0.9576,0.18496,0.18274,0.0654
-14.5,-0.952,0.18301,0.18079,0.0641
-14.4,-0.9464,0.18105,0.17883,0.0627
-14.3,-0.9407,0.17905,0.17682,0.0613
-14.2,-0.9349,0.177,0.17477,0.06
-14.1,-0.9288,0.1748,0.17257,0.0585
-13.9,-0.9148,0.17021,0.16799,0.0551
-13.8,-0.9097,0.16845,0.16624,0.054
-13.7,-0.9045,0.16671,0.1645,0.0528
-13.6,-0.8993,0.16498,0.16277,0.0516
-13.5,-0.8941,0.16327,0.16106,0.0505
-13.4,-0.8889,0.16157,0.15936,0.0493
-13.3,-0.8836,0.15989,0.15768,0.0481
-13.2,-0.8782,0.15823,0.15602,0.047
-13,-0.8676,0.1551,0.1529,0.0446
-12.9,-0.8622,0.15347,0.15127,0.0434
-12.8,-0.8566,0.15185,0.14965,0.0423
-12.7,-0.8511,0.15024,0.14805,0.0411
-12.6,-0.8455,0.14865,0.14645,0.0399
-12.5,-0.8398,0.14706,0.14487,0.0387
-12.4,-0.8342,0.14549,0.1433,0.0376
-12.3,-0.8285,0.14393,0.14174,0.0364
-12.2,-0.8228,0.14238,0.14019,0.0352
-12.1,-0.8171,0.14084,0.13865,0.0341
-12,-0.8113,0.13931,0.13713,0.0329
-11.9,-0.8055,0.1378,0.13562,0.0317
-11.8,-0.7997,0.13629,0.13412,0.0306
-11.7,-0.7938,0.1348,0.13262,0.0294
-11.6,-0.7879,0.13331,0.13114,0.0282
-11.5,-0.782,0.13183,0.12965,0.0271
-11.4,-0.776,0.13036,0.12818,0.0259
-11.3,-0.77,0.12889,0.12673,0.0247
-11.2,-0.7639,0.12744,0.12528,0.0236
-11.1,-0.7578,0.126,0.12384,0.0224
-11,-0.7517,0.12457,0.12241,0.0212
-10.9,-0.7456,0.12314,0.12099,0.0201
-10.8,-0.7395,0.12173,0.11958,0.0189
-10.7,-0.7333,0.12033,0.11818,0.0178
-10.6,-0.727,0.11893,0.11679,0.0166
-10.5,-0.7208,0.11754,0.1154,0.0154
-10.4,-0.7144,0.11616,0.11402,0.0143
-10.3,-0.7081,0.11478,0.11265,0.0131
-10.2,-0.7018,0.11342,0.11129,0.0119
-10.1,-0.6954,0.11207,0.10995,0.0108
-10,-0.689,0.11073,0.10861,0.0096
-9.9,-0.6826,0.10939,0.10728,0.0085
-9.8,-0.6761,0.10807,0.10596,0.0073
-9.7,-0.6697,0.10675,0.10464,0.0062
-9.6,-0.6632,0.10544,0.10334,0.005
-9.5,-0.6567,0.10414,0.10205,0.0039
-9.4,-0.6503,0.10285,0.10077,0.0027
-9.3,-0.6439,0.10158,0.0995,0.0016
-9.2,-0.6375,0.10031,0.09824,0.0005
-9.1,-0.6311,0.09906,0.09699,-0.0006
-9,-0.6248,0.09782,0.09576,-0.0017
-8.9,-0.6186,0.0966,0.09454,-0.0027
-8.8,-0.6126,0.0954,0.09335,-0.0037
-8.7,-0.6068,0.09422,0.09218,-0.0046
-8.6,-0.6013,0.09308,0.09105,-0.0055
-8.5,-0.5963,0.09198,0.08995,-0.0062
-8.4,-0.5922,0.09095,0.08894,-0.0068
-8.3,-0.5818,0.08944,0.08743,-0.0089
-8.2,-0.57,0.08783,0.08581,-0.0115
-8.1,-0.5592,0.0863,0.08428,-0.0138
-8,-0.5477,0.0847,0.08268,-0.0163
-7.9,-0.5355,0.08306,0.08103,-0.0189
-7.8,-0.5248,0.0815,0.07947,-0.0212
-7.7,-0.5129,0.07986,0.07782,-0.0238
-7.5,-0.4903,0.07654,0.07449,-0.0287
-7.4,-0.4763,0.07451,0.07245,-0.0319
-7.3,-0.4634,0.07271,0.07064,-0.0348
-7.1,-0.4392,0.07032,0.06824,-0.0398
-7,-0.4268,0.06902,0.06693,-0.0422
-6.9,-0.4148,0.06777,0.06567,-0.0445
-6.8,-0.4023,0.06649,0.06437,-0.0468
-6.7,-0.3893,0.06521,0.06308,-0.0492
-6.6,-0.377,0.06398,0.06182,-0.0514
-6.5,-0.3639,0.06271,0.06054,-0.0537
-6.4,-0.3505,0.06143,0.05924,-0.0561
-6.3,-0.3372,0.06018,0.05797,-0.0584
-6.2,-0.3234,0.05889,0.05666,-0.0607
-6.1,-0.3092,0.0576,0.05535,-0.0631
-6,-0.2948,0.0563,0.05402,-0.0655
-5.9,-0.2804,0.055,0.05269,-0.0679
-5.8,-0.2654,0.05367,0.05134,-0.0703
-5.7,-0.2502,0.05232,0.04996,-0.0727
-5.6,-0.2348,0.05096,0.04857,-0.0751
-5.5,-0.2189,0.04956,0.04713,-0.0776
-5.4,-0.2027,0.04813,0.04566,-0.0801
-5.2,-0.1693,0.04511,0.04256,-0.0852
-5.1,-0.1518,0.04348,0.04088,-0.0878
-4.9,-0.1149,0.03961,0.03687,-0.0937
-4.8,-0.0912,0.03575,0.0329,-0.099
-4.7,-0.0738,0.03445,0.03152,-0.101
-4.6,-0.0565,0.03316,0.03016,-0.1029
-4.4,-0.0215,0.03036,0.0272,-0.1067
-4.3,-0.0037,0.02874,0.02547,-0.1086
-4.2,0.0146,0.02681,0.02342,-0.1107
-3.9,0.0727,0.01404,0.00923,-0.1208
-3.8,0.0877,0.01307,0.008,-0.1211
-3.7,0.1024,0.01259,0.00738,-0.1211
-3.6,0.1172,0.01218,0.00684,-0.1211
-3.5,0.1319,0.01181,0.00634,-0.121
-3.4,0.1464,0.01161,0.00605,-0.1209
-3.3,0.1612,0.01124,0.00554,-0.1208
-3.2,0.1756,0.01097,0.00517,-0.1207
-3.1,0.1896,0.0108,0.0049,-0.1204
-3,0.2037,0.01065,0.00465,-0.1201
-2.9,0.2183,0.01048,0.00442,-0.12
-2.8,0.2327,0.01032,0.00419,-0.1199
-2.7,0.2468,0.01021,0.00398,-0.1197
-2.6,0.2605,0.01016,0.00388,-0.1194
-2.5,0.2748,0.01005,0.00373,-0.1193
-2.4,0.2891,0.00996,0.00358,-0.1192
-2.3,0.3029,0.00989,0.00343,-0.1189
-2.2,0.3171,0.00982,0.00331,-0.1188
-2.1,0.3312,0.00974,0.00319,-0.1187
-2,0.345,0.00972,0.00313,-0.1185
-1.9,0.359,0.00967,0.00303,-0.1184
-1.8,0.373,0.00963,0.00294,-0.1182
-1.7,0.3862,0.00964,0.00286,-0.118
-1.6,0.4001,0.0096,0.0028,-0.1178
-1.5,0.4139,0.00959,0.00274,-0.1177
-1.4,0.4273,0.00961,0.0027,-0.1175
-1.3,0.4411,0.0096,0.00265,-0.1174
-1.2,0.4547,0.0096,0.0026,-0.1173
-1.1,0.4678,0.00965,0.00258,-0.117
-1,0.4815,0.00965,0.00255,-0.1169
-0.9,0.4951,0.00968,0.00252,-0.1168
-0.8,0.5085,0.0097,0.00252,-0.1166
-0.7,0.5218,0.00975,0.00251,-0.1165
-0.6,0.5353,0.00978,0.00251,-0.1164
-0.5,0.5489,0.0098,0.00249,-0.1162
-0.4,0.5618,0.00988,0.00251,-0.116
-0.3,0.575,0.00994,0.00252,-0.1159
-0.2,0.5881,0.01001,0.00254,-0.1157
-0.1,0.6014,0.01006,0.00256,-0.1156
0,0.6148,0.01011,0.00257,-0.1155
0.1,0.6281,0.01016,0.00259,-0.1153
0.2,0.6413,0.01023,0.00261,-0.1152
0.3,0.6537,0.01035,0.00267,-0.115
0.4,0.6667,0.01044,0.0027,-0.1148
0.5,0.6797,0.01053,0.00274,-0.1146
0.6,0.6926,0.01063,0.00279,-0.1145
0.7,0.7053,0.01074,0.00284,-0.1143
0.8,0.7179,0.01087,0.00291,-0.1141
0.9,0.7303,0.01102,0.00299,-0.1139
1,0.7426,0.01118,0.00306,-0.1136
1.1,0.7537,0.01147,0.0032,-0.1133
1.2,0.7661,0.01163,0.00329,-0.113
1.3,0.7788,0.01177,0.00337,-0.1129
1.4,0.7917,0.01188,0.00344,-0.1127
1.5,0.8047,0.01197,0.00353,-0.1126
1.6,0.8178,0.01206,0.00359,-0.1124
1.7,0.8309,0.01216,0.00368,-0.1123
1.8,0.8442,0.01223,0.00375,-0.1121
1.9,0.8574,0.01231,0.00381,-0.112
2,0.8702,0.01242,0.00391,-0.1118
2.1,0.8836,0.01247,0.00398,-0.1117
2.2,0.8969,0.01254,0.00405,-0.1115
2.3,0.9101,0.01262,0.00413,-0.1114
2.4,0.9233,0.01269,0.00422,-0.1112
2.5,0.9367,0.01273,0.0043,-0.1111
2.7,0.9535,0.01133,0.0045,-0.1091
2.8,0.9667,0.01144,0.00459,-0.1089
2.9,0.9798,0.01157,0.00468,-0.1087
3,0.9932,0.01166,0.00476,-0.1085
3.1,1.0065,0.01177,0.00485,-0.1082
3.2,1.0197,0.01188,0.00494,-0.108
3.3,1.0328,0.01201,0.00504,-0.1078
3.4,1.0462,0.01211,0.00514,-0.1075
3.5,1.0596,0.01221,0.00523,-0.1073
3.6,1.0729,0.01232,0.00533,-0.107
3.7,1.0861,0.01244,0.00543,-0.1068
3.8,1.0992,0.01256,0.00555,-0.1065
3.9,1.1123,0.01269,0.00566,-0.1062
4,1.1256,0.0128,0.00577,-0.1059
4.1,1.1389,0.01292,0.00588,-0.1056
4.2,1.1521,0.01304,0.00599,-0.1053
4.3,1.1652,0.01317,0.00611,-0.105
4.4,1.1781,0.01331,0.00623,-0.1046
4.5,1.1914,0.01343,0.00636,-0.1043
4.6,1.2047,0.01355,0.00648,-0.1039
4.7,1.2179,0.01367,0.00661,-0.1036
4.8,1.2308,0.01382,0.00673,-0.1032
4.9,1.2438,0.01396,0.00688,-0.1028
5,1.2567,0.01411,0.00703,-0.1024
5.1,1.2699,0.01424,0.00717,-0.102
5.2,1.2831,0.01437,0.00731,-0.1015
5.3,1.2961,0.01451,0.00746,-0.1011
5.4,1.3091,0.01466,0.00761,-0.1006
5.5,1.322,0.01481,0.00777,-0.1001
5.6,1.3347,0.01498,0.00793,-0.0996
5.7,1.3474,0.01514,0.0081,-0.0991
5.8,1.3605,0.01528,0.00826,-0.0986
5.9,1.3734,0.01543,0.00842,-0.0981
6,1.3862,0.0156,0.00861,-0.0975
6.1,1.3989,0.01576,0.00879,-0.0969
6.2,1.4114,0.01594,0.00898,-0.0963
6.3,1.4237,0.01614,0.00917,-0.0957
6.4,1.4365,0.0163,0.00937,-0.0951
6.5,1.4492,0.01647,0.00957,-0.0944
6.6,1.4617,0.01665,0.00977,-0.0937
6.7,1.4742,0.01684,0.00998,-0.093
6.8,1.4864,0.01703,0.01018,-0.0923
6.9,1.4984,0.01724,0.0104,-0.0916
7,1.5102,0.01746,0.01063,-0.0908
7.1,1.5224,0.01765,0.01087,-0.09
7.2,1.5345,0.01785,0.01111,-0.0892
7.3,1.5464,0.01806,0.01136,-0.0883
7.4,1.5581,0.01827,0.01161,-0.0874
7.5,1.5696,0.0185,0.01186,-0.0865
7.6,1.5808,0.01873,0.01213,-0.0855
7.7,1.5917,0.01898,0.0124,-0.0845
7.8,1.6022,0.01924,0.01269,-0.0835
7.9,1.6132,0.01949,0.01298,-0.0824
8,1.6243,0.01971,0.01325,-0.0814
8.1,1.6347,0.01997,0.01356,-0.0803
8.2,1.6448,0.02024,0.01388,-0.0791
8.3,1.6543,0.02052,0.0142,-0.0778
8.4,1.6626,0.0208,0.01453,-0.0764
8.5,1.6705,0.0211,0.01487,-0.0749
8.6,1.678,0.02143,0.01524,-0.0734
8.7,1.686,0.02176,0.01563,-0.0719
8.8,1.6941,0.0221,0.01603,-0.0705
8.9,1.7021,0.02246,0.01646,-0.0691
9,1.7098,0.02283,0.01689,-0.0676
9.1,1.7173,0.02322,0.01735,-0.0662
9.2,1.7252,0.02358,0.01775,-0.0649
9.3,1.7321,0.024,0.01823,-0.0634
9.4,1.7388,0.02445,0.01873,-0.062
9.5,1.7451,0.02492,0.01926,-0.0606
9.6,1.7512,0.02542,0.01982,-0.0593
9.7,1.7573,0.02594,0.02044,-0.0579
9.8,1.763,0.02648,0.02107,-0.0566
9.9,1.7684,0.02706,0.02174,-0.0552
10,1.7734,0.02767,0.02243,-0.054
10.1,1.778,0.02832,0.02316,-0.0527
10.2,1.7824,0.029,0.02393,-0.0515
10.3,1.7864,0.02971,0.02472,-0.0504
10.4,1.7901,0.03046,0.02556,-0.0494
10.5,1.7934,0.03124,0.02643,-0.0484
10.6,1.7964,0.03208,0.02735,-0.0476
10.7,1.799,0.03297,0.02832,-0.0468
10.8,1.8013,0.03391,0.02935,-0.0462
10.9,1.8036,0.0349,0.03044,-0.0456
11,1.8045,0.03603,0.03168,-0.0453
11.1,1.8048,0.03724,0.033,-0.0451
11.2,1.8048,0.03851,0.03439,-0.0451
11.3,1.8043,0.03988,0.03587,-0.0453
11.4,1.8036,0.04134,0.03743,-0.0458
11.5,1.8025,0.0429,0.0391,-0.0466
11.6,1.8011,0.04456,0.04088,-0.0476
11.7,1.7993,0.04635,0.04278,-0.049
11.8,1.7972,0.04826,0.0448,-0.0507
11.9,1.7947,0.05033,0.04698,-0.0527
12,1.7918,0.05254,0.0493,-0.0551
12.2,1.7841,0.05747,0.05446,-0.0609
12.3,1.7792,0.06023,0.05731,-0.0643
12.4,1.7736,0.06319,0.06037,-0.068
12.5,1.7669,0.06639,0.06367,-0.0721
12.7,1.7502,0.0734,0.07083,-0.0807
13.3,1.6671,0.09922,0.09698,-0.1114
13.5,1.6364,0.10853,0.10636,-0.1226
13.6,1.6229,0.11304,0.11089,-0.128
13.8,1.6096,0.11982,0.1177,-0.1356
13.9,1.6066,0.12255,0.12044,-0.1386
14,1.6056,0.1249,0.1228,-0.1412
14.1,1.6059,0.127,0.12491,-0.1434
14.2,1.6074,0.12887,0.12679,-0.1453
14.3,1.6094,0.13062,0.12854,-0.1471
14.4,1.6119,0.13224,0.13016,-0.1488
14.5,1.5957,0.13785,0.13579,-0.155
14.6,1.5875,0.14201,0.13996,-0.1593
14.7,1.5849,0.14491,0.14287,-0.1622
14.8,1.5846,0.14733,0.1453,-0.1647
14.9,1.5855,0.14947,0.14745,-0.1668
15,1.5871,0.15141,0.1494,-0.1687
15.1,1.5894,0.15318,0.15118,-0.1704
15.2,1.592,0.15484,0.15285,-0.172
15.3,1.5949,0.15639,0.15441,-0.1735
15.4,1.598,0.15787,0.15591,-0.175
15.5,1.6014,0.15927,0.15732,-0.1764
15.6,1.6049,0.16061,0.15867,-0.1778
15.7,1.6085,0.16191,0.15997,-0.1791
15.8,1.5999,0.16734,0.1654,-0.1841
15.9,1.5997,0.17013,0.1682,-0.1866
16,1.601,0.17242,0.1705,-0.1887
16.1,1.6031,0.17446,0.17255,-0.1906
16.2,1.6056,0.17634,0.17444,-0.1924
16.3,1.6085,0.1781,0.17621,-0.194
16.4,1.6116,0.17977,0.17789,-0.1956
16.5,1.6149,0.18135,0.17948,-0.1971
16.6,1.6184,0.18287,0.18101,-0.1985
16.7,1.6239,0.18365,0.1818,-0.1995
16.8,1.6279,0.18496,0.18312,-0.2008
16.9,1.6319,0.18623,0.1844,-0.2021
17,1.6361,0.18744,0.18562,-0.2033
17.1,1.6295,0.19405,0.19222,-0.2086
17.2,1.6317,0.19656,0.19474,-0.2109
17.3,1.6349,0.19844,0.19663,-0.2126
17.4,1.6384,0.20017,0.19837,-0.2141
17.5,1.6421,0.20177,0.19998,-0.2156
17.6,1.646,0.20326,0.20149,-0.2171
17.7,1.6502,0.20461,0.20285,-0.2184
17.8,1.6546,0.20586,0.20411,-0.2197
17.9,1.6541,0.21009,0.20833,-0.2231
18,1.6559,0.21309,0.21135,-0.2255
18.1,1.6588,0.21539,0.21365,-0.2275
18.2,1.6622,0.21736,0.21563,-0.2292
18.3,1.666,0.21908,0.21736,-0.2308
18.4,1.6701,0.22061,0.21891,-0.2323
18.5,1.6746,0.22195,0.22026,-0.2336
18.6,1.6763,0.22519,0.2235,-0.2362
18.7,1.6782,0.22851,0.22682,-0.2388
18.8,1.6813,0.23092,0.22924,-0.2408
18.9,1.6853,0.23283,0.23116,-0.2426
19,1.6894,0.23441,0.23276,-0.2441
19.1,1.6922,0.23715,0.23549,-0.2463
19.2,1.6948,0.24008,0.23843,-0.2486
19.3,1.6981,0.24245,0.24081,-0.2506
19.4,1.7017,0.24464,0.24301,-0.2524
19.5,1.7054,0.24666,0.24503,-0.2542
19.6,1.7092,0.24856,0.24695,-0.2558
19.7,1.7132,0.25038,0.24877,-0.2575
19.8,1.7172,0.2521,0.2505,-0.2591
19.9,1.7203,0.25482,0.25321,-0.2612
20,1.7233,0.25762,0.25601,-0.2634
20.1,1.7267,0.26013,0.25853,-0.2655
20.2,1.7303,0.26249,0.2609,-0.2674
20.3,1.7339,0.26474,0.26316,-0.2693
20.4,1.7376,0.26693,0.26535,-0.2711
20.5,1.7414,0.26905,0.26748,-0.273
20.6,1.7452,0.27112,0.26954,-0.2747
20.7,1.749,0.27314,0.27158,-0.2765
20.8,1.7529,0.27512,0.27356,-0.2783
20.9,1.7567,0.27705,0.27549,-0.28
21,1.7606,0.27899,0.27744,-0.2817
21.1,1.7639,0.28182,0.28026,-0.2839
21.2,1.7674,0.28464,0.28309,-0.2861
21.3,1.7709,0.28782,0.28627,-0.2885
21.4,1.7746,0.29018,0.28862,-0.2904
21.5,1.7783,0.29249,0.29094,-0.2923
21.6,1.7821,0.29477,0.29323,-0.2942
21.7,1.7859,0.29701,0.29547,-0.2961
21.8,1.7897,0.29923,0.29769,-0.298
21.9,1.7935,0.30142,0.29989,-0.2998
22,1.7973,0.30358,0.30205,-0.3017
22.1,1.8011,0.30571,0.30419,-0.3036
22.2,1.8048,0.30783,0.30632,-0.3054
22.3,1.8086,0.30992,0.30841,-0.3073
22.4,1.8124,0.31202,0.31052,-0.3091
22.5,1.8161,0.31407,0.31257,-0.311
22.6,1.8197,0.31758,0.31608,-0.3134
22.7,1.8235,0.32057,0.31907,-0.3157
22.8,1.8273,0.32332,0.32182,-0.3178
22.9,1.8311,0.32594,0.32445,-0.3198
23,1.8349,0.32856,0.32707,-0.3219
23.1,1.8387,0.3311,0.32961,-0.3239
23.2,1.8425,0.33361,0.33213,-0.326
23.3,1.8463,0.33609,0.33461,-0.328
23.4,1.85,0.33854,0.33706,-0.33
23.5,1.8538,0.34098,0.3395,-0.332
23.6,1.8575,0.34339,0.34192,-0.334
23.7,1.8613,0.3458,0.34433,-0.336
23.8,1.865,0.34818,0.34672,-0.338
23.9,1.8688,0.35056,0.3491,-0.34
24,1.8725,0.35292,0.35147,-0.342
24.1,1.8762,0.35528,0.35383,-0.344
24.2,1.8798,0.35761,0.35617,-0.346
24.3,1.8834,0.35965,0.35821,-0.348
24.4,1.887,0.36194,0.36051,-0.35
24.5,1.8905,0.36416,0.36273,-0.3519
24.6,1.8941,0.36642,0.365,-0.3539
24.7,1.8976,0.36866,0.36724,-0.356
24.8,1.9015,0.37165,0.37022,-0.3582
24.9,1.9059,0.37574,0.37432,-0.3608
25,1.9099,0.37891,0.37749,-0.3631
25.1,1.9137,0.3818,0.38038,-0.3653
25.2,1.9175,0.38466,0.38325,-0.3676
25.3,1.9213,0.38743,0.38602,-0.3697
25.4,1.925,0.39013,0.38873,-0.3719
25.5,1.9288,0.39285,0.39146,-0.3741
25.6,1.9325,0.39551,0.39412,-0.3762
25.7,1.9361,0.39815,0.39676,-0.3784
25.8,1.9398,0.40078,0.3994,-0.3806
25.9,1.9434,0.40338,0.40201,-0.3827
26,1.947,0.40601,0.40463,-0.3849
26.1,1.9506,0.40861,0.40724,-0.3871
26.2,1.9541,0.41119,0.40982,-0.3892
26.3,1.9576,0.41376,0.4124,-0.3914
26.4,1.9611,0.41634,0.41498,-0.3936
26.5,1.9646,0.4189,0.41755,-0.3957
26.6,1.9681,0.42146,0.42011,-0.3979
26.7,1.9715,0.42402,0.42267,-0.4001
26.8,1.9749,0.42656,0.42522,-0.4023
26.9,1.9783,0.4291,0.42776,-0.4045
27,1.9817,0.43164,0.4303,-0.4067
27.1,1.985,0.43417,0.43284,-0.4089
27.2,1.9884,0.4367,0.43537,-0.4111
27.3,1.9916,0.43921,0.43789,-0.4133

