airfoilName st13.dat
Re 	650000
M 	5.000000e-01
N 	4.500000e+00
VACC 	0 VACCflag 1
XTR 	1.00 	1.00 XTRflag 0
alpha,cl,cd,cdp,cm
-30,-1.6934,0.54931,0.54747,0.3568
-29.9,-1.6895,0.54633,0.54449,0.3544
-29.8,-1.6856,0.54336,0.54152,0.3519
-29.7,-1.6818,0.5404,0.53855,0.3494
-29.6,-1.6779,0.53745,0.53561,0.347
-29.5,-1.6739,0.53451,0.53266,0.3445
-29.4,-1.67,0.53157,0.52972,0.3421
-29.3,-1.666,0.52866,0.5268,0.3397
-29.2,-1.662,0.52574,0.52388,0.3372
-29.1,-1.6581,0.52283,0.52097,0.3348
-29,-1.654,0.51995,0.51808,0.3324
-28.9,-1.65,0.51705,0.51518,0.33
-28.8,-1.646,0.51419,0.51231,0.3276
-28.7,-1.6419,0.51132,0.50945,0.3252
-28.6,-1.6378,0.50845,0.50658,0.3228
-28.5,-1.6337,0.50561,0.50374,0.3204
-28.4,-1.6296,0.50277,0.50089,0.318
-28.3,-1.6255,0.49995,0.49807,0.3157
-28.2,-1.6213,0.49732,0.49544,0.3132
-28.1,-1.6171,0.49451,0.49262,0.3108
-28,-1.6129,0.49169,0.4898,0.3085
-27.9,-1.6087,0.48888,0.48699,0.3061
-27.8,-1.6045,0.48609,0.48419,0.3038
-27.7,-1.6002,0.4833,0.4814,0.3014
-27.6,-1.596,0.48053,0.47864,0.2991
-27.5,-1.5917,0.47776,0.47586,0.2967
-27.4,-1.5874,0.47501,0.47311,0.2944
-27.3,-1.5831,0.47225,0.47035,0.2921
-27.2,-1.5787,0.46953,0.46762,0.2897
-27.1,-1.5744,0.46679,0.46489,0.2874
-27,-1.57,0.46409,0.46218,0.285
-26.9,-1.5655,0.46138,0.45946,0.2826
-26.8,-1.5611,0.45868,0.45677,0.2803
-26.7,-1.5566,0.456,0.45408,0.2779
-26.6,-1.552,0.45332,0.4514,0.2755
-26.4,-1.5413,0.44787,0.44596,0.2695
-26.3,-1.5369,0.44503,0.44312,0.2674
-26.2,-1.5325,0.44222,0.44031,0.2652
-26.1,-1.5281,0.43944,0.43752,0.2631
-26,-1.5237,0.43667,0.43475,0.261
-25.9,-1.5193,0.43392,0.43199,0.2588
-25.8,-1.5148,0.43121,0.42929,0.2567
-25.7,-1.5104,0.42851,0.42658,0.2546
-25.6,-1.5059,0.42584,0.42391,0.2525
-25.5,-1.5014,0.42317,0.42124,0.2504
-25.4,-1.4969,0.42054,0.4186,0.2483
-25.3,-1.4924,0.41792,0.41598,0.2462
-25.2,-1.4879,0.41531,0.41337,0.2442
-25.1,-1.4834,0.41272,0.41078,0.2421
-25,-1.4788,0.41015,0.40821,0.24
-24.9,-1.4743,0.40759,0.40565,0.238
-24.8,-1.4697,0.40504,0.4031,0.2359
-24.7,-1.4651,0.40251,0.40056,0.2339
-24.6,-1.4606,0.4,0.39805,0.2319
-24.5,-1.456,0.39748,0.39553,0.2298
-24.4,-1.4513,0.39499,0.39303,0.2278
-24.3,-1.4467,0.39251,0.39055,0.2258
-24.2,-1.4421,0.39003,0.38807,0.2238
-24.1,-1.4374,0.38757,0.38561,0.2218
-24,-1.4328,0.38511,0.38315,0.2198
-23.9,-1.4281,0.38267,0.38071,0.2179
-23.8,-1.4235,0.38023,0.37827,0.2159
-23.7,-1.4188,0.3778,0.37584,0.2139
-23.6,-1.4141,0.37539,0.37342,0.212
-23.5,-1.4094,0.37297,0.371,0.21
-23.4,-1.4047,0.37058,0.36861,0.2081
-23.3,-1.3999,0.36818,0.36621,0.2062
-23.2,-1.3952,0.36579,0.36382,0.2043
-23.1,-1.3905,0.36342,0.36144,0.2024
-23,-1.3857,0.36105,0.35908,0.2004
-22.9,-1.381,0.35869,0.35672,0.1986
-22.8,-1.3762,0.35634,0.35436,0.1967
-22.7,-1.3714,0.354,0.35202,0.1948
-22.6,-1.3666,0.35196,0.34998,0.1928
-22.5,-1.3618,0.34962,0.34764,0.191
-22.4,-1.357,0.34728,0.3453,0.1891
-22.3,-1.3522,0.34495,0.34297,0.1873
-22.2,-1.3474,0.34263,0.34065,0.1854
-22.1,-1.3426,0.34032,0.33833,0.1836
-22,-1.3377,0.33802,0.33603,0.1818
-21.9,-1.3329,0.33572,0.33373,0.1799
-21.8,-1.3281,0.33344,0.33145,0.1781
-21.7,-1.3232,0.33116,0.32917,0.1763
-21.6,-1.3183,0.32889,0.32689,0.1745
-21.5,-1.3135,0.32663,0.32463,0.1727
-21.4,-1.3086,0.32438,0.32238,0.1709
-21.3,-1.3037,0.32214,0.32014,0.1691
-21.2,-1.2988,0.31991,0.31791,0.1673
-21.1,-1.2939,0.31767,0.31568,0.1656
-21,-1.289,0.31545,0.31345,0.1638
-20.9,-1.2841,0.31323,0.31123,0.162
-20.8,-1.2792,0.31103,0.30903,0.1602
-20.7,-1.2742,0.30884,0.30683,0.1585
-20.6,-1.2692,0.30664,0.30464,0.1567
-20.5,-1.2643,0.30445,0.30244,0.1549
-20.4,-1.2592,0.30225,0.30025,0.1531
-20.3,-1.2542,0.30006,0.29805,0.1514
-20.2,-1.2491,0.29785,0.29584,0.1495
-20.1,-1.244,0.29563,0.29363,0.1477
-20,-1.2389,0.29337,0.29137,0.1459
-19.9,-1.2336,0.29106,0.28905,0.1441
-19.7,-1.2208,0.28547,0.28347,0.1395
-19.6,-1.216,0.28321,0.28121,0.138
-19.5,-1.2112,0.28096,0.27896,0.1364
-19.4,-1.2063,0.27873,0.27673,0.1349
-19.3,-1.2015,0.27653,0.27452,0.1333
-19.2,-1.1967,0.27436,0.27235,0.1318
-19.1,-1.1918,0.27221,0.2702,0.1303
-19,-1.1869,0.27008,0.26807,0.1287
-18.9,-1.1821,0.26797,0.26595,0.1272
-18.8,-1.1772,0.26587,0.26386,0.1257
-18.7,-1.1723,0.26379,0.26178,0.1242
-18.6,-1.1674,0.26173,0.25972,0.1227
-18.5,-1.1625,0.25969,0.25768,0.1212
-18.4,-1.1575,0.25766,0.25564,0.1197
-18.3,-1.1526,0.25563,0.25362,0.1182
-18.2,-1.1477,0.25362,0.25161,0.1167
-18.1,-1.1427,0.25162,0.24961,0.1152
-18,-1.1377,0.24963,0.24762,0.1137
-17.9,-1.1327,0.24765,0.24564,0.1123
-17.8,-1.1277,0.24567,0.24366,0.1108
-17.7,-1.1227,0.24371,0.24169,0.1093
-17.6,-1.1177,0.24175,0.23973,0.1079
-17.5,-1.1126,0.24008,0.23807,0.1063
-17.4,-1.1075,0.23812,0.2361,0.1049
-17.3,-1.1025,0.23616,0.23414,0.1034
-17.2,-1.0974,0.2342,0.23219,0.102
-17.1,-1.0922,0.23225,0.23023,0.1006
-17,-1.0871,0.23029,0.22828,0.0992
-16.9,-1.0819,0.22834,0.22632,0.0977
-16.8,-1.0768,0.2264,0.22438,0.0963
-16.7,-1.0716,0.22447,0.22244,0.0949
-16.6,-1.0664,0.22253,0.22051,0.0935
-16.5,-1.0612,0.22061,0.21859,0.0921
-16.4,-1.056,0.21869,0.21667,0.0907
-16.3,-1.0508,0.21677,0.21475,0.0893
-16.2,-1.0455,0.21486,0.21284,0.0879
-16.1,-1.0403,0.21296,0.21094,0.0865
-16,-1.035,0.21106,0.20904,0.0852
-15.9,-1.0298,0.20917,0.20715,0.0838
-15.8,-1.0245,0.20728,0.20526,0.0824
-15.7,-1.0192,0.2054,0.20338,0.0811
-15.6,-1.0139,0.20352,0.20151,0.0797
-15.5,-1.0086,0.20165,0.19964,0.0784
-15.4,-1.0032,0.19979,0.19777,0.077
-15.3,-0.9979,0.19793,0.19591,0.0757
-15.2,-0.9926,0.19607,0.19406,0.0743
-15.1,-0.9872,0.19423,0.19221,0.073
-15,-0.9818,0.19238,0.19036,0.0716
-14.9,-0.9764,0.19054,0.18853,0.0703
-14.8,-0.971,0.1887,0.18668,0.069
-14.7,-0.9655,0.18686,0.18484,0.0676
-14.6,-0.96,0.18502,0.18301,0.0663
-14.5,-0.9545,0.18317,0.18116,0.065
-14.4,-0.949,0.18133,0.17932,0.0636
-14.3,-0.9434,0.17949,0.17748,0.0623
-14.2,-0.9379,0.17765,0.17563,0.061
-14.1,-0.9323,0.17581,0.17379,0.0597
-14,-0.9267,0.17394,0.17192,0.0583
-13.9,-0.9211,0.17208,0.17007,0.057
-13.8,-0.9154,0.1702,0.16818,0.0557
-13.7,-0.9097,0.16829,0.16627,0.0544
-13.6,-0.904,0.16636,0.16435,0.053
-13.5,-0.8981,0.16433,0.16231,0.0517
-13.4,-0.892,0.16222,0.16021,0.0503
-13.3,-0.8853,0.16004,0.15803,0.0487
-13.2,-0.8777,0.15785,0.15585,0.047
-13.1,-0.8724,0.15616,0.15417,0.0458
-13,-0.8671,0.15449,0.15249,0.0447
-12.9,-0.8618,0.15282,0.15082,0.0435
-12.8,-0.8569,0.15123,0.14924,0.0424
-12.7,-0.8514,0.14959,0.1476,0.0412
-12.6,-0.8459,0.14797,0.14598,0.0401
-12.5,-0.8404,0.14636,0.14437,0.0389
-12.4,-0.8348,0.14476,0.14278,0.0378
-12.3,-0.8292,0.14318,0.14119,0.0366
-12.2,-0.8236,0.14161,0.13963,0.0354
-12.1,-0.818,0.14006,0.13808,0.0343
-12,-0.8123,0.13852,0.13654,0.0331
-11.9,-0.8066,0.13699,0.13502,0.032
-11.8,-0.8008,0.13548,0.13351,0.0308
-11.7,-0.795,0.13398,0.132,0.0297
-11.6,-0.7892,0.13248,0.13051,0.0285
-11.5,-0.7833,0.131,0.12902,0.0273
-11.4,-0.7773,0.12953,0.12756,0.0262
-11.3,-0.7713,0.12807,0.1261,0.025
-11.2,-0.7653,0.12662,0.12465,0.0238
-11.1,-0.7593,0.12518,0.12322,0.0227
-11,-0.7532,0.12376,0.1218,0.0215
-10.9,-0.7471,0.12234,0.12039,0.0203
-10.8,-0.741,0.12094,0.11899,0.0192
-10.7,-0.7348,0.11955,0.1176,0.018
-10.6,-0.7285,0.11816,0.11622,0.0168
-10.5,-0.7223,0.11679,0.11485,0.0157
-10.4,-0.7159,0.11542,0.11348,0.0145
-10.3,-0.7096,0.11406,0.11213,0.0133
-10.2,-0.7032,0.11271,0.11078,0.0121
-10.1,-0.6968,0.11138,0.10945,0.011
-10,-0.6904,0.11005,0.10813,0.0098
-9.9,-0.684,0.10873,0.10682,0.0086
-9.8,-0.6775,0.10743,0.10551,0.0075
-9.7,-0.671,0.10612,0.10422,0.0063
-9.6,-0.6644,0.10483,0.10293,0.0052
-9.5,-0.6579,0.10355,0.10165,0.004
-9.4,-0.6514,0.10228,0.10039,0.0029
-9.3,-0.6449,0.10103,0.09914,0.0017
-9.2,-0.6385,0.09978,0.0979,0.0006
-9.1,-0.632,0.09855,0.09667,-0.0005
-9,-0.6257,0.09733,0.09546,-0.0016
-8.9,-0.6194,0.09613,0.09426,-0.0026
-8.8,-0.6133,0.09495,0.09309,-0.0037
-8.7,-0.6074,0.0938,0.09195,-0.0046
-8.6,-0.6019,0.09269,0.09084,-0.0055
-8.5,-0.5962,0.09156,0.08972,-0.0064
-8.4,-0.5858,0.09008,0.08824,-0.0086
-8.3,-0.5742,0.08853,0.08669,-0.0111
-8.2,-0.5638,0.08707,0.08523,-0.0132
-8.1,-0.5523,0.08555,0.0837,-0.0156
-8,-0.5406,0.08401,0.08216,-0.0181
-7.9,-0.5301,0.08257,0.08072,-0.0203
-7.8,-0.5183,0.08105,0.07919,-0.0228
-7.7,-0.5083,0.07965,0.07779,-0.0248
-7.6,-0.4976,0.07821,0.07634,-0.027
-7.5,-0.4872,0.07682,0.07494,-0.0291
-7.4,-0.476,0.07536,0.07347,-0.0315
-7.3,-0.4643,0.07385,0.07195,-0.0339
-7.2,-0.4526,0.0723,0.07039,-0.0363
-7.1,-0.441,0.07075,0.06882,-0.0387
-7,-0.429,0.06908,0.06714,-0.0412
-6.9,-0.4151,0.06686,0.06491,-0.0445
-6.8,-0.4033,0.0656,0.06363,-0.0467
-6.7,-0.3909,0.06432,0.06233,-0.049
-6.6,-0.3783,0.06305,0.06104,-0.0514
-6.5,-0.3655,0.06179,0.05976,-0.0537
-6.4,-0.3522,0.06052,0.05847,-0.056
-6.3,-0.3387,0.05926,0.05718,-0.0584
-6.2,-0.3246,0.05798,0.05588,-0.0608
-6.1,-0.3106,0.05672,0.05459,-0.0632
-6,-0.2961,0.05543,0.05327,-0.0656
-5.9,-0.2812,0.05413,0.05195,-0.068
-5.8,-0.2663,0.05284,0.05063,-0.0704
-5.7,-0.2509,0.05153,0.04928,-0.0729
-5.6,-0.2352,0.0502,0.04792,-0.0753
-5.5,-0.2191,0.04883,0.04652,-0.0778
-5.4,-0.203,0.04746,0.04511,-0.0802
-5.3,-0.1865,0.04606,0.04366,-0.0827
-5.2,-0.1695,0.0446,0.04216,-0.0852
-5.1,-0.1524,0.0431,0.04061,-0.0877
-5,-0.1348,0.04152,0.03898,-0.0903
-4.9,-0.1168,0.03984,0.03723,-0.0929
-4.8,-0.0979,0.03794,0.03526,-0.0958
-4.7,-0.078,0.03566,0.0329,-0.099
-4.6,-0.0529,0.03112,0.02816,-0.1048
-4.4,-0.0173,0.02809,0.02495,-0.1087
-4.2,0.0189,0.02411,0.0207,-0.1128
-3.9,0.0717,0.01319,0.00844,-0.1207
-3.8,0.0866,0.01233,0.00732,-0.1209
-3.7,0.1016,0.0117,0.00648,-0.121
-3.6,0.1165,0.01128,0.00593,-0.1209
-3.5,0.1313,0.011,0.00555,-0.1208
-3.4,0.1458,0.01077,0.00522,-0.1206
-3.3,0.1602,0.01056,0.00491,-0.1205
-3.2,0.1743,0.01039,0.00462,-0.1202
-3.1,0.1888,0.01026,0.00443,-0.12
-3,0.2032,0.0101,0.0042,-0.1199
-2.9,0.2174,0.00999,0.00401,-0.1197
-2.8,0.2318,0.00987,0.00384,-0.1196
-2.7,0.2458,0.00979,0.00366,-0.1193
-2.6,0.2601,0.0097,0.0035,-0.1192
-2.5,0.274,0.00964,0.00341,-0.119
-2.4,0.2882,0.00957,0.00329,-0.1188
-2.3,0.3024,0.0095,0.00318,-0.1187
-2.2,0.3166,0.00945,0.00306,-0.1186
-2.1,0.3305,0.00941,0.00296,-0.1184
-2,0.3445,0.00935,0.00287,-0.1183
-1.9,0.358,0.00936,0.00282,-0.1181
-1.8,0.3717,0.00935,0.00275,-0.1179
-1.7,0.3856,0.00933,0.00268,-0.1178
-1.6,0.3994,0.00932,0.00261,-0.1176
-1.5,0.413,0.00933,0.00256,-0.1175
-1.4,0.4268,0.00932,0.00252,-0.1174
-1.3,0.44,0.00937,0.00249,-0.1171
-1.2,0.4536,0.00939,0.00247,-0.117
-1.1,0.4675,0.00938,0.00244,-0.1169
-1,0.4811,0.0094,0.00242,-0.1168
-0.9,0.4946,0.00943,0.0024,-0.1167
-0.8,0.5083,0.00945,0.00239,-0.1166
-0.7,0.5216,0.0095,0.00238,-0.1164
-0.5,0.5482,0.0096,0.0024,-0.1162
-0.4,0.5615,0.00966,0.0024,-0.116
-0.3,0.575,0.0097,0.00242,-0.1159
-0.2,0.5881,0.00977,0.00244,-0.1158
-0.1,0.6015,0.00982,0.00245,-0.1157
0,0.6149,0.00987,0.00247,-0.1156
0.1,0.6282,0.00993,0.0025,-0.1154
0.2,0.6407,0.01007,0.00254,-0.1152
0.3,0.6538,0.01015,0.00257,-0.1151
0.4,0.6669,0.01024,0.00262,-0.1149
0.5,0.6798,0.01034,0.00267,-0.1148
0.6,0.6925,0.01046,0.00272,-0.1146
0.7,0.7051,0.01059,0.00279,-0.1144
0.8,0.7176,0.01075,0.00286,-0.1142
0.9,0.7299,0.01093,0.00295,-0.114
1,0.7414,0.01119,0.00308,-0.1137
1.1,0.7542,0.01132,0.00315,-0.1135
1.2,0.7671,0.01143,0.00321,-0.1134
1.3,0.7803,0.01152,0.00329,-0.1133
1.4,0.7936,0.0116,0.00335,-0.1131
1.5,0.8067,0.01169,0.00342,-0.113
1.6,0.8201,0.01175,0.00349,-0.1129
1.7,0.8334,0.01182,0.00355,-0.1128
1.8,0.8464,0.01193,0.00364,-0.1126
1.9,0.8599,0.01199,0.0037,-0.1125
2,0.8732,0.01206,0.00376,-0.1123
2.1,0.8865,0.01213,0.00384,-0.1122
2.2,0.8999,0.01219,0.00391,-0.1121
2.3,0.9134,0.01224,0.00398,-0.1119
2.4,0.9268,0.0123,0.00404,-0.1118
2.5,0.9401,0.01237,0.00412,-0.1117
2.6,0.9534,0.01244,0.0042,-0.1115
2.8,0.9707,0.01102,0.00443,-0.1097
2.9,0.9841,0.01112,0.0045,-0.1095
3,0.9974,0.01123,0.00459,-0.1093
3.1,1.0107,0.01134,0.00468,-0.1091
3.2,1.0242,0.01143,0.00476,-0.1089
3.3,1.0376,0.01152,0.00484,-0.1086
3.4,1.0511,0.01163,0.00493,-0.1084
3.5,1.0644,0.01173,0.00502,-0.1082
3.6,1.0777,0.01185,0.00512,-0.1079
3.8,1.1044,0.01207,0.00532,-0.1074
3.9,1.1178,0.01217,0.00542,-0.1072
4,1.1311,0.01229,0.00552,-0.1069
4.1,1.1443,0.01241,0.00563,-0.1066
4.2,1.1575,0.01254,0.00574,-0.1063
4.3,1.1709,0.01264,0.00585,-0.106
4.4,1.1843,0.01275,0.00596,-0.1057
4.5,1.1977,0.01287,0.00607,-0.1053
4.6,1.2108,0.013,0.00619,-0.105
4.7,1.2239,0.01314,0.00631,-0.1046
4.8,1.2371,0.01327,0.00644,-0.1043
4.9,1.2505,0.01338,0.00658,-0.1039
5,1.2638,0.01351,0.00671,-0.1035
5.1,1.277,0.01363,0.00684,-0.1031
5.2,1.2902,0.01377,0.00697,-0.1027
5.3,1.3033,0.01391,0.00711,-0.1023
5.4,1.3162,0.01406,0.00726,-0.1018
5.5,1.3293,0.01421,0.00741,-0.1013
5.6,1.3426,0.01434,0.00756,-0.1009
5.7,1.3557,0.01448,0.0077,-0.1004
5.8,1.3687,0.01463,0.00786,-0.0999
5.9,1.3817,0.01478,0.00802,-0.0994
6,1.3945,0.01495,0.0082,-0.0988
6.1,1.4072,0.01512,0.00838,-0.0982
6.2,1.4203,0.01527,0.00855,-0.0977
6.3,1.4333,0.01542,0.00872,-0.0971
6.4,1.4462,0.01558,0.0089,-0.0965
6.5,1.4589,0.01575,0.00909,-0.0959
6.6,1.4715,0.01593,0.00927,-0.0952
6.7,1.4839,0.01612,0.00947,-0.0945
6.8,1.4964,0.01631,0.00968,-0.0938
6.9,1.5091,0.01648,0.00988,-0.0931
7,1.5216,0.01666,0.0101,-0.0924
7.1,1.5341,0.01685,0.01031,-0.0916
7.2,1.5464,0.01704,0.01053,-0.0908
7.3,1.5585,0.01725,0.01076,-0.09
7.4,1.5704,0.01746,0.011,-0.0891
7.5,1.582,0.01768,0.01124,-0.0882
7.6,1.5935,0.01791,0.0115,-0.0873
7.7,1.6053,0.01812,0.01175,-0.0863
7.8,1.6171,0.01833,0.01199,-0.0854
7.9,1.6284,0.01856,0.01226,-0.0844
8,1.6395,0.01879,0.01253,-0.0833
8.1,1.6504,0.01904,0.01281,-0.0822
8.2,1.6609,0.0193,0.01312,-0.0811
8.3,1.6709,0.01957,0.01342,-0.0799
8.4,1.6809,0.01985,0.01374,-0.0786
8.5,1.6903,0.02011,0.01406,-0.0773
8.6,1.6989,0.02039,0.01439,-0.0758
8.7,1.7073,0.02068,0.01474,-0.0743
8.8,1.7154,0.02099,0.0151,-0.0728
8.9,1.7238,0.02129,0.01544,-0.0714
9,1.7317,0.02163,0.01583,-0.0699
9.1,1.7394,0.02199,0.01624,-0.0684
9.2,1.7466,0.02237,0.01667,-0.0669
9.3,1.7539,0.02276,0.01712,-0.0654
9.4,1.7613,0.02317,0.0176,-0.064
9.5,1.7684,0.02359,0.01809,-0.0625
9.6,1.7753,0.02404,0.01862,-0.061
9.7,1.7819,0.02451,0.01916,-0.0596
9.8,1.7882,0.025,0.01973,-0.0582
9.9,1.7943,0.02552,0.02032,-0.0568
10,1.7999,0.02606,0.02093,-0.0554
10.1,1.8052,0.02663,0.02158,-0.0541
10.2,1.8102,0.02724,0.02226,-0.0528
10.3,1.8147,0.02789,0.02297,-0.0515
10.4,1.8188,0.02858,0.02374,-0.0503
10.5,1.8225,0.02932,0.02457,-0.0492
10.6,1.8267,0.03005,0.0254,-0.0481
10.7,1.8295,0.03089,0.02633,-0.0471
10.8,1.832,0.03178,0.02732,-0.0462
10.9,1.8341,0.03272,0.02836,-0.0455
11,1.8358,0.03372,0.02946,-0.0448
11.1,1.8371,0.03479,0.03063,-0.0443
11.2,1.8382,0.03592,0.03186,-0.044
11.3,1.8388,0.03713,0.03316,-0.0439
11.4,1.8391,0.0384,0.03454,-0.0439
11.5,1.8391,0.03976,0.036,-0.0442
11.6,1.8388,0.0412,0.03755,-0.0447
11.7,1.8381,0.04276,0.03921,-0.0455
11.8,1.8372,0.04441,0.04096,-0.0466
11.9,1.8358,0.04621,0.04286,-0.048
12,1.8333,0.0482,0.04495,-0.0498
12.1,1.8293,0.05044,0.04732,-0.0521
12.2,1.8247,0.05288,0.04988,-0.0548
12.3,1.8192,0.05551,0.05262,-0.0578
12.4,1.8131,0.05835,0.05558,-0.0613
12.5,1.806,0.06141,0.05875,-0.0651
12.9,1.7662,0.07606,0.07377,-0.0831
13.1,1.7396,0.08443,0.08227,-0.0927
13.2,1.7259,0.08858,0.08647,-0.0976
13.8,1.6623,0.1111,0.10915,-0.1242
13.9,1.6562,0.11424,0.11231,-0.1278
14,1.6521,0.11708,0.11516,-0.131
14.1,1.6492,0.1197,0.11778,-0.134
14.2,1.6483,0.12195,0.12004,-0.1364
14.3,1.6459,0.12447,0.12256,-0.1393
14.4,1.6262,0.13023,0.12834,-0.1461
14.5,1.6129,0.13504,0.13318,-0.1515
14.6,1.606,0.13868,0.13683,-0.1554
14.7,1.6029,0.1416,0.13976,-0.1585
14.8,1.6019,0.14408,0.14225,-0.1611
14.9,1.6023,0.14625,0.14443,-0.1633
15,1.6036,0.14824,0.14642,-0.1653
15.1,1.6055,0.15006,0.14826,-0.1671
15.2,1.6079,0.15177,0.14998,-0.1688
15.3,1.6107,0.15335,0.15157,-0.1704
15.4,1.6136,0.15487,0.15309,-0.1719
15.5,1.6168,0.1563,0.15453,-0.1734
15.6,1.62,0.15768,0.15592,-0.1749
15.7,1.607,0.1638,0.16204,-0.1807
15.8,1.6065,0.16648,0.16474,-0.1833
15.9,1.6074,0.16878,0.16704,-0.1854
16,1.6091,0.17084,0.16911,-0.1874
16.1,1.6127,0.17242,0.1707,-0.1889
16.2,1.6156,0.17408,0.17237,-0.1905
16.3,1.6189,0.17567,0.17396,-0.192
16.4,1.6223,0.17718,0.17548,-0.1935
16.5,1.6259,0.17863,0.17694,-0.1949
16.6,1.6296,0.18004,0.17836,-0.1963
16.7,1.6335,0.18138,0.17971,-0.1977
16.8,1.6375,0.18269,0.18103,-0.199
16.9,1.6323,0.18771,0.18605,-0.2033
17,1.6315,0.19146,0.18981,-0.2065
17.1,1.6343,0.19346,0.19182,-0.2083
17.2,1.6375,0.1953,0.19367,-0.21
17.3,1.641,0.197,0.19538,-0.2115
17.4,1.6447,0.19858,0.19697,-0.213
17.5,1.6488,0.20005,0.19845,-0.2144
17.6,1.6529,0.20144,0.19985,-0.2158
17.7,1.6574,0.20271,0.20113,-0.2171
17.8,1.6574,0.20619,0.20461,-0.2199
17.9,1.657,0.21027,0.20869,-0.2232
18,1.6598,0.21251,0.21094,-0.2251
18.1,1.6632,0.21445,0.21289,-0.2269
18.2,1.6671,0.21615,0.2146,-0.2284
18.3,1.6713,0.21766,0.21612,-0.2299
18.4,1.6757,0.21903,0.2175,-0.2312
18.6,1.678,0.22618,0.22465,-0.2369
18.7,1.6816,0.22813,0.22661,-0.2386
18.8,1.6856,0.22985,0.22835,-0.2401
18.9,1.6899,0.23138,0.22988,-0.2416
19,1.6914,0.23491,0.23342,-0.2443
19.1,1.6944,0.23742,0.23593,-0.2464
19.2,1.6978,0.23963,0.23815,-0.2483
19.3,1.7014,0.24167,0.2402,-0.2501
19.4,1.7052,0.24358,0.24212,-0.2517
19.5,1.7092,0.24541,0.24395,-0.2534
19.6,1.7131,0.24722,0.24576,-0.255
19.7,1.7157,0.25017,0.24872,-0.2573
19.8,1.7189,0.25273,0.25129,-0.2594
19.9,1.7222,0.25512,0.25368,-0.2614
20,1.7257,0.25743,0.256,-0.2633
20.1,1.7293,0.25966,0.25823,-0.2652
20.2,1.733,0.26182,0.26039,-0.267
20.3,1.7367,0.26391,0.26249,-0.2688
20.4,1.7405,0.26597,0.26455,-0.2706
20.5,1.7443,0.26798,0.26657,-0.2724
20.6,1.7482,0.26996,0.26855,-0.2741
20.7,1.752,0.27191,0.27051,-0.2758
20.8,1.7551,0.27486,0.27345,-0.2781
20.9,1.7584,0.27757,0.27616,-0.2803
21,1.7619,0.2801,0.2787,-0.2823
21.1,1.7654,0.28282,0.28142,-0.2845
21.2,1.7691,0.28514,0.28375,-0.2864
21.3,1.7728,0.28743,0.28604,-0.2883
21.4,1.7765,0.28969,0.2883,-0.2902
21.5,1.7803,0.29192,0.29054,-0.2921
21.6,1.784,0.29412,0.29274,-0.294
21.7,1.7878,0.29629,0.29491,-0.2958
21.8,1.7916,0.29845,0.29707,-0.2977
21.9,1.7954,0.30058,0.29921,-0.2995
22,1.7991,0.3027,0.30133,-0.3014
22.1,1.8029,0.30479,0.30344,-0.3032
22.2,1.8064,0.30772,0.30636,-0.3055
22.3,1.81,0.31087,0.30951,-0.3078
22.4,1.8137,0.31363,0.31228,-0.3099
22.5,1.8174,0.31635,0.315,-0.3121
22.6,1.8212,0.31898,0.31763,-0.3141
22.7,1.8249,0.32153,0.32018,-0.3162
22.8,1.8287,0.32402,0.32268,-0.3182
22.9,1.8324,0.32648,0.32514,-0.3202
23,1.8362,0.32894,0.3276,-0.3222
23.1,1.84,0.33136,0.33003,-0.3242
23.2,1.8437,0.33377,0.33245,-0.3262
23.3,1.8475,0.33616,0.33484,-0.3282
23.4,1.8512,0.33854,0.33722,-0.3301
23.5,1.8549,0.3409,0.33958,-0.3321
23.6,1.8586,0.34325,0.34194,-0.3341
23.7,1.8624,0.34559,0.34429,-0.3361
23.8,1.866,0.34792,0.34661,-0.3381
23.9,1.8697,0.35024,0.34894,-0.3401
24,1.8734,0.35255,0.35125,-0.342
24.1,1.8769,0.35449,0.3532,-0.3439
24.2,1.8805,0.35674,0.35545,-0.3459
24.3,1.884,0.35896,0.35768,-0.3479
24.4,1.888,0.36256,0.36127,-0.3504
24.5,1.8922,0.36625,0.36496,-0.3528
24.6,1.8961,0.36922,0.36793,-0.3551
24.7,1.9,0.3721,0.37081,-0.3573
24.8,1.9037,0.37481,0.37353,-0.3594
24.9,1.9075,0.37758,0.37631,-0.3616
25,1.9113,0.38029,0.37901,-0.3637
25.1,1.915,0.38293,0.38166,-0.3659
25.2,1.9187,0.38557,0.38431,-0.368
25.3,1.9224,0.38819,0.38693,-0.3701
25.4,1.9261,0.39078,0.38952,-0.3723
25.5,1.9297,0.39337,0.39212,-0.3744
25.6,1.9333,0.39594,0.3947,-0.3765
25.7,1.9369,0.3985,0.39726,-0.3787
25.8,1.9405,0.40105,0.39981,-0.3808
25.9,1.944,0.4036,0.40237,-0.383
26,1.9476,0.40614,0.40491,-0.3851
26.1,1.9511,0.40867,0.40744,-0.3872
26.2,1.9546,0.41119,0.40998,-0.3894
26.3,1.958,0.4137,0.41249,-0.3915
26.4,1.9615,0.41622,0.41501,-0.3937
26.5,1.9649,0.41872,0.41751,-0.3959
26.6,1.9683,0.42122,0.42002,-0.398
26.7,1.9717,0.42373,0.42253,-0.4002
26.8,1.9751,0.42621,0.42502,-0.4024
26.9,1.9784,0.4287,0.42751,-0.4046
27,1.9817,0.43118,0.43,-0.4067
27.1,1.985,0.43366,0.43248,-0.4089
27.2,1.9906,0.43971,0.43852,-0.4121
27.3,1.9943,0.4428,0.44161,-0.4145
27.4,1.9979,0.4458,0.44461,-0.4168
27.5,2.0015,0.44884,0.44765,-0.4192
27.6,2.005,0.45173,0.45054,-0.4215
27.7,2.0085,0.45463,0.45345,-0.4238
27.8,2.0119,0.45747,0.4563,-0.4261
27.9,2.0154,0.46033,0.45916,-0.4284
28,2.0187,0.46316,0.462,-0.4308
28.1,2.0222,0.46604,0.46488,-0.4331
28.2,2.0248,0.46805,0.46689,-0.4352

