airfoilName st14.dat
Re 	750000
M 	5.000000e-01
N 	4.500000e+00
VACC 	0 VACCflag 1
XTR 	1.00 	1.00 XTRflag 0
alpha,cl,cd,cdp,cm
-30,-1.6415,0.55002,0.54835,0.3443
-29.9,-1.6377,0.54688,0.54521,0.3419
-29.8,-1.6339,0.54371,0.54203,0.3395
-29.7,-1.6301,0.54059,0.53891,0.3371
-29.6,-1.6262,0.53749,0.5358,0.3347
-29.5,-1.6223,0.53443,0.53274,0.3323
-29.4,-1.6184,0.53139,0.52969,0.3299
-29.3,-1.6146,0.52836,0.52666,0.3275
-29.2,-1.6106,0.52534,0.52364,0.3251
-29.1,-1.6067,0.52237,0.52066,0.3228
-29,-1.6028,0.5194,0.5177,0.3204
-28.9,-1.5988,0.51646,0.51475,0.318
-28.8,-1.5948,0.51353,0.51182,0.3157
-28.7,-1.5908,0.51062,0.50891,0.3134
-28.6,-1.5868,0.50774,0.50603,0.311
-28.5,-1.5828,0.50486,0.50314,0.3087
-28.4,-1.5788,0.50201,0.50029,0.3064
-28.3,-1.5747,0.49916,0.49744,0.3041
-28.2,-1.5707,0.49634,0.49462,0.3018
-28.1,-1.5666,0.49352,0.4918,0.2995
-28,-1.5625,0.49071,0.48899,0.2972
-27.9,-1.5584,0.48792,0.4862,0.2949
-27.8,-1.5543,0.48516,0.48343,0.2926
-27.7,-1.5501,0.48239,0.48066,0.2903
-27.6,-1.5459,0.47964,0.4779,0.2881
-27.5,-1.5418,0.47691,0.47517,0.2858
-27.4,-1.5376,0.47417,0.47243,0.2836
-27.3,-1.5334,0.47145,0.46971,0.2813
-27.2,-1.5292,0.46874,0.46699,0.2791
-27.1,-1.525,0.46604,0.46429,0.2769
-27,-1.5207,0.46335,0.4616,0.2746
-26.9,-1.5165,0.46066,0.45891,0.2724
-26.8,-1.5122,0.458,0.45624,0.2702
-26.7,-1.5079,0.45533,0.45357,0.268
-26.6,-1.5036,0.45267,0.45091,0.2658
-26.5,-1.4993,0.45002,0.44826,0.2636
-26.4,-1.495,0.44738,0.44562,0.2615
-26.3,-1.4906,0.44475,0.44298,0.2593
-26.2,-1.4862,0.44212,0.44036,0.2571
-26.1,-1.4818,0.4395,0.43773,0.255
-26,-1.4775,0.43715,0.43539,0.2528
-25.9,-1.4731,0.43454,0.43277,0.2507
-25.8,-1.4686,0.43191,0.43014,0.2485
-25.7,-1.4642,0.42932,0.42755,0.2464
-25.6,-1.4597,0.42672,0.42495,0.2443
-25.5,-1.4553,0.42413,0.42236,0.2422
-25.4,-1.4508,0.42156,0.41978,0.2401
-25.3,-1.4463,0.419,0.41722,0.238
-25.2,-1.4418,0.41643,0.41465,0.2359
-25.1,-1.4372,0.41389,0.41211,0.2338
-25,-1.4327,0.41133,0.40955,0.2317
-24.9,-1.4282,0.40881,0.40701,0.2296
-24.8,-1.4236,0.40629,0.4045,0.2276
-24.7,-1.419,0.40376,0.40197,0.2255
-24.6,-1.4144,0.40126,0.39946,0.2234
-24.5,-1.4098,0.39876,0.39696,0.2214
-24.4,-1.4052,0.39627,0.39447,0.2194
-24.3,-1.4006,0.39379,0.39199,0.2173
-24.2,-1.396,0.39131,0.3895,0.2153
-24.1,-1.3913,0.38886,0.38705,0.2133
-24,-1.3867,0.3864,0.3846,0.2112
-23.9,-1.382,0.38394,0.38214,0.2092
-23.8,-1.3773,0.3815,0.3797,0.2072
-23.7,-1.3726,0.37907,0.37726,0.2052
-23.6,-1.3679,0.37664,0.37483,0.2032
-23.5,-1.3631,0.37422,0.37241,0.2012
-23.4,-1.3583,0.37181,0.37,0.1992
-23.3,-1.3536,0.36941,0.3676,0.1971
-23.2,-1.3487,0.36701,0.3652,0.1951
-23.1,-1.3439,0.36462,0.3628,0.1931
-23,-1.339,0.3622,0.36038,0.191
-22.9,-1.3341,0.35976,0.35795,0.1889
-22.7,-1.3225,0.3545,0.35269,0.1839
-22.6,-1.3178,0.35195,0.35014,0.1821
-22.5,-1.3132,0.34946,0.34764,0.1803
-22.4,-1.3085,0.34698,0.34516,0.1785
-22.3,-1.3039,0.34453,0.34272,0.1767
-22.2,-1.2992,0.34212,0.3403,0.1749
-22.1,-1.2945,0.33974,0.33791,0.1732
-22,-1.2899,0.33738,0.33556,0.1714
-21.9,-1.2852,0.33505,0.33322,0.1696
-21.8,-1.2805,0.33273,0.33091,0.1679
-21.7,-1.2758,0.33044,0.32861,0.1661
-21.6,-1.2711,0.32817,0.32634,0.1644
-21.5,-1.2664,0.32591,0.32408,0.1627
-21.4,-1.2616,0.32367,0.32184,0.1609
-21.3,-1.2569,0.32145,0.31961,0.1592
-21.2,-1.2522,0.31923,0.3174,0.1575
-21.1,-1.2474,0.31704,0.3152,0.1558
-21,-1.2427,0.31484,0.313,0.1541
-20.9,-1.2379,0.31266,0.31082,0.1524
-20.8,-1.2331,0.31048,0.30864,0.1507
-20.7,-1.2283,0.30831,0.30647,0.149
-20.6,-1.2235,0.30615,0.30431,0.1473
-20.5,-1.2187,0.30435,0.30251,0.1456
-20.4,-1.2139,0.30217,0.30033,0.1439
-20.3,-1.209,0.30001,0.29817,0.1423
-20.2,-1.2041,0.29786,0.29602,0.1406
-20.1,-1.1993,0.29571,0.29386,0.139
-20,-1.1944,0.29356,0.29172,0.1374
-19.9,-1.1895,0.29143,0.28958,0.1357
-19.8,-1.1846,0.2893,0.28745,0.1341
-19.7,-1.1797,0.28717,0.28532,0.1325
-19.6,-1.1748,0.28505,0.2832,0.1309
-19.5,-1.1699,0.28294,0.28109,0.1293
-19.4,-1.165,0.28084,0.27898,0.1277
-19.3,-1.1601,0.27874,0.27689,0.1262
-19.2,-1.1552,0.27664,0.27479,0.1246
-19.1,-1.1502,0.27456,0.2727,0.123
-19,-1.1453,0.27247,0.27062,0.1214
-18.9,-1.1403,0.2704,0.26854,0.1199
-18.8,-1.1354,0.26833,0.26647,0.1183
-18.7,-1.1304,0.26626,0.26441,0.1168
-18.6,-1.1255,0.2642,0.26234,0.1153
-18.5,-1.1205,0.26215,0.26029,0.1137
-18.4,-1.1155,0.2601,0.25824,0.1122
-18.3,-1.1105,0.25805,0.25619,0.1107
-18.2,-1.1055,0.25601,0.25415,0.1091
-18.1,-1.1005,0.25398,0.25212,0.1076
-18,-1.0955,0.25194,0.25008,0.1061
-17.9,-1.0904,0.24991,0.24805,0.1046
-17.8,-1.0853,0.24788,0.24602,0.1031
-17.7,-1.0803,0.24585,0.24399,0.1015
-17.6,-1.0752,0.24382,0.24196,0.1
-17.5,-1.07,0.24178,0.23992,0.0985
-17.4,-1.0649,0.23974,0.23788,0.097
-17.3,-1.0597,0.23769,0.23583,0.0954
-17.2,-1.0544,0.2356,0.23374,0.0939
-17.1,-1.0492,0.23351,0.23165,0.0923
-17,-1.0438,0.23135,0.22948,0.0908
-16.9,-1.0384,0.22913,0.22726,0.0892
-16.6,-1.0193,0.22178,0.21992,0.0837
-16.5,-1.0145,0.21974,0.21788,0.0824
-16.4,-1.0097,0.21772,0.21585,0.0811
-16.3,-1.0048,0.21571,0.21385,0.0798
-16.2,-1,0.21373,0.21187,0.0786
-16.1,-0.9951,0.21177,0.20991,0.0773
-16,-0.9902,0.20983,0.20797,0.076
-15.9,-0.9853,0.20792,0.20605,0.0747
-15.8,-0.9803,0.20602,0.20416,0.0734
-15.7,-0.9754,0.20413,0.20227,0.0721
-15.6,-0.9704,0.20246,0.20059,0.0708
-15.5,-0.9654,0.20061,0.19875,0.0695
-15.4,-0.9603,0.19877,0.19691,0.0683
-15.3,-0.9552,0.19695,0.19509,0.067
-15.2,-0.9501,0.19514,0.19328,0.0657
-15.1,-0.945,0.19335,0.19149,0.0645
-15,-0.9399,0.19156,0.1897,0.0632
-14.9,-0.9347,0.18979,0.18793,0.0619
-14.8,-0.9295,0.18802,0.18616,0.0607
-14.7,-0.9242,0.18625,0.18439,0.0594
-14.6,-0.919,0.1845,0.18264,0.0581
-14.5,-0.9137,0.18275,0.18089,0.0569
-14.4,-0.9084,0.18101,0.17916,0.0556
-14.3,-0.9031,0.17928,0.17742,0.0544
-14.2,-0.8978,0.17757,0.17571,0.0532
-14.1,-0.8924,0.17586,0.174,0.0519
-14,-0.8871,0.17416,0.1723,0.0507
-13.9,-0.8817,0.17246,0.1706,0.0495
-13.8,-0.8763,0.17077,0.16892,0.0482
-13.7,-0.8709,0.1691,0.16724,0.047
-13.6,-0.8655,0.16743,0.16557,0.0458
-13.5,-0.86,0.16577,0.16392,0.0446
-13.4,-0.8545,0.16412,0.16226,0.0434
-13.3,-0.8491,0.16247,0.16062,0.0422
-13.2,-0.8436,0.16083,0.15898,0.0409
-13.1,-0.838,0.15919,0.15735,0.0397
-13,-0.8324,0.15756,0.15572,0.0385
-12.9,-0.8268,0.15594,0.15409,0.0373
-12.8,-0.8212,0.15432,0.15247,0.0361
-12.7,-0.8156,0.1527,0.15086,0.0349
-12.6,-0.8099,0.1511,0.14925,0.0337
-12.5,-0.8042,0.1495,0.14766,0.0325
-12.4,-0.7985,0.1479,0.14606,0.0313
-12.3,-0.7928,0.14632,0.14448,0.0302
-12.2,-0.7871,0.14474,0.1429,0.029
-12.1,-0.7813,0.14316,0.14133,0.0278
-12,-0.7756,0.1416,0.13976,0.0266
-11.9,-0.7698,0.14003,0.1382,0.0254
-11.8,-0.764,0.13848,0.13665,0.0242
-11.7,-0.7581,0.13692,0.13509,0.0231
-11.6,-0.7522,0.13536,0.13353,0.0219
-11.5,-0.7462,0.13381,0.13198,0.0207
-11.4,-0.7403,0.13227,0.13044,0.0195
-11.3,-0.7343,0.13072,0.1289,0.0183
-11.2,-0.7284,0.12919,0.12736,0.0172
-11.1,-0.7224,0.12765,0.12583,0.016
-11,-0.7164,0.12612,0.1243,0.0148
-10.9,-0.7104,0.12458,0.12276,0.0137
-10.8,-0.7043,0.12303,0.12122,0.0125
-10.7,-0.6982,0.1215,0.11968,0.0113
-10.6,-0.6921,0.11993,0.11813,0.0102
-10.5,-0.6847,0.11764,0.11583,0.0086
-10.4,-0.6783,0.11606,0.11425,0.0074
-10.3,-0.6717,0.11449,0.11269,0.0062
-10.2,-0.665,0.11294,0.11114,0.0049
-10,-0.652,0.11001,0.10824,0.0025
-9.9,-0.6464,0.10866,0.10688,0.0015
-9.8,-0.6407,0.10731,0.10555,0.0005
-9.7,-0.635,0.10599,0.10423,-0.0004
-9.6,-0.6295,0.10469,0.10294,-0.0014
-9.5,-0.6239,0.10342,0.10166,-0.0023
-9.4,-0.6184,0.10217,0.10042,-0.0033
-9.3,-0.6131,0.10094,0.0992,-0.0041
-9.2,-0.608,0.09975,0.09802,-0.0049
-9.1,-0.6031,0.09861,0.09688,-0.0057
-9,-0.5981,0.09746,0.09574,-0.0065
-8.9,-0.5889,0.09599,0.09427,-0.0084
-8.8,-0.5794,0.09452,0.0928,-0.0104
-8.7,-0.5694,0.09306,0.09133,-0.0125
-8.6,-0.5602,0.09166,0.08993,-0.0144
-8.5,-0.5506,0.09027,0.08854,-0.0164
-8.4,-0.5404,0.08886,0.08713,-0.0185
-8.3,-0.5305,0.08749,0.08576,-0.0205
-8.2,-0.5211,0.08619,0.08446,-0.0223
-8.1,-0.5112,0.08486,0.08313,-0.0243
-8,-0.5004,0.08348,0.08175,-0.0265
-7.9,-0.4915,0.08226,0.08052,-0.0282
-7.8,-0.4824,0.08104,0.0793,-0.0299
-7.7,-0.4728,0.0798,0.07806,-0.0317
-7.6,-0.4637,0.07861,0.07686,-0.0334
-7.5,-0.4548,0.07745,0.07569,-0.0351
-7.4,-0.4441,0.07621,0.07443,-0.0371
-7.3,-0.434,0.07499,0.07321,-0.039
-7.2,-0.4232,0.07376,0.07196,-0.0411
-7.1,-0.4123,0.07251,0.0707,-0.0431
-7,-0.401,0.07127,0.06944,-0.0453
-6.9,-0.3898,0.07002,0.06818,-0.0473
-6.8,-0.3782,0.06876,0.0669,-0.0494
-6.7,-0.3662,0.06747,0.06559,-0.0517
-6.6,-0.3537,0.06617,0.06427,-0.054
-6.5,-0.3413,0.06486,0.06294,-0.0562
-6.4,-0.3283,0.06352,0.06158,-0.0586
-6.3,-0.315,0.06215,0.0602,-0.061
-6.2,-0.3014,0.06077,0.05879,-0.0634
-6.1,-0.2874,0.05935,0.05735,-0.066
-6,-0.2731,0.0579,0.05586,-0.0685
-5.9,-0.2583,0.05638,0.05433,-0.0712
-5.8,-0.2429,0.05479,0.05271,-0.074
-5.7,-0.2271,0.05307,0.05095,-0.0769
-5.6,-0.2107,0.05116,0.049,-0.08
-5.5,-0.1925,0.04863,0.04643,-0.084
-5.4,-0.1755,0.0471,0.04488,-0.0869
-5.3,-0.1588,0.04584,0.04357,-0.0895
-5.1,-0.1254,0.04372,0.04138,-0.0941
-5,-0.1081,0.0424,0.04002,-0.0965
-4.9,-0.0909,0.04107,0.03864,-0.0989
-4.8,-0.0729,0.03966,0.03718,-0.1014
-4.7,-0.0546,0.03819,0.03566,-0.104
-4.6,-0.036,0.03662,0.03404,-0.1066
-4.5,-0.0172,0.03493,0.03226,-0.1092
-4.4,0.0031,0.03291,0.03017,-0.1123
-4.2,0.0562,0.02391,0.0207,-0.124
-4.1,0.076,0.02132,0.01791,-0.1269
-4,0.0976,0.01472,0.01065,-0.1326
-3.8,0.1288,0.0121,0.00747,-0.1342
-3.7,0.1439,0.01144,0.00662,-0.1344
-3.6,0.1589,0.01094,0.00594,-0.1345
-3.5,0.1738,0.01054,0.00539,-0.1344
-3.4,0.1887,0.01022,0.00494,-0.1344
-3.3,0.2034,0.00998,0.00462,-0.1343
-3.2,0.218,0.00981,0.00438,-0.1342
-3.1,0.2321,0.00967,0.00416,-0.134
-3,0.2466,0.00953,0.00394,-0.1338
-2.9,0.2604,0.00944,0.00373,-0.1335
-2.8,0.2749,0.00932,0.00354,-0.1334
-2.7,0.2892,0.00925,0.00348,-0.1333
-2.6,0.3036,0.00916,0.00333,-0.1332
-2.5,0.3175,0.00909,0.0032,-0.133
-2.4,0.3317,0.00904,0.0031,-0.1328
-2.3,0.3455,0.00898,0.00297,-0.1326
-2.2,0.3597,0.00892,0.00287,-0.1325
-2.1,0.3738,0.00887,0.00279,-0.1324
-2,0.3874,0.00886,0.00269,-0.1322
-1.9,0.4015,0.00881,0.00261,-0.1321
-1.8,0.4152,0.00881,0.00254,-0.1319
-1.7,0.4292,0.00876,0.00247,-0.1318
-1.6,0.4429,0.00875,0.00244,-0.1317
-1.5,0.4568,0.00874,0.00238,-0.1316
-1.4,0.47,0.00878,0.00234,-0.1313
-1.3,0.4837,0.00878,0.0023,-0.1312
-1.2,0.497,0.00881,0.00227,-0.131
-1.1,0.5102,0.00885,0.00225,-0.1308
-1,0.5238,0.00887,0.00224,-0.1307
-0.9,0.5374,0.0089,0.00222,-0.1306
-0.8,0.5503,0.00896,0.00221,-0.1304
-0.7,0.5638,0.00899,0.00221,-0.1302
-0.6,0.577,0.00904,0.00221,-0.1301
-0.5,0.5905,0.00908,0.00221,-0.13
-0.4,0.6039,0.00912,0.00221,-0.1298
-0.3,0.6173,0.00915,0.00223,-0.1297
-0.2,0.6307,0.0092,0.00224,-0.1296
-0.1,0.643,0.00934,0.00228,-0.1293
0,0.6558,0.00943,0.0023,-0.1291
0.1,0.669,0.00949,0.00233,-0.129
0.3,0.6947,0.00968,0.00241,-0.1286
0.4,0.7076,0.00977,0.00245,-0.1285
0.5,0.7204,0.00987,0.0025,-0.1283
0.6,0.7331,0.00999,0.00256,-0.1281
0.7,0.7444,0.01024,0.00266,-0.1277
0.8,0.7566,0.0104,0.00275,-0.1275
0.9,0.7686,0.0106,0.00284,-0.1272
1,0.7805,0.0108,0.00294,-0.1269
1.1,0.7928,0.01097,0.00303,-0.1267
1.2,0.8055,0.0111,0.0031,-0.1265
1.3,0.8186,0.01119,0.00317,-0.1263
1.4,0.8315,0.01129,0.00324,-0.1262
1.5,0.8443,0.0114,0.00332,-0.126
1.6,0.8574,0.01148,0.00339,-0.1258
1.7,0.8707,0.01156,0.00346,-0.1257
1.8,0.8839,0.01163,0.00352,-0.1255
1.9,0.8972,0.0117,0.00358,-0.1254
2,0.9103,0.01178,0.00366,-0.1252
2.1,0.9236,0.01184,0.00372,-0.125
2.2,0.9369,0.0119,0.00379,-0.1249
2.3,0.9498,0.01201,0.00387,-0.1247
2.4,0.9631,0.01208,0.00394,-0.1245
2.5,0.9765,0.01214,0.00401,-0.1243
2.6,0.9897,0.01221,0.00409,-0.1241
2.7,1.003,0.01227,0.00417,-0.124
2.8,1.0161,0.01236,0.00425,-0.1238
2.9,1.0295,0.01242,0.00433,-0.1236
3,1.0428,0.01248,0.00441,-0.1234
3.1,1.0561,0.01255,0.00449,-0.1232
3.2,1.0691,0.01264,0.00458,-0.1229
3.3,1.0823,0.0127,0.00468,-0.1227
3.4,1.0875,0.01136,0.00488,-0.1213
3.5,1.1009,0.01146,0.00496,-0.121
3.6,1.1141,0.01156,0.00505,-0.1208
3.7,1.1273,0.01167,0.00514,-0.1205
3.8,1.1404,0.01179,0.00524,-0.1202
3.9,1.1537,0.0119,0.00534,-0.1199
4,1.167,0.012,0.00545,-0.1196
4.1,1.1801,0.01211,0.00555,-0.1193
4.2,1.1933,0.01223,0.00565,-0.1189
4.3,1.2063,0.01236,0.00576,-0.1186
4.4,1.2194,0.01248,0.00588,-0.1182
4.5,1.2327,0.01259,0.00599,-0.1179
4.6,1.2459,0.0127,0.0061,-0.1175
4.7,1.2591,0.01282,0.00622,-0.1171
4.8,1.2722,0.01294,0.00634,-0.1167
4.9,1.2851,0.01308,0.00647,-0.1163
5,1.298,0.01322,0.0066,-0.1159
5.1,1.3112,0.01334,0.00674,-0.1154
5.2,1.3243,0.01347,0.00687,-0.115
5.3,1.3373,0.0136,0.00701,-0.1145
5.4,1.3503,0.01375,0.00715,-0.114
5.5,1.3631,0.0139,0.00729,-0.1135
5.6,1.376,0.01404,0.00745,-0.113
5.7,1.389,0.01418,0.0076,-0.1124
5.8,1.402,0.01432,0.00775,-0.1119
5.9,1.4148,0.01447,0.0079,-0.1113
6,1.4275,0.01463,0.00806,-0.1107
6.1,1.4401,0.0148,0.00823,-0.1101
6.2,1.4528,0.01496,0.00842,-0.1095
6.3,1.4656,0.01511,0.00859,-0.1088
6.4,1.4783,0.01527,0.00877,-0.1082
6.5,1.491,0.01543,0.00895,-0.1075
6.6,1.5035,0.0156,0.00914,-0.1068
6.7,1.5159,0.01579,0.00933,-0.1061
6.8,1.5281,0.01598,0.00954,-0.1053
6.9,1.5404,0.01617,0.00974,-0.1045
7,1.5527,0.01634,0.00994,-0.1037
7.1,1.5649,0.01653,0.01015,-0.1029
7.2,1.577,0.01672,0.01037,-0.102
7.3,1.5888,0.01692,0.0106,-0.1011
7.4,1.6005,0.01713,0.01084,-0.1002
7.5,1.6118,0.01736,0.01109,-0.0992
7.6,1.6234,0.01757,0.01134,-0.0982
7.7,1.635,0.01778,0.01158,-0.0972
7.8,1.6463,0.018,0.01184,-0.0961
7.9,1.6574,0.01822,0.01209,-0.095
8,1.6682,0.01846,0.01236,-0.0939
8.1,1.6787,0.01871,0.01264,-0.0927
8.2,1.6888,0.01898,0.01294,-0.0914
8.3,1.6982,0.01924,0.01324,-0.0901
8.4,1.7073,0.01949,0.01355,-0.0886
8.5,1.7161,0.01977,0.01387,-0.0871
8.6,1.7249,0.02005,0.01421,-0.0856
8.7,1.7334,0.02035,0.01456,-0.0841
8.8,1.7418,0.02067,0.01493,-0.0826
8.9,1.7501,0.021,0.01531,-0.0811
9,1.7582,0.02134,0.0157,-0.0796
9.1,1.766,0.02171,0.0161,-0.0781
9.2,1.774,0.02207,0.01653,-0.0766
9.3,1.7817,0.02246,0.01698,-0.0751
9.4,1.7891,0.02286,0.01746,-0.0735
9.5,1.7964,0.02329,0.01795,-0.072
9.6,1.8034,0.02373,0.01846,-0.0705
9.7,1.8102,0.0242,0.019,-0.069
9.8,1.8165,0.0247,0.01956,-0.0674
9.9,1.8225,0.02521,0.02015,-0.0659
10,1.828,0.02577,0.02077,-0.0645
10.1,1.8331,0.02636,0.02144,-0.063
10.2,1.8379,0.02699,0.02215,-0.0615
10.3,1.8422,0.02765,0.0229,-0.0601
10.4,1.8462,0.02836,0.0237,-0.0587
10.5,1.8496,0.02911,0.02455,-0.0574
10.6,1.8525,0.02991,0.02544,-0.0561
10.7,1.855,0.03076,0.02639,-0.0549
10.8,1.857,0.03167,0.02739,-0.0538
10.9,1.8586,0.03263,0.02845,-0.0528
11,1.8598,0.03365,0.02958,-0.052
11.1,1.8606,0.03474,0.03077,-0.0513
11.2,1.8609,0.03589,0.03202,-0.0507
11.3,1.863,0.03694,0.03315,-0.0502
11.4,1.8628,0.03821,0.03453,-0.0499
11.5,1.8622,0.03957,0.03598,-0.0499
11.6,1.8613,0.041,0.03752,-0.05
11.7,1.86,0.04254,0.03916,-0.0505
11.8,1.8583,0.04418,0.0409,-0.0512
11.9,1.8553,0.04601,0.04284,-0.0522
12,1.8514,0.04803,0.04498,-0.0536
12.1,1.8468,0.05021,0.04728,-0.0554
12.2,1.8419,0.05254,0.04972,-0.0576
12.3,1.8364,0.05506,0.05236,-0.0602
12.4,1.8303,0.0578,0.0552,-0.0632
12.5,1.8236,0.06072,0.05823,-0.0666
12.7,1.8077,0.06729,0.065,-0.0744
12.9,1.7878,0.07486,0.07275,-0.0834
13.2,1.7502,0.08739,0.08548,-0.0973
13.3,1.7371,0.09152,0.08965,-0.1019
13.4,1.7247,0.09555,0.09371,-0.1065
13.6,1.7013,0.10344,0.10166,-0.1156
13.7,1.6907,0.10727,0.10551,-0.12
13.8,1.6807,0.11102,0.10929,-0.1244
14,1.6631,0.11828,0.11658,-0.1327
14.1,1.6554,0.12175,0.12007,-0.1366
14.2,1.6494,0.12499,0.12332,-0.1402
14.3,1.6443,0.12808,0.12642,-0.1436
14.4,1.6411,0.13088,0.12923,-0.1466
14.5,1.6446,0.13243,0.13078,-0.1481
14.6,1.644,0.13472,0.13308,-0.1505
14.7,1.6299,0.13966,0.13803,-0.1561
14.8,1.6172,0.14452,0.14291,-0.1615
14.9,1.6089,0.14863,0.14703,-0.1659
15,1.6045,0.15196,0.15038,-0.1694
15.1,1.6024,0.1548,0.15323,-0.1722
15.2,1.6019,0.15727,0.1557,-0.1747
15.3,1.6024,0.15951,0.15795,-0.1769
15.4,1.6038,0.16155,0.15999,-0.1788
15.5,1.6057,0.16346,0.16191,-0.1807
15.6,1.6117,0.16438,0.16284,-0.1816
15.8,1.6144,0.16856,0.16702,-0.1857
15.9,1.6087,0.17279,0.17126,-0.1897
16,1.6074,0.17584,0.17432,-0.1925
16.1,1.6079,0.17845,0.17693,-0.1949
16.2,1.6098,0.1806,0.17909,-0.1969
16.3,1.6123,0.18256,0.18105,-0.1987
16.4,1.6153,0.18433,0.18284,-0.2004
16.5,1.6186,0.186,0.18452,-0.202
16.6,1.6223,0.18755,0.18607,-0.2035
16.7,1.6263,0.189,0.18753,-0.2049
16.8,1.6303,0.1904,0.18893,-0.2063
16.9,1.6253,0.19563,0.19416,-0.2107
17,1.6266,0.19837,0.19692,-0.213
17.1,1.6289,0.20068,0.19923,-0.215
17.2,1.6319,0.20269,0.20126,-0.2168
17.3,1.6354,0.20447,0.20304,-0.2185
17.4,1.6393,0.20606,0.20464,-0.22
17.5,1.6436,0.20751,0.2061,-0.2213
17.6,1.645,0.21034,0.20893,-0.2237
17.7,1.6454,0.21386,0.21246,-0.2266
17.8,1.6478,0.21643,0.21503,-0.2287
17.9,1.6509,0.21862,0.21723,-0.2306
18,1.6545,0.22055,0.21916,-0.2323
18.1,1.6584,0.22228,0.2209,-0.2339
18.2,1.6625,0.22388,0.22251,-0.2354
18.3,1.6645,0.2268,0.22543,-0.2378
18.5,1.6695,0.23243,0.23107,-0.2423
18.6,1.6731,0.23445,0.2331,-0.244
18.7,1.6769,0.23638,0.23503,-0.2457
18.8,1.6808,0.23822,0.23688,-0.2474
18.9,1.684,0.24054,0.2392,-0.2493
19,1.6866,0.24339,0.24205,-0.2516
19.1,1.6897,0.24597,0.24464,-0.2537
19.2,1.693,0.24839,0.24706,-0.2557
19.3,1.6964,0.25072,0.2494,-0.2576
19.4,1.7,0.25296,0.25164,-0.2595
19.5,1.7036,0.25514,0.25382,-0.2613
19.6,1.7073,0.25727,0.25596,-0.2631
19.7,1.7111,0.25934,0.25803,-0.2649
19.8,1.7149,0.26136,0.26006,-0.2666
19.9,1.7187,0.26338,0.26208,-0.2684
20,1.7226,0.26534,0.26405,-0.2701
20.1,1.7256,0.26835,0.26704,-0.2724
20.2,1.7289,0.27103,0.26973,-0.2745
20.3,1.7323,0.27365,0.27235,-0.2766
20.4,1.7359,0.27617,0.27488,-0.2786
20.5,1.7395,0.27862,0.27733,-0.2806
20.6,1.7432,0.28102,0.27973,-0.2825
20.7,1.7469,0.28338,0.28209,-0.2844
20.8,1.7507,0.28571,0.28443,-0.2863
20.9,1.7545,0.28801,0.28673,-0.2882
21,1.7582,0.29027,0.289,-0.2901
21.1,1.762,0.29251,0.29125,-0.292
21.3,1.7698,0.29658,0.29532,-0.2956
21.4,1.7736,0.29871,0.29746,-0.2974
21.5,1.7774,0.30082,0.29957,-0.2992
21.6,1.7812,0.3029,0.30165,-0.3011
21.7,1.7848,0.30597,0.30471,-0.3033
21.8,1.7885,0.30909,0.30783,-0.3056
21.9,1.7922,0.31189,0.31064,-0.3077
22,1.796,0.31465,0.3134,-0.3098
22.1,1.7998,0.31724,0.31599,-0.3118
22.2,1.8037,0.31977,0.31853,-0.3138
22.3,1.8075,0.3223,0.32106,-0.3158
22.4,1.8113,0.32475,0.32351,-0.3177
22.5,1.8152,0.3272,0.32597,-0.3197
22.6,1.819,0.32961,0.32838,-0.3217
22.7,1.8228,0.33201,0.33079,-0.3236
22.8,1.8266,0.33439,0.33317,-0.3256
22.9,1.8304,0.33675,0.33553,-0.3275
23,1.8342,0.3391,0.33789,-0.3295
23.1,1.838,0.34145,0.34024,-0.3314
23.2,1.8418,0.34378,0.34257,-0.3334
23.3,1.8455,0.34609,0.34488,-0.3354
23.4,1.8492,0.34839,0.34719,-0.3373
23.5,1.853,0.35071,0.34951,-0.3393
23.6,1.8567,0.35299,0.3518,-0.3412
23.7,1.8604,0.35527,0.35408,-0.3432
23.8,1.864,0.35755,0.35637,-0.3452
23.9,1.8677,0.35983,0.35864,-0.3472
24,1.8713,0.3621,0.36093,-0.3491
24.1,1.8749,0.36434,0.36317,-0.3511
24.2,1.8785,0.36659,0.36543,-0.3531
24.3,1.8824,0.36961,0.36844,-0.3554
24.4,1.8876,0.37501,0.37384,-0.3583
24.5,1.8915,0.37786,0.3767,-0.3605
24.6,1.8953,0.38061,0.37945,-0.3626
24.7,1.8992,0.38334,0.38218,-0.3647
24.8,1.9029,0.38596,0.3848,-0.3668
24.9,1.9067,0.38864,0.38749,-0.369
25,1.9104,0.39126,0.39011,-0.3711
25.1,1.9141,0.39388,0.39274,-0.3732
25.2,1.9178,0.39646,0.39532,-0.3753
25.3,1.9215,0.39905,0.39791,-0.3774
25.4,1.9252,0.40161,0.40048,-0.3796
25.5,1.9288,0.40417,0.40304,-0.3817
25.6,1.9324,0.40672,0.40559,-0.3838
25.7,1.936,0.40927,0.40814,-0.3859
25.8,1.9396,0.41181,0.41069,-0.3881
25.9,1.9431,0.41433,0.41321,-0.3902
26,1.9466,0.41686,0.41575,-0.3923
26.1,1.9501,0.41938,0.41827,-0.3945
26.2,1.9536,0.42189,0.42078,-0.3966
26.3,1.957,0.4244,0.4233,-0.3988
26.4,1.9605,0.42689,0.42579,-0.4009
26.5,1.9639,0.4294,0.4283,-0.4031
26.6,1.9672,0.43189,0.4308,-0.4053
26.7,1.9706,0.43436,0.43328,-0.4074
26.8,1.9739,0.43684,0.43576,-0.4096
26.9,1.9772,0.43932,0.43824,-0.4118
27,1.9805,0.44177,0.4407,-0.414
27.1,1.9838,0.4444,0.44333,-0.4163
27.2,1.9888,0.44922,0.44814,-0.419
27.3,1.9928,0.45284,0.45177,-0.4215
27.4,1.9967,0.45613,0.45506,-0.4239
27.5,2.001,0.46016,0.4591,-0.4265
27.6,2.0045,0.46312,0.46206,-0.4288
27.7,2.008,0.46603,0.46498,-0.4311
27.8,2.0114,0.46887,0.46782,-0.4334
27.9,2.0148,0.47176,0.47071,-0.4358
28,2.0182,0.47463,0.47358,-0.4381
28.1,2.0216,0.4775,0.47646,-0.4404
28.2,2.0249,0.48029,0.47925,-0.4427
28.3,2.0281,0.48312,0.48209,-0.445
28.4,2.0314,0.48594,0.48491,-0.4474
28.5,2.0346,0.48874,0.48771,-0.4497
28.6,2.0378,0.49152,0.49049,-0.452
28.7,2.041,0.49432,0.4933,-0.4544
29.1,2.0531,0.50611,0.5051,-0.4636

