airfoilName st14.dat
Re 	3.000000e+04
M 	5.000000e-01
N 	4.500000e+00
VACC 	0 VACCflag 1
XTR 	1.00 	1.00 XTRflag 0
alpha,cl,cd,cdp,cm
-24.5,-1.3856,0.42644,0.41573,0.2032
-24.4,-1.3809,0.42359,0.41287,0.2012
-24.3,-1.3761,0.42073,0.41001,0.1993
-24.2,-1.3713,0.4179,0.40717,0.1973
-24.1,-1.3665,0.41508,0.40435,0.1954
-24,-1.3617,0.41227,0.40152,0.1934
-23.9,-1.3569,0.40947,0.39872,0.1915
-23.8,-1.3521,0.40695,0.3962,0.1895
-23.7,-1.3473,0.40418,0.39342,0.1876
-23.6,-1.3424,0.40142,0.39066,0.1857
-23.5,-1.3375,0.39867,0.3879,0.1838
-23.4,-1.3326,0.39592,0.38515,0.1819
-23.3,-1.3277,0.3932,0.38242,0.18
-23.2,-1.3228,0.39049,0.3797,0.1781
-23.1,-1.3179,0.38779,0.377,0.1762
-23,-1.3129,0.38509,0.3743,0.1743
-22.9,-1.308,0.38242,0.37162,0.1724
-22.8,-1.303,0.37976,0.36895,0.1706
-22.7,-1.298,0.3771,0.36629,0.1687
-22.6,-1.293,0.37446,0.36364,0.1668
-22.5,-1.288,0.37184,0.36102,0.165
-22.4,-1.283,0.36921,0.35835,0.1632
-22.3,-1.278,0.36661,0.35574,0.1613
-22.2,-1.2729,0.36402,0.35315,0.1595
-22.1,-1.2679,0.36144,0.35056,0.1577
-22,-1.2628,0.35888,0.34801,0.1559
-21.9,-1.2577,0.35633,0.34545,0.154
-21.8,-1.2526,0.35379,0.3429,0.1522
-21.7,-1.2475,0.35126,0.34036,0.1504
-21.6,-1.2424,0.34874,0.33784,0.1486
-21.5,-1.2372,0.34623,0.33533,0.1468
-21.4,-1.2321,0.34373,0.33283,0.1451
-21.3,-1.2269,0.34125,0.33034,0.1433
-21.2,-1.2217,0.33877,0.32786,0.1415
-21.1,-1.2165,0.3363,0.32539,0.1397
-21,-1.2113,0.33385,0.32294,0.1379
-20.9,-1.206,0.33141,0.32049,0.1362
-20.8,-1.2007,0.32897,0.31805,0.1344
-20.7,-1.1954,0.32655,0.31563,0.1326
-20.6,-1.1901,0.32414,0.31321,0.1309
-20.5,-1.1848,0.32173,0.3108,0.1291
-20.4,-1.1794,0.31934,0.3084,0.1274
-20.3,-1.174,0.31695,0.30601,0.1256
-20.2,-1.1686,0.31457,0.30363,0.1238
-20.1,-1.1631,0.3122,0.30126,0.1221
-20,-1.1576,0.30983,0.29889,0.1203
-19.9,-1.152,0.30748,0.29653,0.1185
-19.8,-1.1463,0.30513,0.29415,0.1167
-19.7,-1.1406,0.3028,0.29182,0.1148
-19.6,-1.1347,0.3005,0.28951,0.1129
-19.1,-1.1064,0.28919,0.27828,0.1041
-19,-1.1014,0.28692,0.27601,0.1026
-18.9,-1.0964,0.28466,0.27375,0.1012
-18.8,-1.0914,0.28243,0.27151,0.0997
-18.7,-1.0863,0.2802,0.26928,0.0983
-18.6,-1.0812,0.27799,0.26707,0.0969
-18.5,-1.0762,0.27579,0.26487,0.0954
-18.4,-1.0711,0.2736,0.26269,0.094
-18.3,-1.066,0.27143,0.26051,0.0926
-18.2,-1.0609,0.26926,0.25835,0.0912
-18.1,-1.0558,0.26712,0.2562,0.0898
-18,-1.0507,0.26498,0.25407,0.0884
-17.9,-1.0458,0.26315,0.25224,0.087
-17.8,-1.0406,0.26103,0.25012,0.0856
-17.7,-1.0355,0.25893,0.24802,0.0842
-17.6,-1.0303,0.25683,0.24592,0.0828
-17.5,-1.0251,0.25475,0.24384,0.0815
-17.4,-1.02,0.25269,0.24178,0.0801
-17.3,-1.0148,0.25062,0.23971,0.0787
-17.2,-1.0096,0.24857,0.23763,0.0774
-17.1,-1.0044,0.24654,0.23559,0.076
-17,-0.9992,0.24451,0.23356,0.0747
-16.9,-0.994,0.24249,0.23155,0.0733
-16.8,-0.9888,0.24047,0.22953,0.072
-16.7,-0.9835,0.23848,0.22754,0.0707
-16.6,-0.9783,0.2365,0.22557,0.0693
-16.5,-0.9731,0.23452,0.22359,0.068
-16.4,-0.9678,0.23256,0.22163,0.0667
-16.3,-0.9625,0.23061,0.21968,0.0654
-16.2,-0.9573,0.22866,0.21774,0.0641
-16.1,-0.952,0.22673,0.21581,0.0628
-16,-0.9467,0.22481,0.21389,0.0615
-15.9,-0.9414,0.22291,0.21199,0.0602
-15.8,-0.9361,0.22101,0.2101,0.0589
-15.7,-0.9307,0.21913,0.20822,0.0576
-15.6,-0.9254,0.21725,0.20635,0.0563
-15.5,-0.92,0.21539,0.20449,0.055
-15.4,-0.9146,0.21354,0.20264,0.0537
-15.3,-0.9093,0.2117,0.20081,0.0524
-15.2,-0.9038,0.20988,0.19899,0.0511
-15.1,-0.8984,0.20806,0.19718,0.0498
-15,-0.8929,0.20627,0.19539,0.0485
-14.9,-0.8874,0.20449,0.19362,0.0472
-14.8,-0.8819,0.20272,0.19186,0.0459
-14.7,-0.8763,0.20097,0.19011,0.0446
-14.6,-0.8706,0.19925,0.1884,0.0432
-14.5,-0.8649,0.19756,0.18667,0.0419
-14.4,-0.859,0.1959,0.18502,0.0404
-14.3,-0.8531,0.19429,0.18342,0.0389
-14.2,-0.8468,0.19277,0.18191,0.0373
-14.1,-0.8399,0.19144,0.18059,0.0354
-14,-0.8344,0.1898,0.17903,0.0341
-13.9,-0.8295,0.18799,0.17723,0.0331
-13.8,-0.8246,0.18621,0.17546,0.0322
-13.7,-0.8197,0.18445,0.1737,0.0312
-13.6,-0.8148,0.1827,0.17196,0.0302
-13.5,-0.8098,0.18097,0.17024,0.0293
-13.4,-0.8049,0.17926,0.16854,0.0283
-13.3,-0.7999,0.17757,0.16685,0.0273
-13.2,-0.7949,0.17589,0.16518,0.0264
-13.1,-0.7899,0.17423,0.16353,0.0254
-13,-0.7848,0.17258,0.16189,0.0245
-12.9,-0.7798,0.17095,0.16027,0.0235
-12.8,-0.7747,0.16933,0.15866,0.0225
-12.7,-0.7696,0.16772,0.15706,0.0216
-12.6,-0.7646,0.16613,0.15548,0.0206
-12.5,-0.7595,0.16455,0.15391,0.0197
-12.4,-0.7543,0.16298,0.15236,0.0187
-12.3,-0.7492,0.16143,0.15081,0.0178
-12.2,-0.7439,0.16021,0.14961,0.0167
-12.1,-0.7386,0.15869,0.1481,0.0157
-12,-0.7334,0.15718,0.1466,0.0147
-11.9,-0.7282,0.15569,0.14512,0.0137
-11.8,-0.7229,0.1542,0.14362,0.0128
-11.7,-0.7177,0.15273,0.14216,0.0118
-11.6,-0.7124,0.15128,0.14072,0.0108
-11.5,-0.7071,0.14984,0.13929,0.0098
-11.4,-0.7017,0.14841,0.13788,0.0089
-11.3,-0.6964,0.147,0.13649,0.0079
-11.2,-0.691,0.14561,0.13511,0.0069
-11,-0.6801,0.14288,0.13241,0.0049
-10.9,-0.6746,0.14155,0.1311,0.0038
-10.8,-0.6691,0.14024,0.1298,0.0028
-10.7,-0.6635,0.13895,0.12854,0.0017
-10.6,-0.6578,0.1377,0.12731,0.0006
-10.5,-0.652,0.1365,0.12612,-0.0006
-10.3,-0.6397,0.13431,0.12398,-0.0034
-10.2,-0.6326,0.13348,0.12318,-0.0053
-10.1,-0.6274,0.13227,0.12208,-0.0063
-10,-0.623,0.13085,0.12067,-0.0068
-9.9,-0.6186,0.12945,0.11929,-0.0073
-9.8,-0.6142,0.12808,0.11795,-0.0079
-9.7,-0.6098,0.12674,0.11663,-0.0084
-9.6,-0.6054,0.12542,0.11534,-0.0089
-9.5,-0.601,0.12413,0.11407,-0.0095
-9.4,-0.5966,0.12287,0.11284,-0.01
-9.3,-0.5923,0.12163,0.11162,-0.0105
-9.2,-0.588,0.12041,0.11043,-0.011
-9.1,-0.5838,0.11922,0.10927,-0.0115
-9,-0.5797,0.11805,0.10809,-0.012
-8.9,-0.5757,0.1169,0.10698,-0.0124
-8.8,-0.5717,0.11578,0.10589,-0.0129
-8.7,-0.5679,0.11468,0.10482,-0.0133
-8.6,-0.5641,0.11361,0.10378,-0.0137
-8.5,-0.5606,0.11256,0.10277,-0.0141
-8.4,-0.5571,0.11154,0.10178,-0.0144
-8,-0.5446,0.10767,0.09806,-0.0156
-7.9,-0.5416,0.10674,0.09718,-0.0158
-7.8,-0.5381,0.10578,0.09626,-0.0163
-7.7,-0.5342,0.1048,0.09531,-0.0168
-7.6,-0.5303,0.10384,0.09439,-0.0173
-7.5,-0.5233,0.10342,0.09401,-0.0194
-7.4,-0.5187,0.10254,0.09316,-0.0202
-7.2,-0.5078,0.10084,0.09153,-0.0227
-7.1,-0.5,0.10017,0.09089,-0.025
-7,-0.4965,0.09909,0.08993,-0.0253
-6.9,-0.4937,0.09795,0.08883,-0.0252
-6.8,-0.4907,0.09684,0.08775,-0.0252
-6,-0.4618,0.08833,0.0795,-0.0264
-5.9,-0.4576,0.08729,0.07846,-0.0267
-5.8,-0.4531,0.08624,0.07743,-0.0271
-5.7,-0.4484,0.08518,0.0764,-0.0275
-5.6,-0.4434,0.08412,0.07537,-0.028
-5.5,-0.4381,0.08305,0.07431,-0.0285
-5,-0.4049,0.0775,0.06882,-0.0326
-4.8,-0.3864,0.07512,0.06641,-0.0354
-4.3,-0.3385,0.06891,0.0602,-0.042
-4.2,-0.3251,0.06773,0.059,-0.0436
-4.1,-0.3079,0.06622,0.05745,-0.0461
-4,-0.2897,0.06472,0.05588,-0.0488
-3.8,-0.248,0.06157,0.05256,-0.0554
-3.6,-0.1906,0.0578,0.04842,-0.066
-3.5,-0.1757,0.05654,0.04714,-0.0674
-3.4,-0.1586,0.05527,0.04583,-0.0693
-3.3,-0.1425,0.05407,0.04458,-0.0709
-3.2,-0.1248,0.05285,0.04329,-0.073
-3.1,-0.1052,0.05159,0.04193,-0.0753
-2.9,-0.0469,0.04838,0.03819,-0.0845
-2.8,-0.0321,0.04742,0.0372,-0.0855
-2.7,-0.0166,0.04647,0.03621,-0.0867
-2.6,0.0025,0.04544,0.03508,-0.0886
-2.5,0.023,0.04437,0.03384,-0.0907
-2.3,0.0721,0.04185,0.03077,-0.0966
-2.1,0.1048,0.04056,0.02937,-0.0987
-1.9,0.1479,0.03869,0.02693,-0.1027
-1.7,0.1859,0.03741,0.02552,-0.1055
-1.6,0.2081,0.03669,0.0245,-0.1074
-1.5,0.2227,0.0363,0.02402,-0.108
-1.3,0.2599,0.03523,0.02253,-0.1102
-1.2,0.2792,0.03473,0.02194,-0.1115
-1.1,0.298,0.03429,0.02146,-0.1127
-0.9,0.3297,0.03367,0.0206,-0.1139
-0.8,0.3479,0.03333,0.0201,-0.1149
-0.7,0.367,0.03299,0.01965,-0.116
-0.6,0.388,0.03262,0.01923,-0.1174
-0.5,0.3999,0.03251,0.01905,-0.1174
-0.4,0.4158,0.03225,0.0187,-0.1179
-0.3,0.434,0.03199,0.01838,-0.1189
-0.2,0.4548,0.03169,0.01803,-0.1202
0,0.4824,0.03136,0.01768,-0.1206
0.1,0.5014,0.03109,0.0174,-0.1216
0.2,0.5207,0.03081,0.01719,-0.1227
0.5,0.5664,0.03013,0.01676,-0.1239
0.6,0.586,0.02986,0.01661,-0.125
0.7,0.5949,0.02975,0.01659,-0.1244
0.8,0.6118,0.02933,0.0165,-0.1251
0.9,0.6307,0.02902,0.01641,-0.1261
1,0.6404,0.0288,0.0164,-0.1254
1.1,0.6556,0.02839,0.01636,-0.1257
1.2,0.6665,0.02825,0.01568,-0.1226
1.3,0.6746,0.02843,0.01576,-0.1214
1.4,0.6935,0.02855,0.01575,-0.122
1.5,0.7031,0.02872,0.01583,-0.1212
1.6,0.7207,0.02884,0.01586,-0.1216
1.7,0.7313,0.029,0.01594,-0.1208
1.8,0.7496,0.02905,0.01591,-0.1211
2.2,0.7923,0.02923,0.01584,-0.1163
2.4,0.8153,0.02942,0.01595,-0.1146
2.5,0.8305,0.02948,0.016,-0.1143
2.6,0.8399,0.02968,0.01619,-0.1134
2.7,0.8507,0.02971,0.01618,-0.1122
2.8,0.8613,0.02989,0.01636,-0.1114
2.9,0.8734,0.03002,0.01648,-0.1108
3,0.8834,0.03008,0.01651,-0.1094
3.1,0.8958,0.03021,0.01664,-0.1088
3.2,0.9092,0.03031,0.01674,-0.1082
3.3,0.9238,0.03038,0.01681,-0.1077
3.4,0.9394,0.03043,0.01686,-0.1072
3.5,0.9486,0.03057,0.01698,-0.1059
3.6,0.963,0.03068,0.01712,-0.1054
3.7,0.9777,0.0308,0.01724,-0.1049
3.8,0.9929,0.03091,0.01735,-0.1044
3.9,1.0059,0.03099,0.01739,-0.1033
4,1.0204,0.03116,0.01756,-0.1028
4.1,1.035,0.03134,0.01774,-0.1023
4.2,1.0496,0.03155,0.01794,-0.1018
4.3,1.0641,0.03179,0.01816,-0.1013
4.4,1.076,0.03201,0.01832,-0.1002
4.5,1.0892,0.03233,0.01862,-0.0996
4.6,1.1027,0.03265,0.0189,-0.099
4.7,1.1148,0.03305,0.01934,-0.0984
4.8,1.1264,0.03348,0.01977,-0.0977
4.9,1.1365,0.03384,0.02002,-0.0966
5,1.148,0.03429,0.02044,-0.096
5.1,1.1594,0.03477,0.02092,-0.0953
5.2,1.1702,0.0353,0.02144,-0.0947
5.3,1.1817,0.03582,0.02195,-0.0941
5.4,1.192,0.0364,0.02254,-0.0935
5.5,1.2028,0.03698,0.02312,-0.0929
5.6,1.2102,0.03751,0.02358,-0.0918
5.7,1.2212,0.0381,0.02412,-0.0911
5.8,1.2297,0.03881,0.0249,-0.0905
5.9,1.2409,0.03942,0.02549,-0.0899
6,1.2495,0.04016,0.02632,-0.0893
6.1,1.2582,0.04091,0.02712,-0.0887
6.2,1.2699,0.04156,0.02774,-0.0881
6.3,1.2734,0.04228,0.02847,-0.0869
6.4,1.2852,0.04295,0.02909,-0.0863
6.5,1.2904,0.04388,0.03012,-0.0857
6.6,1.2978,0.04475,0.03107,-0.085
6.7,1.308,0.04553,0.03185,-0.0844
6.8,1.3165,0.04641,0.03272,-0.0838
6.9,1.3198,0.04748,0.03395,-0.0831
7,1.3262,0.04845,0.035,-0.0825
7.1,1.3315,0.04915,0.03561,-0.0814
7.2,1.3334,0.0503,0.03692,-0.0807
7.3,1.3383,0.05136,0.03806,-0.0801
7.4,1.3467,0.0523,0.03903,-0.0795
7.5,1.3568,0.05321,0.03994,-0.0789
7.6,1.3522,0.05466,0.0416,-0.0783
7.7,1.3512,0.05601,0.04309,-0.0777
7.8,1.3535,0.05724,0.0444,-0.0771
7.9,1.3598,0.05832,0.04554,-0.0766
8,1.3712,0.05925,0.04646,-0.076
8.2,1.3466,0.06228,0.04972,-0.0745
8.3,1.3491,0.06353,0.05103,-0.0741
8.4,1.3564,0.06458,0.05211,-0.0735
8.5,1.3622,0.0657,0.0532,-0.073
8.7,1.3393,0.06982,0.0576,-0.0741
8.8,1.3351,0.07166,0.05951,-0.0747
8.9,1.3351,0.07323,0.06114,-0.0749
9,1.3391,0.07453,0.06249,-0.0748
9.1,1.3475,0.07555,0.06353,-0.0742
9.5,1.3243,0.08353,0.07173,-0.0798
9.6,1.3311,0.08461,0.07284,-0.0794
9.7,1.3365,0.08586,0.07406,-0.0792
9.8,1.3204,0.08943,0.07774,-0.0842
9.9,1.3158,0.09193,0.0803,-0.087
10,1.3161,0.09386,0.08228,-0.0885
10.1,1.3193,0.09543,0.08389,-0.0892
10.2,1.3244,0.09673,0.08523,-0.0892
10.3,1.3311,0.09784,0.08637,-0.0887
10.4,1.3353,0.09929,0.0878,-0.089
10.5,1.3232,0.10314,0.09172,-0.0955
10.6,1.3225,0.10546,0.09408,-0.0982
10.7,1.3248,0.10728,0.09595,-0.0995
10.8,1.3309,0.10764,0.09637,-0.0986
10.9,1.3374,0.10871,0.09747,-0.098
11,1.332,0.11198,0.10074,-0.1033
11.1,1.3308,0.11465,0.10345,-0.107
11.2,1.333,0.1166,0.10545,-0.1088
11.3,1.3365,0.11826,0.10714,-0.1099
11.4,1.3409,0.11974,0.10866,-0.1104
11.5,1.3459,0.12109,0.11005,-0.1106
11.6,1.3514,0.12234,0.11134,-0.1104
11.7,1.3574,0.1235,0.11253,-0.1098
11.8,1.3525,0.12697,0.11597,-0.1164
11.9,1.3538,0.12917,0.11821,-0.1193
12,1.3568,0.131,0.12008,-0.121
12.1,1.3608,0.13183,0.12093,-0.1215
12.2,1.3659,0.13319,0.12234,-0.1217
12.3,1.3712,0.13449,0.12367,-0.1215
12.4,1.3744,0.13627,0.12543,-0.123
12.5,1.3732,0.13903,0.12822,-0.1283
12.6,1.3758,0.141,0.13022,-0.1308
12.7,1.3792,0.14276,0.13202,-0.1324
12.8,1.3832,0.14441,0.13371,-0.1336
12.9,1.3875,0.14599,0.13533,-0.1344
13,1.392,0.14751,0.13689,-0.135
13.1,1.3969,0.14899,0.13842,-0.1353
13.2,1.4019,0.15045,0.13991,-0.1354
13.3,1.4071,0.15188,0.14138,-0.1353
13.4,1.4075,0.15426,0.14372,-0.1401
13.5,1.4079,0.15592,0.14541,-0.145
13.6,1.412,0.15757,0.14714,-0.1463
13.7,1.4163,0.15917,0.14878,-0.1472
13.8,1.4208,0.16074,0.15038,-0.148
13.9,1.4254,0.16228,0.15197,-0.1485
14,1.4303,0.16381,0.15354,-0.1489
14.1,1.4352,0.16532,0.15509,-0.1491
14.3,1.4404,0.16923,0.159,-0.1552
14.4,1.4437,0.17109,0.16089,-0.1578
14.5,1.4474,0.17286,0.16269,-0.1597
14.6,1.4515,0.17457,0.16445,-0.1612
14.7,1.4557,0.17626,0.16618,-0.1624
14.8,1.4601,0.17793,0.16788,-0.1635
15,1.4695,0.18031,0.17034,-0.1642
15.1,1.4743,0.18191,0.17199,-0.1645
15.2,1.4768,0.18387,0.1739,-0.1682
15.3,1.4798,0.18575,0.17581,-0.1714
15.4,1.4835,0.18755,0.17764,-0.1736
15.5,1.4875,0.1893,0.17943,-0.1755
15.6,1.4917,0.19103,0.1812,-0.177
15.7,1.496,0.19274,0.18295,-0.1783
15.8,1.5004,0.19444,0.1847,-0.1795
15.9,1.5048,0.19614,0.18644,-0.1806
16,1.5094,0.19784,0.18822,-0.1815
16.1,1.514,0.19955,0.18997,-0.1823
16.2,1.5186,0.20127,0.19174,-0.1829
16.3,1.5234,0.20302,0.19353,-0.1834
16.4,1.5246,0.20416,0.1946,-0.1893
16.5,1.5287,0.20597,0.19644,-0.1914
16.6,1.5328,0.20775,0.19826,-0.1931
16.7,1.5371,0.20952,0.20007,-0.1947
16.8,1.5414,0.21129,0.20187,-0.1961
16.9,1.5458,0.21304,0.20367,-0.1974
17,1.5503,0.2148,0.20547,-0.1986
17.1,1.5548,0.21656,0.20727,-0.1996
17.2,1.5593,0.21834,0.20908,-0.2006
17.3,1.5639,0.22013,0.21092,-0.2014
17.4,1.5686,0.22195,0.21278,-0.2021
17.5,1.5729,0.2238,0.21458,-0.2033
17.6,1.5759,0.22562,0.21643,-0.2075
17.7,1.5798,0.22749,0.21832,-0.2101
17.8,1.5832,0.2286,0.21946,-0.2131
17.9,1.5875,0.23043,0.22133,-0.2147
18,1.5919,0.23226,0.22319,-0.2162
18.1,1.5963,0.23408,0.22505,-0.2175
18.2,1.6008,0.2359,0.2269,-0.2188
18.3,1.6052,0.23773,0.22877,-0.2199
18.4,1.6097,0.23957,0.23065,-0.221
18.5,1.6143,0.24143,0.23255,-0.2219
18.6,1.6188,0.24334,0.23449,-0.2228

