airfoilName st15.dat
Re 	650000
M 	5.000000e-01
N 	4.500000e+00
VACC 	0 VACCflag 1
XTR 	1.00 	1.00 XTRflag 0
alpha,cl,cd,cdp,cm
-30,-1.6037,0.55134,0.54951,0.3379
-29.9,-1.5999,0.5484,0.54656,0.3355
-29.8,-1.596,0.54544,0.5436,0.333
-29.7,-1.5922,0.54251,0.54066,0.3305
-29.6,-1.5883,0.53959,0.53775,0.3281
-29.5,-1.5844,0.53667,0.53483,0.3257
-29.4,-1.5805,0.53379,0.53193,0.3232
-29.3,-1.5766,0.53089,0.52904,0.3208
-29.2,-1.5726,0.52801,0.52615,0.3183
-29.1,-1.5687,0.52515,0.52329,0.3159
-29,-1.5647,0.5223,0.52044,0.3135
-28.9,-1.5607,0.51947,0.5176,0.3111
-28.8,-1.5567,0.51664,0.51477,0.3087
-28.7,-1.5527,0.51384,0.51197,0.3063
-28.6,-1.5485,0.51105,0.50918,0.3038
-28.5,-1.5445,0.50825,0.50638,0.3015
-28.4,-1.5404,0.50551,0.50364,0.299
-28.3,-1.5362,0.50278,0.5009,0.2966
-28.2,-1.5321,0.50005,0.49817,0.2942
-28.1,-1.5279,0.49736,0.49547,0.2918
-28,-1.5237,0.49472,0.49283,0.2894
-27.9,-1.5194,0.49211,0.49022,0.2869
-27.8,-1.5151,0.48955,0.48766,0.2844
-27.7,-1.5107,0.48698,0.48508,0.2819
-27.5,-1.5008,0.48317,0.48129,0.276
-27.4,-1.4966,0.48005,0.47817,0.2738
-27.3,-1.4924,0.47697,0.47508,0.2716
-27.2,-1.4882,0.47396,0.47207,0.2694
-27.1,-1.484,0.47097,0.46908,0.2672
-27,-1.4798,0.46803,0.46614,0.2651
-26.9,-1.4756,0.46509,0.46319,0.2629
-26.8,-1.4714,0.46218,0.46028,0.2607
-26.7,-1.4671,0.45933,0.45742,0.2586
-26.6,-1.4628,0.45646,0.45456,0.2564
-26.5,-1.4586,0.45365,0.45174,0.2543
-26.4,-1.4543,0.45086,0.44894,0.2521
-26.3,-1.4499,0.44807,0.44616,0.25
-26.2,-1.4456,0.44532,0.4434,0.2479
-26.1,-1.4413,0.44258,0.44066,0.2457
-26,-1.437,0.43987,0.43795,0.2436
-25.9,-1.4326,0.43717,0.43525,0.2415
-25.8,-1.4282,0.4345,0.43257,0.2394
-25.7,-1.4238,0.43183,0.4299,0.2373
-25.6,-1.4194,0.42916,0.42724,0.2352
-25.5,-1.415,0.42655,0.42461,0.2332
-25.4,-1.4106,0.42392,0.42199,0.2311
-25.3,-1.4062,0.42132,0.41938,0.229
-25.2,-1.4017,0.41873,0.41679,0.227
-25.1,-1.3973,0.41615,0.41421,0.2249
-25,-1.3928,0.41358,0.41164,0.2229
-24.9,-1.3884,0.41103,0.40908,0.2209
-24.8,-1.3839,0.40847,0.40652,0.2188
-24.7,-1.3794,0.40593,0.40398,0.2168
-24.6,-1.3748,0.4034,0.40145,0.2148
-24.4,-1.3659,0.39874,0.39679,0.2108
-24.3,-1.3613,0.39622,0.39427,0.2088
-24.2,-1.3568,0.3937,0.39175,0.2068
-24.1,-1.3522,0.3912,0.38924,0.2048
-24,-1.3476,0.3887,0.38674,0.2029
-23.9,-1.343,0.38623,0.38426,0.2009
-23.8,-1.3384,0.38375,0.38179,0.199
-23.7,-1.3338,0.38129,0.37932,0.1971
-23.6,-1.3292,0.37884,0.37687,0.1951
-23.5,-1.3246,0.37639,0.37442,0.1932
-23.4,-1.32,0.37396,0.37199,0.1913
-23.3,-1.3153,0.37153,0.36956,0.1894
-23.2,-1.3107,0.36912,0.36714,0.1875
-23.1,-1.306,0.36672,0.36474,0.1856
-23,-1.3014,0.36431,0.36232,0.1837
-22.9,-1.2967,0.36192,0.35994,0.1818
-22.8,-1.292,0.35955,0.35756,0.18
-22.7,-1.2873,0.35718,0.35519,0.1781
-22.6,-1.2826,0.35482,0.35283,0.1763
-22.5,-1.2779,0.35247,0.35048,0.1744
-22.4,-1.2732,0.35014,0.34815,0.1726
-22.3,-1.2685,0.3478,0.34581,0.1708
-22.2,-1.2638,0.34548,0.34349,0.1689
-22.1,-1.259,0.34317,0.34118,0.1671
-22,-1.2543,0.34088,0.33888,0.1653
-21.9,-1.2495,0.33858,0.33658,0.1635
-21.8,-1.2448,0.33631,0.33431,0.1617
-21.7,-1.24,0.33402,0.33202,0.1599
-21.6,-1.2352,0.33176,0.32976,0.1581
-21.5,-1.2304,0.32951,0.32751,0.1563
-21.4,-1.2256,0.32727,0.32527,0.1545
-21.3,-1.2208,0.32504,0.32303,0.1527
-21.2,-1.216,0.32282,0.32082,0.1509
-21.1,-1.2112,0.3206,0.3186,0.1491
-21,-1.2063,0.3184,0.31639,0.1473
-20.9,-1.2014,0.3162,0.31419,0.1455
-20.8,-1.1964,0.31399,0.31199,0.1437
-20.7,-1.1914,0.31177,0.30977,0.1418
-20.6,-1.1864,0.30952,0.30751,0.14
-20.3,-1.169,0.30236,0.30035,0.1336
-20.2,-1.1643,0.29993,0.29793,0.132
-20.1,-1.1596,0.29757,0.29556,0.1304
-20,-1.1549,0.29523,0.29321,0.1289
-19.9,-1.1502,0.29291,0.2909,0.1273
-19.8,-1.1455,0.29063,0.28862,0.1257
-19.7,-1.1407,0.28838,0.28636,0.1242
-19.6,-1.136,0.28615,0.28413,0.1226
-19.5,-1.1312,0.28395,0.28193,0.1211
-19.4,-1.1265,0.28176,0.27975,0.1195
-19.3,-1.1217,0.27961,0.27759,0.118
-19.2,-1.1169,0.27747,0.27545,0.1165
-19.1,-1.1121,0.27534,0.27332,0.115
-19,-1.1073,0.27323,0.27121,0.1134
-18.9,-1.1024,0.27113,0.26911,0.1119
-18.7,-1.0928,0.26734,0.26532,0.1088
-18.6,-1.0879,0.26527,0.26324,0.1073
-18.5,-1.083,0.2632,0.26118,0.1058
-18.4,-1.0781,0.26114,0.25912,0.1044
-18.3,-1.0732,0.25909,0.25707,0.1029
-18.2,-1.0683,0.25705,0.25503,0.1014
-18.1,-1.0634,0.25502,0.253,0.0999
-18,-1.0585,0.253,0.25097,0.0985
-17.9,-1.0536,0.25099,0.24896,0.097
-17.8,-1.0486,0.24898,0.24695,0.0956
-17.7,-1.0437,0.24697,0.24495,0.0941
-17.6,-1.0387,0.24498,0.24295,0.0927
-17.5,-1.0338,0.24299,0.24096,0.0913
-17.4,-1.0288,0.241,0.23897,0.0899
-17.3,-1.0238,0.23902,0.23699,0.0884
-17.2,-1.0188,0.23704,0.23501,0.087
-17.1,-1.0137,0.23507,0.23303,0.0856
-17,-1.0087,0.2331,0.23107,0.0842
-16.9,-1.0036,0.23114,0.22911,0.0828
-16.8,-0.9986,0.22919,0.22715,0.0814
-16.7,-0.9935,0.22724,0.2252,0.08
-16.6,-0.9884,0.2253,0.22326,0.0786
-16.5,-0.9834,0.22336,0.22132,0.0773
-16.4,-0.9782,0.22143,0.2194,0.0759
-16.3,-0.9731,0.21951,0.21747,0.0745
-16.2,-0.968,0.21759,0.21555,0.0732
-16.1,-0.9629,0.21568,0.21364,0.0718
-16,-0.9577,0.21377,0.21173,0.0704
-15.9,-0.9526,0.21186,0.20983,0.0691
-15.8,-0.9474,0.20996,0.20793,0.0677
-15.7,-0.9422,0.20807,0.20603,0.0664
-15.6,-0.937,0.20617,0.20414,0.065
-15.5,-0.9318,0.20429,0.20225,0.0636
-15.4,-0.9266,0.20239,0.20036,0.0623
-15.3,-0.9214,0.20051,0.19847,0.0609
-15.2,-0.9161,0.19862,0.19658,0.0596
-15.1,-0.9108,0.19673,0.19469,0.0583
-15,-0.9055,0.19481,0.19278,0.0569
-14.9,-0.9001,0.19288,0.19085,0.0555
-14.8,-0.8947,0.19092,0.18888,0.0542
-14.7,-0.8893,0.18893,0.18689,0.0528
-14.6,-0.8838,0.1869,0.18486,0.0514
-14.5,-0.8781,0.18477,0.18273,0.05
-14.3,-0.8635,0.18026,0.17823,0.0464
-14.2,-0.8586,0.17842,0.1764,0.0452
-14.1,-0.8538,0.1766,0.17457,0.0441
-14,-0.8489,0.17479,0.17276,0.043
-13.9,-0.844,0.17299,0.17097,0.0419
-13.8,-0.8395,0.17129,0.16926,0.0408
-13.7,-0.8345,0.16954,0.16752,0.0397
-13.6,-0.8295,0.16781,0.16579,0.0386
-13.5,-0.8244,0.1661,0.16408,0.0374
-13.4,-0.8193,0.16441,0.16239,0.0363
-13.3,-0.8142,0.16273,0.16071,0.0352
-13.2,-0.8091,0.16107,0.15905,0.0341
-13.1,-0.8039,0.15942,0.1574,0.0329
-13,-0.7986,0.15778,0.15577,0.0318
-12.9,-0.7934,0.15616,0.15414,0.0307
-12.8,-0.7881,0.15455,0.15254,0.0296
-12.7,-0.7828,0.15295,0.15094,0.0285
-12.6,-0.7774,0.15137,0.14936,0.0273
-12.5,-0.772,0.1498,0.14779,0.0262
-12.4,-0.7666,0.14824,0.14624,0.0251
-12.3,-0.7612,0.1467,0.1447,0.024
-12.2,-0.7558,0.14517,0.14317,0.0229
-12.1,-0.7503,0.14365,0.14165,0.0218
-12,-0.7448,0.14213,0.14013,0.0207
-11.9,-0.7393,0.14063,0.13863,0.0196
-11.8,-0.7338,0.13914,0.13714,0.0185
-11.7,-0.7281,0.13766,0.13566,0.0174
-11.6,-0.7225,0.13618,0.13418,0.0163
-11.5,-0.7169,0.13471,0.13272,0.0152
-11.4,-0.7112,0.13326,0.13126,0.0141
-11.3,-0.7055,0.1318,0.12982,0.013
-11.2,-0.6998,0.13037,0.12839,0.0119
-11.1,-0.6941,0.12894,0.12696,0.0108
-11,-0.6884,0.12753,0.12555,0.0098
-10.9,-0.6827,0.12611,0.12414,0.0087
-10.8,-0.677,0.12472,0.12274,0.0076
-10.7,-0.6712,0.12332,0.12135,0.0066
-10.6,-0.6655,0.12193,0.11997,0.0055
-10.5,-0.6597,0.12056,0.1186,0.0045
-10.4,-0.6539,0.11919,0.11723,0.0035
-10.3,-0.6482,0.11784,0.11589,0.0025
-10.2,-0.6425,0.1165,0.11455,0.0015
-10.1,-0.6369,0.11517,0.11323,0.0005
-10,-0.6312,0.11386,0.11192,-0.0005
-9.9,-0.6257,0.11255,0.11062,-0.0014
-9.8,-0.6202,0.11127,0.10934,-0.0023
-9.7,-0.6149,0.11,0.10808,-0.0032
-9.6,-0.6097,0.10876,0.10684,-0.004
-9.5,-0.6047,0.10755,0.10564,-0.0048
-9.4,-0.6002,0.10637,0.10447,-0.0054
-9.3,-0.5961,0.10526,0.10337,-0.0059
-9.2,-0.5928,0.10423,0.10234,-0.0062
-9.1,-0.5848,0.10275,0.10086,-0.0078
-9,-0.5754,0.10117,0.09928,-0.0098
-8.9,-0.5658,0.09958,0.09769,-0.0119
-8.8,-0.5558,0.09798,0.09608,-0.014
-8.7,-0.5461,0.09639,0.0945,-0.016
-8.6,-0.5363,0.09481,0.09291,-0.0181
-8.5,-0.5257,0.09273,0.09082,-0.0205
-8.4,-0.5155,0.09106,0.08915,-0.0227
-8.3,-0.5056,0.08945,0.08755,-0.0247
-8.2,-0.4965,0.08791,0.086,-0.0265
-8.1,-0.4866,0.0863,0.08439,-0.0286
-8,-0.476,0.08469,0.08277,-0.0307
-7.9,-0.4647,0.08305,0.08113,-0.0331
-7.8,-0.456,0.08166,0.07976,-0.0347
-7.7,-0.4472,0.08032,0.07841,-0.0365
-7.6,-0.438,0.07898,0.07706,-0.0383
-7.5,-0.4287,0.07767,0.07576,-0.0402
-7.4,-0.4199,0.07645,0.07453,-0.0419
-7.3,-0.4096,0.07515,0.07322,-0.0439
-7.2,-0.3987,0.07383,0.0719,-0.0461
-7.1,-0.3873,0.07252,0.07057,-0.0484
-7,-0.3771,0.07131,0.06935,-0.0503
-6.9,-0.3663,0.07007,0.0681,-0.0523
-6.8,-0.3547,0.06882,0.06683,-0.0545
-6.7,-0.3433,0.06761,0.06561,-0.0565
-6.6,-0.3317,0.0664,0.06439,-0.0586
-6.5,-0.3195,0.06517,0.06314,-0.0609
-6.4,-0.307,0.06394,0.06189,-0.0631
-6.3,-0.2943,0.06273,0.06067,-0.0653
-6.2,-0.2815,0.06151,0.05943,-0.0675
-6.1,-0.268,0.06027,0.05817,-0.0699
-6,-0.2545,0.05902,0.0569,-0.0722
-5.9,-0.2405,0.05776,0.05563,-0.0746
-5.8,-0.2261,0.05648,0.05433,-0.077
-5.7,-0.2116,0.0552,0.05301,-0.0794
-5.6,-0.1965,0.05388,0.05167,-0.0819
-5.5,-0.1813,0.05254,0.0503,-0.0844
-5.4,-0.1655,0.05116,0.0489,-0.087
-5.3,-0.1492,0.04973,0.04744,-0.0897
-5.2,-0.1328,0.04826,0.04593,-0.0924
-5.1,-0.1155,0.04669,0.04432,-0.0953
-5,-0.0975,0.04496,0.04255,-0.0984
-4.9,-0.0782,0.0429,0.04044,-0.1019
-4.8,-0.0551,0.03954,0.037,-0.1071
-4.7,-0.0371,0.0383,0.03571,-0.1096
-4.6,-0.0193,0.03711,0.03448,-0.112
-4.5,-0.0012,0.03589,0.03321,-0.1143
-4.4,0.017,0.03464,0.03191,-0.1166
-4.2,0.0543,0.03184,0.02897,-0.1213
-4.1,0.0742,0.03013,0.02718,-0.1239
-3.9,0.1305,0.02031,0.01676,-0.1365
-3.8,0.1529,0.01509,0.011,-0.1416
-3.7,0.1692,0.01324,0.00882,-0.143
-3.6,0.1848,0.01229,0.00763,-0.1436
-3.5,0.2001,0.01159,0.00673,-0.1439
-3.4,0.2151,0.01106,0.00602,-0.144
-3.3,0.2299,0.01065,0.00544,-0.144
-3.2,0.2448,0.01032,0.00499,-0.144
-3.1,0.2594,0.01008,0.00469,-0.144
-3,0.274,0.00991,0.00444,-0.1439
-2.9,0.2884,0.00974,0.0042,-0.1438
-2.7,0.3166,0.00952,0.00383,-0.1434
-2.6,0.3307,0.00938,0.00362,-0.1432
-2.5,0.3451,0.00927,0.00347,-0.1431
-2.4,0.3593,0.00918,0.00333,-0.143
-2.3,0.3728,0.00912,0.00319,-0.1427
-2.2,0.3869,0.00905,0.00306,-0.1426
-2.1,0.4011,0.00898,0.00297,-0.1425
-2,0.4152,0.0089,0.00286,-0.1424
-1.9,0.4288,0.00887,0.00277,-0.1422
-1.8,0.4427,0.00883,0.00268,-0.1421
-1.7,0.4566,0.0088,0.0026,-0.1419
-1.6,0.4706,0.00876,0.00252,-0.1419
-1.4,0.4976,0.00873,0.00242,-0.1415
-1.3,0.5111,0.00873,0.00237,-0.1413
-1.2,0.5248,0.00872,0.00232,-0.1412
-1.1,0.5385,0.00871,0.00228,-0.1411
-1,0.5521,0.0087,0.00223,-0.141
-0.9,0.5657,0.0087,0.00221,-0.1408
-0.8,0.5785,0.00876,0.00219,-0.1406
-0.7,0.5915,0.00881,0.00218,-0.1403
-0.6,0.6048,0.00883,0.00217,-0.1402
-0.5,0.6182,0.00886,0.00216,-0.14
-0.4,0.6314,0.00889,0.00216,-0.1399
-0.3,0.6442,0.00897,0.00216,-0.1396
0,0.6825,0.0092,0.00223,-0.1389
0.1,0.6956,0.00925,0.00225,-0.1388
0.2,0.7087,0.00932,0.00227,-0.1386
0.3,0.7213,0.00941,0.0023,-0.1384
0.4,0.7327,0.00959,0.00238,-0.1379
0.5,0.7455,0.00968,0.00242,-0.1377
0.6,0.7577,0.00981,0.00247,-0.1374
0.7,0.7703,0.00991,0.00253,-0.1372
0.8,0.7827,0.01003,0.00259,-0.137
0.9,0.795,0.01016,0.00265,-0.1367
1,0.807,0.01032,0.00272,-0.1364
1.1,0.8189,0.01048,0.00282,-0.1361
1.2,0.8305,0.01068,0.00292,-0.1357
1.3,0.8403,0.01106,0.00309,-0.1351
1.4,0.8519,0.01128,0.00321,-0.1348
1.5,0.864,0.01144,0.00331,-0.1345
1.6,0.8766,0.01156,0.00339,-0.1343
1.7,0.8892,0.01168,0.00348,-0.1341
1.8,0.9021,0.01177,0.00355,-0.1339
1.9,0.9148,0.01188,0.00365,-0.1336
2,0.9274,0.01199,0.00373,-0.1334
2.1,0.9402,0.01209,0.00381,-0.1332
2.2,0.9532,0.01217,0.00389,-0.133
2.3,0.9663,0.01225,0.00397,-0.1328
2.4,0.9792,0.01234,0.00405,-0.1325
2.5,0.9921,0.01242,0.00414,-0.1323
2.6,1.0052,0.0125,0.00422,-0.1321
2.7,1.0182,0.01257,0.0043,-0.1319
2.8,1.0308,0.01269,0.00439,-0.1316
2.9,1.0438,0.01277,0.00448,-0.1314
3,1.0569,0.01284,0.00457,-0.1311
3.1,1.07,0.01291,0.00467,-0.1309
3.2,1.0829,0.013,0.00476,-0.1306
3.3,1.0958,0.01308,0.00486,-0.1304
3.4,1.1089,0.01314,0.00496,-0.1301
3.6,1.1273,0.01197,0.00526,-0.1284
3.7,1.1399,0.01212,0.00537,-0.128
3.8,1.1529,0.01222,0.00548,-0.1277
3.9,1.1659,0.01233,0.00558,-0.1274
4,1.1789,0.01245,0.00568,-0.127
4.1,1.1918,0.01257,0.00579,-0.1266
4.2,1.2045,0.0127,0.00591,-0.1262
4.3,1.2174,0.01283,0.00605,-0.1258
4.4,1.2302,0.01295,0.00616,-0.1255
4.5,1.2431,0.01308,0.00628,-0.125
4.6,1.2558,0.01321,0.0064,-0.1246
4.7,1.2684,0.01336,0.00654,-0.1241
4.8,1.2813,0.01349,0.00667,-0.1237
4.9,1.2942,0.01361,0.0068,-0.1232
5,1.307,0.01375,0.00694,-0.1227
5.1,1.3196,0.01389,0.00708,-0.1222
5.2,1.3322,0.01404,0.00723,-0.1217
5.3,1.3446,0.0142,0.00738,-0.1212
5.4,1.3574,0.01434,0.00753,-0.1206
5.5,1.37,0.01448,0.0077,-0.1201
5.6,1.3825,0.01464,0.00786,-0.1195
5.7,1.395,0.0148,0.00802,-0.1189
5.8,1.4072,0.01498,0.0082,-0.1182
5.9,1.4197,0.01513,0.00838,-0.1176
6,1.4322,0.01529,0.00855,-0.1169
6.1,1.4446,0.01545,0.00873,-0.1163
6.2,1.4567,0.01564,0.00891,-0.1156
6.3,1.4687,0.01583,0.0091,-0.1148
6.4,1.4808,0.01601,0.00931,-0.1141
6.5,1.493,0.01618,0.00951,-0.1133
6.6,1.505,0.01636,0.00972,-0.1125
6.7,1.5169,0.01655,0.00993,-0.1117
6.8,1.5287,0.01675,0.01015,-0.1108
6.9,1.5402,0.01696,0.01038,-0.1099
7,1.5514,0.01719,0.01062,-0.109
7.1,1.5631,0.01738,0.01084,-0.108
7.2,1.5745,0.01759,0.01108,-0.1071
7.3,1.5858,0.0178,0.01133,-0.1061
7.4,1.5967,0.01803,0.01158,-0.105
7.5,1.6074,0.01828,0.01185,-0.1039
7.6,1.6177,0.01854,0.01214,-0.1028
7.7,1.6284,0.01877,0.01242,-0.1016
7.8,1.6386,0.01901,0.0127,-0.1004
7.9,1.6479,0.01926,0.01301,-0.099
8,1.657,0.01952,0.01332,-0.0976
8.1,1.6659,0.0198,0.01361,-0.0962
8.2,1.6744,0.0201,0.01395,-0.0947
8.3,1.6829,0.02042,0.01431,-0.0933
8.4,1.6917,0.02072,0.01467,-0.0918
8.5,1.7003,0.02104,0.01505,-0.0904
8.6,1.7088,0.02138,0.01544,-0.0889
8.7,1.717,0.02173,0.01585,-0.0874
8.8,1.725,0.02209,0.01628,-0.0859
8.9,1.7328,0.02248,0.01672,-0.0844
9,1.7402,0.02289,0.01718,-0.0829
9.1,1.7472,0.02332,0.01767,-0.0814
9.2,1.7542,0.02378,0.01819,-0.0798
9.3,1.761,0.02424,0.01874,-0.0783
9.4,1.7675,0.02473,0.01932,-0.0767
9.5,1.7743,0.0252,0.01986,-0.0753
9.6,1.7803,0.02574,0.02048,-0.0737
9.7,1.7858,0.0263,0.02112,-0.0722
9.8,1.791,0.0269,0.0218,-0.0707
9.9,1.7959,0.02752,0.0225,-0.0692
10,1.8003,0.02819,0.02325,-0.0678
10.1,1.8043,0.02889,0.02403,-0.0663
10.2,1.8077,0.02963,0.02486,-0.065
10.3,1.8104,0.03044,0.02576,-0.0636
10.4,1.8127,0.03131,0.02674,-0.0623
10.5,1.8144,0.03224,0.02777,-0.0611
10.6,1.8156,0.03322,0.02887,-0.06
10.7,1.8163,0.03427,0.03003,-0.059
10.8,1.8164,0.03539,0.03125,-0.0581
10.9,1.816,0.03657,0.03255,-0.0573
11,1.8151,0.03783,0.03392,-0.0567
11.1,1.8138,0.03917,0.03537,-0.0563
11.2,1.8122,0.04059,0.0369,-0.0561
11.3,1.8101,0.0421,0.03852,-0.0562
11.4,1.8076,0.0437,0.04024,-0.0564
11.5,1.8048,0.04541,0.04206,-0.057
11.6,1.8051,0.0469,0.04364,-0.0575
11.7,1.8021,0.04876,0.04561,-0.0585
11.8,1.7988,0.05075,0.0477,-0.0598
11.9,1.7952,0.05288,0.04995,-0.0615
12,1.791,0.0552,0.05236,-0.0636
12.1,1.7843,0.0579,0.05518,-0.0664
12.2,1.7774,0.06083,0.05822,-0.0696
12.3,1.7699,0.06396,0.06147,-0.0731
12.7,1.7333,0.07894,0.07683,-0.0908
12.8,1.7219,0.08322,0.08117,-0.0955
12.9,1.71,0.08751,0.08552,-0.1001
13.3,1.6629,0.10404,0.10219,-0.1183
13.4,1.6516,0.10813,0.1063,-0.1229
13.5,1.6407,0.11221,0.1104,-0.1275
13.6,1.63,0.11627,0.11449,-0.132
13.7,1.6195,0.12039,0.11862,-0.1366
13.8,1.6092,0.12453,0.12278,-0.1412
13.9,1.6001,0.12859,0.12685,-0.1456
14,1.5922,0.13243,0.13071,-0.1498
14.1,1.586,0.13603,0.13432,-0.1535
14.2,1.5821,0.13921,0.13751,-0.1568
14.3,1.5798,0.14207,0.14038,-0.1597
14.4,1.5788,0.14466,0.14297,-0.1623
14.5,1.579,0.147,0.14532,-0.1646
14.6,1.5799,0.14915,0.14748,-0.1667
14.7,1.5814,0.15115,0.14948,-0.1686
14.8,1.5835,0.15299,0.15133,-0.1705
14.9,1.5782,0.15676,0.15509,-0.1742
15,1.5713,0.16108,0.15942,-0.1784
15.2,1.5683,0.16715,0.16551,-0.184
15.3,1.5698,0.16944,0.1678,-0.1861
15.4,1.5719,0.1715,0.16987,-0.188
15.5,1.5744,0.17339,0.17177,-0.1898
15.6,1.5773,0.17516,0.17354,-0.1914
15.7,1.5807,0.17675,0.17514,-0.193
15.8,1.5843,0.17827,0.17667,-0.1945
16,1.5808,0.18573,0.18413,-0.2009
16.1,1.5826,0.18813,0.18653,-0.2031
16.2,1.5851,0.19026,0.18868,-0.205
16.3,1.5882,0.19214,0.19057,-0.2067
16.4,1.5917,0.19383,0.19226,-0.2083
16.5,1.5955,0.19538,0.19382,-0.2098
16.6,1.5998,0.19674,0.19518,-0.2112
16.7,1.5996,0.20021,0.19865,-0.214
16.8,1.6001,0.2036,0.20205,-0.2168
16.9,1.6022,0.20623,0.20469,-0.219
17,1.605,0.20848,0.20694,-0.2209
17.1,1.6083,0.21047,0.20894,-0.2227
17.2,1.6119,0.21229,0.21077,-0.2243
17.3,1.6157,0.21397,0.21245,-0.2259
17.4,1.6199,0.21546,0.21395,-0.2273
17.5,1.6215,0.21864,0.21712,-0.2298
17.6,1.6234,0.22181,0.2203,-0.2323
17.7,1.6262,0.22435,0.22285,-0.2344
17.8,1.6294,0.22669,0.22519,-0.2363
17.9,1.6328,0.22886,0.22737,-0.2381
18,1.6363,0.23093,0.22944,-0.2399
18.1,1.6401,0.23287,0.23139,-0.2416
18.2,1.6439,0.23475,0.23328,-0.2432
18.3,1.6477,0.23657,0.2351,-0.2449
18.4,1.6517,0.23832,0.23685,-0.2465
18.5,1.655,0.24065,0.23918,-0.2484
18.6,1.6568,0.24505,0.24357,-0.2514
18.7,1.6604,0.24739,0.24592,-0.2533
18.8,1.664,0.24963,0.24817,-0.2551
18.9,1.6678,0.25179,0.25033,-0.2569
19,1.6716,0.2539,0.25244,-0.2587
19.1,1.6754,0.25593,0.25448,-0.2604
19.2,1.6793,0.25794,0.25649,-0.2622
19.3,1.6832,0.25989,0.25844,-0.2639
19.4,1.6871,0.2618,0.26036,-0.2655
19.5,1.6911,0.26363,0.26219,-0.2672
19.6,1.6943,0.26673,0.26529,-0.2695
19.7,1.6978,0.26958,0.26814,-0.2716
19.8,1.7015,0.27227,0.27083,-0.2736
19.9,1.7053,0.27479,0.27335,-0.2755
20,1.7091,0.27722,0.27579,-0.2774
20.1,1.7129,0.27961,0.27818,-0.2793
20.2,1.7168,0.28195,0.28053,-0.2812
20.3,1.7207,0.28425,0.28283,-0.283
20.4,1.7245,0.2865,0.28509,-0.2849
20.5,1.7284,0.28875,0.28733,-0.2867
20.6,1.7323,0.29095,0.28954,-0.2885
20.7,1.7362,0.29314,0.29173,-0.2903
20.8,1.7401,0.2953,0.2939,-0.2921
20.9,1.744,0.29745,0.29605,-0.2939
21,1.7478,0.29957,0.29817,-0.2957
21.1,1.7517,0.30168,0.30029,-0.2975
21.2,1.7556,0.30377,0.30238,-0.2993
21.3,1.7594,0.30584,0.30446,-0.3011
21.4,1.7632,0.30794,0.30656,-0.3029
21.5,1.767,0.30999,0.30862,-0.3048
21.6,1.7712,0.31417,0.31278,-0.3074
21.7,1.7752,0.31692,0.31554,-0.3094
21.8,1.7792,0.31967,0.31829,-0.3114
21.9,1.7832,0.32225,0.32087,-0.3134
22,1.7872,0.32478,0.3234,-0.3153
22.1,1.7911,0.3273,0.32592,-0.3173
22.2,1.7951,0.32977,0.3284,-0.3193
22.3,1.799,0.33221,0.33084,-0.3212
22.4,1.803,0.33462,0.33325,-0.3231
22.5,1.8069,0.33702,0.33566,-0.3251
22.6,1.8108,0.3394,0.33805,-0.327
22.7,1.8147,0.34177,0.34042,-0.329
22.8,1.8186,0.34413,0.34278,-0.3309
22.9,1.8224,0.34648,0.34513,-0.3328
23,1.8263,0.3488,0.34746,-0.3348
23.1,1.8301,0.35112,0.34978,-0.3367
23.2,1.834,0.35345,0.35212,-0.3387
23.3,1.8377,0.35574,0.35442,-0.3406
23.4,1.8415,0.35806,0.35674,-0.3426
23.5,1.8453,0.36032,0.35901,-0.3445
23.6,1.8491,0.36261,0.36131,-0.3465
23.7,1.8528,0.36489,0.36359,-0.3485
23.8,1.8565,0.36716,0.36586,-0.3504
23.9,1.8602,0.36944,0.36814,-0.3524
24,1.8639,0.3717,0.3704,-0.3544
24.1,1.8675,0.37395,0.37266,-0.3564
24.2,1.8711,0.37619,0.37491,-0.3584
24.3,1.8747,0.37846,0.37718,-0.3604
24.4,1.8783,0.38069,0.37941,-0.3624
24.5,1.883,0.38482,0.38354,-0.3648
24.6,1.8873,0.38829,0.38701,-0.3671
24.7,1.8915,0.39143,0.39015,-0.3694
24.8,1.8955,0.39444,0.39316,-0.3716
24.9,1.8994,0.39727,0.39599,-0.3737
25,1.9033,0.40008,0.39881,-0.3759
25.1,1.9075,0.40351,0.40224,-0.3782
25.2,1.9113,0.40621,0.40495,-0.3804
25.3,1.9151,0.40886,0.40759,-0.3825
25.4,1.9188,0.4115,0.41025,-0.3847
25.5,1.9225,0.41415,0.4129,-0.3868
25.6,1.9262,0.41677,0.41552,-0.389
25.7,1.9299,0.41938,0.41814,-0.3911
25.8,1.9335,0.422,0.42075,-0.3932
25.9,1.9371,0.42458,0.42334,-0.3954
26,1.9407,0.42716,0.42593,-0.3975
26.1,1.9443,0.42975,0.42852,-0.3997
26.2,1.9478,0.43232,0.4311,-0.4019
26.3,1.9513,0.4349,0.43368,-0.404
26.4,1.9548,0.43747,0.43625,-0.4062
26.5,1.9583,0.44002,0.43881,-0.4084
26.6,1.9617,0.44257,0.44137,-0.4106
26.7,1.9652,0.44513,0.44393,-0.4128
26.8,1.9686,0.44766,0.44647,-0.415
26.9,1.972,0.45024,0.44905,-0.4172
27,1.9753,0.45276,0.45158,-0.4194
27.1,1.9786,0.4553,0.45412,-0.4216
27.2,1.9819,0.45782,0.45664,-0.4238
27.3,1.9852,0.46034,0.45917,-0.426
27.4,1.9885,0.46287,0.4617,-0.4282
27.5,1.9917,0.4654,0.46423,-0.4305
27.6,1.9949,0.46787,0.46672,-0.4327
27.7,1.9981,0.47044,0.46928,-0.435
27.8,2.003,0.47525,0.47409,-0.4377
27.9,2.0071,0.47905,0.47789,-0.4402
28,2.0109,0.48251,0.48136,-0.4426
28.1,2.0146,0.48584,0.48468,-0.4451
28.2,2.0182,0.48899,0.48783,-0.4475
28.3,2.0217,0.49209,0.49094,-0.4499
28.4,2.0252,0.49517,0.49402,-0.4522
28.5,2.0286,0.49821,0.49707,-0.4546
28.6,2.0324,0.50181,0.50067,-0.4572
28.7,2.0357,0.50475,0.50362,-0.4596
28.8,2.0389,0.50767,0.50653,-0.462
28.9,2.0422,0.5106,0.50947,-0.4643
29,2.0454,0.51351,0.51239,-0.4667
29.1,2.0485,0.51639,0.51527,-0.4691
29.2,2.0517,0.51929,0.51817,-0.4715
29.3,2.0548,0.52218,0.52107,-0.4739
29.4,2.0579,0.52508,0.52397,-0.4763
29.5,2.061,0.52801,0.52691,-0.4787
29.6,2.064,0.53085,0.52976,-0.4811
29.7,2.0671,0.53387,0.53278,-0.4836
29.8,2.0702,0.53687,0.53579,-0.486
29.9,2.0732,0.53975,0.53867,-0.4885

