airfoilName st15.dat
Re 	850000
M 	5.000000e-01
N 	4.500000e+00
VACC 	0 VACCflag 1
XTR 	1.00 	1.00 XTRflag 0
alpha,cl,cd,cdp,cm
-30,-1.6041,0.55028,0.54873,0.3383
-29.9,-1.6003,0.54733,0.54578,0.3359
-29.8,-1.5965,0.54436,0.5428,0.3335
-29.7,-1.5927,0.54142,0.53986,0.331
-29.6,-1.5888,0.5385,0.53694,0.3286
-29.5,-1.585,0.53557,0.53401,0.3262
-29.4,-1.5811,0.53267,0.5311,0.3238
-29.3,-1.5772,0.52976,0.52819,0.3214
-29.2,-1.5733,0.52686,0.52529,0.319
-29.1,-1.5694,0.52397,0.5224,0.3166
-29,-1.5654,0.52111,0.51954,0.3142
-28.9,-1.5615,0.51824,0.51666,0.3118
-28.8,-1.5575,0.51538,0.5138,0.3094
-28.7,-1.5535,0.51255,0.51097,0.3071
-28.6,-1.5495,0.5097,0.50812,0.3047
-28.5,-1.5455,0.50688,0.50529,0.3024
-28.4,-1.5414,0.50406,0.50247,0.3
-28.3,-1.5374,0.50126,0.49967,0.2977
-28.2,-1.5333,0.49845,0.49686,0.2953
-28.1,-1.5292,0.49567,0.49407,0.293
-28,-1.5251,0.4929,0.4913,0.2907
-27.9,-1.521,0.49013,0.48852,0.2884
-27.8,-1.5169,0.48737,0.48576,0.2861
-27.7,-1.5127,0.48461,0.483,0.2838
-27.6,-1.5085,0.48188,0.48027,0.2815
-27.5,-1.5043,0.47916,0.47755,0.2792
-27.4,-1.5001,0.47643,0.47481,0.2769
-27.3,-1.4959,0.47373,0.47211,0.2746
-27.2,-1.4916,0.471,0.46939,0.2723
-27.1,-1.4874,0.46833,0.46671,0.27
-27,-1.4831,0.46564,0.46402,0.2678
-26.9,-1.4788,0.46297,0.46135,0.2655
-26.8,-1.4744,0.4603,0.45868,0.2632
-26.7,-1.4701,0.45767,0.45605,0.2609
-26.6,-1.4656,0.45501,0.45339,0.2586
-26.5,-1.4612,0.45239,0.45076,0.2563
-26.4,-1.4567,0.44974,0.44811,0.254
-26.3,-1.4521,0.4471,0.44547,0.2516
-26.1,-1.4413,0.4426,0.44098,0.2459
-26,-1.4369,0.43966,0.43803,0.2438
-25.9,-1.4326,0.43674,0.43511,0.2417
-25.8,-1.4282,0.4339,0.43227,0.2396
-25.7,-1.4239,0.43102,0.42939,0.2376
-25.6,-1.4195,0.42822,0.42658,0.2355
-25.5,-1.4151,0.42546,0.42382,0.2334
-25.4,-1.4107,0.42274,0.4211,0.2314
-25.3,-1.4063,0.42003,0.41839,0.2293
-25.2,-1.4019,0.41735,0.4157,0.2273
-25.1,-1.3975,0.41471,0.41306,0.2253
-25,-1.3931,0.41208,0.41043,0.2232
-24.9,-1.3886,0.40948,0.40783,0.2212
-24.8,-1.3842,0.40689,0.40524,0.2192
-24.7,-1.3797,0.40432,0.40267,0.2172
-24.6,-1.3752,0.40177,0.40012,0.2152
-24.5,-1.3708,0.39925,0.39759,0.2132
-24.4,-1.3662,0.39672,0.39507,0.2112
-24.3,-1.3617,0.39423,0.39257,0.2092
-24.2,-1.3572,0.39174,0.39008,0.2073
-24.1,-1.3528,0.38959,0.38793,0.2053
-24,-1.3482,0.38711,0.38545,0.2033
-23.9,-1.3437,0.38465,0.38299,0.2014
-23.8,-1.3391,0.3822,0.38053,0.1994
-23.7,-1.3345,0.37976,0.37809,0.1975
-23.6,-1.33,0.37732,0.37565,0.1956
-23.5,-1.3254,0.3749,0.37323,0.1937
-23.4,-1.3208,0.37249,0.37082,0.1918
-23.3,-1.3161,0.37009,0.36842,0.1899
-23.2,-1.3115,0.3677,0.36602,0.188
-23.1,-1.3069,0.36533,0.36365,0.1861
-23,-1.3023,0.36294,0.36125,0.1842
-22.9,-1.2976,0.36058,0.3589,0.1824
-22.8,-1.293,0.35823,0.35654,0.1805
-22.7,-1.2883,0.35588,0.35419,0.1787
-22.6,-1.2836,0.35354,0.35186,0.1768
-22.5,-1.279,0.35122,0.34953,0.175
-22.4,-1.2743,0.3489,0.34721,0.1732
-22.3,-1.2696,0.34659,0.34489,0.1713
-22.2,-1.2649,0.34428,0.34259,0.1695
-22.1,-1.2602,0.34199,0.3403,0.1677
-22,-1.2555,0.33971,0.33801,0.1659
-21.9,-1.2508,0.33742,0.33572,0.1642
-21.8,-1.2461,0.33516,0.33346,0.1624
-21.7,-1.2414,0.33288,0.33119,0.1606
-21.6,-1.2366,0.33063,0.32893,0.1589
-21.5,-1.2319,0.32838,0.32668,0.1571
-21.4,-1.2272,0.32614,0.32444,0.1554
-21.3,-1.2224,0.32391,0.32221,0.1536
-21.2,-1.2177,0.32169,0.31999,0.1519
-21.1,-1.2129,0.31947,0.31776,0.1502
-21,-1.2081,0.31726,0.31555,0.1484
-20.9,-1.2033,0.31505,0.31334,0.1467
-20.8,-1.1985,0.31285,0.31114,0.145
-20.7,-1.1937,0.31065,0.30894,0.1433
-20.6,-1.1889,0.30845,0.30675,0.1416
-20.5,-1.184,0.30626,0.30456,0.1399
-20.4,-1.1792,0.30407,0.30236,0.1382
-20.3,-1.1743,0.30189,0.30017,0.1365
-20.2,-1.1694,0.29971,0.29799,0.1347
-20.1,-1.1645,0.29754,0.29582,0.133
-20,-1.1595,0.29536,0.29364,0.1313
-19.9,-1.1546,0.29318,0.29146,0.1296
-19.8,-1.1496,0.291,0.28927,0.1279
-19.7,-1.1446,0.2888,0.28707,0.1262
-19.6,-1.1395,0.28656,0.28484,0.1244
-19.5,-1.1344,0.28427,0.28255,0.1227
-19.2,-1.1167,0.27695,0.27524,0.1166
-19.1,-1.1121,0.27464,0.27292,0.1152
-19,-1.1074,0.27236,0.27065,0.1137
-18.9,-1.1027,0.27013,0.26841,0.1122
-18.8,-1.098,0.26793,0.26621,0.1107
-18.7,-1.0933,0.26574,0.26402,0.1093
-18.6,-1.0885,0.26359,0.26187,0.1078
-18.5,-1.0838,0.26147,0.25975,0.1064
-18.4,-1.0792,0.25962,0.2579,0.1049
-18.3,-1.0744,0.25754,0.25582,0.1034
-18.2,-1.0696,0.25548,0.25376,0.102
-18.1,-1.0647,0.25344,0.25172,0.1005
-18,-1.0599,0.25142,0.2497,0.0991
-17.9,-1.0551,0.24941,0.24769,0.0977
-17.8,-1.0502,0.24741,0.24569,0.0962
-17.7,-1.0453,0.24543,0.2437,0.0948
-17.6,-1.0405,0.24345,0.24173,0.0934
-17.5,-1.0356,0.24149,0.23976,0.092
-17.4,-1.0306,0.23953,0.2378,0.0905
-17.3,-1.0257,0.23758,0.23585,0.0891
-17.2,-1.0207,0.23563,0.2339,0.0877
-17.1,-1.0157,0.23369,0.23196,0.0863
-17,-1.0107,0.23176,0.23003,0.0849
-16.9,-1.0057,0.22983,0.2281,0.0835
-16.8,-1.0007,0.22791,0.22618,0.0821
-16.7,-0.9957,0.226,0.22427,0.0808
-16.6,-0.9907,0.2241,0.22237,0.0794
-16.5,-0.9856,0.22219,0.22046,0.078
-16.4,-0.9805,0.22031,0.21858,0.0766
-16.3,-0.9755,0.21842,0.21669,0.0753
-16.2,-0.9704,0.21654,0.21481,0.0739
-16.1,-0.9653,0.21466,0.21293,0.0726
-16,-0.9602,0.2128,0.21106,0.0712
-15.9,-0.9551,0.21093,0.2092,0.0699
-15.8,-0.9499,0.20907,0.20734,0.0686
-15.7,-0.9448,0.20722,0.20549,0.0672
-15.6,-0.9397,0.20537,0.20364,0.0659
-15.5,-0.9345,0.20353,0.2018,0.0646
-15.4,-0.9294,0.20169,0.19996,0.0633
-15.3,-0.9242,0.19986,0.19813,0.062
-15.2,-0.919,0.19803,0.1963,0.0606
-15.1,-0.9138,0.19621,0.19448,0.0593
-15,-0.9086,0.19439,0.19266,0.058
-14.9,-0.9033,0.19256,0.19083,0.0567
-14.8,-0.898,0.19074,0.189,0.0554
-14.7,-0.8927,0.18891,0.18718,0.0541
-14.6,-0.8874,0.18709,0.18535,0.0528
-14.5,-0.8821,0.18527,0.18354,0.0515
-14.4,-0.8767,0.18345,0.18171,0.0502
-14.3,-0.8713,0.18162,0.17989,0.0489
-14.2,-0.8659,0.17979,0.17805,0.0476
-14.1,-0.8605,0.17795,0.17622,0.0463
-14,-0.8551,0.17609,0.17436,0.045
-13.9,-0.8497,0.1742,0.17246,0.0437
-13.8,-0.8442,0.17232,0.17058,0.0424
-13.7,-0.8386,0.17031,0.16858,0.0411
-13.6,-0.833,0.16828,0.16655,0.0398
-13.5,-0.8269,0.16618,0.16445,0.0384
-13.4,-0.8203,0.16415,0.16242,0.0368
-13.3,-0.8131,0.16223,0.16051,0.0351
-13.2,-0.8082,0.16049,0.15877,0.034
-13.1,-0.8031,0.15876,0.15704,0.0329
-13,-0.7981,0.15704,0.15532,0.0318
-12.9,-0.793,0.15535,0.15363,0.0308
-12.8,-0.7879,0.15365,0.15194,0.0297
-12.7,-0.7828,0.15198,0.15027,0.0286
-12.6,-0.7777,0.15033,0.14862,0.0275
-12.5,-0.7725,0.1487,0.14699,0.0264
-12.4,-0.7673,0.14709,0.14538,0.0253
-12.3,-0.7621,0.1455,0.14379,0.0242
-12.2,-0.7568,0.14393,0.14222,0.0231
-12.1,-0.7515,0.14238,0.14067,0.0221
-12,-0.7461,0.14084,0.13914,0.021
-11.9,-0.7407,0.13932,0.13761,0.0199
-11.8,-0.7352,0.13781,0.1361,0.0188
-11.7,-0.7297,0.13632,0.13461,0.0177
-11.6,-0.7242,0.13483,0.13313,0.0166
-11.5,-0.7186,0.13337,0.13167,0.0155
-11.4,-0.713,0.13192,0.13023,0.0144
-11.3,-0.7073,0.13048,0.12879,0.0133
-11.2,-0.7016,0.12906,0.12737,0.0122
-11.1,-0.696,0.12766,0.12597,0.0111
-11,-0.6902,0.12626,0.12457,0.0101
-10.9,-0.6845,0.12487,0.12318,0.009
-10.8,-0.6787,0.1235,0.12181,0.0079
-10.7,-0.6729,0.12213,0.12045,0.0068
-10.6,-0.6671,0.12076,0.11909,0.0058
-10.5,-0.6613,0.11941,0.11774,0.0047
-10.4,-0.6555,0.11808,0.11641,0.0037
-10.3,-0.6497,0.11675,0.11509,0.0026
-10.2,-0.6439,0.11544,0.11378,0.0016
-10.1,-0.6382,0.11414,0.11248,0.0006
-10,-0.6325,0.11286,0.1112,-0.0004
-9.9,-0.6268,0.11159,0.10994,-0.0013
-9.8,-0.6213,0.11033,0.10868,-0.0023
-9.7,-0.6158,0.1091,0.10746,-0.0031
-9.6,-0.6106,0.10789,0.10625,-0.004
-9.5,-0.6056,0.10672,0.10509,-0.0047
-9.4,-0.6011,0.10559,0.10397,-0.0053
-9.3,-0.5933,0.10418,0.10256,-0.0069
-9.2,-0.5842,0.10267,0.10104,-0.0088
-9.1,-0.5749,0.10115,0.09952,-0.0107
-9,-0.5653,0.09962,0.09799,-0.0128
-8.9,-0.5562,0.09815,0.09652,-0.0146
-8.8,-0.5466,0.09665,0.09502,-0.0166
-8.6,-0.5272,0.09366,0.09203,-0.0206
-8.5,-0.5183,0.09226,0.09062,-0.0223
-8.4,-0.5093,0.09084,0.0892,-0.0241
-8.3,-0.4998,0.08941,0.08776,-0.026
-8.2,-0.49,0.08795,0.08631,-0.028
-8.1,-0.4807,0.08639,0.08474,-0.0299
-8,-0.4723,0.08505,0.0834,-0.0314
-7.9,-0.4634,0.08366,0.082,-0.0331
-7.8,-0.4543,0.08228,0.08062,-0.0349
-7.7,-0.4468,0.08102,0.07936,-0.0362
-7.6,-0.4388,0.0797,0.07804,-0.0377
-7.5,-0.4302,0.0784,0.07672,-0.0393
-7.4,-0.4207,0.07701,0.07533,-0.0411
-7.3,-0.411,0.07562,0.07393,-0.043
-7.2,-0.401,0.0742,0.0725,-0.045
-7.1,-0.3907,0.07274,0.07101,-0.0469
-7,-0.3804,0.07126,0.06952,-0.0489
-6.9,-0.3692,0.06976,0.068,-0.0511
-6.8,-0.3578,0.06826,0.06647,-0.0533
-6.7,-0.3457,0.06676,0.06497,-0.0556
-6.6,-0.3339,0.06535,0.06356,-0.058
-6.5,-0.3223,0.06403,0.06221,-0.0602
-6.4,-0.31,0.06272,0.06087,-0.0625
-6.3,-0.2972,0.06143,0.05957,-0.0649
-6.2,-0.2839,0.06015,0.05828,-0.0674
-6.1,-0.2702,0.05891,0.05701,-0.0698
-6,-0.2564,0.05767,0.05574,-0.0722
-5.9,-0.2419,0.05643,0.05448,-0.0748
-5.8,-0.2273,0.05518,0.05321,-0.0772
-5.7,-0.2122,0.05394,0.05194,-0.0798
-5.6,-0.1969,0.05268,0.05066,-0.0823
-5.5,-0.1812,0.0514,0.04935,-0.0849
-5.4,-0.1651,0.0501,0.04802,-0.0875
-5.3,-0.1487,0.04878,0.04666,-0.0901
-5.2,-0.1322,0.04743,0.04527,-0.0927
-5.1,-0.115,0.04601,0.04383,-0.0955
-5,-0.0973,0.04454,0.04231,-0.0983
-4.9,-0.0795,0.04299,0.04071,-0.1011
-4.8,-0.0608,0.04132,0.03899,-0.1042
-4.7,-0.041,0.03939,0.03702,-0.1076
-4.6,-0.0186,0.03677,0.03431,-0.1119
-4.4,0.0252,0.03203,0.02939,-0.1197
-4.2,0.0635,0.02906,0.02629,-0.1246
-4.1,0.0832,0.02725,0.02438,-0.1272
-4,0.1052,0.02463,0.0216,-0.1307
-3.9,0.1394,0.01267,0.00846,-0.143
-3.8,0.1551,0.01161,0.00716,-0.1437
-3.7,0.1704,0.01102,0.00641,-0.1439
-3.6,0.1853,0.01059,0.00585,-0.144
-3.5,0.2002,0.01024,0.00537,-0.144
-3.4,0.215,0.00994,0.00496,-0.1439
-3.3,0.2299,0.00967,0.0046,-0.1439
-3.2,0.2448,0.00944,0.00427,-0.1439
-3.1,0.2593,0.00925,0.00398,-0.1437
-3,0.2738,0.00909,0.00374,-0.1436
-2.9,0.2879,0.00896,0.00355,-0.1434
-2.8,0.302,0.00887,0.00339,-0.1432
-2.7,0.3165,0.00877,0.00324,-0.1431
-2.6,0.3306,0.00873,0.00314,-0.143
-2.5,0.3444,0.00866,0.003,-0.1427
-2.4,0.3586,0.00857,0.00287,-0.1426
-2.3,0.3728,0.0085,0.00277,-0.1425
-2.2,0.387,0.00844,0.00267,-0.1424
-2.1,0.4006,0.00843,0.00258,-0.1422
-2,0.4146,0.0084,0.00252,-0.1421
-1.9,0.4286,0.00834,0.00243,-0.142
-1.8,0.4427,0.0083,0.00236,-0.1419
-1.7,0.4566,0.00827,0.0023,-0.1418
-1.5,0.4833,0.00831,0.0022,-0.1414
-1.4,0.497,0.0083,0.00215,-0.1412
-1.3,0.5108,0.00829,0.0021,-0.1411
-1.2,0.5244,0.00829,0.00209,-0.141
-1.1,0.5372,0.00836,0.00207,-0.1408
-1,0.5504,0.00841,0.00205,-0.1405
-0.9,0.5638,0.00843,0.00203,-0.1404
-0.8,0.5773,0.00845,0.00201,-0.1403
-0.7,0.5907,0.00848,0.00201,-0.1402
-0.6,0.6042,0.00851,0.002,-0.1401
-0.5,0.6176,0.00854,0.00201,-0.1399
-0.4,0.6298,0.00867,0.00204,-0.1396
-0.3,0.6427,0.00874,0.00206,-0.1394
-0.2,0.656,0.00879,0.00207,-0.1393
-0.1,0.6692,0.00884,0.00209,-0.1391
0,0.6824,0.0089,0.00211,-0.139
0.1,0.6955,0.00895,0.00213,-0.1389
0.2,0.7073,0.00913,0.0022,-0.1385
0.3,0.7202,0.00921,0.00223,-0.1383
0.4,0.7327,0.00934,0.00228,-0.1381
0.5,0.7449,0.00948,0.00234,-0.1378
0.6,0.7575,0.0096,0.0024,-0.1376
0.7,0.7699,0.00973,0.00247,-0.1374
0.8,0.7822,0.00988,0.00253,-0.1371
0.9,0.7942,0.01005,0.00262,-0.1369
1,0.8059,0.01026,0.00272,-0.1365
1.1,0.8162,0.01062,0.00289,-0.136
1.2,0.8287,0.01076,0.00297,-0.1358
1.3,0.8414,0.01087,0.00304,-0.1356
1.4,0.8544,0.01096,0.00312,-0.1355
1.5,0.8674,0.01104,0.00318,-0.1353
1.6,0.8803,0.01114,0.00325,-0.1351
1.7,0.8935,0.0112,0.00331,-0.135
1.8,0.9062,0.01132,0.0034,-0.1347
1.9,0.9194,0.01139,0.00345,-0.1346
2,0.9326,0.01145,0.00352,-0.1344
2.1,0.9457,0.01153,0.00359,-0.1342
2.2,0.9588,0.0116,0.00367,-0.134
2.3,0.972,0.01167,0.00372,-0.1339
2.4,0.9852,0.01174,0.00379,-0.1337
2.5,0.9983,0.01181,0.00387,-0.1335
2.6,1.0112,0.01191,0.00395,-0.1332
2.7,1.0244,0.01197,0.00403,-0.133
2.8,1.0376,0.01205,0.0041,-0.1328
2.9,1.0507,0.01213,0.00418,-0.1326
3,1.0638,0.01221,0.00427,-0.1324
3.1,1.077,0.01228,0.00435,-0.1321
3.2,1.0902,0.01235,0.00443,-0.1319
3.3,1.1034,0.01241,0.00452,-0.1317
3.4,1.1162,0.01252,0.00462,-0.1314
3.5,1.1295,0.01258,0.0047,-0.1311
3.6,1.1427,0.01265,0.00479,-0.1309
3.8,1.162,0.01149,0.00513,-0.1294
3.9,1.1749,0.01161,0.00523,-0.129
4,1.1881,0.01172,0.00533,-0.1287
4.1,1.2013,0.01182,0.00543,-0.1284
4.2,1.2143,0.01194,0.00554,-0.128
4.3,1.2273,0.01206,0.00565,-0.1276
4.4,1.2401,0.01219,0.00577,-0.1272
4.5,1.2533,0.0123,0.00588,-0.1269
4.6,1.2665,0.01241,0.00599,-0.1265
4.7,1.2795,0.01253,0.0061,-0.1261
4.8,1.2925,0.01265,0.00622,-0.1256
4.9,1.3054,0.01279,0.00634,-0.1252
5,1.3182,0.01293,0.00648,-0.1247
5.1,1.3312,0.01305,0.0066,-0.1243
5.2,1.3442,0.01318,0.00673,-0.1238
5.3,1.3571,0.01331,0.00687,-0.1233
5.4,1.3699,0.01346,0.00702,-0.1227
5.5,1.3825,0.01362,0.00718,-0.1222
5.6,1.3955,0.01374,0.00732,-0.1216
5.7,1.4084,0.01388,0.00747,-0.1211
5.8,1.4213,0.01402,0.00762,-0.1205
5.9,1.434,0.01417,0.00777,-0.1199
6,1.4463,0.01436,0.00794,-0.1192
6.1,1.459,0.01451,0.00812,-0.1186
6.2,1.4717,0.01466,0.00828,-0.1179
6.3,1.4844,0.01482,0.00845,-0.1173
6.4,1.4969,0.01498,0.00863,-0.1166
6.5,1.5094,0.01515,0.00882,-0.1158
6.6,1.5216,0.01534,0.00902,-0.1151
6.7,1.5338,0.01553,0.00923,-0.1143
6.8,1.5462,0.0157,0.00942,-0.1135
6.9,1.5584,0.01587,0.00961,-0.1126
7,1.5705,0.01606,0.00982,-0.1118
7.1,1.5824,0.01626,0.01003,-0.1109
7.2,1.5941,0.01647,0.01026,-0.1099
7.3,1.6057,0.01668,0.0105,-0.109
7.4,1.6175,0.01688,0.01073,-0.108
7.5,1.6292,0.01708,0.01096,-0.107
7.6,1.6407,0.01729,0.01121,-0.1059
7.7,1.6519,0.01751,0.01147,-0.1048
7.8,1.6627,0.01776,0.01173,-0.1037
7.9,1.6732,0.01801,0.01202,-0.1025
8,1.6841,0.01824,0.01229,-0.1013
8.1,1.6946,0.01848,0.01257,-0.1001
8.2,1.7042,0.01872,0.01286,-0.0986
8.3,1.7134,0.01898,0.01316,-0.0971
8.4,1.7223,0.01926,0.01348,-0.0956
8.5,1.7311,0.01955,0.01381,-0.0941
8.6,1.7396,0.01986,0.01416,-0.0926
8.7,1.7477,0.02019,0.01454,-0.091
8.8,1.7563,0.02051,0.01492,-0.0894
8.9,1.7648,0.02084,0.01531,-0.0879
9.1,1.7815,0.02154,0.01612,-0.0848
9.2,1.7893,0.02192,0.01657,-0.0832
9.3,1.7969,0.02232,0.01704,-0.0816
9.4,1.8042,0.02275,0.01752,-0.08
9.5,1.8112,0.0232,0.01803,-0.0784
9.6,1.8176,0.02368,0.01858,-0.0767
9.7,1.8239,0.02418,0.01916,-0.0751
9.8,1.8298,0.0247,0.01976,-0.0734
9.9,1.8354,0.02526,0.0204,-0.0718
10,1.8405,0.02585,0.02108,-0.0702
10.1,1.8453,0.02647,0.02179,-0.0686
10.2,1.8497,0.02713,0.02254,-0.067
10.3,1.8535,0.02784,0.02334,-0.0654
10.4,1.8568,0.02858,0.02418,-0.0639
10.5,1.8597,0.02937,0.02506,-0.0624
10.6,1.8621,0.03021,0.026,-0.061
10.7,1.8641,0.0311,0.02699,-0.0597
10.8,1.8657,0.03204,0.02803,-0.0585
10.9,1.8669,0.03304,0.02913,-0.0574
11.1,1.8701,0.03507,0.03132,-0.0555
11.2,1.8686,0.03635,0.03272,-0.0547
11.3,1.8664,0.03772,0.03421,-0.0542
11.4,1.8638,0.03919,0.0358,-0.0539
11.5,1.8606,0.04076,0.03749,-0.0538
11.6,1.8569,0.04245,0.0393,-0.054
11.7,1.8527,0.04424,0.04121,-0.0545
11.8,1.8482,0.04616,0.04324,-0.0554
11.9,1.8432,0.04821,0.0454,-0.0565
12.1,1.8324,0.05273,0.05015,-0.06
12.6,1.8083,0.06608,0.06397,-0.0738
12.8,1.7906,0.07337,0.07143,-0.0823
13,1.7701,0.08139,0.07959,-0.0912
13.2,1.7473,0.08948,0.08778,-0.0995
13.3,1.736,0.0934,0.09172,-0.1037
13.4,1.7249,0.09726,0.09561,-0.1079
13.6,1.704,0.10482,0.10322,-0.1163
13.7,1.6946,0.1085,0.10691,-0.1205
13.8,1.6852,0.11219,0.11061,-0.1246
13.9,1.6765,0.11579,0.11423,-0.1287
14.2,1.6512,0.12668,0.12518,-0.1409
14.3,1.6433,0.13033,0.12886,-0.145
14.4,1.635,0.13412,0.13266,-0.1492
14.6,1.6189,0.14185,0.14042,-0.1576
14.7,1.6123,0.14552,0.1441,-0.1615
14.9,1.6027,0.15231,0.15091,-0.1686
15.1,1.5991,0.15792,0.15654,-0.1742
15.2,1.5993,0.1603,0.15892,-0.1766
15.3,1.6006,0.16243,0.16106,-0.1786
15.4,1.6029,0.16432,0.16295,-0.1805
15.5,1.606,0.16596,0.1646,-0.1821
15.6,1.6004,0.16991,0.16854,-0.186
15.7,1.595,0.17399,0.17263,-0.19
15.8,1.5923,0.17756,0.17621,-0.1933
15.9,1.5927,0.18019,0.17884,-0.1957
16,1.5941,0.18253,0.1812,-0.1979
16.1,1.5964,0.18461,0.18328,-0.1998
16.2,1.5994,0.18646,0.18513,-0.2015
16.3,1.6032,0.18805,0.18673,-0.203
16.4,1.6074,0.18948,0.18816,-0.2044
16.5,1.6052,0.19328,0.19196,-0.2078
16.6,1.6047,0.19664,0.19533,-0.2107
16.7,1.6059,0.19936,0.19806,-0.2131
16.8,1.6081,0.20173,0.20043,-0.2151
16.9,1.6111,0.20379,0.2025,-0.217
17,1.6145,0.20566,0.20437,-0.2186
17.1,1.6183,0.20735,0.20607,-0.2202
17.2,1.6218,0.20921,0.20792,-0.2219
17.3,1.6217,0.21283,0.21155,-0.2248
17.4,1.6235,0.21569,0.21442,-0.2272
17.5,1.6261,0.21816,0.21689,-0.2293
17.6,1.6291,0.22044,0.21918,-0.2312
17.7,1.6323,0.22259,0.22133,-0.2331
17.8,1.6359,0.2246,0.22335,-0.2348
17.9,1.6395,0.22655,0.2253,-0.2365
18,1.6433,0.22844,0.2272,-0.2382
18.1,1.6469,0.23042,0.22917,-0.24
18.2,1.6478,0.23449,0.23324,-0.243
18.3,1.6509,0.23691,0.23566,-0.245
18.4,1.6543,0.23925,0.23801,-0.2469
18.5,1.6577,0.2415,0.24027,-0.2488
18.6,1.6613,0.2437,0.24247,-0.2506
18.7,1.665,0.2458,0.24457,-0.2524
18.8,1.6687,0.24789,0.24667,-0.2541
18.9,1.6725,0.24992,0.2487,-0.2559
19,1.6764,0.25192,0.25071,-0.2576
19.1,1.6798,0.2543,0.25308,-0.2596
19.2,1.6828,0.25722,0.256,-0.2618
19.3,1.6861,0.25993,0.25871,-0.2639
19.4,1.6895,0.26249,0.26128,-0.2659
19.5,1.6931,0.26503,0.26382,-0.2679
19.6,1.6967,0.26745,0.26624,-0.2698
19.7,1.7004,0.26982,0.26861,-0.2717
19.8,1.7042,0.27218,0.27097,-0.2736
19.9,1.7079,0.27448,0.27328,-0.2755
20,1.7117,0.27675,0.27556,-0.2773
20.1,1.7156,0.27899,0.27781,-0.2792
20.2,1.7194,0.28121,0.28002,-0.281
20.3,1.7233,0.28341,0.28222,-0.2828
20.4,1.7271,0.28559,0.28441,-0.2846
20.5,1.731,0.28775,0.28657,-0.2865
20.6,1.7348,0.28987,0.2887,-0.2883
20.7,1.7387,0.29199,0.29082,-0.2901
20.8,1.7425,0.29409,0.29292,-0.2919
20.9,1.7463,0.29618,0.29502,-0.2937
21,1.7501,0.29825,0.29709,-0.2955
21.1,1.7538,0.3008,0.29963,-0.2975
21.2,1.7577,0.30548,0.30431,-0.3002
21.3,1.7616,0.30811,0.30695,-0.3022
21.4,1.7655,0.31063,0.30947,-0.3042
21.5,1.7694,0.31312,0.31196,-0.3061
21.6,1.7733,0.3156,0.31445,-0.3081
21.7,1.7772,0.31802,0.31686,-0.31
21.8,1.7811,0.32043,0.31928,-0.3119
21.9,1.785,0.32281,0.32166,-0.3138
22,1.7889,0.32517,0.32403,-0.3157
22.1,1.7928,0.32753,0.32639,-0.3176
22.2,1.7967,0.32986,0.32872,-0.3195
22.3,1.8006,0.33216,0.33103,-0.3214
22.4,1.8044,0.33448,0.33335,-0.3234
22.5,1.8083,0.33677,0.33564,-0.3253
22.6,1.8121,0.33905,0.33793,-0.3272
22.7,1.8159,0.34134,0.34021,-0.3291
22.8,1.8198,0.34359,0.34247,-0.331
22.9,1.8235,0.34587,0.34475,-0.333
23,1.8273,0.3481,0.34698,-0.3349
23.1,1.8311,0.35034,0.34923,-0.3368
23.2,1.8348,0.3526,0.3515,-0.3388
23.3,1.8385,0.35481,0.35371,-0.3407
23.4,1.8422,0.35706,0.35597,-0.3427
23.5,1.8458,0.35923,0.35814,-0.3446
23.6,1.8498,0.36213,0.36103,-0.3468
23.7,1.8543,0.36587,0.36477,-0.3491
23.8,1.8584,0.36906,0.36797,-0.3513
23.9,1.8625,0.37207,0.37098,-0.3534
24,1.8665,0.37491,0.37382,-0.3556
24.1,1.8705,0.3777,0.37662,-0.3577
24.2,1.8744,0.38045,0.37937,-0.3598
24.3,1.8783,0.38313,0.38205,-0.3619
24.4,1.8822,0.38581,0.38473,-0.364
24.5,1.886,0.38846,0.38739,-0.3661
24.7,1.8938,0.39399,0.39293,-0.3703
24.8,1.8976,0.39659,0.39553,-0.3725
24.9,1.9013,0.39915,0.39809,-0.3745
25,1.905,0.40172,0.40066,-0.3766
25.1,1.9087,0.40427,0.40321,-0.3787
25.2,1.9124,0.40682,0.40577,-0.3808
25.3,1.916,0.40936,0.40831,-0.3829
25.4,1.9197,0.41189,0.41084,-0.3851
25.5,1.9233,0.41442,0.41338,-0.3872
25.6,1.9269,0.41694,0.41591,-0.3893
25.7,1.9305,0.41946,0.41842,-0.3914
25.8,1.934,0.42197,0.42094,-0.3936
25.9,1.9375,0.42449,0.42346,-0.3957
26,1.941,0.42697,0.42595,-0.3978
26.1,1.9445,0.42944,0.42843,-0.4
26.2,1.9479,0.43193,0.43091,-0.4021
26.3,1.9514,0.43444,0.43343,-0.4043
26.4,1.9548,0.43692,0.43592,-0.4064
26.5,1.9581,0.43936,0.43837,-0.4086
26.6,1.9615,0.44184,0.44085,-0.4108
26.7,1.9648,0.4443,0.44331,-0.413
26.8,1.9681,0.44675,0.44576,-0.4152
26.9,1.9714,0.44926,0.44828,-0.4174
27,1.9767,0.45447,0.45348,-0.4201
27.1,1.9808,0.45806,0.45707,-0.4225
27.2,1.9847,0.46143,0.46044,-0.4249
27.3,1.9885,0.46458,0.4636,-0.4273
27.4,1.9921,0.4676,0.46662,-0.4296
27.5,1.9956,0.47056,0.46958,-0.4319
27.6,1.9993,0.47365,0.47268,-0.4343
27.7,2.0028,0.47652,0.47555,-0.4366
27.8,2.0062,0.47948,0.47851,-0.4389
27.9,2.0097,0.48238,0.48142,-0.4412
28,2.0131,0.48527,0.48431,-0.4435
28.1,2.0165,0.48818,0.48722,-0.4459
28.2,2.02,0.49134,0.49039,-0.4483
28.3,2.0233,0.49419,0.49324,-0.4506
28.4,2.0265,0.49703,0.49608,-0.453
28.5,2.0298,0.49987,0.49892,-0.4553
28.6,2.033,0.50271,0.50177,-0.4577
28.7,2.0362,0.50553,0.50459,-0.46
28.8,2.0393,0.50833,0.5074,-0.4624
28.9,2.0425,0.51116,0.51023,-0.4647
29,2.0456,0.51397,0.51304,-0.4671
29.1,2.0486,0.51675,0.51583,-0.4695
29.2,2.0517,0.51958,0.51866,-0.4718
29.3,2.0547,0.52236,0.52144,-0.4742
29.4,2.0577,0.52516,0.52425,-0.4766
29.5,2.0607,0.52802,0.52712,-0.479
29.6,2.0636,0.53072,0.52982,-0.4814
29.7,2.0667,0.53372,0.53283,-0.4838
29.9,2.0716,0.53763,0.53674,-0.4884
30,2.072,0.54406,0.54318,-0.4899

