airfoilName st15.dat
Re 	330000
M 	5.000000e-01
N 	4.500000e+00
VACC 	0 VACCflag 1
XTR 	1.00 	1.00 XTRflag 0
alpha,cl,cd,cdp,cm
-30,-1.6006,0.56097,0.55823,0.3338
-29.9,-1.5968,0.55767,0.55494,0.3314
-29.8,-1.5929,0.55439,0.55165,0.329
-29.7,-1.5891,0.55119,0.54844,0.3266
-29.6,-1.5852,0.54796,0.54522,0.3242
-29.5,-1.5813,0.54478,0.54203,0.3218
-29.4,-1.5774,0.5416,0.53885,0.3194
-29.3,-1.5734,0.53838,0.53563,0.3171
-29.2,-1.5695,0.53524,0.53248,0.3147
-29.1,-1.5655,0.53207,0.52931,0.3123
-29,-1.5615,0.52899,0.52622,0.31
-28.9,-1.5575,0.52584,0.52307,0.3076
-28.8,-1.5535,0.52277,0.51999,0.3053
-28.7,-1.5495,0.51973,0.51695,0.303
-28.6,-1.5455,0.51661,0.51383,0.3007
-28.5,-1.5414,0.51361,0.51082,0.2984
-28.4,-1.5373,0.51057,0.50778,0.296
-28.3,-1.5333,0.50756,0.50477,0.2937
-28.2,-1.5292,0.50457,0.50178,0.2914
-28.1,-1.5251,0.50162,0.49882,0.2892
-28,-1.5209,0.49866,0.49585,0.2869
-27.9,-1.5168,0.49572,0.49291,0.2846
-27.8,-1.5126,0.49279,0.48997,0.2823
-27.7,-1.5085,0.48989,0.48707,0.2801
-27.6,-1.5043,0.48699,0.48417,0.2778
-27.5,-1.5001,0.48414,0.48131,0.2756
-27.4,-1.4959,0.48127,0.47844,0.2733
-27.3,-1.4917,0.47843,0.4756,0.2711
-27.2,-1.4874,0.4756,0.47277,0.2689
-27.1,-1.4832,0.47279,0.46995,0.2666
-27,-1.4789,0.47001,0.46717,0.2644
-26.9,-1.4746,0.46723,0.46438,0.2622
-26.8,-1.4703,0.46446,0.46161,0.26
-26.7,-1.466,0.46173,0.45888,0.2578
-26.6,-1.4617,0.459,0.45614,0.2556
-26.5,-1.4573,0.45628,0.45343,0.2534
-26.4,-1.453,0.45358,0.45072,0.2513
-26.3,-1.4486,0.45091,0.44805,0.2491
-26.2,-1.4442,0.44825,0.44538,0.2469
-26.1,-1.4398,0.44559,0.44273,0.2447
-26,-1.4354,0.44297,0.44011,0.2426
-25.9,-1.431,0.44125,0.43838,0.2402
-25.8,-1.4265,0.43867,0.4358,0.2381
-25.7,-1.4221,0.43611,0.43324,0.2359
-25.6,-1.4176,0.43356,0.43068,0.2337
-25.5,-1.4131,0.43104,0.42815,0.2316
-25.4,-1.4086,0.42853,0.42564,0.2294
-25.3,-1.4041,0.42608,0.42318,0.2273
-25.2,-1.3995,0.42366,0.42077,0.2251
-25.1,-1.395,0.42124,0.41834,0.223
-25,-1.3904,0.41888,0.41598,0.2208
-24.9,-1.3858,0.41655,0.41365,0.2187
-24.8,-1.3812,0.41424,0.41134,0.2165
-24.7,-1.3766,0.41201,0.4091,0.2143
-24.6,-1.3719,0.40983,0.40693,0.2121
-24.5,-1.3672,0.40782,0.40491,0.2099
-24.4,-1.3626,0.40589,0.40298,0.2076
-24.1,-1.3466,0.40019,0.39729,0.2
-24,-1.342,0.39739,0.39449,0.1981
-23.9,-1.3375,0.39462,0.39172,0.1962
-23.8,-1.3329,0.39186,0.38896,0.1943
-23.7,-1.3283,0.38913,0.38623,0.1924
-23.6,-1.3237,0.38642,0.38352,0.1905
-23.5,-1.3191,0.38374,0.38083,0.1886
-23.4,-1.3145,0.38107,0.37816,0.1867
-23.3,-1.3099,0.37842,0.37551,0.1849
-23.2,-1.3053,0.3758,0.37288,0.183
-23.1,-1.3006,0.37321,0.37029,0.1812
-23,-1.296,0.37061,0.36769,0.1793
-22.9,-1.2913,0.36803,0.3651,0.1775
-22.8,-1.2866,0.36549,0.36255,0.1756
-22.7,-1.2819,0.36295,0.36001,0.1738
-22.6,-1.2773,0.36043,0.35749,0.172
-22.5,-1.2726,0.35791,0.35497,0.1702
-22.4,-1.2679,0.35542,0.35248,0.1684
-22.3,-1.2632,0.35293,0.34999,0.1666
-22.2,-1.2584,0.35046,0.34752,0.1648
-22.1,-1.2537,0.34801,0.34506,0.1631
-22,-1.249,0.34556,0.34261,0.1613
-21.9,-1.2442,0.34312,0.34017,0.1595
-21.8,-1.2395,0.3407,0.33774,0.1578
-21.7,-1.2347,0.33827,0.33532,0.1561
-21.6,-1.23,0.33588,0.33293,0.1543
-21.5,-1.2252,0.33349,0.33053,0.1526
-21.4,-1.2205,0.33111,0.32815,0.1509
-21.3,-1.2157,0.32874,0.32578,0.1492
-21.2,-1.2109,0.32638,0.32342,0.1475
-21.1,-1.2061,0.32403,0.32106,0.1458
-21,-1.2013,0.32169,0.31873,0.1441
-20.9,-1.1964,0.31935,0.31639,0.1425
-20.8,-1.1916,0.31703,0.31407,0.1408
-20.7,-1.1868,0.31472,0.31176,0.1391
-20.6,-1.1819,0.31243,0.30946,0.1375
-20.5,-1.1771,0.31013,0.30716,0.1358
-20.4,-1.1722,0.30786,0.30487,0.1342
-20.3,-1.1673,0.30559,0.3026,0.1325
-20.2,-1.1624,0.30332,0.30034,0.1309
-20,-1.1526,0.2993,0.29632,0.1275
-19.9,-1.1477,0.29707,0.29408,0.1259
-19.8,-1.1428,0.29484,0.29185,0.1243
-19.7,-1.1378,0.29262,0.28963,0.1227
-19.6,-1.1329,0.29041,0.28742,0.1211
-19.5,-1.128,0.28822,0.28523,0.1195
-19.4,-1.123,0.28603,0.28303,0.1179
-19.3,-1.118,0.28385,0.28086,0.1163
-19.2,-1.113,0.28169,0.27869,0.1147
-19.1,-1.1081,0.27953,0.27653,0.1131
-19,-1.1031,0.27738,0.27438,0.1116
-18.9,-1.0981,0.27524,0.27225,0.11
-18.8,-1.093,0.27312,0.27012,0.1084
-18.7,-1.088,0.27099,0.268,0.1068
-18.6,-1.0829,0.26889,0.26589,0.1053
-18.5,-1.0779,0.26678,0.26378,0.1037
-18.4,-1.0728,0.26469,0.26169,0.1021
-18.3,-1.0677,0.26259,0.25959,0.1005
-18.2,-1.0625,0.26051,0.25751,0.099
-18.1,-1.0574,0.25842,0.25542,0.0974
-18,-1.0522,0.25633,0.25333,0.0958
-17.9,-1.047,0.25423,0.25123,0.0942
-17.8,-1.0417,0.25213,0.24913,0.0926
-17.7,-1.0364,0.24999,0.24699,0.0911
-17.6,-1.0311,0.24783,0.24482,0.0895
-17.5,-1.0256,0.2456,0.24259,0.0878
-17.3,-1.0114,0.24031,0.23731,0.0836
-17.2,-1.0066,0.2382,0.2352,0.0823
-17.1,-1.0018,0.2361,0.23311,0.081
-17,-0.9971,0.23402,0.23103,0.0797
-16.9,-0.9923,0.23196,0.22897,0.0784
-16.8,-0.9874,0.22992,0.22692,0.0771
-16.7,-0.9826,0.22788,0.22488,0.0758
-16.6,-0.9778,0.22587,0.22287,0.0745
-16.5,-0.9729,0.22387,0.22087,0.0732
-16.4,-0.9681,0.22188,0.21888,0.0719
-16.3,-0.9632,0.21991,0.21691,0.0706
-16.2,-0.9583,0.21795,0.21496,0.0693
-16.1,-0.9533,0.21601,0.21301,0.068
-16,-0.9484,0.21408,0.21108,0.0668
-15.9,-0.9435,0.21217,0.20917,0.0655
-15.8,-0.9385,0.21027,0.20727,0.0642
-15.7,-0.9335,0.20838,0.20539,0.063
-15.6,-0.9285,0.20651,0.20351,0.0617
-15.5,-0.9235,0.20464,0.20165,0.0605
-15.4,-0.9185,0.20279,0.19979,0.0592
-15.3,-0.9135,0.20095,0.19795,0.058
-15.2,-0.9084,0.19912,0.19613,0.0567
-15.1,-0.9034,0.1973,0.1943,0.0555
-14.9,-0.8929,0.19397,0.19098,0.0529
-14.8,-0.8878,0.19216,0.18916,0.0517
-14.7,-0.8826,0.19036,0.18736,0.0505
-14.6,-0.8775,0.18857,0.18557,0.0493
-14.5,-0.8723,0.18679,0.18379,0.0481
-14.4,-0.8671,0.18501,0.18202,0.0469
-14.3,-0.8619,0.18326,0.18026,0.0457
-14.2,-0.8567,0.1815,0.1785,0.0445
-14.1,-0.8515,0.17976,0.17676,0.0433
-14,-0.8463,0.17802,0.17503,0.0421
-13.9,-0.8411,0.17629,0.1733,0.0409
-13.8,-0.8358,0.17458,0.17159,0.0398
-13.7,-0.8306,0.17286,0.16988,0.0386
-13.6,-0.8253,0.17116,0.16818,0.0374
-13.5,-0.8201,0.16947,0.16649,0.0363
-13.4,-0.8148,0.16779,0.1648,0.0351
-13.3,-0.8095,0.16611,0.16313,0.034
-13.2,-0.8042,0.16444,0.16147,0.0328
-13.1,-0.7988,0.16278,0.1598,0.0317
-13,-0.7935,0.16113,0.15815,0.0306
-12.9,-0.7881,0.15948,0.15651,0.0294
-12.8,-0.7827,0.15783,0.15487,0.0283
-12.7,-0.7773,0.1562,0.15323,0.0272
-12.6,-0.7718,0.15458,0.15161,0.026
-12.5,-0.7664,0.15296,0.15,0.0249
-12.4,-0.7609,0.15134,0.14838,0.0238
-12.3,-0.7555,0.14974,0.14678,0.0227
-12.2,-0.75,0.14815,0.14519,0.0216
-12.1,-0.7445,0.14656,0.14359,0.0205
-12,-0.739,0.14497,0.14201,0.0194
-11.9,-0.7335,0.14339,0.14043,0.0183
-11.8,-0.7279,0.14181,0.13886,0.0171
-11.7,-0.7224,0.14024,0.13729,0.016
-11.6,-0.7168,0.13867,0.13573,0.0149
-11.5,-0.7111,0.13709,0.13415,0.0138
-11.4,-0.7055,0.13551,0.13257,0.0127
-11.3,-0.6999,0.13394,0.13101,0.0117
-11.2,-0.6942,0.13236,0.12942,0.0105
-11.1,-0.6885,0.13076,0.12783,0.0094
-11,-0.6827,0.12915,0.12623,0.0083
-10.9,-0.677,0.12753,0.12461,0.0072
-10.8,-0.671,0.12581,0.12289,0.0061
-10.7,-0.6646,0.124,0.12108,0.0048
-10.6,-0.6569,0.12202,0.11912,0.0032
-10.5,-0.6519,0.12063,0.11774,0.0023
-10.4,-0.6468,0.11927,0.11639,0.0014
-10.3,-0.6417,0.11793,0.11505,0.0005
-10.2,-0.6366,0.11661,0.11374,-0.0003
-10.1,-0.6315,0.11531,0.11245,-0.0012
-10,-0.6264,0.11404,0.11118,-0.002
-9.9,-0.6214,0.11278,0.10993,-0.0028
-9.7,-0.6115,0.11063,0.1078,-0.0044
-9.6,-0.6067,0.10944,0.10662,-0.0051
-9.5,-0.602,0.10828,0.10547,-0.0058
-9.4,-0.5975,0.10715,0.10435,-0.0064
-9.3,-0.5933,0.10606,0.10327,-0.0069
-9.2,-0.5895,0.105,0.10223,-0.0074
-9.1,-0.5862,0.104,0.10123,-0.0077
-9,-0.5834,0.10306,0.10031,-0.0078
-8.9,-0.5812,0.10218,0.09944,-0.0078
-8.8,-0.5797,0.10136,0.09865,-0.0077
-8.7,-0.5791,0.10063,0.09794,-0.0073
-8.6,-0.5736,0.09949,0.0968,-0.0082
-8.5,-0.5638,0.09799,0.09531,-0.0102
-8.4,-0.5538,0.09651,0.09382,-0.0123
-8.3,-0.5435,0.09502,0.09233,-0.0145
-8.2,-0.5333,0.09355,0.09086,-0.0166
-8.1,-0.5226,0.09206,0.08937,-0.0188
-8,-0.5123,0.09062,0.08793,-0.0209
-7.9,-0.5015,0.08916,0.08647,-0.0232
-7.8,-0.4901,0.08768,0.08498,-0.0256
-7.7,-0.4807,0.08635,0.08365,-0.0274
-7.6,-0.4706,0.08499,0.08229,-0.0295
-7.5,-0.4596,0.08358,0.08087,-0.0317
-7.4,-0.4475,0.08211,0.0794,-0.0343
-7.3,-0.4342,0.08057,0.07786,-0.037
-7.2,-0.424,0.07927,0.07656,-0.039
-7.1,-0.4122,0.07787,0.07515,-0.0414
-7,-0.3994,0.07641,0.07368,-0.044
-6.9,-0.3858,0.07491,0.07216,-0.0468
-6.8,-0.3715,0.07338,0.07062,-0.0497
-6.7,-0.3603,0.07204,0.06928,-0.0518
-6.6,-0.348,0.07063,0.06786,-0.0542
-6.5,-0.3344,0.06914,0.06636,-0.0569
-6.4,-0.3188,0.0675,0.0647,-0.06
-6.3,-0.3045,0.06591,0.06309,-0.0628
-6.2,-0.2918,0.06438,0.06156,-0.0652
-6.1,-0.2771,0.06263,0.05979,-0.0681
-5.9,-0.2428,0.05862,0.05575,-0.0753
-5.8,-0.2304,0.05747,0.05458,-0.0773
-5.7,-0.2167,0.0563,0.0534,-0.0795
-5.6,-0.2019,0.05509,0.05217,-0.0819
-5.5,-0.1859,0.05383,0.05088,-0.0845
-5.4,-0.1696,0.05256,0.04959,-0.0871
-5.3,-0.1557,0.05142,0.04844,-0.0891
-5.2,-0.1403,0.05021,0.0472,-0.0914
-5.1,-0.1239,0.04895,0.04591,-0.0939
-5,-0.1066,0.04762,0.04454,-0.0965
-4.9,-0.0888,0.04625,0.04313,-0.0992
-4.8,-0.0728,0.04495,0.0418,-0.1015
-4.7,-0.0556,0.04353,0.04035,-0.104
-4.6,-0.0369,0.04197,0.03874,-0.1069
-4.5,-0.0073,0.03794,0.0346,-0.1136
-4.4,0.01,0.03686,0.03347,-0.1156
-4.3,0.0266,0.03582,0.03239,-0.1175
-4.2,0.0439,0.03473,0.03124,-0.1194
-4.1,0.0618,0.03355,0.03,-0.1213
-3.9,0.0998,0.0308,0.0271,-0.1258
-3.8,0.1191,0.02909,0.02529,-0.1281
-3.6,0.17,0.02154,0.01719,-0.1375
-3.5,0.187,0.02043,0.01595,-0.1386
-3.3,0.2235,0.01627,0.0112,-0.1423
-3.2,0.2405,0.01443,0.00887,-0.1437
-3.1,0.2555,0.01384,0.00813,-0.144
-2.9,0.2851,0.01314,0.00723,-0.1441
-2.8,0.2997,0.01279,0.00676,-0.1441
-2.7,0.3142,0.01243,0.00628,-0.1441
-2.6,0.3288,0.01209,0.0058,-0.1441
-2.5,0.343,0.01196,0.00564,-0.144
-2.4,0.3574,0.01178,0.00539,-0.1439
-2.3,0.3716,0.01159,0.00515,-0.1439
-2.2,0.3859,0.0114,0.00489,-0.1438
-2.1,0.4,0.01123,0.00461,-0.1437
-2,0.4137,0.01107,0.00439,-0.1434
-1.8,0.4415,0.01092,0.00418,-0.1431
-1.7,0.4553,0.01081,0.00401,-0.1429
-1.6,0.4688,0.01072,0.00383,-0.1426
-1.5,0.4828,0.01062,0.00371,-0.1425
-1.4,0.4967,0.01055,0.00362,-0.1424
-1.3,0.5105,0.01049,0.00353,-0.1423
-1.2,0.524,0.01047,0.00347,-0.1421
-1.1,0.5376,0.01042,0.00336,-0.1419
-1,0.5512,0.01037,0.00329,-0.1417
-0.9,0.5648,0.01033,0.00323,-0.1416
-0.8,0.5785,0.0103,0.00318,-0.1415
-0.6,0.6052,0.01028,0.00309,-0.141
-0.5,0.6187,0.01027,0.00305,-0.1409
-0.4,0.6323,0.01026,0.00301,-0.1407
-0.3,0.6457,0.01026,0.00296,-0.1406
-0.2,0.6584,0.01028,0.00293,-0.1402
-0.1,0.6715,0.01031,0.00294,-0.14
0,0.6847,0.01033,0.00292,-0.1398
0.1,0.698,0.01035,0.0029,-0.1396
0.2,0.7108,0.01039,0.0029,-0.1393
0.3,0.7238,0.01042,0.0029,-0.1391
0.4,0.7359,0.01052,0.0029,-0.1386
0.6,0.7606,0.01069,0.00295,-0.1379
0.7,0.7729,0.01079,0.00298,-0.1376
0.8,0.7855,0.01087,0.00301,-0.1373
0.9,0.7979,0.01095,0.00305,-0.137
1,0.8103,0.01105,0.0031,-0.1366
1.1,0.8216,0.01122,0.00316,-0.1361
1.2,0.8337,0.01133,0.00323,-0.1358
1.3,0.8456,0.01145,0.0033,-0.1354
1.4,0.8574,0.01159,0.00337,-0.135
1.5,0.869,0.01175,0.00345,-0.1345
1.6,0.8805,0.0119,0.00354,-0.1341
1.7,0.8916,0.01209,0.00364,-0.1336
1.8,0.9025,0.0123,0.00376,-0.1331
1.9,0.9113,0.01265,0.00395,-0.1323
2,0.9218,0.01291,0.0041,-0.1317
2.1,0.9324,0.01315,0.00423,-0.1312
2.2,0.9435,0.01337,0.00439,-0.1308
2.3,0.9551,0.01356,0.0045,-0.1304
2.4,0.967,0.01372,0.00463,-0.13
2.5,0.9788,0.01388,0.00477,-0.1296
2.6,0.9906,0.01404,0.00491,-0.1293
2.7,1.0026,0.01417,0.00504,-0.129
2.8,1.0152,0.01427,0.00515,-0.1287
2.9,1.0276,0.01435,0.00528,-0.1284
3.1,1.043,0.01327,0.00554,-0.126
3.2,1.0555,0.01341,0.00567,-0.1256
3.3,1.0678,0.01357,0.0058,-0.1253
3.4,1.0799,0.01374,0.00594,-0.1248
3.5,1.0923,0.01389,0.00607,-0.1245
3.6,1.1046,0.01404,0.0062,-0.1241
3.7,1.1167,0.01421,0.00634,-0.1236
3.8,1.1291,0.01436,0.00648,-0.1232
3.9,1.1416,0.0145,0.00662,-0.1228
4,1.154,0.01465,0.00676,-0.1224
4.1,1.1661,0.01482,0.00691,-0.1219
4.2,1.1781,0.015,0.00708,-0.1214
4.3,1.1905,0.01515,0.00722,-0.121
4.4,1.2028,0.01531,0.00739,-0.1205
4.5,1.2148,0.01548,0.00755,-0.12
4.6,1.2266,0.01567,0.00773,-0.1195
4.7,1.2391,0.01582,0.00789,-0.119
4.8,1.2513,0.01598,0.00806,-0.1184
4.9,1.2634,0.01615,0.00823,-0.1179
5,1.2753,0.01634,0.00842,-0.1173
5.1,1.287,0.01653,0.0086,-0.1167
5.2,1.2991,0.0167,0.00878,-0.1161
5.3,1.3112,0.01688,0.00897,-0.1155
5.4,1.323,0.01707,0.00917,-0.1149
5.5,1.3345,0.01727,0.00938,-0.1142
5.6,1.346,0.01749,0.00961,-0.1135
5.7,1.358,0.01767,0.00983,-0.1128
5.8,1.3698,0.01786,0.01005,-0.1122
5.9,1.3814,0.01807,0.01027,-0.1114
6,1.3925,0.01828,0.01048,-0.1107
6.1,1.4035,0.01852,0.01072,-0.1099
6.2,1.4151,0.01872,0.01096,-0.1091
6.3,1.4265,0.01894,0.01121,-0.1083
6.4,1.4376,0.01916,0.01146,-0.1074
6.5,1.4485,0.0194,0.01172,-0.1065
6.6,1.459,0.01965,0.01199,-0.1056
6.7,1.4691,0.01991,0.01227,-0.1046
6.8,1.4801,0.02015,0.01258,-0.1037
6.9,1.4909,0.02038,0.01284,-0.1027
7,1.5011,0.02064,0.01314,-0.1017
7.1,1.511,0.02091,0.01344,-0.1006
7.2,1.5201,0.0212,0.01375,-0.0994
7.3,1.5289,0.02148,0.01408,-0.0982
7.4,1.5381,0.02177,0.01442,-0.0969
7.5,1.5471,0.02207,0.01478,-0.0957
7.6,1.5558,0.02238,0.01514,-0.0944
7.7,1.5642,0.02271,0.01552,-0.0931
7.8,1.5723,0.02305,0.0159,-0.0918
7.9,1.58,0.02341,0.0163,-0.0904
8,1.5885,0.02374,0.01668,-0.0891
8.1,1.5968,0.02412,0.01713,-0.0878
8.2,1.6047,0.02451,0.0176,-0.0865
8.3,1.6123,0.02491,0.01807,-0.0851
8.4,1.6196,0.02533,0.01855,-0.0838
8.5,1.6265,0.02577,0.01905,-0.0824
8.6,1.6328,0.02624,0.01957,-0.081
8.7,1.6393,0.02674,0.02013,-0.0796
8.8,1.646,0.02725,0.02074,-0.0783
8.9,1.6522,0.02779,0.02138,-0.0769
9,1.658,0.02836,0.02203,-0.0756
9.1,1.6635,0.02895,0.02271,-0.0742
9.2,1.6696,0.02945,0.02326,-0.073
9.3,1.6743,0.03007,0.02396,-0.0716
9.4,1.6784,0.03073,0.02469,-0.0704
9.5,1.6822,0.03144,0.02549,-0.0691
9.6,1.6858,0.03222,0.02638,-0.0678
9.7,1.689,0.03304,0.02731,-0.0666
9.8,1.6916,0.0339,0.02829,-0.0655
9.9,1.6937,0.03481,0.02931,-0.0644
10,1.6954,0.03576,0.03039,-0.0634
10.1,1.6967,0.03676,0.0315,-0.0625
10.2,1.6975,0.0378,0.03265,-0.0617
10.3,1.698,0.0389,0.03385,-0.061
10.4,1.6981,0.04006,0.03511,-0.0605
10.5,1.6979,0.04126,0.03642,-0.0601
10.6,1.6974,0.04253,0.0378,-0.0598
10.7,1.6966,0.04387,0.03924,-0.0598
10.8,1.6955,0.04529,0.04075,-0.06
10.9,1.6932,0.04688,0.04244,-0.0604
11,1.6894,0.04869,0.04439,-0.0611
11.2,1.6805,0.05269,0.04866,-0.0634
11.3,1.6762,0.05486,0.05098,-0.0652
11.5,1.6656,0.05976,0.05613,-0.0699
12.6,1.5628,0.10345,0.10072,-0.1212
12.7,1.5578,0.1067,0.10399,-0.1247
12.8,1.555,0.10949,0.10679,-0.1277
12.9,1.554,0.11194,0.10924,-0.1302
13,1.5543,0.11407,0.11138,-0.1324
13.1,1.5388,0.11965,0.11696,-0.1384
13.2,1.5254,0.12502,0.12235,-0.144
13.3,1.5183,0.12909,0.12644,-0.1481
13.4,1.5149,0.13235,0.12971,-0.1513
13.5,1.5136,0.13515,0.13251,-0.154
13.7,1.5147,0.13982,0.13721,-0.1584
13.8,1.5164,0.14184,0.13924,-0.1602
13.9,1.5187,0.14371,0.14112,-0.162
14,1.5244,0.14466,0.14208,-0.1629
14.1,1.5278,0.14615,0.14358,-0.1643
14.2,1.5314,0.14753,0.14496,-0.1657
14.3,1.5353,0.1488,0.14624,-0.1669
14.4,1.5255,0.15459,0.15202,-0.1721
14.5,1.5241,0.15787,0.15531,-0.175
14.6,1.5247,0.1605,0.15795,-0.1773
14.7,1.5263,0.16279,0.16025,-0.1794
14.8,1.5284,0.16489,0.16236,-0.1812
14.9,1.531,0.16682,0.1643,-0.1829
15,1.5339,0.16861,0.1661,-0.1845
15.1,1.537,0.1703,0.1678,-0.186
15.2,1.5403,0.17188,0.1694,-0.1875
15.3,1.5438,0.17337,0.1709,-0.1888
15.6,1.5552,0.17726,0.1748,-0.1928
15.7,1.5525,0.18235,0.17989,-0.1969
15.8,1.554,0.18517,0.18273,-0.1992
15.9,1.5564,0.18753,0.1851,-0.2012
16,1.5592,0.18964,0.18721,-0.2031
16.1,1.5622,0.19156,0.18915,-0.2047
16.2,1.5655,0.19334,0.19094,-0.2063
16.3,1.569,0.195,0.19261,-0.2078
16.4,1.5735,0.19595,0.19357,-0.209
16.5,1.5774,0.19721,0.19484,-0.2103
16.6,1.579,0.20051,0.19813,-0.2132
16.7,1.5808,0.20379,0.20142,-0.2158
16.8,1.5836,0.20629,0.20392,-0.2178
16.9,1.5868,0.20846,0.20611,-0.2197
17,1.5903,0.21038,0.20804,-0.2214
17.1,1.594,0.21212,0.2098,-0.223
17.2,1.5978,0.21372,0.21141,-0.2245
17.3,1.6017,0.21519,0.21289,-0.2259
17.4,1.6057,0.21649,0.2142,-0.2272
17.5,1.6097,0.21774,0.21546,-0.2285
17.6,1.6106,0.22355,0.22125,-0.2327
17.7,1.6141,0.22579,0.2235,-0.2346
17.8,1.6178,0.22785,0.22557,-0.2363
17.9,1.6215,0.22975,0.22748,-0.238
18,1.6254,0.23154,0.22927,-0.2396
18.1,1.6293,0.2332,0.23094,-0.2411
18.2,1.6332,0.23477,0.23251,-0.2426
18.3,1.6372,0.23625,0.23401,-0.2441
18.4,1.6412,0.23763,0.23539,-0.2455
18.5,1.6439,0.24197,0.23971,-0.2484
18.6,1.6474,0.24482,0.24257,-0.2505
18.7,1.6511,0.24736,0.24511,-0.2524
18.8,1.6549,0.24965,0.24742,-0.2543
18.9,1.6587,0.25183,0.2496,-0.256
19,1.6626,0.25392,0.25169,-0.2578
19.1,1.6665,0.25592,0.2537,-0.2595
19.2,1.6704,0.25786,0.25565,-0.2612
19.3,1.6744,0.25974,0.25753,-0.2628
19.4,1.6783,0.26155,0.25935,-0.2644
19.5,1.6822,0.26328,0.26109,-0.266
19.6,1.6861,0.26499,0.2628,-0.2676
19.7,1.6899,0.26941,0.2672,-0.2706
19.8,1.6939,0.272,0.26979,-0.2726
19.9,1.6979,0.27439,0.27219,-0.2744
20,1.7018,0.27668,0.27449,-0.2763
20.1,1.7058,0.2789,0.27672,-0.2781
20.2,1.7097,0.28107,0.27888,-0.2799
20.3,1.7137,0.28318,0.281,-0.2816
20.4,1.7177,0.28523,0.28307,-0.2834
20.5,1.7216,0.28726,0.28511,-0.2851
20.6,1.7255,0.28925,0.2871,-0.2869
20.7,1.7294,0.29119,0.28905,-0.2886
20.8,1.7333,0.29312,0.29098,-0.2903
20.9,1.7372,0.29501,0.29287,-0.292
21,1.7411,0.29686,0.29473,-0.2937
21.1,1.7449,0.29868,0.29656,-0.2954
21.2,1.7489,0.30132,0.29919,-0.2974
21.3,1.7532,0.30486,0.30273,-0.2997
21.4,1.7573,0.30767,0.30554,-0.3018
21.5,1.7614,0.31032,0.3082,-0.3038
21.6,1.7655,0.31293,0.31081,-0.3058
21.7,1.7695,0.3154,0.31328,-0.3077
21.8,1.7736,0.31784,0.31572,-0.3096
21.9,1.7776,0.32022,0.31811,-0.3115
22,1.7816,0.32258,0.32047,-0.3134
22.1,1.7856,0.32491,0.32281,-0.3154
22.2,1.7896,0.32721,0.32512,-0.3172
22.3,1.7935,0.3295,0.32741,-0.3191
22.4,1.7974,0.33177,0.32968,-0.321
22.5,1.8014,0.33403,0.33195,-0.3229
22.6,1.8053,0.33627,0.33419,-0.3248
22.8,1.8128,0.34024,0.33818,-0.3286
22.9,1.8166,0.34238,0.34032,-0.3305
23,1.8204,0.34446,0.34241,-0.3323
23.1,1.8242,0.34656,0.34451,-0.3342
23.2,1.8279,0.34865,0.34661,-0.3361
23.3,1.8316,0.35066,0.34863,-0.338
23.4,1.8353,0.35274,0.35072,-0.3399
23.5,1.8402,0.35719,0.35516,-0.3425
23.6,1.8445,0.36031,0.35829,-0.3447
23.7,1.8486,0.36325,0.36123,-0.3469
23.8,1.8527,0.36603,0.36401,-0.349
23.9,1.8567,0.36875,0.36674,-0.3511
24,1.8607,0.3714,0.36939,-0.3532
24.1,1.8647,0.37402,0.37202,-0.3553
24.2,1.8686,0.37661,0.37461,-0.3573
24.3,1.8725,0.37917,0.37718,-0.3594
24.4,1.8763,0.38172,0.37974,-0.3615
24.5,1.8802,0.38425,0.38226,-0.3635
24.6,1.884,0.38677,0.38479,-0.3656
24.7,1.8878,0.38927,0.3873,-0.3677
24.8,1.8916,0.39178,0.38981,-0.3698
24.9,1.8953,0.39426,0.3923,-0.3718
25,1.8991,0.39674,0.39478,-0.3739
25.1,1.9028,0.39921,0.39726,-0.376
25.2,1.9065,0.40169,0.39974,-0.3781
25.3,1.9102,0.40415,0.40221,-0.3802
25.4,1.9139,0.40661,0.40468,-0.3822
25.5,1.9175,0.40907,0.40714,-0.3843
25.6,1.9211,0.41151,0.40959,-0.3864
25.7,1.9247,0.41396,0.41204,-0.3885
25.8,1.9283,0.41641,0.4145,-0.3907
25.9,1.9319,0.41885,0.41694,-0.3928
26,1.9354,0.42127,0.41937,-0.3949
26.1,1.9389,0.42369,0.4218,-0.397
26.2,1.9424,0.4261,0.42421,-0.3991
26.3,1.9458,0.42854,0.42666,-0.4013
26.4,1.9493,0.43093,0.42905,-0.4034
26.5,1.9531,0.43416,0.43229,-0.4059
26.6,1.9576,0.43817,0.4363,-0.4085
26.7,1.9617,0.44162,0.43975,-0.4109
26.8,1.9656,0.44479,0.44292,-0.4132
26.9,1.9693,0.44775,0.4459,-0.4155
27,1.9731,0.45075,0.44889,-0.4179
27.1,1.9767,0.45366,0.45181,-0.4201
27.2,1.9804,0.45658,0.45473,-0.4225
27.3,1.984,0.45945,0.45761,-0.4248
27.4,1.9875,0.46227,0.46044,-0.427
27.5,1.991,0.46507,0.46324,-0.4293
27.6,1.9945,0.46792,0.4661,-0.4316
27.7,1.9979,0.47068,0.46887,-0.4339
27.8,2.0014,0.47348,0.47166,-0.4362
27.9,2.0048,0.47625,0.47444,-0.4385
28,2.0081,0.47901,0.47721,-0.4408
28.1,2.0115,0.48179,0.47999,-0.4431
28.2,2.0148,0.48455,0.48276,-0.4455
28.3,2.0181,0.48731,0.48553,-0.4478
28.4,2.0214,0.49008,0.4883,-0.4501
28.5,2.0247,0.49283,0.49106,-0.4524
28.6,2.0279,0.49559,0.49383,-0.4548
28.7,2.0311,0.49834,0.49658,-0.4571
28.8,2.0343,0.50107,0.49932,-0.4594
28.9,2.0375,0.50388,0.50213,-0.4618
29,2.0406,0.50661,0.50486,-0.4641
29.1,2.0438,0.5094,0.50766,-0.4665
29.2,2.047,0.51241,0.51068,-0.4689
29.3,2.0502,0.51534,0.51361,-0.4713
29.4,2.052,0.51551,0.51379,-0.4733
29.6,2.058,0.5304,0.5287,-0.478
29.7,2.0608,0.53345,0.53176,-0.4803
29.8,2.0637,0.53642,0.53474,-0.4827
29.9,2.0668,0.53829,0.53661,-0.4851

