airfoilName st15.dat
Re 	1.500000e+05
M 	5.000000e-01
N 	4.500000e+00
VACC 	0 VACCflag 1
XTR 	1.00 	1.00 XTRflag 0
alpha,cl,cd,cdp,cm
-29,-1.5591,0.5512,0.54691,0.3043
-28.9,-1.555,0.54766,0.54337,0.302
-28.8,-1.551,0.54421,0.53991,0.2997
-28.7,-1.5469,0.5408,0.5365,0.2974
-28.6,-1.5428,0.53728,0.53297,0.2951
-28.5,-1.5387,0.53391,0.52959,0.2929
-28.4,-1.5346,0.53049,0.52617,0.2906
-28.3,-1.5305,0.52709,0.52277,0.2883
-28.2,-1.5263,0.52372,0.51939,0.2861
-28.1,-1.5221,0.52041,0.51608,0.2838
-28,-1.518,0.51707,0.51272,0.2815
-27.9,-1.5138,0.51376,0.5094,0.2793
-27.8,-1.5096,0.51044,0.50608,0.2771
-27.7,-1.5053,0.50719,0.50283,0.2748
-27.6,-1.5011,0.50391,0.49954,0.2726
-27.5,-1.4968,0.5007,0.49632,0.2704
-27.4,-1.4926,0.49745,0.49307,0.2682
-27.3,-1.4883,0.49426,0.48987,0.266
-27.2,-1.484,0.49109,0.4867,0.2638
-27.1,-1.4796,0.48791,0.48351,0.2616
-27,-1.4753,0.4848,0.4804,0.2594
-26.9,-1.471,0.48166,0.47726,0.2573
-26.8,-1.4666,0.47855,0.47414,0.2551
-26.7,-1.4623,0.47547,0.47106,0.253
-26.6,-1.4579,0.47239,0.46797,0.2508
-26.5,-1.4535,0.46935,0.46493,0.2487
-26.4,-1.4491,0.46634,0.46191,0.2465
-26.3,-1.4447,0.46332,0.45888,0.2444
-26.2,-1.4403,0.46034,0.4559,0.2423
-26.1,-1.4358,0.45736,0.45292,0.2401
-26,-1.4314,0.45443,0.44998,0.238
-25.9,-1.4269,0.45149,0.44704,0.2359
-25.8,-1.4225,0.44861,0.44416,0.2338
-25.7,-1.418,0.44568,0.44123,0.2317
-25.6,-1.4135,0.44281,0.43834,0.2297
-25.5,-1.4089,0.43997,0.43549,0.2276
-25.4,-1.4044,0.43714,0.43266,0.2255
-25.3,-1.3999,0.43433,0.42984,0.2234
-25.2,-1.3953,0.43151,0.42702,0.2214
-25.1,-1.3908,0.42875,0.42426,0.2193
-25,-1.3862,0.42599,0.42149,0.2173
-24.9,-1.3817,0.42327,0.41877,0.2153
-24.8,-1.3771,0.42054,0.41604,0.2132
-24.7,-1.3725,0.41785,0.41335,0.2112
-24.6,-1.3679,0.41517,0.41066,0.2092
-24.5,-1.3633,0.41251,0.408,0.2072
-24.4,-1.3586,0.40988,0.40536,0.2051
-24.3,-1.354,0.40726,0.40274,0.2031
-24.2,-1.3493,0.40466,0.40014,0.2011
-24.1,-1.3447,0.40208,0.39756,0.1991
-24,-1.34,0.39953,0.395,0.1972
-23.9,-1.3353,0.397,0.39247,0.1952
-23.8,-1.3306,0.39449,0.38996,0.1932
-23.7,-1.3259,0.39201,0.38747,0.1912
-23.6,-1.3212,0.38954,0.38501,0.1892
-23.5,-1.3165,0.38711,0.38257,0.1873
-23.4,-1.3117,0.3847,0.38015,0.1853
-23.3,-1.307,0.38233,0.37778,0.1833
-23.2,-1.3022,0.37997,0.37542,0.1813
-23.1,-1.2974,0.37764,0.37307,0.1794
-23,-1.2926,0.37533,0.37076,0.1774
-22.9,-1.2878,0.37309,0.36852,0.1754
-22.8,-1.2822,0.37317,0.3686,0.1724
-22.7,-1.2771,0.37096,0.36639,0.1703
-22.6,-1.2719,0.3687,0.36413,0.1681
-21.7,-1.2256,0.34512,0.34056,0.1506
-21.6,-1.2209,0.34262,0.33806,0.1489
-21.5,-1.2161,0.34012,0.33556,0.1472
-21.4,-1.2113,0.33763,0.33307,0.1455
-21.3,-1.2065,0.33516,0.33059,0.1438
-21.2,-1.2017,0.33269,0.32812,0.1421
-21.1,-1.1969,0.33024,0.32566,0.1404
-21,-1.192,0.32779,0.32322,0.1388
-20.9,-1.1872,0.32535,0.32078,0.1371
-20.8,-1.1823,0.32293,0.31835,0.1354
-20.7,-1.1775,0.32052,0.31594,0.1338
-20.6,-1.1726,0.31812,0.31353,0.1322
-20.5,-1.1677,0.31572,0.31114,0.1305
-20.4,-1.1628,0.31334,0.30875,0.1289
-20.3,-1.1579,0.31096,0.30636,0.1273
-20.2,-1.153,0.3086,0.30399,0.1257
-20.1,-1.1481,0.30624,0.30163,0.1241
-20,-1.1432,0.3039,0.29929,0.1225
-19.9,-1.1383,0.30157,0.29696,0.1209
-19.8,-1.1334,0.29925,0.29463,0.1193
-19.7,-1.1284,0.29693,0.29232,0.1178
-19.6,-1.1235,0.29463,0.29001,0.1162
-19.5,-1.1186,0.29234,0.28772,0.1147
-19.4,-1.1136,0.29005,0.28543,0.1131
-19.3,-1.1087,0.28778,0.28315,0.1116
-19.2,-1.1037,0.28551,0.28089,0.1101
-19.1,-1.0987,0.28326,0.27863,0.1086
-19,-1.0938,0.28101,0.27639,0.107
-18.9,-1.0888,0.27878,0.27416,0.1055
-18.8,-1.0838,0.27656,0.27194,0.104
-18.7,-1.0788,0.27435,0.26972,0.1026
-18.6,-1.0739,0.27214,0.26751,0.1011
-18.5,-1.0689,0.26995,0.26532,0.0996
-18.4,-1.0639,0.26777,0.26314,0.0981
-18.3,-1.0589,0.2656,0.26096,0.0967
-18.2,-1.0539,0.26343,0.2588,0.0952
-18.1,-1.0489,0.26128,0.25665,0.0938
-18,-1.0438,0.25914,0.2545,0.0924
-17.9,-1.0388,0.25701,0.25237,0.0909
-17.8,-1.0338,0.25488,0.25025,0.0895
-17.7,-1.0288,0.25277,0.24813,0.0881
-17.6,-1.0237,0.25067,0.24602,0.0867
-17.5,-1.0187,0.24857,0.24392,0.0853
-17.4,-1.0136,0.2465,0.24184,0.0839
-17.3,-1.0085,0.24443,0.23977,0.0825
-17.2,-1.0035,0.24237,0.23771,0.0811
-17.1,-0.9979,0.2406,0.23595,0.0794
-17,-0.9927,0.23855,0.2339,0.078
-16.9,-0.9876,0.23651,0.23186,0.0766
-16.8,-0.9824,0.23448,0.22982,0.0752
-16.7,-0.9773,0.23245,0.22779,0.0738
-16.6,-0.9721,0.23043,0.22578,0.0724
-16.5,-0.9669,0.22842,0.22377,0.0711
-16.4,-0.9616,0.22641,0.22176,0.0697
-16.3,-0.9564,0.22441,0.21976,0.0683
-16.2,-0.9512,0.22241,0.21776,0.0669
-16.1,-0.9459,0.22041,0.21576,0.0655
-16,-0.9406,0.21841,0.21377,0.0642
-15.9,-0.9353,0.21642,0.21177,0.0628
-15.8,-0.9299,0.21443,0.20978,0.0614
-15.7,-0.9246,0.21242,0.20778,0.06
-15.6,-0.9192,0.21041,0.20576,0.0587
-15.5,-0.9137,0.20838,0.20374,0.0573
-15.4,-0.9082,0.20632,0.20167,0.0559
-15.3,-0.9026,0.20422,0.19957,0.0545
-15.1,-0.8887,0.19938,0.19477,0.0509
-15,-0.8839,0.19755,0.19294,0.0498
-14.9,-0.8791,0.19572,0.19111,0.0486
-14.8,-0.8743,0.19391,0.18928,0.0475
-14.7,-0.8694,0.19211,0.18748,0.0464
-14.6,-0.8645,0.19032,0.1857,0.0452
-14.5,-0.8596,0.18854,0.18392,0.0441
-14.4,-0.8547,0.18677,0.18215,0.043
-14.3,-0.8497,0.18501,0.1804,0.0418
-14.2,-0.8447,0.18326,0.17865,0.0407
-14.1,-0.8397,0.18153,0.17692,0.0396
-14,-0.8347,0.1798,0.17519,0.0385
-13.9,-0.8296,0.17808,0.17347,0.0374
-13.8,-0.8246,0.17638,0.17177,0.0363
-13.7,-0.8195,0.17468,0.17008,0.0352
-13.6,-0.8144,0.17299,0.16839,0.0341
-13.5,-0.8093,0.17131,0.16672,0.033
-13.4,-0.8042,0.16965,0.16505,0.0319
-13.3,-0.7991,0.16799,0.1634,0.0308
-13.2,-0.794,0.16634,0.16176,0.0297
-13.1,-0.7888,0.16471,0.16012,0.0287
-13,-0.7837,0.16308,0.1585,0.0276
-12.9,-0.7785,0.16146,0.15688,0.0265
-12.8,-0.7733,0.15985,0.15527,0.0255
-12.7,-0.7681,0.15824,0.15367,0.0244
-12.6,-0.7628,0.15665,0.15208,0.0234
-12.5,-0.7576,0.15507,0.1505,0.0223
-12.4,-0.7523,0.15349,0.14894,0.0213
-12.3,-0.7471,0.15193,0.14737,0.0202
-12.2,-0.7418,0.15037,0.14583,0.0192
-12.1,-0.7365,0.14884,0.14427,0.0182
-12,-0.7313,0.1473,0.14274,0.0172
-11.9,-0.726,0.14577,0.14122,0.0162
-11.8,-0.7207,0.14425,0.13971,0.0151
-11.7,-0.7148,0.14294,0.1384,0.014
-11.6,-0.7095,0.14144,0.1369,0.013
-11.5,-0.7041,0.13993,0.13541,0.012
-11.4,-0.6988,0.13844,0.13392,0.011
-11.3,-0.6934,0.13696,0.13245,0.01
-11.2,-0.688,0.13549,0.13098,0.009
-11.1,-0.6826,0.13403,0.12953,0.008
-11,-0.6773,0.13258,0.12809,0.0071
-10.9,-0.6719,0.13114,0.12666,0.0061
-10.8,-0.6665,0.12972,0.12524,0.0052
-10.7,-0.6612,0.1283,0.12382,0.0042
-10.6,-0.6558,0.12689,0.12242,0.0033
-10.5,-0.6504,0.12548,0.12103,0.0024
-10.4,-0.6451,0.12409,0.11964,0.0014
-10.3,-0.6397,0.12271,0.11827,0.0005
-10.2,-0.6344,0.12133,0.1169,-0.0004
-10.1,-0.6292,0.11997,0.11555,-0.0013
-10,-0.6239,0.11861,0.1142,-0.0021
-9.9,-0.6187,0.11726,0.11286,-0.003
-9.8,-0.6135,0.11592,0.11153,-0.0039
-9.7,-0.6083,0.11458,0.1102,-0.0047
-9.6,-0.6032,0.11324,0.10888,-0.0055
-9.5,-0.5982,0.11191,0.10756,-0.0063
-9.4,-0.593,0.11055,0.10622,-0.0072
-9.3,-0.5877,0.10916,0.10484,-0.0082
-9.2,-0.5818,0.10772,0.10345,-0.0093
-9.1,-0.5784,0.10665,0.10237,-0.0097
-9,-0.5752,0.10562,0.10136,-0.01
-8.9,-0.5724,0.10463,0.1004,-0.0101
-8.8,-0.5698,0.10368,0.09947,-0.0103
-8.7,-0.5675,0.10277,0.09859,-0.0103
-8.6,-0.5656,0.1019,0.09773,-0.0102
-8.4,-0.5632,0.10031,0.0962,-0.0098
-8.3,-0.5628,0.0996,0.09551,-0.0094
-8.2,-0.5629,0.09893,0.09488,-0.0089
-8.1,-0.5638,0.09833,0.09431,-0.0082
-8,-0.5653,0.09777,0.09379,-0.0074
-7.9,-0.5675,0.09728,0.09334,-0.0064
-7.8,-0.5629,0.09625,0.09232,-0.0072
-7.7,-0.5528,0.09481,0.09088,-0.0093
-7.6,-0.5425,0.09338,0.08945,-0.0115
-7.5,-0.5318,0.09193,0.088,-0.0138
-7.4,-0.5214,0.09052,0.08658,-0.0159
-7.3,-0.5098,0.08903,0.08509,-0.0183
-7.2,-0.4958,0.08739,0.08344,-0.0213
-7.1,-0.4823,0.08582,0.08186,-0.0242
-7,-0.4715,0.08444,0.08048,-0.0264
-6.9,-0.4595,0.083,0.07904,-0.0288
-6.8,-0.4465,0.08152,0.07755,-0.0315
-6.7,-0.4326,0.08,0.07602,-0.0343
-6.6,-0.4168,0.07836,0.07435,-0.0376
-6.5,-0.4051,0.077,0.07298,-0.0398
-6.4,-0.3929,0.07561,0.07159,-0.0422
-6.2,-0.3627,0.07251,0.06846,-0.0482
-6.1,-0.3454,0.07082,0.06676,-0.0517
-6,-0.3282,0.06915,0.06507,-0.0551
-5.9,-0.3046,0.0664,0.0623,-0.0612
-5.8,-0.2915,0.06509,0.06098,-0.0634
-5.7,-0.2761,0.0637,0.05957,-0.066
-5.6,-0.2605,0.06233,0.05819,-0.0687
-5.5,-0.2442,0.06096,0.05679,-0.0715
-5.3,-0.2173,0.05853,0.05433,-0.0756
-5.2,-0.202,0.05724,0.05302,-0.078
-5.1,-0.1845,0.05584,0.05159,-0.0808
-5,-0.1666,0.05443,0.05015,-0.0837
-4.9,-0.1477,0.05296,0.04865,-0.0868
-4.8,-0.1318,0.05163,0.04727,-0.0891
-4.7,-0.1169,0.05032,0.04594,-0.0912
-4.6,-0.0985,0.04881,0.04438,-0.0941
-4.5,-0.077,0.04703,0.04254,-0.0977
-4.3,-0.0267,0.04238,0.03774,-0.1069
-4.2,-0.012,0.04141,0.03674,-0.1083
-4.1,0.0025,0.04046,0.03575,-0.1097
-4,0.0197,0.03938,0.03462,-0.1116
-3.9,0.039,0.03817,0.03335,-0.1139
-3.8,0.0591,0.03687,0.03198,-0.1164
-3.6,0.1156,0.03117,0.02592,-0.1261
-3.5,0.1273,0.03058,0.02528,-0.1262
-3.4,0.1431,0.02982,0.02446,-0.1273
-3.3,0.1606,0.0289,0.02345,-0.1286
-3,0.2295,0.02184,0.01543,-0.1375
-2.8,0.2548,0.02175,0.01535,-0.137
-2.7,0.2717,0.0209,0.01433,-0.1378
-2.6,0.2898,0.01973,0.01288,-0.139
-2.5,0.3088,0.01832,0.01104,-0.1403
-2.4,0.3251,0.01801,0.0107,-0.1407
-2.3,0.3371,0.01779,0.01045,-0.1403
-2.2,0.3515,0.01764,0.01022,-0.1403
-2.1,0.3676,0.01704,0.00939,-0.1407
-2,0.3844,0.01653,0.00873,-0.1411
-1.9,0.4002,0.01631,0.00849,-0.1414
-1.8,0.4122,0.01616,0.00831,-0.141
-1.7,0.4265,0.01593,0.00801,-0.141
-1.6,0.4422,0.01567,0.0076,-0.1412
-1.5,0.4579,0.01548,0.0074,-0.1414
-1.4,0.4713,0.01535,0.00726,-0.1413
-1.3,0.4847,0.0152,0.00707,-0.1411
-1.2,0.4996,0.01499,0.00678,-0.1411
-1.1,0.5154,0.01489,0.00667,-0.1413
-1,0.5274,0.01479,0.00655,-0.1408
-0.9,0.5425,0.01461,0.00632,-0.1408
-0.8,0.5559,0.01447,0.0061,-0.1405
-0.7,0.57,0.01435,0.006,-0.1405
-0.6,0.585,0.01424,0.00589,-0.1405
-0.4,0.6126,0.01409,0.00568,-0.1401
-0.3,0.626,0.01402,0.00562,-0.1399
-0.2,0.64,0.01395,0.00553,-0.1398
-0.1,0.6539,0.01386,0.00538,-0.1396
0,0.6675,0.01385,0.00541,-0.1395
0.1,0.6819,0.01377,0.0053,-0.1394
0.2,0.6951,0.01373,0.00525,-0.1392
0.3,0.7094,0.01365,0.00517,-0.1391
0.4,0.7225,0.0136,0.00509,-0.1387
0.5,0.7361,0.01358,0.00505,-0.1385
0.6,0.7495,0.01356,0.00504,-0.1383
0.7,0.7629,0.01354,0.005,-0.138
0.8,0.7764,0.01351,0.00495,-0.1377
0.9,0.7893,0.01349,0.00489,-0.1373
1,0.8026,0.01348,0.00486,-0.137
1.2,0.829,0.01349,0.00485,-0.1365
1.3,0.8422,0.01349,0.00484,-0.1362
1.4,0.8552,0.01351,0.00483,-0.1359
1.5,0.8674,0.01358,0.0048,-0.1353
1.6,0.88,0.01362,0.00482,-0.1349
1.7,0.8925,0.01366,0.00485,-0.1345
1.8,0.9047,0.01373,0.00488,-0.1341
1.9,0.9168,0.0138,0.00493,-0.1336
2,0.9287,0.01388,0.00499,-0.1332
2.2,0.9504,0.01414,0.00516,-0.1319
2.4,0.9621,0.01326,0.0052,-0.1282
2.5,0.9726,0.01351,0.00531,-0.1274
2.6,0.9826,0.01377,0.00545,-0.1266
2.7,0.9924,0.01406,0.00558,-0.1258
2.8,1.0021,0.01435,0.00575,-0.125
2.9,1.0117,0.01466,0.00591,-0.1242
3,1.0198,0.01506,0.00613,-0.1232
3.1,1.0299,0.01535,0.00632,-0.1225
3.2,1.0404,0.01563,0.00653,-0.1219
3.3,1.051,0.0159,0.00673,-0.1213
3.4,1.0617,0.01618,0.00692,-0.1207
3.5,1.0728,0.01643,0.00713,-0.1201
3.6,1.0837,0.0167,0.00733,-0.1196
3.7,1.094,0.017,0.00757,-0.1189
3.8,1.105,0.01726,0.00778,-0.1183
3.9,1.1162,0.01752,0.00801,-0.1178
4,1.1278,0.01774,0.00822,-0.1172
4.1,1.139,0.01799,0.00845,-0.1167
4.2,1.1498,0.01827,0.0087,-0.1161
4.3,1.1617,0.01849,0.00892,-0.1155
4.4,1.1732,0.01873,0.00916,-0.115
4.6,1.1951,0.01926,0.00968,-0.1137
4.7,1.2067,0.0195,0.00992,-0.1132
4.8,1.2179,0.01976,0.01018,-0.1125
4.9,1.2287,0.02005,0.01045,-0.1119
5,1.2403,0.0203,0.01071,-0.1113
5.1,1.252,0.02054,0.01098,-0.1107
5.2,1.2633,0.0208,0.01126,-0.11
5.3,1.2743,0.02109,0.01155,-0.1094
5.4,1.2849,0.02136,0.01181,-0.1086
5.5,1.2964,0.02162,0.01211,-0.108
5.6,1.3075,0.0219,0.01241,-0.1073
5.7,1.3182,0.0222,0.01271,-0.1065
5.8,1.3285,0.02252,0.01305,-0.1057
5.9,1.3403,0.0228,0.01339,-0.1051
6,1.3516,0.02309,0.01373,-0.1044
6.1,1.3625,0.0234,0.01408,-0.1036
6.2,1.3714,0.0237,0.01435,-0.1026
6.3,1.3824,0.02402,0.01472,-0.1019
6.4,1.3935,0.02434,0.0151,-0.1011
6.5,1.4041,0.02467,0.01549,-0.1002
6.6,1.4142,0.02502,0.01587,-0.0993
6.7,1.4238,0.02537,0.01626,-0.0984
6.8,1.4331,0.02575,0.01663,-0.0974
6.9,1.444,0.02612,0.01711,-0.0965
7,1.4543,0.02651,0.01758,-0.0956
7.1,1.4622,0.02682,0.01795,-0.0944
7.2,1.4707,0.02721,0.01838,-0.0933
7.3,1.4788,0.02762,0.0188,-0.0922
7.4,1.4885,0.02807,0.01937,-0.0912
7.5,1.4971,0.02852,0.01991,-0.09
7.6,1.5046,0.02897,0.02044,-0.0887
7.7,1.5116,0.02943,0.02098,-0.0874
7.8,1.518,0.0299,0.0215,-0.0861
7.9,1.524,0.03038,0.02203,-0.0847
8,1.53,0.0309,0.02259,-0.0833
8.1,1.5373,0.03152,0.02335,-0.0821
8.2,1.5426,0.03199,0.02394,-0.0807
8.3,1.5478,0.03258,0.02461,-0.0794
8.4,1.5525,0.03316,0.02527,-0.078
8.5,1.5568,0.03376,0.02593,-0.0766
8.6,1.5606,0.03436,0.02661,-0.0752
8.7,1.565,0.03518,0.02757,-0.074
8.8,1.5685,0.03602,0.02855,-0.0728
8.9,1.5713,0.03687,0.02954,-0.0716
9,1.5734,0.03773,0.03052,-0.0703
9.1,1.5751,0.03861,0.03151,-0.0692
9.2,1.5764,0.0395,0.03251,-0.068
9.3,1.5775,0.04041,0.03351,-0.067
9.4,1.5783,0.04133,0.03452,-0.066
9.5,1.5789,0.04212,0.03536,-0.0651
9.6,1.5773,0.04341,0.03681,-0.0644
9.7,1.5752,0.04473,0.03828,-0.0638
9.8,1.5727,0.04609,0.03978,-0.0634
9.9,1.57,0.04751,0.04133,-0.0632
10,1.567,0.04897,0.04292,-0.0631
10.1,1.5638,0.05049,0.04455,-0.0632
10.2,1.5606,0.05205,0.04623,-0.0636
10.3,1.5573,0.05368,0.04796,-0.0641
10.4,1.5541,0.05536,0.04974,-0.0649
10.5,1.551,0.05709,0.05157,-0.0659
10.6,1.5483,0.05886,0.05343,-0.0671
10.7,1.5458,0.06066,0.05531,-0.0685
10.8,1.5438,0.06248,0.0572,-0.07
11.6,1.4607,0.09659,0.09217,-0.1125
11.8,1.457,0.10225,0.09787,-0.1183
12,1.469,0.10391,0.09954,-0.1199
12.1,1.4657,0.1071,0.10271,-0.1232
12.2,1.452,0.11334,0.10898,-0.13
12.3,1.4481,0.11697,0.11263,-0.1337
12.4,1.4473,0.11974,0.11542,-0.1364
12.5,1.4481,0.12208,0.11777,-0.1386
12.6,1.4498,0.12411,0.11982,-0.1405
12.7,1.4522,0.12593,0.12165,-0.1421
12.8,1.4552,0.12756,0.1233,-0.1436
12.9,1.4585,0.12905,0.1248,-0.1448
13,1.4622,0.13039,0.12617,-0.1459
13.1,1.4662,0.13163,0.12742,-0.1469
13.2,1.4704,0.13274,0.12854,-0.1478
13.4,1.4647,0.14053,0.13633,-0.1554
13.5,1.4644,0.14383,0.13964,-0.159
13.6,1.467,0.14575,0.14157,-0.1607
13.7,1.4699,0.1475,0.14334,-0.1622
13.8,1.4731,0.14911,0.14497,-0.1636
13.9,1.4766,0.15061,0.14649,-0.1648
14,1.4802,0.152,0.14792,-0.166
14.1,1.484,0.1533,0.14923,-0.167
14.2,1.4879,0.15451,0.15046,-0.168
14.3,1.492,0.15563,0.1516,-0.1688
14.4,1.4961,0.15666,0.15264,-0.1696
14.5,1.4934,0.16168,0.15764,-0.1744
14.6,1.4946,0.16466,0.16063,-0.1771
14.7,1.497,0.16705,0.16304,-0.1792
14.8,1.4997,0.16917,0.16518,-0.1811
14.9,1.5028,0.17112,0.16714,-0.1827
15,1.5066,0.17259,0.16862,-0.1844
15.1,1.5103,0.1741,0.17015,-0.1856
15.2,1.514,0.17551,0.17158,-0.1868
15.3,1.5179,0.17684,0.17292,-0.1879
15.4,1.5217,0.17807,0.17417,-0.189
15.5,1.5257,0.17921,0.17533,-0.1899
15.6,1.5296,0.18027,0.17641,-0.1908
15.7,1.5312,0.18351,0.17964,-0.1937
15.8,1.5328,0.18716,0.1833,-0.1969
15.9,1.5356,0.18975,0.18589,-0.1991
16,1.5387,0.19199,0.18815,-0.201
16.1,1.5421,0.19402,0.1902,-0.2028
16.3,1.5496,0.19723,0.19344,-0.206
16.4,1.5534,0.1987,0.19492,-0.2072
16.5,1.5572,0.20007,0.19631,-0.2084
16.6,1.5612,0.20134,0.1976,-0.2096
16.7,1.5651,0.20252,0.19879,-0.2106
16.8,1.569,0.20359,0.19988,-0.2116
16.9,1.5717,0.2068,0.20307,-0.2144
17,1.5744,0.21045,0.20673,-0.2174
17.1,1.5778,0.21309,0.20938,-0.2196
17.2,1.5813,0.2155,0.2118,-0.2221
17.4,1.589,0.21901,0.21536,-0.2251
17.5,1.5929,0.2206,0.21696,-0.2265
17.6,1.5968,0.22207,0.21845,-0.2279
17.7,1.6007,0.22346,0.21985,-0.2292
17.8,1.6047,0.22475,0.22115,-0.2304
17.9,1.6077,0.22871,0.22508,-0.234
18,1.6115,0.23135,0.22773,-0.2362
18.1,1.6153,0.23367,0.23007,-0.2381
18.2,1.6192,0.23579,0.2322,-0.2399
18.3,1.6232,0.23777,0.23419,-0.2416
18.4,1.6271,0.23963,0.23606,-0.2432
18.5,1.6311,0.2414,0.23784,-0.2447
18.6,1.6351,0.24308,0.23953,-0.2462
18.7,1.639,0.24467,0.24113,-0.2477
18.8,1.6429,0.24619,0.24266,-0.2491
18.9,1.6468,0.24762,0.24411,-0.2505
19,1.6507,0.24897,0.24547,-0.2518
19.1,1.6545,0.25135,0.24783,-0.2538
19.2,1.6588,0.25672,0.2532,-0.2579
19.3,1.6628,0.25891,0.25539,-0.2597
19.4,1.6669,0.26099,0.25748,-0.2615
19.5,1.6709,0.26298,0.25948,-0.2632
19.6,1.6749,0.26489,0.2614,-0.2649
19.7,1.6789,0.26675,0.26327,-0.2665
19.8,1.6829,0.26853,0.26505,-0.2681
19.9,1.6868,0.27027,0.2668,-0.2697
20,1.6908,0.27193,0.26848,-0.2712
20.1,1.6947,0.27354,0.27009,-0.2728
20.2,1.6985,0.27506,0.27163,-0.2742
20.3,1.7023,0.2766,0.27315,-0.2758
20.4,1.7069,0.281,0.27755,-0.2787
20.6,1.7155,0.28659,0.28317,-0.283
20.7,1.7197,0.28906,0.28564,-0.285
20.8,1.7238,0.29139,0.28798,-0.2868
20.9,1.7279,0.29366,0.29025,-0.2887
21,1.732,0.29585,0.29246,-0.2905
21.1,1.7361,0.298,0.29461,-0.2923
21.2,1.7401,0.30009,0.29671,-0.2941
21.3,1.7442,0.30215,0.29877,-0.2959
21.4,1.7482,0.30417,0.3008,-0.2977
21.5,1.7521,0.30614,0.30279,-0.2994
21.8,1.7632,0.31049,0.30716,-0.3044
21.9,1.7681,0.3147,0.31135,-0.3072
22,1.7725,0.31773,0.31439,-0.3094
22.1,1.7768,0.32055,0.3172,-0.3115
22.2,1.781,0.32313,0.31979,-0.3136
22.3,1.7852,0.32564,0.32231,-0.3156
22.4,1.7893,0.32806,0.32474,-0.3175
22.5,1.7934,0.33046,0.32714,-0.3195
22.6,1.7974,0.3328,0.32949,-0.3215
22.7,1.8015,0.3351,0.3318,-0.3234
22.8,1.8055,0.33739,0.33409,-0.3253
22.9,1.8095,0.33964,0.33635,-0.3272
23,1.8134,0.34186,0.33858,-0.3291
23.1,1.8173,0.34406,0.34079,-0.3311
23.2,1.8213,0.34626,0.34299,-0.333
23.3,1.8252,0.34841,0.34515,-0.3349
23.4,1.829,0.35055,0.34731,-0.3368
23.5,1.8328,0.35265,0.34941,-0.3387
23.6,1.8366,0.35475,0.35154,-0.3406
23.7,1.8404,0.35682,0.35362,-0.3425
23.8,1.8441,0.35887,0.35568,-0.3444
23.9,1.8478,0.36089,0.35771,-0.3462
24,1.8515,0.36289,0.35971,-0.3481
24.1,1.8556,0.3656,0.36241,-0.3503
24.2,1.8603,0.36943,0.36625,-0.3529
24.3,1.8645,0.37253,0.36934,-0.3552
24.4,1.8687,0.37544,0.37226,-0.3574
24.5,1.8728,0.37824,0.37507,-0.3596
24.6,1.8768,0.38095,0.37779,-0.3617
24.7,1.8808,0.3836,0.38045,-0.3639
24.8,1.885,0.38658,0.38343,-0.3663
24.9,1.8888,0.38906,0.38591,-0.3684
25,1.8926,0.39153,0.38839,-0.3705
25.1,1.8964,0.39398,0.39085,-0.3726
25.2,1.9002,0.39642,0.39331,-0.3747
25.3,1.9039,0.39886,0.39575,-0.3767
25.4,1.9076,0.40128,0.39818,-0.3788
25.5,1.9113,0.4037,0.4006,-0.3809
25.6,1.915,0.4061,0.40301,-0.383
25.7,1.9187,0.40849,0.40541,-0.3851
25.8,1.9223,0.41088,0.40781,-0.3872
25.9,1.9259,0.41326,0.4102,-0.3893
26,1.9295,0.41562,0.41257,-0.3914
26.1,1.933,0.41797,0.41493,-0.3935
26.2,1.9366,0.4203,0.41727,-0.3956
26.3,1.9401,0.42266,0.41963,-0.3977
26.4,1.9436,0.42496,0.42195,-0.3998
26.5,1.947,0.42724,0.42423,-0.4019
26.6,1.9504,0.42953,0.42656,-0.404
26.7,1.9539,0.43196,0.42897,-0.4062
26.8,1.9586,0.4365,0.4335,-0.4091
26.9,1.9627,0.43985,0.43687,-0.4115
27,1.9666,0.44308,0.4401,-0.4139
27.1,1.9704,0.44612,0.44315,-0.4163
27.2,1.9742,0.44911,0.44615,-0.4187
27.3,1.9779,0.45203,0.44907,-0.421
27.4,1.9815,0.45491,0.45196,-0.4233
27.5,1.9851,0.45775,0.45481,-0.4256
27.6,1.9887,0.46062,0.45769,-0.428
27.7,1.9922,0.4634,0.46047,-0.4303
27.8,1.9957,0.46619,0.46328,-0.4326
27.9,1.9992,0.46897,0.46606,-0.4349
28,2.0026,0.47173,0.46883,-0.4372
28.1,2.0061,0.47451,0.47161,-0.4395
28.2,2.0095,0.47726,0.47438,-0.4418
28.3,2.0129,0.48001,0.47713,-0.4442
28.4,2.0162,0.48275,0.47988,-0.4465
28.5,2.0194,0.48529,0.48243,-0.4489
28.6,2.0227,0.48799,0.48514,-0.4512
28.7,2.0259,0.49067,0.48783,-0.4535
28.8,2.029,0.493,0.49017,-0.4558
28.9,2.0321,0.49556,0.49274,-0.4581
29,2.0354,0.49848,0.49566,-0.4605
29.1,2.0385,0.50103,0.49822,-0.4628
29.2,2.0414,0.50313,0.50033,-0.4651
29.3,2.0444,0.50553,0.50274,-0.4674
29.5,2.0333,0.51156,0.50878,-0.4669
29.6,2.0344,0.51332,0.51054,-0.4686
29.7,2.0595,0.52176,0.51904,-0.4783
29.8,2.0624,0.52608,0.52338,-0.481

