airfoilName st16.dat
Re 	850000
M 	5.000000e-01
N 	4.500000e+00
VACC 	0 VACCflag 1
XTR 	1.00 	1.00 XTRflag 0
alpha,cl,cd,cdp,cm
-9.4,-0.5808,0.10517,0.10354,-0.0093
-9.3,-0.5723,0.10364,0.10201,-0.0111
-9.2,-0.5635,0.10212,0.10048,-0.013
-9.1,-0.5545,0.1006,0.09897,-0.0149
-9,-0.5461,0.09918,0.09754,-0.0167
-8.9,-0.5376,0.09776,0.09613,-0.0184
-8.8,-0.5287,0.09635,0.09472,-0.0202
-8.7,-0.5193,0.09492,0.09328,-0.0222
-8.6,-0.5097,0.09349,0.09185,-0.0242
-8.5,-0.5013,0.09218,0.09054,-0.0258
-8.4,-0.4924,0.09084,0.0892,-0.0275
-8.3,-0.4831,0.08949,0.08784,-0.0294
-8.2,-0.4734,0.08812,0.08647,-0.0313
-8.1,-0.4652,0.08688,0.08523,-0.0328
-8,-0.4569,0.08564,0.08399,-0.0343
-7.9,-0.4482,0.08438,0.08273,-0.036
-7.8,-0.4392,0.08311,0.08145,-0.0377
-7.7,-0.4312,0.08193,0.08026,-0.0391
-7.6,-0.4235,0.08077,0.0791,-0.0404
-7.5,-0.4151,0.07958,0.0779,-0.042
-7.4,-0.4056,0.07835,0.07666,-0.0438
-7.3,-0.3959,0.0771,0.07541,-0.0456
-7.2,-0.386,0.07585,0.07415,-0.0475
-7.1,-0.3756,0.07457,0.07285,-0.0495
-7,-0.3649,0.07329,0.07155,-0.0515
-6.9,-0.3541,0.072,0.07025,-0.0535
-6.8,-0.3433,0.07071,0.06896,-0.0555
-6.7,-0.332,0.06941,0.06764,-0.0576
-6.6,-0.3208,0.0681,0.06631,-0.0597
-6.5,-0.3091,0.06678,0.06497,-0.0618
-6.4,-0.2972,0.06545,0.06363,-0.064
-6.3,-0.2847,0.06408,0.06224,-0.0663
-6.2,-0.2714,0.06246,0.06059,-0.0689
-6.1,-0.2582,0.06103,0.05915,-0.0713
-6,-0.2447,0.05958,0.05768,-0.0738
-5.9,-0.2311,0.05811,0.05618,-0.0763
-5.8,-0.2168,0.05656,0.0546,-0.0789
-5.7,-0.2022,0.05498,0.053,-0.0816
-5.6,-0.1869,0.0533,0.0513,-0.0845
-5.5,-0.1712,0.05156,0.04952,-0.0874
-5.4,-0.1548,0.04977,0.0477,-0.0905
-5.3,-0.138,0.04808,0.046,-0.0936
-5.2,-0.1214,0.04666,0.04454,-0.0965
-5.1,-0.1043,0.04532,0.04317,-0.0994
-5,-0.0871,0.04402,0.04183,-0.1021
-4.9,-0.0697,0.04275,0.04052,-0.1048
-4.8,-0.0519,0.04146,0.03919,-0.1075
-4.7,-0.0339,0.04015,0.03785,-0.1101
-4.6,-0.0158,0.03881,0.03646,-0.1127
-4.4,0.022,0.0359,0.03345,-0.1182
-4.3,0.0417,0.03426,0.03174,-0.1211
-4.2,0.0627,0.03232,0.02973,-0.1244
-4.1,0.0865,0.02962,0.02692,-0.1287
-4,0.1251,0.02202,0.01889,-0.1396
-3.9,0.1526,0.01549,0.01179,-0.147
-3.8,0.1706,0.01218,0.00802,-0.1499
-3.7,0.1862,0.01129,0.0069,-0.1505
-3.6,0.2015,0.01067,0.0061,-0.1508
-3.5,0.2164,0.01021,0.00547,-0.1508
-3.4,0.2314,0.00983,0.00495,-0.1509
-3.3,0.2463,0.00952,0.00453,-0.1509
-3.2,0.2611,0.00928,0.00418,-0.1509
-3.1,0.2756,0.00908,0.00391,-0.1508
-3,0.2901,0.00894,0.0037,-0.1507
-2.9,0.3046,0.0088,0.00352,-0.1506
-2.8,0.319,0.00868,0.00334,-0.1505
-2.7,0.3333,0.00861,0.00323,-0.1504
-2.6,0.3471,0.00852,0.00308,-0.1501
-2.5,0.3612,0.00845,0.00295,-0.15
-2.4,0.375,0.00841,0.00287,-0.1498
-2.3,0.3891,0.00834,0.00274,-0.1497
-2.2,0.4032,0.00827,0.00262,-0.1496
-2.1,0.4171,0.00821,0.00251,-0.1494
-2,0.4312,0.00815,0.00243,-0.1493
-1.9,0.445,0.00812,0.00235,-0.1492
-1.8,0.4587,0.00809,0.00228,-0.149
-1.7,0.4726,0.00808,0.00223,-0.1489
-1.6,0.4862,0.00805,0.00216,-0.1488
-1.5,0.5,0.00802,0.00211,-0.1487
-1.4,0.5139,0.008,0.00206,-0.1486
-1.3,0.5276,0.00799,0.00201,-0.1485
-1.2,0.5411,0.00799,0.00197,-0.1483
-1.1,0.5542,0.00803,0.00194,-0.1481
-1,0.5678,0.00803,0.00191,-0.148
-0.9,0.5808,0.00806,0.0019,-0.1478
-0.8,0.5943,0.00808,0.00188,-0.1477
-0.7,0.6073,0.00813,0.00187,-0.1474
-0.6,0.6196,0.00823,0.00187,-0.1471
-0.5,0.6329,0.00826,0.00188,-0.147
-0.4,0.6461,0.0083,0.00188,-0.1468
-0.3,0.6593,0.00834,0.00189,-0.1467
-0.2,0.6721,0.00842,0.00191,-0.1465
-0.1,0.6852,0.00846,0.00192,-0.1463
0,0.6974,0.00859,0.00196,-0.146
0.1,0.7104,0.00865,0.00199,-0.1459
0.2,0.7234,0.00872,0.00201,-0.1457
0.3,0.7354,0.00886,0.00207,-0.1454
0.4,0.7482,0.00893,0.00211,-0.1452
0.5,0.761,0.00902,0.00215,-0.145
0.6,0.7737,0.00912,0.00219,-0.1448
0.7,0.785,0.00933,0.00228,-0.1444
0.8,0.7962,0.00955,0.00238,-0.144
0.9,0.8083,0.00971,0.00246,-0.1437
1,0.8201,0.00989,0.00255,-0.1434
1.1,0.8316,0.01009,0.00265,-0.143
1.2,0.843,0.01033,0.00277,-0.1426
1.3,0.8544,0.01055,0.00289,-0.1423
1.4,0.8656,0.01081,0.00302,-0.1419
1.5,0.8784,0.0109,0.00308,-0.1417
1.6,0.8911,0.011,0.00316,-0.1415
1.7,0.9041,0.01108,0.00323,-0.1413
1.8,0.917,0.01117,0.0033,-0.1411
1.9,0.9299,0.01125,0.00337,-0.1409
2,0.943,0.01132,0.00344,-0.1407
2.1,0.9555,0.01144,0.00354,-0.1405
2.2,0.9686,0.01151,0.0036,-0.1403
2.3,0.9816,0.01158,0.00366,-0.1401
2.4,0.9945,0.01166,0.00375,-0.1398
2.5,1.0076,0.01174,0.00382,-0.1396
2.6,1.0206,0.01181,0.00389,-0.1394
2.7,1.0337,0.01188,0.00397,-0.1392
2.8,1.0466,0.01197,0.00405,-0.1389
2.9,1.0594,0.01207,0.00413,-0.1387
3,1.0725,0.01214,0.00422,-0.1384
3.1,1.0854,0.01222,0.0043,-0.1382
3.2,1.0983,0.01231,0.00441,-0.1379
3.3,1.1114,0.01238,0.00449,-0.1376
3.4,1.1245,0.01246,0.00458,-0.1374
3.5,1.1375,0.01254,0.00467,-0.1371
3.6,1.1504,0.01263,0.00476,-0.1368
3.7,1.1632,0.01272,0.00487,-0.1364
3.9,1.183,0.01159,0.00522,-0.135
4,1.1958,0.01171,0.00533,-0.1347
4.1,1.2087,0.01184,0.00544,-0.1343
4.2,1.2217,0.01194,0.00554,-0.1339
4.3,1.2347,0.01205,0.00565,-0.1335
4.4,1.2474,0.01219,0.00576,-0.1331
4.5,1.2601,0.01233,0.00589,-0.1327
4.6,1.2731,0.01244,0.00602,-0.1322
4.7,1.286,0.01256,0.00613,-0.1318
4.8,1.2989,0.01268,0.00625,-0.1313
4.9,1.3117,0.01282,0.00638,-0.1309
5,1.3243,0.01296,0.00652,-0.1303
5.1,1.3371,0.01309,0.00666,-0.1298
5.2,1.3498,0.01323,0.00679,-0.1293
5.3,1.3626,0.01337,0.00693,-0.1288
5.4,1.3752,0.01352,0.00708,-0.1282
5.5,1.3876,0.01369,0.00724,-0.1276
5.6,1.4004,0.01382,0.00739,-0.127
5.7,1.4132,0.01396,0.00755,-0.1264
5.8,1.4258,0.01411,0.00771,-0.1258
5.9,1.438,0.0143,0.00788,-0.1251
6,1.4503,0.01447,0.00806,-0.1245
6.1,1.4629,0.01462,0.00823,-0.1238
6.2,1.4754,0.01478,0.00841,-0.1231
6.3,1.4878,0.01495,0.00859,-0.1223
6.4,1.5001,0.01513,0.00878,-0.1216
6.5,1.5121,0.01532,0.00898,-0.1208
6.6,1.5242,0.01551,0.00919,-0.1199
6.7,1.5365,0.01568,0.00939,-0.1191
6.8,1.5485,0.01586,0.00959,-0.1183
6.9,1.5603,0.01607,0.00982,-0.1174
7,1.5719,0.01628,0.01005,-0.1164
7.1,1.5835,0.0165,0.01029,-0.1154
7.2,1.5952,0.0167,0.01052,-0.1145
7.3,1.6068,0.0169,0.01076,-0.1134
7.4,1.6182,0.01712,0.01101,-0.1124
7.5,1.6294,0.01734,0.01126,-0.1113
7.6,1.6403,0.01759,0.01153,-0.1101
7.7,1.6509,0.01785,0.01182,-0.1089
7.8,1.6617,0.01808,0.01209,-0.1077
7.9,1.6723,0.01833,0.01238,-0.1065
8,1.6821,0.01858,0.01268,-0.1051
8.1,1.6912,0.01884,0.01298,-0.1036
8.2,1.7002,0.01913,0.01332,-0.1021
8.3,1.7089,0.01943,0.01367,-0.1005
8.4,1.7174,0.01975,0.01404,-0.0989
8.5,1.7261,0.02006,0.01441,-0.0974
8.6,1.7348,0.02039,0.01479,-0.0958
8.7,1.7432,0.02073,0.01519,-0.0942
8.8,1.7514,0.02109,0.01562,-0.0926
8.9,1.7594,0.02146,0.01606,-0.091
9,1.7671,0.02186,0.01652,-0.0893
9.1,1.7746,0.02227,0.017,-0.0876
9.2,1.7817,0.02271,0.01751,-0.0859
9.3,1.7888,0.02316,0.01801,-0.0843
9.4,1.7953,0.02365,0.01858,-0.0826
9.5,1.8014,0.02416,0.01918,-0.0809
9.6,1.8071,0.02471,0.01982,-0.0791
9.7,1.8123,0.02529,0.02049,-0.0774
9.8,1.8172,0.0259,0.0212,-0.0756

