airfoilName st16.dat
Re 	330000
M 	5.000000e-01
N 	4.500000e+00
VACC 	0 VACCflag 1
XTR 	1.00 	1.00 XTRflag 0
alpha,cl,cd,cdp,cm
-30,-1.5695,0.56163,0.5589,0.329
-29.9,-1.5657,0.55905,0.55633,0.3264
-29.8,-1.5618,0.55648,0.55375,0.3239
-29.7,-1.5579,0.55415,0.55142,0.3213
-29.6,-1.554,0.55183,0.54909,0.3187
-29.5,-1.55,0.5499,0.54716,0.316
-29.4,-1.546,0.54826,0.54552,0.3133
-29.3,-1.5419,0.54723,0.54449,0.3104
-28.8,-1.521,0.53774,0.535,0.2969
-28.7,-1.517,0.53433,0.53158,0.2946
-28.6,-1.513,0.53095,0.5282,0.2923
-28.5,-1.509,0.52768,0.52492,0.29
-28.4,-1.505,0.52434,0.52158,0.2878
-28.3,-1.5009,0.52105,0.51829,0.2855
-28.2,-1.4969,0.51775,0.51499,0.2833
-28.1,-1.4928,0.51452,0.51175,0.281
-28,-1.4887,0.51129,0.50851,0.2788
-27.9,-1.4846,0.50807,0.50529,0.2765
-27.8,-1.4805,0.5049,0.50212,0.2743
-27.7,-1.4764,0.50172,0.49894,0.2721
-27.6,-1.4723,0.4986,0.49581,0.2699
-27.5,-1.4681,0.49546,0.49267,0.2676
-27.4,-1.4639,0.49234,0.48954,0.2654
-27.3,-1.4597,0.48926,0.48646,0.2632
-27.2,-1.4556,0.48617,0.48337,0.2611
-27.1,-1.4513,0.48307,0.48026,0.2589
-27,-1.4471,0.48003,0.47722,0.2567
-26.9,-1.4429,0.47702,0.47421,0.2545
-26.8,-1.4386,0.47398,0.47117,0.2524
-26.7,-1.4344,0.47099,0.46817,0.2502
-26.6,-1.4301,0.46801,0.46519,0.2481
-26.5,-1.4258,0.46501,0.46219,0.246
-26.4,-1.4215,0.46204,0.45921,0.2439
-26.3,-1.4172,0.4591,0.45626,0.2417
-26.2,-1.4128,0.45616,0.45332,0.2396
-26.1,-1.4085,0.45328,0.45043,0.2375
-26,-1.4041,0.45037,0.44752,0.2354
-25.9,-1.3998,0.44747,0.44462,0.2334
-25.8,-1.3954,0.44461,0.44176,0.2313
-25.7,-1.391,0.44175,0.4389,0.2292
-25.6,-1.3866,0.43891,0.43605,0.2271
-25.5,-1.3822,0.4361,0.43323,0.2251
-25.4,-1.3778,0.43329,0.43042,0.2231
-25.3,-1.3733,0.43047,0.4276,0.221
-25.2,-1.3689,0.4277,0.42483,0.219
-25.1,-1.3645,0.42496,0.42209,0.217
-25,-1.36,0.4222,0.41932,0.215
-24.9,-1.3555,0.41948,0.4166,0.2129
-24.8,-1.351,0.41677,0.41389,0.2109
-24.7,-1.3465,0.41406,0.41117,0.209
-24.6,-1.342,0.41138,0.40849,0.207
-24.5,-1.3375,0.40871,0.40582,0.205
-24.4,-1.333,0.40606,0.40317,0.203
-24.3,-1.3285,0.40342,0.40052,0.2011
-24.2,-1.3239,0.40081,0.39791,0.1991
-24.1,-1.3194,0.39877,0.39587,0.1971
-24,-1.3148,0.39618,0.39328,0.1951
-23.9,-1.3103,0.39359,0.39069,0.1932
-23.8,-1.3057,0.39103,0.38811,0.1912
-23.7,-1.3011,0.38848,0.38556,0.1893
-23.6,-1.2965,0.38596,0.38303,0.1874
-23.5,-1.2918,0.38343,0.38051,0.1855
-23.4,-1.2872,0.38093,0.378,0.1836
-23.3,-1.2826,0.37844,0.37551,0.1817
-23.2,-1.2779,0.37597,0.37304,0.1798
-23.1,-1.2733,0.37352,0.37059,0.1779
-23,-1.2686,0.37108,0.36814,0.176
-22.9,-1.2639,0.36865,0.36572,0.1741
-22.8,-1.2592,0.36624,0.3633,0.1722
-22.7,-1.2546,0.36385,0.36091,0.1704
-22.6,-1.2499,0.36147,0.35852,0.1685
-22.5,-1.2451,0.35911,0.35617,0.1666
-22.4,-1.2404,0.35676,0.35382,0.1648
-22.3,-1.2357,0.35444,0.3515,0.1629
-22.2,-1.2309,0.35213,0.34918,0.1611
-22.1,-1.2262,0.34984,0.34689,0.1592
-22,-1.2214,0.34757,0.34462,0.1574
-21.9,-1.2166,0.34533,0.34238,0.1555
-21.8,-1.2118,0.3431,0.34015,0.1537
-21.7,-1.207,0.3409,0.33794,0.1518
-21.6,-1.2021,0.33872,0.33577,0.1499
-21.5,-1.1973,0.33656,0.3336,0.148
-21.4,-1.1923,0.33445,0.33149,0.1461
-21.3,-1.1874,0.33231,0.32936,0.1442
-21.2,-1.1823,0.33023,0.32728,0.1423
-21.1,-1.1772,0.32805,0.3251,0.1403
-20.8,-1.1594,0.32102,0.31807,0.1337
-20.7,-1.1547,0.31852,0.31557,0.1321
-20.6,-1.1501,0.31604,0.31308,0.1305
-20.5,-1.1454,0.31359,0.31063,0.1289
-20.4,-1.1407,0.31115,0.30819,0.1273
-20.3,-1.136,0.30874,0.30578,0.1258
-20.2,-1.1313,0.30635,0.30338,0.1242
-20.1,-1.1266,0.30397,0.301,0.1226
-20,-1.1218,0.30162,0.29865,0.121
-19.9,-1.1171,0.29928,0.29632,0.1195
-19.8,-1.1123,0.29696,0.29399,0.1179
-19.7,-1.1076,0.29466,0.29169,0.1164
-19.6,-1.1028,0.29238,0.28941,0.1148
-19.5,-1.098,0.29011,0.28714,0.1133
-19.4,-1.0932,0.28786,0.28488,0.1118
-19.3,-1.0884,0.28562,0.28264,0.1102
-19.2,-1.0835,0.2834,0.28042,0.1087
-19.1,-1.0787,0.28119,0.27821,0.1072
-19,-1.0739,0.27899,0.27601,0.1057
-18.9,-1.069,0.27681,0.27383,0.1042
-18.8,-1.0642,0.27463,0.27165,0.1027
-18.7,-1.0593,0.27247,0.26949,0.1012
-18.6,-1.0545,0.27031,0.26733,0.0997
-18.5,-1.0496,0.26817,0.26519,0.0982
-18.4,-1.0447,0.26604,0.26306,0.0968
-18.3,-1.0398,0.26392,0.26093,0.0953
-18.1,-1.0299,0.26013,0.25713,0.0923
-18,-1.025,0.25801,0.25501,0.0909
-17.9,-1.0201,0.25591,0.25291,0.0894
-17.8,-1.0152,0.25382,0.25082,0.088
-17.7,-1.0103,0.25174,0.24874,0.0866
-17.6,-1.0053,0.24966,0.24666,0.0852
-17.5,-1.0004,0.2476,0.2446,0.0838
-17.4,-0.9954,0.24554,0.24254,0.0824
-17.3,-0.9905,0.24349,0.24049,0.081
-17.2,-0.9855,0.24145,0.23845,0.0796
-17.1,-0.9805,0.23942,0.23642,0.0782
-17,-0.9755,0.23739,0.23439,0.0769
-16.9,-0.9705,0.23538,0.23238,0.0755
-16.8,-0.9655,0.23337,0.23037,0.0741
-16.7,-0.9605,0.23138,0.22838,0.0728
-16.6,-0.9555,0.22939,0.22639,0.0714
-16.5,-0.9504,0.22741,0.22441,0.0701
-16.4,-0.9454,0.22543,0.22243,0.0687
-16.3,-0.9403,0.22347,0.22047,0.0674
-16.2,-0.9353,0.22152,0.21852,0.066
-16.1,-0.9302,0.21957,0.21657,0.0647
-16,-0.9251,0.21763,0.21463,0.0634
-15.9,-0.92,0.2157,0.2127,0.062
-15.8,-0.9149,0.21378,0.21078,0.0607
-15.7,-0.9098,0.21186,0.20886,0.0594
-15.6,-0.9046,0.20995,0.20695,0.058
-15.5,-0.8995,0.20804,0.20504,0.0567
-15.4,-0.8943,0.20614,0.20312,0.0554
-15.3,-0.8892,0.20425,0.20124,0.0541
-15.2,-0.8839,0.20233,0.19932,0.0527
-15.1,-0.8787,0.20042,0.19741,0.0514
-15,-0.8734,0.1985,0.19549,0.0501
-14.9,-0.8681,0.19657,0.19356,0.0488
-14.8,-0.8628,0.19461,0.1916,0.0474
-14.7,-0.8574,0.19263,0.18962,0.0461
-14.6,-0.8519,0.19059,0.18758,0.0448
-14.5,-0.846,0.18845,0.18544,0.0433
-14.3,-0.8321,0.18391,0.18093,0.0399
-14.2,-0.8275,0.18209,0.1791,0.0388
-14.1,-0.8228,0.18028,0.1773,0.0377
-14,-0.818,0.17849,0.17551,0.0367
-13.9,-0.8133,0.17672,0.17373,0.0356
-13.8,-0.8085,0.17496,0.17198,0.0345
-13.7,-0.8036,0.17322,0.17024,0.0334
-13.6,-0.7988,0.17149,0.16851,0.0324
-13.5,-0.7939,0.16978,0.16681,0.0313
-13.4,-0.7891,0.16809,0.16511,0.0302
-13.3,-0.7841,0.16642,0.16344,0.0292
-13.2,-0.7791,0.16475,0.16178,0.0281
-13.1,-0.7742,0.16336,0.16039,0.027
-13,-0.7691,0.16172,0.15875,0.0259
-12.9,-0.764,0.16009,0.15712,0.0248
-12.8,-0.7589,0.15847,0.1555,0.0238
-12.7,-0.7538,0.15686,0.15389,0.0227
-12.6,-0.7486,0.15526,0.1523,0.0217
-12.5,-0.7435,0.15367,0.15071,0.0206
-12.4,-0.7383,0.15209,0.14913,0.0196
-12.3,-0.7331,0.15053,0.14757,0.0185
-12.2,-0.7279,0.14897,0.14601,0.0175
-12.1,-0.7227,0.14743,0.14448,0.0164
-12,-0.7175,0.1459,0.14295,0.0154
-11.9,-0.7122,0.14438,0.14143,0.0144
-11.8,-0.7069,0.14287,0.13992,0.0134
-11.7,-0.7017,0.14136,0.13842,0.0124
-11.6,-0.6964,0.13987,0.13693,0.0114
-11.5,-0.6911,0.13838,0.13545,0.0104
-11.4,-0.6858,0.13691,0.13398,0.0094
-11.3,-0.6804,0.13545,0.13252,0.0084
-11.2,-0.6751,0.134,0.13108,0.0074
-11.1,-0.6698,0.13257,0.12965,0.0064
-11,-0.6645,0.13114,0.12822,0.0055
-10.9,-0.6592,0.12972,0.12681,0.0045
-10.8,-0.654,0.12832,0.12541,0.0036
-10.7,-0.6487,0.12693,0.12403,0.0026
-10.6,-0.6434,0.12554,0.12265,0.0017
-10.5,-0.6382,0.12417,0.12129,0.0008
-10.4,-0.633,0.12282,0.11994,-0.0001
-10.3,-0.6278,0.12147,0.1186,-0.0009
-10.2,-0.6227,0.12015,0.11728,-0.0018
-10.1,-0.6177,0.11884,0.11598,-0.0026
-10,-0.6128,0.11755,0.11469,-0.0034
-9.9,-0.608,0.11627,0.11343,-0.0041
-9.8,-0.6033,0.11502,0.11219,-0.0048
-9.6,-0.5944,0.11259,0.10976,-0.0061
-9.5,-0.5904,0.11142,0.10861,-0.0066
-9.4,-0.5868,0.1103,0.1075,-0.007
-9.3,-0.5836,0.10923,0.10644,-0.0073
-9.2,-0.5809,0.10819,0.10542,-0.0075
-9.1,-0.5786,0.10722,0.10446,-0.0075
-9,-0.577,0.1063,0.10356,-0.0074
-8.9,-0.5761,0.10545,0.10273,-0.0071
-8.8,-0.5762,0.10469,0.10199,-0.0065
-8.7,-0.5657,0.10296,0.10026,-0.0088
-8.6,-0.5562,0.10131,0.09861,-0.0109
-8.5,-0.5464,0.09965,0.09695,-0.013
-8.4,-0.5362,0.09795,0.09524,-0.0152
-8.3,-0.5264,0.09627,0.09356,-0.0174
-8.2,-0.5165,0.09455,0.09183,-0.0195
-8.1,-0.5061,0.09274,0.09002,-0.0218
-8,-0.4944,0.09075,0.08803,-0.0244
-7.9,-0.4813,0.0888,0.08609,-0.0275
-7.8,-0.4729,0.08746,0.08475,-0.0291
-7.7,-0.4639,0.08611,0.0834,-0.031
-7.6,-0.4539,0.08473,0.08201,-0.033
-7.5,-0.4429,0.08364,0.08093,-0.0354
-7.4,-0.4309,0.08219,0.07946,-0.0379
-7.3,-0.4207,0.08087,0.07814,-0.0399
-7.2,-0.4104,0.07958,0.07685,-0.0419
-7.1,-0.3983,0.07817,0.07544,-0.0444
-7,-0.3859,0.07677,0.07402,-0.0469
-6.9,-0.3727,0.07534,0.07258,-0.0496
-6.8,-0.359,0.07389,0.07112,-0.0524
-6.7,-0.3492,0.07271,0.06993,-0.0541
-6.6,-0.3376,0.07142,0.06864,-0.0562
-6.5,-0.3248,0.07007,0.06728,-0.0587
-6.3,-0.2961,0.06722,0.06441,-0.0642
-6.2,-0.282,0.06583,0.06301,-0.0669
-6.1,-0.2713,0.06465,0.06183,-0.0686
-6,-0.2581,0.06334,0.0605,-0.0709
-5.9,-0.2428,0.06188,0.05902,-0.0737
-5.8,-0.2269,0.0604,0.05752,-0.0766
-5.7,-0.213,0.05905,0.05616,-0.079
-5.6,-0.1999,0.05775,0.05484,-0.0812
-5.4,-0.1689,0.05481,0.05186,-0.0866
-5.3,-0.1514,0.05318,0.0502,-0.0897
-5.1,-0.1187,0.04976,0.04671,-0.0956
-5,-0.0971,0.0469,0.04381,-0.1003
-4.9,-0.0808,0.0457,0.04259,-0.1027
-4.8,-0.0637,0.04452,0.04137,-0.1052
-4.7,-0.0462,0.04334,0.04015,-0.1077
-4.6,-0.0306,0.04225,0.03904,-0.1097
-4.5,-0.014,0.0411,0.03785,-0.1119
-4.4,0.0039,0.03988,0.03659,-0.1143
-4.3,0.0224,0.03859,0.03526,-0.1168
-4.1,0.0605,0.03576,0.03232,-0.122
-3.7,0.1463,0.02803,0.0242,-0.1346
-3.6,0.1654,0.02671,0.02279,-0.1365
-3.5,0.1844,0.0251,0.02106,-0.1387
-3.4,0.2075,0.02222,0.01794,-0.1422
-3.3,0.2369,0.01575,0.01063,-0.149
-3.2,0.2522,0.01516,0.00991,-0.1494
-3.1,0.2677,0.01455,0.00915,-0.1498
-3,0.2833,0.01392,0.00834,-0.1502
-2.9,0.2982,0.01333,0.00754,-0.1505
-2.8,0.3129,0.01277,0.0068,-0.1506
-2.7,0.3275,0.01249,0.00645,-0.1507
-2.6,0.3421,0.01225,0.00614,-0.1507
-2.5,0.3568,0.012,0.00579,-0.1507
-2.4,0.371,0.01176,0.00546,-0.1506
-2.3,0.3853,0.01152,0.00512,-0.1506
-2.2,0.3995,0.01139,0.00497,-0.1505
-2.1,0.4137,0.01124,0.00476,-0.1504
-2,0.4279,0.0111,0.00457,-0.1504
-1.9,0.442,0.01096,0.00438,-0.1503
-1.8,0.4559,0.01083,0.00417,-0.1501
-1.7,0.4696,0.0107,0.00397,-0.1499
-1.5,0.497,0.01057,0.0038,-0.1496
-1.4,0.5109,0.01048,0.00367,-0.1495
-1.3,0.5247,0.01041,0.00354,-0.1493
-1.2,0.538,0.01033,0.00342,-0.149
-1.1,0.5518,0.01028,0.00336,-0.1489
-0.9,0.5792,0.01021,0.00323,-0.1487
-0.8,0.5926,0.01017,0.00315,-0.1485
-0.7,0.6061,0.01013,0.0031,-0.1483
-0.6,0.6198,0.01011,0.00306,-0.1482
-0.5,0.6334,0.01008,0.003,-0.1481
-0.4,0.6467,0.01008,0.00299,-0.1479
-0.3,0.6596,0.01009,0.00294,-0.1476
-0.2,0.6731,0.01008,0.00291,-0.1474
-0.1,0.6865,0.01008,0.00288,-0.1473
0,0.6999,0.01007,0.00285,-0.1471
0.1,0.713,0.01009,0.00284,-0.1469
0.2,0.7263,0.0101,0.00283,-0.1467
0.3,0.7389,0.01015,0.00282,-0.1464
0.4,0.7517,0.01019,0.00282,-0.1461
0.5,0.7644,0.01023,0.00283,-0.1458
0.6,0.7773,0.01028,0.00283,-0.1455
0.7,0.79,0.01034,0.00284,-0.1452
0.8,0.8013,0.01047,0.00286,-0.1446
0.9,0.8127,0.01061,0.00291,-0.1441
1,0.8251,0.0107,0.00295,-0.1438
1.1,0.8374,0.01079,0.00299,-0.1434
1.2,0.8495,0.01089,0.00305,-0.143
1.3,0.8615,0.01101,0.00311,-0.1427
1.4,0.8734,0.01114,0.00317,-0.1422
1.5,0.8836,0.01136,0.00327,-0.1415
1.6,0.8949,0.01152,0.00336,-0.1411
1.7,0.9061,0.0117,0.00346,-0.1405
1.8,0.9169,0.01189,0.00356,-0.14
1.9,0.9275,0.0121,0.00369,-0.1394
2,0.9377,0.01235,0.00383,-0.1388
2.1,0.9477,0.01262,0.00398,-0.1381
2.2,0.9557,0.01304,0.0042,-0.1372
2.3,0.9662,0.01329,0.00437,-0.1367
2.4,0.9773,0.0135,0.00452,-0.1362
2.5,0.9888,0.01368,0.00465,-0.1358
2.6,1.0006,0.01384,0.00479,-0.1354
2.7,1.0125,0.01399,0.00492,-0.135
2.8,1.0245,0.01412,0.00505,-0.1347
2.9,1.0367,0.01424,0.00518,-0.1344
3,1.0484,0.01436,0.00536,-0.134
3.2,1.064,0.01333,0.00561,-0.1316
3.3,1.0761,0.0135,0.00575,-0.1312
3.4,1.0884,0.01364,0.00589,-0.1308
3.5,1.1006,0.0138,0.00603,-0.1304
3.6,1.1125,0.01397,0.00617,-0.1299
3.7,1.1249,0.01412,0.00631,-0.1295
3.8,1.1368,0.01429,0.00645,-0.1291
3.9,1.1487,0.01446,0.0066,-0.1286
4,1.1609,0.01462,0.00675,-0.1281
4.1,1.1732,0.01477,0.0069,-0.1277
4.2,1.1853,0.01493,0.00705,-0.1272
4.3,1.1972,0.01511,0.00721,-0.1266
4.4,1.2092,0.01528,0.00738,-0.1261
4.5,1.2212,0.01544,0.00754,-0.1256
4.6,1.2332,0.01561,0.0077,-0.1251
4.7,1.2449,0.0158,0.0079,-0.1245
4.8,1.2569,0.01597,0.00808,-0.1239
4.9,1.2689,0.01614,0.00826,-0.1233
5,1.2808,0.01632,0.00844,-0.1227
5.1,1.2925,0.01651,0.00863,-0.1221
5.2,1.3039,0.01672,0.00883,-0.1214
5.3,1.3159,0.01689,0.00902,-0.1208
5.4,1.3276,0.01708,0.00922,-0.1201
5.5,1.3391,0.01728,0.00943,-0.1194
5.6,1.3503,0.0175,0.00965,-0.1187
5.7,1.3619,0.0177,0.00987,-0.118
5.8,1.3735,0.01789,0.0101,-0.1172
5.9,1.3849,0.0181,0.01035,-0.1165
6,1.396,0.01833,0.01059,-0.1156
6.1,1.4067,0.01857,0.01084,-0.1148
6.2,1.418,0.01877,0.01107,-0.114
6.3,1.429,0.019,0.01133,-0.1131
6.4,1.4398,0.01924,0.01159,-0.1122
6.5,1.4503,0.01949,0.01186,-0.1112
6.6,1.4603,0.01976,0.01214,-0.1102
6.7,1.4711,0.02,0.01244,-0.1092
6.8,1.4815,0.02026,0.01274,-0.1082
6.9,1.4917,0.02053,0.01305,-0.1072
7,1.5011,0.02079,0.01331,-0.106
7.1,1.5097,0.02108,0.01363,-0.1047
7.2,1.519,0.02136,0.01399,-0.1035
7.3,1.5281,0.02165,0.01434,-0.1022
7.4,1.5369,0.02196,0.0147,-0.1009
7.5,1.5454,0.02229,0.01507,-0.0996
7.6,1.5536,0.02263,0.01545,-0.0983
7.7,1.5613,0.02299,0.01586,-0.0969
7.8,1.5698,0.02336,0.01629,-0.0956
7.9,1.5781,0.02374,0.01674,-0.0942
8,1.5867,0.02408,0.01714,-0.093
8.1,1.5943,0.02448,0.0176,-0.0916
8.2,1.6016,0.02491,0.01808,-0.0902
8.3,1.6083,0.02536,0.01858,-0.0888
8.4,1.6154,0.02583,0.01913,-0.0874
8.5,1.6224,0.02632,0.01971,-0.086
8.6,1.6289,0.02684,0.02032,-0.0845
8.7,1.6352,0.02738,0.02094,-0.0831
8.8,1.641,0.02793,0.02161,-0.0817
8.9,1.6465,0.02852,0.02227,-0.0802
9,1.6516,0.02912,0.02296,-0.0788
9.1,1.6562,0.02976,0.02368,-0.0774
9.2,1.6601,0.03044,0.02444,-0.076
9.3,1.6652,0.03111,0.02521,-0.0747
9.4,1.6687,0.03189,0.0261,-0.0733
9.5,1.6716,0.03271,0.02703,-0.072
9.6,1.6742,0.03357,0.02801,-0.0707
9.7,1.6762,0.03447,0.02902,-0.0695
9.8,1.6779,0.03541,0.03008,-0.0683
9.9,1.6791,0.0364,0.03117,-0.0673
10,1.6798,0.03744,0.03232,-0.0663
10.1,1.6801,0.03853,0.03351,-0.0654
10.2,1.68,0.03967,0.03476,-0.0647
10.3,1.6795,0.04087,0.03606,-0.0641
10.4,1.6784,0.04217,0.03744,-0.0636
10.5,1.6755,0.0437,0.03912,-0.0634
10.6,1.6721,0.04533,0.04089,-0.0633
10.7,1.6681,0.04705,0.04275,-0.0636
10.9,1.6588,0.05083,0.04681,-0.0649
11,1.6536,0.05291,0.04902,-0.066
11.1,1.648,0.05514,0.05138,-0.0676
11.2,1.6422,0.05753,0.05389,-0.0695
11.3,1.6361,0.0601,0.05659,-0.072
11.4,1.6296,0.06288,0.05949,-0.0749
12.4,1.5409,0.10343,0.10082,-0.1217
12.5,1.534,0.10714,0.10454,-0.1256
12.6,1.5294,0.11037,0.10778,-0.129
12.7,1.5268,0.11324,0.11066,-0.1319
12.8,1.5256,0.11581,0.11324,-0.1345
12.9,1.5257,0.11807,0.11551,-0.1368
13,1.514,0.12305,0.12048,-0.142
13.1,1.5035,0.12793,0.12538,-0.1469
13.2,1.4964,0.13219,0.12964,-0.151
13.3,1.4923,0.13575,0.13321,-0.1544
13.5,1.4899,0.14157,0.13905,-0.1597
13.6,1.4904,0.14404,0.14153,-0.162
13.7,1.4917,0.14629,0.14379,-0.164
13.8,1.4935,0.14837,0.14587,-0.1659
13.9,1.4958,0.1503,0.14781,-0.1676
14,1.4985,0.15209,0.14961,-0.1692
14.1,1.5014,0.15376,0.1513,-0.1708
14.2,1.5083,0.15425,0.15179,-0.1715
14.3,1.5095,0.15648,0.15401,-0.1735
14.4,1.504,0.16139,0.15892,-0.1776
14.5,1.5035,0.16463,0.16217,-0.1804
14.6,1.5046,0.16732,0.16487,-0.1827
14.7,1.5063,0.16971,0.16726,-0.1847
14.8,1.5087,0.17187,0.16944,-0.1866
14.9,1.5114,0.17387,0.17144,-0.1883
15,1.5144,0.17571,0.1733,-0.1899
15.1,1.5176,0.17744,0.17503,-0.1915
15.2,1.521,0.17904,0.17665,-0.1929
15.3,1.5264,0.17963,0.17726,-0.1939
15.4,1.5304,0.18078,0.17843,-0.1951
15.5,1.5301,0.18462,0.18225,-0.1982
15.6,1.5296,0.18929,0.18692,-0.2019
15.7,1.5324,0.19149,0.18912,-0.2037
15.8,1.5355,0.19346,0.1911,-0.2055
15.9,1.5389,0.19526,0.19291,-0.2071
16,1.5424,0.1969,0.19456,-0.2086
16.1,1.5461,0.19842,0.19609,-0.21
16.2,1.55,0.19979,0.19747,-0.2114
16.3,1.5539,0.20103,0.19872,-0.2127
16.4,1.5572,0.20288,0.20056,-0.2144
16.5,1.5582,0.20729,0.20497,-0.2175
16.6,1.5609,0.21015,0.20783,-0.2197
16.7,1.564,0.21261,0.2103,-0.2216
16.8,1.5674,0.21484,0.21253,-0.2234
16.9,1.5714,0.21661,0.21431,-0.2253
17,1.5752,0.21829,0.216,-0.2268
17.1,1.579,0.21985,0.21757,-0.2283
17.2,1.583,0.2213,0.21903,-0.2297
17.3,1.5869,0.2227,0.22043,-0.2311
17.4,1.5895,0.22652,0.22424,-0.2337
17.5,1.5928,0.22957,0.22729,-0.2359
17.6,1.5963,0.23216,0.22989,-0.2379
17.7,1.6,0.2345,0.23223,-0.2397
17.8,1.6038,0.23672,0.23445,-0.2415
17.9,1.6076,0.23883,0.23657,-0.2432
18,1.6115,0.24086,0.2386,-0.2449
18.1,1.6154,0.24281,0.24056,-0.2465
18.2,1.6193,0.2447,0.24245,-0.2481
18.3,1.6232,0.24653,0.24429,-0.2497
18.4,1.6272,0.24831,0.24608,-0.2513
18.5,1.6311,0.25001,0.24778,-0.2529
18.6,1.6351,0.25169,0.24946,-0.2544
18.7,1.639,0.25328,0.25107,-0.256
18.8,1.6428,0.25511,0.25288,-0.2576
18.9,1.6466,0.25929,0.25706,-0.2602
19,1.6506,0.26217,0.25995,-0.2622
19.1,1.6546,0.26476,0.26253,-0.2641
19.3,1.6628,0.26985,0.26765,-0.2681
19.4,1.6668,0.27192,0.26972,-0.2698
19.5,1.6708,0.27395,0.27176,-0.2715
19.6,1.6748,0.27595,0.27376,-0.2732
19.7,1.6788,0.27789,0.2757,-0.2749
19.8,1.6828,0.27982,0.27764,-0.2766
19.9,1.6867,0.28169,0.27951,-0.2782
20,1.6907,0.28355,0.28138,-0.2799
20.1,1.6946,0.28537,0.28321,-0.2815
20.2,1.6985,0.28719,0.28503,-0.2832
20.3,1.7023,0.28907,0.2869,-0.2849
20.4,1.7068,0.293,0.29083,-0.2873
20.5,1.7111,0.29598,0.29381,-0.2894
20.6,1.7153,0.29865,0.29649,-0.2913
20.7,1.7195,0.3012,0.29904,-0.2932
20.8,1.7236,0.3037,0.30154,-0.2951
20.9,1.7277,0.3061,0.30395,-0.297
21,1.7318,0.30847,0.30632,-0.2988
21.1,1.7359,0.31082,0.30868,-0.3007
21.2,1.74,0.31313,0.31099,-0.3025
21.3,1.7441,0.31542,0.31328,-0.3044
21.4,1.7481,0.31768,0.31555,-0.3062
21.5,1.7522,0.31994,0.31781,-0.3081
21.6,1.7562,0.32218,0.32006,-0.3099
21.7,1.7602,0.32441,0.32229,-0.3117
21.8,1.7642,0.32662,0.32451,-0.3136
21.9,1.7682,0.32883,0.32672,-0.3154
22,1.7721,0.33101,0.32891,-0.3173
22.1,1.7761,0.3332,0.3311,-0.3191
22.2,1.78,0.33537,0.33328,-0.321
22.4,1.7879,0.33969,0.33763,-0.3247
22.5,1.7917,0.34183,0.33977,-0.3265
22.6,1.7956,0.34396,0.3419,-0.3284
22.7,1.7994,0.34608,0.34403,-0.3303
22.8,1.8032,0.34818,0.34614,-0.3321
22.9,1.8078,0.35174,0.34968,-0.3346
23,1.8122,0.35501,0.35295,-0.3368
23.1,1.8165,0.35789,0.35583,-0.3389
23.2,1.8207,0.36069,0.35864,-0.341
23.3,1.8248,0.36338,0.36134,-0.343
23.4,1.8289,0.36601,0.36397,-0.3451
23.5,1.8329,0.36865,0.36662,-0.3471
23.6,1.837,0.37124,0.36921,-0.3492
23.7,1.8409,0.37377,0.37174,-0.3512
23.8,1.8449,0.3763,0.37428,-0.3532
23.9,1.8488,0.37882,0.3768,-0.3552
24,1.8528,0.38133,0.37932,-0.3573
24.1,1.8567,0.38382,0.38182,-0.3593
24.2,1.8605,0.3863,0.3843,-0.3613
24.3,1.8644,0.38876,0.38677,-0.3634
24.4,1.8682,0.39124,0.38925,-0.3654
24.5,1.872,0.3937,0.39172,-0.3675
24.6,1.8758,0.39616,0.39418,-0.3695
24.7,1.8796,0.39862,0.39664,-0.3716
24.8,1.8834,0.40107,0.3991,-0.3736
24.9,1.8871,0.40352,0.40155,-0.3757
25,1.8908,0.40596,0.404,-0.3777
25.1,1.8945,0.40841,0.40646,-0.3798
25.2,1.8982,0.41085,0.4089,-0.3819
25.3,1.9019,0.41328,0.41134,-0.384
25.4,1.9055,0.41573,0.4138,-0.3861
25.5,1.9091,0.41814,0.41622,-0.3881
25.6,1.9127,0.42058,0.41866,-0.3902
25.7,1.9163,0.42302,0.42111,-0.3923
25.8,1.9199,0.42543,0.42353,-0.3944
25.9,1.9234,0.42786,0.42596,-0.3966
26,1.9269,0.43025,0.42836,-0.3987
26.1,1.9304,0.43267,0.43079,-0.4008
26.2,1.9339,0.43508,0.43321,-0.4029
26.3,1.9373,0.43745,0.43558,-0.405
26.4,1.9407,0.43982,0.43796,-0.4072
26.5,1.9441,0.44224,0.44038,-0.4093
26.6,1.9483,0.44587,0.444,-0.4118
26.7,1.953,0.45013,0.44826,-0.4144
26.8,1.9572,0.4537,0.45184,-0.4168
26.9,1.962,0.45825,0.45638,-0.4196
27,1.9657,0.46115,0.45929,-0.4219
27.1,1.9693,0.464,0.46214,-0.4242
27.2,1.9729,0.46687,0.46502,-0.4265
27.3,1.9765,0.46972,0.46788,-0.4288
27.4,1.98,0.47253,0.47069,-0.431
27.5,1.9835,0.47534,0.4735,-0.4333
27.6,1.987,0.47813,0.4763,-0.4356
27.7,1.9904,0.48092,0.4791,-0.4379
27.8,1.9938,0.48371,0.4819,-0.4402
27.9,1.9972,0.48648,0.48467,-0.4425
28,2.0006,0.48928,0.48748,-0.4448
28.1,2.004,0.49206,0.49026,-0.4471
28.2,2.0073,0.49484,0.49305,-0.4494
28.3,2.0106,0.49761,0.49583,-0.4518
28.4,2.0139,0.50038,0.49859,-0.4541
28.5,2.0171,0.50316,0.5014,-0.4564
28.6,2.0204,0.50593,0.50417,-0.4587
28.7,2.0236,0.50871,0.50696,-0.4611
28.8,2.0268,0.51148,0.50973,-0.4634
28.9,2.03,0.51426,0.51252,-0.4658
29,2.0331,0.51704,0.51531,-0.4681
29.1,2.0362,0.51982,0.51809,-0.4705
29.2,2.0394,0.52261,0.52089,-0.4729
29.3,2.0424,0.52538,0.52366,-0.4752
29.4,2.0455,0.52816,0.52645,-0.4776
29.5,2.0485,0.53095,0.52925,-0.48
29.6,2.0515,0.53371,0.53201,-0.4824
29.7,2.0545,0.53649,0.53479,-0.4848
29.8,2.0574,0.53923,0.53755,-0.4871
29.9,2.0604,0.54201,0.54033,-0.4896
30,2.0633,0.54476,0.54309,-0.492

