airfoilName st17.dat
Re 	610000
M 	5.000000e-01
N 	4.500000e+00
VACC 	0 VACCflag 1
XTR 	1.00 	1.00 XTRflag 0
alpha,cl,cd,cdp,cm
-30,-1.5421,0.56729,0.56543,0.3238
-29.9,-1.5384,0.56371,0.56185,0.3214
-29.8,-1.5346,0.56025,0.55839,0.3191
-29.7,-1.5309,0.55688,0.55501,0.3167
-29.6,-1.5271,0.55346,0.55159,0.3144
-29.5,-1.5233,0.5501,0.54822,0.312
-29.4,-1.5195,0.54678,0.54489,0.3097
-29.3,-1.5157,0.54351,0.54162,0.3073
-29.2,-1.5119,0.54025,0.53836,0.305
-29.1,-1.508,0.53705,0.53515,0.3026
-29,-1.5042,0.53382,0.53192,0.3003
-28.9,-1.5003,0.53066,0.52876,0.298
-28.8,-1.4964,0.52753,0.52563,0.2957
-28.7,-1.4925,0.52442,0.52251,0.2934
-28.6,-1.4886,0.52133,0.51942,0.2911
-28.5,-1.4847,0.51824,0.51633,0.2888
-28.4,-1.4807,0.5152,0.51329,0.2865
-28.3,-1.4768,0.51215,0.51023,0.2842
-28.2,-1.4728,0.50916,0.50724,0.282
-28.1,-1.4688,0.50616,0.50423,0.2797
-28,-1.4648,0.50318,0.50126,0.2774
-27.9,-1.4608,0.50024,0.49831,0.2752
-27.8,-1.4569,0.49771,0.49577,0.2729
-27.7,-1.4528,0.49476,0.49283,0.2707
-27.6,-1.4488,0.49183,0.4899,0.2685
-27.5,-1.4447,0.48892,0.48698,0.2663
-27.4,-1.4406,0.48602,0.48408,0.264
-27.3,-1.4365,0.48314,0.48119,0.2618
-27.2,-1.4323,0.48026,0.47832,0.2596
-27.1,-1.4282,0.47741,0.47547,0.2575
-27,-1.4241,0.47456,0.4726,0.2553
-26.9,-1.4199,0.47173,0.46977,0.2531
-26.8,-1.4157,0.46891,0.46694,0.2509
-26.7,-1.4115,0.46609,0.46413,0.2488
-26.6,-1.4073,0.46329,0.46132,0.2466
-26.5,-1.4031,0.46051,0.45854,0.2445
-26.4,-1.3989,0.45773,0.45576,0.2423
-26.3,-1.3946,0.45497,0.45299,0.2402
-26.2,-1.3904,0.45222,0.45024,0.2381
-26.1,-1.3861,0.44947,0.44749,0.236
-26,-1.3818,0.44674,0.44476,0.2339
-25.9,-1.3775,0.44403,0.44205,0.2318
-25.8,-1.3732,0.44133,0.43934,0.2297
-25.7,-1.3688,0.43862,0.43664,0.2276
-25.6,-1.3645,0.43593,0.43395,0.2255
-25.5,-1.3602,0.43327,0.43128,0.2234
-25.4,-1.3558,0.43061,0.42861,0.2214
-25.3,-1.3514,0.42796,0.42596,0.2193
-25.2,-1.3471,0.42532,0.42333,0.2173
-25.1,-1.3427,0.42269,0.42069,0.2152
-25,-1.3382,0.42007,0.41807,0.2132
-24.9,-1.3338,0.41746,0.41546,0.2112
-24.8,-1.3294,0.41487,0.41287,0.2092
-24.7,-1.325,0.41229,0.41028,0.2072
-24.6,-1.3205,0.40972,0.40771,0.2052
-24.5,-1.316,0.40716,0.40515,0.2032
-24.4,-1.3116,0.40461,0.40259,0.2012
-24.3,-1.3071,0.40207,0.40005,0.1992
-24.2,-1.3026,0.39955,0.39752,0.1972
-24.1,-1.2981,0.39705,0.39502,0.1953
-24,-1.2936,0.39454,0.39251,0.1933
-23.9,-1.2891,0.39204,0.39001,0.1913
-23.8,-1.2845,0.38957,0.38753,0.1894
-23.7,-1.28,0.38709,0.38506,0.1875
-23.6,-1.2754,0.38464,0.38261,0.1855
-23.5,-1.2708,0.3822,0.38016,0.1836
-23.4,-1.2663,0.37977,0.37773,0.1817
-23.3,-1.2617,0.37736,0.37532,0.1797
-23.2,-1.257,0.37496,0.37292,0.1778
-23.1,-1.2524,0.37257,0.37053,0.1759
-23,-1.2478,0.37021,0.36816,0.174
-22.9,-1.2432,0.36785,0.3658,0.1721
-22.8,-1.2385,0.36549,0.36345,0.1702
-22.7,-1.2339,0.36317,0.36112,0.1683
-22.6,-1.2292,0.36088,0.35883,0.1664
-22.5,-1.2245,0.35858,0.35653,0.1645
-22.4,-1.2197,0.3563,0.35425,0.1626
-22.3,-1.215,0.35408,0.35203,0.1607
-22.2,-1.2102,0.35186,0.34981,0.1587
-22.1,-1.2054,0.34967,0.34761,0.1568
-22,-1.2005,0.34746,0.34541,0.1548
-21.6,-1.1788,0.33929,0.33724,0.1462
-21.5,-1.1742,0.33663,0.33458,0.1446
-21.4,-1.1697,0.33401,0.33195,0.1429
-21.3,-1.1651,0.33142,0.32936,0.1413
-21.2,-1.1605,0.32887,0.32681,0.1396
-21.1,-1.156,0.32634,0.32427,0.138
-21,-1.1516,0.32396,0.3219,0.1364
-20.9,-1.147,0.32152,0.31945,0.1347
-20.8,-1.1423,0.3191,0.31703,0.1331
-20.7,-1.1377,0.31669,0.31462,0.1315
-20.6,-1.133,0.3143,0.31223,0.1299
-20.5,-1.1284,0.31194,0.30987,0.1282
-20.4,-1.1237,0.30959,0.30752,0.1266
-20.3,-1.119,0.30727,0.3052,0.125
-20.2,-1.1143,0.30497,0.30289,0.1234
-20.1,-1.1096,0.30267,0.3006,0.1219
-20,-1.1049,0.3004,0.29832,0.1203
-19.9,-1.1002,0.29813,0.29606,0.1187
-19.8,-1.0955,0.29589,0.29381,0.1171
-19.7,-1.0908,0.29367,0.29159,0.1156
-19.6,-1.086,0.29145,0.28937,0.114
-19.5,-1.0813,0.28925,0.28717,0.1125
-19.4,-1.0766,0.28706,0.28498,0.1109
-19.3,-1.0718,0.28488,0.2828,0.1094
-19.2,-1.067,0.28271,0.28063,0.1079
-19.1,-1.0623,0.28057,0.27848,0.1063
-19,-1.0575,0.27842,0.27633,0.1048
-18.9,-1.0527,0.27628,0.2742,0.1033
-18.8,-1.0479,0.27416,0.27208,0.1018
-18.7,-1.0431,0.27205,0.26995,0.1003
-18.6,-1.0383,0.26994,0.26784,0.0988
-18.5,-1.0335,0.26784,0.26575,0.0974
-18.4,-1.0287,0.26575,0.26366,0.0959
-18.3,-1.0239,0.26367,0.26157,0.0944
-18.2,-1.0191,0.2616,0.2595,0.093
-18.1,-1.0143,0.25954,0.25744,0.0915
-18,-1.0094,0.25748,0.25538,0.0901
-17.9,-1.0046,0.25543,0.25333,0.0886
-17.8,-0.9998,0.25339,0.25128,0.0872
-17.7,-0.9949,0.25135,0.24925,0.0858
-17.6,-0.9901,0.24933,0.24722,0.0844
-17.5,-0.9852,0.2473,0.2452,0.083
-17.4,-0.9803,0.24529,0.24319,0.0816
-17.3,-0.9754,0.24328,0.24118,0.0802
-17.2,-0.9705,0.24128,0.23918,0.0788
-17.1,-0.9656,0.23928,0.23718,0.0774
-17,-0.9606,0.23729,0.23518,0.0759
-16.9,-0.9557,0.2353,0.2332,0.0746
-16.8,-0.9507,0.23333,0.23122,0.0732
-16.7,-0.9457,0.23135,0.22925,0.0718
-16.6,-0.9407,0.22938,0.22728,0.0704
-16.5,-0.9357,0.22743,0.22532,0.069
-16.4,-0.9307,0.22547,0.22336,0.0676
-16.3,-0.9256,0.22352,0.22141,0.0662
-16.2,-0.9205,0.22157,0.21946,0.0648
-16.1,-0.9154,0.21963,0.21752,0.0634
-16,-0.9103,0.21768,0.21557,0.062
-15.9,-0.9052,0.21573,0.21362,0.0606
-15.8,-0.9,0.21376,0.21165,0.0592
-15.7,-0.8948,0.21178,0.20966,0.0578
-15.6,-0.8896,0.20978,0.20767,0.0564
-15.5,-0.8843,0.20772,0.2056,0.055
-15.4,-0.8789,0.2056,0.20348,0.0535
-15.3,-0.8732,0.20335,0.20123,0.052
-15.1,-0.8597,0.19918,0.19708,0.0485
-15,-0.8551,0.19723,0.19513,0.0474
-14.9,-0.8506,0.19527,0.19317,0.0463
-14.8,-0.8465,0.19338,0.19128,0.0452
-14.7,-0.8418,0.19149,0.18939,0.0441
-14.6,-0.8371,0.18963,0.18753,0.043
-14.5,-0.8323,0.18777,0.18568,0.0418
-14.4,-0.8275,0.18595,0.18385,0.0407
-14.3,-0.8228,0.18414,0.18205,0.0396
-14.2,-0.8179,0.18236,0.18026,0.0384
-14.1,-0.8131,0.18059,0.17849,0.0373
-14,-0.8082,0.17883,0.17674,0.0362
-13.9,-0.8033,0.1771,0.17501,0.0351
-13.8,-0.7984,0.17538,0.17329,0.0339
-13.7,-0.7935,0.17368,0.17159,0.0328
-13.6,-0.7885,0.17199,0.1699,0.0317
-13.5,-0.7836,0.17032,0.16823,0.0306
-13.4,-0.7785,0.16866,0.16657,0.0295
-13.3,-0.7735,0.16701,0.16492,0.0284
-13.2,-0.7685,0.16537,0.16328,0.0273
-13.1,-0.7634,0.16373,0.16165,0.0262
-13,-0.7582,0.16211,0.16003,0.0251
-12.9,-0.7531,0.1605,0.15841,0.024
-12.8,-0.7479,0.15889,0.1568,0.0229
-12.7,-0.7427,0.1573,0.15521,0.0218
-12.6,-0.7376,0.15571,0.15362,0.0207
-12.5,-0.7323,0.15413,0.15204,0.0196
-12.4,-0.7271,0.15256,0.15048,0.0185
-12.3,-0.7219,0.151,0.14892,0.0174
-12.2,-0.7167,0.14945,0.14737,0.0164
-12.1,-0.7114,0.14791,0.14583,0.0153
-12,-0.7061,0.14637,0.1443,0.0142
-11.9,-0.7009,0.14484,0.14277,0.0132
-11.8,-0.6956,0.14332,0.14125,0.0121
-11.7,-0.6903,0.1418,0.13973,0.0111
-11.6,-0.6849,0.14029,0.13823,0.01
-11.5,-0.6796,0.13879,0.13673,0.009
-11.4,-0.6743,0.1373,0.13523,0.008
-11.3,-0.6689,0.13581,0.13375,0.0069
-11.2,-0.6636,0.13434,0.13228,0.0059
-11.1,-0.6583,0.13287,0.13082,0.0049
-11,-0.653,0.13142,0.12937,0.0039
-10.9,-0.6477,0.12997,0.12792,0.003
-10.8,-0.6425,0.12853,0.12649,0.002
-10.7,-0.6372,0.1271,0.12506,0.0011
-10.6,-0.632,0.12568,0.12364,0.0001
-10.5,-0.6269,0.12427,0.12224,-0.0008
-10.4,-0.6218,0.12287,0.12084,-0.0017
-10.3,-0.6168,0.12149,0.11946,-0.0025
-10.2,-0.6119,0.12012,0.1181,-0.0033
-10.1,-0.6072,0.11877,0.11675,-0.0041
-10,-0.6027,0.11744,0.11543,-0.0048
-9.8,-0.5936,0.11441,0.11241,-0.0063
-9.7,-0.5902,0.11315,0.11116,-0.0066
-9.6,-0.5873,0.11197,0.10998,-0.0069
-9.5,-0.5849,0.11084,0.10887,-0.0069
-9.4,-0.5771,0.10919,0.10722,-0.0085
-9.3,-0.5678,0.10745,0.10547,-0.0105
-9.2,-0.5579,0.10571,0.10373,-0.0126
-9.1,-0.5476,0.10398,0.10202,-0.0149
-9,-0.5392,0.10235,0.10039,-0.0167
-8.9,-0.5299,0.10068,0.09872,-0.0187
-8.8,-0.5218,0.09914,0.09718,-0.0204
-8.7,-0.5135,0.0976,0.09563,-0.0221
-8.6,-0.5048,0.09605,0.09408,-0.024
-8.5,-0.4959,0.09452,0.09255,-0.0258
-8.4,-0.4866,0.093,0.09102,-0.0278
-8.3,-0.4782,0.09156,0.08959,-0.0295
-8.2,-0.4701,0.09019,0.08821,-0.0311
-8.1,-0.4614,0.0888,0.08682,-0.0329
-8,-0.4516,0.08735,0.08537,-0.0349
-7.9,-0.4418,0.08594,0.08396,-0.0369
-7.8,-0.4335,0.08468,0.08269,-0.0385
-7.7,-0.4256,0.08346,0.08147,-0.0399
-7.6,-0.4167,0.0822,0.08021,-0.0416
-7.5,-0.407,0.0809,0.07891,-0.0436
-7.4,-0.3964,0.07957,0.07757,-0.0458
-7.3,-0.3873,0.07838,0.07636,-0.0475
-7.2,-0.3774,0.07713,0.07512,-0.0494
-7.1,-0.3666,0.07584,0.07381,-0.0515
-7,-0.3551,0.07452,0.07248,-0.0537
-6.9,-0.3433,0.07319,0.07114,-0.0561
-6.8,-0.3332,0.07199,0.06994,-0.0579
-6.7,-0.3223,0.07074,0.06868,-0.0599
-6.6,-0.3107,0.06945,0.06739,-0.0621
-6.5,-0.2985,0.06814,0.06606,-0.0644
-6.4,-0.2859,0.06681,0.06471,-0.0668
-6.3,-0.2743,0.06554,0.06344,-0.0688
-6.2,-0.2621,0.06424,0.06213,-0.071
-6.1,-0.2493,0.06291,0.06078,-0.0734
-6,-0.236,0.06155,0.0594,-0.0758
-5.9,-0.2222,0.06015,0.05798,-0.0783
-5.8,-0.2092,0.0588,0.05662,-0.0805
-5.7,-0.1955,0.0574,0.05519,-0.0829
-5.6,-0.181,0.05594,0.05371,-0.0855
-5.5,-0.1659,0.05443,0.05217,-0.0882
-5.4,-0.1507,0.05288,0.0506,-0.0909
-5.3,-0.1351,0.05123,0.04892,-0.0937
-5.2,-0.1183,0.04937,0.04703,-0.0969
-5.1,-0.0983,0.04682,0.04445,-0.1013
-5,-0.082,0.04554,0.04313,-0.1039
-4.9,-0.0655,0.04428,0.04185,-0.1065
-4.8,-0.0488,0.04304,0.04058,-0.109
-4.7,-0.0315,0.04179,0.03929,-0.1115
-4.6,-0.0141,0.04053,0.03799,-0.114
-4.5,0.0038,0.03925,0.03666,-0.1166
-4.4,0.022,0.03793,0.03531,-0.1192
-4.3,0.0404,0.03656,0.03389,-0.1218
-4.2,0.0594,0.0351,0.03238,-0.1245
-4.1,0.0793,0.03351,0.03073,-0.1274
-4,0.0999,0.03169,0.02883,-0.1305
-3.8,0.1583,0.02345,0.02017,-0.1432
-3.5,0.226,0.01302,0.00864,-0.1553
-3.4,0.242,0.01192,0.00727,-0.1562
-3.3,0.2573,0.01122,0.00635,-0.1565
-3.2,0.2725,0.01068,0.00563,-0.1568
-3.1,0.2874,0.01028,0.00507,-0.1569
-3,0.302,0.00998,0.00468,-0.1569
-2.9,0.3165,0.00978,0.0044,-0.1568
-2.8,0.3309,0.00961,0.00416,-0.1568
-2.7,0.345,0.00953,0.00404,-0.1566
-2.6,0.3595,0.00935,0.00379,-0.1566
-2.5,0.3738,0.00919,0.00357,-0.1566
-2.4,0.388,0.00908,0.00342,-0.1565
-2.3,0.4021,0.00897,0.00327,-0.1563
-2.2,0.4162,0.00891,0.00317,-0.1563
-2.1,0.4304,0.00881,0.00301,-0.1562
-2,0.4437,0.00872,0.00286,-0.1559
-1.9,0.4576,0.00865,0.00276,-0.1558
-1.8,0.4716,0.00859,0.00266,-0.1557
-1.7,0.4851,0.00855,0.00256,-0.1555
-1.5,0.5126,0.00846,0.00242,-0.1553
-1.4,0.5265,0.00841,0.00236,-0.1552
-1.3,0.5398,0.0084,0.00229,-0.155
-1.2,0.5537,0.00836,0.00223,-0.1549
-1.1,0.5672,0.00835,0.00217,-0.1548
-1,0.5807,0.00833,0.00212,-0.1546
-0.9,0.5938,0.00834,0.0021,-0.1544
-0.8,0.6075,0.00833,0.00207,-0.1544
-0.7,0.6211,0.00832,0.00203,-0.1543
-0.6,0.6345,0.00832,0.002,-0.1541
-0.5,0.6479,0.00832,0.00198,-0.154
-0.4,0.6607,0.00835,0.00197,-0.1537
-0.3,0.674,0.00838,0.00197,-0.1536
-0.2,0.6873,0.00839,0.00195,-0.1535
-0.1,0.6999,0.00844,0.00195,-0.1532
0,0.7129,0.00848,0.00196,-0.153
0.1,0.725,0.00858,0.00197,-0.1526
0.2,0.7378,0.00864,0.00197,-0.1524
0.3,0.7501,0.00872,0.002,-0.152
0.4,0.7627,0.00879,0.00204,-0.1518
0.5,0.7753,0.00887,0.00206,-0.1516
0.6,0.788,0.00894,0.00209,-0.1513
0.7,0.7989,0.00913,0.00216,-0.1508
0.8,0.8107,0.00927,0.00223,-0.1504
0.9,0.823,0.00937,0.00228,-0.1501
1,0.8352,0.00949,0.00234,-0.1498
1.1,0.8467,0.00965,0.00243,-0.1494
1.2,0.8579,0.00984,0.00252,-0.1489
1.3,0.8679,0.01012,0.00265,-0.1483
1.4,0.8792,0.01032,0.00275,-0.1478
1.5,0.8901,0.01054,0.00287,-0.1474
1.6,0.9008,0.01079,0.003,-0.1469
1.7,0.9113,0.01107,0.00315,-0.1463
1.8,0.922,0.01134,0.00329,-0.1458
1.9,0.9335,0.01153,0.00342,-0.1455
2,0.9446,0.01177,0.00356,-0.145
2.1,0.957,0.01188,0.00366,-0.1448
2.2,0.9694,0.012,0.00374,-0.1445
2.3,0.982,0.0121,0.00385,-0.1442
2.4,0.9945,0.0122,0.00394,-0.1439
2.5,1.007,0.01231,0.00405,-0.1436
2.6,1.0197,0.0124,0.00413,-0.1434
2.7,1.0319,0.01254,0.00424,-0.143
2.8,1.0446,0.01263,0.00433,-0.1428
2.9,1.0573,0.01271,0.00443,-0.1425
3,1.0699,0.01282,0.00452,-0.1422
3.1,1.0824,0.01291,0.00463,-0.1419
3.2,1.0952,0.01299,0.00473,-0.1416
3.3,1.1079,0.01308,0.00483,-0.1413
3.4,1.1202,0.0132,0.00495,-0.1409
3.5,1.133,0.01328,0.00506,-0.1406
3.6,1.1458,0.01334,0.00519,-0.1403
3.7,1.1516,0.0122,0.00541,-0.1389
3.8,1.1641,0.01234,0.00553,-0.1385
3.9,1.1769,0.01245,0.00564,-0.1381
4,1.1895,0.01257,0.00575,-0.1377
4.1,1.2016,0.01274,0.00588,-0.1373
4.2,1.2143,0.01286,0.006,-0.1368
4.3,1.2269,0.01299,0.00612,-0.1364
4.4,1.2394,0.01312,0.00625,-0.1359
4.5,1.2517,0.01328,0.00639,-0.1354
4.6,1.2642,0.01341,0.00653,-0.1349
4.7,1.2767,0.01355,0.00667,-0.1344
4.8,1.2889,0.01371,0.00682,-0.1339
4.9,1.301,0.01388,0.00699,-0.1333
5,1.3135,0.01402,0.00713,-0.1328
5.1,1.3259,0.01416,0.00729,-0.1322
5.2,1.3382,0.01432,0.00744,-0.1316
5.3,1.3503,0.01449,0.00761,-0.131
5.4,1.3625,0.01466,0.00779,-0.1303
5.5,1.3746,0.01483,0.00796,-0.1297
5.6,1.3867,0.015,0.00813,-0.129
5.7,1.3986,0.01519,0.00832,-0.1283
5.8,1.4106,0.01537,0.00852,-0.1276
5.9,1.4227,0.01554,0.00871,-0.1269
6,1.4347,0.01572,0.00891,-0.1261
6.1,1.4465,0.01592,0.00913,-0.1253
6.2,1.4579,0.01614,0.00935,-0.1245
6.3,1.4697,0.01632,0.00957,-0.1236
6.4,1.4813,0.01652,0.00979,-0.1228
6.5,1.4928,0.01674,0.01002,-0.1219
6.6,1.504,0.01697,0.01026,-0.1209
6.7,1.5153,0.01719,0.01052,-0.12
6.8,1.5266,0.01741,0.01077,-0.119
6.9,1.5377,0.01763,0.01103,-0.118
7,1.5486,0.01787,0.0113,-0.1169
7.1,1.5589,0.01815,0.01158,-0.1158
7.2,1.5696,0.01839,0.01187,-0.1147
7.3,1.5802,0.01864,0.01217,-0.1135
7.4,1.5905,0.01891,0.01249,-0.1123
7.5,1.6001,0.01918,0.0128,-0.111
7.6,1.609,0.01947,0.01313,-0.1095
7.7,1.6177,0.01978,0.01348,-0.108
7.8,1.6264,0.0201,0.01386,-0.1066
7.9,1.6351,0.02041,0.01424,-0.1051
8,1.6437,0.02075,0.01464,-0.1035
8.1,1.6521,0.0211,0.01505,-0.102
8.2,1.6607,0.02144,0.01544,-0.1005
8.3,1.6688,0.02182,0.01589,-0.099
8.4,1.6765,0.02223,0.01636,-0.0974
8.5,1.6837,0.02267,0.01686,-0.0958
8.6,1.6909,0.02312,0.01739,-0.0941
8.7,1.6978,0.02359,0.01795,-0.0924
8.8,1.7043,0.02409,0.01854,-0.0907
8.9,1.7105,0.02461,0.01916,-0.089
9,1.7162,0.02517,0.01983,-0.0873
9.1,1.7215,0.02576,0.02052,-0.0855
9.2,1.7264,0.02639,0.02124,-0.0838
9.3,1.7309,0.02705,0.022,-0.0821
9.4,1.7367,0.02763,0.02263,-0.0805
9.5,1.7393,0.02843,0.02356,-0.0787
9.6,1.741,0.0293,0.02456,-0.0769
9.7,1.7419,0.03024,0.02563,-0.0752
9.8,1.7421,0.03124,0.02676,-0.0735
9.9,1.7415,0.03231,0.02796,-0.0719
10,1.7403,0.03346,0.02924,-0.0704
10.1,1.7421,0.03441,0.03029,-0.0691
10.2,1.7403,0.03564,0.03163,-0.0679
10.3,1.736,0.03708,0.0332,-0.0668
10.4,1.7305,0.03866,0.03493,-0.0659
10.6,1.7184,0.0421,0.03864,-0.0649
10.7,1.7119,0.04396,0.04064,-0.0648
10.9,1.6997,0.04784,0.04477,-0.0655
11,1.6929,0.05,0.04706,-0.0665
11.2,1.679,0.05472,0.05201,-0.0695
11.3,1.6721,0.05732,0.05473,-0.0717
11.5,1.6583,0.06306,0.06068,-0.0774
11.6,1.6516,0.06626,0.06398,-0.081
11.7,1.6448,0.06969,0.0675,-0.085
11.8,1.638,0.07336,0.07127,-0.0894
11.9,1.6309,0.07732,0.07531,-0.094
12.7,1.5654,0.10935,0.10765,-0.1271
13.1,1.5363,0.12452,0.12286,-0.1428
13.4,1.5197,0.1355,0.13386,-0.1537
13.5,1.5163,0.1388,0.13717,-0.1569
13.6,1.5139,0.14198,0.14035,-0.16
13.7,1.5128,0.14483,0.1432,-0.1627
13.8,1.5128,0.14742,0.1458,-0.1651
13.9,1.5142,0.14971,0.14809,-0.1672
14,1.5154,0.152,0.15036,-0.1693
14.1,1.5114,0.15571,0.15408,-0.1728
14.2,1.508,0.15937,0.15775,-0.1761
14.3,1.5058,0.16283,0.16121,-0.1793
14.4,1.5045,0.16607,0.16446,-0.1821
14.5,1.5044,0.16905,0.16744,-0.1847
14.6,1.5052,0.17177,0.17017,-0.187
14.7,1.5083,0.17382,0.17221,-0.1888
14.8,1.511,0.17589,0.17429,-0.1906
14.9,1.514,0.17785,0.17625,-0.1924
15,1.5175,0.17959,0.17799,-0.194
15.1,1.5176,0.18268,0.18107,-0.1966
15.2,1.5177,0.18596,0.18436,-0.1993
15.3,1.5189,0.18886,0.18726,-0.2017
15.4,1.5208,0.1915,0.18991,-0.2039
15.5,1.5231,0.19396,0.19237,-0.2059
15.6,1.5257,0.19626,0.19467,-0.2078
15.7,1.5286,0.19843,0.19685,-0.2097
15.8,1.5317,0.20048,0.1989,-0.2115
15.9,1.535,0.20248,0.2009,-0.2132
16,1.5384,0.20434,0.20277,-0.2149
16.1,1.5419,0.20615,0.20458,-0.2165
16.2,1.5455,0.20788,0.20631,-0.2182
16.3,1.5492,0.20956,0.208,-0.2198
16.4,1.5507,0.21318,0.21161,-0.2223
16.5,1.5533,0.21603,0.21446,-0.2244
16.6,1.5563,0.21873,0.21716,-0.2264
16.7,1.5595,0.22118,0.21961,-0.2283
16.9,1.5664,0.22579,0.22423,-0.2319
17,1.57,0.22799,0.22643,-0.2337
17.1,1.5737,0.23013,0.22857,-0.2354
17.2,1.5774,0.23221,0.23066,-0.2371
17.3,1.5812,0.23425,0.2327,-0.2388
17.4,1.585,0.23625,0.23471,-0.2405
17.5,1.5889,0.2382,0.23666,-0.2421
17.7,1.597,0.24167,0.24013,-0.2454
17.8,1.6003,0.24499,0.24345,-0.2476
17.9,1.604,0.24779,0.24625,-0.2495
18,1.6078,0.25036,0.24882,-0.2514
18.1,1.6117,0.2528,0.25127,-0.2532
18.2,1.6156,0.25518,0.25365,-0.255
18.3,1.6196,0.25748,0.25595,-0.2567
18.4,1.6236,0.25975,0.25823,-0.2585
18.5,1.6276,0.262,0.26047,-0.2602
18.6,1.6316,0.2642,0.26267,-0.2619
18.7,1.6356,0.26637,0.26485,-0.2637
18.8,1.6396,0.26852,0.267,-0.2654
18.9,1.6436,0.27065,0.26914,-0.2671
19,1.6477,0.27275,0.27124,-0.2688
19.1,1.6517,0.27483,0.27332,-0.2705
19.2,1.6557,0.27689,0.27539,-0.2722
19.3,1.6597,0.27893,0.27743,-0.2739
19.4,1.6637,0.28098,0.27948,-0.2756
19.5,1.6676,0.28299,0.28149,-0.2773
19.6,1.6716,0.28499,0.28349,-0.279
19.7,1.6755,0.28699,0.2855,-0.2807
19.8,1.6795,0.28896,0.28747,-0.2824
19.9,1.6834,0.29092,0.28944,-0.2841
20,1.6872,0.29288,0.29139,-0.2858
20.1,1.6911,0.29486,0.29338,-0.2875
20.2,1.6956,0.29844,0.29695,-0.2897
20.3,1.6999,0.30149,0.3,-0.2916
20.4,1.7042,0.30435,0.30287,-0.2936
20.5,1.7084,0.30708,0.3056,-0.2955
20.6,1.7126,0.3096,0.30812,-0.2973
20.7,1.7168,0.31222,0.31075,-0.2992
20.8,1.721,0.31465,0.31318,-0.3011
20.9,1.7252,0.31718,0.3157,-0.3029
21,1.7293,0.31963,0.31817,-0.3048
21.1,1.7334,0.32203,0.32058,-0.3066
21.2,1.7375,0.32445,0.323,-0.3085
21.3,1.7416,0.32685,0.3254,-0.3104
21.4,1.7457,0.32922,0.32778,-0.3122
21.6,1.754,0.33401,0.33257,-0.316
21.7,1.758,0.33631,0.33487,-0.3179
21.8,1.762,0.3386,0.33717,-0.3198
21.9,1.7661,0.3409,0.33947,-0.3216
22,1.77,0.34318,0.34175,-0.3235
22.1,1.774,0.34546,0.34403,-0.3254
22.2,1.778,0.34772,0.3463,-0.3272
22.3,1.7819,0.34997,0.34856,-0.3291
22.4,1.7858,0.35222,0.35081,-0.331
22.5,1.7898,0.35449,0.35308,-0.3329
22.6,1.7936,0.35672,0.35532,-0.3348
22.7,1.7975,0.35897,0.35757,-0.3367
22.8,1.8014,0.36121,0.35981,-0.3386
22.9,1.8052,0.36346,0.36207,-0.3405
23,1.809,0.36565,0.36426,-0.3424
23.1,1.8128,0.36789,0.36651,-0.3444
23.2,1.8166,0.37011,0.36873,-0.3463
23.3,1.8204,0.37236,0.37098,-0.3482
23.4,1.8241,0.37455,0.37318,-0.3502
23.5,1.8278,0.37678,0.37541,-0.3521
23.6,1.8315,0.379,0.37763,-0.3541
23.7,1.8368,0.38357,0.38219,-0.3565
23.8,1.8413,0.38698,0.38561,-0.3587
23.9,1.8457,0.39012,0.38875,-0.3608
24,1.8499,0.39317,0.3918,-0.363
24.1,1.854,0.396,0.39465,-0.3651
24.2,1.858,0.39873,0.39738,-0.3672
24.3,1.8621,0.4016,0.40025,-0.3693
24.4,1.866,0.40429,0.40295,-0.3714
24.5,1.87,0.40698,0.40564,-0.3734
24.6,1.8739,0.40969,0.40835,-0.3755
24.7,1.8778,0.41238,0.41105,-0.3776
24.8,1.8817,0.41504,0.41371,-0.3797
24.9,1.8855,0.4177,0.41637,-0.3818
25,1.8894,0.42037,0.41905,-0.384
25.1,1.8931,0.423,0.42168,-0.3861
25.2,1.8969,0.42565,0.42433,-0.3882
25.3,1.9006,0.42826,0.42695,-0.3903
25.4,1.9044,0.43089,0.42958,-0.3924
25.5,1.9081,0.43353,0.43223,-0.3945
25.6,1.9118,0.43617,0.43487,-0.3967
25.7,1.9155,0.43881,0.43752,-0.3988
25.8,1.9191,0.44142,0.44013,-0.401
25.9,1.9228,0.44407,0.44278,-0.4031
26,1.9264,0.4467,0.44542,-0.4053
26.1,1.93,0.44933,0.44805,-0.4075
26.2,1.9336,0.45196,0.45069,-0.4096
26.3,1.9371,0.45443,0.45316,-0.4119
26.4,1.9406,0.45703,0.45576,-0.414
26.5,1.9441,0.45963,0.45837,-0.4162
26.6,1.9475,0.46219,0.46093,-0.4184
26.7,1.951,0.4648,0.46355,-0.4206
26.8,1.9544,0.46738,0.46613,-0.4228
26.9,1.9579,0.46998,0.46874,-0.425
27,1.9612,0.47258,0.47134,-0.4272
27.1,1.9646,0.47515,0.47391,-0.4295
27.2,1.9679,0.47775,0.47652,-0.4317
27.3,1.9712,0.48031,0.47909,-0.4339
27.4,1.9745,0.4829,0.48168,-0.4362
27.5,1.9778,0.48547,0.48426,-0.4384
27.6,1.9811,0.48809,0.48688,-0.4407
27.7,1.9843,0.49062,0.48942,-0.4429
27.8,1.9875,0.49322,0.49203,-0.4452
27.9,1.9907,0.49587,0.49468,-0.4474
28,1.9939,0.49846,0.49727,-0.4497
28.1,1.999,0.5037,0.5025,-0.4525
28.2,2.0033,0.50777,0.50657,-0.455
28.3,2.0072,0.51135,0.51015,-0.4575
28.4,2.0108,0.5147,0.51351,-0.4599
28.5,2.0143,0.51789,0.5167,-0.4623
28.6,2.0178,0.52109,0.5199,-0.4648
28.7,2.0213,0.52421,0.52303,-0.4672
28.8,2.0247,0.52738,0.52621,-0.4696
28.9,2.028,0.53039,0.52921,-0.472
29,2.0313,0.53352,0.53235,-0.4744
29.1,2.0347,0.5366,0.53543,-0.4768
29.2,2.0379,0.53964,0.53847,-0.4793
29.3,2.0411,0.54266,0.5415,-0.4817
29.4,2.0443,0.54568,0.54453,-0.4841
29.5,2.0474,0.54871,0.54755,-0.4865
29.6,2.0506,0.55173,0.55058,-0.489
29.7,2.0537,0.55476,0.55362,-0.4914
29.8,2.0567,0.55774,0.5566,-0.4939
29.9,2.0598,0.56077,0.55964,-0.4963
30,2.0628,0.56375,0.56262,-0.4988

