airfoilName st17.dat
Re 	310000
M 	5.000000e-01
N 	4.500000e+00
VACC 	0 VACCflag 1
XTR 	1.00 	1.00 XTRflag 0
alpha,cl,cd,cdp,cm
-30,-1.5423,0.56554,0.56275,0.3238
-29.9,-1.5386,0.56233,0.55954,0.3214
-29.8,-1.5348,0.5592,0.5564,0.319
-29.7,-1.531,0.55608,0.55328,0.3166
-29.6,-1.5272,0.55298,0.55017,0.3142
-29.5,-1.5234,0.54988,0.54706,0.3118
-29.4,-1.5195,0.54681,0.54398,0.3094
-29.3,-1.5157,0.54377,0.54094,0.307
-29.2,-1.5118,0.54073,0.53789,0.3046
-29.1,-1.5079,0.53846,0.53562,0.3022
-29,-1.504,0.53544,0.5326,0.2998
-28.9,-1.5001,0.53247,0.52962,0.2975
-28.8,-1.4962,0.52953,0.52668,0.2951
-28.7,-1.4922,0.52658,0.52373,0.2928
-28.6,-1.4882,0.52366,0.5208,0.2904
-28.5,-1.4842,0.52074,0.51788,0.2881
-28.4,-1.4802,0.51786,0.515,0.2858
-28.3,-1.4762,0.51496,0.5121,0.2834
-28.2,-1.4722,0.51213,0.50926,0.2811
-28.1,-1.4681,0.50931,0.50644,0.2788
-28,-1.4641,0.50646,0.50358,0.2765
-27.9,-1.46,0.50371,0.50083,0.2742
-27.8,-1.4559,0.50095,0.49806,0.2719
-27.7,-1.4518,0.49819,0.4953,0.2696
-27.6,-1.4476,0.49544,0.49255,0.2673
-27.5,-1.4435,0.49274,0.48985,0.265
-27.4,-1.4393,0.49009,0.48719,0.2627
-27.3,-1.4351,0.48741,0.48451,0.2605
-27.2,-1.4309,0.48481,0.48191,0.2582
-27.1,-1.4267,0.48217,0.47925,0.2559
-27,-1.4225,0.47962,0.47671,0.2537
-26.9,-1.4182,0.47712,0.4742,0.2514
-26.8,-1.414,0.47459,0.47167,0.2491
-26.7,-1.4097,0.47211,0.46918,0.2469
-26.6,-1.4053,0.46975,0.46683,0.2446
-26.5,-1.401,0.46735,0.46442,0.2423
-26.4,-1.3966,0.46511,0.46218,0.24
-26.3,-1.3922,0.46302,0.46008,0.2377
-26.2,-1.3877,0.46102,0.45808,0.2353
-26.1,-1.3832,0.45916,0.45622,0.2329
-26,-1.3786,0.45751,0.45458,0.2304
-25.6,-1.3588,0.45046,0.44754,0.2202
-25.5,-1.3545,0.44739,0.44446,0.2182
-25.4,-1.3502,0.44431,0.44138,0.2162
-25.3,-1.3459,0.44127,0.43833,0.2142
-25.2,-1.3415,0.43828,0.43534,0.2122
-25.1,-1.3372,0.43526,0.43232,0.2102
-25,-1.3328,0.43227,0.42933,0.2083
-24.9,-1.3284,0.42933,0.42639,0.2063
-24.8,-1.324,0.42641,0.42347,0.2043
-24.7,-1.3196,0.42353,0.42058,0.2024
-24.6,-1.3152,0.42064,0.41769,0.2004
-24.5,-1.3108,0.41779,0.41483,0.1985
-24.4,-1.3063,0.41496,0.412,0.1965
-24.3,-1.3019,0.41213,0.40915,0.1946
-24.2,-1.2974,0.40933,0.40635,0.1927
-24.1,-1.2929,0.40655,0.40357,0.1908
-24,-1.2885,0.40378,0.40079,0.1889
-23.9,-1.2839,0.40102,0.39803,0.187
-23.8,-1.2794,0.39828,0.39529,0.1851
-23.7,-1.2749,0.39555,0.39256,0.1832
-23.6,-1.2704,0.39284,0.38985,0.1813
-23.5,-1.2659,0.39014,0.38715,0.1794
-23.4,-1.2613,0.38747,0.38447,0.1776
-23.3,-1.2568,0.3848,0.3818,0.1757
-23.2,-1.2522,0.38215,0.37914,0.1739
-23.1,-1.2476,0.37951,0.3765,0.1721
-23,-1.2431,0.37689,0.37388,0.1702
-22.9,-1.2385,0.37427,0.37126,0.1684
-22.8,-1.2339,0.37167,0.36865,0.1666
-22.7,-1.2293,0.36909,0.36607,0.1648
-22.6,-1.2247,0.36651,0.36349,0.163
-22.4,-1.2155,0.3619,0.35888,0.1594
-22.3,-1.2109,0.35934,0.35632,0.1576
-22.2,-1.2062,0.35682,0.35379,0.1559
-22.1,-1.2016,0.35428,0.35125,0.1541
-22,-1.1969,0.35177,0.34874,0.1524
-21.9,-1.1923,0.34928,0.34625,0.1506
-21.8,-1.1876,0.3468,0.34376,0.1489
-21.7,-1.1829,0.34431,0.34128,0.1472
-21.6,-1.1782,0.34186,0.33881,0.1455
-21.5,-1.1736,0.33941,0.33636,0.1438
-21.4,-1.1689,0.33699,0.33393,0.1421
-21.3,-1.1642,0.33457,0.33151,0.1404
-21.2,-1.1594,0.33217,0.32911,0.1387
-21.1,-1.1547,0.32978,0.32672,0.137
-21,-1.15,0.3274,0.32434,0.1353
-20.9,-1.1452,0.32503,0.32197,0.1336
-20.8,-1.1405,0.32268,0.31962,0.132
-20.7,-1.1357,0.32034,0.31728,0.1303
-20.6,-1.1309,0.31801,0.31494,0.1287
-20.5,-1.1261,0.3157,0.31263,0.127
-20.4,-1.1213,0.31339,0.31032,0.1253
-20.3,-1.1165,0.31111,0.30803,0.1237
-20.2,-1.1117,0.30883,0.30576,0.1221
-20.1,-1.1069,0.30657,0.30349,0.1204
-20,-1.102,0.30431,0.30124,0.1188
-19.9,-1.0972,0.30207,0.299,0.1172
-19.8,-1.0923,0.29985,0.29677,0.1155
-19.7,-1.0874,0.29763,0.29456,0.1139
-19.6,-1.0825,0.29543,0.29235,0.1123
-19.5,-1.0776,0.29325,0.29017,0.1107
-19.4,-1.0727,0.29107,0.28799,0.109
-19.3,-1.0677,0.28891,0.28583,0.1074
-19.2,-1.0628,0.28676,0.28367,0.1058
-19.1,-1.0578,0.28463,0.28154,0.1042
-19,-1.0528,0.2825,0.27942,0.1025
-18.9,-1.0477,0.28039,0.2773,0.1009
-18.8,-1.0426,0.27828,0.27518,0.0993
-18.7,-1.0375,0.27619,0.27309,0.0976
-18.6,-1.0323,0.27407,0.27098,0.0959
-18.5,-1.0271,0.27196,0.26886,0.0943
-18.4,-1.0218,0.26981,0.26671,0.0926
-18.3,-1.0165,0.26758,0.26448,0.0909
-18.1,-1.0022,0.26256,0.25948,0.0865
-18,-0.9977,0.26032,0.25724,0.0852
-17.9,-0.9931,0.2581,0.25502,0.0838
-17.8,-0.9885,0.2559,0.25282,0.0825
-17.7,-0.9839,0.25371,0.25063,0.0812
-17.6,-0.9793,0.25154,0.24845,0.0798
-17.5,-0.9747,0.24939,0.24631,0.0785
-17.4,-0.9701,0.24725,0.24417,0.0772
-17.3,-0.9654,0.24513,0.24205,0.0759
-17.2,-0.9607,0.24304,0.23995,0.0746
-17.1,-0.956,0.24095,0.23787,0.0732
-17,-0.9512,0.23888,0.23579,0.0719
-16.9,-0.9465,0.23683,0.23375,0.0706
-16.8,-0.9417,0.2348,0.23171,0.0693
-16.7,-0.9369,0.23278,0.22969,0.068
-16.6,-0.9321,0.23077,0.22768,0.0667
-16.5,-0.9273,0.22878,0.22569,0.0654
-16.4,-0.9225,0.2268,0.22371,0.0642
-16.3,-0.9177,0.22483,0.22174,0.0629
-16.2,-0.9126,0.22326,0.22018,0.0614
-16.1,-0.9078,0.22131,0.21822,0.0602
-16,-0.9029,0.21937,0.21628,0.0589
-15.9,-0.898,0.21743,0.21434,0.0576
-15.8,-0.8931,0.21551,0.21241,0.0564
-15.7,-0.8882,0.21359,0.21049,0.0551
-15.6,-0.8833,0.21169,0.20859,0.0539
-15.5,-0.8784,0.2098,0.2067,0.0527
-15.4,-0.8735,0.20792,0.20482,0.0515
-15.3,-0.8686,0.20605,0.20295,0.0502
-15.2,-0.8637,0.20418,0.20108,0.049
-15.1,-0.8588,0.20233,0.19923,0.0478
-15,-0.8538,0.20048,0.19738,0.0466
-14.9,-0.8489,0.19865,0.19555,0.0454
-14.8,-0.8439,0.19681,0.19372,0.0442
-14.7,-0.8389,0.19499,0.19189,0.0431
-14.6,-0.834,0.19317,0.19007,0.0419
-14.5,-0.8289,0.19136,0.18826,0.0407
-14.4,-0.8239,0.18956,0.18646,0.0395
-14.3,-0.8189,0.18777,0.18467,0.0384
-14.2,-0.8139,0.18598,0.18289,0.0372
-14.1,-0.8089,0.18421,0.18112,0.036
-14,-0.8038,0.18244,0.17935,0.0349
-13.9,-0.7988,0.18068,0.1776,0.0337
-13.8,-0.7937,0.17893,0.17585,0.0326
-13.7,-0.7886,0.17719,0.1741,0.0315
-13.6,-0.7836,0.17545,0.17237,0.0303
-13.5,-0.7785,0.17372,0.17064,0.0292
-13.4,-0.7734,0.17201,0.16893,0.0281
-13.3,-0.7682,0.17029,0.16722,0.0269
-13.2,-0.7631,0.16858,0.16551,0.0258
-13.1,-0.7579,0.16688,0.1638,0.0247
-13,-0.7527,0.16517,0.1621,0.0235
-12.9,-0.7475,0.16347,0.16039,0.0224
-12.8,-0.7423,0.16176,0.15868,0.0213
-12.7,-0.737,0.16006,0.15699,0.0202
-12.6,-0.7318,0.15835,0.15527,0.019
-12.5,-0.7265,0.15664,0.15357,0.0179
-12.4,-0.7212,0.15492,0.15185,0.0168
-12.3,-0.7158,0.15319,0.15012,0.0157
-12.2,-0.7104,0.15143,0.14836,0.0145
-12.1,-0.7049,0.14962,0.14655,0.0134
-12,-0.699,0.14773,0.14467,0.0122
-11.8,-0.6851,0.14381,0.14078,0.0092
-11.7,-0.6805,0.14225,0.13921,0.0083
-11.6,-0.6759,0.14069,0.13766,0.0074
-11.5,-0.6711,0.13917,0.13614,0.0065
-11.4,-0.6665,0.13765,0.13463,0.0057
-11.3,-0.6622,0.13637,0.13335,0.0048
-11.2,-0.6574,0.1349,0.13189,0.0039
-11.1,-0.6525,0.13346,0.13045,0.0031
-11,-0.6477,0.13203,0.12902,0.0022
-10.9,-0.6429,0.13062,0.12762,0.0013
-10.8,-0.638,0.12922,0.12623,0.0005
-10.7,-0.6332,0.12784,0.12485,-0.0003
-10.6,-0.6284,0.12648,0.1235,-0.0011
-10.5,-0.6236,0.12513,0.12216,-0.0019
-10.4,-0.6189,0.12381,0.12084,-0.0027
-10.3,-0.6142,0.1225,0.11953,-0.0035
-10.2,-0.6097,0.12121,0.11826,-0.0042
-10.1,-0.6052,0.11995,0.117,-0.0048
-10,-0.6008,0.11871,0.11577,-0.0055
-9.8,-0.5926,0.11631,0.11338,-0.0066
-9.7,-0.5889,0.11516,0.11224,-0.0071
-9.5,-0.5823,0.11298,0.11008,-0.0077
-9.4,-0.5795,0.11196,0.10907,-0.0079
-9.3,-0.5771,0.11098,0.10811,-0.008
-9.2,-0.5752,0.11005,0.1072,-0.0079
-9.1,-0.5739,0.10918,0.10635,-0.0077
-9,-0.5732,0.10838,0.10557,-0.0073
-8.9,-0.5732,0.10765,0.10486,-0.0068
-8.8,-0.5676,0.1064,0.10362,-0.0078
-8.7,-0.5585,0.10485,0.10207,-0.0097
-8.6,-0.5493,0.10332,0.10053,-0.0116
-8.5,-0.5399,0.10178,0.099,-0.0136
-8.4,-0.5293,0.10016,0.09737,-0.016
-8.3,-0.5203,0.09867,0.09588,-0.0178
-8.2,-0.5111,0.0972,0.09441,-0.0197
-8.1,-0.5016,0.09572,0.09293,-0.0217
-8,-0.4917,0.09422,0.09142,-0.0238
-7.9,-0.4813,0.0927,0.0899,-0.026
-7.8,-0.472,0.09127,0.08847,-0.0279
-7.7,-0.4631,0.08989,0.08709,-0.0296
-7.6,-0.4525,0.08838,0.08557,-0.0318
-7.5,-0.4417,0.08688,0.08407,-0.0341
-7.4,-0.43,0.08532,0.0825,-0.0366
-7.3,-0.4174,0.0837,0.08086,-0.0393
-7.2,-0.4088,0.08238,0.07954,-0.041
-7.1,-0.3978,0.08089,0.07805,-0.0432
-7,-0.3857,0.07933,0.07649,-0.0458
-6.9,-0.3728,0.0777,0.07485,-0.0485
-6.8,-0.3584,0.07593,0.07306,-0.0516
-6.7,-0.3448,0.0742,0.07131,-0.0545
-6.6,-0.3351,0.07269,0.0698,-0.0564
-6.5,-0.3211,0.07071,0.06781,-0.0595
-6.4,-0.3066,0.06891,0.06602,-0.0626
-6.3,-0.2934,0.06751,0.06461,-0.0652
-6.2,-0.2794,0.06612,0.0632,-0.0679
-6.1,-0.2648,0.06473,0.06179,-0.0707
-6,-0.2558,0.06368,0.06074,-0.072
-5.9,-0.2429,0.06243,0.05949,-0.0743
-5.7,-0.213,0.06012,0.05714,-0.0795
-5.6,-0.1974,0.05873,0.05574,-0.0824
-5.5,-0.181,0.05732,0.0543,-0.0853
-5.4,-0.17,0.05619,0.05317,-0.0868
-5.3,-0.1551,0.05486,0.05182,-0.0892
-5.2,-0.1387,0.05345,0.05038,-0.092
-5.1,-0.1217,0.05202,0.04892,-0.0949
-5,-0.1035,0.0505,0.04736,-0.098
-4.9,-0.0896,0.0492,0.04605,-0.1001
-4.8,-0.0733,0.04775,0.04457,-0.1027
-4.7,-0.0552,0.04614,0.04292,-0.1057
-4.6,-0.0356,0.04431,0.04105,-0.1091
-4.5,-0.0126,0.04183,0.0385,-0.1136
-4.3,0.0259,0.03848,0.03506,-0.1198
-4.1,0.0605,0.03629,0.03279,-0.1241
-4,0.0791,0.03511,0.03156,-0.1264
-3.9,0.0987,0.03384,0.03022,-0.1289
-3.8,0.1189,0.03246,0.02877,-0.1316
-3.7,0.1379,0.031,0.02724,-0.134
-3.5,0.1945,0.02348,0.01927,-0.145
-3.4,0.2115,0.02271,0.0184,-0.1462
-3.3,0.2295,0.02165,0.01723,-0.1476
-3.1,0.274,0.01583,0.01061,-0.1542
-3,0.2911,0.01429,0.00868,-0.1555
-2.9,0.3054,0.0139,0.0082,-0.1556
-2.8,0.3202,0.01354,0.00774,-0.1558
-2.7,0.3353,0.01314,0.00722,-0.156
-2.5,0.3656,0.01235,0.00612,-0.1563
-2.4,0.3795,0.01213,0.00585,-0.1563
-2.3,0.3936,0.01194,0.0056,-0.1562
-2.2,0.408,0.01174,0.00533,-0.1562
-2.1,0.4226,0.01153,0.00503,-0.1562
-2,0.4372,0.01132,0.00473,-0.1562
-1.9,0.4507,0.01124,0.00465,-0.1561
-1.8,0.4647,0.01112,0.0045,-0.156
-1.7,0.4788,0.011,0.00433,-0.156
-1.6,0.4931,0.01087,0.00413,-0.1559
-1.5,0.5072,0.01075,0.00395,-0.1558
-1.4,0.5204,0.01064,0.00383,-0.1556
-1.3,0.5343,0.01061,0.00378,-0.1554
-1.2,0.5476,0.01053,0.00366,-0.1552
-1.1,0.5615,0.01045,0.00354,-0.1551
-1,0.5752,0.01037,0.00342,-0.155
-0.9,0.5888,0.01032,0.00337,-0.1549
-0.8,0.6026,0.01028,0.00331,-0.1548
-0.7,0.6156,0.01026,0.00323,-0.1545
-0.6,0.6293,0.01021,0.00317,-0.1544
-0.5,0.643,0.01017,0.00313,-0.1543
-0.4,0.6566,0.01014,0.00309,-0.1542
-0.3,0.6697,0.01013,0.00302,-0.1539
-0.2,0.6832,0.01011,0.00298,-0.1538
-0.1,0.6967,0.0101,0.003,-0.1536
0,0.7101,0.01009,0.00296,-0.1535
0.1,0.7234,0.01009,0.00292,-0.1533
0.2,0.7362,0.01009,0.00289,-0.153
0.3,0.7495,0.0101,0.00288,-0.1528
0.4,0.7628,0.0101,0.00287,-0.1526
0.5,0.7758,0.01014,0.00287,-0.1524
0.6,0.789,0.01014,0.00288,-0.1522
0.7,0.8015,0.01019,0.00287,-0.1518
0.8,0.8142,0.01023,0.00287,-0.1515
0.9,0.8267,0.01029,0.00287,-0.1512
1,0.8391,0.01036,0.00289,-0.1508
1.1,0.8515,0.01042,0.00292,-0.1504
1.2,0.8629,0.01056,0.00295,-0.1498
1.3,0.8737,0.01072,0.00301,-0.1492
1.4,0.8857,0.01083,0.00306,-0.1487
1.5,0.8974,0.01096,0.00312,-0.1483
1.6,0.909,0.01109,0.00319,-0.1478
1.7,0.9203,0.01124,0.00327,-0.1473
1.8,0.9314,0.0114,0.00336,-0.1467
1.9,0.9404,0.0117,0.00351,-0.1458
2,0.9507,0.01191,0.00363,-0.1452
2.1,0.9607,0.01216,0.00377,-0.1444
2.2,0.9703,0.01243,0.00392,-0.1437
2.3,0.9796,0.01273,0.0041,-0.1429
2.4,0.9888,0.01305,0.00428,-0.1422
2.5,0.9985,0.01334,0.00447,-0.1415
2.6,1.0089,0.01359,0.00466,-0.1409
2.7,1.0188,0.01388,0.00485,-0.1403
2.8,1.0303,0.01405,0.00499,-0.1399
2.9,1.0421,0.0142,0.00515,-0.1395
3,1.0538,0.01433,0.00529,-0.1391
3.2,1.0693,0.01335,0.00559,-0.1367
3.3,1.081,0.01353,0.00573,-0.1363
3.4,1.0926,0.01373,0.00589,-0.1358
3.5,1.1045,0.0139,0.00603,-0.1353
3.6,1.1164,0.01407,0.00621,-0.1348
3.7,1.1285,0.01423,0.00635,-0.1344
3.8,1.1403,0.0144,0.0065,-0.1339
3.9,1.152,0.01459,0.00667,-0.1334
4,1.1642,0.01474,0.00682,-0.1329
4.1,1.1757,0.01493,0.00698,-0.1324
4.2,1.1874,0.01511,0.00715,-0.1318
4.3,1.1995,0.01527,0.00731,-0.1313
4.4,1.2114,0.01544,0.00748,-0.1307
4.5,1.223,0.01563,0.00765,-0.1302
4.6,1.2347,0.01582,0.00784,-0.1296
4.7,1.2466,0.01599,0.00802,-0.129
4.8,1.258,0.01619,0.0082,-0.1284
4.9,1.2695,0.01639,0.00842,-0.1277
5,1.2814,0.01656,0.00861,-0.1271
5.1,1.293,0.01675,0.00881,-0.1264
5.2,1.3044,0.01696,0.00902,-0.1257
5.3,1.3156,0.01718,0.00924,-0.125
5.4,1.3273,0.01737,0.00946,-0.1243
5.5,1.3386,0.01757,0.00966,-0.1236
5.6,1.3497,0.0178,0.00989,-0.1228
5.7,1.3609,0.01802,0.01013,-0.122
5.8,1.3722,0.01823,0.01037,-0.1212
5.9,1.3833,0.01845,0.01062,-0.1204
6,1.3941,0.01869,0.01087,-0.1195
6.1,1.4046,0.01895,0.01114,-0.1186
6.2,1.4156,0.01918,0.01142,-0.1177
6.3,1.4264,0.01941,0.01169,-0.1168
6.4,1.4367,0.01967,0.01197,-0.1158
6.5,1.4467,0.01995,0.01227,-0.1148
6.6,1.4572,0.02021,0.01258,-0.1138
6.7,1.4674,0.02048,0.0129,-0.1127
6.8,1.4773,0.02077,0.01322,-0.1116
6.9,1.4864,0.02106,0.01355,-0.1104
7,1.4947,0.02138,0.0139,-0.109
7.1,1.5042,0.02165,0.01422,-0.1079
7.2,1.513,0.02197,0.01459,-0.1065
7.3,1.5215,0.0223,0.01497,-0.1052
7.4,1.5296,0.02266,0.01537,-0.1039
7.5,1.5377,0.02303,0.01579,-0.1025
7.6,1.5462,0.02341,0.01625,-0.1011
7.7,1.5544,0.02381,0.01674,-0.0998
7.8,1.5623,0.02422,0.01723,-0.0984
7.9,1.5698,0.02465,0.01772,-0.0969
8,1.577,0.0251,0.01824,-0.0955
8.1,1.5843,0.02552,0.0187,-0.0941
8.2,1.5913,0.02602,0.01929,-0.0927
8.3,1.598,0.02655,0.01991,-0.0912
8.4,1.6043,0.02709,0.02055,-0.0897
8.5,1.6103,0.02766,0.0212,-0.0882
8.6,1.6159,0.02824,0.02188,-0.0867
8.7,1.621,0.02886,0.02258,-0.0852
8.8,1.6256,0.02951,0.02331,-0.0837
8.9,1.6294,0.0302,0.02408,-0.0822
9,1.6332,0.03098,0.02499,-0.0806
9.1,1.6364,0.03181,0.02595,-0.0791
9.2,1.6389,0.03269,0.02696,-0.0777
9.3,1.6409,0.03361,0.02801,-0.0762
9.4,1.6445,0.03438,0.02889,-0.075
9.5,1.6458,0.03535,0.02998,-0.0736
9.6,1.6465,0.03637,0.03111,-0.0724
9.7,1.6467,0.03743,0.03231,-0.0713
9.8,1.6464,0.03854,0.03353,-0.0702
9.9,1.6455,0.03972,0.03481,-0.0693
10,1.6427,0.04115,0.03638,-0.0685
10.1,1.6391,0.0427,0.03808,-0.0679
10.2,1.635,0.04432,0.03986,-0.0675
10.3,1.6302,0.04604,0.04171,-0.0673
10.4,1.625,0.04786,0.04368,-0.0674
10.6,1.6135,0.05183,0.04792,-0.0686
10.8,1.6009,0.05631,0.05266,-0.0712
10.9,1.5943,0.05878,0.05526,-0.0731
11.1,1.5806,0.06428,0.061,-0.0784
12.1,1.4925,0.10651,0.10397,-0.1262
12.2,1.4854,0.11048,0.10795,-0.1302
12.3,1.48,0.11414,0.11161,-0.1339
12.4,1.4762,0.11746,0.11494,-0.1372
12.5,1.4824,0.11857,0.11605,-0.1383
12.6,1.4823,0.12101,0.1185,-0.1406
12.7,1.4833,0.12319,0.12067,-0.1428
12.8,1.4791,0.12665,0.12412,-0.1461
12.9,1.4722,0.13094,0.12842,-0.1502
13,1.4666,0.13504,0.13252,-0.154
13.1,1.463,0.1387,0.13619,-0.1573
13.2,1.461,0.14197,0.13946,-0.1602
13.3,1.4604,0.14494,0.14243,-0.1629
13.4,1.4606,0.14761,0.14511,-0.1652
13.5,1.4616,0.15008,0.14759,-0.1673
13.6,1.4633,0.15237,0.14989,-0.1693
13.7,1.4654,0.15449,0.15201,-0.1712
13.8,1.4679,0.15647,0.154,-0.1729
13.9,1.4708,0.1583,0.15584,-0.1745
14,1.4738,0.16002,0.15757,-0.1761
14.1,1.4809,0.16023,0.15779,-0.1767
14.2,1.4776,0.16477,0.16231,-0.1803
14.3,1.4773,0.16821,0.16575,-0.1831
14.4,1.4784,0.1711,0.16864,-0.1854
14.5,1.4803,0.17366,0.17121,-0.1875
14.6,1.4833,0.17591,0.17347,-0.1896
14.7,1.4864,0.17778,0.17534,-0.1913
14.8,1.4898,0.17948,0.17705,-0.1928
14.9,1.4934,0.18108,0.17865,-0.1942
15,1.4972,0.18249,0.18008,-0.1956
15.1,1.501,0.1838,0.18139,-0.197
15.2,1.5018,0.1873,0.18488,-0.1996
15.3,1.5033,0.19063,0.18821,-0.2021
15.4,1.5057,0.19334,0.19092,-0.2042
15.5,1.5085,0.1958,0.19339,-0.2061
15.6,1.5115,0.19805,0.19564,-0.208
15.7,1.5148,0.20014,0.19774,-0.2097
15.8,1.5182,0.20213,0.19973,-0.2113
15.9,1.5217,0.20401,0.20163,-0.2129
16,1.5253,0.20581,0.20343,-0.2145
16.2,1.5336,0.20794,0.20555,-0.2172
16.3,1.5358,0.21196,0.20957,-0.2199
16.4,1.5389,0.21482,0.21244,-0.222
16.5,1.5424,0.21732,0.21494,-0.2239
16.6,1.5459,0.21969,0.21731,-0.2257
16.7,1.5496,0.22189,0.21951,-0.2274
16.8,1.5533,0.22399,0.22162,-0.2291
16.9,1.5571,0.22603,0.22366,-0.2308
17,1.561,0.22799,0.22563,-0.2324
17.1,1.5648,0.22988,0.22752,-0.234
17.2,1.5687,0.23172,0.22937,-0.2356
17.3,1.5726,0.2335,0.23115,-0.2371
17.4,1.5766,0.23521,0.23287,-0.2386
17.5,1.5804,0.23689,0.23456,-0.2402
17.6,1.5844,0.23852,0.2362,-0.2417
17.7,1.5882,0.2401,0.23779,-0.2431
17.8,1.592,0.24309,0.24076,-0.2452
17.9,1.596,0.24648,0.24415,-0.2474
18,1.6,0.24925,0.24692,-0.2493
18.1,1.6041,0.25177,0.24945,-0.2512
18.2,1.6081,0.25418,0.25187,-0.253
18.3,1.6122,0.25648,0.25416,-0.2547
18.4,1.6163,0.25872,0.25641,-0.2565
18.5,1.6204,0.26091,0.2586,-0.2582
18.6,1.6244,0.26304,0.26074,-0.2599
18.7,1.6285,0.26513,0.26283,-0.2615
18.8,1.6326,0.26719,0.2649,-0.2632
19,1.6406,0.27051,0.26822,-0.2665
19.1,1.6445,0.27234,0.27005,-0.2681
19.2,1.6485,0.27414,0.27187,-0.2698
19.3,1.6524,0.2759,0.27363,-0.2714
19.4,1.6563,0.27768,0.27541,-0.273
19.5,1.6608,0.28129,0.279,-0.2752
19.6,1.6653,0.28438,0.2821,-0.2772
19.7,1.6696,0.28709,0.28481,-0.2792
19.8,1.6738,0.28968,0.2874,-0.281
19.9,1.6781,0.29216,0.28989,-0.2829
20,1.6823,0.29458,0.29231,-0.2847
20.1,1.6865,0.29694,0.29467,-0.2865
20.2,1.6907,0.29928,0.29702,-0.2883
20.3,1.6949,0.30158,0.29932,-0.2901
20.4,1.699,0.30386,0.3016,-0.2919
20.5,1.7032,0.30612,0.30388,-0.2937
20.6,1.7073,0.30836,0.30612,-0.2954
20.7,1.7114,0.3106,0.30836,-0.2972
20.8,1.7155,0.31281,0.31057,-0.299
20.9,1.7197,0.31502,0.31279,-0.3008
21.1,1.7278,0.3194,0.3172,-0.3044
21.2,1.7318,0.32158,0.31938,-0.3062
21.3,1.7359,0.32375,0.32155,-0.308
21.4,1.7399,0.32592,0.32373,-0.3098
21.5,1.7439,0.32808,0.32589,-0.3116
21.6,1.7479,0.33022,0.32804,-0.3134
21.7,1.7519,0.33237,0.3302,-0.3152
21.8,1.7559,0.33451,0.33234,-0.317
21.9,1.7598,0.33665,0.33448,-0.3188
22,1.7637,0.33876,0.3366,-0.3207
22.1,1.7676,0.34089,0.33873,-0.3225
22.2,1.7715,0.343,0.34085,-0.3243
22.3,1.7754,0.34507,0.34293,-0.3261
22.4,1.7792,0.34716,0.34502,-0.328
22.5,1.783,0.34926,0.34712,-0.3298
22.6,1.7867,0.35132,0.34919,-0.3316
22.7,1.7921,0.35568,0.35354,-0.3342
22.8,1.7967,0.35893,0.35678,-0.3363
22.9,1.801,0.36188,0.35974,-0.3384
23,1.8061,0.36587,0.36373,-0.341
23.1,1.8102,0.36841,0.36628,-0.343
23.2,1.8143,0.37095,0.36882,-0.3449
23.3,1.8183,0.37345,0.37133,-0.3469
23.4,1.8224,0.37599,0.37387,-0.3489
23.5,1.8264,0.37848,0.37637,-0.3509
23.6,1.8303,0.38096,0.37886,-0.3529
23.7,1.8343,0.38345,0.38135,-0.3549
23.8,1.8382,0.38592,0.38382,-0.3569
23.9,1.8421,0.3884,0.3863,-0.359
24,1.8461,0.39086,0.38877,-0.361
24.1,1.8499,0.39332,0.39124,-0.363
24.2,1.8538,0.39578,0.39372,-0.365
24.3,1.8577,0.39824,0.39618,-0.367
24.4,1.8615,0.4007,0.39865,-0.3691
24.5,1.8653,0.40316,0.40112,-0.3711
24.6,1.8691,0.4056,0.40356,-0.3731
24.7,1.8729,0.40806,0.40602,-0.3752
24.8,1.8766,0.41052,0.40849,-0.3772
24.9,1.8804,0.41298,0.41096,-0.3793
25,1.8841,0.41542,0.4134,-0.3814
25.1,1.8878,0.41788,0.41587,-0.3834
25.2,1.8915,0.42035,0.41834,-0.3855
25.3,1.8951,0.42279,0.42078,-0.3876
25.4,1.8988,0.42526,0.42326,-0.3897
25.5,1.9024,0.4277,0.42571,-0.3917
25.6,1.906,0.43014,0.42816,-0.3938
25.7,1.9096,0.43259,0.43061,-0.3959
25.8,1.9131,0.43505,0.43307,-0.398
25.9,1.9166,0.43749,0.43553,-0.4001
26,1.9202,0.43996,0.438,-0.4023
26.1,1.9237,0.4424,0.44044,-0.4044
26.2,1.9271,0.44485,0.4429,-0.4065
26.3,1.9306,0.4473,0.44536,-0.4086
26.4,1.934,0.44974,0.44781,-0.4108
26.5,1.9391,0.45444,0.45248,-0.4135
26.6,1.9435,0.45831,0.45636,-0.416
26.8,1.9514,0.46472,0.46278,-0.4207
26.9,1.9553,0.46783,0.4659,-0.423
27,1.959,0.4708,0.46887,-0.4253
27.1,1.9627,0.4738,0.47187,-0.4276
27.2,1.9663,0.47675,0.47483,-0.4299
27.3,1.97,0.47972,0.47782,-0.4322
27.4,1.9736,0.48264,0.48074,-0.4345
27.5,1.9771,0.48553,0.48364,-0.4368
27.6,1.9809,0.48862,0.48673,-0.4393
27.7,1.9843,0.49145,0.48957,-0.4416
27.8,1.9878,0.49428,0.49241,-0.4439
27.9,1.9912,0.49709,0.49522,-0.4462
28,1.9946,0.4999,0.49804,-0.4486
28.1,1.9979,0.50273,0.50087,-0.4509
28.2,2.0013,0.50555,0.5037,-0.4532
28.3,2.0046,0.50837,0.50652,-0.4555
28.4,2.0079,0.51118,0.50934,-0.4578
28.5,2.0111,0.51401,0.51217,-0.4602
28.6,2.0144,0.51683,0.515,-0.4625
28.7,2.0176,0.51966,0.51783,-0.4649
28.8,2.0209,0.52249,0.52067,-0.4672
28.9,2.024,0.52532,0.52351,-0.4695
29,2.0272,0.52815,0.52635,-0.4719
29.1,2.0304,0.53099,0.52919,-0.4743
29.2,2.0335,0.53383,0.53204,-0.4767
29.3,2.0366,0.53667,0.53488,-0.479
29.4,2.0397,0.53954,0.53776,-0.4814
29.5,2.0427,0.54239,0.54062,-0.4838
29.6,2.0458,0.54526,0.54349,-0.4862
29.7,2.0488,0.54811,0.54634,-0.4886
29.8,2.0518,0.55096,0.54921,-0.491
29.9,2.0547,0.55382,0.55207,-0.4934
30,2.0577,0.55669,0.55494,-0.4958

