airfoilName st17.dat
Re 	770000
M 	5.000000e-01
N 	4.500000e+00
VACC 	0 VACCflag 1
XTR 	1.00 	1.00 XTRflag 0
alpha,cl,cd,cdp,cm
-30,-1.5454,0.55813,0.5565,0.3269
-29.9,-1.5415,0.55544,0.55381,0.3244
-29.8,-1.5376,0.55279,0.55115,0.3218
-29.7,-1.5337,0.54997,0.54833,0.3193
-29.6,-1.5297,0.5475,0.54587,0.3167
-29.5,-1.5257,0.54503,0.54338,0.3141
-29.4,-1.5215,0.54271,0.54106,0.3114
-29.2,-1.5118,0.54277,0.54113,0.3048
-29.1,-1.5079,0.5393,0.53767,0.3025
-29,-1.504,0.53571,0.53407,0.3002
-28.9,-1.5001,0.53229,0.53065,0.2979
-28.8,-1.4963,0.52892,0.52727,0.2957
-28.7,-1.4924,0.52559,0.52394,0.2934
-28.6,-1.4885,0.52221,0.52056,0.2911
-28.5,-1.4845,0.5189,0.51725,0.2888
-28.4,-1.4806,0.51564,0.51398,0.2866
-28.3,-1.4766,0.51242,0.51076,0.2843
-28.2,-1.4727,0.50924,0.50758,0.2821
-28.1,-1.4687,0.50607,0.50441,0.2798
-28,-1.4647,0.50297,0.5013,0.2776
-27.9,-1.4607,0.49984,0.49817,0.2754
-27.8,-1.4567,0.49677,0.4951,0.2731
-27.7,-1.4526,0.49373,0.49205,0.2709
-27.6,-1.4486,0.49072,0.48904,0.2687
-27.4,-1.4406,0.48493,0.48325,0.2643
-27.3,-1.4365,0.482,0.48031,0.2621
-27.2,-1.4324,0.47906,0.47738,0.2599
-27.1,-1.4282,0.47618,0.47449,0.2577
-27,-1.4241,0.47328,0.47159,0.2556
-26.9,-1.42,0.47041,0.46871,0.2534
-26.8,-1.4158,0.46756,0.46586,0.2512
-26.7,-1.4116,0.46473,0.46303,0.2491
-26.6,-1.4074,0.4619,0.4602,0.2469
-26.5,-1.4032,0.45911,0.4574,0.2448
-26.4,-1.399,0.45632,0.45461,0.2427
-26.3,-1.3948,0.45354,0.45183,0.2405
-26.2,-1.3905,0.45079,0.44908,0.2384
-26.1,-1.3863,0.44804,0.44633,0.2363
-26,-1.382,0.44532,0.4436,0.2342
-25.9,-1.3777,0.44261,0.44089,0.2321
-25.8,-1.3734,0.43991,0.43819,0.23
-25.7,-1.3691,0.43722,0.43549,0.2279
-25.6,-1.3648,0.43454,0.43281,0.2258
-25.5,-1.3605,0.43188,0.43015,0.2238
-25.4,-1.3561,0.42924,0.42751,0.2217
-25.3,-1.3518,0.4266,0.42487,0.2197
-25.2,-1.3474,0.42398,0.42225,0.2176
-25.1,-1.343,0.42137,0.41964,0.2156
-25,-1.3386,0.41877,0.41703,0.2136
-24.9,-1.3342,0.41618,0.41444,0.2115
-24.8,-1.3298,0.4136,0.41186,0.2095
-24.7,-1.3254,0.41102,0.40928,0.2075
-24.6,-1.321,0.40847,0.40673,0.2055
-24.5,-1.3165,0.40592,0.40418,0.2036
-24.4,-1.3121,0.40338,0.40163,0.2016
-24.3,-1.3076,0.40086,0.3991,0.1996
-24.2,-1.3032,0.39834,0.39658,0.1976
-24.1,-1.2987,0.39584,0.39408,0.1957
-24,-1.2942,0.39334,0.39157,0.1937
-23.9,-1.2897,0.39084,0.38908,0.1918
-23.8,-1.2852,0.38836,0.3866,0.1899
-23.7,-1.2807,0.38588,0.38412,0.1879
-23.6,-1.2761,0.38343,0.38166,0.186
-23.5,-1.2716,0.38097,0.3792,0.1841
-23.4,-1.2671,0.37853,0.37676,0.1822
-23.3,-1.2625,0.3761,0.37433,0.1803
-23.2,-1.2579,0.37368,0.37191,0.1784
-23.1,-1.2534,0.37126,0.36949,0.1766
-23,-1.2488,0.36887,0.36709,0.1747
-22.9,-1.2442,0.36647,0.3647,0.1728
-22.8,-1.2396,0.36408,0.3623,0.171
-22.7,-1.235,0.36171,0.35993,0.1691
-22.6,-1.2304,0.35935,0.35757,0.1673
-22.5,-1.2257,0.357,0.35521,0.1654
-22.4,-1.2211,0.35465,0.35286,0.1636
-22.3,-1.2165,0.35232,0.35054,0.1618
-22.2,-1.2118,0.35001,0.34822,0.1599
-22.1,-1.2071,0.3477,0.34591,0.1581
-22,-1.2025,0.3454,0.34361,0.1563
-21.9,-1.1978,0.3431,0.34131,0.1545
-21.8,-1.1931,0.34082,0.33902,0.1527
-21.7,-1.1884,0.33854,0.33674,0.1509
-21.6,-1.1837,0.33629,0.33449,0.1491
-21.5,-1.1789,0.33404,0.33224,0.1473
-21.4,-1.1742,0.3318,0.33,0.1455
-21.3,-1.1694,0.32956,0.32775,0.1437
-21.2,-1.1646,0.32732,0.32552,0.1419
-21.1,-1.1598,0.3251,0.32329,0.14
-21,-1.1549,0.32285,0.32104,0.1382
-20.8,-1.145,0.31826,0.31645,0.1345
-20.6,-1.1326,0.31455,0.31275,0.1298
-20.5,-1.128,0.31202,0.31022,0.1283
-20.4,-1.1234,0.30951,0.30771,0.1267
-20.3,-1.1187,0.30704,0.30524,0.1251
-20.2,-1.1141,0.30458,0.30278,0.1236
-20.1,-1.1095,0.30215,0.30034,0.122
-20,-1.1049,0.29975,0.29795,0.1205
-19.9,-1.1002,0.29738,0.29557,0.1189
-19.8,-1.0956,0.29502,0.29322,0.1174
-19.7,-1.0909,0.29269,0.29088,0.1158
-19.6,-1.0863,0.29039,0.28858,0.1143
-19.5,-1.0816,0.2881,0.28629,0.1128
-19.4,-1.077,0.28583,0.28402,0.1113
-19.3,-1.0723,0.2836,0.28179,0.1098
-19.2,-1.0676,0.28138,0.27957,0.1083
-19.1,-1.0629,0.27918,0.27737,0.1068
-19,-1.0582,0.27701,0.27519,0.1053
-18.9,-1.0535,0.27485,0.27303,0.1038
-18.8,-1.0488,0.27271,0.27089,0.1023
-18.7,-1.0441,0.27059,0.26877,0.1008
-18.6,-1.0393,0.26848,0.26665,0.0993
-18.5,-1.0346,0.26639,0.26456,0.0979
-18.4,-1.0298,0.26431,0.26249,0.0964
-18.3,-1.0251,0.26225,0.26042,0.095
-18.2,-1.0203,0.26019,0.25836,0.0935
-18.1,-1.0156,0.25816,0.25633,0.0921
-18,-1.0108,0.25612,0.25429,0.0906
-17.9,-1.006,0.2541,0.25227,0.0892
-17.8,-1.0012,0.25209,0.25026,0.0878
-17.7,-0.9964,0.25009,0.24826,0.0864
-17.6,-0.9915,0.2481,0.24627,0.085
-17.5,-0.9867,0.2461,0.24427,0.0836
-17.4,-0.9819,0.24414,0.2423,0.0821
-17.3,-0.977,0.24215,0.24032,0.0807
-17.2,-0.9721,0.24018,0.23835,0.0794
-17.1,-0.9672,0.23821,0.23638,0.078
-17,-0.9623,0.23625,0.23442,0.0766
-16.9,-0.9574,0.23429,0.23246,0.0752
-16.8,-0.9525,0.23235,0.23051,0.0738
-16.7,-0.9475,0.2304,0.22857,0.0724
-16.6,-0.9426,0.22846,0.22662,0.0711
-16.5,-0.9376,0.22653,0.22469,0.0697
-16.4,-0.9327,0.2246,0.22276,0.0684
-16.3,-0.9277,0.22268,0.22084,0.067
-16.2,-0.9227,0.22075,0.21892,0.0657
-16.1,-0.9177,0.21884,0.21701,0.0643
-16,-0.9127,0.21693,0.2151,0.063
-15.9,-0.9077,0.21503,0.2132,0.0616
-15.8,-0.9027,0.21313,0.21129,0.0603
-15.7,-0.8976,0.21124,0.2094,0.059
-15.6,-0.8926,0.20935,0.20751,0.0576
-15.5,-0.8875,0.20746,0.20562,0.0563
-15.4,-0.8824,0.20558,0.20374,0.055
-15.3,-0.8773,0.2037,0.20185,0.0536
-15.2,-0.8722,0.20181,0.19996,0.0523
-15.1,-0.867,0.19991,0.19806,0.0509
-15,-0.8619,0.198,0.19615,0.0496
-14.9,-0.8566,0.19606,0.19421,0.0483
-14.8,-0.8514,0.19407,0.19223,0.0469
-14.7,-0.846,0.19204,0.1902,0.0456
-14.6,-0.8406,0.18993,0.18809,0.0442
-14.5,-0.8345,0.18766,0.18581,0.0427
-14.4,-0.8262,0.18564,0.18382,0.0405
-14.3,-0.8216,0.18374,0.18191,0.0394
-14.2,-0.817,0.18185,0.18003,0.0383
-14.1,-0.8123,0.17998,0.17815,0.0373
-14,-0.8076,0.17814,0.17631,0.0362
-13.9,-0.803,0.17631,0.17448,0.0351
-13.8,-0.7983,0.1745,0.17268,0.034
-13.7,-0.7936,0.17272,0.1709,0.033
-13.6,-0.7888,0.17097,0.16914,0.0319
-13.5,-0.784,0.16923,0.16741,0.0308
-13.4,-0.7791,0.16753,0.1657,0.0297
-13.3,-0.7743,0.16584,0.16402,0.0286
-13.2,-0.7694,0.16416,0.16235,0.0275
-13.1,-0.7644,0.16251,0.16069,0.0265
-13,-0.7594,0.16087,0.15905,0.0254
-12.9,-0.7543,0.15925,0.15743,0.0243
-12.8,-0.7492,0.15765,0.15583,0.0232
-12.7,-0.7441,0.15605,0.15423,0.0221
-12.6,-0.739,0.15447,0.15265,0.021
-12.5,-0.7338,0.15291,0.15109,0.0199
-12.4,-0.7286,0.15136,0.14954,0.0189
-12.3,-0.7234,0.14982,0.148,0.0178
-12.2,-0.7182,0.14829,0.14647,0.0167
-12.1,-0.713,0.14677,0.14496,0.0156
-12,-0.7077,0.14526,0.14345,0.0146
-11.9,-0.7024,0.14376,0.14195,0.0135
-11.8,-0.6971,0.14227,0.14046,0.0125
-11.7,-0.6918,0.14077,0.13897,0.0114
-11.6,-0.6864,0.1393,0.13749,0.0104
-11.5,-0.681,0.13782,0.13602,0.0093
-11.4,-0.6757,0.13636,0.13456,0.0083
-11.3,-0.6703,0.13491,0.13311,0.0072
-11.2,-0.6649,0.13346,0.13167,0.0062
-11.1,-0.6596,0.13203,0.13023,0.0052
-11,-0.6543,0.1306,0.12881,0.0042
-10.9,-0.6489,0.12919,0.1274,0.0032
-10.8,-0.6436,0.12778,0.12599,0.0023
-10.7,-0.6383,0.12638,0.1246,0.0013
-10.6,-0.633,0.12499,0.12322,0.0003
-10.5,-0.6278,0.12362,0.12185,-0.0006
-10.4,-0.6227,0.12226,0.12049,-0.0015
-10.3,-0.6176,0.12093,0.11916,-0.0023
-10.2,-0.6127,0.11961,0.11784,-0.0031
-10.1,-0.608,0.11831,0.11655,-0.0039
-10,-0.6035,0.11705,0.1153,-0.0046
-9.9,-0.5993,0.11582,0.11407,-0.0052
-9.8,-0.5957,0.11466,0.11291,-0.0056
-9.7,-0.5926,0.11355,0.11181,-0.0059
-9.6,-0.5872,0.11221,0.11048,-0.0068
-9.5,-0.578,0.11039,0.10866,-0.0089
-9.4,-0.5695,0.10874,0.10701,-0.0107
-9.3,-0.5608,0.1071,0.10536,-0.0126
-9.2,-0.5519,0.10543,0.10369,-0.0145
-9.1,-0.542,0.10366,0.10191,-0.0167
-9,-0.5335,0.10202,0.10028,-0.0184
-8.9,-0.5249,0.1004,0.09866,-0.0202
-8.8,-0.5161,0.09878,0.09703,-0.022
-8.7,-0.5069,0.0971,0.09535,-0.0239
-8.6,-0.4973,0.09538,0.09363,-0.026
-8.5,-0.4882,0.09375,0.092,-0.0278
-8.4,-0.4794,0.0922,0.09044,-0.0295
-8.3,-0.4698,0.09062,0.08886,-0.0315
-8.2,-0.4585,0.08897,0.08721,-0.0338
-8.1,-0.4489,0.08744,0.08569,-0.0358
-8,-0.4418,0.08608,0.08434,-0.0372
-7.9,-0.4343,0.08475,0.083,-0.0386
-7.8,-0.4264,0.08337,0.08162,-0.0401
-7.7,-0.4179,0.08199,0.08023,-0.0418
-7.6,-0.4099,0.08069,0.07893,-0.0434
-7.5,-0.4029,0.07951,0.07774,-0.0446
-7.4,-0.3943,0.07827,0.0765,-0.0463
-7.3,-0.3844,0.07696,0.07517,-0.0483
-7.2,-0.374,0.07565,0.07385,-0.0504
-7.1,-0.3646,0.07445,0.07265,-0.0521
-7,-0.3546,0.07323,0.07142,-0.0541
-6.9,-0.3439,0.07199,0.07017,-0.0561
-6.8,-0.3328,0.07075,0.06892,-0.0582
-6.7,-0.3215,0.0695,0.06766,-0.0603
-6.6,-0.3104,0.06829,0.06644,-0.0624
-6.5,-0.2988,0.06706,0.0652,-0.0645
-6.4,-0.2869,0.06583,0.06395,-0.0667
-6.3,-0.2746,0.06456,0.06267,-0.0689
-6.2,-0.262,0.0633,0.06139,-0.0712
-6.1,-0.2492,0.06203,0.0601,-0.0735
-6,-0.2364,0.06075,0.05881,-0.0757
-5.9,-0.223,0.05945,0.05748,-0.0781
-5.8,-0.2096,0.05814,0.05615,-0.0804
-5.7,-0.1954,0.05679,0.05478,-0.0829
-5.6,-0.1809,0.05543,0.0534,-0.0854
-5.5,-0.1662,0.05404,0.05199,-0.088
-5.4,-0.1508,0.05262,0.05053,-0.0906
-5.3,-0.1353,0.05117,0.04906,-0.0933
-5.2,-0.1192,0.04967,0.04752,-0.0961
-5.1,-0.1027,0.04811,0.04593,-0.0989
-5,-0.0854,0.04643,0.04422,-0.102
-4.9,-0.0631,0.04309,0.04081,-0.1072
-4.8,-0.0452,0.04151,0.03922,-0.1103
-4.7,-0.0271,0.04011,0.03778,-0.1132
-4.6,-0.0089,0.03879,0.03642,-0.116
-4.5,0.0093,0.03751,0.03508,-0.1186
-4.4,0.0278,0.03622,0.03374,-0.1212
-4.3,0.0465,0.03488,0.03236,-0.1238
-4.2,0.0656,0.03348,0.0309,-0.1265
-4.1,0.0852,0.03198,0.02935,-0.1292
-4,0.1055,0.03031,0.0276,-0.1321
-3.7,0.1974,0.01251,0.00836,-0.1554
-3.6,0.2133,0.01147,0.00709,-0.1562
-3.5,0.2285,0.01085,0.00629,-0.1565
-3.4,0.2436,0.01039,0.00568,-0.1567
-3.3,0.2585,0.01001,0.00517,-0.1568
-3.2,0.2733,0.00969,0.00473,-0.1568
-3.1,0.2881,0.00941,0.00435,-0.1568
-3,0.3028,0.00918,0.00402,-0.1568
-2.9,0.3172,0.009,0.00373,-0.1567
-2.8,0.3316,0.00883,0.00352,-0.1566
-2.7,0.346,0.00871,0.00335,-0.1566
-2.6,0.3603,0.0086,0.00319,-0.1565
-2.5,0.3744,0.00855,0.0031,-0.1564
-2.4,0.3886,0.00842,0.00294,-0.1563
-2.3,0.4026,0.00834,0.00282,-0.1562
-2.2,0.416,0.00829,0.0027,-0.1559
-2.1,0.4301,0.00824,0.00262,-0.1558
-2,0.4443,0.00818,0.00251,-0.1557
-1.9,0.4577,0.00812,0.0024,-0.1555
-1.8,0.4718,0.00806,0.00232,-0.1555
-1.7,0.4855,0.00803,0.00224,-0.1553
-1.6,0.4994,0.00799,0.00218,-0.1552
-1.5,0.5129,0.00797,0.00211,-0.1551
-1.4,0.5267,0.00795,0.00206,-0.155
-1.3,0.5401,0.00793,0.00201,-0.1548
-1.2,0.5537,0.00792,0.00197,-0.1547
-1.1,0.5671,0.00792,0.00193,-0.1545
-1,0.5806,0.00792,0.00189,-0.1544
-0.9,0.5943,0.0079,0.00185,-0.1543
-0.8,0.6076,0.00791,0.00183,-0.1542
-0.7,0.6212,0.00791,0.00182,-0.1541
-0.6,0.634,0.00796,0.0018,-0.1539
-0.5,0.6473,0.00798,0.00178,-0.1537
-0.4,0.6607,0.00799,0.00177,-0.1536
-0.3,0.6736,0.00803,0.00178,-0.1534
-0.2,0.6862,0.0081,0.00178,-0.1531
0,0.711,0.00827,0.00182,-0.1525
0.2,0.7363,0.00842,0.00187,-0.1521
0.3,0.7491,0.0085,0.0019,-0.1519
0.4,0.7618,0.00857,0.00192,-0.1517
0.5,0.7735,0.00872,0.00199,-0.1513
0.6,0.7856,0.00884,0.00205,-0.151
0.7,0.7981,0.00894,0.0021,-0.1507
0.8,0.8099,0.00909,0.00216,-0.1504
0.9,0.8222,0.0092,0.00222,-0.1501
1,0.8338,0.00937,0.0023,-0.1497
1.2,0.855,0.00989,0.00255,-0.1487
1.3,0.8663,0.01011,0.00266,-0.1483
1.4,0.8772,0.01035,0.00279,-0.1478
1.6,0.8994,0.01084,0.00304,-0.147
1.7,0.9115,0.011,0.00314,-0.1467
1.8,0.9239,0.01112,0.00323,-0.1464
1.9,0.9359,0.01128,0.00334,-0.1461
2,0.9485,0.01138,0.00342,-0.1459
2.1,0.9613,0.01146,0.0035,-0.1457
2.2,0.9739,0.01156,0.00359,-0.1454
2.3,0.9867,0.01164,0.00367,-0.1452
2.4,0.9996,0.01172,0.00374,-0.1449
2.5,1.0119,0.01185,0.00384,-0.1446
2.6,1.0248,0.01193,0.00392,-0.1444
2.7,1.0377,0.01201,0.004,-0.1442
2.8,1.0503,0.0121,0.0041,-0.1439
2.9,1.0632,0.01218,0.00418,-0.1436
3,1.0761,0.01226,0.00426,-0.1433
3.1,1.0889,0.01235,0.00435,-0.1431
3.2,1.1014,0.01246,0.00445,-0.1427
3.3,1.1143,0.01254,0.00454,-0.1424
3.4,1.1271,0.01262,0.00464,-0.1421
3.5,1.1398,0.01273,0.00476,-0.1418
3.6,1.1527,0.0128,0.00486,-0.1415
3.7,1.1656,0.01287,0.00496,-0.1412
3.9,1.1848,0.01184,0.00534,-0.1397
4,1.1976,0.01195,0.00544,-0.1393
4.1,1.2104,0.01207,0.00555,-0.1389
4.2,1.2231,0.0122,0.00566,-0.1385
4.3,1.2356,0.01234,0.00579,-0.138
4.4,1.2485,0.01245,0.00591,-0.1376
4.5,1.2612,0.01257,0.00603,-0.1371
4.6,1.2735,0.01273,0.00615,-0.1366
4.7,1.2861,0.01287,0.00629,-0.1362
4.8,1.2988,0.013,0.00644,-0.1357
4.9,1.3114,0.01313,0.00657,-0.1351
5,1.324,0.01328,0.00671,-0.1346
5.1,1.3363,0.01344,0.00686,-0.134
5.2,1.3489,0.01358,0.00702,-0.1335
5.3,1.3613,0.01374,0.00717,-0.1329
5.4,1.3737,0.01389,0.00732,-0.1323
5.5,1.3858,0.01407,0.00749,-0.1316
5.6,1.3983,0.01422,0.00766,-0.131
5.7,1.4108,0.01437,0.00783,-0.1303
5.8,1.4231,0.01454,0.008,-0.1297
5.9,1.4353,0.01472,0.00818,-0.1289
6,1.4472,0.01492,0.0084,-0.1282
6.1,1.4594,0.01508,0.00859,-0.1275
6.2,1.4716,0.01526,0.00878,-0.1267
6.3,1.4835,0.01546,0.00898,-0.1259
6.4,1.4952,0.01567,0.0092,-0.125
6.5,1.5072,0.01586,0.00942,-0.1242
6.6,1.5191,0.01605,0.00964,-0.1233
6.7,1.5309,0.01625,0.00986,-0.1224
6.8,1.5422,0.01649,0.0101,-0.1214
6.9,1.5535,0.01671,0.01036,-0.1204
7,1.5651,0.01692,0.0106,-0.1194
7.1,1.5765,0.01714,0.01086,-0.1184
7.2,1.5877,0.01737,0.01112,-0.1173
7.3,1.5986,0.01762,0.01141,-0.1162
7.4,1.6092,0.01789,0.0117,-0.115
7.5,1.6197,0.01815,0.01201,-0.1138
7.6,1.6303,0.0184,0.01232,-0.1125
7.7,1.6407,0.01867,0.01263,-0.1112
7.8,1.6501,0.01894,0.01296,-0.1098
7.9,1.6592,0.01922,0.01327,-0.1083
8,1.6679,0.01953,0.01363,-0.1068
8.1,1.6765,0.01986,0.01401,-0.1052
8.2,1.6849,0.0202,0.01441,-0.1036
8.3,1.6934,0.02054,0.01481,-0.102
8.4,1.7017,0.0209,0.01524,-0.1003
8.5,1.7098,0.02127,0.01569,-0.0987
8.6,1.7177,0.02167,0.01617,-0.097
8.7,1.7252,0.02209,0.01666,-0.0953
8.8,1.7325,0.02253,0.01719,-0.0936
8.9,1.7394,0.02299,0.01773,-0.0918
9,1.746,0.02349,0.01831,-0.0901
9.1,1.7527,0.02398,0.01887,-0.0884
9.2,1.7582,0.02456,0.01955,-0.0865
9.3,1.763,0.02518,0.02027,-0.0846
9.4,1.7671,0.02584,0.02105,-0.0827
9.5,1.7706,0.02657,0.02188,-0.0808
9.7,1.7793,0.02795,0.02345,-0.0773
9.8,1.7794,0.02891,0.02454,-0.0753
9.9,1.7786,0.02995,0.02572,-0.0735
10,1.7768,0.03107,0.02698,-0.0717
10.1,1.7742,0.03228,0.02832,-0.07
10.2,1.771,0.03356,0.02974,-0.0685
10.3,1.767,0.03492,0.03123,-0.0671
10.5,1.7572,0.03789,0.03446,-0.065
10.6,1.7517,0.03951,0.03621,-0.0643
10.7,1.7458,0.04122,0.03805,-0.0639
10.8,1.7386,0.04312,0.04006,-0.0638
11,1.7229,0.04726,0.04445,-0.0647
11.1,1.7149,0.04951,0.04682,-0.0656
11.3,1.6991,0.05443,0.05197,-0.0689
11.4,1.6914,0.05712,0.05478,-0.0712
11.6,1.6766,0.06306,0.06093,-0.0773
12.6,1.6037,0.10084,0.09931,-0.1174
12.9,1.583,0.11148,0.10999,-0.1283
13.1,1.5705,0.11847,0.117,-0.1355
13.2,1.5644,0.12194,0.12049,-0.139
13.4,1.5534,0.12897,0.12753,-0.1462
13.6,1.5429,0.13604,0.13461,-0.1533
13.7,1.5389,0.13941,0.13799,-0.1565
13.8,1.5346,0.14292,0.14151,-0.16
13.9,1.5307,0.14638,0.14498,-0.1634
14,1.5272,0.14978,0.14838,-0.1667
14.1,1.5248,0.15303,0.15163,-0.1697
14.2,1.5231,0.1561,0.1547,-0.1726
14.3,1.5225,0.15896,0.15757,-0.1752
14.4,1.5228,0.16162,0.16023,-0.1776
14.5,1.5243,0.16395,0.16256,-0.1797
14.6,1.5262,0.1662,0.16482,-0.1818
14.7,1.5239,0.16967,0.16828,-0.185
14.9,1.5215,0.1763,0.17492,-0.1909
15,1.5214,0.17937,0.17799,-0.1935
15.1,1.5223,0.18218,0.18081,-0.196
15.2,1.5237,0.18482,0.18345,-0.1983
15.3,1.5256,0.18731,0.18594,-0.2004
15.4,1.5279,0.18966,0.18829,-0.2024
15.5,1.5305,0.19187,0.19051,-0.2044
15.6,1.5334,0.19396,0.1926,-0.2062
15.7,1.5364,0.19598,0.19462,-0.208
15.8,1.5397,0.19786,0.1965,-0.2098
15.9,1.5429,0.19975,0.19839,-0.2115
16,1.5437,0.20306,0.20169,-0.2141
16.1,1.5454,0.20602,0.20466,-0.2164
16.2,1.5477,0.20874,0.20738,-0.2185
16.3,1.5504,0.21129,0.20994,-0.2206
16.4,1.5533,0.21371,0.21236,-0.2225
16.5,1.5564,0.21604,0.21469,-0.2244
16.6,1.5596,0.21831,0.21697,-0.2262
16.7,1.563,0.22051,0.21917,-0.2281
16.8,1.5665,0.22265,0.22131,-0.2298
16.9,1.5701,0.22473,0.22339,-0.2316
17,1.5737,0.22677,0.22543,-0.2333
17.1,1.5774,0.22876,0.22743,-0.235
17.3,1.5849,0.23304,0.23171,-0.2386
17.4,1.588,0.23601,0.23468,-0.2407
17.5,1.5914,0.23867,0.23734,-0.2426
17.6,1.595,0.24119,0.23986,-0.2445
17.7,1.5986,0.24359,0.24227,-0.2463
17.8,1.6024,0.24596,0.24463,-0.2481
17.9,1.6062,0.24827,0.24695,-0.2499
18,1.6101,0.25054,0.24922,-0.2517
18.1,1.614,0.25277,0.25145,-0.2534
18.2,1.6179,0.25497,0.25365,-0.2551
18.3,1.6218,0.25713,0.25582,-0.2569
18.4,1.6258,0.25928,0.25797,-0.2586
18.5,1.6298,0.26139,0.26008,-0.2603
18.6,1.6337,0.26348,0.26217,-0.262
18.7,1.6377,0.26557,0.26426,-0.2637
18.8,1.6417,0.26762,0.26632,-0.2654
18.9,1.6457,0.26967,0.26837,-0.2671
19,1.6496,0.27167,0.27038,-0.2688
19.1,1.6536,0.27367,0.27238,-0.2705
19.2,1.6575,0.27566,0.27437,-0.2722
19.3,1.6614,0.27762,0.27633,-0.2739
19.4,1.6653,0.27962,0.27833,-0.2756
19.5,1.6692,0.28217,0.28087,-0.2775
19.6,1.6734,0.28554,0.28425,-0.2796
19.7,1.6775,0.28843,0.28714,-0.2815
19.8,1.6817,0.29118,0.28989,-0.2834
19.9,1.6858,0.29379,0.2925,-0.2852
20,1.6899,0.29635,0.29506,-0.2871
20.1,1.694,0.2988,0.29751,-0.2889
20.2,1.6981,0.30127,0.29999,-0.2907
20.3,1.7022,0.30368,0.3024,-0.2926
20.4,1.7063,0.30607,0.3048,-0.2944
20.5,1.7104,0.30846,0.30718,-0.2962
20.6,1.7145,0.31079,0.30952,-0.298
20.7,1.7186,0.31317,0.3119,-0.2998
20.8,1.7227,0.31548,0.31421,-0.3016
20.9,1.7268,0.31782,0.31657,-0.3035
21,1.7308,0.32014,0.31889,-0.3053
21.2,1.739,0.32466,0.32341,-0.309
21.3,1.743,0.32691,0.32567,-0.3108
21.4,1.747,0.32916,0.32793,-0.3127
21.5,1.751,0.3314,0.33016,-0.3145
21.6,1.755,0.33361,0.33238,-0.3163
21.7,1.7589,0.33584,0.33461,-0.3182
21.8,1.7629,0.33805,0.33683,-0.32
21.9,1.7668,0.34027,0.33904,-0.3219
22,1.7707,0.34246,0.34124,-0.3238
22.1,1.7746,0.34468,0.34346,-0.3256
22.2,1.7785,0.34687,0.34566,-0.3275
22.3,1.7823,0.34903,0.34782,-0.3294
22.4,1.7862,0.35121,0.35,-0.3312
22.5,1.79,0.35341,0.3522,-0.3331
22.6,1.7938,0.35557,0.35437,-0.335
22.7,1.7976,0.35776,0.35656,-0.3369
22.8,1.8013,0.35993,0.35874,-0.3389
22.9,1.8059,0.36343,0.36223,-0.341
23,1.811,0.36752,0.36632,-0.3433
23.1,1.8153,0.37064,0.36944,-0.3454
23.2,1.8196,0.37361,0.37241,-0.3474
23.3,1.8237,0.37634,0.37515,-0.3495
23.4,1.8279,0.37921,0.37802,-0.3515
23.5,1.832,0.38191,0.38072,-0.3536
23.6,1.836,0.38459,0.3834,-0.3556
23.7,1.84,0.38726,0.38608,-0.3576
23.8,1.844,0.38989,0.38871,-0.3597
23.9,1.848,0.39252,0.39135,-0.3617
24,1.852,0.39516,0.39399,-0.3638
24.1,1.8559,0.39775,0.39658,-0.3658
24.2,1.8597,0.40032,0.39916,-0.3679
24.3,1.8637,0.40294,0.40179,-0.3699
24.4,1.8675,0.4055,0.40435,-0.372
24.5,1.8713,0.40807,0.40693,-0.374
24.6,1.8751,0.41065,0.40951,-0.3761
24.7,1.879,0.41322,0.41208,-0.3782
24.8,1.8827,0.41579,0.41465,-0.3803
24.9,1.8865,0.41836,0.41723,-0.3824
25,1.8903,0.42092,0.4198,-0.3844
25.1,1.894,0.42349,0.42236,-0.3865
25.2,1.8977,0.42606,0.42494,-0.3886
25.3,1.9014,0.42861,0.42749,-0.3907
25.4,1.905,0.43118,0.43006,-0.3929
25.5,1.9087,0.43374,0.43263,-0.395
25.6,1.9123,0.4363,0.43519,-0.3971
25.7,1.916,0.43887,0.43777,-0.3992
25.8,1.9195,0.44143,0.44033,-0.4014
25.9,1.9231,0.444,0.44291,-0.4035
26.1,1.93,0.44885,0.44776,-0.4078
26.2,1.9335,0.45138,0.45029,-0.41
26.3,1.937,0.45389,0.45281,-0.4122
26.4,1.9404,0.45642,0.45534,-0.4143
26.5,1.9438,0.45894,0.45787,-0.4165
26.6,1.9472,0.46142,0.46035,-0.4187
26.7,1.9506,0.46398,0.46291,-0.4209
26.8,1.9539,0.46648,0.46542,-0.4231
26.9,1.9573,0.46902,0.46796,-0.4253
27,1.9606,0.47157,0.47051,-0.4275
27.1,1.9639,0.47408,0.47304,-0.4297
27.2,1.9672,0.47663,0.47559,-0.4319
27.3,1.9724,0.4817,0.48066,-0.4346
27.4,1.9768,0.48575,0.48471,-0.4371
27.5,1.9808,0.48933,0.48829,-0.4395
27.6,1.9845,0.4925,0.49146,-0.4419
27.7,1.9883,0.49582,0.49478,-0.4442
27.8,1.9919,0.49896,0.49793,-0.4466
27.9,1.9954,0.50194,0.50091,-0.4489
28,1.9989,0.505,0.50397,-0.4513
28.1,2.0024,0.50805,0.50703,-0.4537
28.2,2.0059,0.51106,0.51004,-0.456
28.3,2.0093,0.51406,0.51304,-0.4584
28.4,2.0126,0.51703,0.51602,-0.4608
28.5,2.0159,0.51997,0.51896,-0.4631
28.6,2.0193,0.52294,0.52194,-0.4655
28.7,2.0225,0.52588,0.52487,-0.4679
28.8,2.0258,0.52885,0.52785,-0.4702
28.9,2.029,0.53176,0.53077,-0.4726
29,2.0322,0.53473,0.53374,-0.475
29.1,2.0354,0.53769,0.5367,-0.4774
29.2,2.0386,0.54062,0.53963,-0.4798
29.3,2.0417,0.54355,0.54257,-0.4822
29.4,2.0448,0.54649,0.54551,-0.4846
29.5,2.0479,0.54943,0.54846,-0.487
29.6,2.051,0.55238,0.55141,-0.4895
29.7,2.054,0.55533,0.55436,-0.4919
29.8,2.057,0.55826,0.55729,-0.4943
29.9,2.06,0.56121,0.56025,-0.4967
30,2.0629,0.56415,0.56319,-0.4992

