airfoilName st17.dat
Re 	570000
M 	5.000000e-01
N 	4.500000e+00
VACC 	0 VACCflag 1
XTR 	1.00 	1.00 XTRflag 0
alpha,cl,cd,cdp,cm
-30,-1.5422,0.56665,0.56471,0.3239
-29.9,-1.5384,0.56319,0.56125,0.3215
-29.8,-1.5347,0.55983,0.55788,0.3191
-29.7,-1.5309,0.55652,0.55457,0.3167
-29.6,-1.5272,0.55319,0.55124,0.3144
-29.5,-1.5234,0.5499,0.54794,0.312
-29.4,-1.5196,0.54665,0.54468,0.3096
-29.3,-1.5158,0.54344,0.54147,0.3073
-29.2,-1.512,0.54023,0.53826,0.305
-29.1,-1.5081,0.53708,0.5351,0.3026
-29,-1.5042,0.5339,0.53192,0.3003
-28.9,-1.5003,0.53078,0.5288,0.298
-28.8,-1.4965,0.52769,0.5257,0.2956
-28.7,-1.4926,0.52461,0.52262,0.2933
-28.6,-1.4887,0.52156,0.51957,0.291
-28.5,-1.4847,0.5185,0.51651,0.2887
-28.4,-1.4808,0.51549,0.5135,0.2865
-28.3,-1.4768,0.51246,0.51046,0.2842
-28.2,-1.4728,0.50949,0.50749,0.2819
-28.1,-1.4688,0.5065,0.5045,0.2796
-28,-1.4648,0.50354,0.50153,0.2774
-27.9,-1.4609,0.50101,0.49901,0.2751
-27.8,-1.4569,0.49807,0.49606,0.2729
-27.7,-1.4528,0.49512,0.49311,0.2706
-27.6,-1.4487,0.4922,0.49018,0.2684
-27.5,-1.4446,0.48928,0.48726,0.2662
-27.4,-1.4405,0.48638,0.48435,0.264
-27.3,-1.4364,0.48349,0.48147,0.2618
-27.2,-1.4323,0.48061,0.47858,0.2596
-27.1,-1.4282,0.47776,0.47573,0.2574
-27,-1.424,0.4749,0.47286,0.2552
-26.9,-1.4198,0.47207,0.47003,0.253
-26.8,-1.4157,0.46925,0.4672,0.2509
-26.7,-1.4115,0.46643,0.46438,0.2487
-26.6,-1.4072,0.46362,0.46157,0.2465
-26.5,-1.403,0.46084,0.45879,0.2444
-26.4,-1.3988,0.45807,0.45601,0.2423
-26.3,-1.3946,0.4553,0.45324,0.2401
-26.2,-1.3903,0.45254,0.45049,0.238
-26.1,-1.386,0.4498,0.44774,0.2359
-26,-1.3817,0.44707,0.445,0.2338
-25.9,-1.3774,0.44435,0.44228,0.2317
-25.8,-1.3731,0.44165,0.43958,0.2296
-25.7,-1.3687,0.43894,0.43687,0.2275
-25.6,-1.3644,0.43625,0.43418,0.2254
-25.5,-1.36,0.43358,0.43151,0.2233
-25.4,-1.3557,0.43092,0.42884,0.2213
-25.3,-1.3513,0.42827,0.42619,0.2192
-25.2,-1.3469,0.42564,0.42356,0.2172
-25.1,-1.3425,0.42301,0.42093,0.2151
-25,-1.3381,0.42039,0.41831,0.2131
-24.9,-1.3337,0.41779,0.4157,0.2111
-24.8,-1.3292,0.4152,0.41311,0.209
-24.7,-1.3248,0.41262,0.41053,0.207
-24.6,-1.3203,0.41006,0.40797,0.205
-24.5,-1.3158,0.4075,0.40541,0.203
-24.4,-1.3114,0.40496,0.40286,0.201
-24.3,-1.3069,0.40243,0.40033,0.1991
-24.2,-1.3024,0.39992,0.39781,0.1971
-24.1,-1.2979,0.39743,0.39532,0.1951
-24,-1.2933,0.39493,0.39282,0.1931
-23.9,-1.2888,0.39244,0.39033,0.1912
-23.8,-1.2842,0.38998,0.38787,0.1892
-23.7,-1.2797,0.38753,0.38541,0.1873
-23.6,-1.2751,0.38509,0.38297,0.1853
-23.5,-1.2705,0.38267,0.38055,0.1834
-23.4,-1.2659,0.38025,0.37813,0.1814
-23.3,-1.2613,0.37788,0.37575,0.1795
-23.2,-1.2567,0.37551,0.37338,0.1775
-23.1,-1.2521,0.37314,0.37101,0.1756
-23,-1.2474,0.37081,0.36869,0.1737
-22.9,-1.2427,0.36851,0.36638,0.1717
-22.8,-1.238,0.36619,0.36406,0.1698
-22.7,-1.2333,0.36392,0.36178,0.1679
-22.6,-1.2286,0.3617,0.35957,0.1659
-22.5,-1.2238,0.35948,0.35734,0.1639
-22.4,-1.219,0.35726,0.35512,0.162
-22.3,-1.2141,0.3551,0.35296,0.16
-21.9,-1.1926,0.34687,0.34474,0.1513
-21.8,-1.1881,0.3442,0.34207,0.1496
-21.7,-1.1835,0.34152,0.33939,0.1479
-21.6,-1.179,0.33893,0.3368,0.1463
-21.5,-1.1744,0.33634,0.3342,0.1446
-21.4,-1.1698,0.33379,0.33164,0.1429
-21.3,-1.1653,0.33126,0.32912,0.1413
-21.1,-1.1563,0.32654,0.3244,0.138
-21,-1.1516,0.32412,0.32197,0.1363
-20.9,-1.147,0.32171,0.31956,0.1347
-20.8,-1.1424,0.31932,0.31717,0.133
-20.7,-1.1377,0.31695,0.3148,0.1314
-20.6,-1.133,0.31459,0.31244,0.1298
-20.5,-1.1283,0.31226,0.3101,0.1282
-20.4,-1.1236,0.30994,0.30778,0.1265
-20.3,-1.1189,0.30763,0.30547,0.1249
-20.2,-1.1142,0.30535,0.30319,0.1233
-20.1,-1.1095,0.30308,0.30092,0.1217
-20,-1.1048,0.30082,0.29865,0.1202
-19.9,-1.1,0.29856,0.2964,0.1186
-19.8,-1.0953,0.29634,0.29417,0.117
-19.7,-1.0906,0.29411,0.29195,0.1154
-19.6,-1.0858,0.2919,0.28973,0.1139
-19.5,-1.0811,0.2897,0.28754,0.1123
-19.4,-1.0763,0.28751,0.28534,0.1108
-19.3,-1.0715,0.28533,0.28317,0.1092
-19.2,-1.0668,0.28316,0.28099,0.1077
-19.1,-1.062,0.28101,0.27884,0.1062
-19,-1.0572,0.27885,0.27668,0.1047
-18.9,-1.0524,0.27671,0.27454,0.1032
-18.8,-1.0476,0.27458,0.27241,0.1017
-18.7,-1.0428,0.27246,0.27028,0.1002
-18.6,-1.038,0.27034,0.26816,0.0987
-18.5,-1.0332,0.26824,0.26605,0.0972
-18.4,-1.0284,0.26614,0.26395,0.0957
-18.3,-1.0235,0.26405,0.26186,0.0943
-18.2,-1.0187,0.26197,0.25978,0.0928
-18.1,-1.0139,0.2599,0.25771,0.0914
-18,-1.009,0.25783,0.25564,0.0899
-17.9,-1.0042,0.25577,0.25358,0.0885
-17.8,-0.9993,0.25372,0.25153,0.0871
-17.7,-0.9945,0.25168,0.24949,0.0856
-17.6,-0.9896,0.24964,0.24745,0.0842
-17.5,-0.9847,0.24761,0.24542,0.0828
-17.4,-0.9798,0.24559,0.2434,0.0814
-17.3,-0.9749,0.24358,0.24139,0.08
-17.2,-0.97,0.24157,0.23938,0.0786
-17.1,-0.9651,0.23957,0.23738,0.0771
-17,-0.9601,0.23757,0.23538,0.0757
-16.9,-0.9551,0.23558,0.23339,0.0743
-16.8,-0.9501,0.2336,0.23141,0.0729
-16.7,-0.9451,0.23162,0.22943,0.0715
-16.6,-0.94,0.22964,0.22745,0.0701
-16.5,-0.935,0.22768,0.22549,0.0687
-16.4,-0.9299,0.22572,0.22353,0.0673
-16.3,-0.9248,0.22376,0.22156,0.0658
-16.2,-0.9197,0.22179,0.2196,0.0644
-16.1,-0.9145,0.21982,0.21763,0.063
-16,-0.9093,0.21783,0.21564,0.0616
-15.9,-0.9041,0.21583,0.21364,0.0601
-15.8,-0.8989,0.21379,0.21159,0.0587
-15.7,-0.8935,0.21168,0.20948,0.0573
-15.6,-0.8881,0.20953,0.20733,0.0558
-15.4,-0.8739,0.20512,0.20294,0.052
-15.3,-0.8693,0.20313,0.20094,0.0509
-15.2,-0.8648,0.20114,0.19895,0.0498
-15.1,-0.8603,0.19917,0.19698,0.0486
-15,-0.8562,0.19732,0.19513,0.0475
-14.9,-0.8515,0.19542,0.19324,0.0464
-14.8,-0.8468,0.19355,0.19136,0.0453
-14.7,-0.842,0.19169,0.18951,0.0441
-14.6,-0.8372,0.18985,0.18767,0.043
-14.5,-0.8324,0.18803,0.18584,0.0418
-14.4,-0.8276,0.18622,0.18404,0.0407
-14.3,-0.8227,0.18444,0.18226,0.0395
-14.2,-0.8179,0.18267,0.18049,0.0384
-14.1,-0.813,0.18092,0.17874,0.0372
-14,-0.8081,0.17918,0.177,0.0361
-13.9,-0.8031,0.17746,0.17528,0.035
-13.8,-0.7982,0.17575,0.17357,0.0339
-13.7,-0.7932,0.17405,0.17188,0.0327
-13.6,-0.7882,0.17237,0.17019,0.0316
-13.5,-0.7832,0.1707,0.16852,0.0305
-13.4,-0.7782,0.16904,0.16686,0.0294
-13.3,-0.7731,0.16739,0.16522,0.0283
-13.2,-0.768,0.16575,0.16357,0.0272
-13.1,-0.7629,0.16411,0.16194,0.0261
-13,-0.7578,0.16248,0.16031,0.0249
-12.9,-0.7526,0.16086,0.15869,0.0238
-12.8,-0.7474,0.15925,0.15707,0.0227
-12.7,-0.7423,0.15765,0.15547,0.0216
-12.6,-0.7371,0.15605,0.15388,0.0206
-12.5,-0.7319,0.15447,0.1523,0.0195
-12.4,-0.7266,0.15289,0.15072,0.0184
-12.3,-0.7214,0.15132,0.14915,0.0173
-12.2,-0.7162,0.14976,0.14759,0.0162
-12.1,-0.7109,0.14821,0.14605,0.0152
-12,-0.7057,0.14667,0.1445,0.0141
-11.9,-0.7004,0.14513,0.14297,0.0131
-11.8,-0.6951,0.1436,0.14144,0.012
-11.7,-0.6898,0.14207,0.13992,0.011
-11.6,-0.6845,0.14056,0.1384,0.0099
-11.5,-0.6792,0.13905,0.1369,0.0089
-11.4,-0.6738,0.13754,0.13539,0.0079
-11.3,-0.6685,0.13605,0.1339,0.0068
-11.2,-0.6632,0.13457,0.13242,0.0058
-11.1,-0.6579,0.13309,0.13095,0.0048
-11,-0.6527,0.13162,0.12949,0.0039
-10.9,-0.6474,0.13016,0.12803,0.0029
-10.8,-0.6421,0.12872,0.12659,0.0019
-10.7,-0.6371,0.12729,0.12517,0.001
-10.6,-0.6317,0.12583,0.12371,0
-10.5,-0.6266,0.1244,0.12229,-0.0009
-10.4,-0.6215,0.12298,0.12087,-0.0018
-10.3,-0.6165,0.12158,0.11947,-0.0026
-10.2,-0.6116,0.12018,0.11808,-0.0034
-10.1,-0.6069,0.11879,0.11669,-0.0042
-10,-0.6009,0.11684,0.11474,-0.0054
-9.9,-0.5964,0.11544,0.11336,-0.0061
-9.8,-0.5922,0.11412,0.11203,-0.0066
-9.7,-0.5883,0.11284,0.11077,-0.0071
-9.6,-0.5849,0.11166,0.1096,-0.0074
-9.4,-0.5767,0.10927,0.10725,-0.0085
-9.3,-0.5687,0.10764,0.10562,-0.0102
-9.2,-0.5606,0.10603,0.104,-0.0119
-9.1,-0.5524,0.10441,0.10237,-0.0137
-9,-0.5439,0.10279,0.10076,-0.0155
-8.9,-0.5352,0.10119,0.09915,-0.0174
-8.8,-0.5261,0.09958,0.09755,-0.0193
-8.7,-0.5177,0.09807,0.09603,-0.0211
-8.6,-0.509,0.09655,0.09451,-0.0229
-8.5,-0.5,0.09504,0.09299,-0.0248
-8.4,-0.4906,0.09353,0.09149,-0.0268
-8.3,-0.481,0.09204,0.08999,-0.0288
-8.2,-0.4731,0.09071,0.08866,-0.0303
-8.1,-0.4645,0.08935,0.0873,-0.032
-8,-0.4548,0.08793,0.08588,-0.034
-7.9,-0.4451,0.08654,0.08449,-0.036
-7.8,-0.4348,0.08515,0.08309,-0.0381
-7.7,-0.4276,0.08399,0.08193,-0.0394
-7.6,-0.419,0.08275,0.08069,-0.041
-7.5,-0.4095,0.08147,0.0794,-0.0429
-7.4,-0.3989,0.08013,0.07806,-0.045
-7.3,-0.3873,0.07876,0.07668,-0.0474
-7.2,-0.3785,0.07758,0.07549,-0.049
-7.1,-0.3681,0.07631,0.07421,-0.051
-7,-0.3569,0.07499,0.07289,-0.0532
-6.9,-0.345,0.07365,0.07153,-0.0556
-6.8,-0.3327,0.07229,0.07016,-0.058
-6.7,-0.3227,0.07108,0.06896,-0.0598
-6.6,-0.3115,0.06981,0.06768,-0.0619
-6.5,-0.2996,0.0685,0.06635,-0.0641
-6.4,-0.287,0.06715,0.06499,-0.0665
-6.3,-0.274,0.06578,0.0636,-0.0689
-6.2,-0.2623,0.06449,0.06231,-0.071
-6.1,-0.2498,0.06315,0.06096,-0.0732
-6,-0.2366,0.06178,0.05957,-0.0756
-5.9,-0.2229,0.06036,0.05814,-0.0781
-5.8,-0.2087,0.05892,0.05667,-0.0807
-5.7,-0.1956,0.05751,0.05524,-0.083
-5.6,-0.1813,0.05602,0.05373,-0.0855
-5.5,-0.1662,0.05445,0.05213,-0.0882
-5.4,-0.1504,0.05276,0.05041,-0.0912
-5.3,-0.1342,0.05091,0.04854,-0.0943
-5.2,-0.1154,0.04855,0.04615,-0.0983
-5.1,-0.0996,0.04728,0.04485,-0.1009
-5,-0.0834,0.04603,0.04357,-0.1034
-4.9,-0.0667,0.04478,0.04228,-0.106
-4.8,-0.05,0.04354,0.04102,-0.1085
-4.7,-0.0331,0.0423,0.03974,-0.111
-4.6,-0.0157,0.04103,0.03844,-0.1135
-4.5,0.002,0.03973,0.0371,-0.1161
-4.3,0.0389,0.03698,0.03425,-0.1214
-4.2,0.0578,0.03549,0.03272,-0.1241
-4.1,0.0778,0.03384,0.031,-0.1271
-4,0.0991,0.0319,0.02899,-0.1304
-3.9,0.1247,0.02885,0.02579,-0.1353
-3.8,0.154,0.02472,0.02144,-0.1416
-3.7,0.1731,0.0233,0.01993,-0.1437
-3.6,0.1933,0.02144,0.01794,-0.1463
-3.5,0.2237,0.01444,0.01022,-0.1541
-3.4,0.2412,0.01251,0.00789,-0.1559
-3.3,0.257,0.01161,0.00674,-0.1565
-3.2,0.2721,0.011,0.0059,-0.1567
-3.1,0.2871,0.01055,0.00531,-0.1569
-3,0.3018,0.01028,0.00495,-0.1569
-2.9,0.3162,0.01007,0.00466,-0.1568
-2.7,0.3448,0.00977,0.00421,-0.1567
-2.6,0.3592,0.00956,0.00394,-0.1566
-2.5,0.3735,0.00941,0.00375,-0.1566
-2.4,0.3878,0.0093,0.00359,-0.1565
-2.3,0.4018,0.00923,0.00349,-0.1564
-2.2,0.4158,0.00912,0.0033,-0.1563
-2.1,0.4301,0.00899,0.00313,-0.1562
-2,0.4437,0.00891,0.003,-0.156
-1.9,0.4575,0.00884,0.00289,-0.1559
-1.8,0.4713,0.00877,0.00278,-0.1558
-1.7,0.485,0.00872,0.00267,-0.1556
-1.6,0.4986,0.00868,0.0026,-0.1554
-1.5,0.5125,0.00862,0.00253,-0.1554
-1.4,0.5261,0.00858,0.00245,-0.1552
-1.3,0.5397,0.00855,0.00238,-0.1551
-1.2,0.5534,0.00853,0.00232,-0.155
-1.1,0.5669,0.00851,0.00225,-0.1548
-1,0.5807,0.00847,0.00221,-0.1547
-0.9,0.594,0.00847,0.00219,-0.1546
-0.8,0.6072,0.00847,0.00214,-0.1544
-0.7,0.6208,0.00846,0.00211,-0.1543
-0.6,0.6344,0.00844,0.00208,-0.1542
-0.5,0.6476,0.00846,0.00206,-0.154
-0.4,0.6605,0.00849,0.00204,-0.1538
-0.3,0.6739,0.0085,0.00203,-0.1536
-0.2,0.6872,0.00851,0.00202,-0.1535
-0.1,0.7002,0.00854,0.00202,-0.1533
0,0.713,0.00858,0.00201,-0.153
0.1,0.7261,0.00862,0.00201,-0.1529
0.2,0.7381,0.00872,0.00202,-0.1524
0.3,0.7508,0.00877,0.00205,-0.1522
0.4,0.7631,0.00887,0.00208,-0.1519
0.5,0.7757,0.00894,0.0021,-0.1516
0.6,0.7883,0.00902,0.00212,-0.1514
0.7,0.8009,0.00909,0.00216,-0.1511
0.8,0.811,0.00934,0.00226,-0.1504
0.9,0.8233,0.00944,0.0023,-0.1501
1,0.8355,0.00955,0.00237,-0.1498
1.1,0.847,0.0097,0.00245,-0.1494
1.2,0.8583,0.00988,0.00253,-0.1489
1.3,0.87,0.01004,0.00262,-0.1485
1.4,0.8797,0.01034,0.00275,-0.1478
1.5,0.8908,0.01054,0.00286,-0.1474
1.6,0.9015,0.01078,0.00299,-0.1469
1.7,0.912,0.01105,0.00313,-0.1463
1.8,0.9223,0.01133,0.00328,-0.1458
1.9,0.9331,0.01158,0.00343,-0.1453
2,0.9447,0.01178,0.00355,-0.1449
2.1,0.9558,0.01201,0.00369,-0.1445
2.2,0.9683,0.01212,0.00379,-0.1442
2.3,0.9806,0.01224,0.0039,-0.1439
2.4,0.9931,0.01234,0.004,-0.1436
2.5,1.0056,0.01244,0.0041,-0.1434
2.6,1.0181,0.01256,0.0042,-0.1431
2.8,1.0427,0.01279,0.00441,-0.1424
2.9,1.0555,0.01288,0.00451,-0.1421
3,1.0681,0.01297,0.0046,-0.1418
3.1,1.0806,0.01308,0.0047,-0.1415
3.2,1.0933,0.01316,0.00482,-0.1412
3.3,1.106,0.01325,0.00491,-0.1409
3.4,1.1186,0.01334,0.00503,-0.1406
3.5,1.1309,0.01345,0.00517,-0.1402
3.7,1.1493,0.01239,0.0055,-0.1385
3.8,1.1618,0.01252,0.00561,-0.1381
3.9,1.1743,0.01265,0.00574,-0.1377
4,1.1869,0.01277,0.00585,-0.1373
4.1,1.1992,0.01293,0.00597,-0.1368
4.2,1.2115,0.01308,0.00611,-0.1363
4.3,1.2241,0.0132,0.00623,-0.1359
4.4,1.2366,0.01333,0.00636,-0.1354
4.5,1.249,0.01348,0.0065,-0.1349
4.6,1.2612,0.01364,0.00664,-0.1344
4.7,1.2737,0.01377,0.00679,-0.1339
4.8,1.286,0.01393,0.00695,-0.1334
4.9,1.2982,0.01409,0.0071,-0.1328
5,1.3103,0.01425,0.00727,-0.1322
5.1,1.3227,0.0144,0.00742,-0.1316
5.2,1.335,0.01455,0.00758,-0.131
5.3,1.3471,0.01472,0.00775,-0.1304
5.4,1.359,0.0149,0.00793,-0.1298
5.5,1.3712,0.01507,0.00811,-0.1291
5.6,1.3832,0.01524,0.00829,-0.1284
5.7,1.3951,0.01542,0.00847,-0.1277
5.8,1.4068,0.01563,0.00867,-0.127
5.9,1.4188,0.0158,0.00888,-0.1262
6,1.4308,0.01598,0.00908,-0.1255
6.1,1.4425,0.01617,0.0093,-0.1247
6.2,1.4541,0.01638,0.00952,-0.1238
6.3,1.4654,0.0166,0.00975,-0.123
6.4,1.477,0.0168,0.00998,-0.1221
6.5,1.4884,0.01701,0.01021,-0.1212
6.6,1.4996,0.01724,0.01045,-0.1203
6.7,1.5105,0.01749,0.01072,-0.1193
6.8,1.5217,0.01771,0.01098,-0.1183
6.9,1.5327,0.01793,0.01125,-0.1172
7,1.5435,0.01817,0.01152,-0.1162
7.2,1.5641,0.01871,0.0121,-0.1139
7.3,1.5745,0.01897,0.01241,-0.1127
7.4,1.5844,0.01923,0.01274,-0.1114
7.5,1.5936,0.01951,0.01306,-0.11
7.6,1.6025,0.0198,0.01339,-0.1086
7.7,1.6113,0.02011,0.01375,-0.1071
7.8,1.6198,0.02045,0.01413,-0.1057
7.9,1.6282,0.02079,0.01453,-0.1042
8,1.6367,0.02113,0.01494,-0.1027
8.1,1.645,0.02149,0.01537,-0.1011
8.2,1.6531,0.02187,0.01582,-0.0996
8.3,1.6615,0.02223,0.01624,-0.0981
8.4,1.6692,0.02264,0.01672,-0.0965
8.5,1.6765,0.02308,0.01722,-0.0949
8.6,1.6833,0.02355,0.01776,-0.0933
8.7,1.6899,0.02404,0.01833,-0.0916
8.8,1.6963,0.02456,0.01894,-0.09
8.9,1.7023,0.0251,0.01958,-0.0883
9,1.7077,0.02568,0.02028,-0.0865
9.1,1.7127,0.0263,0.021,-0.0848
9.2,1.7173,0.02695,0.02175,-0.0831
9.3,1.7214,0.02764,0.02254,-0.0814
9.4,1.7273,0.02822,0.0232,-0.0798
9.5,1.7306,0.02898,0.02405,-0.0782
9.6,1.7322,0.02986,0.02505,-0.0764
9.7,1.7328,0.03083,0.02615,-0.0747
9.8,1.7327,0.03186,0.02732,-0.0731
9.9,1.7319,0.03297,0.02857,-0.0716
10,1.7304,0.03415,0.02988,-0.0701
10.1,1.7281,0.03541,0.03127,-0.0688
10.2,1.7252,0.03673,0.03273,-0.0677
10.3,1.7261,0.03782,0.03391,-0.0667
10.4,1.7228,0.03925,0.03547,-0.0659
10.5,1.7176,0.04089,0.03722,-0.0653
10.6,1.7112,0.04269,0.03917,-0.065
10.8,1.6975,0.04657,0.04332,-0.0654
10.9,1.6903,0.04871,0.04558,-0.0661
11.2,1.6698,0.05568,0.05292,-0.0703
11.4,1.6556,0.06122,0.05869,-0.0755
11.5,1.6487,0.06427,0.06185,-0.0788
11.8,1.6277,0.0749,0.07277,-0.0913
12.4,1.5779,0.09975,0.09794,-0.1175
12.5,1.5696,0.10365,0.10186,-0.1216
12.6,1.5614,0.10752,0.10575,-0.1256
12.7,1.5534,0.11138,0.10962,-0.1296
12.8,1.5457,0.11523,0.11347,-0.1336
12.9,1.5383,0.11907,0.11733,-0.1375
13,1.5312,0.12292,0.12119,-0.1415
13.1,1.5247,0.12673,0.125,-0.1453
13.4,1.5089,0.13777,0.13606,-0.1562
13.5,1.5057,0.14114,0.13943,-0.1594
13.6,1.5034,0.14431,0.1426,-0.1624
13.7,1.5024,0.14719,0.14549,-0.1651
13.8,1.5025,0.14983,0.14813,-0.1675
13.9,1.5037,0.15218,0.15049,-0.1697
14,1.5055,0.15435,0.15266,-0.1716
14.1,1.5082,0.15631,0.15462,-0.1734
14.2,1.5079,0.15908,0.15738,-0.176
14.3,1.5047,0.16281,0.16112,-0.1793
14.4,1.5028,0.1663,0.16461,-0.1823
14.5,1.5022,0.16947,0.16779,-0.1851
14.6,1.5027,0.17231,0.17063,-0.1875
14.7,1.5039,0.17495,0.17327,-0.1897
14.9,1.5101,0.17896,0.17729,-0.1933
15,1.5134,0.18078,0.17911,-0.1949
15.1,1.517,0.18249,0.18083,-0.1966
15.2,1.5177,0.18545,0.18378,-0.199
15.3,1.518,0.18876,0.18709,-0.2017
15.4,1.5195,0.19163,0.18996,-0.204
15.6,1.5241,0.19662,0.19496,-0.2081
15.7,1.5269,0.19888,0.19722,-0.21
15.8,1.53,0.20101,0.19936,-0.2118
15.9,1.5331,0.20306,0.20141,-0.2135
16,1.5365,0.20499,0.20335,-0.2152
16.1,1.54,0.20685,0.20521,-0.2169
16.2,1.5436,0.20863,0.207,-0.2185
16.3,1.5473,0.21035,0.20871,-0.2201
16.4,1.551,0.21202,0.21039,-0.2217
16.5,1.5532,0.2152,0.21356,-0.224
16.6,1.5557,0.21837,0.21673,-0.2262
16.7,1.5588,0.22102,0.21938,-0.2282
16.8,1.5621,0.22349,0.22185,-0.2301
16.9,1.5655,0.22586,0.22423,-0.2319
17,1.5691,0.22813,0.2265,-0.2337
17.1,1.5728,0.23034,0.22871,-0.2354
17.2,1.5765,0.23248,0.23086,-0.2371
17.3,1.5803,0.23457,0.23295,-0.2388
17.4,1.5841,0.23662,0.235,-0.2405
17.5,1.5879,0.23861,0.23701,-0.2422
17.6,1.5918,0.24057,0.23897,-0.2438
17.9,1.6035,0.24692,0.24531,-0.2491
18,1.6072,0.24985,0.24824,-0.2511
18.1,1.6111,0.25248,0.25088,-0.253
18.2,1.615,0.25498,0.25338,-0.2548
18.3,1.6189,0.25736,0.25576,-0.2566
18.4,1.6229,0.2597,0.2581,-0.2584
18.5,1.6269,0.262,0.26041,-0.2601
18.6,1.6309,0.26425,0.26266,-0.2619
18.7,1.635,0.26646,0.26487,-0.2636
18.8,1.639,0.26865,0.26706,-0.2653
18.9,1.643,0.27082,0.26923,-0.267
19,1.6471,0.27295,0.27137,-0.2687
19.1,1.6511,0.27506,0.27349,-0.2704
19.2,1.6551,0.27716,0.27558,-0.2721
19.3,1.6591,0.27922,0.27765,-0.2739
19.4,1.6631,0.2813,0.27973,-0.2756
19.5,1.6671,0.28334,0.28177,-0.2772
19.6,1.6711,0.28537,0.28381,-0.279
19.7,1.6751,0.2874,0.28584,-0.2807
19.8,1.6791,0.2894,0.28784,-0.2824
19.9,1.683,0.29138,0.28983,-0.2841
20,1.6869,0.29336,0.29181,-0.2858
20.1,1.6909,0.29536,0.29381,-0.2875
20.2,1.6947,0.29731,0.29576,-0.2892
20.3,1.6986,0.2993,0.29776,-0.291
20.4,1.7031,0.30266,0.30111,-0.293
20.5,1.7075,0.30594,0.3044,-0.2951
20.6,1.7118,0.30866,0.30712,-0.297
20.7,1.7161,0.31152,0.30998,-0.2989
20.8,1.7203,0.31405,0.31251,-0.3008
21,1.7287,0.31922,0.31769,-0.3046
21.1,1.7328,0.32168,0.32016,-0.3064
21.2,1.737,0.32416,0.32264,-0.3083
21.3,1.7411,0.3266,0.32509,-0.3102
21.4,1.7453,0.32902,0.32751,-0.312
21.5,1.7494,0.33143,0.32992,-0.3139
21.6,1.7535,0.33384,0.33233,-0.3158
21.7,1.7577,0.33632,0.33482,-0.3178
21.8,1.7617,0.33864,0.33715,-0.3197
21.9,1.7658,0.34096,0.33947,-0.3215
22,1.7698,0.34327,0.34178,-0.3234
22.1,1.7738,0.34557,0.34409,-0.3253
22.2,1.7777,0.34786,0.34638,-0.3272
22.3,1.7817,0.35014,0.34866,-0.329
22.4,1.7856,0.35242,0.35094,-0.3309
22.5,1.7896,0.35471,0.35324,-0.3328
22.6,1.7935,0.35697,0.3555,-0.3347
22.7,1.7974,0.35924,0.35778,-0.3366
22.8,1.8013,0.3615,0.36004,-0.3385
22.9,1.8052,0.36377,0.36231,-0.3405
23,1.809,0.36599,0.36454,-0.3424
23.1,1.8128,0.36825,0.36681,-0.3443
23.2,1.8166,0.37049,0.36905,-0.3462
23.3,1.8204,0.37276,0.37132,-0.3482
23.4,1.8242,0.37498,0.37354,-0.3501
23.5,1.8279,0.37723,0.37579,-0.3521
23.6,1.8316,0.37946,0.37803,-0.354
23.7,1.8353,0.38169,0.38027,-0.356
23.8,1.839,0.38393,0.38251,-0.3579
23.9,1.8437,0.38765,0.38622,-0.3602
24,1.8487,0.39164,0.39021,-0.3625
24.1,1.853,0.3948,0.39338,-0.3647
24.2,1.8571,0.39771,0.39629,-0.3668
24.3,1.8614,0.40079,0.39938,-0.369
24.4,1.8654,0.40358,0.40218,-0.3711
24.5,1.8694,0.40634,0.40494,-0.3732
24.6,1.8733,0.40914,0.40774,-0.3753
24.7,1.8773,0.4119,0.4105,-0.3774
24.8,1.8812,0.41461,0.41322,-0.3795
24.9,1.8851,0.41731,0.41593,-0.3816
25,1.8889,0.42003,0.41864,-0.3838
25.1,1.8928,0.42269,0.42131,-0.3859
25.2,1.8966,0.42537,0.42399,-0.388
25.3,1.9003,0.428,0.42663,-0.3901
25.4,1.9041,0.43067,0.4293,-0.3922
25.5,1.9078,0.43333,0.43197,-0.3944
25.6,1.9115,0.436,0.43464,-0.3965
25.7,1.9153,0.43867,0.43731,-0.3987
25.8,1.9189,0.44129,0.43994,-0.4008
25.9,1.9226,0.44396,0.44261,-0.403
26,1.9262,0.44661,0.44527,-0.4051
26.1,1.9299,0.44927,0.44793,-0.4073
26.2,1.9335,0.45192,0.45058,-0.4095
26.3,1.937,0.45457,0.45323,-0.4117
26.4,1.9405,0.45709,0.45577,-0.4139
26.5,1.9441,0.45971,0.45839,-0.4161
26.6,1.9475,0.46231,0.46099,-0.4183
26.7,1.951,0.46493,0.46362,-0.4205
26.8,1.9545,0.46754,0.46623,-0.4227
26.9,1.9579,0.47016,0.46886,-0.4249
27,1.9613,0.47278,0.47148,-0.4271
27.1,1.9647,0.47538,0.47408,-0.4294
27.2,1.9681,0.47799,0.47671,-0.4316
27.3,1.9714,0.48058,0.47931,-0.4338
27.4,1.9747,0.48319,0.48192,-0.4361
27.5,1.978,0.48579,0.48452,-0.4383
27.6,1.9813,0.48842,0.48715,-0.4406
27.7,1.9845,0.49098,0.48972,-0.4428
27.8,1.9878,0.4936,0.49234,-0.4451
27.9,1.991,0.49626,0.495,-0.4474
28,1.9942,0.49885,0.49761,-0.4496
28.1,1.9973,0.50148,0.50024,-0.4519
28.2,2.0005,0.5041,0.50286,-0.4542
28.4,2.0094,0.51285,0.5116,-0.4595
28.5,2.0132,0.51649,0.51524,-0.4619
28.6,2.0169,0.51992,0.51868,-0.4644
28.7,2.0205,0.52325,0.52202,-0.4669
28.8,2.0241,0.52658,0.52534,-0.4693
28.9,2.0274,0.52964,0.52841,-0.4717
29,2.0308,0.53288,0.53166,-0.4742
29.1,2.0342,0.53603,0.53481,-0.4766
29.2,2.0375,0.53912,0.5379,-0.479
29.3,2.0407,0.5422,0.54099,-0.4815
29.4,2.044,0.54526,0.54405,-0.4839
29.5,2.0472,0.54832,0.54712,-0.4864
29.6,2.0503,0.55138,0.55018,-0.4888
29.7,2.0535,0.55445,0.55326,-0.4913
29.8,2.0565,0.55745,0.55626,-0.4937
29.9,2.0596,0.56051,0.55932,-0.4962
30,2.0626,0.56351,0.56233,-0.4986

