airfoilName st18.dat
Re 	50000
M 	5.000000e-01
N 	4.500000e+00
VACC 	0 VACCflag 1
XTR 	1.00 	1.00 XTRflag 0
alpha,cl,cd,cdp,cm
-25.5,-1.3235,0.46889,0.46104,0.207
-25.4,-1.3192,0.46581,0.45794,0.205
-25.3,-1.3148,0.46272,0.45485,0.2031
-25.2,-1.3104,0.45964,0.45176,0.2011
-25.1,-1.3061,0.45661,0.44872,0.1991
-25,-1.3016,0.45353,0.4456,0.1971
-24.9,-1.2972,0.4505,0.44257,0.1952
-24.8,-1.2928,0.4475,0.43957,0.1932
-24.7,-1.2883,0.44451,0.43656,0.1913
-24.6,-1.2839,0.44153,0.43358,0.1894
-24.5,-1.2794,0.43857,0.43061,0.1874
-24.4,-1.275,0.43562,0.42766,0.1855
-24.3,-1.2705,0.4327,0.42473,0.1836
-24.2,-1.266,0.42978,0.4218,0.1817
-24.1,-1.2615,0.42688,0.4189,0.1798
-24,-1.257,0.42399,0.416,0.1779
-23.9,-1.2524,0.42111,0.41311,0.176
-23.8,-1.2479,0.41826,0.41025,0.1741
-23.7,-1.2433,0.41541,0.4074,0.1722
-23.6,-1.2387,0.4126,0.40458,0.1703
-23.5,-1.2341,0.40978,0.40175,0.1685
-23.4,-1.2295,0.40699,0.39896,0.1666
-23.3,-1.2249,0.4042,0.39617,0.1648
-23.2,-1.2203,0.40142,0.39338,0.1629
-23.1,-1.2156,0.39868,0.39063,0.1611
-23,-1.211,0.39594,0.38789,0.1592
-22.9,-1.2063,0.39321,0.38516,0.1574
-22.8,-1.2016,0.39051,0.38245,0.1556
-22.7,-1.1969,0.38781,0.37975,0.1538
-22.6,-1.1922,0.38514,0.37707,0.1519
-22.5,-1.1875,0.38247,0.3744,0.1501
-22.4,-1.1827,0.37984,0.37176,0.1483
-22.3,-1.1773,0.37782,0.3697,0.1461
-22.2,-1.1725,0.37521,0.36709,0.1443
-22.1,-1.1676,0.37262,0.36449,0.1425
-22,-1.1628,0.37003,0.3619,0.1407
-21.9,-1.1579,0.36746,0.35933,0.1388
-21.8,-1.153,0.36491,0.35677,0.137
-21.7,-1.148,0.36237,0.35423,0.1352
-21.6,-1.1431,0.35983,0.35168,0.1334
-21.5,-1.1381,0.35731,0.34916,0.1316
-21.4,-1.1331,0.35478,0.34663,0.1298
-21.3,-1.128,0.35227,0.34411,0.128
-21.2,-1.123,0.34977,0.34161,0.1262
-21.1,-1.1179,0.34727,0.3391,0.1244
-21,-1.1127,0.34476,0.3366,0.1226
-20.9,-1.1075,0.34225,0.33408,0.1207
-20.8,-1.1022,0.33974,0.33157,0.1189
-19,-1.0122,0.29577,0.28758,0.0897
-18.9,-1.0075,0.29348,0.28528,0.0883
-18.8,-1.0028,0.29119,0.28299,0.0869
-18.7,-0.9981,0.28892,0.28072,0.0855
-18.6,-0.9934,0.28665,0.27845,0.0841
-18.5,-0.9887,0.28441,0.27621,0.0827
-18.4,-0.984,0.28217,0.27396,0.0813
-18.3,-0.9793,0.27994,0.27174,0.08
-18.2,-0.9745,0.27772,0.26952,0.0786
-18.1,-0.9698,0.27552,0.26731,0.0773
-18,-0.9651,0.27333,0.26512,0.0759
-17.9,-0.9604,0.27114,0.26293,0.0746
-17.8,-0.9556,0.26897,0.26075,0.0732
-17.7,-0.9509,0.2668,0.25859,0.0719
-17.6,-0.9461,0.26465,0.25643,0.0706
-17.5,-0.9414,0.2625,0.25429,0.0693
-17.4,-0.9366,0.26037,0.25216,0.068
-17.3,-0.9319,0.25825,0.25003,0.0667
-17.2,-0.9271,0.25614,0.24792,0.0654
-17.1,-0.9223,0.25403,0.24582,0.0641
-17,-0.9176,0.25194,0.24372,0.0628
-16.9,-0.9128,0.24986,0.24164,0.0616
-16.8,-0.908,0.24779,0.23957,0.0603
-16.7,-0.9032,0.24573,0.23751,0.0591
-16.6,-0.8984,0.24368,0.23546,0.0578
-16.5,-0.8936,0.24163,0.23341,0.0566
-16.4,-0.8888,0.2396,0.23134,0.0553
-16.3,-0.884,0.23757,0.22931,0.0541
-16.2,-0.8792,0.23557,0.22731,0.0528
-16.1,-0.8739,0.2338,0.22555,0.0514
-16,-0.869,0.23181,0.22356,0.0502
-15.9,-0.8641,0.22983,0.22158,0.049
-15.8,-0.8593,0.22785,0.2196,0.0477
-15.6,-0.8495,0.22393,0.21568,0.0453
-15.5,-0.8445,0.22198,0.21373,0.0441
-15.4,-0.8396,0.22004,0.2118,0.0429
-15.3,-0.8347,0.21811,0.20987,0.0417
-15.2,-0.8297,0.21619,0.20795,0.0405
-15.1,-0.8248,0.21428,0.20605,0.0393
-15,-0.8198,0.21237,0.20414,0.0381
-14.9,-0.8148,0.21048,0.20224,0.0369
-14.8,-0.8097,0.20859,0.20036,0.0357
-14.7,-0.8046,0.20671,0.19848,0.0345
-14.6,-0.7995,0.20484,0.19661,0.0332
-14.5,-0.7944,0.20297,0.19475,0.032
-14.4,-0.7891,0.20111,0.19289,0.0308
-14.3,-0.7838,0.19927,0.19106,0.0295
-14.2,-0.7783,0.19743,0.18922,0.0282
-13.9,-0.7603,0.19223,0.1841,0.0236
-13.8,-0.7559,0.19041,0.18228,0.0227
-13.7,-0.7515,0.1886,0.18048,0.0218
-13.6,-0.7471,0.18682,0.1787,0.0209
-13.5,-0.7427,0.18506,0.17694,0.02
-13.4,-0.7383,0.18331,0.17521,0.0191
-13.3,-0.7338,0.18159,0.17344,0.0182
-13.2,-0.7294,0.17987,0.17174,0.0173
-13.1,-0.7249,0.17817,0.17004,0.0164
-13,-0.7204,0.17649,0.16836,0.0155
-12.9,-0.7159,0.17482,0.1667,0.0146
-12.8,-0.7114,0.17316,0.16505,0.0137
-12.7,-0.7068,0.17152,0.16341,0.0128
-12.6,-0.7023,0.16988,0.16178,0.012
-12.5,-0.6978,0.16826,0.16017,0.0111
-12.4,-0.6933,0.16665,0.15856,0.0103
-12.3,-0.6887,0.16505,0.15697,0.0094
-12.2,-0.6842,0.16347,0.1554,0.0086
-12.1,-0.6796,0.1619,0.15384,0.0077
-12,-0.6751,0.16034,0.15228,0.0069
-11.9,-0.6706,0.1588,0.15075,0.0061
-11.8,-0.666,0.15726,0.14922,0.0052
-11.7,-0.6615,0.15574,0.1477,0.0044
-11.6,-0.657,0.15422,0.1462,0.0036
-11.5,-0.6524,0.15272,0.14471,0.0028
-11.4,-0.6479,0.15123,0.14323,0.002
-11.3,-0.6434,0.14975,0.14176,0.0012
-11.2,-0.6389,0.14828,0.1403,0.0005
-11.1,-0.6344,0.14683,0.13886,-0.0003
-11,-0.6299,0.14539,0.13743,-0.0011
-10.9,-0.6254,0.14396,0.13601,-0.0018
-10.7,-0.6164,0.14113,0.13321,-0.0033
-10.6,-0.6121,0.13975,0.13185,-0.004
-10.5,-0.6077,0.13838,0.13049,-0.0047
-10.4,-0.6033,0.13702,0.12911,-0.0054
-10.3,-0.5989,0.13567,0.12778,-0.0061
-10.2,-0.5946,0.13434,0.12646,-0.0068
-10.1,-0.5903,0.13302,0.12516,-0.0075
-10,-0.5844,0.13205,0.12421,-0.0089
-9.9,-0.5801,0.13079,0.12297,-0.0097
-9.8,-0.5757,0.12955,0.12175,-0.0104
-9.7,-0.5713,0.12836,0.12057,-0.0112
-9.6,-0.5669,0.12721,0.11945,-0.0121
-9.5,-0.5623,0.12615,0.11842,-0.0131
-9.4,-0.5571,0.12534,0.11764,-0.0145
-9.3,-0.5542,0.12409,0.11647,-0.0147
-9.2,-0.5515,0.12284,0.11524,-0.0148
-9.1,-0.5488,0.12163,0.11406,-0.0149
-9,-0.5463,0.12047,0.11292,-0.0151
-8.9,-0.5439,0.11933,0.11181,-0.0151
-8.8,-0.5416,0.11823,0.11073,-0.0152
-8.7,-0.5395,0.11716,0.10969,-0.0152
-8.6,-0.5375,0.11611,0.10867,-0.0152
-8.5,-0.5356,0.1151,0.10769,-0.0151
-8.4,-0.534,0.11411,0.10674,-0.015
-7.9,-0.5286,0.10958,0.10238,-0.0139
-7.8,-0.5281,0.10875,0.10158,-0.0136
-7.7,-0.5275,0.10791,0.10079,-0.0133
-7.6,-0.5267,0.10706,0.09997,-0.013
-7.5,-0.5254,0.10616,0.0991,-0.0129
-7.4,-0.5239,0.10525,0.09823,-0.0128
-7.3,-0.5225,0.10434,0.09735,-0.0127
-7.2,-0.521,0.10343,0.09648,-0.0127
-7.1,-0.5194,0.10253,0.09561,-0.0126
-7,-0.5179,0.10162,0.09474,-0.0126
-6.9,-0.5162,0.10072,0.09386,-0.0126
-6.8,-0.5145,0.09981,0.09296,-0.0126
-6.7,-0.5128,0.0989,0.09208,-0.0126
-6.6,-0.5109,0.09799,0.0912,-0.0126
-6.5,-0.5089,0.09706,0.0903,-0.0127
-6.4,-0.5067,0.09613,0.0894,-0.0129
-6.3,-0.5044,0.09519,0.08848,-0.013
-6,-0.4961,0.09228,0.08565,-0.0138
-5.9,-0.4929,0.09128,0.08467,-0.0142
-5.8,-0.4848,0.08997,0.08337,-0.0158
-5.7,-0.4692,0.08821,0.08159,-0.0191
-5.6,-0.4542,0.08653,0.07988,-0.0224
-5.5,-0.4375,0.0848,0.07811,-0.0261
-5.4,-0.418,0.08297,0.07624,-0.0308
-5.3,-0.401,0.08121,0.07452,-0.0346
-5.2,-0.3893,0.07966,0.07295,-0.0365
-5.1,-0.3753,0.07804,0.07131,-0.0389
-5,-0.3628,0.07655,0.06979,-0.0409
-4.8,-0.337,0.07388,0.06709,-0.0452
-4.7,-0.3223,0.07238,0.06556,-0.0477
-4.6,-0.3052,0.07077,0.06392,-0.0507
-4.5,-0.2883,0.06921,0.06232,-0.0537
-4.4,-0.2726,0.06772,0.06076,-0.0563
-4.3,-0.2573,0.06626,0.05926,-0.0588
-4.2,-0.2385,0.06464,0.05759,-0.0622
-4.1,-0.2182,0.06296,0.05585,-0.0659
-3.9,-0.1667,0.05897,0.05172,-0.0762
-3.8,-0.15,0.05758,0.05029,-0.0784
-3.6,-0.1227,0.05519,0.04783,-0.0815
-3.5,-0.1068,0.05395,0.04654,-0.0835
-3.4,-0.0879,0.05261,0.04514,-0.0861
-3.1,-0.0028,0.04684,0.03889,-0.1012
-3,0.0127,0.04583,0.03786,-0.1027
-2.8,0.0433,0.04392,0.03582,-0.1053
-2.7,0.0596,0.04293,0.03477,-0.1069
-2.5,0.101,0.04053,0.03213,-0.1118
-2.3,0.1535,0.03713,0.02822,-0.1192
-2.2,0.1687,0.0369,0.028,-0.12
-2.1,0.1901,0.03595,0.02691,-0.1222
-2,0.213,0.0348,0.02552,-0.1247
-1.9,0.24,0.03319,0.02348,-0.1282
-1.8,0.2488,0.03284,0.02313,-0.1277
-1.7,0.2642,0.03236,0.02261,-0.1283
-1.6,0.2819,0.03177,0.02187,-0.1295
-1.5,0.3052,0.03081,0.02045,-0.1318
-1.4,0.3215,0.03044,0.02009,-0.1326
-1.3,0.3406,0.02997,0.01954,-0.1338
-1.2,0.3606,0.02939,0.01872,-0.1353
-1.1,0.3811,0.0288,0.01788,-0.1368
-0.9,0.4048,0.02847,0.01741,-0.1365
-0.8,0.4229,0.02808,0.01685,-0.1374
-0.7,0.4399,0.02783,0.0166,-0.1382
-0.6,0.4581,0.02755,0.01619,-0.1392
-0.4,0.4851,0.02731,0.0158,-0.1394
-0.3,0.5013,0.02712,0.01541,-0.1399
-0.2,0.5172,0.02691,0.01527,-0.1405
-0.1,0.5356,0.0267,0.015,-0.1414
0,0.5538,0.02653,0.01474,-0.1423
0.2,0.5774,0.02645,0.01464,-0.1419
0.3,0.5934,0.0263,0.01451,-0.1424
0.4,0.6108,0.0262,0.01434,-0.1432
0.5,0.6283,0.02602,0.01423,-0.144
0.7,0.6516,0.02597,0.0142,-0.1435
0.8,0.6678,0.02585,0.01413,-0.144
0.9,0.686,0.02569,0.01398,-0.1448
1,0.7037,0.02554,0.01394,-0.1457
1.1,0.7098,0.02557,0.01406,-0.1445
1.2,0.7255,0.02543,0.014,-0.1448
1.3,0.7423,0.02529,0.01395,-0.1455
1.4,0.7599,0.02512,0.01392,-0.1462
1.5,0.767,0.02506,0.01409,-0.1453
1.6,0.7824,0.02493,0.01412,-0.1457
1.7,0.8002,0.02468,0.0141,-0.1464
1.8,0.809,0.02448,0.0141,-0.1453
1.9,0.8154,0.02383,0.01347,-0.1419
2,0.8224,0.02395,0.01354,-0.1404
2.1,0.8335,0.02395,0.01347,-0.1394
2.2,0.8482,0.02394,0.01342,-0.1391
2.3,0.8578,0.02405,0.01351,-0.1382
2.4,0.868,0.02396,0.01338,-0.1368
2.5,0.8837,0.02384,0.01322,-0.1364
2.6,0.8909,0.02404,0.01343,-0.1352
2.7,0.9006,0.02405,0.01341,-0.134
2.8,0.9159,0.02401,0.01337,-0.1337
2.9,0.9246,0.02416,0.01355,-0.1327
3,0.9345,0.02414,0.01355,-0.1314
3.1,0.944,0.02427,0.0137,-0.1304
3.2,0.9549,0.02435,0.01381,-0.1296
3.3,0.9664,0.0244,0.01388,-0.1288
3.4,0.9762,0.02439,0.01388,-0.1274
3.5,0.9891,0.0244,0.01392,-0.1267
3.6,1.0044,0.02431,0.01386,-0.1262
3.7,1.0202,0.02422,0.01379,-0.1257
3.8,1.0402,0.02386,0.01342,-0.1253
3.9,1.062,0.02357,0.01311,-0.1253
4,1.0841,0.02331,0.01282,-0.1253
4.1,1.108,0.023,0.01234,-0.1251
4.2,1.1247,0.02306,0.01232,-0.1246
4.3,1.1384,0.02325,0.01239,-0.1238
4.4,1.1487,0.02359,0.01246,-0.1224
4.5,1.1587,0.02397,0.01274,-0.1214
4.6,1.1682,0.02439,0.01306,-0.1203
4.7,1.1774,0.02484,0.01343,-0.1193
4.8,1.1865,0.02531,0.01383,-0.1183
4.9,1.1927,0.02591,0.01424,-0.1169
5,1.2019,0.02641,0.0147,-0.116
5.1,1.211,0.02695,0.01518,-0.115
5.2,1.2206,0.02748,0.01569,-0.1142
5.3,1.2301,0.02804,0.01621,-0.1133
5.5,1.2468,0.02925,0.01732,-0.1114
5.6,1.2566,0.02986,0.01789,-0.1106
5.7,1.2672,0.03043,0.0186,-0.1099
5.8,1.2775,0.03107,0.01924,-0.1092
5.9,1.2882,0.03168,0.01991,-0.1085
6,1.2946,0.03233,0.0205,-0.1074
6.1,1.3051,0.03295,0.02125,-0.1067
6.2,1.3152,0.03364,0.02196,-0.1059
6.3,1.3255,0.03432,0.02272,-0.1052
6.4,1.3356,0.03503,0.02355,-0.1044
6.6,1.3502,0.03637,0.02502,-0.1023
6.7,1.3596,0.03712,0.02581,-0.1015
6.8,1.3686,0.03792,0.02674,-0.1006
6.9,1.3772,0.03875,0.02773,-0.0998
7,1.3859,0.03959,0.02865,-0.0989
7.1,1.3948,0.04044,0.0295,-0.098
7.2,1.3956,0.04111,0.0304,-0.0964
7.3,1.403,0.04196,0.03136,-0.0954
7.4,1.4092,0.04295,0.03249,-0.0944
7.5,1.4142,0.04403,0.03379,-0.0933
7.6,1.4193,0.04507,0.03498,-0.0922
7.7,1.4246,0.04606,0.03607,-0.0912
7.8,1.4307,0.04702,0.03706,-0.0901
7.9,1.4316,0.04829,0.03852,-0.0889
8,1.4312,0.04955,0.04,-0.0875
8.1,1.4271,0.05008,0.0406,-0.0857
8.2,1.4301,0.05109,0.04165,-0.0845
8.3,1.4286,0.05243,0.04311,-0.0833
8.5,1.4215,0.05546,0.04653,-0.0813
8.6,1.4182,0.05695,0.04818,-0.0805
8.7,1.4151,0.05844,0.04979,-0.0798
8.8,1.4124,0.05992,0.05138,-0.0791
8.9,1.4102,0.06136,0.05291,-0.0785
9,1.409,0.06275,0.05437,-0.0779
9.1,1.4093,0.06405,0.05572,-0.0773
9.2,1.4045,0.06577,0.05749,-0.0772
9.3,1.3951,0.06799,0.05986,-0.0778
9.5,1.3772,0.07263,0.06476,-0.0799
9.6,1.369,0.07508,0.06732,-0.0814
9.7,1.3614,0.07757,0.0699,-0.0831
10.1,1.3526,0.08468,0.07718,-0.0874
10.2,1.3455,0.08769,0.0802,-0.0905
10.3,1.3369,0.09134,0.08393,-0.0949
10.6,1.3217,0.10159,0.09433,-0.1066
10.7,1.3203,0.10444,0.09721,-0.1095
10.8,1.3202,0.10696,0.09976,-0.1118
10.9,1.3212,0.10915,0.10198,-0.1135
11,1.3232,0.11103,0.10388,-0.1147
11.1,1.3259,0.1126,0.10547,-0.1154
11.2,1.3294,0.11385,0.10675,-0.1156
11.4,1.3272,0.12051,0.11339,-0.1228
11.5,1.3264,0.12395,0.11684,-0.1266
11.7,1.3286,0.1292,0.12212,-0.1317
11.8,1.3307,0.13136,0.1243,-0.1334
11.9,1.3345,0.13203,0.12499,-0.1339
12,1.338,0.13337,0.12635,-0.1343
12.1,1.3419,0.13449,0.1275,-0.1343
12.3,1.3422,0.14151,0.13448,-0.1426
12.4,1.3441,0.14417,0.13715,-0.1453
12.5,1.3465,0.14653,0.13952,-0.1475
12.6,1.3493,0.14869,0.14169,-0.1493
12.7,1.3523,0.15068,0.14371,-0.1509
12.8,1.3556,0.15254,0.14564,-0.1522
12.9,1.359,0.15428,0.1474,-0.1533
13,1.3625,0.15591,0.14905,-0.1541
13.1,1.3661,0.15744,0.1506,-0.1548
13.2,1.3699,0.15885,0.15204,-0.1552
13.3,1.3736,0.16016,0.15338,-0.1554
13.4,1.3741,0.16474,0.15786,-0.1634
13.5,1.3774,0.16697,0.1601,-0.1654
13.6,1.3809,0.16905,0.1622,-0.1672
13.7,1.3844,0.17102,0.16419,-0.1687
13.8,1.3881,0.17289,0.16608,-0.1701
13.9,1.3917,0.17468,0.16789,-0.1713
14,1.3955,0.17639,0.16962,-0.1724
14.1,1.3992,0.17803,0.17128,-0.1734
14.2,1.403,0.1796,0.17287,-0.1742
14.3,1.4068,0.18111,0.17439,-0.1748
14.4,1.4105,0.18254,0.17585,-0.1753
14.5,1.4139,0.18532,0.17856,-0.1784
14.6,1.4176,0.18811,0.18136,-0.1816
14.7,1.4214,0.19057,0.18383,-0.1841
14.8,1.4254,0.19283,0.1861,-0.1862
14.9,1.4293,0.19476,0.18803,-0.1889
15,1.4333,0.19664,0.18993,-0.1904
15.1,1.4373,0.19847,0.19177,-0.1917
15.2,1.4413,0.20024,0.19356,-0.193
15.3,1.4453,0.20196,0.1953,-0.1941
15.4,1.4493,0.20364,0.197,-0.1952
15.5,1.4532,0.20528,0.19865,-0.1961
15.6,1.4571,0.20687,0.20026,-0.197
15.7,1.4609,0.20844,0.20185,-0.1977
15.8,1.4652,0.21127,0.20461,-0.2009
15.9,1.4697,0.21392,0.20727,-0.2037
16,1.4741,0.21632,0.20967,-0.206
16.1,1.4785,0.21858,0.21194,-0.2081
16.2,1.4829,0.22075,0.21412,-0.2099
16.3,1.4872,0.22284,0.21623,-0.2117
16.4,1.4915,0.22488,0.21828,-0.2133

