airfoilName st19.dat
Re 	1.700000e+05
M 	5.000000e-01
N 	4.500000e+00
VACC 	0 VACCflag 1
XTR 	1.00 	1.00 XTRflag 0
alpha,cl,cd,cdp,cm
-30,-1.496,0.60128,0.59748,0.3127
-29.9,-1.4923,0.59755,0.59373,0.3104
-29.8,-1.4887,0.59377,0.58995,0.3081
-29.7,-1.485,0.59015,0.58632,0.3057
-29.6,-1.4813,0.58648,0.58265,0.3034
-29.5,-1.4776,0.58289,0.57905,0.3011
-29.4,-1.4738,0.57926,0.57542,0.2988
-29.3,-1.4701,0.57565,0.57181,0.2965
-29.2,-1.4663,0.57208,0.56823,0.2942
-29.1,-1.4625,0.5685,0.56464,0.2919
-29,-1.4587,0.56499,0.56113,0.2896
-28.9,-1.4549,0.5615,0.55763,0.2874
-28.8,-1.4511,0.55804,0.55415,0.2851
-28.7,-1.4473,0.55462,0.55073,0.2828
-28.6,-1.4434,0.55111,0.54721,0.2806
-28.5,-1.4396,0.54808,0.54417,0.2783
-28.4,-1.4357,0.54468,0.54076,0.2761
-28.3,-1.4317,0.54131,0.53739,0.2738
-28.2,-1.4278,0.53799,0.53407,0.2716
-28.1,-1.4239,0.53468,0.53075,0.2694
-28,-1.4199,0.53139,0.52745,0.2671
-27.9,-1.4159,0.52813,0.52419,0.2649
-27.8,-1.4119,0.5249,0.52095,0.2627
-27.7,-1.4079,0.52164,0.51768,0.2605
-27.6,-1.4039,0.51841,0.51446,0.2583
-27.5,-1.3998,0.51523,0.51127,0.2561
-27.4,-1.3958,0.51208,0.50811,0.2539
-27.3,-1.3917,0.50895,0.50498,0.2517
-27.2,-1.3876,0.50579,0.50181,0.2495
-27.1,-1.3835,0.50266,0.49867,0.2474
-27,-1.3794,0.49959,0.4956,0.2452
-26.9,-1.3752,0.49653,0.49254,0.2431
-26.8,-1.3711,0.4935,0.4895,0.2409
-26.7,-1.3669,0.49046,0.48646,0.2388
-26.6,-1.3627,0.48746,0.48345,0.2366
-26.5,-1.3585,0.48448,0.48047,0.2345
-26.4,-1.3543,0.48152,0.4775,0.2324
-26.3,-1.3501,0.47857,0.47455,0.2302
-26.2,-1.3459,0.47563,0.47159,0.2281
-26.1,-1.3416,0.47273,0.46869,0.226
-26,-1.3373,0.46983,0.46578,0.2239
-25.9,-1.3331,0.46697,0.46292,0.2218
-25.8,-1.3288,0.46411,0.46005,0.2197
-25.7,-1.3245,0.46127,0.45721,0.2176
-25.6,-1.3201,0.45847,0.45441,0.2155
-25.5,-1.3158,0.45568,0.45161,0.2135
-25.4,-1.3115,0.45292,0.44884,0.2114
-25.3,-1.3071,0.45016,0.44608,0.2093
-25.2,-1.3027,0.44743,0.44335,0.2073
-25.1,-1.2983,0.44471,0.44063,0.2052
-25,-1.2939,0.44205,0.43796,0.2032
-24.9,-1.2895,0.43935,0.43526,0.2011
-24.8,-1.2851,0.4367,0.43261,0.1991
-24.7,-1.2806,0.43407,0.42997,0.1971
-24.6,-1.2761,0.43148,0.42738,0.195
-24.5,-1.2716,0.4289,0.4248,0.193
-24.4,-1.2671,0.42634,0.42223,0.1909
-24.3,-1.2626,0.4238,0.41969,0.1889
-24.2,-1.258,0.4213,0.41719,0.1869
-24.1,-1.2535,0.4188,0.41468,0.1849
-24,-1.2489,0.41636,0.41224,0.1828
-23.9,-1.2443,0.4139,0.40978,0.1808
-23.8,-1.2396,0.41155,0.40742,0.1787
-23.7,-1.2349,0.40912,0.40499,0.1767
-23.6,-1.2302,0.40683,0.4027,0.1746
-23.5,-1.2254,0.40459,0.40046,0.1726
-23.4,-1.2206,0.40232,0.39817,0.1705
-23.3,-1.2157,0.40006,0.3959,0.1684
-23.2,-1.2107,0.39793,0.39378,0.1662
-23.1,-1.2056,0.39581,0.39165,0.164
-23,-1.2005,0.3936,0.38944,0.1618
-21.6,-1.1321,0.3566,0.35244,0.1355
-21.5,-1.1276,0.35399,0.34983,0.1338
-21.4,-1.1231,0.3514,0.34724,0.1322
-21.3,-1.1185,0.34883,0.34466,0.1305
-21.2,-1.114,0.34626,0.34209,0.1289
-21.1,-1.1094,0.34371,0.33953,0.1272
-21,-1.1048,0.34116,0.33699,0.1256
-20.9,-1.1002,0.33863,0.33445,0.124
-20.8,-1.0956,0.33611,0.33193,0.1224
-20.7,-1.091,0.3336,0.32941,0.1208
-20.6,-1.0864,0.3311,0.32692,0.1192
-20.4,-1.0771,0.32654,0.32233,0.1159
-20.3,-1.0725,0.32407,0.31985,0.1144
-20.2,-1.0678,0.32161,0.31739,0.1128
-20.1,-1.0632,0.31916,0.31494,0.1112
-20,-1.0585,0.31672,0.3125,0.1097
-19.9,-1.0539,0.31428,0.31006,0.1082
-19.8,-1.0492,0.31187,0.30764,0.1067
-19.7,-1.0446,0.30946,0.30523,0.1051
-19.6,-1.0399,0.30706,0.30283,0.1036
-19.5,-1.0352,0.30467,0.30044,0.1022
-19.4,-1.0305,0.3023,0.29806,0.1007
-19.3,-1.0259,0.29993,0.29569,0.0992
-19.2,-1.0212,0.29759,0.29334,0.0977
-19.1,-1.0165,0.29524,0.291,0.0962
-19,-1.0118,0.29291,0.28867,0.0948
-18.9,-1.0071,0.2906,0.28635,0.0933
-18.8,-1.0024,0.28828,0.28403,0.0919
-18.7,-0.9977,0.28599,0.28174,0.0905
-18.6,-0.993,0.28371,0.27946,0.089
-18.5,-0.9883,0.28143,0.27718,0.0876
-18.4,-0.9836,0.27917,0.27492,0.0862
-18.3,-0.9789,0.27692,0.27266,0.0848
-18.2,-0.9741,0.27469,0.27043,0.0834
-18.1,-0.9694,0.27247,0.26821,0.082
-18,-0.9647,0.27025,0.266,0.0806
-17.9,-0.9599,0.26805,0.26379,0.0792
-17.8,-0.9552,0.26587,0.26161,0.0779
-17.7,-0.9504,0.2637,0.25944,0.0765
-17.6,-0.9457,0.26154,0.25727,0.0751
-17.5,-0.9409,0.25939,0.25512,0.0738
-17.4,-0.9361,0.25725,0.25297,0.0724
-17.3,-0.9313,0.25512,0.25084,0.0711
-17.2,-0.9265,0.25301,0.24872,0.0697
-17.1,-0.9217,0.2509,0.24662,0.0684
-17,-0.9169,0.24881,0.24453,0.067
-16.9,-0.912,0.24673,0.24245,0.0657
-16.8,-0.9072,0.24466,0.24037,0.0643
-16.7,-0.9023,0.2426,0.23832,0.063
-16.6,-0.8974,0.24055,0.23626,0.0616
-16.5,-0.8925,0.23852,0.23424,0.0603
-16.4,-0.8876,0.2365,0.23221,0.059
-16.3,-0.8827,0.23448,0.23019,0.0576
-16.2,-0.8777,0.23247,0.22818,0.0563
-16.1,-0.8728,0.23047,0.22618,0.055
-16,-0.8678,0.22847,0.22419,0.0537
-15.9,-0.8628,0.22648,0.2222,0.0523
-15.8,-0.8578,0.22448,0.2202,0.051
-15.7,-0.8528,0.22249,0.21821,0.0497
-15.6,-0.8477,0.22049,0.21621,0.0484
-15.5,-0.8426,0.21849,0.21421,0.047
-15.4,-0.8375,0.21647,0.21219,0.0457
-15.3,-0.8324,0.21444,0.21016,0.0444
-15.2,-0.8271,0.21237,0.20809,0.0431
-15.1,-0.8217,0.21024,0.20596,0.0418
-15,-0.8161,0.20806,0.20378,0.0404
-14.8,-0.8024,0.20349,0.19926,0.037
-14.7,-0.7981,0.20157,0.19734,0.036
-14.6,-0.7938,0.19966,0.19542,0.0349
-14.5,-0.7894,0.19777,0.19354,0.0339
-14.4,-0.785,0.1959,0.19166,0.0329
-14.3,-0.7806,0.19404,0.1898,0.0319
-14.2,-0.7762,0.19219,0.18794,0.0308
-14.1,-0.7718,0.19036,0.18611,0.0298
-14,-0.7673,0.18855,0.18429,0.0288
-13.9,-0.7628,0.18675,0.1825,0.0278
-13.8,-0.7583,0.18496,0.18071,0.0268
-13.7,-0.7538,0.18319,0.17894,0.0258
-13.6,-0.7493,0.18172,0.17748,0.0247
-13.5,-0.7447,0.17997,0.17573,0.0237
-13.4,-0.7401,0.17824,0.174,0.0226
-13.3,-0.7355,0.17651,0.17227,0.0216
-13.2,-0.7308,0.1748,0.17056,0.0206
-13.1,-0.7262,0.1731,0.16886,0.0197
-13,-0.7215,0.1714,0.16717,0.0187
-12.9,-0.7168,0.16972,0.16549,0.0177
-12.8,-0.7122,0.16804,0.16382,0.0167
-12.7,-0.7075,0.16638,0.16216,0.0157
-12.6,-0.7027,0.16473,0.16051,0.0148
-12.5,-0.6981,0.16309,0.15887,0.0138
-12.4,-0.6933,0.16146,0.15724,0.0129
-12.3,-0.6886,0.15984,0.15562,0.0119
-12.2,-0.6839,0.15823,0.15402,0.011
-12.1,-0.6792,0.15663,0.15242,0.0101
-12,-0.6745,0.15504,0.15084,0.0092
-11.9,-0.6698,0.15347,0.14927,0.0083
-11.8,-0.6651,0.1519,0.14771,0.0074
-11.7,-0.6604,0.15035,0.14616,0.0065
-11.6,-0.6557,0.1488,0.14462,0.0056
-11.5,-0.651,0.14727,0.14309,0.0047
-11.4,-0.6463,0.14574,0.14157,0.0038
-11.3,-0.6416,0.14423,0.14006,0.003
-11.2,-0.6369,0.14273,0.13855,0.0021
-11.1,-0.6323,0.14123,0.13706,0.0013
-11,-0.6276,0.13976,0.13559,0.0005
-10.9,-0.623,0.13829,0.13413,-0.0003
-10.8,-0.6184,0.13683,0.13268,-0.0011
-10.6,-0.6093,0.13396,0.12982,-0.0027
-10.5,-0.6048,0.13254,0.12841,-0.0034
-10.4,-0.6004,0.13114,0.12701,-0.0042
-10.3,-0.596,0.12974,0.12563,-0.0049
-10.2,-0.5916,0.12836,0.12426,-0.0056
-10.1,-0.5874,0.127,0.12291,-0.0062
-10,-0.5832,0.12566,0.12157,-0.0069
-9.9,-0.5792,0.12432,0.12025,-0.0075
-9.8,-0.5752,0.12301,0.11895,-0.008
-9.7,-0.5714,0.12172,0.11767,-0.0085
-9.6,-0.5678,0.12045,0.11641,-0.009
-9.5,-0.5644,0.1192,0.11517,-0.0094
-9.4,-0.5612,0.11798,0.11397,-0.0098
-9.3,-0.5582,0.11678,0.11278,-0.0101
-9.2,-0.5553,0.11559,0.11161,-0.0103
-9.1,-0.5527,0.11443,0.11047,-0.0105
-9,-0.5503,0.11326,0.10932,-0.0107
-8.9,-0.5481,0.11215,0.10823,-0.0108
-8.8,-0.5459,0.11102,0.10712,-0.0109
-8.7,-0.544,0.10996,0.10609,-0.011
-8.6,-0.5428,0.10903,0.10521,-0.0109
-8.5,-0.5431,0.1082,0.10442,-0.0104
-8.4,-0.5438,0.10742,0.10366,-0.0097
-8.3,-0.545,0.10671,0.10297,-0.0089
-8.2,-0.5467,0.10605,0.10234,-0.0081
-8.1,-0.5482,0.10538,0.1017,-0.0072
-8,-0.54,0.10382,0.10014,-0.009
-7.9,-0.5317,0.1023,0.09862,-0.0108
-7.8,-0.5223,0.10099,0.09731,-0.0129
-7.7,-0.5133,0.09948,0.09577,-0.0149
-7.6,-0.5051,0.09804,0.09432,-0.0166
-7.5,-0.4964,0.09658,0.09287,-0.0185
-7.4,-0.4869,0.09509,0.09137,-0.0205
-7.3,-0.4763,0.09351,0.08979,-0.0228
-7.2,-0.4652,0.09191,0.08817,-0.0252
-7.1,-0.455,0.09038,0.08665,-0.0273
-7,-0.4446,0.08889,0.08515,-0.0295
-6.9,-0.4335,0.08737,0.08362,-0.0318
-6.8,-0.4217,0.08582,0.08206,-0.0343
-6.7,-0.4093,0.08424,0.08047,-0.037
-6.6,-0.3975,0.08272,0.07895,-0.0394
-6.5,-0.3887,0.08142,0.07764,-0.041
-6.4,-0.3777,0.07998,0.0762,-0.0432
-6.3,-0.3646,0.07841,0.07462,-0.0459
-6.2,-0.3514,0.07686,0.07306,-0.0486
-6.1,-0.3374,0.07528,0.07147,-0.0514
-6,-0.3227,0.07367,0.06984,-0.0544
-5.9,-0.3131,0.07238,0.06854,-0.0561
-5.8,-0.302,0.07101,0.06717,-0.0581
-5.5,-0.2569,0.06618,0.06227,-0.067
-5.4,-0.2399,0.06445,0.06051,-0.0704
-5.3,-0.2217,0.0626,0.05864,-0.0742
-5.2,-0.2099,0.0611,0.05712,-0.0763
-5.1,-0.1922,0.05904,0.05503,-0.08
-5,-0.176,0.0574,0.05339,-0.0831
-4.9,-0.16,0.05598,0.05194,-0.0858
-4.8,-0.1437,0.0546,0.05054,-0.0886
-4.7,-0.1267,0.05323,0.04914,-0.0914
-4.6,-0.1089,0.05184,0.04772,-0.0944
-4.5,-0.0905,0.05045,0.0463,-0.0974
-4.4,-0.0813,0.04949,0.04532,-0.0981
-4.3,-0.0645,0.04817,0.04397,-0.1007
-4.2,-0.0463,0.0468,0.04256,-0.1035
-4,-0.0058,0.04382,0.03949,-0.1099
-3.9,0.0157,0.04221,0.03782,-0.1134
-3.8,0.0397,0.04036,0.03587,-0.1175
-3.7,0.0705,0.03711,0.0325,-0.1239
-3.6,0.0833,0.03624,0.03159,-0.1249
-3.5,0.1005,0.0352,0.0305,-0.1268
-3.4,0.1198,0.03403,0.02926,-0.1291
-3.2,0.1613,0.03134,0.02641,-0.1343
-2.9,0.2403,0.02373,0.01813,-0.1468
-2.8,0.2584,0.02305,0.01737,-0.1481
-2.7,0.2709,0.02233,0.01655,-0.1483
-2.6,0.2901,0.02085,0.0148,-0.1502
-2.5,0.3131,0.0184,0.01175,-0.1531
-2.4,0.3286,0.01801,0.01132,-0.1536
-2.3,0.3447,0.01763,0.01086,-0.1541
-2.2,0.3615,0.0171,0.01017,-0.1548
-2.1,0.3794,0.01641,0.00926,-0.1557
-2,0.3962,0.016,0.00868,-0.1564
-1.9,0.4089,0.0158,0.00844,-0.1562
-1.8,0.4215,0.01556,0.00812,-0.1559
-1.7,0.4366,0.01523,0.00767,-0.1561
-1.6,0.4522,0.01487,0.00713,-0.1565
-1.4,0.4835,0.01462,0.00688,-0.1571
-1.3,0.4998,0.01437,0.00652,-0.1575
-1.2,0.5097,0.01426,0.00638,-0.1568
-1.1,0.5236,0.01416,0.00629,-0.1568
-1,0.5382,0.01404,0.00614,-0.1569
-0.9,0.5536,0.01394,0.00596,-0.1571
-0.8,0.5692,0.01381,0.00585,-0.1575
-0.7,0.582,0.01374,0.00578,-0.1573
-0.6,0.5942,0.01369,0.0057,-0.157
-0.5,0.6082,0.01358,0.00556,-0.1569
-0.4,0.6227,0.01357,0.00559,-0.1571
-0.3,0.638,0.01346,0.00545,-0.1573
-0.2,0.6498,0.01339,0.00538,-0.1568
-0.1,0.6634,0.0133,0.00531,-0.1567
0,0.6792,0.01315,0.00513,-0.1569
0.2,0.7048,0.01308,0.00508,-0.1563
0.3,0.719,0.013,0.00498,-0.1563
0.4,0.7314,0.01298,0.00498,-0.156
0.5,0.7465,0.01286,0.00486,-0.1561
0.6,0.7594,0.01284,0.00486,-0.1559
0.7,0.7724,0.01283,0.00489,-0.1557
0.8,0.7864,0.01273,0.00477,-0.1554
0.9,0.7997,0.01271,0.00475,-0.1553
1,0.8141,0.01264,0.00472,-0.1553
1.1,0.827,0.01262,0.00471,-0.155
1.2,0.8417,0.01254,0.00462,-0.155
1.3,0.8544,0.01253,0.00466,-0.1547
1.4,0.8686,0.01247,0.00462,-0.1546
1.5,0.8818,0.01246,0.00463,-0.1544
1.6,0.8955,0.01241,0.00456,-0.1541
1.7,0.9092,0.01236,0.00452,-0.1539
1.8,0.9228,0.01234,0.00448,-0.1536
1.9,0.9364,0.0123,0.00449,-0.1534
2,0.9497,0.01228,0.00444,-0.153
2.1,0.963,0.01227,0.00445,-0.1527
2.2,0.976,0.01226,0.00446,-0.1524
2.3,0.9887,0.01225,0.00449,-0.152
2.4,0.9916,0.01127,0.00442,-0.1493
2.5,1.0031,0.01142,0.00445,-0.1486
2.6,1.0123,0.0117,0.0045,-0.1473
2.7,1.0221,0.01196,0.00464,-0.1464
2.8,1.0312,0.01226,0.00477,-0.1453
2.9,1.0396,0.0126,0.00494,-0.1441
3,1.0472,0.01299,0.00515,-0.1429
3.2,1.0584,0.01405,0.00569,-0.14
3.3,1.0666,0.01445,0.00595,-0.139
3.4,1.0756,0.01482,0.00619,-0.1381
3.5,1.0852,0.01515,0.00643,-0.1374
3.6,1.0953,0.01546,0.00668,-0.1366
3.7,1.1044,0.01583,0.00695,-0.1358
3.8,1.1148,0.01612,0.0072,-0.1351
3.9,1.1257,0.01637,0.00743,-0.1345
4,1.1362,0.01665,0.00768,-0.1338
4.1,1.1472,0.01688,0.00791,-0.1331
4.2,1.1577,0.01716,0.00817,-0.1324
4.3,1.1682,0.01744,0.00846,-0.1317
4.4,1.1789,0.01771,0.00872,-0.131
4.5,1.19,0.01794,0.00896,-0.1303
4.6,1.2005,0.01822,0.00923,-0.1296
4.7,1.2116,0.01846,0.0095,-0.1289
4.8,1.2215,0.01876,0.00976,-0.1281
4.9,1.2328,0.019,0.01003,-0.1274
5,1.2435,0.01927,0.01031,-0.1266
5.1,1.2539,0.01956,0.0106,-0.1258
5.2,1.2649,0.01982,0.0109,-0.125
5.3,1.2754,0.02011,0.01121,-0.1241
5.4,1.2857,0.02039,0.01148,-0.1233
5.5,1.296,0.02069,0.0118,-0.1224
5.6,1.3062,0.021,0.01214,-0.1215
5.7,1.3168,0.0213,0.01249,-0.1206
5.8,1.3269,0.02163,0.0129,-0.1197
5.9,1.3366,0.02198,0.01327,-0.1187
6,1.3468,0.02228,0.01359,-0.1178
6.1,1.3561,0.02265,0.01398,-0.1167
6.2,1.3663,0.02301,0.01442,-0.1157
6.3,1.3761,0.02339,0.01487,-0.1146
6.4,1.3853,0.02379,0.01532,-0.1135
6.5,1.3937,0.02422,0.01577,-0.1123
6.6,1.4033,0.02467,0.01632,-0.1111
6.7,1.4124,0.02502,0.01672,-0.11
6.8,1.4198,0.02548,0.01722,-0.1086
6.9,1.4279,0.02597,0.0178,-0.1072
7,1.4361,0.02651,0.01845,-0.1059
7.1,1.4438,0.02706,0.0191,-0.1045
7.2,1.4509,0.02763,0.01977,-0.103
7.3,1.4575,0.02821,0.02044,-0.1015
7.4,1.4631,0.02884,0.02117,-0.1
7.5,1.4712,0.02944,0.02191,-0.0987
7.6,1.4773,0.03016,0.02276,-0.0971
7.7,1.4826,0.0309,0.02362,-0.0956
7.8,1.4871,0.03166,0.0245,-0.094
7.9,1.4908,0.03244,0.02538,-0.0923
8,1.4939,0.03334,0.02637,-0.0907
8.1,1.4974,0.03445,0.02768,-0.0891
8.2,1.4995,0.0356,0.02902,-0.0875
8.3,1.5023,0.03649,0.03008,-0.086
8.4,1.5027,0.03758,0.03132,-0.0844
8.5,1.5023,0.03869,0.03257,-0.0829
8.6,1.5013,0.03983,0.03384,-0.0814
8.7,1.4995,0.04101,0.03514,-0.08
8.9,1.4927,0.04394,0.03836,-0.0776
9.1,1.4822,0.04737,0.04214,-0.0758
9.3,1.4697,0.05106,0.04614,-0.075
9.5,1.4558,0.05505,0.05041,-0.0752
10.1,1.4115,0.07004,0.0661,-0.085
10.9,1.3657,0.10136,0.09794,-0.1198
11.1,1.3597,0.1084,0.105,-0.1265
11.2,1.3577,0.11156,0.10817,-0.1294
11.3,1.3565,0.11455,0.11116,-0.1321
11.4,1.3559,0.11735,0.11396,-0.1346
11.5,1.3561,0.12,0.11661,-0.137
11.8,1.3617,0.12631,0.12288,-0.1431
11.9,1.3597,0.12991,0.12649,-0.1461
12,1.3587,0.13331,0.12989,-0.149
12.1,1.3586,0.13643,0.13301,-0.1516
12.2,1.359,0.13937,0.13595,-0.154
12.3,1.36,0.1421,0.13868,-0.1562
12.4,1.3614,0.14469,0.14128,-0.1583
12.5,1.3632,0.14716,0.14374,-0.1603
12.6,1.3654,0.1495,0.14609,-0.1622
12.7,1.3677,0.15172,0.14832,-0.1639
12.8,1.3703,0.15384,0.15044,-0.1656
12.9,1.3731,0.15586,0.15247,-0.1672
13,1.376,0.15778,0.15439,-0.1687
13.2,1.3826,0.16133,0.15792,-0.1722
13.3,1.3843,0.16453,0.16111,-0.1746
13.4,1.3865,0.16736,0.16395,-0.1767
13.5,1.3891,0.16999,0.16657,-0.1787
13.6,1.392,0.17245,0.16904,-0.1806
13.7,1.395,0.17478,0.17137,-0.1824
13.8,1.3982,0.17701,0.17361,-0.1841
13.9,1.4014,0.17914,0.17575,-0.1857
14,1.4048,0.1812,0.1778,-0.1873
14.1,1.4082,0.18318,0.17978,-0.1888
14.2,1.4117,0.18509,0.18171,-0.1903
14.3,1.4152,0.18694,0.18356,-0.1918
14.4,1.4187,0.18872,0.18534,-0.1932
14.5,1.4223,0.19045,0.1871,-0.1945
14.6,1.4258,0.19212,0.18878,-0.1959
14.7,1.4294,0.19372,0.19039,-0.1971
14.8,1.4329,0.19527,0.19194,-0.1984
14.9,1.4363,0.19708,0.19372,-0.1998
15.1,1.4437,0.20362,0.20026,-0.2045
15.2,1.4476,0.20626,0.2029,-0.2064
15.3,1.4519,0.20927,0.20591,-0.2089
15.4,1.4558,0.21131,0.20796,-0.2105
15.5,1.4597,0.21331,0.20996,-0.212
15.6,1.4636,0.21526,0.21192,-0.2135
15.7,1.4676,0.21718,0.21384,-0.215
15.8,1.4715,0.21906,0.21573,-0.2165
15.9,1.4754,0.2209,0.21756,-0.218
16,1.4794,0.22271,0.21938,-0.2194
16.1,1.4833,0.22449,0.22116,-0.2208
16.2,1.4872,0.22622,0.2229,-0.2222
16.3,1.4911,0.22792,0.22461,-0.2236
16.4,1.4949,0.22959,0.22627,-0.225
16.5,1.4987,0.23123,0.22792,-0.2264
16.6,1.5034,0.23462,0.23128,-0.2286
16.7,1.5079,0.23763,0.2343,-0.2307
16.8,1.5124,0.24023,0.2369,-0.2325
16.9,1.5168,0.24271,0.23938,-0.2343
17,1.5211,0.2451,0.24177,-0.236
17.1,1.5255,0.24741,0.24408,-0.2377
17.2,1.5297,0.24965,0.24633,-0.2394
17.3,1.5341,0.25186,0.24855,-0.241
17.4,1.5383,0.25404,0.25073,-0.2426
17.5,1.5426,0.25619,0.25288,-0.2443
17.6,1.5469,0.25832,0.25501,-0.2459
17.7,1.5511,0.26043,0.25712,-0.2475
17.8,1.5554,0.26251,0.25921,-0.249
17.9,1.5596,0.26458,0.26129,-0.2506
18,1.5638,0.26664,0.26336,-0.2522
18.1,1.568,0.26869,0.26541,-0.2538
18.2,1.5723,0.27072,0.26744,-0.2554
18.3,1.5764,0.27275,0.2695,-0.257
18.4,1.5806,0.27474,0.2715,-0.2586
18.5,1.5848,0.27673,0.27349,-0.2601
18.6,1.5889,0.27871,0.27548,-0.2617
18.7,1.593,0.28068,0.27746,-0.2633
18.8,1.5971,0.28264,0.27941,-0.2649
18.9,1.6012,0.28459,0.28137,-0.2664
19,1.6052,0.28649,0.28328,-0.268
19.1,1.6092,0.28843,0.28522,-0.2696
19.2,1.6132,0.29034,0.28714,-0.2711
19.3,1.6205,0.29602,0.29278,-0.2747
19.4,1.625,0.29844,0.29521,-0.2764
19.5,1.6294,0.30081,0.29758,-0.2782
19.6,1.6338,0.30322,0.29999,-0.28
19.7,1.6382,0.30556,0.30234,-0.2817
19.8,1.6425,0.30789,0.30468,-0.2834
19.9,1.6469,0.31022,0.30701,-0.2852
20,1.6512,0.31254,0.30933,-0.287
20.1,1.6556,0.31484,0.31164,-0.2887
20.2,1.6599,0.31715,0.31395,-0.2905
20.3,1.6642,0.31945,0.31626,-0.2922
20.4,1.6685,0.32174,0.31856,-0.294
20.5,1.6727,0.32405,0.32087,-0.2957
20.6,1.677,0.32633,0.32316,-0.2975
20.7,1.6812,0.32863,0.32546,-0.2993
20.8,1.6855,0.33092,0.32776,-0.301
20.9,1.6897,0.33321,0.33006,-0.3028
21,1.6939,0.33551,0.33235,-0.3046
21.1,1.6981,0.3378,0.33466,-0.3064
21.2,1.7023,0.34009,0.33695,-0.3082
21.3,1.7065,0.34239,0.33926,-0.31
21.4,1.7106,0.34468,0.34156,-0.3118
21.5,1.7148,0.34698,0.34386,-0.3136
21.6,1.7189,0.34929,0.3462,-0.3154
21.7,1.723,0.35158,0.3485,-0.3172
21.8,1.7271,0.35388,0.3508,-0.319
21.9,1.7312,0.35619,0.35312,-0.3209
22,1.7353,0.35848,0.35541,-0.3227
22.1,1.7393,0.36079,0.35773,-0.3245
22.2,1.7434,0.36308,0.36003,-0.3264
22.3,1.7474,0.36539,0.36234,-0.3282
22.4,1.7514,0.36772,0.36468,-0.33
22.5,1.7553,0.37003,0.367,-0.3319
22.6,1.7593,0.37235,0.36933,-0.3337
22.7,1.7632,0.37467,0.37166,-0.3356
22.8,1.7671,0.377,0.37399,-0.3375
22.9,1.772,0.3803,0.37727,-0.3397
23,1.7769,0.38374,0.38071,-0.342
23.1,1.7815,0.38683,0.3838,-0.3441
23.2,1.786,0.38986,0.38683,-0.3463
23.3,1.7904,0.39272,0.3897,-0.3483
23.4,1.7947,0.39559,0.39258,-0.3504
23.5,1.7989,0.39833,0.39533,-0.3525
23.6,1.8031,0.40107,0.39807,-0.3545
23.7,1.8073,0.40381,0.40082,-0.3566
23.8,1.8114,0.40653,0.40354,-0.3586
23.9,1.8155,0.40922,0.40624,-0.3607
24,1.8196,0.41192,0.40894,-0.3627
24.1,1.8237,0.41464,0.41167,-0.3648
24.2,1.8277,0.4173,0.41433,-0.3668
24.3,1.8317,0.41999,0.41704,-0.3689
24.4,1.8357,0.42267,0.41972,-0.371
24.5,1.8397,0.42536,0.42242,-0.373
24.6,1.8437,0.42805,0.42512,-0.3751
24.7,1.8476,0.43075,0.42782,-0.3772
24.8,1.8515,0.43344,0.43054,-0.3793
24.9,1.8554,0.43614,0.43324,-0.3813
25,1.8593,0.43839,0.43551,-0.3836
25.1,1.8631,0.44106,0.43818,-0.3857
25.2,1.8669,0.44375,0.44088,-0.3878
25.3,1.8708,0.44643,0.44357,-0.3899
25.4,1.8746,0.44913,0.44627,-0.392
25.5,1.8783,0.45184,0.44899,-0.3941
25.6,1.8821,0.45454,0.4517,-0.3962
25.7,1.8858,0.45725,0.45441,-0.3983
25.8,1.8895,0.45997,0.45714,-0.4005
25.9,1.8933,0.46271,0.45989,-0.4026
26,1.8969,0.46545,0.46264,-0.4047
26.1,1.9006,0.46819,0.46539,-0.4069
26.2,1.9043,0.47094,0.46814,-0.409
26.3,1.9079,0.47372,0.47093,-0.4112
26.4,1.9115,0.47647,0.47369,-0.4134
26.5,1.9151,0.47925,0.47648,-0.4155
26.6,1.9187,0.48202,0.47926,-0.4177
26.7,1.9223,0.48481,0.48205,-0.4199
26.8,1.9258,0.4876,0.48485,-0.4221
26.9,1.9293,0.49041,0.48767,-0.4243
27,1.9329,0.49322,0.49049,-0.4265
27.1,1.9363,0.49605,0.49332,-0.4287
27.2,1.9398,0.49888,0.49616,-0.4309
27.3,1.9433,0.50174,0.49903,-0.4331
27.4,1.9467,0.5046,0.5019,-0.4354
27.5,1.9501,0.50746,0.50477,-0.4376
27.6,1.9535,0.51034,0.50766,-0.4398
27.7,1.9569,0.51322,0.51055,-0.4421
27.8,1.9602,0.51613,0.51346,-0.4443
27.9,1.9636,0.51904,0.5164,-0.4466
28,1.9669,0.52196,0.51933,-0.4488
28.1,1.9702,0.52489,0.52227,-0.4511

