airfoilName st19.dat
Re 	2.500000e+05
M 	5.000000e-01
N 	4.500000e+00
VACC 	0 VACCflag 1
XTR 	1.00 	1.00 XTRflag 0
alpha,cl,cd,cdp,cm
-28.3,-1.4306,0.5459,0.54276,0.2729
-28.2,-1.4267,0.54245,0.5393,0.2707
-28.1,-1.4228,0.53899,0.53585,0.2685
-28,-1.4189,0.53556,0.5324,0.2663
-27.9,-1.4149,0.53215,0.52899,0.2641
-27.8,-1.411,0.52876,0.5256,0.2619
-27.7,-1.407,0.52535,0.52218,0.2598
-27.6,-1.4031,0.52196,0.51879,0.2576
-27.5,-1.3991,0.51861,0.51543,0.2555
-27.4,-1.3951,0.51528,0.5121,0.2533
-27.3,-1.3911,0.51225,0.50907,0.2512
-27.2,-1.3871,0.5089,0.50571,0.249
-27.1,-1.383,0.50556,0.50237,0.2469
-27,-1.379,0.50232,0.49912,0.2448
-26.9,-1.3749,0.49906,0.49586,0.2427
-26.8,-1.3708,0.49584,0.49263,0.2406
-26.7,-1.3667,0.49259,0.48938,0.2385
-26.6,-1.3626,0.48938,0.48616,0.2364
-26.5,-1.3584,0.48621,0.483,0.2343
-26.4,-1.3543,0.48306,0.47983,0.2322
-26.3,-1.3501,0.4799,0.47668,0.2301
-26.2,-1.346,0.47675,0.47351,0.2281
-26.1,-1.3418,0.47363,0.47038,0.226
-26,-1.3376,0.47053,0.46728,0.224
-25.9,-1.3334,0.46746,0.46421,0.2219
-25.8,-1.3291,0.46436,0.4611,0.2199
-25.7,-1.3249,0.46134,0.45807,0.2179
-25.6,-1.3206,0.45828,0.45502,0.2159
-25.5,-1.3164,0.45531,0.45203,0.2138
-25.4,-1.3121,0.4523,0.44902,0.2118
-25.3,-1.3078,0.44931,0.44603,0.2098
-25.2,-1.3035,0.44635,0.44307,0.2078
-25.1,-1.2992,0.44342,0.44013,0.2059
-25,-1.2949,0.44048,0.43719,0.2039
-24.9,-1.2906,0.43756,0.43426,0.2019
-24.8,-1.2862,0.43467,0.43137,0.1999
-24.7,-1.2818,0.4318,0.42849,0.198
-24.6,-1.2775,0.42892,0.42561,0.196
-24.5,-1.2731,0.42607,0.42276,0.1941
-24.4,-1.2687,0.42325,0.41994,0.1922
-24.3,-1.2643,0.42044,0.41712,0.1902
-24.2,-1.2599,0.41762,0.41431,0.1883
-24.1,-1.2555,0.41484,0.41152,0.1864
-24,-1.251,0.41207,0.40875,0.1845
-23.9,-1.2466,0.40933,0.406,0.1826
-23.8,-1.2422,0.40658,0.40325,0.1807
-23.7,-1.2377,0.40387,0.40053,0.1788
-23.6,-1.2332,0.40116,0.39783,0.1769
-23.5,-1.2287,0.39847,0.39512,0.1751
-23.4,-1.2242,0.3958,0.39245,0.1732
-23.3,-1.2197,0.39314,0.38978,0.1713
-23.2,-1.2152,0.39049,0.38713,0.1695
-23.1,-1.2107,0.38787,0.3845,0.1676
-23,-1.2062,0.38527,0.3819,0.1658
-22.9,-1.2016,0.38267,0.3793,0.164
-22.8,-1.1971,0.3801,0.37673,0.1621
-22.7,-1.1925,0.37753,0.37416,0.1603
-22.6,-1.1879,0.375,0.37162,0.1585
-22.5,-1.1833,0.37246,0.36908,0.1567
-22.4,-1.1787,0.36995,0.36657,0.1549
-22.3,-1.1741,0.36744,0.36406,0.1531
-22.2,-1.1695,0.36497,0.36159,0.1513
-22.1,-1.1649,0.36251,0.35912,0.1495
-22,-1.1602,0.36006,0.35667,0.1477
-21.9,-1.1556,0.35763,0.35424,0.1459
-21.8,-1.1509,0.35523,0.35183,0.1441
-21.7,-1.1462,0.35284,0.34944,0.1424
-21.6,-1.1415,0.35046,0.34706,0.1406
-21.5,-1.1368,0.34813,0.34473,0.1388
-21.4,-1.1321,0.3458,0.34239,0.137
-21.3,-1.1273,0.34347,0.34006,0.1353
-21.2,-1.1225,0.34119,0.33779,0.1335
-21.1,-1.1177,0.33893,0.33553,0.1317
-21,-1.1129,0.33668,0.33327,0.1299
-20.9,-1.108,0.33449,0.33108,0.1281
-20.8,-1.1031,0.33228,0.32886,0.1263
-20.7,-1.0981,0.33015,0.32674,0.1244
-20.6,-1.093,0.32802,0.32461,0.1226
-20.5,-1.0879,0.3259,0.32246,0.1207
-20.4,-1.0827,0.32377,0.32033,0.1188
-20.3,-1.0774,0.32167,0.31824,0.1169
-20.2,-1.072,0.31947,0.31603,0.1149
-19.9,-1.0527,0.31214,0.30873,0.1085
-19.8,-1.0483,0.30966,0.30625,0.107
-19.7,-1.0438,0.30719,0.30378,0.1056
-19.6,-1.0393,0.30474,0.30132,0.1041
-19.5,-1.0348,0.3023,0.29889,0.1026
-19.4,-1.0303,0.29989,0.29648,0.1012
-19.3,-1.0258,0.29749,0.29407,0.0997
-19.1,-1.017,0.29305,0.28963,0.0968
-19,-1.0124,0.29071,0.28729,0.0953
-18.9,-1.0078,0.2884,0.28498,0.0939
-18.8,-1.0032,0.28609,0.28267,0.0925
-18.7,-0.9985,0.28381,0.28038,0.091
-18.6,-0.9939,0.28153,0.2781,0.0896
-18.5,-0.9893,0.27927,0.27584,0.0882
-18.4,-0.9846,0.27702,0.27358,0.0868
-18.3,-0.98,0.27478,0.27134,0.0854
-18.2,-0.9753,0.27256,0.26912,0.084
-18.1,-0.9706,0.27035,0.26692,0.0826
-18,-0.9659,0.26815,0.26471,0.0812
-17.9,-0.9613,0.26597,0.26253,0.0798
-17.8,-0.9566,0.26379,0.26036,0.0784
-17.7,-0.9519,0.26163,0.25819,0.0771
-17.6,-0.9472,0.25948,0.25604,0.0757
-17.5,-0.9425,0.25733,0.25389,0.0744
-17.4,-0.9378,0.2552,0.25174,0.073
-17.3,-0.9331,0.25308,0.24962,0.0717
-17.2,-0.9284,0.25097,0.24751,0.0704
-17.1,-0.9237,0.24886,0.2454,0.0691
-17,-0.9189,0.24677,0.24331,0.0677
-16.9,-0.9142,0.24468,0.24122,0.0664
-16.8,-0.9095,0.24261,0.23914,0.0651
-16.7,-0.9047,0.24054,0.23708,0.0639
-16.6,-0.9,0.23848,0.23502,0.0626
-16.5,-0.8953,0.23644,0.23298,0.0613
-16.4,-0.8905,0.2344,0.23094,0.06
-16.3,-0.8858,0.23238,0.22892,0.0588
-16.2,-0.881,0.23037,0.2269,0.0575
-16.1,-0.8763,0.22836,0.2249,0.0563
-16,-0.8715,0.22637,0.2229,0.0551
-15.9,-0.8668,0.22438,0.22092,0.0538
-15.8,-0.862,0.22241,0.21895,0.0526
-15.7,-0.8572,0.22045,0.21698,0.0514
-15.6,-0.8525,0.21849,0.21503,0.0502
-15.5,-0.8477,0.21655,0.21309,0.0489
-15.4,-0.8429,0.21462,0.21115,0.0477
-15.3,-0.8381,0.2127,0.20923,0.0465
-15.2,-0.8333,0.21079,0.20733,0.0453
-15.1,-0.8285,0.20888,0.20542,0.0442
-15,-0.8237,0.20699,0.20353,0.043
-14.9,-0.8188,0.20511,0.20165,0.0418
-14.8,-0.814,0.20323,0.19977,0.0406
-14.7,-0.8091,0.20137,0.19791,0.0394
-14.6,-0.8042,0.1995,0.19605,0.0382
-14.5,-0.7993,0.19766,0.1942,0.037
-14.4,-0.7944,0.19581,0.19236,0.0358
-14.3,-0.7895,0.19397,0.1905,0.0346
-14.2,-0.7845,0.19214,0.18867,0.0335
-14.1,-0.7795,0.19031,0.18684,0.0323
-14,-0.7745,0.18848,0.18502,0.0311
-13.9,-0.7695,0.18665,0.18319,0.0299
-13.8,-0.7645,0.18482,0.18136,0.0287
-13.7,-0.7594,0.18299,0.17953,0.0276
-13.6,-0.7543,0.18114,0.17767,0.0264
-13.5,-0.7492,0.17927,0.17581,0.0252
-13.4,-0.7441,0.1774,0.17394,0.024
-13.3,-0.7388,0.17549,0.17203,0.0229
-13.2,-0.7333,0.17351,0.17006,0.0216
-13.1,-0.7272,0.17141,0.16796,0.0203
-13,-0.7183,0.16917,0.16575,0.0182
-12.9,-0.714,0.16741,0.16399,0.0173
-12.8,-0.7097,0.16566,0.16224,0.0164
-12.7,-0.7054,0.16394,0.16052,0.0155
-12.6,-0.701,0.16222,0.15881,0.0146
-12.5,-0.6974,0.16072,0.15731,0.0138
-12.4,-0.6929,0.15906,0.15566,0.0128
-12.3,-0.6883,0.15743,0.15402,0.0119
-12.2,-0.6838,0.1558,0.1524,0.011
-12.1,-0.6792,0.1542,0.1508,0.0101
-12,-0.6746,0.15261,0.14921,0.0092
-11.9,-0.6701,0.15103,0.14763,0.0083
-11.8,-0.6655,0.14946,0.14607,0.0074
-11.7,-0.6608,0.14791,0.14453,0.0065
-11.6,-0.6562,0.14638,0.14299,0.0056
-11.5,-0.6516,0.14485,0.14147,0.0048
-11.4,-0.6469,0.14334,0.13997,0.0039
-11.3,-0.6422,0.14185,0.13848,0.003
-11.2,-0.6376,0.14036,0.137,0.0022
-11.1,-0.633,0.13889,0.13552,0.0014
-11,-0.6284,0.13744,0.13407,0.0005
-10.9,-0.6238,0.136,0.13263,-0.0003
-10.8,-0.6192,0.13458,0.13122,-0.0011
-10.7,-0.6146,0.13317,0.12981,-0.0019
-10.6,-0.6101,0.13177,0.12842,-0.0026
-10.5,-0.6056,0.13039,0.12705,-0.0034
-10.4,-0.6012,0.12902,0.12569,-0.0041
-10.3,-0.5968,0.12768,0.12435,-0.0048
-10.2,-0.5926,0.12635,0.12303,-0.0055
-10.1,-0.5884,0.12504,0.12173,-0.0061
-10,-0.5843,0.12375,0.12045,-0.0067
-9.8,-0.5767,0.12125,0.11797,-0.0077
-9.7,-0.5732,0.12005,0.11678,-0.0081
-9.6,-0.5699,0.11888,0.11562,-0.0085
-9.5,-0.5669,0.11774,0.1145,-0.0088
-9.4,-0.5641,0.11664,0.1134,-0.009
-9.3,-0.5616,0.11556,0.11235,-0.0091
-9.2,-0.5595,0.11453,0.11133,-0.0092
-9.1,-0.5577,0.11354,0.11036,-0.0091
-9,-0.5563,0.11259,0.10943,-0.0089
-8.9,-0.5554,0.1117,0.10856,-0.0086
-8.8,-0.555,0.11086,0.10774,-0.0082
-8.7,-0.5553,0.11009,0.10699,-0.0077
-8.6,-0.5562,0.10937,0.1063,-0.0069
-8.5,-0.5504,0.10802,0.10495,-0.008
-8.4,-0.5416,0.10639,0.10332,-0.0099
-8.3,-0.5327,0.10478,0.1017,-0.0119
-8.2,-0.5237,0.10315,0.10008,-0.0138
-8.1,-0.5143,0.10152,0.09844,-0.0159
-8,-0.5056,0.09994,0.09684,-0.0178
-7.9,-0.4959,0.09829,0.09519,-0.0199
-7.8,-0.4867,0.09669,0.09358,-0.0219
-7.7,-0.477,0.09506,0.09195,-0.024
-7.6,-0.4667,0.09336,0.09024,-0.0263
-7.5,-0.4584,0.09183,0.08872,-0.028
-7.4,-0.449,0.09019,0.08707,-0.03
-7.3,-0.4374,0.08834,0.08522,-0.0327
-7.2,-0.4219,0.08618,0.08307,-0.0366
-7.1,-0.4096,0.08452,0.0814,-0.0393
-7,-0.3992,0.08305,0.07992,-0.0415
-6.9,-0.3908,0.08175,0.07862,-0.0431
-6.8,-0.3804,0.08033,0.07719,-0.0452
-6.7,-0.3688,0.07886,0.07572,-0.0476
-6.6,-0.3565,0.07736,0.07421,-0.0501
-6.5,-0.3435,0.07585,0.07269,-0.0528
-6.4,-0.33,0.07433,0.07115,-0.0556
-6.3,-0.3178,0.07291,0.06972,-0.0579
-6.2,-0.3085,0.0717,0.06851,-0.0595
-6.1,-0.2965,0.07033,0.06713,-0.0618
-6,-0.2834,0.06891,0.0657,-0.0643
-5.9,-0.2694,0.06746,0.06424,-0.067
-5.8,-0.2548,0.06598,0.06275,-0.0699
-5.7,-0.2395,0.06449,0.06122,-0.0728
-5.6,-0.2265,0.06314,0.05986,-0.0751
-5.5,-0.2162,0.06196,0.05868,-0.0767
-5.4,-0.2021,0.06057,0.05726,-0.0792
-5.3,-0.1869,0.05913,0.05581,-0.0819
-5.2,-0.1708,0.05764,0.0543,-0.0849
-5.1,-0.1539,0.05612,0.05276,-0.088
-5,-0.1363,0.05457,0.05117,-0.0912
-4.8,-0.1085,0.05184,0.0484,-0.0956
-4.7,-0.0916,0.05027,0.04681,-0.0985
-4.6,-0.0731,0.04857,0.04508,-0.1018
-4.5,-0.0525,0.0466,0.04306,-0.1057
-4.3,-0.0058,0.0421,0.03846,-0.1148
-4.1,0.0242,0.03994,0.03623,-0.1185
-4,0.042,0.03876,0.03501,-0.1209
-3.9,0.0609,0.03753,0.03372,-0.1235
-3.8,0.0807,0.03623,0.03236,-0.1262
-3.7,0.1013,0.03483,0.0309,-0.1291
-3.6,0.1235,0.03325,0.02925,-0.1324
-3.5,0.1466,0.03148,0.02738,-0.1358
-3.4,0.1792,0.0273,0.02298,-0.1427
-3.3,0.1942,0.02645,0.02206,-0.1437
-3.1,0.2314,0.02415,0.01956,-0.1474
-3,0.2529,0.02236,0.0176,-0.15
-2.8,0.3032,0.01568,0.00984,-0.1581
-2.7,0.3194,0.0152,0.00927,-0.1587
-2.6,0.3362,0.01473,0.00868,-0.1593
-2.4,0.3637,0.01382,0.00741,-0.1594
-2.3,0.3788,0.01337,0.00685,-0.1597
-2.2,0.3938,0.01313,0.00654,-0.1599
-2.1,0.4093,0.01287,0.0062,-0.1601
-2,0.4248,0.01259,0.00581,-0.1604
-1.9,0.439,0.01241,0.00556,-0.1604
-1.8,0.4517,0.01227,0.0054,-0.1601
-1.7,0.4657,0.01212,0.00521,-0.1601
-1.6,0.4802,0.01196,0.00498,-0.1602
-1.5,0.4952,0.01178,0.00471,-0.1603
-1.4,0.51,0.01171,0.00467,-0.1605
-1.3,0.5232,0.01162,0.00455,-0.1603
-1.2,0.5362,0.01152,0.00441,-0.1601
-1.1,0.5503,0.01141,0.00424,-0.1601
-1,0.5646,0.01131,0.00415,-0.1602
-0.9,0.5793,0.01122,0.00404,-0.1603
-0.8,0.5926,0.0112,0.004,-0.1601
-0.7,0.6057,0.01114,0.00394,-0.16
-0.6,0.6198,0.01103,0.00382,-0.1599
-0.5,0.6327,0.01097,0.00373,-0.1596
-0.4,0.6464,0.01092,0.00366,-0.1595
-0.2,0.6736,0.01083,0.00358,-0.1593
-0.1,0.687,0.01079,0.00351,-0.1591
0,0.701,0.01072,0.00344,-0.159
0.1,0.7139,0.0107,0.00342,-0.1589
0.2,0.7276,0.01067,0.00339,-0.1588
0.3,0.7409,0.01065,0.00337,-0.1586
0.4,0.7543,0.01062,0.00334,-0.1584
0.5,0.7679,0.0106,0.0033,-0.1583
0.6,0.781,0.01059,0.00329,-0.1581
0.7,0.7945,0.01056,0.00325,-0.1579
0.8,0.8076,0.01055,0.00325,-0.1577
0.9,0.8211,0.01056,0.00325,-0.1576
1,0.8342,0.01055,0.00327,-0.1574
1.1,0.8472,0.01056,0.00323,-0.1571
1.2,0.8603,0.01057,0.00322,-0.1568
1.3,0.8732,0.01058,0.00323,-0.1565
1.4,0.8863,0.0106,0.00324,-0.1563
1.5,0.8985,0.01064,0.00322,-0.1558
1.6,0.9108,0.0107,0.00324,-0.1553
1.7,0.9229,0.01077,0.00325,-0.1548
1.8,0.935,0.01084,0.00328,-0.1544
1.9,0.9467,0.01095,0.00331,-0.1538
2,0.9581,0.01106,0.00337,-0.1532
2.1,0.9675,0.01131,0.00345,-0.1522
2.2,0.978,0.01147,0.00356,-0.1515
2.3,0.9881,0.01168,0.00368,-0.1507
2.4,0.9976,0.01192,0.00382,-0.1499
2.5,1.0067,0.01218,0.00398,-0.149
2.6,1.012,0.01267,0.00427,-0.1475
2.8,1.0207,0.01218,0.00467,-0.144
2.9,1.0293,0.01257,0.00489,-0.1431
3,1.0388,0.01291,0.00509,-0.1423
3.1,1.049,0.0132,0.00529,-0.1417
3.2,1.0598,0.01345,0.00548,-0.1411
3.3,1.0698,0.01377,0.0057,-0.1404
3.4,1.081,0.01399,0.00589,-0.1399
3.5,1.0924,0.0142,0.00607,-0.1393
3.6,1.1037,0.01441,0.00626,-0.1388
3.7,1.1151,0.01461,0.00643,-0.1382
3.8,1.126,0.01485,0.00663,-0.1376
3.9,1.1374,0.01506,0.00682,-0.137
4,1.1488,0.01526,0.00701,-0.1365
4.1,1.1604,0.01545,0.0072,-0.1359
4.2,1.1715,0.01568,0.00743,-0.1353
4.3,1.1832,0.01586,0.00763,-0.1347
4.4,1.194,0.01611,0.00784,-0.134
4.5,1.2056,0.0163,0.00804,-0.1334
4.6,1.2169,0.01651,0.00825,-0.1327
4.7,1.2281,0.01673,0.00848,-0.132
4.8,1.2396,0.01694,0.0087,-0.1314
5,1.2617,0.0174,0.00915,-0.1299
5.1,1.2728,0.01763,0.00939,-0.1292
5.2,1.2837,0.01788,0.00964,-0.1284
5.3,1.295,0.01811,0.0099,-0.1276
5.4,1.3058,0.01836,0.01017,-0.1268
5.5,1.3166,0.01862,0.01042,-0.126
5.6,1.3274,0.01888,0.0107,-0.1251
5.7,1.3378,0.01916,0.01104,-0.1242
5.8,1.3487,0.01943,0.01135,-0.1233
5.9,1.3593,0.01971,0.01167,-0.1224
6,1.3695,0.02002,0.012,-0.1214
6.1,1.3797,0.02033,0.01236,-0.1204
6.2,1.3901,0.02062,0.01267,-0.1194
6.3,1.3999,0.02096,0.01304,-0.1184
6.4,1.4096,0.02131,0.01344,-0.1172
6.5,1.4193,0.02166,0.01386,-0.1161
6.6,1.4288,0.02203,0.0143,-0.1149
6.7,1.4379,0.02242,0.01475,-0.1136
6.8,1.4463,0.02283,0.01521,-0.1123
6.9,1.4541,0.02327,0.01571,-0.1108
7,1.463,0.02363,0.01616,-0.1095
7.1,1.4708,0.02409,0.0167,-0.1081
7.2,1.4782,0.02456,0.01728,-0.1066
7.3,1.485,0.02508,0.01787,-0.105
7.4,1.4918,0.02565,0.01852,-0.1034
7.5,1.4986,0.02626,0.01927,-0.1018
7.6,1.5049,0.02692,0.02005,-0.1002
7.7,1.5107,0.02761,0.02087,-0.0986
7.8,1.5175,0.02808,0.02141,-0.0971
7.9,1.522,0.02879,0.02221,-0.0954
8,1.5262,0.02965,0.02321,-0.0937
8.1,1.5296,0.03059,0.02432,-0.0919
8.2,1.5322,0.03159,0.02549,-0.0901
8.3,1.5339,0.03264,0.02671,-0.0884
8.4,1.5348,0.03374,0.02797,-0.0866
8.5,1.5349,0.03487,0.02927,-0.0849
8.7,1.5365,0.03669,0.03127,-0.0819
8.8,1.5335,0.03817,0.03293,-0.0803
9,1.525,0.04127,0.0364,-0.0777
9.2,1.5139,0.04462,0.04007,-0.0757
9.4,1.5012,0.04825,0.04399,-0.0747
9.6,1.487,0.05221,0.04822,-0.0747
9.8,1.4723,0.05661,0.05287,-0.0761
9.9,1.4649,0.059,0.05538,-0.0775
10.7,1.4105,0.08652,0.08369,-0.1069
10.8,1.4047,0.09126,0.08849,-0.1118
11,1.3935,0.09965,0.09693,-0.1201
11.2,1.3845,0.10716,0.10445,-0.1273
11.4,1.3782,0.114,0.1113,-0.1336
11.5,1.3762,0.11721,0.11451,-0.1366
11.6,1.3748,0.12025,0.11754,-0.1393
11.7,1.374,0.12314,0.12044,-0.1419
11.8,1.374,0.12589,0.12319,-0.1443
11.9,1.3744,0.12849,0.12579,-0.1466
12,1.3818,0.12908,0.12635,-0.1476
12.1,1.3795,0.13263,0.1299,-0.1506
12.2,1.3778,0.13605,0.13332,-0.1534
12.3,1.3768,0.13933,0.1366,-0.1561
12.4,1.3766,0.14242,0.13968,-0.1586
12.5,1.3771,0.1453,0.14257,-0.1609
12.6,1.3781,0.1481,0.14536,-0.1632
12.7,1.3795,0.15073,0.148,-0.1653
12.8,1.3812,0.15324,0.15051,-0.1673
12.9,1.3833,0.15566,0.15293,-0.1692
13,1.3856,0.15797,0.15524,-0.171
13.1,1.3882,0.16019,0.15746,-0.1728
13.2,1.3909,0.16231,0.15959,-0.1745
13.3,1.3938,0.16434,0.16162,-0.1761
13.4,1.3969,0.16629,0.16358,-0.1777
13.5,1.4001,0.16816,0.16545,-0.1792
13.6,1.4033,0.16994,0.16723,-0.1807
13.7,1.4066,0.17164,0.16893,-0.1822
13.8,1.4099,0.17325,0.17056,-0.1836
13.9,1.4118,0.17633,0.17361,-0.1858
14.1,1.4166,0.18238,0.17966,-0.1901
14.3,1.4228,0.18795,0.18522,-0.1944
14.5,1.4297,0.192,0.18931,-0.1975
14.6,1.4333,0.19395,0.19126,-0.1991
14.7,1.4369,0.19583,0.19315,-0.2006
14.8,1.4405,0.19766,0.19497,-0.2021
14.9,1.4441,0.19944,0.19676,-0.2035
15,1.4478,0.20117,0.19849,-0.205
15.1,1.4514,0.20286,0.20019,-0.2064
15.2,1.455,0.20445,0.20178,-0.2078
15.4,1.4621,0.21004,0.20735,-0.2116
15.5,1.4659,0.21278,0.21009,-0.2135
15.6,1.4697,0.21536,0.21267,-0.2153
15.7,1.4736,0.21778,0.21509,-0.217
15.8,1.4776,0.22009,0.2174,-0.2187
15.9,1.4815,0.22235,0.21967,-0.2204
16,1.4855,0.22454,0.22185,-0.222
16.1,1.4896,0.22668,0.224,-0.2236
16.2,1.4936,0.22879,0.22611,-0.2252
16.3,1.4977,0.23086,0.22818,-0.2267
16.4,1.5017,0.2329,0.23023,-0.2283
16.5,1.5058,0.23491,0.23224,-0.2298
16.6,1.5098,0.23691,0.23424,-0.2314
16.7,1.5139,0.23887,0.23621,-0.2329
16.8,1.518,0.24082,0.23816,-0.2345
16.9,1.522,0.24275,0.24009,-0.236
17,1.5261,0.24466,0.24201,-0.2375
17.1,1.5301,0.24654,0.24389,-0.239
17.2,1.5342,0.24841,0.24576,-0.2405
17.3,1.5382,0.25025,0.24761,-0.2421
17.4,1.5421,0.25205,0.24941,-0.2436
17.5,1.5461,0.25386,0.25123,-0.2451
17.6,1.5499,0.25564,0.25301,-0.2465
17.7,1.5538,0.25742,0.25479,-0.248
17.8,1.5589,0.26112,0.25847,-0.2503
17.9,1.5636,0.26413,0.26148,-0.2522
18,1.5691,0.26806,0.26541,-0.2547
18.1,1.5734,0.27034,0.26769,-0.2564
18.2,1.5777,0.27257,0.26993,-0.2581
18.3,1.582,0.27478,0.27217,-0.2597
18.4,1.5863,0.277,0.27439,-0.2614
18.5,1.5906,0.2792,0.27658,-0.263
18.6,1.5948,0.28137,0.27877,-0.2647
18.7,1.5991,0.28354,0.28094,-0.2663
18.8,1.6033,0.28571,0.2831,-0.268
18.9,1.6076,0.28787,0.28527,-0.2697
19,1.6118,0.29,0.28741,-0.2713
19.1,1.6161,0.29215,0.28956,-0.273
19.2,1.6203,0.29429,0.29171,-0.2746
19.3,1.6245,0.29641,0.29383,-0.2763
19.4,1.6287,0.29855,0.29598,-0.278
19.5,1.6329,0.30068,0.29811,-0.2797
19.6,1.637,0.30279,0.30022,-0.2813
19.7,1.6412,0.30491,0.30235,-0.283
19.8,1.6454,0.30704,0.30449,-0.2847
19.9,1.6495,0.30917,0.30661,-0.2864
20,1.6536,0.31127,0.30872,-0.2881
20.1,1.6577,0.31338,0.31083,-0.2898
20.2,1.6618,0.3155,0.31296,-0.2915
20.3,1.6659,0.31759,0.31505,-0.2932
20.4,1.67,0.31972,0.31719,-0.2949
20.5,1.674,0.32184,0.31931,-0.2966
20.6,1.678,0.32393,0.32141,-0.2983
20.7,1.682,0.32608,0.32357,-0.3
20.8,1.6862,0.32843,0.3259,-0.3018
20.9,1.6916,0.33218,0.32965,-0.3041
21,1.6965,0.33533,0.33281,-0.3061
21.1,1.7011,0.33817,0.33565,-0.3081
21.2,1.7056,0.34094,0.33842,-0.31
21.3,1.7101,0.3436,0.34108,-0.3119
21.4,1.7145,0.34629,0.34378,-0.3138
21.5,1.7189,0.34886,0.34635,-0.3157
21.6,1.7232,0.35145,0.34896,-0.3176
21.7,1.7275,0.35403,0.35155,-0.3195
21.8,1.7318,0.35657,0.35409,-0.3214
21.9,1.7361,0.35909,0.35662,-0.3233
22,1.7403,0.36164,0.35917,-0.3252
22.1,1.7446,0.36417,0.3617,-0.3271
22.2,1.7488,0.36668,0.36422,-0.329
22.3,1.753,0.36921,0.36675,-0.3309
22.4,1.7571,0.3717,0.36925,-0.3328
22.5,1.7613,0.37422,0.37177,-0.3348
22.6,1.7654,0.37673,0.37429,-0.3367
22.7,1.7695,0.37922,0.37679,-0.3386
22.8,1.7737,0.38174,0.37931,-0.3405
22.9,1.7778,0.38424,0.38182,-0.3425
23,1.7818,0.38676,0.38434,-0.3444
23.1,1.7859,0.38927,0.38685,-0.3464
23.2,1.7899,0.39178,0.38938,-0.3483
23.3,1.794,0.3943,0.3919,-0.3503
23.4,1.798,0.39683,0.39443,-0.3523
23.5,1.802,0.39936,0.39697,-0.3542
23.6,1.806,0.40188,0.39949,-0.3562
23.8,1.8138,0.40646,0.40409,-0.3603
23.9,1.8177,0.40897,0.4066,-0.3623
24,1.8216,0.41148,0.40912,-0.3643
24.1,1.8255,0.414,0.41164,-0.3663
24.2,1.8294,0.41652,0.41417,-0.3683
24.3,1.8332,0.41904,0.4167,-0.3703
24.4,1.8371,0.42158,0.41924,-0.3724
24.5,1.8409,0.42412,0.42178,-0.3744
24.6,1.8447,0.42667,0.42434,-0.3764
24.7,1.8485,0.42923,0.42693,-0.3785
24.8,1.8523,0.43177,0.42947,-0.3805
24.9,1.856,0.43436,0.43207,-0.3826
25,1.8598,0.4369,0.43462,-0.3846
25.1,1.8635,0.4395,0.43722,-0.3867
25.2,1.8672,0.44206,0.43979,-0.3887
25.3,1.8709,0.44464,0.44238,-0.3908
25.4,1.8745,0.44727,0.44501,-0.3929
25.5,1.8782,0.44988,0.44763,-0.395
25.6,1.8818,0.45251,0.45026,-0.3971
25.7,1.8854,0.45512,0.45288,-0.3991
25.8,1.8889,0.45777,0.45554,-0.4012
25.9,1.8925,0.46045,0.45822,-0.4033
26,1.8979,0.46494,0.46269,-0.4061
26.1,1.9023,0.46847,0.46623,-0.4085
26.2,1.9065,0.47175,0.46951,-0.4108
26.3,1.9105,0.47497,0.47273,-0.4131
26.4,1.9144,0.478,0.47578,-0.4154
26.5,1.9183,0.48108,0.47885,-0.4177
26.6,1.9221,0.48412,0.4819,-0.4199
26.7,1.9259,0.48708,0.48487,-0.4222
26.8,1.9296,0.49008,0.48787,-0.4245
26.9,1.9333,0.49302,0.49082,-0.4268
27,1.937,0.49597,0.49378,-0.4291
27.1,1.9406,0.49891,0.49672,-0.4313
27.2,1.9443,0.50185,0.49967,-0.4336
27.3,1.9479,0.50478,0.50261,-0.4359
27.4,1.9514,0.50772,0.50555,-0.4382
27.5,1.955,0.51066,0.5085,-0.4405
27.6,1.9585,0.51359,0.51143,-0.4428
27.7,1.962,0.51658,0.51442,-0.4451
27.8,1.9654,0.51948,0.51733,-0.4474
27.9,1.9689,0.52244,0.52031,-0.4497
28,1.9723,0.52539,0.52327,-0.4521
28.1,1.9758,0.52835,0.52623,-0.4544
28.2,1.9791,0.5313,0.5292,-0.4567
28.3,1.9825,0.53428,0.53218,-0.459
28.4,1.9858,0.53727,0.53518,-0.4614
28.5,1.9891,0.54023,0.53814,-0.4637
28.6,1.9924,0.54324,0.54116,-0.4661
28.7,1.9957,0.54625,0.54418,-0.4684
28.8,1.999,0.54929,0.54722,-0.4708
28.9,2.0022,0.55227,0.55021,-0.4731
29,2.0055,0.55531,0.55326,-0.4755
29.1,2.0086,0.55836,0.55631,-0.4779
29.2,2.0118,0.5614,0.55936,-0.4802
29.3,2.015,0.56445,0.56242,-0.4826
29.4,2.0181,0.56752,0.56549,-0.485
29.5,2.0213,0.5706,0.56858,-0.4874
29.6,2.0244,0.57369,0.57167,-0.4898
29.7,2.0274,0.57677,0.57476,-0.4922
29.8,2.0302,0.5791,0.5771,-0.4947
29.9,2.0333,0.58221,0.58021,-0.4972
30,2.0363,0.5853,0.58331,-0.4996

