airfoilName st19.dat
Re 	50000
M 	5.000000e-01
N 	4.500000e+00
VACC 	0 VACCflag 1
XTR 	1.00 	1.00 XTRflag 0
alpha,cl,cd,cdp,cm
-21.6,-1.1223,0.36405,0.35602,0.1302
-21.5,-1.1178,0.36142,0.35339,0.1286
-21.4,-1.1132,0.35881,0.35078,0.1269
-21.3,-1.1086,0.35622,0.34817,0.1253
-21.2,-1.104,0.35363,0.34558,0.1237
-21.1,-1.0994,0.35106,0.34301,0.1221
-21,-1.0947,0.3485,0.34044,0.1205
-20.9,-1.0901,0.34594,0.33788,0.1189
-20.8,-1.0855,0.3434,0.33534,0.1173
-20.7,-1.0808,0.34087,0.33279,0.1157
-20.6,-1.0762,0.33834,0.33027,0.1141
-20.5,-1.0715,0.33584,0.32776,0.1126
-20.4,-1.0668,0.33334,0.32522,0.111
-20.3,-1.0621,0.33085,0.32273,0.1095
-20.1,-1.0527,0.32619,0.31806,0.1063
-20,-1.048,0.32374,0.3156,0.1048
-19.9,-1.0433,0.32129,0.31315,0.1033
-19.8,-1.0385,0.31887,0.31072,0.1017
-19.7,-1.0338,0.31645,0.3083,0.1002
-19.6,-1.029,0.31402,0.30588,0.0987
-19.5,-1.0243,0.31163,0.30348,0.0972
-19.4,-1.0195,0.30926,0.30111,0.0957
-19.3,-1.0148,0.30689,0.29873,0.0942
-19.2,-1.01,0.30454,0.29638,0.0927
-19.1,-1.0052,0.30219,0.29403,0.0913
-19,-1.0004,0.29984,0.29168,0.0898
-18.9,-0.9956,0.29753,0.28936,0.0883
-18.8,-0.9908,0.2952,0.28703,0.0869
-18.6,-0.9811,0.29062,0.28244,0.084
-18.5,-0.9763,0.28836,0.28019,0.0825
-18.4,-0.9715,0.2861,0.27792,0.0811
-18.3,-0.9666,0.28385,0.27567,0.0797
-18.2,-0.9617,0.28161,0.27343,0.0782
-18.1,-0.9569,0.27938,0.2712,0.0768
-18,-0.952,0.27716,0.26898,0.0754
-17.9,-0.9471,0.27495,0.26677,0.074
-17.8,-0.9422,0.27276,0.26457,0.0726
-17.7,-0.9373,0.27057,0.26238,0.0711
-17.6,-0.9323,0.26839,0.2602,0.0697
-17.5,-0.9273,0.26621,0.25802,0.0683
-17.4,-0.9224,0.26404,0.25582,0.0669
-17.3,-0.9174,0.26189,0.25366,0.0655
-17.2,-0.9123,0.25974,0.25151,0.0641
-17.1,-0.9073,0.25759,0.24937,0.0627
-17,-0.9022,0.25546,0.24723,0.0613
-16.9,-0.8971,0.25332,0.24509,0.0599
-16.8,-0.8919,0.25118,0.24295,0.0585
-16.7,-0.8866,0.24905,0.24083,0.0571
-16.6,-0.8812,0.24691,0.23869,0.0556
-16.5,-0.8757,0.24479,0.23657,0.0541
-16,-0.8489,0.23449,0.22634,0.0468
-15.9,-0.8444,0.23245,0.2243,0.0457
-15.8,-0.84,0.23043,0.22228,0.0446
-15.7,-0.8355,0.22843,0.22028,0.0435
-15.6,-0.831,0.22644,0.21829,0.0424
-15.5,-0.8266,0.22446,0.21632,0.0414
-15.4,-0.8221,0.2225,0.21436,0.0403
-15.3,-0.8176,0.22056,0.21241,0.0392
-15.2,-0.8131,0.21863,0.21049,0.0381
-15.1,-0.8085,0.21671,0.20857,0.0371
-15,-0.804,0.2148,0.20666,0.036
-14.9,-0.7995,0.21291,0.20477,0.035
-14.8,-0.795,0.21102,0.20289,0.0339
-14.7,-0.7904,0.20915,0.20102,0.0329
-14.6,-0.7859,0.20729,0.19916,0.0318
-14.5,-0.7813,0.20544,0.19731,0.0308
-14.4,-0.7768,0.2036,0.19547,0.0298
-14.3,-0.7722,0.20177,0.19361,0.0288
-14.2,-0.7677,0.19995,0.19179,0.0278
-14.1,-0.7631,0.19814,0.18999,0.0268
-14,-0.7585,0.19634,0.18819,0.0258
-13.9,-0.7539,0.19456,0.18641,0.0248
-13.8,-0.7494,0.19278,0.18463,0.0238
-13.7,-0.7446,0.19131,0.18316,0.0227
-13.6,-0.74,0.18954,0.1814,0.0217
-13.5,-0.7353,0.18778,0.17964,0.0207
-13.4,-0.7307,0.18604,0.17791,0.0197
-13.3,-0.7261,0.18432,0.17619,0.0187
-13.2,-0.7215,0.1826,0.17448,0.0178
-13.1,-0.7168,0.18088,0.17277,0.0168
-13,-0.7122,0.17918,0.17107,0.0159
-12.9,-0.7075,0.17748,0.16938,0.0149
-12.7,-0.6982,0.17414,0.16605,0.013
-12.6,-0.6936,0.17248,0.1644,0.0121
-12.5,-0.6889,0.17083,0.16275,0.0111
-12.4,-0.6842,0.16919,0.16112,0.0102
-12.3,-0.6795,0.16757,0.1595,0.0093
-12.2,-0.6748,0.16595,0.15789,0.0083
-12.1,-0.6701,0.16434,0.15629,0.0074
-12,-0.6654,0.16275,0.1547,0.0065
-11.9,-0.6607,0.16116,0.15313,0.0056
-11.8,-0.6559,0.15959,0.15156,0.0046
-11.7,-0.6512,0.15803,0.15001,0.0037
-11.6,-0.6463,0.15648,0.14847,0.0027
-11.5,-0.6415,0.15495,0.14695,0.0018
-11.4,-0.6366,0.15343,0.14545,0.0008
-11.3,-0.6316,0.15194,0.14397,-0.0002
-11.2,-0.6265,0.15048,0.14248,-0.0013
-11.1,-0.6212,0.14908,0.14109,-0.0025
-11,-0.6153,0.14779,0.13982,-0.0039
-10.9,-0.6099,0.14652,0.13863,-0.0052
-10.8,-0.6061,0.14498,0.1371,-0.0057
-10.7,-0.6023,0.14346,0.13559,-0.0063
-10.6,-0.5984,0.14198,0.13412,-0.0068
-10.5,-0.5946,0.14052,0.13267,-0.0074
-10.4,-0.5907,0.13908,0.13125,-0.0079
-10.3,-0.5869,0.13767,0.12985,-0.0084
-10.2,-0.5831,0.13628,0.12847,-0.009
-10.1,-0.5793,0.13491,0.12712,-0.0095
-10,-0.5755,0.13356,0.12579,-0.01
-9.9,-0.5718,0.13223,0.12447,-0.0105
-9.8,-0.5682,0.13092,0.12318,-0.0109
-9.7,-0.5646,0.12963,0.12191,-0.0114
-9.6,-0.5611,0.12836,0.12066,-0.0118
-9.5,-0.5576,0.12711,0.11943,-0.0122
-9.4,-0.5543,0.12589,0.11822,-0.0126
-9.3,-0.551,0.12468,0.11704,-0.0129
-9.2,-0.5478,0.12349,0.11586,-0.0132
-8.9,-0.5391,0.12007,0.11252,-0.014
-8.8,-0.5366,0.11899,0.11147,-0.0141
-8.7,-0.5342,0.11793,0.11043,-0.0142
-8.6,-0.5319,0.11688,0.10942,-0.0143
-8.5,-0.5298,0.11587,0.10843,-0.0144
-8.4,-0.5278,0.11487,0.10746,-0.0144
-8.3,-0.5261,0.1139,0.10653,-0.0144
-8.2,-0.5246,0.11296,0.10561,-0.0143
-8.1,-0.5233,0.11204,0.10473,-0.0141
-8,-0.5222,0.11114,0.10387,-0.014
-7.9,-0.5213,0.11027,0.10304,-0.0138
-7.8,-0.5206,0.10942,0.10219,-0.0135
-7.7,-0.52,0.10859,0.10139,-0.0132
-7.6,-0.5194,0.10774,0.10058,-0.013
-7.5,-0.5184,0.10688,0.09975,-0.0128
-7.4,-0.5169,0.10596,0.09887,-0.0128
-7.3,-0.5153,0.10503,0.09798,-0.0128
-7.2,-0.5136,0.10411,0.09709,-0.0129
-7.1,-0.5096,0.10355,0.09657,-0.0143
-7,-0.5073,0.10263,0.09568,-0.0146
-6.9,-0.5048,0.10173,0.09481,-0.0151
-6.8,-0.5018,0.10083,0.09394,-0.0157
-6.7,-0.4979,0.09996,0.0931,-0.0167
-6.4,-0.4904,0.09692,0.09021,-0.0176
-6.3,-0.4886,0.09587,0.08919,-0.0175
-6.2,-0.4866,0.09483,0.08817,-0.0175
-6.1,-0.4844,0.09379,0.08715,-0.0175
-6,-0.4819,0.09275,0.08614,-0.0175
-5.9,-0.4794,0.0917,0.08511,-0.0176
-5.8,-0.4765,0.09065,0.08408,-0.0177
-5.7,-0.4732,0.08958,0.08303,-0.018
-5.6,-0.4615,0.08796,0.0814,-0.0202
-5.5,-0.4482,0.08628,0.0797,-0.0228
-5.4,-0.4357,0.08469,0.07809,-0.0251
-5.3,-0.4229,0.08311,0.07649,-0.0275
-5.2,-0.4103,0.08155,0.07491,-0.0299
-5.1,-0.3971,0.07999,0.07334,-0.0323
-5,-0.3833,0.07842,0.07174,-0.0349
-4.8,-0.3526,0.07519,0.06844,-0.0407
-4.7,-0.3383,0.07365,0.06684,-0.0432
-4.6,-0.3228,0.07207,0.06523,-0.0461
-4.5,-0.3058,0.07043,0.06356,-0.0493
-4.4,-0.2854,0.06863,0.0617,-0.0534
-4.3,-0.2629,0.06674,0.05973,-0.058
-4.2,-0.2361,0.06459,0.05753,-0.064
-4.1,-0.2247,0.06325,0.05618,-0.0653
-3.9,-0.1958,0.0605,0.05337,-0.0693
-3.8,-0.1797,0.05913,0.05196,-0.0716
-3.7,-0.1616,0.05794,0.05072,-0.0744
-3.6,-0.1422,0.05645,0.04917,-0.0774
-3.4,-0.1026,0.05341,0.04597,-0.0836
-3.3,-0.0807,0.05175,0.04421,-0.0873
-3.2,-0.0456,0.04912,0.04139,-0.0944
-3,-0.0145,0.04694,0.03911,-0.0976
-2.9,0.0032,0.04584,0.03795,-0.0996
-2.8,0.0224,0.0447,0.03673,-0.1019
-2.7,0.0432,0.04347,0.0354,-0.1045
-2.5,0.104,0.03955,0.03094,-0.1145
-2.4,0.1147,0.03891,0.03028,-0.1147
-2.3,0.1297,0.03817,0.0295,-0.1157
-2.2,0.148,0.0373,0.02853,-0.1173
-1.9,0.2172,0.03342,0.02387,-0.1254
-1.8,0.2337,0.03293,0.02337,-0.1264
-1.7,0.2533,0.03249,0.02277,-0.128
-1.5,0.2961,0.03066,0.02042,-0.1319
-1.4,0.3062,0.03035,0.02008,-0.1316
-1.3,0.3221,0.02988,0.0195,-0.1323
-1.2,0.3418,0.02919,0.01847,-0.1337
-1.1,0.3582,0.02902,0.01828,-0.1345
-1,0.3761,0.02862,0.01774,-0.1355
-0.9,0.3973,0.02807,0.01686,-0.137
-0.8,0.4145,0.02781,0.01663,-0.1379
-0.7,0.4291,0.02757,0.0163,-0.1383
-0.6,0.4409,0.02749,0.01609,-0.1381
-0.5,0.4565,0.02728,0.01583,-0.1386
-0.4,0.4741,0.02704,0.01538,-0.1394
-0.3,0.4911,0.02683,0.01519,-0.1402
-0.2,0.5098,0.02661,0.01492,-0.1413
0,0.5343,0.02652,0.01474,-0.1411
0.1,0.5504,0.02637,0.01453,-0.1416
0.2,0.5669,0.02621,0.0144,-0.1423
0.3,0.5845,0.02611,0.01422,-0.1431
0.4,0.6021,0.02607,0.01415,-0.144
0.5,0.6099,0.02599,0.01417,-0.143
0.6,0.6247,0.02591,0.01409,-0.1434
0.7,0.6409,0.02579,0.01402,-0.144
0.9,0.677,0.02553,0.01385,-0.1458
1,0.6834,0.02555,0.01395,-0.1447
1.1,0.6988,0.02543,0.0139,-0.145
1.2,0.7156,0.02532,0.01387,-0.1457
1.3,0.7331,0.0251,0.01389,-0.1467
1.4,0.7424,0.02507,0.01397,-0.146
1.5,0.7563,0.02499,0.01405,-0.1462
1.6,0.7726,0.02486,0.0141,-0.1468
1.7,0.7904,0.02434,0.01411,-0.1478
1.8,0.7865,0.02417,0.01379,-0.143
1.9,0.8013,0.02425,0.01382,-0.143
2,0.82,0.02421,0.01372,-0.1434
2.1,0.828,0.02421,0.01369,-0.1419
2.2,0.8378,0.02429,0.01373,-0.1409
2.3,0.8537,0.02422,0.01363,-0.1408
2.4,0.8619,0.0243,0.0137,-0.1395
2.6,0.8827,0.02417,0.01352,-0.137
2.7,0.8975,0.02411,0.01346,-0.1366
2.8,0.9055,0.02429,0.01366,-0.1355
2.9,0.9151,0.02428,0.01365,-0.1342
3,0.9297,0.02425,0.01363,-0.1338
3.1,0.9389,0.02438,0.0138,-0.1328
3.2,0.9492,0.02432,0.01375,-0.1315
3.3,0.958,0.02445,0.01398,-0.1304
3.4,0.9676,0.02455,0.01412,-0.1294
3.5,0.9779,0.02463,0.01424,-0.1284
3.6,0.9871,0.02462,0.01425,-0.1269
3.7,1.0004,0.0246,0.01428,-0.1262
3.8,1.0176,0.02443,0.01416,-0.1258
3.9,1.0395,0.02397,0.01371,-0.1255
4,1.063,0.02358,0.01334,-0.1255
4.1,1.0893,0.02315,0.01286,-0.1258
4.2,1.1161,0.02275,0.01221,-0.1257
4.3,1.1315,0.02288,0.0122,-0.1249
4.4,1.1434,0.02318,0.01234,-0.1239
4.5,1.1512,0.02366,0.01261,-0.1223
4.6,1.1601,0.02412,0.01295,-0.1211
4.7,1.1687,0.02461,0.01335,-0.12
4.8,1.1773,0.02512,0.01379,-0.1189
4.9,1.1828,0.02579,0.01425,-0.1175
5,1.1916,0.02633,0.01475,-0.1165
5.1,1.2007,0.02689,0.01527,-0.1156
5.2,1.2096,0.02749,0.01582,-0.1146
5.3,1.2196,0.02806,0.0164,-0.1138
5.4,1.2261,0.02875,0.01699,-0.1127
5.5,1.2358,0.02937,0.0176,-0.1119
5.6,1.2462,0.02998,0.01826,-0.1111
5.7,1.2563,0.03064,0.01891,-0.1103
5.9,1.2734,0.03191,0.02026,-0.1085
6,1.2834,0.0326,0.02098,-0.1077
6.1,1.294,0.03328,0.02176,-0.1069
6.2,1.3042,0.034,0.02264,-0.1062
6.3,1.3144,0.03476,0.02344,-0.1054
6.4,1.319,0.03534,0.02408,-0.104
6.5,1.3288,0.03612,0.025,-0.1032
6.6,1.3383,0.03693,0.02594,-0.1024
6.7,1.3474,0.03774,0.02679,-0.1015
6.8,1.3564,0.03866,0.02789,-0.1006
6.9,1.365,0.0396,0.02899,-0.0997
7,1.3672,0.04019,0.02962,-0.0982
7.1,1.3746,0.04117,0.03078,-0.0972
7.2,1.3817,0.04211,0.03183,-0.0961
7.3,1.3885,0.04308,0.03281,-0.0951
7.4,1.3936,0.04432,0.03434,-0.094
7.5,1.3983,0.04551,0.03572,-0.0929
7.6,1.4028,0.04664,0.03699,-0.0918
7.8,1.4018,0.0486,0.03921,-0.0888
7.9,1.4027,0.04983,0.0406,-0.0875
8,1.4036,0.05102,0.04191,-0.0863
8.1,1.4048,0.05217,0.04314,-0.085
8.2,1.4069,0.05326,0.04428,-0.0838
8.4,1.3979,0.05655,0.048,-0.0818
8.5,1.3932,0.05821,0.04983,-0.081
8.6,1.3883,0.05989,0.05165,-0.0804
8.8,1.3787,0.06329,0.05531,-0.0795
8.9,1.3741,0.06501,0.05713,-0.0792
9,1.3699,0.06673,0.05894,-0.0791
9.1,1.3662,0.06843,0.06072,-0.0791
9.2,1.3634,0.07009,0.06244,-0.079
9.3,1.3619,0.07166,0.06406,-0.079
9.9,1.3101,0.08778,0.08068,-0.0928
10,1.3062,0.09047,0.08342,-0.0953
10.1,1.3035,0.09306,0.08604,-0.0976
10.2,1.3019,0.09547,0.08848,-0.0997
10.3,1.3015,0.09765,0.09069,-0.1013
10.4,1.3023,0.09952,0.09258,-0.1024
10.5,1.3046,0.101,0.09408,-0.1028
10.9,1.2945,0.11474,0.10787,-0.118
11.1,1.2949,0.12053,0.11368,-0.1235
11.2,1.2961,0.12297,0.11613,-0.1256
11.3,1.2978,0.12517,0.11835,-0.1272
11.4,1.3,0.12717,0.12036,-0.1286
11.5,1.3025,0.12897,0.12218,-0.1296
11.6,1.3054,0.13056,0.12379,-0.1303
11.7,1.3085,0.13194,0.1252,-0.1306
11.8,1.3062,0.1364,0.12957,-0.1374
11.9,1.308,0.1391,0.13227,-0.14
12,1.3101,0.14154,0.13472,-0.1422
12.1,1.3126,0.1438,0.13699,-0.1441
12.2,1.3153,0.14591,0.13911,-0.1457
12.3,1.3182,0.14788,0.1411,-0.1471
12.4,1.3212,0.14974,0.14298,-0.1484
12.5,1.3244,0.15148,0.14474,-0.1494
12.6,1.3277,0.1531,0.14638,-0.1502
12.7,1.3311,0.15461,0.1479,-0.1507
12.8,1.3345,0.15599,0.1493,-0.151
12.9,1.3371,0.15857,0.15181,-0.1535
13,1.3395,0.16178,0.15503,-0.1572
13.1,1.3424,0.16446,0.15771,-0.16
13.2,1.3456,0.16692,0.16017,-0.1623
13.3,1.3489,0.16919,0.16246,-0.1643
13.5,1.3559,0.17297,0.16626,-0.1681
13.6,1.3595,0.17477,0.16807,-0.1693
13.7,1.3631,0.1765,0.16981,-0.1704
13.8,1.3668,0.17816,0.17149,-0.1713
13.9,1.3704,0.17976,0.1731,-0.1721
14,1.3739,0.18129,0.17465,-0.1727
14.1,1.3774,0.18316,0.17645,-0.1739
14.2,1.3812,0.18623,0.17953,-0.1775
14.3,1.3852,0.18885,0.18215,-0.1802
14.4,1.3892,0.19126,0.18456,-0.1824
14.5,1.3932,0.19351,0.18683,-0.1844
14.6,1.3973,0.19568,0.189,-0.1863
14.7,1.4014,0.19777,0.1911,-0.1879
14.8,1.4055,0.19979,0.19314,-0.1895
14.9,1.4095,0.20177,0.19512,-0.191
15,1.4136,0.2037,0.19712,-0.1924
15.1,1.4177,0.2056,0.19902,-0.1938
15.2,1.4217,0.20746,0.2009,-0.1951
15.3,1.4252,0.20832,0.20177,-0.1958
15.4,1.429,0.21,0.20346,-0.1968
15.5,1.4328,0.21166,0.20514,-0.1976
15.6,1.4374,0.21435,0.20775,-0.2005
15.7,1.4421,0.217,0.21041,-0.2031
15.8,1.4468,0.21943,0.21285,-0.2054
15.9,1.4513,0.22175,0.21517,-0.2074
16,1.4558,0.22397,0.2174,-0.2093
16.1,1.4603,0.22614,0.21957,-0.2111
16.2,1.4647,0.22825,0.2217,-0.2128
16.3,1.4691,0.23033,0.22378,-0.2144
16.4,1.4735,0.23237,0.22583,-0.216
16.5,1.4778,0.23438,0.22785,-0.2175
16.6,1.4821,0.23637,0.22985,-0.219
16.7,1.4864,0.23834,0.23183,-0.2204
16.8,1.4907,0.2403,0.2338,-0.2218
16.9,1.495,0.24223,0.23574,-0.2232
17,1.4992,0.24415,0.23767,-0.2246
17.1,1.5034,0.24605,0.23959,-0.2259
17.2,1.5075,0.24796,0.2415,-0.2272
17.3,1.5116,0.24984,0.2434,-0.2285
17.4,1.5156,0.25172,0.24529,-0.2296
17.5,1.5196,0.25361,0.24719,-0.2308
17.6,1.5263,0.25704,0.25054,-0.2358
17.7,1.5311,0.25936,0.25286,-0.2377
17.8,1.5357,0.26162,0.25513,-0.2395
17.9,1.5403,0.26386,0.25738,-0.2413
18,1.5449,0.26606,0.25959,-0.243
18.1,1.5494,0.26825,0.26178,-0.2447
18.2,1.5539,0.27041,0.26395,-0.2464
18.3,1.5584,0.27255,0.26611,-0.248
18.4,1.5629,0.2747,0.26826,-0.2496
18.5,1.5673,0.27682,0.27044,-0.2512
18.6,1.5717,0.27894,0.27256,-0.2528
18.7,1.5761,0.28105,0.27468,-0.2544
18.8,1.5805,0.28314,0.27679,-0.256
18.9,1.5848,0.28524,0.2789,-0.2575
19,1.5892,0.28733,0.281,-0.2591
19.1,1.5934,0.28941,0.28309,-0.2606
19.2,1.5977,0.2915,0.28519,-0.2622
19.3,1.6019,0.29357,0.28728,-0.2637
19.4,1.6061,0.29565,0.28937,-0.2652
19.5,1.6103,0.29774,0.29146,-0.2667
19.6,1.6144,0.29982,0.29356,-0.2681
19.7,1.6193,0.30244,0.29611,-0.2704
19.8,1.6246,0.30526,0.29894,-0.2729
19.9,1.6296,0.30793,0.30161,-0.2751
20,1.6345,0.31051,0.3042,-0.2772
20.1,1.6392,0.31302,0.30673,-0.2792
20.2,1.6439,0.31551,0.30922,-0.2811
20.3,1.6485,0.31796,0.31168,-0.283
20.4,1.6531,0.32038,0.31411,-0.2849
20.5,1.6576,0.32281,0.31655,-0.2867
20.6,1.6621,0.32521,0.31896,-0.2886
20.7,1.6666,0.3276,0.32136,-0.2904
20.8,1.671,0.32999,0.32376,-0.2922
20.9,1.6754,0.3318,0.32558,-0.2943
21,1.6797,0.33413,0.32792,-0.296
21.1,1.684,0.33646,0.33026,-0.2978
21.2,1.6883,0.33879,0.33261,-0.2996
21.3,1.6927,0.34113,0.33496,-0.3014
21.4,1.6969,0.34347,0.3373,-0.3031
21.5,1.7012,0.34581,0.33966,-0.3049
21.6,1.7054,0.34815,0.34201,-0.3067
21.7,1.7096,0.35049,0.34441,-0.3084
21.8,1.7138,0.35283,0.34676,-0.3102
21.9,1.718,0.35518,0.34912,-0.312
22,1.7221,0.35753,0.35148,-0.3138
22.1,1.7262,0.35989,0.35386,-0.3155
22.2,1.7303,0.36226,0.35624,-0.3173
22.3,1.7343,0.36462,0.35861,-0.319
22.4,1.7386,0.36716,0.3611,-0.321
22.5,1.7439,0.37031,0.36426,-0.3236
22.6,1.7486,0.37321,0.36716,-0.3259
22.8,1.7578,0.37882,0.37279,-0.3303
22.9,1.7623,0.38156,0.37554,-0.3324
23,1.7667,0.38427,0.37826,-0.3345
23.1,1.7711,0.38695,0.38096,-0.3365
23.2,1.7754,0.38964,0.38366,-0.3386
23.3,1.7797,0.39232,0.38634,-0.3406
23.4,1.784,0.395,0.38904,-0.3427
23.5,1.7882,0.39766,0.39171,-0.3447
23.6,1.7924,0.40032,0.39438,-0.3467
23.7,1.7966,0.40298,0.39705,-0.3487
23.8,1.8008,0.40565,0.39973,-0.3508
23.9,1.8049,0.40831,0.40241,-0.3528
24,1.809,0.41099,0.4051,-0.3548
24.1,1.8132,0.41368,0.4078,-0.3569
24.2,1.8172,0.41635,0.41048,-0.3589
24.3,1.8213,0.41903,0.41318,-0.3609
24.4,1.8253,0.42172,0.41588,-0.3629
24.5,1.8293,0.42443,0.4186,-0.365
24.6,1.8333,0.42713,0.42132,-0.367
24.7,1.8373,0.42986,0.42406,-0.3691
24.8,1.8413,0.43257,0.42679,-0.3711
24.9,1.8452,0.4353,0.42957,-0.3732
25,1.8492,0.43804,0.43232,-0.3752
25.1,1.853,0.44078,0.43507,-0.3773
25.2,1.8569,0.44354,0.43785,-0.3793
25.3,1.8608,0.4463,0.44062,-0.3814
25.4,1.8647,0.44906,0.4434,-0.3835
25.5,1.8685,0.45184,0.44619,-0.3855
25.6,1.8723,0.45461,0.44898,-0.3876
25.7,1.8761,0.45741,0.45179,-0.3897
25.8,1.8798,0.4602,0.4546,-0.3918
25.9,1.8836,0.46301,0.45743,-0.3939
26,1.8873,0.46584,0.46027,-0.396
26.2,1.8954,0.4712,0.46559,-0.4011
26.3,1.8997,0.47436,0.46875,-0.4035
26.4,1.9037,0.47742,0.47183,-0.4059
26.5,1.9077,0.48048,0.4749,-0.4082
26.6,1.9116,0.48352,0.47796,-0.4106
26.7,1.9155,0.48652,0.48097,-0.4129
26.8,1.9193,0.48954,0.484,-0.4152
26.9,1.9231,0.49254,0.48701,-0.4175
27,1.9269,0.49554,0.49002,-0.4198
27.1,1.9307,0.49854,0.49304,-0.4221
27.2,1.9344,0.50155,0.49606,-0.4244
27.3,1.9381,0.50456,0.49909,-0.4267
27.4,1.9417,0.50759,0.50213,-0.429
27.5,1.9454,0.51062,0.50517,-0.4313
27.6,1.949,0.51365,0.50822,-0.4337
27.7,1.9527,0.51674,0.51132,-0.436
27.8,1.9562,0.51977,0.51437,-0.4383
27.9,1.9598,0.52284,0.51745,-0.4406
28,1.9633,0.52595,0.52061,-0.4429
28.1,1.9668,0.52904,0.52372,-0.4452
28.2,1.9703,0.53215,0.52684,-0.4475
28.3,1.9738,0.53528,0.52999,-0.4499
28.4,1.9772,0.53844,0.53316,-0.4522
28.5,1.9806,0.54158,0.53631,-0.4545
28.6,1.984,0.54475,0.5395,-0.4569
28.7,1.9874,0.54794,0.54271,-0.4592
28.8,1.9908,0.55115,0.54593,-0.4615
28.9,1.9941,0.55434,0.54913,-0.4639
29,1.9975,0.55757,0.55238,-0.4662
29.1,2.0008,0.56082,0.55564,-0.4686
29.2,2.0041,0.56408,0.55893,-0.471
29.3,2.0073,0.56732,0.56218,-0.4733
29.4,2.0105,0.57062,0.56549,-0.4757
29.5,2.0138,0.57391,0.5688,-0.4781
29.6,2.017,0.57722,0.57213,-0.4805
29.7,2.0201,0.58054,0.57546,-0.4828
29.8,2.0233,0.58386,0.5788,-0.4852
29.9,2.0265,0.58724,0.58219,-0.4876
30,2.0296,0.59058,0.58555,-0.49

