airfoilName st19.dat
Re 	690000
M 	5.000000e-01
N 	4.500000e+00
VACC 	0 VACCflag 1
XTR 	1.00 	1.00 XTRflag 0
alpha,cl,cd,cdp,cm
-30,-1.5015,0.57352,0.57183,0.3193
-29.9,-1.4978,0.57029,0.56859,0.3169
-29.8,-1.4942,0.56706,0.56535,0.3146
-29.7,-1.4905,0.56389,0.56218,0.3122
-29.6,-1.4868,0.5607,0.55899,0.3098
-29.5,-1.4831,0.55756,0.55585,0.3074
-29.4,-1.4794,0.55439,0.55268,0.3051
-29.3,-1.4756,0.55127,0.54955,0.3027
-29.2,-1.4719,0.54813,0.54641,0.3004
-29.1,-1.4681,0.54502,0.5433,0.2981
-29,-1.4643,0.54192,0.5402,0.2957
-28.9,-1.4605,0.53886,0.53713,0.2934
-28.8,-1.4567,0.53578,0.53404,0.2911
-28.7,-1.4528,0.53273,0.53099,0.2888
-28.6,-1.4491,0.52979,0.52804,0.2865
-28.5,-1.4452,0.52672,0.52497,0.2842
-28.4,-1.4413,0.5237,0.52195,0.2819
-28.3,-1.4374,0.52071,0.51895,0.2797
-28.1,-1.4295,0.51467,0.51291,0.2751
-28,-1.4256,0.51172,0.50996,0.2729
-27.9,-1.4216,0.50879,0.50702,0.2706
-27.8,-1.4177,0.50586,0.50409,0.2684
-27.6,-1.4097,0.50013,0.49836,0.264
-27.5,-1.4056,0.49715,0.49537,0.2617
-27.4,-1.4016,0.49432,0.49254,0.2595
-27.3,-1.3976,0.49148,0.4897,0.2573
-27.2,-1.3935,0.48863,0.48685,0.2551
-27.1,-1.3894,0.48581,0.48403,0.2529
-27,-1.3854,0.48302,0.48124,0.2507
-26.9,-1.3813,0.48023,0.47844,0.2485
-26.8,-1.3771,0.47745,0.47566,0.2464
-26.7,-1.373,0.4747,0.4729,0.2442
-26.6,-1.3688,0.47195,0.47015,0.242
-26.5,-1.3647,0.46923,0.46743,0.2399
-26.4,-1.3605,0.46653,0.46473,0.2377
-26.3,-1.3563,0.46381,0.462,0.2356
-26.2,-1.3521,0.46116,0.45935,0.2334
-26.1,-1.3478,0.4585,0.45668,0.2313
-26,-1.3436,0.45585,0.45403,0.2292
-25.9,-1.3393,0.45319,0.45137,0.227
-25.8,-1.335,0.4506,0.44878,0.2249
-25.7,-1.3307,0.448,0.44617,0.2228
-25.6,-1.3264,0.44543,0.4436,0.2207
-25.5,-1.322,0.44287,0.44104,0.2186
-25.4,-1.3177,0.44034,0.43851,0.2165
-25.3,-1.3133,0.43781,0.43598,0.2144
-25.2,-1.3089,0.43528,0.43345,0.2123
-25.1,-1.3046,0.43277,0.43093,0.2102
-25,-1.3001,0.43035,0.42851,0.2081
-24.9,-1.2957,0.42791,0.42607,0.206
-24.8,-1.2913,0.42545,0.42361,0.2039
-24.7,-1.2868,0.42306,0.42122,0.2018
-24.6,-1.2823,0.42066,0.41881,0.1997
-24.5,-1.2778,0.41832,0.41647,0.1977
-24.4,-1.2725,0.418,0.41615,0.1949
-24.3,-1.2679,0.4155,0.41365,0.1929
-24.2,-1.2633,0.41305,0.4112,0.1908
-24.1,-1.2587,0.41061,0.40876,0.1887
-24,-1.2541,0.40805,0.4062,0.1867
-23.9,-1.2494,0.40559,0.40374,0.1847
-23.8,-1.2446,0.40327,0.40142,0.1826
-23.7,-1.24,0.40076,0.3989,0.1806
-23.1,-1.2101,0.38856,0.38671,0.1678
-23,-1.2056,0.38573,0.38388,0.166
-22.9,-1.2012,0.3828,0.38095,0.1643
-22.8,-1.1968,0.37995,0.37809,0.1625
-22.7,-1.1924,0.37706,0.3752,0.1608
-22.6,-1.188,0.37418,0.37232,0.1591
-22.5,-1.1836,0.37132,0.36945,0.1574
-22.4,-1.1791,0.36852,0.36665,0.1556
-22.3,-1.1747,0.36571,0.36385,0.1539
-22.2,-1.1702,0.36288,0.36101,0.1522
-22.1,-1.1658,0.36009,0.35822,0.1506
-22,-1.1613,0.35732,0.35544,0.1489
-21.9,-1.1569,0.35454,0.35266,0.1472
-21.8,-1.1524,0.3518,0.34992,0.1455
-21.7,-1.148,0.34908,0.3472,0.1439
-21.6,-1.1435,0.3464,0.34452,0.1422
-21.5,-1.139,0.34367,0.34179,0.1406
-21.4,-1.1346,0.34102,0.33913,0.139
-21.3,-1.1301,0.33841,0.33653,0.1373
-21.2,-1.1256,0.33579,0.3339,0.1357
-21.1,-1.1211,0.3332,0.33131,0.1341
-21,-1.1166,0.33065,0.32876,0.1325
-20.9,-1.1121,0.32811,0.32621,0.1308
-20.8,-1.1076,0.32562,0.32373,0.1292
-20.7,-1.1031,0.32313,0.32123,0.1276
-20.6,-1.0985,0.32068,0.31878,0.126
-20.5,-1.094,0.31826,0.31636,0.1244
-20.4,-1.0894,0.31587,0.31395,0.1229
-20.3,-1.0848,0.31349,0.31158,0.1213
-20.2,-1.0802,0.31114,0.30922,0.1197
-20.1,-1.0756,0.30881,0.30689,0.1181
-20,-1.071,0.3065,0.30458,0.1165
-19.9,-1.0664,0.3042,0.30228,0.115
-19.8,-1.0618,0.30192,0.3,0.1134
-19.7,-1.0571,0.29967,0.29775,0.1119
-19.6,-1.0525,0.29743,0.29551,0.1103
-19.5,-1.0478,0.2952,0.29328,0.1088
-19.4,-1.0432,0.29298,0.29106,0.1073
-19.3,-1.0385,0.29079,0.28886,0.1057
-19.2,-1.0338,0.28859,0.28667,0.1042
-19.1,-1.0291,0.28641,0.28448,0.1027
-19,-1.0244,0.28424,0.28231,0.1012
-18.9,-1.0197,0.28208,0.28015,0.0997
-18.8,-1.015,0.27992,0.27799,0.0982
-18.7,-1.0103,0.27778,0.27585,0.0967
-18.6,-1.0056,0.27563,0.2737,0.0952
-18.5,-1.0009,0.27351,0.27158,0.0937
-18.4,-0.9962,0.27139,0.26946,0.0923
-18.3,-0.9914,0.26928,0.26735,0.0908
-18.2,-0.9867,0.26717,0.26523,0.0894
-18.1,-0.982,0.26507,0.26314,0.0879
-18,-0.9772,0.26299,0.26105,0.0865
-17.9,-0.9725,0.2609,0.25897,0.0851
-17.8,-0.9677,0.25883,0.25689,0.0836
-17.7,-0.9629,0.25677,0.25483,0.0822
-17.6,-0.9582,0.25471,0.25278,0.0808
-17.5,-0.9534,0.25267,0.25073,0.0794
-17.4,-0.9486,0.25063,0.24868,0.078
-17.3,-0.9438,0.2486,0.24665,0.0766
-17.2,-0.939,0.24658,0.24463,0.0752
-17.1,-0.9342,0.24456,0.24261,0.0738
-17,-0.9294,0.24255,0.2406,0.0724
-16.9,-0.9245,0.24054,0.23859,0.071
-16.8,-0.9196,0.23855,0.23659,0.0696
-16.7,-0.9147,0.23655,0.2346,0.0683
-16.6,-0.9098,0.23457,0.23261,0.0669
-16.5,-0.9049,0.23259,0.23063,0.0655
-16.4,-0.8989,0.23103,0.22907,0.0635
-16.3,-0.8939,0.22901,0.22706,0.0621
-16.2,-0.889,0.22699,0.22504,0.0608
-16.1,-0.8841,0.22498,0.22303,0.0594
-16,-0.8791,0.22296,0.22101,0.0581
-15.9,-0.8742,0.22093,0.21898,0.0568
-15.8,-0.8692,0.2189,0.21695,0.0555
-15.7,-0.8643,0.21687,0.21492,0.0542
-15.6,-0.8593,0.21483,0.21288,0.0528
-15.5,-0.8544,0.21278,0.21083,0.0516
-15.4,-0.8493,0.2107,0.20875,0.0502
-15.3,-0.8441,0.20863,0.20668,0.0489
-15.2,-0.8388,0.20659,0.20464,0.0476
-15.1,-0.833,0.20458,0.20262,0.0461
-15,-0.8273,0.20268,0.20073,0.0447
-14.8,-0.8157,0.19898,0.19704,0.0418
-14.7,-0.8113,0.19698,0.19504,0.0407
-14.6,-0.8069,0.19496,0.19303,0.0396
-14.5,-0.8025,0.19298,0.19104,0.0386
-14.4,-0.7981,0.191,0.18907,0.0375
-14.3,-0.7938,0.18904,0.18711,0.0365
-14.2,-0.7893,0.18713,0.18518,0.0354
-14.1,-0.7849,0.18522,0.18327,0.0344
-14,-0.7804,0.18334,0.1814,0.0333
-13.9,-0.7759,0.18151,0.17956,0.0323
-13.8,-0.7714,0.1797,0.17776,0.0312
-13.7,-0.7668,0.17792,0.17598,0.0302
-13.6,-0.7621,0.17618,0.17424,0.0291
-13.5,-0.7575,0.17446,0.17252,0.028
-13.4,-0.7527,0.17275,0.17082,0.0269
-13.3,-0.748,0.17107,0.16913,0.0259
-13.2,-0.7432,0.16941,0.16747,0.0248
-13.1,-0.7384,0.16776,0.16583,0.0237
-13,-0.7335,0.16612,0.16419,0.0227
-12.9,-0.7286,0.16449,0.16256,0.0216
-12.8,-0.7237,0.16289,0.16095,0.0205
-12.7,-0.7187,0.16127,0.15934,0.0194
-12.6,-0.7137,0.15968,0.15775,0.0184
-12.5,-0.7087,0.1581,0.15617,0.0173
-12.4,-0.7037,0.15652,0.15459,0.0162
-12.3,-0.6987,0.15494,0.15302,0.0152
-12.2,-0.6936,0.15338,0.15146,0.0141
-12.1,-0.6886,0.15182,0.1499,0.0131
-12,-0.6836,0.15027,0.14835,0.0121
-11.9,-0.6785,0.14873,0.14681,0.011
-11.8,-0.6735,0.14719,0.14527,0.01
-11.7,-0.6684,0.14566,0.14374,0.009
-11.6,-0.6633,0.14412,0.14221,0.008
-11.5,-0.6582,0.1426,0.14069,0.0069
-11.4,-0.6531,0.14108,0.13918,0.0059
-11.3,-0.648,0.13958,0.13767,0.005
-11.2,-0.6429,0.13807,0.13616,0.004
-11.1,-0.6379,0.13658,0.13467,0.003
-11,-0.6329,0.1351,0.13319,0.0021
-10.9,-0.6279,0.13363,0.13172,0.0011
-10.8,-0.6229,0.13217,0.13026,0.0002
-10.7,-0.6179,0.13071,0.12881,-0.0007
-10.6,-0.6131,0.12926,0.12736,-0.0016
-10.5,-0.6082,0.12782,0.12593,-0.0025
-10.4,-0.6035,0.12639,0.1245,-0.0033
-10.3,-0.5978,0.1247,0.12282,-0.0045
-10.2,-0.5934,0.12323,0.12136,-0.0052
-10.1,-0.5891,0.12179,0.11992,-0.0058
-10,-0.5851,0.12039,0.11852,-0.0064
-9.9,-0.5814,0.11901,0.11715,-0.0069
-9.8,-0.578,0.11769,0.11585,-0.0072
-9.7,-0.5749,0.11644,0.11461,-0.0075
-9.6,-0.5724,0.11531,0.11349,-0.0075
-9.5,-0.5647,0.11371,0.11189,-0.0091
-9.3,-0.5465,0.11026,0.10845,-0.0131
-9.2,-0.5391,0.10857,0.10676,-0.0147
-9.1,-0.5308,0.10681,0.105,-0.0166
-9,-0.5231,0.10511,0.10329,-0.0183
-8.9,-0.5153,0.10346,0.10164,-0.0199
-8.8,-0.508,0.10185,0.10004,-0.0215
-8.7,-0.5003,0.10027,0.09845,-0.0231
-8.6,-0.4923,0.09868,0.09686,-0.0249
-8.5,-0.4833,0.09706,0.09523,-0.0268
-8.4,-0.4747,0.09551,0.09368,-0.0287
-8.3,-0.4659,0.094,0.09217,-0.0306
-8.2,-0.4585,0.09264,0.0908,-0.032
-8.1,-0.4504,0.09125,0.08941,-0.0337
-8,-0.4418,0.08985,0.08801,-0.0354
-7.9,-0.4327,0.08844,0.08659,-0.0373
-7.8,-0.4231,0.08702,0.08517,-0.0393
-7.7,-0.4155,0.08577,0.08392,-0.0407
-7.6,-0.4076,0.08451,0.08266,-0.0423
-7.5,-0.3987,0.08321,0.08135,-0.044
-7.4,-0.3889,0.08186,0.07999,-0.046
-7.3,-0.3779,0.08045,0.07857,-0.0483
-7.2,-0.3692,0.07921,0.07733,-0.05
-7.1,-0.3597,0.07792,0.07604,-0.0519
-7,-0.3493,0.07659,0.07469,-0.0539
-6.9,-0.3383,0.07523,0.07332,-0.0561
-6.8,-0.3267,0.07382,0.07191,-0.0584
-6.7,-0.3165,0.07253,0.07061,-0.0604
-6.6,-0.3061,0.07124,0.06931,-0.0623
-6.5,-0.295,0.06991,0.06797,-0.0644
-6.4,-0.2833,0.06855,0.0666,-0.0667
-6.3,-0.2712,0.06717,0.06521,-0.069
-6.2,-0.259,0.0658,0.06382,-0.0713
-6.1,-0.2466,0.06443,0.06244,-0.0736
-6,-0.2345,0.06306,0.06106,-0.0759
-5.9,-0.2218,0.06167,0.05965,-0.0782
-5.8,-0.2087,0.06026,0.05821,-0.0805
-5.7,-0.1951,0.05883,0.05676,-0.083
-5.6,-0.1818,0.05743,0.05535,-0.0854
-5.5,-0.1681,0.05601,0.05391,-0.0878
-5.4,-0.1539,0.05456,0.05244,-0.0904
-5.3,-0.1391,0.05307,0.05093,-0.093
-5.2,-0.1238,0.05156,0.0494,-0.0957
-5.1,-0.1079,0.04999,0.0478,-0.0986
-5,-0.0921,0.04841,0.0462,-0.1013
-4.9,-0.0758,0.04675,0.04451,-0.1042
-4.8,-0.0586,0.04502,0.04273,-0.1073
-4.7,-0.0401,0.04307,0.04074,-0.1107
-4.6,-0.0211,0.04112,0.03875,-0.1142
-4.5,-0.0025,0.03944,0.03705,-0.1175
-4.4,0.016,0.03801,0.03558,-0.1205
-4.2,0.0534,0.03534,0.03281,-0.1261
-4,0.0917,0.03261,0.02997,-0.1316
-3.9,0.1113,0.03113,0.02842,-0.1343
-3.8,0.1318,0.02948,0.0267,-0.1373
-3.6,0.1776,0.02492,0.02191,-0.1447
-3.5,0.2246,0.01393,0.00999,-0.159
-3.4,0.243,0.01166,0.00729,-0.1612
-3.3,0.2585,0.01089,0.00632,-0.1618
-3.2,0.2737,0.01037,0.00565,-0.1621
-3.1,0.2886,0.00996,0.00511,-0.1622
-3,0.3034,0.00962,0.00464,-0.1623
-2.9,0.3181,0.00933,0.00423,-0.1624
-2.8,0.3326,0.00908,0.00388,-0.1623
-2.7,0.3471,0.00887,0.00357,-0.1623
-2.6,0.3615,0.00868,0.00333,-0.1623
-2.5,0.3753,0.00864,0.00329,-0.1622
-2.4,0.3895,0.0085,0.00308,-0.1621
-2.3,0.4037,0.00839,0.00289,-0.1621
-2.2,0.4178,0.00826,0.00273,-0.162
-2.1,0.4318,0.00817,0.00261,-0.162
-2,0.4456,0.00812,0.00254,-0.1619
-1.9,0.4595,0.00805,0.00242,-0.1618
-1.8,0.4735,0.00796,0.0023,-0.1617
-1.7,0.4873,0.0079,0.00222,-0.1617
-1.6,0.5007,0.00786,0.00214,-0.1615
-1.5,0.5142,0.00783,0.00208,-0.1613
-1.4,0.528,0.00778,0.00201,-0.1613
-1.3,0.5411,0.00775,0.00193,-0.161
-1.2,0.5548,0.00771,0.00189,-0.161
-1.1,0.5685,0.00769,0.00183,-0.1609
-1,0.5816,0.00768,0.00178,-0.1607
-0.9,0.595,0.00767,0.00173,-0.1606
-0.8,0.6085,0.00765,0.00172,-0.1605
-0.7,0.6217,0.00765,0.00169,-0.1604
-0.6,0.6349,0.00766,0.00166,-0.1602
-0.5,0.6485,0.00764,0.00163,-0.1601
-0.4,0.6619,0.00763,0.00162,-0.1601
-0.3,0.6752,0.00764,0.00161,-0.16
-0.2,0.6881,0.00767,0.0016,-0.1598
-0.1,0.7012,0.00769,0.0016,-0.1596
0,0.7141,0.00772,0.00159,-0.1594
0.1,0.7274,0.00773,0.0016,-0.1593
0.2,0.7398,0.0078,0.0016,-0.159
0.3,0.7524,0.00785,0.00161,-0.1587
0.4,0.7652,0.00789,0.00164,-0.1586
0.5,0.7779,0.00795,0.00165,-0.1583
0.6,0.7887,0.00813,0.00169,-0.1577
0.7,0.8011,0.00821,0.00173,-0.1574
0.8,0.8134,0.0083,0.00177,-0.1572
0.9,0.8257,0.00839,0.00181,-0.1569
1,0.8367,0.00858,0.00189,-0.1564
1.1,0.8488,0.00869,0.00196,-0.156
1.2,0.859,0.00894,0.00208,-0.1554
1.3,0.8701,0.00913,0.00217,-0.1549
1.4,0.8816,0.0093,0.00225,-0.1545
1.5,0.8914,0.00959,0.0024,-0.1539
1.6,0.9023,0.00981,0.00251,-0.1534
1.7,0.9129,0.01007,0.00264,-0.1529
1.9,0.9312,0.01086,0.00305,-0.1515
2,0.9427,0.01105,0.00317,-0.1511
2.1,0.9547,0.0112,0.00327,-0.1508
2.2,0.9668,0.01133,0.00338,-0.1505
2.3,0.9786,0.0115,0.0035,-0.1501
2.4,0.991,0.0116,0.00359,-0.1498
2.5,1.0034,0.01171,0.00369,-0.1495
2.6,1.016,0.0118,0.0038,-0.1493
2.7,1.0284,0.01191,0.0039,-0.149
2.8,1.041,0.012,0.00399,-0.1487
2.9,1.053,0.01214,0.0041,-0.1483
3,1.0657,0.01222,0.00419,-0.148
3.1,1.0782,0.01232,0.00429,-0.1477
3.2,1.0907,0.01242,0.0044,-0.1474
3.3,1.1035,0.01249,0.0045,-0.1471
3.4,1.1156,0.01262,0.00463,-0.1467
3.5,1.1284,0.01269,0.00475,-0.1464
3.6,1.1352,0.01158,0.00499,-0.1453
3.7,1.1476,0.01172,0.00511,-0.1449
3.8,1.1602,0.01184,0.00522,-0.1445
3.9,1.1727,0.01196,0.00533,-0.1441
4,1.1848,0.01213,0.00549,-0.1436
4.1,1.1973,0.01226,0.00561,-0.1431
4.2,1.2097,0.01241,0.00574,-0.1427
4.3,1.222,0.01255,0.00588,-0.1422
4.4,1.2345,0.01269,0.00601,-0.1417
4.5,1.2464,0.01288,0.00617,-0.1411
4.6,1.2589,0.01302,0.00631,-0.1406
4.7,1.2712,0.01317,0.00646,-0.1401
4.8,1.2833,0.01335,0.00662,-0.1395
4.9,1.2956,0.0135,0.00679,-0.1389
5,1.3079,0.01366,0.00695,-0.1383
5.1,1.3196,0.01388,0.00714,-0.1376
5.2,1.3319,0.01404,0.00731,-0.137
5.3,1.3441,0.01422,0.00749,-0.1363
5.4,1.3559,0.01442,0.00771,-0.1356
5.5,1.3681,0.0146,0.00791,-0.1349
5.6,1.3802,0.01478,0.00811,-0.1342
5.7,1.3921,0.01499,0.00833,-0.1334
5.8,1.4037,0.01522,0.00856,-0.1326
5.9,1.4157,0.01542,0.00878,-0.1318
6,1.4276,0.01563,0.00902,-0.131
6.1,1.4392,0.01586,0.00926,-0.1301
6.2,1.4509,0.0161,0.00954,-0.1292
6.3,1.4627,0.01632,0.00979,-0.1283
6.4,1.4744,0.01655,0.01007,-0.1273
6.5,1.4859,0.01679,0.01035,-0.1264
6.7,1.5082,0.01735,0.01097,-0.1243
6.8,1.5194,0.01761,0.01131,-0.1232
6.9,1.5305,0.01789,0.01165,-0.122
7,1.5413,0.01819,0.01201,-0.1208
7.1,1.5519,0.0185,0.01238,-0.1195
7.2,1.5621,0.01884,0.01278,-0.1182
7.3,1.5718,0.01922,0.01323,-0.1168
7.4,1.5818,0.01956,0.01364,-0.1154
7.5,1.592,0.01989,0.01402,-0.114
7.6,1.6011,0.0203,0.01451,-0.1124
7.7,1.6086,0.02076,0.01506,-0.1106
7.8,1.6152,0.02128,0.0157,-0.1086
7.9,1.6211,0.02186,0.0164,-0.1066
8,1.6263,0.02249,0.01716,-0.1044
8.1,1.6308,0.02318,0.01798,-0.1023
8.2,1.6344,0.02394,0.01888,-0.1001
8.3,1.6371,0.02477,0.01985,-0.0978
8.4,1.6379,0.02573,0.02096,-0.0954
8.5,1.6372,0.0268,0.0222,-0.093
8.6,1.6353,0.02796,0.02353,-0.0906
8.7,1.6325,0.02917,0.02491,-0.0883
8.9,1.6244,0.0318,0.02789,-0.0839
9,1.619,0.03321,0.02946,-0.0819
9.1,1.6132,0.03468,0.03108,-0.0801
9.2,1.6066,0.03623,0.03278,-0.0784
9.3,1.5998,0.03783,0.03451,-0.077
9.4,1.5925,0.03949,0.0363,-0.0758
9.8,1.5636,0.04677,0.04407,-0.0735
10,1.5478,0.05099,0.04851,-0.0742
10.3,1.5248,0.05829,0.05611,-0.0783
10.5,1.5106,0.06401,0.06201,-0.0835
10.6,1.5041,0.06721,0.0653,-0.087
10.7,1.4981,0.07071,0.06889,-0.091
10.8,1.4926,0.07455,0.07281,-0.0956
11.4,1.461,0.09918,0.09772,-0.1202
11.5,1.4562,0.10274,0.10128,-0.1236
11.6,1.4516,0.10623,0.10478,-0.1269
11.8,1.4437,0.11301,0.11156,-0.1334
11.9,1.4402,0.11633,0.11489,-0.1365
12,1.4372,0.11958,0.11814,-0.1395
12.1,1.4346,0.12278,0.12134,-0.1424
12.2,1.4317,0.12608,0.12462,-0.1455
12.3,1.4287,0.12948,0.12802,-0.1486
12.4,1.4258,0.13289,0.13144,-0.1516
12.5,1.4236,0.13622,0.13477,-0.1546
12.6,1.4214,0.1396,0.13815,-0.1576
12.7,1.4198,0.14287,0.14141,-0.1604
12.9,1.4176,0.14929,0.14784,-0.1658
13,1.4172,0.15237,0.15092,-0.1684
13.1,1.4172,0.1554,0.15395,-0.1709
13.2,1.4176,0.15833,0.15688,-0.1733
13.4,1.4198,0.16392,0.16247,-0.1778
13.5,1.4213,0.16659,0.16514,-0.1799
13.6,1.4232,0.16919,0.16774,-0.182
13.7,1.4254,0.1717,0.17025,-0.1839
13.8,1.4278,0.17414,0.17269,-0.1859
13.9,1.4303,0.17652,0.17507,-0.1878
14,1.433,0.17883,0.17738,-0.1896
14.1,1.4359,0.18108,0.17962,-0.1914
14.2,1.439,0.18325,0.1818,-0.1932
14.3,1.4421,0.18541,0.18396,-0.195
14.4,1.4454,0.18746,0.18601,-0.1967
14.5,1.4486,0.18949,0.18804,-0.1984
14.6,1.4519,0.1915,0.19006,-0.2001
14.7,1.4552,0.19347,0.19202,-0.2018
14.8,1.4575,0.19624,0.19478,-0.2038
14.9,1.4598,0.19916,0.19771,-0.2058
15,1.4626,0.20184,0.20038,-0.2077
15.1,1.4656,0.2044,0.20294,-0.2095
15.2,1.4688,0.20692,0.20547,-0.2113
15.3,1.4721,0.20932,0.20786,-0.2131
15.4,1.4756,0.21166,0.2102,-0.2148
15.5,1.4791,0.21394,0.21248,-0.2165
15.7,1.4867,0.2184,0.21694,-0.2199
15.8,1.4904,0.22049,0.21904,-0.2216
15.9,1.4942,0.22254,0.22109,-0.2232
16,1.4981,0.22458,0.22313,-0.2248
16.1,1.5019,0.22661,0.22516,-0.2264
16.2,1.5058,0.22858,0.22714,-0.228
16.3,1.5097,0.23055,0.2291,-0.2296
16.4,1.5136,0.23249,0.23104,-0.2312
16.5,1.5175,0.23445,0.23301,-0.2328
16.6,1.5214,0.23634,0.2349,-0.2344
16.7,1.5252,0.23824,0.2368,-0.236
16.8,1.5291,0.24017,0.23873,-0.2376
16.9,1.5329,0.24206,0.24063,-0.2392
17,1.537,0.24471,0.24326,-0.241
17.1,1.5411,0.24786,0.24642,-0.2428
17.2,1.5453,0.25067,0.24922,-0.2446
17.3,1.5495,0.25334,0.25189,-0.2463
17.4,1.5537,0.25589,0.25445,-0.248
17.5,1.5579,0.25834,0.2569,-0.2497
17.6,1.5621,0.26077,0.25933,-0.2514
17.7,1.5663,0.26314,0.26171,-0.2531
17.8,1.5705,0.26546,0.26402,-0.2547
17.9,1.5747,0.2678,0.26637,-0.2564
18,1.5789,0.27008,0.26865,-0.2581
18.1,1.5831,0.27237,0.27094,-0.2597
18.2,1.5874,0.27462,0.27321,-0.2614
18.3,1.5915,0.27686,0.27545,-0.2631
18.4,1.5957,0.27912,0.27771,-0.2647
18.5,1.5999,0.28134,0.27994,-0.2664
18.6,1.6041,0.28356,0.28216,-0.2681
18.7,1.6083,0.28578,0.28437,-0.2697
18.8,1.6125,0.28798,0.28658,-0.2714
18.9,1.6167,0.29019,0.28879,-0.2731
19,1.6209,0.29238,0.29098,-0.2748
19.1,1.6251,0.29459,0.29319,-0.2765
19.2,1.6293,0.29677,0.29538,-0.2782
19.3,1.6334,0.29895,0.29756,-0.2798
19.4,1.6376,0.30115,0.29977,-0.2815
19.5,1.6418,0.30334,0.30196,-0.2832
19.6,1.6459,0.30551,0.30413,-0.2849
19.7,1.65,0.30769,0.30631,-0.2867
19.8,1.6542,0.30988,0.30851,-0.2884
19.9,1.6583,0.31207,0.31069,-0.2901
20,1.6624,0.31425,0.31288,-0.2918
20.1,1.6665,0.31642,0.31505,-0.2936
20.2,1.6707,0.31862,0.31726,-0.2953
20.3,1.6747,0.32078,0.31942,-0.297
20.4,1.6788,0.32301,0.32165,-0.2988
20.5,1.6829,0.32522,0.32386,-0.3005
20.6,1.687,0.32739,0.32604,-0.3023
20.7,1.691,0.32962,0.32827,-0.3041
20.8,1.6951,0.33181,0.33046,-0.3058
20.9,1.6991,0.33404,0.33269,-0.3076
21,1.7031,0.33625,0.3349,-0.3094
21.1,1.7071,0.3385,0.33716,-0.3112
21.2,1.7111,0.34073,0.33939,-0.313
21.3,1.7151,0.343,0.34167,-0.3148
21.4,1.7191,0.34525,0.34393,-0.3166
21.5,1.7231,0.34753,0.34621,-0.3184
21.6,1.7291,0.35225,0.35092,-0.3208
21.7,1.7338,0.35541,0.35408,-0.3228
21.8,1.7382,0.35819,0.35686,-0.3247
21.9,1.7426,0.36096,0.35964,-0.3266
22,1.747,0.36381,0.36249,-0.3286
22.1,1.7513,0.36653,0.36521,-0.3305
22.2,1.7555,0.36919,0.36787,-0.3325
22.3,1.7598,0.37186,0.37055,-0.3344
22.4,1.764,0.37444,0.37313,-0.3363
22.5,1.7682,0.37709,0.37578,-0.3383
22.6,1.7723,0.37968,0.37838,-0.3402
22.7,1.7765,0.38227,0.38097,-0.3422
22.8,1.7806,0.38487,0.38357,-0.3442
22.9,1.7847,0.38745,0.38615,-0.3461
23,1.7888,0.39002,0.38872,-0.3481
23.1,1.7929,0.39258,0.39129,-0.3501
23.2,1.7969,0.39515,0.39387,-0.352
23.3,1.8009,0.39772,0.39643,-0.354
23.4,1.805,0.40029,0.39901,-0.356
23.5,1.809,0.40286,0.40158,-0.358
23.6,1.8129,0.40539,0.40411,-0.36
23.7,1.8169,0.40794,0.40667,-0.362
23.8,1.8209,0.4105,0.40924,-0.364
23.9,1.8248,0.41306,0.4118,-0.3661
24,1.8287,0.41561,0.41435,-0.3681
24.1,1.8326,0.41817,0.41692,-0.3701
24.2,1.8365,0.42072,0.41946,-0.3722
24.3,1.8403,0.42327,0.42202,-0.3742
24.4,1.8442,0.42583,0.42458,-0.3762
24.5,1.848,0.42839,0.42714,-0.3783
24.6,1.8518,0.43096,0.42972,-0.3804
24.7,1.8556,0.43351,0.43229,-0.3824
24.8,1.8594,0.43607,0.43485,-0.3845
24.9,1.8632,0.43867,0.43746,-0.3866
25,1.8669,0.44122,0.44,-0.3887
25.1,1.8706,0.44382,0.44261,-0.3908
25.2,1.8743,0.44636,0.44516,-0.3929
25.3,1.878,0.44895,0.44775,-0.395
25.4,1.8817,0.45154,0.45035,-0.3971
25.5,1.8853,0.45414,0.45295,-0.3992
25.6,1.889,0.45675,0.45556,-0.4013
25.7,1.8926,0.45932,0.45814,-0.4035
25.8,1.8962,0.46194,0.46075,-0.4056
25.9,1.8998,0.46455,0.46338,-0.4077
26,1.9033,0.46716,0.46599,-0.4099
26.1,1.9069,0.46981,0.46864,-0.412
26.2,1.9104,0.47245,0.47129,-0.4142
26.3,1.9139,0.47513,0.47397,-0.4164
26.4,1.9174,0.47779,0.47663,-0.4185
26.5,1.9209,0.48049,0.47933,-0.4207
26.6,1.9244,0.48317,0.48202,-0.4229
26.7,1.9278,0.48587,0.48472,-0.4251
26.8,1.9312,0.48859,0.48745,-0.4273
26.9,1.9347,0.49133,0.49019,-0.4295
27,1.9381,0.49409,0.49295,-0.4317
27.1,1.9415,0.49687,0.49574,-0.4339
27.2,1.9449,0.49966,0.49853,-0.4361
27.3,1.9483,0.50249,0.50137,-0.4383
27.4,1.9516,0.50531,0.50419,-0.4405
27.5,1.955,0.50816,0.50705,-0.4428
27.6,1.9583,0.51102,0.50991,-0.445
27.7,1.9648,0.51698,0.51585,-0.4482
27.8,1.9683,0.52015,0.51902,-0.4505
27.9,1.9722,0.52366,0.52255,-0.4529
28,1.976,0.52697,0.52586,-0.4553
28.1,1.9797,0.53024,0.52913,-0.4577
28.2,1.9832,0.53337,0.53227,-0.4601
28.3,1.9867,0.53654,0.53544,-0.4625
28.4,1.9902,0.53966,0.53857,-0.4649
28.5,1.9936,0.54271,0.54162,-0.4673
28.6,1.9971,0.54582,0.54473,-0.4698
28.7,2.0005,0.5489,0.54781,-0.4722
28.8,2.0038,0.55196,0.55088,-0.4746
28.9,2.007,0.55495,0.55388,-0.477
29,2.0104,0.55802,0.55695,-0.4794
29.1,2.0136,0.56106,0.55999,-0.4818
29.2,2.0169,0.5641,0.56303,-0.4843
29.3,2.02,0.56712,0.56606,-0.4867
29.4,2.0232,0.57014,0.56908,-0.4891
29.5,2.0263,0.57318,0.57213,-0.4915
29.6,2.0294,0.57622,0.57517,-0.494
29.7,2.0325,0.57924,0.57819,-0.4964
29.8,2.0355,0.58227,0.58123,-0.4989
29.9,2.0387,0.58532,0.58429,-0.5013
30,2.0416,0.58835,0.58732,-0.5038

