airfoilName st20.dat
Re 	4.100000e+05
M 	5.000000e-01
N 	4.500000e+00
VACC 	0 VACCflag 1
XTR 	1.00 	1.00 XTRflag 0
alpha,cl,cd,cdp,cm
-30,-1.4763,0.58789,0.58559,0.3147
-29.9,-1.4727,0.58452,0.58222,0.3123
-29.8,-1.4691,0.58108,0.57877,0.31
-29.7,-1.4654,0.57774,0.57542,0.3077
-29.6,-1.4618,0.57442,0.5721,0.3053
-29.5,-1.4581,0.57101,0.56868,0.303
-29.4,-1.4544,0.56772,0.56539,0.3007
-29.3,-1.4507,0.56443,0.5621,0.2983
-29.2,-1.447,0.56118,0.55884,0.296
-29.1,-1.4432,0.55787,0.55553,0.2937
-29,-1.4395,0.55467,0.55233,0.2914
-28.9,-1.4357,0.55142,0.54907,0.2891
-28.8,-1.4319,0.54826,0.54591,0.2868
-28.7,-1.4281,0.54502,0.54267,0.2845
-28.6,-1.4243,0.54188,0.53952,0.2823
-28.5,-1.4205,0.53876,0.5364,0.28
-28.4,-1.4166,0.53558,0.53322,0.2777
-28.3,-1.4127,0.53247,0.5301,0.2755
-28.2,-1.4088,0.52939,0.52701,0.2732
-28.1,-1.4049,0.5263,0.52392,0.271
-28,-1.401,0.52325,0.52087,0.2688
-27.9,-1.3971,0.52021,0.51782,0.2665
-27.8,-1.3931,0.51719,0.5148,0.2643
-27.7,-1.3891,0.51418,0.51179,0.2621
-27.6,-1.3851,0.51121,0.50881,0.2599
-27.5,-1.3812,0.50827,0.50587,0.2577
-27.4,-1.3771,0.50533,0.50292,0.2555
-27.3,-1.3731,0.50241,0.49999,0.2533
-27.2,-1.369,0.4995,0.49709,0.2511
-27.1,-1.365,0.49662,0.4942,0.2489
-27,-1.3609,0.49377,0.49135,0.2467
-26.9,-1.3568,0.49094,0.48851,0.2445
-26.8,-1.3527,0.48813,0.4857,0.2423
-26.7,-1.3485,0.48535,0.48291,0.2402
-26.6,-1.3444,0.48257,0.48013,0.238
-26.5,-1.3402,0.47981,0.47737,0.2359
-26.4,-1.336,0.47712,0.47468,0.2337
-26.3,-1.3318,0.4744,0.47196,0.2315
-26.2,-1.3276,0.47171,0.46927,0.2294
-26.1,-1.3233,0.46909,0.46664,0.2272
-26,-1.319,0.46642,0.46397,0.2251
-25.9,-1.3147,0.46385,0.4614,0.2229
-25.8,-1.3104,0.46129,0.45883,0.2208
-25.7,-1.3061,0.45875,0.45629,0.2187
-25.6,-1.3017,0.45623,0.45377,0.2165
-25.5,-1.2974,0.45368,0.45122,0.2144
-25.4,-1.293,0.45126,0.44879,0.2123
-25.3,-1.2885,0.44891,0.44644,0.2101
-25.2,-1.2841,0.44654,0.44407,0.2079
-25.1,-1.2796,0.44419,0.44171,0.2058
-25,-1.2751,0.44198,0.43951,0.2036
-24.9,-1.2705,0.43977,0.43729,0.2014
-24.8,-1.2659,0.43762,0.43514,0.1992
-22.6,-1.1622,0.38268,0.38017,0.1547
-22.5,-1.1578,0.37987,0.37735,0.153
-22.4,-1.1534,0.37706,0.37455,0.1513
-22.3,-1.149,0.37426,0.37175,0.1496
-22.2,-1.1446,0.37148,0.36896,0.1479
-22.1,-1.1402,0.3687,0.36618,0.1462
-22,-1.1358,0.36596,0.36343,0.1446
-21.9,-1.1314,0.36321,0.36068,0.1429
-21.8,-1.1269,0.36051,0.35798,0.1412
-21.7,-1.1225,0.35776,0.35523,0.1396
-21.6,-1.1181,0.3551,0.35256,0.1379
-21.5,-1.1136,0.3524,0.34986,0.1363
-21.4,-1.1092,0.34975,0.34719,0.1347
-21.3,-1.1047,0.34711,0.34456,0.1331
-21.2,-1.1003,0.34447,0.34191,0.1315
-21.1,-1.0958,0.34187,0.33931,0.1299
-21,-1.0913,0.33927,0.33671,0.1283
-20.9,-1.0868,0.3367,0.33414,0.1267
-20.8,-1.0823,0.33414,0.33158,0.1251
-20.7,-1.0778,0.3316,0.32904,0.1235
-20.6,-1.0733,0.32907,0.32651,0.1219
-20.5,-1.0688,0.32657,0.324,0.1203
-20.4,-1.0642,0.32408,0.32151,0.1188
-20.3,-1.0597,0.32162,0.31904,0.1172
-20.2,-1.0551,0.31916,0.31658,0.1157
-20.1,-1.0506,0.31673,0.31415,0.1141
-20,-1.046,0.3143,0.31173,0.1126
-19.9,-1.0414,0.31191,0.30933,0.111
-19.8,-1.0368,0.30952,0.30694,0.1095
-19.7,-1.0322,0.30716,0.30458,0.108
-19.6,-1.0276,0.30481,0.30222,0.1065
-19.5,-1.023,0.30248,0.29989,0.105
-19.4,-1.0184,0.30016,0.29757,0.1034
-19.3,-1.0138,0.29785,0.29526,0.102
-19.2,-1.0092,0.29556,0.29297,0.1005
-19.1,-1.0045,0.29328,0.29068,0.099
-19,-0.9999,0.29101,0.28841,0.0975
-18.9,-0.9952,0.28875,0.28615,0.096
-18.8,-0.9906,0.2865,0.2839,0.0946
-18.7,-0.9859,0.28426,0.28166,0.0931
-18.6,-0.9813,0.28203,0.27943,0.0917
-18.5,-0.9766,0.27981,0.27721,0.0902
-18.4,-0.9719,0.27761,0.27499,0.0888
-18.3,-0.9673,0.27541,0.27279,0.0874
-18.2,-0.9626,0.27322,0.2706,0.086
-18.1,-0.9579,0.27104,0.26842,0.0846
-18,-0.9533,0.26887,0.26625,0.0832
-17.9,-0.9486,0.26672,0.2641,0.0818
-17.8,-0.9439,0.26457,0.26195,0.0804
-17.7,-0.9392,0.26243,0.25981,0.079
-17.6,-0.9345,0.26031,0.25769,0.0776
-17.5,-0.9298,0.25819,0.25557,0.0763
-17.4,-0.9251,0.25609,0.25347,0.0749
-17.3,-0.9204,0.254,0.25138,0.0735
-17.2,-0.9157,0.25191,0.24929,0.0722
-17.1,-0.9109,0.24985,0.24722,0.0708
-17,-0.9062,0.24779,0.24516,0.0695
-16.9,-0.9014,0.24574,0.24311,0.0681
-16.8,-0.8966,0.2437,0.24107,0.0668
-16.7,-0.8918,0.24166,0.23904,0.0654
-16.6,-0.887,0.23965,0.23702,0.0641
-16.5,-0.8822,0.23763,0.23501,0.0627
-16.4,-0.8773,0.23564,0.23301,0.0614
-16.3,-0.8725,0.23365,0.23102,0.06
-16.2,-0.8676,0.23166,0.22904,0.0587
-16.1,-0.8627,0.2297,0.22707,0.0574
-16,-0.8578,0.22774,0.22511,0.056
-15.9,-0.8529,0.22578,0.22315,0.0547
-15.8,-0.8479,0.22384,0.22121,0.0533
-15.7,-0.8408,0.22224,0.21962,0.051
-15.6,-0.8358,0.22017,0.21755,0.0497
-15.5,-0.8308,0.21808,0.21545,0.0484
-15.4,-0.8258,0.21602,0.21339,0.0471
-15.3,-0.8204,0.21387,0.21124,0.0458
-15.2,-0.815,0.21176,0.20912,0.0444
-14.9,-0.7961,0.20573,0.20312,0.0397
-14.8,-0.7918,0.20373,0.20112,0.0387
-14.7,-0.7875,0.20174,0.19913,0.0376
-14.6,-0.7831,0.19977,0.19715,0.0366
-14.5,-0.7788,0.1978,0.19519,0.0355
-14.4,-0.7745,0.19584,0.19323,0.0345
-14.3,-0.7701,0.1939,0.19129,0.0335
-14.2,-0.7658,0.19197,0.18936,0.0325
-14.1,-0.7614,0.19007,0.18746,0.0315
-14,-0.757,0.18817,0.18556,0.0304
-13.9,-0.7527,0.18629,0.18368,0.0294
-13.8,-0.7483,0.18443,0.18182,0.0284
-13.7,-0.7439,0.18259,0.17998,0.0274
-13.6,-0.7394,0.18077,0.17816,0.0264
-13.5,-0.735,0.17896,0.17636,0.0254
-13.4,-0.7306,0.17718,0.17458,0.0244
-13.3,-0.7261,0.17541,0.17281,0.0234
-13.2,-0.7216,0.17367,0.17107,0.0224
-13.1,-0.7171,0.17194,0.16934,0.0214
-13,-0.7125,0.17023,0.16763,0.0204
-12.9,-0.708,0.16853,0.16593,0.0194
-12.8,-0.7034,0.16685,0.16425,0.0184
-12.7,-0.6987,0.16518,0.16259,0.0175
-12.6,-0.6941,0.16353,0.16094,0.0165
-12.5,-0.6894,0.16189,0.1593,0.0155
-12.4,-0.6847,0.16026,0.15767,0.0145
-12.3,-0.68,0.15864,0.15606,0.0135
-12.2,-0.6752,0.15705,0.15446,0.0125
-12.1,-0.6705,0.15545,0.15286,0.0115
-12,-0.6657,0.15387,0.15128,0.0106
-11.9,-0.661,0.1523,0.14971,0.0096
-11.8,-0.6562,0.15074,0.14815,0.0086
-11.7,-0.6514,0.14919,0.1466,0.0077
-11.6,-0.6466,0.14764,0.14506,0.0067
-11.5,-0.6418,0.1461,0.14352,0.0058
-11.4,-0.637,0.14457,0.14199,0.0049
-11.3,-0.6323,0.14304,0.14047,0.0039
-11.2,-0.6275,0.14153,0.13897,0.003
-11.1,-0.6227,0.14004,0.13747,0.0021
-11,-0.6179,0.13854,0.13598,0.0012
-10.9,-0.6132,0.13706,0.1345,0.0003
-10.8,-0.6085,0.13559,0.13303,-0.0005
-10.7,-0.6038,0.13412,0.13157,-0.0014
-10.6,-0.5991,0.13266,0.13011,-0.0022
-10.5,-0.5945,0.13123,0.12869,-0.003
-10.4,-0.59,0.12979,0.12726,-0.0038
-10.3,-0.5855,0.12837,0.12584,-0.0046
-10.2,-0.581,0.12698,0.12445,-0.0053
-10.1,-0.5767,0.12559,0.12307,-0.0061
-10,-0.5725,0.12422,0.12171,-0.0067
-9.9,-0.5685,0.12287,0.12037,-0.0073
-9.8,-0.5647,0.12155,0.11905,-0.0079
-9.7,-0.5611,0.12026,0.11777,-0.0084
-9.6,-0.5578,0.11899,0.11651,-0.0088
-9.5,-0.5532,0.11733,0.11487,-0.0096
-9.4,-0.5503,0.11605,0.11359,-0.0098
-9.3,-0.5478,0.11484,0.11239,-0.0099
-9.2,-0.5457,0.11369,0.11126,-0.0099
-9.1,-0.544,0.11262,0.1102,-0.0098
-9,-0.5431,0.11167,0.10927,-0.0096
-8.8,-0.5273,0.10854,0.10618,-0.013
-8.7,-0.5199,0.10685,0.10448,-0.0146
-8.6,-0.5123,0.10517,0.10279,-0.0162
-8.5,-0.5037,0.10342,0.10104,-0.0181
-8.4,-0.4957,0.10175,0.09936,-0.0199
-8.3,-0.4882,0.10016,0.09777,-0.0215
-8.2,-0.4806,0.09859,0.09619,-0.0231
-8.1,-0.4727,0.09701,0.09462,-0.0248
-8,-0.4643,0.09545,0.09305,-0.0266
-7.9,-0.4556,0.09387,0.09147,-0.0285
-7.8,-0.4456,0.09223,0.08982,-0.0307
-7.7,-0.4385,0.09086,0.08845,-0.0321
-7.6,-0.4304,0.08943,0.08703,-0.0338
-7.5,-0.4215,0.08798,0.08557,-0.0357
-7.4,-0.4117,0.08649,0.08408,-0.0378
-7.3,-0.401,0.08496,0.08254,-0.0402
-7.2,-0.3896,0.0834,0.08097,-0.0427
-7.1,-0.3813,0.0821,0.07967,-0.0443
-7,-0.3714,0.08071,0.07828,-0.0464
-6.9,-0.3606,0.07927,0.07683,-0.0487
-6.8,-0.3491,0.0778,0.07536,-0.0511
-6.7,-0.3369,0.07631,0.07385,-0.0537
-6.6,-0.3242,0.0748,0.07233,-0.0564
-6.5,-0.3143,0.07349,0.07101,-0.0583
-6.4,-0.3042,0.07217,0.06969,-0.0602
-6.3,-0.2925,0.07076,0.06827,-0.0625
-6.2,-0.2795,0.06927,0.06676,-0.0652
-6.1,-0.2662,0.06778,0.06525,-0.0678
-6,-0.2523,0.06625,0.06371,-0.0707
-5.9,-0.2399,0.06483,0.06228,-0.073
-5.7,-0.2163,0.06209,0.05952,-0.0773
-5.6,-0.2025,0.0606,0.05801,-0.08
-5.4,-0.1726,0.05749,0.05486,-0.0857
-5.3,-0.1565,0.05586,0.0532,-0.0888
-5.2,-0.1413,0.05375,0.05107,-0.092
-5.1,-0.1261,0.05206,0.04935,-0.0948
-5,-0.1094,0.05023,0.0475,-0.098
-4.9,-0.0911,0.04829,0.04552,-0.1016
-4.8,-0.0735,0.04654,0.04376,-0.1049
-4.7,-0.0566,0.04504,0.04223,-0.1079
-4.6,-0.0409,0.04367,0.04083,-0.1104
-4.5,-0.0253,0.04237,0.0395,-0.1128
-4.2,0.0274,0.03836,0.03537,-0.1209
-4.1,0.0467,0.03696,0.03391,-0.1237
-4,0.065,0.03561,0.03251,-0.1263
-3.9,0.083,0.03425,0.03111,-0.1288
-3.8,0.102,0.03281,0.02961,-0.1315
-3.7,0.1218,0.03125,0.02798,-0.1343
-3.6,0.1429,0.02951,0.02615,-0.1374
-3.5,0.1656,0.0274,0.02393,-0.141
-3.3,0.2278,0.01802,0.01385,-0.1543
-3.2,0.2485,0.01547,0.01098,-0.1572
-3.1,0.2656,0.01405,0.00928,-0.1586
-3,0.2815,0.01307,0.00806,-0.1595
-2.9,0.2972,0.01229,0.00707,-0.1601
-2.8,0.3127,0.01167,0.00624,-0.1604
-2.7,0.328,0.01116,0.00556,-0.1607
-2.6,0.3431,0.01075,0.00498,-0.1609
-2.5,0.3574,0.01047,0.00462,-0.161
-2.4,0.3715,0.01028,0.00438,-0.1609
-2.3,0.3851,0.01022,0.00427,-0.1608
-2.2,0.3995,0.01,0.00397,-0.1608
-2.1,0.4138,0.00984,0.00377,-0.1608
-1.9,0.4416,0.00964,0.00348,-0.1607
-1.7,0.4693,0.00939,0.00318,-0.1606
-1.6,0.4833,0.00931,0.00306,-0.1606
-1.5,0.4972,0.00922,0.00292,-0.1605
-1.4,0.5108,0.00916,0.00286,-0.1604
-1.3,0.5244,0.00909,0.00279,-0.1604
-1.2,0.538,0.00903,0.0027,-0.1603
-1.1,0.5517,0.00898,0.00261,-0.1602
-1,0.5653,0.00893,0.00252,-0.1601
-0.9,0.5782,0.00888,0.00249,-0.1598
-0.8,0.5917,0.00884,0.00241,-0.1597
-0.7,0.6049,0.00881,0.00235,-0.1596
-0.6,0.6182,0.00877,0.00229,-0.1594
-0.5,0.6316,0.00874,0.00226,-0.1593
-0.4,0.6451,0.00872,0.00223,-0.1592
-0.3,0.6581,0.00871,0.0022,-0.159
-0.1,0.6847,0.00868,0.00216,-0.1588
0,0.698,0.00868,0.00213,-0.1586
0.1,0.7109,0.00867,0.00211,-0.1584
0.2,0.7242,0.00867,0.0021,-0.1583
0.3,0.7374,0.00868,0.00211,-0.1582
0.4,0.7503,0.00869,0.0021,-0.1579
0.5,0.7633,0.00869,0.0021,-0.1578
0.6,0.7764,0.00871,0.00209,-0.1576
0.7,0.7893,0.00873,0.00209,-0.1574
0.8,0.8022,0.00876,0.00211,-0.1571
0.9,0.8145,0.00881,0.00212,-0.1568
1,0.8273,0.00885,0.00214,-0.1565
1.1,0.8397,0.0089,0.00215,-0.1562
1.2,0.8524,0.00895,0.00218,-0.156
1.3,0.8626,0.00913,0.00222,-0.1551
1.4,0.8745,0.00923,0.00226,-0.1547
1.5,0.8855,0.00939,0.00232,-0.1541
1.6,0.897,0.00952,0.0024,-0.1536
1.7,0.9069,0.00975,0.0025,-0.1528
1.8,0.9156,0.01008,0.00264,-0.1519
1.9,0.926,0.01029,0.00276,-0.1512
2,0.9362,0.01053,0.0029,-0.1506
2.1,0.9459,0.01081,0.00304,-0.1498
2.2,0.9552,0.01112,0.00321,-0.1491
2.3,0.9614,0.01169,0.0035,-0.1479
2.4,0.9708,0.01203,0.00371,-0.1472
2.5,0.9813,0.01229,0.00387,-0.1467
2.6,0.9925,0.01249,0.00402,-0.1462
2.7,1.0041,0.01265,0.00417,-0.1458
2.8,1.0152,0.01286,0.00435,-0.1454
2.9,1.0272,0.01297,0.00452,-0.1451
3.1,1.044,0.01202,0.00485,-0.1431
3.2,1.0562,0.01217,0.00497,-0.1427
3.4,1.0797,0.01253,0.00525,-0.1417
3.5,1.0917,0.01268,0.00539,-0.1413
3.6,1.1038,0.01284,0.00552,-0.1408
3.7,1.1158,0.013,0.00567,-0.1404
3.8,1.1279,0.01315,0.00581,-0.1399
3.9,1.1395,0.01335,0.00597,-0.1394
4,1.1515,0.01351,0.00612,-0.1389
4.1,1.1633,0.01369,0.00629,-0.1383
4.2,1.1754,0.01385,0.00644,-0.1378
4.3,1.1873,0.01403,0.00661,-0.1372
4.4,1.1989,0.01423,0.00682,-0.1367
4.5,1.2106,0.01442,0.00699,-0.1361
4.6,1.2225,0.0146,0.00718,-0.1355
4.7,1.2343,0.01479,0.00737,-0.1348
4.8,1.2459,0.01499,0.00758,-0.1342
4.9,1.2574,0.01521,0.00777,-0.1335
5,1.2689,0.01543,0.008,-0.1328
5.1,1.2806,0.01563,0.00822,-0.1321
5.2,1.2921,0.01585,0.00844,-0.1314
5.3,1.3035,0.01609,0.0087,-0.1306
5.4,1.3151,0.0163,0.00894,-0.1298
5.5,1.326,0.01658,0.00919,-0.129
5.6,1.3375,0.01681,0.00947,-0.1282
5.7,1.3489,0.01706,0.00975,-0.1273
5.8,1.36,0.01732,0.01005,-0.1264
5.9,1.3708,0.01762,0.0104,-0.1254
6,1.3819,0.0179,0.01073,-0.1245
6.1,1.3928,0.01819,0.01108,-0.1234
6.2,1.4035,0.0185,0.01145,-0.1224
6.3,1.4139,0.01882,0.01179,-0.1214
6.4,1.4243,0.01917,0.0122,-0.1202
6.5,1.4344,0.01952,0.01264,-0.119
6.6,1.4443,0.0199,0.0131,-0.1177
6.7,1.454,0.02031,0.01358,-0.1164
6.8,1.4631,0.02074,0.0141,-0.115
6.9,1.4723,0.02117,0.01458,-0.1137
7,1.4806,0.02168,0.0152,-0.1121
7.1,1.4884,0.02223,0.01586,-0.1105
7.2,1.4953,0.0228,0.01654,-0.1088
7.3,1.5031,0.02326,0.01707,-0.1072
7.4,1.5082,0.02398,0.01794,-0.1052
7.5,1.5127,0.02477,0.01891,-0.1032
7.6,1.5166,0.02562,0.01991,-0.1011
7.7,1.5199,0.02653,0.02098,-0.0991
7.8,1.5225,0.02749,0.02211,-0.097
7.9,1.5242,0.02851,0.02329,-0.0949
8,1.525,0.02958,0.02452,-0.0928
8.1,1.525,0.0307,0.0258,-0.0908
8.2,1.524,0.03187,0.02713,-0.0888
8.3,1.5208,0.03327,0.02869,-0.0867
8.4,1.5169,0.03473,0.03034,-0.0848
8.6,1.5063,0.03783,0.03378,-0.0812
8.8,1.4936,0.04117,0.03741,-0.0784
9,1.4791,0.04473,0.04125,-0.0765
9.2,1.4639,0.04859,0.04536,-0.0756
9.3,1.456,0.05065,0.04754,-0.0756
9.6,1.4322,0.05751,0.05472,-0.0779
9.7,1.4244,0.06009,0.0574,-0.0796
10,1.4027,0.06898,0.06656,-0.0876
10.2,1.3906,0.07639,0.07415,-0.0962
10.5,1.3763,0.09017,0.08814,-0.1106
10.9,1.3582,0.10526,0.10328,-0.1247
11.2,1.3495,0.11549,0.11351,-0.1338
11.3,1.3475,0.11865,0.11667,-0.1366
11.4,1.3461,0.12175,0.11976,-0.1393
11.5,1.3451,0.12473,0.12274,-0.1418
11.6,1.3447,0.12764,0.12564,-0.1443
11.7,1.3446,0.13044,0.12844,-0.1466
11.8,1.3451,0.13312,0.13112,-0.1489
11.9,1.3458,0.13575,0.13375,-0.1511
12,1.347,0.13828,0.13628,-0.1532
12.1,1.3483,0.14075,0.13875,-0.1553
12.2,1.35,0.14312,0.14111,-0.1573
12.3,1.3509,0.14575,0.14373,-0.1594
12.4,1.3505,0.14898,0.14695,-0.1618
12.5,1.3506,0.15205,0.15002,-0.1641
12.6,1.3514,0.155,0.15298,-0.1663
12.7,1.3525,0.15787,0.15584,-0.1684
12.8,1.3541,0.16061,0.15858,-0.1704
12.9,1.356,0.16324,0.16121,-0.1723
13,1.3581,0.16583,0.16379,-0.1742
13.1,1.3605,0.16831,0.16627,-0.1761
13.2,1.3631,0.17074,0.1687,-0.1779
13.3,1.3658,0.17311,0.17107,-0.1796
13.4,1.3687,0.17542,0.17339,-0.1813
13.5,1.3717,0.17769,0.17566,-0.183
13.6,1.3748,0.1799,0.17787,-0.1847
13.7,1.378,0.18206,0.18003,-0.1863
13.8,1.3812,0.18418,0.18215,-0.188
13.9,1.3846,0.18625,0.18422,-0.1895
14,1.388,0.18828,0.18625,-0.1911
14.1,1.3914,0.19027,0.18824,-0.1927
14.2,1.3949,0.1922,0.19018,-0.1942
14.3,1.3983,0.19413,0.1921,-0.1957
14.4,1.4018,0.19597,0.19395,-0.1973
14.5,1.4053,0.19783,0.19581,-0.1988
14.6,1.4087,0.19965,0.19763,-0.2003
14.8,1.4152,0.20541,0.20337,-0.204
14.9,1.4188,0.2081,0.20606,-0.2057
15,1.4224,0.21064,0.2086,-0.2074
15.1,1.4261,0.21309,0.21105,-0.2091
15.2,1.4299,0.21545,0.21341,-0.2107
15.3,1.4337,0.21775,0.21571,-0.2123
15.4,1.4376,0.22003,0.218,-0.2139
15.5,1.4416,0.22229,0.22025,-0.2155
15.6,1.4455,0.22448,0.22245,-0.2171
15.7,1.4495,0.22667,0.22464,-0.2186
15.9,1.4578,0.2308,0.22877,-0.222
16,1.4618,0.23282,0.2308,-0.2235
16.1,1.4659,0.23484,0.23281,-0.2251
16.2,1.4699,0.23682,0.2348,-0.2266
16.3,1.4739,0.2388,0.2368,-0.2282
16.4,1.478,0.24077,0.23877,-0.2297
16.5,1.482,0.24271,0.24071,-0.2312
16.6,1.4861,0.24463,0.24264,-0.2328
16.7,1.4901,0.24658,0.24459,-0.2343
16.8,1.4941,0.24848,0.24649,-0.2358
16.9,1.4981,0.25039,0.2484,-0.2374
17,1.502,0.2523,0.25031,-0.2389
17.1,1.5059,0.2542,0.25222,-0.2404
17.2,1.5098,0.25608,0.25408,-0.2419
17.3,1.5149,0.25972,0.25772,-0.2439
17.4,1.5195,0.26252,0.26053,-0.2457
17.5,1.5239,0.26524,0.26325,-0.2474
17.6,1.5285,0.26791,0.26592,-0.2491
17.7,1.533,0.27048,0.26849,-0.2508
17.8,1.5373,0.2729,0.27091,-0.2525
17.9,1.5417,0.27533,0.27335,-0.2541
18,1.5461,0.27774,0.27576,-0.2558
18.1,1.5505,0.28011,0.27813,-0.2574
18.2,1.5549,0.28246,0.28048,-0.2591
18.3,1.5592,0.28477,0.28279,-0.2608
18.4,1.5636,0.28711,0.28513,-0.2624
18.5,1.5679,0.28939,0.28742,-0.2641
18.6,1.5722,0.29172,0.28975,-0.2657
18.7,1.5766,0.29401,0.29204,-0.2674
18.8,1.5809,0.2963,0.29433,-0.2691
18.9,1.5852,0.29858,0.29662,-0.2708
19,1.5895,0.30086,0.2989,-0.2724
19.1,1.5938,0.30315,0.30119,-0.2741
19.2,1.5981,0.30543,0.30347,-0.2758
19.3,1.6024,0.3077,0.30575,-0.2775
19.4,1.6067,0.30997,0.30803,-0.2792
19.5,1.611,0.31224,0.3103,-0.2809
19.6,1.6153,0.31452,0.31258,-0.2826
19.7,1.6196,0.3168,0.31487,-0.2843
19.8,1.6238,0.31907,0.31714,-0.286
19.9,1.6281,0.32136,0.31944,-0.2877
20,1.6323,0.32362,0.32171,-0.2895
20.1,1.6366,0.32591,0.324,-0.2912
20.2,1.6408,0.32819,0.32629,-0.2929
20.3,1.645,0.33048,0.32857,-0.2947
20.4,1.6492,0.33277,0.33087,-0.2964
20.5,1.6534,0.33507,0.33317,-0.2982
20.6,1.6576,0.33736,0.33547,-0.2999
20.7,1.6618,0.33968,0.33779,-0.3017
20.8,1.666,0.34198,0.34009,-0.3035
20.9,1.6701,0.34429,0.34241,-0.3053
21,1.6743,0.34661,0.34473,-0.307
21.1,1.6785,0.34894,0.34706,-0.3088
21.2,1.6826,0.35126,0.34939,-0.3106
21.3,1.6867,0.35361,0.35174,-0.3124
21.4,1.6908,0.35595,0.35408,-0.3142
21.5,1.6949,0.35831,0.35645,-0.316
21.6,1.699,0.36067,0.35881,-0.3179
21.7,1.7031,0.36304,0.36119,-0.3197
21.8,1.7072,0.36541,0.36356,-0.3215
21.9,1.7113,0.36781,0.36596,-0.3233
22,1.7153,0.37017,0.36833,-0.3252
22.1,1.7193,0.3726,0.37076,-0.327
22.2,1.7234,0.37501,0.37318,-0.3289
22.3,1.7274,0.37743,0.3756,-0.3307
22.4,1.7314,0.37986,0.37804,-0.3326
22.5,1.7353,0.38231,0.3805,-0.3345
22.6,1.7393,0.38477,0.38296,-0.3363
22.7,1.7452,0.389,0.38717,-0.3389
22.8,1.75,0.39235,0.39053,-0.341
22.9,1.7545,0.39532,0.3935,-0.343
23,1.7589,0.39834,0.39652,-0.3451
23.1,1.7632,0.40116,0.39934,-0.3471
23.2,1.7676,0.40408,0.40228,-0.3491
23.3,1.7718,0.40687,0.40507,-0.3511
23.4,1.776,0.40965,0.40786,-0.3532
23.5,1.7802,0.41249,0.4107,-0.3552
23.6,1.7843,0.41518,0.4134,-0.3572
23.7,1.7885,0.41797,0.41618,-0.3593
23.8,1.7926,0.4207,0.41892,-0.3613
23.9,1.7967,0.42346,0.42169,-0.3634
24,1.8008,0.42617,0.4244,-0.3654
24.1,1.8048,0.42888,0.42711,-0.3675
24.2,1.8088,0.4316,0.42984,-0.3695
24.3,1.8128,0.43434,0.43259,-0.3716
24.4,1.8168,0.43705,0.43529,-0.3737
24.5,1.8208,0.43977,0.43802,-0.3757
24.6,1.8247,0.44246,0.44072,-0.3778
24.7,1.8286,0.44517,0.44343,-0.3799
24.8,1.8325,0.4479,0.44617,-0.382
24.9,1.8364,0.45062,0.44889,-0.3841
25,1.8402,0.45334,0.45162,-0.3862
25.1,1.8441,0.45607,0.45435,-0.3883
25.2,1.8479,0.45881,0.45709,-0.3904
25.3,1.8517,0.46155,0.45984,-0.3925
25.4,1.8555,0.46428,0.46257,-0.3946
25.5,1.8593,0.46704,0.46533,-0.3968
25.6,1.863,0.46979,0.46809,-0.3989
25.7,1.8668,0.47255,0.47085,-0.401
25.8,1.8705,0.4753,0.47361,-0.4032
25.9,1.8742,0.47808,0.47639,-0.4053
26,1.8779,0.48086,0.47918,-0.4075
26.1,1.8815,0.48363,0.48196,-0.4097
26.2,1.8852,0.48644,0.48477,-0.4118
26.3,1.8889,0.48921,0.48755,-0.414
26.4,1.8925,0.49202,0.49038,-0.4162
26.5,1.8961,0.49483,0.49319,-0.4184
26.6,1.8996,0.49765,0.49601,-0.4206
26.7,1.9032,0.50047,0.49883,-0.4228
26.8,1.9067,0.50331,0.50168,-0.425
26.9,1.9103,0.50613,0.50451,-0.4272
27,1.9138,0.50899,0.50738,-0.4294
27.1,1.9173,0.51187,0.51026,-0.4317
27.2,1.9207,0.51476,0.51315,-0.4339
27.3,1.9242,0.51758,0.51598,-0.4361
27.4,1.9276,0.5205,0.5189,-0.4384
27.5,1.931,0.5234,0.52181,-0.4406
27.6,1.9344,0.5263,0.52471,-0.4429
27.7,1.9378,0.52922,0.52763,-0.4452
27.8,1.9412,0.53217,0.5306,-0.4474
27.9,1.9446,0.53514,0.53357,-0.4497
28,1.9479,0.53806,0.5365,-0.452
28.1,1.9512,0.54107,0.53951,-0.4543
28.2,1.9545,0.54406,0.54251,-0.4566
28.3,1.9578,0.54706,0.54551,-0.4589
28.4,1.961,0.55009,0.54854,-0.4612
28.5,1.9643,0.5531,0.55156,-0.4635
28.6,1.9675,0.55622,0.55469,-0.4658
28.7,1.9707,0.55929,0.55776,-0.4681
28.8,1.9739,0.56237,0.56085,-0.4705
28.9,1.9771,0.56546,0.56395,-0.4728
29,1.9802,0.5686,0.56708,-0.4751
29.1,1.9834,0.57178,0.57027,-0.4775
29.2,1.9865,0.57492,0.57342,-0.4798
29.3,1.9896,0.57816,0.57666,-0.4822
29.4,1.9927,0.58139,0.5799,-0.4845
29.5,1.9957,0.58457,0.5831,-0.4869
29.6,1.9989,0.58787,0.5864,-0.4893
29.9,2.0109,0.59903,0.59755,-0.4976
30,2.0145,0.60253,0.60106,-0.5002

