airfoilName st20.dat
Re 	330000
M 	5.000000e-01
N 	4.500000e+00
VACC 	0 VACCflag 1
XTR 	1.00 	1.00 XTRflag 0
alpha,cl,cd,cdp,cm
-30,-1.4766,0.58697,0.58436,0.3147
-29.9,-1.4729,0.58371,0.58108,0.3124
-29.8,-1.4693,0.58042,0.57779,0.31
-29.7,-1.4656,0.57718,0.57454,0.3076
-29.6,-1.4619,0.57396,0.57132,0.3053
-29.5,-1.4582,0.57072,0.56808,0.3029
-29.4,-1.4545,0.56754,0.56489,0.3005
-29.3,-1.4507,0.56436,0.56171,0.2982
-29.2,-1.447,0.56122,0.55856,0.2959
-29.1,-1.4432,0.55808,0.55542,0.2935
-29,-1.4394,0.55498,0.55232,0.2912
-28.9,-1.4356,0.55187,0.5492,0.2889
-28.8,-1.4318,0.54881,0.54614,0.2866
-28.7,-1.4279,0.54574,0.54307,0.2842
-28.6,-1.4241,0.54273,0.54005,0.2819
-28.5,-1.4202,0.53973,0.53705,0.2796
-28.4,-1.4163,0.53673,0.53404,0.2774
-28.3,-1.4124,0.53376,0.53107,0.2751
-28.2,-1.4084,0.53079,0.5281,0.2728
-28.1,-1.4045,0.52791,0.52521,0.2705
-28,-1.4005,0.52502,0.52232,0.2682
-27.9,-1.3965,0.52216,0.51945,0.2659
-27.8,-1.3925,0.51932,0.51661,0.2637
-27.7,-1.3885,0.5165,0.51379,0.2614
-27.6,-1.3844,0.51372,0.511,0.2592
-27.5,-1.3804,0.51094,0.50822,0.2569
-27.4,-1.3763,0.50825,0.50552,0.2546
-27.3,-1.3722,0.50552,0.50278,0.2524
-27.2,-1.3681,0.50289,0.50015,0.2501
-27.1,-1.3639,0.50022,0.49747,0.2479
-27,-1.3598,0.49768,0.49493,0.2456
-26.9,-1.3556,0.49514,0.49239,0.2434
-26.8,-1.3513,0.49269,0.48994,0.2411
-26.7,-1.347,0.49033,0.48757,0.2388
-26.6,-1.3427,0.48793,0.48518,0.2365
-26.5,-1.3384,0.48554,0.48278,0.2343
-26.4,-1.334,0.48351,0.48074,0.2319
-26.3,-1.3295,0.48135,0.47859,0.2296
-26.2,-1.3251,0.47926,0.47649,0.2272
-26.1,-1.3203,0.47762,0.47486,0.2247
-26,-1.3157,0.47579,0.47302,0.2223
-25.9,-1.3106,0.4746,0.47183,0.2196
-23.9,-1.2201,0.41909,0.41628,0.1781
-23.8,-1.2158,0.41614,0.41332,0.1763
-23.7,-1.2115,0.41321,0.41039,0.1745
-23.6,-1.2071,0.4103,0.40748,0.1727
-23.5,-1.2028,0.40741,0.40458,0.1709
-23.4,-1.1985,0.40452,0.4017,0.1691
-23.3,-1.1941,0.40165,0.39882,0.1673
-23.2,-1.1897,0.39881,0.39598,0.1655
-23.1,-1.1854,0.39598,0.39315,0.1637
-23,-1.1809,0.39315,0.39031,0.1619
-22.9,-1.1766,0.39035,0.38751,0.1602
-22.8,-1.1721,0.38757,0.38473,0.1584
-22.7,-1.1677,0.38481,0.38196,0.1567
-22.6,-1.1633,0.38206,0.37921,0.1549
-22.5,-1.1589,0.37931,0.37646,0.1532
-22.4,-1.1544,0.37659,0.37374,0.1514
-22.3,-1.15,0.37389,0.37103,0.1497
-22.2,-1.1455,0.37119,0.36833,0.148
-22.1,-1.1411,0.36851,0.36565,0.1463
-22,-1.1366,0.36585,0.36299,0.1446
-21.9,-1.1321,0.36321,0.36034,0.1429
-21.8,-1.1276,0.36059,0.35772,0.1412
-21.7,-1.1231,0.35796,0.35509,0.1396
-21.6,-1.1186,0.35536,0.35249,0.1379
-21.5,-1.1141,0.35278,0.34989,0.1362
-21.4,-1.1096,0.35021,0.34732,0.1346
-21.3,-1.1051,0.34766,0.34477,0.1329
-21.2,-1.1005,0.34511,0.34221,0.1313
-21.1,-1.096,0.34259,0.33969,0.1296
-21,-1.0915,0.34006,0.33716,0.128
-20.9,-1.0869,0.33756,0.33466,0.1264
-20.8,-1.0823,0.33508,0.33217,0.1248
-20.7,-1.0778,0.33259,0.32968,0.1232
-20.6,-1.0732,0.33012,0.32721,0.1216
-20.5,-1.0686,0.32767,0.32475,0.12
-20.4,-1.064,0.32522,0.3223,0.1184
-20.3,-1.0594,0.32279,0.31987,0.1168
-20.2,-1.0548,0.32036,0.31745,0.1153
-20.1,-1.0502,0.31796,0.31504,0.1137
-20,-1.0455,0.31555,0.31263,0.1122
-19.9,-1.0409,0.31317,0.31024,0.1106
-19.8,-1.0363,0.31078,0.30786,0.1091
-19.7,-1.0317,0.30841,0.30549,0.1076
-19.6,-1.027,0.30606,0.30313,0.106
-19.5,-1.0224,0.30371,0.30078,0.1045
-19.4,-1.0177,0.30137,0.29844,0.103
-19.3,-1.0131,0.29905,0.29612,0.1015
-19.2,-1.0084,0.29674,0.29381,0.1
-19.1,-1.0038,0.29443,0.2915,0.0986
-19,-0.9991,0.29214,0.2892,0.0971
-18.9,-0.9944,0.28986,0.28693,0.0956
-18.8,-0.9898,0.2876,0.28466,0.0942
-18.7,-0.9851,0.28534,0.2824,0.0927
-18.6,-0.9804,0.2831,0.28016,0.0913
-18.5,-0.9757,0.28087,0.27791,0.0898
-18.4,-0.971,0.27865,0.27569,0.0884
-18.3,-0.9663,0.27645,0.27349,0.087
-18.2,-0.9616,0.27426,0.2713,0.0855
-18.1,-0.9569,0.27209,0.26912,0.0841
-18,-0.9521,0.26992,0.26696,0.0827
-17.9,-0.9474,0.26777,0.26481,0.0813
-17.8,-0.9426,0.26564,0.26267,0.0798
-17.7,-0.9379,0.26352,0.26055,0.0784
-17.6,-0.9331,0.26142,0.25845,0.077
-17.5,-0.9283,0.25932,0.25635,0.0756
-17.4,-0.9235,0.25724,0.25427,0.0742
-17.3,-0.9187,0.25518,0.25221,0.0728
-17.2,-0.9138,0.25311,0.25014,0.0713
-17.1,-0.9089,0.25107,0.2481,0.0699
-17,-0.904,0.24904,0.24607,0.0685
-16.9,-0.8991,0.24701,0.24404,0.0671
-16.8,-0.8942,0.245,0.24203,0.0656
-16.7,-0.8892,0.24299,0.24002,0.0642
-16.6,-0.8841,0.24099,0.23802,0.0628
-16.5,-0.8791,0.23898,0.23601,0.0613
-16.4,-0.874,0.23697,0.234,0.0599
-16.3,-0.8689,0.23494,0.23197,0.0584
-16.1,-0.8509,0.23041,0.22747,0.0534
-16,-0.8466,0.22829,0.22535,0.0523
-15.9,-0.8423,0.22618,0.22324,0.0512
-15.8,-0.838,0.22409,0.22115,0.0501
-15.7,-0.8336,0.22201,0.21907,0.0489
-15.6,-0.8293,0.21995,0.21701,0.0478
-15.5,-0.8249,0.2179,0.21496,0.0467
-15.4,-0.8206,0.21587,0.21293,0.0456
-15.3,-0.8162,0.21385,0.21091,0.0445
-15.2,-0.8118,0.21185,0.20891,0.0434
-15.1,-0.8075,0.20986,0.2069,0.0423
-15,-0.8031,0.20789,0.20493,0.0413
-14.9,-0.7986,0.20594,0.20298,0.0402
-14.8,-0.7942,0.204,0.20104,0.0391
-14.7,-0.7898,0.20207,0.19911,0.038
-14.6,-0.7854,0.20016,0.19721,0.0369
-14.5,-0.7809,0.19826,0.19531,0.0359
-14.4,-0.7764,0.19638,0.19342,0.0348
-14.3,-0.7719,0.19451,0.19156,0.0337
-14.2,-0.7674,0.19266,0.18971,0.0327
-14.1,-0.7628,0.19082,0.18787,0.0316
-14,-0.7583,0.189,0.18605,0.0305
-13.9,-0.7537,0.18719,0.18424,0.0295
-13.8,-0.7491,0.1854,0.18245,0.0284
-13.7,-0.7446,0.18362,0.18067,0.0274
-13.6,-0.74,0.18185,0.17891,0.0263
-13.5,-0.7353,0.1801,0.17716,0.0253
-13.4,-0.7307,0.17836,0.17542,0.0243
-13.3,-0.7261,0.17664,0.17369,0.0232
-13.2,-0.7214,0.17492,0.17198,0.0222
-13.1,-0.7168,0.17322,0.17028,0.0212
-13,-0.7121,0.17153,0.16859,0.0202
-12.9,-0.7074,0.16984,0.1669,0.0191
-12.8,-0.7027,0.16816,0.16523,0.0181
-12.7,-0.6979,0.1665,0.16356,0.0171
-12.6,-0.6932,0.16483,0.16191,0.0161
-12.5,-0.6884,0.16318,0.16026,0.0151
-12.4,-0.6837,0.16154,0.15862,0.0141
-12.3,-0.6789,0.15991,0.15699,0.0131
-12.2,-0.6742,0.15829,0.15537,0.0122
-12.1,-0.6694,0.15668,0.15374,0.0112
-12,-0.6647,0.15507,0.15214,0.0102
-11.9,-0.6599,0.15347,0.15055,0.0093
-11.8,-0.6551,0.15189,0.14897,0.0083
-11.7,-0.6504,0.15031,0.14739,0.0074
-11.6,-0.6456,0.14874,0.14582,0.0064
-11.5,-0.6408,0.14717,0.14426,0.0055
-11.4,-0.636,0.14561,0.1427,0.0046
-11.3,-0.6312,0.14406,0.14115,0.0036
-11.2,-0.6265,0.14251,0.13961,0.0027
-11.1,-0.6217,0.14099,0.13809,0.0018
-11,-0.617,0.13946,0.13656,0.0009
-10.9,-0.6122,0.13794,0.13505,0.0001
-10.8,-0.6075,0.13644,0.13355,-0.0008
-10.7,-0.6028,0.13493,0.13205,-0.0017
-10.6,-0.5982,0.13344,0.13056,-0.0025
-10.5,-0.5936,0.13194,0.12907,-0.0033
-10.4,-0.589,0.13046,0.12759,-0.0041
-10.3,-0.5844,0.12897,0.12611,-0.0049
-10.2,-0.58,0.1275,0.12465,-0.0057
-10.1,-0.5756,0.12603,0.12318,-0.0064
-9.9,-0.5593,0.12235,0.11955,-0.0099
-9.8,-0.5561,0.12098,0.11819,-0.0103
-9.7,-0.5531,0.11965,0.11686,-0.0106
-9.6,-0.5504,0.11836,0.11559,-0.0108
-9.5,-0.5479,0.11713,0.11436,-0.011
-9.4,-0.5456,0.11592,0.11317,-0.0111
-9.3,-0.5436,0.11477,0.11203,-0.0111
-9.2,-0.542,0.11368,0.11095,-0.0111
-9.1,-0.5407,0.11263,0.10992,-0.0109
-9,-0.5399,0.11165,0.10895,-0.0106
-8.9,-0.5397,0.11074,0.10806,-0.0102
-8.8,-0.5401,0.10991,0.10725,-0.0096
-8.7,-0.5391,0.10893,0.10629,-0.0094
-8.6,-0.5313,0.1073,0.10464,-0.0111
-8.5,-0.5234,0.10569,0.10303,-0.0128
-8.4,-0.5146,0.10401,0.10135,-0.0148
-8.3,-0.5063,0.10243,0.09977,-0.0166
-8.2,-0.4978,0.10086,0.09819,-0.0185
-8.1,-0.49,0.09936,0.09669,-0.0201
-8,-0.4819,0.09787,0.0952,-0.0218
-7.9,-0.4735,0.09638,0.09371,-0.0236
-7.8,-0.4647,0.09488,0.09221,-0.0256
-7.7,-0.4544,0.09329,0.09061,-0.0278
-7.6,-0.4462,0.09188,0.0892,-0.0295
-7.5,-0.4383,0.09052,0.08784,-0.0311
-7.4,-0.4293,0.08909,0.0864,-0.033
-7.3,-0.419,0.08758,0.08489,-0.0353
-7.2,-0.4076,0.08599,0.08329,-0.0378
-7.1,-0.3958,0.08441,0.0817,-0.0404
-7,-0.3853,0.08294,0.08023,-0.0426
-6.9,-0.3759,0.08157,0.07885,-0.0445
-6.8,-0.365,0.0801,0.07738,-0.0468
-6.7,-0.3534,0.07859,0.07586,-0.0492
-6.6,-0.3412,0.07706,0.07432,-0.0518
-6.5,-0.3284,0.0755,0.07275,-0.0545
-6.4,-0.3151,0.07392,0.07116,-0.0574
-6.3,-0.3054,0.07259,0.06983,-0.0591
-6.2,-0.2945,0.07118,0.06839,-0.0612
-6.1,-0.2821,0.06969,0.06689,-0.0637
-6,-0.2687,0.06813,0.06532,-0.0664
-5.9,-0.2547,0.06654,0.06371,-0.0693
-5.8,-0.2399,0.06491,0.06207,-0.0723
-5.7,-0.2245,0.06324,0.06038,-0.0754
-5.6,-0.2153,0.06196,0.05909,-0.0769
-5.5,-0.202,0.06041,0.05752,-0.0794
-5.4,-0.1791,0.05734,0.05442,-0.0851
-5.3,-0.1639,0.05569,0.05277,-0.0881
-5.2,-0.1483,0.05414,0.05119,-0.091
-5.1,-0.1325,0.05265,0.04968,-0.0939
-5,-0.1196,0.05137,0.04838,-0.0959
-4.8,-0.0913,0.04879,0.04575,-0.1005
-4.7,-0.075,0.04743,0.04437,-0.1032
-4.6,-0.0579,0.04605,0.04296,-0.106
-4.5,-0.0397,0.04463,0.04151,-0.109
-4.4,-0.0212,0.04322,0.04006,-0.112
-4.3,-0.0034,0.04185,0.03865,-0.1148
-4.2,0.0118,0.0406,0.03736,-0.1169
-4.1,0.0292,0.03922,0.03594,-0.1194
-4,0.0485,0.03774,0.03441,-0.1223
-3.9,0.0686,0.03618,0.03279,-0.1254
-3.8,0.0899,0.03447,0.03101,-0.1288
-3.7,0.1122,0.0326,0.02905,-0.1323
-3.6,0.1352,0.03037,0.02673,-0.1362
-3.5,0.1659,0.02592,0.02206,-0.1429
-3.3,0.2026,0.02358,0.01954,-0.1468
-3.2,0.2221,0.02217,0.018,-0.1489
-3.1,0.2433,0.02023,0.01588,-0.1516
-3,0.2688,0.01644,0.01163,-0.1561
-2.8,0.3066,0.01309,0.00747,-0.1596
-2.7,0.3216,0.01242,0.00659,-0.16
-2.6,0.3355,0.0121,0.00619,-0.16
-2.5,0.3492,0.01208,0.00615,-0.1599
-2.4,0.3643,0.01166,0.00558,-0.1601
-2.3,0.3794,0.01131,0.00509,-0.1603
-2.2,0.3943,0.01109,0.00482,-0.1604
-2.1,0.4083,0.01091,0.00458,-0.1604
-2,0.4218,0.01082,0.00443,-0.1602
-1.9,0.4359,0.01063,0.00419,-0.1602
-1.8,0.45,0.01048,0.00401,-0.1602
-1.7,0.4643,0.01036,0.00385,-0.1603
-1.6,0.4788,0.01024,0.00367,-0.1603
-1.5,0.4921,0.01016,0.00359,-0.1602
-1.4,0.5056,0.01008,0.00349,-0.1601
-1.3,0.5194,0.01,0.00338,-0.16
-1.2,0.5334,0.00992,0.00325,-0.16
-1.1,0.5475,0.00984,0.00313,-0.16
-1,0.5608,0.0098,0.00313,-0.1599
-0.9,0.5742,0.00975,0.00306,-0.1598
-0.8,0.5877,0.00969,0.00295,-0.1597
-0.7,0.6011,0.00961,0.00287,-0.1595
-0.6,0.6142,0.00957,0.00282,-0.1593
-0.4,0.6409,0.0095,0.00272,-0.159
-0.3,0.6544,0.00947,0.00269,-0.1589
-0.2,0.6681,0.00944,0.00264,-0.1588
-0.1,0.681,0.00941,0.00259,-0.1586
0,0.6944,0.00939,0.00256,-0.1585
0.1,0.7077,0.00938,0.00257,-0.1584
0.2,0.721,0.00937,0.00255,-0.1583
0.3,0.7341,0.00935,0.00252,-0.158
0.4,0.7473,0.00935,0.00251,-0.1579
0.5,0.7606,0.00935,0.00249,-0.1578
0.6,0.7739,0.00934,0.0025,-0.1576
0.8,0.7996,0.00936,0.00249,-0.1571
0.9,0.8127,0.00937,0.0025,-0.1569
1,0.8257,0.00939,0.0025,-0.1567
1.1,0.8382,0.00943,0.00249,-0.1563
1.2,0.8509,0.00946,0.00251,-0.156
1.3,0.8637,0.0095,0.00254,-0.1558
1.4,0.8758,0.00956,0.00256,-0.1553
1.5,0.8871,0.00967,0.00258,-0.1547
1.6,0.8986,0.00979,0.00261,-0.1541
1.7,0.9091,0.00997,0.00266,-0.1534
1.8,0.9203,0.01011,0.00274,-0.1528
1.9,0.9313,0.01027,0.00282,-0.1522
2,0.9397,0.01059,0.00295,-0.1511
2.1,0.9498,0.01081,0.00308,-0.1504
2.2,0.9595,0.01106,0.00323,-0.1497
2.3,0.9687,0.01136,0.00338,-0.1488
2.4,0.9774,0.01168,0.00358,-0.1479
2.5,0.9828,0.01228,0.00388,-0.1466
2.6,0.9919,0.01263,0.00411,-0.1459
2.7,1.002,0.01288,0.0043,-0.1453
2.8,1.0055,0.01184,0.0045,-0.1434
2.9,1.0165,0.01207,0.0047,-0.1429
3,1.0279,0.01229,0.00485,-0.1424
3.1,1.0386,0.01255,0.00503,-0.1418
3.2,1.0504,0.01272,0.00518,-0.1414
3.3,1.062,0.01292,0.00535,-0.1409
3.4,1.0739,0.01308,0.00549,-0.1404
3.5,1.0855,0.01327,0.00565,-0.1399
3.6,1.0969,0.01348,0.00581,-0.1394
3.7,1.1087,0.01365,0.00597,-0.1389
3.8,1.1205,0.01382,0.00613,-0.1384
3.9,1.1322,0.01401,0.0063,-0.1379
4,1.1441,0.01418,0.00647,-0.1374
4.1,1.1554,0.01439,0.00664,-0.1368
4.2,1.1672,0.01457,0.00682,-0.1362
4.3,1.1788,0.01477,0.00701,-0.1356
4.4,1.1906,0.01495,0.00722,-0.135
4.5,1.2021,0.01516,0.00742,-0.1344
4.6,1.2135,0.01537,0.00761,-0.1338
4.7,1.2249,0.01559,0.00783,-0.1331
4.8,1.2366,0.01578,0.00803,-0.1324
4.9,1.248,0.016,0.00825,-0.1317
5,1.2594,0.01622,0.00849,-0.131
5.1,1.2705,0.01647,0.00871,-0.1303
5.2,1.2818,0.0167,0.00897,-0.1295
5.3,1.2931,0.01693,0.00922,-0.1287
5.4,1.3042,0.01719,0.00948,-0.1279
5.5,1.3153,0.01745,0.00978,-0.1271
5.6,1.3264,0.0177,0.01007,-0.1262
5.7,1.3374,0.01798,0.01037,-0.1253
5.8,1.348,0.01827,0.01068,-0.1244
5.9,1.3589,0.01856,0.01104,-0.1234
6,1.3695,0.01887,0.0114,-0.1224
6.1,1.3797,0.01921,0.01177,-0.1214
6.2,1.39,0.01955,0.01218,-0.1203
6.3,1.4002,0.0199,0.0126,-0.1191
6.4,1.4101,0.02027,0.01305,-0.1179
6.5,1.4201,0.02062,0.01343,-0.1169
6.6,1.4293,0.02105,0.01392,-0.1156
6.7,1.4383,0.02149,0.01446,-0.1142
6.8,1.447,0.02197,0.01504,-0.1127
6.9,1.4553,0.02247,0.01565,-0.1113
7,1.463,0.023,0.01628,-0.1097
7.1,1.4708,0.02347,0.01679,-0.1082
7.2,1.4769,0.0241,0.01756,-0.1064
7.3,1.4827,0.02479,0.01839,-0.1045
7.4,1.488,0.02553,0.01927,-0.1027
7.5,1.4928,0.02631,0.02019,-0.1008
7.6,1.497,0.02714,0.02115,-0.0989
7.7,1.5021,0.02791,0.02207,-0.0972
7.8,1.5042,0.02898,0.02333,-0.0951
7.9,1.5054,0.03012,0.02465,-0.0931
8,1.5058,0.03131,0.02602,-0.0911
8.1,1.5052,0.03255,0.02744,-0.0891
8.2,1.5036,0.03384,0.0289,-0.0872
8.3,1.5012,0.03518,0.03042,-0.0854
8.4,1.4981,0.03655,0.03195,-0.0836
8.5,1.4941,0.03798,0.03353,-0.0819
8.6,1.4896,0.03946,0.03517,-0.0804
8.7,1.4846,0.04099,0.03684,-0.0791
8.8,1.4789,0.04257,0.03856,-0.0779
8.9,1.473,0.04423,0.04035,-0.0769
9,1.4667,0.04594,0.04219,-0.0761
9.1,1.4603,0.04775,0.04412,-0.0757
9.3,1.4465,0.0516,0.04819,-0.0756
9.4,1.4394,0.05369,0.05039,-0.076
9.6,1.4252,0.05821,0.05512,-0.078
9.8,1.4105,0.06348,0.06057,-0.0818
9.9,1.4033,0.06645,0.06363,-0.0845
10,1.3967,0.06965,0.06693,-0.0879
10.1,1.3906,0.07311,0.07048,-0.0918
10.2,1.3852,0.07694,0.07438,-0.0964
10.3,1.3806,0.08116,0.07869,-0.1014
10.4,1.3769,0.08578,0.08339,-0.1063
10.5,1.3727,0.08999,0.08764,-0.1104
10.6,1.3683,0.09388,0.09156,-0.1141
10.7,1.3641,0.09759,0.09529,-0.1176
10.9,1.3562,0.10477,0.10248,-0.1243
11,1.3524,0.10829,0.106,-0.1274
11.1,1.3489,0.11178,0.10949,-0.1305
11.2,1.346,0.11516,0.11288,-0.1335
11.3,1.3432,0.11856,0.11628,-0.1364
11.4,1.3408,0.12191,0.11962,-0.1392
11.5,1.3389,0.12518,0.12289,-0.142
11.6,1.3373,0.12844,0.12616,-0.1446
11.8,1.3356,0.13468,0.13239,-0.1496
11.9,1.3356,0.13767,0.13538,-0.152
12,1.3359,0.14052,0.13823,-0.1542
12.1,1.3366,0.14331,0.14102,-0.1564
12.2,1.3384,0.14606,0.14376,-0.1587
12.3,1.3402,0.14847,0.14617,-0.1606
12.4,1.3423,0.1508,0.1485,-0.1625
12.5,1.3445,0.15306,0.15076,-0.1643
12.6,1.347,0.15524,0.15295,-0.166
12.7,1.3496,0.15735,0.15506,-0.1677
12.8,1.3524,0.15939,0.15709,-0.1694
12.9,1.3552,0.1614,0.1591,-0.171
13,1.3573,0.16388,0.16156,-0.1729
13.1,1.3586,0.16703,0.16471,-0.1751
13.2,1.3604,0.16995,0.16763,-0.1771
13.3,1.3626,0.17268,0.17037,-0.179
13.4,1.3652,0.17531,0.17299,-0.1809
13.5,1.3679,0.17783,0.17551,-0.1827
13.6,1.3709,0.18023,0.17791,-0.1844
13.7,1.374,0.18257,0.18025,-0.1861
13.8,1.3771,0.18487,0.18255,-0.1877
13.9,1.3804,0.18712,0.1848,-0.1894
14,1.3838,0.18929,0.18698,-0.191
14.1,1.3872,0.19144,0.18912,-0.1926
14.2,1.3907,0.19353,0.19122,-0.1941
14.3,1.3942,0.19559,0.19328,-0.1957
14.4,1.3978,0.19761,0.1953,-0.1972
14.5,1.4014,0.1996,0.19729,-0.1987
14.6,1.405,0.20155,0.19925,-0.2002
14.7,1.4087,0.20347,0.20116,-0.2017
14.8,1.4124,0.20536,0.20305,-0.2032
14.9,1.416,0.20722,0.20491,-0.2047
15,1.4197,0.20904,0.20674,-0.2062
15.1,1.4234,0.21084,0.20855,-0.2076
15.2,1.427,0.21263,0.21033,-0.2091
15.3,1.4306,0.21441,0.21212,-0.2105
15.4,1.4347,0.21762,0.2153,-0.2125
15.5,1.4386,0.22058,0.21827,-0.2143
15.6,1.4427,0.22319,0.22088,-0.216
15.7,1.4467,0.22572,0.22341,-0.2177
15.8,1.4508,0.22811,0.22579,-0.2194
15.9,1.4549,0.23051,0.2282,-0.221
16,1.459,0.23279,0.23049,-0.2226
16.1,1.4632,0.23505,0.23274,-0.2242
16.2,1.4673,0.2373,0.23499,-0.2258
16.3,1.4715,0.23949,0.23719,-0.2274
16.4,1.4759,0.2417,0.23939,-0.2293
16.5,1.4801,0.24376,0.24148,-0.2308
16.6,1.4842,0.24581,0.24353,-0.2324
16.7,1.4884,0.24786,0.24558,-0.2339
16.8,1.4925,0.24988,0.24761,-0.2355
16.9,1.4967,0.2519,0.24963,-0.237
17,1.5008,0.25391,0.25164,-0.2385
17.1,1.5049,0.2559,0.25364,-0.2401
17.2,1.5091,0.25788,0.25561,-0.2416
17.3,1.5131,0.25983,0.25758,-0.2432
17.4,1.5172,0.26182,0.25956,-0.2447
17.5,1.5213,0.26377,0.26152,-0.2463
17.6,1.5254,0.26572,0.26347,-0.2478
17.7,1.5294,0.26766,0.26541,-0.2494
17.8,1.5334,0.26962,0.26738,-0.2509
17.9,1.5374,0.27156,0.26932,-0.2524
18,1.5413,0.2735,0.27127,-0.254
18.1,1.5465,0.27688,0.27463,-0.256
18.2,1.5514,0.27997,0.27771,-0.2578
18.3,1.5561,0.28268,0.28043,-0.2596
18.4,1.5607,0.2854,0.28315,-0.2614
18.5,1.5651,0.28791,0.28566,-0.2631
18.6,1.5697,0.29051,0.28827,-0.2648
18.7,1.5742,0.29297,0.29073,-0.2665
18.8,1.5786,0.29545,0.29321,-0.2682
18.9,1.5831,0.29788,0.29564,-0.2699
19,1.5875,0.30024,0.29801,-0.2716
19.1,1.5919,0.30266,0.30043,-0.2733
19.2,1.5963,0.30508,0.30285,-0.2751
19.3,1.6006,0.30742,0.30519,-0.2768
19.4,1.605,0.30977,0.30755,-0.2785
19.5,1.6094,0.31216,0.30994,-0.2802
19.6,1.6137,0.31451,0.31229,-0.2819
19.7,1.6181,0.31685,0.31464,-0.2836
19.8,1.6224,0.31921,0.317,-0.2854
19.9,1.6267,0.32155,0.31936,-0.2871
20,1.631,0.3239,0.32172,-0.2889
20.1,1.6353,0.32624,0.32406,-0.2906
20.2,1.6396,0.32859,0.32641,-0.2923
20.3,1.6439,0.33093,0.32876,-0.2941
20.4,1.6482,0.33329,0.33111,-0.2959
20.5,1.6525,0.33564,0.33348,-0.2976
20.6,1.6567,0.33799,0.33583,-0.2994
20.7,1.661,0.34035,0.33819,-0.3012
20.8,1.6652,0.34271,0.34055,-0.3029
20.9,1.6694,0.34507,0.34292,-0.3047
21,1.6737,0.34744,0.34529,-0.3065
21.1,1.6779,0.34981,0.34767,-0.3083
21.2,1.6821,0.35219,0.35005,-0.3101
21.3,1.6863,0.35457,0.35244,-0.3119
21.4,1.6905,0.35696,0.35483,-0.3138
21.5,1.6946,0.35934,0.35722,-0.3156
21.6,1.6988,0.36174,0.35962,-0.3174
21.7,1.7029,0.36415,0.36203,-0.3192
21.8,1.7071,0.36655,0.36444,-0.3211
21.9,1.7112,0.36897,0.36686,-0.3229
22,1.7153,0.37137,0.36926,-0.3248
22.1,1.7194,0.37381,0.37171,-0.3266
22.2,1.7235,0.37623,0.37414,-0.3285
22.3,1.7276,0.37866,0.37657,-0.3304
22.4,1.7316,0.3811,0.37902,-0.3322
22.5,1.7357,0.38355,0.38147,-0.3341
22.6,1.7397,0.386,0.38392,-0.336
22.7,1.7437,0.38848,0.38641,-0.3379
22.8,1.7478,0.39095,0.38889,-0.3398
22.9,1.7517,0.39343,0.39136,-0.3417
23,1.7557,0.39592,0.39386,-0.3436
23.1,1.7597,0.39846,0.39642,-0.3455
23.3,1.7669,0.40267,0.40064,-0.3494
23.4,1.7708,0.40522,0.4032,-0.3513
23.5,1.7747,0.40776,0.40574,-0.3532
23.6,1.779,0.41073,0.4087,-0.3553
23.7,1.7847,0.41493,0.4129,-0.3578
23.8,1.7894,0.4183,0.41627,-0.36
23.9,1.794,0.42159,0.41957,-0.3622
24,1.7983,0.42462,0.4226,-0.3643
24.1,1.8025,0.42755,0.42553,-0.3664
24.2,1.8067,0.43046,0.42845,-0.3685
24.3,1.811,0.43344,0.43143,-0.3706
24.4,1.8151,0.4363,0.4343,-0.3727
24.5,1.8192,0.43916,0.43716,-0.3748
24.6,1.8231,0.44194,0.43994,-0.3769
24.7,1.8272,0.44476,0.44277,-0.379
24.8,1.8312,0.44761,0.44563,-0.3812
24.9,1.8352,0.4504,0.44842,-0.3833
25,1.8391,0.4532,0.45122,-0.3854
25.1,1.843,0.45601,0.45404,-0.3875
25.2,1.8469,0.45881,0.45684,-0.3897
25.3,1.8508,0.46162,0.45966,-0.3918
25.4,1.8547,0.46441,0.46245,-0.3939
25.5,1.8585,0.46722,0.46527,-0.3961
25.6,1.8623,0.47001,0.46806,-0.3982
25.7,1.8661,0.47284,0.47089,-0.4004
25.8,1.8699,0.47564,0.4737,-0.4025
25.9,1.8736,0.47846,0.47653,-0.4047
26,1.8774,0.48129,0.47936,-0.4069
26.1,1.881,0.4841,0.48218,-0.409
26.2,1.8848,0.48696,0.48504,-0.4112
26.3,1.8885,0.48979,0.48788,-0.4134
26.4,1.8921,0.49263,0.49072,-0.4156
26.5,1.8957,0.49548,0.4936,-0.4178
26.6,1.8993,0.49834,0.49646,-0.42
26.7,1.903,0.50121,0.49934,-0.4222
26.8,1.9065,0.50409,0.50223,-0.4244
26.9,1.9101,0.50696,0.50509,-0.4266
27,1.9136,0.50985,0.508,-0.4289
27.1,1.9172,0.51277,0.51092,-0.4311
27.2,1.9207,0.51569,0.51384,-0.4333
27.3,1.9242,0.51857,0.51673,-0.4356
27.4,1.9276,0.5215,0.51967,-0.4378
27.5,1.9311,0.52444,0.52261,-0.4401
27.6,1.9345,0.52737,0.52555,-0.4424
27.7,1.9379,0.53032,0.5285,-0.4446
27.8,1.9414,0.5333,0.53149,-0.4469
27.9,1.9447,0.53628,0.53448,-0.4492
28,1.9481,0.53923,0.53743,-0.4515
28.1,1.9515,0.54224,0.54045,-0.4538
28.2,1.9548,0.54524,0.54346,-0.4561
28.3,1.9581,0.54825,0.54647,-0.4584
28.4,1.9614,0.55127,0.54949,-0.4607
28.5,1.9646,0.55428,0.55251,-0.463
28.6,1.9679,0.55739,0.55562,-0.4654
28.7,1.9712,0.56044,0.55868,-0.4677
28.8,1.9744,0.56351,0.56175,-0.47
28.9,1.9776,0.56657,0.56482,-0.4724
29,1.9808,0.56967,0.56793,-0.4747
29.1,1.984,0.5728,0.57106,-0.4771
29.2,1.9871,0.57591,0.57418,-0.4795
29.3,1.9903,0.57907,0.57735,-0.4818
29.4,1.9934,0.58221,0.58049,-0.4842
29.5,1.9964,0.58535,0.58366,-0.4866
29.6,1.9995,0.58856,0.58687,-0.489
29.7,2.0026,0.59175,0.59007,-0.4914
29.8,2.0056,0.59497,0.59329,-0.4938
29.9,2.0086,0.59822,0.59655,-0.4962
30,2.0117,0.60149,0.59983,-0.4986

