airfoilName st20.dat
Re 	690000
M 	5.000000e-01
N 	4.500000e+00
VACC 	0 VACCflag 1
XTR 	1.00 	1.00 XTRflag 0
alpha,cl,cd,cdp,cm
-30,-1.4753,0.59064,0.58897,0.3145
-29.9,-1.4717,0.58704,0.58537,0.3122
-29.8,-1.4681,0.58325,0.58157,0.3099
-29.7,-1.4645,0.57969,0.578,0.3076
-29.6,-1.4609,0.57616,0.57447,0.3053
-29.5,-1.4573,0.5724,0.5707,0.303
-29.4,-1.4536,0.56889,0.56719,0.3007
-29.3,-1.4499,0.56539,0.56369,0.2984
-29.2,-1.4463,0.56194,0.56023,0.2961
-29.1,-1.4426,0.55835,0.55665,0.2938
-29,-1.4389,0.55498,0.55327,0.2916
-28.9,-1.4351,0.55152,0.54981,0.2893
-28.8,-1.4314,0.54821,0.54649,0.287
-28.7,-1.4276,0.54475,0.54303,0.2848
-28.6,-1.4238,0.54145,0.53973,0.2825
-28.5,-1.4201,0.53819,0.53647,0.2803
-28.4,-1.4162,0.53485,0.53313,0.2781
-28.3,-1.4124,0.53158,0.52985,0.2758
-28.2,-1.4086,0.52839,0.52666,0.2736
-28.1,-1.4047,0.52515,0.52342,0.2714
-28,-1.4008,0.52199,0.52026,0.2692
-27.9,-1.3969,0.51884,0.5171,0.2669
-27.8,-1.393,0.51571,0.51397,0.2648
-27.7,-1.3891,0.51258,0.51084,0.2625
-27.6,-1.3852,0.50951,0.50777,0.2604
-27.5,-1.3812,0.50648,0.50473,0.2582
-27.4,-1.3773,0.50342,0.50167,0.256
-27.3,-1.3733,0.50041,0.49865,0.2538
-27.2,-1.3693,0.4974,0.49563,0.2517
-27.1,-1.3653,0.49442,0.49265,0.2495
-27,-1.3613,0.49145,0.48967,0.2474
-26.9,-1.3572,0.48849,0.48672,0.2452
-26.8,-1.3532,0.48555,0.48377,0.2431
-26.7,-1.3491,0.48261,0.48083,0.241
-26.6,-1.345,0.4797,0.47792,0.2389
-26.5,-1.3409,0.47681,0.47503,0.2368
-26.4,-1.3368,0.47392,0.47214,0.2347
-26.3,-1.3327,0.47104,0.46925,0.2326
-26.2,-1.3286,0.46819,0.4664,0.2305
-26.1,-1.3244,0.46532,0.46353,0.2284
-26,-1.3202,0.46248,0.46068,0.2263
-25.9,-1.316,0.45963,0.45783,0.2242
-25.8,-1.3118,0.45684,0.45504,0.2222
-25.7,-1.3076,0.45405,0.45224,0.2201
-25.6,-1.3034,0.45126,0.44945,0.2181
-25.5,-1.2992,0.44849,0.44668,0.216
-25.4,-1.2949,0.44574,0.44393,0.214
-25.3,-1.2907,0.44301,0.44119,0.212
-25.2,-1.2864,0.44028,0.43847,0.2099
-25.1,-1.2821,0.43757,0.43575,0.2079
-25,-1.2778,0.43489,0.43307,0.2059
-24.9,-1.2735,0.43221,0.43038,0.2039
-24.8,-1.2692,0.42954,0.42772,0.2019
-24.7,-1.2649,0.42689,0.42506,0.2
-24.6,-1.2605,0.42427,0.42244,0.198
-24.5,-1.2562,0.42164,0.4198,0.196
-24.4,-1.2518,0.41904,0.41719,0.194
-24.3,-1.2474,0.41644,0.41459,0.1921
-24.2,-1.243,0.41386,0.41202,0.1901
-24.1,-1.2386,0.41131,0.40946,0.1882
-24,-1.2342,0.40874,0.40689,0.1862
-23.9,-1.2298,0.40622,0.40437,0.1843
-23.8,-1.2253,0.40369,0.40184,0.1824
-23.7,-1.2209,0.40115,0.39929,0.1804
-23.6,-1.2164,0.39866,0.3968,0.1785
-23.5,-1.212,0.39616,0.3943,0.1766
-23.4,-1.2075,0.39366,0.3918,0.1747
-23.3,-1.2028,0.39209,0.39023,0.1726
-23.2,-1.1983,0.38956,0.38769,0.1707
-23.1,-1.1938,0.38708,0.38521,0.1688
-23,-1.1893,0.38456,0.38269,0.167
-22.9,-1.1848,0.38211,0.38023,0.1651
-22.8,-1.1802,0.37961,0.37773,0.1633
-22.7,-1.1757,0.37712,0.37525,0.1614
-22.6,-1.1712,0.37466,0.37279,0.1596
-22.5,-1.1666,0.3722,0.37032,0.1578
-22.4,-1.1621,0.36975,0.36787,0.156
-22.3,-1.1575,0.36732,0.36544,0.1541
-22.2,-1.1529,0.36491,0.36303,0.1523
-22.1,-1.1483,0.36248,0.36059,0.1505
-22,-1.1437,0.36004,0.35816,0.1488
-21.9,-1.1391,0.35768,0.35579,0.147
-21.8,-1.1345,0.35524,0.35335,0.1452
-21.7,-1.1299,0.35286,0.35098,0.1434
-21.6,-1.1253,0.35044,0.34854,0.1417
-21.5,-1.1206,0.34811,0.34621,0.1399
-21.4,-1.116,0.34574,0.34383,0.1382
-21.3,-1.1113,0.34335,0.34145,0.1364
-21.2,-1.1066,0.34101,0.33911,0.1347
-21.1,-1.1019,0.33866,0.33675,0.133
-21,-1.0972,0.33631,0.3344,0.1312
-20.9,-1.0925,0.33398,0.33207,0.1295
-20.8,-1.0878,0.33161,0.3297,0.1278
-20.7,-1.0831,0.32926,0.32734,0.1261
-20.6,-1.0783,0.32691,0.325,0.1244
-20.5,-1.0734,0.32459,0.32268,0.1227
-20.4,-1.0686,0.32224,0.32032,0.121
-20.3,-1.0638,0.31987,0.31795,0.1193
-20.2,-1.0589,0.31751,0.3156,0.1176
-20.1,-1.054,0.31516,0.31324,0.1159
-20,-1.0488,0.31291,0.311,0.1141
-19.9,-1.0439,0.31059,0.30867,0.1125
-19.4,-1.0163,0.3007,0.2988,0.1031
-19.3,-1.0119,0.29815,0.29625,0.1017
-19.2,-1.0075,0.29558,0.29368,0.1003
-19.1,-1.0031,0.29301,0.2911,0.0989
-19,-0.9988,0.29043,0.28852,0.0976
-18.9,-0.9943,0.28794,0.28603,0.0962
-18.8,-0.99,0.28539,0.28348,0.0949
-18.7,-0.9856,0.2829,0.28099,0.0935
-18.6,-0.9812,0.28041,0.2785,0.0922
-18.5,-0.9768,0.27796,0.27604,0.0908
-18.4,-0.9724,0.27552,0.2736,0.0895
-18.3,-0.9681,0.27312,0.27119,0.0882
-18.2,-0.9636,0.27076,0.26884,0.0868
-18.1,-0.9592,0.26845,0.26653,0.0855
-18,-0.9547,0.26619,0.26426,0.0841
-17.9,-0.9503,0.26396,0.26203,0.0828
-17.8,-0.9458,0.26176,0.25983,0.0814
-17.7,-0.9412,0.25959,0.25766,0.0801
-17.6,-0.9367,0.25746,0.25552,0.0788
-17.5,-0.9321,0.25534,0.25341,0.0774
-17.4,-0.9276,0.25325,0.25131,0.0761
-17.3,-0.923,0.25117,0.24924,0.0747
-17.2,-0.9184,0.24911,0.24718,0.0734
-17.1,-0.9138,0.24708,0.24515,0.0721
-17,-0.9091,0.24505,0.24312,0.0708
-16.9,-0.9045,0.24304,0.2411,0.0694
-16.8,-0.8998,0.24103,0.23909,0.0681
-16.7,-0.8951,0.23903,0.23709,0.0668
-16.6,-0.8904,0.23704,0.2351,0.0655
-16.5,-0.8857,0.23506,0.23312,0.0642
-16.4,-0.8809,0.23308,0.23114,0.0629
-16.3,-0.8762,0.23112,0.22918,0.0616
-16.2,-0.8715,0.22916,0.22722,0.0603
-16.1,-0.8667,0.22721,0.22527,0.059
-16,-0.862,0.22527,0.22333,0.0577
-15.9,-0.8572,0.22333,0.22139,0.0565
-15.8,-0.8525,0.2214,0.21946,0.0552
-15.7,-0.8477,0.21948,0.21753,0.054
-15.6,-0.843,0.21756,0.21562,0.0527
-15.5,-0.8382,0.21565,0.21371,0.0515
-15.4,-0.8334,0.21376,0.21182,0.0502
-15.3,-0.8287,0.21187,0.20991,0.049
-15.2,-0.8239,0.20999,0.20803,0.0478
-15.1,-0.8191,0.20811,0.20616,0.0466
-15,-0.8144,0.20625,0.2043,0.0453
-14.9,-0.8096,0.2044,0.20244,0.0441
-14.8,-0.8048,0.20255,0.20059,0.0429
-14.7,-0.7999,0.2007,0.19875,0.0417
-14.6,-0.7942,0.19923,0.19728,0.04
-14.5,-0.7893,0.19736,0.19541,0.0388
-14.4,-0.7845,0.19549,0.19354,0.0376
-14.3,-0.7796,0.19364,0.19169,0.0365
-14.2,-0.7747,0.19179,0.18984,0.0353
-14.1,-0.7699,0.18995,0.188,0.0341
-14,-0.765,0.18811,0.18616,0.0329
-13.9,-0.7601,0.18626,0.18431,0.0318
-13.8,-0.7552,0.18442,0.18247,0.0306
-13.7,-0.7504,0.1826,0.18065,0.0295
-13.6,-0.7455,0.18077,0.17883,0.0284
-13.5,-0.7406,0.17894,0.17699,0.0272
-13.4,-0.7357,0.1771,0.17516,0.0261
-13.3,-0.7308,0.17527,0.17332,0.025
-13.2,-0.7259,0.17342,0.17147,0.0239
-13.1,-0.721,0.17156,0.16962,0.0228
-13,-0.716,0.16969,0.16775,0.0217
-12.9,-0.7109,0.16778,0.16584,0.0205
-12.8,-0.7056,0.16586,0.16393,0.0194
-12.7,-0.7001,0.16395,0.16201,0.0182
-12.6,-0.6942,0.16211,0.16017,0.0169
-12.4,-0.6811,0.15873,0.15682,0.014
-12.3,-0.6768,0.15694,0.15502,0.0131
-12.2,-0.6727,0.15514,0.15323,0.0123
-12.1,-0.6685,0.15337,0.15146,0.0114
-12,-0.6643,0.15162,0.14971,0.0106
-11.9,-0.6601,0.14989,0.14798,0.0097
-11.8,-0.6559,0.14819,0.14627,0.0089
-11.7,-0.6516,0.14652,0.14461,0.008
-11.6,-0.6473,0.1449,0.14299,0.0071
-11.5,-0.6428,0.14331,0.1414,0.0062
-11.4,-0.6382,0.14176,0.13985,0.0053
-11.3,-0.6336,0.14023,0.13832,0.0044
-11.2,-0.629,0.13873,0.13683,0.0035
-11.1,-0.6244,0.13726,0.13536,0.0026
-11,-0.6197,0.13581,0.13391,0.0017
-10.9,-0.615,0.13437,0.13247,0.0008
-10.8,-0.6103,0.13295,0.13106,0
-10.7,-0.6056,0.13155,0.12966,-0.0009
-10.6,-0.601,0.13016,0.12827,-0.0018
-10.5,-0.5963,0.12879,0.12691,-0.0026
-10.4,-0.5917,0.12743,0.12555,-0.0034
-10.3,-0.5871,0.12609,0.12422,-0.0042
-10.2,-0.5827,0.12477,0.1229,-0.0049
-10.1,-0.5783,0.12347,0.1216,-0.0056
-10,-0.5742,0.12219,0.12033,-0.0063
-9.9,-0.5703,0.12095,0.11909,-0.0069
-9.8,-0.5667,0.11974,0.11789,-0.0073
-9.7,-0.5635,0.11858,0.11674,-0.0077
-9.6,-0.5607,0.11747,0.11564,-0.0079
-9.5,-0.5585,0.11641,0.11459,-0.008
-9.4,-0.557,0.11544,0.11363,-0.0079
-9.3,-0.5502,0.11394,0.11213,-0.0093
-9.2,-0.5423,0.11233,0.11052,-0.011
-9.1,-0.5342,0.11072,0.10891,-0.0128
-9,-0.526,0.10911,0.10729,-0.0146
-8.9,-0.5169,0.10742,0.10559,-0.0166
-8.8,-0.5083,0.10579,0.10397,-0.0185
-8.7,-0.499,0.10414,0.10231,-0.0207
-8.6,-0.4909,0.10255,0.10072,-0.0224
-8.5,-0.4826,0.10094,0.09911,-0.0242
-8.4,-0.474,0.09932,0.09748,-0.026
-8.3,-0.4651,0.09768,0.09584,-0.0279
-8.2,-0.4554,0.09597,0.09412,-0.0301
-8.1,-0.4468,0.09435,0.09251,-0.0319
-8,-0.4391,0.09284,0.091,-0.0334
-7.9,-0.4307,0.09126,0.08942,-0.0351
-7.8,-0.4218,0.08963,0.08778,-0.037
-7.7,-0.4124,0.08797,0.08612,-0.039
-7.6,-0.4023,0.08624,0.08438,-0.0411
-7.5,-0.395,0.0848,0.08294,-0.0425
-7.4,-0.3857,0.08322,0.08136,-0.0444
-7.3,-0.3747,0.08161,0.07974,-0.0467
-7.1,-0.3514,0.07833,0.07646,-0.0519
-7,-0.3439,0.07692,0.07505,-0.0534
-6.9,-0.3354,0.07547,0.0736,-0.0551
-6.8,-0.3261,0.07397,0.07209,-0.0571
-6.7,-0.3159,0.07248,0.07059,-0.0592
-6.6,-0.3048,0.07099,0.06908,-0.0616
-6.5,-0.295,0.06963,0.06772,-0.0635
-6.4,-0.2849,0.06831,0.06639,-0.0655
-6.3,-0.274,0.06698,0.06505,-0.0677
-6.2,-0.2623,0.06563,0.06368,-0.0699
-6.1,-0.2501,0.06427,0.0623,-0.0723
-6,-0.2375,0.06292,0.06093,-0.0747
-5.9,-0.2259,0.06165,0.05965,-0.0769
-5.8,-0.2136,0.06034,0.05833,-0.0791
-5.7,-0.2006,0.05901,0.05698,-0.0815
-5.5,-0.1732,0.05628,0.05421,-0.0865
-5.4,-0.1593,0.05492,0.05283,-0.089
-5.3,-0.1453,0.05356,0.05146,-0.0915
-5.2,-0.1307,0.05218,0.05005,-0.094
-5.1,-0.1157,0.05077,0.04862,-0.0967
-4.9,-0.0841,0.04788,0.04567,-0.1021
-4.7,-0.0507,0.04478,0.04252,-0.1079
-4.6,-0.0338,0.04324,0.04095,-0.1108
-4.5,-0.0164,0.04164,0.0393,-0.1137
-4.4,0.0018,0.03998,0.03759,-0.1167
-4.3,0.0205,0.03825,0.03582,-0.1199
-4.2,0.04,0.03637,0.03388,-0.1232
-4.1,0.0607,0.03432,0.03177,-0.1269
-4,0.0829,0.03192,0.02929,-0.131
-3.9,0.1063,0.0293,0.02657,-0.1355
-3.8,0.1275,0.0275,0.02468,-0.1388
-3.7,0.1479,0.02585,0.02295,-0.1417
-3.6,0.1683,0.02411,0.02111,-0.1445
-3.3,0.2433,0.01211,0.00792,-0.1593
-3.2,0.2597,0.01097,0.00649,-0.1602
-3.1,0.2752,0.01026,0.00554,-0.1607
-3,0.2903,0.00975,0.00486,-0.1609
-2.9,0.3052,0.00937,0.00434,-0.161
-2.8,0.3197,0.00907,0.00393,-0.1611
-2.7,0.3342,0.00883,0.00361,-0.1611
-2.6,0.3486,0.00865,0.00336,-0.1611
-2.5,0.3627,0.0085,0.00314,-0.161
-2.4,0.3769,0.00836,0.00294,-0.1609
-2.3,0.391,0.00823,0.00274,-0.1609
-2.2,0.405,0.00812,0.00259,-0.1608
-2.1,0.419,0.00803,0.00247,-0.1607
-2,0.4327,0.00796,0.00236,-0.1606
-1.9,0.4467,0.00789,0.00226,-0.1606
-1.8,0.4603,0.00785,0.00226,-0.1605
-1.7,0.4741,0.00779,0.00216,-0.1604
-1.6,0.4879,0.00774,0.00207,-0.1604
-1.5,0.5016,0.00767,0.00198,-0.1603
-1.4,0.5147,0.00764,0.00191,-0.1601
-1.3,0.5281,0.00761,0.00184,-0.1599
-1.2,0.5417,0.00758,0.0018,-0.1599
-1.1,0.555,0.00755,0.00173,-0.1597
-1,0.5683,0.00753,0.00169,-0.1596
-0.9,0.5819,0.0075,0.00166,-0.1595
-0.8,0.5952,0.0075,0.00161,-0.1594
-0.7,0.6084,0.00749,0.00158,-0.1593
-0.6,0.6218,0.00747,0.00157,-0.1592
-0.5,0.635,0.00747,0.00155,-0.1591
-0.4,0.6478,0.0075,0.00152,-0.1588
-0.3,0.6612,0.00749,0.00151,-0.1588
-0.2,0.6745,0.00749,0.0015,-0.1587
-0.1,0.6878,0.0075,0.00149,-0.1586
0,0.7003,0.00754,0.00149,-0.1583
0.1,0.7135,0.00755,0.0015,-0.1582
0.2,0.7266,0.00758,0.0015,-0.158
0.3,0.7395,0.00761,0.0015,-0.1578
0.4,0.7525,0.00764,0.00151,-0.1577
0.5,0.764,0.00775,0.00153,-0.1572
0.6,0.7767,0.00781,0.00155,-0.157
0.7,0.7887,0.0079,0.00159,-0.1567
0.8,0.801,0.00798,0.00162,-0.1564
0.9,0.8117,0.00818,0.00169,-0.1558
1,0.8234,0.00832,0.00175,-0.1554
1.1,0.8354,0.00843,0.0018,-0.1551
1.2,0.8473,0.00855,0.00187,-0.1547
1.3,0.8577,0.00878,0.00198,-0.1541
1.4,0.8674,0.00909,0.00213,-0.1534
1.5,0.8786,0.00927,0.00223,-0.153
1.6,0.8881,0.0096,0.00239,-0.1523
1.7,0.8987,0.00986,0.00252,-0.1518
1.8,0.9089,0.01015,0.00267,-0.1512
1.9,0.9168,0.01067,0.00291,-0.1504
2,0.9282,0.01088,0.00305,-0.15
2.1,0.94,0.01103,0.00316,-0.1497
2.2,0.9522,0.01115,0.00326,-0.1494
2.3,0.9645,0.01127,0.00336,-0.1491
2.4,0.9763,0.01144,0.00348,-0.1487
2.5,0.9887,0.01154,0.00357,-0.1484
2.6,1.0011,0.01165,0.00367,-0.1481
2.7,1.0136,0.01174,0.00376,-0.1479
2.8,1.026,0.01184,0.00389,-0.1476
2.9,1.0381,0.01197,0.00399,-0.1472
3,1.0507,0.01207,0.00409,-0.1469
3.1,1.0633,0.01216,0.0042,-0.1466
3.2,1.0757,0.01225,0.00431,-0.1463
3.3,1.0884,0.01232,0.00442,-0.146
3.4,1.0948,0.01124,0.00469,-0.1449
3.5,1.1074,0.01135,0.00479,-0.1445
3.6,1.1198,0.01149,0.0049,-0.1441
3.7,1.1322,0.01162,0.00502,-0.1437
3.8,1.1448,0.01175,0.00514,-0.1433
3.9,1.1567,0.01193,0.00528,-0.1428
4,1.1692,0.01206,0.0054,-0.1424
4.1,1.1814,0.01222,0.00554,-0.1419
4.2,1.1938,0.01236,0.00568,-0.1414
4.3,1.2062,0.01251,0.00584,-0.1409
4.4,1.2181,0.0127,0.006,-0.1403
4.5,1.2303,0.01285,0.00615,-0.1398
4.6,1.2424,0.01303,0.00633,-0.1392
4.7,1.2547,0.01319,0.00648,-0.1387
4.8,1.2669,0.01336,0.00665,-0.1381
4.9,1.2789,0.01355,0.00684,-0.1374
5,1.2909,0.01374,0.00702,-0.1368
5.1,1.3027,0.01395,0.00722,-0.1361
5.2,1.315,0.01413,0.00742,-0.1354
5.3,1.3271,0.01431,0.00762,-0.1348
5.4,1.339,0.01452,0.00783,-0.134
5.5,1.3509,0.01473,0.00807,-0.1333
5.6,1.363,0.01493,0.00829,-0.1325
5.7,1.375,0.01513,0.00855,-0.1317
5.8,1.3865,0.01538,0.0088,-0.1309
5.9,1.3983,0.01562,0.00907,-0.13
6,1.4102,0.01584,0.00934,-0.1291
6.1,1.422,0.01608,0.00962,-0.1282
6.2,1.4337,0.01633,0.00992,-0.1272
6.3,1.4451,0.0166,0.01023,-0.1262
6.4,1.4562,0.01692,0.01059,-0.1251
6.5,1.4676,0.01719,0.01092,-0.1241
6.6,1.4788,0.01749,0.01129,-0.123
6.7,1.49,0.01779,0.01161,-0.1219
6.8,1.5006,0.01815,0.01204,-0.1206
6.9,1.511,0.01852,0.01251,-0.1193
7,1.521,0.01894,0.01301,-0.1179
7.1,1.5306,0.01939,0.01355,-0.1164
7.2,1.5395,0.0199,0.01418,-0.1148
7.3,1.5469,0.02052,0.01493,-0.1129
7.4,1.5533,0.02122,0.01578,-0.1109
7.5,1.5586,0.022,0.01672,-0.1088
7.6,1.5623,0.02284,0.01772,-0.1066
7.8,1.5694,0.02445,0.01963,-0.1021
7.9,1.5705,0.02545,0.0208,-0.0997
8,1.5707,0.02652,0.02203,-0.0973
8.2,1.5655,0.02906,0.02493,-0.0924
8.3,1.5613,0.03045,0.02649,-0.09
8.5,1.5508,0.03334,0.0297,-0.0856
8.7,1.5378,0.03643,0.03309,-0.0817
8.9,1.5229,0.03976,0.03669,-0.0786
9.2,1.4989,0.04519,0.04248,-0.0758
9.3,1.4907,0.04718,0.04458,-0.0755
9.6,1.4658,0.05368,0.05137,-0.0764
9.7,1.4576,0.0561,0.05389,-0.0775
10.2,1.4213,0.07096,0.06918,-0.0908
10.5,1.4064,0.08429,0.08277,-0.105
10.6,1.4014,0.08863,0.08715,-0.1091
10.7,1.3964,0.0926,0.09115,-0.1129
11,1.3829,0.10367,0.10223,-0.1233
11.2,1.3754,0.11063,0.10919,-0.1297
11.3,1.372,0.11403,0.11259,-0.1328
11.4,1.3691,0.11737,0.11593,-0.1357
11.5,1.3667,0.12065,0.11921,-0.1386
11.6,1.3645,0.12391,0.12247,-0.1415
11.7,1.3628,0.1271,0.12565,-0.1442
11.8,1.3616,0.13023,0.12878,-0.1468
11.9,1.3607,0.13328,0.13183,-0.1494
12,1.3602,0.13626,0.13481,-0.1519
12.1,1.3601,0.13921,0.13776,-0.1543
12.2,1.3604,0.14205,0.14059,-0.1566
12.3,1.361,0.14484,0.14339,-0.1589
12.4,1.3619,0.14753,0.14608,-0.161
12.5,1.3631,0.15016,0.14871,-0.1631
12.6,1.3646,0.15272,0.15126,-0.1651
12.7,1.3664,0.15521,0.15375,-0.1671
12.8,1.3684,0.15764,0.15618,-0.1691
12.9,1.3705,0.16004,0.15858,-0.171
13,1.3728,0.16237,0.16091,-0.1729
13.1,1.3752,0.16468,0.16322,-0.1747
13.2,1.3773,0.16715,0.16567,-0.1767
13.3,1.3781,0.17024,0.16876,-0.1789
13.4,1.3795,0.17316,0.17169,-0.181
13.5,1.3813,0.17603,0.17455,-0.183
13.6,1.3835,0.17867,0.17719,-0.1849
13.7,1.386,0.18125,0.17977,-0.1867
13.8,1.3887,0.1838,0.18232,-0.1886
13.9,1.3915,0.1863,0.18482,-0.1904
14,1.3945,0.1887,0.18722,-0.1921
14.1,1.3976,0.19108,0.1896,-0.1938
14.2,1.4007,0.19342,0.19194,-0.1955
14.3,1.4041,0.19572,0.19424,-0.1972
14.4,1.4073,0.19797,0.19649,-0.1989
14.5,1.4107,0.20018,0.1987,-0.2005
14.6,1.4142,0.20236,0.20088,-0.2021
14.9,1.4255,0.2083,0.20682,-0.207
15,1.4292,0.2103,0.20882,-0.2086
15.1,1.4329,0.21228,0.2108,-0.2101
15.2,1.4366,0.21424,0.21277,-0.2117
15.3,1.4403,0.21618,0.21471,-0.2133
15.4,1.444,0.2181,0.21663,-0.2149
15.5,1.4476,0.22001,0.21854,-0.2165
15.6,1.4512,0.22204,0.22056,-0.2181
15.7,1.4551,0.22517,0.22369,-0.2199
15.8,1.459,0.22797,0.22649,-0.2216
15.9,1.4629,0.23074,0.22926,-0.2233
16,1.4669,0.23326,0.23178,-0.2249
16.1,1.4709,0.23567,0.23419,-0.2266
16.2,1.475,0.23813,0.23665,-0.2282
16.3,1.4791,0.24045,0.23898,-0.2298
16.4,1.4832,0.24279,0.24133,-0.2314
16.5,1.4873,0.24511,0.24365,-0.2331
16.6,1.4915,0.2474,0.24595,-0.2347
16.7,1.4956,0.24965,0.2482,-0.2363
16.8,1.4998,0.25192,0.25046,-0.2379
16.9,1.504,0.25416,0.2527,-0.2395
17,1.5082,0.25638,0.25493,-0.2411
17.1,1.5124,0.25858,0.25713,-0.2427
17.2,1.5167,0.26077,0.25933,-0.2443
17.3,1.5209,0.26297,0.26152,-0.2459
17.4,1.5251,0.26515,0.26371,-0.2475
17.5,1.5293,0.26732,0.26588,-0.2491
17.6,1.5335,0.26947,0.26803,-0.2508
17.7,1.5377,0.27162,0.27018,-0.2524
17.8,1.5419,0.27377,0.27233,-0.254
17.9,1.5461,0.2759,0.27447,-0.2556
18,1.5503,0.27803,0.2766,-0.2572
18.1,1.5545,0.28017,0.27874,-0.2588
18.2,1.5587,0.28229,0.28086,-0.2605
18.3,1.5629,0.28444,0.28302,-0.2621
18.4,1.567,0.28656,0.28513,-0.2637
18.5,1.5712,0.28871,0.28728,-0.2653
18.6,1.5753,0.2908,0.28938,-0.267
18.7,1.5795,0.29295,0.29153,-0.2686
18.8,1.5836,0.29504,0.29363,-0.2703
18.9,1.5878,0.29717,0.29576,-0.2719
19,1.592,0.29936,0.29795,-0.2736
19.1,1.5961,0.30147,0.30007,-0.2753
19.2,1.6002,0.30357,0.30217,-0.2769
19.3,1.6043,0.30577,0.30436,-0.2786
19.4,1.6084,0.30795,0.30655,-0.2803
19.5,1.6125,0.31007,0.30868,-0.282
19.6,1.6166,0.31229,0.31089,-0.2837
19.7,1.6207,0.31452,0.31314,-0.2853
19.8,1.6248,0.31671,0.31533,-0.287
19.9,1.6289,0.31896,0.31758,-0.2887
20,1.6329,0.32119,0.31981,-0.2904
20.1,1.637,0.32346,0.32208,-0.2922
20.2,1.641,0.32575,0.32438,-0.2939
20.3,1.6451,0.32803,0.32667,-0.2956
20.4,1.6494,0.33052,0.32914,-0.2973
20.5,1.6544,0.3336,0.33222,-0.2993
20.6,1.6591,0.33646,0.33509,-0.3012
20.7,1.6637,0.3392,0.33783,-0.303
20.8,1.6684,0.34213,0.34076,-0.3049
20.9,1.6729,0.34489,0.34352,-0.3067
21,1.6773,0.34765,0.34628,-0.3086
21.1,1.6818,0.35037,0.349,-0.3104
21.2,1.6863,0.35313,0.35177,-0.3123
21.3,1.6906,0.35578,0.35442,-0.3142
21.4,1.695,0.35853,0.35717,-0.316
21.5,1.7002,0.36203,0.36068,-0.3182
21.6,1.7045,0.36463,0.36328,-0.3201
21.7,1.7087,0.36721,0.36586,-0.3219
21.8,1.713,0.36982,0.36847,-0.3238
21.9,1.7173,0.37238,0.37104,-0.3257
22,1.7215,0.37494,0.3736,-0.3276
22.1,1.7257,0.37749,0.37616,-0.3295
22.2,1.7299,0.38003,0.37869,-0.3314
22.3,1.7341,0.38259,0.38126,-0.3334
22.4,1.7382,0.38514,0.38381,-0.3353
22.5,1.7424,0.3877,0.38637,-0.3372
22.6,1.7465,0.39024,0.38892,-0.3392
22.7,1.7506,0.3928,0.39148,-0.3411
22.8,1.7548,0.39536,0.39404,-0.343
22.9,1.7588,0.3979,0.39659,-0.345
23,1.7629,0.40046,0.39915,-0.347
23.1,1.767,0.40302,0.40172,-0.3489
23.2,1.771,0.40556,0.40427,-0.3509
23.3,1.775,0.40811,0.40682,-0.3529
23.4,1.7791,0.41068,0.40939,-0.3549
23.5,1.7831,0.41323,0.41195,-0.3569
23.6,1.787,0.41579,0.41451,-0.3588
23.7,1.791,0.41834,0.41707,-0.3609
23.8,1.795,0.4209,0.41964,-0.3629
23.9,1.7989,0.42346,0.4222,-0.3649
24,1.8028,0.42601,0.42475,-0.3669
24.1,1.8067,0.42858,0.42732,-0.3689
24.2,1.8106,0.43116,0.4299,-0.371
24.3,1.8145,0.43371,0.43246,-0.373
24.4,1.8183,0.43627,0.43502,-0.3751
24.5,1.8222,0.43886,0.43761,-0.3771
24.6,1.8259,0.44146,0.44021,-0.3792
24.7,1.8297,0.44402,0.44278,-0.3812
24.8,1.8335,0.44658,0.44535,-0.3833
24.9,1.8373,0.44922,0.44799,-0.3854
25,1.841,0.45182,0.4506,-0.3875
25.1,1.8447,0.45442,0.4532,-0.3895
25.2,1.8484,0.45705,0.45583,-0.3916
25.3,1.8521,0.45968,0.45846,-0.3937
25.4,1.8558,0.46232,0.46111,-0.3958
25.5,1.8595,0.465,0.46379,-0.3979
25.6,1.8631,0.46769,0.46648,-0.4001
25.7,1.8667,0.47036,0.46916,-0.4022
25.8,1.8703,0.47306,0.47186,-0.4043
25.9,1.8739,0.4758,0.4746,-0.4064
26,1.8775,0.47855,0.47736,-0.4086
26.1,1.8811,0.48133,0.48014,-0.4107
26.2,1.8847,0.48412,0.48294,-0.4129
26.3,1.8882,0.48693,0.48575,-0.415
26.4,1.8918,0.48976,0.4886,-0.4172
26.5,1.8953,0.49262,0.49146,-0.4193
26.6,1.8988,0.49549,0.49433,-0.4215
26.7,1.9023,0.49842,0.49727,-0.4237
26.8,1.9058,0.50134,0.50019,-0.4258
26.9,1.9092,0.50429,0.50314,-0.428
27,1.9127,0.50723,0.50609,-0.4302
27.1,1.9162,0.51025,0.50911,-0.4324
27.2,1.9196,0.5132,0.51207,-0.4346
27.3,1.923,0.51629,0.51517,-0.4367
27.4,1.9264,0.51929,0.51817,-0.439
27.7,1.9386,0.52924,0.5281,-0.4464
27.8,1.9428,0.53282,0.53169,-0.4489
27.9,1.9464,0.53609,0.53497,-0.4512
28,1.9503,0.53955,0.53843,-0.4537
28.1,1.9539,0.54284,0.54172,-0.456
28.2,1.9576,0.54623,0.54511,-0.4584
28.3,1.9612,0.54955,0.54844,-0.4608
28.4,1.9657,0.55309,0.55198,-0.4637
28.5,1.9691,0.55613,0.55503,-0.4661
28.6,1.9726,0.55925,0.55814,-0.4685
28.7,1.976,0.5623,0.5612,-0.4709
28.8,1.9793,0.56535,0.56425,-0.4733
28.9,1.9827,0.56839,0.5673,-0.4758
29,1.986,0.57143,0.57034,-0.4782
29.1,1.9893,0.5745,0.57342,-0.4806
29.2,1.9924,0.57755,0.57647,-0.4831
29.3,1.9958,0.58062,0.57954,-0.4855
29.4,1.9989,0.58369,0.58261,-0.488
29.5,2.002,0.58673,0.58566,-0.4904
29.6,2.0052,0.58982,0.58877,-0.4928
29.7,2.0083,0.59288,0.59183,-0.4953
29.8,2.0114,0.59597,0.59492,-0.4977
29.9,2.0145,0.59906,0.59801,-0.5002
30,2.0175,0.60215,0.60111,-0.5027

