airfoilName st21.dat
Re 	890000
M 	5.000000e-01
N 	4.500000e+00
VACC 	0 VACCflag 1
XTR 	1.00 	1.00 XTRflag 0
alpha,cl,cd,cdp,cm
-30,-1.4498,0.59711,0.59567,0.3123
-29.9,-1.4461,0.59405,0.59261,0.3099
-27.3,-1.344,0.51659,0.5151,0.2493
-27.2,-1.3402,0.51281,0.51132,0.2473
-27.1,-1.3363,0.50919,0.5077,0.2453
-27,-1.3325,0.50538,0.50389,0.2433
-26.9,-1.3285,0.50183,0.50033,0.2413
-26.8,-1.3247,0.49799,0.49649,0.2393
-26.7,-1.3207,0.49455,0.49305,0.2373
-26.6,-1.3168,0.49093,0.48943,0.2353
-26.5,-1.3128,0.48741,0.48591,0.2333
-26.4,-1.3088,0.4839,0.48239,0.2313
-26.3,-1.3049,0.48036,0.47885,0.2293
-26.2,-1.3009,0.47706,0.47555,0.2273
-26.1,-1.2968,0.47367,0.47215,0.2254
-26,-1.2928,0.47046,0.46894,0.2234
-25.9,-1.2887,0.46716,0.46564,0.2214
-25.8,-1.2847,0.46402,0.4625,0.2194
-25.7,-1.2805,0.46097,0.45944,0.2174
-25.6,-1.2765,0.45785,0.45632,0.2154
-25.5,-1.2723,0.45482,0.45329,0.2135
-25.4,-1.2682,0.45186,0.45032,0.2115
-25.3,-1.264,0.44887,0.44732,0.2095
-25.2,-1.2599,0.44594,0.44439,0.2075
-25.1,-1.2557,0.44305,0.4415,0.2056
-25,-1.2515,0.44021,0.43866,0.2036
-24.9,-1.2472,0.43737,0.43581,0.2017
-24.8,-1.243,0.43458,0.43302,0.1997
-24.7,-1.2388,0.4318,0.43024,0.1978
-24.6,-1.2345,0.42905,0.42749,0.1959
-24.5,-1.2302,0.42632,0.42476,0.1939
-24.4,-1.2259,0.4236,0.42203,0.192
-24.3,-1.2217,0.4209,0.41933,0.1901
-24.2,-1.2173,0.41822,0.41666,0.1882
-24.1,-1.213,0.41555,0.41397,0.1863
-24,-1.2087,0.4129,0.41133,0.1844
-23.9,-1.2044,0.41027,0.40869,0.1825
-23.8,-1.2,0.40763,0.40605,0.1806
-23.7,-1.1956,0.40502,0.40344,0.1787
-23.6,-1.1913,0.40243,0.40085,0.1769
-23.5,-1.1869,0.39985,0.39826,0.175
-23.4,-1.1825,0.39726,0.39567,0.1732
-23.3,-1.1781,0.39469,0.3931,0.1713
-23.2,-1.1737,0.39214,0.39055,0.1695
-23.1,-1.1693,0.38961,0.38801,0.1676
-23,-1.1649,0.38705,0.38546,0.1658
-22.9,-1.1604,0.38454,0.38295,0.164
-22.8,-1.156,0.38201,0.38042,0.1622
-22.7,-1.1516,0.37951,0.37791,0.1604
-22.6,-1.1471,0.37701,0.37541,0.1586
-22.5,-1.1426,0.37501,0.37341,0.1567
-22.4,-1.1381,0.37249,0.37088,0.155
-22.3,-1.1336,0.36998,0.36837,0.1532
-22.2,-1.1291,0.36749,0.36587,0.1515
-22.1,-1.1247,0.36499,0.36337,0.1497
-22,-1.1202,0.36252,0.3609,0.148
-21.9,-1.1157,0.36004,0.35842,0.1463
-21.8,-1.1112,0.35758,0.35595,0.1446
-21.7,-1.1066,0.35513,0.3535,0.1428
-21.6,-1.1021,0.35269,0.35106,0.1411
-21.5,-1.0976,0.35025,0.34862,0.1395
-21.4,-1.0931,0.34782,0.3462,0.1378
-21.3,-1.0885,0.34542,0.34379,0.1361
-21.2,-1.084,0.34301,0.34138,0.1344
-21.1,-1.0795,0.3406,0.33897,0.1328
-21,-1.0749,0.33823,0.33659,0.1311
-20.9,-1.0704,0.33583,0.3342,0.1295
-20.8,-1.0658,0.33348,0.33185,0.1278
-20.7,-1.0613,0.33112,0.32948,0.1262
-20.6,-1.0567,0.32877,0.32713,0.1246
-20.5,-1.0521,0.32642,0.32478,0.123
-20.4,-1.0476,0.32409,0.32245,0.1214
-20.3,-1.043,0.32177,0.32013,0.1198
-20.2,-1.0384,0.31944,0.3178,0.1182
-20.1,-1.0338,0.31714,0.3155,0.1166
-20,-1.0292,0.31484,0.3132,0.115
-19.9,-1.0246,0.31255,0.3109,0.1135
-19.8,-1.02,0.31027,0.30862,0.1119
-19.7,-1.0153,0.30798,0.30633,0.1104
-19.6,-1.0107,0.30571,0.30406,0.1088
-19.5,-1.006,0.30344,0.30178,0.1073
-19.4,-1.0014,0.30118,0.29952,0.1057
-19.3,-0.9967,0.29892,0.29726,0.1042
-19.2,-0.9921,0.29668,0.29502,0.1027
-19.1,-0.9874,0.29444,0.29278,0.1012
-19,-0.9827,0.29222,0.29055,0.0997
-18.9,-0.9781,0.29,0.28834,0.0982
-18.8,-0.9734,0.28779,0.28612,0.0967
-18.7,-0.9687,0.28558,0.28391,0.0952
-18.6,-0.964,0.28339,0.28173,0.0937
-18.5,-0.9593,0.2812,0.27953,0.0922
-18.4,-0.9547,0.27903,0.27736,0.0908
-18.3,-0.95,0.27685,0.27518,0.0893
-18.2,-0.9452,0.27469,0.27302,0.0879
-18.1,-0.9405,0.27253,0.27086,0.0864
-18,-0.9358,0.27038,0.2687,0.085
-17.9,-0.9311,0.26823,0.26656,0.0835
-17.8,-0.9264,0.2661,0.26443,0.0821
-17.7,-0.9217,0.26397,0.2623,0.0807
-17.6,-0.9169,0.26185,0.26017,0.0792
-17.5,-0.9122,0.25973,0.25805,0.0778
-17.4,-0.9074,0.25761,0.25593,0.0764
-17.3,-0.9027,0.2555,0.25383,0.075
-17.2,-0.8979,0.25339,0.25171,0.0736
-17.1,-0.8931,0.25128,0.2496,0.0722
-17,-0.8882,0.24915,0.24747,0.0707
-16.9,-0.8834,0.24701,0.24533,0.0693
-16.8,-0.8784,0.24482,0.24314,0.0679
-16.7,-0.8731,0.24256,0.24089,0.0663
-16.2,-0.8449,0.23285,0.2312,0.0583
-16.1,-0.841,0.23043,0.22878,0.0573
-16,-0.837,0.22803,0.22636,0.0563
-15.9,-0.833,0.22569,0.22402,0.0552
-15.8,-0.8289,0.22344,0.22177,0.0542
-15.7,-0.8248,0.22125,0.21958,0.0531
-15.6,-0.8206,0.21912,0.21745,0.052
-15.5,-0.8162,0.21707,0.2154,0.0509
-15.4,-0.8119,0.21507,0.2134,0.0497
-15.3,-0.8075,0.21311,0.21144,0.0486
-15.2,-0.803,0.21117,0.2095,0.0474
-15.1,-0.7986,0.20927,0.2076,0.0463
-15,-0.794,0.20739,0.20571,0.0451
-14.9,-0.7895,0.20552,0.20385,0.044
-14.8,-0.785,0.20368,0.20201,0.0428
-14.7,-0.7804,0.20184,0.20017,0.0417
-14.6,-0.7758,0.20001,0.19834,0.0406
-14.5,-0.7712,0.19821,0.19654,0.0394
-14.4,-0.7666,0.1964,0.19473,0.0383
-14.3,-0.762,0.1946,0.19293,0.0372
-14.2,-0.7573,0.19281,0.19113,0.036
-14.1,-0.7526,0.19102,0.18935,0.0349
-14,-0.7479,0.18924,0.18757,0.0338
-13.9,-0.7432,0.18747,0.1858,0.0327
-13.8,-0.7385,0.18571,0.18404,0.0315
-13.7,-0.7338,0.18395,0.18228,0.0304
-13.6,-0.7291,0.18221,0.18054,0.0293
-13.5,-0.7243,0.18047,0.1788,0.0282
-13.4,-0.7196,0.17873,0.17707,0.0271
-13.3,-0.7149,0.17701,0.17534,0.026
-13.2,-0.7101,0.17529,0.17362,0.025
-13.1,-0.7054,0.17358,0.17191,0.0239
-13,-0.7,0.17222,0.17055,0.0224
-12.9,-0.6952,0.17049,0.16881,0.0214
-12.8,-0.6905,0.16878,0.1671,0.0203
-12.7,-0.6858,0.16706,0.16539,0.0193
-12.6,-0.681,0.16536,0.16368,0.0182
-12.5,-0.6762,0.16365,0.16198,0.0172
-12.4,-0.6714,0.16196,0.16029,0.0162
-12.3,-0.6666,0.16027,0.1586,0.0151
-12.2,-0.6618,0.15858,0.15692,0.0141
-12.1,-0.657,0.15692,0.15525,0.0131
-12,-0.6522,0.15525,0.15359,0.0121
-11.9,-0.6475,0.15359,0.15193,0.0111
-11.8,-0.6426,0.15194,0.15028,0.0101
-11.7,-0.6379,0.1503,0.14864,0.0091
-11.6,-0.6331,0.14866,0.147,0.0081
-11.5,-0.6283,0.14702,0.14537,0.0071
-11.4,-0.6234,0.14539,0.14373,0.0061
-11.3,-0.6186,0.14376,0.14211,0.0051
-11.2,-0.6138,0.14212,0.14047,0.0042
-11.1,-0.6089,0.14048,0.13884,0.0032
-11,-0.6041,0.13886,0.13722,0.0022
-10.9,-0.5993,0.1372,0.13556,0.0013
-10.8,-0.5945,0.13555,0.13391,0.0004
-10.7,-0.5897,0.13387,0.13223,-0.0006
-10.6,-0.5849,0.13211,0.13047,-0.0015
-10.5,-0.5799,0.13031,0.12868,-0.0024
-10.4,-0.5744,0.12847,0.12684,-0.0035
-10.3,-0.5686,0.1268,0.12517,-0.0046
-10.1,-0.5567,0.12383,0.12223,-0.0068
-10,-0.5533,0.12226,0.12067,-0.0074
-9.9,-0.5501,0.1207,0.11911,-0.0079
-9.8,-0.5469,0.11921,0.11762,-0.0084
-9.7,-0.5439,0.11777,0.11618,-0.0088
-9.6,-0.5409,0.11643,0.11485,-0.0092
-9.5,-0.5384,0.11517,0.1136,-0.0095
-9.4,-0.5361,0.11401,0.11243,-0.0097
-9.3,-0.5344,0.11293,0.11137,-0.0097
-9.2,-0.5286,0.11146,0.1099,-0.0109
-9.1,-0.5214,0.10989,0.10832,-0.0125
-9,-0.514,0.10833,0.10676,-0.0141
-8.9,-0.5058,0.10672,0.10515,-0.016
-8.8,-0.4979,0.10518,0.1036,-0.0177
-8.7,-0.4899,0.10363,0.10206,-0.0195
-8.6,-0.4818,0.10211,0.10053,-0.0213
-8.5,-0.4742,0.10063,0.09906,-0.0229
-8.4,-0.4663,0.09915,0.09758,-0.0246
-8.3,-0.4576,0.09762,0.09604,-0.0266
-8.2,-0.4492,0.09613,0.09454,-0.0284
-8.1,-0.4405,0.09462,0.09303,-0.0303
-8,-0.4328,0.09321,0.09162,-0.0319
-7.9,-0.4252,0.09182,0.09023,-0.0334
-7.8,-0.4171,0.0904,0.0888,-0.0351
-7.7,-0.4086,0.08895,0.08735,-0.0369
-7.5,-0.3915,0.08621,0.0846,-0.0406
-7.4,-0.3841,0.08485,0.08324,-0.042
-7.3,-0.3757,0.08344,0.08183,-0.0438
-7.2,-0.3662,0.08195,0.08033,-0.0459
-7.1,-0.3561,0.08044,0.07881,-0.0481
-7,-0.3477,0.07907,0.07744,-0.0497
-6.9,-0.3387,0.07766,0.07603,-0.0516
-6.8,-0.329,0.07621,0.07455,-0.0536
-6.7,-0.3189,0.07473,0.07307,-0.0557
-6.6,-0.3084,0.07323,0.07155,-0.0579
-6.5,-0.299,0.07183,0.07014,-0.0597
-6.4,-0.2889,0.07038,0.06869,-0.0618
-6.3,-0.2784,0.0689,0.06719,-0.0639
-6.2,-0.2674,0.06739,0.06567,-0.0661
-6.1,-0.256,0.06584,0.06411,-0.0684
-6,-0.2448,0.06428,0.06254,-0.0707
-5.9,-0.2332,0.06268,0.06092,-0.073
-5.8,-0.2211,0.06099,0.05922,-0.0755
-5.7,-0.2084,0.05923,0.05744,-0.0781
-5.6,-0.195,0.05743,0.05562,-0.0808
-5.5,-0.1809,0.0557,0.05387,-0.0836
-5.4,-0.1659,0.05399,0.05215,-0.0865
-5.3,-0.1528,0.05231,0.05046,-0.0892
-5.2,-0.139,0.05067,0.04879,-0.0921
-5.1,-0.1243,0.0491,0.04719,-0.095
-5,-0.109,0.04759,0.04564,-0.0979
-4.9,-0.0934,0.04613,0.04416,-0.1008
-4.8,-0.0773,0.04469,0.04269,-0.1036
-4.7,-0.061,0.04325,0.04122,-0.1064
-4.6,-0.0441,0.04179,0.03972,-0.1093
-4.5,-0.0271,0.04032,0.0382,-0.1121
-4.4,-0.0097,0.03881,0.03665,-0.1149
-4.3,0.0082,0.03727,0.03507,-0.1178
-4.2,0.0264,0.03569,0.03343,-0.1207
-4.1,0.0452,0.03404,0.03173,-0.1237
-4,0.0646,0.03231,0.02993,-0.1268
-3.9,0.0843,0.03047,0.02802,-0.1299
-3.8,0.1055,0.02825,0.02571,-0.1335
-3.7,0.1279,0.02573,0.02308,-0.1374
-3.6,0.153,0.02221,0.01937,-0.1424
-3.5,0.1878,0.0136,0.01003,-0.1526
-3.4,0.2054,0.01149,0.00754,-0.1545
-3.3,0.2215,0.01038,0.00616,-0.1554
-3.2,0.237,0.00972,0.00531,-0.1559
-3.1,0.2519,0.00926,0.0047,-0.156
-3,0.2667,0.0089,0.00422,-0.1562
-2.9,0.2812,0.00861,0.00382,-0.1562
-2.8,0.2957,0.00836,0.00347,-0.1562
-2.7,0.3101,0.00815,0.00317,-0.1561
-2.6,0.3245,0.00796,0.00291,-0.1561
-2.5,0.3388,0.0078,0.00268,-0.156
-2.4,0.3528,0.00768,0.00247,-0.1559
-2.3,0.3669,0.00755,0.0023,-0.1559
-2.2,0.3809,0.00746,0.00217,-0.1558
-2.1,0.3948,0.00738,0.00206,-0.1557
-2,0.4087,0.00731,0.00196,-0.1557
-1.9,0.4224,0.00725,0.00186,-0.1556
-1.8,0.4361,0.00719,0.00178,-0.1555
-1.7,0.4499,0.00714,0.00172,-0.1555
-1.6,0.4631,0.00711,0.00165,-0.1553
-1.5,0.4764,0.00707,0.00159,-0.1551
-1.4,0.49,0.00704,0.00157,-0.1551
-1.3,0.5031,0.00703,0.0015,-0.1549
-1.2,0.5168,0.00699,0.00145,-0.1548
-1.1,0.5301,0.00697,0.00141,-0.1547
-1,0.5432,0.00698,0.00137,-0.1545
-0.9,0.5567,0.00697,0.00134,-0.1545
-0.8,0.5701,0.00694,0.00132,-0.1544
-0.7,0.5832,0.00695,0.0013,-0.1543
-0.6,0.5964,0.00696,0.00128,-0.1542
-0.5,0.6098,0.00694,0.00126,-0.1541
-0.4,0.6228,0.00696,0.00125,-0.154
-0.3,0.6354,0.00701,0.00124,-0.1537
-0.2,0.6486,0.00701,0.00124,-0.1536
-0.1,0.6618,0.00702,0.00124,-0.1535
0,0.675,0.00704,0.00124,-0.1534
0.1,0.687,0.00713,0.00125,-0.1531
0.2,0.6999,0.00716,0.00126,-0.1529
0.3,0.7127,0.0072,0.00128,-0.1528
0.4,0.725,0.00729,0.0013,-0.1525
0.5,0.7375,0.00736,0.00132,-0.1523
0.6,0.7479,0.00758,0.0014,-0.1517
0.7,0.7603,0.00767,0.00144,-0.1514
0.8,0.7721,0.00781,0.0015,-0.1511
0.9,0.7827,0.00804,0.0016,-0.1506
1,0.7948,0.00816,0.00166,-0.1503
1.1,0.8061,0.00835,0.00175,-0.1499
1.2,0.8179,0.0085,0.00182,-0.1496
1.3,0.8288,0.00873,0.00193,-0.1492
1.4,0.8395,0.00899,0.00205,-0.1487
1.7,0.8694,0.01001,0.00256,-0.147
1.8,0.8815,0.01016,0.00265,-0.1468
1.9,0.8938,0.01027,0.00273,-0.1465
2,0.9056,0.01044,0.00285,-0.1462
2.1,0.9182,0.01053,0.00292,-0.146
2.2,0.9307,0.01063,0.00301,-0.1457
2.3,0.9433,0.01071,0.00308,-0.1455
2.4,0.9555,0.01084,0.00318,-0.1452
2.5,0.9681,0.01093,0.00326,-0.145
2.6,0.9808,0.01101,0.00335,-0.1447
2.7,0.9934,0.0111,0.00343,-0.1444
2.8,1.006,0.01119,0.00353,-0.1442
2.9,1.0183,0.01132,0.00362,-0.1438
3,1.031,0.01139,0.00374,-0.1436
3.1,1.0437,0.01147,0.00383,-0.1433
3.2,1.0563,0.01156,0.00395,-0.143
3.4,1.0761,0.01055,0.00433,-0.1417
3.5,1.0887,0.01067,0.00443,-0.1414
3.6,1.1012,0.0108,0.00454,-0.141
3.7,1.1138,0.01093,0.00466,-0.1406
3.8,1.1258,0.01111,0.0048,-0.1401
3.9,1.1385,0.01123,0.00491,-0.1397
4,1.1509,0.01137,0.00504,-0.1393
4.1,1.1633,0.01152,0.00518,-0.1388
4.2,1.1759,0.01166,0.00531,-0.1383
4.3,1.1878,0.01185,0.00547,-0.1378
4.4,1.2003,0.012,0.00561,-0.1373
4.5,1.2126,0.01217,0.00579,-0.1367
4.6,1.225,0.01233,0.00596,-0.1362
4.7,1.2375,0.01249,0.00612,-0.1356
4.8,1.2497,0.01267,0.00629,-0.135
4.9,1.2619,0.01286,0.00648,-0.1344
5,1.2742,0.01303,0.00666,-0.1338
5.1,1.2864,0.01322,0.00686,-0.1331
5.2,1.2988,0.0134,0.00707,-0.1324
5.3,1.3112,0.01358,0.00727,-0.1318
5.4,1.3236,0.01376,0.00748,-0.131
5.5,1.3358,0.01397,0.00771,-0.1303
5.6,1.3478,0.0142,0.00796,-0.1295
5.7,1.3601,0.01441,0.00821,-0.1287
5.8,1.3723,0.01461,0.00846,-0.1279
5.9,1.3844,0.01484,0.00874,-0.127
6,1.396,0.01512,0.00904,-0.1261
6.1,1.4081,0.01536,0.00933,-0.1251
6.2,1.42,0.01562,0.00965,-0.1241
6.3,1.4317,0.0159,0.00998,-0.1231
6.4,1.443,0.01624,0.01037,-0.1219
6.5,1.4547,0.01653,0.01073,-0.1208
6.6,1.4657,0.0169,0.01118,-0.1196
6.7,1.4763,0.01733,0.0117,-0.1182
6.8,1.4859,0.01786,0.01235,-0.1167
6.9,1.4947,0.01848,0.01311,-0.115
7,1.5023,0.0192,0.01399,-0.1131
7.1,1.5089,0.02002,0.01498,-0.1112
7.2,1.5143,0.02094,0.01608,-0.1091
7.3,1.5185,0.02196,0.0173,-0.1069
7.4,1.5215,0.02307,0.0186,-0.1046
7.5,1.523,0.02426,0.01998,-0.1023
7.6,1.5232,0.0255,0.02141,-0.0999
7.7,1.5214,0.02673,0.02281,-0.0973
7.8,1.5186,0.028,0.02424,-0.0947
7.9,1.5149,0.0293,0.0257,-0.0921
8.1,1.5053,0.03205,0.02876,-0.0872
8.2,1.4995,0.03349,0.03034,-0.085
8.4,1.4868,0.0365,0.0336,-0.081
8.6,1.4726,0.0397,0.03703,-0.0777
8.7,1.465,0.04141,0.03885,-0.0764
9,1.4399,0.04706,0.0448,-0.0741
9.1,1.431,0.04916,0.047,-0.0739
9.2,1.4222,0.05134,0.04927,-0.0741
9.3,1.4136,0.05363,0.05164,-0.0746
9.6,1.389,0.06131,0.05956,-0.0788
9.7,1.3815,0.06422,0.06255,-0.0812
9.8,1.3745,0.06736,0.06577,-0.0841
9.9,1.368,0.0708,0.06927,-0.0876
10,1.3623,0.07456,0.07311,-0.0915
10.1,1.3575,0.07883,0.07745,-0.0958
10.3,1.3503,0.08827,0.08701,-0.1053
10.4,1.3462,0.09216,0.09092,-0.109
10.6,1.3378,0.0995,0.09827,-0.1158
10.7,1.3342,0.10294,0.1017,-0.1189
10.8,1.3304,0.10643,0.10519,-0.122
10.9,1.3271,0.10979,0.10855,-0.125
11,1.3241,0.11311,0.11187,-0.1278
11.1,1.3211,0.11644,0.1152,-0.1307
11.2,1.3187,0.11969,0.11844,-0.1334
11.3,1.3164,0.12292,0.12167,-0.136
11.4,1.3145,0.12614,0.12489,-0.1387
11.5,1.3128,0.1293,0.12804,-0.1412
11.6,1.3115,0.13246,0.1312,-0.1437
11.7,1.3106,0.13555,0.13429,-0.1462
11.8,1.3099,0.13863,0.13737,-0.1486
11.9,1.3095,0.14167,0.14041,-0.1509
12,1.3096,0.14462,0.14336,-0.1531
12.1,1.3098,0.14755,0.14628,-0.1553
12.2,1.3104,0.15039,0.14912,-0.1574
12.3,1.3112,0.15318,0.15191,-0.1595
12.4,1.3123,0.15594,0.15467,-0.1615
12.5,1.3136,0.15863,0.15736,-0.1635
12.6,1.3152,0.16129,0.16001,-0.1654
12.7,1.317,0.16389,0.16261,-0.1673
12.8,1.3191,0.16644,0.16516,-0.1691
12.9,1.3212,0.16896,0.16768,-0.1709
13,1.3236,0.17144,0.17018,-0.1727
13.1,1.3261,0.17387,0.1726,-0.1745
13.2,1.3287,0.17627,0.175,-0.1762
13.3,1.3315,0.17862,0.17735,-0.1779
13.4,1.3343,0.18094,0.17967,-0.1796
13.7,1.3447,0.18701,0.18575,-0.1846
13.8,1.3478,0.1892,0.18793,-0.1863
13.9,1.3507,0.19149,0.19021,-0.188
14,1.3531,0.19455,0.19327,-0.1898
14.1,1.3559,0.19725,0.19597,-0.1915
14.2,1.3588,0.19986,0.19858,-0.1932
14.3,1.3619,0.20245,0.20117,-0.1949
14.4,1.3652,0.20494,0.20366,-0.1965
14.5,1.3686,0.20739,0.20611,-0.1982
14.6,1.3721,0.2098,0.20852,-0.1998
14.7,1.3756,0.21216,0.21088,-0.2014
14.8,1.3793,0.21449,0.21321,-0.203
14.9,1.383,0.21682,0.21554,-0.2046
15,1.3867,0.21912,0.21784,-0.2062
15.1,1.3905,0.22138,0.2201,-0.2078
15.2,1.3944,0.22364,0.22236,-0.2094
15.3,1.3983,0.22586,0.22458,-0.2109
15.4,1.4022,0.22809,0.22681,-0.2125
15.5,1.4062,0.2303,0.22903,-0.2141
15.6,1.4101,0.23249,0.23121,-0.2156
15.7,1.4142,0.23467,0.2334,-0.2172
15.8,1.4182,0.23683,0.23555,-0.2188
15.9,1.4222,0.23898,0.23771,-0.2203
16,1.4263,0.2411,0.23983,-0.2219
16.1,1.4304,0.24325,0.24198,-0.2235
16.2,1.4345,0.24536,0.2441,-0.225
16.3,1.4386,0.24746,0.24619,-0.2266
16.4,1.4427,0.24958,0.24831,-0.2282
16.5,1.4468,0.25165,0.25038,-0.2297
16.6,1.4509,0.2537,0.25244,-0.2313
16.7,1.455,0.2558,0.25454,-0.2329
16.8,1.4591,0.25787,0.25661,-0.2345
16.9,1.4632,0.25992,0.25866,-0.236
17,1.4673,0.26195,0.2607,-0.2376
17.1,1.4714,0.26402,0.26277,-0.2392
17.2,1.4754,0.26607,0.26481,-0.2408
17.3,1.4794,0.26815,0.2669,-0.2423
17.4,1.4834,0.27019,0.26894,-0.2439
17.5,1.4874,0.27229,0.27106,-0.2455
17.6,1.4913,0.27441,0.27318,-0.2471
17.7,1.4951,0.27655,0.27531,-0.2487
17.8,1.4994,0.27885,0.27761,-0.2503
17.9,1.5041,0.28154,0.2803,-0.252
18,1.509,0.2845,0.28326,-0.2537
18.1,1.5135,0.28703,0.28579,-0.2553
18.2,1.5182,0.28983,0.28859,-0.257
18.3,1.5227,0.29244,0.2912,-0.2587
18.4,1.5272,0.295,0.29377,-0.2603
18.5,1.5317,0.2977,0.29646,-0.262
18.6,1.5363,0.30043,0.2992,-0.2637
18.7,1.5407,0.30291,0.30167,-0.2654
18.8,1.5451,0.30535,0.30412,-0.267
18.9,1.5495,0.30782,0.30659,-0.2687
19,1.5539,0.31035,0.30912,-0.2704
19.1,1.5583,0.3128,0.31157,-0.2721
19.2,1.5627,0.31529,0.31406,-0.2738
19.3,1.5671,0.31773,0.31651,-0.2755
19.4,1.5715,0.32015,0.31893,-0.2772
19.5,1.5759,0.32266,0.32144,-0.2789
19.6,1.5802,0.32505,0.32383,-0.2806
19.7,1.5846,0.32751,0.3263,-0.2823
19.8,1.5889,0.32994,0.32873,-0.2841
19.9,1.5933,0.33242,0.3312,-0.2858
20,1.5975,0.33481,0.3336,-0.2875
20.1,1.6019,0.3373,0.33609,-0.2893
20.2,1.6062,0.33972,0.33852,-0.291
20.3,1.6105,0.34219,0.34099,-0.2928
20.4,1.6149,0.34467,0.34347,-0.2945
20.5,1.6192,0.34711,0.34591,-0.2963
20.6,1.6235,0.3496,0.34841,-0.2981
20.7,1.6278,0.35207,0.35088,-0.2999
20.8,1.6321,0.35456,0.35337,-0.3017
20.9,1.6363,0.35703,0.35584,-0.3035
21,1.6406,0.35952,0.35833,-0.3053
21.1,1.6449,0.362,0.36083,-0.3071
21.2,1.6491,0.36451,0.36334,-0.3089
21.3,1.6534,0.36701,0.36585,-0.3107
21.4,1.6576,0.36952,0.36835,-0.3126
21.5,1.662,0.37195,0.37079,-0.3146
21.6,1.6662,0.37445,0.37329,-0.3164
21.7,1.6705,0.37693,0.37578,-0.3183
21.8,1.6746,0.37942,0.37826,-0.3202
21.9,1.6788,0.38194,0.38079,-0.322
22,1.683,0.38442,0.38327,-0.3239
22.1,1.6872,0.38692,0.38578,-0.3258
22.2,1.6914,0.38943,0.38829,-0.3277
22.3,1.6955,0.39195,0.39081,-0.3296
22.4,1.6996,0.39445,0.39331,-0.3315
22.5,1.7037,0.39698,0.39585,-0.3334
22.6,1.7078,0.39949,0.39836,-0.3354
22.7,1.7119,0.40201,0.40088,-0.3373
22.8,1.716,0.40453,0.40341,-0.3392
22.9,1.7201,0.40705,0.40593,-0.3412
23,1.7241,0.40955,0.40843,-0.3431
23.1,1.7282,0.41207,0.41096,-0.3451
23.2,1.7322,0.41461,0.4135,-0.347
23.3,1.7362,0.41716,0.41605,-0.349
23.4,1.7402,0.41969,0.41858,-0.351
23.5,1.7442,0.42223,0.42113,-0.353
23.6,1.7481,0.42478,0.42368,-0.355
23.7,1.752,0.42733,0.42623,-0.3569
23.8,1.7559,0.42985,0.42876,-0.3589
23.9,1.7599,0.43244,0.43135,-0.361
24,1.7638,0.43501,0.43393,-0.363
24.1,1.7676,0.43759,0.43651,-0.365
24.2,1.7715,0.44021,0.43913,-0.367
24.3,1.7753,0.44281,0.44175,-0.369
24.4,1.7792,0.44546,0.44439,-0.3711
24.5,1.783,0.44812,0.44706,-0.3731
24.6,1.7868,0.45082,0.44976,-0.3751
24.7,1.7905,0.45354,0.45248,-0.3772
24.8,1.7943,0.45629,0.45524,-0.3792
24.9,1.7981,0.45908,0.45803,-0.3812
25,1.8018,0.46192,0.46087,-0.3833
25.1,1.8055,0.46481,0.46377,-0.3853
25.2,1.8093,0.46769,0.46665,-0.3874
25.3,1.813,0.47059,0.46955,-0.3894
25.4,1.8167,0.4736,0.47257,-0.3915
25.5,1.8204,0.47662,0.47559,-0.3935
25.6,1.8241,0.47965,0.47862,-0.3956
25.7,1.8278,0.48258,0.48155,-0.3976
26,1.8407,0.49187,0.49084,-0.4047
26.1,1.8449,0.49514,0.49411,-0.407
26.2,1.8495,0.4987,0.49768,-0.4094
26.3,1.853,0.50159,0.50056,-0.4116
26.4,1.8573,0.50511,0.50409,-0.4139
26.5,1.8614,0.50843,0.50741,-0.4161
26.6,1.8653,0.51171,0.51069,-0.4184
26.7,1.8691,0.51481,0.51379,-0.4206
26.8,1.8729,0.51803,0.51702,-0.4229
26.9,1.8768,0.52123,0.52022,-0.4252
27,1.8803,0.52421,0.52321,-0.4274
27.1,1.8841,0.52735,0.52635,-0.4297
27.2,1.8877,0.53042,0.52943,-0.432
27.3,1.8913,0.53351,0.53251,-0.4343
27.4,1.895,0.53658,0.53559,-0.4366
27.5,1.8986,0.53964,0.53865,-0.4389
27.6,1.9021,0.5427,0.54172,-0.4412
27.7,1.9057,0.54577,0.54479,-0.4436
27.8,1.9091,0.54881,0.54784,-0.4458
27.9,1.9127,0.55188,0.55092,-0.4482
28,1.9161,0.55495,0.55399,-0.4505
28.1,1.9196,0.55798,0.55703,-0.4529
28.2,1.923,0.56103,0.56008,-0.4552
28.3,1.9265,0.56411,0.56316,-0.4576
28.4,1.9299,0.56719,0.56624,-0.4599
28.5,1.9335,0.56972,0.56878,-0.4626
28.6,1.9369,0.57278,0.57183,-0.465
28.7,1.9402,0.5758,0.57486,-0.4673
28.8,1.9434,0.57883,0.5779,-0.4697
28.9,1.9468,0.58187,0.58094,-0.4721
29,1.95,0.58492,0.58399,-0.4745
29.1,1.9532,0.58796,0.58704,-0.4769
29.2,1.9565,0.59104,0.59011,-0.4794
29.3,1.9596,0.59411,0.59319,-0.4818
29.4,1.9628,0.59718,0.59627,-0.4842
29.5,1.9659,0.60027,0.59936,-0.4866
29.6,1.969,0.60334,0.60243,-0.489
29.7,1.9722,0.60644,0.60554,-0.4915
29.8,1.9753,0.60956,0.60866,-0.4939
29.9,1.9783,0.61267,0.61178,-0.4964
30,1.9814,0.61583,0.61494,-0.4988

