airfoilName st21.dat
Re 	1.100000e+05
M 	5.000000e-01
N 	4.500000e+00
VACC 	0 VACCflag 1
XTR 	1.00 	1.00 XTRflag 0
alpha,cl,cd,cdp,cm
-27.8,-1.3546,0.54961,0.54469,0.2521
-27.7,-1.3507,0.54617,0.54124,0.25
-27.6,-1.3468,0.54275,0.53782,0.2479
-27.5,-1.3429,0.53932,0.53438,0.2458
-27.4,-1.339,0.53594,0.53099,0.2437
-27.3,-1.3351,0.53255,0.5276,0.2416
-27.2,-1.3312,0.52919,0.52423,0.2395
-27.1,-1.3272,0.52585,0.52088,0.2374
-27,-1.3233,0.5225,0.51752,0.2354
-26.9,-1.3193,0.51922,0.51424,0.2333
-26.8,-1.3153,0.51591,0.51092,0.2313
-26.7,-1.3113,0.51265,0.50765,0.2292
-26.6,-1.3072,0.50938,0.50438,0.2272
-26.5,-1.3032,0.50613,0.50112,0.2251
-26.4,-1.2991,0.50289,0.49788,0.2231
-26.3,-1.295,0.49967,0.49465,0.2211
-26.2,-1.291,0.49649,0.49146,0.2191
-26.1,-1.2869,0.4933,0.48826,0.217
-26,-1.2827,0.49013,0.48509,0.215
-25.9,-1.2786,0.48697,0.48192,0.213
-25.8,-1.2745,0.48384,0.47878,0.211
-25.7,-1.2703,0.48075,0.47569,0.2091
-25.6,-1.2661,0.47763,0.47257,0.2071
-25.5,-1.2619,0.47455,0.46947,0.2051
-25.4,-1.2577,0.4715,0.46642,0.2031
-25.3,-1.2535,0.46843,0.46332,0.2012
-25.2,-1.2492,0.46538,0.46027,0.1992
-25.1,-1.245,0.46236,0.45724,0.1973
-25,-1.2407,0.45938,0.45426,0.1953
-24.9,-1.2365,0.45637,0.45124,0.1934
-24.8,-1.2322,0.4534,0.44827,0.1914
-24.7,-1.2279,0.45046,0.44532,0.1895
-24.6,-1.2235,0.44751,0.44237,0.1876
-24.5,-1.2192,0.44459,0.43944,0.1857
-24.4,-1.2149,0.44168,0.43653,0.1838
-24.3,-1.2105,0.43878,0.43362,0.1819
-24.2,-1.2061,0.43591,0.43075,0.18
-24.1,-1.2018,0.43304,0.42787,0.1781
-24,-1.1974,0.43019,0.42502,0.1762
-23.9,-1.193,0.42737,0.42219,0.1743
-23.8,-1.1886,0.42455,0.41937,0.1724
-23.7,-1.1841,0.42175,0.41657,0.1706
-23.6,-1.1797,0.41898,0.41378,0.1687
-23.5,-1.1752,0.41621,0.41101,0.1669
-23.4,-1.1707,0.41347,0.40826,0.165
-23.3,-1.1662,0.41072,0.40552,0.1632
-23.2,-1.1617,0.408,0.40279,0.1613
-23.1,-1.1572,0.40529,0.40007,0.1595
-22.9,-1.1482,0.39993,0.3947,0.1558
-22.8,-1.1436,0.39728,0.39206,0.154
-22.7,-1.1391,0.39465,0.38942,0.1522
-22.6,-1.1345,0.39203,0.38679,0.1504
-22.5,-1.1299,0.38941,0.38418,0.1486
-22.4,-1.1253,0.38683,0.38156,0.1467
-22.3,-1.1206,0.38426,0.37899,0.1449
-22.2,-1.116,0.3817,0.37642,0.1431
-22.1,-1.1113,0.37916,0.37388,0.1413
-22,-1.1066,0.37664,0.37136,0.1395
-21.9,-1.1019,0.37413,0.36885,0.1378
-21.8,-1.0972,0.37165,0.36636,0.1359
-21.7,-1.0924,0.36917,0.36388,0.1341
-21.6,-1.0877,0.36672,0.36143,0.1323
-21.5,-1.0829,0.36428,0.35898,0.1306
-21.4,-1.0781,0.36186,0.35657,0.1287
-21.3,-1.0732,0.35944,0.35415,0.1269
-21.2,-1.0683,0.35706,0.35176,0.1251
-21.1,-1.0634,0.35465,0.34935,0.1233
-21,-1.0585,0.35226,0.34696,0.1215
-20.9,-1.0535,0.34988,0.34457,0.1197
-20.8,-1.0484,0.34749,0.34219,0.1178
-20.7,-1.0433,0.34507,0.33976,0.116
-20.6,-1.0381,0.34264,0.33733,0.1142
-20.5,-1.033,0.34015,0.33484,0.1124
-19,-0.9602,0.30255,0.29722,0.0886
-18.9,-0.9557,0.30019,0.29487,0.0872
-18.8,-0.9512,0.29785,0.29252,0.0858
-18.7,-0.9467,0.29553,0.2902,0.0844
-18.6,-0.9422,0.29321,0.28787,0.083
-18.5,-0.9376,0.29091,0.28557,0.0817
-18.4,-0.9331,0.28862,0.28328,0.0803
-18.3,-0.9286,0.28633,0.28099,0.079
-18.2,-0.924,0.28406,0.27872,0.0776
-18.1,-0.9195,0.2818,0.27645,0.0763
-18,-0.915,0.27955,0.2742,0.0749
-17.9,-0.9104,0.27731,0.27196,0.0736
-17.8,-0.9059,0.27508,0.26973,0.0723
-17.7,-0.9014,0.27286,0.2675,0.071
-17.6,-0.8968,0.27065,0.26529,0.0697
-17.5,-0.8923,0.26845,0.26309,0.0684
-17.4,-0.8877,0.26626,0.2609,0.0671
-17.3,-0.8832,0.26408,0.25872,0.0659
-17.2,-0.8787,0.26191,0.25655,0.0646
-17.1,-0.8741,0.25975,0.25438,0.0634
-17,-0.8696,0.2576,0.25223,0.0621
-16.9,-0.865,0.25546,0.25009,0.0609
-16.8,-0.8605,0.25332,0.24796,0.0596
-16.7,-0.8559,0.2512,0.24583,0.0584
-16.6,-0.8514,0.24909,0.24372,0.0572
-16.5,-0.8468,0.24699,0.24162,0.056
-16.4,-0.8422,0.24489,0.23952,0.0548
-16.3,-0.8377,0.24281,0.23744,0.0536
-16.2,-0.8331,0.24073,0.23537,0.0524
-16.1,-0.8285,0.23867,0.23327,0.0512
-16,-0.824,0.23661,0.23122,0.05
-15.9,-0.8194,0.23458,0.22918,0.0489
-15.8,-0.8148,0.23254,0.22714,0.0477
-15.7,-0.8102,0.23051,0.22512,0.0465
-15.6,-0.8057,0.22849,0.2231,0.0454
-15.5,-0.8011,0.22649,0.22109,0.0442
-15.4,-0.7965,0.22448,0.21909,0.0431
-15.3,-0.7919,0.2225,0.21711,0.042
-15.2,-0.7873,0.22053,0.21513,0.0408
-15.1,-0.7827,0.21855,0.21316,0.0397
-15,-0.7782,0.2166,0.21121,0.0386
-14.9,-0.7736,0.21465,0.20926,0.0375
-14.8,-0.769,0.21271,0.20732,0.0364
-14.7,-0.7644,0.21079,0.2054,0.0353
-14.6,-0.7598,0.20887,0.20348,0.0342
-14.5,-0.7552,0.20695,0.20157,0.0331
-14.4,-0.7505,0.20505,0.19967,0.032
-14.3,-0.7459,0.20315,0.19777,0.0309
-14.2,-0.7413,0.20126,0.19588,0.0298
-14.1,-0.7366,0.19938,0.194,0.0287
-14,-0.7319,0.1975,0.19212,0.0276
-13.9,-0.7272,0.19562,0.19025,0.0265
-13.8,-0.7225,0.19375,0.18838,0.0254
-13.7,-0.7178,0.19188,0.18651,0.0244
-13.6,-0.7131,0.19001,0.18465,0.0233
-13.5,-0.7084,0.18815,0.18279,0.0222
-13.4,-0.7036,0.18629,0.18093,0.0211
-13.3,-0.6988,0.18443,0.17907,0.0201
-13.2,-0.694,0.18255,0.1772,0.019
-13.1,-0.6891,0.18068,0.17533,0.0179
-13,-0.6842,0.17879,0.17345,0.0168
-12.9,-0.6791,0.1769,0.17155,0.0157
-12.8,-0.6737,0.17499,0.16963,0.0145
-12.7,-0.6677,0.17306,0.16769,0.0131
-12.6,-0.6605,0.17124,0.16593,0.0112
-12.5,-0.6565,0.16946,0.16415,0.0104
-12.4,-0.6525,0.1677,0.1624,0.0096
-12.3,-0.6485,0.16596,0.16066,0.0089
-12.2,-0.6453,0.16443,0.15914,0.0082
-12.1,-0.6411,0.16275,0.15747,0.0074
-12,-0.637,0.16109,0.15581,0.0066
-11.9,-0.6328,0.15944,0.15416,0.0058
-11.8,-0.6286,0.15781,0.15253,0.005
-11.7,-0.6244,0.15619,0.15092,0.0042
-11.6,-0.6201,0.15458,0.14932,0.0034
-11.5,-0.6159,0.15299,0.14773,0.0026
-11.4,-0.6117,0.15141,0.14616,0.0018
-11.3,-0.6075,0.14984,0.1446,0.001
-11.2,-0.6033,0.14829,0.14304,0.0003
-11.1,-0.599,0.14674,0.14151,-0.0005
-11,-0.5948,0.14521,0.13998,-0.0012
-10.9,-0.5906,0.14369,0.13847,-0.002
-10.8,-0.5864,0.14219,0.13697,-0.0027
-10.7,-0.5822,0.14069,0.13548,-0.0034
-10.6,-0.578,0.13921,0.13401,-0.0042
-10.5,-0.5739,0.13774,0.13255,-0.0049
-10.4,-0.5698,0.13629,0.1311,-0.0055
-10.3,-0.5657,0.13485,0.12967,-0.0062
-10.2,-0.5616,0.13342,0.12826,-0.0069
-10.1,-0.5576,0.13201,0.12685,-0.0075
-10,-0.5536,0.13061,0.12546,-0.0082
-9.9,-0.5496,0.12923,0.12409,-0.0088
-9.8,-0.5457,0.12787,0.12274,-0.0094
-9.5,-0.5345,0.12386,0.11874,-0.011
-9.4,-0.5309,0.12256,0.11745,-0.0115
-9.3,-0.5274,0.12128,0.11618,-0.0119
-9.2,-0.524,0.12002,0.11494,-0.0124
-9.1,-0.5208,0.11878,0.11372,-0.0127
-9,-0.5178,0.11757,0.11252,-0.0131
-8.9,-0.5149,0.11638,0.11135,-0.0134
-8.8,-0.5123,0.11522,0.11021,-0.0136
-8.7,-0.5098,0.11409,0.1091,-0.0138
-8.6,-0.5075,0.11298,0.10801,-0.0139
-8.5,-0.5055,0.1119,0.10695,-0.014
-8.4,-0.5036,0.11085,0.10592,-0.014
-8.3,-0.5021,0.10982,0.10492,-0.0139
-8.2,-0.5008,0.10883,0.10396,-0.0138
-8.1,-0.4999,0.10787,0.10302,-0.0136
-8,-0.4993,0.10695,0.10213,-0.0134
-7.9,-0.4991,0.10607,0.10127,-0.013
-7.8,-0.4993,0.10522,0.10046,-0.0125
-7.7,-0.4999,0.10442,0.09969,-0.012
-7.6,-0.501,0.10366,0.09896,-0.0113
-7.5,-0.5025,0.10295,0.09828,-0.0106
-7.4,-0.5044,0.10225,0.09762,-0.0098
-7.3,-0.5063,0.10157,0.09698,-0.009
-7.2,-0.5081,0.10085,0.09629,-0.0083
-7.1,-0.509,0.10006,0.09553,-0.0078
-7,-0.5095,0.09923,0.09473,-0.0075
-6.9,-0.4983,0.09735,0.09285,-0.0103
-6.8,-0.4842,0.0953,0.09078,-0.0142
-6.7,-0.4717,0.09339,0.0889,-0.0173
-6.6,-0.4625,0.09175,0.08726,-0.0192
-6.5,-0.4533,0.09016,0.08567,-0.0212
-6.4,-0.4435,0.08858,0.08408,-0.0232
-6.3,-0.4332,0.08698,0.08247,-0.0254
-6.2,-0.4221,0.08538,0.08085,-0.0277
-6.1,-0.4117,0.08383,0.0793,-0.0299
-5.9,-0.3899,0.08075,0.07617,-0.0343
-5.8,-0.3773,0.0794,0.07481,-0.037
-5.7,-0.3646,0.07779,0.07318,-0.0397
-5.6,-0.3511,0.07614,0.07152,-0.0425
-5.5,-0.3403,0.07468,0.07004,-0.0446
-5.4,-0.3291,0.07321,0.06856,-0.0467
-5.3,-0.3164,0.07165,0.06699,-0.0492
-5,-0.2707,0.0666,0.06187,-0.0584
-4.9,-0.2538,0.06483,0.06007,-0.0618
-4.8,-0.2434,0.06344,0.05866,-0.0636
-4.6,-0.2097,0.05981,0.05495,-0.0703
-4.4,-0.1668,0.0554,0.05047,-0.0797
-4.3,-0.151,0.05394,0.04898,-0.0822
-4.2,-0.1341,0.0525,0.0475,-0.0849
-4.1,-0.121,0.05125,0.04622,-0.0867
-4,-0.1074,0.05001,0.04495,-0.0885
-3.7,-0.0534,0.04573,0.04049,-0.0968
-3.6,-0.0333,0.0442,0.0389,-0.0999
-3.5,-0.0108,0.04252,0.03714,-0.1036
-3.4,0.0117,0.04078,0.03532,-0.1072
-3.1,0.0817,0.03411,0.02825,-0.119
-2.9,0.1136,0.03285,0.02689,-0.1216
-2.8,0.135,0.03143,0.02534,-0.1242
-2.6,0.1855,0.02682,0.02016,-0.1317
-2.5,0.2079,0.02507,0.01814,-0.1345
-2.4,0.2253,0.02452,0.01753,-0.1356
-2.3,0.2447,0.02377,0.01663,-0.1371
-2.2,0.2644,0.0228,0.01542,-0.1388
-2.1,0.2864,0.02129,0.01341,-0.141
-2,0.2965,0.02103,0.01314,-0.1404
-1.9,0.3111,0.02067,0.01269,-0.1408
-1.8,0.3277,0.02012,0.01198,-0.1415
-1.7,0.3462,0.01934,0.01087,-0.1425
-1.5,0.3786,0.01893,0.01038,-0.1436
-1.4,0.3961,0.01843,0.00961,-0.1444
-1.3,0.4135,0.01818,0.00941,-0.1451
-1.2,0.4237,0.01807,0.00928,-0.1445
-1.1,0.4369,0.01798,0.00906,-0.1444
-1,0.452,0.0178,0.00891,-0.1447
-0.9,0.4676,0.01762,0.00866,-0.1451
-0.8,0.4837,0.01741,0.00834,-0.1455
-0.6,0.5124,0.01727,0.00814,-0.1458
-0.5,0.5239,0.01721,0.00814,-0.1454
-0.4,0.5384,0.0171,0.00802,-0.1456
-0.3,0.5538,0.01699,0.00784,-0.1459
-0.2,0.5693,0.01696,0.00787,-0.1463
-0.1,0.5863,0.01681,0.00769,-0.1469
0,0.5952,0.01683,0.00775,-0.1461
0.1,0.6086,0.01676,0.00767,-0.146
0.2,0.6236,0.01669,0.0076,-0.1463
0.3,0.6391,0.01666,0.00757,-0.1467
0.4,0.6559,0.01651,0.00748,-0.1472
0.5,0.6645,0.01656,0.00755,-0.1463
0.6,0.6779,0.01653,0.00754,-0.1463
0.7,0.6961,0.01624,0.00727,-0.1468
0.8,0.7048,0.01625,0.00733,-0.1457
0.9,0.7205,0.01611,0.0072,-0.1459
1,0.7368,0.01598,0.00714,-0.1464
1.1,0.746,0.01592,0.0071,-0.1453
1.2,0.7621,0.0158,0.00704,-0.1457
1.3,0.7722,0.01578,0.00712,-0.145
1.4,0.7876,0.0156,0.00702,-0.1451
1.6,0.8135,0.01543,0.00704,-0.1446
1.8,0.831,0.01423,0.00686,-0.1417
1.9,0.8426,0.01426,0.00687,-0.1411
2,0.856,0.0142,0.00678,-0.1405
2.1,0.8697,0.01415,0.0067,-0.1401
2.2,0.8849,0.01411,0.00664,-0.1401
2.3,0.8975,0.01415,0.00669,-0.1396
2.4,0.9126,0.01406,0.00657,-0.1393
2.5,0.9267,0.01406,0.00656,-0.139
2.6,0.9414,0.01403,0.00653,-0.1388
2.7,0.9579,0.01391,0.00636,-0.1386
2.8,0.9738,0.01386,0.00626,-0.1384
2.9,0.9897,0.01383,0.00613,-0.1381
3,1.0041,0.01387,0.00604,-0.1375
3.1,1.0149,0.01408,0.00599,-0.1362
3.2,1.024,0.01439,0.00608,-0.1349
3.3,1.0315,0.01479,0.00627,-0.1334
3.4,1.0379,0.01525,0.0065,-0.1319
3.5,1.0407,0.01595,0.00683,-0.1299
3.6,1.0479,0.01642,0.00714,-0.1287
3.7,1.0558,0.01687,0.00748,-0.1277
3.8,1.0644,0.01729,0.0078,-0.1268
3.9,1.0735,0.01769,0.00813,-0.1259
4,1.0815,0.01818,0.00849,-0.1249
4.1,1.0911,0.01855,0.00884,-0.1241
4.2,1.1013,0.01889,0.00916,-0.1233
4.3,1.1114,0.01924,0.00951,-0.1226
4.4,1.1205,0.01965,0.00987,-0.1217
4.5,1.1304,0.02001,0.01022,-0.1209
4.6,1.1411,0.02033,0.01057,-0.1201
4.7,1.1509,0.02071,0.01095,-0.1193
4.8,1.1616,0.02104,0.01132,-0.1185
4.9,1.171,0.02141,0.01173,-0.1176
5,1.1806,0.02179,0.01212,-0.1167
5.1,1.1913,0.02214,0.01254,-0.1159
5.2,1.201,0.02255,0.01296,-0.115
5.3,1.2106,0.0229,0.01332,-0.1141
5.4,1.2205,0.02332,0.01378,-0.1132
5.5,1.2306,0.02374,0.01427,-0.1122
5.6,1.2397,0.0242,0.01475,-0.1112
5.7,1.25,0.02467,0.01531,-0.1102
5.9,1.2687,0.02559,0.01632,-0.1082
6,1.2781,0.02613,0.01695,-0.1071
6.1,1.2867,0.02669,0.01756,-0.106
6.2,1.2962,0.02733,0.01829,-0.1049
6.3,1.3059,0.02802,0.01912,-0.1038
6.5,1.3226,0.02924,0.02049,-0.1015
6.6,1.3316,0.03007,0.02153,-0.1003
6.7,1.3397,0.03091,0.02251,-0.0991
6.8,1.3468,0.03175,0.02346,-0.0978
6.9,1.3524,0.03261,0.0244,-0.0963
7,1.3597,0.03375,0.02571,-0.0951
7.1,1.3663,0.03469,0.0269,-0.0938
7.2,1.3707,0.03574,0.02811,-0.0923
7.3,1.3734,0.03675,0.02925,-0.0906
7.4,1.3748,0.03775,0.03036,-0.0889
7.5,1.3758,0.03894,0.03165,-0.0872
7.6,1.3765,0.04049,0.03345,-0.0856
7.7,1.3756,0.04201,0.0352,-0.084
7.9,1.3706,0.04503,0.0386,-0.081
8,1.367,0.04657,0.0403,-0.0796
8.1,1.3627,0.04813,0.04202,-0.0783
8.2,1.3579,0.04971,0.04375,-0.0771
8.4,1.347,0.05301,0.04732,-0.0754
8.5,1.3411,0.05475,0.04918,-0.0748
8.6,1.3349,0.05654,0.05109,-0.0744
8.7,1.3335,0.05724,0.05181,-0.074
8.8,1.3276,0.05905,0.05371,-0.074
9.1,1.3084,0.0652,0.06009,-0.0758
9.2,1.3009,0.06769,0.06269,-0.0773
9.3,1.2936,0.07029,0.06539,-0.0791
9.5,1.28,0.07592,0.07119,-0.084
9.6,1.2739,0.07899,0.07433,-0.087
9.8,1.2634,0.08566,0.08113,-0.0941
9.9,1.259,0.08927,0.0848,-0.098
10.1,1.2524,0.0968,0.09241,-0.1059
10.2,1.2497,0.10054,0.09618,-0.1094
10.3,1.2472,0.10417,0.09983,-0.1127
10.4,1.2451,0.10765,0.10332,-0.1158
10.5,1.2434,0.11105,0.10672,-0.1187
10.6,1.2422,0.11427,0.10994,-0.1214
10.7,1.2414,0.11736,0.11303,-0.1239
10.9,1.2411,0.12319,0.11886,-0.1286
11,1.2416,0.12592,0.12158,-0.1308
11.1,1.2422,0.12854,0.12419,-0.1328
11.2,1.2434,0.13107,0.12673,-0.1348
11.3,1.2447,0.13349,0.12915,-0.1366
11.4,1.2463,0.13581,0.13147,-0.1383
11.5,1.2481,0.13804,0.1337,-0.14
11.6,1.25,0.14018,0.13584,-0.1415
11.7,1.2521,0.14223,0.1379,-0.1429
11.8,1.2544,0.14419,0.13986,-0.1443
11.9,1.2567,0.14606,0.14173,-0.1456
12,1.2592,0.14784,0.14352,-0.1467
12.1,1.2616,0.14952,0.1452,-0.1478
12.3,1.2646,0.15736,0.15298,-0.1549
12.4,1.2672,0.15984,0.15545,-0.1567
12.5,1.2699,0.16222,0.15783,-0.1584
12.7,1.2758,0.16672,0.16234,-0.1616
12.8,1.2788,0.16888,0.1645,-0.1632
12.9,1.282,0.17098,0.1666,-0.1646
13,1.2851,0.17301,0.16863,-0.1661
13.1,1.2884,0.17499,0.17061,-0.1674
13.2,1.2916,0.17692,0.17255,-0.1688
13.3,1.2949,0.17879,0.17442,-0.1701
13.4,1.2982,0.1806,0.17624,-0.1713
13.5,1.3015,0.18237,0.17801,-0.1725
13.6,1.3048,0.18409,0.17973,-0.1736
13.8,1.3112,0.18774,0.18338,-0.1761
14,1.319,0.19393,0.18957,-0.1808
14.1,1.3229,0.19652,0.19215,-0.1827
14.2,1.3269,0.19896,0.1946,-0.1845
14.3,1.3308,0.20132,0.19696,-0.1862
14.4,1.3347,0.20361,0.19925,-0.1878
14.5,1.3387,0.20583,0.20147,-0.1894
14.6,1.3427,0.20801,0.20366,-0.1909
14.7,1.3467,0.21014,0.20579,-0.1924
14.8,1.3507,0.21224,0.20789,-0.1939
14.9,1.3547,0.21431,0.20997,-0.1954
15.1,1.3627,0.21773,0.2134,-0.1984
15.2,1.3666,0.21961,0.21528,-0.1997
15.3,1.3705,0.22144,0.21711,-0.201
15.4,1.3744,0.22324,0.21892,-0.2023
15.5,1.3782,0.22503,0.22071,-0.2036
15.6,1.382,0.22681,0.22249,-0.2049
15.7,1.3866,0.22954,0.22519,-0.2069
15.8,1.3915,0.23249,0.22813,-0.209
15.9,1.3962,0.23518,0.23082,-0.2109
16,1.4008,0.23773,0.23338,-0.2127
16.1,1.4053,0.24015,0.23579,-0.2144
16.2,1.4098,0.24251,0.23816,-0.2161
16.3,1.4143,0.24483,0.24049,-0.2177
16.4,1.4187,0.2471,0.24275,-0.2193
16.5,1.4232,0.24935,0.24501,-0.2209
16.6,1.4276,0.25158,0.24725,-0.2225
16.7,1.432,0.25379,0.24946,-0.2241
16.8,1.4364,0.25597,0.25165,-0.2256
16.9,1.4408,0.25815,0.25383,-0.2272
17,1.4452,0.26033,0.25601,-0.2287
17.1,1.4495,0.26248,0.25816,-0.2303
17.2,1.4539,0.26463,0.26032,-0.2318
17.3,1.4583,0.26676,0.26246,-0.2333
17.4,1.4626,0.26889,0.26459,-0.2349
17.5,1.467,0.27102,0.26672,-0.2364
17.6,1.4713,0.27314,0.26885,-0.2379
17.7,1.4756,0.27525,0.27096,-0.2395
17.8,1.4799,0.27734,0.2731,-0.241
17.9,1.4842,0.27944,0.2752,-0.2425
18,1.4885,0.28152,0.27728,-0.244
18.1,1.4927,0.2836,0.27937,-0.2456
18.2,1.4969,0.28568,0.28145,-0.2471
18.3,1.5011,0.28775,0.28353,-0.2486
18.4,1.5053,0.28982,0.28561,-0.2501
18.5,1.5094,0.29188,0.28767,-0.2516
18.6,1.5135,0.29394,0.28974,-0.2531
18.7,1.5186,0.29688,0.29264,-0.2552
18.8,1.524,0.30001,0.29577,-0.2573
18.9,1.5291,0.30288,0.29864,-0.2593
19,1.534,0.30562,0.30139,-0.2612
19.1,1.5387,0.30825,0.30403,-0.263
19.2,1.5435,0.31085,0.30663,-0.2648
19.3,1.5481,0.3134,0.30918,-0.2666
19.4,1.5527,0.31593,0.31172,-0.2684
19.5,1.5573,0.31844,0.31423,-0.2701
19.6,1.5619,0.32093,0.31673,-0.2719
19.7,1.5664,0.32342,0.31922,-0.2736
19.8,1.5709,0.32589,0.3217,-0.2754
19.9,1.5754,0.32837,0.32418,-0.2771
20,1.5799,0.33082,0.32665,-0.2789
20.1,1.5846,0.33302,0.32885,-0.2809
20.2,1.589,0.33542,0.33126,-0.2827
20.3,1.5934,0.33785,0.33369,-0.2844
20.4,1.5978,0.34027,0.33612,-0.2862
20.5,1.6021,0.34269,0.33855,-0.2879
20.6,1.6065,0.34511,0.34098,-0.2897
20.7,1.6108,0.34755,0.34342,-0.2914
20.8,1.6152,0.34998,0.34586,-0.2932
20.9,1.6195,0.35243,0.34831,-0.295
21,1.6238,0.35488,0.35077,-0.2967
21.1,1.6281,0.35733,0.35322,-0.2985
21.2,1.6324,0.35979,0.35572,-0.3003
21.3,1.6367,0.36225,0.35819,-0.3021
21.4,1.641,0.3647,0.36065,-0.3039
21.5,1.6452,0.36718,0.36313,-0.3057
21.6,1.6495,0.36967,0.36563,-0.3075
21.7,1.6537,0.37216,0.36814,-0.3093
21.8,1.6579,0.37464,0.37063,-0.3111
21.9,1.6621,0.37715,0.37314,-0.3129
22,1.6663,0.37965,0.37565,-0.3148
22.1,1.6704,0.38216,0.37817,-0.3166
22.2,1.6746,0.38469,0.3807,-0.3184
22.3,1.6787,0.38722,0.38324,-0.3203
22.4,1.6828,0.38974,0.38577,-0.3221
22.5,1.6869,0.39231,0.38835,-0.3239
22.6,1.691,0.39486,0.3909,-0.3258
22.7,1.695,0.39744,0.3935,-0.3276
22.8,1.699,0.40003,0.39609,-0.3295
22.9,1.7038,0.40318,0.39921,-0.3317
23,1.709,0.40672,0.40275,-0.334
23.1,1.7138,0.40996,0.406,-0.3362
23.2,1.7183,0.41304,0.40908,-0.3383
23.3,1.7228,0.41607,0.41211,-0.3404
23.4,1.7272,0.41901,0.41506,-0.3425
23.5,1.7316,0.42198,0.41804,-0.3445
23.6,1.7359,0.4249,0.42096,-0.3466
23.7,1.7402,0.42781,0.42389,-0.3486
23.8,1.7444,0.43072,0.4268,-0.3507
23.9,1.7487,0.43363,0.42972,-0.3528
24,1.7529,0.43653,0.43262,-0.3548
24.1,1.757,0.4394,0.43551,-0.3569
24.2,1.7612,0.44229,0.43841,-0.3589
24.3,1.7653,0.44519,0.44131,-0.361
24.4,1.7694,0.44808,0.44421,-0.3631
24.5,1.7735,0.45098,0.44715,-0.3651
24.6,1.7776,0.45388,0.45005,-0.3672
24.7,1.7816,0.45676,0.45294,-0.3693
24.8,1.7856,0.45967,0.45586,-0.3714
24.9,1.7896,0.46259,0.45879,-0.3735
25,1.7936,0.46552,0.46173,-0.3756
25.1,1.7976,0.46847,0.46468,-0.3777
25.2,1.8015,0.47139,0.46762,-0.3798
25.3,1.8054,0.47433,0.47057,-0.3819
25.4,1.8094,0.47731,0.47356,-0.384
25.5,1.8133,0.48028,0.47653,-0.3861
25.6,1.8172,0.48327,0.47953,-0.3883
25.7,1.821,0.48624,0.4825,-0.3904
25.8,1.8248,0.48925,0.48553,-0.3925
25.9,1.8286,0.49226,0.48854,-0.3946
26,1.8325,0.49528,0.49157,-0.3968
26.1,1.8362,0.49831,0.49462,-0.3989
26.2,1.84,0.50137,0.49769,-0.4011
26.3,1.8438,0.50441,0.50074,-0.4033
26.4,1.8475,0.50749,0.50382,-0.4054
26.5,1.8512,0.51057,0.50691,-0.4076
26.6,1.855,0.51368,0.51004,-0.4098
26.7,1.8586,0.51677,0.51313,-0.412
26.8,1.8623,0.51988,0.51625,-0.4142
26.9,1.866,0.52304,0.51942,-0.4164
27,1.8696,0.52616,0.52255,-0.4186
27.1,1.8732,0.52932,0.52573,-0.4208
27.2,1.8768,0.53247,0.52888,-0.423
27.3,1.8804,0.53566,0.53208,-0.4252
27.4,1.8839,0.53885,0.53528,-0.4274
27.7,1.8943,0.54756,0.54405,-0.4343
27.8,1.8977,0.55077,0.54727,-0.4365
27.9,1.9012,0.55401,0.55052,-0.4388
28,1.9047,0.55727,0.5538,-0.4411
28.1,1.9081,0.56052,0.55705,-0.4433
28.2,1.9115,0.56379,0.56033,-0.4456
28.3,1.9149,0.56708,0.56363,-0.4479
28.4,1.9183,0.57039,0.56695,-0.4502
28.5,1.9216,0.57372,0.57029,-0.4525
28.6,1.9249,0.57704,0.57362,-0.4548
28.7,1.9282,0.58038,0.57697,-0.4571
28.8,1.9315,0.58373,0.58034,-0.4594
28.9,1.9348,0.58716,0.58377,-0.4617
29,1.9381,0.59056,0.58718,-0.4641
29.1,1.9413,0.59396,0.5906,-0.4664
29.2,1.9446,0.59741,0.59406,-0.4687
29.3,1.9477,0.60084,0.5975,-0.4711
29.4,1.9509,0.60431,0.60098,-0.4734
29.5,1.9541,0.6078,0.60448,-0.4758
29.6,1.9572,0.61133,0.60802,-0.4781
30,1.9722,0.62643,0.62311,-0.4889

