airfoilName st21.dat
Re 	4.900000e+05
M 	5.000000e-01
N 	4.500000e+00
VACC 	0 VACCflag 1
XTR 	1.00 	1.00 XTRflag 0
alpha,cl,cd,cdp,cm
-6.5,-0.3062,0.07245,0.07019,-0.0585
-6.4,-0.2974,0.07102,0.06876,-0.0602
-6.3,-0.2881,0.06958,0.06731,-0.0621
-6.2,-0.2774,0.06808,0.06581,-0.0643
-6.1,-0.2655,0.06655,0.06426,-0.0668
-6,-0.2532,0.06504,0.06274,-0.0694
-5.9,-0.2401,0.06354,0.06122,-0.0721
-5.8,-0.2293,0.06223,0.0599,-0.0742
-5.7,-0.2179,0.0609,0.05856,-0.0763
-5.6,-0.2052,0.05952,0.05717,-0.0787
-5.5,-0.1917,0.05811,0.05574,-0.0813
-5.4,-0.1775,0.05667,0.05429,-0.084
-5.3,-0.1626,0.05522,0.05281,-0.0868
-5.2,-0.1491,0.05384,0.05141,-0.0893
-5.1,-0.1356,0.05248,0.05003,-0.0916
-5,-0.1209,0.05105,0.04858,-0.0942
-4.9,-0.1055,0.04958,0.04709,-0.097
-4.8,-0.0893,0.04806,0.04554,-0.0999
-4.7,-0.0724,0.0465,0.04394,-0.1029
-4.6,-0.055,0.0449,0.0423,-0.106
-4.5,-0.0393,0.04339,0.04077,-0.1086
-4.4,-0.0226,0.0418,0.03913,-0.1114
-4.3,-0.0045,0.04008,0.03737,-0.1145
-4.2,0.0195,0.03696,0.03417,-0.1197
-4.1,0.0413,0.03452,0.03165,-0.1239
-4,0.0624,0.03242,0.02948,-0.1277
-3.9,0.0802,0.03091,0.02791,-0.1303
-3.8,0.099,0.02943,0.02637,-0.1329
-3.7,0.118,0.02796,0.02482,-0.1355
-3.6,0.1374,0.02642,0.02319,-0.1381
-3.5,0.1573,0.02476,0.02142,-0.1407
-3.4,0.1779,0.02283,0.01936,-0.1435
-3.3,0.2001,0.02026,0.01658,-0.1469
-3.2,0.2281,0.01461,0.01033,-0.1531
-3.1,0.246,0.01269,0.008,-0.155
-3,0.2619,0.01168,0.00671,-0.1557
-2.9,0.2772,0.01102,0.00582,-0.1561
-2.8,0.2922,0.01053,0.00519,-0.1563
-2.7,0.307,0.0102,0.00475,-0.1564
-2.6,0.3216,0.00993,0.00439,-0.1564
-2.5,0.3356,0.00969,0.00407,-0.1564
-2.4,0.3498,0.00948,0.00376,-0.1564
-2.3,0.364,0.00928,0.00348,-0.1563
-2.2,0.3782,0.00912,0.00325,-0.1563
-2.1,0.3923,0.00899,0.00308,-0.1563
-2,0.406,0.00888,0.00294,-0.1562
-1.9,0.4196,0.00882,0.00287,-0.1561
-1.8,0.4333,0.00872,0.00275,-0.156
-1.7,0.447,0.00867,0.00268,-0.1559
-1.6,0.4609,0.00859,0.00256,-0.1559
-1.5,0.4746,0.0085,0.00245,-0.1558
-1.4,0.4882,0.00844,0.00238,-0.1558
-1.3,0.5017,0.00838,0.0023,-0.1557
-1.2,0.5153,0.00834,0.00224,-0.1556
-1.1,0.5285,0.00829,0.00216,-0.1554
-1,0.5415,0.00825,0.00208,-0.1551
-0.9,0.5551,0.00821,0.00202,-0.1551
-0.8,0.5683,0.00818,0.00197,-0.1549
-0.7,0.5815,0.00815,0.00192,-0.1548
-0.6,0.5948,0.00813,0.00191,-0.1547
-0.5,0.608,0.00811,0.00187,-0.1545
-0.4,0.6212,0.0081,0.00184,-0.1544
-0.3,0.6346,0.00808,0.00183,-0.1543
-0.2,0.6476,0.00808,0.00179,-0.1541
-0.1,0.6609,0.00807,0.0018,-0.1541
0,0.6738,0.00808,0.00178,-0.1539
0.1,0.6867,0.00809,0.00176,-0.1536
0.2,0.6999,0.00809,0.00175,-0.1535
0.3,0.7129,0.0081,0.00175,-0.1534
0.4,0.726,0.00811,0.00175,-0.1532
0.5,0.7386,0.00814,0.00176,-0.1529
0.6,0.7513,0.00818,0.00177,-0.1527
0.7,0.7643,0.00821,0.00177,-0.1525
0.8,0.7769,0.00825,0.00179,-0.1523
0.9,0.7893,0.0083,0.00181,-0.152
1,0.801,0.0084,0.00183,-0.1515
1.1,0.8133,0.00848,0.00185,-0.1512
1.2,0.8248,0.00859,0.0019,-0.1507
1.3,0.8365,0.00871,0.00195,-0.1503
1.4,0.8453,0.00902,0.00206,-0.1493
1.5,0.8566,0.00917,0.00215,-0.1488
1.6,0.8664,0.00944,0.00228,-0.1481
1.7,0.8772,0.00964,0.00237,-0.1475
1.8,0.8877,0.00986,0.00249,-0.147
1.9,0.8954,0.01031,0.0027,-0.146
2,0.9052,0.01062,0.00287,-0.1453
2.1,0.9146,0.01097,0.00306,-0.1447
2.2,0.9244,0.0113,0.00324,-0.1441
2.3,0.9352,0.01155,0.00341,-0.1436
2.4,0.9457,0.01182,0.00357,-0.1431
2.5,0.9577,0.01196,0.0037,-0.1427
2.6,0.9697,0.01208,0.00383,-0.1424
2.7,0.9819,0.01217,0.00395,-0.1421
2.8,0.9937,0.0123,0.00411,-0.1418
2.9,0.9991,0.01119,0.00431,-0.1404
3.1,1.0235,0.01147,0.00457,-0.1396
3.2,1.0359,0.0116,0.00468,-0.1392
3.3,1.0476,0.01179,0.00481,-0.1388
3.4,1.0599,0.01193,0.00493,-0.1384
3.5,1.0721,0.01208,0.00507,-0.138
3.6,1.0843,0.01222,0.00519,-0.1376
3.7,1.0964,0.01238,0.00534,-0.1371
3.8,1.1082,0.01256,0.00547,-0.1366
3.9,1.1204,0.01272,0.00562,-0.1361
4,1.1325,0.01288,0.00577,-0.1356
4.1,1.1445,0.01305,0.00593,-0.1351
4.2,1.1567,0.01321,0.00609,-0.1346
4.3,1.1683,0.01342,0.00626,-0.134
4.4,1.1803,0.0136,0.00643,-0.1335
4.5,1.1921,0.01379,0.00662,-0.1329
4.6,1.2042,0.01397,0.00684,-0.1323
4.7,1.2159,0.01418,0.00703,-0.1316
4.8,1.2276,0.01439,0.00724,-0.131
4.9,1.2392,0.01461,0.00745,-0.1303
5,1.2511,0.01481,0.00768,-0.1296
5.1,1.2629,0.01501,0.00791,-0.1289
5.2,1.2745,0.01525,0.00815,-0.1282
5.3,1.2861,0.01548,0.00842,-0.1274
5.4,1.2978,0.01571,0.00868,-0.1266
5.5,1.3092,0.01596,0.00894,-0.1258
5.6,1.3205,0.01624,0.00925,-0.1249
5.7,1.332,0.01649,0.00955,-0.124
5.8,1.3434,0.01676,0.00988,-0.123
5.9,1.3546,0.01705,0.01022,-0.1221
6,1.3656,0.01736,0.01062,-0.121
6.1,1.3761,0.01773,0.01104,-0.1199
6.2,1.3871,0.01804,0.01141,-0.1189
6.3,1.3976,0.01841,0.01186,-0.1177
6.4,1.4078,0.01881,0.01233,-0.1165
6.5,1.4181,0.01919,0.01276,-0.1153
6.6,1.4276,0.01967,0.01335,-0.1139
6.7,1.4366,0.02019,0.01399,-0.1124
6.8,1.4452,0.02075,0.01466,-0.1109
6.9,1.4532,0.02137,0.0154,-0.1093
7,1.4598,0.02212,0.01627,-0.1075
7.1,1.4651,0.02298,0.01731,-0.1055
7.2,1.4697,0.02393,0.01844,-0.1035
7.3,1.4732,0.02494,0.01964,-0.1013
7.4,1.4752,0.026,0.02088,-0.0991
7.6,1.4805,0.02795,0.02315,-0.095
7.7,1.4804,0.02912,0.0245,-0.0928
7.8,1.4794,0.03035,0.02589,-0.0906
8,1.4722,0.03323,0.02912,-0.0862
8.1,1.467,0.03479,0.03084,-0.0841
8.2,1.4611,0.03639,0.03261,-0.0822
8.4,1.448,0.03969,0.0362,-0.0788
8.5,1.4408,0.04142,0.03807,-0.0774
8.6,1.4334,0.0432,0.03997,-0.0762
8.7,1.4256,0.04505,0.04195,-0.0753
8.8,1.4176,0.04697,0.04398,-0.0747
8.9,1.4094,0.04898,0.04611,-0.0743
9,1.4014,0.05108,0.0483,-0.0743
9.2,1.385,0.05556,0.05298,-0.0753
9.3,1.3769,0.058,0.05551,-0.0764
9.5,1.3614,0.06335,0.06104,-0.08
9.6,1.3541,0.06634,0.06411,-0.0826
9.8,1.3411,0.07318,0.07111,-0.0898
9.9,1.3357,0.07724,0.07524,-0.0942
10.1,1.3274,0.08668,0.08483,-0.1036
10.2,1.323,0.09078,0.08896,-0.1075
10.3,1.3185,0.09464,0.09283,-0.1111
10.4,1.3143,0.0983,0.0965,-0.1145
10.5,1.3103,0.10191,0.10011,-0.1178
10.6,1.3068,0.10538,0.10358,-0.1208
10.8,1.3006,0.11213,0.11033,-0.1266
10.9,1.2982,0.11538,0.11358,-0.1294
11,1.2961,0.11858,0.11677,-0.132
11.2,1.2931,0.12485,0.12303,-0.1371
11.3,1.2921,0.12788,0.12606,-0.1395
11.4,1.2915,0.13087,0.12905,-0.1419
11.5,1.2913,0.13378,0.13195,-0.1441
11.6,1.2915,0.13663,0.1348,-0.1463
11.7,1.292,0.13943,0.13759,-0.1484
11.8,1.2927,0.14213,0.1403,-0.1505
11.9,1.2937,0.14479,0.14295,-0.1525
12,1.2949,0.14737,0.14553,-0.1544
12.1,1.2964,0.14989,0.14805,-0.1563
12.2,1.2982,0.15236,0.15052,-0.1582
12.3,1.3001,0.15477,0.15293,-0.16
12.4,1.3022,0.15713,0.15529,-0.1617
12.5,1.3045,0.15944,0.15759,-0.1635
12.6,1.3069,0.16171,0.15986,-0.1652
12.7,1.3095,0.16392,0.16207,-0.1668
12.8,1.3121,0.16608,0.16424,-0.1685
12.9,1.3148,0.16823,0.16638,-0.1702
13,1.3176,0.17033,0.16848,-0.1718
13.2,1.3213,0.17609,0.17424,-0.1756
13.3,1.3234,0.17896,0.17711,-0.1775
13.4,1.326,0.18166,0.17981,-0.1792
13.5,1.3288,0.18419,0.18234,-0.1809
13.6,1.3317,0.18668,0.18483,-0.1826
13.7,1.3347,0.18913,0.18728,-0.1843
13.8,1.3379,0.19151,0.18966,-0.1859
13.9,1.3411,0.19383,0.19198,-0.1875
14,1.3444,0.19616,0.19431,-0.1891
14.1,1.3479,0.19842,0.19657,-0.1906
14.2,1.3513,0.20065,0.1988,-0.1922
14.3,1.3549,0.20286,0.20101,-0.1938
14.4,1.3585,0.20505,0.2032,-0.1953
14.5,1.3621,0.20721,0.20536,-0.1968
14.6,1.3658,0.20935,0.2075,-0.1984
14.7,1.3695,0.21147,0.20962,-0.1999
14.9,1.3774,0.21503,0.21319,-0.2031
15,1.3812,0.21699,0.21514,-0.2046
15.1,1.385,0.21895,0.21711,-0.2061
15.2,1.3887,0.22088,0.21904,-0.2076
15.3,1.3925,0.2228,0.22095,-0.2091
15.4,1.3962,0.2247,0.22286,-0.2106
15.5,1.3999,0.22658,0.22474,-0.2121
15.6,1.404,0.22923,0.22738,-0.2138
15.7,1.4083,0.2324,0.23054,-0.2155
15.8,1.4125,0.2351,0.23325,-0.2172
15.9,1.4167,0.2377,0.23584,-0.2188
16,1.4209,0.24032,0.23846,-0.2205
16.1,1.4251,0.2427,0.24085,-0.222
16.2,1.4293,0.2451,0.24325,-0.2236
16.3,1.4336,0.2475,0.24565,-0.2252
16.4,1.4379,0.2498,0.24795,-0.2268
16.5,1.4421,0.25214,0.2503,-0.2284
16.6,1.4464,0.25448,0.25263,-0.23
16.7,1.4507,0.25675,0.25491,-0.2316
16.8,1.455,0.259,0.25716,-0.2331
16.9,1.4592,0.26127,0.25943,-0.2347
17,1.4635,0.26352,0.26169,-0.2363
17.1,1.4678,0.26575,0.26391,-0.2379
17.2,1.4721,0.26797,0.26614,-0.2395
17.3,1.4764,0.27019,0.26836,-0.241
17.4,1.4806,0.2724,0.27057,-0.2426
17.5,1.4849,0.2746,0.27277,-0.2442
17.6,1.4892,0.2768,0.27497,-0.2458
17.7,1.4935,0.27899,0.27718,-0.2474
17.8,1.4978,0.28117,0.27937,-0.249
17.9,1.502,0.28336,0.28156,-0.2506
18,1.5063,0.28554,0.28374,-0.2522
18.1,1.5106,0.28773,0.28593,-0.2538
18.2,1.5149,0.28991,0.28811,-0.2554
18.3,1.5191,0.2921,0.2903,-0.2571
18.4,1.5234,0.29429,0.2925,-0.2587
18.5,1.5277,0.29645,0.29466,-0.2603
18.6,1.5319,0.2986,0.29682,-0.262
18.7,1.5361,0.30079,0.29901,-0.2636
18.8,1.5404,0.30299,0.30121,-0.2652
18.9,1.5446,0.30518,0.3034,-0.2669
19,1.5489,0.30736,0.30559,-0.2685
19.1,1.5531,0.30957,0.30779,-0.2702
19.2,1.5573,0.31176,0.30999,-0.2718
19.3,1.5615,0.31398,0.31221,-0.2735
19.4,1.5657,0.31623,0.31446,-0.2752
19.5,1.5699,0.31843,0.31666,-0.2768
19.6,1.5741,0.32071,0.31895,-0.2785
19.7,1.5783,0.32296,0.3212,-0.2802
19.8,1.5825,0.32524,0.32349,-0.2819
19.9,1.5866,0.3275,0.32575,-0.2836
20,1.5909,0.32985,0.32811,-0.2853
20.1,1.595,0.33214,0.33039,-0.287
20.2,1.5992,0.3345,0.33276,-0.2887
20.3,1.6034,0.33684,0.3351,-0.2904
20.4,1.6075,0.33919,0.33746,-0.2921
20.5,1.6117,0.34158,0.33985,-0.2938
20.6,1.6158,0.34396,0.34223,-0.2956
20.7,1.6199,0.34637,0.34465,-0.2973
20.8,1.624,0.3488,0.34708,-0.299
20.9,1.6282,0.35125,0.34953,-0.3008
21,1.6328,0.35402,0.35231,-0.3027
21.1,1.6377,0.35697,0.35525,-0.3046
21.2,1.6426,0.36004,0.35832,-0.3066
21.3,1.6473,0.36294,0.36123,-0.3085
21.4,1.652,0.36589,0.36418,-0.3105
21.5,1.6566,0.3688,0.3671,-0.3124
21.6,1.661,0.37151,0.36981,-0.3142
21.7,1.6655,0.37435,0.37265,-0.3161
21.8,1.67,0.37724,0.37555,-0.318
21.9,1.6743,0.37996,0.37826,-0.3199
22,1.6788,0.38281,0.38112,-0.3218
22.1,1.6831,0.38554,0.38385,-0.3237
22.2,1.6875,0.38836,0.38668,-0.3257
22.3,1.6918,0.39107,0.38939,-0.3276
22.4,1.6961,0.39387,0.39219,-0.3295
22.5,1.7011,0.397,0.39533,-0.3318
22.6,1.7053,0.39969,0.39802,-0.3337
22.7,1.7095,0.40236,0.40069,-0.3357
22.8,1.7138,0.40503,0.40337,-0.3376
22.9,1.7179,0.4077,0.40604,-0.3396
23,1.7221,0.41039,0.40873,-0.3416
23.1,1.7263,0.41306,0.41141,-0.3436
23.2,1.7304,0.41572,0.41408,-0.3455
23.3,1.7345,0.41839,0.41675,-0.3475
23.4,1.7387,0.42107,0.41943,-0.3495
23.5,1.7428,0.42376,0.42212,-0.3515
23.6,1.7468,0.42643,0.42479,-0.3535
23.7,1.7509,0.42911,0.42748,-0.3555
23.8,1.7549,0.43179,0.43016,-0.3575
23.9,1.759,0.43451,0.43289,-0.3596
24,1.763,0.4372,0.43558,-0.3616
24.1,1.767,0.43989,0.43828,-0.3636
24.2,1.771,0.44259,0.44098,-0.3656
24.3,1.775,0.44529,0.44368,-0.3677
24.4,1.7789,0.44799,0.4464,-0.3698
24.5,1.7829,0.4507,0.44912,-0.3718
24.6,1.7868,0.45342,0.45184,-0.3739
24.7,1.7907,0.45614,0.45456,-0.3759
24.8,1.7946,0.45887,0.4573,-0.378
24.9,1.7984,0.46161,0.46005,-0.3801
25,1.8023,0.46434,0.46278,-0.3822
25.1,1.8061,0.46708,0.46552,-0.3843
25.2,1.81,0.46982,0.46827,-0.3864
25.3,1.8137,0.47258,0.47103,-0.3885
25.4,1.8175,0.47533,0.47378,-0.3906
25.5,1.8213,0.47808,0.47654,-0.3928
25.6,1.8251,0.48085,0.47931,-0.3949
25.7,1.8288,0.48367,0.48214,-0.397
25.8,1.8325,0.48644,0.48491,-0.3992
25.9,1.8362,0.48925,0.48772,-0.4013
26,1.8399,0.49206,0.49054,-0.4034
26.1,1.8435,0.4949,0.49339,-0.4056
26.2,1.8472,0.49772,0.49621,-0.4078
26.3,1.8508,0.5006,0.49909,-0.4099
26.4,1.8544,0.50345,0.50195,-0.4121
26.5,1.858,0.50634,0.50485,-0.4143
26.6,1.8616,0.50924,0.50774,-0.4165
26.7,1.8651,0.51215,0.51067,-0.4186
26.8,1.8686,0.51508,0.51359,-0.4208
26.9,1.8721,0.51803,0.51656,-0.423
27,1.8756,0.52101,0.51954,-0.4252
27.1,1.8791,0.52402,0.52255,-0.4274
27.2,1.8826,0.52704,0.52557,-0.4296
27.3,1.8861,0.5301,0.52864,-0.4319
27.4,1.8895,0.53315,0.5317,-0.4341
27.5,1.893,0.53626,0.53481,-0.4363
27.6,1.8964,0.53939,0.53796,-0.4385
27.7,1.8998,0.54253,0.5411,-0.4408
27.8,1.9032,0.54567,0.54424,-0.443
27.9,1.9066,0.54889,0.54747,-0.4453
28,1.9099,0.55209,0.55068,-0.4475
28.1,1.9133,0.55533,0.55393,-0.4498
28.2,1.9166,0.55856,0.55715,-0.452
28.3,1.9199,0.56187,0.56047,-0.4543
28.4,1.9232,0.56517,0.56377,-0.4566
28.5,1.9265,0.56849,0.5671,-0.4589
28.6,1.9298,0.57186,0.57047,-0.4611
28.7,1.933,0.57522,0.57384,-0.4634
28.8,1.9362,0.57858,0.5772,-0.4657
28.9,1.9395,0.5821,0.58073,-0.468
29,1.9427,0.58545,0.58408,-0.4703
29.1,1.9459,0.58895,0.58759,-0.4726
29.2,1.9491,0.59248,0.59112,-0.475
29.3,1.9522,0.59595,0.5946,-0.4773
29.7,1.97,0.60888,0.60752,-0.4892
29.8,1.9733,0.61205,0.61069,-0.4917
29.9,1.9766,0.61517,0.61381,-0.4943
30,1.9798,0.61836,0.61701,-0.4968

