airfoilName st21.dat
Re 	7.300000e+05
M 	5.000000e-01
N 	4.500000e+00
VACC 	0 VACCflag 1
XTR 	1.00 	1.00 XTRflag 0
alpha,cl,cd,cdp,cm
-28.2,-1.3792,0.5451,0.54345,0.2688
-28.1,-1.3755,0.54135,0.53969,0.2667
-28,-1.3717,0.5375,0.53583,0.2646
-27.9,-1.368,0.53374,0.53207,0.2625
-27.8,-1.3642,0.53016,0.52849,0.2604
-27.7,-1.3604,0.5266,0.52493,0.2583
-27.6,-1.3565,0.52299,0.52131,0.2562
-27.5,-1.3527,0.51938,0.5177,0.2541
-27.4,-1.3488,0.51587,0.51418,0.2521
-27.3,-1.345,0.51233,0.51064,0.25
-27.2,-1.3411,0.50884,0.50715,0.2479
-27.1,-1.3372,0.50547,0.50378,0.2458
-27,-1.3333,0.50204,0.50035,0.2438
-26.9,-1.3293,0.49877,0.49707,0.2417
-26.8,-1.3254,0.49539,0.49369,0.2397
-26.7,-1.3214,0.4922,0.49049,0.2376
-26.6,-1.3174,0.48895,0.48724,0.2355
-26.5,-1.3134,0.48577,0.48406,0.2335
-26.4,-1.3094,0.4826,0.48089,0.2314
-26.3,-1.3053,0.47945,0.47774,0.2294
-26.2,-1.3013,0.47639,0.47468,0.2274
-26.1,-1.2972,0.47332,0.4716,0.2253
-26,-1.2931,0.47031,0.46859,0.2233
-25.9,-1.289,0.46729,0.46557,0.2213
-25.8,-1.2849,0.46433,0.46261,0.2193
-25.7,-1.2807,0.46141,0.45969,0.2172
-25.6,-1.2766,0.45848,0.45675,0.2152
-25.5,-1.2724,0.45559,0.45386,0.2132
-25.4,-1.2682,0.45273,0.451,0.2112
-25.3,-1.2641,0.44986,0.44812,0.2093
-25.2,-1.2598,0.44702,0.44527,0.2073
-25.1,-1.2556,0.4442,0.44245,0.2053
-25,-1.2514,0.44141,0.43966,0.2033
-24.9,-1.2471,0.43862,0.43686,0.2014
-24.8,-1.2429,0.43586,0.4341,0.1994
-24.7,-1.2386,0.4331,0.43134,0.1975
-24.6,-1.2343,0.43037,0.4286,0.1955
-24.5,-1.23,0.42764,0.42588,0.1936
-24.4,-1.2257,0.42492,0.42315,0.1917
-24.3,-1.2214,0.42222,0.42045,0.1897
-24.2,-1.2171,0.41954,0.41776,0.1878
-24.1,-1.2128,0.41685,0.41507,0.1859
-24,-1.2084,0.41419,0.41241,0.184
-23.9,-1.2041,0.41154,0.40976,0.1821
-23.8,-1.1997,0.40889,0.40711,0.1803
-23.7,-1.1953,0.40626,0.40448,0.1784
-23.6,-1.191,0.40366,0.40187,0.1765
-23.5,-1.1866,0.40106,0.39927,0.1746
-23.4,-1.1822,0.39846,0.39667,0.1728
-23.3,-1.1777,0.39588,0.39408,0.171
-23.2,-1.1733,0.39331,0.39152,0.1691
-23.1,-1.1689,0.39077,0.38897,0.1673
-23,-1.1645,0.3882,0.3864,0.1655
-22.9,-1.16,0.38568,0.38388,0.1636
-22.8,-1.1556,0.38315,0.38134,0.1618
-22.7,-1.151,0.3812,0.3794,0.1599
-22.6,-1.1465,0.37867,0.37686,0.1581
-22.5,-1.142,0.37613,0.37432,0.1563
-22.4,-1.1376,0.37361,0.37179,0.1546
-22.3,-1.1331,0.3711,0.36928,0.1528
-22.2,-1.1286,0.3686,0.36678,0.151
-22.1,-1.1241,0.36611,0.36428,0.1493
-22,-1.1195,0.36363,0.36181,0.1476
-21.9,-1.115,0.36116,0.35933,0.1458
-21.8,-1.1105,0.35869,0.35686,0.1441
-21.7,-1.106,0.35624,0.3544,0.1424
-21.6,-1.1014,0.35379,0.35196,0.1407
-21.5,-1.0969,0.35136,0.34952,0.139
-21.4,-1.0924,0.34893,0.34709,0.1373
-21.3,-1.0878,0.34652,0.34468,0.1356
-21.2,-1.0832,0.34411,0.34227,0.1339
-21.1,-1.0787,0.3417,0.33986,0.1323
-21,-1.0741,0.33932,0.33748,0.1306
-20.9,-1.0696,0.33692,0.33508,0.129
-20.8,-1.065,0.33457,0.33272,0.1273
-20.7,-1.0604,0.3322,0.33036,0.1257
-20.6,-1.0558,0.32985,0.328,0.124
-20.5,-1.0512,0.3275,0.32565,0.1224
-20.4,-1.0466,0.32517,0.32332,0.1208
-20.3,-1.042,0.32284,0.32099,0.1192
-20.2,-1.0374,0.32051,0.31865,0.1176
-20.1,-1.0327,0.3182,0.31635,0.116
-20,-1.0281,0.3159,0.31404,0.1144
-19.9,-1.0235,0.3136,0.31174,0.1128
-19.8,-1.0188,0.31131,0.30945,0.1113
-19.7,-1.0141,0.30902,0.30716,0.1097
-19.6,-1.0095,0.30674,0.30488,0.1081
-19.5,-1.0048,0.30446,0.3026,0.1066
-19.4,-1.0001,0.3022,0.30033,0.105
-19.3,-0.9954,0.29994,0.29806,0.1035
-19.2,-0.9907,0.29769,0.29582,0.1019
-19.1,-0.986,0.29545,0.29357,0.1004
-19,-0.9813,0.29322,0.29135,0.0989
-18.9,-0.9766,0.291,0.28912,0.0974
-18.8,-0.9718,0.28878,0.2869,0.0958
-18.7,-0.9671,0.28656,0.28468,0.0944
-18.6,-0.9624,0.28437,0.28249,0.0928
-18.5,-0.9576,0.28216,0.28029,0.0913
-18.4,-0.9529,0.27997,0.27809,0.0898
-18.3,-0.9481,0.27778,0.2759,0.0883
-18.2,-0.9433,0.27561,0.27373,0.0869
-18.1,-0.9385,0.27343,0.27155,0.0854
-18,-0.9337,0.27125,0.26936,0.0839
-17.9,-0.9289,0.26907,0.26719,0.0824
-17.8,-0.9241,0.26689,0.265,0.0809
-17.7,-0.9191,0.2647,0.26282,0.0794
-17.6,-0.9142,0.26249,0.26061,0.078
-17.5,-0.9092,0.26028,0.2584,0.0765
-17.4,-0.904,0.25805,0.25617,0.075
-17,-0.8803,0.25065,0.24879,0.0678
-16.9,-0.8761,0.24827,0.2464,0.0667
-16.8,-0.872,0.24586,0.244,0.0656
-16.7,-0.8679,0.24345,0.24158,0.0645
-16.6,-0.8638,0.24108,0.23921,0.0634
-16.5,-0.8596,0.23876,0.23689,0.0622
-16.4,-0.8555,0.23643,0.23456,0.0611
-16.3,-0.8513,0.2342,0.23233,0.06
-16.2,-0.847,0.232,0.23013,0.0589
-16.1,-0.8427,0.22986,0.22799,0.0577
-16,-0.8384,0.22777,0.22589,0.0565
-15.9,-0.834,0.22572,0.22384,0.0554
-15.8,-0.8295,0.22371,0.22182,0.0542
-15.7,-0.8251,0.22172,0.21984,0.053
-15.6,-0.8206,0.21977,0.21789,0.0518
-15.5,-0.8161,0.21783,0.21595,0.0506
-15.4,-0.8116,0.21591,0.21403,0.0495
-15.3,-0.807,0.21401,0.21213,0.0483
-15.2,-0.8024,0.21212,0.21024,0.0471
-15.1,-0.7978,0.21025,0.20837,0.0459
-15,-0.7932,0.20838,0.2065,0.0448
-14.9,-0.7886,0.20653,0.20465,0.0436
-14.8,-0.784,0.20469,0.20281,0.0424
-14.7,-0.7794,0.20285,0.20097,0.0413
-14.6,-0.7747,0.20102,0.19914,0.0401
-14.5,-0.7701,0.1992,0.19732,0.039
-14.4,-0.7654,0.19738,0.1955,0.0378
-14.3,-0.7608,0.19557,0.19369,0.0367
-14.2,-0.7561,0.19376,0.19188,0.0356
-14.1,-0.7514,0.19196,0.19008,0.0344
-14,-0.7466,0.19016,0.18828,0.0333
-13.9,-0.7419,0.18837,0.18649,0.0322
-13.8,-0.7372,0.18659,0.18471,0.0311
-13.7,-0.7325,0.18482,0.18294,0.03
-13.6,-0.7278,0.18305,0.18117,0.0288
-13.5,-0.723,0.18129,0.17941,0.0278
-13.4,-0.7183,0.17954,0.17766,0.0267
-13.3,-0.7127,0.17814,0.17627,0.0251
-13.2,-0.708,0.17638,0.1745,0.0241
-13.1,-0.7033,0.17462,0.17274,0.023
-13,-0.6986,0.17287,0.171,0.0219
-12.9,-0.6939,0.17113,0.16924,0.0209
-12.8,-0.6891,0.1694,0.16751,0.0198
-12.7,-0.6844,0.16766,0.16578,0.0188
-12.6,-0.6796,0.16594,0.16405,0.0177
-12.5,-0.6748,0.16421,0.16233,0.0167
-12.4,-0.67,0.16249,0.16061,0.0157
-12.3,-0.6652,0.16078,0.1589,0.0146
-12.2,-0.6605,0.15907,0.1572,0.0136
-12.1,-0.6557,0.15737,0.1555,0.0126
-12,-0.6509,0.15567,0.1538,0.0116
-11.9,-0.6461,0.15398,0.1521,0.0106
-11.8,-0.6413,0.15228,0.15041,0.0096
-11.7,-0.6365,0.15059,0.14872,0.0086
-11.6,-0.6318,0.1489,0.14704,0.0076
-11.5,-0.6269,0.14718,0.14532,0.0066
-11.4,-0.6221,0.14547,0.14361,0.0056
-11.3,-0.6173,0.14375,0.14189,0.0047
-11.2,-0.6123,0.14196,0.14011,0.0037
-11.1,-0.6072,0.14014,0.13829,0.0027
-11,-0.6021,0.13837,0.13652,0.0017
-10.9,-0.5964,0.13656,0.13471,0.0006
-10.8,-0.5905,0.1349,0.13305,-0.0006
-10.6,-0.5788,0.13175,0.12993,-0.0029
-10.5,-0.575,0.13012,0.1283,-0.0036
-10.4,-0.5713,0.1285,0.12669,-0.0043
-10.3,-0.5676,0.1269,0.12509,-0.0049
-10.2,-0.5639,0.12535,0.12355,-0.0056
-10.1,-0.5602,0.12385,0.12205,-0.0062
-10,-0.5564,0.12241,0.12061,-0.0069
-9.9,-0.5526,0.12101,0.11922,-0.0075
-9.8,-0.5489,0.11967,0.11788,-0.0081
-9.7,-0.5453,0.11837,0.11659,-0.0086
-9.6,-0.542,0.11714,0.11536,-0.0091
-9.5,-0.5389,0.11594,0.11416,-0.0095
-9.4,-0.5361,0.1148,0.11303,-0.0097
-9.3,-0.5339,0.11373,0.11197,-0.0099
-9.2,-0.5321,0.11272,0.11097,-0.0098
-9.1,-0.5294,0.11164,0.10989,-0.0101
-9,-0.5219,0.11007,0.10832,-0.0118
-8.9,-0.5142,0.10851,0.10676,-0.0135
-8.8,-0.5064,0.10695,0.1052,-0.0152
-8.7,-0.4978,0.10534,0.10358,-0.0172
-8.6,-0.4896,0.10377,0.10202,-0.019
-8.5,-0.4811,0.1022,0.10044,-0.0209
-8.4,-0.4734,0.10071,0.09895,-0.0225
-8.3,-0.4654,0.0992,0.09743,-0.0242
-8.2,-0.4571,0.09768,0.09591,-0.026
-8.1,-0.4478,0.09608,0.09431,-0.0281
-8,-0.439,0.09454,0.09277,-0.0301
-7.9,-0.43,0.093,0.09123,-0.032
-7.8,-0.4228,0.09161,0.08984,-0.0335
-7.7,-0.414,0.0902,0.08842,-0.0355
-7.6,-0.4055,0.0887,0.08692,-0.0373
-7.5,-0.3965,0.08718,0.0854,-0.0392
-7.4,-0.387,0.08563,0.08384,-0.0413
-7.3,-0.3799,0.08429,0.0825,-0.0426
-7.2,-0.371,0.08281,0.08101,-0.0445
-7.1,-0.3612,0.08129,0.07948,-0.0466
-7,-0.3509,0.07972,0.07791,-0.0489
-6.9,-0.34,0.07813,0.07631,-0.0513
-6.8,-0.3309,0.07667,0.07484,-0.0532
-6.7,-0.3216,0.07521,0.07337,-0.0551
-6.6,-0.3115,0.07369,0.07185,-0.0572
-6.5,-0.3007,0.07212,0.07027,-0.0594
-6.4,-0.2892,0.0705,0.06863,-0.0619
-6.3,-0.2784,0.06891,0.06703,-0.0641
-6.2,-0.2681,0.06735,0.06547,-0.0662
-6.1,-0.2568,0.0657,0.0638,-0.0685
-6,-0.2446,0.06396,0.06205,-0.071
-5.9,-0.2316,0.06223,0.0603,-0.0737
-5.8,-0.2175,0.06051,0.05856,-0.0766
-5.7,-0.2048,0.0589,0.05696,-0.0792
-5.6,-0.1935,0.05734,0.05538,-0.0815
-5.5,-0.1813,0.05577,0.0538,-0.084
-5.4,-0.1682,0.05425,0.05225,-0.0866
-5.3,-0.1542,0.05277,0.05075,-0.0893
-5.2,-0.1402,0.05135,0.04931,-0.0919
-4.8,-0.0796,0.04574,0.04359,-0.1027
-4.7,-0.0632,0.0443,0.04211,-0.1055
-4.6,-0.0468,0.04284,0.04063,-0.1083
-4.5,-0.03,0.04136,0.03912,-0.1111
-4.4,-0.0126,0.03984,0.03754,-0.114
-4.3,0.005,0.03828,0.03594,-0.1168
-4.2,0.0232,0.03667,0.03427,-0.1197
-4.1,0.042,0.035,0.03255,-0.1227
-4,0.0611,0.03325,0.03073,-0.1258
-3.9,0.0827,0.03088,0.02829,-0.1297
-3.8,0.1044,0.02854,0.02585,-0.1335
-3.7,0.1281,0.02559,0.02276,-0.138
-3.6,0.1566,0.02096,0.01786,-0.1444
-3.4,0.2039,0.01284,0.00891,-0.1539
-3.3,0.2202,0.0116,0.0074,-0.155
-3.2,0.2357,0.01079,0.00638,-0.1556
-3.1,0.2509,0.01018,0.00559,-0.1559
-3,0.2659,0.00971,0.00496,-0.1561
-2.9,0.2805,0.00932,0.00443,-0.1562
-2.8,0.2952,0.00899,0.00398,-0.1563
-2.7,0.3097,0.00872,0.0036,-0.1563
-2.6,0.3241,0.0085,0.00329,-0.1563
-2.5,0.3384,0.00831,0.00303,-0.1562
-2.4,0.3524,0.00815,0.00278,-0.1561
-2.3,0.3665,0.00802,0.00261,-0.1561
-2.2,0.3805,0.00792,0.00246,-0.156
-2.1,0.3944,0.00782,0.00233,-0.1559
-2,0.4083,0.00774,0.00221,-0.1559
-1.9,0.422,0.00766,0.0021,-0.1558
-1.8,0.4358,0.0076,0.00202,-0.1557
-1.7,0.4495,0.00755,0.00194,-0.1556
-1.6,0.4632,0.00749,0.00188,-0.1556
-1.5,0.4768,0.00745,0.00185,-0.1555
-1.4,0.4899,0.00742,0.00177,-0.1553
-1.3,0.5031,0.00738,0.0017,-0.1551
-1.2,0.5167,0.00735,0.00164,-0.1551
-1.1,0.5299,0.00733,0.00159,-0.1549
-1,0.5431,0.00732,0.00154,-0.1547
-0.9,0.5567,0.00728,0.00152,-0.1547
-0.8,0.5696,0.00729,0.00148,-0.1545
-0.7,0.5831,0.00727,0.00145,-0.1545
-0.6,0.5966,0.00725,0.00143,-0.1544
-0.5,0.6095,0.00726,0.00141,-0.1542
-0.4,0.6227,0.00726,0.0014,-0.1541
-0.3,0.6358,0.00727,0.00138,-0.154
-0.2,0.6486,0.00729,0.00137,-0.1538
-0.1,0.6617,0.00731,0.00137,-0.1536
0,0.6748,0.00732,0.00136,-0.1535
0.1,0.688,0.00733,0.00136,-0.1534
0.2,0.7004,0.00738,0.00138,-0.1532
0.3,0.7131,0.00743,0.00138,-0.1529
0.4,0.726,0.00746,0.00139,-0.1528
0.5,0.7389,0.0075,0.00141,-0.1526
0.6,0.7512,0.00757,0.00143,-0.1523
0.7,0.7617,0.00777,0.00148,-0.1517
0.8,0.7739,0.00786,0.00152,-0.1514
0.9,0.7856,0.00799,0.00158,-0.151
1,0.7976,0.0081,0.00163,-0.1507
1.1,0.8079,0.00835,0.00173,-0.1501
1.2,0.8191,0.00853,0.00182,-0.1497
1.3,0.8301,0.00874,0.00191,-0.1492
1.4,0.8416,0.00891,0.002,-0.1488
1.5,0.8521,0.00916,0.00215,-0.1483
1.6,0.8599,0.00967,0.00236,-0.1474
1.8,0.8806,0.01026,0.00267,-0.1464
1.9,0.8918,0.01049,0.0028,-0.146
2,0.9036,0.01065,0.00291,-0.1457
2.1,0.9151,0.01084,0.00303,-0.1453
2.2,0.9274,0.01096,0.00314,-0.145
2.3,0.9399,0.01105,0.00322,-0.1448
2.4,0.9522,0.01116,0.00332,-0.1445
2.5,0.9642,0.0113,0.00343,-0.1442
2.6,0.9768,0.01139,0.00351,-0.1439
2.7,0.9893,0.01149,0.0036,-0.1436
2.8,1.0019,0.01157,0.0037,-0.1434
2.9,1.0145,0.01165,0.0038,-0.1431
3,1.0267,0.01177,0.00394,-0.1428
3.2,1.0462,0.0107,0.0043,-0.1414
3.3,1.0587,0.01082,0.00439,-0.1411
3.4,1.0712,0.01095,0.00451,-0.1407
3.5,1.0832,0.01112,0.00462,-0.1403
3.6,1.0957,0.01125,0.00475,-0.1399
3.7,1.1082,0.01138,0.00486,-0.1395
3.8,1.1205,0.01153,0.00499,-0.139
3.9,1.1326,0.0117,0.00512,-0.1386
4,1.1449,0.01185,0.00527,-0.1381
4.1,1.1574,0.01199,0.0054,-0.1376
4.2,1.1695,0.01216,0.00556,-0.1371
4.3,1.1819,0.01231,0.0057,-0.1366
4.4,1.1942,0.01247,0.00585,-0.1361
4.5,1.2061,0.01267,0.00605,-0.1355
4.6,1.2183,0.01284,0.00622,-0.135
4.7,1.2304,0.01302,0.00641,-0.1344
4.8,1.2427,0.01319,0.00658,-0.1338
4.9,1.2548,0.01338,0.00677,-0.1331
5,1.2669,0.01357,0.00698,-0.1325
5.1,1.279,0.01377,0.00718,-0.1318
5.2,1.291,0.01397,0.00739,-0.1311
5.3,1.303,0.01419,0.00763,-0.1304
5.4,1.3152,0.01438,0.00785,-0.1296
5.5,1.3274,0.01458,0.00809,-0.1289
5.6,1.3394,0.0148,0.00834,-0.128
5.7,1.3512,0.01504,0.00861,-0.1272
5.8,1.3628,0.01531,0.00892,-0.1263
5.9,1.3748,0.01555,0.00924,-0.1254
6,1.3866,0.01579,0.00952,-0.1245
6.1,1.3982,0.01607,0.00985,-0.1235
6.2,1.4095,0.01637,0.01017,-0.1225
6.3,1.4209,0.01667,0.01055,-0.1214
6.4,1.4321,0.017,0.01095,-0.1202
6.5,1.443,0.01737,0.01139,-0.119
6.6,1.4532,0.01781,0.01192,-0.1177
6.7,1.4628,0.01831,0.01254,-0.1162
6.8,1.4733,0.01872,0.01302,-0.1149
6.9,1.4822,0.0193,0.01372,-0.1133
7,1.4898,0.02,0.01457,-0.1115
7.1,1.4959,0.02084,0.01558,-0.1095
7.2,1.5009,0.02177,0.01671,-0.1074
7.3,1.5047,0.02281,0.01793,-0.1052
7.4,1.5073,0.02393,0.01925,-0.1029
7.5,1.5085,0.02514,0.02066,-0.1006
7.6,1.5079,0.02635,0.02205,-0.0981
7.7,1.506,0.02761,0.02349,-0.0956
7.8,1.5033,0.02893,0.02498,-0.0931
7.9,1.4997,0.03029,0.0265,-0.0906
8.1,1.4901,0.03313,0.02966,-0.086
8.2,1.4843,0.03462,0.03129,-0.0839
8.3,1.4781,0.03615,0.03295,-0.0819
8.6,1.457,0.04105,0.03823,-0.0771
8.7,1.4493,0.0428,0.0401,-0.076
8.9,1.4336,0.04651,0.04402,-0.0744
9,1.4256,0.04848,0.04609,-0.0741
9.1,1.4176,0.05056,0.04826,-0.0741
9.3,1.4015,0.05501,0.05288,-0.0751
9.4,1.3936,0.05744,0.0554,-0.0763
9.5,1.3859,0.06001,0.05805,-0.0778
9.7,1.3714,0.06573,0.06393,-0.0825
9.8,1.3648,0.06897,0.06724,-0.0857
10.3,1.3415,0.09012,0.0887,-0.1071
10.4,1.3372,0.09391,0.09251,-0.1106
10.5,1.3331,0.09756,0.09615,-0.114
10.6,1.3295,0.10105,0.09966,-0.1172
10.7,1.326,0.10449,0.10309,-0.1203
10.8,1.3229,0.10781,0.10641,-0.1232
10.9,1.3202,0.11106,0.10966,-0.126
11,1.3179,0.11423,0.11282,-0.1288
11.1,1.3159,0.11734,0.11594,-0.1314
11.2,1.3142,0.12041,0.119,-0.134
11.3,1.3129,0.12343,0.12201,-0.1364
11.4,1.312,0.12637,0.12496,-0.1389
11.5,1.3114,0.12927,0.12785,-0.1412
11.6,1.3111,0.13207,0.13065,-0.1435
11.7,1.3099,0.13527,0.13383,-0.146
11.8,1.3086,0.1385,0.13706,-0.1485
11.9,1.3077,0.14166,0.14022,-0.1509
12,1.3075,0.14468,0.14324,-0.1532
12.1,1.3073,0.1477,0.14626,-0.1554
12.2,1.3076,0.15064,0.1492,-0.1576
12.3,1.3083,0.1535,0.15206,-0.1596
12.5,1.3104,0.15911,0.15766,-0.1637
12.6,1.3119,0.16182,0.16037,-0.1656
12.7,1.3137,0.16448,0.16303,-0.1675
12.8,1.3156,0.16708,0.16563,-0.1693
12.9,1.3178,0.16964,0.16819,-0.1711
13,1.3201,0.17215,0.17069,-0.1729
13.1,1.3226,0.17461,0.17316,-0.1747
13.2,1.3253,0.17705,0.1756,-0.1764
13.3,1.328,0.17944,0.178,-0.1781
13.4,1.3309,0.1818,0.18035,-0.1798
13.5,1.3339,0.1841,0.18266,-0.1814
13.6,1.337,0.18639,0.18494,-0.1831
13.7,1.3402,0.18862,0.18718,-0.1847
13.8,1.3434,0.19084,0.1894,-0.1863
14,1.351,0.19451,0.19307,-0.1895
14.1,1.3543,0.19658,0.19514,-0.1911
14.2,1.3576,0.19863,0.19719,-0.1927
14.3,1.3609,0.20066,0.19922,-0.1943
14.4,1.3641,0.20289,0.20144,-0.1959
14.5,1.3673,0.20585,0.20439,-0.1977
14.6,1.3706,0.20868,0.20722,-0.1994
14.7,1.374,0.21128,0.20983,-0.201
14.8,1.3776,0.21378,0.21233,-0.2026
14.9,1.3813,0.21628,0.21482,-0.2042
15,1.385,0.21873,0.21727,-0.2058
15.1,1.3888,0.22107,0.21961,-0.2074
15.2,1.3927,0.22341,0.22196,-0.209
15.3,1.3965,0.2257,0.22425,-0.2106
15.4,1.4005,0.22801,0.22656,-0.2122
15.5,1.4045,0.23032,0.22887,-0.2137
15.6,1.4085,0.23254,0.23109,-0.2153
15.7,1.4125,0.2348,0.23336,-0.2169
15.8,1.4166,0.23702,0.23557,-0.2184
15.9,1.4206,0.23923,0.23779,-0.22
16,1.4248,0.24143,0.23999,-0.2216
16.1,1.4289,0.24362,0.24218,-0.2231
16.2,1.433,0.24579,0.24435,-0.2247
16.3,1.4372,0.24796,0.24652,-0.2263
16.4,1.4413,0.25012,0.24868,-0.2278
16.5,1.4455,0.25225,0.25082,-0.2294
16.6,1.4497,0.25438,0.25294,-0.231
16.7,1.4538,0.25651,0.25508,-0.2325
16.8,1.458,0.25863,0.2572,-0.2341
16.9,1.4622,0.26073,0.2593,-0.2357
17,1.4664,0.26282,0.26139,-0.2372
17.1,1.4705,0.26492,0.26349,-0.2388
17.2,1.4747,0.267,0.26557,-0.2404
17.3,1.4788,0.26909,0.26767,-0.2419
17.4,1.4829,0.27114,0.26972,-0.2435
17.5,1.4871,0.27324,0.27182,-0.2451
17.6,1.4912,0.27532,0.27391,-0.2467
17.7,1.4953,0.27736,0.27595,-0.2483
17.8,1.4994,0.27947,0.27807,-0.2499
17.9,1.5035,0.28157,0.28017,-0.2515
18,1.5076,0.28364,0.28224,-0.2531
18.1,1.5117,0.28579,0.2844,-0.2547
18.2,1.5157,0.28792,0.28653,-0.2563
18.3,1.5198,0.2901,0.2887,-0.2579
18.4,1.5239,0.29229,0.2909,-0.2595
18.5,1.5279,0.29449,0.2931,-0.2611
18.6,1.5323,0.29698,0.29558,-0.2628
18.7,1.537,0.29968,0.29828,-0.2645
18.8,1.5417,0.30233,0.30093,-0.2662
18.9,1.5464,0.30503,0.30363,-0.268
19,1.5512,0.3079,0.3065,-0.2697
19.1,1.5557,0.31057,0.30918,-0.2714
19.2,1.5604,0.31333,0.31194,-0.2732
19.3,1.5649,0.31597,0.31458,-0.2749
19.4,1.5693,0.31848,0.31709,-0.2766
19.5,1.5739,0.32123,0.31984,-0.2783
19.6,1.5783,0.32366,0.32227,-0.28
19.7,1.5828,0.32626,0.32488,-0.2818
19.8,1.5872,0.32876,0.32738,-0.2835
19.9,1.5916,0.33136,0.32998,-0.2852
20,1.5959,0.33376,0.33239,-0.287
20.1,1.6004,0.33637,0.335,-0.2887
20.2,1.6047,0.33882,0.33745,-0.2905
20.3,1.6091,0.34135,0.33999,-0.2922
20.4,1.6135,0.34392,0.34255,-0.294
20.5,1.6178,0.34638,0.34502,-0.2958
20.6,1.6221,0.34895,0.34759,-0.2976
20.7,1.6265,0.35147,0.35011,-0.2994
20.8,1.6308,0.35401,0.35266,-0.3011
20.9,1.6351,0.35652,0.35517,-0.3029
21,1.6394,0.35906,0.35771,-0.3048
21.1,1.6437,0.36158,0.36024,-0.3066
21.2,1.648,0.36413,0.3628,-0.3084
21.3,1.6523,0.36668,0.36535,-0.3102
21.4,1.6566,0.36923,0.3679,-0.3121
21.5,1.6608,0.37178,0.37045,-0.3139
21.6,1.6651,0.37433,0.37301,-0.3157
21.7,1.6696,0.37693,0.37561,-0.3178
21.8,1.6738,0.37946,0.37814,-0.3197
21.9,1.6781,0.38201,0.3807,-0.3216
22,1.6823,0.38454,0.38323,-0.3234
22.1,1.6865,0.38709,0.38578,-0.3253
22.2,1.6907,0.38964,0.38833,-0.3272
22.3,1.6949,0.39219,0.39089,-0.3291
22.4,1.699,0.39473,0.39344,-0.3311
22.5,1.7031,0.3973,0.396,-0.333
22.6,1.7073,0.39986,0.39857,-0.3349
22.7,1.7114,0.40242,0.40113,-0.3368
22.8,1.7156,0.40499,0.4037,-0.3388
22.9,1.7196,0.40755,0.40626,-0.3407
23,1.7237,0.41011,0.40883,-0.3427
23.1,1.7278,0.41268,0.4114,-0.3447
23.2,1.7319,0.41525,0.41398,-0.3466
23.3,1.7359,0.41784,0.41657,-0.3486
23.4,1.74,0.42041,0.41915,-0.3506
23.5,1.744,0.423,0.42174,-0.3526
23.6,1.748,0.42558,0.42432,-0.3545
23.7,1.752,0.42817,0.42691,-0.3565
23.8,1.7559,0.43073,0.42948,-0.3586
23.9,1.7599,0.43335,0.4321,-0.3606
24,1.7638,0.43594,0.4347,-0.3626
24.1,1.7678,0.43854,0.4373,-0.3646
24.2,1.7716,0.44115,0.43991,-0.3666

