airfoilName st22.dat
Re 	890000
M 	5.000000e-01
N 	4.500000e+00
VACC 	0 VACCflag 1
XTR 	1.00 	1.00 XTRflag 0
alpha,cl,cd,cdp,cm
-30,-1.4205,0.59883,0.59739,0.3096
-29.9,-1.4163,0.597,0.59556,0.3069
-29.8,-1.4128,0.59359,0.59215,0.3046
-29.7,-1.4088,0.5914,0.58996,0.302
-29.6,-1.4049,0.58888,0.58744,0.2995
-29.5,-1.4011,0.58606,0.58461,0.297
-29.4,-1.3972,0.58328,0.58183,0.2946
-29.3,-1.3929,0.58133,0.57988,0.292
-26.8,-1.2929,0.50717,0.50568,0.2352
-26.7,-1.289,0.50373,0.50223,0.2332
-26.6,-1.2852,0.50004,0.49854,0.2313
-26.5,-1.2814,0.49638,0.49488,0.2294
-26.4,-1.2775,0.49258,0.49107,0.2275
-26.3,-1.2737,0.48891,0.4874,0.2257
-26.2,-1.2697,0.48539,0.48387,0.2237
-26.1,-1.2658,0.48171,0.48019,0.2219
-26,-1.2619,0.47815,0.47664,0.22
-25.9,-1.2579,0.47479,0.47326,0.2181
-25.8,-1.254,0.47129,0.46976,0.2162
-25.7,-1.2499,0.4681,0.46656,0.2142
-25.6,-1.2459,0.46474,0.4632,0.2123
-25.5,-1.2419,0.46152,0.45998,0.2104
-25.4,-1.2378,0.45845,0.45691,0.2085
-25.3,-1.2337,0.45521,0.45367,0.2066
-25.2,-1.2296,0.4522,0.45065,0.2047
-25.1,-1.2255,0.44911,0.44756,0.2028
-25,-1.2214,0.4461,0.44454,0.2009
-24.9,-1.2172,0.44319,0.44163,0.199
-24.8,-1.2131,0.44028,0.43873,0.1971
-24.7,-1.2089,0.4374,0.43584,0.1952
-24.6,-1.2047,0.43455,0.43299,0.1933
-24.5,-1.2004,0.43173,0.43017,0.1914
-24.4,-1.1962,0.42893,0.42737,0.1895
-24.3,-1.192,0.42616,0.42459,0.1877
-24.2,-1.1877,0.42341,0.42184,0.1858
-24.1,-1.1834,0.42067,0.41909,0.1839
-24,-1.1791,0.41797,0.41639,0.1821
-23.9,-1.1749,0.41526,0.41369,0.1802
-23.8,-1.1705,0.4126,0.41102,0.1784
-23.7,-1.1662,0.40993,0.40835,0.1765
-23.6,-1.1619,0.40729,0.40571,0.1747
-23.5,-1.1576,0.40465,0.40307,0.1729
-23.4,-1.1532,0.40203,0.40045,0.171
-23.3,-1.1488,0.39943,0.39784,0.1692
-23.2,-1.1445,0.39683,0.39524,0.1674
-23.1,-1.1401,0.39423,0.39264,0.1656
-23,-1.1357,0.39167,0.39007,0.1638
-22.9,-1.1313,0.38909,0.38749,0.162
-22.8,-1.1269,0.38654,0.38493,0.1602
-22.7,-1.1225,0.38399,0.38238,0.1585
-22.6,-1.118,0.38197,0.38036,0.1566
-22.5,-1.1136,0.37941,0.3778,0.1548
-22.4,-1.1092,0.37686,0.37525,0.1531
-22.3,-1.1047,0.37433,0.37271,0.1514
-22.2,-1.1003,0.37178,0.37017,0.1496
-22.1,-1.0958,0.36928,0.36766,0.1479
-22,-1.0914,0.36677,0.36515,0.1462
-21.9,-1.0869,0.36425,0.36263,0.1445
-21.8,-1.0824,0.36177,0.36015,0.1428
-21.7,-1.0779,0.35928,0.35766,0.1411
-21.6,-1.0735,0.35681,0.35518,0.1395
-21.5,-1.069,0.35435,0.35272,0.1378
-21.4,-1.0645,0.3519,0.35027,0.1361
-21.3,-1.06,0.34945,0.34782,0.1345
-21.2,-1.0555,0.34703,0.34539,0.1328
-21.1,-1.051,0.3446,0.34297,0.1312
-21,-1.0465,0.34218,0.34055,0.1296
-20.9,-1.0419,0.33978,0.33814,0.128
-20.8,-1.0374,0.3374,0.33576,0.1264
-20.7,-1.0329,0.33499,0.33335,0.1247
-20.6,-1.0284,0.33262,0.33098,0.1231
-20.5,-1.0238,0.33026,0.32861,0.1216
-20.4,-1.0193,0.32789,0.32625,0.12
-20.3,-1.0148,0.32555,0.32391,0.1184
-20.2,-1.0102,0.32321,0.32156,0.1169
-20.1,-1.0057,0.32088,0.31923,0.1153
-20,-1.0011,0.31855,0.31689,0.1138
-19.9,-0.9966,0.31625,0.31459,0.1122
-19.8,-0.992,0.31394,0.31228,0.1107
-19.7,-0.9875,0.31164,0.30998,0.1092
-19.6,-0.9829,0.30937,0.3077,0.1076
-19.5,-0.9783,0.30708,0.30542,0.1061
-19.4,-0.9738,0.30481,0.30314,0.1046
-19.3,-0.9692,0.30254,0.30088,0.1031
-19.2,-0.9646,0.30029,0.29862,0.1016
-19.1,-0.96,0.29804,0.29637,0.1002
-19,-0.9554,0.29579,0.29412,0.0987
-18.9,-0.9508,0.29357,0.2919,0.0972
-18.8,-0.9461,0.29134,0.28967,0.0957
-18.7,-0.9415,0.28912,0.28744,0.0943
-18.6,-0.9369,0.2869,0.28522,0.0928
-18.5,-0.9323,0.2847,0.28303,0.0914
-18.4,-0.9277,0.28251,0.28083,0.09
-18.3,-0.923,0.28032,0.27864,0.0885
-18.2,-0.9184,0.27815,0.27647,0.0871
-18.1,-0.9138,0.27597,0.27429,0.0857
-18,-0.9091,0.27381,0.27214,0.0843
-17.9,-0.9045,0.27165,0.26997,0.0829
-17.8,-0.8999,0.26951,0.26783,0.0815
-17.7,-0.8952,0.26737,0.26569,0.0801
-17.6,-0.8906,0.26524,0.26356,0.0787
-17.5,-0.886,0.26311,0.26143,0.0773
-17.4,-0.8813,0.26099,0.25931,0.076
-17.3,-0.8767,0.25888,0.2572,0.0746
-17.2,-0.872,0.25678,0.2551,0.0732
-17.1,-0.8674,0.25467,0.25299,0.0719
-17,-0.8627,0.25259,0.2509,0.0705
-16.9,-0.858,0.2505,0.24882,0.0692
-16.8,-0.8534,0.24841,0.24672,0.0678
-16.7,-0.8487,0.24634,0.24464,0.0665
-16.6,-0.844,0.24426,0.24257,0.0651
-16.5,-0.8393,0.24218,0.24049,0.0638
-16.4,-0.8346,0.24009,0.2384,0.0624
-16.3,-0.8298,0.23798,0.23629,0.0611
-16.2,-0.8249,0.23582,0.23413,0.0596
-16.1,-0.82,0.23361,0.23192,0.0583
-15.9,-0.8085,0.22928,0.22759,0.055
-15.6,-0.7922,0.22364,0.22197,0.0504
-15.5,-0.7884,0.22124,0.21957,0.0495
-15.4,-0.7845,0.2189,0.21723,0.0486
-15.3,-0.7806,0.21664,0.21496,0.0476
-15.2,-0.7766,0.21447,0.2128,0.0466
-15.1,-0.7725,0.21235,0.21068,0.0456
-15,-0.7683,0.21032,0.20865,0.0445
-14.9,-0.7641,0.20833,0.20666,0.0435
-14.8,-0.7599,0.20639,0.20472,0.0424
-14.7,-0.7555,0.20449,0.20281,0.0413
-14.6,-0.7512,0.2026,0.20093,0.0402
-14.5,-0.7468,0.20074,0.19907,0.0391
-14.4,-0.7424,0.1989,0.19723,0.038
-14.3,-0.738,0.19708,0.1954,0.037
-14.2,-0.7335,0.19527,0.19359,0.0359
-14.1,-0.7291,0.19346,0.19179,0.0348
-14,-0.7246,0.19167,0.19,0.0337
-13.9,-0.7201,0.18988,0.18821,0.0326
-13.8,-0.7156,0.1881,0.18643,0.0316
-13.7,-0.711,0.18633,0.18465,0.0305
-13.6,-0.7065,0.18456,0.18289,0.0294
-13.5,-0.7019,0.18281,0.18113,0.0283
-13.4,-0.6974,0.18106,0.17937,0.0273
-13.3,-0.6928,0.17931,0.17763,0.0262
-13.2,-0.6882,0.17758,0.17589,0.0252
-13.1,-0.6837,0.17585,0.17417,0.0241
-13,-0.6791,0.17413,0.17245,0.0231
-12.9,-0.6745,0.17242,0.17074,0.0221
-12.8,-0.6699,0.17071,0.16903,0.021
-12.6,-0.6602,0.16764,0.16597,0.0186
-12.5,-0.6557,0.16593,0.16425,0.0176
-12.4,-0.6511,0.16422,0.16254,0.0166
-12.3,-0.6465,0.16251,0.16084,0.0156
-12.2,-0.6419,0.16081,0.15914,0.0146
-12.1,-0.6373,0.15912,0.15745,0.0136
-12,-0.6326,0.15744,0.15577,0.0126
-11.9,-0.628,0.15576,0.15409,0.0116
-11.8,-0.6234,0.15409,0.15242,0.0107
-11.7,-0.6188,0.15243,0.15076,0.0097
-11.6,-0.6142,0.15078,0.14911,0.0087
-11.5,-0.6096,0.14913,0.14747,0.0078
-11.4,-0.605,0.14749,0.14583,0.0068
-11.3,-0.6004,0.14585,0.1442,0.0059
-11.2,-0.5958,0.14423,0.14257,0.0049
-11.1,-0.5912,0.14259,0.14094,0.004
-11,-0.5865,0.14097,0.13932,0.003
-10.9,-0.5819,0.13935,0.1377,0.0021
-10.8,-0.5773,0.13773,0.13608,0.0012
-10.7,-0.5727,0.13612,0.13447,0.0003
-10.6,-0.5681,0.13449,0.13285,-0.0006
-10.5,-0.5635,0.13285,0.13121,-0.0016
-10.4,-0.5589,0.13123,0.12959,-0.0024
-10.3,-0.5543,0.12956,0.12793,-0.0033
-10.2,-0.5497,0.12785,0.1262,-0.0042
-10.1,-0.5451,0.12609,0.12445,-0.0051
-10,-0.5403,0.1243,0.12267,-0.006
-9.9,-0.5351,0.1225,0.12087,-0.007
-9.8,-0.5295,0.12085,0.11922,-0.008
-9.6,-0.5188,0.11788,0.11628,-0.0101
-9.5,-0.5158,0.11632,0.11472,-0.0106
-9.4,-0.5129,0.11481,0.11322,-0.011
-9.3,-0.5101,0.11337,0.11178,-0.0114
-9.2,-0.5075,0.11201,0.11042,-0.0117
-9.1,-0.5052,0.11074,0.10916,-0.012
-9,-0.5033,0.10956,0.10799,-0.0121
-8.9,-0.5018,0.10847,0.10691,-0.012
-8.8,-0.4968,0.10705,0.10549,-0.0131
-8.6,-0.4821,0.10383,0.10227,-0.0165
-8.5,-0.4747,0.10228,0.10071,-0.0181
-8.4,-0.4671,0.10073,0.09916,-0.0199
-8.3,-0.4592,0.09918,0.09761,-0.0217
-8.2,-0.4516,0.09767,0.0961,-0.0234
-8.1,-0.4441,0.09618,0.09461,-0.025
-8,-0.4358,0.09465,0.09307,-0.0269
-7.9,-0.4278,0.09315,0.09157,-0.0287
-7.8,-0.4196,0.09165,0.09006,-0.0306
-7.7,-0.4114,0.09017,0.08858,-0.0324
-7.6,-0.4044,0.08879,0.0872,-0.0338
-7.5,-0.3968,0.08737,0.08578,-0.0355
-7.4,-0.3882,0.08587,0.08428,-0.0374
-7.3,-0.3794,0.08438,0.08278,-0.0394
-7.2,-0.3716,0.08312,0.08152,-0.0412
-7.1,-0.3635,0.08169,0.08008,-0.043
-7,-0.3544,0.08018,0.07856,-0.045
-6.9,-0.3447,0.07865,0.07703,-0.0472
-6.8,-0.3346,0.0771,0.07547,-0.0495
-6.7,-0.3256,0.07565,0.07401,-0.0514
-6.6,-0.3167,0.07421,0.07257,-0.0533
-6.5,-0.307,0.07272,0.07107,-0.0553
-6.4,-0.2968,0.07121,0.06955,-0.0575
-6.3,-0.2863,0.06968,0.06801,-0.0598
-6.2,-0.2764,0.06821,0.06653,-0.0619
-6.1,-0.2662,0.06673,0.06503,-0.064
-6,-0.2555,0.0652,0.0635,-0.0662
-5.9,-0.2444,0.06366,0.06194,-0.0685
-5.8,-0.2328,0.06208,0.06034,-0.0709
-5.7,-0.2212,0.06049,0.05873,-0.0733
-5.6,-0.2093,0.05885,0.05708,-0.0758
-5.5,-0.1969,0.05715,0.05537,-0.0784
-5.4,-0.1841,0.05538,0.05357,-0.0811
-5.3,-0.1705,0.05347,0.05164,-0.0839
-5.2,-0.1563,0.05154,0.04968,-0.0869
-5.1,-0.1416,0.04968,0.0478,-0.0899
-5,-0.1259,0.04781,0.04592,-0.093
-4.9,-0.1113,0.04596,0.04404,-0.0962
-4.8,-0.0957,0.0442,0.04223,-0.0994
-4.7,-0.0795,0.04255,0.04054,-0.1025
-4.6,-0.0632,0.04097,0.03892,-0.1055
-4.5,-0.0463,0.0394,0.03731,-0.1084
-4.4,-0.0294,0.03782,0.03568,-0.1113
-4.3,-0.0118,0.03622,0.03403,-0.1142
-4.2,0.0059,0.03457,0.03232,-0.1171
-4.1,0.024,0.03287,0.03056,-0.1199
-4,0.0427,0.03107,0.02868,-0.1229
-3.9,0.0619,0.02913,0.02667,-0.126
-3.8,0.0816,0.02702,0.02446,-0.1291
-3.7,0.1024,0.02454,0.02184,-0.1326
-3.6,0.125,0.02124,0.01835,-0.1368
-3.4,0.1709,0.01142,0.00745,-0.1467
-3.3,0.1861,0.01062,0.00643,-0.1472
-3.2,0.2016,0.00978,0.00537,-0.1477
-3.1,0.2164,0.00926,0.00469,-0.1479
-3,0.231,0.00888,0.00418,-0.1479
-2.9,0.2457,0.00858,0.00379,-0.148
-2.8,0.26,0.00834,0.00345,-0.148
-2.7,0.2744,0.00813,0.00316,-0.1479
-2.6,0.2885,0.00795,0.00289,-0.1478
-2.5,0.3027,0.00779,0.00266,-0.1477
-2.4,0.3168,0.00765,0.00245,-0.1477
-2.3,0.3308,0.00754,0.00229,-0.1476
-2.2,0.3447,0.00742,0.00213,-0.1475
-2.1,0.3586,0.00734,0.00201,-0.1474
-2,0.3724,0.00727,0.00191,-0.1474
-1.9,0.3862,0.00721,0.00182,-0.1473
-1.8,0.4,0.00714,0.00174,-0.1472
-1.7,0.4131,0.00711,0.00167,-0.147
-1.6,0.4265,0.00707,0.0016,-0.1469
-1.5,0.4398,0.00705,0.00153,-0.1467
-1.4,0.4531,0.00701,0.00149,-0.1466
-1.3,0.4666,0.00698,0.00146,-0.1465
-1.2,0.48,0.00695,0.0014,-0.1464
-1.1,0.493,0.00695,0.00136,-0.1462
-1,0.5065,0.00693,0.00132,-0.1462
-0.9,0.52,0.00691,0.00129,-0.1461
-0.8,0.533,0.00691,0.00126,-0.1459
-0.7,0.5462,0.00691,0.00125,-0.1459
-0.6,0.5595,0.00691,0.00123,-0.1458
-0.5,0.5729,0.00689,0.00121,-0.1457
-0.4,0.5853,0.00695,0.0012,-0.1454
-0.3,0.5984,0.00696,0.0012,-0.1453
-0.2,0.6117,0.00696,0.00119,-0.1452
-0.1,0.6242,0.00701,0.0012,-0.145
0,0.6369,0.00706,0.0012,-0.1448
0.1,0.6498,0.0071,0.0012,-0.1447
0.2,0.6627,0.00713,0.00121,-0.1445
0.3,0.6738,0.00729,0.00125,-0.144
0.4,0.6863,0.00737,0.00128,-0.1438
0.5,0.6981,0.0075,0.00132,-0.1435
0.6,0.71,0.00762,0.00137,-0.1432
0.7,0.7223,0.00772,0.00142,-0.1429
0.8,0.733,0.00795,0.0015,-0.1425
0.9,0.7452,0.00807,0.00157,-0.1422
1,0.7566,0.00825,0.00165,-0.1418
1.1,0.7684,0.0084,0.00172,-0.1416
1.2,0.7789,0.00868,0.00184,-0.1411
1.3,0.7883,0.00909,0.00202,-0.1404
1.5,0.8094,0.00968,0.00229,-0.1396
1.6,0.8212,0.00985,0.00241,-0.1393
1.7,0.8334,0.00998,0.00249,-0.139
1.8,0.8452,0.01015,0.0026,-0.1387
1.9,0.8578,0.01025,0.00268,-0.1385
2,0.8704,0.01033,0.00275,-0.1383
2.1,0.883,0.01042,0.00283,-0.1381
2.2,0.8952,0.01055,0.00292,-0.1378
2.3,0.908,0.01062,0.003,-0.1376
2.4,0.9206,0.0107,0.00308,-0.1374
2.5,0.9334,0.01078,0.00316,-0.1372
2.6,0.9459,0.01087,0.00325,-0.1369
2.7,0.9583,0.01098,0.00333,-0.1366
2.8,0.971,0.01106,0.00343,-0.1364
2.9,0.9839,0.01111,0.00352,-0.1362
3.1,1.0037,0.01,0.00389,-0.1349
3.2,1.016,0.01016,0.004,-0.1346
3.3,1.0287,0.01027,0.0041,-0.1343
3.4,1.0413,0.01039,0.0042,-0.1339
3.5,1.0536,0.01055,0.00432,-0.1335
3.6,1.066,0.01069,0.00444,-0.1331
3.7,1.0787,0.01081,0.00455,-0.1327
3.8,1.0913,0.01094,0.00467,-0.1323
3.9,1.1037,0.01109,0.0048,-0.1319
4,1.1164,0.01122,0.00493,-0.1315
4.1,1.1284,0.01141,0.00508,-0.131
4.2,1.141,0.01155,0.00522,-0.1305
4.3,1.1533,0.01172,0.00537,-0.13
4.4,1.1658,0.01186,0.00553,-0.1295
4.5,1.1783,0.01202,0.0057,-0.129
4.6,1.1904,0.01222,0.00589,-0.1284
4.7,1.2029,0.01237,0.00606,-0.1278
4.8,1.2153,0.01255,0.00623,-0.1272
4.9,1.2275,0.01274,0.00644,-0.1266
5,1.2401,0.0129,0.00662,-0.126
5.1,1.2526,0.01307,0.00681,-0.1254
5.2,1.265,0.01326,0.00702,-0.1247
5.3,1.2772,0.01347,0.00725,-0.124
5.4,1.2894,0.01368,0.0075,-0.1232
5.5,1.3019,0.01387,0.00774,-0.1224
5.6,1.3141,0.01408,0.00797,-0.1217
5.7,1.3263,0.01431,0.00824,-0.1208
5.8,1.3382,0.01457,0.00854,-0.1199
5.9,1.3502,0.01481,0.00882,-0.119
6,1.3622,0.01507,0.00915,-0.1181
6.1,1.374,0.01535,0.00948,-0.1171
6.2,1.3858,0.01564,0.00981,-0.1161
6.3,1.3973,0.01596,0.01021,-0.115
6.4,1.4085,0.01633,0.01065,-0.1138
6.5,1.419,0.01678,0.01119,-0.1124
6.6,1.4288,0.01731,0.01186,-0.1109
6.7,1.4376,0.01793,0.01263,-0.1093
6.8,1.4455,0.01866,0.01351,-0.1075
6.9,1.4524,0.01948,0.01451,-0.1056
7,1.4581,0.02041,0.01563,-0.1036
7.1,1.4628,0.02146,0.01686,-0.1015
7.2,1.4663,0.02259,0.01819,-0.0994
7.3,1.4685,0.02382,0.01961,-0.0972
7.5,1.4691,0.02644,0.02261,-0.0926
7.6,1.467,0.02777,0.02411,-0.0901
7.8,1.4592,0.03043,0.02707,-0.0851
7.9,1.4543,0.03183,0.02861,-0.0827
8,1.4488,0.03327,0.03017,-0.0805
8.1,1.4416,0.03487,0.03191,-0.0783
8.3,1.4259,0.03822,0.03551,-0.0745
8.4,1.4178,0.03994,0.03734,-0.073
8.5,1.4091,0.04176,0.03928,-0.0717
8.6,1.4009,0.04361,0.04122,-0.0707
8.8,1.3836,0.04755,0.04535,-0.0695
8.9,1.375,0.04965,0.04755,-0.0693
9,1.3665,0.05184,0.04982,-0.0696
9.1,1.3579,0.05416,0.05222,-0.0701
9.5,1.3261,0.06488,0.06324,-0.0767
9.7,1.3128,0.07163,0.07012,-0.083
9.8,1.3073,0.07558,0.07414,-0.087
9.9,1.3034,0.08021,0.07884,-0.0917
10,1.3002,0.085,0.0837,-0.0967
10.1,1.2958,0.08907,0.08779,-0.1006
10.2,1.2914,0.09282,0.09155,-0.104
10.4,1.283,0.09991,0.09865,-0.1103
10.5,1.279,0.10335,0.10209,-0.1132
10.6,1.2753,0.10674,0.10548,-0.1161
10.7,1.2718,0.11008,0.10881,-0.1188
10.8,1.2688,0.11333,0.11206,-0.1214
10.9,1.2656,0.11662,0.11536,-0.1241
11,1.2631,0.11985,0.11858,-0.1266
11.1,1.2605,0.12308,0.12181,-0.1291
11.2,1.2585,0.12624,0.12496,-0.1315
11.3,1.2566,0.12941,0.12813,-0.1339
11.4,1.2553,0.1325,0.13122,-0.1362
11.6,1.2533,0.13862,0.13733,-0.1407
11.7,1.2528,0.14161,0.14033,-0.1428
11.8,1.2526,0.14455,0.14326,-0.1449
11.9,1.2527,0.14744,0.14615,-0.147
12,1.253,0.15028,0.14898,-0.149
12.1,1.2536,0.15307,0.15177,-0.1509
12.2,1.2545,0.15581,0.15452,-0.1528
12.3,1.2556,0.15851,0.15721,-0.1547
12.4,1.257,0.16114,0.15984,-0.1565
12.5,1.2586,0.16375,0.16245,-0.1583
12.6,1.2604,0.16631,0.165,-0.16
12.7,1.2624,0.16884,0.16753,-0.1618
12.8,1.2645,0.17132,0.17001,-0.1635
12.9,1.2668,0.17375,0.17244,-0.1651
13,1.2692,0.17615,0.17484,-0.1668
13.1,1.2718,0.17851,0.1772,-0.1685
13.2,1.2745,0.18084,0.17953,-0.1701
13.5,1.2841,0.18696,0.18565,-0.175
13.6,1.2863,0.18972,0.1884,-0.1767
13.7,1.2886,0.19262,0.19129,-0.1785
13.8,1.2911,0.19534,0.19401,-0.1801
13.9,1.2938,0.19802,0.1967,-0.1818
14,1.2967,0.20062,0.1993,-0.1834
14.1,1.2998,0.20312,0.20179,-0.185
14.2,1.303,0.2056,0.20428,-0.1867
14.3,1.3063,0.20805,0.20674,-0.1882
14.4,1.3098,0.2104,0.20908,-0.1898
14.5,1.3132,0.21278,0.21147,-0.1914
14.6,1.3168,0.21512,0.21381,-0.1929
14.7,1.3204,0.21745,0.21614,-0.1945
14.8,1.3241,0.21975,0.21844,-0.1961
14.9,1.3278,0.22204,0.22073,-0.1976
15,1.3316,0.2243,0.22299,-0.1991
15.1,1.3354,0.22655,0.22524,-0.2007
15.2,1.3392,0.22877,0.22746,-0.2022
15.3,1.3431,0.23099,0.22969,-0.2038
15.4,1.3471,0.23319,0.23188,-0.2053
15.5,1.351,0.23538,0.23407,-0.2069
15.6,1.355,0.23755,0.23624,-0.2084
15.7,1.359,0.2397,0.23839,-0.21
15.8,1.363,0.24185,0.24055,-0.2115
15.9,1.367,0.24396,0.24266,-0.213
16,1.3711,0.2461,0.2448,-0.2146
16.1,1.3751,0.24821,0.24691,-0.2161
16.2,1.3792,0.2503,0.249,-0.2177
16.3,1.3833,0.2524,0.2511,-0.2192
16.4,1.3873,0.25445,0.25315,-0.2208
16.5,1.3914,0.25655,0.25525,-0.2223
16.6,1.3954,0.25859,0.25729,-0.2239
16.7,1.3994,0.26065,0.25936,-0.2254
16.8,1.4035,0.26273,0.26144,-0.227
16.9,1.4075,0.26481,0.26352,-0.2285
17,1.4114,0.2669,0.26561,-0.2301
17.1,1.4153,0.26898,0.2677,-0.2316
17.2,1.4192,0.27112,0.26983,-0.2332
17.3,1.423,0.27333,0.27203,-0.2347
17.4,1.4279,0.27611,0.27481,-0.2364
17.5,1.4323,0.27861,0.27731,-0.238
17.6,1.4372,0.28155,0.28025,-0.2397
17.7,1.4417,0.28418,0.28289,-0.2413
17.8,1.4465,0.28716,0.28587,-0.243
17.9,1.451,0.28978,0.28849,-0.2446
18,1.4554,0.2923,0.29101,-0.2462
18.1,1.4599,0.29489,0.2936,-0.2479
18.2,1.4644,0.2975,0.29621,-0.2495
18.3,1.4689,0.30006,0.29879,-0.2512
18.4,1.4733,0.30257,0.30129,-0.2528
18.5,1.4778,0.30509,0.30382,-0.2545
18.6,1.4822,0.30753,0.30626,-0.2561
18.7,1.4866,0.31001,0.30874,-0.2578
18.8,1.491,0.31245,0.31119,-0.2594
18.9,1.4955,0.31494,0.31368,-0.2611
19,1.4999,0.31739,0.31613,-0.2628
19.1,1.5043,0.31984,0.31858,-0.2644
19.2,1.5087,0.3223,0.32104,-0.2661
19.3,1.513,0.32471,0.32346,-0.2678
19.4,1.5175,0.32721,0.32596,-0.2695
19.5,1.5218,0.32966,0.3284,-0.2712
19.6,1.5262,0.33212,0.33087,-0.2729
19.7,1.5306,0.33457,0.33333,-0.2746
19.8,1.535,0.33702,0.33578,-0.2764
19.9,1.5393,0.3395,0.33825,-0.2781
20,1.5437,0.34197,0.34073,-0.2798
20.1,1.5481,0.34445,0.34321,-0.2816
20.2,1.5524,0.34692,0.34568,-0.2833
20.3,1.5568,0.3494,0.34816,-0.285
20.4,1.5611,0.35187,0.35063,-0.2868
20.5,1.5655,0.35437,0.35314,-0.2886
20.6,1.5698,0.35687,0.35564,-0.2903
20.7,1.5741,0.35937,0.35815,-0.2921
20.8,1.5784,0.36188,0.36065,-0.2939
20.9,1.5827,0.36439,0.36317,-0.2957
21,1.587,0.36691,0.36569,-0.2975
21.1,1.5913,0.36944,0.36822,-0.2993
21.2,1.5956,0.37197,0.37076,-0.3011
21.3,1.5999,0.3745,0.37329,-0.3029
21.4,1.6042,0.37704,0.37583,-0.3047
21.5,1.6084,0.37958,0.37837,-0.3066
21.6,1.6127,0.38215,0.38094,-0.3084
21.7,1.617,0.38447,0.38328,-0.3104
21.8,1.6212,0.38701,0.38582,-0.3123
21.9,1.6255,0.38953,0.38835,-0.3142
22,1.6297,0.39208,0.3909,-0.316
22.1,1.6339,0.39463,0.39345,-0.3179
22.2,1.6381,0.39716,0.39599,-0.3198
22.3,1.6422,0.39971,0.39854,-0.3217
22.4,1.6464,0.40226,0.40109,-0.3236
22.5,1.6506,0.40481,0.40364,-0.3255
22.6,1.6547,0.40736,0.40619,-0.3275
22.7,1.6589,0.40992,0.40875,-0.3294
22.8,1.663,0.41249,0.41134,-0.3313
22.9,1.6671,0.41506,0.4139,-0.3333
23,1.6712,0.41762,0.41647,-0.3352
23.1,1.6752,0.42019,0.41904,-0.3371
23.2,1.6793,0.42277,0.42163,-0.3391
23.3,1.6834,0.42537,0.42423,-0.3411
23.4,1.6874,0.42795,0.42682,-0.343
23.5,1.6914,0.43055,0.42941,-0.345
23.6,1.6954,0.43312,0.43199,-0.347
23.7,1.6994,0.43575,0.43462,-0.349
23.8,1.7034,0.4384,0.43727,-0.351
23.9,1.7073,0.44104,0.43992,-0.353
24,1.7113,0.44369,0.44257,-0.355
24.1,1.7151,0.4463,0.44519,-0.357
24.2,1.7191,0.44903,0.44792,-0.359
24.3,1.7229,0.45172,0.45061,-0.361
24.4,1.7268,0.45447,0.45336,-0.363
24.5,1.7307,0.45724,0.45613,-0.365
24.6,1.7345,0.46005,0.45894,-0.367
24.7,1.7383,0.46291,0.46182,-0.369
24.8,1.7421,0.46578,0.4647,-0.3711
24.9,1.7459,0.46875,0.46767,-0.3731
25,1.7497,0.47175,0.47067,-0.3751
25.1,1.7535,0.47473,0.47365,-0.3771
25.2,1.7573,0.47781,0.47674,-0.3791
25.3,1.761,0.48097,0.4799,-0.3811
25.4,1.7648,0.48398,0.48291,-0.3832
25.5,1.7685,0.48722,0.48616,-0.3851
25.6,1.7722,0.49036,0.4893,-0.3872
25.7,1.776,0.49343,0.49237,-0.3892
26,1.7902,0.50291,0.50184,-0.3968
26.1,1.7944,0.50629,0.50522,-0.3991
26.2,1.7987,0.50977,0.50871,-0.4014
26.3,1.8027,0.51304,0.51198,-0.4036
26.4,1.8064,0.51607,0.51501,-0.4058
26.5,1.8105,0.51949,0.51843,-0.4081
26.6,1.8143,0.52264,0.52159,-0.4103
26.7,1.8185,0.52604,0.52499,-0.4127
26.8,1.822,0.52902,0.52798,-0.4148
26.9,1.8259,0.53221,0.53116,-0.4171
27,1.8297,0.53535,0.53431,-0.4194
27.1,1.8334,0.53845,0.53741,-0.4217
27.2,1.8371,0.54156,0.54052,-0.424
27.3,1.8406,0.54466,0.54362,-0.4262
27.4,1.8444,0.54776,0.54673,-0.4286
27.5,1.8479,0.55086,0.54983,-0.4308
27.6,1.8514,0.55395,0.55293,-0.4331
27.7,1.8552,0.55705,0.55603,-0.4355
27.8,1.8587,0.56017,0.55915,-0.4378
27.9,1.8623,0.56326,0.56225,-0.4401
28,1.8657,0.56637,0.56536,-0.4424
28.1,1.8693,0.56948,0.56847,-0.4448
28.2,1.8728,0.57258,0.57159,-0.4471
28.3,1.8762,0.57573,0.57474,-0.4495
28.4,1.8796,0.57885,0.57786,-0.4518
28.5,1.883,0.58198,0.581,-0.4542
28.6,1.8864,0.58512,0.58414,-0.4565
28.7,1.8898,0.58823,0.58725,-0.4589
28.8,1.8931,0.59138,0.59041,-0.4613
28.9,1.8964,0.59457,0.5936,-0.4637
29,1.8998,0.59772,0.59675,-0.4661
29.1,1.9033,0.60003,0.59907,-0.4687
29.2,1.9065,0.60319,0.60223,-0.4711
29.3,1.9098,0.60633,0.60538,-0.4736
29.4,1.913,0.60947,0.60852,-0.476
29.5,1.9162,0.61265,0.6117,-0.4784
29.6,1.9194,0.61578,0.61484,-0.4808
29.7,1.9225,0.61894,0.618,-0.4833
29.8,1.9256,0.62214,0.6212,-0.4857
29.9,1.9288,0.62527,0.62434,-0.4881
30,1.9319,0.62855,0.62762,-0.4906

