airfoilName st22.dat
Re 	650000
M 	5.000000e-01
N 	4.500000e+00
VACC 	0 VACCflag 1
XTR 	1.00 	1.00 XTRflag 0
alpha,cl,cd,cdp,cm
-28.1,-1.3438,0.54813,0.54635,0.2626
-28,-1.3401,0.54451,0.54272,0.2605
-27.9,-1.3364,0.5409,0.53911,0.2585
-27.8,-1.3326,0.53726,0.53547,0.2564
-27.7,-1.3289,0.53356,0.53177,0.2544
-27.6,-1.3252,0.53005,0.52825,0.2523
-27.5,-1.3214,0.5264,0.5246,0.2503
-27.4,-1.3176,0.52296,0.52116,0.2483
-27.3,-1.3138,0.51945,0.51764,0.2462
-27.2,-1.31,0.51595,0.51414,0.2442
-27.1,-1.3061,0.51249,0.51068,0.2422
-27,-1.3023,0.50907,0.50725,0.2402
-26.9,-1.2984,0.50574,0.50392,0.2382
-26.8,-1.2945,0.50234,0.50052,0.2361
-26.7,-1.2905,0.49916,0.49733,0.2341
-26.6,-1.2866,0.49591,0.49408,0.2321
-26.5,-1.2827,0.49271,0.49088,0.2301
-26.4,-1.2787,0.48949,0.48765,0.2281
-26.3,-1.2747,0.48632,0.48448,0.2261
-26.2,-1.2707,0.48322,0.48138,0.2241
-26.1,-1.2667,0.48011,0.47827,0.2221
-26,-1.2626,0.47704,0.47519,0.2201
-25.9,-1.2586,0.47402,0.47216,0.2181
-25.8,-1.2545,0.47099,0.46912,0.2161
-25.7,-1.2504,0.46803,0.46617,0.2142
-25.6,-1.2463,0.46506,0.46319,0.2122
-25.5,-1.2422,0.46212,0.46025,0.2102
-25.4,-1.238,0.45922,0.45734,0.2082
-25.3,-1.2339,0.45628,0.45441,0.2063
-25.2,-1.2297,0.45342,0.45154,0.2043
-25.1,-1.2255,0.45054,0.44866,0.2024
-25,-1.2213,0.44767,0.44579,0.2005
-24.9,-1.2171,0.44485,0.44296,0.1985
-24.8,-1.2129,0.44203,0.44014,0.1966
-24.7,-1.2087,0.43921,0.43732,0.1947
-24.6,-1.2044,0.43642,0.43452,0.1928
-24.5,-1.2002,0.43363,0.43174,0.1909
-24.4,-1.1959,0.43086,0.42897,0.189
-24.3,-1.1916,0.42812,0.42621,0.1871
-24.2,-1.1873,0.42538,0.42348,0.1852
-24.1,-1.183,0.42264,0.42073,0.1833
-24,-1.1787,0.41994,0.41803,0.1815
-23.9,-1.1744,0.41723,0.41532,0.1796
-23.8,-1.1701,0.41456,0.41265,0.1778
-23.7,-1.1657,0.41188,0.40996,0.1759
-23.6,-1.1614,0.40923,0.40731,0.1741
-23.5,-1.157,0.40658,0.40466,0.1722
-23.4,-1.1526,0.40395,0.40202,0.1704
-23.3,-1.1483,0.40133,0.3994,0.1686
-23.2,-1.1439,0.39872,0.3968,0.1668
-23.1,-1.1395,0.39611,0.39419,0.165
-22.9,-1.1305,0.39152,0.38958,0.1612
-22.8,-1.1261,0.38894,0.38699,0.1594
-22.7,-1.1217,0.38636,0.38441,0.1577
-22.6,-1.1172,0.38379,0.38184,0.1559
-22.5,-1.1128,0.38122,0.37927,0.1542
-22.4,-1.1083,0.37867,0.37671,0.1524
-22.3,-1.1038,0.37613,0.37417,0.1507
-22.2,-1.0994,0.37358,0.37163,0.1489
-22.1,-1.0949,0.37107,0.36911,0.1472
-22,-1.0904,0.36856,0.3666,0.1455
-21.9,-1.0859,0.36604,0.36408,0.1438
-21.8,-1.0814,0.36356,0.36159,0.1421
-21.7,-1.0769,0.36107,0.3591,0.1404
-21.6,-1.0724,0.35859,0.35662,0.1387
-21.5,-1.0679,0.35613,0.35416,0.137
-21.4,-1.0634,0.35367,0.3517,0.1353
-21.3,-1.0588,0.35121,0.34924,0.1337
-21.2,-1.0543,0.34878,0.34681,0.132
-21.1,-1.0498,0.34635,0.34438,0.1304
-21,-1.0452,0.34393,0.34195,0.1287
-20.9,-1.0407,0.34152,0.33954,0.1271
-20.8,-1.0361,0.33913,0.33715,0.1255
-20.7,-1.0316,0.33672,0.33474,0.1239
-20.6,-1.027,0.33434,0.33236,0.1223
-20.5,-1.0225,0.33197,0.32999,0.1207
-20.4,-1.0179,0.3296,0.32761,0.1191
-20.3,-1.0133,0.32725,0.32526,0.1175
-20.2,-1.0087,0.3249,0.32291,0.1159
-20.1,-1.0042,0.32256,0.32057,0.1143
-20,-0.9996,0.32022,0.31821,0.1128
-19.9,-0.995,0.31792,0.31591,0.1112
-19.8,-0.9904,0.3156,0.31359,0.1097
-19.7,-0.9858,0.31328,0.31128,0.1082
-19.6,-0.9812,0.31101,0.309,0.1066
-19.5,-0.9766,0.30871,0.3067,0.1051
-19.4,-0.972,0.30643,0.30442,0.1036
-19.3,-0.9673,0.30415,0.30214,0.102
-19.2,-0.9627,0.30188,0.29987,0.1005
-19.1,-0.958,0.29963,0.29762,0.099
-19,-0.9534,0.29737,0.29535,0.0975
-18.9,-0.9487,0.29514,0.29312,0.096
-18.8,-0.944,0.29291,0.29089,0.0945
-18.7,-0.9394,0.29066,0.28865,0.093
-18.6,-0.9347,0.28843,0.28641,0.0916
-18.5,-0.93,0.28623,0.28421,0.0901
-18.4,-0.9253,0.28402,0.282,0.0886
-18.3,-0.9206,0.28181,0.27979,0.0871
-18.2,-0.9159,0.27963,0.27761,0.0857
-18.1,-0.9112,0.27743,0.27541,0.0842
-18,-0.9065,0.27527,0.27325,0.0828
-17.9,-0.9017,0.27306,0.27104,0.0813
-17.8,-0.8969,0.27089,0.26887,0.0799
-17.7,-0.8922,0.26871,0.26669,0.0784
-17.6,-0.8874,0.26652,0.2645,0.077
-17.5,-0.8826,0.26432,0.2623,0.0755
-17.4,-0.8778,0.26211,0.26009,0.0741
-17.3,-0.8729,0.2599,0.25787,0.0726
-17.2,-0.8678,0.25765,0.25563,0.0712
-17.1,-0.8627,0.25544,0.25342,0.0697
-17,-0.8573,0.25332,0.2513,0.0681
-16.7,-0.84,0.24766,0.24566,0.0629
-16.6,-0.8359,0.2453,0.24329,0.0618
-16.5,-0.8319,0.24293,0.24092,0.0608
-16.4,-0.8278,0.24063,0.23862,0.0597
-16.3,-0.8238,0.23829,0.23628,0.0586
-16.2,-0.8198,0.23598,0.23397,0.0576
-16.1,-0.8156,0.23375,0.23174,0.0565
-16,-0.8115,0.23157,0.22955,0.0554
-15.9,-0.8073,0.2294,0.22739,0.0543
-15.8,-0.803,0.22732,0.2253,0.0532
-15.7,-0.7988,0.22525,0.22324,0.0521
-15.6,-0.7944,0.22324,0.22122,0.051
-15.5,-0.7901,0.22125,0.21923,0.0498
-15.4,-0.7857,0.21928,0.21726,0.0487
-15.3,-0.7813,0.21734,0.21532,0.0475
-15.2,-0.7769,0.21541,0.21339,0.0464
-15.1,-0.7724,0.21351,0.21149,0.0453
-15,-0.7679,0.21161,0.20959,0.0441
-14.9,-0.7635,0.20973,0.20771,0.043
-14.8,-0.759,0.20787,0.20585,0.0419
-14.7,-0.7545,0.206,0.20398,0.0407
-14.6,-0.75,0.20415,0.20213,0.0396
-14.5,-0.7455,0.20231,0.20029,0.0385
-14.4,-0.741,0.20047,0.19845,0.0374
-14.3,-0.7365,0.19864,0.19662,0.0363
-14.2,-0.7319,0.19681,0.19479,0.0352
-14.1,-0.7274,0.19499,0.19297,0.0341
-14,-0.7229,0.19318,0.19116,0.033
-13.9,-0.7183,0.19137,0.18935,0.0319
-13.8,-0.7138,0.18956,0.18754,0.0308
-13.7,-0.7092,0.18776,0.18575,0.0297
-13.6,-0.7046,0.18597,0.18395,0.0286
-13.5,-0.7,0.18419,0.18216,0.0276
-13.4,-0.6955,0.18241,0.18038,0.0265
-13.3,-0.6909,0.18063,0.17861,0.0255
-13.2,-0.6863,0.17887,0.17684,0.0244
-13.1,-0.681,0.17743,0.17541,0.0229
-13,-0.6765,0.17565,0.17363,0.0219
-12.9,-0.6719,0.17388,0.17185,0.0208
-12.8,-0.6674,0.17211,0.17009,0.0198
-12.7,-0.6628,0.17035,0.16833,0.0188
-12.6,-0.6583,0.1686,0.16658,0.0178
-12.5,-0.6537,0.16685,0.16484,0.0168
-12.4,-0.6491,0.16511,0.1631,0.0158
-12.3,-0.6445,0.16337,0.16136,0.0148
-12.2,-0.6399,0.16163,0.15962,0.0138
-12.1,-0.6353,0.15991,0.15789,0.0128
-12,-0.6307,0.15818,0.15617,0.0118
-11.9,-0.6261,0.15645,0.15444,0.0108
-11.8,-0.6215,0.15473,0.15273,0.0099
-11.7,-0.6169,0.15302,0.15101,0.0089
-11.6,-0.6123,0.1513,0.1493,0.0079
-11.5,-0.6077,0.14957,0.14757,0.007
-11.4,-0.6031,0.14785,0.14585,0.006
-11.3,-0.5985,0.14612,0.14412,0.0051
-11.2,-0.5939,0.14439,0.1424,0.0042
-11.1,-0.5892,0.14261,0.14062,0.0032
-11,-0.5844,0.14081,0.13883,0.0023
-10.9,-0.5795,0.13902,0.13703,0.0013
-10.8,-0.5744,0.13721,0.13523,0.0003
-10.7,-0.5689,0.13544,0.13346,-0.0008
-10.6,-0.563,0.13375,0.13177,-0.002
-10.5,-0.5564,0.13212,0.13017,-0.0035
-10.4,-0.5526,0.1305,0.12855,-0.0041
-10.3,-0.5489,0.12887,0.12692,-0.0048
-10.2,-0.5453,0.12725,0.12531,-0.0054
-10.1,-0.5416,0.12567,0.12373,-0.0061
-10,-0.538,0.12412,0.12217,-0.0067
-9.9,-0.5343,0.1226,0.12066,-0.0074
-9.8,-0.5306,0.12113,0.11919,-0.008
-9.7,-0.5268,0.11971,0.11778,-0.0087
-9.6,-0.5231,0.11833,0.1164,-0.0093
-9.5,-0.5194,0.11698,0.11506,-0.0099
-9.4,-0.5158,0.11567,0.11375,-0.0105
-9.3,-0.5123,0.1144,0.11248,-0.0111
-9.2,-0.509,0.11316,0.11125,-0.0115
-9.1,-0.506,0.11197,0.11006,-0.0119
-9,-0.5034,0.11084,0.10894,-0.0121
-8.9,-0.5012,0.10975,0.10786,-0.0123
-8.8,-0.4995,0.10872,0.10685,-0.0123
-8.7,-0.4985,0.10777,0.10591,-0.0121
-8.6,-0.4958,0.10666,0.1048,-0.0124
-8.5,-0.4883,0.10508,0.10322,-0.0141
-8.4,-0.4801,0.10344,0.10158,-0.016
-8.3,-0.4724,0.10187,0.10001,-0.0177
-8.2,-0.4644,0.1003,0.09843,-0.0195
-8.1,-0.4563,0.09871,0.09684,-0.0214
-8,-0.4485,0.09716,0.0953,-0.0231
-7.9,-0.4408,0.09564,0.09377,-0.0248
-7.8,-0.4321,0.09404,0.09217,-0.0268
-7.7,-0.4237,0.09248,0.0906,-0.0287
-7.6,-0.4149,0.0909,0.08902,-0.0307
-7.5,-0.4058,0.0893,0.08742,-0.0328
-7.4,-0.3983,0.08788,0.086,-0.0346
-7.3,-0.3904,0.08638,0.0845,-0.0363
-7.2,-0.3817,0.08483,0.08294,-0.0383
-7.1,-0.3713,0.08315,0.08125,-0.0407
-7,-0.3608,0.08148,0.07956,-0.0432
-6.9,-0.3529,0.08003,0.07812,-0.0449
-6.8,-0.3437,0.07849,0.07657,-0.0469
-6.7,-0.3337,0.0769,0.07497,-0.0492
-6.6,-0.3231,0.07527,0.07334,-0.0515
-6.5,-0.312,0.07361,0.07166,-0.0541
-6.4,-0.3008,0.07194,0.06999,-0.0566
-6.3,-0.2919,0.07046,0.0685,-0.0584
-6.2,-0.2815,0.06886,0.06689,-0.0607
-6.1,-0.2703,0.06716,0.06518,-0.0631
-6,-0.2582,0.0654,0.06341,-0.0658
-5.9,-0.2456,0.06359,0.06158,-0.0686
-5.8,-0.2345,0.06191,0.05989,-0.071
-5.7,-0.2225,0.06017,0.05813,-0.0735
-5.6,-0.209,0.05836,0.05631,-0.0764
-5.5,-0.1955,0.05659,0.05454,-0.0794
-5.4,-0.183,0.05491,0.05284,-0.082
-5.3,-0.1698,0.05327,0.05118,-0.0848
-5.2,-0.1577,0.05179,0.04968,-0.0872
-5.1,-0.1441,0.05029,0.04816,-0.0898
-5,-0.1297,0.04881,0.04665,-0.0926
-4.9,-0.1146,0.04732,0.04513,-0.0954
-4.8,-0.099,0.04582,0.0436,-0.0982
-4.7,-0.0833,0.04434,0.04208,-0.101
-4.6,-0.0678,0.04286,0.04057,-0.1037
-4.5,-0.0516,0.04133,0.039,-0.1065
-4.4,-0.0348,0.03976,0.03739,-0.1093
-4.3,-0.0174,0.03814,0.03572,-0.1122
-4.2,0.0006,0.03646,0.03398,-0.1152
-4.1,0.0185,0.03472,0.03218,-0.1181
-4,0.0367,0.03292,0.03031,-0.121
-3.9,0.0561,0.03095,0.02827,-0.1242
-3.6,0.1288,0.01971,0.01642,-0.1394
-3.5,0.1508,0.01593,0.01229,-0.1436
-3.4,0.1689,0.01341,0.0094,-0.146
-3.3,0.1849,0.0122,0.00794,-0.147
-3.2,0.2002,0.01136,0.00688,-0.1475
-3.1,0.2153,0.01071,0.00604,-0.1479
-3,0.2301,0.01018,0.00535,-0.148
-2.9,0.2449,0.00975,0.00477,-0.1482
-2.8,0.2593,0.00939,0.00428,-0.1482
-2.7,0.2738,0.00909,0.00387,-0.1482
-2.6,0.2882,0.00884,0.00352,-0.1482
-2.5,0.3023,0.00863,0.00323,-0.1481
-2.4,0.3165,0.00844,0.00296,-0.1481
-2.3,0.3304,0.0083,0.00278,-0.148
-2.2,0.3444,0.00818,0.00262,-0.1479
-2.1,0.3582,0.00808,0.00246,-0.1478
-2,0.3721,0.00799,0.00233,-0.1477
-1.9,0.3858,0.0079,0.00221,-0.1477
-1.8,0.3995,0.00783,0.00213,-0.1476
-1.7,0.4132,0.00777,0.00204,-0.1475
-1.6,0.4267,0.00771,0.002,-0.1474
-1.5,0.4402,0.00767,0.00194,-0.1474
-1.4,0.4533,0.00762,0.00185,-0.1471
-1.3,0.4664,0.00758,0.00178,-0.1469
-1.2,0.48,0.00754,0.00172,-0.1469
-1.1,0.4931,0.00752,0.00165,-0.1467
-1,0.5066,0.00749,0.00161,-0.1466
-0.9,0.5196,0.00747,0.00158,-0.1464
-0.8,0.5328,0.00746,0.00154,-0.1463
-0.7,0.5463,0.00743,0.00151,-0.1462
-0.6,0.5592,0.00743,0.00148,-0.146
-0.5,0.5726,0.00742,0.00146,-0.146
-0.4,0.5857,0.00741,0.00145,-0.1458
-0.3,0.599,0.00741,0.00144,-0.1457
-0.2,0.6115,0.00744,0.00142,-0.1455
-0.1,0.6246,0.00745,0.0014,-0.1453
0,0.6377,0.00746,0.0014,-0.1452
0.1,0.6509,0.00746,0.00141,-0.1451
0.2,0.6634,0.00751,0.00141,-0.1449
0.3,0.6761,0.00754,0.00141,-0.1446
0.4,0.689,0.00757,0.00142,-0.1445
0.5,0.701,0.00766,0.00143,-0.1441
0.6,0.7128,0.00777,0.00145,-0.1437
0.7,0.7251,0.00784,0.00149,-0.1434
0.8,0.7367,0.00796,0.00152,-0.143
0.9,0.7488,0.00806,0.00157,-0.1427
1,0.7592,0.00829,0.00166,-0.1421
1.1,0.7705,0.00847,0.00173,-0.1417
1.2,0.7822,0.0086,0.0018,-0.1413
1.3,0.7925,0.00887,0.00192,-0.1408
1.4,0.8032,0.0091,0.00203,-0.1403
1.5,0.8122,0.0095,0.00222,-0.1395
1.6,0.8227,0.00977,0.00235,-0.1391
1.7,0.8331,0.01007,0.0025,-0.1386
1.8,0.8436,0.01036,0.00265,-0.1381
1.9,0.8549,0.01057,0.00278,-0.1377
2,0.8659,0.01082,0.00291,-0.1373
2.1,0.8783,0.01092,0.00302,-0.1371
2.2,0.8906,0.01103,0.00312,-0.1368
2.3,0.903,0.01113,0.0032,-0.1366
2.4,0.915,0.01127,0.00331,-0.1363
2.5,0.9275,0.01137,0.00341,-0.136
2.6,0.9401,0.01145,0.0035,-0.1358
2.8,0.959,0.01028,0.00383,-0.1344
2.9,0.9711,0.01044,0.00394,-0.134
3,0.9836,0.01056,0.00404,-0.1337
3.1,0.9961,0.01068,0.00417,-0.1334
3.2,1.0086,0.01081,0.00427,-0.133
3.3,1.021,0.01094,0.00439,-0.1327
3.4,1.0332,0.0111,0.0045,-0.1323
3.5,1.0457,0.01123,0.00462,-0.1319
3.6,1.0581,0.01137,0.00474,-0.1315
3.7,1.0705,0.01152,0.00487,-0.1311
3.8,1.0825,0.01169,0.005,-0.1306
3.9,1.0949,0.01184,0.00515,-0.1302
4,1.1072,0.01199,0.00528,-0.1297
4.1,1.1194,0.01215,0.00544,-0.1292
4.2,1.1318,0.0123,0.00559,-0.1287
4.3,1.1439,0.01248,0.00575,-0.1282
4.4,1.156,0.01267,0.00592,-0.1277
4.5,1.168,0.01286,0.0061,-0.1271
4.6,1.1803,0.01303,0.00632,-0.1265
4.7,1.1926,0.0132,0.0065,-0.1259
4.8,1.2045,0.01341,0.0067,-0.1253
4.9,1.2168,0.01359,0.00691,-0.1246
5,1.2287,0.0138,0.00712,-0.124
5.1,1.2406,0.01402,0.00735,-0.1233
5.2,1.2528,0.01422,0.00759,-0.1226
5.3,1.2649,0.01442,0.00783,-0.1218
5.4,1.2769,0.01464,0.00809,-0.121
5.5,1.2888,0.01488,0.00836,-0.1202
5.6,1.3003,0.01516,0.00867,-0.1193
5.7,1.3121,0.01541,0.00898,-0.1185
5.8,1.324,0.01566,0.00928,-0.1176
5.9,1.3355,0.01594,0.00961,-0.1166
6,1.3467,0.01627,0.00999,-0.1156
6.1,1.3581,0.01657,0.01037,-0.1146
6.2,1.3692,0.01691,0.01079,-0.1134
6.3,1.38,0.01729,0.01124,-0.1123
6.4,1.3902,0.01774,0.01176,-0.111
6.5,1.3997,0.01826,0.01241,-0.1095
6.7,1.4188,0.01929,0.01366,-0.1067
6.8,1.4269,0.01996,0.01447,-0.105
6.9,1.4332,0.02082,0.01549,-0.1031
7,1.4384,0.02179,0.01667,-0.1011
7.1,1.4424,0.02288,0.01795,-0.099
7.2,1.4453,0.02406,0.01934,-0.0969
7.3,1.4469,0.02533,0.02082,-0.0947
7.4,1.4472,0.02667,0.02235,-0.0924
7.5,1.4458,0.02799,0.02386,-0.09
7.6,1.4431,0.02935,0.0254,-0.0876
7.8,1.4352,0.0322,0.02856,-0.0829
7.9,1.4301,0.03368,0.0302,-0.0807
8,1.4245,0.0352,0.03186,-0.0786
8.1,1.4184,0.03677,0.03356,-0.0767
8.3,1.4048,0.04005,0.03709,-0.0735
8.4,1.3975,0.04176,0.03891,-0.0722
8.5,1.3899,0.04356,0.04082,-0.0711
8.6,1.3822,0.0454,0.04277,-0.0703
8.7,1.3743,0.04731,0.04477,-0.0697
8.8,1.3664,0.04934,0.0469,-0.0695
9,1.3503,0.05367,0.05141,-0.07
9.1,1.3422,0.05601,0.05383,-0.0708
9.3,1.3267,0.06114,0.05912,-0.0738
9.4,1.3192,0.064,0.06205,-0.0759
9.5,1.3121,0.0671,0.06523,-0.0787
9.6,1.3056,0.07051,0.06871,-0.082
9.8,1.2948,0.07872,0.07707,-0.0902
9.9,1.2911,0.08373,0.08214,-0.0954
10,1.2866,0.08794,0.08639,-0.0994
10.1,1.282,0.09177,0.09024,-0.103
10.2,1.2776,0.0954,0.09388,-0.1062
10.4,1.2696,0.10237,0.10085,-0.1123
10.5,1.2661,0.1057,0.10417,-0.1151
10.6,1.2629,0.10899,0.10746,-0.1178
10.8,1.2576,0.11534,0.1138,-0.1229
10.9,1.2555,0.11843,0.11689,-0.1253
11,1.2538,0.12144,0.11989,-0.1277
11.1,1.2526,0.1244,0.12285,-0.1299
11.2,1.2515,0.12732,0.12577,-0.1322
11.3,1.251,0.13015,0.1286,-0.1343
11.4,1.2506,0.13297,0.13141,-0.1364
11.5,1.2505,0.13571,0.13415,-0.1385
11.6,1.2509,0.13837,0.13681,-0.1405
11.7,1.2513,0.14103,0.13946,-0.1425
11.8,1.2503,0.1442,0.14262,-0.1447
11.9,1.2497,0.14727,0.14569,-0.1468
12,1.2492,0.15035,0.14877,-0.1489
12.1,1.2493,0.15334,0.15176,-0.1509
12.2,1.2499,0.15621,0.15463,-0.1529
12.3,1.2507,0.15906,0.15747,-0.1548
12.4,1.2518,0.1618,0.16021,-0.1566
12.5,1.2533,0.16454,0.16295,-0.1584
12.6,1.255,0.1672,0.16561,-0.1602
12.7,1.2569,0.16983,0.16823,-0.162
12.8,1.2589,0.1724,0.17081,-0.1637
12.9,1.2613,0.17489,0.1733,-0.1653
13,1.2637,0.17737,0.17577,-0.167
13.1,1.2663,0.17978,0.17819,-0.1686
13.2,1.269,0.18218,0.18058,-0.1702
13.3,1.2718,0.18453,0.18293,-0.1718
13.4,1.2747,0.18684,0.18524,-0.1734
13.5,1.2776,0.18913,0.18753,-0.175
13.6,1.2807,0.19137,0.18977,-0.1765
13.7,1.2838,0.19358,0.19198,-0.178
13.8,1.287,0.19577,0.19416,-0.1796
14.1,0.9503,0.15193,0.15047,-0.1224
14.2,0.9509,0.15369,0.15224,-0.1236
14.3,0.9518,0.15532,0.15387,-0.1247
14.4,0.953,0.15687,0.15542,-0.1257
14.5,0.9542,0.15842,0.15696,-0.1268
14.6,0.9556,0.1599,0.15845,-0.1279
14.7,0.9571,0.16135,0.1599,-0.1289
14.8,0.9587,0.16277,0.16132,-0.1299
14.9,0.9604,0.16416,0.16271,-0.1309
15,0.9622,0.16552,0.16408,-0.1319
15.1,0.964,0.16683,0.16539,-0.1329
15.2,0.9658,0.16814,0.1667,-0.1339
15.3,0.9677,0.16942,0.16798,-0.1348
15.4,0.9697,0.17067,0.16923,-0.1358
15.7,0.9903,0.25797,0.25654,-0.1407
15.8,0.9918,0.26043,0.25898,-0.1418
15.9,0.9934,0.26315,0.26171,-0.1428
16,0.995,0.26566,0.26422,-0.1439
16.1,0.9966,0.26723,0.26579,-0.1448
16.2,0.9982,0.26884,0.2674,-0.1457
16.3,0.9999,0.27025,0.26881,-0.1466
16.4,1.0016,0.27188,0.27044,-0.1476
16.5,1.0035,0.27322,0.27179,-0.1485
16.6,1.0055,0.2746,0.27317,-0.1494
16.7,1.0075,0.27598,0.27455,-0.1504
16.8,1.0097,0.27733,0.2759,-0.1514
16.9,1.0119,0.2787,0.27728,-0.1523
17,1.0141,0.28001,0.27858,-0.1533
17.1,1.0164,0.28133,0.27991,-0.1543
17.2,1.0187,0.28263,0.28121,-0.1552
17.3,1.0209,0.28384,0.28242,-0.1562
17.4,1.023,0.28499,0.28358,-0.1571
17.5,1.025,0.28604,0.28463,-0.158
17.6,1.0269,0.28706,0.28565,-0.1589
17.7,1.0287,0.28797,0.28656,-0.1598
17.8,1.0305,0.28888,0.28748,-0.1607
17.9,1.0322,0.28973,0.28833,-0.1615
18,1.034,0.29058,0.28918,-0.1624
18.1,1.0357,0.29149,0.2901,-0.1633
18.2,1.0374,0.29229,0.2909,-0.1641
18.3,1.0392,0.29328,0.29189,-0.165
18.4,1.0409,0.29391,0.29253,-0.1659
18.5,1.0427,0.2949,0.29352,-0.1667
18.6,1.0444,0.29566,0.29428,-0.1676
18.7,1.0462,0.2965,0.29513,-0.1685
18.8,1.0479,0.29732,0.29595,-0.1694
18.9,1.0497,0.29838,0.297,-0.1702
19,1.0512,0.29882,0.29745,-0.1711
19.1,1.0529,0.29981,0.29844,-0.172
19.2,1.0546,0.30075,0.29939,-0.1729
19.3,1.0562,0.30163,0.30027,-0.1737
19.4,1.0579,0.30267,0.30131,-0.1746
19.5,1.0594,0.30353,0.30217,-0.1755
19.6,1.0615,0.30568,0.30432,-0.1764
19.7,1.0636,0.30797,0.30662,-0.1774
19.8,1.0659,0.3108,0.30945,-0.1785
19.9,1.0681,0.31361,0.31226,-0.1795
20,1.0701,0.3157,0.31436,-0.1805
20.1,1.072,0.31741,0.31606,-0.1814
20.2,1.074,0.31952,0.31818,-0.1824
20.3,1.0759,0.32156,0.32022,-0.1833
20.4,1.0778,0.32331,0.32198,-0.1843
20.5,1.0797,0.3252,0.32387,-0.1852
20.6,1.0816,0.32706,0.32573,-0.1862
20.7,1.0834,0.32863,0.3273,-0.1871
20.8,1.0853,0.33057,0.32925,-0.1881
20.9,1.0872,0.33235,0.33103,-0.1891
21,1.089,0.33386,0.33255,-0.19
21.1,1.0908,0.33556,0.33425,-0.191
21.2,1.0927,0.33741,0.3361,-0.1919
21.3,1.0944,0.33897,0.33766,-0.1929
21.4,1.0962,0.34068,0.33938,-0.1938
21.5,1.098,0.34238,0.34108,-0.1948
21.6,1.0997,0.34399,0.34269,-0.1958
21.7,1.1015,0.34562,0.34433,-0.1967
21.8,1.1032,0.34733,0.34604,-0.1977
21.9,1.1049,0.34899,0.3477,-0.1987
22,1.1066,0.3506,0.34931,-0.1997
22.1,1.1083,0.3523,0.35101,-0.2007
22.2,1.11,0.35388,0.35261,-0.2016
22.3,1.1117,0.35556,0.35429,-0.2026
22.4,1.1133,0.35725,0.35598,-0.2036
22.5,1.115,0.35892,0.35765,-0.2046
22.6,1.1166,0.36054,0.35928,-0.2056
22.7,1.1182,0.3622,0.36094,-0.2066
22.8,1.1199,0.36387,0.36261,-0.2076
22.9,1.1214,0.36551,0.36426,-0.2086
23,1.123,0.36717,0.36593,-0.2096
23.1,1.1246,0.36883,0.3676,-0.2106
23.2,1.1262,0.37041,0.36918,-0.2117
23.3,1.1277,0.37203,0.37081,-0.2127
23.4,1.1293,0.37366,0.37244,-0.2137
23.5,1.1308,0.37526,0.37404,-0.2148
23.6,1.1323,0.37689,0.37567,-0.2158
23.7,1.1337,0.37849,0.37727,-0.2168
23.8,1.1352,0.38009,0.37888,-0.2178
23.9,1.1367,0.38171,0.3805,-0.2188
24,1.1381,0.38332,0.38212,-0.2199
24.1,1.1395,0.38491,0.38372,-0.2209
24.2,1.1409,0.38652,0.38532,-0.2219
24.3,1.1423,0.38811,0.38692,-0.223
24.4,1.1437,0.38969,0.3885,-0.224
24.5,1.1451,0.39132,0.39014,-0.225
24.6,1.1464,0.39287,0.3917,-0.2261
24.7,1.1477,0.39448,0.39331,-0.2271
24.8,1.149,0.39603,0.39486,-0.2281
24.9,1.1503,0.39759,0.39642,-0.2292
25,1.1516,0.39913,0.39798,-0.2302
25.1,1.1529,0.40073,0.39958,-0.2313
25.2,1.1541,0.40229,0.40114,-0.2323
25.3,1.1553,0.40375,0.40261,-0.2334
25.4,1.1565,0.40539,0.40425,-0.2344
25.5,1.1576,0.40688,0.40574,-0.2354
25.6,1.1589,0.40853,0.4074,-0.2365
25.7,1.16,0.41012,0.40899,-0.2375
25.8,1.1611,0.41165,0.41053,-0.2386
25.9,1.1622,0.41321,0.41209,-0.2396
26,1.1633,0.41488,0.41376,-0.2407
26.1,1.1644,0.41649,0.41539,-0.2417
26.2,1.1654,0.41814,0.41705,-0.2427
26.3,1.1665,0.41989,0.4188,-0.2438
26.4,1.1675,0.4216,0.42051,-0.2448
26.5,1.1686,0.42337,0.42228,-0.2458
26.6,1.1696,0.42518,0.4241,-0.2469
26.7,1.1706,0.42705,0.42597,-0.2479
26.8,1.1716,0.42894,0.42787,-0.2489
26.9,1.1726,0.43083,0.42976,-0.25
27,1.1735,0.43275,0.43169,-0.251
27.1,1.1745,0.43471,0.43365,-0.252
27.2,1.1755,0.43665,0.4356,-0.2531
27.3,1.1765,0.43862,0.43756,-0.2541
27.4,1.1774,0.44062,0.43958,-0.2551
27.5,1.1784,0.44263,0.44158,-0.2562
27.6,1.1793,0.44453,0.44349,-0.2573

