airfoilName st22.dat
Re 	1.300000e+05
M 	5.000000e-01
N 	4.500000e+00
VACC 	0 VACCflag 1
XTR 	1.00 	1.00 XTRflag 0
alpha,cl,cd,cdp,cm
-25.8,-1.2417,0.49036,0.48575,0.2064
-25.7,-1.2376,0.48721,0.4826,0.2045
-25.6,-1.2335,0.48405,0.47943,0.2025
-25.5,-1.2295,0.48091,0.47629,0.2006
-25.4,-1.2254,0.47781,0.47317,0.1987
-25.3,-1.2213,0.47465,0.47002,0.1968
-25.2,-1.2172,0.47157,0.46693,0.1949
-25.1,-1.213,0.46846,0.46382,0.1931
-25,-1.2089,0.46537,0.46072,0.1912
-24.9,-1.2047,0.46233,0.45767,0.1893
-24.8,-1.2005,0.45928,0.45462,0.1875
-24.7,-1.1964,0.45624,0.45156,0.1856
-24.6,-1.1922,0.45322,0.44854,0.1838
-24.5,-1.1879,0.45021,0.44553,0.1819
-24.4,-1.1837,0.44721,0.44253,0.1801
-24.3,-1.1795,0.44423,0.43954,0.1783
-24.2,-1.1753,0.44126,0.43656,0.1764
-24.1,-1.171,0.4383,0.43359,0.1746
-24,-1.1667,0.43535,0.43064,0.1728
-23.9,-1.1625,0.4324,0.42769,0.171
-23.8,-1.1582,0.4295,0.42478,0.1692
-23.7,-1.1539,0.4266,0.42188,0.1675
-23.6,-1.1496,0.42372,0.41899,0.1657
-23.5,-1.1453,0.42083,0.4161,0.1639
-23.4,-1.1409,0.41796,0.41322,0.1622
-23.3,-1.1366,0.41512,0.41038,0.1604
-23.2,-1.1322,0.41228,0.40754,0.1586
-23.1,-1.1279,0.40945,0.4047,0.1569
-23,-1.1235,0.40663,0.40185,0.1552
-22.9,-1.1191,0.40384,0.39906,0.1534
-22.8,-1.1148,0.40105,0.39626,0.1517
-22.7,-1.1104,0.39829,0.3935,0.15
-22.6,-1.106,0.39553,0.39073,0.1483
-22.5,-1.1015,0.39279,0.38799,0.1466
-22.4,-1.0971,0.39004,0.38524,0.1449
-22.3,-1.0927,0.38732,0.38252,0.1432
-22.2,-1.0882,0.38462,0.37981,0.1415
-22.1,-1.0838,0.38193,0.37712,0.1399
-22,-1.0793,0.37925,0.37443,0.1382
-21.9,-1.0748,0.37658,0.37176,0.1365
-21.8,-1.0704,0.37395,0.36912,0.1349
-21.7,-1.0659,0.3713,0.36647,0.1332
-21.6,-1.0614,0.36869,0.36385,0.1316
-21.5,-1.0569,0.36608,0.36124,0.1299
-21.4,-1.0524,0.36348,0.35864,0.1283
-21.3,-1.0478,0.3609,0.35606,0.1267
-21.2,-1.0433,0.35833,0.35349,0.1251
-21.1,-1.0388,0.35579,0.35094,0.1234
-21,-1.0342,0.35324,0.34839,0.1218
-20.9,-1.0297,0.35072,0.34587,0.1202
-20.8,-1.0251,0.34821,0.34336,0.1186
-20.7,-1.0205,0.34572,0.34086,0.117
-20.6,-1.0159,0.34324,0.33837,0.1154
-20.5,-1.0113,0.34078,0.33591,0.1138
-20.4,-1.0067,0.33833,0.33346,0.1123
-20.3,-1.0021,0.33589,0.33102,0.1107
-20.2,-0.9975,0.33347,0.3286,0.1091
-20.1,-0.9928,0.33107,0.32619,0.1075
-20,-0.9882,0.32868,0.32381,0.106
-19.9,-0.9835,0.3263,0.3214,0.1044
-19.8,-0.9788,0.32395,0.31904,0.1028
-19.7,-0.9741,0.32159,0.31668,0.1012
-19.6,-0.9693,0.31926,0.31435,0.0996
-19.5,-0.9646,0.31694,0.31203,0.0981
-19.4,-0.9598,0.31464,0.30972,0.0965
-19.3,-0.9551,0.31233,0.30742,0.0949
-19.2,-0.9503,0.31005,0.30513,0.0933
-19.1,-0.9454,0.30777,0.30285,0.0917
-19,-0.9406,0.3055,0.30058,0.0902
-18.9,-0.9357,0.30323,0.29831,0.0886
-18.8,-0.9307,0.30095,0.29602,0.087
-18.7,-0.9258,0.29866,0.29374,0.0854
-18.6,-0.9208,0.29636,0.29144,0.0838
-18.5,-0.9158,0.29403,0.28911,0.0822
-18.4,-0.9107,0.29166,0.28673,0.0806
-18.3,-0.9056,0.28926,0.28434,0.0791
-17.7,-0.8743,0.27455,0.26966,0.0698
-17.6,-0.87,0.2723,0.26741,0.0686
-17.5,-0.8656,0.27007,0.26518,0.0673
-17.4,-0.8613,0.26785,0.26296,0.0661
-17.3,-0.8569,0.26564,0.26075,0.0649
-17.2,-0.8526,0.26345,0.25856,0.0637
-17.1,-0.8482,0.26127,0.25638,0.0624
-17,-0.8438,0.25911,0.25421,0.0612
-16.9,-0.8394,0.25695,0.25206,0.06
-16.8,-0.835,0.25481,0.24991,0.0588
-16.7,-0.8306,0.25268,0.24778,0.0576
-16.6,-0.8262,0.25055,0.24563,0.0564
-16.5,-0.8218,0.24844,0.24352,0.0553
-16.4,-0.8174,0.24634,0.24142,0.0541
-16.3,-0.813,0.24425,0.23933,0.0529
-16.2,-0.8086,0.24217,0.23724,0.0517
-16.1,-0.8042,0.2401,0.23517,0.0506
-16,-0.7997,0.23804,0.23311,0.0494
-15.9,-0.7953,0.23599,0.23106,0.0483
-15.8,-0.7909,0.23394,0.22902,0.0472
-15.7,-0.7864,0.23191,0.22698,0.046
-15.6,-0.782,0.22989,0.22496,0.0449
-15.5,-0.7776,0.22788,0.22295,0.0438
-15.4,-0.7731,0.22588,0.22095,0.0427
-15.3,-0.7687,0.22389,0.21896,0.0416
-15.2,-0.7643,0.22191,0.21698,0.0405
-15.1,-0.7598,0.21993,0.215,0.0394
-15,-0.7554,0.21797,0.21305,0.0383
-14.9,-0.751,0.21602,0.21109,0.0372
-14.8,-0.7466,0.21407,0.20915,0.0362
-14.7,-0.7421,0.21214,0.20722,0.0351
-14.6,-0.7377,0.21021,0.20529,0.0341
-14.5,-0.7333,0.2083,0.20338,0.033
-14.4,-0.7289,0.20639,0.20147,0.032
-14.3,-0.7245,0.2045,0.19958,0.031
-14.2,-0.7201,0.20261,0.19769,0.03
-14.1,-0.7157,0.20073,0.19581,0.0289
-14,-0.7113,0.19886,0.19395,0.0279
-13.9,-0.7068,0.197,0.19209,0.0269
-13.8,-0.7024,0.19514,0.19023,0.0259
-13.7,-0.698,0.19329,0.18838,0.0249
-13.6,-0.6935,0.19145,0.18654,0.0239
-13.5,-0.6891,0.18962,0.18469,0.0229
-13.4,-0.6847,0.18779,0.18286,0.0219
-13.3,-0.6802,0.18598,0.18105,0.021
-13.2,-0.6758,0.18416,0.17924,0.02
-13.1,-0.6714,0.18237,0.17745,0.019
-13,-0.6669,0.18057,0.17566,0.0181
-12.9,-0.6625,0.17879,0.17387,0.0171
-12.8,-0.6581,0.17701,0.1721,0.0161
-12.6,-0.6492,0.17347,0.16856,0.0142
-12.5,-0.6447,0.1717,0.1668,0.0133
-12.4,-0.6402,0.16994,0.16505,0.0123
-12.3,-0.6358,0.16819,0.16329,0.0114
-12.2,-0.6313,0.16643,0.16154,0.0104
-12.1,-0.6268,0.16468,0.1598,0.0095
-12,-0.6222,0.16293,0.15805,0.0086
-11.9,-0.6177,0.16117,0.15629,0.0076
-11.8,-0.6131,0.15942,0.15455,0.0067
-11.7,-0.6085,0.15766,0.15279,0.0057
-11.6,-0.6039,0.15589,0.15103,0.0047
-11.5,-0.5991,0.15411,0.14925,0.0037
-11.4,-0.5942,0.15231,0.14746,0.0027
-11.3,-0.5889,0.15049,0.14564,0.0015
-11,-0.5749,0.14549,0.1407,-0.0017
-10.9,-0.571,0.1439,0.13912,-0.0024
-10.8,-0.5671,0.14233,0.13755,-0.0031
-10.7,-0.5631,0.14077,0.13601,-0.0038
-10.6,-0.5592,0.13924,0.13448,-0.0044
-10.5,-0.5553,0.13771,0.13296,-0.0051
-10.4,-0.5514,0.13621,0.13146,-0.0058
-10.3,-0.5475,0.13472,0.12998,-0.0064
-10.2,-0.5436,0.13324,0.12851,-0.0071
-10.1,-0.5397,0.13179,0.12704,-0.0077
-10,-0.5358,0.13034,0.1256,-0.0084
-9.9,-0.5319,0.12891,0.12418,-0.009
-9.8,-0.5281,0.12749,0.12277,-0.0096
-9.7,-0.5243,0.1261,0.12138,-0.0102
-9.6,-0.5206,0.12471,0.12,-0.0108
-9.5,-0.5169,0.12334,0.11864,-0.0113
-9.4,-0.5132,0.12199,0.1173,-0.0119
-9.3,-0.5097,0.12066,0.11598,-0.0124
-9.2,-0.5062,0.11934,0.11468,-0.0129
-9.1,-0.5028,0.11805,0.1134,-0.0134
-9,-0.4995,0.11677,0.11213,-0.0138
-8.9,-0.4963,0.11551,0.11089,-0.0142
-8.8,-0.4933,0.11428,0.10966,-0.0145
-8.7,-0.4906,0.11309,0.10849,-0.0148
-8.6,-0.488,0.11191,0.10733,-0.0151
-8.5,-0.4856,0.11077,0.10621,-0.0152
-8.4,-0.4834,0.10966,0.10511,-0.0153
-8.3,-0.4815,0.10857,0.10404,-0.0154
-8.2,-0.4799,0.10751,0.10301,-0.0154
-8.1,-0.4785,0.10649,0.10201,-0.0153
-8,-0.4774,0.1055,0.10104,-0.0152
-7.9,-0.4767,0.10455,0.10011,-0.0149
-7.8,-0.4764,0.10364,0.09923,-0.0146
-7.7,-0.4766,0.10277,0.09839,-0.0141
-7.6,-0.4772,0.10195,0.0976,-0.0136
-7.5,-0.4782,0.10118,0.09686,-0.0129
-7.4,-0.4798,0.10045,0.09616,-0.0122
-7.3,-0.4819,0.09976,0.09551,-0.0113
-7.2,-0.4842,0.0991,0.09488,-0.0104
-7.1,-0.4867,0.09844,0.09425,-0.0094
-6.9,-0.4899,0.09696,0.09283,-0.0081
-6.8,-0.4798,0.09518,0.09105,-0.0105
-6.6,-0.459,0.09162,0.08748,-0.0154
-6.5,-0.4475,0.08978,0.08563,-0.0182
-6.4,-0.4374,0.08805,0.08389,-0.0206
-6.3,-0.4266,0.08627,0.08208,-0.0233
-6.2,-0.4149,0.08443,0.08023,-0.0261
-6,-0.3896,0.0805,0.07627,-0.0327
-5.9,-0.3757,0.07842,0.07421,-0.0365
-5.8,-0.3646,0.07676,0.07254,-0.0388
-5.7,-0.3534,0.07517,0.07093,-0.041
-5.6,-0.3414,0.07356,0.06931,-0.0435
-5.5,-0.3285,0.07194,0.06767,-0.0462
-5.4,-0.3194,0.07058,0.0663,-0.0478
-5.3,-0.3082,0.06911,0.06482,-0.0499
-5.2,-0.2957,0.06759,0.06328,-0.0523
-5,-0.2657,0.06453,0.06018,-0.0584
-4.9,-0.2502,0.06284,0.05846,-0.0615
-4.8,-0.235,0.06119,0.05678,-0.0645
-4.7,-0.2246,0.05982,0.0554,-0.0662
-4.6,-0.2102,0.05823,0.05377,-0.0689
-4.5,-0.1943,0.05654,0.05206,-0.0719
-4.4,-0.1759,0.05469,0.05016,-0.0755
-4.3,-0.1571,0.05278,0.0482,-0.0792
-4.2,-0.1365,0.05069,0.04605,-0.0834
-4.1,-0.1124,0.0481,0.04338,-0.0886
-4,-0.092,0.04573,0.04093,-0.0929
-3.8,-0.0639,0.04327,0.0384,-0.0964
-3.7,-0.0466,0.04195,0.03702,-0.0988
-3.6,-0.0273,0.04052,0.03553,-0.1017
-3.3,0.0349,0.0359,0.03065,-0.1108
-3.2,0.0573,0.03413,0.02877,-0.1142
-3.1,0.0811,0.03204,0.02652,-0.1179
-3,0.0987,0.02983,0.02412,-0.1203
-2.9,0.1247,0.02663,0.02062,-0.1248
-2.8,0.1405,0.02592,0.01983,-0.1258
-2.7,0.1568,0.02563,0.01948,-0.1267
-2.6,0.1773,0.02408,0.01769,-0.129
-2.5,0.1995,0.0221,0.0153,-0.1316
-2.4,0.2201,0.02048,0.01327,-0.1337
-2.3,0.2376,0.01999,0.01273,-0.1346
-2.2,0.2549,0.01947,0.01206,-0.1355
-2.1,0.2727,0.01881,0.01119,-0.1365
-2,0.2915,0.01811,0.01021,-0.1376
-1.9,0.301,0.01792,0.01,-0.1368
-1.8,0.3156,0.0176,0.0096,-0.1371
-1.7,0.3318,0.01716,0.00899,-0.1375
-1.6,0.3481,0.01674,0.00843,-0.138
-1.4,0.3809,0.01637,0.00794,-0.1391
-1.3,0.3973,0.01614,0.0077,-0.1396
-1.2,0.4077,0.01604,0.00759,-0.139
-1.1,0.4212,0.01599,0.00747,-0.1389
-1,0.436,0.01585,0.00732,-0.1392
-0.9,0.4519,0.01567,0.0071,-0.1396
-0.8,0.4678,0.01552,0.0069,-0.14
-0.7,0.4838,0.0154,0.0068,-0.1405
-0.6,0.494,0.01542,0.0068,-0.1398
-0.5,0.5073,0.01535,0.00675,-0.1398
-0.4,0.5218,0.01527,0.00665,-0.1399
-0.3,0.5374,0.01514,0.00652,-0.1403
-0.2,0.553,0.01511,0.00648,-0.1406
-0.1,0.5645,0.01506,0.00647,-0.1402
0,0.5772,0.01503,0.00645,-0.1401
0.1,0.5915,0.01498,0.00639,-0.1402
0.2,0.6071,0.01487,0.00632,-0.1405
0.3,0.6195,0.0148,0.00627,-0.1401
0.4,0.6329,0.01471,0.0062,-0.14
0.5,0.6482,0.01453,0.00602,-0.14
0.6,0.6598,0.01452,0.00605,-0.1396
0.7,0.6748,0.01441,0.00594,-0.1397
0.8,0.6888,0.01433,0.00592,-0.1397
0.9,0.7006,0.01428,0.00592,-0.1393
1,0.7172,0.01411,0.00578,-0.1396
1.1,0.7277,0.01411,0.00583,-0.139
1.2,0.7438,0.01394,0.00571,-0.1392
1.3,0.7553,0.01386,0.00574,-0.1388
1.4,0.7708,0.01373,0.0057,-0.139
1.5,0.783,0.01365,0.00577,-0.1387
1.7,0.802,0.01242,0.00555,-0.136
1.8,0.8152,0.01241,0.00551,-0.1356
1.9,0.8304,0.01231,0.00535,-0.1353
2,0.8439,0.01233,0.00535,-0.135
2.1,0.8581,0.01232,0.00534,-0.1348
2.2,0.8724,0.01232,0.00531,-0.1346
2.3,0.8876,0.01225,0.00518,-0.1343
2.4,0.9018,0.01226,0.00514,-0.134
2.5,0.9161,0.01227,0.00508,-0.1336
2.6,0.9294,0.01232,0.00491,-0.1328
2.7,0.941,0.01248,0.0049,-0.1319
2.8,0.9511,0.01272,0.00496,-0.1308
2.9,0.9599,0.01304,0.00507,-0.1296
3,0.9674,0.01344,0.00524,-0.1282
3.1,0.9707,0.0141,0.00553,-0.1263
3.2,0.9778,0.01458,0.00583,-0.1251
3.3,0.9857,0.01503,0.00614,-0.124
3.4,0.9945,0.01543,0.00641,-0.1232
3.5,1.0039,0.01581,0.0067,-0.1224
3.6,1.012,0.01628,0.00703,-0.1214
3.7,1.0224,0.0166,0.00731,-0.1208
3.8,1.0329,0.0169,0.0076,-0.1201
3.9,1.0432,0.01722,0.0079,-0.1194
4,1.0529,0.01758,0.0082,-0.1186
4.1,1.0636,0.01788,0.00849,-0.1179
4.2,1.0743,0.01817,0.00879,-0.1172
4.3,1.0848,0.01849,0.0091,-0.1165
4.5,1.1057,0.0191,0.00971,-0.115
4.6,1.116,0.01943,0.01004,-0.1143
4.7,1.1269,0.01973,0.01039,-0.1135
4.8,1.1372,0.02007,0.01074,-0.1127
4.9,1.1473,0.02039,0.0111,-0.1119
5,1.1578,0.02073,0.01149,-0.1111
5.1,1.1682,0.02109,0.0119,-0.1102
5.2,1.178,0.02148,0.01231,-0.1093
5.3,1.1885,0.02187,0.01278,-0.1083
5.4,1.1983,0.02223,0.01312,-0.1075
5.5,1.2084,0.02266,0.01363,-0.1065
5.6,1.2179,0.02311,0.01413,-0.1055
5.7,1.2274,0.02361,0.01468,-0.1044
5.8,1.2372,0.02414,0.01532,-0.1034
5.9,1.2466,0.02469,0.01596,-0.1023
6,1.2558,0.02514,0.01643,-0.1013
6.1,1.2652,0.02576,0.01717,-0.1001
6.2,1.274,0.02641,0.01793,-0.0989
6.3,1.2822,0.02708,0.01868,-0.0977
6.4,1.2898,0.02784,0.01949,-0.0964
6.5,1.2987,0.02875,0.0206,-0.0952
6.6,1.3071,0.02936,0.02136,-0.094
6.7,1.3137,0.03019,0.02236,-0.0927
6.8,1.3191,0.03108,0.02329,-0.0912
6.9,1.3261,0.03232,0.0248,-0.0899
7,1.3316,0.0336,0.02631,-0.0884
7.1,1.3358,0.03489,0.02782,-0.087
7.2,1.3386,0.03618,0.0293,-0.0854
7.3,1.3398,0.03742,0.03071,-0.0837
7.6,1.3385,0.04063,0.03429,-0.0785
7.7,1.3357,0.04223,0.0361,-0.0769
7.9,1.3276,0.04547,0.0397,-0.0741
8,1.3225,0.04712,0.04151,-0.0728
8.2,1.3109,0.05056,0.04524,-0.0709
8.3,1.3045,0.05235,0.04716,-0.0702
8.5,1.2907,0.05616,0.05121,-0.0697
8.6,1.2836,0.05818,0.05334,-0.0698
8.7,1.2763,0.0603,0.05556,-0.0703
8.9,1.2613,0.06489,0.06034,-0.0722
9,1.254,0.06741,0.06295,-0.0738
9.2,1.2396,0.07293,0.06863,-0.0781
9.4,1.2268,0.07923,0.07506,-0.0842
9.5,1.2212,0.08272,0.07861,-0.0878
9.6,1.2165,0.08636,0.0823,-0.0917
9.7,1.2127,0.09023,0.08621,-0.0956
9.8,1.2096,0.09401,0.09002,-0.0991
9.9,1.2068,0.09755,0.09358,-0.1023
10,1.2043,0.10087,0.09691,-0.1051
10.2,1.2004,0.10705,0.10309,-0.1101
10.3,1.1992,0.10994,0.10598,-0.1124
10.5,1.1979,0.11535,0.11139,-0.1165
10.6,1.1978,0.11789,0.11392,-0.1184
10.7,1.198,0.12031,0.11634,-0.1202
10.8,1.1985,0.12262,0.11866,-0.1219
10.9,1.1993,0.12481,0.12084,-0.1234
11,1.2004,0.1269,0.12293,-0.1249
11.1,1.2015,0.12887,0.1249,-0.1262
11.2,1.2028,0.13074,0.12676,-0.1274
11.5,1.2006,0.14271,0.13867,-0.1371
11.6,1.2021,0.14525,0.14121,-0.1389
11.7,1.2037,0.14771,0.14367,-0.1406
11.8,1.2056,0.1501,0.14606,-0.1422
11.9,1.2076,0.1524,0.14837,-0.1438
12,1.2099,0.15465,0.15061,-0.1453
12.1,1.2122,0.15682,0.15278,-0.1468
12.2,1.2147,0.15893,0.15489,-0.1482
12.3,1.2172,0.16097,0.15693,-0.1496
12.4,1.2199,0.16295,0.15892,-0.1509
12.5,1.2226,0.16487,0.16084,-0.1522
12.6,1.2254,0.16671,0.16268,-0.1534
12.7,1.2281,0.16847,0.16445,-0.1545
12.8,1.2308,0.17018,0.16615,-0.1556
12.9,1.2335,0.17241,0.16835,-0.1571
13,1.2361,0.1758,0.17174,-0.1595
13.1,1.239,0.17874,0.17467,-0.1616
13.2,1.2421,0.18144,0.17737,-0.1635
13.3,1.2453,0.18401,0.17994,-0.1652
13.4,1.2486,0.18645,0.18238,-0.1669
13.5,1.2519,0.18879,0.18473,-0.1685
13.6,1.2553,0.19108,0.18701,-0.17
13.7,1.2588,0.19331,0.18925,-0.1715
13.8,1.2624,0.19549,0.19142,-0.173
13.9,1.2659,0.19763,0.19357,-0.1744
14,1.2696,0.19973,0.19567,-0.1758
14.2,1.2769,0.20309,0.19903,-0.1787
14.3,1.2805,0.20493,0.20088,-0.1799
14.4,1.284,0.20675,0.2027,-0.1812
14.5,1.2876,0.20853,0.20451,-0.1824
14.6,1.291,0.21028,0.20626,-0.1836
14.7,1.2952,0.21311,0.20906,-0.1856
14.8,1.2995,0.21617,0.21212,-0.1877
14.9,1.3038,0.2189,0.21485,-0.1895
15,1.308,0.22145,0.2174,-0.1912
15.1,1.3123,0.22391,0.21986,-0.1929
15.2,1.3164,0.22625,0.2222,-0.1945
15.3,1.3207,0.22859,0.22454,-0.1961
15.4,1.3249,0.23086,0.22681,-0.1976
15.5,1.3291,0.2331,0.22906,-0.1992
15.6,1.3333,0.23532,0.23127,-0.2007
15.7,1.3375,0.23752,0.23348,-0.2022
15.8,1.3417,0.23968,0.23564,-0.2037
15.9,1.3459,0.24183,0.2378,-0.2052
16,1.3501,0.24396,0.23993,-0.2066
16.1,1.3544,0.24608,0.24205,-0.2081
16.2,1.3586,0.24819,0.24416,-0.2096
16.3,1.3628,0.25028,0.24626,-0.211
16.4,1.367,0.25236,0.24834,-0.2125
16.5,1.3712,0.25442,0.25041,-0.2139
16.6,1.3754,0.25649,0.25248,-0.2154
16.7,1.3796,0.25853,0.25453,-0.2168
16.8,1.3838,0.26057,0.25657,-0.2183
16.9,1.388,0.26259,0.2586,-0.2197
17,1.3921,0.26461,0.26062,-0.2212
17.1,1.3962,0.26661,0.26262,-0.2226
17.2,1.4003,0.26861,0.26462,-0.224
17.3,1.4043,0.27058,0.2666,-0.2254
17.4,1.4083,0.27256,0.26859,-0.2268
17.5,1.4134,0.27552,0.27151,-0.2288
17.6,1.4188,0.27875,0.27474,-0.2309
17.7,1.4238,0.28157,0.27756,-0.2328
17.8,1.4286,0.28429,0.28029,-0.2346
17.9,1.4333,0.28688,0.28287,-0.2364
18,1.438,0.28942,0.28542,-0.2381
18.1,1.4426,0.29191,0.28792,-0.2398
18.2,1.4472,0.29441,0.29041,-0.2415
18.3,1.4518,0.29686,0.29287,-0.2431
18.4,1.4564,0.29931,0.29535,-0.2448
18.5,1.4609,0.30174,0.29779,-0.2465
18.6,1.4655,0.30416,0.30021,-0.2481
18.7,1.47,0.30656,0.30262,-0.2498
18.8,1.4745,0.30896,0.30503,-0.2514
18.9,1.479,0.31136,0.30744,-0.2531
19.1,1.488,0.31578,0.31186,-0.2567
19.2,1.4924,0.31812,0.31421,-0.2584
19.3,1.4968,0.32047,0.31656,-0.26
19.4,1.5012,0.32281,0.31891,-0.2617
19.5,1.5056,0.32516,0.32127,-0.2634
19.6,1.51,0.32751,0.32362,-0.265
19.7,1.5144,0.32987,0.32599,-0.2667
19.8,1.5187,0.33223,0.32835,-0.2684
19.9,1.5231,0.33459,0.33071,-0.27
20,1.5274,0.33696,0.33309,-0.2717
20.1,1.5318,0.33932,0.33546,-0.2734
20.2,1.5361,0.3417,0.33784,-0.2751
20.3,1.5404,0.34408,0.34023,-0.2768
20.4,1.5447,0.34648,0.34264,-0.2785
20.5,1.5489,0.34885,0.34501,-0.2802
20.6,1.5532,0.35125,0.34742,-0.2819
20.7,1.5574,0.35366,0.34984,-0.2836
20.8,1.5616,0.35608,0.35226,-0.2853
20.9,1.5658,0.3585,0.35469,-0.2871
21,1.57,0.36091,0.35711,-0.2888
21.1,1.5741,0.36337,0.35957,-0.2905
21.2,1.5788,0.3662,0.36238,-0.2924
21.3,1.5842,0.36971,0.36589,-0.2947
21.4,1.5891,0.37287,0.36905,-0.2967
21.5,1.594,0.37594,0.37213,-0.2987
21.6,1.5986,0.37888,0.37507,-0.3007
21.7,1.6032,0.38179,0.37801,-0.3026
21.8,1.6078,0.38468,0.38091,-0.3046
21.9,1.6123,0.38753,0.38376,-0.3065
22,1.6167,0.39032,0.38656,-0.3084
22.1,1.6212,0.39314,0.38938,-0.3103
22.2,1.6256,0.39595,0.3922,-0.3123
22.3,1.63,0.39875,0.395,-0.3142
22.4,1.6344,0.40155,0.39782,-0.3161
22.5,1.6388,0.40435,0.40062,-0.318
22.6,1.6431,0.40715,0.40342,-0.32
22.7,1.6474,0.40996,0.40624,-0.3219
22.8,1.6517,0.41272,0.40901,-0.3239
22.9,1.656,0.41555,0.41184,-0.3258
23,1.6603,0.41835,0.41465,-0.3278
23.1,1.6645,0.42116,0.41747,-0.3297
23.2,1.6687,0.42399,0.4203,-0.3317
23.3,1.673,0.42679,0.42312,-0.3336
23.4,1.6771,0.42962,0.42595,-0.3356
23.5,1.6813,0.43246,0.42879,-0.3376
23.6,1.6855,0.43532,0.43167,-0.3396
23.7,1.6897,0.43817,0.43452,-0.3415
23.8,1.6938,0.44101,0.43737,-0.3435
23.9,1.6979,0.44388,0.44024,-0.3455
24,1.702,0.44676,0.44313,-0.3475
24.1,1.7061,0.44965,0.44603,-0.3495
24.2,1.7102,0.45254,0.44892,-0.3515
24.3,1.7143,0.45543,0.45182,-0.3535
24.4,1.7183,0.45837,0.45478,-0.3556
24.5,1.7223,0.46128,0.45769,-0.3576
24.6,1.7264,0.46421,0.46063,-0.3596
24.7,1.7304,0.46716,0.46359,-0.3617
24.8,1.7343,0.47011,0.46654,-0.3637
24.9,1.7383,0.47308,0.46952,-0.3658
25,1.7423,0.47607,0.47255,-0.3678
25.1,1.7462,0.47904,0.47553,-0.3699
25.2,1.7501,0.48203,0.47853,-0.3719
25.3,1.754,0.48505,0.48156,-0.374
25.4,1.7579,0.48805,0.48457,-0.3761
25.5,1.7618,0.49111,0.48763,-0.3782
25.6,1.7657,0.49415,0.49068,-0.3803
25.7,1.7695,0.4972,0.49374,-0.3824
25.8,1.7733,0.50028,0.49683,-0.3845
25.9,1.7772,0.50337,0.49993,-0.3866
26,1.781,0.50646,0.50302,-0.3887
26.1,1.7848,0.50956,0.50614,-0.3909
26.2,1.7885,0.51267,0.50925,-0.393
26.3,1.7922,0.51581,0.5124,-0.3951
26.4,1.796,0.51894,0.51554,-0.3973
26.5,1.7997,0.5221,0.5187,-0.3994
26.6,1.8034,0.52526,0.52187,-0.4016
26.7,1.8071,0.52845,0.52508,-0.4038
26.8,1.8107,0.53163,0.52827,-0.4059
27,1.8177,0.53707,0.53373,-0.4104
27.1,1.8213,0.5403,0.53697,-0.4126
27.2,1.8248,0.54355,0.54022,-0.4148
27.3,1.8284,0.5468,0.54348,-0.417
27.4,1.8319,0.55008,0.54677,-0.4192
27.5,1.8354,0.55338,0.55008,-0.4214
27.6,1.8389,0.55669,0.5534,-0.4236
27.7,1.8424,0.56007,0.55679,-0.4258
27.8,1.8458,0.56343,0.56016,-0.428
27.9,1.8493,0.56681,0.56355,-0.4302
28,1.8526,0.57022,0.56697,-0.4324
28.2,1.8617,0.57814,0.57489,-0.4379
28.3,1.8656,0.58179,0.57854,-0.4404
28.4,1.8694,0.58538,0.58213,-0.4429
28.5,1.8732,0.58884,0.5856,-0.4453
28.6,1.8768,0.59227,0.58904,-0.4478
28.7,1.8805,0.5956,0.59238,-0.4503
28.8,1.8841,0.5989,0.59569,-0.4528
28.9,1.8876,0.60228,0.59907,-0.4552
29,1.8912,0.60553,0.60233,-0.4577
29.1,1.8946,0.60887,0.60568,-0.4602
29.2,1.8981,0.6121,0.60892,-0.4627
29.3,1.9015,0.61541,0.61224,-0.4651
29.4,1.9049,0.61872,0.61556,-0.4676
29.5,1.9083,0.62206,0.6189,-0.4701
29.6,1.9117,0.62538,0.62224,-0.4726
29.7,1.9149,0.62872,0.62559,-0.475
29.8,1.9182,0.63203,0.6289,-0.4775
29.9,1.9215,0.63544,0.63232,-0.48
30,1.9247,0.63879,0.63568,-0.4825

