airfoilName st23.dat
Re 	1.700000e+05
M 	5.000000e-01
N 	4.500000e+00
VACC 	0 VACCflag 1
XTR 	1.00 	1.00 XTRflag 0
alpha,cl,cd,cdp,cm
-30,-1.3775,0.62451,0.62073,0.2968
-25.6,-1.2041,0.48483,0.48082,0.2007
-25.5,-1.2,0.4817,0.47769,0.1988
-25.4,-1.196,0.47861,0.47459,0.1969
-25.3,-1.1919,0.47552,0.4715,0.1951
-25.2,-1.1878,0.47244,0.46841,0.1932
-25.1,-1.1837,0.46938,0.46535,0.1913
-25,-1.1796,0.46634,0.4623,0.1895
-24.9,-1.1755,0.46331,0.45927,0.1877
-24.8,-1.1713,0.46029,0.45624,0.1858
-24.7,-1.1672,0.45729,0.45324,0.184
-24.6,-1.163,0.45427,0.45022,0.1822
-24.5,-1.1589,0.45129,0.44723,0.1804
-24.4,-1.1547,0.44832,0.44426,0.1786
-24.3,-1.1505,0.44533,0.44127,0.1768
-24.2,-1.1463,0.44239,0.43831,0.175
-24.1,-1.1421,0.43946,0.43538,0.1732
-24,-1.1379,0.43653,0.43245,0.1714
-23.9,-1.1336,0.43362,0.42953,0.1697
-23.8,-1.1294,0.4307,0.4266,0.1679
-23.7,-1.1251,0.42782,0.42372,0.1662
-23.6,-1.1209,0.42494,0.42084,0.1644
-23.5,-1.1166,0.42207,0.41796,0.1627
-23.4,-1.1123,0.41921,0.4151,0.161
-23.3,-1.108,0.41635,0.41224,0.1593
-23.2,-1.1037,0.41352,0.40941,0.1575
-23.1,-1.0994,0.41072,0.40657,0.1558
-23,-1.0951,0.40788,0.40374,0.1541
-22.9,-1.0907,0.4051,0.40095,0.1524
-22.8,-1.0864,0.40232,0.39817,0.1508
-22.7,-1.0821,0.39954,0.39538,0.1491
-22.6,-1.0777,0.39678,0.39262,0.1474
-22.5,-1.0733,0.39404,0.38987,0.1458
-22.4,-1.069,0.3913,0.38713,0.1441
-22.3,-1.0646,0.38857,0.3844,0.1425
-22.2,-1.0602,0.38586,0.38169,0.1408
-22.1,-1.0558,0.38317,0.37899,0.1392
-22,-1.0514,0.38048,0.3763,0.1376
-21.9,-1.047,0.37781,0.37362,0.1359
-21.8,-1.0426,0.37515,0.37096,0.1343
-21.7,-1.0381,0.37251,0.36832,0.1327
-21.6,-1.0337,0.36988,0.36568,0.1311
-21.5,-1.0293,0.36724,0.36304,0.1295
-21.4,-1.0248,0.36464,0.36044,0.1279
-21.3,-1.0203,0.36203,0.35783,0.1264
-21.2,-1.0159,0.35946,0.35525,0.1248
-21.1,-1.0114,0.35688,0.35267,0.1232
-21,-1.0069,0.35433,0.35012,0.1216
-20.9,-1.0024,0.35179,0.34758,0.1201
-20.8,-0.9979,0.34926,0.34504,0.1185
-20.7,-0.9934,0.34675,0.34253,0.117
-20.6,-0.9889,0.34426,0.34003,0.1154
-20.5,-0.9844,0.34178,0.33755,0.1139
-20.4,-0.9799,0.33929,0.33506,0.1124
-20.3,-0.9754,0.33684,0.3326,0.1108
-20.2,-0.9708,0.33439,0.33016,0.1093
-20.1,-0.9663,0.33197,0.32771,0.1078
-20,-0.9617,0.32955,0.32529,0.1062
-19.9,-0.9572,0.32715,0.32289,0.1047
-19.8,-0.9526,0.32477,0.3205,0.1032
-19.7,-0.948,0.3224,0.31813,0.1017
-19.6,-0.9434,0.32005,0.31578,0.1002
-19.5,-0.9388,0.31771,0.31343,0.0986
-19.4,-0.9342,0.31538,0.31111,0.0971
-19.3,-0.9296,0.31306,0.30879,0.0956
-19.2,-0.925,0.31076,0.30649,0.0941
-19.1,-0.9203,0.30848,0.3042,0.0926
-19,-0.9157,0.3062,0.30192,0.0911
-18.9,-0.911,0.30394,0.29966,0.0895
-18.8,-0.9063,0.30168,0.2974,0.088
-18.7,-0.9016,0.29942,0.29514,0.0865
-18.6,-0.8969,0.29716,0.29288,0.0849
-18.5,-0.8921,0.2949,0.29061,0.0834
-18.4,-0.8873,0.29262,0.28834,0.0818
-18.3,-0.8825,0.29033,0.28605,0.0803
-18.2,-0.8777,0.28801,0.28373,0.0788
-17.8,-0.8543,0.2776,0.27336,0.0716
-17.7,-0.85,0.27532,0.27107,0.0704
-17.6,-0.8458,0.27305,0.2688,0.0692
-17.5,-0.8415,0.27079,0.26654,0.068
-17.4,-0.8372,0.26855,0.2643,0.0668
-17.3,-0.833,0.26633,0.26208,0.0656
-17.2,-0.8287,0.26412,0.25987,0.0644
-17.1,-0.8244,0.26193,0.25767,0.0632
-17,-0.8201,0.25974,0.25549,0.062
-16.9,-0.8158,0.25757,0.25332,0.0609
-16.8,-0.8115,0.25542,0.25114,0.0597
-16.7,-0.8072,0.25327,0.24899,0.0585
-16.6,-0.8028,0.25114,0.24686,0.0574
-16.5,-0.7985,0.24902,0.24474,0.0562
-16.4,-0.7942,0.24691,0.24263,0.055
-16.3,-0.7899,0.24482,0.24053,0.0539
-16.2,-0.7855,0.24273,0.23845,0.0528
-16.1,-0.7812,0.24066,0.23637,0.0516
-16,-0.7769,0.23859,0.23431,0.0505
-15.9,-0.7725,0.23654,0.23225,0.0494
-15.8,-0.7682,0.2345,0.23021,0.0483
-15.7,-0.7639,0.23247,0.22818,0.0471
-15.6,-0.7595,0.23045,0.22616,0.046
-15.5,-0.7552,0.22843,0.22415,0.0449
-15.4,-0.7508,0.22643,0.22214,0.0438
-15.3,-0.7465,0.22443,0.22015,0.0428
-15.2,-0.7421,0.22245,0.21816,0.0417
-15.1,-0.7378,0.22047,0.21618,0.0406
-15,-0.7334,0.2185,0.21422,0.0395
-14.9,-0.7291,0.21654,0.21226,0.0385
-14.8,-0.7248,0.21459,0.21031,0.0374
-14.7,-0.7204,0.21265,0.20837,0.0364
-14.6,-0.7161,0.21072,0.20644,0.0353
-14.5,-0.7118,0.2088,0.20452,0.0343
-14.4,-0.7074,0.20688,0.2026,0.0333
-14.3,-0.7031,0.20498,0.2007,0.0323
-14.2,-0.6988,0.20309,0.19881,0.0313
-14.1,-0.6945,0.2012,0.19692,0.0303
-14,-0.6902,0.19932,0.19505,0.0293
-13.9,-0.6859,0.19745,0.19318,0.0283
-13.8,-0.6816,0.19559,0.19132,0.0273
-13.7,-0.6773,0.19374,0.18944,0.0263
-13.6,-0.673,0.19189,0.1876,0.0253
-13.5,-0.6687,0.19005,0.18576,0.0244
-13.4,-0.6644,0.18822,0.18393,0.0234
-13.3,-0.6601,0.18639,0.1821,0.0224
-13.2,-0.6558,0.18457,0.18028,0.0215
-13.1,-0.6515,0.18275,0.17847,0.0205
-13,-0.6471,0.18094,0.17666,0.0196
-12.9,-0.6428,0.17914,0.17486,0.0186
-12.8,-0.6385,0.17734,0.17306,0.0177
-12.7,-0.6342,0.17554,0.17127,0.0167
-12.6,-0.6299,0.17375,0.16948,0.0158
-12.5,-0.6256,0.17197,0.1677,0.0149
-12.4,-0.6213,0.17019,0.16593,0.0139
-12.3,-0.617,0.16841,0.16415,0.013
-12.2,-0.6127,0.16663,0.16238,0.0121
-12.1,-0.6084,0.16486,0.16061,0.0111
-12,-0.6041,0.16308,0.15883,0.0102
-11.9,-0.5998,0.16131,0.15706,0.0093
-11.8,-0.5954,0.15952,0.15528,0.0084
-11.7,-0.591,0.15774,0.15349,0.0074
-11.6,-0.5866,0.15594,0.1517,0.0065
-11.5,-0.5821,0.15412,0.14989,0.0055
-11.4,-0.5776,0.15229,0.14806,0.0046
-11.3,-0.5729,0.15044,0.14621,0.0035
-11.2,-0.568,0.14852,0.1443,0.0024
-11.1,-0.5624,0.14657,0.14235,0.0009
-11,-0.5583,0.14484,0.14067,-0.0003
-10.9,-0.5545,0.14322,0.13905,-0.001
-10.8,-0.5507,0.14161,0.13745,-0.0016
-10.7,-0.5469,0.14002,0.13586,-0.0023
-10.6,-0.543,0.13845,0.1343,-0.003
-10.5,-0.5392,0.13689,0.13274,-0.0037
-10.4,-0.5353,0.13534,0.1312,-0.0044
-10.3,-0.5315,0.13382,0.12966,-0.0051
-10.2,-0.5276,0.1323,0.12815,-0.0057
-10.1,-0.5238,0.1308,0.12665,-0.0064
-10,-0.5199,0.12932,0.12517,-0.0071
-9.9,-0.5161,0.12784,0.1237,-0.0077
-9.8,-0.5123,0.12638,0.12225,-0.0084
-9.7,-0.5085,0.12494,0.12081,-0.009
-9.6,-0.5047,0.1235,0.11939,-0.0097
-9.5,-0.5009,0.12208,0.11797,-0.0103
-9.4,-0.4972,0.12068,0.11658,-0.0109
-9.3,-0.4935,0.11928,0.11519,-0.0115
-9.2,-0.4899,0.11791,0.11382,-0.0121
-9.1,-0.4863,0.11654,0.11247,-0.0127
-9,-0.4828,0.1152,0.11113,-0.0132
-8.9,-0.4794,0.11386,0.10981,-0.0137
-8.8,-0.476,0.11255,0.10851,-0.0142
-8.7,-0.4728,0.11125,0.10722,-0.0147
-8.6,-0.4697,0.10998,0.10596,-0.0151
-8.5,-0.4667,0.10872,0.10472,-0.0155
-8.3,-0.4614,0.10629,0.10231,-0.0161
-8.2,-0.4591,0.10512,0.10116,-0.0164
-8.1,-0.4571,0.10398,0.10004,-0.0165
-8,-0.4554,0.10288,0.09896,-0.0166
-7.9,-0.454,0.10182,0.09791,-0.0165
-7.8,-0.4529,0.10079,0.0969,-0.0164
-7.7,-0.4523,0.0998,0.09593,-0.0162
-7.6,-0.4521,0.09885,0.09501,-0.0159
-7.5,-0.4525,0.09796,0.09415,-0.0155
-7.4,-0.4534,0.09713,0.09334,-0.0149
-7.3,-0.455,0.09635,0.09259,-0.0142
-7.2,-0.4572,0.09563,0.0919,-0.0133
-7.1,-0.4601,0.09497,0.09127,-0.0123
-7,-0.4634,0.09434,0.09068,-0.0112
-6.8,-0.4624,0.09238,0.08876,-0.0111
-6.7,-0.4527,0.09057,0.08695,-0.0135
-6.6,-0.4428,0.08876,0.08513,-0.016
-6.5,-0.4326,0.08694,0.08328,-0.0186
-6.4,-0.423,0.08517,0.0815,-0.021
-6.3,-0.4122,0.08331,0.07963,-0.0238
-6.2,-0.4015,0.08145,0.07776,-0.0265
-6.1,-0.3901,0.07951,0.07582,-0.0295
-6,-0.3784,0.07752,0.07381,-0.0326
-5.9,-0.3676,0.07554,0.07182,-0.0355
-5.8,-0.3543,0.0732,0.06946,-0.0395
-5.7,-0.3425,0.07137,0.06764,-0.0423
-5.6,-0.3299,0.06966,0.06592,-0.045
-5.5,-0.3173,0.068,0.06425,-0.0478
-5.4,-0.3071,0.06653,0.06276,-0.0498
-5.3,-0.2965,0.06506,0.06128,-0.0519
-5.1,-0.2706,0.0622,0.05839,-0.0572
-5,-0.2562,0.06052,0.05667,-0.0601
-4.9,-0.241,0.05879,0.05492,-0.0633
-4.8,-0.2239,0.05695,0.05304,-0.0669
-4.7,-0.2134,0.05551,0.05159,-0.0686
-4.6,-0.1995,0.05388,0.04993,-0.0712
-4.5,-0.1838,0.05214,0.04814,-0.0743
-4.4,-0.1669,0.05029,0.04626,-0.0776
-4.3,-0.1487,0.04835,0.04426,-0.0812
-4.1,-0.107,0.04378,0.03953,-0.0898
-4,-0.0823,0.04063,0.03626,-0.0954
-3.9,-0.0672,0.03854,0.03411,-0.098
-3.8,-0.0517,0.03724,0.03275,-0.1
-3.5,0.0033,0.03298,0.02825,-0.1074
-3.4,0.0238,0.03135,0.02652,-0.1102
-3.3,0.0441,0.02963,0.02467,-0.113
-3.2,0.066,0.0276,0.02246,-0.1161
-3.1,0.0882,0.02507,0.01968,-0.1194
-3,0.1119,0.02179,0.01593,-0.1232
-2.9,0.1266,0.02,0.0138,-0.1243
-2.8,0.1414,0.01938,0.01308,-0.1248
-2.7,0.1574,0.01871,0.01226,-0.1255
-2.6,0.1742,0.01811,0.01146,-0.1263
-2.5,0.1918,0.01703,0.01003,-0.1273
-2.4,0.2085,0.01639,0.00925,-0.128
-2.3,0.2256,0.01599,0.00875,-0.1287
-2.2,0.2423,0.01558,0.00823,-0.1292
-2.1,0.2564,0.01519,0.0077,-0.1293
-2,0.2685,0.015,0.00746,-0.129
-1.9,0.2833,0.01476,0.00716,-0.1291
-1.8,0.2991,0.01445,0.00676,-0.1295
-1.7,0.315,0.01417,0.00637,-0.1298
-1.6,0.3312,0.01408,0.00631,-0.1303
-1.5,0.3475,0.01385,0.00599,-0.1308
-1.4,0.3582,0.01374,0.00588,-0.1301
-1.3,0.3718,0.01362,0.00575,-0.1301
-1.2,0.3865,0.01355,0.00565,-0.1303
-1.1,0.4022,0.0134,0.00551,-0.1306
-1,0.4179,0.01327,0.00533,-0.131
-0.9,0.4314,0.01319,0.00522,-0.1309
-0.8,0.4432,0.01313,0.00519,-0.1305
-0.7,0.4573,0.0131,0.00515,-0.1306
-0.6,0.4721,0.01301,0.00508,-0.1308
-0.5,0.4879,0.0129,0.00494,-0.1312
-0.4,0.4996,0.01285,0.00491,-0.1307
-0.3,0.5142,0.01274,0.00478,-0.1307
-0.2,0.5282,0.01263,0.00471,-0.1307
-0.1,0.5407,0.01258,0.00466,-0.1304
0,0.5567,0.01243,0.00451,-0.1306
0.1,0.5687,0.01242,0.00453,-0.1303
0.2,0.582,0.01239,0.00453,-0.1302
0.3,0.5964,0.01226,0.0044,-0.1301
0.4,0.6096,0.01222,0.00438,-0.13
0.5,0.6244,0.01213,0.00431,-0.1301
0.6,0.6371,0.01207,0.00427,-0.1298
0.7,0.6514,0.012,0.00424,-0.1298
0.8,0.6646,0.01193,0.00421,-0.1296
0.9,0.6788,0.01187,0.00417,-0.1296
1,0.6925,0.01178,0.0041,-0.1294
1.1,0.7065,0.01168,0.00409,-0.1294
1.2,0.7206,0.01158,0.00403,-0.1293
1.3,0.7345,0.01146,0.00398,-0.1291
1.4,0.7482,0.0113,0.00394,-0.129
1.5,0.7521,0.01015,0.00385,-0.1264
1.6,0.7655,0.01017,0.00386,-0.1261
1.7,0.7789,0.01021,0.00383,-0.1258
1.8,0.7919,0.01024,0.00375,-0.1253
1.9,0.8047,0.0103,0.00373,-0.1248
2,0.8169,0.01039,0.00371,-0.1242
2.1,0.8284,0.01054,0.00371,-0.1234
2.2,0.8375,0.01082,0.00372,-0.1222
2.3,0.8472,0.01109,0.00381,-0.1212
2.4,0.8562,0.0114,0.00394,-0.1202
2.5,0.8646,0.01177,0.00409,-0.1191
2.6,0.8726,0.01218,0.00428,-0.118
2.7,0.8781,0.01279,0.00456,-0.1167
2.8,0.8873,0.01317,0.00477,-0.1159
2.9,0.8972,0.01351,0.00498,-0.1153
3,0.9076,0.01382,0.0052,-0.1147
3.1,0.9184,0.01409,0.00546,-0.1141
3.2,0.9284,0.01443,0.0057,-0.1135
3.3,0.9396,0.01467,0.00592,-0.1129
3.4,0.9506,0.01492,0.00613,-0.1124
3.5,0.9621,0.01514,0.00635,-0.1119
3.6,0.9732,0.0154,0.00658,-0.1113
3.7,0.984,0.01567,0.0068,-0.1107
3.8,0.9955,0.01588,0.00703,-0.1102
3.9,1.0067,0.01613,0.00726,-0.1096
4,1.0182,0.01635,0.0075,-0.109
4.1,1.0294,0.01659,0.00775,-0.1084
4.2,1.0404,0.01684,0.00797,-0.1078
4.3,1.0516,0.0171,0.00823,-0.1072
4.4,1.063,0.01734,0.0085,-0.1065
4.5,1.0738,0.01762,0.00878,-0.1058
4.6,1.0852,0.01787,0.00907,-0.1051
4.7,1.0961,0.01814,0.00937,-0.1045
4.8,1.1072,0.01841,0.00968,-0.1037
4.9,1.1178,0.01873,0.00999,-0.103
5,1.1289,0.01902,0.01035,-0.1022
5.1,1.1396,0.01934,0.01072,-0.1014
5.2,1.1504,0.01964,0.01102,-0.1006
5.3,1.1609,0.01998,0.01141,-0.0997
5.4,1.171,0.02036,0.01181,-0.0988
5.5,1.1815,0.02075,0.01227,-0.0979
5.6,1.1917,0.02116,0.01277,-0.0969
5.7,1.2016,0.02159,0.01327,-0.0959
5.8,1.211,0.02206,0.01378,-0.0948
5.9,1.2215,0.02245,0.01425,-0.0939
6,1.231,0.02296,0.01484,-0.0928
6.1,1.24,0.02348,0.01544,-0.0917
6.2,1.2483,0.02407,0.01606,-0.0905
6.3,1.2573,0.02473,0.01694,-0.0892
6.4,1.2659,0.02545,0.01781,-0.0879
6.6,1.2823,0.02662,0.01917,-0.0855
6.7,1.2892,0.02747,0.02012,-0.0841
6.8,1.2962,0.02847,0.02133,-0.0827
6.9,1.3022,0.02952,0.02259,-0.0812
7,1.3074,0.03061,0.02386,-0.0797
7.1,1.3116,0.03172,0.02515,-0.0782
7.2,1.3146,0.03283,0.02643,-0.0766
7.4,1.3179,0.03472,0.02857,-0.0731
7.6,1.3152,0.03767,0.03193,-0.0696
7.7,1.3124,0.03916,0.0336,-0.068
7.8,1.3088,0.04069,0.0353,-0.0664
7.9,1.3044,0.04223,0.037,-0.065
8,1.2995,0.04383,0.03875,-0.0637
8.1,1.294,0.04547,0.04052,-0.0626
8.2,1.288,0.04715,0.04234,-0.0616
8.3,1.2816,0.04891,0.04423,-0.0609
8.4,1.2749,0.05074,0.04617,-0.0605
8.6,1.2606,0.05465,0.0503,-0.0604
8.8,1.2454,0.059,0.05485,-0.0615
9,1.2298,0.06392,0.05994,-0.0642
9.2,1.2144,0.06961,0.06578,-0.0687
9.3,1.207,0.07282,0.06907,-0.0718
9.5,1.1933,0.08011,0.07649,-0.0792
9.6,1.1876,0.08423,0.08066,-0.0834
9.9,1.1737,0.0959,0.09241,-0.0938
10,1.1699,0.09931,0.09582,-0.0965
10.1,1.1666,0.10254,0.09904,-0.099
10.2,1.1638,0.10563,0.10214,-0.1014
10.3,1.1614,0.10859,0.10509,-0.1036
10.4,1.1596,0.11141,0.10791,-0.1057
10.5,1.1583,0.11412,0.11062,-0.1076
10.6,1.1574,0.11672,0.11321,-0.1095
10.7,1.1569,0.11919,0.11568,-0.1112
10.8,1.1568,0.12153,0.11802,-0.1128
10.9,1.157,0.12377,0.12026,-0.1144
11,1.1575,0.12588,0.12236,-0.1158
11.1,1.1581,0.12788,0.12436,-0.1171
11.4,1.1504,0.14029,0.13672,-0.1261
11.5,1.1509,0.14299,0.13942,-0.1279
11.6,1.1516,0.1456,0.14202,-0.1296
11.7,1.1527,0.14811,0.14454,-0.1312
11.8,1.154,0.15054,0.14697,-0.1328
11.9,1.1556,0.15289,0.14932,-0.1343
12,1.1573,0.15517,0.15159,-0.1358
12.1,1.1593,0.15737,0.15379,-0.1372
12.2,1.1614,0.15949,0.15592,-0.1385
12.3,1.1636,0.16153,0.15796,-0.1398
12.4,1.1659,0.1635,0.15993,-0.1411
12.5,1.1684,0.1654,0.16183,-0.1423
12.6,1.1709,0.16722,0.16365,-0.1435
12.7,1.1733,0.16896,0.16539,-0.1446
12.8,1.1757,0.17068,0.16709,-0.1457
13,1.1792,0.17762,0.17402,-0.1502
13.1,1.1815,0.1805,0.1769,-0.152
13.2,1.1841,0.18316,0.17956,-0.1537
13.3,1.1869,0.18573,0.18213,-0.1554
13.4,1.1898,0.18817,0.18456,-0.1569
13.5,1.1928,0.19052,0.18692,-0.1584
13.6,1.1959,0.1928,0.1892,-0.1599
13.7,1.1991,0.19503,0.19143,-0.1613
13.9,1.2059,0.19874,0.19514,-0.1643
14,1.2093,0.20065,0.19706,-0.1656
14.1,1.2126,0.20248,0.19888,-0.1668
14.2,1.2159,0.20429,0.20072,-0.1681
14.3,1.2192,0.20601,0.20245,-0.1692
14.4,1.2225,0.20775,0.20419,-0.1704
14.5,1.2262,0.21104,0.20745,-0.1725
14.6,1.23,0.21417,0.21058,-0.1745
14.7,1.2338,0.217,0.21341,-0.1763
14.8,1.2376,0.21957,0.21598,-0.1779
14.9,1.2415,0.22204,0.21845,-0.1795
15,1.2454,0.22446,0.22087,-0.1811
15.1,1.2493,0.2268,0.22321,-0.1826
15.2,1.2533,0.22908,0.22549,-0.1841
15.3,1.2573,0.23132,0.22774,-0.1856
15.4,1.2613,0.23353,0.22995,-0.1871
15.5,1.2653,0.23571,0.23212,-0.1885
15.6,1.2693,0.23786,0.23428,-0.19
15.7,1.2733,0.23998,0.2364,-0.1914
15.8,1.2773,0.24209,0.23851,-0.1929
15.9,1.2814,0.24417,0.24059,-0.1943
16,1.2854,0.24624,0.24267,-0.1957
16.1,1.2895,0.24829,0.24472,-0.1971
16.2,1.2935,0.25032,0.24676,-0.1985
16.3,1.2976,0.25233,0.24877,-0.1999
16.4,1.3016,0.25433,0.25077,-0.2013
16.5,1.3056,0.25629,0.25274,-0.2027
16.6,1.3097,0.25826,0.25471,-0.2041
16.7,1.3137,0.26021,0.25667,-0.2055
16.8,1.3176,0.26213,0.25859,-0.2069
16.9,1.3216,0.26406,0.26052,-0.2082
17,1.3262,0.26691,0.26335,-0.2101
17.1,1.3314,0.27039,0.26682,-0.2122
17.2,1.3361,0.27325,0.26969,-0.214
17.3,1.3408,0.276,0.27244,-0.2158
17.4,1.3454,0.27862,0.27506,-0.2175
17.5,1.3499,0.28118,0.27762,-0.2191
17.6,1.3544,0.28369,0.28013,-0.2208
17.7,1.3589,0.28615,0.2826,-0.2224
17.8,1.3634,0.28862,0.28507,-0.224
17.9,1.3679,0.29103,0.28749,-0.2257
18,1.3724,0.29344,0.2899,-0.2273
18.1,1.3769,0.29584,0.29232,-0.2289
18.2,1.3814,0.298,0.29448,-0.2309
18.3,1.3858,0.3003,0.29679,-0.2325
18.4,1.3902,0.30259,0.29908,-0.2341
18.5,1.3946,0.30488,0.30138,-0.2356
18.6,1.399,0.30717,0.30367,-0.2372
18.7,1.4033,0.30945,0.30595,-0.2388
18.8,1.4077,0.31174,0.30825,-0.2404
18.9,1.4121,0.31403,0.31054,-0.2421
19,1.4164,0.3163,0.31283,-0.2437
19.1,1.4208,0.31859,0.31512,-0.2453
19.2,1.4251,0.32086,0.31739,-0.2469
19.3,1.4294,0.32316,0.31969,-0.2485
19.4,1.4337,0.32544,0.32198,-0.2501
19.5,1.438,0.32773,0.32428,-0.2517
19.6,1.4423,0.33004,0.3266,-0.2534
19.7,1.4466,0.33232,0.32887,-0.255
19.8,1.4508,0.3346,0.33116,-0.2566
19.9,1.4551,0.33696,0.33352,-0.2582
20,1.4592,0.33924,0.33581,-0.2598
20.1,1.4634,0.34157,0.33815,-0.2615
20.2,1.4687,0.345,0.34155,-0.2636
20.3,1.4738,0.34834,0.34489,-0.2657
20.4,1.4787,0.35138,0.34793,-0.2676
20.5,1.4834,0.35431,0.35087,-0.2695
20.6,1.4881,0.35721,0.35377,-0.2713
20.7,1.4927,0.36005,0.35662,-0.2732
20.8,1.4974,0.36289,0.35946,-0.2751
20.9,1.5019,0.36566,0.36223,-0.2769
21,1.5065,0.36842,0.365,-0.2787
21.1,1.5109,0.37114,0.36773,-0.2806
21.2,1.5154,0.37387,0.37046,-0.2824
21.3,1.5199,0.3766,0.3732,-0.2842
21.4,1.5244,0.37934,0.37596,-0.2861
21.5,1.5288,0.38204,0.37866,-0.2879
21.6,1.5332,0.38476,0.3814,-0.2898
21.7,1.5376,0.38746,0.3841,-0.2916
21.8,1.542,0.39018,0.38682,-0.2935
21.9,1.5464,0.3929,0.38955,-0.2953
22,1.5507,0.39562,0.39227,-0.2972
22.1,1.5551,0.39835,0.39501,-0.2991
22.2,1.5594,0.40107,0.39773,-0.3009
22.3,1.5637,0.4038,0.40047,-0.3028
22.4,1.568,0.40656,0.40323,-0.3047
22.5,1.5723,0.40929,0.40597,-0.3066
22.6,1.5766,0.41206,0.40875,-0.3084
22.7,1.5809,0.41482,0.41152,-0.3103
22.8,1.5851,0.41759,0.41429,-0.3122
22.9,1.5893,0.42036,0.41707,-0.3141
23,1.5936,0.42315,0.41986,-0.3161
23.1,1.5978,0.42594,0.42266,-0.318
23.2,1.602,0.42875,0.42548,-0.3199
23.3,1.6062,0.43156,0.42829,-0.3218
23.4,1.6104,0.43439,0.43113,-0.3238
23.5,1.6145,0.43722,0.43396,-0.3257
23.6,1.6187,0.44005,0.4368,-0.3276
23.7,1.6228,0.44291,0.43966,-0.3296
23.8,1.6269,0.44577,0.44253,-0.3316
23.9,1.6311,0.44865,0.44542,-0.3335
24,1.6351,0.45151,0.44829,-0.3355
24.1,1.6392,0.45439,0.45117,-0.3375
24.2,1.6433,0.4573,0.45409,-0.3394
24.3,1.6473,0.4602,0.457,-0.3414
24.4,1.6514,0.46312,0.45993,-0.3434
24.5,1.6554,0.46606,0.46287,-0.3454
24.6,1.6594,0.46902,0.46586,-0.3474
24.7,1.6634,0.47196,0.46881,-0.3495
24.8,1.6674,0.47492,0.47178,-0.3515
24.9,1.6713,0.47792,0.47478,-0.3535
25,1.6753,0.4809,0.47777,-0.3555
25.1,1.6793,0.48392,0.4808,-0.3576
25.2,1.6832,0.48692,0.48381,-0.3596
25.3,1.6871,0.48995,0.48684,-0.3617
25.4,1.6909,0.493,0.4899,-0.3637
25.5,1.6948,0.49607,0.49298,-0.3658
25.6,1.6987,0.49913,0.49605,-0.3679
25.7,1.7021,0.50127,0.4982,-0.37
25.8,1.7059,0.50436,0.50129,-0.3721
25.9,1.7097,0.50749,0.50443,-0.3741
26,1.7134,0.51064,0.50758,-0.3762
26.1,1.7171,0.5138,0.51075,-0.3783
26.2,1.7209,0.517,0.51396,-0.3804
26.3,1.7245,0.52022,0.5172,-0.3824
26.4,1.7282,0.52347,0.52045,-0.3845
26.6,1.7379,0.53122,0.52817,-0.3898
26.7,1.7421,0.53473,0.5317,-0.3922
26.8,1.7462,0.53822,0.53518,-0.3945
26.9,1.7504,0.54169,0.53866,-0.3969
27,1.7543,0.54504,0.54202,-0.3992
27.1,1.7583,0.54838,0.54536,-0.4016
27.2,1.7621,0.55165,0.54864,-0.4039
27.3,1.766,0.55492,0.55192,-0.4062
27.4,1.7697,0.55819,0.55519,-0.4085
27.5,1.7735,0.56144,0.55845,-0.4109
27.6,1.7773,0.56471,0.56173,-0.4132
27.7,1.781,0.56794,0.56496,-0.4156
27.8,1.7847,0.57121,0.56826,-0.4179
27.9,1.7884,0.57447,0.57153,-0.4203
28,1.7921,0.57772,0.57479,-0.4226
28.1,1.7957,0.58102,0.57809,-0.4249
28.2,1.7994,0.58428,0.58137,-0.4273
28.3,1.8029,0.58762,0.5847,-0.4296
28.4,1.8065,0.59092,0.58802,-0.432
28.5,1.81,0.59427,0.59138,-0.4344
28.6,1.8135,0.59764,0.59475,-0.4367
28.7,1.817,0.60105,0.59817,-0.4391
28.8,1.8205,0.60441,0.60154,-0.4414
28.9,1.8239,0.6078,0.60494,-0.4438
29,1.8273,0.61123,0.60837,-0.4462
29.1,1.8307,0.6147,0.61186,-0.4485
29.2,1.8341,0.61816,0.61532,-0.4509
29.3,1.8375,0.62167,0.61883,-0.4533
29.4,1.8408,0.62518,0.62235,-0.4557
29.5,1.8442,0.62871,0.62589,-0.458
29.6,1.8475,0.63226,0.62945,-0.4604
29.7,1.8507,0.63578,0.63298,-0.4628
29.8,1.854,0.63939,0.6366,-0.4652
29.9,1.8572,0.64302,0.64024,-0.4676
30,1.8604,0.64664,0.64386,-0.47

