airfoilName st23.dat
Re 	710000
M 	5.000000e-01
N 	4.500000e+00
VACC 	0 VACCflag 1
XTR 	1.00 	1.00 XTRflag 0
alpha,cl,cd,cdp,cm
-28.9,-1.342,0.57571,0.57404,0.2771
-28.8,-1.3385,0.57187,0.57019,0.2751
-28.7,-1.3349,0.56819,0.5665,0.273
-28.6,-1.3313,0.56443,0.56275,0.2709
-28.5,-1.3278,0.56072,0.55903,0.2689
-28.4,-1.3241,0.55721,0.55552,0.2668
-28.3,-1.3205,0.55333,0.55163,0.2648
-28.2,-1.3169,0.54973,0.54802,0.2627
-28.1,-1.3132,0.54615,0.54444,0.2607
-28,-1.3095,0.54256,0.54085,0.2587
-27.9,-1.3058,0.539,0.53729,0.2566
-27.8,-1.3021,0.53547,0.53376,0.2546
-27.7,-1.2983,0.53207,0.53035,0.2525
-27.6,-1.2946,0.52865,0.52693,0.2505
-27.5,-1.2908,0.52517,0.52345,0.2485
-27.4,-1.287,0.52183,0.5201,0.2465
-27.3,-1.2832,0.51856,0.51683,0.2444
-27.2,-1.2793,0.51528,0.51355,0.2424
-27.1,-1.2755,0.51206,0.51032,0.2404
-27,-1.2716,0.50883,0.5071,0.2384
-26.9,-1.2677,0.50565,0.50391,0.2363
-26.8,-1.2638,0.50248,0.50074,0.2343
-26.7,-1.2598,0.49939,0.49765,0.2323
-26.6,-1.2559,0.49631,0.49456,0.2303
-26.5,-1.2519,0.49326,0.49151,0.2283
-26.4,-1.248,0.49022,0.48847,0.2263
-26.3,-1.244,0.48721,0.48545,0.2243
-26.2,-1.24,0.48423,0.48247,0.2223
-26.1,-1.2359,0.48125,0.47948,0.2204
-26,-1.2319,0.47832,0.47655,0.2184
-25.9,-1.2279,0.4754,0.47362,0.2164
-25.8,-1.2238,0.47248,0.47069,0.2145
-25.7,-1.2197,0.4696,0.46781,0.2125
-25.6,-1.2156,0.46673,0.46495,0.2105
-25.5,-1.2115,0.46386,0.46207,0.2086
-25.4,-1.2074,0.46101,0.45922,0.2067
-25.3,-1.2033,0.45817,0.45638,0.2047
-25.2,-1.1991,0.45535,0.45355,0.2028
-25.1,-1.195,0.45255,0.45075,0.2009
-25,-1.1908,0.44976,0.44795,0.199
-24.9,-1.1866,0.44697,0.44516,0.1971
-24.8,-1.1824,0.44421,0.4424,0.1952
-24.7,-1.1782,0.44146,0.43965,0.1933
-24.6,-1.174,0.43872,0.43691,0.1914
-24.5,-1.1698,0.43599,0.43417,0.1895
-24.4,-1.1655,0.43327,0.43145,0.1876
-24.3,-1.1613,0.43057,0.42875,0.1857
-24.2,-1.157,0.42789,0.42607,0.1839
-24.1,-1.1527,0.42521,0.42338,0.182
-24,-1.1484,0.42255,0.42073,0.1802
-23.9,-1.1441,0.41988,0.41805,0.1783
-23.8,-1.1398,0.41724,0.41541,0.1765
-23.7,-1.1355,0.41461,0.41278,0.1747
-23.6,-1.1311,0.41198,0.41015,0.1728
-23.5,-1.1267,0.40995,0.40812,0.1708
-23.4,-1.1223,0.40733,0.40549,0.169
-23.3,-1.1179,0.40471,0.40287,0.1672
-23.2,-1.1136,0.40208,0.40023,0.1655
-23.1,-1.1092,0.39946,0.3976,0.1637
-23,-1.1048,0.39689,0.39503,0.1619
-22.9,-1.1004,0.39429,0.39244,0.1601
-22.8,-1.096,0.39172,0.38986,0.1584
-22.7,-1.0916,0.38915,0.38729,0.1566
-22.6,-1.0871,0.38658,0.38472,0.1549
-22.5,-1.0827,0.38404,0.38217,0.1531
-22.4,-1.0783,0.38149,0.37962,0.1514
-22.3,-1.0738,0.37896,0.37709,0.1497
-22.2,-1.0694,0.37644,0.37457,0.1479
-22.1,-1.0649,0.37391,0.37203,0.1462
-22,-1.0604,0.37143,0.36955,0.1445
-21.9,-1.056,0.36892,0.36704,0.1429
-21.8,-1.0515,0.36643,0.36455,0.1412
-21.7,-1.047,0.36395,0.36207,0.1395
-21.6,-1.0425,0.36149,0.3596,0.1378
-21.5,-1.038,0.35902,0.35714,0.1362
-21.4,-1.0335,0.35657,0.35469,0.1345
-21.3,-1.029,0.35413,0.35224,0.1329
-21.2,-1.0245,0.35169,0.3498,0.1312
-21.1,-1.02,0.34927,0.34738,0.1296
-21,-1.0155,0.34684,0.34495,0.128
-20.9,-1.0109,0.34445,0.34256,0.1263
-20.8,-1.0064,0.34205,0.34015,0.1247
-20.7,-1.0019,0.33964,0.33774,0.1231
-20.6,-0.9973,0.33727,0.33538,0.1215
-20.5,-0.9928,0.3349,0.333,0.1199
-20.4,-0.9882,0.33255,0.33065,0.1183
-20.3,-0.9837,0.33019,0.32829,0.1167
-20.2,-0.9791,0.32785,0.32594,0.1152
-20.1,-0.9745,0.32551,0.32359,0.1136
-20,-0.97,0.32317,0.32125,0.1121
-19.9,-0.9654,0.32085,0.31893,0.1105
-19.8,-0.9608,0.31853,0.31661,0.109
-19.7,-0.9562,0.31623,0.31431,0.1074
-19.6,-0.9516,0.31394,0.31202,0.1059
-19.5,-0.947,0.31163,0.30971,0.1043
-19.4,-0.9425,0.30935,0.30743,0.1028
-19.3,-0.9379,0.30706,0.30514,0.1013
-19.2,-0.9332,0.3048,0.30288,0.0998
-19.1,-0.9286,0.30252,0.3006,0.0983
-19,-0.9241,0.30026,0.29833,0.0968
-18.9,-0.9194,0.298,0.29608,0.0952
-18.8,-0.9147,0.29573,0.29381,0.0937
-18.7,-0.9101,0.29345,0.29153,0.0923
-18.6,-0.9054,0.29118,0.28926,0.0908
-18.5,-0.9007,0.2889,0.28697,0.0892
-18.4,-0.8959,0.2866,0.28468,0.0877
-18.3,-0.891,0.28429,0.28236,0.0862
-18.2,-0.8861,0.28196,0.28004,0.0847
-18.1,-0.8809,0.27969,0.27776,0.083
-18,-0.8756,0.27756,0.27563,0.0813
-17.7,-0.8593,0.27163,0.26973,0.076
-17.6,-0.8551,0.26918,0.26727,0.0749
-17.5,-0.851,0.26671,0.2648,0.0737
-17.4,-0.8468,0.26424,0.26233,0.0726
-17.3,-0.8427,0.26182,0.25991,0.0715
-17.2,-0.8386,0.25938,0.25747,0.0704
-17.1,-0.8344,0.25703,0.25512,0.0693
-17,-0.8303,0.25468,0.25277,0.0681
-16.9,-0.8261,0.25241,0.25048,0.067
-16.8,-0.8219,0.2502,0.24828,0.0658
-16.7,-0.8176,0.24803,0.24611,0.0647
-16.6,-0.8133,0.2459,0.24398,0.0635
-16.5,-0.809,0.24381,0.24188,0.0623
-16.4,-0.8047,0.24174,0.23981,0.0612
-16.3,-0.8004,0.2397,0.23777,0.06
-16.2,-0.7961,0.23768,0.23575,0.0588
-16.1,-0.7917,0.23567,0.23374,0.0576
-16,-0.7874,0.23369,0.23175,0.0565
-15.9,-0.783,0.23171,0.22978,0.0553
-15.8,-0.7786,0.22974,0.22781,0.0541
-15.7,-0.7742,0.2278,0.22587,0.0529
-15.6,-0.7698,0.22585,0.22392,0.0518
-15.5,-0.7654,0.22391,0.22198,0.0506
-15.4,-0.761,0.22198,0.22005,0.0495
-15.3,-0.7566,0.22005,0.21812,0.0483
-15.2,-0.7521,0.21812,0.21619,0.0472
-15.1,-0.7477,0.21621,0.21427,0.046
-15,-0.7432,0.2143,0.21236,0.0449
-14.9,-0.7388,0.21239,0.21046,0.0437
-14.8,-0.7344,0.21049,0.20855,0.0426
-14.7,-0.7299,0.2086,0.20666,0.0415
-14.6,-0.7255,0.20671,0.20478,0.0404
-14.5,-0.7211,0.20483,0.2029,0.0393
-14.4,-0.7167,0.20296,0.20102,0.0382
-14.3,-0.7123,0.20109,0.19916,0.0371
-14.2,-0.7079,0.19923,0.1973,0.036
-14,-0.6987,0.19585,0.19391,0.0335
-13.9,-0.6943,0.19398,0.19204,0.0324
-13.8,-0.6899,0.19212,0.19019,0.0313
-13.7,-0.6856,0.19027,0.18833,0.0303
-13.6,-0.6812,0.18842,0.18648,0.0293
-13.5,-0.6768,0.18657,0.18463,0.0282
-13.4,-0.6724,0.18473,0.18279,0.0272
-13.3,-0.668,0.18289,0.18095,0.0262
-13.2,-0.6636,0.18106,0.17912,0.0251
-13.1,-0.6592,0.17923,0.1773,0.0241
-13,-0.6548,0.17741,0.17547,0.0231
-12.9,-0.6504,0.17559,0.17366,0.0221
-12.8,-0.646,0.17378,0.17185,0.0211
-12.7,-0.6416,0.17197,0.17004,0.0201
-12.6,-0.6372,0.17016,0.16823,0.0191
-12.5,-0.6328,0.16836,0.16643,0.0181
-12.4,-0.6285,0.16656,0.16463,0.0171
-12.3,-0.6241,0.16476,0.16283,0.0162
-12.2,-0.6197,0.16295,0.16103,0.0152
-12.1,-0.6153,0.16114,0.15922,0.0142
-12,-0.6109,0.15931,0.15739,0.0133
-11.9,-0.6065,0.15749,0.15557,0.0123
-11.8,-0.602,0.15561,0.15369,0.0114
-11.7,-0.5975,0.15372,0.1518,0.0104
-11.6,-0.5929,0.15179,0.14987,0.0094
-11.5,-0.5879,0.14979,0.14788,0.0083
-11.4,-0.5828,0.14788,0.14597,0.0072
-11.3,-0.5774,0.14604,0.14413,0.006
-11.1,-0.5672,0.14255,0.14067,0.0037
-11,-0.5637,0.14079,0.13891,0.003
-10.9,-0.56,0.13908,0.13719,0.0023
-10.8,-0.5564,0.13738,0.1355,0.0016
-10.7,-0.5528,0.13571,0.13383,0.0009
-10.6,-0.549,0.13408,0.1322,0.0001
-10.5,-0.5451,0.13249,0.13062,-0.0006
-10.4,-0.5412,0.13094,0.12907,-0.0014
-10.3,-0.5372,0.12942,0.12754,-0.0022
-10.2,-0.5332,0.12793,0.12605,-0.003
-10.1,-0.5292,0.12646,0.12458,-0.0038
-10,-0.5251,0.12501,0.12313,-0.0046
-9.9,-0.521,0.12357,0.1217,-0.0054
-9.8,-0.5169,0.12214,0.12027,-0.0062
-9.7,-0.5128,0.12073,0.11886,-0.0069
-9.6,-0.5086,0.11932,0.11746,-0.0077
-9.5,-0.5045,0.11793,0.11607,-0.0085
-9.4,-0.5005,0.11654,0.11469,-0.0092
-9.3,-0.4965,0.11517,0.11332,-0.01
-9.2,-0.4925,0.11381,0.11197,-0.0107
-9.1,-0.4887,0.11247,0.11063,-0.0114
-9,-0.4849,0.11114,0.1093,-0.012
-8.9,-0.4812,0.10982,0.10799,-0.0126
-8.8,-0.4778,0.10853,0.10671,-0.0132
-8.7,-0.4746,0.10728,0.10546,-0.0137
-8.6,-0.4717,0.10606,0.10425,-0.014
-8.5,-0.4693,0.1049,0.10309,-0.0143
-8.4,-0.4675,0.10378,0.10199,-0.0144
-8.3,-0.4663,0.10274,0.10096,-0.0143
-8.2,-0.4654,0.10173,0.09997,-0.0141
-8.1,-0.4582,0.1001,0.09834,-0.0158
-8,-0.4509,0.09848,0.09671,-0.0175
-7.8,-0.4355,0.09513,0.09336,-0.0214
-7.7,-0.4269,0.09339,0.09162,-0.0235
-7.6,-0.4197,0.09179,0.09001,-0.0251
-7.5,-0.4123,0.09018,0.0884,-0.0269
-7.4,-0.4045,0.08855,0.08676,-0.0287
-7.3,-0.3964,0.08688,0.08509,-0.0307
-7.2,-0.3879,0.0852,0.08341,-0.0328
-7.1,-0.381,0.08366,0.08187,-0.0344
-7,-0.3728,0.082,0.0802,-0.0364
-6.9,-0.3636,0.08027,0.07846,-0.0387
-6.8,-0.3538,0.0785,0.07668,-0.0412
-6.7,-0.3435,0.07665,0.07483,-0.0438
-6.6,-0.3353,0.075,0.07317,-0.0458
-6.5,-0.3262,0.07326,0.07143,-0.048
-6.4,-0.3161,0.0714,0.06956,-0.0506
-6.3,-0.3052,0.06953,0.06768,-0.0533
-6.2,-0.2932,0.06759,0.06573,-0.0563
-6.1,-0.2823,0.0658,0.06392,-0.0589
-6,-0.2724,0.06408,0.06222,-0.0613
-5.9,-0.2625,0.06241,0.06053,-0.0637
-5.8,-0.2518,0.06071,0.05881,-0.0663
-5.7,-0.2402,0.05902,0.0571,-0.069
-5.6,-0.2288,0.05742,0.05549,-0.0716
-5.5,-0.2179,0.0559,0.05396,-0.074
-5.4,-0.2058,0.05436,0.0524,-0.0766
-5.3,-0.1929,0.0528,0.05081,-0.0793
-5.2,-0.1794,0.05122,0.04921,-0.0821
-5.1,-0.1656,0.04964,0.04759,-0.0848
-5,-0.1523,0.0481,0.04604,-0.0874
-4.9,-0.1383,0.04652,0.04443,-0.0901
-4.8,-0.1236,0.0449,0.04277,-0.0929
-4.7,-0.1083,0.04323,0.04106,-0.0957
-4.6,-0.0925,0.04152,0.03931,-0.0986
-4.5,-0.0764,0.03977,0.03752,-0.1015
-4.4,-0.0603,0.038,0.03569,-0.1044
-4.3,-0.0439,0.03616,0.03379,-0.1072
-4.2,-0.0266,0.03422,0.03178,-0.1102
-4,0.0093,0.02995,0.02734,-0.1163
-3.9,0.0307,0.02636,0.02359,-0.1209
-3.7,0.0752,0.01666,0.0132,-0.1313
-3.6,0.0927,0.01378,0.00994,-0.1338
-3.5,0.1083,0.01245,0.00833,-0.1348
-3.4,0.1233,0.01156,0.00722,-0.1352
-3.3,0.1382,0.01088,0.00637,-0.1355
-3.2,0.1527,0.01034,0.00567,-0.1357
-3.1,0.1672,0.0099,0.00508,-0.1357
-3,0.1817,0.00952,0.00457,-0.1357
-2.9,0.196,0.0092,0.00414,-0.1357
-2.8,0.2103,0.00892,0.00376,-0.1356
-2.7,0.2246,0.00869,0.00344,-0.1356
-2.6,0.2386,0.00849,0.00315,-0.1354
-2.5,0.2527,0.00832,0.00292,-0.1353
-2.4,0.2666,0.00816,0.00269,-0.1352
-2.3,0.2806,0.00804,0.00253,-0.1352
-2.2,0.2945,0.00793,0.00239,-0.1351
-2.1,0.3082,0.00785,0.00226,-0.1349
-2,0.3219,0.00777,0.00214,-0.1348
-1.9,0.3356,0.00769,0.00205,-0.1347
-1.8,0.3488,0.00764,0.00196,-0.1345
-1.7,0.3619,0.0076,0.00187,-0.1342
-1.6,0.3755,0.00753,0.00181,-0.1342
-1.5,0.3886,0.0075,0.00176,-0.134
-1.4,0.4019,0.00746,0.0017,-0.1338
-1.3,0.4154,0.00742,0.00164,-0.1337
-1.2,0.4285,0.00741,0.00158,-0.1335
-1.1,0.4419,0.00738,0.00153,-0.1334
-1,0.4553,0.00735,0.00151,-0.1334
-0.9,0.4686,0.00733,0.00147,-0.1332
-0.8,0.4816,0.00733,0.00143,-0.1331
-0.7,0.4946,0.00733,0.0014,-0.1329
-0.6,0.508,0.00732,0.00138,-0.1328
-0.5,0.5207,0.00733,0.00137,-0.1326
-0.4,0.5338,0.00734,0.00135,-0.1325
-0.3,0.5469,0.00735,0.00134,-0.1324
-0.2,0.5601,0.00735,0.00133,-0.1323
-0.1,0.5723,0.00742,0.00133,-0.1319
0,0.5853,0.00744,0.00133,-0.1318
0.1,0.5982,0.00746,0.00134,-0.1316
0.2,0.6103,0.00755,0.00135,-0.1313
0.3,0.6229,0.0076,0.00136,-0.1311
0.4,0.6341,0.00777,0.00139,-0.1306
0.5,0.6458,0.0079,0.00143,-0.1303
0.6,0.6581,0.00799,0.00147,-0.13
0.7,0.6698,0.00813,0.00153,-0.1297
0.8,0.6819,0.00825,0.00159,-0.1294
0.9,0.6919,0.00856,0.00169,-0.1288
1,0.7031,0.00876,0.00178,-0.1284
1.1,0.7142,0.00899,0.00188,-0.128
1.2,0.7255,0.00919,0.00198,-0.1277
1.4,0.7456,0.0099,0.00229,-0.1267
1.5,0.7571,0.0101,0.0024,-0.1264
1.6,0.7691,0.01025,0.00249,-0.1261
1.7,0.7815,0.01036,0.00258,-0.1259
1.8,0.794,0.01046,0.00266,-0.1257
1.9,0.8061,0.01059,0.00276,-0.1255
2,0.8187,0.01068,0.00284,-0.1253
2.1,0.8314,0.01075,0.00292,-0.1251
2.2,0.844,0.01083,0.00299,-0.1249
2.3,0.8564,0.01094,0.00308,-0.1246
2.4,0.8692,0.01099,0.00318,-0.1245
2.6,0.8878,0.00975,0.00346,-0.123
2.7,0.9005,0.00986,0.00355,-0.1228
2.8,0.9132,0.00996,0.00363,-0.1225
2.9,0.9256,0.0101,0.00373,-0.1222
3,0.9383,0.01021,0.00384,-0.1219
3.1,0.9509,0.01034,0.00395,-0.1216
3.2,0.9637,0.01044,0.00404,-0.1213
3.3,0.9763,0.01056,0.00414,-0.1209
3.4,0.9887,0.01071,0.00426,-0.1206
3.5,1.0012,0.01084,0.00437,-0.1202
3.6,1.0139,0.01097,0.00449,-0.1199
3.7,1.0265,0.01109,0.0046,-0.1195
3.8,1.0389,0.01124,0.00474,-0.1191
3.9,1.0513,0.01139,0.00486,-0.1186
4,1.0637,0.01155,0.00501,-0.1182
4.1,1.0763,0.01168,0.00515,-0.1178
4.2,1.0888,0.01183,0.00529,-0.1173
4.3,1.1012,0.012,0.00545,-0.1168
4.4,1.1135,0.01217,0.0056,-0.1163
4.5,1.1257,0.01235,0.00581,-0.1157
4.6,1.1382,0.0125,0.00598,-0.1152
4.7,1.1507,0.01267,0.00615,-0.1147
4.8,1.1629,0.01286,0.00634,-0.1141
4.9,1.1752,0.01304,0.00654,-0.1135
5,1.1877,0.01321,0.00674,-0.1128
5.1,1.1998,0.01342,0.00695,-0.1122
5.2,1.2118,0.01364,0.00719,-0.1115
5.3,1.2242,0.01383,0.00741,-0.1108
5.4,1.2365,0.01403,0.00765,-0.1101
5.5,1.2487,0.01424,0.0079,-0.1093
5.6,1.2608,0.01447,0.00817,-0.1085
5.7,1.2725,0.01474,0.00847,-0.1076
5.8,1.2844,0.015,0.00879,-0.1067
5.9,1.2962,0.01526,0.00914,-0.1058
6,1.3082,0.01551,0.00944,-0.1049
6.1,1.3198,0.01581,0.00979,-0.1039
6.2,1.331,0.01614,0.01018,-0.1029
6.3,1.3425,0.01645,0.01055,-0.1018
6.4,1.3535,0.01681,0.011,-0.1007
6.5,1.3643,0.0172,0.01147,-0.0995
6.6,1.3746,0.01765,0.01201,-0.0982
6.7,1.3838,0.01821,0.01269,-0.0966
6.9,1.4017,0.01937,0.0141,-0.0936
7,1.4091,0.02011,0.01499,-0.0918
7.1,1.415,0.02097,0.01602,-0.0899
7.2,1.4187,0.02205,0.0173,-0.0878
7.3,1.4211,0.02323,0.01869,-0.0856
7.4,1.4221,0.0245,0.02017,-0.0834
7.5,1.4218,0.02585,0.02171,-0.0811
7.6,1.4196,0.02719,0.02324,-0.0787
7.7,1.4162,0.02856,0.02478,-0.0762
7.8,1.4119,0.02998,0.02637,-0.0738
7.9,1.4069,0.03145,0.02799,-0.0716
8,1.4012,0.03297,0.02966,-0.0694
8.2,1.3882,0.03615,0.03311,-0.0656
8.4,1.3736,0.03953,0.03674,-0.0627
8.6,1.3578,0.04316,0.04058,-0.0606
8.7,1.3496,0.04508,0.04261,-0.06
8.9,1.333,0.0492,0.04691,-0.0598
9,1.3246,0.05141,0.04921,-0.0601
9.1,1.3163,0.05374,0.05162,-0.0609
9.2,1.3081,0.05621,0.05417,-0.0621
9.3,1.3,0.05883,0.05687,-0.0637
9.4,1.2922,0.06168,0.05979,-0.0659
9.5,1.2848,0.06477,0.06295,-0.0686
9.7,1.2716,0.07203,0.07035,-0.0756
9.8,1.2662,0.07655,0.07494,-0.08
10,1.2561,0.08552,0.08401,-0.0886
10.1,1.2506,0.0893,0.0878,-0.092
10.2,1.2451,0.09293,0.09144,-0.0951
10.5,1.2299,0.10338,0.10189,-0.1036
10.6,1.2254,0.10676,0.10526,-0.1062
10.7,1.2211,0.1101,0.1086,-0.1088
10.8,1.2171,0.1134,0.1119,-0.1113
10.9,1.2135,0.11668,0.11518,-0.1137
11,1.2102,0.1199,0.1184,-0.1161
11.1,1.2072,0.12309,0.12158,-0.1184
11.2,1.2046,0.12626,0.12475,-0.1207
11.3,1.2024,0.12937,0.12785,-0.1229
11.4,1.2006,0.13242,0.1309,-0.1251
11.5,1.1992,0.13543,0.13391,-0.1272
11.6,1.1982,0.13837,0.13685,-0.1292
11.7,1.1976,0.14122,0.1397,-0.1312
11.8,1.1972,0.14402,0.14249,-0.1331
11.9,1.1972,0.14674,0.14521,-0.1349
12,1.1974,0.14945,0.14791,-0.1368
12.1,1.1979,0.15206,0.15052,-0.1386
12.2,1.1987,0.15462,0.15308,-0.1403
12.3,1.1998,0.15714,0.1556,-0.1421
12.4,1.2011,0.15959,0.15805,-0.1438
12.5,1.2022,0.16212,0.16056,-0.1455
12.6,1.2017,0.16532,0.16376,-0.1475
12.7,1.2017,0.16843,0.16688,-0.1495
12.8,1.2023,0.17141,0.16985,-0.1514
12.9,1.2033,0.17428,0.17272,-0.1532
13,1.2046,0.17716,0.1756,-0.155
13.1,1.2062,0.17988,0.17831,-0.1567
13.2,1.208,0.18252,0.18096,-0.1583
13.3,1.21,0.18514,0.18357,-0.16
13.4,1.2123,0.18768,0.18611,-0.1616
13.5,1.2146,0.19015,0.18859,-0.1632
13.6,1.2172,0.19259,0.19102,-0.1648
13.7,1.2198,0.19499,0.19343,-0.1663
13.8,1.2226,0.19736,0.1958,-0.1679
13.9,1.2255,0.19967,0.19812,-0.1694
14,1.2285,0.20196,0.20041,-0.1709
14.1,1.2315,0.20422,0.20266,-0.1725
14.4,1.2419,0.21006,0.20851,-0.177
14.5,1.2451,0.21213,0.21058,-0.1786
14.6,1.2484,0.21414,0.21259,-0.1801
14.7,1.2517,0.21614,0.21458,-0.1816
14.8,1.2549,0.21816,0.21661,-0.1831
14.9,1.2583,0.22107,0.21951,-0.1848
15,1.2617,0.22418,0.22261,-0.1864
15.1,1.2653,0.22697,0.22541,-0.188
15.2,1.2689,0.22967,0.22811,-0.1896
15.3,1.2727,0.23223,0.23066,-0.1912
15.4,1.2764,0.23474,0.23317,-0.1927
15.5,1.2803,0.23721,0.23565,-0.1943
15.6,1.2842,0.2396,0.23804,-0.1958
15.7,1.2881,0.24199,0.24043,-0.1974
15.8,1.2921,0.24434,0.24278,-0.1989
15.9,1.2961,0.24666,0.2451,-0.2004
16,1.3001,0.249,0.24744,-0.202
16.1,1.3041,0.2513,0.24975,-0.2035
16.2,1.3082,0.25359,0.25203,-0.2051
16.3,1.3122,0.25585,0.2543,-0.2066
16.4,1.3163,0.2581,0.25654,-0.2081
16.5,1.3204,0.26034,0.25878,-0.2097
16.6,1.3245,0.26256,0.26101,-0.2112
16.7,1.3287,0.26477,0.26322,-0.2127
16.8,1.3328,0.26697,0.26542,-0.2143
16.9,1.337,0.26914,0.2676,-0.2158
17,1.3411,0.27134,0.26979,-0.2174
17.1,1.3453,0.27348,0.27194,-0.2189
17.2,1.3495,0.27567,0.27412,-0.2205
17.3,1.3537,0.2778,0.27626,-0.222
17.4,1.3579,0.27998,0.27844,-0.2236
17.5,1.3621,0.28212,0.28058,-0.2252
17.6,1.3662,0.28427,0.28273,-0.2267
17.7,1.3705,0.28642,0.28489,-0.2283
17.8,1.3746,0.28852,0.28699,-0.2299
17.9,1.3788,0.29065,0.28913,-0.2315
18,1.3829,0.29279,0.29128,-0.2331
18.1,1.3871,0.29497,0.29345,-0.2346
18.2,1.3912,0.29712,0.29561,-0.2362
18.3,1.3954,0.29932,0.29781,-0.2378
18.4,1.3995,0.30154,0.30003,-0.2394
18.5,1.4037,0.30376,0.30226,-0.241
18.6,1.4078,0.30604,0.30454,-0.2426
18.7,1.4118,0.30832,0.30682,-0.2442
18.8,1.4162,0.31079,0.30928,-0.2458
18.9,1.421,0.31359,0.31208,-0.2476
19,1.4259,0.31655,0.31504,-0.2494
19.1,1.4307,0.31944,0.31792,-0.2511
19.2,1.4355,0.32254,0.32103,-0.2529
19.3,1.4401,0.32524,0.32374,-0.2546
19.4,1.4447,0.32799,0.32648,-0.2563
19.5,1.4492,0.33063,0.32913,-0.258
19.6,1.4538,0.33333,0.33183,-0.2597
19.7,1.4583,0.33611,0.33461,-0.2614
19.8,1.4629,0.33885,0.33735,-0.2632
19.9,1.4673,0.34134,0.33984,-0.2649
20,1.4718,0.34403,0.34254,-0.2666
20.1,1.4763,0.34671,0.34521,-0.2684
20.2,1.4808,0.34936,0.34787,-0.2701
20.3,1.4852,0.35198,0.35049,-0.2719
20.4,1.4896,0.35458,0.35309,-0.2736
20.5,1.494,0.35717,0.35568,-0.2754
20.6,1.4985,0.3598,0.35832,-0.2771
20.7,1.5028,0.36241,0.36093,-0.2789
20.8,1.5073,0.36507,0.36359,-0.2807
20.9,1.5117,0.36768,0.36621,-0.2825
21,1.516,0.3703,0.36883,-0.2843
21.1,1.5204,0.37291,0.37144,-0.2861
21.2,1.5248,0.37555,0.37408,-0.2879
21.3,1.5291,0.3782,0.37674,-0.2897
21.4,1.5335,0.38085,0.3794,-0.2915
21.5,1.5378,0.38347,0.38202,-0.2933
21.6,1.5422,0.38614,0.38469,-0.2952
21.7,1.5465,0.38877,0.38733,-0.297
21.8,1.5508,0.39143,0.39,-0.2989
21.9,1.5554,0.39405,0.39261,-0.301
22,1.5597,0.39668,0.39524,-0.3029
22.1,1.564,0.39931,0.39788,-0.3047
22.2,1.5682,0.40194,0.40052,-0.3066
22.3,1.5725,0.40458,0.40316,-0.3085
22.4,1.5768,0.40723,0.40581,-0.3104
22.5,1.581,0.40987,0.40845,-0.3123
22.6,1.5852,0.41252,0.4111,-0.3143
22.7,1.5895,0.41517,0.41376,-0.3162
22.8,1.5936,0.41782,0.41642,-0.3181
22.9,1.5978,0.42048,0.41908,-0.32
23,1.602,0.42314,0.42174,-0.322
23.1,1.6062,0.42579,0.42439,-0.3239
23.2,1.6104,0.42846,0.42707,-0.3259
23.3,1.6145,0.43112,0.42973,-0.3279
23.4,1.6186,0.43379,0.4324,-0.3298
23.5,1.6228,0.43646,0.43507,-0.3318
23.6,1.6269,0.43911,0.43773,-0.3338
23.7,1.6309,0.44179,0.44041,-0.3358
23.8,1.635,0.44445,0.44308,-0.3378
23.9,1.639,0.44711,0.44574,-0.3398
24,1.6431,0.4498,0.44844,-0.3418
24.1,1.6471,0.45252,0.45116,-0.3438
24.2,1.6511,0.45514,0.45378,-0.3458
24.3,1.655,0.45787,0.45651,-0.3478
24.4,1.659,0.46057,0.45921,-0.3498
24.5,1.6629,0.46329,0.46195,-0.3518
24.6,1.6669,0.46601,0.46467,-0.3539
24.7,1.6708,0.46878,0.46745,-0.3559
24.8,1.6747,0.47156,0.47023,-0.3579
24.9,1.6785,0.47431,0.47298,-0.36
25,1.6824,0.47712,0.4758,-0.362
25.1,1.6863,0.47998,0.47866,-0.3641
25.2,1.6901,0.48284,0.48152,-0.3661
25.3,1.6939,0.48573,0.48442,-0.3682
25.4,1.6977,0.48869,0.48738,-0.3702
25.5,1.7014,0.49167,0.49037,-0.3723
25.6,1.7052,0.49472,0.49342,-0.3743
25.7,1.7089,0.49781,0.49652,-0.3764
25.8,1.7127,0.50087,0.49957,-0.3785
25.9,1.7165,0.50409,0.5028,-0.3805
26,1.7202,0.50725,0.50596,-0.3826
26.1,1.7239,0.51043,0.50915,-0.3847
26.2,1.7276,0.51365,0.51238,-0.3867
26.3,1.7313,0.51693,0.51566,-0.3888
26.4,1.735,0.52019,0.51892,-0.3909
26.5,1.7387,0.52361,0.52234,-0.3929
26.6,1.7423,0.52693,0.52567,-0.395
26.7,1.746,0.53017,0.52891,-0.3972
26.8,1.7496,0.53351,0.53226,-0.3993
27.1,1.7633,0.54291,0.54164,-0.4072
27.2,1.7672,0.54626,0.545,-0.4095
27.3,1.7712,0.54968,0.54842,-0.4118
27.4,1.775,0.55306,0.5518,-0.4141
27.5,1.7788,0.55642,0.55517,-0.4164
27.6,1.7827,0.55986,0.55861,-0.4188
27.7,1.7865,0.56331,0.56206,-0.4211
27.8,1.7902,0.56667,0.56543,-0.4234
27.9,1.794,0.57006,0.56883,-0.4258
28,1.7977,0.57341,0.57219,-0.4281
28.1,1.8013,0.57673,0.5755,-0.4304
28.2,1.805,0.58004,0.57882,-0.4328
28.3,1.8085,0.5833,0.58209,-0.4352
28.4,1.8122,0.5866,0.58539,-0.4376
28.5,1.8157,0.58987,0.58866,-0.4399
28.6,1.8192,0.59317,0.59197,-0.4423
28.7,1.8227,0.59648,0.59528,-0.4447
28.8,1.8262,0.59971,0.59852,-0.4471
28.9,1.8297,0.60299,0.6018,-0.4495
29,1.8331,0.60627,0.60508,-0.4519
29.1,1.8365,0.60956,0.60837,-0.4543
29.2,1.8399,0.61282,0.61164,-0.4567
29.3,1.8438,0.61488,0.6137,-0.4596
29.4,1.8472,0.61809,0.61692,-0.4621
29.5,1.8505,0.62129,0.62011,-0.4645
29.6,1.8538,0.62451,0.62334,-0.467
29.7,1.8571,0.62775,0.62658,-0.4694
29.8,1.8604,0.63101,0.62985,-0.4719
29.9,1.8636,0.63429,0.63313,-0.4743
30,1.8668,0.63753,0.63638,-0.4768

