airfoilName st23.dat
Re 	7.300000e+05
M 	5.000000e-01
N 	4.500000e+00
VACC 	0 VACCflag 1
XTR 	1.00 	1.00 XTRflag 0
alpha,cl,cd,cdp,cm
-28.7,-1.3347,0.56879,0.56714,0.2728
-28.6,-1.3312,0.56502,0.56336,0.2708
-28.5,-1.3276,0.56128,0.55961,0.2688
-28.4,-1.3239,0.55775,0.55608,0.2667
-28.3,-1.3203,0.55381,0.55214,0.2647
-28.2,-1.3167,0.55017,0.5485,0.2627
-28.1,-1.3131,0.54656,0.54488,0.2606
-28,-1.3094,0.54292,0.54124,0.2586
-27.9,-1.3057,0.53932,0.53763,0.2565
-27.8,-1.302,0.53574,0.53405,0.2545
-27.7,-1.2982,0.5323,0.53062,0.2525
-27.6,-1.2945,0.52884,0.52715,0.2505
-27.5,-1.2907,0.52531,0.52362,0.2485
-27.4,-1.2869,0.52193,0.52023,0.2464
-27.3,-1.2831,0.51862,0.51692,0.2444
-27.2,-1.2793,0.51531,0.51361,0.2424
-27.1,-1.2754,0.51206,0.51035,0.2404
-27,-1.2715,0.50881,0.5071,0.2384
-26.9,-1.2677,0.50559,0.50388,0.2364
-26.8,-1.2638,0.5024,0.50068,0.2344
-26.7,-1.2598,0.49929,0.49757,0.2324
-26.6,-1.2559,0.49619,0.49446,0.2304
-26.5,-1.2519,0.49313,0.4914,0.2284
-26.4,-1.248,0.49007,0.48835,0.2264
-26.3,-1.244,0.48705,0.48532,0.2244
-26.2,-1.24,0.48406,0.48233,0.2224
-26.1,-1.236,0.48108,0.47933,0.2204
-26,-1.2319,0.47814,0.4764,0.2184
-25.9,-1.2279,0.47521,0.47346,0.2165
-25.8,-1.2238,0.47228,0.47053,0.2145
-25.7,-1.2197,0.4694,0.46765,0.2125
-25.6,-1.2156,0.46654,0.46479,0.2106
-25.5,-1.2115,0.46367,0.46191,0.2086
-25.4,-1.2074,0.46083,0.45906,0.2067
-25.3,-1.2033,0.45799,0.45623,0.2048
-25.2,-1.1991,0.45517,0.4534,0.2028
-25.1,-1.195,0.45238,0.45061,0.2009
-25,-1.1908,0.44959,0.44782,0.199
-24.9,-1.1866,0.4468,0.44503,0.1971
-24.8,-1.1825,0.44405,0.44227,0.1952
-24.7,-1.1783,0.4413,0.43952,0.1933
-24.6,-1.174,0.43856,0.43678,0.1914
-24.5,-1.1698,0.43583,0.43405,0.1895
-24.4,-1.1656,0.43312,0.43133,0.1877
-24.3,-1.1613,0.43042,0.42863,0.1858
-24.2,-1.157,0.42774,0.42595,0.1839
-24.1,-1.1528,0.42506,0.42326,0.1821
-24,-1.1485,0.4224,0.42061,0.1802
-23.9,-1.1442,0.41973,0.41793,0.1784
-23.8,-1.1398,0.41709,0.41529,0.1765
-23.7,-1.1355,0.41446,0.41265,0.1747
-23.6,-1.1312,0.41183,0.41003,0.1729
-23.4,-1.1224,0.40717,0.40536,0.1691
-23.3,-1.118,0.40455,0.40274,0.1673
-23.2,-1.1137,0.40191,0.40009,0.1655
-23.1,-1.1093,0.39929,0.39746,0.1637
-23,-1.1049,0.39672,0.3949,0.162
-22.9,-1.1005,0.39412,0.3923,0.1602
-22.8,-1.0961,0.39155,0.38972,0.1584
-22.7,-1.0917,0.38898,0.38715,0.1567
-22.6,-1.0872,0.38641,0.38457,0.1549
-22.5,-1.0828,0.38387,0.38203,0.1532
-22.4,-1.0784,0.38131,0.37948,0.1515
-22.3,-1.0739,0.37879,0.37695,0.1498
-22.2,-1.0695,0.37626,0.37442,0.148
-22.1,-1.065,0.37373,0.37189,0.1463
-22,-1.0606,0.37125,0.36941,0.1446
-21.9,-1.0561,0.36874,0.3669,0.1429
-21.8,-1.0516,0.36626,0.36441,0.1413
-21.7,-1.0471,0.36378,0.36193,0.1396
-21.6,-1.0427,0.36131,0.35946,0.1379
-21.5,-1.0382,0.35885,0.357,0.1363
-21.4,-1.0337,0.3564,0.35455,0.1346
-21.3,-1.0292,0.35395,0.3521,0.133
-21.2,-1.0247,0.35152,0.34966,0.1313
-21.1,-1.0201,0.3491,0.34724,0.1297
-21,-1.0156,0.34667,0.34481,0.1281
-20.9,-1.0111,0.34427,0.34241,0.1264
-20.8,-1.0066,0.34187,0.34001,0.1248
-20.7,-1.002,0.33947,0.3376,0.1232
-20.6,-0.9975,0.3371,0.33523,0.1216
-20.5,-0.993,0.33473,0.33286,0.1201
-20.4,-0.9884,0.33237,0.3305,0.1185
-20.3,-0.9838,0.33002,0.32815,0.1169
-20.2,-0.9793,0.32768,0.3258,0.1153
-20.1,-0.9747,0.32533,0.32345,0.1137
-20,-0.9701,0.32299,0.32111,0.1122
-19.9,-0.9656,0.32067,0.31879,0.1106
-19.8,-0.961,0.31836,0.31647,0.1091
-19.7,-0.9564,0.31606,0.31417,0.1076
-19.6,-0.9519,0.31377,0.31188,0.106
-19.5,-0.9473,0.31147,0.30958,0.1045
-19.4,-0.9427,0.30918,0.30729,0.103
-19.3,-0.9381,0.3069,0.30501,0.1015
-19.2,-0.9335,0.30464,0.30275,0.0999
-19.1,-0.9289,0.30237,0.30048,0.0985
-19,-0.9243,0.30011,0.29822,0.097
-18.9,-0.9197,0.29786,0.29597,0.0954
-18.8,-0.915,0.2956,0.2937,0.094
-18.7,-0.9104,0.29334,0.29144,0.0925
-18.6,-0.9058,0.29108,0.28919,0.091
-18.5,-0.901,0.28882,0.28692,0.0895
-18.4,-0.8963,0.28654,0.28464,0.088
-18.3,-0.8915,0.28426,0.28237,0.0864
-18.2,-0.8868,0.28195,0.28006,0.085
-18.1,-0.8817,0.27962,0.27772,0.0834
-18,-0.8766,0.27735,0.27545,0.0818
-17.9,-0.8714,0.27517,0.27327,0.0801
-17.6,-0.8549,0.26935,0.26747,0.0747
-17.5,-0.8508,0.26688,0.265,0.0736
-17.4,-0.8466,0.26441,0.26253,0.0725
-17.3,-0.8424,0.26198,0.2601,0.0714
-17.2,-0.8384,0.25951,0.25763,0.0703
-17.1,-0.8342,0.25712,0.25524,0.0692
-17,-0.8302,0.25472,0.25284,0.0681
-16.9,-0.826,0.25242,0.25052,0.067
-16.8,-0.8218,0.25018,0.24828,0.0658
-16.7,-0.8176,0.24798,0.24608,0.0647
-16.6,-0.8133,0.24582,0.24393,0.0635
-16.5,-0.809,0.24371,0.24181,0.0624
-16.4,-0.8048,0.24163,0.23973,0.0612
-16.3,-0.8004,0.23958,0.23768,0.06
-16.2,-0.7961,0.23755,0.23565,0.0589
-16.1,-0.7918,0.23554,0.23364,0.0577
-16,-0.7874,0.23355,0.23165,0.0565
-15.9,-0.7831,0.23157,0.22967,0.0553
-15.8,-0.7787,0.2296,0.2277,0.0542
-15.7,-0.7743,0.22766,0.22575,0.053
-15.6,-0.7699,0.22571,0.22381,0.0519
-15.5,-0.7655,0.22377,0.22187,0.0507
-15.4,-0.7611,0.22184,0.21994,0.0495
-15.3,-0.7567,0.21991,0.21801,0.0484
-15.2,-0.7523,0.21799,0.21609,0.0472
-15.1,-0.7478,0.21608,0.21417,0.0461
-15,-0.7434,0.21417,0.21226,0.045
-14.9,-0.7389,0.21227,0.21036,0.0438
-14.8,-0.7345,0.21037,0.20846,0.0427
-14.7,-0.7301,0.20848,0.20658,0.0416
-14.6,-0.7257,0.20659,0.20469,0.0405
-14.5,-0.7212,0.20472,0.20282,0.0394
-14.4,-0.7168,0.20285,0.20095,0.0383
-14.3,-0.7124,0.20099,0.19908,0.0372
-14.2,-0.708,0.19913,0.19723,0.0361
-14.1,-0.7036,0.19728,0.19538,0.035
-14,-0.6989,0.19576,0.19386,0.0335
-13.9,-0.6945,0.19389,0.19199,0.0325
-13.8,-0.6901,0.19204,0.19014,0.0314
-13.7,-0.6857,0.19019,0.18828,0.0304
-13.6,-0.6813,0.18834,0.18644,0.0293
-13.5,-0.677,0.1865,0.18459,0.0283
-13.4,-0.6726,0.18466,0.18275,0.0273
-13.3,-0.6682,0.18283,0.18092,0.0263
-13.2,-0.6637,0.181,0.17909,0.0252
-13.1,-0.6593,0.17917,0.17727,0.0242
-13,-0.6549,0.17736,0.17545,0.0232
-12.9,-0.6505,0.17554,0.17364,0.0222
-12.8,-0.6462,0.17374,0.17183,0.0212
-12.7,-0.6418,0.17193,0.17003,0.0202
-12.6,-0.6374,0.17013,0.16823,0.0192
-12.5,-0.633,0.16834,0.16644,0.0182
-12.4,-0.6286,0.16654,0.16464,0.0172
-12.3,-0.6243,0.16475,0.16286,0.0163
-12.2,-0.6199,0.16296,0.16106,0.0153
-12.1,-0.6155,0.16116,0.15927,0.0143
-12,-0.6112,0.15935,0.15746,0.0134
-11.9,-0.6068,0.15755,0.15566,0.0124
-11.8,-0.6023,0.1557,0.15381,0.0114
-11.7,-0.5978,0.15384,0.15195,0.0105
-11.6,-0.5933,0.15194,0.15006,0.0095
-11.5,-0.5886,0.14997,0.14809,0.0085
-11.4,-0.5837,0.14802,0.14614,0.0075
-11.3,-0.5785,0.14611,0.14423,0.0063
-11.2,-0.573,0.14429,0.14242,0.0051
-11,-0.5632,0.14081,0.13896,0.0029
-10.9,-0.5596,0.13908,0.13723,0.0022
-10.8,-0.556,0.13737,0.13552,0.0015
-10.7,-0.5525,0.13567,0.13382,0.0008
-10.6,-0.5488,0.13402,0.13217,0.0001
-10.5,-0.545,0.13241,0.13056,-0.0007
-10.4,-0.5411,0.13084,0.129,-0.0014
-10.3,-0.5372,0.12931,0.12746,-0.0022
-10.2,-0.5332,0.12781,0.12596,-0.003
-10.1,-0.5292,0.12633,0.12448,-0.0038
-10,-0.5251,0.12487,0.12303,-0.0046
-9.9,-0.521,0.12343,0.12159,-0.0054
-9.8,-0.5169,0.12201,0.12017,-0.0061
-9.7,-0.5128,0.12059,0.11876,-0.0069
-9.6,-0.5087,0.11918,0.11735,-0.0077
-9.5,-0.5046,0.11779,0.11597,-0.0085
-9.4,-0.5005,0.11641,0.11459,-0.0092
-9.3,-0.4965,0.11504,0.11323,-0.0099
-9.2,-0.4926,0.11369,0.11187,-0.0107
-9.1,-0.4887,0.11235,0.11054,-0.0113
-9,-0.4849,0.11102,0.10921,-0.012
-8.9,-0.4813,0.10971,0.10791,-0.0126
-8.8,-0.4778,0.10843,0.10663,-0.0132
-8.7,-0.4746,0.10717,0.10538,-0.0136
-8.6,-0.4718,0.10596,0.10418,-0.014
-8.5,-0.4694,0.1048,0.10303,-0.0142
-8.4,-0.4676,0.1037,0.10194,-0.0143
-8.3,-0.4665,0.10267,0.10092,-0.0142
-8.2,-0.4642,0.10152,0.09978,-0.0145
-8.1,-0.457,0.0999,0.09816,-0.0161
-8,-0.4498,0.09828,0.09654,-0.0179
-7.8,-0.4342,0.09496,0.09321,-0.0218
-7.7,-0.4257,0.09323,0.09148,-0.0238
-7.6,-0.4186,0.09164,0.08989,-0.0255
-7.5,-0.4112,0.09003,0.08828,-0.0272
-7.4,-0.4033,0.0884,0.08664,-0.0291
-7.3,-0.3951,0.08674,0.08498,-0.0311
-7.2,-0.3866,0.08507,0.0833,-0.0332
-7.1,-0.3801,0.08356,0.0818,-0.0347
-7,-0.3718,0.0819,0.08012,-0.0367
-6.9,-0.3625,0.08018,0.07839,-0.039
-6.8,-0.3527,0.07842,0.07663,-0.0415
-6.7,-0.3426,0.07661,0.07481,-0.0441
-6.6,-0.3347,0.07499,0.07319,-0.0459
-6.5,-0.3255,0.07326,0.07145,-0.0482
-6.4,-0.3154,0.07141,0.06959,-0.0507
-6.3,-0.3045,0.06953,0.0677,-0.0534
-6.2,-0.2928,0.06758,0.06574,-0.0564
-6.1,-0.2828,0.06585,0.064,-0.0587
-6,-0.2714,0.06401,0.06216,-0.0615
-5.9,-0.2615,0.06233,0.06047,-0.0639
-5.8,-0.2508,0.0606,0.05873,-0.0665
-5.7,-0.2393,0.05888,0.05699,-0.0693
-5.6,-0.2287,0.05731,0.05541,-0.0716
-5.5,-0.2175,0.05576,0.05384,-0.0741
-5.4,-0.2053,0.0542,0.05226,-0.0767
-5.3,-0.1924,0.05262,0.05066,-0.0795
-5.2,-0.1788,0.05103,0.04904,-0.0823
-5.1,-0.1655,0.04948,0.04747,-0.0849
-5,-0.1521,0.04794,0.0459,-0.0875
-4.9,-0.1379,0.04635,0.04428,-0.0903
-4.8,-0.1231,0.04472,0.04262,-0.0931
-4.7,-0.1078,0.04306,0.04091,-0.0959
-4.6,-0.092,0.04135,0.03916,-0.0988
-4.5,-0.0762,0.03963,0.0374,-0.1017
-4.4,-0.0601,0.03786,0.03557,-0.1045
-4.3,-0.0434,0.03601,0.03366,-0.1074
-4.2,-0.0262,0.03408,0.03166,-0.1103
-4.1,-0.0084,0.03203,0.02953,-0.1133
-4,0.0096,0.02984,0.02725,-0.1163
-3.9,0.0306,0.02641,0.02367,-0.1207
-3.8,0.052,0.02261,0.01965,-0.1252
-3.7,0.0752,0.01659,0.01315,-0.1312
-3.6,0.0928,0.01359,0.00974,-0.1339
-3.5,0.1084,0.01225,0.00813,-0.1348
-3.4,0.1234,0.01138,0.00705,-0.1353
-3.3,0.1382,0.01072,0.00622,-0.1356
-3.2,0.1528,0.0102,0.00554,-0.1357
-3.1,0.1672,0.00978,0.00497,-0.1357
-3,0.1817,0.00941,0.00448,-0.1357
-2.9,0.196,0.0091,0.00407,-0.1356
-2.8,0.2103,0.00883,0.0037,-0.1356
-2.7,0.2246,0.0086,0.00338,-0.1355
-2.6,0.2386,0.00841,0.0031,-0.1354
-2.5,0.2527,0.00825,0.00287,-0.1353
-2.4,0.2666,0.00809,0.00265,-0.1352
-2.3,0.2806,0.00797,0.00249,-0.1351
-2.2,0.2944,0.00787,0.00235,-0.135
-2.1,0.3082,0.00778,0.00222,-0.1349
-2,0.3219,0.00771,0.00211,-0.1348
-1.9,0.3356,0.00763,0.00201,-0.1347
-1.8,0.3488,0.00758,0.00192,-0.1344
-1.7,0.3619,0.00754,0.00184,-0.1342
-1.6,0.3754,0.00748,0.00178,-0.1341
-1.5,0.3886,0.00744,0.00171,-0.1339
-1.4,0.4019,0.0074,0.00167,-0.1338
-1.3,0.4154,0.00737,0.00162,-0.1337
-1.2,0.4285,0.00736,0.00155,-0.1335
-1.1,0.4418,0.00733,0.0015,-0.1334
-1,0.4553,0.00729,0.00148,-0.1333
-0.9,0.4686,0.00728,0.00145,-0.1332
-0.8,0.4816,0.00728,0.00141,-0.133
-0.7,0.4946,0.00728,0.00138,-0.1329
-0.6,0.508,0.00727,0.00136,-0.1328
-0.5,0.5206,0.00729,0.00135,-0.1325
-0.4,0.5337,0.0073,0.00133,-0.1324
-0.3,0.5469,0.0073,0.00132,-0.1323
-0.2,0.5601,0.00731,0.00131,-0.1322
-0.1,0.5723,0.00738,0.00131,-0.1319
0,0.5852,0.0074,0.00131,-0.1317
0.1,0.5982,0.00743,0.00132,-0.1316
0.2,0.6102,0.00752,0.00134,-0.1313
0.3,0.6228,0.00758,0.00135,-0.1311
0.4,0.6339,0.00775,0.00138,-0.1306
0.5,0.6456,0.00788,0.00142,-0.1302
0.6,0.6579,0.00798,0.00147,-0.13
0.7,0.6696,0.00812,0.00153,-0.1296
0.8,0.6803,0.00837,0.00161,-0.1292
0.9,0.6917,0.00856,0.00169,-0.1288
1,0.703,0.00876,0.00178,-0.1284
1.1,0.714,0.00899,0.00188,-0.128
1.2,0.7253,0.00919,0.00198,-0.1277
1.4,0.7455,0.0099,0.00228,-0.1267
1.5,0.7572,0.01008,0.0024,-0.1264
1.6,0.7694,0.01021,0.00249,-0.1262
1.7,0.7818,0.01033,0.00257,-0.126
1.8,0.7944,0.01041,0.00264,-0.1258
1.9,0.8065,0.01054,0.00274,-0.1256
2,0.8191,0.01063,0.00283,-0.1254
2.1,0.8318,0.0107,0.00289,-0.1252
2.2,0.8444,0.01079,0.00298,-0.1249
2.3,0.8569,0.01089,0.00306,-0.1247
2.4,0.8697,0.01094,0.00316,-0.1246
2.5,0.8825,0.01097,0.00325,-0.1244
2.6,0.8883,0.0097,0.00344,-0.1231
2.7,0.9011,0.0098,0.00353,-0.1229
2.8,0.9138,0.0099,0.00361,-0.1226
2.9,0.9262,0.01004,0.00371,-0.1223
3,0.9389,0.01015,0.00382,-0.122
3.1,0.9516,0.01027,0.00392,-0.1217
3.2,0.9644,0.01038,0.00401,-0.1214
3.3,0.9769,0.0105,0.00412,-0.1211
3.4,0.9894,0.01064,0.00423,-0.1207
3.5,1.0019,0.01078,0.00434,-0.1204
3.6,1.0146,0.0109,0.00446,-0.12
3.7,1.0272,0.01102,0.00457,-0.1196
3.8,1.0395,0.01119,0.00471,-0.1192
3.9,1.0521,0.01132,0.00483,-0.1188
4,1.0645,0.01148,0.00498,-0.1183
4.1,1.0772,0.01161,0.00511,-0.1179
4.2,1.0896,0.01176,0.00525,-0.1174
4.3,1.102,0.01192,0.00542,-0.117
4.4,1.1143,0.0121,0.00557,-0.1164
4.5,1.1266,0.01227,0.00577,-0.1159
4.6,1.1391,0.01243,0.00594,-0.1154
4.7,1.1516,0.01259,0.00611,-0.1148
4.8,1.1638,0.01278,0.0063,-0.1142
4.9,1.1762,0.01296,0.0065,-0.1136
5,1.1887,0.01313,0.00669,-0.113
5.1,1.2007,0.01334,0.0069,-0.1123
5.2,1.2129,0.01355,0.00714,-0.1117
5.3,1.2253,0.01374,0.00736,-0.111
5.4,1.2376,0.01394,0.0076,-0.1102
5.5,1.2498,0.01415,0.00784,-0.1095
5.6,1.2619,0.01438,0.00811,-0.1087
5.7,1.2736,0.01465,0.00842,-0.1078
5.8,1.2856,0.0149,0.00872,-0.1069
5.9,1.2975,0.01515,0.00906,-0.106
6,1.3095,0.0154,0.00936,-0.1051
6.1,1.3211,0.0157,0.00971,-0.1042
6.3,1.3439,0.01633,0.01046,-0.1021
6.4,1.355,0.01669,0.0109,-0.1009
6.5,1.3659,0.01708,0.01137,-0.0997
6.6,1.3761,0.01753,0.01191,-0.0984
6.7,1.3854,0.01809,0.0126,-0.0969
6.8,1.3953,0.01857,0.01318,-0.0955
6.9,1.4036,0.01922,0.01397,-0.0938
7,1.4111,0.01994,0.01485,-0.0921
7.1,1.4165,0.02087,0.01595,-0.0901
7.2,1.4203,0.02194,0.01723,-0.088
7.3,1.4228,0.02312,0.01861,-0.0858
7.4,1.4238,0.02439,0.02008,-0.0836
7.5,1.4235,0.02573,0.02162,-0.0813
7.6,1.4214,0.02708,0.02316,-0.0789
7.7,1.418,0.02844,0.02469,-0.0764
7.8,1.4137,0.02985,0.02626,-0.074
7.9,1.4087,0.03131,0.02788,-0.0717
8,1.403,0.03283,0.02954,-0.0696
8.2,1.3901,0.03599,0.03298,-0.0658
8.4,1.3755,0.03936,0.03659,-0.0627
8.5,1.3677,0.04112,0.03846,-0.0616
8.6,1.3598,0.04297,0.04042,-0.0607
8.8,1.3433,0.04689,0.04453,-0.0597
8.9,1.335,0.04898,0.04671,-0.0597
9.1,1.3183,0.05351,0.05143,-0.0608
9.2,1.3101,0.05596,0.05396,-0.0619
9.3,1.3021,0.05856,0.05662,-0.0635
9.4,1.2942,0.06139,0.05951,-0.0656
9.5,1.2868,0.06445,0.06264,-0.0683
9.6,1.2799,0.06782,0.06609,-0.0715
9.7,1.2736,0.07163,0.06997,-0.0752
9.8,1.2681,0.07604,0.07445,-0.0795
9.9,1.2636,0.08101,0.07949,-0.0844
10,1.2582,0.08514,0.08365,-0.0883
10.2,1.2472,0.09256,0.09109,-0.0947
10.4,1.2369,0.09957,0.09811,-0.1005
10.5,1.232,0.103,0.10154,-0.1033
10.6,1.2275,0.10638,0.10491,-0.1059
10.7,1.2232,0.10972,0.10825,-0.1085
10.8,1.2191,0.11302,0.11154,-0.111
10.9,1.2155,0.11627,0.1148,-0.1134
11,1.2122,0.1195,0.11802,-0.1158
11.2,1.2065,0.12585,0.12437,-0.1204
11.3,1.2043,0.12896,0.12747,-0.1226
11.4,1.2025,0.13201,0.13052,-0.1248
11.5,1.201,0.13502,0.13352,-0.1269
11.6,1.1999,0.13796,0.13646,-0.129
11.7,1.1993,0.14081,0.13931,-0.1309
11.8,1.1989,0.14361,0.1421,-0.1328
11.9,1.1989,0.14633,0.14483,-0.1347
12,1.199,0.14904,0.14753,-0.1366
12.1,1.1995,0.15166,0.15015,-0.1384
12.2,1.2003,0.15423,0.15272,-0.1401
12.3,1.2012,0.15675,0.15524,-0.1419
12.4,1.2023,0.15925,0.15772,-0.1436
12.5,1.2016,0.16248,0.16095,-0.1457
12.6,1.2014,0.16559,0.16406,-0.1477
12.7,1.2017,0.16863,0.1671,-0.1496
12.8,1.2024,0.17155,0.17002,-0.1514
12.9,1.2035,0.17438,0.17284,-0.1532
13,1.2048,0.17721,0.17567,-0.155
13.1,1.2065,0.1799,0.17837,-0.1567
13.2,1.2084,0.18253,0.18099,-0.1584
13.3,1.2104,0.18512,0.18359,-0.16
13.4,1.2126,0.18765,0.18611,-0.1616
13.5,1.215,0.19011,0.18857,-0.1632
13.6,1.2176,0.19253,0.19099,-0.1648
13.7,1.2202,0.19492,0.19338,-0.1664
13.8,1.223,0.19728,0.19575,-0.1679
13.9,1.2259,0.19958,0.19806,-0.1694
14,1.2289,0.20186,0.20033,-0.1709
14.1,1.2319,0.2041,0.20258,-0.1725
14.4,1.2422,0.20987,0.20834,-0.1771
14.5,1.2455,0.21194,0.21041,-0.1786
14.6,1.2487,0.21396,0.21243,-0.1801
14.7,1.2519,0.21596,0.21443,-0.1817
14.8,1.2552,0.21856,0.21702,-0.1833
14.9,1.2585,0.22162,0.22008,-0.1849
15,1.2619,0.22455,0.22301,-0.1865
15.1,1.2655,0.22725,0.22571,-0.1881
15.2,1.2692,0.22987,0.22833,-0.1897
15.3,1.2729,0.23238,0.23085,-0.1913
15.4,1.2767,0.23486,0.23332,-0.1928
15.5,1.2805,0.2373,0.23577,-0.1944
15.6,1.2844,0.23967,0.23814,-0.1959
15.7,1.2883,0.24204,0.24051,-0.1974
15.8,1.2923,0.24438,0.24285,-0.199
15.9,1.2963,0.24669,0.24516,-0.2005
16,1.3003,0.24902,0.24748,-0.202
16.1,1.3043,0.2513,0.24977,-0.2036
16.2,1.3084,0.25358,0.25205,-0.2051
16.3,1.3124,0.25583,0.2543,-0.2067
16.4,1.3165,0.25806,0.25653,-0.2082
16.5,1.3206,0.26029,0.25876,-0.2097
16.6,1.3247,0.2625,0.26097,-0.2113
16.7,1.3289,0.26471,0.26318,-0.2128
16.8,1.333,0.26689,0.26536,-0.2143
16.9,1.3371,0.26905,0.26753,-0.2159
17,1.3413,0.27124,0.26972,-0.2174
17.1,1.3455,0.27337,0.27185,-0.219
17.2,1.3496,0.27555,0.27403,-0.2205
17.3,1.3538,0.27767,0.27616,-0.2221
17.4,1.358,0.27984,0.27833,-0.2237
17.5,1.3622,0.28197,0.28046,-0.2252
17.6,1.3663,0.28411,0.2826,-0.2268
17.7,1.3705,0.28627,0.28476,-0.2284
17.8,1.3747,0.28836,0.28685,-0.23
17.9,1.3788,0.29048,0.28899,-0.2315
18,1.383,0.29263,0.29114,-0.2331
18.1,1.3871,0.29481,0.29332,-0.2347
18.2,1.3912,0.29697,0.29548,-0.2363
18.3,1.3954,0.29918,0.2977,-0.2379
18.4,1.3995,0.30142,0.29994,-0.2395
18.5,1.4036,0.30367,0.30219,-0.241
18.6,1.4077,0.30597,0.30449,-0.2426
18.7,1.4124,0.30874,0.30725,-0.2444
18.8,1.417,0.31144,0.30995,-0.2461
18.9,1.4217,0.31422,0.31273,-0.2478
19,1.4265,0.31716,0.31567,-0.2495
19.1,1.4312,0.32001,0.31853,-0.2513
19.2,1.436,0.32304,0.32156,-0.253
19.3,1.4406,0.32571,0.32423,-0.2547
19.4,1.4451,0.32841,0.32692,-0.2564
19.5,1.4496,0.33102,0.32954,-0.2581
19.6,1.4541,0.33368,0.3322,-0.2598
19.7,1.4587,0.33642,0.33494,-0.2615
19.8,1.4632,0.33911,0.33764,-0.2633
19.9,1.4676,0.3416,0.34013,-0.265
20,1.4721,0.34426,0.34279,-0.2667
20.1,1.4766,0.34691,0.34545,-0.2685
20.2,1.481,0.34955,0.34808,-0.2702
20.3,1.4854,0.35215,0.35068,-0.272
20.4,1.4898,0.35473,0.35327,-0.2737
20.5,1.4942,0.35731,0.35586,-0.2755
20.6,1.4987,0.35994,0.35848,-0.2772
20.7,1.5031,0.36253,0.36108,-0.279
20.8,1.5075,0.36518,0.36373,-0.2808
20.9,1.5119,0.36778,0.36634,-0.2826
21,1.5162,0.3704,0.36895,-0.2844
21.1,1.5206,0.373,0.37156,-0.2862
21.2,1.5249,0.37562,0.37418,-0.288
21.3,1.5293,0.37827,0.37683,-0.2898
21.4,1.5337,0.3809,0.37948,-0.2916
21.5,1.538,0.38352,0.3821,-0.2934
21.6,1.5423,0.38618,0.38476,-0.2953
21.7,1.5466,0.38881,0.3874,-0.2971
21.8,1.551,0.39146,0.39005,-0.2989
21.9,1.5555,0.39404,0.39263,-0.3011
22,1.5598,0.39666,0.39526,-0.3029
22.1,1.5641,0.39929,0.39788,-0.3048
22.2,1.5683,0.40192,0.40052,-0.3067
22.3,1.5726,0.40455,0.40315,-0.3086
22.4,1.5769,0.40719,0.40579,-0.3105
22.5,1.5811,0.40982,0.40843,-0.3124
22.6,1.5853,0.41246,0.41108,-0.3143
22.7,1.5895,0.41511,0.41372,-0.3162
22.8,1.5937,0.41776,0.41638,-0.3182
22.9,1.5979,0.42041,0.41903,-0.3201
23,1.6021,0.42306,0.42168,-0.3221
23.1,1.6063,0.4257,0.42433,-0.324
23.2,1.6104,0.42837,0.427,-0.326
23.3,1.6146,0.43102,0.42965,-0.3279
23.4,1.6187,0.43368,0.43232,-0.3299
23.5,1.6228,0.43634,0.43498,-0.3319
23.6,1.6269,0.43898,0.43763,-0.3339
23.7,1.631,0.44166,0.4403,-0.3358
23.8,1.635,0.44431,0.44296,-0.3378
23.9,1.6391,0.44696,0.44561,-0.3398
24,1.6431,0.44965,0.44831,-0.3418
24.1,1.6471,0.45236,0.45102,-0.3438
24.2,1.6511,0.45497,0.45363,-0.3458
24.3,1.655,0.4577,0.45637,-0.3479
24.4,1.659,0.4604,0.45907,-0.3499
24.5,1.6629,0.46312,0.4618,-0.3519
24.6,1.6668,0.46584,0.46453,-0.3539
24.7,1.6707,0.46862,0.46731,-0.356
24.8,1.6746,0.4714,0.4701,-0.358
24.9,1.6785,0.47416,0.47286,-0.36
25,1.6823,0.47699,0.47569,-0.3621
25.1,1.6862,0.47986,0.47857,-0.3641
25.2,1.69,0.48274,0.48145,-0.3662
25.3,1.6938,0.48565,0.48437,-0.3682
25.4,1.6976,0.48864,0.48736,-0.3703
25.5,1.7014,0.49166,0.49038,-0.3723
25.6,1.7051,0.49475,0.49348,-0.3743
25.7,1.7089,0.49789,0.49661,-0.3764
25.8,1.7127,0.50095,0.49968,-0.3785
25.9,1.7164,0.50421,0.50294,-0.3805
26,1.7202,0.50738,0.50611,-0.3826
26.1,1.7239,0.51058,0.50932,-0.3846
26.2,1.7276,0.51382,0.51256,-0.3867
26.3,1.7313,0.51711,0.51586,-0.3888
26.4,1.735,0.52038,0.51913,-0.3909
26.5,1.7386,0.52382,0.52257,-0.3929
26.6,1.7423,0.52714,0.5259,-0.395
26.9,1.7556,0.53637,0.53512,-0.4027
27,1.7596,0.53967,0.53842,-0.405
27.1,1.764,0.54324,0.54199,-0.4075
27.2,1.7679,0.5466,0.54536,-0.4098
27.3,1.7717,0.55,0.54876,-0.4121
27.4,1.7755,0.55335,0.55212,-0.4143
27.5,1.7793,0.55669,0.55546,-0.4166
27.6,1.7831,0.56008,0.55885,-0.4189
27.7,1.7869,0.56347,0.56225,-0.4213
27.8,1.7905,0.5668,0.56559,-0.4236
27.9,1.7943,0.57013,0.56892,-0.4259
28,1.798,0.57344,0.57224,-0.4283
28.1,1.8016,0.57673,0.57552,-0.4306
28.2,1.8052,0.58002,0.57882,-0.433
28.3,1.8088,0.58325,0.58206,-0.4353
28.4,1.8124,0.58652,0.58533,-0.4377
28.5,1.8159,0.58977,0.58858,-0.4401
28.6,1.8194,0.59306,0.59188,-0.4424
28.7,1.8229,0.59635,0.59517,-0.4448
28.8,1.8264,0.59957,0.5984,-0.4472
28.9,1.8298,0.60284,0.60167,-0.4496
29,1.8333,0.60611,0.60494,-0.452
29.1,1.8367,0.60938,0.60822,-0.4544
29.2,1.8401,0.61264,0.61148,-0.4568
29.3,1.8439,0.61472,0.61356,-0.4597
29.4,1.8473,0.61793,0.61678,-0.4622
29.5,1.8506,0.62113,0.61998,-0.4646
29.6,1.8539,0.62435,0.62321,-0.4671
29.7,1.8571,0.62759,0.62645,-0.4695
29.8,1.8604,0.63086,0.62972,-0.4719
29.9,1.8637,0.63413,0.633,-0.4744
30,1.8669,0.63738,0.63625,-0.4769

