airfoilName st23.dat
Re 	610000
M 	5.000000e-01
N 	4.500000e+00
VACC 	0 VACCflag 1
XTR 	1.00 	1.00 XTRflag 0
alpha,cl,cd,cdp,cm
-29.6,-1.3674,0.59897,0.59716,0.2926
-29.5,-1.364,0.59524,0.59342,0.2904
-29.4,-1.3605,0.59145,0.58963,0.2883
-29.3,-1.357,0.5877,0.58588,0.2862
-29.2,-1.3535,0.58414,0.58231,0.284
-29.1,-1.35,0.58041,0.57858,0.2819
-29,-1.3464,0.5767,0.57486,0.2798
-28.9,-1.3428,0.57305,0.57121,0.2777
-28.8,-1.3393,0.5694,0.56755,0.2756
-28.7,-1.3357,0.56587,0.56401,0.2735
-28.6,-1.3321,0.56231,0.56045,0.2714
-28.5,-1.3284,0.55879,0.55694,0.2693
-28.4,-1.3247,0.5554,0.55354,0.2671
-28.3,-1.3211,0.55182,0.54996,0.2651
-28.2,-1.3174,0.54842,0.54655,0.263
-28.1,-1.3137,0.54503,0.54316,0.2609
-28,-1.3099,0.54167,0.5398,0.2588
-27.9,-1.3062,0.53831,0.53643,0.2567
-27.8,-1.3024,0.53499,0.53311,0.2547
-27.7,-1.2986,0.53175,0.52986,0.2526
-27.6,-1.2948,0.52849,0.5266,0.2505
-27.5,-1.291,0.52522,0.52333,0.2484
-27.4,-1.2872,0.52201,0.52012,0.2464
-27.3,-1.2833,0.51886,0.51696,0.2443
-27.2,-1.2794,0.51571,0.51381,0.2423
-27.1,-1.2756,0.51258,0.51068,0.2402
-27,-1.2716,0.50946,0.50755,0.2382
-26.9,-1.2677,0.50636,0.50445,0.2361
-26.8,-1.2638,0.50327,0.50136,0.2341
-26.7,-1.2598,0.50023,0.49831,0.2321
-26.6,-1.2559,0.49718,0.49526,0.2301
-26.5,-1.2519,0.49416,0.49224,0.2281
-26.4,-1.2479,0.49114,0.48922,0.2261
-26.3,-1.2439,0.48814,0.48621,0.2241
-26.2,-1.2399,0.48516,0.48323,0.2221
-26.1,-1.2358,0.48218,0.48023,0.2201
-26,-1.2318,0.47924,0.47729,0.2181
-25.9,-1.2277,0.47629,0.47434,0.2162
-25.8,-1.2237,0.47335,0.47139,0.2142
-25.7,-1.2196,0.47045,0.46849,0.2122
-25.6,-1.2155,0.46757,0.46561,0.2103
-25.5,-1.2114,0.46467,0.46271,0.2083
-25.4,-1.2072,0.46182,0.45985,0.2064
-25.3,-1.2031,0.45897,0.457,0.2045
-25.2,-1.1989,0.45613,0.45416,0.2026
-25.1,-1.1948,0.45333,0.45135,0.2006
-25,-1.1906,0.45054,0.44856,0.1987
-24.9,-1.1864,0.44775,0.44577,0.1968
-24.8,-1.1822,0.44499,0.44301,0.1949
-24.7,-1.178,0.44225,0.44027,0.193
-24.6,-1.1737,0.43951,0.43753,0.1911
-24.5,-1.1695,0.43679,0.4348,0.1892
-24.4,-1.1652,0.43408,0.43209,0.1873
-24.3,-1.1609,0.43139,0.4294,0.1854
-24.2,-1.1567,0.42873,0.42673,0.1836
-24.1,-1.1524,0.42605,0.42405,0.1817
-24,-1.1481,0.42341,0.42141,0.1798
-23.9,-1.1437,0.42074,0.41874,0.178
-23.8,-1.1394,0.41812,0.41612,0.1761
-23.7,-1.1349,0.41626,0.41426,0.174
-23.6,-1.1305,0.4136,0.41159,0.1722
-23.5,-1.1261,0.41096,0.40895,0.1704
-23.4,-1.1218,0.40835,0.40633,0.1686
-23.3,-1.1174,0.40574,0.40373,0.1667
-23.2,-1.113,0.40311,0.40109,0.165
-23.1,-1.1086,0.40049,0.39846,0.1632
-23,-1.1042,0.39795,0.39592,0.1614
-22.9,-1.0998,0.39535,0.39332,0.1596
-22.8,-1.0953,0.39279,0.39075,0.1578
-22.7,-1.0909,0.39023,0.38819,0.156
-22.6,-1.0864,0.38766,0.38562,0.1543
-22.5,-1.082,0.38512,0.38308,0.1525
-22.4,-1.0776,0.38257,0.38053,0.1508
-22.3,-1.0731,0.38006,0.37801,0.1491
-22.2,-1.0686,0.37754,0.37549,0.1473
-22.1,-1.0641,0.375,0.37295,0.1456
-22,-1.0596,0.37253,0.37048,0.1439
-21.9,-1.0552,0.37003,0.36797,0.1422
-21.8,-1.0507,0.36754,0.36549,0.1405
-21.7,-1.0462,0.36506,0.36301,0.1388
-21.6,-1.0417,0.3626,0.36054,0.1371
-21.5,-1.0371,0.36015,0.35809,0.1354
-21.4,-1.0326,0.35769,0.35563,0.1338
-21.3,-1.0281,0.35525,0.35319,0.1321
-21.2,-1.0236,0.35281,0.35075,0.1304
-21.1,-1.019,0.3504,0.34833,0.1288
-21,-1.0145,0.34797,0.3459,0.1271
-20.9,-1.0099,0.34558,0.34351,0.1255
-20.8,-1.0053,0.34318,0.34111,0.1239
-20.7,-1.0008,0.34076,0.33869,0.1223
-20.6,-0.9962,0.33841,0.33633,0.1206
-20.5,-0.9916,0.33603,0.33395,0.119
-20.4,-0.987,0.33368,0.33161,0.1174
-20.3,-0.9824,0.33133,0.32925,0.1158
-20.2,-0.9778,0.32899,0.3269,0.1142
-20.1,-0.9732,0.32663,0.32454,0.1126
-20,-0.9686,0.32428,0.32219,0.111
-19.9,-0.964,0.32195,0.31986,0.1094
-19.8,-0.9594,0.31962,0.31753,0.1078
-19.7,-0.9547,0.31729,0.3152,0.1062
-19.6,-0.9501,0.31497,0.31288,0.1047
-19.5,-0.9454,0.31263,0.31053,0.1031
-19.4,-0.9408,0.31029,0.30819,0.1016
-19.3,-0.9361,0.30795,0.30585,0.1
-19.2,-0.9313,0.30561,0.30351,0.0985
-19.1,-0.9266,0.30326,0.30117,0.0969
-19,-0.9218,0.30091,0.29881,0.0954
-18.9,-0.9168,0.29858,0.29648,0.0938
-18.8,-0.9118,0.2963,0.2942,0.0921
-18.4,-0.8902,0.28803,0.28595,0.0849
-18.3,-0.886,0.28555,0.28347,0.0837
-18.2,-0.8817,0.28309,0.28101,0.0825
-18.1,-0.8775,0.28059,0.27851,0.0813
-18,-0.8732,0.27813,0.27604,0.0801
-17.9,-0.869,0.27568,0.2736,0.0789
-17.8,-0.8648,0.27323,0.27114,0.0777
-17.7,-0.8605,0.27082,0.26873,0.0765
-17.6,-0.8563,0.26843,0.26634,0.0753
-17.5,-0.8521,0.26608,0.26399,0.0742
-17.4,-0.8479,0.26377,0.26168,0.073
-17.3,-0.8436,0.26151,0.25942,0.0718
-17.2,-0.8393,0.25929,0.25719,0.0706
-17.1,-0.835,0.2571,0.255,0.0694
-17,-0.8307,0.25494,0.25285,0.0681
-16.9,-0.8263,0.25281,0.2507,0.0669
-16.8,-0.822,0.25071,0.2486,0.0657
-16.7,-0.8176,0.24863,0.24652,0.0645
-16.6,-0.8132,0.24656,0.24445,0.0633
-16.5,-0.8088,0.24452,0.24241,0.0621
-16.4,-0.8045,0.2425,0.24039,0.0609
-16.3,-0.8001,0.24048,0.23837,0.0597
-16.2,-0.7957,0.23847,0.23636,0.0585
-16.1,-0.7912,0.23648,0.23437,0.0573
-16,-0.7868,0.23449,0.23238,0.0561
-15.9,-0.7824,0.23252,0.23041,0.0549
-15.8,-0.778,0.23054,0.22843,0.0537
-15.7,-0.7736,0.22858,0.22647,0.0525
-15.6,-0.7691,0.22662,0.22451,0.0514
-15.5,-0.7647,0.22466,0.22255,0.0502
-15.4,-0.7603,0.22271,0.2206,0.049
-15.3,-0.7558,0.22077,0.21865,0.0479
-15.2,-0.7514,0.21883,0.21671,0.0467
-15.1,-0.7469,0.21689,0.21478,0.0456
-15,-0.7425,0.21496,0.21285,0.0445
-14.9,-0.738,0.21304,0.21093,0.0433
-14.8,-0.7336,0.21112,0.20901,0.0422
-14.7,-0.7291,0.20922,0.2071,0.0411
-14.6,-0.7247,0.20732,0.2052,0.04
-14.5,-0.7203,0.20542,0.20331,0.0389
-14.4,-0.7158,0.20353,0.20142,0.0378
-14.3,-0.711,0.20197,0.19986,0.0362
-14.2,-0.7066,0.20007,0.19796,0.0351
-14.1,-0.7022,0.19817,0.19606,0.034
-14,-0.6978,0.19628,0.19417,0.033
-13.9,-0.6934,0.1944,0.19229,0.0319
-13.8,-0.689,0.19252,0.19041,0.0309
-13.7,-0.6846,0.19065,0.18853,0.0298
-13.6,-0.6802,0.18878,0.18667,0.0288
-13.5,-0.6758,0.18692,0.1848,0.0277
-13.4,-0.6714,0.18505,0.18293,0.0267
-13.3,-0.667,0.18318,0.18107,0.0256
-13.2,-0.6626,0.18132,0.1792,0.0246
-13.1,-0.6582,0.17946,0.17735,0.0236
-13,-0.6538,0.17761,0.17549,0.0226
-12.9,-0.6494,0.17575,0.17363,0.0216
-12.8,-0.645,0.1739,0.17178,0.0206
-12.7,-0.6405,0.17203,0.16992,0.0196
-12.6,-0.6361,0.17017,0.16806,0.0186
-12.5,-0.6317,0.1683,0.16619,0.0176
-12.4,-0.6273,0.16642,0.16431,0.0166
-12.3,-0.6228,0.16452,0.16242,0.0156
-12.2,-0.6182,0.1626,0.1605,0.0147
-12.1,-0.6135,0.16065,0.15854,0.0136
-12,-0.6087,0.15868,0.15658,0.0126
-11.9,-0.6036,0.15677,0.15467,0.0115
-11.8,-0.5981,0.15489,0.15279,0.0102
-11.6,-0.588,0.15129,0.14921,0.0078
-11.5,-0.5842,0.14951,0.14744,0.0071
-11.4,-0.5805,0.14775,0.14568,0.0064
-11.3,-0.5767,0.14601,0.14394,0.0056
-11.2,-0.573,0.14429,0.14222,0.0049
-11.1,-0.5692,0.14261,0.14055,0.0041
-11,-0.5655,0.14095,0.13889,0.0034
-10.9,-0.5616,0.13934,0.13728,0.0026
-10.8,-0.5577,0.13775,0.1357,0.0018
-10.7,-0.5537,0.13619,0.13414,0.001
-10.6,-0.5497,0.13465,0.1326,0.0002
-10.5,-0.5456,0.13313,0.13108,-0.0006
-10.4,-0.5415,0.13163,0.12958,-0.0014
-10.3,-0.5374,0.13014,0.12809,-0.0022
-10.2,-0.5332,0.12867,0.12662,-0.003
-10.1,-0.5291,0.12721,0.12516,-0.0038
-10,-0.5249,0.12576,0.12372,-0.0046
-9.9,-0.5208,0.12432,0.12228,-0.0054
-9.8,-0.5166,0.12288,0.12085,-0.0062
-9.7,-0.5125,0.12146,0.11942,-0.007
-9.6,-0.5083,0.12004,0.118,-0.0078
-9.5,-0.5042,0.11862,0.1166,-0.0086
-9.4,-0.5002,0.11722,0.1152,-0.0093
-9.3,-0.4962,0.11583,0.11381,-0.01
-9.2,-0.4923,0.11445,0.11244,-0.0107
-9.1,-0.4884,0.11309,0.11108,-0.0114
-9,-0.4846,0.11174,0.10973,-0.0121
-8.9,-0.481,0.1104,0.1084,-0.0127
-8.8,-0.4775,0.10908,0.10709,-0.0132
-8.7,-0.4743,0.10781,0.10582,-0.0137
-8.6,-0.4713,0.10656,0.10458,-0.0141
-8.5,-0.4688,0.10536,0.10339,-0.0144
-8.4,-0.4668,0.10421,0.10225,-0.0145
-8.3,-0.4653,0.10312,0.10117,-0.0145
-8.2,-0.4645,0.1021,0.10017,-0.0143
-8.1,-0.4646,0.10118,0.09926,-0.0139
-8,-0.4572,0.09942,0.0975,-0.0159
-7.9,-0.4499,0.09774,0.09582,-0.0176
-7.8,-0.4425,0.09607,0.09415,-0.0193
-7.7,-0.4348,0.09438,0.09246,-0.0212
-7.6,-0.4269,0.09267,0.09074,-0.0231
-7.5,-0.419,0.09096,0.08903,-0.025
-7.4,-0.4115,0.08931,0.08738,-0.0268
-7.3,-0.4036,0.08762,0.08568,-0.0287
-7.2,-0.3952,0.0859,0.08396,-0.0308
-7.1,-0.3862,0.08411,0.08217,-0.033
-7,-0.3789,0.08247,0.08053,-0.0348
-6.9,-0.37,0.08067,0.07871,-0.037
-6.8,-0.3599,0.07879,0.07683,-0.0396
-6.7,-0.3494,0.07688,0.0749,-0.0423
-6.6,-0.3382,0.07495,0.07297,-0.0452
-6.5,-0.3282,0.07318,0.07119,-0.0477
-6.4,-0.318,0.07138,0.0694,-0.0504
-6.3,-0.3087,0.06972,0.06774,-0.0526
-6.2,-0.2988,0.06801,0.06602,-0.0551
-6.1,-0.2881,0.0663,0.06429,-0.0577
-6,-0.2766,0.06458,0.06256,-0.0605
-5.9,-0.2678,0.06312,0.06109,-0.0624
-5.7,-0.2457,0.06001,0.05796,-0.0675
-5.6,-0.2333,0.05843,0.05636,-0.0702
-5.5,-0.2202,0.05683,0.05473,-0.0731
-5.4,-0.208,0.05532,0.05321,-0.0757
-5.3,-0.1962,0.05383,0.05171,-0.078
-5.2,-0.1833,0.05229,0.05015,-0.0807
-5.1,-0.1696,0.05071,0.04854,-0.0834
-5,-0.155,0.04907,0.04686,-0.0863
-4.9,-0.1399,0.0474,0.04516,-0.0893
-4.8,-0.1261,0.04581,0.04355,-0.0919
-4.7,-0.1115,0.04416,0.04186,-0.0946
-4.6,-0.096,0.04244,0.04011,-0.0975
-4.5,-0.0799,0.04066,0.03828,-0.1004
-4.4,-0.063,0.03881,0.03636,-0.1035
-4.3,-0.0455,0.03686,0.03435,-0.1066
-4.2,-0.0285,0.0349,0.03233,-0.1096
-4.1,-0.011,0.03279,0.03015,-0.1127
-4,0.0113,0.02885,0.02606,-0.1179
-3.9,0.0327,0.02522,0.02223,-0.1225
-3.8,0.0526,0.02235,0.01918,-0.1261
-3.7,0.0714,0.01963,0.01625,-0.129
-3.6,0.0902,0.0161,0.01239,-0.1323
-3.5,0.1067,0.01402,0.00998,-0.134
-3.4,0.1223,0.01276,0.00847,-0.1349
-3.3,0.1373,0.01186,0.00734,-0.1354
-3.2,0.1523,0.01116,0.00643,-0.1357
-3.1,0.1669,0.0106,0.0057,-0.1358
-3,0.1815,0.01013,0.00509,-0.1359
-2.9,0.1958,0.00975,0.00457,-0.1359
-2.8,0.2102,0.00943,0.00413,-0.1359
-2.7,0.2244,0.00917,0.00376,-0.1358
-2.6,0.2386,0.00893,0.00344,-0.1357
-2.5,0.2527,0.00873,0.0032,-0.1356
-2.4,0.2666,0.00858,0.00298,-0.1355
-2.3,0.2806,0.00845,0.0028,-0.1354
-2.2,0.2943,0.00834,0.00263,-0.1353
-2.1,0.3082,0.00824,0.00248,-0.1352
-2,0.3218,0.00814,0.00237,-0.1351
-1.9,0.3356,0.00806,0.00227,-0.135
-1.8,0.3491,0.00799,0.00217,-0.1349
-1.6,0.3753,0.00789,0.00204,-0.1344
-1.5,0.3888,0.00782,0.00196,-0.1343
-1.4,0.4021,0.00778,0.00188,-0.1341
-1.3,0.4153,0.00775,0.00181,-0.1339
-1.2,0.4288,0.00771,0.00174,-0.1338
-1.1,0.4419,0.00768,0.00171,-0.1337
-1,0.4552,0.00765,0.00166,-0.1336
-0.9,0.4686,0.00762,0.00162,-0.1335
-0.8,0.4819,0.0076,0.00159,-0.1334
-0.7,0.4948,0.0076,0.00155,-0.1331
-0.6,0.5079,0.00759,0.00153,-0.133
-0.5,0.5212,0.00758,0.00151,-0.1329
-0.4,0.534,0.00759,0.00148,-0.1327
-0.3,0.5469,0.0076,0.00146,-0.1325
-0.2,0.5602,0.0076,0.00146,-0.1324
-0.1,0.5732,0.00761,0.00146,-0.1323
0,0.5855,0.00766,0.00145,-0.132
0.1,0.5985,0.00767,0.00145,-0.1318
0.2,0.6114,0.0077,0.00145,-0.1317
0.3,0.6236,0.00777,0.00145,-0.1313
0.4,0.6363,0.00781,0.00147,-0.1311
0.5,0.6477,0.00795,0.00149,-0.1306
0.6,0.6594,0.00807,0.00152,-0.1302
0.7,0.6714,0.00817,0.00156,-0.1299
0.8,0.683,0.00832,0.00161,-0.1295
0.9,0.6944,0.00848,0.00168,-0.1292
1,0.7047,0.00875,0.00178,-0.1286
1.1,0.7158,0.00894,0.00187,-0.1282
1.2,0.7266,0.00918,0.00197,-0.1277
1.3,0.7378,0.00939,0.00207,-0.1273
1.4,0.7488,0.00962,0.00218,-0.1269
1.6,0.7684,0.01036,0.00253,-0.1258
1.7,0.7802,0.01054,0.00263,-0.1256
1.8,0.7923,0.01066,0.00273,-0.1253
1.9,0.8045,0.01078,0.00283,-0.1251
2,0.8165,0.01093,0.00294,-0.1248
2.1,0.8291,0.01102,0.00302,-0.1246
2.2,0.8416,0.0111,0.00311,-0.1244
2.3,0.8544,0.01114,0.0032,-0.1242
2.5,0.8719,0.00996,0.00349,-0.1226
2.6,0.8846,0.01008,0.00358,-0.1223
2.7,0.8972,0.01018,0.00367,-0.1221
2.8,0.9098,0.01031,0.00377,-0.1218
2.9,0.9225,0.01041,0.00386,-0.1215
3,0.9347,0.01056,0.00399,-0.1211
3.1,0.9474,0.01068,0.00408,-0.1208
3.2,0.9599,0.01081,0.0042,-0.1205
3.3,0.9726,0.01092,0.0043,-0.1202
3.4,0.9851,0.01105,0.00441,-0.1198
3.5,0.9974,0.0112,0.00453,-0.1194
3.6,1.0099,0.01134,0.00465,-0.1191
3.7,1.0224,0.01148,0.00478,-0.1187
3.8,1.0349,0.01161,0.0049,-0.1183
3.9,1.0473,0.01177,0.00504,-0.1178
4,1.0595,0.01193,0.00518,-0.1174
4.1,1.0718,0.0121,0.00534,-0.1169
4.2,1.0843,0.01224,0.00549,-0.1164
4.3,1.0967,0.01239,0.00564,-0.1159
4.4,1.1089,0.01257,0.00582,-0.1154
4.5,1.1211,0.01275,0.00601,-0.1149
4.6,1.1332,0.01295,0.00621,-0.1143
4.7,1.1456,0.01311,0.00639,-0.1137
4.8,1.1579,0.01329,0.00658,-0.1131
4.9,1.17,0.01349,0.00679,-0.1125
5,1.1821,0.01369,0.00701,-0.1119
5.1,1.1944,0.01388,0.00723,-0.1112
5.2,1.2066,0.01408,0.00746,-0.1105
5.3,1.2182,0.01433,0.00771,-0.1098
5.4,1.2304,0.01454,0.00797,-0.109
5.5,1.2424,0.01476,0.00824,-0.1082
5.6,1.2544,0.015,0.00852,-0.1074
5.7,1.2662,0.01525,0.00882,-0.1066
5.8,1.2777,0.01554,0.00914,-0.1057
5.9,1.289,0.01585,0.00953,-0.1047
6,1.3005,0.01615,0.00991,-0.1037
6.1,1.3121,0.01643,0.01025,-0.1027
6.2,1.3233,0.01676,0.01065,-0.1017
6.3,1.3341,0.01713,0.01109,-0.1005
6.4,1.345,0.01749,0.01151,-0.0994
6.5,1.3553,0.01792,0.01205,-0.0981
6.6,1.3653,0.01839,0.01261,-0.0968
6.7,1.3748,0.01891,0.01323,-0.0954
6.8,1.383,0.01955,0.014,-0.0938
6.9,1.39,0.02032,0.01494,-0.092
7,1.396,0.02118,0.01597,-0.0901
7.2,1.4084,0.02283,0.01794,-0.0866
7.3,1.4122,0.02386,0.01914,-0.0846
7.4,1.4141,0.02503,0.02049,-0.0825
7.5,1.4133,0.02638,0.02206,-0.0802
7.6,1.4107,0.02774,0.0236,-0.0777
7.7,1.4073,0.02914,0.02519,-0.0753
7.8,1.403,0.0306,0.02682,-0.073
7.9,1.398,0.03211,0.02849,-0.0708
8,1.3922,0.03367,0.03021,-0.0688
8.1,1.3859,0.03527,0.03195,-0.0669
8.2,1.379,0.03693,0.03374,-0.0651
8.3,1.3718,0.03864,0.03558,-0.0636
8.5,1.3563,0.04221,0.03939,-0.0613
8.7,1.34,0.04607,0.04347,-0.06
8.8,1.3315,0.04813,0.04562,-0.0598
9,1.3147,0.05255,0.05023,-0.0605
9.2,1.2981,0.05747,0.05531,-0.0628
9.3,1.2901,0.06018,0.05809,-0.0646
9.4,1.2823,0.06313,0.06112,-0.067
9.5,1.2751,0.06634,0.06439,-0.07
9.6,1.2683,0.06992,0.06804,-0.0736
9.7,1.2624,0.07403,0.07223,-0.0776
9.9,1.2524,0.08335,0.08167,-0.0866
10,1.2467,0.0873,0.08564,-0.0902
10.1,1.2412,0.091,0.08935,-0.0934
10.2,1.2357,0.09461,0.09297,-0.0965
10.3,1.2305,0.09815,0.09651,-0.0994
10.4,1.2255,0.10162,0.09998,-0.1022
10.5,1.2208,0.10504,0.10339,-0.1049
10.6,1.2165,0.1084,0.10675,-0.1075
10.7,1.2122,0.11175,0.1101,-0.11
10.8,1.2083,0.11506,0.11341,-0.1125
10.9,1.2048,0.11835,0.11669,-0.1149
11,1.2016,0.1216,0.11994,-0.1173
11.1,1.1988,0.1248,0.12314,-0.1196
11.2,1.1964,0.12796,0.12629,-0.1218
11.3,1.1943,0.1311,0.12943,-0.124
11.4,1.1926,0.13415,0.13248,-0.1261
11.5,1.1912,0.13719,0.13551,-0.1282
11.6,1.1903,0.14015,0.13847,-0.1302
11.7,1.1897,0.14303,0.14134,-0.1322
11.8,1.1894,0.14585,0.14416,-0.1341
11.9,1.1895,0.1486,0.14691,-0.1359
12,1.1898,0.15131,0.14962,-0.1377
12.1,1.1905,0.15394,0.15225,-0.1395
12.2,1.1915,0.15651,0.15482,-0.1412
12.3,1.1927,0.15903,0.15733,-0.1429
12.4,1.1941,0.16148,0.15978,-0.1445
12.5,1.1958,0.16387,0.16218,-0.1462
12.6,1.1976,0.16623,0.16454,-0.1478
12.7,1.1995,0.16853,0.16683,-0.1494
12.8,1.2015,0.17081,0.16911,-0.151
12.9,1.2036,0.17305,0.17135,-0.1526
13,1.2048,0.17585,0.17414,-0.1544
13.1,1.2056,0.17897,0.17725,-0.1562
13.2,1.207,0.18191,0.18019,-0.158
13.3,1.2086,0.18477,0.18305,-0.1597
13.4,1.2106,0.18748,0.18576,-0.1614
13.5,1.2128,0.19008,0.18836,-0.163
13.6,1.2153,0.19262,0.1909,-0.1646
13.7,1.2179,0.19513,0.1934,-0.1662
13.8,1.2206,0.19757,0.19584,-0.1677
13.9,1.2235,0.19997,0.19826,-0.1693
14,1.2265,0.20232,0.20061,-0.1708
14.1,1.2295,0.20465,0.20294,-0.1723
14.2,1.2327,0.20693,0.20522,-0.1738
14.3,1.236,0.20918,0.20748,-0.1753
14.4,1.2393,0.21141,0.2097,-0.1768
14.5,1.2427,0.2136,0.21189,-0.1783
14.7,1.25,0.2172,0.21549,-0.1814
14.8,1.2535,0.21923,0.21752,-0.1829
14.9,1.257,0.22122,0.21951,-0.1844
15,1.2605,0.22317,0.22146,-0.1859
15.1,1.2639,0.22514,0.22343,-0.1874
15.2,1.2674,0.22707,0.22537,-0.1889
15.3,1.2712,0.23026,0.22855,-0.1906
15.4,1.275,0.23329,0.23157,-0.1922
15.5,1.2789,0.23613,0.23441,-0.1938
15.6,1.2828,0.23873,0.23702,-0.1954
15.7,1.2868,0.24131,0.23959,-0.197
15.8,1.2907,0.24379,0.24207,-0.1985
15.9,1.2947,0.24622,0.24451,-0.2
16,1.2988,0.24867,0.24696,-0.2016
16.1,1.3029,0.25107,0.24936,-0.2031
16.2,1.3069,0.25343,0.25172,-0.2047
16.3,1.311,0.25579,0.25408,-0.2062
16.4,1.3152,0.2581,0.25639,-0.2078
16.5,1.3193,0.26043,0.25872,-0.2093
16.6,1.3235,0.26271,0.261,-0.2109
16.7,1.3276,0.26498,0.26328,-0.2124
16.8,1.3318,0.26725,0.26554,-0.2139
16.9,1.336,0.26949,0.26779,-0.2155
17,1.3402,0.27174,0.27004,-0.217
17.1,1.3445,0.27396,0.27226,-0.2186
17.2,1.3487,0.27619,0.27449,-0.2201
17.3,1.3529,0.27839,0.27669,-0.2217
17.4,1.3572,0.28061,0.27892,-0.2233
17.5,1.3614,0.28281,0.28111,-0.2248
17.6,1.3656,0.285,0.28331,-0.2264
17.7,1.3699,0.2872,0.28551,-0.228
17.8,1.3741,0.28936,0.28767,-0.2296
17.9,1.3784,0.29153,0.28985,-0.2312
18,1.3826,0.2937,0.29203,-0.2327
18.1,1.3869,0.29589,0.29422,-0.2343
18.2,1.3911,0.29805,0.29639,-0.2359
18.3,1.3953,0.30024,0.29857,-0.2375
18.4,1.3996,0.30243,0.30077,-0.2391
18.5,1.4038,0.3046,0.30295,-0.2407
18.6,1.408,0.30682,0.30516,-0.2423
18.7,1.4121,0.30898,0.30733,-0.2439
18.8,1.4164,0.31125,0.3096,-0.2456
18.9,1.4206,0.31352,0.31187,-0.2472
19,1.4248,0.31578,0.31413,-0.2488
19.1,1.429,0.31808,0.31643,-0.2504
19.2,1.4331,0.32037,0.31872,-0.252
19.3,1.4374,0.32273,0.32109,-0.2536
19.4,1.4415,0.32511,0.32347,-0.2553
19.5,1.4458,0.3275,0.32587,-0.2569
19.6,1.4504,0.3302,0.32855,-0.2586
19.7,1.4554,0.3333,0.33165,-0.2606
19.8,1.4604,0.33635,0.3347,-0.2624
19.9,1.4648,0.33891,0.33727,-0.2641
20,1.4696,0.34189,0.34024,-0.2659
20.1,1.4743,0.34481,0.34318,-0.2677
20.2,1.4789,0.34769,0.34605,-0.2695
20.3,1.4835,0.35046,0.34882,-0.2713
20.4,1.488,0.35318,0.35154,-0.273
20.5,1.4925,0.35586,0.35422,-0.2748
20.6,1.497,0.35863,0.357,-0.2766
20.7,1.5014,0.36132,0.35969,-0.2784
20.8,1.506,0.36409,0.36247,-0.2802
20.9,1.5104,0.36679,0.36517,-0.282
21,1.5148,0.3695,0.36788,-0.2838
21.1,1.5192,0.37215,0.37054,-0.2855
21.2,1.5236,0.37487,0.37326,-0.2874
21.3,1.5281,0.37759,0.37598,-0.2892
21.4,1.5325,0.3803,0.3787,-0.291
21.5,1.5368,0.38297,0.38138,-0.2928
21.6,1.5412,0.3857,0.38411,-0.2947
21.7,1.5455,0.38837,0.38678,-0.2965
21.8,1.5499,0.39109,0.3895,-0.2984
21.9,1.5543,0.39381,0.39223,-0.3002
22,1.5586,0.39653,0.39495,-0.3021
22.1,1.5629,0.39926,0.39769,-0.304
22.2,1.5675,0.40198,0.40041,-0.3062
22.3,1.5718,0.40466,0.40309,-0.3081
22.4,1.5761,0.40735,0.40578,-0.31
22.5,1.5804,0.41002,0.40846,-0.3119
22.6,1.5846,0.41272,0.41116,-0.3138
22.7,1.5889,0.4154,0.41385,-0.3157
22.8,1.5931,0.41809,0.41654,-0.3177
22.9,1.5973,0.42079,0.41924,-0.3196
23,1.6016,0.42349,0.42194,-0.3216
23.1,1.6057,0.42618,0.42464,-0.3235
23.2,1.6099,0.42889,0.42735,-0.3255
23.3,1.6141,0.43159,0.43005,-0.3274
23.4,1.6183,0.4343,0.43277,-0.3294
23.5,1.6224,0.43701,0.43548,-0.3314
23.6,1.6265,0.43971,0.43818,-0.3334
23.7,1.6306,0.44243,0.44091,-0.3354
23.8,1.6347,0.44514,0.44362,-0.3374
23.9,1.6388,0.44784,0.44633,-0.3394
24,1.6429,0.45057,0.44906,-0.3414
24.1,1.6469,0.45331,0.45181,-0.3434
24.2,1.6509,0.45599,0.45448,-0.3454
24.3,1.6549,0.45874,0.45724,-0.3474
24.4,1.6589,0.46147,0.45998,-0.3494
24.5,1.6629,0.46421,0.46272,-0.3515
24.6,1.6669,0.46696,0.46548,-0.3535
24.7,1.6708,0.46973,0.46826,-0.3556
24.8,1.6747,0.47251,0.47105,-0.3576
24.9,1.6786,0.47525,0.47378,-0.3597
25,1.6825,0.47802,0.47656,-0.3618
25.1,1.6864,0.48086,0.4794,-0.3638
25.2,1.6903,0.48366,0.48221,-0.3659
25.3,1.6941,0.4865,0.48505,-0.368
25.4,1.6979,0.48937,0.48792,-0.37
25.5,1.7017,0.49222,0.49078,-0.3721
25.6,1.7055,0.49514,0.4937,-0.3742
25.7,1.7093,0.49804,0.49661,-0.3763
25.8,1.713,0.50102,0.49959,-0.3784
25.9,1.7168,0.50402,0.50259,-0.3805
26,1.7205,0.50706,0.50564,-0.3826
26.1,1.7242,0.51011,0.50869,-0.3847
26.2,1.728,0.5132,0.51178,-0.3868
26.3,1.7316,0.51633,0.51492,-0.3889
26.4,1.7353,0.51949,0.51809,-0.391
26.5,1.739,0.52276,0.52136,-0.3931
26.6,1.7426,0.52599,0.52459,-0.3952
26.7,1.7463,0.52919,0.52779,-0.3973
26.8,1.7499,0.53246,0.53107,-0.3995
26.9,1.7535,0.53587,0.53449,-0.4016
27,1.7571,0.5392,0.53782,-0.4037
27.1,1.7607,0.54264,0.54126,-0.4058
27.2,1.7643,0.546,0.54462,-0.408
27.3,1.7679,0.54943,0.54806,-0.4101
27.4,1.7714,0.55282,0.55145,-0.4123
27.5,1.775,0.55625,0.55489,-0.4145
27.6,1.7785,0.55973,0.55837,-0.4166
27.7,1.782,0.56329,0.56195,-0.4188
28,1.7951,0.5725,0.57115,-0.4269
28.1,1.799,0.57593,0.57459,-0.4293
28.2,1.8028,0.57943,0.57808,-0.4318
28.3,1.8066,0.58289,0.58155,-0.4341
28.4,1.8105,0.58647,0.58514,-0.4366
28.5,1.8141,0.5899,0.58856,-0.4389
28.6,1.8176,0.59331,0.59198,-0.4413
28.7,1.8212,0.59683,0.59551,-0.4437
28.8,1.8248,0.60023,0.59891,-0.4461
28.9,1.8283,0.60366,0.60234,-0.4485
29,1.8318,0.60706,0.60574,-0.4509
29.1,1.8353,0.61045,0.60914,-0.4533
29.2,1.8388,0.61381,0.61251,-0.4558
29.3,1.8422,0.61718,0.61588,-0.4582
29.4,1.8457,0.62051,0.61921,-0.4607
29.5,1.8491,0.6238,0.62251,-0.4632
29.6,1.8532,0.62553,0.62424,-0.4663
29.7,1.8565,0.62875,0.62746,-0.4688
29.8,1.8598,0.63201,0.63072,-0.4713
29.9,1.8632,0.63526,0.63398,-0.4738
30,1.8665,0.63848,0.63721,-0.4763

