airfoilName st23.dat
Re 	750000
M 	5.000000e-01
N 	4.500000e+00
VACC 	0 VACCflag 1
XTR 	1.00 	1.00 XTRflag 0
alpha,cl,cd,cdp,cm
-4.2,-0.0258,0.03393,0.03153,-0.1104
-4.1,-0.0081,0.0319,0.02942,-0.1134
-4,0.0098,0.02971,0.02714,-0.1164
-3.9,0.0306,0.02643,0.02371,-0.1207
-3.8,0.0516,0.02279,0.01987,-0.1249
-3.7,0.0751,0.01666,0.01325,-0.1311
-3.6,0.0928,0.01347,0.00964,-0.1338
-3.5,0.1083,0.01209,0.00797,-0.1348
-3.4,0.1235,0.01122,0.00689,-0.1353
-3.3,0.1382,0.01058,0.00607,-0.1355
-3.2,0.1528,0.01007,0.00542,-0.1356
-3.1,0.1672,0.00966,0.00487,-0.1356
-3,0.1816,0.00931,0.0044,-0.1356
-2.9,0.196,0.00901,0.00399,-0.1356
-2.8,0.2103,0.00875,0.00364,-0.1355
-2.7,0.2246,0.00853,0.00333,-0.1355
-2.6,0.2386,0.00834,0.00305,-0.1353
-2.5,0.2527,0.00818,0.00282,-0.1352
-2.4,0.2667,0.00802,0.00261,-0.1352
-2.3,0.2806,0.0079,0.00244,-0.1351
-2.2,0.2943,0.0078,0.00231,-0.1349
-2.1,0.3081,0.00772,0.00218,-0.1348
-2,0.3219,0.00765,0.00208,-0.1347
-1.9,0.3351,0.00758,0.00197,-0.1345
-1.8,0.3487,0.00752,0.00189,-0.1344
-1.7,0.3619,0.00748,0.00181,-0.1341
-1.6,0.3754,0.00742,0.00175,-0.1341
-1.5,0.3886,0.00739,0.00168,-0.1339
-1.4,0.4018,0.00735,0.00164,-0.1337
-1.3,0.4154,0.00732,0.00159,-0.1337
-1.2,0.4284,0.00731,0.00153,-0.1334
-1.1,0.4419,0.00728,0.00148,-0.1334
-1,0.4554,0.00724,0.00146,-0.1333
-0.9,0.4682,0.00725,0.00142,-0.1331
-0.8,0.4816,0.00724,0.00138,-0.133
-0.7,0.4947,0.00723,0.00136,-0.1329
-0.6,0.508,0.00722,0.00134,-0.1328
-0.5,0.5206,0.00725,0.00132,-0.1325
-0.4,0.5337,0.00726,0.00132,-0.1324
-0.3,0.5469,0.00726,0.0013,-0.1323
-0.2,0.56,0.00728,0.00129,-0.1322
-0.1,0.5722,0.00734,0.00129,-0.1319
0,0.5852,0.00737,0.0013,-0.1317
0.1,0.598,0.0074,0.0013,-0.1316
0.2,0.61,0.00749,0.00132,-0.1312
0.3,0.6226,0.00756,0.00134,-0.131
0.4,0.6336,0.00774,0.00137,-0.1305
0.5,0.6455,0.00787,0.00142,-0.1302
0.6,0.6577,0.00797,0.00146,-0.13
0.7,0.6695,0.00811,0.00152,-0.1296
0.8,0.6802,0.00836,0.00161,-0.1292
0.9,0.6916,0.00855,0.00169,-0.1288
1,0.7028,0.00876,0.00178,-0.1284
1.1,0.7138,0.00899,0.00188,-0.128
1.2,0.7252,0.00921,0.00198,-0.1277
1.4,0.7455,0.0099,0.00229,-0.1267
1.5,0.7574,0.01006,0.00239,-0.1265
1.6,0.7697,0.01018,0.00248,-0.1263
1.7,0.7821,0.01029,0.00256,-0.1261
1.8,0.7947,0.01037,0.00263,-0.1259
1.9,0.8069,0.0105,0.00273,-0.1256
2,0.8195,0.01058,0.00281,-0.1254
2.1,0.8322,0.01066,0.00288,-0.1252
2.2,0.8449,0.01074,0.00296,-0.125
2.3,0.8573,0.01084,0.00304,-0.1248
2.4,0.8701,0.01091,0.00313,-0.1246
2.5,0.883,0.01093,0.00322,-0.1245
2.6,0.8889,0.00965,0.00343,-0.1232
2.7,0.9017,0.00974,0.00351,-0.123
2.8,0.9144,0.00985,0.00359,-0.1227
2.9,0.9269,0.00998,0.00369,-0.1224
3,0.9395,0.0101,0.0038,-0.1221
3.1,0.9522,0.01021,0.0039,-0.1218
3.2,0.965,0.01032,0.00399,-0.1215
3.3,0.9773,0.01047,0.0041,-0.1212
3.4,0.99,0.01058,0.0042,-0.1209
3.5,1.0026,0.01072,0.00432,-0.1205
3.6,1.0153,0.01083,0.00443,-0.1201
3.7,1.0279,0.01096,0.00454,-0.1198
3.8,1.0402,0.01112,0.00468,-0.1193
3.9,1.0528,0.01126,0.0048,-0.1189
4,1.0653,0.01141,0.00495,-0.1185
4.1,1.0779,0.01154,0.00508,-0.1181
4.2,1.0904,0.0117,0.00522,-0.1176
4.3,1.1026,0.01187,0.00538,-0.1171
4.4,1.1151,0.01203,0.00553,-0.1166
4.5,1.1274,0.0122,0.00573,-0.1161
4.6,1.14,0.01235,0.0059,-0.1155
4.7,1.1524,0.01252,0.00607,-0.115
4.8,1.1646,0.01271,0.00626,-0.1144
4.9,1.1772,0.01288,0.00645,-0.1138
5,1.1896,0.01305,0.00665,-0.1132
5.1,1.2016,0.01327,0.00686,-0.1125
5.2,1.2139,0.01346,0.00709,-0.1118
5.3,1.2263,0.01365,0.00731,-0.1111
5.4,1.2387,0.01385,0.00754,-0.1104
5.5,1.2509,0.01406,0.00779,-0.1097
5.6,1.2629,0.0143,0.00806,-0.1089
5.7,1.2747,0.01457,0.00836,-0.108
5.8,1.2868,0.0148,0.00866,-0.1071
5.9,1.2988,0.01505,0.009,-0.1062
6,1.3108,0.0153,0.00929,-0.1053
6.1,1.3224,0.01559,0.00964,-0.1044
6.2,1.3339,0.0159,0.00998,-0.1034
6.3,1.3453,0.01622,0.01038,-0.1023
6.4,1.3565,0.01657,0.01081,-0.1011
6.5,1.3674,0.01696,0.01127,-0.0999
6.6,1.3776,0.01742,0.01182,-0.0986
6.7,1.3869,0.01797,0.01251,-0.0971
6.8,1.3971,0.01843,0.01307,-0.0957
6.9,1.4055,0.01907,0.01384,-0.0941
7,1.4129,0.01981,0.01473,-0.0923
7.1,1.418,0.02076,0.01588,-0.0903
7.2,1.4218,0.02184,0.01715,-0.0882
7.3,1.4244,0.02301,0.01853,-0.086
7.4,1.4255,0.02427,0.02,-0.0838
7.5,1.4252,0.02561,0.02153,-0.0815
7.6,1.4233,0.02696,0.02307,-0.0791
7.7,1.4198,0.02831,0.02459,-0.0766
7.8,1.4155,0.02972,0.02616,-0.0742
7.9,1.4105,0.03117,0.02777,-0.0719
8,1.4049,0.03268,0.02942,-0.0697
8.2,1.392,0.03583,0.03284,-0.0659
8.3,1.3848,0.03748,0.03462,-0.0642
8.4,1.3774,0.03918,0.03644,-0.0628
8.5,1.3697,0.04094,0.0383,-0.0616
8.6,1.3617,0.04279,0.04028,-0.0607
8.8,1.3452,0.04669,0.04437,-0.0597
8.9,1.3369,0.04877,0.04654,-0.0597
9,1.3286,0.05097,0.04883,-0.06
9.1,1.3203,0.05328,0.05121,-0.0607
9.3,1.304,0.05831,0.0564,-0.0634
9.4,1.2962,0.06111,0.05927,-0.0654
9.5,1.2888,0.06414,0.06238,-0.068
9.6,1.2819,0.06747,0.06576,-0.0712
9.7,1.2755,0.07124,0.06959,-0.0748
9.9,1.2656,0.08057,0.07907,-0.084
10,1.2602,0.08474,0.08327,-0.0879
10.1,1.2547,0.08854,0.08709,-0.0913
10.2,1.2493,0.09218,0.09073,-0.0944
10.4,1.239,0.09919,0.09775,-0.1002
10.6,1.2296,0.10598,0.10454,-0.1056
10.7,1.2253,0.10932,0.10788,-0.1082
10.8,1.2212,0.11262,0.11117,-0.1107
10.9,1.2176,0.11586,0.11441,-0.1131
11,1.2142,0.11909,0.11764,-0.1155
11.1,1.2112,0.12227,0.12081,-0.1178
11.2,1.2085,0.12543,0.12397,-0.1201
11.3,1.2063,0.12853,0.12707,-0.1224
11.4,1.2044,0.13159,0.13012,-0.1245
11.5,1.2029,0.13459,0.13312,-0.1266
11.6,1.2018,0.13753,0.13606,-0.1287
11.7,1.2011,0.14038,0.13891,-0.1307
11.8,1.2007,0.14318,0.14171,-0.1326
11.9,1.2006,0.14591,0.14443,-0.1345
12,1.2006,0.14863,0.14715,-0.1363
12.1,1.2011,0.15125,0.14977,-0.1381
12.2,1.2018,0.15384,0.15235,-0.1399
12.3,1.2026,0.15639,0.1549,-0.1417
12.4,1.2018,0.15958,0.15808,-0.1438
12.5,1.2013,0.16273,0.16122,-0.1458
12.6,1.2013,0.16576,0.16426,-0.1477
12.7,1.2017,0.16876,0.16725,-0.1496
12.8,1.2025,0.17164,0.17013,-0.1515
12.9,1.2037,0.17444,0.17293,-0.1533
13,1.2051,0.17723,0.17572,-0.155
13.1,1.2068,0.17991,0.1784,-0.1567
13.2,1.2087,0.18252,0.181,-0.1584
13.3,1.2108,0.18509,0.18358,-0.16
13.4,1.213,0.1876,0.18609,-0.1617
13.5,1.2154,0.19005,0.18854,-0.1632
13.6,1.218,0.19246,0.19095,-0.1648
13.7,1.2206,0.19484,0.19333,-0.1664
13.8,1.2234,0.19719,0.19569,-0.1679
13.9,1.2263,0.19949,0.19799,-0.1694
14,1.2292,0.20176,0.20025,-0.171
14.3,1.2394,0.20762,0.20612,-0.1756
14.4,1.2426,0.20969,0.20819,-0.1771
14.5,1.2458,0.21176,0.21026,-0.1786
14.6,1.249,0.21378,0.21228,-0.1802
14.7,1.2521,0.21613,0.21461,-0.1818
14.8,1.2554,0.21912,0.21761,-0.1834
14.9,1.2587,0.22203,0.22052,-0.185
15,1.2622,0.22483,0.22332,-0.1866
15.1,1.2657,0.22746,0.22594,-0.1882
15.2,1.2694,0.23003,0.22852,-0.1898
15.3,1.2731,0.23251,0.23099,-0.1913
15.4,1.2769,0.23495,0.23344,-0.1929
15.5,1.2807,0.23737,0.23586,-0.1944
15.6,1.2846,0.23973,0.23822,-0.196
15.7,1.2886,0.24208,0.24057,-0.1975
15.8,1.2925,0.24441,0.2429,-0.199
15.9,1.2965,0.24671,0.2452,-0.2006
16,1.3005,0.24902,0.24751,-0.2021
16.1,1.3045,0.25129,0.24979,-0.2036
16.2,1.3086,0.25356,0.25205,-0.2052
16.3,1.3126,0.2558,0.25429,-0.2067
16.4,1.3167,0.25802,0.25652,-0.2082
16.5,1.3208,0.26023,0.25873,-0.2098
16.6,1.3249,0.26244,0.26094,-0.2113
16.7,1.329,0.26463,0.26314,-0.2128
16.8,1.3331,0.2668,0.2653,-0.2144
16.9,1.3373,0.26896,0.26746,-0.2159
17,1.3414,0.27114,0.26964,-0.2175
17.1,1.3456,0.27326,0.27176,-0.219
17.2,1.3497,0.27542,0.27393,-0.2206
17.3,1.3539,0.27754,0.27605,-0.2222
17.4,1.3581,0.27971,0.27822,-0.2237
17.5,1.3622,0.28183,0.28034,-0.2253
17.6,1.3664,0.28396,0.28248,-0.2269
17.7,1.3706,0.28611,0.28463,-0.2284
17.8,1.3747,0.2882,0.28671,-0.23
17.9,1.3788,0.29032,0.28885,-0.2316
18,1.383,0.29247,0.29101,-0.2332
18.1,1.3871,0.29466,0.2932,-0.2347
18.2,1.3912,0.29684,0.29538,-0.2363
18.3,1.3953,0.29907,0.29761,-0.2379
18.4,1.3994,0.30133,0.29987,-0.2395
18.5,1.4035,0.30361,0.30215,-0.2411
18.6,1.408,0.30622,0.30475,-0.2427
18.7,1.4131,0.30934,0.30787,-0.2446
18.8,1.4177,0.31203,0.31056,-0.2463
18.9,1.4223,0.31479,0.31333,-0.248
19,1.4271,0.3177,0.31624,-0.2497
19.1,1.4317,0.32051,0.31905,-0.2514
19.2,1.4364,0.32346,0.322,-0.2531
19.3,1.441,0.3261,0.32464,-0.2548
19.4,1.4455,0.32876,0.3273,-0.2565
19.5,1.4499,0.33134,0.32989,-0.2582
19.6,1.4544,0.33397,0.33252,-0.2599
19.7,1.459,0.33667,0.33522,-0.2616
19.8,1.4635,0.33933,0.33788,-0.2634
19.9,1.4678,0.34182,0.34037,-0.2651
20,1.4723,0.34446,0.34301,-0.2668
20.1,1.4768,0.34709,0.34565,-0.2686
20.2,1.4812,0.34971,0.34827,-0.2703
20.3,1.4856,0.35229,0.35086,-0.272
20.4,1.49,0.35487,0.35343,-0.2738
20.5,1.4944,0.35744,0.35601,-0.2755
20.6,1.4989,0.36005,0.35862,-0.2773
20.7,1.5032,0.36264,0.36121,-0.2791
20.8,1.5077,0.36527,0.36385,-0.2809
20.9,1.512,0.36787,0.36645,-0.2827
21,1.5164,0.37048,0.36905,-0.2844
21.1,1.5207,0.37307,0.37165,-0.2862
21.2,1.5251,0.37569,0.37427,-0.288
21.3,1.5295,0.37832,0.37691,-0.2899
21.4,1.5338,0.38095,0.37955,-0.2917
21.5,1.5381,0.38356,0.38217,-0.2935
21.6,1.5425,0.38622,0.38482,-0.2953
21.7,1.5468,0.38884,0.38745,-0.2972
21.8,1.5513,0.39142,0.39003,-0.2993
21.9,1.5556,0.39403,0.39264,-0.3011
22,1.5599,0.39665,0.39526,-0.303
22.1,1.5642,0.39927,0.39789,-0.3049
22.2,1.5684,0.40189,0.40051,-0.3068
22.3,1.5727,0.40452,0.40314,-0.3087
22.4,1.5769,0.40715,0.40577,-0.3106
22.5,1.5812,0.40978,0.40841,-0.3125
22.6,1.5854,0.41241,0.41104,-0.3144
22.7,1.5896,0.41505,0.41369,-0.3163
22.8,1.5938,0.41769,0.41633,-0.3182
22.9,1.598,0.42033,0.41898,-0.3202
23,1.6022,0.42297,0.42162,-0.3221
23.1,1.6063,0.42561,0.42426,-0.3241
23.2,1.6105,0.42827,0.42692,-0.326
23.3,1.6146,0.43091,0.42957,-0.328
23.4,1.6187,0.43357,0.43223,-0.33
23.5,1.6229,0.43622,0.43488,-0.3319
23.6,1.6269,0.43885,0.43752,-0.3339
23.7,1.631,0.44152,0.44019,-0.3359
23.8,1.6351,0.44417,0.44284,-0.3379
23.9,1.6391,0.44681,0.44548,-0.3399
24,1.6431,0.4495,0.44818,-0.3419
24.1,1.6471,0.4522,0.45089,-0.3439
24.2,1.6511,0.45481,0.4535,-0.3459
24.3,1.655,0.45754,0.45623,-0.3479
24.4,1.659,0.46024,0.45893,-0.3499
24.5,1.6629,0.46296,0.46167,-0.3519
24.6,1.6668,0.46569,0.4644,-0.354
24.7,1.6707,0.46846,0.46718,-0.356
24.8,1.6746,0.47126,0.46998,-0.358
24.9,1.6784,0.47403,0.47276,-0.3601
25,1.6823,0.47688,0.47561,-0.3621
25.1,1.6862,0.47977,0.4785,-0.3642
25.2,1.69,0.48267,0.4814,-0.3662
25.3,1.6938,0.48561,0.48434,-0.3682
25.4,1.6976,0.48863,0.48737,-0.3703
25.5,1.7013,0.4917,0.49044,-0.3723
25.6,1.7051,0.49482,0.49357,-0.3743
25.7,1.7088,0.49798,0.49673,-0.3764
25.8,1.7126,0.50106,0.49981,-0.3784
25.9,1.7163,0.50434,0.5031,-0.3805
26,1.7201,0.50752,0.50628,-0.3825
26.1,1.7238,0.51074,0.5095,-0.3846
26.2,1.7275,0.514,0.51276,-0.3867
26.3,1.7312,0.5173,0.51607,-0.3887
26.4,1.7349,0.52058,0.51935,-0.3908
26.8,1.7519,0.53313,0.5319,-0.4006
26.9,1.7563,0.53663,0.5354,-0.403
27,1.7603,0.53998,0.53876,-0.4053
27.1,1.7645,0.54358,0.54235,-0.4077
27.2,1.7683,0.54691,0.54569,-0.41
27.3,1.7722,0.55027,0.54905,-0.4122
27.4,1.7759,0.55358,0.55237,-0.4145
27.5,1.7796,0.55689,0.55568,-0.4168
27.6,1.7834,0.56023,0.55902,-0.4191
27.7,1.7872,0.56358,0.56238,-0.4214
27.8,1.7908,0.56688,0.56569,-0.4237
27.9,1.7946,0.57016,0.56897,-0.4261
28,1.7983,0.57343,0.57225,-0.4284
28.1,1.8018,0.5767,0.57552,-0.4308
28.2,1.8054,0.57997,0.57879,-0.4331
28.3,1.809,0.58318,0.58201,-0.4355
28.4,1.8126,0.58643,0.58526,-0.4379
28.5,1.8161,0.58967,0.5885,-0.4402
28.6,1.8196,0.59295,0.59179,-0.4426
28.7,1.8231,0.59622,0.59506,-0.445
28.8,1.8265,0.59944,0.59828,-0.4473
28.9,1.83,0.6027,0.60155,-0.4497
29,1.8334,0.60596,0.60481,-0.4521
29.1,1.8368,0.60923,0.60808,-0.4546
29.2,1.8406,0.61138,0.61024,-0.4574
29.3,1.844,0.61457,0.61343,-0.4598
29.4,1.8474,0.61779,0.61665,-0.4623
29.5,1.8507,0.62098,0.61985,-0.4647
29.6,1.854,0.62421,0.62308,-0.4672
29.7,1.8572,0.62744,0.62632,-0.4696
29.8,1.8605,0.63071,0.62959,-0.472
29.9,1.8637,0.63399,0.63287,-0.4745
30,1.8669,0.63723,0.63612,-0.4769

