airfoilName st23.dat
Re 	5.100000e+05
M 	5.000000e-01
N 	4.500000e+00
VACC 	0 VACCflag 1
XTR 	1.00 	1.00 XTRflag 0
alpha,cl,cd,cdp,cm
-30,-1.382,0.61134,0.60934,0.3018
-29.9,-1.3786,0.60766,0.60564,0.2996
-29.8,-1.3752,0.60405,0.60204,0.2974
-29.7,-1.3717,0.60043,0.59841,0.2952
-29.6,-1.3682,0.59683,0.59481,0.293
-29.5,-1.3647,0.59326,0.59123,0.2908
-29.4,-1.3612,0.58967,0.58764,0.2886
-29.3,-1.3577,0.58613,0.58409,0.2865
-29.2,-1.3541,0.58268,0.58064,0.2843
-29.1,-1.3506,0.57917,0.57712,0.2821
-29,-1.347,0.57568,0.57363,0.28
-28.9,-1.3433,0.57222,0.57017,0.2778
-28.8,-1.3397,0.56879,0.56673,0.2757
-28.7,-1.3361,0.56541,0.56334,0.2735
-28.6,-1.3324,0.56202,0.55995,0.2714
-28.5,-1.3288,0.55867,0.55659,0.2692
-28.4,-1.325,0.55536,0.55329,0.2671
-28.3,-1.3213,0.55198,0.5499,0.265
-28.2,-1.3176,0.54869,0.54661,0.2629
-28.1,-1.3139,0.54539,0.5433,0.2608
-28,-1.3101,0.54213,0.54004,0.2587
-27.9,-1.3063,0.53885,0.53675,0.2566
-27.8,-1.3025,0.5356,0.53351,0.2545
-27.7,-1.2987,0.5324,0.5303,0.2524
-27.6,-1.2949,0.52919,0.52709,0.2503
-27.5,-1.2911,0.52595,0.52384,0.2482
-27.4,-1.2872,0.52276,0.52065,0.2462
-27.3,-1.2833,0.51962,0.5175,0.2441
-27.2,-1.2795,0.51647,0.51435,0.2421
-27.1,-1.2756,0.51334,0.51122,0.24
-27,-1.2716,0.5102,0.50807,0.238
-26.9,-1.2677,0.50709,0.50496,0.236
-26.8,-1.2638,0.50398,0.50184,0.2339
-26.7,-1.2598,0.50092,0.49879,0.2319
-26.6,-1.2559,0.49787,0.49573,0.2299
-26.5,-1.2518,0.49484,0.4927,0.2279
-26.4,-1.2478,0.49181,0.48967,0.2259
-26.3,-1.2438,0.4888,0.48666,0.2239
-26.2,-1.2398,0.48582,0.48367,0.2219
-26.1,-1.2357,0.48285,0.48068,0.2199
-26,-1.2317,0.47993,0.47776,0.2179
-25.9,-1.2276,0.47699,0.47482,0.2159
-25.8,-1.2235,0.47407,0.47189,0.214
-25.7,-1.2194,0.47119,0.46901,0.212
-25.6,-1.2153,0.46834,0.46616,0.21
-25.5,-1.2111,0.46547,0.46329,0.2081
-25.4,-1.207,0.46264,0.46045,0.2061
-25.3,-1.2028,0.45983,0.45764,0.2042
-25.2,-1.1986,0.45703,0.45483,0.2022
-25.1,-1.1944,0.45426,0.45206,0.2003
-25,-1.1902,0.45151,0.44931,0.1983
-24.9,-1.186,0.44875,0.44655,0.1964
-24.8,-1.1818,0.44603,0.44383,0.1945
-24.7,-1.1775,0.44333,0.44112,0.1926
-24.6,-1.1732,0.44063,0.43842,0.1906
-24.5,-1.169,0.43794,0.43573,0.1887
-24.4,-1.1647,0.43527,0.43305,0.1868
-24.3,-1.1603,0.43263,0.43042,0.1849
-24.2,-1.156,0.43,0.42778,0.183
-24.1,-1.1517,0.42735,0.42513,0.1811
-24,-1.147,0.42584,0.42362,0.1788
-23.9,-1.1427,0.42316,0.42093,0.177
-23.8,-1.1383,0.42057,0.41834,0.1751
-23.7,-1.1339,0.41793,0.4157,0.1732
-23.6,-1.1295,0.41529,0.41306,0.1714
-23.5,-1.1251,0.41266,0.41043,0.1695
-23.4,-1.1207,0.41009,0.40785,0.1677
-23.3,-1.1163,0.40752,0.40528,0.1658
-23.2,-1.1119,0.40489,0.40264,0.164
-23.1,-1.1075,0.40227,0.40001,0.1622
-23,-1.103,0.39979,0.39753,0.1603
-22.9,-1.0985,0.39719,0.39493,0.1586
-22.8,-1.0941,0.39464,0.39238,0.1568
-22.7,-1.0896,0.39211,0.38984,0.155
-22.6,-1.0851,0.38955,0.38728,0.1532
-22.5,-1.0806,0.38703,0.38476,0.1514
-22.4,-1.0762,0.38448,0.38222,0.1496
-22.3,-1.0717,0.38199,0.37972,0.1479
-22.2,-1.0671,0.37948,0.37721,0.1461
-22.1,-1.0627,0.37694,0.37467,0.1444
-22,-1.0581,0.3745,0.37223,0.1426
-21.9,-1.0536,0.37199,0.36972,0.1409
-21.8,-1.049,0.36952,0.36724,0.1391
-21.7,-1.0445,0.36704,0.36476,0.1374
-21.6,-1.0399,0.36458,0.3623,0.1357
-21.5,-1.0354,0.36214,0.35985,0.134
-21.4,-1.0308,0.35968,0.35739,0.1323
-21.3,-1.0262,0.35724,0.35495,0.1306
-21.2,-1.0216,0.35479,0.3525,0.1289
-21.1,-1.017,0.35236,0.35007,0.1272
-21,-1.0124,0.34991,0.34762,0.1255
-20.9,-1.0078,0.3475,0.34521,0.1238
-20.8,-1.0032,0.34507,0.34277,0.1222
-20.7,-0.9986,0.3426,0.3403,0.1205
-20.6,-0.9939,0.34018,0.33789,0.1189
-20.5,-0.9893,0.33774,0.33545,0.1172
-20.4,-0.9845,0.33531,0.33302,0.1156
-20.3,-0.9798,0.33287,0.33057,0.1139
-20.2,-0.975,0.33044,0.32814,0.1123
-20.1,-0.9703,0.32801,0.3257,0.1107
-20,-0.9654,0.32559,0.32328,0.109
-19.5,-0.9389,0.31468,0.31238,0.0998
-19.4,-0.9346,0.31214,0.30985,0.0984
-19.3,-0.9303,0.30962,0.30733,0.0971
-19.2,-0.926,0.30707,0.30477,0.0958
-19.1,-0.9217,0.30456,0.30226,0.0944
-19,-0.9173,0.30207,0.29977,0.0931
-18.9,-0.913,0.29953,0.29723,0.0919
-18.8,-0.9087,0.29704,0.29474,0.0906
-18.7,-0.9044,0.29459,0.29228,0.0893
-18.6,-0.9001,0.2921,0.28979,0.088
-18.5,-0.8958,0.28962,0.28731,0.0867
-18.4,-0.8915,0.28717,0.28486,0.0855
-18.3,-0.8872,0.28476,0.28245,0.0842
-18.2,-0.8829,0.28238,0.28006,0.0829
-18.1,-0.8786,0.28,0.27769,0.0817
-18,-0.8743,0.27767,0.27536,0.0804
-17.9,-0.87,0.27538,0.27306,0.0792
-17.8,-0.8656,0.27311,0.27079,0.0779
-17.7,-0.8613,0.27088,0.26856,0.0767
-17.6,-0.8569,0.26867,0.26635,0.0754
-17.5,-0.8525,0.26648,0.26416,0.0741
-17.4,-0.8481,0.26432,0.26199,0.0729
-17.3,-0.8437,0.26217,0.25985,0.0716
-17.2,-0.8393,0.26004,0.25772,0.0703
-17.1,-0.8349,0.25793,0.2556,0.0691
-17,-0.8305,0.25584,0.25351,0.0678
-16.9,-0.826,0.25375,0.25141,0.0666
-16.8,-0.8216,0.25168,0.24934,0.0653
-16.7,-0.8171,0.24962,0.24728,0.0641
-16.6,-0.8127,0.24756,0.24522,0.0629
-16.5,-0.8082,0.24552,0.24318,0.0616
-16.4,-0.8038,0.24349,0.24115,0.0604
-16.3,-0.7994,0.24146,0.23912,0.0592
-16.2,-0.7949,0.23944,0.2371,0.058
-16.1,-0.7905,0.23743,0.23508,0.0568
-16,-0.786,0.23542,0.23308,0.0556
-15.9,-0.7816,0.23342,0.23108,0.0544
-15.8,-0.7771,0.23142,0.22908,0.0532
-15.7,-0.7727,0.22944,0.2271,0.052
-15.6,-0.7682,0.22746,0.22511,0.0509
-15.5,-0.7638,0.22548,0.22314,0.0497
-15.4,-0.7593,0.22351,0.22116,0.0485
-15.3,-0.7549,0.22154,0.2192,0.0474
-15.2,-0.7504,0.21958,0.21724,0.0462
-15.1,-0.7459,0.21763,0.21528,0.0451
-15,-0.7415,0.21568,0.21334,0.0439
-14.9,-0.737,0.21375,0.2114,0.0428
-14.8,-0.7326,0.21181,0.20947,0.0417
-14.7,-0.7281,0.20989,0.20755,0.0405
-14.6,-0.7232,0.20828,0.20594,0.0388
-14.5,-0.7187,0.20634,0.204,0.0377
-14.4,-0.7143,0.20439,0.20205,0.0366
-14.3,-0.7098,0.20246,0.20012,0.0355
-14.2,-0.7054,0.20053,0.19819,0.0344
-14.1,-0.701,0.1986,0.19626,0.0333
-14,-0.6965,0.19668,0.19434,0.0323
-13.9,-0.6921,0.19475,0.19241,0.0312
-13.8,-0.6877,0.19283,0.19049,0.0301
-13.7,-0.6833,0.19091,0.18856,0.0291
-13.6,-0.6788,0.18899,0.18664,0.028
-13.5,-0.6744,0.18707,0.18472,0.027
-13.4,-0.67,0.18514,0.1828,0.026
-13.3,-0.6655,0.1832,0.18085,0.0249
-13.2,-0.661,0.18126,0.17891,0.0239
-13.1,-0.6565,0.17931,0.17697,0.0229
-13,-0.6519,0.17735,0.175,0.0219
-12.9,-0.6472,0.17537,0.17303,0.0208
-12.8,-0.6425,0.17341,0.17107,0.0198
-12.7,-0.6376,0.1714,0.16907,0.0186
-12.6,-0.6325,0.16944,0.16711,0.0175
-12.3,-0.617,0.16382,0.16151,0.0138
-12.2,-0.6131,0.16201,0.1597,0.013
-12.1,-0.6093,0.1602,0.1579,0.0122
-12,-0.6055,0.15841,0.1561,0.0115
-11.9,-0.6016,0.15664,0.15434,0.0107
-11.8,-0.5978,0.15488,0.15258,0.0099
-11.7,-0.594,0.15315,0.15085,0.0091
-11.6,-0.5901,0.15144,0.14914,0.0083
-11.5,-0.5862,0.14975,0.14746,0.0075
-11.4,-0.5822,0.1481,0.1458,0.0067
-11.3,-0.5783,0.14647,0.14418,0.0059
-11.2,-0.5743,0.14486,0.14257,0.0051
-11.1,-0.5702,0.14327,0.14099,0.0043
-11,-0.5662,0.14171,0.13942,0.0034
-10.9,-0.5621,0.14015,0.13787,0.0026
-10.8,-0.558,0.13861,0.13633,0.0018
-10.7,-0.5538,0.13709,0.13481,0.001
-10.6,-0.5497,0.13557,0.13329,0.0001
-10.5,-0.5455,0.13405,0.13178,-0.0007
-10.4,-0.5413,0.13256,0.13027,-0.0015
-10.3,-0.5371,0.13106,0.12878,-0.0024
-10.2,-0.5329,0.12957,0.1273,-0.0032
-10.1,-0.5287,0.12809,0.12582,-0.004
-10,-0.5245,0.12662,0.12435,-0.0048
-9.9,-0.5204,0.12516,0.12289,-0.0056
-9.8,-0.5162,0.1237,0.12144,-0.0064
-9.7,-0.512,0.12224,0.11999,-0.0072
-9.6,-0.5079,0.1208,0.11855,-0.0079
-9.5,-0.5038,0.11936,0.11712,-0.0087
-9.4,-0.4998,0.11794,0.11569,-0.0094
-9.3,-0.4958,0.11652,0.11428,-0.0101
-9.2,-0.4919,0.11512,0.11289,-0.0108
-9.1,-0.4881,0.11373,0.1115,-0.0115
-9,-0.4844,0.11236,0.11014,-0.0121
-8.9,-0.4807,0.11099,0.10878,-0.0128
-8.8,-0.4772,0.10966,0.10745,-0.0133
-8.7,-0.4739,0.10834,0.10614,-0.0138
-8.6,-0.4709,0.10706,0.10487,-0.0142
-8.5,-0.4683,0.10582,0.10364,-0.0146
-8.4,-0.4661,0.10463,0.10245,-0.0148
-8.3,-0.4641,0.10329,0.10113,-0.0151
-8.2,-0.463,0.10218,0.10004,-0.015
-8.1,-0.4625,0.10115,0.09901,-0.0147
-8,-0.4629,0.10021,0.09809,-0.0142
-7.9,-0.4588,0.09881,0.0967,-0.015
-7.8,-0.4514,0.09707,0.09496,-0.0168
-7.7,-0.4439,0.09533,0.09322,-0.0186
-7.6,-0.4362,0.09357,0.09145,-0.0205
-7.5,-0.4281,0.09177,0.08965,-0.0225
-7.4,-0.4198,0.08997,0.08784,-0.0245
-7.3,-0.4121,0.08821,0.08608,-0.0264
-7.2,-0.4038,0.08644,0.08431,-0.0285
-7.1,-0.3946,0.08459,0.08246,-0.0309
-7,-0.3842,0.08268,0.08054,-0.0337
-6.9,-0.3745,0.08084,0.07873,-0.0363
-6.8,-0.3661,0.07917,0.07703,-0.0384
-6.7,-0.3566,0.07741,0.07527,-0.0408
-6.6,-0.347,0.07571,0.07356,-0.0431
-6.5,-0.3369,0.07399,0.07183,-0.0457
-6.4,-0.3267,0.0723,0.07014,-0.0482
-6.3,-0.3187,0.07084,0.06867,-0.05
-6.2,-0.309,0.06928,0.0671,-0.0523
-6.1,-0.2983,0.0677,0.06551,-0.0548
-6,-0.2868,0.06609,0.06389,-0.0576
-5.9,-0.2746,0.06447,0.06225,-0.0604
-5.8,-0.2628,0.06289,0.06067,-0.0631
-5.7,-0.2528,0.06146,0.05923,-0.0652
-5.6,-0.2411,0.05994,0.05769,-0.0677
-5.5,-0.2285,0.05837,0.0561,-0.0705
-5.4,-0.2151,0.05676,0.05447,-0.0733
-5.3,-0.201,0.05511,0.0528,-0.0763
-5.2,-0.1874,0.0535,0.05116,-0.0792
-5.1,-0.1755,0.05199,0.04964,-0.0815
-5,-0.1619,0.05038,0.048,-0.0842
-4.9,-0.1472,0.0487,0.04629,-0.0871
-4.8,-0.1318,0.04696,0.04452,-0.0901
-4.7,-0.1157,0.04516,0.04268,-0.0933
-4.6,-0.0996,0.04336,0.04084,-0.0964
-4.5,-0.0847,0.04161,0.03905,-0.0991
-4.4,-0.0685,0.03972,0.0371,-0.1021
-4.3,-0.0512,0.03771,0.03503,-0.1053
-4.2,-0.0282,0.03363,0.03083,-0.1111
-4.1,-0.008,0.03084,0.02794,-0.1153
-4,0.0107,0.02886,0.02587,-0.1184
-3.9,0.0275,0.02708,0.02399,-0.1208
-3.8,0.0449,0.02526,0.02206,-0.1231
-3.7,0.0631,0.02327,0.01993,-0.1256
-3.6,0.0817,0.02093,0.01741,-0.1282
-3.5,0.1014,0.01758,0.01375,-0.1314
-3.4,0.1197,0.01469,0.01045,-0.1339
-3.3,0.1354,0.01325,0.00871,-0.1349
-3.2,0.1506,0.01225,0.00746,-0.1355
-3.1,0.1654,0.0115,0.00648,-0.1358
-3,0.1803,0.01092,0.00571,-0.1359
-2.9,0.195,0.01046,0.00509,-0.136
-2.8,0.2094,0.01009,0.0046,-0.136
-2.7,0.2236,0.00978,0.00422,-0.136
-2.6,0.2377,0.00956,0.00392,-0.1359
-2.5,0.2517,0.00936,0.00365,-0.1358
-2.4,0.2659,0.00918,0.00339,-0.1358
-2.3,0.2799,0.00901,0.00315,-0.1357
-2.2,0.2938,0.00888,0.00296,-0.1356
-2.1,0.3074,0.00875,0.00282,-0.1355
-2,0.3212,0.00866,0.00269,-0.1354
-1.9,0.335,0.00857,0.00257,-0.1353
-1.8,0.3485,0.0085,0.00251,-0.1352
-1.7,0.3621,0.00845,0.00244,-0.1351
-1.6,0.3754,0.00835,0.00233,-0.1349
-1.5,0.3888,0.00829,0.00224,-0.1347
-1.4,0.4018,0.00824,0.00214,-0.1344
-1.3,0.4153,0.00819,0.00207,-0.1343
-1.2,0.4286,0.00814,0.00202,-0.1342
-1.1,0.4417,0.0081,0.00194,-0.134
-1,0.4551,0.00807,0.00189,-0.1339
-0.9,0.4683,0.00803,0.00184,-0.1337
-0.8,0.4815,0.00801,0.0018,-0.1336
-0.7,0.4949,0.00798,0.00178,-0.1335
-0.6,0.5078,0.00797,0.00174,-0.1333
-0.5,0.5208,0.00796,0.00171,-0.1331
-0.4,0.534,0.00795,0.00168,-0.133
-0.3,0.5473,0.00793,0.00167,-0.1329
-0.2,0.56,0.00795,0.00165,-0.1326
-0.1,0.5731,0.00794,0.00164,-0.1325
0,0.5861,0.00795,0.00163,-0.1323
0.1,0.5993,0.00796,0.00162,-0.1322
0.2,0.6115,0.008,0.00161,-0.1319
0.3,0.6242,0.00803,0.00162,-0.1316
0.4,0.637,0.00806,0.00162,-0.1314
0.5,0.6495,0.00811,0.00163,-0.1312
0.6,0.6612,0.00821,0.00164,-0.1307
0.7,0.6731,0.0083,0.00166,-0.1303
0.8,0.6851,0.0084,0.00168,-0.13
0.9,0.6965,0.00853,0.00173,-0.1295
1,0.7078,0.00869,0.00179,-0.1291
1.1,0.7173,0.009,0.0019,-0.1283
1.2,0.7281,0.00921,0.00199,-0.1278
1.3,0.7394,0.00939,0.00207,-0.1274
1.4,0.7504,0.0096,0.00218,-0.127
1.5,0.7613,0.00983,0.0023,-0.1265
1.6,0.7697,0.01029,0.0025,-0.1258
1.7,0.7801,0.01059,0.00265,-0.1253
1.8,0.7911,0.01083,0.00278,-0.1249
1.9,0.8028,0.011,0.0029,-0.1246
2,0.8148,0.01114,0.00301,-0.1244
2.1,0.8265,0.01131,0.00313,-0.1241
2.2,0.839,0.01135,0.00325,-0.1239
2.4,0.8561,0.01019,0.00352,-0.1221
2.5,0.8687,0.01031,0.00361,-0.1218
2.6,0.8808,0.01047,0.00372,-0.1215
2.7,0.8932,0.0106,0.00382,-0.1212
2.8,0.9058,0.01071,0.00392,-0.1209
2.9,0.9182,0.01084,0.00402,-0.1206
3,0.9308,0.01096,0.00415,-0.1203
3.1,0.9429,0.01113,0.00427,-0.1199
3.2,0.9555,0.01125,0.00437,-0.1196
3.3,0.9679,0.01138,0.00449,-0.1192
3.4,0.9804,0.01151,0.00461,-0.1189
3.5,0.9929,0.01164,0.00473,-0.1185
3.6,1.005,0.01181,0.00486,-0.1181
3.7,1.0174,0.01195,0.00499,-0.1177
3.8,1.0297,0.01211,0.00514,-0.1172
3.9,1.0422,0.01224,0.00528,-0.1168
4,1.0544,0.0124,0.00542,-0.1163
4.1,1.0665,0.01258,0.00558,-0.1159
4.2,1.0787,0.01276,0.00574,-0.1154
4.3,1.091,0.01292,0.00591,-0.1149
4.4,1.1033,0.01308,0.00608,-0.1143
4.5,1.1153,0.01328,0.00631,-0.1138
4.6,1.1276,0.01345,0.00649,-0.1132
4.7,1.1393,0.01367,0.00668,-0.1126
4.8,1.1515,0.01386,0.0069,-0.112
4.9,1.1636,0.01405,0.00711,-0.1114
5,1.1756,0.01426,0.00733,-0.1107
5.1,1.1874,0.01449,0.00759,-0.11
5.2,1.1995,0.01469,0.00783,-0.1093
5.3,1.2114,0.01492,0.00809,-0.1085
5.4,1.2232,0.01516,0.00837,-0.1077
5.5,1.2346,0.01543,0.00865,-0.1069
5.6,1.2464,0.01568,0.00896,-0.1061
5.7,1.258,0.01595,0.00928,-0.1052
5.8,1.2695,0.01623,0.00962,-0.1043
5.9,1.2807,0.01654,0.00999,-0.1033
6,1.2916,0.01689,0.01042,-0.1023
6.1,1.3023,0.01726,0.01086,-0.1012
6.2,1.3134,0.01758,0.01126,-0.1002
6.3,1.324,0.01797,0.01174,-0.099
6.4,1.3342,0.01839,0.01224,-0.0978
6.5,1.3446,0.01879,0.01271,-0.0966
6.6,1.3538,0.01932,0.01336,-0.0952
6.7,1.3627,0.0199,0.01406,-0.0937
6.8,1.371,0.02052,0.01481,-0.0922
6.9,1.3788,0.02119,0.01561,-0.0906
7,1.385,0.02202,0.01658,-0.0888
7.1,1.3895,0.02301,0.01777,-0.0868
7.2,1.3929,0.0241,0.01905,-0.0848
7.3,1.3952,0.02526,0.02042,-0.0827
7.4,1.3962,0.0265,0.02185,-0.0806
7.6,1.3982,0.02866,0.02433,-0.0764
7.8,1.3937,0.03126,0.02726,-0.0721
7.9,1.3903,0.03263,0.02878,-0.0701
8,1.3853,0.03414,0.03043,-0.0681
8.1,1.3788,0.03579,0.03224,-0.0663
8.2,1.3717,0.03751,0.0341,-0.0646
8.3,1.3643,0.03926,0.036,-0.0632
8.4,1.3565,0.04106,0.03792,-0.062
8.6,1.3404,0.04485,0.04195,-0.0603
8.7,1.332,0.04686,0.04406,-0.0599
8.9,1.3151,0.05117,0.04857,-0.0602
9,1.3066,0.05349,0.05098,-0.0608
9.1,1.2983,0.05592,0.05349,-0.0619
9.2,1.29,0.05851,0.05617,-0.0634
9.3,1.2821,0.06129,0.05902,-0.0654
9.5,1.2674,0.0676,0.06548,-0.0711
9.7,1.2555,0.07559,0.07361,-0.0792
9.9,1.2459,0.08454,0.08267,-0.0877
10,1.2404,0.08836,0.08651,-0.0911
10.1,1.2351,0.09196,0.09012,-0.0942
10.2,1.2298,0.09551,0.09367,-0.0972
10.3,1.2248,0.099,0.09716,-0.1
10.5,1.2156,0.10579,0.10394,-0.1054
10.6,1.2114,0.1091,0.10725,-0.108
10.7,1.2072,0.11244,0.11059,-0.1105
10.8,1.2035,0.11573,0.11388,-0.1129
10.9,1.1999,0.11904,0.11718,-0.1153
11,1.1966,0.12232,0.12046,-0.1177
11.1,1.1938,0.12554,0.12367,-0.12
11.2,1.1914,0.1287,0.12683,-0.1222
11.3,1.1891,0.13189,0.13002,-0.1244
11.4,1.1874,0.13501,0.13313,-0.1266
11.5,1.1858,0.13812,0.13624,-0.1287
11.6,1.1847,0.14114,0.13925,-0.1307
11.7,1.184,0.1441,0.14222,-0.1327
11.8,1.1836,0.147,0.14511,-0.1346
11.9,1.1835,0.14984,0.14795,-0.1364
12,1.1838,0.1526,0.15071,-0.1382
12.1,1.1844,0.15532,0.15343,-0.14
12.2,1.1853,0.15797,0.15608,-0.1417
12.3,1.1865,0.16056,0.15866,-0.1434
12.4,1.1879,0.1631,0.1612,-0.1451
12.5,1.1895,0.16557,0.16367,-0.1467
12.6,1.1913,0.16799,0.16609,-0.1483
12.7,1.1933,0.17034,0.16844,-0.1499
12.8,1.1955,0.17265,0.17075,-0.1514
12.9,1.1978,0.1749,0.173,-0.153
13,1.2002,0.17708,0.17518,-0.1545
13.1,1.2027,0.17924,0.17734,-0.156
13.2,1.2052,0.18135,0.17945,-0.1575
13.3,1.2078,0.1834,0.1815,-0.1589
13.4,1.2104,0.18542,0.18352,-0.1604
13.5,1.2122,0.1883,0.18638,-0.1621
13.6,1.214,0.19144,0.18952,-0.1639
13.7,1.2162,0.19433,0.1924,-0.1656
13.8,1.2188,0.19704,0.19512,-0.1673
13.9,1.2215,0.19963,0.1977,-0.1688
14,1.2244,0.20214,0.20024,-0.1704
14.1,1.2274,0.20464,0.20273,-0.172
14.2,1.2306,0.20703,0.20512,-0.1735
14.3,1.2338,0.2094,0.2075,-0.175
14.4,1.2372,0.21171,0.2098,-0.1765
14.5,1.2406,0.21399,0.21209,-0.178
14.6,1.244,0.21625,0.21435,-0.1795
14.7,1.2476,0.21849,0.21658,-0.181
14.8,1.2512,0.22068,0.21878,-0.1825
15.1,1.2623,0.22647,0.22456,-0.1871
15.2,1.266,0.22845,0.22654,-0.1886
15.3,1.2697,0.23041,0.22851,-0.19
15.4,1.2734,0.23237,0.23047,-0.1915
15.5,1.2771,0.23431,0.23241,-0.193
15.6,1.2808,0.23625,0.23435,-0.1944
15.7,1.2844,0.23817,0.23628,-0.1959
15.8,1.2885,0.24118,0.23927,-0.1976
15.9,1.2927,0.24424,0.24233,-0.1992
16,1.2969,0.24718,0.24527,-0.2009
16.1,1.3011,0.24992,0.24801,-0.2025
16.2,1.3052,0.25249,0.25059,-0.2041
16.3,1.3094,0.25507,0.25317,-0.2057
16.4,1.3136,0.25752,0.25561,-0.2072
16.5,1.3178,0.26002,0.25811,-0.2088
16.6,1.322,0.26239,0.26049,-0.2103
16.7,1.3262,0.26476,0.26285,-0.2119
16.8,1.3304,0.26714,0.26524,-0.2134
16.9,1.3347,0.26948,0.26758,-0.215
17,1.339,0.2718,0.2699,-0.2166
17.1,1.3432,0.27414,0.27224,-0.2181
17.2,1.3475,0.27643,0.27454,-0.2197
17.3,1.3518,0.27872,0.27682,-0.2213
17.4,1.3561,0.28101,0.27911,-0.2228
17.5,1.3604,0.28328,0.28139,-0.2244
17.6,1.3647,0.28555,0.28366,-0.226
17.7,1.369,0.28782,0.28593,-0.2276
17.8,1.3733,0.29006,0.28818,-0.2291
17.9,1.3776,0.2923,0.29042,-0.2307
18,1.3819,0.29454,0.29266,-0.2323
18.1,1.3862,0.29679,0.29493,-0.2339
18.2,1.3905,0.29902,0.29716,-0.2355
18.3,1.3948,0.30126,0.2994,-0.2371
18.4,1.3991,0.30349,0.30164,-0.2387
18.5,1.4034,0.30571,0.30386,-0.2404
18.6,1.4077,0.30795,0.3061,-0.242
18.7,1.412,0.31014,0.30829,-0.2436
18.8,1.4163,0.3124,0.31055,-0.2452
18.9,1.4206,0.31466,0.31281,-0.2468
19,1.4248,0.31689,0.31505,-0.2485
19.1,1.4291,0.31916,0.31732,-0.2501
19.2,1.4333,0.32137,0.31953,-0.2518
19.3,1.4376,0.32367,0.32184,-0.2534
19.4,1.4419,0.32597,0.32414,-0.255
19.5,1.4461,0.3283,0.32647,-0.2567
19.6,1.4504,0.33063,0.3288,-0.2584
19.7,1.4546,0.33294,0.33112,-0.26
19.8,1.4589,0.33528,0.33346,-0.2617
19.9,1.4632,0.33769,0.33588,-0.2633
20,1.4674,0.34008,0.33826,-0.265
20.1,1.4716,0.34249,0.34068,-0.2667
20.2,1.4758,0.34492,0.34311,-0.2683
20.3,1.48,0.34738,0.34558,-0.27
20.4,1.4842,0.34986,0.34806,-0.2717
20.5,1.4885,0.35237,0.35057,-0.2734
20.6,1.4927,0.35491,0.35309,-0.2751
20.7,1.4976,0.35789,0.35608,-0.277
20.8,1.5027,0.36106,0.35925,-0.279
20.9,1.5074,0.36402,0.36221,-0.2809
21,1.5121,0.36701,0.36521,-0.2828
21.1,1.5166,0.36983,0.36803,-0.2846
21.2,1.5213,0.37281,0.37101,-0.2865
21.3,1.5259,0.37574,0.37396,-0.2884
21.4,1.5304,0.37863,0.37685,-0.2902
21.5,1.5349,0.38145,0.37967,-0.2921
21.6,1.5394,0.38437,0.38259,-0.2939
21.7,1.5438,0.38711,0.38533,-0.2958
21.8,1.5483,0.38996,0.38819,-0.2977
21.9,1.5527,0.39282,0.39106,-0.2995
22,1.5571,0.39565,0.39389,-0.3014
22.1,1.5615,0.39851,0.39675,-0.3033
22.2,1.5659,0.40129,0.39954,-0.3052
22.3,1.5702,0.40409,0.40234,-0.3071
22.4,1.5746,0.40693,0.40518,-0.309
22.5,1.5794,0.40993,0.40818,-0.3113
22.6,1.5837,0.41269,0.41095,-0.3132
22.7,1.588,0.41542,0.41368,-0.3151
22.8,1.5923,0.41817,0.41643,-0.3171
22.9,1.5965,0.42091,0.41918,-0.319
23,1.6008,0.42367,0.42195,-0.321
23.1,1.605,0.42641,0.42468,-0.3229
23.2,1.6092,0.42918,0.42745,-0.3249
23.3,1.6134,0.43192,0.43021,-0.3269
23.4,1.6176,0.43469,0.43297,-0.3288
23.5,1.6218,0.43744,0.43573,-0.3308
23.6,1.6259,0.4402,0.43849,-0.3328
23.7,1.6301,0.44297,0.44127,-0.3348
23.8,1.6342,0.44574,0.44404,-0.3368
23.9,1.6383,0.4485,0.44681,-0.3388
24,1.6424,0.45126,0.44957,-0.3408
24.1,1.6464,0.45404,0.45236,-0.3428
24.2,1.6506,0.4568,0.45512,-0.3449
24.3,1.6546,0.45959,0.45791,-0.3469
24.4,1.6586,0.46237,0.4607,-0.3489
24.5,1.6626,0.46516,0.46349,-0.351
24.6,1.6666,0.46796,0.4663,-0.353
24.7,1.6706,0.47077,0.46911,-0.3551
24.8,1.6746,0.47358,0.47194,-0.3571
24.9,1.6785,0.47637,0.47473,-0.3592
25,1.6825,0.47917,0.47753,-0.3613
25.1,1.6864,0.48203,0.48039,-0.3634
25.2,1.6903,0.48484,0.48321,-0.3654
25.3,1.6942,0.48769,0.48606,-0.3675
25.4,1.698,0.49056,0.48893,-0.3696
25.5,1.7019,0.4934,0.49178,-0.3717
25.6,1.7057,0.49628,0.49467,-0.3738
25.7,1.7095,0.49914,0.49753,-0.3759
25.8,1.7133,0.50208,0.50048,-0.3781
25.9,1.7171,0.50498,0.50338,-0.3802
26,1.7209,0.50795,0.50635,-0.3823
26.1,1.7246,0.5109,0.50931,-0.3844
26.2,1.7283,0.51388,0.51229,-0.3866
26.3,1.732,0.51688,0.51529,-0.3887
26.4,1.7357,0.51991,0.51833,-0.3908
26.5,1.7394,0.52297,0.52139,-0.393
26.6,1.7431,0.52605,0.52448,-0.3951
26.7,1.7467,0.52916,0.52759,-0.3973
26.8,1.7504,0.53228,0.53072,-0.3994
26.9,1.7539,0.53547,0.53391,-0.4016
27,1.7576,0.53868,0.53712,-0.4038
27.1,1.7612,0.54192,0.54037,-0.4059
27.2,1.7647,0.54516,0.54362,-0.4081
27.3,1.7683,0.54847,0.54693,-0.4103
27.4,1.7718,0.55176,0.55023,-0.4124
27.5,1.7754,0.5551,0.55357,-0.4146
27.6,1.7789,0.55848,0.55695,-0.4168
27.7,1.7824,0.56193,0.56043,-0.419
27.8,1.7859,0.56536,0.56386,-0.4212
27.9,1.7894,0.56884,0.56734,-0.4234
28,1.7928,0.57237,0.57088,-0.4256
28.1,1.7962,0.57587,0.57439,-0.4278
28.2,1.7997,0.57943,0.57795,-0.43
28.3,1.8031,0.58294,0.58146,-0.4323
28.4,1.8065,0.58665,0.58517,-0.4344
28.5,1.8099,0.59019,0.58872,-0.4367
28.6,1.8132,0.59373,0.59227,-0.439
28.7,1.8166,0.59747,0.59602,-0.4412
28.8,1.8199,0.60112,0.59967,-0.4434
28.9,1.8232,0.60486,0.60341,-0.4457
29.3,1.8396,0.6175,0.61604,-0.4567
29.4,1.8433,0.62109,0.61964,-0.4593
29.5,1.847,0.62471,0.62327,-0.4618
29.6,1.8504,0.62829,0.62685,-0.4642
29.7,1.8539,0.63181,0.63037,-0.4667
29.8,1.8573,0.6354,0.63396,-0.4692
29.9,1.8607,0.63894,0.63751,-0.4717
30,1.8654,0.64022,0.63879,-0.4752

