airfoilName st24.dat
Re 	5.100000e+05
M 	5.000000e-01
N 	4.500000e+00
VACC 	0 VACCflag 1
XTR 	1.00 	1.00 XTRflag 0
alpha,cl,cd,cdp,cm
-30,-1.357,0.59996,0.5979,0.3023
-29.9,-1.3534,0.59661,0.59455,0.3001
-29.8,-1.3499,0.59334,0.59127,0.2979
-29.7,-1.3464,0.59004,0.58797,0.2957
-29.6,-1.3428,0.5868,0.58472,0.2934
-29.5,-1.3392,0.58354,0.58146,0.2913
-29.4,-1.3356,0.58031,0.57822,0.289
-29.3,-1.332,0.5771,0.57502,0.2868
-29.2,-1.3283,0.5739,0.57182,0.2846
-29.1,-1.3247,0.57078,0.56868,0.2824
-29,-1.321,0.56763,0.56553,0.2802
-28.9,-1.3173,0.5645,0.5624,0.278
-28.8,-1.3136,0.56142,0.55931,0.2759
-28.7,-1.3099,0.55835,0.55624,0.2737
-28.6,-1.3061,0.5553,0.55319,0.2715
-28.5,-1.3023,0.55226,0.55014,0.2693
-28.4,-1.2985,0.54928,0.54715,0.2671
-28.3,-1.2947,0.54628,0.54415,0.265
-28.2,-1.2909,0.54333,0.5412,0.2628
-28.1,-1.287,0.5404,0.53827,0.2606
-28,-1.2831,0.53751,0.53537,0.2584
-27.9,-1.2792,0.53464,0.5325,0.2563
-27.8,-1.2753,0.53179,0.52964,0.2541
-27.7,-1.2713,0.52895,0.5268,0.2519
-27.6,-1.2674,0.52613,0.52398,0.2498
-27.5,-1.2634,0.52337,0.52121,0.2476
-27.4,-1.2594,0.52067,0.51851,0.2454
-27.3,-1.2554,0.51794,0.51578,0.2432
-27.2,-1.2514,0.51525,0.51309,0.2411
-27.1,-1.2473,0.51258,0.51042,0.2389
-27,-1.2432,0.51002,0.50785,0.2367
-26.9,-1.2391,0.5075,0.50534,0.2345
-26.8,-1.235,0.50487,0.5027,0.2323
-26.7,-1.2309,0.50239,0.50021,0.2301
-26.6,-1.2267,0.49989,0.49771,0.2279
-26.5,-1.2226,0.49742,0.49524,0.2257
-26.4,-1.2183,0.49509,0.49291,0.2234
-26.3,-1.2141,0.49273,0.49055,0.2212
-26.2,-1.2083,0.49401,0.49183,0.2171
-24.3,-1.1272,0.43996,0.43775,0.1794
-24.2,-1.123,0.43697,0.43475,0.1777
-24.1,-1.1188,0.43398,0.43176,0.176
-24,-1.1147,0.43095,0.42872,0.1743
-23.9,-1.1104,0.42805,0.42582,0.1726
-23.8,-1.1062,0.4251,0.42287,0.1709
-23.7,-1.102,0.42213,0.4199,0.1692
-23.6,-1.0978,0.41918,0.41694,0.1675
-23.5,-1.0936,0.41625,0.41401,0.1658
-23.4,-1.0893,0.41336,0.41112,0.1642
-23.3,-1.0851,0.41044,0.4082,0.1625
-23.2,-1.0808,0.40759,0.40534,0.1608
-23.1,-1.0766,0.40467,0.40242,0.1592
-23,-1.0723,0.40185,0.3996,0.1576
-22.9,-1.068,0.39898,0.39672,0.1559
-22.8,-1.0637,0.3962,0.39395,0.1543
-22.7,-1.0594,0.39336,0.3911,0.1527
-22.6,-1.0551,0.39061,0.38833,0.151
-22.5,-1.0508,0.38783,0.38556,0.1494
-22.4,-1.0465,0.38508,0.3828,0.1478
-22.3,-1.0422,0.38235,0.38007,0.1462
-22.2,-1.0378,0.37966,0.37738,0.1446
-22.1,-1.0335,0.37699,0.3747,0.143
-22,-1.0291,0.37432,0.37203,0.1415
-21.9,-1.0248,0.37169,0.36941,0.1399
-21.8,-1.0204,0.36909,0.3668,0.1383
-21.7,-1.016,0.36649,0.3642,0.1367
-21.6,-1.0116,0.36392,0.36162,0.1351
-21.5,-1.0073,0.36137,0.35907,0.1336
-21.4,-1.0029,0.35884,0.35654,0.132
-21.3,-0.9984,0.35632,0.35402,0.1304
-21.2,-0.994,0.35383,0.35153,0.1289
-21.1,-0.9896,0.35134,0.34904,0.1273
-21,-0.9852,0.34888,0.34658,0.1258
-20.9,-0.9808,0.34643,0.34412,0.1242
-20.8,-0.9763,0.34399,0.34168,0.1227
-20.7,-0.9719,0.34157,0.33926,0.1212
-20.6,-0.9674,0.33916,0.33685,0.1196
-20.5,-0.963,0.33676,0.33444,0.1181
-20.4,-0.9585,0.33436,0.33205,0.1166
-20.3,-0.954,0.33198,0.32966,0.1151
-20.2,-0.9496,0.32961,0.32729,0.1136
-20.1,-0.9451,0.32725,0.32493,0.1121
-20,-0.9406,0.3249,0.32258,0.1106
-19.9,-0.9361,0.32255,0.32023,0.1092
-19.8,-0.9316,0.32022,0.31789,0.1077
-19.7,-0.9272,0.31789,0.31556,0.1062
-19.6,-0.9227,0.31557,0.31324,0.1048
-19.5,-0.9182,0.31327,0.31093,0.1033
-19.4,-0.9137,0.31097,0.30863,0.1019
-19.3,-0.9092,0.30868,0.30634,0.1005
-19.2,-0.9047,0.3064,0.30405,0.099
-19.1,-0.9002,0.30413,0.30178,0.0976
-19,-0.8957,0.30186,0.29952,0.0962
-18.9,-0.8912,0.29962,0.29727,0.0948
-18.8,-0.8867,0.29737,0.29502,0.0934
-18.7,-0.8822,0.29514,0.29279,0.0919
-18.6,-0.8777,0.29292,0.29057,0.0905
-18.5,-0.8732,0.2907,0.28835,0.0892
-18.4,-0.8687,0.2885,0.28615,0.0878
-18.3,-0.8642,0.2863,0.28395,0.0864
-18.2,-0.8597,0.28412,0.28176,0.085
-18.1,-0.8552,0.28194,0.27958,0.0836
-18,-0.8508,0.27976,0.27741,0.0822
-17.9,-0.8463,0.2776,0.27525,0.0808
-17.8,-0.8418,0.27544,0.27308,0.0795
-17.7,-0.8371,0.27371,0.27136,0.0774
-17.6,-0.8326,0.27151,0.26915,0.076
-17.5,-0.8281,0.2693,0.26694,0.0747
-17.4,-0.8235,0.26708,0.26472,0.0734
-17.3,-0.819,0.26486,0.2625,0.072
-17.2,-0.8145,0.26264,0.26029,0.0707
-17.1,-0.8099,0.26042,0.25806,0.0694
-17,-0.8054,0.2582,0.25584,0.0681
-16.9,-0.8008,0.25596,0.2536,0.0668
-16.8,-0.7962,0.25372,0.25136,0.0655
-16.7,-0.7916,0.25148,0.24912,0.0643
-16.6,-0.787,0.2492,0.24684,0.063
-16.5,-0.7823,0.24693,0.24456,0.0617
-16.4,-0.7775,0.24467,0.24229,0.0604
-16.3,-0.7727,0.24241,0.24004,0.059
-16.2,-0.7678,0.24017,0.23779,0.0576
-15.9,-0.7527,0.23364,0.23129,0.0533
-15.8,-0.7486,0.23151,0.22916,0.0523
-15.7,-0.7444,0.2294,0.22705,0.0513
-15.6,-0.7403,0.2273,0.22494,0.0502
-15.5,-0.7362,0.22521,0.22285,0.0492
-15.4,-0.732,0.22314,0.22079,0.0482
-15.3,-0.7279,0.22108,0.21873,0.0472
-15.2,-0.7239,0.21903,0.21668,0.0462
-15.1,-0.7198,0.21701,0.21466,0.0452
-15,-0.7157,0.21501,0.21266,0.0442
-14.9,-0.7116,0.21303,0.21068,0.0432
-14.8,-0.7076,0.21107,0.20872,0.0422
-14.7,-0.7035,0.20913,0.20677,0.0412
-14.6,-0.6994,0.2072,0.20485,0.0402
-14.5,-0.6953,0.20529,0.20294,0.0392
-14.4,-0.6912,0.20341,0.20106,0.0382
-14.3,-0.6871,0.20154,0.19919,0.0373
-14.2,-0.6829,0.19969,0.19734,0.0363
-14.1,-0.6788,0.19784,0.19549,0.0353
-14,-0.6747,0.19601,0.19366,0.0343
-13.9,-0.6705,0.19419,0.19184,0.0333
-13.8,-0.6664,0.19237,0.19003,0.0323
-13.7,-0.6623,0.19057,0.18822,0.0313
-13.6,-0.6581,0.18877,0.18642,0.0303
-13.5,-0.654,0.18698,0.18464,0.0293
-13.4,-0.6498,0.18519,0.18284,0.0283
-13.3,-0.6457,0.18341,0.18106,0.0274
-13.2,-0.6416,0.18164,0.17929,0.0264
-13.1,-0.6375,0.17987,0.17752,0.0254
-13,-0.6333,0.1781,0.17575,0.0245
-12.9,-0.6292,0.17634,0.17399,0.0235
-12.8,-0.6251,0.17458,0.17223,0.0226
-12.7,-0.621,0.17282,0.17047,0.0216
-12.6,-0.6168,0.17106,0.16871,0.0206
-12.5,-0.6127,0.1693,0.16695,0.0197
-12.4,-0.6085,0.16754,0.16519,0.0188
-12.3,-0.6044,0.16578,0.16344,0.0178
-12.2,-0.6003,0.16403,0.16169,0.0169
-12.1,-0.5961,0.16228,0.15994,0.016
-12,-0.592,0.16054,0.1582,0.015
-11.9,-0.5879,0.15879,0.15645,0.0141
-11.8,-0.5838,0.15705,0.15471,0.0132
-11.7,-0.5797,0.1553,0.15297,0.0123
-11.6,-0.5756,0.15356,0.15123,0.0114
-11.5,-0.5715,0.15182,0.14949,0.0105
-11.4,-0.5674,0.15008,0.14775,0.0096
-11.3,-0.5633,0.14832,0.146,0.0087
-11.2,-0.5592,0.14658,0.14425,0.0078
-11.1,-0.5551,0.14481,0.14248,0.0068
-11,-0.5497,0.14217,0.13985,0.0053
-10.9,-0.5452,0.14027,0.13795,0.0043
-10.8,-0.5406,0.1384,0.13608,0.0032
-10.7,-0.5359,0.13654,0.13422,0.0021
-10.5,-0.5263,0.13285,0.13057,-0.0005
-10.4,-0.5226,0.13121,0.12893,-0.0012
-10.3,-0.5189,0.12958,0.1273,-0.0018
-10.2,-0.5153,0.12796,0.12568,-0.0025
-10.1,-0.5116,0.12635,0.12407,-0.0032
-10,-0.508,0.12475,0.12248,-0.0039
-9.9,-0.5043,0.12318,0.1209,-0.0046
-9.8,-0.5007,0.12161,0.11933,-0.0053
-9.7,-0.4971,0.12007,0.11779,-0.0059
-9.6,-0.4936,0.11854,0.11627,-0.0066
-9.5,-0.49,0.11704,0.11477,-0.0073
-9.4,-0.4864,0.11555,0.11329,-0.008
-9.3,-0.4828,0.11408,0.11182,-0.0087
-9.2,-0.4792,0.11263,0.11037,-0.0094
-9.1,-0.4756,0.11119,0.10894,-0.0101
-9,-0.4721,0.10978,0.10753,-0.0108
-8.9,-0.4685,0.10838,0.10614,-0.0114
-8.8,-0.465,0.107,0.10477,-0.0121
-8.7,-0.4615,0.10563,0.10341,-0.0127
-8.6,-0.4581,0.10428,0.10206,-0.0134
-8.5,-0.4548,0.10294,0.10073,-0.014
-8.4,-0.4515,0.10163,0.09943,-0.0146
-8.3,-0.4484,0.10034,0.09814,-0.0152
-8.2,-0.4454,0.09906,0.09687,-0.0157
-8.1,-0.4427,0.09781,0.09563,-0.0161
-8,-0.4402,0.0966,0.09442,-0.0165
-7.9,-0.4382,0.09542,0.09326,-0.0168
-7.8,-0.4367,0.09431,0.09215,-0.0169
-7.7,-0.4358,0.09326,0.09112,-0.0169
-7.6,-0.4357,0.09227,0.09014,-0.0167
-7.5,-0.4365,0.09138,0.08927,-0.0162
-7.4,-0.4378,0.09053,0.08844,-0.0156
-7.3,-0.4301,0.08884,0.08675,-0.0176
-7.2,-0.423,0.08722,0.08513,-0.0195
-7.1,-0.4157,0.08559,0.08349,-0.0215
-7,-0.4083,0.08396,0.08185,-0.0235
-6.9,-0.4013,0.08236,0.08026,-0.0254
-6.8,-0.3932,0.08068,0.07857,-0.0276
-6.7,-0.383,0.07882,0.0767,-0.0305
-6.6,-0.3731,0.07701,0.07489,-0.0332
-6.5,-0.3645,0.07532,0.07318,-0.0356
-6.4,-0.3554,0.07359,0.07144,-0.0381
-6.3,-0.3455,0.07181,0.06965,-0.0408
-6.2,-0.335,0.06998,0.06781,-0.0436
-6.1,-0.3239,0.06811,0.06593,-0.0467
-6,-0.3129,0.06624,0.06405,-0.0496
-5.9,-0.3035,0.064,0.0618,-0.0526
-5.8,-0.2924,0.06208,0.05986,-0.0555
-5.7,-0.2806,0.06008,0.05784,-0.0587
-5.6,-0.2681,0.05801,0.05575,-0.062
-5.5,-0.2547,0.05585,0.05357,-0.0655
-5.4,-0.2442,0.05389,0.05158,-0.0682
-5.3,-0.2321,0.05177,0.04944,-0.0713
-5.2,-0.2185,0.04948,0.04711,-0.0748
-5.1,-0.2043,0.04727,0.04489,-0.0783
-5,-0.1895,0.04531,0.04289,-0.0817
-4.9,-0.1754,0.04347,0.04101,-0.0847
-4.8,-0.1623,0.04174,0.03923,-0.0872
-4.7,-0.1479,0.03995,0.0374,-0.09
-4.6,-0.1326,0.03813,0.03552,-0.0929
-4.5,-0.1166,0.03627,0.0336,-0.0957
-4.4,-0.0999,0.03436,0.03161,-0.0986
-4.3,-0.0845,0.03249,0.02966,-0.101
-4.2,-0.069,0.03055,0.02763,-0.1034
-4.1,-0.0526,0.02844,0.02541,-0.1059
-4,-0.0356,0.02609,0.02292,-0.1085
-3.9,-0.0182,0.02337,0.02001,-0.1112
-3.8,-0.0007,0.0196,0.01594,-0.1143
-3.7,0.015,0.01592,0.01181,-0.1168
-3.6,0.0301,0.01409,0.00961,-0.1179
-3.5,0.0449,0.01288,0.00809,-0.1184
-3.4,0.0596,0.01206,0.00703,-0.1186
-3.3,0.0743,0.01146,0.00626,-0.1187
-3.2,0.0885,0.01102,0.0057,-0.1187
-3.1,0.1026,0.01067,0.00525,-0.1186
-3,0.1167,0.01037,0.00485,-0.1185
-2.9,0.131,0.01009,0.00449,-0.1184
-2.8,0.1452,0.00984,0.00414,-0.1183
-2.7,0.1592,0.00963,0.00385,-0.1182
-2.6,0.173,0.00944,0.00359,-0.118
-2.5,0.187,0.00926,0.00337,-0.1179
-2.4,0.2009,0.00913,0.00319,-0.1178
-2.2,0.228,0.00892,0.00293,-0.1174
-2.1,0.2415,0.00881,0.00279,-0.1172
-2,0.2549,0.00872,0.00266,-0.1169
-1.9,0.2684,0.00864,0.00257,-0.1168
-1.8,0.2815,0.00857,0.00246,-0.1165
-1.7,0.2951,0.0085,0.00236,-0.1164
-1.6,0.3082,0.00844,0.00225,-0.1161
-1.5,0.3218,0.00838,0.00221,-0.116
-1.4,0.3353,0.00834,0.00214,-0.1159
-1.3,0.3481,0.0083,0.00205,-0.1156
-1.2,0.3615,0.00826,0.002,-0.1154
-1,0.3881,0.00819,0.0019,-0.1152
-0.9,0.4013,0.00817,0.00186,-0.115
-0.8,0.4143,0.00816,0.00181,-0.1148
-0.7,0.4274,0.00814,0.00178,-0.1146
-0.6,0.4406,0.00813,0.00176,-0.1145
-0.5,0.4536,0.00812,0.00174,-0.1143
-0.4,0.4662,0.00815,0.00171,-0.114
-0.3,0.4791,0.00817,0.00169,-0.1138
-0.2,0.492,0.00817,0.00168,-0.1136
-0.1,0.5051,0.00819,0.00168,-0.1135
0,0.5169,0.00827,0.00167,-0.1131
0.1,0.5296,0.00831,0.00167,-0.1128
0.2,0.5422,0.00836,0.00167,-0.1126
0.3,0.5536,0.00849,0.00168,-0.1121
0.4,0.5657,0.00859,0.00171,-0.1118
0.5,0.5774,0.00871,0.00175,-0.1114
0.6,0.5882,0.00893,0.00181,-0.1109
0.7,0.5991,0.00914,0.00188,-0.1105
0.8,0.6109,0.00929,0.00194,-0.1102
0.9,0.6226,0.00945,0.00201,-0.1098
1,0.6341,0.00962,0.00209,-0.1095
1.1,0.6454,0.00982,0.00218,-0.1092
1.2,0.6549,0.01022,0.00233,-0.1086
1.3,0.666,0.01047,0.00245,-0.1083
1.4,0.6775,0.01067,0.00257,-0.108
1.5,0.6896,0.01081,0.00266,-0.1078
1.6,0.702,0.0109,0.00275,-0.1076
1.7,0.7141,0.01102,0.00286,-0.1074
1.8,0.7268,0.01105,0.00294,-0.1073
2.1,0.756,0.00985,0.00323,-0.1051
2.2,0.7687,0.00996,0.00331,-0.1049
2.3,0.7815,0.01006,0.00339,-0.1047
2.4,0.7939,0.0102,0.00348,-0.1044
2.5,0.8067,0.01031,0.00356,-0.1042
2.6,0.8193,0.01043,0.00366,-0.1039
2.7,0.8321,0.01052,0.00376,-0.1037
2.8,0.8449,0.01063,0.00385,-0.1034
2.9,0.8575,0.01076,0.00395,-0.1031
3,0.8701,0.01088,0.00404,-0.1029
3.1,0.8827,0.01101,0.00414,-0.1026
3.2,0.8955,0.01111,0.00425,-0.1023
3.3,0.9082,0.01123,0.00436,-0.1019
3.4,0.9208,0.01136,0.00447,-0.1016
3.5,0.9334,0.01149,0.00458,-0.1013
3.6,0.946,0.01162,0.0047,-0.1009
3.7,0.9585,0.01176,0.00483,-0.1005
3.8,0.9713,0.01188,0.00496,-0.1002
3.9,0.9839,0.01201,0.00509,-0.0998
4,0.9963,0.01217,0.00523,-0.0994
4.1,1.009,0.0123,0.0054,-0.0989
4.2,1.0214,0.01246,0.00554,-0.0985
4.3,1.0338,0.01262,0.0057,-0.098
4.4,1.0464,0.01277,0.00586,-0.0976
4.5,1.0589,0.01292,0.00602,-0.0971
4.6,1.0712,0.0131,0.00619,-0.0966
4.7,1.0836,0.01326,0.00638,-0.096
4.8,1.0959,0.01344,0.00655,-0.0955
4.9,1.1081,0.01364,0.00675,-0.0949
5,1.1204,0.01382,0.00696,-0.0943
5.1,1.1328,0.014,0.00716,-0.0937
5.2,1.145,0.01419,0.00738,-0.0931
5.3,1.157,0.01441,0.00761,-0.0924
5.4,1.1691,0.01463,0.00786,-0.0917
5.5,1.1812,0.01483,0.00812,-0.091
5.6,1.1932,0.01506,0.00837,-0.0903
5.7,1.205,0.01531,0.00865,-0.0895
5.8,1.2167,0.01557,0.00895,-0.0887
5.9,1.2285,0.01581,0.00926,-0.0878
6,1.2402,0.01608,0.00958,-0.087
6.1,1.2517,0.01636,0.00992,-0.0861
6.2,1.2631,0.01665,0.01027,-0.0851
6.3,1.2742,0.01697,0.01065,-0.0841
6.4,1.2849,0.01734,0.01107,-0.0831
6.5,1.2961,0.01765,0.01145,-0.082
6.6,1.3066,0.01802,0.0119,-0.0809
6.7,1.317,0.01841,0.01238,-0.0797
6.8,1.3271,0.01882,0.01288,-0.0785
6.9,1.337,0.01926,0.01343,-0.0772
7,1.3464,0.01973,0.01399,-0.0759
7.1,1.3548,0.02028,0.01464,-0.0745
7.2,1.3626,0.02089,0.01537,-0.0729
7.3,1.371,0.02144,0.01605,-0.0714
7.4,1.3777,0.02212,0.01687,-0.0697
7.5,1.3838,0.02283,0.01771,-0.068
7.6,1.3913,0.02342,0.01839,-0.0665
7.7,1.3934,0.02438,0.01953,-0.0643
7.8,1.394,0.02539,0.02071,-0.0621
7.9,1.3938,0.02647,0.02196,-0.0599
8,1.3927,0.02762,0.02327,-0.0577
8.1,1.3908,0.02884,0.02466,-0.0556
8.2,1.388,0.03011,0.02609,-0.0536
8.3,1.3845,0.03146,0.02759,-0.0517
8.4,1.3802,0.03285,0.02913,-0.05
8.5,1.3753,0.03431,0.03073,-0.0484
8.6,1.3698,0.03583,0.03239,-0.0469
8.7,1.3637,0.03742,0.0341,-0.0457
8.8,1.3572,0.03908,0.03588,-0.0447
8.9,1.3502,0.04082,0.03774,-0.0439
9,1.3429,0.04265,0.03968,-0.0435
9.2,1.3275,0.04661,0.04383,-0.0434
9.3,1.3195,0.04877,0.04609,-0.0439
9.4,1.311,0.05111,0.0485,-0.0448
9.5,1.3024,0.05361,0.05109,-0.0462
9.6,1.294,0.05629,0.05384,-0.048
9.7,1.286,0.05916,0.05678,-0.0503
9.8,1.2784,0.06228,0.06,-0.0532
9.9,1.2704,0.06584,0.06364,-0.0568
10.2,1.2466,0.07954,0.07755,-0.0703
10.3,1.2378,0.08372,0.08176,-0.0738
10.5,1.2202,0.09161,0.08967,-0.0803
10.6,1.2117,0.09546,0.09352,-0.0833
10.7,1.2035,0.09927,0.09734,-0.0863
10.8,1.1956,0.10305,0.10111,-0.0891
10.9,1.188,0.10679,0.10485,-0.0919
11,1.1809,0.11046,0.10852,-0.0946
11.1,1.1744,0.11408,0.11214,-0.0973
11.2,1.1684,0.11765,0.1157,-0.0998
11.3,1.1631,0.12112,0.11917,-0.1022
11.4,1.1584,0.12453,0.12258,-0.1046
11.5,1.1545,0.12781,0.12586,-0.1069
11.6,1.1512,0.131,0.12904,-0.109
11.7,1.1487,0.13402,0.13207,-0.1111
11.8,1.1469,0.13691,0.13495,-0.113
11.9,1.1457,0.13965,0.13769,-0.1148
12,1.1451,0.14226,0.1403,-0.1166
12.1,1.1449,0.14478,0.14282,-0.1182
12.2,1.1452,0.14719,0.14523,-0.1198
12.3,1.1457,0.14951,0.14755,-0.1214
12.4,1.1439,0.15259,0.1506,-0.1234
12.5,1.1406,0.15629,0.1543,-0.1258
12.6,1.138,0.15985,0.15787,-0.128
12.7,1.1364,0.16322,0.16124,-0.13
12.8,1.1341,0.1674,0.16541,-0.1326
12.9,1.1349,0.17003,0.16805,-0.1343
13,1.1361,0.17255,0.17056,-0.1359
13.1,1.1376,0.17497,0.17299,-0.1374
13.2,1.1394,0.17728,0.1753,-0.1389
13.3,1.1414,0.17947,0.17749,-0.1404
13.4,1.1435,0.18161,0.17963,-0.1418
13.5,1.1458,0.18361,0.18163,-0.1433
13.6,1.1482,0.1856,0.18362,-0.1447
13.7,1.1508,0.18745,0.18548,-0.146
13.8,1.1512,0.19082,0.18882,-0.148
13.9,1.1518,0.19427,0.19228,-0.15
14,1.1533,0.19732,0.19533,-0.1518
14.1,1.1553,0.20008,0.19809,-0.1535
14.2,1.1576,0.2027,0.20071,-0.1551
14.3,1.1602,0.20518,0.20319,-0.1567
14.4,1.1629,0.20759,0.2056,-0.1582
14.5,1.1657,0.20991,0.20792,-0.1598
14.6,1.1687,0.21216,0.21018,-0.1613
14.7,1.1718,0.21434,0.21236,-0.1627
14.8,1.1749,0.21648,0.21449,-0.1642
14.9,1.1782,0.21853,0.21655,-0.1657
15,1.1815,0.22054,0.21856,-0.1671
15.1,1.1849,0.22251,0.22053,-0.1685
15.2,1.1883,0.22441,0.22243,-0.1699
15.3,1.1917,0.22625,0.22427,-0.1714
15.4,1.1951,0.22808,0.22611,-0.1728
15.5,1.1985,0.22991,0.22793,-0.1742
15.6,1.2018,0.23219,0.2302,-0.1758
15.7,1.2051,0.23602,0.23403,-0.1777
15.8,1.2087,0.23908,0.23709,-0.1794
15.9,1.2124,0.24183,0.23984,-0.181
16,1.2161,0.24449,0.2425,-0.1826
16.1,1.2199,0.24698,0.24499,-0.1842
16.3,1.2277,0.25195,0.24997,-0.1876
16.4,1.2316,0.25413,0.25215,-0.1891
16.5,1.2355,0.25626,0.25429,-0.1906
16.6,1.2395,0.25839,0.25642,-0.1921
16.7,1.2434,0.26048,0.25851,-0.1936
16.8,1.2474,0.26253,0.26057,-0.1952
16.9,1.2514,0.26457,0.26261,-0.1967
17,1.2554,0.26656,0.2646,-0.1982
17.1,1.2595,0.26857,0.26661,-0.1997
17.2,1.2634,0.27053,0.26857,-0.2012
17.3,1.2674,0.27246,0.2705,-0.2027
17.4,1.2714,0.27442,0.27247,-0.2042
17.5,1.2754,0.27637,0.27442,-0.2057
17.6,1.2794,0.27863,0.27667,-0.2073
17.7,1.2842,0.28247,0.28051,-0.2092
17.8,1.2887,0.28583,0.28387,-0.211
17.9,1.2932,0.2887,0.28674,-0.2126
18,1.2976,0.29161,0.28966,-0.2144
18.1,1.302,0.29427,0.29231,-0.216
18.2,1.3065,0.29691,0.29495,-0.2177
18.3,1.3109,0.29947,0.29752,-0.2193
18.4,1.3152,0.30198,0.30003,-0.221
18.5,1.3196,0.3045,0.30255,-0.2226
18.6,1.324,0.30698,0.30503,-0.2242
18.7,1.3284,0.30942,0.30747,-0.2259
18.8,1.3328,0.31186,0.30991,-0.2275
18.9,1.3372,0.31429,0.31235,-0.2292
19,1.3415,0.3167,0.31476,-0.2309
19.1,1.3459,0.3191,0.31717,-0.2325
19.2,1.3503,0.3215,0.31957,-0.2342
19.3,1.3547,0.32389,0.32195,-0.2358
19.4,1.359,0.32627,0.32434,-0.2375
19.5,1.3634,0.32864,0.32672,-0.2392
19.6,1.3678,0.33103,0.3291,-0.2408
19.7,1.3721,0.3334,0.33149,-0.2425
19.8,1.3765,0.33575,0.33385,-0.2442
19.9,1.3808,0.33811,0.33621,-0.2459
20,1.3852,0.34049,0.33859,-0.2476
20.1,1.3895,0.34286,0.34096,-0.2493
20.2,1.3938,0.34519,0.3433,-0.251
20.3,1.3981,0.34755,0.34566,-0.2527
20.4,1.4024,0.34994,0.34805,-0.2544
20.5,1.4068,0.35232,0.35043,-0.2562
20.6,1.4111,0.35467,0.35279,-0.2579
20.7,1.4153,0.35705,0.35517,-0.2596
20.8,1.4196,0.35945,0.35757,-0.2614
20.9,1.4239,0.36183,0.35995,-0.2631
21,1.4282,0.36422,0.36235,-0.2648
21.1,1.4324,0.36664,0.36477,-0.2666
21.2,1.4367,0.36907,0.36721,-0.2683
21.3,1.4409,0.37152,0.36966,-0.2701
21.4,1.4451,0.37393,0.37207,-0.2718
21.5,1.4494,0.3764,0.37455,-0.2736
21.6,1.4536,0.37891,0.37705,-0.2754
21.7,1.4578,0.38137,0.37952,-0.2771
21.8,1.462,0.3839,0.38205,-0.2789
21.9,1.4661,0.38641,0.38457,-0.2807
22,1.4703,0.38898,0.38714,-0.2825
22.1,1.4745,0.39154,0.38971,-0.2842
22.2,1.4809,0.39706,0.39521,-0.2871
22.3,1.4856,0.40038,0.39853,-0.2891
22.4,1.4901,0.40346,0.40162,-0.291
22.5,1.4946,0.40637,0.40453,-0.293
22.6,1.499,0.40936,0.40752,-0.2949
22.7,1.5035,0.41233,0.41049,-0.2969
22.8,1.5078,0.41517,0.41333,-0.2988
22.9,1.5122,0.41809,0.41627,-0.3008
23,1.5165,0.42092,0.41911,-0.3027
23.1,1.5208,0.42377,0.42196,-0.3047
23.2,1.5251,0.42661,0.4248,-0.3066
23.3,1.5294,0.42944,0.42764,-0.3086
23.4,1.5336,0.43222,0.43042,-0.3106
23.5,1.5379,0.43507,0.43327,-0.3126
23.6,1.5421,0.43785,0.43606,-0.3145
23.7,1.5464,0.44068,0.43889,-0.3165
23.8,1.5505,0.44347,0.44168,-0.3185
23.9,1.5547,0.44627,0.44449,-0.3205
24,1.5589,0.44905,0.44727,-0.3225
24.1,1.563,0.45185,0.45008,-0.3245
24.2,1.5672,0.45467,0.4529,-0.3266
24.3,1.5713,0.45745,0.45568,-0.3286
24.4,1.5754,0.46026,0.4585,-0.3306
24.5,1.5795,0.46306,0.4613,-0.3326
24.6,1.5835,0.46586,0.46411,-0.3347
24.7,1.5876,0.46868,0.46693,-0.3367
24.8,1.5916,0.4715,0.46975,-0.3388
24.9,1.5957,0.47435,0.4726,-0.3408
25,1.5997,0.47713,0.47539,-0.3429
25.1,1.6037,0.47998,0.47824,-0.345
25.2,1.6076,0.48281,0.48108,-0.347
25.3,1.6116,0.48567,0.48394,-0.3491
25.4,1.6155,0.48848,0.48676,-0.3512
25.5,1.6195,0.49132,0.4896,-0.3533
25.6,1.6234,0.49421,0.4925,-0.3554
25.7,1.6273,0.49708,0.49537,-0.3575
25.8,1.6311,0.49992,0.49822,-0.3596
25.9,1.635,0.50283,0.50112,-0.3617
26,1.6389,0.50575,0.50406,-0.3638
26.1,1.6427,0.50865,0.50697,-0.366
26.2,1.6465,0.51162,0.50994,-0.3681
26.3,1.6503,0.51454,0.51287,-0.3702
26.4,1.6541,0.51753,0.51586,-0.3724
26.5,1.6579,0.52053,0.51887,-0.3745
26.6,1.6616,0.52355,0.52189,-0.3766
26.7,1.6653,0.52655,0.52489,-0.3788
26.8,1.6691,0.52961,0.52796,-0.3809
26.9,1.6728,0.53266,0.53101,-0.3831
27,1.6764,0.53574,0.5341,-0.3853
27.1,1.6801,0.53888,0.53724,-0.3874
27.2,1.6838,0.542,0.54036,-0.3896
27.3,1.6874,0.54517,0.54354,-0.3918
27.4,1.691,0.54837,0.54674,-0.394
27.5,1.6946,0.55159,0.54997,-0.3962
27.6,1.6982,0.55485,0.55323,-0.3983
27.7,1.7018,0.55812,0.55651,-0.4005
27.8,1.7054,0.56149,0.55989,-0.4027
27.9,1.7089,0.56477,0.56318,-0.4049
28,1.7125,0.56817,0.56658,-0.4071
28.1,1.716,0.57159,0.57,-0.4093
28.2,1.7195,0.57503,0.57345,-0.4115
28.3,1.723,0.5785,0.57692,-0.4138
28.4,1.7264,0.58204,0.58046,-0.416
28.5,1.7299,0.5856,0.58403,-0.4182
28.6,1.7333,0.58921,0.58764,-0.4204
28.7,1.7367,0.59281,0.59125,-0.4226
28.8,1.7401,0.59643,0.59487,-0.4248
28.9,1.7436,0.60007,0.59852,-0.4271
29,1.7469,0.6039,0.60236,-0.4293
29.1,1.7545,0.60732,0.60576,-0.434
29.2,1.7582,0.61083,0.60928,-0.4365
29.3,1.7619,0.61426,0.61271,-0.439
29.4,1.7656,0.61764,0.6161,-0.4415
29.5,1.7691,0.621,0.61946,-0.444
29.6,1.7726,0.62434,0.62281,-0.4465
29.7,1.7762,0.62764,0.6261,-0.449
29.8,1.7796,0.63102,0.62949,-0.4515
29.9,1.783,0.6344,0.63288,-0.454
30,1.7866,0.63764,0.63612,-0.4566

