airfoilName st24.dat
Re 	1.500000e+05
M 	5.000000e-01
N 	4.500000e+00
VACC 	0 VACCflag 1
XTR 	1.00 	1.00 XTRflag 0
alpha,cl,cd,cdp,cm
-29.9,-1.3451,0.61942,0.61534,0.2908
-29.8,-1.3416,0.61584,0.61174,0.2886
-29.7,-1.3381,0.61222,0.60812,0.2865
-29.6,-1.3346,0.60866,0.60455,0.2844
-29.5,-1.3311,0.60507,0.60095,0.2822
-29.4,-1.3276,0.60152,0.59739,0.2801
-29.3,-1.324,0.598,0.59387,0.278
-29.2,-1.3204,0.59445,0.59031,0.2759
-29.1,-1.3168,0.59102,0.58688,0.2737
-29,-1.3132,0.58754,0.58339,0.2716
-28.9,-1.3095,0.58404,0.57988,0.2695
-28.8,-1.3059,0.58061,0.57644,0.2674
-28.7,-1.3022,0.57723,0.57306,0.2653
-28.6,-1.2985,0.57379,0.56961,0.2632
-28.5,-1.2948,0.57044,0.56626,0.2611
-28.4,-1.2911,0.56703,0.56283,0.2591
-28.3,-1.2874,0.56369,0.55947,0.257
-28.2,-1.2836,0.5604,0.55617,0.2549
-28.1,-1.2799,0.55706,0.55283,0.2528
-28,-1.2761,0.55375,0.54952,0.2508
-27.9,-1.2723,0.55048,0.54624,0.2487
-27.8,-1.2685,0.54722,0.54297,0.2467
-27.7,-1.2646,0.54399,0.53974,0.2446
-27.6,-1.2608,0.54078,0.53652,0.2426
-27.5,-1.2569,0.53758,0.53331,0.2405
-27.4,-1.253,0.53437,0.5301,0.2385
-27.3,-1.2491,0.53123,0.52695,0.2365
-27.2,-1.2452,0.52806,0.52378,0.2344
-27.1,-1.2413,0.52494,0.52065,0.2324
-27,-1.2373,0.5218,0.51751,0.2304
-26.9,-1.2334,0.5187,0.5144,0.2284
-26.8,-1.2294,0.51564,0.51134,0.2263
-26.7,-1.2254,0.51258,0.50827,0.2243
-26.6,-1.2214,0.50954,0.50522,0.2223
-26.5,-1.2174,0.5065,0.50218,0.2203
-26.4,-1.2134,0.50351,0.49918,0.2183
-26.3,-1.2093,0.5005,0.49617,0.2163
-26.2,-1.2053,0.49753,0.49319,0.2144
-26.1,-1.2012,0.49458,0.49024,0.2124
-26,-1.1971,0.49165,0.4873,0.2104
-25.9,-1.193,0.48872,0.48437,0.2084
-25.8,-1.1889,0.48582,0.48146,0.2064
-25.7,-1.1848,0.48293,0.47856,0.2045
-25.6,-1.1806,0.48007,0.47568,0.2025
-25.5,-1.1765,0.47722,0.47283,0.2005
-25.4,-1.1723,0.47438,0.46999,0.1986
-25.3,-1.1681,0.47157,0.46717,0.1966
-25.2,-1.1639,0.46879,0.46439,0.1947
-25.1,-1.1597,0.46605,0.46164,0.1927
-25,-1.1555,0.46327,0.45886,0.1907
-24.9,-1.1513,0.46055,0.45613,0.1888
-24.8,-1.147,0.45784,0.45342,0.1868
-24.7,-1.1428,0.45514,0.45072,0.1848
-24.6,-1.1385,0.45246,0.44803,0.1829
-24.5,-1.1342,0.44979,0.44536,0.1809
-24.4,-1.1298,0.4472,0.44276,0.1789
-24.3,-1.1255,0.44459,0.44016,0.1769
-24.2,-1.1211,0.44198,0.43754,0.175
-24.1,-1.1168,0.4394,0.43496,0.173
-24,-1.1123,0.4369,0.43245,0.1709
-23.9,-1.1079,0.43429,0.42984,0.169
-23.8,-1.1035,0.43172,0.42727,0.1669
-23.7,-1.0989,0.42918,0.42473,0.1649
-23.6,-1.0943,0.42661,0.42215,0.1628
-23.5,-1.0898,0.42398,0.41952,0.1607
-23.4,-1.0851,0.42125,0.4168,0.1587
-22,-1.0219,0.38162,0.37712,0.1343
-21.9,-1.0176,0.37896,0.37446,0.1328
-21.8,-1.0133,0.37634,0.37183,0.1312
-21.7,-1.0092,0.37406,0.36955,0.1296
-21.6,-1.0049,0.37144,0.36694,0.128
-21.5,-1.0005,0.36884,0.36433,0.1265
-21.4,-0.9961,0.36625,0.36173,0.1249
-21.3,-0.9918,0.36366,0.35914,0.1234
-21.2,-0.9874,0.36109,0.35657,0.1219
-21.1,-0.983,0.35853,0.354,0.1203
-21,-0.9786,0.35597,0.35145,0.1188
-20.9,-0.9742,0.35343,0.3489,0.1173
-20.8,-0.9698,0.3509,0.34636,0.1158
-20.7,-0.9653,0.34838,0.34384,0.1143
-20.6,-0.9609,0.34587,0.34133,0.1129
-20.5,-0.9565,0.34336,0.33882,0.1114
-20.4,-0.9521,0.34087,0.33632,0.1099
-20.3,-0.9476,0.33839,0.33384,0.1085
-20.2,-0.9432,0.33592,0.33137,0.107
-20.1,-0.9387,0.33345,0.3289,0.1056
-20,-0.9343,0.33101,0.32645,0.1041
-19.9,-0.9298,0.32856,0.324,0.1027
-19.8,-0.9254,0.32613,0.32157,0.1013
-19.7,-0.9209,0.3237,0.31914,0.0999
-19.6,-0.9164,0.3213,0.31671,0.0985
-19.5,-0.912,0.3189,0.31431,0.0971
-19.4,-0.9075,0.31651,0.31191,0.0957
-19.3,-0.903,0.31413,0.30953,0.0943
-19.2,-0.8986,0.31176,0.30716,0.0929
-19.1,-0.8941,0.3094,0.30479,0.0916
-19,-0.8896,0.30704,0.30244,0.0902
-18.9,-0.8851,0.30471,0.30011,0.0889
-18.8,-0.8807,0.30238,0.29777,0.0875
-18.7,-0.8762,0.30005,0.29544,0.0862
-18.6,-0.8717,0.29774,0.29313,0.0848
-18.5,-0.8672,0.29544,0.29083,0.0835
-18.4,-0.8627,0.29315,0.28853,0.0822
-18.3,-0.8582,0.29086,0.28625,0.0809
-18.2,-0.8538,0.28859,0.28397,0.0796
-18.1,-0.8493,0.28632,0.28171,0.0783
-18,-0.8448,0.28408,0.27946,0.077
-17.9,-0.8403,0.28183,0.27721,0.0757
-17.8,-0.8358,0.27959,0.27497,0.0744
-17.7,-0.8313,0.27736,0.27274,0.0731
-17.6,-0.8268,0.27514,0.27052,0.0718
-17.5,-0.8223,0.27293,0.26831,0.0705
-17.4,-0.8178,0.27072,0.2661,0.0693
-17.3,-0.8133,0.26853,0.26391,0.068
-17.2,-0.8088,0.26634,0.26171,0.0667
-17.1,-0.8043,0.26416,0.25953,0.0655
-17,-0.7998,0.26199,0.25736,0.0642
-16.9,-0.7953,0.25981,0.25519,0.063
-16.8,-0.7908,0.25765,0.25302,0.0617
-16.7,-0.7864,0.25549,0.25086,0.0605
-16.6,-0.7819,0.25333,0.24868,0.0592
-16.5,-0.7774,0.25117,0.24652,0.058
-16.4,-0.7728,0.24902,0.24437,0.0568
-16.3,-0.7683,0.24686,0.24221,0.0555
-16.2,-0.7638,0.2447,0.24005,0.0543
-16.1,-0.7593,0.24254,0.23789,0.0531
-16,-0.7547,0.24036,0.23571,0.0518
-15.9,-0.7502,0.23818,0.23354,0.0506
-15.8,-0.7456,0.23598,0.23133,0.0494
-15.7,-0.7409,0.23377,0.22913,0.0481
-15.6,-0.7362,0.23151,0.22687,0.0469
-15.5,-0.7313,0.22921,0.22456,0.0456
-15.3,-0.7195,0.22414,0.21954,0.0418
-15.2,-0.7155,0.22209,0.21749,0.0409
-15.1,-0.7114,0.22007,0.21547,0.04
-15,-0.7074,0.21806,0.21346,0.039
-14.9,-0.7033,0.21607,0.21147,0.0381
-14.8,-0.6993,0.2141,0.20949,0.0372
-14.7,-0.6952,0.21214,0.20753,0.0362
-14.6,-0.6911,0.21019,0.20559,0.0353
-14.5,-0.6871,0.20826,0.20366,0.0343
-14.4,-0.683,0.20634,0.20174,0.0334
-14.3,-0.6794,0.20471,0.20011,0.0325
-14.2,-0.6753,0.20281,0.19821,0.0315
-14.1,-0.6712,0.20093,0.19633,0.0306
-14,-0.667,0.19904,0.19445,0.0296
-13.9,-0.6629,0.19717,0.19258,0.0287
-13.8,-0.6588,0.19531,0.19072,0.0278
-13.7,-0.6547,0.19346,0.18886,0.0268
-13.6,-0.6506,0.19161,0.18702,0.0259
-13.5,-0.6464,0.18978,0.18519,0.025
-13.4,-0.6423,0.18795,0.18336,0.0241
-13.3,-0.6382,0.18613,0.18152,0.0232
-13.2,-0.6341,0.18432,0.17971,0.0223
-13.1,-0.63,0.18252,0.17791,0.0214
-13,-0.626,0.18073,0.17612,0.0205
-12.9,-0.6219,0.17894,0.17434,0.0196
-12.8,-0.6178,0.17716,0.17256,0.0187
-12.7,-0.6137,0.17539,0.17079,0.0178
-12.6,-0.6097,0.17363,0.16903,0.017
-12.5,-0.6056,0.17187,0.16728,0.0161
-12.4,-0.6015,0.17012,0.16553,0.0152
-12.3,-0.5974,0.16837,0.16379,0.0144
-12.2,-0.5934,0.16664,0.16206,0.0135
-12.1,-0.5893,0.16491,0.16033,0.0127
-12,-0.5853,0.16318,0.15861,0.0118
-11.9,-0.5812,0.16147,0.15689,0.011
-11.8,-0.5772,0.15976,0.15519,0.0101
-11.7,-0.5732,0.15805,0.15348,0.0093
-11.6,-0.5692,0.15635,0.15179,0.0085
-11.5,-0.5652,0.15465,0.15009,0.0077
-11.4,-0.5611,0.15297,0.14841,0.0068
-11.3,-0.5572,0.15128,0.14673,0.006
-11.2,-0.5532,0.1496,0.14506,0.0052
-11.1,-0.5492,0.14792,0.14339,0.0044
-11,-0.5452,0.14625,0.14172,0.0035
-10.9,-0.5412,0.14458,0.14005,0.0027
-10.8,-0.5372,0.14291,0.13839,0.0019
-10.7,-0.5332,0.14125,0.13673,0.0011
-10.6,-0.5293,0.13959,0.13507,0.0003
-10.5,-0.5253,0.13792,0.13342,-0.0005
-10.4,-0.5214,0.13626,0.13176,-0.0014
-10.3,-0.5175,0.1346,0.1301,-0.0022
-10.2,-0.5135,0.13293,0.12844,-0.003
-10.1,-0.5096,0.13126,0.12675,-0.0039
-10,-0.5057,0.12957,0.12507,-0.0047
-9.9,-0.5017,0.12786,0.12337,-0.0057
-9.8,-0.4978,0.12612,0.12164,-0.0066
-9.7,-0.4938,0.12432,0.11984,-0.0077
-9.6,-0.4897,0.12243,0.11796,-0.0091
-9.5,-0.486,0.12079,0.11636,-0.0101
-9.4,-0.4826,0.11932,0.1149,-0.0106
-9.3,-0.4792,0.11787,0.11346,-0.0111
-9.2,-0.4758,0.11643,0.11203,-0.0117
-9.1,-0.4724,0.11502,0.11062,-0.0122
-9,-0.469,0.11362,0.10924,-0.0128
-8.9,-0.4657,0.11224,0.10786,-0.0133
-8.8,-0.4624,0.11087,0.10651,-0.0138
-8.7,-0.4591,0.10952,0.10516,-0.0144
-8.6,-0.4559,0.10818,0.10384,-0.0149
-8.5,-0.453,0.10715,0.10282,-0.0154
-8.4,-0.4499,0.10583,0.10151,-0.0159
-8.3,-0.4469,0.10452,0.10021,-0.0164
-8.2,-0.444,0.10323,0.09893,-0.0168
-8.1,-0.4413,0.10195,0.09767,-0.0172
-8,-0.4387,0.1007,0.09643,-0.0176
-7.9,-0.4363,0.09946,0.09521,-0.018
-7.8,-0.4341,0.09826,0.09402,-0.0183
-7.7,-0.4321,0.09707,0.09285,-0.0185
-7.6,-0.4305,0.09593,0.09173,-0.0186
-7.5,-0.4293,0.09483,0.09065,-0.0187
-7.4,-0.4286,0.09377,0.08961,-0.0186
-7.3,-0.4283,0.09275,0.08861,-0.0185
-7.2,-0.4284,0.09177,0.08766,-0.0182
-7.1,-0.4292,0.09085,0.08676,-0.0178
-7,-0.4305,0.08997,0.08591,-0.0173
-6.9,-0.4324,0.08914,0.08511,-0.0167
-6.8,-0.4345,0.08833,0.08433,-0.016
-6.7,-0.4363,0.08749,0.08352,-0.0154
-6.6,-0.4374,0.08657,0.08263,-0.015
-6.5,-0.4385,0.08566,0.08175,-0.0146
-6.4,-0.4398,0.08476,0.08088,-0.0142
-6.3,-0.4412,0.08387,0.08001,-0.0138
-6.2,-0.4406,0.0828,0.07897,-0.014
-6.1,-0.4308,0.08096,0.07711,-0.0166
-6,-0.4208,0.0791,0.07522,-0.0194
-5.9,-0.4103,0.0772,0.07332,-0.0222
-5.8,-0.3998,0.0753,0.0714,-0.0251
-5.7,-0.3891,0.07336,0.06945,-0.0279
-5.6,-0.3767,0.07126,0.06734,-0.0314
-5.5,-0.3642,0.06911,0.06516,-0.0349
-5.4,-0.3516,0.06684,0.06286,-0.0385
-5.2,-0.3255,0.06206,0.05805,-0.0461
-5.1,-0.3132,0.06041,0.05639,-0.0487
-5,-0.2999,0.05874,0.05469,-0.0514
-4.8,-0.2735,0.05546,0.05136,-0.0566
-4.7,-0.2607,0.05387,0.04973,-0.059
-4.6,-0.2465,0.05221,0.04803,-0.0618
-4.5,-0.2312,0.05049,0.04627,-0.0647
-4.4,-0.215,0.04872,0.04445,-0.0678
-4.3,-0.1969,0.04682,0.04249,-0.0712
-4.2,-0.179,0.04491,0.04052,-0.0746
-4.1,-0.1659,0.04326,0.0388,-0.0766
-4,-0.1493,0.04134,0.03681,-0.0795
-3.9,-0.1313,0.03925,0.03462,-0.0827
-3.8,-0.1108,0.03677,0.03201,-0.0864
-3.6,-0.066,0.02999,0.02479,-0.0954
-3.5,-0.0499,0.02994,0.02469,-0.0964
-3.4,-0.03,0.0282,0.02278,-0.0989
-3.3,-0.015,0.02658,0.02098,-0.1002
-3.2,0.0012,0.02482,0.01898,-0.1018
-3.1,0.0198,0.02278,0.01658,-0.1038
-3,0.0385,0.02068,0.01396,-0.1057
-2.9,0.0547,0.01993,0.01313,-0.1065
-2.8,0.072,0.01931,0.01239,-0.1073
-2.7,0.0889,0.01866,0.01159,-0.1081
-2.6,0.1068,0.01792,0.01063,-0.109
-2.4,0.1367,0.01695,0.00938,-0.1095
-2.3,0.1509,0.01659,0.00894,-0.1095
-2.2,0.1662,0.01618,0.0084,-0.1098
-2.1,0.1828,0.01572,0.00774,-0.1102
-2,0.1988,0.01544,0.00747,-0.1107
-1.9,0.2158,0.01528,0.00725,-0.1112
-1.8,0.2325,0.01498,0.00689,-0.1118
-1.7,0.2429,0.01485,0.00676,-0.1111
-1.6,0.2575,0.01467,0.00654,-0.1112
-1.5,0.2727,0.01457,0.00644,-0.1115
-1.4,0.2891,0.01438,0.00622,-0.1119
-1.3,0.3053,0.01422,0.006,-0.1124
-1.1,0.3307,0.01408,0.00588,-0.1119
-1,0.3455,0.01397,0.00577,-0.1121
-0.9,0.3616,0.01384,0.0056,-0.1125
-0.7,0.3884,0.01367,0.00546,-0.1122
-0.6,0.4062,0.01345,0.00524,-0.1127
-0.5,0.4172,0.01344,0.00521,-0.1122
-0.4,0.4323,0.01329,0.00509,-0.1123
-0.3,0.4461,0.01322,0.00505,-0.1122
-0.2,0.4591,0.01317,0.00501,-0.1121
-0.1,0.4756,0.013,0.00485,-0.1124
0,0.4873,0.01298,0.00485,-0.112
0.1,0.5018,0.01288,0.0048,-0.1121
0.2,0.5153,0.01277,0.00469,-0.1118
0.3,0.5301,0.01268,0.00463,-0.1119
0.4,0.5434,0.01261,0.00459,-0.1118
0.5,0.5577,0.01251,0.00456,-0.1119
0.6,0.572,0.01235,0.00443,-0.1117
0.7,0.586,0.01226,0.0044,-0.1117
0.8,0.6002,0.01214,0.00436,-0.1117
0.9,0.6141,0.01198,0.00431,-0.1116
1.1,0.6327,0.01059,0.00409,-0.1087
1.2,0.6465,0.0106,0.00405,-0.1085
1.3,0.6602,0.01061,0.00401,-0.1082
1.4,0.6739,0.01061,0.00392,-0.1078
1.5,0.6872,0.01065,0.00387,-0.1074
1.6,0.7001,0.0107,0.00383,-0.107
1.7,0.7125,0.01078,0.00379,-0.1064
1.8,0.7243,0.01091,0.00377,-0.1057
2,0.744,0.0114,0.00381,-0.1036
2.1,0.7537,0.01168,0.0039,-0.1027
2.2,0.7629,0.01199,0.00402,-0.1018
2.3,0.7719,0.01234,0.00416,-0.1009
2.4,0.7808,0.01271,0.00433,-0.1001
2.5,0.7885,0.0132,0.00454,-0.0991
2.6,0.7987,0.01352,0.00474,-0.0985
2.7,0.8093,0.0138,0.00493,-0.098
2.8,0.8202,0.01408,0.00512,-0.0975
2.9,0.8312,0.01434,0.00535,-0.097
3,0.8426,0.01457,0.00555,-0.0965
3.1,0.8532,0.01487,0.00577,-0.096
3.2,0.8644,0.01512,0.00598,-0.0955
3.3,0.8761,0.01532,0.00619,-0.0951
3.4,0.8874,0.01557,0.0064,-0.0946
3.5,0.8991,0.01578,0.00662,-0.0941
3.6,0.9106,0.01601,0.00684,-0.0936
3.7,0.9218,0.01626,0.00706,-0.093
3.8,0.9331,0.0165,0.00729,-0.0925
3.9,0.9447,0.01673,0.00753,-0.092
4,0.9562,0.01695,0.00777,-0.0914
4.1,0.9674,0.01722,0.00802,-0.0908
4.2,0.979,0.01743,0.00825,-0.0903
4.3,0.99,0.0177,0.00855,-0.0897
4.4,1.0017,0.01794,0.00883,-0.0891
4.5,1.0131,0.01819,0.00911,-0.0885
4.6,1.024,0.01848,0.0094,-0.0878
4.7,1.0355,0.01874,0.00971,-0.0872
4.8,1.0465,0.019,0.00994,-0.0866
4.9,1.0579,0.01928,0.01028,-0.0859
5,1.069,0.01957,0.01062,-0.0852
5.1,1.0798,0.01989,0.01096,-0.0844
5.2,1.0906,0.02023,0.01133,-0.0836
5.3,1.1016,0.02057,0.01175,-0.0829
5.5,1.1231,0.02121,0.01245,-0.0813
5.6,1.1337,0.02159,0.01291,-0.0805
5.7,1.144,0.02198,0.01336,-0.0796
5.8,1.1536,0.0224,0.01385,-0.0786
5.9,1.164,0.02287,0.01442,-0.0777
6,1.1741,0.02337,0.01502,-0.0767
6.2,1.1934,0.02419,0.01593,-0.0748
6.3,1.203,0.02478,0.01665,-0.0738
6.4,1.2122,0.02539,0.01739,-0.0727
6.5,1.2209,0.026,0.01811,-0.0716
6.6,1.2292,0.02663,0.01883,-0.0704
6.7,1.2368,0.02726,0.01955,-0.0692
6.8,1.2438,0.02797,0.02033,-0.0679
6.9,1.2513,0.02891,0.02147,-0.0667
7,1.2592,0.0296,0.02234,-0.0656
7.1,1.265,0.03043,0.02332,-0.0642
7.2,1.27,0.03126,0.02427,-0.0628
7.3,1.2741,0.03209,0.0252,-0.0613
7.4,1.2766,0.03292,0.02612,-0.0597
7.5,1.2782,0.03421,0.02761,-0.0581
7.6,1.2784,0.03555,0.02919,-0.0565
7.7,1.2775,0.0369,0.03073,-0.0549
7.8,1.2756,0.03827,0.03228,-0.0534
8,1.2695,0.04111,0.03544,-0.0505
8.1,1.2655,0.04258,0.03705,-0.0493
8.2,1.2608,0.0441,0.0387,-0.0482
8.3,1.2615,0.04474,0.0394,-0.0472
8.4,1.257,0.04619,0.04096,-0.0464
8.5,1.2521,0.04771,0.04258,-0.0457
8.6,1.2468,0.04929,0.04425,-0.0452
8.7,1.2412,0.05096,0.046,-0.045
8.8,1.2349,0.05278,0.04787,-0.0451
8.9,1.2264,0.05504,0.05025,-0.0457
9,1.2178,0.0574,0.05271,-0.0466
9.1,1.2092,0.05987,0.05528,-0.0478
9.2,1.2005,0.06251,0.05801,-0.0495
9.3,1.192,0.0653,0.06088,-0.0516
9.4,1.1836,0.06828,0.06393,-0.0541
9.5,1.1755,0.07144,0.06716,-0.0569
9.6,1.1677,0.07481,0.07059,-0.0601
9.7,1.1602,0.07839,0.07422,-0.0636
9.8,1.153,0.08217,0.07804,-0.0672
9.9,1.1461,0.08613,0.08205,-0.071
10,1.1394,0.09016,0.08611,-0.0745
10.1,1.1327,0.09415,0.09012,-0.0779
10.2,1.1261,0.09809,0.09407,-0.0811
10.3,1.1198,0.10194,0.09793,-0.0841
10.4,1.1137,0.10579,0.10177,-0.087
10.5,1.1083,0.10952,0.10551,-0.0898
10.6,1.1034,0.11317,0.10912,-0.0924
10.7,1.0993,0.11668,0.11262,-0.0948
10.8,1.096,0.12002,0.11596,-0.0971
10.9,1.0935,0.12319,0.11913,-0.0992
11,1.0916,0.12619,0.12213,-0.1012
11.1,1.0903,0.12906,0.125,-0.1031
11.2,1.0895,0.13177,0.12771,-0.1048
11.3,1.0892,0.13436,0.1303,-0.1065
11.4,1.0893,0.13681,0.13276,-0.108
11.6,1.0907,0.1414,0.13738,-0.1107
11.7,1.0918,0.14352,0.13951,-0.112
11.8,1.0932,0.14554,0.14153,-0.1131
11.9,1.0949,0.14744,0.14344,-0.1142
12,1.0968,0.14924,0.14525,-0.1152
12.1,1.0988,0.15093,0.14694,-0.1161
12.2,1.101,0.15251,0.14853,-0.1169
12.4,1.0973,0.1613,0.15726,-0.1235
12.5,1.0985,0.16402,0.15999,-0.1252
12.6,1.1,0.16659,0.16256,-0.1268
12.7,1.1017,0.16901,0.16499,-0.1283
12.8,1.1037,0.17132,0.1673,-0.1297
12.9,1.1059,0.17353,0.16951,-0.131
13,1.1083,0.17564,0.17163,-0.1323
13.1,1.1108,0.17767,0.17366,-0.1335
13.2,1.1134,0.1796,0.1756,-0.1347
13.3,1.1162,0.18144,0.17745,-0.1358
13.4,1.119,0.18322,0.17923,-0.1368
13.5,1.1219,0.18489,0.18091,-0.1378
13.6,1.1248,0.1865,0.18252,-0.1388
13.7,1.1278,0.18799,0.18402,-0.1396
13.8,1.128,0.19397,0.18995,-0.1442
13.9,1.1307,0.19658,0.19256,-0.1459
14,1.1336,0.19906,0.19504,-0.1475
14.1,1.1366,0.20139,0.19738,-0.1489
14.2,1.1397,0.20363,0.19962,-0.1504
14.3,1.143,0.20578,0.20177,-0.1517
14.4,1.1463,0.20785,0.20386,-0.1531
14.5,1.1497,0.20987,0.20587,-0.1544
14.6,1.1531,0.21181,0.20782,-0.1556
14.7,1.1565,0.21369,0.2097,-0.1568
14.8,1.16,0.21551,0.21153,-0.158
14.9,1.1635,0.21725,0.21327,-0.1592
15,1.167,0.21893,0.21496,-0.1603
15.1,1.1705,0.22055,0.21659,-0.1613
15.2,1.1739,0.2221,0.21815,-0.1623
15.3,1.1774,0.22604,0.22205,-0.1649
15.4,1.1811,0.22932,0.22533,-0.167
15.5,1.1849,0.23216,0.22817,-0.1689
15.6,1.1887,0.23484,0.23085,-0.1706
15.7,1.1925,0.23732,0.23333,-0.1722
15.8,1.1963,0.23979,0.23579,-0.1743
15.9,1.2002,0.24189,0.23791,-0.1757
16,1.2041,0.24396,0.23997,-0.1771
16.1,1.208,0.24599,0.24201,-0.1785
16.2,1.212,0.24797,0.24399,-0.1799
16.3,1.2159,0.24991,0.24594,-0.1812
16.4,1.2199,0.2518,0.24786,-0.1825
16.5,1.2238,0.25366,0.24972,-0.1838
16.6,1.2277,0.25547,0.25153,-0.1851
16.7,1.2316,0.25727,0.25334,-0.1864
16.8,1.2355,0.25899,0.25507,-0.1876
16.9,1.2401,0.26284,0.25889,-0.19
17,1.2446,0.26612,0.26217,-0.1921
17.1,1.249,0.26896,0.265,-0.1939
17.2,1.2534,0.27167,0.26772,-0.1956
17.3,1.2578,0.27424,0.2703,-0.1973
17.4,1.2621,0.27672,0.27278,-0.1989
17.5,1.2665,0.27916,0.27522,-0.2005
17.6,1.2708,0.28155,0.27761,-0.2021
17.7,1.2752,0.28391,0.27997,-0.2037
17.8,1.2795,0.28624,0.28231,-0.2053
17.9,1.2839,0.28854,0.28461,-0.2068
18,1.2882,0.29082,0.2869,-0.2084
18.1,1.2925,0.29309,0.28917,-0.2099
18.2,1.2969,0.29533,0.29142,-0.2115
18.3,1.3012,0.29756,0.29365,-0.213
18.4,1.3055,0.29977,0.29587,-0.2145
18.5,1.3098,0.30196,0.29806,-0.216
18.6,1.3141,0.30415,0.30025,-0.2176
18.7,1.3184,0.30632,0.30243,-0.2191
18.8,1.3226,0.30848,0.3046,-0.2206
18.9,1.3269,0.3106,0.30673,-0.2221
19,1.3311,0.31272,0.30884,-0.2236
19.1,1.3353,0.31484,0.31097,-0.2251
19.2,1.3394,0.31692,0.31306,-0.2266
19.3,1.3435,0.31904,0.31518,-0.2281
19.4,1.3487,0.32275,0.31886,-0.2304
19.5,1.3537,0.32621,0.32233,-0.2326
19.6,1.3592,0.33015,0.32626,-0.2354
19.7,1.3637,0.33275,0.32887,-0.2371
19.8,1.3682,0.33533,0.33147,-0.2389
19.9,1.3727,0.33788,0.33403,-0.2406
20,1.3771,0.34044,0.33659,-0.2423
20.1,1.3816,0.34297,0.33912,-0.244
20.2,1.3861,0.3455,0.34166,-0.2457
20.3,1.3905,0.34802,0.34419,-0.2474
20.4,1.3949,0.35054,0.34671,-0.2492
20.5,1.3993,0.35306,0.34924,-0.2509
20.6,1.4038,0.35558,0.35177,-0.2526
20.7,1.4081,0.35809,0.35428,-0.2543
20.8,1.4126,0.36062,0.35682,-0.2561
20.9,1.4169,0.36313,0.35933,-0.2578
21,1.4213,0.36565,0.36186,-0.2595
21.1,1.4257,0.36817,0.36439,-0.2613
21.2,1.43,0.3707,0.36692,-0.263
21.3,1.4343,0.37322,0.36944,-0.2647
21.4,1.4386,0.37573,0.37196,-0.2665
21.5,1.443,0.37827,0.37451,-0.2683
21.6,1.4473,0.38083,0.37707,-0.27
21.7,1.4515,0.38335,0.3796,-0.2718
21.8,1.4558,0.38591,0.38216,-0.2735
21.9,1.46,0.38844,0.3847,-0.2753
22,1.4643,0.391,0.38727,-0.2771
22.1,1.4685,0.39354,0.38982,-0.2788
22.2,1.4727,0.39612,0.3924,-0.2806
22.3,1.4769,0.3987,0.39499,-0.2824
22.4,1.481,0.40126,0.39755,-0.2841
22.5,1.4852,0.40388,0.40018,-0.2859
22.6,1.4893,0.40647,0.40278,-0.2877
22.7,1.4934,0.40911,0.40543,-0.2894
22.8,1.4987,0.41308,0.40937,-0.292
22.9,1.5036,0.41664,0.41295,-0.2942
23,1.5082,0.41993,0.41625,-0.2964
23.1,1.5127,0.42305,0.41937,-0.2984
23.2,1.5172,0.42618,0.4225,-0.3005
23.3,1.5216,0.42921,0.42555,-0.3025
23.4,1.526,0.43219,0.42853,-0.3045
23.5,1.5303,0.43521,0.43155,-0.3065
23.6,1.5346,0.43818,0.43453,-0.3085
23.7,1.539,0.44117,0.43752,-0.3105
23.8,1.5432,0.44412,0.44048,-0.3125
23.9,1.5475,0.4471,0.44346,-0.3145
24,1.5517,0.45004,0.44641,-0.3165
24.1,1.5559,0.453,0.44938,-0.3185
24.2,1.5601,0.45598,0.45237,-0.3206
24.3,1.5643,0.45894,0.45533,-0.3226
24.4,1.5685,0.46192,0.45833,-0.3246
24.5,1.5726,0.46491,0.46132,-0.3266
24.6,1.5768,0.4679,0.46432,-0.3286
24.7,1.5809,0.4709,0.46732,-0.3307
24.8,1.5849,0.47388,0.47031,-0.3327
24.9,1.589,0.4769,0.47334,-0.3347
25,1.5931,0.47994,0.47639,-0.3368
25.1,1.5971,0.48297,0.47942,-0.3388
25.2,1.6012,0.48602,0.48248,-0.3409
25.3,1.6052,0.48906,0.48553,-0.3429
25.4,1.6092,0.49215,0.48863,-0.345
25.5,1.6132,0.49523,0.49171,-0.347
25.6,1.617,0.49738,0.49387,-0.3493
25.7,1.621,0.50045,0.49695,-0.3514
25.8,1.6249,0.50354,0.50004,-0.3535
25.9,1.6288,0.50663,0.50315,-0.3556
26,1.6327,0.50974,0.50629,-0.3576
26.1,1.6366,0.51285,0.50941,-0.3597
26.2,1.6404,0.516,0.51256,-0.3618
26.3,1.6443,0.51914,0.51572,-0.3639
26.4,1.6481,0.52232,0.5189,-0.3661
26.5,1.6519,0.5255,0.52209,-0.3682
26.6,1.6557,0.5287,0.52529,-0.3703
26.7,1.6595,0.53189,0.52849,-0.3724
26.8,1.6633,0.53511,0.53173,-0.3745
26.9,1.667,0.53834,0.53497,-0.3767
27,1.6707,0.54158,0.53821,-0.3788
27.1,1.6744,0.54485,0.54149,-0.381
27.2,1.6781,0.54813,0.54478,-0.3831
27.3,1.6818,0.55145,0.54811,-0.3853
27.4,1.6854,0.55477,0.55144,-0.3874
27.5,1.689,0.55812,0.55479,-0.3896
27.6,1.6926,0.56149,0.55817,-0.3918
27.7,1.6962,0.56488,0.56157,-0.3939
27.8,1.6998,0.56835,0.56506,-0.3961
27.9,1.7033,0.57176,0.56847,-0.3983
28,1.7069,0.57526,0.57198,-0.4004
28.1,1.7103,0.57879,0.57552,-0.4026
28.2,1.7152,0.58278,0.57948,-0.4057
28.3,1.7194,0.58656,0.58326,-0.4083
28.4,1.7234,0.59027,0.58698,-0.4108
28.5,1.7273,0.59382,0.59054,-0.4133
28.6,1.7311,0.59735,0.59408,-0.4158
28.7,1.7349,0.60082,0.59755,-0.4182
28.8,1.7385,0.60429,0.60103,-0.4207
28.9,1.7422,0.60777,0.60452,-0.4231
29,1.7459,0.61112,0.60787,-0.4256
29.1,1.7494,0.61457,0.61135,-0.428
29.2,1.753,0.61803,0.61482,-0.4305
29.3,1.7566,0.62143,0.61823,-0.433
29.4,1.7602,0.6249,0.6217,-0.4354
29.5,1.7636,0.62837,0.62518,-0.4379
29.6,1.7671,0.6318,0.62861,-0.4403
29.7,1.7705,0.63527,0.63209,-0.4428
29.8,1.7739,0.63881,0.63564,-0.4452
29.9,1.7773,0.64237,0.63921,-0.4476
30,1.7807,0.64596,0.64281,-0.4501

