airfoilName st24.dat
Re 	430000
M 	5.000000e-01
N 	4.500000e+00
VACC 	0 VACCflag 1
XTR 	1.00 	1.00 XTRflag 0
alpha,cl,cd,cdp,cm
-30,-1.3569,0.60054,0.59826,0.3021
-29.9,-1.3533,0.59729,0.595,0.2999
-29.8,-1.3498,0.59412,0.59183,0.2976
-29.7,-1.3462,0.59092,0.58863,0.2954
-29.6,-1.3426,0.58775,0.58546,0.2931
-29.5,-1.339,0.58463,0.58233,0.2909
-29.4,-1.3353,0.5815,0.5792,0.2886
-29.3,-1.3316,0.57841,0.5761,0.2864
-29.2,-1.3279,0.57537,0.57306,0.2841
-29.1,-1.3242,0.57231,0.56999,0.2819
-29,-1.3205,0.56928,0.56697,0.2797
-28.9,-1.3167,0.56635,0.56402,0.2774
-28.8,-1.3129,0.56341,0.56108,0.2752
-28.7,-1.3092,0.56043,0.5581,0.2729
-28.6,-1.3053,0.5576,0.55526,0.2707
-28.5,-1.3015,0.55465,0.55232,0.2685
-28.4,-1.2976,0.55194,0.54959,0.2662
-28.3,-1.2937,0.54913,0.54677,0.2639
-28.2,-1.2899,0.54631,0.54396,0.2617
-28.1,-1.2859,0.54365,0.54129,0.2594
-28,-1.2819,0.54103,0.53867,0.2571
-27.9,-1.2779,0.53844,0.53608,0.2548
-27.8,-1.2739,0.53589,0.53353,0.2525
-27.7,-1.2699,0.53333,0.53096,0.2503
-27.6,-1.2658,0.53086,0.52849,0.2479
-27.5,-1.2617,0.52849,0.52611,0.2456
-27.4,-1.2575,0.52636,0.52399,0.2431
-27.3,-1.2534,0.52411,0.52174,0.2407
-27.2,-1.2491,0.52203,0.51965,0.2383
-27.1,-1.2448,0.51991,0.51753,0.2358
-27,-1.2403,0.51811,0.51573,0.2331
-25.2,-1.1647,0.46616,0.46374,0.1958
-25.1,-1.1606,0.46303,0.46061,0.194
-25,-1.1565,0.46001,0.45758,0.1922
-24.9,-1.1525,0.45692,0.45449,0.1904
-24.8,-1.1483,0.4539,0.45147,0.1886
-24.7,-1.1442,0.45088,0.44844,0.1868
-24.6,-1.1401,0.44786,0.44542,0.1851
-24.5,-1.1359,0.44487,0.44242,0.1833
-24.4,-1.1318,0.44185,0.4394,0.1816
-24.3,-1.1276,0.43889,0.43644,0.1798
-24.2,-1.1235,0.43594,0.43348,0.1781
-24.1,-1.1193,0.433,0.43054,0.1763
-24,-1.1151,0.43005,0.42759,0.1746
-23.9,-1.1109,0.42718,0.42472,0.1729
-23.8,-1.1066,0.42429,0.42183,0.1712
-23.7,-1.1024,0.42142,0.41895,0.1695
-23.6,-1.0982,0.41855,0.41608,0.1677
-23.5,-1.094,0.41572,0.41325,0.166
-23.4,-1.0897,0.4129,0.41043,0.1643
-23.3,-1.0854,0.41009,0.40761,0.1627
-23.2,-1.0812,0.40731,0.40483,0.161
-23.1,-1.0769,0.40453,0.40204,0.1593
-23,-1.0726,0.40179,0.3993,0.1576
-22.9,-1.0683,0.39903,0.39654,0.156
-22.8,-1.0639,0.39632,0.39383,0.1543
-22.7,-1.0596,0.39361,0.39111,0.1526
-22.6,-1.0553,0.39093,0.38842,0.151
-22.5,-1.051,0.38826,0.38575,0.1493
-22.4,-1.0466,0.38561,0.38309,0.1477
-22.3,-1.0423,0.38296,0.38045,0.146
-22.2,-1.0379,0.38034,0.37783,0.1444
-22.1,-1.0335,0.37775,0.37523,0.1428
-22,-1.0291,0.37516,0.37263,0.1412
-21.9,-1.0247,0.37258,0.37005,0.1396
-21.8,-1.0203,0.37002,0.36749,0.1379
-21.7,-1.0159,0.36747,0.36495,0.1363
-21.6,-1.0115,0.36493,0.3624,0.1348
-21.5,-1.0071,0.3624,0.35987,0.1332
-21.4,-1.0027,0.35989,0.35736,0.1316
-21.3,-0.9982,0.35738,0.35484,0.13
-21.2,-0.9938,0.35489,0.35235,0.1285
-21.1,-0.9893,0.35241,0.34986,0.1269
-21,-0.9849,0.34994,0.34739,0.1253
-20.9,-0.9804,0.34747,0.34492,0.1238
-20.8,-0.976,0.34501,0.34247,0.1223
-20.7,-0.9715,0.34258,0.34003,0.1207
-20.6,-0.967,0.34014,0.33759,0.1192
-20.5,-0.9626,0.33772,0.33516,0.1177
-20.4,-0.9581,0.3353,0.33275,0.1162
-20.3,-0.9536,0.3329,0.33034,0.1147
-20.2,-0.9491,0.33051,0.32795,0.1132
-20.1,-0.9446,0.32813,0.32557,0.1117
-20,-0.9401,0.32576,0.3232,0.1102
-19.9,-0.9356,0.3234,0.32083,0.1087
-19.8,-0.9311,0.32105,0.31849,0.1073
-19.7,-0.9266,0.31872,0.31614,0.1058
-19.6,-0.9221,0.31639,0.31381,0.1043
-19.5,-0.9176,0.31408,0.3115,0.1029
-19.4,-0.9131,0.31178,0.3092,0.1014
-19.3,-0.9086,0.30949,0.30691,0.0999
-19.2,-0.9041,0.30721,0.30462,0.0985
-19.1,-0.8995,0.30494,0.30235,0.097
-19,-0.895,0.30267,0.30009,0.0956
-18.9,-0.8905,0.30043,0.29784,0.0941
-18.8,-0.886,0.29819,0.2956,0.0927
-18.7,-0.8815,0.29596,0.29337,0.0912
-18.6,-0.877,0.29373,0.29114,0.0898
-18.5,-0.8725,0.29152,0.28892,0.0884
-18.4,-0.868,0.28932,0.28672,0.0869
-18.3,-0.8634,0.28711,0.28452,0.0855
-18.2,-0.8589,0.28492,0.28232,0.0841
-18.1,-0.854,0.2831,0.28051,0.0817
-18,-0.8494,0.2808,0.27821,0.0803
-17.9,-0.8448,0.27849,0.2759,0.0789
-17.8,-0.8402,0.27616,0.27357,0.0776
-17.7,-0.8355,0.27383,0.27124,0.0762
-17.6,-0.8308,0.27148,0.26889,0.0748
-17.5,-0.8261,0.26912,0.26652,0.0734
-17.4,-0.8212,0.26673,0.26413,0.072
-17.3,-0.8162,0.26437,0.26177,0.0706
-17,-0.8003,0.25745,0.25488,0.0657
-16.9,-0.796,0.25523,0.25265,0.0646
-16.8,-0.7918,0.25302,0.25045,0.0634
-16.7,-0.7875,0.25083,0.24825,0.0623
-16.6,-0.7833,0.24864,0.24607,0.0612
-16.4,-0.7748,0.2443,0.24171,0.059
-16.3,-0.7705,0.24216,0.23957,0.0579
-16.2,-0.7663,0.24003,0.23743,0.0569
-16.1,-0.7621,0.23791,0.23532,0.0558
-16,-0.7579,0.2358,0.23321,0.0547
-15.9,-0.7537,0.23372,0.23113,0.0536
-15.8,-0.7495,0.23165,0.22905,0.0526
-15.7,-0.7453,0.2296,0.227,0.0515
-15.6,-0.7411,0.22757,0.22497,0.0504
-15.5,-0.737,0.22555,0.22296,0.0494
-15.4,-0.7328,0.22355,0.22096,0.0483
-15.3,-0.7286,0.22157,0.21898,0.0473
-15.2,-0.7245,0.21961,0.21701,0.0462
-15.1,-0.7203,0.21766,0.21506,0.0452
-15,-0.7161,0.21572,0.21312,0.0442
-14.9,-0.7119,0.21379,0.2112,0.0431
-14.8,-0.7078,0.21189,0.2093,0.0421
-14.7,-0.7036,0.20999,0.20739,0.0411
-14.6,-0.6994,0.2081,0.20551,0.04
-14.5,-0.6952,0.20621,0.20362,0.039
-14.4,-0.691,0.20434,0.20175,0.038
-14.3,-0.6868,0.20249,0.19989,0.0369
-14.2,-0.6826,0.20063,0.19804,0.0359
-14.1,-0.6784,0.19878,0.19619,0.0349
-14,-0.6742,0.19693,0.19434,0.0339
-13.9,-0.67,0.19509,0.1925,0.0329
-13.8,-0.6658,0.19326,0.19067,0.0319
-13.7,-0.6617,0.19143,0.18885,0.0309
-13.6,-0.6575,0.1896,0.18702,0.0299
-13.5,-0.6533,0.18779,0.18521,0.0289
-13.4,-0.6491,0.18598,0.18338,0.0279
-13.3,-0.645,0.18417,0.18157,0.0269
-13.2,-0.6408,0.18236,0.17977,0.0259
-13.1,-0.6367,0.18056,0.17797,0.025
-13,-0.6325,0.17877,0.17618,0.024
-12.9,-0.6284,0.17698,0.17439,0.0231
-12.8,-0.6242,0.17518,0.17259,0.0221
-12.7,-0.6201,0.17339,0.1708,0.0212
-12.6,-0.6159,0.17159,0.16901,0.0202
-12.5,-0.6118,0.1698,0.16722,0.0193
-12.4,-0.6076,0.16801,0.16543,0.0183
-12.3,-0.6035,0.16622,0.16363,0.0174
-12.2,-0.5993,0.16443,0.16185,0.0164
-12.1,-0.5952,0.16264,0.16006,0.0155
-12,-0.5911,0.16084,0.15827,0.0146
-11.9,-0.5869,0.15905,0.15648,0.0136
-11.8,-0.5828,0.15726,0.15468,0.0127
-11.7,-0.5787,0.15545,0.15288,0.0118
-11.6,-0.5745,0.15364,0.15107,0.0109
-11.5,-0.5704,0.15182,0.14925,0.0099
-11.4,-0.5634,0.1487,0.14613,0.0077
-11.2,-0.5536,0.14485,0.14231,0.005
-11.1,-0.5498,0.14313,0.1406,0.0043
-11,-0.5461,0.14144,0.1389,0.0036
-10.9,-0.5424,0.13975,0.13722,0.0029
-10.8,-0.5386,0.13808,0.13555,0.0022
-10.7,-0.5349,0.13643,0.1339,0.0014
-10.6,-0.5312,0.13479,0.13226,0.0007
-10.5,-0.5275,0.13316,0.13064,0
-10.4,-0.5239,0.13156,0.12904,-0.0007
-10.3,-0.5202,0.12997,0.12745,-0.0014
-10.2,-0.5165,0.1284,0.12588,-0.0021
-10.1,-0.5128,0.12684,0.12433,-0.0028
-10,-0.509,0.1253,0.12278,-0.0035
-9.9,-0.5053,0.12377,0.12126,-0.0042
-9.8,-0.5016,0.12226,0.11975,-0.005
-9.7,-0.4979,0.12077,0.11826,-0.0057
-9.6,-0.4942,0.11929,0.11679,-0.0064
-9.5,-0.4905,0.11782,0.11533,-0.0071
-9.4,-0.4868,0.11637,0.11388,-0.0078
-9.3,-0.4831,0.11494,0.11245,-0.0085
-9.2,-0.4794,0.11351,0.11103,-0.0092
-9.1,-0.4757,0.11209,0.10961,-0.0099
-9,-0.4721,0.11068,0.10821,-0.0106
-8.9,-0.4684,0.10929,0.10683,-0.0113
-8.8,-0.4649,0.10791,0.10545,-0.012
-8.7,-0.4614,0.10654,0.10409,-0.0126
-8.6,-0.4579,0.10519,0.10274,-0.0133
-8.5,-0.4545,0.10384,0.1014,-0.0139
-8.4,-0.4512,0.10252,0.10009,-0.0145
-8.3,-0.4481,0.10121,0.09878,-0.0151
-8.2,-0.4451,0.09992,0.0975,-0.0156
-8.1,-0.4423,0.09865,0.09624,-0.0161
-7.9,-0.4375,0.0962,0.09382,-0.0168
-7.8,-0.4358,0.09505,0.09267,-0.017
-7.7,-0.4347,0.09395,0.09159,-0.017
-7.6,-0.4342,0.09291,0.09057,-0.0169
-7.5,-0.4345,0.09195,0.08962,-0.0165
-7.4,-0.4357,0.09108,0.08877,-0.016
-7.3,-0.4383,0.09033,0.08804,-0.015
-7.2,-0.4326,0.08881,0.08652,-0.0165
-7.1,-0.4255,0.08716,0.08487,-0.0184
-7,-0.4182,0.0855,0.0832,-0.0204
-6.9,-0.4106,0.08381,0.08152,-0.0225
-6.8,-0.4032,0.08215,0.07985,-0.0246
-6.7,-0.3943,0.08035,0.07805,-0.027
-6.6,-0.3841,0.07846,0.07615,-0.0299
-6.5,-0.3741,0.0766,0.07427,-0.0327
-6.4,-0.3651,0.07483,0.07249,-0.0352
-6.3,-0.356,0.07304,0.0707,-0.0377
-6.2,-0.3458,0.07118,0.06882,-0.0405
-6.1,-0.3341,0.06838,0.06601,-0.0446
-6,-0.3224,0.06627,0.06388,-0.0479
-5.9,-0.3101,0.06409,0.06168,-0.0514
-5.8,-0.3008,0.06215,0.05973,-0.054
-5.7,-0.2889,0.05993,0.05749,-0.0574
-5.6,-0.2767,0.05788,0.05544,-0.0607
-5.5,-0.2643,0.05604,0.05358,-0.0638
-5.4,-0.251,0.05419,0.05171,-0.067
-5.3,-0.2383,0.05243,0.04992,-0.0699
-5.2,-0.2274,0.05082,0.04829,-0.0723
-5.1,-0.2145,0.04911,0.04656,-0.0751
-5,-0.2005,0.04735,0.04476,-0.078
-4.9,-0.1851,0.04553,0.0429,-0.0813
-4.8,-0.1695,0.04371,0.04103,-0.0844
-4.7,-0.1537,0.04189,0.03916,-0.0875
-4.6,-0.1408,0.04024,0.03748,-0.0898
-4.5,-0.1258,0.03846,0.03564,-0.0924
-4.4,-0.1098,0.0366,0.03371,-0.0952
-4.3,-0.093,0.03462,0.03165,-0.0981
-4.2,-0.0754,0.03251,0.02945,-0.1011
-4.1,-0.0583,0.03032,0.02716,-0.1039
-4,-0.0424,0.02805,0.02476,-0.1063
-3.9,-0.0251,0.02533,0.02187,-0.1091
-3.8,-0.0067,0.0216,0.01785,-0.1125
-3.7,0.0114,0.01702,0.01276,-0.1161
-3.6,0.0278,0.01483,0.01012,-0.1176
-3.5,0.0433,0.01373,0.00876,-0.1183
-3.4,0.057,0.01307,0.00794,-0.1183
-3.3,0.0713,0.01252,0.00725,-0.1184
-3.2,0.0858,0.01203,0.00661,-0.1185
-3.1,0.1005,0.01159,0.00604,-0.1186
-3,0.1154,0.01118,0.00551,-0.1186
-2.9,0.1296,0.01084,0.00505,-0.1185
-2.8,0.1434,0.01054,0.00465,-0.1184
-2.7,0.1576,0.01029,0.0043,-0.1183
-2.6,0.1718,0.01006,0.00402,-0.1182
-2.5,0.1861,0.00989,0.0038,-0.1181
-2.4,0.1996,0.00981,0.00369,-0.118
-2.3,0.2134,0.00963,0.00348,-0.1179
-2.2,0.2272,0.0095,0.00332,-0.1177
-2.1,0.2412,0.00938,0.00316,-0.1176
-2,0.2547,0.00928,0.00305,-0.1175
-1.9,0.2678,0.00917,0.0029,-0.1171
-1.8,0.2816,0.00909,0.00278,-0.117
-1.7,0.2946,0.009,0.00265,-0.1167
-1.6,0.3082,0.00893,0.00259,-0.1166
-1.5,0.3216,0.00887,0.00249,-0.1164
-1.4,0.3349,0.0088,0.0024,-0.1162
-1.3,0.3484,0.00874,0.00233,-0.1161
-1.2,0.3615,0.00871,0.00228,-0.1159
-1.1,0.3746,0.00866,0.0022,-0.1156
-1,0.388,0.00862,0.00215,-0.1155
-0.9,0.4012,0.00859,0.00209,-0.1153
-0.8,0.4145,0.00855,0.00206,-0.1152
-0.7,0.4274,0.00854,0.00202,-0.115
-0.6,0.4407,0.00851,0.00199,-0.1149
-0.5,0.4537,0.0085,0.00196,-0.1147
-0.4,0.4667,0.0085,0.00192,-0.1145
-0.3,0.4799,0.00849,0.00191,-0.1143
-0.2,0.4923,0.00851,0.00188,-0.114
-0.1,0.5053,0.00851,0.00187,-0.1138
0,0.5183,0.00852,0.00186,-0.1136
0.1,0.531,0.00855,0.00184,-0.1134
0.2,0.543,0.00861,0.00184,-0.113
0.3,0.5553,0.00867,0.00184,-0.1126
0.4,0.5673,0.00874,0.00185,-0.1123
0.5,0.5795,0.00883,0.00186,-0.1119
0.6,0.591,0.00895,0.00188,-0.1115
0.7,0.602,0.00913,0.00193,-0.1109
0.8,0.6124,0.00936,0.00201,-0.1104
0.9,0.624,0.00951,0.00207,-0.11
1,0.6355,0.00967,0.00213,-0.1096
1.1,0.6468,0.00985,0.00221,-0.1093
1.2,0.658,0.01004,0.0023,-0.1089
1.3,0.6673,0.01043,0.00244,-0.1083
1.4,0.6781,0.01069,0.00258,-0.1079
1.5,0.6891,0.0109,0.00271,-0.1076
1.6,0.7008,0.01106,0.00282,-0.1073
1.7,0.7129,0.01114,0.00294,-0.1072
1.9,0.728,0.00997,0.00318,-0.1049
2,0.7406,0.01009,0.00325,-0.1047
2.1,0.753,0.01023,0.00335,-0.1044
2.2,0.7657,0.01034,0.00343,-0.1042
2.3,0.7782,0.01047,0.00352,-0.1039
2.4,0.7909,0.01058,0.00361,-0.1037
2.5,0.8031,0.01073,0.00372,-0.1034
2.6,0.8158,0.01084,0.0038,-0.1032
2.7,0.8284,0.01096,0.0039,-0.1029
2.8,0.841,0.01108,0.00402,-0.1026
2.9,0.8537,0.01119,0.00412,-0.1023
3,0.8662,0.01132,0.00423,-0.102
3.1,0.8787,0.01146,0.00434,-0.1017
3.2,0.8913,0.01158,0.00445,-0.1014
3.3,0.9038,0.01172,0.00457,-0.1011
3.4,0.9164,0.01184,0.00468,-0.1007
3.5,0.929,0.01197,0.00481,-0.1004
3.6,0.9414,0.01211,0.00494,-0.1
3.7,0.9539,0.01225,0.00506,-0.0996
3.8,0.9663,0.01241,0.0052,-0.0992
3.9,0.9788,0.01254,0.00534,-0.0988
4,0.9914,0.01268,0.00549,-0.0984
4.1,1.0037,0.01284,0.00566,-0.0979
4.2,1.0161,0.013,0.00583,-0.0975
4.3,1.0285,0.01316,0.00598,-0.097
4.4,1.0407,0.01334,0.00615,-0.0965
4.5,1.0531,0.01349,0.00633,-0.096
4.6,1.0655,0.01366,0.00651,-0.0955
4.7,1.0777,0.01384,0.0067,-0.095
4.8,1.0898,0.01404,0.00691,-0.0944
4.9,1.102,0.01422,0.00709,-0.0938
5,1.1141,0.01442,0.0073,-0.0932
5.1,1.1261,0.01463,0.00754,-0.0926
5.2,1.1383,0.01483,0.00777,-0.0919
5.3,1.1503,0.01504,0.00801,-0.0912
5.4,1.1621,0.01527,0.00826,-0.0905
5.5,1.1738,0.01553,0.00857,-0.0898
5.6,1.1856,0.01576,0.00886,-0.089
5.7,1.1975,0.01599,0.00912,-0.0882
5.8,1.2091,0.01626,0.00942,-0.0874
5.9,1.2203,0.01655,0.00975,-0.0866
6,1.2317,0.01684,0.0101,-0.0856
6.1,1.2429,0.01714,0.01048,-0.0847
6.2,1.254,0.01746,0.01087,-0.0837
6.3,1.2649,0.0178,0.01127,-0.0827
6.4,1.2755,0.01815,0.0117,-0.0816
6.5,1.2859,0.01853,0.01215,-0.0805
6.6,1.2958,0.01896,0.01264,-0.0794
6.7,1.3062,0.01934,0.0131,-0.0782
6.8,1.3157,0.0198,0.01367,-0.077
6.9,1.3249,0.02029,0.01429,-0.0756
7,1.3337,0.0208,0.01491,-0.0743
7.1,1.3422,0.02134,0.01556,-0.0728
7.2,1.35,0.02192,0.01624,-0.0714
7.3,1.3567,0.02258,0.01701,-0.0698
7.4,1.3634,0.02328,0.01786,-0.0681
7.5,1.3683,0.0241,0.01884,-0.0663
7.6,1.3719,0.02495,0.01984,-0.0644
7.7,1.3742,0.02583,0.02086,-0.0624
7.8,1.376,0.02675,0.02193,-0.0603
7.9,1.3797,0.02754,0.02283,-0.0586
8.1,1.3751,0.03012,0.02577,-0.0545
8.2,1.3715,0.0315,0.02732,-0.0526
8.3,1.3672,0.03295,0.02893,-0.0508
8.4,1.3621,0.03445,0.03058,-0.0491
8.5,1.3563,0.03602,0.0323,-0.0477
8.6,1.35,0.03765,0.03407,-0.0464
8.7,1.3431,0.03935,0.0359,-0.0453
8.8,1.3358,0.04113,0.0378,-0.0446
8.9,1.3282,0.043,0.03979,-0.044
9,1.3202,0.04494,0.04184,-0.0438
9.1,1.3121,0.04701,0.04401,-0.0439
9.3,1.2953,0.05152,0.04871,-0.0452
9.4,1.2867,0.05399,0.05127,-0.0465
9.5,1.2781,0.05664,0.054,-0.0482
9.6,1.2696,0.05953,0.05697,-0.0505
9.8,1.253,0.0662,0.06379,-0.0568
9.9,1.245,0.07016,0.06782,-0.061
10,1.2374,0.07481,0.07255,-0.0659
10.1,1.2293,0.07969,0.0775,-0.0704
10.3,1.2127,0.08789,0.08573,-0.0773
10.5,1.1968,0.09554,0.09339,-0.0834
10.6,1.1893,0.09926,0.09711,-0.0863
10.7,1.1822,0.10293,0.10078,-0.0891
10.8,1.1753,0.10656,0.10441,-0.0918
10.9,1.1689,0.11015,0.10799,-0.0944
11,1.1628,0.1137,0.11154,-0.097
11.1,1.157,0.11726,0.11509,-0.0995
11.2,1.1518,0.12075,0.11858,-0.1019
11.3,1.147,0.12421,0.12204,-0.1043
11.4,1.1428,0.1276,0.12542,-0.1066
11.5,1.1392,0.1309,0.12872,-0.1088
11.6,1.1362,0.13411,0.13193,-0.1109
11.8,1.1318,0.1402,0.13802,-0.1149
11.9,1.1305,0.14308,0.14089,-0.1167
12,1.1298,0.14583,0.14364,-0.1185
12.1,1.1296,0.14846,0.14628,-0.1202
12.2,1.1298,0.151,0.14881,-0.1218
12.3,1.1305,0.1534,0.15122,-0.1234
12.4,1.1315,0.15569,0.15351,-0.1249
12.5,1.1329,0.15789,0.15571,-0.1263
12.6,1.1344,0.16,0.15782,-0.1278
12.7,1.1362,0.16202,0.15983,-0.1291
12.8,1.1374,0.16423,0.16203,-0.1306
12.9,1.135,0.1682,0.166,-0.133
13,1.134,0.17173,0.16953,-0.1351
13.1,1.1339,0.17492,0.17272,-0.137
13.3,1.1356,0.18106,0.17886,-0.1409
13.4,1.1376,0.18337,0.18117,-0.1423
13.5,1.1398,0.18558,0.18338,-0.1438
13.6,1.1422,0.18771,0.18551,-0.1452
13.7,1.1447,0.18972,0.18753,-0.1466
13.8,1.1474,0.19167,0.18948,-0.148
13.9,1.1501,0.19353,0.19133,-0.1493
14,1.1529,0.1953,0.19311,-0.1507
14.1,1.1554,0.19739,0.19518,-0.1521
14.2,1.1563,0.2014,0.1992,-0.1543
14.3,1.1584,0.20449,0.20228,-0.1561
14.4,1.1608,0.20735,0.20515,-0.1578
14.5,1.1635,0.20998,0.20778,-0.1594
14.6,1.1664,0.21248,0.21028,-0.161
14.7,1.1694,0.21488,0.21268,-0.1625
14.8,1.1725,0.21719,0.21498,-0.164
14.9,1.1758,0.21943,0.21723,-0.1655
15,1.1791,0.22161,0.21941,-0.167
15.1,1.1825,0.22373,0.22153,-0.1684
15.2,1.186,0.22579,0.22359,-0.1699
15.3,1.1894,0.2278,0.2256,-0.1713
15.4,1.193,0.22977,0.22757,-0.1727
15.5,1.1965,0.23171,0.22952,-0.1741
15.6,1.2001,0.23353,0.23134,-0.1755
15.7,1.2037,0.23537,0.23318,-0.1769
15.8,1.2072,0.23716,0.23497,-0.1783
15.9,1.2108,0.23893,0.23674,-0.1797
16,1.2143,0.2412,0.23902,-0.1812

