airfoilName st24.dat
Re 	670000
M 	5.000000e-01
N 	4.500000e+00
VACC 	0 VACCflag 1
XTR 	1.00 	1.00 XTRflag 0
alpha,cl,cd,cdp,cm
-30,-1.3568,0.59918,0.59744,0.3025
-29.9,-1.3533,0.59582,0.59407,0.3003
-29.8,-1.3498,0.59253,0.59078,0.298
-29.7,-1.3463,0.5892,0.58744,0.2958
-29.6,-1.3427,0.58592,0.58417,0.2936
-29.5,-1.3392,0.58263,0.58087,0.2915
-29.4,-1.3356,0.57935,0.57759,0.2893
-29.3,-1.332,0.5761,0.57434,0.2871
-29.2,-1.3284,0.57284,0.57107,0.2849
-29.1,-1.3248,0.56966,0.56789,0.2827
-29,-1.3211,0.56644,0.56467,0.2806
-28.9,-1.3175,0.56323,0.56145,0.2784
-28.8,-1.3138,0.56005,0.55827,0.2763
-28.7,-1.3101,0.55693,0.55514,0.2741
-28.6,-1.3064,0.55375,0.55196,0.272
-28.5,-1.3027,0.55064,0.54885,0.2698
-28.4,-1.2989,0.54751,0.5457,0.2677
-28.3,-1.2951,0.54441,0.5426,0.2656
-28.2,-1.2914,0.54137,0.53956,0.2635
-28.1,-1.2876,0.53829,0.53648,0.2613
-28,-1.2837,0.53525,0.53343,0.2592
-27.9,-1.2799,0.53223,0.53041,0.2571
-27.8,-1.2761,0.52923,0.5274,0.255
-27.7,-1.2722,0.52626,0.52443,0.2529
-27.6,-1.2683,0.52329,0.52146,0.2508
-27.5,-1.2644,0.52035,0.51852,0.2487
-27.4,-1.2605,0.51743,0.5156,0.2466
-27.3,-1.2566,0.51454,0.51271,0.2445
-27.2,-1.2526,0.51165,0.50981,0.2425
-27.1,-1.2486,0.50879,0.50695,0.2404
-27,-1.2446,0.50593,0.50409,0.2383
-26.9,-1.2406,0.50314,0.50129,0.2362
-26.8,-1.2366,0.50032,0.49847,0.2341
-26.7,-1.2326,0.49754,0.49569,0.2321
-26.6,-1.2285,0.49477,0.49291,0.23
-26.5,-1.2245,0.492,0.49014,0.228
-26.4,-1.2204,0.48931,0.48745,0.2259
-26.3,-1.2163,0.48658,0.48472,0.2238
-26.2,-1.2122,0.48391,0.48204,0.2218
-26.1,-1.2081,0.4812,0.47933,0.2197
-26,-1.2039,0.47855,0.47668,0.2177
-25.9,-1.1998,0.47593,0.47406,0.2156
-25.8,-1.1956,0.47326,0.47139,0.2136
-25.7,-1.1915,0.47067,0.46878,0.2116
-25.6,-1.1873,0.46802,0.46613,0.2095
-25.5,-1.1831,0.46544,0.46355,0.2075
-25.4,-1.1785,0.46447,0.46258,0.2048
-25.3,-1.1742,0.46187,0.45998,0.2028
-25.2,-1.17,0.45915,0.45726,0.2008
-25.1,-1.1657,0.45664,0.45475,0.1988
-25,-1.1615,0.45392,0.45203,0.1968
-24.9,-1.1572,0.4514,0.4495,0.1948
-24.8,-1.153,0.44876,0.44686,0.1928
-24.7,-1.1487,0.4461,0.44419,0.1909
-24.6,-1.1444,0.44352,0.44161,0.1889
-24.5,-1.1401,0.44085,0.43895,0.187
-24.4,-1.1357,0.43833,0.43642,0.185
-24.3,-1.1313,0.43573,0.43382,0.183
-24.2,-1.127,0.43303,0.43111,0.1811
-24.1,-1.1227,0.43035,0.42843,0.1792
-24,-1.1182,0.42783,0.42591,0.1772
-23.9,-1.1139,0.42506,0.42315,0.1754
-23.8,-1.1095,0.42237,0.42045,0.1735
-23.7,-1.1049,0.41983,0.41791,0.1716
-23.6,-1.1004,0.41728,0.41535,0.1696
-23.5,-1.0959,0.41473,0.41281,0.1677
-23.4,-1.0914,0.41207,0.41014,0.1658
-22.9,-1.0673,0.40093,0.39901,0.1552
-22.8,-1.063,0.39812,0.3962,0.1536
-22.7,-1.0588,0.39517,0.39325,0.152
-22.6,-1.0544,0.39235,0.39042,0.1504
-22.5,-1.0502,0.38947,0.38754,0.1488
-22.4,-1.0459,0.38659,0.38465,0.1473
-22.3,-1.0416,0.38374,0.38181,0.1457
-22.2,-1.0372,0.38093,0.37899,0.1441
-22.1,-1.0329,0.37809,0.37615,0.1426
-22,-1.0286,0.37524,0.37329,0.1411
-21.9,-1.0243,0.37244,0.37049,0.1395
-21.8,-1.0199,0.36963,0.36768,0.138
-21.7,-1.0156,0.3668,0.36485,0.1365
-21.6,-1.0112,0.36403,0.36208,0.135
-21.5,-1.0069,0.36125,0.3593,0.1335
-21.4,-1.0026,0.35855,0.3566,0.132
-21.3,-0.9982,0.3558,0.35384,0.1306
-21.2,-0.9939,0.35311,0.35115,0.1291
-21.1,-0.9895,0.35048,0.34852,0.1276
-21,-0.9851,0.34784,0.34587,0.1261
-20.9,-0.9808,0.34525,0.34329,0.1246
-20.8,-0.9764,0.34269,0.34073,0.1231
-20.7,-0.972,0.34019,0.33822,0.1216
-20.6,-0.9676,0.33769,0.33572,0.1202
-20.5,-0.9632,0.33522,0.33325,0.1187
-20.4,-0.9588,0.33278,0.33081,0.1172
-20.3,-0.9544,0.33037,0.32839,0.1157
-20.2,-0.95,0.32798,0.32601,0.1143
-20.1,-0.9456,0.32561,0.32363,0.1128
-20,-0.9411,0.32326,0.32128,0.1113
-19.9,-0.9367,0.32093,0.31895,0.1099
-19.8,-0.9322,0.31861,0.31663,0.1084
-19.7,-0.9278,0.31632,0.31433,0.107
-19.6,-0.9233,0.31402,0.31203,0.1055
-19.5,-0.9189,0.31175,0.30975,0.1041
-19.4,-0.9144,0.30949,0.30749,0.1026
-19.3,-0.9099,0.30723,0.30523,0.1012
-19.2,-0.9055,0.30498,0.30298,0.0998
-19.1,-0.901,0.30274,0.30074,0.0983
-19,-0.8965,0.30051,0.29851,0.0969
-18.9,-0.8921,0.29829,0.29629,0.0955
-18.8,-0.8876,0.29607,0.29407,0.0941
-18.7,-0.8831,0.29386,0.29186,0.0927
-18.6,-0.8787,0.29166,0.28966,0.0914
-18.5,-0.8742,0.28947,0.28746,0.09
-18.4,-0.8697,0.28729,0.28528,0.0886
-18.3,-0.8652,0.28511,0.2831,0.0872
-18.2,-0.8608,0.28294,0.28093,0.0859
-18.1,-0.8563,0.28078,0.27877,0.0845
-18,-0.8519,0.27862,0.27661,0.0832
-17.9,-0.8474,0.27648,0.27447,0.0819
-17.8,-0.8429,0.27433,0.27232,0.0805
-17.7,-0.8384,0.2722,0.27019,0.0792
-17.6,-0.834,0.27007,0.26806,0.0779
-17.5,-0.8295,0.26795,0.26593,0.0766
-17.4,-0.825,0.26582,0.26381,0.0752
-17.3,-0.8205,0.26371,0.2617,0.0739
-17.2,-0.816,0.26197,0.25996,0.0722
-17.1,-0.8115,0.25983,0.25782,0.0709
-17,-0.8071,0.25771,0.25569,0.0696
-16.9,-0.8026,0.25558,0.25357,0.0683
-16.8,-0.7981,0.25346,0.25145,0.0671
-16.7,-0.7937,0.25135,0.24933,0.0658
-16.6,-0.7892,0.24924,0.24721,0.0645
-16.5,-0.7848,0.24713,0.2451,0.0633
-16.4,-0.7803,0.24502,0.243,0.0621
-16.3,-0.7759,0.24292,0.2409,0.0608
-16.2,-0.7714,0.24083,0.2388,0.0596
-16.1,-0.767,0.23873,0.2367,0.0584
-16,-0.7626,0.23663,0.23461,0.0572
-15.9,-0.7582,0.23454,0.23251,0.056
-15.8,-0.7537,0.23244,0.23041,0.0548
-15.7,-0.7493,0.23034,0.22832,0.0536
-15.6,-0.7449,0.22824,0.22621,0.0524
-15.5,-0.7405,0.22613,0.2241,0.0513
-15.4,-0.7361,0.22402,0.222,0.0501
-15.3,-0.7316,0.22189,0.21986,0.049
-15.2,-0.7271,0.21971,0.21768,0.0478
-15.1,-0.7226,0.21754,0.21551,0.0466
-15,-0.718,0.21535,0.21333,0.0454
-14.9,-0.7132,0.21317,0.21114,0.0442
-14.8,-0.7082,0.21098,0.20896,0.0428
-14.5,-0.6939,0.20484,0.20283,0.039
-14.4,-0.6899,0.20281,0.2008,0.0381
-14.3,-0.686,0.20078,0.19877,0.0372
-14.2,-0.6821,0.19878,0.19677,0.0363
-14.1,-0.6782,0.1968,0.1948,0.0354
-14,-0.6743,0.19485,0.19285,0.0344
-13.9,-0.6703,0.19294,0.19093,0.0335
-13.8,-0.6664,0.19105,0.18904,0.0326
-13.7,-0.6625,0.1892,0.18719,0.0317
-13.6,-0.6585,0.18737,0.18536,0.0307
-13.5,-0.6545,0.18557,0.18356,0.0298
-13.4,-0.6505,0.18379,0.18178,0.0289
-13.3,-0.6465,0.18202,0.18001,0.0279
-13.2,-0.6425,0.18027,0.17826,0.027
-13.1,-0.6384,0.17853,0.17652,0.026
-13,-0.6344,0.1768,0.17479,0.0251
-12.9,-0.6303,0.17508,0.17307,0.0242
-12.8,-0.6263,0.17336,0.17135,0.0232
-12.7,-0.6222,0.17165,0.16965,0.0223
-12.6,-0.6181,0.16994,0.16793,0.0213
-12.5,-0.614,0.16823,0.16622,0.0204
-12.4,-0.6098,0.16652,0.16451,0.0194
-12.3,-0.6057,0.16481,0.16281,0.0185
-12.2,-0.6016,0.16311,0.16111,0.0175
-12.1,-0.5975,0.16141,0.15941,0.0166
-12,-0.5934,0.15971,0.15772,0.0157
-11.9,-0.5893,0.15802,0.15602,0.0148
-11.8,-0.5852,0.15633,0.15433,0.0138
-11.7,-0.5811,0.15464,0.15264,0.0129
-11.6,-0.577,0.15295,0.15096,0.012
-11.5,-0.5729,0.15127,0.14928,0.0111
-11.4,-0.5688,0.14959,0.1476,0.0102
-11.3,-0.5647,0.1479,0.14592,0.0093
-11.2,-0.5606,0.14622,0.14424,0.0084
-11.1,-0.5565,0.14454,0.14256,0.0075
-11,-0.5524,0.14286,0.14088,0.0066
-10.9,-0.5483,0.14118,0.1392,0.0057
-10.8,-0.5442,0.13951,0.13753,0.0049
-10.7,-0.5401,0.13784,0.13586,0.004
-10.6,-0.5361,0.13617,0.13419,0.0031
-10.5,-0.5316,0.13408,0.13211,0.0018
-10.4,-0.5275,0.13235,0.13038,0.001
-10.3,-0.5234,0.13063,0.12866,0.0001
-10.2,-0.5192,0.12887,0.12691,-0.0008
-10.1,-0.515,0.12713,0.12515,-0.0017
-10,-0.5108,0.12536,0.12339,-0.0026
-9.9,-0.5065,0.1236,0.12163,-0.0035
-9.8,-0.5021,0.12182,0.11986,-0.0044
-9.7,-0.4976,0.12006,0.1181,-0.0054
-9.6,-0.4931,0.11834,0.11638,-0.0065
-9.4,-0.4841,0.11495,0.11302,-0.0087
-9.3,-0.4806,0.1134,0.11147,-0.0094
-9.2,-0.4771,0.11187,0.10995,-0.01
-9.1,-0.4737,0.11036,0.10844,-0.0106
-9,-0.4703,0.10885,0.10693,-0.0113
-8.9,-0.467,0.10736,0.10545,-0.0119
-8.8,-0.4638,0.1059,0.10399,-0.0125
-8.7,-0.4606,0.10446,0.10256,-0.0131
-8.6,-0.4574,0.10305,0.10115,-0.0137
-8.5,-0.4542,0.10166,0.09977,-0.0143
-8.4,-0.4512,0.10031,0.09842,-0.0149
-8.3,-0.4483,0.09899,0.09711,-0.0155
-8.2,-0.4455,0.0977,0.09582,-0.016
-8.1,-0.443,0.09644,0.09458,-0.0164
-8,-0.4407,0.09524,0.09338,-0.0167
-7.9,-0.439,0.0941,0.09225,-0.0169
-7.8,-0.438,0.09302,0.09118,-0.017
-7.7,-0.4378,0.09203,0.09021,-0.0168
-7.6,-0.4385,0.09114,0.08933,-0.0163
-7.5,-0.431,0.08948,0.08767,-0.0183
-7.4,-0.4242,0.0879,0.08609,-0.02
-7.3,-0.4171,0.08631,0.0845,-0.0219
-7.2,-0.4096,0.0847,0.08288,-0.024
-7.1,-0.4028,0.08316,0.08134,-0.0257
-7,-0.3957,0.08159,0.07977,-0.0277
-6.9,-0.3872,0.07991,0.07809,-0.03
-6.8,-0.3781,0.07821,0.07637,-0.0326
-6.7,-0.3699,0.07658,0.07474,-0.0348
-6.6,-0.3615,0.07495,0.07311,-0.0371
-6.5,-0.3523,0.07327,0.07141,-0.0396
-6.4,-0.3424,0.07154,0.06967,-0.0423
-6.3,-0.3319,0.06977,0.06789,-0.0452
-6.2,-0.3226,0.0681,0.06621,-0.0477
-6.1,-0.3135,0.06645,0.06455,-0.05
-6,-0.303,0.0647,0.06278,-0.0528
-5.9,-0.292,0.06291,0.06099,-0.0556
-5.8,-0.2803,0.06108,0.05914,-0.0587
-5.7,-0.2695,0.05914,0.05718,-0.0616
-5.6,-0.2592,0.05739,0.05542,-0.0641
-5.5,-0.2478,0.05556,0.05357,-0.0669
-5.4,-0.2355,0.05366,0.05164,-0.0699
-5.3,-0.2226,0.05171,0.04966,-0.073
-5.2,-0.2099,0.04977,0.04769,-0.0759
-5.1,-0.198,0.04785,0.04574,-0.0786
-5,-0.1848,0.04581,0.04367,-0.0816
-4.9,-0.1706,0.04363,0.04144,-0.0849
-4.8,-0.1557,0.04134,0.0391,-0.0883
-4.6,-0.1256,0.03629,0.03392,-0.0951
-4.5,-0.1097,0.03346,0.03101,-0.0986
-4.4,-0.0936,0.03117,0.02861,-0.1018
-4.3,-0.0773,0.02895,0.02628,-0.1046
-4.2,-0.0616,0.02679,0.024,-0.107
-4.1,-0.0455,0.02446,0.02153,-0.1095
-4,-0.0294,0.02179,0.01868,-0.1119
-3.9,-0.0132,0.01822,0.01481,-0.1147
-3.8,0.0021,0.01504,0.01124,-0.1168
-3.7,0.0168,0.01343,0.00933,-0.1177
-3.6,0.0312,0.01235,0.00799,-0.1181
-3.5,0.0456,0.01152,0.00693,-0.1183
-3.4,0.06,0.01088,0.0061,-0.1183
-3.3,0.0744,0.01037,0.00543,-0.1183
-3.2,0.0886,0.00996,0.00487,-0.1182
-3.1,0.1028,0.00962,0.00442,-0.1181
-3,0.117,0.00935,0.00405,-0.118
-2.9,0.1311,0.00909,0.00372,-0.1179
-2.8,0.145,0.0089,0.00346,-0.1177
-2.7,0.1591,0.00874,0.00324,-0.1176
-2.6,0.1729,0.00859,0.00304,-0.1174
-2.5,0.1869,0.00846,0.00286,-0.1173
-2.4,0.2003,0.00835,0.00268,-0.117
-2.3,0.2136,0.00825,0.00252,-0.1167
-2.2,0.2273,0.00816,0.0024,-0.1166
-2.1,0.2407,0.00809,0.00229,-0.1163
-1.9,0.2676,0.00796,0.00214,-0.116
-1.8,0.2808,0.00791,0.00206,-0.1158
-1.7,0.2944,0.00785,0.00199,-0.1157
-1.6,0.3078,0.00781,0.00191,-0.1155
-1.5,0.3208,0.00779,0.00183,-0.1153
-1.4,0.3342,0.00774,0.00179,-0.1152
-1.3,0.3475,0.00772,0.00174,-0.115
-1.2,0.361,0.00769,0.00168,-0.1149
-1.1,0.3743,0.00766,0.00164,-0.1148
-1,0.3873,0.00767,0.00159,-0.1146
-0.9,0.4004,0.00765,0.00157,-0.1144
-0.8,0.4136,0.00764,0.00154,-0.1143
-0.7,0.4269,0.00764,0.00152,-0.1142
-0.6,0.4393,0.00769,0.00149,-0.1139
-0.5,0.4522,0.00771,0.00147,-0.1137
-0.4,0.4652,0.00772,0.00147,-0.1135
-0.3,0.4782,0.00774,0.00146,-0.1134
-0.2,0.4899,0.00786,0.00146,-0.113
-0.1,0.5025,0.00792,0.00146,-0.1127
0,0.515,0.00798,0.00147,-0.1125
0.1,0.527,0.0081,0.0015,-0.1122
0.2,0.5389,0.00822,0.00154,-0.1119
0.3,0.5513,0.00831,0.00157,-0.1117
0.4,0.5621,0.00856,0.00163,-0.1112
0.5,0.5743,0.00868,0.00169,-0.111
0.6,0.5855,0.0089,0.00176,-0.1106
0.7,0.5974,0.00904,0.00183,-0.1104
0.8,0.6092,0.00922,0.0019,-0.1101
0.9,0.6208,0.00941,0.00198,-0.1098
1.1,0.6423,0.01003,0.00223,-0.1091
1.2,0.6545,0.01016,0.00232,-0.1089
1.3,0.667,0.01026,0.00238,-0.1087
1.4,0.6797,0.01034,0.00246,-0.1086
1.5,0.692,0.01047,0.00254,-0.1084
1.6,0.7047,0.01054,0.00261,-0.1082
1.7,0.7176,0.0106,0.00267,-0.1081
1.8,0.7304,0.01064,0.00274,-0.108
1.9,0.7433,0.01069,0.00282,-0.1078
2,0.7562,0.01072,0.00289,-0.1077
2.2,0.7735,0.0094,0.00313,-0.106
2.3,0.7863,0.0095,0.0032,-0.1058
2.4,0.7992,0.00959,0.00327,-0.1056
2.5,0.8122,0.00968,0.00334,-0.1054
2.6,0.825,0.00979,0.00342,-0.1051
2.7,0.8379,0.00988,0.00352,-0.1049
2.8,0.8506,0.01,0.0036,-0.1046
2.9,0.8634,0.01011,0.00369,-0.1044
3,0.8763,0.0102,0.00378,-0.1041
3.1,0.8892,0.01031,0.00387,-0.1039
3.2,0.9019,0.01043,0.00397,-0.1036
3.3,0.9146,0.01054,0.00406,-0.1033
3.4,0.9274,0.01066,0.00416,-0.103
3.5,0.9402,0.01078,0.00427,-0.1026
3.6,0.9531,0.01089,0.00438,-0.1023
3.7,0.9659,0.01101,0.00449,-0.102
3.8,0.9785,0.01115,0.00462,-0.1016
3.9,0.9914,0.01126,0.00474,-0.1012
4,1.0039,0.01141,0.00486,-0.1008
4.1,1.0165,0.01155,0.00502,-0.1004
4.2,1.0294,0.01167,0.00515,-0.1
4.3,1.0421,0.01181,0.00529,-0.0996
4.4,1.0546,0.01197,0.00544,-0.0991
4.5,1.0672,0.01212,0.00559,-0.0987
4.6,1.0798,0.01227,0.00574,-0.0982
4.7,1.0922,0.01244,0.00591,-0.0976
4.8,1.1049,0.0126,0.00609,-0.0971
4.9,1.1175,0.01275,0.00626,-0.0966
5,1.1301,0.01292,0.00644,-0.096
5.1,1.1424,0.01312,0.00664,-0.0954
5.2,1.1548,0.0133,0.00684,-0.0948
5.3,1.1673,0.01348,0.00704,-0.0942
5.4,1.1796,0.01367,0.00728,-0.0935
5.5,1.1918,0.0139,0.00751,-0.0928
5.6,1.2041,0.01409,0.00776,-0.0921
5.7,1.2165,0.0143,0.008,-0.0914
5.8,1.2287,0.01451,0.00826,-0.0906
5.9,1.2408,0.01474,0.00853,-0.0898
6,1.2528,0.01499,0.00882,-0.089
6.1,1.2644,0.01527,0.00914,-0.0881
6.2,1.2762,0.01554,0.00947,-0.0872
6.3,1.2882,0.01579,0.00977,-0.0863
6.4,1.2999,0.01607,0.01012,-0.0853
6.5,1.3113,0.01637,0.01049,-0.0843
6.6,1.3226,0.0167,0.01087,-0.0832
6.7,1.3336,0.01704,0.01129,-0.0821
6.8,1.344,0.01745,0.01178,-0.0809
6.9,1.3543,0.01786,0.01228,-0.0796
7.1,1.3748,0.01869,0.01331,-0.077
7.2,1.3859,0.01903,0.0137,-0.0758
7.3,1.3945,0.01958,0.01437,-0.0743
7.4,1.4019,0.02024,0.01517,-0.0726
7.5,1.4083,0.02096,0.01604,-0.0708
7.6,1.4138,0.02174,0.01697,-0.0689
7.7,1.4183,0.02258,0.01797,-0.0669
7.8,1.4216,0.02349,0.01903,-0.0649
7.9,1.4228,0.02441,0.0201,-0.0626
8,1.4215,0.02552,0.02136,-0.0602
8.1,1.4183,0.02677,0.02279,-0.0578
8.2,1.4143,0.0281,0.02429,-0.0555
8.3,1.4095,0.0295,0.02585,-0.0533
8.4,1.404,0.03096,0.02747,-0.0513
8.5,1.3977,0.03248,0.02914,-0.0494
8.6,1.3909,0.03406,0.03087,-0.0478
8.7,1.3836,0.03572,0.03266,-0.0463
8.8,1.3759,0.03744,0.0345,-0.0451
9,1.3614,0.04099,0.03829,-0.0436
9.1,1.3533,0.04291,0.04031,-0.0432
9.2,1.3448,0.04495,0.04245,-0.0431
9.3,1.3364,0.04707,0.04466,-0.0434
9.4,1.3279,0.04933,0.04701,-0.044
9.5,1.3194,0.05173,0.0495,-0.0451
9.6,1.3111,0.05427,0.05211,-0.0466
9.7,1.3028,0.05699,0.05491,-0.0485
9.8,1.2949,0.05996,0.05795,-0.051
9.9,1.2872,0.06323,0.06129,-0.0542
10,1.2801,0.06685,0.06498,-0.0579
10.1,1.2735,0.07101,0.06921,-0.0624
10.2,1.2673,0.07604,0.07433,-0.0671
10.4,1.2527,0.08403,0.08237,-0.0739
10.5,1.2453,0.08771,0.08606,-0.0769
10.6,1.238,0.09131,0.08966,-0.0798
10.7,1.2307,0.09489,0.09324,-0.0826
10.9,1.2167,0.10198,0.10033,-0.0881
11,1.2099,0.1055,0.10385,-0.0907
11.1,1.2033,0.10904,0.10739,-0.0934
11.2,1.1968,0.11257,0.11091,-0.0959
11.3,1.1905,0.11611,0.11446,-0.0985
11.4,1.1846,0.11964,0.11798,-0.101
11.5,1.179,0.12318,0.12153,-0.1035
11.6,1.1736,0.12673,0.12507,-0.106
11.7,1.1686,0.13024,0.12858,-0.1085
11.8,1.164,0.13375,0.13208,-0.1109
11.9,1.1599,0.13719,0.13553,-0.1133
12,1.1563,0.14054,0.13888,-0.1155
12.1,1.1532,0.14383,0.14216,-0.1177
12.2,1.1508,0.14703,0.14536,-0.1198
12.3,1.1489,0.15012,0.14845,-0.1218
12.4,1.1476,0.1531,0.15143,-0.1238
12.5,1.147,0.15595,0.15428,-0.1256
12.6,1.1468,0.1587,0.15703,-0.1274
12.7,1.1472,0.16131,0.15964,-0.1291
12.8,1.148,0.16382,0.16215,-0.1308
12.9,1.1491,0.16625,0.16458,-0.1324
13,1.1506,0.16853,0.16685,-0.134
13.1,1.1521,0.17081,0.16913,-0.1355
13.2,1.1511,0.17405,0.17236,-0.1376
13.3,1.1498,0.17756,0.17587,-0.1398
13.4,1.1496,0.18072,0.17904,-0.1417
13.5,1.1497,0.18386,0.18217,-0.1436
13.6,1.1506,0.18669,0.185,-0.1454
13.7,1.1518,0.18948,0.18779,-0.1471
13.8,1.1535,0.1921,0.19041,-0.1488
13.9,1.1554,0.19463,0.19295,-0.1504
14,1.1575,0.19708,0.19539,-0.152
14.1,1.1599,0.19944,0.19775,-0.1536
14.2,1.1624,0.20172,0.20004,-0.1551
14.3,1.165,0.20394,0.20226,-0.1566
14.4,1.1678,0.20609,0.2044,-0.1581
14.5,1.1707,0.20818,0.2065,-0.1596
14.6,1.1736,0.21021,0.20853,-0.1611
14.7,1.1767,0.21218,0.2105,-0.1626
14.8,1.1797,0.21413,0.21245,-0.1641
14.9,1.1828,0.21601,0.21433,-0.1655
15,1.1858,0.21788,0.2162,-0.167
15.1,1.1881,0.22165,0.21996,-0.1689
15.2,1.1909,0.22486,0.22317,-0.1707
15.3,1.1939,0.22775,0.22606,-0.1724
15.4,1.1972,0.23037,0.22868,-0.174
15.5,1.2006,0.2329,0.23121,-0.1756
15.6,1.2041,0.2354,0.23372,-0.1772
15.8,1.2113,0.24009,0.2384,-0.1805
15.9,1.215,0.24226,0.24057,-0.182
16,1.2187,0.24438,0.24269,-0.1835
16.1,1.2225,0.24647,0.2448,-0.185
16.2,1.2262,0.24853,0.24686,-0.1865
16.3,1.23,0.25054,0.24887,-0.188
16.4,1.2338,0.25255,0.25088,-0.1895
16.5,1.2377,0.25451,0.25285,-0.191
16.6,1.2415,0.25647,0.25481,-0.1925
16.7,1.2453,0.25842,0.25675,-0.194
16.8,1.2491,0.26034,0.25868,-0.1955
16.9,1.2529,0.26251,0.26084,-0.1971
17,1.2572,0.26637,0.2647,-0.1989
17.1,1.2615,0.26952,0.26785,-0.2006
17.2,1.2657,0.27247,0.27081,-0.2023
17.3,1.2699,0.27528,0.27361,-0.2039
17.4,1.2741,0.27789,0.27622,-0.2056
17.5,1.2784,0.28045,0.27879,-0.2072
17.6,1.2826,0.28297,0.28131,-0.2088
17.7,1.2869,0.28546,0.2838,-0.2104
17.8,1.2912,0.28792,0.28626,-0.212
17.9,1.2954,0.29034,0.28868,-0.2136
18,1.2998,0.29276,0.2911,-0.2152
18.1,1.304,0.29514,0.29348,-0.2168
18.2,1.3083,0.2975,0.29585,-0.2185
18.3,1.3126,0.29986,0.2982,-0.2201
18.4,1.317,0.30219,0.30054,-0.2217
18.5,1.3212,0.30451,0.30286,-0.2233
18.6,1.3256,0.30683,0.30518,-0.225
18.7,1.3299,0.30912,0.30748,-0.2266
18.8,1.3342,0.31145,0.3098,-0.2282
18.9,1.3385,0.31371,0.31206,-0.2299
19,1.3428,0.31599,0.31435,-0.2315
19.1,1.3471,0.31828,0.31665,-0.2331
19.2,1.3514,0.32055,0.31892,-0.2348
19.3,1.3557,0.32285,0.32122,-0.2364
19.4,1.36,0.32508,0.32345,-0.2381
19.5,1.3643,0.32736,0.32573,-0.2398
19.6,1.3686,0.32965,0.32804,-0.2414
19.7,1.3729,0.33192,0.33031,-0.2431
19.8,1.3771,0.33417,0.33256,-0.2448
19.9,1.3814,0.33645,0.33484,-0.2465
20,1.3857,0.33876,0.33716,-0.2482
20.1,1.3899,0.34106,0.33946,-0.2499
20.2,1.3941,0.34332,0.34172,-0.2516
20.3,1.3984,0.34564,0.34404,-0.2532
20.4,1.4026,0.34801,0.34641,-0.2549
20.5,1.4069,0.35037,0.34878,-0.2567
20.6,1.4111,0.35274,0.35115,-0.2583
20.7,1.4153,0.35514,0.35355,-0.2601
20.8,1.4195,0.35758,0.356,-0.2618
20.9,1.4237,0.36002,0.35844,-0.2635
21,1.4279,0.3625,0.36093,-0.2652
21.1,1.4321,0.36503,0.36345,-0.2669
21.2,1.4368,0.36809,0.3665,-0.2688
21.3,1.4416,0.3712,0.36962,-0.2708
21.4,1.4464,0.37453,0.37295,-0.2727
21.5,1.4511,0.37764,0.37606,-0.2746
21.6,1.457,0.38278,0.3812,-0.2771
21.7,1.4615,0.38563,0.38405,-0.2789
21.8,1.466,0.38848,0.38691,-0.2808
21.9,1.4704,0.39129,0.38972,-0.2827
22,1.4748,0.39407,0.3925,-0.2846
22.1,1.4791,0.39682,0.39525,-0.2864
22.2,1.4835,0.39956,0.398,-0.2883
22.3,1.4879,0.40234,0.40078,-0.2902
22.4,1.4922,0.40506,0.4035,-0.2921
22.5,1.4965,0.40776,0.40621,-0.294
22.6,1.5008,0.41048,0.40893,-0.296
22.7,1.5052,0.4132,0.41165,-0.2979
22.8,1.5094,0.4159,0.41435,-0.2998

