airfoilName st24.dat
Re 	770000
M 	5.000000e-01
N 	4.500000e+00
VACC 	0 VACCflag 1
XTR 	1.00 	1.00 XTRflag 0
alpha,cl,cd,cdp,cm
-30,-1.3567,0.59842,0.59682,0.3026
-29.9,-1.3532,0.59501,0.59341,0.3004
-29.8,-1.3498,0.59168,0.59007,0.2982
-29.7,-1.3463,0.58831,0.5867,0.296
-29.6,-1.3427,0.58502,0.58341,0.2938
-29.5,-1.3392,0.58171,0.58009,0.2917
-29.4,-1.3356,0.57843,0.57681,0.2895
-29.3,-1.332,0.57518,0.57356,0.2873
-29.2,-1.3284,0.57193,0.57031,0.2851
-29.1,-1.3248,0.56875,0.56712,0.2829
-29,-1.3212,0.56555,0.56392,0.2808
-28.9,-1.3175,0.56236,0.56072,0.2786
-28.8,-1.3138,0.5592,0.55756,0.2765
-28.7,-1.3101,0.55608,0.55444,0.2743
-28.6,-1.3064,0.55293,0.55129,0.2722
-28.5,-1.3027,0.54983,0.54818,0.27
-28.4,-1.299,0.54672,0.54506,0.2679
-28.3,-1.2952,0.54362,0.54196,0.2658
-28.2,-1.2914,0.54058,0.53892,0.2637
-28.1,-1.2877,0.5375,0.53584,0.2615
-28,-1.2838,0.53446,0.53279,0.2594
-27.9,-1.28,0.53143,0.52976,0.2573
-27.8,-1.2762,0.52841,0.52673,0.2552
-27.7,-1.2723,0.52542,0.52374,0.2532
-27.6,-1.2685,0.52243,0.52075,0.2511
-27.5,-1.2646,0.51947,0.51779,0.249
-27.4,-1.2607,0.51651,0.51483,0.2469
-27.3,-1.2568,0.5136,0.51191,0.2448
-27.2,-1.2529,0.51067,0.50898,0.2428
-27.1,-1.2489,0.50778,0.50609,0.2407
-27,-1.2449,0.50487,0.50318,0.2387
-26.9,-1.241,0.50203,0.50033,0.2366
-26.8,-1.237,0.49918,0.49748,0.2346
-26.7,-1.233,0.49636,0.49465,0.2325
-26.6,-1.2289,0.49354,0.49184,0.2305
-26.5,-1.2249,0.49073,0.48902,0.2284
-26.4,-1.2208,0.48799,0.48627,0.2264
-26.3,-1.2168,0.48521,0.4835,0.2244
-26.2,-1.2127,0.48248,0.48076,0.2224
-26.1,-1.2086,0.47972,0.47801,0.2203
-26,-1.2045,0.47702,0.4753,0.2183
-25.9,-1.2004,0.47434,0.47261,0.2163
-25.8,-1.1962,0.47162,0.4699,0.2143
-25.7,-1.1921,0.46896,0.46722,0.2123
-25.6,-1.1879,0.46627,0.46453,0.2103
-25.5,-1.1838,0.46362,0.46188,0.2083
-25.4,-1.1796,0.46099,0.45925,0.2063
-25.3,-1.1754,0.45838,0.45663,0.2044
-25.2,-1.1712,0.45571,0.45396,0.2024
-25.1,-1.1667,0.4542,0.45246,0.2
-25,-1.1625,0.45149,0.44974,0.1981
-24.9,-1.1583,0.4489,0.44715,0.1961
-24.8,-1.1541,0.44624,0.44449,0.1942
-24.7,-1.1498,0.44357,0.44182,0.1923
-24.6,-1.1455,0.44097,0.43921,0.1904
-24.5,-1.1413,0.43832,0.43656,0.1884
-24.4,-1.137,0.43577,0.43401,0.1865
-24.3,-1.1327,0.4332,0.43144,0.1846
-24.2,-1.1284,0.43054,0.42878,0.1827
-24.1,-1.1241,0.42791,0.42614,0.1808
-24,-1.1197,0.42544,0.42368,0.1789
-23.9,-1.1154,0.42274,0.42097,0.1771
-23.8,-1.1111,0.42012,0.41835,0.1752
-23.7,-1.1067,0.41762,0.41585,0.1733
-23.6,-1.1023,0.41508,0.41331,0.1714
-23.5,-1.0979,0.41251,0.41073,0.1696
-23.4,-1.0935,0.40986,0.40808,0.1678
-23.3,-1.0891,0.40737,0.40559,0.1659
-23.2,-1.0847,0.40473,0.40295,0.1641
-23.1,-1.0802,0.40226,0.40048,0.1622
-23,-1.0758,0.39961,0.39783,0.1604
-22.9,-1.0712,0.39707,0.39529,0.1585
-22.8,-1.0668,0.39446,0.39267,0.1568
-22.7,-1.0621,0.39195,0.39015,0.1548
-22.6,-1.0576,0.38937,0.38757,0.153
-22.5,-1.0529,0.38688,0.38509,0.1512
-21.9,-1.0239,0.3736,0.37181,0.1391
-21.8,-1.0196,0.37079,0.36901,0.1376
-21.7,-1.0153,0.36794,0.36615,0.1361
-21.6,-1.0109,0.36513,0.36334,0.1346
-21.5,-1.0066,0.36231,0.36051,0.1331
-21.4,-1.0022,0.35955,0.35775,0.1317
-21.3,-0.9979,0.3567,0.35491,0.1302
-21.2,-0.9936,0.35392,0.35212,0.1288
-21.1,-0.9892,0.35116,0.34936,0.1273
-21,-0.9849,0.34837,0.34656,0.1259
-20.9,-0.9805,0.34563,0.34383,0.1244
-20.8,-0.9762,0.34291,0.34111,0.123
-20.7,-0.9718,0.34029,0.33848,0.1216
-20.6,-0.9675,0.33761,0.3358,0.1202
-20.5,-0.9631,0.33501,0.33319,0.1187
-20.4,-0.9587,0.33246,0.33065,0.1173
-20.3,-0.9543,0.32994,0.32813,0.1158
-20.2,-0.95,0.32747,0.32565,0.1144
-20.1,-0.9456,0.32501,0.32319,0.113
-20,-0.9412,0.32261,0.32079,0.1115
-19.9,-0.9368,0.32022,0.3184,0.1101
-19.8,-0.9324,0.31787,0.31605,0.1087
-19.7,-0.928,0.31554,0.31372,0.1072
-19.6,-0.9235,0.31323,0.3114,0.1058
-19.5,-0.9191,0.31094,0.30911,0.1044
-19.4,-0.9147,0.30867,0.30684,0.103
-19.3,-0.9102,0.30641,0.30458,0.1015
-19.2,-0.9058,0.30417,0.30233,0.1001
-19.1,-0.9013,0.30194,0.3001,0.0987
-19,-0.8969,0.29973,0.29788,0.0973
-18.9,-0.8924,0.29752,0.29568,0.0959
-18.8,-0.888,0.29532,0.29347,0.0945
-18.7,-0.8835,0.29313,0.29128,0.0931
-18.6,-0.8791,0.29094,0.2891,0.0917
-18.5,-0.8746,0.28877,0.28692,0.0904
-18.4,-0.8702,0.28661,0.28476,0.089
-18.3,-0.8657,0.28445,0.2826,0.0876
-18.2,-0.8613,0.28229,0.28044,0.0863
-18.1,-0.8568,0.28015,0.2783,0.0849
-18,-0.8523,0.278,0.27615,0.0836
-17.9,-0.8479,0.27587,0.27402,0.0823
-17.8,-0.8434,0.27374,0.27189,0.0809
-17.7,-0.839,0.27162,0.26977,0.0796
-17.6,-0.8345,0.26951,0.26765,0.0783
-17.5,-0.83,0.2674,0.26554,0.077
-17.4,-0.8256,0.26529,0.26343,0.0757
-17.3,-0.8211,0.26319,0.26133,0.0744
-17.2,-0.8166,0.26109,0.25923,0.0731
-17.1,-0.8122,0.259,0.25714,0.0718
-17,-0.8077,0.25691,0.25506,0.0705
-16.9,-0.8032,0.25516,0.25331,0.0689
-16.8,-0.7988,0.25306,0.2512,0.0676
-16.7,-0.7943,0.25096,0.2491,0.0664
-16.6,-0.7899,0.24887,0.24701,0.0651
-16.5,-0.7854,0.24678,0.24492,0.0639
-16.4,-0.781,0.2447,0.24284,0.0627
-16.3,-0.7765,0.24263,0.24076,0.0615
-16.2,-0.7721,0.24057,0.2387,0.0602
-16.1,-0.7677,0.2385,0.23663,0.059
-16,-0.7633,0.23644,0.23457,0.0578
-15.9,-0.7589,0.23439,0.23252,0.0566
-15.8,-0.7545,0.23234,0.23047,0.0555
-15.7,-0.7501,0.23029,0.22842,0.0543
-15.6,-0.7458,0.22825,0.22638,0.0531
-15.5,-0.7414,0.22621,0.22434,0.0519
-15.4,-0.737,0.22417,0.22231,0.0508
-15.3,-0.7327,0.22214,0.22027,0.0496
-15.2,-0.7283,0.22009,0.21822,0.0485
-15.1,-0.724,0.21804,0.21618,0.0474
-15,-0.7196,0.216,0.21413,0.0462
-14.9,-0.7153,0.21394,0.21207,0.0451
-14.8,-0.7109,0.21184,0.20997,0.044
-14.7,-0.7065,0.20975,0.20788,0.0428
-14.6,-0.702,0.20761,0.20574,0.0417
-14.5,-0.6975,0.20544,0.20357,0.0406
-14.4,-0.6929,0.20321,0.20135,0.0394
-14.3,-0.6879,0.20098,0.19911,0.0381
-14.2,-0.683,0.19888,0.19702,0.0368
-14,-0.6732,0.1949,0.19305,0.0341
-13.9,-0.6694,0.19289,0.19104,0.0333
-13.8,-0.6656,0.19089,0.18904,0.0324
-13.7,-0.6618,0.18891,0.18706,0.0316
-13.6,-0.658,0.18697,0.18513,0.0307
-13.5,-0.6542,0.18507,0.18323,0.0298
-13.4,-0.6504,0.18322,0.18137,0.029
-13.3,-0.6465,0.18139,0.17954,0.0281
-13.2,-0.6426,0.17961,0.17775,0.0271
-13.1,-0.6386,0.17784,0.17599,0.0262
-13,-0.6347,0.1761,0.17425,0.0253
-12.9,-0.6307,0.17438,0.17253,0.0244
-12.8,-0.6267,0.17267,0.17082,0.0235
-12.7,-0.6227,0.17097,0.16912,0.0225
-12.6,-0.6186,0.16927,0.16742,0.0216
-12.5,-0.6145,0.16758,0.16573,0.0207
-12.4,-0.6104,0.16589,0.16404,0.0197
-12.3,-0.6063,0.16421,0.16237,0.0188
-12.2,-0.6022,0.16253,0.16069,0.0179
-12.1,-0.5982,0.16086,0.15901,0.0169
-12,-0.5941,0.15918,0.15734,0.016
-11.9,-0.59,0.15751,0.15567,0.0151
-11.8,-0.5859,0.15585,0.15401,0.0142
-11.7,-0.5818,0.15418,0.15235,0.0132
-11.6,-0.5777,0.15252,0.15069,0.0123
-11.5,-0.5736,0.15086,0.14903,0.0114
-11.4,-0.5695,0.14921,0.14737,0.0105
-11.3,-0.5654,0.14754,0.14571,0.0096
-11.2,-0.5613,0.14589,0.14406,0.0087
-11.1,-0.5572,0.14423,0.1424,0.0078
-11,-0.5531,0.14258,0.14075,0.0069
-10.9,-0.549,0.14092,0.1391,0.006
-10.8,-0.5449,0.13928,0.13745,0.0051
-10.7,-0.5408,0.13763,0.13581,0.0043
-10.6,-0.5367,0.136,0.13418,0.0034
-10.5,-0.5326,0.13436,0.13254,0.0025
-10.4,-0.5286,0.13272,0.1309,0.0016
-10.3,-0.5245,0.13108,0.12927,0.0008
-10.2,-0.5202,0.12913,0.12732,-0.0004
-10.1,-0.5161,0.12746,0.12564,-0.0013
-10,-0.512,0.12578,0.12396,-0.0021
-9.9,-0.5079,0.1241,0.12228,-0.003
-9.8,-0.5038,0.1224,0.12059,-0.0038
-9.7,-0.4997,0.12068,0.11888,-0.0047
-9.6,-0.4956,0.11897,0.11717,-0.0055
-9.5,-0.4915,0.11726,0.11546,-0.0064
-9.4,-0.4873,0.11556,0.11376,-0.0073
-9.3,-0.483,0.11381,0.11201,-0.0083
-9.2,-0.4786,0.1121,0.11031,-0.0092
-9.1,-0.4742,0.11045,0.10867,-0.0102
-8.9,-0.4655,0.10717,0.10541,-0.0123
-8.8,-0.4623,0.10568,0.10393,-0.0129
-8.7,-0.4591,0.10421,0.10246,-0.0135
-8.6,-0.456,0.10275,0.101,-0.0141
-8.5,-0.453,0.10131,0.09957,-0.0146
-8.4,-0.4502,0.0999,0.09816,-0.0152
-8.3,-0.4474,0.09853,0.0968,-0.0157
-8.2,-0.4449,0.0972,0.09548,-0.0162
-8.1,-0.4425,0.0959,0.09418,-0.0166
-8,-0.4405,0.09467,0.09296,-0.0169
-7.9,-0.4391,0.09351,0.09181,-0.017
-7.8,-0.4383,0.09244,0.09075,-0.017
-7.7,-0.4386,0.09147,0.0898,-0.0167
-7.6,-0.4319,0.08985,0.08817,-0.0184
-7.5,-0.4253,0.08827,0.08659,-0.0202
-7.4,-0.4184,0.08668,0.08499,-0.022
-7.3,-0.4111,0.08507,0.08339,-0.024
-7.2,-0.4043,0.08353,0.08184,-0.0258
-7.1,-0.3974,0.08198,0.08029,-0.0276
-7,-0.3895,0.08035,0.07866,-0.0298
-6.9,-0.3814,0.07873,0.07703,-0.0321
-6.8,-0.3738,0.07717,0.07547,-0.0341
-6.7,-0.3657,0.07557,0.07386,-0.0364
-6.6,-0.3567,0.07391,0.0722,-0.0389
-6.5,-0.347,0.07222,0.07048,-0.0415
-6.4,-0.3368,0.07048,0.06874,-0.0443
-6.3,-0.3284,0.0689,0.06715,-0.0466
-6.2,-0.3193,0.06727,0.06551,-0.049
-6.1,-0.3091,0.06555,0.06378,-0.0516
-6,-0.2983,0.0638,0.06202,-0.0545
-5.9,-0.2871,0.06203,0.06023,-0.0574
-5.8,-0.278,0.06042,0.05861,-0.0596
-5.7,-0.2676,0.05872,0.05689,-0.0622
-5.5,-0.2442,0.05503,0.05316,-0.068
-5.4,-0.2321,0.05317,0.05128,-0.0709
-5.3,-0.221,0.05141,0.04949,-0.0734
-5.2,-0.209,0.04955,0.04761,-0.0761
-5.1,-0.1961,0.04763,0.04565,-0.079
-5,-0.1827,0.04565,0.04363,-0.082
-4.9,-0.1689,0.04361,0.04155,-0.085
-4.8,-0.1552,0.04155,0.03945,-0.0879
-4.7,-0.141,0.03939,0.03723,-0.0909
-4.6,-0.1258,0.03701,0.03478,-0.0941
-4.5,-0.11,0.03444,0.03212,-0.0975
-4.4,-0.0939,0.03153,0.02911,-0.101
-4.3,-0.077,0.02813,0.02555,-0.1049
-4.2,-0.0601,0.02494,0.0222,-0.1083
-4.1,-0.0436,0.022,0.01906,-0.1112
-4,-0.0276,0.01854,0.01532,-0.114
-3.9,-0.0126,0.01512,0.01154,-0.1164
-3.8,0.002,0.01344,0.00957,-0.1174
-3.7,0.0164,0.01231,0.00819,-0.1178
-3.6,0.0307,0.01148,0.00714,-0.118
-3.5,0.0451,0.01082,0.00629,-0.1181
-3.4,0.0594,0.01029,0.00559,-0.1181
-3.3,0.0738,0.00985,0.00502,-0.118
-3.2,0.088,0.00949,0.00452,-0.1179
-3.1,0.1022,0.00919,0.0041,-0.1178
-3,0.1163,0.00893,0.00375,-0.1176
-2.9,0.1305,0.00872,0.00346,-0.1175
-2.8,0.1447,0.00852,0.0032,-0.1174
-2.7,0.1585,0.00836,0.00297,-0.1172
-2.6,0.1724,0.00823,0.0028,-0.1171
-2.5,0.186,0.00812,0.00263,-0.1168
-2.4,0.1993,0.00803,0.00248,-0.1165
-2.3,0.2131,0.00794,0.00234,-0.1164
-2.2,0.2265,0.00786,0.00221,-0.1161
-2.1,0.2401,0.0078,0.00212,-0.116
-2,0.2536,0.00774,0.00202,-0.1158
-1.9,0.2669,0.00769,0.00193,-0.1156
-1.8,0.2803,0.00764,0.00189,-0.1155
-1.7,0.2938,0.00759,0.00183,-0.1154
-1.6,0.3068,0.00757,0.00176,-0.1151
-1.5,0.3202,0.00754,0.0017,-0.115
-1.4,0.3337,0.00751,0.00164,-0.1149
-1.3,0.3472,0.00747,0.00161,-0.1148
-1.2,0.3601,0.00748,0.00156,-0.1146
-1.1,0.3736,0.00745,0.00151,-0.1145
-1,0.3867,0.00745,0.00148,-0.1143
-0.9,0.4001,0.00744,0.00145,-0.1142
-0.8,0.4133,0.00743,0.00144,-0.1141
-0.7,0.4254,0.0075,0.00141,-0.1137
-0.6,0.4386,0.00752,0.0014,-0.1136
-0.5,0.4516,0.00753,0.00138,-0.1135
-0.4,0.4646,0.00756,0.00138,-0.1133
-0.3,0.4761,0.0077,0.00139,-0.1129
-0.2,0.4887,0.00776,0.00139,-0.1127
-0.1,0.5013,0.00783,0.00141,-0.1125
0,0.5135,0.00794,0.00143,-0.1122
0.1,0.5261,0.00802,0.00146,-0.1121
0.2,0.5381,0.00815,0.0015,-0.1118
0.3,0.5494,0.00835,0.00157,-0.1115
0.4,0.5614,0.00851,0.00162,-0.1112
0.5,0.5736,0.00863,0.00166,-0.111
0.6,0.5848,0.00887,0.00175,-0.1107
0.7,0.5968,0.00904,0.00182,-0.1104
0.8,0.6085,0.00922,0.00191,-0.1102
1,0.6305,0.00979,0.00213,-0.1095
1.1,0.643,0.0099,0.0022,-0.1093
1.2,0.6556,0.01,0.00227,-0.1092
1.3,0.6683,0.01006,0.00233,-0.1091
1.4,0.6808,0.01018,0.00241,-0.1089
1.5,0.6936,0.01025,0.00248,-0.1087
1.6,0.7065,0.0103,0.00253,-0.1086
1.7,0.7194,0.01037,0.00259,-0.1085
1.8,0.7323,0.01042,0.00265,-0.1083
1.9,0.7453,0.01045,0.00271,-0.1082
2.1,0.771,0.01056,0.00286,-0.1079
2.3,0.7889,0.00921,0.0031,-0.1063
2.4,0.8019,0.00929,0.00317,-0.1061
2.5,0.8148,0.0094,0.00324,-0.1059
2.6,0.8278,0.00948,0.00332,-0.1057
2.7,0.8405,0.0096,0.00341,-0.1055
2.8,0.8534,0.0097,0.00349,-0.1052
2.9,0.8664,0.00979,0.00357,-0.105
3,0.8793,0.00989,0.00365,-0.1047
3.1,0.8921,0.01,0.00375,-0.1045
3.2,0.9049,0.01011,0.00383,-0.1042
3.3,0.9177,0.01023,0.00393,-0.1039
3.4,0.9307,0.01033,0.00403,-0.1036
3.5,0.9436,0.01043,0.00413,-0.1033
3.6,0.9565,0.01055,0.00423,-0.103
3.7,0.9692,0.01068,0.00435,-0.1026
3.8,0.9822,0.01078,0.00446,-0.1023
3.9,0.9948,0.01093,0.00457,-0.1019
4,1.0075,0.01106,0.0047,-0.1015
4.1,1.0204,0.01118,0.00484,-0.1012
4.2,1.0332,0.0113,0.00497,-0.1007
4.3,1.0459,0.01145,0.00511,-0.1003
4.4,1.0585,0.0116,0.00525,-0.0999
4.5,1.0713,0.01174,0.00539,-0.0994
4.6,1.0838,0.0119,0.00555,-0.0989
4.7,1.0966,0.01205,0.00571,-0.0984
4.8,1.1093,0.01219,0.00587,-0.0979
4.9,1.122,0.01235,0.00603,-0.0974
5,1.1345,0.01253,0.00622,-0.0968
5.1,1.147,0.0127,0.0064,-0.0962
5.2,1.1596,0.01287,0.00659,-0.0957
5.3,1.1721,0.01305,0.00678,-0.095
5.4,1.1844,0.01326,0.00702,-0.0944
5.5,1.197,0.01344,0.00724,-0.0937
5.6,1.2096,0.01362,0.00746,-0.093
5.7,1.2221,0.01382,0.00769,-0.0923
5.8,1.2344,0.01403,0.00794,-0.0915
5.9,1.2465,0.01426,0.0082,-0.0908
6,1.2585,0.01452,0.0085,-0.0899
6.1,1.2709,0.01473,0.00876,-0.0891
6.2,1.283,0.01497,0.00905,-0.0882
6.3,1.295,0.01523,0.00936,-0.0873
6.4,1.3069,0.0155,0.00969,-0.0864
6.5,1.3186,0.01579,0.01003,-0.0854
6.6,1.3299,0.01611,0.01041,-0.0843
6.7,1.3409,0.01647,0.01085,-0.0832
6.8,1.3521,0.01681,0.01128,-0.082
6.9,1.3628,0.01719,0.01176,-0.0808
7,1.3741,0.01753,0.01217,-0.0796
7.1,1.3856,0.01784,0.01253,-0.0785
7.2,1.3953,0.01831,0.0131,-0.077
7.3,1.4042,0.01885,0.01377,-0.0755
7.4,1.4125,0.01945,0.0145,-0.0738
7.5,1.42,0.0201,0.01528,-0.0721
7.6,1.4265,0.02082,0.01614,-0.0703
7.7,1.4316,0.02164,0.01709,-0.0683
7.8,1.4333,0.02268,0.01833,-0.0661
7.9,1.4332,0.02379,0.01961,-0.0637
8,1.4312,0.02491,0.02091,-0.0612
8.1,1.4282,0.02613,0.0223,-0.0587
8.2,1.4244,0.02741,0.02375,-0.0563
8.3,1.4219,0.02863,0.02512,-0.0542
8.4,1.4169,0.03002,0.02666,-0.0521
8.5,1.4113,0.03147,0.02825,-0.0502
8.6,1.4051,0.03298,0.0299,-0.0484
8.7,1.3984,0.03456,0.03161,-0.0469
8.8,1.3913,0.0362,0.03336,-0.0455
8.9,1.3839,0.0379,0.03518,-0.0444
9,1.3761,0.03968,0.03707,-0.0436
9.1,1.3683,0.04154,0.03903,-0.043
9.3,1.3518,0.04553,0.04322,-0.0428
9.4,1.3436,0.04769,0.04547,-0.0432
9.5,1.3352,0.05,0.04785,-0.0441
9.7,1.3189,0.055,0.05301,-0.0469
9.8,1.311,0.05781,0.05589,-0.0491
9.9,1.3033,0.06088,0.05903,-0.0518
10,1.2961,0.06424,0.06246,-0.0551
10.1,1.2894,0.06803,0.06631,-0.0591
10.3,1.2773,0.07725,0.07568,-0.0678
10.4,1.2702,0.08118,0.07964,-0.0712
10.5,1.2632,0.08485,0.08332,-0.0743
10.6,1.256,0.08842,0.08689,-0.0772
10.7,1.2489,0.09194,0.09042,-0.08
10.8,1.2419,0.09543,0.09391,-0.0827
10.9,1.2352,0.09889,0.09737,-0.0854
11,1.2286,0.10234,0.10081,-0.088
11.1,1.222,0.10579,0.10427,-0.0906
11.2,1.2157,0.10924,0.10771,-0.0932
11.3,1.2095,0.11268,0.11115,-0.0957
11.5,1.1977,0.11958,0.11805,-0.1007
11.7,1.1866,0.12659,0.12506,-0.1057
11.8,1.1815,0.13007,0.12855,-0.1082
12.1,1.1694,0.14023,0.1387,-0.1152
12.2,1.1666,0.14338,0.14185,-0.1173
12.3,1.1644,0.14644,0.14491,-0.1193
12.4,1.1626,0.14946,0.14792,-0.1214
12.5,1.1617,0.15227,0.15074,-0.1233
12.6,1.1611,0.15504,0.15351,-0.1251
12.7,1.1604,0.15787,0.15632,-0.127
12.8,1.1576,0.16137,0.15982,-0.1293
12.9,1.1553,0.1648,0.16326,-0.1316
13,1.1534,0.16824,0.16669,-0.1338
13.1,1.1522,0.17151,0.16996,-0.1359
13.2,1.1514,0.17474,0.1732,-0.1379
13.3,1.1512,0.1778,0.17625,-0.1399
13.4,1.1516,0.18069,0.17915,-0.1417
13.5,1.1523,0.18352,0.18198,-0.1435
13.6,1.1535,0.1862,0.18466,-0.1452
13.7,1.155,0.18881,0.18727,-0.1469
13.8,1.1567,0.19131,0.18977,-0.1486
13.9,1.1587,0.19373,0.19218,-0.1502
14,1.1609,0.19607,0.19452,-0.1517
14.1,1.1633,0.19834,0.1968,-0.1533
14.2,1.1658,0.20054,0.199,-0.1548
14.3,1.1684,0.2027,0.20116,-0.1563
14.4,1.1711,0.20478,0.20323,-0.1578
14.5,1.1739,0.20682,0.20528,-0.1594
14.6,1.1767,0.20881,0.20727,-0.1609
14.7,1.1795,0.21076,0.20922,-0.1624
14.8,1.1814,0.21406,0.21251,-0.1643
14.9,1.1835,0.21736,0.2158,-0.1661
15,1.1861,0.2203,0.21874,-0.1678
15.1,1.189,0.22297,0.22142,-0.1695
15.2,1.192,0.2256,0.22405,-0.1711
15.3,1.1952,0.22814,0.22659,-0.1727
15.4,1.1985,0.23057,0.22902,-0.1743
15.6,1.2056,0.23513,0.23358,-0.1775
15.7,1.2092,0.23728,0.23573,-0.179
15.8,1.2128,0.23939,0.23785,-0.1806
15.9,1.2164,0.2415,0.23996,-0.1821
16,1.2201,0.24354,0.242,-0.1836
16.1,1.2238,0.24557,0.24404,-0.1851
16.2,1.2275,0.24757,0.24604,-0.1866
16.3,1.2312,0.24952,0.24799,-0.1881
16.4,1.2349,0.25148,0.24996,-0.1896
16.5,1.2386,0.25341,0.25188,-0.1912
16.6,1.2423,0.25584,0.2543,-0.1928
16.7,1.2464,0.25943,0.25789,-0.1945
16.8,1.2504,0.26258,0.26104,-0.1962
16.9,1.2545,0.26548,0.26395,-0.1979
17,1.2586,0.26825,0.26671,-0.1995
17.1,1.2627,0.27085,0.26931,-0.2011
17.2,1.2668,0.27342,0.27189,-0.2027
17.3,1.271,0.27596,0.27443,-0.2043
17.4,1.2752,0.27841,0.27688,-0.2059
17.5,1.2794,0.28083,0.27931,-0.2075
17.6,1.2836,0.28324,0.28171,-0.2091
17.7,1.2878,0.28562,0.2841,-0.2107
17.8,1.2921,0.28798,0.28646,-0.2123
17.9,1.2963,0.29033,0.2888,-0.2139
18,1.3006,0.29265,0.29113,-0.2155
18.1,1.3048,0.29496,0.29344,-0.2171
18.2,1.3091,0.29725,0.29573,-0.2188
18.3,1.3133,0.29954,0.29803,-0.2204
18.4,1.3176,0.30182,0.30031,-0.222
18.5,1.3219,0.30407,0.30256,-0.2236
18.6,1.3262,0.30633,0.30482,-0.2252
18.7,1.3304,0.30857,0.30707,-0.2269
18.8,1.3347,0.31085,0.30935,-0.2285
18.9,1.339,0.31304,0.31154,-0.2301
19,1.3432,0.31527,0.31377,-0.2318
19.1,1.3475,0.31752,0.31602,-0.2334
19.2,1.3518,0.31974,0.31825,-0.2351
19.3,1.356,0.32201,0.32051,-0.2367
19.4,1.3603,0.32418,0.32269,-0.2384
19.5,1.3645,0.32644,0.32495,-0.24
19.6,1.3688,0.32871,0.32723,-0.2417
19.7,1.373,0.33096,0.32949,-0.2434
19.8,1.3772,0.33321,0.33174,-0.245
19.9,1.3814,0.3355,0.33402,-0.2467
20,1.3857,0.33783,0.33636,-0.2484
20.1,1.3899,0.34017,0.3387,-0.2501
20.2,1.394,0.34249,0.34103,-0.2518
20.3,1.3982,0.34488,0.34342,-0.2534
20.4,1.4024,0.34731,0.34585,-0.2551
20.5,1.4067,0.34978,0.34831,-0.2568
20.6,1.4115,0.35297,0.3515,-0.2587
20.7,1.4163,0.35604,0.35458,-0.2606
20.8,1.421,0.35915,0.35768,-0.2625
20.9,1.4257,0.36224,0.36078,-0.2643
21,1.4303,0.36534,0.36388,-0.2662
21.1,1.4349,0.36832,0.36686,-0.268
21.2,1.4394,0.37119,0.36974,-0.2698
21.3,1.4448,0.37547,0.37401,-0.272
21.4,1.4492,0.37821,0.37676,-0.2738
21.5,1.4536,0.38094,0.37949,-0.2757
21.6,1.458,0.38366,0.38221,-0.2775
21.7,1.4624,0.38638,0.38493,-0.2794
21.8,1.4668,0.38911,0.38767,-0.2813
21.9,1.4712,0.39182,0.39037,-0.2831
22,1.4756,0.39451,0.39307,-0.285
22.1,1.4799,0.39718,0.39574,-0.2869
22.2,1.4842,0.39985,0.39841,-0.2888
22.3,1.4886,0.40254,0.40111,-0.2907
22.4,1.4929,0.4052,0.40377,-0.2926
22.5,1.4972,0.40786,0.40643,-0.2945
22.6,1.5014,0.41051,0.40909,-0.2964
22.7,1.5057,0.41316,0.41174,-0.2983
22.8,1.5099,0.41581,0.41439,-0.3002
22.9,1.5142,0.41845,0.41705,-0.3021
23,1.5184,0.42112,0.41972,-0.304
23.1,1.5226,0.42373,0.42233,-0.306
23.2,1.5268,0.4264,0.42501,-0.3079
23.3,1.531,0.42904,0.42764,-0.3099
23.4,1.5351,0.43169,0.4303,-0.3118
23.5,1.5393,0.43431,0.43292,-0.3138
23.6,1.5434,0.43695,0.43557,-0.3158
23.7,1.5476,0.43957,0.43819,-0.3178
23.8,1.5516,0.44222,0.44084,-0.3197
23.9,1.5557,0.44483,0.44346,-0.3217
24,1.5598,0.44749,0.44612,-0.3237
24.1,1.5639,0.45013,0.44877,-0.3257
24.2,1.5679,0.45281,0.45144,-0.3277
24.3,1.5719,0.45542,0.45406,-0.3297
24.4,1.576,0.45808,0.45672,-0.3317
24.5,1.5799,0.46072,0.45936,-0.3337
24.6,1.5839,0.46341,0.46206,-0.3357
24.7,1.5879,0.46615,0.4648,-0.3378
24.8,1.5919,0.46887,0.46753,-0.3398
24.9,1.5958,0.47164,0.4703,-0.3418
25,1.5997,0.47429,0.47295,-0.3439
25.1,1.6036,0.47711,0.47578,-0.3459
25.2,1.6075,0.47991,0.47858,-0.348
25.3,1.6114,0.48275,0.48143,-0.35
25.4,1.6152,0.48559,0.48427,-0.352
25.5,1.6191,0.48851,0.48719,-0.3541
25.6,1.623,0.49146,0.49014,-0.3561
25.7,1.6268,0.49446,0.49314,-0.3582
25.8,1.6306,0.49749,0.49618,-0.3602
25.9,1.6344,0.50057,0.49927,-0.3623
26,1.6382,0.50368,0.50239,-0.3643
26.1,1.642,0.50681,0.50552,-0.3664
26.2,1.6458,0.50997,0.50868,-0.3685
26.3,1.6496,0.51313,0.51185,-0.3705
26.4,1.6533,0.51638,0.5151,-0.3726
26.5,1.6571,0.51965,0.51837,-0.3747
26.6,1.6608,0.52287,0.5216,-0.3768
26.7,1.6657,0.52614,0.52486,-0.3796
26.8,1.6697,0.5294,0.52813,-0.3819
26.9,1.6741,0.53295,0.53167,-0.3843
27,1.6783,0.53654,0.53526,-0.3867
27.1,1.6822,0.53986,0.53859,-0.3889
27.2,1.6864,0.54353,0.54226,-0.3913
27.3,1.6903,0.54697,0.54571,-0.3935
27.4,1.6942,0.55042,0.54916,-0.3958
27.5,1.698,0.55372,0.55246,-0.3981
27.6,1.702,0.55727,0.55601,-0.4004
27.7,1.7057,0.5606,0.55935,-0.4027
27.8,1.7095,0.564,0.56275,-0.405
27.9,1.7132,0.56728,0.56604,-0.4073
28,1.7169,0.57064,0.5694,-0.4096
28.1,1.7206,0.57399,0.57275,-0.4119
28.2,1.7243,0.5773,0.57606,-0.4143
28.3,1.7285,0.58021,0.57898,-0.4171
28.4,1.7322,0.58342,0.5822,-0.4195
28.5,1.7358,0.5866,0.58538,-0.4219
28.6,1.7394,0.58979,0.58857,-0.4242
28.7,1.743,0.59303,0.59181,-0.4266
28.8,1.7465,0.59622,0.595,-0.429
28.9,1.7501,0.59943,0.59822,-0.4314
29,1.7536,0.60267,0.60147,-0.4338
29.1,1.757,0.60589,0.60469,-0.4362
29.2,1.7605,0.60912,0.60792,-0.4386
29.3,1.764,0.61234,0.61116,-0.441
29.4,1.7674,0.61559,0.61441,-0.4434
29.5,1.7708,0.61885,0.61767,-0.4458
29.6,1.7741,0.62211,0.62093,-0.4482
29.7,1.7775,0.62534,0.62417,-0.4506
29.8,1.7808,0.62864,0.62747,-0.4531
29.9,1.7841,0.63198,0.63081,-0.4555
30,1.7875,0.63516,0.634,-0.458

