airfoilName st24.dat
Re 	190000
M 	5.000000e-01
N 	4.500000e+00
VACC 	0 VACCflag 1
XTR 	1.00 	1.00 XTRflag 0
alpha,cl,cd,cdp,cm
-29.4,-1.3267,0.60367,0.60006,0.279
-29.3,-1.3231,0.60009,0.59648,0.2769
-29.2,-1.3197,0.59663,0.59302,0.2749
-29.1,-1.3162,0.59316,0.58954,0.2728
-29,-1.3126,0.58961,0.58598,0.2707
-28.9,-1.309,0.58605,0.58241,0.2686
-28.8,-1.3054,0.58255,0.57891,0.2666
-28.7,-1.3017,0.57911,0.57546,0.2645
-28.6,-1.2981,0.57558,0.57193,0.2625
-28.5,-1.2944,0.57216,0.5685,0.2604
-28.4,-1.2907,0.56865,0.56499,0.2584
-28.3,-1.2871,0.56523,0.56155,0.2563
-28.2,-1.2833,0.56187,0.55818,0.2543
-28.1,-1.2796,0.55844,0.55474,0.2523
-28,-1.2759,0.55504,0.55133,0.2502
-27.9,-1.2721,0.55167,0.54795,0.2482
-27.8,-1.2683,0.54831,0.54459,0.2462
-27.7,-1.2645,0.54499,0.54127,0.2442
-27.6,-1.2607,0.54167,0.53794,0.2422
-27.5,-1.2569,0.53838,0.53464,0.2402
-27.4,-1.2531,0.53506,0.53132,0.2382
-27.3,-1.2492,0.53182,0.52807,0.2362
-27.2,-1.2453,0.52855,0.5248,0.2343
-27.1,-1.2415,0.52534,0.52158,0.2323
-27,-1.2375,0.52205,0.51829,0.2303
-26.9,-1.2336,0.51885,0.51509,0.2284
-26.8,-1.2297,0.51568,0.51191,0.2264
-26.7,-1.2258,0.51251,0.50873,0.2244
-26.6,-1.2218,0.50935,0.50557,0.2225
-26.5,-1.2178,0.5062,0.50241,0.2206
-26.4,-1.2138,0.50309,0.4993,0.2186
-26.3,-1.2098,0.49997,0.49617,0.2167
-26.2,-1.2058,0.49686,0.49306,0.2148
-26.1,-1.2018,0.49379,0.48998,0.2128
-26,-1.1978,0.49072,0.4869,0.2109
-25.9,-1.1937,0.48768,0.48386,0.209
-25.8,-1.1896,0.48463,0.48081,0.2071
-25.7,-1.1856,0.48161,0.47778,0.2052
-25.6,-1.1815,0.47862,0.47477,0.2033
-25.5,-1.1774,0.47563,0.47178,0.2014
-25.4,-1.1732,0.47266,0.4688,0.1995
-25.3,-1.1691,0.46969,0.46583,0.1977
-25.2,-1.165,0.46676,0.4629,0.1958
-25.1,-1.1608,0.46383,0.45996,0.1939
-25,-1.1566,0.46094,0.45706,0.192
-24.9,-1.1524,0.45803,0.45415,0.1902
-24.8,-1.1483,0.45516,0.45128,0.1883
-24.7,-1.144,0.45231,0.44842,0.1865
-24.6,-1.1398,0.44945,0.44556,0.1846
-24.5,-1.1356,0.44663,0.44273,0.1828
-24.4,-1.1314,0.44381,0.43991,0.181
-24.3,-1.1271,0.44102,0.43712,0.1791
-24.2,-1.1228,0.43823,0.43433,0.1773
-24.1,-1.1185,0.43547,0.43156,0.1755
-24,-1.1143,0.43273,0.42882,0.1736
-23.9,-1.11,0.43,0.42608,0.1718
-23.8,-1.1057,0.42727,0.42335,0.17
-23.7,-1.1013,0.42458,0.42066,0.1682
-23.6,-1.097,0.4219,0.41797,0.1664
-23.5,-1.0926,0.41925,0.41531,0.1646
-23.4,-1.0883,0.41659,0.41266,0.1628
-23.3,-1.0839,0.41397,0.41003,0.161
-23.2,-1.0795,0.41134,0.4074,0.1592
-23.1,-1.0751,0.40876,0.40482,0.1573
-23,-1.0707,0.40618,0.40223,0.1555
-22.9,-1.0663,0.40361,0.39966,0.1537
-22.8,-1.0619,0.40106,0.3971,0.1519
-22.7,-1.0574,0.39856,0.39459,0.1501
-22.6,-1.0529,0.39602,0.39204,0.1483
-22.5,-1.0485,0.39356,0.38958,0.1464
-22.4,-1.044,0.3911,0.38712,0.1446
-22.3,-1.0394,0.38866,0.38468,0.1427
-22.2,-1.0349,0.38618,0.38219,0.1409
-22.1,-1.0304,0.38375,0.37976,0.139
-22,-1.0257,0.38132,0.37734,0.1371
-21.9,-1.0211,0.37882,0.37484,0.1352
-21.8,-1.0165,0.37632,0.37233,0.1333
-21.7,-1.0117,0.37379,0.3698,0.1314
-21.6,-1.0068,0.37106,0.36706,0.1296
-20.9,-0.9732,0.35171,0.34774,0.1176
-20.7,-0.965,0.34689,0.34291,0.1147
-20.6,-0.9606,0.34437,0.34039,0.1132
-20.5,-0.9563,0.34186,0.33788,0.1118
-20.4,-0.9519,0.33937,0.33538,0.1103
-20.3,-0.9475,0.33689,0.33289,0.1089
-20.2,-0.9431,0.33442,0.33042,0.1074
-20.1,-0.9387,0.33196,0.32796,0.106
-20,-0.9343,0.32952,0.32552,0.1046
-19.9,-0.9299,0.32708,0.32308,0.1031
-19.8,-0.9255,0.32466,0.32065,0.1017
-19.7,-0.9211,0.32224,0.31823,0.1003
-19.6,-0.9166,0.31985,0.31584,0.0989
-19.5,-0.9122,0.31746,0.31342,0.0975
-19.4,-0.9078,0.31507,0.31104,0.0961
-19.3,-0.9034,0.31271,0.30867,0.0947
-19.2,-0.8989,0.31035,0.30631,0.0934
-19.1,-0.8945,0.308,0.30396,0.092
-19,-0.89,0.30566,0.30162,0.0906
-18.9,-0.8856,0.30334,0.2993,0.0893
-18.8,-0.8812,0.30102,0.29698,0.0879
-18.7,-0.8767,0.29872,0.29467,0.0866
-18.6,-0.8723,0.29642,0.29237,0.0853
-18.5,-0.8678,0.29414,0.29009,0.0839
-18.4,-0.8634,0.29186,0.28781,0.0826
-18.3,-0.8589,0.28959,0.28554,0.0813
-18.2,-0.8545,0.28734,0.28328,0.08
-18.1,-0.85,0.28509,0.28103,0.0787
-18,-0.8456,0.28285,0.27879,0.0774
-17.9,-0.8411,0.28062,0.27656,0.0762
-17.8,-0.8367,0.2784,0.27434,0.0749
-17.7,-0.8322,0.27619,0.27212,0.0736
-17.6,-0.8278,0.27399,0.26992,0.0724
-17.5,-0.8233,0.27179,0.26772,0.0711
-17.4,-0.8188,0.2696,0.26553,0.0699
-17.3,-0.8144,0.26742,0.26335,0.0687
-17.2,-0.8099,0.26525,0.26118,0.0674
-17.1,-0.8055,0.26309,0.25902,0.0662
-17,-0.801,0.26094,0.25687,0.065
-16.9,-0.7966,0.25879,0.25472,0.0638
-16.8,-0.7921,0.25665,0.25258,0.0626
-16.7,-0.7877,0.25452,0.25045,0.0614
-16.6,-0.7832,0.2524,0.24831,0.0602
-16.5,-0.7788,0.25029,0.2462,0.059
-16.4,-0.7744,0.24818,0.24409,0.0578
-16.3,-0.7699,0.24608,0.242,0.0566
-16.2,-0.7655,0.24399,0.23991,0.0555
-16.1,-0.7611,0.24191,0.23782,0.0543
-16,-0.7567,0.23983,0.23574,0.0531
-15.9,-0.7523,0.23777,0.23368,0.052
-15.8,-0.7479,0.2357,0.23161,0.0508
-15.7,-0.7435,0.23364,0.22955,0.0497
-15.6,-0.7391,0.23159,0.2275,0.0485
-15.5,-0.7347,0.22954,0.22545,0.0474
-15.4,-0.7303,0.22749,0.2234,0.0462
-15.3,-0.7259,0.22544,0.22136,0.0451
-15.2,-0.7215,0.22339,0.21931,0.044
-15.1,-0.7171,0.22134,0.21726,0.0428
-15,-0.7127,0.21929,0.21521,0.0417
-14.9,-0.7083,0.21723,0.21315,0.0406
-14.8,-0.7039,0.21516,0.21108,0.0394
-14.7,-0.6994,0.21308,0.209,0.0383
-14.6,-0.6949,0.21099,0.20691,0.0372
-14.5,-0.6904,0.20887,0.20479,0.036
-14.4,-0.6858,0.20671,0.20263,0.0349
-14.3,-0.681,0.20447,0.20039,0.0336
-14.1,-0.6693,0.19953,0.19549,0.03
-14,-0.6654,0.19758,0.19354,0.0292
-13.9,-0.6614,0.19566,0.19162,0.0283
-13.8,-0.6575,0.19375,0.18971,0.0275
-13.7,-0.6536,0.19186,0.18782,0.0266
-13.6,-0.6496,0.18999,0.18595,0.0258
-13.5,-0.6464,0.18838,0.18435,0.025
-13.4,-0.6424,0.18655,0.18252,0.0242
-13.3,-0.6384,0.18473,0.18068,0.0233
-13.2,-0.6344,0.18292,0.17887,0.0224
-13.1,-0.6304,0.18112,0.17707,0.0215
-13,-0.6264,0.17933,0.17529,0.0207
-12.9,-0.6224,0.17755,0.17351,0.0198
-12.8,-0.6184,0.17578,0.17174,0.0189
-12.7,-0.6144,0.17402,0.16998,0.0181
-12.6,-0.6104,0.17227,0.16823,0.0172
-12.5,-0.6064,0.17052,0.16648,0.0164
-12.4,-0.6024,0.16878,0.16475,0.0155
-12.3,-0.5984,0.16705,0.16302,0.0147
-12.2,-0.5943,0.16533,0.1613,0.0138
-12.1,-0.5903,0.16362,0.15959,0.013
-12,-0.5863,0.16191,0.15789,0.0121
-11.9,-0.5823,0.16022,0.15619,0.0113
-11.8,-0.5783,0.15853,0.15451,0.0105
-11.7,-0.5743,0.15684,0.15283,0.0097
-11.6,-0.5703,0.15517,0.15116,0.0088
-11.5,-0.5664,0.1535,0.1495,0.008
-11.4,-0.5624,0.15185,0.14784,0.0072
-11.3,-0.5584,0.15019,0.14619,0.0064
-11.2,-0.5544,0.14855,0.14455,0.0056
-11.1,-0.5505,0.14691,0.14292,0.0048
-11,-0.5465,0.14528,0.14129,0.004
-10.9,-0.5425,0.14365,0.13966,0.0032
-10.8,-0.5385,0.14202,0.13804,0.0024
-10.7,-0.5346,0.14041,0.13643,0.0016
-10.6,-0.5306,0.1388,0.13483,0.0008
-10.5,-0.5267,0.1372,0.13323,0.0001
-10.4,-0.5228,0.1356,0.13164,-0.0007
-10.3,-0.5189,0.13401,0.13006,-0.0015
-10.2,-0.515,0.13243,0.12846,-0.0023
-10.1,-0.5111,0.13085,0.12689,-0.003
-10,-0.5072,0.12927,0.12531,-0.0038
-9.9,-0.5034,0.1277,0.12375,-0.0045
-9.8,-0.4995,0.12613,0.12218,-0.0053
-9.7,-0.4957,0.12456,0.12063,-0.0061
-9.6,-0.4919,0.123,0.11907,-0.0068
-9.5,-0.4881,0.12144,0.11752,-0.0076
-9.4,-0.4844,0.11989,0.11598,-0.0083
-9.3,-0.4806,0.11833,0.11442,-0.0091
-9.2,-0.4769,0.11677,0.11287,-0.0098
-9.1,-0.4733,0.11522,0.11132,-0.0106
-9,-0.4696,0.11365,0.10976,-0.0114
-8.9,-0.466,0.11208,0.1082,-0.0121
-8.8,-0.4625,0.11049,0.10662,-0.0129
-8.7,-0.459,0.10888,0.10502,-0.0138
-8.6,-0.4556,0.10724,0.10339,-0.0146
-8.5,-0.4522,0.10553,0.10169,-0.0156
-8.4,-0.4489,0.10375,0.09995,-0.0169
-8.3,-0.4461,0.10243,0.09864,-0.0173
-8.2,-0.4435,0.10113,0.09736,-0.0176
-8.1,-0.4409,0.09987,0.09611,-0.018
-8,-0.4385,0.09864,0.09489,-0.0183
-7.9,-0.4363,0.09744,0.0937,-0.0185
-7.7,-0.433,0.0955,0.0918,-0.0188
-7.6,-0.4316,0.0944,0.09071,-0.0188
-7.5,-0.4307,0.09334,0.08967,-0.0188
-7.4,-0.4304,0.09234,0.08869,-0.0186
-7.3,-0.4305,0.09138,0.08775,-0.0183
-7.2,-0.4312,0.09047,0.08687,-0.0179
-7.1,-0.4326,0.08963,0.08606,-0.0173
-7,-0.4347,0.08885,0.0853,-0.0166
-6.9,-0.4376,0.08813,0.08462,-0.0157
-6.8,-0.4408,0.08744,0.08395,-0.0147
-6.7,-0.4436,0.08672,0.08326,-0.0138
-6.6,-0.4457,0.08592,0.08249,-0.0132
-6.5,-0.4431,0.08471,0.0813,-0.0138
-6.4,-0.4338,0.08295,0.07952,-0.0163
-6.3,-0.4235,0.08112,0.07769,-0.019
-6.2,-0.4135,0.07936,0.07592,-0.0217
-6.1,-0.404,0.07762,0.07416,-0.0242
-6,-0.3942,0.07588,0.07241,-0.0267
-5.9,-0.3838,0.0741,0.07062,-0.0294
-5.8,-0.3726,0.07228,0.06878,-0.0323
-5.7,-0.3612,0.07045,0.06694,-0.0352
-5.6,-0.3504,0.06865,0.06513,-0.0379
-5.5,-0.3391,0.06684,0.0633,-0.0407
-5.4,-0.3268,0.06494,0.06139,-0.0438
-5.3,-0.3136,0.06299,0.0594,-0.0471
-5.2,-0.2995,0.06093,0.05733,-0.0506
-5.1,-0.2881,0.05906,0.05543,-0.0533
-5,-0.2755,0.05705,0.05339,-0.0563
-4.9,-0.2602,0.05472,0.05102,-0.0601
-4.8,-0.2437,0.05211,0.04835,-0.0645
-4.7,-0.2249,0.04893,0.04513,-0.0698
-4.6,-0.2093,0.04726,0.04341,-0.0727
-4.5,-0.1929,0.04559,0.04169,-0.0757
-4.4,-0.182,0.04423,0.0403,-0.0772
-4.3,-0.1665,0.04261,0.03863,-0.0798
-4.2,-0.1501,0.04096,0.03691,-0.0825
-4.1,-0.1327,0.03924,0.03512,-0.0853
-4,-0.1146,0.03744,0.03324,-0.0883
-3.9,-0.0949,0.03549,0.03118,-0.0915
-3.8,-0.0746,0.03338,0.02895,-0.0949
-3.7,-0.0568,0.03127,0.02669,-0.0975
-3.6,-0.0403,0.02898,0.02422,-0.0998
-3.5,-0.0207,0.02574,0.0207,-0.1031
-3.4,0.0002,0.02186,0.0163,-0.1069
-3.3,0.0169,0.02092,0.01522,-0.108
-3.2,0.0326,0.02078,0.01504,-0.1085
-3.1,0.05,0.01947,0.01347,-0.1098
-3,0.0682,0.01816,0.01183,-0.111
-2.9,0.0856,0.01701,0.01034,-0.112
-2.8,0.1001,0.0163,0.00947,-0.1122
-2.7,0.1131,0.01591,0.00901,-0.112
-2.6,0.1281,0.0155,0.0085,-0.1123
-2.5,0.1441,0.01505,0.00792,-0.1126
-2.4,0.1601,0.0146,0.00733,-0.113
-2.3,0.1767,0.01437,0.00707,-0.1135
-2.2,0.1931,0.01406,0.00667,-0.114
-2.1,0.205,0.01382,0.00634,-0.1135
-2,0.2192,0.01356,0.00601,-0.1135
-1.9,0.2342,0.01346,0.00593,-0.1137
-1.8,0.2498,0.01324,0.00562,-0.114
-1.7,0.2656,0.01304,0.00542,-0.1143
-1.6,0.2799,0.0129,0.00526,-0.1143
-1.5,0.2924,0.01284,0.00518,-0.1141
-1.4,0.3068,0.01271,0.00505,-0.1141
-1.3,0.3218,0.01259,0.0049,-0.1143
-1.2,0.3373,0.01247,0.00476,-0.1146
-1.1,0.3496,0.01238,0.00469,-0.1142
-1,0.3648,0.01225,0.00453,-0.1143
-0.9,0.3789,0.01213,0.00442,-0.1143
-0.8,0.3921,0.01208,0.00434,-0.1141
-0.7,0.4071,0.01198,0.00427,-0.1143
-0.6,0.4204,0.01189,0.00418,-0.1141
-0.5,0.4348,0.01179,0.00409,-0.1141
-0.4,0.449,0.01172,0.004,-0.114
-0.3,0.462,0.01167,0.00398,-0.1139
-0.2,0.4771,0.01157,0.00389,-0.114
-0.1,0.4898,0.01152,0.00386,-0.1138
0,0.5043,0.01144,0.00378,-0.1138
0.1,0.5176,0.0114,0.00376,-0.1137
0.2,0.5318,0.01129,0.00367,-0.1135
0.3,0.545,0.01125,0.00364,-0.1134
0.4,0.559,0.01119,0.0036,-0.1134
0.5,0.5724,0.01113,0.00354,-0.1131
0.6,0.586,0.01105,0.00346,-0.1129
0.7,0.5994,0.01097,0.00344,-0.1128
0.8,0.6128,0.0109,0.00338,-0.1125
0.9,0.6261,0.01083,0.00334,-0.1123
1,0.6391,0.01075,0.00333,-0.1121
1.1,0.6517,0.01063,0.00329,-0.1117
1.2,0.6551,0.00941,0.00322,-0.109
1.3,0.6676,0.00948,0.0032,-0.1085
1.4,0.6798,0.00957,0.00319,-0.108
1.5,0.6914,0.0097,0.00318,-0.1073
1.6,0.7011,0.00995,0.00318,-0.1063
1.7,0.7118,0.01016,0.00323,-0.1056
1.8,0.7221,0.0104,0.0033,-0.1048
1.9,0.7319,0.01068,0.0034,-0.104
2,0.7414,0.011,0.00353,-0.1032
2.1,0.7507,0.01134,0.00367,-0.1024
2.2,0.7582,0.01185,0.00387,-0.1014
2.3,0.7682,0.01217,0.00403,-0.1009
2.4,0.7788,0.01246,0.00419,-0.1004
2.5,0.7899,0.01272,0.00436,-0.0999
2.6,0.8013,0.01295,0.00452,-0.0995
2.7,0.8127,0.01317,0.00469,-0.0991
2.8,0.8237,0.01344,0.00491,-0.0986
2.9,0.8354,0.01364,0.00508,-0.0982
3,0.8472,0.01383,0.00525,-0.0978
3.1,0.8589,0.01403,0.00542,-0.0973
3.2,0.8707,0.01422,0.0056,-0.0969
3.3,0.8826,0.01441,0.00578,-0.0965
3.4,0.894,0.01463,0.00596,-0.096
3.5,0.9058,0.01482,0.00615,-0.0956
3.6,0.9175,0.01503,0.00634,-0.0951
3.7,0.9295,0.01521,0.00654,-0.0946
3.8,0.9411,0.01542,0.00674,-0.0941
3.9,0.9528,0.01563,0.00695,-0.0936
4,0.9645,0.01583,0.00713,-0.0931
4.1,0.9761,0.01604,0.00736,-0.0926
4.2,0.988,0.01625,0.00758,-0.092
4.3,0.9995,0.01648,0.00785,-0.0915
4.4,1.0111,0.0167,0.0081,-0.0909
4.5,1.0228,0.01693,0.00836,-0.0903
4.6,1.0341,0.01716,0.00856,-0.0897
4.7,1.0458,0.01739,0.00883,-0.0891
4.8,1.0571,0.01764,0.00911,-0.0884
4.9,1.0682,0.01792,0.00939,-0.0877
5,1.0797,0.01818,0.00971,-0.087
5.1,1.0909,0.01846,0.01004,-0.0863
5.2,1.1021,0.01871,0.01028,-0.0856
5.3,1.1133,0.01901,0.01063,-0.0849
5.4,1.1242,0.01932,0.01099,-0.0841
5.5,1.1348,0.01965,0.01134,-0.0832
5.6,1.1455,0.02001,0.01176,-0.0824
5.7,1.1561,0.02038,0.01225,-0.0815
5.8,1.1665,0.02076,0.01271,-0.0805
5.9,1.1771,0.02106,0.013,-0.0797
6,1.1873,0.02149,0.01353,-0.0788
6.1,1.1973,0.02193,0.01407,-0.0777
6.2,1.207,0.02239,0.01461,-0.0767
6.3,1.2164,0.02286,0.01515,-0.0756
6.4,1.2251,0.02337,0.01572,-0.0745
6.5,1.234,0.02397,0.01642,-0.0733
6.6,1.2427,0.02461,0.01721,-0.0721
6.7,1.2523,0.02505,0.01775,-0.0711
6.8,1.2602,0.02566,0.01847,-0.0698
6.9,1.2675,0.02629,0.01919,-0.0685
7,1.274,0.02702,0.01999,-0.0671
7.1,1.2804,0.02793,0.0211,-0.0657
7.2,1.2858,0.02889,0.02224,-0.0643
7.3,1.2904,0.02989,0.02342,-0.0628
7.4,1.2936,0.0309,0.02462,-0.0612
7.5,1.2956,0.0319,0.02578,-0.0594
7.7,1.3009,0.03322,0.02727,-0.0562
7.8,1.3007,0.03436,0.02852,-0.0545
7.9,1.2987,0.03583,0.0302,-0.0529
8,1.2956,0.03733,0.0319,-0.0514
8.1,1.2917,0.03886,0.03361,-0.05
8.2,1.287,0.04044,0.03535,-0.0487
8.3,1.2816,0.04207,0.03713,-0.0476
8.4,1.2755,0.04376,0.03896,-0.0467
8.5,1.269,0.04552,0.04085,-0.046
8.6,1.262,0.04735,0.04281,-0.0455
8.7,1.2546,0.04928,0.04485,-0.0453
8.8,1.2468,0.05131,0.04699,-0.0454
8.9,1.2387,0.05346,0.04925,-0.0459
9,1.2304,0.05575,0.05163,-0.0467
9.1,1.2218,0.05818,0.05415,-0.0479
9.2,1.213,0.06082,0.05689,-0.0496
9.3,1.2042,0.06368,0.05982,-0.0518
9.5,1.1863,0.07022,0.06651,-0.0577
9.6,1.1774,0.07399,0.07034,-0.0614
9.7,1.1686,0.07812,0.07454,-0.0656
9.9,1.1522,0.08716,0.08366,-0.0742
10,1.1447,0.09131,0.08782,-0.0776
10.1,1.1378,0.09521,0.09173,-0.0808
10.2,1.1315,0.09894,0.09546,-0.0837
10.3,1.1259,0.10248,0.099,-0.0863
10.4,1.121,0.10587,0.10238,-0.0888
10.5,1.1169,0.10911,0.10562,-0.0911
10.6,1.1135,0.1122,0.1087,-0.0932
10.7,1.1107,0.11515,0.11165,-0.0952
10.8,1.1086,0.11795,0.11445,-0.0971
10.9,1.1071,0.12063,0.11713,-0.0988
11,1.1061,0.12317,0.11968,-0.1005
11.1,1.1057,0.12557,0.12208,-0.102
11.2,1.1057,0.12784,0.12435,-0.1034
11.3,1.106,0.12999,0.1265,-0.1048
11.4,1.1067,0.132,0.12851,-0.106
11.5,1.1076,0.13391,0.13043,-0.1071
11.6,1.1088,0.13569,0.1322,-0.1081
11.9,1.0985,0.14831,0.14478,-0.1169
12,1.0987,0.15107,0.14754,-0.1186
12.1,1.0993,0.15368,0.15015,-0.1202
12.2,1.1003,0.15617,0.15264,-0.1217
12.3,1.1016,0.15854,0.15501,-0.1232
12.4,1.1032,0.1608,0.15728,-0.1246
12.5,1.105,0.16296,0.15944,-0.1259
12.6,1.107,0.16501,0.1615,-0.1271
12.7,1.1092,0.16697,0.16346,-0.1283
12.8,1.1115,0.16883,0.16533,-0.1294
12.9,1.1139,0.17059,0.16709,-0.1305
13,1.1164,0.17226,0.16877,-0.1315
13.1,1.1189,0.17385,0.17037,-0.1325
13.3,1.1192,0.18239,0.17887,-0.1383
13.4,1.1214,0.18495,0.18142,-0.1399
13.5,1.1237,0.18739,0.18387,-0.1414
13.6,1.1263,0.1897,0.18618,-0.1429
13.7,1.129,0.19192,0.18841,-0.1443
13.8,1.1319,0.19405,0.19054,-0.1456
13.9,1.1348,0.19609,0.19258,-0.1469
14,1.1379,0.19805,0.19455,-0.1482
14.1,1.141,0.19994,0.19644,-0.1494
14.2,1.1441,0.20175,0.19825,-0.1506
14.3,1.1473,0.20349,0.2,-0.1518
14.4,1.1506,0.20514,0.20165,-0.1529
14.5,1.1538,0.20674,0.20326,-0.1539
14.6,1.1569,0.20825,0.20477,-0.155
14.7,1.1596,0.21253,0.20902,-0.1576
14.8,1.1628,0.2158,0.21229,-0.1596
14.9,1.1661,0.21868,0.21517,-0.1614
15,1.1696,0.22131,0.2178,-0.1631
15.2,1.1765,0.22618,0.22267,-0.1667
15.3,1.1802,0.22822,0.22472,-0.1681
15.4,1.1838,0.23021,0.22671,-0.1694
15.5,1.1875,0.23216,0.22867,-0.1708
15.6,1.1912,0.23403,0.23054,-0.1721
15.7,1.195,0.23587,0.23238,-0.1734
15.8,1.1987,0.23765,0.23417,-0.1747
15.9,1.2024,0.2394,0.23592,-0.1759
16,1.2061,0.24107,0.23759,-0.1771
16.1,1.2097,0.24275,0.23925,-0.1784
16.2,1.214,0.24704,0.24354,-0.1809
16.3,1.2182,0.25024,0.24674,-0.1828
16.4,1.2224,0.25304,0.24956,-0.1846
16.5,1.2265,0.25566,0.25219,-0.1862
16.6,1.2307,0.25818,0.2547,-0.1878
16.7,1.2349,0.26058,0.25711,-0.1894
16.8,1.239,0.26294,0.25948,-0.191
16.9,1.2432,0.26526,0.2618,-0.1925
17,1.2474,0.26753,0.26407,-0.194
17.1,1.2516,0.26977,0.26631,-0.1956
17.2,1.2558,0.27198,0.26852,-0.1971
17.3,1.26,0.27416,0.27071,-0.1986
17.4,1.2642,0.27631,0.27287,-0.2
17.5,1.2685,0.27845,0.27501,-0.2015
17.6,1.2727,0.28057,0.27712,-0.203
17.7,1.2769,0.28267,0.27923,-0.2045
17.8,1.281,0.28472,0.28129,-0.206
17.9,1.2852,0.28679,0.28336,-0.2074
18,1.2894,0.28878,0.28536,-0.2089
18.1,1.2935,0.29081,0.28739,-0.2103
18.2,1.2976,0.29278,0.28937,-0.2118
18.3,1.3017,0.29476,0.29135,-0.2132
18.4,1.3058,0.29673,0.29332,-0.2146
18.5,1.3109,0.30067,0.29724,-0.217
18.6,1.3158,0.30404,0.30061,-0.219
18.7,1.3211,0.30808,0.30464,-0.2217
18.8,1.3255,0.31058,0.30714,-0.2234
18.9,1.33,0.31307,0.30964,-0.2251
19,1.3345,0.31552,0.31209,-0.2267
19.1,1.3389,0.31796,0.31453,-0.2284
19.2,1.3433,0.32038,0.31697,-0.23
19.3,1.3477,0.3228,0.31938,-0.2317
19.4,1.3522,0.32521,0.3218,-0.2333
19.5,1.3566,0.3276,0.3242,-0.235
19.6,1.361,0.33001,0.3266,-0.2366
19.7,1.3654,0.3324,0.329,-0.2383
19.8,1.3698,0.33478,0.33141,-0.2399
19.9,1.3741,0.33717,0.3338,-0.2416
20,1.3785,0.33956,0.3362,-0.2433
20.1,1.3829,0.34194,0.33858,-0.2449
20.2,1.3872,0.34431,0.34096,-0.2466
20.3,1.3916,0.34668,0.34333,-0.2483
20.4,1.3959,0.34907,0.34573,-0.25
20.5,1.4002,0.35146,0.34812,-0.2517
20.6,1.4045,0.35381,0.35048,-0.2533
20.7,1.4088,0.3562,0.35287,-0.255
20.8,1.4131,0.35859,0.35527,-0.2567
20.9,1.4173,0.36095,0.35764,-0.2584
21,1.4216,0.36335,0.36004,-0.2601
21.1,1.4258,0.36574,0.36244,-0.2618
21.2,1.43,0.36815,0.36485,-0.2635
21.3,1.4342,0.37056,0.36727,-0.2651
21.4,1.4383,0.37296,0.36967,-0.2668
21.5,1.4434,0.37663,0.37331,-0.2691
21.6,1.4484,0.38008,0.37677,-0.2712
21.7,1.4532,0.38341,0.3801,-0.2732
21.8,1.4578,0.38651,0.3832,-0.2752
21.9,1.4624,0.38955,0.38625,-0.2772
22,1.467,0.3925,0.3892,-0.2791
22.1,1.4715,0.3954,0.39211,-0.281
22.2,1.4759,0.39826,0.39498,-0.2829
22.3,1.4804,0.40116,0.39788,-0.2849
22.4,1.4848,0.404,0.40072,-0.2868
22.5,1.4891,0.40681,0.40354,-0.2887
22.6,1.4935,0.40964,0.40637,-0.2906
22.7,1.4979,0.41246,0.4092,-0.2925
22.8,1.5022,0.41526,0.412,-0.2944
22.9,1.5065,0.41809,0.41484,-0.2963
23,1.5108,0.4209,0.41768,-0.2983
23.1,1.5151,0.42371,0.42049,-0.3002
23.2,1.5193,0.42653,0.42332,-0.3021
23.3,1.5236,0.42936,0.42615,-0.3041
23.4,1.5278,0.43217,0.42897,-0.306
23.5,1.5321,0.43502,0.43182,-0.3079
23.6,1.5363,0.43785,0.43465,-0.3099
23.7,1.5405,0.44071,0.43752,-0.3118
23.8,1.5446,0.44355,0.44037,-0.3138
23.9,1.5488,0.44641,0.44324,-0.3157
24,1.553,0.44928,0.44611,-0.3177
24.1,1.5571,0.45214,0.44898,-0.3197
24.2,1.5612,0.45504,0.45189,-0.3216
24.3,1.5653,0.45792,0.45477,-0.3236
24.4,1.5695,0.46084,0.4577,-0.3256
24.5,1.5735,0.46375,0.46062,-0.3276
24.6,1.5776,0.46667,0.46354,-0.3296
24.8,1.5855,0.47159,0.46848,-0.3338
24.9,1.5895,0.47452,0.47142,-0.3358
25,1.5935,0.47745,0.47435,-0.3378
25.1,1.5975,0.48039,0.4773,-0.3398
25.2,1.6015,0.48335,0.48027,-0.3419
25.3,1.6054,0.48632,0.48324,-0.3439
25.4,1.6094,0.48931,0.48624,-0.3459
25.5,1.6133,0.49229,0.48923,-0.348
25.6,1.6172,0.4953,0.49225,-0.35
25.7,1.621,0.49834,0.49529,-0.3521
25.8,1.6249,0.50138,0.49834,-0.3541
25.9,1.6287,0.50444,0.5014,-0.3562
26,1.6326,0.50753,0.50453,-0.3582
26.1,1.6363,0.51062,0.50762,-0.3603
26.2,1.6402,0.51377,0.51078,-0.3624
26.3,1.6439,0.51691,0.51392,-0.3644
26.4,1.6477,0.5201,0.51713,-0.3665
26.5,1.6514,0.52335,0.52038,-0.3686
26.6,1.6551,0.52659,0.52363,-0.3706
26.7,1.6603,0.53071,0.52772,-0.3735
26.8,1.6646,0.53438,0.5314,-0.376
26.9,1.6689,0.53799,0.53501,-0.3784
27,1.6731,0.54151,0.53854,-0.3808
27.1,1.677,0.54489,0.54192,-0.3831
27.2,1.681,0.54827,0.54531,-0.3855
27.3,1.6849,0.55163,0.54868,-0.3878
27.4,1.6888,0.55496,0.55201,-0.3901
27.5,1.6926,0.55827,0.55533,-0.3924
27.6,1.6965,0.56157,0.55864,-0.3948
27.7,1.7003,0.56486,0.56194,-0.3971
27.8,1.7041,0.56823,0.56531,-0.3994
27.9,1.7078,0.57149,0.56858,-0.4017
28,1.7115,0.57482,0.57192,-0.4041
28.1,1.7152,0.57817,0.57527,-0.4064
28.2,1.7189,0.58146,0.57857,-0.4087
28.3,1.7225,0.5848,0.58192,-0.411
28.4,1.7262,0.5882,0.58532,-0.4134
28.5,1.7298,0.59154,0.58867,-0.4157
28.6,1.7334,0.59494,0.59207,-0.4181
28.7,1.7369,0.59834,0.59548,-0.4204
28.8,1.7405,0.60177,0.59891,-0.4227
28.9,1.744,0.60522,0.60238,-0.4251
29,1.7475,0.60863,0.6058,-0.4274
29.1,1.751,0.6121,0.60927,-0.4298
29.2,1.7544,0.61563,0.61283,-0.4321
29.3,1.7579,0.61914,0.61634,-0.4345
29.4,1.7613,0.62268,0.61989,-0.4369
29.5,1.7647,0.62621,0.62343,-0.4392
29.6,1.7681,0.62974,0.62697,-0.4416
29.7,1.7714,0.63332,0.63056,-0.444
29.8,1.7747,0.63691,0.63416,-0.4463
29.9,1.7781,0.64055,0.6378,-0.4487
30,1.7814,0.64425,0.64151,-0.4511

