airfoilName st2.dat
Re 	430000
M 	5.000000e-01
N 	4.500000e+00
VACC 	0 VACCflag 1
XTR 	1.00 	1.00 XTRflag 0
alpha,cl,cd,cdp,cm
-7.7,-1.0626,0.0151,0.00579,-0.0306
-7.4,-1.0052,0.0146,0.00539,-0.0309
-7.3,-0.9863,0.01443,0.00526,-0.031
-7.2,-0.9673,0.01427,0.00513,-0.0311
-7.1,-0.9484,0.01413,0.00502,-0.0312
-7,-0.9295,0.014,0.0049,-0.0313
-6.9,-0.9132,0.01484,0.00529,-0.0305
-6.7,-0.877,0.01471,0.00511,-0.0306
-6.6,-0.8587,0.01457,0.00501,-0.0307
-6.5,-0.8404,0.01449,0.00493,-0.0308
-6.4,-0.8222,0.01442,0.00485,-0.0309
-6.3,-0.8038,0.01435,0.00478,-0.031
-6.2,-0.7861,0.01439,0.00473,-0.031
-6,-0.7495,0.0142,0.00456,-0.0313
-5.9,-0.7312,0.01408,0.00448,-0.0315
-5.8,-0.7129,0.01398,0.00441,-0.0316
-5.7,-0.6947,0.0139,0.00434,-0.0318
-5.6,-0.6765,0.01384,0.00428,-0.0319
-5.4,-0.6401,0.01372,0.00414,-0.0323
-5.3,-0.6223,0.01364,0.00409,-0.0325
-5.2,-0.6045,0.01359,0.00404,-0.0326
-5.1,-0.5865,0.01352,0.00399,-0.0328
-5,-0.5685,0.01346,0.00393,-0.033
-4.9,-0.5505,0.01342,0.00389,-0.0331
-4.8,-0.5323,0.01338,0.00383,-0.0335
-4.7,-0.5144,0.01327,0.00377,-0.0336
-4.6,-0.4964,0.01318,0.00372,-0.0339
-4.5,-0.4785,0.01311,0.00367,-0.0341
-4.4,-0.4606,0.01305,0.00363,-0.0343
-4.3,-0.4427,0.013,0.00359,-0.0345
-4.2,-0.4248,0.01297,0.00356,-0.0347
-4.1,-0.4073,0.01299,0.00353,-0.0349
-4,-0.3894,0.0129,0.00349,-0.0352
-3.9,-0.3716,0.01281,0.00345,-0.0354
-3.8,-0.3538,0.01275,0.00342,-0.0356
-3.7,-0.336,0.01272,0.00339,-0.0359
-3.6,-0.3183,0.0127,0.00337,-0.0361
-3.3,-0.2653,0.01257,0.00328,-0.0369
-3.2,-0.2477,0.01254,0.00327,-0.0371
-3.1,-0.2301,0.01251,0.00325,-0.0374
-3,-0.2126,0.01252,0.00324,-0.0376
-2.9,-0.1951,0.01252,0.00322,-0.0379
-2.8,-0.1776,0.01249,0.00321,-0.0381
-2.7,-0.1603,0.01249,0.00321,-0.0383
-2.6,-0.1428,0.01247,0.00321,-0.0386
-2.5,-0.1258,0.01254,0.00323,-0.0388
-2.4,-0.1084,0.01256,0.00323,-0.039
-2.3,-0.0912,0.01261,0.00322,-0.0393
-2.2,-0.0741,0.01261,0.00323,-0.0395
-2.1,-0.0572,0.01267,0.00325,-0.0398
-2,-0.0404,0.01277,0.00329,-0.04
-1.9,-0.0239,0.01293,0.00333,-0.0402
-1.6,0.022,0.01407,0.00367,-0.041
-1.5,0.0389,0.01419,0.00371,-0.0413
-1.4,0.0562,0.01426,0.00373,-0.0417
-1.3,0.0735,0.01435,0.00378,-0.042
-1.2,0.0911,0.01439,0.00377,-0.0423
-1.1,0.1085,0.01441,0.0038,-0.0426
-1,0.1259,0.01443,0.00383,-0.0429
-0.9,0.1434,0.01448,0.00386,-0.0432
-0.8,0.1609,0.01454,0.00388,-0.0435
-0.7,0.1784,0.01462,0.00392,-0.0439
-0.6,0.1958,0.01465,0.00395,-0.0442
-0.5,0.2134,0.01474,0.00398,-0.0446
-0.4,0.2309,0.01483,0.00403,-0.0449
-0.3,0.2484,0.01486,0.00408,-0.0452
-0.2,0.2661,0.01492,0.00411,-0.0455
-0.1,0.2837,0.01497,0.00415,-0.0458
0,0.3014,0.01502,0.00419,-0.0462
0.1,0.3191,0.01509,0.00424,-0.0465
0.2,0.3368,0.01515,0.00429,-0.0469
0.3,0.3545,0.01526,0.00435,-0.0472
0.4,0.3722,0.01535,0.0044,-0.0475
0.5,0.3899,0.01545,0.00447,-0.0479
0.6,0.4076,0.01557,0.00455,-0.0482
0.7,0.4253,0.01572,0.00464,-0.0486
0.8,0.443,0.01582,0.00473,-0.0489
0.9,0.4608,0.0159,0.00478,-0.0492
1,0.4787,0.01596,0.00485,-0.0496
1.1,0.4967,0.01603,0.00493,-0.05
1.2,0.5146,0.01614,0.00501,-0.0503
1.3,0.5324,0.01627,0.0051,-0.0506
1.4,0.5503,0.01639,0.00519,-0.051
1.5,0.5683,0.01652,0.00529,-0.0513
1.6,0.5862,0.01666,0.0054,-0.0516
1.7,0.6041,0.01682,0.00552,-0.052
1.8,0.622,0.01698,0.00564,-0.0523
1.9,0.6399,0.01713,0.00575,-0.0527

