airfoilName st2.dat
Re 	370000
M 	5.000000e-01
N 	4.500000e+00
VACC 	0 VACCflag 1
XTR 	1.00 	1.00 XTRflag 0
alpha,cl,cd,cdp,cm
-8.1,-1.1429,0.01623,0.00654,-0.0301
-7.6,-1.0464,0.01539,0.00581,-0.0305
-7.5,-1.0273,0.01521,0.00567,-0.0305
-7.4,-1.0082,0.01505,0.00554,-0.0306
-7.3,-0.9891,0.01491,0.00541,-0.0307
-7.2,-0.97,0.01479,0.00529,-0.0308
-6.8,-0.8945,0.01413,0.00479,-0.0313
-6.7,-0.8757,0.01399,0.00467,-0.0315
-6.6,-0.8569,0.01387,0.00456,-0.0316
-6.5,-0.8381,0.01376,0.00446,-0.0317
-6,-0.7485,0.01425,0.00455,-0.0316
-5.9,-0.7305,0.0142,0.00448,-0.0317
-5.8,-0.7125,0.01418,0.00443,-0.0318
-5.7,-0.6941,0.01412,0.00434,-0.032
-5.6,-0.6761,0.01401,0.00427,-0.0321
-5.5,-0.6581,0.01392,0.0042,-0.0323
-5.4,-0.6402,0.01385,0.00413,-0.0324
-5.3,-0.6223,0.01379,0.00408,-0.0325
-5.2,-0.6045,0.01377,0.00404,-0.0327
-5.1,-0.5864,0.01373,0.00398,-0.0329
-5,-0.569,0.01373,0.00395,-0.033
-4.9,-0.551,0.01363,0.00388,-0.0332
-4.8,-0.533,0.01355,0.00383,-0.0334
-4.7,-0.515,0.01348,0.00378,-0.0336
-4.6,-0.4971,0.01342,0.00373,-0.0338
-4.5,-0.4792,0.01338,0.00368,-0.034
-4.4,-0.4611,0.01337,0.00362,-0.0343
-4.3,-0.4435,0.01329,0.00358,-0.0345
-4.1,-0.4078,0.01313,0.00351,-0.0349
-4,-0.3899,0.01308,0.00347,-0.0352
-3.9,-0.3724,0.01308,0.00345,-0.0354
-3.8,-0.3545,0.01307,0.0034,-0.0357
-3.7,-0.3369,0.01301,0.00336,-0.0359
-3.6,-0.3194,0.01296,0.00335,-0.0361
-3.5,-0.3016,0.0129,0.00332,-0.0363
-3.4,-0.2838,0.01285,0.00329,-0.0366
-3.3,-0.2661,0.01282,0.00327,-0.0368
-3.2,-0.2482,0.0128,0.00322,-0.0371
-3.1,-0.2307,0.01275,0.0032,-0.0374
-3,-0.2133,0.01273,0.00318,-0.0376
-2.9,-0.1957,0.01269,0.00319,-0.0378
-2.8,-0.1781,0.01267,0.00318,-0.0381
-2.7,-0.161,0.01272,0.00319,-0.0383
-2.6,-0.1432,0.01272,0.00316,-0.0386
-2.5,-0.1261,0.01272,0.00317,-0.0388
-2.4,-0.1088,0.01269,0.00318,-0.0391
-2.3,-0.0915,0.0127,0.00318,-0.0393
-2.2,-0.0743,0.01274,0.00319,-0.0395
-2.1,-0.057,0.01278,0.0032,-0.0397
-2,-0.0398,0.01283,0.0032,-0.04
-1.9,-0.0229,0.01288,0.00322,-0.0402
-1.8,-0.0061,0.01295,0.00325,-0.0405
-1.7,0.0105,0.01308,0.00329,-0.0407
-1.6,0.0267,0.01327,0.00336,-0.0409
-1.4,0.0557,0.01428,0.00364,-0.0414
-1.3,0.0723,0.01446,0.00371,-0.0417
-1.2,0.0895,0.01454,0.00374,-0.0421
-1.1,0.1068,0.01462,0.00377,-0.0424
-1,0.124,0.01473,0.00383,-0.0427
-0.9,0.1416,0.01478,0.00383,-0.043
-0.8,0.159,0.0148,0.00386,-0.0433
-0.7,0.1765,0.01482,0.00389,-0.0437
-0.6,0.194,0.01488,0.00392,-0.044
-0.5,0.2115,0.01496,0.00396,-0.0443
-0.4,0.2291,0.01503,0.00399,-0.0447
-0.2,0.2639,0.01519,0.00409,-0.0453
-0.1,0.2814,0.0153,0.00415,-0.0456
0,0.299,0.01537,0.00421,-0.0459
0.1,0.3167,0.01541,0.00424,-0.0463
0.2,0.3343,0.01546,0.00429,-0.0466
0.3,0.352,0.01552,0.00435,-0.047
0.4,0.3697,0.01561,0.00441,-0.0473
0.6,0.4051,0.01581,0.00454,-0.0479
0.7,0.4229,0.01591,0.00461,-0.0483
0.8,0.4406,0.01603,0.00469,-0.0486
0.9,0.4584,0.01615,0.00478,-0.049
1.1,0.4938,0.01646,0.00498,-0.0497
1.2,0.5117,0.01655,0.00507,-0.05
1.3,0.5296,0.01664,0.00516,-0.0504
1.4,0.5475,0.01675,0.00525,-0.0507
1.5,0.5654,0.01686,0.00534,-0.051
1.6,0.5833,0.01698,0.00543,-0.0513
1.7,0.6013,0.01709,0.00554,-0.0517
1.8,0.6192,0.01724,0.00566,-0.052
1.9,0.6371,0.0174,0.00578,-0.0524
2,0.655,0.01756,0.0059,-0.0527
2.1,0.6729,0.01769,0.00602,-0.053

