airfoilName st3.dat
Re 	810000
M 	5.000000e-01
N 	4.500000e+00
VACC 	0 VACCflag 1
XTR 	1.00 	1.00 XTRflag 0
alpha,cl,cd,cdp,cm
-12.9,-1.9937,0.02682,0.02311,-0.0567
-12.8,-1.9774,0.02523,0.02105,-0.0593
-12.6,-1.9387,0.02292,0.01788,-0.0615
-12.5,-1.9171,0.0221,0.0167,-0.0617
-12.4,-1.8945,0.02149,0.01582,-0.0615
-12.3,-1.8716,0.02102,0.01515,-0.0611
-12.2,-1.8487,0.02059,0.01455,-0.0605
-12.1,-1.8259,0.02021,0.01402,-0.06
-12,-1.8032,0.01986,0.01354,-0.0594
-11.9,-1.7806,0.01954,0.0131,-0.0588
-11.8,-1.7582,0.01924,0.0127,-0.0581
-11.7,-1.736,0.01897,0.01234,-0.0575
-11.6,-1.714,0.01871,0.01199,-0.0569
-11.5,-1.6921,0.01845,0.01168,-0.0563
-11.4,-1.6705,0.01822,0.01141,-0.0558
-11.3,-1.6491,0.01799,0.01115,-0.0552
-11.2,-1.6278,0.01777,0.0109,-0.0546
-11.1,-1.6066,0.01756,0.01065,-0.0541
-11,-1.5856,0.01735,0.01041,-0.0536
-10.7,-1.5234,0.0168,0.00975,-0.0522
-10.6,-1.5028,0.01659,0.00954,-0.0517
-10.5,-1.4826,0.01644,0.00935,-0.0514
-10.4,-1.4624,0.01627,0.00917,-0.051
-10.3,-1.4422,0.01609,0.00899,-0.0506
-10.2,-1.4222,0.01592,0.0088,-0.0503
-10.1,-1.4023,0.01576,0.00863,-0.0499
-10,-1.3824,0.0156,0.00846,-0.0496
-9.9,-1.3627,0.01544,0.00829,-0.0492
-9.8,-1.348,0.0159,0.00836,-0.0478
-9.6,-1.3101,0.01569,0.00806,-0.0471
-9.5,-1.2912,0.01558,0.00791,-0.0468
-9.4,-1.2722,0.01547,0.00777,-0.0465
-9.3,-1.2532,0.01537,0.00764,-0.0462
-9.2,-1.2343,0.01527,0.00751,-0.0459
-9,-1.1966,0.01507,0.00723,-0.0455
-8.9,-1.1781,0.01499,0.00711,-0.0453
-8.8,-1.1593,0.01487,0.00699,-0.0451
-8.7,-1.1407,0.01476,0.00687,-0.0449
-8.6,-1.122,0.01465,0.00675,-0.0447
-8.5,-1.1035,0.01455,0.00663,-0.0445
-8.4,-1.085,0.01445,0.00652,-0.0444
-8.3,-1.0665,0.01436,0.0064,-0.0443
-8.2,-1.0482,0.01423,0.00629,-0.0442
-8.1,-1.0298,0.01412,0.00619,-0.0441
-8,-1.0115,0.01402,0.00608,-0.0439
-7.9,-0.9933,0.01392,0.00598,-0.0438
-7.8,-0.9751,0.01383,0.00588,-0.0438
-7.7,-0.957,0.01376,0.00578,-0.0437
-7.6,-0.9389,0.01363,0.00568,-0.0436
-7.5,-0.9209,0.01354,0.00558,-0.0436
-7.4,-0.903,0.01344,0.0055,-0.0435
-7.3,-0.8851,0.01336,0.00541,-0.0435
-7.2,-0.8672,0.01328,0.00533,-0.0434
-7.1,-0.8494,0.0132,0.00524,-0.0434
-7,-0.8318,0.01313,0.00516,-0.0434
-6.9,-0.8142,0.01306,0.00508,-0.0434
-6.8,-0.7965,0.01297,0.005,-0.0434
-6.7,-0.7788,0.01289,0.00493,-0.0434
-6.6,-0.7612,0.01281,0.00485,-0.0434
-6.5,-0.7438,0.01277,0.00478,-0.0434
-6.4,-0.7263,0.01268,0.00471,-0.0434
-6.3,-0.7088,0.01259,0.00464,-0.0435
-6.2,-0.6913,0.01251,0.00457,-0.0435
-6.1,-0.6739,0.01243,0.00451,-0.0435
-6,-0.6566,0.01238,0.00445,-0.0436
-5.9,-0.6392,0.01233,0.00439,-0.0436
-5.8,-0.6221,0.01228,0.00432,-0.0437
-5.7,-0.6048,0.01218,0.00426,-0.0438
-5.6,-0.5875,0.01211,0.00421,-0.0438
-5.5,-0.5703,0.01205,0.00415,-0.0439
-5.4,-0.5531,0.012,0.0041,-0.044
-5.3,-0.536,0.01194,0.00404,-0.0441
-5.2,-0.5189,0.01187,0.00399,-0.0442
-5.1,-0.5018,0.01181,0.00394,-0.0443
-5,-0.4848,0.01176,0.0039,-0.0444
-4.9,-0.4678,0.01172,0.00385,-0.0445
-4.8,-0.4507,0.01166,0.0038,-0.0446
-4.7,-0.4337,0.01159,0.00376,-0.0447
-4.6,-0.4168,0.01154,0.00371,-0.0448
-4.5,-0.3999,0.0115,0.00368,-0.0449
-4.4,-0.383,0.01146,0.00364,-0.045
-4.3,-0.3661,0.01142,0.0036,-0.0452
-4.2,-0.3491,0.01134,0.00356,-0.0453
-4.1,-0.3322,0.01129,0.00352,-0.0455
-4,-0.3154,0.01126,0.00349,-0.0456
-3.9,-0.2988,0.01126,0.00347,-0.0457
-3.8,-0.282,0.01123,0.00343,-0.0459
-3.7,-0.2652,0.01117,0.0034,-0.0461
-3.6,-0.2485,0.01114,0.00337,-0.0462
-3.5,-0.2318,0.01111,0.00334,-0.0464
-3.4,-0.2151,0.01109,0.00332,-0.0465
-3.3,-0.1985,0.01107,0.0033,-0.0467
-3.2,-0.182,0.01107,0.00328,-0.0469
-3.1,-0.1653,0.01105,0.00326,-0.047
-3,-0.1487,0.01103,0.00325,-0.0472
-2.9,-0.1322,0.01104,0.00323,-0.0474
-2.8,-0.1158,0.01105,0.00322,-0.0476
-2.7,-0.0993,0.01105,0.00322,-0.0477
-2.6,-0.0828,0.01105,0.00321,-0.0479
-2.5,-0.0665,0.01108,0.00321,-0.0481
-2.4,-0.0501,0.01111,0.00321,-0.0483
-2.3,-0.0337,0.01113,0.00321,-0.0485
-2.2,-0.0175,0.01117,0.00321,-0.0487
-2.1,-0.0014,0.01125,0.00323,-0.0489
-2,0.0146,0.01137,0.00326,-0.0491
-1.8,0.0448,0.01199,0.00346,-0.0496
-1.7,0.061,0.01206,0.00349,-0.0498
-1.6,0.0773,0.01213,0.00351,-0.05
-1.5,0.0937,0.01215,0.00351,-0.0503
-1.4,0.1101,0.01218,0.00353,-0.0505
-1.3,0.1266,0.01219,0.00354,-0.0507
-1.2,0.1431,0.01221,0.00356,-0.0509
-1.1,0.1596,0.01223,0.00357,-0.0511
-1,0.1761,0.01225,0.00357,-0.0513
-0.9,0.1926,0.01226,0.00359,-0.0516
-0.8,0.2091,0.01228,0.00361,-0.0518
-0.7,0.2255,0.01232,0.00363,-0.052
-0.6,0.2421,0.01234,0.00364,-0.0523
-0.5,0.2586,0.01235,0.00366,-0.0525
-0.4,0.2752,0.01236,0.00368,-0.0527
-0.3,0.2916,0.0124,0.0037,-0.0529
-0.2,0.3081,0.01243,0.00372,-0.0531
-0.1,0.3248,0.01243,0.00373,-0.0534
0,0.3413,0.01247,0.00376,-0.0536
0.1,0.3578,0.01252,0.00379,-0.0538
0.2,0.3743,0.01257,0.00382,-0.054
0.3,0.391,0.01258,0.00384,-0.0543
0.4,0.4076,0.0126,0.00387,-0.0545
0.5,0.4242,0.01262,0.00389,-0.0547
0.6,0.4409,0.01265,0.00392,-0.055
0.7,0.4576,0.01268,0.00395,-0.0552
0.8,0.4742,0.01272,0.00398,-0.0554
0.9,0.4908,0.01277,0.00402,-0.0556
1,0.5074,0.01284,0.00405,-0.0558
1.1,0.5242,0.01288,0.00408,-0.0561
1.2,0.5408,0.01295,0.00413,-0.0563
1.3,0.5575,0.01298,0.00417,-0.0565
1.4,0.5743,0.01302,0.00421,-0.0567
1.5,0.5911,0.01306,0.00425,-0.0569
1.6,0.6079,0.0131,0.00429,-0.0572
1.7,0.6247,0.01316,0.00434,-0.0574
1.8,0.6416,0.0132,0.00437,-0.0576
1.9,0.6585,0.01325,0.00442,-0.0578
2,0.6754,0.01332,0.00448,-0.058
2.1,0.6922,0.0134,0.00453,-0.0582
2.2,0.7091,0.01348,0.00458,-0.0584
2.3,0.7261,0.01355,0.00464,-0.0586
2.4,0.743,0.01361,0.00471,-0.0589
2.5,0.76,0.01367,0.00476,-0.0591
2.6,0.7771,0.01373,0.00482,-0.0593
2.7,0.7942,0.0138,0.00488,-0.0595
2.8,0.8113,0.01387,0.00495,-0.0596
2.9,0.8284,0.01395,0.00502,-0.0598
3,0.8457,0.01402,0.00508,-0.06
3.1,0.8628,0.0141,0.00515,-0.0602
3.2,0.8801,0.0142,0.00523,-0.0604
3.3,0.8973,0.0143,0.00531,-0.0606
3.4,0.9145,0.0144,0.00539,-0.0608
3.5,0.9318,0.0145,0.00547,-0.061
3.6,0.949,0.01458,0.00556,-0.0611
3.7,0.9665,0.01471,0.00566,-0.0613
3.9,1.0015,0.01488,0.00583,-0.0617
4,1.0189,0.01497,0.00592,-0.0618
4.1,1.0365,0.01508,0.00602,-0.0619
4.2,1.054,0.01519,0.00612,-0.0621
4.3,1.0718,0.01529,0.00622,-0.0623
4.4,1.0894,0.01541,0.00633,-0.0624
4.5,1.1071,0.01554,0.00644,-0.0626
4.6,1.1247,0.01566,0.00655,-0.0627
4.8,1.1601,0.0159,0.00677,-0.0629
4.9,1.178,0.01607,0.00691,-0.0631
5,1.196,0.01623,0.00705,-0.0632
5.1,1.2139,0.01637,0.00718,-0.0633
5.2,1.2319,0.01649,0.00731,-0.0634
5.3,1.2499,0.01662,0.00745,-0.0635
5.4,1.2679,0.01675,0.00758,-0.0636
5.5,1.2859,0.01688,0.00771,-0.0637
5.6,1.3042,0.017,0.00785,-0.0638

