airfoilName st3.dat
Re 	9.700000e+05
M 	5.000000e-01
N 	4.500000e+00
VACC 	0 VACCflag 1
XTR 	1.00 	1.00 XTRflag 0
alpha,cl,cd,cdp,cm
-18.7,-2.497,0.1768,0.17513,0.2249
-18.6,-2.4908,0.1738,0.17213,0.2224
-18.5,-2.484,0.1714,0.16973,0.2206
-18.4,-2.4771,0.16898,0.16731,0.2187
-18.3,-2.4702,0.16654,0.16487,0.2168
-18.2,-2.4633,0.16409,0.16241,0.2149
-18.1,-2.4564,0.1616,0.15993,0.2129
-18,-2.4496,0.15909,0.15741,0.2108
-17.9,-2.4429,0.15653,0.15484,0.2087
-17.7,-2.4296,0.15122,0.14953,0.2043
-17.6,-2.4233,0.14843,0.14674,0.2019
-17.5,-2.4174,0.14543,0.14374,0.1992
-17.4,-2.4123,0.14212,0.14042,0.1962
-17.3,-2.4048,0.13985,0.13816,0.1943
-17.2,-2.3974,0.13757,0.13588,0.1923
-17.1,-2.39,0.13527,0.13357,0.1903
-17,-2.3826,0.13294,0.13124,0.1883
-16.9,-2.3753,0.13058,0.12888,0.1862
-16.8,-2.368,0.12818,0.12648,0.184
-16.7,-2.3609,0.12573,0.12403,0.1817
-16.6,-2.3539,0.1232,0.1215,0.1793
-16.5,-2.3472,0.1206,0.11889,0.1767
-16.4,-2.3409,0.11782,0.11611,0.1739
-16.3,-2.3364,0.11437,0.11265,0.1701
-16.2,-2.3284,0.11228,0.11057,0.1681
-16.1,-2.3205,0.11019,0.10848,0.1659
-16,-2.3127,0.10809,0.10637,0.1637
-15.9,-2.3049,0.10597,0.10425,0.1614
-15.8,-2.2973,0.10383,0.10211,0.159
-15.7,-2.2898,0.10167,0.09995,0.1565
-15.6,-2.2826,0.09945,0.09773,0.1538
-15.5,-2.2757,0.09717,0.09544,0.1509
-15.4,-2.2694,0.09475,0.09302,0.1476
-15.3,-2.2648,0.09189,0.09016,0.1435
-15.2,-2.2577,0.08989,0.08816,0.1405
-15.1,-2.2497,0.08822,0.08649,0.138
-15,-2.2418,0.08655,0.08482,0.1354
-14.9,-2.2341,0.08487,0.08314,0.1327
-14.8,-2.2264,0.08317,0.08143,0.1297
-14.7,-2.2189,0.08141,0.07968,0.1265
-14.6,-2.2115,0.07955,0.07781,0.1229
-14.5,-2.2047,0.07735,0.07562,0.1185
-14.4,-2.1999,0.07445,0.07272,0.1121
-14.3,-2.19,0.07292,0.07118,0.1089
-14.2,-2.1801,0.07132,0.06959,0.1054
-14.1,-2.1704,0.06966,0.06793,0.1016
-14,-2.161,0.06794,0.0662,0.0975
-13.9,-2.152,0.06613,0.06439,0.0928
-13.8,-2.1436,0.06413,0.06239,0.0873
-13.7,-2.1384,0.06133,0.05959,0.0786
-13.6,-2.1291,0.05953,0.0578,0.0727
-13.5,-2.1184,0.05792,0.05619,0.0672
-13.4,-2.1077,0.05606,0.05433,0.0604
-13.1,-2.0354,0.02721,0.0239,-0.0573
-13,-2.0202,0.02556,0.02182,-0.0603
-12.9,-2.0028,0.0242,0.02002,-0.062
-12.8,-1.9832,0.02308,0.01849,-0.0629
-12.7,-1.962,0.02217,0.0172,-0.0633
-12.6,-1.9396,0.02144,0.01614,-0.0633
-12.5,-1.9166,0.02084,0.01526,-0.063
-12.4,-1.8933,0.02034,0.01452,-0.0625
-12.3,-1.8699,0.01991,0.0139,-0.062
-12.2,-1.8466,0.01953,0.01337,-0.0613
-12.1,-1.8236,0.01921,0.01295,-0.0606
-12,-1.8008,0.01891,0.01257,-0.0599
-11.9,-1.7782,0.01863,0.01222,-0.0592
-11.8,-1.7558,0.01837,0.01189,-0.0585
-11.7,-1.7336,0.01812,0.01159,-0.0579
-11.6,-1.7117,0.01789,0.01131,-0.0572
-11.5,-1.6899,0.01767,0.01104,-0.0566
-11.4,-1.6683,0.01745,0.01078,-0.056
-11.3,-1.6468,0.01724,0.01053,-0.0554
-11.2,-1.6255,0.01702,0.0103,-0.0549
-11.1,-1.6045,0.01683,0.01009,-0.0543
-11,-1.5836,0.01666,0.00988,-0.0539
-10.9,-1.5628,0.01647,0.00968,-0.0534
-10.8,-1.5421,0.01629,0.00948,-0.0529
-10.7,-1.5215,0.01612,0.00929,-0.0524
-10.5,-1.4878,0.01648,0.00915,-0.0502
-10.4,-1.4679,0.01636,0.00898,-0.0497
-10.3,-1.4481,0.01625,0.00882,-0.0494
-10.2,-1.4283,0.01612,0.00866,-0.049
-10.1,-1.4085,0.01599,0.0085,-0.0486
-10,-1.3888,0.01586,0.00835,-0.0482
-9.9,-1.3692,0.01573,0.00819,-0.0479
-9.8,-1.3497,0.01562,0.00805,-0.0476
-9.7,-1.3303,0.0155,0.00791,-0.0472
-9.6,-1.3109,0.01539,0.00777,-0.0469
-9.5,-1.2916,0.01527,0.00762,-0.0467
-9.4,-1.2724,0.01514,0.00749,-0.0465
-9.3,-1.2534,0.01504,0.00736,-0.0462
-9.2,-1.2343,0.01491,0.00723,-0.046
-9.1,-1.2154,0.01482,0.00711,-0.0458
-9,-1.1965,0.01472,0.00699,-0.0455
-8.9,-1.1776,0.01461,0.00687,-0.0453
-8.8,-1.1588,0.0145,0.00675,-0.0452
-8.7,-1.1401,0.01436,0.00663,-0.045
-8.6,-1.1214,0.01425,0.00651,-0.0448
-8.5,-1.1028,0.01414,0.0064,-0.0447
-8.4,-1.0843,0.01404,0.0063,-0.0445
-8.3,-1.0659,0.01395,0.00619,-0.0444
-8.2,-1.0475,0.01386,0.0061,-0.0443
-8.1,-1.0291,0.01374,0.00599,-0.0442
-8,-1.0108,0.01363,0.00588,-0.0441
-7.9,-0.9925,0.01352,0.00579,-0.044
-7.8,-0.9743,0.01342,0.00569,-0.0439
-7.7,-0.9562,0.01333,0.0056,-0.0438
-7.6,-0.9383,0.01327,0.00552,-0.0438
-7.5,-0.9203,0.0132,0.00543,-0.0437
-7.4,-0.9023,0.01309,0.00534,-0.0437
-7.3,-0.8843,0.01298,0.00525,-0.0436
-7.2,-0.8665,0.0129,0.00517,-0.0436
-7.1,-0.8488,0.01285,0.0051,-0.0436
-7,-0.8311,0.01277,0.00502,-0.0435
-6.9,-0.8134,0.01271,0.00495,-0.0435
-6.8,-0.7956,0.01261,0.00487,-0.0435
-6.7,-0.778,0.01253,0.00479,-0.0435
-6.6,-0.7604,0.01245,0.00472,-0.0435
-6.5,-0.7428,0.01237,0.00465,-0.0436
-6.4,-0.7253,0.0123,0.00459,-0.0436
-6.3,-0.7078,0.01224,0.00452,-0.0436
-6.2,-0.6904,0.01215,0.00445,-0.0437
-6.1,-0.6731,0.01209,0.00439,-0.0437
-6,-0.6557,0.01203,0.00434,-0.0437
-5.9,-0.6384,0.01196,0.00428,-0.0438
-5.8,-0.6211,0.0119,0.00422,-0.0438
-5.7,-0.6039,0.01187,0.00417,-0.0439
-5.6,-0.5867,0.01178,0.0041,-0.044
-5.5,-0.5694,0.01171,0.00405,-0.0441
-5.4,-0.5522,0.01165,0.004,-0.0442
-5.3,-0.5351,0.01159,0.00395,-0.0442
-5.2,-0.5179,0.01154,0.00391,-0.0443
-5.1,-0.501,0.0115,0.00386,-0.0444
-5,-0.4839,0.01144,0.00381,-0.0445
-4.9,-0.4669,0.01138,0.00377,-0.0446
-4.8,-0.4498,0.01133,0.00373,-0.0447
-4.7,-0.4328,0.01128,0.00369,-0.0448
-4.6,-0.4159,0.01124,0.00364,-0.045
-4.5,-0.3989,0.01118,0.0036,-0.0451
-4.4,-0.382,0.01113,0.00356,-0.0452
-4.3,-0.3651,0.0111,0.00353,-0.0454
-4.2,-0.3483,0.01106,0.0035,-0.0455
-4.1,-0.3315,0.01105,0.00347,-0.0456
-4,-0.3147,0.01099,0.00343,-0.0458
-3.9,-0.2979,0.01096,0.0034,-0.0459
-3.8,-0.2811,0.01092,0.00337,-0.0461
-3.7,-0.2644,0.01089,0.00335,-0.0462
-3.6,-0.2476,0.01087,0.00332,-0.0464
-3.5,-0.231,0.01085,0.00329,-0.0465
-3.4,-0.2143,0.01081,0.00327,-0.0467
-3.3,-0.1978,0.01083,0.00326,-0.0469
-3.2,-0.1812,0.01082,0.00325,-0.047
-3.1,-0.1646,0.01081,0.00322,-0.0472
-3,-0.1482,0.01084,0.00322,-0.0474
-2.9,-0.1316,0.01083,0.00321,-0.0475
-2.8,-0.1152,0.01085,0.0032,-0.0477
-2.7,-0.0987,0.01086,0.0032,-0.0479
-2.6,-0.0823,0.01088,0.00319,-0.0481
-2.5,-0.066,0.01091,0.00319,-0.0483
-2.4,-0.0497,0.01096,0.0032,-0.0485
-2.3,-0.0336,0.01105,0.00322,-0.0487
-2.2,-0.0177,0.01119,0.00326,-0.0489
-2.1,-0.0033,0.01168,0.00341,-0.0492
-2,0.013,0.01174,0.00344,-0.0494
-1.9,0.0294,0.01176,0.00345,-0.0496
-1.8,0.0457,0.01183,0.00346,-0.0498
-1.7,0.0621,0.01187,0.00347,-0.05
-1.6,0.0787,0.01187,0.00349,-0.0503
-1.5,0.0952,0.01187,0.00349,-0.0505
-1.4,0.1117,0.01188,0.0035,-0.0507
-1.3,0.1282,0.01189,0.00351,-0.0509
-1.2,0.1447,0.0119,0.00351,-0.0512
-1.1,0.1612,0.01192,0.00352,-0.0514
-1,0.1777,0.01195,0.00354,-0.0516
-0.9,0.1942,0.01197,0.00356,-0.0518
-0.8,0.2107,0.01199,0.00357,-0.052
-0.7,0.2273,0.01199,0.00358,-0.0522
-0.6,0.2439,0.01199,0.00359,-0.0525
-0.5,0.2604,0.01202,0.00361,-0.0527
-0.4,0.2769,0.01206,0.00362,-0.0529
-0.3,0.2934,0.01208,0.00364,-0.0531
-0.2,0.31,0.01211,0.00366,-0.0534
-0.1,0.3265,0.01215,0.00369,-0.0536
0,0.3431,0.01215,0.00371,-0.0538
0.1,0.3598,0.01216,0.00373,-0.0541
0.2,0.3764,0.01219,0.00375,-0.0543
0.3,0.393,0.01221,0.00377,-0.0545
0.4,0.4096,0.01225,0.0038,-0.0547
0.5,0.4262,0.01228,0.00382,-0.0549
0.6,0.4429,0.0123,0.00384,-0.0552
0.7,0.4595,0.01234,0.00388,-0.0554
0.8,0.4761,0.01241,0.00391,-0.0556
0.9,0.4927,0.01246,0.00395,-0.0558
1,0.5095,0.01248,0.00398,-0.0561
1.1,0.5262,0.01251,0.00401,-0.0563
1.2,0.5429,0.01255,0.00404,-0.0565
1.3,0.5598,0.01258,0.00407,-0.0567
1.4,0.5765,0.01262,0.00411,-0.0569
1.5,0.5933,0.01267,0.00415,-0.0571
1.6,0.6101,0.01272,0.00419,-0.0573
1.7,0.6269,0.01278,0.00423,-0.0575
1.8,0.6437,0.01283,0.00428,-0.0578
1.9,0.6606,0.01291,0.00432,-0.058
2,0.6775,0.01297,0.00437,-0.0582
2.1,0.6944,0.01304,0.00443,-0.0584
2.2,0.7113,0.01307,0.00447,-0.0586
2.3,0.7283,0.01312,0.00453,-0.0588
2.4,0.7453,0.01319,0.00458,-0.059
2.5,0.7624,0.01323,0.00463,-0.0593
2.6,0.7795,0.0133,0.00469,-0.0595
2.7,0.7966,0.01337,0.00475,-0.0597
2.8,0.8137,0.01345,0.00481,-0.0598
2.9,0.8308,0.01354,0.00487,-0.06
3,0.848,0.01362,0.00494,-0.0602
3.1,0.8652,0.01371,0.00501,-0.0604
3.2,0.8825,0.01379,0.00508,-0.0606
3.3,0.8995,0.01386,0.00515,-0.0608
3.4,0.9169,0.01396,0.00523,-0.061
3.5,0.9343,0.01404,0.00531,-0.0612
3.6,0.9517,0.01412,0.00539,-0.0613
3.7,0.9691,0.01422,0.00547,-0.0615
3.8,0.9865,0.01431,0.00556,-0.0616
3.9,1.0041,0.01439,0.00563,-0.0619
4,1.0216,0.01449,0.00572,-0.062
4.1,1.0392,0.0146,0.00582,-0.0622
4.2,1.0567,0.01472,0.00591,-0.0623
4.3,1.0744,0.01484,0.00601,-0.0625
4.4,1.092,0.01496,0.00611,-0.0626
4.6,1.1274,0.01519,0.00632,-0.0629
4.7,1.1452,0.01533,0.00644,-0.0631
4.8,1.1631,0.01542,0.00655,-0.0632
4.9,1.181,0.01555,0.00667,-0.0633
5,1.1989,0.01568,0.00679,-0.0634
5.1,1.217,0.0158,0.00691,-0.0636
5.2,1.235,0.01594,0.00704,-0.0637
5.3,1.2531,0.01608,0.00717,-0.0638
5.4,1.2711,0.01621,0.00729,-0.0638
5.5,1.2892,0.01637,0.00743,-0.0639
5.6,1.3073,0.01652,0.00756,-0.064

