airfoilName st4.dat
Re 	190000
M 	5.000000e-01
N 	4.500000e+00
VACC 	0 VACCflag 1
XTR 	1.00 	1.00 XTRflag 0
alpha,cl,cd,cdp,cm
-17.5,-2.0804,0.17701,0.17291,0.195
-17.4,-2.074,0.17478,0.17067,0.1934
-17.3,-2.0675,0.17256,0.16845,0.1917
-17.2,-2.061,0.17033,0.16622,0.19
-17.1,-2.0545,0.1681,0.16399,0.1883
-17,-2.048,0.16587,0.16176,0.1865
-16.9,-2.0414,0.16363,0.15952,0.1848
-16.8,-2.0349,0.16139,0.15728,0.1831
-16.7,-2.0283,0.15914,0.15503,0.1813
-16.6,-2.0217,0.15688,0.15277,0.1795
-16.5,-2.0151,0.15462,0.1505,0.1777
-16.4,-2.0085,0.15233,0.14822,0.1759
-16.3,-2.0019,0.15003,0.14591,0.1741
-16.2,-1.9952,0.14769,0.14357,0.1722
-16.1,-1.9886,0.1453,0.14117,0.1702
-16,-1.982,0.14283,0.1387,0.1681
-15.9,-1.9755,0.14021,0.13608,0.1659
-15.8,-1.9691,0.13691,0.13277,0.1631
-15.7,-1.962,0.13502,0.1309,0.1614
-15.6,-1.9552,0.13314,0.12902,0.1598
-15.5,-1.9483,0.13127,0.12715,0.1581
-15.4,-1.9415,0.1294,0.12528,0.1564
-15.3,-1.9346,0.12754,0.12342,0.1547
-15.2,-1.9278,0.12568,0.12156,0.153
-15.1,-1.9209,0.12382,0.1197,0.1513
-15,-1.914,0.12197,0.11784,0.1495
-14.9,-1.9072,0.12011,0.11598,0.1477
-14.8,-1.9003,0.11825,0.11412,0.1459
-14.7,-1.8935,0.11637,0.11225,0.144
-14.6,-1.8867,0.11448,0.11035,0.142
-14.5,-1.8799,0.11254,0.10841,0.14
-14.4,-1.8732,0.11052,0.10639,0.1378
-14.3,-1.8666,0.10829,0.10415,0.1353
-14.2,-1.8605,0.1056,0.10148,0.1321
-14.1,-1.8534,0.1043,0.10018,0.1306
-14,-1.8463,0.10301,0.09889,0.129
-13.8,-1.8317,0.10058,0.09647,0.1257
-13.7,-1.8245,0.09922,0.09511,0.1239
-13.6,-1.8171,0.09785,0.09374,0.122
-13.5,-1.8097,0.09646,0.09235,0.12
-13.4,-1.8021,0.09504,0.09093,0.118
-13.3,-1.7944,0.09358,0.08947,0.1159
-13.2,-1.7865,0.09205,0.08794,0.1136
-13.1,-1.7785,0.09044,0.08633,0.1111
-13,-1.7703,0.08865,0.08453,0.1083
-12.9,-1.7624,0.08625,0.08214,0.1045
-12.8,-1.7535,0.08471,0.08062,0.1019
-12.7,-1.7441,0.08358,0.07949,0.0999
-12.6,-1.7345,0.08242,0.07833,0.0979
-12.5,-1.7249,0.08124,0.07715,0.0958
-12.4,-1.7149,0.08018,0.0761,0.0937
-12.3,-1.7052,0.0789,0.07482,0.0913
-12.2,-1.6953,0.0776,0.07352,0.0888
-12.1,-1.6853,0.07625,0.07217,0.0861
-12,-1.6753,0.07483,0.07075,0.0832
-11.9,-1.6651,0.07329,0.06921,0.0799
-11.8,-1.6551,0.07127,0.06719,0.0754
-11.7,-1.6446,0.06974,0.06568,0.0718
-11.6,-1.6333,0.06885,0.0648,0.0695
-11.5,-1.6218,0.06793,0.06387,0.0672
-11.4,-1.61,0.06696,0.06291,0.0646
-11.3,-1.5979,0.06596,0.06191,0.0619
-11.2,-1.5854,0.06492,0.06088,0.0587
-11.1,-1.5725,0.06365,0.0596,0.0551
-11,-1.5591,0.06217,0.05812,0.0507
-10.8,-1.5295,0.0584,0.05437,0.039
-10.7,-1.5144,0.0575,0.05347,0.0359
-10.5,-1.4817,0.05536,0.05131,0.0282
-10.4,-1.4594,0.05383,0.04976,0.0222
-10.3,-1.4113,0.04812,0.04394,0.0012
-10.2,-1.3836,0.04642,0.04218,-0.005
-9.3,-1.1692,0.02572,0.01869,-0.0555
-9.2,-1.1508,0.0252,0.01805,-0.0557
-9.1,-1.1326,0.02482,0.01758,-0.0558
-9,-1.1141,0.02422,0.01682,-0.056
-8.9,-1.0956,0.02363,0.01604,-0.0562
-8.8,-1.0771,0.02304,0.01526,-0.0563
-8.7,-1.0585,0.02247,0.01451,-0.0565
-8.6,-1.0404,0.02211,0.0141,-0.0564
-8.5,-1.0223,0.02175,0.01367,-0.0563
-8.4,-1.0042,0.02138,0.01322,-0.0562
-8.3,-0.9861,0.02101,0.01276,-0.0562
-8.2,-0.9681,0.02068,0.0123,-0.0561
-8.1,-0.9499,0.0203,0.0118,-0.0561
-8,-0.9322,0.02,0.01149,-0.056
-7.9,-0.9144,0.01971,0.01116,-0.0559
-7.8,-0.8967,0.01943,0.01083,-0.0558
-7.7,-0.879,0.01914,0.01048,-0.0557
-7.6,-0.8613,0.01885,0.01013,-0.0556
-7.5,-0.8436,0.01858,0.00976,-0.0555
-7.4,-0.8262,0.01836,0.00957,-0.0555
-7.3,-0.8088,0.01812,0.0093,-0.0554
-7.2,-0.7914,0.01787,0.00902,-0.0553
-7.1,-0.774,0.01764,0.00874,-0.0553
-7,-0.7567,0.01741,0.00845,-0.0552
-6.9,-0.7394,0.01718,0.00821,-0.0551
-6.8,-0.7223,0.01696,0.008,-0.0551
-6.7,-0.7052,0.01675,0.00777,-0.0551
-6.6,-0.6881,0.01658,0.00757,-0.055
-6.5,-0.671,0.01638,0.00733,-0.055
-6.4,-0.6541,0.01617,0.00714,-0.055
-6.3,-0.6371,0.01598,0.00695,-0.055
-6.2,-0.6203,0.01579,0.00676,-0.055
-6.1,-0.6034,0.01562,0.00656,-0.0549
-6,-0.5865,0.01545,0.00636,-0.0549
-5.9,-0.5698,0.01527,0.00623,-0.055
-5.8,-0.5531,0.01509,0.00606,-0.055
-5.7,-0.5364,0.01493,0.00588,-0.055
-5.6,-0.5197,0.01478,0.00571,-0.055
-5.4,-0.4865,0.01444,0.00541,-0.0551
-5.3,-0.4699,0.01429,0.00526,-0.0551
-5.2,-0.4534,0.01415,0.00512,-0.0552
-5.1,-0.4369,0.01398,0.00499,-0.0553
-5,-0.4205,0.01383,0.00485,-0.0554
-4.9,-0.4021,0.01371,0.00474,-0.0558
-4.8,-0.3831,0.0136,0.00463,-0.0563
-4.7,-0.3637,0.01349,0.00456,-0.0569
-4.6,-0.3446,0.01341,0.00449,-0.0575
-4.5,-0.3263,0.01336,0.00442,-0.0578
-4.4,-0.3095,0.0133,0.00436,-0.0579
-4.3,-0.2936,0.01327,0.00431,-0.0578
-4.2,-0.2783,0.01326,0.00426,-0.0576
-4.1,-0.2645,0.01333,0.00423,-0.057
-4,-0.2506,0.01337,0.00423,-0.0566
-3.9,-0.2357,0.01338,0.00417,-0.0564
-3.8,-0.2202,0.01333,0.0041,-0.0564
-3.7,-0.2046,0.01327,0.00404,-0.0563
-3.6,-0.1903,0.01335,0.00403,-0.056
-3.5,-0.1747,0.01333,0.00396,-0.056
-3.4,-0.159,0.01324,0.00392,-0.0561
-3.3,-0.1432,0.0132,0.00386,-0.0561
-3.2,-0.1276,0.01315,0.0038,-0.0562
-3.1,-0.1123,0.01315,0.00378,-0.0562
-3,-0.0966,0.01311,0.00373,-0.0562
-2.9,-0.0812,0.0131,0.0037,-0.0562
-2.8,-0.0654,0.01302,0.00365,-0.0564
-2.7,-0.0497,0.01299,0.0036,-0.0564
-2.6,-0.0341,0.01294,0.00356,-0.0565
-2.5,-0.0185,0.01292,0.00354,-0.0566
-2.4,-0.0029,0.0129,0.0035,-0.0566
-2.3,0.0123,0.01289,0.00348,-0.0567
-2.2,0.028,0.01286,0.00347,-0.0568
-2.1,0.0437,0.01281,0.00343,-0.0569
-2,0.0592,0.0128,0.00341,-0.057
-1.9,0.0748,0.01279,0.0034,-0.057
-1.8,0.0905,0.01272,0.00337,-0.0572
-1.7,0.1062,0.01269,0.00334,-0.0573
-1.6,0.1217,0.01266,0.00332,-0.0574
-1.5,0.1368,0.01272,0.00335,-0.0574
-1.4,0.1523,0.01271,0.00333,-0.0575
-1.3,0.1679,0.01266,0.00333,-0.0577
-1.2,0.1831,0.01268,0.00332,-0.0577
-1.1,0.1987,0.01266,0.00333,-0.0578
-1,0.2142,0.01266,0.00332,-0.0579
-0.9,0.2296,0.01266,0.00333,-0.058
-0.8,0.2451,0.01262,0.00332,-0.0581
-0.7,0.2605,0.01263,0.00332,-0.0582
-0.6,0.2756,0.01268,0.00334,-0.0582
-0.5,0.2909,0.0127,0.00336,-0.0583
-0.4,0.3063,0.01272,0.00338,-0.0584
-0.3,0.3215,0.01271,0.00339,-0.0584
-0.2,0.3368,0.01275,0.0034,-0.0585
-0.1,0.352,0.01278,0.00343,-0.0585
0,0.3671,0.01284,0.00346,-0.0586
0.1,0.3822,0.01289,0.00349,-0.0586
0.2,0.3971,0.01292,0.00351,-0.0587
0.3,0.4121,0.01301,0.00356,-0.0587
0.4,0.4264,0.01317,0.00362,-0.0586
0.5,0.4411,0.01329,0.00368,-0.0587
0.6,0.4556,0.01343,0.00373,-0.0587
0.7,0.47,0.01354,0.00378,-0.0587
0.8,0.4846,0.01368,0.00387,-0.0587
0.9,0.4992,0.01383,0.00394,-0.0588
1,0.5138,0.01395,0.004,-0.0588
1.1,0.5282,0.01402,0.00407,-0.0588
1.2,0.5429,0.01414,0.00413,-0.0588
1.3,0.5577,0.01424,0.00423,-0.0588
1.4,0.5726,0.01433,0.00429,-0.0588
1.5,0.5872,0.01451,0.00441,-0.0588
1.6,0.6018,0.01455,0.00447,-0.0587
1.7,0.6167,0.01464,0.00455,-0.0587
1.8,0.6316,0.01474,0.00463,-0.0586
1.9,0.6464,0.01486,0.00472,-0.0586
2,0.6611,0.01499,0.00483,-0.0585
2.1,0.6753,0.01503,0.0049,-0.0582
2.2,0.6902,0.01512,0.005,-0.0581
2.3,0.7048,0.01521,0.00509,-0.058
2.4,0.7196,0.01532,0.00519,-0.0578
2.5,0.734,0.01543,0.00529,-0.0576
2.6,0.7468,0.01556,0.00539,-0.0571
2.7,0.7614,0.01565,0.00548,-0.0569
2.8,0.7756,0.01572,0.00558,-0.0566
2.9,0.7898,0.0158,0.00567,-0.0563
3,0.802,0.01583,0.00573,-0.0555
3.1,0.8159,0.01593,0.00582,-0.0551
3.2,0.8298,0.01604,0.00591,-0.0548
3.3,0.8436,0.01615,0.00601,-0.0544
3.4,0.8578,0.01629,0.0061,-0.054
3.6,0.8908,0.01652,0.00627,-0.0543
3.7,0.907,0.01668,0.00642,-0.0543
3.8,0.9232,0.01684,0.00659,-0.0544
3.9,0.9392,0.01701,0.00674,-0.0545
4,0.9554,0.0172,0.0069,-0.0545
4.1,0.9715,0.0174,0.00707,-0.0546
4.2,0.9877,0.01762,0.00725,-0.0546
4.3,1.0038,0.01786,0.00743,-0.0547
4.4,1.0202,0.01804,0.00761,-0.0548
4.5,1.0365,0.0182,0.00779,-0.0548
4.6,1.0529,0.01838,0.00799,-0.0548
4.7,1.0693,0.01857,0.00818,-0.0548
4.8,1.0857,0.01877,0.00838,-0.0549
4.9,1.1021,0.01898,0.00858,-0.0549
5,1.1185,0.0192,0.00879,-0.0549
5.1,1.1347,0.0194,0.00895,-0.0549
5.2,1.1512,0.01966,0.00917,-0.055
5.3,1.1676,0.0199,0.00937,-0.055
5.4,1.1841,0.02008,0.00961,-0.055
5.5,1.2006,0.02028,0.00985,-0.055
5.6,1.2172,0.02049,0.01009,-0.0549
5.7,1.2337,0.02071,0.01034,-0.0549
5.8,1.2502,0.02094,0.01059,-0.0549
5.9,1.2668,0.02118,0.01084,-0.0548
6,1.2833,0.02142,0.01109,-0.0548
6.1,1.2999,0.02167,0.01134,-0.0548
6.2,1.3165,0.02193,0.01159,-0.0547
6.3,1.3331,0.0222,0.01184,-0.0547
6.4,1.3494,0.02239,0.01208,-0.0546
6.5,1.3658,0.02263,0.0124,-0.0545
6.6,1.3823,0.02288,0.01272,-0.0544
6.7,1.3987,0.02314,0.01304,-0.0543
6.8,1.4151,0.02341,0.01336,-0.0542
6.9,1.4316,0.02368,0.01368,-0.054
7,1.4481,0.02396,0.01399,-0.0539
7.1,1.4646,0.02424,0.01431,-0.0538
7.2,1.4811,0.02453,0.01462,-0.0537
7.3,1.4977,0.02482,0.01493,-0.0535
7.4,1.5143,0.02513,0.01525,-0.0534
7.5,1.5305,0.02545,0.01561,-0.0532
7.6,1.546,0.02577,0.0161,-0.053
7.7,1.5614,0.02605,0.01653,-0.0528
7.8,1.5771,0.02639,0.01698,-0.0526
7.9,1.5928,0.02674,0.01742,-0.0524
8,1.6086,0.02709,0.01786,-0.0522
8.1,1.6243,0.02744,0.01829,-0.0519
8.2,1.6401,0.0278,0.01871,-0.0517
8.3,1.6558,0.02815,0.01913,-0.0515
8.4,1.6717,0.02851,0.01955,-0.0512
8.5,1.6876,0.02888,0.01996,-0.051
8.6,1.703,0.02927,0.0204,-0.0507
8.7,1.7151,0.02984,0.02124,-0.0505
8.8,1.7278,0.0304,0.02201,-0.0503
8.9,1.7406,0.03096,0.02275,-0.0501
9,1.7535,0.03143,0.02338,-0.0498
9.1,1.7666,0.03196,0.02404,-0.0496
9.2,1.7796,0.03249,0.02469,-0.0494
9.3,1.7927,0.03301,0.02533,-0.0492
9.4,1.8057,0.03353,0.02595,-0.049
9.5,1.8187,0.03404,0.02656,-0.0488
9.6,1.8318,0.03455,0.02716,-0.0485
9.7,1.8448,0.03505,0.02774,-0.0483
9.8,1.8477,0.0362,0.02921,-0.0487
9.9,1.8512,0.03732,0.03061,-0.0493
10,1.8559,0.03837,0.03189,-0.0499
10.1,1.861,0.03938,0.03309,-0.0506
10.2,1.8665,0.04037,0.03424,-0.0514
10.3,1.8722,0.04133,0.03535,-0.0524
10.4,1.8805,0.04202,0.03615,-0.0532
10.5,1.8876,0.04287,0.03711,-0.0542
10.6,1.8952,0.04368,0.03802,-0.0554
10.7,1.9034,0.04447,0.03889,-0.0566
11.9,1.9831,0.06594,0.06145,-0.1202
12,1.9931,0.06662,0.06215,-0.1223
12.1,2.0032,0.06726,0.0628,-0.1241
12.2,2.0133,0.06786,0.06341,-0.1258
12.5,2.0278,0.07237,0.06798,-0.1404
12.6,2.036,0.07314,0.06877,-0.1427
12.7,2.0444,0.07386,0.0695,-0.1447
12.8,2.0529,0.07454,0.07019,-0.1465
12.9,2.0614,0.07519,0.07085,-0.1483
13,2.07,0.0758,0.07148,-0.1499
13.1,2.0787,0.0764,0.07208,-0.1514
13.2,2.0874,0.07697,0.07266,-0.1528
13.5,2.0995,0.08098,0.07671,-0.1648
13.6,2.1065,0.08178,0.07751,-0.1669
13.7,2.1138,0.08253,0.07828,-0.1688
13.8,2.1211,0.08325,0.07901,-0.1705
13.9,2.1286,0.08394,0.07971,-0.1722
14,2.1361,0.08461,0.0804,-0.1738
14.1,2.1437,0.08527,0.08106,-0.1753
14.2,2.1513,0.0859,0.08171,-0.1767
14.3,2.159,0.08652,0.08234,-0.1781
14.4,2.1667,0.08713,0.08295,-0.1794
14.6,2.1706,0.09052,0.08636,-0.1883
14.7,2.1769,0.09142,0.08728,-0.1904
14.8,2.1833,0.09229,0.08816,-0.1922
14.9,2.1899,0.09312,0.089,-0.194
15,2.1966,0.09393,0.08982,-0.1957
15.1,2.2033,0.09472,0.09062,-0.1973
15.2,2.2102,0.09549,0.0914,-0.1988
15.3,2.2171,0.09624,0.09217,-0.2003
15.4,2.224,0.09698,0.09291,-0.2017
15.5,2.231,0.09771,0.09365,-0.2031
15.6,2.2381,0.09842,0.09438,-0.2045
15.9,2.2491,0.10313,0.09913,-0.2145
16,2.255,0.10416,0.10017,-0.2164
16.1,2.261,0.10514,0.10116,-0.2182
16.2,2.2671,0.10609,0.10212,-0.22
16.3,2.2733,0.107,0.10305,-0.2217
16.4,2.2795,0.1079,0.10395,-0.2233
16.5,2.2858,0.10877,0.10484,-0.2248
16.6,2.292,0.10962,0.1057,-0.2263
16.7,2.2983,0.11045,0.10654,-0.2278
16.8,2.3046,0.11126,0.10736,-0.2292
16.9,2.3108,0.11205,0.10816,-0.2305
17.2,2.3215,0.1169,0.11304,-0.2393
17.3,2.3261,0.1182,0.11436,-0.2417
17.4,2.3313,0.11929,0.11546,-0.2435
17.5,2.3365,0.12033,0.11652,-0.2453
17.6,2.3418,0.12135,0.11755,-0.2469
17.7,2.3471,0.12234,0.11855,-0.2485
17.8,2.3524,0.12331,0.11953,-0.25
17.9,2.3577,0.12425,0.12048,-0.2515
18,2.3631,0.12517,0.12142,-0.2529
18.1,2.3684,0.12608,0.12234,-0.2543
18.2,2.3737,0.12697,0.12323,-0.2556
18.3,2.3791,0.12784,0.12411,-0.2569
18.4,2.3842,0.12875,0.12502,-0.2583
18.6,2.3889,0.13329,0.1296,-0.2651
18.7,2.3932,0.13469,0.13102,-0.2671
18.8,2.3976,0.13614,0.13248,-0.2693
18.9,2.4023,0.13737,0.13372,-0.271
19,2.4071,0.13857,0.13495,-0.2726
19.1,2.4119,0.13975,0.13613,-0.2742
19.2,2.4168,0.1409,0.1373,-0.2758
19.3,2.4217,0.14203,0.13844,-0.2773
19.4,2.4266,0.14315,0.13957,-0.2787
19.5,2.4316,0.14425,0.14068,-0.2802
19.6,2.4365,0.14533,0.14178,-0.2816
19.7,2.4415,0.1464,0.14286,-0.283
19.8,2.4465,0.14746,0.14393,-0.2843
20.1,2.4564,0.15395,0.15045,-0.2925
20.2,2.4606,0.15582,0.15234,-0.2948
20.3,2.465,0.1573,0.15383,-0.2966
20.4,2.4695,0.15874,0.15528,-0.2983
20.5,2.4741,0.16014,0.15669,-0.3
20.6,2.4787,0.16151,0.15808,-0.3017
20.7,2.4833,0.16286,0.15944,-0.3033
20.8,2.4879,0.16419,0.16079,-0.3048
20.9,2.4926,0.16549,0.16211,-0.3064
21,2.4973,0.16678,0.16341,-0.3079
21.1,2.5019,0.16805,0.16469,-0.3094
21.2,2.5066,0.1693,0.16596,-0.3109
21.3,2.5113,0.17054,0.16721,-0.3123
21.4,2.516,0.17176,0.16843,-0.3137
21.6,2.5213,0.17737,0.17408,-0.32
21.7,2.5252,0.17921,0.17593,-0.3221
21.8,2.5293,0.1812,0.17793,-0.3243
21.9,2.5334,0.18281,0.17955,-0.3261
22,2.5376,0.18437,0.18113,-0.3279
22.1,2.5419,0.1859,0.18267,-0.3296
22.2,2.5462,0.1874,0.18419,-0.3312
22.3,2.5505,0.18888,0.18568,-0.3329
22.4,2.5548,0.19033,0.18715,-0.3345
22.5,2.5591,0.19176,0.18859,-0.3361
22.6,2.5635,0.19318,0.19003,-0.3377
22.7,2.5678,0.19458,0.19144,-0.3393
22.8,2.5721,0.19595,0.19282,-0.3408
22.9,2.5765,0.1973,0.19419,-0.3423

