airfoilName st4.dat
Re 	910000
M 	5.000000e-01
N 	4.500000e+00
VACC 	0 VACCflag 1
XTR 	1.00 	1.00 XTRflag 0
alpha,cl,cd,cdp,cm
-19,-2.207,0.21851,0.21689,0.2299
-18.9,-2.2011,0.21561,0.214,0.228
-18.8,-2.195,0.21279,0.21117,0.2261
-18.7,-2.1889,0.21007,0.20845,0.2242
-18.6,-2.1829,0.20733,0.20571,0.2222
-18.5,-2.1769,0.20458,0.20296,0.2202
-18.4,-2.1709,0.20179,0.20017,0.2182
-18.3,-2.165,0.19893,0.19731,0.2161
-18.2,-2.1593,0.19586,0.19424,0.2139
-18.1,-2.1539,0.19245,0.19083,0.2114
-18,-2.1476,0.19007,0.18845,0.2096
-17.9,-2.1413,0.18768,0.18606,0.2078
-17.8,-2.1349,0.1853,0.18368,0.2061
-17.7,-2.1286,0.18292,0.1813,0.2043
-17.6,-2.1222,0.18054,0.17892,0.2025
-17.5,-2.1158,0.17816,0.17654,0.2007
-17.4,-2.1094,0.17577,0.17415,0.1988
-17.3,-2.103,0.17339,0.17177,0.197
-17.2,-2.0965,0.17099,0.16937,0.1952
-17.1,-2.0901,0.16859,0.16697,0.1933
-17,-2.0837,0.16618,0.16456,0.1915
-16.9,-2.0772,0.16376,0.16214,0.1896
-16.8,-2.0708,0.16134,0.15971,0.1876
-16.7,-2.0645,0.15877,0.15714,0.1856
-16.6,-2.0581,0.15625,0.15462,0.1836
-16.5,-2.0518,0.15368,0.15206,0.1815
-16.4,-2.0457,0.15102,0.14939,0.1793
-16.3,-2.04,0.14798,0.14635,0.1768
-16.2,-2.034,0.14527,0.14364,0.1745
-16.1,-2.0272,0.14317,0.14154,0.1727
-16,-2.0203,0.14106,0.13943,0.1709
-15.9,-2.0134,0.13896,0.13733,0.1691
-15.8,-2.0065,0.13686,0.13523,0.1672
-15.7,-1.9996,0.13477,0.13314,0.1654
-15.6,-1.9927,0.13268,0.13105,0.1635
-15.5,-1.9859,0.1306,0.12897,0.1615
-15.4,-1.979,0.12851,0.12688,0.1596
-15.3,-1.9722,0.12641,0.12478,0.1576
-15.2,-1.9654,0.12431,0.12268,0.1555
-15.1,-1.9587,0.1222,0.12057,0.1534
-15,-1.952,0.12005,0.11841,0.1512
-14.9,-1.9455,0.11783,0.1162,0.1489
-14.8,-1.9408,0.11446,0.11282,0.1453
-14.7,-1.9338,0.1126,0.11097,0.1433
-14.6,-1.9264,0.11091,0.10928,0.1413
-14.5,-1.9191,0.10922,0.10759,0.1393
-14.4,-1.9117,0.10755,0.10592,0.1373
-14.3,-1.9044,0.10587,0.10424,0.1352
-14.2,-1.897,0.1042,0.10257,0.1331
-14.1,-1.8896,0.10252,0.10089,0.1309
-14,-1.8821,0.10082,0.09919,0.1286
-13.9,-1.8746,0.09908,0.09746,0.1262
-13.8,-1.867,0.0973,0.09567,0.1236
-13.7,-1.8592,0.09544,0.09381,0.1209
-13.6,-1.8515,0.09342,0.09179,0.1179
-13.5,-1.8452,0.09044,0.08881,0.1133
-13.4,-1.8361,0.08897,0.08735,0.1109
-13.3,-1.8269,0.08748,0.08585,0.1084
-13.2,-1.8176,0.08596,0.08434,0.1058
-13.1,-1.8082,0.08443,0.0828,0.1031
-13,-1.7988,0.08287,0.08124,0.1003
-12.9,-1.7894,0.08128,0.07965,0.0973
-12.8,-1.78,0.07963,0.07801,0.0942
-12.7,-1.7706,0.07792,0.0763,0.0908
-12.6,-1.7613,0.0761,0.07448,0.0871
-12.5,-1.7524,0.07398,0.07236,0.0825
-12.4,-1.7438,0.07167,0.07006,0.0773
-12.2,-1.7217,0.06914,0.06753,0.0711
-12.1,-1.7106,0.06769,0.06608,0.0674
-12,-1.6992,0.06616,0.06455,0.0633
-11.9,-1.6875,0.06446,0.06285,0.0586
-11.8,-1.6754,0.0625,0.06089,0.0529
-11.7,-1.6629,0.05993,0.05832,0.045
-11.6,-1.6493,0.05689,0.05528,0.0351
-11,-1.4868,0.0219,0.01808,-0.0667
-10.8,-1.4487,0.0196,0.01515,-0.0678
-10.7,-1.4287,0.01878,0.01409,-0.0678
-10.6,-1.4086,0.0182,0.01334,-0.0675
-10.5,-1.3885,0.01773,0.01274,-0.0671
-10.4,-1.3684,0.01732,0.01221,-0.0667
-10.3,-1.3484,0.01695,0.01173,-0.0662
-10.2,-1.3286,0.01662,0.01129,-0.0657
-10.1,-1.3088,0.01631,0.01089,-0.0652
-10,-1.2891,0.01603,0.01053,-0.0648
-9.5,-1.1954,0.01529,0.00927,-0.0618
-9.4,-1.1776,0.01517,0.00905,-0.0612
-9.3,-1.1597,0.01505,0.00884,-0.0606
-9.2,-1.1416,0.01493,0.00863,-0.0601
-9.1,-1.1235,0.01481,0.00843,-0.0596
-9,-1.1053,0.01469,0.00824,-0.0592
-8.9,-1.0872,0.01457,0.00805,-0.0588
-8.8,-1.0694,0.0145,0.00788,-0.0584
-8.7,-1.0513,0.01437,0.00771,-0.058
-8.6,-1.0333,0.01425,0.00754,-0.0577
-8.5,-1.0153,0.01414,0.00738,-0.0574
-8.4,-0.9974,0.01403,0.00724,-0.0571
-8.3,-0.9795,0.01392,0.00708,-0.0568
-8.2,-0.9617,0.01381,0.00694,-0.0566
-8.1,-0.9439,0.01372,0.0068,-0.0563
-8,-0.9262,0.0136,0.00665,-0.0561
-7.9,-0.9085,0.01348,0.00652,-0.0559
-7.8,-0.8911,0.0134,0.00639,-0.0557
-7.7,-0.8735,0.0133,0.00627,-0.0555
-7.6,-0.856,0.0132,0.00615,-0.0553
-7.5,-0.8386,0.01311,0.00603,-0.0551
-7.4,-0.8213,0.01302,0.00591,-0.0549
-7.3,-0.8039,0.01291,0.0058,-0.0548
-7.2,-0.7867,0.01282,0.00569,-0.0546
-7.1,-0.7694,0.01272,0.00558,-0.0545
-7,-0.7522,0.01263,0.00548,-0.0544
-6.9,-0.7351,0.01255,0.00538,-0.0543
-6.8,-0.7181,0.01247,0.00529,-0.0541
-6.7,-0.7011,0.0124,0.00519,-0.0541
-6.6,-0.6841,0.01229,0.00509,-0.054
-6.5,-0.6672,0.01221,0.005,-0.0539
-6.4,-0.6502,0.01213,0.00491,-0.0538
-6.3,-0.6334,0.01206,0.00483,-0.0538
-6.2,-0.6166,0.01198,0.00474,-0.0537
-6.1,-0.5998,0.01189,0.00465,-0.0537
-6,-0.5831,0.01184,0.00458,-0.0536
-5.9,-0.5665,0.01178,0.00451,-0.0536
-5.8,-0.5499,0.01171,0.00444,-0.0536
-5.7,-0.5332,0.01164,0.00436,-0.0536
-5.6,-0.5167,0.01158,0.00429,-0.0535
-5.5,-0.5002,0.01151,0.00422,-0.0536
-5.4,-0.4836,0.01144,0.00416,-0.0536
-5.3,-0.4672,0.01139,0.0041,-0.0535
-5.2,-0.4507,0.01134,0.00403,-0.0535
-5.1,-0.4343,0.01127,0.00397,-0.0536
-5,-0.418,0.01122,0.00391,-0.0536
-4.9,-0.4017,0.01117,0.00386,-0.0536
-4.8,-0.3854,0.01113,0.0038,-0.0537
-4.7,-0.369,0.01106,0.00374,-0.0537
-4.6,-0.3527,0.011,0.00369,-0.0538
-4.5,-0.3364,0.01094,0.00364,-0.0538
-4.4,-0.3202,0.0109,0.0036,-0.0539
-4.3,-0.3041,0.01087,0.00355,-0.054
-4.2,-0.2879,0.01081,0.0035,-0.054
-4.1,-0.2717,0.01076,0.00346,-0.0541
-4,-0.2556,0.01072,0.00342,-0.0542
-3.9,-0.2395,0.01069,0.00337,-0.0543
-3.8,-0.2234,0.01065,0.00334,-0.0544
-3.7,-0.2073,0.01059,0.0033,-0.0545
-3.6,-0.1912,0.01056,0.00326,-0.0546
-3.5,-0.1754,0.01055,0.00323,-0.0546
-3.4,-0.1593,0.0105,0.0032,-0.0548
-3.3,-0.1433,0.01047,0.00317,-0.0549
-3.2,-0.1273,0.01045,0.00314,-0.055
-3.1,-0.1113,0.0104,0.00311,-0.0551
-3,-0.0954,0.01037,0.00308,-0.0552
-2.9,-0.0795,0.01037,0.00306,-0.0553
-2.8,-0.0637,0.01036,0.00305,-0.0554
-2.7,-0.0477,0.01032,0.00302,-0.0556
-2.6,-0.0318,0.0103,0.003,-0.0557
-2.5,-0.0161,0.01031,0.00299,-0.0558
-2.4,-0.0003,0.01031,0.00297,-0.056
-2.3,0.0155,0.01031,0.00296,-0.0561
-2.2,0.0313,0.0103,0.00295,-0.0562
-2.1,0.047,0.01031,0.00294,-0.0564
-2,0.0628,0.01031,0.00293,-0.0565
-1.9,0.0786,0.0103,0.00293,-0.0567
-1.8,0.0943,0.01032,0.00293,-0.0568
-1.7,0.11,0.01033,0.00292,-0.057
-1.6,0.1254,0.0104,0.00294,-0.0571
-1.5,0.1407,0.01052,0.00298,-0.0573
-1.2,0.1859,0.011,0.00314,-0.0579
-1.1,0.2012,0.01113,0.00317,-0.0581
-1,0.2168,0.01119,0.0032,-0.0583
-0.9,0.2324,0.01124,0.00323,-0.0584
-0.8,0.2481,0.01125,0.00323,-0.0586
-0.7,0.2638,0.01129,0.00325,-0.0588
-0.6,0.2794,0.01132,0.00328,-0.059
-0.5,0.2952,0.01135,0.0033,-0.0591
-0.4,0.3109,0.01137,0.00332,-0.0593
-0.3,0.3266,0.01139,0.00334,-0.0595
-0.2,0.3423,0.01142,0.00335,-0.0597
-0.1,0.3581,0.01144,0.00338,-0.0598
0,0.3738,0.01146,0.0034,-0.06
0.1,0.3896,0.01148,0.00342,-0.0601
0.2,0.4055,0.01147,0.00344,-0.0604
0.3,0.4212,0.01151,0.00346,-0.0605
0.4,0.437,0.01153,0.00349,-0.0607
0.5,0.4528,0.01157,0.00352,-0.0608
0.6,0.4685,0.01161,0.00355,-0.061
0.7,0.4845,0.0116,0.00357,-0.0612
0.8,0.5002,0.01163,0.0036,-0.0613
0.9,0.5161,0.01167,0.00363,-0.0615
1,0.5319,0.01169,0.00366,-0.0617
1.1,0.5478,0.01173,0.00369,-0.0618
1.2,0.5636,0.01175,0.00372,-0.062
1.3,0.5795,0.0118,0.00376,-0.0622
1.4,0.5954,0.01183,0.0038,-0.0623
1.5,0.6113,0.01186,0.00383,-0.0624
1.6,0.6272,0.01189,0.00387,-0.0626
1.7,0.6432,0.01191,0.0039,-0.0628
1.8,0.6592,0.01194,0.00394,-0.0629
1.9,0.6751,0.01199,0.00398,-0.063
2,0.6911,0.01204,0.00403,-0.0632
2.1,0.707,0.0121,0.00407,-0.0633
2.2,0.723,0.01214,0.00412,-0.0635
2.3,0.7391,0.01218,0.00417,-0.0636
2.4,0.7551,0.01221,0.00421,-0.0637
2.5,0.7712,0.01226,0.00426,-0.0638
2.6,0.7873,0.01231,0.00431,-0.0639
2.7,0.8035,0.01234,0.00436,-0.0641
2.8,0.8196,0.01239,0.00441,-0.0642
2.9,0.8358,0.01244,0.00447,-0.0643
3,0.8519,0.01251,0.00453,-0.0644
3.1,0.8681,0.01258,0.00458,-0.0645
3.2,0.8843,0.01263,0.00464,-0.0647
3.3,0.9005,0.01269,0.00471,-0.0647
3.4,0.9168,0.01274,0.00477,-0.0648
3.5,0.9331,0.01279,0.00483,-0.0649
3.6,0.9495,0.01286,0.0049,-0.065
3.7,0.9659,0.0129,0.00496,-0.0651
3.8,0.9823,0.01297,0.00503,-0.0652
3.9,0.9987,0.01304,0.0051,-0.0652
4,1.0151,0.01312,0.00517,-0.0653
4.1,1.0316,0.0132,0.00525,-0.0654
4.2,1.048,0.01328,0.00533,-0.0654
4.3,1.0645,0.01334,0.00541,-0.0655
4.4,1.0811,0.01341,0.00549,-0.0656
4.5,1.0977,0.01348,0.00558,-0.0656
4.6,1.1144,0.01355,0.00566,-0.0656
4.7,1.1311,0.0136,0.00574,-0.0657
4.8,1.1478,0.01369,0.00583,-0.0657
4.9,1.1645,0.01377,0.00592,-0.0657
5,1.1813,0.01386,0.00601,-0.0657
5.1,1.198,0.01396,0.0061,-0.0657
5.2,1.2148,0.01404,0.0062,-0.0657
5.3,1.2316,0.01413,0.0063,-0.0657
5.4,1.2484,0.01425,0.0064,-0.0657
5.5,1.2654,0.01435,0.00651,-0.0656
5.6,1.2824,0.01444,0.00661,-0.0656
5.8,1.3165,0.01462,0.00682,-0.0655
5.9,1.3336,0.01472,0.00693,-0.0654
6,1.3507,0.01483,0.00704,-0.0653
6.1,1.3679,0.01492,0.00716,-0.0653
6.2,1.385,0.01503,0.00726,-0.0652
6.4,1.4195,0.01526,0.0075,-0.065
6.5,1.4368,0.01538,0.00762,-0.0649
6.6,1.4541,0.01551,0.00774,-0.0648
6.7,1.4714,0.01562,0.00788,-0.0646
6.8,1.489,0.01573,0.00801,-0.0645
6.9,1.5065,0.01585,0.00815,-0.0643
7,1.5241,0.01597,0.00828,-0.0642
7.1,1.5418,0.01609,0.00842,-0.064
7.2,1.5593,0.01621,0.00857,-0.0638
7.3,1.5771,0.01634,0.00871,-0.0636
7.4,1.5948,0.01647,0.00886,-0.0634
7.5,1.6126,0.0166,0.00901,-0.0632
7.6,1.6304,0.01674,0.00916,-0.063
7.7,1.6483,0.01688,0.00931,-0.0627
7.8,1.6659,0.017,0.00944,-0.0625
7.9,1.6838,0.01715,0.0096,-0.0622
8,1.7018,0.01729,0.00977,-0.0619
8.1,1.7199,0.01744,0.00995,-0.0616
8.2,1.7381,0.01759,0.01013,-0.0613
8.3,1.756,0.01772,0.01031,-0.0609
8.4,1.7742,0.01788,0.0105,-0.0606
8.5,1.7925,0.01803,0.01069,-0.0603
8.6,1.8108,0.0182,0.01089,-0.0599
8.7,1.829,0.01836,0.01108,-0.0595
8.8,1.8468,0.0185,0.01128,-0.059
8.9,1.8651,0.01866,0.01148,-0.0586
9,1.8834,0.01883,0.01169,-0.0581
9.1,1.9016,0.019,0.01189,-0.0577
9.2,1.9199,0.01917,0.0121,-0.0572
9.3,1.9372,0.01932,0.01231,-0.0565
9.4,1.9554,0.0195,0.01253,-0.0559
9.6,1.9915,0.01989,0.01307,-0.0547
9.7,2.0091,0.0201,0.01335,-0.0541
9.8,2.0267,0.02031,0.01365,-0.0533
9.9,2.0413,0.02045,0.01389,-0.0521
10,2.0582,0.02066,0.01419,-0.0513
10.2,2.0948,0.02117,0.01488,-0.0501
10.3,2.1129,0.02147,0.01527,-0.0495
10.4,2.1309,0.02178,0.01567,-0.0488
10.5,2.1486,0.0221,0.0161,-0.0481
10.6,2.1661,0.02244,0.01655,-0.0475
10.7,2.1832,0.0228,0.01702,-0.0468
10.8,2.2,0.02318,0.01752,-0.046
10.9,2.2137,0.02378,0.01833,-0.0453
11,2.2263,0.02443,0.01919,-0.0446
11.1,2.2376,0.02514,0.02013,-0.0438
11.2,2.2476,0.02591,0.02112,-0.0431
11.3,2.2567,0.02669,0.02211,-0.0424
11.4,2.2642,0.02755,0.02319,-0.0418
11.5,2.2704,0.02845,0.0243,-0.0412
11.6,2.2755,0.02938,0.02543,-0.0407
11.7,2.2795,0.03034,0.02658,-0.0402

