airfoilName st4.dat
Re 	1.500000e+05
M 	5.000000e-01
N 	4.500000e+00
VACC 	0 VACCflag 1
XTR 	1.00 	1.00 XTRflag 0
alpha,cl,cd,cdp,cm
-17.5,-2.0719,0.17759,0.17289,0.1944
-17.4,-2.0655,0.17513,0.17043,0.1926
-17.3,-2.0591,0.17264,0.16794,0.1907
-17.2,-2.0526,0.17011,0.16541,0.1888
-17.1,-2.0462,0.16752,0.16282,0.1868
-17,-2.0397,0.16482,0.16011,0.1847
-16.9,-2.0332,0.16186,0.15715,0.1824
-16.8,-2.0268,0.15856,0.15386,0.1797
-16.7,-2.0202,0.15654,0.15184,0.1781
-16.6,-2.0135,0.15451,0.14982,0.1765
-16.5,-2.0069,0.15249,0.14779,0.1749
-16.4,-2.0002,0.15046,0.14576,0.1733
-16.2,-1.9865,0.1464,0.1417,0.17
-16.1,-1.9798,0.14431,0.13961,0.1682
-16,-1.9731,0.14223,0.13752,0.1665
-15.9,-1.9664,0.14013,0.13543,0.1648
-15.8,-1.9597,0.13803,0.13332,0.163
-15.7,-1.9529,0.13591,0.1312,0.1612
-15.6,-1.9462,0.13378,0.12906,0.1593
-15.5,-1.9395,0.13161,0.12689,0.1574
-15.4,-1.9328,0.1294,0.12468,0.1554
-15.3,-1.9261,0.12708,0.12236,0.1533
-15.2,-1.9194,0.12458,0.11985,0.1509
-15.1,-1.913,0.12136,0.11665,0.1478
-15,-1.9062,0.1198,0.11509,0.1463
-14.9,-1.8993,0.11824,0.11353,0.1447
-14.8,-1.8925,0.11668,0.11198,0.1432
-14.7,-1.8857,0.11513,0.11043,0.1416
-14.6,-1.8789,0.11359,0.10888,0.14
-14.5,-1.872,0.11205,0.10734,0.1384
-14.4,-1.865,0.11054,0.10584,0.1366
-14.3,-1.8582,0.10895,0.10425,0.1348
-14.2,-1.8514,0.10736,0.10266,0.133
-14.1,-1.8447,0.10576,0.10105,0.1311
-14,-1.8379,0.10413,0.09942,0.1291
-13.9,-1.8311,0.10247,0.09776,0.127
-13.8,-1.8244,0.10072,0.09601,0.1248
-13.7,-1.8178,0.09875,0.09403,0.1221
-13.6,-1.8115,0.09641,0.09171,0.1188
-13.5,-1.804,0.09532,0.09062,0.1173
-13.4,-1.7964,0.09421,0.08951,0.1157
-13.3,-1.7887,0.09307,0.08838,0.114
-13.2,-1.7807,0.0919,0.08721,0.1122
-13.1,-1.7726,0.0907,0.08601,0.1104
-13,-1.7642,0.08946,0.08477,0.1084
-12.9,-1.7556,0.08818,0.08349,0.1064
-12.8,-1.7468,0.0868,0.08212,0.1039
-12.7,-1.7378,0.08532,0.08064,0.1015
-12.6,-1.7287,0.08376,0.07909,0.0988
-12.5,-1.7195,0.08206,0.07738,0.0959
-12.4,-1.7106,0.0799,0.07522,0.0919
-12.3,-1.7012,0.07832,0.07366,0.0888
-12.1,-1.6812,0.07631,0.07165,0.085
-12,-1.671,0.07528,0.07063,0.0829
-11.9,-1.6607,0.07424,0.06959,0.0807
-11.7,-1.6396,0.07208,0.06743,0.0759
-11.6,-1.6288,0.07095,0.0663,0.0733
-11.5,-1.6177,0.06951,0.06487,0.0694
-11.4,-1.6063,0.06788,0.06324,0.0652
-11.3,-1.5946,0.0659,0.06129,0.0597
-11.2,-1.5824,0.06509,0.06048,0.0575
-11.1,-1.5698,0.06424,0.05964,0.0551
-11,-1.5569,0.06335,0.05874,0.0525
-10.9,-1.5436,0.0624,0.05779,0.0496
-10.8,-1.5298,0.06137,0.05677,0.0465
-10.7,-1.5153,0.06023,0.05563,0.0428
-10.5,-1.4797,0.05578,0.05118,0.0275
-10.4,-1.462,0.05491,0.0503,0.0241
-10.3,-1.4402,0.0538,0.04917,0.0196
-10.2,-1.4156,0.05241,0.04774,0.0141
-10.1,-1.387,0.05045,0.04573,0.0067
-9.6,-1.2289,0.03245,0.02613,-0.047
-9.5,-1.2105,0.03162,0.02517,-0.0482
-9,-1.1173,0.02684,0.01916,-0.0541
-8.9,-1.0992,0.02633,0.01857,-0.0542
-8.8,-1.081,0.02581,0.01793,-0.0544
-8.7,-1.0628,0.02526,0.01726,-0.0546
-8.6,-1.0445,0.0247,0.01654,-0.0548
-8.5,-1.0261,0.02414,0.01574,-0.0551
-8.4,-1.0078,0.02361,0.01508,-0.0553
-8.3,-0.9899,0.02323,0.01465,-0.0552
-8.2,-0.972,0.02284,0.0142,-0.0552
-8.1,-0.9541,0.02244,0.01371,-0.0552
-8,-0.9361,0.02204,0.01321,-0.0552
-7.9,-0.9182,0.02164,0.01268,-0.0552
-7.8,-0.9001,0.02124,0.01212,-0.0552
-7.7,-0.8828,0.02101,0.01195,-0.0552
-7.6,-0.8651,0.02069,0.01158,-0.0551
-7.5,-0.8475,0.02037,0.01119,-0.0551
-7.4,-0.8299,0.02005,0.01079,-0.0551
-7.3,-0.8123,0.01974,0.01038,-0.055
-7.2,-0.7949,0.01946,0.01009,-0.055
-7.1,-0.7776,0.01919,0.00981,-0.0549
-6.9,-0.7431,0.01871,0.00925,-0.0549
-6.8,-0.7257,0.01846,0.00892,-0.0548
-6.7,-0.7087,0.01821,0.00869,-0.0548
-6.6,-0.6916,0.01797,0.00845,-0.0548
-6.5,-0.6746,0.01774,0.0082,-0.0548
-6.4,-0.6575,0.01752,0.00794,-0.0548
-6.3,-0.6405,0.01731,0.00767,-0.0547
-6.2,-0.6237,0.0171,0.00753,-0.0548
-6.1,-0.6069,0.01689,0.00731,-0.0548
-6,-0.59,0.01669,0.00708,-0.0548
-5.9,-0.5732,0.0165,0.00684,-0.0548
-5.8,-0.5565,0.01629,0.00666,-0.0549
-5.7,-0.5398,0.0161,0.00648,-0.0549
-5.5,-0.5065,0.01576,0.00611,-0.055
-5.4,-0.4899,0.01556,0.00595,-0.055
-5.3,-0.4734,0.01538,0.00579,-0.0551
-5.2,-0.4569,0.01522,0.00561,-0.0551
-5.1,-0.4403,0.01507,0.00544,-0.0552
-5,-0.4239,0.01488,0.00529,-0.0553
-4.9,-0.4075,0.01472,0.00516,-0.0554
-4.8,-0.391,0.01458,0.005,-0.0554
-4.7,-0.3747,0.0144,0.00485,-0.0555
-4.6,-0.3584,0.01424,0.00472,-0.0556
-4.5,-0.342,0.0141,0.00458,-0.0557
-4.4,-0.3257,0.01396,0.00443,-0.0558
-4.3,-0.3095,0.01379,0.00433,-0.056
-4.2,-0.2922,0.01366,0.00421,-0.0562
-4.1,-0.2736,0.01354,0.0041,-0.0568
-4,-0.2546,0.01342,0.00403,-0.0574
-3.9,-0.2354,0.01334,0.00396,-0.058
-3.8,-0.2145,0.01333,0.00395,-0.0589
-3.7,-0.1976,0.01328,0.00391,-0.0591
-3.6,-0.1825,0.01338,0.00393,-0.0587
-3.5,-0.168,0.01339,0.00389,-0.0584
-3.4,-0.1529,0.01336,0.00385,-0.0583
-3.3,-0.1386,0.01341,0.00383,-0.0579
-3.2,-0.1245,0.01344,0.00382,-0.0576
-3.1,-0.1091,0.0134,0.00376,-0.0576
-3,-0.0938,0.01338,0.00371,-0.0575
-2.9,-0.0784,0.01331,0.00366,-0.0575
-2.8,-0.0629,0.01328,0.00362,-0.0575
-2.7,-0.0476,0.01326,0.00357,-0.0575
-2.6,-0.0332,0.01328,0.00357,-0.0574
-2.5,-0.0176,0.01326,0.00352,-0.0574
-2.3,0.0135,0.01317,0.00345,-0.0575
-2.2,0.0287,0.01318,0.00344,-0.0575
-2.1,0.0442,0.01311,0.0034,-0.0576
-2,0.0597,0.01308,0.00337,-0.0577
-1.9,0.0746,0.01312,0.00338,-0.0576
-1.8,0.0901,0.01311,0.00336,-0.0577
-1.7,0.1055,0.01308,0.00333,-0.0578
-1.6,0.1211,0.01303,0.00332,-0.0579
-1.5,0.1366,0.01299,0.0033,-0.058
-1.4,0.1516,0.01304,0.00332,-0.058
-1.3,0.1672,0.013,0.0033,-0.0581
-1.2,0.1826,0.01298,0.00329,-0.0581
-1.1,0.1972,0.01302,0.00331,-0.0581
-1,0.2126,0.01302,0.00331,-0.0581
-0.9,0.228,0.013,0.00332,-0.0582
-0.8,0.2434,0.01299,0.00332,-0.0583
-0.7,0.2587,0.013,0.00333,-0.0583
-0.6,0.274,0.01296,0.00333,-0.0584
-0.5,0.2892,0.01297,0.00333,-0.0584
-0.4,0.3046,0.01297,0.00336,-0.0585
-0.3,0.3196,0.01299,0.00337,-0.0585
-0.2,0.3349,0.01301,0.0034,-0.0585
-0.1,0.3493,0.01304,0.00342,-0.0584
0,0.3642,0.01309,0.00344,-0.0584
0.1,0.3792,0.01311,0.00348,-0.0583
0.2,0.394,0.01316,0.00351,-0.0583
0.3,0.4085,0.01318,0.00354,-0.0582
0.4,0.4233,0.01324,0.00358,-0.0581
0.5,0.4381,0.01331,0.00362,-0.0581
0.6,0.4527,0.0134,0.00368,-0.058
0.7,0.4671,0.01349,0.00373,-0.0579
0.8,0.481,0.01355,0.00378,-0.0577
0.9,0.4946,0.01376,0.00386,-0.0575
1,0.5087,0.01389,0.00394,-0.0574
1.1,0.5227,0.01403,0.004,-0.0573
1.2,0.5369,0.01418,0.00408,-0.0572
1.3,0.5504,0.01427,0.00414,-0.0569
1.4,0.5645,0.01439,0.00421,-0.0567
1.5,0.5786,0.01452,0.00429,-0.0566
1.6,0.5928,0.01464,0.00436,-0.0564
1.7,0.6067,0.01476,0.00446,-0.0562
1.8,0.6197,0.01482,0.00451,-0.0557
1.9,0.6335,0.01492,0.00459,-0.0554
2,0.6468,0.01511,0.0047,-0.0551
2.1,0.6606,0.0152,0.00478,-0.0548
2.2,0.6741,0.01529,0.00485,-0.0544
2.3,0.6857,0.01533,0.00489,-0.0536
2.4,0.6988,0.01544,0.00497,-0.0531
2.5,0.7119,0.01556,0.00505,-0.0526
2.6,0.7253,0.01568,0.00514,-0.0522
2.7,0.739,0.01569,0.00514,-0.0517
2.8,0.757,0.01581,0.00522,-0.0522
2.9,0.7729,0.016,0.00537,-0.0523
3,0.7887,0.01619,0.00552,-0.0524
3.1,0.8042,0.01645,0.0057,-0.0525
3.2,0.8199,0.0167,0.00588,-0.0526
3.3,0.8359,0.01687,0.00603,-0.0527
3.4,0.852,0.01703,0.0062,-0.0527
3.5,0.8681,0.01721,0.00637,-0.0528
3.6,0.8841,0.0174,0.00654,-0.0529
3.7,0.9001,0.01761,0.00673,-0.053
3.8,0.9161,0.01783,0.00691,-0.053
3.9,0.9321,0.01807,0.00711,-0.0531
4,0.9481,0.01833,0.00731,-0.0532
4.1,0.9642,0.01856,0.0075,-0.0532
4.2,0.9805,0.01873,0.0077,-0.0533
4.3,0.9966,0.01889,0.00789,-0.0533
4.4,1.0128,0.0191,0.00809,-0.0534
4.5,1.029,0.01932,0.00831,-0.0534
4.6,1.0452,0.01955,0.00852,-0.0535
4.7,1.0614,0.0198,0.00874,-0.0535
4.8,1.0776,0.02007,0.00897,-0.0536
4.9,1.0938,0.02038,0.00921,-0.0536
5,1.1102,0.02055,0.00943,-0.0536
5.1,1.1265,0.02076,0.00969,-0.0536
5.2,1.1429,0.02098,0.00994,-0.0536
5.3,1.1593,0.02121,0.0102,-0.0536
5.4,1.1756,0.02146,0.01046,-0.0536
5.5,1.1918,0.02168,0.01067,-0.0536
5.6,1.2082,0.02195,0.01093,-0.0536
5.7,1.2245,0.02224,0.01119,-0.0536
5.8,1.241,0.02254,0.01147,-0.0536
5.9,1.2573,0.0228,0.01174,-0.0536
6,1.2736,0.02303,0.01207,-0.0535
6.1,1.2899,0.02329,0.01239,-0.0535
6.2,1.3062,0.02355,0.01271,-0.0534
6.3,1.3225,0.02383,0.01304,-0.0534
6.4,1.3388,0.02412,0.01337,-0.0533
6.5,1.3551,0.02442,0.0137,-0.0532
6.6,1.3714,0.02472,0.01403,-0.0531
6.7,1.3878,0.02498,0.01425,-0.0531
6.8,1.4042,0.02531,0.01458,-0.053
6.9,1.4204,0.02562,0.01491,-0.0529
7,1.436,0.02591,0.01536,-0.0527
7.1,1.4517,0.02623,0.0158,-0.0526
7.2,1.4675,0.02657,0.01624,-0.0525
7.3,1.4832,0.02691,0.01668,-0.0523
7.4,1.499,0.02726,0.01711,-0.0522
7.5,1.5147,0.02761,0.01753,-0.052
7.6,1.5305,0.02797,0.01795,-0.0519
7.7,1.5462,0.02834,0.01837,-0.0517
7.8,1.5621,0.02871,0.01879,-0.0515
7.9,1.578,0.02909,0.0192,-0.0514
8,1.594,0.02948,0.01962,-0.0512
8.1,1.6067,0.02987,0.02028,-0.051
8.2,1.6206,0.03034,0.02092,-0.0508
8.3,1.6345,0.03082,0.02155,-0.0507
8.4,1.6485,0.0313,0.02217,-0.0505
8.5,1.6624,0.03179,0.02277,-0.0503
8.6,1.6763,0.03227,0.02337,-0.0501
8.7,1.6903,0.03275,0.02395,-0.0499
8.8,1.7043,0.03323,0.02452,-0.0497
8.9,1.7183,0.03372,0.02508,-0.0495
9,1.7324,0.0342,0.02563,-0.0493
9.1,1.7466,0.03468,0.02617,-0.0491
9.3,1.762,0.03637,0.02841,-0.0494
9.4,1.7692,0.03718,0.02948,-0.0497
9.5,1.7783,0.03795,0.03041,-0.05
9.6,1.7876,0.03871,0.03132,-0.0502
9.7,1.797,0.03944,0.03219,-0.0505
9.8,1.8065,0.04016,0.03303,-0.0508
9.9,1.8162,0.04087,0.03384,-0.0511
10,1.826,0.04155,0.03462,-0.0514
10.1,1.8361,0.04221,0.03537,-0.0517
10.2,1.8464,0.04286,0.03609,-0.052
10.4,1.8326,0.04704,0.04092,-0.0612
10.6,1.8437,0.04977,0.04392,-0.0687
10.7,1.8528,0.05086,0.0451,-0.0716
10.8,1.8632,0.05186,0.04616,-0.0743
10.9,1.8749,0.05281,0.04717,-0.0768
11,1.8873,0.0537,0.0481,-0.0791

