airfoilName st4.dat
Re 	7.300000e+05
M 	5.000000e-01
N 	4.500000e+00
VACC 	0 VACCflag 1
XTR 	1.00 	1.00 XTRflag 0
alpha,cl,cd,cdp,cm
-18.5,-2.0359,0.27996,0.27808,0.1916
-18.4,-2.0325,0.27255,0.27067,0.1904
-18.3,-2.0264,0.26837,0.26649,0.1887
-18.2,-2.0203,0.26427,0.26239,0.187
-18.1,-2.0139,0.26057,0.25869,0.1852
-18,-2.0073,0.2571,0.25522,0.1833
-17.9,-2.0006,0.2537,0.25182,0.1814
-17.8,-1.9939,0.25026,0.24838,0.1796
-17.7,-1.9872,0.24683,0.24494,0.1777
-17.6,-1.9806,0.24335,0.24146,0.1758
-17.5,-1.974,0.23983,0.23794,0.1738
-17.4,-1.9674,0.23627,0.23438,0.1719
-17.3,-1.9613,0.23196,0.23007,0.1695
-17.1,-1.9493,0.22339,0.2215,0.1647
-17,-1.9425,0.22036,0.21847,0.163
-16.9,-1.9356,0.21732,0.21543,0.1613
-16.8,-1.9288,0.21429,0.21239,0.1596
-16.7,-1.9219,0.21123,0.20934,0.1578
-16.6,-1.9151,0.20816,0.20627,0.1561
-16.5,-1.9083,0.20507,0.20318,0.1543
-16.4,-1.9016,0.20197,0.20007,0.1525
-16.3,-1.8948,0.19883,0.19693,0.1507
-16.2,-1.8881,0.19566,0.19377,0.1489
-16.1,-1.8815,0.19245,0.19055,0.1471
-16,-1.8749,0.18919,0.18729,0.1452
-15.8,-1.8619,0.18244,0.18054,0.1413
-15.7,-1.8556,0.17889,0.17699,0.1392
-15.6,-1.8497,0.17506,0.17316,0.137
-15.5,-1.8449,0.17013,0.16823,0.134
-15.4,-1.8381,0.16721,0.16531,0.1323
-15.3,-1.8313,0.16425,0.16235,0.1306
-15.2,-1.8246,0.16124,0.15934,0.1289
-15.1,-1.818,0.15818,0.15628,0.1271
-15,-1.8115,0.15507,0.15317,0.1254
-14.9,-1.8051,0.15188,0.14998,0.1236
-14.8,-1.7987,0.14863,0.14673,0.1217
-14.7,-1.7925,0.14529,0.14339,0.1198
-14.6,-1.7863,0.14187,0.13997,0.1179
-14.5,-1.7803,0.13832,0.13642,0.1159
-14.4,-1.7746,0.13463,0.13272,0.1137
-14.3,-1.7691,0.1307,0.12879,0.1114
-14.2,-1.7644,0.12612,0.12421,0.1086
-14.1,-1.7598,0.12161,0.11971,0.1058
-14,-1.7527,0.11881,0.11691,0.1042
-13.9,-1.7461,0.11563,0.11373,0.1023
-13.8,-1.7394,0.11244,0.11054,0.1004
-13.7,-1.7325,0.10924,0.10733,0.0983
-13.6,-1.7254,0.10603,0.10412,0.0961
-13.5,-1.7182,0.1028,0.1009,0.0938
-13.4,-1.7106,0.09958,0.09767,0.0914
-13.3,-1.7028,0.09633,0.09443,0.0887
-13.2,-1.6947,0.09302,0.09111,0.0856
-13.1,-1.6865,0.08951,0.0876,0.082
-13,-1.6783,0.08535,0.08345,0.0768
-12.9,-1.6666,0.08356,0.08165,0.074
-12.8,-1.654,0.082,0.0801,0.071
-12.7,-1.6397,0.081,0.0791,0.0675
-10.8,-1.4477,0.02183,0.01757,-0.0655
-10.7,-1.4285,0.02092,0.01642,-0.0658
-10.6,-1.409,0.02014,0.01542,-0.0659
-10.5,-1.3893,0.01947,0.01455,-0.0659
-10.4,-1.3695,0.01888,0.01379,-0.0657
-10.3,-1.3497,0.01837,0.01311,-0.0654
-10.2,-1.3299,0.01791,0.01251,-0.065
-10.1,-1.3101,0.0175,0.01198,-0.0646
-10,-1.2905,0.01714,0.01149,-0.0642
-9.9,-1.2711,0.01687,0.01116,-0.0638
-9.8,-1.2517,0.01659,0.01081,-0.0634
-9.7,-1.2325,0.01633,0.01048,-0.063
-9.6,-1.2133,0.01608,0.01017,-0.0626
-9.5,-1.1943,0.01585,0.00987,-0.0622
-9.4,-1.1753,0.01562,0.00958,-0.0618
-8.7,-1.0459,0.01466,0.00814,-0.059
-8.6,-1.0291,0.01459,0.00798,-0.0584
-8.5,-1.0131,0.01458,0.00783,-0.0577
-8.4,-0.9957,0.01448,0.00765,-0.0573
-8.3,-0.9781,0.01437,0.00748,-0.057
-8.2,-0.9606,0.01427,0.00733,-0.0567
-8.1,-0.943,0.01415,0.00717,-0.0564
-8,-0.9256,0.01406,0.00702,-0.0561
-7.9,-0.908,0.01395,0.00688,-0.0559
-7.8,-0.8906,0.01385,0.00673,-0.0556
-7.7,-0.8732,0.01376,0.0066,-0.0554
-7.6,-0.8558,0.01366,0.00646,-0.0552
-7.5,-0.8387,0.01358,0.00633,-0.055
-7.4,-0.8214,0.01348,0.00621,-0.0548
-7.3,-0.8041,0.01338,0.00609,-0.0547
-7.2,-0.7868,0.01329,0.00597,-0.0545
-7.1,-0.7697,0.0132,0.00586,-0.0544
-7,-0.7526,0.01312,0.00574,-0.0542
-6.9,-0.7354,0.01301,0.00563,-0.0541
-6.8,-0.7184,0.01291,0.00552,-0.054
-6.7,-0.7014,0.01282,0.00542,-0.054
-6.6,-0.6844,0.01274,0.00532,-0.0539
-6.5,-0.6676,0.01267,0.00522,-0.0538
-6.4,-0.6506,0.01258,0.00512,-0.0537
-6.3,-0.6339,0.0125,0.00503,-0.0536
-6.2,-0.6171,0.01241,0.00494,-0.0536
-6.1,-0.6003,0.01234,0.00485,-0.0535
-6,-0.5836,0.01227,0.00477,-0.0535
-5.9,-0.5669,0.01219,0.00469,-0.0535
-5.8,-0.5503,0.01211,0.0046,-0.0534
-5.7,-0.5339,0.01207,0.00453,-0.0534
-5.6,-0.5173,0.012,0.00446,-0.0534
-5.5,-0.5008,0.01193,0.00439,-0.0534
-5.4,-0.4843,0.01188,0.00431,-0.0534
-5.3,-0.4678,0.0118,0.00424,-0.0534
-5.2,-0.4514,0.01172,0.00418,-0.0534
-5.1,-0.435,0.01167,0.00411,-0.0534
-5,-0.4186,0.01162,0.00406,-0.0534
-4.9,-0.4022,0.01155,0.00399,-0.0535
-4.8,-0.3862,0.01153,0.00393,-0.0535
-4.7,-0.3698,0.01147,0.00388,-0.0536
-4.6,-0.3535,0.01141,0.00383,-0.0536
-4.5,-0.3372,0.01134,0.00376,-0.0537
-4.4,-0.321,0.01127,0.00371,-0.0538
-4.3,-0.3048,0.01123,0.00366,-0.0538
-4.2,-0.2886,0.01119,0.00362,-0.0539
-4.1,-0.2725,0.01115,0.00357,-0.0539
-4,-0.2564,0.01109,0.00352,-0.054
-3.9,-0.2403,0.01105,0.00348,-0.0541
-3.8,-0.2242,0.01101,0.00344,-0.0542
-3.7,-0.2081,0.01095,0.00339,-0.0543
-3.6,-0.192,0.0109,0.00336,-0.0544
-3.5,-0.176,0.01087,0.00332,-0.0545
-3.4,-0.16,0.01085,0.00329,-0.0546
-3.3,-0.1441,0.01081,0.00325,-0.0547
-3.2,-0.1281,0.01077,0.00322,-0.0548
-3.1,-0.1122,0.01075,0.00319,-0.0549
-3,-0.0962,0.01072,0.00316,-0.055
-2.9,-0.0804,0.0107,0.00314,-0.0552
-2.8,-0.0645,0.01067,0.00311,-0.0553
-2.7,-0.0486,0.01066,0.0031,-0.0554
-2.6,-0.0326,0.01061,0.00306,-0.0555
-2.5,-0.0168,0.01059,0.00304,-0.0557
-2.4,-0.001,0.01058,0.00303,-0.0558
-2.3,0.0147,0.01059,0.00301,-0.0559
-2.2,0.0304,0.0106,0.00301,-0.0561
-2.1,0.0463,0.01058,0.003,-0.0562
-2,0.062,0.01057,0.00298,-0.0563
-1.9,0.0778,0.01057,0.00297,-0.0565
-1.8,0.0935,0.01057,0.00297,-0.0566
-1.7,0.1092,0.0106,0.00297,-0.0568
-1.6,0.1248,0.01062,0.00297,-0.0569
-1.5,0.1404,0.01063,0.00297,-0.0571
-1.4,0.1558,0.0107,0.00299,-0.0572
-1.3,0.1711,0.01081,0.00301,-0.0574
-1.2,0.1862,0.01094,0.00306,-0.0576
-1.1,0.2014,0.01106,0.00309,-0.0577
-0.9,0.2316,0.01136,0.00321,-0.0582
-0.8,0.2469,0.01149,0.00325,-0.0583
-0.7,0.2624,0.01155,0.00327,-0.0585
-0.6,0.278,0.01161,0.00331,-0.0587
-0.5,0.2937,0.01163,0.00332,-0.0589
-0.4,0.3093,0.01167,0.00335,-0.0591
-0.3,0.3249,0.01172,0.00339,-0.0593
-0.2,0.3406,0.01176,0.00341,-0.0594
-0.1,0.3563,0.01178,0.00343,-0.0596
0,0.3721,0.0118,0.00345,-0.0598
0.1,0.3878,0.01183,0.00348,-0.06
0.2,0.4034,0.01187,0.00352,-0.0601
0.3,0.4192,0.0119,0.00354,-0.0603
0.4,0.435,0.01191,0.00356,-0.0604
0.5,0.4508,0.01194,0.00359,-0.0606
0.6,0.4666,0.01195,0.00361,-0.0608
0.7,0.4824,0.01198,0.00365,-0.061
0.8,0.4982,0.01203,0.00368,-0.0611
0.9,0.5139,0.01208,0.00372,-0.0613
1,0.5298,0.01209,0.00375,-0.0615
1.1,0.5456,0.01212,0.00378,-0.0616
1.2,0.5615,0.01215,0.00382,-0.0618
1.3,0.5773,0.01218,0.00386,-0.0619
1.4,0.5931,0.01223,0.0039,-0.0621
1.5,0.6091,0.01225,0.00393,-0.0623
1.6,0.6249,0.01231,0.00398,-0.0624
1.7,0.6408,0.01236,0.00403,-0.0625
1.8,0.6567,0.01239,0.00407,-0.0627
1.9,0.6727,0.01243,0.00412,-0.0628
2,0.6887,0.01245,0.00416,-0.063
2.1,0.7047,0.0125,0.0042,-0.0631
2.2,0.7207,0.01254,0.00425,-0.0632
2.3,0.7366,0.0126,0.0043,-0.0634
2.4,0.7526,0.01266,0.00436,-0.0635
2.5,0.7687,0.01271,0.00441,-0.0637
2.6,0.7846,0.01277,0.00447,-0.0638
2.7,0.8008,0.01282,0.00452,-0.0639
2.8,0.8169,0.01286,0.00458,-0.064
2.9,0.833,0.01292,0.00464,-0.0641
3,0.8493,0.01295,0.0047,-0.0642
3.1,0.8654,0.01302,0.00476,-0.0643
3.2,0.8816,0.01308,0.00483,-0.0644
3.3,0.8978,0.01315,0.00489,-0.0645
3.4,0.914,0.01322,0.00496,-0.0646
3.5,0.9303,0.01328,0.00503,-0.0647
3.6,0.9465,0.01336,0.00511,-0.0648
3.7,0.9628,0.01342,0.00518,-0.0649
3.8,0.9792,0.01348,0.00526,-0.0649
3.9,0.9955,0.01355,0.00534,-0.065
4,1.012,0.01362,0.00542,-0.065
4.1,1.0284,0.01367,0.0055,-0.0651
4.2,1.0449,0.01375,0.00559,-0.0651
4.3,1.0613,0.01384,0.00567,-0.0652
4.4,1.0778,0.01393,0.00576,-0.0652
4.6,1.1107,0.0141,0.00594,-0.0653
4.7,1.1272,0.01421,0.00605,-0.0653
4.8,1.1439,0.01429,0.00614,-0.0653
4.9,1.1605,0.01436,0.00623,-0.0653
5,1.1772,0.01444,0.00633,-0.0653
5.1,1.1939,0.01454,0.00644,-0.0652
5.2,1.2106,0.01463,0.00654,-0.0652
5.3,1.2274,0.01473,0.00664,-0.0652
5.4,1.244,0.01481,0.00675,-0.0651
5.5,1.2609,0.01493,0.00686,-0.0651
5.6,1.2777,0.01504,0.00697,-0.065
5.7,1.2946,0.01517,0.00709,-0.065
5.8,1.3115,0.0153,0.00721,-0.0649
5.9,1.3283,0.01539,0.00733,-0.0648
6,1.3454,0.0155,0.00746,-0.0647
6.1,1.3625,0.01561,0.00758,-0.0646
6.2,1.3797,0.01573,0.00771,-0.0645
6.3,1.3968,0.01584,0.00784,-0.0644
6.4,1.4137,0.01593,0.00796,-0.0642
6.5,1.4309,0.01606,0.0081,-0.0641
6.6,1.4481,0.01618,0.00823,-0.064
6.7,1.4653,0.01631,0.00836,-0.0638
6.8,1.4826,0.01645,0.0085,-0.0637
6.9,1.4997,0.01657,0.00864,-0.0635
7,1.5169,0.01671,0.00879,-0.0633
7.1,1.5343,0.01685,0.00894,-0.0631
7.2,1.5518,0.01699,0.00911,-0.0629
7.3,1.5694,0.01712,0.00927,-0.0627
7.4,1.587,0.01727,0.00943,-0.0624
7.5,1.604,0.01738,0.0096,-0.0621
7.6,1.6216,0.01753,0.00978,-0.0618
7.7,1.6392,0.01768,0.00995,-0.0616
7.8,1.6567,0.01782,0.01012,-0.0612
7.9,1.6742,0.01795,0.01027,-0.0609
8,1.6911,0.01807,0.01043,-0.0605
8.1,1.7086,0.01822,0.01061,-0.0601
8.2,1.7261,0.01838,0.01078,-0.0597
8.3,1.7437,0.01854,0.01097,-0.0593
8.4,1.7613,0.01871,0.01116,-0.0589
8.5,1.7773,0.01883,0.01136,-0.0582
8.6,1.7946,0.01899,0.01157,-0.0577
8.7,1.8116,0.01916,0.01179,-0.0572
8.8,1.8288,0.01933,0.01202,-0.0566
8.9,1.8455,0.01949,0.01224,-0.0559
9,1.8624,0.01966,0.01246,-0.0553
9.1,1.8793,0.01977,0.01265,-0.0546
9.2,1.8976,0.01999,0.01291,-0.0542
9.3,1.9159,0.02021,0.01318,-0.0538
9.4,1.9343,0.02043,0.01346,-0.0533
9.5,1.9526,0.02066,0.01374,-0.0529
9.7,1.9893,0.02108,0.01425,-0.0519
9.8,2.0074,0.02135,0.0146,-0.0514
9.9,2.025,0.02167,0.01504,-0.0508
10,2.0424,0.02201,0.01549,-0.0503
10.1,2.0595,0.02236,0.01597,-0.0497
10.2,2.0764,0.02274,0.01646,-0.0491
10.3,2.0929,0.02313,0.01699,-0.0485
10.4,2.1089,0.02354,0.01754,-0.0479
10.5,2.1246,0.02398,0.01812,-0.0472
10.6,2.1398,0.02444,0.01872,-0.0466
10.7,2.1544,0.02492,0.01935,-0.0459
10.8,2.1686,0.02543,0.02002,-0.0452
10.9,2.1822,0.02596,0.0207,-0.0446
11,2.1952,0.02652,0.02141,-0.0439
11.2,2.2109,0.02823,0.02356,-0.0427
11.3,2.2131,0.02938,0.02499,-0.0423
11.4,2.2154,0.03049,0.02634,-0.042
11.5,2.2166,0.03162,0.02769,-0.0418
11.6,2.2167,0.03277,0.02905,-0.0418
11.7,2.216,0.03393,0.0304,-0.042
11.8,2.2144,0.03511,0.03176,-0.0424
11.9,2.2121,0.03631,0.03312,-0.0432
12.2,2.2025,0.0403,0.03756,-0.0499
12.4,2.1428,0.05664,0.05451,-0.0971
12.5,2.1483,0.05845,0.05635,-0.1029
12.6,2.1552,0.05985,0.05777,-0.1074
12.7,2.1629,0.06103,0.05896,-0.1112

