airfoilName st5.dat
Re 	5.100000e+05
M 	5.000000e-01
N 	4.500000e+00
VACC 	0 VACCflag 1
XTR 	1.00 	1.00 XTRflag 0
alpha,cl,cd,cdp,cm
-19.6,-1.986,0.24791,0.24566,0.2251
-19.3,-1.9687,0.24028,0.23803,0.2195
-19.2,-1.9629,0.23776,0.23551,0.2177
-19.1,-1.9571,0.23525,0.233,0.2159
-19,-1.9513,0.23275,0.2305,0.2141
-18.9,-1.9455,0.23025,0.228,0.2122
-18.8,-1.9397,0.22776,0.22551,0.2104
-18.7,-1.9339,0.22528,0.22303,0.2086
-18.6,-1.9281,0.22281,0.22055,0.2068
-18.5,-1.9222,0.22033,0.21807,0.205
-18.4,-1.9164,0.21787,0.21561,0.2032
-18.3,-1.9106,0.21541,0.21315,0.2014
-18.2,-1.9047,0.21296,0.2107,0.1996
-18.1,-1.8989,0.2105,0.20823,0.1978
-18,-1.893,0.20805,0.20579,0.196
-17.9,-1.8872,0.20559,0.20333,0.1942
-17.8,-1.8813,0.20313,0.20086,0.1924
-17.7,-1.8755,0.20067,0.1984,0.1906
-17.6,-1.8696,0.19819,0.19592,0.1888
-17.5,-1.8637,0.19483,0.19256,0.1865
-17.4,-1.858,0.1919,0.18963,0.1844
-17.3,-1.8522,0.189,0.18674,0.1824
-17.2,-1.8463,0.18686,0.1846,0.1807
-17.1,-1.8404,0.18473,0.18247,0.179
-17,-1.8344,0.18261,0.18035,0.1774
-16.9,-1.8285,0.1805,0.17824,0.1757
-16.8,-1.8225,0.1784,0.17613,0.1741
-16.7,-1.8165,0.17631,0.17405,0.1724
-16.6,-1.8105,0.17423,0.17196,0.1707
-16.5,-1.8045,0.17216,0.1699,0.1691
-16.4,-1.7985,0.17011,0.16785,0.1674
-16.3,-1.7925,0.16807,0.16581,0.1658
-16.2,-1.7864,0.16605,0.16378,0.1641
-16.1,-1.7804,0.16403,0.16176,0.1625
-16,-1.7743,0.16203,0.15976,0.1608
-15.9,-1.7683,0.16004,0.15777,0.1592
-15.8,-1.7622,0.15806,0.1558,0.1575
-15.7,-1.7561,0.1561,0.15383,0.1559
-15.6,-1.75,0.15414,0.15188,0.1542
-15.5,-1.7439,0.1522,0.14993,0.1526
-15.4,-1.7377,0.15027,0.14801,0.1509
-15.3,-1.7317,0.14836,0.14609,0.1492
-15.2,-1.7255,0.14643,0.14417,0.1475
-15.1,-1.7193,0.14453,0.14227,0.1458
-15,-1.7131,0.14263,0.14037,0.1441
-14.9,-1.7069,0.14073,0.13847,0.1424
-14.8,-1.7007,0.13884,0.13657,0.1407
-14.7,-1.6945,0.13693,0.13467,0.139
-14.6,-1.6882,0.13501,0.13275,0.1372
-14.5,-1.6819,0.13305,0.13079,0.1354
-14.4,-1.6756,0.13104,0.12878,0.1335
-14.3,-1.6693,0.12894,0.12668,0.1315
-14.1,-1.657,0.1243,0.12204,0.1272
-14,-1.6503,0.12279,0.12054,0.1256
-13.9,-1.6436,0.12129,0.11904,0.1239
-13.8,-1.6369,0.11979,0.11754,0.1222
-13.7,-1.63,0.11829,0.11604,0.1205
-13.5,-1.6157,0.11542,0.11317,0.1171
-13.4,-1.6085,0.11387,0.11163,0.1152
-13.3,-1.6012,0.11232,0.11008,0.1134
-13.2,-1.5936,0.11075,0.10851,0.1115
-13.1,-1.586,0.10916,0.10693,0.1096
-13,-1.5782,0.10757,0.10534,0.1076
-12.9,-1.5703,0.10596,0.10373,0.1056
-12.8,-1.5622,0.10434,0.10211,0.1036
-12.7,-1.5541,0.10269,0.10047,0.1015
-12.6,-1.5459,0.10103,0.0988,0.0993
-12.5,-1.5376,0.09934,0.09712,0.0971
-12.4,-1.5292,0.0976,0.09537,0.0948
-12.3,-1.5209,0.09578,0.09355,0.0923
-12.2,-1.5126,0.09358,0.09136,0.0895
-12.1,-1.5043,0.09147,0.08926,0.0866
-12,-1.4952,0.09021,0.08801,0.0845
-11.9,-1.4861,0.08896,0.08675,0.0825
-11.8,-1.4769,0.08769,0.08549,0.0803
-11.7,-1.4676,0.08643,0.08423,0.0782
-11.6,-1.4581,0.08516,0.08297,0.076
-11.5,-1.4486,0.08388,0.08169,0.0737
-11.4,-1.4388,0.08259,0.0804,0.0714
-11.3,-1.4289,0.08128,0.0791,0.069
-11.2,-1.4188,0.07994,0.07776,0.0665
-11.1,-1.4086,0.07857,0.07639,0.0639
-11,-1.3982,0.07715,0.07498,0.0611
-10.9,-1.3876,0.07516,0.07299,0.0573
-10.8,-1.3771,0.07249,0.07033,0.0522
-10.7,-1.3656,0.07141,0.06926,0.0497
-10.6,-1.3537,0.07032,0.06816,0.047
-10.5,-1.3415,0.06917,0.06702,0.0442
-10.4,-1.329,0.06799,0.06584,0.0413
-10.3,-1.3162,0.06676,0.06461,0.0381
-10.2,-1.3028,0.06545,0.06331,0.0347
-10.1,-1.2891,0.06406,0.06191,0.031
-10,-1.2747,0.06253,0.06039,0.0269
-9.9,-1.2592,0.06077,0.05861,0.0219
-9.8,-1.2292,0.05667,0.05449,0.0091
-9.7,-1.2049,0.05493,0.05273,0.003
-9.6,-1.1783,0.05281,0.05058,-0.0041
-8.7,-0.9867,0.01958,0.01462,-0.0667
-8.6,-0.9695,0.0189,0.01377,-0.0667
-8.5,-0.9521,0.01836,0.0131,-0.0665
-8.4,-0.9348,0.01786,0.01246,-0.0664
-8.3,-0.9174,0.01739,0.01186,-0.0662
-8.2,-0.9,0.01695,0.0113,-0.0659
-8.1,-0.8822,0.01657,0.0108,-0.0657
-8,-0.8621,0.01616,0.01026,-0.066
-7.9,-0.8433,0.0158,0.0098,-0.0659
-7.8,-0.8245,0.01552,0.00945,-0.0659
-7.7,-0.806,0.01526,0.00913,-0.0659
-7.6,-0.7875,0.01501,0.00881,-0.0659
-7.5,-0.7695,0.01478,0.00851,-0.0658
-7.4,-0.7518,0.0146,0.00825,-0.0655
-7.3,-0.7351,0.01441,0.00799,-0.0652
-7.2,-0.7187,0.01423,0.00773,-0.0648
-7.1,-0.7027,0.01408,0.00753,-0.0644
-7,-0.6866,0.01393,0.00733,-0.0641
-6.9,-0.6708,0.01379,0.00713,-0.0636
-6.8,-0.6548,0.01364,0.00694,-0.0633
-6.7,-0.6397,0.01355,0.00676,-0.0628
-6.6,-0.6237,0.01342,0.00657,-0.0624
-6.5,-0.6078,0.0133,0.00639,-0.0621
-6.4,-0.5917,0.01318,0.00622,-0.0619
-6.3,-0.5758,0.01305,0.00606,-0.0616
-6.2,-0.5599,0.01294,0.00591,-0.0614
-6.1,-0.5439,0.01283,0.00578,-0.0612
-6,-0.5284,0.01276,0.00564,-0.0609
-5.9,-0.5123,0.01265,0.0055,-0.0607
-5.8,-0.4963,0.01255,0.00535,-0.0606
-5.7,-0.4805,0.01244,0.00522,-0.0604
-5.6,-0.4646,0.01234,0.0051,-0.0603
-5.5,-0.4486,0.01225,0.00499,-0.0602
-5.4,-0.4328,0.01216,0.00487,-0.06
-5.3,-0.417,0.01208,0.00476,-0.0599
-5.2,-0.4012,0.01198,0.00466,-0.0599
-5.1,-0.3855,0.01191,0.00456,-0.0597
-5,-0.3698,0.01184,0.00446,-0.0597
-4.9,-0.3541,0.01177,0.00437,-0.0596
-4.8,-0.3383,0.01168,0.00426,-0.0595
-4.7,-0.3226,0.0116,0.00417,-0.0595
-4.6,-0.3069,0.01152,0.00409,-0.0595
-4.5,-0.2914,0.01146,0.00401,-0.0594
-4.4,-0.2757,0.01138,0.00393,-0.0594
-4.3,-0.2605,0.01135,0.00386,-0.0593
-4.2,-0.2451,0.0113,0.00379,-0.0593
-4.1,-0.2295,0.01125,0.00372,-0.0592
-4,-0.2141,0.01119,0.00364,-0.0592
-3.9,-0.1987,0.01113,0.00359,-0.0592
-3.8,-0.1833,0.01108,0.00353,-0.0592
-3.7,-0.168,0.01105,0.00347,-0.0592
-3.6,-0.1525,0.01099,0.00341,-0.0593
-3.5,-0.1374,0.01097,0.00336,-0.0592
-3.4,-0.122,0.01093,0.00331,-0.0593
-3.3,-0.1068,0.01088,0.00326,-0.0593
-3.2,-0.0914,0.01084,0.00321,-0.0593
-3.1,-0.0762,0.01081,0.00316,-0.0594
-3,-0.0608,0.01076,0.00312,-0.0594
-2.9,-0.0459,0.01077,0.00309,-0.0594
-2.8,-0.0306,0.01074,0.00304,-0.0595
-2.7,-0.0153,0.01068,0.003,-0.0596
-2.6,-0.0002,0.01067,0.00298,-0.0596
-2.5,0.015,0.01065,0.00294,-0.0597
-2.4,0.03,0.01065,0.00292,-0.0597
-2.3,0.0452,0.01061,0.00289,-0.0598
-2.2,0.0601,0.01062,0.00288,-0.0599
-2.1,0.0753,0.01061,0.00285,-0.06
-2,0.0905,0.01058,0.00283,-0.0601
-1.9,0.1056,0.01057,0.00282,-0.0602
-1.8,0.1208,0.01056,0.00279,-0.0602
-1.7,0.1357,0.01055,0.00278,-0.0603
-1.6,0.1508,0.01056,0.00277,-0.0604
-1.5,0.1658,0.01055,0.00276,-0.0605
-1.4,0.1808,0.01057,0.00276,-0.0606
-1.3,0.1956,0.01059,0.00276,-0.0607
-1.2,0.2107,0.01059,0.00276,-0.0608
-1.1,0.2257,0.01061,0.00275,-0.0609
-1,0.2407,0.0106,0.00275,-0.061
-0.9,0.2557,0.01063,0.00275,-0.0611
-0.8,0.2707,0.01061,0.00275,-0.0613
-0.7,0.2857,0.01064,0.00275,-0.0614
-0.6,0.3007,0.01064,0.00277,-0.0615
-0.5,0.3153,0.01072,0.0028,-0.0616
-0.4,0.3301,0.01073,0.00281,-0.0617
-0.3,0.345,0.01077,0.00282,-0.0618
-0.2,0.3598,0.01081,0.00284,-0.0619
-0.1,0.3746,0.01087,0.00287,-0.062
0,0.3893,0.01091,0.0029,-0.0622
0.1,0.4039,0.01098,0.00294,-0.0623
0.2,0.4186,0.01107,0.00297,-0.0624
0.3,0.4331,0.01117,0.00302,-0.0625
0.4,0.4476,0.01127,0.00307,-0.0627
0.5,0.4617,0.01143,0.00315,-0.0628
0.6,0.4764,0.01151,0.00319,-0.063
0.7,0.4912,0.01159,0.00324,-0.0631
0.8,0.5061,0.01165,0.00329,-0.0632
0.9,0.5209,0.01168,0.00334,-0.0634
1,0.5359,0.01171,0.00338,-0.0635
1.1,0.5509,0.01176,0.00342,-0.0636
1.2,0.5658,0.01182,0.00348,-0.0638
1.3,0.5808,0.0118,0.00351,-0.0639
1.4,0.5958,0.01185,0.00357,-0.064
1.5,0.6108,0.01189,0.00362,-0.0642
1.6,0.6258,0.01193,0.00367,-0.0643
1.7,0.6408,0.01191,0.00372,-0.0644
1.8,0.6558,0.01192,0.00377,-0.0645
1.9,0.6709,0.01194,0.00383,-0.0646
2,0.6858,0.01196,0.00388,-0.0646
2.1,0.7004,0.01193,0.00394,-0.0646
2.2,0.7152,0.01198,0.00401,-0.0646
2.3,0.7301,0.012,0.00407,-0.0646
2.4,0.7449,0.01203,0.00413,-0.0646
2.5,0.759,0.01201,0.00419,-0.0644
2.6,0.7736,0.01205,0.00426,-0.0643
2.7,0.7881,0.0121,0.00432,-0.0642
2.8,0.8025,0.01216,0.0044,-0.0641
2.9,0.8153,0.01215,0.00446,-0.0636
3,0.8293,0.01218,0.00452,-0.0633
3.1,0.8431,0.01221,0.00458,-0.0629
3.2,0.8567,0.01225,0.00463,-0.0625
3.3,0.87,0.01229,0.00469,-0.0621
3.4,0.8807,0.01226,0.00469,-0.061
3.5,0.8945,0.01231,0.00473,-0.0607
3.6,0.9094,0.01238,0.00478,-0.0606
3.8,0.9414,0.01252,0.0049,-0.0608
3.9,0.957,0.01262,0.00499,-0.0608
4,0.9726,0.01272,0.00508,-0.0609
4.1,0.9882,0.01283,0.00517,-0.0609
4.2,1.0038,0.01294,0.00526,-0.0609
4.3,1.0194,0.01306,0.00536,-0.0609
4.4,1.0349,0.01319,0.00546,-0.0609
4.5,1.0506,0.01329,0.00557,-0.0609
4.6,1.0664,0.0134,0.00567,-0.0609
4.7,1.0822,0.0135,0.00577,-0.0609
4.8,1.098,0.01361,0.00586,-0.0608
4.9,1.1138,0.01373,0.00597,-0.0608
5,1.1295,0.01385,0.00608,-0.0608
5.1,1.1453,0.01398,0.00619,-0.0607
5.2,1.1611,0.01411,0.00631,-0.0607
5.3,1.177,0.01424,0.00643,-0.0606
5.4,1.193,0.01435,0.00655,-0.0606
5.5,1.209,0.01447,0.00667,-0.0605
5.6,1.225,0.01459,0.00679,-0.0604
5.7,1.241,0.01471,0.00692,-0.0604
5.8,1.2571,0.01484,0.00704,-0.0603
5.9,1.2731,0.01498,0.00717,-0.0602
6,1.289,0.01512,0.00729,-0.0601
6.1,1.3051,0.01527,0.00742,-0.06
6.2,1.3213,0.0154,0.00757,-0.0599
6.3,1.3376,0.01553,0.00771,-0.0597
6.4,1.3538,0.01566,0.00786,-0.0596
6.5,1.3702,0.0158,0.00801,-0.0595
6.6,1.3865,0.01595,0.00816,-0.0593
6.7,1.4028,0.01609,0.00831,-0.0592
6.8,1.4191,0.01624,0.00847,-0.059
6.9,1.4355,0.0164,0.00862,-0.0588
7,1.4518,0.01656,0.00878,-0.0586
7.1,1.4681,0.01673,0.00895,-0.0584
7.2,1.4846,0.01686,0.00911,-0.0582
7.3,1.5012,0.01702,0.00929,-0.058
7.4,1.5178,0.01718,0.00948,-0.0578
7.5,1.5344,0.01734,0.00966,-0.0575
7.6,1.551,0.01751,0.00985,-0.0573
7.7,1.5676,0.01768,0.01004,-0.057
7.8,1.5842,0.01785,0.01024,-0.0567
7.9,1.6008,0.01803,0.01043,-0.0564
8,1.6174,0.01822,0.01063,-0.0561
8.1,1.634,0.01841,0.01083,-0.0558
8.2,1.6508,0.0186,0.01106,-0.0555
8.3,1.6676,0.0188,0.0113,-0.0552
8.4,1.6844,0.019,0.01155,-0.0548
8.5,1.7011,0.01918,0.01177,-0.0544
8.6,1.7178,0.01939,0.01203,-0.054
8.7,1.7346,0.01959,0.01228,-0.0536
8.8,1.7513,0.01981,0.01253,-0.0532
8.9,1.768,0.02002,0.01279,-0.0528
9,1.7847,0.02024,0.01304,-0.0523
9.1,1.8013,0.02047,0.0133,-0.0518
9.2,1.8179,0.02072,0.01359,-0.0513
9.3,1.8345,0.02099,0.01395,-0.0508
9.4,1.8509,0.02128,0.01432,-0.0503
9.5,1.8672,0.02157,0.0147,-0.0497
9.6,1.8834,0.02187,0.01509,-0.0492
9.7,1.8995,0.02218,0.01548,-0.0486
9.8,1.9156,0.02244,0.01581,-0.048
9.9,1.9314,0.02276,0.0162,-0.0473
10,1.9472,0.02307,0.0166,-0.0467
10.1,1.9627,0.0234,0.017,-0.046
10.2,1.9782,0.02373,0.01741,-0.0453
10.3,1.9928,0.02414,0.01792,-0.0445
10.4,2.0061,0.02465,0.0186,-0.0438
10.5,2.0189,0.02519,0.01929,-0.043
10.6,2.0309,0.02576,0.02001,-0.0422
10.7,2.0423,0.02634,0.02076,-0.0414
10.8,2.0528,0.02696,0.02153,-0.0405
10.9,2.0627,0.0276,0.02232,-0.0397
11,2.0717,0.02825,0.02313,-0.0388
11.1,2.0799,0.02893,0.02395,-0.0379
11.2,2.0874,0.02962,0.02479,-0.0371
11.3,2.094,0.03033,0.02564,-0.0363
11.4,2.1031,0.03084,0.02625,-0.0354
11.5,2.102,0.0319,0.02751,-0.0347
11.7,2.0917,0.03431,0.03032,-0.034
11.8,2.0845,0.03548,0.03167,-0.0339
12.5,2.022,0.0572,0.05468,-0.0862

