airfoilName st5.dat
Re 	8.300000e+05
M 	5.000000e-01
N 	4.500000e+00
VACC 	0 VACCflag 1
XTR 	1.00 	1.00 XTRflag 0
alpha,cl,cd,cdp,cm
-19.9,-2.0108,0.25767,0.25601,0.2328
-19.8,-2.0053,0.2551,0.25344,0.2309
-19.7,-1.9994,0.25229,0.25062,0.229
-19.6,-1.9936,0.2496,0.24794,0.2271
-19.5,-1.9879,0.24691,0.24525,0.2252
-19.4,-1.9822,0.24424,0.24257,0.2233
-19.3,-1.9765,0.24155,0.23988,0.2213
-19.2,-1.9707,0.23886,0.23718,0.2194
-19.1,-1.965,0.23614,0.23447,0.2175
-19,-1.9593,0.23341,0.23173,0.2156
-18.9,-1.9535,0.23058,0.22891,0.2136
-18.8,-1.9479,0.22768,0.226,0.2116
-18.7,-1.9424,0.22386,0.22219,0.2091
-18.6,-1.9366,0.22149,0.21982,0.2074
-18.5,-1.9309,0.21912,0.21745,0.2056
-18.4,-1.9251,0.21677,0.2151,0.2039
-18.3,-1.9193,0.21442,0.21275,0.2021
-18.2,-1.9134,0.21209,0.21041,0.2004
-18.1,-1.9076,0.20977,0.20809,0.1987
-18,-1.9018,0.20745,0.20577,0.1969
-17.9,-1.8959,0.20515,0.20347,0.1952
-17.8,-1.8901,0.20285,0.20117,0.1935
-17.7,-1.8842,0.20057,0.19889,0.1918
-17.6,-1.8783,0.19829,0.19661,0.19
-17.5,-1.8724,0.19602,0.19434,0.1883
-17.4,-1.8665,0.19376,0.19208,0.1866
-17.3,-1.8606,0.19151,0.18983,0.1849
-17.2,-1.8546,0.18926,0.18758,0.1832
-17.1,-1.8487,0.18703,0.18535,0.1815
-17,-1.8427,0.18481,0.18313,0.1798
-16.9,-1.8367,0.18259,0.18091,0.178
-16.8,-1.8307,0.18039,0.17871,0.1763
-16.7,-1.8248,0.1782,0.17652,0.1746
-16.6,-1.8188,0.17601,0.17433,0.1729
-16.5,-1.8127,0.17377,0.17208,0.1711
-16.4,-1.8067,0.17159,0.16991,0.1694
-16.3,-1.8007,0.16942,0.16774,0.1677
-16.2,-1.7947,0.16726,0.16558,0.166
-16.1,-1.7886,0.16511,0.16342,0.1642
-16,-1.7826,0.16297,0.16128,0.1625
-15.9,-1.7766,0.16082,0.15913,0.1608
-15.8,-1.7705,0.15868,0.15699,0.159
-15.7,-1.7645,0.15652,0.15484,0.1572
-15.6,-1.7585,0.15436,0.15268,0.1555
-15.5,-1.7525,0.15217,0.15049,0.1537
-15.4,-1.7465,0.14994,0.14826,0.1518
-15.3,-1.7407,0.14755,0.14586,0.1499
-15.2,-1.7352,0.14453,0.14285,0.1475
-15.1,-1.729,0.14276,0.14108,0.1459
-15,-1.7227,0.141,0.13932,0.1442
-14.9,-1.7163,0.13925,0.13757,0.1426
-14.8,-1.7099,0.13751,0.13584,0.1409
-14.7,-1.7035,0.13579,0.13411,0.1392
-14.6,-1.6971,0.13408,0.1324,0.1375
-14.5,-1.6906,0.13238,0.1307,0.1359
-14.4,-1.6841,0.13069,0.12901,0.1342
-14.3,-1.6775,0.129,0.12733,0.1324
-14.2,-1.671,0.12733,0.12565,0.1307
-14.1,-1.6643,0.12566,0.12399,0.129
-14,-1.6576,0.124,0.12232,0.1272
-13.9,-1.6508,0.12233,0.12066,0.1254
-13.8,-1.644,0.12067,0.119,0.1236
-13.7,-1.637,0.119,0.11733,0.1218
-13.6,-1.63,0.11732,0.11565,0.1199
-13.5,-1.6228,0.11562,0.11396,0.118
-13.4,-1.6154,0.1139,0.11223,0.116
-13.3,-1.6079,0.11216,0.11049,0.114
-13.2,-1.6004,0.11038,0.10871,0.1119
-13.1,-1.5927,0.10857,0.1069,0.1097
-13,-1.5849,0.1067,0.10504,0.1075
-12.9,-1.5783,0.10329,0.10164,0.1039
-12.8,-1.57,0.10184,0.10019,0.1019
-12.7,-1.5616,0.10039,0.09874,0.0998
-12.6,-1.5531,0.09895,0.0973,0.0978
-12.5,-1.5445,0.0975,0.09586,0.0957
-12.4,-1.5358,0.09606,0.09441,0.0936
-12.3,-1.527,0.09461,0.09297,0.0914
-12.2,-1.5181,0.09317,0.09153,0.0892
-12.1,-1.5092,0.09172,0.09008,0.087
-12,-1.5002,0.09027,0.08864,0.0847
-11.9,-1.491,0.08883,0.08719,0.0824
-11.8,-1.4819,0.08737,0.08573,0.08
-11.7,-1.4726,0.08589,0.08426,0.0775
-11.6,-1.4631,0.08438,0.08275,0.0749
-11.5,-1.4535,0.08282,0.08119,0.0722
-11.4,-1.4438,0.08118,0.07955,0.0693
-11.3,-1.434,0.07939,0.07776,0.066
-11.2,-1.4246,0.07681,0.07519,0.0614
-11.1,-1.4138,0.07562,0.07401,0.0588
-11,-1.4027,0.07441,0.0728,0.0561
-10.9,-1.3914,0.07318,0.07157,0.0534
-10.8,-1.3799,0.0719,0.0703,0.0505
-10.7,-1.368,0.07058,0.06897,0.0474
-10.6,-1.3557,0.06919,0.06759,0.0441
-10.5,-1.3431,0.06771,0.06611,0.0405
-10.4,-1.3299,0.066,0.0644,0.0363
-10.3,-1.316,0.06401,0.06241,0.0312
-10.2,-1.3006,0.06066,0.05905,0.0222
-10.1,-1.2813,0.05911,0.05749,0.0169
-10,-1.257,0.05714,0.05551,0.01
-9.9,-1.2292,0.05463,0.05297,0.0015
-9.1,-1.0524,0.01834,0.01407,-0.0703
-9,-1.0344,0.0174,0.01288,-0.0704
-8.9,-1.0166,0.01697,0.01231,-0.0701
-8.8,-0.9994,0.0165,0.01169,-0.0696
-8.7,-0.9838,0.01614,0.01116,-0.0688
-8.6,-0.9672,0.01578,0.01065,-0.0683
-8.5,-0.9503,0.01544,0.01018,-0.0677
-8.4,-0.9335,0.01515,0.00976,-0.0671
-8.3,-0.9164,0.01487,0.00936,-0.0666
-8.2,-0.8995,0.01463,0.009,-0.0661
-8.1,-0.883,0.01443,0.0087,-0.0655
-8,-0.866,0.01424,0.00842,-0.0651
-7.9,-0.8489,0.01405,0.00817,-0.0647
-7.8,-0.8319,0.01387,0.00792,-0.0643
-7.7,-0.815,0.01373,0.00771,-0.0639
-7.6,-0.798,0.01356,0.00748,-0.0636
-7.5,-0.781,0.0134,0.00726,-0.0632
-7.4,-0.7644,0.01328,0.00705,-0.0628
-7.3,-0.7475,0.01314,0.00686,-0.0625
-7.2,-0.7307,0.01299,0.00667,-0.0623
-7.1,-0.714,0.01287,0.00649,-0.062
-7,-0.6973,0.01274,0.00633,-0.0618
-6.9,-0.6806,0.01261,0.00617,-0.0615
-6.8,-0.6639,0.0125,0.00601,-0.0613
-6.7,-0.6476,0.01241,0.00586,-0.061
-6.6,-0.631,0.01231,0.00573,-0.0608
-6.5,-0.6145,0.01219,0.00558,-0.0607
-6.4,-0.5981,0.01208,0.00544,-0.0605
-6.3,-0.5817,0.01198,0.00531,-0.0603
-6.2,-0.5653,0.01188,0.00519,-0.0602
-6.1,-0.549,0.01178,0.00508,-0.06
-6,-0.5327,0.01169,0.00496,-0.0599
-5.9,-0.5164,0.01161,0.00485,-0.0598
-5.8,-0.5004,0.01153,0.00474,-0.0596
-5.7,-0.4842,0.01143,0.00463,-0.0595
-5.6,-0.4681,0.01135,0.00453,-0.0594
-5.5,-0.452,0.01127,0.00444,-0.0593
-5.4,-0.436,0.01121,0.00435,-0.0593
-5.3,-0.42,0.01112,0.00425,-0.0592
-5.2,-0.404,0.01103,0.00416,-0.0591
-5.1,-0.388,0.01095,0.00408,-0.0591
-5,-0.3723,0.01091,0.004,-0.059
-4.9,-0.3564,0.01084,0.00393,-0.059
-4.8,-0.3407,0.01078,0.00384,-0.0589
-4.7,-0.3251,0.01074,0.00377,-0.0589
-4.6,-0.3093,0.01067,0.0037,-0.0589
-4.5,-0.2936,0.01062,0.00363,-0.0588
-4.4,-0.278,0.01059,0.00357,-0.0588
-4.3,-0.2624,0.01053,0.0035,-0.0588
-4.2,-0.2468,0.01048,0.00344,-0.0588
-4.1,-0.2313,0.01045,0.00339,-0.0588
-4,-0.2161,0.01045,0.00333,-0.0588
-3.9,-0.2006,0.01041,0.00328,-0.0588
-3.8,-0.185,0.01036,0.00323,-0.0588
-3.7,-0.1695,0.01032,0.00318,-0.0589
-3.6,-0.154,0.01029,0.00312,-0.0589
-3.5,-0.1385,0.01024,0.00308,-0.0589
-3.4,-0.1231,0.01019,0.00304,-0.059
-3.3,-0.1079,0.01019,0.003,-0.059
-3.2,-0.0924,0.01015,0.00296,-0.0591
-3.1,-0.077,0.01011,0.00293,-0.0592
-3,-0.0617,0.0101,0.0029,-0.0592
-2.9,-0.0464,0.01005,0.00286,-0.0593
-2.8,-0.031,0.01003,0.00283,-0.0594
-2.7,-0.0158,0.01003,0.00281,-0.0594
-2.6,-0.0007,0.01003,0.00279,-0.0595
-2.5,0.0146,0.01001,0.00276,-0.0596
-2.4,0.0299,0.00997,0.00273,-0.0597
-2.3,0.0451,0.00996,0.00271,-0.0598
-2.2,0.0604,0.00994,0.0027,-0.0599
-2.1,0.0757,0.00992,0.00267,-0.06
-2,0.0909,0.0099,0.00266,-0.0601
-1.9,0.106,0.0099,0.00264,-0.0602
-1.8,0.121,0.00992,0.00264,-0.0603
-1.7,0.136,0.00994,0.00264,-0.0604
-1.6,0.1512,0.00994,0.00263,-0.0605
-1.5,0.1662,0.00996,0.00263,-0.0606
-1.4,0.1813,0.00996,0.00263,-0.0607
-1.3,0.1965,0.00995,0.00262,-0.0609
-1.2,0.2115,0.00997,0.00263,-0.061
-1.1,0.2266,0.00998,0.00262,-0.0611
-1,0.2416,0.01,0.00263,-0.0612
-0.9,0.2564,0.01007,0.00266,-0.0613
-0.8,0.2714,0.0101,0.00266,-0.0615
-0.7,0.2863,0.01014,0.00268,-0.0616
-0.6,0.3012,0.0102,0.0027,-0.0617
-0.5,0.3161,0.01024,0.00272,-0.0618
-0.4,0.3309,0.01031,0.00275,-0.062
-0.3,0.3456,0.0104,0.00278,-0.0621
-0.2,0.3603,0.0105,0.00283,-0.0622
-0.1,0.3749,0.01061,0.00287,-0.0624
0.1,0.4042,0.01081,0.00297,-0.0627
0.2,0.4191,0.01088,0.00301,-0.0628
0.3,0.4342,0.01091,0.00303,-0.0629
0.4,0.4493,0.01093,0.00306,-0.0631
0.5,0.4643,0.01097,0.0031,-0.0633
0.6,0.4794,0.011,0.00313,-0.0634
0.7,0.4945,0.01102,0.00315,-0.0635
0.8,0.5097,0.01102,0.00318,-0.0637
0.9,0.5246,0.01109,0.00323,-0.0638
1,0.5398,0.01111,0.00326,-0.064
1.1,0.555,0.01113,0.00329,-0.0641
1.2,0.5702,0.01115,0.00332,-0.0642
1.3,0.5854,0.01115,0.00336,-0.0644
1.4,0.6006,0.01119,0.0034,-0.0645
1.5,0.6157,0.01123,0.00344,-0.0646
1.6,0.631,0.01125,0.00348,-0.0647
1.7,0.6463,0.01124,0.00352,-0.0649
1.8,0.6616,0.01127,0.00355,-0.065
1.9,0.6768,0.0113,0.0036,-0.0651
2,0.692,0.01135,0.00364,-0.0653
2.1,0.7072,0.01136,0.0037,-0.0654
2.2,0.7226,0.01138,0.00374,-0.0655
2.3,0.7379,0.01141,0.00378,-0.0656
2.4,0.7533,0.01143,0.00383,-0.0657
2.5,0.7687,0.01142,0.00387,-0.0659
2.6,0.784,0.01145,0.00393,-0.066
2.7,0.7993,0.01149,0.00398,-0.066
2.8,0.8146,0.01153,0.00404,-0.0661
2.9,0.8299,0.01151,0.00411,-0.0662
3,0.8453,0.01154,0.00417,-0.0663
3.1,0.8607,0.01157,0.00423,-0.0663
3.2,0.876,0.01161,0.00429,-0.0663
3.3,0.8911,0.01162,0.00435,-0.0663
3.4,0.9064,0.01167,0.00442,-0.0663
3.5,0.9217,0.01172,0.00449,-0.0663
3.6,0.937,0.01179,0.00456,-0.0663
3.7,0.9522,0.01183,0.00464,-0.0663
3.8,0.9671,0.01184,0.00471,-0.0661
3.9,0.9823,0.01189,0.00478,-0.0661
4,0.9975,0.01194,0.00485,-0.066
4.1,1.0126,0.012,0.00492,-0.0658
4.2,1.0277,0.01206,0.005,-0.0657
4.3,1.0425,0.01213,0.00507,-0.0655
4.4,1.056,0.01216,0.00514,-0.065
4.5,1.0705,0.01221,0.00522,-0.0648
4.6,1.085,0.01226,0.00529,-0.0644
4.7,1.0994,0.01231,0.00536,-0.0641
4.8,1.1136,0.01236,0.00542,-0.0637
4.9,1.1244,0.01229,0.0054,-0.0625
5,1.141,0.01235,0.00545,-0.0626
5.1,1.1569,0.01245,0.00554,-0.0626
5.2,1.1729,0.01256,0.00563,-0.0625
5.3,1.1889,0.01267,0.00573,-0.0625
5.4,1.2048,0.01279,0.00583,-0.0624
5.5,1.2209,0.01289,0.00594,-0.0624
5.6,1.2371,0.01298,0.00603,-0.0623
5.7,1.2533,0.01309,0.00613,-0.0622
5.8,1.2695,0.01319,0.00623,-0.0622
5.9,1.2857,0.0133,0.00634,-0.0621
6,1.302,0.01342,0.00644,-0.062
6.1,1.3182,0.01354,0.00655,-0.0619
6.2,1.3345,0.01366,0.00666,-0.0618
6.3,1.3507,0.01379,0.00679,-0.0616
6.4,1.3671,0.01391,0.00691,-0.0615
6.5,1.3836,0.01401,0.00703,-0.0614
6.6,1.4001,0.01413,0.00714,-0.0612
6.7,1.4167,0.01425,0.00727,-0.0611
6.8,1.4332,0.01436,0.00738,-0.0609
6.9,1.4498,0.01449,0.00751,-0.0607
7,1.4664,0.01462,0.00764,-0.0606
7.1,1.4829,0.01475,0.00777,-0.0604
7.2,1.4996,0.01489,0.00791,-0.0602
7.3,1.5162,0.01503,0.00805,-0.06
7.4,1.5331,0.01516,0.0082,-0.0597
7.5,1.55,0.01529,0.00834,-0.0595
7.6,1.5669,0.01542,0.00849,-0.0592
7.7,1.5838,0.01556,0.00864,-0.059
7.8,1.6008,0.0157,0.0088,-0.0587
7.9,1.6178,0.01584,0.00895,-0.0584
8,1.6349,0.01599,0.00911,-0.0581
8.1,1.6519,0.01613,0.00927,-0.0578
8.2,1.6688,0.01628,0.00942,-0.0575
8.3,1.6859,0.01644,0.00959,-0.0572
8.4,1.703,0.0166,0.00977,-0.0568
8.5,1.7203,0.01676,0.00996,-0.0565
8.6,1.7377,0.01691,0.01015,-0.0561
8.7,1.7551,0.01708,0.01034,-0.0557
8.8,1.7725,0.01724,0.01054,-0.0553
8.9,1.7899,0.01742,0.01074,-0.0549
9,1.8073,0.01759,0.01095,-0.0544
9.1,1.8247,0.01777,0.01116,-0.054
9.2,1.8422,0.01795,0.01137,-0.0535
9.3,1.8596,0.01814,0.01159,-0.053
9.4,1.877,0.01833,0.01181,-0.0525
9.5,1.8944,0.01851,0.01202,-0.052
9.6,1.912,0.01872,0.01228,-0.0514
9.7,1.9296,0.01894,0.01256,-0.0509
9.8,1.9472,0.01916,0.01284,-0.0503
9.9,1.9647,0.01939,0.01313,-0.0497
10,1.9822,0.01963,0.01343,-0.049
10.1,1.9996,0.01988,0.01375,-0.0484
10.2,2.0169,0.02014,0.01407,-0.0477
10.3,2.0342,0.0204,0.01441,-0.047
10.4,2.0513,0.02068,0.01475,-0.0463
10.5,2.0684,0.02096,0.0151,-0.0455
10.6,2.0852,0.02126,0.01547,-0.0447
10.7,2.1018,0.02158,0.01588,-0.0439
10.8,2.1175,0.022,0.01642,-0.043
10.9,2.1327,0.02245,0.017,-0.0422
11,2.1472,0.02293,0.01762,-0.0412
11.1,2.1612,0.02341,0.01824,-0.0403
11.2,2.1742,0.02396,0.01893,-0.0393
11.3,2.1862,0.02455,0.01968,-0.0383
11.4,2.1971,0.02517,0.02046,-0.0373
11.5,2.2069,0.02584,0.02128,-0.0363
11.6,2.2155,0.02654,0.02214,-0.0352
11.7,2.2228,0.02727,0.02304,-0.0341
11.8,2.2288,0.02804,0.02397,-0.0331
11.9,2.2331,0.02885,0.02493,-0.032
12.1,2.2248,0.03118,0.02767,-0.0302
12.3,2.2105,0.03347,0.03031,-0.0291
13.4,2.0682,0.07032,0.06853,-0.1156
13.5,2.0675,0.07226,0.07048,-0.1201
13.6,2.0692,0.07388,0.0721,-0.1238
13.8,2.0788,0.07628,0.07452,-0.129
13.9,2.084,0.07742,0.07566,-0.1314

