airfoilName st5.dat
Re 	650000
M 	5.000000e-01
N 	4.500000e+00
VACC 	0 VACCflag 1
XTR 	1.00 	1.00 XTRflag 0
alpha,cl,cd,cdp,cm
-19.7,-1.9959,0.24959,0.24765,0.2271
-19.6,-1.9901,0.24705,0.24512,0.2253
-19.5,-1.9844,0.24455,0.24261,0.2235
-19.4,-1.9787,0.24206,0.24012,0.2216
-19.3,-1.9729,0.23958,0.23764,0.2198
-19.2,-1.9672,0.23711,0.23517,0.218
-19.1,-1.9614,0.23465,0.23271,0.2162
-19,-1.9556,0.2322,0.23026,0.2144
-18.9,-1.9498,0.22976,0.22781,0.2126
-18.8,-1.944,0.22733,0.22538,0.2108
-18.7,-1.9383,0.2249,0.22296,0.2091
-18.6,-1.9324,0.22249,0.22054,0.2073
-18.5,-1.9266,0.22008,0.21813,0.2055
-18.4,-1.9208,0.21769,0.21574,0.2038
-18.3,-1.915,0.2153,0.21335,0.202
-18.2,-1.9092,0.21292,0.21097,0.2002
-18.1,-1.9033,0.21055,0.20859,0.1985
-18,-1.8975,0.20819,0.20624,0.1967
-17.9,-1.8916,0.20584,0.20388,0.195
-17.8,-1.8858,0.20349,0.20153,0.1932
-17.7,-1.8799,0.20116,0.1992,0.1915
-17.6,-1.874,0.19882,0.19687,0.1897
-17.5,-1.8682,0.19651,0.19455,0.188
-17.4,-1.8623,0.19419,0.19224,0.1863
-17.3,-1.8564,0.19188,0.18993,0.1845
-17.2,-1.8504,0.18957,0.18762,0.1828
-17.1,-1.8445,0.18727,0.18532,0.181
-17,-1.8386,0.18497,0.18301,0.1793
-16.9,-1.8326,0.18243,0.18047,0.1774
-16.8,-1.8266,0.18011,0.17815,0.1756
-16.7,-1.8207,0.17779,0.17583,0.1739
-16.6,-1.8148,0.17545,0.17348,0.1721
-16.5,-1.8088,0.17309,0.17113,0.1703
-16.4,-1.8029,0.17068,0.16872,0.1684
-16.3,-1.7971,0.16816,0.1662,0.1665
-16.2,-1.7916,0.16481,0.16285,0.1641
-16.1,-1.7855,0.16284,0.16089,0.1625
-16,-1.7794,0.16089,0.15893,0.1609
-15.9,-1.7733,0.15896,0.157,0.1592
-15.8,-1.7672,0.15704,0.15508,0.1576
-15.7,-1.7611,0.15513,0.15317,0.1559
-15.6,-1.755,0.15324,0.15128,0.1543
-15.5,-1.7488,0.15136,0.14941,0.1527
-15.4,-1.7427,0.1495,0.14754,0.151
-15.3,-1.7365,0.14765,0.1457,0.1494
-15.2,-1.7303,0.14582,0.14387,0.1477
-15.1,-1.7241,0.144,0.14204,0.1461
-15,-1.7178,0.14219,0.14024,0.1444
-14.9,-1.7115,0.14039,0.13844,0.1428
-14.8,-1.7052,0.1386,0.13665,0.1411
-14.7,-1.6989,0.13681,0.13486,0.1394
-14.6,-1.6925,0.13504,0.13309,0.1377
-14.5,-1.6861,0.13327,0.13132,0.136
-14.4,-1.6797,0.13151,0.12956,0.1343
-14.3,-1.6732,0.12976,0.12781,0.1325
-14.2,-1.6667,0.128,0.12605,0.1308
-14.1,-1.6602,0.12624,0.1243,0.129
-14,-1.6536,0.12447,0.12253,0.1272
-13.9,-1.647,0.12269,0.12075,0.1253
-13.8,-1.6402,0.1209,0.11895,0.1235
-13.7,-1.6335,0.11907,0.11712,0.1215
-13.6,-1.6266,0.11716,0.11522,0.1195
-13.5,-1.6198,0.11513,0.11319,0.1174
-13.4,-1.6134,0.11216,0.11023,0.1145
-13.3,-1.6059,0.1107,0.10876,0.1126
-13.1,-1.5901,0.10795,0.10602,0.109
-13,-1.5822,0.10644,0.10451,0.107
-12.9,-1.5741,0.10492,0.103,0.105
-12.8,-1.5659,0.10341,0.10148,0.103
-12.7,-1.5576,0.10188,0.09996,0.101
-12.6,-1.5493,0.10036,0.09844,0.0989
-12.5,-1.5408,0.09883,0.09691,0.0968
-12.4,-1.5323,0.0973,0.09539,0.0947
-12.3,-1.5237,0.09577,0.09385,0.0925
-12.2,-1.5149,0.09422,0.0923,0.0903
-12.1,-1.5061,0.09266,0.09075,0.088
-12,-1.4973,0.09108,0.08917,0.0856
-11.9,-1.4883,0.08946,0.08755,0.0832
-11.8,-1.4793,0.08777,0.08586,0.0805
-11.7,-1.4704,0.08591,0.08401,0.0777
-11.6,-1.4619,0.08342,0.08152,0.0738
-11.5,-1.452,0.08223,0.08034,0.0716
-11.4,-1.442,0.08104,0.07915,0.0693
-11.3,-1.4319,0.07983,0.07795,0.0669
-11.2,-1.4216,0.07861,0.07673,0.0645
-11.1,-1.4112,0.07737,0.07549,0.0619
-11,-1.4004,0.07609,0.07422,0.0593
-10.9,-1.3894,0.07478,0.07291,0.0565
-10.8,-1.3782,0.07343,0.07156,0.0536
-10.7,-1.3667,0.07201,0.07015,0.0505
-10.6,-1.3549,0.07024,0.06838,0.0466
-10.5,-1.3425,0.06829,0.06642,0.0422
-10.4,-1.3296,0.06577,0.06392,0.0363
-10.3,-1.3161,0.06459,0.06273,0.0331
-10.2,-1.3023,0.06335,0.06149,0.0296
-10.1,-1.288,0.06203,0.06017,0.0258
-9.7,-1.1763,0.04933,0.04734,-0.0146
-9,-1.0389,0.02019,0.01593,-0.0675
-8.9,-1.022,0.01925,0.01476,-0.0677
-8.8,-1.0046,0.01843,0.01373,-0.0678
-8.7,-0.9857,0.0177,0.0128,-0.068
-8.6,-0.9665,0.01707,0.01199,-0.0681
-8.5,-0.9474,0.01652,0.01127,-0.0681
-8.4,-0.9273,0.01608,0.01069,-0.0682
-8.3,-0.9089,0.01577,0.01028,-0.068
-8.2,-0.891,0.01548,0.0099,-0.0677
-8.1,-0.8737,0.01522,0.00955,-0.0673
-8,-0.8569,0.01498,0.00922,-0.0668
-7.9,-0.8403,0.01478,0.00893,-0.0664
-7.8,-0.824,0.01457,0.00863,-0.0658
-7.7,-0.8087,0.01441,0.00835,-0.0651
-7.6,-0.7922,0.01422,0.00808,-0.0647
-7.5,-0.7759,0.01405,0.00784,-0.0642
-7.4,-0.7594,0.01389,0.00762,-0.0638
-7.3,-0.743,0.01374,0.00741,-0.0635
-7.2,-0.7266,0.01359,0.0072,-0.0631
-7.1,-0.7106,0.01348,0.007,-0.0627
-7,-0.6942,0.01334,0.00681,-0.0624
-6.9,-0.6777,0.01321,0.00662,-0.0621
-6.8,-0.6613,0.01308,0.00645,-0.0618
-6.7,-0.645,0.01296,0.00628,-0.0616
-6.6,-0.6285,0.01283,0.00612,-0.0614
-6.5,-0.6122,0.01271,0.00597,-0.0612
-6.4,-0.5959,0.0126,0.00582,-0.0609
-6.3,-0.5799,0.01252,0.00568,-0.0607
-6.2,-0.5636,0.01242,0.00554,-0.0605
-6.1,-0.5473,0.01231,0.0054,-0.0603
-6,-0.5312,0.01221,0.00527,-0.0602
-5.9,-0.515,0.01211,0.00515,-0.0601
-5.8,-0.4989,0.01201,0.00504,-0.06
-5.7,-0.4828,0.01192,0.00492,-0.0598
-5.6,-0.4668,0.01185,0.00481,-0.0597
-5.5,-0.4509,0.01176,0.0047,-0.0596
-5.4,-0.4349,0.01167,0.00459,-0.0595
-5.3,-0.419,0.01158,0.00449,-0.0594
-5.2,-0.4031,0.01151,0.0044,-0.0593
-5.1,-0.3872,0.01144,0.00431,-0.0593
-5,-0.3713,0.01134,0.00421,-0.0593
-4.9,-0.3555,0.01126,0.00412,-0.0592
-4.8,-0.3397,0.0112,0.00404,-0.0592
-4.7,-0.324,0.01114,0.00396,-0.0591
-4.6,-0.3085,0.0111,0.00388,-0.059
-4.5,-0.293,0.01105,0.00381,-0.059
-4.4,-0.2773,0.01097,0.00374,-0.059
-4.3,-0.2616,0.01092,0.00367,-0.059
-4.2,-0.2462,0.01088,0.00361,-0.0589
-4.1,-0.2306,0.01081,0.00354,-0.059
-4,-0.2151,0.01076,0.00348,-0.059
-3.9,-0.1997,0.01074,0.00342,-0.0589
-3.8,-0.1842,0.01069,0.00336,-0.059
-3.7,-0.1689,0.01065,0.00331,-0.059
-3.6,-0.1537,0.01064,0.00327,-0.059
-3.5,-0.1382,0.01059,0.00321,-0.059
-3.4,-0.1228,0.01055,0.00316,-0.059
-3.3,-0.1074,0.01051,0.00312,-0.0591
-3.2,-0.092,0.01048,0.00308,-0.0591
-3.1,-0.077,0.01046,0.00304,-0.0592
-3,-0.0616,0.01042,0.003,-0.0592
-2.9,-0.0462,0.0104,0.00295,-0.0593
-2.8,-0.031,0.01037,0.00293,-0.0594
-2.7,-0.0156,0.01033,0.00289,-0.0595
-2.6,-0.0006,0.01036,0.00288,-0.0595
-2.5,0.0147,0.0103,0.00284,-0.0596
-2.4,0.0297,0.01032,0.00283,-0.0596
-2.3,0.0449,0.01029,0.0028,-0.0597
-2.2,0.0602,0.01027,0.00278,-0.0598
-2.1,0.0753,0.01025,0.00276,-0.0599
-2,0.0906,0.01022,0.00274,-0.06
-1.9,0.1058,0.01021,0.00272,-0.0601
-1.8,0.1208,0.01022,0.00271,-0.0602
-1.7,0.1359,0.01023,0.0027,-0.0603
-1.6,0.1508,0.01026,0.00271,-0.0604
-1.5,0.1659,0.01024,0.00269,-0.0605
-1.4,0.1809,0.01026,0.00269,-0.0606
-1.3,0.1959,0.01027,0.00268,-0.0607
-1.2,0.211,0.01027,0.00269,-0.0608
-1.1,0.2261,0.01027,0.00268,-0.061
-1,0.2411,0.01028,0.00269,-0.0611
-0.9,0.2562,0.0103,0.00269,-0.0612
-0.8,0.2712,0.01032,0.00269,-0.0613
-0.7,0.2859,0.01039,0.00272,-0.0614
-0.6,0.3008,0.01041,0.00272,-0.0616
-0.5,0.3157,0.01044,0.00274,-0.0617
-0.4,0.3306,0.0105,0.00276,-0.0618
-0.3,0.3454,0.01055,0.00279,-0.0619
-0.2,0.3601,0.0106,0.00282,-0.0621
-0.1,0.3748,0.01068,0.00286,-0.0622
0,0.3895,0.01078,0.00289,-0.0623
0.1,0.4041,0.01088,0.00294,-0.0624
0.2,0.4187,0.01096,0.00298,-0.0626
0.3,0.433,0.01114,0.00305,-0.0627
0.4,0.4478,0.0112,0.0031,-0.0629
0.5,0.4627,0.01127,0.00314,-0.063
0.6,0.4777,0.01131,0.00318,-0.0632
0.7,0.4927,0.01132,0.00321,-0.0633
0.8,0.5077,0.01137,0.00325,-0.0635
0.9,0.5228,0.01141,0.00329,-0.0636
1,0.5379,0.01144,0.00332,-0.0637
1.1,0.553,0.01144,0.00336,-0.0639
1.2,0.5679,0.0115,0.00341,-0.064
1.3,0.583,0.01154,0.00346,-0.0641
1.4,0.5982,0.01156,0.0035,-0.0643
1.5,0.6134,0.01155,0.00353,-0.0644
1.6,0.6286,0.01158,0.00357,-0.0646
1.7,0.6437,0.01161,0.00362,-0.0647
1.8,0.6589,0.01166,0.00367,-0.0648
1.9,0.674,0.01165,0.00372,-0.0649
2,0.6893,0.01167,0.00377,-0.065
2.1,0.7045,0.01169,0.00381,-0.0651
2.2,0.7198,0.01171,0.00386,-0.0652
2.3,0.7348,0.0117,0.00392,-0.0654
2.4,0.7499,0.01174,0.00398,-0.0654
2.5,0.765,0.01177,0.00404,-0.0655
2.6,0.7802,0.01178,0.0041,-0.0655
2.7,0.7951,0.01176,0.00416,-0.0655
2.8,0.8102,0.0118,0.00422,-0.0655
2.9,0.8253,0.01184,0.00429,-0.0655
3,0.8403,0.01189,0.00435,-0.0655
3.1,0.8553,0.01194,0.00442,-0.0655
3.2,0.8696,0.01196,0.00449,-0.0653
3.3,0.8845,0.012,0.00457,-0.0652
3.4,0.8992,0.01204,0.00463,-0.065
3.5,0.9139,0.01209,0.0047,-0.0649
3.6,0.9272,0.01208,0.00476,-0.0644
3.7,0.9414,0.01213,0.00483,-0.0641
3.8,0.9555,0.01219,0.00489,-0.0638
3.9,0.9695,0.01225,0.00496,-0.0635
4,0.9831,0.01231,0.00502,-0.0631
4.1,0.9968,0.01235,0.00508,-0.0626
4.2,1.0086,0.01232,0.00509,-0.0618
4.3,1.0241,0.01237,0.00514,-0.0617
4.4,1.0406,0.01243,0.00518,-0.0618
4.5,1.0563,0.01253,0.00527,-0.0618
4.6,1.072,0.01264,0.00536,-0.0618
4.7,1.0878,0.01275,0.00545,-0.0618
4.8,1.1035,0.01287,0.00555,-0.0618
4.9,1.1193,0.01298,0.00565,-0.0617
5,1.1352,0.01307,0.00575,-0.0617
5.1,1.1512,0.01318,0.00585,-0.0617
5.2,1.1672,0.01328,0.00595,-0.0616
5.3,1.1832,0.01339,0.00605,-0.0616
5.4,1.1992,0.01351,0.00616,-0.0615
5.5,1.2152,0.01362,0.00627,-0.0615
5.6,1.2312,0.01374,0.00638,-0.0614
5.7,1.2471,0.01387,0.00649,-0.0613
5.8,1.2631,0.01399,0.00661,-0.0612
5.9,1.2793,0.0141,0.00672,-0.0611
6,1.2956,0.01422,0.00684,-0.061
6.1,1.3118,0.01434,0.00696,-0.0609
6.2,1.3281,0.01446,0.00708,-0.0608
6.3,1.3444,0.01459,0.00721,-0.0607
6.4,1.3606,0.01472,0.00734,-0.0606
6.5,1.377,0.01485,0.00747,-0.0604
6.6,1.3933,0.01499,0.0076,-0.0603
6.7,1.4096,0.01514,0.00774,-0.0601
6.8,1.4261,0.01527,0.00789,-0.06
6.9,1.4427,0.0154,0.00803,-0.0598
7,1.4592,0.01552,0.00817,-0.0596
7.1,1.4758,0.01566,0.00832,-0.0594
7.2,1.4924,0.0158,0.00847,-0.0592
7.3,1.509,0.01594,0.00862,-0.059
7.4,1.5257,0.01609,0.00878,-0.0588
7.5,1.5423,0.01624,0.00893,-0.0585
7.6,1.559,0.0164,0.00909,-0.0583
7.7,1.5756,0.01657,0.00926,-0.058
7.8,1.5925,0.01672,0.00944,-0.0577
7.9,1.6094,0.01687,0.00963,-0.0575
8,1.6264,0.01703,0.00982,-0.0572
8.1,1.6433,0.0172,0.01001,-0.0568
8.2,1.6603,0.01737,0.0102,-0.0565
8.3,1.6773,0.01754,0.0104,-0.0562
8.4,1.6941,0.01769,0.01057,-0.0558
8.5,1.7111,0.01787,0.01077,-0.0555
8.6,1.7281,0.01805,0.01097,-0.0551
8.7,1.745,0.01823,0.01118,-0.0547
8.8,1.7621,0.01843,0.0114,-0.0543
8.9,1.7793,0.01862,0.01165,-0.0538
9,1.7965,0.01883,0.0119,-0.0534
9.1,1.8136,0.01904,0.01216,-0.0529
9.2,1.8308,0.01925,0.01243,-0.0525
9.3,1.8479,0.01947,0.0127,-0.0519
9.4,1.8649,0.0197,0.01298,-0.0514
9.5,1.882,0.01993,0.01326,-0.0509
9.6,1.899,0.02016,0.01355,-0.0503
9.7,1.916,0.02036,0.01378,-0.0497
9.8,1.9329,0.0206,0.01407,-0.0491
9.9,1.9497,0.02087,0.0144,-0.0485
10,1.9663,0.02117,0.0148,-0.0479
10.1,1.9828,0.0215,0.01522,-0.0472
10.2,1.999,0.02183,0.01565,-0.0465
10.3,2.0149,0.02219,0.01611,-0.0458
10.4,2.0306,0.02255,0.01658,-0.045
10.5,2.046,0.02293,0.01706,-0.0442
10.6,2.0611,0.02333,0.01757,-0.0434
10.7,2.0757,0.02375,0.01809,-0.0426
10.8,2.09,0.02418,0.01864,-0.0417
10.9,2.1038,0.02463,0.0192,-0.0409
11,2.1171,0.02509,0.01978,-0.04
11.1,2.1288,0.02566,0.02049,-0.039
11.2,2.1367,0.02646,0.02149,-0.0381
11.3,2.1439,0.02725,0.02248,-0.0371
11.4,2.1497,0.02809,0.0235,-0.0362
11.5,2.1541,0.02896,0.02457,-0.0352
11.6,2.1569,0.02986,0.02565,-0.0343
11.7,2.1583,0.03079,0.02675,-0.0335
11.8,2.1583,0.03173,0.02786,-0.0327
12,2.1546,0.03365,0.03008,-0.0315
12.1,2.1509,0.0346,0.03117,-0.0311
12.2,2.1461,0.03557,0.03226,-0.0311
12.3,2.1391,0.03647,0.03328,-0.031
13,2.0414,0.06562,0.06352,-0.1054
13.1,2.0453,0.06708,0.06498,-0.1088

