airfoilName st5.dat
Re 	570000
M 	5.000000e-01
N 	4.500000e+00
VACC 	0 VACCflag 1
XTR 	1.00 	1.00 XTRflag 0
alpha,cl,cd,cdp,cm
-19.7,-1.9938,0.25015,0.24805,0.2271
-19.6,-1.988,0.24761,0.24551,0.2252
-19.5,-1.9822,0.24507,0.24297,0.2234
-19.4,-1.9765,0.24256,0.24046,0.2215
-19.3,-1.9707,0.24005,0.23795,0.2197
-19.2,-1.9649,0.23756,0.23545,0.2179
-19.1,-1.9591,0.23507,0.23297,0.2161
-19,-1.9533,0.2326,0.23049,0.2143
-18.9,-1.9475,0.23012,0.22802,0.2125
-18.8,-1.9417,0.22767,0.22556,0.2107
-18.7,-1.9359,0.22521,0.22311,0.2089
-18.6,-1.9301,0.22277,0.22066,0.2071
-18.5,-1.9243,0.22034,0.21822,0.2053
-18.4,-1.9185,0.21792,0.21581,0.2035
-18.3,-1.9126,0.21549,0.21338,0.2017
-18.2,-1.9068,0.21308,0.21097,0.2
-18.1,-1.901,0.21067,0.20855,0.1982
-18,-1.8951,0.20828,0.20616,0.1964
-17.9,-1.8893,0.20588,0.20376,0.1947
-17.8,-1.8834,0.20349,0.20137,0.1929
-17.7,-1.8775,0.20111,0.19899,0.1911
-17.6,-1.8717,0.19873,0.19661,0.1894
-17.5,-1.8658,0.19635,0.19423,0.1876
-17.4,-1.8599,0.19397,0.19185,0.1858
-17.3,-1.854,0.1916,0.18948,0.1841
-17.2,-1.8481,0.18876,0.18664,0.182
-17.1,-1.8422,0.1863,0.18418,0.1802
-17,-1.8363,0.18378,0.18165,0.1783
-16.9,-1.8305,0.18116,0.17904,0.1764
-16.8,-1.8249,0.17777,0.17565,0.1741
-16.7,-1.8189,0.1757,0.17359,0.1724
-16.6,-1.8129,0.17365,0.17153,0.1708
-16.5,-1.8069,0.1716,0.16948,0.1691
-16.4,-1.8009,0.16958,0.16745,0.1675
-16.3,-1.7949,0.16756,0.16544,0.1658
-16.2,-1.7888,0.16556,0.16344,0.1642
-16.1,-1.7828,0.16357,0.16145,0.1625
-16,-1.7767,0.16159,0.15947,0.1609
-15.9,-1.7706,0.15963,0.15751,0.1593
-15.8,-1.7645,0.15768,0.15556,0.1576
-15.7,-1.7584,0.15574,0.15362,0.156
-15.6,-1.7523,0.15382,0.1517,0.1543
-15.5,-1.7461,0.15191,0.14979,0.1527
-15.4,-1.74,0.15002,0.1479,0.151
-15.3,-1.7338,0.14813,0.14602,0.1494
-15.2,-1.7276,0.14626,0.14415,0.1477
-15.1,-1.7215,0.1444,0.14229,0.146
-15,-1.7153,0.14256,0.14044,0.1444
-14.9,-1.709,0.14072,0.1386,0.1427
-14.8,-1.7028,0.13888,0.13677,0.141
-14.7,-1.6965,0.13705,0.13494,0.1393
-14.6,-1.6902,0.13522,0.13311,0.1376
-14.5,-1.6838,0.13339,0.13128,0.1358
-14.4,-1.6774,0.13156,0.12944,0.1341
-14.3,-1.671,0.12972,0.12761,0.1323
-14.2,-1.6646,0.12786,0.12575,0.1305
-14.1,-1.6581,0.12598,0.12387,0.1286
-14,-1.6517,0.12402,0.12191,0.1267
-13.9,-1.6452,0.12191,0.1198,0.1246
-13.8,-1.6392,0.11899,0.11689,0.1219
-13.7,-1.6323,0.11752,0.11542,0.1202
-13.6,-1.6253,0.11605,0.11395,0.1185
-13.5,-1.6181,0.11458,0.11248,0.1167
-13.3,-1.6031,0.11177,0.10968,0.1132
-13.2,-1.5956,0.11024,0.10815,0.1113
-13.1,-1.5878,0.10869,0.10661,0.1094
-13,-1.58,0.10714,0.10506,0.1074
-12.9,-1.572,0.10558,0.1035,0.1054
-12.8,-1.5639,0.10402,0.10194,0.1034
-12.7,-1.5557,0.10244,0.10036,0.1014
-12.6,-1.5474,0.10086,0.09878,0.0993
-12.5,-1.539,0.09927,0.09719,0.0971
-12.4,-1.5306,0.09766,0.09558,0.0949
-12.3,-1.5221,0.09604,0.09396,0.0927
-12.2,-1.5134,0.09437,0.09229,0.0904
-12.1,-1.5047,0.09267,0.0906,0.0879
-12,-1.4961,0.09082,0.08875,0.0853
-11.9,-1.488,0.08807,0.08601,0.0815
-11.8,-1.4787,0.08685,0.0848,0.0794
-11.7,-1.4693,0.08564,0.08358,0.0773
-11.6,-1.4598,0.08442,0.08237,0.0751
-11.5,-1.4501,0.08319,0.08114,0.0728
-11.4,-1.4402,0.08194,0.0799,0.0705
-11.3,-1.4302,0.08069,0.07865,0.0682
-11.2,-1.4201,0.07941,0.07737,0.0657
-11.1,-1.4098,0.07811,0.07608,0.0632
-11,-1.3992,0.07678,0.07475,0.0605
-10.9,-1.3884,0.07539,0.07336,0.0576
-10.8,-1.3774,0.07368,0.07166,0.0542
-10.7,-1.3661,0.07191,0.06989,0.0505
-10.6,-1.3545,0.06929,0.06728,0.045
-10.5,-1.3421,0.06818,0.06617,0.0422
-10.4,-1.3294,0.06704,0.06503,0.0392
-10.3,-1.3162,0.06583,0.06382,0.036
-10.2,-1.3027,0.06457,0.06256,0.0326
-10.1,-1.2887,0.06322,0.06122,0.029
-10,-1.2741,0.06176,0.05975,0.0249
-9.9,-1.257,0.06006,0.05804,0.0196
-9.8,-1.2191,0.05467,0.0526,0.0026
-9.6,-1.1652,0.05025,0.04812,-0.012
-8.8,-1.0041,0.01965,0.01498,-0.0671
-8.7,-0.987,0.01875,0.01384,-0.0672
-8.6,-0.9698,0.01798,0.01285,-0.0671
-8.5,-0.9523,0.01742,0.01214,-0.0669
-8.4,-0.934,0.01699,0.0116,-0.0668
-8.3,-0.9151,0.01659,0.01109,-0.0668
-8.2,-0.8949,0.01621,0.01059,-0.067
-8.1,-0.8759,0.01586,0.01014,-0.0669
-8,-0.8573,0.01557,0.00975,-0.0668
-7.9,-0.8389,0.01526,0.00935,-0.0667
-7.8,-0.8209,0.01499,0.00898,-0.0665
-7.7,-0.8035,0.01477,0.00869,-0.0662
-7.6,-0.7867,0.01457,0.00843,-0.0659
-7.5,-0.7711,0.01442,0.0082,-0.0653
-7.4,-0.7549,0.01425,0.00796,-0.0648
-7.3,-0.7388,0.01409,0.00772,-0.0644
-7.2,-0.7226,0.01393,0.0075,-0.0639
-7.1,-0.7065,0.01378,0.00728,-0.0635
-7,-0.6905,0.01365,0.00709,-0.0632
-6.9,-0.675,0.01354,0.0069,-0.0627
-6.8,-0.6588,0.0134,0.00672,-0.0624
-6.7,-0.6426,0.01327,0.00654,-0.0621
-6.6,-0.6265,0.01315,0.00636,-0.0618
-6.5,-0.6102,0.01303,0.0062,-0.0616
-6.4,-0.594,0.01291,0.00603,-0.0613
-6.3,-0.5779,0.01281,0.00588,-0.0611
-6.2,-0.5617,0.01269,0.00573,-0.0609
-6.1,-0.5459,0.01259,0.00559,-0.0607
-6,-0.53,0.0125,0.00547,-0.0605
-5.9,-0.5138,0.0124,0.00534,-0.0604
-5.8,-0.4977,0.0123,0.00521,-0.0602
-5.7,-0.4817,0.01221,0.00508,-0.0601
-5.6,-0.4658,0.01211,0.00496,-0.06
-5.5,-0.4498,0.01201,0.00485,-0.0599
-5.4,-0.4338,0.01192,0.00474,-0.0598
-5.3,-0.4182,0.01186,0.00464,-0.0596
-5.2,-0.4023,0.01178,0.00454,-0.0595
-5.1,-0.3864,0.01168,0.00444,-0.0595
-5,-0.3706,0.0116,0.00434,-0.0594
-4.9,-0.3548,0.01153,0.00425,-0.0594
-4.8,-0.3391,0.01147,0.00416,-0.0593
-4.7,-0.3233,0.01139,0.00407,-0.0593
-4.6,-0.3075,0.0113,0.00399,-0.0593
-4.5,-0.2919,0.01123,0.00391,-0.0593
-4.4,-0.2766,0.01121,0.00385,-0.0592
-4.3,-0.2612,0.01117,0.00377,-0.0591
-4.2,-0.2456,0.0111,0.0037,-0.0591
-4.1,-0.2302,0.01105,0.00364,-0.0591
-4,-0.2147,0.01101,0.00357,-0.0591
-3.9,-0.1991,0.01095,0.00351,-0.0591
-3.8,-0.1838,0.01089,0.00345,-0.0591
-3.7,-0.1684,0.01085,0.0034,-0.0591
-3.6,-0.1532,0.01083,0.00334,-0.0591
-3.5,-0.1379,0.01079,0.00329,-0.0591
-3.4,-0.1225,0.01075,0.00324,-0.0591
-3.3,-0.1071,0.01072,0.0032,-0.0592
-3.2,-0.0918,0.01066,0.00314,-0.0592
-3.1,-0.0765,0.01063,0.0031,-0.0593
-3,-0.0614,0.01063,0.00306,-0.0593
-2.9,-0.0461,0.01059,0.00302,-0.0594
-2.8,-0.0308,0.01056,0.00299,-0.0594
-2.7,-0.0155,0.01053,0.00295,-0.0595
-2.6,-0.0005,0.01051,0.00293,-0.0596
-2.5,0.0147,0.0105,0.0029,-0.0596
-2.4,0.0299,0.01048,0.00287,-0.0597
-2.3,0.0449,0.01048,0.00285,-0.0598
-2.2,0.0601,0.01045,0.00282,-0.0599
-2.1,0.0753,0.01043,0.00281,-0.06
-2,0.0905,0.01042,0.00279,-0.06
-1.9,0.1057,0.0104,0.00277,-0.0601
-1.8,0.1207,0.01041,0.00276,-0.0602
-1.7,0.1357,0.01043,0.00274,-0.0603
-1.6,0.1508,0.01039,0.00274,-0.0604
-1.5,0.1657,0.01044,0.00274,-0.0605
-1.4,0.1807,0.01044,0.00273,-0.0606
-1.3,0.1957,0.01046,0.00273,-0.0607
-1.2,0.2108,0.01043,0.00272,-0.0608
-1.1,0.2259,0.01044,0.00272,-0.0609
-1,0.2409,0.01046,0.00272,-0.061
-0.9,0.2559,0.01046,0.00272,-0.0611
-0.8,0.2709,0.01049,0.00273,-0.0613
-0.7,0.2859,0.01048,0.00273,-0.0614
-0.6,0.3006,0.01056,0.00275,-0.0615
-0.5,0.3155,0.01059,0.00277,-0.0616
-0.4,0.3303,0.01063,0.00279,-0.0617
-0.3,0.3452,0.01065,0.0028,-0.0619
-0.2,0.36,0.01071,0.00283,-0.062
-0.1,0.3747,0.01077,0.00286,-0.0621
0,0.3894,0.01085,0.00289,-0.0622
0.1,0.404,0.01091,0.00293,-0.0624
0.2,0.4186,0.01101,0.00297,-0.0625
0.3,0.4332,0.01112,0.00302,-0.0626
0.4,0.4474,0.0113,0.0031,-0.0628
0.5,0.4621,0.01139,0.00316,-0.0629
0.6,0.477,0.01142,0.00319,-0.0631
0.7,0.4918,0.01149,0.00324,-0.0632
0.8,0.5068,0.01153,0.00328,-0.0633
0.9,0.5218,0.01157,0.00331,-0.0635
1,0.5368,0.01159,0.00335,-0.0636
1.1,0.5518,0.01163,0.0034,-0.0638
1.2,0.5669,0.01166,0.00344,-0.0639
1.4,0.5969,0.01172,0.00353,-0.0642
1.5,0.612,0.01175,0.00359,-0.0643
1.6,0.6271,0.01177,0.00363,-0.0644
1.7,0.6423,0.0118,0.00368,-0.0645
1.8,0.6574,0.01178,0.00372,-0.0647
1.9,0.6725,0.01181,0.00377,-0.0648
2,0.6875,0.01185,0.00383,-0.0649
2.1,0.7026,0.01188,0.00389,-0.0649
2.2,0.7176,0.01183,0.00394,-0.065
2.3,0.7326,0.01185,0.004,-0.065
2.4,0.7475,0.01189,0.00406,-0.0651
2.5,0.7625,0.01192,0.00412,-0.0651
2.6,0.7769,0.01192,0.00419,-0.065
2.7,0.7918,0.01197,0.00426,-0.065
2.8,0.8067,0.012,0.00433,-0.0649
2.9,0.8214,0.01203,0.00439,-0.0648
3,0.8353,0.01202,0.00445,-0.0645
3.1,0.8498,0.01207,0.00452,-0.0643
3.2,0.8641,0.01212,0.00458,-0.0641
3.3,0.8782,0.01217,0.00465,-0.0639
3.4,0.8922,0.01223,0.00472,-0.0636
3.6,0.9172,0.01225,0.00481,-0.0623
3.7,0.9306,0.01228,0.00486,-0.0618
3.8,0.9444,0.01232,0.00491,-0.0614
3.9,0.9588,0.01237,0.00495,-0.0612
4,0.9742,0.01244,0.005,-0.0611
4.1,0.9906,0.01251,0.00505,-0.0613
4.2,1.0062,0.01263,0.00514,-0.0613
4.3,1.0218,0.01273,0.00524,-0.0613
4.4,1.0376,0.01283,0.00533,-0.0613
4.5,1.0533,0.01293,0.00543,-0.0613
4.6,1.0691,0.01303,0.00552,-0.0613
4.7,1.0848,0.01314,0.00561,-0.0613
4.8,1.1006,0.01325,0.00571,-0.0613
4.9,1.1163,0.01337,0.00581,-0.0612
5,1.1321,0.0135,0.00592,-0.0612
5.1,1.1479,0.01362,0.00603,-0.0612
5.2,1.1639,0.01372,0.00614,-0.0611
5.3,1.1799,0.01383,0.00625,-0.0611
5.4,1.1959,0.01395,0.00636,-0.061
5.5,1.2119,0.01406,0.00648,-0.061
5.6,1.2279,0.01418,0.00659,-0.0609
5.7,1.2439,0.01431,0.00672,-0.0608
5.8,1.2599,0.01444,0.00683,-0.0607
5.9,1.2758,0.01458,0.00695,-0.0606
6,1.292,0.01471,0.00708,-0.0605
6.1,1.3082,0.01483,0.00721,-0.0604
6.2,1.3245,0.01495,0.00734,-0.0603
6.3,1.3407,0.01508,0.00748,-0.0602
6.4,1.357,0.01521,0.00761,-0.0601
6.5,1.3733,0.01535,0.00775,-0.0599
6.6,1.3897,0.01549,0.00789,-0.0598
6.7,1.406,0.01563,0.00803,-0.0596
6.8,1.4223,0.01578,0.00818,-0.0594
6.9,1.4387,0.01594,0.00833,-0.0593
7,1.4551,0.01609,0.00849,-0.0591
7.1,1.4717,0.01621,0.00864,-0.0589
7.2,1.4883,0.01635,0.00881,-0.0587
7.3,1.5049,0.01651,0.00898,-0.0585
7.4,1.5215,0.01666,0.00914,-0.0582
7.5,1.5381,0.01682,0.00931,-0.058
7.6,1.5547,0.01698,0.00949,-0.0577
7.7,1.5714,0.01714,0.00966,-0.0575
7.8,1.588,0.01731,0.00984,-0.0572
7.9,1.6046,0.01749,0.01003,-0.0569
8,1.6215,0.01766,0.01023,-0.0566
8.1,1.6384,0.01784,0.01044,-0.0563
8.2,1.6553,0.01801,0.01066,-0.056
8.3,1.6722,0.0182,0.01088,-0.0556
8.4,1.689,0.01836,0.01107,-0.0553
8.5,1.7058,0.01855,0.01129,-0.0549
8.6,1.7227,0.01874,0.01152,-0.0545
8.7,1.7396,0.01894,0.01174,-0.0541
8.8,1.7565,0.01914,0.01197,-0.0537
8.9,1.7733,0.01934,0.0122,-0.0533
9,1.7901,0.01956,0.01245,-0.0528
9.1,1.8071,0.01979,0.01275,-0.0523
9.2,1.824,0.02003,0.01306,-0.0519
9.3,1.8408,0.02028,0.01337,-0.0514
9.4,1.8576,0.02053,0.01369,-0.0508
9.5,1.8743,0.02079,0.01402,-0.0503
9.6,1.8909,0.02106,0.01435,-0.0497
9.8,1.9241,0.02155,0.01497,-0.0485
9.9,1.9405,0.02183,0.0153,-0.0479
10,1.9568,0.02211,0.01565,-0.0472
10.1,1.9728,0.02242,0.01603,-0.0465
10.2,1.9881,0.02282,0.01656,-0.0458
10.3,2.0031,0.02324,0.0171,-0.0451
10.4,2.0177,0.02368,0.01767,-0.0443
10.5,2.0318,0.02413,0.01826,-0.0436
10.6,2.0454,0.02461,0.01887,-0.0427
10.7,2.0584,0.02511,0.0195,-0.0419
10.8,2.0708,0.02563,0.02016,-0.0411
10.9,2.0827,0.02618,0.02083,-0.0402
11,2.0939,0.02673,0.02153,-0.0393
11.1,2.1045,0.02731,0.02224,-0.0384
11.2,2.1144,0.02791,0.02297,-0.0375
11.3,2.1212,0.02865,0.02388,-0.0366
11.4,2.1234,0.02965,0.02509,-0.0357
11.6,2.1233,0.03169,0.02753,-0.0342
11.7,2.1212,0.03275,0.02877,-0.0336
11.8,2.1176,0.03382,0.03001,-0.0331
12.1,2.0982,0.03696,0.03358,-0.0331
12.2,2.0916,0.03828,0.03506,-0.0353
12.9,2.0097,0.06758,0.0653,-0.1107
13,2.0142,0.06893,0.06667,-0.1139
13.1,2.0197,0.07012,0.06786,-0.1166
13.2,2.0223,0.07166,0.0694,-0.1201

