airfoilName st7.dat
Re 	910000
M 	5.000000e-01
N 	4.500000e+00
VACC 	0 VACCflag 1
XTR 	1.00 	1.00 XTRflag 0
alpha,cl,cd,cdp,cm
-22.6,-1.807,0.33901,0.33746,0.2538
-22.5,-1.8027,0.33681,0.33526,0.252
-22.4,-1.7958,0.33295,0.3314,0.2495
-22.3,-1.7908,0.33036,0.32881,0.2476
-22.2,-1.7856,0.32769,0.32614,0.2456
-22.1,-1.7804,0.32503,0.32348,0.2436
-22,-1.7752,0.32238,0.32082,0.2416
-21.9,-1.7699,0.31971,0.31816,0.2396
-21.8,-1.7646,0.31706,0.31551,0.2376
-21.7,-1.7594,0.31442,0.31286,0.2356
-21.6,-1.7541,0.31177,0.31021,0.2336
-21.5,-1.7487,0.30913,0.30758,0.2316
-21.4,-1.7434,0.3065,0.30494,0.2296
-21.3,-1.7381,0.30388,0.30232,0.2277
-21.2,-1.7327,0.30123,0.29967,0.2257
-21.1,-1.7274,0.29863,0.29706,0.2238
-21,-1.722,0.29597,0.2944,0.2218
-20.9,-1.7167,0.29335,0.29178,0.2198
-20.8,-1.7113,0.29071,0.28914,0.2179
-20.7,-1.7059,0.28806,0.28649,0.2159
-20.6,-1.7004,0.2854,0.28383,0.214
-20.5,-1.6945,0.28205,0.28047,0.2118
-20.4,-1.689,0.27927,0.2777,0.2098
-20.2,-1.6767,0.27187,0.2703,0.2053
-20.1,-1.6715,0.2696,0.26803,0.2035
-20,-1.6664,0.26734,0.26576,0.2017
-19.9,-1.6612,0.26508,0.2635,0.1999
-19.8,-1.656,0.26283,0.26126,0.1982
-19.7,-1.6508,0.2606,0.25902,0.1964
-19.6,-1.6456,0.25838,0.2568,0.1947
-19.5,-1.6404,0.25616,0.25459,0.1929
-19.4,-1.6352,0.25396,0.25238,0.1912
-19.3,-1.6299,0.25177,0.25019,0.1895
-19.2,-1.6247,0.24959,0.24801,0.1877
-19.1,-1.6195,0.24743,0.24585,0.186
-19,-1.6142,0.24527,0.24369,0.1843
-18.9,-1.6089,0.24313,0.24155,0.1826
-18.8,-1.6037,0.241,0.23941,0.1809
-18.7,-1.5984,0.23888,0.23729,0.1792
-18.6,-1.5931,0.23676,0.23518,0.1776
-18.5,-1.5879,0.23467,0.23308,0.1759
-18.4,-1.5826,0.23258,0.23099,0.1742
-18.3,-1.5773,0.2305,0.22892,0.1726
-18.2,-1.572,0.22844,0.22685,0.171
-18.1,-1.5667,0.22638,0.22479,0.1693
-18,-1.5614,0.22434,0.22275,0.1677
-17.9,-1.5561,0.2223,0.22071,0.1661
-17.8,-1.5508,0.22027,0.21869,0.1644
-17.7,-1.5454,0.21826,0.21667,0.1628
-17.6,-1.5401,0.21624,0.21466,0.1612
-17.5,-1.5347,0.21424,0.21265,0.1596
-17.4,-1.5293,0.21224,0.21065,0.158
-17.3,-1.524,0.21025,0.20866,0.1564
-17.2,-1.5186,0.20827,0.20668,0.1548
-17.1,-1.5132,0.2063,0.20471,0.1533
-17,-1.5078,0.20434,0.20275,0.1517
-16.9,-1.5024,0.20238,0.20079,0.1501
-16.8,-1.497,0.20044,0.19885,0.1485
-16.7,-1.4916,0.1985,0.19691,0.147
-16.6,-1.4861,0.19657,0.19498,0.1454
-16.5,-1.4807,0.19465,0.19306,0.1439
-16.4,-1.4753,0.19274,0.19115,0.1423
-16.3,-1.4699,0.19083,0.18924,0.1408
-16.2,-1.4644,0.18894,0.18734,0.1393
-16.1,-1.4588,0.18697,0.18538,0.1377
-16,-1.4534,0.18508,0.18349,0.1361
-15.9,-1.4479,0.18321,0.18161,0.1346
-15.8,-1.4425,0.18133,0.17974,0.1331
-15.7,-1.437,0.17946,0.17787,0.1316
-15.6,-1.4315,0.17761,0.17602,0.1301
-15.5,-1.426,0.17575,0.17416,0.1286
-15.4,-1.4205,0.1739,0.17231,0.1271
-15.3,-1.4149,0.17206,0.17047,0.1256
-15.2,-1.4094,0.17019,0.1686,0.1241
-15.1,-1.4037,0.16833,0.16674,0.1226
-15,-1.3981,0.16648,0.16489,0.121
-14.9,-1.3924,0.1646,0.16301,0.1195
-14.8,-1.3867,0.16271,0.16112,0.118
-14.7,-1.3809,0.16082,0.15923,0.1165
-14.6,-1.3751,0.15888,0.1573,0.1149
-14.5,-1.3693,0.15695,0.15536,0.1134
-14.4,-1.3634,0.15495,0.15336,0.1118
-14.3,-1.3575,0.15287,0.15128,0.1102
-14.2,-1.3514,0.15052,0.14893,0.1085
-14.1,-1.3451,0.14763,0.14604,0.1067
-14,-1.3393,0.14604,0.14445,0.1052
-13.9,-1.3333,0.14444,0.14286,0.1037
-13.8,-1.3273,0.14286,0.14128,0.1022
-13.7,-1.3212,0.14128,0.1397,0.1007
-13.6,-1.3149,0.1397,0.13812,0.0992
-13.5,-1.3086,0.13812,0.13654,0.0977
-13.4,-1.3022,0.13653,0.13495,0.0962
-13.3,-1.2957,0.13495,0.13338,0.0946
-13.2,-1.2891,0.13337,0.1318,0.0931
-13.1,-1.2825,0.1318,0.13022,0.0915
-13,-1.2757,0.13023,0.12866,0.09
-12.9,-1.269,0.12867,0.1271,0.0884
-12.8,-1.2621,0.12711,0.12554,0.0868
-12.7,-1.2552,0.12556,0.124,0.0853
-12.6,-1.2483,0.12402,0.12246,0.0837
-12.5,-1.2413,0.12249,0.12093,0.0821
-12.4,-1.2342,0.12097,0.11941,0.0805
-12.3,-1.2271,0.11946,0.1179,0.079
-12.2,-1.2199,0.11795,0.11639,0.0774
-12.1,-1.2126,0.11644,0.11489,0.0758
-12,-1.2053,0.11494,0.11339,0.0741
-11.9,-1.1979,0.11345,0.1119,0.0725
-11.8,-1.1904,0.11197,0.11042,0.0709
-11.7,-1.1829,0.11049,0.10894,0.0692
-11.6,-1.1753,0.10903,0.10748,0.0676
-11.5,-1.1677,0.10757,0.10602,0.0659
-11.4,-1.16,0.10612,0.10458,0.0643
-11.3,-1.1523,0.10468,0.10314,0.0626
-11.2,-1.1444,0.10325,0.10171,0.0609
-11,-1.1283,0.10035,0.09882,0.0574
-10.9,-1.1201,0.09891,0.09738,0.0556
-10.8,-1.1119,0.09747,0.09595,0.0538
-10.7,-1.1036,0.09604,0.09452,0.052
-10.6,-1.0953,0.09462,0.0931,0.0502
-10.5,-1.0868,0.09319,0.09167,0.0484
-10.4,-1.0782,0.09176,0.09024,0.0465
-10.3,-1.0694,0.0903,0.08879,0.0445
-10.2,-1.0605,0.08886,0.08735,0.0425
-10.1,-1.0515,0.08738,0.08587,0.0405
-10,-1.0425,0.08588,0.08437,0.0384
-9.9,-1.0332,0.08433,0.08283,0.0363
-9.8,-1.0239,0.08267,0.08118,0.0339
-9.7,-1.0145,0.08071,0.07921,0.0313
-9.6,-1.005,0.07881,0.07733,0.0286
-9.5,-0.9948,0.07763,0.07615,0.0265
-9.4,-0.9844,0.07644,0.07496,0.0242
-9.3,-0.9739,0.07525,0.07377,0.022
-9.2,-0.9632,0.07406,0.07259,0.0197
-9.1,-0.9523,0.07286,0.07139,0.0173
-9,-0.9413,0.07167,0.0702,0.0149
-8.9,-0.9302,0.07046,0.06899,0.0125
-8.8,-0.919,0.06925,0.06779,0.01
-8.7,-0.9075,0.06803,0.06657,0.0074
-8.6,-0.8894,0.06647,0.065,0.003
-8.5,-0.8682,0.06472,0.06322,-0.0022
-8.4,-0.8484,0.06301,0.06149,-0.0069
-8.3,-0.8292,0.06128,0.05973,-0.0114
-8.2,-0.8107,0.05952,0.05792,-0.0157
-8.1,-0.7913,0.05758,0.05595,-0.0204
-8,-0.7708,0.0554,0.05371,-0.0256
-7.7,-0.6987,0.04503,0.04309,-0.0475
-7.6,-0.6781,0.04244,0.04041,-0.0524
-6.9,-0.5803,0.01684,0.01266,-0.0787
-6.8,-0.5654,0.01578,0.01135,-0.0788
-6.7,-0.5499,0.01508,0.01046,-0.0787
-6.6,-0.5345,0.01451,0.00971,-0.0784
-6.5,-0.5186,0.014,0.00905,-0.0782
-6.4,-0.5027,0.01356,0.00847,-0.078
-6.3,-0.4868,0.01318,0.00796,-0.0777
-6.2,-0.4708,0.01283,0.0075,-0.0774
-6.1,-0.4547,0.01253,0.00709,-0.0772
-6,-0.439,0.01228,0.00672,-0.0769
-5.9,-0.4231,0.01205,0.00639,-0.0766
-5.8,-0.4072,0.01184,0.00613,-0.0764
-5.7,-0.3914,0.01167,0.0059,-0.0761
-5.6,-0.3756,0.01151,0.00568,-0.0759
-5.5,-0.3599,0.01137,0.00548,-0.0757
-5.4,-0.3443,0.01123,0.00528,-0.0754
-5.3,-0.3287,0.01113,0.00512,-0.0752
-5.2,-0.3132,0.011,0.00494,-0.0751
-5.1,-0.2976,0.01087,0.00478,-0.0749
-5,-0.282,0.01075,0.00463,-0.0748
-4.9,-0.2666,0.01065,0.00449,-0.0746
-4.8,-0.2512,0.01056,0.00436,-0.0745
-4.7,-0.2359,0.01049,0.00424,-0.0743
-4.6,-0.2206,0.0104,0.00411,-0.0742
-4.5,-0.2052,0.0103,0.00399,-0.0741
-4.4,-0.1899,0.01022,0.00388,-0.074
-4.3,-0.1747,0.01014,0.00377,-0.0739
-4.2,-0.1595,0.01008,0.00368,-0.0738
-4.1,-0.1445,0.01003,0.00358,-0.0737
-4,-0.1297,0.01002,0.00349,-0.0735
-3.9,-0.1148,0.00998,0.00341,-0.0734
-3.8,-0.0998,0.00992,0.00333,-0.0734
-3.7,-0.0848,0.00987,0.00326,-0.0733
-3.6,-0.0703,0.00989,0.00319,-0.0732
-3.5,-0.0554,0.00986,0.00312,-0.0731
-3.4,-0.0404,0.00981,0.00305,-0.0731
-3.3,-0.0256,0.00977,0.00299,-0.0731
-3.2,-0.0108,0.00976,0.00294,-0.0731
-3.1,0.004,0.00973,0.00289,-0.0731
-3,0.0186,0.00972,0.00284,-0.073
-2.9,0.0334,0.0097,0.0028,-0.073
-2.8,0.0482,0.00967,0.00275,-0.073
-2.7,0.063,0.00965,0.0027,-0.0731
-2.6,0.0778,0.00961,0.00267,-0.0731
-2.5,0.0924,0.00962,0.00264,-0.0731
-2.4,0.1069,0.00961,0.00261,-0.0731
-2.3,0.1215,0.0096,0.00258,-0.0731
-2.2,0.1362,0.0096,0.00256,-0.0732
-2.1,0.1508,0.00958,0.00253,-0.0732
-2,0.1655,0.00955,0.0025,-0.0733
-1.9,0.1801,0.00952,0.00247,-0.0733
-1.8,0.1947,0.00951,0.00246,-0.0734
-1.7,0.2091,0.00954,0.00244,-0.0734
-1.6,0.2236,0.00954,0.00244,-0.0735
-1.5,0.238,0.00956,0.00244,-0.0735
-1.4,0.2526,0.00953,0.00242,-0.0736
-1.3,0.2671,0.00954,0.00241,-0.0737
-1.2,0.2817,0.00953,0.0024,-0.0737
-1.1,0.2962,0.00954,0.00239,-0.0738
-1,0.3104,0.00956,0.00241,-0.0739
-0.9,0.3248,0.00957,0.00241,-0.074
-0.8,0.3393,0.00958,0.00242,-0.074
-0.7,0.3537,0.0096,0.00242,-0.0741
-0.6,0.3681,0.0096,0.00243,-0.0742
-0.5,0.3825,0.00962,0.00245,-0.0743
-0.4,0.3968,0.00966,0.00246,-0.0744
-0.3,0.4112,0.00967,0.00247,-0.0744
-0.2,0.4255,0.00972,0.0025,-0.0745
-0.1,0.4393,0.00984,0.00254,-0.0746
0,0.4535,0.0099,0.00257,-0.0746
0.1,0.4676,0.00999,0.00261,-0.0747
0.2,0.4817,0.01005,0.00265,-0.0748
0.3,0.4957,0.01013,0.00269,-0.0748
0.4,0.5098,0.01022,0.00274,-0.0749
0.5,0.5239,0.01026,0.00278,-0.075
0.6,0.5382,0.01032,0.00282,-0.0751
0.7,0.5525,0.01037,0.00287,-0.0752
0.8,0.5666,0.01041,0.00292,-0.0753
0.9,0.581,0.01045,0.00296,-0.0754
1,0.5955,0.01047,0.00299,-0.0755
1.1,0.6099,0.01049,0.00303,-0.0755
1.2,0.6243,0.01048,0.00307,-0.0757
1.3,0.6388,0.01051,0.00312,-0.0758
1.4,0.6533,0.01052,0.00316,-0.0758
1.5,0.6678,0.01049,0.0032,-0.076
1.6,0.6822,0.01053,0.00325,-0.0761
1.7,0.6967,0.01054,0.0033,-0.0761
1.8,0.7112,0.01048,0.00334,-0.0763
1.9,0.7257,0.01047,0.00339,-0.0764
2,0.7402,0.01046,0.00343,-0.0764
2.1,0.7544,0.01033,0.00349,-0.0765
2.2,0.7685,0.01032,0.00355,-0.0765
2.3,0.7827,0.01029,0.00362,-0.0765
2.4,0.7967,0.01027,0.00367,-0.0763
2.5,0.8088,0.01016,0.00373,-0.0758
2.6,0.8215,0.01015,0.00379,-0.0753
2.7,0.8334,0.01018,0.00385,-0.0747
2.8,0.8419,0.01011,0.00386,-0.0733
2.9,0.8557,0.01012,0.00388,-0.073
3,0.8716,0.01015,0.0039,-0.0732
3.1,0.8866,0.01021,0.00395,-0.0733
3.2,0.9014,0.01029,0.00401,-0.0733
3.3,0.9161,0.01038,0.00408,-0.0733
3.4,0.9307,0.01047,0.00415,-0.0733
3.5,0.9455,0.01056,0.00423,-0.0732
3.6,0.9603,0.01063,0.0043,-0.0732
3.7,0.9751,0.01072,0.00437,-0.0732
3.8,0.9899,0.01081,0.00444,-0.0732
3.9,1.0047,0.0109,0.00452,-0.0731
4,1.0195,0.011,0.0046,-0.0731
4.1,1.0342,0.0111,0.00469,-0.073
4.2,1.0491,0.01118,0.00476,-0.073
4.3,1.0641,0.01126,0.00484,-0.0729
4.4,1.079,0.01135,0.00493,-0.0728
4.5,1.0939,0.01144,0.00501,-0.0728
4.6,1.1088,0.01154,0.0051,-0.0727
4.7,1.1236,0.01166,0.00519,-0.0726
4.8,1.1384,0.01176,0.00529,-0.0725
4.9,1.1535,0.01185,0.00538,-0.0724
5,1.1685,0.01194,0.00547,-0.0723
5.1,1.1836,0.01204,0.00556,-0.0722
5.2,1.1986,0.01214,0.00566,-0.072
5.3,1.2136,0.01224,0.00576,-0.0719
5.4,1.2287,0.01235,0.00586,-0.0718
5.5,1.2436,0.01247,0.00597,-0.0716
5.6,1.2586,0.01259,0.00609,-0.0714
5.7,1.2738,0.01269,0.00619,-0.0713
5.8,1.289,0.01279,0.0063,-0.0711
5.9,1.3042,0.0129,0.00641,-0.0709
6,1.3193,0.01301,0.00652,-0.0707
6.1,1.3345,0.01313,0.00664,-0.0705
6.2,1.3496,0.01326,0.00676,-0.0703
6.3,1.3648,0.01339,0.00689,-0.0701
6.4,1.38,0.01351,0.00702,-0.0698
6.5,1.3953,0.01362,0.00714,-0.0696
6.6,1.4107,0.01374,0.00727,-0.0693
6.7,1.426,0.01386,0.0074,-0.069
6.8,1.4414,0.01398,0.00754,-0.0687
6.9,1.4567,0.01411,0.00767,-0.0684
7,1.4719,0.01426,0.00781,-0.0681
7.1,1.4872,0.0144,0.00796,-0.0678
7.2,1.5024,0.01454,0.00812,-0.0675
7.3,1.5179,0.01467,0.00826,-0.0671
7.4,1.5334,0.0148,0.00841,-0.0668
7.5,1.5489,0.01494,0.00857,-0.0664
7.6,1.5644,0.01508,0.00873,-0.066
7.7,1.5799,0.01523,0.00889,-0.0656
7.8,1.5954,0.01538,0.00906,-0.0652
7.9,1.6108,0.01554,0.00923,-0.0647
8,1.6261,0.0157,0.00941,-0.0643
8.1,1.6414,0.01587,0.00959,-0.0638
8.2,1.657,0.01602,0.00978,-0.0633
8.3,1.6726,0.01617,0.00996,-0.0628
8.4,1.6882,0.01634,0.01015,-0.0623
8.5,1.7037,0.0165,0.01035,-0.0618
8.6,1.7192,0.01668,0.01056,-0.0612
8.7,1.7346,0.01686,0.01076,-0.0606
8.8,1.75,0.01704,0.01098,-0.06
8.9,1.7653,0.01724,0.0112,-0.0594
9,1.7804,0.01744,0.01143,-0.0587
9.1,1.796,0.01763,0.01166,-0.0581
9.2,1.8115,0.01782,0.01191,-0.0574
9.3,1.8269,0.01803,0.01215,-0.0567
9.5,1.8575,0.01844,0.01265,-0.0552
9.6,1.8727,0.01866,0.01292,-0.0544
9.7,1.8877,0.01889,0.0132,-0.0536
9.8,1.9026,0.01913,0.01348,-0.0527
9.9,1.9173,0.01938,0.01378,-0.0518
10,1.9318,0.01964,0.01409,-0.0509
10.1,1.9465,0.0199,0.01443,-0.05
10.2,1.961,0.02018,0.01478,-0.049
10.3,1.9752,0.02048,0.01514,-0.048
10.4,1.9892,0.02078,0.01552,-0.047
10.5,2.0029,0.02111,0.01592,-0.0459
10.6,2.0161,0.02144,0.01633,-0.0447
10.7,2.029,0.0218,0.01677,-0.0436
10.8,2.0419,0.02212,0.01716,-0.0424
10.9,2.0539,0.0225,0.01762,-0.0411
11,2.0653,0.02289,0.0181,-0.0398
11.1,2.0758,0.02333,0.01862,-0.0384
11.2,2.0849,0.02384,0.01924,-0.037
11.3,2.0926,0.02437,0.0199,-0.0354
11.4,2.0989,0.02494,0.02058,-0.0338
11.5,2.1035,0.02554,0.0213,-0.0321
11.6,2.1064,0.02617,0.02204,-0.0303
11.7,2.1072,0.02681,0.0228,-0.0284
11.8,2.104,0.02745,0.02353,-0.0262
11.9,2.101,0.02816,0.02436,-0.0243
12,2.0986,0.02896,0.02527,-0.0229
12.1,2.0966,0.02985,0.02627,-0.0219
12.2,2.0948,0.03083,0.02738,-0.0215
12.3,2.0932,0.03191,0.02859,-0.0215
12.4,2.0917,0.03312,0.02993,-0.0222
12.5,2.0904,0.03448,0.03143,-0.0236
12.6,2.0893,0.03602,0.03311,-0.0257
12.7,2.0883,0.03779,0.03502,-0.0288
12.8,2.0869,0.03987,0.03725,-0.0329
13.8,1.9514,0.07758,0.07589,-0.101
13.9,1.9415,0.08071,0.07904,-0.1064
14,1.9344,0.08345,0.0818,-0.1112
14.1,1.9298,0.08592,0.08427,-0.1153
14.2,1.9277,0.08805,0.08641,-0.1188
14.3,1.927,0.09003,0.0884,-0.122
14.5,1.894,0.09824,0.09665,-0.1365
14.6,1.8889,0.10088,0.0993,-0.1408
14.8,1.887,0.10499,0.10343,-0.1471
14.9,1.8885,0.10669,0.10514,-0.1496
15,1.8911,0.10823,0.10668,-0.1518
15.1,1.8944,0.10967,0.10813,-0.1539
15.2,1.898,0.11103,0.1095,-0.1558
15.3,1.9022,0.1123,0.11078,-0.1576
15.4,1.8862,0.11685,0.11534,-0.1648
15.5,1.8844,0.11916,0.11766,-0.1682
15.6,1.8849,0.12107,0.11958,-0.1709
15.7,1.8866,0.12279,0.1213,-0.1733
15.8,1.8901,0.12417,0.12269,-0.1751
15.9,1.8934,0.12559,0.12412,-0.177
16,1.8969,0.12694,0.12547,-0.1788
16.1,1.9008,0.12821,0.12675,-0.1805
16.2,1.9049,0.12944,0.12799,-0.1822
16.3,1.9091,0.13063,0.12918,-0.1838
16.4,1.9131,0.13186,0.13041,-0.1854

