airfoilName st7.dat
Re 	7.300000e+05
M 	5.000000e-01
N 	4.500000e+00
VACC 	0 VACCflag 1
XTR 	1.00 	1.00 XTRflag 0
alpha,cl,cd,cdp,cm
-22.5,-1.805,0.33678,0.33501,0.2529
-22.3,-1.7879,0.32939,0.32761,0.2467
-22.2,-1.7828,0.32669,0.32491,0.2447
-22.1,-1.7776,0.32397,0.32219,0.2427
-22,-1.7723,0.32124,0.31945,0.2407
-21.9,-1.767,0.31847,0.31668,0.2386
-21.8,-1.7616,0.3157,0.31391,0.2366
-21.7,-1.7562,0.31293,0.31114,0.2345
-21.6,-1.7508,0.3101,0.30831,0.2325
-21.5,-1.7454,0.30729,0.30549,0.2304
-21.4,-1.7399,0.30442,0.30263,0.2284
-21.3,-1.7322,0.29849,0.2967,0.2252
-21.2,-1.7271,0.29608,0.29429,0.2233
-21.1,-1.7219,0.29368,0.29189,0.2214
-21,-1.7167,0.2913,0.2895,0.2195
-20.9,-1.7116,0.28891,0.28711,0.2177
-20.8,-1.7064,0.28655,0.28474,0.2158
-20.7,-1.7012,0.28419,0.28238,0.214
-20.6,-1.696,0.28184,0.28004,0.2121
-20.5,-1.6907,0.2795,0.2777,0.2103
-20.4,-1.6855,0.27717,0.27537,0.2085
-20.3,-1.6803,0.27486,0.27305,0.2067
-20.2,-1.675,0.27256,0.27075,0.2049
-20.1,-1.6698,0.27026,0.26846,0.2031
-20,-1.6645,0.26798,0.26617,0.2013
-19.9,-1.6593,0.26571,0.2639,0.1995
-19.8,-1.654,0.26344,0.26164,0.1977
-19.7,-1.6487,0.2612,0.25939,0.196
-19.6,-1.6435,0.25896,0.25715,0.1942
-19.5,-1.6382,0.25673,0.25492,0.1925
-19.4,-1.6329,0.25451,0.2527,0.1907
-19.3,-1.6276,0.2523,0.25049,0.189
-19.2,-1.6223,0.25011,0.2483,0.1872
-19.1,-1.617,0.24793,0.24611,0.1855
-19,-1.6117,0.24575,0.24394,0.1838
-18.9,-1.6064,0.24359,0.24177,0.1821
-18.8,-1.6011,0.24144,0.23962,0.1804
-18.7,-1.5958,0.2393,0.23748,0.1787
-18.6,-1.5905,0.23716,0.23534,0.177
-18.5,-1.5852,0.23505,0.23323,0.1754
-18.4,-1.5798,0.23294,0.23111,0.1737
-18.3,-1.5745,0.23084,0.22902,0.172
-18.2,-1.5692,0.22875,0.22693,0.1704
-18.1,-1.5639,0.22667,0.22485,0.1688
-18,-1.5586,0.2246,0.22278,0.1671
-17.9,-1.5532,0.22254,0.22072,0.1655
-17.8,-1.5479,0.2205,0.21867,0.1639
-17.7,-1.5426,0.21846,0.21663,0.1622
-17.6,-1.5372,0.21642,0.2146,0.1606
-17.5,-1.5318,0.21439,0.21257,0.159
-17.4,-1.5264,0.21237,0.21054,0.1574
-17.3,-1.521,0.21035,0.20853,0.1558
-17.2,-1.5156,0.20834,0.20652,0.1542
-17.1,-1.5102,0.20634,0.20452,0.1526
-17,-1.5048,0.20435,0.20252,0.151
-16.9,-1.4994,0.20236,0.20054,0.1494
-16.8,-1.494,0.20038,0.19856,0.1479
-16.7,-1.4885,0.1984,0.19658,0.1463
-16.6,-1.4831,0.19643,0.1946,0.1447
-16.5,-1.4775,0.19428,0.19245,0.143
-16.4,-1.472,0.19232,0.19049,0.1415
-16.3,-1.4666,0.19034,0.18851,0.1399
-16.2,-1.4611,0.18839,0.18656,0.1384
-16.1,-1.4557,0.18642,0.18459,0.1368
-16,-1.4502,0.18445,0.18262,0.1353
-15.9,-1.4447,0.18249,0.18066,0.1337
-15.8,-1.4392,0.1805,0.17867,0.1322
-15.7,-1.4337,0.1785,0.17667,0.1306
-15.6,-1.4282,0.1765,0.17467,0.1291
-15.5,-1.4226,0.17444,0.17262,0.1275
-15.4,-1.417,0.17232,0.1705,0.1259
-15.3,-1.4113,0.17012,0.16829,0.1243
-15.2,-1.4049,0.16676,0.16494,0.1223
-15.1,-1.3995,0.16511,0.16328,0.1209
-15,-1.3941,0.16346,0.16163,0.1194
-14.9,-1.3886,0.16182,0.16,0.118
-14.8,-1.383,0.16018,0.15836,0.1165
-14.7,-1.3774,0.15855,0.15673,0.1151
-14.6,-1.3718,0.15693,0.15511,0.1136
-14.5,-1.3661,0.1553,0.15349,0.1122
-14.4,-1.3604,0.15368,0.15187,0.1107
-14.3,-1.3546,0.15207,0.15025,0.1093
-14.2,-1.3487,0.15045,0.14864,0.1078
-14.1,-1.3428,0.14884,0.14703,0.1063
-14,-1.3368,0.14724,0.14542,0.1048
-13.9,-1.3307,0.14562,0.14381,0.1034
-13.8,-1.3246,0.14402,0.14221,0.1019
-13.7,-1.3184,0.14241,0.1406,0.1004
-13.6,-1.3121,0.14081,0.139,0.0989
-13.5,-1.3057,0.1392,0.1374,0.0974
-13.4,-1.2993,0.1376,0.13579,0.0958
-13.3,-1.2928,0.13599,0.13418,0.0943
-13.2,-1.2862,0.13438,0.13258,0.0928
-13.1,-1.2795,0.13278,0.13098,0.0912
-13,-1.2728,0.13118,0.12938,0.0897
-12.9,-1.266,0.12959,0.12779,0.0881
-12.8,-1.2591,0.128,0.1262,0.0866
-12.7,-1.2522,0.12642,0.12462,0.085
-12.6,-1.2453,0.12485,0.12305,0.0834
-12.5,-1.2383,0.12328,0.12149,0.0819
-12.4,-1.2312,0.12172,0.11993,0.0803
-12.3,-1.2241,0.12017,0.11838,0.0787
-12.2,-1.217,0.11863,0.11684,0.0771
-12.1,-1.2098,0.11709,0.1153,0.0755
-12,-1.2025,0.11555,0.11377,0.0739
-11.9,-1.1951,0.11402,0.11224,0.0723
-11.8,-1.1877,0.11249,0.11071,0.0706
-11.7,-1.1802,0.11097,0.1092,0.069
-11.6,-1.1727,0.10947,0.10769,0.0673
-11.5,-1.1651,0.10796,0.10619,0.0657
-11.4,-1.1573,0.10632,0.10455,0.0639
-11.3,-1.1496,0.1048,0.10304,0.0622
-11.2,-1.1418,0.10329,0.10152,0.0604
-11.1,-1.1339,0.10178,0.10002,0.0587
-11,-1.1259,0.10026,0.0985,0.0569
-10.9,-1.1179,0.09871,0.09695,0.0551
-10.8,-1.1098,0.09715,0.0954,0.0533
-10.7,-1.1016,0.09555,0.0938,0.0514
-10.6,-1.0933,0.09393,0.09218,0.0495
-10.5,-1.085,0.09215,0.0904,0.0474
-10.4,-1.0768,0.0898,0.08806,0.045
-10.3,-1.068,0.08857,0.08684,0.0431
-10.2,-1.0591,0.08735,0.08562,0.0412
-10.1,-1.0501,0.08614,0.08442,0.0393
-10,-1.0409,0.08494,0.08322,0.0374
-9.9,-1.0316,0.08374,0.08202,0.0355
-9.8,-1.0221,0.08253,0.08083,0.0335
-9.7,-1.0124,0.08133,0.07963,0.0315
-9.6,-1.0026,0.08013,0.07843,0.0295
-9.5,-0.9926,0.07892,0.07722,0.0274
-9.4,-0.9824,0.07772,0.07602,0.0253
-9.3,-0.9721,0.0765,0.07481,0.0231
-9.2,-0.9616,0.07528,0.0736,0.0209
-9.1,-0.9509,0.07406,0.07237,0.0186
-9,-0.94,0.07282,0.07114,0.0163
-8.9,-0.929,0.07158,0.0699,0.0139
-8.8,-0.918,0.07033,0.06866,0.0114
-8.7,-0.9068,0.06908,0.0674,0.0089
-8.6,-0.8952,0.06779,0.06611,0.0062
-8.5,-0.8806,0.06634,0.06466,0.0026
-8.4,-0.8614,0.0646,0.06291,-0.0021
-8.3,-0.8379,0.06251,0.0608,-0.008
-8.2,-0.8147,0.06028,0.05854,-0.0139
-8,-0.7633,0.05374,0.05191,-0.0294
-7.9,-0.7434,0.05205,0.05017,-0.0336
-7.8,-0.7235,0.05025,0.04833,-0.0377
-7.6,-0.6828,0.04604,0.044,-0.0467
-6.7,-0.5447,0.01687,0.01241,-0.0788
-6.6,-0.5297,0.01601,0.01132,-0.0787
-6.5,-0.5145,0.01528,0.01039,-0.0786
-6.4,-0.4989,0.01466,0.00959,-0.0784
-6.3,-0.4834,0.01414,0.00889,-0.0782
-6.2,-0.4677,0.01368,0.00827,-0.0779
-6.1,-0.452,0.0133,0.00776,-0.0776
-6,-0.4361,0.01302,0.0074,-0.0774
-5.9,-0.4203,0.01278,0.00709,-0.0771
-5.8,-0.4049,0.01257,0.00678,-0.0768
-5.7,-0.3892,0.01236,0.00649,-0.0766
-5.6,-0.3735,0.0122,0.00627,-0.0763
-5.5,-0.3578,0.01201,0.00599,-0.0761
-5.4,-0.3423,0.01183,0.00576,-0.0759
-5.3,-0.3267,0.01167,0.00555,-0.0757
-5.2,-0.3111,0.01152,0.00536,-0.0755
-5.1,-0.2959,0.01141,0.00518,-0.0753
-5,-0.2804,0.01128,0.00501,-0.0751
-4.9,-0.265,0.01118,0.00486,-0.075
-4.8,-0.2496,0.01106,0.0047,-0.0748
-4.7,-0.2343,0.01095,0.00454,-0.0747
-4.6,-0.219,0.01084,0.00441,-0.0746
-4.5,-0.2039,0.01075,0.00427,-0.0744
-4.4,-0.1887,0.01067,0.00415,-0.0743
-4.3,-0.1734,0.01058,0.00403,-0.0742
-4.2,-0.1582,0.01051,0.00392,-0.0741
-4.1,-0.1431,0.01042,0.0038,-0.074
-4,-0.128,0.01034,0.00372,-0.0739
-3.9,-0.1132,0.0103,0.00362,-0.0738
-3.8,-0.0983,0.01026,0.00353,-0.0737
-3.7,-0.0838,0.01025,0.00345,-0.0735
-3.6,-0.0688,0.01018,0.00336,-0.0735
-3.5,-0.0539,0.01012,0.00329,-0.0734
-3.4,-0.0395,0.01013,0.00322,-0.0733
-3.3,-0.0247,0.0101,0.00316,-0.0733
-3.2,-0.0098,0.01004,0.00309,-0.0732
-3.1,0.005,0.01,0.00302,-0.0732
-3,0.0198,0.00998,0.00297,-0.0732
-2.9,0.0343,0.00998,0.00292,-0.0731
-2.8,0.0488,0.00997,0.00287,-0.0731
-2.7,0.0635,0.00995,0.00282,-0.0731
-2.6,0.0782,0.00991,0.00278,-0.0731
-2.5,0.0928,0.00989,0.00274,-0.0731
-2.4,0.1074,0.00988,0.00271,-0.0731
-2.3,0.122,0.00987,0.00267,-0.0732
-2.2,0.1365,0.00987,0.00264,-0.0732
-2.1,0.151,0.00987,0.00263,-0.0732
-2,0.1655,0.00984,0.00259,-0.0732
-1.9,0.1802,0.00982,0.00257,-0.0733
-1.8,0.1948,0.0098,0.00254,-0.0733
-1.7,0.2093,0.0098,0.00253,-0.0734
-1.6,0.2237,0.00977,0.00251,-0.0735
-1.5,0.2379,0.00983,0.00251,-0.0735
-1.4,0.2523,0.00982,0.0025,-0.0735
-1.3,0.2669,0.00981,0.00249,-0.0736
-1.2,0.2814,0.00979,0.00248,-0.0737
-1.1,0.2959,0.00979,0.00247,-0.0737
-1,0.3103,0.00979,0.00247,-0.0738
-0.9,0.3248,0.0098,0.00247,-0.0739
-0.8,0.3389,0.00985,0.00249,-0.0739
-0.7,0.3533,0.00984,0.00249,-0.074
-0.6,0.3677,0.00986,0.0025,-0.0741
-0.5,0.3821,0.00988,0.00251,-0.0741
-0.4,0.3964,0.00989,0.00253,-0.0742
-0.3,0.4107,0.00991,0.00253,-0.0743
-0.2,0.425,0.00995,0.00256,-0.0744
-0.1,0.4392,0.01,0.00258,-0.0744
0,0.4535,0.01001,0.00259,-0.0745
0.1,0.4672,0.01013,0.00265,-0.0745
0.2,0.4813,0.0102,0.00268,-0.0746
0.3,0.4953,0.01024,0.00272,-0.0747
0.4,0.5094,0.01032,0.00276,-0.0748
0.5,0.5233,0.0104,0.00281,-0.0748
0.6,0.5373,0.01049,0.00286,-0.0749
0.7,0.5513,0.01053,0.00291,-0.075
0.8,0.5655,0.01059,0.00296,-0.0751
0.9,0.5796,0.01065,0.00301,-0.0752
1,0.5937,0.01072,0.00307,-0.0752
1.1,0.608,0.01071,0.00311,-0.0753
1.2,0.6223,0.01074,0.00316,-0.0754
1.3,0.6367,0.01075,0.00321,-0.0755
1.4,0.6511,0.01071,0.00325,-0.0757
1.5,0.6654,0.01073,0.0033,-0.0757
1.6,0.6796,0.01065,0.00335,-0.0759
1.7,0.694,0.01061,0.0034,-0.0759
1.8,0.708,0.01058,0.00346,-0.0759
1.9,0.7219,0.01055,0.00352,-0.0759
2,0.7347,0.01042,0.00359,-0.0756
2.1,0.7478,0.01039,0.00364,-0.0753
2.2,0.7604,0.01036,0.0037,-0.0748
2.3,0.7685,0.01024,0.00372,-0.0733
2.4,0.78,0.01025,0.00375,-0.0725
2.5,0.7932,0.01028,0.00378,-0.0722
2.6,0.8095,0.01029,0.00378,-0.0725
2.7,0.8242,0.01036,0.00384,-0.0726
2.8,0.8388,0.01044,0.0039,-0.0726
2.9,0.8533,0.01054,0.00397,-0.0726
3,0.8679,0.01064,0.00404,-0.0726
3.1,0.8825,0.01073,0.00412,-0.0726
3.2,0.8972,0.01081,0.00419,-0.0725
3.3,0.9119,0.01089,0.00426,-0.0725
3.4,0.9266,0.01098,0.00433,-0.0725
3.5,0.9413,0.01107,0.00441,-0.0725
3.6,0.956,0.01116,0.00449,-0.0725
3.7,0.9706,0.01127,0.00457,-0.0724
3.8,0.9853,0.01136,0.00466,-0.0724
3.9,1.0001,0.01145,0.00473,-0.0723
4,1.0149,0.01154,0.00481,-0.0723
4.1,1.0296,0.01164,0.0049,-0.0722
4.2,1.0444,0.01174,0.00498,-0.0722
4.3,1.0591,0.01184,0.00507,-0.0721
4.4,1.0738,0.01196,0.00518,-0.072
4.5,1.0887,0.01205,0.00527,-0.0719
4.6,1.1036,0.01214,0.00536,-0.0718
4.7,1.1185,0.01224,0.00545,-0.0717
4.8,1.1334,0.01234,0.00555,-0.0716
4.9,1.1481,0.01245,0.00565,-0.0715
5,1.1629,0.01257,0.00575,-0.0714
5.1,1.1777,0.01269,0.00586,-0.0713
5.2,1.1928,0.01279,0.00597,-0.0711
5.3,1.2078,0.01289,0.00608,-0.071
5.4,1.2228,0.013,0.00618,-0.0708
5.5,1.2377,0.01311,0.0063,-0.0707
5.6,1.2527,0.01323,0.00641,-0.0705
5.7,1.2677,0.01335,0.00653,-0.0703
5.8,1.2826,0.01348,0.00665,-0.0701
5.9,1.2975,0.01361,0.00678,-0.0699
6,1.3127,0.01372,0.0069,-0.0697
6.1,1.3278,0.01383,0.00703,-0.0695
6.2,1.3429,0.01396,0.00715,-0.0693
6.3,1.358,0.01408,0.00728,-0.069
6.4,1.3731,0.01421,0.00742,-0.0688
6.5,1.3882,0.01435,0.00755,-0.0685
6.6,1.4031,0.0145,0.0077,-0.0682
6.7,1.4183,0.01464,0.00785,-0.068
6.8,1.4336,0.01476,0.008,-0.0677
6.9,1.4488,0.01489,0.00815,-0.0674
7,1.4641,0.01503,0.0083,-0.067
7.1,1.4793,0.01517,0.00845,-0.0667
7.2,1.4945,0.01532,0.00861,-0.0664
7.3,1.5095,0.01547,0.00877,-0.066
7.4,1.5246,0.01564,0.00894,-0.0656
7.5,1.5398,0.0158,0.00912,-0.0652
7.6,1.5552,0.01595,0.0093,-0.0648
7.7,1.5705,0.0161,0.00948,-0.0644
7.8,1.5858,0.01626,0.00966,-0.064
7.9,1.6011,0.01642,0.00985,-0.0635
8,1.6164,0.01659,0.01004,-0.0631
8.1,1.6316,0.01676,0.01024,-0.0626
8.2,1.6468,0.01694,0.01044,-0.0621
8.3,1.6616,0.01713,0.01064,-0.0615
8.4,1.6768,0.01731,0.01086,-0.061
8.5,1.6922,0.01749,0.01108,-0.0604
8.6,1.7075,0.01768,0.01131,-0.0599
8.7,1.7227,0.01787,0.01154,-0.0593
8.8,1.7378,0.01807,0.01178,-0.0586
8.9,1.7529,0.01828,0.01203,-0.058
9,1.7679,0.01849,0.01227,-0.0573
9.1,1.7828,0.0187,0.01253,-0.0567
9.2,1.7976,0.01893,0.01279,-0.0559
9.3,1.8121,0.01917,0.01307,-0.0552
9.4,1.8269,0.01941,0.01336,-0.0544
9.5,1.8417,0.01965,0.01367,-0.0536
9.6,1.8564,0.01989,0.01397,-0.0528
9.7,1.8709,0.02015,0.01429,-0.052
9.8,1.8852,0.02042,0.01462,-0.0511
9.9,1.8993,0.0207,0.01496,-0.0502
10,1.9131,0.02099,0.01532,-0.0493
10.1,1.9267,0.02129,0.01568,-0.0483
10.2,1.94,0.02159,0.01605,-0.0473
10.3,1.9529,0.02192,0.01643,-0.0462
10.4,1.9656,0.02228,0.01687,-0.0451
10.5,1.9778,0.02267,0.01736,-0.044
10.6,1.9894,0.02308,0.01787,-0.0428
10.7,2.0003,0.02351,0.0184,-0.0416
10.8,2.0105,0.02396,0.01896,-0.0403
10.9,2.0198,0.02444,0.01954,-0.0389
11,2.0291,0.02487,0.02006,-0.0375
11.1,2.0366,0.02537,0.02066,-0.0361
11.2,2.0429,0.02589,0.02128,-0.0345
11.3,2.0481,0.02643,0.02192,-0.0329
11.4,2.0521,0.02698,0.02257,-0.0313
11.5,2.0528,0.02753,0.02321,-0.0293
11.6,2.0515,0.02815,0.02392,-0.0274
11.7,2.0487,0.02893,0.02482,-0.0258
11.8,2.0463,0.0298,0.02582,-0.0246
11.9,2.044,0.03076,0.02692,-0.0239
12,2.0418,0.03183,0.02812,-0.0237
12.1,2.0396,0.03302,0.02946,-0.0241
12.2,2.0374,0.03435,0.03094,-0.0252
12.3,2.0353,0.03586,0.03261,-0.0271
12.4,2.0332,0.03761,0.03452,-0.03
12.5,2.0308,0.03964,0.03672,-0.0339
13.8,1.872,0.08749,0.08562,-0.1206
13.9,1.8683,0.08993,0.08807,-0.1246
14,1.8674,0.09198,0.09013,-0.1279
14.1,1.8685,0.09375,0.0919,-0.1307
14.2,1.871,0.09531,0.09347,-0.1331
14.3,1.8741,0.09676,0.09493,-0.1352
14.4,1.8599,0.10079,0.09896,-0.1419
14.5,1.8535,0.10374,0.10193,-0.1466
14.6,1.8524,0.1059,0.1041,-0.1499
14.7,1.8533,0.10773,0.10594,-0.1526
14.8,1.8555,0.10936,0.10758,-0.1549
14.9,1.8586,0.11084,0.10907,-0.157
15,1.8623,0.11222,0.11045,-0.1589
15.1,1.8664,0.11351,0.11176,-0.1607
15.2,1.8707,0.11475,0.113,-0.1624
15.3,1.8754,0.11591,0.11417,-0.164

