airfoilName st7.dat
Re 	1.300000e+05
M 	5.000000e-01
N 	4.500000e+00
VACC 	0 VACCflag 1
XTR 	1.00 	1.00 XTRflag 0
alpha,cl,cd,cdp,cm
-20.9,-1.6775,0.27751,0.27261,0.2061
-20.8,-1.6722,0.27537,0.27048,0.2043
-20.7,-1.667,0.27325,0.26835,0.2025
-20.6,-1.6617,0.27114,0.26624,0.2007
-20.5,-1.6564,0.26903,0.26413,0.1989
-20.4,-1.6512,0.26693,0.26203,0.1972
-20.3,-1.6459,0.26484,0.25994,0.1954
-20.2,-1.6406,0.26277,0.25786,0.1936
-20.1,-1.6354,0.2607,0.25579,0.1919
-20,-1.6301,0.25864,0.25374,0.1901
-19.9,-1.6248,0.25659,0.25168,0.1884
-19.8,-1.6195,0.25455,0.24964,0.1867
-19.7,-1.6143,0.25252,0.24761,0.185
-19.6,-1.609,0.2505,0.24559,0.1832
-19.5,-1.6037,0.24849,0.24357,0.1815
-19.4,-1.5984,0.24648,0.24157,0.1798
-19.3,-1.5931,0.24449,0.23957,0.1782
-19.2,-1.5878,0.2425,0.23758,0.1765
-19.1,-1.5825,0.24051,0.23558,0.1748
-19,-1.5772,0.23854,0.23361,0.1731
-18.9,-1.5719,0.23657,0.23164,0.1715
-18.8,-1.5666,0.23461,0.22968,0.1698
-18.7,-1.5613,0.23266,0.22773,0.1682
-18.6,-1.5559,0.23071,0.22578,0.1665
-18.5,-1.5506,0.22878,0.22385,0.1649
-18.4,-1.5453,0.22685,0.22192,0.1633
-18.3,-1.54,0.22493,0.21999,0.1617
-18.2,-1.5346,0.22302,0.21808,0.1601
-18.1,-1.5293,0.22111,0.21618,0.1585
-18,-1.524,0.21921,0.21428,0.1569
-17.9,-1.5187,0.21732,0.21239,0.1553
-17.8,-1.5133,0.21543,0.2105,0.1537
-17.7,-1.508,0.21356,0.20862,0.1521
-17.6,-1.5027,0.21169,0.20675,0.1505
-17.5,-1.4973,0.20982,0.20488,0.149
-17.4,-1.492,0.20796,0.20302,0.1474
-17.3,-1.4866,0.2061,0.20117,0.1459
-17.2,-1.4813,0.20426,0.19932,0.1443
-17.1,-1.476,0.20241,0.19748,0.1428
-17,-1.4706,0.20058,0.19564,0.1412
-16.9,-1.4652,0.19874,0.19381,0.1397
-16.8,-1.4599,0.19692,0.19197,0.1382
-16.7,-1.4545,0.19509,0.19014,0.1366
-16.6,-1.4491,0.19326,0.18832,0.1351
-16.5,-1.4433,0.19121,0.18626,0.1332
-16.4,-1.4378,0.18934,0.1844,0.1317
-16.3,-1.4323,0.18746,0.18251,0.1301
-16.2,-1.4268,0.18557,0.18063,0.1285
-16.1,-1.4212,0.18366,0.17872,0.1269
-16,-1.4155,0.18171,0.17677,0.1253
-15.9,-1.4098,0.17972,0.17477,0.1237
-15.8,-1.4039,0.1776,0.17266,0.1219
-15.7,-1.3974,0.17501,0.17009,0.1197
-15.6,-1.3921,0.17343,0.16851,0.1184
-15.5,-1.3868,0.17184,0.16693,0.117
-15.4,-1.3815,0.17026,0.16535,0.1157
-15.3,-1.3762,0.16868,0.16378,0.1143
-15.2,-1.3708,0.16711,0.1622,0.113
-15.1,-1.3655,0.16553,0.16063,0.1116
-15,-1.36,0.16396,0.15906,0.1102
-14.9,-1.3546,0.16239,0.15749,0.1089
-14.8,-1.3491,0.16082,0.15593,0.1075
-14.7,-1.3436,0.15926,0.15436,0.1062
-14.6,-1.338,0.15769,0.1528,0.1048
-14.5,-1.3324,0.15612,0.15123,0.1035
-14.4,-1.3267,0.15455,0.14965,0.1021
-14.3,-1.321,0.15298,0.14808,0.1007
-14.2,-1.3152,0.1514,0.14651,0.0993
-14.1,-1.3093,0.14982,0.14493,0.0979
-14,-1.3034,0.14824,0.14335,0.0965
-13.9,-1.2974,0.14665,0.14177,0.0951
-13.8,-1.2913,0.14507,0.14019,0.0937
-13.7,-1.2852,0.14348,0.13861,0.0923
-13.6,-1.279,0.14189,0.13702,0.0909
-13.5,-1.2728,0.1403,0.13544,0.0895
-13.4,-1.2665,0.13872,0.13385,0.088
-13.3,-1.2601,0.13713,0.13227,0.0866
-13.2,-1.2537,0.13554,0.13068,0.0851
-13.1,-1.2472,0.13395,0.1291,0.0837
-13,-1.2406,0.13237,0.12753,0.0822
-12.9,-1.234,0.13079,0.12595,0.0807
-12.8,-1.2274,0.12921,0.12438,0.0793
-12.7,-1.2206,0.12764,0.1228,0.0778
-12.6,-1.2138,0.12606,0.12123,0.0763
-12.5,-1.2069,0.12449,0.11966,0.0748
-12.4,-1.2,0.12292,0.1181,0.0732
-12.3,-1.193,0.12135,0.11653,0.0717
-12.2,-1.186,0.11978,0.11497,0.0702
-12.1,-1.1789,0.11821,0.1134,0.0686
-12,-1.1717,0.11664,0.11183,0.067
-11.9,-1.1644,0.11507,0.11026,0.0654
-11.8,-1.1571,0.11347,0.10867,0.0638
-11.7,-1.1496,0.11185,0.10705,0.0621
-11.6,-1.142,0.11018,0.10539,0.0603
-11.5,-1.1339,0.10835,0.10357,0.0582
-11.3,-1.1187,0.10571,0.10097,0.0549
-11.2,-1.1112,0.10442,0.09969,0.0534
-11.1,-1.1038,0.10314,0.09842,0.052
-11,-1.0962,0.10187,0.09715,0.0505
-10.9,-1.0885,0.1006,0.09589,0.049
-10.8,-1.0808,0.09934,0.09464,0.0475
-10.7,-1.0729,0.09808,0.09339,0.046
-10.6,-1.065,0.09682,0.09214,0.0444
-10.5,-1.0569,0.09557,0.09089,0.0428
-10.4,-1.0488,0.09432,0.08966,0.0412
-10.3,-1.0405,0.09307,0.08842,0.0396
-10.2,-1.0321,0.09183,0.08719,0.038
-10.1,-1.0237,0.09059,0.08596,0.0363
-10,-1.0151,0.08935,0.08472,0.0346
-9.9,-1.0063,0.0881,0.08347,0.0329
-9.8,-0.9974,0.08685,0.08223,0.0311
-9.7,-0.9884,0.08559,0.08099,0.0293
-9.6,-0.9792,0.08433,0.07973,0.0274
-9.5,-0.9698,0.08304,0.07846,0.0255
-9.4,-0.9601,0.08173,0.07715,0.0235
-9.3,-0.9502,0.08038,0.07581,0.0213
-9.2,-0.9399,0.07894,0.07439,0.019
-9.1,-0.9288,0.07728,0.07274,0.0161
-9,-0.9177,0.07573,0.07122,0.0134
-8.9,-0.9082,0.07472,0.07022,0.0117
-8.8,-0.8986,0.07371,0.06922,0.0099
-8.7,-0.8888,0.07269,0.06822,0.0082
-8.6,-0.8789,0.07168,0.06722,0.0063
-8.5,-0.8689,0.07066,0.06622,0.0045
-8.4,-0.8587,0.06964,0.06521,0.0025
-8.3,-0.848,0.0686,0.06417,0.0004
-8.2,-0.8356,0.06747,0.06305,-0.0021
-8.1,-0.822,0.06626,0.06184,-0.0049
-7.9,-0.7898,0.06345,0.05902,-0.012
-7.8,-0.7731,0.06179,0.05735,-0.0157
-7.7,-0.754,0.05967,0.0552,-0.0204
-7.6,-0.7337,0.05724,0.05276,-0.0257
-7.5,-0.7195,0.0561,0.05161,-0.0281
-7.4,-0.705,0.05491,0.05041,-0.0304
-5.8,-0.4276,0.02559,0.01872,-0.0733
-5.3,-0.3391,0.02135,0.01349,-0.0768
-5.2,-0.322,0.02082,0.01289,-0.0773
-5.1,-0.3044,0.02029,0.01225,-0.0777
-5,-0.2865,0.01974,0.01156,-0.0782
-4.9,-0.2692,0.01925,0.01086,-0.0784
-4.8,-0.2526,0.01884,0.01041,-0.0787
-4.7,-0.2356,0.01844,0.00997,-0.079
-4.6,-0.2182,0.01806,0.0095,-0.0794
-4.5,-0.2015,0.01768,0.00904,-0.0796
-4.4,-0.1848,0.01732,0.00855,-0.0797
-4.2,-0.1512,0.0168,0.00801,-0.0804
-4.1,-0.135,0.01651,0.00765,-0.0805
-4,-0.1192,0.01624,0.00733,-0.0805
-3.9,-0.1027,0.01599,0.00708,-0.0808
-3.8,-0.0861,0.01577,0.00681,-0.081
-3.7,-0.0709,0.0156,0.00662,-0.081
-3.6,-0.0554,0.01538,0.00641,-0.0811
-3.5,-0.0395,0.01519,0.00619,-0.0812
-3.4,-0.024,0.01503,0.00597,-0.0812
-3.3,-0.0089,0.01485,0.00581,-0.0812
-3.2,0.0065,0.01471,0.00566,-0.0813
-3.1,0.0217,0.01455,0.00552,-0.0814
-3,0.0364,0.01441,0.00537,-0.0813
-2.9,0.0513,0.01427,0.00521,-0.0813
-2.8,0.0659,0.01416,0.00512,-0.0812
-2.7,0.0804,0.01403,0.005,-0.0812
-2.6,0.0951,0.01392,0.00488,-0.0811
-2.5,0.1095,0.01381,0.00479,-0.081
-2.4,0.1238,0.01369,0.00471,-0.081
-2.3,0.1381,0.01361,0.00461,-0.0808
-2.2,0.1522,0.01351,0.00454,-0.0807
-2.1,0.1665,0.01342,0.00445,-0.0806
-2,0.1806,0.01331,0.00438,-0.0806
-1.8,0.2072,0.01321,0.00425,-0.0798
-1.7,0.2212,0.01313,0.00418,-0.0797
-1.6,0.2346,0.01304,0.00412,-0.0794
-1.5,0.2484,0.01297,0.00407,-0.0793
-1.4,0.2622,0.0129,0.00401,-0.0791
-1.3,0.2757,0.01284,0.00396,-0.0788
-1.2,0.2888,0.01276,0.00391,-0.0785
-1.1,0.3023,0.01269,0.00386,-0.0783
-1,0.316,0.01263,0.00383,-0.0782
-0.9,0.329,0.01251,0.00378,-0.0779
-0.8,0.3422,0.01244,0.00374,-0.0777
-0.7,0.3555,0.01235,0.0037,-0.0774
-0.6,0.3677,0.0122,0.00366,-0.077
-0.5,0.3807,0.01207,0.00363,-0.0767
-0.4,0.3929,0.01192,0.00358,-0.0763
-0.3,0.4042,0.01172,0.00355,-0.0756
-0.2,0.4093,0.01132,0.00348,-0.0732
-0.1,0.4163,0.01111,0.00341,-0.071
0,0.4321,0.01102,0.00327,-0.0708
0.1,0.4503,0.01107,0.00317,-0.0714
0.2,0.4644,0.01117,0.00319,-0.0713
0.3,0.4783,0.01128,0.00323,-0.0711
0.4,0.4921,0.01139,0.00326,-0.0709
0.5,0.5061,0.0115,0.00331,-0.0708
0.6,0.5199,0.01162,0.00335,-0.0707
0.7,0.5331,0.01178,0.00341,-0.0704
0.8,0.5469,0.0119,0.00346,-0.0702
0.9,0.5608,0.01203,0.00352,-0.0701
1,0.5744,0.01217,0.00359,-0.0699
1.1,0.5881,0.0123,0.00365,-0.0698
1.2,0.6019,0.01244,0.00372,-0.0696
1.3,0.6155,0.01258,0.00379,-0.0695
1.4,0.6285,0.01277,0.00388,-0.0692
1.5,0.642,0.01293,0.00396,-0.0691
1.6,0.6555,0.01309,0.00405,-0.0689
1.7,0.669,0.01325,0.00413,-0.0687
1.8,0.6825,0.01341,0.00422,-0.0686
1.9,0.696,0.01358,0.00432,-0.0684
2,0.7094,0.01375,0.00442,-0.0682
2.1,0.7227,0.01393,0.00453,-0.0681
2.3,0.7488,0.01435,0.00475,-0.0677
2.4,0.7622,0.01453,0.00485,-0.0675
2.5,0.7757,0.01471,0.00498,-0.0674
2.6,0.789,0.01491,0.00511,-0.0673
2.7,0.8026,0.01509,0.00522,-0.0671
2.8,0.8161,0.01528,0.00536,-0.067
2.9,0.8297,0.01547,0.0055,-0.0669
3,0.8432,0.01567,0.00564,-0.0667
3.1,0.8562,0.0159,0.00579,-0.0666
3.2,0.8697,0.01611,0.00595,-0.0665
3.3,0.8835,0.01629,0.0061,-0.0663
3.4,0.8971,0.0165,0.00626,-0.0662
3.5,0.9106,0.01673,0.00643,-0.0661
3.6,0.9245,0.01691,0.0066,-0.0659
3.7,0.9382,0.01712,0.00678,-0.0658
3.8,0.9519,0.01734,0.00697,-0.0657
3.9,0.9653,0.01758,0.00716,-0.0655
4,0.9791,0.01778,0.00735,-0.0654
4.1,0.9929,0.018,0.00755,-0.0652
4.2,1.0065,0.01824,0.00775,-0.0651
4.3,1.0202,0.01848,0.00796,-0.0649
4.4,1.0343,0.01867,0.00817,-0.0648
4.5,1.0484,0.01888,0.00839,-0.0646
4.6,1.0623,0.01911,0.00862,-0.0645
4.7,1.0761,0.01935,0.00885,-0.0643
4.8,1.0897,0.01963,0.00908,-0.0641
4.9,1.1037,0.01981,0.0093,-0.0639
5,1.1178,0.02004,0.00954,-0.0638
5.1,1.1317,0.02028,0.00979,-0.0636
5.2,1.1455,0.02054,0.01003,-0.0634
5.3,1.1592,0.02083,0.01028,-0.0631
5.4,1.1734,0.02106,0.01056,-0.0629
5.5,1.1875,0.02129,0.01084,-0.0627
5.6,1.2016,0.02155,0.01113,-0.0625
5.7,1.2155,0.02181,0.01141,-0.0623
5.8,1.2294,0.02209,0.01169,-0.062
5.9,1.2426,0.02236,0.01191,-0.0617
6,1.2567,0.02262,0.01225,-0.0615
6.1,1.2706,0.02289,0.01258,-0.0612
6.2,1.2845,0.02318,0.0129,-0.0609
6.3,1.2983,0.02348,0.01324,-0.0606
6.4,1.3119,0.02378,0.01356,-0.0603
6.5,1.3256,0.0241,0.01387,-0.06
6.6,1.3392,0.02442,0.01421,-0.0597
6.7,1.3528,0.02474,0.01464,-0.0593
6.8,1.3664,0.02508,0.01505,-0.059
6.9,1.3793,0.02534,0.01537,-0.0586
7,1.3926,0.02568,0.01574,-0.0582
7.1,1.4058,0.02603,0.0161,-0.0578
7.2,1.4191,0.02638,0.01646,-0.0574
7.3,1.4318,0.02678,0.01698,-0.0569
7.4,1.4444,0.02718,0.0175,-0.0565
7.5,1.4569,0.0276,0.01801,-0.056
7.6,1.4693,0.02801,0.0185,-0.0555
7.7,1.4816,0.02843,0.01898,-0.055
7.8,1.4937,0.02884,0.01945,-0.0545
7.9,1.506,0.02925,0.0199,-0.0539
8,1.5168,0.02962,0.02034,-0.0533
8.1,1.5272,0.03016,0.02103,-0.0527
8.2,1.5376,0.03069,0.0217,-0.052
8.3,1.5478,0.03122,0.02233,-0.0514
8.4,1.5579,0.03174,0.02295,-0.0507
8.5,1.5678,0.03225,0.02354,-0.05
8.6,1.5778,0.03275,0.02411,-0.0494
8.7,1.5878,0.03324,0.02466,-0.0487
8.8,1.598,0.03372,0.02518,-0.048
8.9,1.6023,0.03456,0.02622,-0.0471
9,1.6068,0.03537,0.02722,-0.0463
9.1,1.6111,0.03616,0.02817,-0.0455
9.2,1.6156,0.03675,0.02889,-0.0447
9.3,1.6203,0.03744,0.02969,-0.0439
9.4,1.6249,0.03812,0.03047,-0.0431
9.5,1.6294,0.03878,0.03122,-0.0423
9.6,1.6338,0.03942,0.03193,-0.0415
9.7,1.6382,0.04003,0.03261,-0.0407
9.8,1.6361,0.04089,0.03356,-0.0399
10,1.6201,0.04333,0.03638,-0.0394
10.3,1.6082,0.04775,0.0413,-0.0446
10.4,1.6073,0.0494,0.04309,-0.0477
10.5,1.6081,0.05107,0.04489,-0.0511
10.6,1.6105,0.0527,0.04662,-0.0546
10.7,1.6146,0.05419,0.04819,-0.0576
11,1.5983,0.06588,0.06031,-0.0833
11.1,1.6016,0.06777,0.06225,-0.0864
11.2,1.6067,0.0692,0.0637,-0.0887
11.3,1.6129,0.07034,0.06487,-0.0905
11.4,1.6198,0.07129,0.06583,-0.0919
11.5,1.6272,0.0721,0.06666,-0.093
12.1,1.3384,0.064,0.05907,-0.0836
12.2,1.3434,0.06464,0.05971,-0.0844
12.3,1.3476,0.06547,0.06056,-0.0851
12.4,1.3521,0.06622,0.06132,-0.0857
12.5,1.357,0.06689,0.06201,-0.0861
12.6,1.3621,0.06751,0.06264,-0.0865

