airfoilName st7.dat
Re 	710000
M 	5.000000e-01
N 	4.500000e+00
VACC 	0 VACCflag 1
XTR 	1.00 	1.00 XTRflag 0
alpha,cl,cd,cdp,cm
-22.3,-1.7875,0.32916,0.32734,0.2466
-22.2,-1.7823,0.32645,0.32463,0.2445
-22.1,-1.7772,0.32372,0.32191,0.2425
-22,-1.7719,0.32098,0.31916,0.2405
-21.9,-1.7665,0.31818,0.31636,0.2384
-21.8,-1.7611,0.31538,0.31356,0.2364
-21.7,-1.7557,0.31257,0.31074,0.2343
-21.6,-1.7503,0.30967,0.30785,0.2322
-21.5,-1.7448,0.30677,0.30495,0.2302
-21.4,-1.7392,0.30377,0.30194,0.228
-21.3,-1.7321,0.29858,0.29676,0.2251
-21.2,-1.7269,0.29617,0.29435,0.2232
-21.1,-1.7217,0.29377,0.29195,0.2214
-21,-1.7166,0.29138,0.28955,0.2195
-20.9,-1.7114,0.28899,0.28716,0.2176
-20.8,-1.7062,0.28662,0.28479,0.2158
-20.7,-1.7009,0.28426,0.28243,0.2139
-20.6,-1.6957,0.28191,0.28008,0.2121
-20.5,-1.6905,0.27957,0.27774,0.2103
-20.4,-1.6853,0.27724,0.27541,0.2084
-20.3,-1.68,0.27492,0.27309,0.2066
-20.2,-1.6748,0.27262,0.27078,0.2048
-20.1,-1.6695,0.27033,0.26849,0.203
-20,-1.6643,0.26804,0.2662,0.2012
-19.9,-1.659,0.26577,0.26393,0.1994
-19.8,-1.6537,0.2635,0.26166,0.1977
-19.7,-1.6484,0.26125,0.25941,0.1959
-19.6,-1.6431,0.25901,0.25717,0.1941
-19.5,-1.6379,0.25678,0.25494,0.1924
-19.4,-1.6326,0.25456,0.25271,0.1906
-19.3,-1.6273,0.25235,0.2505,0.1889
-19.2,-1.622,0.25015,0.24831,0.1872
-19.1,-1.6167,0.24796,0.24612,0.1855
-19,-1.6114,0.24579,0.24394,0.1837
-18.9,-1.606,0.24362,0.24178,0.182
-18.8,-1.6007,0.24147,0.23962,0.1803
-18.7,-1.5954,0.23932,0.23747,0.1787
-18.6,-1.5901,0.23719,0.23534,0.177
-18.5,-1.5848,0.23507,0.23322,0.1753
-18.4,-1.5795,0.23296,0.2311,0.1736
-18.3,-1.5741,0.23085,0.229,0.172
-18.2,-1.5688,0.22877,0.22691,0.1703
-18.1,-1.5635,0.22668,0.22483,0.1687
-18,-1.5582,0.22461,0.22276,0.167
-17.9,-1.5528,0.22255,0.22069,0.1654
-17.8,-1.5475,0.2205,0.21864,0.1638
-17.7,-1.5422,0.21845,0.2166,0.1622
-17.6,-1.5368,0.21642,0.21456,0.1605
-17.5,-1.5314,0.21438,0.21253,0.1589
-17.4,-1.526,0.21235,0.2105,0.1573
-17.3,-1.5206,0.21033,0.20848,0.1557
-17.2,-1.5152,0.20832,0.20646,0.1541
-17.1,-1.5098,0.20631,0.20445,0.1525
-17,-1.5044,0.20431,0.20246,0.1509
-16.9,-1.499,0.20232,0.20046,0.1493
-16.8,-1.4936,0.20033,0.19848,0.1478
-16.7,-1.4881,0.19834,0.19649,0.1462
-16.6,-1.4827,0.19636,0.1945,0.1446
-16.5,-1.477,0.19418,0.19232,0.1429
-16.4,-1.4716,0.19221,0.19034,0.1413
-16.3,-1.4661,0.19021,0.18835,0.1398
-16.2,-1.4607,0.18824,0.18638,0.1382
-16.1,-1.4552,0.18625,0.18439,0.1367
-16,-1.4497,0.18427,0.18241,0.1351
-15.9,-1.4442,0.18227,0.18041,0.1336
-15.8,-1.4387,0.18024,0.17838,0.132
-15.7,-1.4332,0.17818,0.17632,0.1304
-15.6,-1.4276,0.17611,0.17425,0.1289
-15.5,-1.422,0.1739,0.17204,0.1272
-15.4,-1.4162,0.17143,0.16956,0.1255
-15.3,-1.41,0.16858,0.16672,0.1237
-15.2,-1.4047,0.16693,0.16507,0.1223
-15.1,-1.3993,0.16528,0.16342,0.1208
-15,-1.3938,0.16362,0.16177,0.1194
-14.9,-1.3883,0.16198,0.16013,0.1179
-14.8,-1.3828,0.16035,0.1585,0.1165
-14.7,-1.3772,0.15871,0.15686,0.115
-14.6,-1.3715,0.15709,0.15524,0.1136
-14.5,-1.3658,0.15546,0.15361,0.1121
-14.4,-1.36,0.15384,0.15199,0.1107
-14.3,-1.3542,0.15222,0.15037,0.1092
-14.2,-1.3483,0.1506,0.14875,0.1077
-14.1,-1.3424,0.14899,0.14714,0.1063
-14,-1.3364,0.14738,0.14553,0.1048
-13.9,-1.3303,0.14576,0.14391,0.1033
-13.8,-1.3242,0.14415,0.14231,0.1018
-13.7,-1.318,0.14254,0.1407,0.1003
-13.6,-1.3117,0.14093,0.13909,0.0988
-13.5,-1.3054,0.13933,0.13749,0.0973
-13.4,-1.2989,0.13771,0.13588,0.0958
-13.3,-1.2924,0.1361,0.13427,0.0943
-13.2,-1.2858,0.13449,0.13266,0.0927
-13.1,-1.2791,0.13288,0.13105,0.0912
-13,-1.2724,0.13128,0.12945,0.0896
-12.9,-1.2656,0.12968,0.12785,0.0881
-12.8,-1.2587,0.12809,0.12626,0.0865
-12.7,-1.2518,0.12651,0.12468,0.085
-12.6,-1.2449,0.12493,0.1231,0.0834
-12.5,-1.2379,0.12336,0.12153,0.0818
-12.4,-1.2309,0.12179,0.11997,0.0802
-12.3,-1.2238,0.12024,0.11842,0.0786
-12.2,-1.2166,0.11869,0.11687,0.0771
-12.1,-1.2094,0.11714,0.11533,0.0755
-12,-1.2021,0.1156,0.11379,0.0738
-11.9,-1.1948,0.11406,0.11225,0.0722
-11.8,-1.1873,0.11253,0.11072,0.0706
-11.7,-1.1798,0.111,0.1092,0.0689
-11.6,-1.1723,0.10949,0.10768,0.0673
-11.5,-1.1647,0.10798,0.10617,0.0656
-11.4,-1.1569,0.10629,0.10449,0.0638
-11.3,-1.1492,0.10476,0.10297,0.0621
-11.2,-1.1415,0.10323,0.10143,0.0604
-11.1,-1.1336,0.10171,0.09991,0.0586
-11,-1.1257,0.10016,0.09837,0.0568
-10.9,-1.1176,0.09857,0.09679,0.055
-10.8,-1.1095,0.09697,0.09518,0.0531
-10.7,-1.1013,0.09529,0.0935,0.0512
-10.6,-1.0931,0.0935,0.09172,0.0492
-10.5,-1.085,0.09121,0.08944,0.0468
-10.4,-1.0764,0.08997,0.08821,0.045
-10.3,-1.0676,0.08875,0.08699,0.0431
-10.2,-1.0587,0.08753,0.08577,0.0413
-10.1,-1.0497,0.08632,0.08457,0.0394
-10,-1.0406,0.08511,0.08336,0.0375
-9.9,-1.0313,0.0839,0.08216,0.0356
-9.8,-1.0218,0.0827,0.08096,0.0336
-9.7,-1.0121,0.08149,0.07976,0.0316
-9.6,-1.0023,0.08028,0.07855,0.0296
-9.5,-0.9923,0.07907,0.07734,0.0275
-9.4,-0.9822,0.07786,0.07614,0.0254
-9.3,-0.9719,0.07664,0.07492,0.0232
-9.2,-0.9614,0.07542,0.0737,0.021
-9.1,-0.9507,0.07419,0.07247,0.0187
-9,-0.9399,0.07295,0.07124,0.0164
-8.9,-0.9289,0.0717,0.06999,0.014
-8.8,-0.9179,0.07044,0.06874,0.0115
-8.7,-0.9067,0.06918,0.06747,0.009
-8.6,-0.8952,0.06789,0.06618,0.0063
-8.5,-0.8809,0.06644,0.06473,0.0028
-8.3,-0.8405,0.0627,0.06097,-0.0072
-8.2,-0.8158,0.06032,0.05856,-0.0136
-8,-0.7646,0.05409,0.05224,-0.0286
-7.9,-0.7441,0.05238,0.05049,-0.0329
-7.8,-0.724,0.05057,0.04864,-0.0372
-7.6,-0.6831,0.04639,0.04434,-0.0462
-6.7,-0.544,0.01712,0.01267,-0.0788
-6.6,-0.529,0.01621,0.01153,-0.0788
-6.5,-0.5138,0.01544,0.01056,-0.0787
-6.4,-0.4984,0.0148,0.00972,-0.0785
-6.3,-0.483,0.01426,0.009,-0.0782
-6.2,-0.4672,0.01378,0.00836,-0.078
-6.1,-0.4515,0.01341,0.00787,-0.0777
-6,-0.4358,0.01314,0.00752,-0.0774
-5.9,-0.42,0.01289,0.00719,-0.0772
-5.8,-0.4042,0.01266,0.00687,-0.077
-5.7,-0.3889,0.01246,0.00657,-0.0766
-5.6,-0.3732,0.01229,0.00633,-0.0764
-5.5,-0.3575,0.01209,0.00605,-0.0762
-5.4,-0.3419,0.0119,0.00582,-0.076
-5.3,-0.3265,0.01175,0.00562,-0.0758
-5.2,-0.3109,0.0116,0.00542,-0.0756
-5.1,-0.2956,0.01148,0.00524,-0.0754
-5,-0.2802,0.01136,0.00505,-0.0752
-4.9,-0.2647,0.01125,0.00491,-0.075
-4.8,-0.2493,0.01112,0.00474,-0.0749
-4.7,-0.2341,0.011,0.00458,-0.0747
-4.6,-0.2188,0.0109,0.00445,-0.0746
-4.5,-0.2035,0.0108,0.00431,-0.0745
-4.4,-0.1884,0.01073,0.00419,-0.0743
-4.3,-0.1732,0.01065,0.00407,-0.0742
-4.2,-0.158,0.01056,0.00395,-0.0741
-4.1,-0.1429,0.01047,0.00385,-0.074
-4,-0.1279,0.0104,0.00375,-0.074
-3.9,-0.1128,0.01033,0.00365,-0.0739
-3.8,-0.0982,0.01031,0.00356,-0.0737
-3.7,-0.0836,0.0103,0.00347,-0.0736
-3.6,-0.0687,0.01022,0.00338,-0.0735
-3.5,-0.0538,0.01017,0.00331,-0.0735
-3.4,-0.0394,0.01018,0.00324,-0.0733
-3.3,-0.0245,0.01014,0.00317,-0.0733
-3.2,-0.0097,0.01009,0.00311,-0.0733
-3.1,0.0051,0.01005,0.00305,-0.0732
-3,0.0199,0.01002,0.00299,-0.0732
-2.9,0.0345,0.01001,0.00293,-0.0732
-2.8,0.0489,0.01001,0.00288,-0.0731
-2.7,0.0635,0.00999,0.00284,-0.0731
-2.6,0.0783,0.00995,0.00279,-0.0731
-2.5,0.093,0.00992,0.00275,-0.0732
-2.4,0.1075,0.00992,0.00272,-0.0732
-2.3,0.1221,0.0099,0.00268,-0.0732
-2.2,0.1365,0.00991,0.00266,-0.0732
-2.1,0.151,0.0099,0.00263,-0.0732
-2,0.1656,0.00987,0.0026,-0.0733
-1.9,0.1801,0.00987,0.00259,-0.0733
-1.8,0.1948,0.00984,0.00256,-0.0733
-1.7,0.2093,0.00983,0.00254,-0.0734
-1.6,0.2237,0.00981,0.00252,-0.0735
-1.5,0.2379,0.00987,0.00253,-0.0735
-1.4,0.2524,0.00986,0.00251,-0.0735
-1.3,0.2669,0.00986,0.00251,-0.0736
-1.2,0.2814,0.00983,0.0025,-0.0737
-1.1,0.2958,0.00983,0.00249,-0.0737
-1,0.3103,0.00983,0.00249,-0.0738
-0.9,0.3247,0.00984,0.00249,-0.0739
-0.8,0.3388,0.00986,0.0025,-0.0739
-0.7,0.3533,0.00988,0.00251,-0.074
-0.6,0.3676,0.00989,0.00251,-0.0741
-0.5,0.382,0.00991,0.00252,-0.0741
-0.4,0.3963,0.00993,0.00253,-0.0742
-0.3,0.4107,0.00995,0.00254,-0.0743
-0.2,0.4249,0.00999,0.00257,-0.0743
-0.1,0.4392,0.01002,0.00258,-0.0744
0,0.4534,0.01004,0.0026,-0.0745
0.1,0.4672,0.01016,0.00265,-0.0745
0.2,0.4813,0.01021,0.00268,-0.0746
0.3,0.4953,0.01025,0.00272,-0.0747
0.4,0.5093,0.01033,0.00276,-0.0747
0.5,0.5233,0.01042,0.00281,-0.0748
0.6,0.5373,0.0105,0.00287,-0.0749
0.7,0.5512,0.01055,0.00292,-0.075
0.8,0.5653,0.01062,0.00297,-0.075
0.9,0.5795,0.01067,0.00302,-0.0751
1,0.5935,0.01071,0.00308,-0.0752
1.1,0.6078,0.01074,0.00312,-0.0753
1.2,0.622,0.01078,0.00318,-0.0754
1.3,0.6364,0.01073,0.00322,-0.0755
1.4,0.6508,0.01074,0.00326,-0.0756
1.5,0.6651,0.01074,0.00331,-0.0757
1.6,0.6792,0.01067,0.00337,-0.0758
1.8,0.7075,0.01056,0.00347,-0.0759
1.9,0.7204,0.01045,0.00354,-0.0756
2,0.7335,0.01043,0.00361,-0.0754
2.1,0.7463,0.01039,0.00366,-0.075
2.2,0.7584,0.01037,0.00371,-0.0744
2.3,0.766,0.01025,0.00372,-0.0727
2.4,0.7785,0.01026,0.00374,-0.0722
2.5,0.7931,0.01031,0.00377,-0.0722
2.6,0.809,0.01035,0.0038,-0.0725
2.7,0.8237,0.01043,0.00386,-0.0725
2.8,0.8383,0.01051,0.00392,-0.0725
2.9,0.8529,0.0106,0.00399,-0.0725
3,0.8674,0.0107,0.00406,-0.0725
3.1,0.882,0.0108,0.00414,-0.0725
3.2,0.8967,0.01088,0.00421,-0.0724
3.3,0.9114,0.01096,0.00428,-0.0724
3.4,0.9261,0.01105,0.00436,-0.0724
3.5,0.9408,0.01114,0.00443,-0.0724
3.6,0.9555,0.01123,0.00451,-0.0724
3.7,0.9701,0.01133,0.00459,-0.0723
3.8,0.9847,0.01144,0.00469,-0.0723
3.9,0.9995,0.01153,0.00476,-0.0722
4,1.0143,0.01162,0.00484,-0.0722
4.1,1.029,0.01171,0.00493,-0.0721
4.2,1.0438,0.01181,0.00502,-0.0721
4.3,1.0585,0.01192,0.00511,-0.072
4.4,1.0732,0.01203,0.0052,-0.0719
4.5,1.088,0.01213,0.0053,-0.0718
4.6,1.1029,0.01222,0.00539,-0.0717
4.7,1.1178,0.01232,0.00549,-0.0716
4.8,1.1327,0.01242,0.00559,-0.0715
4.9,1.1474,0.01253,0.00568,-0.0714
5,1.1622,0.01265,0.00579,-0.0713
5.1,1.177,0.01278,0.00589,-0.0712
5.2,1.192,0.01288,0.00601,-0.071
5.3,1.207,0.01298,0.00612,-0.0709
5.4,1.222,0.01309,0.00623,-0.0707
5.5,1.237,0.0132,0.00634,-0.0706
5.6,1.2519,0.01331,0.00645,-0.0704
5.7,1.2669,0.01344,0.00657,-0.0702
5.8,1.2819,0.01356,0.00669,-0.07
5.9,1.2967,0.0137,0.00682,-0.0698
6,1.3118,0.01381,0.00695,-0.0696
6.1,1.3269,0.01393,0.00708,-0.0694
6.2,1.342,0.01405,0.00721,-0.0691
6.3,1.3571,0.01418,0.00734,-0.0689
6.4,1.3722,0.01431,0.00747,-0.0687
6.5,1.3873,0.01445,0.00761,-0.0684
6.6,1.4022,0.01459,0.00776,-0.0681
6.7,1.4172,0.01474,0.00791,-0.0678
6.8,1.4325,0.01487,0.00806,-0.0675
6.9,1.4478,0.015,0.00821,-0.0672
7,1.4631,0.01514,0.00837,-0.0669
7.1,1.4783,0.01528,0.00853,-0.0666
7.2,1.4934,0.01543,0.00868,-0.0662
7.3,1.5085,0.01558,0.00884,-0.0659
7.4,1.5236,0.01574,0.00901,-0.0655
7.5,1.5386,0.01592,0.00919,-0.0651
7.6,1.5539,0.01606,0.00937,-0.0647
7.7,1.5693,0.01622,0.00956,-0.0643
7.8,1.5846,0.01637,0.00975,-0.0638
7.9,1.5999,0.01654,0.00994,-0.0634
8,1.6151,0.01671,0.01013,-0.0629
8.1,1.6303,0.01688,0.01033,-0.0624
8.2,1.6455,0.01706,0.01053,-0.0619
8.3,1.6603,0.01725,0.01073,-0.0614
8.4,1.6753,0.01745,0.01095,-0.0608
8.5,1.6907,0.01763,0.01118,-0.0603
8.6,1.7059,0.01781,0.01141,-0.0597
8.7,1.7211,0.01801,0.01165,-0.0591
8.8,1.7362,0.01821,0.01189,-0.0585
8.9,1.7513,0.01842,0.01214,-0.0578
9,1.7662,0.01863,0.01239,-0.0572
9.1,1.7811,0.01885,0.01265,-0.0565
9.2,1.7958,0.01908,0.01292,-0.0557
9.3,1.8103,0.01932,0.0132,-0.055
9.4,1.8248,0.01957,0.01349,-0.0542
9.5,1.8396,0.01981,0.0138,-0.0534
9.6,1.8543,0.02005,0.01411,-0.0526
9.7,1.8686,0.02032,0.01444,-0.0518
9.8,1.8829,0.0206,0.01478,-0.0509
9.9,1.8968,0.02088,0.01513,-0.05
10,1.9105,0.02118,0.01549,-0.049
10.1,1.924,0.02148,0.01586,-0.0481
10.2,1.9372,0.0218,0.01624,-0.047
10.3,1.95,0.02212,0.01663,-0.046
10.4,1.9624,0.02247,0.01705,-0.0449
10.5,1.9744,0.02287,0.01755,-0.0437
10.6,1.9858,0.02329,0.01807,-0.0425
10.7,1.9964,0.02374,0.01861,-0.0413
10.8,2.0063,0.0242,0.01919,-0.04
10.9,2.0152,0.02469,0.01979,-0.0386
11,2.024,0.02514,0.02033,-0.0372
11.1,2.031,0.02565,0.02094,-0.0358
11.2,2.0368,0.02619,0.02158,-0.0342
11.3,2.0415,0.02674,0.02223,-0.0326
11.4,2.0447,0.0273,0.0229,-0.0309
11.5,2.0442,0.02786,0.02354,-0.0289
11.6,2.0435,0.02848,0.02425,-0.0271
11.7,2.0425,0.0292,0.02507,-0.0256
11.8,2.04,0.0301,0.02611,-0.0246
11.9,2.0377,0.0311,0.02725,-0.024
12,2.0354,0.0322,0.02849,-0.024
12.1,2.033,0.03344,0.02988,-0.0246
12.3,2.0285,0.03642,0.03317,-0.0281
12.5,2.0236,0.04041,0.03751,-0.0356
12.6,2.02,0.04301,0.04027,-0.0412
13.4,1.9305,0.07215,0.07013,-0.0935
13.8,1.8641,0.08854,0.08663,-0.1226
13.9,1.8612,0.09087,0.08898,-0.1264
14,1.8611,0.09283,0.09095,-0.1295
14.1,1.8626,0.09454,0.09266,-0.1322
14.2,1.8654,0.09605,0.09418,-0.1344
14.3,1.8687,0.09746,0.0956,-0.1365
14.4,1.8559,0.10133,0.09947,-0.1429
14.5,1.8497,0.10426,0.10242,-0.1475
14.6,1.8488,0.1064,0.10457,-0.1507
14.7,1.8499,0.10821,0.10639,-0.1534
14.8,1.8523,0.10982,0.10801,-0.1557
14.9,1.8554,0.11129,0.10949,-0.1577
15,1.8592,0.11265,0.11086,-0.1596
15.1,1.8633,0.11394,0.11215,-0.1614
15.2,1.8677,0.11517,0.11338,-0.1631
15.3,1.8725,0.11632,0.11454,-0.1647
15.4,1.8764,0.1176,0.11582,-0.1665

