airfoilName st9.dat
Re 	210000
M 	5.000000e-01
N 	4.500000e+00
VACC 	0 VACCflag 1
XTR 	1.00 	1.00 XTRflag 0
alpha,cl,cd,cdp,cm
-27,-1.7782,0.44435,0.44068,0.3135
-26.9,-1.7741,0.44243,0.43875,0.3114
-26.8,-1.7698,0.44013,0.43645,0.3091
-26.3,-1.7504,0.43164,0.42794,0.2987
-26.2,-1.7458,0.42901,0.42531,0.2965
-26.1,-1.7411,0.42624,0.42254,0.2942
-26,-1.7363,0.42352,0.41982,0.292
-25.9,-1.7316,0.42077,0.41706,0.2897
-25.8,-1.7268,0.41805,0.41434,0.2874
-25.7,-1.722,0.41532,0.41161,0.2851
-25.6,-1.7172,0.41262,0.40891,0.2829
-25.5,-1.7124,0.40992,0.40621,0.2806
-25.4,-1.7076,0.40723,0.40351,0.2784
-25.3,-1.7027,0.40455,0.40083,0.2762
-25.2,-1.6979,0.40188,0.39815,0.2739
-25.1,-1.693,0.39921,0.39548,0.2717
-25,-1.6881,0.39657,0.39284,0.2694
-24.9,-1.6832,0.39393,0.3902,0.2672
-24.8,-1.6783,0.3913,0.38757,0.265
-24.7,-1.6733,0.38867,0.38492,0.2628
-24.6,-1.6683,0.38605,0.3823,0.2605
-24.5,-1.6634,0.38343,0.37968,0.2583
-24.4,-1.6584,0.38083,0.37708,0.2561
-24.3,-1.6534,0.37824,0.37449,0.2539
-24.2,-1.6483,0.37564,0.37188,0.2517
-24.1,-1.6433,0.37303,0.36927,0.2494
-24,-1.6381,0.37039,0.36663,0.2471
-23.9,-1.633,0.36775,0.36398,0.2449
-23.8,-1.6278,0.36504,0.36128,0.2426
-23.6,-1.6156,0.35785,0.3541,0.2372
-23.5,-1.6106,0.35546,0.35171,0.2352
-23.4,-1.6057,0.35307,0.34932,0.2332
-23.3,-1.6007,0.3507,0.34695,0.2312
-23.2,-1.5958,0.34834,0.34458,0.2292
-23.1,-1.5908,0.34598,0.34222,0.2272
-23,-1.5858,0.34362,0.33986,0.2253
-22.9,-1.5808,0.34129,0.33753,0.2233
-22.8,-1.5758,0.33896,0.33519,0.2214
-22.7,-1.5708,0.33663,0.33287,0.2194
-22.6,-1.5657,0.33431,0.33055,0.2175
-22.5,-1.5607,0.33201,0.32824,0.2156
-22.4,-1.5556,0.32971,0.32593,0.2137
-22.3,-1.5506,0.32742,0.32364,0.2118
-22.2,-1.5457,0.32548,0.3217,0.2099
-22.1,-1.5407,0.32319,0.31941,0.208
-22,-1.5356,0.32092,0.31714,0.2061
-21.9,-1.5305,0.31865,0.31487,0.2042
-21.8,-1.5254,0.3164,0.31261,0.2024
-21.7,-1.5202,0.31414,0.31036,0.2005
-21.6,-1.5151,0.31191,0.30812,0.1987
-21.5,-1.51,0.30968,0.30589,0.1968
-21.4,-1.5049,0.30745,0.30366,0.195
-21.3,-1.4997,0.30524,0.30145,0.1932
-21.2,-1.4946,0.30303,0.29924,0.1914
-21.1,-1.4894,0.30083,0.29704,0.1896
-21,-1.4843,0.29864,0.29485,0.1878
-20.9,-1.4791,0.29646,0.29266,0.186
-20.8,-1.4739,0.29429,0.29049,0.1842
-20.7,-1.4688,0.29212,0.28832,0.1824
-20.6,-1.4636,0.28997,0.28617,0.1807
-20.5,-1.4584,0.28781,0.28401,0.1789
-20.4,-1.4532,0.28568,0.28188,0.1772
-20.3,-1.448,0.28354,0.27974,0.1754
-20.2,-1.4429,0.28142,0.27762,0.1737
-20.1,-1.4377,0.2793,0.27549,0.172
-20,-1.4325,0.2772,0.27338,0.1703
-19.9,-1.4273,0.27509,0.27128,0.1686
-19.8,-1.4221,0.273,0.26919,0.1669
-19.7,-1.4168,0.27092,0.2671,0.1652
-19.6,-1.4116,0.26884,0.26502,0.1635
-19.5,-1.4064,0.26676,0.26295,0.1618
-19.4,-1.4012,0.2647,0.26089,0.1602
-19.3,-1.3959,0.26264,0.25883,0.1585
-19.2,-1.3907,0.26059,0.25678,0.1569
-19.1,-1.3854,0.25854,0.25473,0.1552
-19,-1.3802,0.2565,0.25269,0.1536
-18.9,-1.3749,0.25447,0.25065,0.1519
-18.8,-1.3696,0.25244,0.24863,0.1503
-18.7,-1.3643,0.25042,0.24661,0.1487
-18.6,-1.359,0.24841,0.2446,0.1471
-18.5,-1.3538,0.24641,0.24259,0.1455
-18.4,-1.3485,0.2444,0.24059,0.1439
-18.3,-1.3432,0.2424,0.23859,0.1423
-18.2,-1.3379,0.24041,0.2366,0.1407
-18.1,-1.3326,0.23843,0.23461,0.1391
-18,-1.3273,0.23645,0.23264,0.1375
-17.9,-1.3219,0.23447,0.23066,0.136
-17.8,-1.3166,0.2325,0.22869,0.1344
-17.7,-1.3113,0.23054,0.22672,0.1329
-17.6,-1.306,0.22857,0.22475,0.1313
-17.5,-1.3006,0.22661,0.22279,0.1298
-17.4,-1.2953,0.22465,0.22083,0.1282
-17.3,-1.2899,0.22269,0.21887,0.1267
-17.2,-1.2845,0.22073,0.21691,0.1251
-17.1,-1.2791,0.21877,0.21495,0.1236
-17,-1.2737,0.21682,0.213,0.1221
-16.9,-1.2683,0.21485,0.21103,0.1206
-16.8,-1.2619,0.21233,0.20851,0.1185
-16.7,-1.2562,0.2102,0.20638,0.117
-16.6,-1.2505,0.20801,0.20419,0.1153
-16.4,-1.2374,0.20278,0.19898,0.1116
-16.3,-1.2322,0.201,0.1972,0.1102
-16.2,-1.227,0.19923,0.19543,0.1088
-16.1,-1.2217,0.19746,0.19366,0.1074
-16,-1.2165,0.19569,0.19189,0.1061
-15.9,-1.2112,0.19392,0.19013,0.1047
-15.8,-1.2059,0.19216,0.18837,0.1033
-15.7,-1.2005,0.1904,0.18661,0.102
-15.6,-1.1951,0.18865,0.18486,0.1006
-15.5,-1.1897,0.18689,0.18311,0.0992
-15.4,-1.1843,0.18514,0.18136,0.0979
-15.3,-1.1789,0.1834,0.17961,0.0965
-15.2,-1.1734,0.18165,0.17786,0.0951
-15.1,-1.1679,0.17991,0.17612,0.0938
-15,-1.1623,0.17818,0.17439,0.0924
-14.9,-1.1568,0.17645,0.17266,0.0911
-14.8,-1.1512,0.17472,0.17093,0.0897
-14.7,-1.1455,0.17299,0.16921,0.0884
-14.6,-1.1399,0.17128,0.1675,0.087
-14.5,-1.1342,0.16956,0.16578,0.0857
-14.4,-1.1285,0.16785,0.16408,0.0844
-14.3,-1.1228,0.16615,0.16237,0.083
-14.2,-1.117,0.16445,0.16068,0.0817
-14.1,-1.1112,0.16275,0.15898,0.0803
-14,-1.1053,0.16105,0.15729,0.079
-13.9,-1.0994,0.15936,0.1556,0.0777
-13.8,-1.0935,0.15768,0.15392,0.0763
-13.7,-1.0875,0.156,0.15225,0.075
-13.6,-1.0815,0.15434,0.15058,0.0736
-13.5,-1.0755,0.15267,0.14892,0.0723
-13.4,-1.0695,0.15102,0.14727,0.071
-13.3,-1.0634,0.14937,0.14563,0.0696
-13.2,-1.0573,0.14773,0.14399,0.0683
-13.1,-1.0512,0.1461,0.14237,0.067
-13,-1.0451,0.14448,0.14075,0.0657
-12.9,-1.0389,0.14287,0.13914,0.0643
-12.8,-1.0327,0.14126,0.13754,0.063
-12.7,-1.0265,0.13967,0.13594,0.0617
-12.6,-1.0202,0.13808,0.13435,0.0604
-12.5,-1.0139,0.1365,0.13277,0.059
-12.4,-1.0075,0.13493,0.13121,0.0577
-12.3,-1.0011,0.13336,0.12965,0.0564
-12.2,-0.9947,0.1318,0.12809,0.055
-12.1,-0.9882,0.13025,0.12655,0.0537
-12,-0.9817,0.12871,0.12501,0.0524
-11.9,-0.9751,0.12718,0.12348,0.051
-11.8,-0.9685,0.12566,0.12196,0.0497
-11.7,-0.9619,0.12414,0.12045,0.0483
-11.6,-0.9552,0.12263,0.11895,0.047
-11.5,-0.9485,0.12113,0.11745,0.0456
-11.4,-0.9418,0.11963,0.11596,0.0443
-11.3,-0.9349,0.11814,0.11448,0.0429
-11.2,-0.928,0.11666,0.113,0.0415
-11.1,-0.9211,0.11517,0.11152,0.0402
-11,-0.9141,0.1137,0.11005,0.0388
-10.9,-0.907,0.11222,0.10858,0.0374
-10.8,-0.8984,0.1102,0.10656,0.0353
-10.7,-0.891,0.10859,0.10496,0.0338
-10.6,-0.8833,0.10691,0.10328,0.0321
-10.5,-0.8742,0.10475,0.10114,0.0299
-10.4,-0.8673,0.10346,0.09987,0.0286
-10.3,-0.8603,0.10219,0.0986,0.0272
-10.2,-0.8531,0.10092,0.09735,0.0259
-10.1,-0.8459,0.09967,0.09609,0.0246
-10,-0.8386,0.09842,0.09484,0.0232
-9.9,-0.8313,0.09718,0.09362,0.0218
-9.8,-0.8238,0.09595,0.09239,0.0205
-9.7,-0.8163,0.09473,0.09118,0.0191
-9.6,-0.8087,0.09351,0.08997,0.0177
-9.5,-0.801,0.0923,0.08877,0.0163
-9.4,-0.7932,0.09109,0.08758,0.0148
-9.3,-0.7854,0.0899,0.08639,0.0134
-9.2,-0.7775,0.08871,0.08522,0.012
-9.1,-0.7696,0.08753,0.08405,0.0105
-9,-0.7615,0.08636,0.08288,0.009
-8.9,-0.7535,0.08519,0.08173,0.0076
-8.8,-0.7454,0.08403,0.08058,0.0061
-8.7,-0.7372,0.08288,0.07944,0.0046
-8.6,-0.7291,0.08174,0.07831,0.0031
-8.5,-0.7209,0.08061,0.07719,0.0016
-8.4,-0.7128,0.07948,0.07608,0.0001
-8.3,-0.7047,0.07837,0.07498,-0.0014
-8.2,-0.6968,0.07728,0.0739,-0.0028
-8.1,-0.6891,0.07621,0.07284,-0.0042
-8,-0.6817,0.07516,0.07181,-0.0056
-7.9,-0.6747,0.07414,0.0708,-0.0069
-7.8,-0.668,0.07314,0.06981,-0.0082
-7.6,-0.6525,0.07105,0.06775,-0.0113
-7.5,-0.6441,0.06997,0.06668,-0.0129
-7.4,-0.6339,0.06877,0.06549,-0.0151
-7.3,-0.6151,0.06704,0.06375,-0.0193
-7.2,-0.5952,0.06522,0.06191,-0.0237
-7,-0.5554,0.0614,0.05805,-0.0325
-6.8,-0.5089,0.05629,0.05288,-0.0436
-6.7,-0.4907,0.05483,0.0514,-0.047
-6.6,-0.4716,0.05331,0.04985,-0.0506
-6.5,-0.452,0.05176,0.04826,-0.0541
-6.4,-0.4337,0.05023,0.0467,-0.0573
-6.3,-0.4144,0.04861,0.04504,-0.0607
-6,-0.3565,0.04337,0.03963,-0.0706
-5.3,-0.2299,0.02714,0.02227,-0.0904
-5.2,-0.2144,0.02566,0.02057,-0.0915
-5,-0.1849,0.02288,0.01731,-0.093
-4.7,-0.1401,0.01911,0.01264,-0.094
-4.6,-0.1258,0.01858,0.01201,-0.094
-4.5,-0.1111,0.01808,0.01139,-0.0939
-4.4,-0.0965,0.01759,0.01079,-0.0938
-4.3,-0.0819,0.0171,0.01017,-0.0937
-4.2,-0.0671,0.01671,0.0096,-0.0936
-4.1,-0.0527,0.01621,0.00894,-0.0932
-4,-0.0383,0.01585,0.00852,-0.0931
-3.9,-0.0238,0.01553,0.00815,-0.093
-3.8,-0.0093,0.01523,0.00777,-0.0928
-3.7,0.0051,0.01494,0.0074,-0.0926
-3.6,0.0197,0.01465,0.00702,-0.0924
-3.4,0.0481,0.01425,0.00653,-0.092
-3.3,0.0625,0.01404,0.00626,-0.0918
-3.2,0.0768,0.01384,0.00599,-0.0916
-3.1,0.0912,0.01366,0.00572,-0.0914
-3,0.1053,0.01348,0.00553,-0.0912
-2.9,0.1194,0.01337,0.00541,-0.091
-2.8,0.1338,0.01323,0.0052,-0.0909
-2.7,0.1481,0.01308,0.00503,-0.0908
-2.6,0.1622,0.01296,0.00488,-0.0906
-2.5,0.1761,0.01286,0.00474,-0.0904
-2.4,0.1893,0.01279,0.00463,-0.09
-2.3,0.2034,0.0127,0.0045,-0.0899
-2.2,0.2177,0.01261,0.00438,-0.0898
-2.1,0.2314,0.01254,0.00427,-0.0895
-2,0.2455,0.01246,0.00419,-0.0895
-1.9,0.2592,0.0124,0.00411,-0.0893
-1.8,0.2731,0.01235,0.00402,-0.0891
-1.7,0.2871,0.01229,0.00396,-0.089
-1.6,0.3007,0.01223,0.00391,-0.0889
-1.5,0.3146,0.01218,0.00385,-0.0888
-1.4,0.3284,0.01214,0.00379,-0.0887
-1.3,0.3421,0.01211,0.00376,-0.0885
-1.2,0.3559,0.01204,0.00372,-0.0885
-1.1,0.3694,0.01203,0.00368,-0.0883
-1,0.383,0.01202,0.00366,-0.0882
-0.9,0.3963,0.01199,0.00364,-0.0881
-0.8,0.4102,0.01196,0.00361,-0.088
-0.7,0.4238,0.01195,0.00359,-0.0879
-0.6,0.4376,0.01192,0.00358,-0.0879
-0.5,0.4511,0.01186,0.00357,-0.0878
-0.4,0.4643,0.01187,0.00356,-0.0877
-0.3,0.478,0.01184,0.00355,-0.0876
-0.2,0.4913,0.01174,0.00355,-0.0876
-0.1,0.5048,0.01169,0.00355,-0.0875
0,0.5181,0.01164,0.00356,-0.0874
0.1,0.5308,0.01143,0.00356,-0.0873
0.2,0.543,0.01128,0.00356,-0.087
0.5,0.5731,0.01051,0.00338,-0.0833
0.6,0.5868,0.01061,0.00342,-0.0832
0.7,0.6004,0.01072,0.00347,-0.083
0.8,0.614,0.01083,0.00351,-0.0829
0.9,0.6275,0.01095,0.00356,-0.0828
1,0.6409,0.01107,0.00361,-0.0827
1.1,0.6538,0.01124,0.00367,-0.0824
1.2,0.6671,0.01137,0.00374,-0.0823
1.3,0.6804,0.01151,0.00379,-0.0821
1.4,0.6936,0.01165,0.00386,-0.082
1.5,0.7067,0.0118,0.00394,-0.0818
1.6,0.7198,0.01195,0.00402,-0.0816
1.7,0.7328,0.01212,0.0041,-0.0815
1.8,0.7457,0.01228,0.00419,-0.0813
1.9,0.758,0.01251,0.00429,-0.081
2,0.7709,0.01268,0.00439,-0.0808
2.1,0.7838,0.01286,0.0045,-0.0807
2.2,0.7968,0.01303,0.00459,-0.0805
2.3,0.8099,0.01321,0.00471,-0.0803
2.4,0.8229,0.01339,0.00483,-0.0802
2.5,0.8361,0.01355,0.00494,-0.08
2.6,0.8492,0.01373,0.00506,-0.0799
2.7,0.8624,0.0139,0.00519,-0.0797
2.8,0.8751,0.01411,0.00532,-0.0795
2.9,0.8882,0.01429,0.00546,-0.0793
3,0.9016,0.01444,0.00559,-0.0792
3.1,0.915,0.0146,0.00573,-0.079
3.2,0.9282,0.01478,0.00587,-0.0789
3.3,0.9413,0.01496,0.00602,-0.0787
3.4,0.9549,0.01511,0.00616,-0.0785
3.5,0.9684,0.01527,0.0063,-0.0783
3.6,0.9817,0.01544,0.00645,-0.0782
3.7,0.9947,0.01564,0.00662,-0.0779
3.8,1.008,0.01581,0.00677,-0.0777
3.9,1.0215,0.01597,0.00693,-0.0775
4,1.0348,0.01615,0.0071,-0.0773
4.1,1.048,0.01633,0.00727,-0.0771
4.2,1.061,0.01654,0.00745,-0.0768
4.3,1.0747,0.01669,0.00761,-0.0766
4.4,1.0883,0.01685,0.00778,-0.0764
4.5,1.1017,0.01703,0.00796,-0.0762
4.6,1.115,0.01722,0.00815,-0.0759
4.8,1.1412,0.01761,0.00851,-0.0753
4.9,1.1548,0.01779,0.0087,-0.0751
5,1.1682,0.01797,0.00891,-0.0748
5.1,1.1815,0.01817,0.00911,-0.0745
5.2,1.1947,0.01837,0.00932,-0.0742
5.3,1.2076,0.0186,0.00953,-0.0738
5.4,1.2208,0.01881,0.00974,-0.0735
5.5,1.2344,0.019,0.00997,-0.0732
5.6,1.2478,0.0192,0.01019,-0.0728
5.8,1.2738,0.01961,0.01063,-0.0721
5.9,1.2866,0.01985,0.01087,-0.0717
6,1.2995,0.02009,0.01111,-0.0713
6.1,1.313,0.0203,0.01137,-0.0709
6.2,1.3262,0.02053,0.01164,-0.0705
6.3,1.3393,0.02076,0.01191,-0.07
6.4,1.3522,0.021,0.01218,-0.0696
6.5,1.365,0.02125,0.01245,-0.0691
6.6,1.3775,0.02151,0.01273,-0.0686
6.7,1.3898,0.02178,0.013,-0.0681
6.8,1.4026,0.02205,0.01331,-0.0676
6.9,1.4153,0.02228,0.01363,-0.067
7,1.4278,0.02256,0.01395,-0.0665
7.1,1.4401,0.02284,0.01428,-0.0659
7.2,1.4522,0.02312,0.0146,-0.0653
7.3,1.464,0.02342,0.01492,-0.0646
7.4,1.4756,0.02372,0.01524,-0.064
7.5,1.4874,0.02404,0.01561,-0.0633
7.6,1.4993,0.02438,0.01603,-0.0626
7.7,1.5108,0.02472,0.01646,-0.0619
7.8,1.5221,0.02508,0.01688,-0.0612
7.9,1.5331,0.02543,0.01731,-0.0604
8,1.5433,0.02571,0.01762,-0.0596
8.1,1.5536,0.02606,0.01802,-0.0587
8.2,1.5634,0.02641,0.01841,-0.0578
8.3,1.5732,0.02682,0.01889,-0.0569
8.4,1.5827,0.02728,0.01945,-0.056
8.5,1.5916,0.02773,0.02001,-0.055
8.6,1.6,0.02819,0.02056,-0.054
8.7,1.6078,0.02865,0.02111,-0.053
8.8,1.6151,0.02911,0.02165,-0.0519
8.9,1.6218,0.02958,0.02219,-0.0507
9,1.6279,0.03005,0.02272,-0.0495
9.1,1.6323,0.0305,0.02325,-0.048
9.2,1.6362,0.03096,0.02377,-0.0466
9.3,1.6401,0.03146,0.02431,-0.0452
9.4,1.6423,0.03216,0.02514,-0.044
9.5,1.6436,0.03287,0.02601,-0.0428
9.6,1.6458,0.03359,0.02684,-0.0418
9.7,1.6479,0.03433,0.02769,-0.0409
9.8,1.6499,0.03509,0.02856,-0.0401
9.9,1.6518,0.03587,0.02944,-0.0395
10,1.6538,0.03668,0.03034,-0.039
10.1,1.6559,0.03751,0.03126,-0.0387
10.2,1.6582,0.03836,0.0322,-0.0385
10.3,1.6607,0.03923,0.03314,-0.0385
10.4,1.6634,0.04011,0.0341,-0.0387
10.5,1.6631,0.04135,0.03545,-0.0394
10.6,1.6599,0.04297,0.03725,-0.0408
10.7,1.6569,0.04467,0.03913,-0.0427
10.9,1.6509,0.04852,0.04329,-0.048
11,1.6477,0.05072,0.04564,-0.0515
11.1,1.6444,0.05315,0.04821,-0.0557
11.3,1.6435,0.0576,0.05287,-0.0636
11.4,1.6424,0.05998,0.05534,-0.0677
11.5,1.6426,0.06214,0.05756,-0.0712
11.8,1.5817,0.08013,0.0759,-0.0988
11.9,1.5798,0.08268,0.07847,-0.1022
12,1.5812,0.08457,0.08038,-0.1047
12.1,1.5845,0.0861,0.08192,-0.1066
12.2,1.5889,0.08738,0.08322,-0.1082
12.3,1.5943,0.08846,0.08432,-0.1095
12.4,1.6002,0.08942,0.0853,-0.1106
12.6,1.5781,0.0985,0.09441,-0.1228
12.7,1.581,0.10011,0.09604,-0.1248
12.8,1.5849,0.10149,0.09744,-0.1264
12.9,1.5894,0.10271,0.09868,-0.1278
13,1.5944,0.10381,0.0998,-0.1291
13.1,1.5998,0.10481,0.10081,-0.1302
13.2,1.6055,0.10573,0.10174,-0.1312
13.3,1.6114,0.10657,0.10259,-0.1321
13.6,1.4773,0.13608,0.132,-0.1128
13.7,1.4859,0.1365,0.13244,-0.1141

