airfoilName st9.dat
Re 	690000
M 	5.000000e-01
N 	4.500000e+00
VACC 	0 VACCflag 1
XTR 	1.00 	1.00 XTRflag 0
alpha,cl,cd,cdp,cm
-26.3,-1.7675,0.44175,0.43992,0.307
-26.2,-1.7603,0.4375,0.43567,0.3036
-25.8,-1.7389,0.42481,0.42297,0.2936
-25.7,-1.7343,0.42212,0.42028,0.2914
-25.6,-1.7296,0.41938,0.41753,0.2892
-25.5,-1.7249,0.41663,0.41478,0.287
-25.4,-1.7201,0.41387,0.41202,0.2848
-25.3,-1.7154,0.41113,0.40928,0.2826
-25.2,-1.7106,0.40839,0.40654,0.2804
-25.1,-1.7058,0.40566,0.40381,0.2782
-25,-1.701,0.40293,0.40108,0.276
-24.9,-1.6962,0.40021,0.39835,0.2738
-24.8,-1.6913,0.39749,0.39564,0.2717
-24.7,-1.6865,0.39478,0.39293,0.2695
-24.6,-1.6816,0.39207,0.39021,0.2673
-24.5,-1.6767,0.38936,0.3875,0.2652
-24.4,-1.6718,0.38667,0.38481,0.263
-24.3,-1.6669,0.384,0.38214,0.2609
-24.2,-1.6619,0.3813,0.37943,0.2587
-24.1,-1.657,0.37861,0.37674,0.2566
-24,-1.652,0.37592,0.37405,0.2544
-23.9,-1.647,0.37324,0.37137,0.2523
-23.8,-1.642,0.37055,0.36867,0.2501
-23.7,-1.6369,0.36785,0.36598,0.248
-23.6,-1.6319,0.36519,0.36331,0.2459
-23.5,-1.6263,0.36197,0.36009,0.2434
-23.4,-1.6212,0.35925,0.35737,0.2412
-23.3,-1.616,0.35646,0.35458,0.2391
-23.2,-1.6108,0.35361,0.35173,0.2369
-23.1,-1.6055,0.35073,0.34885,0.2346
-22.9,-1.5928,0.34284,0.34097,0.2295
-22.8,-1.588,0.34047,0.3386,0.2276
-22.7,-1.5831,0.33811,0.33623,0.2256
-22.6,-1.5782,0.33575,0.33388,0.2237
-22.5,-1.5733,0.33341,0.33153,0.2218
-22.4,-1.5684,0.33109,0.32921,0.2199
-22.3,-1.5634,0.32876,0.32688,0.218
-22.2,-1.5585,0.32645,0.32457,0.2161
-22.1,-1.5536,0.32415,0.32226,0.2142
-22,-1.5486,0.32187,0.31998,0.2123
-21.9,-1.5436,0.31958,0.31769,0.2104
-21.8,-1.5387,0.31731,0.31542,0.2086
-21.7,-1.5337,0.31505,0.31316,0.2067
-21.6,-1.5287,0.3128,0.31091,0.2049
-21.5,-1.5237,0.31055,0.30866,0.203
-21.4,-1.5187,0.30832,0.30643,0.2012
-21.3,-1.5136,0.30609,0.3042,0.1994
-21.2,-1.5086,0.30388,0.30199,0.1975
-21.1,-1.5036,0.30167,0.29978,0.1957
-21,-1.4985,0.29947,0.29758,0.1939
-20.9,-1.4935,0.29729,0.29539,0.1921
-20.8,-1.4884,0.29511,0.29321,0.1903
-20.7,-1.4833,0.29294,0.29104,0.1886
-20.6,-1.4783,0.29077,0.28887,0.1868
-20.5,-1.4732,0.28862,0.28672,0.185
-20.4,-1.4681,0.28647,0.28457,0.1833
-20.3,-1.463,0.28433,0.28243,0.1815
-20.2,-1.4579,0.2822,0.2803,0.1798
-20.1,-1.4528,0.28007,0.27817,0.178
-20,-1.4476,0.27795,0.27604,0.1763
-19.9,-1.4425,0.27583,0.27393,0.1746
-19.8,-1.4373,0.27372,0.27181,0.1729
-19.7,-1.4321,0.27162,0.26971,0.1712
-19.6,-1.427,0.26952,0.26762,0.1695
-19.5,-1.4218,0.26744,0.26553,0.1678
-19.4,-1.4166,0.26535,0.26344,0.1661
-19.3,-1.4114,0.26327,0.26136,0.1644
-19.2,-1.4062,0.26121,0.25929,0.1627
-19.1,-1.401,0.25914,0.25723,0.1611
-19,-1.3958,0.25708,0.25517,0.1594
-18.9,-1.3906,0.25503,0.25312,0.1578
-18.8,-1.3854,0.25298,0.25107,0.1561
-18.7,-1.3802,0.25094,0.24903,0.1545
-18.6,-1.3748,0.24895,0.24704,0.1527
-18.5,-1.3696,0.24691,0.245,0.1511
-18.4,-1.3644,0.24488,0.24297,0.1495
-18.3,-1.3592,0.24285,0.24093,0.1479
-18.2,-1.3539,0.24082,0.23891,0.1463
-18.1,-1.3487,0.2388,0.23689,0.1447
-18,-1.3434,0.23679,0.23488,0.1431
-17.9,-1.3382,0.23477,0.23286,0.1415
-17.8,-1.3329,0.23277,0.23086,0.14
-17.7,-1.3277,0.23077,0.22886,0.1384
-17.6,-1.3224,0.22876,0.22684,0.1368
-17.5,-1.3172,0.22675,0.22484,0.1353
-17.4,-1.3119,0.22475,0.22284,0.1337
-17.3,-1.3066,0.22275,0.22083,0.1322
-17.2,-1.3013,0.22074,0.21882,0.1306
-17.1,-1.296,0.21872,0.21681,0.1291
-17,-1.2907,0.21672,0.2148,0.1275
-16.9,-1.2853,0.21468,0.21277,0.126
-16.8,-1.2799,0.21261,0.21069,0.1244
-16.7,-1.2744,0.2105,0.20859,0.1229
-16.6,-1.2689,0.20836,0.20645,0.1213
-16.5,-1.2634,0.20618,0.20426,0.1197
-16.4,-1.2575,0.20374,0.20182,0.1181
-16.2,-1.2444,0.19815,0.19624,0.1145
-16.1,-1.2393,0.19635,0.19444,0.1131
-16,-1.2342,0.19456,0.19265,0.1117
-15.9,-1.2291,0.19277,0.19086,0.1103
-15.8,-1.2239,0.191,0.18909,0.1089
-15.7,-1.2187,0.18923,0.18732,0.1075
-15.6,-1.2135,0.18747,0.18556,0.1062
-15.5,-1.2082,0.18572,0.18381,0.1048
-15.4,-1.2029,0.18398,0.18207,0.1034
-15.3,-1.1976,0.18224,0.18033,0.102
-15.2,-1.1923,0.18051,0.17861,0.1007
-15.1,-1.1869,0.17878,0.17688,0.0993
-15,-1.1815,0.17707,0.17516,0.0979
-14.9,-1.176,0.17536,0.17345,0.0966
-14.8,-1.1705,0.17365,0.17174,0.0952
-14.7,-1.1649,0.17194,0.17003,0.0938
-14.6,-1.1594,0.17024,0.16833,0.0924
-14.5,-1.1537,0.16853,0.16663,0.0911
-14.4,-1.148,0.16683,0.16493,0.0897
-14.3,-1.1422,0.16513,0.16323,0.0883
-14.2,-1.1365,0.16344,0.16154,0.0869
-14.1,-1.1306,0.16175,0.15985,0.0855
-14,-1.1246,0.16021,0.15831,0.0841
-13.9,-1.1187,0.15852,0.15662,0.0827
-13.8,-1.1128,0.15683,0.15493,0.0813
-13.7,-1.1068,0.15515,0.15326,0.0799
-13.6,-1.1008,0.15348,0.15159,0.0786
-13.5,-1.0948,0.15181,0.14992,0.0772
-13.4,-1.0887,0.15016,0.14827,0.0758
-13.3,-1.0826,0.1485,0.14662,0.0744
-13.2,-1.0765,0.14687,0.14498,0.0731
-13.1,-1.0703,0.14523,0.14335,0.0717
-13,-1.0642,0.14361,0.14173,0.0703
-12.9,-1.0579,0.14199,0.14011,0.069
-12.8,-1.0516,0.14038,0.1385,0.0676
-12.7,-1.0453,0.13877,0.1369,0.0662
-12.6,-1.0389,0.13717,0.13529,0.0648
-12.5,-1.0325,0.13557,0.1337,0.0634
-12.4,-1.026,0.13399,0.13212,0.0621
-12.3,-1.0195,0.13242,0.13055,0.0607
-12.2,-1.013,0.13085,0.12899,0.0593
-12.1,-1.0065,0.1293,0.12743,0.0579
-12,-0.9999,0.12775,0.12588,0.0565
-11.9,-0.9933,0.12621,0.12435,0.0552
-11.8,-0.9866,0.12469,0.12283,0.0538
-11.7,-0.9799,0.12316,0.12131,0.0524
-11.6,-0.9731,0.12165,0.1198,0.051
-11.5,-0.9663,0.12014,0.11829,0.0496
-11.4,-0.9594,0.11863,0.11679,0.0482
-11.3,-0.9524,0.11714,0.1153,0.0468
-11.2,-0.9454,0.11565,0.11381,0.0453
-11.1,-0.9384,0.11417,0.11233,0.0439
-11,-0.9313,0.11269,0.11086,0.0425
-10.9,-0.9242,0.11123,0.1094,0.0411
-10.8,-0.917,0.10977,0.10794,0.0396
-10.7,-0.9097,0.10831,0.10648,0.0381
-10.6,-0.9024,0.10686,0.10504,0.0367
-10.5,-0.895,0.1054,0.10359,0.0352
-10.4,-0.8875,0.10395,0.10214,0.0337
-10.3,-0.8799,0.10251,0.1007,0.0322
-10.2,-0.8723,0.10106,0.09926,0.0307
-10.1,-0.8646,0.09962,0.09781,0.0291
-10,-0.8569,0.09817,0.09636,0.0276
-9.9,-0.8491,0.09672,0.09492,0.026
-9.8,-0.8412,0.09526,0.09346,0.0244
-9.7,-0.8332,0.09378,0.09199,0.0228
-9.6,-0.8251,0.09228,0.09049,0.0212
-9.5,-0.817,0.09074,0.08895,0.0195
-9.4,-0.8087,0.08913,0.08735,0.0177
-9.2,-0.7915,0.08539,0.08361,0.0139
-9.1,-0.7831,0.0841,0.08234,0.0122
-9,-0.7747,0.0829,0.08114,0.0105
-8.9,-0.7662,0.08171,0.07996,0.0088
-8.8,-0.7576,0.08053,0.07878,0.0071
-8.7,-0.7489,0.07936,0.07762,0.0054
-8.6,-0.7401,0.0782,0.07647,0.0036
-8.5,-0.7312,0.07705,0.07532,0.0019
-8.4,-0.7186,0.0757,0.07397,-0.0009
-8.3,-0.706,0.07435,0.07262,-0.0036
-8.2,-0.6934,0.07302,0.07128,-0.0063
-8.1,-0.681,0.0717,0.06995,-0.0089
-8,-0.6696,0.07067,0.06891,-0.0112
-7.9,-0.6584,0.06945,0.06768,-0.0135
-7.8,-0.6453,0.06814,0.06635,-0.0163
-7.7,-0.6322,0.06684,0.06501,-0.019
-7.6,-0.6184,0.06548,0.06364,-0.0219
-7.5,-0.6045,0.06412,0.06225,-0.0248
-7.4,-0.5902,0.06273,0.06083,-0.0277
-7.3,-0.5754,0.06131,0.05937,-0.0307
-7.2,-0.5599,0.05982,0.05786,-0.0339
-7.1,-0.5441,0.0583,0.05631,-0.037
-7,-0.5281,0.05675,0.05472,-0.0402
-6.8,-0.4951,0.05348,0.05136,-0.0467
-6.7,-0.4777,0.05171,0.04955,-0.0501
-6.6,-0.4599,0.04985,0.04764,-0.0536
-6.4,-0.4237,0.04571,0.04337,-0.0608
-5.5,-0.2751,0.02007,0.01616,-0.0882
-5.2,-0.2326,0.01565,0.01089,-0.0896
-5.1,-0.2178,0.01471,0.00971,-0.0897
-5,-0.203,0.01397,0.00875,-0.0897
-4.9,-0.1879,0.01336,0.00794,-0.0896
-4.8,-0.1727,0.01285,0.00726,-0.0894
-4.7,-0.1575,0.01245,0.00674,-0.0893
-4.6,-0.1423,0.01217,0.00636,-0.0891
-4.5,-0.1272,0.01191,0.00602,-0.089
-4.4,-0.1122,0.0117,0.00572,-0.0888
-4.3,-0.0971,0.0115,0.00543,-0.0886
-4.2,-0.082,0.01131,0.00517,-0.0885
-4.1,-0.0669,0.01113,0.00492,-0.0884
-4,-0.0519,0.01098,0.00469,-0.0882
-3.9,-0.037,0.01088,0.00456,-0.0881
-3.8,-0.022,0.01075,0.00438,-0.088
-3.7,-0.0077,0.01069,0.00422,-0.0878
-3.6,0.0071,0.01059,0.00406,-0.0877
-3.5,0.0218,0.01051,0.00392,-0.0875
-3.4,0.0363,0.01046,0.00378,-0.0874
-3.3,0.051,0.01037,0.00366,-0.0873
-3.2,0.0657,0.0103,0.00356,-0.0872
-3.1,0.0804,0.01024,0.00345,-0.0871
-3,0.0944,0.01025,0.00338,-0.087
-2.9,0.109,0.01019,0.00329,-0.0869
-2.8,0.1236,0.01014,0.0032,-0.0869
-2.7,0.1379,0.01013,0.00313,-0.0868
-2.6,0.1524,0.0101,0.00306,-0.0867
-2.5,0.1669,0.01005,0.003,-0.0867
-2.4,0.181,0.01006,0.00295,-0.0866
-2.3,0.1955,0.01003,0.00289,-0.0866
-2.2,0.21,0.01001,0.00284,-0.0866
-2.1,0.2243,0.00999,0.00279,-0.0866
-2,0.2386,0.00997,0.00276,-0.0866
-1.9,0.253,0.00995,0.00272,-0.0866
-1.8,0.2674,0.00992,0.00268,-0.0866
-1.7,0.2813,0.00997,0.00267,-0.0865
-1.6,0.2956,0.00996,0.00264,-0.0865
-1.5,0.3098,0.00996,0.00262,-0.0865
-1.4,0.324,0.00994,0.0026,-0.0866
-1.3,0.3383,0.00993,0.00258,-0.0866
-1.2,0.3524,0.00994,0.00257,-0.0866
-1.1,0.3663,0.00997,0.00257,-0.0866
-1,0.3805,0.00995,0.00256,-0.0866
-0.9,0.3947,0.00994,0.00255,-0.0867
-0.8,0.4089,0.00995,0.00255,-0.0867
-0.7,0.423,0.00995,0.00255,-0.0868
-0.6,0.4371,0.00994,0.00256,-0.0868
-0.5,0.4512,0.00994,0.00256,-0.0869
-0.4,0.4653,0.00996,0.00258,-0.0869
-0.2,0.493,0.01002,0.00262,-0.0869
-0.1,0.5069,0.01006,0.00265,-0.087
0,0.5208,0.0101,0.00267,-0.087
0.1,0.5347,0.01013,0.0027,-0.087
0.2,0.5485,0.01018,0.00273,-0.0871
0.3,0.5623,0.01024,0.00276,-0.0871
0.4,0.5759,0.01028,0.00281,-0.0871
0.5,0.5896,0.01036,0.00286,-0.0871
0.6,0.6025,0.01052,0.00294,-0.0871
0.7,0.616,0.01062,0.003,-0.0871
0.8,0.6295,0.01066,0.00307,-0.0871
0.9,0.6432,0.01072,0.00312,-0.0872
1,0.6569,0.01073,0.00319,-0.0872
1.1,0.6708,0.01076,0.00324,-0.0873
1.2,0.6846,0.0108,0.00331,-0.0873
1.3,0.6985,0.01071,0.00336,-0.0874
1.4,0.7124,0.01069,0.00341,-0.0875
1.7,0.7446,0.01006,0.00362,-0.0855
1.8,0.7536,0.01001,0.00364,-0.0841
1.9,0.7689,0.00999,0.00362,-0.0843
2,0.7831,0.01007,0.00369,-0.0843
2.1,0.7972,0.01015,0.00375,-0.0843
2.2,0.8114,0.01023,0.00381,-0.0842
2.3,0.8255,0.01033,0.00388,-0.0842
2.4,0.8395,0.01043,0.00395,-0.0842
2.5,0.8535,0.01053,0.00402,-0.0841
2.6,0.8677,0.01061,0.00409,-0.0841
2.7,0.8819,0.0107,0.00416,-0.084
2.8,0.8959,0.0108,0.00423,-0.084
2.9,0.91,0.0109,0.00431,-0.0839
3,0.9242,0.01099,0.0044,-0.0839
3.1,0.9384,0.01107,0.00447,-0.0838
3.2,0.9526,0.01116,0.00455,-0.0837
3.3,0.9667,0.01126,0.00463,-0.0837
3.4,0.9809,0.01136,0.00471,-0.0836
3.5,0.9947,0.01148,0.00481,-0.0835
3.6,1.009,0.01157,0.00489,-0.0834
3.7,1.0232,0.01166,0.00497,-0.0833
3.8,1.0374,0.01176,0.00506,-0.0832
3.9,1.0516,0.01186,0.00516,-0.083
4,1.0657,0.01196,0.00525,-0.0829
4.1,1.0798,0.01208,0.00535,-0.0828
4.2,1.0939,0.01219,0.00545,-0.0826
4.3,1.1082,0.01228,0.00555,-0.0825
4.5,1.1366,0.0125,0.00575,-0.0822
4.6,1.1507,0.01261,0.00585,-0.082
4.7,1.1648,0.01273,0.00596,-0.0818
4.8,1.1788,0.01286,0.00609,-0.0816
4.9,1.1931,0.01296,0.0062,-0.0814
5,1.2074,0.01307,0.00631,-0.0812
5.1,1.2217,0.01318,0.00642,-0.081
5.2,1.2359,0.0133,0.00654,-0.0808
5.3,1.25,0.01342,0.00666,-0.0805
5.4,1.2642,0.01355,0.00679,-0.0803
5.5,1.2782,0.01369,0.00692,-0.08
5.6,1.2922,0.01383,0.00706,-0.0797
5.7,1.3065,0.01394,0.00719,-0.0794
5.8,1.3208,0.01407,0.00733,-0.0791
5.9,1.335,0.0142,0.00746,-0.0788
6,1.3491,0.01433,0.0076,-0.0785
6.1,1.3632,0.01447,0.00775,-0.0782
6.2,1.3772,0.01462,0.0079,-0.0778
6.3,1.3911,0.01478,0.00806,-0.0774
6.4,1.4053,0.01492,0.00822,-0.0771
6.5,1.4195,0.01505,0.00837,-0.0767
6.6,1.4337,0.0152,0.00854,-0.0763
6.7,1.4477,0.01534,0.0087,-0.0759
6.8,1.4618,0.0155,0.00886,-0.0754
6.9,1.4757,0.01566,0.00904,-0.075
7,1.4895,0.01583,0.00922,-0.0745
7.1,1.5031,0.01602,0.00941,-0.074
7.2,1.5172,0.01617,0.0096,-0.0735
7.3,1.5313,0.01633,0.00978,-0.073
7.4,1.5452,0.0165,0.00998,-0.0724
7.5,1.5591,0.01667,0.01018,-0.0719
7.6,1.5729,0.01685,0.01039,-0.0713
7.7,1.5865,0.01703,0.0106,-0.0707
7.8,1.6,0.01722,0.01081,-0.07
7.9,1.6132,0.01743,0.01102,-0.0694
8,1.6266,0.01763,0.01125,-0.0687
8.1,1.6402,0.01782,0.01148,-0.068
8.2,1.6537,0.01802,0.01172,-0.0673
8.3,1.667,0.01823,0.01197,-0.0666
8.4,1.6802,0.01844,0.01222,-0.0658
8.5,1.6932,0.01866,0.01247,-0.065
8.6,1.706,0.01888,0.01274,-0.0642
8.7,1.7186,0.01912,0.01301,-0.0633
8.8,1.7309,0.01937,0.01329,-0.0624
8.9,1.7427,0.01963,0.01359,-0.0614
9,1.7548,0.01988,0.01389,-0.0605
9.1,1.7669,0.02013,0.0142,-0.0595
9.2,1.7789,0.02037,0.0145,-0.0585
9.3,1.7903,0.02065,0.01482,-0.0574
9.4,1.8013,0.02093,0.01516,-0.0562
9.5,1.8119,0.02122,0.0155,-0.0551
9.6,1.8221,0.02152,0.01586,-0.0538
9.7,1.8318,0.02184,0.01623,-0.0526
9.8,1.8408,0.02216,0.01661,-0.0512
9.9,1.8479,0.0225,0.017,-0.0496
10,1.8539,0.02286,0.01742,-0.0479
10.1,1.8605,0.02325,0.01787,-0.0463
10.2,1.8668,0.02365,0.01836,-0.0447
10.3,1.873,0.02409,0.01886,-0.0432
10.4,1.8791,0.02454,0.0194,-0.0417
10.5,1.885,0.02502,0.01996,-0.0403
10.6,1.8907,0.02553,0.02055,-0.039
10.7,1.8961,0.02607,0.02117,-0.0377
10.8,1.9024,0.02658,0.02174,-0.0366
10.9,1.9075,0.02717,0.0224,-0.0355
11,1.9124,0.02779,0.02311,-0.0345
11.1,1.9171,0.02846,0.02385,-0.0337
11.2,1.9216,0.02917,0.02464,-0.0329
11.3,1.9255,0.02995,0.02551,-0.0323
11.4,1.9289,0.03081,0.02649,-0.0319
11.5,1.9318,0.03175,0.02754,-0.0316
11.6,1.9343,0.03275,0.02865,-0.0315
11.7,1.9365,0.03384,0.02985,-0.0318
11.8,1.9383,0.03501,0.03114,-0.0322
11.9,1.9399,0.03628,0.03253,-0.0331
12,1.9412,0.03767,0.03403,-0.0342
12.1,1.9421,0.03916,0.03565,-0.0357
12.2,1.9426,0.0408,0.03741,-0.0376
12.3,1.9427,0.04259,0.03932,-0.04
12.4,1.9421,0.04456,0.04141,-0.0427
12.5,1.9408,0.04669,0.04366,-0.0458
12.7,1.9349,0.05152,0.04871,-0.0531
12.8,1.9302,0.05423,0.05152,-0.0571
13.8,1.7957,0.09192,0.08989,-0.1106
13.9,1.7852,0.09536,0.09335,-0.1154
14,1.7774,0.09842,0.09643,-0.1197
14.1,1.7731,0.10101,0.09903,-0.1232
14.2,1.7709,0.10328,0.10131,-0.1262
14.3,1.7707,0.10526,0.1033,-0.1287
14.4,1.7721,0.10697,0.10502,-0.1309
14.5,1.7551,0.11154,0.1096,-0.1373
14.6,1.7381,0.11628,0.11438,-0.1438
14.7,1.7331,0.11918,0.11729,-0.1475
14.8,1.732,0.12137,0.11949,-0.1502
14.9,1.7328,0.12326,0.12138,-0.1525
15,1.7348,0.12493,0.12307,-0.1545
15.1,1.7374,0.12646,0.1246,-0.1563
15.2,1.7406,0.12788,0.12603,-0.1579
15.3,1.7442,0.1292,0.12736,-0.1595
15.4,1.748,0.13045,0.12862,-0.161
15.5,1.7521,0.13163,0.1298,-0.1624
15.7,1.7319,0.13984,0.13804,-0.1722
15.8,1.7327,0.14177,0.13999,-0.1744
15.9,1.7345,0.14351,0.14173,-0.1764
16,1.737,0.14511,0.14334,-0.1781
16.1,1.7399,0.14659,0.14483,-0.1798
16.3,1.748,0.14904,0.1473,-0.1825
16.4,1.7519,0.15031,0.14857,-0.1839
16.5,1.7558,0.15153,0.1498,-0.1853
16.7,1.7499,0.15784,0.15613,-0.192
16.8,1.7509,0.15999,0.15829,-0.1943
16.9,1.7529,0.16188,0.16018,-0.1962
17,1.7555,0.16361,0.16192,-0.198
17.1,1.7585,0.16523,0.16356,-0.1997
17.2,1.7617,0.16677,0.16511,-0.2013
17.3,1.7653,0.16824,0.16659,-0.2028
17.4,1.7689,0.16967,0.16803,-0.2043
17.5,1.7728,0.17103,0.1694,-0.2057
17.6,1.7768,0.17237,0.17075,-0.2071
17.7,1.7808,0.17367,0.17206,-0.2085
17.8,1.785,0.17495,0.17335,-0.2098
17.9,1.7793,0.17987,0.17827,-0.2145
18,1.7814,0.18197,0.18037,-0.2165
18.1,1.7842,0.18388,0.1823,-0.2184
18.2,1.7873,0.18565,0.18408,-0.2201
18.3,1.7906,0.18734,0.18578,-0.2217
18.4,1.7942,0.18895,0.1874,-0.2233
18.5,1.798,0.19049,0.18895,-0.2248
18.6,1.802,0.19198,0.19045,-0.2263
18.7,1.8061,0.19342,0.1919,-0.2277
18.8,1.8103,0.19481,0.1933,-0.2291
18.9,1.8159,0.19582,0.19433,-0.2301
19,1.8129,0.2002,0.19871,-0.2341
19.1,1.8143,0.20303,0.20155,-0.2366
19.2,1.8174,0.20505,0.20358,-0.2385
19.3,1.8209,0.20689,0.20543,-0.2402
19.4,1.8247,0.20859,0.20714,-0.2418
19.5,1.8288,0.21017,0.20873,-0.2433
19.6,1.8331,0.21166,0.21023,-0.2448
19.7,1.8378,0.21302,0.21161,-0.2461
19.8,1.8364,0.2174,0.21598,-0.2499
19.9,1.8392,0.21975,0.21834,-0.252
20,1.8428,0.22173,0.22034,-0.2538
20.1,1.8468,0.22345,0.22207,-0.2554
20.2,1.8513,0.22499,0.22362,-0.2568
20.3,1.8521,0.22846,0.2271,-0.2598
20.4,1.855,0.2309,0.22955,-0.2619
20.5,1.8586,0.23292,0.23157,-0.2638
20.6,1.8618,0.23524,0.2339,-0.2658
20.7,1.8649,0.2376,0.23627,-0.2679
20.8,1.8684,0.23968,0.23836,-0.2697
20.9,1.8723,0.24158,0.24027,-0.2714
21,1.8762,0.24343,0.24212,-0.2731
21.1,1.8795,0.2457,0.2444,-0.2751
21.2,1.8828,0.24791,0.24662,-0.2771
21.3,1.8863,0.25006,0.24878,-0.279
21.4,1.8898,0.25219,0.25092,-0.2809
21.5,1.8934,0.25429,0.25302,-0.2827
21.6,1.8971,0.25636,0.25509,-0.2845
21.7,1.9008,0.2584,0.25714,-0.2864
21.8,1.9044,0.26046,0.2592,-0.2882
21.9,1.9076,0.26283,0.26158,-0.2903
22,1.9108,0.26523,0.26399,-0.2923
22.1,1.914,0.26764,0.2664,-0.2944
22.2,1.9173,0.27004,0.2688,-0.2965
22.3,1.9206,0.27243,0.27119,-0.2986
22.4,1.9239,0.27481,0.27358,-0.3006
22.5,1.9272,0.27716,0.27593,-0.3027
22.6,1.9307,0.27949,0.27827,-0.3047
22.7,1.9341,0.2818,0.28058,-0.3067
22.8,1.9376,0.28409,0.28288,-0.3087
22.9,1.9411,0.28636,0.28515,-0.3107
23,1.9446,0.28863,0.28742,-0.3126
23.1,1.9482,0.29085,0.28965,-0.3146
23.2,1.951,0.29386,0.29266,-0.3171
23.3,1.9541,0.29662,0.29542,-0.3194
23.4,1.9573,0.29929,0.2981,-0.3216
23.5,1.9607,0.3019,0.30072,-0.3238
23.6,1.964,0.30447,0.30329,-0.326
23.7,1.9674,0.30701,0.30583,-0.3281
23.8,1.9709,0.30951,0.30833,-0.3302
23.9,1.9743,0.31198,0.3108,-0.3323
24,1.9778,0.31443,0.31326,-0.3344
24.1,1.9813,0.31686,0.31569,-0.3365
24.2,1.9848,0.31927,0.3181,-0.3386
24.3,1.9883,0.32166,0.3205,-0.3406
24.4,1.9917,0.32403,0.32287,-0.3427
24.5,1.9952,0.32638,0.32523,-0.3447
24.6,1.9987,0.32873,0.32758,-0.3468
24.7,2.0022,0.33106,0.32992,-0.3488
24.8,2.0057,0.33342,0.33227,-0.3509
24.9,2.0089,0.33713,0.33598,-0.3536
25,2.0123,0.3402,0.33905,-0.3561
25.1,2.0158,0.34304,0.34189,-0.3584
25.2,2.0193,0.3458,0.34466,-0.3606
25.4,2.0262,0.35137,0.35023,-0.3652
25.5,2.0297,0.35397,0.35284,-0.3673
25.6,2.0332,0.35656,0.35543,-0.3695
25.7,2.0366,0.35911,0.35799,-0.3717
25.8,2.0401,0.36166,0.36054,-0.3738
25.9,2.0435,0.36419,0.36307,-0.376

