airfoilName st9.dat
Re 	2.900000e+05
M 	5.000000e-01
N 	4.500000e+00
VACC 	0 VACCflag 1
XTR 	1.00 	1.00 XTRflag 0
alpha,cl,cd,cdp,cm
-27,-1.7747,0.44778,0.44472,0.3125
-26.9,-1.7685,0.44386,0.4408,0.3097
-26.3,-1.7527,0.43209,0.42902,0.2995
-26.2,-1.7483,0.42967,0.4266,0.2972
-26.1,-1.7436,0.42693,0.42385,0.295
-26,-1.739,0.42422,0.42114,0.2928
-25.9,-1.7342,0.42149,0.41841,0.2906
-25.8,-1.7295,0.41879,0.41571,0.2883
-25.7,-1.7248,0.41609,0.41301,0.2861
-25.6,-1.72,0.41341,0.41032,0.2839
-25.5,-1.7153,0.41073,0.40764,0.2817
-25.4,-1.7105,0.40805,0.40496,0.2796
-25.3,-1.7057,0.40539,0.4023,0.2774
-25.2,-1.7009,0.40274,0.39965,0.2752
-25.1,-1.6961,0.4001,0.39701,0.273
-25,-1.6912,0.39747,0.39437,0.2709
-24.9,-1.6864,0.39485,0.39175,0.2687
-24.8,-1.6815,0.39224,0.38914,0.2666
-24.7,-1.6767,0.38964,0.38653,0.2645
-24.6,-1.6718,0.38704,0.38393,0.2623
-24.5,-1.6669,0.38445,0.38134,0.2602
-24.4,-1.662,0.38188,0.37877,0.2581
-24.3,-1.6571,0.37933,0.37621,0.256
-24.2,-1.6521,0.37677,0.37365,0.2539
-24.1,-1.6472,0.37423,0.37111,0.2518
-24,-1.6423,0.37169,0.36857,0.2497
-23.9,-1.6373,0.36917,0.36604,0.2476
-23.8,-1.6323,0.36665,0.36352,0.2455
-23.7,-1.6273,0.36414,0.36101,0.2435
-23.6,-1.6224,0.36165,0.35852,0.2414
-23.5,-1.6173,0.35915,0.35602,0.2394
-23.4,-1.6123,0.35667,0.35354,0.2373
-23.3,-1.6073,0.3542,0.35107,0.2353
-23.2,-1.6023,0.35174,0.3486,0.2332
-23.1,-1.5972,0.34928,0.34615,0.2312
-23,-1.5921,0.34683,0.34369,0.2292
-22.9,-1.5871,0.3444,0.34126,0.2272
-22.8,-1.582,0.34196,0.33882,0.2251
-22.7,-1.5769,0.33954,0.33639,0.2231
-22.6,-1.5718,0.33712,0.33398,0.2211
-22.5,-1.5667,0.33471,0.33157,0.2191
-22.4,-1.5615,0.33231,0.32916,0.2171
-22.3,-1.5564,0.32991,0.32675,0.2151
-22.2,-1.5512,0.32752,0.32436,0.2131
-22.1,-1.546,0.32512,0.32196,0.2111
-22,-1.5409,0.32273,0.31957,0.2091
-21.9,-1.5356,0.32033,0.31717,0.2071
-21.8,-1.5304,0.31794,0.31478,0.2051
-21.7,-1.5251,0.31553,0.31237,0.2031
-21.6,-1.5199,0.3131,0.30994,0.2011
-21.5,-1.5145,0.31066,0.3075,0.1991
-21.4,-1.5091,0.30813,0.30496,0.1971
-21.3,-1.5015,0.30363,0.30048,0.1939
-21.2,-1.4964,0.30145,0.29829,0.1921
-21.1,-1.4914,0.29927,0.29612,0.1903
-21,-1.4863,0.2971,0.29395,0.1885
-20.9,-1.4813,0.29495,0.29179,0.1868
-20.8,-1.4762,0.2928,0.28964,0.185
-20.7,-1.4711,0.29066,0.2875,0.1833
-20.6,-1.466,0.28852,0.28536,0.1815
-20.5,-1.4609,0.2864,0.28324,0.1798
-20.4,-1.4559,0.28428,0.28112,0.1781
-20.3,-1.4508,0.28218,0.27901,0.1763
-20.2,-1.4456,0.28007,0.27691,0.1746
-20.1,-1.4405,0.27798,0.27482,0.1729
-20,-1.4354,0.2759,0.27272,0.1712
-19.9,-1.4303,0.27382,0.27065,0.1695
-19.8,-1.4252,0.27175,0.26858,0.1678
-19.7,-1.42,0.26969,0.26651,0.1662
-19.6,-1.4149,0.26763,0.26446,0.1645
-19.5,-1.4097,0.26558,0.26241,0.1628
-19.4,-1.4045,0.26354,0.26036,0.1612
-19.3,-1.3993,0.2615,0.25832,0.1595
-19.2,-1.3942,0.25947,0.2563,0.1579
-19.1,-1.389,0.25745,0.25427,0.1563
-19,-1.3838,0.25543,0.25225,0.1546
-18.9,-1.3786,0.25342,0.25025,0.153
-18.8,-1.3734,0.25142,0.24825,0.1514
-18.7,-1.3681,0.24943,0.24625,0.1498
-18.6,-1.3629,0.24744,0.24426,0.1482
-18.5,-1.3577,0.24546,0.24229,0.1466
-18.4,-1.3525,0.24349,0.24031,0.1451
-18.3,-1.3473,0.24152,0.23835,0.1435
-18.2,-1.342,0.23957,0.23639,0.1419
-18.1,-1.3368,0.23761,0.23444,0.1404
-18,-1.3316,0.23567,0.2325,0.1388
-17.9,-1.3263,0.23373,0.23056,0.1373
-17.8,-1.3211,0.2318,0.22863,0.1358
-17.7,-1.3159,0.22988,0.22671,0.1342
-17.6,-1.3106,0.22796,0.22478,0.1327
-17.5,-1.3054,0.22605,0.22287,0.1312
-17.4,-1.3001,0.22415,0.22097,0.1297
-17.3,-1.2949,0.22226,0.21907,0.1282
-17.2,-1.2896,0.22036,0.21718,0.1267
-17.1,-1.2843,0.21848,0.2153,0.1252
-17,-1.2791,0.2166,0.21342,0.1238
-16.9,-1.2738,0.21473,0.21155,0.1223
-16.8,-1.2685,0.21286,0.20968,0.1208
-16.7,-1.2632,0.211,0.20782,0.1194
-16.6,-1.2579,0.20914,0.20596,0.1179
-16.5,-1.2526,0.20728,0.20411,0.1165
-16.4,-1.2472,0.20543,0.20225,0.115
-16.3,-1.2418,0.20357,0.2004,0.1136
-16.2,-1.2364,0.20172,0.19854,0.1121
-16.1,-1.231,0.19987,0.1967,0.1107
-16,-1.2255,0.19802,0.19485,0.1092
-15.9,-1.2201,0.19618,0.19301,0.1078
-15.8,-1.2146,0.19433,0.19116,0.1064
-15.7,-1.2088,0.19246,0.18929,0.1047
-15.6,-1.2033,0.19059,0.18742,0.1033
-15.5,-1.1977,0.18873,0.18556,0.1019
-15.4,-1.1921,0.18687,0.1837,0.1005
-15.3,-1.1865,0.185,0.18184,0.099
-15.2,-1.1808,0.18313,0.17996,0.0976
-15.1,-1.1752,0.18126,0.17809,0.0962
-15,-1.1695,0.17939,0.17622,0.0947
-14.9,-1.1637,0.17751,0.17434,0.0933
-14.8,-1.158,0.17563,0.17247,0.0919
-14.7,-1.1522,0.17375,0.17058,0.0905
-14.6,-1.1463,0.17184,0.16868,0.089
-14.5,-1.1404,0.16993,0.16677,0.0876
-14.4,-1.1345,0.16799,0.16483,0.0861
-14.3,-1.1284,0.16601,0.16285,0.0847
-14.2,-1.1223,0.16398,0.16082,0.0832
-14.1,-1.1158,0.1618,0.15864,0.0816
-14,-1.1084,0.15901,0.15587,0.0796
-13.9,-1.1027,0.15736,0.15422,0.0783
-13.8,-1.0969,0.15571,0.15257,0.077
-13.7,-1.0911,0.15407,0.15094,0.0757
-13.6,-1.0853,0.15244,0.14931,0.0744
-13.5,-1.0795,0.15082,0.14769,0.0731
-13.4,-1.0736,0.14921,0.14608,0.0717
-13.3,-1.0676,0.1476,0.14448,0.0704
-13.2,-1.0617,0.14601,0.14289,0.0691
-13.1,-1.0557,0.14441,0.1413,0.0678
-13,-1.0496,0.14284,0.13972,0.0665
-12.9,-1.0435,0.14126,0.13815,0.0652
-12.8,-1.0374,0.1397,0.13659,0.0638
-12.7,-1.0312,0.13815,0.13504,0.0625
-12.6,-1.025,0.1366,0.13349,0.0612
-12.5,-1.0187,0.13506,0.13195,0.0599
-12.4,-1.0124,0.13352,0.13042,0.0586
-12.3,-1.0061,0.132,0.1289,0.0572
-12.2,-0.9997,0.13048,0.12739,0.0559
-12.1,-0.9932,0.12898,0.12589,0.0546
-12,-0.9867,0.12748,0.12439,0.0532
-11.9,-0.9802,0.12599,0.12291,0.0519
-11.8,-0.9737,0.12451,0.12143,0.0506
-11.7,-0.9671,0.12304,0.11997,0.0492
-11.6,-0.9604,0.12158,0.11852,0.0479
-11.5,-0.9537,0.12014,0.11707,0.0466
-11.4,-0.947,0.11869,0.11563,0.0452
-11.3,-0.9402,0.11726,0.1142,0.0439
-11.2,-0.9333,0.11583,0.11278,0.0425
-11.1,-0.9264,0.11441,0.11136,0.0411
-11,-0.9194,0.11299,0.10996,0.0398
-10.9,-0.9124,0.11159,0.10856,0.0384
-10.8,-0.9053,0.1102,0.10717,0.037
-10.7,-0.8982,0.10881,0.10579,0.0356
-10.6,-0.891,0.10744,0.10442,0.0342
-10.5,-0.8838,0.10607,0.10305,0.0328
-10.4,-0.8764,0.1047,0.1017,0.0314
-10.3,-0.869,0.10335,0.10035,0.03
-10.2,-0.8616,0.10199,0.09899,0.0286
-10.1,-0.854,0.10065,0.09765,0.0271
-10,-0.8464,0.09931,0.09632,0.0257
-9.9,-0.8388,0.09798,0.095,0.0242
-9.8,-0.8311,0.09665,0.09368,0.0227
-9.7,-0.8226,0.09518,0.09221,0.021
-9.6,-0.8146,0.09383,0.09087,0.0195
-9.5,-0.8067,0.09248,0.08953,0.0179
-9.4,-0.7986,0.09113,0.08818,0.0164
-9.3,-0.7904,0.08977,0.08683,0.0148
-9.2,-0.7822,0.0884,0.08547,0.0131
-9.1,-0.7739,0.08703,0.08411,0.0115
-9,-0.7654,0.08562,0.08271,0.0098
-8.9,-0.7569,0.08419,0.08128,0.0081
-8.8,-0.7483,0.08267,0.07977,0.0062
-8.7,-0.7387,0.08081,0.07792,0.004
-8.6,-0.73,0.07944,0.07657,0.0022
-8.5,-0.722,0.07834,0.07549,0.0006
-8.4,-0.7139,0.07727,0.07442,-0.0009
-8.3,-0.7059,0.07621,0.07337,-0.0024
-8.2,-0.6981,0.07516,0.07234,-0.0038
-8.1,-0.6905,0.07415,0.07135,-0.0052
-8,-0.6832,0.07317,0.07038,-0.0066
-7.9,-0.6764,0.07222,0.06944,-0.0078
-7.8,-0.6696,0.07129,0.06852,-0.0091
-7.7,-0.6589,0.07014,0.06738,-0.0114
-7.6,-0.6411,0.06859,0.06582,-0.0154
-7.5,-0.6238,0.06709,0.0643,-0.0191
-7.4,-0.6064,0.06558,0.06278,-0.0229
-7.3,-0.5874,0.06398,0.06116,-0.027
-7.2,-0.5694,0.06243,0.0596,-0.0307
-7.1,-0.5513,0.06087,0.05802,-0.0345
-7,-0.5313,0.05919,0.05632,-0.0386
-6.9,-0.5134,0.0576,0.05471,-0.0422
-6.8,-0.4947,0.05595,0.05303,-0.0459
-6.6,-0.4566,0.05247,0.04948,-0.0533
-6.5,-0.4376,0.05062,0.0476,-0.057
-5.3,-0.2305,0.0232,0.01844,-0.0911
-5.2,-0.2164,0.02105,0.0159,-0.0922
-5.1,-0.2025,0.02024,0.01492,-0.0923
-5,-0.1881,0.01946,0.01398,-0.0924
-4.9,-0.1738,0.01872,0.01307,-0.0924
-4.8,-0.1594,0.01803,0.0122,-0.0924
-4.7,-0.1448,0.01735,0.01136,-0.0924
-4.6,-0.1301,0.01671,0.01055,-0.0923
-4.5,-0.1159,0.01613,0.00978,-0.0921
-4.4,-0.1013,0.01557,0.00905,-0.0919
-4.3,-0.0865,0.01506,0.00838,-0.0917
-4.2,-0.0719,0.01467,0.00788,-0.0916
-4.1,-0.0575,0.01438,0.00752,-0.0913
-4,-0.0428,0.01411,0.00718,-0.0912
-3.8,-0.014,0.01369,0.00657,-0.0907
-3.7,0.0007,0.01342,0.00624,-0.0906
-3.6,0.0152,0.01321,0.00598,-0.0904
-3.5,0.0296,0.01303,0.00574,-0.0902
-3.4,0.0442,0.01285,0.00551,-0.0901
-3.3,0.0585,0.0127,0.00528,-0.0899
-3.2,0.0728,0.01258,0.00513,-0.0897
-3.1,0.0874,0.01243,0.00495,-0.0896
-3,0.1018,0.0123,0.00477,-0.0895
-2.9,0.1159,0.0122,0.0046,-0.0893
-2.8,0.1297,0.01213,0.00444,-0.089
-2.7,0.1439,0.01202,0.00431,-0.0888
-2.6,0.1581,0.01195,0.00421,-0.0887
-2.5,0.1722,0.01188,0.00408,-0.0885
-2.4,0.1864,0.0118,0.00397,-0.0884
-2.3,0.2008,0.01172,0.00388,-0.0884
-2.2,0.2147,0.01169,0.00378,-0.0882
-2.1,0.2287,0.01162,0.00371,-0.0881
-2,0.2426,0.01159,0.00363,-0.0879
-1.9,0.2567,0.01154,0.00355,-0.0879
-1.8,0.2709,0.0115,0.0035,-0.0878
-1.7,0.285,0.01144,0.00344,-0.0878
-1.6,0.2989,0.01142,0.00339,-0.0877
-1.5,0.3125,0.01142,0.00335,-0.0875
-1.4,0.3262,0.01141,0.0033,-0.0874
-1.3,0.3402,0.01136,0.00328,-0.0874
-1.2,0.3541,0.01134,0.00324,-0.0874
-1.1,0.3679,0.01134,0.00322,-0.0873
-1,0.3816,0.01134,0.00321,-0.0872
-0.9,0.3955,0.0113,0.0032,-0.0872
-0.8,0.409,0.01132,0.00319,-0.0871
-0.7,0.4229,0.01132,0.00318,-0.0871
-0.6,0.4368,0.01128,0.00319,-0.0871
-0.5,0.4506,0.01128,0.00318,-0.0871
-0.4,0.4645,0.01128,0.00318,-0.0871
-0.3,0.4783,0.01128,0.00318,-0.0871
-0.2,0.4916,0.01127,0.0032,-0.087
-0.1,0.5054,0.01126,0.00322,-0.087
0,0.5191,0.01125,0.00323,-0.087
0.1,0.5327,0.01119,0.00324,-0.087
0.2,0.5463,0.01117,0.00326,-0.087
0.3,0.5598,0.01113,0.00329,-0.087
0.4,0.5728,0.01099,0.00331,-0.087
0.5,0.5858,0.01087,0.00332,-0.0868
0.8,0.6128,0.01009,0.00327,-0.0829
0.9,0.6273,0.01018,0.00329,-0.083
1,0.6408,0.01031,0.00334,-0.0829
1.1,0.6542,0.01044,0.0034,-0.0827
1.2,0.6675,0.01059,0.00347,-0.0826
1.3,0.6808,0.01073,0.00353,-0.0825
1.4,0.694,0.01088,0.0036,-0.0824
1.5,0.7065,0.0111,0.0037,-0.0822
1.6,0.7196,0.01127,0.00379,-0.082
1.7,0.7327,0.01144,0.00388,-0.0819
1.8,0.7458,0.01161,0.00396,-0.0818
1.9,0.7591,0.01176,0.00406,-0.0817
2,0.7723,0.01193,0.00416,-0.0816
2.1,0.7856,0.01208,0.00425,-0.0815
2.2,0.799,0.01224,0.00436,-0.0814
2.3,0.8125,0.01238,0.00445,-0.0813
2.4,0.8254,0.01258,0.00458,-0.0811
2.5,0.8391,0.01271,0.00468,-0.081
2.6,0.8526,0.01285,0.00479,-0.0809
2.7,0.866,0.013,0.0049,-0.0808
2.8,0.8796,0.01314,0.00502,-0.0807
2.9,0.8933,0.01327,0.00512,-0.0805
3,0.9069,0.0134,0.00524,-0.0804
3.1,0.9204,0.01355,0.00536,-0.0803
3.2,0.9338,0.01371,0.00549,-0.0801
3.3,0.9476,0.01383,0.00561,-0.08
3.4,0.9611,0.01398,0.00573,-0.0799
3.5,0.9747,0.01412,0.00585,-0.0797
3.6,0.9881,0.01428,0.00598,-0.0795
3.7,1.0017,0.01443,0.00612,-0.0794
3.8,1.0155,0.01455,0.00624,-0.0792
3.9,1.0293,0.01469,0.00638,-0.079
4,1.0429,0.01484,0.00652,-0.0788
4.1,1.0564,0.015,0.00666,-0.0786
4.2,1.0697,0.01517,0.00681,-0.0784
4.3,1.0834,0.0153,0.00695,-0.0782
4.4,1.0971,0.01545,0.00709,-0.078
4.5,1.1108,0.0156,0.00724,-0.0778
4.6,1.1243,0.01576,0.0074,-0.0775
4.7,1.1377,0.01593,0.00755,-0.0773
4.8,1.151,0.01611,0.00772,-0.077
4.9,1.1649,0.01625,0.00789,-0.0768
5,1.1786,0.0164,0.00806,-0.0765
5.1,1.1922,0.01656,0.00823,-0.0762
5.2,1.2058,0.01673,0.0084,-0.0759
5.3,1.2189,0.01691,0.00856,-0.0756
5.4,1.232,0.01711,0.00875,-0.0753
5.5,1.2458,0.01727,0.00893,-0.075
5.6,1.2595,0.01744,0.00912,-0.0747
5.7,1.2731,0.01761,0.00932,-0.0743
5.8,1.2865,0.01779,0.00952,-0.074
5.9,1.2999,0.01798,0.00973,-0.0736
6,1.3131,0.01818,0.00993,-0.0732
6.1,1.3261,0.0184,0.01014,-0.0727
6.2,1.3393,0.0186,0.01036,-0.0723
6.3,1.3529,0.01879,0.01059,-0.0719
6.4,1.3663,0.01899,0.01083,-0.0715
6.5,1.3795,0.01917,0.01104,-0.071
6.6,1.3925,0.01939,0.01127,-0.0706
6.7,1.4054,0.01961,0.01151,-0.07
6.8,1.418,0.01984,0.01176,-0.0695
6.9,1.4308,0.02008,0.01202,-0.069
7,1.444,0.0203,0.0123,-0.0685
7.1,1.4571,0.02054,0.01258,-0.0679
7.2,1.4699,0.02078,0.01287,-0.0673
7.3,1.4825,0.02103,0.01316,-0.0667
7.4,1.495,0.02129,0.01345,-0.0661
7.5,1.5072,0.02155,0.01374,-0.0654
7.6,1.5186,0.02179,0.01398,-0.0647
7.7,1.5308,0.02206,0.01431,-0.064
7.8,1.5431,0.02235,0.01467,-0.0633
7.9,1.5551,0.02264,0.01503,-0.0626
8,1.5669,0.02294,0.01539,-0.0618
8.1,1.5782,0.02325,0.01576,-0.061
8.2,1.5893,0.02356,0.01612,-0.0602
8.3,1.6001,0.02388,0.01649,-0.0593
8.4,1.6104,0.0242,0.01686,-0.0584
8.5,1.6203,0.02454,0.01723,-0.0574
8.6,1.63,0.0249,0.01764,-0.0564
8.7,1.6399,0.02529,0.01813,-0.0554
8.9,1.658,0.02604,0.01906,-0.0533
9,1.666,0.02645,0.01955,-0.0521
9.1,1.6735,0.02686,0.02003,-0.0509
9.2,1.6793,0.02727,0.0205,-0.0495
9.3,1.6842,0.02769,0.02099,-0.0479
9.4,1.6889,0.02813,0.02149,-0.0465
9.5,1.6935,0.02859,0.02201,-0.0451
9.6,1.698,0.02912,0.02259,-0.0438
9.7,1.7023,0.02974,0.02334,-0.0426
9.8,1.7061,0.03038,0.0241,-0.0415
9.9,1.7095,0.03106,0.02488,-0.0405
10,1.7127,0.03176,0.02569,-0.0396
10.1,1.7156,0.0325,0.02653,-0.0388
10.2,1.7184,0.03326,0.0274,-0.0381
10.3,1.721,0.03406,0.0283,-0.0376
10.4,1.7236,0.03489,0.02923,-0.0372
10.5,1.7284,0.03553,0.02993,-0.0369
10.6,1.7313,0.03639,0.03088,-0.0369
10.7,1.7344,0.03728,0.03186,-0.037
10.8,1.736,0.03836,0.03304,-0.0375
10.9,1.7353,0.03975,0.03458,-0.0384
11,1.7344,0.04123,0.03622,-0.0397
11.1,1.7334,0.04282,0.03796,-0.0414
11.2,1.7321,0.04455,0.03983,-0.0436
11.3,1.7307,0.04643,0.04186,-0.0463
11.6,1.7235,0.05326,0.0491,-0.0575
11.7,1.7197,0.05598,0.05195,-0.0622
11.8,1.7151,0.0589,0.05498,-0.0671
11.9,1.7102,0.06189,0.05806,-0.0719
12,1.7058,0.06483,0.06108,-0.0765
12.1,1.703,0.06748,0.06378,-0.0805
12.4,1.6296,0.08623,0.08278,-0.1075
12.5,1.6286,0.0885,0.08507,-0.1106
12.6,1.6301,0.09032,0.0869,-0.1129
12.7,1.6332,0.09183,0.08843,-0.1148
12.8,1.6376,0.09312,0.08973,-0.1164
12.9,1.6428,0.09424,0.09086,-0.1178
13,1.6458,0.09573,0.09233,-0.1197
13.1,1.6203,0.10273,0.09939,-0.1289
13.2,1.62,0.10497,0.10164,-0.1316
13.3,1.6218,0.10677,0.10345,-0.1338
13.4,1.6247,0.10832,0.10502,-0.1356
13.5,1.6284,0.1097,0.10641,-0.1372
13.6,1.6327,0.11095,0.10768,-0.1387
13.8,1.6453,0.11258,0.10932,-0.1406
13.9,1.6509,0.11351,0.11026,-0.1416
14.1,1.6605,0.12884,0.1257,-0.159
14.2,1.6634,0.1301,0.12697,-0.1606
14.3,1.6668,0.13123,0.12811,-0.1621
14.4,1.6706,0.13226,0.12915,-0.1634
14.5,1.6746,0.13321,0.13011,-0.1646
14.6,1.6788,0.13409,0.131,-0.1657
14.7,1.6832,0.13491,0.13184,-0.1668
14.8,1.6877,0.13568,0.13263,-0.1678
14.9,1.6922,0.1364,0.13336,-0.1687
15,1.6969,0.13707,0.13404,-0.1696
15.2,1.6876,0.14441,0.1414,-0.1779
15.3,1.6903,0.14577,0.14277,-0.1794
15.4,1.6934,0.14701,0.14402,-0.1808
15.5,1.6966,0.14816,0.14519,-0.1821
15.6,1.7001,0.14924,0.14628,-0.1834
15.7,1.7037,0.15027,0.14732,-0.1845
15.8,1.7074,0.15124,0.1483,-0.1856
15.9,1.7112,0.15216,0.14924,-0.1866
16,1.7151,0.15305,0.15014,-0.1876
16.1,1.719,0.1539,0.151,-0.1886
16.2,1.723,0.15472,0.15183,-0.1895
16.3,1.727,0.1555,0.15262,-0.1904
16.6,1.7245,0.16461,0.16176,-0.1996
16.7,1.7275,0.16601,0.16318,-0.2011
16.8,1.7307,0.16735,0.16453,-0.2024
16.9,1.734,0.16863,0.16582,-0.2037
17,1.7375,0.16985,0.16706,-0.2049
17.1,1.741,0.17103,0.16825,-0.2061
17.2,1.7446,0.17217,0.1694,-0.2073
17.3,1.7483,0.17327,0.17051,-0.2084
17.4,1.752,0.17434,0.1716,-0.2095
17.5,1.7558,0.17538,0.17265,-0.2105
17.6,1.7596,0.17639,0.17369,-0.2115
17.7,1.7635,0.17736,0.17468,-0.2125
18,1.7658,0.18632,0.18366,-0.2208
18.1,1.7687,0.18823,0.18558,-0.2227
18.2,1.7719,0.1898,0.18717,-0.2242
18.3,1.7753,0.1913,0.18869,-0.2256
18.4,1.7788,0.19275,0.19015,-0.227
18.5,1.7824,0.19414,0.19156,-0.2283
18.6,1.7861,0.19548,0.19291,-0.2296
18.7,1.7899,0.19677,0.19422,-0.2309
18.8,1.7937,0.19802,0.19548,-0.2321
18.9,1.7976,0.19921,0.19669,-0.2332
19,1.8015,0.20036,0.19786,-0.2343
19.1,1.8055,0.20145,0.19897,-0.2354
19.3,1.8071,0.20949,0.20702,-0.2427
19.4,1.8106,0.21122,0.20877,-0.2443
19.5,1.8143,0.21283,0.21039,-0.2458
19.6,1.818,0.21433,0.2119,-0.2473
19.7,1.8226,0.21533,0.21292,-0.2484
19.8,1.8268,0.21648,0.21409,-0.2496
20,1.8304,0.22374,0.22136,-0.2559
20.1,1.8338,0.22576,0.2234,-0.2577
20.2,1.8376,0.22751,0.22516,-0.2593
20.3,1.8415,0.22905,0.22672,-0.2608
20.4,1.8457,0.23042,0.2281,-0.2621
20.5,1.8473,0.23504,0.23272,-0.2659
20.6,1.8507,0.23735,0.23504,-0.2679
20.7,1.8543,0.23931,0.23703,-0.2697
20.8,1.8582,0.24104,0.23877,-0.2713
20.9,1.8622,0.24257,0.24032,-0.2727
21,1.8653,0.24526,0.24301,-0.275
21.1,1.868,0.24841,0.24617,-0.2775
21.2,1.8714,0.25083,0.2486,-0.2795
21.3,1.8749,0.25299,0.25077,-0.2814
21.4,1.8786,0.25496,0.25275,-0.2831
21.5,1.8824,0.2568,0.2546,-0.2848
21.6,1.8862,0.25853,0.25635,-0.2864
21.7,1.8901,0.26019,0.25801,-0.2879
21.8,1.8928,0.26362,0.26143,-0.2906
21.9,1.8961,0.26627,0.26409,-0.2927
22,1.8995,0.26868,0.26651,-0.2947
22.1,1.9031,0.27093,0.26877,-0.2966
22.2,1.907,0.27301,0.27085,-0.2985
22.3,1.9108,0.27489,0.27274,-0.3002
22.4,1.9145,0.27672,0.27459,-0.3019
22.5,1.9177,0.27976,0.27761,-0.3043
22.6,1.921,0.28255,0.2804,-0.3065
22.7,1.9245,0.28508,0.28294,-0.3086
22.8,1.928,0.28749,0.28536,-0.3106
22.9,1.9316,0.2898,0.28768,-0.3125
23,1.9352,0.29205,0.28993,-0.3144
23.1,1.9388,0.29425,0.29214,-0.3163
23.2,1.9425,0.2964,0.2943,-0.3182
23.3,1.9461,0.29851,0.29641,-0.3201
23.4,1.9497,0.30058,0.29849,-0.3219
23.5,1.9534,0.30261,0.30053,-0.3237
23.6,1.957,0.3046,0.30252,-0.3255
23.7,1.9604,0.30768,0.30559,-0.3279
23.8,1.9639,0.31057,0.3085,-0.3302
23.9,1.9674,0.31323,0.31116,-0.3323
24,1.971,0.3158,0.31373,-0.3345
24.1,1.9745,0.31829,0.31623,-0.3365
24.2,1.9781,0.32075,0.31869,-0.3386
24.4,1.9853,0.32547,0.32343,-0.3426
24.5,1.9889,0.32773,0.32569,-0.3446
24.6,1.9924,0.32997,0.32794,-0.3466
24.7,1.9959,0.33218,0.33015,-0.3485
24.8,1.9994,0.33437,0.33235,-0.3505
24.9,2.0029,0.33656,0.33455,-0.3524
25,2.0064,0.33897,0.33695,-0.3545
25.1,2.01,0.3423,0.34028,-0.357
25.2,2.0135,0.34519,0.34318,-0.3592
25.3,2.017,0.34795,0.34594,-0.3615

