airfoilName st9.dat
Re 	590000
M 	5.000000e-01
N 	4.500000e+00
VACC 	0 VACCflag 1
XTR 	1.00 	1.00 XTRflag 0
alpha,cl,cd,cdp,cm
-26.5,-1.7537,0.45172,0.4497,0.3043
-26.4,-1.7488,0.44886,0.44683,0.3019
-26.2,-1.7529,0.43176,0.42974,0.3013
-26.1,-1.7485,0.42923,0.42721,0.2991
-25.8,-1.7378,0.42456,0.42254,0.2932
-25.7,-1.7332,0.42183,0.4198,0.291
-25.6,-1.7285,0.41905,0.41702,0.2888
-25.5,-1.7237,0.41626,0.41423,0.2865
-25.4,-1.7189,0.41346,0.41143,0.2843
-25.3,-1.7141,0.41067,0.40863,0.2821
-25.2,-1.7093,0.40787,0.40584,0.2798
-25.1,-1.7044,0.4051,0.40306,0.2776
-25,-1.6996,0.40231,0.40027,0.2754
-24.9,-1.6947,0.39953,0.39749,0.2732
-24.8,-1.6898,0.39675,0.3947,0.271
-24.7,-1.6849,0.39396,0.39192,0.2688
-24.6,-1.6799,0.39116,0.38911,0.2665
-24.5,-1.6749,0.38836,0.38631,0.2643
-24.4,-1.6699,0.38557,0.38352,0.2621
-24.3,-1.6649,0.3828,0.38075,0.2599
-24.2,-1.6598,0.37996,0.37791,0.2576
-24.1,-1.6547,0.37712,0.37506,0.2554
-23.9,-1.6412,0.36776,0.36571,0.2492
-23.8,-1.6364,0.36529,0.36324,0.2472
-23.7,-1.6316,0.36283,0.36077,0.2451
-23.6,-1.6268,0.36038,0.35832,0.2431
-23.5,-1.6219,0.35793,0.35588,0.2411
-23.4,-1.6171,0.3555,0.35344,0.2391
-23.3,-1.6122,0.35308,0.35102,0.2371
-23.2,-1.6073,0.35067,0.34861,0.2352
-23.1,-1.6024,0.34826,0.3462,0.2332
-23,-1.5975,0.34587,0.34381,0.2312
-22.9,-1.5926,0.34349,0.34142,0.2292
-22.8,-1.5876,0.34111,0.33905,0.2273
-22.7,-1.5827,0.33874,0.33668,0.2253
-22.6,-1.5777,0.33638,0.33432,0.2234
-22.5,-1.5728,0.33404,0.33197,0.2215
-22.4,-1.5678,0.3317,0.32963,0.2196
-22.3,-1.5628,0.32937,0.32729,0.2176
-22.2,-1.5578,0.32705,0.32498,0.2157
-22.1,-1.5528,0.32474,0.32266,0.2138
-22,-1.5478,0.32244,0.32036,0.2119
-21.9,-1.5428,0.32015,0.31807,0.2101
-21.8,-1.5378,0.31787,0.31578,0.2082
-21.7,-1.5327,0.31559,0.31351,0.2063
-21.6,-1.5277,0.31333,0.31125,0.2045
-21.5,-1.5227,0.31107,0.30899,0.2026
-21.4,-1.5176,0.30882,0.30674,0.2008
-21.3,-1.5125,0.30658,0.3045,0.1989
-21.2,-1.5075,0.30436,0.30227,0.1971
-21.1,-1.5024,0.30214,0.30005,0.1953
-21,-1.4973,0.29992,0.29784,0.1935
-20.9,-1.4922,0.29772,0.29564,0.1917
-20.8,-1.4872,0.29553,0.29344,0.1899
-20.7,-1.482,0.29335,0.29126,0.1881
-20.6,-1.477,0.29117,0.28908,0.1864
-20.5,-1.4718,0.289,0.28691,0.1846
-20.4,-1.4667,0.28684,0.28475,0.1828
-20.3,-1.4616,0.28469,0.2826,0.1811
-20.2,-1.4565,0.28254,0.28045,0.1793
-20.1,-1.4513,0.2804,0.27831,0.1776
-20,-1.4462,0.27827,0.27617,0.1759
-19.9,-1.441,0.27614,0.27404,0.1741
-19.8,-1.4358,0.27401,0.27191,0.1724
-19.7,-1.4306,0.2719,0.2698,0.1707
-19.6,-1.4254,0.26978,0.26768,0.169
-19.5,-1.4202,0.26768,0.26558,0.1673
-19.4,-1.415,0.26557,0.26347,0.1656
-19.3,-1.4098,0.26348,0.26138,0.1639
-19.2,-1.4046,0.26139,0.25929,0.1622
-19.1,-1.3994,0.2593,0.2572,0.1605
-19,-1.3941,0.25722,0.25512,0.1589
-18.9,-1.3887,0.25516,0.25305,0.157
-18.8,-1.3835,0.25307,0.25097,0.1554
-18.7,-1.3782,0.25099,0.24889,0.1537
-18.6,-1.373,0.24892,0.24682,0.1521
-18.5,-1.3677,0.24685,0.24475,0.1504
-18.4,-1.3625,0.24478,0.24267,0.1488
-18.3,-1.3572,0.2427,0.2406,0.1472
-18.2,-1.3519,0.24063,0.23853,0.1455
-18.1,-1.3466,0.23856,0.23646,0.1439
-18,-1.3413,0.23649,0.23439,0.1423
-17.9,-1.336,0.23441,0.2323,0.1407
-17.8,-1.3307,0.23233,0.23022,0.1391
-17.7,-1.3253,0.23025,0.22815,0.1375
-17.6,-1.32,0.22812,0.22601,0.1359
-17.5,-1.3146,0.22598,0.22387,0.1343
-17.4,-1.3091,0.22379,0.22168,0.1327
-17.3,-1.3036,0.22153,0.21942,0.131
-17.2,-1.2978,0.21909,0.21698,0.1294
-17.1,-1.2899,0.21523,0.21313,0.127
-17,-1.2849,0.21337,0.21127,0.1256
-16.9,-1.2799,0.21153,0.20943,0.1242
-16.8,-1.2749,0.2097,0.20759,0.1227
-16.7,-1.2698,0.20787,0.20577,0.1213
-16.6,-1.2647,0.20605,0.20395,0.1199
-16.5,-1.2596,0.20424,0.20214,0.1185
-16.4,-1.2545,0.20243,0.20033,0.1171
-16.3,-1.2493,0.20064,0.19854,0.1157
-16.2,-1.2441,0.19885,0.19675,0.1142
-16.1,-1.2389,0.19706,0.19497,0.1128
-16,-1.2337,0.19529,0.19319,0.1114
-15.9,-1.2285,0.19352,0.19142,0.11
-15.8,-1.2232,0.19176,0.18966,0.1086
-15.7,-1.2179,0.19,0.1879,0.1072
-15.6,-1.2126,0.18825,0.18615,0.1059
-15.5,-1.2072,0.1865,0.18441,0.1045
-15.4,-1.2018,0.18476,0.18266,0.1031
-15.3,-1.1964,0.18302,0.18093,0.1017
-15.2,-1.191,0.18129,0.1792,0.1003
-15.1,-1.1855,0.17955,0.17746,0.0989
-15,-1.1801,0.17783,0.17573,0.0976
-14.9,-1.1745,0.17611,0.17401,0.0962
-14.8,-1.169,0.17439,0.17229,0.0948
-14.7,-1.1633,0.17267,0.17057,0.0934
-14.6,-1.1577,0.17095,0.16886,0.092
-14.5,-1.152,0.16924,0.16715,0.0907
-14.4,-1.1462,0.16752,0.16543,0.0893
-14.3,-1.1404,0.16581,0.16372,0.0879
-14.2,-1.1345,0.16423,0.16214,0.0864
-14.1,-1.1286,0.16251,0.16042,0.085
-14,-1.1227,0.16079,0.15871,0.0837
-13.9,-1.1168,0.15909,0.15701,0.0823
-13.8,-1.1108,0.15739,0.15531,0.0809
-13.7,-1.1048,0.15569,0.15362,0.0795
-13.6,-1.0988,0.15401,0.15193,0.0781
-13.5,-1.0927,0.15232,0.15025,0.0768
-13.4,-1.0867,0.15065,0.14858,0.0754
-13.3,-1.0805,0.14899,0.14692,0.074
-13.2,-1.0744,0.14733,0.14526,0.0726
-13.1,-1.0682,0.14568,0.14361,0.0713
-13,-1.062,0.14404,0.14198,0.0699
-12.9,-1.0558,0.14241,0.14035,0.0685
-12.8,-1.0495,0.14078,0.13872,0.0672
-12.7,-1.0432,0.13915,0.1371,0.0658
-12.6,-1.0368,0.13754,0.13548,0.0644
-12.5,-1.0304,0.13593,0.13387,0.063
-12.4,-1.0239,0.13433,0.13227,0.0617
-12.3,-1.0174,0.13274,0.13068,0.0603
-12.2,-1.0109,0.13115,0.1291,0.0589
-12.1,-1.0044,0.12958,0.12753,0.0575
-12,-0.9978,0.12801,0.12596,0.0561
-11.9,-0.9912,0.12645,0.12441,0.0547
-11.8,-0.9845,0.12491,0.12287,0.0534
-11.7,-0.9778,0.12336,0.12132,0.052
-11.6,-0.971,0.12182,0.11979,0.0506
-11.5,-0.9642,0.12029,0.11825,0.0492
-11.4,-0.9573,0.11876,0.11673,0.0478
-11.3,-0.9504,0.11723,0.11521,0.0463
-11.2,-0.9434,0.11571,0.11369,0.0449
-11.1,-0.9364,0.1142,0.11218,0.0435
-11,-0.9293,0.11269,0.11068,0.0421
-10.9,-0.9222,0.11119,0.10917,0.0406
-10.8,-0.915,0.10968,0.10767,0.0392
-10.7,-0.9078,0.10817,0.10616,0.0377
-10.6,-0.9005,0.10667,0.10467,0.0362
-10.5,-0.8931,0.10514,0.10314,0.0347
-10.4,-0.8856,0.10361,0.10162,0.0332
-10.3,-0.8781,0.10208,0.10009,0.0317
-10.2,-0.8705,0.1005,0.09851,0.0301
-10.1,-0.8628,0.09888,0.09689,0.0285
-10,-0.855,0.09716,0.09517,0.0268
-9.9,-0.8469,0.09523,0.09324,0.0251
-9.8,-0.8387,0.09348,0.09151,0.0233
-9.7,-0.8309,0.09222,0.09025,0.0217
-9.6,-0.823,0.09098,0.08902,0.0202
-9.5,-0.8151,0.08975,0.08779,0.0186
-9.4,-0.807,0.08853,0.08657,0.0171
-9.3,-0.7988,0.08732,0.08537,0.0155
-9.2,-0.7905,0.08611,0.08417,0.0139
-9.1,-0.7821,0.08492,0.08298,0.0122
-9,-0.7736,0.08373,0.0818,0.0106
-8.9,-0.7651,0.08254,0.08062,0.0089
-8.8,-0.7564,0.08137,0.07946,0.0073
-8.7,-0.7477,0.08021,0.0783,0.0056
-8.6,-0.7389,0.07905,0.07714,0.0039
-8.5,-0.7302,0.0779,0.076,0.0022
-8.4,-0.7214,0.07676,0.07487,0.0005
-8.1,-0.6846,0.07292,0.07103,-0.0073
-8,-0.6717,0.07155,0.06965,-0.0101
-7.9,-0.6582,0.07015,0.06824,-0.0131
-7.8,-0.6445,0.06879,0.06686,-0.016
-7.7,-0.6298,0.06736,0.06542,-0.0192
-7.6,-0.6156,0.06596,0.06399,-0.0222
-7.5,-0.6014,0.06455,0.06256,-0.0252
-7.4,-0.5867,0.06311,0.0611,-0.0282
-7.3,-0.5718,0.06164,0.05961,-0.0312
-7.2,-0.557,0.06016,0.05809,-0.0342
-7,-0.5254,0.057,0.05487,-0.0406
-6.9,-0.5088,0.05532,0.05315,-0.0439
-6.8,-0.492,0.05355,0.05134,-0.0473
-6.7,-0.475,0.05168,0.04942,-0.0508
-6.6,-0.4569,0.04959,0.04728,-0.0545
-6.5,-0.4383,0.04716,0.04477,-0.0586
-6.4,-0.4167,0.04331,0.04084,-0.0646
-6.3,-0.3992,0.04152,0.03899,-0.0677
-6.2,-0.382,0.0397,0.03708,-0.0705
-5.4,-0.2586,0.01979,0.01564,-0.0888
-5.3,-0.2448,0.01797,0.01349,-0.0895
-5.1,-0.2158,0.01537,0.01029,-0.09
-5,-0.201,0.01448,0.00914,-0.09
-4.9,-0.1861,0.01394,0.00845,-0.0899
-4.8,-0.1711,0.01353,0.00792,-0.0898
-4.7,-0.156,0.01317,0.00743,-0.0896
-4.6,-0.1411,0.01284,0.00699,-0.0894
-4.5,-0.1259,0.01253,0.00658,-0.0893
-4.4,-0.1108,0.01225,0.00621,-0.0892
-4.3,-0.0958,0.012,0.00586,-0.089
-4.1,-0.0659,0.01164,0.00533,-0.0887
-4,-0.051,0.01147,0.0051,-0.0885
-3.9,-0.0361,0.01131,0.00489,-0.0884
-3.8,-0.0211,0.01116,0.00468,-0.0883
-3.7,-0.0063,0.01103,0.00449,-0.0881
-3.6,0.0084,0.01093,0.0043,-0.088
-3.5,0.0228,0.01085,0.00414,-0.0878
-3.4,0.0372,0.01077,0.004,-0.0876
-3.3,0.052,0.01068,0.00388,-0.0875
-3.1,0.081,0.01057,0.00366,-0.0873
-3,0.0956,0.01049,0.00355,-0.0873
-2.9,0.1102,0.01043,0.00346,-0.0872
-2.8,0.1242,0.01042,0.00337,-0.087
-2.6,0.1529,0.01035,0.00321,-0.0869
-2.5,0.1673,0.01032,0.00314,-0.0868
-2.4,0.1818,0.01028,0.00307,-0.0868
-2.3,0.1959,0.0103,0.00301,-0.0867
-2.2,0.2103,0.01026,0.00295,-0.0867
-2.1,0.2246,0.01023,0.00291,-0.0866
-2,0.2389,0.01022,0.00286,-0.0866
-1.9,0.2532,0.0102,0.00282,-0.0866
-1.8,0.2676,0.01018,0.00279,-0.0866
-1.7,0.2817,0.01019,0.00275,-0.0866
-1.6,0.2957,0.0102,0.00273,-0.0865
-1.5,0.3099,0.01017,0.00271,-0.0866
-1.4,0.324,0.01018,0.00269,-0.0865
-1.3,0.3383,0.01016,0.00267,-0.0866
-1.2,0.3523,0.01018,0.00266,-0.0866
-1.1,0.3665,0.01015,0.00265,-0.0866
-1,0.3806,0.01014,0.00263,-0.0866
-0.9,0.3945,0.01018,0.00264,-0.0866
-0.8,0.4086,0.01018,0.00264,-0.0867
-0.7,0.4227,0.01015,0.00264,-0.0867
-0.6,0.4367,0.01016,0.00265,-0.0867
-0.5,0.4509,0.01016,0.00265,-0.0868
-0.4,0.4649,0.01018,0.00266,-0.0868
-0.3,0.4789,0.01016,0.00267,-0.0869
-0.2,0.4929,0.01019,0.00269,-0.0869
-0.1,0.5065,0.01027,0.00272,-0.0869
0,0.5204,0.01027,0.00274,-0.0869
0.1,0.5343,0.01031,0.00277,-0.0869
0.2,0.5481,0.01036,0.0028,-0.0869
0.3,0.5618,0.01037,0.00282,-0.087
0.4,0.5756,0.01042,0.00287,-0.087
0.5,0.5892,0.01048,0.00291,-0.087
0.6,0.6028,0.01051,0.00296,-0.0871
0.7,0.6156,0.01066,0.00305,-0.087
0.8,0.6291,0.01074,0.0031,-0.087
0.9,0.6424,0.01076,0.00317,-0.0871
1,0.6559,0.01082,0.00324,-0.0871
1.1,0.6695,0.01085,0.00329,-0.0871
1.2,0.6829,0.01077,0.00336,-0.0872
1.5,0.7121,0.01009,0.00356,-0.0844
1.6,0.7224,0.01006,0.00356,-0.0834
1.8,0.7526,0.01021,0.00364,-0.0838
1.9,0.7667,0.0103,0.0037,-0.0838
2,0.7807,0.0104,0.00377,-0.0838
2.1,0.7946,0.0105,0.00384,-0.0837
2.2,0.8086,0.0106,0.00392,-0.0837
2.3,0.8227,0.01069,0.00399,-0.0837
2.4,0.8368,0.01078,0.00406,-0.0836
2.5,0.8508,0.01088,0.00413,-0.0836
2.6,0.8648,0.01099,0.00421,-0.0835
2.7,0.8787,0.01109,0.0043,-0.0835
2.8,0.8929,0.01118,0.00437,-0.0834
2.9,0.9069,0.01128,0.00445,-0.0833
3,0.921,0.01138,0.00453,-0.0833
3.1,0.9349,0.01149,0.00462,-0.0832
3.2,0.949,0.01159,0.00471,-0.0831
3.3,0.9631,0.01168,0.00479,-0.083
3.4,0.9773,0.01178,0.00488,-0.0829
3.5,0.9914,0.01188,0.00497,-0.0828
3.6,1.0052,0.012,0.00506,-0.0827
3.7,1.0191,0.01212,0.00516,-0.0826
3.8,1.0333,0.01222,0.00525,-0.0825
3.9,1.0475,0.01231,0.00535,-0.0823
4,1.0617,0.01242,0.00545,-0.0822
4.1,1.0757,0.01252,0.00555,-0.0821
4.2,1.0898,0.01264,0.00565,-0.0819
4.3,1.1038,0.01276,0.00576,-0.0817
4.4,1.1177,0.01289,0.00588,-0.0816
4.5,1.1319,0.01299,0.00599,-0.0814
4.6,1.1461,0.0131,0.00609,-0.0812
4.7,1.1602,0.01322,0.0062,-0.081
4.8,1.1742,0.01334,0.00633,-0.0808
4.9,1.1882,0.01347,0.00645,-0.0806
5,1.2021,0.01361,0.00657,-0.0804
5.1,1.2162,0.01372,0.0067,-0.0801
5.2,1.2304,0.01384,0.00683,-0.0799
5.3,1.2446,0.01396,0.00695,-0.0797
5.4,1.2587,0.01409,0.00709,-0.0794
5.5,1.2727,0.01422,0.00722,-0.0791
5.6,1.2868,0.01436,0.00736,-0.0788
5.7,1.3006,0.01451,0.00751,-0.0785
5.8,1.3145,0.01465,0.00766,-0.0782
5.9,1.3286,0.01478,0.0078,-0.0779
6,1.3428,0.01492,0.00795,-0.0776
6.1,1.3568,0.01506,0.0081,-0.0772
6.2,1.3708,0.01521,0.00826,-0.0769
6.3,1.3847,0.01536,0.00842,-0.0765
6.4,1.3985,0.01552,0.00859,-0.0761
6.5,1.4122,0.01569,0.00876,-0.0756
6.6,1.4261,0.01585,0.00895,-0.0752
6.7,1.4401,0.016,0.00912,-0.0748
6.8,1.4541,0.01616,0.00931,-0.0743
6.9,1.468,0.01631,0.00947,-0.0739
7,1.4818,0.01648,0.00966,-0.0734
7.1,1.4954,0.01666,0.00986,-0.0729
7.2,1.509,0.01685,0.01005,-0.0724
7.3,1.5223,0.01704,0.01026,-0.0718
7.4,1.536,0.01723,0.01048,-0.0712
7.5,1.5497,0.01741,0.01069,-0.0707
7.6,1.5633,0.01759,0.01092,-0.0701
7.7,1.5769,0.01778,0.01114,-0.0695
7.8,1.5903,0.01798,0.01137,-0.0688
7.9,1.6035,0.01819,0.01161,-0.0681
8.1,1.6293,0.01862,0.01208,-0.0667
8.2,1.6419,0.01885,0.01234,-0.0659
8.3,1.655,0.01907,0.0126,-0.0652
8.4,1.6679,0.01929,0.01288,-0.0644
8.5,1.6807,0.01952,0.01316,-0.0636
8.6,1.6931,0.01976,0.01345,-0.0627
8.7,1.7054,0.02001,0.01375,-0.0618
8.8,1.7173,0.02027,0.01405,-0.0609
8.9,1.729,0.02053,0.01435,-0.0599
9,1.7402,0.02081,0.01467,-0.0589
9.1,1.7511,0.02109,0.015,-0.0578
9.2,1.7613,0.0214,0.01534,-0.0567
9.3,1.7721,0.02169,0.01571,-0.0556
9.4,1.7829,0.02197,0.01605,-0.0544
9.5,1.7927,0.02229,0.01644,-0.0532
9.6,1.8021,0.02263,0.01683,-0.052
9.7,1.8103,0.02296,0.01724,-0.0505
9.8,1.8167,0.02331,0.01766,-0.0489
9.9,1.8228,0.02369,0.01809,-0.0473
10,1.8288,0.02409,0.01855,-0.0457
10.1,1.8348,0.02451,0.01903,-0.0442
10.2,1.8405,0.02496,0.01954,-0.0428
10.3,1.846,0.02543,0.02007,-0.0414
10.4,1.8518,0.02594,0.02067,-0.0401
10.5,1.8575,0.02649,0.0213,-0.0389
10.6,1.8627,0.02707,0.02198,-0.0378
10.7,1.8675,0.02768,0.02268,-0.0367
10.8,1.872,0.02834,0.02343,-0.0357
10.9,1.8763,0.02903,0.02422,-0.0349
11.1,1.8856,0.03045,0.02581,-0.0335
11.2,1.8895,0.03126,0.02672,-0.0331
11.3,1.8931,0.03211,0.02767,-0.0328
11.4,1.8966,0.03302,0.02867,-0.0327
11.5,1.9,0.034,0.02973,-0.0329
11.6,1.9032,0.03504,0.03088,-0.0333
11.7,1.9054,0.03623,0.03217,-0.0339
11.8,1.9062,0.03761,0.03369,-0.035
11.9,1.9066,0.03911,0.03533,-0.0364
12,1.9066,0.04076,0.03711,-0.0383
12.1,1.906,0.04257,0.03905,-0.0406
12.2,1.9048,0.04456,0.04117,-0.0434
12.4,1.8995,0.04914,0.04602,-0.0503
12.6,1.8896,0.05461,0.05173,-0.0587
13.3,1.8247,0.07784,0.07547,-0.0916
13.5,1.7891,0.08658,0.08429,-0.1041
13.8,1.7359,0.10025,0.09807,-0.1237
14,1.7275,0.10554,0.10339,-0.1308
14.1,1.7275,0.10753,0.10539,-0.1333
14.2,1.729,0.10926,0.10713,-0.1354
14.3,1.7316,0.11081,0.10869,-0.1373
14.4,1.7349,0.11223,0.11011,-0.139
14.5,1.7387,0.11355,0.11144,-0.1406
14.6,1.7135,0.11996,0.11787,-0.1491
14.7,1.7098,0.12274,0.12066,-0.1525
14.8,1.7103,0.12473,0.12267,-0.1549
14.9,1.7121,0.12646,0.12441,-0.1569
15,1.7146,0.12802,0.12598,-0.1587
15.1,1.7178,0.12946,0.12743,-0.1604
15.2,1.7213,0.1308,0.12878,-0.1619
15.3,1.7251,0.13206,0.13005,-0.1634
15.4,1.7292,0.13325,0.13124,-0.1648
15.5,1.7334,0.13436,0.13236,-0.1661
15.8,1.7209,0.14362,0.14165,-0.1766
15.9,1.7227,0.14542,0.14346,-0.1786
16,1.7251,0.14706,0.14511,-0.1804
16.1,1.728,0.14857,0.14663,-0.182
16.2,1.7322,0.14978,0.14785,-0.1834
16.3,1.7359,0.15108,0.14916,-0.1848
16.4,1.7397,0.15234,0.15043,-0.1862
16.5,1.7437,0.15355,0.15165,-0.1875
16.6,1.7478,0.15472,0.15282,-0.1888
16.7,1.752,0.15587,0.15398,-0.1901
16.8,1.7563,0.15699,0.15511,-0.1914
17.1,1.7502,0.16658,0.16473,-0.201
17.2,1.7534,0.16824,0.16641,-0.2027
17.3,1.7568,0.16978,0.16795,-0.2043
17.4,1.7603,0.17126,0.16945,-0.2058
17.5,1.764,0.17267,0.17087,-0.2072
17.6,1.7678,0.17405,0.17226,-0.2086
17.7,1.7718,0.17538,0.17361,-0.21
17.8,1.7758,0.17668,0.17492,-0.2114
17.9,1.78,0.17794,0.17619,-0.2127
18.1,1.7808,0.18355,0.18181,-0.218
18.2,1.7822,0.18607,0.18434,-0.2204
18.3,1.7848,0.18814,0.18642,-0.2223
18.4,1.7877,0.19003,0.18832,-0.2241
18.5,1.7915,0.19173,0.19003,-0.2258
18.6,1.7952,0.19331,0.19162,-0.2274
18.7,1.7992,0.19482,0.19315,-0.2288
18.8,1.8032,0.19628,0.19462,-0.2303
18.9,1.8074,0.19769,0.19604,-0.2317
19.1,1.8112,0.20291,0.20126,-0.2365
19.2,1.8132,0.2055,0.20387,-0.2388
19.3,1.8162,0.20762,0.206,-0.2408
19.4,1.8196,0.20953,0.20792,-0.2425
19.5,1.8234,0.21127,0.20968,-0.2442
19.6,1.8274,0.21289,0.21131,-0.2457
19.7,1.8317,0.21438,0.21281,-0.2472
19.8,1.8371,0.21548,0.21392,-0.2483
19.9,1.8358,0.22004,0.21848,-0.2522
20,1.8387,0.22246,0.22091,-0.2543
20.1,1.8423,0.22445,0.22292,-0.2561
20.2,1.8463,0.22618,0.22466,-0.2577
20.3,1.8508,0.22768,0.22618,-0.2592
20.4,1.8519,0.23124,0.22974,-0.2622
20.5,1.8549,0.23373,0.23224,-0.2643
20.6,1.8585,0.23577,0.23429,-0.2662
20.7,1.8625,0.23756,0.23609,-0.2678
20.8,1.8659,0.23974,0.23828,-0.2697
20.9,1.8683,0.24273,0.24128,-0.2722
21,1.872,0.24475,0.2433,-0.274
21.1,1.8759,0.24663,0.24519,-0.2757
21.2,1.8798,0.24852,0.24709,-0.2775
21.3,1.8828,0.25099,0.24956,-0.2796
21.4,1.8862,0.25328,0.25186,-0.2816
21.5,1.8896,0.25551,0.2541,-0.2835
21.6,1.8931,0.25769,0.25629,-0.2855
21.7,1.8967,0.25983,0.25843,-0.2874
21.8,1.9004,0.26192,0.26052,-0.2892
21.9,1.904,0.26398,0.26259,-0.291
22,1.9078,0.266,0.26461,-0.2928
22.1,1.9112,0.26827,0.26689,-0.2948
22.2,1.9144,0.27077,0.26939,-0.2969
22.3,1.9177,0.27324,0.27186,-0.2991
22.4,1.921,0.27567,0.2743,-0.3012
22.5,1.9243,0.27808,0.27672,-0.3032
22.6,1.9277,0.28046,0.2791,-0.3053
22.7,1.9312,0.28282,0.28146,-0.3073
22.8,1.9347,0.28515,0.28379,-0.3093
22.9,1.9382,0.28745,0.2861,-0.3113
23,1.9417,0.28974,0.2884,-0.3133
23.1,1.9453,0.292,0.29066,-0.3153
23.2,1.9488,0.29424,0.29291,-0.3172
23.4,1.9557,0.29909,0.29775,-0.3214
23.5,1.9589,0.30194,0.30062,-0.3237
23.6,1.9622,0.30466,0.30334,-0.326
23.7,1.9656,0.30729,0.30597,-0.3281
23.8,1.969,0.30987,0.30855,-0.3303
23.9,1.9725,0.31241,0.3111,-0.3324
24,1.976,0.31491,0.31361,-0.3346
24.1,1.9795,0.31739,0.31609,-0.3367
24.2,1.983,0.31985,0.31855,-0.3387
24.3,1.9865,0.32227,0.32098,-0.3408
24.4,1.9901,0.32468,0.32339,-0.3429
24.5,1.9936,0.32707,0.32578,-0.3449
24.6,1.9971,0.32945,0.32817,-0.347
24.7,2.0006,0.33181,0.33053,-0.349
24.8,2.0041,0.33416,0.33289,-0.3511
24.9,2.0076,0.33651,0.33524,-0.3531
25,2.0111,0.33883,0.33756,-0.3552
25.1,2.0145,0.34114,0.33988,-0.3572
25.2,2.0179,0.34449,0.34322,-0.3598
25.3,2.0214,0.34763,0.34636,-0.3622
25.4,2.0249,0.35058,0.34932,-0.3646
25.5,2.0285,0.35339,0.35213,-0.3669
25.6,2.032,0.35652,0.35526,-0.3693
25.7,2.0355,0.35915,0.35789,-0.3715
25.8,2.039,0.3618,0.36055,-0.3737
25.9,2.0425,0.36436,0.36311,-0.3759

