airfoilName st9.dat
Re 	330000
M 	5.000000e-01
N 	4.500000e+00
VACC 	0 VACCflag 1
XTR 	1.00 	1.00 XTRflag 0
alpha,cl,cd,cdp,cm
-27.5,-1.8077,0.48195,0.47915,0.3279
-27.4,-1.8033,0.47898,0.47618,0.3256
-26.9,-1.7744,0.44033,0.4375,0.3115
-26.8,-1.7687,0.43639,0.43355,0.3089
-26.7,-1.7684,0.43867,0.43583,0.3077
-26.6,-1.7642,0.43644,0.43359,0.3056
-26.3,-1.7533,0.43181,0.42896,0.2996
-26.2,-1.7488,0.42925,0.4264,0.2974
-26.1,-1.7442,0.42655,0.4237,0.2952
-26,-1.7395,0.42387,0.42102,0.293
-25.8,-1.7303,0.41868,0.41583,0.2885
-25.7,-1.7255,0.41599,0.41313,0.2863
-25.6,-1.7208,0.41331,0.41045,0.2841
-25.5,-1.7161,0.41064,0.40778,0.2819
-25.4,-1.7113,0.40797,0.40511,0.2798
-25.3,-1.7065,0.40532,0.40245,0.2776
-25.2,-1.7017,0.40268,0.39981,0.2754
-25.1,-1.6969,0.40005,0.39718,0.2733
-25,-1.6921,0.39743,0.39456,0.2711
-24.9,-1.6873,0.39482,0.39194,0.269
-24.8,-1.6825,0.39222,0.38934,0.2668
-24.7,-1.6776,0.38963,0.38675,0.2647
-24.6,-1.6728,0.38704,0.38415,0.2626
-24.5,-1.6679,0.38446,0.38157,0.2605
-24.4,-1.663,0.3819,0.37901,0.2584
-24.3,-1.6581,0.37936,0.37647,0.2563
-24.2,-1.6532,0.37681,0.37391,0.2542
-24.1,-1.6483,0.37428,0.37138,0.2521
-24,-1.6434,0.37175,0.36885,0.2501
-23.9,-1.6384,0.36923,0.36633,0.248
-23.8,-1.6335,0.36673,0.36383,0.2459
-23.7,-1.6285,0.36423,0.36133,0.2439
-23.6,-1.6236,0.36175,0.35885,0.2418
-23.5,-1.6186,0.35926,0.35636,0.2398
-23.4,-1.6136,0.3568,0.35389,0.2378
-23.3,-1.6086,0.35434,0.35143,0.2358
-23.2,-1.6036,0.35189,0.34898,0.2338
-23.1,-1.5985,0.34944,0.34653,0.2317
-23,-1.5935,0.347,0.34409,0.2297
-22.9,-1.5885,0.34459,0.34167,0.2278
-22.8,-1.5834,0.34217,0.33925,0.2258
-22.7,-1.5784,0.33976,0.33684,0.2238
-22.6,-1.5733,0.33735,0.33444,0.2218
-22.5,-1.5682,0.33497,0.33205,0.2198
-22.4,-1.5631,0.33258,0.32966,0.2179
-22.3,-1.558,0.33021,0.32728,0.2159
-22.2,-1.5529,0.32784,0.32491,0.214
-22.1,-1.5478,0.32548,0.32255,0.212
-22,-1.5427,0.32313,0.32019,0.2101
-21.9,-1.5375,0.32078,0.31784,0.2082
-21.8,-1.5324,0.31844,0.31551,0.2062
-21.7,-1.5272,0.3161,0.31317,0.2043
-21.6,-1.5221,0.31378,0.31084,0.2024
-21.5,-1.5169,0.31146,0.30852,0.2005
-21.4,-1.5117,0.30913,0.30619,0.1985
-21.3,-1.5065,0.30681,0.30388,0.1966
-21.2,-1.5013,0.3045,0.30156,0.1947
-21.1,-1.496,0.30217,0.29923,0.1928
-21,-1.4907,0.29986,0.29692,0.1909
-20.9,-1.4855,0.29751,0.29457,0.1889
-20.7,-1.4713,0.2899,0.28697,0.1834
-20.6,-1.4663,0.28777,0.28484,0.1817
-20.5,-1.4613,0.28565,0.28271,0.18
-20.4,-1.4562,0.28354,0.2806,0.1783
-20.3,-1.4512,0.28144,0.2785,0.1766
-20.2,-1.4461,0.27934,0.27641,0.1749
-20.1,-1.4411,0.27726,0.27432,0.1732
-20,-1.436,0.27518,0.27224,0.1715
-19.9,-1.431,0.27311,0.27017,0.1698
-19.8,-1.4259,0.27105,0.2681,0.1681
-19.7,-1.4208,0.269,0.26605,0.1665
-19.6,-1.4157,0.26695,0.264,0.1648
-19.5,-1.4106,0.26491,0.26196,0.1632
-19.4,-1.4054,0.26288,0.25993,0.1615
-19.3,-1.4003,0.26085,0.2579,0.1599
-19.2,-1.3951,0.25883,0.25588,0.1582
-19.1,-1.39,0.25681,0.25386,0.1566
-19,-1.3848,0.2548,0.25185,0.155
-18.9,-1.3796,0.2528,0.24986,0.1534
-18.8,-1.3745,0.25081,0.24787,0.1518
-18.7,-1.3693,0.24883,0.24588,0.1502
-18.6,-1.3641,0.24685,0.2439,0.1486
-18.5,-1.3589,0.24488,0.24193,0.147
-18.4,-1.3537,0.24292,0.23997,0.1454
-18.3,-1.3486,0.24096,0.23801,0.1439
-18.2,-1.3434,0.23901,0.23606,0.1423
-18.1,-1.3382,0.23707,0.23412,0.1408
-18,-1.333,0.23514,0.23219,0.1392
-17.9,-1.3278,0.23321,0.23026,0.1377
-17.8,-1.3225,0.23129,0.22834,0.1362
-17.7,-1.3173,0.22938,0.22643,0.1347
-17.6,-1.3121,0.22747,0.22451,0.1331
-17.5,-1.3069,0.22557,0.22262,0.1316
-17.4,-1.3017,0.22368,0.22073,0.1301
-17.3,-1.2964,0.2218,0.21884,0.1286
-17.2,-1.2912,0.21992,0.21696,0.1272
-17.1,-1.286,0.21805,0.21509,0.1257
-17,-1.2807,0.21618,0.21323,0.1242
-16.9,-1.2755,0.21433,0.21137,0.1228
-16.8,-1.2702,0.21247,0.20952,0.1213
-16.7,-1.2649,0.21062,0.20767,0.1198
-16.6,-1.2596,0.20878,0.20583,0.1184
-16.5,-1.2543,0.20694,0.20399,0.117
-16.4,-1.249,0.20509,0.20214,0.1155
-16.3,-1.2436,0.20326,0.20031,0.1141
-16.2,-1.2383,0.20142,0.19847,0.1126
-16.1,-1.2329,0.19959,0.19665,0.1112
-16,-1.2275,0.19777,0.19482,0.1098
-15.9,-1.222,0.19594,0.193,0.1083
-15.8,-1.2166,0.19412,0.19118,0.1069
-15.7,-1.2111,0.1923,0.18936,0.1055
-15.6,-1.2057,0.19049,0.18754,0.1041
-15.5,-1.2001,0.18867,0.18573,0.1027
-15.4,-1.1944,0.1869,0.18396,0.1011
-15.3,-1.1888,0.18507,0.18213,0.0997
-15.2,-1.1832,0.18324,0.18029,0.0983
-15.1,-1.1776,0.18142,0.17847,0.0969
-15,-1.1719,0.17959,0.17665,0.0955
-14.9,-1.1663,0.17777,0.17483,0.0941
-14.8,-1.1606,0.17596,0.17302,0.0927
-14.7,-1.1549,0.17415,0.17121,0.0913
-14.6,-1.1491,0.17233,0.16939,0.0899
-14.5,-1.1433,0.17052,0.16758,0.0885
-14.4,-1.1375,0.1687,0.16577,0.0871
-14.3,-1.1316,0.16688,0.16395,0.0857
-14.2,-1.1257,0.16506,0.16213,0.0842
-14.1,-1.1197,0.16324,0.16031,0.0828
-14,-1.1137,0.1614,0.15848,0.0814
-13.9,-1.1077,0.15958,0.15665,0.08
-13.8,-1.1016,0.15775,0.15482,0.0786
-13.7,-1.0955,0.1559,0.15298,0.0772
-13.6,-1.0894,0.15405,0.15113,0.0758
-13.5,-1.0832,0.15216,0.14924,0.0743
-13.4,-1.0769,0.15027,0.14735,0.0729
-13.3,-1.0705,0.1483,0.14539,0.0714
-13.2,-1.0639,0.14614,0.14322,0.0698
-13.1,-1.0564,0.14354,0.14065,0.068
-13,-1.0505,0.14197,0.13908,0.0667
-12.9,-1.0445,0.14041,0.13752,0.0653
-12.8,-1.0385,0.13886,0.13597,0.064
-12.7,-1.0324,0.13732,0.13443,0.0627
-12.6,-1.0263,0.13578,0.13289,0.0614
-12.5,-1.0201,0.13425,0.13137,0.0601
-12.4,-1.0138,0.13273,0.12985,0.0588
-12.3,-1.0075,0.13122,0.12834,0.0575
-12.2,-1.0012,0.12972,0.12684,0.0561
-12.1,-0.9948,0.12823,0.12536,0.0548
-12,-0.9884,0.12675,0.12388,0.0535
-11.9,-0.9819,0.12528,0.12241,0.0521
-11.8,-0.9753,0.12381,0.12095,0.0508
-11.7,-0.9688,0.12236,0.1195,0.0495
-11.6,-0.9622,0.12092,0.11807,0.0481
-11.5,-0.9555,0.11949,0.11664,0.0468
-11.4,-0.9488,0.11806,0.11522,0.0455
-11.3,-0.942,0.11664,0.1138,0.0441
-11.2,-0.9351,0.11522,0.11239,0.0427
-11.1,-0.9282,0.11382,0.11099,0.0414
-11,-0.9212,0.11243,0.1096,0.04
-10.9,-0.9142,0.11104,0.10822,0.0386
-10.8,-0.9071,0.10967,0.10685,0.0372
-10.7,-0.9,0.1083,0.10549,0.0359
-10.6,-0.8928,0.10694,0.10414,0.0345
-10.5,-0.8855,0.10559,0.10279,0.0331
-10.4,-0.8782,0.10424,0.10145,0.0317
-10.3,-0.8708,0.1029,0.10012,0.0302
-10.2,-0.8633,0.10157,0.09878,0.0288
-10.1,-0.8558,0.10025,0.09746,0.0274
-10,-0.8482,0.09893,0.09615,0.0259
-9.9,-0.8405,0.09762,0.09485,0.0244
-9.8,-0.8328,0.09632,0.09356,0.023
-9.7,-0.825,0.09502,0.09227,0.0215
-9.6,-0.817,0.09373,0.09098,0.02
-9.5,-0.8091,0.09244,0.0897,0.0185
-9.4,-0.801,0.09115,0.08842,0.017
-9.3,-0.7923,0.0898,0.08707,0.0152
-9.2,-0.7841,0.0885,0.08578,0.0136
-9.1,-0.7758,0.08721,0.08449,0.012
-9,-0.7675,0.08591,0.08321,0.0104
-8.9,-0.7591,0.08462,0.08192,0.0088
-8.8,-0.7506,0.08332,0.08064,0.0072
-8.7,-0.7421,0.08203,0.07935,0.0055
-8.6,-0.7335,0.08072,0.07805,0.0038
-8.5,-0.725,0.07942,0.07676,0.0021
-8.4,-0.7164,0.07808,0.07543,0.0004
-8.3,-0.7079,0.07673,0.07409,-0.0014
-8.2,-0.6995,0.07534,0.0727,-0.0032
-8.1,-0.6912,0.07377,0.07115,-0.0052
-8,-0.6833,0.07214,0.06954,-0.0072
-7.9,-0.6767,0.07121,0.06862,-0.0084
-7.8,-0.6646,0.06998,0.06739,-0.0111
-7.7,-0.6484,0.06854,0.06595,-0.0147
-7.6,-0.6313,0.06706,0.06445,-0.0185
-7.5,-0.6135,0.06556,0.06293,-0.0224
-7.4,-0.5957,0.06405,0.06142,-0.0262
-7.3,-0.5786,0.06259,0.05995,-0.0298
-7.2,-0.5596,0.06103,0.05836,-0.0338
-7.1,-0.5421,0.05953,0.05685,-0.0373
-7,-0.5244,0.05802,0.05531,-0.0408
-6.9,-0.5059,0.05645,0.05371,-0.0445
-6.8,-0.4883,0.05489,0.05214,-0.0478
-6.7,-0.4705,0.0533,0.05051,-0.0512
-6.5,-0.4348,0.04999,0.04713,-0.0578
-6.4,-0.4169,0.04824,0.04532,-0.061
-6.3,-0.3987,0.04638,0.04341,-0.0643
-6.2,-0.3807,0.04438,0.04135,-0.0676
-6,-0.343,0.03939,0.03617,-0.0749
-5.2,-0.2192,0.02151,0.01675,-0.0909
-5.1,-0.2051,0.01952,0.01433,-0.0916
-5,-0.1907,0.01813,0.0126,-0.0919
-4.9,-0.1762,0.01749,0.01183,-0.0919
-4.8,-0.1617,0.01692,0.01112,-0.0919
-4.7,-0.1475,0.0164,0.01044,-0.0916
-4.6,-0.1328,0.01588,0.00979,-0.0916
-4.5,-0.1181,0.01539,0.00916,-0.0914
-4.4,-0.1035,0.01494,0.00856,-0.0912
-4.3,-0.0887,0.01451,0.008,-0.0911
-4.2,-0.074,0.01411,0.00746,-0.0909
-4.1,-0.0596,0.01377,0.00697,-0.0906
-4,-0.0449,0.0135,0.00666,-0.0904
-3.9,-0.0302,0.01328,0.00638,-0.0903
-3.8,-0.0156,0.01307,0.0061,-0.0901
-3.7,-0.0011,0.01294,0.0059,-0.0899
-3.6,0.0137,0.01273,0.00562,-0.0898
-3.5,0.0279,0.01255,0.00538,-0.0896
-3.4,0.0425,0.01239,0.00518,-0.0895
-3.3,0.0571,0.01225,0.00499,-0.0893
-3.2,0.0716,0.01212,0.00479,-0.0892
-3.1,0.0861,0.01201,0.00466,-0.0891
-3,0.1003,0.0119,0.0045,-0.0889
-2.8,0.1284,0.01175,0.00421,-0.0884
-2.7,0.1429,0.01166,0.00407,-0.0884
-2.6,0.1569,0.01159,0.00396,-0.0882
-2.5,0.1712,0.01152,0.00387,-0.0881
-2.4,0.1855,0.01146,0.00376,-0.088
-2.3,0.1997,0.0114,0.00367,-0.0879
-2.2,0.2134,0.01138,0.00359,-0.0877
-2.1,0.2276,0.01134,0.00351,-0.0876
-2,0.2418,0.01127,0.00345,-0.0876
-1.9,0.256,0.01125,0.00338,-0.0875
-1.8,0.2702,0.0112,0.00332,-0.0875
-1.7,0.2843,0.01117,0.00327,-0.0874
-1.6,0.2977,0.01117,0.00323,-0.0873
-1.5,0.3116,0.01116,0.00319,-0.0872
-1.4,0.3256,0.01115,0.00316,-0.0871
-1.3,0.3397,0.01112,0.00313,-0.0871
-1.2,0.3534,0.0111,0.00311,-0.0871
-1.1,0.3673,0.0111,0.00309,-0.087
-1,0.3809,0.01112,0.00307,-0.0869
-0.9,0.3948,0.01112,0.00307,-0.0869
-0.8,0.4088,0.01107,0.00307,-0.087
-0.7,0.4227,0.01107,0.00306,-0.087
-0.6,0.4367,0.01106,0.00306,-0.087
-0.5,0.4505,0.01104,0.00306,-0.087
-0.4,0.4645,0.01104,0.00307,-0.087
-0.3,0.478,0.01108,0.00308,-0.0869
-0.2,0.4918,0.01108,0.00308,-0.0869
-0.1,0.5056,0.01105,0.0031,-0.0869
0,0.5194,0.01105,0.00311,-0.0869
0.1,0.5332,0.01105,0.00313,-0.0869
0.2,0.5467,0.011,0.00316,-0.087
0.3,0.5604,0.01098,0.00318,-0.087
0.4,0.5739,0.01098,0.00321,-0.0869
0.5,0.5867,0.0109,0.00325,-0.0869
0.6,0.5999,0.01083,0.00327,-0.0868
0.7,0.6125,0.01071,0.00331,-0.0866
0.9,0.6239,0.00998,0.00328,-0.0824
1,0.641,0.01004,0.00326,-0.083
1.1,0.6544,0.01018,0.00332,-0.0829
1.2,0.6678,0.01032,0.00339,-0.0828
1.3,0.6804,0.01054,0.00347,-0.0826
1.4,0.6936,0.0107,0.00355,-0.0825
1.5,0.7067,0.01086,0.00363,-0.0824
1.6,0.72,0.01102,0.00372,-0.0823
1.7,0.7332,0.01119,0.00381,-0.0822
1.8,0.7465,0.01135,0.00391,-0.0821
1.9,0.7599,0.0115,0.00399,-0.082
2,0.7733,0.01165,0.00409,-0.0819
2.1,0.7869,0.01179,0.00417,-0.0818
2.2,0.8004,0.01193,0.00427,-0.0818
2.3,0.8136,0.0121,0.00439,-0.0816
2.4,0.8273,0.01223,0.00448,-0.0816
2.5,0.8408,0.01237,0.00458,-0.0815
2.6,0.8544,0.0125,0.00469,-0.0814
2.7,0.8682,0.01262,0.00479,-0.0813
2.8,0.8819,0.01275,0.00489,-0.0812
2.9,0.8955,0.01288,0.00499,-0.081
3,0.909,0.01303,0.00512,-0.0809
3.1,0.9229,0.01315,0.00522,-0.0808
3.2,0.9365,0.01328,0.00533,-0.0807
3.3,0.9502,0.01342,0.00545,-0.0805
3.4,0.9637,0.01357,0.00557,-0.0804
3.5,0.9774,0.0137,0.00569,-0.0802
3.6,0.9913,0.01382,0.0058,-0.0801
3.7,1.0051,0.01394,0.00592,-0.08
3.8,1.0188,0.01408,0.00604,-0.0798
3.9,1.0324,0.01422,0.00618,-0.0796
4,1.0458,0.01438,0.00631,-0.0794
4.1,1.0597,0.01451,0.00645,-0.0792
4.2,1.0735,0.01464,0.00657,-0.0791
4.3,1.0872,0.01478,0.0067,-0.0789
4.4,1.1008,0.01493,0.00684,-0.0786
4.5,1.1143,0.01509,0.00699,-0.0784
4.6,1.1278,0.01525,0.00714,-0.0782
4.7,1.1418,0.01538,0.00728,-0.078
4.8,1.1556,0.01552,0.00743,-0.0777
4.9,1.1693,0.01567,0.00759,-0.0775
5,1.183,0.01582,0.00775,-0.0772
5.1,1.1965,0.01599,0.00791,-0.0769
5.2,1.2096,0.01617,0.00807,-0.0766
5.3,1.2235,0.01631,0.00823,-0.0763
5.4,1.2373,0.01647,0.0084,-0.0761
5.5,1.2509,0.01663,0.00857,-0.0757
5.6,1.2645,0.01679,0.00875,-0.0754
5.7,1.278,0.01697,0.00893,-0.0751
5.8,1.2914,0.01715,0.00913,-0.0747
5.9,1.3046,0.01735,0.00932,-0.0743
6,1.3182,0.01752,0.00952,-0.0739
6.1,1.3319,0.0177,0.00972,-0.0736
6.2,1.3454,0.01788,0.00993,-0.0732
6.3,1.3588,0.01805,0.01012,-0.0727
6.4,1.3721,0.01825,0.01033,-0.0723
6.5,1.3852,0.01845,0.01054,-0.0718
6.6,1.3981,0.01867,0.01076,-0.0713
6.7,1.4113,0.01887,0.01099,-0.0709
6.8,1.4248,0.01907,0.01125,-0.0704
6.9,1.438,0.01928,0.0115,-0.0699
7,1.4512,0.0195,0.01175,-0.0693
7.1,1.4642,0.01972,0.012,-0.0688
7.2,1.477,0.01995,0.01226,-0.0682
7.3,1.4896,0.02018,0.01252,-0.0676
7.5,1.5144,0.02065,0.01304,-0.0663
7.6,1.5272,0.0209,0.01334,-0.0657
7.8,1.552,0.02142,0.01398,-0.0643
7.9,1.5641,0.02169,0.01429,-0.0635
8,1.576,0.02196,0.01461,-0.0628
8.1,1.5875,0.02225,0.01493,-0.062
8.2,1.5986,0.02254,0.01526,-0.0611
8.3,1.6094,0.02284,0.01559,-0.0602
8.4,1.6207,0.02316,0.01598,-0.0594
8.5,1.6318,0.02349,0.01639,-0.0585
8.6,1.6424,0.02383,0.0168,-0.0575
8.7,1.6526,0.02413,0.01716,-0.0565
8.8,1.6623,0.02448,0.01757,-0.0555
8.9,1.6714,0.02483,0.018,-0.0544
9,1.6801,0.02519,0.01842,-0.0532
9.1,1.6881,0.02556,0.01884,-0.052
9.2,1.6951,0.02594,0.01926,-0.0507
9.3,1.7007,0.02634,0.01973,-0.0492
9.4,1.7065,0.02681,0.0203,-0.0477
9.5,1.7118,0.0273,0.02088,-0.0463
9.6,1.7169,0.02781,0.02148,-0.045
9.7,1.7217,0.02834,0.02211,-0.0437
9.8,1.7262,0.0289,0.02275,-0.0424
9.9,1.7306,0.02948,0.02342,-0.0413
10,1.7347,0.03008,0.02411,-0.0402
10.1,1.7387,0.0307,0.02482,-0.0393
10.2,1.7438,0.03121,0.02538,-0.0385
10.3,1.7478,0.03187,0.02611,-0.0377
10.4,1.7517,0.03256,0.02689,-0.0371
10.5,1.7541,0.03344,0.02788,-0.0367
10.6,1.756,0.03439,0.02897,-0.0364
10.7,1.7576,0.03539,0.0301,-0.0363
10.8,1.7589,0.03646,0.03129,-0.0365
10.9,1.7601,0.03759,0.03255,-0.0369
11,1.7611,0.0388,0.03389,-0.0377
11.1,1.7621,0.04009,0.03529,-0.0387
11.2,1.7631,0.04146,0.03678,-0.04
11.3,1.764,0.04291,0.03836,-0.0417
11.4,1.765,0.04447,0.04003,-0.0438
11.5,1.7659,0.04613,0.0418,-0.0461
11.6,1.7666,0.0479,0.04369,-0.0489
11.7,1.7673,0.04978,0.04567,-0.0519
11.8,1.7677,0.05177,0.04775,-0.0551
12.5,1.6674,0.08257,0.07935,-0.1022
12.6,1.6661,0.08484,0.08164,-0.1053
12.7,1.6675,0.08664,0.08345,-0.1076
12.8,1.6709,0.0881,0.08492,-0.1095
12.9,1.6753,0.08936,0.08619,-0.1111
13,1.6564,0.10986,0.10682,-0.1332
13.1,1.6575,0.11147,0.10844,-0.1355
13.2,1.6599,0.1128,0.10978,-0.1375
13.3,1.6634,0.11394,0.11094,-0.1392
13.4,1.6674,0.11495,0.11196,-0.1407
13.5,1.675,0.11533,0.11234,-0.1414
13.6,1.6803,0.11607,0.11309,-0.1425

