airfoilName st10.dat
Re 	2.500000e+05
M 	2.500000e-01
N 	4.500000e+00
VACC 	0 VACCflag 1
XTR 	1.00 	1.00 XTRflag 0
alpha,cl,cd,cdp,cm
-30,-1.7145,0.44404,0.44122,0.3327
-29.9,-1.7113,0.44194,0.43912,0.3306
-29.8,-1.708,0.43988,0.43705,0.3285
-29.7,-1.7048,0.4378,0.43497,0.3263
-29.6,-1.7015,0.43574,0.4329,0.3242
-29.5,-1.6982,0.43368,0.43084,0.3221
-29.4,-1.6949,0.43163,0.42879,0.32
-29.3,-1.6915,0.42958,0.42673,0.3178
-29.2,-1.6882,0.42754,0.42469,0.3157
-29.1,-1.6848,0.4255,0.42265,0.3136
-29,-1.6814,0.42346,0.42061,0.3115
-28.9,-1.678,0.42144,0.41858,0.3094
-28.8,-1.6745,0.41942,0.41656,0.3073
-28.7,-1.671,0.41742,0.41455,0.3052
-28.6,-1.6676,0.4154,0.41254,0.3031
-28.5,-1.6641,0.41339,0.41052,0.301
-28.4,-1.6605,0.41141,0.40854,0.2988
-28.3,-1.6569,0.40943,0.40656,0.2967
-28.2,-1.6534,0.40745,0.40456,0.2946
-28.1,-1.6498,0.40549,0.4026,0.2925
-28,-1.6461,0.40354,0.40064,0.2904
-27.9,-1.6425,0.40159,0.39869,0.2883
-27.8,-1.6388,0.39965,0.39674,0.2861
-27.7,-1.635,0.39772,0.39481,0.284
-27.6,-1.6313,0.39579,0.39288,0.2818
-27.5,-1.6275,0.39388,0.39096,0.2797
-27.4,-1.6236,0.39196,0.38904,0.2775
-27.3,-1.6196,0.39004,0.38712,0.2752
-27.1,-1.6056,0.38275,0.37984,0.2679
-27,-1.602,0.38069,0.37778,0.266
-26.9,-1.5986,0.37864,0.37572,0.2642
-26.8,-1.595,0.3766,0.37368,0.2623
-26.6,-1.5882,0.37289,0.36996,0.2585
-26.5,-1.5845,0.37089,0.36795,0.2567
-26.4,-1.5809,0.3689,0.36596,0.2548
-26.3,-1.5773,0.36692,0.36399,0.2529
-26.2,-1.5736,0.36495,0.36201,0.2511
-26.1,-1.5699,0.36299,0.36004,0.2492
-26,-1.5662,0.36103,0.35809,0.2473
-25.9,-1.5625,0.35908,0.35612,0.2455
-25.8,-1.5587,0.35714,0.35418,0.2437
-25.7,-1.555,0.3552,0.35224,0.2418
-25.6,-1.5512,0.35328,0.35031,0.24
-25.5,-1.5475,0.35136,0.34839,0.2382
-25.4,-1.5436,0.34943,0.34646,0.2363
-25.3,-1.5398,0.34752,0.34454,0.2345
-25.2,-1.536,0.34562,0.34264,0.2327
-25.1,-1.5322,0.34371,0.34073,0.2309
-25,-1.5283,0.34182,0.33883,0.2291
-24.9,-1.5244,0.33992,0.33693,0.2273
-24.8,-1.5206,0.33803,0.33504,0.2255
-24.7,-1.5167,0.33615,0.33316,0.2238
-24.6,-1.5128,0.33427,0.33128,0.222
-24.5,-1.5088,0.3324,0.3294,0.2202
-24.4,-1.5049,0.33052,0.32752,0.2185
-24.3,-1.5009,0.32865,0.32565,0.2167
-24.2,-1.497,0.32679,0.32379,0.215
-24.1,-1.493,0.32493,0.32192,0.2132
-24,-1.489,0.32307,0.32006,0.2115
-23.9,-1.485,0.32121,0.3182,0.2098
-23.8,-1.481,0.31937,0.31635,0.208
-23.7,-1.477,0.31751,0.31449,0.2063
-23.6,-1.473,0.31566,0.31263,0.2046
-23.5,-1.4689,0.31382,0.31079,0.2029
-23.4,-1.4649,0.31199,0.30895,0.2012
-23.3,-1.4608,0.31014,0.30711,0.1995
-23.2,-1.4567,0.30831,0.30527,0.1978
-23.1,-1.4526,0.30647,0.30343,0.1962
-23,-1.4485,0.30464,0.3016,0.1945
-22.9,-1.4444,0.30281,0.29976,0.1928
-22.8,-1.4403,0.30098,0.29793,0.1912
-22.7,-1.4361,0.29916,0.29611,0.1895
-22.6,-1.4319,0.29733,0.29428,0.1878
-22.5,-1.4277,0.29551,0.29245,0.1862
-22.4,-1.4235,0.29369,0.29063,0.1845
-22.3,-1.4193,0.29186,0.2888,0.1829
-22.2,-1.4151,0.29004,0.28698,0.1813
-22.1,-1.4108,0.28822,0.28516,0.1796
-22,-1.4066,0.2864,0.28334,0.178
-21.9,-1.4023,0.28458,0.28152,0.1764
-21.8,-1.398,0.28276,0.27969,0.1748
-21.7,-1.3937,0.28094,0.27787,0.1732
-21.6,-1.3894,0.27912,0.27605,0.1715
-21.5,-1.3851,0.2773,0.27421,0.1699
-21.4,-1.3807,0.27548,0.27239,0.1683
-21.3,-1.3763,0.27365,0.27056,0.1667
-21.2,-1.3719,0.27182,0.26873,0.1651
-21.1,-1.3675,0.26999,0.2669,0.1635
-21,-1.3631,0.26816,0.26507,0.1619
-20.9,-1.3587,0.26633,0.26323,0.1603
-20.8,-1.3542,0.26448,0.26138,0.1588
-20.7,-1.3497,0.26263,0.25953,0.1572
-20.6,-1.3452,0.26077,0.25767,0.1556
-20.5,-1.3407,0.2589,0.2558,0.154
-20.4,-1.3361,0.25702,0.25391,0.1524
-20.3,-1.3307,0.25491,0.2518,0.1505
-20.2,-1.3261,0.25293,0.24982,0.1489
-20.1,-1.3214,0.25091,0.2478,0.1473
-20,-1.3166,0.24884,0.24573,0.1456
-19.9,-1.3117,0.24672,0.24361,0.144
-19.7,-1.294,0.23795,0.23484,0.1384
-19.6,-1.29,0.23618,0.23307,0.137
-19.5,-1.2859,0.23443,0.23132,0.1356
-19.4,-1.2818,0.23268,0.22957,0.1343
-19.3,-1.2777,0.23095,0.22784,0.1329
-19.2,-1.2735,0.22923,0.22612,0.1316
-19.1,-1.2693,0.22751,0.22439,0.1302
-19,-1.2651,0.2258,0.22269,0.1288
-18.9,-1.2608,0.2241,0.22098,0.1275
-18.8,-1.2565,0.22241,0.21928,0.1261
-18.7,-1.2522,0.22072,0.21759,0.1248
-18.6,-1.2478,0.21904,0.21591,0.1234
-18.5,-1.2434,0.21736,0.21423,0.122
-18.4,-1.239,0.21569,0.21256,0.1207
-18.3,-1.2345,0.21403,0.2109,0.1193
-18.2,-1.2301,0.21237,0.20924,0.118
-18.1,-1.2255,0.21072,0.20759,0.1166
-18,-1.221,0.20907,0.20594,0.1153
-17.9,-1.2165,0.20743,0.20429,0.1139
-17.8,-1.2119,0.20579,0.20265,0.1126
-17.7,-1.2073,0.20416,0.20102,0.1113
-17.6,-1.2026,0.20253,0.19939,0.1099
-17.5,-1.198,0.20091,0.19777,0.1086
-17.4,-1.1933,0.19928,0.19614,0.1073
-17.3,-1.1886,0.19767,0.19453,0.1059
-17.2,-1.1838,0.19606,0.19292,0.1046
-17.1,-1.1791,0.19446,0.19132,0.1033
-17,-1.1743,0.19285,0.18971,0.102
-16.9,-1.1695,0.19126,0.18812,0.1006
-16.8,-1.1647,0.18967,0.18653,0.0993
-16.7,-1.1598,0.18808,0.18494,0.098
-16.6,-1.1549,0.18649,0.18334,0.0967
-16.5,-1.15,0.18491,0.18176,0.0954
-16.4,-1.1451,0.18333,0.18018,0.0941
-16.3,-1.1401,0.18176,0.1786,0.0928
-16.2,-1.1351,0.18018,0.17703,0.0915
-16.1,-1.1301,0.17861,0.17546,0.0901
-16,-1.125,0.17705,0.1739,0.0888
-15.9,-1.12,0.17549,0.17234,0.0875
-15.8,-1.1149,0.17393,0.17078,0.0862
-15.7,-1.1098,0.17238,0.16923,0.0849
-15.6,-1.1046,0.17083,0.16768,0.0836
-15.5,-1.0995,0.16929,0.16614,0.0824
-15.4,-1.0943,0.16775,0.1646,0.0811
-15.3,-1.0891,0.16621,0.16306,0.0798
-15.2,-1.0838,0.16468,0.16153,0.0785
-15,-1.0729,0.16175,0.15861,0.0758
-14.9,-1.0675,0.16022,0.15707,0.0745
-14.8,-1.0622,0.15869,0.15555,0.0732
-14.7,-1.0568,0.15717,0.15403,0.072
-14.6,-1.0514,0.15565,0.15251,0.0707
-14.5,-1.046,0.15413,0.15099,0.0694
-14.4,-1.0405,0.15261,0.14947,0.0681
-14.3,-1.035,0.1511,0.14796,0.0668
-14.2,-1.0294,0.14958,0.14644,0.0655
-14.1,-1.0238,0.14808,0.14494,0.0642
-14,-1.0182,0.14658,0.14343,0.0629
-13.9,-1.0126,0.14507,0.14193,0.0616
-13.8,-1.0069,0.14357,0.14043,0.0603
-13.7,-1.0012,0.14208,0.13894,0.0591
-13.6,-0.9955,0.14058,0.13744,0.0578
-13.5,-0.9897,0.13908,0.13595,0.0565
-13.4,-0.9838,0.13759,0.13445,0.0551
-13.3,-0.978,0.13609,0.13296,0.0538
-13.2,-0.972,0.13459,0.13146,0.0525
-13.1,-0.966,0.13308,0.12995,0.0512
-13,-0.96,0.13156,0.12844,0.0498
-12.9,-0.9539,0.13003,0.12691,0.0485
-12.8,-0.9477,0.1285,0.12538,0.0471
-12.7,-0.9415,0.12694,0.12382,0.0457
-12.6,-0.9352,0.12536,0.12224,0.0443
-12.5,-0.9289,0.12375,0.12063,0.0429
-12.4,-0.9224,0.12209,0.11898,0.0414
-12.3,-0.9157,0.1203,0.11719,0.0399
-12.1,-0.8974,0.11397,0.11087,0.0346
-12,-0.8916,0.11271,0.10961,0.0333
-11.9,-0.8858,0.11147,0.10838,0.0321
-11.8,-0.8797,0.11025,0.10716,0.0309
-11.7,-0.8737,0.10905,0.10597,0.0296
-11.6,-0.8675,0.10785,0.10478,0.0283
-11.5,-0.8612,0.10667,0.1036,0.0271
-11.4,-0.8547,0.10549,0.10241,0.0258
-11.3,-0.8482,0.10432,0.10125,0.0244
-11.2,-0.8416,0.10316,0.10009,0.0231
-11.1,-0.835,0.10201,0.09894,0.0218
-11,-0.8282,0.10087,0.09781,0.0204
-10.9,-0.8214,0.09972,0.09667,0.0191
-10.8,-0.8145,0.09859,0.09554,0.0177
-10.7,-0.8075,0.09745,0.0944,0.0163
-10.6,-0.8004,0.09632,0.09328,0.0149
-10.5,-0.7933,0.09519,0.09216,0.0135
-10.4,-0.7861,0.09406,0.09103,0.012
-10.3,-0.7788,0.09294,0.08991,0.0106
-10.2,-0.7715,0.09182,0.0888,0.0091
-10.1,-0.7641,0.09069,0.08768,0.0077
-10,-0.7568,0.08958,0.08657,0.0062
-9.9,-0.7493,0.08846,0.08546,0.0047
-9.8,-0.7419,0.08735,0.08435,0.0032
-9.7,-0.7346,0.08624,0.08325,0.0017
-9.6,-0.7272,0.08514,0.08215,0.0002
-9.5,-0.7199,0.08404,0.08106,-0.0013
-9.4,-0.7125,0.08293,0.07996,-0.0029
-9.3,-0.7043,0.08178,0.07881,-0.0047
-9.2,-0.6949,0.08055,0.07757,-0.0068
-9.1,-0.6852,0.07928,0.0763,-0.0089
-9,-0.6753,0.07799,0.07501,-0.0111
-8.9,-0.6653,0.07667,0.07369,-0.0133
-8.8,-0.6552,0.07532,0.07234,-0.0155
-8.3,-0.5941,0.059,0.05592,-0.0363
-8.2,-0.5788,0.05755,0.05444,-0.0394
-8.1,-0.5613,0.05595,0.05281,-0.0428
-8,-0.5444,0.05434,0.05116,-0.0462
-7.9,-0.5278,0.05268,0.04947,-0.0493
-7.8,-0.5101,0.05086,0.0476,-0.0528
-7.7,-0.4929,0.04892,0.0456,-0.0561
-7.1,-0.3902,0.02565,0.02057,-0.0802
-6.9,-0.3643,0.02278,0.01714,-0.082
-6.8,-0.3503,0.02161,0.01569,-0.0828
-6.7,-0.3366,0.0207,0.01451,-0.0834
-6.6,-0.3247,0.0201,0.01384,-0.0835
-6.5,-0.3119,0.01961,0.0133,-0.0839
-6.4,-0.2989,0.01919,0.01284,-0.0842
-6.3,-0.2856,0.0188,0.01239,-0.0845
-6.2,-0.2722,0.01843,0.01196,-0.0849
-6.1,-0.2595,0.01807,0.01154,-0.085
-6,-0.247,0.01772,0.01113,-0.0851
-5.9,-0.2342,0.01736,0.0107,-0.0853
-5.8,-0.2213,0.017,0.01027,-0.0855
-5.7,-0.208,0.01664,0.00983,-0.0857
-5.6,-0.1957,0.0163,0.00941,-0.0857
-5.5,-0.1834,0.01596,0.00898,-0.0858
-5.4,-0.1708,0.01565,0.00857,-0.0858
-5.3,-0.1581,0.01536,0.00821,-0.0858
-5.2,-0.1456,0.01508,0.00792,-0.0859
-5.1,-0.1336,0.01487,0.00768,-0.0859
-4.9,-0.1089,0.01468,0.00747,-0.086
-4.8,-0.0966,0.01446,0.00719,-0.0859
-4.7,-0.0846,0.01423,0.00691,-0.0859
-4.6,-0.0723,0.01404,0.00664,-0.0858
-4.5,-0.0601,0.01381,0.00641,-0.0858
-4.4,-0.0479,0.01362,0.00621,-0.0858
-4.3,-0.0361,0.01346,0.00603,-0.0857
-4.2,-0.024,0.01331,0.00585,-0.0857
-4.1,-0.0118,0.01316,0.00566,-0.0856
-4,0.0003,0.01302,0.00548,-0.0855
-3.9,0.0123,0.01293,0.00539,-0.0855
-3.8,0.0242,0.01278,0.00523,-0.0854
-3.7,0.0363,0.01266,0.00508,-0.0853
-3.6,0.0483,0.01254,0.00494,-0.0853
-3.5,0.0605,0.01242,0.00478,-0.0852
-3.4,0.0726,0.01232,0.00463,-0.0851
-3.3,0.0846,0.01219,0.00451,-0.0851
-3.2,0.0964,0.01211,0.00445,-0.085
-3.1,0.1085,0.01202,0.00432,-0.085
-3,0.1205,0.01194,0.00419,-0.0849
-2.9,0.1326,0.01183,0.00409,-0.0849
-2.8,0.1447,0.01174,0.004,-0.0848
-2.7,0.1564,0.01168,0.00389,-0.0847
-2.6,0.1685,0.01161,0.00383,-0.0847
-2.5,0.1798,0.01155,0.00374,-0.0844
-2.4,0.192,0.01148,0.00366,-0.0844
-2.2,0.2155,0.01139,0.0035,-0.0841
-2.1,0.2272,0.01135,0.00345,-0.084
-2,0.2393,0.01128,0.00339,-0.084
-1.9,0.2509,0.01126,0.00333,-0.0839
-1.8,0.263,0.01121,0.00327,-0.0839
-1.7,0.275,0.01116,0.00323,-0.0839
-1.6,0.2869,0.01111,0.0032,-0.0839
-1.5,0.2985,0.01109,0.00315,-0.0837
-1.4,0.3102,0.01108,0.00311,-0.0836
-1.3,0.3221,0.01105,0.00308,-0.0836
-1.2,0.3341,0.01099,0.00306,-0.0836
-1.1,0.3461,0.01096,0.00302,-0.0836
-1,0.3581,0.01093,0.003,-0.0836
-0.9,0.3697,0.01093,0.00298,-0.0836
-0.8,0.381,0.01091,0.00296,-0.0834
-0.7,0.393,0.01089,0.00293,-0.0835
-0.6,0.4046,0.01089,0.00291,-0.0834
-0.5,0.4165,0.01087,0.0029,-0.0834
-0.4,0.4282,0.01079,0.00289,-0.0834
-0.3,0.44,0.01075,0.00288,-0.0834
-0.2,0.4518,0.01072,0.00288,-0.0835
-0.1,0.4629,0.01062,0.00287,-0.0834
0,0.4746,0.01054,0.00287,-0.0835
0.1,0.486,0.01045,0.00287,-0.0834
0.2,0.4974,0.0103,0.00287,-0.0834
0.4,0.5116,0.00917,0.00267,-0.0805
0.5,0.5235,0.00925,0.00268,-0.0805
0.6,0.5354,0.00932,0.0027,-0.0805
0.7,0.5468,0.00945,0.00273,-0.0804
0.8,0.5586,0.00953,0.00274,-0.0803
0.9,0.5704,0.00961,0.00277,-0.0803
1,0.5821,0.0097,0.0028,-0.0803
1.1,0.5939,0.00978,0.00283,-0.0802
1.2,0.6056,0.00988,0.00286,-0.0802
1.3,0.6174,0.00996,0.0029,-0.0802
1.4,0.629,0.01007,0.00294,-0.0801
1.5,0.6402,0.01021,0.00299,-0.08
1.6,0.6519,0.0103,0.00302,-0.08
1.7,0.6635,0.01041,0.00307,-0.0799
1.8,0.675,0.01052,0.00312,-0.0799
1.9,0.6866,0.01063,0.00317,-0.0799
2,0.6981,0.01075,0.00323,-0.0798
2.1,0.7095,0.01087,0.00329,-0.0797
2.2,0.7209,0.01099,0.00334,-0.0797
2.3,0.7323,0.01112,0.00341,-0.0796
2.4,0.743,0.01132,0.00348,-0.0795
2.5,0.7543,0.01146,0.00356,-0.0794
2.6,0.7655,0.0116,0.00363,-0.0794
2.7,0.7767,0.01175,0.00371,-0.0793
2.8,0.7879,0.01191,0.0038,-0.0792
2.9,0.7991,0.01205,0.00387,-0.0792
3,0.8104,0.0122,0.00396,-0.0791
3.1,0.8216,0.01235,0.00406,-0.079
3.2,0.8329,0.01249,0.00414,-0.079
3.3,0.8438,0.01269,0.00425,-0.0789
3.4,0.8551,0.01282,0.00434,-0.0789
3.5,0.8663,0.01297,0.00445,-0.0788
3.6,0.8778,0.01309,0.00454,-0.0788
3.7,0.8892,0.01322,0.00463,-0.0787
3.8,0.9005,0.01336,0.00473,-0.0787
3.9,0.9118,0.0135,0.00484,-0.0786
4,0.9233,0.01361,0.00495,-0.0786
4.1,0.9347,0.01373,0.00505,-0.0785
4.2,0.9456,0.01391,0.00517,-0.0784
4.3,0.9571,0.01403,0.00528,-0.0784
4.4,0.9685,0.01414,0.00538,-0.0783
4.5,0.9799,0.01426,0.00548,-0.0783
4.6,0.9912,0.0144,0.00559,-0.0782
4.7,1.0024,0.01454,0.00571,-0.0781
4.8,1.0137,0.01467,0.00583,-0.078
4.9,1.0252,0.01478,0.00594,-0.078
5,1.0365,0.0149,0.00606,-0.0779
5.1,1.0478,0.01503,0.00618,-0.0778
5.2,1.0587,0.01519,0.0063,-0.0777
5.3,1.0699,0.01533,0.00643,-0.0776
5.4,1.0813,0.01544,0.00655,-0.0776
5.5,1.0926,0.01556,0.00667,-0.0775
5.6,1.1039,0.01569,0.00679,-0.0774
5.7,1.115,0.01583,0.00692,-0.0773
5.8,1.126,0.01597,0.00705,-0.0772
5.9,1.1369,0.01614,0.00719,-0.0771
6,1.1482,0.01625,0.00733,-0.077
6.1,1.1594,0.01638,0.00747,-0.0769
6.2,1.1706,0.01651,0.0076,-0.0768
6.3,1.1815,0.01665,0.00773,-0.0766
6.4,1.1924,0.0168,0.00787,-0.0765
6.5,1.2031,0.01697,0.00802,-0.0763
6.6,1.2142,0.01711,0.00817,-0.0762
6.7,1.2253,0.01724,0.00831,-0.0761
6.8,1.2363,0.01737,0.00846,-0.076
6.9,1.2473,0.01752,0.00863,-0.0758
7,1.2581,0.01767,0.00878,-0.0756
7.1,1.2688,0.01783,0.00894,-0.0755
7.2,1.2794,0.018,0.0091,-0.0753
7.3,1.2898,0.01819,0.00927,-0.0751
7.4,1.301,0.01829,0.00941,-0.075
7.5,1.3118,0.01844,0.00958,-0.0748
7.6,1.3225,0.0186,0.00975,-0.0746
7.7,1.3331,0.01876,0.00992,-0.0744
7.9,1.3538,0.01912,0.01029,-0.074
8,1.3639,0.01932,0.01047,-0.0737
8.1,1.3747,0.01947,0.01066,-0.0735
8.2,1.3853,0.01963,0.01085,-0.0733
8.3,1.3958,0.01979,0.01104,-0.0731
8.4,1.4062,0.01997,0.01123,-0.0728
8.5,1.4163,0.02014,0.0114,-0.0726
8.6,1.4263,0.02033,0.01159,-0.0723
8.7,1.4361,0.02054,0.0118,-0.072
8.8,1.4459,0.02075,0.01201,-0.0717
8.9,1.4563,0.02091,0.01223,-0.0714
9,1.4665,0.02109,0.01245,-0.0711
9.1,1.4766,0.02127,0.01267,-0.0709
9.2,1.4865,0.02147,0.01288,-0.0705
9.3,1.4962,0.02167,0.01311,-0.0702
9.4,1.5058,0.02188,0.01333,-0.0699
9.5,1.5152,0.0221,0.01356,-0.0695
9.6,1.5243,0.02233,0.0138,-0.0691
9.7,1.5336,0.02253,0.01401,-0.0687
9.8,1.5433,0.02273,0.01425,-0.0683
9.9,1.5528,0.02294,0.0145,-0.068
10,1.562,0.02315,0.01477,-0.0676
10.1,1.5711,0.02337,0.01502,-0.0671
10.2,1.58,0.02361,0.01528,-0.0667
10.3,1.5886,0.02384,0.01554,-0.0662
10.4,1.597,0.0241,0.0158,-0.0657
10.5,1.6049,0.02436,0.01608,-0.0651
10.6,1.6125,0.02465,0.01636,-0.0645
10.7,1.6214,0.02487,0.01665,-0.0641
10.8,1.6299,0.02511,0.01694,-0.0635
10.9,1.6382,0.02535,0.01724,-0.063
11,1.6461,0.02557,0.01749,-0.0624
11.1,1.6536,0.02583,0.01779,-0.0618
11.2,1.6607,0.0261,0.01809,-0.0611
11.3,1.6675,0.02639,0.01842,-0.0604
11.4,1.6738,0.02669,0.01874,-0.0596
11.5,1.6788,0.02699,0.01906,-0.0586
11.6,1.6831,0.02732,0.01941,-0.0576
11.7,1.6893,0.02761,0.01975,-0.0568
11.8,1.6954,0.0279,0.02011,-0.056
11.9,1.7013,0.02821,0.02048,-0.0551
12,1.7069,0.02853,0.02086,-0.0543
12.1,1.7124,0.02887,0.02125,-0.0535
12.2,1.7176,0.02921,0.02164,-0.0527
12.3,1.7227,0.02957,0.02205,-0.0519
12.4,1.7275,0.02995,0.02246,-0.0512
12.5,1.7315,0.03032,0.02284,-0.0504
12.6,1.7356,0.03073,0.02329,-0.0496
12.7,1.7393,0.03118,0.02376,-0.0489
12.8,1.7432,0.03164,0.02424,-0.0482
12.9,1.7487,0.03203,0.02472,-0.0476
13,1.7538,0.03245,0.02524,-0.047
13.1,1.7587,0.03289,0.02575,-0.0465
13.2,1.7634,0.03335,0.02627,-0.046
13.3,1.7679,0.03382,0.0268,-0.0455
13.4,1.7721,0.03431,0.02735,-0.045
13.5,1.7762,0.03481,0.02791,-0.0446
13.6,1.7801,0.03534,0.0285,-0.0442
13.7,1.7838,0.03588,0.02909,-0.0439
13.8,1.7874,0.03645,0.02971,-0.0436
13.9,1.7907,0.03705,0.03035,-0.0434
14,1.7939,0.03767,0.03102,-0.0433
14.1,1.7968,0.03833,0.03171,-0.0432
14.2,1.7995,0.03903,0.03244,-0.0432
14.3,1.8047,0.03956,0.03308,-0.0432
14.4,1.8087,0.0402,0.03381,-0.0433
14.5,1.8126,0.04087,0.03455,-0.0434
14.6,1.8164,0.04156,0.03532,-0.0436
14.7,1.8201,0.04227,0.03611,-0.0439
14.8,1.8238,0.043,0.03691,-0.0443
14.9,1.8273,0.04377,0.03775,-0.0447
15,1.8311,0.04451,0.03853,-0.0456
15.1,1.8344,0.04535,0.03942,-0.0463
15.2,1.8375,0.04622,0.04035,-0.0472
15.3,1.8405,0.04715,0.04132,-0.0482
15.4,1.8433,0.04811,0.04232,-0.0493
15.5,1.8474,0.04898,0.0433,-0.0501
15.6,1.8512,0.04989,0.04432,-0.0511
15.7,1.8549,0.05085,0.04537,-0.0523
15.8,1.8584,0.05185,0.04647,-0.0535
15.9,1.8618,0.05289,0.04761,-0.0549
16,1.8651,0.05397,0.04878,-0.0564
16.1,1.8682,0.0551,0.04999,-0.058
16.2,1.8722,0.05626,0.05121,-0.0601
16.3,1.8749,0.05752,0.05254,-0.0621
16.4,1.8773,0.05895,0.05399,-0.0646
16.5,1.8792,0.06039,0.0555,-0.067
16.6,1.8811,0.06184,0.05702,-0.0692
16.7,1.8831,0.0633,0.0586,-0.0714
16.8,1.8848,0.06484,0.06026,-0.0737
16.9,1.886,0.06647,0.062,-0.0762
17,1.8868,0.0682,0.06384,-0.0788
17.1,1.887,0.07004,0.06579,-0.0816
17.2,1.8868,0.07199,0.06784,-0.0845
17.3,1.8861,0.07405,0.07,-0.0876
17.4,1.8849,0.07622,0.07227,-0.0908
17.5,1.8832,0.0785,0.07465,-0.0941
17.6,1.881,0.08092,0.07716,-0.0976
17.7,1.8784,0.08342,0.07975,-0.1011
17.8,1.8755,0.086,0.08241,-0.1048
17.9,1.8723,0.08884,0.08529,-0.1088
18,1.8692,0.09139,0.0879,-0.1124
18.1,1.8664,0.0938,0.09037,-0.1157
18.3,1.8555,0.10003,0.0968,-0.1238
18.6,1.8261,0.11258,0.1097,-0.1397
18.7,1.8091,0.1187,0.11595,-0.1472
18.9,1.7555,0.13731,0.13482,-0.1681
19,1.7546,0.13951,0.13703,-0.1707
19.1,1.7566,0.14078,0.13833,-0.1724
19.2,1.76,0.14164,0.13919,-0.1737
19.4,1.7441,0.15099,0.14858,-0.1837
19.5,1.7704,0.14422,0.14177,-0.1778
20.1,1.7474,0.16534,0.16307,-0.1998
20.2,1.7524,0.16565,0.16339,-0.2006
20.3,1.7578,0.1658,0.16355,-0.2013
20.9,1.7522,0.18383,0.18169,-0.2192
21,1.7568,0.18424,0.18211,-0.2201
21.4,1.7536,0.19833,0.19626,-0.233
21.5,1.7575,0.19909,0.19704,-0.2342
21.6,1.7617,0.19972,0.1977,-0.2353
22,1.7649,0.21167,0.20971,-0.2462

