airfoilName st10.dat
Re 	270000
M 	2.500000e-01
N 	4.500000e+00
VACC 	0 VACCflag 1
XTR 	1.00 	1.00 XTRflag 0
alpha,cl,cd,cdp,cm
-30,-1.7147,0.44351,0.44082,0.3328
-29.9,-1.7115,0.44141,0.43872,0.3307
-29.8,-1.7083,0.43935,0.43665,0.3285
-29.7,-1.705,0.43727,0.43457,0.3264
-29.6,-1.7017,0.43521,0.4325,0.3243
-29.5,-1.6985,0.43314,0.43044,0.3222
-29.4,-1.6952,0.43109,0.42838,0.3201
-29.3,-1.6918,0.42903,0.42632,0.318
-29.2,-1.6885,0.42699,0.42427,0.3159
-29.1,-1.6851,0.42495,0.42222,0.3138
-29,-1.6818,0.4229,0.42018,0.3117
-28.9,-1.6784,0.42087,0.41814,0.3096
-28.8,-1.6749,0.41884,0.41611,0.3075
-28.7,-1.6715,0.41682,0.41409,0.3054
-28.6,-1.668,0.4148,0.41206,0.3034
-28.5,-1.6646,0.41278,0.41003,0.3013
-28.4,-1.6611,0.41078,0.40803,0.2992
-28.3,-1.6575,0.40878,0.40603,0.2971
-28.2,-1.654,0.40678,0.40401,0.2951
-28.1,-1.6504,0.40479,0.40203,0.293
-28,-1.6469,0.40281,0.40004,0.2909
-27.9,-1.6433,0.40083,0.39806,0.2889
-27.8,-1.6396,0.39886,0.39608,0.2868
-27.7,-1.636,0.3969,0.39412,0.2847
-27.6,-1.6323,0.39494,0.39216,0.2826
-27.5,-1.6286,0.39299,0.39021,0.2806
-27.4,-1.6249,0.39105,0.38826,0.2785
-27.3,-1.6211,0.38911,0.38632,0.2764
-27.2,-1.6174,0.38718,0.38439,0.2743
-27.1,-1.6135,0.38526,0.38246,0.2722
-27,-1.6097,0.38333,0.38053,0.2701
-26.9,-1.6057,0.38142,0.37862,0.2679
-26.8,-1.6018,0.37951,0.3767,0.2657
-26.6,-1.5872,0.37202,0.36922,0.2584
-26.5,-1.584,0.37019,0.36739,0.2566
-26.4,-1.5804,0.36817,0.36536,0.2547
-26.3,-1.5768,0.36615,0.36334,0.2529
-26.2,-1.5732,0.36414,0.36133,0.251
-26.1,-1.5696,0.36215,0.35934,0.2492
-26,-1.5659,0.36017,0.35736,0.2474
-25.9,-1.5622,0.35821,0.35539,0.2455
-25.8,-1.5585,0.35625,0.35341,0.2437
-25.7,-1.5548,0.35429,0.35146,0.2419
-25.6,-1.5511,0.35235,0.34952,0.2401
-25.5,-1.5474,0.35043,0.34759,0.2382
-25.4,-1.5436,0.3485,0.34566,0.2364
-25.3,-1.5398,0.34658,0.34374,0.2346
-25.2,-1.536,0.34467,0.34183,0.2328
-25.1,-1.5322,0.34277,0.33992,0.231
-25,-1.5284,0.34088,0.33802,0.2292
-24.9,-1.5245,0.33898,0.33612,0.2275
-24.8,-1.5207,0.3371,0.33424,0.2257
-24.7,-1.5168,0.33521,0.33235,0.2239
-24.6,-1.5129,0.33334,0.33048,0.2221
-24.5,-1.5091,0.33147,0.32861,0.2204
-24.4,-1.5051,0.32961,0.32674,0.2186
-24.3,-1.5012,0.32774,0.32487,0.2169
-24.2,-1.4973,0.32589,0.32302,0.2151
-24.1,-1.4933,0.32403,0.32116,0.2134
-24,-1.4894,0.32219,0.31932,0.2117
-23.9,-1.4854,0.32035,0.31747,0.2099
-23.8,-1.4814,0.31851,0.31563,0.2082
-23.7,-1.4774,0.31667,0.31378,0.2065
-23.6,-1.4734,0.31484,0.31194,0.2048
-23.5,-1.4694,0.31301,0.31011,0.2031
-23.4,-1.4653,0.31118,0.30828,0.2014
-23.3,-1.4613,0.30936,0.30645,0.1997
-23.2,-1.4572,0.30753,0.30463,0.198
-23.1,-1.4531,0.30572,0.30281,0.1964
-23,-1.4491,0.3039,0.30099,0.1947
-22.9,-1.445,0.30208,0.29917,0.193
-22.8,-1.4408,0.30027,0.29736,0.1914
-22.7,-1.4367,0.29846,0.29555,0.1897
-22.6,-1.4325,0.29665,0.29373,0.1881
-22.5,-1.4284,0.29483,0.29191,0.1864
-22.4,-1.4242,0.29303,0.29011,0.1848
-22.3,-1.42,0.29122,0.2883,0.1831
-22.2,-1.4158,0.28941,0.28649,0.1815
-22.1,-1.4115,0.28761,0.28468,0.1799
-22,-1.4073,0.28581,0.28288,0.1783
-21.9,-1.4031,0.28401,0.28108,0.1766
-21.8,-1.3988,0.2822,0.27927,0.175
-21.7,-1.3945,0.2804,0.27747,0.1734
-21.6,-1.3902,0.2786,0.27567,0.1718
-21.5,-1.3859,0.2768,0.27385,0.1702
-21.4,-1.3816,0.275,0.27205,0.1686
-21.3,-1.3773,0.2732,0.27025,0.167
-21.2,-1.3729,0.27139,0.26844,0.1655
-21.1,-1.3686,0.2696,0.26664,0.1639
-21,-1.3642,0.26779,0.26484,0.1623
-20.9,-1.3598,0.26599,0.26303,0.1607
-20.8,-1.3554,0.26418,0.26122,0.1592
-20.7,-1.3509,0.26236,0.2594,0.1576
-20.6,-1.3465,0.26054,0.25758,0.156
-20.5,-1.342,0.25872,0.25576,0.1545
-20.4,-1.3375,0.2569,0.25393,0.1529
-20.3,-1.333,0.25506,0.2521,0.1513
-20.2,-1.3284,0.25322,0.25025,0.1498
-20.1,-1.3233,0.25131,0.24834,0.1479
-20,-1.3187,0.2494,0.24643,0.1464
-19.9,-1.314,0.24748,0.2445,0.1448
-19.8,-1.3094,0.24553,0.24256,0.1432
-19.7,-1.3046,0.24355,0.24057,0.1417
-19.6,-1.2999,0.24155,0.23857,0.1401
-19.5,-1.295,0.23948,0.2365,0.1385
-19.4,-1.2901,0.23737,0.23439,0.1369
-19.2,-1.2725,0.22867,0.22569,0.1314
-19.1,-1.2684,0.22692,0.22394,0.13
-19,-1.2643,0.22518,0.2222,0.1287
-18.9,-1.2601,0.22346,0.22047,0.1274
-18.8,-1.2559,0.22174,0.21875,0.126
-18.7,-1.2517,0.22003,0.21703,0.1247
-18.6,-1.2474,0.21832,0.21533,0.1233
-18.5,-1.2431,0.21663,0.21364,0.122
-18.4,-1.2388,0.21495,0.21195,0.1207
-18.3,-1.2344,0.21327,0.21028,0.1193
-18.2,-1.23,0.21161,0.20861,0.118
-18.1,-1.2256,0.20995,0.20695,0.1167
-18,-1.2212,0.20829,0.20529,0.1153
-17.9,-1.2167,0.20665,0.20365,0.114
-17.8,-1.2122,0.20501,0.20201,0.1127
-17.7,-1.2076,0.20338,0.20037,0.1113
-17.6,-1.2031,0.20175,0.19875,0.11
-17.5,-1.1985,0.20013,0.19713,0.1087
-17.4,-1.1938,0.19851,0.19551,0.1074
-17.3,-1.1892,0.1969,0.1939,0.106
-17.2,-1.1845,0.1953,0.1923,0.1047
-17.1,-1.1798,0.1937,0.1907,0.1034
-17,-1.1751,0.19211,0.1891,0.1021
-16.9,-1.1703,0.19052,0.18752,0.1008
-16.8,-1.1655,0.18894,0.18594,0.0995
-16.7,-1.1607,0.18736,0.18436,0.0982
-16.6,-1.1559,0.18579,0.18277,0.0969
-16.5,-1.151,0.18422,0.1812,0.0956
-16.4,-1.1461,0.18265,0.17963,0.0942
-16.3,-1.1411,0.18109,0.17807,0.0929
-16.2,-1.1362,0.17953,0.17651,0.0916
-16.1,-1.1312,0.17797,0.17496,0.0903
-16,-1.1262,0.17642,0.1734,0.089
-15.9,-1.1211,0.17487,0.17185,0.0877
-15.8,-1.116,0.17333,0.17031,0.0864
-15.7,-1.1109,0.17179,0.16878,0.0851
-15.6,-1.1058,0.17026,0.16724,0.0838
-15.5,-1.1007,0.16873,0.16571,0.0826
-15.4,-1.0955,0.1672,0.16419,0.0813
-15.3,-1.0903,0.16568,0.16267,0.08
-15.2,-1.0851,0.16416,0.16115,0.0787
-15.1,-1.0798,0.16265,0.15964,0.0774
-15,-1.0746,0.16114,0.15814,0.0761
-14.9,-1.0689,0.15979,0.15678,0.0747
-14.8,-1.0635,0.15828,0.15527,0.0735
-14.7,-1.0582,0.15677,0.15377,0.0722
-14.6,-1.0528,0.15526,0.15226,0.0709
-14.5,-1.0473,0.15376,0.15076,0.0696
-14.4,-1.0418,0.15226,0.14926,0.0683
-14.3,-1.0363,0.15076,0.14776,0.067
-14.2,-1.0308,0.14927,0.14626,0.0658
-14.1,-1.0252,0.14778,0.14478,0.0645
-14,-1.0196,0.1463,0.14329,0.0632
-13.9,-1.014,0.14482,0.14181,0.0619
-13.8,-1.0083,0.14334,0.14034,0.0606
-13.7,-1.0026,0.14187,0.13887,0.0593
-13.6,-0.9969,0.1404,0.1374,0.058
-13.5,-0.9911,0.13893,0.13594,0.0567
-13.4,-0.9853,0.13747,0.13447,0.0554
-13.3,-0.9795,0.13601,0.13301,0.0541
-13.2,-0.9736,0.13454,0.13155,0.0528
-13.1,-0.9676,0.13307,0.13008,0.0515
-13,-0.9616,0.1316,0.12861,0.0502
-12.9,-0.9555,0.13013,0.12715,0.0489
-12.8,-0.9494,0.12866,0.12568,0.0475
-12.7,-0.9433,0.12718,0.1242,0.0462
-12.6,-0.9371,0.1257,0.12272,0.0448
-12.5,-0.9308,0.12421,0.12123,0.0435
-12.4,-0.9245,0.12272,0.11974,0.0421
-12.3,-0.9181,0.12119,0.11822,0.0407
-12.2,-0.9117,0.11964,0.11667,0.0393
-12.1,-0.9051,0.11804,0.11507,0.0378
-12,-0.8984,0.11642,0.11345,0.0363
-11.9,-0.8916,0.11465,0.11169,0.0347
-11.8,-0.8845,0.11275,0.10978,0.033
-11.7,-0.873,0.10816,0.10521,0.0292
-11.6,-0.8671,0.10694,0.10399,0.028
-11.5,-0.861,0.10573,0.10279,0.0267
-11.4,-0.8547,0.10453,0.10158,0.0254
-11.3,-0.8484,0.10335,0.10041,0.0241
-11.2,-0.8419,0.10219,0.09925,0.0228
-11.1,-0.8354,0.10103,0.09809,0.0215
-11,-0.8287,0.09989,0.09696,0.0201
-10.9,-0.8219,0.09875,0.09583,0.0188
-10.8,-0.8151,0.09762,0.0947,0.0174
-10.7,-0.8081,0.0965,0.09358,0.016
-10.6,-0.8011,0.09538,0.09247,0.0146
-10.5,-0.794,0.09427,0.09136,0.0132
-10.4,-0.7868,0.09315,0.09025,0.0117
-10.3,-0.7796,0.09204,0.08915,0.0103
-10.2,-0.7722,0.09094,0.08805,0.0088
-10.1,-0.7649,0.08984,0.08695,0.0073
-10,-0.7575,0.08874,0.08586,0.0059
-9.9,-0.7501,0.08765,0.08477,0.0044
-9.8,-0.7427,0.08656,0.08368,0.0029
-9.7,-0.7354,0.08547,0.0826,0.0014
-9.6,-0.728,0.08439,0.08153,-0.0002
-9.5,-0.7207,0.08331,0.08046,-0.0017
-8.2,-0.5655,0.05412,0.05106,-0.045
-8.1,-0.549,0.05253,0.04943,-0.0483
-8,-0.533,0.05087,0.04774,-0.0514
-7.9,-0.5155,0.04904,0.04585,-0.0548
-7.8,-0.4981,0.04702,0.04376,-0.0583
-7.4,-0.425,0.02902,0.02462,-0.078
-7.2,-0.3998,0.02563,0.02075,-0.0805
-7.1,-0.3869,0.0243,0.01919,-0.0814
-7,-0.3738,0.0231,0.01778,-0.0822
-6.9,-0.3598,0.022,0.01646,-0.083
-6.8,-0.3476,0.02107,0.01533,-0.0834
-6.7,-0.3352,0.02023,0.01428,-0.0837
-6.6,-0.3221,0.01949,0.01333,-0.084
-6.5,-0.309,0.01889,0.01259,-0.0843
-6.4,-0.2959,0.01839,0.01203,-0.0847
-6.3,-0.2828,0.01799,0.01159,-0.085
-6.2,-0.2708,0.01765,0.0112,-0.085
-6.1,-0.2582,0.01732,0.01083,-0.0852
-6,-0.2454,0.01701,0.01047,-0.0854
-5.9,-0.2325,0.0167,0.0101,-0.0855
-5.8,-0.22,0.01639,0.00973,-0.0856
-5.7,-0.2077,0.01609,0.00937,-0.0856
-5.6,-0.1953,0.01579,0.00901,-0.0857
-5.5,-0.1828,0.01549,0.00864,-0.0857
-5.4,-0.1702,0.0152,0.00827,-0.0857
-5.3,-0.1581,0.01493,0.00791,-0.0857
-5.2,-0.1459,0.01469,0.00759,-0.0856
-5.1,-0.1337,0.01443,0.00733,-0.0857
-5,-0.1214,0.01422,0.0071,-0.0857
-4.9,-0.1094,0.01404,0.0069,-0.0856
-4.7,-0.0852,0.01385,0.00666,-0.0855
-4.6,-0.0729,0.01366,0.00641,-0.0855
-4.5,-0.0611,0.01349,0.00617,-0.0853
-4.4,-0.049,0.01328,0.00596,-0.0853
-4.3,-0.0369,0.01311,0.00578,-0.0853
-4.2,-0.0248,0.01297,0.00561,-0.0852
-4.1,-0.0127,0.01283,0.00545,-0.0852
-4,-0.0006,0.01269,0.00528,-0.0851
-3.9,0.0112,0.01257,0.00511,-0.085
-3.8,0.0232,0.01249,0.00503,-0.0849
-3.7,0.0354,0.01235,0.00489,-0.0849
-3.6,0.0474,0.01224,0.00475,-0.0849
-3.5,0.0595,0.01213,0.00461,-0.0848
-3.4,0.0716,0.01203,0.00448,-0.0847
-3.3,0.0835,0.01195,0.00435,-0.0846
-3.2,0.0955,0.01183,0.00423,-0.0845
-3.1,0.1075,0.01175,0.00416,-0.0845
-3,0.1197,0.01167,0.00405,-0.0845
-2.9,0.1318,0.0116,0.00394,-0.0844
-2.8,0.1436,0.01151,0.00385,-0.0843
-2.7,0.1558,0.01143,0.00376,-0.0843
-2.6,0.1672,0.01139,0.00367,-0.0841
-2.5,0.1792,0.01132,0.0036,-0.0841
-2.4,0.1909,0.01127,0.00353,-0.0839
-2.3,0.2027,0.01123,0.00345,-0.0838
-2.2,0.2146,0.01119,0.00337,-0.0837
-2.1,0.2267,0.01113,0.00332,-0.0837
-2,0.2383,0.0111,0.00326,-0.0836
-1.9,0.2504,0.01104,0.00322,-0.0836
-1.8,0.2624,0.01102,0.00316,-0.0836
-1.7,0.2745,0.01096,0.00312,-0.0836
-1.6,0.2861,0.01096,0.00308,-0.0834
-1.5,0.2977,0.01093,0.00304,-0.0834
-1.4,0.3097,0.01089,0.00301,-0.0834
-1.3,0.3218,0.01087,0.00297,-0.0834
-1.2,0.3337,0.01084,0.00295,-0.0834
-1.1,0.3457,0.01079,0.00293,-0.0834
-1,0.3575,0.01078,0.0029,-0.0834
-0.9,0.369,0.01079,0.00288,-0.0833
-0.8,0.3808,0.01079,0.00285,-0.0832
-0.7,0.3924,0.01075,0.00285,-0.0832
-0.6,0.4043,0.01075,0.00283,-0.0832
-0.5,0.4162,0.01073,0.00281,-0.0832
-0.4,0.4279,0.01067,0.00281,-0.0832
-0.3,0.4398,0.01064,0.0028,-0.0833
-0.2,0.4513,0.01065,0.0028,-0.0832
-0.1,0.4631,0.01061,0.00279,-0.0832
0,0.4747,0.01048,0.00281,-0.0833
0.1,0.4863,0.0104,0.0028,-0.0834
0.2,0.4979,0.0103,0.00281,-0.0834
0.3,0.5092,0.01015,0.00281,-0.0833
0.4,0.5079,0.00908,0.0027,-0.0798
0.5,0.5234,0.00907,0.00262,-0.0805
0.6,0.5349,0.00919,0.00265,-0.0804
0.7,0.5466,0.00928,0.00267,-0.0804
0.8,0.5585,0.00935,0.00269,-0.0803
0.9,0.5703,0.00944,0.00272,-0.0803
1,0.5822,0.00952,0.00275,-0.0803
1.1,0.5939,0.00961,0.00278,-0.0803
1.2,0.6057,0.00969,0.00281,-0.0803
1.3,0.6174,0.00979,0.00285,-0.0802
1.4,0.6287,0.00993,0.00289,-0.0801
1.5,0.6403,0.01003,0.00293,-0.0801
1.6,0.652,0.01013,0.00297,-0.0801
1.7,0.6635,0.01024,0.00302,-0.08
1.8,0.6752,0.01034,0.00306,-0.08
1.9,0.6867,0.01046,0.00312,-0.0799
2,0.6982,0.01058,0.00318,-0.0799
2.1,0.7096,0.0107,0.00323,-0.0798
2.2,0.7211,0.01082,0.00329,-0.0798
2.3,0.7318,0.01102,0.00337,-0.0797
2.4,0.7432,0.01116,0.00344,-0.0796
2.5,0.7545,0.0113,0.00351,-0.0796
2.6,0.7657,0.01144,0.00359,-0.0795
2.7,0.777,0.01159,0.00367,-0.0794
2.8,0.7882,0.01174,0.00374,-0.0794
2.9,0.7995,0.01188,0.00383,-0.0793
3,0.8108,0.01203,0.00392,-0.0793
3.1,0.8221,0.01217,0.004,-0.0792
3.2,0.8331,0.01236,0.00411,-0.0792
3.3,0.8444,0.0125,0.00419,-0.0791
3.4,0.8558,0.01263,0.00429,-0.0791
3.5,0.8673,0.01275,0.00438,-0.079
3.6,0.8787,0.01288,0.00447,-0.079
3.7,0.89,0.01302,0.00457,-0.079
3.8,0.9015,0.01314,0.00467,-0.0789
3.9,0.9131,0.01325,0.00476,-0.0789
4,0.9245,0.01337,0.00487,-0.0788
4.1,0.9354,0.01355,0.00499,-0.0787
4.2,0.947,0.01365,0.00508,-0.0787
4.3,0.9585,0.01376,0.00518,-0.0787
4.4,0.97,0.01388,0.00528,-0.0786
4.5,0.9813,0.01401,0.00538,-0.0786
4.6,0.9925,0.01415,0.0055,-0.0785
4.7,1.004,0.01426,0.0056,-0.0784
4.8,1.0155,0.01437,0.00571,-0.0784
4.9,1.0269,0.01448,0.00581,-0.0783
5,1.0382,0.01461,0.00594,-0.0783
5.1,1.0491,0.01478,0.00606,-0.0782
5.2,1.0605,0.01489,0.00617,-0.0781
5.3,1.0719,0.015,0.00628,-0.078
5.4,1.0833,0.01512,0.0064,-0.0779
5.5,1.0945,0.01524,0.00652,-0.0779
5.6,1.1057,0.01538,0.00664,-0.0778
5.7,1.1167,0.01552,0.00676,-0.0777
5.8,1.1278,0.01566,0.0069,-0.0776
5.9,1.1392,0.01577,0.00702,-0.0775
6,1.1505,0.01589,0.00716,-0.0774
6.1,1.1617,0.01602,0.00729,-0.0773
6.2,1.1726,0.01617,0.00741,-0.0772
6.3,1.1835,0.01632,0.00755,-0.077
6.4,1.1944,0.01648,0.00769,-0.0769
6.5,1.2057,0.01659,0.00783,-0.0768
6.6,1.2168,0.01672,0.00796,-0.0767
6.7,1.2279,0.01685,0.0081,-0.0765
6.8,1.2389,0.01699,0.00825,-0.0764
6.9,1.2498,0.01714,0.00841,-0.0763
7,1.2605,0.0173,0.00856,-0.0761
7.1,1.2711,0.01747,0.00872,-0.0759
7.2,1.282,0.01762,0.00888,-0.0757
7.3,1.2931,0.01773,0.00901,-0.0756
7.4,1.3039,0.01788,0.00917,-0.0755
7.5,1.3147,0.01803,0.00933,-0.0753
7.6,1.3253,0.01819,0.00949,-0.0751
7.7,1.3358,0.01836,0.00966,-0.0749
7.8,1.3462,0.01855,0.00985,-0.0747
7.9,1.3567,0.01872,0.01003,-0.0744
8,1.3675,0.01886,0.0102,-0.0743
8.1,1.3782,0.01901,0.01038,-0.0741
8.2,1.3887,0.01917,0.01056,-0.0738
8.3,1.3992,0.01934,0.01074,-0.0736
8.4,1.4093,0.01951,0.0109,-0.0734
8.5,1.4194,0.0197,0.01109,-0.0731
8.6,1.4293,0.01991,0.01129,-0.0728
8.7,1.4396,0.02007,0.01149,-0.0725
8.8,1.4501,0.02024,0.0117,-0.0723
8.9,1.4603,0.02041,0.0119,-0.072
9,1.4705,0.02059,0.01211,-0.0717
9.1,1.4805,0.02078,0.01231,-0.0714
9.2,1.4903,0.02097,0.01252,-0.0711
9.3,1.5,0.02117,0.01274,-0.0708
9.4,1.5094,0.02139,0.01296,-0.0704
9.5,1.5186,0.02162,0.01319,-0.07
9.6,1.5286,0.02178,0.01339,-0.0697
9.7,1.5384,0.02198,0.01362,-0.0694
9.8,1.548,0.02218,0.01386,-0.069
9.9,1.5574,0.02239,0.01409,-0.0686
10,1.5666,0.0226,0.01435,-0.0682
10.1,1.5756,0.02283,0.01459,-0.0678
10.2,1.5844,0.02306,0.01484,-0.0673
10.3,1.5929,0.02331,0.0151,-0.0668
10.4,1.601,0.02357,0.01537,-0.0663
10.5,1.6098,0.0238,0.01564,-0.0658
10.6,1.6187,0.02402,0.01591,-0.0653
10.7,1.6274,0.02425,0.01618,-0.0648
10.8,1.6359,0.02445,0.01642,-0.0643
10.9,1.6439,0.0247,0.0167,-0.0638
11,1.6517,0.02495,0.01698,-0.0632
11.1,1.659,0.02522,0.01727,-0.0625
11.2,1.666,0.0255,0.01759,-0.0618
11.3,1.6726,0.02579,0.0179,-0.0611
11.4,1.6785,0.02611,0.01822,-0.0603
11.5,1.6854,0.02636,0.01853,-0.0595
11.6,1.6917,0.02662,0.01885,-0.0586
11.7,1.6977,0.0269,0.01919,-0.0578
11.8,1.7035,0.02719,0.01953,-0.0569
11.9,1.7091,0.0275,0.01989,-0.056
12,1.7145,0.02781,0.02025,-0.0552
12.1,1.7197,0.02815,0.02062,-0.0543
12.2,1.7248,0.02849,0.021,-0.0535
12.3,1.729,0.02883,0.02135,-0.0526
12.4,1.7334,0.02922,0.02177,-0.0518
12.5,1.7374,0.02963,0.02221,-0.051
12.6,1.7417,0.03005,0.02265,-0.0502
12.7,1.7475,0.03041,0.02309,-0.0496
12.8,1.7529,0.03079,0.02354,-0.0489
12.9,1.758,0.03119,0.02402,-0.0483
13,1.7629,0.0316,0.0245,-0.0477
13.1,1.7677,0.03204,0.02499,-0.0471
13.2,1.7722,0.03249,0.02549,-0.0466
13.3,1.7765,0.03295,0.02601,-0.0461
13.4,1.7806,0.03344,0.02655,-0.0456
13.5,1.7845,0.03394,0.0271,-0.0451
13.6,1.7882,0.03447,0.02767,-0.0447
13.7,1.7917,0.03502,0.02827,-0.0443
13.8,1.7949,0.03561,0.02889,-0.0441
13.9,1.7979,0.03622,0.02954,-0.0438
14,1.8008,0.03687,0.03022,-0.0437
14.1,1.8067,0.03732,0.03079,-0.0435
14.2,1.8109,0.03791,0.03145,-0.0434
14.3,1.8149,0.03852,0.03213,-0.0434
14.4,1.8188,0.03915,0.03284,-0.0434
14.5,1.8227,0.03981,0.03356,-0.0435
14.6,1.8264,0.04048,0.03431,-0.0436
14.7,1.8303,0.04114,0.03498,-0.0441
14.8,1.8336,0.04189,0.03579,-0.0445
14.9,1.8368,0.04267,0.03664,-0.045
15,1.8399,0.0435,0.03751,-0.0456
15.1,1.8427,0.04438,0.03843,-0.0463
15.2,1.8463,0.04521,0.03933,-0.047
15.3,1.8505,0.046,0.04022,-0.0477
15.4,1.8545,0.04683,0.04115,-0.0485
15.5,1.8584,0.0477,0.04211,-0.0493
15.6,1.8622,0.0486,0.0431,-0.0503
15.7,1.8658,0.04954,0.04412,-0.0514
15.8,1.8704,0.05045,0.04509,-0.0528
15.9,1.8737,0.05149,0.0462,-0.0542
16,1.8769,0.05258,0.04736,-0.0558
16.1,1.88,0.05373,0.04858,-0.0575
16.2,1.8823,0.05508,0.04995,-0.0598
16.3,1.8846,0.0564,0.05133,-0.0618
16.4,1.8879,0.05758,0.05262,-0.0635
16.5,1.8908,0.05884,0.05399,-0.0653
16.6,1.8934,0.06017,0.05542,-0.0673
16.7,1.8955,0.06158,0.05694,-0.0694
16.8,1.8974,0.06308,0.05853,-0.0716
16.9,1.8988,0.06466,0.06022,-0.0741
17,1.8999,0.06633,0.06198,-0.0766
17.1,1.9006,0.06809,0.06384,-0.0793
17.2,1.9008,0.06996,0.06579,-0.0821
17.3,1.9005,0.07192,0.06785,-0.0851
17.4,1.8994,0.07427,0.07024,-0.0887
17.5,1.8979,0.0765,0.07256,-0.092
17.6,1.8958,0.07886,0.075,-0.0954
17.7,1.8934,0.08128,0.0775,-0.0989
17.8,1.8906,0.08376,0.08005,-0.1024
17.9,1.8875,0.08634,0.08273,-0.1059
18,1.8837,0.08908,0.08559,-0.1095
18.1,1.8793,0.09199,0.08861,-0.1134
18.2,1.8741,0.09504,0.09177,-0.1173
18.3,1.8683,0.09822,0.09506,-0.1215
18.4,1.8618,0.10153,0.09847,-0.1258
18.5,1.8546,0.10502,0.10205,-0.1302
18.6,1.8445,0.10936,0.1065,-0.1357
18.7,1.8361,0.11314,0.11036,-0.1405
18.8,1.8278,0.11691,0.1142,-0.1453
18.9,1.8193,0.12078,0.11814,-0.1501
19,1.8125,0.12427,0.12168,-0.1544
19.1,1.8101,0.1266,0.12404,-0.1574
19.2,1.8107,0.12815,0.1256,-0.1596
19.3,1.8134,0.12909,0.12656,-0.161
19.4,1.8176,0.12959,0.12704,-0.162
20,1.7536,0.16186,0.15966,-0.1964
20.1,1.7585,0.16223,0.16004,-0.1972
20.2,1.7644,0.16228,0.16009,-0.1978
20.3,1.7705,0.16224,0.16006,-0.1982
20.6,1.7456,0.1802,0.17811,-0.2147
20.7,1.7497,0.1809,0.17882,-0.2158
20.8,1.7541,0.18148,0.17942,-0.2168
20.9,1.7588,0.18194,0.17989,-0.2178
21,1.7635,0.18239,0.18032,-0.2187
21.5,1.762,0.19778,0.19582,-0.2333
21.6,1.7663,0.19835,0.19641,-0.2343
22.2,1.3383,0.16944,0.16766,-0.1752
22.3,1.3394,0.17032,0.16857,-0.1762
22.4,1.3409,0.17103,0.16928,-0.177
22.5,1.3427,0.17163,0.1699,-0.1779
22.6,1.3448,0.17217,0.17045,-0.1786
22.7,1.3469,0.17267,0.17097,-0.1794
22.8,1.3492,0.17312,0.17143,-0.1801
23.1,1.3408,0.18273,0.18105,-0.1841
23.2,1.3427,0.18333,0.18166,-0.1849
23.3,1.3447,0.18388,0.18223,-0.1857

