airfoilName st10.dat
Re 	8.300000e+05
M 	2.500000e-01
N 	4.500000e+00
VACC 	0 VACCflag 1
XTR 	1.00 	1.00 XTRflag 0
alpha,cl,cd,cdp,cm
-30,-1.723,0.43869,0.43737,0.3386
-29.9,-1.7198,0.43672,0.4354,0.3365
-29.8,-1.7166,0.43474,0.43342,0.3343
-29.7,-1.7135,0.43278,0.43145,0.3322
-29.6,-1.7102,0.43078,0.42945,0.3301
-29.5,-1.707,0.42882,0.42749,0.3279
-29.4,-1.7038,0.42685,0.42552,0.3258
-29.3,-1.7005,0.42487,0.42353,0.3237
-29.2,-1.6972,0.4229,0.42157,0.3216
-29.1,-1.6939,0.42093,0.41959,0.3195
-29,-1.6906,0.41894,0.4176,0.3173
-28.9,-1.6872,0.41697,0.41562,0.3152
-28.8,-1.6838,0.41498,0.41364,0.3131
-28.7,-1.6804,0.41301,0.41166,0.311
-28.6,-1.677,0.41113,0.40978,0.3089
-28.5,-1.6735,0.40913,0.40778,0.3068
-28.4,-1.67,0.40714,0.40579,0.3047
-28.3,-1.6665,0.40515,0.40379,0.3026
-28.2,-1.663,0.40314,0.40178,0.3005
-28.1,-1.6595,0.40114,0.39978,0.2984
-28,-1.6559,0.39913,0.39777,0.2963
-27.9,-1.6524,0.39711,0.39574,0.2943
-27.8,-1.6488,0.3951,0.39373,0.2922
-27.7,-1.6451,0.39306,0.39169,0.2901
-27.6,-1.6414,0.39101,0.38963,0.288
-27.5,-1.6377,0.38893,0.38756,0.2859
-27.4,-1.6339,0.38683,0.38546,0.2837
-27.3,-1.63,0.38465,0.38327,0.2815
-27.2,-1.6202,0.37793,0.37655,0.2765
-27.1,-1.6168,0.37579,0.37441,0.2746
-27,-1.6134,0.37371,0.37233,0.2727
-26.9,-1.61,0.37165,0.37027,0.2708
-26.8,-1.6065,0.36964,0.36826,0.2689
-26.7,-1.603,0.36767,0.36628,0.267
-26.6,-1.5995,0.36573,0.36434,0.2651
-26.5,-1.5959,0.36381,0.36241,0.2632
-26.4,-1.5924,0.36191,0.36051,0.2614
-26.3,-1.5888,0.36003,0.35863,0.2595
-26.2,-1.5852,0.35816,0.35676,0.2576
-26.1,-1.5816,0.35631,0.35491,0.2558
-26,-1.578,0.35448,0.35308,0.2539
-25.9,-1.5744,0.35265,0.35125,0.2521
-25.8,-1.5707,0.35083,0.34942,0.2502
-25.7,-1.567,0.34902,0.34761,0.2484
-25.6,-1.5633,0.34722,0.34581,0.2465
-25.5,-1.5596,0.34544,0.34402,0.2447
-25.4,-1.5559,0.34365,0.34223,0.2429
-25.3,-1.5522,0.34186,0.34044,0.2411
-25.2,-1.5484,0.34009,0.33867,0.2393
-25.1,-1.5446,0.3383,0.33688,0.2374
-25,-1.5408,0.33654,0.33512,0.2356
-24.9,-1.537,0.33477,0.33334,0.2338
-24.8,-1.5332,0.333,0.33157,0.2321
-24.7,-1.5294,0.33123,0.32981,0.2303
-24.6,-1.5256,0.32948,0.32805,0.2285
-24.5,-1.5217,0.32772,0.32629,0.2267
-24.4,-1.5178,0.32596,0.32453,0.2249
-24.3,-1.5139,0.32421,0.32277,0.2232
-24.2,-1.5101,0.32245,0.32102,0.2214
-24.1,-1.5061,0.3207,0.31927,0.2197
-24,-1.5022,0.31896,0.31753,0.2179
-23.9,-1.4983,0.31721,0.31577,0.2162
-23.8,-1.4944,0.31546,0.31402,0.2144
-23.7,-1.4904,0.3137,0.31226,0.2127
-23.6,-1.4864,0.31196,0.31052,0.211
-23.5,-1.4825,0.31022,0.30877,0.2093
-23.4,-1.4785,0.30846,0.30701,0.2075
-23.3,-1.4745,0.30672,0.30527,0.2058
-23.2,-1.4704,0.30496,0.30351,0.2041
-23.1,-1.4664,0.30322,0.30177,0.2024
-22.9,-1.4582,0.29989,0.29843,0.199
-22.8,-1.4541,0.29812,0.29667,0.1973
-22.7,-1.45,0.29635,0.29489,0.1956
-22.6,-1.4458,0.29458,0.29312,0.1939
-22.5,-1.4417,0.2928,0.29134,0.1922
-22.4,-1.4375,0.29103,0.28956,0.1905
-22.3,-1.4333,0.28925,0.28778,0.1889
-22.2,-1.4291,0.28746,0.286,0.1872
-22.1,-1.4249,0.28568,0.28421,0.1855
-22,-1.4207,0.28389,0.28242,0.1839
-21.9,-1.4164,0.28209,0.28063,0.1822
-21.8,-1.4122,0.28029,0.27882,0.1805
-21.7,-1.4079,0.27847,0.277,0.1789
-21.6,-1.4036,0.27665,0.27517,0.1772
-21.5,-1.3992,0.27481,0.27333,0.1755
-21.4,-1.3949,0.27295,0.27147,0.1739
-21.3,-1.3905,0.27106,0.26958,0.1722
-21.2,-1.386,0.2691,0.26762,0.1705
-21.1,-1.3815,0.26713,0.26564,0.1688
-21,-1.377,0.26508,0.26359,0.1671
-20.8,-1.361,0.25609,0.2546,0.1613
-20.7,-1.3572,0.2542,0.25271,0.1599
-20.6,-1.3533,0.25231,0.25082,0.1584
-20.5,-1.3494,0.25044,0.24895,0.157
-20.4,-1.3455,0.24861,0.24712,0.1555
-20.3,-1.3416,0.24679,0.2453,0.1541
-20.2,-1.3376,0.24501,0.24351,0.1527
-20.1,-1.3336,0.24324,0.24174,0.1512
-20,-1.3296,0.24149,0.24,0.1498
-19.9,-1.3256,0.23977,0.23827,0.1484
-19.8,-1.3215,0.23807,0.23657,0.147
-19.7,-1.3174,0.23638,0.23488,0.1455
-19.6,-1.3133,0.23472,0.23321,0.1441
-19.5,-1.3091,0.23306,0.23156,0.1427
-19.4,-1.3049,0.23141,0.22991,0.1413
-19.3,-1.3006,0.22979,0.22828,0.1398
-19.2,-1.2963,0.22816,0.22665,0.1384
-19.1,-1.292,0.22653,0.22502,0.137
-19,-1.2876,0.22492,0.22341,0.1356
-18.9,-1.2832,0.22331,0.2218,0.1342
-18.8,-1.2788,0.2217,0.22019,0.1327
-18.7,-1.2743,0.22009,0.21858,0.1313
-18.6,-1.2698,0.21849,0.21698,0.1299
-18.4,-1.2607,0.2155,0.21399,0.1271
-18.3,-1.2561,0.21391,0.21239,0.1257
-18.2,-1.2515,0.2123,0.21079,0.1243
-18.1,-1.2469,0.2107,0.20918,0.1229
-18,-1.2423,0.20909,0.20758,0.1215
-17.9,-1.2376,0.20749,0.20597,0.1201
-17.8,-1.2329,0.20588,0.20436,0.1187
-17.7,-1.2282,0.20429,0.20277,0.1173
-17.6,-1.2234,0.2027,0.20118,0.1159
-17.5,-1.2187,0.20111,0.19959,0.1145
-17.4,-1.2139,0.1995,0.19798,0.1131
-17.3,-1.2091,0.19791,0.19639,0.1117
-17.2,-1.2043,0.19632,0.1948,0.1103
-17.1,-1.1994,0.19472,0.1932,0.109
-17,-1.1945,0.19313,0.19161,0.1076
-16.9,-1.1896,0.19154,0.19002,0.1062
-16.8,-1.1846,0.18994,0.18842,0.1048
-16.7,-1.1797,0.18834,0.18682,0.1035
-16.6,-1.1746,0.18674,0.18522,0.1021
-16.5,-1.1696,0.18514,0.18361,0.1007
-16.4,-1.1645,0.18354,0.18201,0.0993
-16.3,-1.1594,0.18194,0.18041,0.098
-16.2,-1.1543,0.18033,0.1788,0.0966
-16.1,-1.1492,0.17873,0.1772,0.0952
-16,-1.144,0.17712,0.17559,0.0938
-15.9,-1.1388,0.17552,0.17399,0.0925
-15.8,-1.1336,0.17391,0.17238,0.0911
-15.7,-1.1284,0.17231,0.17078,0.0898
-15.6,-1.1232,0.1707,0.16917,0.0884
-15.5,-1.1179,0.16909,0.16756,0.087
-15.4,-1.1126,0.16748,0.16595,0.0857
-15.3,-1.1073,0.16587,0.16434,0.0843
-15.2,-1.102,0.16426,0.16273,0.083
-15.1,-1.0967,0.16264,0.1611,0.0816
-15,-1.0913,0.16101,0.15948,0.0803
-14.9,-1.0859,0.15937,0.15784,0.0789
-14.8,-1.0804,0.15772,0.15619,0.0776
-14.7,-1.0749,0.15608,0.15455,0.0762
-14.6,-1.0694,0.15441,0.15288,0.0748
-14.5,-1.0638,0.15274,0.1512,0.0735
-14.4,-1.0583,0.15103,0.1495,0.0721
-14.3,-1.0527,0.14932,0.14779,0.0707
-14.2,-1.0471,0.14754,0.14601,0.0693
-14.1,-1.0415,0.14583,0.1443,0.068
-14,-1.0358,0.14397,0.14242,0.0666
-13.9,-1.0301,0.14204,0.14049,0.0652
-13.8,-1.0243,0.14006,0.13852,0.0637
-13.7,-1.0184,0.13806,0.13652,0.0623
-13.6,-1.0124,0.13595,0.1344,0.0608
-13.5,-1.006,0.13383,0.13228,0.0592
-13.4,-0.9957,0.13049,0.12896,0.0567
-13.3,-0.9904,0.12903,0.1275,0.0554
-13.2,-0.985,0.12757,0.12604,0.0541
-13.1,-0.9796,0.12612,0.12459,0.0528
-13,-0.9742,0.12467,0.12314,0.0516
-12.9,-0.9688,0.12324,0.12171,0.0503
-12.8,-0.9633,0.12181,0.12029,0.049
-12.7,-0.9577,0.1204,0.11888,0.0477
-12.6,-0.9521,0.11901,0.11749,0.0463
-12.5,-0.9463,0.11763,0.11611,0.045
-12.4,-0.9404,0.11627,0.11475,0.0436
-12.3,-0.9345,0.11492,0.1134,0.0422
-12.2,-0.9284,0.1136,0.11208,0.0409
-12.1,-0.9223,0.11231,0.11079,0.0395
-12,-0.916,0.11102,0.1095,0.0381
-11.9,-0.9097,0.10976,0.10825,0.0367
-11.8,-0.9032,0.10851,0.10699,0.0353
-11.7,-0.8966,0.10728,0.10577,0.0338
-11.6,-0.8899,0.10605,0.10454,0.0324
-11.5,-0.8831,0.10484,0.10333,0.0309
-11.4,-0.8762,0.10362,0.10212,0.0295
-11.3,-0.8693,0.10242,0.10091,0.028
-11.2,-0.8622,0.10123,0.09972,0.0265
-11.1,-0.8551,0.10004,0.09853,0.025
-11,-0.8478,0.09886,0.09736,0.0235
-10.9,-0.8405,0.09767,0.09617,0.0219
-10.8,-0.8331,0.0965,0.095,0.0204
-10.7,-0.8256,0.09532,0.09382,0.0188
-10.6,-0.8181,0.09415,0.09265,0.0172
-8.9,-0.5975,0.02384,0.0206,-0.0807
-8.8,-0.588,0.02224,0.01879,-0.0815
-8.7,-0.5783,0.02099,0.01735,-0.0819
-8.6,-0.5678,0.02005,0.01627,-0.0821
-8.5,-0.5571,0.01926,0.01535,-0.0823
-8.4,-0.546,0.01884,0.01486,-0.0822
-8.3,-0.5348,0.01823,0.01414,-0.0823
-8.2,-0.5235,0.01768,0.01349,-0.0823
-8.1,-0.5126,0.01721,0.01291,-0.0821
-8,-0.5009,0.01675,0.01237,-0.0821
-7.9,-0.4892,0.01632,0.01185,-0.0821
-7.8,-0.4775,0.01592,0.01137,-0.0821
-7.7,-0.4661,0.01556,0.01092,-0.0819
-7.6,-0.4542,0.01522,0.0105,-0.0819
-7.5,-0.4422,0.01488,0.01009,-0.0819
-7.4,-0.4302,0.01457,0.00971,-0.0818
-7.3,-0.4185,0.01429,0.00935,-0.0817
-7.2,-0.4065,0.01401,0.009,-0.0816
-7.1,-0.3943,0.01374,0.00867,-0.0816
-7,-0.3821,0.01348,0.00835,-0.0816
-6.9,-0.3703,0.01325,0.00805,-0.0814
-6.8,-0.3581,0.01302,0.00775,-0.0814
-6.7,-0.3458,0.01279,0.00747,-0.0814
-6.6,-0.3335,0.01257,0.0072,-0.0813
-6.5,-0.3213,0.01237,0.00694,-0.0813
-6.4,-0.3092,0.01219,0.00669,-0.0812
-6.3,-0.2968,0.01201,0.00645,-0.0811
-6.2,-0.2845,0.01184,0.00623,-0.0811
-6.1,-0.2722,0.01168,0.00602,-0.0811
-6,-0.2599,0.01154,0.00583,-0.081
-5.9,-0.2475,0.01141,0.00565,-0.081
-5.8,-0.2352,0.01127,0.00547,-0.081
-5.7,-0.2229,0.01108,0.00524,-0.0809
-5.6,-0.2104,0.01092,0.00504,-0.081
-5.5,-0.198,0.01078,0.00488,-0.081
-5.4,-0.1858,0.01068,0.00473,-0.0809
-5.3,-0.1734,0.01057,0.0046,-0.0809
-5.2,-0.1609,0.01047,0.00446,-0.0809
-5.1,-0.1485,0.01037,0.00434,-0.0809
-5,-0.1361,0.01028,0.00421,-0.0809
-4.9,-0.1238,0.0102,0.00409,-0.0809
-4.8,-0.1114,0.01012,0.00398,-0.0809
-4.7,-0.099,0.01004,0.00387,-0.0809
-4.6,-0.0865,0.00997,0.00376,-0.0809
-4.5,-0.0741,0.00989,0.00366,-0.0809
-4.4,-0.0617,0.0098,0.00355,-0.0809
-4.3,-0.0493,0.00973,0.00346,-0.081
-4.2,-0.037,0.00968,0.00338,-0.081
-4.1,-0.0246,0.00962,0.0033,-0.081
-4,-0.0122,0.00957,0.00322,-0.081
-3.9,0,0.00953,0.00314,-0.081
-3.8,0.0122,0.00951,0.00307,-0.081
-3.7,0.0244,0.00947,0.003,-0.081
-3.6,0.0367,0.00943,0.00293,-0.081
-3.5,0.049,0.00939,0.00287,-0.081
-3.4,0.0612,0.00937,0.00281,-0.081
-3.3,0.0733,0.00937,0.00276,-0.081
-3.2,0.0857,0.00934,0.0027,-0.081
-3.1,0.098,0.00931,0.00264,-0.0811
-3,0.1104,0.00927,0.00259,-0.0811
-2.9,0.1227,0.00924,0.00255,-0.0812
-2.8,0.1347,0.00926,0.00251,-0.0812
-2.7,0.1468,0.00924,0.00248,-0.0812
-2.6,0.1591,0.00923,0.00244,-0.0813
-2.5,0.1714,0.00921,0.0024,-0.0813
-2.3,0.1958,0.00921,0.00233,-0.0814
-2.2,0.2078,0.00923,0.00231,-0.0814
-2.1,0.2201,0.00922,0.00228,-0.0815
-2,0.2324,0.0092,0.00225,-0.0815
-1.9,0.2447,0.00919,0.00223,-0.0816
-1.8,0.2568,0.0092,0.00221,-0.0816
-1.7,0.2691,0.0092,0.00218,-0.0817
-1.6,0.2813,0.00919,0.00217,-0.0818
-1.5,0.2934,0.00922,0.00216,-0.0818
-1.4,0.3056,0.0092,0.00215,-0.0819
-1.3,0.3177,0.00922,0.00214,-0.082
-1.2,0.3299,0.00924,0.00213,-0.082
-1.1,0.342,0.00924,0.00212,-0.0821
-1,0.3543,0.00922,0.00211,-0.0822
-0.9,0.3665,0.00922,0.00211,-0.0823
-0.8,0.3785,0.00926,0.00211,-0.0823
-0.7,0.3906,0.00927,0.00212,-0.0824
-0.6,0.4029,0.00927,0.00211,-0.0825
-0.5,0.415,0.00926,0.00212,-0.0826
-0.4,0.4272,0.00927,0.00212,-0.0826
-0.3,0.4394,0.00928,0.00213,-0.0827
-0.1,0.4636,0.00929,0.00214,-0.0829
0,0.4754,0.00936,0.00217,-0.0829
0.1,0.4875,0.00938,0.00219,-0.083
0.2,0.4996,0.00938,0.0022,-0.0831
0.3,0.5117,0.00941,0.00222,-0.0832
0.4,0.5237,0.00945,0.00224,-0.0832
0.5,0.5357,0.00948,0.00226,-0.0833
0.6,0.5477,0.00949,0.00229,-0.0834
0.7,0.5596,0.00952,0.00232,-0.0835
0.8,0.5716,0.00956,0.00235,-0.0836
0.9,0.583,0.00963,0.00241,-0.0837
1,0.5948,0.00967,0.00245,-0.0837
1.1,0.6066,0.00972,0.00249,-0.0838
1.2,0.6184,0.00977,0.00254,-0.0839
1.3,0.6302,0.00974,0.0026,-0.084
1.4,0.6419,0.00976,0.00265,-0.0841
1.5,0.6539,0.00975,0.00269,-0.0842
1.7,0.6673,0.00882,0.0028,-0.082
1.8,0.6774,0.00883,0.0028,-0.0816
1.9,0.6911,0.00886,0.0028,-0.082
2,0.7032,0.00892,0.00283,-0.082
2.1,0.7152,0.00899,0.00287,-0.0821
2.2,0.7273,0.00907,0.00292,-0.0821
2.3,0.7392,0.00915,0.00297,-0.0822
2.4,0.7513,0.00921,0.00301,-0.0822
2.5,0.7634,0.00928,0.00305,-0.0823
2.6,0.7754,0.00934,0.0031,-0.0823
2.7,0.7874,0.00942,0.00315,-0.0824
2.8,0.7993,0.00952,0.00321,-0.0824
2.9,0.8113,0.00958,0.00325,-0.0824
3,0.8234,0.00964,0.0033,-0.0825
3.1,0.8354,0.00971,0.00335,-0.0825
3.2,0.8473,0.00979,0.0034,-0.0825
3.3,0.8592,0.00988,0.00346,-0.0826
3.4,0.8713,0.00994,0.00351,-0.0826
3.5,0.8833,0.01,0.00356,-0.0827
3.6,0.8953,0.01007,0.00361,-0.0827
3.7,0.9073,0.01014,0.00367,-0.0827
3.8,0.919,0.01025,0.00373,-0.0827
3.9,0.9309,0.01032,0.0038,-0.0828
4,0.9429,0.01038,0.00385,-0.0828
4.1,0.9549,0.01045,0.00391,-0.0828
4.2,0.9668,0.01052,0.00397,-0.0828
4.3,0.9787,0.0106,0.00403,-0.0828
4.4,0.9906,0.01068,0.00409,-0.0829
4.5,1.0024,0.01077,0.00415,-0.0829
4.6,1.0143,0.01085,0.00423,-0.0829
4.7,1.0262,0.01092,0.00429,-0.0829
4.8,1.038,0.011,0.00435,-0.0829
4.9,1.0498,0.01108,0.00443,-0.0829
5,1.0616,0.01116,0.00449,-0.0829
5.1,1.0734,0.01126,0.00457,-0.0829
5.2,1.0851,0.01135,0.00465,-0.0829
5.3,1.097,0.01142,0.00472,-0.0829
5.4,1.1088,0.0115,0.00479,-0.0829
5.5,1.1206,0.01158,0.00486,-0.0829
5.6,1.1324,0.01166,0.00493,-0.0828
5.7,1.1442,0.01174,0.00501,-0.0828
5.8,1.1558,0.01184,0.0051,-0.0828
5.9,1.1672,0.01197,0.0052,-0.0828
6,1.179,0.01204,0.00527,-0.0827
6.1,1.1908,0.01212,0.00535,-0.0827
6.2,1.2025,0.01221,0.00543,-0.0827
6.3,1.2142,0.0123,0.00552,-0.0826
6.4,1.2258,0.01239,0.0056,-0.0826
6.5,1.2374,0.01249,0.00569,-0.0825
6.6,1.2489,0.01259,0.00579,-0.0825
6.7,1.2604,0.01271,0.00589,-0.0824
6.8,1.272,0.0128,0.00599,-0.0824
6.9,1.2836,0.01289,0.00608,-0.0823
7,1.2951,0.01299,0.00617,-0.0822
7.1,1.3066,0.01309,0.00627,-0.0822
7.2,1.3181,0.01319,0.00637,-0.0821
7.3,1.3295,0.0133,0.00647,-0.082
7.4,1.3408,0.01342,0.00658,-0.0819
7.5,1.3521,0.01354,0.00669,-0.0818
7.6,1.3636,0.01364,0.00681,-0.0817
7.7,1.3751,0.01374,0.00691,-0.0816
7.8,1.3865,0.01384,0.00702,-0.0815
7.9,1.3979,0.01395,0.00713,-0.0814
8,1.4092,0.01406,0.00724,-0.0813
8.1,1.4204,0.01417,0.00735,-0.0812
8.2,1.4314,0.01432,0.00748,-0.081
8.3,1.4424,0.01446,0.00761,-0.0809
8.4,1.4536,0.01458,0.00774,-0.0807
8.5,1.4649,0.01469,0.00785,-0.0806
8.6,1.4761,0.0148,0.00798,-0.0805
8.7,1.4873,0.01491,0.0081,-0.0803
8.8,1.4984,0.01504,0.00823,-0.0801
8.9,1.5094,0.01516,0.00836,-0.08
9,1.5204,0.01529,0.00849,-0.0798
9.1,1.5312,0.01543,0.00863,-0.0796
9.2,1.542,0.01558,0.00878,-0.0794
9.3,1.5527,0.01574,0.00893,-0.0792
9.4,1.5636,0.01587,0.00907,-0.079
9.5,1.5745,0.01599,0.00921,-0.0788
9.6,1.5853,0.01612,0.00935,-0.0785
9.7,1.596,0.01626,0.00951,-0.0783
9.8,1.6067,0.01641,0.00966,-0.0781
9.9,1.6173,0.01656,0.00981,-0.0778
10,1.6277,0.01671,0.00997,-0.0775
10.1,1.6381,0.01688,0.01014,-0.0773
10.2,1.6483,0.01705,0.01032,-0.077
10.3,1.6586,0.01721,0.0105,-0.0767
10.4,1.6692,0.01735,0.01065,-0.0764
10.5,1.6796,0.0175,0.01082,-0.0761
10.6,1.6898,0.01766,0.01098,-0.0758
10.7,1.6999,0.01782,0.01116,-0.0754
10.8,1.7099,0.01799,0.01134,-0.0751
10.9,1.7199,0.01816,0.01153,-0.0747
11,1.7296,0.01835,0.01172,-0.0743
11.1,1.7392,0.01854,0.01192,-0.0739
11.2,1.7484,0.01876,0.01214,-0.0735
11.3,1.7582,0.01892,0.01233,-0.0731
11.4,1.7679,0.01909,0.01252,-0.0727
11.5,1.7774,0.01926,0.01271,-0.0722
11.6,1.7864,0.01947,0.01292,-0.0717
11.7,1.7955,0.01967,0.01313,-0.0712
11.8,1.8043,0.01988,0.01335,-0.0707
11.9,1.8122,0.02014,0.0136,-0.0701
12,1.8207,0.02036,0.01385,-0.0695
12.1,1.8294,0.02055,0.01406,-0.0689
12.2,1.8379,0.02074,0.01429,-0.0683
12.3,1.8462,0.02095,0.01452,-0.0677
12.4,1.8542,0.02116,0.01475,-0.067
12.5,1.862,0.02138,0.01499,-0.0663
12.6,1.8695,0.0216,0.01524,-0.0656
12.7,1.8767,0.02184,0.0155,-0.0648
12.8,1.8834,0.0221,0.01577,-0.064
12.9,1.8886,0.02236,0.01605,-0.0629
13,1.8933,0.02264,0.01635,-0.0617
13.1,1.8978,0.02294,0.01668,-0.0606
13.2,1.9032,0.02321,0.01698,-0.0596
13.3,1.9086,0.02348,0.01729,-0.0586
13.4,1.914,0.02376,0.0176,-0.0576
13.5,1.9193,0.02405,0.01793,-0.0567
13.6,1.9245,0.02436,0.01827,-0.0558
13.7,1.9288,0.02473,0.01864,-0.0548
13.8,1.9327,0.02513,0.01906,-0.0539
13.9,1.9371,0.02552,0.01948,-0.053
14,1.9413,0.02592,0.0199,-0.0522
14.1,1.9458,0.0263,0.02033,-0.0514
14.2,1.9507,0.02667,0.02074,-0.0506
14.3,1.9555,0.02706,0.02116,-0.0499
14.4,1.9601,0.02746,0.0216,-0.0492
14.5,1.9646,0.02788,0.02206,-0.0486
14.6,1.9689,0.02832,0.02254,-0.0479
14.7,1.9731,0.02879,0.02304,-0.0473
14.8,1.977,0.02927,0.02356,-0.0468
14.9,1.9807,0.02979,0.02411,-0.0462
15,1.9842,0.03033,0.02468,-0.0458
15.1,1.9874,0.03091,0.02529,-0.0453
15.2,1.9902,0.03153,0.02596,-0.045
15.3,1.9941,0.03209,0.02656,-0.0447
15.4,1.998,0.03267,0.02718,-0.0445
15.5,2.0018,0.03327,0.02782,-0.0443
15.6,2.0053,0.03391,0.02851,-0.0442
15.7,2.0088,0.03458,0.02921,-0.0442
15.8,2.012,0.03528,0.02996,-0.0443
15.9,2.0148,0.03604,0.03076,-0.0444
16,2.0175,0.03685,0.0316,-0.0447
16.1,2.0197,0.03772,0.03253,-0.0451
16.2,2.0231,0.0385,0.03336,-0.0455
16.3,2.0264,0.03932,0.03423,-0.046
16.4,2.0295,0.0402,0.03515,-0.0467
16.5,2.0322,0.04115,0.03614,-0.0475
16.6,2.0346,0.04216,0.03721,-0.0484
16.7,2.0367,0.04327,0.03838,-0.0496
16.8,2.0394,0.04432,0.03948,-0.0507
16.9,2.0421,0.04543,0.04065,-0.052
17,2.0445,0.0466,0.04187,-0.0534
17.1,2.0462,0.04793,0.04325,-0.0552
17.2,2.0473,0.04937,0.04475,-0.0571
17.3,2.0478,0.05096,0.04642,-0.0593
17.4,2.0487,0.05253,0.04805,-0.0615
17.5,2.049,0.05424,0.04982,-0.0639
17.8,2.0367,0.06194,0.05776,-0.0752
17.9,2.032,0.06479,0.06072,-0.0792
18,2.0267,0.0678,0.06383,-0.0834
18.1,2.0208,0.07097,0.0671,-0.0877
18.2,2.0131,0.07454,0.07078,-0.0923
18.3,2.0045,0.07836,0.07472,-0.0972
18.4,1.9948,0.08244,0.07892,-0.1022
18.5,1.9845,0.08663,0.08324,-0.1071
18.6,1.9743,0.09075,0.08748,-0.1119
18.7,1.9627,0.09507,0.09192,-0.1169
19,1.9335,0.10657,0.1037,-0.1308
19.1,1.9246,0.1102,0.10742,-0.1353
19.2,1.9167,0.11357,0.11087,-0.1396
19.8,1.869,0.13377,0.1314,-0.1663
19.9,1.8642,0.13664,0.13431,-0.17
20,1.8596,0.13957,0.13732,-0.1736
20.1,1.855,0.14263,0.14042,-0.1773
20.2,1.8511,0.14554,0.14336,-0.1808
20.3,1.8471,0.1486,0.14646,-0.1843
20.4,1.8439,0.15152,0.14941,-0.1876
20.5,1.8414,0.15428,0.1522,-0.1907
20.6,1.8388,0.15712,0.1551,-0.1939
20.7,1.8357,0.1602,0.15821,-0.1971
20.8,1.8347,0.16266,0.16071,-0.1998
20.9,1.8336,0.16515,0.16322,-0.2025
21.1,1.8272,0.17166,0.16979,-0.2093
21.2,1.8267,0.17407,0.17223,-0.2118
21.3,1.8266,0.17638,0.17456,-0.2142
21.4,1.8261,0.17889,0.1771,-0.2168
21.5,1.8245,0.18183,0.18007,-0.2197
21.6,1.8243,0.18425,0.18252,-0.2222
21.7,1.8246,0.18655,0.18484,-0.2246
21.8,1.8246,0.18895,0.18726,-0.227
21.9,1.8249,0.1913,0.18964,-0.2294
22,1.8239,0.19424,0.1926,-0.2323
22.1,1.8241,0.19665,0.19505,-0.2347
22.2,1.8251,0.1988,0.19722,-0.2369
22.3,1.8261,0.20094,0.19937,-0.239
22.4,1.8273,0.20303,0.20149,-0.2411
22.5,1.8285,0.20513,0.20361,-0.2433
22.6,1.8291,0.20749,0.206,-0.2456
22.7,1.8298,0.2099,0.20843,-0.248
22.8,1.8311,0.212,0.21055,-0.2501
22.9,1.8325,0.21403,0.2126,-0.2521
23,1.8341,0.216,0.21458,-0.2542
23.1,1.8358,0.21798,0.21658,-0.2562
23.2,1.8374,0.21995,0.21856,-0.2582
23.3,1.839,0.22196,0.22058,-0.2602
23.4,1.8407,0.22394,0.22258,-0.2622
23.5,1.842,0.22615,0.22481,-0.2644
23.6,1.8433,0.22833,0.22701,-0.2666
23.7,1.845,0.23034,0.22904,-0.2687
23.8,1.8469,0.23224,0.23096,-0.2706
23.9,1.8488,0.23411,0.23283,-0.2726
24,1.8508,0.23596,0.2347,-0.2745
24.1,1.8528,0.23778,0.23653,-0.2764
24.2,1.8548,0.23958,0.23834,-0.2783
24.3,1.8568,0.24139,0.24017,-0.2802
24.4,1.8588,0.24321,0.24199,-0.2821
24.5,1.8608,0.24502,0.24381,-0.284
24.6,1.8629,0.24676,0.24556,-0.2859
24.7,1.865,0.24853,0.24734,-0.2878
24.8,1.8671,0.2503,0.24912,-0.2897
24.9,1.8691,0.25208,0.25091,-0.2916
25,1.8712,0.25378,0.25262,-0.2935
25.1,1.8735,0.25535,0.25419,-0.2952
25.2,1.8759,0.2569,0.25574,-0.297
25.3,1.8784,0.25829,0.25714,-0.2987
25.4,1.8805,0.26002,0.25887,-0.3005
25.5,1.8824,0.26195,0.26083,-0.3025
25.6,1.8843,0.26383,0.26273,-0.3045
25.7,1.8864,0.26559,0.2645,-0.3064
25.8,1.8884,0.26746,0.26639,-0.3083
25.9,1.8905,0.26924,0.26819,-0.3102
26,1.8926,0.27101,0.26998,-0.3121
26.1,1.8946,0.27286,0.27185,-0.3141
26.2,1.8966,0.2747,0.2737,-0.3161
26.3,1.8987,0.27649,0.27551,-0.318
26.4,1.9006,0.2784,0.27744,-0.32
26.5,1.9026,0.28028,0.27934,-0.322
26.6,1.9043,0.28244,0.28151,-0.3242
26.7,1.906,0.28457,0.28366,-0.3264
26.8,1.9079,0.28663,0.28574,-0.3286
27,1.9114,0.29092,0.29007,-0.333
27.1,1.9134,0.29287,0.29203,-0.3351
27.2,1.9153,0.29481,0.29398,-0.3371
27.3,1.9173,0.29677,0.29596,-0.3392
27.4,1.9192,0.29874,0.29794,-0.3413
27.5,1.9211,0.30071,0.29993,-0.3434
27.6,1.923,0.30277,0.302,-0.3456
27.7,1.9249,0.30491,0.30415,-0.3478
27.8,1.9266,0.30726,0.30651,-0.3502
27.9,1.9284,0.30948,0.30875,-0.3525
28,1.9303,0.31156,0.31084,-0.3547
28.1,1.9322,0.3136,0.31289,-0.3569
28.2,1.9341,0.31553,0.31483,-0.359
28.3,1.9361,0.31749,0.3168,-0.3611
28.4,1.9381,0.31945,0.31876,-0.3633
28.5,1.94,0.32134,0.32067,-0.3654
28.6,1.942,0.32317,0.3225,-0.3674
28.7,1.944,0.32491,0.32425,-0.3695
28.8,1.946,0.32666,0.326,-0.3715
28.9,1.948,0.32838,0.32772,-0.3736
29,1.9499,0.32999,0.32934,-0.3756

