airfoilName st11.dat
Re 	1.500000e+05
M 	2.500000e-01
N 	4.500000e+00
VACC 	0 VACCflag 1
XTR 	1.00 	1.00 XTRflag 0
alpha,cl,cd,cdp,cm
-30,-1.6569,0.45947,0.45568,0.3235
-29.9,-1.6536,0.4574,0.45361,0.3213
-29.8,-1.6503,0.45535,0.45156,0.3191
-29.7,-1.647,0.4533,0.4495,0.3169
-29.6,-1.6437,0.45129,0.44749,0.3147
-29.5,-1.6403,0.44928,0.44547,0.3125
-29.4,-1.6369,0.4473,0.44349,0.3103
-29.3,-1.6334,0.44532,0.4415,0.3081
-29.2,-1.63,0.44339,0.43956,0.3059
-29.1,-1.6265,0.44143,0.4376,0.3037
-29,-1.623,0.43954,0.43571,0.3015
-28.9,-1.6194,0.43767,0.43383,0.2992
-28.8,-1.6158,0.43577,0.43192,0.297
-28.7,-1.6121,0.43397,0.43011,0.2947
-28.6,-1.6084,0.43211,0.42824,0.2924
-28.5,-1.6045,0.43025,0.42638,0.29
-28.1,-1.5846,0.41935,0.41549,0.2789
-28,-1.5812,0.41717,0.4133,0.2769
-27.9,-1.5778,0.41501,0.41113,0.275
-27.8,-1.5744,0.41284,0.40896,0.273
-27.7,-1.5709,0.41069,0.40681,0.2711
-27.6,-1.5675,0.40855,0.40467,0.2692
-27.5,-1.564,0.40641,0.40252,0.2672
-27.4,-1.5605,0.40428,0.40039,0.2653
-27.3,-1.5569,0.40216,0.39826,0.2634
-27.2,-1.5534,0.40005,0.39615,0.2615
-27.1,-1.5498,0.39795,0.39404,0.2596
-27,-1.5462,0.39585,0.39194,0.2577
-26.9,-1.5427,0.39376,0.38984,0.2558
-26.8,-1.539,0.39167,0.38775,0.2539
-26.7,-1.5354,0.3896,0.38567,0.252
-26.6,-1.5318,0.38752,0.38359,0.2501
-26.4,-1.5246,0.38383,0.37988,0.2463
-26.3,-1.5209,0.38176,0.37781,0.2445
-26.2,-1.5171,0.3797,0.37574,0.2426
-26.1,-1.5134,0.37763,0.37367,0.2408
-26,-1.5097,0.37557,0.37161,0.2389
-25.9,-1.5059,0.37352,0.36956,0.2371
-25.8,-1.5021,0.37147,0.3675,0.2353
-25.7,-1.4983,0.36943,0.36546,0.2334
-25.6,-1.4945,0.36739,0.36341,0.2316
-25.5,-1.4907,0.36535,0.36137,0.2298
-25.4,-1.4869,0.36331,0.35933,0.228
-25.3,-1.483,0.36128,0.35729,0.2262
-25.2,-1.4792,0.35926,0.35527,0.2244
-25.1,-1.4753,0.35724,0.35324,0.2226
-25,-1.4714,0.35522,0.35122,0.2209
-24.9,-1.4675,0.35321,0.3492,0.2191
-24.8,-1.4636,0.3512,0.34719,0.2173
-24.7,-1.4597,0.34919,0.34518,0.2156
-24.6,-1.4558,0.34719,0.34317,0.2138
-24.5,-1.4518,0.34518,0.34117,0.212
-24.4,-1.4479,0.34319,0.33917,0.2103
-24.3,-1.4439,0.34119,0.33715,0.2086
-24.2,-1.4399,0.33921,0.33516,0.2068
-24.1,-1.4359,0.33722,0.33317,0.2051
-24,-1.4319,0.33524,0.33119,0.2034
-23.9,-1.4279,0.33325,0.3292,0.2017
-23.8,-1.4238,0.33128,0.32722,0.2
-23.7,-1.4198,0.32931,0.32525,0.1983
-23.6,-1.4157,0.32733,0.32327,0.1966
-23.5,-1.4116,0.32537,0.3213,0.1949
-23.4,-1.4076,0.3234,0.31934,0.1932
-23.3,-1.4034,0.32144,0.31737,0.1915
-23.2,-1.3993,0.31948,0.31541,0.1898
-23.1,-1.3952,0.31753,0.31345,0.1881
-23,-1.391,0.31557,0.31149,0.1865
-22.9,-1.3869,0.31361,0.30953,0.1848
-22.8,-1.3827,0.31166,0.30758,0.1831
-22.7,-1.3785,0.30971,0.30562,0.1815
-22.6,-1.3742,0.30777,0.30368,0.1798
-22.5,-1.37,0.30582,0.30173,0.1782
-22.4,-1.3657,0.30388,0.29978,0.1765
-22.3,-1.3615,0.30193,0.29783,0.1749
-22.2,-1.3572,0.29999,0.29589,0.1732
-22.1,-1.3528,0.29804,0.29392,0.1716
-22,-1.3485,0.2961,0.29198,0.17
-21.9,-1.3442,0.29416,0.29004,0.1683
-21.8,-1.3398,0.29222,0.28809,0.1667
-21.7,-1.3354,0.29028,0.28615,0.1651
-21.6,-1.331,0.28833,0.28419,0.1634
-21.5,-1.3265,0.28638,0.28224,0.1618
-21.4,-1.3221,0.28442,0.28028,0.1602
-21.3,-1.3176,0.28245,0.2783,0.1586
-21.2,-1.3131,0.28048,0.27633,0.1569
-21.1,-1.3085,0.27849,0.27435,0.1553
-21,-1.304,0.2765,0.27235,0.1537
-20.9,-1.2993,0.27448,0.27033,0.152
-20.8,-1.2947,0.27244,0.26829,0.1504
-20.5,-1.2715,0.26171,0.25757,0.1426
-20.4,-1.2675,0.25987,0.25573,0.1412
-20.3,-1.2634,0.25805,0.25391,0.1398
-20.2,-1.2593,0.25624,0.25209,0.1384
-20.1,-1.2552,0.25443,0.25029,0.137
-20,-1.2511,0.25263,0.24848,0.1356
-19.9,-1.247,0.25084,0.24669,0.1342
-19.8,-1.2428,0.24905,0.2449,0.1328
-19.7,-1.2386,0.24727,0.24312,0.1314
-19.6,-1.2344,0.24551,0.24135,0.1301
-19.5,-1.2301,0.24374,0.23957,0.1287
-19.4,-1.2258,0.24198,0.2378,0.1273
-19.3,-1.2215,0.24022,0.23605,0.1259
-19.2,-1.2172,0.23848,0.2343,0.1246
-19.1,-1.2129,0.23673,0.23255,0.1232
-19,-1.2085,0.23499,0.23081,0.1218
-18.9,-1.2041,0.23325,0.22907,0.1205
-18.8,-1.1997,0.23152,0.22734,0.1191
-18.7,-1.1952,0.22979,0.22561,0.1177
-18.6,-1.1908,0.22807,0.22388,0.1164
-18.5,-1.1863,0.22634,0.22216,0.115
-18.4,-1.1818,0.22463,0.22044,0.1137
-18.3,-1.1773,0.22291,0.21872,0.1123
-18.2,-1.1727,0.2212,0.21701,0.111
-18.1,-1.1681,0.21949,0.2153,0.1096
-18,-1.1636,0.21779,0.2136,0.1083
-17.9,-1.159,0.2161,0.2119,0.107
-17.8,-1.1544,0.2144,0.21021,0.1056
-17.7,-1.1497,0.21272,0.20852,0.1043
-17.6,-1.1451,0.21103,0.20684,0.103
-17.5,-1.1404,0.20935,0.20516,0.1017
-17.4,-1.1357,0.20768,0.20348,0.1004
-17.3,-1.1311,0.20601,0.20181,0.0991
-17.2,-1.1263,0.20434,0.20013,0.0978
-17.1,-1.1216,0.20268,0.19847,0.0965
-17,-1.1169,0.20102,0.19681,0.0952
-16.9,-1.1121,0.19937,0.19516,0.0939
-16.8,-1.1074,0.19772,0.19351,0.0926
-16.7,-1.1026,0.19608,0.19186,0.0913
-16.6,-1.0978,0.19444,0.19023,0.09
-16.5,-1.093,0.19281,0.18859,0.0888
-16.4,-1.0881,0.19118,0.18696,0.0875
-16.3,-1.0833,0.18955,0.18534,0.0862
-16.2,-1.0784,0.18793,0.18371,0.085
-16.1,-1.0735,0.18631,0.18209,0.0837
-16,-1.0686,0.18469,0.18048,0.0824
-15.9,-1.0636,0.18308,0.17886,0.0812
-15.8,-1.0586,0.18147,0.17725,0.0799
-15.7,-1.0537,0.17986,0.17565,0.0786
-15.6,-1.0486,0.17826,0.17405,0.0774
-15.5,-1.0436,0.17666,0.17245,0.0761
-15.4,-1.0386,0.17507,0.17086,0.0749
-15.3,-1.0335,0.17348,0.16926,0.0736
-15.2,-1.0284,0.17189,0.16768,0.0724
-15.1,-1.0233,0.1703,0.16609,0.0711
-15,-1.0181,0.16872,0.16451,0.0699
-14.9,-1.013,0.16714,0.16294,0.0687
-14.8,-1.0078,0.16557,0.16136,0.0674
-14.7,-1.0018,0.16395,0.15973,0.0659
-14.6,-0.9965,0.16236,0.15813,0.0647
-14.5,-0.9912,0.16076,0.15654,0.0634
-14.4,-0.9859,0.15916,0.15494,0.0622
-14.3,-0.9805,0.15756,0.15334,0.0609
-14.2,-0.975,0.15594,0.15172,0.0596
-14.1,-0.9695,0.15432,0.1501,0.0583
-14,-0.964,0.15269,0.14848,0.057
-13.9,-0.9584,0.15105,0.14684,0.0557
-13.8,-0.9527,0.1494,0.14519,0.0544
-13.7,-0.947,0.14771,0.1435,0.0531
-13.6,-0.9411,0.146,0.14179,0.0517
-13.5,-0.9351,0.14423,0.14002,0.0503
-13.4,-0.9287,0.14231,0.1381,0.0487
-13.2,-0.9116,0.13715,0.13297,0.044
-13.1,-0.9066,0.13578,0.13161,0.043
-13,-0.9015,0.13443,0.13026,0.0419
-12.9,-0.8963,0.13308,0.12892,0.0408
-12.8,-0.8911,0.13175,0.12759,0.0397
-12.7,-0.8858,0.13044,0.12628,0.0386
-12.6,-0.8804,0.12913,0.12497,0.0375
-12.5,-0.8749,0.12783,0.12368,0.0363
-12.4,-0.8694,0.12654,0.1224,0.0352
-12.3,-0.8638,0.12526,0.12112,0.0341
-12.2,-0.8582,0.12399,0.11985,0.0329
-12.1,-0.8525,0.12272,0.11859,0.0318
-12,-0.8467,0.12146,0.11732,0.0306
-11.9,-0.8409,0.1202,0.11606,0.0294
-11.8,-0.835,0.11895,0.11482,0.0283
-11.7,-0.8291,0.1177,0.11358,0.0271
-11.6,-0.8231,0.11646,0.11234,0.0259
-11.5,-0.817,0.11523,0.11112,0.0247
-11.4,-0.811,0.114,0.10989,0.0235
-11.3,-0.8048,0.11278,0.10867,0.0223
-11.2,-0.7986,0.11155,0.10746,0.0211
-11.1,-0.7923,0.11034,0.10624,0.0199
-11,-0.786,0.10912,0.10503,0.0186
-10.9,-0.7797,0.10791,0.10383,0.0174
-10.8,-0.7733,0.1067,0.10263,0.0161
-10.7,-0.7668,0.1055,0.10144,0.0149
-10.6,-0.7603,0.1043,0.10024,0.0136
-10.5,-0.7538,0.1031,0.09905,0.0124
-10.4,-0.7472,0.10191,0.09786,0.0111
-10.3,-0.7406,0.10071,0.09668,0.0098
-10.2,-0.7339,0.09953,0.09549,0.0085
-10.1,-0.7273,0.09834,0.09431,0.0072
-10,-0.7206,0.09715,0.09314,0.0059
-9.9,-0.7138,0.09597,0.09196,0.0046
-9.8,-0.7071,0.09479,0.09079,0.0033
-9.7,-0.7004,0.09362,0.08961,0.002
-9.6,-0.6937,0.09245,0.08845,0.0006
-9.5,-0.6871,0.09128,0.08728,-0.0007
-9.4,-0.6805,0.09011,0.08613,-0.002
-9.3,-0.6741,0.08895,0.08497,-0.0033
-9.2,-0.6675,0.08777,0.08381,-0.0047
-9.1,-0.6607,0.08656,0.08261,-0.0062
-9,-0.6528,0.08526,0.08131,-0.0079
-8.9,-0.6442,0.08386,0.07992,-0.0099
-8.8,-0.6354,0.08239,0.07844,-0.0119
-8.5,-0.6002,0.07526,0.07133,-0.0223
-8.4,-0.593,0.07426,0.07033,-0.0235
-8.3,-0.5858,0.07327,0.06935,-0.0247
-8.2,-0.5789,0.07227,0.06836,-0.0258
-8.1,-0.572,0.07128,0.06737,-0.0269
-8,-0.5652,0.07028,0.06638,-0.0279
-7.9,-0.5585,0.06929,0.06539,-0.0289
-7.8,-0.5521,0.06828,0.06439,-0.0298
-7.4,-0.5188,0.0637,0.0598,-0.035
-6.5,-0.3392,0.03496,0.02985,-0.0743
-6.4,-0.3244,0.03371,0.02848,-0.0758
-6.3,-0.3093,0.03235,0.02698,-0.0774
-6.2,-0.2928,0.03082,0.02527,-0.0793
-6.1,-0.2774,0.02928,0.02353,-0.0809
-5.6,-0.2072,0.02221,0.01501,-0.0857
-5.5,-0.1923,0.02174,0.01452,-0.0865
-5.4,-0.1796,0.02136,0.0141,-0.0867
-5.3,-0.1671,0.02099,0.01367,-0.0869
-5.1,-0.1396,0.02047,0.01302,-0.0878
-5,-0.1255,0.01987,0.01227,-0.0883
-4.9,-0.111,0.01926,0.01146,-0.0887
-4.8,-0.0981,0.01877,0.01086,-0.0889
-4.7,-0.0859,0.01842,0.01052,-0.089
-4.6,-0.0728,0.01813,0.01021,-0.0893
-4.5,-0.0592,0.01784,0.00989,-0.0896
-4.4,-0.0453,0.01753,0.00954,-0.09
-4.3,-0.0322,0.01722,0.00916,-0.0902
-4.2,-0.0198,0.0169,0.00876,-0.0902
-4.1,-0.0067,0.01674,0.00853,-0.0904
-4,0.0066,0.01648,0.00827,-0.0907
-3.9,0.0209,0.01622,0.00799,-0.091
-3.8,0.0327,0.016,0.00774,-0.091
-3.7,0.0452,0.01577,0.00746,-0.091
-3.6,0.0582,0.01553,0.00715,-0.0911
-3.5,0.0716,0.01529,0.00688,-0.0913
-3.4,0.084,0.01509,0.00669,-0.0914
-3.3,0.0962,0.01503,0.00665,-0.0914
-3.2,0.109,0.01484,0.00641,-0.0915
-3.1,0.1221,0.01466,0.00614,-0.0916
-3,0.1346,0.01446,0.006,-0.0917
-2.9,0.1465,0.01432,0.00585,-0.0916
-2.8,0.1592,0.01417,0.00569,-0.0917
-2.7,0.172,0.01408,0.00557,-0.0918
-2.6,0.1839,0.01394,0.00545,-0.0917
-2.5,0.1961,0.01382,0.00532,-0.0917
-2.4,0.2086,0.0137,0.00516,-0.0917
-2.3,0.2207,0.01359,0.00504,-0.0916
-2.2,0.2326,0.0135,0.00501,-0.0916
-2.1,0.245,0.01341,0.00486,-0.0916
-1.9,0.2689,0.01321,0.00469,-0.0915
-1.8,0.281,0.01314,0.00463,-0.0915
-1.7,0.2927,0.01306,0.00454,-0.0913
-1.6,0.3045,0.013,0.00444,-0.0911
-1.5,0.3165,0.01292,0.00438,-0.091
-1.4,0.3276,0.01286,0.00427,-0.0906
-1.3,0.3394,0.0128,0.00425,-0.0906
-1.2,0.3513,0.01274,0.00418,-0.0905
-1.1,0.3628,0.01269,0.00412,-0.0903
-1,0.3745,0.01264,0.00405,-0.0901
-0.9,0.3862,0.01258,0.00403,-0.0901
-0.8,0.3978,0.01254,0.00397,-0.0899
-0.7,0.4096,0.01249,0.00392,-0.0898
-0.6,0.421,0.01246,0.00386,-0.0896
-0.5,0.4325,0.01238,0.00383,-0.0895
-0.4,0.4442,0.01233,0.00379,-0.0894
-0.3,0.4555,0.01229,0.00374,-0.0892
-0.2,0.4671,0.01223,0.00371,-0.0891
-0.1,0.4786,0.01207,0.0037,-0.0891
0,0.4895,0.01198,0.00366,-0.089
0.1,0.5007,0.01182,0.00364,-0.0889
0.2,0.5114,0.01155,0.00361,-0.0887
0.3,0.516,0.01044,0.00336,-0.0861
0.4,0.5277,0.01049,0.00336,-0.086
0.5,0.5393,0.01057,0.00335,-0.0858
0.7,0.5621,0.01073,0.00334,-0.0854
0.8,0.5737,0.01082,0.00334,-0.0853
0.9,0.5853,0.01089,0.00335,-0.0852
1,0.5967,0.01098,0.00337,-0.085
1.1,0.6083,0.01107,0.00338,-0.0849
1.2,0.6198,0.01116,0.00341,-0.0848
1.3,0.6313,0.01125,0.00343,-0.0846
1.4,0.6422,0.01138,0.00346,-0.0844
1.5,0.6537,0.01148,0.0035,-0.0842
1.6,0.665,0.01159,0.00354,-0.0841
1.7,0.6764,0.01168,0.00358,-0.084
1.8,0.6878,0.01179,0.00363,-0.0839
1.9,0.6991,0.0119,0.00367,-0.0837
2,0.7104,0.01201,0.00372,-0.0836
2.1,0.7211,0.01217,0.00378,-0.0833
2.2,0.7323,0.01229,0.00384,-0.0832
2.3,0.7434,0.01242,0.0039,-0.083
2.4,0.7546,0.01254,0.00396,-0.0829
2.5,0.7657,0.01267,0.00403,-0.0828
2.6,0.7767,0.01281,0.00411,-0.0826
2.7,0.7877,0.01295,0.00417,-0.0824
2.8,0.7987,0.01309,0.00425,-0.0823
2.9,0.8096,0.01324,0.00434,-0.0821
3,0.8198,0.01345,0.00442,-0.0819
3.1,0.8306,0.0136,0.00452,-0.0817
3.2,0.8414,0.01377,0.00461,-0.0815
3.3,0.8521,0.01394,0.00472,-0.0813
3.4,0.8629,0.0141,0.00481,-0.0812
3.5,0.8736,0.01427,0.00492,-0.081
3.6,0.8844,0.01444,0.00503,-0.0809
3.7,0.8951,0.01461,0.00514,-0.0807
3.8,0.9053,0.01483,0.00526,-0.0805
3.9,0.916,0.01501,0.00539,-0.0804
4,0.9268,0.01518,0.00551,-0.0802
4.1,0.9375,0.01536,0.00564,-0.0801
4.2,0.9484,0.01552,0.00577,-0.0799
4.3,0.9591,0.0157,0.00591,-0.0798
4.4,0.9698,0.01588,0.00606,-0.0796
4.5,0.9808,0.01604,0.0062,-0.0795
4.6,0.9916,0.01622,0.00634,-0.0793
4.8,1.0127,0.01661,0.00665,-0.079
4.9,1.0235,0.01677,0.0068,-0.0789
5,1.0342,0.01696,0.00695,-0.0787
5.1,1.0447,0.01716,0.00712,-0.0785
5.2,1.0557,0.01731,0.00727,-0.0784
5.3,1.0666,0.01747,0.00745,-0.0782
5.4,1.0773,0.01765,0.00762,-0.0781
5.5,1.0879,0.01784,0.00779,-0.0779
5.6,1.0982,0.01806,0.00797,-0.0777
5.7,1.1092,0.0182,0.00812,-0.0776
5.8,1.1199,0.01837,0.0083,-0.0774
5.9,1.1305,0.01855,0.00847,-0.0772
6,1.1409,0.01876,0.00865,-0.077
6.1,1.1513,0.01896,0.00884,-0.0768
6.2,1.1622,0.01911,0.00902,-0.0767
6.3,1.173,0.01928,0.00922,-0.0765
6.4,1.1836,0.01946,0.00941,-0.0763
6.5,1.194,0.01965,0.0096,-0.0761
6.6,1.2043,0.01987,0.0098,-0.0759
6.7,1.2145,0.02005,0.00997,-0.0756
6.8,1.2252,0.02022,0.01017,-0.0754
6.9,1.2357,0.0204,0.01037,-0.0752
7,1.2461,0.0206,0.01058,-0.075
7.1,1.2562,0.02081,0.01078,-0.0748
7.2,1.2662,0.02103,0.01099,-0.0745
7.3,1.2763,0.02125,0.01123,-0.0742
7.4,1.2869,0.02143,0.01145,-0.074
7.5,1.2973,0.02162,0.01168,-0.0738
7.6,1.3076,0.02182,0.0119,-0.0736
7.7,1.3177,0.02203,0.01213,-0.0733
7.8,1.327,0.02225,0.01231,-0.073
7.9,1.3366,0.02249,0.01254,-0.0726
8,1.347,0.02268,0.01279,-0.0724
8.1,1.3572,0.02289,0.01304,-0.0721
8.2,1.3672,0.0231,0.01329,-0.0718
8.3,1.377,0.02333,0.01356,-0.0715
8.4,1.3866,0.02356,0.01381,-0.0712
8.5,1.3961,0.02381,0.01405,-0.0709
8.6,1.4052,0.02407,0.01431,-0.0705
8.7,1.4147,0.02432,0.01457,-0.0701
8.8,1.4246,0.02448,0.01482,-0.0698
8.9,1.4341,0.02472,0.0151,-0.0695
9,1.4435,0.02497,0.01538,-0.0691
9.1,1.4526,0.02522,0.01565,-0.0687
9.2,1.4614,0.02549,0.01593,-0.0683
9.3,1.47,0.02577,0.01621,-0.0678
9.4,1.4787,0.02605,0.01651,-0.0674
9.5,1.4881,0.02631,0.01685,-0.067
9.6,1.4972,0.02657,0.01718,-0.0666
9.7,1.5061,0.02685,0.01751,-0.0662
9.8,1.5147,0.02713,0.01783,-0.0657
9.9,1.5231,0.02741,0.01815,-0.0652
10,1.5303,0.02764,0.01837,-0.0646
10.1,1.5379,0.02796,0.01869,-0.064
10.2,1.5458,0.02827,0.01902,-0.0635
10.3,1.5542,0.02856,0.01941,-0.063
10.4,1.5623,0.02887,0.01979,-0.0625
10.5,1.57,0.02919,0.02017,-0.0619

