airfoilName st11.dat
Re 	2.900000e+05
M 	2.500000e-01
N 	4.500000e+00
VACC 	0 VACCflag 1
XTR 	1.00 	1.00 XTRflag 0
alpha,cl,cd,cdp,cm
-30,-1.6578,0.45328,0.45071,0.3241
-29.9,-1.6547,0.45111,0.44853,0.322
-29.8,-1.6515,0.44895,0.44637,0.3199
-29.7,-1.6483,0.44679,0.44421,0.3178
-29.6,-1.6451,0.44465,0.44207,0.3158
-29.5,-1.6419,0.44251,0.43993,0.3137
-29.4,-1.6387,0.44039,0.4378,0.3116
-29.3,-1.6354,0.43826,0.43567,0.3096
-29.2,-1.6322,0.43615,0.43355,0.3075
-29.1,-1.6289,0.43403,0.43143,0.3055
-29,-1.6256,0.43193,0.42932,0.3034
-28.9,-1.6223,0.42983,0.42722,0.3014
-28.8,-1.619,0.42774,0.42512,0.2994
-28.7,-1.6156,0.42565,0.42303,0.2973
-28.6,-1.6123,0.42356,0.42093,0.2953
-28.5,-1.6089,0.42149,0.41886,0.2933
-28.4,-1.6055,0.41941,0.41678,0.2913
-28.3,-1.6021,0.41736,0.41472,0.2893
-28.2,-1.5987,0.41528,0.41264,0.2873
-28.1,-1.5952,0.41323,0.41059,0.2853
-28,-1.5918,0.41117,0.40852,0.2833
-27.9,-1.5883,0.40912,0.40646,0.2814
-27.8,-1.5848,0.40706,0.40441,0.2794
-27.7,-1.5813,0.40502,0.40236,0.2774
-27.6,-1.5778,0.40298,0.40032,0.2755
-27.5,-1.5743,0.40094,0.39828,0.2735
-27.4,-1.5707,0.39891,0.39624,0.2716
-27.3,-1.5672,0.39688,0.39421,0.2696
-27.2,-1.5636,0.39485,0.39218,0.2677
-27.1,-1.56,0.39283,0.39015,0.2657
-27,-1.5564,0.39081,0.38813,0.2638
-26.9,-1.5528,0.3888,0.38611,0.2619
-26.8,-1.5491,0.38679,0.38411,0.26
-26.7,-1.5455,0.3848,0.38211,0.2581
-26.6,-1.5418,0.38278,0.38008,0.2562
-26.5,-1.5381,0.38079,0.37809,0.2543
-26.4,-1.5344,0.3788,0.37609,0.2524
-26.3,-1.5308,0.37681,0.3741,0.2505
-26.2,-1.527,0.37484,0.37212,0.2486
-26.1,-1.5233,0.37286,0.37014,0.2467
-26,-1.5195,0.37089,0.36817,0.2449
-25.9,-1.5158,0.36892,0.36619,0.243
-25.8,-1.512,0.36695,0.36423,0.2411
-25.7,-1.5082,0.36501,0.36228,0.2393
-25.6,-1.5043,0.36306,0.36033,0.2374
-25.5,-1.5005,0.36111,0.35837,0.2355
-25.4,-1.4967,0.35917,0.35643,0.2337
-25.3,-1.4928,0.35723,0.35449,0.2318
-25.2,-1.4889,0.3553,0.35256,0.23
-25.1,-1.485,0.35338,0.35064,0.2281
-25,-1.4811,0.35147,0.34873,0.2263
-24.9,-1.4772,0.34954,0.34679,0.2244
-24.8,-1.4732,0.34764,0.34489,0.2226
-24.7,-1.4692,0.34574,0.34298,0.2207
-24.6,-1.4652,0.34383,0.34108,0.2189
-24.5,-1.4612,0.34194,0.33918,0.217
-24.4,-1.4571,0.34005,0.33728,0.2152
-24.3,-1.453,0.33814,0.33537,0.2133
-24.2,-1.4489,0.33625,0.33347,0.2115
-24.1,-1.4448,0.33435,0.33157,0.2096
-24,-1.4406,0.33242,0.32964,0.2077
-23.9,-1.4364,0.33048,0.3277,0.2058
-23.7,-1.4202,0.32281,0.32004,0.199
-23.6,-1.4164,0.32079,0.31802,0.1974
-23.5,-1.4127,0.31879,0.31601,0.1958
-23.4,-1.4089,0.3168,0.31402,0.1941
-23.3,-1.4051,0.31482,0.31204,0.1925
-23.2,-1.4013,0.31286,0.31008,0.1909
-23.1,-1.3974,0.31091,0.30813,0.1893
-23,-1.3936,0.30897,0.30618,0.1877
-22.9,-1.3897,0.30705,0.30426,0.1861
-22.8,-1.3858,0.30513,0.30234,0.1845
-22.7,-1.3819,0.30323,0.30043,0.1829
-22.6,-1.3779,0.30133,0.29854,0.1813
-22.5,-1.3739,0.29946,0.29665,0.1798
-22.4,-1.3699,0.29758,0.29477,0.1782
-22.3,-1.3659,0.29571,0.29291,0.1766
-22.2,-1.3619,0.29386,0.29105,0.175
-22.1,-1.3579,0.29201,0.2892,0.1734
-22,-1.3538,0.29016,0.28735,0.1719
-21.9,-1.3497,0.28833,0.28551,0.1703
-21.8,-1.3456,0.2865,0.28367,0.1688
-21.7,-1.3415,0.28467,0.28184,0.1672
-21.6,-1.3374,0.28285,0.28002,0.1657
-21.5,-1.3332,0.28104,0.27821,0.1641
-21.4,-1.3291,0.27923,0.2764,0.1626
-21.3,-1.3249,0.27742,0.27458,0.161
-21.2,-1.3207,0.27562,0.27278,0.1595
-21.1,-1.3165,0.27382,0.27098,0.158
-21,-1.3123,0.27203,0.26919,0.1565
-20.9,-1.308,0.27023,0.26739,0.1549
-20.8,-1.3038,0.26845,0.2656,0.1534
-20.7,-1.2995,0.26666,0.26381,0.1519
-20.6,-1.2952,0.26488,0.26203,0.1504
-20.5,-1.2909,0.2631,0.26025,0.1489
-20.4,-1.2866,0.26132,0.25847,0.1474
-20.3,-1.2823,0.25954,0.25669,0.1459
-20.2,-1.2779,0.25777,0.25492,0.1445
-20.1,-1.2736,0.25601,0.25315,0.143
-20,-1.2692,0.25423,0.25138,0.1415
-19.9,-1.2648,0.25247,0.24961,0.14
-19.8,-1.2604,0.2507,0.24784,0.1386
-19.7,-1.256,0.24894,0.24608,0.1371
-19.6,-1.2516,0.24718,0.24431,0.1357
-19.5,-1.2471,0.24542,0.24254,0.1342
-19.4,-1.2427,0.24366,0.24078,0.1328
-19.3,-1.2382,0.2419,0.23902,0.1313
-19.2,-1.2337,0.24014,0.23727,0.1299
-19.1,-1.2291,0.23839,0.23551,0.1284
-19,-1.2246,0.23663,0.23375,0.127
-18.9,-1.22,0.23488,0.232,0.1256
-18.8,-1.2154,0.23312,0.23024,0.1242
-18.7,-1.2108,0.23136,0.22848,0.1227
-18.6,-1.2062,0.22961,0.22672,0.1213
-18.5,-1.2016,0.22785,0.22496,0.1199
-18.4,-1.1969,0.22609,0.22321,0.1185
-18.3,-1.1918,0.22446,0.22157,0.1169
-18.2,-1.1871,0.22268,0.2198,0.1155
-18.1,-1.1824,0.22091,0.21802,0.1141
-18,-1.1777,0.21914,0.21625,0.1127
-17.9,-1.173,0.21736,0.21447,0.1113
-17.8,-1.1682,0.21559,0.2127,0.1099
-17.7,-1.1635,0.21381,0.21092,0.1085
-17.6,-1.1587,0.21202,0.20913,0.1071
-17.5,-1.1539,0.21024,0.20735,0.1057
-17.4,-1.1491,0.20845,0.20556,0.1044
-17.3,-1.1442,0.20666,0.20377,0.103
-17.2,-1.1394,0.20486,0.20196,0.1016
-17.1,-1.1345,0.20305,0.20014,0.1002
-17,-1.1295,0.20123,0.19832,0.0988
-16.9,-1.1246,0.19939,0.19648,0.0975
-16.8,-1.1197,0.19756,0.19465,0.0961
-16.7,-1.1146,0.19565,0.19274,0.0947
-16.6,-1.1096,0.19375,0.19083,0.0933
-16.5,-1.1044,0.19178,0.18886,0.0919
-16.4,-1.0992,0.18971,0.18679,0.0904
-16.2,-1.082,0.18219,0.17928,0.0856
-16.1,-1.0777,0.18055,0.17765,0.0844
-16,-1.0733,0.17893,0.17603,0.0832
-15.9,-1.0688,0.17733,0.17442,0.082
-15.8,-1.0644,0.17574,0.17283,0.0809
-15.7,-1.0599,0.17415,0.17125,0.0797
-15.6,-1.0553,0.17259,0.16969,0.0785
-15.5,-1.0507,0.17104,0.16813,0.0773
-15.4,-1.0461,0.1695,0.16659,0.0761
-15.3,-1.0413,0.16797,0.16506,0.0749
-15.2,-1.0366,0.16645,0.16354,0.0737
-15.1,-1.0318,0.16494,0.16204,0.0725
-15,-1.027,0.16345,0.16054,0.0713
-14.9,-1.0221,0.16196,0.15906,0.0701
-14.8,-1.0172,0.16048,0.15758,0.0689
-14.7,-1.0122,0.15902,0.15612,0.0677
-14.6,-1.0072,0.15756,0.15466,0.0665
-14.5,-1.0022,0.1561,0.15319,0.0653
-14.4,-0.997,0.15465,0.15174,0.0641
-14.3,-0.9919,0.1532,0.15029,0.0629
-14.2,-0.9867,0.15177,0.14886,0.0617
-14.1,-0.9815,0.15034,0.14744,0.0605
-14,-0.9762,0.14892,0.14602,0.0593
-13.9,-0.9709,0.14751,0.1446,0.0581
-13.8,-0.9656,0.1461,0.1432,0.0569
-13.7,-0.9602,0.1447,0.1418,0.0557
-13.6,-0.9548,0.1433,0.1404,0.0544
-13.5,-0.9494,0.14191,0.13901,0.0532
-13.4,-0.9439,0.14053,0.13764,0.052
-13.2,-0.9324,0.13802,0.13513,0.0495
-13.1,-0.9268,0.13663,0.13374,0.0483
-13,-0.9211,0.13525,0.13236,0.047
-12.9,-0.9154,0.13386,0.13098,0.0458
-12.8,-0.9096,0.13249,0.12961,0.0446
-12.7,-0.9038,0.13112,0.12825,0.0433
-12.6,-0.898,0.12976,0.12688,0.0421
-12.5,-0.8921,0.1284,0.12553,0.0409
-12.4,-0.8862,0.12705,0.12418,0.0396
-12.3,-0.8803,0.1257,0.12283,0.0384
-12.2,-0.8743,0.12436,0.12149,0.0371
-12.1,-0.8683,0.12301,0.12014,0.0359
-12,-0.8622,0.12167,0.11881,0.0346
-11.9,-0.856,0.12034,0.11747,0.0333
-11.8,-0.8498,0.119,0.11614,0.0321
-11.7,-0.8436,0.11768,0.11482,0.0308
-11.6,-0.8373,0.11635,0.1135,0.0295
-11.5,-0.831,0.11503,0.11218,0.0282
-11.4,-0.8247,0.11371,0.11087,0.0269
-11.3,-0.8182,0.1124,0.10956,0.0256
-11.2,-0.8118,0.11108,0.10824,0.0243
-11.1,-0.8052,0.10976,0.10693,0.0229
-11,-0.7987,0.10845,0.10562,0.0216
-10.9,-0.7921,0.10713,0.10431,0.0203
-10.8,-0.7854,0.10582,0.10299,0.0189
-10.7,-0.7787,0.10449,0.10167,0.0175
-10.6,-0.7719,0.10317,0.10036,0.0162
-10.5,-0.765,0.10184,0.09903,0.0148
-10.4,-0.7582,0.10051,0.0977,0.0134
-10.3,-0.7512,0.09915,0.09635,0.0119
-10.2,-0.7443,0.09779,0.09499,0.0105
-10.1,-0.7372,0.09641,0.09362,0.009
-10,-0.7302,0.09499,0.0922,0.0075
-9.9,-0.7231,0.09354,0.09076,0.0059
-9.8,-0.7159,0.09201,0.08922,0.0043
-9.7,-0.7088,0.09035,0.08757,0.0026
-9.5,-0.6921,0.08412,0.08136,-0.0034
-9.4,-0.6862,0.08312,0.08036,-0.0047
-9.3,-0.6798,0.0821,0.07935,-0.006
-9.2,-0.6723,0.08105,0.07829,-0.0077
-9.1,-0.6641,0.07996,0.07721,-0.0094
-9,-0.6558,0.07889,0.07614,-0.0112
-8.9,-0.6474,0.07782,0.07507,-0.0129
-8.8,-0.6391,0.07676,0.07401,-0.0146
-8.7,-0.6308,0.07569,0.07294,-0.0163
-8.6,-0.6227,0.07465,0.07191,-0.0179
-8.5,-0.6151,0.07362,0.07089,-0.0193
-8.4,-0.6079,0.07262,0.06989,-0.0206
-8.3,-0.6013,0.07164,0.06891,-0.0218
-8.2,-0.5875,0.07023,0.0675,-0.0246
-8.1,-0.5719,0.06871,0.06595,-0.0278
-8,-0.5546,0.06708,0.0643,-0.0315
-7,-0.357,0.02627,0.02182,-0.0847
-6.9,-0.3434,0.02495,0.02032,-0.0859
-6.8,-0.3302,0.0238,0.01899,-0.0868
-6.7,-0.3183,0.0228,0.01782,-0.0873
-6.6,-0.3057,0.02186,0.01671,-0.0879
-6.5,-0.2929,0.02098,0.01566,-0.0884
-6.4,-0.2795,0.02015,0.01466,-0.0889
-6.3,-0.2663,0.01937,0.01371,-0.0894
-6.2,-0.2544,0.01869,0.01288,-0.0895
-6.1,-0.2423,0.01805,0.01208,-0.0896
-6,-0.2295,0.01746,0.01133,-0.0898
-5.9,-0.2167,0.01696,0.01067,-0.09
-5.8,-0.204,0.01652,0.01017,-0.0902
-5.7,-0.192,0.01617,0.00979,-0.0902
-5.6,-0.1798,0.01587,0.00946,-0.0903
-5.5,-0.1674,0.0156,0.00914,-0.0903
-5.4,-0.1549,0.01534,0.00883,-0.0904
-5.3,-0.1427,0.01509,0.00851,-0.0904
-5.2,-0.1306,0.01483,0.0082,-0.0903
-5.1,-0.1184,0.01457,0.00789,-0.0903
-5,-0.1061,0.01432,0.00757,-0.0903
-4.9,-0.094,0.01407,0.00725,-0.0902
-4.8,-0.0819,0.01384,0.00695,-0.0902
-4.7,-0.0697,0.01362,0.00668,-0.0901
-4.6,-0.0576,0.01341,0.00644,-0.0901
-4.5,-0.0455,0.01324,0.00625,-0.0901
-4.4,-0.0337,0.01308,0.00607,-0.0899
-4.3,-0.0216,0.01293,0.00589,-0.0899
-4.2,-0.0096,0.0129,0.00582,-0.0898
-4.1,0.0026,0.01275,0.00559,-0.0897
-4,0.0146,0.01256,0.00541,-0.0897
-3.9,0.0264,0.01241,0.00524,-0.0896
-3.8,0.0384,0.01229,0.0051,-0.0895
-3.7,0.0505,0.01217,0.00495,-0.0894
-3.6,0.0626,0.01205,0.0048,-0.0894
-3.5,0.0746,0.012,0.00472,-0.0893
-3.4,0.0863,0.01186,0.00456,-0.0892
-3.3,0.0984,0.01174,0.00444,-0.0892
-3.2,0.1105,0.01165,0.00432,-0.0891
-3.1,0.1225,0.01156,0.00419,-0.089
-3,0.1345,0.01147,0.00406,-0.089
-2.9,0.1467,0.01138,0.00396,-0.0889
-2.8,0.1583,0.01131,0.0039,-0.0888
-2.7,0.1704,0.01124,0.0038,-0.0888
-2.6,0.1822,0.01118,0.0037,-0.0886
-2.5,0.1939,0.01113,0.0036,-0.0885
-2.4,0.2056,0.01106,0.00352,-0.0883
-2.3,0.2175,0.01101,0.00345,-0.0883
-2.2,0.2291,0.01099,0.00338,-0.0881
-2.1,0.2408,0.01094,0.0033,-0.088
-2,0.2528,0.01089,0.00324,-0.088
-1.9,0.2648,0.01085,0.00319,-0.0879
-1.8,0.2768,0.01082,0.00312,-0.0879
-1.7,0.2887,0.01077,0.00309,-0.0879
-1.6,0.3002,0.01078,0.00304,-0.0877
-1.5,0.3122,0.01074,0.003,-0.0877
-1.4,0.3242,0.01072,0.00296,-0.0876
-1.3,0.3359,0.01072,0.00292,-0.0875
-1.2,0.3478,0.01068,0.0029,-0.0875
-1.1,0.3592,0.01071,0.00285,-0.0874
-1,0.3711,0.0107,0.00283,-0.0873
-0.9,0.383,0.01069,0.00281,-0.0873
-0.8,0.3949,0.01068,0.00279,-0.0873
-0.7,0.4063,0.0107,0.00278,-0.0872
-0.6,0.4181,0.0107,0.00276,-0.0872
-0.5,0.43,0.01071,0.00274,-0.0871
-0.4,0.4413,0.01076,0.00274,-0.087
-0.3,0.4531,0.01075,0.00273,-0.087
-0.2,0.4649,0.01076,0.00273,-0.087
-0.1,0.4768,0.01077,0.00272,-0.087
0,0.4885,0.01078,0.00272,-0.087
0.1,0.5003,0.01075,0.00273,-0.087
0.2,0.5121,0.01076,0.00273,-0.087
0.3,0.5234,0.01079,0.00274,-0.0869
0.4,0.5352,0.01077,0.00275,-0.087
0.5,0.5469,0.01075,0.00277,-0.087
0.6,0.5584,0.01058,0.00278,-0.0871
0.7,0.5699,0.01048,0.00281,-0.0872
0.9,0.5837,0.00917,0.00267,-0.0846
1,0.5955,0.00924,0.00269,-0.0845
1.1,0.6067,0.00937,0.00273,-0.0844
1.2,0.6183,0.00947,0.00276,-0.0843
1.3,0.63,0.00956,0.00279,-0.0843
1.4,0.6416,0.00965,0.00283,-0.0843
1.5,0.6532,0.00975,0.00286,-0.0842
1.6,0.6647,0.00985,0.00291,-0.0841
1.7,0.6762,0.00996,0.00295,-0.0841
1.8,0.6877,0.01007,0.00299,-0.084
1.9,0.6986,0.01024,0.00306,-0.0839
2,0.71,0.01035,0.00311,-0.0838
2.1,0.7214,0.01048,0.00316,-0.0838
2.2,0.7327,0.01061,0.00323,-0.0837
2.3,0.7439,0.01075,0.0033,-0.0836
2.4,0.7551,0.01089,0.00337,-0.0835
2.5,0.7663,0.01103,0.00343,-0.0834
2.6,0.7775,0.01118,0.0035,-0.0834
2.7,0.7881,0.01139,0.00361,-0.0832
2.8,0.7993,0.01154,0.00368,-0.0832
2.9,0.8105,0.01168,0.00376,-0.0831
3,0.8217,0.01183,0.00385,-0.083
3.1,0.833,0.01196,0.00393,-0.083
3.2,0.8442,0.0121,0.00402,-0.0829
3.3,0.8556,0.01223,0.00411,-0.0828
3.4,0.867,0.01234,0.0042,-0.0828
3.5,0.8783,0.01248,0.00429,-0.0827
3.6,0.8896,0.01261,0.00439,-0.0827
3.7,0.9008,0.01275,0.00448,-0.0826
3.8,0.9121,0.01287,0.00457,-0.0825
3.9,0.9233,0.01301,0.00468,-0.0824
4,0.9348,0.01311,0.00477,-0.0824
4.1,0.9462,0.01322,0.00486,-0.0823
4.2,0.9576,0.01334,0.00497,-0.0823
4.3,0.9688,0.01347,0.00507,-0.0822
4.4,0.9801,0.01359,0.00518,-0.0821
4.5,0.9915,0.01369,0.00528,-0.082
4.6,1.0029,0.0138,0.00537,-0.082
4.7,1.014,0.01395,0.00548,-0.0819
4.8,1.0251,0.01409,0.00559,-0.0818
4.9,1.0364,0.0142,0.0057,-0.0817
5,1.0478,0.0143,0.00581,-0.0816
5.1,1.0591,0.01442,0.00591,-0.0815
5.2,1.0703,0.01454,0.00604,-0.0814
5.3,1.0814,0.01467,0.00615,-0.0813
5.4,1.0924,0.01482,0.00627,-0.0812
5.5,1.1037,0.01493,0.00639,-0.0811
5.6,1.1149,0.01504,0.0065,-0.081
5.7,1.1261,0.01517,0.00662,-0.0809
5.8,1.1371,0.0153,0.00674,-0.0808
5.9,1.1481,0.01544,0.00687,-0.0807
6,1.1589,0.01559,0.00701,-0.0805
6.1,1.1702,0.0157,0.00713,-0.0804
6.2,1.1813,0.01582,0.00727,-0.0803
6.3,1.1924,0.01595,0.0074,-0.0801
6.4,1.2034,0.01608,0.00753,-0.08
6.5,1.2142,0.01623,0.00767,-0.0798
6.6,1.225,0.01638,0.00781,-0.0797
6.7,1.2357,0.01652,0.00795,-0.0795
6.8,1.2468,0.01665,0.00809,-0.0794
6.9,1.2577,0.01678,0.00823,-0.0792
7,1.2685,0.01692,0.00838,-0.079
7.1,1.2792,0.01707,0.00853,-0.0788
7.2,1.2898,0.01723,0.0087,-0.0786
7.3,1.3002,0.01741,0.00886,-0.0784
7.4,1.3109,0.01756,0.00902,-0.0782
7.5,1.3217,0.01769,0.00918,-0.078
7.6,1.3324,0.01784,0.00935,-0.0778
7.7,1.343,0.01798,0.00949,-0.0776
7.8,1.3534,0.01815,0.00966,-0.0774
7.9,1.3637,0.01832,0.00983,-0.0771
8,1.3738,0.01851,0.01001,-0.0769
8.1,1.3842,0.01868,0.01019,-0.0766
8.2,1.3947,0.01882,0.01039,-0.0764
8.3,1.4052,0.01898,0.01057,-0.0761
8.4,1.4155,0.01915,0.01075,-0.0759
8.5,1.4257,0.01932,0.01094,-0.0756
8.6,1.4357,0.0195,0.01114,-0.0753
8.7,1.4456,0.01969,0.01133,-0.075
8.8,1.4549,0.01991,0.01152,-0.0746
8.9,1.4652,0.02007,0.01172,-0.0743
9,1.4753,0.02024,0.01193,-0.074
9.1,1.4852,0.02043,0.01214,-0.0737
9.2,1.495,0.02061,0.01236,-0.0733
9.3,1.5046,0.02081,0.01258,-0.073
9.4,1.514,0.02102,0.0128,-0.0726
9.5,1.5233,0.02123,0.01303,-0.0722
9.6,1.5323,0.02146,0.01326,-0.0717
9.7,1.5412,0.0217,0.01351,-0.0713
9.8,1.5508,0.02189,0.01374,-0.0709
9.9,1.5602,0.02209,0.01398,-0.0705
10,1.5695,0.02227,0.0142,-0.07
10.1,1.5783,0.02249,0.01444,-0.0696
10.2,1.587,0.02272,0.0147,-0.0691
10.3,1.5953,0.02296,0.01496,-0.0685
10.4,1.6034,0.02322,0.01524,-0.068
10.5,1.611,0.02349,0.01552,-0.0673
10.6,1.6191,0.02373,0.0158,-0.0667
10.7,1.6276,0.02396,0.01607,-0.0662
10.8,1.6357,0.02419,0.01636,-0.0656
10.9,1.6435,0.02444,0.01664,-0.065
11,1.6511,0.02469,0.01694,-0.0643
11.1,1.6583,0.02496,0.01724,-0.0636
11.2,1.6651,0.02523,0.01754,-0.0629
11.4,1.6754,0.0258,0.01814,-0.0609
11.5,1.6799,0.02613,0.01848,-0.0598
11.6,1.6857,0.02643,0.01883,-0.0589
11.7,1.6918,0.02672,0.01918,-0.0581
11.8,1.6976,0.02702,0.01955,-0.0573
11.9,1.7032,0.02734,0.01992,-0.0564
12,1.7087,0.02767,0.0203,-0.0556
12.1,1.7139,0.02802,0.0207,-0.0547
12.2,1.7189,0.02838,0.0211,-0.0539
12.3,1.7237,0.02875,0.02152,-0.0531
12.4,1.7282,0.02915,0.02195,-0.0523
12.5,1.7324,0.02956,0.0224,-0.0515
12.6,1.7363,0.03,0.02287,-0.0507
12.7,1.7399,0.03047,0.02337,-0.05
12.8,1.7449,0.03086,0.02381,-0.0494
12.9,1.7498,0.03129,0.0243,-0.0487
13,1.7545,0.03173,0.02481,-0.0481
13.1,1.7589,0.03219,0.02533,-0.0475
13.2,1.7631,0.03267,0.02587,-0.047
13.3,1.767,0.03317,0.02643,-0.0465
13.4,1.7708,0.03369,0.027,-0.046
13.5,1.7745,0.03424,0.0276,-0.0455
13.6,1.7778,0.03481,0.02822,-0.0451
13.7,1.781,0.03541,0.02888,-0.0448
13.8,1.784,0.03603,0.02955,-0.0445
13.9,1.7867,0.0367,0.03026,-0.0443
14,1.789,0.03741,0.03101,-0.0442
14.1,1.7914,0.03814,0.03178,-0.0441
14.2,1.7976,0.03858,0.03233,-0.044
14.3,1.8012,0.03925,0.03307,-0.044
14.4,1.8046,0.03995,0.03384,-0.0441
14.5,1.8079,0.04067,0.03463,-0.0442
14.6,1.8111,0.04142,0.03545,-0.0445
14.7,1.8143,0.04221,0.0363,-0.0448
14.8,1.8173,0.04302,0.03718,-0.0452
14.9,1.8201,0.04388,0.03807,-0.0459
15,1.8227,0.04479,0.03904,-0.0466
15.1,1.8251,0.04576,0.04006,-0.0474
15.2,1.8272,0.0468,0.04115,-0.0484
15.3,1.8302,0.04776,0.04218,-0.0493
15.4,1.8338,0.04867,0.04318,-0.0501
15.5,1.8371,0.04963,0.04424,-0.0511
15.6,1.8417,0.0505,0.04519,-0.0521
15.7,1.8446,0.05158,0.04635,-0.0534
15.8,1.8474,0.05271,0.04757,-0.0548
15.9,1.8499,0.05391,0.04884,-0.0563
16,1.8523,0.05516,0.05018,-0.058
16.1,1.8545,0.05648,0.05158,-0.0599
16.2,1.8564,0.05789,0.05306,-0.0619
16.3,1.8579,0.05938,0.05462,-0.0641
16.4,1.8591,0.06096,0.05628,-0.0664
16.5,1.8598,0.06266,0.05805,-0.069
16.6,1.8618,0.0642,0.05968,-0.0711
16.7,1.8629,0.06584,0.06143,-0.0735
16.8,1.8637,0.06757,0.06326,-0.0759
16.9,1.8639,0.06941,0.0652,-0.0785
17,1.8639,0.07142,0.0673,-0.0814
17.1,1.863,0.07354,0.06951,-0.0844
17.2,1.8616,0.07579,0.07185,-0.0875
17.3,1.8595,0.07818,0.07434,-0.0908
17.4,1.857,0.08069,0.07694,-0.0942
17.5,1.8538,0.08336,0.07969,-0.0978
17.6,1.8502,0.08613,0.08255,-0.1015
17.7,1.8461,0.089,0.08549,-0.1052
17.8,1.8418,0.09191,0.08849,-0.109
17.9,1.8373,0.09484,0.09149,-0.1127
18,1.8327,0.09773,0.09443,-0.1164
18.1,1.8284,0.1005,0.09726,-0.12
18.2,1.8237,0.10341,0.10027,-0.1235
18.3,1.8183,0.10645,0.10341,-0.1273
18.4,1.8123,0.10963,0.10669,-0.1312
18.5,1.8062,0.11281,0.10996,-0.1351
18.6,1.7991,0.11632,0.11355,-0.1394
18.7,1.7912,0.12003,0.11735,-0.1439
18.9,1.7732,0.12828,0.12578,-0.1536
19.2,1.74,0.1436,0.14129,-0.1707
19.3,1.7406,0.14533,0.14304,-0.1729
19.4,1.7443,0.14611,0.14381,-0.1741
19.5,1.7492,0.14648,0.14418,-0.1749
19.6,1.755,0.14656,0.14424,-0.1754
19.8,1.6945,0.17294,0.17084,-0.1995
19.9,1.6971,0.17432,0.17224,-0.2011
20,1.7004,0.17539,0.17332,-0.2025
20.1,1.7063,0.17547,0.17339,-0.2032
20.2,1.711,0.17598,0.17392,-0.2041
20.3,1.7164,0.17617,0.17411,-0.2048
20.4,1.7226,0.17605,0.17399,-0.2052
20.8,1.7084,0.19392,0.19195,-0.2211
20.9,1.7124,0.19467,0.19271,-0.2222
21,1.7169,0.19524,0.19329,-0.2232
21.1,1.7217,0.19558,0.19364,-0.224
21.5,1.7201,0.20962,0.20774,-0.2363
21.6,1.724,0.21039,0.20852,-0.2375
22.1,1.7331,0.22236,0.22053,-0.2487
22.3,1.7347,0.22899,0.22718,-0.2543
22.4,1.7374,0.23077,0.22897,-0.2561
22.5,1.7403,0.23228,0.23049,-0.2577
22.6,1.7433,0.23361,0.23183,-0.2593
22.7,1.7466,0.2348,0.23303,-0.2607
22.8,1.7498,0.23597,0.23421,-0.2621
22.9,1.7532,0.23698,0.23523,-0.2635
23,1.7566,0.23792,0.23618,-0.2648
23.1,1.759,0.23988,0.23813,-0.2667
23.2,1.7593,0.244,0.24226,-0.27
23.3,1.7615,0.24624,0.24451,-0.2721
23.4,1.764,0.24809,0.24637,-0.2739
23.5,1.7668,0.24975,0.24804,-0.2757
23.6,1.7696,0.25127,0.24957,-0.2774
23.7,1.7725,0.25269,0.25099,-0.279
23.9,1.7784,0.25532,0.25366,-0.2821
24,1.7814,0.25656,0.25491,-0.2836
24.1,1.7844,0.25772,0.25607,-0.285
24.2,1.7875,0.25882,0.25717,-0.2865
24.3,1.7906,0.25983,0.25819,-0.2878
24.7,1.7976,0.27208,0.27045,-0.2983
24.8,1.8001,0.27398,0.27236,-0.3002
24.9,1.8028,0.27573,0.27411,-0.302
25,1.8054,0.2774,0.27579,-0.3038
25.1,1.8081,0.27899,0.27739,-0.3056
25.3,1.814,0.28116,0.27957,-0.3086
25.4,1.8167,0.28251,0.28093,-0.3102
25.5,1.8194,0.28383,0.28226,-0.3118
25.6,1.8221,0.28507,0.2835,-0.3134
25.7,1.8248,0.28631,0.28475,-0.315
25.8,1.8275,0.28747,0.28592,-0.3166
25.9,1.8301,0.28862,0.28707,-0.3181
26.9,1.768,0.33137,0.32973,-0.3352
27,1.7732,0.33205,0.33042,-0.3373
27.1,1.7784,0.33263,0.33101,-0.3394
27.2,1.7835,0.33321,0.3316,-0.3415
27.3,1.7886,0.33374,0.33214,-0.3435
27.5,1.7988,0.33452,0.33295,-0.3476
27.6,1.8038,0.33501,0.33345,-0.3496
27.7,1.8088,0.33534,0.33379,-0.3516
27.8,1.8136,0.33588,0.33436,-0.3536
27.9,1.8185,0.33621,0.3347,-0.3556
28,1.8233,0.33658,0.33508,-0.3576
28.1,1.8282,0.33691,0.33542,-0.3595
28.2,1.8329,0.33732,0.33584,-0.3615

