airfoilName st12.dat
Re 	190000
M 	2.500000e-01
N 	4.500000e+00
VACC 	0 VACCflag 1
XTR 	1.00 	1.00 XTRflag 0
alpha,cl,cd,cdp,cm
-15.2,-0.9961,0.1764,0.17269,0.0699
-15.1,-0.9909,0.17459,0.17088,0.0686
-15,-0.9856,0.17274,0.16902,0.0673
-14.9,-0.9802,0.17084,0.16712,0.0659
-14.8,-0.9745,0.16883,0.16512,0.0645
-14.6,-0.9577,0.16288,0.15919,0.06
-14.5,-0.9532,0.16134,0.15765,0.0589
-14.4,-0.9488,0.15982,0.15613,0.0578
-14.3,-0.9441,0.15831,0.15462,0.0567
-14.2,-0.9395,0.15682,0.15313,0.0556
-14.1,-0.9348,0.15534,0.15166,0.0545
-14,-0.93,0.15388,0.15019,0.0534
-13.9,-0.9252,0.15242,0.14874,0.0523
-13.8,-0.9203,0.15098,0.1473,0.0512
-13.7,-0.9154,0.14955,0.14587,0.0501
-13.6,-0.9105,0.14813,0.14445,0.049
-13.5,-0.9055,0.14672,0.14304,0.0479
-13.4,-0.9004,0.14531,0.14164,0.0468
-13.3,-0.8953,0.14392,0.14024,0.0457
-13.2,-0.8901,0.14253,0.13886,0.0445
-13.1,-0.8849,0.14114,0.13748,0.0434
-13,-0.8796,0.13977,0.1361,0.0423
-12.9,-0.8743,0.1384,0.13474,0.0411
-12.8,-0.869,0.13703,0.13338,0.04
-12.7,-0.8636,0.13568,0.13202,0.0388
-12.6,-0.8581,0.13433,0.13067,0.0377
-12.5,-0.8526,0.13298,0.12932,0.0365
-12.4,-0.8471,0.13164,0.12798,0.0354
-12.3,-0.8416,0.13031,0.12665,0.0342
-12.2,-0.836,0.12898,0.12533,0.0331
-12.1,-0.8303,0.12766,0.12401,0.0319
-12,-0.8246,0.12634,0.12269,0.0307
-11.9,-0.8188,0.12503,0.12138,0.0296
-11.8,-0.813,0.12372,0.12008,0.0284
-11.7,-0.8072,0.12241,0.11878,0.0272
-11.6,-0.8013,0.12112,0.11748,0.026
-11.5,-0.7954,0.11982,0.1162,0.0249
-11.4,-0.7895,0.11854,0.11491,0.0237
-11.2,-0.7768,0.11615,0.11254,0.0211
-11.1,-0.7707,0.11485,0.11125,0.0199
-11,-0.7645,0.11356,0.10996,0.0187
-10.9,-0.7584,0.11228,0.10868,0.0175
-10.8,-0.7522,0.111,0.1074,0.0163
-10.7,-0.746,0.10972,0.10613,0.0151
-10.6,-0.7397,0.10844,0.10486,0.0138
-10.5,-0.7334,0.10717,0.1036,0.0126
-10.4,-0.727,0.1059,0.10233,0.0114
-10.3,-0.7207,0.10464,0.10108,0.0101
-10.2,-0.7143,0.10338,0.09982,0.0089
-10.1,-0.7078,0.10211,0.09856,0.0076
-10,-0.7014,0.10085,0.09729,0.0063
-9.9,-0.6949,0.09959,0.09604,0.0051
-9.8,-0.6885,0.09834,0.09479,0.0038
-9.7,-0.6821,0.09708,0.09354,0.0025
-9.6,-0.6757,0.09582,0.09229,0.0012
-9.5,-0.6693,0.09455,0.09103,0
-9.4,-0.663,0.09329,0.08977,-0.0013
-9.3,-0.6569,0.09201,0.08851,-0.0026
-9.2,-0.6508,0.09073,0.08723,-0.0039
-9.1,-0.6447,0.08941,0.08591,-0.0052
-9,-0.638,0.08797,0.08449,-0.0068
-8.8,-0.6147,0.08209,0.07862,-0.0143
-8.7,-0.6084,0.08104,0.07758,-0.0155
-8.6,-0.602,0.08,0.07655,-0.0167
-8.5,-0.5958,0.079,0.07555,-0.0178
-8.4,-0.5898,0.07802,0.07458,-0.0188
-8.3,-0.5839,0.07706,0.07363,-0.0198
-8.2,-0.5782,0.07612,0.0727,-0.0207
-8.1,-0.5727,0.0752,0.07179,-0.0215
-8,-0.5676,0.0743,0.0709,-0.0223
-7.9,-0.5627,0.07341,0.07002,-0.0229
-7.8,-0.5582,0.07253,0.06916,-0.0235
-7.6,-0.533,0.06988,0.06648,-0.0282
-7.5,-0.5179,0.0684,0.06498,-0.0311
-6.6,-0.3384,0.04129,0.03715,-0.0721
-6.5,-0.323,0.04038,0.0362,-0.0739
-6.4,-0.3079,0.03937,0.03515,-0.0756
-6.3,-0.2941,0.03828,0.034,-0.077
-6.2,-0.2795,0.03704,0.03268,-0.0786
-6.1,-0.2644,0.03552,0.03108,-0.0804
-5.7,-0.1965,0.02327,0.01729,-0.0905
-5.6,-0.1835,0.02163,0.01519,-0.0912
-5.5,-0.1707,0.02104,0.01458,-0.0916
-5.4,-0.1575,0.02058,0.01408,-0.092
-5.3,-0.1439,0.02016,0.0136,-0.0925
-5.2,-0.1294,0.01972,0.0131,-0.0931
-5.1,-0.1165,0.0193,0.01261,-0.0934
-5,-0.1045,0.01888,0.0121,-0.0935
-4.9,-0.0917,0.01841,0.01154,-0.0937
-4.8,-0.0781,0.01791,0.01092,-0.094
-4.7,-0.0645,0.0174,0.01026,-0.0943
-4.6,-0.0506,0.01689,0.00959,-0.0947
-4.5,-0.0388,0.0165,0.00912,-0.0946
-4.4,-0.0263,0.01621,0.00883,-0.0947
-4.3,-0.0134,0.01597,0.00856,-0.0949
-4.2,-0.0001,0.01573,0.00829,-0.0952
-4.1,0.013,0.01569,0.0082,-0.0954
-4,0.025,0.01539,0.00782,-0.0953
-3.9,0.0377,0.01512,0.00742,-0.0953
-3.8,0.0504,0.01482,0.00715,-0.0955
-3.7,0.0635,0.01461,0.00693,-0.0957
-3.6,0.0755,0.01443,0.00673,-0.0956
-3.5,0.0878,0.01425,0.00652,-0.0956
-3.4,0.1004,0.01405,0.00627,-0.0956
-3.3,0.1131,0.01395,0.00613,-0.0957
-3.2,0.1255,0.01376,0.00594,-0.0958
-3.1,0.1373,0.01361,0.00578,-0.0957
-3,0.1497,0.01346,0.00559,-0.0957
-2.9,0.1623,0.0133,0.00539,-0.0957
-2.8,0.1743,0.01317,0.0052,-0.0956
-2.7,0.1862,0.01302,0.00506,-0.0955
-2.6,0.1984,0.01295,0.00502,-0.0955
-2.5,0.2106,0.01284,0.00487,-0.0955
-2.4,0.2226,0.01273,0.00472,-0.0954
-2.3,0.2346,0.0126,0.0046,-0.0954
-2.2,0.2468,0.0125,0.0045,-0.0953
-2.1,0.2585,0.01245,0.00443,-0.0952
-2,0.2705,0.01236,0.00432,-0.0951
-1.9,0.2822,0.01227,0.00422,-0.095
-1.8,0.2935,0.0122,0.00412,-0.0947
-1.7,0.3053,0.01213,0.00402,-0.0945
-1.6,0.3171,0.01208,0.004,-0.0945
-1.5,0.3286,0.01203,0.00391,-0.0942
-1.4,0.3406,0.01198,0.00383,-0.0942
-1.3,0.3521,0.01192,0.00376,-0.094
-1.2,0.3638,0.01188,0.00371,-0.0938
-1.1,0.3752,0.01185,0.00366,-0.0936
-1,0.387,0.01181,0.00361,-0.0936
-0.9,0.3988,0.01179,0.00355,-0.0934
-0.8,0.4106,0.01174,0.00352,-0.0934
-0.7,0.4221,0.01173,0.00347,-0.0932
-0.6,0.4332,0.01172,0.00344,-0.0929
-0.5,0.445,0.0117,0.00341,-0.0929
-0.4,0.4567,0.01168,0.00337,-0.0928
-0.3,0.4683,0.01168,0.00335,-0.0926
-0.2,0.4797,0.01167,0.00331,-0.0925
-0.1,0.4913,0.01165,0.0033,-0.0924
0,0.5026,0.01166,0.00327,-0.0922
0.1,0.5142,0.01165,0.00325,-0.0921
0.2,0.5258,0.01165,0.00323,-0.092
0.3,0.5373,0.01161,0.00322,-0.092
0.4,0.5488,0.0116,0.00321,-0.0919
0.5,0.5603,0.01158,0.0032,-0.0918
0.7,0.5826,0.01153,0.0032,-0.0915
0.9,0.5969,0.00999,0.00302,-0.0891
1,0.6085,0.01007,0.00303,-0.089
1.1,0.6199,0.01016,0.00305,-0.0889
1.2,0.6314,0.01025,0.00307,-0.0888
1.3,0.6428,0.01034,0.0031,-0.0886
1.4,0.6537,0.01048,0.00313,-0.0884
1.5,0.665,0.01059,0.00317,-0.0883
1.6,0.6764,0.01068,0.0032,-0.0882
1.7,0.6878,0.01079,0.00324,-0.088
1.8,0.699,0.0109,0.00328,-0.0879
1.9,0.7103,0.011,0.00333,-0.0878
2,0.7215,0.01112,0.00338,-0.0876
2.1,0.7322,0.01128,0.00343,-0.0874
2.2,0.7433,0.01141,0.00349,-0.0872
2.3,0.7543,0.01154,0.00354,-0.0871
2.4,0.7654,0.01167,0.00361,-0.0869
2.5,0.7764,0.0118,0.00368,-0.0868
2.6,0.7873,0.01194,0.00375,-0.0866
2.7,0.7982,0.01209,0.00383,-0.0865
2.8,0.809,0.01224,0.00391,-0.0863
2.9,0.8198,0.0124,0.00399,-0.0861
3,0.83,0.01262,0.00408,-0.0859
3.1,0.8407,0.01279,0.00418,-0.0857
3.2,0.8514,0.01296,0.00428,-0.0856
3.3,0.8622,0.01312,0.00436,-0.0854
3.4,0.873,0.01328,0.00446,-0.0853
3.5,0.8837,0.01345,0.00458,-0.0851
3.6,0.8945,0.01361,0.00468,-0.085
3.7,0.9053,0.01378,0.0048,-0.0848
3.8,0.9155,0.01401,0.00492,-0.0846
3.9,0.9265,0.01415,0.00504,-0.0845
4,0.9374,0.01431,0.00515,-0.0844
4.1,0.9481,0.01449,0.00528,-0.0842
4.2,0.9591,0.01462,0.0054,-0.0841
4.3,0.9701,0.01477,0.00552,-0.084
4.4,0.9809,0.01493,0.00565,-0.0838
4.5,0.9916,0.01511,0.00579,-0.0836
4.6,1.0027,0.01524,0.00594,-0.0835
4.7,1.0137,0.01538,0.00606,-0.0834
4.8,1.024,0.01559,0.00621,-0.0832
4.9,1.035,0.01573,0.00635,-0.0831
5,1.046,0.01587,0.00648,-0.0829
5.1,1.0569,0.01602,0.00662,-0.0828
5.2,1.0676,0.01618,0.00676,-0.0826
5.3,1.0782,0.01636,0.00691,-0.0824
5.4,1.0891,0.0165,0.00706,-0.0823
5.5,1.1001,0.01664,0.00721,-0.0821
5.6,1.1109,0.01679,0.00736,-0.082
5.7,1.1213,0.01697,0.00752,-0.0817
5.8,1.1317,0.01716,0.00769,-0.0815
5.9,1.1427,0.01729,0.00784,-0.0814
6,1.1535,0.01743,0.00799,-0.0812
6.1,1.1642,0.01759,0.00815,-0.081
6.2,1.1748,0.01776,0.00832,-0.0808
6.3,1.1852,0.01794,0.00849,-0.0806
6.4,1.1954,0.01814,0.00866,-0.0804
6.5,1.2063,0.01827,0.00883,-0.0802
6.6,1.2171,0.01843,0.00901,-0.08
6.7,1.2274,0.01859,0.00918,-0.0798
6.8,1.2377,0.01877,0.00936,-0.0795
6.9,1.2478,0.01897,0.00954,-0.0793
7,1.2583,0.01915,0.00973,-0.079
7.1,1.2689,0.0193,0.00992,-0.0788
7.2,1.2793,0.01947,0.01011,-0.0786
7.3,1.2897,0.01965,0.0103,-0.0783
7.4,1.2998,0.01984,0.0105,-0.0781
7.5,1.3098,0.02004,0.0107,-0.0778
7.6,1.3195,0.02026,0.01091,-0.0775
7.7,1.33,0.02041,0.01111,-0.0772
7.8,1.3402,0.02059,0.01132,-0.0769
7.9,1.3502,0.02078,0.01153,-0.0767
8,1.3601,0.02099,0.01175,-0.0763
8.1,1.3697,0.0212,0.01197,-0.076
8.2,1.3792,0.02143,0.01219,-0.0756
8.3,1.3888,0.02165,0.01242,-0.0753
8.4,1.3989,0.02184,0.01266,-0.075
8.5,1.4088,0.02204,0.01291,-0.0747
8.6,1.4185,0.02225,0.01315,-0.0743
8.7,1.428,0.02247,0.0134,-0.0739
8.8,1.4368,0.02269,0.01361,-0.0735
8.9,1.4456,0.02294,0.01386,-0.0731
9,1.4551,0.02317,0.01412,-0.0727
9.1,1.4647,0.02338,0.0144,-0.0723
9.2,1.474,0.02361,0.01467,-0.0719
9.3,1.4831,0.02385,0.01495,-0.0714
9.4,1.492,0.02409,0.01522,-0.071
9.5,1.5006,0.02435,0.0155,-0.0705
9.6,1.5089,0.02462,0.01578,-0.07
9.7,1.5169,0.0249,0.01607,-0.0694
9.8,1.5251,0.02519,0.01637,-0.0689
9.9,1.5343,0.02537,0.01664,-0.0684
10,1.5427,0.02563,0.01698,-0.0679
10.1,1.5508,0.02591,0.01729,-0.0674
10.2,1.5585,0.02619,0.01761,-0.0667
10.3,1.5659,0.02648,0.01792,-0.0661
10.4,1.5729,0.02678,0.01825,-0.0654
10.5,1.5793,0.02711,0.01858,-0.0647
10.6,1.5862,0.02742,0.01893,-0.0639
10.7,1.5938,0.02771,0.0193,-0.0633
10.8,1.6009,0.02802,0.01967,-0.0626
10.9,1.6075,0.02833,0.02005,-0.0618
11,1.6132,0.02865,0.02042,-0.0609
11.1,1.6185,0.02898,0.02079,-0.06
11.2,1.6226,0.02926,0.02108,-0.059
11.3,1.627,0.02962,0.02147,-0.058
11.4,1.631,0.03001,0.02188,-0.057
11.5,1.635,0.03042,0.02233,-0.056
11.6,1.6408,0.03079,0.02279,-0.0552
11.7,1.6462,0.03118,0.02325,-0.0544
11.8,1.6512,0.03158,0.02373,-0.0536
11.9,1.6559,0.032,0.02422,-0.0528
12,1.6604,0.03243,0.02471,-0.052
12.1,1.6645,0.03287,0.02521,-0.0512
12.2,1.6684,0.03333,0.02572,-0.0505
12.3,1.6721,0.03381,0.02625,-0.0497
12.4,1.6754,0.03431,0.02679,-0.049
12.5,1.6784,0.03483,0.02735,-0.0483
12.6,1.681,0.03539,0.02794,-0.0476
12.7,1.6833,0.03598,0.02854,-0.0469
12.8,1.6885,0.03642,0.02913,-0.0465
12.9,1.6921,0.03699,0.02978,-0.0459
13,1.6953,0.03759,0.03045,-0.0455
13.1,1.6984,0.03819,0.03114,-0.045
13.2,1.7013,0.03882,0.03184,-0.0446
13.3,1.704,0.03947,0.03255,-0.0443
13.4,1.7065,0.04014,0.03331,-0.044
13.5,1.7088,0.04084,0.03406,-0.0437
13.6,1.7109,0.04156,0.03483,-0.0436
13.7,1.7128,0.04232,0.03564,-0.0435
13.8,1.7145,0.04311,0.03647,-0.0435
13.9,1.7159,0.04394,0.03734,-0.0436
14,1.7181,0.04478,0.03824,-0.0438
14.1,1.7207,0.04562,0.0392,-0.0439
14.2,1.723,0.04649,0.04018,-0.0442
14.3,1.7252,0.04739,0.04119,-0.0445
14.4,1.7272,0.04833,0.04222,-0.045
14.5,1.7291,0.04929,0.04328,-0.0455
14.6,1.731,0.05029,0.04436,-0.0462
14.7,1.7334,0.05123,0.04538,-0.0472
14.8,1.7353,0.05228,0.0465,-0.0481
14.9,1.7371,0.05336,0.04765,-0.0492
15,1.739,0.05447,0.04883,-0.0504
15.1,1.7407,0.05561,0.05004,-0.0517
15.2,1.7424,0.0568,0.05128,-0.0531
15.3,1.744,0.05801,0.05254,-0.0546
15.4,1.7454,0.05926,0.05383,-0.0562
15.5,1.7467,0.06068,0.05537,-0.058
15.6,1.7477,0.06217,0.057,-0.0599
15.7,1.7484,0.06373,0.05869,-0.062
15.8,1.7489,0.06535,0.06044,-0.0642
15.9,1.7493,0.06704,0.06225,-0.0666
16,1.7502,0.069,0.06433,-0.0701
16.1,1.7504,0.07082,0.06627,-0.0728
16.2,1.7503,0.07272,0.06826,-0.0756
16.3,1.7501,0.07468,0.07032,-0.0785
16.4,1.7497,0.07671,0.07243,-0.0815
16.5,1.7492,0.07876,0.07456,-0.0845
16.6,1.7486,0.08081,0.07668,-0.0875
16.7,1.748,0.08286,0.07878,-0.0904
16.8,1.7474,0.08484,0.08081,-0.0933
17,1.7364,0.09201,0.08823,-0.1032
17.3,1.7063,0.10652,0.10318,-0.1214
17.6,1.6279,0.13636,0.13338,-0.1534
17.7,1.6285,0.13822,0.13526,-0.1555
17.8,1.6311,0.13939,0.13645,-0.1569
17.9,1.6439,0.13723,0.13428,-0.1556
18,1.6485,0.1376,0.13466,-0.1563
18.1,1.6538,0.13774,0.13482,-0.1568
18.2,1.6597,0.13763,0.13471,-0.1571
18.3,1.6663,0.13722,0.13432,-0.157
18.4,1.6742,0.13634,0.13345,-0.1565
19.1,1.6397,0.16529,0.16252,-0.1856
19.5,1.6298,0.18217,0.17948,-0.2002
19.6,1.635,0.18204,0.17937,-0.2011
19.7,1.6391,0.1825,0.17984,-0.2021
19.8,1.6434,0.18283,0.18021,-0.203
19.9,1.6479,0.18302,0.18042,-0.2037
20.3,1.6454,0.19868,0.19612,-0.217
20.4,1.649,0.19938,0.19684,-0.2181
20.5,1.6528,0.19994,0.19742,-0.2192
20.9,1.6583,0.2122,0.2097,-0.2301
21,1.6617,0.21308,0.2106,-0.2314
21.1,1.6652,0.21383,0.21136,-0.2326
21.2,1.6688,0.21447,0.21202,-0.2338
21.3,1.6725,0.21507,0.21264,-0.2349
21.7,1.6789,0.22784,0.22543,-0.2453
21.8,1.6821,0.22888,0.22648,-0.2467
21.9,1.6854,0.2298,0.22741,-0.248
22,1.6887,0.23065,0.22828,-0.2493
22.1,1.6921,0.23145,0.22909,-0.2506
22.2,1.6954,0.23219,0.22985,-0.2518

