airfoilName st12.dat
Re 	990000
M 	2.500000e-01
N 	4.500000e+00
VACC 	0 VACCflag 1
XTR 	1.00 	1.00 XTRflag 0
alpha,cl,cd,cdp,cm
-30,-1.6244,0.45107,0.4499,0.3272
-29.9,-1.6213,0.4491,0.44793,0.3251
-29.8,-1.6182,0.44711,0.44594,0.323
-29.7,-1.6151,0.44515,0.44397,0.3209
-29.6,-1.612,0.44317,0.44199,0.3188
-29.5,-1.6088,0.4412,0.44001,0.3167
-29.4,-1.6056,0.43921,0.43803,0.3145
-29.3,-1.6024,0.43725,0.43606,0.3125
-29.2,-1.5992,0.43529,0.4341,0.3103
-29.1,-1.596,0.43331,0.43212,0.3083
-29,-1.5927,0.43134,0.43015,0.3061
-28.9,-1.5894,0.42934,0.42814,0.3041
-28.8,-1.5861,0.42738,0.42619,0.302
-28.7,-1.5827,0.42539,0.42419,0.2999
-28.6,-1.5793,0.42339,0.42219,0.2978
-28.5,-1.5759,0.42141,0.4202,0.2957
-28.4,-1.5725,0.41941,0.41821,0.2936
-28.3,-1.5691,0.41741,0.4162,0.2915
-28.2,-1.5656,0.4154,0.41419,0.2894
-28.1,-1.562,0.41338,0.41217,0.2873
-28,-1.5584,0.41133,0.41012,0.2851
-27.9,-1.5548,0.40925,0.40803,0.283
-27.8,-1.5511,0.40711,0.40589,0.2808
-27.7,-1.5445,0.40297,0.40175,0.2772
-27.6,-1.5388,0.40178,0.40057,0.2741
-27.5,-1.5355,0.39936,0.39815,0.2722
-27.4,-1.5321,0.39704,0.39582,0.2703
-27.3,-1.5288,0.39467,0.39345,0.2684
-27.2,-1.5254,0.39235,0.39113,0.2665
-27.1,-1.522,0.39014,0.38891,0.2646
-27,-1.5186,0.38795,0.38672,0.2627
-26.9,-1.5152,0.3858,0.38457,0.2609
-26.8,-1.5118,0.38371,0.38248,0.259
-26.7,-1.5083,0.38163,0.3804,0.2571
-26.6,-1.5048,0.37959,0.37835,0.2553
-26.5,-1.5014,0.37759,0.37634,0.2534
-26.4,-1.4979,0.3756,0.37435,0.2515
-26.3,-1.4944,0.37364,0.37239,0.2497
-26.2,-1.4908,0.3717,0.37045,0.2478
-26.1,-1.4873,0.36978,0.36853,0.246
-26,-1.4837,0.36787,0.36662,0.2442
-25.9,-1.4802,0.36597,0.36472,0.2424
-25.8,-1.4766,0.36411,0.36286,0.2405
-25.7,-1.473,0.36224,0.36099,0.2387
-25.6,-1.4694,0.36038,0.35913,0.2369
-25.5,-1.4657,0.35855,0.35729,0.2351
-25.4,-1.4621,0.35672,0.35546,0.2333
-25.3,-1.4584,0.35488,0.35362,0.2315
-25.2,-1.4548,0.35307,0.3518,0.2297
-25.1,-1.4511,0.35124,0.34997,0.2279
-24.9,-1.4437,0.34788,0.34661,0.2244
-24.8,-1.44,0.34606,0.34479,0.2226
-24.7,-1.4363,0.34425,0.34298,0.2209
-24.6,-1.4325,0.34244,0.34116,0.2191
-24.5,-1.4288,0.34065,0.33937,0.2174
-24.4,-1.425,0.33885,0.33757,0.2156
-24.3,-1.4212,0.33706,0.33577,0.2139
-24.2,-1.4174,0.33527,0.33399,0.2121
-24.1,-1.4136,0.33348,0.3322,0.2104
-24,-1.4097,0.33167,0.33039,0.2087
-23.9,-1.4059,0.3299,0.32861,0.207
-23.8,-1.4021,0.32812,0.32683,0.2053
-23.7,-1.3982,0.32635,0.32506,0.2036
-23.6,-1.3943,0.32454,0.32325,0.2019
-23.5,-1.3905,0.32277,0.32148,0.2002
-23.4,-1.3866,0.32098,0.31969,0.1985
-23.3,-1.3827,0.31921,0.31791,0.1968
-23.2,-1.3787,0.31742,0.31613,0.1951
-23.1,-1.3748,0.31565,0.31435,0.1935
-23,-1.3708,0.31387,0.31257,0.1918
-22.9,-1.3669,0.31206,0.31076,0.1901
-22.8,-1.3629,0.31029,0.30898,0.1885
-22.7,-1.3589,0.3085,0.30719,0.1868
-22.6,-1.3548,0.3067,0.30539,0.1851
-22.5,-1.3507,0.3049,0.30359,0.1835
-22.4,-1.3467,0.3031,0.30179,0.1818
-22.3,-1.3426,0.3013,0.29998,0.1802
-22.2,-1.3385,0.29949,0.29817,0.1785
-22.1,-1.3343,0.29767,0.29636,0.1769
-22,-1.3302,0.29585,0.29453,0.1752
-21.9,-1.326,0.29402,0.2927,0.1735
-21.8,-1.3218,0.29218,0.29086,0.1719
-21.7,-1.3176,0.29033,0.28901,0.1702
-21.6,-1.3134,0.28846,0.28713,0.1686
-21.5,-1.3091,0.28657,0.28524,0.1669
-21.4,-1.3048,0.28465,0.28332,0.1652
-21.3,-1.3004,0.28267,0.28135,0.1635
-21.2,-1.2959,0.28059,0.27926,0.1618
-20.8,-1.2725,0.26962,0.26829,0.1531
-20.7,-1.2688,0.26751,0.26618,0.1517
-20.6,-1.265,0.26544,0.26411,0.1503
-20.5,-1.2612,0.2634,0.26206,0.1489
-20.4,-1.2574,0.2614,0.26006,0.1475
-20.3,-1.2536,0.2594,0.25806,0.1461
-20.2,-1.2498,0.25748,0.25614,0.1447
-20.1,-1.2459,0.2556,0.25425,0.1433
-20,-1.2419,0.25375,0.25241,0.1419
-19.9,-1.2379,0.25195,0.2506,0.1405
-19.8,-1.2339,0.25018,0.24883,0.1391
-19.7,-1.2299,0.24843,0.24708,0.1377
-19.6,-1.2258,0.2469,0.24555,0.1363
-19.5,-1.2217,0.24519,0.24384,0.1349
-19.4,-1.2175,0.2435,0.24215,0.1335
-19.3,-1.2133,0.24183,0.24047,0.1321
-19.2,-1.209,0.24015,0.2388,0.1307
-19.1,-1.2047,0.23849,0.23713,0.1293
-19,-1.2004,0.23682,0.23547,0.1279
-18.9,-1.1961,0.23517,0.23382,0.1265
-18.8,-1.1917,0.23353,0.23217,0.1251
-18.7,-1.1873,0.23187,0.23051,0.1237
-18.6,-1.1829,0.23023,0.22888,0.1223
-18.5,-1.1785,0.2286,0.22724,0.1209
-18.4,-1.174,0.22696,0.2256,0.1195
-18.3,-1.1696,0.22532,0.22396,0.1181
-18.2,-1.1651,0.2237,0.22234,0.1168
-18.1,-1.1605,0.22206,0.2207,0.1154
-18,-1.156,0.22044,0.21908,0.114
-17.9,-1.1515,0.2188,0.21744,0.1126
-17.8,-1.1469,0.21717,0.2158,0.1113
-17.7,-1.1423,0.21554,0.21417,0.1099
-17.6,-1.1377,0.21392,0.21255,0.1085
-17.5,-1.1331,0.21228,0.21091,0.1072
-17.4,-1.1284,0.21066,0.20929,0.1058
-17.3,-1.1237,0.20903,0.20766,0.1045
-17.2,-1.1191,0.2074,0.20603,0.1031
-17.1,-1.1144,0.20577,0.2044,0.1018
-17,-1.1097,0.20414,0.20276,0.1004
-16.9,-1.1049,0.2025,0.20113,0.0991
-16.8,-1.1001,0.20087,0.19949,0.0977
-16.7,-1.0953,0.19923,0.19785,0.0964
-16.6,-1.0905,0.19758,0.1962,0.095
-16.5,-1.0857,0.19593,0.19455,0.0937
-16.4,-1.0808,0.19428,0.1929,0.0924
-16.3,-1.0759,0.19262,0.19124,0.091
-16.2,-1.071,0.19096,0.18959,0.0897
-16.1,-1.0661,0.1893,0.18793,0.0883
-16,-1.0611,0.18763,0.18626,0.087
-15.9,-1.0562,0.18597,0.18459,0.0857
-15.8,-1.0512,0.18429,0.18291,0.0844
-15.7,-1.0462,0.18261,0.18123,0.083
-15.6,-1.0412,0.18093,0.17954,0.0817
-15.5,-1.0362,0.17923,0.17785,0.0804
-15.4,-1.0312,0.17752,0.17613,0.0791
-15.3,-1.0261,0.1758,0.17442,0.0778
-15.2,-1.0211,0.17406,0.17268,0.0764
-15.1,-1.016,0.17231,0.17092,0.0751
-15,-1.0109,0.17049,0.1691,0.0738
-14.9,-1.0058,0.16867,0.16728,0.0725
-14.8,-1.0007,0.16679,0.1654,0.0712
-14.7,-0.9955,0.16481,0.16341,0.0698
-14.6,-0.9901,0.16257,0.16118,0.0684
-14.5,-0.9846,0.16032,0.15893,0.067
-14.4,-0.9785,0.15801,0.15662,0.0655
-14.2,-0.9617,0.15349,0.15211,0.0615
-14.1,-0.9571,0.1519,0.15052,0.0604
-14,-0.9526,0.1503,0.14891,0.0593
-13.9,-0.9481,0.14869,0.14731,0.0582
-13.8,-0.9435,0.14709,0.14571,0.0571
-13.7,-0.939,0.1455,0.14411,0.0559
-13.6,-0.9345,0.14391,0.14253,0.0548
-13.5,-0.93,0.14231,0.14093,0.0537
-13.4,-0.9254,0.14073,0.13935,0.0525
-13.3,-0.9206,0.13918,0.1378,0.0514
-13.2,-0.9158,0.13765,0.13627,0.0502
-13.1,-0.9109,0.13616,0.13478,0.049
-13,-0.9058,0.13469,0.13331,0.0478
-12.9,-0.9007,0.13327,0.13189,0.0466
-12.8,-0.8954,0.13187,0.13049,0.0454
-12.7,-0.8901,0.13051,0.12913,0.0442
-12.6,-0.8846,0.12916,0.12778,0.043
-12.5,-0.8791,0.12782,0.12644,0.0417
-12.4,-0.8734,0.12651,0.12513,0.0405
-12.2,-0.8619,0.1239,0.12252,0.038
-12.1,-0.856,0.12263,0.12125,0.0368
-12,-0.8501,0.12134,0.11996,0.0355
-11.9,-0.8441,0.12008,0.1187,0.0342
-11.8,-0.8381,0.11882,0.11744,0.033
-11.7,-0.832,0.11757,0.11619,0.0317
-11.6,-0.8259,0.11632,0.11494,0.0304
-11.5,-0.8197,0.11506,0.11369,0.0291
-11.4,-0.8134,0.11382,0.11245,0.0278
-11.3,-0.807,0.11257,0.1112,0.0265
-11.2,-0.8007,0.11133,0.10996,0.0252
-11.1,-0.7943,0.11009,0.10872,0.0239
-11,-0.7878,0.10885,0.10749,0.0226
-10.9,-0.7813,0.10762,0.10626,0.0213
-10.8,-0.7747,0.10639,0.10503,0.0199
-10.7,-0.768,0.10516,0.1038,0.0186
-10.6,-0.7614,0.10393,0.10257,0.0172
-10.5,-0.7546,0.10271,0.10135,0.0158
-10.4,-0.7479,0.10148,0.10012,0.0145
-10.3,-0.7411,0.10025,0.0989,0.0131
-10.2,-0.7342,0.09903,0.09768,0.0117
-10.1,-0.7273,0.09781,0.09646,0.0103
-10,-0.7204,0.09659,0.09524,0.0089
-9.9,-0.7134,0.09538,0.09403,0.0075
-9.8,-0.7065,0.09417,0.09281,0.006
-9.7,-0.6996,0.09297,0.09161,0.0046
-9.6,-0.6928,0.09177,0.09042,0.0032
-9.5,-0.6861,0.09059,0.08924,0.0018
-7.8,-0.4414,0.01869,0.01525,-0.091
-7.7,-0.4304,0.01766,0.01404,-0.0912
-7.6,-0.4189,0.01685,0.0131,-0.0914
-7.5,-0.4074,0.01619,0.01232,-0.0916
-7.4,-0.3962,0.01564,0.01165,-0.0915
-7.3,-0.3843,0.01514,0.01104,-0.0916
-7.2,-0.3724,0.01469,0.0105,-0.0916
-7.1,-0.3604,0.01427,0.00999,-0.0916
-7,-0.3489,0.0139,0.00952,-0.0915
-6.9,-0.3368,0.01356,0.0091,-0.0915
-6.8,-0.3247,0.01323,0.00869,-0.0915
-6.7,-0.3128,0.01294,0.00831,-0.0914
-6.6,-0.3007,0.01266,0.00795,-0.0913
-6.5,-0.2885,0.01239,0.00762,-0.0913
-6.4,-0.2763,0.01213,0.00729,-0.0913
-6.3,-0.2643,0.01191,0.00699,-0.0912
-6.2,-0.2521,0.0117,0.00671,-0.0911
-6.1,-0.2398,0.01148,0.00644,-0.0911
-6,-0.2274,0.01129,0.00619,-0.0911
-5.9,-0.2152,0.01111,0.00595,-0.091
-5.8,-0.2031,0.01096,0.00574,-0.0909
-5.7,-0.1908,0.01081,0.00553,-0.0909
-5.6,-0.1784,0.01067,0.00535,-0.0909
-5.5,-0.1661,0.01053,0.00518,-0.0908
-5.4,-0.1539,0.01034,0.00492,-0.0908
-5.3,-0.1416,0.01018,0.00472,-0.0908
-5.2,-0.1293,0.01004,0.00454,-0.0907
-5.1,-0.1171,0.00993,0.00438,-0.0907
-5,-0.1047,0.00982,0.00425,-0.0907
-4.9,-0.0924,0.00971,0.00412,-0.0907
-4.8,-0.0802,0.00963,0.00399,-0.0906
-4.7,-0.0679,0.00954,0.00387,-0.0906
-4.6,-0.0555,0.00945,0.00374,-0.0906
-4.5,-0.0432,0.00937,0.00363,-0.0906
-4.4,-0.0309,0.00929,0.00352,-0.0906
-4.3,-0.0187,0.00923,0.00342,-0.0905
-4.2,-0.0064,0.00917,0.00332,-0.0905
-4.1,0.0059,0.00909,0.00321,-0.0905
-4,0.0182,0.00901,0.00312,-0.0905
-3.9,0.0305,0.00894,0.00303,-0.0905
-3.8,0.0428,0.00889,0.00296,-0.0905
-3.7,0.0545,0.00889,0.00288,-0.0904
-3.6,0.0668,0.00884,0.00281,-0.0904
-3.5,0.0786,0.00885,0.00274,-0.0903
-3.4,0.0909,0.00881,0.00267,-0.0903
-3.3,0.1031,0.00876,0.0026,-0.0904
-3.2,0.1153,0.00871,0.00257,-0.0904
-3.1,0.1274,0.0087,0.00251,-0.0904
-3,0.1394,0.00871,0.00245,-0.0903
-2.9,0.1516,0.00867,0.0024,-0.0903
-2.8,0.1638,0.00864,0.00234,-0.0904
-2.7,0.1758,0.00864,0.0023,-0.0903
-2.6,0.1876,0.00867,0.00226,-0.0903
-2.5,0.1997,0.00866,0.00222,-0.0903
-2.4,0.2119,0.00864,0.00218,-0.0903
-2.3,0.224,0.00863,0.00215,-0.0904
-2.2,0.236,0.00864,0.00212,-0.0904
-2.1,0.2482,0.00864,0.00209,-0.0904
-2,0.26,0.00868,0.00207,-0.0904
-1.9,0.2722,0.00866,0.00204,-0.0904
-1.8,0.2843,0.00865,0.00201,-0.0904
-1.7,0.2965,0.00865,0.00199,-0.0905
-1.6,0.3086,0.00865,0.00197,-0.0905
-1.5,0.3206,0.00868,0.00195,-0.0905
-1.4,0.3326,0.00868,0.00194,-0.0906
-1.3,0.3443,0.00874,0.00194,-0.0905
-1.2,0.3564,0.00875,0.00193,-0.0906
-1.1,0.3685,0.00875,0.00191,-0.0906
-1,0.3805,0.00878,0.00191,-0.0906
-0.9,0.3925,0.00879,0.00191,-0.0907
-0.8,0.4046,0.0088,0.0019,-0.0907
-0.7,0.4167,0.00882,0.00189,-0.0908
-0.6,0.4284,0.00887,0.00191,-0.0908
-0.5,0.4404,0.00889,0.00191,-0.0908
-0.4,0.4524,0.00891,0.00191,-0.0909
-0.3,0.4645,0.00893,0.00192,-0.0909
-0.2,0.4764,0.00895,0.00192,-0.0909
-0.1,0.4885,0.00897,0.00193,-0.091
0,0.5004,0.00901,0.00195,-0.091
0.1,0.5124,0.00904,0.00195,-0.091
0.2,0.5239,0.00914,0.00198,-0.091
0.3,0.5358,0.00918,0.002,-0.0911
0.4,0.5477,0.00922,0.00203,-0.0911
0.5,0.5595,0.00927,0.00205,-0.0911
0.6,0.5713,0.00933,0.00207,-0.0912
0.7,0.5831,0.00939,0.0021,-0.0912
0.8,0.5948,0.00945,0.00213,-0.0912
0.9,0.6066,0.00952,0.00217,-0.0912
1,0.6177,0.0097,0.00223,-0.0912
1.1,0.6293,0.00979,0.00227,-0.0912
1.2,0.6409,0.00987,0.00232,-0.0912
1.3,0.6526,0.00993,0.00236,-0.0912
1.4,0.6644,0.00999,0.0024,-0.0912
1.5,0.6762,0.01004,0.00244,-0.0913
1.6,0.688,0.01009,0.00248,-0.0913
1.7,0.6999,0.01013,0.00251,-0.0913
1.8,0.7115,0.01019,0.00257,-0.0914
1.9,0.7234,0.01022,0.0026,-0.0914
2,0.7353,0.01023,0.00264,-0.0914
2.1,0.7472,0.01024,0.00268,-0.0915
2.4,0.7743,0.00875,0.00283,-0.0901
2.5,0.7862,0.00881,0.00287,-0.0901
2.6,0.7981,0.00888,0.00291,-0.0901
2.7,0.8099,0.00895,0.00296,-0.0901
2.8,0.8217,0.00904,0.00301,-0.0901
2.9,0.8336,0.0091,0.00305,-0.0901
3,0.8455,0.00917,0.0031,-0.0902
3.1,0.8573,0.00924,0.00314,-0.0902
3.2,0.8691,0.00932,0.0032,-0.0902
3.3,0.881,0.00937,0.00324,-0.0902
3.4,0.8928,0.00943,0.00329,-0.0902
3.5,0.9047,0.0095,0.00334,-0.0902
3.6,0.9165,0.00957,0.00339,-0.0902
3.7,0.9283,0.00965,0.00345,-0.0902
3.8,0.9399,0.00974,0.00351,-0.0901
3.9,0.9518,0.0098,0.00356,-0.0901
4,0.9636,0.00987,0.00361,-0.0901
4.1,0.9753,0.00994,0.00367,-0.0901
4.2,0.9871,0.01002,0.00373,-0.0901
4.3,0.9987,0.0101,0.00379,-0.0901
4.4,1.0105,0.01018,0.00385,-0.0901
4.5,1.0223,0.01024,0.00392,-0.0901
4.6,1.0339,0.01033,0.00398,-0.09
4.7,1.0456,0.01041,0.00404,-0.09
4.8,1.0572,0.01049,0.00411,-0.09
4.9,1.0688,0.01058,0.00418,-0.0899
5,1.0806,0.01065,0.00425,-0.0899
5.1,1.0923,0.01073,0.00431,-0.0899
5.2,1.104,0.0108,0.00438,-0.0898
5.3,1.1156,0.01088,0.00445,-0.0898
5.4,1.1272,0.01096,0.00452,-0.0897
5.5,1.1388,0.01105,0.00461,-0.0897
5.6,1.1503,0.01115,0.00469,-0.0896
5.7,1.1618,0.01124,0.00477,-0.0896
5.8,1.1734,0.01132,0.00484,-0.0895
5.9,1.185,0.01141,0.00492,-0.0894
6,1.1965,0.0115,0.005,-0.0894
6.1,1.208,0.01159,0.00508,-0.0893
6.2,1.2194,0.01169,0.00517,-0.0892
6.3,1.2308,0.0118,0.00527,-0.0891
6.4,1.2424,0.01188,0.00535,-0.0891
6.5,1.2539,0.01196,0.00544,-0.089
6.6,1.2654,0.01205,0.00553,-0.0889
6.7,1.2766,0.01217,0.00562,-0.0888
6.8,1.2879,0.01228,0.00572,-0.0887
6.9,1.2992,0.01239,0.00582,-0.0886
7,1.3105,0.0125,0.00593,-0.0884
7.1,1.3219,0.01259,0.00602,-0.0883
7.2,1.3333,0.01268,0.00611,-0.0882
7.3,1.3446,0.01278,0.00621,-0.0881
7.4,1.3559,0.01288,0.00632,-0.088
7.5,1.3671,0.01299,0.00643,-0.0879
7.6,1.3783,0.0131,0.00654,-0.0877
7.7,1.3891,0.01327,0.00667,-0.0875
7.8,1.4003,0.01336,0.00678,-0.0874
7.9,1.4116,0.01347,0.00689,-0.0872
8,1.4227,0.01357,0.007,-0.0871
8.1,1.4339,0.01369,0.00711,-0.0869
8.2,1.4449,0.0138,0.00723,-0.0867
8.3,1.4559,0.01393,0.00735,-0.0866
8.4,1.4668,0.01406,0.00748,-0.0864
8.5,1.4776,0.0142,0.00762,-0.0862
8.6,1.4885,0.01433,0.00776,-0.0859
8.7,1.4995,0.01444,0.00788,-0.0858
8.8,1.5103,0.01458,0.00801,-0.0855
8.9,1.5212,0.0147,0.00814,-0.0853
9,1.5319,0.01484,0.00828,-0.0851
9.1,1.5426,0.01498,0.00842,-0.0848
9.2,1.5532,0.01513,0.00857,-0.0846
9.3,1.5637,0.01529,0.00872,-0.0843
9.4,1.5743,0.01543,0.00888,-0.084
9.5,1.585,0.01556,0.00902,-0.0838
9.6,1.5956,0.01569,0.00918,-0.0835
9.7,1.6062,0.01583,0.00932,-0.0832
9.8,1.6167,0.01597,0.00948,-0.0829
9.9,1.6267,0.01615,0.00965,-0.0826
10,1.6369,0.01632,0.00982,-0.0823
10.1,1.6469,0.0165,0.01,-0.0819
10.2,1.6569,0.01668,0.01019,-0.0816
10.3,1.6671,0.01683,0.01035,-0.0812
10.4,1.6772,0.01699,0.01052,-0.0809
10.5,1.6873,0.01715,0.01069,-0.0805
10.6,1.6972,0.01732,0.01088,-0.0801
10.7,1.7069,0.0175,0.01106,-0.0797
10.8,1.7165,0.01769,0.01127,-0.0793
10.9,1.726,0.01789,0.01147,-0.0788
11,1.7353,0.0181,0.01169,-0.0783
11.1,1.7447,0.01828,0.01189,-0.0779
11.2,1.7539,0.01848,0.0121,-0.0774
11.3,1.7631,0.01868,0.0123,-0.0769
11.4,1.7721,0.01888,0.01252,-0.0763
11.5,1.7809,0.01909,0.01274,-0.0758
11.6,1.7895,0.01931,0.01297,-0.0752
11.7,1.7978,0.01955,0.01322,-0.0746
11.8,1.8062,0.01977,0.01346,-0.0739
11.9,1.8147,0.01996,0.01368,-0.0733
12,1.8229,0.02017,0.01391,-0.0726
12.1,1.831,0.02038,0.01415,-0.0719
12.2,1.8388,0.0206,0.0144,-0.0712
12.3,1.8464,0.02083,0.01465,-0.0705
12.4,1.8536,0.02107,0.01491,-0.0697
12.5,1.8604,0.02133,0.01518,-0.0688
12.6,1.8666,0.02159,0.01547,-0.0678
12.7,1.8715,0.02187,0.01576,-0.0667
12.8,1.876,0.02216,0.01608,-0.0654
12.9,1.881,0.02244,0.01639,-0.0643
13,1.8855,0.02275,0.01671,-0.0631
13.1,1.8904,0.02304,0.01704,-0.0621
13.2,1.8953,0.02336,0.01738,-0.061
13.3,1.8999,0.02369,0.01773,-0.06
13.4,1.9044,0.02404,0.01811,-0.0589
13.5,1.9085,0.02441,0.0185,-0.0579
13.6,1.9125,0.0248,0.01892,-0.0568
13.7,1.9163,0.02521,0.01937,-0.0558
13.8,1.9202,0.02562,0.0198,-0.0549
13.9,1.9243,0.02602,0.02023,-0.054
14,1.9283,0.02644,0.02069,-0.0531
14.1,1.9319,0.02688,0.02117,-0.0522
14.2,1.9353,0.02735,0.02167,-0.0513
14.3,1.9383,0.02787,0.02221,-0.0505
14.4,1.941,0.02841,0.02279,-0.0497
14.5,1.9437,0.02896,0.02338,-0.0489
14.6,1.9469,0.02948,0.02394,-0.0482
14.7,1.9499,0.03003,0.02453,-0.0476
14.8,1.9527,0.0306,0.02515,-0.047
14.9,1.9535,0.03135,0.02591,-0.0464
15,1.955,0.03206,0.02666,-0.0459
15.1,1.9564,0.03281,0.02746,-0.0455
15.2,1.9585,0.03353,0.02821,-0.0452
15.3,1.9602,0.03429,0.02901,-0.0449
15.4,1.9619,0.03507,0.02984,-0.0448
15.5,1.9627,0.03596,0.03076,-0.0447
15.6,1.9625,0.03697,0.03183,-0.0448
15.7,1.9632,0.03793,0.03283,-0.045
15.8,1.9641,0.03892,0.03386,-0.0453
15.9,1.9636,0.04009,0.03507,-0.0458
16.4,1.9544,0.04765,0.04294,-0.0523
16.5,1.9547,0.04911,0.04447,-0.0539
16.6,1.9549,0.05064,0.04608,-0.0557
16.7,1.9548,0.05228,0.04779,-0.0577
16.8,1.9544,0.05403,0.04962,-0.0599
16.9,1.954,0.05585,0.05153,-0.0623
17,1.9531,0.05783,0.05359,-0.0649
17.1,1.9515,0.05999,0.05583,-0.0677
17.2,1.9495,0.06229,0.05823,-0.0708
17.3,1.9465,0.06484,0.06087,-0.0742
17.4,1.9428,0.06761,0.06374,-0.0778
17.5,1.938,0.07064,0.06687,-0.0817
17.6,1.9318,0.07404,0.07038,-0.0859
17.7,1.9235,0.07796,0.07442,-0.0907
17.8,1.9138,0.08222,0.07879,-0.0958
17.9,1.9019,0.08698,0.08368,-0.1012
18,1.8891,0.09196,0.08879,-0.1066
18.1,1.8748,0.09718,0.09413,-0.1123
18.2,1.8614,0.10208,0.09915,-0.1177
18.3,1.8489,0.10675,0.10391,-0.1229
18.4,1.8375,0.11115,0.1084,-0.1279
18.5,1.8269,0.11537,0.11269,-0.1327
18.6,1.8168,0.11948,0.11689,-0.1375
18.7,1.8087,0.12304,0.12052,-0.1418
18.8,1.8001,0.12672,0.12427,-0.1462
18.9,1.7932,0.13002,0.12763,-0.1502
19,1.7857,0.13348,0.13115,-0.1545
19.1,1.7805,0.13646,0.13418,-0.1581
19.2,1.774,0.13989,0.13767,-0.1622
19.3,1.7702,0.14265,0.14048,-0.1655
19.4,1.7648,0.14602,0.1439,-0.1693
19.5,1.7614,0.14888,0.14681,-0.1726
19.6,1.7589,0.15156,0.14952,-0.1756
19.7,1.755,0.15478,0.15279,-0.179
19.8,1.7524,0.15768,0.15573,-0.1821
19.9,1.7506,0.16032,0.1584,-0.1849
20,1.7487,0.16309,0.1612,-0.1878
20.1,1.7457,0.16628,0.16444,-0.191
20.2,1.7444,0.16893,0.16713,-0.1937
20.3,1.7438,0.17141,0.16964,-0.1962
20.4,1.7428,0.17405,0.1723,-0.1988
20.5,1.7401,0.17738,0.17567,-0.202
20.6,1.7395,0.17999,0.17831,-0.2046
20.7,1.7394,0.18246,0.18081,-0.207
20.8,1.7391,0.18499,0.18337,-0.2095
20.9,1.7381,0.1879,0.18631,-0.2122
21,1.7371,0.19083,0.18927,-0.215
21.1,1.7373,0.19332,0.19178,-0.2174
21.2,1.7377,0.19576,0.19425,-0.2197
21.3,1.7381,0.19822,0.19672,-0.2221
21.4,1.738,0.2009,0.19943,-0.2246
21.5,1.7375,0.20389,0.20244,-0.2274
21.6,1.7385,0.20615,0.20474,-0.2295
21.7,1.7398,0.20834,0.20695,-0.2316
21.8,1.7412,0.21043,0.20905,-0.2336
21.9,1.7427,0.21255,0.21119,-0.2357
22,1.7441,0.21467,0.21334,-0.2377
22.1,1.7455,0.21685,0.21553,-0.2398
22.2,1.7461,0.21948,0.21819,-0.2422
22.3,1.7473,0.22178,0.22051,-0.2444
22.4,1.749,0.22384,0.22259,-0.2464
22.5,1.7508,0.22584,0.2246,-0.2483
22.6,1.7527,0.22779,0.22657,-0.2502
22.7,1.7546,0.22973,0.22852,-0.2521
22.8,1.7564,0.2317,0.2305,-0.254
22.9,1.7583,0.23365,0.23247,-0.2559
23,1.7602,0.23565,0.23448,-0.2579
23.1,1.7621,0.23764,0.23649,-0.2598
23.3,1.7651,0.24218,0.24107,-0.2641
23.5,1.7684,0.24655,0.24545,-0.2683
23.6,1.7705,0.24842,0.24734,-0.2702
23.7,1.7727,0.25025,0.24918,-0.272
23.8,1.7749,0.2521,0.25103,-0.2739
23.9,1.7772,0.25391,0.25286,-0.2757
24,1.7794,0.25574,0.25469,-0.2776
24.1,1.7816,0.25757,0.25653,-0.2795
24.2,1.7838,0.25935,0.25832,-0.2813
24.3,1.7861,0.26111,0.26009,-0.2832
24.4,1.7884,0.26285,0.26183,-0.285
24.5,1.7908,0.26451,0.26351,-0.2868
24.6,1.7932,0.26614,0.26513,-0.2885
24.7,1.7956,0.2677,0.2667,-0.2903
24.8,1.7981,0.26916,0.26817,-0.292
24.9,1.8006,0.27063,0.26965,-0.2937
25,1.8024,0.2729,0.27193,-0.2958
25.1,1.8039,0.27549,0.27454,-0.2982
25.2,1.8059,0.27758,0.27665,-0.3002
25.3,1.8078,0.27976,0.27886,-0.3023
25.4,1.8099,0.28181,0.28092,-0.3044
25.5,1.8119,0.2839,0.28304,-0.3064
25.6,1.814,0.28593,0.28508,-0.3084
25.7,1.8161,0.28805,0.28722,-0.3105
25.8,1.818,0.29026,0.28945,-0.3127
25.9,1.82,0.29251,0.29171,-0.3149
26,1.8215,0.29538,0.29461,-0.3175
26.1,1.8233,0.29799,0.29725,-0.3199
26.2,1.8252,0.30046,0.29973,-0.3222
26.3,1.8271,0.30294,0.30223,-0.3245
26.4,1.8291,0.30542,0.30472,-0.3269
26.5,1.831,0.30807,0.30739,-0.3293
26.6,1.8328,0.31102,0.31035,-0.332
26.7,1.8345,0.31431,0.31366,-0.3348
26.8,1.8365,0.31711,0.31648,-0.3373
26.9,1.8387,0.31969,0.31907,-0.3397
27,1.8409,0.32216,0.32155,-0.342
27.1,1.8432,0.32456,0.32395,-0.3443
27.2,1.8454,0.32691,0.32631,-0.3466
27.3,1.8477,0.32912,0.32852,-0.3487
27.4,1.85,0.33136,0.33077,-0.3509
27.5,1.8524,0.33331,0.33272,-0.353
27.6,1.8547,0.33525,0.33466,-0.355
27.7,1.857,0.33711,0.33653,-0.357
27.8,1.8593,0.3389,0.33832,-0.359
27.9,1.8616,0.34062,0.34005,-0.361
28,1.8639,0.3424,0.34183,-0.3629
28.1,1.8661,0.34414,0.34357,-0.365
28.2,1.8682,0.34556,0.345,-0.3668
28.6,1.8815,0.36688,0.36632,-0.381
28.7,1.884,0.3688,0.36825,-0.383
28.8,1.8863,0.37069,0.37014,-0.385
28.9,1.8887,0.37254,0.37199,-0.387
29,1.891,0.37438,0.37384,-0.389
29.1,1.8933,0.37623,0.37569,-0.3911
29.2,1.8955,0.37802,0.37748,-0.3931
29.3,1.8978,0.37983,0.3793,-0.3951
29.4,1.9,0.38157,0.38105,-0.3971
29.5,1.9022,0.38334,0.38281,-0.3991
29.6,1.9043,0.38509,0.38456,-0.4011
29.7,1.9064,0.38679,0.38628,-0.4031
29.8,1.9086,0.38852,0.38801,-0.4051
29.9,1.9106,0.39021,0.38971,-0.4071
30,1.9127,0.39192,0.39142,-0.4092

