airfoilName st13.dat
Re 	210000
M 	2.500000e-01
N 	4.500000e+00
VACC 	0 VACCflag 1
XTR 	1.00 	1.00 XTRflag 0
alpha,cl,cd,cdp,cm
-30,-1.5613,0.47021,0.4671,0.3093
-29.9,-1.5582,0.46793,0.4648,0.3072
-29.8,-1.5551,0.46565,0.46252,0.3052
-29.7,-1.5519,0.46339,0.46026,0.3031
-29.6,-1.5488,0.46113,0.45799,0.301
-29.5,-1.5456,0.45888,0.45574,0.299
-29.4,-1.5424,0.45665,0.4535,0.2969
-29.3,-1.5391,0.45443,0.45128,0.2949
-29.2,-1.5359,0.45221,0.44905,0.2928
-29.1,-1.5326,0.45,0.44684,0.2908
-29,-1.5294,0.44782,0.44465,0.2887
-28.9,-1.5261,0.44563,0.44245,0.2867
-28.8,-1.5228,0.44346,0.44028,0.2847
-28.7,-1.5194,0.44131,0.43813,0.2826
-28.6,-1.5161,0.43916,0.43597,0.2806
-28.5,-1.5127,0.43704,0.43385,0.2786
-28.4,-1.5093,0.43491,0.43172,0.2765
-28.3,-1.5059,0.43282,0.42962,0.2745
-28.2,-1.5025,0.43072,0.42752,0.2725
-28.1,-1.4991,0.42866,0.42545,0.2705
-28,-1.4956,0.42658,0.42337,0.2684
-27.9,-1.4921,0.42454,0.42133,0.2664
-27.8,-1.4886,0.42252,0.41931,0.2644
-27.7,-1.4851,0.42053,0.4173,0.2624
-27.6,-1.4815,0.41852,0.41528,0.2604
-27.5,-1.4779,0.41655,0.41331,0.2583
-27.4,-1.4743,0.41464,0.4114,0.2563
-27.3,-1.4707,0.4127,0.40946,0.2542
-27.2,-1.467,0.41083,0.40757,0.2522
-27.1,-1.4633,0.40898,0.40572,0.2501
-27,-1.4595,0.40718,0.40392,0.248
-26.9,-1.4557,0.40543,0.40217,0.2459
-26.8,-1.4518,0.4037,0.40043,0.2437
-26.7,-1.4406,0.40261,0.39937,0.2378
-26.6,-1.4372,0.40031,0.39706,0.236
-26.5,-1.4338,0.39802,0.39477,0.2342
-26.4,-1.4303,0.39575,0.3925,0.2324
-26.3,-1.4268,0.39349,0.39024,0.2306
-26.2,-1.4233,0.39125,0.38799,0.2288
-26.1,-1.4199,0.38902,0.38576,0.2271
-26,-1.4163,0.3868,0.38353,0.2253
-25.9,-1.4128,0.38459,0.38132,0.2235
-25.8,-1.4092,0.3824,0.37912,0.2217
-25.7,-1.4056,0.38021,0.37693,0.22
-25.6,-1.402,0.37804,0.37476,0.2182
-25.5,-1.3984,0.37588,0.37259,0.2164
-25.4,-1.3948,0.37374,0.37044,0.2147
-25.3,-1.3911,0.3716,0.3683,0.2129
-25.2,-1.3874,0.36947,0.36616,0.2112
-25.1,-1.3838,0.36735,0.36404,0.2094
-25,-1.3801,0.36525,0.36193,0.2077
-24.9,-1.3763,0.36315,0.35983,0.2059
-24.8,-1.3726,0.36105,0.35773,0.2042
-24.7,-1.3689,0.35897,0.35564,0.2025
-24.6,-1.3651,0.35689,0.35356,0.2008
-24.5,-1.3613,0.35482,0.35148,0.1991
-24.4,-1.3575,0.35275,0.34941,0.1974
-24.3,-1.3537,0.35069,0.34735,0.1957
-24.2,-1.3499,0.34864,0.34529,0.194
-24.1,-1.346,0.34659,0.34324,0.1923
-24,-1.3422,0.34455,0.34119,0.1906
-23.9,-1.3383,0.34251,0.33915,0.1889
-23.8,-1.3344,0.34047,0.33712,0.1873
-23.7,-1.3305,0.33845,0.33509,0.1856
-23.6,-1.3266,0.33642,0.33306,0.1839
-23.5,-1.3227,0.3344,0.33103,0.1823
-23.4,-1.3187,0.33239,0.32902,0.1806
-23.3,-1.3148,0.33038,0.327,0.179
-23.2,-1.3108,0.32837,0.32499,0.1773
-23.1,-1.3068,0.32637,0.32299,0.1757
-23,-1.3028,0.32437,0.32097,0.1741
-22.9,-1.2988,0.32237,0.31897,0.1725
-22.8,-1.2948,0.32039,0.31698,0.1709
-22.7,-1.2907,0.3184,0.31499,0.1693
-22.6,-1.2867,0.31641,0.313,0.1677
-22.5,-1.2826,0.31444,0.31103,0.1661
-22.4,-1.2785,0.31246,0.30905,0.1645
-22.3,-1.2745,0.31049,0.30708,0.1629
-22.2,-1.2704,0.30853,0.30511,0.1613
-22.1,-1.2662,0.30656,0.30314,0.1597
-22,-1.2621,0.3046,0.30118,0.1582
-21.9,-1.258,0.30265,0.29923,0.1566
-21.8,-1.2538,0.3007,0.29727,0.155
-21.7,-1.2497,0.29875,0.29532,0.1535
-21.6,-1.2455,0.29681,0.29337,0.1519
-21.5,-1.2413,0.29487,0.29143,0.1504
-21.4,-1.2371,0.29293,0.28949,0.1488
-21.3,-1.2329,0.291,0.28756,0.1473
-21.2,-1.2286,0.28907,0.28563,0.1458
-21.1,-1.2244,0.28715,0.2837,0.1442
-21,-1.2201,0.28523,0.28178,0.1427
-20.9,-1.2158,0.28331,0.27986,0.1412
-20.8,-1.2115,0.2814,0.27794,0.1396
-20.7,-1.2071,0.27949,0.27603,0.1381
-20.6,-1.2028,0.27757,0.2741,0.1366
-20.5,-1.1984,0.27566,0.27218,0.1351
-20.4,-1.194,0.27375,0.27028,0.1335
-20.3,-1.1888,0.27205,0.26858,0.1316
-20.2,-1.1843,0.2701,0.26662,0.1301
-20.1,-1.1798,0.26814,0.26466,0.1285
-20,-1.1753,0.26618,0.26269,0.127
-19.9,-1.1707,0.2642,0.26071,0.1255
-19.8,-1.1661,0.26221,0.25872,0.1239
-19.7,-1.1615,0.26019,0.25671,0.1224
-19.6,-1.1568,0.25814,0.25465,0.1208
-19.5,-1.152,0.25604,0.25254,0.1192
-19.4,-1.1472,0.2539,0.2504,0.1177
-19.2,-1.1299,0.24648,0.24301,0.1123
-19.1,-1.1259,0.24461,0.24113,0.1111
-19,-1.122,0.24275,0.23927,0.1098
-18.9,-1.1181,0.24091,0.23742,0.1085
-18.8,-1.1141,0.23907,0.23559,0.1073
-18.7,-1.1101,0.23725,0.23376,0.106
-18.6,-1.106,0.23544,0.23195,0.1047
-18.5,-1.102,0.23364,0.23015,0.1035
-18.4,-1.0979,0.23185,0.22836,0.1022
-18.3,-1.0938,0.23007,0.22658,0.1009
-18.2,-1.0896,0.2283,0.22481,0.0997
-18.1,-1.0854,0.22654,0.22305,0.0984
-18,-1.0812,0.22479,0.2213,0.0972
-17.9,-1.077,0.22306,0.21956,0.0959
-17.8,-1.0728,0.22133,0.21781,0.0946
-17.7,-1.0685,0.21961,0.21609,0.0934
-17.6,-1.0642,0.21789,0.21438,0.0921
-17.5,-1.0599,0.21619,0.21267,0.0909
-17.4,-1.0555,0.21449,0.21097,0.0897
-17.3,-1.0512,0.2128,0.20928,0.0884
-17.2,-1.0468,0.21112,0.2076,0.0872
-17.1,-1.0424,0.20944,0.20592,0.0859
-17,-1.0379,0.20777,0.20425,0.0847
-16.9,-1.0335,0.20611,0.20258,0.0835
-16.8,-1.029,0.20445,0.20093,0.0823
-16.7,-1.0245,0.2028,0.19927,0.081
-16.6,-1.02,0.20115,0.19762,0.0798
-16.5,-1.0155,0.19951,0.19598,0.0786
-16.4,-1.0109,0.19787,0.19435,0.0774
-16.3,-1.0063,0.19624,0.19272,0.0761
-16.2,-1.0017,0.19461,0.19109,0.0749
-16.1,-0.997,0.19299,0.18947,0.0737
-16,-0.9924,0.19138,0.18786,0.0725
-15.9,-0.9877,0.18977,0.18625,0.0713
-15.8,-0.983,0.18817,0.18464,0.0701
-15.7,-0.9783,0.18657,0.18305,0.0689
-15.6,-0.9736,0.18498,0.18145,0.0677
-15.5,-0.9688,0.18339,0.17986,0.0665
-15.4,-0.9641,0.18181,0.17828,0.0653
-15.3,-0.9593,0.18023,0.17669,0.0641
-15.2,-0.954,0.17888,0.17534,0.0628
-15.1,-0.9492,0.1773,0.17377,0.0616
-15,-0.9444,0.17573,0.17219,0.0605
-14.9,-0.9395,0.17416,0.17062,0.0593
-14.8,-0.9346,0.17259,0.16905,0.0581
-14.7,-0.9297,0.17103,0.16749,0.0569
-14.6,-0.9248,0.16946,0.16593,0.0558
-14.5,-0.9198,0.16791,0.16437,0.0546
-14.4,-0.9148,0.16635,0.16282,0.0534
-14.3,-0.9098,0.16481,0.16127,0.0523
-14.2,-0.9048,0.16326,0.15973,0.0511
-14.1,-0.8997,0.16172,0.15819,0.0499
-14,-0.8947,0.16018,0.15665,0.0488
-13.9,-0.8896,0.15865,0.15512,0.0476
-13.8,-0.8844,0.15712,0.15359,0.0464
-13.7,-0.8793,0.15559,0.15207,0.0453
-13.6,-0.8741,0.15406,0.15054,0.0441
-13.5,-0.8689,0.15254,0.14902,0.043
-13.4,-0.8637,0.15102,0.1475,0.0418
-13.3,-0.8584,0.1495,0.14598,0.0406
-13.2,-0.8531,0.14797,0.14446,0.0395
-13.1,-0.8478,0.14645,0.14294,0.0383
-13,-0.8424,0.14492,0.14141,0.0371
-12.9,-0.837,0.14339,0.13988,0.0359
-12.8,-0.8316,0.14185,0.13834,0.0348
-12.7,-0.8261,0.14031,0.13679,0.0336
-12.6,-0.8206,0.13875,0.13524,0.0324
-12.5,-0.815,0.13719,0.13367,0.0312
-12.4,-0.8094,0.13559,0.13208,0.03
-12.3,-0.8037,0.13396,0.13045,0.0287
-12.2,-0.7979,0.1323,0.12879,0.0274
-12.1,-0.7919,0.13055,0.12704,0.0261
-12,-0.7854,0.1286,0.12509,0.0246
-11.9,-0.7744,0.12503,0.12155,0.0215
-11.8,-0.7695,0.1237,0.12022,0.0205
-11.7,-0.7646,0.12238,0.1189,0.0195
-11.6,-0.7595,0.12109,0.11761,0.0185
-11.5,-0.7543,0.11981,0.11634,0.0175
-11.4,-0.7491,0.11855,0.11508,0.0165
-11.3,-0.7438,0.1173,0.11384,0.0154
-11.2,-0.7384,0.11607,0.11261,0.0144
-11.1,-0.733,0.11485,0.1114,0.0134
-11,-0.7275,0.11364,0.11019,0.0123
-10.9,-0.722,0.11244,0.109,0.0113
-10.8,-0.7164,0.11125,0.10782,0.0102
-10.7,-0.7107,0.11007,0.10664,0.0091
-10.6,-0.705,0.1089,0.10548,0.0081
-10.5,-0.6993,0.10774,0.10433,0.007
-10.4,-0.6936,0.10659,0.10318,0.0059
-10.3,-0.6878,0.10545,0.10204,0.0049
-10.2,-0.6821,0.10431,0.10091,0.0038
-10.1,-0.6763,0.10319,0.0998,0.0027
-10,-0.6706,0.10207,0.09867,0.0017
-9.9,-0.6648,0.10096,0.09757,0.0007
-9.8,-0.6591,0.09988,0.09649,-0.0004
-9.7,-0.6535,0.09879,0.09542,-0.0014
-9.6,-0.648,0.09772,0.09436,-0.0024
-9.5,-0.6427,0.09667,0.09331,-0.0033
-9.4,-0.6375,0.09565,0.0923,-0.0042
-9.3,-0.6325,0.09464,0.0913,-0.005
-9.2,-0.6279,0.09367,0.09034,-0.0058
-9.1,-0.6237,0.09272,0.08941,-0.0065
-8.9,-0.6148,0.09104,0.08776,-0.008
-8.8,-0.6101,0.09005,0.08677,-0.0089
-8.7,-0.6055,0.08906,0.08581,-0.0097
-8.6,-0.6012,0.08811,0.08487,-0.0104
-8.5,-0.5973,0.08718,0.08395,-0.011
-8.3,-0.5911,0.08541,0.08222,-0.0119
-8.2,-0.5888,0.08458,0.08141,-0.0121
-8.1,-0.5837,0.08353,0.08038,-0.013
-8,-0.5686,0.08174,0.07857,-0.0164
-7.9,-0.5542,0.07998,0.07679,-0.0195
-7.5,-0.4774,0.06764,0.06434,-0.0394
-7.4,-0.4628,0.06625,0.06293,-0.0422
-7.2,-0.4318,0.06351,0.06013,-0.0479
-7.1,-0.4181,0.06227,0.05887,-0.0502
-7,-0.4028,0.06095,0.05752,-0.0529
-6.9,-0.3877,0.05965,0.05621,-0.0555
-6,-0.2078,0.03311,0.02875,-0.0935
-5.8,-0.1816,0.0315,0.02704,-0.0954
-5.5,-0.1318,0.02434,0.01917,-0.102
-5.4,-0.1163,0.02244,0.01695,-0.1036
-5.3,-0.1014,0.02089,0.01508,-0.1048
-5.1,-0.0753,0.01884,0.01247,-0.1058
-5,-0.0628,0.01848,0.01208,-0.1061
-4.9,-0.0495,0.01812,0.01167,-0.1064
-4.8,-0.0361,0.01776,0.01124,-0.1067
-4.7,-0.0225,0.01737,0.01077,-0.1071
-4.6,-0.0088,0.01693,0.01023,-0.1075
-4.5,0.0029,0.01652,0.00972,-0.1074
-4.4,0.0154,0.01609,0.00915,-0.1075
-4.3,0.0284,0.01567,0.00857,-0.1077
-4.2,0.0417,0.01533,0.00821,-0.108
-4.1,0.055,0.01509,0.00794,-0.1082
-4,0.0677,0.01489,0.00772,-0.1084
-3.8,0.0917,0.01463,0.00737,-0.1083
-3.7,0.1047,0.01435,0.00699,-0.1084
-3.6,0.1177,0.01409,0.00669,-0.1086
-3.5,0.13,0.01388,0.00648,-0.1086
-3.4,0.142,0.01373,0.00631,-0.1086
-3.3,0.1543,0.01357,0.00613,-0.1086
-3.2,0.167,0.0134,0.00592,-0.1087
-3.1,0.1798,0.01333,0.00575,-0.1087
-3,0.1916,0.01313,0.00557,-0.1087
-2.9,0.2037,0.01299,0.00543,-0.1086
-2.8,0.216,0.01286,0.00528,-0.1087
-2.7,0.2285,0.01273,0.00512,-0.1087
-2.6,0.241,0.0126,0.00494,-0.1087
-2.5,0.2526,0.01249,0.00477,-0.1085
-2.4,0.2647,0.01241,0.00476,-0.1086
-2.3,0.277,0.0123,0.00464,-0.1086
-2.2,0.2893,0.0122,0.00451,-0.1085
-2.1,0.3012,0.01211,0.00438,-0.1085
-2,0.3129,0.01201,0.00424,-0.1083
-1.9,0.3247,0.01192,0.00416,-0.1081
-1.8,0.3363,0.01188,0.00411,-0.108
-1.7,0.3481,0.01181,0.00398,-0.1078
-1.6,0.3601,0.01173,0.00392,-0.1077
-1.5,0.3716,0.01167,0.00383,-0.1075
-1.4,0.3835,0.01161,0.00376,-0.1074
-1.3,0.3953,0.01158,0.00372,-0.1074
-1.2,0.4073,0.01152,0.00367,-0.1073
-1,0.4303,0.01145,0.00351,-0.1069
-0.9,0.4421,0.01141,0.00347,-0.1068
-0.7,0.4658,0.01137,0.0034,-0.1066
-0.6,0.4773,0.01134,0.00336,-0.1065
-0.5,0.4888,0.01132,0.00332,-0.1063
-0.4,0.5005,0.01131,0.00328,-0.1062
-0.3,0.5123,0.01129,0.00325,-0.1061
-0.2,0.5239,0.01129,0.00324,-0.106
-0.1,0.5353,0.01129,0.0032,-0.1058
0,0.5469,0.01128,0.00319,-0.1057
0.1,0.5581,0.01131,0.00316,-0.1055
0.2,0.5696,0.01132,0.00313,-0.1053
0.3,0.5809,0.01133,0.00313,-0.1051
0.4,0.5924,0.01134,0.00312,-0.105
0.5,0.6039,0.01135,0.00311,-0.1049
0.6,0.6154,0.01137,0.0031,-0.1048
0.7,0.6268,0.01139,0.0031,-0.1046
0.8,0.6376,0.01146,0.0031,-0.1044
0.9,0.6489,0.01147,0.0031,-0.1042
1,0.6603,0.01149,0.00311,-0.1041
1.1,0.6715,0.01152,0.00312,-0.104
1.2,0.6828,0.01155,0.00314,-0.1039
1.3,0.6941,0.01156,0.00317,-0.1038
1.4,0.7051,0.01145,0.00322,-0.1038
1.6,0.7177,0.01023,0.00312,-0.1011
1.7,0.7289,0.01034,0.00317,-0.101
1.8,0.74,0.01046,0.00321,-0.1008
1.9,0.751,0.01058,0.00326,-0.1006
2,0.762,0.01071,0.00331,-0.1004
2.1,0.7729,0.01085,0.00336,-0.1002
2.2,0.7837,0.01098,0.00341,-0.1
2.3,0.7945,0.01113,0.00348,-0.0998
2.4,0.8044,0.01136,0.00356,-0.0994
2.5,0.8149,0.01152,0.00364,-0.0992
2.6,0.8254,0.0117,0.00372,-0.099
2.7,0.8358,0.01188,0.00381,-0.0987
2.8,0.8462,0.01207,0.0039,-0.0985
2.9,0.8565,0.01227,0.00401,-0.0982
3,0.8668,0.01246,0.00411,-0.098
3.1,0.8772,0.01266,0.00421,-0.0978
3.2,0.8876,0.01285,0.00432,-0.0976
3.3,0.8974,0.01311,0.00445,-0.0973
3.4,0.908,0.0133,0.00455,-0.0971
3.5,0.9187,0.01346,0.00467,-0.097
3.6,0.9294,0.01363,0.00478,-0.0968
3.7,0.9401,0.0138,0.00492,-0.0966
3.8,0.951,0.01394,0.00503,-0.0965
3.9,0.9618,0.0141,0.00514,-0.0963
4,0.9725,0.01427,0.00528,-0.0961
4.1,0.9835,0.0144,0.00539,-0.096
4.2,0.9939,0.01459,0.00552,-0.0958
4.3,1.0045,0.01476,0.00566,-0.0956
4.4,1.0156,0.01488,0.00578,-0.0955
4.5,1.0265,0.01502,0.0059,-0.0953
4.6,1.0373,0.01517,0.00603,-0.0951
4.7,1.0479,0.01534,0.00616,-0.0949
4.8,1.0586,0.01548,0.00632,-0.0948
4.9,1.0696,0.01561,0.00645,-0.0946
5,1.0804,0.01575,0.00658,-0.0944
5.1,1.0912,0.0159,0.00672,-0.0942
5.2,1.1013,0.0161,0.00687,-0.094
5.3,1.1123,0.01623,0.007,-0.0938
5.4,1.1231,0.01636,0.00714,-0.0936
5.5,1.1338,0.01651,0.00728,-0.0934
5.6,1.1444,0.01667,0.00743,-0.0932
5.7,1.1547,0.01685,0.00758,-0.093
5.8,1.1653,0.017,0.00774,-0.0928
5.9,1.1761,0.01714,0.00791,-0.0926
6,1.1868,0.01729,0.00807,-0.0924
6.1,1.1971,0.01745,0.00821,-0.0921
6.2,1.2074,0.01763,0.00837,-0.0919
6.3,1.2177,0.01781,0.00854,-0.0916
6.4,1.2284,0.01794,0.0087,-0.0914
6.5,1.239,0.01809,0.00887,-0.0912
6.6,1.2494,0.01826,0.00904,-0.0909
6.7,1.2597,0.01843,0.00922,-0.0906
6.8,1.2698,0.01861,0.00939,-0.0904
6.9,1.2797,0.01881,0.00958,-0.0901
7,1.2901,0.01898,0.00979,-0.0898
7.1,1.3006,0.01911,0.00994,-0.0895
7.2,1.3108,0.01929,0.01013,-0.0893
7.3,1.3208,0.01947,0.01032,-0.0889
7.4,1.3307,0.01967,0.01052,-0.0886
7.5,1.3403,0.01988,0.01072,-0.0883
7.6,1.3504,0.02006,0.01093,-0.0879
7.7,1.3606,0.02024,0.01113,-0.0876
7.8,1.3707,0.02042,0.01135,-0.0873
7.9,1.3805,0.02061,0.01156,-0.087
8,1.3902,0.02081,0.01179,-0.0866
8.1,1.3994,0.02102,0.01197,-0.0862
8.2,1.4087,0.02125,0.0122,-0.0858
8.3,1.4186,0.02143,0.01243,-0.0854
8.4,1.4284,0.02162,0.01267,-0.0851
8.5,1.438,0.02183,0.01291,-0.0847
8.6,1.4474,0.02204,0.01315,-0.0843
8.7,1.4565,0.02227,0.01339,-0.0838
8.8,1.4655,0.0225,0.01363,-0.0833
8.9,1.4741,0.02276,0.01389,-0.0828
9,1.4828,0.02301,0.01415,-0.0823
9.1,1.4923,0.02322,0.01442,-0.0819
9.2,1.5014,0.02345,0.01472,-0.0815
9.3,1.5104,0.02364,0.01494,-0.081
9.4,1.519,0.02389,0.01521,-0.0805
9.5,1.5272,0.02415,0.01549,-0.0799
9.6,1.5351,0.02442,0.01577,-0.0793
9.7,1.5426,0.02472,0.01607,-0.0786
9.8,1.5512,0.02496,0.01638,-0.0781
9.9,1.5596,0.02522,0.01669,-0.0775
10,1.5677,0.02548,0.01701,-0.0769
10.1,1.5755,0.02575,0.01733,-0.0762
10.2,1.583,0.02603,0.01765,-0.0756
10.4,1.5961,0.02659,0.01822,-0.074
10.5,1.6019,0.02692,0.01858,-0.0731
10.6,1.6084,0.02721,0.01893,-0.0723
10.7,1.6148,0.0275,0.01929,-0.0714
10.8,1.6209,0.02781,0.01966,-0.0705
10.9,1.6268,0.02813,0.02004,-0.0696
11,1.6323,0.02846,0.02042,-0.0687
11.1,1.6376,0.0288,0.02081,-0.0677
11.2,1.6426,0.02916,0.02121,-0.0668
11.3,1.6473,0.02953,0.02162,-0.0658
11.4,1.6517,0.02992,0.02204,-0.0649
11.5,1.6556,0.03034,0.02248,-0.0639
11.6,1.6591,0.0308,0.02296,-0.0629
11.7,1.6647,0.03119,0.02342,-0.0621
11.8,1.6708,0.03151,0.02384,-0.0614
11.9,1.6754,0.03194,0.02433,-0.0606
12,1.6798,0.03238,0.02484,-0.0598
12.1,1.6839,0.03283,0.02537,-0.059
12.2,1.6878,0.03331,0.0259,-0.0582
12.3,1.6913,0.03381,0.02644,-0.0574
12.4,1.6944,0.03432,0.02701,-0.0566
12.5,1.6972,0.03487,0.02759,-0.0558
12.6,1.6996,0.03545,0.02821,-0.0551
12.7,1.7015,0.03608,0.02886,-0.0544
12.8,1.7053,0.03663,0.0295,-0.0538
12.9,1.709,0.03721,0.03018,-0.0532
13,1.7123,0.03782,0.03087,-0.0526
13.1,1.7153,0.03845,0.03158,-0.0521
13.2,1.718,0.0391,0.03232,-0.0516
13.3,1.7205,0.03978,0.03307,-0.0512
13.4,1.7228,0.04048,0.03384,-0.0508
13.5,1.725,0.0412,0.03464,-0.0505
13.6,1.7273,0.04186,0.03533,-0.0504
13.7,1.7289,0.04265,0.03617,-0.0502
13.8,1.7302,0.04348,0.03705,-0.0501
13.9,1.7313,0.04435,0.03797,-0.0501
14,1.7321,0.04527,0.03894,-0.0502
14.1,1.7332,0.0462,0.03991,-0.0504
14.2,1.7355,0.04708,0.04091,-0.0505
14.3,1.7374,0.048,0.04197,-0.0507
14.4,1.739,0.04897,0.04304,-0.0511
14.5,1.7405,0.04998,0.04415,-0.0515
14.6,1.7418,0.05103,0.04529,-0.0521
14.7,1.7431,0.05211,0.04646,-0.0528
14.8,1.7443,0.05323,0.04767,-0.0536
14.9,1.7454,0.05438,0.04892,-0.0545
15,1.7465,0.05558,0.0502,-0.0555
15.1,1.7475,0.05681,0.05151,-0.0567
15.2,1.7485,0.05808,0.05287,-0.0581
15.3,1.7493,0.0594,0.05427,-0.0595
15.4,1.7501,0.06077,0.0557,-0.0611
15.5,1.7507,0.06219,0.0572,-0.0629
15.6,1.7513,0.06377,0.05876,-0.0656
15.7,1.7516,0.06538,0.06051,-0.0675
15.8,1.7522,0.06716,0.06245,-0.07
15.9,1.752,0.06898,0.06438,-0.0724
16,1.7515,0.0709,0.06642,-0.075
16.1,1.7507,0.07293,0.06856,-0.0778
16.2,1.7497,0.07508,0.07082,-0.0808
16.3,1.7483,0.07737,0.07322,-0.084
16.4,1.7478,0.07988,0.0758,-0.0879
16.5,1.7457,0.08246,0.07847,-0.0914
16.6,1.7433,0.08517,0.08127,-0.0951
16.7,1.7405,0.08799,0.08417,-0.0989
16.8,1.7375,0.09085,0.08711,-0.1027
16.9,1.7344,0.09374,0.09007,-0.1065
17,1.7314,0.09655,0.09293,-0.1101
17.1,1.7283,0.09935,0.09576,-0.1136
17.8,1.6049,0.15247,0.14976,-0.1694
17.9,1.6027,0.15569,0.153,-0.1725
18,1.604,0.15752,0.15484,-0.1744
18.1,1.6106,0.15729,0.15462,-0.175
18.2,1.6178,0.15675,0.15409,-0.1752
18.3,1.6283,0.15492,0.15225,-0.1745
18.4,1.6339,0.15485,0.15219,-0.1749
18.5,1.6402,0.15447,0.15181,-0.1751
19.1,1.6199,0.17878,0.17623,-0.1975
19.2,1.6243,0.17911,0.17658,-0.1984
19.3,1.6289,0.17931,0.17679,-0.1992
19.4,1.6334,0.17958,0.17704,-0.2
20.1,1.6376,0.19904,0.19662,-0.2178
20.2,1.6417,0.19937,0.19697,-0.2187
20.7,1.6465,0.21534,0.21299,-0.2321
20.8,1.6489,0.2178,0.21542,-0.2346
21.3,1.6607,0.22948,0.22716,-0.2449
21.4,1.6639,0.23049,0.22818,-0.2463
21.5,1.6672,0.23143,0.22914,-0.2476
21.6,1.6706,0.23228,0.23,-0.2489
21.7,1.6739,0.23311,0.23084,-0.2502
21.8,1.6774,0.23385,0.2316,-0.2514
22.1,1.6822,0.2461,0.24383,-0.2601
22.2,1.6852,0.24748,0.24522,-0.2617
22.3,1.6883,0.24876,0.24651,-0.2632
22.4,1.6913,0.24998,0.24776,-0.2647
22.5,1.6944,0.25108,0.24887,-0.2661
22.6,1.6975,0.25215,0.24995,-0.2676
22.7,1.7006,0.25314,0.25095,-0.269
22.8,1.7036,0.25415,0.25198,-0.2704
22.9,1.7067,0.2551,0.25293,-0.2717
23,1.7098,0.25595,0.2538,-0.2731
23.8,1.7315,0.27549,0.27335,-0.2899
23.9,1.7344,0.27665,0.27452,-0.2914
24,1.7372,0.27777,0.27565,-0.2929
24.1,1.74,0.27887,0.27676,-0.2945
24.2,1.7428,0.27986,0.27776,-0.2959
24.7,1.7579,0.29672,0.2946,-0.3081
24.8,1.7607,0.29843,0.29632,-0.3099
24.9,1.7636,0.30008,0.29797,-0.3116
25,1.7664,0.30165,0.29955,-0.3133
25.1,1.7691,0.30321,0.30112,-0.3151
25.2,1.7719,0.3047,0.30262,-0.3168
25.3,1.7746,0.30616,0.30409,-0.3185
25.4,1.7773,0.30761,0.30555,-0.3202
25.5,1.78,0.30899,0.30694,-0.3219
25.6,1.7826,0.31038,0.30834,-0.3236
25.7,1.7852,0.31172,0.30971,-0.3253
25.8,1.7878,0.31303,0.31103,-0.3269
25.9,1.7903,0.31435,0.31236,-0.3286
26,1.7928,0.31557,0.31359,-0.3303
26.1,1.7953,0.3168,0.31483,-0.3319
26.2,1.7978,0.318,0.31604,-0.3336
26.7,1.8158,0.33663,0.33464,-0.3465
26.8,1.8185,0.33845,0.33646,-0.3484
26.9,1.8212,0.34024,0.33826,-0.3503
27,1.8239,0.34198,0.34001,-0.3521
27.1,1.8265,0.34369,0.34173,-0.354
27.2,1.8291,0.34537,0.34342,-0.3559
27.3,1.8317,0.34703,0.34509,-0.3578
27.4,1.8342,0.34868,0.34674,-0.3596
27.5,1.8367,0.35028,0.34836,-0.3615
27.6,1.8392,0.35184,0.34993,-0.3633
27.7,1.8417,0.35342,0.35152,-0.3652
27.8,1.8441,0.35497,0.35307,-0.3671
27.9,1.8464,0.35643,0.35455,-0.3689
28,1.8487,0.35791,0.35604,-0.3707
28.1,1.8511,0.35942,0.35755,-0.3726
28.2,1.8533,0.36083,0.35897,-0.3744
28.3,1.8555,0.36223,0.36039,-0.3763
28.4,1.8577,0.36361,0.36178,-0.3781
28.5,1.8599,0.365,0.36318,-0.38
28.6,1.862,0.36639,0.36457,-0.3818
28.7,1.8641,0.36766,0.36587,-0.3837

