airfoilName st15.dat
Re 	650000
M 	2.500000e-01
N 	4.500000e+00
VACC 	0 VACCflag 1
XTR 	1.00 	1.00 XTRflag 0
alpha,cl,cd,cdp,cm
-30,-1.4821,0.46454,0.46297,0.2997
-29.9,-1.479,0.46251,0.46093,0.2976
-29.8,-1.476,0.46044,0.45887,0.2955
-29.7,-1.4729,0.45839,0.45681,0.2934
-29.6,-1.4698,0.45637,0.45479,0.2914
-29.5,-1.4667,0.45431,0.45273,0.2893
-29.4,-1.4635,0.4523,0.45072,0.2872
-29.3,-1.4603,0.45029,0.4487,0.2851
-29.2,-1.4571,0.44827,0.44668,0.283
-29.1,-1.4539,0.4463,0.4447,0.2809
-29,-1.4507,0.44427,0.44267,0.2788
-28.9,-1.4473,0.44231,0.44071,0.2767
-28.8,-1.444,0.44033,0.43872,0.2746
-28.7,-1.4407,0.43837,0.43675,0.2725
-28.6,-1.4373,0.43646,0.43485,0.2704
-28.5,-1.4339,0.43448,0.43286,0.2683
-28.4,-1.4304,0.4326,0.43099,0.2661
-28.3,-1.4267,0.43072,0.42909,0.2639
-28,-1.4116,0.42774,0.42612,0.255
-27.9,-1.4084,0.42506,0.42345,0.2532
-27.8,-1.4052,0.42243,0.42081,0.2513
-27.7,-1.402,0.41989,0.41827,0.2495
-27.6,-1.3988,0.41732,0.4157,0.2476
-27.5,-1.3955,0.41484,0.41321,0.2458
-27.4,-1.3922,0.41239,0.41075,0.2439
-27.3,-1.389,0.40997,0.40834,0.2421
-27.2,-1.3856,0.40761,0.40597,0.2402
-27.1,-1.3823,0.40528,0.40364,0.2384
-27,-1.379,0.40301,0.40137,0.2365
-26.9,-1.3757,0.40073,0.39909,0.2347
-26.8,-1.3723,0.39851,0.39686,0.2329
-26.7,-1.3689,0.39632,0.39467,0.2311
-26.6,-1.3655,0.39414,0.39249,0.2292
-26.5,-1.3621,0.39199,0.39033,0.2274
-26.4,-1.3587,0.38986,0.3882,0.2256
-26.3,-1.3553,0.38776,0.38609,0.2238
-26.2,-1.3519,0.38567,0.384,0.222
-26.1,-1.3484,0.3836,0.38192,0.2202
-26,-1.3449,0.38154,0.37987,0.2184
-25.9,-1.3414,0.3795,0.37782,0.2166
-25.8,-1.3379,0.37747,0.37579,0.2148
-25.7,-1.3344,0.37547,0.37379,0.2131
-25.6,-1.3309,0.37345,0.37177,0.2113
-25.4,-1.3239,0.36984,0.36816,0.2077
-25.3,-1.3203,0.36787,0.36618,0.206
-25.2,-1.3167,0.36591,0.36422,0.2042
-25.1,-1.3131,0.36395,0.36225,0.2025
-25,-1.3095,0.36199,0.36029,0.2007
-24.9,-1.3059,0.36004,0.35834,0.199
-24.8,-1.3022,0.35808,0.35638,0.1973
-24.7,-1.2986,0.35616,0.35445,0.1955
-24.6,-1.2949,0.35422,0.35251,0.1938
-24.5,-1.2913,0.35231,0.3506,0.1921
-24.4,-1.2876,0.35038,0.34867,0.1904
-24.3,-1.2839,0.34848,0.34676,0.1887
-24.2,-1.2802,0.34655,0.34484,0.187
-24.1,-1.2765,0.34465,0.34293,0.1853
-24,-1.2728,0.34274,0.34101,0.1836
-23.9,-1.269,0.34085,0.33912,0.182
-23.8,-1.2653,0.33896,0.33723,0.1803
-23.7,-1.2615,0.33707,0.33534,0.1786
-23.6,-1.2577,0.33518,0.33345,0.177
-23.5,-1.2539,0.3333,0.33156,0.1753
-23.4,-1.2501,0.33141,0.32967,0.1737
-23.3,-1.2463,0.32953,0.32779,0.172
-23.2,-1.2424,0.32764,0.3259,0.1704
-23.1,-1.2386,0.32576,0.32402,0.1687
-23,-1.2347,0.32386,0.32212,0.1671
-22.9,-1.2308,0.32199,0.32025,0.1654
-22.8,-1.2269,0.32011,0.31836,0.1638
-22.7,-1.2229,0.31822,0.31647,0.1622
-22.6,-1.219,0.31635,0.31459,0.1606
-22.5,-1.215,0.31447,0.31272,0.159
-22.4,-1.2111,0.3126,0.31085,0.1573
-22.3,-1.2071,0.31072,0.30897,0.1557
-22.2,-1.2031,0.30885,0.30709,0.1541
-22.1,-1.1991,0.30697,0.30521,0.1525
-22,-1.195,0.3051,0.30334,0.1509
-21.9,-1.1909,0.30322,0.30145,0.1493
-21.8,-1.1868,0.30135,0.29958,0.1477
-21.7,-1.1827,0.29945,0.29768,0.146
-21.6,-1.1786,0.29756,0.29578,0.1444
-21.5,-1.1744,0.29567,0.29389,0.1428
-21.4,-1.1701,0.29376,0.29197,0.1411
-21.3,-1.1659,0.29182,0.29003,0.1395
-21.2,-1.1615,0.28984,0.28806,0.1378
-21.1,-1.157,0.28779,0.286,0.1361
-20.8,-1.1381,0.28053,0.27875,0.129
-20.7,-1.1344,0.27837,0.27659,0.1276
-20.6,-1.1307,0.27621,0.27443,0.1263
-20.5,-1.127,0.27409,0.2723,0.125
-20.4,-1.1233,0.27199,0.2702,0.1236
-20.3,-1.1196,0.26991,0.26813,0.1223
-20.2,-1.1159,0.26787,0.26609,0.121
-20.1,-1.1121,0.26589,0.2641,0.1196
-20,-1.1082,0.26393,0.26213,0.1183
-19.9,-1.1044,0.262,0.2602,0.1169
-19.8,-1.1005,0.2601,0.25831,0.1156
-19.7,-1.0966,0.25823,0.25643,0.1142
-19.5,-1.0887,0.25483,0.25303,0.1115
-19.4,-1.0846,0.25302,0.25122,0.1102
-19.3,-1.0806,0.25123,0.24943,0.1088
-19.2,-1.0765,0.24945,0.24765,0.1075
-19.1,-1.0724,0.24768,0.24588,0.1061
-19,-1.0682,0.24593,0.24413,0.1048
-18.9,-1.0641,0.24419,0.24238,0.1034
-18.8,-1.0599,0.24245,0.24063,0.1021
-18.7,-1.0557,0.24074,0.23892,0.1008
-18.6,-1.0515,0.23902,0.2372,0.0994
-18.5,-1.0473,0.23731,0.23549,0.0981
-18.4,-1.043,0.2356,0.23378,0.0968
-18.3,-1.0388,0.23391,0.23209,0.0954
-18.2,-1.0345,0.23221,0.23039,0.0941
-18.1,-1.0302,0.23053,0.2287,0.0928
-18,-1.0259,0.22884,0.22702,0.0915
-17.9,-1.0216,0.22717,0.22534,0.0902
-17.8,-1.0172,0.22549,0.22367,0.0889
-17.7,-1.0129,0.22382,0.22199,0.0876
-17.6,-1.0085,0.22215,0.22032,0.0863
-17.5,-1.0041,0.22049,0.21866,0.085
-17.4,-0.9997,0.21883,0.217,0.0837
-17.3,-0.9953,0.21717,0.21534,0.0824
-17.2,-0.9909,0.21551,0.21368,0.0811
-17.1,-0.9864,0.21385,0.21202,0.0799
-17,-0.982,0.21219,0.21036,0.0786
-16.9,-0.9775,0.21053,0.2087,0.0773
-16.8,-0.9729,0.20887,0.20704,0.076
-16.7,-0.9684,0.20721,0.20538,0.0747
-16.6,-0.9638,0.20555,0.20371,0.0735
-16.5,-0.9593,0.20388,0.20204,0.0722
-16.4,-0.9546,0.20222,0.20038,0.0709
-16.3,-0.95,0.20055,0.19871,0.0697
-16.2,-0.9454,0.19888,0.19704,0.0684
-16.1,-0.9408,0.1972,0.19535,0.0671
-16,-0.9361,0.19552,0.19367,0.0658
-15.9,-0.9314,0.19383,0.19198,0.0646
-15.8,-0.9267,0.19214,0.19029,0.0633
-15.7,-0.922,0.19044,0.18859,0.062
-15.6,-0.9172,0.18872,0.18687,0.0608
-15.5,-0.9125,0.18699,0.18513,0.0595
-15.4,-0.9077,0.18522,0.18337,0.0582
-15.3,-0.9029,0.18343,0.18158,0.0569
-15.2,-0.898,0.18161,0.17975,0.0557
-15.1,-0.8932,0.17974,0.17789,0.0544
-15,-0.8881,0.17769,0.17583,0.0531
-14.7,-0.8694,0.17081,0.16894,0.0482
-14.6,-0.8611,0.16879,0.16694,0.0461
-14.5,-0.857,0.16709,0.16525,0.0451
-14.4,-0.8536,0.16531,0.16347,0.0442
-14.3,-0.8494,0.16363,0.16179,0.0432
-14.2,-0.8452,0.16198,0.16014,0.0421
-14.1,-0.841,0.16033,0.15849,0.0411
-14,-0.8367,0.15871,0.15686,0.0401
-13.9,-0.8325,0.15709,0.15524,0.0391
-13.8,-0.8281,0.15551,0.15366,0.038
-13.7,-0.8238,0.15394,0.1521,0.037
-13.6,-0.8194,0.1524,0.15055,0.036
-13.5,-0.8148,0.15088,0.14904,0.0349
-13.4,-0.8102,0.14939,0.14754,0.0339
-13.3,-0.8056,0.14792,0.14608,0.0328
-13.2,-0.8008,0.14647,0.14463,0.0318
-13.1,-0.7961,0.14504,0.14319,0.0307
-13,-0.7912,0.14363,0.14178,0.0296
-12.9,-0.7863,0.14222,0.14037,0.0285
-12.8,-0.7814,0.14085,0.13901,0.0275
-12.7,-0.7764,0.13949,0.13764,0.0264
-12.6,-0.7713,0.13813,0.13629,0.0253
-12.5,-0.7662,0.1368,0.13495,0.0242
-12.4,-0.7611,0.13547,0.13363,0.0231
-12.3,-0.7559,0.13415,0.13231,0.0221
-12.2,-0.7506,0.13283,0.13099,0.021
-12.1,-0.7453,0.13152,0.12969,0.0199
-12,-0.74,0.13022,0.12839,0.0188
-11.9,-0.7347,0.12893,0.1271,0.0177
-11.8,-0.7293,0.12765,0.12582,0.0166
-11.7,-0.7239,0.12638,0.12454,0.0155
-11.6,-0.7185,0.12509,0.12326,0.0144
-11.5,-0.713,0.12383,0.122,0.0133
-11.4,-0.7075,0.12256,0.12073,0.0122
-11.3,-0.7019,0.12129,0.11946,0.0111
-11.2,-0.6964,0.12004,0.11821,0.01
-11.1,-0.6908,0.11878,0.11696,0.0089
-11,-0.6852,0.11753,0.11571,0.0079
-10.9,-0.6797,0.11628,0.11446,0.0068
-10.8,-0.6741,0.11504,0.11323,0.0057
-10.7,-0.6685,0.1138,0.11199,0.0046
-10.6,-0.6629,0.11256,0.11075,0.0036
-10.5,-0.6573,0.11133,0.10952,0.0025
-10.4,-0.6518,0.11011,0.1083,0.0015
-10.3,-0.6463,0.1089,0.10709,0.0004
-10.2,-0.6409,0.1077,0.10589,-0.0006
-10.1,-0.6355,0.1065,0.1047,-0.0015
-10,-0.6303,0.10533,0.10353,-0.0025
-9.9,-0.6254,0.10417,0.10238,-0.0034
-9.8,-0.6207,0.10305,0.10126,-0.0042
-9.7,-0.6164,0.10197,0.10018,-0.0048
-9.6,-0.613,0.10096,0.09918,-0.0053
-9.5,-0.6108,0.10007,0.0983,-0.0055
-9.4,-0.6062,0.09896,0.0972,-0.0063
-9.3,-0.5969,0.09743,0.09567,-0.0084
-9.2,-0.5873,0.09589,0.09412,-0.0105
-9.1,-0.5773,0.09431,0.09254,-0.0128
-9,-0.5666,0.09266,0.09089,-0.0153
-8.9,-0.557,0.09111,0.08933,-0.0174
-8.8,-0.5457,0.08891,0.08712,-0.0203
-6.3,-0.1486,0.01554,0.0114,-0.1259
-6.2,-0.1363,0.01484,0.01057,-0.1262
-6.1,-0.1239,0.0143,0.00993,-0.1265
-6,-0.1117,0.01383,0.00936,-0.1267
-5.9,-0.0994,0.01343,0.00888,-0.1268
-5.8,-0.0871,0.01307,0.00843,-0.127
-5.7,-0.0751,0.01274,0.00801,-0.127
-5.6,-0.0628,0.01243,0.00762,-0.127
-5.5,-0.0505,0.01213,0.00725,-0.1271
-5.4,-0.0383,0.01186,0.0069,-0.1271
-5.3,-0.026,0.0116,0.00656,-0.1272
-5.2,-0.0138,0.01136,0.00625,-0.1272
-5.1,-0.0017,0.01114,0.00595,-0.1271
-5,0.0105,0.01095,0.00569,-0.1271
-4.9,0.0228,0.01078,0.00546,-0.1272
-4.8,0.0349,0.01054,0.00518,-0.1272
-4.7,0.0472,0.01036,0.00496,-0.1272
-4.6,0.0591,0.01034,0.00496,-0.1271
-4.5,0.071,0.0102,0.00476,-0.1271
-4.4,0.0833,0.01005,0.00458,-0.1271
-4.3,0.0956,0.00991,0.0044,-0.1271
-4.2,0.1076,0.00979,0.00422,-0.127
-4.1,0.1198,0.00969,0.00406,-0.127
-4,0.1319,0.00956,0.00389,-0.127
-3.9,0.1441,0.00942,0.00374,-0.127
-3.8,0.1562,0.00932,0.00362,-0.127
-3.7,0.1684,0.00923,0.00351,-0.1269
-3.6,0.1805,0.00915,0.0034,-0.1269
-3.5,0.1924,0.00908,0.00328,-0.1268
-3.4,0.2046,0.009,0.00318,-0.1268
-3.3,0.2168,0.00894,0.00308,-0.1268
-3.2,0.2288,0.00885,0.00301,-0.1268
-3.1,0.2409,0.00879,0.00293,-0.1268
-3,0.2529,0.00873,0.00284,-0.1268
-2.9,0.265,0.00867,0.00275,-0.1268
-2.8,0.2771,0.00861,0.00267,-0.1268
-2.7,0.2887,0.00859,0.00259,-0.1266
-2.6,0.3006,0.00854,0.00251,-0.1265
-2.5,0.3124,0.0085,0.00246,-0.1265
-2.4,0.3243,0.00846,0.0024,-0.1264
-2.3,0.336,0.00844,0.00233,-0.1263
-2.2,0.3481,0.0084,0.00228,-0.1263
-2.1,0.3601,0.00838,0.00222,-0.1263
-2,0.3719,0.00834,0.00216,-0.1262
-1.9,0.3837,0.00832,0.00211,-0.1262
-1.8,0.3956,0.0083,0.00207,-0.1261
-1.7,0.4076,0.00828,0.00204,-0.1261
-1.6,0.4196,0.00827,0.002,-0.1261
-1.5,0.4311,0.00827,0.00196,-0.126
-1.4,0.4426,0.00828,0.00193,-0.1259
-1.3,0.4546,0.00827,0.0019,-0.1259
-1.2,0.4665,0.00826,0.00188,-0.1258
-1.1,0.4784,0.00826,0.00185,-0.1258
-0.9,0.5018,0.00827,0.00182,-0.1257
-0.8,0.5132,0.00832,0.00181,-0.1256
-0.7,0.5249,0.00833,0.00179,-0.1255
-0.6,0.5367,0.00835,0.00178,-0.1255
-0.5,0.5484,0.00836,0.00177,-0.1255
-0.4,0.5598,0.00841,0.00177,-0.1253
-0.3,0.5714,0.00844,0.00178,-0.1253
-0.2,0.5818,0.00859,0.00179,-0.125
-0.1,0.5935,0.00862,0.00179,-0.125
0,0.605,0.00866,0.0018,-0.1249
0.1,0.6166,0.0087,0.00181,-0.1248
0.2,0.6278,0.00878,0.00183,-0.1247
0.3,0.6393,0.00882,0.00186,-0.1247
0.4,0.6501,0.00894,0.0019,-0.1245
0.5,0.6616,0.009,0.00192,-0.1244
0.6,0.6723,0.00913,0.00196,-0.1243
0.7,0.6837,0.00919,0.00198,-0.1242
0.8,0.6951,0.00926,0.00202,-0.1241
0.9,0.7064,0.00934,0.00206,-0.124
1,0.7177,0.00941,0.00209,-0.1239
1.1,0.729,0.00949,0.00213,-0.1239
1.2,0.7401,0.00958,0.00217,-0.1238
1.3,0.7504,0.00978,0.00225,-0.1235
1.4,0.7614,0.00989,0.0023,-0.1234
1.5,0.7724,0.01001,0.00235,-0.1233
1.6,0.7832,0.01014,0.00242,-0.1232
1.7,0.794,0.01029,0.00249,-0.123
1.8,0.8047,0.01044,0.00257,-0.1229
1.9,0.8153,0.01061,0.00265,-0.1227
2,0.8249,0.01091,0.00278,-0.1224
2.1,0.8358,0.01104,0.00286,-0.1223
2.2,0.847,0.01113,0.00292,-0.1222
2.3,0.8582,0.01122,0.00299,-0.1221
2.4,0.8695,0.01129,0.00305,-0.1221
2.5,0.8808,0.01137,0.00311,-0.122
2.6,0.8921,0.01144,0.00318,-0.1219
2.7,0.9035,0.0115,0.00323,-0.1218
2.8,0.9144,0.01162,0.00332,-0.1217
2.9,0.9258,0.01166,0.00337,-0.1217
3,0.9373,0.01169,0.00344,-0.1216
3.1,0.9486,0.01173,0.00351,-0.1216
3.2,0.9528,0.01041,0.00366,-0.1203
3.3,0.9642,0.01048,0.00372,-0.1202
3.4,0.9756,0.01056,0.00378,-0.1201
3.5,0.987,0.01065,0.00384,-0.12
3.6,0.9982,0.01075,0.00391,-0.1199
3.7,1.0094,0.01085,0.00398,-0.1198
3.8,1.0207,0.01093,0.00405,-0.1197
3.9,1.032,0.01102,0.00412,-0.1196
4,1.0432,0.01113,0.00419,-0.1195
4.1,1.0544,0.01121,0.00428,-0.1194
4.2,1.0658,0.01129,0.00435,-0.1193
4.3,1.077,0.01138,0.00442,-0.1192
4.4,1.088,0.01151,0.0045,-0.119
4.5,1.0991,0.0116,0.00459,-0.1189
4.6,1.1104,0.01169,0.00466,-0.1188
4.7,1.1216,0.01177,0.00474,-0.1186
4.8,1.1328,0.01187,0.00482,-0.1185
4.9,1.1439,0.01197,0.0049,-0.1183
5,1.1548,0.01209,0.00499,-0.1182
5.1,1.166,0.01218,0.00509,-0.118
5.2,1.1772,0.01227,0.00517,-0.1179
5.3,1.1881,0.01238,0.00528,-0.1177
5.4,1.199,0.0125,0.00537,-0.1175
5.5,1.2099,0.01262,0.00548,-0.1174
5.6,1.221,0.01271,0.00557,-0.1172
5.7,1.232,0.0128,0.00567,-0.117
5.8,1.243,0.01291,0.00576,-0.1169
5.9,1.2539,0.01302,0.00587,-0.1167
6,1.2648,0.01314,0.00597,-0.1165
6.1,1.2754,0.01328,0.00609,-0.1162
6.2,1.2863,0.01338,0.00619,-0.116
6.3,1.2972,0.01349,0.00632,-0.1158
6.4,1.308,0.01361,0.00643,-0.1156
6.5,1.3187,0.01374,0.00654,-0.1154
6.6,1.3292,0.01388,0.00667,-0.1151
6.7,1.34,0.01399,0.0068,-0.1149
6.8,1.3508,0.01411,0.00691,-0.1147
6.9,1.3615,0.01422,0.00703,-0.1144
7,1.3719,0.01438,0.00716,-0.1142
7.1,1.3823,0.01452,0.0073,-0.1139
7.2,1.3927,0.01467,0.00744,-0.1136
7.3,1.4034,0.01478,0.00757,-0.1133
7.4,1.4139,0.01491,0.00772,-0.113
7.5,1.4244,0.01505,0.00785,-0.1128
7.6,1.4348,0.01519,0.008,-0.1125
7.7,1.445,0.01534,0.00814,-0.1121
7.8,1.4551,0.01551,0.0083,-0.1118
7.9,1.4653,0.01566,0.00846,-0.1115
8,1.4756,0.0158,0.00861,-0.1111
8.1,1.4858,0.01595,0.00876,-0.1108
8.2,1.4959,0.0161,0.00892,-0.1104
8.3,1.5059,0.01627,0.00909,-0.1101
8.4,1.5157,0.01646,0.00927,-0.1097
8.5,1.5257,0.01662,0.00945,-0.1093
8.6,1.5357,0.01677,0.00963,-0.1089
8.7,1.5457,0.01693,0.0098,-0.1085
8.8,1.5555,0.01709,0.00998,-0.1081
8.9,1.5649,0.0173,0.01016,-0.1076
9,1.5744,0.01749,0.01036,-0.1072
9.1,1.5838,0.0177,0.01057,-0.1067
9.2,1.5935,0.01786,0.01076,-0.1062
9.3,1.603,0.01803,0.01095,-0.1058
9.4,1.6125,0.01821,0.01115,-0.1053
9.5,1.6218,0.0184,0.01135,-0.1048
9.6,1.631,0.0186,0.01157,-0.1043
9.7,1.6399,0.01881,0.01179,-0.1037
9.8,1.6487,0.01904,0.01202,-0.1031
9.9,1.6572,0.01928,0.01228,-0.1025
10,1.6662,0.01946,0.0125,-0.1019
10.1,1.6749,0.01966,0.01272,-0.1013
10.2,1.6835,0.01987,0.01295,-0.1007
10.3,1.6919,0.02008,0.01319,-0.1
10.4,1.7,0.02031,0.01344,-0.0993
10.5,1.7079,0.02055,0.01369,-0.0986
10.6,1.7148,0.02087,0.01399,-0.0978
10.7,1.7228,0.02109,0.01425,-0.097
10.8,1.7305,0.02131,0.01451,-0.0962
10.9,1.7378,0.02155,0.01476,-0.0954
11,1.7449,0.0218,0.01503,-0.0945
11.1,1.751,0.02205,0.01531,-0.0935
11.2,1.7569,0.02232,0.01561,-0.0924
11.3,1.7625,0.0226,0.01593,-0.0913
11.4,1.7679,0.02291,0.01626,-0.0902
11.5,1.7731,0.02323,0.0166,-0.0891
11.6,1.7787,0.02353,0.01694,-0.088
11.7,1.7846,0.0238,0.01725,-0.087
11.8,1.7901,0.0241,0.01759,-0.086
11.9,1.7956,0.02442,0.01794,-0.085
12,1.8008,0.02475,0.01831,-0.0839
12.1,1.8058,0.02509,0.01868,-0.0829
12.2,1.8107,0.02545,0.01908,-0.0818
12.3,1.8153,0.02583,0.01949,-0.0808
12.4,1.8197,0.02623,0.01992,-0.0797
12.5,1.8236,0.02666,0.02038,-0.0786
12.6,1.8276,0.02708,0.02085,-0.0776
12.7,1.8322,0.02747,0.02129,-0.0766
12.8,1.8366,0.02787,0.02172,-0.0756
12.9,1.8408,0.0283,0.0222,-0.0746
13,1.8446,0.02875,0.02269,-0.0737
13.1,1.8483,0.02922,0.02321,-0.0727
13.2,1.8507,0.02979,0.02378,-0.0717
13.3,1.8533,0.03034,0.02437,-0.0707
13.4,1.8563,0.03087,0.02496,-0.0698
13.5,1.8595,0.03139,0.02554,-0.0689
13.6,1.8624,0.03194,0.02614,-0.068
13.7,1.8651,0.03252,0.02676,-0.0672
13.8,1.8676,0.03313,0.02742,-0.0664
13.9,1.8698,0.03377,0.0281,-0.0656
14,1.8715,0.03445,0.02882,-0.0649
14.1,1.8729,0.03517,0.02959,-0.0641
14.2,1.8739,0.03593,0.03041,-0.0635
14.3,1.8756,0.03666,0.03119,-0.0629
14.4,1.8771,0.03742,0.032,-0.0623
14.5,1.8783,0.03821,0.03285,-0.0618
14.6,1.8794,0.03904,0.03374,-0.0614
14.7,1.8802,0.03991,0.03466,-0.0611
14.8,1.8807,0.04084,0.03564,-0.0608
14.9,1.8806,0.04184,0.03669,-0.0606
15,1.8805,0.04286,0.03778,-0.0605
15.1,1.8807,0.04387,0.03886,-0.0605
15.2,1.8806,0.04494,0.03999,-0.0606
15.3,1.8805,0.04604,0.04116,-0.0608
15.4,1.8802,0.0472,0.04238,-0.0611
15.5,1.8796,0.04842,0.04366,-0.0615
15.6,1.8788,0.0497,0.04501,-0.0621
15.7,1.8777,0.05106,0.04644,-0.0628
15.8,1.8763,0.0525,0.04794,-0.0637
15.9,1.8746,0.05403,0.04955,-0.0648
16,1.8732,0.0556,0.05121,-0.0661
16.1,1.8717,0.05723,0.05294,-0.0675
16.2,1.87,0.05897,0.05476,-0.0692
16.3,1.868,0.06082,0.0567,-0.071
16.4,1.8659,0.06279,0.05876,-0.0731
16.5,1.8634,0.06493,0.06099,-0.0755
16.6,1.8605,0.06725,0.0634,-0.0782
16.7,1.8572,0.06979,0.06605,-0.0812
16.8,1.8532,0.0726,0.06896,-0.0846
16.9,1.8483,0.07577,0.07223,-0.0884
17,1.8424,0.07934,0.07592,-0.0927
17.1,1.835,0.08349,0.08019,-0.0977
17.2,1.8256,0.08833,0.08517,-0.1032
17.3,1.8134,0.09412,0.09111,-0.1096
17.5,1.782,0.10734,0.10462,-0.1231
17.6,1.7671,0.11332,0.1107,-0.1293
17.7,1.7537,0.11888,0.11637,-0.1351
17.8,1.7418,0.12398,0.12154,-0.1405
17.9,1.7318,0.12859,0.12623,-0.1454
18,1.7223,0.13309,0.1308,-0.1502
18.1,1.7143,0.13718,0.13495,-0.1547
18.2,1.7073,0.14099,0.13881,-0.1589
18.3,1.7008,0.14464,0.14252,-0.163
18.4,1.6947,0.14821,0.14614,-0.167
18.6,1.6842,0.15495,0.15299,-0.1747
18.7,1.6801,0.15813,0.15622,-0.1783
18.8,1.6765,0.16127,0.1594,-0.1817
18.9,1.673,0.16455,0.16272,-0.1852
19,1.6709,0.16745,0.16565,-0.1882
19.1,1.6691,0.17031,0.16855,-0.1912
19.2,1.6663,0.17372,0.172,-0.1945
19.3,1.6651,0.17659,0.1749,-0.1974
19.4,1.6642,0.17936,0.1777,-0.2001
19.5,1.6634,0.18221,0.18058,-0.2029
19.6,1.6617,0.18555,0.18397,-0.2059
19.7,1.6612,0.18839,0.18684,-0.2086
19.8,1.6611,0.19111,0.18958,-0.2111
19.9,1.661,0.19388,0.19237,-0.2137
20,1.6601,0.19711,0.19564,-0.2166
20.1,1.6596,0.20021,0.19876,-0.2193
20.2,1.6599,0.20295,0.20153,-0.2218
20.3,1.6603,0.20567,0.20427,-0.2243
20.4,1.6608,0.20837,0.20699,-0.2267
20.5,1.6606,0.21158,0.21022,-0.2295
20.6,1.6609,0.21454,0.2132,-0.232
20.7,1.6619,0.21716,0.21584,-0.2344
20.8,1.6631,0.21969,0.21838,-0.2366
20.9,1.6645,0.22218,0.22087,-0.2389
21,1.6659,0.22461,0.22331,-0.2411
21.1,1.6675,0.22703,0.22574,-0.2433
21.2,1.6684,0.22987,0.22859,-0.2457
21.3,1.6697,0.23255,0.2313,-0.248
21.4,1.6712,0.23504,0.23381,-0.2502
21.5,1.6728,0.23759,0.23638,-0.2525
21.6,1.6741,0.24035,0.23916,-0.2548
21.8,1.676,0.24683,0.24569,-0.2602
21.9,1.6773,0.24985,0.24872,-0.2627
22,1.6789,0.25276,0.25164,-0.2651
22.1,1.6807,0.25557,0.25447,-0.2675
22.2,1.6823,0.25866,0.25757,-0.27
22.3,1.6842,0.26138,0.26029,-0.2723
22.4,1.6866,0.26372,0.26264,-0.2743
22.6,1.6928,0.26674,0.26566,-0.2774
22.7,1.6955,0.26853,0.26746,-0.2792
22.8,1.6983,0.27022,0.26915,-0.2809
22.9,1.7012,0.27174,0.27068,-0.2825
23,1.704,0.27324,0.27218,-0.2842
23.1,1.7068,0.27474,0.27369,-0.2858
23.2,1.7096,0.27624,0.27519,-0.2875
23.3,1.7125,0.27747,0.27642,-0.289
23.7,1.7194,0.29872,0.29769,-0.3028
23.8,1.7223,0.30069,0.29967,-0.3046
23.9,1.7252,0.30264,0.30162,-0.3064
24,1.7281,0.30451,0.3035,-0.3082
24.1,1.731,0.30633,0.30532,-0.31
24.2,1.7338,0.30812,0.30711,-0.3117
24.3,1.7367,0.30991,0.30891,-0.3135
24.4,1.7395,0.31163,0.31063,-0.3153
24.5,1.7424,0.31334,0.31234,-0.317
24.6,1.7452,0.31501,0.31402,-0.3188
24.7,1.748,0.31665,0.31566,-0.3205
24.8,1.7507,0.31827,0.31729,-0.3222
24.9,1.7535,0.31986,0.31889,-0.324
25,1.7562,0.32144,0.32047,-0.3257
25.1,1.7589,0.32298,0.32201,-0.3274
25.2,1.7616,0.32454,0.32357,-0.3292
25.3,1.7642,0.32606,0.3251,-0.3309
25.4,1.7668,0.32756,0.32661,-0.3327
25.5,1.7694,0.32904,0.32809,-0.3345
25.6,1.7719,0.33045,0.3295,-0.3362
25.7,1.7784,0.34184,0.34087,-0.3409
25.8,1.7821,0.34518,0.3442,-0.3432
25.9,1.785,0.34733,0.34636,-0.3451
26,1.788,0.34943,0.34846,-0.347
26.1,1.7909,0.3515,0.35054,-0.3489
26.2,1.7938,0.35349,0.35253,-0.3508
26.3,1.7966,0.35547,0.35451,-0.3527
26.4,1.7994,0.35739,0.35644,-0.3546
26.5,1.8022,0.35928,0.35833,-0.3565
26.6,1.8049,0.36114,0.36021,-0.3584
26.7,1.8076,0.36298,0.36205,-0.3603
26.8,1.8103,0.36481,0.36388,-0.3622
26.9,1.813,0.36664,0.36572,-0.3641
27,1.8156,0.36841,0.36749,-0.366
27.1,1.8182,0.37019,0.36928,-0.3679
27.2,1.8208,0.37193,0.37103,-0.3697
27.3,1.8234,0.37369,0.37279,-0.3716
27.4,1.8259,0.37538,0.37449,-0.3735
27.5,1.8284,0.37709,0.3762,-0.3754
27.6,1.8309,0.3788,0.37792,-0.3773
27.7,1.8333,0.38053,0.37965,-0.3792
27.8,1.8358,0.38217,0.3813,-0.3811
27.9,1.8382,0.38387,0.38301,-0.3831
28,1.8405,0.3855,0.38464,-0.385
28.1,1.8429,0.3871,0.38624,-0.3869
28.2,1.8452,0.38879,0.38794,-0.3888
28.3,1.8475,0.39037,0.38953,-0.3907
28.4,1.8497,0.39196,0.39112,-0.3927
28.5,1.852,0.39358,0.39275,-0.3946
28.6,1.8541,0.39512,0.39429,-0.3965
28.7,1.8563,0.39675,0.39593,-0.3985
28.8,1.8654,0.40757,0.40672,-0.4026
28.9,1.8685,0.41032,0.40947,-0.4048
29,1.8714,0.41286,0.41202,-0.407
29.1,1.8742,0.41521,0.41437,-0.4091
29.2,1.8768,0.41742,0.41658,-0.4112
29.3,1.8794,0.41961,0.41878,-0.4133
29.5,1.8847,0.424,0.42317,-0.4176
29.6,1.8871,0.426,0.42518,-0.4196
29.7,1.8894,0.42797,0.42715,-0.4217
29.8,1.8918,0.4299,0.42909,-0.4238
29.9,1.8941,0.43184,0.43104,-0.4258
30,1.8963,0.43375,0.43295,-0.4279

