airfoilName st15.dat
Re 	530000
M 	2.500000e-01
N 	4.500000e+00
VACC 	0 VACCflag 1
XTR 	1.00 	1.00 XTRflag 0
alpha,cl,cd,cdp,cm
-30,-1.4812,0.46713,0.46534,0.2989
-29.9,-1.478,0.46521,0.46341,0.2967
-29.8,-1.4748,0.46323,0.46143,0.2946
-29.7,-1.4716,0.46128,0.45948,0.2924
-29.6,-1.4683,0.45941,0.45761,0.2902
-29.5,-1.465,0.45749,0.45568,0.288
-29.4,-1.4616,0.4557,0.45389,0.2857
-29.3,-1.458,0.45402,0.45221,0.2833
-29.2,-1.4498,0.45664,0.45484,0.2783
-29.1,-1.4468,0.4538,0.452,0.2764
-29,-1.4437,0.45117,0.44937,0.2744
-28.9,-1.4407,0.44839,0.44659,0.2725
-28.8,-1.4376,0.44578,0.44396,0.2706
-28.7,-1.4345,0.44323,0.44142,0.2687
-28.6,-1.4314,0.4406,0.43878,0.2667
-28.5,-1.4282,0.43813,0.4363,0.2648
-28.4,-1.4251,0.43566,0.43383,0.2629
-28.3,-1.4219,0.43322,0.43139,0.261
-28.2,-1.4187,0.43084,0.429,0.2591
-28.1,-1.4155,0.4285,0.42666,0.2572
-28,-1.4123,0.42617,0.42433,0.2553
-27.9,-1.4091,0.42386,0.42202,0.2534
-27.8,-1.4058,0.42159,0.41974,0.2515
-27.7,-1.4026,0.41935,0.4175,0.2496
-27.6,-1.3993,0.41712,0.41527,0.2477
-27.5,-1.396,0.41493,0.41308,0.2458
-27.4,-1.3927,0.41275,0.41089,0.2439
-27.3,-1.3894,0.41059,0.40873,0.2421
-27.2,-1.386,0.40844,0.40657,0.2402
-27.1,-1.3827,0.40632,0.40445,0.2383
-27,-1.3793,0.4042,0.40233,0.2365
-26.9,-1.3759,0.40211,0.40023,0.2346
-26.8,-1.3725,0.40002,0.39814,0.2328
-26.7,-1.3691,0.39795,0.39608,0.2309
-26.6,-1.3657,0.39589,0.39401,0.2291
-26.5,-1.3622,0.39384,0.39195,0.2272
-26.4,-1.3588,0.39178,0.38988,0.2254
-26.3,-1.3553,0.38975,0.38785,0.2236
-26.2,-1.3518,0.38772,0.38583,0.2218
-26.1,-1.3483,0.3857,0.3838,0.22
-26,-1.3448,0.38369,0.38179,0.2181
-25.9,-1.3413,0.38169,0.37978,0.2163
-25.8,-1.3377,0.37969,0.37778,0.2145
-25.7,-1.3342,0.37772,0.3758,0.2127
-25.6,-1.3306,0.37617,0.37425,0.2109
-25.5,-1.327,0.37417,0.37225,0.2091
-25.4,-1.3235,0.37216,0.37024,0.2074
-25.3,-1.3198,0.37019,0.36827,0.2056
-25.2,-1.3162,0.36821,0.36629,0.2038
-25.1,-1.3126,0.36623,0.3643,0.2021
-25,-1.3089,0.36425,0.36233,0.2003
-24.9,-1.3053,0.36228,0.36035,0.1986
-24.8,-1.3016,0.3603,0.35837,0.1968
-24.7,-1.2979,0.35835,0.35641,0.1951
-24.6,-1.2943,0.35638,0.35444,0.1934
-24.5,-1.2906,0.35443,0.35249,0.1917
-24.4,-1.2868,0.35247,0.35053,0.1899
-24.3,-1.2831,0.35053,0.34859,0.1882
-24.2,-1.2794,0.34858,0.34662,0.1865
-24.1,-1.2756,0.34663,0.34467,0.1848
-24,-1.2719,0.34469,0.34273,0.1831
-23.9,-1.2681,0.34276,0.3408,0.1815
-23.8,-1.2643,0.34083,0.33886,0.1798
-23.7,-1.2605,0.33889,0.33693,0.1781
-23.6,-1.2567,0.33697,0.335,0.1764
-23.5,-1.2528,0.33505,0.33308,0.1747
-23.4,-1.249,0.33312,0.33115,0.1731
-23.3,-1.2451,0.33121,0.32924,0.1714
-23.2,-1.2412,0.32929,0.32731,0.1697
-23.1,-1.2373,0.32738,0.32541,0.1681
-23,-1.2333,0.32545,0.32347,0.1664
-22.9,-1.2293,0.32355,0.32157,0.1647
-22.8,-1.2254,0.32164,0.31966,0.1631
-22.7,-1.2214,0.31973,0.31774,0.1614
-22.6,-1.2173,0.31783,0.31584,0.1597
-22.5,-1.2132,0.31593,0.31393,0.158
-22.4,-1.2091,0.31403,0.31204,0.1564
-22.3,-1.205,0.31212,0.31012,0.1547
-22.2,-1.2008,0.3102,0.3082,0.1529
-22.1,-1.1965,0.30826,0.30626,0.1512
-22,-1.1922,0.30629,0.30429,0.1494
-21.7,-1.1729,0.2992,0.29721,0.1419
-21.6,-1.1693,0.29699,0.295,0.1405
-21.5,-1.1656,0.2948,0.2928,0.1391
-21.4,-1.162,0.29262,0.29061,0.1377
-21.3,-1.1583,0.29049,0.28848,0.1363
-21.2,-1.1546,0.28838,0.28637,0.1349
-21.1,-1.1508,0.2863,0.28429,0.1335
-21,-1.1471,0.28427,0.28226,0.132
-20.9,-1.1433,0.28226,0.28025,0.1306
-20.8,-1.1395,0.28028,0.27827,0.1292
-20.7,-1.1356,0.27833,0.27631,0.1278
-20.6,-1.1317,0.2764,0.27438,0.1264
-20.5,-1.1278,0.27449,0.27246,0.125
-20.4,-1.1239,0.2726,0.27057,0.1236
-20.3,-1.12,0.27073,0.2687,0.1222
-20.2,-1.116,0.26888,0.26685,0.1209
-20.1,-1.112,0.26704,0.26501,0.1195
-20,-1.108,0.26522,0.26319,0.1181
-19.9,-1.104,0.2634,0.26137,0.1167
-19.7,-1.0958,0.26018,0.25815,0.1138
-19.6,-1.0917,0.25839,0.25635,0.1125
-19.5,-1.0875,0.25661,0.25457,0.1111
-19.4,-1.0834,0.25483,0.25279,0.1097
-19.3,-1.0792,0.25305,0.25101,0.1083
-19.2,-1.075,0.25128,0.24924,0.107
-19.1,-1.0708,0.24952,0.24748,0.1056
-19,-1.0666,0.24777,0.24573,0.1042
-18.9,-1.0624,0.24601,0.24397,0.1029
-18.8,-1.0581,0.24427,0.24221,0.1015
-18.7,-1.0538,0.24254,0.24048,0.1002
-18.6,-1.0496,0.24079,0.23873,0.0988
-18.5,-1.0453,0.23906,0.237,0.0975
-18.4,-1.041,0.23733,0.23526,0.0961
-18.3,-1.0367,0.23559,0.23353,0.0948
-18.2,-1.0323,0.23387,0.23181,0.0935
-18.1,-1.028,0.23215,0.23008,0.0921
-18,-1.0236,0.23042,0.22836,0.0908
-17.9,-1.0193,0.22871,0.22664,0.0895
-17.8,-1.0149,0.22699,0.22492,0.0882
-17.7,-1.0105,0.22528,0.22321,0.0869
-17.6,-1.0061,0.22356,0.2215,0.0856
-17.5,-1.0017,0.22186,0.21979,0.0843
-17.4,-0.9973,0.22015,0.21808,0.083
-17.3,-0.9928,0.21844,0.21637,0.0817
-17.2,-0.9884,0.21673,0.21466,0.0804
-17.1,-0.9839,0.21502,0.21295,0.0791
-17,-0.9794,0.21332,0.21124,0.0778
-16.9,-0.9749,0.2116,0.20953,0.0765
-16.8,-0.9703,0.20988,0.20781,0.0752
-16.7,-0.9657,0.20816,0.20608,0.0739
-16.6,-0.9611,0.20643,0.20436,0.0726
-16.5,-0.9565,0.2047,0.20262,0.0713
-16.4,-0.9518,0.20295,0.20088,0.07
-16.3,-0.9471,0.2012,0.19912,0.0687
-16.2,-0.9424,0.19942,0.19733,0.0674
-16.1,-0.9377,0.19762,0.19553,0.0661
-16,-0.9329,0.19578,0.19369,0.0647
-15.9,-0.9281,0.19389,0.1918,0.0634
-15.8,-0.9232,0.19195,0.18985,0.0621
-15.7,-0.9181,0.1898,0.18771,0.0607
-15.4,-0.8965,0.18242,0.18034,0.0549
-15.3,-0.8925,0.18068,0.1786,0.0538
-15.2,-0.8885,0.17896,0.17687,0.0528
-15.1,-0.8844,0.17725,0.17516,0.0518
-15,-0.8804,0.17553,0.17345,0.0507
-14.9,-0.8764,0.17382,0.17174,0.0497
-14.8,-0.8722,0.17215,0.17006,0.0487
-14.7,-0.8685,0.17053,0.16844,0.0477
-14.6,-0.8642,0.1689,0.16682,0.0466
-14.5,-0.8599,0.1673,0.16521,0.0455
-14.4,-0.8555,0.16571,0.16362,0.0445
-14.3,-0.8511,0.16414,0.16205,0.0434
-14.2,-0.8466,0.16258,0.1605,0.0423
-14.1,-0.8421,0.16105,0.15897,0.0413
-14,-0.8376,0.15953,0.15745,0.0402
-13.9,-0.833,0.15804,0.15596,0.0391
-13.8,-0.8284,0.15656,0.15447,0.0381
-13.7,-0.8237,0.1551,0.15302,0.037
-13.6,-0.819,0.15365,0.15157,0.0359
-13.5,-0.8142,0.15221,0.15013,0.0348
-13.4,-0.8093,0.15078,0.1487,0.0337
-13.3,-0.8045,0.14937,0.14728,0.0327
-13.2,-0.7995,0.14796,0.14587,0.0316
-13.1,-0.7946,0.14656,0.14447,0.0305
-13,-0.7896,0.14518,0.14309,0.0294
-12.9,-0.7846,0.14378,0.1417,0.0283
-12.8,-0.7795,0.14242,0.14034,0.0272
-12.7,-0.7744,0.14106,0.13898,0.0261
-12.6,-0.7693,0.1397,0.13762,0.0251
-12.5,-0.7642,0.13836,0.13627,0.024
-12.4,-0.759,0.13701,0.13493,0.0229
-12.3,-0.7537,0.13567,0.13359,0.0218
-12.2,-0.7485,0.13433,0.13225,0.0207
-12.1,-0.7431,0.133,0.13092,0.0196
-12,-0.7378,0.13167,0.12959,0.0185
-11.9,-0.7325,0.13035,0.12827,0.0174
-11.8,-0.7271,0.12903,0.12696,0.0163
-11.7,-0.7217,0.12772,0.12565,0.0152
-11.6,-0.7163,0.1264,0.12433,0.0141
-11.5,-0.7108,0.1251,0.12303,0.013
-11.4,-0.7054,0.12379,0.12172,0.0119
-11.3,-0.6999,0.12248,0.12041,0.0109
-11.2,-0.6943,0.12118,0.11912,0.0098
-11.1,-0.6888,0.11988,0.11782,0.0087
-11,-0.6833,0.11858,0.11653,0.0076
-10.9,-0.6778,0.11729,0.11524,0.0065
-10.8,-0.6722,0.116,0.11395,0.0055
-10.7,-0.6667,0.11472,0.11267,0.0044
-10.6,-0.6612,0.11343,0.11139,0.0033
-10.5,-0.6557,0.11215,0.1101,0.0023
-10.4,-0.6502,0.11088,0.10883,0.0013
-10.3,-0.6448,0.10962,0.10757,0.0002
-10.2,-0.6395,0.10836,0.10632,-0.0008
-10.1,-0.6342,0.10711,0.10507,-0.0017
-10,-0.6291,0.10587,0.10384,-0.0027
-9.9,-0.6242,0.10465,0.10262,-0.0035
-9.8,-0.6196,0.10346,0.10143,-0.0043
-9.7,-0.6153,0.1023,0.10028,-0.005
-9.6,-0.6117,0.10119,0.09918,-0.0056
-9.5,-0.6092,0.10018,0.09819,-0.0059
-9.4,-0.608,0.09928,0.0973,-0.0058
-9.3,-0.606,0.09831,0.09634,-0.006
-9.2,-0.5964,0.0966,0.09462,-0.0082
-9.1,-0.585,0.09362,0.09164,-0.0114
-9,-0.5743,0.09169,0.0897,-0.014
-8.9,-0.5633,0.08971,0.08771,-0.0166
-8.7,-0.537,0.08541,0.0834,-0.0231
-8.6,-0.5252,0.08363,0.08163,-0.026
-8.5,-0.514,0.082,0.07999,-0.0286
-8.4,-0.5031,0.08044,0.07842,-0.0311
-8.3,-0.4928,0.079,0.07697,-0.0334
-6.1,-0.1248,0.0174,0.01331,-0.1253
-6,-0.1119,0.01626,0.01197,-0.126
-5.9,-0.0992,0.01548,0.01104,-0.1265
-5.8,-0.0865,0.01483,0.01025,-0.1268
-5.7,-0.0742,0.01429,0.00957,-0.127
-5.6,-0.0619,0.01381,0.00897,-0.1272
-5.5,-0.0497,0.01338,0.00843,-0.1273
-5.4,-0.0373,0.01299,0.00794,-0.1274
-5.3,-0.025,0.01266,0.00749,-0.1275
-5.2,-0.0128,0.01237,0.0071,-0.1275
-5.1,-0.0005,0.01206,0.00673,-0.1276
-5,0.0117,0.01179,0.00641,-0.1277
-4.9,0.0234,0.0118,0.00645,-0.1276
-4.8,0.0357,0.01159,0.00619,-0.1276
-4.7,0.0479,0.01138,0.00592,-0.1276
-4.6,0.0599,0.01119,0.00566,-0.1275
-4.5,0.0722,0.011,0.00541,-0.1276
-4.4,0.0844,0.01082,0.00517,-0.1276
-4.3,0.0965,0.01067,0.00495,-0.1275
-4.2,0.1087,0.01049,0.00474,-0.1275
-4.1,0.1208,0.01032,0.00453,-0.1275
-4,0.1328,0.01019,0.00437,-0.1275
-3.9,0.145,0.01008,0.00423,-0.1275
-3.8,0.1571,0.00997,0.0041,-0.1275
-3.7,0.1693,0.00987,0.00396,-0.1274
-3.6,0.1812,0.00977,0.00381,-0.1273
-3.5,0.1933,0.00968,0.00368,-0.1273
-3.4,0.2054,0.0096,0.00361,-0.1273
-3.3,0.2175,0.0095,0.0035,-0.1273
-3.2,0.2294,0.00942,0.00339,-0.1273
-3.1,0.2415,0.00935,0.00329,-0.1272
-3,0.2536,0.00928,0.00318,-0.1272
-2.9,0.2657,0.00921,0.00308,-0.1272
-2.8,0.2777,0.00914,0.00298,-0.1271
-2.7,0.2897,0.00906,0.00288,-0.1271
-2.6,0.3017,0.00901,0.00285,-0.1271
-2.5,0.3133,0.00897,0.00276,-0.127
-2.4,0.325,0.00893,0.00268,-0.1268
-2.3,0.337,0.00889,0.0026,-0.1268
-2.2,0.3487,0.00885,0.00253,-0.1267
-2.1,0.3605,0.0088,0.00246,-0.1266
-2,0.3725,0.00876,0.0024,-0.1266
-1.9,0.3844,0.00874,0.00237,-0.1266
-1.8,0.3964,0.00871,0.00232,-0.1265
-1.7,0.4079,0.00871,0.00226,-0.1264
-1.6,0.4199,0.00866,0.00221,-0.1264
-1.5,0.4319,0.00863,0.00217,-0.1264
-1.4,0.4438,0.00861,0.00214,-0.1263
-1.3,0.4555,0.00861,0.0021,-0.1262
-1.2,0.4668,0.00864,0.00206,-0.1261
-1.1,0.4787,0.00861,0.00204,-0.126
-1,0.4905,0.00861,0.00201,-0.126
-0.9,0.5024,0.0086,0.00199,-0.126
-0.8,0.5142,0.0086,0.00197,-0.1259
-0.7,0.5258,0.00862,0.00194,-0.1258
-0.6,0.5371,0.00865,0.00193,-0.1257
-0.5,0.5489,0.00866,0.00193,-0.1257
-0.4,0.5605,0.00868,0.00192,-0.1256
-0.3,0.5723,0.00869,0.00191,-0.1255
-0.2,0.5837,0.00873,0.00191,-0.1254
-0.1,0.5949,0.00878,0.00191,-0.1253
0,0.6057,0.00888,0.00191,-0.1251
0.1,0.6172,0.00892,0.00192,-0.125
0.2,0.6286,0.00897,0.00194,-0.1249
0.3,0.6397,0.00905,0.00195,-0.1247
0.4,0.6512,0.00909,0.00197,-0.1247
0.5,0.6626,0.00915,0.00198,-0.1246
0.7,0.684,0.0094,0.00206,-0.1241
0.8,0.6953,0.00947,0.0021,-0.1241
0.9,0.7066,0.00953,0.00213,-0.124
1,0.7178,0.00961,0.00217,-0.1239
1.1,0.729,0.00968,0.0022,-0.1238
1.2,0.7402,0.00976,0.00224,-0.1236
1.3,0.7514,0.00985,0.00228,-0.1235
1.4,0.7624,0.00994,0.00233,-0.1234
1.5,0.7725,0.01014,0.00241,-0.1232
1.6,0.7834,0.01025,0.00247,-0.123
1.7,0.7943,0.01037,0.00253,-0.1229
1.8,0.805,0.01051,0.00259,-0.1227
1.9,0.8157,0.01066,0.00267,-0.1225
2,0.8262,0.01082,0.00275,-0.1224
2.1,0.8367,0.01099,0.00284,-0.1222
2.2,0.846,0.0113,0.00298,-0.1219
2.3,0.8567,0.01145,0.00307,-0.1217
2.4,0.8675,0.01158,0.00315,-0.1216
2.5,0.8786,0.01168,0.00321,-0.1215
2.6,0.8896,0.01178,0.00329,-0.1214
2.7,0.9009,0.01185,0.00336,-0.1213
2.8,0.9121,0.01191,0.00343,-0.1212
2.9,0.9233,0.01196,0.00352,-0.1212
3.1,0.9379,0.01075,0.00373,-0.1196
3.2,0.9492,0.01084,0.0038,-0.1195
3.3,0.9605,0.01093,0.00386,-0.1194
3.4,0.9717,0.01103,0.00393,-0.1193
3.5,0.9828,0.01114,0.00402,-0.1192
3.6,0.9942,0.01122,0.00408,-0.1191
3.7,1.0054,0.01131,0.00415,-0.119
3.8,1.0166,0.01141,0.00422,-0.1188
3.9,1.0275,0.01154,0.00432,-0.1187
4,1.0388,0.01163,0.00439,-0.1186
4.1,1.05,0.01172,0.00448,-0.1184
4.2,1.0611,0.01182,0.00456,-0.1183
4.3,1.0722,0.01193,0.00464,-0.1182
4.4,1.0833,0.01203,0.00473,-0.118
4.5,1.0945,0.01212,0.00481,-0.1179
4.6,1.1055,0.01224,0.00489,-0.1177
4.7,1.1164,0.01235,0.00498,-0.1176
4.8,1.1275,0.01245,0.00508,-0.1174
4.9,1.1386,0.01255,0.00517,-0.1173
5,1.1497,0.01264,0.00525,-0.1171
5.1,1.1607,0.01275,0.00535,-0.117
5.2,1.1716,0.01286,0.00544,-0.1168
5.3,1.1824,0.01299,0.00557,-0.1166
5.4,1.1935,0.01308,0.00567,-0.1164
5.5,1.2043,0.0132,0.00576,-0.1162
5.6,1.2152,0.01331,0.00587,-0.1161
5.7,1.226,0.01344,0.00597,-0.1159
5.8,1.2367,0.01356,0.00609,-0.1156
5.9,1.2477,0.01367,0.0062,-0.1154
6,1.2585,0.01377,0.00631,-0.1152
6.1,1.2693,0.01389,0.00642,-0.115
6.2,1.2801,0.01401,0.00654,-0.1148
6.3,1.2904,0.01418,0.00667,-0.1145
6.4,1.3012,0.01429,0.0068,-0.1143
6.5,1.3119,0.01441,0.00692,-0.1141
6.6,1.3226,0.01453,0.00704,-0.1138
6.7,1.3331,0.01466,0.00717,-0.1136
6.8,1.3436,0.0148,0.00731,-0.1133
6.9,1.3539,0.01496,0.00746,-0.113
7,1.3645,0.01508,0.00759,-0.1128
7.1,1.3751,0.01521,0.00772,-0.1125
7.2,1.3854,0.01535,0.00786,-0.1122
7.3,1.3957,0.0155,0.008,-0.1119
7.4,1.4058,0.01567,0.00815,-0.1116
7.5,1.4161,0.01582,0.00833,-0.1113
7.6,1.4265,0.01595,0.00848,-0.111
7.7,1.4368,0.01609,0.00863,-0.1106
7.8,1.447,0.01624,0.00878,-0.1103
7.9,1.457,0.0164,0.00895,-0.1099
8,1.467,0.01657,0.00912,-0.1096
8.1,1.4767,0.01676,0.0093,-0.1092
8.2,1.4868,0.01691,0.00946,-0.1088
8.3,1.4967,0.01707,0.00963,-0.1084
8.4,1.5066,0.01724,0.00981,-0.108
8.5,1.5163,0.01741,0.00999,-0.1076
8.6,1.5259,0.0176,0.0102,-0.1072
8.7,1.5353,0.01781,0.0104,-0.1067
8.8,1.545,0.01798,0.0106,-0.1063
8.9,1.5547,0.01815,0.01079,-0.1058
9,1.5642,0.01832,0.01099,-0.1054
9.1,1.5734,0.01853,0.01118,-0.1049
9.2,1.5826,0.01873,0.01139,-0.1044
9.3,1.5916,0.01895,0.01162,-0.1039
9.4,1.6005,0.01917,0.01186,-0.1033
9.5,1.6097,0.01936,0.01207,-0.1028
9.6,1.6187,0.01955,0.01229,-0.1022
9.7,1.6276,0.01975,0.01252,-0.1016
9.8,1.6363,0.01996,0.01275,-0.101
9.9,1.6447,0.02018,0.013,-0.1004
10,1.653,0.02042,0.01325,-0.0997
10.1,1.661,0.02067,0.01351,-0.099
10.2,1.6686,0.02094,0.01379,-0.0983
10.3,1.6767,0.02116,0.01406,-0.0976
10.4,1.6848,0.02137,0.0143,-0.0969
10.5,1.6925,0.02161,0.01456,-0.0961
10.6,1.6999,0.02185,0.01483,-0.0953
10.7,1.7071,0.0221,0.01511,-0.0945
10.8,1.7135,0.02236,0.0154,-0.0935
10.9,1.7193,0.02264,0.0157,-0.0924
11,1.7249,0.02294,0.01602,-0.0913
11.1,1.7302,0.02326,0.01637,-0.0902
11.2,1.7364,0.02351,0.01665,-0.0893
11.3,1.7424,0.02379,0.01695,-0.0883
11.4,1.7481,0.02409,0.01729,-0.0873
11.5,1.7536,0.02441,0.01765,-0.0862
11.6,1.759,0.02474,0.01801,-0.0852
11.7,1.764,0.02508,0.01839,-0.0842
11.8,1.7689,0.02545,0.01879,-0.0831
11.9,1.7734,0.02584,0.01921,-0.082
12,1.7785,0.0262,0.0196,-0.081
12.1,1.7835,0.02655,0.02001,-0.0801
12.2,1.7884,0.02692,0.02043,-0.0791
12.3,1.793,0.02731,0.02086,-0.0781
12.4,1.7974,0.02771,0.02131,-0.0771
12.5,1.8016,0.02814,0.02177,-0.0761
12.6,1.8057,0.02857,0.02225,-0.0751
12.7,1.8095,0.02904,0.02275,-0.0741
12.8,1.813,0.02952,0.02328,-0.0732
12.9,1.8162,0.03004,0.02383,-0.0722
13,1.819,0.03058,0.02441,-0.0712
13.1,1.8226,0.03107,0.02496,-0.0703
13.2,1.8259,0.03159,0.02553,-0.0695
13.3,1.8291,0.03213,0.02612,-0.0686
13.4,1.832,0.03269,0.02675,-0.0678
13.5,1.8347,0.03328,0.02739,-0.067
13.6,1.8372,0.03389,0.02806,-0.0662
13.7,1.8394,0.03454,0.02875,-0.0655
13.8,1.8413,0.03522,0.02948,-0.0648
13.9,1.8428,0.03594,0.03025,-0.0641
14,1.8438,0.03672,0.03107,-0.0634
14.1,1.8463,0.03739,0.03179,-0.0629
14.2,1.848,0.03814,0.0326,-0.0624
14.3,1.8494,0.03893,0.03345,-0.062
14.4,1.8506,0.03976,0.03434,-0.0616
14.5,1.8516,0.04063,0.03526,-0.0613
14.6,1.8523,0.04156,0.03623,-0.061
14.7,1.8524,0.04254,0.03727,-0.0609
14.8,1.8527,0.04353,0.03834,-0.0608
14.9,1.8533,0.04452,0.03939,-0.0608
15,1.8536,0.04556,0.0405,-0.0609
15.1,1.8538,0.04664,0.04165,-0.0611
15.2,1.8538,0.04778,0.04285,-0.0614
15.3,1.8535,0.04897,0.04411,-0.0618
15.4,1.8531,0.05022,0.04543,-0.0624
15.5,1.8523,0.05156,0.04683,-0.0631
15.6,1.8512,0.05297,0.04831,-0.064
15.7,1.8499,0.05447,0.0499,-0.0651
15.8,1.8489,0.05598,0.05149,-0.0663
15.9,1.8477,0.05758,0.05316,-0.0677
16,1.8463,0.05926,0.05494,-0.0693
16.1,1.8446,0.06107,0.05683,-0.0711
16.2,1.8427,0.06299,0.05884,-0.0732
16.3,1.8405,0.06508,0.06102,-0.0755
16.4,1.838,0.06734,0.06338,-0.0781
16.5,1.835,0.0698,0.06593,-0.081
16.6,1.8314,0.07254,0.06879,-0.0843
16.7,1.827,0.07558,0.07193,-0.088
16.8,1.8218,0.07899,0.07546,-0.0922
16.9,1.8151,0.08292,0.07952,-0.0969
17,1.807,0.08745,0.08418,-0.1022
17.1,1.7966,0.0927,0.08955,-0.1081
17.2,1.7846,0.09856,0.09556,-0.1144
17.3,1.7714,0.10448,0.10161,-0.1205
17.4,1.7584,0.11009,0.10735,-0.1263
17.5,1.7465,0.11531,0.11266,-0.1318
17.6,1.736,0.12013,0.11757,-0.1368
17.8,1.7185,0.12876,0.12635,-0.1461
17.9,1.7106,0.13283,0.13049,-0.1505
18,1.7045,0.1364,0.13411,-0.1544
18.1,1.6975,0.1402,0.13798,-0.1586
18.2,1.6924,0.14347,0.14129,-0.1624
18.3,1.6865,0.14699,0.14487,-0.1663
18.4,1.6821,0.1501,0.14802,-0.1699
18.5,1.6778,0.15324,0.15121,-0.1734
18.6,1.6736,0.15647,0.15449,-0.177
18.7,1.6706,0.15943,0.15749,-0.1803
18.8,1.6674,0.16257,0.16067,-0.1836
18.9,1.6645,0.16575,0.16389,-0.1869
19,1.6625,0.16871,0.16688,-0.1899
19.1,1.6605,0.17177,0.16998,-0.193
19.2,1.6579,0.17521,0.17346,-0.1963
19.3,1.6565,0.17827,0.17655,-0.1993
19.4,1.6553,0.18129,0.1796,-0.2022
19.5,1.6532,0.18485,0.18319,-0.2054
19.6,1.652,0.18802,0.18639,-0.2084
19.7,1.6516,0.19097,0.18936,-0.2111
19.8,1.6513,0.1939,0.19231,-0.2138
19.9,1.6502,0.19727,0.1957,-0.2168
20,1.6501,0.20024,0.19869,-0.2195
20.1,1.6501,0.20316,0.20165,-0.222
20.2,1.6502,0.20612,0.20463,-0.2246
20.3,1.6493,0.2097,0.20824,-0.2276
20.4,1.649,0.21308,0.21165,-0.2305
20.5,1.6491,0.21631,0.21491,-0.2332
20.6,1.6491,0.21965,0.21827,-0.236
20.7,1.6482,0.22381,0.22246,-0.2393
20.8,1.6487,0.22717,0.22584,-0.2421
20.9,1.65,0.22995,0.22863,-0.2444
21,1.6519,0.23236,0.23104,-0.2466
21.1,1.6541,0.23456,0.23325,-0.2486
21.2,1.6565,0.23658,0.23527,-0.2504
21.3,1.6594,0.23823,0.23692,-0.2521
21.4,1.6621,0.24002,0.23872,-0.2538
21.5,1.665,0.24148,0.24018,-0.2554
21.6,1.6682,0.24277,0.24147,-0.2568
21.7,1.6714,0.244,0.2427,-0.2583
21.8,1.6693,0.2505,0.24923,-0.2629
21.9,1.6685,0.25677,0.25551,-0.2671
22,1.6703,0.26003,0.25877,-0.2696
22.1,1.6728,0.26262,0.26137,-0.2718
22.2,1.6753,0.26495,0.26371,-0.2737
22.3,1.6781,0.26703,0.26579,-0.2756
22.4,1.6809,0.26898,0.26774,-0.2774
22.5,1.6838,0.27082,0.26958,-0.2791
22.8,1.693,0.27513,0.2739,-0.2838
22.9,1.696,0.27665,0.27543,-0.2855
23,1.6989,0.27814,0.27693,-0.2871
23.1,1.7018,0.27964,0.27844,-0.2887
23.2,1.7047,0.28112,0.27992,-0.2903
23.3,1.7076,0.28238,0.28119,-0.2919
23.4,1.7104,0.28371,0.28252,-0.2935
23.5,1.7132,0.28481,0.28363,-0.295

