airfoilName st15.dat
Re 	810000
M 	2.500000e-01
N 	4.500000e+00
VACC 	0 VACCflag 1
XTR 	1.00 	1.00 XTRflag 0
alpha,cl,cd,cdp,cm
-30,-1.4824,0.46224,0.46088,0.3001
-29.9,-1.4794,0.46024,0.45888,0.2981
-29.8,-1.4763,0.45818,0.45682,0.296
-29.7,-1.4733,0.45615,0.45478,0.2939
-29.6,-1.4702,0.45413,0.45276,0.2918
-29.5,-1.4672,0.45208,0.45071,0.2898
-29.4,-1.4641,0.45008,0.4487,0.2877
-29.3,-1.4609,0.44807,0.44669,0.2857
-29.2,-1.4578,0.44604,0.44466,0.2836
-29.1,-1.4546,0.44405,0.44267,0.2816
-29,-1.4515,0.44202,0.44063,0.2795
-28.9,-1.4483,0.44003,0.43864,0.2775
-28.8,-1.445,0.43802,0.43662,0.2754
-28.7,-1.4418,0.43602,0.43462,0.2734
-28.6,-1.4386,0.43404,0.43264,0.2714
-28.5,-1.4353,0.43202,0.43062,0.2693
-28.4,-1.432,0.43005,0.42865,0.2673
-28.3,-1.4287,0.42807,0.42666,0.2653
-28.2,-1.4253,0.42608,0.42467,0.2633
-28.1,-1.422,0.42409,0.42268,0.2612
-28,-1.4186,0.42214,0.42073,0.2592
-27.9,-1.4152,0.42017,0.41875,0.2572
-27.8,-1.4118,0.41821,0.41679,0.2552
-27.7,-1.4083,0.41623,0.41481,0.2531
-27.6,-1.4048,0.41431,0.41289,0.2511
-27.5,-1.4013,0.41235,0.41092,0.249
-27.4,-1.3977,0.41038,0.40895,0.247
-27.3,-1.3939,0.40843,0.40701,0.2448
-27.2,-1.3902,0.40639,0.40495,0.2427
-26.9,-1.375,0.4028,0.40138,0.2345
-26.8,-1.3717,0.40022,0.39879,0.2327
-26.7,-1.3684,0.39763,0.39621,0.2309
-26.6,-1.365,0.39513,0.3937,0.2291
-26.4,-1.3583,0.39016,0.38872,0.2255
-26.3,-1.3549,0.38771,0.38627,0.2238
-26.2,-1.3515,0.38532,0.38387,0.222
-26.1,-1.3481,0.38297,0.38152,0.2202
-26,-1.3446,0.38068,0.37922,0.2184
-25.9,-1.3412,0.3784,0.37695,0.2167
-25.8,-1.3377,0.37619,0.37474,0.2149
-25.7,-1.3343,0.37398,0.37252,0.2132
-25.6,-1.3308,0.37182,0.37035,0.2114
-25.5,-1.3273,0.3697,0.36824,0.2097
-25.4,-1.3238,0.36761,0.36614,0.2079
-25.2,-1.3168,0.36372,0.36225,0.2045
-25.1,-1.3133,0.3617,0.36023,0.2027
-25,-1.3097,0.3597,0.35823,0.201
-24.9,-1.3061,0.35772,0.35624,0.1993
-24.8,-1.3025,0.35575,0.35427,0.1976
-24.7,-1.2989,0.35381,0.35233,0.1959
-24.6,-1.2953,0.35186,0.35037,0.1942
-24.5,-1.2917,0.34995,0.34847,0.1925
-24.4,-1.2881,0.34803,0.34654,0.1908
-24.3,-1.2844,0.34613,0.34465,0.1891
-24.2,-1.2808,0.34423,0.34274,0.1874
-24.1,-1.2771,0.34234,0.34084,0.1857
-24,-1.2734,0.34045,0.33895,0.1841
-23.9,-1.2697,0.33859,0.33709,0.1824
-23.8,-1.266,0.33673,0.33523,0.1807
-23.7,-1.2623,0.33487,0.33336,0.1791
-23.6,-1.2585,0.33302,0.33151,0.1774
-23.5,-1.2548,0.33117,0.32966,0.1758
-23.4,-1.251,0.32932,0.32781,0.1742
-23.3,-1.2472,0.32749,0.32598,0.1725
-23.2,-1.2434,0.32563,0.32412,0.1709
-23.1,-1.2396,0.3238,0.32229,0.1693
-23,-1.2358,0.32194,0.32042,0.1676
-22.9,-1.2319,0.32012,0.31861,0.166
-22.8,-1.228,0.31828,0.31676,0.1644
-22.7,-1.2242,0.31644,0.31491,0.1628
-22.6,-1.2203,0.31461,0.31308,0.1612
-22.5,-1.2164,0.31278,0.31126,0.1596
-22.4,-1.2124,0.31096,0.30943,0.158
-22.3,-1.2085,0.30912,0.3076,0.1564
-22.2,-1.2045,0.30729,0.30576,0.1548
-22.1,-1.2006,0.30546,0.30393,0.1532
-22,-1.1966,0.30364,0.30211,0.1516
-21.9,-1.1926,0.3018,0.30027,0.1501
-21.8,-1.1886,0.29999,0.29845,0.1485
-21.7,-1.1846,0.29815,0.29661,0.1469
-21.6,-1.1805,0.29631,0.29477,0.1454
-21.5,-1.1765,0.29448,0.29293,0.1438
-21.4,-1.1724,0.29264,0.29109,0.1422
-21.3,-1.1683,0.2908,0.28925,0.1407
-21.2,-1.1642,0.28896,0.28741,0.1391
-21.1,-1.1601,0.28711,0.28555,0.1376
-21,-1.156,0.28526,0.2837,0.136
-20.9,-1.1518,0.2834,0.28184,0.1344
-20.8,-1.1476,0.28152,0.27996,0.1329
-20.7,-1.1434,0.27964,0.27808,0.1313
-20.6,-1.1391,0.27774,0.27618,0.1297
-20.5,-1.1348,0.27582,0.27425,0.1281
-20.4,-1.1305,0.27385,0.27229,0.1265
-20.3,-1.1261,0.27182,0.27025,0.1249
-19.8,-1.099,0.26046,0.2589,0.1153
-19.7,-1.0954,0.25827,0.25671,0.1141
-19.6,-1.0917,0.25615,0.25459,0.1128
-19.5,-1.088,0.25404,0.25248,0.1115
-19.4,-1.0843,0.25198,0.25041,0.1102
-19.3,-1.0805,0.24996,0.24839,0.109
-19.2,-1.0769,0.24804,0.24647,0.1077
-19.1,-1.073,0.24614,0.24457,0.1064
-19,-1.0691,0.24429,0.24271,0.1051
-18.9,-1.0651,0.24246,0.24089,0.1038
-18.8,-1.0611,0.24066,0.23909,0.1025
-18.7,-1.057,0.2389,0.23731,0.1012
-18.6,-1.0529,0.23714,0.23556,0.0999
-18.5,-1.0488,0.23542,0.23383,0.0986
-18.4,-1.0447,0.2337,0.23212,0.0973
-18.3,-1.0405,0.23201,0.23042,0.096
-18.2,-1.0363,0.23033,0.22874,0.0947
-18.1,-1.0321,0.22866,0.22707,0.0934
-18,-1.0279,0.22699,0.2254,0.0921
-17.9,-1.0236,0.22534,0.22375,0.0908
-17.8,-1.0194,0.22369,0.2221,0.0895
-17.7,-1.0151,0.22205,0.22046,0.0882
-17.6,-1.0107,0.22042,0.21882,0.0869
-17.5,-1.0064,0.2188,0.21721,0.0857
-17.4,-1.0021,0.21718,0.21559,0.0844
-17.3,-0.9977,0.21557,0.21397,0.0831
-17.2,-0.9933,0.21394,0.21235,0.0818
-17.1,-0.9889,0.21234,0.21074,0.0806
-17,-0.9845,0.21072,0.20912,0.0793
-16.9,-0.98,0.20911,0.20751,0.078
-16.8,-0.9755,0.2075,0.2059,0.0768
-16.7,-0.971,0.2059,0.2043,0.0755
-16.6,-0.9664,0.20429,0.20269,0.0742
-16.5,-0.9619,0.20267,0.20107,0.073
-16.4,-0.9573,0.20107,0.19947,0.0717
-16.3,-0.9527,0.19945,0.19785,0.0704
-16.2,-0.9481,0.19784,0.19624,0.0692
-16.1,-0.9435,0.19622,0.19461,0.0679
-16,-0.9389,0.19461,0.193,0.0667
-15.9,-0.9342,0.19299,0.19138,0.0654
-15.8,-0.9295,0.19138,0.18976,0.0642
-15.7,-0.9249,0.18976,0.18814,0.0629
-15.6,-0.9202,0.18813,0.18652,0.0617
-15.5,-0.9155,0.18651,0.18489,0.0605
-15.4,-0.9107,0.18488,0.18327,0.0592
-15.3,-0.906,0.18325,0.18163,0.058
-15.2,-0.9012,0.18161,0.17999,0.0567
-15.1,-0.8964,0.17997,0.17835,0.0555
-15,-0.8916,0.17831,0.1767,0.0543
-14.9,-0.8868,0.17663,0.17501,0.053
-14.8,-0.8819,0.17494,0.17332,0.0518
-14.7,-0.877,0.17323,0.17161,0.0505
-14.6,-0.8721,0.17149,0.16987,0.0493
-14.5,-0.8671,0.16971,0.16809,0.048
-14.4,-0.8621,0.16787,0.16625,0.0468
-14.3,-0.8571,0.16591,0.16428,0.0455
-14.2,-0.852,0.16386,0.16223,0.0442
-14.1,-0.8465,0.16158,0.15996,0.0428
-14,-0.8405,0.15945,0.15783,0.0413
-13.9,-0.8293,0.1572,0.15559,0.0386
-13.8,-0.825,0.15557,0.15397,0.0376
-13.7,-0.8209,0.15392,0.15231,0.0366
-13.6,-0.8167,0.15226,0.15065,0.0356
-13.5,-0.8124,0.15063,0.14902,0.0346
-13.4,-0.8082,0.14898,0.14737,0.0336
-13.3,-0.8041,0.14733,0.14573,0.0326
-13.2,-0.7998,0.14571,0.1441,0.0316
-13.1,-0.7955,0.14411,0.1425,0.0306
-13,-0.7912,0.14253,0.14092,0.0296
-12.9,-0.7866,0.14102,0.13941,0.0286
-12.8,-0.7821,0.13952,0.13791,0.0276
-12.7,-0.7775,0.13807,0.13646,0.0265
-12.6,-0.7726,0.13665,0.13504,0.0255
-12.5,-0.7678,0.13527,0.13365,0.0244
-12.4,-0.7628,0.1339,0.13229,0.0233
-12.3,-0.7578,0.13256,0.13094,0.0222
-12.2,-0.7526,0.13123,0.12962,0.0212
-12.1,-0.7474,0.12992,0.12831,0.0201
-12,-0.7422,0.12863,0.12702,0.019
-11.9,-0.7369,0.12734,0.12574,0.0179
-11.8,-0.7315,0.12607,0.12446,0.0168
-11.7,-0.7261,0.12482,0.12321,0.0157
-11.6,-0.7207,0.12355,0.12194,0.0146
-11.5,-0.7153,0.12231,0.12071,0.0135
-11.4,-0.7097,0.12107,0.11947,0.0124
-11.3,-0.7042,0.11983,0.11823,0.0113
-11.2,-0.6986,0.11861,0.11701,0.0102
-11.1,-0.693,0.11739,0.11579,0.0091
-11,-0.6874,0.11617,0.11458,0.008
-10.9,-0.6818,0.11495,0.11336,0.0069
-10.8,-0.6761,0.11375,0.11216,0.0059
-10.7,-0.6704,0.11255,0.11096,0.0048
-10.6,-0.6648,0.11134,0.10975,0.0037
-10.5,-0.6592,0.11015,0.10856,0.0026
-10.4,-0.6536,0.10897,0.10738,0.0016
-10.3,-0.648,0.10779,0.10621,0.0005
-10.2,-0.6425,0.10663,0.10505,-0.0005
-10.1,-0.6371,0.10548,0.1039,-0.0015
-10,-0.6318,0.10434,0.10277,-0.0024
-9.9,-0.6268,0.10323,0.10166,-0.0033
-9.8,-0.6221,0.10216,0.10059,-0.0041
-9.7,-0.6179,0.10113,0.09957,-0.0047
-9.6,-0.6148,0.1002,0.09865,-0.0051
-9.5,-0.6072,0.09889,0.09733,-0.0067
-9.4,-0.5979,0.09744,0.09589,-0.0087
-9.3,-0.5884,0.09598,0.09442,-0.0109
-9.2,-0.5777,0.09443,0.09287,-0.0133
-9.1,-0.5689,0.09303,0.09147,-0.0152
-9,-0.5596,0.09162,0.09004,-0.0172
-8.9,-0.5496,0.09014,0.08856,-0.0195
-8.8,-0.5386,0.0886,0.08702,-0.022
-8.7,-0.5288,0.08716,0.08557,-0.0241
-6.5,-0.1748,0.01526,0.01138,-0.1253
-6.4,-0.1623,0.01446,0.01042,-0.1257
-6.3,-0.15,0.01391,0.00974,-0.126
-6.2,-0.1379,0.01348,0.0092,-0.1261
-6.1,-0.1257,0.01298,0.0086,-0.1262
-6,-0.1133,0.01243,0.00793,-0.1265
-5.9,-0.1009,0.01204,0.00746,-0.1266
-5.8,-0.0885,0.01172,0.00707,-0.1267
-5.7,-0.0765,0.01147,0.00675,-0.1267
-5.6,-0.0643,0.01123,0.00645,-0.1267
-5.5,-0.052,0.01102,0.00618,-0.1267
-5.4,-0.0398,0.01081,0.00592,-0.1267
-5.3,-0.0275,0.01062,0.00568,-0.1268
-5.2,-0.0152,0.01044,0.00543,-0.1268
-5.1,-0.0032,0.01027,0.00521,-0.1267
-5,0.009,0.01011,0.00499,-0.1267
-4.9,0.0214,0.00995,0.00479,-0.1267
-4.8,0.0336,0.00981,0.00459,-0.1267
-4.7,0.0458,0.00968,0.00442,-0.1267
-4.6,0.058,0.00955,0.00425,-0.1266
-4.5,0.0701,0.0094,0.00406,-0.1266
-4.4,0.0824,0.00928,0.00391,-0.1266
-4.3,0.0946,0.00917,0.00378,-0.1266
-4.2,0.1067,0.00913,0.00374,-0.1266
-4.1,0.1186,0.00905,0.0036,-0.1265
-4,0.1309,0.00896,0.00347,-0.1265
-3.9,0.1431,0.00888,0.00336,-0.1265
-3.8,0.1554,0.00877,0.00323,-0.1265
-3.7,0.1674,0.00868,0.00311,-0.1265
-3.6,0.1795,0.0086,0.00301,-0.1265
-3.5,0.1917,0.00853,0.00293,-0.1265
-3.4,0.2039,0.00846,0.00284,-0.1265
-3.3,0.2159,0.00841,0.00275,-0.1264
-3.2,0.228,0.00836,0.00267,-0.1264
-3.1,0.2402,0.00831,0.0026,-0.1264
-3,0.2523,0.00823,0.00253,-0.1264
-2.9,0.2639,0.00821,0.00246,-0.1263
-2.8,0.2757,0.00818,0.00239,-0.1262
-2.7,0.2878,0.00814,0.00232,-0.1262
-2.6,0.2997,0.00812,0.00226,-0.1261
-2.5,0.3114,0.00811,0.0022,-0.126
-2.4,0.3235,0.00806,0.00214,-0.126
-2.3,0.3355,0.00803,0.0021,-0.126
-2.2,0.3475,0.008,0.00205,-0.126
-2.1,0.3592,0.008,0.00201,-0.1259
-2,0.3712,0.00798,0.00196,-0.1259
-1.9,0.3832,0.00796,0.00192,-0.1259
-1.8,0.3951,0.00794,0.00187,-0.1259
-1.7,0.4071,0.00792,0.00184,-0.1259
-1.6,0.4184,0.00796,0.00182,-0.1257
-1.5,0.4304,0.00796,0.0018,-0.1257
-1.4,0.4423,0.00795,0.00177,-0.1257
-1.3,0.4542,0.00794,0.00174,-0.1257
-1.2,0.4659,0.00796,0.00172,-0.1256
-1.1,0.4772,0.00801,0.00171,-0.1255
-1,0.4891,0.00802,0.00169,-0.1255
-0.9,0.5008,0.00805,0.00168,-0.1254
-0.8,0.5126,0.00806,0.00166,-0.1254
-0.7,0.5243,0.00807,0.00167,-0.1254
-0.6,0.5356,0.00814,0.00167,-0.1253
-0.5,0.5473,0.00817,0.00166,-0.1252
-0.4,0.5583,0.00827,0.00168,-0.1251
-0.3,0.5697,0.00834,0.00169,-0.125
-0.2,0.5814,0.00836,0.00171,-0.125
-0.1,0.593,0.00841,0.00172,-0.1249
0,0.6046,0.00845,0.00172,-0.1249
0.1,0.616,0.00852,0.00174,-0.1248
0.2,0.6269,0.00864,0.00179,-0.1246
0.3,0.6385,0.00869,0.0018,-0.1246
0.4,0.65,0.00875,0.00182,-0.1246
0.5,0.6609,0.00887,0.00187,-0.1244
0.6,0.6723,0.00894,0.0019,-0.1244
0.7,0.6837,0.00901,0.00193,-0.1243
0.8,0.6951,0.00909,0.00196,-0.1242
0.9,0.7065,0.00916,0.00199,-0.1242
1,0.7178,0.00924,0.00203,-0.1241
1.1,0.7282,0.00944,0.00211,-0.1239
1.2,0.7393,0.00955,0.00216,-0.1238
1.3,0.7503,0.00967,0.00221,-0.1237
1.4,0.7612,0.0098,0.00228,-0.1236
1.5,0.7721,0.00995,0.00234,-0.1235
1.6,0.7829,0.01011,0.00241,-0.1233
1.7,0.7936,0.01026,0.00249,-0.1232
1.8,0.8038,0.0105,0.0026,-0.123
1.9,0.8151,0.01059,0.00265,-0.1229
2,0.8264,0.01067,0.00272,-0.1228
2.1,0.8378,0.01073,0.00277,-0.1228
2.2,0.8492,0.01081,0.00282,-0.1227
2.3,0.8606,0.01087,0.00287,-0.1227
2.4,0.8721,0.01093,0.00293,-0.1226
2.5,0.8835,0.01099,0.00298,-0.1226
2.6,0.8947,0.01108,0.00305,-0.1225
2.7,0.9062,0.01113,0.0031,-0.1224
2.8,0.9176,0.0112,0.00315,-0.1224
2.9,0.929,0.01126,0.00322,-0.1223
3,0.9405,0.0113,0.00327,-0.1222
3.1,0.952,0.01133,0.00333,-0.1222
3.2,0.9634,0.01138,0.00339,-0.1222
3.3,0.9748,0.01143,0.00345,-0.1221
3.4,0.9797,0.01009,0.00362,-0.121
3.5,0.991,0.01019,0.00368,-0.1209
3.6,1.0024,0.01027,0.00374,-0.1208
3.7,1.0136,0.01036,0.0038,-0.1207
3.8,1.0251,0.01044,0.00387,-0.1206
3.9,1.0365,0.01051,0.00393,-0.1205
4,1.0479,0.01059,0.00399,-0.1205
4.1,1.0592,0.01068,0.00407,-0.1204
4.2,1.0703,0.0108,0.00415,-0.1202
4.3,1.0816,0.01087,0.00421,-0.1201
4.4,1.093,0.01095,0.00428,-0.12
4.5,1.1043,0.01104,0.00435,-0.1199
4.6,1.1155,0.01113,0.00442,-0.1198
4.7,1.1266,0.01124,0.0045,-0.1196
4.8,1.1379,0.01132,0.00458,-0.1195
4.9,1.1492,0.0114,0.00466,-0.1194
5,1.1605,0.01149,0.00473,-0.1193
5.1,1.1714,0.01161,0.00482,-0.1191
5.2,1.1824,0.01172,0.00493,-0.119
5.3,1.1937,0.0118,0.00501,-0.1188
5.4,1.2049,0.01189,0.00509,-0.1187
5.5,1.216,0.01199,0.00518,-0.1185
5.6,1.2271,0.01209,0.00527,-0.1184
5.7,1.2381,0.0122,0.00536,-0.1182
5.8,1.249,0.01231,0.00546,-0.118
5.9,1.26,0.01242,0.00556,-0.1179
6,1.271,0.01252,0.00565,-0.1177
6.1,1.282,0.01262,0.00575,-0.1175
6.2,1.2929,0.01274,0.00585,-0.1173
6.3,1.3036,0.01287,0.00597,-0.1171
6.4,1.3146,0.01297,0.00609,-0.1169
6.5,1.3255,0.01307,0.00619,-0.1167
6.6,1.3365,0.01318,0.0063,-0.1165
6.7,1.3473,0.01329,0.00641,-0.1163
6.8,1.3577,0.01345,0.00653,-0.116
6.9,1.3684,0.01359,0.00666,-0.1158
7,1.3792,0.01369,0.00677,-0.1155
7.1,1.39,0.01381,0.00689,-0.1153
7.2,1.4007,0.01393,0.00701,-0.1151
7.3,1.4113,0.01406,0.00713,-0.1148
7.4,1.4218,0.01419,0.00728,-0.1145
7.5,1.4322,0.01434,0.00741,-0.1142
7.6,1.4427,0.01448,0.00756,-0.1139
7.7,1.4532,0.01461,0.00769,-0.1137
7.8,1.4637,0.01475,0.00782,-0.1134
7.9,1.4741,0.01489,0.00797,-0.1131
8,1.4844,0.01504,0.00811,-0.1127
8.1,1.4945,0.01521,0.00827,-0.1124
8.2,1.5048,0.01535,0.00843,-0.112
8.3,1.5152,0.01549,0.00858,-0.1117
8.4,1.5255,0.01563,0.00873,-0.1114
8.6,1.5454,0.01596,0.00906,-0.1106
8.7,1.5553,0.01614,0.00924,-0.1102
8.8,1.5651,0.01633,0.00943,-0.1098
8.9,1.5752,0.01647,0.00959,-0.1094
9,1.5852,0.01662,0.00976,-0.109
9.1,1.5951,0.01678,0.00993,-0.1086
9.2,1.6048,0.01695,0.01011,-0.1082
9.3,1.6145,0.01713,0.0103,-0.1077
9.4,1.624,0.01732,0.01049,-0.1073
9.5,1.6333,0.01753,0.0107,-0.1068
9.6,1.6426,0.01773,0.01092,-0.1062
9.7,1.6522,0.0179,0.01111,-0.1058
9.8,1.6615,0.01808,0.01131,-0.1053
9.9,1.6708,0.01827,0.01151,-0.1047
10,1.6799,0.01847,0.01173,-0.1042
10.1,1.6882,0.01873,0.01197,-0.1036
10.2,1.6968,0.01896,0.0122,-0.1029
10.3,1.7056,0.01916,0.01244,-0.1023
10.4,1.7143,0.01936,0.01266,-0.1017
10.5,1.7228,0.01957,0.01288,-0.101
10.6,1.7312,0.01978,0.01312,-0.1004
10.7,1.7393,0.02001,0.01336,-0.0997
10.8,1.7472,0.02024,0.01361,-0.0989
10.9,1.7549,0.02049,0.01387,-0.0981
11,1.7623,0.02075,0.01415,-0.0973
11.1,1.7694,0.02102,0.01444,-0.0964
11.2,1.7769,0.02124,0.01471,-0.0956
11.3,1.7839,0.02147,0.01497,-0.0947
11.4,1.7901,0.02171,0.01523,-0.0937
11.5,1.796,0.02197,0.01552,-0.0926
11.6,1.8017,0.02224,0.01581,-0.0915
11.7,1.8072,0.02252,0.01612,-0.0903
11.8,1.8125,0.02282,0.01644,-0.0892
11.9,1.8177,0.02313,0.01678,-0.0881
12,1.8227,0.02347,0.01714,-0.087
12.1,1.8276,0.02381,0.01753,-0.0858
12.2,1.8331,0.02411,0.01786,-0.0848
12.3,1.8383,0.02442,0.01821,-0.0837
12.4,1.8432,0.02477,0.01858,-0.0827
12.5,1.8481,0.02512,0.01897,-0.0816
12.6,1.8521,0.02553,0.01939,-0.0805
12.7,1.8563,0.02594,0.01982,-0.0794
12.8,1.86,0.02637,0.02028,-0.0783
12.9,1.864,0.02678,0.02075,-0.0772
13,1.8683,0.02718,0.02119,-0.0762
13.1,1.8723,0.02761,0.02167,-0.0752
13.2,1.8761,0.02805,0.02215,-0.0742
13.3,1.8797,0.02852,0.02265,-0.0732
13.4,1.883,0.02901,0.02318,-0.0722
13.5,1.8856,0.02954,0.02375,-0.0711
13.6,1.888,0.0301,0.02434,-0.0701
13.7,1.8903,0.03068,0.02498,-0.0692
13.8,1.893,0.03124,0.02557,-0.0683
13.9,1.8955,0.03182,0.0262,-0.0674
14,1.8978,0.03243,0.02685,-0.0665
14.1,1.8997,0.03308,0.02755,-0.0657
14.2,1.9011,0.03377,0.02828,-0.0649
14.3,1.902,0.03452,0.02907,-0.0641
14.4,1.903,0.03526,0.02988,-0.0634
14.5,1.9042,0.03602,0.03068,-0.0628
14.6,1.9053,0.0368,0.03151,-0.0622
14.7,1.906,0.03763,0.03239,-0.0617
14.8,1.9067,0.03849,0.0333,-0.0612
14.9,1.9067,0.03942,0.03428,-0.0609
15,1.9066,0.04039,0.03531,-0.0606
15.1,1.9064,0.0414,0.03639,-0.0604
15.2,1.9063,0.0424,0.03745,-0.0602
15.3,1.9062,0.04344,0.03855,-0.0602
15.4,1.9059,0.04452,0.0397,-0.0603
15.5,1.9054,0.04566,0.0409,-0.0605
15.6,1.9048,0.04683,0.04214,-0.0608
15.7,1.904,0.04808,0.04347,-0.0612
15.8,1.903,0.04938,0.04484,-0.0618
15.9,1.9017,0.05075,0.04628,-0.0626
16,1.9003,0.05219,0.04779,-0.0635
16.1,1.8987,0.05372,0.04939,-0.0646
16.2,1.8968,0.05534,0.05109,-0.0659
16.3,1.8947,0.05705,0.05288,-0.0674
16.4,1.8924,0.05888,0.05479,-0.0692
16.5,1.89,0.0608,0.0568,-0.0711
16.6,1.8875,0.06284,0.05893,-0.0733
16.7,1.8847,0.06506,0.06124,-0.0758
16.8,1.8815,0.06745,0.06373,-0.0786
16.9,1.8776,0.07012,0.0665,-0.0818
17,1.8733,0.07303,0.06951,-0.0852
17.1,1.8678,0.07634,0.07293,-0.0892
17.2,1.8612,0.08009,0.0768,-0.0937
17.3,1.8528,0.0845,0.08133,-0.0989
17.4,1.8413,0.08992,0.08689,-0.105
17.5,1.8264,0.09643,0.09356,-0.1119
17.9,1.7619,0.12192,0.11954,-0.1379
18,1.7499,0.12704,0.12474,-0.1432
18.1,1.7387,0.13194,0.12972,-0.1484
18.2,1.73,0.13618,0.13402,-0.153
18.3,1.7209,0.14054,0.13844,-0.1578
18.4,1.7132,0.14454,0.14251,-0.1623
18.5,1.7063,0.14828,0.1463,-0.1665
18.6,1.7007,0.15168,0.14974,-0.1704
18.7,1.6941,0.15548,0.1536,-0.1747
18.9,1.6854,0.16204,0.16025,-0.182
19,1.6817,0.16531,0.16356,-0.1855
19.1,1.6793,0.16827,0.16656,-0.1886
19.2,1.6762,0.17162,0.16995,-0.192
19.3,1.6736,0.17492,0.17328,-0.1953
19.4,1.6721,0.17785,0.17625,-0.1982
19.5,1.6707,0.18084,0.17927,-0.2012
19.6,1.6683,0.18437,0.18284,-0.2044
19.7,1.6673,0.1874,0.18589,-0.2073
19.8,1.6668,0.19024,0.18876,-0.21
19.9,1.6665,0.19309,0.19163,-0.2127
20,1.6653,0.19643,0.195,-0.2156
20.1,1.6645,0.19962,0.19822,-0.2185
20.2,1.6648,0.20229,0.20091,-0.221
20.3,1.6656,0.20476,0.2034,-0.2233
20.4,1.6665,0.20723,0.20589,-0.2255
20.5,1.6672,0.20985,0.20853,-0.2279
20.6,1.667,0.21303,0.21174,-0.2306
20.7,1.6679,0.2156,0.21434,-0.2329
20.8,1.6692,0.218,0.21675,-0.2351
20.9,1.6706,0.22037,0.21914,-0.2372
21,1.672,0.22273,0.22152,-0.2393
21.1,1.6734,0.22513,0.22393,-0.2415
21.2,1.6746,0.22771,0.22654,-0.2438
21.3,1.6754,0.23067,0.22952,-0.2463
21.4,1.6769,0.23312,0.23199,-0.2485
21.5,1.6786,0.23547,0.23435,-0.2506
21.6,1.6804,0.23782,0.23672,-0.2527
21.7,1.6822,0.24016,0.23908,-0.2548
21.8,1.684,0.24253,0.24147,-0.2569
21.9,1.6858,0.2449,0.24385,-0.259
22,1.6875,0.24745,0.24641,-0.2612
22.1,1.6891,0.25012,0.2491,-0.2636
22.2,1.6911,0.25249,0.25146,-0.2657
22.3,1.6935,0.25455,0.25353,-0.2676
22.4,1.6959,0.2565,0.25548,-0.2695
22.5,1.6984,0.25836,0.25734,-0.2713
22.6,1.701,0.2601,0.25909,-0.273
22.7,1.7035,0.26184,0.26084,-0.2748
22.8,1.7062,0.26349,0.26249,-0.2766
22.9,1.7085,0.26544,0.26443,-0.2785
23,1.7099,0.26862,0.26764,-0.2811
23.1,1.7105,0.27311,0.27216,-0.2844
23.2,1.7113,0.27768,0.27676,-0.2878
23.3,1.711,0.2855,0.28462,-0.2929
23.4,1.7132,0.2891,0.28822,-0.2956
23.5,1.7158,0.29187,0.291,-0.2978
23.6,1.7185,0.29425,0.29338,-0.2998
23.7,1.7213,0.29638,0.29552,-0.3017
23.8,1.7241,0.29837,0.29751,-0.3036
23.9,1.727,0.30037,0.29951,-0.3054
24,1.7298,0.30226,0.3014,-0.3072
24.1,1.7326,0.30408,0.30322,-0.309
24.2,1.7354,0.30586,0.30501,-0.3108
24.3,1.7382,0.30767,0.30682,-0.3126
24.4,1.741,0.30939,0.30854,-0.3143
24.5,1.7438,0.31111,0.31027,-0.3161
24.6,1.7466,0.31278,0.31194,-0.3179
24.7,1.7493,0.31441,0.31358,-0.3196
24.8,1.752,0.31603,0.31521,-0.3214
24.9,1.7547,0.31763,0.3168,-0.3231
25,1.7574,0.3192,0.31838,-0.3249
25.1,1.76,0.32073,0.31992,-0.3266
25.2,1.7626,0.32226,0.32145,-0.3284
25.3,1.765,0.32371,0.32291,-0.3303
25.4,1.7708,0.33603,0.3352,-0.3355
25.5,1.7739,0.33847,0.33764,-0.3375
25.6,1.777,0.34073,0.33991,-0.3395
25.7,1.78,0.34305,0.34223,-0.3414
25.8,1.7829,0.34507,0.34426,-0.3433
25.9,1.7858,0.34704,0.34623,-0.3452
26,1.7886,0.34897,0.34816,-0.3471
26.1,1.7914,0.35086,0.35006,-0.349
26.2,1.7942,0.35272,0.35192,-0.3508
26.3,1.7969,0.35461,0.35382,-0.3527
26.4,1.7996,0.35644,0.35564,-0.3546
26.5,1.8023,0.35824,0.35745,-0.3564
26.6,1.805,0.36003,0.35924,-0.3583
26.7,1.8077,0.36179,0.36101,-0.3602
26.8,1.8103,0.36355,0.36277,-0.3621
26.9,1.8129,0.36533,0.36457,-0.3639
27,1.8155,0.36703,0.36627,-0.3658
27.1,1.818,0.36876,0.36801,-0.3677
27.2,1.8206,0.37045,0.3697,-0.3696
27.3,1.8231,0.37217,0.37143,-0.3715
27.4,1.8255,0.37382,0.37308,-0.3733
27.5,1.828,0.37547,0.37474,-0.3752
27.6,1.8304,0.37716,0.37644,-0.3771
27.7,1.8329,0.37884,0.37812,-0.3791
27.8,1.8352,0.38044,0.37973,-0.381
27.9,1.8376,0.38211,0.3814,-0.3829
28,1.8399,0.38369,0.38298,-0.3848
28.1,1.8421,0.38522,0.38452,-0.3867
28.2,1.8444,0.38688,0.38617,-0.3887
28.3,1.8465,0.3884,0.3877,-0.3906
28.4,1.8562,0.4004,0.39967,-0.3949
28.5,1.8592,0.40291,0.40219,-0.3971
28.6,1.8621,0.40531,0.40459,-0.3992
28.7,1.8647,0.40749,0.40677,-0.4013
28.8,1.8674,0.40967,0.40896,-0.4033
28.9,1.87,0.41177,0.41106,-0.4054
29,1.8725,0.41385,0.41314,-0.4074
29.1,1.875,0.41586,0.41516,-0.4095
29.2,1.8775,0.41787,0.41718,-0.4115
29.3,1.8799,0.41981,0.41912,-0.4136
29.4,1.8823,0.42172,0.42104,-0.4157
29.5,1.8846,0.42365,0.42297,-0.4177
29.6,1.8869,0.42553,0.42485,-0.4198
29.7,1.8892,0.42739,0.42671,-0.4218
29.8,1.8914,0.42922,0.42855,-0.4239
29.9,1.8937,0.43109,0.43042,-0.4259
30,1.8958,0.43292,0.43226,-0.428

