airfoilName st15.dat
Re 	4.100000e+05
M 	2.500000e-01
N 	4.500000e+00
VACC 	0 VACCflag 1
XTR 	1.00 	1.00 XTRflag 0
alpha,cl,cd,cdp,cm
-30,-1.4748,0.47475,0.47267,0.2946
-29.9,-1.4719,0.47217,0.47009,0.2926
-29.8,-1.4689,0.46965,0.46757,0.2906
-29.7,-1.4659,0.46718,0.46509,0.2886
-29.6,-1.4629,0.46472,0.46262,0.2866
-29.5,-1.4599,0.46228,0.46019,0.2846
-29.4,-1.4569,0.45989,0.45779,0.2826
-29.3,-1.4538,0.45749,0.45538,0.2806
-29.2,-1.4508,0.45513,0.45302,0.2786
-29.1,-1.4477,0.45279,0.45068,0.2766
-29,-1.4446,0.45049,0.44838,0.2746
-28.9,-1.4414,0.44819,0.44607,0.2727
-28.8,-1.4383,0.44591,0.44378,0.2707
-28.7,-1.4351,0.44367,0.44153,0.2687
-28.6,-1.432,0.44142,0.43928,0.2668
-28.5,-1.4288,0.4392,0.43706,0.2648
-28.4,-1.4256,0.437,0.43485,0.2629
-28.3,-1.4224,0.43481,0.43266,0.2609
-28.2,-1.4191,0.43262,0.43047,0.259
-28.1,-1.4159,0.43045,0.4283,0.257
-28,-1.4126,0.4283,0.42614,0.2551
-27.9,-1.4093,0.42615,0.42398,0.2532
-27.8,-1.406,0.424,0.42183,0.2513
-27.7,-1.4027,0.42186,0.41969,0.2493
-27.6,-1.3994,0.41974,0.41757,0.2474
-27.5,-1.396,0.41763,0.41546,0.2455
-27.4,-1.3927,0.41552,0.41334,0.2436
-27.3,-1.3893,0.41342,0.41124,0.2417
-27.2,-1.3859,0.41131,0.40913,0.2399
-27.1,-1.3825,0.40922,0.40703,0.238
-27,-1.3791,0.40713,0.40494,0.2361
-26.9,-1.3757,0.40505,0.40285,0.2342
-26.8,-1.3722,0.40297,0.40077,0.2324
-26.7,-1.3688,0.4009,0.3987,0.2305
-26.6,-1.3653,0.39884,0.39662,0.2287
-26.5,-1.3618,0.39677,0.39456,0.2268
-26.4,-1.3583,0.3947,0.39248,0.225
-26.3,-1.3548,0.39266,0.39044,0.2231
-26.2,-1.3513,0.39061,0.38838,0.2213
-26.1,-1.3478,0.38856,0.38633,0.2195
-25.9,-1.3406,0.38496,0.38272,0.2158
-25.8,-1.337,0.38291,0.38068,0.214
-25.7,-1.3334,0.38087,0.37863,0.2122
-25.6,-1.3298,0.37882,0.37658,0.2104
-25.5,-1.3262,0.37679,0.37455,0.2086
-25.4,-1.3226,0.37475,0.37251,0.2068
-25.3,-1.3189,0.37274,0.37049,0.205
-25.2,-1.3153,0.37073,0.36848,0.2032
-25.1,-1.3116,0.36872,0.36646,0.2015
-25,-1.3079,0.36671,0.36445,0.1997
-24.9,-1.3042,0.36472,0.36246,0.1979
-24.8,-1.3005,0.36271,0.36045,0.1962
-24.7,-1.2968,0.36073,0.35846,0.1944
-24.6,-1.293,0.35874,0.35647,0.1927
-24.5,-1.2893,0.35678,0.35451,0.1909
-24.4,-1.2855,0.3548,0.35253,0.1892
-24.3,-1.2817,0.35285,0.35058,0.1874
-24.2,-1.2778,0.35089,0.3486,0.1857
-24.1,-1.274,0.34894,0.34666,0.1839
-24,-1.2701,0.347,0.34471,0.1822
-23.9,-1.2663,0.34508,0.34278,0.1804
-23.8,-1.2623,0.34315,0.34086,0.1787
-23.7,-1.2584,0.34123,0.33893,0.1769
-23.6,-1.2544,0.33933,0.33703,0.1751
-23.5,-1.2503,0.33742,0.33512,0.1733
-23.4,-1.2462,0.33551,0.3332,0.1715
-23.3,-1.242,0.33361,0.3313,0.1697
-23.2,-1.2378,0.33168,0.32937,0.1678
-23.1,-1.2334,0.32972,0.32741,0.1659
-22.9,-1.2189,0.32505,0.32275,0.1599
-22.8,-1.2153,0.32278,0.32048,0.1584
-22.7,-1.2116,0.32053,0.31823,0.1569
-22.6,-1.208,0.31829,0.31598,0.1554
-22.5,-1.2044,0.31608,0.31377,0.154
-22.4,-1.2007,0.3139,0.31159,0.1525
-22.3,-1.197,0.31176,0.30945,0.151
-22.2,-1.1933,0.30965,0.30733,0.1495
-22.1,-1.1895,0.30757,0.30525,0.148
-22,-1.1858,0.30551,0.30319,0.1465
-21.9,-1.182,0.30347,0.30115,0.145
-21.8,-1.1782,0.30146,0.29914,0.1436
-21.7,-1.1743,0.29947,0.29714,0.1421
-21.6,-1.1704,0.2975,0.29517,0.1406
-21.5,-1.1666,0.29554,0.2932,0.1391
-21.4,-1.1627,0.29361,0.29127,0.1377
-21.3,-1.1588,0.29169,0.28934,0.1362
-21.2,-1.1548,0.28978,0.28743,0.1347
-21.1,-1.1509,0.28788,0.28553,0.1333
-21,-1.1469,0.286,0.28365,0.1318
-20.9,-1.1429,0.28413,0.28178,0.1303
-20.8,-1.1389,0.28227,0.27991,0.1289
-20.7,-1.1349,0.28041,0.27805,0.1274
-20.6,-1.1308,0.27857,0.27621,0.126
-20.5,-1.1268,0.27673,0.27436,0.1246
-20.4,-1.1227,0.27489,0.27253,0.1231
-20.3,-1.1186,0.27307,0.2707,0.1217
-20.2,-1.1145,0.27125,0.26888,0.1203
-20.1,-1.1102,0.26985,0.26748,0.1187
-20,-1.1061,0.26802,0.26565,0.1173
-19.9,-1.1019,0.26619,0.26382,0.1159
-19.8,-1.0978,0.26437,0.262,0.1144
-19.7,-1.0936,0.26256,0.26018,0.113
-19.6,-1.0894,0.26074,0.25837,0.1116
-19.5,-1.0852,0.25893,0.25655,0.1102
-19.4,-1.081,0.25712,0.25474,0.1089
-19.3,-1.0767,0.25531,0.25293,0.1075
-19.2,-1.0725,0.2535,0.25112,0.1061
-19.1,-1.0682,0.2517,0.24932,0.1047
-19,-1.0639,0.2499,0.24752,0.1033
-18.9,-1.0597,0.2481,0.24571,0.102
-18.8,-1.0554,0.24631,0.24391,0.1006
-18.7,-1.051,0.24452,0.24212,0.0992
-18.6,-1.0467,0.24274,0.24034,0.0979
-18.5,-1.0424,0.24095,0.23855,0.0965
-18.4,-1.038,0.23917,0.23677,0.0952
-18.3,-1.0337,0.23738,0.23498,0.0938
-18.2,-1.0293,0.2356,0.2332,0.0925
-18.1,-1.0249,0.23383,0.23143,0.0911
-18,-1.0205,0.23205,0.22964,0.0898
-17.9,-1.0161,0.23028,0.22787,0.0885
-17.8,-1.0116,0.2285,0.22609,0.0871
-17.7,-1.0072,0.22672,0.22431,0.0858
-17.6,-1.0027,0.22495,0.22254,0.0844
-17.5,-0.9982,0.22316,0.22075,0.0831
-17.4,-0.9936,0.22137,0.21896,0.0818
-17.3,-0.9891,0.21957,0.21716,0.0804
-17.2,-0.9845,0.21776,0.21534,0.0791
-17.1,-0.9799,0.21592,0.21351,0.0777
-17,-0.9752,0.21407,0.21165,0.0763
-16.9,-0.9705,0.21216,0.20975,0.075
-16.8,-0.9657,0.2102,0.20778,0.0736
-16.5,-0.9433,0.20202,0.19962,0.0672
-16.4,-0.9395,0.2002,0.19779,0.0661
-16.3,-0.9356,0.1984,0.19599,0.0651
-16.2,-0.9317,0.1966,0.19419,0.064
-16.1,-0.9277,0.19483,0.19242,0.0629
-16,-0.9238,0.19306,0.19064,0.0618
-15.9,-0.9198,0.19132,0.18889,0.0607
-15.8,-0.9158,0.1896,0.18717,0.0597
-15.7,-0.9117,0.18789,0.18546,0.0586
-15.6,-0.9076,0.1862,0.18377,0.0575
-15.5,-0.9034,0.18454,0.18211,0.0564
-15.4,-0.8992,0.18289,0.18046,0.0553
-15.3,-0.895,0.18126,0.17883,0.0542
-15.1,-0.8864,0.17829,0.17586,0.052
-15,-0.882,0.17672,0.17429,0.0509
-14.9,-0.8776,0.17516,0.17273,0.0498
-14.8,-0.8731,0.1736,0.17117,0.0487
-14.7,-0.8685,0.17205,0.16963,0.0476
-14.6,-0.864,0.17052,0.16809,0.0465
-14.5,-0.8594,0.169,0.16657,0.0454
-14.4,-0.8547,0.16748,0.16506,0.0443
-14.3,-0.8501,0.16599,0.16356,0.0432
-14.2,-0.8454,0.16449,0.16207,0.0421
-14.1,-0.8406,0.16302,0.16059,0.041
-14,-0.8359,0.16153,0.15911,0.0399
-13.9,-0.8311,0.16007,0.15765,0.0388
-13.8,-0.8263,0.15861,0.15619,0.0377
-13.7,-0.8215,0.15717,0.15474,0.0366
-13.6,-0.8166,0.15572,0.1533,0.0355
-13.5,-0.8117,0.15428,0.15186,0.0344
-13.4,-0.8068,0.15284,0.15042,0.0333
-13.3,-0.8018,0.1514,0.14897,0.0322
-13.2,-0.7968,0.14998,0.14755,0.0311
-13.1,-0.7918,0.14855,0.14612,0.03
-13,-0.7868,0.14714,0.14471,0.0289
-12.9,-0.7817,0.14572,0.14329,0.0278
-12.8,-0.7766,0.14431,0.14189,0.0267
-12.7,-0.7715,0.14291,0.14048,0.0257
-12.6,-0.7664,0.14151,0.13908,0.0246
-12.5,-0.7612,0.14011,0.13769,0.0235
-12.4,-0.756,0.13872,0.1363,0.0224
-12.3,-0.7508,0.13733,0.13491,0.0213
-12.2,-0.7455,0.13594,0.13353,0.0202
-12.1,-0.7402,0.13456,0.13214,0.0191
-12,-0.7349,0.13317,0.13076,0.018
-11.9,-0.7296,0.13179,0.12938,0.0169
-11.8,-0.7242,0.13042,0.12801,0.0158
-11.7,-0.7189,0.12904,0.12663,0.0147
-11.6,-0.7135,0.12767,0.12527,0.0137
-11.5,-0.7081,0.1263,0.1239,0.0126
-11.4,-0.7027,0.12492,0.12252,0.0115
-11.3,-0.6972,0.12354,0.12115,0.0104
-11.2,-0.6918,0.12217,0.11978,0.0093
-11.1,-0.6863,0.12079,0.1184,0.0082
-11,-0.6808,0.11942,0.11703,0.0071
-10.9,-0.6754,0.11804,0.11566,0.0061
-10.8,-0.6699,0.11665,0.11427,0.005
-10.7,-0.6645,0.11526,0.11288,0.0039
-10.6,-0.659,0.11387,0.11149,0.0028
-10.5,-0.6536,0.11246,0.11007,0.0018
-10.4,-0.6482,0.11103,0.10865,0.0007
-10.2,-0.6375,0.10811,0.10574,-0.0014
-10.1,-0.6323,0.1066,0.10423,-0.0024
-10,-0.6271,0.10502,0.10266,-0.0035
-9.9,-0.622,0.10339,0.10103,-0.0045
-9.8,-0.6137,0.1005,0.09817,-0.0068
-9.7,-0.6104,0.09943,0.0971,-0.0073
-9.6,-0.6077,0.09842,0.09611,-0.0077
-9.5,-0.6059,0.09752,0.09522,-0.0078
-9.4,-0.6052,0.09672,0.09444,-0.0076
-9.3,-0.6059,0.09608,0.09381,-0.0071
-9.2,-0.6062,0.09541,0.09316,-0.0067
-9.1,-0.5972,0.09395,0.09169,-0.0088
-9,-0.5879,0.0925,0.09025,-0.0109
-8.9,-0.5778,0.09104,0.08878,-0.0132
-8.8,-0.5667,0.08953,0.08726,-0.0158
-8.7,-0.556,0.08809,0.08581,-0.0181
-8.6,-0.5443,0.0866,0.08431,-0.0207
-8.5,-0.5328,0.08517,0.08288,-0.0233
-8.4,-0.5208,0.08374,0.08145,-0.0259
-8.3,-0.5083,0.0823,0.08,-0.0287
-8.2,-0.4954,0.08086,0.07855,-0.0315
-8.1,-0.484,0.07954,0.07722,-0.0338
-8,-0.4723,0.0782,0.07587,-0.0362
-7.9,-0.46,0.07685,0.0745,-0.0388
-7.8,-0.4471,0.07547,0.07311,-0.0414
-5.8,-0.0934,0.02169,0.0177,-0.1226
-5.7,-0.0883,0.02503,0.02134,-0.1194
-5.6,-0.0825,0.02777,0.02425,-0.1167
-5.5,-0.0782,0.03073,0.02737,-0.1135
-5.2,-0.0134,0.01441,0.00918,-0.1276
-5.1,-0.001,0.01404,0.00873,-0.1277
-5,0.0111,0.0137,0.0083,-0.1278
-4.9,0.0232,0.01336,0.00787,-0.1278
-4.8,0.0357,0.01303,0.00744,-0.1279
-4.7,0.0481,0.01272,0.00704,-0.128
-4.6,0.0605,0.01244,0.00665,-0.128
-4.5,0.0728,0.01221,0.00635,-0.1281
-4.4,0.0849,0.01193,0.00604,-0.1281
-4.3,0.097,0.01174,0.00581,-0.1281
-4.2,0.1092,0.01158,0.00562,-0.1281
-4.1,0.1214,0.01142,0.00541,-0.1281
-4,0.1335,0.01127,0.00521,-0.1281
-3.9,0.1456,0.01111,0.00501,-0.1281
-3.8,0.1578,0.01096,0.00481,-0.1281
-3.7,0.1699,0.01083,0.00462,-0.128
-3.6,0.1818,0.01074,0.00455,-0.128
-3.5,0.1939,0.01063,0.00441,-0.128
-3.4,0.206,0.01052,0.00427,-0.128
-3.3,0.2179,0.01041,0.00413,-0.1279
-3.2,0.2301,0.0103,0.00398,-0.1279
-3.1,0.2422,0.0102,0.00384,-0.1278
-3,0.2543,0.0101,0.0037,-0.1278
-2.9,0.2662,0.00999,0.00358,-0.1278
-2.8,0.2781,0.00995,0.00355,-0.1278
-2.7,0.2902,0.00987,0.00344,-0.1277
-2.6,0.3022,0.00979,0.00333,-0.1277
-2.5,0.3143,0.00972,0.00322,-0.1277
-2.4,0.3262,0.00965,0.00313,-0.1276
-2.3,0.3382,0.00956,0.00305,-0.1276
-2.2,0.3497,0.00952,0.00296,-0.1274
-2.1,0.3614,0.00949,0.00292,-0.1273
-2,0.3734,0.00944,0.00283,-0.1273
-1.9,0.385,0.00941,0.00275,-0.1271
-1.8,0.3967,0.00935,0.00268,-0.127
-1.7,0.4086,0.00931,0.00262,-0.1269
-1.6,0.4206,0.00927,0.00258,-0.1269
-1.5,0.4325,0.00923,0.00253,-0.1269
-1.3,0.4558,0.00919,0.00244,-0.1267
-1.2,0.4677,0.00917,0.0024,-0.1267
-1.1,0.4794,0.00916,0.00236,-0.1265
-1,0.4913,0.00914,0.00232,-0.1265
-0.9,0.5026,0.00916,0.00227,-0.1263
-0.8,0.5144,0.00914,0.00225,-0.1263
-0.7,0.5261,0.00914,0.00225,-0.1262
-0.6,0.538,0.00913,0.00222,-0.1262
-0.5,0.5495,0.00914,0.00219,-0.126
-0.4,0.5609,0.00916,0.00218,-0.1259
-0.3,0.5726,0.00916,0.00217,-0.1258
-0.2,0.5843,0.00917,0.00215,-0.1258
-0.1,0.5959,0.00919,0.00215,-0.1257
0,0.6071,0.00924,0.00215,-0.1255
0.1,0.6187,0.00925,0.00214,-0.1254
0.2,0.6302,0.00928,0.00214,-0.1253
0.3,0.6411,0.00936,0.00213,-0.1251
0.4,0.6525,0.0094,0.00215,-0.125
0.5,0.6635,0.00948,0.00217,-0.1248
0.6,0.6748,0.00953,0.00217,-0.1247
0.7,0.6858,0.00961,0.0022,-0.1245
0.8,0.6967,0.0097,0.00223,-0.1243
0.9,0.7071,0.00984,0.00227,-0.124
1,0.7184,0.00991,0.00229,-0.1239
1.1,0.7296,0.00997,0.00233,-0.1238
1.2,0.7407,0.01005,0.00237,-0.1237
1.3,0.7517,0.01013,0.00241,-0.1235
1.4,0.7628,0.01021,0.00245,-0.1234
1.5,0.7739,0.0103,0.00249,-0.1232
1.6,0.7848,0.01039,0.00254,-0.1231
1.7,0.7948,0.01058,0.00262,-0.1228
1.8,0.8055,0.0107,0.00268,-0.1226
1.9,0.8163,0.01081,0.00275,-0.1224
2,0.8269,0.01094,0.00282,-0.1223
2.1,0.8374,0.01109,0.00289,-0.122
2.2,0.8478,0.01124,0.00298,-0.1218
2.3,0.8581,0.0114,0.00306,-0.1216
2.4,0.8683,0.01158,0.00316,-0.1214
2.5,0.8774,0.0119,0.0033,-0.1211
2.6,0.8879,0.01203,0.0034,-0.1209
2.7,0.8985,0.01214,0.0035,-0.1208
2.9,0.9122,0.01098,0.00368,-0.119
3,0.9231,0.01112,0.00379,-0.1188
3.1,0.9342,0.01124,0.00386,-0.1187
3.2,0.9451,0.01137,0.00394,-0.1185
3.3,0.9559,0.01152,0.00405,-0.1184
3.4,0.9669,0.01163,0.00413,-0.1182
3.5,0.9779,0.01176,0.00422,-0.1181
3.6,0.9891,0.01186,0.0043,-0.1179
3.7,1.0002,0.01196,0.00438,-0.1178
3.8,1.0112,0.01208,0.00446,-0.1177
3.9,1.0222,0.0122,0.00456,-0.1175
4,1.0333,0.01229,0.00464,-0.1174
4.1,1.0441,0.01243,0.00473,-0.1172
4.2,1.055,0.01255,0.00484,-0.117
4.3,1.0661,0.01265,0.00494,-0.1169
4.4,1.0772,0.01275,0.00503,-0.1167
4.5,1.0882,0.01286,0.00512,-0.1166
4.6,1.0991,0.01298,0.00521,-0.1164
4.7,1.1099,0.01311,0.00533,-0.1162
4.8,1.1209,0.0132,0.00542,-0.1161
4.9,1.1318,0.01332,0.00551,-0.1159
5,1.1426,0.01344,0.00562,-0.1157
5.1,1.1533,0.01358,0.00573,-0.1155
5.2,1.1643,0.01368,0.00584,-0.1153
5.3,1.1752,0.01379,0.00596,-0.1151
5.4,1.186,0.01391,0.00607,-0.1149
5.5,1.1968,0.01403,0.00618,-0.1147
5.6,1.2074,0.01416,0.0063,-0.1145
5.7,1.2181,0.01429,0.00643,-0.1143
5.8,1.2289,0.01441,0.00653,-0.1141
5.9,1.2396,0.01453,0.00665,-0.1139
6,1.2501,0.01467,0.00678,-0.1136
6.1,1.2606,0.01482,0.00691,-0.1134
6.2,1.2712,0.01494,0.00704,-0.1131
6.3,1.2819,0.01506,0.00717,-0.1129
6.4,1.2925,0.01519,0.00732,-0.1126
6.5,1.303,0.01532,0.00745,-0.1124
6.6,1.3131,0.0155,0.00759,-0.1121
6.7,1.3235,0.01564,0.00774,-0.1118
6.8,1.334,0.01577,0.00788,-0.1115
6.9,1.3445,0.0159,0.00802,-0.1112
7,1.3548,0.01605,0.00817,-0.1109
7.1,1.365,0.0162,0.00832,-0.1106
7.2,1.375,0.01637,0.00848,-0.1103
7.3,1.3852,0.01653,0.00865,-0.11
7.4,1.3955,0.01667,0.00881,-0.1096
7.5,1.4056,0.01682,0.00897,-0.1093
7.6,1.4156,0.01699,0.00914,-0.109
7.7,1.4255,0.01716,0.00931,-0.1086
7.8,1.4352,0.01736,0.0095,-0.1082
7.9,1.4453,0.01751,0.00967,-0.1078
8,1.4552,0.01766,0.00985,-0.1075
8.1,1.4651,0.01783,0.01003,-0.1071
8.2,1.4748,0.01801,0.01022,-0.1067
8.3,1.4844,0.01819,0.01041,-0.1062
8.4,1.4938,0.0184,0.01061,-0.1058
8.5,1.5032,0.01859,0.01081,-0.1053
8.6,1.5128,0.01876,0.01101,-0.1049
8.7,1.5223,0.01895,0.01123,-0.1044
8.8,1.5316,0.01914,0.01144,-0.104
8.9,1.5407,0.01935,0.01165,-0.1035
9,1.5496,0.01957,0.01188,-0.1029
9.1,1.5584,0.01981,0.01213,-0.1024
9.2,1.5676,0.01999,0.01235,-0.1019
9.3,1.5766,0.02019,0.01258,-0.1013
9.4,1.5854,0.0204,0.01282,-0.1007
9.5,1.594,0.02063,0.01304,-0.1001
9.6,1.6023,0.02086,0.01329,-0.0995
9.7,1.6103,0.02112,0.01355,-0.0988
9.8,1.6183,0.02137,0.01383,-0.0982
9.9,1.6266,0.02159,0.01409,-0.0975
10,1.6347,0.02181,0.01436,-0.0968
10.1,1.6425,0.02205,0.01464,-0.0961
10.2,1.6501,0.0223,0.01491,-0.0953
10.3,1.6575,0.02255,0.0152,-0.0945
10.4,1.6645,0.02282,0.01549,-0.0937
10.5,1.6706,0.0231,0.01579,-0.0927
10.6,1.6762,0.02341,0.01612,-0.0916
10.7,1.6816,0.02373,0.01646,-0.0905
10.8,1.6879,0.02399,0.01677,-0.0895
10.9,1.6944,0.02424,0.01707,-0.0886
11,1.7002,0.02454,0.0174,-0.0876
11.1,1.7059,0.02485,0.01775,-0.0866
11.2,1.7115,0.02517,0.01812,-0.0856
11.3,1.7168,0.02551,0.01849,-0.0846
11.4,1.7219,0.02586,0.01888,-0.0836
11.5,1.7267,0.02624,0.01929,-0.0825
11.6,1.7311,0.02665,0.01974,-0.0815
11.7,1.735,0.02709,0.02022,-0.0804
11.8,1.7403,0.02744,0.02063,-0.0794
11.9,1.7462,0.02776,0.02099,-0.0786
12,1.7514,0.02811,0.02137,-0.0777
12.1,1.7558,0.02853,0.02183,-0.0768
12.2,1.7599,0.02897,0.02231,-0.0758
12.3,1.7638,0.02943,0.02282,-0.0748
12.4,1.7669,0.02995,0.02335,-0.0739
12.5,1.7703,0.03046,0.0239,-0.0729
12.6,1.7744,0.03091,0.02442,-0.072
12.7,1.778,0.0314,0.02497,-0.0711
12.8,1.7815,0.03191,0.02554,-0.0702
12.9,1.7848,0.03244,0.02613,-0.0694
13,1.7878,0.03299,0.02674,-0.0685
13.1,1.7907,0.03357,0.02738,-0.0677
13.2,1.7934,0.03417,0.02803,-0.0669
13.3,1.7959,0.0348,0.02871,-0.0662
13.4,1.7981,0.03545,0.02938,-0.0655
13.5,1.7996,0.03617,0.03015,-0.0648
13.6,1.801,0.03691,0.03095,-0.0642
13.7,1.8033,0.03759,0.03171,-0.0636
13.8,1.8054,0.03831,0.0325,-0.063
13.9,1.8072,0.03905,0.03332,-0.0626
14,1.8088,0.03984,0.03417,-0.0621
14.1,1.8103,0.04066,0.03505,-0.0618
14.2,1.8115,0.04151,0.03597,-0.0615
14.3,1.8126,0.04239,0.03692,-0.0613
14.4,1.8134,0.04333,0.03791,-0.0611
14.5,1.8139,0.04431,0.03895,-0.0611
14.6,1.8141,0.04535,0.04004,-0.0611
14.7,1.8138,0.04646,0.04122,-0.0613
14.8,1.814,0.04755,0.04239,-0.0615
14.9,1.8145,0.04865,0.04356,-0.0618
15,1.8147,0.0498,0.0448,-0.0622
15.1,1.8148,0.051,0.04608,-0.0628
15.2,1.8147,0.05226,0.04742,-0.0635
15.3,1.8144,0.05359,0.04883,-0.0643
15.4,1.8139,0.05499,0.0503,-0.0653
15.5,1.8137,0.0564,0.05173,-0.0665
15.6,1.8122,0.05803,0.05343,-0.0679
15.7,1.8112,0.05965,0.05515,-0.0694
15.8,1.8101,0.06137,0.05696,-0.0711
15.9,1.8087,0.0632,0.05889,-0.0731
16,1.8071,0.06516,0.06095,-0.0752
16.1,1.8051,0.0673,0.06318,-0.0777
16.2,1.8028,0.06961,0.06558,-0.0804
16.3,1.8,0.07213,0.06821,-0.0835
16.4,1.7966,0.07491,0.0711,-0.0869
16.5,1.7926,0.078,0.0743,-0.0907
16.6,1.7875,0.08149,0.0779,-0.095
16.7,1.7813,0.08541,0.08195,-0.0997
16.8,1.7739,0.08982,0.08649,-0.1049
16.9,1.7649,0.09474,0.09154,-0.1104
17.1,1.745,0.10501,0.10206,-0.1214
17.2,1.7353,0.10979,0.10695,-0.1265
17.3,1.7263,0.11433,0.11157,-0.1313
17.4,1.7177,0.1187,0.11603,-0.1359
17.5,1.7099,0.12284,0.12024,-0.1404
17.6,1.7028,0.12676,0.12423,-0.1446
17.7,1.6965,0.13041,0.12794,-0.1486
17.8,1.69,0.13417,0.13177,-0.1527
17.9,1.6848,0.13752,0.13518,-0.1564
18,1.679,0.14106,0.13877,-0.1603
18.1,1.6743,0.14426,0.14202,-0.1639
18.2,1.669,0.14771,0.14552,-0.1677
18.3,1.6647,0.15087,0.14874,-0.1713
18.4,1.6604,0.15419,0.1521,-0.1749
18.5,1.6564,0.15755,0.1555,-0.1785
18.6,1.6532,0.1607,0.1587,-0.1819
18.7,1.649,0.16443,0.16247,-0.1856
18.8,1.6462,0.16774,0.16581,-0.189
18.9,1.6436,0.17108,0.1692,-0.1923
19,1.6406,0.17479,0.17294,-0.1958
19.1,1.6391,0.17793,0.1761,-0.1989
19.2,1.6383,0.18087,0.17905,-0.2017
19.3,1.6364,0.18437,0.18257,-0.2049
19.4,1.6335,0.18848,0.18673,-0.2085
19.6,1.6242,0.1992,0.19755,-0.2172
19.7,1.6169,0.2068,0.20519,-0.2229
19.8,1.6152,0.2114,0.20981,-0.2265
19.9,1.6166,0.21406,0.21248,-0.2288
20,1.6189,0.2161,0.21453,-0.2307
20.1,1.6217,0.21775,0.21618,-0.2324
20.2,1.6248,0.21918,0.21761,-0.2339
20.3,1.6283,0.22033,0.21877,-0.2353
20.4,1.6318,0.2214,0.21984,-0.2366
20.5,1.6354,0.22238,0.22081,-0.2378
20.6,1.6378,0.22432,0.22275,-0.2397
20.7,1.6314,0.23445,0.23291,-0.2463
20.8,1.6332,0.23735,0.23581,-0.2486
20.9,1.6358,0.23956,0.23802,-0.2505
21,1.6385,0.24147,0.23995,-0.2523
21.1,1.6414,0.24323,0.24171,-0.254
21.2,1.6444,0.24487,0.24335,-0.2556
21.3,1.6475,0.24637,0.24486,-0.2572
21.4,1.6505,0.24791,0.24641,-0.2587
21.5,1.6536,0.24933,0.24783,-0.2603
21.6,1.6568,0.25067,0.24918,-0.2618
21.7,1.6599,0.25199,0.2505,-0.2633
21.8,1.6631,0.25319,0.2517,-0.2647
21.9,1.6663,0.25432,0.25284,-0.2661
22,1.6694,0.25544,0.25396,-0.2675
22.9,1.6919,0.28051,0.27905,-0.2871
23,1.6949,0.28203,0.28058,-0.2888
23.1,1.6978,0.28356,0.28211,-0.2904
23.2,1.7007,0.28507,0.28363,-0.292
23.3,1.7036,0.28645,0.28501,-0.2936
23.4,1.7065,0.28788,0.28647,-0.2952
23.5,1.7094,0.28917,0.28776,-0.2968
23.6,1.7122,0.29055,0.28915,-0.2984
23.7,1.715,0.29188,0.29048,-0.3
23.8,1.7177,0.2931,0.2917,-0.3016
24.1,1.728,0.30877,0.30734,-0.3104
24.2,1.731,0.31086,0.30944,-0.3122
24.3,1.7341,0.31288,0.31147,-0.314
24.4,1.7371,0.31483,0.31342,-0.3158
24.5,1.74,0.31673,0.31533,-0.3176
24.6,1.743,0.31858,0.31719,-0.3194
24.7,1.7459,0.3204,0.31901,-0.3212
24.8,1.7488,0.32218,0.32079,-0.323
24.9,1.7517,0.32393,0.32255,-0.3248
25,1.7546,0.32565,0.32428,-0.3265
25.1,1.7574,0.32735,0.32598,-0.3283
25.2,1.7602,0.32904,0.32768,-0.3301
25.3,1.763,0.33071,0.32935,-0.3318
25.4,1.7657,0.33235,0.331,-0.3336
25.5,1.7685,0.33397,0.33263,-0.3354
25.6,1.7712,0.33555,0.33422,-0.3371
25.7,1.7739,0.33715,0.33582,-0.3389
25.8,1.7766,0.33872,0.3374,-0.3407
25.9,1.7792,0.3403,0.33898,-0.3424
26,1.7818,0.34186,0.34054,-0.3442
26.1,1.7844,0.34337,0.34206,-0.346
26.2,1.7869,0.34484,0.34354,-0.3478
26.3,1.7895,0.34642,0.34513,-0.3496
26.4,1.792,0.34789,0.3466,-0.3513
26.5,1.7944,0.34936,0.34808,-0.3531
26.6,1.7968,0.35082,0.34955,-0.3549
26.7,1.7991,0.35223,0.35096,-0.3567
27.2,1.8203,0.37354,0.37225,-0.3695
27.3,1.8231,0.37555,0.37428,-0.3714
27.4,1.8258,0.37751,0.37624,-0.3734
27.5,1.8285,0.37943,0.37817,-0.3753
27.6,1.8312,0.38135,0.38009,-0.3773
27.7,1.8338,0.38325,0.382,-0.3792
27.8,1.8364,0.38511,0.38386,-0.3812
27.9,1.839,0.38696,0.38572,-0.3831
28,1.8415,0.38876,0.38753,-0.385
28.1,1.844,0.39056,0.38934,-0.387
28.2,1.8465,0.39238,0.39116,-0.3889
28.3,1.849,0.39413,0.39292,-0.3909
28.4,1.8514,0.3959,0.39469,-0.3928
28.5,1.8538,0.39766,0.39646,-0.3948
28.6,1.8562,0.39936,0.39817,-0.3967
28.7,1.8585,0.40111,0.39992,-0.3987
28.8,1.8608,0.40277,0.40159,-0.4007
28.9,1.8631,0.40449,0.40332,-0.4026
29,1.8654,0.40617,0.405,-0.4046
29.1,1.8676,0.40783,0.40667,-0.4066
29.2,1.8698,0.40954,0.40839,-0.4085
29.3,1.8719,0.41115,0.41,-0.4105
29.4,1.8741,0.41278,0.41164,-0.4125
29.5,1.8762,0.41447,0.41333,-0.4145
29.6,1.8783,0.41611,0.41498,-0.4164
29.7,1.8803,0.41768,0.41656,-0.4184
29.8,1.8824,0.41928,0.41817,-0.4204
29.9,1.8844,0.42091,0.4198,-0.4224
30,1.8863,0.42254,0.42145,-0.4244

