airfoilName st15.dat
Re 	550000
M 	2.500000e-01
N 	4.500000e+00
VACC 	0 VACCflag 1
XTR 	1.00 	1.00 XTRflag 0
alpha,cl,cd,cdp,cm
-30,-1.4814,0.46653,0.46478,0.2992
-29.9,-1.4783,0.46456,0.46281,0.297
-29.8,-1.4752,0.46255,0.4608,0.2948
-29.7,-1.472,0.46056,0.4588,0.2927
-29.6,-1.4688,0.45862,0.45686,0.2905
-29.5,-1.4656,0.45664,0.45488,0.2884
-29.4,-1.4623,0.45475,0.45298,0.2862
-29.3,-1.4589,0.45291,0.45114,0.2839
-29.2,-1.4554,0.45106,0.44929,0.2817
-29.1,-1.4517,0.44941,0.44764,0.2793
-29,-1.4436,0.45188,0.45012,0.2743
-28.9,-1.4405,0.449,0.44724,0.2724
-28.8,-1.4374,0.44631,0.44454,0.2705
-28.7,-1.4343,0.44369,0.44192,0.2686
-28.6,-1.4312,0.44096,0.43918,0.2667
-28.5,-1.4281,0.43841,0.43663,0.2648
-28.4,-1.4249,0.43586,0.43408,0.2629
-28.3,-1.4218,0.43336,0.43157,0.261
-28.2,-1.4186,0.43091,0.42912,0.2591
-28.1,-1.4154,0.42852,0.42673,0.2572
-28,-1.4122,0.42613,0.42433,0.2553
-27.9,-1.409,0.42378,0.42198,0.2534
-27.8,-1.4058,0.42147,0.41967,0.2515
-27.7,-1.4025,0.41919,0.41739,0.2496
-27.6,-1.3992,0.41693,0.41512,0.2477
-27.5,-1.3959,0.41471,0.41289,0.2458
-27.4,-1.3926,0.41249,0.41068,0.244
-27.3,-1.3893,0.41031,0.40849,0.2421
-27.2,-1.386,0.40813,0.40631,0.2402
-27.1,-1.3826,0.40599,0.40417,0.2384
-27,-1.3793,0.40386,0.40203,0.2365
-26.9,-1.3759,0.40175,0.39992,0.2346
-26.8,-1.3725,0.39964,0.39781,0.2328
-26.7,-1.3691,0.39757,0.39573,0.231
-26.6,-1.3657,0.39549,0.39365,0.2291
-26.5,-1.3622,0.39344,0.39159,0.2273
-26.4,-1.3588,0.39137,0.38952,0.2255
-26.3,-1.3553,0.38934,0.38748,0.2236
-26.2,-1.3519,0.38731,0.38545,0.2218
-26.1,-1.3484,0.38528,0.38343,0.22
-26,-1.3448,0.38327,0.38141,0.2182
-25.9,-1.3413,0.38126,0.3794,0.2164
-25.8,-1.3378,0.37926,0.3774,0.2146
-25.7,-1.3343,0.37728,0.37542,0.2128
-25.5,-1.3271,0.37374,0.37186,0.2092
-25.4,-1.3235,0.37174,0.36986,0.2074
-25.3,-1.3199,0.36977,0.36789,0.2057
-25.2,-1.3163,0.3678,0.36592,0.2039
-25.1,-1.3127,0.36582,0.36394,0.2021
-25,-1.3091,0.36385,0.36197,0.2004
-24.9,-1.3054,0.36189,0.36,0.1987
-24.8,-1.3018,0.35992,0.35803,0.1969
-24.7,-1.2981,0.35797,0.35608,0.1952
-24.6,-1.2944,0.35601,0.35411,0.1935
-24.5,-1.2907,0.35407,0.35218,0.1917
-24.4,-1.287,0.35212,0.35022,0.19
-24.3,-1.2833,0.35018,0.34828,0.1883
-24.2,-1.2795,0.34823,0.34632,0.1866
-24.1,-1.2758,0.3463,0.34438,0.1849
-24,-1.272,0.34436,0.34244,0.1832
-23.9,-1.2683,0.34244,0.34052,0.1816
-23.8,-1.2645,0.34051,0.33859,0.1799
-23.7,-1.2607,0.33858,0.33666,0.1782
-23.6,-1.2569,0.33666,0.33474,0.1765
-23.5,-1.253,0.33474,0.33282,0.1749
-23.4,-1.2492,0.33282,0.3309,0.1732
-23.3,-1.2453,0.33091,0.32898,0.1715
-23.2,-1.2415,0.329,0.32707,0.1699
-23.1,-1.2375,0.32709,0.32516,0.1682
-23,-1.2336,0.32517,0.32323,0.1666
-22.9,-1.2297,0.32327,0.32133,0.1649
-22.8,-1.2257,0.32136,0.31942,0.1632
-22.7,-1.2217,0.31945,0.31751,0.1616
-22.6,-1.2177,0.31755,0.31561,0.1599
-22.5,-1.2137,0.31565,0.31371,0.1583
-22.4,-1.2096,0.31376,0.31181,0.1566
-22.3,-1.2055,0.31186,0.30991,0.1549
-22.2,-1.2014,0.30995,0.308,0.1532
-22.1,-1.1972,0.30804,0.30608,0.1516
-22,-1.193,0.30612,0.30416,0.1498
-21.9,-1.1887,0.30416,0.30221,0.1481
-21.8,-1.1842,0.30216,0.3002,0.1463
-21.5,-1.1653,0.29498,0.29303,0.139
-21.4,-1.1616,0.29276,0.2908,0.1376
-21.3,-1.158,0.29058,0.28862,0.1362
-21.2,-1.1543,0.28842,0.28646,0.1348
-21.1,-1.1506,0.2863,0.28433,0.1334
-21,-1.1469,0.28422,0.28226,0.132
-20.9,-1.1431,0.28217,0.2802,0.1306
-20.8,-1.1394,0.28015,0.27817,0.1292
-20.7,-1.1355,0.27817,0.27619,0.1278
-20.6,-1.1317,0.27621,0.27423,0.1265
-20.5,-1.1278,0.27428,0.2723,0.1251
-20.4,-1.1239,0.27236,0.27038,0.1237
-20.3,-1.12,0.27047,0.26849,0.1223
-20.2,-1.1161,0.2686,0.26662,0.1209
-20.1,-1.1121,0.26675,0.26476,0.1195
-20,-1.1082,0.26491,0.26292,0.1181
-19.9,-1.1042,0.26309,0.2611,0.1168
-19.7,-1.096,0.25984,0.25785,0.1139
-19.6,-1.0919,0.25805,0.25606,0.1126
-19.5,-1.0878,0.25627,0.25427,0.1112
-19.4,-1.0837,0.25448,0.25249,0.1098
-19.3,-1.0795,0.25271,0.25072,0.1084
-19.2,-1.0753,0.25095,0.24895,0.1071
-19.1,-1.0712,0.24919,0.24719,0.1057
-19,-1.0669,0.24744,0.24544,0.1043
-18.9,-1.0627,0.24569,0.24369,0.103
-18.8,-1.0585,0.24394,0.24193,0.1016
-18.7,-1.0542,0.24221,0.2402,0.1003
-18.6,-1.05,0.24048,0.23847,0.0989
-18.5,-1.0457,0.23875,0.23674,0.0976
-18.4,-1.0414,0.23702,0.23501,0.0963
-18.3,-1.0371,0.2353,0.23328,0.0949
-18.2,-1.0327,0.23358,0.23156,0.0936
-18.1,-1.0284,0.23187,0.22985,0.0923
-18,-1.0241,0.23015,0.22813,0.0909
-17.9,-1.0197,0.22845,0.22643,0.0896
-17.8,-1.0153,0.22674,0.22472,0.0883
-17.7,-1.0109,0.22503,0.22301,0.087
-17.6,-1.0065,0.22333,0.2213,0.0857
-17.5,-1.0021,0.22163,0.21961,0.0844
-17.4,-0.9977,0.21993,0.2179,0.0831
-17.3,-0.9933,0.21823,0.2162,0.0818
-17.2,-0.9888,0.21653,0.2145,0.0805
-17.1,-0.9844,0.21483,0.2128,0.0792
-17,-0.9799,0.21313,0.21111,0.078
-16.9,-0.9754,0.21143,0.2094,0.0767
-16.8,-0.9708,0.20973,0.20769,0.0754
-16.7,-0.9662,0.20802,0.20598,0.0741
-16.6,-0.9616,0.2063,0.20427,0.0728
-16.5,-0.957,0.20458,0.20255,0.0715
-16.4,-0.9524,0.20286,0.20083,0.0702
-16.3,-0.9477,0.20113,0.19909,0.0689
-16.2,-0.943,0.19938,0.19734,0.0676
-16.1,-0.9383,0.19762,0.19557,0.0663
-16,-0.9336,0.19583,0.19378,0.065
-15.9,-0.9288,0.19401,0.19196,0.0637
-15.8,-0.924,0.19216,0.19011,0.0624
-15.7,-0.9191,0.19022,0.18817,0.061
-15.6,-0.9141,0.18817,0.18612,0.0597
-15.3,-0.8919,0.1807,0.17866,0.0537
-15.2,-0.8879,0.17897,0.17693,0.0527
-15.1,-0.8839,0.17725,0.17521,0.0517
-15,-0.8799,0.17553,0.17349,0.0507
-14.9,-0.8759,0.1738,0.17176,0.0496
-14.8,-0.8718,0.17211,0.17007,0.0486
-14.7,-0.8682,0.17043,0.16839,0.0476
-14.6,-0.864,0.16878,0.16674,0.0466
-14.5,-0.8597,0.16716,0.16512,0.0455
-14.4,-0.8553,0.16555,0.16351,0.0445
-14.3,-0.851,0.16397,0.16192,0.0434
-14.2,-0.8466,0.1624,0.16036,0.0423
-14.1,-0.8421,0.16085,0.15881,0.0413
-14,-0.8376,0.15931,0.15727,0.0402
-13.9,-0.8331,0.1578,0.15576,0.0392
-13.8,-0.8285,0.15631,0.15427,0.0381
-13.7,-0.8239,0.15484,0.1528,0.037
-13.6,-0.8192,0.15338,0.15134,0.0359
-13.5,-0.8144,0.15193,0.14989,0.0349
-13.4,-0.8096,0.15049,0.14846,0.0338
-13.3,-0.8048,0.14907,0.14704,0.0327
-13.2,-0.7998,0.14767,0.14562,0.0316
-13.1,-0.7949,0.14627,0.14422,0.0305
-13,-0.7899,0.14488,0.14284,0.0294
-12.9,-0.7849,0.14349,0.14145,0.0284
-12.8,-0.7799,0.14213,0.14009,0.0273
-12.7,-0.7748,0.14078,0.13874,0.0262
-12.6,-0.7697,0.13942,0.13738,0.0251
-12.5,-0.7646,0.13808,0.13604,0.024
-12.4,-0.7594,0.13674,0.1347,0.0229
-12.3,-0.7541,0.1354,0.13337,0.0218
-12.2,-0.7489,0.13407,0.13203,0.0207
-12.1,-0.7436,0.13274,0.13071,0.0196
-12,-0.7382,0.13142,0.12939,0.0186
-11.9,-0.7329,0.1301,0.12807,0.0175
-11.8,-0.7275,0.12879,0.12677,0.0164
-11.7,-0.7221,0.12749,0.12546,0.0153
-11.6,-0.7167,0.12618,0.12416,0.0142
-11.5,-0.7112,0.12488,0.12286,0.0131
-11.4,-0.7057,0.12358,0.12156,0.012
-11.3,-0.7002,0.12228,0.12026,0.0109
-11.2,-0.6947,0.12099,0.11897,0.0098
-11.1,-0.6892,0.1197,0.11769,0.0087
-11,-0.6836,0.11841,0.1164,0.0077
-10.9,-0.6781,0.11713,0.11512,0.0066
-10.8,-0.6726,0.11585,0.11384,0.0055
-10.7,-0.667,0.11457,0.11257,0.0044
-10.6,-0.6615,0.1133,0.1113,0.0034
-10.5,-0.656,0.11203,0.11002,0.0023
-10.4,-0.6505,0.11077,0.10876,0.0013
-10.3,-0.6451,0.10952,0.10752,0.0003
-10.2,-0.6397,0.10827,0.10627,-0.0007
-10.1,-0.6345,0.10703,0.10504,-0.0017
-10,-0.6293,0.10581,0.10382,-0.0026
-9.9,-0.6244,0.1046,0.10262,-0.0035
-9.8,-0.6198,0.10343,0.10145,-0.0043
-9.7,-0.6155,0.10229,0.10032,-0.005
-9.6,-0.6119,0.1012,0.09924,-0.0055
-9.4,-0.6084,0.09936,0.09742,-0.0057
-9.3,-0.6042,0.09821,0.09628,-0.0064
-9.2,-0.5947,0.09655,0.09462,-0.0086
-9.1,-0.5836,0.09384,0.09189,-0.0116
-9,-0.5731,0.09197,0.09002,-0.0141
-8.9,-0.5627,0.09007,0.08812,-0.0166
-8.8,-0.5508,0.08804,0.08607,-0.0195
-8.7,-0.5382,0.08594,0.08397,-0.0226
-8.5,-0.511,0.08175,0.07977,-0.0293
-8.4,-0.501,0.0802,0.07822,-0.0316
-8.3,-0.4907,0.07869,0.07671,-0.0339
-6.2,-0.1374,0.01799,0.01404,-0.1247
-6.1,-0.1241,0.01652,0.01234,-0.1258
-6,-0.1116,0.01568,0.01134,-0.1262
-5.9,-0.099,0.01503,0.01056,-0.1266
-5.8,-0.0866,0.01447,0.00987,-0.1268
-5.7,-0.0743,0.01398,0.00926,-0.127
-5.6,-0.0619,0.01354,0.00871,-0.1272
-5.5,-0.0497,0.01314,0.00821,-0.1273
-5.4,-0.0374,0.01277,0.00774,-0.1274
-5.3,-0.0251,0.01245,0.00731,-0.1275
-5.2,-0.013,0.01217,0.00694,-0.1275
-5.1,-0.0007,0.01193,0.00663,-0.1275
-5,0.0116,0.01162,0.00626,-0.1276
-4.8,0.0355,0.01141,0.00602,-0.1275
-4.7,0.0478,0.01121,0.00577,-0.1275
-4.6,0.0598,0.01103,0.00553,-0.1275
-4.5,0.0721,0.01084,0.00529,-0.1275
-4.4,0.0843,0.01067,0.00506,-0.1275
-4.3,0.0963,0.01052,0.00484,-0.1274
-4.2,0.1085,0.01038,0.00467,-0.1274
-4.1,0.1206,0.0102,0.00443,-0.1274
-4,0.1327,0.01006,0.00427,-0.1274
-3.9,0.1449,0.00995,0.00414,-0.1274
-3.8,0.157,0.00984,0.004,-0.1274
-3.7,0.1691,0.00974,0.00387,-0.1273
-3.6,0.1811,0.00965,0.00373,-0.1272
-3.5,0.1932,0.00956,0.0036,-0.1272
-3.4,0.2054,0.00948,0.0035,-0.1272
-3.3,0.2174,0.00939,0.00342,-0.1272
-3.2,0.2293,0.00932,0.00331,-0.1272
-3.1,0.2414,0.00924,0.00322,-0.1271
-3,0.2535,0.00917,0.00311,-0.1271
-2.9,0.2657,0.0091,0.00302,-0.1271
-2.8,0.2775,0.00905,0.00293,-0.127
-2.7,0.2896,0.00896,0.00283,-0.127
-2.6,0.3014,0.00892,0.00279,-0.127
-2.5,0.3132,0.00887,0.0027,-0.1269
-2.4,0.325,0.00883,0.00263,-0.1268
-2.3,0.3369,0.00879,0.00255,-0.1267
-2.2,0.3487,0.00877,0.00248,-0.1266
-2.1,0.3605,0.00871,0.00241,-0.1265
-2,0.3724,0.00868,0.00235,-0.1265
-1.9,0.3844,0.00864,0.0023,-0.1265
-1.8,0.3962,0.00863,0.00227,-0.1264
-1.7,0.4078,0.00863,0.00221,-0.1263
-1.6,0.4199,0.00858,0.00217,-0.1263
-1.5,0.4318,0.00855,0.00213,-0.1263
-1.4,0.4437,0.00854,0.0021,-0.1263
-1.3,0.4552,0.00855,0.00206,-0.1261
-1.2,0.4668,0.00856,0.00202,-0.126
-1.1,0.4786,0.00855,0.002,-0.126
-1,0.4905,0.00854,0.00198,-0.126
-0.9,0.5024,0.00853,0.00196,-0.1259
-0.8,0.5139,0.00855,0.00193,-0.1258
-0.7,0.5253,0.0086,0.00191,-0.1257
-0.6,0.5371,0.00859,0.0019,-0.1257
-0.5,0.5487,0.0086,0.0019,-0.1256
-0.4,0.5605,0.00861,0.00189,-0.1256
-0.3,0.5721,0.00864,0.00188,-0.1255
-0.2,0.5835,0.00868,0.00188,-0.1254
-0.1,0.5948,0.00874,0.00188,-0.1252
0,0.6056,0.00884,0.00189,-0.125
0.1,0.617,0.00888,0.0019,-0.1249
0.2,0.6285,0.00892,0.00191,-0.1249
0.3,0.6397,0.009,0.00193,-0.1247
0.4,0.6511,0.00906,0.00195,-0.1246
0.5,0.6626,0.0091,0.00196,-0.1246
0.6,0.6729,0.00926,0.00201,-0.1243
0.7,0.6839,0.00936,0.00205,-0.1242
0.8,0.6952,0.00943,0.00209,-0.1241
0.9,0.7065,0.00949,0.00211,-0.124
1,0.7178,0.00956,0.00215,-0.1239
1.1,0.729,0.00964,0.00219,-0.1238
1.2,0.7402,0.00973,0.00223,-0.1237
1.3,0.7513,0.00982,0.00227,-0.1235
1.4,0.7615,0.01,0.00234,-0.1233
1.5,0.7725,0.01011,0.0024,-0.1232
1.6,0.7834,0.01023,0.00245,-0.123
1.7,0.7942,0.01035,0.00252,-0.1229
1.8,0.805,0.01049,0.00259,-0.1227
1.9,0.8156,0.01065,0.00266,-0.1226
2,0.8261,0.01081,0.00274,-0.1224
2.1,0.8366,0.01098,0.00283,-0.1222
2.2,0.846,0.01129,0.00297,-0.1219
2.3,0.8568,0.01142,0.00305,-0.1218
2.4,0.8678,0.01153,0.00312,-0.1217
2.5,0.8789,0.01163,0.0032,-0.1216
2.6,0.8901,0.01172,0.00327,-0.1215
2.7,0.9013,0.01179,0.00333,-0.1214
2.8,0.9125,0.01185,0.00342,-0.1213
2.9,0.9238,0.0119,0.00348,-0.1213
3.1,0.9386,0.01067,0.00371,-0.1198
3.2,0.9499,0.01075,0.00377,-0.1197
3.3,0.9612,0.01085,0.00384,-0.1196
3.4,0.9724,0.01095,0.00391,-0.1194
3.5,0.9836,0.01105,0.00398,-0.1193
3.6,0.9949,0.01113,0.00405,-0.1192
3.7,1.0062,0.01122,0.00412,-0.1191
3.8,1.0171,0.01136,0.00421,-0.119
3.9,1.0284,0.01144,0.00428,-0.1189
4,1.0396,0.01153,0.00435,-0.1187
4.1,1.0508,0.01162,0.00444,-0.1186
4.2,1.0619,0.01173,0.00452,-0.1185
4.3,1.073,0.01184,0.00461,-0.1183
4.4,1.0843,0.01192,0.00468,-0.1182
4.5,1.0955,0.01201,0.00476,-0.1181
4.6,1.1063,0.01214,0.00485,-0.1179
4.7,1.1173,0.01225,0.00495,-0.1178
4.8,1.1285,0.01234,0.00503,-0.1176
4.9,1.1396,0.01243,0.00511,-0.1175
5,1.1507,0.01253,0.0052,-0.1173
5.1,1.1617,0.01264,0.0053,-0.1172
5.2,1.1726,0.01276,0.00539,-0.117
5.3,1.1835,0.01287,0.00552,-0.1168
5.4,1.1946,0.01296,0.00561,-0.1166
5.5,1.2054,0.01308,0.00571,-0.1165
5.6,1.2163,0.0132,0.00581,-0.1163
5.7,1.227,0.01333,0.00592,-0.1161
5.8,1.2379,0.01344,0.00603,-0.1159
5.9,1.2489,0.01354,0.00614,-0.1157
6,1.2597,0.01365,0.00624,-0.1155
6.1,1.2705,0.01377,0.00636,-0.1153
6.2,1.2812,0.0139,0.00647,-0.115
6.3,1.2917,0.01405,0.0066,-0.1148
6.4,1.3025,0.01416,0.00673,-0.1146
6.5,1.3132,0.01428,0.00685,-0.1143
6.6,1.3238,0.0144,0.00697,-0.1141
6.7,1.3344,0.01454,0.0071,-0.1138
6.8,1.3448,0.01469,0.00723,-0.1136
6.9,1.3553,0.01482,0.00738,-0.1133
7,1.366,0.01494,0.00751,-0.113
7.1,1.3765,0.01507,0.00764,-0.1128
7.2,1.3868,0.01522,0.00777,-0.1125
7.3,1.397,0.01538,0.00792,-0.1122
7.4,1.4072,0.01554,0.00808,-0.1118
7.5,1.4177,0.01567,0.00824,-0.1115
7.6,1.4281,0.0158,0.00838,-0.1112
7.7,1.4383,0.01595,0.00853,-0.1109
7.8,1.4485,0.0161,0.00869,-0.1106
7.9,1.4586,0.01626,0.00885,-0.1102
8,1.4685,0.01644,0.00902,-0.1098
8.1,1.4784,0.01661,0.00919,-0.1095
8.2,1.4885,0.01676,0.00936,-0.1091
8.3,1.4985,0.01692,0.00953,-0.1087
8.4,1.5084,0.01708,0.0097,-0.1083
8.5,1.5181,0.01726,0.00989,-0.1079
8.6,1.5276,0.01746,0.01009,-0.1075
8.7,1.5372,0.01765,0.0103,-0.107
8.8,1.547,0.01781,0.01048,-0.1066
8.9,1.5567,0.01798,0.01067,-0.1062
9,1.5662,0.01816,0.01086,-0.1057
9.1,1.5754,0.01836,0.01106,-0.1052
9.2,1.5846,0.01857,0.01127,-0.1047
9.3,1.5935,0.0188,0.0115,-0.1042
9.4,1.6028,0.01899,0.01172,-0.1037
9.5,1.612,0.01917,0.01193,-0.1032
9.6,1.621,0.01937,0.01215,-0.1026
9.7,1.6299,0.01957,0.01238,-0.102
9.8,1.6386,0.01978,0.01261,-0.1014
9.9,1.6471,0.02,0.01286,-0.1008
10,1.6554,0.02024,0.01311,-0.1001
10.1,1.6633,0.0205,0.01338,-0.0994
10.2,1.6714,0.02074,0.01365,-0.0987
10.3,1.6797,0.02094,0.01387,-0.0981
10.4,1.6877,0.02117,0.01413,-0.0973
10.5,1.6954,0.0214,0.01439,-0.0966
10.6,1.7029,0.02165,0.01466,-0.0958
10.7,1.7102,0.0219,0.01494,-0.095
10.8,1.7169,0.02217,0.01523,-0.094
10.9,1.7227,0.02245,0.01553,-0.093
11,1.7282,0.02275,0.01586,-0.0919
11.1,1.7343,0.02301,0.01614,-0.0909
11.2,1.7404,0.02327,0.01643,-0.0899
11.3,1.7461,0.02356,0.01675,-0.0888
11.4,1.7518,0.02386,0.0171,-0.0878
11.5,1.7573,0.02417,0.01744,-0.0868
11.6,1.7626,0.0245,0.0178,-0.0857
11.7,1.7677,0.02485,0.01818,-0.0847
11.8,1.7724,0.02522,0.01858,-0.0836
11.9,1.7774,0.02558,0.01897,-0.0826
12,1.7826,0.02592,0.01935,-0.0816
12.1,1.7877,0.02627,0.01975,-0.0806
12.2,1.7926,0.02664,0.02017,-0.0796
12.3,1.7972,0.02702,0.02059,-0.0786
12.4,1.8016,0.02742,0.02104,-0.0776
12.5,1.8059,0.02784,0.02149,-0.0766
12.6,1.8099,0.02828,0.02197,-0.0756
12.7,1.8137,0.02874,0.02247,-0.0746
12.8,1.8171,0.02923,0.023,-0.0736
12.9,1.8201,0.02975,0.02356,-0.0726
13,1.8239,0.03022,0.02408,-0.0717
13.1,1.8274,0.03071,0.02462,-0.0708
13.2,1.8307,0.03122,0.02519,-0.0699
13.3,1.8339,0.03176,0.02577,-0.069
13.4,1.8368,0.03232,0.02639,-0.0681
13.5,1.8396,0.0329,0.02702,-0.0673
13.6,1.842,0.03351,0.02768,-0.0665
13.7,1.8442,0.03416,0.02838,-0.0658
13.8,1.8459,0.03485,0.02911,-0.065
13.9,1.8477,0.03554,0.02984,-0.0644
14,1.8496,0.03623,0.03058,-0.0637
14.1,1.8515,0.03694,0.03135,-0.0631
14.2,1.8531,0.03769,0.03215,-0.0626
14.3,1.8545,0.03848,0.033,-0.0621
14.4,1.8556,0.03931,0.03388,-0.0617
14.5,1.8564,0.04019,0.03481,-0.0613
14.6,1.8568,0.04112,0.03579,-0.0611
14.7,1.8574,0.04206,0.0368,-0.0609
14.8,1.8582,0.043,0.0378,-0.0607
14.9,1.8587,0.04398,0.03885,-0.0607
15,1.859,0.04501,0.03994,-0.0608
15.1,1.8591,0.04608,0.04108,-0.0609
15.2,1.859,0.04721,0.04227,-0.0612
15.3,1.8587,0.0484,0.04352,-0.0616
15.4,1.858,0.04966,0.04485,-0.0621
15.5,1.8569,0.05101,0.04626,-0.0628
15.6,1.8561,0.05237,0.04772,-0.0636
15.7,1.8553,0.05379,0.04921,-0.0646
15.8,1.8543,0.05527,0.05077,-0.0657
15.9,1.8531,0.05684,0.05242,-0.0671
16,1.8517,0.0585,0.05415,-0.0686
16.1,1.8501,0.06027,0.05601,-0.0703
16.2,1.8482,0.06216,0.05799,-0.0723
16.3,1.846,0.0642,0.06012,-0.0745
16.4,1.8434,0.06641,0.06242,-0.0771
16.5,1.8404,0.06883,0.06495,-0.0799
16.6,1.8369,0.07148,0.06771,-0.0831
16.7,1.8327,0.07444,0.07077,-0.0867
16.8,1.8275,0.07778,0.07422,-0.0908
16.9,1.8212,0.08157,0.07813,-0.0953
17,1.8135,0.08592,0.08261,-0.1005
17.1,1.8036,0.09101,0.08784,-0.1062
17.2,1.792,0.09672,0.09369,-0.1124
17.4,1.7653,0.10855,0.10579,-0.1246
17.5,1.7531,0.11385,0.11118,-0.1301
17.6,1.742,0.11882,0.11625,-0.1354
17.7,1.7324,0.12337,0.12088,-0.1402
17.8,1.7231,0.12783,0.12542,-0.145
17.9,1.7151,0.13193,0.12959,-0.1494
18,1.7084,0.13562,0.13334,-0.1534
18.1,1.7013,0.13948,0.13726,-0.1577
18.2,1.6958,0.14281,0.14064,-0.1615
18.3,1.6899,0.14636,0.14424,-0.1655
18.4,1.6851,0.14955,0.14748,-0.1691
18.5,1.6809,0.15263,0.1506,-0.1727
18.6,1.6763,0.15596,0.15398,-0.1763
18.7,1.673,0.15896,0.15702,-0.1797
18.8,1.67,0.16202,0.16012,-0.183
18.9,1.6668,0.16529,0.16343,-0.1864
19,1.6646,0.16825,0.16643,-0.1894
19.1,1.6626,0.1713,0.16951,-0.1925
19.2,1.6598,0.17481,0.17306,-0.1959
19.3,1.6583,0.17787,0.17615,-0.1989
19.4,1.6571,0.18087,0.17919,-0.2018
19.5,1.6551,0.18436,0.1827,-0.205
19.6,1.6538,0.18758,0.18594,-0.208
19.7,1.6533,0.19052,0.18891,-0.2107
19.8,1.6531,0.19341,0.19182,-0.2134
19.9,1.6523,0.19658,0.19502,-0.2162
20,1.6519,0.19965,0.19813,-0.2189
20.1,1.652,0.20254,0.20104,-0.2215
20.2,1.6521,0.20542,0.20395,-0.224
20.3,1.6519,0.20861,0.20717,-0.2268
20.4,1.6513,0.21212,0.21071,-0.2297
20.5,1.6514,0.21524,0.21386,-0.2324
20.6,1.6519,0.2183,0.21693,-0.235
20.7,1.6522,0.22152,0.22018,-0.2377
20.8,1.652,0.22522,0.2239,-0.2407
20.9,1.6532,0.22801,0.22671,-0.2431
21,1.655,0.23045,0.22914,-0.2453
21.1,1.6571,0.23265,0.23136,-0.2473
21.2,1.6594,0.23466,0.23337,-0.2491
21.3,1.6622,0.2364,0.23511,-0.2509
21.4,1.6647,0.23822,0.23693,-0.2526
21.5,1.6676,0.23978,0.23849,-0.2543
21.6,1.6706,0.24118,0.23989,-0.2558
21.7,1.6708,0.24511,0.24383,-0.2589
21.8,1.6701,0.25024,0.24899,-0.2626
21.9,1.6698,0.25567,0.25444,-0.2665
22,1.6714,0.2591,0.25788,-0.2691
22.1,1.6738,0.26172,0.2605,-0.2713
22.2,1.6762,0.26411,0.26289,-0.2733
22.3,1.6789,0.26625,0.26504,-0.2752
22.4,1.6817,0.26824,0.26703,-0.277
22.7,1.6909,0.27277,0.27157,-0.2818
22.8,1.6938,0.2744,0.27321,-0.2834
22.9,1.6967,0.27593,0.27474,-0.2851
23,1.6997,0.27742,0.27625,-0.2867
23.1,1.7026,0.2789,0.27773,-0.2883
23.2,1.7054,0.28036,0.27919,-0.2899
23.3,1.7084,0.2816,0.28044,-0.2915
23.4,1.7112,0.28293,0.28178,-0.293

