airfoilName st17.dat
Re 	6.300000e+05
M 	2.500000e-01
N 	4.500000e+00
VACC 	0 VACCflag 1
XTR 	1.00 	1.00 XTRflag 0
alpha,cl,cd,cdp,cm
-30,-1.4174,0.4853,0.48374,0.2864
-29.9,-1.4145,0.48235,0.48078,0.2844
-29.8,-1.4116,0.47964,0.47807,0.2824
-29.7,-1.4087,0.47684,0.47526,0.2805
-29.6,-1.4058,0.47413,0.47255,0.2785
-29.5,-1.4029,0.47139,0.46981,0.2765
-29.4,-1.3999,0.46871,0.46713,0.2746
-29.3,-1.397,0.46611,0.46452,0.2726
-29.2,-1.394,0.46345,0.46186,0.2707
-29.1,-1.391,0.46097,0.45937,0.2687
-29,-1.388,0.45833,0.45674,0.2668
-28.9,-1.3849,0.45581,0.45421,0.2648
-28.8,-1.382,0.45331,0.4517,0.2629
-28.7,-1.3789,0.45088,0.44927,0.261
-28.6,-1.3758,0.44846,0.44685,0.259
-28.5,-1.3727,0.44603,0.44442,0.2571
-28.4,-1.3696,0.44366,0.44204,0.2552
-28.3,-1.3665,0.44129,0.43967,0.2533
-28.2,-1.3634,0.43894,0.43731,0.2513
-28.1,-1.3602,0.43659,0.43496,0.2494
-28,-1.357,0.4343,0.43266,0.2475
-27.9,-1.3538,0.432,0.43037,0.2456
-27.8,-1.3507,0.42973,0.42808,0.2437
-27.7,-1.3474,0.42747,0.42582,0.2418
-27.6,-1.3442,0.42522,0.42358,0.24
-27.5,-1.341,0.423,0.42135,0.2381
-27.4,-1.3377,0.42079,0.41914,0.2362
-27.3,-1.3345,0.4186,0.41694,0.2343
-27.2,-1.3312,0.41642,0.41476,0.2325
-27.1,-1.3279,0.41426,0.41259,0.2306
-27,-1.3246,0.41211,0.41044,0.2288
-26.9,-1.3212,0.40997,0.4083,0.2269
-26.8,-1.3179,0.40785,0.40618,0.2251
-26.7,-1.3145,0.40572,0.40405,0.2232
-26.6,-1.3112,0.40362,0.40195,0.2214
-26.5,-1.3078,0.40152,0.39984,0.2195
-26.4,-1.3044,0.39944,0.39776,0.2177
-26.3,-1.301,0.39737,0.39569,0.2159
-26.2,-1.2976,0.39531,0.39362,0.2141
-26.1,-1.2941,0.39325,0.39156,0.2123
-26,-1.2907,0.39119,0.3895,0.2105
-25.9,-1.2872,0.38916,0.38746,0.2087
-25.8,-1.2837,0.38712,0.38543,0.2069
-25.7,-1.2802,0.3851,0.38339,0.2051
-25.6,-1.2767,0.38307,0.38136,0.2033
-25.5,-1.2732,0.38105,0.37934,0.2016
-25.4,-1.2697,0.37905,0.37734,0.1998
-25.3,-1.2661,0.37704,0.37533,0.198
-25.2,-1.2626,0.37503,0.37331,0.1963
-25.1,-1.259,0.37305,0.37133,0.1945
-25,-1.2554,0.37105,0.36933,0.1928
-24.9,-1.2518,0.36906,0.36733,0.191
-24.8,-1.2482,0.36708,0.36536,0.1893
-24.7,-1.2446,0.36508,0.36335,0.1876
-24.6,-1.241,0.36312,0.36138,0.1859
-24.5,-1.2374,0.36114,0.3594,0.1841
-24.4,-1.2337,0.35916,0.35742,0.1824
-24.3,-1.23,0.3572,0.35546,0.1807
-24.2,-1.2264,0.35524,0.3535,0.179
-24.1,-1.2227,0.35329,0.35154,0.1773
-24,-1.219,0.35133,0.34958,0.1756
-23.9,-1.2153,0.34937,0.34762,0.1739
-23.8,-1.2115,0.34743,0.34567,0.1723
-23.7,-1.2078,0.34548,0.34372,0.1706
-23.6,-1.204,0.34354,0.34178,0.1689
-23.5,-1.2002,0.34159,0.33984,0.1672
-23.4,-1.1964,0.33966,0.3379,0.1656
-23.3,-1.1926,0.33774,0.33597,0.1639
-23.2,-1.1887,0.33581,0.33405,0.1622
-23.1,-1.1849,0.33388,0.3321,0.1605
-23,-1.1809,0.33196,0.33018,0.1588
-22.9,-1.177,0.33004,0.32825,0.1572
-22.8,-1.173,0.3281,0.32632,0.1555
-22.7,-1.1691,0.32617,0.32439,0.1538
-22.6,-1.165,0.32426,0.32247,0.1521
-22.5,-1.161,0.32232,0.32053,0.1504
-22.4,-1.1569,0.32038,0.31859,0.1487
-22.3,-1.1527,0.31843,0.31664,0.147
-22.2,-1.1485,0.31646,0.31467,0.1453
-22.1,-1.1443,0.31444,0.31265,0.1435
-22,-1.1399,0.31236,0.31057,0.1418
-21.5,-1.114,0.30283,0.30104,0.1317
-21.4,-1.1104,0.30055,0.29876,0.1304
-21.3,-1.1068,0.29826,0.29647,0.129
-21.2,-1.1031,0.29604,0.29424,0.1276
-21.1,-1.0995,0.2938,0.292,0.1262
-21,-1.0958,0.29158,0.28979,0.1249
-20.9,-1.0922,0.28941,0.28761,0.1235
-20.8,-1.0885,0.28725,0.28545,0.1222
-20.7,-1.0848,0.28512,0.28331,0.1208
-20.6,-1.0811,0.28302,0.28122,0.1194
-20.5,-1.0774,0.28094,0.27914,0.1181
-20.4,-1.0736,0.27889,0.27709,0.1167
-20.3,-1.0699,0.27689,0.27508,0.1154
-20.2,-1.0661,0.27491,0.2731,0.114
-20.1,-1.0623,0.27295,0.27113,0.1127
-20,-1.0584,0.27102,0.2692,0.1113
-19.9,-1.0546,0.26911,0.26728,0.11
-19.8,-1.0507,0.26723,0.2654,0.1086
-19.7,-1.0468,0.26537,0.26354,0.1073
-19.6,-1.0429,0.26352,0.26169,0.106
-19.5,-1.039,0.2617,0.25986,0.1046
-19.4,-1.035,0.25989,0.25805,0.1033
-19.3,-1.031,0.25808,0.25624,0.1019
-19.2,-1.027,0.25628,0.25444,0.1006
-19.1,-1.0229,0.25451,0.25267,0.0992
-19,-1.0189,0.25273,0.2509,0.0979
-18.9,-1.0148,0.25096,0.24912,0.0966
-18.8,-1.0107,0.24921,0.24737,0.0953
-18.7,-1.0066,0.24747,0.24563,0.0939
-18.6,-1.0024,0.24573,0.24388,0.0926
-18.5,-0.9983,0.24399,0.24215,0.0913
-18.4,-0.9941,0.24226,0.24042,0.09
-18.3,-0.99,0.24054,0.23869,0.0887
-18.2,-0.9858,0.23881,0.23696,0.0873
-18.1,-0.9815,0.23712,0.23527,0.086
-18,-0.9773,0.23539,0.23354,0.0847
-17.9,-0.9731,0.23368,0.23182,0.0834
-17.8,-0.9689,0.23197,0.23011,0.0821
-17.7,-0.9646,0.23026,0.2284,0.0808
-17.6,-0.9603,0.22855,0.2267,0.0795
-17.5,-0.9561,0.22683,0.22498,0.0783
-17.4,-0.9517,0.22515,0.22328,0.077
-17.3,-0.9474,0.22343,0.22156,0.0757
-17.2,-0.9431,0.22173,0.21986,0.0744
-17.1,-0.9388,0.22002,0.21815,0.0732
-17,-0.9344,0.21832,0.21645,0.0719
-16.9,-0.9301,0.21661,0.21474,0.0706
-16.8,-0.9256,0.21491,0.21303,0.0693
-16.7,-0.9212,0.21319,0.21131,0.0681
-16.6,-0.9168,0.21146,0.20959,0.0668
-16.5,-0.9123,0.20974,0.20786,0.0655
-16.4,-0.9078,0.20801,0.20613,0.0642
-16.3,-0.9032,0.20627,0.20439,0.0629
-16.2,-0.8987,0.20451,0.20263,0.0617
-16.1,-0.8941,0.20274,0.20086,0.0604
-16,-0.8895,0.20094,0.19906,0.0591
-15.9,-0.8848,0.19913,0.19724,0.0578
-15.8,-0.8802,0.19724,0.19536,0.0565
-15.7,-0.8754,0.19527,0.19339,0.0551
-15.2,-0.846,0.18458,0.18272,0.0472
-15.1,-0.8423,0.18276,0.18089,0.0462
-15,-0.8385,0.18097,0.1791,0.0452
-14.9,-0.8347,0.17917,0.1773,0.0443
-14.8,-0.8309,0.17739,0.17552,0.0433
-14.7,-0.827,0.17564,0.17377,0.0423
-14.6,-0.823,0.17393,0.17206,0.0413
-14.5,-0.8191,0.17224,0.17037,0.0403
-14.4,-0.815,0.1706,0.16873,0.0393
-14.3,-0.8108,0.16898,0.16711,0.0382
-14.2,-0.8066,0.1674,0.16552,0.0372
-14.1,-0.8023,0.16585,0.16397,0.0362
-14,-0.798,0.16432,0.16243,0.0352
-13.9,-0.7936,0.16281,0.16093,0.0341
-13.8,-0.7891,0.16132,0.15943,0.0331
-13.7,-0.7847,0.15985,0.15797,0.032
-13.6,-0.7801,0.15839,0.15651,0.031
-13.5,-0.7755,0.15695,0.15507,0.0299
-13.4,-0.7709,0.15552,0.15363,0.0289
-13.3,-0.7662,0.1541,0.15222,0.0278
-13.2,-0.7614,0.15268,0.1508,0.0267
-13.1,-0.7566,0.15127,0.14939,0.0257
-13,-0.7518,0.14988,0.148,0.0246
-12.9,-0.747,0.14848,0.14661,0.0236
-12.8,-0.7421,0.1471,0.14522,0.0225
-12.7,-0.7373,0.14572,0.14384,0.0214
-12.6,-0.7323,0.14434,0.14246,0.0204
-12.5,-0.7274,0.14297,0.14109,0.0193
-12.4,-0.7224,0.1416,0.13972,0.0183
-12.3,-0.7175,0.14023,0.13836,0.0172
-12.2,-0.7124,0.13886,0.13699,0.0161
-12.1,-0.7074,0.1375,0.13562,0.0151
-12,-0.7023,0.13613,0.13426,0.014
-11.9,-0.6972,0.13477,0.1329,0.013
-11.8,-0.6921,0.13341,0.13154,0.0119
-11.7,-0.687,0.13205,0.13019,0.0109
-11.6,-0.6819,0.13071,0.12884,0.0098
-11.5,-0.6768,0.12935,0.12749,0.0088
-11.4,-0.6716,0.12801,0.12613,0.0077
-11.3,-0.6665,0.12666,0.12479,0.0067
-11.2,-0.6613,0.12532,0.12345,0.0057
-11.1,-0.6562,0.12398,0.12211,0.0047
-11,-0.651,0.12264,0.12078,0.0037
-10.9,-0.6459,0.12131,0.11945,0.0027
-10.8,-0.6409,0.11999,0.11813,0.0017
-10.7,-0.6358,0.11867,0.11681,0.0007
-10.6,-0.6308,0.11735,0.1155,-0.0002
-10.5,-0.6259,0.11605,0.11419,-0.0011
-10.4,-0.621,0.11474,0.1129,-0.002
-10.3,-0.6163,0.11346,0.11162,-0.0029
-10.2,-0.6118,0.11219,0.11035,-0.0037
-10.1,-0.607,0.11058,0.10874,-0.0047
-10,-0.6031,0.10933,0.1075,-0.0053
-9.9,-0.5999,0.10814,0.10632,-0.0058
-9.8,-0.5974,0.10704,0.10522,-0.006
-9.7,-0.5959,0.10601,0.10421,-0.006
-9.6,-0.5945,0.10499,0.10321,-0.006
-9.5,-0.5858,0.10318,0.10138,-0.008
-9.3,-0.567,0.09942,0.09762,-0.0124
-9.2,-0.5572,0.09752,0.09571,-0.0147
-8.9,-0.5257,0.09192,0.09009,-0.0221
-8.8,-0.5157,0.09017,0.08836,-0.0245
-8.7,-0.5064,0.08849,0.08667,-0.0267
-8.6,-0.4966,0.08679,0.08496,-0.0291
-8.5,-0.4882,0.08527,0.08344,-0.0311
-8.4,-0.4787,0.08373,0.08189,-0.0332
-8.3,-0.4687,0.08223,0.08038,-0.0355
-8.2,-0.4579,0.08078,0.07892,-0.038
-8.1,-0.4466,0.07935,0.07748,-0.0405
-8,-0.4346,0.07795,0.07607,-0.0431
-7.9,-0.4245,0.0767,0.07481,-0.0451
-5.8,-0.0641,0.01639,0.01255,-0.1357
-5.7,-0.0505,0.01505,0.01098,-0.1367
-5.6,-0.0375,0.01425,0.01002,-0.1373
-5.5,-0.0249,0.01362,0.00925,-0.1377
-5.4,-0.0123,0.01308,0.00859,-0.138
-5.3,0.0001,0.01262,0.00801,-0.1382
-5.2,0.0126,0.0122,0.00748,-0.1384
-5.1,0.0249,0.01184,0.00701,-0.1385
-5,0.0373,0.01152,0.0066,-0.1386
-4.9,0.0496,0.01126,0.00624,-0.1387
-4.8,0.0618,0.01105,0.00596,-0.1387
-4.7,0.0742,0.01069,0.00554,-0.1388
-4.6,0.0864,0.01044,0.00523,-0.1389
-4.5,0.0987,0.01025,0.00499,-0.1389
-4.4,0.1108,0.01008,0.00478,-0.1389
-4.3,0.1229,0.00993,0.00458,-0.1389
-4.2,0.1351,0.00978,0.00438,-0.1389
-4.1,0.1471,0.00964,0.0042,-0.1389
-4,0.1593,0.00951,0.00402,-0.1389
-3.9,0.1715,0.00939,0.00385,-0.1389
-3.8,0.1836,0.00929,0.0037,-0.1389
-3.7,0.1956,0.00915,0.00354,-0.1389
-3.6,0.2077,0.00903,0.00341,-0.1389
-3.5,0.2197,0.00894,0.00329,-0.1389
-3.4,0.2318,0.00886,0.00319,-0.1388
-3.3,0.2438,0.00878,0.00308,-0.1388
-3.2,0.2557,0.00871,0.00297,-0.1388
-3.1,0.2678,0.00864,0.00286,-0.1388
-3,0.2798,0.00857,0.00282,-0.1388
-2.9,0.2917,0.00851,0.00273,-0.1388
-2.8,0.3037,0.00844,0.00264,-0.1387
-2.7,0.3157,0.00839,0.00256,-0.1387
-2.6,0.3277,0.00834,0.00251,-0.1387
-2.5,0.3397,0.00827,0.00242,-0.1387
-2.4,0.3517,0.00821,0.00235,-0.1387
-2.3,0.3637,0.00816,0.00229,-0.1387
-2.2,0.3755,0.00812,0.00222,-0.1386
-2.1,0.3871,0.00809,0.00215,-0.1385
-2,0.3988,0.00808,0.00208,-0.1384
-1.9,0.4108,0.00802,0.00203,-0.1384
-1.8,0.4225,0.00799,0.002,-0.1384
-1.7,0.434,0.00798,0.00194,-0.1382
-1.6,0.446,0.00795,0.0019,-0.1382
-1.5,0.4579,0.00793,0.00186,-0.1382
-1.4,0.4695,0.00791,0.00181,-0.1381
-1.3,0.4812,0.00789,0.00178,-0.138
-1.2,0.4929,0.00789,0.00175,-0.138
-1.1,0.5047,0.00788,0.00173,-0.1379
-1,0.5166,0.00787,0.0017,-0.1379
-0.9,0.5281,0.00787,0.00167,-0.1378
-0.8,0.5396,0.00788,0.00165,-0.1377
-0.7,0.5514,0.00787,0.00164,-0.1377
-0.6,0.5633,0.00787,0.00162,-0.1377
-0.5,0.575,0.00788,0.0016,-0.1376
-0.4,0.5863,0.0079,0.0016,-0.1375
-0.3,0.5978,0.00792,0.0016,-0.1374
-0.2,0.6094,0.00794,0.00159,-0.1374
-0.1,0.6208,0.00798,0.00158,-0.1372
0,0.6323,0.00799,0.00158,-0.1372
0.1,0.643,0.00809,0.00159,-0.1369
0.2,0.6544,0.00813,0.0016,-0.1368
0.3,0.6658,0.00816,0.0016,-0.1367
0.4,0.6772,0.00821,0.00162,-0.1366
0.5,0.6885,0.00826,0.00164,-0.1365
0.6,0.6993,0.00835,0.00166,-0.1363
0.7,0.7096,0.0085,0.0017,-0.136
0.8,0.7209,0.00856,0.00172,-0.1359
0.9,0.7316,0.00867,0.00178,-0.1357
1,0.7423,0.00879,0.00182,-0.1355
1.1,0.7535,0.00886,0.00185,-0.1354
1.2,0.7641,0.00899,0.00191,-0.1352
1.3,0.774,0.00919,0.00198,-0.1349
1.4,0.7849,0.00929,0.00203,-0.1348
1.5,0.7958,0.0094,0.00208,-0.1346
1.6,0.8065,0.00951,0.00215,-0.1344
1.7,0.8172,0.00964,0.00222,-0.1343
1.8,0.8279,0.00978,0.00228,-0.1341
1.9,0.8384,0.00993,0.00235,-0.1339
2,0.8474,0.01026,0.00249,-0.1335
2.1,0.8575,0.01046,0.0026,-0.1333
2.2,0.8677,0.01066,0.0027,-0.133
2.3,0.878,0.01085,0.00279,-0.1328
2.4,0.8886,0.01099,0.00288,-0.1326
2.5,0.8994,0.01111,0.00297,-0.1325
2.6,0.9103,0.01122,0.00304,-0.1324
2.7,0.9209,0.01137,0.00313,-0.1322
2.8,0.9319,0.01145,0.00321,-0.1321
2.9,0.9431,0.01152,0.00328,-0.132
3,0.9542,0.0116,0.00334,-0.1319
3.1,0.9654,0.01165,0.00343,-0.1318
3.2,0.9766,0.0117,0.00349,-0.1317
3.4,0.9923,0.01056,0.00376,-0.1304
3.5,1.0035,0.01065,0.00383,-0.1303
3.6,1.0145,0.01075,0.0039,-0.1302
3.7,1.0256,0.01085,0.00398,-0.13
3.8,1.0368,0.01094,0.00405,-0.1299
3.9,1.0479,0.01103,0.00412,-0.1298
4,1.0589,0.01113,0.0042,-0.1296
4.1,1.0698,0.01125,0.00428,-0.1294
4.2,1.0808,0.01135,0.00436,-0.1293
4.3,1.0918,0.01146,0.00444,-0.1291
4.4,1.1028,0.01156,0.00453,-0.129
4.5,1.1138,0.01165,0.00461,-0.1288
4.6,1.1248,0.01175,0.00471,-0.1287
4.7,1.1354,0.0119,0.00482,-0.1284
4.8,1.1464,0.01199,0.0049,-0.1283
4.9,1.1574,0.01209,0.00499,-0.1281
5,1.1683,0.0122,0.00508,-0.1279
5.1,1.179,0.01232,0.00518,-0.1277
5.2,1.1899,0.01243,0.00529,-0.1275
5.3,1.2008,0.01253,0.00539,-0.1273
5.4,1.2116,0.01264,0.00549,-0.1271
5.5,1.222,0.0128,0.00561,-0.1268
5.6,1.2328,0.01291,0.00571,-0.1266
5.7,1.2436,0.01302,0.00582,-0.1264
5.8,1.2543,0.01314,0.00595,-0.1262
5.9,1.2649,0.01327,0.00606,-0.1259
6,1.2754,0.01341,0.00619,-0.1257
6.1,1.2861,0.01352,0.00631,-0.1254
6.2,1.2965,0.01367,0.00643,-0.1252
6.3,1.3069,0.01382,0.00656,-0.1249
6.4,1.3174,0.01395,0.0067,-0.1246
6.5,1.328,0.01408,0.00683,-0.1243
6.6,1.3385,0.01421,0.00696,-0.1241
6.7,1.3489,0.01435,0.00709,-0.1238
6.8,1.3591,0.01451,0.00724,-0.1234
6.9,1.3692,0.01467,0.00739,-0.1231
7,1.3796,0.01481,0.00755,-0.1228
7.1,1.3898,0.01496,0.0077,-0.1225
7.2,1.3999,0.01513,0.00785,-0.1221
7.3,1.4099,0.01531,0.00803,-0.1218
7.4,1.4202,0.01545,0.00818,-0.1214
7.5,1.4304,0.0156,0.00834,-0.1211
7.6,1.4405,0.01576,0.0085,-0.1207
7.7,1.4504,0.01593,0.00868,-0.1203
7.8,1.4599,0.01615,0.00888,-0.1199
7.9,1.4699,0.01631,0.00905,-0.1195
8,1.4799,0.01647,0.00923,-0.1191
8.1,1.4897,0.01665,0.00941,-0.1187
8.2,1.4994,0.01683,0.00961,-0.1182
8.3,1.5089,0.01704,0.00982,-0.1178
8.4,1.5183,0.01725,0.01004,-0.1173
8.5,1.5281,0.01742,0.01024,-0.1169
8.6,1.5377,0.0176,0.01044,-0.1164
8.7,1.5472,0.01779,0.01064,-0.1159
8.8,1.5566,0.01798,0.01086,-0.1154
8.9,1.5658,0.01819,0.01108,-0.1149
9,1.5745,0.01845,0.01132,-0.1143
9.1,1.5836,0.01868,0.01158,-0.1137
9.2,1.5928,0.01887,0.0118,-0.1132
9.3,1.6018,0.01908,0.01202,-0.1126
9.4,1.6107,0.0193,0.01226,-0.1121
9.5,1.6194,0.01953,0.01251,-0.1114
9.6,1.628,0.01977,0.01278,-0.1108
9.7,1.6363,0.02003,0.01306,-0.1101
9.8,1.6444,0.02029,0.01333,-0.1094
9.9,1.6527,0.02052,0.01359,-0.1088
10,1.6609,0.02076,0.01386,-0.108
10.1,1.6689,0.02101,0.01414,-0.1073
10.2,1.6765,0.02128,0.01441,-0.1065
10.3,1.6839,0.02156,0.01471,-0.1057
10.4,1.691,0.02185,0.01503,-0.1048
10.5,1.698,0.02214,0.01536,-0.1039
10.6,1.7053,0.02239,0.01565,-0.1031
10.7,1.7119,0.02266,0.01596,-0.1021
10.8,1.7178,0.02293,0.01627,-0.101
10.9,1.7236,0.02322,0.01659,-0.0999
11,1.7292,0.02353,0.01693,-0.0988
11.1,1.7345,0.02385,0.01728,-0.0976
11.2,1.7396,0.0242,0.01767,-0.0965
11.3,1.7443,0.02458,0.01808,-0.0953
11.4,1.7497,0.0249,0.01846,-0.0942
11.5,1.7548,0.02525,0.01885,-0.0931
11.6,1.7598,0.0256,0.01925,-0.092
11.7,1.7645,0.02598,0.01967,-0.0908
11.8,1.7691,0.02637,0.0201,-0.0897
11.9,1.7734,0.02678,0.02055,-0.0886
12,1.7773,0.02722,0.02103,-0.0874
12.1,1.7808,0.02769,0.02154,-0.0862
12.2,1.7847,0.02814,0.02205,-0.0851
12.3,1.7884,0.02859,0.02256,-0.084
12.4,1.7918,0.02907,0.02309,-0.0828
12.5,1.7951,0.02957,0.02365,-0.0817
12.6,1.7981,0.0301,0.02423,-0.0806
12.8,1.8028,0.03123,0.02543,-0.0784
12.9,1.805,0.03183,0.02609,-0.0773
13,1.8071,0.03244,0.02676,-0.0762
13.1,1.8089,0.03308,0.02747,-0.0752
13.2,1.8105,0.03374,0.0282,-0.0742
13.3,1.8118,0.03444,0.02896,-0.0732
13.4,1.8128,0.03516,0.02976,-0.0722
13.5,1.8135,0.03592,0.03059,-0.0713
13.6,1.814,0.03671,0.03145,-0.0704
13.7,1.8143,0.03754,0.03234,-0.0696
13.8,1.8144,0.0384,0.03328,-0.0688
13.9,1.8141,0.03931,0.03426,-0.0681
14,1.8137,0.04026,0.03527,-0.0675
14.1,1.813,0.04125,0.03634,-0.067
14.2,1.812,0.04229,0.03745,-0.0665
14.3,1.8106,0.04339,0.03862,-0.0661
14.4,1.8091,0.04453,0.03984,-0.0658
14.5,1.8071,0.04575,0.04114,-0.0657
14.6,1.8049,0.04703,0.04249,-0.0656
14.7,1.8024,0.04839,0.04394,-0.0658
14.8,1.7996,0.04982,0.04545,-0.0661
14.9,1.7968,0.0513,0.04701,-0.0665
15,1.7939,0.05285,0.04865,-0.0671
15.1,1.7908,0.05448,0.05036,-0.0679
15.2,1.7875,0.05618,0.05216,-0.0689
15.3,1.784,0.05798,0.05405,-0.0702
15.4,1.7803,0.05992,0.05609,-0.0717
15.5,1.7764,0.06201,0.05827,-0.0735
15.6,1.7723,0.06425,0.06061,-0.0757
15.7,1.768,0.06668,0.06314,-0.0782
15.8,1.7633,0.06937,0.06594,-0.0812
15.9,1.7585,0.07229,0.06897,-0.0845
16,1.7529,0.07566,0.07245,-0.0885
16.1,1.7465,0.0795,0.07641,-0.0932
16.2,1.739,0.08402,0.08106,-0.0986
16.6,1.6853,0.11106,0.10868,-0.1269
16.7,1.6703,0.11761,0.11532,-0.1333
16.8,1.6594,0.12295,0.12075,-0.1386
16.9,1.6493,0.12809,0.12596,-0.1436
17,1.6407,0.13277,0.13071,-0.1483
17.3,1.6189,0.14589,0.14399,-0.1616
17.4,1.6128,0.14989,0.14805,-0.1658
17.5,1.6075,0.15366,0.15186,-0.1697
17.6,1.6031,0.15714,0.15538,-0.1734
17.7,1.5982,0.16088,0.15917,-0.1774
17.8,1.5949,0.16414,0.16246,-0.1808
17.9,1.5916,0.16749,0.16585,-0.1844
18,1.5883,0.17108,0.16947,-0.188
18.1,1.5864,0.17416,0.17259,-0.1911
18.2,1.5848,0.17727,0.17573,-0.1942
18.3,1.5827,0.18083,0.17932,-0.1975
18.4,1.5816,0.184,0.18251,-0.2005
18.5,1.5811,0.18699,0.18553,-0.2033
18.6,1.5807,0.19,0.18855,-0.2061
18.7,1.5798,0.19345,0.19203,-0.2091
18.8,1.58,0.19632,0.19492,-0.2117
18.9,1.5803,0.19917,0.19778,-0.2142
19,1.5805,0.20223,0.20087,-0.2167
19.1,1.5804,0.20561,0.20426,-0.2195
19.2,1.5798,0.20941,0.2081,-0.2225
19.3,1.5796,0.21307,0.21178,-0.2253
19.4,1.5793,0.21701,0.21575,-0.2283
19.6,1.5749,0.22923,0.22802,-0.2365
19.7,1.5755,0.23344,0.23224,-0.2394
19.8,1.5775,0.23645,0.23525,-0.2417
19.9,1.5799,0.23902,0.23782,-0.2437
20,1.5825,0.24131,0.24012,-0.2456
20.1,1.5853,0.24346,0.24227,-0.2474
20.2,1.5882,0.2454,0.24421,-0.2491
20.3,1.5911,0.24733,0.24615,-0.2508
20.4,1.5942,0.24906,0.24788,-0.2524
20.5,1.5972,0.2508,0.24962,-0.2541
20.6,1.6002,0.2526,0.25143,-0.2557
20.7,1.6033,0.25415,0.25298,-0.2573
20.8,1.6062,0.25589,0.25473,-0.2589
20.9,1.6093,0.25736,0.25621,-0.2605
21,1.6123,0.25879,0.25764,-0.2621
21.1,1.6152,0.26033,0.25918,-0.2637
21.2,1.6181,0.26167,0.26053,-0.2652
21.3,1.6193,0.27325,0.27208,-0.2701
21.4,1.6225,0.27602,0.27484,-0.272
21.5,1.6257,0.27845,0.2773,-0.2738
21.6,1.6289,0.28076,0.2796,-0.2756
21.7,1.6321,0.28291,0.28176,-0.2773
21.8,1.6354,0.285,0.28385,-0.279
22,1.6419,0.28889,0.28775,-0.2825
22.1,1.645,0.29076,0.28962,-0.2841
22.2,1.6481,0.2926,0.29146,-0.2858
22.3,1.6513,0.29439,0.29326,-0.2874
22.4,1.6544,0.29614,0.29501,-0.2891
22.5,1.6575,0.29793,0.2968,-0.2907
22.6,1.6606,0.29966,0.29854,-0.2924
22.7,1.6637,0.30137,0.30025,-0.2941
22.8,1.6667,0.30306,0.30194,-0.2957
22.9,1.6697,0.30476,0.30366,-0.2974
23,1.6727,0.30639,0.30528,-0.299
23.1,1.6757,0.30802,0.30693,-0.3007
23.2,1.6787,0.30965,0.30855,-0.3023
23.3,1.6817,0.31128,0.31019,-0.304
23.4,1.6846,0.31285,0.31177,-0.3057
23.5,1.6875,0.31449,0.31341,-0.3073
23.6,1.6904,0.31603,0.31495,-0.309
23.7,1.6932,0.31759,0.31651,-0.3107
23.8,1.696,0.31918,0.31811,-0.3124
23.9,1.6988,0.32076,0.31969,-0.3141
24,1.7015,0.32227,0.32121,-0.3157
24.1,1.7041,0.32386,0.32281,-0.3175
24.2,1.7098,0.33075,0.32968,-0.3203
24.3,1.7147,0.33593,0.33486,-0.3228
24.4,1.7183,0.33878,0.33771,-0.3247
24.5,1.7217,0.34136,0.34029,-0.3266
24.6,1.7251,0.34382,0.34275,-0.3285
24.7,1.7284,0.34615,0.34508,-0.3304
24.8,1.7316,0.34832,0.34726,-0.3322
24.9,1.7347,0.35046,0.34941,-0.334
25,1.7379,0.35258,0.35152,-0.3359
25.1,1.7409,0.35463,0.35358,-0.3377
25.2,1.744,0.35665,0.35561,-0.3396
25.3,1.747,0.35862,0.35759,-0.3414
25.4,1.75,0.36059,0.35956,-0.3432
25.5,1.7529,0.36253,0.36151,-0.345
25.6,1.7559,0.36446,0.36344,-0.3469
25.7,1.7588,0.36637,0.36536,-0.3487
25.8,1.7617,0.36827,0.36726,-0.3505
25.9,1.7646,0.37015,0.36915,-0.3524
26,1.7674,0.37202,0.37102,-0.3542
26.1,1.7702,0.37387,0.37287,-0.3561
26.2,1.773,0.37573,0.37474,-0.3579
26.3,1.7758,0.37757,0.37659,-0.3598
26.4,1.7785,0.37939,0.37841,-0.3616
26.5,1.7813,0.3812,0.38023,-0.3635
26.6,1.784,0.383,0.38203,-0.3654
26.7,1.7867,0.38488,0.38391,-0.3672
26.8,1.7893,0.38663,0.38567,-0.3691
26.9,1.792,0.38838,0.38743,-0.371
27,1.7946,0.3902,0.38925,-0.3728
27.3,1.802,0.39496,0.39403,-0.3785
27.4,1.8045,0.39673,0.3958,-0.3804
27.5,1.807,0.39848,0.39755,-0.3823
27.6,1.8095,0.4002,0.39927,-0.3842
27.7,1.8119,0.4019,0.40098,-0.3861
27.8,1.8143,0.40366,0.40274,-0.388
27.9,1.8167,0.40542,0.40452,-0.3899
28,1.8191,0.40716,0.40626,-0.3918
28.1,1.8214,0.40895,0.40806,-0.3938
28.2,1.8237,0.41073,0.40985,-0.3957
28.3,1.826,0.41251,0.41163,-0.3976
28.4,1.8283,0.41432,0.41345,-0.3995
28.5,1.8305,0.4162,0.41534,-0.4015
28.6,1.8377,0.42342,0.42253,-0.4046
28.7,1.8427,0.42844,0.42755,-0.4072
28.8,1.8461,0.43151,0.43062,-0.4094
28.9,1.8489,0.43395,0.43307,-0.4115
29,1.852,0.43657,0.43569,-0.4137
29.1,1.8548,0.43894,0.43806,-0.4158
29.2,1.8575,0.44123,0.44036,-0.4179
29.3,1.8601,0.44346,0.44259,-0.42
29.4,1.8627,0.44562,0.44475,-0.422
29.5,1.8652,0.44775,0.44689,-0.4241
29.6,1.8677,0.44987,0.44901,-0.4262
29.7,1.8702,0.45197,0.45111,-0.4283
29.8,1.8726,0.45401,0.45316,-0.4304
29.9,1.875,0.45607,0.45523,-0.4325
30,1.8773,0.4581,0.45726,-0.4346

