airfoilName st17.dat
Re 	850000
M 	2.500000e-01
N 	4.500000e+00
VACC 	0 VACCflag 1
XTR 	1.00 	1.00 XTRflag 0
alpha,cl,cd,cdp,cm
-30,-1.4245,0.47446,0.47315,0.2907
-29.9,-1.4213,0.47264,0.47133,0.2885
-29.8,-1.4181,0.47077,0.46946,0.2863
-29.7,-1.415,0.46879,0.46748,0.2842
-29.6,-1.4117,0.46697,0.46566,0.2819
-29.5,-1.4084,0.4651,0.46378,0.2797
-29.4,-1.405,0.46322,0.4619,0.2775
-28.6,-1.3747,0.4536,0.45229,0.2584
-28.5,-1.3717,0.45078,0.44946,0.2565
-28.4,-1.3686,0.44806,0.44673,0.2547
-28.3,-1.3654,0.44537,0.44404,0.2528
-28.2,-1.3624,0.44219,0.44086,0.251
-28.1,-1.3593,0.43941,0.43808,0.2491
-28,-1.3562,0.43688,0.43554,0.2472
-27.9,-1.353,0.4341,0.43276,0.2454
-27.8,-1.3499,0.4314,0.43005,0.2435
-27.7,-1.3467,0.42877,0.42742,0.2417
-27.6,-1.3435,0.42616,0.42481,0.2398
-27.5,-1.3403,0.42351,0.42215,0.238
-27.4,-1.3371,0.42086,0.41951,0.2362
-27.3,-1.3338,0.41835,0.41699,0.2343
-27.2,-1.3306,0.41582,0.41445,0.2325
-27.1,-1.3273,0.41336,0.412,0.2307
-27,-1.3241,0.41087,0.40951,0.2289
-26.9,-1.3208,0.40844,0.40707,0.227
-26.8,-1.3175,0.40605,0.40468,0.2252
-26.7,-1.3142,0.40374,0.40236,0.2234
-26.6,-1.3109,0.4014,0.40002,0.2216
-26.5,-1.3075,0.39914,0.39776,0.2198
-26.4,-1.3042,0.39688,0.3955,0.218
-26.3,-1.3009,0.39466,0.39328,0.2162
-26.2,-1.2975,0.39249,0.3911,0.2144
-26.1,-1.2941,0.39032,0.38893,0.2126
-26,-1.2907,0.3882,0.38681,0.2109
-25.9,-1.2873,0.3861,0.38471,0.2091
-25.8,-1.2839,0.38401,0.38262,0.2073
-25.7,-1.2804,0.38195,0.38055,0.2056
-25.6,-1.277,0.3799,0.37849,0.2038
-25.5,-1.2735,0.37786,0.37645,0.202
-25.4,-1.2701,0.37586,0.37445,0.2003
-25.3,-1.2666,0.37386,0.37244,0.1985
-25.2,-1.2631,0.37185,0.37043,0.1968
-25.1,-1.2595,0.36989,0.36847,0.1951
-25,-1.256,0.36792,0.3665,0.1933
-24.9,-1.2525,0.36596,0.36454,0.1916
-24.8,-1.2489,0.36402,0.3626,0.1899
-24.7,-1.2453,0.36205,0.36062,0.1882
-24.6,-1.2418,0.36014,0.35871,0.1865
-24.5,-1.2382,0.35821,0.35678,0.1848
-24.4,-1.2346,0.35628,0.35484,0.1831
-24.3,-1.231,0.35438,0.35294,0.1814
-24.2,-1.2273,0.35247,0.35103,0.1797
-24.1,-1.2237,0.35057,0.34913,0.178
-24,-1.2201,0.34866,0.34722,0.1763
-23.9,-1.2164,0.34675,0.34531,0.1747
-23.8,-1.2127,0.34486,0.34342,0.173
-23.7,-1.209,0.34297,0.34152,0.1713
-23.6,-1.2053,0.34107,0.33962,0.1697
-23.5,-1.2016,0.33917,0.33772,0.168
-23.4,-1.1979,0.33728,0.33582,0.1664
-23.3,-1.1941,0.3354,0.33394,0.1648
-23.2,-1.1903,0.33352,0.33206,0.1631
-23.1,-1.1866,0.33161,0.33014,0.1615
-23,-1.1828,0.32973,0.32826,0.1599
-22.9,-1.179,0.32784,0.32637,0.1582
-22.8,-1.1751,0.32593,0.32446,0.1566
-22.7,-1.1713,0.32404,0.32256,0.155
-22.6,-1.1674,0.32216,0.32068,0.1534
-22.5,-1.1635,0.32026,0.31878,0.1518
-22.4,-1.1596,0.31836,0.31688,0.1502
-22.3,-1.1557,0.31648,0.31499,0.1486
-22.2,-1.1518,0.31459,0.3131,0.147
-22.1,-1.1479,0.3127,0.31121,0.1454
-22,-1.1439,0.31081,0.30932,0.1438
-21.9,-1.1399,0.3089,0.30741,0.1422
-21.8,-1.136,0.307,0.30551,0.1406
-21.7,-1.132,0.3051,0.3036,0.139
-21.6,-1.1279,0.3032,0.3017,0.1374
-21.5,-1.1239,0.30129,0.29979,0.1359
-21.4,-1.1199,0.29938,0.29788,0.1343
-21.3,-1.1158,0.29745,0.29595,0.1327
-21.2,-1.1118,0.29552,0.29401,0.1312
-21.1,-1.1076,0.29358,0.29208,0.1296
-21,-1.1035,0.29162,0.29011,0.128
-20.9,-1.0994,0.28964,0.28813,0.1265
-20.8,-1.0952,0.28763,0.28613,0.1249
-20.7,-1.091,0.28559,0.28408,0.1233
-20.6,-1.0851,0.28282,0.28131,0.1211
-20.5,-1.0803,0.28068,0.27917,0.1194
-20.4,-1.0753,0.27882,0.27731,0.1176
-20.3,-1.0705,0.27709,0.27558,0.1159
-20,-1.0563,0.27196,0.27045,0.1109
-19.9,-1.0527,0.26975,0.26823,0.1096
-19.8,-1.0492,0.26742,0.26591,0.1084
-19.7,-1.0457,0.26514,0.26363,0.1072
-19.6,-1.0421,0.26292,0.26141,0.1059
-19.5,-1.0386,0.26067,0.25915,0.1047
-19.4,-1.035,0.25849,0.25697,0.1035
-19.3,-1.0313,0.2564,0.25488,0.1022
-19.2,-1.0276,0.25437,0.25285,0.101
-19.1,-1.0239,0.25238,0.25085,0.0997
-19,-1.02,0.25046,0.24894,0.0984
-18.9,-1.0162,0.24859,0.24706,0.0971
-18.8,-1.0123,0.24676,0.24523,0.0959
-18.7,-1.0083,0.24497,0.24344,0.0946
-18.6,-1.0043,0.2432,0.24167,0.0933
-18.5,-1.0003,0.24146,0.23993,0.092
-18.4,-0.9963,0.23974,0.23821,0.0907
-18.3,-0.9922,0.23804,0.2365,0.0894
-18.2,-0.9881,0.23633,0.2348,0.0881
-18.1,-0.984,0.23468,0.23314,0.0868
-18,-0.9799,0.23299,0.23145,0.0856
-17.9,-0.9757,0.23131,0.22978,0.0843
-17.8,-0.9715,0.22966,0.22812,0.083
-17.7,-0.9673,0.228,0.22646,0.0817
-17.6,-0.9631,0.22636,0.22482,0.0805
-17.5,-0.9589,0.22469,0.22315,0.0792
-17.4,-0.9547,0.22309,0.22155,0.0779
-17.3,-0.9504,0.22143,0.21988,0.0767
-17.2,-0.9461,0.2198,0.21825,0.0754
-17.1,-0.9419,0.21816,0.21661,0.0742
-17,-0.9375,0.21653,0.21498,0.0729
-16.9,-0.9332,0.21488,0.21333,0.0717
-16.8,-0.9289,0.21327,0.21171,0.0704
-16.7,-0.9245,0.21162,0.21006,0.0692
-16.6,-0.9201,0.20997,0.20841,0.0679
-16.5,-0.9157,0.20833,0.20677,0.0666
-16.4,-0.9112,0.20668,0.20512,0.0654
-16.3,-0.9068,0.20503,0.20347,0.0642
-16.2,-0.9023,0.20338,0.20181,0.0629
-16.1,-0.8978,0.20173,0.20016,0.0617
-16,-0.8933,0.20007,0.19851,0.0604
-15.9,-0.8888,0.19841,0.19685,0.0592
-15.8,-0.8843,0.19675,0.19518,0.058
-15.7,-0.8797,0.19509,0.19352,0.0567
-15.6,-0.8752,0.19342,0.19185,0.0555
-15.5,-0.8706,0.19174,0.19018,0.0543
-15.4,-0.866,0.19006,0.18849,0.053
-15.3,-0.8614,0.18837,0.1868,0.0518
-15.2,-0.8568,0.18666,0.18509,0.0506
-15.1,-0.8522,0.18492,0.18335,0.0493
-15,-0.8475,0.18317,0.1816,0.0481
-14.9,-0.8428,0.18136,0.17979,0.0469
-14.8,-0.8381,0.17946,0.17789,0.0456
-14.7,-0.8333,0.17744,0.17587,0.0443
-14.4,-0.8105,0.17095,0.16939,0.0385
-14.3,-0.8068,0.16914,0.16758,0.0376
-14.1,-0.7995,0.16546,0.1639,0.0358
-14,-0.7958,0.16366,0.1621,0.0349
-13.9,-0.7923,0.16181,0.16024,0.034
-13.8,-0.7886,0.16004,0.15848,0.033
-13.7,-0.7849,0.1583,0.15674,0.0321
-13.6,-0.7809,0.15665,0.15509,0.0311
-13.5,-0.7768,0.15506,0.15349,0.0302
-13.4,-0.7724,0.15352,0.15195,0.0292
-13.3,-0.7681,0.15202,0.15046,0.0281
-13.2,-0.7635,0.15056,0.14899,0.0271
-13.1,-0.7589,0.14912,0.14755,0.0261
-13,-0.7543,0.14772,0.14615,0.025
-12.9,-0.7496,0.14633,0.14477,0.024
-12.8,-0.7448,0.14497,0.1434,0.0229
-12.7,-0.74,0.1436,0.14203,0.0219
-12.6,-0.7351,0.14225,0.14068,0.0208
-12.5,-0.7302,0.14091,0.13935,0.0198
-12.4,-0.7253,0.13958,0.13802,0.0187
-12.3,-0.7203,0.13825,0.13669,0.0177
-12.2,-0.7153,0.13693,0.13537,0.0166
-12.1,-0.7102,0.13561,0.13404,0.0155
-12,-0.7051,0.1343,0.13273,0.0145
-11.9,-0.7,0.13299,0.13142,0.0134
-11.8,-0.6949,0.13168,0.13012,0.0124
-11.7,-0.6897,0.13037,0.12881,0.0113
-11.6,-0.6846,0.12908,0.12752,0.0103
-11.5,-0.6794,0.12778,0.12622,0.0092
-11.4,-0.6742,0.1265,0.12494,0.0082
-11.3,-0.669,0.12521,0.12364,0.0072
-11.2,-0.6638,0.12392,0.12236,0.0061
-11.1,-0.6585,0.12264,0.12108,0.0051
-11,-0.6533,0.12136,0.1198,0.0041
-10.9,-0.6481,0.1201,0.11854,0.0031
-10.8,-0.643,0.11883,0.11728,0.0021
-10.7,-0.6378,0.11758,0.11603,0.0011
-10.6,-0.6327,0.11633,0.11478,0.0001
-10.5,-0.6277,0.11509,0.11355,-0.0008
-10.4,-0.6228,0.11387,0.11233,-0.0017
-10.3,-0.618,0.11267,0.11113,-0.0026
-10.2,-0.6134,0.11148,0.10994,-0.0034
-10.1,-0.609,0.11032,0.10879,-0.0041
-10,-0.6051,0.10921,0.10769,-0.0047
-9.9,-0.602,0.10818,0.10667,-0.0051
-9.8,-0.5999,0.10725,0.10574,-0.0052
-9.7,-0.5917,0.10573,0.10422,-0.007
-9.6,-0.5826,0.10409,0.10257,-0.0092
-9.5,-0.574,0.10252,0.101,-0.0111
-9.4,-0.5652,0.10094,0.09942,-0.0131
-9.3,-0.556,0.09935,0.09782,-0.0151
-9.2,-0.5475,0.09779,0.09627,-0.017
-9.1,-0.5391,0.09625,0.09471,-0.0189
-9,-0.5304,0.09466,0.09312,-0.0208
-8.9,-0.5212,0.09304,0.0915,-0.0229
-8.8,-0.5115,0.09134,0.0898,-0.0251
-8.7,-0.5032,0.08971,0.08816,-0.027
-8.6,-0.4933,0.08784,0.08628,-0.0293
-6,-0.088,0.01437,0.01056,-0.1363
-5.9,-0.0749,0.01337,0.00937,-0.137
-5.8,-0.0622,0.01272,0.0086,-0.1374
-5.7,-0.0499,0.01223,0.00799,-0.1376
-5.6,-0.0375,0.01182,0.00748,-0.1378
-5.5,-0.025,0.01147,0.00706,-0.1379
-5.4,-0.0127,0.01116,0.00667,-0.138
-5.3,-0.0003,0.01088,0.00632,-0.1381
-5.2,0.0119,0.01063,0.006,-0.1382
-5.1,0.0241,0.01039,0.00569,-0.1382
-5,0.0363,0.01018,0.0054,-0.1382
-4.9,0.0487,0.00996,0.00513,-0.1383
-4.8,0.061,0.00977,0.00488,-0.1383
-4.7,0.0732,0.00959,0.00464,-0.1383
-4.6,0.0854,0.00943,0.00442,-0.1384
-4.5,0.0974,0.00931,0.00423,-0.1383
-4.4,0.1097,0.00915,0.00405,-0.1383
-4.3,0.122,0.00896,0.00381,-0.1384
-4.2,0.1343,0.00882,0.00363,-0.1384
-4.1,0.1463,0.00871,0.00349,-0.1384
-4,0.1585,0.00861,0.00336,-0.1384
-3.9,0.1706,0.00852,0.00323,-0.1384
-3.8,0.1826,0.00843,0.00311,-0.1383
-3.7,0.1948,0.00835,0.003,-0.1384
-3.6,0.2068,0.00828,0.00289,-0.1383
-3.5,0.2189,0.0082,0.00279,-0.1383
-3.4,0.231,0.00811,0.00268,-0.1383
-3.3,0.2431,0.00804,0.00259,-0.1383
-3.2,0.2552,0.00797,0.00251,-0.1383
-3.1,0.2673,0.00792,0.00243,-0.1383
-3,0.2793,0.00786,0.00235,-0.1383
-2.9,0.2912,0.00783,0.00228,-0.1382
-2.8,0.3033,0.00776,0.0022,-0.1383
-2.7,0.3154,0.0077,0.00214,-0.1383
-2.6,0.3274,0.00766,0.00211,-0.1383
-2.5,0.3392,0.00763,0.00205,-0.1383
-2.4,0.3509,0.00761,0.002,-0.1382
-2.3,0.3626,0.00758,0.00193,-0.1381
-2.2,0.3746,0.00753,0.00188,-0.1381
-2.1,0.3863,0.00752,0.00182,-0.138
-2,0.398,0.00751,0.00178,-0.1379
-1.9,0.41,0.00748,0.00174,-0.1379
-1.8,0.422,0.00746,0.0017,-0.1379
-1.7,0.4336,0.00745,0.00165,-0.1378
-1.6,0.4454,0.00743,0.00162,-0.1378
-1.5,0.4572,0.00742,0.0016,-0.1378
-1.4,0.469,0.00742,0.00157,-0.1377
-1.3,0.4809,0.00742,0.00154,-0.1377
-1.2,0.4924,0.00742,0.00151,-0.1376
-1.1,0.504,0.00743,0.00149,-0.1376
-1,0.5159,0.00742,0.00147,-0.1376
-0.9,0.5277,0.00742,0.00145,-0.1375
-0.8,0.5395,0.00743,0.00144,-0.1375
-0.7,0.5506,0.00748,0.00144,-0.1373
-0.6,0.5623,0.00749,0.00143,-0.1373
-0.5,0.574,0.0075,0.00142,-0.1373
-0.4,0.5857,0.00752,0.00142,-0.1372
-0.3,0.5973,0.00755,0.00141,-0.1372
-0.2,0.6075,0.0077,0.00144,-0.1369
-0.1,0.6189,0.00774,0.00145,-0.1368
0,0.6303,0.00779,0.00145,-0.1367
0.1,0.6418,0.00784,0.00146,-0.1366
0.2,0.6532,0.00788,0.00148,-0.1366
0.3,0.6643,0.00797,0.00151,-0.1364
0.4,0.6749,0.00811,0.00155,-0.1362
0.5,0.6862,0.00817,0.00157,-0.1361
0.6,0.6975,0.00823,0.0016,-0.1361
0.7,0.7088,0.00829,0.00163,-0.136
0.8,0.7197,0.0084,0.00168,-0.1358
0.9,0.7306,0.00852,0.00172,-0.1357
1,0.7408,0.00871,0.00179,-0.1354
1.1,0.7515,0.00884,0.00185,-0.1353
1.2,0.7626,0.00894,0.0019,-0.1352
1.3,0.7735,0.00905,0.00195,-0.135
1.4,0.7844,0.00917,0.002,-0.1349
1.5,0.7952,0.0093,0.00207,-0.1348
1.6,0.806,0.00944,0.00213,-0.1346
1.7,0.8152,0.00978,0.00226,-0.1343
1.8,0.8256,0.00996,0.00235,-0.1341
1.9,0.8361,0.01013,0.00244,-0.1339
2,0.8469,0.01026,0.00251,-0.1338
2.1,0.8579,0.01037,0.00258,-0.1336
2.2,0.869,0.01046,0.00264,-0.1335
2.3,0.8802,0.01054,0.00271,-0.1334
2.4,0.891,0.01067,0.00279,-0.1333
2.5,0.9023,0.01073,0.00284,-0.1332
2.6,0.9136,0.0108,0.0029,-0.1331
2.7,0.9248,0.01087,0.00296,-0.1331
2.8,0.9362,0.01092,0.00302,-0.133
2.9,0.9474,0.01099,0.00307,-0.1329
3,0.9586,0.01106,0.00314,-0.1328
3.1,0.9697,0.01114,0.0032,-0.1327
3.2,0.9809,0.01121,0.00326,-0.1326
3.3,0.9922,0.01126,0.00334,-0.1325
3.4,1.0036,0.0113,0.00341,-0.1324
3.5,1.0149,0.01134,0.00347,-0.1324
3.6,1.0205,0.01011,0.00367,-0.1315
3.7,1.0317,0.0102,0.00374,-0.1313
3.8,1.0427,0.0103,0.0038,-0.1312
3.9,1.0539,0.01039,0.00387,-0.1311
4,1.065,0.01049,0.00395,-0.1309
4.1,1.0763,0.01057,0.00401,-0.1308
4.2,1.0875,0.01065,0.00408,-0.1307
4.3,1.0986,0.01074,0.00415,-0.1306
4.5,1.1206,0.01096,0.00431,-0.1302
4.6,1.1317,0.01105,0.0044,-0.1301
4.7,1.1427,0.01115,0.00449,-0.1299
4.8,1.1536,0.01126,0.00458,-0.1298
4.9,1.1648,0.01134,0.00466,-0.1296
5,1.1758,0.01143,0.00474,-0.1294
5.1,1.1868,0.01154,0.00483,-0.1293
5.2,1.1974,0.01168,0.00493,-0.129
5.3,1.2084,0.01178,0.00502,-0.1289
5.4,1.2194,0.01188,0.00511,-0.1287
5.5,1.2302,0.01199,0.00521,-0.1285
5.6,1.241,0.01211,0.00531,-0.1283
5.7,1.2519,0.01222,0.00542,-0.1281
5.8,1.2628,0.01232,0.00553,-0.1279
5.9,1.2733,0.01247,0.00564,-0.1276
6,1.2839,0.0126,0.00576,-0.1274
6.1,1.2947,0.01271,0.00587,-0.1272
6.2,1.3055,0.01282,0.00598,-0.1269
6.3,1.3162,0.01294,0.00609,-0.1267
6.4,1.3268,0.01307,0.00621,-0.1264
6.5,1.3373,0.01321,0.00634,-0.1262
6.6,1.3478,0.01336,0.00647,-0.1259
6.7,1.3584,0.01348,0.00659,-0.1256
6.8,1.3689,0.01362,0.00672,-0.1253
6.9,1.3792,0.01377,0.00687,-0.125
7,1.3896,0.01392,0.00702,-0.1247
7.1,1.4002,0.01404,0.00715,-0.1244
7.2,1.4106,0.01418,0.00729,-0.1241
7.3,1.421,0.01432,0.00743,-0.1238
7.4,1.4308,0.01452,0.00759,-0.1234
7.5,1.4411,0.01467,0.00775,-0.1231
7.6,1.4515,0.01481,0.0079,-0.1228
7.7,1.4618,0.01495,0.00805,-0.1224
7.8,1.4719,0.01511,0.00821,-0.1221
7.9,1.4819,0.01528,0.00837,-0.1217
8,1.4919,0.01546,0.00855,-0.1213
8.1,1.5019,0.01563,0.00873,-0.1209
8.2,1.512,0.01578,0.00891,-0.1205
8.3,1.522,0.01594,0.00908,-0.1201
8.4,1.532,0.01611,0.00926,-0.1197
8.5,1.5418,0.01628,0.00944,-0.1193
8.6,1.5511,0.01651,0.00965,-0.1188
8.7,1.5607,0.01671,0.00987,-0.1183
8.8,1.5705,0.01687,0.01005,-0.1179
8.9,1.5801,0.01706,0.01024,-0.1174
9,1.5897,0.01725,0.01044,-0.1169
9.1,1.5986,0.01749,0.01066,-0.1164
9.2,1.6078,0.01771,0.01089,-0.1159
9.3,1.6171,0.01792,0.01112,-0.1153
9.4,1.6265,0.0181,0.01133,-0.1148
9.5,1.6358,0.0183,0.01156,-0.1143
9.6,1.6449,0.0185,0.01178,-0.1137
9.7,1.654,0.01871,0.01201,-0.1131
9.8,1.6628,0.01893,0.01225,-0.1125
9.9,1.6715,0.01917,0.0125,-0.1119
10,1.6795,0.01945,0.01279,-0.1112
10.1,1.6881,0.01968,0.01305,-0.1105
10.2,1.6966,0.01989,0.01329,-0.1098
10.3,1.7049,0.02012,0.01355,-0.1091
10.4,1.7131,0.02036,0.01381,-0.1084
10.5,1.721,0.0206,0.01408,-0.1076
10.6,1.7286,0.02087,0.01436,-0.1068
10.7,1.7359,0.02114,0.01466,-0.1059
10.8,1.7428,0.02144,0.01498,-0.105
10.9,1.7499,0.02171,0.01528,-0.1041
11,1.7569,0.02197,0.01559,-0.1032
11.1,1.7633,0.02223,0.01589,-0.1022
11.2,1.769,0.02251,0.0162,-0.101
11.3,1.7744,0.02281,0.01653,-0.0998
11.4,1.7795,0.02313,0.01687,-0.0986
11.5,1.7843,0.02347,0.01724,-0.0974
11.6,1.7891,0.02382,0.01763,-0.0962
11.7,1.7941,0.02416,0.01799,-0.095
11.8,1.7989,0.02451,0.01838,-0.0938
11.9,1.8035,0.02488,0.01878,-0.0926
12,1.8077,0.02527,0.01921,-0.0914
12.1,1.8116,0.0257,0.01968,-0.0902
12.2,1.8159,0.02609,0.02012,-0.089
12.3,1.82,0.0265,0.02057,-0.0878
12.4,1.8238,0.02693,0.02105,-0.0866
12.5,1.8274,0.02738,0.02154,-0.0854
12.6,1.8308,0.02784,0.02206,-0.0842
12.7,1.834,0.02833,0.02259,-0.083
12.8,1.8369,0.02884,0.02315,-0.0819
12.9,1.8396,0.02937,0.02374,-0.0807
13,1.8419,0.02993,0.02435,-0.0795
13.1,1.8439,0.03051,0.025,-0.0783
13.2,1.8454,0.03114,0.02568,-0.0772
13.3,1.8471,0.03176,0.02637,-0.076
13.4,1.8486,0.03241,0.02708,-0.0749
13.5,1.8499,0.03309,0.02782,-0.0739
13.6,1.8509,0.03379,0.02859,-0.0728
13.7,1.8517,0.03452,0.02939,-0.0718
13.8,1.8522,0.03529,0.03022,-0.0709
13.9,1.8523,0.03609,0.0311,-0.07
14,1.8524,0.03693,0.032,-0.0691
14.1,1.8522,0.0378,0.03294,-0.0683
14.2,1.8517,0.03872,0.03394,-0.0676
14.3,1.851,0.03969,0.03497,-0.0669
14.4,1.8502,0.04068,0.03604,-0.0664
14.5,1.8489,0.04174,0.03717,-0.0659
14.6,1.8474,0.04283,0.03834,-0.0655
14.7,1.8455,0.044,0.03958,-0.0652
14.8,1.8436,0.0452,0.04086,-0.065
14.9,1.8416,0.04646,0.04219,-0.065
15,1.8391,0.0478,0.04361,-0.0651
15.1,1.8365,0.0492,0.04509,-0.0654
15.2,1.8337,0.05066,0.04663,-0.0658
15.3,1.8308,0.05219,0.04825,-0.0664
15.4,1.8275,0.05382,0.04995,-0.0672
15.5,1.824,0.05553,0.05175,-0.0682
15.6,1.8202,0.05735,0.05366,-0.0694
15.7,1.8164,0.05928,0.05568,-0.0709
15.8,1.812,0.0614,0.05789,-0.0728
15.9,1.808,0.06361,0.06019,-0.0749
16,1.8032,0.0661,0.06278,-0.0774
16.1,1.7983,0.0688,0.06558,-0.0804
16.2,1.793,0.07179,0.06867,-0.0838
16.3,1.7871,0.07516,0.07215,-0.0878
16.4,1.7803,0.07903,0.07613,-0.0924
16.5,1.7722,0.08359,0.08083,-0.0978
16.7,1.7469,0.09674,0.09428,-0.1123
16.8,1.7281,0.10507,0.10278,-0.1204
17.1,1.6762,0.12635,0.12436,-0.1412
17.3,1.6523,0.13755,0.1357,-0.1523
17.4,1.6426,0.14259,0.14081,-0.1574
17.5,1.6352,0.14695,0.14521,-0.1619
17.6,1.6271,0.15157,0.14988,-0.1666
17.7,1.6215,0.15537,0.15373,-0.1707
17.8,1.615,0.15955,0.15796,-0.1751
17.9,1.6105,0.16312,0.16156,-0.1789
18,1.6069,0.16645,0.16493,-0.1826
18.1,1.6024,0.17032,0.16884,-0.1865
18.2,1.6,0.1735,0.17205,-0.1898
18.3,1.5983,0.17649,0.17507,-0.1929
18.4,1.5956,0.18013,0.17875,-0.1964
18.5,1.5942,0.18335,0.182,-0.1994
18.6,1.5936,0.18627,0.18494,-0.2022
18.7,1.5933,0.18914,0.18784,-0.205
18.8,1.5922,0.19254,0.19127,-0.2079
18.9,1.5916,0.19579,0.19455,-0.2108
19,1.5918,0.19865,0.19743,-0.2133
19.1,1.5923,0.20143,0.20024,-0.2158
19.2,1.5927,0.20433,0.20316,-0.2183
19.3,1.5921,0.20798,0.20683,-0.2212
19.4,1.5925,0.21107,0.20995,-0.2238
19.6,1.5945,0.21668,0.21559,-0.2285
19.7,1.5956,0.21954,0.21846,-0.2309
19.8,1.5961,0.22296,0.2219,-0.2336
19.9,1.597,0.22612,0.22508,-0.2361
20,1.5986,0.22885,0.22782,-0.2383
20.1,1.6003,0.23155,0.23054,-0.2406
20.2,1.6022,0.23409,0.23308,-0.2427
20.3,1.6042,0.23662,0.23563,-0.2448
20.4,1.6065,0.23886,0.23787,-0.2468
20.5,1.6086,0.24131,0.24032,-0.2489
20.6,1.6107,0.24372,0.24274,-0.2509
20.7,1.6134,0.24551,0.24453,-0.2527
20.8,1.6157,0.24766,0.24669,-0.2547
20.9,1.6182,0.2494,0.24843,-0.2565
21,1.6131,0.265,0.26405,-0.2644
21.1,1.6159,0.26795,0.26702,-0.2665
21.2,1.6189,0.27059,0.26965,-0.2684
21.3,1.6219,0.27295,0.27201,-0.2702
21.4,1.625,0.27516,0.27423,-0.272
21.5,1.6281,0.27729,0.27636,-0.2737
21.6,1.6313,0.27929,0.27837,-0.2754
21.7,1.6345,0.28107,0.28014,-0.2771
21.8,1.6377,0.28294,0.28203,-0.2788
21.9,1.6408,0.28483,0.28392,-0.2805
22,1.6439,0.28662,0.28571,-0.2821
22.1,1.6469,0.28842,0.28751,-0.2838
22.2,1.65,0.29019,0.28928,-0.2854
22.3,1.6531,0.29191,0.29101,-0.2871
22.4,1.6561,0.29359,0.2927,-0.2887
22.5,1.6592,0.29533,0.29444,-0.2904
22.6,1.6622,0.29702,0.29613,-0.2921
22.7,1.6652,0.29868,0.29779,-0.2937
22.8,1.6681,0.30033,0.29944,-0.2954
22.9,1.6711,0.30201,0.30113,-0.297
23,1.674,0.3036,0.30273,-0.2987
23.1,1.6769,0.3052,0.30433,-0.3004
23.2,1.6797,0.3068,0.30592,-0.3021
23.3,1.6825,0.30839,0.30752,-0.3038
23.4,1.6851,0.30991,0.30905,-0.3055
23.5,1.6886,0.31354,0.31267,-0.3077
23.6,1.6941,0.32135,0.32047,-0.3107
23.7,1.6978,0.32461,0.32373,-0.3127
23.8,1.7012,0.32725,0.32637,-0.3146
23.9,1.7046,0.32971,0.32884,-0.3164
24,1.7079,0.33206,0.33119,-0.3183
24.1,1.7111,0.33425,0.33338,-0.3201
24.2,1.7143,0.33637,0.3355,-0.3219
24.3,1.7175,0.33848,0.33762,-0.3237
24.4,1.7206,0.3405,0.33964,-0.3255
24.5,1.7237,0.34251,0.34166,-0.3273
24.6,1.7268,0.34448,0.34363,-0.3291
24.7,1.7298,0.34642,0.34557,-0.3309
24.8,1.7328,0.34835,0.3475,-0.3327
24.9,1.7358,0.35025,0.34941,-0.3345
25,1.7388,0.35211,0.35127,-0.3363
25.1,1.7417,0.35397,0.35315,-0.3381
25.2,1.7447,0.35584,0.35502,-0.3399
25.3,1.7476,0.35767,0.35686,-0.3417
25.4,1.7504,0.35951,0.3587,-0.3435
25.5,1.7533,0.36129,0.36048,-0.3453
25.6,1.7561,0.36308,0.36227,-0.3471
25.7,1.7589,0.36485,0.36405,-0.3489
25.8,1.7617,0.36666,0.36587,-0.3508
25.9,1.7645,0.36842,0.36763,-0.3526
26,1.7673,0.37018,0.3694,-0.3544
26.1,1.77,0.37192,0.37113,-0.3562
26.2,1.7727,0.3737,0.37292,-0.3581
26.3,1.7754,0.37545,0.37468,-0.3599
26.4,1.778,0.37717,0.3764,-0.3618
26.5,1.7807,0.37889,0.37812,-0.3636
26.6,1.7833,0.38061,0.37985,-0.3655
26.7,1.786,0.38247,0.38171,-0.3673
26.8,1.7885,0.38413,0.38338,-0.3692
26.9,1.791,0.38578,0.38503,-0.3711
27,1.7936,0.38755,0.38681,-0.3729
27.1,1.7958,0.38894,0.38821,-0.3748
27.2,1.7982,0.39058,0.38984,-0.3767
27.3,1.8006,0.39229,0.39156,-0.3786
27.4,1.8031,0.39412,0.39339,-0.3805
27.5,1.8054,0.39594,0.39522,-0.3824
27.6,1.8086,0.3986,0.39786,-0.3845
27.7,1.8133,0.40308,0.40235,-0.3869
27.8,1.8188,0.40874,0.408,-0.3895
27.9,1.8226,0.41224,0.41151,-0.3917
28,1.8259,0.41512,0.41439,-0.3939
28.1,1.8291,0.4178,0.41707,-0.396
28.2,1.832,0.42021,0.41948,-0.398
28.3,1.835,0.42259,0.42187,-0.4001
28.4,1.8377,0.42485,0.42413,-0.4021
28.5,1.8404,0.42702,0.42631,-0.4042
28.6,1.8431,0.42919,0.42849,-0.4062
28.7,1.8458,0.43132,0.43062,-0.4083
28.8,1.8484,0.43344,0.43274,-0.4103
28.9,1.8509,0.43549,0.4348,-0.4123
29,1.8535,0.43755,0.43686,-0.4144
29.1,1.856,0.43957,0.43889,-0.4165
29.2,1.8584,0.44158,0.4409,-0.4185
29.3,1.8609,0.44354,0.44286,-0.4206
29.4,1.8633,0.44553,0.44485,-0.4226
29.5,1.8656,0.44748,0.44681,-0.4247
29.6,1.868,0.44943,0.44876,-0.4267
29.7,1.8702,0.4513,0.45064,-0.4288
29.8,1.8725,0.45326,0.4526,-0.4308
29.9,1.8748,0.45513,0.45448,-0.4329
30,1.877,0.45707,0.45642,-0.435

