airfoilName st17.dat
Re 	910000
M 	2.500000e-01
N 	4.500000e+00
VACC 	0 VACCflag 1
XTR 	1.00 	1.00 XTRflag 0
alpha,cl,cd,cdp,cm
0,0.6301,0.00774,0.00144,-0.1367
0.1,0.6416,0.00779,0.00145,-0.1366
0.2,0.653,0.00784,0.00146,-0.1365
0.3,0.6641,0.00792,0.00149,-0.1364
0.4,0.6747,0.00806,0.00154,-0.1362
0.5,0.6861,0.00812,0.00157,-0.1362
0.6,0.6974,0.00819,0.00159,-0.1361
0.7,0.7088,0.00825,0.00162,-0.136
0.8,0.7193,0.0084,0.00168,-0.1358
0.9,0.7305,0.00848,0.00171,-0.1357
1,0.7408,0.00868,0.00179,-0.1355
1.1,0.7515,0.00882,0.00184,-0.1353
1.2,0.7625,0.00892,0.0019,-0.1352
1.3,0.7734,0.00904,0.00195,-0.1351
1.4,0.7843,0.00916,0.002,-0.135
1.5,0.7951,0.00929,0.00207,-0.1348
1.6,0.8058,0.00944,0.00213,-0.1347
1.7,0.8149,0.0098,0.00228,-0.1343
1.8,0.8254,0.00997,0.00236,-0.1341
1.9,0.8363,0.0101,0.00243,-0.134
2,0.8474,0.0102,0.0025,-0.1339
2.1,0.8585,0.01029,0.00256,-0.1338
2.2,0.8697,0.01036,0.00262,-0.1337
2.3,0.8806,0.01049,0.0027,-0.1336
2.4,0.8919,0.01055,0.00275,-0.1335
2.5,0.9031,0.01063,0.0028,-0.1334
2.6,0.9145,0.01068,0.00287,-0.1333
2.7,0.9258,0.01074,0.00292,-0.1333
2.8,0.9371,0.0108,0.00297,-0.1332
2.9,0.9483,0.01087,0.00304,-0.1331
3,0.9597,0.01093,0.00309,-0.133
3.1,0.9707,0.01102,0.00315,-0.1329
3.2,0.982,0.01109,0.00322,-0.1328
3.3,0.9934,0.01112,0.00329,-0.1327
3.4,1.0047,0.01117,0.00335,-0.1327
3.5,1.0159,0.01123,0.00341,-0.1326
3.6,1.0272,0.01127,0.00349,-0.1325
3.7,1.0329,0.01008,0.00369,-0.1316
3.8,1.0441,0.01016,0.00375,-0.1315
3.9,1.0552,0.01026,0.00382,-0.1313
4,1.0665,0.01033,0.00389,-0.1312
4.1,1.0777,0.01041,0.00395,-0.1311
4.2,1.0889,0.0105,0.00402,-0.131
4.3,1.1,0.0106,0.00409,-0.1308
4.4,1.1109,0.01071,0.00418,-0.1307
4.5,1.1221,0.0108,0.00425,-0.1305
4.6,1.1331,0.0109,0.00434,-0.1304
4.7,1.1441,0.01101,0.00443,-0.1302
4.8,1.1553,0.01109,0.00451,-0.1301
4.9,1.1664,0.01118,0.00458,-0.1299
5,1.1774,0.01127,0.00467,-0.1298
5.1,1.1881,0.01142,0.00477,-0.1296
5.2,1.1991,0.01151,0.00485,-0.1294
5.3,1.2101,0.01161,0.00494,-0.1292
5.4,1.2211,0.01171,0.00503,-0.129
5.5,1.2319,0.01183,0.00513,-0.1288
5.6,1.2428,0.01194,0.00524,-0.1286
5.7,1.2537,0.01204,0.00533,-0.1284
5.8,1.2643,0.01218,0.00545,-0.1282
5.9,1.275,0.01231,0.00556,-0.128
6,1.2858,0.01242,0.00567,-0.1278
6.1,1.2967,0.01253,0.00578,-0.1275
6.2,1.3075,0.01264,0.00588,-0.1273
6.3,1.3182,0.01276,0.00599,-0.1271
6.4,1.3287,0.0129,0.00611,-0.1268
6.5,1.3394,0.01303,0.00624,-0.1266
6.6,1.3499,0.01316,0.00636,-0.1263
6.7,1.3605,0.01329,0.00649,-0.126
6.8,1.3709,0.01344,0.00662,-0.1257
6.9,1.3813,0.01359,0.00678,-0.1254
7,1.3919,0.01371,0.0069,-0.1252
7.1,1.4025,0.01384,0.00703,-0.1249
7.2,1.413,0.01397,0.00716,-0.1246
7.3,1.4229,0.01417,0.00732,-0.1242
7.4,1.4332,0.01432,0.00748,-0.1239
7.5,1.4436,0.01445,0.00762,-0.1236
7.6,1.454,0.01459,0.00776,-0.1233
7.7,1.4643,0.01474,0.00791,-0.1229
7.8,1.4744,0.0149,0.00807,-0.1226
7.9,1.4844,0.01508,0.00824,-0.1222
8,1.4945,0.01525,0.00842,-0.1218
8.1,1.5047,0.01539,0.00859,-0.1214
8.2,1.5148,0.01555,0.00875,-0.121
8.3,1.5249,0.01571,0.00892,-0.1207
8.4,1.5348,0.01587,0.0091,-0.1202
8.5,1.5443,0.01609,0.0093,-0.1198
8.6,1.554,0.01629,0.0095,-0.1193
8.7,1.5639,0.01645,0.00968,-0.1189
8.8,1.5736,0.01663,0.00987,-0.1184
8.9,1.5833,0.01681,0.01006,-0.118
9,1.5924,0.01705,0.01028,-0.1175
9.1,1.6018,0.01726,0.01049,-0.117
9.2,1.6111,0.01746,0.01072,-0.1164
9.3,1.6207,0.01764,0.01092,-0.1159
9.4,1.6301,0.01783,0.01112,-0.1154
9.5,1.6395,0.01802,0.01135,-0.1149
9.6,1.6486,0.01822,0.01157,-0.1143
9.7,1.6577,0.01844,0.0118,-0.1138
9.8,1.6666,0.01866,0.01204,-0.1132
9.9,1.6753,0.0189,0.01229,-0.1125
10,1.6837,0.01916,0.01256,-0.1118
10.1,1.6924,0.01937,0.0128,-0.1112
10.2,1.7011,0.01958,0.01304,-0.1106
10.3,1.7095,0.01981,0.01329,-0.1099
10.4,1.7177,0.02005,0.01355,-0.1091
10.5,1.7256,0.0203,0.01382,-0.1084
10.6,1.7333,0.02057,0.01411,-0.1076
10.7,1.7406,0.02086,0.01441,-0.1067
10.8,1.748,0.02111,0.01471,-0.1059
10.9,1.7555,0.02136,0.01499,-0.105
11,1.7626,0.02162,0.01529,-0.1041
11.1,1.7694,0.02189,0.01559,-0.1031
11.2,1.7755,0.02217,0.0159,-0.1021
11.3,1.7808,0.02247,0.01623,-0.1009
11.4,1.7858,0.0228,0.01658,-0.0996
11.5,1.7906,0.02313,0.01693,-0.0984
11.6,1.7957,0.02345,0.01728,-0.0972
11.7,1.8007,0.02378,0.01765,-0.096
11.8,1.8054,0.02414,0.01803,-0.0948
11.9,1.8097,0.02452,0.01845,-0.0935
12,1.8141,0.0249,0.01888,-0.0923
12.1,1.8185,0.02528,0.01929,-0.0911
12.2,1.8229,0.02566,0.01972,-0.0899
12.3,1.8271,0.02606,0.02017,-0.0887
12.4,1.8309,0.02649,0.02064,-0.0875
12.5,1.8346,0.02693,0.02112,-0.0863
12.6,1.838,0.02738,0.02163,-0.0851
12.7,1.841,0.02787,0.02216,-0.0838
12.8,1.8439,0.02838,0.02271,-0.0826
12.9,1.8464,0.02891,0.0233,-0.0814
13,1.8488,0.02946,0.02392,-0.0802
13.1,1.8511,0.03002,0.02454,-0.079
13.2,1.8532,0.0306,0.02517,-0.0779
13.3,1.855,0.0312,0.02584,-0.0767
13.4,1.8567,0.03182,0.02652,-0.0756
13.5,1.8581,0.03248,0.02724,-0.0745
13.6,1.8593,0.03316,0.02799,-0.0735
13.7,1.8602,0.03388,0.02877,-0.0724
13.8,1.8608,0.03462,0.02958,-0.0714
13.9,1.8611,0.0354,0.03042,-0.0705
14,1.8612,0.03621,0.0313,-0.0696
14.1,1.8611,0.03706,0.03222,-0.0687
14.2,1.8608,0.03796,0.03318,-0.0679
14.3,1.8601,0.03889,0.03419,-0.0672
14.4,1.8594,0.03986,0.03523,-0.0666
14.5,1.8583,0.04089,0.03633,-0.0661
14.6,1.8569,0.04195,0.03746,-0.0656
14.7,1.8552,0.04308,0.03867,-0.0652
14.8,1.8533,0.04425,0.03991,-0.065
14.9,1.8513,0.04548,0.04121,-0.0649
15,1.8488,0.04679,0.0426,-0.0649
15.1,1.8463,0.04814,0.04403,-0.065
15.2,1.8436,0.04956,0.04553,-0.0653
15.3,1.8406,0.05106,0.04711,-0.0658
15.4,1.8375,0.05263,0.04876,-0.0665
15.5,1.834,0.0543,0.05051,-0.0673
15.6,1.8303,0.05605,0.05235,-0.0684
15.7,1.8264,0.05792,0.0543,-0.0697
15.8,1.822,0.05996,0.05643,-0.0714
15.9,1.8181,0.06206,0.05863,-0.0733
16,1.8132,0.06446,0.06112,-0.0757
16.1,1.8083,0.06702,0.06378,-0.0784
16.2,1.8031,0.06985,0.06671,-0.0815
16.3,1.7974,0.07301,0.06997,-0.0852
16.4,1.7912,0.07657,0.07364,-0.0894
16.5,1.7839,0.0807,0.07789,-0.0943
16.6,1.7746,0.08576,0.08308,-0.1003
16.7,1.7626,0.09211,0.08958,-0.1074
16.8,1.7459,0.10008,0.09772,-0.1155
17,1.706,0.11621,0.11412,-0.131
17.1,1.6885,0.12323,0.12124,-0.1379
17.4,1.652,0.14013,0.13834,-0.1547
17.5,1.6423,0.14516,0.14344,-0.1598
17.6,1.6341,0.14979,0.14812,-0.1646
17.7,1.6273,0.15396,0.15234,-0.169
17.8,1.6212,0.15799,0.1564,-0.1732
17.9,1.6153,0.16198,0.16044,-0.1775
18,1.6115,0.16536,0.16386,-0.1812
18.1,1.6067,0.16926,0.1678,-0.1852
18.2,1.6036,0.17261,0.17118,-0.1887
18.3,1.6018,0.17561,0.17421,-0.1918
18.4,1.5993,0.17906,0.1777,-0.1952
18.5,1.5971,0.18256,0.18123,-0.1985
18.6,1.5963,0.18553,0.18422,-0.2014
18.9,1.594,0.19509,0.19387,-0.2101
19,1.5941,0.19802,0.19683,-0.2127
19.1,1.5946,0.20077,0.19959,-0.2151
19.2,1.5951,0.20358,0.20242,-0.2176
19.3,1.595,0.20683,0.2057,-0.2203
19.4,1.5949,0.21017,0.20906,-0.223
19.5,1.5958,0.21299,0.2119,-0.2254
19.6,1.5971,0.21563,0.21456,-0.2277
19.7,1.5984,0.21828,0.21722,-0.2299
19.8,1.5997,0.22098,0.21994,-0.2322
19.9,1.6005,0.22412,0.2231,-0.2347
20,1.6016,0.22712,0.2261,-0.2372
20.1,1.6033,0.22977,0.22877,-0.2394
20.2,1.6052,0.23219,0.23119,-0.2415
20.3,1.6073,0.23455,0.23356,-0.2435
20.4,1.6096,0.23669,0.23571,-0.2455
20.5,1.6119,0.2388,0.23783,-0.2474
20.6,1.6142,0.24095,0.23999,-0.2493
20.7,1.6166,0.24278,0.24183,-0.2512
20.8,1.6188,0.24493,0.24398,-0.2532
20.9,1.618,0.25085,0.24993,-0.257
21.1,1.6166,0.26754,0.26665,-0.2663
21.2,1.6195,0.27013,0.26924,-0.2682
21.3,1.6225,0.27245,0.27157,-0.27
21.4,1.6256,0.27463,0.27375,-0.2718
21.5,1.6287,0.27675,0.27587,-0.2736
21.7,1.6351,0.28048,0.2796,-0.2769
21.8,1.6382,0.28235,0.28148,-0.2786
21.9,1.6413,0.28425,0.28338,-0.2803
22,1.6444,0.28604,0.28517,-0.282
22.1,1.6474,0.28783,0.28697,-0.2836
22.2,1.6505,0.2896,0.28874,-0.2853
22.3,1.6536,0.29132,0.29047,-0.287
22.4,1.6566,0.293,0.29215,-0.2886
22.5,1.6596,0.29474,0.29389,-0.2903
22.6,1.6626,0.29643,0.29559,-0.2919
22.7,1.6656,0.29809,0.29725,-0.2936
22.8,1.6685,0.29973,0.29889,-0.2953
22.9,1.6714,0.30141,0.30057,-0.2969
23,1.6743,0.303,0.30217,-0.2986
23.1,1.6771,0.30459,0.30376,-0.3003
23.2,1.6799,0.30616,0.30533,-0.302
23.3,1.6824,0.30771,0.30689,-0.3038
23.4,1.6873,0.31498,0.31414,-0.3067
23.5,1.6914,0.31959,0.31875,-0.309
23.6,1.6951,0.32278,0.32194,-0.311
23.7,1.6985,0.32538,0.32454,-0.3129
23.8,1.7018,0.32774,0.32691,-0.3148
23.9,1.7051,0.33003,0.3292,-0.3166
24,1.7083,0.33224,0.33141,-0.3184
24.1,1.7115,0.33434,0.33352,-0.3202
24.2,1.7146,0.3364,0.33558,-0.322
24.3,1.7178,0.33844,0.33763,-0.3238
24.4,1.7208,0.34042,0.33961,-0.3256
24.5,1.7239,0.3424,0.34159,-0.3274
24.6,1.727,0.34432,0.34352,-0.3291
24.7,1.73,0.34622,0.34542,-0.3309
24.8,1.733,0.34813,0.34733,-0.3327
24.9,1.736,0.35,0.34921,-0.3345
25,1.7389,0.35183,0.35104,-0.3363
25.1,1.7418,0.35366,0.35288,-0.3381
25.2,1.7447,0.35551,0.35473,-0.3399
25.3,1.7476,0.35732,0.35655,-0.3417
25.4,1.7505,0.35914,0.35837,-0.3435
25.5,1.7533,0.3609,0.36013,-0.3453
25.6,1.7561,0.36266,0.3619,-0.3471
25.7,1.7589,0.36441,0.36366,-0.349
25.8,1.7617,0.36621,0.36546,-0.3508
25.9,1.7644,0.36795,0.3672,-0.3526
26,1.7672,0.36969,0.36895,-0.3544
26.1,1.7699,0.37141,0.37067,-0.3563
26.2,1.7726,0.37318,0.37245,-0.3581
26.3,1.7752,0.37492,0.37419,-0.3599
26.4,1.7779,0.37663,0.3759,-0.3618
26.5,1.7805,0.37833,0.3776,-0.3636
26.6,1.7831,0.38004,0.37932,-0.3655
26.7,1.7857,0.38188,0.38117,-0.3673
26.8,1.7883,0.38352,0.38281,-0.3692
26.9,1.7907,0.38517,0.38447,-0.3711
27.1,1.7955,0.38839,0.3877,-0.3748
27.2,1.7978,0.39008,0.38939,-0.3767
27.3,1.8002,0.39187,0.39118,-0.3786
27.4,1.8035,0.39463,0.39394,-0.3807
27.5,1.8075,0.39825,0.39755,-0.383
27.6,1.8128,0.40362,0.40292,-0.3855
27.7,1.8174,0.40813,0.40743,-0.3879
27.8,1.8207,0.41103,0.41033,-0.39
27.9,1.8238,0.41357,0.41288,-0.3921
28,1.8268,0.41603,0.41533,-0.3941
28.1,1.8297,0.41843,0.41774,-0.3962
28.2,1.8326,0.42069,0.42,-0.3982
28.3,1.8354,0.42294,0.42226,-0.4003
28.4,1.8381,0.4251,0.42443,-0.4023
28.5,1.8407,0.42721,0.42655,-0.4043
28.6,1.8434,0.42933,0.42866,-0.4064
28.7,1.846,0.4314,0.43073,-0.4084
28.8,1.8485,0.43346,0.4328,-0.4104
28.9,1.851,0.43549,0.43484,-0.4125
29,1.8536,0.43749,0.43684,-0.4145
29.1,1.856,0.43947,0.43883,-0.4165
29.2,1.8584,0.44144,0.4408,-0.4186
29.3,1.8608,0.44337,0.44273,-0.4206
29.4,1.8632,0.44533,0.4447,-0.4227
29.5,1.8655,0.44726,0.44663,-0.4247
29.6,1.8679,0.44918,0.44855,-0.4268
29.7,1.8701,0.45101,0.45039,-0.4288
29.8,1.8724,0.45296,0.45235,-0.4309
29.9,1.8746,0.4548,0.45419,-0.4329
30,1.8768,0.45672,0.45611,-0.435

