airfoilName st18.dat
Re 	710000
M 	2.500000e-01
N 	4.500000e+00
VACC 	0 VACCflag 1
XTR 	1.00 	1.00 XTRflag 0
alpha,cl,cd,cdp,cm
-14.9,-0.8273,0.184,0.18226,0.0451
-14.8,-0.8228,0.18246,0.18071,0.044
-14.7,-0.8183,0.18092,0.17917,0.0428
-14.6,-0.8137,0.17937,0.17762,0.0417
-14.5,-0.8091,0.17782,0.17607,0.0405
-14.4,-0.8045,0.17627,0.17452,0.0394
-14.3,-0.7999,0.17472,0.17297,0.0382
-14.2,-0.7953,0.17316,0.17141,0.0371
-14.1,-0.7906,0.17161,0.16986,0.036
-14,-0.7859,0.17005,0.1683,0.0348
-13.9,-0.7813,0.1685,0.16675,0.0337
-13.8,-0.7765,0.16694,0.16519,0.0326
-13.7,-0.7718,0.16538,0.16363,0.0314
-13.6,-0.7671,0.16382,0.16206,0.0303
-13.5,-0.7624,0.16225,0.16049,0.0292
-13.4,-0.7576,0.16067,0.15892,0.028
-13.3,-0.7528,0.15908,0.15733,0.0269
-13.2,-0.748,0.15748,0.15573,0.0258
-13.1,-0.7431,0.15586,0.15411,0.0246
-13,-0.7382,0.15422,0.15247,0.0235
-12.9,-0.7333,0.15256,0.15081,0.0224
-12.8,-0.7284,0.15086,0.14911,0.0213
-12.7,-0.7235,0.1491,0.14735,0.0201
-12.6,-0.7147,0.14592,0.14417,0.0179
-12.3,-0.6946,0.14094,0.13921,0.0134
-12.2,-0.6906,0.13934,0.13761,0.0125
-12.1,-0.6868,0.1377,0.13598,0.0117
-12,-0.6831,0.13605,0.13433,0.0109
-11.9,-0.6791,0.13446,0.13274,0.0101
-11.8,-0.6753,0.13284,0.13112,0.0093
-11.7,-0.6716,0.13124,0.12951,0.0085
-11.6,-0.6677,0.1297,0.12797,0.0076
-11.5,-0.6636,0.12821,0.12648,0.0068
-11.4,-0.6594,0.12677,0.12504,0.0059
-11.3,-0.6551,0.12537,0.12364,0.005
-11.2,-0.6507,0.12401,0.12229,0.0041
-11.1,-0.6461,0.1227,0.12097,0.0032
-11,-0.6416,0.12142,0.11969,0.0023
-10.9,-0.637,0.12016,0.11844,0.0014
-10.8,-0.6323,0.11892,0.1172,0.0005
-10.7,-0.6277,0.11772,0.116,-0.0003
-10.6,-0.6231,0.11652,0.11481,-0.0012
-10.5,-0.6185,0.11536,0.11365,-0.002
-10.4,-0.614,0.1142,0.1125,-0.0028
-10.3,-0.6096,0.11308,0.11138,-0.0036
-10.2,-0.6054,0.11198,0.11028,-0.0043
-10.1,-0.6015,0.11093,0.10923,-0.0049
-10,-0.5981,0.10993,0.10824,-0.0054
-9.9,-0.5954,0.10898,0.1073,-0.0057
-9.8,-0.5935,0.10812,0.10645,-0.0057
-9.7,-0.5929,0.1074,0.10574,-0.0055
-9.6,-0.5848,0.10598,0.10432,-0.0072
-9.5,-0.5765,0.10455,0.10289,-0.0091
-9.4,-0.568,0.10312,0.10146,-0.011
-9.3,-0.5593,0.10169,0.10002,-0.0129
-9.2,-0.5503,0.10024,0.09856,-0.0149
-9.1,-0.5407,0.09874,0.09706,-0.0171
-9,-0.5323,0.09735,0.09566,-0.0189
-8.9,-0.5234,0.09594,0.09424,-0.0208
-8.8,-0.5141,0.09449,0.09279,-0.0229
-8.7,-0.5043,0.09302,0.09131,-0.0251
-8.6,-0.4937,0.09149,0.08977,-0.0275
-8.5,-0.4845,0.09008,0.08836,-0.0295
-8.4,-0.4744,0.08861,0.08688,-0.0317
-8.3,-0.464,0.08712,0.08539,-0.034
-8.2,-0.4522,0.08554,0.0838,-0.0367
-8.1,-0.441,0.08398,0.08223,-0.0391
-8,-0.4293,0.08238,0.08062,-0.0417
-7.9,-0.4197,0.08096,0.07919,-0.0437
-7.8,-0.4096,0.07949,0.07772,-0.0458
-7.7,-0.3987,0.07798,0.07619,-0.048
-7.6,-0.3873,0.07641,0.07462,-0.0505
-7.5,-0.3753,0.07481,0.07301,-0.053
-7.4,-0.3629,0.07315,0.07133,-0.0556
-7.3,-0.3521,0.0716,0.06977,-0.0578
-5.7,-0.0457,0.0151,0.01129,-0.1397
-5.6,-0.0322,0.01396,0.00992,-0.1406
-5.5,-0.0195,0.01323,0.00901,-0.141
-5.4,-0.0071,0.0127,0.00836,-0.1413
-5.3,0.0051,0.0123,0.00784,-0.1414
-5.2,0.0175,0.01198,0.00743,-0.1416
-5.1,0.0303,0.01139,0.00673,-0.1419
-5,0.0426,0.01101,0.00625,-0.1421
-4.9,0.055,0.01072,0.00589,-0.1422
-4.8,0.0671,0.01048,0.0056,-0.1422
-4.7,0.0794,0.01027,0.00533,-0.1423
-4.6,0.0916,0.01007,0.00508,-0.1424
-4.5,0.1037,0.00989,0.00485,-0.1424
-4.4,0.1159,0.00972,0.00462,-0.1424
-4.3,0.1281,0.00955,0.00439,-0.1424
-4.2,0.1398,0.00954,0.00435,-0.1423
-4.1,0.152,0.00941,0.00417,-0.1424
-4,0.1643,0.00917,0.00388,-0.1424
-3.9,0.1765,0.00901,0.00369,-0.1425
-3.8,0.1886,0.00888,0.00353,-0.1425
-3.7,0.2005,0.00878,0.00339,-0.1424
-3.6,0.2126,0.00868,0.00325,-0.1424
-3.5,0.2248,0.00857,0.00312,-0.1424
-3.4,0.2368,0.00849,0.003,-0.1424
-3.3,0.2488,0.00841,0.00289,-0.1424
-3.2,0.2608,0.00831,0.00275,-0.1424
-3.1,0.2728,0.00823,0.00264,-0.1424
-3,0.2849,0.00815,0.00256,-0.1424
-2.9,0.2969,0.00809,0.00248,-0.1424
-2.8,0.3088,0.00803,0.0024,-0.1424
-2.7,0.3208,0.00798,0.00232,-0.1424
-2.6,0.3325,0.00792,0.00226,-0.1423
-2.5,0.3446,0.00786,0.0022,-0.1423
-2.4,0.3566,0.00781,0.00213,-0.1423
-2.3,0.3686,0.00776,0.00207,-0.1423
-2.2,0.3804,0.00774,0.00202,-0.1423
-2.1,0.3924,0.00768,0.00195,-0.1423
-2,0.4043,0.00763,0.0019,-0.1423
-1.9,0.4155,0.00762,0.00183,-0.1421
-1.8,0.4274,0.00759,0.00179,-0.1421
-1.7,0.4392,0.00757,0.00174,-0.142
-1.6,0.451,0.00755,0.00169,-0.142
-1.5,0.4626,0.00752,0.00165,-0.1419
-1.4,0.4741,0.00751,0.00163,-0.1418
-1.3,0.486,0.0075,0.0016,-0.1418
-1.2,0.4979,0.00748,0.00157,-0.1418
-1.1,0.5094,0.00748,0.00152,-0.1417
-1,0.5211,0.00747,0.0015,-0.1416
-0.9,0.5329,0.00745,0.00148,-0.1416
-0.8,0.5447,0.00745,0.00146,-0.1416
-0.7,0.5563,0.00746,0.00144,-0.1415
-0.6,0.5674,0.00749,0.00143,-0.1414
-0.5,0.5792,0.00748,0.00142,-0.1413
-0.4,0.5908,0.0075,0.00141,-0.1413
-0.3,0.6026,0.0075,0.0014,-0.1412
-0.2,0.614,0.00752,0.00139,-0.1412
-0.1,0.6251,0.00757,0.00141,-0.141
0,0.6367,0.00758,0.0014,-0.141
0.1,0.6483,0.00761,0.0014,-0.1409
0.2,0.6596,0.00765,0.00141,-0.1408
0.3,0.671,0.00768,0.00142,-0.1407
0.4,0.6817,0.00778,0.00143,-0.1404
0.5,0.6924,0.00788,0.00145,-0.1402
0.6,0.7036,0.00793,0.00148,-0.1401
0.7,0.7144,0.00803,0.00151,-0.1399
0.8,0.7256,0.0081,0.00154,-0.1398
0.9,0.7357,0.00827,0.00159,-0.1395
1,0.7467,0.00835,0.00163,-0.1394
1.1,0.7574,0.00846,0.00168,-0.1392
1.2,0.768,0.0086,0.00174,-0.139
1.3,0.7789,0.00869,0.00178,-0.1388
1.4,0.7893,0.00884,0.00185,-0.1386
1.5,0.8002,0.00894,0.0019,-0.1385
1.6,0.8097,0.0092,0.002,-0.1381
1.7,0.8203,0.00934,0.00206,-0.1379
1.8,0.8308,0.00949,0.00214,-0.1377
1.9,0.8413,0.00965,0.00222,-0.1375
2,0.8515,0.00983,0.00231,-0.1373
2.1,0.8617,0.01002,0.00241,-0.1371
2.2,0.8703,0.01042,0.00257,-0.1366
2.3,0.8807,0.01058,0.00267,-0.1364
2.4,0.8916,0.0107,0.00275,-0.1363
2.5,0.9024,0.01081,0.00283,-0.1362
2.6,0.9134,0.0109,0.0029,-0.136
2.7,0.9245,0.01098,0.00297,-0.1359
2.8,0.9351,0.01112,0.00307,-0.1358
2.9,0.9463,0.01118,0.00313,-0.1357
3,0.9574,0.01126,0.00319,-0.1356
3.1,0.9685,0.01133,0.00327,-0.1355
3.2,0.9797,0.01139,0.00333,-0.1354
3.3,0.9908,0.01145,0.0034,-0.1353
3.5,1.0071,0.01033,0.00367,-0.1341
3.6,1.0181,0.01044,0.00376,-0.134
3.7,1.0292,0.01053,0.00384,-0.1339
3.8,1.0403,0.01061,0.00391,-0.1337
3.9,1.0514,0.01071,0.00398,-0.1336
4,1.0621,0.01084,0.00407,-0.1334
4.1,1.0732,0.01094,0.00414,-0.1332
4.2,1.0841,0.01105,0.00422,-0.1331
4.3,1.0951,0.01114,0.00431,-0.1329
4.4,1.1061,0.01124,0.00439,-0.1328
4.5,1.1171,0.01134,0.00447,-0.1326
4.6,1.1277,0.01148,0.00457,-0.1324
4.7,1.1387,0.01158,0.00466,-0.1322
4.8,1.1495,0.01169,0.00475,-0.132
4.9,1.1602,0.01181,0.00488,-0.1318
5,1.1712,0.01191,0.00497,-0.1316
5.1,1.1821,0.01201,0.00506,-0.1314
5.2,1.1924,0.01218,0.00518,-0.1312
5.3,1.2033,0.01229,0.00528,-0.131
5.4,1.2141,0.0124,0.00538,-0.1307
5.5,1.2247,0.01252,0.00549,-0.1305
5.6,1.2352,0.01267,0.00562,-0.1303
5.7,1.246,0.01278,0.00573,-0.13
5.8,1.2567,0.01289,0.00584,-0.1298
5.9,1.2669,0.01308,0.00597,-0.1295
6,1.2775,0.0132,0.0061,-0.1292
6.1,1.2881,0.01332,0.00624,-0.129
6.2,1.2986,0.01346,0.00636,-0.1287
6.3,1.3089,0.01361,0.0065,-0.1284
6.4,1.3193,0.01376,0.00665,-0.1281
6.5,1.3299,0.01389,0.00678,-0.1278
6.6,1.34,0.01407,0.00693,-0.1275
6.7,1.3501,0.01424,0.00708,-0.1272
6.8,1.3605,0.01438,0.00724,-0.1269
6.9,1.3709,0.01452,0.00738,-0.1266
7,1.3811,0.01467,0.00753,-0.1262
7.1,1.3913,0.01484,0.00769,-0.1259
7.2,1.4013,0.01502,0.00786,-0.1255
7.3,1.4114,0.01518,0.00806,-0.1251
7.4,1.4216,0.01533,0.00822,-0.1248
7.5,1.4318,0.01549,0.00839,-0.1244
7.6,1.4418,0.01566,0.00856,-0.124
7.7,1.4513,0.01589,0.00876,-0.1236
7.8,1.4612,0.01607,0.00896,-0.1232
7.9,1.4712,0.01623,0.00914,-0.1228
8,1.4811,0.0164,0.00933,-0.1224
8.1,1.4909,0.01658,0.00953,-0.1219
8.2,1.5006,0.01677,0.00973,-0.1215
8.3,1.5098,0.01702,0.00995,-0.121
8.4,1.5193,0.01723,0.01018,-0.1205
8.5,1.529,0.01741,0.01039,-0.12
8.6,1.5386,0.0176,0.01062,-0.1195
8.7,1.5481,0.0178,0.01084,-0.119
8.8,1.5571,0.01803,0.01106,-0.1185
8.9,1.5659,0.01831,0.01133,-0.1179
9,1.5752,0.01852,0.01157,-0.1174
9.1,1.5844,0.01872,0.0118,-0.1169
9.2,1.5935,0.01893,0.01204,-0.1163
9.3,1.6025,0.01916,0.01229,-0.1157
9.4,1.6113,0.0194,0.01255,-0.1151
9.5,1.62,0.01965,0.01282,-0.1145
9.6,1.6283,0.01992,0.01311,-0.1138
9.7,1.6368,0.02018,0.0134,-0.1131
9.8,1.6453,0.02042,0.01368,-0.1124
9.9,1.6536,0.02067,0.01396,-0.1117
10,1.6617,0.02093,0.01426,-0.111
10.1,1.6696,0.0212,0.01456,-0.1102
10.2,1.6772,0.02149,0.01487,-0.1094
10.3,1.6844,0.02181,0.01522,-0.1086
10.4,1.6917,0.02209,0.01555,-0.1077
10.5,1.6989,0.02238,0.01587,-0.1068
10.6,1.7058,0.02267,0.01621,-0.1059
10.7,1.7125,0.02298,0.01656,-0.1049
10.8,1.7186,0.0233,0.01691,-0.1038
10.9,1.7238,0.02363,0.01728,-0.1026
11,1.7288,0.02398,0.01767,-0.1014
11.1,1.7333,0.02436,0.01809,-0.1001
11.2,1.7381,0.02472,0.01851,-0.0989
11.3,1.7428,0.0251,0.01894,-0.0976
11.4,1.7473,0.02549,0.01939,-0.0964
11.5,1.7515,0.0259,0.01985,-0.0951
11.6,1.7556,0.02632,0.02034,-0.0938
11.7,1.7601,0.0267,0.02074,-0.0927
11.8,1.7638,0.02716,0.02125,-0.0914
11.9,1.7672,0.02764,0.0218,-0.0902
12,1.7701,0.02815,0.02237,-0.0889
12.1,1.7728,0.02868,0.02296,-0.0876
12.2,1.775,0.02925,0.02359,-0.0862
12.3,1.7773,0.02982,0.02423,-0.0849
12.4,1.7793,0.03041,0.02489,-0.0837
12.5,1.7811,0.03102,0.02557,-0.0824
12.6,1.7825,0.03166,0.02628,-0.0811
12.7,1.7837,0.03232,0.02702,-0.0799
12.8,1.7845,0.03302,0.0278,-0.0787
12.9,1.785,0.03376,0.02861,-0.0775
13,1.7853,0.03452,0.02945,-0.0763
13.1,1.7854,0.03532,0.03032,-0.0752
13.2,1.7848,0.03616,0.03125,-0.0741
13.3,1.7842,0.03703,0.0322,-0.0731
13.4,1.7832,0.03795,0.03319,-0.0721
13.5,1.782,0.03891,0.03424,-0.0712
13.6,1.7805,0.03992,0.03533,-0.0704
13.7,1.7787,0.04098,0.03647,-0.0697
13.8,1.7766,0.0421,0.03767,-0.0691
13.9,1.7743,0.04325,0.03891,-0.0685
14,1.7715,0.04448,0.04022,-0.0681
14.1,1.7687,0.04576,0.04159,-0.0678
14.2,1.7655,0.04712,0.04303,-0.0677
14.3,1.7623,0.04852,0.04452,-0.0677
14.4,1.7587,0.05003,0.04611,-0.0678
14.5,1.7549,0.05162,0.04778,-0.0682
14.6,1.751,0.05327,0.04952,-0.0688
14.7,1.7468,0.05502,0.05136,-0.0696
14.8,1.742,0.05692,0.05336,-0.0706
14.9,1.7374,0.05889,0.05542,-0.0719
15,1.7326,0.06101,0.05763,-0.0736
15.1,1.7276,0.06331,0.06003,-0.0756
15.2,1.7222,0.06584,0.06266,-0.078
15.3,1.7168,0.06859,0.06552,-0.0809
15.4,1.7112,0.07161,0.06865,-0.0843
15.5,1.7051,0.07509,0.07224,-0.0884
15.8,1.681,0.08995,0.0875,-0.106
16,1.6525,0.10543,0.10329,-0.1216
16.2,1.6232,0.11904,0.11708,-0.1347
16.3,1.6114,0.12489,0.123,-0.1403
16.4,1.6009,0.13041,0.12858,-0.1456
16.5,1.5919,0.13547,0.1337,-0.1505
16.6,1.5846,0.14004,0.13831,-0.1549
16.8,1.5716,0.14889,0.14725,-0.1636
16.9,1.5656,0.15318,0.15159,-0.1678
17,1.5611,0.15693,0.15537,-0.1716
17.1,1.5561,0.16101,0.15949,-0.1756
17.2,1.5526,0.16452,0.16303,-0.1792
17.3,1.5499,0.16783,0.16638,-0.1826
17.5,1.544,0.17508,0.1737,-0.1897
17.6,1.5423,0.17834,0.17698,-0.1928
17.7,1.5397,0.18231,0.18099,-0.1963
17.8,1.5382,0.18587,0.18457,-0.1995
17.9,1.5373,0.18928,0.18801,-0.2025
18,1.5352,0.19355,0.19231,-0.2059
18.1,1.534,0.19757,0.19635,-0.2091
18.2,1.5332,0.20142,0.20023,-0.2121
18.3,1.5307,0.20671,0.20555,-0.2159
18.4,1.5302,0.21098,0.20984,-0.219
18.5,1.5295,0.21567,0.21453,-0.2222
18.6,1.5304,0.21925,0.21811,-0.2248
18.7,1.5325,0.22185,0.22072,-0.2269
18.8,1.5347,0.22433,0.2232,-0.2289
18.9,1.5372,0.22657,0.22546,-0.2308
19,1.5399,0.22859,0.22748,-0.2325
19.1,1.5427,0.23054,0.22943,-0.2343
19.2,1.5456,0.23235,0.23124,-0.2359
19.3,1.5484,0.23414,0.23303,-0.2376
19.4,1.5514,0.23574,0.23463,-0.2392
19.5,1.5542,0.23735,0.23625,-0.2409
19.6,1.5568,0.23902,0.23792,-0.2426
19.7,1.5552,0.25198,0.25085,-0.2478
19.8,1.5582,0.25492,0.25379,-0.2497
19.9,1.5614,0.2575,0.25637,-0.2515
20,1.5646,0.25984,0.25872,-0.2532
20.1,1.5679,0.26205,0.26094,-0.2549
20.2,1.5711,0.26419,0.26308,-0.2565
20.3,1.5744,0.26625,0.26515,-0.2582
20.4,1.5777,0.26825,0.26714,-0.2598
20.5,1.581,0.27021,0.26911,-0.2614
20.6,1.5842,0.27213,0.27103,-0.263
20.7,1.5875,0.27401,0.27291,-0.2646
20.8,1.5908,0.27588,0.27479,-0.2663
20.9,1.594,0.27773,0.27664,-0.2679
21,1.5973,0.27952,0.27843,-0.2694
21.1,1.6005,0.28125,0.28017,-0.271
21.2,1.6037,0.28305,0.28197,-0.2726
21.3,1.6069,0.28481,0.28373,-0.2742
21.4,1.61,0.28653,0.28546,-0.2758
21.5,1.6132,0.28816,0.28709,-0.2774
21.6,1.6163,0.28997,0.2889,-0.279
21.7,1.6194,0.29161,0.29055,-0.2806
21.8,1.6225,0.29335,0.29229,-0.2822
22,1.6286,0.29605,0.295,-0.2854
22.1,1.6316,0.29776,0.29671,-0.287
22.2,1.6346,0.29933,0.29828,-0.2886
22.3,1.6375,0.30103,0.29999,-0.2902
22.4,1.6404,0.30264,0.30161,-0.2919
22.5,1.6432,0.30426,0.30323,-0.2935
22.6,1.646,0.30596,0.30493,-0.2951
22.7,1.6487,0.30765,0.30663,-0.2968
22.8,1.6532,0.31179,0.31075,-0.2989
22.9,1.6577,0.316,0.31497,-0.301
23,1.6623,0.32049,0.31945,-0.3031
23.1,1.6661,0.32348,0.32244,-0.305
23.2,1.6698,0.32636,0.32532,-0.3069
23.3,1.6733,0.32893,0.32789,-0.3087
23.4,1.6768,0.33127,0.33024,-0.3105
23.5,1.6802,0.33356,0.33253,-0.3122
23.6,1.6835,0.3358,0.33477,-0.314
23.7,1.6868,0.33798,0.33696,-0.3158
23.8,1.6901,0.34004,0.33903,-0.3175
23.9,1.6933,0.34216,0.34115,-0.3193
24,1.6965,0.3442,0.3432,-0.3211
24.1,1.6997,0.34622,0.34522,-0.3229
24.2,1.7029,0.34822,0.34722,-0.3246
24.3,1.706,0.3502,0.34921,-0.3264
24.4,1.7091,0.35215,0.35117,-0.3282
24.5,1.7122,0.35408,0.3531,-0.3299
24.6,1.7153,0.35601,0.35503,-0.3317
24.7,1.7183,0.3579,0.35693,-0.3335
24.8,1.7213,0.3598,0.35883,-0.3353
24.9,1.7243,0.36166,0.36069,-0.3371
25,1.7273,0.36354,0.36258,-0.3389
25.1,1.7302,0.36537,0.36441,-0.3407
25.2,1.7331,0.3672,0.36625,-0.3425
25.3,1.7361,0.36903,0.36809,-0.3442
25.4,1.7389,0.37086,0.36992,-0.3461
25.5,1.7418,0.37274,0.3718,-0.3479
25.6,1.7446,0.37452,0.37358,-0.3497
25.7,1.7474,0.37625,0.37532,-0.3515
25.8,1.7503,0.37808,0.37715,-0.3533
25.9,1.753,0.37981,0.37889,-0.3551
26,1.7557,0.38154,0.38063,-0.3569
26.1,1.7585,0.38335,0.38244,-0.3588
26.2,1.7612,0.3852,0.38429,-0.3606
26.3,1.7639,0.387,0.3861,-0.3624
26.4,1.7666,0.38884,0.38794,-0.3643
26.5,1.7693,0.39062,0.38973,-0.3661
26.6,1.7718,0.39233,0.39144,-0.368
26.7,1.7745,0.39413,0.39325,-0.3698
26.8,1.777,0.39594,0.39507,-0.3717
26.9,1.7796,0.39773,0.39686,-0.3736
27,1.7821,0.39954,0.39868,-0.3754
27.1,1.7847,0.40143,0.40057,-0.3773
27.2,1.7872,0.4033,0.40245,-0.3792
27.3,1.7898,0.40521,0.40437,-0.381
27.4,1.7922,0.40706,0.40622,-0.3829
27.5,1.7947,0.40904,0.4082,-0.3848
27.6,1.7971,0.41097,0.41014,-0.3867
27.7,1.7996,0.413,0.41218,-0.3886
27.8,1.8028,0.41576,0.41492,-0.3907
27.9,1.8073,0.41951,0.41867,-0.3931
28,1.8124,0.42423,0.42339,-0.3956
28.1,1.8163,0.42779,0.42695,-0.3978
28.2,1.8198,0.43087,0.43004,-0.4
28.3,1.8229,0.43354,0.43271,-0.4021
28.4,1.8259,0.43613,0.43529,-0.4042
28.5,1.8288,0.43855,0.43772,-0.4062
28.6,1.8317,0.44091,0.44009,-0.4083
28.7,1.8345,0.44328,0.44245,-0.4104
28.8,1.8372,0.44551,0.44469,-0.4125
28.9,1.8399,0.44773,0.44692,-0.4145
29,1.8425,0.44993,0.44912,-0.4166
29.1,1.8451,0.45208,0.45127,-0.4187
29.2,1.8477,0.45422,0.45342,-0.4207
29.3,1.8503,0.45635,0.45555,-0.4228
29.4,1.8527,0.45843,0.45764,-0.4249
29.5,1.8552,0.46052,0.45973,-0.4269
29.6,1.8576,0.46258,0.46179,-0.429
29.7,1.86,0.46463,0.46385,-0.4311
29.8,1.8624,0.46666,0.46589,-0.4332
29.9,1.8647,0.46867,0.46789,-0.4353
30,1.867,0.47069,0.46992,-0.4373

