airfoilName st18.dat
Re 	650000
M 	2.500000e-01
N 	4.500000e+00
VACC 	0 VACCflag 1
XTR 	1.00 	1.00 XTRflag 0
alpha,cl,cd,cdp,cm
-5.6,-0.0331,0.01486,0.01084,-0.1401
-5.5,-0.0199,0.01397,0.00975,-0.1408
-5.4,-0.0073,0.01339,0.00903,-0.1411
-5.3,0.0053,0.01283,0.00834,-0.1415
-5.2,0.0177,0.0122,0.00758,-0.1418
-5.1,0.0303,0.01176,0.00706,-0.142
-5,0.0427,0.01144,0.00665,-0.1422
-4.9,0.0549,0.01116,0.0063,-0.1423
-4.8,0.0672,0.01091,0.00599,-0.1424
-4.7,0.0795,0.01068,0.0057,-0.1424
-4.6,0.0916,0.01047,0.00542,-0.1424
-4.5,0.1039,0.01026,0.00516,-0.1425
-4.4,0.116,0.01007,0.00491,-0.1425
-4.3,0.1278,0.01005,0.00486,-0.1425
-4.2,0.14,0.0099,0.00464,-0.1425
-4.1,0.1522,0.00964,0.00432,-0.1425
-4,0.1645,0.00944,0.00408,-0.1426
-3.9,0.1765,0.00929,0.0039,-0.1426
-3.8,0.1887,0.00916,0.00374,-0.1426
-3.7,0.2008,0.00905,0.00359,-0.1426
-3.6,0.2128,0.00894,0.00344,-0.1426
-3.5,0.2249,0.00883,0.00329,-0.1426
-3.4,0.2369,0.00875,0.00316,-0.1425
-3.3,0.2489,0.00864,0.00303,-0.1425
-3.2,0.261,0.00853,0.0029,-0.1426
-3.1,0.2729,0.00845,0.0028,-0.1425
-3,0.2849,0.00838,0.0027,-0.1425
-2.9,0.2969,0.00831,0.00261,-0.1425
-2.8,0.3089,0.00825,0.00253,-0.1425
-2.7,0.3208,0.00819,0.00247,-0.1425
-2.6,0.3328,0.00812,0.00239,-0.1425
-2.5,0.3446,0.00807,0.00232,-0.1425
-2.4,0.3566,0.00802,0.00224,-0.1424
-2.3,0.3686,0.00797,0.00218,-0.1424
-2.2,0.3806,0.00792,0.00212,-0.1425
-2.1,0.3924,0.00786,0.00205,-0.1424
-2,0.4044,0.00782,0.002,-0.1424
-1.9,0.4163,0.00778,0.00195,-0.1424
-1.8,0.4275,0.00777,0.00188,-0.1422
-1.7,0.4393,0.00775,0.00183,-0.1421
-1.6,0.451,0.00771,0.00178,-0.1421
-1.5,0.463,0.00768,0.00174,-0.1421
-1.4,0.4744,0.00767,0.00172,-0.142
-1.3,0.486,0.00766,0.00168,-0.1419
-1.2,0.4978,0.00765,0.00164,-0.1418
-1.1,0.5097,0.00762,0.0016,-0.1418
-1,0.5213,0.00761,0.00158,-0.1418
-0.9,0.5328,0.00761,0.00155,-0.1417
-0.8,0.5447,0.0076,0.00153,-0.1417
-0.7,0.5565,0.00759,0.00152,-0.1417
-0.6,0.568,0.0076,0.00151,-0.1416
-0.5,0.5791,0.00763,0.00149,-0.1414
-0.4,0.5909,0.00763,0.00148,-0.1413
-0.3,0.6026,0.00764,0.00146,-0.1413
-0.2,0.6142,0.00764,0.00147,-0.1413
-0.1,0.6257,0.00765,0.00146,-0.1412
0,0.6368,0.00771,0.00146,-0.141
0.1,0.6483,0.00773,0.00145,-0.1409
0.2,0.66,0.00774,0.00146,-0.1409
0.3,0.6712,0.00778,0.00147,-0.1408
0.4,0.6827,0.00781,0.00147,-0.1407
0.5,0.6929,0.00794,0.0015,-0.1404
0.6,0.7041,0.00799,0.00152,-0.1402
0.7,0.7149,0.00809,0.00154,-0.14
0.8,0.726,0.00816,0.00156,-0.1399
0.9,0.737,0.00823,0.00159,-0.1397
1,0.7471,0.0084,0.00164,-0.1394
1.1,0.7582,0.00847,0.00169,-0.1393
1.2,0.7687,0.0086,0.00174,-0.1391
1.3,0.7792,0.00873,0.0018,-0.1388
1.4,0.7897,0.00887,0.00186,-0.1386
1.5,0.8005,0.00898,0.00191,-0.1384
1.6,0.81,0.00923,0.00201,-0.1381
1.7,0.8206,0.00936,0.00207,-0.1379
1.8,0.8312,0.00949,0.00214,-0.1377
1.9,0.8416,0.00965,0.00222,-0.1375
2,0.8519,0.00981,0.0023,-0.1373
2.1,0.8621,0.01,0.0024,-0.137
2.3,0.8806,0.01061,0.00268,-0.1363
2.4,0.891,0.01077,0.00277,-0.1361
2.5,0.9017,0.01091,0.00286,-0.136
2.6,0.9125,0.01102,0.00294,-0.1358
2.7,0.9235,0.01111,0.00301,-0.1357
2.8,0.934,0.01125,0.00311,-0.1355
2.9,0.9449,0.01135,0.00319,-0.1354
3,0.9561,0.01141,0.00326,-0.1353
3.1,0.9672,0.01148,0.00332,-0.1352
3.2,0.9782,0.01155,0.00341,-0.1351
3.3,0.9895,0.01158,0.00349,-0.135
3.4,0.9946,0.01038,0.00366,-0.1339
3.5,1.0054,0.01052,0.00374,-0.1338
3.6,1.0164,0.01062,0.00383,-0.1336
3.7,1.0274,0.01073,0.0039,-0.1335
3.8,1.0385,0.01082,0.00398,-0.1333
3.9,1.0495,0.01091,0.00406,-0.1332
4,1.0605,0.01101,0.00413,-0.133
4.1,1.0712,0.01114,0.00423,-0.1328
4.2,1.0822,0.01124,0.00431,-0.1327
4.3,1.0931,0.01135,0.00439,-0.1325
4.4,1.104,0.01146,0.00448,-0.1323
4.5,1.115,0.01155,0.00457,-0.1321
4.6,1.1259,0.01166,0.00465,-0.132
4.7,1.1365,0.0118,0.00476,-0.1317
4.8,1.1474,0.01191,0.00485,-0.1316
4.9,1.1582,0.01202,0.00496,-0.1314
5,1.1688,0.01215,0.00508,-0.1311
5.1,1.1797,0.01225,0.00517,-0.1309
5.2,1.1906,0.01236,0.00527,-0.1307
5.3,1.2008,0.01253,0.0054,-0.1305
5.4,1.2116,0.01264,0.0055,-0.1303
5.5,1.2224,0.01276,0.00561,-0.13
5.6,1.233,0.01289,0.00572,-0.1298
5.7,1.2434,0.01303,0.00586,-0.1295
5.8,1.2541,0.01315,0.00597,-0.1293
5.9,1.2648,0.01327,0.00609,-0.129
6,1.2748,0.01346,0.00622,-0.1287
6.1,1.2854,0.01359,0.00638,-0.1285
6.2,1.2959,0.01371,0.00651,-0.1282
6.3,1.3063,0.01386,0.00664,-0.1279
6.4,1.3166,0.01402,0.00678,-0.1276
6.5,1.3269,0.01417,0.00694,-0.1273
6.6,1.3374,0.0143,0.00708,-0.127
6.7,1.3474,0.01449,0.00723,-0.1266
6.8,1.3574,0.01466,0.00739,-0.1263
6.9,1.3678,0.01481,0.00755,-0.126
7,1.378,0.01496,0.0077,-0.1256
7.1,1.3882,0.01511,0.00786,-0.1253
7.2,1.3982,0.01529,0.00803,-0.1249
7.3,1.4081,0.01548,0.00823,-0.1245
7.4,1.4182,0.01564,0.00841,-0.1242
7.5,1.4283,0.0158,0.00859,-0.1238
7.6,1.4383,0.01597,0.00876,-0.1234
7.7,1.4482,0.01614,0.00895,-0.123
7.8,1.4576,0.01638,0.00916,-0.1225
7.9,1.4674,0.01657,0.00937,-0.1221
8,1.4773,0.01674,0.00956,-0.1217
8.1,1.4871,0.01692,0.00976,-0.1212
8.2,1.4968,0.0171,0.00996,-0.1208
8.3,1.5063,0.0173,0.01017,-0.1203
8.4,1.5154,0.01756,0.01041,-0.1198
8.5,1.5247,0.01778,0.01065,-0.1193
8.6,1.5343,0.01797,0.01089,-0.1188
8.7,1.5437,0.01817,0.01111,-0.1183
8.8,1.553,0.01837,0.01135,-0.1178
8.9,1.5621,0.0186,0.01158,-0.1172
9,1.5705,0.0189,0.01185,-0.1166
9.1,1.5796,0.01912,0.0121,-0.116
9.2,1.5886,0.01933,0.01235,-0.1155
9.3,1.5976,0.01956,0.01261,-0.1149
9.4,1.6063,0.01979,0.01287,-0.1142
9.5,1.6149,0.02004,0.01314,-0.1136
9.6,1.6233,0.02031,0.01342,-0.1129
9.7,1.6314,0.02059,0.01373,-0.1122
9.8,1.6395,0.02087,0.01404,-0.1115
9.9,1.6477,0.02112,0.01432,-0.1108
10,1.6557,0.02138,0.01462,-0.11
10.1,1.6635,0.02165,0.01494,-0.1092
10.2,1.671,0.02193,0.01526,-0.1084
10.3,1.6782,0.02223,0.01559,-0.1076
10.4,1.685,0.02256,0.01594,-0.1066
10.5,1.6918,0.02288,0.0163,-0.1057
10.6,1.6985,0.02317,0.01664,-0.1047
10.7,1.7046,0.02348,0.017,-0.1037
10.8,1.71,0.0238,0.01736,-0.1025
10.9,1.7153,0.02413,0.01774,-0.1013
11,1.7203,0.02449,0.01813,-0.1001
11.1,1.7251,0.02486,0.01854,-0.0988
11.2,1.7296,0.02525,0.01898,-0.0976
11.3,1.7338,0.02568,0.01946,-0.0963
11.4,1.7381,0.02609,0.01993,-0.0951
11.5,1.7422,0.02651,0.02041,-0.0938
11.6,1.7461,0.02695,0.02091,-0.0926
11.7,1.7498,0.02741,0.02144,-0.0913
11.8,1.7532,0.02789,0.02198,-0.09
12,1.7606,0.0288,0.02299,-0.0877
12.1,1.7633,0.02933,0.02359,-0.0864
12.2,1.7658,0.02989,0.02421,-0.0852
12.3,1.768,0.03048,0.02486,-0.0839
12.4,1.7696,0.03111,0.02555,-0.0826
12.5,1.7708,0.03178,0.02629,-0.0814
12.6,1.7717,0.03247,0.02705,-0.0801
12.7,1.7726,0.03316,0.02782,-0.0789
12.8,1.7732,0.03389,0.02863,-0.0777
12.9,1.7735,0.03466,0.02948,-0.0766
13,1.7736,0.03546,0.03035,-0.0754
13.1,1.7733,0.03628,0.03126,-0.0744
13.2,1.7725,0.03717,0.03222,-0.0733
13.3,1.7716,0.03808,0.03322,-0.0724
13.4,1.7704,0.03904,0.03426,-0.0715
13.5,1.769,0.04005,0.03536,-0.0707
13.6,1.7672,0.04111,0.0365,-0.0699
13.7,1.7652,0.04222,0.0377,-0.0693
13.8,1.7627,0.04339,0.03895,-0.0687
13.9,1.7601,0.04461,0.04025,-0.0683
14,1.7572,0.0459,0.04163,-0.068
14.1,1.7541,0.04725,0.04307,-0.0679
14.2,1.7507,0.04868,0.04459,-0.0679
14.3,1.7474,0.05016,0.04616,-0.0681
14.4,1.7435,0.05174,0.04783,-0.0684
14.5,1.7395,0.05342,0.0496,-0.069
14.6,1.7354,0.05516,0.05143,-0.0698
14.7,1.731,0.05701,0.05337,-0.0708
14.8,1.726,0.05904,0.0555,-0.0722
14.9,1.7213,0.06114,0.0577,-0.0738
15,1.7165,0.06342,0.06008,-0.0758
15.1,1.7114,0.0659,0.06266,-0.0781
15.2,1.7059,0.06866,0.06552,-0.081
15.3,1.7003,0.07169,0.06867,-0.0844
15.4,1.6946,0.07507,0.07216,-0.0884
15.5,1.6881,0.07903,0.07624,-0.0932
15.6,1.6807,0.08374,0.08107,-0.0989
16,1.6317,0.11123,0.10912,-0.1274
16.1,1.6187,0.11751,0.11548,-0.1335
16.2,1.6071,0.12332,0.12136,-0.1391
16.3,1.5972,0.12867,0.12677,-0.1442
16.4,1.5887,0.13363,0.13178,-0.149
16.7,1.5681,0.14717,0.14546,-0.1621
16.9,1.5578,0.15521,0.15359,-0.1701
17,1.5533,0.15902,0.15743,-0.1739
17.2,1.5462,0.16622,0.1647,-0.1812
17.3,1.5429,0.16988,0.1684,-0.1847
17.4,1.5401,0.1735,0.17205,-0.1882
17.6,1.5362,0.18045,0.17906,-0.1947
17.7,1.5341,0.18431,0.18295,-0.1981
17.8,1.5328,0.18787,0.18653,-0.2012
18,1.5286,0.19668,0.19541,-0.2081
18.1,1.5268,0.20127,0.20003,-0.2116
18.2,1.5229,0.20788,0.20666,-0.216
18.3,1.5205,0.21394,0.21272,-0.2199
18.4,1.5215,0.21746,0.21625,-0.2225
18.6,1.5256,0.22299,0.22178,-0.2267
18.7,1.5282,0.22518,0.22398,-0.2285
18.8,1.5309,0.22733,0.22612,-0.2303
18.9,1.5337,0.22933,0.22813,-0.232
19,1.5367,0.23118,0.22998,-0.2337
19.1,1.5396,0.23299,0.2318,-0.2353
19.2,1.5426,0.23474,0.23356,-0.237
19.3,1.5456,0.23647,0.2353,-0.2386
19.4,1.5486,0.23806,0.23688,-0.2402
19.5,1.5516,0.2396,0.23843,-0.2418
19.6,1.5545,0.24116,0.23999,-0.2433
19.7,1.5572,0.24268,0.24151,-0.245
19.9,1.5606,0.25735,0.25614,-0.2514
20,1.5638,0.25989,0.2587,-0.2531
20.1,1.5671,0.26223,0.26105,-0.2548
20.2,1.5704,0.26448,0.26329,-0.2565
20.3,1.5737,0.26661,0.26543,-0.2581
20.4,1.577,0.26867,0.2675,-0.2598
20.5,1.5803,0.27068,0.26951,-0.2614
20.6,1.5836,0.27265,0.27148,-0.263
20.7,1.5869,0.27457,0.2734,-0.2646
20.8,1.5902,0.27647,0.27531,-0.2662
20.9,1.5934,0.27836,0.27719,-0.2678
21,1.5967,0.28018,0.27902,-0.2694
21.1,1.5999,0.28195,0.2808,-0.271
21.2,1.6031,0.28378,0.28263,-0.2726
21.3,1.6064,0.28556,0.28442,-0.2742
21.4,1.6096,0.28732,0.28618,-0.2758
21.5,1.6127,0.28898,0.28784,-0.2774
21.6,1.6159,0.2908,0.28966,-0.279
21.7,1.619,0.29247,0.29134,-0.2806
21.8,1.6222,0.29422,0.2931,-0.2822
22.1,1.6314,0.29868,0.29756,-0.287
22.2,1.6344,0.30026,0.29914,-0.2886
22.3,1.6374,0.30195,0.30085,-0.2902
22.4,1.6404,0.30356,0.30245,-0.2918
22.5,1.6433,0.30515,0.30405,-0.2934
22.6,1.6462,0.30681,0.30572,-0.2951
22.7,1.6491,0.30846,0.30736,-0.2967
22.8,1.6519,0.31014,0.30905,-0.2983
22.9,1.6547,0.31184,0.31075,-0.3
23.2,1.6678,0.3237,0.3226,-0.3063
23.3,1.6719,0.32729,0.32619,-0.3082
23.4,1.6756,0.33009,0.32899,-0.3101
23.5,1.6792,0.33268,0.33158,-0.3119
23.6,1.6827,0.33514,0.33405,-0.3137
23.7,1.6861,0.3375,0.33641,-0.3155
23.8,1.6894,0.33963,0.33856,-0.3173
23.9,1.6927,0.34189,0.34082,-0.3191
24,1.696,0.34402,0.34295,-0.3209
24.1,1.6992,0.34611,0.34505,-0.3226
24.2,1.7024,0.34819,0.34713,-0.3244
24.3,1.7056,0.35023,0.34917,-0.3262
24.4,1.7088,0.35225,0.3512,-0.328
24.5,1.7119,0.35425,0.3532,-0.3298
24.6,1.715,0.35622,0.35518,-0.3316
24.7,1.7181,0.35816,0.35713,-0.3334
24.8,1.7211,0.3601,0.35907,-0.3351
24.9,1.7242,0.36201,0.36098,-0.3369
25,1.7272,0.36393,0.3629,-0.3387
25.1,1.7301,0.3658,0.36478,-0.3405
25.2,1.7331,0.36767,0.36665,-0.3423
25.3,1.736,0.36954,0.36853,-0.3441
25.4,1.7389,0.37141,0.3704,-0.3459
25.5,1.7418,0.37331,0.3723,-0.3477
25.6,1.7447,0.37513,0.37413,-0.3496
25.7,1.7475,0.3769,0.37591,-0.3514
25.8,1.7504,0.37875,0.37776,-0.3532
25.9,1.7531,0.38052,0.37954,-0.355
26,1.7559,0.38229,0.3813,-0.3569
26.1,1.7587,0.38411,0.38314,-0.3587
26.2,1.7614,0.38597,0.385,-0.3605
26.3,1.7642,0.3878,0.38683,-0.3624
26.4,1.7669,0.38965,0.38868,-0.3642
26.5,1.7696,0.39145,0.39049,-0.3661
26.6,1.7722,0.39317,0.39221,-0.3679
26.7,1.7748,0.39497,0.39403,-0.3698
26.8,1.7774,0.39678,0.39583,-0.3716
26.9,1.78,0.39856,0.39763,-0.3735
27,1.7826,0.40035,0.39943,-0.3754
27.1,1.7852,0.40223,0.40131,-0.3772
27.2,1.7877,0.40408,0.40317,-0.3791
27.3,1.7903,0.40596,0.40505,-0.381
27.4,1.7927,0.40775,0.40685,-0.3829
27.5,1.7953,0.40969,0.40879,-0.3848
27.6,1.7977,0.41154,0.41064,-0.3867
27.7,1.8002,0.4135,0.41261,-0.3886
27.8,1.8025,0.41539,0.41451,-0.3905
27.9,1.8046,0.41711,0.41624,-0.3923
28,1.8069,0.41915,0.41827,-0.3942
28.1,1.81,0.42174,0.42085,-0.3963
28.2,1.8151,0.42595,0.42506,-0.3989
28.3,1.82,0.43048,0.42959,-0.4014
28.4,1.8241,0.4343,0.43341,-0.4037
28.5,1.8274,0.43724,0.43636,-0.4058
28.6,1.8305,0.43996,0.43907,-0.4079
28.7,1.8336,0.44262,0.44173,-0.4101
28.8,1.8364,0.44497,0.4441,-0.4121
28.9,1.8392,0.44734,0.44647,-0.4142
29,1.842,0.44964,0.44877,-0.4163
29.1,1.8446,0.45188,0.45101,-0.4184
29.2,1.8473,0.45411,0.45324,-0.4205
29.3,1.8499,0.45632,0.45546,-0.4226
29.4,1.8524,0.45844,0.45759,-0.4246
29.5,1.8549,0.46058,0.45973,-0.4267
29.6,1.8575,0.4627,0.46186,-0.4288
29.7,1.8599,0.4648,0.46396,-0.4309
29.8,1.8623,0.46687,0.46604,-0.433
29.9,1.8646,0.46892,0.46809,-0.4351
30,1.867,0.47098,0.47016,-0.4372

