airfoilName st19.dat
Re 	430000
M 	2.500000e-01
N 	4.500000e+00
VACC 	0 VACCflag 1
XTR 	1.00 	1.00 XTRflag 0
alpha,cl,cd,cdp,cm
-30,-1.3777,0.49543,0.49346,0.2827
-29.9,-1.3748,0.49309,0.49112,0.2807
-29.8,-1.3719,0.49076,0.48878,0.2786
-29.7,-1.369,0.48846,0.48647,0.2766
-29.6,-1.366,0.48616,0.48417,0.2746
-29.5,-1.3631,0.48388,0.48188,0.2725
-29.4,-1.36,0.48158,0.47958,0.2705
-29.3,-1.357,0.47934,0.47734,0.2685
-29.2,-1.354,0.47707,0.47507,0.2665
-29.1,-1.3509,0.47485,0.47285,0.2644
-29,-1.3478,0.47263,0.47062,0.2624
-28.9,-1.3448,0.47043,0.46842,0.2604
-28.8,-1.3417,0.46822,0.4662,0.2584
-28.7,-1.3385,0.46604,0.46402,0.2564
-28.6,-1.3354,0.46391,0.46188,0.2544
-28.5,-1.3322,0.46178,0.45975,0.2524
-28.4,-1.329,0.45966,0.45763,0.2504
-28.3,-1.3257,0.45758,0.45555,0.2484
-28.2,-1.3225,0.45547,0.45343,0.2464
-28.1,-1.3192,0.45341,0.45137,0.2444
-28,-1.3159,0.45139,0.44934,0.2424
-27.9,-1.3126,0.44937,0.44732,0.2404
-27.8,-1.3092,0.4474,0.44535,0.2383
-27.7,-1.3058,0.44543,0.44337,0.2363
-27.6,-1.3023,0.44362,0.44155,0.2343
-27.5,-1.2988,0.4417,0.43963,0.2322
-27.4,-1.2953,0.4398,0.43773,0.2302
-27.3,-1.2918,0.43799,0.43592,0.2281
-27.2,-1.2881,0.4363,0.43422,0.226
-27.1,-1.2843,0.43469,0.43261,0.2239
-27,-1.2806,0.43296,0.43088,0.2218
-26.9,-1.2768,0.43124,0.42916,0.2196
-26.8,-1.2729,0.42949,0.4274,0.2175
-26.7,-1.2689,0.42784,0.42575,0.2153
-25.5,-1.2194,0.40521,0.40312,0.1902
-25.4,-1.2162,0.40264,0.40054,0.1886
-25.3,-1.2129,0.40008,0.39798,0.187
-25.2,-1.2096,0.39755,0.39544,0.1853
-25.1,-1.2063,0.39502,0.39291,0.1837
-25,-1.2029,0.39245,0.39034,0.1821
-24.9,-1.1996,0.38994,0.38782,0.1805
-24.8,-1.1962,0.38747,0.38534,0.1789
-24.7,-1.1929,0.38497,0.38283,0.1773
-24.6,-1.1895,0.38244,0.3803,0.1757
-24.5,-1.1862,0.37995,0.37781,0.1741
-24.4,-1.1828,0.37746,0.37532,0.1725
-24.3,-1.1794,0.375,0.37285,0.171
-24.2,-1.176,0.37252,0.37037,0.1694
-24.1,-1.1726,0.37006,0.36791,0.1678
-24,-1.1691,0.36762,0.36547,0.1663
-23.9,-1.1657,0.36522,0.36306,0.1647
-23.8,-1.1622,0.36276,0.3606,0.1632
-23.7,-1.1587,0.36041,0.35824,0.1616
-23.6,-1.1553,0.35799,0.35583,0.1601
-23.5,-1.1518,0.35561,0.35344,0.1585
-23.4,-1.1483,0.35328,0.3511,0.157
-23.3,-1.1447,0.35096,0.34879,0.1554
-23.2,-1.1412,0.34863,0.34645,0.1539
-23.1,-1.1377,0.34633,0.34415,0.1524
-23,-1.1341,0.3441,0.34191,0.1509
-22.9,-1.1305,0.34183,0.33964,0.1493
-22.8,-1.1269,0.33961,0.33742,0.1478
-22.7,-1.1233,0.3374,0.3352,0.1463
-22.6,-1.1197,0.3352,0.33301,0.1448
-22.5,-1.116,0.33303,0.33083,0.1433
-22.4,-1.1123,0.33088,0.32868,0.1418
-22.3,-1.1087,0.32875,0.32654,0.1403
-22.2,-1.105,0.32664,0.32443,0.1388
-22.1,-1.1013,0.32455,0.32232,0.1373
-22,-1.0976,0.32247,0.32024,0.1358
-21.9,-1.0938,0.32041,0.31818,0.1343
-21.8,-1.0901,0.31836,0.31613,0.1328
-21.7,-1.0863,0.31632,0.31409,0.1314
-21.6,-1.0825,0.31429,0.31206,0.1299
-21.5,-1.0787,0.31229,0.31005,0.1284
-21.4,-1.0749,0.31028,0.30804,0.1269
-21.3,-1.0711,0.30828,0.30603,0.1255
-21.2,-1.0673,0.3063,0.30405,0.124
-21.1,-1.0634,0.30432,0.30207,0.1226
-21,-1.0596,0.30235,0.3001,0.1211
-20.9,-1.0557,0.3004,0.29814,0.1197
-20.8,-1.0518,0.29843,0.29618,0.1182
-20.7,-1.0479,0.2965,0.29424,0.1168
-20.6,-1.044,0.29455,0.29229,0.1154
-20.5,-1.0401,0.29261,0.29034,0.1139
-20.4,-1.0362,0.29068,0.28841,0.1125
-20.3,-1.0323,0.28875,0.28648,0.1111
-20.2,-1.0283,0.28682,0.28455,0.1097
-20.1,-1.0244,0.2849,0.28263,0.1083
-20,-1.0204,0.28299,0.28072,0.1069
-19.9,-1.0165,0.28108,0.2788,0.1055
-19.8,-1.0125,0.27917,0.27689,0.1041
-19.7,-1.0085,0.27727,0.27499,0.1028
-19.6,-1.0045,0.27538,0.27309,0.1014
-19.5,-1.0005,0.27349,0.2712,0.1
-19.4,-0.9965,0.27159,0.2693,0.0986
-19.3,-0.9924,0.26972,0.26741,0.0973
-19.2,-0.9884,0.26784,0.26553,0.0959
-19.1,-0.9843,0.26596,0.26365,0.0945
-19,-0.9802,0.2641,0.26179,0.0932
-18.9,-0.976,0.26223,0.25992,0.0918
-18.8,-0.9719,0.26036,0.25805,0.0904
-18.7,-0.9677,0.2585,0.25619,0.0891
-18.6,-0.9636,0.25664,0.25433,0.0877
-18.5,-0.9593,0.2548,0.25248,0.0863
-18.4,-0.9551,0.25295,0.25063,0.085
-18.3,-0.9508,0.25111,0.24879,0.0836
-18.2,-0.9466,0.24926,0.24694,0.0822
-18.1,-0.9423,0.24742,0.2451,0.0809
-18,-0.938,0.24558,0.24325,0.0795
-17.9,-0.9336,0.24373,0.2414,0.0781
-17.8,-0.9293,0.24187,0.23954,0.0768
-17.7,-0.9249,0.24,0.23768,0.0754
-17.6,-0.918,0.23789,0.23556,0.0731
-17.5,-0.9134,0.23582,0.23349,0.0717
-17.4,-0.9085,0.23373,0.2314,0.0703
-17.3,-0.9036,0.23174,0.22941,0.0689
-17.2,-0.8981,0.22978,0.22745,0.0673
-16.9,-0.8811,0.22418,0.22188,0.0625
-16.8,-0.8775,0.22222,0.21991,0.0614
-16.7,-0.8739,0.22027,0.21796,0.0604
-16.6,-0.8703,0.2183,0.21599,0.0594
-16.5,-0.8667,0.21636,0.21405,0.0583
-16.4,-0.863,0.21442,0.21211,0.0573
-16.3,-0.8594,0.21247,0.21016,0.0563
-16.2,-0.8558,0.21055,0.20824,0.0553
-16.1,-0.8521,0.20864,0.20632,0.0542
-16,-0.8485,0.20675,0.20443,0.0532
-15.9,-0.8447,0.20488,0.20255,0.0522
-15.8,-0.841,0.20303,0.2007,0.0512
-15.7,-0.8372,0.20122,0.19889,0.0502
-15.6,-0.8335,0.19943,0.1971,0.0491
-15.5,-0.8296,0.19766,0.19533,0.0481
-15.4,-0.8258,0.19592,0.19359,0.0471
-15.3,-0.8218,0.19421,0.19187,0.0461
-15.2,-0.8179,0.19252,0.19018,0.045
-15.1,-0.8139,0.19086,0.18852,0.044
-15,-0.8098,0.18921,0.18687,0.0429
-14.9,-0.8058,0.18759,0.18525,0.0419
-14.8,-0.8017,0.18598,0.18365,0.0409
-14.7,-0.7975,0.18439,0.18205,0.0398
-14.6,-0.7933,0.18281,0.18047,0.0387
-14.5,-0.789,0.18124,0.1789,0.0377
-14.4,-0.7848,0.17968,0.17734,0.0366
-14.3,-0.7804,0.17813,0.17579,0.0356
-14.2,-0.7761,0.17657,0.17423,0.0345
-14.1,-0.7717,0.17504,0.1727,0.0334
-14,-0.7673,0.17351,0.17117,0.0324
-13.9,-0.7629,0.17197,0.16963,0.0313
-13.8,-0.7585,0.17045,0.16811,0.0303
-13.7,-0.754,0.16893,0.16659,0.0292
-13.6,-0.7495,0.16742,0.16508,0.0281
-13.5,-0.745,0.16591,0.16357,0.0271
-13.4,-0.7405,0.16439,0.16206,0.026
-13.3,-0.7359,0.16288,0.16055,0.025
-13.2,-0.7314,0.16137,0.15904,0.0239
-13.1,-0.7268,0.15986,0.15753,0.0229
-13,-0.7221,0.15836,0.15602,0.0218
-12.9,-0.7175,0.15685,0.1545,0.0208
-12.8,-0.7128,0.15534,0.153,0.0197
-12.7,-0.7082,0.15383,0.15149,0.0187
-12.6,-0.7035,0.15232,0.14998,0.0177
-12.5,-0.6988,0.15081,0.14847,0.0166
-12.4,-0.6941,0.1493,0.14696,0.0156
-12.3,-0.6894,0.14779,0.14545,0.0146
-12.2,-0.6846,0.14627,0.14393,0.0135
-12.1,-0.6799,0.14475,0.14241,0.0125
-12,-0.6751,0.14322,0.14088,0.0115
-11.9,-0.6703,0.14167,0.13934,0.0104
-11.8,-0.6655,0.14012,0.13779,0.0094
-11.7,-0.6607,0.13856,0.13622,0.0084
-11.6,-0.6558,0.13699,0.13466,0.0074
-11.5,-0.651,0.13536,0.13303,0.0063
-11.4,-0.6461,0.13371,0.13139,0.0053
-11.1,-0.621,0.12743,0.12514,-0.0005
-11,-0.6171,0.12594,0.12365,-0.0012
-10.9,-0.6134,0.12447,0.12218,-0.0019
-10.8,-0.6097,0.12299,0.12071,-0.0026
-10.7,-0.606,0.12155,0.11927,-0.0032
-10.6,-0.6023,0.12013,0.11785,-0.0039
-10.5,-0.5988,0.11872,0.11644,-0.0045
-10.4,-0.5952,0.11734,0.11507,-0.0052
-10.3,-0.5918,0.116,0.11374,-0.0058
-10.2,-0.5884,0.1147,0.11244,-0.0063
-10.1,-0.5853,0.11343,0.11118,-0.0068
-10,-0.5823,0.11223,0.10998,-0.0073
-9.9,-0.5796,0.11108,0.10884,-0.0076
-9.8,-0.5774,0.11001,0.10778,-0.0079
-9.7,-0.5756,0.10901,0.10679,-0.008
-9.6,-0.5743,0.1081,0.10589,-0.0079
-9.5,-0.5739,0.10729,0.10509,-0.0077
-9.4,-0.5745,0.10659,0.1044,-0.0071
-9.1,-0.5633,0.10336,0.10119,-0.0091
-9,-0.5552,0.10193,0.09976,-0.0109
-8.9,-0.5468,0.10049,0.09831,-0.0128
-8.8,-0.5379,0.09906,0.09687,-0.0149
-8.7,-0.5292,0.09763,0.09544,-0.0168
-8.6,-0.5204,0.09622,0.09403,-0.0188
-8.5,-0.5098,0.09467,0.09247,-0.0212
-8.4,-0.4993,0.09316,0.09095,-0.0236
-8.3,-0.4886,0.09165,0.08943,-0.026
-8.2,-0.4775,0.09013,0.0879,-0.0285
-8.1,-0.466,0.08857,0.08634,-0.0311
-8,-0.4563,0.08716,0.08492,-0.0332
-7.9,-0.4459,0.0857,0.08345,-0.0354
-7.8,-0.4348,0.08419,0.08194,-0.0379
-7.7,-0.4231,0.08265,0.08039,-0.0404
-7.6,-0.4103,0.08103,0.07875,-0.0432
-7.5,-0.3979,0.07944,0.07715,-0.0459
-7.4,-0.3851,0.07783,0.07552,-0.0486
-7.3,-0.372,0.0762,0.07387,-0.0515
-7.2,-0.3623,0.07481,0.07247,-0.0533
-7.1,-0.3508,0.07329,0.07094,-0.0556
-7,-0.3384,0.07171,0.06935,-0.0582
-6.9,-0.3254,0.07007,0.06769,-0.0609
-6.8,-0.3098,0.06784,0.06544,-0.0644
-6.6,-0.2801,0.06411,0.06167,-0.0707
-5,0.0305,0.01659,0.01223,-0.1405
-4.9,0.0458,0.01506,0.01037,-0.1419
-4.8,0.0599,0.0142,0.00928,-0.1427
-4.7,0.0724,0.01365,0.00857,-0.143
-4.6,0.0849,0.01305,0.00786,-0.1434
-4.5,0.0972,0.01261,0.00732,-0.1436
-4.4,0.1097,0.01228,0.00692,-0.1437
-4.3,0.1223,0.01199,0.00656,-0.1439
-4.2,0.1351,0.01173,0.00623,-0.1441
-4.1,0.1478,0.01148,0.0059,-0.1443
-4,0.1599,0.01124,0.00559,-0.1443
-3.9,0.172,0.01101,0.00529,-0.1444
-3.8,0.1841,0.01079,0.00501,-0.1444
-3.7,0.1963,0.0106,0.00474,-0.1444
-3.6,0.2087,0.0104,0.0045,-0.1445
-3.5,0.2211,0.01022,0.00428,-0.1446
-3.4,0.2334,0.01008,0.00409,-0.1447
-3.2,0.2568,0.00995,0.00393,-0.1446
-3.1,0.2689,0.00982,0.00376,-0.1446
-3,0.281,0.00965,0.00357,-0.1446
-2.9,0.2931,0.00955,0.00345,-0.1447
-2.8,0.3053,0.00945,0.00333,-0.1447
-2.6,0.329,0.00932,0.00314,-0.1446
-2.5,0.3409,0.0092,0.00302,-0.1447
-2.4,0.3528,0.00912,0.00293,-0.1446
-2.3,0.3648,0.00905,0.00282,-0.1446
-2.2,0.3768,0.00898,0.00272,-0.1446
-2.1,0.3887,0.00892,0.00263,-0.1446
-2,0.4005,0.00885,0.00259,-0.1446
-1.9,0.4122,0.00879,0.00252,-0.1445
-1.8,0.4241,0.00874,0.00245,-0.1445
-1.7,0.436,0.00869,0.00238,-0.1445
-1.6,0.4479,0.00865,0.0023,-0.1444
-1.5,0.4597,0.00859,0.00226,-0.1445
-1.4,0.4715,0.00856,0.00225,-0.1444
-1.3,0.4832,0.00852,0.00219,-0.1444
-1.2,0.4947,0.00849,0.0021,-0.1442
-1.1,0.5062,0.00844,0.00206,-0.1441
-1,0.5177,0.00841,0.00201,-0.144
-0.9,0.5293,0.00838,0.00197,-0.1439
-0.7,0.5528,0.00834,0.00193,-0.1438
-0.6,0.564,0.00832,0.00189,-0.1436
-0.5,0.5757,0.00831,0.00186,-0.1436
-0.4,0.5874,0.0083,0.00183,-0.1435
-0.3,0.599,0.00828,0.00182,-0.1435
-0.2,0.6104,0.00827,0.00179,-0.1433
-0.1,0.622,0.00828,0.00179,-0.1432
0,0.6337,0.00826,0.00178,-0.1432
0.1,0.6454,0.00825,0.00178,-0.1432
0.2,0.6565,0.00827,0.00176,-0.143
0.3,0.6679,0.00829,0.00174,-0.1428
0.4,0.6795,0.00829,0.00174,-0.1428
0.5,0.6911,0.00829,0.00176,-0.1427
0.6,0.702,0.00833,0.00174,-0.1425
0.7,0.7134,0.00835,0.00174,-0.1424
0.8,0.7249,0.00836,0.00176,-0.1423
0.9,0.7361,0.0084,0.00176,-0.1421
1,0.7475,0.00842,0.00177,-0.142
1.1,0.7582,0.00849,0.00178,-0.1418
1.2,0.7688,0.00857,0.00181,-0.1415
1.3,0.7799,0.00862,0.00183,-0.1413
1.4,0.7909,0.00867,0.00186,-0.1411
1.5,0.8014,0.00877,0.00189,-0.1408
1.6,0.8108,0.00896,0.00193,-0.1403
1.7,0.8205,0.00914,0.00199,-0.1399
1.8,0.831,0.00925,0.00205,-0.1396
1.9,0.8414,0.00936,0.00211,-0.1394
2,0.8517,0.00949,0.00219,-0.1391
2.2,0.8705,0.00992,0.00237,-0.1383
2.3,0.8805,0.01008,0.00246,-0.138
2.4,0.8904,0.01027,0.00256,-0.1377
2.5,0.9001,0.01046,0.00268,-0.1373
2.6,0.9097,0.01065,0.0028,-0.137
2.7,0.9173,0.01108,0.00301,-0.1364
2.9,0.93,0.01025,0.00332,-0.1346
3,0.9401,0.01047,0.00344,-0.1343
3.1,0.9504,0.01065,0.00355,-0.1341
3.2,0.9608,0.01081,0.00364,-0.1339
3.3,0.9708,0.01104,0.00377,-0.1336
3.4,0.9816,0.01116,0.00387,-0.1334
3.5,0.9922,0.0113,0.00397,-0.1332
3.6,1.003,0.01141,0.00407,-0.133
3.7,1.0138,0.01154,0.00416,-0.1328
3.8,1.0241,0.01171,0.00427,-0.1326
3.9,1.0348,0.01184,0.0044,-0.1324
4,1.0456,0.01196,0.0045,-0.1322
4.1,1.0563,0.01207,0.0046,-0.132
4.2,1.0669,0.01221,0.00471,-0.1318
4.3,1.0777,0.01232,0.00481,-0.1316
4.4,1.0879,0.0125,0.00493,-0.1313
4.5,1.0987,0.01261,0.00503,-0.1311
4.6,1.1093,0.01274,0.00513,-0.1309
4.7,1.1198,0.01288,0.00526,-0.1307
4.8,1.1305,0.01299,0.00537,-0.1304
4.9,1.1411,0.01313,0.00548,-0.1302
5,1.1513,0.0133,0.00561,-0.1299
5.1,1.1618,0.01343,0.00573,-0.1297
5.2,1.1721,0.01359,0.00587,-0.1294
5.3,1.1827,0.01372,0.00603,-0.1291
5.4,1.1931,0.01386,0.00616,-0.1289
5.5,1.2033,0.01403,0.0063,-0.1286
5.6,1.2135,0.01419,0.00644,-0.1283
5.7,1.2237,0.01436,0.00658,-0.128
5.8,1.234,0.01452,0.00675,-0.1277
5.9,1.2443,0.01466,0.00689,-0.1274
6,1.2545,0.01483,0.00705,-0.1271
6.1,1.2645,0.01501,0.00722,-0.1267
6.2,1.2748,0.01517,0.00738,-0.1264
6.3,1.2845,0.01537,0.00755,-0.126
6.4,1.2945,0.01556,0.00774,-0.1257
6.5,1.3046,0.01572,0.00793,-0.1253
6.6,1.3146,0.0159,0.00811,-0.1249
6.7,1.3245,0.01609,0.0083,-0.1246
6.8,1.3342,0.0163,0.00851,-0.1241
6.9,1.3442,0.01647,0.00871,-0.1238
7,1.3541,0.01666,0.00891,-0.1234
7.2,1.373,0.01712,0.00934,-0.1225
7.3,1.3828,0.01731,0.00956,-0.1221
7.4,1.3926,0.0175,0.00978,-0.1216
7.5,1.4022,0.01771,0.01001,-0.1212
7.6,1.4116,0.01793,0.01025,-0.1207
7.7,1.4209,0.01817,0.0105,-0.1202
7.8,1.43,0.01843,0.01078,-0.1197
7.9,1.4393,0.01867,0.01107,-0.1191
8,1.4487,0.01889,0.01133,-0.1186
8.1,1.4579,0.01912,0.01161,-0.1181
8.2,1.4669,0.01936,0.01181,-0.1176
8.3,1.4756,0.01966,0.01212,-0.117
8.4,1.4844,0.01992,0.01242,-0.1164
8.5,1.4934,0.02016,0.01271,-0.1158
8.6,1.5023,0.02042,0.01301,-0.1152
8.7,1.5109,0.02069,0.01332,-0.1146
8.8,1.5195,0.02097,0.01363,-0.114
8.9,1.5275,0.02129,0.01391,-0.1134
9,1.5361,0.02155,0.01424,-0.1127
9.1,1.5444,0.02184,0.01457,-0.112
9.2,1.5525,0.02214,0.01492,-0.1113
9.3,1.5604,0.02245,0.01529,-0.1106
9.4,1.5682,0.02277,0.01565,-0.1098
9.5,1.5756,0.02312,0.01603,-0.109
9.6,1.5825,0.0235,0.01645,-0.1082
9.7,1.5897,0.02384,0.01686,-0.1073
9.8,1.5965,0.0242,0.01729,-0.1064
9.9,1.603,0.02458,0.01772,-0.1054
10,1.6093,0.02496,0.01817,-0.1044
10.1,1.6152,0.02536,0.01862,-0.1034
10.2,1.6205,0.02575,0.01908,-0.1022
10.3,1.6251,0.02617,0.01955,-0.1009
10.4,1.6295,0.02661,0.02004,-0.0997
10.5,1.6333,0.02709,0.02058,-0.0984
10.6,1.6364,0.02763,0.02119,-0.097
10.7,1.6399,0.02813,0.02176,-0.0956
10.8,1.6431,0.02866,0.02237,-0.0942
10.9,1.646,0.02921,0.02301,-0.0929
11,1.6484,0.02979,0.02368,-0.0915
11.1,1.6507,0.0304,0.02437,-0.0901
11.2,1.6525,0.03103,0.02509,-0.0887
11.3,1.6541,0.03168,0.02583,-0.0873
11.4,1.6554,0.03236,0.02662,-0.0859
11.5,1.6564,0.03307,0.02741,-0.0846
11.6,1.6571,0.03381,0.02824,-0.0832
11.7,1.6575,0.03456,0.02908,-0.0819
11.8,1.6576,0.03535,0.02995,-0.0806
11.9,1.6575,0.03617,0.03086,-0.0794
12,1.657,0.03703,0.03181,-0.0782
12.1,1.6563,0.03792,0.03279,-0.0771
12.2,1.6551,0.03886,0.03381,-0.076
12.3,1.6535,0.03984,0.03488,-0.0749
12.4,1.6517,0.04087,0.03599,-0.0739
12.5,1.6495,0.04195,0.03716,-0.0731
12.7,1.6497,0.04378,0.0391,-0.0718
12.8,1.6464,0.04503,0.04045,-0.0712
12.9,1.6428,0.04635,0.04188,-0.0706
13,1.6388,0.04775,0.04338,-0.0703
13.1,1.6347,0.04922,0.04496,-0.07
13.2,1.6304,0.05077,0.04661,-0.07
13.3,1.6258,0.0524,0.04835,-0.0702
13.4,1.6211,0.05412,0.05017,-0.0705
13.5,1.616,0.05595,0.0521,-0.0711
13.6,1.6109,0.05787,0.05413,-0.072
13.7,1.6055,0.05992,0.05628,-0.0732
13.8,1.6,0.06212,0.05859,-0.0747
13.9,1.5946,0.06444,0.06101,-0.0765
14,1.589,0.06698,0.06367,-0.0788
14.1,1.5835,0.06972,0.06652,-0.0815
14.2,1.5779,0.07276,0.06967,-0.0848
14.4,1.5667,0.07995,0.0771,-0.0934
14.5,1.5609,0.08438,0.08166,-0.0988
14.8,1.5404,0.10187,0.09953,-0.1184
14.9,1.5322,0.10775,0.10551,-0.1242
15.1,1.5168,0.1184,0.11628,-0.1344
15.2,1.5095,0.12344,0.12137,-0.1391
15.3,1.5031,0.1282,0.12618,-0.1436
15.4,1.4974,0.13273,0.13075,-0.1478
15.5,1.492,0.1372,0.13526,-0.1519
16.1,1.4631,0.16372,0.16205,-0.1753
16.3,1.4566,0.17246,0.17081,-0.1826
16.7,1.4379,0.19994,0.19829,-0.2001
16.8,1.4397,0.2029,0.20125,-0.2022
16.9,1.4419,0.20555,0.2039,-0.2041
17,1.4444,0.20794,0.20629,-0.2059
17.1,1.4471,0.21015,0.2085,-0.2076
17.2,1.45,0.21224,0.2106,-0.2093
17.3,1.4529,0.21424,0.2126,-0.2109
17.4,1.4559,0.21614,0.2145,-0.2125
17.5,1.4589,0.218,0.21636,-0.2141
17.6,1.462,0.21978,0.21814,-0.2157
17.7,1.4651,0.22154,0.2199,-0.2172
17.8,1.4682,0.22324,0.22161,-0.2188
17.9,1.4713,0.22488,0.22325,-0.2203
18,1.4745,0.22652,0.2249,-0.2218
18.1,1.4776,0.2281,0.22648,-0.2233
18.2,1.4808,0.22966,0.22804,-0.2248
18.3,1.4839,0.23127,0.22965,-0.2263
18.4,1.487,0.2327,0.23108,-0.2277
18.5,1.49,0.23413,0.23254,-0.2292
18.6,1.493,0.2356,0.23401,-0.2307
18.7,1.4959,0.23699,0.2354,-0.2321
18.8,1.4988,0.2412,0.2396,-0.2343
18.9,1.5024,0.24749,0.24586,-0.2368
19,1.506,0.25086,0.24923,-0.2386
19.1,1.5095,0.25351,0.25189,-0.2403
19.2,1.513,0.25608,0.25446,-0.242
19.3,1.5165,0.25841,0.2568,-0.2436
19.4,1.52,0.26062,0.25901,-0.2452
19.5,1.5235,0.26274,0.26113,-0.2468
19.6,1.527,0.26485,0.26325,-0.2484
19.7,1.5304,0.26689,0.26529,-0.2499
19.8,1.5339,0.26889,0.26729,-0.2515
19.9,1.5373,0.27085,0.26926,-0.253
20,1.5408,0.27278,0.27119,-0.2546
20.1,1.5442,0.27469,0.2731,-0.2562
20.2,1.5476,0.27658,0.275,-0.2577
20.3,1.551,0.27843,0.27685,-0.2593
20.4,1.5543,0.2803,0.27873,-0.2608
20.5,1.5577,0.28215,0.28058,-0.2623
20.6,1.561,0.28394,0.28238,-0.2639
20.7,1.5644,0.28577,0.28421,-0.2654
20.8,1.5677,0.28754,0.28599,-0.267
20.9,1.571,0.28933,0.28778,-0.2685
21,1.5742,0.29108,0.28952,-0.2701
21.1,1.5775,0.29287,0.29132,-0.2716
21.2,1.5807,0.2946,0.29305,-0.2732
21.3,1.584,0.2964,0.29486,-0.2748
21.4,1.5872,0.2981,0.29657,-0.2763
21.5,1.5904,0.29986,0.29833,-0.2779
21.6,1.5937,0.30162,0.30009,-0.2795
21.7,1.5968,0.30336,0.30184,-0.281
21.8,1.6,0.30506,0.30355,-0.2826
21.9,1.6032,0.30684,0.30533,-0.2842
22,1.6063,0.3085,0.307,-0.2858
22.1,1.6094,0.31029,0.30879,-0.2873
22.2,1.6125,0.31201,0.31051,-0.2889
22.3,1.6156,0.31371,0.31222,-0.2905
22.4,1.6187,0.3155,0.31401,-0.2921
22.5,1.6217,0.31728,0.31582,-0.2937
22.6,1.6247,0.31903,0.31757,-0.2953
22.8,1.63,0.32187,0.32042,-0.2984
22.9,1.6329,0.3237,0.32225,-0.3
23,1.6357,0.32555,0.32411,-0.3016
23.3,1.639,0.33655,0.33508,-0.3049
23.4,1.6434,0.34016,0.33869,-0.3069
23.5,1.6473,0.34309,0.34161,-0.3087
23.6,1.651,0.34587,0.3444,-0.3105
23.7,1.6549,0.34881,0.34735,-0.3124
23.8,1.6584,0.35116,0.3497,-0.3142
23.9,1.6619,0.35358,0.35212,-0.316
24,1.6654,0.35588,0.35443,-0.3178
24.1,1.669,0.3583,0.35685,-0.3197
24.2,1.6723,0.36046,0.35902,-0.3214
24.3,1.6757,0.36269,0.36124,-0.3232
24.4,1.6789,0.36476,0.36332,-0.325
24.5,1.6822,0.36691,0.36548,-0.3268
24.6,1.6855,0.36904,0.36761,-0.3286
24.7,1.6889,0.37112,0.3697,-0.3305
24.8,1.6921,0.37317,0.37175,-0.3323
24.9,1.6952,0.37521,0.3738,-0.3341
25,1.6984,0.37723,0.37582,-0.3359
25.1,1.7015,0.37925,0.37785,-0.3377
25.2,1.7047,0.38122,0.37982,-0.3396
25.3,1.7078,0.3832,0.38181,-0.3414
25.4,1.7109,0.38519,0.3838,-0.3432
25.5,1.7139,0.38716,0.38578,-0.345
25.6,1.717,0.38914,0.38776,-0.3469
25.7,1.72,0.39104,0.38967,-0.3487
25.8,1.7229,0.39297,0.39161,-0.3506
25.9,1.7259,0.39492,0.39356,-0.3524
26,1.7289,0.39678,0.39542,-0.3543
26.1,1.7318,0.39876,0.39741,-0.3561
26.2,1.7347,0.40064,0.39931,-0.358
26.3,1.7376,0.40255,0.40123,-0.3599
26.4,1.7404,0.40449,0.40317,-0.3617
26.5,1.7433,0.40637,0.40506,-0.3636
26.6,1.7461,0.40828,0.40698,-0.3655
26.7,1.7489,0.41017,0.40886,-0.3673
26.8,1.7516,0.41203,0.41073,-0.3692
26.9,1.7544,0.41392,0.41263,-0.3711
27,1.7571,0.41585,0.41456,-0.373
27.1,1.7598,0.41771,0.41643,-0.3749
27.2,1.7624,0.41961,0.41834,-0.3768
27.3,1.7651,0.42163,0.42036,-0.3787
27.4,1.7678,0.42359,0.42233,-0.3806
27.5,1.7704,0.42552,0.42426,-0.3825
27.6,1.773,0.42746,0.42622,-0.3844
27.7,1.7756,0.42938,0.42814,-0.3863
27.8,1.7781,0.43136,0.43013,-0.3882
27.9,1.7807,0.43335,0.43212,-0.3901
28,1.7832,0.43535,0.43413,-0.3921
28.1,1.7857,0.43735,0.43613,-0.394
28.2,1.7882,0.43943,0.43821,-0.3959
28.3,1.7907,0.44149,0.44028,-0.3979
28.4,1.793,0.44351,0.44231,-0.3998
28.5,1.7954,0.4456,0.4444,-0.4017
28.6,1.7979,0.44775,0.44657,-0.4036
28.7,1.8003,0.44994,0.44875,-0.4056
28.8,1.8026,0.45212,0.45094,-0.4075
28.9,1.805,0.45432,0.45315,-0.4095
29,1.8074,0.45658,0.45542,-0.4114
29.1,1.8097,0.45886,0.45772,-0.4134
29.2,1.812,0.46119,0.46005,-0.4153
29.3,1.8138,0.46348,0.46234,-0.4172
29.6,1.8279,0.47468,0.47352,-0.4251
29.7,1.8309,0.47749,0.47634,-0.4272
29.8,1.8339,0.48033,0.47918,-0.4295
29.9,1.8372,0.48319,0.48204,-0.4318
30,1.8399,0.48562,0.48448,-0.4339

