airfoilName st19.dat
Re 	190000
M 	2.500000e-01
N 	4.500000e+00
VACC 	0 VACCflag 1
XTR 	1.00 	1.00 XTRflag 0
alpha,cl,cd,cdp,cm
-30,-1.3633,0.51878,0.51565,0.2735
-29.9,-1.3605,0.51606,0.51292,0.2716
-29.8,-1.3578,0.51335,0.5102,0.2696
-29.7,-1.3549,0.51068,0.50753,0.2677
-29.6,-1.3521,0.50799,0.50483,0.2657
-29.5,-1.3492,0.50535,0.50218,0.2638
-29.4,-1.3463,0.50268,0.4995,0.2618
-29.3,-1.3435,0.50004,0.49686,0.2599
-29.2,-1.3406,0.49738,0.4942,0.258
-29.1,-1.3376,0.49475,0.49156,0.2561
-29,-1.3347,0.49213,0.48893,0.2541
-28.9,-1.3317,0.48953,0.48633,0.2522
-28.8,-1.3288,0.48693,0.48372,0.2503
-28.7,-1.3258,0.48435,0.48114,0.2484
-28.6,-1.3228,0.48212,0.4789,0.2465
-28.5,-1.3198,0.47954,0.47632,0.2446
-28.4,-1.3168,0.47695,0.47372,0.2427
-28.3,-1.3137,0.47437,0.47113,0.2409
-28.2,-1.3107,0.47181,0.46857,0.239
-28.1,-1.3076,0.46926,0.46601,0.2371
-28,-1.3045,0.46671,0.46346,0.2353
-27.9,-1.3014,0.46418,0.46091,0.2334
-27.8,-1.2983,0.46164,0.45837,0.2316
-27.7,-1.2951,0.45911,0.45583,0.2297
-27.6,-1.292,0.45657,0.45329,0.2279
-27.5,-1.2888,0.45407,0.45077,0.2261
-27.4,-1.2856,0.45157,0.44826,0.2243
-27.3,-1.2824,0.44908,0.44577,0.2224
-27.2,-1.2792,0.44658,0.44326,0.2206
-27.1,-1.276,0.44408,0.44075,0.2188
-27,-1.2728,0.44162,0.43829,0.217
-26.9,-1.2695,0.43915,0.43582,0.2152
-26.8,-1.2663,0.43671,0.43337,0.2135
-26.7,-1.263,0.43426,0.43092,0.2117
-26.6,-1.2597,0.43182,0.42847,0.2099
-26.5,-1.2564,0.4294,0.42605,0.2081
-26.4,-1.253,0.42699,0.42363,0.2063
-26.3,-1.2497,0.42457,0.42121,0.2046
-26.2,-1.2463,0.42217,0.4188,0.2028
-26.1,-1.243,0.41977,0.4164,0.2011
-26,-1.2396,0.41739,0.414,0.1993
-25.9,-1.2362,0.41502,0.41163,0.1976
-25.8,-1.2328,0.41263,0.40924,0.1958
-25.7,-1.2294,0.41029,0.40689,0.1941
-25.6,-1.2259,0.40793,0.40453,0.1924
-25.5,-1.2225,0.40561,0.4022,0.1907
-25.4,-1.219,0.40327,0.39986,0.1889
-25.3,-1.2155,0.40094,0.39753,0.1872
-25.2,-1.212,0.39863,0.39521,0.1855
-25.1,-1.2085,0.39633,0.39291,0.1838
-25,-1.205,0.39404,0.39059,0.1821
-24.9,-1.2015,0.39175,0.3883,0.1804
-24.8,-1.1979,0.38948,0.38602,0.1787
-24.7,-1.1943,0.38721,0.38375,0.177
-24.6,-1.1907,0.38496,0.38149,0.1754
-24.5,-1.1871,0.38272,0.37925,0.1737
-24.4,-1.1835,0.38049,0.37702,0.172
-24.3,-1.1799,0.37826,0.37479,0.1703
-24.2,-1.1762,0.37605,0.37257,0.1687
-24.1,-1.1726,0.37384,0.37036,0.167
-24,-1.1689,0.37166,0.36817,0.1653
-23.9,-1.1652,0.36947,0.36598,0.1637
-23.8,-1.1615,0.3673,0.3638,0.162
-23.7,-1.1577,0.36513,0.36163,0.1604
-23.6,-1.154,0.36299,0.35948,0.1587
-23.5,-1.1502,0.36086,0.35734,0.1571
-23.4,-1.1464,0.35872,0.35521,0.1554
-23.3,-1.1426,0.3566,0.35308,0.1538
-23.2,-1.1387,0.3545,0.35098,0.1521
-23.1,-1.1348,0.35241,0.34889,0.1504
-23,-1.131,0.35032,0.34679,0.1488
-22.9,-1.127,0.34827,0.34473,0.1471
-22.8,-1.1231,0.34621,0.34268,0.1455
-22.7,-1.1191,0.34418,0.34064,0.1438
-22.6,-1.115,0.34216,0.33862,0.1421
-22.5,-1.1109,0.34015,0.33661,0.1404
-22.4,-1.1069,0.33815,0.3346,0.1388
-22.3,-1.1027,0.33617,0.33262,0.1371
-22.2,-1.0985,0.33422,0.33065,0.1354
-22.1,-1.0942,0.33228,0.3287,0.1336
-22,-1.0899,0.33034,0.32676,0.1319
-21.9,-1.0854,0.32841,0.32483,0.1301
-21.8,-1.0809,0.32647,0.32288,0.1283
-21.7,-1.0762,0.3245,0.32091,0.1264
-21.6,-1.0716,0.32244,0.31886,0.1246
-21.1,-1.0439,0.31044,0.30688,0.1149
-21,-1.0404,0.30824,0.30468,0.1136
-20.9,-1.0369,0.30606,0.30249,0.1123
-20.8,-1.0334,0.3039,0.30033,0.111
-20.7,-1.0298,0.30173,0.29816,0.1096
-20.6,-1.0263,0.29959,0.29602,0.1083
-20.5,-1.0227,0.29747,0.29389,0.107
-20.4,-1.0191,0.29537,0.29179,0.1057
-20.3,-1.0155,0.29328,0.28969,0.1044
-20.2,-1.0118,0.2912,0.28762,0.1031
-20,-1.0048,0.28741,0.28382,0.1004
-19.9,-1.001,0.28538,0.28178,0.0991
-19.8,-0.9972,0.28337,0.27977,0.0978
-19.7,-0.9934,0.28136,0.27776,0.0965
-19.6,-0.9896,0.27936,0.27576,0.0952
-19.5,-0.9858,0.27737,0.27376,0.0939
-19.4,-0.9819,0.2754,0.27178,0.0926
-19.3,-0.9781,0.27343,0.26981,0.0913
-19.2,-0.9742,0.27147,0.26785,0.09
-19.1,-0.9703,0.26952,0.26588,0.0888
-19,-0.9664,0.26757,0.26393,0.0875
-18.9,-0.9625,0.26564,0.26199,0.0862
-18.8,-0.9585,0.26371,0.26006,0.0849
-18.7,-0.9546,0.26179,0.25814,0.0837
-18.6,-0.9506,0.25988,0.25623,0.0824
-18.5,-0.9467,0.25798,0.25432,0.0811
-18.4,-0.9427,0.25608,0.25242,0.0799
-18.3,-0.9387,0.25419,0.25053,0.0787
-18.2,-0.9347,0.2523,0.24864,0.0774
-18.1,-0.9307,0.25043,0.24676,0.0762
-18,-0.9267,0.24856,0.24489,0.075
-17.9,-0.9227,0.24669,0.24302,0.0737
-17.8,-0.9187,0.24484,0.24116,0.0725
-17.7,-0.9147,0.24299,0.23931,0.0713
-17.6,-0.9106,0.24114,0.23746,0.0701
-17.5,-0.9066,0.2393,0.23562,0.0689
-17.4,-0.9026,0.23747,0.23379,0.0677
-17.3,-0.8985,0.23564,0.23196,0.0666
-17.2,-0.8944,0.23383,0.23014,0.0654
-17.1,-0.8904,0.23201,0.22833,0.0642
-17,-0.8863,0.23021,0.22652,0.0631
-16.9,-0.8822,0.22841,0.22472,0.0619
-16.8,-0.8781,0.22661,0.22292,0.0607
-16.7,-0.874,0.22482,0.22113,0.0596
-16.6,-0.8699,0.22304,0.21935,0.0584
-16.5,-0.8657,0.22126,0.21756,0.0573
-16.4,-0.8616,0.21948,0.21578,0.0561
-16.3,-0.8574,0.2177,0.21401,0.055
-16.2,-0.8532,0.21593,0.21223,0.0538
-16.1,-0.849,0.21417,0.21045,0.0527
-16,-0.8448,0.2124,0.20868,0.0516
-15.9,-0.8405,0.21064,0.20692,0.0504
-15.8,-0.8363,0.20889,0.20517,0.0493
-15.7,-0.832,0.20714,0.20342,0.0482
-15.6,-0.8277,0.2054,0.20167,0.047
-15.5,-0.8234,0.20365,0.19993,0.0459
-15.4,-0.8191,0.20191,0.19819,0.0447
-15.3,-0.8148,0.20016,0.19644,0.0436
-15.2,-0.8104,0.19842,0.1947,0.0425
-15.1,-0.806,0.19667,0.19295,0.0413
-15,-0.8016,0.19492,0.19119,0.0402
-14.9,-0.7971,0.19315,0.18942,0.0391
-14.8,-0.7926,0.19137,0.18764,0.0379
-14.7,-0.7881,0.18959,0.18586,0.0368
-14.6,-0.7835,0.18776,0.18404,0.0356
-14.5,-0.7788,0.18589,0.18217,0.0345
-14.4,-0.774,0.18398,0.18026,0.0333
-14.3,-0.769,0.18195,0.17823,0.032
-14.1,-0.7507,0.17686,0.17318,0.0274
-14,-0.7472,0.17509,0.17141,0.0265
-13.9,-0.7437,0.17335,0.16967,0.0257
-13.8,-0.7401,0.17163,0.16795,0.0249
-13.7,-0.7364,0.16994,0.16626,0.0241
-13.6,-0.7328,0.16826,0.16458,0.0232
-13.5,-0.7291,0.16661,0.16293,0.0224
-13.4,-0.7253,0.16499,0.16131,0.0215
-13.3,-0.7214,0.16338,0.15971,0.0207
-13.2,-0.7182,0.16206,0.15838,0.0199
-13.1,-0.7142,0.1605,0.15683,0.019
-13,-0.7101,0.15896,0.15529,0.0181
-12.9,-0.706,0.15744,0.15377,0.0172
-12.8,-0.7019,0.15593,0.15223,0.0163
-12.7,-0.6977,0.15443,0.15074,0.0154
-12.6,-0.6936,0.15295,0.14926,0.0145
-12.5,-0.6894,0.15148,0.14779,0.0136
-12.4,-0.6851,0.15001,0.14633,0.0127
-12.3,-0.6809,0.14857,0.14488,0.0118
-12.2,-0.6766,0.14713,0.14344,0.0109
-12.1,-0.6722,0.1457,0.14202,0.0101
-12,-0.6679,0.14427,0.1406,0.0092
-11.9,-0.6635,0.14286,0.13919,0.0083
-11.8,-0.6592,0.14146,0.13779,0.0074
-11.7,-0.6548,0.14006,0.13639,0.0065
-11.6,-0.6504,0.13868,0.13501,0.0057
-11.5,-0.646,0.13731,0.13364,0.0048
-11.4,-0.6416,0.13594,0.13228,0.0039
-11.3,-0.6372,0.13459,0.13093,0.0031
-11.2,-0.6328,0.13324,0.12959,0.0022
-11.1,-0.6284,0.13189,0.12825,0.0014
-11,-0.624,0.13057,0.12693,0.0006
-10.9,-0.6196,0.12925,0.12561,-0.0002
-10.8,-0.6153,0.12794,0.12431,-0.001
-10.7,-0.6109,0.12664,0.12302,-0.0018
-10.6,-0.6067,0.12535,0.12174,-0.0026
-10.5,-0.6024,0.12408,0.12046,-0.0033
-10.4,-0.5982,0.12282,0.11921,-0.0041
-10.3,-0.5941,0.12156,0.11797,-0.0048
-10.2,-0.5901,0.12033,0.11674,-0.0055
-10.1,-0.5862,0.11911,0.11552,-0.0061
-10,-0.5824,0.11791,0.11433,-0.0067
-9.9,-0.5788,0.11673,0.11316,-0.0073
-9.8,-0.5754,0.11557,0.112,-0.0078
-9.7,-0.5723,0.11445,0.11089,-0.0082
-9.6,-0.5695,0.11336,0.10981,-0.0085
-9.5,-0.5672,0.11232,0.10878,-0.0088
-9.4,-0.5651,0.11131,0.10779,-0.0089
-9.3,-0.5636,0.11035,0.10685,-0.0089
-9.2,-0.5626,0.10945,0.10596,-0.0088
-9.1,-0.5622,0.1086,0.10514,-0.0085
-9,-0.5625,0.10782,0.10438,-0.0081
-8.9,-0.5636,0.10712,0.10371,-0.0075
-8.8,-0.5655,0.10649,0.10311,-0.0067
-8.7,-0.5681,0.10594,0.10259,-0.0057
-8.6,-0.5711,0.1054,0.10208,-0.0047
-8.5,-0.5738,0.10483,0.10154,-0.0037
-8.4,-0.5644,0.10302,0.09972,-0.0059
-8.3,-0.5534,0.10105,0.09774,-0.0085
-8.2,-0.5418,0.09895,0.09563,-0.0114
-8.1,-0.5294,0.0967,0.09337,-0.0145
-7.9,-0.4982,0.09144,0.08811,-0.023
-7.7,-0.4806,0.08865,0.08531,-0.0266
-7.6,-0.4701,0.08712,0.08376,-0.0289
-7.5,-0.4589,0.08557,0.0822,-0.0313
-7.4,-0.4473,0.08402,0.08063,-0.0337
-7.3,-0.437,0.08259,0.07919,-0.0358
-7.2,-0.4259,0.08111,0.0777,-0.038
-7.1,-0.4146,0.07966,0.07624,-0.0403
-7,-0.4027,0.07819,0.07475,-0.0427
-6.9,-0.3902,0.0767,0.07325,-0.0452
-6.8,-0.3773,0.07519,0.0717,-0.0478
-6.7,-0.3638,0.07367,0.07016,-0.0505
-6.6,-0.3499,0.07212,0.0686,-0.0533
-6.5,-0.3394,0.07081,0.06727,-0.0551
-6.4,-0.3277,0.06942,0.06587,-0.0572
-6.3,-0.314,0.06791,0.06434,-0.0598
-6.2,-0.3,0.06641,0.06281,-0.0624
-6.1,-0.2854,0.06486,0.06124,-0.0652
-6,-0.2701,0.06328,0.05964,-0.0681
-5.9,-0.2543,0.06166,0.05799,-0.0711
-5.8,-0.2378,0.05998,0.05628,-0.0742
-5.7,-0.2206,0.05823,0.0545,-0.0775
-5.6,-0.2078,0.0567,0.05294,-0.0796
-5.5,-0.1932,0.05498,0.05118,-0.0822
-5.4,-0.1749,0.05283,0.04899,-0.0858
-5.3,-0.1372,0.04611,0.04213,-0.0962
-4.3,0.074,0.02046,0.01458,-0.1343
-4.2,0.0844,0.02008,0.01417,-0.1342
-4,0.1072,0.02033,0.01448,-0.1341
-3.9,0.1226,0.01925,0.01317,-0.1353
-3.8,0.1384,0.01813,0.01177,-0.1365
-3.7,0.1536,0.01715,0.01048,-0.1374
-3.6,0.1688,0.01642,0.00954,-0.1383
-3.5,0.1827,0.01605,0.00915,-0.1388
-3.4,0.1966,0.01579,0.00885,-0.1394
-3.3,0.2107,0.01551,0.00849,-0.1399
-3.2,0.223,0.0152,0.0081,-0.14
-3.1,0.2341,0.0149,0.0077,-0.1399
-3,0.2462,0.01474,0.00743,-0.14
-2.9,0.2592,0.0145,0.00719,-0.1402
-2.8,0.2724,0.01431,0.00696,-0.1405
-2.7,0.2858,0.0141,0.00669,-0.1409
-2.6,0.2999,0.01384,0.00635,-0.1413
-2.5,0.3137,0.01362,0.00601,-0.1416
-2.4,0.3271,0.01357,0.00604,-0.1421
-2.3,0.3377,0.01344,0.00589,-0.1418
-2.2,0.3491,0.0133,0.00568,-0.1417
-2.1,0.3615,0.01313,0.00544,-0.1417
-2,0.3744,0.01297,0.00527,-0.142
-1.9,0.3874,0.01286,0.00516,-0.1422
-1.8,0.4009,0.01281,0.0051,-0.1425
-1.7,0.4144,0.01268,0.0049,-0.1428
-1.6,0.4268,0.01256,0.0048,-0.143
-1.5,0.4365,0.0125,0.00476,-0.1425
-1.4,0.4486,0.01243,0.00467,-0.1426
-1.3,0.4611,0.01234,0.00456,-0.1427
-1.2,0.474,0.01228,0.00452,-0.1429
-1.1,0.4871,0.0122,0.00442,-0.1431
-1,0.5004,0.01211,0.00431,-0.1434
-0.9,0.5103,0.01207,0.00425,-0.143
-0.8,0.5219,0.01202,0.00423,-0.143
-0.7,0.534,0.01201,0.00423,-0.143
-0.6,0.5468,0.01193,0.00413,-0.1431
-0.5,0.5597,0.01185,0.00408,-0.1433
-0.4,0.5727,0.01178,0.00402,-0.1436
-0.3,0.5825,0.01177,0.004,-0.1431
-0.2,0.5943,0.01168,0.00391,-0.143
-0.1,0.6065,0.01161,0.00386,-0.1429
0,0.6174,0.01159,0.00381,-0.1427
0.1,0.6298,0.0115,0.00375,-0.1427
0.2,0.6422,0.01144,0.00369,-0.1427
0.3,0.6532,0.01142,0.00368,-0.1425
0.4,0.6654,0.01135,0.0036,-0.1424
0.5,0.6778,0.01131,0.00359,-0.1425
0.6,0.6887,0.0113,0.0036,-0.1423
0.7,0.7004,0.01125,0.00358,-0.1423
0.8,0.7127,0.01119,0.00351,-0.1422
0.9,0.7238,0.01117,0.0035,-0.142
1,0.7359,0.01113,0.00348,-0.142
1.1,0.7475,0.01109,0.00347,-0.1419
1.2,0.759,0.01105,0.00344,-0.1417
1.3,0.7709,0.01102,0.00343,-0.1417
1.4,0.7822,0.01099,0.00343,-0.1415
1.5,0.7941,0.01096,0.0034,-0.1414
1.6,0.8056,0.01092,0.00335,-0.1412
1.7,0.8171,0.01087,0.00337,-0.1411
1.8,0.8289,0.01084,0.00335,-0.141
1.9,0.8403,0.0108,0.00335,-0.1409
2,0.8516,0.01074,0.00333,-0.1406
2.2,0.866,0.00965,0.00328,-0.1383
2.3,0.8773,0.00971,0.00329,-0.1381
2.4,0.8884,0.00977,0.0033,-0.1378
2.5,0.8994,0.00985,0.00335,-0.1375
2.6,0.9095,0.00998,0.00334,-0.1369
2.7,0.9199,0.0101,0.00338,-0.1365
2.8,0.93,0.01024,0.00342,-0.1361
2.9,0.94,0.0104,0.00347,-0.1356
3,0.9496,0.01058,0.00355,-0.1351
3.1,0.9572,0.01092,0.00365,-0.1341
3.2,0.9662,0.01117,0.00376,-0.1335
3.3,0.9748,0.01144,0.00388,-0.1329
3.4,0.9832,0.01174,0.00403,-0.1322
3.5,0.9912,0.01206,0.0042,-0.1315
3.6,0.9991,0.01241,0.00437,-0.1309
3.7,1.0048,0.01298,0.00463,-0.1299
3.8,1.0132,0.01332,0.00483,-0.1293
3.9,1.022,0.01362,0.00501,-0.1289
4,1.0313,0.0139,0.00523,-0.1284
4.1,1.0407,0.01414,0.00541,-0.1281
4.2,1.0503,0.01439,0.0056,-0.1277
4.3,1.0593,0.01469,0.00581,-0.1273
4.4,1.0693,0.01488,0.00597,-0.1269
4.5,1.0791,0.01509,0.00615,-0.1266
4.6,1.0892,0.01527,0.00632,-0.1263
4.7,1.0989,0.01548,0.0065,-0.1259
4.8,1.1085,0.01571,0.00668,-0.1256
4.9,1.1185,0.0159,0.00686,-0.1252
5,1.1285,0.01608,0.00703,-0.1249
5.1,1.1383,0.01629,0.00721,-0.1245
5.2,1.1484,0.01645,0.0074,-0.1242
5.3,1.1583,0.01665,0.00758,-0.1239
5.4,1.1679,0.01687,0.0078,-0.1235
5.5,1.1777,0.01707,0.00799,-0.1231
5.6,1.1875,0.01726,0.00819,-0.1228
5.7,1.1974,0.01745,0.00839,-0.1224
5.8,1.207,0.01766,0.00859,-0.122
5.9,1.2168,0.01786,0.0088,-0.1216
6,1.2261,0.0181,0.00898,-0.1212
6.1,1.2358,0.0183,0.0092,-0.1208
6.2,1.2455,0.01851,0.00942,-0.1204
6.3,1.2548,0.01874,0.00965,-0.12
6.4,1.2644,0.01896,0.00989,-0.1195
6.5,1.274,0.01918,0.01013,-0.1191
6.6,1.2832,0.01942,0.01037,-0.1186
6.7,1.2925,0.01966,0.01062,-0.1182
6.8,1.3017,0.01991,0.01088,-0.1177
6.9,1.3106,0.02019,0.01115,-0.1172
7,1.3199,0.02043,0.01143,-0.1168
7.1,1.3291,0.02068,0.01172,-0.1162
7.2,1.338,0.02095,0.01201,-0.1157
7.3,1.3466,0.02126,0.01232,-0.1151
7.4,1.3557,0.02151,0.01259,-0.1147
7.5,1.3644,0.02179,0.0129,-0.1141
7.6,1.373,0.0221,0.01323,-0.1135
7.7,1.381,0.02246,0.01359,-0.1129
7.8,1.3896,0.02276,0.01395,-0.1123
7.9,1.3981,0.02307,0.01432,-0.1116
8,1.4064,0.0234,0.01471,-0.111
8.1,1.4144,0.02375,0.01513,-0.1103
8.2,1.4219,0.02412,0.01545,-0.1097
8.3,1.43,0.02446,0.01586,-0.109
8.4,1.4379,0.02482,0.0163,-0.1082
8.5,1.4456,0.0252,0.01674,-0.1075
8.6,1.453,0.02558,0.01719,-0.1067
8.7,1.4602,0.02599,0.01765,-0.1059
8.8,1.4668,0.02643,0.01812,-0.1051
8.9,1.4727,0.02694,0.01866,-0.1041
9,1.4787,0.02744,0.0192,-0.1032
9.1,1.4872,0.02769,0.01956,-0.1026
9.2,1.4934,0.02815,0.02009,-0.1016
9.3,1.4994,0.02861,0.02062,-0.1007
9.4,1.5049,0.02909,0.02116,-0.0996
9.6,1.5152,0.02992,0.02204,-0.0976
9.7,1.5197,0.03044,0.02266,-0.0964
9.8,1.5239,0.03097,0.02332,-0.0952
9.9,1.5279,0.03153,0.02396,-0.094
10,1.5317,0.03208,0.0246,-0.0928
10.1,1.5352,0.03265,0.02525,-0.0916
10.2,1.5384,0.03324,0.0259,-0.0904
10.3,1.541,0.03385,0.02658,-0.0891
10.4,1.5429,0.03453,0.02731,-0.0879
10.5,1.5437,0.03528,0.02813,-0.0865
10.6,1.5453,0.03605,0.02896,-0.0852
10.7,1.5473,0.03683,0.02988,-0.084
10.8,1.5487,0.03765,0.03082,-0.0827
11,1.5562,0.03871,0.03209,-0.081
11.1,1.5569,0.03952,0.03298,-0.0798
11.2,1.5574,0.04033,0.03389,-0.0787
11.3,1.5574,0.04119,0.03483,-0.0776
11.4,1.557,0.04208,0.0358,-0.0766
11.5,1.5562,0.04302,0.03682,-0.0756
11.6,1.5546,0.04403,0.0379,-0.0746
11.7,1.5525,0.0451,0.03905,-0.0737
11.8,1.5501,0.04626,0.04028,-0.0729
11.9,1.548,0.0475,0.04166,-0.0721
12,1.5453,0.0488,0.0431,-0.0714
12.1,1.5423,0.05015,0.04458,-0.0708
12.2,1.5389,0.05155,0.04612,-0.0704
12.3,1.5351,0.05303,0.04773,-0.0701
12.4,1.5311,0.05457,0.04939,-0.0699
12.5,1.527,0.05617,0.05112,-0.0699
12.6,1.5225,0.05785,0.05292,-0.0701
12.7,1.5179,0.0596,0.05479,-0.0705
12.8,1.5131,0.06144,0.05674,-0.0711
12.9,1.5082,0.06337,0.05879,-0.072
13,1.5032,0.06541,0.06095,-0.0731
13.2,1.4929,0.06985,0.06562,-0.0763
13.3,1.4878,0.07228,0.06817,-0.0784
13.4,1.4826,0.07488,0.07089,-0.081
13.5,1.4775,0.07771,0.07384,-0.084
13.6,1.4724,0.08077,0.07703,-0.0875
13.9,1.4574,0.09227,0.08891,-0.1019
14,1.4523,0.09725,0.09403,-0.1081
14.1,1.4468,0.10299,0.0999,-0.115
14.5,1.4175,0.12892,0.12617,-0.1412
14.6,1.4091,0.13572,0.133,-0.1472
14.7,1.4007,0.14268,0.13999,-0.1529
14.8,1.3926,0.14982,0.14713,-0.1583
15,1.3853,0.16046,0.15776,-0.166
15.2,1.3859,0.16709,0.16438,-0.1709
15.3,1.3875,0.16966,0.16696,-0.1729
15.4,1.3896,0.17195,0.16924,-0.1748
15.5,1.3919,0.17403,0.17133,-0.1766
15.6,1.3945,0.17592,0.17322,-0.1782
15.7,1.3972,0.17769,0.17499,-0.1798
15.8,1.4,0.17931,0.17662,-0.1813
15.9,1.4029,0.1808,0.17812,-0.1827
16,1.4059,0.18222,0.17954,-0.1842
16.1,1.4089,0.18351,0.18083,-0.1855
16.2,1.4119,0.18469,0.18202,-0.1868
16.3,1.4149,0.18578,0.18311,-0.188
16.4,1.4177,0.18672,0.18406,-0.1892
16.5,1.4148,0.19783,0.1951,-0.1948
16.6,1.4172,0.20127,0.19853,-0.197
16.7,1.4199,0.20403,0.2013,-0.1989
16.8,1.4229,0.20639,0.20365,-0.2006
16.9,1.426,0.20858,0.20585,-0.2023
17,1.4291,0.21064,0.20791,-0.2038
17.1,1.4323,0.21258,0.20985,-0.2054
17.2,1.4354,0.21445,0.21172,-0.2069
17.3,1.4386,0.21625,0.21353,-0.2084
17.4,1.4418,0.21795,0.21524,-0.2098
17.5,1.4451,0.21965,0.21694,-0.2113
17.6,1.4483,0.22126,0.21856,-0.2127
17.7,1.4515,0.22286,0.22016,-0.2141
17.8,1.4547,0.22439,0.2217,-0.2155
17.9,1.4579,0.22586,0.22318,-0.2169
18,1.461,0.22734,0.22466,-0.2182
18.1,1.4642,0.22875,0.22608,-0.2196
18.2,1.4673,0.23011,0.22744,-0.2209
18.3,1.4704,0.23149,0.22884,-0.2223
18.4,1.4734,0.23275,0.2301,-0.2236
18.5,1.4788,0.24085,0.23815,-0.2277
18.6,1.4824,0.2434,0.2407,-0.2294
18.7,1.4861,0.24576,0.24305,-0.2311
18.8,1.4896,0.24795,0.24525,-0.2327
18.9,1.4932,0.25006,0.24737,-0.2343
19,1.4967,0.25209,0.2494,-0.2358
19.1,1.5002,0.25405,0.25136,-0.2373
19.2,1.5037,0.25599,0.25331,-0.2389
19.3,1.5072,0.25787,0.25519,-0.2404
19.4,1.5106,0.25973,0.25709,-0.2419
19.5,1.5141,0.26156,0.25892,-0.2434
19.6,1.5175,0.26335,0.26071,-0.2449
19.7,1.5209,0.26512,0.26249,-0.2464
19.8,1.5243,0.2669,0.26427,-0.2479
19.9,1.5276,0.26863,0.26601,-0.2494
20,1.531,0.27033,0.26772,-0.2509
20.1,1.5343,0.27202,0.26941,-0.2524
20.2,1.5376,0.27372,0.27112,-0.2538
20.3,1.5409,0.27537,0.27277,-0.2553
20.4,1.5441,0.27705,0.27447,-0.2568
20.5,1.5474,0.27871,0.27613,-0.2583
20.6,1.5506,0.28031,0.27774,-0.2598
20.7,1.5538,0.28197,0.2794,-0.2612
20.8,1.557,0.28355,0.28099,-0.2627
20.9,1.5601,0.28515,0.2826,-0.2642
21,1.5632,0.28671,0.28417,-0.2656
21.1,1.5663,0.28831,0.28578,-0.2671
21.2,1.5693,0.28986,0.28733,-0.2686
21.3,1.5724,0.29149,0.28897,-0.27
21.4,1.5753,0.29302,0.29051,-0.2715
21.5,1.5783,0.29463,0.29212,-0.2729
21.6,1.5811,0.29624,0.29374,-0.2744
21.7,1.5864,0.30047,0.29794,-0.2768
21.8,1.5919,0.30498,0.30244,-0.2792
21.9,1.5961,0.30795,0.30541,-0.2811
22,1.6002,0.31082,0.30828,-0.283
22.1,1.604,0.31329,0.31075,-0.2847
22.2,1.6078,0.31572,0.31319,-0.2865
22.3,1.6115,0.31807,0.31555,-0.2882
22.4,1.615,0.32028,0.31776,-0.2899
22.5,1.6186,0.32249,0.31997,-0.2916
22.6,1.6221,0.32466,0.32215,-0.2933
22.7,1.6255,0.32677,0.32427,-0.295
22.8,1.629,0.3289,0.32641,-0.2967
22.9,1.6324,0.33099,0.32852,-0.2984
23,1.6358,0.33306,0.3306,-0.3001
23.1,1.6392,0.33511,0.33265,-0.3018
23.2,1.6425,0.33715,0.33471,-0.3035
23.3,1.6458,0.33918,0.33674,-0.3052
23.4,1.6491,0.34121,0.33877,-0.3069
23.5,1.6524,0.34321,0.34079,-0.3086
23.6,1.6557,0.34521,0.34279,-0.3103
23.7,1.6589,0.34721,0.3448,-0.312
23.8,1.6621,0.3492,0.34679,-0.3137
23.9,1.6653,0.35119,0.34879,-0.3154
24,1.6685,0.35317,0.35077,-0.3171
24.1,1.6717,0.35514,0.35275,-0.3188
24.3,1.6778,0.35847,0.3561,-0.3224
24.4,1.6809,0.36039,0.35803,-0.3242
24.5,1.684,0.3623,0.35994,-0.3259
24.6,1.687,0.36421,0.36186,-0.3276
24.7,1.69,0.36612,0.36379,-0.3294
24.8,1.693,0.36801,0.36568,-0.3311
24.9,1.696,0.36994,0.36761,-0.3328
25,1.699,0.37182,0.3695,-0.3346
25.1,1.7019,0.37375,0.37145,-0.3363
25.2,1.7048,0.37561,0.37331,-0.3381
25.3,1.7077,0.37751,0.37522,-0.3398
25.4,1.7106,0.37942,0.37714,-0.3416
25.5,1.7134,0.38134,0.37907,-0.3433
25.6,1.7162,0.38326,0.38099,-0.3451
25.7,1.719,0.38511,0.38286,-0.3469
25.8,1.7217,0.38703,0.38479,-0.3486
25.9,1.7245,0.38895,0.38672,-0.3504
26,1.7272,0.39087,0.38867,-0.3522
26.1,1.7299,0.39281,0.39062,-0.3539
26.2,1.7326,0.39476,0.39257,-0.3557
26.3,1.7352,0.39673,0.39455,-0.3575
26.4,1.7378,0.3987,0.39654,-0.3592
26.5,1.7404,0.4007,0.39854,-0.361
26.6,1.7429,0.40271,0.40056,-0.3628
26.7,1.7455,0.40476,0.40261,-0.3645
26.8,1.7479,0.40682,0.40469,-0.3663
26.9,1.7563,0.41325,0.41107,-0.3698
27,1.7604,0.41658,0.4144,-0.3721
27.1,1.7639,0.41936,0.41719,-0.3742
27.2,1.7674,0.42209,0.41991,-0.3763
27.3,1.7704,0.4245,0.42233,-0.3782
27.4,1.7736,0.42697,0.42481,-0.3803
27.5,1.7766,0.42938,0.42723,-0.3823
27.6,1.7796,0.43173,0.42958,-0.3843
27.7,1.7827,0.4341,0.43197,-0.3863
27.8,1.7855,0.43637,0.43423,-0.3883
27.9,1.7884,0.43866,0.43653,-0.3902
28,1.7912,0.44094,0.43882,-0.3923
28.1,1.794,0.44317,0.44106,-0.3943
28.2,1.7967,0.4454,0.4433,-0.3962
28.3,1.7995,0.44763,0.44554,-0.3982
28.4,1.8022,0.44987,0.44778,-0.4003
28.5,1.8049,0.45206,0.44998,-0.4023
28.6,1.8075,0.45428,0.45221,-0.4043
28.7,1.8101,0.45649,0.45443,-0.4063
28.8,1.8128,0.45871,0.45666,-0.4083
28.9,1.8153,0.46088,0.45883,-0.4103
29,1.8179,0.46309,0.46105,-0.4123
29.1,1.8204,0.46529,0.46326,-0.4143
29.2,1.8229,0.46746,0.46544,-0.4163
29.3,1.8254,0.46966,0.46766,-0.4184
29.4,1.8278,0.47185,0.46986,-0.4204
29.5,1.8303,0.47405,0.47208,-0.4224
29.6,1.8327,0.47623,0.47426,-0.4245
29.7,1.8351,0.47841,0.47645,-0.4265
29.8,1.8374,0.48061,0.47865,-0.4285
29.9,1.8398,0.48282,0.48088,-0.4306
30,1.8421,0.48501,0.48308,-0.4327

