airfoilName st19.dat
Re 	4.900000e+05
M 	2.500000e-01
N 	4.500000e+00
VACC 	0 VACCflag 1
XTR 	1.00 	1.00 XTRflag 0
alpha,cl,cd,cdp,cm
-30,-1.3777,0.49436,0.49254,0.2829
-29.9,-1.3748,0.49201,0.49019,0.2808
-29.8,-1.3719,0.48967,0.48784,0.2788
-29.7,-1.369,0.48735,0.48552,0.2768
-29.6,-1.3661,0.48503,0.4832,0.2747
-29.5,-1.3631,0.48273,0.48089,0.2727
-29.4,-1.3601,0.48041,0.47857,0.2707
-29.3,-1.3572,0.47813,0.47629,0.2687
-29.2,-1.3542,0.47583,0.47399,0.2667
-29.1,-1.3511,0.47357,0.47172,0.2647
-29,-1.3481,0.4713,0.46945,0.2627
-28.9,-1.345,0.46906,0.46721,0.2607
-28.8,-1.342,0.4668,0.46494,0.2587
-28.7,-1.3389,0.46458,0.46271,0.2568
-28.6,-1.3358,0.46236,0.4605,0.2548
-28.5,-1.3326,0.46017,0.4583,0.2528
-28.4,-1.3295,0.45797,0.45609,0.2508
-28.3,-1.3263,0.45579,0.45392,0.2489
-28.2,-1.3231,0.45361,0.45173,0.2469
-28.1,-1.3199,0.45145,0.44957,0.2449
-28,-1.3167,0.44932,0.44743,0.243
-27.9,-1.3134,0.44719,0.4453,0.241
-27.8,-1.3102,0.44509,0.44319,0.2391
-27.7,-1.3068,0.44298,0.44108,0.2371
-27.6,-1.3035,0.44096,0.43905,0.2351
-27.5,-1.3002,0.43888,0.43696,0.2332
-27.4,-1.2968,0.43681,0.43489,0.2312
-27.3,-1.2934,0.43478,0.43286,0.2293
-27.2,-1.29,0.43281,0.43088,0.2273
-27.1,-1.2865,0.43086,0.42893,0.2253
-27,-1.2831,0.42888,0.42695,0.2234
-26.9,-1.2796,0.4269,0.42497,0.2214
-26.8,-1.2761,0.42494,0.423,0.2195
-26.7,-1.2725,0.42305,0.42111,0.2175
-26.6,-1.2689,0.42114,0.4192,0.2155
-26.5,-1.2653,0.41924,0.4173,0.2135
-26.4,-1.2617,0.41737,0.41542,0.2115
-26.3,-1.258,0.41548,0.41353,0.2096
-26.2,-1.2542,0.41368,0.41173,0.2075
-26.1,-1.2504,0.41185,0.4099,0.2055
-26,-1.2466,0.40996,0.40801,0.2035
-25.9,-1.2428,0.408,0.40605,0.2016
-24.7,-1.1914,0.38661,0.38465,0.1767
-24.6,-1.1881,0.38409,0.38212,0.1751
-24.5,-1.1847,0.38158,0.37961,0.1736
-24.4,-1.1813,0.37907,0.37709,0.172
-24.3,-1.178,0.37658,0.3746,0.1704
-24.2,-1.1746,0.37407,0.37208,0.1689
-24.1,-1.1712,0.37157,0.36958,0.1673
-24,-1.1678,0.36908,0.36709,0.1658
-23.9,-1.1643,0.36662,0.36463,0.1642
-23.8,-1.161,0.36408,0.36209,0.1627
-23.7,-1.1575,0.36168,0.35968,0.1612
-23.6,-1.1541,0.35916,0.35716,0.1597
-23.5,-1.1506,0.35667,0.35467,0.1582
-23.4,-1.1472,0.35423,0.35222,0.1567
-23.3,-1.1437,0.35182,0.34981,0.1551
-23.2,-1.1402,0.34934,0.34733,0.1537
-23.1,-1.1368,0.3469,0.34488,0.1522
-23,-1.1332,0.34458,0.34256,0.1507
-22.9,-1.1297,0.34215,0.34013,0.1492
-22.8,-1.1262,0.3398,0.33778,0.1477
-22.7,-1.1227,0.33743,0.3354,0.1462
-22.6,-1.1191,0.33509,0.33306,0.1448
-22.5,-1.1156,0.33278,0.33074,0.1433
-22.4,-1.112,0.33052,0.32848,0.1418
-22.3,-1.1084,0.32827,0.32623,0.1404
-22.2,-1.1048,0.32604,0.324,0.1389
-22.1,-1.1012,0.32384,0.32178,0.1374
-22,-1.0975,0.32167,0.31961,0.136
-21.9,-1.0939,0.31952,0.31746,0.1345
-21.8,-1.0902,0.3174,0.31534,0.1331
-21.7,-1.0865,0.3153,0.31324,0.1316
-21.6,-1.0828,0.31323,0.31116,0.1301
-21.5,-1.0791,0.31117,0.3091,0.1287
-21.4,-1.0754,0.30913,0.30706,0.1273
-21.3,-1.0716,0.30711,0.30503,0.1258
-21.2,-1.0678,0.30511,0.30304,0.1244
-21.1,-1.064,0.30313,0.30105,0.1229
-21,-1.0602,0.30115,0.29907,0.1215
-20.9,-1.0564,0.2992,0.29711,0.12
-20.8,-1.0525,0.29724,0.29515,0.1186
-20.7,-1.0487,0.29531,0.29322,0.1172
-20.6,-1.0448,0.29338,0.29129,0.1158
-20.5,-1.0409,0.29145,0.28936,0.1144
-20.4,-1.037,0.28954,0.28744,0.1129
-20.3,-1.0331,0.28763,0.28553,0.1115
-20.2,-1.0292,0.28572,0.28362,0.1101
-20.1,-1.0253,0.28382,0.28172,0.1087
-20,-1.0214,0.28194,0.27984,0.1073
-19.9,-1.0174,0.28005,0.27794,0.106
-19.8,-1.0135,0.27816,0.27605,0.1046
-19.7,-1.0095,0.27629,0.27418,0.1032
-19.6,-1.0055,0.27441,0.2723,0.1018
-19.5,-1.0015,0.27254,0.27043,0.1005
-19.4,-0.9975,0.27067,0.26855,0.0991
-19.3,-0.9935,0.26881,0.2667,0.0977
-19.2,-0.9895,0.26695,0.26482,0.0964
-19.1,-0.9855,0.26509,0.26295,0.095
-19,-0.9814,0.26323,0.2611,0.0937
-18.9,-0.9773,0.26138,0.25924,0.0923
-18.8,-0.9732,0.25952,0.25738,0.091
-18.7,-0.9691,0.25767,0.25553,0.0896
-18.6,-0.965,0.25582,0.25368,0.0883
-18.5,-0.9609,0.25399,0.25184,0.087
-18.4,-0.9567,0.25215,0.25001,0.0856
-18.3,-0.9525,0.25032,0.24818,0.0843
-18.2,-0.9484,0.24848,0.24634,0.083
-18.1,-0.9442,0.24665,0.2445,0.0817
-18,-0.94,0.24483,0.24268,0.0803
-17.9,-0.9357,0.24301,0.24086,0.079
-17.8,-0.9315,0.24119,0.23904,0.0777
-17.7,-0.9272,0.23938,0.23722,0.0764
-17.6,-0.923,0.23755,0.2354,0.075
-17.5,-0.9187,0.23574,0.23358,0.0737
-17.4,-0.9144,0.23392,0.23176,0.0724
-17.3,-0.9101,0.23209,0.22993,0.0711
-17.2,-0.904,0.23028,0.22812,0.069
-17.1,-0.8996,0.22832,0.22616,0.0677
-17,-0.8953,0.22634,0.22418,0.0664
-16.9,-0.8908,0.22434,0.22217,0.0652
-16.7,-0.8816,0.2203,0.21813,0.0625
-16.6,-0.8765,0.21826,0.2161,0.0611
-16.5,-0.8714,0.21632,0.21416,0.0597
-16.4,-0.8658,0.21446,0.2123,0.0582
-16.2,-0.8534,0.21093,0.20879,0.0548
-16.1,-0.8498,0.20898,0.20685,0.0538
-16,-0.8462,0.20704,0.2049,0.0528
-15.9,-0.8426,0.20512,0.20297,0.0518
-15.8,-0.8391,0.20318,0.20102,0.0508
-15.7,-0.8354,0.20128,0.19912,0.0499
-15.6,-0.8318,0.19936,0.19721,0.0489
-15.5,-0.8282,0.19749,0.19533,0.0479
-15.4,-0.8246,0.19561,0.19345,0.0469
-15.3,-0.821,0.19376,0.1916,0.046
-15.2,-0.8172,0.19196,0.18979,0.045
-15.1,-0.8135,0.19017,0.18801,0.044
-15,-0.8097,0.18844,0.18628,0.043
-14.9,-0.8058,0.18673,0.18456,0.042
-14.8,-0.8019,0.18506,0.18289,0.041
-14.7,-0.7979,0.18341,0.18125,0.04
-14.6,-0.7939,0.1818,0.17963,0.039
-14.5,-0.7897,0.18019,0.17803,0.0379
-14.4,-0.7856,0.17862,0.17645,0.0369
-14.3,-0.7813,0.17706,0.1749,0.0358
-14.2,-0.7771,0.1755,0.17334,0.0348
-14.1,-0.7728,0.17398,0.17182,0.0338
-14,-0.7684,0.17246,0.1703,0.0327
-13.9,-0.7641,0.17094,0.16878,0.0317
-13.8,-0.7597,0.16945,0.16728,0.0306
-13.7,-0.7553,0.16795,0.16578,0.0296
-13.6,-0.7508,0.16647,0.1643,0.0285
-13.5,-0.7463,0.16499,0.16282,0.0275
-13.4,-0.7418,0.1635,0.16133,0.0264
-13.3,-0.7373,0.16201,0.15985,0.0254
-13.2,-0.7327,0.16054,0.15838,0.0243
-13.1,-0.7281,0.15906,0.15689,0.0233
-13,-0.7235,0.15758,0.15542,0.0222
-12.9,-0.7188,0.15611,0.15393,0.0212
-12.8,-0.7141,0.15463,0.15246,0.0201
-12.7,-0.7095,0.15315,0.15098,0.0191
-12.6,-0.7048,0.15168,0.14951,0.018
-12.5,-0.7001,0.15021,0.14804,0.017
-12.4,-0.6954,0.14873,0.14656,0.016
-12.3,-0.6907,0.14726,0.14509,0.0149
-12.2,-0.6859,0.14578,0.14361,0.0139
-12.1,-0.6811,0.1443,0.14214,0.0129
-12,-0.6764,0.14282,0.14066,0.0118
-11.9,-0.6716,0.14134,0.13917,0.0108
-11.8,-0.6668,0.13985,0.13769,0.0098
-11.7,-0.6619,0.13837,0.13621,0.0088
-11.6,-0.6572,0.13688,0.13472,0.0078
-11.5,-0.6523,0.13538,0.13322,0.0068
-11.4,-0.6475,0.13388,0.13172,0.0058
-11.3,-0.6427,0.13236,0.1302,0.0048
-11.2,-0.6379,0.13083,0.12867,0.0038
-11.1,-0.6306,0.12821,0.12606,0.002
-11,-0.6252,0.12652,0.12437,0.001
-10.9,-0.6194,0.12485,0.1227,-0.0002
-10.8,-0.6131,0.12321,0.12106,-0.0015
-10.6,-0.5991,0.12011,0.118,-0.0046
-10.5,-0.5955,0.11868,0.11658,-0.0053
-10.4,-0.5921,0.11728,0.11518,-0.0058
-10.3,-0.5887,0.11592,0.11382,-0.0064
-10.2,-0.5855,0.11457,0.11248,-0.0069
-10.1,-0.5826,0.11325,0.11116,-0.0074
-10,-0.5798,0.11199,0.10991,-0.0077
-9.9,-0.5775,0.11077,0.1087,-0.008
-9.8,-0.5757,0.10964,0.10757,-0.0082
-9.7,-0.5745,0.10857,0.10652,-0.0082
-9.6,-0.5738,0.10762,0.10558,-0.008
-9.5,-0.5743,0.10679,0.10476,-0.0075
-9.4,-0.5761,0.10613,0.10413,-0.0067
-9.2,-0.5629,0.10322,0.1012,-0.0097
-9.1,-0.5551,0.10173,0.09971,-0.0114
-9,-0.547,0.10027,0.09824,-0.0133
-8.9,-0.5385,0.09881,0.09677,-0.0153
-8.8,-0.5299,0.09739,0.09535,-0.0172
-8.7,-0.5217,0.096,0.09396,-0.019
-8.6,-0.5119,0.09452,0.09247,-0.0213
-8.5,-0.5017,0.09303,0.09097,-0.0236
-8.4,-0.4911,0.09155,0.08948,-0.026
-8.3,-0.4802,0.09005,0.08797,-0.0285
-8.2,-0.4688,0.08854,0.08646,-0.0311
-8.1,-0.4591,0.08715,0.08506,-0.0332
-8,-0.4488,0.08574,0.08364,-0.0354
-7.9,-0.438,0.08428,0.08218,-0.0377
-7.8,-0.4266,0.0828,0.08069,-0.0402
-7.7,-0.4143,0.08125,0.07913,-0.0429
-7.6,-0.4022,0.07973,0.07759,-0.0455
-7.5,-0.3896,0.07818,0.07602,-0.0482
-7.4,-0.3778,0.07668,0.07452,-0.0507
-7.3,-0.3678,0.07531,0.07314,-0.0526
-7.2,-0.3564,0.07385,0.07165,-0.055
-7.1,-0.3441,0.07233,0.07012,-0.0574
-7,-0.3313,0.07077,0.06855,-0.0601
-6.9,-0.318,0.06918,0.06695,-0.0628
-6.8,-0.3038,0.06752,0.06527,-0.0657
-6.7,-0.2886,0.06556,0.06328,-0.069
-6.6,-0.2779,0.06409,0.0618,-0.071
-5.1,0.0217,0.01612,0.01194,-0.141
-5,0.0358,0.01477,0.01032,-0.1421
-4.9,0.0488,0.01391,0.00927,-0.1427
-4.8,0.0615,0.01325,0.00844,-0.1431
-4.7,0.0743,0.01272,0.00776,-0.1434
-4.6,0.0869,0.0123,0.00721,-0.1436
-4.5,0.0995,0.01199,0.00679,-0.1437
-4.4,0.1125,0.01149,0.00619,-0.1441
-4.3,0.1249,0.01119,0.00583,-0.1442
-4.2,0.1369,0.01097,0.00555,-0.1443
-4.1,0.1489,0.01076,0.00529,-0.1443
-4,0.1611,0.01057,0.00504,-0.1444
-3.9,0.1734,0.01038,0.0048,-0.1444
-3.8,0.1857,0.01019,0.00455,-0.1445
-3.7,0.198,0.01001,0.00431,-0.1445
-3.6,0.2101,0.00986,0.00409,-0.1445
-3.5,0.2221,0.00971,0.00391,-0.1445
-3.4,0.2342,0.00956,0.00371,-0.1446
-3.3,0.2461,0.00944,0.00357,-0.1446
-3.2,0.2582,0.00933,0.00344,-0.1446
-3.1,0.2699,0.00932,0.00341,-0.1445
-3,0.2821,0.00919,0.00326,-0.1445
-2.9,0.2939,0.00907,0.00312,-0.1445
-2.8,0.3058,0.00898,0.00302,-0.1445
-2.7,0.3178,0.0089,0.00292,-0.1445
-2.6,0.3295,0.00888,0.00287,-0.1444
-2.5,0.3416,0.00877,0.00275,-0.1445
-2.4,0.3537,0.00868,0.00264,-0.1445
-2.3,0.3654,0.00861,0.00256,-0.1444
-2.2,0.3773,0.00855,0.00248,-0.1444
-2.1,0.3892,0.0085,0.0024,-0.1444
-2,0.401,0.00845,0.00232,-0.1444
-1.9,0.4129,0.00839,0.00228,-0.1444
-1.8,0.4248,0.00834,0.00222,-0.1444
-1.7,0.4366,0.00829,0.00216,-0.1443
-1.6,0.4484,0.00825,0.00211,-0.1443
-1.5,0.4602,0.00821,0.00204,-0.1443
-1.4,0.4721,0.00817,0.002,-0.1442
-1.3,0.4834,0.00814,0.00197,-0.1441
-1.2,0.495,0.00811,0.00191,-0.144
-1.1,0.5065,0.00809,0.00186,-0.1439
-1,0.5181,0.00806,0.00182,-0.1438
-0.9,0.5298,0.00803,0.00179,-0.1437
-0.8,0.5415,0.00802,0.00176,-0.1437
-0.7,0.5527,0.00801,0.00173,-0.1435
-0.6,0.5645,0.00799,0.00171,-0.1435
-0.5,0.5763,0.00798,0.00169,-0.1435
-0.3,0.5992,0.00798,0.00164,-0.1432
-0.2,0.6109,0.00796,0.00163,-0.1432
-0.1,0.6226,0.00796,0.00163,-0.1432
0,0.6341,0.00797,0.00162,-0.1431
0.1,0.6453,0.00798,0.00161,-0.1429
0.2,0.6568,0.00799,0.0016,-0.1428
0.3,0.6683,0.008,0.0016,-0.1428
0.4,0.6797,0.00802,0.00159,-0.1426
0.5,0.6907,0.00806,0.00159,-0.1424
0.6,0.7022,0.00807,0.00161,-0.1424
0.7,0.7136,0.0081,0.00161,-0.1423
0.8,0.7249,0.00813,0.00162,-0.1421
0.9,0.7355,0.00821,0.00163,-0.1419
1,0.7469,0.00824,0.00165,-0.1417
1.1,0.7573,0.00834,0.00167,-0.1414
1.2,0.7684,0.00839,0.0017,-0.1413
1.3,0.7794,0.00845,0.00173,-0.1411
1.4,0.7897,0.00858,0.00176,-0.1408
1.5,0.7992,0.00877,0.00182,-0.1403
1.6,0.8089,0.00895,0.00189,-0.1399
1.7,0.8195,0.00906,0.00195,-0.1397
1.8,0.83,0.00918,0.00201,-0.1395
1.9,0.8404,0.00931,0.00208,-0.1392
2,0.8493,0.00959,0.00219,-0.1387
2.1,0.8595,0.00974,0.00228,-0.1385
2.2,0.8695,0.0099,0.00236,-0.1382
2.3,0.8795,0.01008,0.00246,-0.1379
2.4,0.8893,0.01029,0.00256,-0.1376
2.5,0.899,0.0105,0.00269,-0.1373
2.6,0.9067,0.01096,0.00289,-0.1367
2.7,0.9164,0.01119,0.00302,-0.1364
2.8,0.9266,0.01134,0.00314,-0.1362
3,0.9414,0.0103,0.0034,-0.1348
3.1,0.9521,0.01045,0.0035,-0.1346
3.2,0.9623,0.01065,0.00362,-0.1343
3.3,0.9731,0.01077,0.0037,-0.1342
3.4,0.9839,0.01089,0.00379,-0.134
3.5,0.9948,0.011,0.00387,-0.1338
3.6,1.0055,0.01113,0.00396,-0.1336
3.7,1.016,0.01128,0.00406,-0.1334
3.8,1.0268,0.0114,0.00416,-0.1332
3.9,1.0377,0.01151,0.00427,-0.133
4,1.0484,0.01163,0.00436,-0.1329
4.1,1.0592,0.01175,0.00447,-0.1327
4.2,1.0701,0.01185,0.00456,-0.1325
4.3,1.0804,0.01202,0.00467,-0.1322
4.4,1.0912,0.01213,0.00476,-0.132
4.5,1.1019,0.01226,0.00486,-0.1318
4.6,1.1126,0.01238,0.00498,-0.1316
4.7,1.1233,0.01249,0.00508,-0.1314
4.8,1.1335,0.01267,0.0052,-0.1311
4.9,1.1442,0.01279,0.00531,-0.1309
5,1.1548,0.01292,0.00542,-0.1307
5.1,1.1653,0.01306,0.00556,-0.1304
5.2,1.1759,0.01318,0.0057,-0.1302
5.3,1.1864,0.01332,0.00582,-0.1299
5.4,1.1965,0.0135,0.00596,-0.1296
5.5,1.207,0.01364,0.00609,-0.1294
5.6,1.2173,0.0138,0.00623,-0.1291
5.7,1.2277,0.01394,0.00637,-0.1288
5.8,1.2381,0.01409,0.00651,-0.1285
5.9,1.2483,0.01425,0.00666,-0.1282
6,1.2585,0.01442,0.00682,-0.1279
6.1,1.2686,0.01459,0.00697,-0.1276
6.2,1.2787,0.01477,0.00713,-0.1272
6.3,1.2888,0.01494,0.00731,-0.1269
6.4,1.2991,0.01509,0.00747,-0.1266
6.5,1.3092,0.01526,0.00765,-0.1262
6.6,1.3191,0.01545,0.00783,-0.1258
6.7,1.3291,0.01564,0.00803,-0.1255
6.8,1.3392,0.0158,0.00821,-0.1251
6.9,1.3492,0.01598,0.00839,-0.1247
7,1.3587,0.01621,0.00859,-0.1243
7.1,1.3684,0.01641,0.00881,-0.1239
7.2,1.3784,0.01659,0.00901,-0.1235
7.3,1.3883,0.01677,0.00921,-0.1231
7.4,1.398,0.01697,0.00943,-0.1226
7.5,1.4076,0.01718,0.00965,-0.1222
7.6,1.4171,0.01741,0.00989,-0.1217
7.7,1.4264,0.01765,0.01015,-0.1212
7.8,1.4361,0.01785,0.0104,-0.1207
7.9,1.4456,0.01806,0.01064,-0.1203
8.1,1.4639,0.01854,0.01111,-0.1193
8.2,1.4728,0.01882,0.01141,-0.1187
8.3,1.4822,0.01903,0.01166,-0.1182
8.4,1.4914,0.01926,0.01193,-0.1176
8.5,1.5005,0.0195,0.01221,-0.1171
8.6,1.5094,0.01975,0.01249,-0.1165
8.7,1.5178,0.02005,0.01275,-0.1159
8.8,1.5266,0.02031,0.01306,-0.1153
8.9,1.5353,0.02056,0.01335,-0.1147
9,1.5439,0.02083,0.01366,-0.114
9.1,1.5524,0.02111,0.01398,-0.1134
9.2,1.5607,0.0214,0.0143,-0.1127
9.3,1.5687,0.02171,0.01466,-0.112
9.4,1.5763,0.02207,0.01504,-0.1112
9.5,1.5842,0.02236,0.0154,-0.1104
9.6,1.5919,0.02268,0.01577,-0.1097
9.7,1.5994,0.02301,0.01616,-0.1088
9.8,1.6066,0.02335,0.01655,-0.108
9.9,1.6135,0.02371,0.01696,-0.1071
10,1.6202,0.02407,0.01737,-0.1061
10.1,1.6264,0.02446,0.0178,-0.1051
10.2,1.6322,0.02488,0.01827,-0.1041
10.3,1.6372,0.02533,0.01878,-0.1029
10.4,1.6418,0.02574,0.01926,-0.1016
10.5,1.646,0.02617,0.01976,-0.1002
10.6,1.65,0.02662,0.02029,-0.0989
10.7,1.6536,0.0271,0.02085,-0.0975
10.8,1.6571,0.0276,0.02142,-0.0961
10.9,1.6603,0.02812,0.02201,-0.0948
11,1.6633,0.02865,0.02263,-0.0934
11.1,1.6659,0.02921,0.02326,-0.092
11.2,1.6685,0.02978,0.02393,-0.0906
11.3,1.6707,0.03037,0.0246,-0.0893
11.4,1.6726,0.03099,0.0253,-0.0879
11.5,1.6742,0.03164,0.02602,-0.0865
11.6,1.6754,0.03232,0.02678,-0.0852
11.7,1.6763,0.03303,0.02756,-0.0839
11.8,1.6767,0.03377,0.02839,-0.0825
12,1.68,0.03509,0.02982,-0.0803
12.1,1.6794,0.03594,0.03076,-0.079
12.2,1.6784,0.03684,0.03175,-0.0778
12.3,1.6771,0.03777,0.03278,-0.0766
12.4,1.6754,0.03874,0.03385,-0.0755
12.5,1.6733,0.03977,0.03497,-0.0744
12.6,1.6709,0.04086,0.03616,-0.0734
12.7,1.6683,0.04198,0.03738,-0.0725
12.8,1.6654,0.04316,0.03867,-0.0718
12.9,1.6621,0.04441,0.04001,-0.0711
13,1.6584,0.04572,0.04142,-0.0705
13.1,1.6546,0.0471,0.0429,-0.0701
13.2,1.6505,0.04855,0.04444,-0.0699
13.3,1.6462,0.05007,0.04607,-0.0698
13.4,1.6418,0.05167,0.04776,-0.0699
13.5,1.637,0.05338,0.04957,-0.0703
13.6,1.6322,0.05517,0.05146,-0.0708
13.7,1.627,0.05707,0.05346,-0.0716
13.8,1.6216,0.0591,0.05559,-0.0727
13.9,1.6163,0.06123,0.05782,-0.0741
14,1.6107,0.06355,0.06025,-0.0759
14.1,1.6051,0.06604,0.06284,-0.0781
14.2,1.5995,0.06877,0.06567,-0.0808
14.3,1.5939,0.07172,0.06874,-0.084
14.4,1.5881,0.0751,0.07224,-0.0879
14.5,1.5821,0.07894,0.07619,-0.0925
14.6,1.5762,0.08334,0.08072,-0.0979
14.7,1.5696,0.0886,0.08612,-0.1042
14.9,1.5531,0.10167,0.09946,-0.1183
15,1.5436,0.10788,0.10577,-0.1243
15.2,1.5258,0.11909,0.11711,-0.1349
15.3,1.5179,0.12428,0.12235,-0.1397
15.4,1.5106,0.12927,0.1274,-0.1444
15.5,1.5041,0.13403,0.1322,-0.1487
15.6,1.4982,0.13864,0.13686,-0.1529
16.1,1.4722,0.16148,0.15987,-0.1731
16.2,1.467,0.1665,0.16493,-0.1773
16.4,1.4544,0.17869,0.17717,-0.1867
16.5,1.4448,0.188,0.1865,-0.1929
16.6,1.4412,0.19453,0.19302,-0.1969
16.7,1.4418,0.19823,0.19672,-0.1995
16.8,1.4434,0.20114,0.19964,-0.2016
16.9,1.4455,0.20371,0.2022,-0.2035
17,1.4479,0.20606,0.20455,-0.2054
17.1,1.4505,0.20823,0.20673,-0.2071
17.2,1.4532,0.2103,0.20879,-0.2088
17.3,1.456,0.21226,0.21076,-0.2105
17.4,1.4589,0.21413,0.21263,-0.2121
17.5,1.4619,0.21596,0.21446,-0.2137
17.6,1.4649,0.21769,0.2162,-0.2153
17.7,1.4679,0.21943,0.21794,-0.2169
17.8,1.471,0.22111,0.21961,-0.2184
17.9,1.4741,0.22269,0.2212,-0.22
18,1.4771,0.2243,0.22281,-0.2215
18.1,1.4802,0.22583,0.22435,-0.223
18.2,1.4832,0.22736,0.22588,-0.2245
18.3,1.4861,0.22894,0.22746,-0.226
18.4,1.489,0.23032,0.22886,-0.2275
18.5,1.4915,0.23316,0.23168,-0.2294
18.6,1.4941,0.24106,0.23956,-0.2323
18.7,1.4973,0.24457,0.24307,-0.2342
18.8,1.5008,0.24737,0.24587,-0.2359
18.9,1.5042,0.24986,0.24836,-0.2376
19,1.5076,0.25221,0.25071,-0.2392
19.1,1.511,0.2544,0.2529,-0.2408
19.2,1.5145,0.25657,0.25509,-0.2424
19.3,1.5179,0.25864,0.25716,-0.244
19.4,1.5213,0.26067,0.2592,-0.2455
19.5,1.5247,0.26265,0.26118,-0.2471
19.6,1.5282,0.2646,0.26313,-0.2487
19.7,1.5316,0.26652,0.26505,-0.2502
19.8,1.535,0.26842,0.26695,-0.2518
19.9,1.5384,0.27029,0.26883,-0.2533
20,1.5417,0.27213,0.27068,-0.2548
20.1,1.5451,0.27396,0.2725,-0.2564
20.2,1.5485,0.27579,0.27434,-0.2579
20.3,1.5518,0.27754,0.2761,-0.2595
20.4,1.5551,0.27937,0.27793,-0.261
20.5,1.5584,0.28116,0.27972,-0.2625
20.6,1.5617,0.28288,0.28144,-0.2641
20.7,1.565,0.28465,0.28322,-0.2656
20.8,1.5682,0.28635,0.28493,-0.2672
20.9,1.5715,0.28809,0.28667,-0.2687
21,1.5747,0.28977,0.28835,-0.2703
21.1,1.5779,0.29152,0.29011,-0.2718
21.2,1.5811,0.2932,0.29179,-0.2734
21.3,1.5843,0.29497,0.29356,-0.2749
21.4,1.5874,0.29663,0.29523,-0.2765
21.5,1.5906,0.29836,0.29696,-0.278
21.6,1.5937,0.30009,0.2987,-0.2796
21.7,1.5969,0.30181,0.30042,-0.2811
21.8,1.5999,0.3035,0.30211,-0.2827
21.9,1.603,0.30527,0.30389,-0.2843
22,1.6061,0.30693,0.30556,-0.2858
22.1,1.6091,0.30873,0.30736,-0.2874
22.2,1.6121,0.31048,0.30911,-0.289
22.3,1.6151,0.31223,0.31086,-0.2906
22.4,1.6181,0.31405,0.3127,-0.2921
22.5,1.6203,0.31537,0.31403,-0.2937
22.6,1.6251,0.31903,0.31768,-0.2958
22.7,1.6295,0.32232,0.32097,-0.2978
22.8,1.6342,0.32606,0.3247,-0.2998
22.9,1.6383,0.32926,0.32791,-0.3017
23,1.6423,0.33224,0.33088,-0.3035
23.1,1.6461,0.33492,0.33357,-0.3053
23.2,1.6498,0.33752,0.33617,-0.3071
23.3,1.6533,0.33996,0.33861,-0.3089
23.4,1.6569,0.34239,0.34105,-0.3107
23.5,1.6604,0.34468,0.34334,-0.3124
23.6,1.6637,0.34688,0.34554,-0.3142
23.7,1.6672,0.34914,0.34781,-0.3159
23.8,1.6705,0.3513,0.34997,-0.3177
23.9,1.6738,0.35345,0.35213,-0.3195
24,1.6771,0.35557,0.35425,-0.3212
24.1,1.6804,0.3577,0.35638,-0.323
24.2,1.6836,0.35975,0.35844,-0.3248
24.3,1.6868,0.36182,0.36051,-0.3265
24.4,1.69,0.36384,0.36254,-0.3283
24.5,1.6932,0.36588,0.36458,-0.3301
24.6,1.6963,0.3679,0.36661,-0.3319
24.7,1.6995,0.3699,0.36861,-0.3337
24.8,1.7026,0.37187,0.37059,-0.3355
24.9,1.7056,0.37387,0.3726,-0.3372
25,1.7087,0.37582,0.37454,-0.339
25.1,1.7117,0.3778,0.37654,-0.3408
25.2,1.7147,0.3797,0.37844,-0.3427
25.3,1.7177,0.38164,0.38038,-0.3445
25.4,1.7207,0.38359,0.38233,-0.3463
25.5,1.7236,0.38552,0.38427,-0.3481
25.6,1.7265,0.38746,0.38622,-0.3499
25.7,1.7294,0.38932,0.38808,-0.3517
25.8,1.7323,0.39123,0.38999,-0.3535
25.9,1.7351,0.39312,0.3919,-0.3554
26,1.7379,0.39498,0.39376,-0.3572
26.1,1.7408,0.3969,0.39569,-0.359
26.2,1.7435,0.39878,0.39758,-0.3609
26.3,1.7463,0.40068,0.39949,-0.3627
26.4,1.7491,0.40256,0.40137,-0.3646
26.5,1.7518,0.40447,0.40329,-0.3664
26.6,1.7545,0.40633,0.40515,-0.3683
26.7,1.7572,0.40821,0.40704,-0.3701
26.8,1.7598,0.41009,0.40892,-0.372
26.9,1.7624,0.412,0.41084,-0.3738
27,1.7651,0.4139,0.41274,-0.3757
27.1,1.7677,0.41584,0.4147,-0.3776
27.2,1.7702,0.41773,0.41658,-0.3795
27.3,1.7729,0.41977,0.41863,-0.3813
27.4,1.7754,0.42171,0.42058,-0.3832
27.5,1.7779,0.4237,0.42257,-0.3851
27.6,1.7805,0.42569,0.42457,-0.387
27.7,1.7829,0.42769,0.42657,-0.3889
27.8,1.7855,0.42975,0.42864,-0.3908
27.9,1.7879,0.43182,0.43072,-0.3927
28,1.7903,0.43391,0.43281,-0.3946
28.1,1.7928,0.43604,0.43494,-0.3965
28.2,1.7953,0.43818,0.43709,-0.3984
28.3,1.7977,0.44035,0.43926,-0.4003
28.4,1.8001,0.44258,0.4415,-0.4022
28.5,1.8025,0.4448,0.44373,-0.4041
28.6,1.8049,0.44705,0.44599,-0.406
28.7,1.8073,0.44931,0.44825,-0.408
28.8,1.8096,0.45163,0.45058,-0.4099
28.9,1.8119,0.45393,0.45288,-0.4118
29,1.8201,0.45946,0.45838,-0.4154
29.1,1.8237,0.46262,0.46154,-0.4177
29.2,1.8273,0.46579,0.46471,-0.4199
29.3,1.8302,0.46841,0.46735,-0.4221
29.4,1.8332,0.47106,0.47,-0.4242
29.5,1.836,0.47351,0.47245,-0.4264
29.6,1.8387,0.47595,0.4749,-0.4285
29.7,1.8414,0.47829,0.47725,-0.4306
29.8,1.844,0.48061,0.47957,-0.4328
29.9,1.8467,0.48293,0.4819,-0.435
30,1.8492,0.48517,0.48414,-0.4371

