airfoilName st20.dat
Re 	3.500000e+05
M 	2.500000e-01
N 	4.500000e+00
VACC 	0 VACCflag 1
XTR 	1.00 	1.00 XTRflag 0
alpha,cl,cd,cdp,cm
-29.7,-1.3411,0.5008,0.49858,0.2718
-29.6,-1.3382,0.49832,0.49609,0.2698
-29.5,-1.3353,0.4958,0.49357,0.2679
-29.4,-1.3324,0.49334,0.49111,0.2659
-29.3,-1.3295,0.49088,0.48864,0.2639
-29.2,-1.3266,0.48844,0.48619,0.2619
-29.1,-1.3236,0.48598,0.48373,0.26
-29,-1.3206,0.48357,0.48132,0.258
-28.9,-1.3176,0.48114,0.47888,0.2561
-28.8,-1.3146,0.47875,0.47649,0.2541
-28.7,-1.3115,0.47634,0.47407,0.2522
-28.6,-1.3085,0.47398,0.4717,0.2503
-28.5,-1.3054,0.47163,0.46934,0.2483
-28.4,-1.3023,0.46925,0.46696,0.2464
-28.3,-1.2992,0.46691,0.46462,0.2445
-28.2,-1.296,0.46457,0.46228,0.2425
-28.1,-1.2929,0.46227,0.45997,0.2406
-28,-1.2897,0.45998,0.45768,0.2387
-27.9,-1.2865,0.4577,0.45539,0.2368
-27.8,-1.2833,0.45543,0.45312,0.2348
-27.7,-1.28,0.45318,0.45086,0.2329
-27.6,-1.2768,0.45094,0.44862,0.231
-27.5,-1.2735,0.44872,0.44639,0.2291
-27.4,-1.2702,0.44653,0.4442,0.2272
-27.3,-1.2669,0.44433,0.442,0.2253
-27.2,-1.2635,0.44217,0.43983,0.2234
-27.1,-1.2602,0.44,0.43766,0.2214
-27,-1.2568,0.43788,0.43554,0.2195
-26.9,-1.2534,0.43576,0.43341,0.2176
-26.8,-1.2499,0.43368,0.43133,0.2157
-26.7,-1.2465,0.43162,0.42926,0.2138
-26.6,-1.243,0.42955,0.42719,0.2119
-26.5,-1.2395,0.42749,0.42513,0.21
-26.4,-1.2359,0.42551,0.42315,0.208
-26.3,-1.2323,0.4235,0.42113,0.2061
-26.2,-1.2287,0.4215,0.41912,0.2042
-26.1,-1.225,0.41957,0.41718,0.2022
-26,-1.2214,0.41759,0.4152,0.2003
-25.9,-1.2176,0.41571,0.41332,0.1983
-25.8,-1.2138,0.41381,0.41141,0.1964
-25.7,-1.21,0.41193,0.40953,0.1944
-25.6,-1.2062,0.41005,0.40765,0.1924
-25.5,-1.2023,0.40813,0.40573,0.1905
-25.4,-1.1953,0.40875,0.40635,0.1869
-25.3,-1.1914,0.40661,0.4042,0.185
-25.2,-1.1875,0.40442,0.40202,0.1831
-25.1,-1.1835,0.40228,0.39987,0.1812
-25,-1.1794,0.40017,0.39775,0.1793
-23.2,-1.1088,0.35996,0.35751,0.1479
-23.1,-1.1053,0.35755,0.35509,0.1464
-23,-1.1018,0.35516,0.35271,0.145
-22.9,-1.0984,0.35276,0.3503,0.1435
-22.8,-1.0949,0.35039,0.34792,0.142
-22.7,-1.0914,0.34801,0.34555,0.1406
-22.6,-1.0879,0.34564,0.34317,0.1392
-22.5,-1.0844,0.34328,0.3408,0.1377
-22.4,-1.0809,0.34091,0.33844,0.1363
-22.3,-1.0775,0.33855,0.33607,0.1349
-22.2,-1.074,0.3362,0.33371,0.1335
-22.1,-1.0704,0.33385,0.33136,0.1321
-22,-1.0669,0.33153,0.32904,0.1306
-21.9,-1.0634,0.3292,0.32671,0.1293
-21.8,-1.0598,0.32691,0.32441,0.1279
-21.7,-1.0563,0.32458,0.32208,0.1265
-21.6,-1.0528,0.32231,0.31981,0.1251
-21.5,-1.0492,0.32003,0.31752,0.1237
-21.4,-1.0456,0.31778,0.31527,0.1224
-21.3,-1.0421,0.31554,0.31303,0.121
-21.2,-1.0385,0.31331,0.3108,0.1196
-21.1,-1.0349,0.31111,0.30859,0.1183
-21,-1.0313,0.30892,0.3064,0.1169
-20.9,-1.0276,0.30676,0.30424,0.1156
-20.8,-1.024,0.30463,0.30211,0.1142
-20.7,-1.0203,0.3025,0.29998,0.1129
-20.6,-1.0166,0.3004,0.29787,0.1115
-20.5,-1.0129,0.29832,0.29579,0.1102
-20.4,-1.0092,0.29625,0.29371,0.1088
-20.3,-1.0055,0.29421,0.29166,0.1075
-20.2,-1.0018,0.29218,0.28962,0.1061
-20.1,-0.998,0.29016,0.2876,0.1048
-20,-0.9942,0.28817,0.28561,0.1035
-19.9,-0.9904,0.28617,0.28361,0.1021
-19.8,-0.9866,0.28421,0.28165,0.1008
-19.7,-0.9828,0.28226,0.27969,0.0995
-19.6,-0.9789,0.28031,0.27774,0.0981
-19.5,-0.9751,0.27838,0.2758,0.0968
-19.4,-0.9712,0.27645,0.27387,0.0955
-19.3,-0.9673,0.27453,0.27195,0.0942
-19.2,-0.9635,0.27262,0.27004,0.0929
-19.1,-0.9595,0.27072,0.26814,0.0916
-19,-0.9556,0.26882,0.26624,0.0903
-18.9,-0.9517,0.26692,0.26433,0.089
-18.8,-0.9477,0.26503,0.26244,0.0877
-18.7,-0.9437,0.26314,0.26055,0.0864
-18.6,-0.9398,0.26126,0.25867,0.0851
-18.5,-0.9358,0.25938,0.25678,0.0838
-18.4,-0.9318,0.25751,0.25491,0.0826
-18.3,-0.9278,0.25564,0.25304,0.0813
-18.2,-0.9238,0.25377,0.25118,0.08
-18.1,-0.9197,0.25191,0.24931,0.0788
-18,-0.9157,0.25005,0.24745,0.0775
-17.9,-0.9117,0.2482,0.2456,0.0763
-17.8,-0.9076,0.24636,0.24375,0.075
-17.7,-0.9036,0.24452,0.24191,0.0738
-17.6,-0.8995,0.24269,0.24008,0.0725
-17.5,-0.8954,0.24085,0.23824,0.0713
-17.4,-0.8913,0.23903,0.23641,0.0701
-17.3,-0.8872,0.23721,0.2346,0.0688
-17.2,-0.883,0.23539,0.23276,0.0676
-17.1,-0.8789,0.23358,0.23095,0.0664
-17,-0.8747,0.23178,0.22914,0.0651
-16.9,-0.8706,0.22997,0.22733,0.0639
-16.8,-0.8664,0.22817,0.22553,0.0627
-16.7,-0.8622,0.22637,0.22373,0.0614
-16.6,-0.8579,0.22458,0.22194,0.0602
-16.5,-0.8537,0.22278,0.22014,0.059
-16.4,-0.8494,0.22099,0.21835,0.0577
-16.3,-0.845,0.21918,0.21654,0.0565
-16.2,-0.8407,0.21737,0.21473,0.0552
-16.1,-0.8342,0.21546,0.21282,0.0531
-16,-0.8298,0.21349,0.21085,0.0519
-15.9,-0.8253,0.21151,0.20887,0.0507
-15.8,-0.8207,0.2095,0.20686,0.0495
-15.7,-0.8159,0.20747,0.20483,0.0483
-15.6,-0.8109,0.20544,0.2028,0.047
-15.5,-0.8056,0.20346,0.20082,0.0456
-15.2,-0.787,0.1978,0.19519,0.0408
-15.1,-0.7835,0.19593,0.19332,0.0399
-15,-0.7799,0.19408,0.19147,0.0389
-14.9,-0.7763,0.19224,0.18963,0.038
-14.8,-0.7727,0.1904,0.18779,0.0371
-14.7,-0.7691,0.18857,0.18595,0.0362
-14.6,-0.7655,0.18675,0.18414,0.0353
-14.5,-0.7619,0.18495,0.18234,0.0344
-14.4,-0.7583,0.18315,0.18054,0.0335
-14.3,-0.7546,0.18138,0.17876,0.0326
-14.2,-0.751,0.17961,0.17699,0.0317
-14.1,-0.7473,0.17787,0.17526,0.0308
-14,-0.7436,0.17616,0.17355,0.0299
-13.9,-0.7398,0.17446,0.17185,0.029
-13.8,-0.736,0.17279,0.17016,0.0281
-13.7,-0.7321,0.17115,0.16852,0.0271
-13.6,-0.7282,0.16953,0.1669,0.0262
-13.5,-0.7243,0.16794,0.16531,0.0253
-13.4,-0.7204,0.16636,0.16373,0.0244
-13.3,-0.7163,0.16481,0.16218,0.0234
-13.2,-0.7123,0.16328,0.16065,0.0225
-13.1,-0.7082,0.16176,0.15913,0.0215
-13,-0.704,0.16025,0.15763,0.0206
-12.9,-0.6998,0.15876,0.15613,0.0196
-12.8,-0.6955,0.15728,0.15465,0.0187
-12.7,-0.6912,0.15581,0.15318,0.0177
-12.6,-0.6869,0.15434,0.15172,0.0168
-12.5,-0.6826,0.15288,0.15026,0.0158
-12.4,-0.6782,0.15143,0.14882,0.0149
-12.3,-0.6738,0.14999,0.14737,0.0139
-12.2,-0.6694,0.14856,0.14594,0.013
-12.1,-0.665,0.14712,0.14451,0.012
-12,-0.6605,0.14569,0.14308,0.0111
-11.9,-0.656,0.14427,0.14165,0.0101
-11.8,-0.6515,0.14284,0.14023,0.0091
-11.7,-0.647,0.14142,0.13882,0.0082
-11.6,-0.6425,0.14001,0.1374,0.0072
-11.5,-0.6379,0.13859,0.13599,0.0063
-11.4,-0.6334,0.13718,0.13458,0.0054
-11.3,-0.6289,0.13577,0.13317,0.0045
-11.2,-0.6244,0.13437,0.13177,0.0035
-11.1,-0.6198,0.13297,0.13037,0.0026
-11,-0.6153,0.13156,0.12897,0.0017
-10.9,-0.6108,0.13016,0.12757,0.0008
-10.8,-0.6063,0.12877,0.12618,0
-10.7,-0.6018,0.12737,0.12478,-0.0009
-10.6,-0.5974,0.12599,0.1234,-0.0018
-10.5,-0.593,0.12461,0.12201,-0.0026
-10.4,-0.5887,0.12322,0.12064,-0.0034
-10.3,-0.5844,0.12184,0.11926,-0.0042
-10.2,-0.5802,0.12047,0.11789,-0.005
-10.1,-0.5761,0.1191,0.11653,-0.0058
-10,-0.5721,0.11774,0.11518,-0.0064
-9.9,-0.5683,0.11639,0.11383,-0.0071
-9.8,-0.5623,0.11406,0.1115,-0.0085
-9.7,-0.5585,0.11264,0.1101,-0.0091
-9.6,-0.5552,0.11132,0.10878,-0.0096
-9.5,-0.5523,0.11011,0.10759,-0.01
-9.4,-0.5497,0.10898,0.10648,-0.0105
-9.1,-0.551,0.1067,0.10429,-0.0094
-9,-0.5546,0.10615,0.10377,-0.0081
-8.9,-0.5477,0.10443,0.10205,-0.0097
-8.8,-0.5398,0.10265,0.10026,-0.0115
-8.7,-0.5325,0.10095,0.09856,-0.0132
-8.6,-0.5247,0.09924,0.09684,-0.015
-8.5,-0.5161,0.09748,0.09507,-0.0171
-8.4,-0.5075,0.09575,0.09333,-0.0191
-8.3,-0.499,0.09409,0.09167,-0.021
-8.2,-0.4902,0.09247,0.09004,-0.023
-8,-0.4703,0.08921,0.08676,-0.0277
-7.9,-0.4599,0.08763,0.08517,-0.03
-7.8,-0.4491,0.08606,0.0836,-0.0325
-7.7,-0.4395,0.08463,0.08216,-0.0346
-7.6,-0.4297,0.08322,0.08074,-0.0367
-7.5,-0.419,0.08175,0.07925,-0.039
-7.4,-0.4078,0.08028,0.07777,-0.0414
-7.3,-0.3951,0.07873,0.0762,-0.0442
-7.2,-0.3828,0.07721,0.07467,-0.0468
-7.1,-0.3699,0.07568,0.07312,-0.0496
-7,-0.3566,0.07413,0.07156,-0.0524
-6.9,-0.3447,0.07267,0.07009,-0.0549
-6.8,-0.3341,0.07131,0.06872,-0.0569
-6.7,-0.3219,0.06984,0.06723,-0.0593
-6.6,-0.309,0.06831,0.06569,-0.0619
-6.5,-0.2954,0.06674,0.0641,-0.0646
-6.4,-0.2813,0.06513,0.06247,-0.0675
-6.3,-0.266,0.06343,0.06074,-0.0706
-6.2,-0.2508,0.06172,0.05901,-0.0737
-6.1,-0.2351,0.05995,0.05722,-0.0768
-4.6,0.0587,0.01738,0.01273,-0.138
-4.5,0.0742,0.01586,0.01089,-0.1395
-4.4,0.0886,0.01489,0.00968,-0.1404
-4.3,0.1028,0.01415,0.00873,-0.1411
-4.2,0.1165,0.0136,0.00801,-0.1416
-4.1,0.1301,0.0131,0.0074,-0.142
-4,0.1437,0.01264,0.00686,-0.1425
-3.9,0.1542,0.01237,0.00652,-0.1423
-3.8,0.1665,0.01211,0.00621,-0.1424
-3.7,0.1791,0.01187,0.00591,-0.1426
-3.6,0.1918,0.01163,0.0056,-0.1428
-3.5,0.2048,0.01138,0.00526,-0.143
-3.4,0.2178,0.01115,0.00495,-0.1432
-3.3,0.2308,0.01095,0.00466,-0.1434
-3.2,0.2423,0.01074,0.00444,-0.1433
-3.1,0.2541,0.0106,0.00427,-0.1433
-3,0.2661,0.01047,0.00412,-0.1434
-2.9,0.2783,0.01034,0.00396,-0.1434
-2.7,0.303,0.01015,0.00374,-0.1436
-2.6,0.3156,0.01004,0.0036,-0.1437
-2.5,0.3273,0.00995,0.00349,-0.1437
-2.4,0.3385,0.00992,0.00344,-0.1435
-2.3,0.3506,0.00978,0.00328,-0.1436
-2.2,0.3626,0.00968,0.00317,-0.1436
-2.1,0.3749,0.0096,0.00307,-0.1436
-2,0.3872,0.00952,0.00296,-0.1437
-1.9,0.3989,0.00946,0.00286,-0.1436
-1.8,0.4105,0.0094,0.00285,-0.1436
-1.7,0.4222,0.00934,0.00277,-0.1436
-1.6,0.4342,0.00928,0.00269,-0.1436
-1.5,0.4463,0.00923,0.00261,-0.1436
-1.4,0.4584,0.00915,0.00253,-0.1436
-1.3,0.47,0.00911,0.0025,-0.1436
-1.2,0.4816,0.00909,0.00247,-0.1435
-1.1,0.4933,0.00904,0.00242,-0.1435
-1,0.5052,0.00899,0.00238,-0.1435
-0.9,0.5172,0.00895,0.00233,-0.1435
-0.7,0.5398,0.00888,0.00225,-0.1432
-0.6,0.5515,0.00884,0.0022,-0.1431
-0.5,0.5628,0.00882,0.00216,-0.1429
-0.4,0.5744,0.00878,0.00211,-0.1428
-0.3,0.5861,0.00876,0.0021,-0.1427
-0.2,0.5976,0.00874,0.00208,-0.1427
-0.1,0.6091,0.00873,0.00203,-0.1425
0,0.6205,0.00871,0.00204,-0.1424
0.1,0.6321,0.00869,0.00202,-0.1423
0.2,0.6437,0.00869,0.00199,-0.1423
0.3,0.6551,0.00867,0.00198,-0.1421
0.4,0.6667,0.00867,0.00198,-0.1421
0.5,0.6782,0.00867,0.00196,-0.1419
0.6,0.6897,0.00866,0.00198,-0.1419
0.7,0.7009,0.00867,0.00196,-0.1417
0.8,0.7121,0.00869,0.00195,-0.1415
0.9,0.7236,0.00868,0.00196,-0.1414
1,0.7351,0.00869,0.00197,-0.1413
1.1,0.746,0.00873,0.00195,-0.141
1.2,0.7573,0.00874,0.00198,-0.1409
1.3,0.7687,0.00876,0.002,-0.1408
1.4,0.7798,0.00879,0.00201,-0.1406
1.5,0.79,0.00888,0.00201,-0.1402
1.6,0.8008,0.00894,0.00203,-0.14
1.7,0.8118,0.00898,0.00205,-0.1398
1.8,0.8219,0.0091,0.00208,-0.1394
1.9,0.8324,0.00917,0.00212,-0.1391
2,0.8413,0.00939,0.00218,-0.1385
2.1,0.8516,0.0095,0.00224,-0.1382
2.2,0.8618,0.00962,0.00231,-0.1379
2.3,0.8718,0.00974,0.00239,-0.1376
2.5,0.8827,0.00892,0.00264,-0.1352
2.6,0.8922,0.00915,0.00274,-0.1347
2.7,0.9015,0.0094,0.00288,-0.1343
2.8,0.9107,0.00968,0.00302,-0.1339
2.9,0.9197,0.00998,0.00315,-0.1334
3,0.9286,0.01029,0.0033,-0.133
3.1,0.9359,0.0108,0.00352,-0.1323
3.2,0.9457,0.01105,0.00366,-0.132
3.3,0.9558,0.01124,0.00378,-0.1318
3.4,0.9662,0.01142,0.00391,-0.1315
3.5,0.9765,0.01159,0.00403,-0.1313
3.6,0.9864,0.01181,0.00418,-0.131
3.7,0.9969,0.01196,0.00428,-0.1308
3.8,1.0074,0.0121,0.0044,-0.1305
3.9,1.018,0.01224,0.00451,-0.1303
4,1.0285,0.01238,0.00464,-0.1301
4.1,1.0386,0.01258,0.00477,-0.1298
4.2,1.0492,0.01271,0.00491,-0.1296
4.3,1.0597,0.01285,0.00503,-0.1293
4.4,1.0702,0.01299,0.00515,-0.1291
4.5,1.0807,0.01313,0.00527,-0.1289
4.6,1.0908,0.01331,0.00541,-0.1286
4.7,1.1012,0.01347,0.00553,-0.1283
4.8,1.1117,0.01361,0.00567,-0.1281
4.9,1.1221,0.01376,0.0058,-0.1278
5,1.1323,0.01392,0.00595,-0.1275
5.1,1.1427,0.01406,0.00609,-0.1272
5.2,1.1526,0.01427,0.00624,-0.1269
5.3,1.1629,0.01443,0.00639,-0.1266
5.4,1.1729,0.01462,0.00656,-0.1263
5.5,1.1833,0.01477,0.00671,-0.126
5.6,1.1934,0.01494,0.0069,-0.1257
5.7,1.2034,0.01513,0.00709,-0.1253
5.8,1.2133,0.01533,0.00725,-0.125
5.9,1.2231,0.01554,0.00744,-0.1246
6,1.2332,0.0157,0.00762,-0.1243
6.1,1.2432,0.01588,0.00781,-0.1239
6.2,1.253,0.01609,0.00801,-0.1236
6.3,1.2629,0.0163,0.00822,-0.1232
6.4,1.2729,0.01648,0.00843,-0.1228
6.6,1.2919,0.01695,0.00887,-0.122
6.7,1.3018,0.01714,0.00909,-0.1215
6.8,1.3116,0.01735,0.00932,-0.1211
6.9,1.3212,0.01757,0.00959,-0.1207
7,1.3306,0.01781,0.00984,-0.1202
7.1,1.3397,0.0181,0.01013,-0.1197
7.2,1.3493,0.01832,0.0104,-0.1192
7.3,1.3587,0.01855,0.01068,-0.1187
7.4,1.3681,0.01878,0.01092,-0.1183
7.5,1.3772,0.01905,0.01121,-0.1177
7.6,1.386,0.01936,0.01153,-0.1172
7.7,1.3953,0.01959,0.01178,-0.1167
7.8,1.4044,0.01985,0.01209,-0.1161
7.9,1.4133,0.02013,0.01241,-0.1156
8,1.4221,0.02043,0.01273,-0.115
8.1,1.4305,0.02076,0.01309,-0.1143
8.2,1.4386,0.02113,0.01349,-0.1136
8.3,1.4472,0.02143,0.01385,-0.113
8.4,1.4566,0.02161,0.01408,-0.1126
8.5,1.4649,0.02194,0.01445,-0.1119
8.6,1.4729,0.02229,0.01483,-0.1112
8.7,1.4805,0.0227,0.01527,-0.1105
8.8,1.4884,0.02305,0.0157,-0.1097
8.9,1.496,0.02343,0.01616,-0.1089
9,1.5034,0.02383,0.01662,-0.1081
9.1,1.5106,0.02424,0.0171,-0.1072
9.2,1.5176,0.02465,0.01758,-0.1064
9.3,1.5244,0.02508,0.01807,-0.1055
9.4,1.5308,0.02553,0.01858,-0.1045
9.5,1.5367,0.02602,0.01913,-0.1035
9.6,1.5417,0.02658,0.01975,-0.1024
9.7,1.5465,0.02712,0.02036,-0.1012
9.8,1.5512,0.02767,0.02101,-0.1
9.9,1.5548,0.02822,0.02166,-0.0986
10,1.5578,0.0288,0.02233,-0.0971
10.1,1.5605,0.0294,0.02303,-0.0957
10.2,1.563,0.03003,0.02378,-0.0942
10.3,1.5651,0.03068,0.02452,-0.0927
10.4,1.5671,0.03134,0.02528,-0.0912
10.5,1.5688,0.03203,0.02606,-0.0898
10.6,1.5702,0.03274,0.02686,-0.0883
10.7,1.5713,0.03347,0.02768,-0.0869
10.8,1.5722,0.03421,0.02852,-0.0855
10.9,1.5727,0.03499,0.02939,-0.0841
11,1.5729,0.0358,0.03028,-0.0828
11.1,1.5727,0.03664,0.03121,-0.0814
11.2,1.5719,0.03752,0.03219,-0.0801
11.3,1.571,0.03843,0.0332,-0.0788
11.4,1.5694,0.03941,0.03426,-0.0776
11.5,1.5674,0.04043,0.03538,-0.0764
11.6,1.5646,0.04153,0.03657,-0.0752
11.7,1.5613,0.04269,0.03782,-0.0742
11.8,1.5575,0.04392,0.03915,-0.0732
11.9,1.5533,0.04524,0.04056,-0.0723
12,1.5484,0.04664,0.04205,-0.0716
12.1,1.5432,0.04811,0.04362,-0.071
12.2,1.5382,0.04963,0.04521,-0.0706
12.3,1.5337,0.05117,0.04687,-0.0703
12.4,1.5291,0.05278,0.0486,-0.0702
12.5,1.524,0.05451,0.05044,-0.0704
12.6,1.5187,0.05633,0.05238,-0.0707
12.7,1.5131,0.05826,0.05442,-0.0713
12.8,1.5073,0.0603,0.05657,-0.0722
12.9,1.5079,0.06178,0.05825,-0.0727
13,1.5016,0.06409,0.06068,-0.0742
13.1,1.4955,0.06654,0.06323,-0.076
13.2,1.4893,0.06922,0.06602,-0.0784
13.4,1.4771,0.07531,0.07234,-0.0847
14.7,1.4119,0.13548,0.13341,-0.1472
14.8,1.4072,0.14032,0.13831,-0.1512
14.9,1.4026,0.14508,0.1431,-0.1551
15,1.3984,0.14962,0.14768,-0.1587
15.1,1.3949,0.15405,0.15213,-0.1623
15.2,1.3927,0.15778,0.15587,-0.1653
15.3,1.3904,0.1617,0.15977,-0.1684
15.4,1.385,0.16784,0.16594,-0.1726
15.5,1.3766,0.1767,0.17479,-0.1779
15.6,1.3713,0.18464,0.18273,-0.1822
15.7,1.3709,0.18949,0.18757,-0.1849
15.9,1.3748,0.19639,0.19446,-0.1893
16,1.3775,0.19861,0.19668,-0.191
16.1,1.3803,0.20075,0.19882,-0.1926
16.2,1.3831,0.2028,0.20088,-0.1942
16.3,1.386,0.20479,0.20286,-0.1958
16.4,1.389,0.20672,0.2048,-0.1973
16.5,1.392,0.20856,0.20664,-0.1988
16.6,1.3951,0.21035,0.20843,-0.2003
16.7,1.3981,0.21216,0.21024,-0.2018
16.8,1.4012,0.21384,0.21192,-0.2033
16.9,1.4044,0.21552,0.21361,-0.2048
17.1,1.4105,0.21881,0.21692,-0.2077
17.2,1.4136,0.22042,0.21853,-0.2092
17.3,1.4167,0.22194,0.22006,-0.2106
17.4,1.4197,0.22351,0.22164,-0.212
17.5,1.4227,0.22503,0.22316,-0.2134
17.6,1.4257,0.22654,0.22466,-0.2148
17.7,1.4286,0.228,0.22613,-0.2162
17.8,1.4313,0.22954,0.22767,-0.2176
18,1.439,0.24,0.2381,-0.2222
18.1,1.4426,0.24307,0.24117,-0.2239
18.3,1.4498,0.24817,0.24627,-0.2272
18.4,1.4534,0.25056,0.24866,-0.2287
18.5,1.4569,0.25276,0.25087,-0.2303
18.6,1.4605,0.25499,0.2531,-0.2318
18.7,1.464,0.25709,0.2552,-0.2334
18.8,1.4676,0.25918,0.2573,-0.2349
18.9,1.4711,0.26122,0.25933,-0.2364
19,1.4746,0.26321,0.26133,-0.2379
19.1,1.4781,0.2652,0.26332,-0.2394
19.2,1.4817,0.26714,0.26526,-0.241
19.3,1.4851,0.26907,0.2672,-0.2425
19.4,1.4886,0.27099,0.26912,-0.244
19.5,1.4921,0.27285,0.27099,-0.2455
19.6,1.4955,0.27474,0.27288,-0.247
19.7,1.499,0.27662,0.27476,-0.2485
19.8,1.5024,0.27844,0.27659,-0.25
19.9,1.5058,0.2803,0.27845,-0.2515
20,1.5092,0.28209,0.28024,-0.253
20.1,1.5126,0.28391,0.28207,-0.2545
20.2,1.516,0.28573,0.28389,-0.256
20.3,1.5193,0.28751,0.28568,-0.2575
20.4,1.5227,0.28932,0.2875,-0.259
20.5,1.526,0.29108,0.28926,-0.2605
20.6,1.5293,0.29287,0.29105,-0.262
20.7,1.5326,0.29467,0.29286,-0.2636
20.8,1.5359,0.29643,0.29462,-0.2651
20.9,1.5392,0.29822,0.29641,-0.2666
21,1.5425,0.29999,0.29819,-0.2681
21.1,1.5457,0.30179,0.29999,-0.2697
21.2,1.549,0.30355,0.30178,-0.2712
21.3,1.5522,0.30536,0.30359,-0.2727
21.4,1.5554,0.30712,0.30536,-0.2743
21.5,1.5586,0.30898,0.30722,-0.2758
21.6,1.5618,0.31079,0.30903,-0.2773
21.7,1.565,0.31259,0.31085,-0.2789
21.8,1.5681,0.3144,0.31265,-0.2804
21.9,1.5713,0.31627,0.31453,-0.282
22,1.5744,0.31806,0.31632,-0.2835
22.1,1.5775,0.31995,0.31822,-0.2851
22.2,1.5807,0.32184,0.32012,-0.2866
22.3,1.5837,0.32372,0.322,-0.2882
22.4,1.5868,0.32562,0.32391,-0.2898
22.5,1.5898,0.32755,0.32585,-0.2913
22.6,1.5929,0.32949,0.32779,-0.2929
22.7,1.596,0.3315,0.3298,-0.2945
22.8,1.599,0.33348,0.33179,-0.296
22.9,1.602,0.33548,0.3338,-0.2976
23,1.605,0.33751,0.33584,-0.2991
23.1,1.608,0.33958,0.33791,-0.3007
23.2,1.6109,0.34163,0.33996,-0.3023
23.3,1.6219,0.34993,0.34822,-0.3062
23.4,1.6256,0.35249,0.35078,-0.308
23.5,1.6294,0.35509,0.35338,-0.3098
23.6,1.6329,0.35741,0.35571,-0.3115
23.7,1.6364,0.35982,0.35813,-0.3133
23.8,1.6399,0.36217,0.36048,-0.3151
23.9,1.6434,0.36451,0.36282,-0.3169
24,1.6468,0.36676,0.36508,-0.3186
24.1,1.6502,0.36898,0.3673,-0.3204
24.2,1.6535,0.37119,0.36952,-0.3222
24.3,1.6569,0.37343,0.37176,-0.324
24.4,1.6602,0.37559,0.37393,-0.3258
24.5,1.6634,0.37776,0.3761,-0.3275
24.6,1.6666,0.37988,0.37823,-0.3293
24.7,1.6698,0.38201,0.38036,-0.3311
24.8,1.6731,0.38414,0.38251,-0.3329
24.9,1.6762,0.38624,0.38462,-0.3347
25,1.6793,0.38833,0.38672,-0.3365
25.1,1.6825,0.39042,0.38881,-0.3383
25.2,1.6856,0.3925,0.3909,-0.3401
25.3,1.6887,0.39457,0.39297,-0.3419
25.4,1.6917,0.39663,0.39504,-0.3437
25.5,1.6948,0.3987,0.39712,-0.3456
25.6,1.6978,0.40076,0.39918,-0.3474
25.7,1.7008,0.4028,0.40123,-0.3492
25.8,1.7037,0.40484,0.40326,-0.3511
25.9,1.7067,0.40688,0.40531,-0.3529
26,1.7096,0.40892,0.40736,-0.3547
26.1,1.7125,0.41097,0.40942,-0.3566
26.2,1.7155,0.413,0.41145,-0.3584
26.3,1.7183,0.41497,0.41343,-0.3603
26.4,1.7212,0.41703,0.4155,-0.3622
26.5,1.724,0.41904,0.41751,-0.364
26.6,1.7268,0.42109,0.41957,-0.3659
26.7,1.7296,0.42307,0.42155,-0.3678
26.8,1.7323,0.42511,0.42359,-0.3696
26.9,1.7351,0.42709,0.42558,-0.3715
27,1.7378,0.42916,0.42766,-0.3734
27.1,1.7405,0.43119,0.42969,-0.3753
27.2,1.7432,0.43328,0.4318,-0.3771
27.3,1.7458,0.4352,0.43372,-0.379
27.4,1.7485,0.43732,0.43585,-0.3809
27.5,1.7511,0.43937,0.43791,-0.3828
27.6,1.7537,0.44143,0.43997,-0.3847
27.7,1.7562,0.44349,0.44204,-0.3866
27.8,1.7588,0.44559,0.44414,-0.3885
27.9,1.7614,0.44773,0.4463,-0.3904
28,1.7639,0.44981,0.44839,-0.3924
28.1,1.7664,0.45197,0.45055,-0.3943
28.2,1.7689,0.45411,0.4527,-0.3962
28.3,1.7713,0.45627,0.45487,-0.3981
28.4,1.7738,0.45846,0.45707,-0.4
28.5,1.7763,0.46067,0.45928,-0.402
28.6,1.7787,0.46294,0.46156,-0.4039
28.7,1.7811,0.46519,0.46382,-0.4058
28.8,1.7835,0.46747,0.4661,-0.4078
28.9,1.7859,0.46976,0.4684,-0.4097
29,1.7883,0.47207,0.47072,-0.4117
29.1,1.7906,0.47443,0.47308,-0.4136
29.2,1.793,0.4768,0.47546,-0.4156
29.3,1.7953,0.47921,0.47787,-0.4175
29.4,1.7976,0.48164,0.48031,-0.4194
29.5,1.7999,0.48402,0.4827,-0.4214
29.6,1.8022,0.4865,0.48519,-0.4234
29.7,1.8045,0.489,0.48769,-0.4253
29.8,1.8067,0.4915,0.4902,-0.4273
29.9,1.809,0.49401,0.49272,-0.4293
30,1.8112,0.49656,0.49527,-0.4313

