airfoilName st20.dat
Re 	530000
M 	2.500000e-01
N 	4.500000e+00
VACC 	0 VACCflag 1
XTR 	1.00 	1.00 XTRflag 0
alpha,cl,cd,cdp,cm
-10.6,-0.5999,0.12402,0.12198,-0.0012
-10.5,-0.5954,0.12275,0.12071,-0.002
-10.4,-0.591,0.12147,0.11944,-0.0029
-10.3,-0.5866,0.12021,0.11817,-0.0037
-10.2,-0.5823,0.11895,0.11692,-0.0045
-10.1,-0.5782,0.11771,0.11569,-0.0052
-10,-0.5742,0.11649,0.11447,-0.0059
-9.9,-0.5705,0.1153,0.11329,-0.0065
-9.8,-0.567,0.11414,0.11214,-0.0071
-9.7,-0.5641,0.11304,0.11104,-0.0074
-9.6,-0.5617,0.11199,0.11,-0.0077
-9.5,-0.56,0.11101,0.10903,-0.0077
-9.4,-0.5592,0.11013,0.10816,-0.0076
-9.3,-0.5597,0.10938,0.10743,-0.007
-9.2,-0.5594,0.10854,0.10661,-0.0068
-9.1,-0.5513,0.10692,0.10498,-0.0086
-9,-0.5412,0.10495,0.103,-0.0112
-8.9,-0.533,0.10326,0.10131,-0.0131
-8.8,-0.5244,0.10155,0.0996,-0.0151
-8.7,-0.5154,0.09978,0.09783,-0.0173
-8.6,-0.5072,0.09808,0.09612,-0.0191
-8.5,-0.4982,0.09629,0.09433,-0.0212
-8.4,-0.4872,0.09426,0.09229,-0.0239
-8.2,-0.4649,0.09018,0.08819,-0.0292
-8.1,-0.452,0.08801,0.08601,-0.0324
-8,-0.4394,0.08603,0.08402,-0.0355
-7.8,-0.4155,0.08215,0.08014,-0.0413
-7.7,-0.4064,0.08041,0.0784,-0.0434
-7.6,-0.3964,0.07857,0.07655,-0.0457
-7.5,-0.3861,0.07683,0.07478,-0.0481
-7.4,-0.3751,0.07512,0.07306,-0.0507
-7.3,-0.3646,0.07359,0.07152,-0.053
-7.2,-0.3551,0.07222,0.07014,-0.0549
-7.1,-0.3443,0.07081,0.06872,-0.0572
-7,-0.3325,0.06941,0.0673,-0.0596
-6.9,-0.3201,0.06799,0.06587,-0.0622
-6.8,-0.3072,0.06657,0.06444,-0.0648
-6.7,-0.2938,0.06513,0.06298,-0.0675
-6.6,-0.2798,0.06366,0.06149,-0.0703
-5.1,0.0097,0.01652,0.01244,-0.1389
-5,0.025,0.0148,0.01046,-0.1406
-4.9,0.0388,0.0138,0.00928,-0.1415
-4.8,0.0513,0.01317,0.00853,-0.1419
-4.7,0.0638,0.01269,0.00792,-0.1422
-4.6,0.0761,0.01228,0.00742,-0.1424
-4.5,0.0886,0.01192,0.00697,-0.1426
-4.4,0.1012,0.01159,0.00656,-0.1428
-4.3,0.1137,0.01128,0.00617,-0.1429
-4.2,0.1262,0.01099,0.00579,-0.1431
-4.1,0.1382,0.01072,0.00545,-0.1431
-4,0.1504,0.01047,0.00512,-0.1432
-3.9,0.1625,0.01024,0.00481,-0.1432
-3.8,0.1748,0.01003,0.00453,-0.1433
-3.7,0.187,0.00986,0.0043,-0.1433
-3.6,0.1994,0.0096,0.00399,-0.1434
-3.5,0.2117,0.00942,0.00376,-0.1435
-3.4,0.2235,0.00929,0.00359,-0.1434
-3.3,0.2355,0.00917,0.00344,-0.1435
-3.1,0.2595,0.00894,0.00313,-0.1434
-3,0.2715,0.00884,0.00299,-0.1434
-2.9,0.2835,0.00872,0.00284,-0.1434
-2.8,0.2954,0.00863,0.00274,-0.1434
-2.7,0.3072,0.00855,0.00265,-0.1434
-2.6,0.3191,0.00848,0.00256,-0.1434
-2.5,0.331,0.00841,0.00247,-0.1434
-2.4,0.3428,0.00834,0.00237,-0.1433
-2.3,0.3546,0.0083,0.00235,-0.1433
-2.2,0.3662,0.00827,0.0023,-0.1433
-2.1,0.3782,0.00818,0.00221,-0.1433
-2,0.3901,0.00812,0.00215,-0.1433
-1.9,0.4018,0.00807,0.00208,-0.1433
-1.8,0.4137,0.00802,0.00202,-0.1432
-1.7,0.4255,0.00799,0.00196,-0.1432
-1.6,0.4372,0.00793,0.00193,-0.1432
-1.5,0.4491,0.00789,0.00189,-0.1432
-1.4,0.4609,0.00786,0.00184,-0.1432
-1.3,0.4726,0.00783,0.00178,-0.1431
-1.2,0.4838,0.0078,0.00172,-0.1429
-1.1,0.4953,0.00777,0.00167,-0.1428
-1,0.5069,0.00774,0.00165,-0.1427
-0.9,0.5185,0.00773,0.00162,-0.1427
-0.8,0.5299,0.00771,0.00159,-0.1425
-0.7,0.5416,0.00769,0.00157,-0.1425
-0.6,0.5533,0.00768,0.00154,-0.1425
-0.5,0.5647,0.00768,0.00151,-0.1423
-0.4,0.5764,0.00766,0.0015,-0.1423
-0.3,0.5877,0.00766,0.00149,-0.1422
-0.2,0.5994,0.00766,0.00148,-0.1422
-0.1,0.6107,0.00766,0.00146,-0.142
0,0.6223,0.00766,0.00146,-0.142
0.1,0.6338,0.00767,0.00145,-0.1419
0.2,0.6454,0.00768,0.00144,-0.1418
0.3,0.6566,0.00769,0.00145,-0.1417
0.4,0.6679,0.00772,0.00145,-0.1416
0.5,0.6794,0.00773,0.00145,-0.1415
0.6,0.6907,0.00775,0.00145,-0.1414
0.7,0.7014,0.00782,0.00146,-0.1411
0.8,0.7127,0.00785,0.00146,-0.141
0.9,0.7241,0.00787,0.00149,-0.1409
1,0.7351,0.00793,0.0015,-0.1407
1.2,0.7564,0.00809,0.00154,-0.1402
1.3,0.7669,0.0082,0.00159,-0.1399
1.4,0.7771,0.00833,0.00163,-0.1396
1.5,0.7878,0.00842,0.00167,-0.1394
1.6,0.7967,0.00868,0.00177,-0.1389
1.7,0.8067,0.00885,0.00183,-0.1385
1.8,0.8171,0.00898,0.0019,-0.1383
1.9,0.8275,0.00911,0.00197,-0.1381
2,0.8377,0.00926,0.00204,-0.1378
2.1,0.8463,0.00959,0.00218,-0.1373
2.2,0.8563,0.00978,0.00227,-0.137
2.3,0.8661,0.00998,0.00237,-0.1367
2.4,0.8759,0.01019,0.00249,-0.1365
2.5,0.8855,0.01043,0.00261,-0.1361
2.6,0.8951,0.01067,0.00275,-0.1359
2.7,0.9038,0.01103,0.00295,-0.1355
2.9,0.9191,0.00996,0.00322,-0.1341
3,0.9297,0.01011,0.00331,-0.1339
3.1,0.9406,0.01022,0.00339,-0.1338
3.2,0.9509,0.01041,0.0035,-0.1335
3.3,0.9617,0.01054,0.00359,-0.1333
3.4,0.9726,0.01064,0.00367,-0.1332
3.5,0.9833,0.01077,0.00376,-0.133
3.6,0.9943,0.01087,0.00385,-0.1328
3.7,1.0047,0.01104,0.00395,-0.1326
3.8,1.0156,0.01114,0.00403,-0.1325
3.9,1.0263,0.01127,0.00413,-0.1323
4,1.0371,0.01138,0.00422,-0.1321
4.1,1.0479,0.01149,0.00431,-0.1319
4.2,1.0583,0.01165,0.00445,-0.1317
4.3,1.069,0.01178,0.00455,-0.1314
4.4,1.0797,0.0119,0.00466,-0.1312
4.5,1.0905,0.01202,0.00476,-0.131
4.6,1.101,0.01216,0.00488,-0.1308
4.7,1.1113,0.01232,0.00499,-0.1306
4.8,1.1219,0.01247,0.00512,-0.1303
4.9,1.1325,0.01259,0.00523,-0.1301
5,1.143,0.01274,0.00535,-0.1298
5.1,1.1535,0.01288,0.00548,-0.1296
5.2,1.164,0.01301,0.00561,-0.1293
5.3,1.174,0.01321,0.00576,-0.129
5.4,1.1845,0.01335,0.00589,-0.1288
5.5,1.1948,0.01351,0.00605,-0.1285
5.6,1.2052,0.01367,0.00621,-0.1282
5.7,1.2156,0.01381,0.00635,-0.1279
5.8,1.2258,0.01398,0.0065,-0.1276
5.9,1.236,0.01416,0.00668,-0.1273
6,1.2461,0.01433,0.00683,-0.1269
6.1,1.2563,0.0145,0.007,-0.1266
6.2,1.2663,0.0147,0.00719,-0.1262
6.3,1.2766,0.01485,0.00736,-0.1259
6.4,1.2868,0.01501,0.00753,-0.1256
6.5,1.2969,0.01519,0.00771,-0.1252
6.6,1.3068,0.01539,0.00791,-0.1248
6.7,1.3167,0.0156,0.00813,-0.1244
6.8,1.3268,0.01577,0.00834,-0.1241
6.9,1.3368,0.01594,0.00855,-0.1237
7,1.3468,0.01613,0.00876,-0.1233
7.1,1.3563,0.01636,0.00897,-0.1229
7.2,1.3658,0.0166,0.0092,-0.1224
7.3,1.3757,0.01679,0.00942,-0.122
7.4,1.3855,0.01699,0.00965,-0.1215
7.5,1.3951,0.01721,0.00989,-0.1211
7.6,1.4046,0.01744,0.01014,-0.1206
7.7,1.4138,0.01769,0.01037,-0.1201
7.8,1.4234,0.01791,0.01062,-0.1197
7.9,1.4328,0.01813,0.01088,-0.1192
8,1.4422,0.01838,0.01114,-0.1187
8.1,1.4513,0.01864,0.01142,-0.1181
8.2,1.4601,0.01893,0.01176,-0.1175
8.3,1.4694,0.01917,0.01204,-0.117
8.4,1.4785,0.01943,0.01235,-0.1164
8.5,1.4874,0.0197,0.01266,-0.1158
8.6,1.4962,0.01998,0.01298,-0.1152
8.7,1.5048,0.02028,0.01331,-0.1146
8.8,1.5132,0.0206,0.01367,-0.1139
8.9,1.5212,0.02097,0.01407,-0.1132
9,1.5295,0.02129,0.01446,-0.1124
9.1,1.5375,0.02164,0.01487,-0.1117
9.2,1.5453,0.022,0.01529,-0.1109
9.3,1.5529,0.02237,0.01573,-0.1101
9.4,1.5603,0.02276,0.01618,-0.1092
9.5,1.5675,0.02316,0.01665,-0.1084
9.6,1.5745,0.02357,0.01712,-0.1075
9.7,1.5812,0.024,0.01761,-0.1065
9.8,1.5874,0.02446,0.01813,-0.1055
9.9,1.5931,0.02495,0.01871,-0.1045
10,1.598,0.0255,0.01933,-0.1033
10.1,1.6016,0.02613,0.02005,-0.1019
10.2,1.6058,0.02667,0.02065,-0.1006
10.3,1.609,0.02719,0.02126,-0.0991
10.4,1.6117,0.02775,0.02191,-0.0976
10.6,1.6213,0.02851,0.02281,-0.0952
10.7,1.6235,0.02911,0.0235,-0.0937
10.8,1.6253,0.02975,0.02422,-0.0921
10.9,1.6268,0.03039,0.02496,-0.0906
11,1.628,0.03107,0.02573,-0.0891
11.1,1.6289,0.03178,0.02653,-0.0876
11.2,1.6294,0.03251,0.02735,-0.0861
11.3,1.6297,0.03327,0.0282,-0.0846
11.4,1.6296,0.03407,0.02909,-0.0832
11.5,1.6291,0.0349,0.03001,-0.0817
11.6,1.6282,0.03577,0.03097,-0.0803
11.7,1.627,0.03667,0.03197,-0.079
11.8,1.6252,0.03764,0.03303,-0.0777
11.9,1.623,0.03865,0.03414,-0.0764
12,1.6208,0.03968,0.03527,-0.0752
12.1,1.618,0.04078,0.03646,-0.0741
12.2,1.6148,0.04194,0.03771,-0.0731
12.3,1.6111,0.04318,0.03905,-0.0722
12.4,1.6071,0.04447,0.04043,-0.0714
12.5,1.6028,0.04583,0.0419,-0.0707
12.6,1.5981,0.04726,0.04342,-0.0702
12.7,1.5929,0.0488,0.04505,-0.0699
12.8,1.5876,0.05041,0.04676,-0.0697
12.9,1.5822,0.05211,0.04856,-0.0698
13,1.5762,0.05395,0.05049,-0.0701
13.2,1.5641,0.05791,0.05465,-0.0715
13.3,1.5578,0.06009,0.05693,-0.0727
13.4,1.5512,0.06246,0.05939,-0.0743
13.5,1.5446,0.06502,0.06205,-0.0763
13.6,1.5383,0.06778,0.06491,-0.0788
13.7,1.5319,0.0708,0.06803,-0.0819
13.8,1.5255,0.07423,0.07157,-0.0857
13.9,1.5191,0.07816,0.07562,-0.0903
14.2,1.4996,0.09513,0.093,-0.11
14.6,1.4631,0.11987,0.11808,-0.1329
14.7,1.4547,0.12537,0.12364,-0.1377
14.9,1.4395,0.13592,0.13428,-0.1468
15,1.4323,0.14129,0.13968,-0.1513
15.1,1.4252,0.14673,0.14517,-0.1557
15.5,1.3927,0.17296,0.17152,-0.1754
15.6,1.3892,0.17831,0.17686,-0.1791
15.7,1.3887,0.18212,0.18067,-0.1819
15.8,1.3894,0.18527,0.18383,-0.1843
15.9,1.3911,0.18777,0.18633,-0.1863
16,1.3929,0.19025,0.18881,-0.1883
16.1,1.3949,0.19262,0.19118,-0.1903
16.2,1.3972,0.19469,0.19325,-0.1921
16.3,1.3995,0.19678,0.19533,-0.1939
16.4,1.4019,0.19875,0.19731,-0.1956
16.5,1.4044,0.20054,0.19909,-0.1973
16.6,1.4069,0.20225,0.2008,-0.199
16.7,1.4092,0.20408,0.20263,-0.2006
16.8,1.4113,0.20581,0.20435,-0.2023
16.9,1.4102,0.21464,0.21317,-0.2058
17,1.4122,0.21888,0.21739,-0.2078
17.1,1.415,0.22198,0.22049,-0.2096
17.2,1.4179,0.22467,0.2232,-0.2113
17.3,1.421,0.22729,0.22582,-0.213
17.4,1.4242,0.22964,0.22817,-0.2146
17.5,1.4274,0.23193,0.23046,-0.2162
17.6,1.4307,0.23412,0.23265,-0.2177
17.7,1.4341,0.23626,0.2348,-0.2193
17.8,1.4374,0.23832,0.23686,-0.2208
17.9,1.4407,0.24035,0.23889,-0.2223
18,1.4441,0.24232,0.24086,-0.2239
18.1,1.4475,0.24426,0.24281,-0.2254
18.2,1.4509,0.24617,0.24472,-0.2269
18.3,1.4543,0.24808,0.24663,-0.2284
18.4,1.4576,0.24993,0.24848,-0.2299
18.5,1.461,0.25178,0.25034,-0.2314
18.6,1.4644,0.25356,0.25212,-0.2329
18.7,1.4678,0.25538,0.25394,-0.2343
18.8,1.4711,0.25711,0.25568,-0.2358
18.9,1.4745,0.25886,0.25742,-0.2373
19,1.4779,0.2607,0.25927,-0.2388
19.1,1.4812,0.2624,0.26098,-0.2403
19.2,1.4845,0.26402,0.2626,-0.2418
19.3,1.4878,0.2658,0.26438,-0.2433
19.4,1.4911,0.26755,0.26614,-0.2447
19.5,1.4944,0.26913,0.26771,-0.2462
19.6,1.4976,0.27087,0.26945,-0.2477
19.7,1.5009,0.2726,0.27119,-0.2492
19.8,1.504,0.27421,0.27281,-0.2507
19.9,1.5072,0.27597,0.27457,-0.2521
20,1.5103,0.27761,0.27622,-0.2536
20.1,1.5134,0.27935,0.27796,-0.2551
20.2,1.5165,0.28113,0.27974,-0.2566
20.3,1.5196,0.28289,0.2815,-0.258
20.4,1.5226,0.28472,0.28333,-0.2595
20.5,1.5255,0.28653,0.28515,-0.261
20.6,1.5285,0.28842,0.28704,-0.2624
20.7,1.5316,0.29033,0.28896,-0.2639
20.8,1.5345,0.29225,0.29088,-0.2653
20.9,1.538,0.29456,0.29317,-0.267
21,1.5424,0.2975,0.29612,-0.2688
21.1,1.5465,0.30024,0.29887,-0.2706
21.2,1.5508,0.30315,0.30178,-0.2724
21.3,1.5547,0.30574,0.30437,-0.2741
21.4,1.5588,0.30857,0.30721,-0.2758
21.5,1.5624,0.3109,0.30954,-0.2774
21.6,1.5662,0.31349,0.31213,-0.2791
21.7,1.57,0.31601,0.31465,-0.2808
21.8,1.5738,0.31858,0.31723,-0.2825
21.9,1.5774,0.32092,0.31957,-0.2841
22,1.5811,0.32344,0.32209,-0.2858
22.1,1.5859,0.32707,0.32572,-0.2878
22.2,1.5894,0.32922,0.32787,-0.2895
22.3,1.5929,0.33143,0.33009,-0.2912
22.4,1.5964,0.33362,0.33228,-0.2928
22.5,1.5999,0.33577,0.33444,-0.2945
22.6,1.6033,0.3379,0.33657,-0.2962
22.7,1.6067,0.34001,0.33868,-0.2978
22.8,1.6101,0.34213,0.34081,-0.2995
22.9,1.6135,0.34422,0.3429,-0.3012
23,1.6169,0.34632,0.345,-0.3029
23.1,1.6202,0.34839,0.34708,-0.3046
23.2,1.6235,0.35045,0.34914,-0.3063
23.3,1.6268,0.3525,0.35119,-0.308
23.4,1.6301,0.35456,0.35326,-0.3097
23.5,1.6334,0.3566,0.3553,-0.3114
23.6,1.6367,0.35862,0.35733,-0.3131
23.7,1.64,0.36065,0.35936,-0.3149
23.8,1.6432,0.36266,0.36137,-0.3166
23.9,1.6464,0.36466,0.36338,-0.3183
24,1.6496,0.36663,0.36536,-0.3201
24.1,1.6527,0.36863,0.36736,-0.3218
24.2,1.6559,0.37061,0.36935,-0.3236
24.3,1.6591,0.37255,0.37129,-0.3253
24.4,1.6622,0.3745,0.37324,-0.3271
24.5,1.6653,0.37645,0.3752,-0.3289
24.6,1.6683,0.37842,0.37717,-0.3306
24.7,1.6714,0.38033,0.3791,-0.3324
24.8,1.6744,0.38221,0.38098,-0.3341
24.9,1.6774,0.38418,0.38296,-0.3359
25,1.6804,0.38609,0.38487,-0.3377
25.1,1.6834,0.38797,0.38676,-0.3395
25.2,1.6863,0.38987,0.38867,-0.3413
25.3,1.6892,0.39175,0.39055,-0.3431
25.4,1.6921,0.39366,0.39247,-0.3448
25.5,1.695,0.39558,0.39439,-0.3466
25.6,1.6979,0.39752,0.39634,-0.3484
25.7,1.7007,0.39939,0.39821,-0.3502
25.8,1.7035,0.40129,0.40012,-0.352
25.9,1.7063,0.40322,0.40205,-0.3538
26,1.709,0.40516,0.404,-0.3557
26.1,1.7118,0.40716,0.406,-0.3575
26.2,1.7145,0.40909,0.40794,-0.3593
26.3,1.7172,0.411,0.40985,-0.3611
26.4,1.7199,0.41307,0.41192,-0.3629
26.5,1.7225,0.41509,0.41395,-0.3647
26.6,1.7252,0.41718,0.41605,-0.3666
26.7,1.7278,0.41928,0.41816,-0.3684
26.8,1.7304,0.42144,0.42032,-0.3702
26.9,1.733,0.42365,0.42253,-0.372
27,1.7357,0.42588,0.42476,-0.3738
27.1,1.7383,0.42817,0.42706,-0.3756
27.2,1.7409,0.43041,0.4293,-0.3775
27.3,1.7433,0.43285,0.43176,-0.3793
27.4,1.746,0.43512,0.43402,-0.3811
27.5,1.7485,0.4375,0.43641,-0.3829
27.6,1.7511,0.43988,0.43879,-0.3848
27.7,1.7536,0.44229,0.44121,-0.3866
27.8,1.7562,0.44472,0.44366,-0.3884
27.9,1.7587,0.4471,0.44605,-0.3903
28.2,1.7696,0.45475,0.45368,-0.3971
28.3,1.7737,0.45762,0.45655,-0.3995
28.4,1.777,0.46029,0.45923,-0.4016
28.5,1.7801,0.46288,0.46182,-0.4037
28.6,1.7832,0.46552,0.46446,-0.4058
28.7,1.7862,0.46814,0.46709,-0.4079
28.8,1.7895,0.47096,0.46991,-0.41
28.9,1.7924,0.47355,0.4725,-0.4121
29,1.7952,0.47606,0.47501,-0.4142
29.1,1.7981,0.47861,0.47757,-0.4162
29.2,1.8009,0.48111,0.48007,-0.4183
29.3,1.8049,0.48383,0.4828,-0.4209
29.4,1.8075,0.48613,0.4851,-0.423
29.5,1.81,0.48839,0.48736,-0.425
29.6,1.8126,0.49067,0.48964,-0.4272
29.7,1.8152,0.4929,0.49188,-0.4293
29.8,1.8177,0.49514,0.49413,-0.4314
29.9,1.8202,0.49736,0.49635,-0.4335
30,1.8227,0.49957,0.49856,-0.4356

