airfoilName st20.dat
Re 	330000
M 	2.500000e-01
N 	4.500000e+00
VACC 	0 VACCflag 1
XTR 	1.00 	1.00 XTRflag 0
alpha,cl,cd,cdp,cm
-28,-1.2895,0.4606,0.45821,0.2385
-27.9,-1.2863,0.45835,0.45596,0.2366
-27.8,-1.283,0.45612,0.45372,0.2346
-27.7,-1.2797,0.45391,0.45151,0.2327
-27.6,-1.2765,0.45172,0.44931,0.2307
-27.5,-1.2732,0.44953,0.44712,0.2288
-27.4,-1.2698,0.4474,0.44498,0.2269
-27.3,-1.2665,0.44525,0.44283,0.225
-27.2,-1.2631,0.44314,0.44072,0.223
-27.1,-1.2597,0.44102,0.4386,0.2211
-27,-1.2562,0.43898,0.43655,0.2191
-26.9,-1.2527,0.43692,0.43448,0.2172
-26.8,-1.2492,0.43492,0.43248,0.2152
-26.7,-1.2456,0.43293,0.43049,0.2133
-26.6,-1.2421,0.43094,0.4285,0.2113
-26.5,-1.2385,0.42896,0.42652,0.2094
-26.4,-1.2348,0.4271,0.42465,0.2074
-26.3,-1.2311,0.42519,0.42274,0.2054
-26.2,-1.2274,0.4233,0.42084,0.2034
-26.1,-1.2235,0.42148,0.41901,0.2013
-26,-1.2197,0.41961,0.41714,0.1993
-25.9,-1.2157,0.41786,0.41539,0.1972
-25.8,-1.2117,0.41606,0.41358,0.1952
-25.7,-1.2039,0.41685,0.41438,0.1913
-23.5,-1.1199,0.36667,0.36416,0.1526
-23.4,-1.1165,0.36428,0.36176,0.1511
-23.3,-1.1131,0.36184,0.35932,0.1496
-23.2,-1.1096,0.35947,0.35694,0.1481
-23.1,-1.1061,0.35706,0.35452,0.1467
-23,-1.1026,0.35468,0.35214,0.1452
-22.9,-1.0992,0.35229,0.34974,0.1437
-22.8,-1.0957,0.34993,0.34737,0.1423
-22.7,-1.0922,0.34756,0.34501,0.1408
-22.6,-1.0887,0.3452,0.34265,0.1394
-22.5,-1.0852,0.34286,0.3403,0.1379
-22.4,-1.0817,0.34052,0.33795,0.1365
-22.3,-1.0782,0.33818,0.33561,0.1351
-22.2,-1.0746,0.33586,0.33328,0.1336
-22.1,-1.0711,0.33354,0.33096,0.1322
-22,-1.0675,0.33125,0.32867,0.1308
-21.9,-1.064,0.32896,0.32638,0.1294
-21.8,-1.0604,0.32671,0.32412,0.128
-21.7,-1.0569,0.32443,0.32185,0.1266
-21.6,-1.0533,0.3222,0.31961,0.1252
-21.5,-1.0497,0.31997,0.31738,0.1238
-21.4,-1.0461,0.31777,0.31518,0.1224
-21.3,-1.0424,0.31559,0.31299,0.121
-21.2,-1.0388,0.31342,0.31081,0.1197
-21.1,-1.0351,0.31126,0.30866,0.1183
-21,-1.0315,0.30912,0.30652,0.1169
-20.9,-1.0278,0.30701,0.3044,0.1155
-20.8,-1.0241,0.30491,0.3023,0.1142
-20.7,-1.0204,0.30282,0.30021,0.1128
-20.6,-1.0166,0.30075,0.29813,0.1114
-20.5,-1.0129,0.29871,0.29609,0.1101
-20.4,-1.0092,0.29667,0.29404,0.1087
-20.3,-1.0054,0.29465,0.29201,0.1074
-20.2,-1.0016,0.29264,0.29,0.106
-20.1,-0.9978,0.29064,0.288,0.1046
-20,-0.994,0.28868,0.28603,0.1033
-19.9,-0.9902,0.28669,0.28404,0.102
-19.8,-0.9863,0.28474,0.28209,0.1006
-19.7,-0.9825,0.28279,0.28013,0.0993
-19.6,-0.9786,0.28084,0.27818,0.098
-19.5,-0.9747,0.27891,0.27624,0.0966
-19.4,-0.9708,0.27697,0.27431,0.0953
-19.3,-0.9669,0.27505,0.27238,0.094
-19.2,-0.963,0.27313,0.27046,0.0927
-19.1,-0.9591,0.27122,0.26855,0.0914
-19,-0.9552,0.26931,0.26664,0.0901
-18.9,-0.9512,0.2674,0.26472,0.0888
-18.8,-0.9473,0.2655,0.26282,0.0875
-18.7,-0.9433,0.2636,0.26092,0.0862
-18.6,-0.9393,0.26171,0.25903,0.0849
-18.5,-0.9353,0.25982,0.25713,0.0836
-18.4,-0.9313,0.25794,0.25525,0.0824
-18.3,-0.9273,0.25606,0.25337,0.0811
-18.2,-0.9233,0.25419,0.2515,0.0798
-18.1,-0.9192,0.25232,0.24963,0.0786
-18,-0.9152,0.25045,0.24776,0.0773
-17.9,-0.9112,0.2486,0.2459,0.0761
-17.8,-0.9071,0.24674,0.24405,0.0748
-17.7,-0.903,0.2449,0.2422,0.0736
-17.6,-0.8989,0.24307,0.24037,0.0723
-17.5,-0.8948,0.24123,0.23853,0.0711
-17.4,-0.8906,0.23939,0.23669,0.0698
-17.3,-0.8865,0.23757,0.23487,0.0686
-17.2,-0.8823,0.23575,0.23303,0.0673
-17.1,-0.8781,0.23393,0.23121,0.0661
-17,-0.8739,0.23212,0.2294,0.0648
-16.9,-0.8697,0.23031,0.22758,0.0636
-16.8,-0.8655,0.22851,0.22578,0.0623
-16.7,-0.8612,0.2267,0.22397,0.0611
-16.6,-0.8569,0.22489,0.22216,0.0598
-16.5,-0.8526,0.22307,0.22034,0.0585
-16.4,-0.8483,0.22125,0.21852,0.0573
-16.3,-0.8439,0.2194,0.21667,0.056
-16.2,-0.8369,0.21718,0.21446,0.0538
-16.1,-0.8323,0.21515,0.21242,0.0526
-16,-0.8275,0.21309,0.21036,0.0513
-15.9,-0.8226,0.21108,0.20835,0.05
-15.8,-0.8168,0.20902,0.20629,0.0485
-15.5,-0.799,0.2033,0.2006,0.0438
-15.4,-0.7954,0.20141,0.19871,0.0429
-15.3,-0.7918,0.19955,0.19685,0.042
-15.2,-0.7882,0.19768,0.19499,0.041
-15.1,-0.7846,0.19583,0.19313,0.0401
-15,-0.781,0.19399,0.19129,0.0392
-14.9,-0.7774,0.19216,0.18946,0.0383
-14.8,-0.7739,0.19034,0.18764,0.0374
-14.7,-0.7702,0.18854,0.18583,0.0364
-14.6,-0.7666,0.18675,0.18404,0.0355
-14.5,-0.7629,0.18498,0.18228,0.0346
-14.4,-0.7593,0.18322,0.18051,0.0337
-14.3,-0.7555,0.18148,0.17878,0.0328
-14.2,-0.7518,0.17976,0.17706,0.0318
-14.1,-0.748,0.17807,0.17536,0.0309
-14,-0.7442,0.1764,0.17369,0.03
-13.9,-0.7403,0.17474,0.17204,0.029
-13.8,-0.7364,0.17311,0.17039,0.0281
-13.7,-0.7324,0.17151,0.16879,0.0272
-13.6,-0.7284,0.16991,0.16719,0.0262
-13.5,-0.7244,0.16835,0.16563,0.0253
-13.4,-0.7204,0.1668,0.16408,0.0243
-13.3,-0.7163,0.16526,0.16254,0.0234
-13.2,-0.7122,0.16374,0.16102,0.0224
-13.1,-0.708,0.16223,0.15951,0.0215
-13,-0.7038,0.16073,0.15801,0.0205
-12.9,-0.6995,0.15923,0.15651,0.0196
-12.8,-0.6952,0.15775,0.15503,0.0186
-12.7,-0.6909,0.15627,0.15356,0.0176
-12.6,-0.6865,0.1548,0.15209,0.0167
-12.5,-0.6822,0.15334,0.15063,0.0157
-12.4,-0.6778,0.15188,0.14917,0.0147
-12.3,-0.6734,0.15042,0.14771,0.0138
-12.2,-0.669,0.14898,0.14627,0.0128
-12.1,-0.6645,0.14753,0.14483,0.0119
-12,-0.6601,0.14609,0.14339,0.0109
-11.9,-0.6556,0.14465,0.14195,0.01
-11.8,-0.6511,0.14321,0.14051,0.009
-11.7,-0.6465,0.14178,0.13908,0.0081
-11.6,-0.642,0.14035,0.13765,0.0071
-11.5,-0.6375,0.13892,0.13623,0.0062
-11.4,-0.633,0.1375,0.13481,0.0053
-11.3,-0.6285,0.13607,0.13339,0.0044
-11.2,-0.624,0.13465,0.13197,0.0034
-11.1,-0.6194,0.13323,0.13055,0.0025
-11,-0.6149,0.13181,0.12913,0.0016
-10.9,-0.6104,0.1304,0.12772,0.0007
-10.8,-0.6059,0.12899,0.12631,-0.0001
-10.7,-0.6015,0.12757,0.12489,-0.001
-10.6,-0.5971,0.12617,0.12348,-0.0019
-10.5,-0.5927,0.12476,0.12208,-0.0027
-10.4,-0.5883,0.12335,0.12067,-0.0035
-10.3,-0.584,0.12193,0.11926,-0.0043
-10.2,-0.5798,0.12053,0.11786,-0.0051
-10.1,-0.5756,0.11911,0.11645,-0.0059
-10,-0.5686,0.11661,0.11395,-0.0075
-9.9,-0.564,0.11508,0.11244,-0.0084
-9.8,-0.5594,0.11364,0.111,-0.0093
-9.7,-0.5549,0.11231,0.10968,-0.0102
-9.5,-0.5482,0.11005,0.10749,-0.0116
-9.4,-0.5476,0.10898,0.10643,-0.0114
-9.3,-0.5475,0.10802,0.10549,-0.011
-9.2,-0.5482,0.10717,0.10465,-0.0105
-9.1,-0.5501,0.10643,0.10393,-0.0096
-9,-0.5533,0.10583,0.10336,-0.0084
-8.9,-0.5537,0.10495,0.10249,-0.0081
-8.8,-0.5465,0.10326,0.1008,-0.0097
-8.7,-0.5384,0.10151,0.09904,-0.0116
-8.6,-0.5307,0.09983,0.09736,-0.0134
-8.5,-0.5221,0.09813,0.09565,-0.0155
-8.4,-0.5128,0.09638,0.09389,-0.0177
-8.3,-0.5042,0.09477,0.09227,-0.0196
-8.2,-0.4954,0.0932,0.0907,-0.0216
-8.1,-0.4861,0.09164,0.08913,-0.0238
-8,-0.4755,0.09002,0.0875,-0.0262
-7.9,-0.4651,0.08846,0.08594,-0.0286
-7.8,-0.4543,0.08692,0.08438,-0.031
-7.7,-0.4434,0.08539,0.08285,-0.0335
-7.6,-0.4342,0.08402,0.08147,-0.0354
-7.5,-0.4238,0.08257,0.08,-0.0376
-7.4,-0.4127,0.0811,0.07852,-0.04
-7.3,-0.4003,0.07955,0.07695,-0.0427
-7.2,-0.388,0.07803,0.07541,-0.0453
-7.1,-0.3753,0.07648,0.07385,-0.0481
-7,-0.362,0.07492,0.07228,-0.0509
-6.9,-0.3484,0.07333,0.07067,-0.0538
-6.8,-0.3385,0.07199,0.06932,-0.0557
-6.7,-0.3267,0.07052,0.06784,-0.058
-6.6,-0.3139,0.06898,0.06628,-0.0606
-6.5,-0.3003,0.06738,0.06467,-0.0633
-6.4,-0.2863,0.06575,0.06301,-0.0662
-6.3,-0.2711,0.06401,0.06125,-0.0693
-6.2,-0.2559,0.06227,0.05949,-0.0724
-6.1,-0.2401,0.06047,0.05766,-0.0755
-4.5,0.0704,0.01661,0.01165,-0.1386
-4.4,0.0851,0.01544,0.01019,-0.1396
-4.3,0.0994,0.01463,0.00915,-0.1404
-4.2,0.1131,0.0141,0.00843,-0.1409
-4.1,0.1269,0.01347,0.00772,-0.1415
-4,0.1404,0.01309,0.00727,-0.142
-3.9,0.1541,0.01278,0.00689,-0.1424
-3.8,0.1646,0.01253,0.00658,-0.1421
-3.7,0.1768,0.01227,0.00625,-0.1422
-3.6,0.1894,0.012,0.0059,-0.1424
-3.5,0.2023,0.01173,0.00554,-0.1426
-3.4,0.2153,0.01148,0.00519,-0.1428
-3.3,0.2283,0.01126,0.00491,-0.143
-3.2,0.2413,0.01104,0.00466,-0.1433
-3.1,0.2532,0.01089,0.00449,-0.1433
-3,0.2648,0.01077,0.00433,-0.1432
-2.9,0.2766,0.01063,0.00415,-0.1432
-2.8,0.2886,0.01058,0.0041,-0.1432
-2.7,0.301,0.01044,0.00395,-0.1434
-2.6,0.3136,0.01032,0.0038,-0.1435
-2.4,0.3383,0.01014,0.00357,-0.1437
-2.3,0.3495,0.01003,0.00345,-0.1435
-2.2,0.3614,0.00995,0.00335,-0.1435
-2.1,0.3734,0.00986,0.00323,-0.1435
-2,0.3857,0.00978,0.00311,-0.1436
-1.9,0.3981,0.00968,0.00299,-0.1436
-1.8,0.41,0.00963,0.00298,-0.1437
-1.7,0.4215,0.00958,0.00291,-0.1436
-1.6,0.4331,0.00952,0.00282,-0.1435
-1.5,0.4451,0.00945,0.00275,-0.1435
-1.4,0.4571,0.00939,0.0027,-0.1436
-1.3,0.4692,0.00935,0.00265,-0.1436
-1.2,0.481,0.00931,0.00258,-0.1436
-1.1,0.4924,0.00926,0.00255,-0.1435
-1,0.5042,0.00922,0.00251,-0.1435
-0.9,0.5161,0.00918,0.00247,-0.1435
-0.8,0.5281,0.00914,0.0024,-0.1434
-0.7,0.5389,0.00909,0.00238,-0.1431
-0.6,0.5508,0.00906,0.00234,-0.1431
-0.5,0.5621,0.00902,0.00226,-0.1429
-0.4,0.5738,0.00899,0.00225,-0.1429
-0.3,0.5854,0.00896,0.00221,-0.1428
-0.2,0.597,0.00894,0.00218,-0.1427
-0.1,0.6086,0.00892,0.00219,-0.1426
0,0.62,0.0089,0.00213,-0.1424
0.1,0.6316,0.00889,0.00212,-0.1424
0.2,0.6431,0.00887,0.00211,-0.1423
0.3,0.6548,0.00885,0.0021,-0.1422
0.4,0.6661,0.00885,0.00208,-0.1421
0.5,0.6777,0.00884,0.00209,-0.142
0.6,0.6892,0.00884,0.00208,-0.1419
0.7,0.7004,0.00884,0.00206,-0.1417
0.8,0.712,0.00884,0.00206,-0.1416
0.9,0.7232,0.00884,0.00205,-0.1415
1,0.7347,0.00885,0.00205,-0.1414
1.1,0.7461,0.00886,0.00206,-0.1413
1.2,0.757,0.00889,0.00206,-0.141
1.3,0.7683,0.0089,0.00208,-0.1409
1.4,0.7795,0.00893,0.00209,-0.1407
1.5,0.7905,0.00896,0.0021,-0.1405
1.6,0.8008,0.00905,0.00211,-0.1401
1.7,0.8118,0.00909,0.00212,-0.1399
1.8,0.8224,0.00916,0.00215,-0.1396
1.9,0.8328,0.00924,0.00218,-0.1393
2,0.8433,0.00932,0.00222,-0.139
2.1,0.8521,0.00953,0.00228,-0.1383
2.2,0.8624,0.00963,0.00234,-0.138
2.3,0.8725,0.00973,0.00243,-0.1377
2.5,0.8851,0.00878,0.0026,-0.1356
2.6,0.8928,0.00916,0.00274,-0.1348
2.7,0.9021,0.00941,0.00288,-0.1343
2.8,0.9113,0.00968,0.00301,-0.1339
2.9,0.9203,0.00997,0.00314,-0.1334
3,0.9291,0.01028,0.0033,-0.1329
3.1,0.936,0.01082,0.00353,-0.1322
3.2,0.9454,0.0111,0.00368,-0.1319
3.3,0.9552,0.01133,0.00381,-0.1316
3.4,0.9653,0.01153,0.00395,-0.1313
3.5,0.9756,0.0117,0.00406,-0.131
3.6,0.9853,0.01195,0.00421,-0.1307
3.7,0.9958,0.01209,0.00433,-0.1305
3.8,1.0062,0.01225,0.00445,-0.1302
3.9,1.0168,0.01239,0.00457,-0.13
4,1.0272,0.01254,0.00469,-0.1298
4.1,1.0378,0.01268,0.00482,-0.1296
4.2,1.0478,0.01288,0.00499,-0.1293
4.3,1.0584,0.01301,0.0051,-0.129
4.4,1.0687,0.01317,0.00524,-0.1288
4.5,1.0793,0.0133,0.00536,-0.1285
4.6,1.0896,0.01346,0.00549,-0.1283
4.7,1.0997,0.01364,0.00562,-0.128
4.8,1.11,0.0138,0.00577,-0.1277
4.9,1.1205,0.01394,0.0059,-0.1275
5,1.1307,0.01411,0.00604,-0.1272
5.1,1.141,0.01426,0.00619,-0.1269
5.2,1.1508,0.01448,0.00635,-0.1266
5.3,1.1612,0.01463,0.00649,-0.1263
5.4,1.1713,0.0148,0.00665,-0.126
5.5,1.1814,0.01498,0.00682,-0.1256
5.6,1.1916,0.01514,0.00702,-0.1253
5.7,1.2016,0.01533,0.00719,-0.125
5.8,1.2116,0.01551,0.00738,-0.1246
5.9,1.2213,0.01573,0.00755,-0.1243
6,1.2312,0.01593,0.00775,-0.1239
6.1,1.2413,0.01611,0.00794,-0.1235
6.2,1.2511,0.01631,0.00814,-0.1232
6.3,1.2607,0.01654,0.00836,-0.1228
6.4,1.2707,0.01672,0.00857,-0.1224
6.5,1.2805,0.01692,0.00879,-0.122
6.6,1.2898,0.01718,0.009,-0.1215
6.7,1.2995,0.0174,0.00925,-0.1211
6.8,1.3092,0.0176,0.00949,-0.1207
6.9,1.3188,0.01782,0.00976,-0.1202
7,1.3283,0.01806,0.01001,-0.1198
7.1,1.3375,0.01833,0.01029,-0.1193
7.2,1.3466,0.01861,0.01059,-0.1187
7.3,1.3561,0.01884,0.01087,-0.1182
7.4,1.3654,0.01909,0.01117,-0.1177
7.5,1.3746,0.01933,0.01141,-0.1172
7.6,1.3835,0.01962,0.01173,-0.1167
7.7,1.392,0.01997,0.01209,-0.1161
7.8,1.4014,0.02017,0.01232,-0.1156
7.9,1.4103,0.02045,0.01265,-0.115
8,1.4191,0.02074,0.01298,-0.1144
8.1,1.4276,0.02106,0.01333,-0.1138
8.2,1.4357,0.02142,0.01372,-0.1131
8.3,1.4438,0.02179,0.01412,-0.1124
8.4,1.4522,0.02211,0.01455,-0.1117
8.5,1.4614,0.0223,0.01475,-0.1113
8.6,1.4695,0.02264,0.01513,-0.1106
8.7,1.4772,0.02302,0.01555,-0.1099
8.8,1.4846,0.02345,0.01601,-0.1091
8.9,1.4921,0.02383,0.01647,-0.1083
9,1.4994,0.02424,0.01696,-0.1074
9.1,1.5064,0.02467,0.01747,-0.1065
9.2,1.5132,0.0251,0.01798,-0.1056
9.3,1.5198,0.02555,0.01849,-0.1047
9.4,1.5261,0.026,0.01901,-0.1038
9.5,1.5321,0.02647,0.01955,-0.1028
9.6,1.5375,0.02698,0.02011,-0.1017
9.7,1.542,0.02754,0.02074,-0.1005
9.8,1.5456,0.02815,0.0214,-0.0992
9.9,1.5491,0.02869,0.02205,-0.0978
10,1.552,0.02928,0.02274,-0.0963
10.1,1.5546,0.02991,0.02347,-0.0948
10.2,1.5569,0.03056,0.02422,-0.0934
10.3,1.5589,0.03124,0.02503,-0.0919
10.4,1.5606,0.03194,0.02583,-0.0904
10.5,1.562,0.03266,0.02665,-0.0889
10.6,1.5631,0.03341,0.02749,-0.0875
10.7,1.5638,0.03417,0.02836,-0.086
10.8,1.5644,0.03496,0.02924,-0.0846
10.9,1.5646,0.03578,0.03016,-0.0832
11,1.5646,0.03662,0.0311,-0.0819
11.1,1.5642,0.03749,0.03206,-0.0806
11.2,1.5633,0.0384,0.03307,-0.0793
11.3,1.5623,0.03933,0.0341,-0.078
11.4,1.5609,0.04031,0.03517,-0.0768
11.5,1.559,0.04134,0.03629,-0.0757
11.6,1.5567,0.04241,0.03746,-0.0746
11.7,1.554,0.04354,0.03869,-0.0736
11.8,1.551,0.04472,0.03996,-0.0727
11.9,1.5475,0.04598,0.04131,-0.072
12,1.5436,0.04731,0.04274,-0.0713
12.1,1.5392,0.04871,0.04423,-0.0707
12.2,1.5346,0.05018,0.0458,-0.0704
12.3,1.5294,0.05177,0.04748,-0.0702
12.4,1.5242,0.05343,0.04923,-0.0702
12.5,1.5185,0.05519,0.05109,-0.0704
12.6,1.5127,0.05707,0.05307,-0.0709
12.8,1.5003,0.06117,0.05735,-0.0726
12.9,1.4942,0.06339,0.05968,-0.074
13,1.4883,0.06575,0.06212,-0.0757
13.1,1.4829,0.06821,0.06469,-0.0777
13.2,1.4773,0.07091,0.06749,-0.0802
13.4,1.4665,0.07698,0.07379,-0.0866
13.5,1.4615,0.08052,0.07744,-0.0908
13.7,1.4523,0.08869,0.08583,-0.1007
13.9,1.4439,0.09868,0.09608,-0.1123
14,1.4399,0.10399,0.10151,-0.1178
14.1,1.4349,0.10932,0.10694,-0.123
14.2,1.4291,0.11468,0.11238,-0.1281
14.4,1.4164,0.12549,0.12334,-0.1379
14.5,1.4092,0.1313,0.12921,-0.1428
14.7,1.3929,0.14386,0.14188,-0.153
14.8,1.3841,0.15071,0.14876,-0.1581
14.9,1.379,0.15613,0.15419,-0.1621
15,1.3771,0.16001,0.15808,-0.1651
15.1,1.3769,0.16313,0.1612,-0.1676
15.2,1.3773,0.16591,0.16397,-0.1699
15.3,1.3781,0.1684,0.16647,-0.172
15.4,1.3797,0.17042,0.16849,-0.1738
15.5,1.3815,0.1722,0.17026,-0.1756
15.6,1.3798,0.17654,0.17457,-0.1786
15.7,1.372,0.1872,0.18521,-0.184
15.8,1.372,0.19197,0.18997,-0.1866
15.9,1.3737,0.19549,0.19349,-0.1887
16,1.3762,0.19909,0.19709,-0.191
16.1,1.379,0.20129,0.19929,-0.1926
16.2,1.3818,0.2034,0.2014,-0.1942
16.3,1.3848,0.20543,0.20343,-0.1958
16.4,1.3878,0.2074,0.2054,-0.1974
16.5,1.3908,0.20929,0.20729,-0.1989
16.6,1.3939,0.21112,0.20913,-0.2004
16.7,1.397,0.21296,0.21097,-0.2019
16.8,1.4001,0.21469,0.21269,-0.2034
16.9,1.4032,0.21641,0.21442,-0.2048
17,1.4064,0.2181,0.21612,-0.2063
17.1,1.4095,0.21976,0.2178,-0.2077
17.2,1.4126,0.2214,0.21944,-0.2092
17.3,1.4158,0.22295,0.221,-0.2106
17.4,1.4189,0.22455,0.2226,-0.212
17.5,1.422,0.22609,0.22414,-0.2135
17.6,1.425,0.22761,0.22566,-0.2149
17.7,1.428,0.22909,0.22715,-0.2163
17.8,1.431,0.23063,0.22869,-0.2176
17.9,1.4338,0.23211,0.23017,-0.219
18,1.4368,0.23429,0.23234,-0.2206
18.2,1.4451,0.24436,0.24239,-0.2251
18.3,1.4488,0.24716,0.24519,-0.2268
18.4,1.4524,0.24987,0.2479,-0.2284
18.5,1.456,0.25225,0.25028,-0.23
18.6,1.4597,0.25465,0.25268,-0.2316
18.7,1.4633,0.25685,0.25489,-0.2331
18.8,1.4669,0.25905,0.25709,-0.2347
18.9,1.4705,0.26116,0.25921,-0.2362
19,1.474,0.26319,0.26124,-0.2377
19.1,1.4775,0.26525,0.2633,-0.2392
19.2,1.4811,0.26726,0.26531,-0.2408
19.3,1.4846,0.26923,0.26729,-0.2423
19.4,1.4881,0.27118,0.26924,-0.2438
19.5,1.4916,0.2731,0.27117,-0.2453
19.6,1.4951,0.27502,0.27309,-0.2468
19.7,1.4986,0.27693,0.275,-0.2483
19.8,1.502,0.2788,0.27688,-0.2498
19.9,1.5055,0.28069,0.27877,-0.2513
20,1.5089,0.28252,0.2806,-0.2528
20.1,1.5123,0.28437,0.28246,-0.2544
20.2,1.5157,0.28621,0.28431,-0.2559
20.3,1.5191,0.28803,0.28613,-0.2574
20.4,1.5224,0.28987,0.28797,-0.2589
20.5,1.5258,0.29166,0.28976,-0.2604
20.6,1.5291,0.29347,0.29158,-0.2619
20.7,1.5325,0.29529,0.29341,-0.2635
20.8,1.5358,0.29708,0.2952,-0.265
20.9,1.5391,0.29888,0.297,-0.2665
21,1.5424,0.30067,0.2988,-0.268
21.1,1.5457,0.30248,0.30061,-0.2696
21.2,1.549,0.30426,0.30242,-0.2711
21.3,1.5523,0.30607,0.30423,-0.2727
21.4,1.5555,0.30784,0.30601,-0.2742
21.5,1.5587,0.3097,0.30787,-0.2757
21.6,1.562,0.31151,0.30969,-0.2773
21.7,1.5652,0.31332,0.3115,-0.2788
21.8,1.5683,0.31511,0.3133,-0.2804
21.9,1.5716,0.31697,0.31517,-0.2819
22,1.5747,0.31874,0.31694,-0.2835
22.1,1.5778,0.32062,0.31882,-0.2851
22.2,1.581,0.32249,0.3207,-0.2866
22.3,1.5841,0.32434,0.32255,-0.2882
22.4,1.5872,0.3262,0.32442,-0.2898
22.5,1.5903,0.32809,0.32632,-0.2913
22.6,1.5933,0.32998,0.32822,-0.2929
22.7,1.5965,0.33196,0.3302,-0.2945
22.8,1.5995,0.3339,0.33214,-0.2961
22.9,1.6025,0.33584,0.33409,-0.2976
23,1.6055,0.33782,0.33608,-0.2992
23.1,1.6086,0.33986,0.33812,-0.3008
23.2,1.6115,0.34185,0.34011,-0.3024
23.3,1.6145,0.34389,0.34216,-0.3039
23.4,1.6237,0.35081,0.34904,-0.3074
23.5,1.6279,0.35386,0.35209,-0.3093
23.6,1.6315,0.35636,0.35459,-0.3111
23.7,1.6353,0.35898,0.35722,-0.3129
23.8,1.6389,0.3615,0.35974,-0.3147
23.9,1.6425,0.36397,0.36222,-0.3165
24,1.646,0.36634,0.36459,-0.3183
24.1,1.6494,0.36864,0.3669,-0.3201
24.2,1.6528,0.37092,0.36918,-0.3219
24.3,1.6563,0.37324,0.37151,-0.3237
24.4,1.6596,0.37546,0.37373,-0.3255
24.5,1.6629,0.37768,0.37596,-0.3273
24.6,1.6661,0.37984,0.37812,-0.3291
24.7,1.6694,0.38201,0.3803,-0.3309
24.8,1.6727,0.38419,0.3825,-0.3327
24.9,1.6758,0.38632,0.38464,-0.3345
25,1.679,0.38845,0.38677,-0.3363
25.1,1.6822,0.39057,0.3889,-0.3381
25.2,1.6853,0.39268,0.39101,-0.3399
25.3,1.6884,0.39478,0.39312,-0.3417
25.4,1.6915,0.39687,0.39521,-0.3435
25.5,1.6945,0.39896,0.39731,-0.3454
25.6,1.6976,0.40105,0.3994,-0.3472
25.7,1.7006,0.40312,0.40148,-0.349
25.8,1.7036,0.40517,0.40354,-0.3509
25.9,1.7066,0.40724,0.40561,-0.3527
26,1.7095,0.40931,0.40769,-0.3546
26.1,1.7124,0.41137,0.40976,-0.3564
26.2,1.7154,0.41343,0.41182,-0.3583
26.3,1.7183,0.41544,0.41383,-0.3601
26.4,1.7211,0.41751,0.41592,-0.362
26.5,1.724,0.41955,0.41796,-0.3638
26.6,1.7268,0.42162,0.42003,-0.3657
26.7,1.7296,0.42362,0.42204,-0.3676
26.8,1.7324,0.42568,0.42411,-0.3695
26.9,1.7352,0.42768,0.42612,-0.3713
27,1.7379,0.42977,0.4282,-0.3732
27.1,1.7406,0.4318,0.43025,-0.3751
27.2,1.7434,0.43391,0.43236,-0.377
27.3,1.746,0.43584,0.4343,-0.3789
27.4,1.7487,0.43796,0.43642,-0.3808
27.5,1.7513,0.44001,0.43848,-0.3827
27.6,1.7539,0.44207,0.44055,-0.3846
27.7,1.7565,0.44413,0.44261,-0.3865
27.8,1.7591,0.44622,0.44471,-0.3884
27.9,1.7617,0.44835,0.44686,-0.3904
28,1.7642,0.45042,0.44894,-0.3923
28.1,1.7668,0.45255,0.45108,-0.3942
28.2,1.7693,0.45468,0.45321,-0.3961
28.3,1.7717,0.4568,0.45534,-0.398
28.4,1.7742,0.45897,0.45751,-0.4
28.5,1.7767,0.46114,0.45969,-0.4019
28.6,1.7791,0.46337,0.46193,-0.4039
28.7,1.7816,0.46558,0.46415,-0.4058
28.8,1.784,0.4678,0.46637,-0.4078
28.9,1.7863,0.47003,0.46861,-0.4097
29,1.7887,0.4723,0.47089,-0.4117
29.1,1.7911,0.4746,0.4732,-0.4136
29.2,1.7934,0.47691,0.47552,-0.4156
29.3,1.7958,0.47926,0.47787,-0.4175
29.4,1.798,0.48163,0.48024,-0.4195
29.5,1.8003,0.48398,0.4826,-0.4215
29.6,1.8027,0.48639,0.48502,-0.4234
29.7,1.8049,0.48883,0.48747,-0.4254
29.8,1.8071,0.49127,0.48992,-0.4274
29.9,1.8094,0.49375,0.4924,-0.4294
30,1.8116,0.49625,0.4949,-0.4313

