airfoilName st20.dat
Re 	6.300000e+05
M 	2.500000e-01
N 	4.500000e+00
VACC 	0 VACCflag 1
XTR 	1.00 	1.00 XTRflag 0
alpha,cl,cd,cdp,cm
-30,-1.3477,0.50841,0.50689,0.2776
-29.9,-1.345,0.50552,0.50399,0.2757
-29.8,-1.3423,0.50231,0.50079,0.2738
-29.7,-1.3396,0.49942,0.49789,0.2719
-29.6,-1.3368,0.49654,0.49501,0.27
-29.5,-1.3341,0.49345,0.49191,0.2681
-29.4,-1.3313,0.49065,0.48911,0.2662
-29.3,-1.3284,0.48786,0.48632,0.2643
-29.2,-1.3256,0.48514,0.48359,0.2624
-29.1,-1.3228,0.4823,0.48075,0.2605
-29,-1.3199,0.47969,0.47814,0.2586
-28.9,-1.317,0.477,0.47544,0.2567
-28.8,-1.314,0.47446,0.4729,0.2548
-28.7,-1.3111,0.47183,0.47027,0.2529
-28.6,-1.3082,0.46932,0.46774,0.251
-28.5,-1.3052,0.46684,0.46526,0.2491
-28.4,-1.3022,0.46434,0.46276,0.2472
-28.3,-1.2992,0.46188,0.46029,0.2453
-28.2,-1.2961,0.45948,0.45789,0.2434
-28.1,-1.2931,0.45708,0.45549,0.2416
-28,-1.29,0.45472,0.45313,0.2397
-27.9,-1.2869,0.45238,0.45078,0.2378
-27.8,-1.2838,0.45005,0.44845,0.2359
-27.7,-1.2807,0.44774,0.44613,0.234
-27.6,-1.2775,0.44545,0.44384,0.2322
-27.5,-1.2744,0.44318,0.44157,0.2303
-27.4,-1.2712,0.44093,0.43931,0.2285
-27.3,-1.268,0.43868,0.43706,0.2266
-27.2,-1.2648,0.43643,0.43481,0.2247
-27.1,-1.2615,0.4342,0.43257,0.2229
-27,-1.2583,0.43199,0.43036,0.2211
-26.9,-1.255,0.42977,0.42814,0.2192
-26.8,-1.2518,0.42758,0.42594,0.2174
-26.7,-1.2485,0.42539,0.42375,0.2156
-26.6,-1.2452,0.42319,0.42155,0.2137
-26.5,-1.2419,0.42101,0.41936,0.2119
-26.4,-1.2386,0.41884,0.41719,0.2101
-26.3,-1.2352,0.41666,0.41501,0.2083
-26.2,-1.2319,0.41449,0.41283,0.2065
-26.1,-1.2285,0.41233,0.41066,0.2047
-26,-1.2251,0.41016,0.40848,0.2029
-25.9,-1.2217,0.408,0.40633,0.2012
-25.8,-1.2183,0.40586,0.40418,0.1994
-25.7,-1.2149,0.40372,0.40204,0.1976
-25.6,-1.2114,0.40158,0.39989,0.1958
-25.5,-1.208,0.39943,0.39774,0.1941
-25.4,-1.2045,0.39731,0.39562,0.1923
-25.3,-1.2011,0.3952,0.3935,0.1906
-25.2,-1.1976,0.39308,0.39138,0.1888
-25.1,-1.1941,0.39095,0.38926,0.1871
-25,-1.1906,0.38886,0.38716,0.1854
-24.9,-1.187,0.38676,0.38505,0.1837
-24.8,-1.1835,0.38466,0.38295,0.1819
-24.7,-1.18,0.38255,0.38084,0.1802
-24.6,-1.1764,0.38048,0.37877,0.1785
-24.5,-1.1728,0.37838,0.37666,0.1768
-24.4,-1.1692,0.3763,0.37458,0.1751
-24.3,-1.1657,0.37422,0.3725,0.1734
-24.2,-1.1621,0.37215,0.37043,0.1717
-24.1,-1.1584,0.37009,0.36836,0.1701
-24,-1.1548,0.36801,0.36628,0.1684
-23.9,-1.1512,0.36596,0.36423,0.1667
-23.8,-1.1472,0.36454,0.36281,0.1649
-23.7,-1.1436,0.36244,0.36071,0.1632
-23.6,-1.1399,0.36036,0.35863,0.1616
-23.5,-1.1362,0.35831,0.35657,0.1599
-23.4,-1.1326,0.35621,0.35446,0.1583
-23.3,-1.1288,0.35416,0.35241,0.1567
-23.2,-1.1251,0.35208,0.35032,0.1551
-23.1,-1.1214,0.35003,0.34827,0.1534
-23,-1.1177,0.34795,0.34619,0.1518
-22.9,-1.1139,0.34592,0.34416,0.1502
-22.8,-1.1101,0.34385,0.34209,0.1486
-22.7,-1.1064,0.34179,0.34002,0.147
-22.6,-1.1026,0.33974,0.33797,0.1454
-22.5,-1.0987,0.33769,0.33591,0.1438
-22.4,-1.0949,0.33564,0.33387,0.1423
-22.3,-1.0911,0.33361,0.33183,0.1407
-22.2,-1.0872,0.33158,0.3298,0.1391
-22.1,-1.0834,0.32953,0.32775,0.1375
-22,-1.0795,0.32749,0.32571,0.136
-21.9,-1.0756,0.32548,0.3237,0.1344
-21.8,-1.0717,0.32343,0.32165,0.1329
-21.7,-1.0678,0.32142,0.31963,0.1313
-21.6,-1.0639,0.31937,0.31758,0.1298
-21.5,-1.0599,0.31738,0.31559,0.1282
-21.4,-1.056,0.31536,0.31356,0.1267
-21.3,-1.052,0.31333,0.31154,0.1252
-21.2,-1.048,0.31132,0.30953,0.1236
-21.1,-1.044,0.3093,0.3075,0.1221
-21,-1.04,0.30727,0.30547,0.1206
-20.9,-1.036,0.30525,0.30345,0.1191
-20.8,-1.0319,0.30321,0.30141,0.1176
-20.7,-1.0279,0.30117,0.29936,0.1161
-20.6,-1.0238,0.29912,0.29731,0.1146
-20.5,-1.0196,0.29707,0.29526,0.113
-20.4,-1.0154,0.295,0.29318,0.1115
-20.3,-1.0112,0.29292,0.2911,0.11
-20.2,-1.0068,0.29083,0.28901,0.1084
-20.1,-1.0024,0.28877,0.28695,0.1069
-20,-0.9973,0.28686,0.28504,0.1051
-19.5,-0.9714,0.27882,0.27702,0.0961
-19.4,-0.968,0.27648,0.27468,0.095
-19.3,-0.9646,0.27415,0.27235,0.0939
-19.2,-0.9613,0.27176,0.26995,0.0928
-19.1,-0.958,0.26931,0.2675,0.0917
-19,-0.9548,0.26685,0.26503,0.0906
-18.9,-0.9515,0.2645,0.26269,0.0895
-18.8,-0.9483,0.26207,0.26025,0.0885
-18.7,-0.9449,0.25976,0.25794,0.0874
-18.6,-0.9415,0.25753,0.25571,0.0863
-18.5,-0.938,0.25541,0.25359,0.0851
-18.4,-0.9344,0.25333,0.25151,0.084
-18.3,-0.9308,0.25133,0.2495,0.0828
-18.2,-0.9271,0.24937,0.24754,0.0816
-18.1,-0.9234,0.24746,0.24563,0.0805
-18,-0.9196,0.24558,0.24375,0.0793
-17.9,-0.9157,0.24373,0.2419,0.0781
-17.8,-0.9119,0.24191,0.24008,0.0769
-17.7,-0.908,0.24011,0.23828,0.0757
-17.6,-0.9041,0.23834,0.2365,0.0745
-17.5,-0.9001,0.23655,0.23471,0.0733
-17.4,-0.8962,0.23479,0.23295,0.0721
-17.3,-0.8922,0.23304,0.2312,0.0709
-17.2,-0.8882,0.23129,0.22945,0.0697
-17.1,-0.8842,0.22956,0.2277,0.0685
-17,-0.8802,0.22783,0.22597,0.0673
-16.9,-0.8762,0.2261,0.22424,0.0661
-16.8,-0.8721,0.22438,0.22252,0.0649
-16.7,-0.8681,0.22266,0.2208,0.0637
-16.6,-0.864,0.22096,0.21909,0.0626
-16.5,-0.8599,0.21924,0.21738,0.0614
-16.4,-0.8558,0.21754,0.21567,0.0602
-16.3,-0.8516,0.21584,0.21397,0.059
-16.2,-0.8475,0.21412,0.21225,0.0579
-16.1,-0.8433,0.21242,0.21055,0.0567
-16,-0.8392,0.21072,0.20885,0.0555
-15.9,-0.835,0.20902,0.20715,0.0544
-15.8,-0.8308,0.20732,0.20545,0.0532
-15.7,-0.8266,0.20563,0.20375,0.0521
-15.6,-0.8224,0.20393,0.20206,0.0509
-15.5,-0.8182,0.20225,0.20037,0.0498
-15.4,-0.8139,0.20057,0.19869,0.0487
-15.3,-0.8097,0.19888,0.19701,0.0476
-15.2,-0.8055,0.19721,0.19533,0.0464
-15.1,-0.8012,0.19553,0.19366,0.0453
-15,-0.7969,0.19386,0.19199,0.0442
-14.9,-0.7927,0.1922,0.19032,0.0431
-14.8,-0.7875,0.19084,0.18896,0.0415
-14.7,-0.7832,0.18914,0.18727,0.0404
-14.6,-0.7789,0.18745,0.18557,0.0393
-14.5,-0.7746,0.18576,0.18388,0.0382
-14.4,-0.7703,0.18406,0.18218,0.0371
-14.3,-0.7659,0.18237,0.18049,0.0361
-14.2,-0.7615,0.18067,0.1788,0.0349
-14.1,-0.7572,0.17898,0.17711,0.0339
-14,-0.7528,0.17729,0.1754,0.0328
-13.9,-0.7484,0.17558,0.17369,0.0317
-13.8,-0.744,0.17389,0.172,0.0306
-13.7,-0.7396,0.17218,0.1703,0.0296
-13.6,-0.7352,0.17047,0.16859,0.0285
-13.5,-0.7308,0.16873,0.16684,0.0274
-13.4,-0.7263,0.16698,0.1651,0.0264
-13.3,-0.7218,0.1652,0.16332,0.0253
-13.2,-0.7173,0.16339,0.16151,0.0243
-13.1,-0.7127,0.1615,0.15962,0.0232
-13,-0.7078,0.15951,0.15762,0.022
-12.9,-0.7025,0.15744,0.15555,0.0208
-12.8,-0.6966,0.15551,0.15363,0.0195
-12.7,-0.6902,0.15381,0.15193,0.018
-12.5,-0.6782,0.15055,0.14869,0.0152
-12.4,-0.675,0.14873,0.14688,0.0145
-12.3,-0.6718,0.14692,0.14507,0.0138
-12.2,-0.6688,0.1451,0.14325,0.0131
-12.1,-0.6656,0.14338,0.14153,0.0123
-12,-0.662,0.14177,0.13992,0.0115
-11.9,-0.6582,0.14023,0.13838,0.0107
-11.8,-0.6542,0.13876,0.13691,0.0098
-11.7,-0.65,0.13733,0.13548,0.0089
-11.6,-0.6458,0.13594,0.1341,0.0081
-11.5,-0.6415,0.13458,0.13274,0.0071
-11.4,-0.6371,0.13325,0.1314,0.0062
-11.3,-0.6326,0.13192,0.13008,0.0053
-11.2,-0.6281,0.13063,0.12879,0.0044
-11.1,-0.6236,0.12933,0.12749,0.0035
-11,-0.619,0.12804,0.12621,0.0026
-10.9,-0.6145,0.12676,0.12492,0.0017
-10.8,-0.6099,0.12548,0.12365,0.0008
-10.7,-0.6054,0.12422,0.12239,-0.0001
-10.6,-0.6009,0.12296,0.12112,-0.001
-10.5,-0.5964,0.12172,0.11988,-0.0018
-10.4,-0.5919,0.12047,0.11864,-0.0027
-10.3,-0.5875,0.11925,0.11741,-0.0035
-10.2,-0.5832,0.11803,0.1162,-0.0043
-10.1,-0.579,0.11683,0.115,-0.005
-10,-0.5751,0.11564,0.11382,-0.0057
-9.9,-0.5713,0.11449,0.11267,-0.0064
-9.8,-0.568,0.11337,0.11156,-0.0069
-9.7,-0.5652,0.11232,0.11052,-0.0072
-9.6,-0.563,0.11133,0.10954,-0.0074
-9.4,-0.5616,0.10965,0.10788,-0.0069
-9.2,-0.5505,0.10702,0.10525,-0.0092
-9.1,-0.5425,0.10546,0.10369,-0.0111
-9,-0.5342,0.10389,0.10212,-0.013
-8.9,-0.5257,0.1023,0.10053,-0.015
-8.8,-0.5158,0.10054,0.09875,-0.0175
-8.7,-0.5078,0.09896,0.09718,-0.0193
-8.6,-0.4995,0.09735,0.09556,-0.0212
-8.5,-0.4896,0.0956,0.0938,-0.0235
-8.4,-0.4793,0.09381,0.09201,-0.0259
-8.3,-0.4688,0.09199,0.09018,-0.0284
-8.2,-0.4579,0.09013,0.08831,-0.031
-8.1,-0.4478,0.08826,0.08644,-0.0334
-8,-0.4382,0.08644,0.08461,-0.0356
-7.9,-0.4275,0.08445,0.08261,-0.0381
-7.8,-0.4152,0.08229,0.08044,-0.041
-7.7,-0.4022,0.0802,0.07833,-0.0441
-7.6,-0.3873,0.07805,0.07617,-0.0478
-7.5,-0.3722,0.07586,0.07399,-0.0515
-7.4,-0.3652,0.07427,0.07238,-0.053
-7.3,-0.3567,0.07255,0.07066,-0.0549
-7.2,-0.3467,0.07087,0.06897,-0.0572
-7.1,-0.3357,0.06925,0.06733,-0.0596
-7,-0.3239,0.06771,0.06577,-0.0622
-6.9,-0.3112,0.06621,0.06426,-0.0649
-6.8,-0.2994,0.06483,0.06287,-0.0672
-5.2,-0.0011,0.01601,0.01224,-0.139
-5.1,0.0132,0.01455,0.01051,-0.1403
-5,0.0264,0.01373,0.0095,-0.1409
-4.9,0.0393,0.01313,0.00876,-0.1414
-4.8,0.0519,0.01271,0.00822,-0.1416
-4.7,0.0645,0.01221,0.00761,-0.1419
-4.6,0.0778,0.01139,0.00661,-0.1425
-4.5,0.0904,0.01095,0.00606,-0.1428
-4.4,0.1024,0.01063,0.00567,-0.1428
-4.3,0.1145,0.01036,0.00534,-0.1429
-4.2,0.1268,0.01013,0.00505,-0.143
-4.1,0.1389,0.00992,0.00478,-0.143
-4,0.1512,0.00972,0.00452,-0.1431
-3.9,0.1633,0.00953,0.00426,-0.1431
-3.8,0.1754,0.00935,0.00403,-0.1431
-3.7,0.1876,0.00918,0.00381,-0.1431
-3.6,0.1996,0.00903,0.0036,-0.1431
-3.5,0.2117,0.0089,0.00342,-0.1431
-3.4,0.2239,0.00872,0.00319,-0.1432
-3.3,0.2358,0.0086,0.00303,-0.1432
-3.2,0.2478,0.00849,0.00291,-0.1432
-3.1,0.2597,0.0084,0.00279,-0.1432
-3,0.2717,0.00831,0.00267,-0.1432
-2.9,0.2835,0.00823,0.00255,-0.1431
-2.8,0.2955,0.00815,0.00245,-0.1431
-2.7,0.3074,0.00807,0.00235,-0.1431
-2.6,0.3192,0.008,0.00227,-0.1431
-2.5,0.3311,0.00794,0.0022,-0.1431
-2.4,0.3429,0.00788,0.00212,-0.143
-2.3,0.3548,0.00782,0.00204,-0.143
-2.2,0.3666,0.00777,0.002,-0.143
-2.1,0.3782,0.00776,0.00198,-0.143
-2,0.3902,0.00768,0.0019,-0.143
-1.9,0.4021,0.00763,0.00185,-0.143
-1.8,0.4139,0.00759,0.00179,-0.143
-1.7,0.4257,0.00755,0.00174,-0.143
-1.6,0.4375,0.00752,0.00169,-0.1429
-1.5,0.4493,0.00748,0.00164,-0.1429
-1.4,0.4606,0.00745,0.00161,-0.1428
-1.3,0.4722,0.00743,0.00157,-0.1427
-1.2,0.4837,0.00742,0.00152,-0.1426
-1.1,0.4952,0.0074,0.00148,-0.1425
-1,0.5068,0.00737,0.00145,-0.1424
-0.9,0.5184,0.00736,0.00142,-0.1424
-0.8,0.5301,0.00736,0.0014,-0.1423
-0.7,0.5416,0.00734,0.00138,-0.1423
-0.6,0.5533,0.00733,0.00137,-0.1422
-0.5,0.5647,0.00733,0.00135,-0.1421
-0.4,0.5764,0.00733,0.00133,-0.1421
-0.3,0.5877,0.00734,0.00131,-0.1419
-0.2,0.5992,0.00734,0.00132,-0.1419
-0.1,0.6107,0.00735,0.00131,-0.1418
0,0.6224,0.00735,0.0013,-0.1418
0.1,0.6336,0.00738,0.0013,-0.1416
0.2,0.645,0.0074,0.0013,-0.1415
0.3,0.6565,0.00742,0.0013,-0.1415
0.4,0.668,0.00742,0.00131,-0.1414
0.6,0.6898,0.00755,0.00132,-0.141
0.7,0.7011,0.00758,0.00133,-0.1409
0.8,0.7125,0.00761,0.00135,-0.1408
0.9,0.7234,0.00768,0.00137,-0.1406
1,0.7335,0.00782,0.0014,-0.1403
1.1,0.7444,0.00789,0.00144,-0.1401
1.2,0.7547,0.00802,0.00148,-0.1398
1.3,0.7655,0.00811,0.00153,-0.1397
1.4,0.7759,0.00824,0.00158,-0.1394
1.5,0.7854,0.00847,0.00166,-0.139
1.6,0.7955,0.00864,0.00174,-0.1387
1.7,0.8056,0.00882,0.00181,-0.1384
1.8,0.8161,0.00895,0.00189,-0.1382
1.9,0.8264,0.0091,0.00195,-0.138
2,0.8351,0.00944,0.0021,-0.1375
2.1,0.8452,0.00963,0.00219,-0.1373
2.2,0.8551,0.00984,0.00229,-0.137
2.3,0.865,0.01007,0.00241,-0.1367
2.4,0.8748,0.0103,0.00252,-0.1365
2.5,0.8837,0.01064,0.00269,-0.1361
2.6,0.8943,0.01077,0.00277,-0.1359
2.7,0.9052,0.01086,0.00288,-0.1358
2.8,0.9161,0.01095,0.00296,-0.1357
2.9,0.9271,0.01101,0.00304,-0.1356
3,0.9319,0.00986,0.00325,-0.1345
3.1,0.9428,0.00998,0.00333,-0.1344
3.2,0.9538,0.01008,0.0034,-0.1342
3.3,0.9647,0.01019,0.00347,-0.1341
3.4,0.9757,0.01029,0.00355,-0.1339
3.5,0.9862,0.01044,0.00365,-0.1337
3.6,0.9972,0.01054,0.00372,-0.1336
3.7,1.0081,0.01066,0.0038,-0.1334
3.8,1.019,0.01076,0.00389,-0.1332
3.9,1.0299,0.01086,0.00397,-0.1331
4,1.0404,0.01102,0.00407,-0.1328
4.1,1.0512,0.01113,0.00416,-0.1327
4.2,1.062,0.01125,0.00428,-0.1325
4.3,1.0729,0.01135,0.00437,-0.1323
4.4,1.0836,0.01148,0.00447,-0.1321
4.5,1.0941,0.01163,0.00458,-0.1319
4.6,1.1046,0.01178,0.00469,-0.1316
4.7,1.1154,0.01189,0.0048,-0.1314
4.8,1.1261,0.01201,0.0049,-0.1312
4.9,1.1366,0.01216,0.00503,-0.131
5,1.1473,0.01228,0.00514,-0.1307
5.1,1.1574,0.01247,0.00528,-0.1305
5.2,1.1681,0.01259,0.00539,-0.1302
5.3,1.1786,0.01273,0.00551,-0.13
5.4,1.1889,0.0129,0.00566,-0.1297
5.5,1.1995,0.01302,0.00581,-0.1294
5.6,1.21,0.01317,0.00595,-0.1292
5.7,1.2203,0.01333,0.00609,-0.1289
5.8,1.2305,0.01351,0.00625,-0.1286
5.9,1.2409,0.01366,0.00639,-0.1283
6,1.2511,0.01383,0.00655,-0.1279
6.1,1.2614,0.01399,0.00672,-0.1276
6.2,1.2718,0.01414,0.00688,-0.1273
6.3,1.2821,0.01429,0.00703,-0.127
6.4,1.2923,0.01447,0.00721,-0.1267
6.5,1.3023,0.01466,0.00739,-0.1263
6.6,1.3125,0.01482,0.00758,-0.126
6.7,1.3228,0.01498,0.00776,-0.1256
6.8,1.333,0.01515,0.00796,-0.1252
6.9,1.3428,0.01535,0.00815,-0.1249
7,1.3524,0.01558,0.00837,-0.1244
7.1,1.3625,0.01575,0.00856,-0.1241
7.2,1.3725,0.01593,0.00877,-0.1237
7.3,1.3825,0.01613,0.00897,-0.1232
7.4,1.3922,0.01633,0.00919,-0.1228
7.5,1.4016,0.01658,0.00942,-0.1224
7.6,1.4114,0.01677,0.00964,-0.1219
7.7,1.4212,0.01697,0.00987,-0.1215
7.8,1.4308,0.01719,0.0101,-0.121
7.9,1.4403,0.01742,0.01035,-0.1205
8,1.4495,0.01768,0.01062,-0.12
8.1,1.459,0.0179,0.01088,-0.1195
8.2,1.4685,0.01813,0.01116,-0.119
8.3,1.4778,0.01836,0.01143,-0.1185
8.4,1.487,0.01861,0.01171,-0.1179
8.5,1.4961,0.01887,0.012,-0.1173
8.6,1.5049,0.01916,0.01231,-0.1167
8.7,1.5136,0.01947,0.01265,-0.1161
8.8,1.5224,0.01974,0.01298,-0.1155
8.9,1.5311,0.02004,0.01333,-0.1148
9,1.5396,0.02034,0.01368,-0.1141
9.1,1.5479,0.02066,0.01406,-0.1134
9.2,1.5561,0.02099,0.01444,-0.1127
9.3,1.5641,0.02134,0.01483,-0.1119
9.4,1.5719,0.0217,0.01525,-0.1111
9.5,1.5793,0.0221,0.01569,-0.1103
9.6,1.5863,0.02254,0.0162,-0.1094
9.7,1.5925,0.02306,0.01677,-0.1084
9.8,1.5992,0.02348,0.01728,-0.1074
9.9,1.6056,0.02393,0.01781,-0.1064
10.1,1.6197,0.0246,0.0186,-0.1047
10.2,1.6252,0.02507,0.01914,-0.1035
10.3,1.6302,0.02555,0.01971,-0.1023
10.4,1.6348,0.02606,0.02028,-0.1011
10.5,1.6385,0.02656,0.02086,-0.0996
10.6,1.6415,0.02707,0.02145,-0.0981
10.7,1.6442,0.0276,0.02206,-0.0966
10.8,1.6466,0.02817,0.02271,-0.0951
10.9,1.6488,0.02876,0.02337,-0.0936
11,1.6505,0.02937,0.02407,-0.092
11.1,1.6518,0.03003,0.02481,-0.0905
11.2,1.6528,0.03071,0.02557,-0.0889
11.3,1.6532,0.03143,0.02639,-0.0874
11.4,1.653,0.03221,0.02725,-0.0858
11.5,1.6524,0.03302,0.02815,-0.0842
11.6,1.6511,0.03389,0.02912,-0.0827
11.7,1.6491,0.03482,0.03014,-0.0811
11.8,1.6463,0.03582,0.03124,-0.0796
11.9,1.6434,0.03686,0.03238,-0.0781
12,1.6395,0.03799,0.03362,-0.0767
12.1,1.6352,0.03918,0.0349,-0.0754
12.2,1.63,0.04046,0.03628,-0.0741
12.3,1.6246,0.0418,0.0377,-0.073
12.4,1.6217,0.04297,0.03897,-0.0722
12.5,1.6183,0.04421,0.04031,-0.0714
12.6,1.6148,0.04551,0.04171,-0.0708
12.7,1.6102,0.04693,0.04323,-0.0702
12.8,1.6053,0.04845,0.04484,-0.0699
12.9,1.6007,0.04999,0.04649,-0.0697
13,1.595,0.05172,0.04831,-0.0698
13.1,1.5894,0.05351,0.0502,-0.0701
13.2,1.5836,0.05543,0.05224,-0.0706
13.3,1.5774,0.05747,0.05438,-0.0715
13.4,1.571,0.05967,0.05667,-0.0727
13.5,1.5645,0.06202,0.05912,-0.0742
13.7,1.5514,0.06735,0.06466,-0.0788
13.9,1.5379,0.07401,0.07153,-0.0859
14.1,1.5247,0.08295,0.08068,-0.0966
14.5,1.4857,0.1109,0.10906,-0.1254
14.6,1.4794,0.11565,0.11387,-0.1296
14.7,1.4725,0.12057,0.11883,-0.1339
14.8,1.4666,0.12511,0.12342,-0.1378
14.9,1.4608,0.12963,0.12798,-0.1417
15,1.4549,0.13424,0.13263,-0.1456
15.4,1.4353,0.15193,0.15046,-0.1606
15.6,1.4267,0.16076,0.15935,-0.1679
15.7,1.4235,0.16493,0.16354,-0.1714
15.8,1.4189,0.16989,0.16853,-0.1753
15.9,1.4166,0.1739,0.17256,-0.1786
16,1.4139,0.17839,0.17707,-0.1821
16.1,1.4121,0.18248,0.18116,-0.1853
16.2,1.4122,0.18556,0.18425,-0.1879
16.3,1.4124,0.18857,0.18727,-0.1904
16.4,1.4129,0.19141,0.1901,-0.1928
16.5,1.4119,0.19558,0.19426,-0.1957
16.6,1.4055,0.20679,0.20548,-0.2006
16.7,1.4065,0.21116,0.20983,-0.2029
16.8,1.4085,0.21469,0.21337,-0.2049
16.9,1.411,0.21759,0.21626,-0.2067
17,1.4138,0.22021,0.21888,-0.2084
17.1,1.4168,0.22264,0.22132,-0.21
17.2,1.4198,0.22495,0.22364,-0.2117
17.3,1.4229,0.22722,0.22591,-0.2133
17.4,1.4261,0.22938,0.22807,-0.2148
17.5,1.4293,0.23148,0.23017,-0.2164
17.6,1.4326,0.23351,0.23221,-0.218
17.7,1.4359,0.2355,0.2342,-0.2195
17.8,1.4392,0.23747,0.23617,-0.221
17.9,1.4425,0.23939,0.23809,-0.2225
18,1.4458,0.24125,0.23996,-0.2241
18.1,1.4491,0.24311,0.24182,-0.2256
18.2,1.4525,0.24493,0.24364,-0.2271
18.3,1.4558,0.24678,0.24549,-0.2286
18.4,1.4591,0.24854,0.24725,-0.2301
18.5,1.4625,0.25034,0.24905,-0.2316
18.6,1.4658,0.25202,0.25074,-0.2331
18.7,1.4691,0.25379,0.25252,-0.2345
18.8,1.4724,0.25544,0.25416,-0.236
18.9,1.4757,0.25712,0.25585,-0.2375
19,1.479,0.25894,0.25767,-0.239
19.1,1.4822,0.26058,0.25932,-0.2405
19.2,1.4854,0.26213,0.26087,-0.242
19.3,1.4886,0.26389,0.26263,-0.2435
19.4,1.4918,0.26563,0.26437,-0.2449
19.5,1.4948,0.26719,0.26594,-0.2464
19.6,1.4979,0.26896,0.26771,-0.2479
19.7,1.5009,0.27075,0.2695,-0.2494
19.8,1.5037,0.27249,0.27124,-0.2508
19.9,1.5067,0.27436,0.27312,-0.2523
20,1.5093,0.27622,0.27498,-0.2537
20.1,1.5129,0.27869,0.27743,-0.2553
20.2,1.5169,0.2814,0.28015,-0.257
20.4,1.525,0.28697,0.28572,-0.2605
20.5,1.5292,0.28995,0.28869,-0.2622
20.6,1.533,0.29261,0.29136,-0.2638
20.7,1.5368,0.29512,0.29387,-0.2654
20.8,1.5406,0.29781,0.29656,-0.2671
20.9,1.5443,0.30026,0.29901,-0.2687
21,1.548,0.30268,0.30144,-0.2703
21.1,1.5516,0.30503,0.30378,-0.2719
21.2,1.5553,0.30743,0.30619,-0.2735
21.3,1.5588,0.30969,0.30846,-0.2752
21.4,1.5624,0.31202,0.3108,-0.2768
21.5,1.5659,0.31414,0.31292,-0.2784
21.6,1.5694,0.31637,0.31516,-0.28
21.7,1.5729,0.31858,0.31737,-0.2816
21.8,1.5772,0.32156,0.32034,-0.2835
21.9,1.5807,0.32366,0.32245,-0.2851
22,1.5841,0.32577,0.32457,-0.2868
22.1,1.5876,0.32785,0.32665,-0.2884
22.2,1.591,0.32991,0.32871,-0.2901
22.3,1.5944,0.33198,0.33078,-0.2917
22.4,1.5978,0.33404,0.33285,-0.2934
22.5,1.6012,0.33609,0.3349,-0.295
22.6,1.6045,0.33812,0.33693,-0.2967
22.7,1.6079,0.34015,0.33897,-0.2984
22.8,1.6112,0.34217,0.341,-0.3
22.9,1.6145,0.34418,0.34301,-0.3017
23,1.6178,0.3462,0.34503,-0.3034
23.1,1.6211,0.34822,0.34705,-0.3051
23.2,1.6244,0.35018,0.34902,-0.3068
23.3,1.6277,0.35216,0.35101,-0.3085
23.4,1.6309,0.35415,0.353,-0.3102
23.5,1.6342,0.3561,0.35495,-0.3119
23.6,1.6374,0.35808,0.35693,-0.3136
23.7,1.6406,0.36003,0.35889,-0.3153
23.8,1.6437,0.36197,0.36083,-0.317
23.9,1.6469,0.36389,0.36275,-0.3188
24,1.65,0.36579,0.36466,-0.3205
24.1,1.6531,0.36773,0.3666,-0.3222
24.2,1.6562,0.36965,0.36853,-0.324
24.3,1.6593,0.3715,0.37038,-0.3257
24.4,1.6623,0.37338,0.37227,-0.3275
24.5,1.6654,0.37527,0.37416,-0.3292
24.6,1.6684,0.3772,0.37609,-0.331
24.7,1.6714,0.37904,0.37796,-0.3327
24.8,1.6743,0.38084,0.37977,-0.3345
24.9,1.6773,0.38278,0.3817,-0.3362
25,1.6802,0.38465,0.38358,-0.338
25.1,1.6831,0.38648,0.38541,-0.3398
25.2,1.686,0.38834,0.38729,-0.3416
25.3,1.6888,0.3902,0.38914,-0.3433
25.4,1.6917,0.3921,0.39105,-0.3451
25.5,1.6945,0.39401,0.39296,-0.3469
25.6,1.6973,0.39596,0.39492,-0.3487
25.7,1.7,0.39785,0.39682,-0.3505
25.8,1.7028,0.3998,0.39877,-0.3522
25.9,1.7055,0.40181,0.40078,-0.354
26,1.7082,0.40385,0.40282,-0.3558
26.1,1.7109,0.40592,0.40491,-0.3576
26.2,1.7135,0.40804,0.40703,-0.3594
26.3,1.7161,0.41026,0.40925,-0.3611
26.4,1.7188,0.41245,0.41144,-0.3629
26.5,1.7214,0.41475,0.41375,-0.3647
26.6,1.7241,0.41699,0.416,-0.3665
26.7,1.7267,0.41945,0.41845,-0.3682
26.8,1.7293,0.42178,0.42079,-0.37
26.9,1.7319,0.42417,0.42319,-0.3718
27,1.7345,0.42649,0.42551,-0.3736
27.3,1.7466,0.43451,0.43352,-0.3804
27.4,1.7494,0.43679,0.4358,-0.3823
27.5,1.7533,0.43969,0.43871,-0.3845
27.6,1.757,0.44262,0.44163,-0.3867
27.7,1.7603,0.44535,0.44437,-0.3887
27.8,1.7637,0.44815,0.44717,-0.3908
27.9,1.7666,0.45062,0.44966,-0.3928
28,1.7699,0.45333,0.45237,-0.3948
28.1,1.7727,0.45576,0.4548,-0.3968
28.2,1.7757,0.45825,0.45729,-0.3988
28.3,1.7787,0.46079,0.45984,-0.4009
28.4,1.7815,0.46317,0.46222,-0.4029
28.5,1.7842,0.46548,0.46454,-0.4049
28.6,1.7869,0.46785,0.46691,-0.4069
28.7,1.7896,0.47017,0.46924,-0.4089
28.8,1.7923,0.47254,0.47161,-0.411
28.9,1.7957,0.47478,0.47385,-0.4134
29,1.7983,0.477,0.47608,-0.4154
29.1,1.801,0.47922,0.4783,-0.4175
29.2,1.8035,0.48145,0.48054,-0.4195
29.3,1.8061,0.48362,0.48271,-0.4216
29.4,1.8086,0.48582,0.48491,-0.4237
29.5,1.8111,0.48802,0.48712,-0.4257
29.6,1.8136,0.49019,0.48929,-0.4278
29.7,1.8161,0.49233,0.49143,-0.4299
29.8,1.8185,0.4945,0.49361,-0.432
29.9,1.8209,0.49665,0.49577,-0.4341
30,1.8233,0.4988,0.49792,-0.4362

