airfoilName st21.dat
Re 	690000
M 	2.500000e-01
N 	4.500000e+00
VACC 	0 VACCflag 1
XTR 	1.00 	1.00 XTRflag 0
alpha,cl,cd,cdp,cm
-28.6,-1.2739,0.48799,0.48652,0.2443
-28.5,-1.2711,0.48474,0.48326,0.2427
-28.4,-1.2684,0.48154,0.48007,0.241
-28.3,-1.2656,0.47842,0.47694,0.2392
-28.2,-1.2628,0.47524,0.47376,0.2375
-28.1,-1.2601,0.47189,0.4704,0.2359
-28,-1.2573,0.46849,0.467,0.2343
-27.9,-1.2545,0.46521,0.46372,0.2326
-27.8,-1.2516,0.46218,0.46069,0.2309
-27.7,-1.2487,0.45917,0.45767,0.2292
-27.6,-1.2458,0.45616,0.45465,0.2275
-27.5,-1.2429,0.45322,0.45171,0.2258
-27.4,-1.2399,0.45035,0.44884,0.2241
-27.3,-1.2369,0.44753,0.44602,0.2223
-27.2,-1.2339,0.4448,0.44328,0.2206
-27.1,-1.2308,0.44218,0.44066,0.2189
-27,-1.2277,0.43955,0.43802,0.2171
-26.9,-1.2246,0.43703,0.43549,0.2154
-26.8,-1.2215,0.43449,0.43295,0.2136
-26.7,-1.2183,0.43205,0.4305,0.2119
-26.6,-1.2152,0.4296,0.42806,0.2102
-26.5,-1.212,0.42721,0.42566,0.2084
-26.4,-1.2088,0.42483,0.42328,0.2067
-26.3,-1.2055,0.42249,0.42093,0.2049
-26.2,-1.2023,0.42017,0.41861,0.2032
-26.1,-1.199,0.41787,0.4163,0.2014
-26,-1.1957,0.41559,0.41402,0.1997
-25.9,-1.1924,0.41332,0.41175,0.198
-25.8,-1.1891,0.41107,0.4095,0.1962
-25.7,-1.1857,0.40884,0.40726,0.1945
-25.6,-1.1824,0.40662,0.40504,0.1928
-25.5,-1.179,0.40441,0.40282,0.1911
-25.4,-1.1756,0.40221,0.40063,0.1894
-25.3,-1.1722,0.40002,0.39843,0.1877
-25.2,-1.1688,0.39785,0.39625,0.186
-25.1,-1.1654,0.39567,0.39407,0.1843
-25,-1.162,0.3935,0.3919,0.1826
-24.9,-1.1585,0.39134,0.38974,0.1809
-24.8,-1.155,0.38921,0.3876,0.1792
-24.7,-1.1516,0.38705,0.38544,0.1775
-24.6,-1.1481,0.38492,0.38331,0.1759
-24.5,-1.1446,0.38279,0.38118,0.1742
-24.4,-1.1411,0.38065,0.37904,0.1725
-24.3,-1.1376,0.37854,0.37691,0.1709
-24.2,-1.134,0.37641,0.37478,0.1692
-24.1,-1.1305,0.37429,0.37266,0.1676
-24,-1.1269,0.37219,0.37055,0.166
-23.9,-1.1234,0.37008,0.36844,0.1643
-23.8,-1.1198,0.36797,0.36632,0.1627
-23.7,-1.1162,0.36587,0.36423,0.1611
-23.6,-1.1126,0.36378,0.36213,0.1595
-23.5,-1.109,0.3617,0.36005,0.1579
-23.4,-1.1054,0.3596,0.35795,0.1563
-23.3,-1.1017,0.35806,0.3564,0.1546
-23.2,-1.0981,0.35597,0.35431,0.153
-23.1,-1.0944,0.35385,0.35219,0.1514
-23,-1.0908,0.35177,0.3501,0.1499
-22.9,-1.0871,0.34967,0.34801,0.1483
-22.8,-1.0835,0.34758,0.34592,0.1468
-22.7,-1.0798,0.3455,0.34383,0.1452
-22.6,-1.0761,0.34343,0.34176,0.1437
-22.5,-1.0724,0.34134,0.33967,0.1421
-22.4,-1.0688,0.33927,0.33759,0.1406
-22.3,-1.065,0.33721,0.33553,0.1391
-22.2,-1.0613,0.33514,0.33346,0.1376
-22.1,-1.0576,0.33307,0.33139,0.1361
-22,-1.0538,0.33103,0.32934,0.1346
-21.9,-1.0501,0.32897,0.32728,0.1331
-21.8,-1.0463,0.32692,0.32523,0.1316
-21.7,-1.0425,0.32488,0.32319,0.1301
-21.6,-1.0388,0.32284,0.32115,0.1286
-21.5,-1.035,0.32081,0.31911,0.1271
-21.4,-1.0312,0.31878,0.31707,0.1257
-21.3,-1.0274,0.31676,0.31505,0.1242
-21.2,-1.0235,0.31474,0.31302,0.1228
-21.1,-1.0197,0.31272,0.311,0.1213
-21,-1.0159,0.31071,0.309,0.1199
-20.9,-1.0121,0.30869,0.30697,0.1184
-20.8,-1.0082,0.30671,0.30499,0.117
-20.7,-1.0044,0.30471,0.30298,0.1156
-20.6,-1.0005,0.30271,0.30099,0.1142
-20.5,-0.9967,0.30072,0.29899,0.1127
-20.4,-0.9928,0.29875,0.29702,0.1113
-20.3,-0.9889,0.29677,0.29504,0.1099
-20.2,-0.985,0.29478,0.29305,0.1085
-20.1,-0.9811,0.29282,0.29109,0.1071
-20,-0.9773,0.29086,0.28912,0.1058
-19.9,-0.9734,0.28889,0.28716,0.1044
-19.8,-0.9694,0.28695,0.28521,0.103
-19.7,-0.9656,0.28499,0.28325,0.1017
-19.6,-0.9616,0.28305,0.28131,0.1003
-19.5,-0.9577,0.2811,0.27936,0.0989
-19.4,-0.9538,0.27916,0.27741,0.0976
-19.3,-0.9499,0.27721,0.27547,0.0962
-19.2,-0.9459,0.27529,0.27354,0.0949
-19.1,-0.942,0.27336,0.27161,0.0936
-19,-0.938,0.27144,0.26969,0.0922
-18.9,-0.934,0.26952,0.26777,0.0909
-18.8,-0.9301,0.2676,0.26585,0.0896
-18.7,-0.9261,0.26568,0.26393,0.0883
-18.6,-0.9221,0.26377,0.26201,0.0869
-18.5,-0.9181,0.26185,0.26009,0.0856
-18.4,-0.914,0.25993,0.25818,0.0843
-18.3,-0.91,0.258,0.25625,0.083
-18.2,-0.9059,0.25608,0.25431,0.0817
-18.1,-0.9017,0.25414,0.25237,0.0803
-18,-0.8976,0.25219,0.25043,0.079
-17.9,-0.8935,0.25023,0.24846,0.0777
-17.8,-0.8893,0.24826,0.24649,0.0764
-17.7,-0.8849,0.24619,0.24443,0.075
-17.3,-0.8646,0.2382,0.23644,0.0687
-17,-0.8487,0.23331,0.23157,0.0638
-16.9,-0.8459,0.23089,0.22915,0.063
-16.8,-0.8433,0.22831,0.22657,0.0623
-16.7,-0.8406,0.22581,0.22406,0.0616
-16.6,-0.8375,0.2236,0.22185,0.0607
-16.5,-0.8342,0.22153,0.21977,0.0597
-16.4,-0.8308,0.21954,0.21778,0.0588
-16.3,-0.8273,0.21765,0.2159,0.0577
-16.2,-0.8236,0.21582,0.21407,0.0567
-16.1,-0.8199,0.21403,0.21227,0.0557
-16,-0.8161,0.21227,0.21051,0.0546
-15.9,-0.8123,0.21054,0.20878,0.0535
-15.8,-0.8084,0.20881,0.20705,0.0525
-15.7,-0.8045,0.20712,0.20535,0.0514
-15.6,-0.8006,0.20544,0.20367,0.0503
-15.5,-0.7966,0.20376,0.20199,0.0492
-15.4,-0.7926,0.20209,0.20032,0.0482
-15.3,-0.7886,0.20043,0.19866,0.0471
-15.2,-0.7846,0.19877,0.197,0.046
-15.1,-0.7805,0.19713,0.19536,0.0449
-15,-0.7765,0.19548,0.19371,0.0439
-14.9,-0.7724,0.19383,0.19206,0.0428
-14.8,-0.7683,0.19221,0.19043,0.0418
-14.7,-0.7642,0.19057,0.18879,0.0407
-14.6,-0.7601,0.18895,0.18716,0.0396
-14.5,-0.756,0.18734,0.18555,0.0386
-14.4,-0.7519,0.18572,0.18393,0.0375
-14.3,-0.7477,0.18411,0.18232,0.0365
-14.2,-0.7436,0.1825,0.18071,0.0355
-14.1,-0.7394,0.18089,0.1791,0.0344
-14,-0.7352,0.17928,0.17749,0.0334
-13.9,-0.731,0.17767,0.17589,0.0323
-13.8,-0.7267,0.17608,0.17429,0.0313
-13.7,-0.7225,0.17448,0.17269,0.0302
-13.6,-0.7182,0.17289,0.1711,0.0292
-13.5,-0.714,0.1713,0.16951,0.0282
-13.4,-0.7089,0.17004,0.16825,0.0267
-13.3,-0.7047,0.16843,0.16664,0.0257
-13.2,-0.7004,0.16682,0.16503,0.0247
-13.1,-0.6962,0.16521,0.16343,0.0237
-13,-0.6919,0.16362,0.16183,0.0227
-12.9,-0.6876,0.16202,0.16023,0.0217
-12.8,-0.6833,0.16042,0.15864,0.0207
-12.7,-0.6789,0.15883,0.15705,0.0197
-12.6,-0.6746,0.15724,0.15546,0.0187
-12.5,-0.6702,0.15564,0.15386,0.0178
-12.4,-0.6658,0.15406,0.15228,0.0168
-12.3,-0.6615,0.15247,0.15069,0.0158
-12.2,-0.6571,0.15089,0.14911,0.0148
-12.1,-0.6527,0.1493,0.14752,0.0138
-12,-0.6483,0.14771,0.14593,0.0128
-11.9,-0.6439,0.14612,0.14435,0.0119
-11.8,-0.6395,0.14452,0.14274,0.0109
-11.7,-0.635,0.14291,0.14114,0.0099
-11.6,-0.6306,0.1413,0.13952,0.009
-11.5,-0.6261,0.13962,0.13784,0.008
-11.4,-0.6216,0.13792,0.13614,0.007
-11.3,-0.6171,0.1362,0.13442,0.006
-11.2,-0.6123,0.13422,0.13245,0.005
-11.1,-0.607,0.13202,0.13025,0.0038
-11,-0.6014,0.13013,0.12836,0.0026
-10.9,-0.5951,0.12845,0.12668,0.0012
-10.7,-0.5829,0.12534,0.1236,-0.0015
-10.6,-0.5806,0.12353,0.12179,-0.002
-10.5,-0.5782,0.12178,0.12004,-0.0025
-10.4,-0.5755,0.12015,0.11842,-0.0031
-10.3,-0.5722,0.11867,0.11694,-0.0037
-10.2,-0.5687,0.1173,0.11557,-0.0044
-10.1,-0.5651,0.116,0.11427,-0.0051
-10,-0.5613,0.11473,0.11301,-0.0058
-9.9,-0.5576,0.11351,0.11179,-0.0065
-9.8,-0.554,0.11233,0.11061,-0.0072
-9.7,-0.5505,0.11119,0.10948,-0.0078
-9.6,-0.5473,0.11009,0.10838,-0.0083
-9.5,-0.5446,0.10904,0.10734,-0.0087
-9.4,-0.5424,0.10807,0.10637,-0.0089
-9.3,-0.5411,0.10718,0.10549,-0.0089
-9.2,-0.5408,0.10639,0.10472,-0.0085
-9,-0.532,0.10406,0.10239,-0.0103
-8.9,-0.5243,0.1026,0.10093,-0.0121
-8.8,-0.5164,0.10113,0.09945,-0.0139
-8.7,-0.5082,0.09965,0.09797,-0.0159
-8.6,-0.4996,0.09814,0.09645,-0.0179
-8.5,-0.491,0.09662,0.09494,-0.0199
-8.4,-0.4826,0.09514,0.09345,-0.0219
-8.3,-0.4731,0.09357,0.09188,-0.0241
-8.2,-0.4631,0.09199,0.09027,-0.0265
-8.1,-0.4528,0.09038,0.08865,-0.029
-8,-0.4422,0.08875,0.08702,-0.0315
-7.8,-0.4219,0.08567,0.08393,-0.0363
-7.7,-0.412,0.08409,0.08234,-0.0385
-7.6,-0.4012,0.08244,0.08067,-0.041
-7.5,-0.3902,0.08078,0.07901,-0.0435
-7.4,-0.3789,0.0791,0.07732,-0.0461
-7.3,-0.3671,0.07739,0.0756,-0.0488
-7.2,-0.357,0.0758,0.074,-0.051
-7.1,-0.3468,0.07422,0.07241,-0.0531
-7,-0.3357,0.07254,0.07072,-0.0556
-6.9,-0.3239,0.07081,0.06897,-0.0581
-6.8,-0.3116,0.06899,0.06714,-0.0609
-6.7,-0.2982,0.06701,0.06514,-0.0639
-5.2,-0.0205,0.01572,0.0121,-0.1352
-5.1,-0.0066,0.01424,0.01035,-0.1364
-5,0.0064,0.01337,0.0093,-0.137
-4.9,0.0192,0.0127,0.00848,-0.1375
-4.8,0.0318,0.01215,0.00778,-0.1378
-4.7,0.0444,0.01169,0.0072,-0.1381
-4.5,0.0687,0.01117,0.00651,-0.1383
-4.4,0.0811,0.01083,0.00608,-0.1384
-4.3,0.0931,0.01055,0.00572,-0.1384
-4.2,0.1051,0.01031,0.00541,-0.1385
-4.1,0.1171,0.01013,0.00516,-0.1385
-4,0.1295,0.0097,0.00464,-0.1387
-3.9,0.142,0.00935,0.00421,-0.1388
-3.8,0.1542,0.00912,0.00392,-0.1389
-3.7,0.1662,0.00895,0.00371,-0.1389
-3.6,0.1783,0.00879,0.0035,-0.1389
-3.4,0.2023,0.00852,0.00315,-0.1389
-3.3,0.2142,0.0084,0.00298,-0.1389
-3.2,0.2262,0.00828,0.00282,-0.1389
-3.1,0.2382,0.00819,0.00268,-0.1389
-3,0.2501,0.00805,0.00252,-0.1389
-2.9,0.2621,0.00795,0.00241,-0.1389
-2.8,0.2739,0.00787,0.0023,-0.1388
-2.7,0.2858,0.0078,0.00221,-0.1388
-2.6,0.2975,0.00774,0.00212,-0.1388
-2.5,0.3095,0.00768,0.00204,-0.1388
-2.4,0.3214,0.0076,0.00195,-0.1388
-2.3,0.3331,0.00755,0.00188,-0.1388
-2.2,0.3449,0.0075,0.00182,-0.1387
-2.1,0.3566,0.00746,0.00175,-0.1387
-2,0.3685,0.0074,0.0017,-0.1387
-1.9,0.3803,0.00735,0.00167,-0.1387
-1.8,0.392,0.00732,0.00164,-0.1387
-1.7,0.4038,0.00727,0.00159,-0.1387
-1.6,0.4154,0.00724,0.00154,-0.1386
-1.5,0.4273,0.00721,0.0015,-0.1386
-1.4,0.4387,0.00719,0.00145,-0.1385
-1.3,0.45,0.00717,0.0014,-0.1383
-1.2,0.4617,0.00714,0.00137,-0.1383
-1.1,0.4731,0.00713,0.00134,-0.1382
-1,0.4847,0.00711,0.00131,-0.1381
-0.9,0.4963,0.0071,0.00128,-0.1381
-0.8,0.5077,0.00709,0.00126,-0.138
-0.7,0.5195,0.00708,0.00124,-0.138
-0.6,0.5309,0.00707,0.00123,-0.1379
-0.5,0.5424,0.00708,0.00121,-0.1378
-0.4,0.554,0.00708,0.0012,-0.1377
-0.3,0.5653,0.00709,0.00118,-0.1376
-0.2,0.5769,0.00709,0.00118,-0.1376
-0.1,0.5881,0.00711,0.00117,-0.1374
0,0.5996,0.00712,0.00117,-0.1374
0.1,0.6111,0.00713,0.00117,-0.1373
0.2,0.6226,0.00715,0.00117,-0.1373
0.3,0.6336,0.0072,0.00117,-0.1371
0.4,0.6448,0.00723,0.00118,-0.137
0.5,0.6562,0.00726,0.00119,-0.1369
0.6,0.6676,0.00728,0.0012,-0.1368
0.7,0.6787,0.00733,0.00122,-0.1366
0.8,0.6887,0.00747,0.00124,-0.1363
0.9,0.6998,0.00754,0.00127,-0.1361
1,0.7107,0.00761,0.00129,-0.136
1.1,0.7199,0.00785,0.00136,-0.1355
1.2,0.7308,0.00794,0.0014,-0.1353
1.3,0.7416,0.00803,0.00145,-0.1352
1.4,0.7515,0.00823,0.00154,-0.1349
1.5,0.7622,0.00834,0.00159,-0.1347
1.6,0.7723,0.00852,0.00166,-0.1344
1.7,0.7814,0.00882,0.00178,-0.134
1.8,0.7918,0.00898,0.00185,-0.1338
1.9,0.8021,0.00915,0.00193,-0.1336
2,0.8123,0.00932,0.00203,-0.1334
2.1,0.8205,0.00977,0.0022,-0.1329
2.2,0.8305,0.00998,0.00231,-0.1327
2.3,0.8408,0.01017,0.0024,-0.1325
2.4,0.8514,0.0103,0.00249,-0.1323
2.5,0.8622,0.0104,0.00257,-0.1322
2.6,0.8726,0.01057,0.00267,-0.132
2.7,0.8837,0.01061,0.00276,-0.1319
2.9,0.9002,0.00947,0.00304,-0.1308
3,0.9112,0.00957,0.00311,-0.1307
3.1,0.9218,0.00973,0.00319,-0.1305
3.2,0.9327,0.00984,0.00327,-0.1304
3.3,0.9438,0.00993,0.00334,-0.1302
3.4,0.9547,0.01004,0.00341,-0.1301
3.5,0.9653,0.01018,0.0035,-0.1299
3.6,0.9762,0.01029,0.00359,-0.1298
3.7,0.9872,0.01039,0.00366,-0.1296
3.8,0.998,0.01051,0.00375,-0.1294
3.9,1.009,0.01061,0.00383,-0.1293
4,1.0194,0.01077,0.00394,-0.1291
4.1,1.0303,0.01088,0.00402,-0.1289
4.2,1.041,0.01101,0.00413,-0.1287
4.3,1.0519,0.01111,0.00425,-0.1285
4.4,1.0626,0.01123,0.00434,-0.1283
4.5,1.073,0.0114,0.00446,-0.1281
4.6,1.0836,0.01154,0.00457,-0.1278
4.7,1.0944,0.01166,0.00469,-0.1276
4.8,1.1051,0.01179,0.00479,-0.1274
4.9,1.1155,0.01194,0.00493,-0.1272
5,1.1262,0.01206,0.00504,-0.1269
5.1,1.1364,0.01226,0.00517,-0.1266
5.2,1.147,0.01239,0.00531,-0.1264
5.3,1.1576,0.01252,0.00544,-0.1262
5.4,1.168,0.01268,0.00557,-0.1259
5.5,1.1785,0.01283,0.00573,-0.1256
5.6,1.1891,0.01296,0.00586,-0.1254
5.7,1.1996,0.01311,0.00602,-0.1251
5.8,1.2099,0.01327,0.00618,-0.1248
5.9,1.2202,0.01344,0.00635,-0.1245
6,1.2308,0.01358,0.0065,-0.1242
6.1,1.2412,0.01373,0.00666,-0.1239
6.2,1.2513,0.01391,0.00683,-0.1235
6.3,1.2614,0.0141,0.00702,-0.1232
6.4,1.2717,0.01426,0.0072,-0.1229
6.5,1.282,0.01443,0.00737,-0.1225
6.6,1.2922,0.0146,0.00755,-0.1222
6.7,1.3023,0.01479,0.00775,-0.1218
6.8,1.3121,0.015,0.00795,-0.1214
6.9,1.3222,0.01518,0.00814,-0.1211
7,1.3323,0.01536,0.00836,-0.1207
7.1,1.3422,0.01556,0.00857,-0.1203
7.2,1.352,0.01578,0.0088,-0.1198
7.3,1.3619,0.01599,0.00904,-0.1194
7.4,1.3718,0.01618,0.00926,-0.119
7.5,1.3817,0.01638,0.00949,-0.1186
7.6,1.3914,0.0166,0.00972,-0.1181
7.7,1.401,0.01684,0.00998,-0.1176
7.8,1.4103,0.01711,0.01027,-0.1171
7.9,1.4199,0.01733,0.01054,-0.1166
8,1.4294,0.01757,0.01082,-0.1161
8.1,1.4388,0.01783,0.01111,-0.1156
8.2,1.448,0.01809,0.01142,-0.115
8.3,1.4572,0.01837,0.01174,-0.1144
8.4,1.4661,0.01867,0.01207,-0.1138
8.5,1.4748,0.01899,0.01246,-0.1132
8.6,1.4831,0.01938,0.0129,-0.1125
8.7,1.4915,0.01974,0.0133,-0.1118
8.8,1.4999,0.02009,0.01372,-0.1111
8.9,1.508,0.02047,0.01417,-0.1103
9,1.5159,0.02087,0.01464,-0.1095
9.1,1.5254,0.02102,0.0148,-0.1091
9.2,1.5332,0.02141,0.01526,-0.1083
9.3,1.5408,0.02182,0.01573,-0.1074
9.4,1.5482,0.02225,0.01622,-0.1066
9.5,1.5552,0.0227,0.01674,-0.1057
9.6,1.5619,0.02317,0.01729,-0.1047
9.7,1.5681,0.0237,0.01789,-0.1037
9.8,1.5737,0.02427,0.01855,-0.1026
9.9,1.5783,0.02492,0.01929,-0.1014
10,1.5819,0.02565,0.02013,-0.1
10.1,1.5853,0.02635,0.0209,-0.0986
10.2,1.59,0.02687,0.02151,-0.0974
10.3,1.5938,0.02745,0.02219,-0.0961
10.4,1.5964,0.02805,0.0229,-0.0945
10.5,1.598,0.02868,0.02363,-0.0929
10.6,1.5991,0.02935,0.02439,-0.0912
10.7,1.5998,0.03004,0.02519,-0.0894
10.8,1.6,0.03079,0.02604,-0.0877
10.9,1.5997,0.03158,0.02693,-0.086
11,1.5991,0.0324,0.02786,-0.0843
11.1,1.5977,0.03328,0.02884,-0.0826
11.2,1.5961,0.0342,0.02986,-0.0809
11.3,1.594,0.03515,0.03093,-0.0793
11.4,1.5913,0.03618,0.03206,-0.0777
11.5,1.5882,0.03724,0.03323,-0.0762
11.6,1.5845,0.03836,0.03446,-0.0747
11.7,1.5807,0.03954,0.03574,-0.0733
11.8,1.5761,0.04079,0.0371,-0.0721
11.9,1.5712,0.04209,0.03851,-0.0709
12,1.5661,0.04345,0.03998,-0.0699
12.1,1.5606,0.0449,0.04152,-0.069
12.2,1.5547,0.04643,0.04316,-0.0683
12.3,1.5485,0.04802,0.04485,-0.0677
12.4,1.542,0.04972,0.04665,-0.0674
12.5,1.5353,0.05151,0.04854,-0.0673
12.6,1.5285,0.05341,0.05053,-0.0675
12.7,1.5214,0.05544,0.05266,-0.068
12.8,1.5141,0.05761,0.05492,-0.0688
13,1.4993,0.06237,0.05987,-0.0715
13.1,1.492,0.06504,0.06263,-0.0735
13.2,1.4848,0.06794,0.06563,-0.0761
13.3,1.4772,0.07127,0.06905,-0.0794
13.5,1.463,0.07942,0.0774,-0.0887
13.9,1.4302,0.10656,0.10498,-0.1166
14,1.4204,0.11253,0.11099,-0.1217
14.2,1.4036,0.12327,0.12178,-0.1307
14.3,1.3961,0.12834,0.12688,-0.1349
14.4,1.3889,0.13344,0.132,-0.139
14.5,1.3827,0.13825,0.13684,-0.1429
14.7,1.3712,0.14789,0.1465,-0.1505
14.8,1.3666,0.15239,0.15102,-0.1541
14.9,1.361,0.1574,0.15606,-0.1579
15.1,1.3515,0.16741,0.1661,-0.1653
15.2,1.3467,0.17286,0.17157,-0.1692
15.3,1.3399,0.17989,0.17861,-0.1736
15.4,1.3331,0.18787,0.18659,-0.1781
15.5,1.3319,0.19279,0.19151,-0.1809
15.6,1.3329,0.19621,0.19493,-0.1831
15.7,1.3345,0.19942,0.19813,-0.1851
15.8,1.3365,0.20223,0.20095,-0.1869
15.9,1.3388,0.20487,0.20359,-0.1886
16,1.3413,0.20738,0.2061,-0.1904
16.1,1.3439,0.20979,0.20851,-0.192
16.2,1.3467,0.21209,0.2108,-0.1936
16.3,1.3496,0.21432,0.21304,-0.1952
16.4,1.3525,0.2165,0.21522,-0.1968
16.5,1.3555,0.2186,0.21732,-0.1984
16.6,1.3586,0.22064,0.21936,-0.1999
16.7,1.3617,0.22266,0.22138,-0.2014
16.8,1.3648,0.22464,0.22337,-0.203
16.9,1.368,0.22655,0.22527,-0.2045
17,1.3712,0.22842,0.22714,-0.206
17.1,1.3743,0.2303,0.22902,-0.2075
17.2,1.3776,0.2321,0.23083,-0.209
17.3,1.3808,0.23392,0.23266,-0.2104
17.4,1.384,0.23566,0.23439,-0.2119
17.5,1.3872,0.23743,0.23617,-0.2134
17.6,1.3904,0.2392,0.23794,-0.2149
17.7,1.3936,0.24085,0.23959,-0.2163
17.8,1.3968,0.24264,0.24138,-0.2178
17.9,1.3999,0.24435,0.24309,-0.2193
18,1.4029,0.24598,0.24473,-0.2207
18.1,1.406,0.24777,0.24652,-0.2222
18.2,1.4087,0.24947,0.24823,-0.2236
18.3,1.4113,0.25131,0.25006,-0.225
18.4,1.4137,0.25325,0.252,-0.2264
18.5,1.418,0.25645,0.25518,-0.2282
18.6,1.4224,0.25987,0.25861,-0.2299
18.7,1.4263,0.26268,0.26141,-0.2315
18.8,1.4301,0.26542,0.26416,-0.2331
18.9,1.4339,0.26816,0.26689,-0.2347
19,1.4378,0.27109,0.26983,-0.2363
19.2,1.4452,0.27615,0.2749,-0.2393
19.3,1.4489,0.27855,0.2773,-0.2408
19.4,1.4525,0.28077,0.27952,-0.2423
19.5,1.4562,0.28321,0.28197,-0.2439
19.6,1.4597,0.28531,0.28407,-0.2454
19.7,1.4633,0.28755,0.28632,-0.2469
19.8,1.4669,0.28967,0.28844,-0.2484
19.9,1.4705,0.2919,0.29067,-0.2499
20,1.4739,0.29394,0.29271,-0.2514
20.1,1.4776,0.29614,0.29491,-0.253
20.2,1.481,0.2982,0.29697,-0.2545
20.3,1.4846,0.30032,0.2991,-0.256
20.4,1.4881,0.30245,0.30123,-0.2576
20.5,1.4916,0.3045,0.30328,-0.2591
20.6,1.4952,0.30663,0.30541,-0.2606
20.7,1.4987,0.3087,0.30748,-0.2622
20.8,1.5022,0.31079,0.30958,-0.2637
20.9,1.5057,0.31284,0.31163,-0.2653
21,1.5092,0.31491,0.3137,-0.2669
21.1,1.5126,0.31696,0.31576,-0.2684
21.2,1.5161,0.31904,0.31784,-0.27
21.3,1.5196,0.3211,0.31991,-0.2716
21.4,1.5231,0.32315,0.32196,-0.2731
21.5,1.5265,0.3252,0.32401,-0.2747
21.6,1.5299,0.32725,0.32606,-0.2763
21.7,1.5334,0.32929,0.32811,-0.2779
21.8,1.5368,0.33133,0.33016,-0.2795
21.9,1.5402,0.33339,0.33222,-0.2811
22.1,1.5472,0.33732,0.33616,-0.2845
22.2,1.5506,0.33932,0.33816,-0.2862
22.3,1.554,0.34134,0.34018,-0.2878
22.4,1.5573,0.34332,0.34217,-0.2894
22.5,1.5607,0.34536,0.3442,-0.2911
22.6,1.564,0.34734,0.34619,-0.2927
22.7,1.5673,0.34934,0.3482,-0.2944
22.8,1.5706,0.35132,0.35019,-0.296
22.9,1.5739,0.35329,0.35216,-0.2977
23,1.5772,0.35527,0.35414,-0.2994
23.1,1.5805,0.35722,0.3561,-0.301
23.2,1.5837,0.3592,0.35808,-0.3027
23.3,1.587,0.36117,0.36006,-0.3044
23.4,1.5902,0.36315,0.36204,-0.3061
23.5,1.5934,0.36511,0.36401,-0.3078
23.6,1.5966,0.36707,0.36597,-0.3095
23.7,1.5998,0.36902,0.36792,-0.3112
23.8,1.6029,0.37094,0.36985,-0.3129
23.9,1.6061,0.3729,0.37181,-0.3146
24,1.6092,0.37485,0.37377,-0.3163
24.1,1.6123,0.37679,0.37572,-0.318
24.2,1.6154,0.37872,0.37765,-0.3197
24.3,1.6185,0.38064,0.37957,-0.3215
24.4,1.6215,0.38256,0.3815,-0.3232
24.5,1.6245,0.38448,0.38342,-0.3249
24.6,1.6275,0.38641,0.38536,-0.3267
24.7,1.6305,0.38839,0.38734,-0.3284
24.8,1.6335,0.39032,0.38928,-0.3302
24.9,1.6365,0.39232,0.39128,-0.3319
25,1.6394,0.39425,0.39321,-0.3337
25.1,1.6422,0.3962,0.39517,-0.3354
25.2,1.6451,0.39822,0.39719,-0.3371
25.3,1.648,0.40027,0.39924,-0.3389
25.4,1.6507,0.40231,0.40129,-0.3406
25.5,1.6535,0.40443,0.40342,-0.3424
25.6,1.6562,0.40665,0.40564,-0.3441
25.7,1.659,0.40888,0.40788,-0.3458
25.8,1.6616,0.41136,0.41036,-0.3475
25.9,1.6643,0.41378,0.41279,-0.3492
26,1.667,0.41628,0.4153,-0.3509
26.1,1.6697,0.41882,0.41784,-0.3526
26.2,1.6723,0.42143,0.42046,-0.3542
26.3,1.6751,0.42375,0.42278,-0.356
26.4,1.6777,0.42634,0.42538,-0.3577
26.9,1.6985,0.43974,0.43876,-0.369
27,1.7016,0.44219,0.44122,-0.3709
27.1,1.7054,0.44523,0.44425,-0.373
27.2,1.7087,0.44793,0.44695,-0.3749
27.3,1.7119,0.45055,0.44958,-0.3769
27.4,1.7151,0.45321,0.45224,-0.3789
27.5,1.7181,0.45562,0.45466,-0.3809
27.6,1.7211,0.45809,0.45713,-0.3829
27.7,1.7242,0.46058,0.45963,-0.3849
27.8,1.7269,0.46287,0.46192,-0.3868
27.9,1.7299,0.46531,0.46436,-0.3888
28,1.7327,0.46762,0.46667,-0.3908
28.1,1.7356,0.46999,0.46905,-0.3928
28.2,1.7384,0.47228,0.47135,-0.3948
28.3,1.7412,0.47461,0.47368,-0.3968
28.4,1.7439,0.47691,0.47598,-0.3988
28.5,1.7466,0.47921,0.47828,-0.4008
28.6,1.7493,0.48151,0.48058,-0.4028
28.7,1.752,0.48378,0.48286,-0.4048
28.8,1.7546,0.48604,0.48513,-0.4069
28.9,1.7573,0.48833,0.48742,-0.4089
29,1.7598,0.4906,0.4897,-0.4109
29.1,1.7624,0.49286,0.49196,-0.413
29.2,1.765,0.49513,0.49423,-0.415
29.3,1.7675,0.4974,0.49651,-0.417
29.4,1.7704,0.49898,0.4981,-0.4194
29.5,1.7729,0.50123,0.50035,-0.4214
29.6,1.7754,0.50337,0.5025,-0.4235
29.7,1.7778,0.50556,0.50469,-0.4256
29.8,1.7803,0.50778,0.50692,-0.4277
29.9,1.7826,0.50995,0.50909,-0.4297
30,1.7851,0.51219,0.51134,-0.4318

