airfoilName st21.dat
Re 	2.500000e+05
M 	2.500000e-01
N 	4.500000e+00
VACC 	0 VACCflag 1
XTR 	1.00 	1.00 XTRflag 0
alpha,cl,cd,cdp,cm
-28.3,-1.2685,0.47741,0.47463,0.2396
-28.2,-1.2653,0.47505,0.47226,0.2377
-28.1,-1.2622,0.47269,0.46989,0.2358
-28,-1.259,0.47035,0.46755,0.2339
-27.9,-1.2558,0.46804,0.46524,0.232
-27.8,-1.2526,0.46574,0.46293,0.2301
-27.7,-1.2493,0.46346,0.46064,0.2281
-27.6,-1.2461,0.46119,0.45837,0.2262
-27.5,-1.2427,0.45895,0.45613,0.2243
-27.4,-1.2394,0.45672,0.45389,0.2224
-27.3,-1.2361,0.45453,0.45169,0.2205
-27.2,-1.2327,0.45234,0.4495,0.2186
-27.1,-1.2293,0.45017,0.44731,0.2166
-27,-1.2259,0.44802,0.44516,0.2147
-26.9,-1.2224,0.44588,0.44301,0.2128
-26.8,-1.2189,0.44384,0.44097,0.2108
-26.7,-1.2154,0.4417,0.43883,0.2089
-26.6,-1.2118,0.43966,0.43679,0.207
-26.5,-1.2082,0.43765,0.43477,0.205
-26.4,-1.2046,0.43564,0.43276,0.203
-26.3,-1.2009,0.43372,0.43083,0.201
-26.2,-1.1972,0.43176,0.42887,0.1991
-26.1,-1.1933,0.42985,0.42695,0.1971
-26,-1.1895,0.42792,0.42502,0.195
-25.9,-1.1856,0.42609,0.42319,0.193
-25.8,-1.1817,0.4242,0.4213,0.1909
-25.7,-1.1735,0.42519,0.4223,0.1867
-25.6,-1.1695,0.42294,0.42004,0.1847
-22.6,-1.0578,0.35235,0.34936,0.1351
-22.5,-1.0543,0.35003,0.34703,0.1337
-22.4,-1.0508,0.3477,0.3447,0.1323
-22.3,-1.0474,0.34538,0.34238,0.1309
-22.2,-1.0438,0.34309,0.34008,0.1294
-22.1,-1.0403,0.3408,0.33779,0.128
-22,-1.0368,0.3385,0.33549,0.1266
-21.9,-1.0332,0.33623,0.33321,0.1252
-21.8,-1.0297,0.33395,0.33092,0.1239
-21.7,-1.0261,0.33169,0.32866,0.1225
-21.6,-1.0226,0.32943,0.3264,0.1211
-21.5,-1.019,0.32719,0.32416,0.1197
-21.4,-1.0155,0.32494,0.32191,0.1184
-21.3,-1.0119,0.32272,0.31968,0.117
-21.2,-1.0084,0.3205,0.31744,0.1157
-21.1,-1.0048,0.3183,0.31524,0.1143
-21,-1.0011,0.31611,0.31305,0.113
-20.9,-0.9975,0.31394,0.31087,0.1117
-20.8,-0.9939,0.31177,0.30869,0.1103
-20.7,-0.9903,0.30961,0.30654,0.109
-20.6,-0.9867,0.30747,0.30439,0.1077
-20.5,-0.983,0.30535,0.30226,0.1064
-20.4,-0.9793,0.30323,0.30014,0.105
-20.3,-0.9757,0.30114,0.29805,0.1037
-20.2,-0.972,0.29905,0.29595,0.1024
-20.1,-0.9683,0.29697,0.29388,0.1011
-20,-0.9646,0.29492,0.29182,0.0998
-19.9,-0.9609,0.29287,0.28977,0.0985
-19.8,-0.9571,0.29084,0.28773,0.0972
-19.7,-0.9534,0.28881,0.28571,0.0959
-19.6,-0.9496,0.2868,0.28369,0.0946
-19.5,-0.9459,0.2848,0.28169,0.0934
-19.4,-0.9421,0.28281,0.2797,0.0921
-19.3,-0.9383,0.28084,0.27772,0.0908
-19.2,-0.9345,0.27887,0.27575,0.0895
-19.1,-0.9307,0.27691,0.27379,0.0883
-19,-0.9269,0.27496,0.27184,0.087
-18.9,-0.923,0.27302,0.2699,0.0857
-18.8,-0.9192,0.27109,0.26796,0.0845
-18.7,-0.9153,0.26915,0.26602,0.0832
-18.6,-0.9115,0.26723,0.26409,0.082
-18.5,-0.9076,0.2653,0.26217,0.0807
-18.4,-0.9037,0.26339,0.26025,0.0795
-18.3,-0.8998,0.26147,0.25833,0.0783
-18.2,-0.8959,0.25956,0.25642,0.0771
-18.1,-0.892,0.25766,0.2545,0.0758
-18,-0.8881,0.25576,0.2526,0.0746
-17.9,-0.8842,0.25387,0.2507,0.0734
-17.8,-0.8802,0.25198,0.24881,0.0722
-17.7,-0.8763,0.25009,0.24692,0.071
-17.6,-0.8723,0.24821,0.24504,0.0698
-17.5,-0.8684,0.24634,0.24316,0.0687
-17.4,-0.8644,0.24446,0.24129,0.0675
-17.3,-0.8604,0.2426,0.23942,0.0663
-17.2,-0.8565,0.24074,0.23756,0.0651
-17.1,-0.8525,0.23889,0.23571,0.0639
-17,-0.8485,0.23704,0.23386,0.0628
-16.9,-0.8444,0.2352,0.23202,0.0616
-16.8,-0.8404,0.23336,0.23018,0.0604
-16.7,-0.8363,0.23153,0.22835,0.0592
-16.6,-0.8323,0.2297,0.22652,0.0581
-16.5,-0.8282,0.22788,0.2247,0.0569
-16.4,-0.8241,0.22606,0.22287,0.0557
-16.3,-0.82,0.22425,0.22106,0.0545
-16.2,-0.8158,0.22243,0.21924,0.0533
-16.1,-0.8116,0.2206,0.21741,0.0521
-16,-0.8074,0.21878,0.21559,0.0509
-15.9,-0.8032,0.21695,0.21375,0.0497
-15.8,-0.799,0.2151,0.21191,0.0486
-15.7,-0.7947,0.21325,0.21005,0.0474
-15.6,-0.7876,0.21074,0.20755,0.0453
-15.5,-0.7828,0.20863,0.20544,0.044
-15.4,-0.7776,0.20651,0.20332,0.0427
-15.1,-0.7579,0.20051,0.19737,0.0374
-15,-0.7544,0.19863,0.19548,0.0366
-14.9,-0.7509,0.19675,0.1936,0.0357
-14.8,-0.7475,0.19488,0.19173,0.0349
-14.7,-0.744,0.19303,0.18988,0.034
-14.6,-0.7404,0.1912,0.18803,0.0331
-14.5,-0.7369,0.18938,0.18621,0.0323
-14.4,-0.7334,0.18757,0.1844,0.0314
-14.3,-0.7299,0.18578,0.18261,0.0306
-14.2,-0.7263,0.18401,0.18083,0.0297
-14.1,-0.7227,0.18224,0.17907,0.0288
-14,-0.7191,0.1805,0.17732,0.028
-13.9,-0.7155,0.17876,0.17559,0.0271
-13.8,-0.7119,0.17705,0.17387,0.0262
-13.7,-0.7082,0.17535,0.17217,0.0254
-13.6,-0.7045,0.17367,0.17049,0.0245
-13.5,-0.7008,0.17201,0.16883,0.0236
-13.4,-0.6971,0.17037,0.16719,0.0228
-13.3,-0.6933,0.16874,0.16557,0.0219
-13.2,-0.6895,0.16713,0.16396,0.021
-13.1,-0.6857,0.16554,0.16237,0.0201
-13,-0.6819,0.16396,0.16079,0.0193
-12.9,-0.678,0.1624,0.15923,0.0184
-12.8,-0.6741,0.16085,0.15768,0.0175
-12.7,-0.6701,0.15932,0.15615,0.0166
-12.6,-0.6661,0.1578,0.15463,0.0157
-12.5,-0.6621,0.15628,0.15312,0.0149
-12.4,-0.6581,0.15479,0.15162,0.014
-12.3,-0.654,0.15329,0.15013,0.0131
-12.2,-0.65,0.15181,0.14865,0.0122
-12.1,-0.6459,0.15034,0.14719,0.0113
-12,-0.6417,0.14888,0.14573,0.0104
-11.9,-0.6376,0.14742,0.14427,0.0095
-11.8,-0.6334,0.14597,0.14282,0.0086
-11.7,-0.6292,0.14453,0.14138,0.0078
-11.6,-0.625,0.14308,0.13994,0.0069
-11.5,-0.6208,0.14165,0.13848,0.006
-11.4,-0.6166,0.14021,0.13705,0.0051
-11.3,-0.6123,0.13878,0.13563,0.0043
-11.2,-0.6081,0.13736,0.13421,0.0034
-11.1,-0.6038,0.13595,0.1328,0.0025
-11,-0.5996,0.13453,0.13139,0.0017
-10.9,-0.5954,0.13313,0.12998,0.0008
-10.8,-0.5911,0.13172,0.12858,0
-10.7,-0.5869,0.13032,0.12719,-0.0008
-10.6,-0.5827,0.12893,0.12579,-0.0017
-10.5,-0.5785,0.12754,0.12441,-0.0025
-10.4,-0.5743,0.12615,0.12303,-0.0033
-10.3,-0.5702,0.12476,0.12165,-0.0041
-10.2,-0.5661,0.12339,0.12028,-0.0048
-10.1,-0.5621,0.12201,0.1189,-0.0056
-10,-0.5581,0.12065,0.11755,-0.0063
-9.9,-0.5542,0.11928,0.11619,-0.0071
-9.8,-0.5504,0.11794,0.11486,-0.0077
-9.7,-0.5467,0.1166,0.11352,-0.0084
-9.6,-0.5432,0.11527,0.1122,-0.009
-9.5,-0.5398,0.11395,0.11089,-0.0096
-9.4,-0.5368,0.11266,0.10961,-0.01
-9.3,-0.534,0.11139,0.10835,-0.0104
-9.2,-0.5286,0.10904,0.10601,-0.0121
-9.1,-0.5266,0.10787,0.10486,-0.0125
-9,-0.5252,0.10685,0.10386,-0.0127
-8.8,-0.5271,0.10535,0.10246,-0.0123
-8.7,-0.5294,0.10461,0.10174,-0.0113
-8.6,-0.5323,0.10394,0.1011,-0.0103
-8.5,-0.5352,0.10329,0.10047,-0.0092
-8.4,-0.5326,0.10202,0.09921,-0.0096
-8.3,-0.5243,0.10017,0.09735,-0.0115
-8.2,-0.5159,0.09836,0.09554,-0.0134
-8.1,-0.5075,0.09661,0.09378,-0.0154
-8,-0.4988,0.09487,0.09203,-0.0174
-7.9,-0.4897,0.09315,0.0903,-0.0195
-7.8,-0.4806,0.09148,0.08862,-0.0216
-7.7,-0.4709,0.0898,0.0869,-0.0238
-7.6,-0.4615,0.08818,0.08528,-0.0259
-7.5,-0.4517,0.08658,0.08367,-0.0282
-7.4,-0.4414,0.08498,0.08206,-0.0305
-7.3,-0.4305,0.08337,0.08044,-0.0329
-7.2,-0.4192,0.08177,0.07883,-0.0354
-7.1,-0.4093,0.0803,0.07735,-0.0375
-7,-0.3992,0.07884,0.07587,-0.0396
-6.9,-0.3874,0.07728,0.0743,-0.0422
-6.8,-0.3757,0.07575,0.07276,-0.0446
-6.7,-0.3634,0.0742,0.0712,-0.0472
-6.6,-0.3505,0.07262,0.0696,-0.05
-6.5,-0.3371,0.07102,0.06798,-0.0528
-6.4,-0.3232,0.06939,0.06633,-0.0557
-6.3,-0.3125,0.06798,0.0649,-0.0577
-6.2,-0.3007,0.06649,0.0634,-0.06
-6.1,-0.2875,0.0649,0.06179,-0.0626
-6,-0.2727,0.06319,0.06006,-0.0656
-5.9,-0.2577,0.06147,0.05831,-0.0686
-5.8,-0.2421,0.05967,0.05648,-0.0718
-5.7,-0.2257,0.05778,0.05453,-0.0751
-5.6,-0.2084,0.05575,0.05247,-0.0787
-5.5,-0.1902,0.05353,0.0502,-0.0825
-5.4,-0.173,0.05119,0.04781,-0.0861
-5.3,-0.1561,0.04841,0.04497,-0.0898
-4.3,0.0533,0.01974,0.01461,-0.1302
-4.2,0.0707,0.0177,0.01212,-0.1323
-4.1,0.0861,0.01663,0.01073,-0.1334
-4,0.0998,0.01584,0.00978,-0.134
-3.9,0.1109,0.01535,0.00923,-0.1341
-3.8,0.1233,0.01498,0.00879,-0.1343
-3.7,0.1361,0.01464,0.00838,-0.1346
-3.6,0.1494,0.01429,0.00794,-0.135
-3.4,0.1772,0.01353,0.00696,-0.1359
-3.3,0.1909,0.01317,0.00649,-0.1364
-3.2,0.2051,0.01286,0.00605,-0.1368
-3.1,0.2189,0.01254,0.00572,-0.1373
-3,0.2296,0.01238,0.00553,-0.1371
-2.9,0.2413,0.01222,0.00534,-0.1371
-2.8,0.2536,0.01205,0.00512,-0.1372
-2.7,0.2661,0.01198,0.00502,-0.1373
-2.6,0.2791,0.0118,0.00483,-0.1376
-2.5,0.2922,0.01166,0.00466,-0.1378
-2.4,0.3058,0.01149,0.00443,-0.1382
-2.3,0.3189,0.0114,0.00432,-0.1385
-2.2,0.3295,0.01129,0.00421,-0.1382
-2.1,0.3411,0.0112,0.0041,-0.1381
-2,0.3533,0.0111,0.00396,-0.1382
-1.9,0.3659,0.01099,0.00381,-0.1383
-1.7,0.3916,0.01082,0.00366,-0.1388
-1.6,0.4047,0.01073,0.00352,-0.139
-1.5,0.4153,0.01066,0.00348,-0.1388
-1.4,0.4266,0.0106,0.00343,-0.1386
-1.3,0.4387,0.01054,0.00336,-0.1387
-1.2,0.451,0.01049,0.0033,-0.1388
-1.1,0.4637,0.01042,0.00324,-0.1389
-1,0.4764,0.01036,0.00316,-0.1391
-0.9,0.4872,0.01032,0.00311,-0.1389
-0.8,0.4987,0.01028,0.0031,-0.1388
-0.7,0.5105,0.01025,0.00307,-0.1388
-0.6,0.5228,0.0102,0.00303,-0.1389
-0.5,0.5353,0.01015,0.00299,-0.139
-0.4,0.5459,0.01009,0.00292,-0.1386
-0.3,0.5579,0.01004,0.00286,-0.1386
-0.2,0.5704,0.00998,0.00282,-0.1387
0,0.593,0.0099,0.00275,-0.1383
0.1,0.6052,0.00986,0.00271,-0.1384
0.2,0.6162,0.00985,0.0027,-0.1382
0.3,0.6278,0.0098,0.00266,-0.1381
0.4,0.6399,0.00978,0.00265,-0.1381
0.5,0.651,0.00975,0.00265,-0.1379
0.6,0.6628,0.0097,0.00259,-0.1378
0.7,0.6742,0.0097,0.00259,-0.1377
0.8,0.6857,0.00967,0.00258,-0.1376
0.9,0.6972,0.00964,0.00255,-0.1374
1,0.7087,0.00962,0.00256,-0.1373
1.1,0.7204,0.0096,0.00254,-0.1372
1.2,0.7317,0.00958,0.00254,-0.1371
1.3,0.7431,0.00957,0.00252,-0.1369
1.4,0.7545,0.00955,0.00253,-0.1367
1.5,0.7659,0.00954,0.00254,-0.1366
1.6,0.7773,0.00951,0.00254,-0.1365
1.7,0.7882,0.0095,0.00253,-0.1362
1.8,0.7994,0.00946,0.00254,-0.1361
2,0.8135,0.00831,0.00255,-0.1338
2.1,0.8237,0.00843,0.00254,-0.1333
2.2,0.8344,0.00852,0.00256,-0.133
2.3,0.8449,0.00863,0.00259,-0.1326
2.4,0.8551,0.00877,0.00263,-0.1322
2.5,0.865,0.00893,0.00268,-0.1318
2.6,0.873,0.00924,0.00276,-0.1309
2.7,0.8825,0.00945,0.00285,-0.1304
2.8,0.8916,0.00969,0.00295,-0.1299
2.9,0.9006,0.00995,0.00311,-0.1293
3,0.9093,0.01024,0.00324,-0.1288
3.1,0.9152,0.0108,0.00346,-0.1278
3.2,0.9235,0.01116,0.00364,-0.1272
3.3,0.932,0.01151,0.00381,-0.1267
3.4,0.9408,0.01184,0.00399,-0.1263
3.5,0.9502,0.01212,0.00417,-0.1259
3.6,0.959,0.01246,0.00435,-0.1254
3.7,0.9691,0.01266,0.00451,-0.1252
3.8,0.9792,0.01285,0.00466,-0.1249
3.9,0.9894,0.01303,0.0048,-0.1246
4,0.9997,0.0132,0.00495,-0.1243
4.1,1.0094,0.01344,0.00511,-0.124
4.2,1.0196,0.01361,0.00525,-0.1237
4.3,1.0299,0.01377,0.0054,-0.1235
4.4,1.0401,0.01395,0.00554,-0.1232
4.5,1.0505,0.0141,0.00575,-0.1229
4.6,1.0602,0.01432,0.0059,-0.1226
4.7,1.0704,0.0145,0.00605,-0.1223
4.8,1.0806,0.01466,0.00622,-0.122
4.9,1.0908,0.01484,0.00637,-0.1217
5,1.1009,0.01502,0.00655,-0.1214
5.1,1.1106,0.01525,0.00672,-0.1211
5.2,1.1207,0.01542,0.00689,-0.1207
5.3,1.1306,0.01563,0.00708,-0.1204
5.4,1.1407,0.01581,0.00726,-0.1201
5.5,1.1506,0.01601,0.00745,-0.1197
5.6,1.1604,0.01622,0.00766,-0.1193
5.7,1.1699,0.01647,0.00784,-0.119
5.8,1.1798,0.01667,0.00806,-0.1186
5.9,1.1897,0.01687,0.00832,-0.1182
6,1.1992,0.01711,0.00855,-0.1178
6.1,1.2089,0.01734,0.0088,-0.1174
6.2,1.2187,0.01756,0.00905,-0.117
6.4,1.2374,0.01808,0.00955,-0.1161
6.5,1.247,0.01831,0.00983,-0.1156
6.6,1.2565,0.01856,0.01011,-0.1152
6.7,1.2657,0.01884,0.01041,-0.1147
6.8,1.2745,0.01917,0.01074,-0.1141
6.9,1.2837,0.01946,0.01107,-0.1136
7,1.2929,0.01974,0.01142,-0.113
7.1,1.3022,0.01998,0.01167,-0.1126
7.2,1.311,0.02031,0.01203,-0.112
7.3,1.3191,0.02071,0.01248,-0.1114
7.4,1.3279,0.02105,0.01287,-0.1108
7.6,1.346,0.02159,0.0135,-0.1097
7.7,1.3543,0.02196,0.01391,-0.1091
7.8,1.3619,0.02241,0.01438,-0.1084
7.9,1.37,0.02281,0.01484,-0.1076
8,1.378,0.02322,0.01534,-0.1069
8.1,1.3858,0.02365,0.01585,-0.1061
8.2,1.3933,0.02409,0.01636,-0.1053
8.3,1.4027,0.02425,0.01648,-0.1051
8.4,1.4096,0.02475,0.01703,-0.1042
8.5,1.4168,0.02523,0.01762,-0.1033
8.6,1.4236,0.02575,0.01823,-0.1024
8.7,1.4302,0.02628,0.01886,-0.1015
8.8,1.4366,0.02682,0.01949,-0.1006
8.9,1.4428,0.02736,0.02014,-0.0996
9,1.4488,0.02791,0.02077,-0.0987
9.1,1.4545,0.02848,0.02141,-0.0977
9.2,1.4597,0.02907,0.02207,-0.0967
9.3,1.4639,0.02973,0.0228,-0.0955
9.4,1.4666,0.0305,0.02364,-0.0942
9.5,1.4704,0.03121,0.02445,-0.0929
9.6,1.473,0.03195,0.02533,-0.0914
9.7,1.475,0.03273,0.02624,-0.0899
9.8,1.4767,0.03356,0.02719,-0.0884
9.9,1.4779,0.03441,0.02817,-0.0869
10,1.4787,0.03529,0.02917,-0.0854
10.1,1.4792,0.03619,0.0302,-0.0839
10.2,1.4794,0.03711,0.03124,-0.0824
10.3,1.4791,0.03806,0.0323,-0.0809
10.4,1.4785,0.03903,0.03339,-0.0795
10.5,1.4775,0.04003,0.03451,-0.0781
10.6,1.4762,0.04105,0.03564,-0.0768
10.7,1.4744,0.04211,0.03681,-0.0755
10.8,1.4723,0.04319,0.038,-0.0742
10.9,1.4699,0.04431,0.03923,-0.0731
11,1.4672,0.04547,0.04049,-0.072
11.1,1.464,0.04667,0.0418,-0.071
11.2,1.4605,0.04794,0.04317,-0.0701
11.3,1.4566,0.04926,0.0446,-0.0693
11.4,1.4525,0.05063,0.04606,-0.0686
11.5,1.448,0.05207,0.0476,-0.0681
11.6,1.4433,0.05358,0.0492,-0.0678
11.7,1.4382,0.05518,0.0509,-0.0676
11.8,1.433,0.05685,0.05267,-0.0676
11.9,1.4275,0.05863,0.05454,-0.0678
12,1.4217,0.06051,0.05652,-0.0683
12.2,1.4098,0.06459,0.0608,-0.0701
12.3,1.4036,0.06687,0.06317,-0.0714
12.5,1.3912,0.07192,0.06842,-0.0754
12.7,1.3788,0.07794,0.07465,-0.0813
12.8,1.3729,0.08146,0.07829,-0.0852
12.9,1.3667,0.08549,0.08243,-0.0899
13.5,1.3055,0.1322,0.12986,-0.1351
13.6,1.2969,0.13917,0.13684,-0.1401
13.7,1.2924,0.14429,0.14195,-0.1437
13.8,1.29,0.14849,0.14614,-0.1467
13.9,1.2891,0.15202,0.14968,-0.1492
14,1.2892,0.15505,0.1527,-0.1514
14.1,1.2899,0.15789,0.15554,-0.1535
14.2,1.291,0.16047,0.15811,-0.1555
14.3,1.2925,0.16283,0.16047,-0.1573
14.4,1.2944,0.16497,0.16261,-0.159
14.5,1.2963,0.16712,0.16476,-0.1607
14.6,1.2985,0.16901,0.16665,-0.1623
14.7,1.3007,0.17087,0.16851,-0.1638
14.8,1.3029,0.17271,0.17035,-0.1653
14.9,1.3053,0.17422,0.17186,-0.1667
15,1.3076,0.17577,0.17341,-0.1681
15.1,1.3097,0.17729,0.17493,-0.1695
15.3,1.3076,0.1902,0.18779,-0.176
15.4,1.3095,0.19384,0.19141,-0.1781
15.5,1.3119,0.19683,0.1944,-0.1799
15.6,1.3146,0.19941,0.19699,-0.1815
15.7,1.3174,0.20194,0.19951,-0.1832
15.8,1.3203,0.20427,0.20184,-0.1848
16,1.327,0.20866,0.20623,-0.1882
16.1,1.33,0.21059,0.20817,-0.1896
16.2,1.3332,0.21247,0.21005,-0.1911
16.3,1.3363,0.21431,0.21189,-0.1925
16.4,1.3394,0.21614,0.21372,-0.1939
16.5,1.3426,0.2179,0.21549,-0.1953
16.6,1.3458,0.21962,0.21721,-0.1967
16.7,1.3489,0.22133,0.21892,-0.1981
16.8,1.3521,0.22304,0.22063,-0.1995
16.9,1.3553,0.22468,0.22229,-0.2008
17,1.3584,0.22629,0.2239,-0.2022
17.1,1.3615,0.22791,0.22552,-0.2036
17.2,1.3646,0.22948,0.2271,-0.2049
17.3,1.3677,0.23106,0.22868,-0.2063
17.4,1.3707,0.23258,0.2302,-0.2076
17.5,1.3737,0.23415,0.23178,-0.2089
17.6,1.3767,0.23573,0.23336,-0.2102
17.7,1.3795,0.2372,0.23484,-0.2115
17.8,1.3833,0.24061,0.23821,-0.2134
18,1.3925,0.24897,0.24656,-0.2175
18.1,1.3963,0.25172,0.24932,-0.2192
18.2,1.4002,0.25437,0.25197,-0.2208
18.3,1.404,0.25681,0.25441,-0.2224
18.4,1.4077,0.25911,0.25671,-0.2239
18.5,1.4114,0.26142,0.25902,-0.2254
18.6,1.4151,0.26367,0.26128,-0.227
18.7,1.4187,0.26581,0.26341,-0.2285
18.8,1.4224,0.26789,0.2655,-0.23
18.9,1.426,0.26997,0.26759,-0.2315
19,1.4296,0.27204,0.26965,-0.233
19.1,1.4332,0.27406,0.27168,-0.2344
19.2,1.4367,0.27607,0.2737,-0.2359
19.3,1.4403,0.27806,0.27571,-0.2374
19.4,1.4438,0.28003,0.27769,-0.2389
19.5,1.4474,0.28199,0.27965,-0.2404
19.6,1.4509,0.28394,0.28161,-0.2419
19.7,1.4544,0.28587,0.28354,-0.2434
19.8,1.4579,0.28781,0.28548,-0.2449
19.9,1.4614,0.28971,0.28739,-0.2463
20,1.4649,0.29165,0.28933,-0.2478
20.1,1.4684,0.29353,0.29122,-0.2493
20.2,1.4719,0.29548,0.29317,-0.2508
20.3,1.4753,0.29736,0.29506,-0.2523
20.4,1.4788,0.29923,0.29693,-0.2539
20.5,1.4822,0.30113,0.29884,-0.2554
20.6,1.4856,0.303,0.30071,-0.2569
20.7,1.489,0.30489,0.3026,-0.2584
20.8,1.4924,0.30676,0.30448,-0.2599
20.9,1.4958,0.30866,0.30639,-0.2614
21,1.4992,0.31056,0.30829,-0.2629
21.1,1.5026,0.31244,0.31018,-0.2645
21.2,1.5059,0.31431,0.31206,-0.266
21.3,1.5092,0.31621,0.31396,-0.2675
21.4,1.5126,0.31808,0.31583,-0.2691
21.5,1.5159,0.31997,0.31773,-0.2706
21.6,1.5192,0.32191,0.31968,-0.2722
21.7,1.5225,0.32383,0.3216,-0.2737
21.8,1.5257,0.3257,0.32348,-0.2752
21.9,1.5291,0.32765,0.32543,-0.2768
22,1.5323,0.32955,0.32734,-0.2783
22.1,1.5355,0.3315,0.32929,-0.2799
22.2,1.5387,0.33342,0.33122,-0.2815
22.3,1.542,0.33538,0.33319,-0.283
22.4,1.5451,0.3373,0.33512,-0.2846
22.5,1.5484,0.33932,0.33714,-0.2862
22.6,1.5515,0.34128,0.33913,-0.2877
22.7,1.5547,0.3433,0.34115,-0.2893
22.8,1.5579,0.3453,0.34316,-0.2909
22.9,1.5609,0.3473,0.34516,-0.2925
23,1.5641,0.34935,0.34723,-0.294
23.1,1.5672,0.35139,0.34927,-0.2956
23.2,1.5703,0.35345,0.35134,-0.2972
23.3,1.5733,0.35553,0.35342,-0.2988
23.4,1.5764,0.35765,0.35555,-0.3004
23.5,1.5795,0.35977,0.35768,-0.302
23.6,1.5825,0.3619,0.35981,-0.3036
23.7,1.5855,0.36404,0.36196,-0.3052
23.8,1.5885,0.36621,0.36414,-0.3067
23.9,1.5915,0.36842,0.36635,-0.3083
24,1.5945,0.37061,0.36856,-0.3099
24.1,1.5975,0.37283,0.37078,-0.3115
24.2,1.6092,0.38062,0.37851,-0.316
24.3,1.6129,0.38321,0.38111,-0.3178
24.4,1.6165,0.38574,0.38364,-0.3196
24.5,1.6201,0.38824,0.38614,-0.3215
24.6,1.6235,0.39066,0.38857,-0.3233
24.7,1.6269,0.393,0.39091,-0.3251
24.8,1.6302,0.39537,0.3933,-0.3269
24.9,1.6336,0.3977,0.39562,-0.3287
25,1.6369,0.40004,0.39797,-0.3305
25.1,1.6402,0.40236,0.4003,-0.3324
25.2,1.6435,0.40462,0.40257,-0.3342
25.3,1.6467,0.40688,0.40483,-0.336
25.4,1.6499,0.40915,0.4071,-0.3379
25.5,1.6531,0.41139,0.40936,-0.3397
25.6,1.6562,0.41363,0.4116,-0.3415
25.7,1.6593,0.41585,0.41383,-0.3434
25.8,1.6624,0.41809,0.41607,-0.3452
25.9,1.6655,0.42029,0.41827,-0.347
26,1.6686,0.42249,0.42049,-0.3489
26.1,1.6716,0.42471,0.42271,-0.3507
26.2,1.6746,0.4269,0.42493,-0.3526
26.3,1.6776,0.42909,0.42713,-0.3545
26.4,1.6805,0.43129,0.42933,-0.3563
26.5,1.6835,0.4335,0.43155,-0.3582
26.6,1.6865,0.43567,0.43372,-0.3601
26.7,1.6893,0.43787,0.43593,-0.3619
26.8,1.6922,0.44004,0.43811,-0.3638
26.9,1.6951,0.44223,0.4403,-0.3657
27,1.6979,0.4444,0.44248,-0.3676
27.1,1.7008,0.4466,0.44469,-0.3695
27.2,1.7036,0.44878,0.44688,-0.3714
27.3,1.7064,0.45097,0.44908,-0.3733
27.4,1.7091,0.45313,0.45124,-0.3752
27.5,1.7119,0.45537,0.45348,-0.3771
27.6,1.7146,0.45755,0.45567,-0.379
27.7,1.7173,0.45974,0.45787,-0.381
27.8,1.72,0.46196,0.4601,-0.3829
27.9,1.7227,0.46411,0.46225,-0.3848
28,1.7254,0.46636,0.46451,-0.3868
28.1,1.728,0.46853,0.46669,-0.3887
28.2,1.7306,0.47078,0.46895,-0.3906
28.3,1.7332,0.47298,0.47116,-0.3926
28.4,1.7358,0.47523,0.47342,-0.3945
28.5,1.7383,0.4775,0.47569,-0.3965
28.6,1.7408,0.47973,0.47793,-0.3984
28.7,1.7433,0.48199,0.48019,-0.4004
28.8,1.7458,0.48426,0.48247,-0.4024
28.9,1.7483,0.48655,0.48477,-0.4043
29,1.7508,0.48888,0.48711,-0.4063
29.1,1.7532,0.49117,0.48941,-0.4083
29.2,1.7556,0.49349,0.49175,-0.4102
29.3,1.758,0.49583,0.4941,-0.4122
29.4,1.7604,0.49816,0.49644,-0.4142
29.5,1.7628,0.50055,0.49884,-0.4162
29.6,1.7651,0.50292,0.50121,-0.4182
29.7,1.7674,0.50535,0.50365,-0.4202
29.8,1.7698,0.50776,0.50607,-0.4222
29.9,1.772,0.51018,0.5085,-0.4242
30,1.7743,0.51264,0.51097,-0.4262

