airfoilName st21.dat
Re 	430000
M 	2.500000e-01
N 	4.500000e+00
VACC 	0 VACCflag 1
XTR 	1.00 	1.00 XTRflag 0
alpha,cl,cd,cdp,cm
-30,-1.3167,0.51948,0.51756,0.2723
-29.9,-1.314,0.51675,0.51483,0.2704
-29.8,-1.3113,0.51392,0.51199,0.2685
-29.7,-1.3086,0.5111,0.50917,0.2666
-29.6,-1.3059,0.50831,0.50637,0.2647
-29.5,-1.3031,0.50557,0.50362,0.2628
-29.4,-1.3003,0.50289,0.50093,0.2609
-29.3,-1.2975,0.50006,0.49809,0.2591
-29.2,-1.2947,0.49743,0.49547,0.2572
-29.1,-1.2919,0.49475,0.49278,0.2553
-29,-1.289,0.49212,0.49014,0.2534
-28.9,-1.2861,0.48953,0.48755,0.2515
-28.8,-1.2832,0.48696,0.48498,0.2496
-28.7,-1.2803,0.48435,0.48236,0.2477
-28.6,-1.2773,0.48181,0.47982,0.2459
-28.5,-1.2743,0.47928,0.47728,0.244
-28.4,-1.2714,0.47677,0.47477,0.2421
-28.3,-1.2684,0.4743,0.47229,0.2403
-28.2,-1.2653,0.47183,0.46982,0.2384
-28.1,-1.2623,0.46936,0.46735,0.2365
-28,-1.2593,0.4669,0.46488,0.2347
-27.9,-1.2562,0.46446,0.46244,0.2328
-27.8,-1.2531,0.46205,0.46003,0.231
-27.7,-1.25,0.45964,0.45761,0.2292
-27.6,-1.2469,0.45723,0.45519,0.2273
-27.5,-1.2438,0.45483,0.45279,0.2255
-27.4,-1.2406,0.45244,0.4504,0.2237
-27.3,-1.2375,0.45006,0.44801,0.2218
-27.2,-1.2343,0.44768,0.44563,0.22
-27.1,-1.2311,0.44532,0.44326,0.2182
-27,-1.2279,0.44294,0.44087,0.2164
-26.9,-1.2247,0.4406,0.43853,0.2146
-26.8,-1.2214,0.43827,0.43619,0.2128
-26.7,-1.2182,0.43593,0.43384,0.211
-26.6,-1.2149,0.43359,0.43151,0.2093
-26.5,-1.2117,0.43128,0.42919,0.2075
-26.4,-1.2084,0.42896,0.42687,0.2057
-26.3,-1.2051,0.42667,0.42457,0.204
-26.2,-1.2017,0.42437,0.42227,0.2022
-26.1,-1.1984,0.42209,0.41998,0.2004
-26,-1.1951,0.41981,0.4177,0.1987
-25.9,-1.1917,0.41754,0.41543,0.1969
-25.8,-1.1883,0.41528,0.41317,0.1952
-25.7,-1.1849,0.41304,0.41092,0.1935
-25.6,-1.1815,0.4108,0.40868,0.1917
-25.5,-1.1781,0.40858,0.40645,0.19
-25.4,-1.1746,0.40637,0.40424,0.1883
-25.3,-1.1712,0.40416,0.40203,0.1865
-25.2,-1.1677,0.40196,0.39983,0.1848
-25.1,-1.1642,0.39977,0.39763,0.1831
-25,-1.1607,0.39758,0.39544,0.1814
-24.9,-1.1572,0.39542,0.39327,0.1797
-24.8,-1.1537,0.39327,0.39112,0.178
-24.7,-1.1501,0.3911,0.38894,0.1763
-24.6,-1.1466,0.38896,0.3868,0.1746
-24.5,-1.143,0.38683,0.38467,0.1729
-24.4,-1.1394,0.38469,0.38252,0.1712
-24.3,-1.1358,0.38257,0.38039,0.1695
-24.2,-1.1322,0.38044,0.37826,0.1679
-24.1,-1.1286,0.37832,0.37613,0.1662
-24,-1.1244,0.37713,0.37494,0.1641
-23.9,-1.1208,0.37499,0.3728,0.1625
-23.8,-1.1171,0.37286,0.37066,0.1608
-23.7,-1.1135,0.37074,0.36854,0.1592
-23.6,-1.1098,0.36862,0.36642,0.1576
-23.5,-1.1061,0.36652,0.36432,0.1559
-23.4,-1.1024,0.3644,0.36219,0.1543
-23.3,-1.0987,0.36228,0.36007,0.1527
-23.2,-1.095,0.3602,0.35799,0.151
-23.1,-1.0913,0.35808,0.35587,0.1494
-23,-1.0875,0.356,0.35379,0.1478
-22.9,-1.0837,0.35391,0.35169,0.1462
-22.8,-1.08,0.35182,0.3496,0.1446
-22.7,-1.0762,0.34973,0.3475,0.1431
-22.6,-1.0724,0.34766,0.34544,0.1415
-22.5,-1.0686,0.34556,0.34333,0.1399
-22.4,-1.0648,0.34348,0.34125,0.1383
-22.3,-1.0609,0.34142,0.33919,0.1367
-22.2,-1.0571,0.33934,0.3371,0.1352
-22.1,-1.0533,0.33725,0.33502,0.1336
-22,-1.0494,0.33521,0.33297,0.132
-21.9,-1.0455,0.33313,0.33089,0.1305
-21.8,-1.0416,0.33107,0.32882,0.129
-21.7,-1.0377,0.32901,0.32677,0.1274
-21.6,-1.0338,0.32696,0.32471,0.1259
-21.5,-1.0298,0.3249,0.32265,0.1243
-21.4,-1.0259,0.32286,0.3206,0.1228
-21.3,-1.0219,0.32082,0.31855,0.1213
-21.2,-1.0179,0.31876,0.31649,0.1198
-21.1,-1.014,0.31669,0.31442,0.1183
-21,-1.01,0.31464,0.31237,0.1168
-20.9,-1.0061,0.31256,0.31028,0.1153
-20.8,-1.002,0.31052,0.30824,0.1138
-20.7,-0.998,0.30844,0.30616,0.1123
-20.6,-0.9939,0.30637,0.30408,0.1108
-20.5,-0.9899,0.30428,0.30199,0.1093
-20.4,-0.9857,0.30219,0.29991,0.1078
-20.3,-0.9817,0.30011,0.29782,0.1064
-20.2,-0.9776,0.29801,0.29572,0.1049
-20.1,-0.9733,0.29592,0.29363,0.1034
-20,-0.969,0.29384,0.29155,0.1019
-19.9,-0.9646,0.29178,0.28949,0.1004
-19.8,-0.96,0.28981,0.28751,0.0988
-19.7,-0.9554,0.28783,0.28553,0.0973
-19.3,-0.9341,0.28072,0.27845,0.0901
-19.2,-0.9307,0.2785,0.27623,0.089
-19.1,-0.9271,0.27632,0.27405,0.0878
-19,-0.9237,0.27409,0.27182,0.0867
-18.9,-0.9203,0.27187,0.26959,0.0856
-18.8,-0.9169,0.26964,0.26736,0.0845
-18.7,-0.9134,0.26745,0.26517,0.0834
-18.6,-0.91,0.2652,0.26292,0.0823
-18.5,-0.9066,0.26297,0.26068,0.0812
-18.4,-0.9032,0.26076,0.25847,0.0801
-18.3,-0.8998,0.25853,0.25624,0.0791
-18.2,-0.8964,0.25637,0.25408,0.078
-18.1,-0.893,0.2542,0.25191,0.0769
-18,-0.8895,0.25211,0.2498,0.0758
-17.9,-0.886,0.25005,0.24774,0.0747
-17.8,-0.8824,0.24803,0.24572,0.0736
-17.7,-0.8789,0.24605,0.24374,0.0725
-17.6,-0.8752,0.24412,0.2418,0.0714
-17.5,-0.8715,0.24221,0.23989,0.0703
-17.4,-0.8678,0.24033,0.23801,0.0692
-17.3,-0.8641,0.23849,0.23617,0.068
-17.2,-0.8603,0.23666,0.23433,0.0669
-17.1,-0.8565,0.23485,0.23253,0.0658
-17,-0.8526,0.23305,0.23073,0.0646
-16.9,-0.8488,0.23127,0.22894,0.0635
-16.8,-0.8449,0.22951,0.22718,0.0624
-16.7,-0.841,0.22775,0.22542,0.0612
-16.6,-0.837,0.22599,0.22366,0.0601
-16.5,-0.8331,0.22425,0.22191,0.059
-16.4,-0.8292,0.22251,0.22018,0.0578
-16.3,-0.8252,0.22077,0.21844,0.0567
-16.2,-0.8212,0.21905,0.21672,0.0556
-16.1,-0.8172,0.21732,0.21499,0.0544
-16,-0.8132,0.2156,0.21326,0.0533
-15.9,-0.8091,0.21387,0.21153,0.0522
-15.8,-0.8051,0.21214,0.2098,0.0511
-15.7,-0.801,0.21042,0.20808,0.05
-15.6,-0.7969,0.20871,0.20636,0.0489
-15.5,-0.7929,0.20699,0.20464,0.0478
-15.4,-0.7888,0.20527,0.20292,0.0467
-15.3,-0.7847,0.20356,0.20121,0.0456
-15.2,-0.7806,0.20185,0.1995,0.0445
-15.1,-0.7765,0.20014,0.19779,0.0434
-15,-0.7724,0.19843,0.19609,0.0423
-14.9,-0.7683,0.19673,0.19437,0.0412
-14.8,-0.7641,0.19504,0.19267,0.0401
-14.7,-0.76,0.19334,0.19097,0.0391
-14.6,-0.7558,0.19165,0.18928,0.038
-14.5,-0.7517,0.18996,0.1876,0.037
-14.4,-0.7475,0.18828,0.18591,0.0359
-14.3,-0.7433,0.18659,0.18423,0.0348
-14.2,-0.738,0.18512,0.18275,0.0332
-14.1,-0.7338,0.18338,0.18102,0.0321
-14,-0.7296,0.18165,0.17929,0.0311
-13.9,-0.7254,0.17992,0.17756,0.03
-13.8,-0.7211,0.17818,0.17582,0.029
-13.7,-0.7169,0.17644,0.17408,0.028
-13.6,-0.7126,0.17469,0.17233,0.0269
-13.5,-0.7083,0.17294,0.17058,0.0259
-13.4,-0.7041,0.17119,0.16883,0.0249
-13.3,-0.6998,0.16942,0.16707,0.0239
-13.2,-0.6954,0.16764,0.16528,0.0229
-13.1,-0.6911,0.16585,0.1635,0.0219
-13,-0.6866,0.16403,0.16167,0.0209
-12.9,-0.6821,0.16219,0.15983,0.0199
-12.8,-0.6774,0.16031,0.15796,0.0188
-12.7,-0.6725,0.15841,0.15606,0.0177
-12.6,-0.667,0.15648,0.15413,0.0164
-12.5,-0.6614,0.15468,0.15232,0.0152
-12.3,-0.648,0.15125,0.14894,0.0119
-12.2,-0.6444,0.14956,0.14724,0.0112
-12.1,-0.641,0.14784,0.14553,0.0105
-12,-0.6377,0.14613,0.14382,0.0098
-11.9,-0.6342,0.14445,0.14214,0.009
-11.8,-0.6309,0.14277,0.14046,0.0083
-11.7,-0.6275,0.14113,0.13882,0.0076
-11.6,-0.6239,0.13952,0.13722,0.0068
-11.5,-0.6205,0.13794,0.13564,0.0061
-11.4,-0.6169,0.13642,0.13412,0.0053
-11.3,-0.6131,0.13494,0.13263,0.0046
-11.2,-0.6093,0.13351,0.1312,0.0038
-11.1,-0.6054,0.13211,0.1298,0.003
-11,-0.6014,0.13073,0.12842,0.0022
-10.9,-0.5974,0.12938,0.12707,0.0013
-10.8,-0.5933,0.12805,0.12574,0.0005
-10.7,-0.5892,0.12672,0.12442,-0.0003
-10.6,-0.585,0.12543,0.12313,-0.0011
-10.5,-0.5809,0.12414,0.12184,-0.0019
-10.4,-0.5768,0.12287,0.12058,-0.0027
-10.3,-0.5726,0.1216,0.11932,-0.0035
-10.2,-0.5685,0.12035,0.11807,-0.0043
-10.1,-0.5644,0.11911,0.11683,-0.0051
-10,-0.5604,0.11787,0.11559,-0.0058
-9.9,-0.5565,0.11665,0.11438,-0.0065
-9.8,-0.5527,0.11544,0.11317,-0.0072
-9.7,-0.549,0.11426,0.112,-0.0079
-9.6,-0.5456,0.11309,0.11084,-0.0084
-9.5,-0.5424,0.11196,0.10971,-0.0089
-9.4,-0.5397,0.11087,0.10863,-0.0093
-9.3,-0.5376,0.10985,0.10762,-0.0095
-9.2,-0.536,0.10888,0.10666,-0.0095
-9,-0.5354,0.1072,0.10501,-0.009
-8.9,-0.5371,0.10655,0.10438,-0.0082
-8.8,-0.5405,0.10608,0.10393,-0.0069
-8.6,-0.5242,0.10286,0.1007,-0.0108
-8.5,-0.5159,0.10125,0.09909,-0.0128
-8.4,-0.5071,0.09959,0.09742,-0.0149
-8.3,-0.4973,0.09784,0.09567,-0.0173
-8.2,-0.4865,0.09585,0.09366,-0.0201
-8.1,-0.4771,0.09411,0.09191,-0.0223
-8,-0.4665,0.09226,0.09005,-0.0248
-7.9,-0.4562,0.09043,0.08821,-0.0273
-7.8,-0.4455,0.08858,0.08635,-0.0299
-7.7,-0.4342,0.08666,0.08442,-0.0326
-7.6,-0.4228,0.08471,0.08246,-0.0353
-7.5,-0.413,0.08289,0.08063,-0.0376
-7.4,-0.4018,0.0809,0.07863,-0.0403
-7.3,-0.3896,0.07884,0.07656,-0.0432
-7.2,-0.3751,0.07652,0.07423,-0.0468
-7.1,-0.3599,0.07424,0.07193,-0.0507
-7,-0.3431,0.07176,0.06946,-0.0551
-6.9,-0.3319,0.06993,0.06761,-0.0575
-6.8,-0.3224,0.06825,0.06592,-0.0595
-6.7,-0.313,0.06664,0.0643,-0.0615
-6.6,-0.302,0.06502,0.06266,-0.0638
-6.5,-0.29,0.06344,0.06107,-0.0664
-4.8,0.0215,0.0159,0.01131,-0.1354
-4.7,0.035,0.01497,0.01022,-0.1362
-4.6,0.0483,0.01429,0.00942,-0.1367
-4.5,0.0614,0.01376,0.00877,-0.1372
-4.4,0.0745,0.01331,0.00822,-0.1376
-4.3,0.0876,0.0129,0.00772,-0.138
-4.2,0.1009,0.01251,0.00723,-0.1383
-4.1,0.114,0.01215,0.00678,-0.1387
-4,0.1261,0.01183,0.00638,-0.1388
-3.9,0.138,0.01152,0.00599,-0.1388
-3.8,0.1499,0.01122,0.0056,-0.1388
-3.7,0.1624,0.01095,0.00524,-0.1389
-3.6,0.175,0.01071,0.0049,-0.1391
-3.5,0.1877,0.01051,0.00465,-0.1392
-3.4,0.2006,0.01018,0.00426,-0.1395
-3.3,0.2123,0.01001,0.00406,-0.1394
-3.2,0.224,0.00986,0.00388,-0.1394
-3.1,0.236,0.00972,0.00371,-0.1394
-3,0.2482,0.00959,0.00353,-0.1395
-2.9,0.2605,0.00946,0.00334,-0.1395
-2.8,0.2728,0.00933,0.00318,-0.1395
-2.7,0.2849,0.0092,0.00304,-0.1396
-2.6,0.2965,0.00912,0.00295,-0.1395
-2.5,0.3082,0.00904,0.00284,-0.1395
-2.4,0.3201,0.00896,0.00272,-0.1395
-2.3,0.3321,0.00887,0.00261,-0.1395
-2.2,0.344,0.00882,0.0026,-0.1395
-2.1,0.3559,0.00878,0.00255,-0.1395
-2,0.3675,0.00869,0.00245,-0.1395
-1.9,0.3793,0.00863,0.00239,-0.1394
-1.8,0.391,0.00857,0.00231,-0.1394
-1.7,0.4029,0.00852,0.00224,-0.1394
-1.6,0.4149,0.00846,0.00217,-0.1394
-1.5,0.4265,0.00842,0.00215,-0.1393
-1.4,0.4382,0.00838,0.0021,-0.1393
-1.3,0.4498,0.00834,0.00204,-0.1393
-1.2,0.4617,0.00829,0.00199,-0.1393
-1.1,0.4735,0.00825,0.00195,-0.1393
-1,0.4846,0.00822,0.0019,-0.139
-0.9,0.496,0.00818,0.00185,-0.1388
-0.8,0.5077,0.00815,0.00183,-0.1388
-0.7,0.5192,0.00813,0.0018,-0.1388
-0.6,0.5305,0.00811,0.00174,-0.1386
-0.5,0.5422,0.00808,0.00173,-0.1385
-0.4,0.5537,0.00807,0.00172,-0.1385
-0.3,0.5651,0.00806,0.00168,-0.1383
-0.2,0.5768,0.00804,0.00168,-0.1383
-0.1,0.588,0.00803,0.00165,-0.1381
0,0.5996,0.00803,0.00164,-0.138
0.1,0.6111,0.00802,0.00163,-0.138
0.3,0.6337,0.00803,0.00161,-0.1377
0.4,0.6452,0.00802,0.00161,-0.1376
0.5,0.6568,0.00802,0.00161,-0.1376
0.6,0.6681,0.00804,0.0016,-0.1374
0.7,0.6792,0.00806,0.0016,-0.1372
0.8,0.6906,0.00808,0.00161,-0.1371
0.9,0.7016,0.00811,0.00161,-0.1369
1,0.713,0.00812,0.00163,-0.1368
1.1,0.7237,0.00818,0.00163,-0.1366
1.2,0.7347,0.00823,0.00165,-0.1364
1.3,0.7458,0.00827,0.00167,-0.1362
1.4,0.7566,0.00833,0.00171,-0.136
1.5,0.7661,0.00849,0.00173,-0.1355
1.6,0.7767,0.00858,0.00177,-0.1352
1.7,0.7862,0.00875,0.00182,-0.1347
1.8,0.7966,0.00887,0.00187,-0.1345
1.9,0.8069,0.00899,0.00193,-0.1342
2.1,0.8257,0.00942,0.00212,-0.1333
2.2,0.8357,0.00955,0.00221,-0.1331
2.3,0.8456,0.00969,0.00233,-0.1328
2.4,0.8489,0.00856,0.00246,-0.1313
2.5,0.8565,0.00902,0.00264,-0.1306
2.6,0.8659,0.00931,0.00277,-0.1303
2.7,0.8752,0.00961,0.0029,-0.1299
2.8,0.8848,0.00989,0.00304,-0.1296
2.9,0.8947,0.01012,0.0032,-0.1293
3,0.9042,0.01041,0.00334,-0.129
3.1,0.9148,0.01055,0.00344,-0.1288
3.2,0.9254,0.0107,0.00355,-0.1286
3.3,0.9361,0.01083,0.00364,-0.1284
3.4,0.9468,0.01097,0.00374,-0.1282
3.5,0.957,0.01116,0.00386,-0.128
3.6,0.9678,0.01128,0.00395,-0.1278
3.7,0.9784,0.01141,0.00406,-0.1276
3.8,0.9892,0.01153,0.00415,-0.1274
3.9,0.9998,0.01167,0.00426,-0.1272
4,1.0101,0.01185,0.00437,-0.1269
4.1,1.0208,0.01196,0.00448,-0.1267
4.2,1.0314,0.0121,0.00459,-0.1265
4.3,1.042,0.01223,0.00471,-0.1263
4.4,1.0527,0.01236,0.00485,-0.1261
4.5,1.0628,0.01255,0.00498,-0.1258
4.6,1.0732,0.01271,0.0051,-0.1256
4.7,1.0838,0.01284,0.00523,-0.1253
4.8,1.0943,0.01299,0.00536,-0.1251
4.9,1.1047,0.01314,0.0055,-0.1248
5,1.1146,0.01335,0.00564,-0.1245
5.1,1.1251,0.01349,0.00579,-0.1242
5.2,1.1355,0.01365,0.00593,-0.124
5.3,1.1457,0.01382,0.0061,-0.1237
5.4,1.156,0.01398,0.00625,-0.1234
5.5,1.1663,0.01415,0.0064,-0.1231
5.6,1.1764,0.01433,0.00659,-0.1227
5.7,1.1864,0.01452,0.00675,-0.1224
5.8,1.1965,0.01472,0.00696,-0.1221
5.9,1.2066,0.01489,0.00715,-0.1217
6,1.2168,0.01506,0.00733,-0.1214
6.1,1.2269,0.01524,0.00752,-0.1211
6.2,1.2368,0.01545,0.00773,-0.1207
6.3,1.2467,0.01567,0.00796,-0.1203
6.4,1.2568,0.01584,0.00817,-0.1199
6.5,1.2668,0.01604,0.00839,-0.1195
6.6,1.2765,0.01626,0.00859,-0.1191
6.7,1.2861,0.0165,0.00885,-0.1187
6.8,1.2957,0.01674,0.00911,-0.1182
6.9,1.3056,0.01694,0.00935,-0.1178
7,1.3153,0.01714,0.00956,-0.1174
7.1,1.3248,0.01738,0.00984,-0.1169
7.2,1.3341,0.01766,0.01014,-0.1164
7.3,1.3434,0.01793,0.01044,-0.1159
7.4,1.353,0.01817,0.01072,-0.1154
7.5,1.3626,0.01836,0.0109,-0.115
7.6,1.3717,0.01864,0.0112,-0.1145
7.7,1.3807,0.01895,0.01153,-0.114
7.8,1.3899,0.01921,0.01185,-0.1134
7.9,1.399,0.01949,0.01219,-0.1128
8,1.4079,0.01979,0.01253,-0.1122
8.1,1.4167,0.02009,0.01288,-0.1116
8.2,1.4253,0.02042,0.01325,-0.111
8.3,1.4336,0.02079,0.01366,-0.1103
8.4,1.4415,0.0212,0.01411,-0.1096
8.5,1.4497,0.02157,0.01455,-0.1089
8.6,1.4576,0.02196,0.01503,-0.1081
8.7,1.4653,0.02238,0.01555,-0.1073
8.8,1.4727,0.02281,0.01606,-0.1065
8.9,1.48,0.02326,0.01657,-0.1056
9,1.4871,0.02371,0.0171,-0.1047
9.1,1.494,0.02418,0.01764,-0.1038
9.2,1.5006,0.02467,0.01819,-0.1029
9.3,1.5068,0.02519,0.01879,-0.102
9.4,1.5124,0.02576,0.01943,-0.1009
9.5,1.5169,0.02641,0.02017,-0.0997
9.6,1.52,0.02718,0.021,-0.0983
9.7,1.5247,0.02777,0.02169,-0.0971
9.8,1.5285,0.02841,0.02244,-0.0958
9.9,1.5315,0.02908,0.02323,-0.0944
10,1.5332,0.02976,0.02402,-0.0927
10.1,1.5345,0.03048,0.02484,-0.0911
10.3,1.544,0.03134,0.02587,-0.0889
10.4,1.5448,0.03209,0.02672,-0.0873
10.5,1.5454,0.03288,0.0276,-0.0857
10.6,1.5456,0.03368,0.02851,-0.0841
10.7,1.5454,0.03452,0.02945,-0.0826
10.8,1.5449,0.03538,0.03042,-0.0811
10.9,1.5439,0.03629,0.03145,-0.0796
11,1.5427,0.03723,0.03249,-0.0782
11.1,1.5409,0.03822,0.03359,-0.0768
11.2,1.5387,0.03925,0.03472,-0.0754
11.3,1.5362,0.04032,0.0359,-0.0741
11.4,1.5332,0.04146,0.03714,-0.0729
11.5,1.5298,0.04263,0.03841,-0.0718
11.6,1.5259,0.04389,0.03977,-0.0708
11.7,1.5217,0.0452,0.04118,-0.0699
11.8,1.517,0.04659,0.04268,-0.0691
11.9,1.5122,0.04804,0.04422,-0.0685
12,1.5069,0.04957,0.04585,-0.068
12.1,1.5012,0.0512,0.04758,-0.0677
12.2,1.4953,0.05292,0.0494,-0.0677
12.4,1.4829,0.05669,0.05336,-0.0683
12.5,1.4763,0.05877,0.05554,-0.0691
12.6,1.4696,0.06095,0.05782,-0.0701
12.7,1.4628,0.06333,0.0603,-0.0716
12.9,1.4491,0.0687,0.06586,-0.0759
13,1.4421,0.07182,0.06909,-0.0789
13.1,1.4354,0.0753,0.07268,-0.0826
13.2,1.4289,0.07927,0.07675,-0.0872
13.3,1.4223,0.0841,0.0817,-0.0929
13.8,1.3781,0.1179,0.11603,-0.126
14,1.3582,0.1307,0.12892,-0.1364
14.1,1.3469,0.13784,0.13609,-0.1418
14.3,1.3217,0.15436,0.15267,-0.1534
14.5,1.3116,0.16559,0.16389,-0.1608
14.6,1.3111,0.16921,0.16751,-0.1634
14.7,1.3114,0.1724,0.17069,-0.1656
14.8,1.3123,0.17534,0.17363,-0.1677
14.9,1.3139,0.1779,0.17618,-0.1696
15,1.3158,0.18031,0.1786,-0.1714
15.1,1.3177,0.1827,0.18098,-0.1732
15.2,1.3199,0.18489,0.18318,-0.175
15.3,1.3222,0.18701,0.1853,-0.1767
15.4,1.3247,0.189,0.18728,-0.1783
15.5,1.3273,0.19088,0.18917,-0.1799
15.6,1.3297,0.19289,0.19118,-0.1815
15.7,1.3323,0.19466,0.19294,-0.1831
15.8,1.3348,0.19646,0.19474,-0.1847
15.9,1.3372,0.19824,0.19653,-0.1862
16,1.3395,0.19985,0.19814,-0.1877
16.1,1.341,0.20295,0.20121,-0.1896
16.3,1.344,0.21314,0.21139,-0.1942
16.4,1.3469,0.21616,0.21442,-0.1959
16.5,1.3497,0.21906,0.21731,-0.1975
16.6,1.3528,0.22175,0.22,-0.1992
16.7,1.3559,0.22416,0.22241,-0.2007
16.8,1.3591,0.22647,0.22472,-0.2022
16.9,1.3624,0.22876,0.22702,-0.2038
17,1.3657,0.23097,0.22922,-0.2053
17.1,1.369,0.23309,0.23135,-0.2068
17.2,1.3724,0.23518,0.23343,-0.2083
17.3,1.3758,0.23723,0.23549,-0.2098
17.4,1.3792,0.23923,0.23749,-0.2112
17.5,1.3826,0.2412,0.23947,-0.2127
17.6,1.3859,0.24315,0.24141,-0.2142
17.7,1.3894,0.24504,0.24331,-0.2156
17.8,1.3928,0.24695,0.24522,-0.2171
17.9,1.3962,0.24882,0.2471,-0.2185
18,1.3996,0.25064,0.24892,-0.22
18.1,1.403,0.2525,0.25078,-0.2214
18.2,1.4064,0.2543,0.25258,-0.2229
18.3,1.4098,0.2561,0.25439,-0.2243
18.4,1.4132,0.25792,0.25621,-0.2258
18.5,1.4165,0.25965,0.25794,-0.2272
18.6,1.4199,0.26133,0.25963,-0.2287
18.7,1.4232,0.26308,0.26138,-0.2301
18.8,1.4266,0.26485,0.26316,-0.2316
18.9,1.4299,0.26659,0.26489,-0.233
19,1.4332,0.26828,0.2666,-0.2344
19.1,1.4365,0.27001,0.26834,-0.2359
19.2,1.4397,0.2717,0.27003,-0.2373
19.3,1.4429,0.27342,0.27176,-0.2387
19.4,1.4462,0.2752,0.27354,-0.2402
19.5,1.4493,0.27687,0.27522,-0.2416
19.6,1.4525,0.27871,0.27706,-0.243
19.7,1.4556,0.28047,0.27882,-0.2445
19.8,1.4588,0.28233,0.28069,-0.2459
19.9,1.4618,0.28413,0.28249,-0.2473
20,1.465,0.28608,0.28444,-0.2487
20.1,1.468,0.28794,0.28631,-0.2501
20.2,1.4712,0.28991,0.28828,-0.2516
20.3,1.4743,0.29186,0.29024,-0.253
20.4,1.4773,0.29383,0.29221,-0.2544
20.5,1.4804,0.29583,0.29421,-0.2558
20.6,1.4853,0.29898,0.29734,-0.2578
20.7,1.4896,0.30172,0.30008,-0.2596
20.8,1.4939,0.30451,0.30287,-0.2613
20.9,1.4978,0.30702,0.30538,-0.263
21,1.5019,0.30962,0.30799,-0.2647
21.1,1.5057,0.31214,0.31051,-0.2663
21.2,1.5098,0.31481,0.31318,-0.268
21.3,1.5136,0.31728,0.31566,-0.2696
21.4,1.5174,0.31977,0.31815,-0.2713
21.5,1.5211,0.32221,0.32059,-0.2729
21.6,1.5247,0.32443,0.32281,-0.2745
21.7,1.5284,0.32681,0.32519,-0.2761
21.8,1.5321,0.32927,0.32766,-0.2778
21.9,1.5357,0.33149,0.32988,-0.2794
22,1.5393,0.33384,0.33223,-0.281
22.1,1.5428,0.33605,0.33445,-0.2827
22.2,1.5465,0.33841,0.33681,-0.2843
22.3,1.5499,0.34061,0.33902,-0.286
22.4,1.5535,0.34291,0.34132,-0.2876
22.5,1.5569,0.34509,0.3435,-0.2892
22.6,1.5604,0.34734,0.34575,-0.2909
22.7,1.5639,0.34953,0.34796,-0.2926
22.8,1.5681,0.35217,0.35061,-0.2946
22.9,1.5715,0.35433,0.35277,-0.2962
23,1.5749,0.35647,0.35492,-0.2979
23.1,1.5784,0.35861,0.35706,-0.2996
23.2,1.5817,0.36073,0.35919,-0.3013
23.3,1.5851,0.36286,0.36132,-0.303
23.4,1.5884,0.36497,0.36344,-0.3047
23.5,1.5918,0.3671,0.36557,-0.3064
23.6,1.5951,0.36919,0.36767,-0.3081
23.7,1.5984,0.37129,0.36978,-0.3098
23.8,1.6017,0.37338,0.37187,-0.3116
23.9,1.605,0.3755,0.37399,-0.3133
24,1.6082,0.37758,0.37608,-0.315
24.1,1.6114,0.37966,0.37816,-0.3168
24.2,1.6147,0.38173,0.38024,-0.3185
24.3,1.6179,0.38379,0.3823,-0.3203
24.4,1.6211,0.38585,0.38436,-0.322
24.5,1.6242,0.38791,0.38643,-0.3238
24.6,1.6274,0.38995,0.38848,-0.3256
24.7,1.6305,0.39201,0.39054,-0.3273
24.8,1.6336,0.39405,0.39259,-0.3291
24.9,1.6367,0.39612,0.39466,-0.3309
25,1.6398,0.39812,0.39667,-0.3327
25.1,1.6428,0.40014,0.39869,-0.3344
25.2,1.6459,0.40216,0.40072,-0.3362
25.3,1.6489,0.4042,0.40276,-0.338
25.4,1.6519,0.40618,0.40475,-0.3398
25.5,1.6548,0.40816,0.40674,-0.3416
25.6,1.6578,0.41017,0.40875,-0.3434
25.7,1.6607,0.41225,0.41083,-0.3452
25.8,1.6636,0.4142,0.41279,-0.3471
25.9,1.6665,0.41624,0.41484,-0.3489
26,1.6694,0.41827,0.41688,-0.3507
26.1,1.6722,0.42031,0.41893,-0.3525
26.2,1.675,0.42231,0.42094,-0.3543
26.3,1.6778,0.42443,0.42306,-0.3561
26.4,1.6806,0.42646,0.4251,-0.358
26.5,1.6833,0.42855,0.42719,-0.3598
26.6,1.686,0.43062,0.42927,-0.3616
26.7,1.6888,0.43276,0.43141,-0.3634
26.8,1.6914,0.43487,0.43353,-0.3653
26.9,1.694,0.43704,0.43571,-0.3671
27,1.6967,0.43926,0.43793,-0.3689
27.1,1.6994,0.44152,0.4402,-0.3707
27.2,1.702,0.4438,0.44248,-0.3726
27.3,1.7046,0.44615,0.44483,-0.3744
27.4,1.7071,0.44852,0.44722,-0.3762
27.5,1.7098,0.4509,0.4496,-0.3781
27.6,1.7124,0.45334,0.45205,-0.3799
27.7,1.7149,0.45586,0.45457,-0.3817
27.8,1.7175,0.45826,0.45698,-0.3836
27.9,1.72,0.46087,0.45959,-0.3854
28,1.7226,0.46332,0.46205,-0.3873
28.1,1.7251,0.46597,0.4647,-0.3891
28.2,1.7276,0.46844,0.46718,-0.391
28.3,1.7301,0.47107,0.46982,-0.3928
28.4,1.7326,0.47363,0.47238,-0.3947
28.5,1.7351,0.47617,0.47492,-0.3965
28.6,1.7376,0.47878,0.47754,-0.3984
28.7,1.74,0.48138,0.48014,-0.4003
28.8,1.7425,0.48396,0.48273,-0.4022
29.2,1.7569,0.49383,0.4926,-0.4117
29.3,1.7599,0.49635,0.49512,-0.4139
29.4,1.7635,0.49903,0.49781,-0.4162
29.5,1.7661,0.50153,0.50032,-0.4183
29.6,1.7695,0.50435,0.50313,-0.4205
29.7,1.7724,0.50705,0.50584,-0.4227
29.8,1.7752,0.50967,0.50846,-0.4248
29.9,1.7781,0.51234,0.51114,-0.427
30,1.7808,0.5149,0.5137,-0.4291

