airfoilName st21.dat
Re 	1.700000e+05
M 	2.500000e-01
N 	4.500000e+00
VACC 	0 VACCflag 1
XTR 	1.00 	1.00 XTRflag 0
alpha,cl,cd,cdp,cm
-30,-1.3172,0.52363,0.52027,0.2712
-29.9,-1.3142,0.52134,0.51798,0.2692
-29.8,-1.3111,0.51918,0.51581,0.267
-29.7,-1.308,0.51703,0.51365,0.2649
-29.6,-1.3048,0.51491,0.51151,0.2628
-29.5,-1.3017,0.51275,0.50935,0.2606
-29.4,-1.2985,0.51063,0.50723,0.2585
-29.3,-1.295,0.5088,0.50539,0.2563
-29.2,-1.2918,0.50675,0.50333,0.2541
-29.1,-1.2883,0.50486,0.50144,0.2519
-29,-1.2848,0.503,0.49957,0.2496
-28.9,-1.2813,0.50114,0.49771,0.2474
-28.8,-1.2777,0.49934,0.4959,0.2451
-28.7,-1.2736,0.49795,0.49452,0.2426
-28.5,-1.2651,0.49518,0.49174,0.2374
-25.1,-1.1471,0.41157,0.40798,0.1739
-25,-1.1437,0.40917,0.40557,0.1723
-24.9,-1.1404,0.40674,0.40314,0.1707
-24.8,-1.137,0.40434,0.40074,0.1691
-24.7,-1.1336,0.40196,0.39834,0.1675
-24.6,-1.1302,0.39957,0.39596,0.1659
-24.5,-1.1268,0.39719,0.39357,0.1643
-24.4,-1.1234,0.39483,0.3912,0.1627
-24.3,-1.12,0.39247,0.38883,0.1611
-24.2,-1.1165,0.39012,0.38646,0.1595
-24.1,-1.1131,0.38777,0.3841,0.158
-24,-1.1096,0.38543,0.38177,0.1564
-23.9,-1.1062,0.38311,0.37944,0.1548
-23.8,-1.1027,0.38079,0.37711,0.1533
-23.7,-1.0992,0.37848,0.3748,0.1517
-23.6,-1.0957,0.37618,0.37249,0.1502
-23.5,-1.0921,0.37388,0.37019,0.1487
-23.4,-1.0886,0.3716,0.3679,0.1471
-23.3,-1.0851,0.36932,0.36561,0.1456
-23.2,-1.0815,0.36704,0.36334,0.1441
-23.1,-1.0779,0.36477,0.36106,0.1426
-23,-1.0744,0.36252,0.3588,0.1411
-22.9,-1.0708,0.36026,0.35654,0.1395
-22.8,-1.0672,0.35802,0.35429,0.1381
-22.7,-1.0635,0.35579,0.35206,0.1366
-22.6,-1.0599,0.35356,0.34982,0.1351
-22.5,-1.0563,0.35133,0.34759,0.1336
-22.4,-1.0527,0.34911,0.34537,0.1321
-22.3,-1.049,0.3469,0.34316,0.1307
-22.2,-1.0453,0.3447,0.34095,0.1292
-22.1,-1.0417,0.34251,0.33875,0.1277
-22,-1.038,0.34032,0.33656,0.1263
-21.9,-1.0343,0.33814,0.33437,0.1249
-21.8,-1.0307,0.33596,0.33219,0.1234
-21.7,-1.0269,0.33379,0.33002,0.122
-21.6,-1.0233,0.33163,0.32786,0.1206
-21.5,-1.0195,0.32948,0.3257,0.1192
-21.4,-1.0158,0.32733,0.32354,0.1178
-21.3,-1.0121,0.32519,0.32137,0.1164
-21.2,-1.0084,0.32305,0.31923,0.115
-21.1,-1.0047,0.32092,0.3171,0.1136
-21,-1.0009,0.3188,0.31497,0.1122
-20.9,-0.9972,0.31668,0.31285,0.1109
-20.8,-0.9934,0.31457,0.31074,0.1095
-20.7,-0.9897,0.31246,0.30863,0.1081
-20.6,-0.9859,0.31037,0.30654,0.1068
-20.5,-0.9821,0.30827,0.30443,0.1054
-20.4,-0.9784,0.30619,0.30235,0.1041
-20.3,-0.9746,0.30412,0.30027,0.1028
-20.2,-0.9708,0.30204,0.29819,0.1014
-20.1,-0.967,0.29998,0.29612,0.1001
-20,-0.9632,0.29792,0.29406,0.0988
-19.9,-0.9593,0.29587,0.29201,0.0975
-19.8,-0.9555,0.29382,0.28996,0.0962
-19.7,-0.9517,0.29179,0.28792,0.0949
-19.6,-0.9478,0.28976,0.28589,0.0936
-19.5,-0.944,0.28773,0.28386,0.0923
-19.4,-0.9401,0.28572,0.28184,0.091
-19.3,-0.9362,0.28372,0.27984,0.0897
-19.2,-0.9323,0.28172,0.27784,0.0884
-19.1,-0.9284,0.27973,0.27585,0.0871
-19,-0.9245,0.27775,0.27387,0.0858
-18.9,-0.9205,0.27577,0.27189,0.0846
-18.8,-0.9166,0.27381,0.26992,0.0833
-18.7,-0.9126,0.27185,0.26796,0.082
-18.6,-0.9086,0.2699,0.266,0.0807
-18.5,-0.9046,0.26795,0.26406,0.0794
-18.4,-0.9005,0.26601,0.26211,0.0781
-18.3,-0.8965,0.26409,0.26018,0.0768
-18.2,-0.8924,0.26216,0.25823,0.0755
-18.1,-0.8882,0.26024,0.25631,0.0742
-18,-0.8841,0.25832,0.25439,0.0729
-17.9,-0.8799,0.2564,0.25247,0.0716
-17.8,-0.8757,0.25448,0.25055,0.0702
-17.7,-0.8715,0.25255,0.24862,0.0689
-17.6,-0.8672,0.25061,0.24668,0.0676
-17.5,-0.8629,0.24866,0.24472,0.0663
-17.4,-0.8586,0.24668,0.24274,0.0649
-17.3,-0.8542,0.24467,0.24073,0.0636
-17.2,-0.8498,0.24262,0.23868,0.0623
-17.1,-0.8349,0.23905,0.23517,0.0581
-17,-0.8315,0.23702,0.23314,0.0571
-16.9,-0.8281,0.23501,0.23112,0.0561
-16.8,-0.8247,0.23301,0.22912,0.0552
-16.7,-0.8212,0.23103,0.22714,0.0542
-16.6,-0.8178,0.22908,0.22519,0.0532
-16.5,-0.8143,0.22715,0.22325,0.0523
-16.4,-0.8108,0.22522,0.22133,0.0513
-16.3,-0.8073,0.22332,0.21942,0.0503
-16.2,-0.8037,0.22143,0.21753,0.0494
-16.1,-0.8002,0.21956,0.21566,0.0484
-16,-0.7966,0.2177,0.2138,0.0474
-15.9,-0.793,0.21585,0.21195,0.0464
-15.8,-0.7894,0.21402,0.21011,0.0455
-15.7,-0.7857,0.2122,0.20829,0.0445
-15.6,-0.7821,0.21039,0.20648,0.0435
-15.5,-0.7784,0.2086,0.20469,0.0425
-15.4,-0.7747,0.20682,0.20291,0.0416
-15.3,-0.7709,0.20505,0.20114,0.0406
-15.2,-0.7672,0.2033,0.19938,0.0396
-15.1,-0.7635,0.20155,0.19763,0.0386
-15,-0.7597,0.19982,0.1959,0.0377
-14.9,-0.7559,0.1981,0.19418,0.0367
-14.8,-0.7521,0.19638,0.19247,0.0357
-14.7,-0.7483,0.19468,0.19074,0.0348
-14.6,-0.7444,0.19299,0.18905,0.0338
-14.5,-0.7406,0.1913,0.18736,0.0329
-14.4,-0.7367,0.18963,0.18569,0.0319
-14.3,-0.7328,0.18796,0.18402,0.0309
-14.2,-0.7289,0.18631,0.18236,0.03
-14.1,-0.725,0.18465,0.18071,0.029
-14,-0.721,0.18301,0.17906,0.0281
-13.9,-0.717,0.18136,0.17742,0.0271
-13.8,-0.713,0.17974,0.17579,0.0262
-13.7,-0.709,0.17811,0.17417,0.0252
-13.6,-0.705,0.1765,0.17256,0.0243
-13.5,-0.701,0.17489,0.17095,0.0234
-13.4,-0.697,0.17329,0.16935,0.0224
-13.3,-0.6929,0.17169,0.16776,0.0215
-13.2,-0.6889,0.17011,0.16617,0.0206
-13.1,-0.6848,0.16853,0.16459,0.0196
-13,-0.6807,0.16695,0.16302,0.0187
-12.9,-0.6767,0.16538,0.16145,0.0178
-12.8,-0.6726,0.16382,0.15989,0.0169
-12.7,-0.6684,0.16226,0.15833,0.016
-12.6,-0.6643,0.16071,0.15678,0.0151
-12.5,-0.6602,0.15915,0.15523,0.0142
-12.4,-0.656,0.15761,0.15369,0.0133
-12.3,-0.6518,0.15607,0.15215,0.0124
-12.2,-0.6477,0.15453,0.15061,0.0115
-12.1,-0.6435,0.15299,0.14908,0.0106
-12,-0.6393,0.15146,0.14755,0.0097
-11.9,-0.6351,0.14992,0.14602,0.0088
-11.8,-0.6309,0.1484,0.14449,0.0079
-11.7,-0.6267,0.14687,0.14297,0.007
-11.6,-0.6224,0.14535,0.14142,0.0061
-11.5,-0.6182,0.14381,0.1399,0.0053
-11.4,-0.6139,0.14228,0.13837,0.0044
-11.3,-0.6097,0.14076,0.13684,0.0035
-11.2,-0.6054,0.13921,0.1353,0.0026
-11.1,-0.6011,0.13767,0.13376,0.0017
-11,-0.5968,0.13612,0.13222,0.0009
-10.9,-0.5924,0.13456,0.13066,0
-10.8,-0.5881,0.13298,0.12909,-0.0009
-10.7,-0.5836,0.13138,0.1275,-0.0018
-10.6,-0.5791,0.12974,0.12586,-0.0028
-10.5,-0.5745,0.12806,0.12419,-0.0037
-10.4,-0.5694,0.12629,0.12242,-0.0049
-10.3,-0.56,0.12399,0.12018,-0.0082
-10.2,-0.5568,0.12255,0.11874,-0.0087
-10.1,-0.5536,0.12113,0.11733,-0.0092
-10,-0.5504,0.11975,0.11596,-0.0096
-9.9,-0.5472,0.11841,0.11463,-0.0101
-9.8,-0.5441,0.1171,0.11333,-0.0106
-9.7,-0.5411,0.11582,0.11205,-0.011
-9.6,-0.5382,0.11458,0.11082,-0.0114
-9.5,-0.5355,0.11337,0.10962,-0.0118
-9.4,-0.5329,0.1122,0.10846,-0.0121
-9.3,-0.5306,0.11108,0.10735,-0.0123
-9.2,-0.5285,0.11,0.10628,-0.0125
-9.1,-0.5269,0.10897,0.10527,-0.0126
-9,-0.5256,0.10799,0.10431,-0.0126
-8.9,-0.5247,0.10707,0.1034,-0.0124
-8.8,-0.5243,0.1062,0.10255,-0.0122
-8.7,-0.5245,0.10539,0.10176,-0.0118
-8.6,-0.5251,0.10463,0.10102,-0.0113
-8.5,-0.526,0.1039,0.10033,-0.0108
-8.4,-0.527,0.10318,0.09963,-0.0102
-8.3,-0.5275,0.10241,0.09888,-0.0098
-8.1,-0.5282,0.10085,0.09737,-0.009
-8,-0.5289,0.10011,0.09665,-0.0086
-7.9,-0.5298,0.09939,0.09596,-0.0081
-7.8,-0.524,0.09807,0.09465,-0.0094
-7.7,-0.5143,0.09644,0.09301,-0.0116
-7.6,-0.5036,0.09474,0.09127,-0.0141
-7.5,-0.4934,0.09311,0.08963,-0.0164
-7.4,-0.4828,0.09146,0.08797,-0.0188
-7.3,-0.4723,0.08983,0.08633,-0.0212
-7.2,-0.462,0.08823,0.08472,-0.0235
-7.1,-0.4514,0.08662,0.08309,-0.0259
-7,-0.4402,0.08498,0.08144,-0.0283
-6.9,-0.4286,0.08331,0.07976,-0.0309
-6.7,-0.4029,0.07981,0.07623,-0.0366
-6.6,-0.3923,0.07823,0.07463,-0.0388
-6.5,-0.3807,0.07658,0.07296,-0.0412
-6.4,-0.3682,0.07486,0.07122,-0.0439
-6.3,-0.3549,0.07306,0.06941,-0.0467
-6.2,-0.3409,0.07119,0.06752,-0.0497
-6.1,-0.326,0.06921,0.06551,-0.053
-6,-0.3098,0.06704,0.06331,-0.0566
-5.9,-0.294,0.06473,0.06095,-0.0602
-5.7,-0.2542,0.05805,0.0542,-0.0706
-5.6,-0.2417,0.05666,0.05278,-0.0726
-5.5,-0.2282,0.0553,0.05139,-0.0749
-5.4,-0.2139,0.05395,0.05001,-0.0772
-5.3,-0.1989,0.0526,0.0486,-0.0797
-5.2,-0.1841,0.05188,0.04785,-0.0819
-5.1,-0.1676,0.05035,0.04628,-0.0847
-4.9,-0.1373,0.04737,0.04321,-0.0895
-4.8,-0.1222,0.04583,0.04162,-0.0918
-4.7,-0.1052,0.04413,0.03986,-0.0946
-4.6,-0.0869,0.04223,0.03789,-0.0977
-4.4,-0.0083,0.0265,0.02113,-0.1183
-4.3,0.0054,0.0257,0.0203,-0.1193
-4.2,0.0197,0.025,0.01955,-0.1204
-4.1,0.0353,0.02419,0.01864,-0.1218
-4,0.051,0.02323,0.01756,-0.1231
-3.9,0.0671,0.02211,0.01625,-0.1246
-3.8,0.0835,0.0209,0.01482,-0.1261
-3.7,0.0997,0.01968,0.01333,-0.1275
-3.6,0.1157,0.01854,0.01189,-0.1288
-3.5,0.1321,0.01751,0.01053,-0.1299
-3.4,0.147,0.01683,0.00966,-0.1307
-3.3,0.1598,0.01647,0.00927,-0.1311
-3.2,0.1705,0.01623,0.00898,-0.1309
-3.1,0.1833,0.01594,0.00863,-0.1312
-3,0.197,0.01559,0.00819,-0.1316
-2.9,0.2103,0.01545,0.00788,-0.1319
-2.8,0.224,0.01509,0.00753,-0.1325
-2.7,0.2383,0.01486,0.00726,-0.133
-2.6,0.2522,0.01462,0.00697,-0.1335
-2.5,0.2663,0.01436,0.00662,-0.1339
-2.4,0.2801,0.01425,0.0065,-0.1344
-2.3,0.2912,0.0141,0.0063,-0.1343
-2.2,0.3025,0.01395,0.00612,-0.1342
-2.1,0.3151,0.01376,0.00585,-0.1343
-2,0.3282,0.01358,0.00564,-0.1346
-1.8,0.3551,0.0134,0.00544,-0.1353
-1.7,0.3687,0.01325,0.00526,-0.1357
-1.6,0.3825,0.01313,0.00516,-0.1361
-1.5,0.3937,0.01304,0.00506,-0.136
-1.4,0.4044,0.01303,0.00504,-0.1358
-1.3,0.4166,0.01294,0.00496,-0.1358
-1.2,0.4294,0.01285,0.00486,-0.136
-1.1,0.4425,0.01276,0.0047,-0.1363
-1,0.4562,0.01265,0.00463,-0.1367
-0.9,0.4696,0.01263,0.00459,-0.137
-0.8,0.4808,0.01257,0.00456,-0.1369
-0.7,0.491,0.01253,0.00453,-0.1366
-0.6,0.5032,0.01248,0.00447,-0.1367
-0.5,0.5161,0.0124,0.00439,-0.1368
-0.4,0.529,0.01237,0.00439,-0.1371
-0.3,0.5423,0.01229,0.00432,-0.1374
-0.2,0.5532,0.01225,0.0043,-0.1372
-0.1,0.5641,0.01223,0.00429,-0.137
0,0.5761,0.01219,0.00426,-0.1371
0.1,0.5893,0.01208,0.00417,-0.1372
0.2,0.6003,0.01202,0.00412,-0.1369
0.3,0.6118,0.01195,0.00408,-0.1368
0.4,0.6251,0.01185,0.00396,-0.1369
0.5,0.6353,0.0118,0.00395,-0.1365
0.6,0.6471,0.01177,0.00394,-0.1365
0.7,0.6598,0.01169,0.0039,-0.1366
0.8,0.6707,0.01163,0.00384,-0.1363
0.9,0.6828,0.01158,0.00383,-0.1363
1,0.6957,0.01151,0.00377,-0.1365
1.1,0.7064,0.01145,0.00376,-0.1362
1.2,0.7186,0.0114,0.00375,-0.1362
1.3,0.731,0.0113,0.00373,-0.1363
1.4,0.7425,0.0112,0.00368,-0.1361
1.5,0.7542,0.01112,0.00372,-0.1361
1.6,0.7661,0.01098,0.00375,-0.1361
1.7,0.7699,0.00989,0.00362,-0.134
1.8,0.7813,0.00989,0.00359,-0.1337
1.9,0.7928,0.0099,0.00356,-0.1335
2,0.8047,0.00991,0.00354,-0.1333
2.1,0.8164,0.00992,0.0035,-0.1331
2.2,0.8278,0.00994,0.00347,-0.1328
2.3,0.8392,0.00997,0.00347,-0.1326
2.4,0.8506,0.01001,0.00349,-0.1324
2.5,0.862,0.01006,0.0035,-0.1321
2.6,0.8728,0.01012,0.00346,-0.1316
2.7,0.8838,0.0102,0.00348,-0.1313
2.8,0.8944,0.01029,0.00349,-0.1309
2.9,0.9047,0.01041,0.00357,-0.1304
3,0.9146,0.01058,0.00361,-0.1298
3.1,0.9222,0.0109,0.00367,-0.1288
3.2,0.931,0.01115,0.00377,-0.1281
3.3,0.9393,0.01145,0.00391,-0.1274
3.4,0.9473,0.01177,0.00405,-0.1266
3.5,0.9549,0.01214,0.00423,-0.1258
3.6,0.9596,0.01278,0.00449,-0.1246
3.7,0.9674,0.01318,0.0047,-0.124
3.8,0.9757,0.01354,0.00491,-0.1235
3.9,0.9845,0.01386,0.00513,-0.123
4,0.9937,0.01415,0.00533,-0.1226
4.1,1.0023,0.01451,0.00556,-0.1221
4.2,1.0119,0.01475,0.00576,-0.1217
4.3,1.0217,0.01496,0.00594,-0.1214
4.4,1.0316,0.01518,0.00614,-0.1211
4.5,1.0413,0.01541,0.00638,-0.1207
4.6,1.0505,0.01568,0.0066,-0.1203
4.7,1.0606,0.01587,0.00678,-0.12
4.8,1.0703,0.01609,0.00698,-0.1196
4.9,1.0803,0.01628,0.00718,-0.1193
5,1.0897,0.01654,0.00736,-0.1189
5.1,1.0994,0.01676,0.00758,-0.1185
5.2,1.1093,0.01696,0.00778,-0.1182
5.3,1.1189,0.01719,0.008,-0.1178
5.4,1.1288,0.01739,0.00821,-0.1174
5.5,1.1383,0.01764,0.00843,-0.117
5.6,1.1477,0.01789,0.00863,-0.1166
5.7,1.1573,0.01812,0.00888,-0.1162
5.8,1.1669,0.01835,0.00912,-0.1158
5.9,1.1762,0.01862,0.00943,-0.1154
6,1.1858,0.01886,0.0097,-0.1149
6.1,1.1948,0.01915,0.00993,-0.1145
6.2,1.2043,0.0194,0.01022,-0.1141
6.3,1.2136,0.01967,0.01052,-0.1136
6.4,1.2224,0.01999,0.01083,-0.1131
6.5,1.2316,0.02028,0.01117,-0.1125
6.6,1.2407,0.02058,0.01151,-0.112
6.7,1.2496,0.0209,0.01187,-0.1114
6.8,1.2582,0.02123,0.01215,-0.111
6.9,1.2671,0.02155,0.01254,-0.1104
7,1.2758,0.02189,0.01294,-0.1098
7.1,1.2843,0.02225,0.01334,-0.1092
7.2,1.2924,0.02266,0.01377,-0.1085
7.3,1.2999,0.02315,0.01424,-0.1078
7.4,1.3083,0.02354,0.01478,-0.1071
7.5,1.3175,0.02379,0.01509,-0.1067
7.6,1.3255,0.02421,0.01557,-0.106
7.7,1.3329,0.02468,0.01607,-0.1052
7.8,1.3392,0.02529,0.01669,-0.1043
7.9,1.3472,0.02574,0.01723,-0.1036
8,1.3565,0.02597,0.01755,-0.1031
8.1,1.3638,0.02645,0.01809,-0.1024
8.2,1.3708,0.02695,0.01865,-0.1016
8.3,1.377,0.02752,0.01926,-0.1007
8.4,1.3826,0.02819,0.01995,-0.0997
8.5,1.3895,0.02879,0.02069,-0.0988
8.6,1.3957,0.02944,0.02147,-0.0979
8.7,1.4017,0.03011,0.02225,-0.0969
8.8,1.4073,0.03079,0.02303,-0.0959
8.9,1.4127,0.03146,0.0238,-0.0949
9.2,1.4292,0.03302,0.02556,-0.0922
9.3,1.4332,0.03386,0.02655,-0.091
9.4,1.4366,0.03472,0.02755,-0.0898
9.5,1.439,0.03556,0.02852,-0.0884
9.6,1.4411,0.03641,0.02949,-0.087
9.7,1.4428,0.03727,0.03047,-0.0856
9.8,1.4442,0.03814,0.03145,-0.0842
9.9,1.4452,0.03901,0.03243,-0.0829
10,1.4458,0.03989,0.03342,-0.0815
10.1,1.4461,0.04078,0.03441,-0.0802
10.2,1.446,0.04169,0.03542,-0.0788
10.3,1.4455,0.04261,0.03643,-0.0775
10.4,1.4445,0.04358,0.03749,-0.0763
10.5,1.443,0.04458,0.03857,-0.075
10.6,1.4411,0.04563,0.03971,-0.0738
10.7,1.4386,0.04675,0.04092,-0.0727
10.8,1.4354,0.04793,0.04218,-0.0716
10.9,1.4317,0.04919,0.04353,-0.0706
11,1.4278,0.0506,0.04502,-0.0697
11.1,1.4234,0.05217,0.04677,-0.0689
11.2,1.4184,0.05378,0.04854,-0.0683
11.3,1.413,0.05546,0.05037,-0.0678
11.4,1.4071,0.05723,0.05229,-0.0674
11.5,1.4009,0.05907,0.05427,-0.0673
11.6,1.3945,0.061,0.05633,-0.0674
11.7,1.3879,0.06298,0.05844,-0.0678
11.8,1.3812,0.06508,0.06066,-0.0685
12,1.3673,0.06963,0.06544,-0.0707
12.2,1.3538,0.07473,0.07076,-0.0744
12.3,1.3473,0.07751,0.07365,-0.0769
12.4,1.3408,0.08056,0.0768,-0.0799
12.5,1.335,0.08379,0.08014,-0.0834
12.6,1.3293,0.08737,0.08382,-0.0875
12.7,1.3243,0.09128,0.08782,-0.0922
12.9,1.3161,0.10027,0.09699,-0.1029
13,1.3127,0.10519,0.10199,-0.1083
13.1,1.3094,0.11008,0.10694,-0.1134
13.2,1.3061,0.11476,0.11166,-0.118
13.3,1.3023,0.11965,0.11659,-0.1225
13.4,1.2985,0.12451,0.12148,-0.1269
13.5,1.2952,0.12908,0.12607,-0.1308
13.6,1.2915,0.13396,0.13097,-0.1347
13.7,1.2874,0.13921,0.13623,-0.1388
13.8,1.2834,0.14468,0.1417,-0.1427
13.9,1.2795,0.1504,0.14743,-0.1466
14,1.2756,0.15662,0.15363,-0.1506
14.2,1.2741,0.16556,0.16252,-0.1561
14.3,1.2751,0.16892,0.16587,-0.1583
14.4,1.2767,0.17191,0.16886,-0.1603
14.5,1.2787,0.17458,0.17153,-0.1621
14.6,1.2809,0.1771,0.17404,-0.1639
14.7,1.2833,0.17944,0.17641,-0.1655
14.8,1.2858,0.18167,0.17864,-0.1671
14.9,1.2885,0.18379,0.18077,-0.1687
15,1.2912,0.18584,0.18282,-0.1702
15.1,1.2939,0.18781,0.18479,-0.1716
15.2,1.2967,0.18972,0.1867,-0.1731
15.3,1.2995,0.19154,0.18853,-0.1745
15.4,1.3024,0.19331,0.1903,-0.1759
15.5,1.3053,0.19502,0.19201,-0.1772
15.6,1.3082,0.19672,0.19372,-0.1785
15.7,1.311,0.19832,0.19532,-0.1798
15.8,1.3139,0.1999,0.19691,-0.1811
15.9,1.3168,0.20145,0.19846,-0.1824
16,1.3197,0.20288,0.19989,-0.1836
16.1,1.3225,0.20434,0.20136,-0.1849
16.2,1.3252,0.20572,0.20274,-0.186
16.3,1.3278,0.20705,0.20408,-0.1872
16.4,1.3308,0.21048,0.20747,-0.1893
16.6,1.3385,0.21963,0.2166,-0.1943
16.7,1.3421,0.22244,0.21941,-0.1961
16.8,1.3456,0.22492,0.22188,-0.1977
16.9,1.3491,0.22728,0.22425,-0.1993
17,1.3526,0.22956,0.22653,-0.2008
17.2,1.3603,0.23405,0.23102,-0.2043
17.3,1.3637,0.23596,0.23294,-0.2057
17.4,1.3671,0.23783,0.23481,-0.2071
17.5,1.3706,0.23969,0.23667,-0.2085
17.6,1.374,0.24152,0.2385,-0.2099
17.7,1.3774,0.24331,0.2403,-0.2113
17.8,1.3808,0.2451,0.2421,-0.2127
17.9,1.3842,0.24687,0.24387,-0.2141
18,1.3876,0.24859,0.2456,-0.2155
18.1,1.391,0.25034,0.24735,-0.2169
18.2,1.3943,0.25204,0.24906,-0.2183
18.3,1.3976,0.25374,0.25076,-0.2196
18.4,1.401,0.25545,0.25248,-0.221
18.5,1.4042,0.25708,0.25412,-0.2224
18.6,1.4075,0.2587,0.25574,-0.2237
18.7,1.4107,0.26033,0.25738,-0.225
18.8,1.4139,0.26199,0.25905,-0.2264
18.9,1.417,0.26361,0.26067,-0.2277
19,1.4201,0.26521,0.26231,-0.2291
19.1,1.4232,0.26683,0.26394,-0.2304
19.2,1.4262,0.26842,0.26553,-0.2317
19.3,1.4291,0.27006,0.26717,-0.2329
19.4,1.4335,0.27307,0.27015,-0.2349
19.5,1.4396,0.27789,0.27496,-0.2374
19.6,1.4441,0.28092,0.27799,-0.2392
19.7,1.4484,0.28381,0.28088,-0.241
19.8,1.4524,0.28633,0.2834,-0.2426
19.9,1.4564,0.28885,0.28593,-0.2443
20,1.4602,0.29113,0.28821,-0.2459
20.1,1.464,0.29348,0.29057,-0.2475
20.2,1.4677,0.29565,0.29274,-0.249
20.3,1.4715,0.29789,0.29499,-0.2506
20.4,1.4752,0.30011,0.29721,-0.2522
20.5,1.4789,0.30224,0.29934,-0.2538
20.6,1.4825,0.30439,0.3015,-0.2553
20.7,1.4862,0.3065,0.30362,-0.2569
20.8,1.4898,0.30861,0.30573,-0.2585
20.9,1.4934,0.31069,0.30782,-0.26
21,1.497,0.31277,0.3099,-0.2616
21.1,1.5005,0.31483,0.31197,-0.2631
21.2,1.5041,0.3169,0.31404,-0.2647
21.3,1.5076,0.31895,0.3161,-0.2663
21.4,1.5111,0.32099,0.31814,-0.2679
21.5,1.5146,0.32303,0.32019,-0.2694
21.6,1.5181,0.32507,0.32224,-0.271
21.7,1.5216,0.32711,0.32429,-0.2726
21.8,1.525,0.32914,0.32632,-0.2742
21.9,1.5285,0.33118,0.32836,-0.2758
22,1.5319,0.3332,0.3304,-0.2774
22.1,1.5353,0.33523,0.33243,-0.279
22.2,1.5387,0.33726,0.33447,-0.2806
22.3,1.5421,0.33929,0.3365,-0.2822
22.4,1.5455,0.34131,0.33853,-0.2838
22.5,1.5489,0.34336,0.34058,-0.2854
22.6,1.5522,0.34537,0.3426,-0.287
22.7,1.5556,0.34741,0.34465,-0.2886
22.8,1.5589,0.34945,0.34672,-0.2903
22.9,1.5622,0.35146,0.34874,-0.2919
23,1.5655,0.3535,0.35079,-0.2935
23.1,1.5688,0.35552,0.35282,-0.2952
23.2,1.572,0.35756,0.35486,-0.2968
23.3,1.5753,0.35958,0.35689,-0.2985
23.4,1.5786,0.36165,0.35897,-0.3001
23.5,1.5818,0.36368,0.36101,-0.3018
23.6,1.585,0.36573,0.36306,-0.3034
23.7,1.5882,0.36777,0.36511,-0.3051
23.8,1.5913,0.36981,0.36716,-0.3067
23.9,1.5945,0.37188,0.36924,-0.3084
24,1.5976,0.37393,0.3713,-0.3101
24.1,1.6008,0.37602,0.37339,-0.3118
24.2,1.6038,0.37807,0.37546,-0.3134
24.3,1.6069,0.38016,0.37755,-0.3151
24.4,1.61,0.38222,0.37962,-0.3168
24.5,1.613,0.38433,0.38173,-0.3185
24.6,1.6161,0.38641,0.38382,-0.3202
24.7,1.6191,0.38852,0.38594,-0.3219
24.8,1.6221,0.39063,0.38806,-0.3236
24.9,1.625,0.39276,0.3902,-0.3253
25,1.628,0.39488,0.39233,-0.327
25.1,1.6309,0.39703,0.39449,-0.3287
25.2,1.6338,0.39918,0.39665,-0.3304
25.3,1.6367,0.40135,0.39883,-0.3321
25.4,1.6386,0.40283,0.40032,-0.3337
25.5,1.6413,0.40506,0.40255,-0.3353
25.6,1.6441,0.40733,0.40484,-0.337
25.7,1.6468,0.40961,0.40713,-0.3387
25.9,1.6586,0.4177,0.41516,-0.3441
26,1.6626,0.42078,0.41825,-0.3462
26.1,1.6665,0.42376,0.42126,-0.3482
26.2,1.6702,0.42659,0.4241,-0.3503
26.3,1.6735,0.42913,0.42664,-0.3522
26.4,1.6769,0.43175,0.42927,-0.3542
26.5,1.6801,0.43428,0.4318,-0.3561
26.6,1.6834,0.43679,0.43432,-0.3581
26.7,1.6865,0.43921,0.43675,-0.36
26.8,1.6897,0.44165,0.43919,-0.3619
26.9,1.6928,0.44408,0.44162,-0.3639
27,1.6958,0.44642,0.44397,-0.3658
27.1,1.6988,0.4488,0.44637,-0.3678
27.2,1.7018,0.45115,0.44872,-0.3697
27.3,1.7048,0.4535,0.45108,-0.3716
27.4,1.7077,0.45583,0.45342,-0.3736
27.5,1.7106,0.45818,0.45578,-0.3755
27.6,1.7135,0.46051,0.45811,-0.3775
27.7,1.7164,0.46286,0.46047,-0.3794
27.8,1.7191,0.46516,0.46278,-0.3814
27.9,1.722,0.46748,0.4651,-0.3833
28,1.7247,0.46982,0.46745,-0.3853
28.1,1.7275,0.47214,0.46978,-0.3872
28.2,1.7302,0.47448,0.47213,-0.3892
28.3,1.7329,0.47679,0.47445,-0.3912
28.4,1.7356,0.47913,0.4768,-0.3931
28.5,1.7382,0.48147,0.47914,-0.3951
28.6,1.7409,0.48378,0.48147,-0.3971
28.7,1.7435,0.48611,0.48381,-0.3991
28.8,1.7461,0.48845,0.48615,-0.401
28.9,1.7486,0.4908,0.48851,-0.403
29,1.7512,0.49318,0.4909,-0.405
29.1,1.7537,0.49551,0.49324,-0.407
29.2,1.7563,0.49786,0.49559,-0.409
29.3,1.7587,0.50021,0.49798,-0.411
29.4,1.7612,0.50255,0.50033,-0.413
29.5,1.7637,0.50494,0.50273,-0.415
29.6,1.7661,0.5073,0.50509,-0.417
29.7,1.7685,0.50971,0.50751,-0.4191
29.8,1.7709,0.51208,0.5099,-0.4211
29.9,1.7733,0.51443,0.51225,-0.4231
30,1.7757,0.51684,0.51467,-0.4252

