airfoilName st22.dat
Re 	3.000000e+04
M 	2.500000e-01
N 	4.500000e+00
VACC 	0 VACCflag 1
XTR 	1.00 	1.00 XTRflag 0
alpha,cl,cd,cdp,cm
-26.3,-1.1469,0.45587,0.4468,0.1832
-26.2,-1.1436,0.45337,0.44428,0.1815
-26.1,-1.1403,0.45085,0.44176,0.1799
-26,-1.137,0.44835,0.43924,0.1782
-25.9,-1.1337,0.44587,0.43675,0.1766
-25.8,-1.1304,0.44338,0.43424,0.1749
-25.7,-1.127,0.4409,0.43175,0.1733
-25.6,-1.1237,0.43843,0.42927,0.1716
-25.5,-1.1203,0.43597,0.4268,0.17
-25.4,-1.1169,0.43353,0.42434,0.1683
-25.3,-1.1135,0.43106,0.42187,0.1667
-25.2,-1.1101,0.42863,0.41942,0.1651
-25.1,-1.1066,0.4262,0.41697,0.1635
-25,-1.1032,0.42376,0.41453,0.1619
-24.9,-1.0998,0.42135,0.41206,0.1603
-24.8,-1.0963,0.41895,0.40964,0.1587
-24.7,-1.0928,0.41654,0.40722,0.1571
-24.6,-1.0893,0.41415,0.40482,0.1555
-24.5,-1.0858,0.41176,0.40242,0.1539
-24.4,-1.0823,0.40938,0.40003,0.1523
-24.3,-1.0787,0.40701,0.39765,0.1507
-24.2,-1.0752,0.40465,0.39527,0.1491
-24.1,-1.0716,0.40229,0.39291,0.1475
-24,-1.068,0.39994,0.39054,0.146
-23.9,-1.0644,0.39759,0.38818,0.1444
-23.8,-1.0608,0.39526,0.38584,0.1428
-23.7,-1.0572,0.39294,0.38351,0.1413
-23.6,-1.0536,0.39064,0.3812,0.1397
-23.5,-1.0499,0.38832,0.37888,0.1382
-23.4,-1.0462,0.38602,0.37656,0.1366
-23.3,-1.0426,0.38373,0.37426,0.1351
-23.2,-1.0389,0.38144,0.37196,0.1335
-23.1,-1.0351,0.37916,0.36967,0.132
-23,-1.0314,0.37688,0.36738,0.1304
-22.9,-1.0277,0.37462,0.36511,0.1289
-22.8,-1.0239,0.37236,0.36284,0.1274
-22.7,-1.0201,0.37011,0.36058,0.1258
-22.6,-1.0163,0.36785,0.35832,0.1243
-22.5,-1.0125,0.36561,0.35607,0.1228
-22.4,-1.0087,0.36338,0.35383,0.1213
-22.3,-1.0048,0.36115,0.35159,0.1197
-22.2,-1.0009,0.35892,0.34935,0.1182
-22.1,-0.9971,0.3567,0.34713,0.1167
-22,-0.9931,0.35447,0.34489,0.1151
-21.9,-0.9892,0.35226,0.34262,0.1136
-21.8,-0.9852,0.35006,0.34041,0.1121
-21.7,-0.9812,0.34785,0.3382,0.1105
-21.6,-0.9772,0.34566,0.33599,0.109
-21.5,-0.9731,0.34346,0.3338,0.1075
-21.4,-0.969,0.34127,0.3316,0.1059
-19.3,-0.8867,0.29666,0.28698,0.0767
-19.2,-0.883,0.29456,0.28487,0.0756
-19.1,-0.8793,0.29246,0.28277,0.0744
-19,-0.8756,0.29039,0.28068,0.0733
-18.9,-0.8719,0.28831,0.2786,0.0722
-18.8,-0.8681,0.28625,0.27653,0.071
-18.7,-0.8644,0.28421,0.27449,0.0699
-18.6,-0.8607,0.28216,0.27237,0.0688
-18.5,-0.8569,0.28013,0.27034,0.0677
-18.4,-0.8532,0.27811,0.26831,0.0666
-18.3,-0.8495,0.2761,0.26629,0.0654
-18.2,-0.8457,0.27409,0.26428,0.0643
-18.1,-0.842,0.2721,0.26228,0.0632
-18,-0.8382,0.27011,0.26028,0.0621
-17.9,-0.8344,0.26813,0.2583,0.061
-17.8,-0.8306,0.26616,0.25632,0.06
-17.7,-0.8268,0.26419,0.25435,0.0589
-17.6,-0.8231,0.26224,0.25239,0.0578
-17.5,-0.8193,0.26029,0.25044,0.0567
-17.4,-0.8155,0.25835,0.24849,0.0556
-17.3,-0.8117,0.25642,0.24656,0.0546
-17.2,-0.8079,0.2545,0.24464,0.0535
-17.1,-0.8041,0.25258,0.24271,0.0524
-17,-0.8002,0.25067,0.2408,0.0514
-16.9,-0.7964,0.24877,0.23889,0.0503
-16.8,-0.7926,0.24687,0.23699,0.0493
-16.7,-0.7888,0.24497,0.2351,0.0482
-16.6,-0.7849,0.2431,0.23321,0.0472
-16.5,-0.7811,0.24123,0.23134,0.0462
-16.4,-0.7772,0.23936,0.22947,0.0451
-16.3,-0.7734,0.23749,0.2276,0.0441
-16.2,-0.7695,0.23564,0.22575,0.043
-16.1,-0.7657,0.23379,0.2239,0.042
-16,-0.7618,0.23196,0.22206,0.041
-15.9,-0.758,0.23013,0.22023,0.04
-15.8,-0.7541,0.2283,0.2184,0.0389
-15.7,-0.7502,0.22648,0.21658,0.0379
-15.6,-0.7463,0.22467,0.21477,0.0369
-15.4,-0.7385,0.22107,0.21111,0.0348
-15.3,-0.7346,0.21928,0.20932,0.0338
-15.2,-0.7306,0.2175,0.20753,0.0327
-15.1,-0.7267,0.21571,0.20575,0.0317
-15,-0.7227,0.21395,0.20399,0.0307
-14.9,-0.7188,0.21219,0.20224,0.0296
-14.8,-0.7148,0.21044,0.20049,0.0285
-14.7,-0.7108,0.20871,0.19876,0.0274
-14.6,-0.7068,0.20699,0.19704,0.0263
-14.5,-0.7027,0.20528,0.19534,0.0252
-14.4,-0.6986,0.2036,0.19366,0.024
-14.3,-0.6945,0.20195,0.19202,0.0228
-14.2,-0.6904,0.20035,0.19043,0.0215
-13.9,-0.6776,0.19628,0.18651,0.0165
-13.8,-0.6741,0.19435,0.18458,0.0158
-13.7,-0.6706,0.19246,0.18269,0.0152
-13.6,-0.667,0.19062,0.18085,0.0146
-13.5,-0.6634,0.18881,0.17904,0.0139
-13.4,-0.6599,0.18703,0.17726,0.0132
-13.3,-0.6563,0.18529,0.17551,0.0125
-13.2,-0.6527,0.18356,0.17378,0.0118
-13.1,-0.6491,0.18185,0.17207,0.0111
-13,-0.6455,0.18016,0.17038,0.0105
-12.9,-0.6418,0.17849,0.16871,0.0098
-12.8,-0.6382,0.17683,0.16706,0.0091
-12.7,-0.635,0.17557,0.1658,0.0084
-12.6,-0.6314,0.17394,0.16418,0.0077
-12.5,-0.6277,0.17233,0.16257,0.0069
-12.4,-0.624,0.17073,0.16097,0.0062
-12.3,-0.6203,0.16914,0.15939,0.0055
-12.2,-0.6167,0.16756,0.15781,0.0047
-12.1,-0.613,0.16599,0.15624,0.004
-12,-0.6093,0.16443,0.15463,0.0033
-11.9,-0.6056,0.16288,0.15309,0.0026
-11.8,-0.602,0.16134,0.15156,0.0018
-11.7,-0.5983,0.15981,0.15003,0.0011
-11.6,-0.5946,0.15829,0.14852,0.0004
-11.5,-0.591,0.15678,0.14702,-0.0004
-11.4,-0.5873,0.15528,0.14553,-0.0011
-11.3,-0.5837,0.15379,0.14405,-0.0019
-11.2,-0.58,0.15231,0.14258,-0.0026
-11.1,-0.5764,0.15084,0.14112,-0.0034
-11,-0.5728,0.14938,0.13967,-0.0041
-10.9,-0.5692,0.14794,0.13824,-0.0049
-10.7,-0.562,0.14508,0.1354,-0.0065
-10.6,-0.5585,0.14367,0.13401,-0.0073
-10.5,-0.5549,0.14227,0.13263,-0.0081
-10.4,-0.5515,0.1409,0.13126,-0.0089
-10.3,-0.548,0.13953,0.12992,-0.0097
-10.2,-0.5447,0.13819,0.1286,-0.0106
-10.1,-0.5413,0.13687,0.1273,-0.0115
-9.9,-0.535,0.13434,0.12481,-0.0135
-9.8,-0.5322,0.13316,0.12366,-0.0147
-9.6,-0.5272,0.13109,0.12166,-0.0178
-9.5,-0.5243,0.12978,0.12049,-0.0187
-9.4,-0.5211,0.12824,0.11895,-0.0189
-9.3,-0.5178,0.12675,0.11747,-0.0191
-9.2,-0.5145,0.12528,0.11602,-0.0194
-9.1,-0.5111,0.12386,0.11461,-0.0197
-9,-0.5077,0.12246,0.11322,-0.0201
-8.9,-0.5044,0.12109,0.11187,-0.0204
-8.8,-0.501,0.11974,0.11053,-0.0208
-8.7,-0.4976,0.11841,0.10921,-0.0212
-8.6,-0.4942,0.11709,0.10791,-0.0216
-8.5,-0.4908,0.11579,0.10662,-0.0221
-8.4,-0.4874,0.1145,0.10534,-0.0225
-8.3,-0.4841,0.11322,0.10402,-0.023
-8.2,-0.4807,0.11195,0.10277,-0.0234
-8.1,-0.4772,0.11069,0.10153,-0.0239
-8,-0.4738,0.10944,0.10029,-0.0243
-7.9,-0.4704,0.1082,0.09907,-0.0248
-7.8,-0.467,0.10696,0.09784,-0.0253
-7.7,-0.4635,0.10572,0.09662,-0.0258
-7.6,-0.4599,0.10448,0.0954,-0.0263
-7.5,-0.4563,0.10324,0.09418,-0.0268
-7.3,-0.4488,0.10075,0.09173,-0.028
-7.2,-0.445,0.09951,0.0905,-0.0286
-7.1,-0.441,0.09825,0.08926,-0.0292
-7,-0.4369,0.09698,0.08801,-0.0299
-6.9,-0.4326,0.0957,0.08674,-0.0307
-6.7,-0.4234,0.09308,0.08414,-0.0324
-6.6,-0.4184,0.09174,0.0828,-0.0334
-6.5,-0.413,0.09034,0.08141,-0.0346
-6.3,-0.3922,0.08645,0.07755,-0.0431
-6.2,-0.3883,0.08522,0.07634,-0.0429
-6.1,-0.3841,0.084,0.07513,-0.0428
-6,-0.3796,0.08279,0.07393,-0.0429
-5.9,-0.3748,0.08158,0.07272,-0.0431
-5.8,-0.3698,0.08037,0.07151,-0.0433
-5.7,-0.3644,0.07915,0.07029,-0.0437
-5.6,-0.3587,0.07792,0.06906,-0.0441
-5.5,-0.3528,0.07668,0.06781,-0.0446
-5.3,-0.3396,0.07414,0.06525,-0.0459
-5.2,-0.3325,0.07285,0.06394,-0.0467
-5.1,-0.325,0.07152,0.06259,-0.0476
-5,-0.3169,0.07016,0.06115,-0.0486
-4.9,-0.3083,0.06876,0.05971,-0.0497
-4.8,-0.2987,0.06728,0.05819,-0.0511
-4.7,-0.2883,0.06572,0.05657,-0.0528
-4.6,-0.2761,0.06398,0.05475,-0.0549
-4.5,-0.2607,0.06184,0.05247,-0.0581
-4.4,-0.2364,0.05847,0.04886,-0.0642
-4.3,-0.2302,0.05758,0.048,-0.064
-4.2,-0.2232,0.05668,0.04711,-0.0639
-4.1,-0.2154,0.05575,0.04617,-0.0641
-4,-0.2068,0.05478,0.04518,-0.0645
-3.9,-0.1975,0.05376,0.04412,-0.065
-3.8,-0.1872,0.05267,0.04298,-0.0658
-3.7,-0.1759,0.05151,0.04174,-0.0669
-3.5,-0.1377,0.04762,0.03728,-0.0733
-3.4,-0.1177,0.04545,0.03484,-0.0765
-3.3,-0.1096,0.04479,0.03421,-0.0764
-3.2,-0.1005,0.0441,0.03353,-0.0765
-3.1,-0.0903,0.04336,0.03275,-0.0768
-2.9,-0.0661,0.04154,0.03067,-0.0784
-2.8,-0.051,0.04031,0.02921,-0.0799
-2.7,-0.0266,0.03811,0.02634,-0.0834
-2.6,-0.0176,0.03763,0.02595,-0.0833
-2.5,-0.0077,0.03715,0.02549,-0.0834
-2.4,0.0023,0.03691,0.0252,-0.0836
-2.3,0.0188,0.03584,0.02377,-0.085
-2.2,0.0349,0.03483,0.02244,-0.0863
-2.1,0.045,0.03443,0.0221,-0.0863
-2,0.0562,0.03397,0.0216,-0.0866
-1.9,0.0695,0.03336,0.02079,-0.0872
-1.8,0.0856,0.03255,0.01959,-0.0882
-1.6,0.1076,0.03205,0.01897,-0.0886
-1.5,0.121,0.03156,0.01827,-0.0892
-1.4,0.1323,0.03123,0.01797,-0.0894
-1.3,0.1455,0.03084,0.01736,-0.0899
-1.2,0.1582,0.03048,0.01691,-0.0903
-1.1,0.1694,0.03044,0.01669,-0.0905
-1,0.1811,0.03012,0.01643,-0.0908
-0.9,0.1932,0.02985,0.01608,-0.091
-0.8,0.2057,0.02959,0.01571,-0.0914
-0.7,0.2174,0.02934,0.01546,-0.0916
-0.5,0.2406,0.02912,0.01507,-0.0921
-0.4,0.253,0.02886,0.01486,-0.0925
-0.3,0.2689,0.02863,0.01458,-0.0935
-0.2,0.2838,0.02846,0.01425,-0.0943
-0.1,0.298,0.02829,0.01421,-0.0951
0,0.3129,0.02811,0.01401,-0.0959
0.1,0.3289,0.02787,0.01381,-0.097
0.2,0.3427,0.02762,0.01376,-0.0978
0.3,0.357,0.02739,0.01364,-0.0985
0.4,0.3715,0.02717,0.01355,-0.0993
0.5,0.3873,0.02695,0.01348,-0.1003
0.6,0.4017,0.02661,0.01349,-0.1012
0.7,0.4163,0.02632,0.01347,-0.102
0.8,0.4298,0.02588,0.01344,-0.1025
0.9,0.4334,0.02603,0.01292,-0.0994
1,0.4489,0.02625,0.01294,-0.1002
1.1,0.4628,0.02641,0.01295,-0.1008
1.2,0.4763,0.0266,0.01302,-0.1014
1.3,0.4908,0.0268,0.0131,-0.1021
1.4,0.5073,0.027,0.0132,-0.1032
1.5,0.5211,0.0272,0.01331,-0.1038
1.6,0.5327,0.02737,0.01343,-0.104
1.7,0.5475,0.02756,0.01357,-0.1048
1.8,0.5625,0.02777,0.01373,-0.1057
1.9,0.5782,0.02798,0.01391,-0.1066
2,0.5884,0.02813,0.01405,-0.1066
2.1,0.602,0.02833,0.01424,-0.1072
2.2,0.6183,0.02852,0.01442,-0.1082
2.3,0.6338,0.02873,0.01463,-0.1091
2.4,0.6428,0.02889,0.01487,-0.1088
2.5,0.657,0.02909,0.0151,-0.1095
2.6,0.6726,0.0293,0.01533,-0.1104
2.7,0.6832,0.02947,0.01552,-0.1104
2.8,0.696,0.02967,0.01577,-0.1108
2.9,0.7125,0.02983,0.01599,-0.1118
3,0.723,0.03,0.0162,-0.1117
3.1,0.7358,0.03019,0.01646,-0.1121
3.2,0.753,0.03033,0.01668,-0.1131
3.3,0.7616,0.0305,0.01691,-0.1126
3.4,0.7761,0.03038,0.01686,-0.1125
3.5,0.7903,0.03028,0.01684,-0.1123
3.6,0.8026,0.03002,0.01664,-0.1114
3.7,0.814,0.02998,0.01668,-0.1108
3.8,0.8304,0.02997,0.0169,-0.1113
3.9,0.8412,0.02986,0.01687,-0.1104
4,0.8486,0.02998,0.01709,-0.1095
4.1,0.8599,0.0298,0.01699,-0.1085
4.2,0.8682,0.02986,0.01716,-0.1075
4.3,0.8745,0.02975,0.01712,-0.1058
4.4,0.8832,0.02978,0.01726,-0.1048
4.5,0.8913,0.02981,0.01741,-0.1037
4.6,0.8968,0.02971,0.01738,-0.1017
4.7,0.9051,0.02974,0.01754,-0.1007
4.9,0.9266,0.02942,0.01747,-0.0984
5,0.951,0.02868,0.01688,-0.0982
5.1,0.9878,0.0276,0.01597,-0.0993
5.2,1.0241,0.02679,0.01501,-0.0999
5.3,1.0367,0.02712,0.01495,-0.0988
5.4,1.046,0.02763,0.01532,-0.0979
5.5,1.0544,0.02822,0.01577,-0.097
5.6,1.0624,0.02884,0.01629,-0.0961
5.7,1.0672,0.02961,0.01675,-0.0949
5.8,1.0749,0.03032,0.01736,-0.0942
5.9,1.0829,0.03104,0.01802,-0.0935
6.1,1.0961,0.03259,0.0193,-0.0919
6.2,1.1046,0.03333,0.02009,-0.0913
6.3,1.1136,0.03412,0.0209,-0.0908
6.5,1.1278,0.0356,0.02231,-0.0896
6.6,1.1368,0.03641,0.02326,-0.0891
6.7,1.1459,0.03724,0.02418,-0.0887
6.8,1.155,0.03811,0.02504,-0.0883
7,1.1679,0.03949,0.02654,-0.0869
7.1,1.1767,0.04037,0.02749,-0.0865
7.2,1.1854,0.04129,0.02843,-0.086
7.3,1.1939,0.04225,0.02958,-0.0855
7.4,1.2029,0.04319,0.03046,-0.0852
7.5,1.2056,0.04369,0.03115,-0.0841
7.6,1.214,0.0446,0.032,-0.0837
7.7,1.2214,0.04575,0.03338,-0.0831
7.8,1.229,0.04684,0.03464,-0.0826
7.9,1.2372,0.04784,0.03562,-0.0822
8,1.2446,0.04899,0.03679,-0.0817
8.1,1.2503,0.05034,0.03848,-0.081
8.2,1.2569,0.05154,0.03983,-0.0804

