airfoilName st22.dat
Re 	910000
M 	2.500000e-01
N 	4.500000e+00
VACC 	0 VACCflag 1
XTR 	1.00 	1.00 XTRflag 0
alpha,cl,cd,cdp,cm
-15.7,-0.7739,0.21164,0.21015,0.0492
-15.6,-0.7724,0.20864,0.20715,0.0489
-15.5,-0.77,0.20606,0.20456,0.0483
-15.4,-0.767,0.20387,0.20238,0.0476
-15.3,-0.7637,0.20188,0.20037,0.0467
-15.2,-0.7602,0.19999,0.19849,0.0457
-15.1,-0.7567,0.19817,0.19666,0.0448
-15,-0.753,0.19639,0.19488,0.0438
-14.9,-0.7493,0.19466,0.19315,0.0429
-14.8,-0.7456,0.19295,0.19144,0.0419
-14.7,-0.7418,0.19126,0.18975,0.0409
-14.6,-0.738,0.18959,0.18808,0.0399
-14.5,-0.7341,0.18794,0.18643,0.0389
-14.4,-0.7303,0.1863,0.18479,0.038
-14.3,-0.7264,0.18467,0.18316,0.037
-14.2,-0.7225,0.18306,0.18154,0.036
-14.1,-0.7186,0.18144,0.17993,0.035
-14,-0.7147,0.17984,0.17833,0.034
-13.9,-0.7108,0.17825,0.17673,0.0331
-13.8,-0.7068,0.17666,0.17514,0.0321
-13.7,-0.7028,0.17508,0.17356,0.0311
-13.6,-0.6988,0.17349,0.17197,0.0301
-13.5,-0.6948,0.17192,0.17041,0.0291
-13.4,-0.6908,0.17035,0.16884,0.0281
-13.3,-0.6867,0.16878,0.16726,0.0272
-13.2,-0.6826,0.16722,0.1657,0.0262
-13.1,-0.6786,0.16567,0.16415,0.0252
-13,-0.6745,0.16412,0.1626,0.0242
-12.9,-0.6704,0.16257,0.16106,0.0233
-12.8,-0.6663,0.16104,0.15952,0.0223
-12.6,-0.6576,0.15833,0.15682,0.0201
-12.5,-0.6535,0.15677,0.15526,0.0191
-12.4,-0.6494,0.15522,0.15371,0.0182
-12.3,-0.6452,0.15367,0.15216,0.0172
-12.2,-0.641,0.15213,0.15061,0.0163
-12.1,-0.6368,0.15058,0.14906,0.0153
-12,-0.6327,0.14905,0.14753,0.0144
-11.9,-0.6285,0.14752,0.146,0.0134
-11.8,-0.6243,0.14599,0.14447,0.0125
-11.7,-0.6201,0.14446,0.14295,0.0116
-11.6,-0.6159,0.14295,0.14143,0.0106
-11.5,-0.6116,0.14144,0.13992,0.0097
-11.4,-0.6074,0.13992,0.13841,0.0088
-11.3,-0.6031,0.1384,0.13689,0.0078
-11.2,-0.5988,0.13689,0.13538,0.0069
-11.1,-0.5945,0.13537,0.13387,0.0059
-11,-0.5903,0.13386,0.13236,0.005
-10.9,-0.586,0.13235,0.13085,0.0041
-10.8,-0.5818,0.13085,0.12934,0.0032
-10.7,-0.5775,0.12933,0.12783,0.0022
-10.6,-0.5732,0.1278,0.1263,0.0013
-10.5,-0.5689,0.12623,0.12473,0.0004
-10.4,-0.5647,0.12468,0.12318,-0.0005
-10.3,-0.5604,0.12306,0.12157,-0.0015
-10.2,-0.5562,0.12135,0.11986,-0.0024
-10.1,-0.552,0.11941,0.11793,-0.0034
-10,-0.5471,0.11674,0.11525,-0.0046
-9.9,-0.5415,0.1148,0.11332,-0.0058
-9.8,-0.5358,0.11327,0.11179,-0.0071
-9.6,-0.5266,0.11014,0.10869,-0.0092
-9.5,-0.5258,0.10828,0.10684,-0.0094
-9.4,-0.5239,0.10675,0.1053,-0.0098
-9.3,-0.5216,0.10542,0.10398,-0.0102
-9.2,-0.5196,0.10422,0.10278,-0.0105
-9.1,-0.5182,0.10315,0.10172,-0.0106
-9,-0.5177,0.10222,0.10079,-0.0105
-8.9,-0.5157,0.10115,0.09973,-0.0108
-8.8,-0.5088,0.09964,0.09822,-0.0125
-8.7,-0.5016,0.09815,0.09673,-0.0142
-8.6,-0.4942,0.09667,0.09524,-0.0161
-8.4,-0.4777,0.09361,0.09216,-0.0202
-8.3,-0.4702,0.09217,0.09071,-0.022
-8.2,-0.4616,0.09065,0.08919,-0.0241
-8.1,-0.4523,0.08909,0.08763,-0.0265
-8,-0.4428,0.08754,0.08606,-0.0288
-7.9,-0.4328,0.08596,0.08448,-0.0313
-7.8,-0.423,0.08441,0.08292,-0.0337
-7.7,-0.4141,0.08293,0.08143,-0.0358
-7.6,-0.4045,0.0814,0.0799,-0.0381
-7.5,-0.3944,0.07985,0.07834,-0.0405
-7.4,-0.3831,0.07844,0.07692,-0.0432
-7.3,-0.372,0.07679,0.07526,-0.0458
-7.2,-0.3618,0.07521,0.07367,-0.0481
-7.1,-0.3523,0.07371,0.07216,-0.0503
-7,-0.342,0.07214,0.07058,-0.0526
-6.9,-0.331,0.07052,0.06895,-0.055
-6.8,-0.3193,0.06885,0.06727,-0.0577
-6.7,-0.3074,0.06718,0.06557,-0.0603
-6.6,-0.2965,0.06557,0.06396,-0.0627
-6.5,-0.2855,0.06395,0.06233,-0.065
-6.4,-0.2738,0.06228,0.06063,-0.0675
-5.6,-0.1002,0.01704,0.01392,-0.1267
-5.5,-0.0854,0.01452,0.01105,-0.1286
-5.4,-0.0725,0.01348,0.00982,-0.1294
-5.3,-0.0598,0.01272,0.00892,-0.1299
-5.2,-0.0474,0.01213,0.0082,-0.1302
-5.1,-0.035,0.01163,0.00758,-0.1305
-5,-0.0227,0.01121,0.00707,-0.1307
-4.9,-0.0104,0.01084,0.00659,-0.1308
-4.8,0.0018,0.01052,0.00618,-0.1309
-4.7,0.014,0.01022,0.0058,-0.131
-4.6,0.026,0.00995,0.00545,-0.1311
-4.5,0.0379,0.0097,0.00513,-0.1311
-4.4,0.0501,0.00946,0.00484,-0.1311
-4.3,0.0621,0.00925,0.00456,-0.1311
-4.2,0.0738,0.00905,0.00429,-0.1311
-4.1,0.0859,0.00887,0.00405,-0.1311
-4,0.0979,0.00869,0.00382,-0.1311
-3.9,0.11,0.00852,0.00361,-0.1311
-3.7,0.1337,0.00837,0.00339,-0.1311
-3.6,0.1456,0.00826,0.00323,-0.1311
-3.5,0.1576,0.00804,0.00295,-0.1311
-3.4,0.1698,0.00783,0.00269,-0.1311
-3.3,0.1818,0.0077,0.00253,-0.1311
-3.2,0.1938,0.00759,0.0024,-0.1311
-3.1,0.2056,0.0075,0.00228,-0.1311
-3,0.2175,0.00742,0.00217,-0.131
-2.9,0.2294,0.00735,0.00206,-0.131
-2.8,0.2413,0.00728,0.00197,-0.131
-2.7,0.2532,0.0072,0.00187,-0.131
-2.6,0.2651,0.00713,0.00179,-0.131
-2.5,0.2769,0.00708,0.00172,-0.131
-2.4,0.2886,0.00703,0.00164,-0.1309
-2.3,0.3005,0.00699,0.00159,-0.1309
-2.2,0.3123,0.00693,0.00152,-0.1309
-2.1,0.3241,0.00689,0.00147,-0.1309
-2,0.3359,0.00685,0.00143,-0.1309
-1.9,0.3476,0.00682,0.00138,-0.1309
-1.8,0.3593,0.00678,0.00133,-0.1308
-1.7,0.3705,0.00676,0.00129,-0.1306
-1.6,0.3821,0.00675,0.00125,-0.1306
-1.5,0.3938,0.00671,0.00123,-0.1306
-1.4,0.4054,0.00669,0.00119,-0.1305
-1.3,0.4167,0.0067,0.00116,-0.1304
-1.2,0.4286,0.00667,0.00112,-0.1304
-1.1,0.44,0.00667,0.00109,-0.1303
-1,0.4516,0.00666,0.00108,-0.1303
-0.8,0.4747,0.00665,0.00104,-0.1301
-0.7,0.4862,0.00665,0.00103,-0.1301
-0.6,0.4978,0.00666,0.00102,-0.1301
-0.4,0.5205,0.00669,0.001,-0.1299
-0.3,0.5319,0.00672,0.001,-0.1298
-0.2,0.5435,0.00672,0.00099,-0.1298
-0.1,0.5546,0.00677,0.00099,-0.1296
0,0.5658,0.00681,0.001,-0.1295
0.1,0.5773,0.00684,0.001,-0.1294
0.2,0.5887,0.00686,0.001,-0.1294
0.3,0.599,0.00699,0.00103,-0.1291
0.4,0.6102,0.00705,0.00105,-0.129
0.5,0.6209,0.00716,0.00107,-0.1288
0.6,0.632,0.00723,0.0011,-0.1287
0.7,0.6427,0.00734,0.00113,-0.1285
0.8,0.6528,0.00754,0.0012,-0.1283
0.9,0.6638,0.00762,0.00124,-0.1282
1,0.6748,0.00771,0.00128,-0.128
1.1,0.6854,0.00785,0.00133,-0.1279
1.2,0.6959,0.00801,0.00139,-0.1277
1.3,0.7051,0.00834,0.00151,-0.1273
1.4,0.7158,0.00848,0.00156,-0.1272
1.5,0.7264,0.00862,0.00165,-0.1271
1.6,0.7369,0.00879,0.00172,-0.1269
1.8,0.7563,0.00936,0.00195,-0.1264
1.9,0.7671,0.00949,0.00202,-0.1262
2,0.778,0.00958,0.00208,-0.1261
2.1,0.7891,0.00967,0.00215,-0.126
2.2,0.7998,0.0098,0.00223,-0.1259
2.3,0.8109,0.00987,0.00228,-0.1258
2.4,0.8221,0.00993,0.00235,-0.1257
2.5,0.8333,0.00999,0.0024,-0.1257
2.6,0.8445,0.01006,0.00247,-0.1256
2.7,0.8553,0.01016,0.00255,-0.1255
2.8,0.8614,0.00885,0.00274,-0.1247
2.9,0.8726,0.00894,0.00279,-0.1246
3,0.8837,0.00903,0.00288,-0.1245
3.1,0.8949,0.00911,0.00294,-0.1244
3.2,0.9057,0.00925,0.00302,-0.1242
3.3,0.9168,0.00934,0.00308,-0.1241
3.4,0.9279,0.00943,0.00315,-0.124
3.5,0.9385,0.00958,0.00324,-0.1238
3.6,0.9497,0.00967,0.00331,-0.1237
3.7,0.9607,0.00977,0.00338,-0.1235
3.8,0.9716,0.00988,0.00347,-0.1234
3.9,0.9827,0.00997,0.00354,-0.1233
4,0.9936,0.01009,0.00363,-0.1231
4.1,1.0046,0.01019,0.00372,-0.1229
4.2,1.0151,0.01035,0.00383,-0.1227
4.3,1.0261,0.01045,0.00391,-0.1226
4.4,1.0369,0.01057,0.00403,-0.1224
4.5,1.0477,0.0107,0.00414,-0.1222
4.6,1.0583,0.01085,0.00425,-0.122
4.7,1.069,0.01098,0.00437,-0.1218
4.8,1.0799,0.01109,0.00447,-0.1216
4.9,1.0906,0.01121,0.00457,-0.1214
5,1.1013,0.01136,0.00469,-0.1211
5.1,1.1121,0.01147,0.00482,-0.1209
5.2,1.1229,0.0116,0.00493,-0.1207
5.3,1.1335,0.01173,0.00506,-0.1205
5.4,1.1441,0.01188,0.00519,-0.1202
5.5,1.1549,0.012,0.00533,-0.12
5.6,1.1656,0.01213,0.00545,-0.1197
5.7,1.1763,0.01226,0.00561,-0.1195
5.8,1.1865,0.01244,0.00576,-0.1192
5.9,1.1972,0.01258,0.00592,-0.1189
6,1.2078,0.01271,0.00606,-0.1187
6.1,1.2183,0.01287,0.00621,-0.1184
6.2,1.2287,0.01303,0.00637,-0.1181
6.3,1.2389,0.01322,0.00655,-0.1177
6.4,1.2494,0.01336,0.00671,-0.1174
6.5,1.2599,0.01352,0.00687,-0.1171
6.6,1.2702,0.01368,0.00704,-0.1168
6.7,1.2804,0.01387,0.00723,-0.1165
6.8,1.2907,0.01405,0.00743,-0.1161
6.9,1.301,0.01421,0.00761,-0.1158
7,1.3113,0.01438,0.00779,-0.1154
7.1,1.3215,0.01456,0.008,-0.1151
7.2,1.3316,0.01476,0.00821,-0.1147
7.3,1.3414,0.01498,0.00845,-0.1142
7.4,1.3516,0.01516,0.00866,-0.1139
7.5,1.3617,0.01535,0.00888,-0.1134
7.6,1.3716,0.01556,0.00911,-0.113
7.7,1.3815,0.01577,0.00935,-0.1126
7.8,1.3912,0.01601,0.00961,-0.1121
7.9,1.4006,0.01628,0.00991,-0.1116
8,1.4102,0.01654,0.01021,-0.1111
8.1,1.4197,0.0168,0.01052,-0.1105
8.2,1.4295,0.01699,0.01071,-0.1101
8.3,1.4389,0.01726,0.01103,-0.1096
8.4,1.4481,0.01754,0.01135,-0.109
8.5,1.4572,0.01784,0.01171,-0.1084
8.6,1.4661,0.01816,0.01208,-0.1078
8.7,1.4747,0.01852,0.01249,-0.1071
8.8,1.4829,0.01893,0.01297,-0.1063
8.9,1.4905,0.01942,0.01354,-0.1055
9,1.499,0.01977,0.01393,-0.1048
9.1,1.5073,0.02013,0.01436,-0.1041
9.2,1.5153,0.02052,0.01482,-0.1033
9.3,1.5231,0.02094,0.01531,-0.1025
9.4,1.5305,0.02138,0.01584,-0.1016
9.5,1.5377,0.02185,0.01638,-0.1007
9.6,1.5446,0.02234,0.01695,-0.0998
9.7,1.5511,0.02286,0.01756,-0.0988
9.8,1.5572,0.0234,0.01819,-0.0978
9.9,1.563,0.02397,0.01885,-0.0967
10,1.5684,0.02456,0.01953,-0.0955
10.1,1.5733,0.02518,0.02025,-0.0943
10.2,1.5776,0.02583,0.021,-0.0931
10.3,1.5814,0.02649,0.02176,-0.0918
10.4,1.5844,0.02719,0.02257,-0.0903
10.5,1.5866,0.0279,0.02339,-0.0888
10.6,1.5877,0.02861,0.0242,-0.0871
10.7,1.5878,0.02934,0.02502,-0.0852
10.8,1.5875,0.03009,0.02587,-0.0833
10.9,1.5866,0.0309,0.02677,-0.0815
11,1.5853,0.03174,0.02772,-0.0797
11.1,1.5837,0.03262,0.0287,-0.0779
11.2,1.5816,0.03354,0.02972,-0.0761
11.3,1.579,0.03452,0.0308,-0.0744
11.4,1.5761,0.03554,0.03192,-0.0728
11.5,1.5726,0.03661,0.0331,-0.0712
11.6,1.5685,0.03776,0.03434,-0.0696
11.7,1.5642,0.03894,0.03562,-0.0682
11.8,1.5592,0.04021,0.037,-0.0669
11.9,1.5541,0.04152,0.0384,-0.0657
12,1.5485,0.0429,0.03988,-0.0647
12.1,1.5422,0.0444,0.04147,-0.0638
12.2,1.5362,0.04593,0.04309,-0.0631
12.3,1.5293,0.0476,0.04486,-0.0625
12.4,1.5223,0.04933,0.04668,-0.0622
12.5,1.515,0.05118,0.04862,-0.0622
12.6,1.5074,0.05317,0.0507,-0.0624
12.7,1.4996,0.0553,0.05291,-0.063
12.8,1.4916,0.0576,0.0553,-0.0639
12.9,1.4839,0.06,0.05778,-0.0652
13,1.4751,0.06273,0.06059,-0.067
13.1,1.4672,0.0656,0.06355,-0.0693
13.2,1.459,0.06885,0.06688,-0.0723
13.4,1.4416,0.07726,0.07547,-0.0814
13.5,1.4334,0.08302,0.08135,-0.0881
13.6,1.4219,0.09296,0.09146,-0.0984
13.8,1.3952,0.10784,0.10648,-0.1109
14.1,1.3628,0.12506,0.12376,-0.1246
14.2,1.3538,0.13036,0.12908,-0.1287
14.3,1.345,0.1357,0.13444,-0.1328
14.4,1.338,0.14055,0.13932,-0.1365
14.5,1.33,0.14593,0.14472,-0.1405
14.6,1.3241,0.15063,0.14944,-0.144
14.7,1.3165,0.15608,0.15491,-0.148
14.9,1.3032,0.16701,0.16589,-0.1558
15,1.2965,0.17301,0.1719,-0.1599
15.1,1.2862,0.18144,0.18035,-0.1651
15.2,1.2802,0.18837,0.18728,-0.1691
15.3,1.2789,0.19289,0.19179,-0.1718
15.4,1.2796,0.19626,0.19516,-0.174
15.5,1.2809,0.19926,0.19816,-0.1759
15.6,1.2826,0.20199,0.20089,-0.1778
15.7,1.2847,0.20453,0.20344,-0.1795
15.8,1.2868,0.20698,0.20589,-0.1812
15.9,1.2892,0.20929,0.20819,-0.1829
16,1.2917,0.2116,0.2105,-0.1845
16.1,1.2943,0.21377,0.21267,-0.1861
16.2,1.297,0.21587,0.21478,-0.1877
16.3,1.2997,0.21796,0.21686,-0.1892
16.4,1.3026,0.21992,0.21883,-0.1908
16.5,1.3054,0.22194,0.22084,-0.1923
16.6,1.3084,0.22384,0.22275,-0.1938
16.7,1.3113,0.22575,0.22466,-0.1954
16.8,1.3142,0.22764,0.22655,-0.1969
16.9,1.3171,0.22949,0.2284,-0.1984
17,1.32,0.23133,0.23024,-0.1999
17.1,1.3228,0.23314,0.23205,-0.2014
17.2,1.3253,0.23498,0.2339,-0.2029
17.3,1.3269,0.23748,0.23637,-0.2046
17.4,1.3306,0.24064,0.23954,-0.2062
17.5,1.334,0.2435,0.2424,-0.2078
17.6,1.3377,0.24725,0.24615,-0.2094
17.7,1.3413,0.25049,0.24938,-0.211
17.8,1.3449,0.25396,0.25286,-0.2126
17.9,1.3484,0.25658,0.25547,-0.214
18,1.3519,0.25898,0.25787,-0.2155
18.1,1.3554,0.26137,0.26027,-0.217
18.2,1.3589,0.26373,0.26263,-0.2185
18.3,1.3625,0.26601,0.26491,-0.22
18.4,1.366,0.26822,0.26712,-0.2214
18.5,1.3695,0.27042,0.26932,-0.2229
18.6,1.3731,0.27256,0.27147,-0.2244
18.7,1.3766,0.27471,0.27361,-0.2258
18.8,1.3801,0.27682,0.27572,-0.2273
18.9,1.3836,0.27893,0.27784,-0.2288
19,1.3871,0.28103,0.27994,-0.2302
19.1,1.3906,0.2831,0.28201,-0.2317
19.2,1.3941,0.28517,0.28408,-0.2332
19.3,1.3976,0.28721,0.28612,-0.2347
19.4,1.4012,0.28928,0.28819,-0.2362
19.5,1.4047,0.29133,0.29025,-0.2376
19.6,1.4082,0.29336,0.29228,-0.2391
19.7,1.4117,0.29539,0.29432,-0.2406
19.8,1.4152,0.29743,0.29636,-0.2421
19.9,1.4187,0.29945,0.29838,-0.2436
20,1.4222,0.30147,0.30041,-0.2451
20.1,1.4257,0.30349,0.30243,-0.2466
20.2,1.4292,0.30551,0.30446,-0.2481
20.3,1.4326,0.30751,0.30646,-0.2496
20.4,1.4361,0.30954,0.30849,-0.2512
20.5,1.4396,0.3115,0.31046,-0.2527
20.6,1.4431,0.31354,0.3125,-0.2542
20.7,1.4466,0.31557,0.31453,-0.2557
20.8,1.45,0.31755,0.31652,-0.2573
20.9,1.4535,0.31958,0.31855,-0.2588
21,1.4569,0.32157,0.32054,-0.2604
21.1,1.4604,0.32359,0.32256,-0.2619
21.2,1.4638,0.32561,0.32458,-0.2635
21.3,1.4672,0.3276,0.32658,-0.265
21.4,1.4707,0.32961,0.32859,-0.2666
21.5,1.4741,0.33158,0.33056,-0.2682
21.6,1.4775,0.33362,0.33261,-0.2698
21.7,1.4809,0.33561,0.3346,-0.2713
21.8,1.4843,0.33762,0.33661,-0.2729
21.9,1.4877,0.33959,0.33859,-0.2745
22,1.4911,0.34165,0.34065,-0.2761
22.1,1.4944,0.34367,0.34267,-0.2777
22.3,1.5011,0.34719,0.3462,-0.281
22.4,1.5044,0.34915,0.34816,-0.2827
22.5,1.5077,0.35112,0.35013,-0.2843
22.6,1.511,0.3531,0.35212,-0.2859
22.7,1.5143,0.35504,0.35406,-0.2875
22.8,1.5176,0.35705,0.35607,-0.2892
22.9,1.5208,0.359,0.35803,-0.2908
23,1.5241,0.36097,0.36,-0.2925
23.1,1.5273,0.36294,0.36197,-0.2941
23.2,1.5306,0.36493,0.36397,-0.2958
23.3,1.5338,0.36692,0.36597,-0.2974
23.4,1.537,0.36888,0.36794,-0.2991
23.5,1.5402,0.37086,0.36992,-0.3008
23.6,1.5433,0.37281,0.37187,-0.3025
23.7,1.5465,0.37481,0.37388,-0.3041
23.8,1.5496,0.37681,0.37588,-0.3058
23.9,1.5528,0.37883,0.3779,-0.3075
24,1.5559,0.38082,0.3799,-0.3092
24.1,1.5589,0.38279,0.38187,-0.3109
24.2,1.562,0.38484,0.38393,-0.3126
24.3,1.5651,0.38685,0.38595,-0.3143
24.4,1.5681,0.3889,0.38799,-0.316
24.5,1.5711,0.39097,0.39007,-0.3177
24.6,1.5741,0.39307,0.39217,-0.3194
24.7,1.5771,0.39522,0.39432,-0.3211
24.8,1.58,0.3974,0.39651,-0.3228
24.9,1.5829,0.39969,0.3988,-0.3244
25,1.5858,0.40208,0.4012,-0.3261
25.1,1.5886,0.40449,0.40361,-0.3277
25.2,1.5914,0.40719,0.40631,-0.3293
25.3,1.5939,0.41012,0.40925,-0.3308
25.4,1.5967,0.41269,0.41182,-0.3324
25.5,1.5993,0.41562,0.41476,-0.3338
25.9,1.6172,0.42599,0.42511,-0.3431
26,1.6216,0.42942,0.42854,-0.3452
26.1,1.6256,0.43262,0.43174,-0.3472
26.2,1.6293,0.43558,0.4347,-0.3492
26.3,1.6326,0.43814,0.43727,-0.3511
26.4,1.6356,0.44046,0.43959,-0.3529
26.5,1.639,0.44304,0.44217,-0.3549
26.6,1.642,0.44542,0.44455,-0.3568
26.7,1.6454,0.4479,0.44704,-0.3588
26.8,1.6483,0.45015,0.44929,-0.3607
26.9,1.6514,0.4525,0.45166,-0.3626
27,1.6544,0.4548,0.45396,-0.3646
27.1,1.6574,0.45708,0.45624,-0.3665
27.2,1.6603,0.45935,0.45852,-0.3684
27.3,1.6632,0.46164,0.46081,-0.3703
27.4,1.6661,0.46387,0.46304,-0.3723
27.5,1.669,0.46615,0.46532,-0.3742
27.6,1.6718,0.46841,0.46759,-0.3761
27.7,1.6747,0.47062,0.4698,-0.3782
27.8,1.6775,0.47289,0.47207,-0.3801
27.9,1.6803,0.47511,0.4743,-0.3821
28,1.6831,0.47735,0.47654,-0.384
28.1,1.6859,0.47958,0.47878,-0.386
28.2,1.6886,0.48179,0.48099,-0.388
28.3,1.6913,0.48407,0.48327,-0.39
28.4,1.6939,0.48629,0.48549,-0.3919
28.5,1.6966,0.48852,0.48773,-0.3939
28.6,1.6993,0.49077,0.48998,-0.3959
28.7,1.7019,0.49296,0.49218,-0.3979
28.8,1.7045,0.49516,0.49438,-0.3999
28.9,1.7071,0.49745,0.49668,-0.4019
29,1.7097,0.49963,0.49886,-0.4039
29.1,1.7123,0.50186,0.5011,-0.406
29.2,1.7148,0.5041,0.50334,-0.408
29.3,1.7173,0.50638,0.50562,-0.41
29.4,1.7198,0.50861,0.50785,-0.412
29.6,1.7248,0.51231,0.51156,-0.4163
29.7,1.7272,0.51451,0.51377,-0.4183
29.8,1.7296,0.51668,0.51594,-0.4204
29.9,1.732,0.51882,0.51809,-0.4225
30,1.7344,0.52107,0.52035,-0.4245

