airfoilName st22.dat
Re 	850000
M 	2.500000e-01
N 	4.500000e+00
VACC 	0 VACCflag 1
XTR 	1.00 	1.00 XTRflag 0
alpha,cl,cd,cdp,cm
-15.8,-0.7782,0.21326,0.21171,0.0504
-15.7,-0.7766,0.21027,0.20872,0.0501
-15.6,-0.7739,0.20792,0.20636,0.0494
-15.5,-0.7708,0.20581,0.20425,0.0485
-15.4,-0.7674,0.20386,0.2023,0.0476
-15.3,-0.7639,0.202,0.20042,0.0467
-15.2,-0.7603,0.20019,0.19862,0.0457
-15.1,-0.7566,0.19844,0.19686,0.0448
-15,-0.7529,0.1967,0.19513,0.0438
-14.9,-0.7491,0.195,0.19343,0.0428
-14.8,-0.7453,0.19333,0.19175,0.0418
-14.7,-0.7415,0.19165,0.19007,0.0408
-14.6,-0.7377,0.19,0.18842,0.0398
-14.5,-0.7338,0.18835,0.18677,0.0388
-14.4,-0.7299,0.18672,0.18514,0.0378
-14.3,-0.7261,0.18509,0.18351,0.0368
-14.2,-0.7222,0.18348,0.1819,0.0359
-14.1,-0.7182,0.18187,0.18029,0.0349
-14,-0.7143,0.18027,0.17869,0.0339
-13.9,-0.7104,0.17868,0.1771,0.0329
-13.8,-0.7064,0.17709,0.1755,0.0319
-13.7,-0.7024,0.1755,0.17392,0.0309
-13.6,-0.6984,0.17391,0.17233,0.0299
-13.5,-0.6943,0.17234,0.17076,0.029
-13.4,-0.6903,0.17077,0.16918,0.028
-13.3,-0.6862,0.16919,0.1676,0.027
-13.2,-0.6822,0.16762,0.16604,0.026
-13.1,-0.6781,0.16606,0.16448,0.025
-13,-0.674,0.16451,0.16293,0.0241
-12.9,-0.6699,0.16295,0.16137,0.0231
-12.7,-0.6612,0.16022,0.15864,0.0208
-12.6,-0.6571,0.15865,0.15707,0.0199
-12.5,-0.653,0.15708,0.1555,0.0189
-12.4,-0.6489,0.15552,0.15395,0.018
-12.3,-0.6447,0.15396,0.15238,0.017
-12.2,-0.6405,0.15241,0.15082,0.0161
-12.1,-0.6363,0.15086,0.14927,0.0151
-12,-0.6322,0.14931,0.14772,0.0142
-11.9,-0.628,0.14777,0.14618,0.0132
-11.8,-0.6238,0.14623,0.14465,0.0123
-11.7,-0.6196,0.14469,0.14311,0.0114
-11.6,-0.6154,0.14317,0.14159,0.0104
-11.5,-0.6111,0.14164,0.14006,0.0095
-11.4,-0.6069,0.14011,0.13853,0.0086
-11.3,-0.6026,0.13857,0.137,0.0076
-11.2,-0.5984,0.13705,0.13547,0.0067
-11.1,-0.5941,0.13551,0.13394,0.0058
-11,-0.5899,0.13398,0.13241,0.0048
-10.9,-0.5856,0.13245,0.13088,0.0039
-10.8,-0.5814,0.13092,0.12935,0.003
-10.7,-0.5771,0.12937,0.12781,0.0021
-10.6,-0.5728,0.1278,0.12624,0.0011
-10.5,-0.5686,0.12617,0.12461,0.0002
-10.4,-0.5643,0.12454,0.12298,-0.0007
-10.3,-0.5601,0.12277,0.12121,-0.0017
-10.2,-0.5557,0.12064,0.11909,-0.0027
-10.1,-0.5504,0.11813,0.11658,-0.0039
-10,-0.545,0.11638,0.11483,-0.0051
-9.9,-0.5394,0.11485,0.1133,-0.0064
-9.7,-0.5305,0.11161,0.11009,-0.0084
-9.6,-0.5293,0.10979,0.10828,-0.0087
-9.5,-0.5272,0.10825,0.10674,-0.0092
-9.4,-0.5247,0.10689,0.10538,-0.0097
-9.3,-0.5221,0.10565,0.10414,-0.0101
-9.2,-0.5198,0.10449,0.10299,-0.0105
-9.1,-0.5181,0.10345,0.10196,-0.0106
-9,-0.5174,0.10253,0.10104,-0.0105
-8.9,-0.5181,0.10175,0.10028,-0.01
-8.8,-0.5113,0.10029,0.09881,-0.0117
-8.7,-0.5042,0.09881,0.09733,-0.0134
-8.6,-0.4968,0.09733,0.09584,-0.0152
-8.5,-0.489,0.09583,0.09434,-0.0172
-8.4,-0.4801,0.09426,0.09275,-0.0194
-8.3,-0.4725,0.0928,0.09129,-0.0213
-8.2,-0.464,0.0913,0.08978,-0.0233
-8.1,-0.4547,0.08973,0.08821,-0.0256
-8,-0.4451,0.08817,0.08664,-0.028
-7.9,-0.4352,0.08659,0.08505,-0.0305
-7.8,-0.425,0.08499,0.08344,-0.033
-7.7,-0.4156,0.08346,0.08191,-0.0352
-7.6,-0.4063,0.08194,0.08039,-0.0374
-7.5,-0.3963,0.08039,0.07883,-0.0398
-7.4,-0.3852,0.07895,0.07738,-0.0425
-7.3,-0.3743,0.07731,0.07572,-0.045
-7.2,-0.363,0.07563,0.07404,-0.0477
-7.1,-0.353,0.07407,0.07246,-0.05
-7,-0.3431,0.07252,0.07091,-0.0522
-6.9,-0.3325,0.07092,0.06929,-0.0545
-6.8,-0.3212,0.06927,0.06763,-0.0571
-6.7,-0.3091,0.06755,0.0659,-0.0598
-6.6,-0.2967,0.06582,0.06415,-0.0625
-5.5,-0.086,0.01529,0.01187,-0.1283
-5.4,-0.0727,0.01406,0.01043,-0.1292
-5.3,-0.0599,0.01323,0.00944,-0.1298
-5.2,-0.0474,0.0126,0.00866,-0.1301
-5.1,-0.035,0.01206,0.00801,-0.1304
-5,-0.0226,0.01161,0.00745,-0.1307
-4.9,-0.0103,0.01121,0.00695,-0.1308
-4.8,0.0019,0.01086,0.00651,-0.131
-4.7,0.0142,0.01053,0.0061,-0.1311
-4.6,0.0262,0.01024,0.00572,-0.1312
-4.5,0.0384,0.00997,0.00537,-0.1312
-4.4,0.0503,0.00973,0.00506,-0.1312
-4.3,0.0624,0.0095,0.00477,-0.1313
-4.2,0.0744,0.00928,0.00448,-0.1313
-4.1,0.0862,0.00908,0.00422,-0.1312
-4,0.0983,0.0089,0.00397,-0.1313
-3.9,0.1102,0.00873,0.00375,-0.1312
-3.8,0.1219,0.00874,0.00376,-0.1312
-3.7,0.1339,0.00861,0.00359,-0.1312
-3.6,0.1459,0.00842,0.00334,-0.1312
-3.5,0.1582,0.00812,0.00297,-0.1313
-3.4,0.1701,0.00797,0.00278,-0.1313
-3.3,0.182,0.00786,0.00263,-0.1312
-3.2,0.194,0.00775,0.0025,-0.1312
-3.1,0.206,0.00765,0.00238,-0.1313
-3,0.2178,0.00757,0.00225,-0.1312
-2.9,0.2297,0.00749,0.00214,-0.1312
-2.8,0.2415,0.00742,0.00204,-0.1311
-2.7,0.2535,0.00733,0.00194,-0.1311
-2.6,0.2653,0.00726,0.00186,-0.1311
-2.5,0.2771,0.0072,0.00179,-0.1311
-2.4,0.2889,0.00716,0.00171,-0.1311
-2.3,0.3006,0.00711,0.00164,-0.131
-2.2,0.3125,0.00705,0.00158,-0.131
-2.1,0.3243,0.00701,0.00153,-0.131
-2,0.3361,0.00697,0.00148,-0.131
-1.9,0.3479,0.00694,0.00143,-0.131
-1.8,0.3596,0.00689,0.00139,-0.1309
-1.7,0.371,0.00686,0.00135,-0.1308
-1.5,0.394,0.00681,0.00128,-0.1307
-1.4,0.4054,0.0068,0.00124,-0.1306
-1.3,0.4171,0.00679,0.00121,-0.1305
-1.2,0.4286,0.00678,0.00116,-0.1305
-1.1,0.4401,0.00676,0.00114,-0.1304
-1,0.4518,0.00675,0.00112,-0.1304
-0.9,0.4634,0.00674,0.0011,-0.1303
-0.8,0.4748,0.00675,0.00108,-0.1302
-0.7,0.4864,0.00674,0.00107,-0.1302
-0.6,0.498,0.00674,0.00105,-0.1301
-0.5,0.5096,0.00674,0.00104,-0.1301
-0.4,0.5206,0.00678,0.00103,-0.1299
-0.3,0.5322,0.00678,0.00103,-0.1299
-0.2,0.5436,0.0068,0.00102,-0.1298
-0.1,0.5552,0.00681,0.00102,-0.1298
0,0.5662,0.00686,0.00102,-0.1296
0.1,0.5774,0.00691,0.00103,-0.1295
0.2,0.5889,0.00691,0.00104,-0.1295
0.4,0.6106,0.00708,0.00106,-0.1291
0.5,0.6213,0.00718,0.00108,-0.1289
0.6,0.6324,0.00725,0.00111,-0.1288
0.7,0.6434,0.00732,0.00113,-0.1287
0.8,0.6541,0.00743,0.00117,-0.1285
0.9,0.6641,0.00763,0.00124,-0.1282
1,0.6751,0.00773,0.00128,-0.128
1.1,0.6856,0.00786,0.00133,-0.1279
1.2,0.6965,0.00796,0.00138,-0.1277
1.3,0.7053,0.00834,0.0015,-0.1273
1.4,0.7161,0.00846,0.00157,-0.1272
1.5,0.7267,0.00861,0.00164,-0.127
1.6,0.7372,0.00877,0.00171,-0.1269
1.7,0.7476,0.00894,0.00179,-0.1267
1.8,0.7563,0.00936,0.00195,-0.1263
1.9,0.7668,0.00953,0.00202,-0.1261
2,0.7776,0.00965,0.0021,-0.126
2.1,0.7886,0.00973,0.00217,-0.1259
2.2,0.7996,0.00982,0.00224,-0.1258
2.3,0.8103,0.00996,0.00232,-0.1257
2.4,0.8214,0.01003,0.00238,-0.1256
2.5,0.8326,0.01009,0.00244,-0.1255
2.6,0.8438,0.01015,0.0025,-0.1254
2.8,0.8604,0.00897,0.00278,-0.1245
2.9,0.8716,0.00905,0.00283,-0.1244
3,0.8827,0.00915,0.00291,-0.1243
3.1,0.8939,0.00923,0.00298,-0.1242
3.2,0.9046,0.00937,0.00306,-0.124
3.3,0.9157,0.00946,0.00312,-0.1239
3.4,0.9267,0.00957,0.00319,-0.1237
3.5,0.9378,0.00965,0.00327,-0.1236
3.6,0.9485,0.0098,0.00336,-0.1234
3.7,0.9595,0.0099,0.00343,-0.1233
3.8,0.9704,0.01001,0.00351,-0.1231
3.9,0.9815,0.01011,0.0036,-0.123
4,0.9924,0.01021,0.00368,-0.1228
4.1,1.0033,0.01033,0.00378,-0.1227
4.2,1.0139,0.01048,0.00387,-0.1225
4.3,1.0247,0.0106,0.00397,-0.1223
4.4,1.0357,0.01071,0.00409,-0.1221
4.5,1.0464,0.01084,0.00419,-0.1219
4.6,1.0572,0.01095,0.0043,-0.1217
4.7,1.0676,0.01113,0.00442,-0.1215
4.8,1.0784,0.01125,0.00454,-0.1213
4.9,1.0892,0.01137,0.00464,-0.1211
5,1.0999,0.0115,0.00476,-0.1208
5.1,1.1106,0.01164,0.0049,-0.1206
5.2,1.1214,0.01176,0.00501,-0.1204
5.3,1.132,0.01189,0.00513,-0.1202
5.4,1.1426,0.01204,0.00527,-0.1199
5.5,1.1532,0.01218,0.00541,-0.1197
5.6,1.164,0.0123,0.00554,-0.1194
5.7,1.1746,0.01244,0.00568,-0.1192
5.8,1.1849,0.01261,0.00585,-0.1189
5.9,1.1954,0.01277,0.00602,-0.1186
6,1.206,0.0129,0.00617,-0.1183
6.1,1.2166,0.01304,0.00632,-0.118
6.2,1.2269,0.01321,0.00648,-0.1177
6.3,1.2373,0.01339,0.00665,-0.1174
6.4,1.2475,0.01357,0.00683,-0.1171
6.5,1.2579,0.01372,0.00699,-0.1168
6.6,1.2683,0.01388,0.00717,-0.1164
6.7,1.2785,0.01406,0.00735,-0.1161
6.8,1.2886,0.01426,0.00756,-0.1157
6.9,1.2989,0.01443,0.00775,-0.1154
7,1.3092,0.0146,0.00794,-0.115
7.1,1.3194,0.01478,0.00815,-0.1147
7.2,1.3294,0.01497,0.00836,-0.1143
7.3,1.3393,0.01519,0.00859,-0.1138
7.4,1.3492,0.01541,0.00883,-0.1134
7.5,1.3593,0.0156,0.00906,-0.113
7.6,1.3692,0.01581,0.00929,-0.1126
7.7,1.379,0.01603,0.00954,-0.1121
7.8,1.3887,0.01626,0.0098,-0.1116
7.9,1.3982,0.01651,0.01008,-0.1111
8,1.4075,0.01682,0.01042,-0.1106
8.1,1.4169,0.01708,0.01073,-0.11
8.2,1.4262,0.01736,0.01106,-0.1095
8.4,1.4452,0.01783,0.01159,-0.1085
8.5,1.4542,0.01814,0.01195,-0.1079
8.6,1.4631,0.01845,0.01232,-0.1073
8.7,1.4718,0.01879,0.01271,-0.1066
8.8,1.4802,0.01917,0.01315,-0.1059
8.9,1.4882,0.0196,0.01364,-0.1051
9,1.4956,0.02009,0.01422,-0.1042
9.1,1.5031,0.02057,0.01475,-0.1034
9.2,1.5112,0.02094,0.01519,-0.1026
9.3,1.5189,0.02136,0.01568,-0.1018
9.4,1.5262,0.0218,0.01621,-0.1009
9.5,1.5333,0.02228,0.01677,-0.1
9.6,1.54,0.02278,0.01735,-0.0991
9.7,1.5463,0.02331,0.01798,-0.0981
9.8,1.5522,0.02387,0.01862,-0.097
9.9,1.5577,0.02446,0.01931,-0.0959
10,1.5628,0.02507,0.02001,-0.0947
10.1,1.5674,0.02571,0.02075,-0.0935
10.2,1.5713,0.02638,0.02152,-0.0922
10.3,1.5747,0.02706,0.0223,-0.0908
10.4,1.5772,0.02777,0.02312,-0.0893
10.5,1.5787,0.0285,0.02397,-0.0877
10.6,1.579,0.02923,0.02479,-0.0858
10.7,1.5787,0.02998,0.02565,-0.084
10.8,1.5782,0.03077,0.02654,-0.0821
10.9,1.577,0.03161,0.02748,-0.0803
11,1.5754,0.03249,0.02847,-0.0785
11.1,1.5735,0.03342,0.02949,-0.0767
11.2,1.5711,0.03438,0.03056,-0.075
11.3,1.5682,0.0354,0.03168,-0.0733
11.4,1.5649,0.03646,0.03285,-0.0717
11.5,1.5611,0.03758,0.03407,-0.0702
11.6,1.5567,0.03877,0.03536,-0.0687
11.7,1.5522,0.04,0.0367,-0.0674
11.8,1.5469,0.04133,0.03812,-0.0662
11.9,1.5414,0.04269,0.03958,-0.0651
12,1.5356,0.04413,0.04112,-0.0641
12.1,1.5292,0.04569,0.04278,-0.0634
12.2,1.5229,0.04729,0.04447,-0.0628
12.3,1.5158,0.04902,0.0463,-0.0625
12.4,1.5087,0.05083,0.0482,-0.0623
12.5,1.5012,0.05278,0.05023,-0.0625
12.6,1.4935,0.05487,0.05241,-0.0629
12.8,1.4775,0.05953,0.05724,-0.065
12.9,1.4697,0.06206,0.05985,-0.0666
13,1.461,0.06497,0.06286,-0.0688
13.2,1.445,0.07163,0.06969,-0.0751
13.4,1.4278,0.08131,0.07956,-0.0861
13.7,1.394,0.10522,0.10381,-0.1088
13.8,1.3821,0.11146,0.11007,-0.1139
13.9,1.3715,0.11716,0.1158,-0.1185
14,1.3621,0.1225,0.12115,-0.1227
14.1,1.3525,0.12798,0.12665,-0.127
14.3,1.3364,0.13829,0.137,-0.1349
14.4,1.3291,0.14333,0.14206,-0.1386
14.5,1.3223,0.14838,0.14713,-0.1424
14.8,1.302,0.16438,0.1632,-0.1539
14.9,1.2953,0.17023,0.16907,-0.1579
15,1.2854,0.17823,0.17709,-0.1629
15.1,1.2776,0.18607,0.18492,-0.1674
15.2,1.2757,0.19083,0.18969,-0.1703
15.3,1.2761,0.19444,0.19329,-0.1725
15.4,1.2773,0.1975,0.19635,-0.1745
15.5,1.2789,0.2003,0.19915,-0.1763
15.6,1.2808,0.20292,0.20176,-0.178
15.7,1.283,0.2054,0.20425,-0.1797
15.8,1.2853,0.20781,0.20665,-0.1814
15.9,1.2878,0.21009,0.20894,-0.183
16,1.2903,0.21237,0.21122,-0.1846
16.1,1.293,0.21453,0.21338,-0.1862
16.2,1.2958,0.21662,0.21547,-0.1878
16.3,1.2986,0.21869,0.21754,-0.1893
16.4,1.3015,0.22064,0.2195,-0.1908
16.5,1.3044,0.22264,0.2215,-0.1923
16.6,1.3073,0.22454,0.22339,-0.1939
16.7,1.3103,0.22643,0.22529,-0.1954
16.8,1.3133,0.22832,0.22717,-0.1969
16.9,1.3163,0.23015,0.22901,-0.1983
17,1.3193,0.23197,0.23083,-0.1998
17.1,1.3222,0.23375,0.23261,-0.2013
17.2,1.3251,0.23554,0.2344,-0.2028
17.3,1.3276,0.23726,0.23613,-0.2043
17.4,1.3291,0.23929,0.23813,-0.2058
17.5,1.3326,0.24207,0.24091,-0.2074
17.6,1.3365,0.2454,0.24425,-0.2091
17.7,1.3401,0.24844,0.24729,-0.2106
17.8,1.344,0.25238,0.25122,-0.2123
17.9,1.3476,0.25542,0.25426,-0.2138
18,1.3512,0.25806,0.25691,-0.2153
18.1,1.3547,0.26068,0.25953,-0.2168
18.2,1.3583,0.26321,0.26205,-0.2183
18.3,1.3619,0.2656,0.26445,-0.2198
18.4,1.3654,0.26788,0.26673,-0.2213
18.5,1.369,0.27015,0.269,-0.2227
18.6,1.3725,0.27234,0.27119,-0.2242
18.7,1.376,0.27452,0.27337,-0.2257
18.8,1.3796,0.27666,0.27552,-0.2271
18.9,1.3831,0.27882,0.27768,-0.2286
19,1.3866,0.28095,0.2798,-0.2301
19.1,1.3902,0.28305,0.28191,-0.2315
19.2,1.3937,0.28514,0.284,-0.233
19.3,1.3972,0.28719,0.28606,-0.2345
19.4,1.4007,0.2893,0.28816,-0.236
19.5,1.4042,0.29136,0.29023,-0.2375
19.6,1.4078,0.29342,0.29228,-0.239
19.7,1.4113,0.29547,0.29434,-0.2404
19.8,1.4148,0.29752,0.29639,-0.2419
19.9,1.4183,0.29956,0.29844,-0.2434
20,1.4218,0.3016,0.30048,-0.2449
20.1,1.4253,0.30363,0.30253,-0.2465
20.2,1.4288,0.30567,0.30457,-0.248
20.3,1.4323,0.30769,0.30659,-0.2495
20.4,1.4358,0.30973,0.30863,-0.251
20.5,1.4393,0.31172,0.31062,-0.2525
20.6,1.4428,0.31377,0.31267,-0.254
20.7,1.4463,0.3158,0.31471,-0.2556
20.8,1.4498,0.31781,0.31672,-0.2571
20.9,1.4532,0.31985,0.31876,-0.2587
21,1.4567,0.32185,0.32076,-0.2602
21.1,1.4601,0.32388,0.3228,-0.2618
21.2,1.4636,0.32591,0.32483,-0.2633
21.3,1.467,0.32791,0.32684,-0.2649
21.4,1.4705,0.32993,0.32886,-0.2664
21.5,1.4739,0.33193,0.33086,-0.268
21.6,1.4773,0.33398,0.33291,-0.2696
21.7,1.4807,0.33598,0.33492,-0.2712
21.8,1.4841,0.338,0.33694,-0.2728
21.9,1.4875,0.33999,0.33894,-0.2744
22,1.4909,0.34205,0.341,-0.2759
22.1,1.4943,0.34409,0.34304,-0.2775
22.2,1.4977,0.34607,0.34502,-0.2792
22.3,1.501,0.34765,0.34661,-0.2809
22.4,1.5043,0.34962,0.34858,-0.2825
22.5,1.5076,0.3516,0.35057,-0.2841
22.6,1.511,0.35359,0.35256,-0.2858
22.7,1.5142,0.35554,0.35451,-0.2874
22.8,1.5175,0.35755,0.35653,-0.289
22.9,1.5208,0.35951,0.35849,-0.2907
23,1.5241,0.36149,0.36047,-0.2923
23.1,1.5273,0.36345,0.36244,-0.294
23.2,1.5306,0.36545,0.36444,-0.2957
23.3,1.5338,0.36744,0.36644,-0.2973
23.4,1.537,0.36941,0.36842,-0.299
23.5,1.5402,0.37138,0.37039,-0.3007
23.6,1.5434,0.37333,0.37235,-0.3023
23.7,1.5466,0.37533,0.37435,-0.304
23.8,1.5497,0.37734,0.37636,-0.3057
23.9,1.5529,0.37935,0.37838,-0.3074
24,1.556,0.38134,0.38037,-0.3091
24.1,1.5591,0.38329,0.38232,-0.3108
24.2,1.5622,0.38533,0.38437,-0.3125
24.3,1.5652,0.38732,0.38636,-0.3142
24.4,1.5683,0.38932,0.38837,-0.3159
24.5,1.5713,0.39136,0.39041,-0.3176
24.6,1.5743,0.39342,0.39248,-0.3193
24.7,1.5773,0.3955,0.39456,-0.321
24.8,1.5802,0.39761,0.39667,-0.3227
24.9,1.5832,0.39978,0.39884,-0.3244
25,1.5861,0.40201,0.40108,-0.3261
25.1,1.589,0.40428,0.40336,-0.3278
25.2,1.5918,0.40673,0.40581,-0.3294
25.3,1.5944,0.40942,0.4085,-0.331
25.4,1.5973,0.41191,0.411,-0.3327
25.5,1.5998,0.41494,0.41403,-0.3341
25.6,1.6025,0.41764,0.41673,-0.3357
25.7,1.6053,0.42017,0.41927,-0.3373

