airfoilName st23.dat
Re 	990000
M 	2.500000e-01
N 	4.500000e+00
VACC 	0 VACCflag 1
XTR 	1.00 	1.00 XTRflag 0
alpha,cl,cd,cdp,cm
-30,-1.2593,0.51598,0.5148,0.2693
-29.9,-1.2562,0.51414,0.51296,0.2671
-29.8,-1.253,0.51228,0.51109,0.2649
-29.7,-1.2498,0.5104,0.50922,0.2628
-29.6,-1.2466,0.50856,0.50737,0.2606
-29.5,-1.2434,0.50656,0.50537,0.2585
-29.4,-1.2397,0.50514,0.50395,0.2561
-27.9,-1.1889,0.47671,0.47551,0.2242
-27.8,-1.1862,0.47315,0.47193,0.2228
-27.7,-1.1834,0.46969,0.46848,0.2213
-27.6,-1.1805,0.46621,0.46499,0.2198
-27.5,-1.1778,0.46222,0.461,0.2185
-27.4,-1.1749,0.45878,0.45756,0.217
-27.3,-1.172,0.45545,0.45422,0.2155
-27.2,-1.1691,0.45221,0.45098,0.2139
-27.1,-1.1661,0.44918,0.44795,0.2123
-27,-1.1631,0.44619,0.44495,0.2108
-26.9,-1.1601,0.4433,0.44206,0.2092
-26.8,-1.157,0.44052,0.43927,0.2075
-26.7,-1.1539,0.4379,0.43665,0.2059
-26.6,-1.1508,0.43529,0.43404,0.2043
-26.5,-1.1477,0.4328,0.43154,0.2026
-26.4,-1.1445,0.43028,0.42902,0.2009
-26.3,-1.1414,0.42782,0.42656,0.1993
-26.2,-1.1381,0.42542,0.42416,0.1976
-26.1,-1.1349,0.42305,0.42179,0.196
-26,-1.1317,0.4207,0.41943,0.1943
-25.9,-1.1285,0.41837,0.41709,0.1927
-25.8,-1.1252,0.41606,0.41479,0.191
-25.7,-1.1219,0.41378,0.4125,0.1894
-25.6,-1.1186,0.41153,0.41025,0.1877
-25.5,-1.1153,0.40926,0.40798,0.1861
-25.4,-1.112,0.40702,0.40573,0.1844
-25.3,-1.1087,0.40479,0.4035,0.1828
-25.2,-1.1054,0.40257,0.40128,0.1812
-25.1,-1.102,0.40037,0.39907,0.1795
-25,-1.0986,0.39818,0.39687,0.1779
-24.9,-1.0953,0.39598,0.39467,0.1763
-24.8,-1.0919,0.3938,0.39249,0.1747
-24.7,-1.0885,0.39164,0.39032,0.1731
-24.6,-1.0851,0.38947,0.38815,0.1715
-24.5,-1.0816,0.38731,0.38599,0.1699
-24.4,-1.0782,0.38515,0.38383,0.1683
-24.3,-1.0747,0.38302,0.3817,0.1667
-24.2,-1.0713,0.38088,0.37956,0.1651
-24.1,-1.0678,0.37874,0.37741,0.1635
-24,-1.0644,0.37663,0.3753,0.162
-23.8,-1.0574,0.37278,0.37145,0.1588
-23.7,-1.0539,0.37065,0.36932,0.1572
-23.6,-1.0504,0.36852,0.36718,0.1557
-23.5,-1.0468,0.36639,0.36505,0.1541
-23.4,-1.0433,0.3643,0.36296,0.1526
-23.3,-1.0398,0.36221,0.36086,0.1511
-23.2,-1.0362,0.36009,0.35874,0.1496
-23.1,-1.0327,0.35797,0.35663,0.1481
-23,-1.0291,0.35593,0.35458,0.1465
-22.9,-1.0255,0.35384,0.35249,0.1451
-22.8,-1.0219,0.35177,0.35041,0.1436
-22.7,-1.0184,0.3497,0.34834,0.1421
-22.6,-1.0148,0.34762,0.34626,0.1406
-22.5,-1.0112,0.34557,0.34421,0.1391
-22.4,-1.0076,0.34351,0.34214,0.1376
-22.3,-1.0039,0.34146,0.34009,0.1362
-22.2,-1.0003,0.33942,0.33804,0.1347
-22.1,-0.9967,0.33736,0.33599,0.1333
-22,-0.993,0.33535,0.33397,0.1318
-21.9,-0.9894,0.33331,0.33193,0.1304
-21.8,-0.9858,0.33129,0.32991,0.129
-21.7,-0.9821,0.32927,0.32788,0.1275
-21.6,-0.9785,0.32727,0.32588,0.1261
-21.5,-0.9748,0.32525,0.32386,0.1247
-21.4,-0.9711,0.32325,0.32186,0.1233
-21.3,-0.9675,0.32126,0.31987,0.1219
-21.2,-0.9638,0.31925,0.31786,0.1205
-21.1,-0.9601,0.31727,0.31587,0.1191
-21,-0.9564,0.31528,0.31388,0.1177
-20.9,-0.9527,0.31332,0.31192,0.1164
-20.8,-0.949,0.31134,0.30994,0.115
-20.7,-0.9453,0.30935,0.30795,0.1136
-20.6,-0.9416,0.3074,0.306,0.1123
-20.5,-0.9379,0.30544,0.30404,0.1109
-20.4,-0.9342,0.3035,0.3021,0.1096
-20.3,-0.9304,0.30154,0.30014,0.1082
-20.2,-0.9267,0.2996,0.2982,0.1069
-20.1,-0.9229,0.29765,0.29624,0.1055
-20,-0.9192,0.2957,0.29428,0.1042
-19.9,-0.9154,0.29375,0.29234,0.1029
-19.8,-0.9116,0.29182,0.2904,0.1016
-19.7,-0.9078,0.28989,0.28847,0.1002
-19.6,-0.9041,0.28796,0.28654,0.0989
-19.5,-0.9003,0.28603,0.28461,0.0976
-19.4,-0.8965,0.2841,0.28268,0.0963
-19.3,-0.8927,0.28218,0.28076,0.0951
-19.2,-0.8889,0.28027,0.27884,0.0938
-19.1,-0.8851,0.27835,0.27691,0.0925
-19,-0.8813,0.27644,0.275,0.0912
-18.9,-0.8775,0.27454,0.2731,0.0899
-18.8,-0.8737,0.27262,0.27119,0.0887
-18.7,-0.8699,0.27071,0.26927,0.0874
-18.6,-0.8661,0.26882,0.26738,0.0862
-18.5,-0.8623,0.26693,0.26549,0.0849
-18.4,-0.8585,0.26502,0.26358,0.0837
-18.3,-0.8547,0.26314,0.2617,0.0824
-18.2,-0.8509,0.26123,0.25979,0.0812
-18.1,-0.8471,0.25934,0.2579,0.08
-18,-0.8433,0.25745,0.25601,0.0787
-17.9,-0.8395,0.25555,0.25411,0.0775
-17.8,-0.8356,0.25365,0.2522,0.0763
-17.7,-0.8318,0.25173,0.25029,0.075
-17.6,-0.828,0.24981,0.24837,0.0738
-17.5,-0.8241,0.24787,0.24643,0.0726
-17.4,-0.8202,0.24588,0.24444,0.0713
-17.3,-0.8163,0.24385,0.2424,0.07
-17.1,-0.8062,0.23874,0.2373,0.0664
-17,-0.801,0.23727,0.23583,0.0646
-16.7,-0.7887,0.23134,0.22991,0.0608
-16.6,-0.7861,0.2286,0.22718,0.0602
-16.5,-0.7831,0.22621,0.22478,0.0594
-16.4,-0.78,0.22402,0.22259,0.0586
-16.3,-0.7766,0.22202,0.22059,0.0576
-16.2,-0.7731,0.2201,0.21866,0.0567
-16.1,-0.7696,0.21821,0.21678,0.0557
-16,-0.7661,0.21638,0.21494,0.0547
-15.9,-0.7625,0.21458,0.21314,0.0537
-15.8,-0.7589,0.21279,0.21135,0.0527
-15.7,-0.7553,0.21104,0.2096,0.0517
-15.6,-0.7516,0.2093,0.20785,0.0507
-15.5,-0.748,0.20757,0.20612,0.0497
-15.4,-0.7443,0.20586,0.20441,0.0487
-15.3,-0.7407,0.20416,0.20271,0.0477
-15.2,-0.737,0.20247,0.20101,0.0468
-15.1,-0.7333,0.20079,0.19933,0.0458
-15,-0.7296,0.19911,0.19766,0.0448
-14.9,-0.7259,0.19744,0.19599,0.0438
-14.8,-0.7222,0.19577,0.19431,0.0428
-14.7,-0.7184,0.1941,0.19265,0.0418
-14.6,-0.7147,0.19244,0.19099,0.0408
-14.5,-0.7109,0.19079,0.18934,0.0398
-14.4,-0.7071,0.18914,0.18768,0.0389
-14.3,-0.7034,0.1875,0.18604,0.0379
-14.2,-0.6996,0.18585,0.1844,0.0369
-14.1,-0.6958,0.18422,0.18277,0.0359
-14,-0.692,0.18259,0.18113,0.035
-13.9,-0.6883,0.18097,0.17951,0.034
-13.8,-0.6845,0.17935,0.17789,0.033
-13.6,-0.6767,0.17647,0.17501,0.0309
-13.5,-0.6729,0.17483,0.17338,0.0299
-13.4,-0.6691,0.1732,0.17174,0.029
-13.3,-0.6653,0.17158,0.17013,0.0281
-13.2,-0.6615,0.16996,0.1685,0.0271
-13.1,-0.6576,0.16833,0.16687,0.0262
-13,-0.6538,0.16671,0.16526,0.0252
-12.9,-0.6499,0.16509,0.16364,0.0243
-12.8,-0.646,0.16348,0.16202,0.0234
-12.7,-0.6422,0.16187,0.16042,0.0224
-12.6,-0.6383,0.16027,0.15881,0.0215
-12.5,-0.6344,0.15867,0.15721,0.0206
-12.4,-0.6306,0.15707,0.15561,0.0197
-12.3,-0.6267,0.15548,0.15402,0.0188
-12.2,-0.6228,0.15389,0.15242,0.0178
-12.1,-0.619,0.1523,0.15084,0.0169
-12,-0.6151,0.15071,0.14925,0.016
-11.9,-0.6112,0.14911,0.14765,0.0151
-11.8,-0.6072,0.14751,0.14606,0.0141
-11.7,-0.6033,0.14591,0.14446,0.0132
-11.6,-0.5994,0.14431,0.14286,0.0123
-11.5,-0.5954,0.1427,0.14125,0.0114
-11.4,-0.5915,0.14109,0.13964,0.0104
-11.3,-0.5876,0.13946,0.13801,0.0095
-11.2,-0.5837,0.13782,0.13638,0.0086
-11.1,-0.5798,0.13617,0.13472,0.0077
-11,-0.5759,0.13441,0.13296,0.0067
-10.9,-0.5719,0.13258,0.13113,0.0058
-10.8,-0.568,0.13034,0.1289,0.0047
-10.7,-0.5626,0.12702,0.12559,0.0032
-10.6,-0.5575,0.1253,0.12387,0.002
-10.5,-0.5523,0.12371,0.12227,0.0007
-10.4,-0.5469,0.12206,0.12064,-0.0008
-10.3,-0.5462,0.11989,0.11848,-0.0009
-10.2,-0.5442,0.11808,0.11667,-0.0015
-10.1,-0.5411,0.11655,0.11513,-0.0022
-10,-0.5377,0.1151,0.11368,-0.003
-9.9,-0.5342,0.11371,0.11229,-0.0038
-9.8,-0.5306,0.11234,0.11093,-0.0046
-9.7,-0.5269,0.11101,0.1096,-0.0054
-9.6,-0.5232,0.1097,0.10829,-0.0062
-9.5,-0.5195,0.10841,0.107,-0.007
-9.4,-0.5159,0.10713,0.10572,-0.0077
-9.3,-0.5123,0.10587,0.10447,-0.0085
-9.2,-0.5087,0.10463,0.10323,-0.0092
-9.1,-0.5053,0.1034,0.10201,-0.01
-9,-0.502,0.10221,0.10081,-0.0106
-8.9,-0.4991,0.10104,0.09965,-0.0112
-8.8,-0.4966,0.09992,0.09853,-0.0117
-8.7,-0.4949,0.09888,0.0975,-0.0119
-8.6,-0.4946,0.09797,0.09661,-0.0118
-8.5,-0.4924,0.09689,0.09551,-0.0122
-8.4,-0.4848,0.09531,0.09393,-0.0142
-8.3,-0.4777,0.09378,0.0924,-0.016
-8.2,-0.4701,0.09221,0.09083,-0.0181
-8.1,-0.4618,0.09059,0.0892,-0.0203
-8,-0.4535,0.08898,0.08759,-0.0225
-7.9,-0.4449,0.08736,0.08596,-0.0248
-7.7,-0.4256,0.08411,0.0827,-0.03
-7.6,-0.4158,0.08238,0.08096,-0.0326
-7.5,-0.4062,0.08067,0.07924,-0.0351
-7.4,-0.3975,0.07903,0.07759,-0.0373
-7.3,-0.388,0.07733,0.07589,-0.0397
-7.2,-0.378,0.07559,0.07414,-0.0423
-7.1,-0.3674,0.0738,0.07233,-0.045
-7,-0.3563,0.07196,0.07048,-0.0479
-6.9,-0.3461,0.07019,0.0687,-0.0504
-6.8,-0.3363,0.06844,0.06694,-0.0528
-6.7,-0.3254,0.06656,0.06504,-0.0555
-6.6,-0.314,0.0646,0.06307,-0.0584
-5.8,-0.1639,0.01537,0.01209,-0.1176
-5.7,-0.1513,0.01424,0.01076,-0.1183
-5.5,-0.1269,0.01274,0.00897,-0.1191
-5.4,-0.1147,0.01219,0.0083,-0.1193
-5.3,-0.1025,0.01172,0.00772,-0.1195
-5.2,-0.0904,0.0113,0.0072,-0.1196
-5.1,-0.0783,0.01094,0.00676,-0.1197
-5,-0.0662,0.01061,0.00635,-0.1198
-4.9,-0.0541,0.01031,0.00598,-0.1199
-4.8,-0.042,0.01004,0.00562,-0.12
-4.7,-0.0301,0.00979,0.0053,-0.12
-4.6,-0.0185,0.00956,0.005,-0.1199
-4.5,-0.0065,0.00934,0.00472,-0.1199
-4.4,0.0054,0.00913,0.00445,-0.1198
-4.3,0.0173,0.00895,0.00421,-0.1198
-4.1,0.0409,0.0087,0.00389,-0.1197
-4,0.0528,0.00853,0.00367,-0.1197
-3.9,0.0648,0.00837,0.00347,-0.1197
-3.8,0.0767,0.00823,0.00328,-0.1197
-3.7,0.0887,0.0081,0.0031,-0.1197
-3.6,0.1005,0.00799,0.00295,-0.1196
-3.5,0.1123,0.0079,0.00281,-0.1195
-3.4,0.1244,0.00769,0.00256,-0.1196
-3.3,0.1365,0.00754,0.00238,-0.1196
-3.2,0.1485,0.00744,0.00226,-0.1196
-3.1,0.1602,0.00736,0.00215,-0.1195
-3,0.172,0.00729,0.00205,-0.1195
-2.9,0.1839,0.00722,0.00196,-0.1194
-2.8,0.1958,0.00716,0.00187,-0.1194
-2.7,0.2076,0.00709,0.00178,-0.1194
-2.6,0.2194,0.00703,0.00171,-0.1194
-2.5,0.2311,0.00698,0.00165,-0.1193
-2.4,0.2431,0.00693,0.00158,-0.1193
-2.3,0.2548,0.00689,0.00152,-0.1193
-2.2,0.2666,0.00684,0.00146,-0.1193
-2.1,0.278,0.00681,0.00141,-0.1191
-2,0.2892,0.00681,0.00136,-0.1189
-1.9,0.301,0.00677,0.00131,-0.1189
-1.7,0.324,0.00673,0.00124,-0.1188
-1.6,0.3357,0.00671,0.0012,-0.1187
-1.5,0.3471,0.00671,0.00116,-0.1186
-1.4,0.3588,0.00669,0.00114,-0.1186
-1.3,0.3705,0.00666,0.00112,-0.1186
-1.2,0.3823,0.00663,0.00109,-0.1186
-1.1,0.3937,0.00665,0.00106,-0.1185
-1,0.4052,0.00665,0.00104,-0.1184
-0.9,0.4167,0.00665,0.00103,-0.1184
-0.8,0.4284,0.00664,0.00101,-0.1183
-0.7,0.4394,0.0067,0.001,-0.1182
-0.6,0.4511,0.0067,0.00099,-0.1181
-0.5,0.4627,0.0067,0.00098,-0.1181
-0.4,0.4742,0.00671,0.00098,-0.1181
-0.3,0.485,0.0068,0.00098,-0.1179
-0.2,0.4965,0.00681,0.00098,-0.1178
-0.1,0.508,0.00684,0.00099,-0.1178
0,0.5191,0.00691,0.00099,-0.1177
0.2,0.5403,0.00717,0.00105,-0.1173
0.3,0.5512,0.00728,0.00108,-0.1171
0.4,0.5624,0.00734,0.0011,-0.1171
0.5,0.5736,0.00741,0.00113,-0.117
0.6,0.5839,0.00761,0.00118,-0.1168
0.8,0.6058,0.00782,0.00127,-0.1166
0.9,0.6165,0.00797,0.00132,-0.1164
1,0.6271,0.00813,0.00138,-0.1163
1.1,0.6369,0.00842,0.00147,-0.116
1.2,0.6476,0.00856,0.00153,-0.1159
1.3,0.6583,0.00871,0.0016,-0.1158
1.4,0.6689,0.00888,0.00167,-0.1157
1.5,0.6795,0.00904,0.00176,-0.1155
1.6,0.6905,0.00916,0.00182,-0.1154
1.7,0.7011,0.00933,0.00189,-0.1153
1.8,0.7123,0.00939,0.00194,-0.1152
1.9,0.7236,0.00946,0.00199,-0.1152
2,0.7349,0.0095,0.00205,-0.1151
2.1,0.7459,0.0096,0.00211,-0.115
2.2,0.7572,0.00966,0.00215,-0.115
2.3,0.7685,0.00971,0.00221,-0.1149
2.4,0.7798,0.00974,0.00225,-0.1149
2.6,0.7969,0.00842,0.0025,-0.114
2.7,0.8079,0.00854,0.00256,-0.1139
2.8,0.8192,0.00861,0.00261,-0.1138
2.9,0.8304,0.00869,0.00268,-0.1137
3,0.8417,0.00878,0.00274,-0.1136
3.1,0.8529,0.00885,0.0028,-0.1135
3.2,0.8638,0.00898,0.00287,-0.1134
3.3,0.8751,0.00906,0.00293,-0.1133
3.4,0.8862,0.00915,0.00299,-0.1132
3.5,0.8974,0.00924,0.00306,-0.113
3.6,0.9086,0.00932,0.00313,-0.1129
3.7,0.9194,0.00946,0.00321,-0.1128
3.8,0.9306,0.00954,0.00328,-0.1127
3.9,0.9416,0.00965,0.00336,-0.1125
4,0.9527,0.00974,0.00345,-0.1124
4.1,0.9638,0.00984,0.00352,-0.1122
4.2,0.9745,0.00999,0.00363,-0.1121
4.3,0.9856,0.01008,0.00373,-0.1119
4.4,0.9965,0.0102,0.00382,-0.1117
4.5,1.0075,0.01031,0.00392,-0.1116
4.6,1.0185,0.01041,0.00401,-0.1114
4.7,1.0294,0.01053,0.00411,-0.1112
4.8,1.04,0.01068,0.00423,-0.111
4.9,1.051,0.01079,0.00433,-0.1108
5,1.0618,0.01092,0.00444,-0.1106
5.1,1.0726,0.01104,0.00456,-0.1104
5.2,1.0835,0.01115,0.00467,-0.1102
5.3,1.0944,0.01127,0.00478,-0.11
5.4,1.1051,0.01141,0.00491,-0.1098
5.5,1.1158,0.01155,0.00504,-0.1096
5.6,1.1267,0.01166,0.00518,-0.1094
5.7,1.1375,0.01178,0.00531,-0.1091
5.8,1.1483,0.01191,0.00544,-0.1089
5.9,1.1589,0.01205,0.00558,-0.1086
6,1.1695,0.01221,0.00573,-0.1084
6.1,1.1801,0.01235,0.00588,-0.1081
6.2,1.1908,0.01248,0.00603,-0.1079
6.3,1.2013,0.01264,0.00617,-0.1076
6.4,1.2115,0.01284,0.00635,-0.1072
6.5,1.2221,0.01298,0.00651,-0.107
6.6,1.2327,0.01312,0.00667,-0.1067
6.7,1.2432,0.01327,0.00683,-0.1064
6.8,1.2537,0.01343,0.007,-0.1061
6.9,1.2641,0.0136,0.00719,-0.1057
7,1.2743,0.01379,0.00739,-0.1054
7.1,1.2846,0.01397,0.00759,-0.105
7.2,1.295,0.01413,0.00777,-0.1047
7.3,1.3053,0.01429,0.00795,-0.1043
7.4,1.3155,0.01448,0.00815,-0.104
7.5,1.3256,0.01467,0.00836,-0.1036
7.6,1.3355,0.0149,0.0086,-0.1032
7.7,1.3457,0.01508,0.00881,-0.1028
7.8,1.3558,0.01527,0.00903,-0.1024
7.9,1.3658,0.01548,0.00926,-0.1019
8,1.3756,0.0157,0.0095,-0.1015
8.1,1.3853,0.01593,0.00976,-0.101
8.2,1.3948,0.0162,0.01006,-0.1005
8.3,1.4046,0.01641,0.0103,-0.1001
8.4,1.4142,0.01666,0.01059,-0.0995
8.5,1.4237,0.01692,0.01089,-0.099
8.6,1.433,0.01719,0.0112,-0.0985
8.7,1.4422,0.01748,0.01153,-0.0979
8.8,1.4513,0.01778,0.01188,-0.0973
8.9,1.4601,0.01811,0.01226,-0.0966
9,1.4686,0.01847,0.01268,-0.0959
9.1,1.4768,0.01888,0.01316,-0.0952
9.2,1.4846,0.01934,0.01367,-0.0944
9.3,1.4931,0.01968,0.01407,-0.0937
9.4,1.5013,0.02004,0.0145,-0.0929
9.5,1.5092,0.02044,0.01497,-0.0922
9.6,1.5169,0.02085,0.01546,-0.0913
9.7,1.5243,0.0213,0.01597,-0.0905
9.8,1.5314,0.02176,0.01651,-0.0896
9.9,1.5382,0.02225,0.01708,-0.0886
10,1.5446,0.02276,0.01769,-0.0876
10.1,1.5506,0.02329,0.01831,-0.0866
10.2,1.5562,0.02386,0.01897,-0.0855
10.3,1.5615,0.02444,0.01964,-0.0844
10.4,1.5662,0.02505,0.02035,-0.0832
10.5,1.5703,0.02569,0.02107,-0.0819
10.6,1.5738,0.02633,0.02181,-0.0806
10.7,1.5765,0.02701,0.02258,-0.0791
10.8,1.5782,0.02769,0.02336,-0.0775
10.9,1.5786,0.02838,0.02414,-0.0757
11,1.5785,0.0291,0.02496,-0.0738
11.1,1.578,0.02986,0.02581,-0.072
11.2,1.5772,0.03065,0.02669,-0.0703
11.3,1.5758,0.0315,0.02764,-0.0685
11.4,1.574,0.03239,0.02862,-0.0668
11.5,1.5717,0.03333,0.02966,-0.0651
11.6,1.5689,0.03432,0.03075,-0.0635
11.7,1.5657,0.03537,0.03189,-0.0619
11.8,1.562,0.03646,0.03308,-0.0604
11.9,1.5577,0.03762,0.03434,-0.059
12,1.5531,0.03884,0.03565,-0.0577
12.1,1.5481,0.04014,0.03705,-0.0566
12.2,1.5425,0.04151,0.03851,-0.0555
12.3,1.5365,0.04296,0.04004,-0.0547
12.4,1.5301,0.04451,0.04169,-0.054
12.5,1.5233,0.04617,0.04343,-0.0535
12.6,1.5163,0.0479,0.04526,-0.0532
12.7,1.5088,0.04976,0.0472,-0.0532
12.8,1.5011,0.05174,0.04926,-0.0534
12.9,1.493,0.05391,0.05151,-0.054
13,1.4845,0.05626,0.05394,-0.055
13.1,1.476,0.05877,0.05653,-0.0563
13.2,1.4671,0.06155,0.05939,-0.0582
13.5,1.4386,0.07222,0.07031,-0.0679
13.6,1.4282,0.07729,0.07547,-0.0733
13.7,1.4163,0.08445,0.08275,-0.0812
13.8,1.3993,0.09509,0.09356,-0.091
13.9,1.1324,0.07783,0.0759,-0.0523
14,1.1181,0.0837,0.08186,-0.057
14.1,1.1045,0.08906,0.08729,-0.0609
14.2,1.0893,0.09448,0.09277,-0.0647
14.3,1.0763,0.09913,0.09746,-0.068
14.4,1.063,0.10377,0.10214,-0.0714
14.5,1.0515,0.10785,0.10625,-0.0743
14.6,1.0389,0.11188,0.11033,-0.0771
14.7,1.0272,0.11566,0.11414,-0.0799
14.8,1.0169,0.11907,0.11758,-0.0825
14.9,1.0042,0.12205,0.12059,-0.0847
15,0.9921,0.12444,0.123,-0.0867
15.1,0.9808,0.12705,0.12564,-0.0889
15.2,0.9724,0.12931,0.12792,-0.091
15.4,0.957,0.13415,0.1328,-0.0955
15.5,0.9517,0.13628,0.13495,-0.0975
15.6,0.9459,0.13884,0.13754,-0.0997
15.7,0.9421,0.14093,0.13965,-0.1016
15.8,0.9391,0.14294,0.14167,-0.1033
15.9,0.9362,0.14501,0.14376,-0.1051
16,0.9322,0.14767,0.14645,-0.1071
16.1,0.9301,0.14975,0.14855,-0.1087
16.2,0.9283,0.15179,0.15061,-0.1103
16.3,0.9264,0.15399,0.15283,-0.1119
16.4,0.9233,0.15669,0.15556,-0.1138
16.5,0.9213,0.15918,0.15806,-0.1154
16.6,0.9197,0.16145,0.16035,-0.117
16.7,0.9162,0.16469,0.16362,-0.1189
16.8,0.913,0.16793,0.16688,-0.1208
16.9,0.9049,0.17401,0.17298,-0.1235
17,0.9004,0.17887,0.17784,-0.1254
17.1,0.9004,0.18114,0.1801,-0.1265
17.2,0.9012,0.183,0.18196,-0.1275
17.3,0.9022,0.18472,0.18369,-0.1285
17.4,0.9034,0.18634,0.1853,-0.1295
17.5,0.9047,0.18786,0.18682,-0.1305
17.6,0.906,0.18934,0.18831,-0.1314
17.7,0.9075,0.19075,0.18973,-0.1323
17.8,0.909,0.19211,0.19109,-0.1333
17.9,0.9106,0.19341,0.19239,-0.1342
18,0.9122,0.19472,0.19371,-0.1351
18.1,0.9138,0.19598,0.19497,-0.136
18.2,0.9155,0.19719,0.19618,-0.1369
18.3,0.9172,0.1984,0.19739,-0.1378
18.4,0.9188,0.19952,0.19851,-0.1387
18.5,0.9205,0.20069,0.19969,-0.1396
18.6,0.9222,0.20174,0.20074,-0.1405
18.7,0.9239,0.20282,0.20182,-0.1414
18.8,0.9255,0.20388,0.20289,-0.1422
18.9,0.9271,0.20492,0.20393,-0.1431
19,0.9285,0.20591,0.20492,-0.144
19.1,0.9296,0.20691,0.20592,-0.1449
19.2,0.9304,0.20885,0.20785,-0.1458
19.3,0.9321,0.2111,0.21011,-0.1468
19.4,0.9337,0.2134,0.21241,-0.1478
19.5,0.9353,0.21612,0.21513,-0.1487
19.6,0.9368,0.21832,0.21732,-0.1496
19.7,0.9384,0.22027,0.21927,-0.1505
19.8,0.9401,0.22204,0.22105,-0.1514
19.9,0.9417,0.22369,0.22271,-0.1523
20,0.9434,0.22527,0.22428,-0.1532
20.1,0.9451,0.22679,0.22581,-0.1541
20.2,0.9468,0.22831,0.22733,-0.1549
20.3,0.9484,0.22978,0.2288,-0.1558
20.4,0.9501,0.23125,0.23027,-0.1567
20.5,0.9518,0.23264,0.23166,-0.1576
20.6,0.9535,0.23407,0.2331,-0.1585
20.7,0.9552,0.2355,0.23453,-0.1594
20.8,0.9568,0.23686,0.23589,-0.1602
20.9,0.9584,0.23826,0.23729,-0.1611
21,0.9601,0.23964,0.23868,-0.162
21.1,0.9617,0.24102,0.24005,-0.1629
21.2,0.9634,0.24238,0.24142,-0.1638
21.3,0.965,0.24374,0.24278,-0.1647
21.4,0.9666,0.2451,0.24414,-0.1656
21.5,0.9682,0.24644,0.24549,-0.1665
21.6,0.9698,0.2478,0.24685,-0.1674
21.7,0.9714,0.24914,0.24819,-0.1682
21.8,0.973,0.25048,0.24954,-0.1691
21.9,0.9746,0.2518,0.25087,-0.17
22,0.9762,0.25316,0.25223,-0.1709
22.1,0.9777,0.2545,0.25357,-0.1718
22.2,0.9792,0.25583,0.2549,-0.1727
22.3,0.9808,0.25717,0.25624,-0.1736
22.4,0.9823,0.25846,0.25754,-0.1745
22.5,0.9838,0.25983,0.25891,-0.1755
22.6,0.9853,0.26113,0.26022,-0.1764
22.7,0.9868,0.26245,0.26154,-0.1773
22.8,0.9883,0.26378,0.26287,-0.1782
22.9,0.9897,0.26512,0.26422,-0.1791
23,0.9911,0.26614,0.26523,-0.1801
23.1,0.9926,0.2674,0.2665,-0.181
23.2,0.994,0.26869,0.2678,-0.1819
23.3,0.9954,0.26999,0.26909,-0.1828
23.4,0.9968,0.27126,0.27037,-0.1838
23.5,0.9982,0.27255,0.27166,-0.1847
23.6,0.9996,0.27386,0.27297,-0.1856
23.7,1.001,0.27511,0.27423,-0.1866
23.8,1.0023,0.27639,0.27552,-0.1875
23.9,1.0037,0.27765,0.27678,-0.1884
24,1.005,0.27894,0.27806,-0.1893
24.1,1.0063,0.2802,0.27933,-0.1903
24.2,1.0076,0.28145,0.28059,-0.1912
24.3,1.0089,0.28272,0.28186,-0.1921
24.4,1.0101,0.284,0.28314,-0.1931
24.5,1.0114,0.28527,0.28442,-0.194
24.6,1.0126,0.28653,0.28567,-0.195
24.7,1.0138,0.28779,0.28694,-0.1959
24.8,1.015,0.28907,0.28822,-0.1968
24.9,1.0162,0.29034,0.28951,-0.1978
25,1.0174,0.29163,0.2908,-0.1987
25.1,1.0185,0.2929,0.29208,-0.1997
25.2,1.0197,0.29418,0.29336,-0.2006
25.3,1.0208,0.29549,0.29467,-0.2015
25.4,1.0218,0.29682,0.296,-0.2025
25.5,1.0229,0.29817,0.29736,-0.2034
25.6,1.0239,0.29959,0.29879,-0.2043
25.7,1.0249,0.3011,0.3003,-0.2052
25.8,1.0258,0.30271,0.30191,-0.2061
25.9,1.0266,0.30454,0.30375,-0.2069
26,1.0274,0.30654,0.30575,-0.2077
26.1,1.0282,0.30861,0.30782,-0.2084

