airfoilName st23.dat
Re 	690000
M 	2.500000e-01
N 	4.500000e+00
VACC 	0 VACCflag 1
XTR 	1.00 	1.00 XTRflag 0
alpha,cl,cd,cdp,cm
-18.6,-0.6473,0.53148,0.52941,0.0377
-18.5,-0.6456,0.51785,0.5158,0.0373
-18.4,-0.6451,0.50014,0.49811,0.0372
-18.3,-0.6447,0.48376,0.48176,0.0372
-18.2,-0.6435,0.47161,0.46962,0.0369
-18.1,-0.6416,0.46215,0.46016,0.0364
-18,-0.6389,0.45574,0.45376,0.0356
-17.9,-0.6356,0.4512,0.44921,0.0348
-17.8,-0.6318,0.44793,0.44594,0.0338
-17.7,-0.8232,0.25231,0.25054,0.0705
-17.6,-0.8202,0.24988,0.24811,0.0697
-17.5,-0.8173,0.24732,0.24555,0.069
-17.4,-0.8144,0.24483,0.24306,0.0682
-17.3,-0.8112,0.24257,0.2408,0.0673
-17.2,-0.808,0.2404,0.23862,0.0664
-17.1,-0.8047,0.23835,0.23657,0.0654
-17,-0.8013,0.23638,0.2346,0.0645
-16.9,-0.7978,0.23448,0.23269,0.0635
-16.8,-0.7942,0.23261,0.23083,0.0624
-16.7,-0.7906,0.23078,0.22899,0.0614
-16.6,-0.787,0.22896,0.22717,0.0603
-16.5,-0.7834,0.22717,0.22538,0.0593
-16.4,-0.7797,0.22541,0.22362,0.0583
-16.3,-0.776,0.22364,0.22185,0.0572
-16.2,-0.7724,0.22189,0.22009,0.0562
-16.1,-0.7687,0.22015,0.21835,0.0551
-16,-0.765,0.21841,0.21661,0.0541
-15.9,-0.7613,0.21669,0.21489,0.053
-15.8,-0.7575,0.21495,0.21315,0.052
-15.7,-0.7538,0.21324,0.21143,0.051
-15.6,-0.7501,0.21152,0.20971,0.0499
-15.5,-0.7464,0.20981,0.208,0.0489
-15.4,-0.7427,0.2081,0.20629,0.0479
-15.3,-0.7389,0.2064,0.20459,0.0469
-15.2,-0.7352,0.2047,0.20289,0.0458
-15.1,-0.7315,0.20301,0.20119,0.0448
-15,-0.7277,0.20132,0.1995,0.0438
-14.9,-0.7239,0.19962,0.19781,0.0428
-14.8,-0.7202,0.19793,0.19611,0.0418
-14.7,-0.7164,0.19624,0.19442,0.0408
-14.6,-0.7126,0.19455,0.19273,0.0398
-14.5,-0.7088,0.19286,0.19104,0.0388
-14.4,-0.705,0.19117,0.18935,0.0378
-14.3,-0.7012,0.18949,0.18767,0.0368
-14.1,-0.6933,0.18643,0.18461,0.0345
-14,-0.6895,0.18473,0.18291,0.0335
-13.9,-0.6857,0.18303,0.18121,0.0325
-13.8,-0.6819,0.18133,0.17952,0.0316
-13.7,-0.6782,0.17964,0.17783,0.0306
-13.6,-0.6744,0.17796,0.17615,0.0297
-13.5,-0.6706,0.17628,0.17446,0.0288
-13.4,-0.6668,0.17459,0.17278,0.0278
-13.3,-0.663,0.17291,0.1711,0.0269
-13.2,-0.6591,0.17123,0.16942,0.0259
-13.1,-0.6553,0.16955,0.16774,0.025
-13,-0.6514,0.16787,0.16606,0.024
-12.9,-0.6476,0.16619,0.16438,0.0231
-12.8,-0.6437,0.16451,0.1627,0.0222
-12.7,-0.6399,0.16283,0.16102,0.0213
-12.6,-0.636,0.16115,0.15935,0.0203
-12.4,-0.6283,0.15779,0.15597,0.0185
-12.3,-0.6245,0.1561,0.15428,0.0176
-12.2,-0.6206,0.1544,0.15259,0.0167
-12.1,-0.6168,0.15268,0.15087,0.0157
-12,-0.6129,0.15093,0.14912,0.0148
-11.9,-0.609,0.14919,0.14737,0.0139
-11.8,-0.605,0.14732,0.14551,0.013
-11.7,-0.601,0.14539,0.14358,0.012
-11.6,-0.5969,0.14328,0.14147,0.011
-11.5,-0.5922,0.1409,0.1391,0.0098
-11.4,-0.5872,0.13888,0.13708,0.0086
-11.3,-0.582,0.13706,0.13526,0.0073
-11.1,-0.5726,0.13357,0.13179,0.0048
-11,-0.5706,0.13166,0.12989,0.0044
-10.9,-0.5681,0.12989,0.12811,0.0039
-10.8,-0.5653,0.12826,0.12648,0.0032
-10.7,-0.5622,0.12673,0.12495,0.0025
-10.6,-0.5588,0.12528,0.1235,0.0018
-10.5,-0.5553,0.12386,0.12209,0.001
-10.4,-0.5517,0.12248,0.12071,0.0002
-10.3,-0.548,0.12111,0.11934,-0.0006
-10.2,-0.5443,0.11978,0.11801,-0.0014
-10.1,-0.5405,0.11844,0.11667,-0.0022
-10,-0.5367,0.11711,0.11535,-0.003
-9.9,-0.5329,0.1158,0.11404,-0.0038
-9.8,-0.5291,0.11449,0.11273,-0.0046
-9.7,-0.5253,0.11319,0.11143,-0.0054
-9.6,-0.5215,0.11189,0.11014,-0.0062
-9.5,-0.5178,0.1106,0.10885,-0.007
-9.4,-0.5141,0.10932,0.10757,-0.0078
-9.3,-0.5105,0.10805,0.10631,-0.0086
-9.2,-0.5069,0.10678,0.10504,-0.0093
-9.1,-0.5035,0.10553,0.1038,-0.01
-9,-0.5002,0.10431,0.10258,-0.0107
-8.9,-0.4972,0.10311,0.10138,-0.0112
-8.8,-0.4946,0.10194,0.10022,-0.0117
-8.7,-0.4925,0.10083,0.0991,-0.0121
-8.6,-0.4913,0.09981,0.09809,-0.0122
-8.5,-0.4913,0.0989,0.0972,-0.0119
-8.4,-0.4931,0.09817,0.09648,-0.0113
-8.3,-0.4916,0.09712,0.09544,-0.0115
-8.2,-0.4844,0.09551,0.09382,-0.0134
-8.1,-0.4767,0.09386,0.09218,-0.0155
-8,-0.4673,0.09206,0.09036,-0.018
-7.9,-0.4572,0.09019,0.08849,-0.0209
-7.8,-0.4485,0.08844,0.08673,-0.0232
-7.7,-0.4397,0.08669,0.08497,-0.0256
-7.6,-0.4304,0.08489,0.08317,-0.028
-7.5,-0.4206,0.08305,0.08132,-0.0306
-7.4,-0.4103,0.08117,0.07943,-0.0333
-7.2,-0.3879,0.07721,0.07545,-0.0393
-7.1,-0.3788,0.07539,0.07362,-0.0416
-7,-0.3686,0.07343,0.07165,-0.0443
-6.9,-0.3576,0.07133,0.06954,-0.0472
-6.8,-0.3458,0.06908,0.06727,-0.0504
-5.5,-0.1302,0.01723,0.01375,-0.1169
-5.4,-0.1165,0.01561,0.01187,-0.1181
-5.3,-0.1034,0.01461,0.01067,-0.1188
-5.2,-0.0904,0.01382,0.00971,-0.1194
-5.1,-0.0785,0.01321,0.00898,-0.1196
-5,-0.0664,0.01268,0.00832,-0.1198
-4.9,-0.0541,0.01222,0.00774,-0.12
-4.8,-0.0419,0.0118,0.00721,-0.1202
-4.7,-0.0296,0.01142,0.00673,-0.1203
-4.6,-0.0172,0.01108,0.0063,-0.1205
-4.4,0.0071,0.0107,0.00579,-0.1206
-4.3,0.0189,0.01043,0.00545,-0.1205
-4.2,0.0307,0.01021,0.00516,-0.1205
-4.1,0.0427,0.01002,0.00491,-0.1205
-4,0.0544,0.00987,0.00471,-0.1204
-3.9,0.0668,0.00942,0.00418,-0.1206
-3.8,0.0788,0.00914,0.00384,-0.1206
-3.7,0.0908,0.00895,0.00362,-0.1206
-3.6,0.1028,0.0088,0.00343,-0.1206
-3.5,0.1146,0.00866,0.00324,-0.1206
-3.4,0.1264,0.00853,0.00308,-0.1205
-3.3,0.1384,0.00841,0.00291,-0.1205
-3.2,0.1502,0.0083,0.00276,-0.1204
-3.1,0.1621,0.0082,0.00263,-0.1204
-3,0.1739,0.00809,0.00249,-0.1203
-2.9,0.1858,0.00798,0.00236,-0.1203
-2.8,0.1976,0.00789,0.00226,-0.1203
-2.7,0.2093,0.00782,0.00217,-0.1202
-2.6,0.2212,0.00775,0.00209,-0.1202
-2.5,0.2329,0.0077,0.002,-0.1201
-2.4,0.2447,0.00762,0.00191,-0.1201
-2.3,0.2563,0.00757,0.00185,-0.12
-2.2,0.2681,0.00752,0.00179,-0.12
-2.1,0.2798,0.00747,0.00173,-0.12
-2,0.2916,0.00741,0.00167,-0.12
-1.9,0.3032,0.00737,0.00164,-0.1199
-1.8,0.3145,0.00734,0.00158,-0.1197
-1.7,0.3257,0.0073,0.00154,-0.1196
-1.6,0.3374,0.00727,0.00149,-0.1195
-1.5,0.3488,0.00724,0.00144,-0.1194
-1.4,0.3603,0.00721,0.0014,-0.1193
-1.3,0.372,0.00719,0.00137,-0.1193
-1.2,0.3833,0.00718,0.00133,-0.1191
-1.1,0.395,0.00714,0.0013,-0.1191
-1,0.4066,0.00713,0.00128,-0.119
-0.9,0.4182,0.00712,0.00125,-0.119
-0.8,0.4296,0.00712,0.00122,-0.1189
-0.7,0.441,0.00711,0.00121,-0.1188
-0.6,0.4525,0.00712,0.00119,-0.1187
-0.5,0.4637,0.00713,0.00117,-0.1186
-0.4,0.4753,0.00713,0.00116,-0.1185
-0.3,0.4867,0.00714,0.00116,-0.1184
-0.2,0.4982,0.00715,0.00114,-0.1184
-0.1,0.5098,0.00714,0.00115,-0.1183
0,0.5208,0.0072,0.00114,-0.1181
0.1,0.532,0.00723,0.00115,-0.118
0.2,0.5435,0.00725,0.00115,-0.1179
0.3,0.5546,0.0073,0.00115,-0.1178
0.4,0.5648,0.00742,0.00117,-0.1175
0.5,0.576,0.00748,0.00119,-0.1174
0.6,0.5866,0.00758,0.00121,-0.1171
0.7,0.5976,0.00766,0.00123,-0.117
0.8,0.6086,0.00774,0.00126,-0.1169
0.9,0.6185,0.00794,0.00131,-0.1165
1,0.6286,0.00812,0.00138,-0.1163
1.1,0.6395,0.00822,0.00142,-0.1162
1.2,0.6499,0.00838,0.00149,-0.116
1.3,0.6607,0.00851,0.00154,-0.1158
1.4,0.6702,0.0088,0.00164,-0.1155
1.5,0.6807,0.00895,0.00172,-0.1154
1.6,0.6912,0.00912,0.00179,-0.1152
1.7,0.7015,0.00929,0.00188,-0.115
1.8,0.7119,0.00948,0.00196,-0.1149
1.9,0.7211,0.00983,0.0021,-0.1146
2,0.7321,0.00993,0.00217,-0.1145
2.1,0.7431,0.01,0.00224,-0.1144
2.2,0.7543,0.01006,0.00231,-0.1144
2.3,0.759,0.00869,0.00246,-0.1132
2.4,0.7698,0.00885,0.00254,-0.1131
2.5,0.7809,0.00894,0.00261,-0.113
2.6,0.7921,0.00903,0.00266,-0.1129
2.7,0.8033,0.00913,0.00273,-0.1128
2.8,0.8145,0.00921,0.00278,-0.1127
2.9,0.8253,0.00934,0.00288,-0.1125
3,0.8365,0.00943,0.00294,-0.1124
3.1,0.8476,0.00953,0.00301,-0.1123
3.2,0.8588,0.00961,0.00308,-0.1122
3.3,0.8698,0.00971,0.00314,-0.1121
3.4,0.8809,0.0098,0.00322,-0.1119
3.5,0.8917,0.00995,0.00331,-0.1118
3.6,0.9028,0.01004,0.00338,-0.1117
3.7,0.9139,0.01013,0.00345,-0.1115
3.8,0.9248,0.01024,0.00355,-0.1114
3.9,0.9356,0.01038,0.00363,-0.1112
4,0.9465,0.01049,0.00372,-0.111
4.1,0.9576,0.01059,0.00381,-0.1109
4.2,0.9684,0.01071,0.0039,-0.1107
4.3,0.9794,0.01082,0.00403,-0.1106
4.4,0.9903,0.01093,0.00412,-0.1104
4.5,1.0008,0.01109,0.00424,-0.1102
4.6,1.0117,0.01121,0.00434,-0.11
4.7,1.0224,0.01134,0.00445,-0.1098
4.8,1.0332,0.01146,0.00458,-0.1096
4.9,1.0441,0.01158,0.00469,-0.1094
5,1.0547,0.01172,0.0048,-0.1092
5.1,1.0654,0.01186,0.00494,-0.1089
5.2,1.076,0.01201,0.00506,-0.1087
5.3,1.0865,0.01217,0.0052,-0.1085
5.4,1.0972,0.0123,0.00534,-0.1082
5.5,1.1079,0.01243,0.00548,-0.108
5.6,1.1186,0.01257,0.00561,-0.1077
5.7,1.1291,0.01273,0.00579,-0.1075
5.8,1.1395,0.01289,0.00596,-0.1072
5.9,1.1502,0.01303,0.00611,-0.1069
6,1.1608,0.01317,0.00626,-0.1067
6.1,1.1713,0.01332,0.00642,-0.1064
6.2,1.1817,0.01349,0.0066,-0.1061
6.3,1.1917,0.0137,0.0068,-0.1057
6.4,1.2023,0.01385,0.00697,-0.1054
6.5,1.2127,0.014,0.00715,-0.1051
6.6,1.223,0.01418,0.00732,-0.1048
6.7,1.2332,0.01436,0.00752,-0.1044
6.8,1.2433,0.01457,0.00774,-0.1041
6.9,1.2534,0.01475,0.00792,-0.1037
7,1.2637,0.01493,0.00814,-0.1034
7.1,1.2738,0.01512,0.00835,-0.103
7.2,1.2838,0.01533,0.00857,-0.1026
7.3,1.2936,0.01556,0.00881,-0.1022
7.4,1.3035,0.01577,0.00905,-0.1018
7.5,1.3136,0.01596,0.00928,-0.1014
7.6,1.3235,0.01617,0.00952,-0.1009
7.7,1.3333,0.01639,0.00977,-0.1005
7.8,1.3429,0.01663,0.01002,-0.1
7.9,1.3523,0.01691,0.01032,-0.0995
8,1.3619,0.01715,0.01061,-0.099
8.1,1.3715,0.0174,0.0109,-0.0985
8.2,1.3809,0.01766,0.01122,-0.098
8.3,1.3901,0.01794,0.01154,-0.0975
8.4,1.3993,0.01823,0.01189,-0.0969
8.5,1.4083,0.01853,0.01224,-0.0963
8.6,1.417,0.01887,0.01262,-0.0957
8.7,1.4252,0.01928,0.01308,-0.095
8.8,1.4335,0.01966,0.01352,-0.0942
8.9,1.4418,0.02005,0.01398,-0.0935
9,1.4514,0.02022,0.01418,-0.0931
9.1,1.4594,0.02061,0.01463,-0.0923
9.2,1.4673,0.02101,0.0151,-0.0916
9.3,1.475,0.02143,0.01559,-0.0908
9.4,1.4825,0.02187,0.01609,-0.0899
9.5,1.4896,0.02233,0.01662,-0.0891
9.6,1.4965,0.02282,0.01719,-0.0882
9.7,1.5028,0.02335,0.0178,-0.0872
9.8,1.5086,0.02393,0.01846,-0.0862
9.9,1.5136,0.02458,0.01921,-0.085
10,1.5175,0.02531,0.02005,-0.0838
10.1,1.5207,0.02608,0.0209,-0.0824
10.2,1.5254,0.02666,0.02159,-0.0812
10.3,1.5292,0.02727,0.02231,-0.0799
10.4,1.5322,0.02793,0.02307,-0.0785
10.5,1.5338,0.02861,0.02384,-0.0769
10.6,1.5347,0.02929,0.02463,-0.0752
10.7,1.5347,0.03004,0.02548,-0.0735
10.8,1.5344,0.03083,0.02637,-0.0717
10.9,1.5335,0.03167,0.02732,-0.07
11,1.5322,0.03256,0.02831,-0.0683
11.1,1.5304,0.03348,0.02934,-0.0666
11.2,1.5282,0.03445,0.03042,-0.065
11.3,1.5252,0.03549,0.03157,-0.0634
11.4,1.522,0.03658,0.03276,-0.0619
11.5,1.518,0.03773,0.03402,-0.0605
11.6,1.5137,0.03894,0.03534,-0.0591
11.7,1.5089,0.04023,0.03672,-0.0579
11.8,1.5037,0.04157,0.03817,-0.0568
11.9,1.4979,0.04301,0.03971,-0.0559
12,1.4918,0.04451,0.04131,-0.0551
12.1,1.4855,0.04611,0.043,-0.0545
12.2,1.4787,0.04782,0.04481,-0.0541
12.3,1.4714,0.04963,0.04671,-0.054
12.4,1.4638,0.05157,0.04874,-0.0541
12.5,1.4561,0.05364,0.05091,-0.0545
12.7,1.44,0.05826,0.05569,-0.0564
12.8,1.4318,0.06085,0.05837,-0.058
12.9,1.4231,0.06371,0.06131,-0.0601
13,1.4143,0.06691,0.0646,-0.0628
13.1,1.4056,0.07049,0.06826,-0.0662
13.2,1.3968,0.07468,0.07254,-0.0706
13.3,1.3874,0.0799,0.07786,-0.0763
13.5,1.3656,0.09517,0.09337,-0.0915
13.6,1.3532,0.10182,0.10007,-0.097
13.7,1.3412,0.10781,0.1061,-0.1018
13.9,1.3197,0.1187,0.11703,-0.1102
14,1.3103,0.12371,0.12206,-0.114
14.1,1.3015,0.12867,0.12703,-0.1177
14.2,1.2935,0.13342,0.13179,-0.1213
14.3,1.2864,0.13795,0.13633,-0.1246
14.4,1.2799,0.14237,0.14077,-0.1279
14.6,1.2686,0.1507,0.14913,-0.1341
14.7,1.2629,0.15503,0.15348,-0.1372
14.8,1.2584,0.15894,0.15741,-0.1401
14.9,1.2547,0.16263,0.16111,-0.1429
15,1.2504,0.16668,0.16518,-0.1459
15.1,1.2466,0.17069,0.16921,-0.1488
15.2,1.2435,0.17451,0.17304,-0.1515
15.3,1.2405,0.17849,0.17704,-0.1543
15.4,1.2371,0.18293,0.1815,-0.1573
15.5,1.234,0.18752,0.1861,-0.1602
15.6,1.2299,0.19314,0.19174,-0.1633
15.7,1.2232,0.20178,0.2004,-0.1673
15.8,1.2212,0.20779,0.20641,-0.17
15.9,1.2221,0.21154,0.21015,-0.1719
16,1.2237,0.21478,0.21339,-0.1737
16.1,1.2257,0.21762,0.21623,-0.1753
16.2,1.2281,0.22029,0.21889,-0.1769
16.3,1.2306,0.2228,0.22141,-0.1785
16.4,1.2333,0.22518,0.22379,-0.18
16.5,1.236,0.2275,0.22611,-0.1815
16.6,1.2389,0.22973,0.22834,-0.183
16.7,1.2418,0.23191,0.23052,-0.1845
16.8,1.2447,0.23401,0.23262,-0.1859
16.9,1.2478,0.23606,0.23467,-0.1874
17,1.2508,0.23808,0.2367,-0.1888
17.1,1.2539,0.24001,0.23862,-0.1903
17.2,1.257,0.24197,0.24059,-0.1917
17.3,1.2601,0.24384,0.24246,-0.1932
17.4,1.2633,0.24576,0.24438,-0.1946
17.5,1.2664,0.24758,0.2462,-0.196
17.6,1.2696,0.2494,0.24803,-0.1974
17.7,1.2728,0.25122,0.24984,-0.1989
17.8,1.276,0.2529,0.25153,-0.2003
17.9,1.2791,0.25464,0.25327,-0.2017
18,1.2822,0.25636,0.25499,-0.2031
18.1,1.2854,0.25812,0.25675,-0.2045
18.2,1.2884,0.25979,0.25843,-0.2059
18.3,1.2915,0.26152,0.26017,-0.2073
18.4,1.2944,0.26323,0.26187,-0.2087
18.5,1.2971,0.26497,0.26361,-0.2101
18.6,1.2996,0.26682,0.26547,-0.2114
18.7,1.3031,0.26973,0.26836,-0.213
18.8,1.307,0.27251,0.27114,-0.2146
18.9,1.3109,0.27539,0.27402,-0.2162
19,1.3149,0.27854,0.27717,-0.2178
19.1,1.3189,0.28153,0.28016,-0.2193
19.2,1.3229,0.28481,0.28344,-0.2209
19.3,1.3266,0.28737,0.286,-0.2224
19.4,1.3303,0.28989,0.28852,-0.2239
19.5,1.3339,0.29229,0.29093,-0.2254
19.6,1.3376,0.29469,0.29333,-0.2269
19.7,1.3412,0.29714,0.29577,-0.2284
19.8,1.3449,0.2995,0.29816,-0.2299
19.9,1.3484,0.30163,0.30029,-0.2314
20,1.352,0.30392,0.30258,-0.2329
20.1,1.3557,0.3062,0.30486,-0.2344
20.2,1.3593,0.30844,0.3071,-0.2359
20.3,1.3628,0.31064,0.3093,-0.2374
20.4,1.3664,0.31281,0.31148,-0.2389
20.5,1.3699,0.31496,0.31362,-0.2404
20.6,1.3735,0.31714,0.31581,-0.242
20.7,1.3771,0.3193,0.31797,-0.2435
20.8,1.3806,0.32146,0.32014,-0.245
20.9,1.3842,0.32361,0.32229,-0.2466
21,1.3877,0.32574,0.32442,-0.2481
21.1,1.3912,0.32786,0.32655,-0.2496
21.2,1.3947,0.32999,0.32868,-0.2512
21.3,1.3983,0.33214,0.33083,-0.2527
21.4,1.4018,0.33426,0.33295,-0.2543
21.5,1.4053,0.33637,0.33506,-0.2559
21.6,1.4088,0.3385,0.3372,-0.2574
21.7,1.4122,0.34061,0.33931,-0.259
21.8,1.4157,0.34273,0.34144,-0.2606
21.9,1.4192,0.34484,0.34355,-0.2622
22,1.4226,0.34695,0.34566,-0.2637
22.1,1.4261,0.34906,0.34778,-0.2653
22.2,1.4295,0.35117,0.34989,-0.2669
22.3,1.4331,0.35307,0.35179,-0.2687
22.4,1.4365,0.35514,0.35386,-0.2704
22.5,1.4399,0.3572,0.35593,-0.272
22.6,1.4433,0.35925,0.35799,-0.2736
22.7,1.4467,0.36132,0.36006,-0.2753
22.8,1.4501,0.36338,0.36212,-0.2769
22.9,1.4534,0.36543,0.36417,-0.2785
23,1.4568,0.36746,0.36621,-0.2802
23.1,1.4601,0.36951,0.36826,-0.2818
23.2,1.4634,0.37155,0.37031,-0.2835
23.3,1.4667,0.37359,0.37236,-0.2852
23.4,1.47,0.37562,0.3744,-0.2868
23.5,1.4733,0.37765,0.37642,-0.2885
23.6,1.4766,0.37966,0.37845,-0.2902
23.7,1.4798,0.38169,0.38048,-0.2919
23.8,1.4831,0.38371,0.3825,-0.2936
23.9,1.4863,0.3857,0.38449,-0.2953
24,1.4895,0.38772,0.38652,-0.2969
24.1,1.4927,0.3898,0.3886,-0.2986
24.2,1.4959,0.39171,0.39052,-0.3004
24.3,1.499,0.39376,0.39257,-0.3021
24.4,1.5022,0.39575,0.39457,-0.3038
24.5,1.5053,0.39775,0.39657,-0.3055
24.6,1.5084,0.39973,0.39855,-0.3072
24.7,1.5115,0.40177,0.4006,-0.3089
24.8,1.5145,0.4038,0.40263,-0.3106
24.9,1.5175,0.40576,0.4046,-0.3124
25,1.5206,0.40777,0.40661,-0.3141
25.1,1.5236,0.40985,0.40869,-0.3158
25.2,1.5265,0.41191,0.41076,-0.3175
25.3,1.5295,0.41402,0.41287,-0.3193
25.4,1.5324,0.41616,0.41502,-0.321
25.5,1.5353,0.41831,0.41718,-0.3227
25.6,1.5381,0.42058,0.41945,-0.3244
25.7,1.5409,0.42296,0.42183,-0.326
25.8,1.5438,0.42532,0.4242,-0.3277
25.9,1.5465,0.42801,0.42689,-0.3293
26,1.5494,0.43059,0.42947,-0.3309
26.1,1.5521,0.43328,0.43217,-0.3325
26.2,1.5549,0.43597,0.43486,-0.3342
26.3,1.5577,0.43873,0.43763,-0.3358
26.4,1.5605,0.44131,0.44022,-0.3374
26.9,1.5801,0.45428,0.45318,-0.3486
27,1.5836,0.45705,0.45595,-0.3506
27.1,1.5877,0.46029,0.4592,-0.3528
27.2,1.5909,0.46299,0.46189,-0.3547
27.3,1.5942,0.4657,0.46461,-0.3567
27.4,1.5973,0.46831,0.46722,-0.3587
27.5,1.6004,0.47083,0.46974,-0.3606
27.6,1.6035,0.47342,0.47234,-0.3626
27.7,1.6066,0.47599,0.47492,-0.3645
27.8,1.6095,0.47845,0.47738,-0.3665
27.9,1.6126,0.48094,0.47987,-0.3685
28,1.6155,0.48339,0.48232,-0.3705
28.1,1.6184,0.4858,0.48473,-0.3724
28.2,1.6212,0.4882,0.48714,-0.3744
28.3,1.6241,0.49057,0.48951,-0.3764
28.4,1.627,0.49297,0.49191,-0.3784
28.5,1.6298,0.49532,0.49427,-0.3804
28.6,1.6324,0.49769,0.49665,-0.3823
28.7,1.6352,0.50006,0.49902,-0.3843
28.8,1.6379,0.50239,0.50136,-0.3863
28.9,1.6407,0.50475,0.50372,-0.3883
29,1.6433,0.5071,0.50607,-0.3904
29.1,1.646,0.50944,0.50842,-0.3924
29.2,1.6486,0.51178,0.51076,-0.3944
29.3,1.6513,0.51412,0.51311,-0.3964
29.4,1.6539,0.51645,0.51544,-0.3984
29.5,1.6565,0.51876,0.51775,-0.4005
29.6,1.659,0.52115,0.52015,-0.4025
29.7,1.6615,0.52342,0.52244,-0.4045
29.8,1.6641,0.52582,0.52484,-0.4066
29.9,1.6668,0.52728,0.5263,-0.4089
30,1.6693,0.52952,0.52855,-0.411

