airfoilName st23.dat
Re 	2.900000e+05
M 	2.500000e-01
N 	4.500000e+00
VACC 	0 VACCflag 1
XTR 	1.00 	1.00 XTRflag 0
alpha,cl,cd,cdp,cm
-30,-1.2528,0.52641,0.5239,0.2639
-29.9,-1.25,0.52381,0.52129,0.262
-29.8,-1.2473,0.52122,0.51871,0.2601
-29.7,-1.2445,0.51865,0.51613,0.2583
-29.6,-1.2417,0.51608,0.51356,0.2564
-29.5,-1.2389,0.51353,0.51099,0.2545
-29.4,-1.236,0.51097,0.50843,0.2527
-29.3,-1.2332,0.50843,0.50589,0.2508
-29.2,-1.2303,0.50594,0.50339,0.249
-29.1,-1.2274,0.50341,0.50085,0.2471
-29,-1.2245,0.5009,0.49834,0.2453
-28.9,-1.2216,0.4984,0.49584,0.2434
-28.8,-1.2186,0.49593,0.49336,0.2416
-28.7,-1.2157,0.49348,0.4909,0.2397
-28.6,-1.2127,0.49103,0.48845,0.2379
-28.5,-1.2097,0.4886,0.48602,0.236
-28.4,-1.2067,0.4862,0.48361,0.2342
-28.3,-1.2036,0.48378,0.48119,0.2323
-28.2,-1.2006,0.4814,0.4788,0.2305
-28.1,-1.1975,0.47901,0.47641,0.2287
-28,-1.1944,0.47667,0.47405,0.2268
-27.9,-1.1913,0.47431,0.47169,0.225
-27.8,-1.1882,0.472,0.46937,0.2232
-27.7,-1.185,0.46969,0.46705,0.2213
-27.6,-1.1818,0.46741,0.46477,0.2195
-27.5,-1.1786,0.46513,0.46248,0.2176
-27.4,-1.1754,0.46286,0.46021,0.2158
-27.3,-1.1721,0.46062,0.45796,0.214
-27.2,-1.1689,0.4584,0.45574,0.2121
-27.1,-1.1656,0.45616,0.4535,0.2103
-27,-1.1623,0.45396,0.45129,0.2084
-26.9,-1.159,0.45179,0.44912,0.2066
-26.8,-1.1556,0.44966,0.44698,0.2047
-26.7,-1.1523,0.44748,0.4448,0.2029
-26.6,-1.1489,0.44538,0.44269,0.201
-26.5,-1.1455,0.44321,0.44052,0.1992
-26.4,-1.142,0.44114,0.43845,0.1973
-26.3,-1.1386,0.43908,0.43639,0.1954
-26.2,-1.1351,0.437,0.4343,0.1936
-26.1,-1.1316,0.43492,0.43222,0.1917
-26,-1.1281,0.43286,0.43015,0.1899
-25.9,-1.1246,0.43086,0.42815,0.188
-25.8,-1.1194,0.43119,0.42849,0.1846
-25.7,-1.1158,0.42908,0.42637,0.1827
-25.6,-1.1122,0.42689,0.42418,0.1809
-25.5,-1.1085,0.42477,0.42206,0.179
-25.4,-1.1049,0.42255,0.41984,0.1772
-25.3,-1.1012,0.42034,0.41763,0.1753
-25.2,-1.0976,0.41808,0.41536,0.1736
-25.1,-1.0939,0.41579,0.41305,0.1718
-25,-1.0902,0.41352,0.41078,0.17
-24.9,-1.0866,0.41119,0.40844,0.1683
-24.8,-1.0829,0.40885,0.4061,0.1666
-24.7,-1.0792,0.40654,0.40379,0.1649
-22.4,-0.9935,0.35336,0.35057,0.1284
-22.3,-0.9901,0.35104,0.34825,0.127
-22.2,-0.9866,0.34872,0.34592,0.1257
-22.1,-0.9831,0.34642,0.34361,0.1243
-22,-0.9797,0.3441,0.34128,0.123
-21.9,-0.9762,0.3418,0.33897,0.1217
-21.8,-0.9727,0.33951,0.33668,0.1204
-21.7,-0.9692,0.33723,0.33439,0.1191
-21.6,-0.9658,0.33493,0.33209,0.1178
-21.5,-0.9623,0.33265,0.32981,0.1165
-21.4,-0.9588,0.33039,0.32754,0.1152
-21.3,-0.9553,0.32811,0.32526,0.1139
-21.2,-0.9518,0.32588,0.32303,0.1126
-21.1,-0.9483,0.32363,0.32078,0.1114
-21,-0.9448,0.3214,0.31854,0.1101
-20.9,-0.9413,0.31918,0.31632,0.1088
-20.8,-0.9377,0.31698,0.31411,0.1076
-20.7,-0.9342,0.31479,0.31192,0.1063
-20.6,-0.9306,0.31261,0.30974,0.1051
-20.5,-0.9271,0.31045,0.30758,0.1038
-20.4,-0.9235,0.3083,0.30542,0.1026
-20.3,-0.92,0.30617,0.30329,0.1013
-20.2,-0.9164,0.30405,0.30117,0.1001
-20.1,-0.9128,0.30196,0.29907,0.0988
-20,-0.9092,0.29987,0.29698,0.0976
-19.9,-0.9056,0.29781,0.29492,0.0964
-19.8,-0.902,0.29576,0.29287,0.0951
-19.7,-0.8983,0.29373,0.29084,0.0939
-19.6,-0.8947,0.29172,0.28882,0.0927
-19.5,-0.8911,0.28971,0.28681,0.0914
-19.4,-0.8874,0.28772,0.28482,0.0902
-19.3,-0.8837,0.28574,0.28283,0.089
-19.2,-0.8801,0.28377,0.28087,0.0877
-19.1,-0.8764,0.28181,0.2789,0.0865
-19,-0.8727,0.27986,0.27693,0.0853
-18.9,-0.869,0.27792,0.27498,0.0841
-18.8,-0.8653,0.27597,0.27304,0.0829
-18.7,-0.8615,0.27403,0.2711,0.0817
-18.6,-0.8578,0.27211,0.26917,0.0805
-18.5,-0.8541,0.27019,0.26725,0.0793
-18.4,-0.8504,0.26828,0.26533,0.0781
-18.3,-0.8466,0.26637,0.26342,0.0769
-18.2,-0.8429,0.26445,0.26151,0.0757
-18.1,-0.8392,0.26255,0.2596,0.0746
-18,-0.8354,0.26065,0.2577,0.0734
-17.9,-0.8317,0.25875,0.2558,0.0723
-17.8,-0.8279,0.25687,0.25391,0.0711
-17.7,-0.8242,0.25497,0.25202,0.07
-17.6,-0.8204,0.25309,0.25013,0.0688
-17.5,-0.8167,0.2512,0.24824,0.0677
-17.4,-0.8129,0.24932,0.24636,0.0665
-17.3,-0.8091,0.24744,0.24448,0.0654
-17.2,-0.8053,0.24556,0.2426,0.0643
-17.1,-0.8016,0.24368,0.24072,0.0632
-17,-0.7977,0.24181,0.23884,0.062
-16.9,-0.7939,0.23994,0.23697,0.0609
-16.8,-0.7901,0.23807,0.2351,0.0598
-16.7,-0.7863,0.2362,0.23323,0.0586
-16.6,-0.7825,0.23433,0.23136,0.0575
-16.5,-0.7787,0.23247,0.2295,0.0564
-16.4,-0.7748,0.23061,0.22763,0.0553
-16.3,-0.771,0.22874,0.22577,0.0542
-16.2,-0.7672,0.22688,0.2239,0.053
-16.1,-0.7633,0.22501,0.22203,0.0519
-16,-0.7595,0.22314,0.22016,0.0508
-15.9,-0.7557,0.22126,0.21828,0.0497
-15.8,-0.7508,0.21908,0.21611,0.0479
-15.7,-0.7468,0.21708,0.21409,0.0468
-15.6,-0.7428,0.21507,0.21207,0.0458
-15.5,-0.7387,0.21304,0.21004,0.0447
-15.4,-0.7346,0.21097,0.20798,0.0436
-15.3,-0.7303,0.20889,0.2059,0.0425
-15.2,-0.7258,0.20677,0.20377,0.0413
-15.1,-0.7212,0.20467,0.20167,0.04
-14.8,-0.705,0.19853,0.19558,0.0352
-14.7,-0.7016,0.19665,0.1937,0.0344
-14.6,-0.6983,0.19478,0.19182,0.0336
-14.5,-0.6949,0.19292,0.18996,0.0328
-14.4,-0.6915,0.19107,0.18811,0.032
-14.3,-0.6881,0.18923,0.18627,0.0312
-14.2,-0.6848,0.18741,0.18445,0.0304
-14.1,-0.6815,0.18559,0.18263,0.0296
-14,-0.6781,0.1838,0.18084,0.0288
-13.9,-0.6748,0.18201,0.17905,0.0281
-13.8,-0.6715,0.18024,0.17728,0.0273
-13.7,-0.6681,0.1785,0.17554,0.0265
-13.6,-0.6648,0.17677,0.17381,0.0257
-13.5,-0.6614,0.17507,0.17211,0.0249
-13.4,-0.658,0.17338,0.17042,0.0241
-13.3,-0.6546,0.17171,0.16875,0.0233
-13.2,-0.6512,0.17005,0.1671,0.0225
-13.1,-0.6477,0.16842,0.16546,0.0217
-13,-0.6442,0.1668,0.16385,0.0209
-12.9,-0.6407,0.1652,0.16224,0.0201
-12.8,-0.6372,0.16361,0.16065,0.0192
-12.7,-0.6336,0.16204,0.15908,0.0184
-12.6,-0.6301,0.16048,0.15752,0.0176
-12.5,-0.6265,0.15893,0.15598,0.0168
-12.4,-0.6229,0.1574,0.15445,0.0159
-12.3,-0.6192,0.15587,0.15291,0.0151
-12.2,-0.6156,0.15435,0.15138,0.0143
-12.1,-0.6119,0.15284,0.14988,0.0134
-12,-0.6082,0.15133,0.14837,0.0126
-11.9,-0.6045,0.14982,0.14686,0.0118
-11.8,-0.6008,0.14831,0.14536,0.0109
-11.7,-0.597,0.14681,0.14386,0.0101
-11.6,-0.5932,0.14531,0.14235,0.0092
-11.5,-0.5895,0.14381,0.14086,0.0084
-11.4,-0.5857,0.14231,0.13936,0.0076
-11.3,-0.5819,0.14081,0.13787,0.0067
-11.2,-0.5781,0.13932,0.13638,0.0059
-11.1,-0.5743,0.13783,0.13489,0.0051
-11,-0.5705,0.13634,0.1334,0.0042
-10.9,-0.5667,0.13484,0.13191,0.0034
-10.8,-0.5628,0.13335,0.13042,0.0026
-10.7,-0.559,0.13186,0.12893,0.0017
-10.6,-0.5552,0.13037,0.12744,0.0009
-10.5,-0.5514,0.12888,0.12596,0.0001
-10.4,-0.5476,0.12739,0.12447,-0.0008
-10.3,-0.5438,0.1259,0.12298,-0.0016
-10.2,-0.54,0.1244,0.12149,-0.0024
-10.1,-0.5362,0.12291,0.12,-0.0032
-10,-0.5324,0.12141,0.11851,-0.004
-9.9,-0.5286,0.11991,0.11701,-0.0048
-9.8,-0.5249,0.11841,0.11551,-0.0056
-9.7,-0.5212,0.11691,0.11401,-0.0064
-9.6,-0.5175,0.1154,0.11251,-0.0072
-9.5,-0.5138,0.11387,0.11099,-0.008
-9.4,-0.5087,0.11112,0.10825,-0.0099
-9.3,-0.5049,0.10942,0.10655,-0.0109
-9.2,-0.5011,0.10776,0.1049,-0.012
-9.1,-0.4975,0.10613,0.10328,-0.0131
-9,-0.494,0.10452,0.10168,-0.0143
-8.8,-0.4891,0.10164,0.09885,-0.016
-8.7,-0.4875,0.1004,0.09762,-0.0161
-8.6,-0.4865,0.09922,0.09646,-0.0161
-8.5,-0.4861,0.09813,0.09538,-0.0159
-8.4,-0.4864,0.09712,0.09438,-0.0156
-8.3,-0.4874,0.09618,0.09346,-0.0152
-8.2,-0.4888,0.0953,0.0926,-0.0146
-8.1,-0.4901,0.09442,0.09172,-0.0141
-8,-0.4909,0.09349,0.09081,-0.0137
-7.8,-0.4942,0.09183,0.08919,-0.0125
-7.7,-0.4891,0.09036,0.08772,-0.0138
-7.6,-0.4806,0.08862,0.08597,-0.016
-7.5,-0.4719,0.08689,0.08424,-0.0182
-7.4,-0.4627,0.08518,0.08252,-0.0205
-7.3,-0.4523,0.08341,0.08074,-0.0231
-7.2,-0.4424,0.08172,0.07903,-0.0256
-7.1,-0.433,0.08009,0.0774,-0.0279
-7,-0.4231,0.07846,0.07576,-0.0303
-6.9,-0.4127,0.07682,0.0741,-0.0328
-6.8,-0.4017,0.07516,0.07243,-0.0354
-6.7,-0.3901,0.07348,0.07074,-0.0381
-6.6,-0.3772,0.0717,0.06894,-0.0412
-6.5,-0.3664,0.07009,0.0673,-0.0437
-6.4,-0.3553,0.06845,0.06565,-0.0461
-6.3,-0.3433,0.06675,0.06394,-0.0489
-6.2,-0.3306,0.065,0.06216,-0.0517
-6.1,-0.3171,0.06319,0.06033,-0.0547
-6,-0.3031,0.06132,0.05843,-0.0579
-5.9,-0.2884,0.05937,0.05645,-0.0612
-5.8,-0.273,0.05734,0.05439,-0.0646
-5.7,-0.2595,0.05539,0.0524,-0.0675
-5.6,-0.2456,0.05333,0.05028,-0.0705
-5.5,-0.23,0.05104,0.04794,-0.0739
-5.4,-0.2128,0.04838,0.04523,-0.0779
-5.3,-0.1935,0.0451,0.04186,-0.0826
-5.2,-0.1492,0.03093,0.02719,-0.0998
-5,-0.1241,0.03123,0.02748,-0.1008
-4.6,-0.0496,0.01881,0.01378,-0.1136
-4.5,-0.0376,0.01784,0.01262,-0.114
-4.4,-0.025,0.01698,0.01158,-0.1145
-4.3,-0.0119,0.01621,0.01062,-0.115
-4.2,0.0014,0.01551,0.00975,-0.1155
-4.1,0.0148,0.0149,0.00897,-0.116
-4,0.0284,0.01438,0.00829,-0.1164
-3.9,0.0419,0.01397,0.00773,-0.1168
-3.8,0.0559,0.01345,0.00714,-0.1174
-3.7,0.0695,0.01305,0.00669,-0.1179
-3.6,0.0831,0.01277,0.00636,-0.1183
-3.5,0.0977,0.01248,0.006,-0.1189
-3.4,0.1082,0.01227,0.00573,-0.1186
-3.3,0.1204,0.01203,0.00543,-0.1186
-3.2,0.1331,0.0118,0.00513,-0.1188
-3.1,0.1463,0.01158,0.00484,-0.119
-3,0.1595,0.01135,0.00459,-0.1194
-2.9,0.1731,0.01117,0.00439,-0.1197
-2.8,0.1864,0.01102,0.00421,-0.12
-2.7,0.1993,0.01088,0.00403,-0.1202
-2.6,0.2098,0.01077,0.00388,-0.1199
-2.5,0.2216,0.01071,0.00388,-0.12
-2.4,0.2341,0.01059,0.00373,-0.1201
-2.2,0.2599,0.01038,0.0035,-0.1205
-2.1,0.2729,0.01028,0.00337,-0.1207
-2,0.2841,0.0102,0.00326,-0.1206
-1.9,0.2957,0.01011,0.00319,-0.1205
-1.8,0.3078,0.01003,0.00311,-0.1206
-1.7,0.3201,0.00999,0.00305,-0.1207
-1.6,0.3329,0.00989,0.00296,-0.1208
-1.5,0.3456,0.00982,0.00289,-0.121
-1.4,0.3567,0.00978,0.00284,-0.1208
-1.3,0.368,0.00973,0.00283,-0.1208
-1.2,0.3801,0.00968,0.00276,-0.1208
-1.1,0.3924,0.00962,0.00268,-0.1208
-1,0.4046,0.00955,0.00263,-0.1209
-0.9,0.4154,0.00949,0.00256,-0.1205
-0.8,0.4277,0.00943,0.00251,-0.1206
-0.7,0.4392,0.00939,0.00249,-0.1205
-0.6,0.4505,0.00934,0.0024,-0.1202
-0.5,0.4626,0.00929,0.00237,-0.1203
-0.4,0.474,0.00927,0.00236,-0.1202
-0.3,0.4854,0.00922,0.00232,-0.12
-0.2,0.4974,0.00919,0.00229,-0.12
-0.1,0.5086,0.00916,0.00227,-0.1198
0,0.5202,0.00912,0.00222,-0.1197
0.1,0.5317,0.0091,0.00221,-0.1196
0.2,0.5433,0.00908,0.00219,-0.1195
0.3,0.5549,0.00905,0.00218,-0.1194
0.4,0.5662,0.00902,0.00215,-0.1193
0.5,0.5778,0.00901,0.00214,-0.1192
0.6,0.5892,0.00899,0.00213,-0.119
0.7,0.6006,0.00898,0.00211,-0.1189
0.8,0.6118,0.00897,0.00208,-0.1186
0.9,0.6231,0.00895,0.00208,-0.1185
1,0.6345,0.00894,0.00208,-0.1184
1.1,0.6457,0.00893,0.00207,-0.1182
1.2,0.6562,0.00896,0.00204,-0.1178
1.3,0.6674,0.00895,0.00206,-0.1177
1.4,0.6782,0.00888,0.00211,-0.1175
1.6,0.692,0.00765,0.00211,-0.1152
1.7,0.7016,0.00782,0.00211,-0.1147
1.8,0.712,0.00795,0.00214,-0.1143
1.9,0.7221,0.00811,0.00217,-0.1139
2,0.7322,0.00827,0.00222,-0.1135
2.1,0.7422,0.00845,0.00228,-0.1132
2.2,0.7504,0.0088,0.00238,-0.1125
2.3,0.76,0.00902,0.00247,-0.1121
2.4,0.7695,0.00927,0.00257,-0.1116
2.5,0.7788,0.00954,0.00268,-0.1112
2.6,0.788,0.00983,0.00281,-0.1108
2.7,0.7955,0.01034,0.003,-0.1102
2.8,0.805,0.01063,0.00314,-0.1099
2.9,0.8148,0.01087,0.00326,-0.1096
3,0.8251,0.01108,0.00342,-0.1094
3.1,0.8355,0.01125,0.00354,-0.1092
3.2,0.8454,0.0115,0.00368,-0.1089
3.3,0.856,0.01164,0.0038,-0.1087
3.4,0.8666,0.0118,0.00393,-0.1085
3.5,0.8773,0.01193,0.00403,-0.1083
3.6,0.8879,0.01208,0.00416,-0.1081
3.7,0.8986,0.01221,0.00426,-0.1079
3.8,0.9089,0.01239,0.00439,-0.1077
3.9,0.9195,0.01254,0.0045,-0.1075
4,0.9302,0.01267,0.00463,-0.1073
4.1,0.9408,0.01281,0.00475,-0.1071
4.2,0.9514,0.01296,0.00489,-0.1069
4.3,0.9616,0.01315,0.00501,-0.1066
4.4,0.9723,0.01328,0.00518,-0.1064
4.5,0.9828,0.01343,0.00531,-0.1062
4.6,0.9933,0.01358,0.00546,-0.1059
4.7,1.0038,0.01373,0.0056,-0.1057
4.8,1.014,0.01392,0.00574,-0.1054
4.9,1.0243,0.01409,0.00589,-0.1051
5,1.0347,0.01425,0.00606,-0.1049
5.1,1.0451,0.01441,0.00622,-0.1046
5.2,1.0553,0.01461,0.00638,-0.1043
5.3,1.0656,0.01477,0.00657,-0.104
5.4,1.0755,0.01499,0.00673,-0.1037
5.5,1.0858,0.01516,0.00692,-0.1034
5.6,1.096,0.01534,0.00711,-0.1031
5.7,1.106,0.01555,0.00731,-0.1028
5.8,1.1161,0.01575,0.00756,-0.1024
5.9,1.1262,0.01594,0.00778,-0.1021
6,1.1363,0.01614,0.008,-0.1017
6.1,1.1461,0.01637,0.00824,-0.1013
6.2,1.1559,0.0166,0.00846,-0.101
6.3,1.1658,0.01681,0.00871,-0.1006
6.4,1.1756,0.01705,0.00896,-0.1002
6.5,1.1851,0.0173,0.00923,-0.0997
6.6,1.1944,0.0176,0.00954,-0.0993
6.7,1.2042,0.01783,0.00983,-0.0988
6.8,1.2138,0.01809,0.01014,-0.0984
6.9,1.2233,0.01836,0.01045,-0.0979
7.1,1.2416,0.01895,0.01109,-0.0969
7.2,1.2505,0.01928,0.01145,-0.0964
7.3,1.2598,0.01957,0.01182,-0.0958
7.4,1.2688,0.01989,0.0122,-0.0953
7.5,1.2785,0.02008,0.0124,-0.0949
7.6,1.2872,0.02044,0.01279,-0.0943
7.7,1.295,0.02089,0.01328,-0.0936
7.8,1.3039,0.02122,0.01367,-0.093
7.9,1.3124,0.02159,0.01412,-0.0924
8,1.3207,0.02198,0.01459,-0.0917
8.1,1.3307,0.0221,0.01469,-0.0914
8.2,1.3384,0.02255,0.01518,-0.0907
8.3,1.3462,0.02299,0.01568,-0.09
8.4,1.3538,0.02344,0.01623,-0.0892
8.5,1.3613,0.02391,0.0168,-0.0884
8.6,1.3685,0.0244,0.01737,-0.0876
8.7,1.3756,0.02489,0.01797,-0.0868
8.8,1.3825,0.02538,0.01854,-0.0859
8.9,1.3892,0.02589,0.01912,-0.0851
9,1.3954,0.02644,0.01974,-0.0842
9.1,1.4008,0.02707,0.02043,-0.0832
9.2,1.4054,0.02777,0.0212,-0.0821
9.3,1.4103,0.02845,0.02202,-0.081
9.4,1.4145,0.02919,0.02289,-0.0798
9.5,1.4182,0.02996,0.02378,-0.0785
9.6,1.4213,0.03074,0.02469,-0.0772
9.7,1.4237,0.03154,0.0256,-0.0758
9.8,1.425,0.03231,0.02649,-0.0743
9.9,1.426,0.03311,0.0274,-0.0727
10,1.4266,0.03394,0.02833,-0.0712
10.1,1.427,0.03479,0.02929,-0.0697
10.2,1.427,0.03565,0.03026,-0.0682
10.3,1.4267,0.03655,0.03126,-0.0668
10.4,1.426,0.03747,0.03228,-0.0654
10.5,1.4248,0.03843,0.03334,-0.064
10.6,1.4232,0.03942,0.03444,-0.0627
10.7,1.4213,0.04045,0.03556,-0.0614
10.8,1.4188,0.04154,0.03675,-0.0602
10.9,1.4159,0.04266,0.03797,-0.0591
11,1.4125,0.04387,0.03926,-0.058
11.1,1.4086,0.04513,0.04062,-0.0571
11.2,1.4041,0.04646,0.04205,-0.0563
11.3,1.3993,0.04788,0.04356,-0.0556
11.4,1.394,0.04939,0.04517,-0.0551
11.5,1.3883,0.05099,0.04686,-0.0547
11.6,1.3821,0.05269,0.04865,-0.0546
11.7,1.3757,0.0545,0.05055,-0.0547
11.8,1.369,0.05642,0.05257,-0.055
11.9,1.3621,0.05849,0.05472,-0.0556
12,1.355,0.06069,0.05702,-0.0566
12.1,1.3479,0.06303,0.05944,-0.0578
12.2,1.3406,0.06555,0.06206,-0.0594
12.3,1.3331,0.06831,0.06491,-0.0615
12.4,1.3257,0.07132,0.06802,-0.0641
12.5,1.3184,0.07462,0.07142,-0.0672
12.7,1.3035,0.08256,0.07957,-0.0753
12.8,1.2957,0.08751,0.08465,-0.0806
12.9,1.2872,0.09349,0.09076,-0.0868
13,1.2773,0.10034,0.09774,-0.0933
13.2,1.2516,0.11511,0.1127,-0.1058
13.4,1.221,0.13152,0.12922,-0.118
13.5,1.2053,0.14028,0.138,-0.1238
13.6,1.1945,0.14729,0.14501,-0.1282
13.7,1.188,0.15273,0.15045,-0.1316
13.8,1.1846,0.15709,0.15479,-0.1342
13.9,1.1827,0.16074,0.15844,-0.1365
14,1.1819,0.16395,0.16165,-0.1385
14.1,1.1821,0.16676,0.16446,-0.1404
14.2,1.1826,0.16941,0.1671,-0.1421
14.3,1.1837,0.17182,0.16951,-0.1438
14.4,1.1849,0.17414,0.17183,-0.1454
14.5,1.1864,0.17629,0.17398,-0.1469
14.6,1.1881,0.1783,0.17598,-0.1484
14.7,1.19,0.18012,0.17781,-0.1498
14.8,1.1919,0.18194,0.17962,-0.1511
14.9,1.1938,0.18369,0.18138,-0.1525
15,1.1959,0.18524,0.18293,-0.1538
15.1,1.1979,0.18674,0.18442,-0.155
15.2,1.1998,0.18821,0.1859,-0.1563
15.3,1.1972,0.19551,0.19316,-0.1596
15.4,1.1971,0.20113,0.19877,-0.1621
15.5,1.1989,0.20455,0.20218,-0.1639
15.6,1.2011,0.20739,0.20502,-0.1656
15.7,1.2036,0.21005,0.20768,-0.1672
15.8,1.2061,0.21248,0.21011,-0.1687
16,1.212,0.21699,0.21462,-0.172
16.1,1.2149,0.21893,0.21656,-0.1733
16.2,1.2177,0.22085,0.21848,-0.1747
16.3,1.2207,0.2227,0.22033,-0.1761
16.4,1.2236,0.22453,0.22216,-0.1774
16.5,1.2266,0.22625,0.22389,-0.1788
16.6,1.2296,0.22803,0.22568,-0.1801
16.7,1.2326,0.22976,0.22741,-0.1814
16.8,1.2356,0.23141,0.22906,-0.1828
16.9,1.2386,0.23309,0.23074,-0.1841
17,1.2416,0.23469,0.23235,-0.1854
17.1,1.2445,0.23623,0.23388,-0.1867
17.2,1.2475,0.23785,0.23551,-0.188
17.3,1.2505,0.23938,0.23704,-0.1893
17.4,1.2534,0.24097,0.23864,-0.1905
17.5,1.2562,0.24249,0.24016,-0.1918
17.6,1.2589,0.24405,0.24172,-0.193
17.7,1.2633,0.24942,0.24707,-0.1954
17.9,1.2712,0.25699,0.25463,-0.199
18,1.2749,0.25974,0.25738,-0.2006
18.1,1.2785,0.26226,0.2599,-0.2021
18.2,1.2821,0.26468,0.26232,-0.2036
18.3,1.2857,0.26699,0.26463,-0.205
18.4,1.2892,0.26923,0.26688,-0.2065
18.5,1.2928,0.27142,0.26907,-0.208
18.6,1.2963,0.27357,0.27122,-0.2094
18.7,1.2998,0.2757,0.27336,-0.2109
18.8,1.3034,0.27777,0.27543,-0.2123
18.9,1.3069,0.27983,0.27749,-0.2138
19,1.3104,0.28186,0.27952,-0.2152
19.1,1.3139,0.28388,0.28155,-0.2167
19.2,1.3174,0.28586,0.28353,-0.2181
19.3,1.3209,0.28785,0.28552,-0.2196
19.4,1.3244,0.28982,0.2875,-0.221
19.5,1.3279,0.29177,0.28946,-0.2224
19.6,1.3314,0.29372,0.29141,-0.2239
19.7,1.3348,0.29563,0.29332,-0.2254
19.8,1.3383,0.29753,0.29525,-0.2268
19.9,1.3418,0.2995,0.29721,-0.2283
20,1.3452,0.30137,0.2991,-0.2297
20.1,1.3487,0.30327,0.30099,-0.2312
20.2,1.3521,0.30514,0.30287,-0.2327
20.3,1.3555,0.30704,0.30477,-0.2341
20.4,1.3589,0.30895,0.30669,-0.2356
20.5,1.3624,0.31088,0.30862,-0.2371
20.6,1.3658,0.31276,0.31051,-0.2385
20.7,1.3691,0.31466,0.31241,-0.24
20.8,1.3725,0.31655,0.31431,-0.2415
20.9,1.3759,0.31845,0.31622,-0.243
21,1.3792,0.32034,0.31811,-0.2444
21.1,1.3826,0.32228,0.32005,-0.2459
21.2,1.3859,0.32418,0.32195,-0.2474
21.3,1.3893,0.3261,0.32388,-0.2489
21.4,1.3926,0.32803,0.32582,-0.2504
21.5,1.3959,0.33001,0.3278,-0.2519
21.6,1.3992,0.33195,0.32974,-0.2534
21.7,1.4025,0.33397,0.33177,-0.2549
21.8,1.4058,0.33595,0.33376,-0.2564
21.9,1.4091,0.33794,0.33575,-0.2579
22,1.4123,0.33996,0.33777,-0.2594
22.1,1.4156,0.34199,0.33981,-0.2609
22.2,1.4188,0.34405,0.34188,-0.2623
22.3,1.422,0.34613,0.34397,-0.2639
22.4,1.4253,0.34824,0.34608,-0.2654
22.5,1.4285,0.35036,0.3482,-0.2669
22.6,1.4317,0.35251,0.35036,-0.2684
22.7,1.4349,0.35467,0.35253,-0.2699
22.8,1.4381,0.35685,0.35471,-0.2714
22.9,1.4413,0.35905,0.35693,-0.2729
23,1.4444,0.36127,0.35916,-0.2744
23.1,1.4476,0.3635,0.3614,-0.2759
23.2,1.4507,0.36576,0.36366,-0.2774
23.4,1.4592,0.37144,0.36932,-0.2814
23.5,1.4637,0.37456,0.37244,-0.2835
23.6,1.4679,0.37751,0.37539,-0.2855
23.7,1.472,0.38045,0.37833,-0.2874
23.8,1.4759,0.38325,0.38114,-0.2892
23.9,1.4821,0.38804,0.38593,-0.292
24,1.4856,0.39047,0.38836,-0.2937
24.1,1.489,0.39281,0.39071,-0.2954
24.2,1.4925,0.39531,0.39321,-0.2972
24.3,1.4959,0.39765,0.39556,-0.299
24.4,1.4993,0.40003,0.39794,-0.3007
24.5,1.5027,0.40238,0.4003,-0.3025
24.6,1.5061,0.40474,0.40266,-0.3043
24.7,1.5094,0.40703,0.40496,-0.306
24.8,1.5127,0.40935,0.40728,-0.3078
24.9,1.516,0.41166,0.4096,-0.3096
25,1.5193,0.41394,0.41188,-0.3114
25.1,1.5226,0.41624,0.41418,-0.3132
25.2,1.5258,0.41849,0.41645,-0.3149
25.3,1.529,0.42075,0.41871,-0.3167
25.4,1.5322,0.42302,0.42099,-0.3185
25.5,1.5354,0.42528,0.42325,-0.3203
25.6,1.5385,0.42752,0.42549,-0.3221
25.7,1.5417,0.42974,0.42773,-0.3239
25.8,1.5448,0.43199,0.42998,-0.3257
25.9,1.5479,0.43422,0.43221,-0.3276
26,1.551,0.43646,0.43446,-0.3294
26.1,1.554,0.43869,0.4367,-0.3312
26.2,1.5571,0.44093,0.43894,-0.333
26.3,1.5601,0.44315,0.44117,-0.3349
26.4,1.5631,0.44538,0.4434,-0.3367
26.5,1.5661,0.44757,0.44562,-0.3386
26.6,1.569,0.44981,0.44787,-0.3404
26.7,1.572,0.45206,0.45013,-0.3422
26.8,1.5749,0.45429,0.45236,-0.3441
26.9,1.5778,0.45646,0.45453,-0.346
27,1.5807,0.45871,0.45679,-0.3478
27.1,1.5836,0.46092,0.45901,-0.3497
27.2,1.5864,0.46315,0.46125,-0.3515
27.3,1.5892,0.46539,0.46349,-0.3534
27.4,1.592,0.46766,0.46576,-0.3553
27.5,1.5948,0.4699,0.46802,-0.3572
27.6,1.5976,0.47217,0.47029,-0.359
27.7,1.6003,0.47441,0.47253,-0.3609
27.8,1.6031,0.4767,0.47483,-0.3628
27.9,1.6058,0.47894,0.47709,-0.3647
28,1.6084,0.48122,0.47937,-0.3666
28.1,1.6111,0.48354,0.48169,-0.3685
28.2,1.6137,0.48585,0.48401,-0.3703
28.3,1.6164,0.4882,0.48637,-0.3722
28.4,1.619,0.49055,0.48872,-0.3741
28.5,1.6216,0.49294,0.49113,-0.376
28.6,1.6242,0.49536,0.49355,-0.3779
28.7,1.6267,0.4978,0.49599,-0.3798
28.8,1.6293,0.50023,0.49843,-0.3817
28.9,1.6318,0.5027,0.50091,-0.3836
29,1.6343,0.50519,0.50341,-0.3855
29.1,1.6368,0.50771,0.50594,-0.3874
29.2,1.6393,0.51025,0.50848,-0.3893
29.3,1.6417,0.51283,0.51107,-0.3913
29.4,1.6442,0.51543,0.51367,-0.3932
29.5,1.6466,0.51805,0.51632,-0.3951
29.6,1.649,0.52064,0.51892,-0.397
29.7,1.6514,0.5233,0.52159,-0.3989
29.8,1.6538,0.52597,0.52427,-0.4009
29.9,1.6562,0.52871,0.52701,-0.4028
30,1.6586,0.53141,0.52972,-0.4047

