airfoilName st23.dat
Re 	670000
M 	2.500000e-01
N 	4.500000e+00
VACC 	0 VACCflag 1
XTR 	1.00 	1.00 XTRflag 0
alpha,cl,cd,cdp,cm
-29.4,-1.2331,0.51442,0.51292,0.2514
-29.3,-1.2305,0.51121,0.5097,0.2498
-29.2,-1.2278,0.50822,0.5067,0.248
-29.1,-1.2251,0.50495,0.50343,0.2464
-29,-1.2224,0.5016,0.50008,0.2448
-28.9,-1.2197,0.49837,0.49685,0.2431
-28.8,-1.217,0.49508,0.49355,0.2415
-28.7,-1.2142,0.492,0.49047,0.2398
-28.6,-1.2114,0.48891,0.48737,0.2381
-28.5,-1.2086,0.48584,0.48431,0.2365
-28.4,-1.2058,0.48305,0.4815,0.2348
-28.3,-1.2029,0.47995,0.4784,0.2331
-28.2,-1.2001,0.47711,0.47556,0.2314
-28.1,-1.1972,0.47432,0.47277,0.2297
-28,-1.1943,0.47157,0.47001,0.228
-27.9,-1.1913,0.46887,0.4673,0.2263
-27.8,-1.1884,0.46622,0.46464,0.2246
-27.7,-1.1854,0.46365,0.46207,0.2229
-27.6,-1.1824,0.46111,0.45953,0.2212
-27.5,-1.1794,0.45856,0.45697,0.2194
-27.4,-1.1763,0.45608,0.4545,0.2177
-27.3,-1.1732,0.45366,0.45206,0.216
-27.2,-1.1702,0.45124,0.44965,0.2142
-27.1,-1.1671,0.44885,0.44725,0.2125
-27,-1.1639,0.44647,0.44487,0.2108
-26.9,-1.1608,0.44412,0.44252,0.2091
-26.8,-1.1576,0.4418,0.44019,0.2073
-26.7,-1.1544,0.43948,0.43787,0.2056
-26.6,-1.1513,0.43719,0.43557,0.2039
-26.5,-1.148,0.4349,0.43328,0.2022
-26.4,-1.1448,0.43264,0.43101,0.2005
-26.3,-1.1416,0.43038,0.42875,0.1988
-26.2,-1.1383,0.42813,0.4265,0.1971
-26.1,-1.1351,0.42588,0.42425,0.1954
-26,-1.1318,0.42365,0.42202,0.1937
-25.9,-1.1285,0.42143,0.41979,0.192
-25.8,-1.1252,0.41922,0.41758,0.1903
-25.7,-1.1218,0.41702,0.41538,0.1886
-25.6,-1.1185,0.41482,0.41318,0.1869
-25.5,-1.1152,0.41263,0.41098,0.1853
-25.4,-1.1118,0.41043,0.40878,0.1836
-25.3,-1.1084,0.40825,0.4066,0.1819
-25.2,-1.105,0.40607,0.4044,0.1803
-25.1,-1.1016,0.4039,0.40223,0.1786
-25,-1.0982,0.40174,0.40006,0.177
-24.9,-1.0948,0.39956,0.39788,0.1753
-24.8,-1.0914,0.3974,0.39572,0.1737
-24.7,-1.088,0.39525,0.39357,0.1721
-24.6,-1.0845,0.39309,0.3914,0.1705
-24.5,-1.0811,0.39094,0.38925,0.1689
-24.4,-1.0776,0.38878,0.38709,0.1672
-24.3,-1.0741,0.38666,0.38496,0.1656
-24.1,-1.067,0.38292,0.38122,0.1623
-24,-1.0635,0.38077,0.37907,0.1607
-23.9,-1.06,0.37859,0.37689,0.1591
-23.8,-1.0565,0.37647,0.37476,0.1576
-23.7,-1.053,0.37432,0.37261,0.156
-23.6,-1.0494,0.37216,0.37045,0.1545
-23.5,-1.0459,0.37002,0.3683,0.1529
-23.4,-1.0423,0.3679,0.36618,0.1514
-23.3,-1.0387,0.36578,0.36406,0.1498
-23.2,-1.0352,0.36364,0.36192,0.1483
-23.1,-1.0316,0.3615,0.35978,0.1468
-23,-1.028,0.35943,0.3577,0.1453
-22.9,-1.0244,0.35731,0.35558,0.1438
-22.8,-1.0208,0.3552,0.35347,0.1423
-22.7,-1.0171,0.35311,0.35137,0.1408
-22.6,-1.0135,0.351,0.34926,0.1393
-22.5,-1.0099,0.34892,0.34718,0.1378
-22.4,-1.0063,0.34682,0.34508,0.1363
-22.3,-1.0026,0.34475,0.34299,0.1349
-22.2,-0.999,0.34268,0.34092,0.1334
-22.1,-0.9953,0.34059,0.33883,0.1319
-22,-0.9916,0.33854,0.33678,0.1305
-21.9,-0.988,0.33647,0.3347,0.129
-21.8,-0.9843,0.33441,0.33264,0.1276
-21.7,-0.9806,0.33235,0.33058,0.1262
-21.6,-0.9769,0.33031,0.32854,0.1247
-21.5,-0.9733,0.32826,0.32649,0.1233
-21.4,-0.9696,0.32622,0.32445,0.1219
-21.3,-0.9659,0.32419,0.32242,0.1205
-21.2,-0.9622,0.32215,0.32038,0.1191
-21.1,-0.9584,0.32013,0.31835,0.1177
-21,-0.9547,0.3181,0.31632,0.1163
-20.9,-0.951,0.31609,0.31431,0.1149
-20.8,-0.9473,0.31408,0.31229,0.1135
-20.7,-0.9435,0.31205,0.31026,0.1121
-20.6,-0.9398,0.31005,0.30826,0.1108
-20.5,-0.936,0.30805,0.30626,0.1094
-20.4,-0.9322,0.30606,0.30426,0.108
-20.3,-0.9284,0.30405,0.30226,0.1066
-20.2,-0.9246,0.30206,0.30027,0.1053
-20.1,-0.9208,0.30006,0.29827,0.1039
-20,-0.917,0.29806,0.29627,0.1026
-19.9,-0.9132,0.29607,0.29428,0.1012
-19.8,-0.9094,0.29409,0.29229,0.0999
-19.7,-0.9056,0.2921,0.2903,0.0985
-19.6,-0.9018,0.29012,0.28831,0.0972
-19.5,-0.8979,0.28813,0.28633,0.0959
-19.4,-0.8941,0.28614,0.28434,0.0945
-19.3,-0.8902,0.28416,0.28235,0.0932
-19.2,-0.8864,0.28218,0.28036,0.0919
-19.1,-0.8825,0.28018,0.27836,0.0906
-19,-0.8787,0.27819,0.27637,0.0892
-18.9,-0.8748,0.27618,0.27436,0.0879
-18.8,-0.8709,0.27416,0.27234,0.0866
-18.7,-0.867,0.27213,0.27031,0.0853
-18.6,-0.863,0.27006,0.26824,0.0839
-18.5,-0.8589,0.26791,0.26609,0.0826
-18.4,-0.8548,0.26573,0.2639,0.0812
-17.8,-0.8269,0.2543,0.2525,0.0716
-17.7,-0.8237,0.25197,0.25017,0.0707
-17.6,-0.8207,0.2495,0.24769,0.0699
-17.5,-0.8178,0.24698,0.24517,0.0692
-17.4,-0.8147,0.24464,0.24284,0.0683
-17.3,-0.8115,0.24249,0.24068,0.0674
-17.2,-0.8082,0.2404,0.23859,0.0664
-17.1,-0.8047,0.23842,0.2366,0.0655
-17,-0.8013,0.23649,0.23467,0.0644
-16.9,-0.7977,0.2346,0.23279,0.0634
-16.8,-0.7942,0.23276,0.23094,0.0624
-16.7,-0.7906,0.23094,0.22912,0.0613
-16.6,-0.7869,0.22913,0.22731,0.0603
-16.5,-0.7833,0.22735,0.22553,0.0592
-16.4,-0.7796,0.22559,0.22377,0.0582
-16.3,-0.7759,0.22383,0.22201,0.0571
-16.2,-0.7722,0.22208,0.22025,0.0561
-16.1,-0.7685,0.22034,0.21852,0.055
-16,-0.7648,0.2186,0.21677,0.054
-15.9,-0.7611,0.21688,0.21505,0.053
-15.8,-0.7574,0.21514,0.21331,0.0519
-15.7,-0.7537,0.21343,0.21159,0.0509
-15.6,-0.75,0.21171,0.20986,0.0498
-15.5,-0.7462,0.21,0.20815,0.0488
-15.4,-0.7425,0.20829,0.20644,0.0478
-15.3,-0.7388,0.20659,0.20474,0.0468
-15.2,-0.735,0.20488,0.20304,0.0458
-15.1,-0.7313,0.20318,0.20133,0.0447
-15,-0.7275,0.20149,0.19964,0.0437
-14.9,-0.7238,0.19979,0.19794,0.0427
-14.8,-0.72,0.19809,0.19624,0.0417
-14.7,-0.7162,0.19639,0.19455,0.0407
-14.6,-0.7124,0.1947,0.19285,0.0397
-14.5,-0.7086,0.19301,0.19116,0.0387
-14.4,-0.7048,0.19132,0.18947,0.0377
-14.3,-0.701,0.18963,0.18778,0.0367
-14.1,-0.6931,0.18654,0.18469,0.0344
-14,-0.6893,0.18484,0.18299,0.0334
-13.9,-0.6855,0.18313,0.18128,0.0324
-13.8,-0.6818,0.18143,0.17959,0.0315
-13.7,-0.678,0.17974,0.1779,0.0305
-13.6,-0.6742,0.17805,0.1762,0.0296
-13.5,-0.6704,0.17636,0.17452,0.0286
-13.4,-0.6666,0.17467,0.17283,0.0277
-13.3,-0.6628,0.17299,0.17114,0.0268
-13.2,-0.6589,0.1713,0.16945,0.0258
-13.1,-0.6551,0.16961,0.16777,0.0249
-13,-0.6512,0.16793,0.16608,0.0239
-12.9,-0.6474,0.16624,0.1644,0.023
-12.8,-0.6435,0.16456,0.16271,0.0221
-12.7,-0.6397,0.16287,0.16102,0.0212
-12.6,-0.6358,0.16118,0.15934,0.0202
-12.5,-0.632,0.15949,0.15765,0.0193
-12.4,-0.6281,0.15779,0.15594,0.0184
-12.3,-0.6243,0.15609,0.15424,0.0175
-12.2,-0.6204,0.15437,0.15252,0.0166
-12.1,-0.6166,0.15262,0.15077,0.0156
-12,-0.6127,0.15084,0.14899,0.0147
-11.9,-0.6087,0.14906,0.14721,0.0138
-11.8,-0.6047,0.1471,0.14526,0.0128
-11.7,-0.6006,0.14505,0.1432,0.0119
-11.6,-0.5961,0.14279,0.14095,0.0108
-11.5,-0.5911,0.14061,0.13877,0.0095
-11.4,-0.586,0.13877,0.13694,0.0082
-11.2,-0.576,0.13525,0.13344,0.0056
-11.1,-0.5735,0.13344,0.13163,0.0051
-11,-0.5714,0.13158,0.12977,0.0046
-10.9,-0.5686,0.12991,0.1281,0.004
-10.8,-0.5655,0.12834,0.12654,0.0033
-10.7,-0.5623,0.12686,0.12506,0.0026
-10.6,-0.5589,0.12542,0.12362,0.0018
-10.5,-0.5553,0.12402,0.12222,0.001
-10.4,-0.5517,0.12266,0.12086,0.0002
-10.3,-0.5479,0.12129,0.11949,-0.0006
-10.2,-0.5442,0.11996,0.11816,-0.0014
-10.1,-0.5404,0.11862,0.11683,-0.0022
-10,-0.5366,0.1173,0.11551,-0.003
-9.9,-0.5328,0.11599,0.1142,-0.0038
-9.8,-0.529,0.11467,0.11288,-0.0046
-9.7,-0.5252,0.11337,0.11158,-0.0055
-9.6,-0.5214,0.11207,0.11029,-0.0063
-9.5,-0.5176,0.11078,0.109,-0.007
-9.4,-0.514,0.10949,0.10771,-0.0078
-9.3,-0.5103,0.10822,0.10644,-0.0086
-9.2,-0.5068,0.10695,0.10518,-0.0093
-9.1,-0.5034,0.1057,0.10393,-0.01
-9,-0.5001,0.10447,0.1027,-0.0107
-8.9,-0.4971,0.10326,0.1015,-0.0112
-8.8,-0.4944,0.10208,0.10033,-0.0117
-8.7,-0.4923,0.10097,0.09921,-0.0121
-8.6,-0.4911,0.09994,0.09819,-0.0122
-8.5,-0.491,0.09902,0.09728,-0.012
-8.4,-0.4926,0.09826,0.09654,-0.0114
-8.3,-0.4929,0.09738,0.09567,-0.0111
-8.2,-0.4857,0.09576,0.09405,-0.013
-8.1,-0.478,0.09411,0.0924,-0.0151
-8,-0.4687,0.09231,0.09058,-0.0176
-7.9,-0.4586,0.0904,0.08867,-0.0205
-7.8,-0.4497,0.08863,0.08689,-0.0229
-7.7,-0.4409,0.08687,0.08513,-0.0252
-7.6,-0.4317,0.08507,0.08332,-0.0276
-7.5,-0.422,0.08322,0.08146,-0.0302
-7.4,-0.4118,0.08133,0.07956,-0.0329
-7.3,-0.4011,0.07939,0.07761,-0.0357
-7.2,-0.3893,0.07733,0.07554,-0.0389
-7.1,-0.3798,0.07545,0.07365,-0.0414
-7,-0.3697,0.07347,0.07166,-0.044
-6.9,-0.3587,0.07133,0.06951,-0.047
-6.8,-0.3469,0.06902,0.06718,-0.0502
-6.7,-0.3341,0.06635,0.0645,-0.0538
-6.6,-0.3203,0.06355,0.06167,-0.0578
-5.4,-0.1174,0.01613,0.01243,-0.1177
-5.3,-0.1041,0.01497,0.01105,-0.1186
-5.2,-0.0911,0.01411,0.01002,-0.1192
-5.1,-0.0784,0.01344,0.0092,-0.1196
-5,-0.0664,0.01289,0.00852,-0.1198
-4.9,-0.0543,0.0124,0.00792,-0.12
-4.8,-0.0421,0.01197,0.00736,-0.1201
-4.7,-0.0298,0.01157,0.00687,-0.1203
-4.6,-0.0175,0.01122,0.00642,-0.1204
-4.4,0.0069,0.01084,0.00591,-0.1206
-4.3,0.0192,0.01057,0.00556,-0.1206
-4.2,0.0307,0.01035,0.00528,-0.1205
-4.1,0.0426,0.01018,0.00505,-0.1205
-4,0.0546,0.00985,0.00465,-0.1206
-3.9,0.0669,0.00946,0.00419,-0.1207
-3.8,0.079,0.00922,0.0039,-0.1207
-3.7,0.0909,0.00904,0.00368,-0.1207
-3.6,0.1028,0.00889,0.00349,-0.1207
-3.5,0.1147,0.00875,0.00331,-0.1206
-3.4,0.1266,0.00862,0.00314,-0.1206
-3.3,0.1385,0.00849,0.00297,-0.1205
-3.2,0.1502,0.00838,0.00281,-0.1205
-3.1,0.1622,0.00828,0.00268,-0.1205
-3,0.1741,0.00815,0.00253,-0.1205
-2.9,0.1859,0.00805,0.0024,-0.1204
-2.8,0.1977,0.00796,0.0023,-0.1204
-2.7,0.2094,0.00789,0.0022,-0.1203
-2.6,0.2212,0.00783,0.00212,-0.1203
-2.5,0.233,0.00776,0.00203,-0.1202
-2.4,0.2448,0.00769,0.00195,-0.1202
-2.3,0.2566,0.00763,0.00189,-0.1202
-2.2,0.2682,0.00759,0.00182,-0.1201
-2.1,0.28,0.00753,0.00176,-0.1201
-2,0.2917,0.00748,0.00171,-0.12
-1.9,0.3034,0.00743,0.00167,-0.12
-1.8,0.3146,0.0074,0.0016,-0.1198
-1.7,0.3258,0.00735,0.00157,-0.1196
-1.6,0.3374,0.00733,0.00152,-0.1196
-1.5,0.3492,0.00729,0.00148,-0.1195
-1.4,0.3604,0.00727,0.00143,-0.1193
-1.3,0.372,0.00724,0.00139,-0.1193
-1.2,0.3837,0.00721,0.00136,-0.1193
-1.1,0.3951,0.0072,0.00133,-0.1192
-1,0.4067,0.00718,0.0013,-0.1191
-0.9,0.4183,0.00717,0.00127,-0.119
-0.8,0.4297,0.00716,0.00125,-0.1189
-0.7,0.441,0.00716,0.00124,-0.1188
-0.6,0.4526,0.00716,0.00121,-0.1188
-0.5,0.4641,0.00715,0.0012,-0.1187
-0.4,0.4754,0.00717,0.00119,-0.1186
-0.3,0.4869,0.00718,0.00118,-0.1185
-0.2,0.4983,0.00719,0.00117,-0.1184
-0.1,0.5098,0.00719,0.00117,-0.1184
0,0.5208,0.00723,0.00116,-0.1182
0.1,0.5321,0.00727,0.00116,-0.118
0.2,0.5436,0.00728,0.00117,-0.118
0.3,0.5547,0.00733,0.00117,-0.1178
0.4,0.5657,0.00738,0.00119,-0.1177
0.5,0.5762,0.0075,0.0012,-0.1174
0.6,0.5873,0.00755,0.00121,-0.1173
0.7,0.5978,0.00767,0.00124,-0.117
0.8,0.6088,0.00775,0.00127,-0.1169
0.9,0.6187,0.00795,0.00132,-0.1166
1,0.6288,0.00813,0.00138,-0.1163
1.1,0.6396,0.00823,0.00143,-0.1162
1.2,0.65,0.00839,0.00149,-0.116
1.3,0.6608,0.00851,0.00154,-0.1158
1.5,0.6808,0.00895,0.00172,-0.1153
1.6,0.6913,0.00911,0.00179,-0.1152
1.7,0.7017,0.00928,0.00187,-0.115
1.8,0.712,0.00947,0.00196,-0.1148
1.9,0.7222,0.00967,0.00205,-0.1147
2,0.7319,0.00995,0.00217,-0.1144
2.1,0.7429,0.01003,0.00225,-0.1144
2.3,0.7587,0.00873,0.00247,-0.1131
2.4,0.7694,0.00889,0.00255,-0.113
2.5,0.7805,0.009,0.00262,-0.1129
2.6,0.7917,0.00908,0.00267,-0.1128
2.7,0.8029,0.00918,0.00273,-0.1127
2.8,0.814,0.00926,0.0028,-0.1126
2.9,0.8252,0.00936,0.00288,-0.1125
3,0.8361,0.00949,0.00296,-0.1123
3.1,0.8471,0.00959,0.00303,-0.1122
3.2,0.8583,0.00967,0.0031,-0.1121
3.3,0.8694,0.00977,0.00317,-0.112
3.4,0.8804,0.00987,0.00325,-0.1118
3.5,0.8912,0.01001,0.00332,-0.1117
3.6,0.9023,0.0101,0.0034,-0.1115
3.7,0.9134,0.0102,0.00348,-0.1114
3.8,0.9243,0.01031,0.00357,-0.1113
3.9,0.9354,0.0104,0.00365,-0.1111
4,0.946,0.01056,0.00375,-0.1109
4.1,0.957,0.01066,0.00384,-0.1108
4.2,0.9679,0.01077,0.00393,-0.1106
4.3,0.9788,0.01089,0.00406,-0.1104
4.4,0.9897,0.011,0.00415,-0.1103
4.5,1.0002,0.01116,0.00427,-0.11
4.6,1.0111,0.01128,0.00437,-0.1099
4.7,1.0219,0.01141,0.00448,-0.1097
4.8,1.0326,0.01154,0.00461,-0.1095
4.9,1.0434,0.01166,0.00472,-0.1093
5,1.0541,0.01179,0.00484,-0.109
5.1,1.0648,0.01194,0.00498,-0.1088
5.2,1.0753,0.01209,0.0051,-0.1086
5.3,1.0859,0.01224,0.00523,-0.1083
5.4,1.0965,0.01238,0.00538,-0.1081
5.5,1.1072,0.01251,0.00552,-0.1079
5.6,1.1179,0.01265,0.00566,-0.1076
5.7,1.1284,0.01281,0.00583,-0.1073
5.8,1.1388,0.01298,0.00599,-0.107
5.9,1.1494,0.01311,0.00615,-0.1068
6,1.16,0.01326,0.00631,-0.1065
6.1,1.1705,0.01341,0.00647,-0.1062
6.2,1.1809,0.01357,0.00665,-0.1059
6.3,1.191,0.01379,0.00684,-0.1056
6.4,1.2014,0.01394,0.00703,-0.1053
6.5,1.2119,0.0141,0.00721,-0.1049
6.6,1.2221,0.01427,0.00738,-0.1046
6.7,1.2324,0.01446,0.00758,-0.1043
6.8,1.2424,0.01466,0.00779,-0.1039
6.9,1.2525,0.01486,0.00799,-0.1036
7,1.2627,0.01504,0.00821,-0.1032
7.1,1.2728,0.01523,0.00842,-0.1028
7.2,1.2828,0.01543,0.00864,-0.1024
7.3,1.2926,0.01566,0.00888,-0.102
7.4,1.3025,0.01589,0.00913,-0.1016
7.5,1.3125,0.01608,0.00936,-0.1012
7.6,1.3224,0.01629,0.00961,-0.1007
7.7,1.3322,0.01651,0.00986,-0.1003
7.8,1.3418,0.01675,0.01011,-0.0998
7.9,1.3513,0.01701,0.0104,-0.0993
8,1.3607,0.01728,0.01071,-0.0988
8.1,1.3702,0.01753,0.01101,-0.0983
8.2,1.3796,0.0178,0.01132,-0.0978
8.3,1.3888,0.01808,0.01165,-0.0972
8.4,1.398,0.01837,0.01201,-0.0967
8.5,1.4069,0.01868,0.01236,-0.0961
8.6,1.4157,0.01901,0.01274,-0.0954
8.7,1.424,0.0194,0.01317,-0.0947
8.8,1.432,0.01983,0.01366,-0.094
8.9,1.4402,0.02021,0.01412,-0.0933
9.1,1.4578,0.02078,0.01478,-0.0921
9.2,1.4656,0.02119,0.01526,-0.0913
9.3,1.4732,0.02162,0.01576,-0.0905
9.4,1.4806,0.02206,0.01627,-0.0896
9.5,1.4877,0.02252,0.0168,-0.0888
9.6,1.4945,0.02301,0.01736,-0.0879
9.7,1.5009,0.02353,0.01796,-0.0869
9.8,1.5068,0.02409,0.01861,-0.0859
9.9,1.5121,0.02471,0.01932,-0.0848
10,1.5164,0.02539,0.0201,-0.0836
10.1,1.5196,0.02616,0.02098,-0.0822
10.2,1.5219,0.02697,0.02189,-0.0807
10.3,1.5259,0.02756,0.02258,-0.0795
10.4,1.5288,0.02821,0.02333,-0.0781
10.5,1.5302,0.02887,0.02408,-0.0764
10.6,1.5311,0.02955,0.02487,-0.0747
10.7,1.5312,0.03031,0.02573,-0.073
10.8,1.5309,0.0311,0.02662,-0.0713
10.9,1.53,0.03195,0.02758,-0.0696
11,1.5286,0.03284,0.02858,-0.0679
11.1,1.5268,0.03377,0.02962,-0.0663
11.2,1.5245,0.03475,0.03071,-0.0646
11.3,1.5215,0.03581,0.03187,-0.0631
11.4,1.5181,0.03691,0.03308,-0.0616
11.5,1.514,0.03807,0.03435,-0.0602
11.6,1.5096,0.0393,0.03568,-0.0589
11.7,1.5048,0.0406,0.03709,-0.0577
11.8,1.4994,0.04197,0.03856,-0.0566
11.9,1.4936,0.04342,0.04011,-0.0557
12,1.4875,0.04495,0.04174,-0.055
12.1,1.481,0.04657,0.04345,-0.0544
12.2,1.4742,0.0483,0.04528,-0.0541
12.3,1.4668,0.05014,0.04721,-0.054
12.4,1.4592,0.05211,0.04928,-0.0542
12.5,1.4514,0.05421,0.05147,-0.0547
12.6,1.4435,0.05647,0.05381,-0.0556
12.7,1.4353,0.05891,0.05634,-0.0568
12.8,1.4271,0.06155,0.05906,-0.0585
12.9,1.4184,0.06447,0.06207,-0.0607
13,1.4096,0.06776,0.06545,-0.0636
13.1,1.401,0.07144,0.06921,-0.0672
13.2,1.3921,0.07579,0.07364,-0.0717
13.3,1.3828,0.08127,0.07922,-0.0778
13.4,1.3726,0.08878,0.08687,-0.0857
13.5,1.3607,0.09659,0.09478,-0.0927
13.6,1.3486,0.10303,0.10126,-0.098
13.7,1.337,0.10887,0.10713,-0.1027
13.9,1.3159,0.11959,0.11789,-0.111
14.1,1.2984,0.1294,0.12774,-0.1184
14.2,1.2906,0.13409,0.13243,-0.1218
14.3,1.2838,0.13852,0.13688,-0.1252
14.4,1.2776,0.14284,0.14121,-0.1284
14.5,1.2717,0.14705,0.14544,-0.1315
14.6,1.2667,0.151,0.14941,-0.1344
14.7,1.2615,0.15517,0.1536,-0.1375
14.8,1.2571,0.15904,0.15747,-0.1404
14.9,1.2535,0.16266,0.16113,-0.1431
15,1.2497,0.16652,0.165,-0.1459
15.1,1.2458,0.17065,0.16915,-0.1489
15.2,1.2429,0.17433,0.17285,-0.1516
15.5,1.2341,0.18692,0.18547,-0.16
15.6,1.2308,0.19197,0.19054,-0.1629
15.7,1.2252,0.19958,0.19817,-0.1666
15.8,1.2213,0.20727,0.20585,-0.1699
15.9,1.2218,0.21133,0.20992,-0.1719
16,1.2233,0.21472,0.2133,-0.1737
16.1,1.2254,0.21766,0.21624,-0.1753
16.2,1.2277,0.22035,0.21893,-0.1769
16.3,1.2302,0.2229,0.22148,-0.1785
16.4,1.2329,0.2253,0.22388,-0.18
16.5,1.2357,0.22765,0.22623,-0.1815
16.6,1.2385,0.22989,0.22847,-0.183
16.7,1.2414,0.23208,0.23066,-0.1844
16.8,1.2444,0.23419,0.23278,-0.1859
16.9,1.2474,0.23626,0.23485,-0.1874
17,1.2505,0.23829,0.23688,-0.1888
17.1,1.2536,0.24023,0.23882,-0.1903
17.2,1.2567,0.2422,0.2408,-0.1917
17.3,1.2598,0.24409,0.24268,-0.1931
17.4,1.263,0.24601,0.24461,-0.1945
17.5,1.2662,0.24784,0.24644,-0.196
17.6,1.2694,0.24968,0.24827,-0.1974
17.7,1.2726,0.25149,0.25009,-0.1988
17.8,1.2757,0.25319,0.25179,-0.2002
17.9,1.2789,0.25494,0.25354,-0.2016
18,1.2821,0.25666,0.25527,-0.2031
18.1,1.2852,0.25842,0.25703,-0.2045
18.2,1.2883,0.2601,0.25871,-0.2059
18.3,1.2914,0.26183,0.26044,-0.2073
18.4,1.2944,0.26353,0.26215,-0.2087
18.5,1.2973,0.26524,0.26386,-0.21
18.6,1.3,0.26701,0.26563,-0.2114
18.7,1.3023,0.26886,0.26748,-0.2127
18.8,1.3061,0.27162,0.27022,-0.2143
18.9,1.31,0.27451,0.27312,-0.2159
19,1.3142,0.27763,0.27623,-0.2175
19.1,1.3181,0.28061,0.27922,-0.2191
19.2,1.3223,0.28402,0.28262,-0.2208
19.3,1.3261,0.28668,0.28529,-0.2223
19.4,1.3298,0.2893,0.28791,-0.2238
19.5,1.3335,0.29178,0.29039,-0.2253
19.6,1.3372,0.29426,0.29287,-0.2268
19.7,1.3409,0.29677,0.29539,-0.2283
19.8,1.3446,0.2992,0.29782,-0.2298
19.9,1.3481,0.30134,0.29997,-0.2313
20,1.3517,0.30367,0.3023,-0.2328
20.1,1.3554,0.30598,0.30462,-0.2343
20.2,1.359,0.30825,0.30689,-0.2358
20.3,1.3626,0.31047,0.30911,-0.2373
20.4,1.3662,0.31266,0.3113,-0.2388
20.5,1.3697,0.31482,0.31346,-0.2403
20.6,1.3733,0.31702,0.31567,-0.2419
20.7,1.3768,0.31919,0.31784,-0.2434
20.8,1.3804,0.32137,0.32003,-0.2449
20.9,1.384,0.32353,0.32218,-0.2465
21,1.3875,0.32568,0.32433,-0.248
21.1,1.391,0.32781,0.32647,-0.2495
21.2,1.3945,0.32995,0.32861,-0.2511
21.3,1.3981,0.33211,0.33077,-0.2526
21.4,1.4016,0.33424,0.33291,-0.2542
21.5,1.4051,0.33635,0.33503,-0.2558
21.6,1.4086,0.3385,0.33718,-0.2573
21.7,1.412,0.34062,0.33929,-0.2589
21.8,1.4155,0.34274,0.34142,-0.2605
21.9,1.419,0.34486,0.34355,-0.2621
22,1.4225,0.34698,0.34567,-0.2637
22.1,1.426,0.34911,0.3478,-0.2653
22.2,1.4294,0.35122,0.34991,-0.2668
22.3,1.433,0.35317,0.35186,-0.2687
22.4,1.4364,0.35524,0.35394,-0.2703
22.5,1.4398,0.35732,0.35602,-0.2719
22.6,1.4432,0.35938,0.35808,-0.2735
22.7,1.4466,0.36145,0.36016,-0.2752
22.8,1.45,0.36352,0.36224,-0.2768
22.9,1.4533,0.36557,0.36429,-0.2785
23,1.4567,0.36762,0.36634,-0.2801
23.1,1.46,0.36967,0.3684,-0.2818
23.2,1.4634,0.37172,0.37046,-0.2834
23.3,1.4667,0.37377,0.37251,-0.2851
23.4,1.47,0.37581,0.37456,-0.2868
23.5,1.4733,0.37784,0.3766,-0.2884
23.6,1.4766,0.37987,0.37862,-0.2901
23.7,1.4798,0.3819,0.38066,-0.2918
23.8,1.4831,0.38393,0.38269,-0.2935
23.9,1.4863,0.38592,0.38469,-0.2952
24,1.4895,0.38795,0.38672,-0.2969
24.1,1.4927,0.39003,0.38881,-0.2986
24.2,1.4959,0.39195,0.39073,-0.3003
24.3,1.499,0.39401,0.39279,-0.302
24.4,1.5022,0.396,0.39479,-0.3037
24.5,1.5053,0.398,0.39679,-0.3054
24.6,1.5084,0.39998,0.39878,-0.3071
24.7,1.5115,0.40203,0.40083,-0.3089
24.8,1.5146,0.40405,0.40286,-0.3106
24.9,1.5176,0.40601,0.40482,-0.3123
25,1.5206,0.40801,0.40683,-0.314
25.1,1.5237,0.41008,0.4089,-0.3158
25.2,1.5266,0.41213,0.41095,-0.3175
25.3,1.5296,0.41422,0.41305,-0.3192
25.4,1.5325,0.41634,0.41517,-0.3209
25.5,1.5354,0.41846,0.4173,-0.3227
25.6,1.5383,0.42068,0.41953,-0.3244
25.7,1.5411,0.42297,0.42182,-0.326
25.8,1.544,0.42529,0.42414,-0.3277
25.9,1.5467,0.42783,0.42669,-0.3294
26,1.5496,0.43035,0.42921,-0.331
26.1,1.5523,0.433,0.43186,-0.3327
26.2,1.5551,0.43567,0.43454,-0.3343
26.3,1.5578,0.43844,0.43732,-0.3359
26.4,1.5607,0.44103,0.43992,-0.3376
26.5,1.5634,0.44386,0.44275,-0.3391
26.9,1.5789,0.45387,0.45275,-0.3482
27,1.5825,0.45648,0.45537,-0.3502
27.1,1.5867,0.45965,0.45853,-0.3525
27.2,1.5901,0.46242,0.46131,-0.3545
27.3,1.5935,0.46523,0.46412,-0.3565
27.4,1.5968,0.46793,0.46682,-0.3585
27.5,1.5999,0.4705,0.46939,-0.3604
27.6,1.603,0.47317,0.47207,-0.3624
27.7,1.6062,0.47581,0.47471,-0.3644
27.8,1.6091,0.4783,0.47721,-0.3663
27.9,1.6123,0.48086,0.47977,-0.3683
28,1.6152,0.48335,0.48226,-0.3703
28.1,1.6181,0.48578,0.4847,-0.3723
28.2,1.621,0.48821,0.48713,-0.3742
28.3,1.6238,0.4906,0.48952,-0.3762
28.4,1.6268,0.49303,0.49195,-0.3782
28.5,1.6295,0.4954,0.49433,-0.3802
28.6,1.6322,0.49778,0.49671,-0.3822
28.7,1.635,0.50017,0.49911,-0.3842
28.8,1.6378,0.50251,0.50146,-0.3862
28.9,1.6405,0.50489,0.50384,-0.3882
29,1.6432,0.50724,0.5062,-0.3902
29.1,1.6458,0.5096,0.50856,-0.3922
29.2,1.6485,0.51195,0.51091,-0.3942
29.3,1.6511,0.5143,0.51326,-0.3963
29.4,1.6538,0.51664,0.51561,-0.3983
29.5,1.6564,0.51895,0.51793,-0.4004
29.6,1.6589,0.52135,0.52033,-0.4024
29.7,1.6614,0.52364,0.52263,-0.4044
29.8,1.664,0.52604,0.52503,-0.4065
29.9,1.6667,0.52752,0.52651,-0.4088
30,1.6692,0.52977,0.52877,-0.4109

