airfoilName st23.dat
Re 	750000
M 	2.500000e-01
N 	4.500000e+00
VACC 	0 VACCflag 1
XTR 	1.00 	1.00 XTRflag 0
alpha,cl,cd,cdp,cm
-28.9,-1.2187,0.50166,0.50024,0.2422
-28.8,-1.2161,0.49827,0.49685,0.2407
-28.7,-1.2133,0.49504,0.49361,0.239
-28.6,-1.2106,0.4917,0.49028,0.2374
-28.5,-1.2079,0.48834,0.48691,0.2359
-28.4,-1.205,0.48537,0.48393,0.2342
-28.3,-1.2023,0.48182,0.48039,0.2326
-28.2,-1.1995,0.47867,0.47723,0.231
-28.1,-1.1967,0.47557,0.47412,0.2294
-28,-1.1938,0.47248,0.47104,0.2278
-27.9,-1.1909,0.46949,0.46804,0.2261
-27.8,-1.188,0.46657,0.46511,0.2245
-27.7,-1.185,0.4638,0.46234,0.2228
-27.6,-1.1821,0.46108,0.45961,0.2211
-27.5,-1.1791,0.45832,0.45684,0.2194
-27.4,-1.1761,0.45571,0.45424,0.2177
-27.3,-1.1731,0.45317,0.45169,0.216
-27.2,-1.17,0.45066,0.44917,0.2143
-27.1,-1.1669,0.44819,0.4467,0.2126
-27,-1.1638,0.44574,0.44425,0.2109
-26.9,-1.1607,0.44332,0.44182,0.2092
-26.8,-1.1576,0.44093,0.43943,0.2075
-26.7,-1.1544,0.43858,0.43708,0.2058
-26.6,-1.1513,0.43624,0.43474,0.2041
-26.5,-1.1481,0.43393,0.43242,0.2024
-26.4,-1.1448,0.43163,0.43012,0.2007
-26.3,-1.1416,0.42934,0.42783,0.199
-26.2,-1.1384,0.42708,0.42556,0.1973
-26.1,-1.1351,0.42482,0.4233,0.1956
-26,-1.1319,0.42257,0.42105,0.1939
-25.9,-1.1286,0.42034,0.41881,0.1923
-25.8,-1.1253,0.41812,0.4166,0.1906
-25.7,-1.122,0.41592,0.41438,0.1889
-25.6,-1.1187,0.41372,0.41218,0.1872
-25.5,-1.1153,0.41152,0.40999,0.1856
-25.4,-1.112,0.40933,0.40779,0.1839
-25.3,-1.1086,0.40715,0.40561,0.1822
-25.2,-1.1052,0.40497,0.40341,0.1806
-25.1,-1.1019,0.4028,0.40125,0.1789
-25,-1.0985,0.40064,0.39908,0.1773
-24.9,-1.095,0.39846,0.3969,0.1757
-24.8,-1.0916,0.39631,0.39474,0.174
-24.7,-1.0882,0.39417,0.3926,0.1724
-24.6,-1.0848,0.39201,0.39044,0.1708
-24.5,-1.0813,0.38987,0.3883,0.1692
-24.4,-1.0779,0.38772,0.38614,0.1676
-24.3,-1.0744,0.38561,0.38403,0.166
-24.2,-1.0709,0.38348,0.38189,0.1644
-24,-1.0638,0.37975,0.37816,0.1611
-23.9,-1.0603,0.37758,0.37599,0.1595
-23.8,-1.0568,0.37547,0.37387,0.1579
-23.7,-1.0533,0.37332,0.37173,0.1564
-23.6,-1.0498,0.37118,0.36958,0.1548
-23.5,-1.0462,0.36904,0.36744,0.1533
-23.4,-1.0427,0.36693,0.36533,0.1517
-23.3,-1.0391,0.36483,0.36322,0.1502
-23.2,-1.0355,0.36269,0.36109,0.1487
-23.1,-1.0319,0.36056,0.35895,0.1472
-23,-1.0283,0.3585,0.35689,0.1457
-22.9,-1.0248,0.35639,0.35477,0.1442
-22.8,-1.0212,0.35429,0.35268,0.1427
-22.7,-1.0176,0.35221,0.35059,0.1412
-22.6,-1.0139,0.35011,0.34849,0.1397
-22.5,-1.0103,0.34803,0.34641,0.1382
-22.4,-1.0067,0.34595,0.34432,0.1367
-22.3,-1.0031,0.34388,0.34224,0.1352
-22.2,-0.9994,0.34181,0.34017,0.1338
-22.1,-0.9958,0.33974,0.33809,0.1323
-22,-0.9921,0.3377,0.33605,0.1309
-21.9,-0.9885,0.33563,0.33399,0.1294
-21.8,-0.9848,0.33358,0.33193,0.128
-21.7,-0.9811,0.33154,0.32989,0.1266
-21.6,-0.9774,0.3295,0.32785,0.1251
-21.5,-0.9738,0.32746,0.32581,0.1237
-21.4,-0.9701,0.32543,0.32378,0.1223
-21.3,-0.9664,0.32341,0.32175,0.1209
-21.2,-0.9627,0.32138,0.31972,0.1195
-21.1,-0.959,0.31936,0.3177,0.1181
-21,-0.9553,0.31735,0.31568,0.1167
-20.9,-0.9516,0.31535,0.31369,0.1154
-20.8,-0.9478,0.31335,0.31168,0.114
-20.7,-0.9441,0.31132,0.30966,0.1126
-20.6,-0.9404,0.30934,0.30767,0.1112
-20.5,-0.9366,0.30735,0.30567,0.1099
-20.4,-0.9329,0.30537,0.30369,0.1085
-20.3,-0.9291,0.30337,0.3017,0.1072
-20.2,-0.9253,0.3014,0.29972,0.1058
-20.1,-0.9215,0.29941,0.29774,0.1045
-20,-0.9178,0.29742,0.29574,0.1031
-19.9,-0.914,0.29545,0.29377,0.1018
-19.8,-0.9102,0.29347,0.29179,0.1005
-19.7,-0.9064,0.2915,0.28982,0.0991
-19.6,-0.9026,0.28954,0.28785,0.0978
-19.5,-0.8987,0.28757,0.28588,0.0965
-19.4,-0.8949,0.2856,0.28392,0.0952
-19.3,-0.8911,0.28364,0.28195,0.0939
-19.2,-0.8873,0.28169,0.27999,0.0926
-19.1,-0.8835,0.27972,0.27802,0.0913
-19,-0.8796,0.27777,0.27607,0.09
-18.9,-0.8758,0.27581,0.27411,0.0887
-18.8,-0.872,0.27385,0.27214,0.0874
-18.7,-0.8681,0.27188,0.27018,0.0861
-18.6,-0.8643,0.26992,0.26821,0.0848
-18.5,-0.8604,0.26794,0.26623,0.0835
-18.4,-0.8565,0.26595,0.26424,0.0822
-18.3,-0.8526,0.26394,0.26223,0.0809
-18.2,-0.8487,0.2619,0.26019,0.0796
-18.1,-0.8446,0.25977,0.25806,0.0782
-17.9,-0.8357,0.25517,0.25347,0.0752
-17.4,-0.8129,0.24595,0.24426,0.0675
-17.3,-0.81,0.24341,0.24172,0.0668
-17.2,-0.8073,0.2408,0.23911,0.0661
-17.1,-0.8042,0.23846,0.23677,0.0653
-17,-0.801,0.23625,0.23456,0.0644
-16.9,-0.7977,0.23421,0.23252,0.0635
-16.8,-0.7942,0.23227,0.23057,0.0625
-16.7,-0.7907,0.23038,0.22868,0.0615
-16.6,-0.7871,0.22852,0.22682,0.0605
-16.5,-0.7835,0.22671,0.225,0.0594
-16.4,-0.78,0.22491,0.22321,0.0584
-16.3,-0.7763,0.22313,0.22143,0.0574
-16.2,-0.7727,0.22136,0.21966,0.0563
-16.1,-0.769,0.21962,0.21791,0.0553
-16,-0.7653,0.21787,0.21617,0.0543
-15.9,-0.7616,0.21615,0.21444,0.0532
-15.8,-0.7579,0.21441,0.2127,0.0522
-15.7,-0.7542,0.2127,0.21098,0.0512
-15.6,-0.7505,0.21099,0.20927,0.0502
-15.5,-0.7468,0.20928,0.20756,0.0491
-15.4,-0.7431,0.20758,0.20586,0.0481
-15.3,-0.7394,0.20589,0.20416,0.0471
-15.2,-0.7357,0.20419,0.20247,0.0461
-15.1,-0.7319,0.2025,0.20078,0.0451
-15,-0.7282,0.20082,0.19909,0.0441
-14.9,-0.7244,0.19914,0.19741,0.0431
-14.8,-0.7207,0.19745,0.19572,0.0421
-14.7,-0.7169,0.19577,0.19404,0.0411
-14.6,-0.7131,0.19409,0.19236,0.0401
-14.5,-0.7093,0.19242,0.19069,0.0391
-14.4,-0.7055,0.19074,0.18901,0.0381
-14.3,-0.7017,0.18907,0.18734,0.0371
-14.2,-0.6979,0.1874,0.18567,0.0361
-14,-0.6901,0.18439,0.18266,0.0338
-13.9,-0.6863,0.1827,0.18098,0.0328
-13.8,-0.6825,0.18102,0.17929,0.0319
-13.7,-0.6787,0.17935,0.17762,0.0309
-13.6,-0.6749,0.17767,0.17595,0.03
-13.5,-0.6711,0.176,0.17428,0.029
-13.4,-0.6673,0.17433,0.17261,0.0281
-13.3,-0.6635,0.17267,0.17094,0.0272
-13.2,-0.6597,0.171,0.16928,0.0262
-13.1,-0.6558,0.16933,0.16761,0.0253
-13,-0.652,0.16767,0.16595,0.0243
-12.9,-0.6481,0.16601,0.16429,0.0234
-12.8,-0.6443,0.16435,0.16263,0.0225
-12.7,-0.6404,0.16269,0.16097,0.0215
-12.6,-0.6366,0.16104,0.15931,0.0206
-12.5,-0.6327,0.15938,0.15765,0.0197
-12.4,-0.6289,0.15772,0.15599,0.0188
-12.3,-0.625,0.15607,0.15434,0.0179
-12.2,-0.6212,0.15441,0.15268,0.0169
-12.1,-0.6173,0.15274,0.15101,0.016
-12,-0.6134,0.15105,0.14932,0.0151
-11.9,-0.6095,0.14937,0.14764,0.0142
-11.8,-0.6056,0.14763,0.14591,0.0133
-11.7,-0.6017,0.14588,0.14416,0.0123
-11.6,-0.5978,0.14408,0.14236,0.0114
-11.5,-0.5938,0.14214,0.14042,0.0104
-11.4,-0.5897,0.14006,0.13834,0.0095
-11.3,-0.5851,0.13756,0.13584,0.0083
-11.2,-0.58,0.13549,0.13378,0.007
-11.1,-0.575,0.13372,0.13201,0.0058
-10.9,-0.5655,0.13021,0.12853,0.0033
-10.8,-0.5637,0.12828,0.1266,0.0029
-10.7,-0.5614,0.1265,0.12481,0.0024
-10.6,-0.5585,0.12492,0.12323,0.0017
-10.5,-0.5553,0.12344,0.12175,0.001
-10.4,-0.5518,0.12202,0.12034,0.0002
-10.3,-0.5482,0.12063,0.11895,-0.0006
-10.2,-0.5446,0.11927,0.11759,-0.0014
-10.1,-0.5409,0.11792,0.11625,-0.0022
-10,-0.5371,0.11659,0.11492,-0.003
-9.9,-0.5333,0.11528,0.1136,-0.0038
-9.8,-0.5295,0.11397,0.1123,-0.0046
-9.7,-0.5258,0.11267,0.111,-0.0054
-9.6,-0.522,0.11138,0.10971,-0.0062
-9.5,-0.5182,0.11009,0.10843,-0.007
-9.4,-0.5145,0.10882,0.10715,-0.0078
-9.3,-0.5109,0.10756,0.1059,-0.0085
-9.2,-0.5073,0.1063,0.10464,-0.0093
-9.1,-0.5039,0.10506,0.10341,-0.01
-9,-0.5006,0.10385,0.1022,-0.0106
-8.9,-0.4976,0.10266,0.10101,-0.0112
-8.8,-0.495,0.1015,0.09986,-0.0117
-8.7,-0.493,0.10041,0.09876,-0.012
-8.6,-0.492,0.09942,0.09778,-0.0121
-8.5,-0.4922,0.09855,0.09692,-0.0118
-8.4,-0.4946,0.09788,0.09627,-0.0109
-8.3,-0.4882,0.09637,0.09476,-0.0126
-8.2,-0.481,0.09478,0.09317,-0.0145
-8.1,-0.4724,0.09308,0.09146,-0.0168
-8,-0.4636,0.09135,0.08973,-0.0192
-7.8,-0.4452,0.08789,0.08626,-0.0242
-7.7,-0.4362,0.08615,0.08451,-0.0266
-7.6,-0.4267,0.08436,0.08272,-0.0291
-7.5,-0.4168,0.08255,0.08089,-0.0317
-7.4,-0.4064,0.08069,0.07903,-0.0345
-7.3,-0.3951,0.07874,0.07707,-0.0374
-7.2,-0.3857,0.07696,0.07528,-0.0399
-7.1,-0.376,0.07514,0.07345,-0.0423
-7,-0.3655,0.07323,0.07153,-0.0451
-6.9,-0.3544,0.07122,0.0695,-0.048
-6.8,-0.3427,0.0691,0.06736,-0.0511
-5.6,-0.1411,0.01692,0.01351,-0.1171
-5.5,-0.1276,0.01542,0.01177,-0.1182
-5.4,-0.1147,0.01447,0.01064,-0.1189
-5.3,-0.1023,0.01373,0.00975,-0.1193
-5.2,-0.0904,0.01311,0.009,-0.1195
-5.1,-0.0782,0.01259,0.00836,-0.1197
-5,-0.066,0.01213,0.00779,-0.1199
-4.9,-0.0537,0.01171,0.00727,-0.1201
-4.8,-0.0414,0.01134,0.00679,-0.1202
-4.7,-0.0291,0.011,0.00636,-0.1204
-4.6,-0.0169,0.01069,0.00596,-0.1205
-4.5,-0.0047,0.0104,0.0056,-0.1205
-4.3,0.0186,0.01007,0.00516,-0.1204
-4.2,0.0307,0.00984,0.00487,-0.1204
-4.1,0.0425,0.00963,0.0046,-0.1204
-4,0.0544,0.00946,0.00437,-0.1203
-3.9,0.0661,0.00932,0.00418,-0.1203
-3.8,0.0784,0.009,0.0038,-0.1204
-3.7,0.0905,0.00873,0.00348,-0.1204
-3.6,0.1024,0.00856,0.00326,-0.1204
-3.5,0.1143,0.00842,0.00307,-0.1204
-3.4,0.1261,0.0083,0.00292,-0.1203
-3.3,0.1379,0.00818,0.00278,-0.1203
-3.2,0.1499,0.00808,0.00264,-0.1202
-3.1,0.1616,0.00798,0.0025,-0.1202
-3,0.1735,0.00789,0.00238,-0.1201
-2.9,0.1854,0.00779,0.00225,-0.1201
-2.8,0.1972,0.0077,0.00215,-0.1201
-2.7,0.2091,0.00763,0.00207,-0.12
-2.6,0.2207,0.00757,0.00199,-0.12
-2.5,0.2325,0.00751,0.00191,-0.1199
-2.4,0.2442,0.00745,0.00182,-0.1199
-2.3,0.2561,0.00739,0.00176,-0.1199
-2.2,0.2679,0.00734,0.00171,-0.1199
-2.1,0.2795,0.0073,0.00165,-0.1198
-2,0.2911,0.00725,0.00159,-0.1197
-1.9,0.3025,0.00721,0.00155,-0.1196
-1.8,0.3137,0.00719,0.00149,-0.1194
-1.7,0.3254,0.00715,0.00144,-0.1194
-1.6,0.3372,0.00711,0.00142,-0.1194
-1.5,0.3484,0.0071,0.00137,-0.1192
-1.4,0.36,0.00707,0.00133,-0.1191
-1.3,0.3717,0.00704,0.0013,-0.1191
-1.2,0.3832,0.00703,0.00126,-0.119
-1.1,0.3946,0.00702,0.00123,-0.1189
-1,0.4064,0.00699,0.00121,-0.1189
-0.9,0.4177,0.007,0.00119,-0.1188
-0.8,0.4292,0.007,0.00116,-0.1187
-0.7,0.4406,0.007,0.00115,-0.1186
-0.6,0.4523,0.00699,0.00114,-0.1186
-0.5,0.4635,0.00701,0.00112,-0.1184
-0.4,0.4751,0.00701,0.00111,-0.1184
-0.3,0.4865,0.00703,0.00111,-0.1183
-0.2,0.4981,0.00704,0.00109,-0.1183
-0.1,0.5091,0.00708,0.0011,-0.1181
0,0.5203,0.00711,0.0011,-0.118
0.1,0.5318,0.00713,0.0011,-0.1179
0.2,0.5429,0.00718,0.00111,-0.1178
0.3,0.554,0.00724,0.00112,-0.1176
0.4,0.5643,0.00738,0.00113,-0.1174
0.5,0.5754,0.00744,0.00116,-0.1172
0.6,0.586,0.00756,0.00119,-0.117
0.7,0.597,0.00763,0.00121,-0.1169
0.8,0.6071,0.00783,0.00127,-0.1166
0.9,0.6177,0.00797,0.00132,-0.1164
1,0.6282,0.00811,0.00137,-0.1163
1.1,0.6388,0.00826,0.00143,-0.1161
1.2,0.6496,0.00837,0.00148,-0.116
1.3,0.6592,0.00866,0.00158,-0.1157
1.4,0.6698,0.00881,0.00164,-0.1155
1.5,0.6804,0.00897,0.00172,-0.1154
1.6,0.6908,0.00915,0.0018,-0.1152
1.7,0.7012,0.00933,0.00188,-0.1151
1.8,0.7116,0.00951,0.00197,-0.1149
1.9,0.7215,0.00977,0.00208,-0.1147
2,0.7326,0.00984,0.00214,-0.1146
2.1,0.7437,0.00992,0.00221,-0.1145
2.2,0.755,0.00997,0.00226,-0.1145
2.4,0.7708,0.00871,0.00251,-0.1133
2.5,0.782,0.00879,0.00256,-0.1132
2.6,0.7932,0.00889,0.00263,-0.1131
2.7,0.8045,0.00897,0.00268,-0.113
2.8,0.8156,0.00906,0.00274,-0.1129
2.9,0.8265,0.00918,0.00283,-0.1128
3,0.8377,0.00928,0.0029,-0.1127
3.1,0.8489,0.00936,0.00296,-0.1126
3.2,0.86,0.00945,0.00302,-0.1125
3.3,0.8711,0.00954,0.0031,-0.1124
3.4,0.8819,0.00968,0.00317,-0.1122
3.5,0.8931,0.00977,0.00324,-0.1121
3.6,0.9042,0.00986,0.00331,-0.112
3.7,0.9152,0.00997,0.0034,-0.1118
3.8,0.9263,0.01006,0.00348,-0.1117
3.9,0.937,0.01021,0.00357,-0.1115
4,0.9481,0.0103,0.00365,-0.1114
4.1,0.959,0.01041,0.00374,-0.1112
4.2,0.9699,0.01053,0.00384,-0.1111
4.3,0.9809,0.01063,0.00395,-0.1109
4.4,0.9915,0.01079,0.00407,-0.1107
4.5,1.0024,0.0109,0.00416,-0.1105
4.6,1.0133,0.01102,0.00426,-0.1103
4.7,1.0241,0.01115,0.00438,-0.1101
4.8,1.035,0.01126,0.00448,-0.1099
4.9,1.0457,0.01139,0.00459,-0.1097
5,1.0564,0.01153,0.00473,-0.1095
5.1,1.067,0.01167,0.00484,-0.1093
5.2,1.0777,0.01181,0.00497,-0.1091
5.3,1.0883,0.01196,0.00511,-0.1088
5.4,1.0991,0.01208,0.00523,-0.1086
5.5,1.1099,0.01221,0.00536,-0.1084
5.6,1.1205,0.01235,0.00552,-0.1081
5.7,1.131,0.01252,0.00567,-0.1079
5.8,1.1417,0.01265,0.00583,-0.1076
5.9,1.1523,0.01278,0.00597,-0.1073
6,1.1629,0.01293,0.00613,-0.1071
6.1,1.1734,0.01308,0.00629,-0.1068
6.2,1.1838,0.01325,0.00646,-0.1065
6.3,1.1941,0.01343,0.00664,-0.1062
6.4,1.2047,0.01358,0.00681,-0.1059
6.5,1.215,0.01374,0.00697,-0.1056
6.6,1.2254,0.01392,0.00716,-0.1052
6.7,1.2356,0.01411,0.00736,-0.1049
6.8,1.2457,0.0143,0.00754,-0.1046
6.9,1.256,0.01446,0.00775,-0.1042
7,1.2663,0.01464,0.00795,-0.1039
7.1,1.2764,0.01483,0.00815,-0.1035
7.2,1.2864,0.01505,0.00838,-0.1031
7.3,1.2963,0.01526,0.00861,-0.1027
7.4,1.3065,0.01544,0.00883,-0.1023
7.5,1.3165,0.01564,0.00905,-0.1019
7.6,1.3265,0.01584,0.00928,-0.1015
7.7,1.3363,0.01607,0.00952,-0.1011
7.8,1.3459,0.01632,0.00979,-0.1006
7.9,1.3556,0.01656,0.01006,-0.1001
8,1.3653,0.01678,0.01033,-0.0996
8.1,1.3749,0.01703,0.01062,-0.0991
8.2,1.3844,0.01729,0.01091,-0.0986
8.3,1.3937,0.01756,0.01122,-0.0981
8.4,1.4029,0.01784,0.01156,-0.0975
8.5,1.4119,0.01816,0.01192,-0.0969
8.6,1.4203,0.01854,0.01235,-0.0962
8.7,1.4292,0.01887,0.01274,-0.0956
8.9,1.4473,0.0194,0.01336,-0.0945
9,1.4558,0.01976,0.01377,-0.0938
9.1,1.464,0.02013,0.01421,-0.0931
9.2,1.4721,0.02052,0.01466,-0.0923
9.3,1.4799,0.02093,0.01513,-0.0916
9.4,1.4874,0.02137,0.01563,-0.0907
9.5,1.4946,0.02184,0.01618,-0.0899
9.6,1.5012,0.02236,0.01678,-0.0889
9.7,1.5071,0.02296,0.01747,-0.0879
9.8,1.512,0.02364,0.01826,-0.0867
9.9,1.5177,0.02422,0.01891,-0.0856
10,1.5236,0.02474,0.01952,-0.0846
10.1,1.5289,0.02531,0.02019,-0.0835
10.2,1.5335,0.02592,0.0209,-0.0823
10.3,1.5375,0.02656,0.02164,-0.081
10.4,1.5407,0.02723,0.02241,-0.0797
10.5,1.5432,0.02792,0.02321,-0.0782
10.6,1.5443,0.0286,0.02398,-0.0765
10.7,1.5445,0.02932,0.02481,-0.0747
10.8,1.5443,0.03009,0.02567,-0.0729
10.9,1.5436,0.0309,0.02659,-0.0712
11,1.5424,0.03176,0.02755,-0.0694
11.1,1.5409,0.03264,0.02854,-0.0677
11.2,1.5389,0.03358,0.02958,-0.0661
11.3,1.5362,0.03458,0.03069,-0.0644
11.4,1.5332,0.03563,0.03184,-0.0629
11.5,1.5296,0.03674,0.03305,-0.0614
11.6,1.5255,0.0379,0.03432,-0.0599
11.7,1.521,0.03913,0.03565,-0.0586
11.8,1.5161,0.04043,0.03705,-0.0574
11.9,1.5106,0.0418,0.03852,-0.0564
12,1.5048,0.04324,0.04006,-0.0555
12.1,1.4987,0.04477,0.04168,-0.0547
12.2,1.4921,0.0464,0.04341,-0.0542
12.3,1.4851,0.04814,0.04524,-0.0539
12.4,1.4777,0.04999,0.04718,-0.0538
12.5,1.4701,0.05196,0.04924,-0.054
12.6,1.4623,0.05406,0.05143,-0.0545
12.7,1.4542,0.05634,0.05379,-0.0554
12.8,1.4461,0.05879,0.05633,-0.0567
12.9,1.4375,0.06148,0.05911,-0.0584
13,1.4286,0.06446,0.06217,-0.0607
13.1,1.4199,0.06775,0.06554,-0.0636
13.2,1.4109,0.07154,0.06942,-0.0673
13.3,1.4016,0.07608,0.07405,-0.0721
13.4,1.3917,0.08187,0.07993,-0.0785
13.5,1.3805,0.09019,0.0884,-0.0871
13.7,1.3546,0.10442,0.10276,-0.099
13.8,1.3423,0.11034,0.10871,-0.1037
13.9,1.3311,0.11589,0.11429,-0.1079
14.1,1.3109,0.12635,0.12479,-0.1158
14.2,1.3022,0.13124,0.1297,-0.1195
14.4,1.2871,0.14061,0.13909,-0.1264
14.5,1.2802,0.1452,0.14369,-0.1297
14.6,1.2744,0.14943,0.14795,-0.1328
14.7,1.2679,0.15404,0.15257,-0.1362
14.8,1.2629,0.15815,0.1567,-0.1392
14.9,1.2586,0.16207,0.16064,-0.1421
15,1.2533,0.16656,0.16515,-0.1453
15.1,1.2493,0.17063,0.16923,-0.1483
15.2,1.2458,0.17463,0.17325,-0.1512
15.3,1.2414,0.17928,0.17792,-0.1544
15.4,1.2381,0.18366,0.18231,-0.1573
15.5,1.2334,0.18923,0.1879,-0.1607
15.6,1.2288,0.19523,0.19392,-0.164
15.7,1.222,0.20397,0.20266,-0.168
15.8,1.2219,0.20828,0.20696,-0.1702
15.9,1.223,0.21162,0.2103,-0.172
16,1.2248,0.21463,0.21331,-0.1737
16.1,1.2269,0.21736,0.21604,-0.1754
16.2,1.2292,0.21994,0.21862,-0.1769
16.3,1.2317,0.22238,0.22107,-0.1785
16.4,1.2343,0.22472,0.22341,-0.18
16.5,1.2371,0.22699,0.22567,-0.1816
16.6,1.2399,0.2292,0.22788,-0.183
16.7,1.2427,0.23135,0.23003,-0.1845
16.8,1.2457,0.23341,0.23209,-0.186
16.9,1.2487,0.23543,0.23412,-0.1874
17,1.2517,0.23743,0.23612,-0.1889
17.1,1.2548,0.23932,0.23801,-0.1904
17.2,1.2578,0.24127,0.23996,-0.1918
17.3,1.2609,0.24312,0.24181,-0.1932
17.4,1.2641,0.24502,0.24372,-0.1947
17.5,1.2672,0.24681,0.24551,-0.1961
17.6,1.2703,0.24862,0.24732,-0.1975
17.7,1.2735,0.25041,0.24911,-0.199
17.8,1.2766,0.25207,0.25077,-0.2004
17.9,1.2797,0.2538,0.25251,-0.2018
18,1.2827,0.25551,0.25422,-0.2032
18.1,1.2857,0.25728,0.25599,-0.2046
18.2,1.2886,0.25896,0.25767,-0.206
18.3,1.2913,0.26073,0.25944,-0.2074
18.4,1.2935,0.26258,0.2613,-0.2087
18.5,1.2972,0.26558,0.26428,-0.2104
18.6,1.3012,0.26866,0.26736,-0.212
18.7,1.3053,0.27222,0.27092,-0.2137
18.8,1.3091,0.27504,0.27374,-0.2152
18.9,1.3128,0.27793,0.27662,-0.2167
19,1.3166,0.28085,0.27955,-0.2182
19.1,1.3204,0.2836,0.2823,-0.2198
19.2,1.3241,0.28636,0.28506,-0.2213
19.3,1.3277,0.28871,0.28741,-0.2228
19.4,1.3313,0.29104,0.28974,-0.2242
19.5,1.3349,0.2933,0.292,-0.2257
19.6,1.3385,0.29556,0.29427,-0.2272
19.7,1.3421,0.29786,0.29657,-0.2287
19.8,1.3457,0.30012,0.29884,-0.2302
19.9,1.3492,0.30222,0.30095,-0.2317
20,1.3528,0.30443,0.30316,-0.2332
20.1,1.3564,0.30663,0.30537,-0.2347
20.2,1.3599,0.30881,0.30754,-0.2362
20.3,1.3635,0.31096,0.3097,-0.2377
20.4,1.367,0.31309,0.31183,-0.2392
20.5,1.3706,0.31521,0.31395,-0.2407
20.6,1.3741,0.31736,0.3161,-0.2422
20.7,1.3776,0.31948,0.31822,-0.2437
20.8,1.3812,0.32161,0.32035,-0.2453
20.9,1.3847,0.32372,0.32247,-0.2468
21,1.3882,0.32582,0.32457,-0.2483
21.1,1.3917,0.32792,0.32668,-0.2499
21.2,1.3952,0.33002,0.32878,-0.2514
21.3,1.3987,0.33214,0.3309,-0.253
21.4,1.4022,0.33424,0.333,-0.2545
21.5,1.4057,0.33632,0.33509,-0.2561
21.6,1.4092,0.33843,0.3372,-0.2577
21.7,1.4126,0.34052,0.3393,-0.2592
21.8,1.4161,0.34262,0.34139,-0.2608
21.9,1.4196,0.3447,0.34348,-0.2624
22,1.423,0.34679,0.34557,-0.264
22.2,1.4299,0.35069,0.34948,-0.2674
22.3,1.4333,0.35274,0.35153,-0.269
22.4,1.4368,0.35478,0.35358,-0.2706
22.5,1.4401,0.35682,0.35562,-0.2722
22.6,1.4435,0.35885,0.35765,-0.2739
22.7,1.4469,0.3609,0.3597,-0.2755
22.8,1.4502,0.36294,0.36175,-0.2771
22.9,1.4536,0.36496,0.36377,-0.2788
23,1.4569,0.36697,0.36578,-0.2804
23.1,1.4602,0.369,0.36782,-0.2821
23.2,1.4635,0.37102,0.36985,-0.2837
23.3,1.4668,0.37304,0.37188,-0.2854
23.4,1.4701,0.37505,0.3739,-0.287
23.5,1.4734,0.37706,0.3759,-0.2887
23.6,1.4766,0.37906,0.37791,-0.2904
23.7,1.4799,0.38107,0.37992,-0.2921
23.8,1.4831,0.38307,0.38193,-0.2938
23.9,1.4863,0.38504,0.3839,-0.2954
24,1.4895,0.38705,0.38592,-0.2971
24.1,1.4927,0.38912,0.38799,-0.2988
24.2,1.4958,0.39102,0.38989,-0.3005
24.3,1.499,0.39306,0.39194,-0.3022
24.4,1.5021,0.39505,0.39393,-0.3039
24.5,1.5052,0.39704,0.39593,-0.3056
24.6,1.5083,0.39903,0.39792,-0.3074
24.7,1.5113,0.40107,0.39997,-0.3091
24.8,1.5144,0.40311,0.40201,-0.3108
24.9,1.5174,0.4051,0.40401,-0.3125
25,1.5204,0.40715,0.40606,-0.3142
25.1,1.5234,0.40925,0.40816,-0.3159
25.2,1.5263,0.41136,0.41028,-0.3176
25.3,1.5293,0.41353,0.41245,-0.3193
25.4,1.5321,0.41578,0.4147,-0.321
25.5,1.5349,0.41815,0.41708,-0.3226
25.6,1.5377,0.42064,0.41958,-0.3243
25.7,1.5404,0.42338,0.42232,-0.3258
25.8,1.5433,0.42588,0.42482,-0.3275
25.9,1.546,0.42883,0.42778,-0.329
26,1.5488,0.43144,0.43039,-0.3306
26.1,1.5516,0.43412,0.43307,-0.3322
26.6,1.5717,0.44723,0.44618,-0.3434
26.7,1.5751,0.44989,0.44885,-0.3453
26.8,1.5789,0.45297,0.45192,-0.3474
26.9,1.5827,0.45608,0.45504,-0.3494
27,1.5858,0.45869,0.45765,-0.3513
27.1,1.5893,0.46148,0.46045,-0.3533
27.2,1.5923,0.46396,0.46293,-0.3553
27.3,1.5954,0.46647,0.46544,-0.3572
27.4,1.5984,0.46893,0.4679,-0.3591
27.5,1.6014,0.47134,0.47031,-0.361
27.6,1.6044,0.47377,0.47275,-0.363
27.7,1.6074,0.47622,0.4752,-0.365
27.8,1.6103,0.47861,0.4776,-0.3669
27.9,1.6133,0.48097,0.47996,-0.3689
28,1.6162,0.48334,0.48233,-0.3709
28.1,1.619,0.48569,0.48469,-0.3728
28.2,1.6219,0.48804,0.48704,-0.3748
28.3,1.6247,0.49036,0.48937,-0.3768
28.4,1.6275,0.49269,0.4917,-0.3788
28.5,1.6303,0.49501,0.49402,-0.3808
28.6,1.6329,0.49736,0.49638,-0.3827
28.7,1.6357,0.49969,0.49871,-0.3847
28.8,1.6384,0.50198,0.50101,-0.3867
28.9,1.6411,0.50431,0.50334,-0.3887
29,1.6437,0.50663,0.50566,-0.3907
29.1,1.6463,0.50895,0.50799,-0.3927
29.2,1.649,0.51126,0.5103,-0.3947
29.3,1.6516,0.51358,0.51262,-0.3967
29.4,1.6542,0.51588,0.51493,-0.3988
29.5,1.6567,0.51816,0.51721,-0.4008
29.6,1.6593,0.52054,0.5196,-0.4028
29.7,1.6618,0.52279,0.52186,-0.4049
29.8,1.6645,0.52432,0.5234,-0.4072
29.9,1.6669,0.52658,0.52566,-0.4092
30,1.6694,0.52881,0.52789,-0.4113

