airfoilName st23.dat
Re 	10000
M 	2.500000e-01
N 	4.500000e+00
VACC 	0 VACCflag 1
XTR 	1.00 	1.00 XTRflag 0
alpha,cl,cd,cdp,cm
-10.9,-0.5843,0.17118,0.15461,-0.0136
-10.8,-0.5811,0.16967,0.15312,-0.0146
-10.7,-0.5779,0.16818,0.15164,-0.0156
-10.6,-0.5747,0.16671,0.15019,-0.0167
-10.5,-0.5717,0.16529,0.14879,-0.0178
-10,-0.5465,0.15428,0.13773,-0.0176
-9.9,-0.5431,0.15282,0.13628,-0.0185
-9.8,-0.5398,0.15138,0.13486,-0.0194
-9.7,-0.5366,0.14995,0.13345,-0.0203
-9.6,-0.5334,0.14855,0.13207,-0.0213
-9.5,-0.5303,0.14718,0.13072,-0.0224
-9.3,-0.5243,0.14452,0.1281,-0.0248
-9.2,-0.5215,0.14324,0.12685,-0.0261
-9,-0.5165,0.14087,0.12452,-0.0294
-8.9,-0.5144,0.13981,0.12347,-0.0316
-8.8,-0.51,0.13794,0.12184,-0.0316
-8.7,-0.5054,0.13607,0.11997,-0.0314
-8.6,-0.501,0.1343,0.1182,-0.0313
-8.5,-0.4966,0.1326,0.1165,-0.0313
-8.4,-0.4923,0.13095,0.11486,-0.0314
-8.3,-0.4881,0.12935,0.11326,-0.0316
-8.2,-0.4839,0.12778,0.1117,-0.0318
-8.1,-0.4797,0.12623,0.11006,-0.0321
-8,-0.4756,0.12472,0.10855,-0.0324
-7.9,-0.4714,0.12322,0.10706,-0.0328
-7.8,-0.4673,0.12174,0.10558,-0.0332
-7.7,-0.4631,0.12028,0.10413,-0.0337
-7.6,-0.459,0.11883,0.10268,-0.0342
-7.4,-0.4504,0.11595,0.09982,-0.0354
-7.3,-0.4462,0.11453,0.0984,-0.0362
-7.2,-0.4418,0.11311,0.09699,-0.037
-7.1,-0.4373,0.11169,0.09556,-0.0379
-7,-0.4327,0.11028,0.09415,-0.039
-6.9,-0.428,0.10887,0.09272,-0.0402
-6.8,-0.423,0.10745,0.09128,-0.0418
-6.7,-0.4178,0.10602,0.08981,-0.0436
-6.5,-0.4088,0.10338,0.08735,-0.045
-6.4,-0.4035,0.10192,0.08589,-0.0451
-6.3,-0.3984,0.1005,0.08447,-0.0452
-6.2,-0.3932,0.0991,0.08306,-0.0455
-6.1,-0.3879,0.0977,0.08165,-0.0459
-5.9,-0.3764,0.09488,0.07879,-0.0471
-5.8,-0.3703,0.09347,0.07734,-0.0479
-5.7,-0.3636,0.09202,0.07585,-0.049
-5.6,-0.3564,0.09055,0.07431,-0.0504
-5.5,-0.3482,0.08903,0.07267,-0.0522
-5.4,-0.3383,0.08739,0.07084,-0.0552
-5.3,-0.33,0.08583,0.06935,-0.0566
-5.2,-0.3246,0.08448,0.06805,-0.0561
-5.1,-0.3187,0.08318,0.06676,-0.0557
-5,-0.3123,0.08188,0.06536,-0.0557
-4.9,-0.3053,0.08057,0.06403,-0.0559
-4.7,-0.2894,0.07789,0.06124,-0.0571
-4.6,-0.2799,0.07647,0.05972,-0.0583
-4.5,-0.2686,0.07497,0.05803,-0.0602
-4.4,-0.2518,0.07316,0.05591,-0.0644
-4.3,-0.2459,0.07198,0.0548,-0.0637
-4.2,-0.2392,0.07082,0.05368,-0.0634
-4.1,-0.2314,0.06966,0.05251,-0.0634
-3.9,-0.2119,0.06719,0.04984,-0.0648
-3.8,-0.1957,0.06587,0.04821,-0.068
-3.7,-0.1881,0.06479,0.04716,-0.0678
-3.6,-0.1792,0.06368,0.04601,-0.068
-3.5,-0.1683,0.06252,0.04471,-0.0688
-3.4,-0.1521,0.06119,0.04293,-0.0712
-3.3,-0.1423,0.06008,0.04188,-0.0715
-3.2,-0.1342,0.05909,0.04091,-0.0713
-3.1,-0.1238,0.05806,0.03969,-0.0717
-3,-0.1084,0.05694,0.03815,-0.0736
-2.9,-0.0985,0.05594,0.0372,-0.0738
-2.8,-0.0895,0.05501,0.03628,-0.0738
-2.7,-0.0771,0.05406,0.0351,-0.0746
-2.6,-0.0669,0.05334,0.03436,-0.0751
-2.5,-0.0537,0.05246,0.03319,-0.076
-2.4,-0.0428,0.05156,0.03228,-0.0764
-2.2,-0.0192,0.04992,0.03035,-0.0774
-2.1,-0.0097,0.04908,0.02953,-0.0773
-2,0.0035,0.04835,0.02858,-0.0781
-1.9,0.0132,0.04755,0.02779,-0.0781
-1.8,0.0239,0.04693,0.02712,-0.0784
-1.7,0.0357,0.0462,0.0263,-0.0788
-1.6,0.0481,0.04555,0.02549,-0.0793
-1.5,0.0581,0.04476,0.02466,-0.0793
-1.4,0.0692,0.04406,0.02395,-0.0794
-1.3,0.0805,0.04338,0.02325,-0.0797
-1.1,0.1016,0.04205,0.02201,-0.0798
-1,0.1124,0.04136,0.02145,-0.0798
-0.9,0.1228,0.04064,0.02086,-0.0798
-0.8,0.1319,0.03987,0.02036,-0.0795
-0.7,0.1423,0.03913,0.01982,-0.0793
-0.6,0.1523,0.03838,0.01928,-0.0789
-0.5,0.1619,0.03761,0.01876,-0.0784
-0.4,0.1677,0.03653,0.01825,-0.0768
-0.3,0.1738,0.03565,0.01772,-0.0751
-0.1,0.1918,0.03635,0.01645,-0.0721
0.1,0.2186,0.03674,0.01578,-0.073
0.2,0.2308,0.03693,0.01555,-0.0732
0.3,0.2424,0.03711,0.01536,-0.0733
0.4,0.2537,0.03729,0.0152,-0.0734
0.5,0.2646,0.03748,0.01508,-0.0734
0.6,0.2753,0.03766,0.01499,-0.0734
0.7,0.2857,0.03785,0.01493,-0.0733
0.8,0.296,0.03804,0.0149,-0.0733
0.9,0.3061,0.03824,0.01489,-0.0732
1,0.3161,0.03844,0.0149,-0.0731
1.1,0.326,0.03864,0.01494,-0.0731
1.2,0.3358,0.03885,0.01499,-0.073
1.3,0.3455,0.03907,0.01507,-0.0729
1.4,0.3551,0.03929,0.01517,-0.0728
1.5,0.3646,0.03952,0.01529,-0.0727
1.6,0.3741,0.03975,0.01541,-0.0726
1.7,0.3834,0.03999,0.01556,-0.0726
1.8,0.3927,0.04024,0.01573,-0.0725
1.9,0.4019,0.0405,0.01591,-0.0724
2,0.4111,0.04075,0.01611,-0.0724
2.1,0.4203,0.04102,0.01633,-0.0723
2.2,0.4294,0.0413,0.01656,-0.0722
2.3,0.4384,0.04158,0.01682,-0.0722
2.4,0.4473,0.04187,0.01709,-0.0721
2.5,0.4563,0.04216,0.01737,-0.0721
2.6,0.4651,0.04247,0.01768,-0.0721
2.7,0.4739,0.04279,0.018,-0.0721
2.8,0.4826,0.04311,0.01834,-0.0721
2.9,0.4913,0.04344,0.0187,-0.0721
3,0.4999,0.04378,0.01907,-0.0721
3.1,0.5085,0.04414,0.01946,-0.0721
3.2,0.517,0.0445,0.01995,-0.0722
3.3,0.5254,0.04487,0.02038,-0.0722
3.4,0.5338,0.04526,0.02082,-0.0723
3.5,0.5421,0.04565,0.02128,-0.0724
3.6,0.5503,0.04606,0.02176,-0.0725
3.7,0.5585,0.04648,0.02226,-0.0726
3.8,0.5666,0.04691,0.02278,-0.0727
3.9,0.5746,0.04736,0.02332,-0.0729
4,0.5825,0.04782,0.02388,-0.0731
4.1,0.5903,0.0483,0.02447,-0.0733
4.2,0.6021,0.04886,0.02518,-0.0743
4.3,0.6222,0.04962,0.02612,-0.0768
4.4,0.6424,0.0504,0.0271,-0.0794
4.5,0.6643,0.05124,0.02815,-0.0822
4.6,0.6834,0.052,0.02916,-0.0845
4.7,0.7022,0.05275,0.03034,-0.0868
4.8,0.7213,0.05352,0.03138,-0.089
4.9,0.7437,0.0543,0.03247,-0.0917
5,0.7677,0.05506,0.03355,-0.0943
5.2,0.8064,0.05593,0.0351,-0.0967
5.3,0.8189,0.05636,0.0358,-0.0968
5.4,0.8343,0.05677,0.0365,-0.0971
5.5,0.8494,0.0571,0.03713,-0.0971
5.6,0.86,0.05769,0.03801,-0.0971
5.7,0.8718,0.05798,0.03856,-0.0964
5.8,0.8877,0.05852,0.03943,-0.0967
5.9,0.8961,0.05878,0.0399,-0.0952
6,0.9112,0.05929,0.04097,-0.0951
6.1,0.9216,0.05944,0.04131,-0.0934
6.2,0.938,0.05989,0.04211,-0.0931
6.3,0.9507,0.05991,0.04233,-0.0912
6.5,0.9832,0.06033,0.04326,-0.0886
6.6,1.0043,0.06063,0.04386,-0.0877
6.7,1.023,0.06046,0.04387,-0.0855
6.9,1.0651,0.06075,0.04436,-0.0821
7,1.0764,0.06175,0.04548,-0.0812
7.1,1.0902,0.0627,0.04651,-0.0803
7.2,1.1008,0.06325,0.04713,-0.0784
7.3,1.1119,0.06442,0.04833,-0.0776
7.4,1.1223,0.06567,0.0496,-0.0768
7.6,1.1368,0.06791,0.05175,-0.0746
7.7,1.1455,0.06933,0.05316,-0.0739
7.8,1.1582,0.07071,0.05445,-0.0732
7.9,1.1576,0.07242,0.05637,-0.0728
8,1.1678,0.07392,0.05781,-0.0722
8.1,1.1685,0.07564,0.05971,-0.0717
8.2,1.1683,0.07676,0.0608,-0.0707
8.3,1.181,0.07825,0.06218,-0.07
8.4,1.1766,0.08012,0.06428,-0.0698
8.5,1.182,0.0818,0.06605,-0.0693
8.6,1.1871,0.08351,0.06775,-0.0689
8.7,1.1837,0.08543,0.06985,-0.0688
8.8,1.1922,0.08707,0.07155,-0.0683
8.9,1.1945,0.0889,0.07338,-0.068
9,1.1894,0.09092,0.07557,-0.068
9.1,1.1905,0.09278,0.07755,-0.0679
9.2,1.1879,0.09392,0.07863,-0.0671
9.3,1.184,0.09596,0.08079,-0.0673
9.4,1.1874,0.09778,0.08269,-0.0671
9.5,1.1989,0.0994,0.08438,-0.0665
9.6,1.1906,0.10158,0.0867,-0.0669
9.7,1.1843,0.10375,0.08896,-0.0674
9.8,1.1807,0.10584,0.09114,-0.0677
9.9,1.1844,0.10768,0.09305,-0.0676
10,1.1979,0.10924,0.09454,-0.0668
10.1,1.1889,0.11152,0.0969,-0.0676
10.2,1.1811,0.11379,0.09923,-0.0684
10.3,1.1748,0.11603,0.10152,-0.0692
10.4,1.1712,0.1182,0.10374,-0.0699
10.5,1.1727,0.12017,0.10576,-0.0701
10.6,1.1939,0.12149,0.10705,-0.0684
10.7,1.1844,0.12386,0.10946,-0.0696
10.8,1.1756,0.12616,0.11177,-0.0708
10.9,1.1676,0.12837,0.11399,-0.0719
11,1.1611,0.13059,0.11622,-0.073
11.1,1.1568,0.13283,0.11847,-0.0741
11.2,1.1553,0.13495,0.12061,-0.0749
11.4,1.1582,0.13788,0.12349,-0.0747
11.5,1.151,0.1403,0.12589,-0.0765
11.6,1.145,0.1427,0.12828,-0.0783
11.7,1.1408,0.14507,0.13063,-0.08
11.8,1.1385,0.14734,0.13292,-0.0814
11.9,1.1388,0.14947,0.13506,-0.0824
12,1.1441,0.15129,0.13696,-0.0822
12.3,1.1492,0.15751,0.14314,-0.0842
12.4,1.1437,0.16005,0.14564,-0.0867
12.5,1.1397,0.16253,0.14809,-0.089
12.6,1.1373,0.16496,0.15051,-0.0911
12.7,1.1368,0.16727,0.15282,-0.0927
12.8,1.138,0.16943,0.155,-0.0938
12.9,1.1415,0.1714,0.15702,-0.0943
13,1.1485,0.17307,0.15879,-0.0935
13.1,1.163,0.17435,0.16007,-0.0904
13.2,1.1566,0.17701,0.16267,-0.0938
13.3,1.1517,0.17963,0.16524,-0.0969
13.4,1.1484,0.18216,0.16772,-0.0997
13.5,1.1465,0.18455,0.17008,-0.1021
13.6,1.1459,0.18684,0.17236,-0.1041
13.7,1.1465,0.18903,0.17455,-0.1058
13.8,1.1482,0.19115,0.17669,-0.107
13.9,1.1511,0.1932,0.17877,-0.1078
14,1.1552,0.19518,0.18081,-0.1081
14.2,1.1599,0.19837,0.1839,-0.1089
14.3,1.1579,0.20071,0.18619,-0.1118
14.4,1.1571,0.20296,0.1884,-0.1143
14.5,1.1572,0.20513,0.19057,-0.1164
14.6,1.1582,0.20726,0.19269,-0.1182
14.7,1.16,0.20936,0.1948,-0.1197
14.8,1.1624,0.21143,0.19688,-0.1209
14.9,1.1653,0.21348,0.19897,-0.1219
15,1.1689,0.21553,0.20105,-0.1226
15.1,1.1732,0.21757,0.20315,-0.1229
15.2,1.1783,0.21964,0.20528,-0.1229
15.3,1.1848,0.22176,0.2075,-0.1221
15.4,1.1897,0.22398,0.20972,-0.1222
15.5,1.1877,0.22608,0.21175,-0.1256
15.6,1.1869,0.22813,0.21375,-0.1285
15.7,1.1872,0.23017,0.21577,-0.131
15.8,1.1883,0.23221,0.21778,-0.1332
15.9,1.19,0.23424,0.21981,-0.1352
16,1.1921,0.23628,0.22186,-0.1369
16.1,1.1947,0.23833,0.22392,-0.1384
16.2,1.1976,0.2404,0.22601,-0.1397
16.3,1.2008,0.24249,0.22813,-0.1409
16.4,1.2042,0.24459,0.23026,-0.1419
16.5,1.2079,0.24673,0.23244,-0.1427
16.6,1.2119,0.24891,0.23467,-0.1433
16.7,1.2162,0.25114,0.23695,-0.1438
16.8,1.2209,0.25346,0.23933,-0.144
16.9,1.2261,0.2559,0.24185,-0.144
17,1.2322,0.25861,0.24466,-0.1433
17.2,1.2324,0.26211,0.24783,-0.1495
17.3,1.2336,0.26391,0.24961,-0.1522
17.4,1.2353,0.26577,0.25146,-0.1546
17.7,1.2404,0.27034,0.25598,-0.1616
17.8,1.2438,0.27245,0.25811,-0.1629
17.9,1.2473,0.27457,0.26027,-0.1641
18,1.251,0.27673,0.26246,-0.1652
18.1,1.2547,0.27893,0.2647,-0.1662
18.2,1.2585,0.28117,0.26698,-0.1671
18.3,1.2624,0.28346,0.26931,-0.1679
18.4,1.2664,0.28582,0.27171,-0.1687
18.5,1.2705,0.28826,0.2742,-0.1692
18.6,1.2748,0.29082,0.27682,-0.1697
18.7,1.2793,0.29357,0.27964,-0.1698
18.9,1.2842,0.29739,0.28321,-0.1742
19.1,1.2887,0.30063,0.28641,-0.1796
19.2,1.2914,0.30243,0.28821,-0.1819
19.3,1.2944,0.30431,0.2901,-0.184
19.4,1.2976,0.30626,0.29205,-0.1859
19.5,1.3008,0.30826,0.29406,-0.1877
19.6,1.3042,0.31031,0.29613,-0.1894
19.7,1.3076,0.3124,0.29835,-0.1911
19.8,1.3111,0.31453,0.3005,-0.1926
19.9,1.3146,0.31669,0.30268,-0.1941
20,1.3182,0.31889,0.30491,-0.1955
20.1,1.3217,0.32112,0.30718,-0.1969
20.2,1.3253,0.32339,0.30947,-0.1982
20.3,1.329,0.32569,0.3118,-0.1995
20.4,1.3326,0.32802,0.31417,-0.2007
20.5,1.3363,0.33039,0.31658,-0.2019
20.6,1.34,0.33281,0.31903,-0.203
20.7,1.3436,0.33527,0.32153,-0.2041
20.8,1.3474,0.3378,0.32411,-0.2052
20.9,1.3511,0.34038,0.32673,-0.2062
21,1.3548,0.34304,0.32944,-0.2071
21.1,1.3586,0.34579,0.33224,-0.208
21.2,1.3624,0.34867,0.33517,-0.2088
21.3,1.3663,0.35174,0.33829,-0.2094
21.4,0.9468,0.26996,0.25766,-0.1391
21.5,0.9485,0.27161,0.25934,-0.1399
21.6,0.9503,0.27331,0.26118,-0.1406
21.7,0.952,0.27506,0.26296,-0.1414
21.8,0.9538,0.27684,0.26478,-0.1421
21.9,0.9557,0.2787,0.26668,-0.1428
22,0.9577,0.28064,0.26866,-0.1435
22.1,0.9597,0.28262,0.27068,-0.1441
22.2,0.9617,0.28467,0.27278,-0.1448
22.3,0.9638,0.28683,0.27498,-0.1453
22.4,0.966,0.28906,0.27726,-0.1459
22.5,0.9683,0.29148,0.27973,-0.1464
22.6,0.9705,0.29394,0.28224,-0.1468
22.9,0.9717,0.2963,0.28444,-0.1512
23.8,0.9888,0.3166,0.30508,-0.158

