airfoilName st24.dat
Re 	610000
M 	2.500000e-01
N 	4.500000e+00
VACC 	0 VACCflag 1
XTR 	1.00 	1.00 XTRflag 0
alpha,cl,cd,cdp,cm
-30,-1.2255,0.5145,0.51286,0.2639
-29.9,-1.2227,0.51213,0.51048,0.262
-29.8,-1.2199,0.50979,0.50814,0.2601
-29.7,-1.2171,0.50744,0.50579,0.2583
-29.6,-1.2143,0.50507,0.50342,0.2564
-29.5,-1.2114,0.50275,0.50109,0.2546
-29.4,-1.2086,0.50041,0.49874,0.2527
-29.3,-1.2057,0.49808,0.49641,0.2508
-29.2,-1.2028,0.49577,0.4941,0.249
-29.1,-1.1999,0.49344,0.49177,0.2471
-29,-1.197,0.49113,0.48945,0.2453
-28.9,-1.1941,0.48885,0.48716,0.2435
-28.8,-1.1911,0.48656,0.48487,0.2416
-28.7,-1.1881,0.48426,0.48257,0.2398
-28.6,-1.1852,0.482,0.4803,0.238
-28.5,-1.1822,0.47971,0.47802,0.2362
-28.4,-1.1792,0.47748,0.47578,0.2343
-28.3,-1.1761,0.47522,0.47351,0.2325
-28.2,-1.1731,0.47298,0.47127,0.2307
-28.1,-1.17,0.47075,0.46904,0.2289
-28,-1.167,0.46854,0.46683,0.2271
-27.9,-1.1639,0.46634,0.46462,0.2253
-27.8,-1.1608,0.46414,0.46242,0.2235
-27.7,-1.1577,0.46195,0.46022,0.2217
-27.6,-1.1545,0.45976,0.45802,0.2199
-27.5,-1.1514,0.45759,0.45585,0.2181
-27.4,-1.1482,0.45545,0.4537,0.2163
-27.3,-1.1451,0.45329,0.45154,0.2145
-27.2,-1.1419,0.45114,0.44939,0.2127
-27.1,-1.1387,0.449,0.44725,0.2109
-27,-1.1355,0.44687,0.44512,0.2091
-26.9,-1.1322,0.44479,0.44303,0.2074
-26.8,-1.129,0.44264,0.44087,0.2056
-26.7,-1.1258,0.44054,0.43877,0.2038
-26.6,-1.1225,0.43843,0.43666,0.2021
-26.5,-1.1192,0.4363,0.43453,0.2003
-26.4,-1.1159,0.43423,0.43246,0.1985
-26.3,-1.1126,0.43213,0.43035,0.1968
-26.2,-1.1093,0.43004,0.42826,0.195
-26.1,-1.106,0.42794,0.42616,0.1933
-26,-1.1025,0.42691,0.42512,0.191
-25.9,-1.0991,0.42474,0.42296,0.1893
-25.8,-1.0958,0.4226,0.42081,0.1876
-25.7,-1.0924,0.4205,0.41871,0.1859
-25.6,-1.089,0.41834,0.41655,0.1841
-25.5,-1.0856,0.41622,0.41443,0.1824
-25.4,-1.0821,0.41404,0.41225,0.1807
-25.3,-1.0787,0.41192,0.41012,0.179
-25.2,-1.0753,0.40972,0.40792,0.1773
-25.1,-1.0717,0.40766,0.40585,0.1756
-25,-1.0683,0.40546,0.40365,0.1739
-24.9,-1.0648,0.40335,0.40154,0.1722
-24.8,-1.0613,0.40118,0.39936,0.1705
-24.7,-1.0577,0.39898,0.39716,0.1688
-24.6,-1.0542,0.39682,0.395,0.1671
-24.5,-1.0506,0.39462,0.39279,0.1655
-24.4,-1.047,0.39247,0.39064,0.1638
-24.3,-1.0434,0.39029,0.38846,0.1621
-24.2,-1.0398,0.38807,0.38624,0.1604
-24.1,-1.0361,0.38585,0.38401,0.1588
-24,-1.0323,0.38373,0.38189,0.157
-23.9,-1.0287,0.3815,0.37966,0.1554
-23.8,-1.025,0.37931,0.37746,0.1538
-23.7,-1.021,0.37731,0.37547,0.1519
-23.6,-1.0171,0.37536,0.37352,0.1501
-23.1,-0.9969,0.3662,0.36437,0.1405
-23,-0.9935,0.36383,0.362,0.1392
-22.9,-0.99,0.36136,0.35952,0.1378
-22.8,-0.9865,0.35899,0.35716,0.1365
-22.7,-0.9831,0.35647,0.35464,0.1352
-22.6,-0.9796,0.35407,0.35223,0.1339
-22.5,-0.9761,0.35159,0.34975,0.1326
-22.4,-0.9727,0.34907,0.34723,0.1314
-22.3,-0.9692,0.34661,0.34476,0.1301
-22.2,-0.9657,0.34415,0.3423,0.1288
-22.1,-0.9622,0.34168,0.33982,0.1276
-22,-0.9587,0.33916,0.33731,0.1264
-21.9,-0.9553,0.33671,0.33485,0.1251
-21.8,-0.9518,0.33429,0.33243,0.1239
-21.7,-0.9483,0.33187,0.33001,0.1227
-21.6,-0.9448,0.32954,0.32766,0.1214
-21.5,-0.9413,0.32725,0.32536,0.1202
-21.4,-0.9378,0.32503,0.32315,0.1189
-21.3,-0.9343,0.32283,0.32094,0.1177
-21.2,-0.9308,0.32069,0.3188,0.1164
-21.1,-0.9272,0.31858,0.31669,0.1151
-21,-0.9237,0.31651,0.31462,0.1139
-20.9,-0.9201,0.31446,0.31257,0.1126
-20.8,-0.9165,0.31245,0.31055,0.1113
-20.7,-0.9129,0.31044,0.30854,0.11
-20.6,-0.9094,0.30847,0.30656,0.1087
-20.5,-0.9058,0.3065,0.30459,0.1075
-20.4,-0.9021,0.30454,0.30263,0.1062
-20.3,-0.8985,0.30259,0.30068,0.1049
-20.2,-0.8949,0.30066,0.29875,0.1036
-20.1,-0.8913,0.29875,0.29684,0.1024
-20,-0.8877,0.29683,0.29491,0.1011
-19.9,-0.884,0.29492,0.293,0.0998
-19.8,-0.8804,0.29301,0.29109,0.0986
-19.7,-0.8768,0.29112,0.2892,0.0973
-19.6,-0.8731,0.28921,0.28729,0.0961
-19.5,-0.8694,0.28731,0.28539,0.0948
-19.4,-0.8658,0.28542,0.2835,0.0936
-19.3,-0.8621,0.28353,0.2816,0.0923
-19.2,-0.8584,0.28163,0.2797,0.0911
-19.1,-0.8547,0.27973,0.2778,0.0898
-19,-0.851,0.27784,0.2759,0.0886
-18.9,-0.8473,0.27595,0.27401,0.0874
-18.8,-0.8436,0.27406,0.27212,0.0862
-18.7,-0.8399,0.27217,0.27022,0.085
-18.6,-0.8362,0.27028,0.26833,0.0838
-18.5,-0.8325,0.26839,0.26644,0.0826
-18.4,-0.8288,0.26651,0.26456,0.0814
-18.3,-0.8251,0.26463,0.26268,0.0802
-18.2,-0.8214,0.26275,0.26079,0.079
-18.1,-0.8176,0.26087,0.25891,0.0778
-18,-0.814,0.25899,0.25703,0.0766
-17.9,-0.8103,0.25712,0.25516,0.0755
-17.8,-0.8066,0.25525,0.25328,0.0743
-17.7,-0.8029,0.25337,0.25141,0.0732
-17.6,-0.7992,0.2515,0.24954,0.072
-17.5,-0.7955,0.2499,0.24793,0.0705
-17.4,-0.7918,0.248,0.24603,0.0694
-17.3,-0.7882,0.2461,0.24414,0.0682
-17.2,-0.7845,0.2442,0.24224,0.0671
-17.1,-0.7808,0.24231,0.24035,0.066
-17,-0.7771,0.24042,0.23845,0.0649
-16.9,-0.7735,0.23853,0.23656,0.0638
-16.8,-0.7698,0.23664,0.23467,0.0627
-16.7,-0.7661,0.23475,0.23278,0.0616
-16.6,-0.7625,0.23286,0.23089,0.0605
-16.5,-0.7588,0.23096,0.22899,0.0595
-16.4,-0.7551,0.22906,0.22709,0.0584
-16.3,-0.7515,0.22716,0.22519,0.0573
-16.2,-0.7478,0.22525,0.22327,0.0563
-16.1,-0.7441,0.22332,0.22135,0.0552
-16,-0.7404,0.22138,0.21941,0.0541
-15.9,-0.7367,0.21945,0.21748,0.0531
-15.8,-0.733,0.21747,0.21549,0.052
-15.7,-0.7293,0.2155,0.21352,0.051
-15.6,-0.7255,0.21347,0.21149,0.0499
-15.5,-0.7218,0.2114,0.20943,0.0489
-15.4,-0.718,0.20932,0.20733,0.0478
-15.3,-0.714,0.20711,0.20512,0.0467
-15.2,-0.7098,0.20475,0.20277,0.0455
-15.1,-0.7055,0.20257,0.20058,0.0442
-15,-0.7012,0.20051,0.19853,0.0429
-14.8,-0.6923,0.19654,0.19458,0.0401
-14.7,-0.6892,0.19461,0.19265,0.0394
-14.6,-0.6862,0.19266,0.19069,0.0387
-14.5,-0.6832,0.19073,0.18877,0.038
-14.4,-0.6803,0.18884,0.18688,0.0372
-14.3,-0.6774,0.18701,0.18504,0.0365
-14.2,-0.6743,0.18525,0.18328,0.0357
-14.1,-0.6711,0.18354,0.18158,0.0349
-14,-0.6679,0.18187,0.1799,0.0341
-13.9,-0.6645,0.18023,0.17826,0.0332
-13.8,-0.6612,0.17861,0.17664,0.0324
-13.7,-0.6578,0.17702,0.17505,0.0315
-13.6,-0.6544,0.17542,0.17346,0.0307
-13.5,-0.6509,0.17386,0.1719,0.0298
-13.4,-0.6475,0.1723,0.17033,0.0289
-13.3,-0.644,0.17073,0.16877,0.028
-13.2,-0.6406,0.16918,0.16721,0.0272
-13.1,-0.6371,0.16762,0.16566,0.0263
-13,-0.6336,0.16606,0.1641,0.0254
-12.9,-0.6301,0.16451,0.16255,0.0245
-12.8,-0.6266,0.16295,0.16099,0.0236
-12.7,-0.6231,0.1614,0.15943,0.0228
-12.6,-0.6196,0.15983,0.15787,0.0219
-12.5,-0.616,0.15826,0.1563,0.021
-12.4,-0.6125,0.15668,0.15472,0.0201
-12.3,-0.6089,0.1551,0.15314,0.0192
-12.2,-0.6053,0.15351,0.15155,0.0183
-12.1,-0.6018,0.15193,0.14997,0.0175
-12,-0.5982,0.15034,0.14837,0.0166
-11.9,-0.5947,0.14875,0.14678,0.0157
-11.8,-0.5911,0.14716,0.14519,0.0148
-11.7,-0.5876,0.14556,0.1436,0.014
-11.6,-0.584,0.14397,0.142,0.0131
-11.5,-0.5805,0.14237,0.14041,0.0122
-11.4,-0.5769,0.14076,0.1388,0.0114
-11.3,-0.5733,0.13915,0.13719,0.0105
-11.2,-0.5697,0.13754,0.13558,0.0096
-11.1,-0.5661,0.13592,0.13396,0.0087
-11,-0.5625,0.13431,0.13235,0.0079
-10.9,-0.559,0.13267,0.13072,0.007
-10.8,-0.5554,0.13104,0.12909,0.0061
-10.7,-0.5519,0.1294,0.12745,0.0053
-10.6,-0.5481,0.12701,0.12507,0.004
-10.5,-0.5445,0.12523,0.12328,0.0031
-10.4,-0.5409,0.12343,0.12149,0.0022
-10.3,-0.5373,0.12161,0.11967,0.0012
-10.2,-0.5336,0.11969,0.11775,0.0002
-10.1,-0.5299,0.1178,0.11587,-0.0008
-10,-0.5261,0.1159,0.11397,-0.0019
-9.9,-0.5222,0.11402,0.11209,-0.003
-9.8,-0.5182,0.11214,0.11021,-0.0043
-9.6,-0.5105,0.10827,0.10637,-0.0071
-9.5,-0.5077,0.10674,0.10485,-0.0076
-9.4,-0.505,0.10523,0.10334,-0.0082
-9.3,-0.5025,0.1037,0.10181,-0.0088
-9.2,-0.5001,0.1022,0.10032,-0.0094
-9.1,-0.4976,0.10074,0.09886,-0.01
-9,-0.4952,0.0993,0.09742,-0.0106
-8.9,-0.4928,0.0979,0.09603,-0.0113
-8.8,-0.4904,0.09655,0.09468,-0.0119
-8.7,-0.488,0.09524,0.09337,-0.0126
-8.6,-0.4858,0.09397,0.09211,-0.0132
-8.5,-0.4838,0.09274,0.09089,-0.0137
-8.4,-0.4822,0.09158,0.08973,-0.0142
-8.3,-0.4811,0.09047,0.08863,-0.0144
-8.2,-0.4812,0.08947,0.08764,-0.0145
-8.1,-0.4828,0.08861,0.08679,-0.0141
-8,-0.4858,0.08787,0.08607,-0.0133
-7.9,-0.4884,0.0871,0.08532,-0.0127
-7.8,-0.4792,0.08527,0.08348,-0.0155
-7.7,-0.4707,0.08354,0.08173,-0.018
-7.6,-0.4619,0.08178,0.07996,-0.0207
-7.5,-0.4526,0.07999,0.07816,-0.0235
-7.4,-0.4427,0.07815,0.07631,-0.0264
-7.3,-0.4335,0.07638,0.07452,-0.0291
-5.8,-0.2261,0.01909,0.01548,-0.1005
-5.7,-0.2129,0.01737,0.01347,-0.1017
-5.6,-0.1998,0.01622,0.01211,-0.1025
-5.5,-0.1868,0.01538,0.01109,-0.1031
-5.4,-0.1737,0.0147,0.01026,-0.1036
-5.3,-0.162,0.01419,0.00963,-0.1037
-5.2,-0.1501,0.01377,0.00909,-0.1038
-5.1,-0.1381,0.01345,0.00869,-0.1038
-5,-0.1257,0.01285,0.00798,-0.1041
-4.9,-0.1132,0.01209,0.00708,-0.1045
-4.8,-0.1007,0.01163,0.00654,-0.1047
-4.7,-0.088,0.01129,0.00612,-0.1049
-4.6,-0.0753,0.011,0.00577,-0.1051
-4.5,-0.0633,0.01075,0.00547,-0.1051
-4.4,-0.0519,0.01054,0.0052,-0.1049
-4.3,-0.0399,0.01033,0.00494,-0.1049
-4.2,-0.0277,0.01013,0.00469,-0.105
-4.1,-0.0154,0.00993,0.00444,-0.105
-4,-0.0034,0.00975,0.00421,-0.105
-3.9,0.0084,0.00958,0.004,-0.1049
-3.8,0.0203,0.00943,0.0038,-0.1048
-3.7,0.0323,0.00929,0.00362,-0.1048
-3.6,0.0442,0.00913,0.00343,-0.1048
-3.5,0.0562,0.00897,0.00323,-0.1047
-3.4,0.068,0.00885,0.00308,-0.1047
-3.3,0.0796,0.00874,0.00296,-0.1046
-3.2,0.0915,0.00865,0.00284,-0.1046
-3.1,0.1033,0.00855,0.00271,-0.1045
-3,0.1151,0.00847,0.0026,-0.1044
-2.9,0.1268,0.00838,0.0025,-0.1044
-2.8,0.1386,0.0083,0.00241,-0.1043
-2.7,0.1504,0.00823,0.00233,-0.1043
-2.6,0.1621,0.00816,0.00225,-0.1042
-2.5,0.1738,0.00811,0.00217,-0.1041
-2.4,0.1855,0.00803,0.0021,-0.1041
-2.3,0.197,0.00798,0.00206,-0.104
-2.2,0.208,0.00791,0.00199,-0.1037
-2.1,0.2198,0.00786,0.00193,-0.1037
-2,0.2308,0.00783,0.00185,-0.1034
-1.9,0.2426,0.00778,0.00179,-0.1034
-1.8,0.2543,0.00773,0.00175,-0.1033
-1.7,0.2655,0.00771,0.0017,-0.1032
-1.6,0.2772,0.00767,0.00165,-0.1031
-1.5,0.2887,0.00764,0.00161,-0.103
-1.4,0.2999,0.00763,0.00156,-0.1028
-1.3,0.3116,0.00761,0.00153,-0.1027
-1.2,0.3233,0.00757,0.0015,-0.1027
-1.1,0.3349,0.00755,0.00147,-0.1027
-1,0.3464,0.00753,0.00144,-0.1026
-0.9,0.3576,0.00754,0.00141,-0.1024
-0.8,0.3693,0.00753,0.00139,-0.1024
-0.7,0.3809,0.00752,0.00136,-0.1023
-0.6,0.3921,0.00753,0.00136,-0.1021
-0.5,0.4032,0.00756,0.00133,-0.1019
-0.4,0.4147,0.00756,0.00133,-0.1019
-0.3,0.426,0.00759,0.00132,-0.1018
-0.2,0.4375,0.0076,0.0013,-0.1017
-0.1,0.4483,0.00766,0.00131,-0.1015
0,0.4594,0.00771,0.00131,-0.1013
0.1,0.4708,0.00774,0.00131,-0.1012
0.2,0.482,0.00778,0.00132,-0.1011
0.3,0.4928,0.00787,0.00132,-0.1009
0.4,0.5035,0.00798,0.00134,-0.1007
0.5,0.5136,0.00815,0.00138,-0.1004
0.6,0.5246,0.00824,0.00141,-0.1003
0.7,0.5349,0.00841,0.00146,-0.1001
0.8,0.5459,0.0085,0.00149,-0.0999
0.9,0.5569,0.0086,0.00153,-0.0998
1,0.5678,0.0087,0.00158,-0.0997
1.1,0.5777,0.00894,0.00166,-0.0995
1.2,0.5884,0.00908,0.00171,-0.0994
1.3,0.5991,0.00922,0.00177,-0.0992
1.4,0.6097,0.00937,0.00184,-0.0991
1.5,0.6202,0.00954,0.00192,-0.099
1.6,0.6299,0.0098,0.00204,-0.0988
2,0.6668,0.00866,0.00234,-0.0971
2.1,0.678,0.00876,0.0024,-0.097
2.2,0.6893,0.00885,0.00245,-0.097
2.3,0.7003,0.00898,0.00251,-0.0968
2.4,0.7116,0.00907,0.00257,-0.0968
2.5,0.7229,0.00915,0.00263,-0.0967
2.6,0.7342,0.00923,0.0027,-0.0966
2.7,0.7454,0.00933,0.00276,-0.0965
2.8,0.7567,0.0094,0.00282,-0.0964
2.9,0.7677,0.00953,0.00289,-0.0963
3,0.7791,0.0096,0.00295,-0.0962
3.1,0.7903,0.00968,0.00301,-0.0961
3.2,0.8015,0.00978,0.00307,-0.096
3.3,0.8128,0.00986,0.00315,-0.0959
3.4,0.8237,0.00998,0.00321,-0.0958
3.5,0.835,0.01007,0.00329,-0.0957
3.6,0.8462,0.01015,0.00336,-0.0956
3.7,0.8573,0.01025,0.00343,-0.0955
3.8,0.8685,0.01035,0.00352,-0.0953
3.9,0.8797,0.01044,0.0036,-0.0952
4,0.8908,0.01053,0.0037,-0.0951
4.1,0.9016,0.01066,0.00379,-0.0949
4.2,0.9128,0.01076,0.00388,-0.0948
4.3,0.9238,0.01087,0.00397,-0.0947
4.4,0.9348,0.01098,0.00407,-0.0945
4.5,0.9459,0.01108,0.00416,-0.0944
4.6,0.9569,0.01118,0.00426,-0.0942
4.7,0.9676,0.01133,0.00437,-0.094
4.8,0.9786,0.01144,0.00447,-0.0938
4.9,0.9895,0.01156,0.00458,-0.0937
5,1.0003,0.01169,0.00469,-0.0935
5.1,1.0112,0.0118,0.00481,-0.0933
5.2,1.0222,0.01192,0.00492,-0.0931
5.3,1.033,0.01205,0.00507,-0.0929
5.4,1.0435,0.01221,0.00521,-0.0927
5.5,1.0543,0.01233,0.00533,-0.0925
5.6,1.0651,0.01247,0.00546,-0.0922
5.7,1.0757,0.01262,0.0056,-0.092
5.8,1.0864,0.01276,0.00575,-0.0918
5.9,1.0971,0.01289,0.00589,-0.0915
6,1.1078,0.01303,0.00604,-0.0913
6.1,1.1184,0.01318,0.00619,-0.091
6.2,1.1289,0.01335,0.00635,-0.0907
6.3,1.1393,0.01352,0.00652,-0.0905
6.4,1.1499,0.01366,0.00668,-0.0902
6.5,1.1604,0.01382,0.00686,-0.0899
6.6,1.1709,0.01398,0.00704,-0.0896
6.7,1.1812,0.01417,0.00723,-0.0893
6.8,1.1913,0.01437,0.00744,-0.0889
6.9,1.2018,0.01452,0.00763,-0.0886
7,1.2122,0.01469,0.00782,-0.0883
7.1,1.2225,0.01486,0.00802,-0.088
7.2,1.2328,0.01504,0.00822,-0.0876
7.3,1.2429,0.01523,0.00844,-0.0873
7.4,1.253,0.01544,0.00866,-0.0869
7.5,1.2626,0.0157,0.00892,-0.0864
7.6,1.2728,0.01587,0.00911,-0.0861
7.7,1.2828,0.01607,0.00934,-0.0857
7.8,1.2928,0.01627,0.00959,-0.0853
7.9,1.3026,0.01649,0.00979,-0.0849
8,1.3121,0.01674,0.01006,-0.0845
8.1,1.3217,0.01699,0.01034,-0.084
8.2,1.3315,0.01719,0.01059,-0.0835
8.3,1.3412,0.01742,0.01085,-0.0831
8.4,1.3508,0.01765,0.01112,-0.0826
8.5,1.3603,0.01789,0.01139,-0.0821
8.6,1.3696,0.01815,0.01168,-0.0816
8.7,1.3787,0.01844,0.01199,-0.0811
8.8,1.3877,0.01873,0.01232,-0.0805
8.9,1.3969,0.01899,0.01263,-0.08
9,1.406,0.01926,0.01295,-0.0794
9.1,1.4149,0.01955,0.01329,-0.0788
9.2,1.4236,0.01985,0.01365,-0.0782
9.3,1.4321,0.02017,0.014,-0.0776
9.4,1.4403,0.02053,0.0144,-0.0769
9.5,1.4483,0.02089,0.01482,-0.0762
9.6,1.4564,0.02125,0.01525,-0.0754
9.7,1.4641,0.02163,0.01569,-0.0747
9.8,1.4716,0.02203,0.01616,-0.0738
9.9,1.4789,0.02244,0.01664,-0.073
10,1.486,0.02286,0.01713,-0.0722
10.1,1.4927,0.0233,0.01764,-0.0713
10.3,1.5064,0.02411,0.0185,-0.0696
10.4,1.5121,0.02461,0.01908,-0.0686
10.5,1.5173,0.02512,0.01969,-0.0675
10.6,1.522,0.02566,0.02031,-0.0663
10.7,1.5261,0.02621,0.02094,-0.0651
10.8,1.5293,0.02677,0.02159,-0.0637
10.9,1.5316,0.02734,0.02224,-0.0622
11,1.5335,0.02794,0.02292,-0.0607
11.1,1.535,0.02857,0.02364,-0.0591
11.2,1.5363,0.02923,0.0244,-0.0576
11.3,1.5371,0.02992,0.02518,-0.0561
11.4,1.5376,0.03065,0.02599,-0.0546
11.5,1.5378,0.03141,0.02684,-0.0532
11.6,1.5375,0.03221,0.02773,-0.0518
11.7,1.5367,0.03305,0.02866,-0.0504
11.8,1.5355,0.03394,0.02964,-0.049
11.9,1.5338,0.03488,0.03067,-0.0477
12,1.5316,0.03588,0.03176,-0.0465
12.1,1.5289,0.03693,0.0329,-0.0453
12.2,1.5259,0.03805,0.0341,-0.0442
12.3,1.5221,0.03925,0.0354,-0.0433
12.4,1.5178,0.04052,0.03676,-0.0424
12.5,1.5129,0.04189,0.03821,-0.0416
12.6,1.5078,0.04333,0.03974,-0.0411
12.7,1.502,0.04489,0.04139,-0.0407
12.8,1.4957,0.04657,0.04316,-0.0405
12.9,1.4889,0.04837,0.04505,-0.0405
13,1.4816,0.05031,0.04708,-0.0408
13.2,1.4656,0.05473,0.05167,-0.0423
13.3,1.4568,0.05728,0.0543,-0.0437
13.4,1.4478,0.06005,0.05716,-0.0455
13.6,1.4273,0.06678,0.06407,-0.0509
13.7,1.4158,0.07098,0.06837,-0.0548
14.1,1.3489,0.09999,0.09786,-0.0818
14.2,1.3308,0.10697,0.1049,-0.0873
14.3,1.3151,0.11316,0.11111,-0.092
14.4,1.3007,0.11905,0.11704,-0.0964
14.5,1.2879,0.12455,0.12258,-0.1004
14.6,1.2765,0.12973,0.12779,-0.1042
14.7,1.2662,0.13469,0.13278,-0.1078
14.8,1.2565,0.13952,0.13764,-0.1113
14.9,1.2478,0.14407,0.14221,-0.1145
15,1.2394,0.1486,0.14677,-0.1178
15.1,1.2317,0.15298,0.15117,-0.1209
15.2,1.225,0.15704,0.15526,-0.1239
15.3,1.2176,0.16152,0.15976,-0.1272
15.4,1.212,0.16541,0.16367,-0.1301
15.5,1.207,0.16918,0.16746,-0.1329
15.6,1.2009,0.17362,0.17193,-0.136
15.7,1.1965,0.17753,0.17585,-0.1388
15.8,1.1926,0.18136,0.1797,-0.1415
15.9,1.1877,0.18597,0.18434,-0.1446
16,1.1838,0.19046,0.18885,-0.1475
16.1,1.1787,0.19612,0.19453,-0.1509
16.2,1.1724,0.20313,0.20157,-0.1548
16.3,1.1659,0.21149,0.20992,-0.1588
16.4,1.1658,0.21553,0.21396,-0.161
16.5,1.1671,0.21848,0.21691,-0.1629
16.6,1.169,0.22105,0.21947,-0.1645
16.7,1.171,0.22342,0.22185,-0.1661
16.8,1.1733,0.22563,0.22406,-0.1677
16.9,1.1758,0.22771,0.22613,-0.1692
17,1.1784,0.22967,0.22811,-0.1707
17.1,1.181,0.23161,0.23005,-0.1721
17.2,1.1837,0.23342,0.23187,-0.1736
17.3,1.1865,0.23519,0.23364,-0.175
17.4,1.1893,0.23695,0.23539,-0.1764
17.5,1.1922,0.23864,0.23709,-0.1778
17.6,1.195,0.24028,0.23873,-0.1792
17.7,1.1978,0.24189,0.24034,-0.1806
17.8,1.2006,0.24335,0.2418,-0.182
17.9,1.2033,0.24494,0.24339,-0.1834
18,1.2047,0.25265,0.25109,-0.186
18.1,1.2076,0.25685,0.25528,-0.1878
18.2,1.2107,0.25997,0.25841,-0.1894
18.3,1.2139,0.2626,0.26104,-0.1909
18.4,1.2171,0.26504,0.26348,-0.1925
18.5,1.2203,0.26737,0.26581,-0.1939
18.6,1.2236,0.2696,0.26804,-0.1954
18.7,1.2269,0.27173,0.27017,-0.1969
18.8,1.2303,0.27383,0.27228,-0.1983
18.9,1.2336,0.27584,0.27429,-0.1998
19,1.2369,0.27783,0.27628,-0.2012
19.1,1.2402,0.2798,0.27826,-0.2027
19.2,1.2436,0.28172,0.28018,-0.2041
19.3,1.2469,0.28365,0.28211,-0.2056
19.4,1.2503,0.28548,0.28394,-0.207
19.5,1.2536,0.28733,0.28579,-0.2085
19.6,1.257,0.28919,0.28766,-0.2099
19.7,1.2603,0.291,0.28948,-0.2114
19.8,1.2636,0.29277,0.29124,-0.2129
19.9,1.2669,0.29454,0.29302,-0.2143
20,1.2703,0.29634,0.29482,-0.2158
20.1,1.2736,0.29811,0.2966,-0.2172
20.2,1.2769,0.29976,0.29825,-0.2187
20.3,1.2802,0.30149,0.29998,-0.2201
20.4,1.2835,0.30328,0.30177,-0.2216
20.5,1.2867,0.30502,0.30352,-0.2231
20.6,1.2899,0.30673,0.30523,-0.2245
20.7,1.2932,0.3085,0.307,-0.226
20.8,1.2964,0.31032,0.30882,-0.2274
20.9,1.2996,0.31211,0.31062,-0.2288
21,1.3027,0.31396,0.31247,-0.2303
21.1,1.3058,0.31589,0.31442,-0.2317
21.2,1.309,0.31788,0.31641,-0.2331
21.3,1.3121,0.31992,0.31845,-0.2345
21.4,1.316,0.3229,0.32142,-0.2363
21.5,1.3201,0.32592,0.32443,-0.2381
21.6,1.3239,0.32853,0.32705,-0.2397
21.7,1.328,0.33182,0.33034,-0.2415
21.8,1.3319,0.33467,0.33319,-0.2432
21.9,1.3359,0.33779,0.33631,-0.2449
22,1.3397,0.34045,0.33897,-0.2465
22.1,1.3447,0.34535,0.34387,-0.2487
22.2,1.3483,0.34773,0.34626,-0.2503
22.3,1.352,0.3502,0.34873,-0.2519
22.4,1.3555,0.35253,0.35106,-0.2536
22.5,1.3591,0.3548,0.35334,-0.2552
22.6,1.3626,0.35709,0.35563,-0.2568
22.7,1.3661,0.35936,0.3579,-0.2585
22.8,1.3696,0.36157,0.36011,-0.2601
22.9,1.3731,0.3638,0.36235,-0.2618
23,1.3765,0.36601,0.36456,-0.2634
23.1,1.38,0.36818,0.36674,-0.2651
23.2,1.3834,0.37036,0.36892,-0.2667
23.3,1.3868,0.37252,0.37108,-0.2684
23.4,1.3902,0.37466,0.37322,-0.27
23.5,1.3936,0.37679,0.37536,-0.2717
23.6,1.397,0.3789,0.37748,-0.2734
23.7,1.4003,0.38102,0.37959,-0.2751
23.8,1.4037,0.3831,0.38169,-0.2768
23.9,1.407,0.38517,0.38375,-0.2785
24,1.4103,0.38724,0.38583,-0.2802
24.1,1.4136,0.38929,0.38788,-0.2819
24.2,1.4169,0.39135,0.38994,-0.2836
24.3,1.4201,0.39335,0.39195,-0.2853
24.4,1.4233,0.39537,0.39397,-0.287
24.5,1.4265,0.39734,0.39595,-0.2887
24.6,1.4297,0.39933,0.39794,-0.2905
24.7,1.4329,0.40134,0.39996,-0.2922
24.8,1.4361,0.40332,0.40196,-0.2939
24.9,1.4392,0.40537,0.404,-0.2956
25,1.4423,0.40716,0.40581,-0.2974
25.1,1.4454,0.40919,0.40784,-0.2991
25.2,1.4485,0.41115,0.4098,-0.3008
25.3,1.4516,0.41319,0.41184,-0.3026
25.4,1.4545,0.41497,0.41363,-0.3043
25.5,1.4575,0.4169,0.41557,-0.306
25.6,1.4606,0.41897,0.41764,-0.3078
25.7,1.4635,0.42091,0.41959,-0.3095
25.8,1.4664,0.42285,0.42152,-0.3113
25.9,1.4694,0.42492,0.4236,-0.313
26,1.4723,0.42697,0.42566,-0.3147
26.1,1.4752,0.42906,0.42776,-0.3165
26.2,1.4781,0.43123,0.42992,-0.3182
26.3,1.481,0.43339,0.4321,-0.3199
26.4,1.4839,0.43567,0.43438,-0.3217
26.5,1.4867,0.438,0.43671,-0.3234
26.6,1.4896,0.44037,0.43908,-0.3251
26.7,1.4924,0.44279,0.44151,-0.3268
26.8,1.4953,0.44523,0.44396,-0.3285
26.9,1.4981,0.44778,0.44651,-0.3302
27,1.5009,0.4504,0.44913,-0.3318
27.1,1.5037,0.45286,0.4516,-0.3336
27.2,1.5065,0.45553,0.45427,-0.3353
27.3,1.5093,0.45807,0.45682,-0.337
27.6,1.5205,0.46608,0.46481,-0.3439
27.7,1.5241,0.46888,0.46762,-0.346
27.8,1.5274,0.47152,0.47027,-0.3481
27.9,1.5307,0.47435,0.4731,-0.3501
28,1.5341,0.4772,0.47596,-0.3522
28.1,1.5373,0.48002,0.47879,-0.3542
28.2,1.5406,0.4829,0.48166,-0.3562
28.3,1.5437,0.48559,0.48436,-0.3582
28.4,1.5467,0.48821,0.48698,-0.3602
28.5,1.5498,0.49098,0.48975,-0.3622
28.6,1.5528,0.49357,0.49234,-0.3642
28.7,1.5557,0.49615,0.49493,-0.3662
28.8,1.5584,0.4986,0.49739,-0.3681
28.9,1.5613,0.50112,0.49991,-0.3701
29,1.5643,0.50374,0.50253,-0.3722
29.1,1.567,0.50621,0.50501,-0.3742
29.2,1.5704,0.50852,0.50732,-0.3766
29.3,1.5731,0.51089,0.50969,-0.3786
29.4,1.5759,0.51325,0.51206,-0.3807
29.5,1.5786,0.51561,0.51442,-0.3827
29.6,1.5813,0.51795,0.51677,-0.3847
29.7,1.5839,0.52025,0.51907,-0.3868
29.8,1.5865,0.52261,0.52144,-0.3888
29.9,1.5892,0.52497,0.5238,-0.3909
30,1.5918,0.52718,0.52602,-0.393

