airfoilName st24.dat
Re 	370000
M 	2.500000e-01
N 	4.500000e+00
VACC 	0 VACCflag 1
XTR 	1.00 	1.00 XTRflag 0
alpha,cl,cd,cdp,cm
-30,-1.2252,0.51929,0.51705,0.2628
-29.9,-1.2224,0.51701,0.51477,0.2608
-29.8,-1.2195,0.51479,0.51255,0.2589
-29.7,-1.2166,0.51258,0.51033,0.2569
-29.6,-1.2137,0.51033,0.50807,0.255
-29.5,-1.2108,0.5082,0.50595,0.253
-29.4,-1.2078,0.50604,0.50378,0.251
-29.3,-1.2048,0.50392,0.50165,0.2491
-29.2,-1.2018,0.50191,0.49964,0.2471
-29.1,-1.1989,0.49973,0.49746,0.2451
-29,-1.1958,0.49771,0.49543,0.2431
-28.9,-1.1927,0.49584,0.49356,0.2411
-28.8,-1.1896,0.49393,0.49165,0.239
-28.7,-1.1865,0.49187,0.48959,0.237
-28.6,-1.1833,0.49018,0.48789,0.2349
-28.5,-1.1802,0.48823,0.48594,0.2329
-28.4,-1.1769,0.48674,0.48445,0.2306
-28.3,-1.1737,0.48496,0.48267,0.2285
-28.2,-1.1704,0.48321,0.48091,0.2263
-28.1,-1.167,0.48155,0.47925,0.2241
-28,-1.1636,0.47982,0.47752,0.2218
-26,-1.0958,0.4337,0.43135,0.1847
-25.9,-1.0926,0.43121,0.42886,0.1831
-25.8,-1.0893,0.42868,0.42632,0.1815
-25.7,-1.0861,0.42615,0.42379,0.18
-25.6,-1.0828,0.42365,0.42128,0.1785
-25.5,-1.0796,0.42114,0.41877,0.1769
-25.4,-1.0763,0.41866,0.41629,0.1754
-25.3,-1.073,0.41616,0.41378,0.1739
-25.2,-1.0697,0.41369,0.41131,0.1724
-25.1,-1.0664,0.41116,0.40877,0.1709
-25,-1.0631,0.40873,0.40633,0.1694
-24.9,-1.0598,0.40624,0.40385,0.1679
-24.8,-1.0565,0.40381,0.40141,0.1664
-24.7,-1.0531,0.40137,0.39897,0.1649
-24.6,-1.0497,0.39894,0.39652,0.1634
-24.5,-1.0464,0.39653,0.3941,0.1619
-24.4,-1.043,0.39409,0.39166,0.1605
-24.3,-1.0396,0.39171,0.38928,0.159
-24.2,-1.0362,0.38933,0.38689,0.1575
-24.1,-1.0328,0.38698,0.38453,0.1561
-24,-1.0294,0.38461,0.38217,0.1546
-23.9,-1.026,0.3823,0.37985,0.1532
-23.8,-1.0226,0.37998,0.37753,0.1517
-23.7,-1.0191,0.37768,0.37523,0.1503
-23.6,-1.0157,0.3754,0.37294,0.1488
-23.5,-1.0122,0.37314,0.37068,0.1474
-23.4,-1.0088,0.37088,0.36842,0.1459
-23.3,-1.0053,0.36866,0.36619,0.1445
-23.2,-1.0018,0.36643,0.36396,0.1431
-23.1,-0.9983,0.36423,0.36176,0.1416
-23,-0.9948,0.36204,0.35956,0.1402
-22.9,-0.9913,0.35987,0.35738,0.1388
-22.8,-0.9878,0.3577,0.35521,0.1374
-22.7,-0.9843,0.35556,0.35308,0.136
-22.6,-0.9807,0.35341,0.35092,0.1345
-22.5,-0.9772,0.3513,0.3488,0.1331
-22.4,-0.9736,0.34919,0.34669,0.1317
-22.3,-0.9701,0.34709,0.34459,0.1303
-22.2,-0.9665,0.34499,0.34249,0.1289
-22.1,-0.9629,0.3429,0.3404,0.1275
-22,-0.9593,0.34083,0.33832,0.1261
-21.9,-0.9557,0.33875,0.33624,0.1247
-21.8,-0.9521,0.33669,0.33417,0.1234
-21.7,-0.9485,0.33463,0.3321,0.122
-21.6,-0.9449,0.33257,0.33004,0.1206
-21.5,-0.9413,0.33052,0.32799,0.1192
-21.4,-0.9376,0.32847,0.32594,0.1179
-21.3,-0.934,0.32643,0.32389,0.1165
-21.2,-0.9303,0.32439,0.32185,0.1152
-21.1,-0.9267,0.32236,0.31981,0.1139
-21,-0.923,0.32033,0.31779,0.1125
-20.9,-0.9194,0.31831,0.31576,0.1112
-20.8,-0.9157,0.31628,0.31373,0.1099
-20.7,-0.9121,0.31427,0.31171,0.1085
-20.6,-0.9084,0.31226,0.3097,0.1072
-20.5,-0.9047,0.31025,0.30769,0.1059
-20.4,-0.901,0.30824,0.30568,0.1046
-20.3,-0.8973,0.30624,0.30367,0.1033
-20.2,-0.8937,0.30424,0.30168,0.102
-20.1,-0.89,0.30226,0.29969,0.1007
-20,-0.8863,0.30027,0.2977,0.0994
-19.9,-0.8826,0.29829,0.29571,0.0981
-19.8,-0.8789,0.29631,0.29373,0.0968
-19.7,-0.8752,0.29433,0.29176,0.0955
-19.6,-0.8715,0.29236,0.28978,0.0942
-19.5,-0.8677,0.29038,0.2878,0.0929
-19.4,-0.864,0.28841,0.28582,0.0916
-19.3,-0.8603,0.28644,0.28385,0.0904
-19.2,-0.8565,0.28446,0.28188,0.0891
-19.1,-0.8528,0.28249,0.2799,0.0878
-19,-0.849,0.28052,0.27793,0.0865
-18.9,-0.8453,0.27854,0.27595,0.0852
-18.8,-0.8415,0.27656,0.27397,0.0839
-18.7,-0.8378,0.27457,0.27198,0.0826
-18.6,-0.8336,0.27248,0.26988,0.0806
-18.5,-0.8298,0.27037,0.26776,0.0794
-18.4,-0.8259,0.26824,0.26563,0.0781
-18.3,-0.822,0.2661,0.26348,0.0769
-18.2,-0.818,0.26393,0.26132,0.0757
-18.1,-0.814,0.26175,0.25913,0.0744
-18,-0.81,0.25957,0.25695,0.0732
-17.9,-0.8058,0.25733,0.25471,0.0719
-17.8,-0.8014,0.2551,0.25248,0.0705
-17.7,-0.7971,0.25292,0.2503,0.0691
-17.4,-0.7834,0.24647,0.24388,0.0646
-17.3,-0.7799,0.24447,0.24188,0.0636
-17.2,-0.7765,0.24248,0.23989,0.0627
-17.1,-0.773,0.24049,0.23789,0.0617
-17,-0.7696,0.23852,0.23592,0.0608
-16.9,-0.7662,0.23654,0.23395,0.0598
-16.8,-0.7628,0.23458,0.23198,0.0589
-16.7,-0.7594,0.23264,0.23004,0.058
-16.6,-0.756,0.2307,0.2281,0.0571
-16.5,-0.7526,0.22877,0.22617,0.0561
-16.4,-0.7493,0.22687,0.22426,0.0552
-16.3,-0.7458,0.22498,0.22237,0.0543
-16.2,-0.7425,0.22311,0.2205,0.0534
-16.1,-0.7391,0.22125,0.21864,0.0525
-16,-0.7357,0.21941,0.2168,0.0515
-15.9,-0.7322,0.21759,0.21498,0.0506
-15.8,-0.7288,0.21579,0.21318,0.0497
-15.7,-0.7254,0.21401,0.21139,0.0488
-15.6,-0.7219,0.21225,0.20963,0.0478
-15.5,-0.7185,0.2105,0.20789,0.0469
-15.4,-0.715,0.20876,0.20614,0.046
-15.3,-0.7116,0.20704,0.20441,0.0451
-15.2,-0.7081,0.20533,0.20271,0.0441
-15.1,-0.7046,0.20363,0.201,0.0432
-15,-0.7011,0.20194,0.19931,0.0423
-14.9,-0.6977,0.20025,0.19762,0.0414
-14.8,-0.6942,0.19858,0.19595,0.0404
-14.7,-0.6907,0.1969,0.19427,0.0395
-14.6,-0.6872,0.19524,0.19261,0.0386
-14.5,-0.6837,0.19356,0.19093,0.0377
-14.4,-0.6802,0.1919,0.18927,0.0367
-14.3,-0.6767,0.19024,0.18761,0.0358
-14.2,-0.6732,0.18858,0.18595,0.0349
-14.1,-0.6696,0.18691,0.18428,0.034
-14,-0.6661,0.18523,0.1826,0.033
-13.9,-0.6625,0.18356,0.18094,0.0321
-13.8,-0.659,0.18189,0.17926,0.0312
-13.7,-0.6554,0.18022,0.17759,0.0303
-13.6,-0.6519,0.17854,0.17591,0.0294
-13.5,-0.6483,0.17686,0.17424,0.0285
-13.4,-0.6448,0.17518,0.17256,0.0276
-13.3,-0.6412,0.17351,0.17088,0.0267
-13.2,-0.6377,0.17182,0.1692,0.0258
-13.1,-0.6341,0.17014,0.16751,0.0249
-13,-0.6306,0.16845,0.16582,0.024
-12.9,-0.627,0.16675,0.16413,0.0231
-12.8,-0.6235,0.16506,0.16243,0.0222
-12.7,-0.6199,0.16335,0.16073,0.0213
-12.6,-0.6164,0.16163,0.15901,0.0204
-12.5,-0.6128,0.1599,0.15728,0.0195
-12.4,-0.6092,0.15816,0.15554,0.0186
-12.3,-0.6056,0.1564,0.15379,0.0177
-12.2,-0.602,0.15464,0.15203,0.0168
-12.1,-0.5984,0.15285,0.15024,0.0159
-12,-0.5948,0.15105,0.14842,0.015
-11.9,-0.5912,0.1492,0.14658,0.0141
-11.8,-0.5875,0.14733,0.1447,0.0132
-11.6,-0.576,0.14098,0.13841,0.0081
-11.5,-0.5729,0.13931,0.13672,0.0074
-11.4,-0.5697,0.13766,0.13507,0.0068
-11.3,-0.5665,0.13601,0.13342,0.0062
-11.2,-0.5634,0.13438,0.1318,0.0056
-11.1,-0.5603,0.13276,0.13018,0.0049
-11,-0.5572,0.13116,0.12858,0.0043
-10.9,-0.5541,0.12958,0.127,0.0036
-10.8,-0.551,0.12802,0.12544,0.003
-10.7,-0.5479,0.12648,0.1239,0.0023
-10.6,-0.5447,0.12496,0.12238,0.0016
-10.5,-0.5416,0.12346,0.12089,0.001
-10.4,-0.5384,0.12197,0.11941,0.0003
-10.3,-0.5352,0.12051,0.11794,-0.0004
-10.2,-0.5321,0.11907,0.11651,-0.0011
-10.1,-0.5289,0.11765,0.11509,-0.0018
-10,-0.5256,0.11625,0.11369,-0.0025
-9.9,-0.5224,0.11486,0.11231,-0.0033
-9.8,-0.5192,0.11348,0.11094,-0.004
-9.7,-0.5159,0.11212,0.10958,-0.0047
-9.6,-0.5126,0.11077,0.10823,-0.0055
-9.5,-0.5094,0.10942,0.10689,-0.0062
-9.4,-0.5061,0.10808,0.10555,-0.0069
-9.3,-0.5029,0.10675,0.10423,-0.0077
-9.2,-0.4997,0.10543,0.10291,-0.0084
-9.1,-0.4966,0.1041,0.10159,-0.0091
-9,-0.4935,0.1028,0.10029,-0.0098
-8.9,-0.4904,0.10151,0.099,-0.0106
-8.8,-0.4875,0.10022,0.09772,-0.0112
-8.7,-0.4847,0.09894,0.09645,-0.0119
-8.6,-0.4821,0.09768,0.09519,-0.0125
-8.5,-0.4796,0.09643,0.09396,-0.0131
-8.4,-0.4775,0.09522,0.09275,-0.0137
-8.3,-0.4758,0.09404,0.09158,-0.0141
-8.2,-0.4746,0.0929,0.09046,-0.0144
-8.1,-0.4742,0.09184,0.08939,-0.0145
-8,-0.4748,0.09087,0.08843,-0.0144
-7.8,-0.4764,0.08893,0.08653,-0.0141
-7.7,-0.4768,0.08793,0.08554,-0.0141
-7.6,-0.4779,0.08699,0.08462,-0.0138
-7.5,-0.48,0.08613,0.08378,-0.0134
-7.4,-0.4722,0.08435,0.08199,-0.0157
-7.3,-0.463,0.08243,0.08006,-0.0184
-7.2,-0.4535,0.08047,0.07809,-0.0212
-7.1,-0.4435,0.07846,0.07607,-0.0242
-7,-0.4329,0.07639,0.07398,-0.0273
-6.9,-0.4229,0.07435,0.07193,-0.0302
-6.8,-0.4124,0.07224,0.0698,-0.0332
-6.7,-0.4006,0.06996,0.0675,-0.0366
-6.6,-0.3887,0.06765,0.06516,-0.0401
-6.5,-0.3761,0.06517,0.06266,-0.0438
-6.4,-0.3603,0.05983,0.05726,-0.0507
-6.3,-0.3471,0.05629,0.05367,-0.0552
-6.2,-0.3308,0.05126,0.04856,-0.0618
-6.1,-0.3151,0.04733,0.04457,-0.0671
-6,-0.3005,0.04476,0.04194,-0.0709
-5.9,-0.285,0.04217,0.03927,-0.0747
-5.8,-0.2679,0.03939,0.0364,-0.0788
-5.7,-0.2507,0.03635,0.03324,-0.0829
-5.6,-0.2339,0.03259,0.02931,-0.0871
-5.5,-0.2117,0.02204,0.01794,-0.0959
-5.4,-0.1986,0.02042,0.01609,-0.0971
-5.3,-0.1854,0.0192,0.01467,-0.098
-5.2,-0.1722,0.0182,0.01349,-0.0988
-5.1,-0.159,0.01734,0.01245,-0.0995
-5,-0.1456,0.01656,0.01152,-0.1001
-4.9,-0.1322,0.01587,0.01067,-0.1006
-4.7,-0.1047,0.01465,0.00917,-0.1017
-4.6,-0.0911,0.01413,0.0085,-0.1022
-4.5,-0.0774,0.01366,0.0079,-0.1026
-4.4,-0.0655,0.01328,0.00742,-0.1027
-4.3,-0.0537,0.01296,0.007,-0.1027
-4.2,-0.0413,0.01263,0.0066,-0.1028
-4.1,-0.0284,0.01222,0.00613,-0.1031
-4,-0.0152,0.01194,0.00581,-0.1034
-3.9,-0.0015,0.01169,0.00552,-0.1038
-3.8,0.0121,0.01147,0.00525,-0.1041
-3.7,0.0249,0.01126,0.00499,-0.1043
-3.6,0.0364,0.01107,0.00476,-0.1042
-3.5,0.0485,0.01089,0.00452,-0.1042
-3.4,0.061,0.01072,0.00429,-0.1043
-3.3,0.0739,0.01053,0.00407,-0.1045
-3.2,0.0867,0.01037,0.0039,-0.1047
-3.1,0.0999,0.01023,0.00373,-0.1049
-3,0.1118,0.01012,0.0036,-0.1049
-2.9,0.1232,0.01001,0.00346,-0.1048
-2.8,0.1351,0.00993,0.00343,-0.1048
-2.7,0.1475,0.00982,0.00329,-0.1049
-2.6,0.1601,0.00972,0.00317,-0.105
-2.5,0.1729,0.00961,0.00304,-0.1051
-2.4,0.1841,0.00955,0.00301,-0.1051
-2.3,0.1957,0.00947,0.00289,-0.105
-2.2,0.2078,0.00939,0.0028,-0.105
-2.1,0.22,0.00929,0.00271,-0.105
-2,0.2323,0.00923,0.00266,-0.1051
-1.9,0.2437,0.00917,0.00258,-0.105
-1.8,0.2552,0.00909,0.0025,-0.1048
-1.7,0.2671,0.00902,0.00242,-0.1047
-1.6,0.2785,0.00897,0.00236,-0.1046
-1.5,0.29,0.0089,0.00231,-0.1044
-1.4,0.3016,0.00885,0.00225,-0.1043
-1.3,0.3133,0.00881,0.00221,-0.1043
-1.2,0.3248,0.00876,0.00215,-0.1041
-1.1,0.3362,0.00872,0.00209,-0.104
-1,0.3479,0.00867,0.00207,-0.1039
-0.9,0.3593,0.00864,0.00202,-0.1038
-0.8,0.3708,0.00861,0.00198,-0.1036
-0.7,0.3824,0.00858,0.00195,-0.1036
-0.6,0.3941,0.00856,0.00193,-0.1035
-0.5,0.4053,0.00853,0.0019,-0.1033
-0.4,0.4168,0.00852,0.00188,-0.1032
-0.3,0.4282,0.0085,0.00184,-0.103
-0.2,0.4397,0.00848,0.00183,-0.103
-0.1,0.4511,0.00848,0.00181,-0.1028
0,0.4622,0.00847,0.00179,-0.1026
0.1,0.4737,0.00846,0.00178,-0.1025
0.2,0.4849,0.00847,0.00177,-0.1023
0.3,0.4964,0.00847,0.00176,-0.1022
0.4,0.5072,0.0085,0.00174,-0.102
0.5,0.518,0.00853,0.00173,-0.1017
0.6,0.5293,0.00855,0.00173,-0.1016
0.7,0.5402,0.00859,0.00173,-0.1013
0.8,0.5513,0.00862,0.00173,-0.1012
0.9,0.5616,0.00871,0.00174,-0.1008
1,0.5712,0.00887,0.00175,-0.1004
1.1,0.5818,0.0089,0.00179,-0.1002
1.2,0.5925,0.00893,0.00183,-0.1
1.5,0.616,0.00781,0.00198,-0.0976
1.6,0.6252,0.00812,0.00206,-0.0971
1.7,0.6355,0.00831,0.00212,-0.0969
1.8,0.6457,0.00851,0.0022,-0.0967
1.9,0.6558,0.00873,0.00228,-0.0964
2,0.6659,0.00897,0.00236,-0.0962
2.1,0.6747,0.00939,0.0025,-0.0958
2.2,0.685,0.00961,0.00259,-0.0956
2.3,0.6956,0.00979,0.00268,-0.0954
2.4,0.7063,0.00994,0.00277,-0.0953
2.5,0.7172,0.01008,0.00286,-0.0952
2.6,0.7282,0.01021,0.00293,-0.095
2.7,0.7391,0.01033,0.00304,-0.0949
2.8,0.7498,0.0105,0.00314,-0.0947
2.9,0.7609,0.0106,0.00321,-0.0946
3,0.7718,0.01072,0.00331,-0.0945
3.1,0.7829,0.01082,0.00338,-0.0944
3.2,0.794,0.01093,0.00346,-0.0942
3.3,0.805,0.01104,0.00356,-0.0941
3.4,0.8158,0.01118,0.00364,-0.0939
3.5,0.8268,0.01128,0.00373,-0.0938
3.6,0.8378,0.01138,0.00382,-0.0937
3.7,0.8488,0.0115,0.00391,-0.0935
3.8,0.8598,0.01161,0.00401,-0.0934
3.9,0.8705,0.01175,0.0041,-0.0932
4,0.8815,0.01186,0.00424,-0.093
4.1,0.8924,0.01197,0.00434,-0.0929
4.2,0.9033,0.01209,0.00444,-0.0927
4.3,0.9142,0.01222,0.00456,-0.0925
4.4,0.9251,0.01233,0.00466,-0.0924
4.5,0.9359,0.01245,0.00477,-0.0922
4.6,0.9466,0.0126,0.00489,-0.092
4.7,0.9574,0.01272,0.00501,-0.0918
4.8,0.968,0.01287,0.00513,-0.0916
4.9,0.9788,0.01299,0.00527,-0.0914
5,0.9896,0.01312,0.0054,-0.0912
5.1,1.0002,0.01326,0.00553,-0.091
5.2,1.0107,0.01343,0.00567,-0.0907
5.3,1.0214,0.01357,0.00583,-0.0905
5.4,1.0319,0.01373,0.00598,-0.0903
5.5,1.0424,0.01388,0.00615,-0.09
5.6,1.053,0.01402,0.0063,-0.0898
5.7,1.0635,0.01418,0.00646,-0.0895
5.8,1.0739,0.01436,0.00663,-0.0892
5.9,1.0843,0.01453,0.00681,-0.0889
6,1.0946,0.01469,0.00697,-0.0887
6.1,1.1049,0.01487,0.00715,-0.0884
6.2,1.115,0.01508,0.00735,-0.088
6.3,1.1254,0.01524,0.00755,-0.0877
6.4,1.1357,0.01542,0.00774,-0.0874
6.5,1.146,0.0156,0.00795,-0.0871
6.6,1.1561,0.0158,0.00818,-0.0867
6.7,1.166,0.01603,0.00841,-0.0864
6.8,1.1758,0.01625,0.00866,-0.086
6.9,1.186,0.01644,0.0089,-0.0856
7,1.196,0.01663,0.0091,-0.0853
7.1,1.2059,0.01686,0.00935,-0.0849
7.2,1.2156,0.0171,0.00961,-0.0844
7.3,1.2251,0.01737,0.0099,-0.084
7.4,1.2345,0.01764,0.0102,-0.0835
7.5,1.2443,0.01786,0.01048,-0.0831
7.6,1.2539,0.01811,0.01077,-0.0826
7.7,1.2634,0.01836,0.01108,-0.0821
7.8,1.2727,0.01863,0.01139,-0.0816
7.9,1.2819,0.01891,0.01174,-0.0811
8,1.2911,0.01919,0.01201,-0.0807
8.1,1.2993,0.01959,0.01244,-0.08
8.2,1.3094,0.01973,0.01263,-0.0797
8.3,1.3185,0.02002,0.01298,-0.0791
8.4,1.3274,0.02032,0.01333,-0.0786
8.5,1.3361,0.02064,0.01368,-0.078
8.6,1.3447,0.02097,0.01405,-0.0774
8.7,1.3528,0.02135,0.01447,-0.0767
8.8,1.3621,0.02157,0.01472,-0.0763
8.9,1.3704,0.02191,0.01513,-0.0756
9,1.3786,0.02226,0.01553,-0.075
9.1,1.3867,0.02261,0.01594,-0.0743
9.2,1.3945,0.02299,0.01636,-0.0736
9.3,1.4018,0.02341,0.01683,-0.0729
9.4,1.4089,0.02386,0.01736,-0.072
9.5,1.4158,0.0243,0.0179,-0.0712
9.6,1.4225,0.02477,0.01845,-0.0703
9.7,1.4289,0.02525,0.01901,-0.0694
9.8,1.435,0.02574,0.01958,-0.0685
9.9,1.4408,0.02624,0.02016,-0.0675
10,1.4463,0.02674,0.02074,-0.0665
10.1,1.4514,0.02727,0.02133,-0.0654
10.2,1.4558,0.02782,0.02196,-0.0643
10.3,1.459,0.02841,0.02262,-0.063
10.4,1.4605,0.02907,0.02336,-0.0615
10.5,1.4623,0.02972,0.02409,-0.06
10.6,1.4635,0.03042,0.02489,-0.0585
10.7,1.4643,0.03115,0.02574,-0.057
10.8,1.4646,0.03193,0.02662,-0.0555
10.9,1.4646,0.03274,0.02754,-0.054
11,1.4641,0.03359,0.02849,-0.0526
11.1,1.4632,0.03448,0.02948,-0.0512
11.2,1.4618,0.03542,0.03052,-0.0498
11.3,1.4602,0.0364,0.0316,-0.0486
11.4,1.458,0.03742,0.03272,-0.0473
11.5,1.4555,0.03848,0.03389,-0.0462
11.6,1.4525,0.03962,0.03512,-0.0451
11.7,1.4492,0.04081,0.03641,-0.0442
11.8,1.4454,0.04206,0.03776,-0.0433
11.9,1.4411,0.04339,0.03919,-0.0426
12,1.4364,0.0448,0.04069,-0.042
12.1,1.4313,0.04631,0.04229,-0.0416
12.2,1.4258,0.04791,0.04399,-0.0414
12.3,1.4197,0.04964,0.0458,-0.0414
12.4,1.4131,0.05149,0.04775,-0.0416
12.5,1.4064,0.05346,0.04981,-0.0421
12.6,1.399,0.05563,0.05207,-0.0429
12.7,1.3912,0.05799,0.05452,-0.0441
12.8,1.383,0.06057,0.05719,-0.0456
12.9,1.3742,0.06342,0.06013,-0.0476
13,1.365,0.06661,0.06341,-0.0502
13.1,1.3553,0.07019,0.06709,-0.0533
13.2,1.345,0.07428,0.07128,-0.0572
13.3,1.3341,0.07901,0.07612,-0.0619
13.4,1.3225,0.08452,0.08173,-0.0673
13.5,1.3104,0.09072,0.08804,-0.0732
13.7,1.286,0.10293,0.10041,-0.0838
13.8,1.2746,0.10839,0.10592,-0.0881
13.9,1.2637,0.11363,0.11121,-0.0922
14,1.2536,0.11867,0.11629,-0.096
14.1,1.244,0.12355,0.1212,-0.0996
14.2,1.2351,0.12832,0.126,-0.1031
14.3,1.227,0.13284,0.13054,-0.1064
14.4,1.2188,0.13745,0.13518,-0.1097
14.5,1.2114,0.14186,0.13961,-0.1128
14.6,1.2041,0.14627,0.14404,-0.1159
14.7,1.1973,0.15064,0.14844,-0.119
14.8,1.1908,0.15498,0.1528,-0.122
14.9,1.1843,0.15944,0.15727,-0.1251
15,1.1776,0.1642,0.16205,-0.1283
15.1,1.1711,0.16907,0.16694,-0.1315
15.2,1.1627,0.17525,0.17313,-0.1353
15.3,1.149,0.18508,0.18296,-0.1406
15.4,1.1413,0.19303,0.19091,-0.1445
15.5,1.1405,0.19699,0.19486,-0.1467
15.6,1.1411,0.19998,0.19786,-0.1485
15.7,1.1424,0.20255,0.20042,-0.1501
15.8,1.144,0.20485,0.20272,-0.1516
15.9,1.1459,0.20697,0.20484,-0.1531
16,1.148,0.20892,0.20679,-0.1545
16.1,1.1503,0.21083,0.2087,-0.1559
16.2,1.1526,0.2126,0.21047,-0.1573
16.3,1.155,0.21425,0.21213,-0.1586
16.4,1.1575,0.21586,0.21374,-0.1599
16.5,1.16,0.21742,0.2153,-0.1613
16.6,1.1627,0.21883,0.21672,-0.1626
16.7,1.1653,0.22029,0.21817,-0.1638
16.8,1.1679,0.2216,0.21951,-0.1651
16.9,1.1705,0.22287,0.22078,-0.1663
17,1.173,0.22403,0.22194,-0.1675
17.1,1.173,0.23687,0.23472,-0.1721
17.2,1.1758,0.23907,0.23692,-0.1736
17.3,1.1788,0.24114,0.239,-0.175
17.4,1.1817,0.24314,0.241,-0.1764
17.5,1.1847,0.24507,0.24293,-0.1778
17.6,1.1878,0.24694,0.2448,-0.1792
17.7,1.1908,0.24876,0.24664,-0.1806
17.8,1.1939,0.2505,0.24839,-0.1819
17.9,1.197,0.25228,0.25016,-0.1833
18,1.2001,0.2539,0.25179,-0.1847
18.1,1.2032,0.25558,0.25347,-0.186
18.2,1.2063,0.25717,0.25506,-0.1874
18.3,1.2094,0.25878,0.25668,-0.1887
18.4,1.2126,0.26035,0.25826,-0.19
18.5,1.2156,0.26185,0.25975,-0.1914
18.6,1.2188,0.26338,0.26129,-0.1927
18.7,1.2218,0.26488,0.26279,-0.194
18.8,1.2249,0.26642,0.26434,-0.1954
18.9,1.2278,0.26779,0.26571,-0.1966
19,1.2316,0.27262,0.27051,-0.1987
19.1,1.2359,0.27792,0.27582,-0.2008
19.2,1.2397,0.28131,0.27921,-0.2025
19.3,1.2433,0.28403,0.28193,-0.2041
19.4,1.247,0.28671,0.2846,-0.2056
19.5,1.2505,0.28908,0.28698,-0.2071
19.6,1.2541,0.29138,0.28928,-0.2086
19.7,1.2576,0.29362,0.29152,-0.2101
19.8,1.2612,0.29581,0.29372,-0.2116
19.9,1.2647,0.29794,0.29585,-0.2131
20,1.2682,0.30004,0.29795,-0.2146
20.1,1.2717,0.30211,0.30002,-0.2161
20.2,1.2752,0.30415,0.30207,-0.2176
20.3,1.2786,0.30615,0.30408,-0.2191
20.4,1.2821,0.30816,0.30609,-0.2206
20.5,1.2856,0.31015,0.30808,-0.222
20.6,1.289,0.31209,0.31002,-0.2235
20.7,1.2925,0.31404,0.31197,-0.225
20.8,1.2959,0.31598,0.31392,-0.2265
20.9,1.2994,0.31788,0.31583,-0.228
21,1.3028,0.31978,0.31773,-0.2295
21.1,1.3062,0.32169,0.31964,-0.231
21.2,1.3096,0.3236,0.32155,-0.2325
21.3,1.313,0.32551,0.32347,-0.234
21.4,1.3164,0.32734,0.32532,-0.2355
21.5,1.3198,0.32924,0.32723,-0.237
21.6,1.3231,0.33119,0.32918,-0.2385
21.7,1.3265,0.33302,0.33102,-0.2401
21.8,1.3298,0.33493,0.33293,-0.2416
21.9,1.3331,0.33676,0.33477,-0.2431
22,1.3365,0.33868,0.33669,-0.2446
22.1,1.3398,0.34057,0.33858,-0.2461
22.2,1.3431,0.3425,0.34051,-0.2477
22.3,1.3464,0.34437,0.34239,-0.2492
22.4,1.3497,0.34627,0.3443,-0.2507
22.5,1.353,0.34823,0.34626,-0.2522
22.6,1.3562,0.35013,0.34817,-0.2537
22.7,1.3594,0.3521,0.35014,-0.2553
22.8,1.3627,0.35409,0.35213,-0.2568
22.9,1.3659,0.35607,0.35412,-0.2583
23,1.3691,0.35806,0.35612,-0.2598
23.1,1.3723,0.36013,0.35819,-0.2614
23.2,1.3754,0.36217,0.36024,-0.2629
23.3,1.38,0.36601,0.36406,-0.2652
23.4,1.3843,0.36956,0.36761,-0.2673
23.6,1.3927,0.37632,0.37437,-0.2711
23.7,1.3966,0.37927,0.37732,-0.2729
23.8,1.4003,0.38201,0.38006,-0.2747
23.9,1.404,0.38471,0.38277,-0.2765
24,1.4075,0.38723,0.38529,-0.2782
24.1,1.4111,0.38972,0.38778,-0.28
24.2,1.4146,0.39217,0.39024,-0.2817
24.3,1.418,0.39456,0.39264,-0.2835
24.4,1.4215,0.39694,0.39502,-0.2852
24.5,1.4249,0.39929,0.39738,-0.287
24.6,1.4283,0.40159,0.39968,-0.2888
24.7,1.4316,0.40386,0.40195,-0.2905
24.8,1.4349,0.40611,0.40421,-0.2923
24.9,1.4382,0.40837,0.40649,-0.294
25,1.4415,0.41061,0.40873,-0.2958
25.1,1.4448,0.41282,0.41095,-0.2975
25.2,1.448,0.41503,0.41316,-0.2993
25.3,1.4512,0.41723,0.41536,-0.3011
25.4,1.4544,0.41939,0.41754,-0.3029
25.5,1.4576,0.42156,0.4197,-0.3047
25.6,1.4608,0.42374,0.42189,-0.3064
25.7,1.4639,0.4259,0.42405,-0.3082
25.8,1.467,0.42802,0.42619,-0.31
25.9,1.4701,0.43018,0.42835,-0.3118
26,1.4732,0.43234,0.43051,-0.3136
26.1,1.4762,0.43446,0.43264,-0.3154
26.2,1.4793,0.43663,0.43481,-0.3172
26.3,1.4823,0.43874,0.43693,-0.319
26.4,1.4853,0.44089,0.43909,-0.3208
26.5,1.4883,0.44304,0.44124,-0.3226
26.6,1.4913,0.4452,0.4434,-0.3244
26.7,1.4942,0.44728,0.44549,-0.3262
26.8,1.4972,0.44946,0.44768,-0.3281
26.9,1.5001,0.45156,0.44978,-0.3299
27,1.5029,0.45365,0.45188,-0.3317
27.1,1.5058,0.45587,0.4541,-0.3336
27.2,1.5087,0.45796,0.4562,-0.3354
27.3,1.5115,0.46016,0.4584,-0.3372
27.4,1.5143,0.46233,0.46058,-0.339
27.5,1.5172,0.46457,0.46283,-0.3409
27.6,1.5199,0.4667,0.46496,-0.3427
27.7,1.5227,0.46892,0.46719,-0.3446
27.8,1.5255,0.47121,0.46949,-0.3464
27.9,1.5282,0.47344,0.47174,-0.3483
28,1.5309,0.47572,0.47402,-0.3501
28.1,1.5336,0.47803,0.47634,-0.352
28.2,1.5363,0.48032,0.47864,-0.3538
28.3,1.539,0.48266,0.48098,-0.3557
28.4,1.5417,0.48506,0.48339,-0.3575
28.5,1.5443,0.48742,0.48575,-0.3594
28.6,1.5469,0.48984,0.48819,-0.3612
28.7,1.5495,0.49231,0.49065,-0.3631
28.8,1.5522,0.49477,0.49313,-0.365
28.9,1.5548,0.49727,0.49563,-0.3668
29,1.5573,0.49986,0.49822,-0.3687
29.1,1.5599,0.5024,0.50077,-0.3705
29.2,1.5625,0.50501,0.50339,-0.3724
29.3,1.565,0.50765,0.50604,-0.3743
29.4,1.5675,0.51034,0.50873,-0.3761
29.5,1.5701,0.513,0.5114,-0.378
29.6,1.5725,0.51572,0.51413,-0.3799
29.7,1.575,0.51852,0.51694,-0.3817
29.8,1.5775,0.52118,0.5196,-0.3836
29.9,1.58,0.52399,0.52241,-0.3855
30,1.5824,0.52686,0.52529,-0.3873

