airfoilName st25.dat
Re 	570000
M 	2.500000e-01
N 	4.500000e+00
VACC 	0 VACCflag 1
XTR 	1.00 	1.00 XTRflag 0
alpha,cl,cd,cdp,cm
-30,-1.1964,0.51874,0.517,0.2581
-29.9,-1.1935,0.51605,0.51431,0.2564
-29.8,-1.1906,0.51327,0.51153,0.2546
-29.7,-1.1878,0.5105,0.50875,0.2529
-29.6,-1.1849,0.50792,0.50616,0.2511
-29.5,-1.182,0.50514,0.50338,0.2494
-29.4,-1.1791,0.50245,0.50068,0.2477
-29.3,-1.1761,0.49984,0.49807,0.2459
-29.2,-1.1732,0.49718,0.4954,0.2442
-29.1,-1.1702,0.4945,0.49272,0.2425
-29,-1.1672,0.49187,0.49009,0.2408
-28.9,-1.1642,0.48928,0.48749,0.239
-28.8,-1.1612,0.48674,0.48495,0.2373
-28.7,-1.1582,0.48414,0.48234,0.2356
-28.6,-1.1552,0.48154,0.47974,0.2339
-28.5,-1.1522,0.47898,0.47718,0.2322
-28.4,-1.1491,0.47646,0.47465,0.2305
-28.3,-1.1461,0.47395,0.47214,0.2288
-28.2,-1.143,0.47149,0.46967,0.2271
-28.1,-1.1399,0.46904,0.46722,0.2254
-28,-1.1368,0.46658,0.46476,0.2238
-27.9,-1.1337,0.46419,0.46237,0.2221
-27.8,-1.1306,0.46178,0.45995,0.2204
-27.7,-1.1275,0.45939,0.45755,0.2187
-27.6,-1.1244,0.45701,0.45518,0.217
-27.5,-1.1212,0.45468,0.45285,0.2154
-27.4,-1.1181,0.45236,0.45052,0.2137
-27.3,-1.1149,0.45004,0.44819,0.212
-27.2,-1.1117,0.44777,0.44591,0.2103
-27.1,-1.1085,0.44548,0.44363,0.2087
-27,-1.1054,0.44323,0.44137,0.207
-26.9,-1.1022,0.44099,0.43913,0.2054
-26.8,-1.0989,0.43875,0.43688,0.2037
-26.7,-1.0957,0.43655,0.43467,0.2021
-26.6,-1.0925,0.43435,0.43247,0.2004
-26.5,-1.0892,0.43215,0.43027,0.1988
-26.4,-1.086,0.42996,0.42808,0.1971
-26.3,-1.0827,0.42782,0.42593,0.1955
-26.2,-1.0794,0.42566,0.42377,0.1939
-26.1,-1.0761,0.42349,0.4216,0.1922
-26,-1.0728,0.42135,0.41946,0.1906
-25.9,-1.0695,0.41923,0.41733,0.189
-25.8,-1.0662,0.41711,0.41521,0.1874
-25.7,-1.0629,0.41498,0.41308,0.1858
-25.6,-1.0596,0.41289,0.41098,0.1841
-25.5,-1.0562,0.41077,0.40886,0.1825
-25.4,-1.0528,0.40867,0.40676,0.1809
-25.3,-1.0495,0.40656,0.40464,0.1793
-25.2,-1.0461,0.40447,0.40256,0.1778
-25.1,-1.0427,0.40239,0.40047,0.1762
-25,-1.0393,0.40029,0.39837,0.1746
-24.9,-1.0359,0.39822,0.39629,0.173
-24.8,-1.0325,0.39611,0.39419,0.1715
-24.7,-1.0291,0.39404,0.39211,0.1699
-24.6,-1.0256,0.39196,0.39003,0.1683
-24.5,-1.0222,0.3899,0.38795,0.1668
-24.4,-1.0187,0.38782,0.38587,0.1652
-24.3,-1.0153,0.38577,0.38382,0.1637
-24.2,-1.0118,0.3837,0.38175,0.1621
-24.1,-1.0083,0.38165,0.37969,0.1606
-24,-1.0048,0.3796,0.37765,0.159
-23.9,-1.0014,0.37754,0.37558,0.1575
-23.8,-0.9979,0.37551,0.37355,0.156
-23.7,-0.9944,0.37349,0.37152,0.1544
-23.6,-0.9909,0.37142,0.36946,0.1529
-23.5,-0.9873,0.36938,0.36741,0.1514
-23.4,-0.9838,0.36737,0.3654,0.1499
-23.3,-0.9803,0.36533,0.36336,0.1483
-23.2,-0.9768,0.36331,0.36133,0.1468
-23.1,-0.9733,0.36127,0.3593,0.1453
-23,-0.9697,0.35925,0.35727,0.1438
-22.9,-0.9662,0.35722,0.35524,0.1422
-22.8,-0.9626,0.35516,0.35318,0.1408
-22.7,-0.959,0.35313,0.35115,0.1392
-22.6,-0.9555,0.35109,0.3491,0.1377
-22.5,-0.9519,0.34904,0.34705,0.1362
-22.4,-0.9483,0.34697,0.34498,0.1347
-22.3,-0.9447,0.3449,0.34291,0.1332
-22.2,-0.9411,0.34281,0.34082,0.1317
-22.1,-0.9375,0.34065,0.33866,0.1296
-22,-0.9338,0.33844,0.33645,0.1281
-21.9,-0.93,0.33619,0.33419,0.1266
-21.8,-0.9262,0.33389,0.33189,0.1251
-21.7,-0.9224,0.33165,0.32965,0.1237
-21.6,-0.9185,0.32932,0.32732,0.1222
-21.5,-0.9146,0.32705,0.32505,0.1206
-21.4,-0.9106,0.32477,0.32276,0.1191
-21.3,-0.9067,0.32257,0.32056,0.1174
-20.9,-0.8909,0.31404,0.31204,0.1111
-20.8,-0.8873,0.31186,0.30985,0.1099
-20.7,-0.8837,0.30966,0.30766,0.1087
-20.6,-0.88,0.30748,0.30548,0.1075
-20.5,-0.8764,0.30531,0.30331,0.1064
-20.4,-0.8728,0.30316,0.30115,0.1052
-20.3,-0.8691,0.301,0.29899,0.104
-20.2,-0.8655,0.29885,0.29684,0.1029
-20.1,-0.8619,0.29673,0.29471,0.1018
-20,-0.8583,0.29462,0.2926,0.1006
-19.9,-0.8547,0.29254,0.29052,0.0995
-19.8,-0.8511,0.29048,0.28846,0.0983
-19.7,-0.8475,0.28845,0.28643,0.0972
-19.6,-0.8439,0.28646,0.28443,0.0961
-19.5,-0.8404,0.28449,0.28246,0.0949
-19.4,-0.8368,0.28255,0.28052,0.0938
-19.3,-0.8332,0.28063,0.2786,0.0926
-19.2,-0.8296,0.27875,0.27672,0.0915
-19.1,-0.8261,0.27687,0.27484,0.0903
-19,-0.8225,0.27502,0.27299,0.0892
-18.9,-0.8189,0.27319,0.27116,0.0881
-18.8,-0.8154,0.27136,0.26932,0.0869
-18.7,-0.8118,0.26954,0.26751,0.0858
-18.6,-0.8083,0.26773,0.26569,0.0847
-18.5,-0.8047,0.26592,0.26388,0.0835
-18.4,-0.8011,0.26413,0.26208,0.0824
-18.3,-0.7976,0.26234,0.26028,0.0813
-18.2,-0.794,0.26055,0.2585,0.0801
-18.1,-0.7905,0.25876,0.2567,0.079
-18,-0.7869,0.25696,0.25491,0.0779
-17.9,-0.7834,0.25518,0.25312,0.0768
-17.8,-0.7798,0.25338,0.25132,0.0756
-17.7,-0.7762,0.25157,0.24951,0.0745
-17.6,-0.7727,0.24978,0.24772,0.0734
-17.5,-0.7691,0.24796,0.2459,0.0723
-17.4,-0.7655,0.24616,0.2441,0.0712
-17.3,-0.7619,0.24434,0.24228,0.0701
-17.2,-0.7584,0.24252,0.24046,0.069
-17.1,-0.7548,0.2407,0.23864,0.0679
-17,-0.7513,0.23888,0.23681,0.0668
-16.9,-0.7477,0.23704,0.23498,0.0657
-16.8,-0.7442,0.2352,0.23314,0.0646
-16.7,-0.7406,0.23336,0.23129,0.0635
-16.6,-0.7371,0.23151,0.22944,0.0625
-16.5,-0.7336,0.22965,0.22758,0.0614
-16.4,-0.73,0.22779,0.22572,0.0603
-16.3,-0.7265,0.22592,0.22385,0.0593
-16.2,-0.723,0.22404,0.22197,0.0582
-16.1,-0.7195,0.22215,0.22008,0.0572
-16,-0.716,0.22025,0.21818,0.0561
-15.9,-0.7125,0.21834,0.21626,0.0551
-15.8,-0.7091,0.21641,0.21434,0.054
-15.7,-0.7056,0.21446,0.21238,0.053
-15.6,-0.7021,0.21248,0.21041,0.0519
-15.5,-0.6986,0.21048,0.20841,0.0509
-15.4,-0.695,0.20842,0.20635,0.0499
-15.3,-0.6915,0.20629,0.20421,0.0488
-15.2,-0.6879,0.2041,0.20203,0.0478
-15.1,-0.6841,0.20175,0.19966,0.0466
-15,-0.6773,0.1969,0.19486,0.0431
-14.9,-0.6741,0.19506,0.19302,0.0423
-14.8,-0.6709,0.19323,0.19117,0.0415
-14.7,-0.6678,0.19139,0.18933,0.0408
-14.6,-0.6646,0.18956,0.1875,0.0401
-14.5,-0.6615,0.18775,0.18569,0.0393
-14.4,-0.6585,0.18594,0.18388,0.0386
-14.3,-0.6555,0.18415,0.18209,0.0378
-14.2,-0.6525,0.18238,0.18032,0.0371
-14.1,-0.6495,0.18064,0.17858,0.0363
-14,-0.6465,0.17892,0.17685,0.0355
-13.9,-0.6435,0.17722,0.17515,0.0348
-13.8,-0.6406,0.17555,0.17348,0.034
-13.7,-0.6375,0.17389,0.17182,0.0332
-13.6,-0.6345,0.17225,0.17019,0.0324
-13.5,-0.6314,0.17062,0.16856,0.0316
-13.4,-0.6283,0.16901,0.16695,0.0308
-13.3,-0.6253,0.16742,0.16536,0.03
-13.2,-0.6222,0.16582,0.16376,0.0292
-13.1,-0.6191,0.16422,0.16216,0.0284
-13,-0.6159,0.16263,0.16057,0.0275
-12.9,-0.6128,0.16104,0.15898,0.0267
-12.8,-0.6097,0.15946,0.1574,0.0259
-12.7,-0.6065,0.15787,0.15581,0.0251
-12.6,-0.6034,0.15628,0.15423,0.0242
-12.5,-0.6003,0.1547,0.15265,0.0234
-12.4,-0.5972,0.15312,0.15106,0.0226
-12.3,-0.594,0.15153,0.14948,0.0218
-12.2,-0.5909,0.14994,0.14789,0.0209
-12.1,-0.5879,0.14835,0.1463,0.0201
-12,-0.5848,0.14676,0.14471,0.0193
-11.9,-0.5817,0.14517,0.14312,0.0184
-11.8,-0.5786,0.14357,0.14152,0.0176
-11.7,-0.5755,0.14196,0.13992,0.0168
-11.6,-0.5724,0.14035,0.13829,0.0159
-11.5,-0.5693,0.13874,0.13668,0.0151
-11.4,-0.5662,0.13712,0.13507,0.0142
-11.3,-0.5632,0.1355,0.13345,0.0134
-11.2,-0.5601,0.13388,0.13183,0.0125
-11.1,-0.5571,0.13226,0.13021,0.0117
-11,-0.5541,0.13063,0.12859,0.0109
-10.9,-0.5511,0.129,0.12696,0.01
-10.8,-0.5482,0.12737,0.12533,0.0091
-10.7,-0.5452,0.12573,0.12369,0.0083
-10.6,-0.5422,0.12408,0.12205,0.0074
-10.5,-0.5393,0.12244,0.1204,0.0066
-10.4,-0.5364,0.12078,0.11875,0.0057
-10.3,-0.5335,0.11913,0.1171,0.0048
-10.2,-0.5306,0.11747,0.11544,0.0039
-10.1,-0.5278,0.1158,0.11377,0.003
-10,-0.525,0.11413,0.1121,0.0021
-9.9,-0.5223,0.11244,0.11042,0.0012
-9.8,-0.52,0.11009,0.10808,0
-9.7,-0.5174,0.10833,0.10632,-0.001
-9.6,-0.5148,0.10662,0.10461,-0.0019
-9.5,-0.5124,0.10484,0.10284,-0.0028
-9.4,-0.51,0.10306,0.10105,-0.0038
-9.3,-0.5076,0.10124,0.09924,-0.0048
-9.2,-0.5054,0.09943,0.09743,-0.0058
-9.1,-0.5033,0.09756,0.09557,-0.0068
-9,-0.5013,0.09571,0.09373,-0.0079
-8.9,-0.4995,0.09375,0.09176,-0.009
-8.8,-0.4978,0.09182,0.08984,-0.0101
-8.7,-0.4964,0.08978,0.08781,-0.0113
-8.6,-0.4953,0.08772,0.08575,-0.0125
-8.5,-0.4944,0.08564,0.08367,-0.0137
-8.4,-0.494,0.08349,0.08152,-0.015
-8.3,-0.4941,0.08136,0.0794,-0.0162
-8.2,-0.495,0.07916,0.07721,-0.0175
-8.1,-0.4972,0.07692,0.07497,-0.0187
-8,-0.499,0.07485,0.07293,-0.02
-7.9,-0.4989,0.07306,0.07114,-0.0215
-7.8,-0.4995,0.0713,0.06938,-0.0228
-6.8,-0.4314,0.0242,0.02085,-0.0737
-6.7,-0.4207,0.02232,0.01874,-0.0748
-6.6,-0.4093,0.02091,0.01713,-0.0755
-6.5,-0.3977,0.01977,0.01581,-0.0761
-6.4,-0.3857,0.01877,0.01465,-0.0767
-6.3,-0.3734,0.01791,0.01364,-0.0772
-6.2,-0.3609,0.01714,0.01273,-0.0776
-6.1,-0.3482,0.01644,0.01189,-0.078
-6,-0.3353,0.0158,0.01113,-0.0784
-5.9,-0.3223,0.01523,0.01043,-0.0788
-5.8,-0.3109,0.01474,0.00984,-0.0788
-5.7,-0.2989,0.01428,0.00928,-0.0789
-5.6,-0.2866,0.01385,0.00875,-0.0791
-5.5,-0.2738,0.01345,0.00825,-0.0793
-5.4,-0.2606,0.01308,0.00779,-0.0796
-5.3,-0.2476,0.01275,0.00739,-0.0798
-5.2,-0.2357,0.01248,0.00705,-0.0798
-5.1,-0.2238,0.01223,0.00673,-0.0798
-5,-0.2115,0.01203,0.00647,-0.0798
-4.9,-0.199,0.01173,0.00612,-0.0799
-4.8,-0.1864,0.01136,0.00569,-0.0801
-4.7,-0.1747,0.01111,0.00541,-0.08
-4.6,-0.163,0.0109,0.00516,-0.08
-4.5,-0.1511,0.01072,0.00495,-0.0799
-4.4,-0.1389,0.01056,0.00474,-0.08
-4.3,-0.1268,0.0104,0.00455,-0.0799
-4.2,-0.115,0.01025,0.00437,-0.0799
-4.1,-0.1035,0.01022,0.00434,-0.0798
-4,-0.0915,0.01007,0.00415,-0.0797
-3.9,-0.0797,0.00995,0.00398,-0.0796
-3.8,-0.0679,0.00977,0.00378,-0.0796
-3.7,-0.0563,0.0096,0.00359,-0.0795
-3.6,-0.0444,0.00947,0.00344,-0.0794
-3.5,-0.0328,0.00937,0.00331,-0.0793
-3.4,-0.021,0.00927,0.00319,-0.0792
-3.3,-0.0092,0.00917,0.00307,-0.0792
-3.2,0.0025,0.00909,0.00295,-0.0791
-3.1,0.0142,0.009,0.00284,-0.079
-3,0.0258,0.00891,0.00274,-0.0789
-2.9,0.0376,0.00883,0.00266,-0.0788
-2.8,0.0494,0.00877,0.00258,-0.0788
-2.7,0.0611,0.00871,0.0025,-0.0787
-2.6,0.0724,0.00864,0.00241,-0.0785
-2.5,0.0838,0.00858,0.00234,-0.0783
-2.4,0.0952,0.00854,0.00227,-0.0782
-2.3,0.1064,0.00848,0.00221,-0.078
-2.2,0.1182,0.00843,0.00216,-0.078
-2.1,0.1295,0.00838,0.00209,-0.0778
-2,0.1413,0.00833,0.00204,-0.0778
-1.9,0.1524,0.00832,0.00198,-0.0775
-1.8,0.164,0.00828,0.00193,-0.0774
-1.7,0.1756,0.00825,0.00189,-0.0774
-1.6,0.1872,0.0082,0.00185,-0.0773
-1.5,0.1985,0.0082,0.00181,-0.0772
-1.4,0.2102,0.00817,0.00177,-0.0771
-1.3,0.2219,0.00815,0.00174,-0.0771
-1.2,0.2333,0.00815,0.00172,-0.077
-1.1,0.245,0.00811,0.00169,-0.077
-1,0.2563,0.00812,0.00166,-0.0768
-0.9,0.2677,0.00813,0.00164,-0.0767
-0.8,0.2791,0.00814,0.00161,-0.0766
-0.7,0.2907,0.00813,0.0016,-0.0766
-0.6,0.3023,0.00813,0.00159,-0.0765
-0.5,0.3133,0.00819,0.00158,-0.0764
-0.4,0.3242,0.00826,0.00157,-0.0762
-0.3,0.3357,0.00829,0.00156,-0.0761
-0.2,0.347,0.0083,0.00157,-0.0761
-0.1,0.3578,0.00841,0.00158,-0.0759
0,0.3693,0.00845,0.00158,-0.0759
0.1,0.3807,0.00849,0.00159,-0.0758
0.2,0.3921,0.0085,0.00161,-0.0758
0.3,0.4035,0.00854,0.00162,-0.0758
0.4,0.4143,0.00865,0.00164,-0.0757
0.5,0.4257,0.00868,0.00167,-0.0757
0.6,0.437,0.00864,0.0017,-0.0757
0.7,0.4484,0.00865,0.00173,-0.0757
0.8,0.4597,0.00865,0.00177,-0.0757
0.9,0.471,0.00865,0.0018,-0.0757
1.3,0.5074,0.00767,0.00195,-0.0736
1.4,0.5185,0.00781,0.00199,-0.0735
1.5,0.5297,0.00795,0.00204,-0.0734
1.6,0.5408,0.00809,0.00209,-0.0734
1.7,0.5512,0.00833,0.00217,-0.0732
1.8,0.5625,0.00845,0.00222,-0.0732
1.9,0.5738,0.00856,0.00227,-0.0731
2,0.5851,0.00866,0.00233,-0.0731
2.1,0.5966,0.00875,0.00238,-0.073
2.2,0.6079,0.00884,0.00243,-0.073
2.3,0.6191,0.00897,0.0025,-0.0729
2.4,0.6306,0.00905,0.00256,-0.0729
2.5,0.6421,0.00912,0.00261,-0.0729
2.6,0.6534,0.00922,0.00266,-0.0728
2.7,0.6649,0.00929,0.00272,-0.0728
2.8,0.6764,0.00937,0.00278,-0.0727
2.9,0.6877,0.00946,0.00284,-0.0727
3,0.6991,0.00956,0.0029,-0.0726
3.1,0.7104,0.00965,0.00296,-0.0725
3.2,0.7219,0.00973,0.00303,-0.0725
3.3,0.7333,0.0098,0.00309,-0.0724
3.4,0.7447,0.00989,0.00315,-0.0724
3.5,0.756,0.00998,0.00324,-0.0723
3.6,0.7673,0.01008,0.00331,-0.0722
3.7,0.7786,0.01017,0.00338,-0.0721
3.8,0.7899,0.01027,0.00346,-0.072
3.9,0.8013,0.01035,0.00353,-0.072
4,0.8126,0.01043,0.0036,-0.0719
4.1,0.8239,0.01054,0.00368,-0.0718
4.2,0.8352,0.01063,0.00377,-0.0717
4.3,0.8465,0.01071,0.00385,-0.0716
4.4,0.8575,0.01085,0.00393,-0.0715
4.5,0.8688,0.01094,0.00403,-0.0714
4.6,0.88,0.01103,0.00411,-0.0713
4.7,0.8912,0.01113,0.0042,-0.0712
4.8,0.9023,0.01125,0.00432,-0.0711
4.9,0.9135,0.01135,0.00442,-0.0709
5,0.9247,0.01145,0.00452,-0.0708
5.1,0.9356,0.01159,0.00462,-0.0707
5.2,0.9466,0.01171,0.00474,-0.0705
5.3,0.9578,0.01181,0.00484,-0.0704
5.4,0.9689,0.01192,0.00495,-0.0702
5.5,0.9799,0.01204,0.00506,-0.0701
5.6,0.9907,0.01219,0.0052,-0.0699
5.7,1.0018,0.01229,0.00531,-0.0698
5.8,1.0126,0.01243,0.00543,-0.0696
5.9,1.0235,0.01257,0.00557,-0.0694
6,1.0342,0.01272,0.00572,-0.0692
6.1,1.0452,0.01283,0.00585,-0.069
6.2,1.0561,0.01296,0.00598,-0.0688
6.3,1.0669,0.01309,0.00612,-0.0686
6.4,1.0776,0.01324,0.00627,-0.0684
6.5,1.0882,0.01341,0.00644,-0.0682
6.6,1.099,0.01354,0.00658,-0.0679
6.7,1.1098,0.01368,0.00673,-0.0677
6.8,1.1203,0.01384,0.00688,-0.0675
6.9,1.1308,0.01402,0.00705,-0.0672
7,1.1411,0.0142,0.00724,-0.0669
7.1,1.1518,0.01434,0.00742,-0.0667
7.2,1.1624,0.01449,0.0076,-0.0664
7.3,1.1729,0.01465,0.00777,-0.0661
7.4,1.1833,0.01482,0.00796,-0.0658
7.5,1.1935,0.01501,0.00815,-0.0655
7.6,1.2036,0.01521,0.00836,-0.0652
7.7,1.2137,0.01542,0.00859,-0.0648
7.8,1.2241,0.01558,0.00877,-0.0645
7.9,1.2343,0.01576,0.00897,-0.0642
8,1.2444,0.01595,0.00919,-0.0638
8.1,1.2544,0.01614,0.00941,-0.0635
8.2,1.2643,0.01636,0.00964,-0.0631
8.3,1.274,0.01659,0.00989,-0.0627
8.4,1.2835,0.01684,0.01018,-0.0622
8.5,1.2931,0.01707,0.01044,-0.0618
8.6,1.3029,0.01727,0.01068,-0.0614
8.7,1.3126,0.01749,0.01094,-0.0609
8.8,1.3222,0.01771,0.01121,-0.0605
8.9,1.3316,0.01795,0.01148,-0.06
9,1.3411,0.01817,0.0117,-0.0596
9.1,1.3502,0.01843,0.01199,-0.0591
9.2,1.3587,0.01875,0.0123,-0.0585
9.3,1.3677,0.01901,0.01261,-0.058
9.4,1.3768,0.01925,0.0129,-0.0574
9.6,1.3948,0.01974,0.01346,-0.0564
9.7,1.4034,0.02002,0.01378,-0.0558
9.8,1.4118,0.02031,0.0141,-0.0551
9.9,1.42,0.02061,0.01445,-0.0545
10,1.4279,0.02094,0.01481,-0.0538
10.1,1.4352,0.02131,0.01522,-0.0531
10.2,1.4432,0.0216,0.01557,-0.0524
10.3,1.4509,0.0219,0.01593,-0.0516
10.4,1.4583,0.02222,0.0163,-0.0509
10.5,1.4654,0.02255,0.01668,-0.05
10.6,1.4723,0.02289,0.01706,-0.0492
10.7,1.4788,0.02325,0.01746,-0.0483
10.8,1.4849,0.02362,0.01787,-0.0474
10.9,1.4904,0.02404,0.01832,-0.0464
11,1.495,0.02443,0.01877,-0.0452
11.1,1.4992,0.02482,0.01922,-0.044
11.2,1.5032,0.02524,0.0197,-0.0427
11.3,1.5085,0.02557,0.02004,-0.0417
11.4,1.5122,0.02602,0.02054,-0.0405
11.5,1.5154,0.02651,0.02107,-0.0393
11.6,1.5182,0.02704,0.02166,-0.0381
11.7,1.521,0.02757,0.02225,-0.0368
11.8,1.5235,0.02812,0.02287,-0.0356
11.9,1.5255,0.02872,0.02355,-0.0344
12,1.5273,0.02934,0.02424,-0.0333
12.1,1.5287,0.02999,0.02496,-0.0321
12.2,1.5297,0.03068,0.02572,-0.031
12.3,1.5304,0.03141,0.02653,-0.0299
12.4,1.5307,0.03219,0.02737,-0.0288
12.5,1.5305,0.03301,0.02826,-0.0278
12.6,1.5299,0.03388,0.0292,-0.0268
12.7,1.5288,0.03481,0.0302,-0.0259
12.8,1.5272,0.03581,0.03127,-0.0251
12.9,1.5251,0.03688,0.03241,-0.0243
13,1.5223,0.03803,0.03364,-0.0237
13.1,1.5189,0.03927,0.03495,-0.0231
13.2,1.5149,0.04061,0.03636,-0.0227
13.3,1.5105,0.04205,0.03788,-0.0224
13.4,1.5056,0.04359,0.03951,-0.0223
13.5,1.5,0.04527,0.04127,-0.0224
13.6,1.4939,0.04708,0.04316,-0.0227
13.7,1.487,0.04905,0.04521,-0.0232
13.8,1.4795,0.0512,0.04745,-0.0241
13.9,1.4713,0.05357,0.0499,-0.0252
14,1.4625,0.05617,0.05259,-0.0267
14.1,1.4529,0.05907,0.05557,-0.0286
14.2,1.4426,0.06223,0.05882,-0.0309
14.4,1.4183,0.06985,0.06662,-0.037
14.5,1.4044,0.07443,0.07129,-0.0409
14.6,1.3889,0.07969,0.07667,-0.0455
14.7,1.3717,0.08568,0.08277,-0.0507
14.8,1.3521,0.09254,0.08975,-0.0564
14.9,1.3317,0.09958,0.0969,-0.062
15,1.3114,0.10639,0.10379,-0.0671
15.1,1.2928,0.11268,0.11016,-0.0718
15.2,1.2759,0.11859,0.11611,-0.076
15.3,1.2604,0.12414,0.12172,-0.08
15.4,1.2461,0.12945,0.12707,-0.0837
15.5,1.233,0.13439,0.13206,-0.0872
15.6,1.2206,0.1392,0.13691,-0.0906
15.7,1.2085,0.14403,0.14177,-0.094
15.8,1.1987,0.1482,0.14597,-0.097
15.9,1.1905,0.15199,0.1498,-0.0997
16,1.1822,0.15585,0.1537,-0.1025
16.3,1.1629,0.16592,0.16391,-0.1098
16.5,0.8196,0.13748,0.1356,-0.0669
16.6,0.8142,0.14025,0.13841,-0.069
16.7,0.8086,0.14316,0.14136,-0.0712
16.8,0.8009,0.14691,0.14515,-0.0738
16.9,0.7883,0.15256,0.15085,-0.0774
17,0.7703,0.16083,0.15916,-0.082
17.1,0.7682,0.16328,0.16161,-0.0836
17.2,0.7685,0.16471,0.16306,-0.0846
17.3,0.7696,0.16585,0.1642,-0.0856
17.4,0.771,0.16684,0.16519,-0.0865
17.5,0.773,0.16752,0.16588,-0.0872
17.6,0.7756,0.16795,0.1663,-0.0879
17.7,0.7787,0.16816,0.16651,-0.0885
17.8,0.7821,0.16817,0.16652,-0.0889
18.3,0.7664,0.18578,0.18417,-0.098
18.4,0.7682,0.18666,0.18506,-0.0988
18.5,0.7701,0.18745,0.18585,-0.0996
18.6,0.7721,0.1882,0.18661,-0.1004
18.7,0.7741,0.18887,0.18729,-0.1012
18.8,0.7764,0.18937,0.18779,-0.102
19.5,0.779,0.20409,0.20253,-0.1101
19.6,0.7809,0.20494,0.20338,-0.1109
19.7,0.7829,0.20566,0.2041,-0.1118
19.8,0.7848,0.20642,0.20486,-0.1126
20.4,0.7891,0.22013,0.21858,-0.119
20.5,0.7908,0.22129,0.21974,-0.1199
20.6,0.7925,0.22238,0.22084,-0.1208
20.7,0.7942,0.22344,0.2219,-0.1217
20.8,0.796,0.22448,0.22294,-0.1225
20.9,0.7977,0.22546,0.22394,-0.1234
21,0.7995,0.22648,0.22496,-0.1243
21.1,0.8012,0.22736,0.22585,-0.1251
21.2,0.8029,0.22831,0.2268,-0.126
21.3,0.8046,0.22923,0.22773,-0.1268
21.4,0.8063,0.23002,0.22851,-0.1277
21.5,0.8079,0.23082,0.22932,-0.1285
21.6,0.8073,0.23747,0.23596,-0.13
21.7,0.8087,0.2397,0.23819,-0.131
21.8,0.8102,0.2416,0.24009,-0.1319
21.9,0.8117,0.24329,0.24179,-0.1328
22,0.8133,0.24487,0.24337,-0.1337
22.1,0.8149,0.24637,0.24487,-0.1347
22.2,0.8165,0.24782,0.24633,-0.1356
22.3,0.8181,0.24924,0.24775,-0.1365
22.4,0.8197,0.25059,0.24911,-0.1374
22.5,0.8213,0.25196,0.25048,-0.1383
22.6,0.8229,0.25328,0.2518,-0.1392
22.7,0.8245,0.25456,0.25309,-0.1401
22.8,0.8261,0.25585,0.25438,-0.141
22.9,0.8277,0.25712,0.25565,-0.1419
23,0.8293,0.25837,0.2569,-0.1428
23.1,0.8309,0.25964,0.25818,-0.1437
23.3,0.8339,0.26141,0.25996,-0.1456
23.4,0.8355,0.26259,0.26115,-0.1465
23.5,0.837,0.26371,0.26226,-0.1474
23.6,0.8385,0.26487,0.26343,-0.1483
23.7,0.84,0.26597,0.26454,-0.1492
23.8,0.8415,0.26713,0.2657,-0.1501
23.9,0.843,0.26829,0.26687,-0.1509
24,0.8445,0.26944,0.26802,-0.1518
24.1,0.8459,0.2706,0.26919,-0.1527
24.2,0.8473,0.2718,0.2704,-0.1536
24.3,0.8486,0.27305,0.27165,-0.1544
24.4,0.85,0.27527,0.27386,-0.1555
24.5,0.8514,0.2794,0.278,-0.1567
24.6,0.8529,0.28236,0.28095,-0.1578
24.7,0.8543,0.28479,0.28339,-0.1588
24.8,0.8558,0.28668,0.28528,-0.1598
24.9,0.8572,0.2885,0.28711,-0.1607
25,0.8586,0.2902,0.28881,-0.1617
25.1,0.8601,0.29185,0.29046,-0.1627
25.2,0.8615,0.29341,0.29203,-0.1636
25.3,0.8629,0.29495,0.29357,-0.1646
25.4,0.8642,0.29645,0.29507,-0.1656
25.5,0.8656,0.29793,0.29656,-0.1665
25.6,0.867,0.29937,0.298,-0.1675
25.7,0.8683,0.30081,0.29945,-0.1685
25.8,0.8696,0.30222,0.30086,-0.1694
25.9,0.871,0.30362,0.30227,-0.1704
26,0.8723,0.305,0.30365,-0.1713
26.1,0.8736,0.30638,0.30503,-0.1723
26.2,0.8749,0.30774,0.3064,-0.1733
26.3,0.8761,0.3091,0.30776,-0.1742
26.4,0.8774,0.31045,0.30912,-0.1752
26.5,0.8786,0.31179,0.31046,-0.1762
26.6,0.8799,0.31314,0.31182,-0.1771
26.7,0.8811,0.31446,0.31314,-0.1781
26.8,0.8823,0.31577,0.31445,-0.1791
26.9,0.8835,0.31709,0.31577,-0.1801
27,0.8847,0.31841,0.3171,-0.181
27.1,0.8859,0.31976,0.31846,-0.182
27.2,0.887,0.32102,0.31972,-0.183
27.3,0.8882,0.32233,0.32104,-0.1839
27.4,0.8893,0.32369,0.3224,-0.1849
27.5,0.8904,0.325,0.32372,-0.1859
27.6,0.8915,0.32636,0.32509,-0.1869
27.7,0.8926,0.32768,0.32642,-0.1878
27.8,0.8937,0.32905,0.32779,-0.1888
27.9,0.8948,0.33039,0.32914,-0.1898
28,0.8958,0.33177,0.33051,-0.1907
28.1,0.8969,0.33317,0.33193,-0.1917
28.2,0.8979,0.33459,0.33335,-0.1927
28.3,0.8989,0.33601,0.33477,-0.1936
28.4,0.8999,0.33748,0.33625,-0.1946
28.5,0.9009,0.33897,0.33774,-0.1955
28.6,0.9019,0.34047,0.33925,-0.1965
28.7,0.9029,0.342,0.34078,-0.1974
28.8,0.9038,0.34358,0.34236,-0.1984
28.9,0.9048,0.34516,0.34395,-0.1993
29,0.9057,0.34679,0.34559,-0.2003
29.1,0.9068,0.34895,0.34773,-0.2015
29.2,0.908,0.35149,0.35027,-0.2028
29.3,0.9092,0.35399,0.35277,-0.204
29.4,0.9103,0.35619,0.35498,-0.2051
29.5,0.9113,0.35808,0.35688,-0.2062
29.6,0.9123,0.35986,0.35865,-0.2072
29.7,0.9132,0.36156,0.36036,-0.2083
29.8,0.9141,0.3632,0.362,-0.2093
29.9,0.915,0.36477,0.36358,-0.2104
30,0.9159,0.36633,0.36515,-0.2114

