airfoilName st25.dat
Re 	850000
M 	2.500000e-01
N 	4.500000e+00
VACC 	0 VACCflag 1
XTR 	1.00 	1.00 XTRflag 0
alpha,cl,cd,cdp,cm
-30,-1.1984,0.50883,0.50745,0.2637
-29.9,-1.1955,0.50678,0.50539,0.2617
-29.8,-1.1926,0.50497,0.50358,0.2597
-29.7,-1.1897,0.50304,0.50165,0.2576
-29.6,-1.1868,0.50089,0.49949,0.2557
-29.5,-1.1838,0.499,0.4976,0.2536
-29.4,-1.1809,0.49703,0.49563,0.2515
-29.3,-1.1778,0.49485,0.49345,0.2496
-29.2,-1.1745,0.49425,0.49285,0.2467
-29.1,-1.1714,0.49256,0.49116,0.2445
-29,-1.1683,0.49082,0.48942,0.2424
-28.5,-1.1532,0.48459,0.48319,0.2309
-28.4,-1.1501,0.48189,0.48049,0.2293
-28.3,-1.147,0.47921,0.47781,0.2276
-28.2,-1.1439,0.47655,0.47515,0.2259
-28.1,-1.1408,0.47391,0.4725,0.2243
-28,-1.1377,0.47115,0.46975,0.2227
-27.9,-1.1345,0.46863,0.46722,0.221
-27.8,-1.1314,0.46585,0.46443,0.2194
-27.7,-1.1282,0.46303,0.46162,0.2178
-27.6,-1.125,0.46029,0.45887,0.2162
-27.5,-1.1218,0.45767,0.45625,0.2146
-27.4,-1.1185,0.45497,0.45354,0.213
-27.3,-1.1152,0.45199,0.45056,0.2115
-27.2,-1.112,0.44952,0.44809,0.2098
-27.1,-1.1087,0.44656,0.44512,0.2083
-27,-1.1054,0.44381,0.44236,0.2067
-26.9,-1.1021,0.44101,0.43957,0.2052
-26.8,-1.0988,0.43834,0.43689,0.2036
-26.7,-1.0955,0.43559,0.43414,0.2021
-26.6,-1.0922,0.43279,0.43133,0.2006
-26.5,-1.0889,0.43019,0.42873,0.199
-26.4,-1.0856,0.42772,0.42626,0.1975
-26.3,-1.0822,0.42516,0.42369,0.1959
-26.2,-1.0789,0.4227,0.42123,0.1944
-26.1,-1.0756,0.42036,0.41889,0.1928
-26,-1.0723,0.41798,0.4165,0.1912
-25.9,-1.069,0.41569,0.41421,0.1897
-25.8,-1.0657,0.41341,0.41192,0.1881
-25.7,-1.0623,0.41119,0.40971,0.1865
-25.6,-1.059,0.40902,0.40753,0.185
-25.5,-1.0557,0.40685,0.40536,0.1834
-25.4,-1.0523,0.40472,0.40323,0.1819
-25.3,-1.049,0.4026,0.40111,0.1803
-25.2,-1.0456,0.40051,0.39901,0.1788
-25.1,-1.0423,0.39845,0.39695,0.1772
-25,-1.0389,0.39638,0.39488,0.1756
-24.9,-1.0355,0.39435,0.39284,0.1741
-24.8,-1.0321,0.39228,0.39078,0.1725
-24.7,-1.0287,0.39028,0.38877,0.171
-24.6,-1.0253,0.38825,0.38673,0.1695
-24.5,-1.0219,0.38625,0.38472,0.1679
-24.4,-1.0185,0.38423,0.38271,0.1664
-24.3,-1.0151,0.38225,0.38072,0.1649
-24.2,-1.0116,0.38024,0.37871,0.1633
-24.1,-1.0082,0.37826,0.37673,0.1618
-24,-1.0047,0.37628,0.37475,0.1603
-23.9,-1.0013,0.37428,0.37275,0.1588
-23.8,-0.9978,0.37232,0.37078,0.1573
-23.7,-0.9943,0.37036,0.36882,0.1558
-23.6,-0.9908,0.36835,0.36681,0.1543
-23.5,-0.9873,0.36637,0.36482,0.1528
-23.4,-0.9838,0.36442,0.36287,0.1513
-23.3,-0.9803,0.36245,0.3609,0.1498
-23.2,-0.9768,0.36048,0.35893,0.1483
-23.1,-0.9733,0.35851,0.35696,0.1468
-23,-0.9698,0.35655,0.35499,0.1454
-22.9,-0.9662,0.35458,0.35303,0.1439
-22.8,-0.9627,0.35259,0.35103,0.1424
-22.7,-0.9591,0.35064,0.34908,0.141
-22.6,-0.9555,0.34867,0.34711,0.1395
-22.5,-0.952,0.3467,0.34513,0.1381
-22.4,-0.9484,0.34472,0.34316,0.1366
-22.3,-0.9448,0.34274,0.34118,0.1352
-22.2,-0.9412,0.34077,0.3392,0.1338
-22.1,-0.9376,0.33879,0.33722,0.1323
-22,-0.9339,0.33681,0.33524,0.1309
-21.9,-0.9303,0.33485,0.33328,0.1295
-21.8,-0.9267,0.33288,0.3313,0.1281
-21.7,-0.9231,0.33089,0.3293,0.1267
-21.6,-0.9195,0.32892,0.32733,0.1253
-21.5,-0.9158,0.32695,0.32536,0.1239
-21.4,-0.9122,0.32496,0.32337,0.1225
-21.3,-0.9085,0.32298,0.32139,0.1211
-21.2,-0.9052,0.32123,0.31964,0.1195
-21.1,-0.9015,0.31921,0.31761,0.1181
-21,-0.8978,0.31719,0.3156,0.1168
-20.9,-0.8942,0.31517,0.31358,0.1154
-20.8,-0.8905,0.31315,0.31156,0.114
-20.7,-0.8868,0.31112,0.30952,0.1127
-20.6,-0.8831,0.3091,0.3075,0.1114
-20.5,-0.8794,0.30706,0.30546,0.11
-20.4,-0.8757,0.30503,0.30343,0.1087
-20.3,-0.8721,0.30299,0.30138,0.1074
-20.2,-0.8684,0.30093,0.29932,0.1061
-20.1,-0.8647,0.29886,0.29726,0.1048
-20,-0.861,0.29677,0.29517,0.1034
-19.9,-0.8573,0.29466,0.29306,0.1021
-19.8,-0.8535,0.29253,0.29093,0.1008
-19.7,-0.8497,0.29027,0.28866,0.0995
-19.6,-0.846,0.28806,0.28646,0.0982
-19.5,-0.8421,0.28567,0.28406,0.0968
-19.4,-0.8381,0.28324,0.28163,0.0954
-19.3,-0.8341,0.28078,0.27917,0.0939
-19.2,-0.8301,0.27851,0.2769,0.0924
-19.1,-0.8262,0.27648,0.27487,0.0909
-19,-0.8223,0.27454,0.27293,0.0894
-18.8,-0.8148,0.27044,0.26885,0.0867
-18.7,-0.8113,0.26817,0.26657,0.0857
-18.6,-0.8078,0.26591,0.26432,0.0848
-18.5,-0.8044,0.26371,0.26211,0.0839
-18.4,-0.801,0.26159,0.25999,0.0829
-18.3,-0.7976,0.25962,0.25801,0.0819
-18.2,-0.7941,0.25774,0.25612,0.0809
-18.1,-0.7907,0.2559,0.25428,0.0798
-18,-0.7872,0.2541,0.25248,0.0787
-17.9,-0.7837,0.25233,0.25072,0.0777
-17.8,-0.7802,0.25058,0.24896,0.0766
-17.7,-0.7767,0.24884,0.24722,0.0755
-17.6,-0.7732,0.24711,0.24549,0.0745
-17.5,-0.7697,0.24537,0.24375,0.0734
-17.4,-0.7662,0.24365,0.24203,0.0723
-17.3,-0.7627,0.24193,0.2403,0.0712
-17.2,-0.7592,0.24021,0.23859,0.0702
-17.1,-0.7557,0.23849,0.23686,0.0691
-17,-0.7522,0.23677,0.23515,0.068
-16.9,-0.7487,0.23505,0.23343,0.067
-16.8,-0.7452,0.23332,0.23169,0.0659
-16.7,-0.7417,0.23158,0.22996,0.0648
-16.6,-0.7382,0.22986,0.22823,0.0638
-16.5,-0.7347,0.22811,0.22649,0.0627
-16.4,-0.7313,0.22637,0.22474,0.0617
-16.3,-0.7278,0.22461,0.22298,0.0607
-16.2,-0.7243,0.22286,0.22123,0.0596
-16.1,-0.7209,0.2211,0.21947,0.0586
-16,-0.7174,0.21934,0.21771,0.0576
-15.9,-0.714,0.21757,0.21594,0.0565
-15.8,-0.7106,0.2158,0.21417,0.0555
-15.7,-0.7071,0.21402,0.21239,0.0545
-15.6,-0.7037,0.21224,0.21061,0.0535
-15.5,-0.7003,0.21045,0.20882,0.0525
-15.4,-0.6969,0.20866,0.20703,0.0515
-15.3,-0.6936,0.20686,0.20522,0.0505
-15.2,-0.6902,0.20506,0.20342,0.0495
-15.1,-0.6868,0.20325,0.2016,0.0485
-15,-0.6834,0.20142,0.19978,0.0475
-14.9,-0.68,0.19958,0.19794,0.0465
-14.8,-0.6766,0.19773,0.19609,0.0455
-14.7,-0.6732,0.19587,0.19423,0.0446
-14.6,-0.6698,0.19399,0.19235,0.0436
-14.5,-0.6664,0.19211,0.19047,0.0426
-14.4,-0.6631,0.1902,0.18855,0.0416
-14.3,-0.6597,0.18824,0.18659,0.0407
-14.2,-0.656,0.18489,0.18325,0.0392
-14.1,-0.6525,0.18259,0.18095,0.0382
-14,-0.6488,0.18021,0.17857,0.0371
-13.9,-0.645,0.17789,0.17625,0.0359
-13.8,-0.6412,0.1757,0.17405,0.0347
-13.7,-0.6374,0.1736,0.17196,0.0334
-13.5,-0.6302,0.16936,0.16774,0.0309
-13.4,-0.6275,0.16754,0.16592,0.0303
-13.3,-0.6251,0.16568,0.16406,0.0297
-13.2,-0.6226,0.16386,0.16224,0.0291
-13.1,-0.6201,0.16205,0.16042,0.0285
-13,-0.6175,0.16029,0.15867,0.0278
-12.9,-0.6148,0.15859,0.15697,0.0271
-12.8,-0.6121,0.15694,0.15531,0.0263
-12.7,-0.6092,0.15531,0.15368,0.0255
-12.6,-0.6063,0.15371,0.15208,0.0248
-12.5,-0.6034,0.15213,0.15051,0.024
-12.4,-0.6005,0.15056,0.14894,0.0232
-12.3,-0.5975,0.149,0.14738,0.0224
-12.2,-0.5945,0.14744,0.14582,0.0215
-12.1,-0.5916,0.1459,0.14428,0.0207
-12,-0.5886,0.14435,0.14273,0.0199
-11.9,-0.5856,0.1428,0.14118,0.0191
-11.8,-0.5826,0.14125,0.13963,0.0183
-11.7,-0.5795,0.13969,0.13808,0.0174
-11.6,-0.5765,0.13814,0.13652,0.0166
-11.5,-0.5734,0.13658,0.13497,0.0157
-11.4,-0.5704,0.13502,0.1334,0.0149
-11.3,-0.5674,0.13348,0.13185,0.0141
-11.2,-0.5644,0.13192,0.1303,0.0132
-11.1,-0.5614,0.13036,0.12874,0.0124
-11,-0.5584,0.12881,0.12719,0.0115
-10.9,-0.5554,0.12724,0.12563,0.0107
-10.8,-0.5524,0.12569,0.12408,0.0098
-10.7,-0.5494,0.12412,0.12251,0.0089
-10.6,-0.5465,0.12255,0.12094,0.0081
-10.5,-0.5435,0.12098,0.11937,0.0072
-10.4,-0.5406,0.11941,0.1178,0.0063
-10.3,-0.5377,0.11783,0.11623,0.0055
-10.2,-0.5348,0.11626,0.11466,0.0046
-10.1,-0.532,0.11469,0.11309,0.0037
-10,-0.5291,0.1131,0.11151,0.0028
-9.9,-0.5263,0.11152,0.10992,0.0019
-9.8,-0.5235,0.10993,0.10834,0.001
-9.7,-0.5207,0.10834,0.10675,0.0001
-9.6,-0.518,0.10674,0.10516,-0.0009
-9.5,-0.5153,0.10515,0.10357,-0.0018
-9.4,-0.5127,0.10354,0.10197,-0.0027
-9.3,-0.51,0.10193,0.10036,-0.0037
-9.2,-0.5075,0.10022,0.09865,-0.0048
-9.1,-0.505,0.09859,0.09702,-0.0057
-9,-0.5026,0.09696,0.09539,-0.0067
-8.9,-0.5003,0.09531,0.09375,-0.0077
-8.8,-0.4981,0.09366,0.0921,-0.0087
-8.7,-0.4961,0.09201,0.09045,-0.0097
-8.6,-0.4941,0.09034,0.08879,-0.0108
-8.5,-0.4924,0.08868,0.08713,-0.0118
-8.4,-0.4909,0.08702,0.08547,-0.0128
-8.3,-0.4898,0.08536,0.08382,-0.0138
-8.2,-0.4891,0.08372,0.08218,-0.0148
-8.1,-0.4892,0.08212,0.08058,-0.0157
-8,-0.49,0.08054,0.07901,-0.0165
-7.9,-0.49,0.07889,0.07736,-0.0176
-7.8,-0.4895,0.07707,0.07554,-0.019
-7.7,-0.4902,0.07538,0.07385,-0.0201
-7.6,-0.4838,0.07262,0.07109,-0.0237
-7.5,-0.4762,0.06948,0.06793,-0.0281
-7.4,-0.4679,0.06581,0.06423,-0.0332
-7.3,-0.46,0.06124,0.05961,-0.0392
-7.2,-0.4536,0.05306,0.05133,-0.049
-7.1,-0.4536,0.02451,0.02164,-0.075
-7,-0.4424,0.02293,0.01986,-0.0761
-6.9,-0.4323,0.02096,0.01766,-0.0772
-6.8,-0.4231,0.01831,0.01467,-0.0784
-6.7,-0.412,0.01683,0.01297,-0.079
-6.6,-0.4007,0.01588,0.01187,-0.0793
-6.5,-0.3897,0.01514,0.01101,-0.0794
-6.4,-0.3781,0.01454,0.0103,-0.0795
-6.3,-0.3663,0.01402,0.00968,-0.0796
-6.2,-0.3543,0.01357,0.00914,-0.0797
-6.1,-0.3421,0.01316,0.00865,-0.0799
-6,-0.3297,0.01279,0.00821,-0.08
-5.9,-0.3178,0.01246,0.00782,-0.08
-5.8,-0.3063,0.01217,0.00746,-0.0799
-5.7,-0.2946,0.01189,0.00712,-0.0798
-5.6,-0.2827,0.01162,0.00678,-0.0798
-5.5,-0.2709,0.01137,0.00646,-0.0797
-5.4,-0.2594,0.01114,0.00618,-0.0796
-5.3,-0.2478,0.01092,0.00591,-0.0795
-5.2,-0.2361,0.01071,0.00565,-0.0794
-5.1,-0.2244,0.01051,0.0054,-0.0793
-5,-0.2128,0.01032,0.00516,-0.0792
-4.9,-0.2012,0.01014,0.00494,-0.079
-4.8,-0.1894,0.00998,0.00474,-0.079
-4.7,-0.1778,0.00983,0.00453,-0.0788
-4.6,-0.1663,0.00968,0.00435,-0.0787
-4.5,-0.1545,0.00955,0.00418,-0.0786
-4.4,-0.1428,0.00944,0.00404,-0.0785
-4.3,-0.1311,0.00935,0.00389,-0.0784
-4.2,-0.1194,0.00912,0.00364,-0.0783
-4.1,-0.1077,0.00897,0.00345,-0.0782
-4,-0.0958,0.00885,0.00331,-0.0782
-3.9,-0.0843,0.00875,0.00318,-0.078
-3.8,-0.0726,0.00866,0.00306,-0.0779
-3.7,-0.0608,0.00857,0.00295,-0.0778
-3.6,-0.049,0.00852,0.0029,-0.0778
-3.5,-0.0372,0.00844,0.00278,-0.0777
-3.4,-0.0256,0.00836,0.00267,-0.0776
-3.3,-0.0137,0.00826,0.00256,-0.0776
-3.2,-0.0018,0.00818,0.00246,-0.0776
-3.1,0.0097,0.00812,0.00237,-0.0774
-3,0.0217,0.00806,0.0023,-0.0774
-2.9,0.0329,0.00803,0.00222,-0.0772
-2.8,0.0445,0.00798,0.00214,-0.0771
-2.7,0.0559,0.00794,0.00207,-0.0769
-2.6,0.0678,0.0079,0.00201,-0.0769
-2.5,0.0793,0.00788,0.00195,-0.0768
-2.4,0.0911,0.00783,0.00189,-0.0768
-2.3,0.1028,0.0078,0.00184,-0.0767
-2.2,0.1142,0.00779,0.00179,-0.0766
-2.1,0.1259,0.00777,0.00173,-0.0765
-2,0.1375,0.00775,0.00169,-0.0765
-1.9,0.1489,0.00772,0.00165,-0.0764
-1.8,0.1607,0.00769,0.00162,-0.0764
-1.7,0.1725,0.00768,0.00159,-0.0763
-1.6,0.1841,0.00768,0.00155,-0.0763
-1.5,0.1959,0.00766,0.00152,-0.0763
-1.4,0.2073,0.00769,0.0015,-0.0762
-1.3,0.219,0.00766,0.00148,-0.0762
-1.2,0.2308,0.00766,0.00146,-0.0762
-1.1,0.242,0.00771,0.00143,-0.0761
-1,0.2536,0.00773,0.00142,-0.076
-0.9,0.2647,0.00781,0.0014,-0.0759
-0.8,0.2763,0.00782,0.00139,-0.0759
-0.7,0.2879,0.00784,0.00139,-0.0759
-0.6,0.2993,0.0079,0.0014,-0.0758
-0.5,0.3107,0.00796,0.0014,-0.0758
-0.4,0.3218,0.00805,0.00142,-0.0758
-0.3,0.3335,0.00808,0.00142,-0.0758
-0.2,0.3451,0.00811,0.00143,-0.0758
-0.1,0.3567,0.00815,0.00144,-0.0758
0,0.3683,0.00819,0.00145,-0.0758
0.1,0.3793,0.00829,0.00148,-0.0757
0.2,0.3909,0.00833,0.0015,-0.0757
0.3,0.4024,0.00838,0.00151,-0.0757
0.4,0.414,0.0084,0.00153,-0.0757
0.5,0.4255,0.00846,0.00155,-0.0757
0.6,0.4369,0.00851,0.00158,-0.0757
0.7,0.4484,0.00857,0.0016,-0.0757
0.8,0.4593,0.00872,0.00165,-0.0757
0.9,0.4706,0.00873,0.00169,-0.0757
1,0.4819,0.00878,0.00173,-0.0757
1.1,0.4932,0.00884,0.00179,-0.0758
1.2,0.5045,0.00888,0.00184,-0.0758
1.3,0.5154,0.00891,0.00192,-0.0758
1.4,0.5268,0.00889,0.00196,-0.0759
1.5,0.5383,0.00885,0.00201,-0.0759
1.7,0.5529,0.00781,0.00209,-0.0739
1.8,0.5651,0.00786,0.00211,-0.074
1.9,0.5766,0.00793,0.00214,-0.074
2,0.5881,0.00803,0.00219,-0.0739
2.1,0.5996,0.00811,0.00223,-0.0739
2.2,0.6112,0.00817,0.00228,-0.0739
2.3,0.6228,0.00824,0.00233,-0.0739
2.4,0.6344,0.00831,0.00237,-0.0738
2.5,0.646,0.00838,0.00242,-0.0738
2.6,0.6576,0.00844,0.00246,-0.0738
2.7,0.6689,0.00854,0.00251,-0.0737
2.8,0.6805,0.00861,0.00256,-0.0737
2.9,0.6921,0.00867,0.0026,-0.0737
3,0.7036,0.00875,0.00265,-0.0737
3.1,0.7152,0.00882,0.00271,-0.0736
3.2,0.7267,0.00889,0.00276,-0.0736
3.3,0.738,0.009,0.00283,-0.0735
3.4,0.7495,0.00907,0.00288,-0.0735
3.5,0.7611,0.00914,0.00295,-0.0734
3.6,0.7725,0.00921,0.00301,-0.0734
3.7,0.7839,0.0093,0.00308,-0.0733
3.8,0.7955,0.00937,0.00314,-0.0733
3.9,0.8069,0.00945,0.0032,-0.0732
4,0.8184,0.00953,0.00327,-0.0731
4.1,0.8296,0.00964,0.00335,-0.0731
4.2,0.841,0.00972,0.00342,-0.073
4.3,0.8524,0.00981,0.00349,-0.0729
4.4,0.8637,0.00991,0.00356,-0.0728
4.5,0.8751,0.00999,0.00365,-0.0727
4.6,0.8865,0.01008,0.00372,-0.0727
4.7,0.8976,0.0102,0.00382,-0.0725
4.8,0.9088,0.0103,0.00392,-0.0724
4.9,0.9202,0.01039,0.004,-0.0723
5,0.9315,0.01048,0.00409,-0.0722
5.1,0.9427,0.01058,0.00418,-0.0721
5.2,0.9538,0.0107,0.00427,-0.072
5.3,0.9651,0.01079,0.00438,-0.0719
5.4,0.9762,0.01091,0.00447,-0.0717
5.5,0.9873,0.01103,0.00457,-0.0716
5.6,0.9983,0.01115,0.00468,-0.0715
5.7,1.0096,0.01125,0.00479,-0.0713
5.8,1.0207,0.01135,0.0049,-0.0712
5.9,1.0318,0.01147,0.00502,-0.071
6,1.0428,0.01159,0.00514,-0.0709
6.1,1.0537,0.01173,0.00526,-0.0707
6.2,1.0648,0.01184,0.00539,-0.0705
6.3,1.0759,0.01195,0.00551,-0.0703
6.4,1.0867,0.0121,0.00563,-0.0702
6.5,1.0975,0.01224,0.00577,-0.0699
6.6,1.1083,0.01239,0.00591,-0.0697
6.7,1.1193,0.01251,0.00605,-0.0695
6.8,1.1302,0.01263,0.00618,-0.0693
6.9,1.141,0.01276,0.00632,-0.0691
7,1.1518,0.0129,0.00647,-0.0689
7.1,1.1625,0.01306,0.00663,-0.0686
7.2,1.1729,0.01325,0.00681,-0.0684
7.3,1.1837,0.01338,0.00696,-0.0681
7.4,1.1944,0.01352,0.00712,-0.0679
7.5,1.2051,0.01366,0.00728,-0.0676
7.6,1.2156,0.01382,0.00744,-0.0673
7.7,1.2261,0.01399,0.00762,-0.067
7.8,1.2365,0.01416,0.0078,-0.0667
7.9,1.2468,0.01435,0.008,-0.0664
8,1.2571,0.01453,0.0082,-0.0661
8.1,1.2676,0.01468,0.00838,-0.0658
8.2,1.278,0.01485,0.00857,-0.0655
8.3,1.2882,0.01503,0.00877,-0.0651
8.4,1.2984,0.01521,0.00897,-0.0648
8.5,1.3085,0.01541,0.00918,-0.0644
8.6,1.3184,0.01561,0.0094,-0.064
8.7,1.3279,0.01587,0.00966,-0.0635
8.8,1.338,0.01605,0.00988,-0.0632
8.9,1.3481,0.01623,0.01009,-0.0628
9,1.358,0.01643,0.01032,-0.0624
9.1,1.3678,0.01663,0.01055,-0.0619
9.2,1.3775,0.01684,0.01079,-0.0615
9.3,1.387,0.01707,0.01102,-0.061
9.4,1.3964,0.01731,0.01128,-0.0605
9.5,1.4055,0.01756,0.01156,-0.06
9.6,1.4145,0.01784,0.01187,-0.0594
9.7,1.4238,0.01806,0.01213,-0.0589
9.8,1.4331,0.01829,0.0124,-0.0584
9.9,1.4423,0.01853,0.01268,-0.0579
10,1.4512,0.01877,0.01296,-0.0573
10.1,1.46,0.01904,0.01325,-0.0567
10.2,1.4685,0.01931,0.01355,-0.0561
10.3,1.4764,0.01963,0.01387,-0.0554
10.4,1.4848,0.01991,0.01418,-0.0548
10.5,1.493,0.02019,0.01451,-0.0541
10.6,1.501,0.02049,0.01484,-0.0534
10.7,1.5085,0.02081,0.01518,-0.0526
10.8,1.5156,0.02115,0.01556,-0.0518
10.9,1.5226,0.02149,0.01595,-0.051
11,1.5295,0.02182,0.01632,-0.0501
11.1,1.5361,0.02217,0.0167,-0.0492
11.2,1.5423,0.02253,0.0171,-0.0482
11.3,1.5481,0.0229,0.01752,-0.0472
11.4,1.553,0.02329,0.01796,-0.046
11.5,1.5567,0.02371,0.01842,-0.0447
11.6,1.5602,0.02413,0.01891,-0.0434
11.7,1.5635,0.02458,0.01941,-0.042
11.8,1.5667,0.02504,0.01993,-0.0407
11.9,1.5696,0.02553,0.02048,-0.0393
12,1.5723,0.02604,0.02105,-0.038
12.1,1.5747,0.02659,0.02165,-0.0367
12.2,1.5768,0.02716,0.02229,-0.0355
12.3,1.5785,0.02776,0.02295,-0.0342
12.4,1.5799,0.02839,0.02365,-0.033
12.5,1.5809,0.02906,0.02439,-0.0317
12.6,1.5815,0.02977,0.02516,-0.0305
12.7,1.5817,0.03052,0.02598,-0.0294
12.8,1.5814,0.03133,0.02686,-0.0283
12.9,1.5807,0.03217,0.02777,-0.0272
13,1.5795,0.03307,0.02874,-0.0262
13.1,1.5779,0.03404,0.02978,-0.0252
13.2,1.5758,0.03507,0.03088,-0.0243
13.3,1.5731,0.03619,0.03207,-0.0236
13.4,1.5697,0.03738,0.03334,-0.0229
13.5,1.5658,0.03866,0.03469,-0.0223
13.6,1.5615,0.04002,0.03612,-0.0219
13.7,1.5566,0.04151,0.03769,-0.0216
13.8,1.551,0.04312,0.03938,-0.0216
13.9,1.5448,0.04488,0.04121,-0.0217
14,1.5379,0.04677,0.04318,-0.022
14.1,1.5306,0.0488,0.04529,-0.0226
14.2,1.5227,0.05102,0.04759,-0.0235
14.3,1.514,0.05348,0.05013,-0.0247
14.4,1.5044,0.05621,0.05294,-0.0263
14.5,1.4942,0.05921,0.05602,-0.0284
14.6,1.4829,0.06255,0.05945,-0.0308
14.7,1.4708,0.06626,0.06324,-0.0337
14.8,1.4572,0.07051,0.06758,-0.0373
14.9,1.4425,0.0753,0.07247,-0.0414
15,1.4254,0.08101,0.07828,-0.0464
15.1,1.4055,0.08776,0.08514,-0.0522
15.2,1.3819,0.09575,0.09326,-0.0588
15.3,1.3569,0.10382,0.10144,-0.065
15.4,1.3326,0.11149,0.1092,-0.0707
15.5,1.3118,0.11825,0.11602,-0.0755
15.6,1.2929,0.12459,0.12242,-0.08
15.7,1.2754,0.13062,0.1285,-0.0843
15.8,1.2595,0.13626,0.1342,-0.0882
15.9,1.2455,0.14145,0.13942,-0.0919
16,1.2327,0.14636,0.14437,-0.0954
16.1,1.2202,0.15128,0.14933,-0.0989
16.2,1.2098,0.15565,0.15373,-0.1021
16.3,1.2012,0.15956,0.15767,-0.1049
16.4,1.1923,0.16377,0.16192,-0.108
16.5,1.1856,0.16731,0.16549,-0.1107
16.6,1.1788,0.17105,0.16926,-0.1134
16.7,1.1723,0.17501,0.17326,-0.1163
16.8,1.1676,0.17846,0.17674,-0.1189
16.9,1.1635,0.18187,0.18017,-0.1214
17,1.1585,0.18602,0.18435,-0.1243
17.1,1.1553,0.18953,0.18789,-0.1269
17.2,1.1529,0.19283,0.19121,-0.1293
17.3,1.1503,0.19638,0.19479,-0.1318
17.4,1.1466,0.20081,0.19924,-0.1347
17.5,1.1452,0.20415,0.20261,-0.1371
17.6,1.1437,0.20764,0.20611,-0.1395
17.7,1.1424,0.21125,0.20974,-0.142
17.8,1.1402,0.21553,0.21404,-0.1448
17.9,1.1398,0.21883,0.21736,-0.147
18,1.1398,0.22195,0.22049,-0.1492
18.1,1.1398,0.22521,0.22377,-0.1514
18.2,1.1383,0.22972,0.2283,-0.1542
18.3,1.1383,0.23318,0.23178,-0.1564
18.4,1.1386,0.23667,0.23529,-0.1587
18.5,1.1379,0.24102,0.23966,-0.1613
18.6,1.1371,0.24589,0.24454,-0.164
18.7,1.1377,0.2497,0.24836,-0.1664
18.8,1.1385,0.25354,0.25221,-0.1686
18.9,1.1403,0.25651,0.25518,-0.1705
19,1.1427,0.25898,0.25765,-0.1723
19.1,1.1452,0.26123,0.2599,-0.1739
19.2,1.148,0.26331,0.26199,-0.1755
19.3,1.1509,0.26511,0.26379,-0.177
19.4,1.1538,0.26696,0.26564,-0.1785
19.5,1.1568,0.26872,0.2674,-0.18
19.6,1.1599,0.27035,0.26903,-0.1815
19.7,1.163,0.2719,0.27058,-0.1829
19.8,1.1661,0.27336,0.27204,-0.1843
19.9,1.1691,0.27471,0.2734,-0.1858
20,1.172,0.27614,0.27483,-0.1872
20.3,1.1773,0.29347,0.29215,-0.1948
20.4,1.1806,0.2958,0.29448,-0.1964
20.5,1.1838,0.29801,0.2967,-0.198
20.6,1.1871,0.30013,0.29882,-0.1995
20.7,1.1904,0.30218,0.30087,-0.2011
20.8,1.1936,0.30416,0.30285,-0.2026
20.9,1.1969,0.30612,0.30482,-0.2042
21,1.2002,0.30808,0.30678,-0.2057
21.1,1.2035,0.30992,0.30862,-0.2073
21.2,1.2068,0.31171,0.31041,-0.2088
21.3,1.2101,0.3136,0.31231,-0.2103
21.4,1.2134,0.31534,0.31405,-0.2119
21.5,1.2167,0.31711,0.31582,-0.2134
21.6,1.22,0.31886,0.31758,-0.2149
21.8,1.2264,0.32167,0.32039,-0.2181
21.9,1.2296,0.32329,0.32201,-0.2196
22,1.2328,0.32493,0.32366,-0.2212
22.1,1.2359,0.32654,0.32528,-0.2227
22.2,1.239,0.32819,0.32693,-0.2243
22.3,1.2419,0.32985,0.32859,-0.2258
22.4,1.2461,0.33465,0.33338,-0.2278
22.5,1.2503,0.33948,0.33822,-0.2298
22.6,1.2545,0.34406,0.3428,-0.2317
22.7,1.2583,0.34726,0.346,-0.2334
22.8,1.262,0.35009,0.34882,-0.2351
22.9,1.2656,0.35273,0.35147,-0.2368
23,1.2692,0.35518,0.35392,-0.2385
23.1,1.2727,0.35754,0.35628,-0.2402
23.2,1.2761,0.3598,0.35855,-0.2418
23.3,1.2796,0.36208,0.36083,-0.2435
23.4,1.2831,0.36429,0.36304,-0.2452
23.5,1.2865,0.36646,0.36521,-0.2469
23.6,1.2899,0.36856,0.36732,-0.2485
23.7,1.2932,0.37064,0.36941,-0.2502
23.8,1.2966,0.3727,0.37146,-0.2519
23.9,1.2999,0.37471,0.37348,-0.2536
24,1.3032,0.3767,0.37547,-0.2553
24.1,1.3065,0.3787,0.37747,-0.2569
24.2,1.3098,0.38053,0.37931,-0.2586
24.3,1.313,0.38252,0.3813,-0.2603
24.4,1.3163,0.38446,0.38324,-0.262
24.5,1.3195,0.38638,0.38517,-0.2637
24.6,1.3227,0.38824,0.38703,-0.2654
24.7,1.3259,0.39013,0.38893,-0.2671
24.8,1.3291,0.39183,0.39062,-0.2688
24.9,1.3322,0.39372,0.39252,-0.2705
25,1.3354,0.39551,0.39432,-0.2723
25.1,1.3385,0.39738,0.39618,-0.274
25.2,1.3416,0.39912,0.39793,-0.2757
25.3,1.3447,0.40104,0.39986,-0.2774
25.4,1.3478,0.40282,0.40164,-0.2792
25.5,1.3509,0.4046,0.40343,-0.2809
25.6,1.3539,0.40649,0.40533,-0.2826
25.7,1.357,0.40827,0.40711,-0.2843
25.8,1.3599,0.41002,0.40886,-0.2861
25.9,1.363,0.41196,0.41081,-0.2878
26,1.366,0.41388,0.41273,-0.2895
26.1,1.3689,0.4157,0.41456,-0.2912
26.2,1.3719,0.41776,0.41661,-0.293
26.3,1.3748,0.4198,0.41866,-0.2947
26.4,1.3778,0.42198,0.42084,-0.2964
26.5,1.3808,0.4242,0.42307,-0.2981
26.6,1.3838,0.42651,0.42539,-0.2997
26.7,1.3869,0.42903,0.4279,-0.3015
26.8,1.3905,0.43187,0.43074,-0.3036
26.9,1.3942,0.43501,0.43387,-0.3057
27,1.398,0.43818,0.43704,-0.3078
27.1,1.4016,0.44134,0.44021,-0.3098
27.2,1.405,0.4442,0.44307,-0.3118
27.3,1.4091,0.44822,0.4471,-0.3139
27.4,1.4123,0.45088,0.44976,-0.3158
27.5,1.4157,0.45393,0.45281,-0.3177
27.6,1.4198,0.45788,0.45676,-0.3199
27.7,1.423,0.46054,0.45943,-0.3219
27.8,1.4262,0.4631,0.46199,-0.3239
27.9,1.4292,0.46548,0.46437,-0.3258
28,1.4323,0.46789,0.46679,-0.3277
28.1,1.4354,0.47033,0.46922,-0.3297
28.2,1.4384,0.47268,0.47158,-0.3316
28.3,1.4413,0.47501,0.47391,-0.3336
28.4,1.4443,0.47734,0.47624,-0.3355
28.5,1.4473,0.47965,0.47855,-0.3375
28.6,1.4502,0.48193,0.48084,-0.3395
28.7,1.4531,0.48418,0.48309,-0.3415
28.8,1.456,0.48644,0.48536,-0.3434
28.9,1.4588,0.48868,0.48761,-0.3454
29,1.4616,0.49089,0.48983,-0.3474
29.1,1.4645,0.49313,0.49207,-0.3494
29.2,1.4672,0.49531,0.49425,-0.3513
29.3,1.47,0.49742,0.49637,-0.3534
29.4,1.4728,0.49966,0.49861,-0.3554
29.5,1.4755,0.50176,0.50071,-0.3574
29.6,1.4782,0.50385,0.50281,-0.3594
29.7,1.4808,0.50605,0.50501,-0.3614
29.8,1.4835,0.50817,0.50714,-0.3634
29.9,1.4861,0.51024,0.50921,-0.3654
30,1.4887,0.51228,0.51125,-0.3675

