airfoilName st2.dat
Re 	2.900000e+05
M 	2.500000e-01
N 	4.500000e+00
VACC 	0 VACCflag 1
XTR 	1.00 	1.00 XTRflag 0
alpha,cl,cd,cdp,cm
-29.5,-3.8777,0.04499,0.03781,0.0537
-29.4,-3.8753,0.0455,0.03788,0.0385
-29.3,-3.865,0.04582,0.03788,0.0301
-29.2,-3.8528,0.04574,0.03777,0.0287
-29.1,-3.8403,0.04562,0.03765,0.0279
-29,-3.8274,0.04551,0.03754,0.0269
-28.9,-3.8143,0.04541,0.03742,0.0259
-28.8,-3.8008,0.04532,0.03731,0.0247
-28.7,-3.787,0.04524,0.0372,0.0234
-28.6,-3.7729,0.04517,0.03709,0.022
-28.5,-3.7535,0.04513,0.03706,0.0197
-28.4,-3.74,0.04507,0.03693,0.0185
-28.3,-3.7255,0.04502,0.03682,0.017
-28.2,-3.7105,0.04498,0.03671,0.0155
-28.1,-3.6951,0.04495,0.03661,0.014
-28,-3.6794,0.04493,0.03651,0.0124
-27.9,-3.6636,0.04492,0.03642,0.0108
-27.8,-3.6477,0.04493,0.03634,0.0091
-27.7,-3.6318,0.04497,0.03627,0.0075
-27.6,-3.6164,0.04503,0.03623,0.0058
-27.5,-3.5998,0.0452,0.03629,0.0037
-27.4,-3.589,0.04558,0.03651,0.002
-27.3,-3.5766,0.04537,0.03632,0.0021
-27.2,-3.5643,0.04519,0.03615,0.0021
-27.1,-3.5523,0.04504,0.03601,0.0021
-27,-3.5399,0.04489,0.03586,0.0021
-26.9,-3.5276,0.04475,0.03571,0.002
-26.8,-3.5153,0.04462,0.03557,0.0018
-26.7,-3.5031,0.0445,0.03543,0.0017
-26.6,-3.4911,0.04439,0.0353,0.0015
-26.5,-3.4778,0.04432,0.03521,0.0011
-26.4,-3.4661,0.04421,0.03506,0.001
-26.3,-3.4544,0.0441,0.03491,0.0008
-26.2,-3.4427,0.044,0.03475,0.0007
-26.1,-3.4311,0.0439,0.0346,0.0006
-26,-3.4196,0.0438,0.03444,0.0005
-25.9,-3.4082,0.04371,0.03428,0.0004
-25.8,-3.3969,0.04362,0.03412,0.0003
-25.7,-3.3857,0.04355,0.03396,0.0002
-25.6,-3.3748,0.04349,0.03381,0.0001
-25.5,-3.3635,0.04349,0.03371,-0.0001
-25.4,-3.3517,0.04336,0.03351,0
-25.3,-3.338,0.04304,0.03323,0.0001
-25.2,-3.3244,0.04276,0.03297,0.0002
-25.1,-3.311,0.04253,0.03279,0.0004
-25,-3.2978,0.04229,0.03256,0.0005
-24.9,-3.2848,0.04207,0.03234,0.0006
-24.8,-3.2718,0.04186,0.03212,0.0007
-24.7,-3.2589,0.04166,0.0319,0.0007
-24.6,-3.2457,0.04149,0.03171,0.0007
-24.5,-3.2331,0.04131,0.03149,0.0008
-24.4,-3.2204,0.04113,0.03128,0.0009
-24.3,-3.2078,0.04096,0.03106,0.001
-24.2,-3.1952,0.04079,0.03085,0.0011
-24.1,-3.1827,0.04064,0.03064,0.0011
-24,-3.1703,0.04049,0.03043,0.0012
-23.9,-3.1579,0.04036,0.03023,0.0013
-23.8,-3.1456,0.04025,0.03003,0.0014
-23.7,-3.1334,0.04019,0.02987,0.0014
-23.6,-3.1192,0.03989,0.02959,0.0015
-23.5,-3.1048,0.03956,0.0293,0.0016
-23.4,-3.0906,0.03925,0.02903,0.0017
-23.3,-3.0764,0.03897,0.02877,0.0018
-23.2,-3.0623,0.03869,0.02851,0.0019
-22.9,-3.0213,0.03806,0.02789,0.0021
-22.8,-3.0079,0.03787,0.02767,0.0021
-22.7,-2.9946,0.03769,0.02746,0.0022
-22.6,-2.9814,0.03753,0.02725,0.0023
-22.5,-2.9681,0.03737,0.02704,0.0023
-22.4,-2.9549,0.03721,0.02683,0.0024
-22.3,-2.9417,0.03707,0.02662,0.0025
-22.2,-2.9285,0.03694,0.02643,0.0025
-22,-2.9005,0.03653,0.02595,0.0026
-21.7,-2.8566,0.03559,0.02514,0.0027
-21.6,-2.8429,0.0354,0.02494,0.0028
-21.5,-2.8291,0.0352,0.02473,0.0028
-21.4,-2.8151,0.03499,0.02452,0.0028
-21.3,-2.8011,0.03479,0.02431,0.0028
-21.2,-2.787,0.03458,0.02409,0.0028
-21.1,-2.7731,0.03441,0.02391,0.0029
-20.7,-2.7178,0.03378,0.0231,0.0029
-20.6,-2.7042,0.03368,0.02292,0.003
-20.4,-2.6745,0.03307,0.02238,0.003
-20.3,-2.6603,0.03285,0.02217,0.0029
-20.2,-2.646,0.03262,0.02196,0.0029
-20.1,-2.6317,0.03239,0.02174,0.0029
-20,-2.6173,0.03216,0.02153,0.0029
-19.9,-2.6029,0.03195,0.02131,0.0028
-19.8,-2.5885,0.03174,0.02111,0.0028
-19.7,-2.5741,0.03154,0.0209,0.0028
-19.6,-2.5598,0.03134,0.02069,0.0028
-19.5,-2.5455,0.03116,0.02049,0.0027
-19.4,-2.5315,0.03105,0.02033,0.0027
-19.2,-2.5034,0.03081,0.01998,0.0027
-19.1,-2.4887,0.03056,0.01974,0.0026
-19,-2.4742,0.03031,0.01952,0.0025
-18.9,-2.4596,0.03006,0.0193,0.0025
-18.8,-2.445,0.02982,0.0191,0.0024
-18.7,-2.4304,0.0296,0.01889,0.0023
-18.6,-2.4159,0.02938,0.01869,0.0022
-18.5,-2.4013,0.02917,0.01849,0.0022
-18.4,-2.3868,0.02897,0.01829,0.0021
-18.3,-2.3723,0.02878,0.01809,0.002
-18.2,-2.3578,0.0286,0.0179,0.002
-18.1,-2.3434,0.02844,0.01772,0.0019
-18,-2.329,0.02828,0.01754,0.0018
-17.9,-2.315,0.02824,0.01741,0.0018
-17.8,-2.3006,0.02805,0.01722,0.0017
-17.7,-2.2859,0.0278,0.01701,0.0015
-17.6,-2.2712,0.02756,0.0168,0.0014
-17.5,-2.2565,0.02733,0.0166,0.0013
-17.4,-2.2418,0.02712,0.01641,0.0012
-17.3,-2.2272,0.02691,0.01622,0.0011
-17.2,-2.2126,0.02672,0.01604,0.001
-17.1,-2.198,0.02653,0.01586,0.0009
-17,-2.1834,0.02635,0.01568,0.0008
-16.9,-2.1689,0.02619,0.0155,0.0007
-16.8,-2.1544,0.02604,0.01533,0.0006
-16.7,-2.1399,0.02591,0.01517,0.0004
-16.6,-2.1255,0.0258,0.01502,0.0003
-16.5,-2.1111,0.02563,0.01484,0.0002
-16.4,-2.0964,0.02537,0.01466,0
-16.3,-2.0817,0.02515,0.01447,-0.0001
-16.2,-2.067,0.02495,0.01429,-0.0003
-16.1,-2.0524,0.02475,0.01412,-0.0004
-16,-2.0377,0.02457,0.01395,-0.0005
-15.9,-2.0231,0.0244,0.01378,-0.0007
-15.8,-2.0085,0.02424,0.01362,-0.0008
-15.7,-1.994,0.02409,0.01346,-0.001
-15.6,-1.9794,0.02395,0.0133,-0.0011
-15.5,-1.9649,0.02383,0.01315,-0.0013
-15.4,-1.9506,0.02375,0.01301,-0.0014
-15.3,-1.9359,0.02351,0.01283,-0.0016
-15.2,-1.9212,0.02329,0.01266,-0.0018
-15.1,-1.9065,0.02308,0.0125,-0.002
-15,-1.8919,0.02289,0.01234,-0.0021
-14.9,-1.8773,0.02272,0.01218,-0.0023
-14.8,-1.8627,0.02256,0.01203,-0.0025
-14.7,-1.8481,0.02241,0.01188,-0.0026
-14.6,-1.8335,0.02227,0.01173,-0.0028
-14.5,-1.8189,0.02214,0.01159,-0.003
-14.4,-1.8044,0.02203,0.01145,-0.0031
-14.3,-1.79,0.02193,0.01131,-0.0033
-14.2,-1.7753,0.0217,0.01115,-0.0035
-14.1,-1.7607,0.0215,0.01099,-0.0037
-14,-1.746,0.02132,0.01084,-0.0039
-13.9,-1.7314,0.02114,0.01069,-0.0041
-13.8,-1.7168,0.02098,0.01056,-0.0043
-13.7,-1.7022,0.02084,0.01042,-0.0045
-13.6,-1.6877,0.0207,0.01029,-0.0047
-13.5,-1.6731,0.02058,0.01015,-0.0049
-13.4,-1.6586,0.02047,0.01002,-0.0051
-13.3,-1.6442,0.0204,0.0099,-0.0053
-13.2,-1.6295,0.02019,0.00975,-0.0056
-13.1,-1.6149,0.01999,0.0096,-0.0058
-13,-1.6003,0.01982,0.00946,-0.006
-12.9,-1.5857,0.01966,0.00933,-0.0062
-12.8,-1.5711,0.0195,0.0092,-0.0064
-12.7,-1.5566,0.01936,0.00907,-0.0066
-12.6,-1.542,0.01923,0.00895,-0.0068
-12.5,-1.5275,0.01913,0.00884,-0.0071
-12.4,-1.513,0.01904,0.00872,-0.0073
-12.3,-1.4985,0.01893,0.0086,-0.0075
-12.2,-1.4839,0.01874,0.00846,-0.0078
-12.1,-1.4694,0.01857,0.00833,-0.008
-12,-1.4548,0.01841,0.0082,-0.0082
-11.9,-1.4403,0.01826,0.00808,-0.0085
-11.8,-1.4257,0.01813,0.00797,-0.0087
-11.7,-1.4112,0.018,0.00785,-0.0089
-11.6,-1.3967,0.01788,0.00774,-0.0092
-11.5,-1.3822,0.0178,0.00764,-0.0094
-11.4,-1.3677,0.01772,0.00753,-0.0097
-11.3,-1.3532,0.01754,0.0074,-0.0099
-11.2,-1.3387,0.01738,0.00728,-0.0102
-11.1,-1.3241,0.01723,0.00717,-0.0104
-11,-1.3096,0.01709,0.00706,-0.0107
-10.9,-1.2951,0.01697,0.00695,-0.0109
-10.8,-1.2806,0.01685,0.00685,-0.0111
-10.7,-1.2661,0.01674,0.00675,-0.0114
-10.6,-1.2516,0.01664,0.00664,-0.0116
-10.5,-1.2371,0.01656,0.00655,-0.0119
-10.4,-1.2227,0.0164,0.00643,-0.0122
-10.3,-1.2082,0.01625,0.00632,-0.0125
-10.2,-1.1937,0.01612,0.00622,-0.0127
-10.1,-1.1792,0.01599,0.00612,-0.013
-10,-1.1647,0.01588,0.00603,-0.0132
-9.9,-1.1503,0.01577,0.00593,-0.0135
-9.8,-1.1358,0.01568,0.00584,-0.0137
-9.7,-1.1213,0.0156,0.00575,-0.014
-9.6,-1.1069,0.0155,0.00564,-0.0143
-9.5,-1.0924,0.01535,0.00554,-0.0146
-9.4,-1.078,0.01522,0.00545,-0.0148
-9.3,-1.0635,0.01508,0.00536,-0.0151
-9.2,-1.0491,0.01497,0.00527,-0.0154
-9.1,-1.0346,0.01487,0.00518,-0.0157
-9,-1.0202,0.01478,0.0051,-0.0159
-8.9,-1.0057,0.0147,0.00502,-0.0162
-8.8,-0.9913,0.01461,0.00492,-0.0165
-8.7,-0.9768,0.01447,0.00483,-0.0168
-8.6,-0.9624,0.01435,0.00474,-0.0171
-8.5,-0.948,0.01423,0.00466,-0.0174
-8.4,-0.9336,0.01413,0.00458,-0.0177
-8.3,-0.9191,0.01403,0.0045,-0.018
-8.2,-0.9047,0.01395,0.00443,-0.0182
-8.1,-0.8902,0.01388,0.00435,-0.0185
-8,-0.8758,0.01376,0.00425,-0.0188
-7.9,-0.8614,0.01364,0.00417,-0.0191
-7.8,-0.847,0.01353,0.0041,-0.0194
-7.6,-0.8182,0.01333,0.00395,-0.02
-7.5,-0.8038,0.01325,0.00388,-0.0203
-7.4,-0.7894,0.01317,0.00381,-0.0206
-7.3,-0.775,0.01308,0.00372,-0.0209
-7.2,-0.7606,0.01296,0.00365,-0.0212
-7.1,-0.7462,0.01285,0.00358,-0.0215
-7,-0.7318,0.01276,0.00351,-0.0218
-6.9,-0.7174,0.01267,0.00345,-0.0221
-6.8,-0.7031,0.01259,0.00338,-0.0224
-6.7,-0.6887,0.01251,0.00332,-0.0227
-6.6,-0.6742,0.01245,0.00326,-0.023
-6.5,-0.6598,0.01235,0.00317,-0.0234
-6.4,-0.6455,0.01221,0.0031,-0.0237
-6.3,-0.6311,0.01212,0.00304,-0.024
-6.2,-0.6168,0.01204,0.00298,-0.0243
-6.1,-0.6024,0.01197,0.00292,-0.0246
-6,-0.588,0.0119,0.00287,-0.0249
-5.9,-0.5735,0.01184,0.00279,-0.0253
-5.8,-0.5592,0.01173,0.00273,-0.0256
-5.7,-0.5449,0.01163,0.00267,-0.0259
-5.6,-0.5305,0.01154,0.00262,-0.0262
-5.5,-0.5161,0.01145,0.00256,-0.0265
-5.4,-0.5018,0.01138,0.00251,-0.0268
-5.3,-0.4874,0.01133,0.00246,-0.0272
-5.2,-0.473,0.01124,0.00238,-0.0275
-5.1,-0.4586,0.01114,0.00233,-0.0278
-5,-0.4443,0.01105,0.00228,-0.0282
-4.9,-0.4299,0.01098,0.00223,-0.0285
-4.8,-0.4156,0.01091,0.00218,-0.0288
-4.7,-0.4012,0.01085,0.00213,-0.0291
-4.6,-0.3868,0.01076,0.00205,-0.0295
-4.2,-0.3279,0.01157,0.00254,-0.0306
-4.1,-0.3144,0.01163,0.00255,-0.0307
-4,-0.3006,0.01166,0.00254,-0.031
-3.9,-0.2868,0.01166,0.00251,-0.0312
-3.8,-0.273,0.01163,0.00251,-0.0315
-3.7,-0.259,0.01162,0.00249,-0.0317
-3.6,-0.245,0.01163,0.00249,-0.032
-3.5,-0.2311,0.01165,0.00248,-0.0323
-3.4,-0.217,0.01166,0.00246,-0.0326
-3.3,-0.2037,0.01175,0.0025,-0.0327
-3.2,-0.1898,0.01175,0.00249,-0.033
-3.1,-0.1756,0.01172,0.00249,-0.0333
-3,-0.1614,0.0117,0.00247,-0.0336
-2.9,-0.1472,0.01169,0.00246,-0.0339
-2.8,-0.1331,0.01167,0.00243,-0.0343
-2.7,-0.119,0.01165,0.00243,-0.0346
-2.5,-0.0909,0.01164,0.00243,-0.0352
-2.4,-0.0766,0.01163,0.00242,-0.0355
-2.3,-0.0625,0.01163,0.00242,-0.0358
-2.2,-0.0483,0.01162,0.0024,-0.0361
-2.1,-0.0343,0.01157,0.0024,-0.0364
-2,-0.0206,0.01164,0.00243,-0.0367
-1.8,0.0077,0.01166,0.00244,-0.0373
-1.7,0.0218,0.01167,0.00243,-0.0376
-1.6,0.0357,0.01167,0.00245,-0.0379
-1.5,0.0498,0.01167,0.00247,-0.0382
-1.4,0.0639,0.01168,0.00247,-0.0385
-1.3,0.0779,0.0117,0.00249,-0.0388
-1.2,0.0919,0.01171,0.00249,-0.0391
-1.1,0.1061,0.01169,0.0025,-0.0395
-1,0.1201,0.01171,0.00251,-0.0398
-0.9,0.134,0.01175,0.00254,-0.0401
-0.8,0.148,0.01178,0.00256,-0.0404
-0.7,0.1615,0.01191,0.00261,-0.0406
-0.6,0.1749,0.01201,0.00265,-0.0409
-0.5,0.1888,0.01205,0.00268,-0.0411
-0.4,0.2022,0.01216,0.00273,-0.0414
-0.3,0.2157,0.01227,0.00278,-0.0417
-0.2,0.2292,0.0124,0.00282,-0.042
-0.1,0.2424,0.01254,0.00288,-0.0422
0,0.2555,0.01273,0.00295,-0.0425
0.2,0.2802,0.01344,0.00321,-0.043
0.3,0.2935,0.01362,0.00327,-0.0434
0.4,0.3071,0.01369,0.00329,-0.0437
0.5,0.3208,0.01381,0.00336,-0.0441
0.6,0.3348,0.01388,0.00339,-0.0444
0.7,0.3487,0.01396,0.00343,-0.0447
0.8,0.3623,0.01408,0.00347,-0.0451
0.9,0.3762,0.01416,0.00352,-0.0454
1,0.3902,0.01422,0.00357,-0.0457
1.1,0.4042,0.01427,0.00361,-0.0461
1.2,0.4183,0.01428,0.00363,-0.0464
1.3,0.4323,0.01432,0.00366,-0.0468
1.4,0.4463,0.01438,0.0037,-0.0471
1.5,0.4603,0.01444,0.00375,-0.0474
1.6,0.4744,0.01451,0.0038,-0.0477
1.8,0.5023,0.01464,0.00389,-0.0484
1.9,0.5162,0.01472,0.00394,-0.0487
2,0.5301,0.01479,0.00399,-0.0491
2.1,0.544,0.01488,0.00405,-0.0494
2.2,0.558,0.01492,0.00411,-0.0497
2.3,0.5721,0.01495,0.00416,-0.05
2.4,0.5862,0.01501,0.00422,-0.0503
2.5,0.6002,0.01507,0.00427,-0.0506
2.6,0.6142,0.01512,0.00432,-0.0509
2.7,0.6282,0.01518,0.00438,-0.0512
2.8,0.6422,0.01525,0.00444,-0.0515
2.9,0.6561,0.01529,0.00449,-0.0518
3,0.67,0.01537,0.00456,-0.0521
3.1,0.684,0.01546,0.00463,-0.0524
3.2,0.6979,0.01557,0.0047,-0.0527
3.3,0.7118,0.01566,0.00477,-0.053
3.4,0.7256,0.01577,0.00486,-0.0533
3.6,0.7533,0.01604,0.00505,-0.0539
3.7,0.7672,0.01605,0.00509,-0.0542
3.8,0.7812,0.0161,0.00516,-0.0544
3.9,0.7952,0.01616,0.00522,-0.0547
4,0.8092,0.01624,0.0053,-0.055
4.1,0.8233,0.01633,0.00538,-0.0553
4.2,0.8373,0.01643,0.00546,-0.0556
4.3,0.8511,0.01651,0.00554,-0.0558
4.4,0.865,0.01661,0.00562,-0.0561
4.5,0.8787,0.01669,0.0057,-0.0563
4.6,0.8926,0.0168,0.00579,-0.0566
4.7,0.9066,0.01691,0.00589,-0.0569
4.9,0.9341,0.01714,0.00607,-0.0574
5,0.948,0.0173,0.00618,-0.0577
5.1,0.9618,0.01745,0.0063,-0.0579
5.2,0.9757,0.01763,0.00642,-0.0582
5.3,0.9893,0.0178,0.00655,-0.0585
5.4,1.0032,0.0179,0.00664,-0.0587
5.5,1.0171,0.01796,0.00672,-0.0589
5.6,1.031,0.01804,0.00681,-0.0592
5.7,1.045,0.01809,0.00688,-0.0594
5.8,1.0589,0.01819,0.00698,-0.0597
5.9,1.0729,0.0183,0.00708,-0.06
6,1.0868,0.01841,0.00719,-0.0602
6.1,1.1008,0.01853,0.00729,-0.0605
6.2,1.1143,0.01862,0.00739,-0.0607
6.3,1.1281,0.01875,0.0075,-0.0609
6.4,1.142,0.01888,0.00761,-0.0612
6.5,1.1559,0.01902,0.00773,-0.0614
6.6,1.1698,0.01917,0.00785,-0.0617
6.7,1.1837,0.01932,0.00797,-0.0619
6.8,1.1976,0.01948,0.0081,-0.0622
6.9,1.2114,0.01965,0.00824,-0.0625
7,1.2253,0.01984,0.00838,-0.0627
7.1,1.2386,0.02001,0.00852,-0.0629
7.2,1.2524,0.02023,0.00868,-0.0632
7.3,1.2662,0.02045,0.00885,-0.0634
7.4,1.2802,0.02051,0.00894,-0.0637
7.5,1.2941,0.02059,0.00904,-0.0639
7.6,1.308,0.02068,0.00916,-0.0641
7.8,1.3359,0.02085,0.00935,-0.0646
7.9,1.3498,0.02098,0.00948,-0.0648
8,1.3637,0.02111,0.00961,-0.0651
8.1,1.3771,0.02122,0.00973,-0.0652
8.2,1.391,0.02136,0.00985,-0.0655
8.3,1.4049,0.0215,0.00999,-0.0657
8.4,1.4187,0.02164,0.01012,-0.0659
8.5,1.4325,0.0218,0.01026,-0.0662
8.6,1.4463,0.02196,0.0104,-0.0664
8.7,1.4602,0.02213,0.01055,-0.0666
8.8,1.4739,0.0223,0.0107,-0.0669
8.9,1.4878,0.02249,0.01085,-0.0671
9,1.5009,0.02265,0.011,-0.0672
9.1,1.5147,0.02286,0.01117,-0.0674
9.2,1.5285,0.02309,0.01136,-0.0677
9.3,1.5423,0.02334,0.01156,-0.068
9.4,1.5561,0.02362,0.01178,-0.0682
9.5,1.5699,0.02376,0.01192,-0.0684
9.6,1.5838,0.02383,0.01203,-0.0686
9.7,1.5977,0.02392,0.01215,-0.0688
9.8,1.6115,0.02403,0.01228,-0.0691
9.9,1.6254,0.02407,0.01236,-0.0693
10,1.6384,0.02417,0.01248,-0.0693
10.1,1.6522,0.0243,0.01263,-0.0695
10.2,1.666,0.02445,0.01278,-0.0697
10.3,1.6798,0.0246,0.01293,-0.0699
10.4,1.6937,0.02475,0.01308,-0.0701
10.5,1.7075,0.02491,0.01324,-0.0703
10.6,1.7212,0.02507,0.0134,-0.0705
10.7,1.735,0.02524,0.01356,-0.0707
10.8,1.7488,0.02541,0.01372,-0.0709
10.9,1.7625,0.02559,0.01389,-0.0712
11,1.7763,0.02578,0.01406,-0.0714
11.1,1.7892,0.02595,0.01422,-0.0714
11.2,1.803,0.02615,0.0144,-0.0716
11.3,1.8167,0.02637,0.01459,-0.0718
11.4,1.8304,0.0266,0.01479,-0.072
11.5,1.8441,0.02684,0.015,-0.0722
11.6,1.8578,0.02711,0.01522,-0.0725
11.7,1.8714,0.02741,0.01547,-0.0727
11.8,1.8851,0.02773,0.01574,-0.0729
11.9,1.8989,0.02776,0.01582,-0.0731
12,1.9126,0.02783,0.01594,-0.0732
12.1,1.9263,0.02792,0.01608,-0.0734
12.3,1.953,0.02804,0.01629,-0.0735
12.4,1.9667,0.02818,0.01646,-0.0737
12.5,1.9804,0.02833,0.01663,-0.0738
12.6,1.994,0.02849,0.0168,-0.074
12.7,2.0077,0.02865,0.01697,-0.0742
12.8,2.0214,0.02882,0.01715,-0.0743
12.9,2.035,0.02899,0.01733,-0.0745
13,2.0486,0.02917,0.01751,-0.0747
13.1,2.0623,0.02934,0.01769,-0.0748
13.2,2.0759,0.02952,0.01787,-0.075
13.3,2.0895,0.02971,0.01805,-0.0751
13.4,2.1031,0.0299,0.01824,-0.0753
13.5,2.1158,0.03007,0.0184,-0.0752
13.6,2.1294,0.03028,0.0186,-0.0754
13.7,2.1429,0.03049,0.0188,-0.0755
13.8,2.1566,0.03073,0.01902,-0.0757
13.9,2.1702,0.03098,0.01924,-0.0759
14,2.1838,0.03124,0.01947,-0.0761
14.1,2.1973,0.03152,0.01972,-0.0762
14.2,2.2108,0.03182,0.01998,-0.0764
14.3,2.2243,0.03216,0.02027,-0.0766
14.4,2.2378,0.03239,0.02049,-0.0767
14.5,2.251,0.0324,0.02059,-0.0767
14.6,2.2644,0.03247,0.02073,-0.0768
14.7,2.2766,0.03252,0.02085,-0.0766
14.8,2.2901,0.03265,0.02102,-0.0768
14.9,2.3035,0.03266,0.02111,-0.0768
15,2.3169,0.03282,0.0213,-0.0769
15.1,2.3302,0.03298,0.02149,-0.077
15.2,2.3434,0.03314,0.02167,-0.0771
15.3,2.3567,0.03331,0.02187,-0.0771
15.4,2.3701,0.03349,0.02207,-0.0772
15.5,2.3834,0.03367,0.02226,-0.0773
15.6,2.3968,0.03385,0.02246,-0.0774
15.7,2.4101,0.03404,0.02266,-0.0775
15.8,2.4235,0.03424,0.02287,-0.0776
15.9,2.4369,0.03443,0.02307,-0.0777
16,2.4499,0.03462,0.02327,-0.0777
16.1,2.4621,0.03478,0.02345,-0.0776
16.2,2.4754,0.03499,0.02366,-0.0777
16.3,2.4887,0.0352,0.02387,-0.0777
16.4,2.502,0.03543,0.02409,-0.0778
16.5,2.5154,0.03567,0.02432,-0.0779
16.6,2.5287,0.03592,0.02455,-0.078
16.7,2.542,0.03618,0.0248,-0.0781
16.8,2.5555,0.03648,0.02507,-0.0782
16.9,2.5685,0.03676,0.02532,-0.0782
17,2.5818,0.03708,0.02561,-0.0783
17.1,2.5951,0.03743,0.02593,-0.0784
17.2,2.6081,0.03765,0.02615,-0.0785
17.3,2.6206,0.03765,0.02627,-0.0784
17.4,2.6331,0.03771,0.02642,-0.0784
17.5,2.6446,0.03777,0.02656,-0.0781
17.6,2.6569,0.03774,0.02665,-0.078
17.7,2.6692,0.03787,0.02684,-0.0779
17.8,2.682,0.03804,0.02706,-0.0779
17.9,2.6946,0.03821,0.02727,-0.0779
18,2.7073,0.03839,0.02749,-0.0779
18.1,2.7199,0.03857,0.02771,-0.0779
18.2,2.7326,0.03875,0.02793,-0.0779
18.3,2.7453,0.03895,0.02815,-0.0779
18.4,2.7579,0.03914,0.02837,-0.0779
18.5,2.7707,0.03934,0.0286,-0.0779
18.6,2.7827,0.03951,0.0288,-0.0777
18.7,2.7954,0.03971,0.02902,-0.0777
18.8,2.8083,0.03993,0.02926,-0.0778
18.9,2.8209,0.04014,0.02948,-0.0777
19,2.8325,0.04032,0.02968,-0.0775
19.1,2.8452,0.04054,0.02991,-0.0775
19.2,2.858,0.04076,0.03014,-0.0775
19.3,2.8706,0.04098,0.03038,-0.0774
19.4,2.8832,0.04121,0.03061,-0.0774
19.5,2.8955,0.04143,0.03083,-0.0773
19.6,2.9084,0.04169,0.03108,-0.0773
19.7,2.9211,0.04195,0.03134,-0.0773
19.8,2.9337,0.04223,0.0316,-0.0772
19.9,2.9464,0.04253,0.03189,-0.0772
20,2.9591,0.04285,0.03218,-0.0772
20.1,2.9719,0.04319,0.03249,-0.0771
20.2,2.9845,0.04354,0.03281,-0.0771
20.3,2.9943,0.04349,0.03292,-0.0768
20.4,3.0044,0.04349,0.03308,-0.0766
20.5,3.0147,0.04358,0.03328,-0.0764
20.7,3.0345,0.04369,0.03362,-0.0758
20.8,3.0453,0.04385,0.03387,-0.0756
20.9,3.056,0.04403,0.03411,-0.0755
21,3.0668,0.04422,0.03436,-0.0753
21.1,3.0776,0.04441,0.03461,-0.0751
21.2,3.0884,0.0446,0.03485,-0.075
21.3,3.0993,0.0448,0.0351,-0.0748
21.4,3.1101,0.04495,0.03531,-0.0747
21.5,3.121,0.04515,0.03555,-0.0745
21.6,3.1318,0.04535,0.03579,-0.0743
21.7,3.1427,0.04555,0.03603,-0.0742
21.8,3.1537,0.04576,0.03627,-0.074
21.9,3.1646,0.04596,0.03651,-0.0739
22,3.1757,0.04618,0.03675,-0.0737
22.1,3.1868,0.0464,0.03699,-0.0736
22.2,3.1979,0.04661,0.03723,-0.0734
22.3,3.2092,0.04684,0.03748,-0.0733
22.5,3.2307,0.0472,0.03788,-0.0729
22.6,3.2418,0.04743,0.03812,-0.0728
22.7,3.2531,0.04766,0.03837,-0.0727
22.9,3.2751,0.04814,0.03886,-0.0723
23,3.2868,0.04841,0.03913,-0.0722
23.1,3.299,0.04872,0.03943,-0.0722
23.2,3.3115,0.04905,0.03974,-0.0722
23.3,3.3225,0.04934,0.04002,-0.0719
23.5,3.3393,0.04962,0.04043,-0.0715
23.6,3.3417,0.04957,0.04061,-0.0711
23.7,3.3454,0.0496,0.04083,-0.0709
23.8,3.3498,0.04969,0.04107,-0.0707
23.9,3.3527,0.04964,0.04121,-0.0706
24,3.3587,0.04977,0.04146,-0.0705
24.1,3.3648,0.04992,0.0417,-0.0705
24.2,3.3712,0.05006,0.04193,-0.0705
24.3,3.378,0.05022,0.04218,-0.0706
24.4,3.385,0.05037,0.0424,-0.0707
24.5,3.3922,0.05052,0.04263,-0.0709
24.6,3.3988,0.05066,0.04284,-0.0709
24.7,3.4046,0.05078,0.04303,-0.0707
24.8,3.4104,0.05067,0.04301,-0.0707
24.9,3.4177,0.05079,0.04318,-0.0709
25.1,3.4331,0.05102,0.04351,-0.0714
25.2,3.4412,0.05114,0.04368,-0.0717
25.3,3.4496,0.05127,0.04384,-0.072
25.4,3.4585,0.0514,0.04401,-0.0724
25.5,3.4664,0.0515,0.04414,-0.0726
25.6,3.4738,0.05157,0.04425,-0.0727
25.7,3.4816,0.05166,0.04438,-0.0729
25.8,3.49,0.05178,0.04452,-0.0731
26,3.5102,0.05184,0.04462,-0.0743
26.1,3.5188,0.05194,0.04473,-0.0745
26.2,3.5268,0.05202,0.04484,-0.0746
26.3,3.5355,0.05213,0.04496,-0.0747
26.4,3.5444,0.05227,0.04509,-0.0748
26.5,3.5541,0.05244,0.04526,-0.0751
26.6,3.5653,0.0527,0.04549,-0.0755

