airfoilName st3.dat
Re 	2.500000e+05
M 	2.500000e-01
N 	4.500000e+00
VACC 	0 VACCflag 1
XTR 	1.00 	1.00 XTRflag 0
alpha,cl,cd,cdp,cm
-23.7,-2.7942,0.08333,0.07921,0.1527
-23.6,-2.7869,0.08247,0.07836,0.151
-23.5,-2.7798,0.08149,0.07738,0.1491
-23.4,-2.7734,0.08039,0.07629,0.1469
-23.3,-2.7677,0.07907,0.07496,0.144
-23.2,-2.7634,0.07736,0.07324,0.1401
-23,-2.7699,0.06962,0.06527,0.1204
-22.9,-2.8055,0.05488,0.04962,0.0713
-22.8,-2.8034,0.04972,0.04394,0.0483
-22.7,-2.7921,0.04882,0.04299,0.0438
-22.6,-2.7802,0.04788,0.04198,0.0389
-22.5,-2.7673,0.04694,0.04096,0.0338
-22.4,-2.7535,0.04605,0.03999,0.0289
-22.3,-2.7389,0.04524,0.03908,0.0242
-22.2,-2.7237,0.0445,0.03824,0.0199
-22.1,-2.708,0.04384,0.03748,0.0158
-22,-2.6919,0.04324,0.03677,0.0121
-21.9,-2.6754,0.04269,0.03611,0.0087
-21.8,-2.6587,0.04219,0.0355,0.0055
-21.7,-2.6418,0.04172,0.03492,0.0025
-21.6,-2.6249,0.04129,0.03437,-0.0003
-21.5,-2.6067,0.0409,0.0338,-0.0037
-21.4,-2.5896,0.04051,0.03327,-0.0063
-21.3,-2.5724,0.04015,0.03274,-0.009
-21.2,-2.5571,0.03986,0.03242,-0.0105
-21.1,-2.5424,0.03961,0.03216,-0.0117
-21,-2.5279,0.03938,0.0319,-0.0129
-20.9,-2.5137,0.03914,0.03165,-0.014
-20.8,-2.4999,0.03892,0.03138,-0.015
-20.7,-2.4869,0.0387,0.03113,-0.0159
-20.6,-2.4745,0.03849,0.03087,-0.0167
-20.5,-2.4622,0.03826,0.0306,-0.0174
-20.4,-2.4501,0.03802,0.03031,-0.018
-20.3,-2.4381,0.03777,0.03,-0.0185
-20.2,-2.4262,0.03752,0.02969,-0.019
-20.1,-2.4143,0.03726,0.02937,-0.0195
-20,-2.4024,0.03699,0.02904,-0.0199
-19.9,-2.3906,0.03672,0.0287,-0.0202
-19.8,-2.3788,0.03645,0.02835,-0.0206
-19.7,-2.367,0.03618,0.02799,-0.0209
-19.6,-2.3552,0.03591,0.02762,-0.0211
-19.5,-2.3435,0.03564,0.02725,-0.0214
-19.4,-2.3313,0.03537,0.02699,-0.0215
-19.3,-2.3192,0.03517,0.02683,-0.0217
-19.2,-2.307,0.03491,0.02655,-0.0218
-19.1,-2.2948,0.03466,0.02628,-0.0219
-19,-2.2826,0.03441,0.02601,-0.022
-18.9,-2.2703,0.03416,0.02572,-0.0221
-18.8,-2.258,0.0339,0.02544,-0.0222
-18.7,-2.2457,0.03365,0.02515,-0.0222
-18.6,-2.2333,0.0334,0.02485,-0.0223
-18.5,-2.221,0.03314,0.02455,-0.0223
-18.4,-2.2085,0.03289,0.02424,-0.0224
-18.3,-2.1961,0.03263,0.02393,-0.0224
-18.2,-2.1835,0.03238,0.02362,-0.0225
-18.1,-2.171,0.03213,0.0233,-0.0225
-18,-2.1584,0.03188,0.02297,-0.0225
-17.9,-2.1457,0.03163,0.02269,-0.0226
-17.8,-2.1329,0.03137,0.02244,-0.0226
-17.7,-2.1201,0.03112,0.02219,-0.0226
-17.6,-2.1074,0.03092,0.02202,-0.0227
-17.5,-2.0945,0.03068,0.02177,-0.0227
-17.4,-2.0816,0.03045,0.02151,-0.0227
-17.3,-2.0687,0.03021,0.02125,-0.0227
-17.2,-2.0557,0.02998,0.02099,-0.0227
-17.1,-2.0427,0.02975,0.02072,-0.0227
-17,-2.0297,0.02952,0.02046,-0.0227
-16.9,-2.0166,0.02929,0.02018,-0.0227
-16.8,-2.0035,0.02907,0.01991,-0.0228
-16.7,-1.9903,0.02885,0.01964,-0.0228
-16.6,-1.9772,0.02864,0.01936,-0.0228
-16.5,-1.964,0.0284,0.01912,-0.0228
-16.4,-1.9508,0.02815,0.01889,-0.0228
-16.3,-1.9375,0.02792,0.01866,-0.0229
-16.2,-1.9243,0.0277,0.01844,-0.0229
-16.1,-1.911,0.02748,0.01822,-0.0229
-16,-1.8977,0.02726,0.01799,-0.0229
-15.9,-1.8843,0.02705,0.01777,-0.023
-15.8,-1.8711,0.02688,0.01758,-0.023
-15.7,-1.8577,0.02668,0.01734,-0.023
-15.6,-1.8443,0.02647,0.0171,-0.0231
-15.5,-1.8308,0.02628,0.01686,-0.0231
-15.4,-1.8173,0.02609,0.01661,-0.0231
-15.3,-1.8039,0.02589,0.01639,-0.0231
-15.2,-1.7904,0.02565,0.01618,-0.0232
-15.1,-1.7769,0.02543,0.01598,-0.0233
-15,-1.7634,0.02522,0.01578,-0.0233
-14.9,-1.7499,0.02502,0.01558,-0.0234
-14.8,-1.7364,0.02482,0.01538,-0.0234
-14.7,-1.7228,0.02463,0.01517,-0.0235
-14.6,-1.7092,0.02444,0.01496,-0.0235
-14.5,-1.6957,0.02426,0.01476,-0.0236
-14.4,-1.6821,0.02411,0.01457,-0.0236
-14.3,-1.6685,0.02394,0.01436,-0.0237
-14.2,-1.6548,0.02377,0.01415,-0.0237
-14.1,-1.6412,0.02355,0.01396,-0.0238
-14,-1.6276,0.02334,0.01378,-0.0239
-13.9,-1.614,0.02315,0.0136,-0.024
-13.8,-1.6003,0.02296,0.01341,-0.0241
-13.7,-1.5867,0.02278,0.01323,-0.0241
-13.6,-1.573,0.0226,0.01305,-0.0242
-13.5,-1.5593,0.02243,0.01286,-0.0243
-13.4,-1.5456,0.02226,0.01268,-0.0244
-13.3,-1.5319,0.0221,0.01249,-0.0244
-13.2,-1.5182,0.02199,0.01232,-0.0245
-13.1,-1.5045,0.02178,0.01215,-0.0246
-13,-1.4908,0.02159,0.01197,-0.0247
-12.9,-1.477,0.0214,0.01181,-0.0248
-12.8,-1.4633,0.02123,0.01165,-0.0249
-12.7,-1.4496,0.02106,0.01148,-0.025
-12.6,-1.4358,0.0209,0.01131,-0.0251
-12.5,-1.4221,0.02074,0.01115,-0.0252
-12.4,-1.4083,0.02059,0.01098,-0.0253
-12.3,-1.3945,0.02045,0.01081,-0.0254
-12.2,-1.3807,0.02032,0.01064,-0.0255
-12.1,-1.367,0.02012,0.01049,-0.0256
-11.9,-1.3395,0.01979,0.01021,-0.0259
-11.8,-1.3258,0.01963,0.01006,-0.0261
-11.7,-1.312,0.01948,0.00991,-0.0262
-11.6,-1.2982,0.01934,0.00976,-0.0263
-11.5,-1.2844,0.0192,0.00961,-0.0264
-11.4,-1.2706,0.01907,0.00945,-0.0265
-11.3,-1.2567,0.0189,0.00931,-0.0266
-11.2,-1.243,0.01875,0.00916,-0.0268
-11.1,-1.2292,0.01859,0.00902,-0.0269
-11,-1.2155,0.01844,0.00889,-0.0271
-10.9,-1.2017,0.0183,0.00875,-0.0272
-10.8,-1.1879,0.01817,0.00863,-0.0274
-10.7,-1.1741,0.01804,0.00849,-0.0275
-10.6,-1.1602,0.01793,0.00835,-0.0276
-10.5,-1.1465,0.01778,0.00821,-0.0278
-10.4,-1.1327,0.01762,0.00809,-0.028
-10.3,-1.1189,0.01747,0.00796,-0.0281
-10.2,-1.1051,0.01733,0.00784,-0.0283
-10.1,-1.0913,0.0172,0.00771,-0.0284
-10,-1.0775,0.01707,0.00759,-0.0286
-9.9,-1.0636,0.01695,0.00746,-0.0287
-9.8,-1.0499,0.01684,0.00734,-0.0289
-9.7,-1.0361,0.01669,0.00722,-0.0291
-9.6,-1.0223,0.01654,0.00711,-0.0292
-9.5,-1.0085,0.01641,0.007,-0.0294
-9.4,-0.9947,0.01629,0.00688,-0.0296
-9.3,-0.9809,0.01617,0.00677,-0.0297
-9.2,-0.967,0.01606,0.00666,-0.0299
-9.1,-0.9532,0.01596,0.00654,-0.03
-9,-0.9394,0.01581,0.00642,-0.0302
-8.9,-0.9257,0.01566,0.00632,-0.0305
-8.8,-0.9119,0.01554,0.00622,-0.0306
-8.7,-0.8981,0.01543,0.00612,-0.0308
-8.6,-0.8843,0.01532,0.00601,-0.031
-8.5,-0.8704,0.01522,0.00591,-0.0311
-8.4,-0.8567,0.0151,0.00579,-0.0313
-8.3,-0.8429,0.01497,0.00569,-0.0315
-8.2,-0.8291,0.01484,0.0056,-0.0317
-8.1,-0.8153,0.01473,0.0055,-0.0319
-8,-0.8015,0.01462,0.00541,-0.0321
-7.9,-0.7877,0.01453,0.00532,-0.0323
-7.8,-0.7739,0.01441,0.00521,-0.0325
-7.7,-0.7601,0.01428,0.00512,-0.0327
-7.6,-0.7463,0.01417,0.00503,-0.0329
-7.5,-0.7325,0.01406,0.00494,-0.0331
-7.4,-0.7188,0.01396,0.00486,-0.0333
-7.3,-0.705,0.01387,0.00477,-0.0334
-7.2,-0.6912,0.01375,0.00467,-0.0337
-7.1,-0.6774,0.01363,0.00459,-0.0339
-7,-0.6636,0.01352,0.00451,-0.0341
-6.9,-0.6498,0.01343,0.00443,-0.0343
-6.8,-0.6361,0.01334,0.00435,-0.0345
-6.7,-0.6223,0.01326,0.00425,-0.0347
-6.6,-0.6085,0.01313,0.00417,-0.0349
-6.5,-0.5947,0.01302,0.0041,-0.0351
-6.4,-0.581,0.01291,0.00402,-0.0354
-6.3,-0.5672,0.01283,0.00395,-0.0356
-6.2,-0.5534,0.01275,0.00385,-0.0358
-6.1,-0.5396,0.01263,0.00378,-0.036
-6,-0.5259,0.01252,0.00372,-0.0362
-5.9,-0.5121,0.01243,0.00365,-0.0365
-5.8,-0.4983,0.01235,0.00357,-0.0367
-5.7,-0.4845,0.01227,0.0035,-0.0369
-5.6,-0.4708,0.01214,0.00343,-0.0371
-5.5,-0.457,0.01205,0.00336,-0.0374
-5.4,-0.4432,0.01196,0.00329,-0.0376
-5.3,-0.4295,0.01188,0.00323,-0.0378
-5.2,-0.4157,0.01181,0.00314,-0.038
-5.1,-0.4019,0.0117,0.00309,-0.0383
-5,-0.3882,0.0116,0.00302,-0.0385
-4.9,-0.3744,0.01151,0.00296,-0.0387
-4.8,-0.3606,0.01144,0.0029,-0.039
-4.5,-0.3124,0.01172,0.00312,-0.0407
-4.4,-0.3001,0.01179,0.00312,-0.0405
-4.3,-0.2875,0.01184,0.00311,-0.0404
-4.2,-0.276,0.01198,0.00315,-0.0402
-4.1,-0.2627,0.01197,0.00312,-0.0403
-4,-0.2495,0.01198,0.0031,-0.0404
-3.9,-0.2362,0.01198,0.00309,-0.0405
-3.8,-0.2228,0.01195,0.00305,-0.0407
-3.7,-0.2094,0.01194,0.00303,-0.0409
-3.6,-0.196,0.01193,0.00301,-0.041
-3.5,-0.1825,0.01191,0.00298,-0.0412
-3.4,-0.169,0.01187,0.00295,-0.0414
-3.3,-0.1558,0.01189,0.00295,-0.0416
-3.2,-0.1427,0.01193,0.00295,-0.0417
-3.1,-0.1292,0.01194,0.00293,-0.0419
-3,-0.1157,0.01191,0.00291,-0.0421
-2.9,-0.1021,0.01185,0.00288,-0.0423
-2.8,-0.0885,0.01183,0.00286,-0.0425
-2.7,-0.0749,0.01183,0.00285,-0.0427
-2.6,-0.0617,0.01185,0.00285,-0.0429
-2.5,-0.048,0.01181,0.00283,-0.0431
-2.4,-0.0344,0.01179,0.00282,-0.0433
-2.3,-0.0208,0.01179,0.0028,-0.0436
-2.2,-0.0077,0.01184,0.00281,-0.0437
-2.1,0.006,0.01178,0.0028,-0.044
-2,0.0195,0.01178,0.0028,-0.0442
-1.9,0.0331,0.01177,0.00278,-0.0444
-1.8,0.0466,0.01176,0.00278,-0.0446
-1.7,0.0601,0.01176,0.00278,-0.0448
-1.6,0.0738,0.01174,0.00277,-0.045
-1.5,0.0874,0.01169,0.00275,-0.0453
-1.4,0.1009,0.01168,0.00275,-0.0455
-1.3,0.1144,0.0117,0.00276,-0.0457
-1.2,0.1279,0.01172,0.00276,-0.0459
-1.1,0.1409,0.01177,0.00279,-0.0461
-1,0.1545,0.01177,0.0028,-0.0463
-0.9,0.1681,0.01175,0.00279,-0.0465
-0.8,0.1815,0.01175,0.0028,-0.0467
-0.7,0.1947,0.0118,0.00283,-0.0469
-0.6,0.2081,0.01184,0.00284,-0.0471
-0.5,0.2215,0.01186,0.00285,-0.0473
-0.4,0.2349,0.01187,0.00287,-0.0475
-0.3,0.2482,0.01189,0.00289,-0.0477
-0.2,0.2616,0.01192,0.00289,-0.0479
-0.1,0.2748,0.01196,0.00293,-0.0481
0,0.2882,0.01201,0.00295,-0.0483
0.1,0.301,0.01214,0.003,-0.0484
0.2,0.3141,0.01221,0.00303,-0.0486
0.3,0.3272,0.01229,0.00307,-0.0488
0.4,0.3402,0.01238,0.00312,-0.049
0.5,0.3531,0.01248,0.00316,-0.0491
0.6,0.3659,0.01262,0.00322,-0.0493
0.7,0.3787,0.01278,0.00328,-0.0495
0.8,0.3913,0.01295,0.00333,-0.0497
0.9,0.404,0.01311,0.0034,-0.0499
1,0.4168,0.01325,0.00346,-0.0501
1.1,0.4298,0.01336,0.00352,-0.0503
1.2,0.4428,0.01348,0.00359,-0.0505
1.3,0.456,0.01357,0.00364,-0.0508
1.4,0.4688,0.01373,0.0037,-0.051
1.5,0.4821,0.01379,0.00377,-0.0512
1.6,0.4953,0.01383,0.00381,-0.0514
1.7,0.5085,0.01388,0.00385,-0.0516
1.8,0.5217,0.01395,0.00391,-0.0517
1.9,0.5349,0.01403,0.00397,-0.0519
2,0.548,0.01412,0.00402,-0.0521
2.1,0.5611,0.0142,0.0041,-0.0523
2.2,0.5743,0.01422,0.00414,-0.0524
2.3,0.5875,0.01427,0.00419,-0.0526
2.4,0.6008,0.01434,0.00425,-0.0528
2.5,0.614,0.0144,0.0043,-0.0529
2.6,0.6272,0.01447,0.00437,-0.0531
2.7,0.6402,0.01458,0.00444,-0.0532
2.8,0.653,0.01464,0.0045,-0.0533
2.9,0.666,0.01474,0.00457,-0.0535
3,0.6791,0.01486,0.00466,-0.0536
3.1,0.6923,0.0149,0.00472,-0.0538
3.2,0.7055,0.01495,0.00478,-0.0539
3.3,0.7187,0.01502,0.00485,-0.054
3.4,0.7319,0.01509,0.00492,-0.0542
3.5,0.7446,0.01513,0.00498,-0.0542
3.6,0.7578,0.01521,0.00505,-0.0543
3.7,0.771,0.01531,0.00513,-0.0545
3.8,0.784,0.01539,0.0052,-0.0546
3.9,0.797,0.01549,0.00529,-0.0547
4.1,0.8223,0.01571,0.00545,-0.0548
4.2,0.8353,0.01581,0.00553,-0.0549
4.3,0.8485,0.01587,0.0056,-0.055
4.4,0.8617,0.01594,0.00568,-0.0551
4.5,0.8748,0.01601,0.00576,-0.0552
4.6,0.8877,0.01608,0.00584,-0.0553
4.7,0.9,0.01614,0.00591,-0.0552
4.8,0.913,0.01623,0.00599,-0.0553
4.9,0.9258,0.01632,0.00608,-0.0554
5,0.9387,0.01642,0.00616,-0.0554
5.1,0.9516,0.01652,0.00625,-0.0555
5.2,0.9645,0.01664,0.00634,-0.0556
5.3,0.9773,0.01675,0.00643,-0.0557
5.4,0.9889,0.01684,0.0065,-0.0555
5.5,1.0017,0.01698,0.00661,-0.0555
5.6,1.0142,0.01712,0.0067,-0.0555
5.7,1.027,0.01718,0.00678,-0.0556
5.8,1.0398,0.01721,0.00686,-0.0556
5.9,1.0526,0.0173,0.00695,-0.0556
6,1.0637,0.01733,0.007,-0.0552
6.1,1.0764,0.01742,0.00708,-0.0553
6.2,1.0889,0.01751,0.00717,-0.0552
6.3,1.1015,0.0176,0.00726,-0.0552
6.4,1.1142,0.01771,0.00735,-0.0552
6.5,1.1267,0.01781,0.00744,-0.0552
6.6,1.1384,0.01786,0.00747,-0.055
6.8,1.1664,0.01812,0.00766,-0.0556
6.9,1.1798,0.01828,0.00778,-0.0558
7,1.1931,0.01846,0.00791,-0.056
7.1,1.2064,0.01866,0.00806,-0.0562
7.2,1.2198,0.01876,0.00817,-0.0564
7.3,1.2332,0.01881,0.00826,-0.0565
7.4,1.2466,0.01892,0.00839,-0.0567
7.5,1.26,0.01905,0.00851,-0.0568
7.6,1.2733,0.01917,0.00864,-0.057
7.7,1.2867,0.0193,0.00877,-0.0572
7.8,1.3,0.01944,0.0089,-0.0573
7.9,1.3134,0.01957,0.00903,-0.0575
8,1.3267,0.01972,0.00916,-0.0577
8.1,1.34,0.01986,0.00929,-0.0578
8.2,1.3533,0.02001,0.00942,-0.058
8.3,1.3665,0.02017,0.00956,-0.0581
8.4,1.3798,0.02034,0.00969,-0.0583
8.5,1.3931,0.02052,0.00984,-0.0585
8.6,1.4063,0.02071,0.00999,-0.0586
8.7,1.4196,0.02092,0.01015,-0.0588
8.8,1.4329,0.02107,0.01029,-0.059
8.9,1.4461,0.02117,0.01043,-0.0591
9,1.4594,0.02128,0.01057,-0.0592
9.1,1.4726,0.02136,0.01069,-0.0593
9.2,1.4859,0.02149,0.01084,-0.0595
9.3,1.4991,0.02163,0.01099,-0.0596
9.4,1.5124,0.02178,0.01114,-0.0597
9.5,1.5256,0.02193,0.01128,-0.0599
9.6,1.5388,0.02208,0.01143,-0.06
9.7,1.552,0.02223,0.01158,-0.0601
9.8,1.5652,0.02239,0.01174,-0.0603
9.9,1.5784,0.02255,0.01189,-0.0604
10,1.5916,0.02272,0.01204,-0.0605
10.1,1.6047,0.0229,0.0122,-0.0606
10.2,1.6179,0.02309,0.01236,-0.0608
10.3,1.631,0.02329,0.01252,-0.0609
10.4,1.6442,0.0235,0.0127,-0.0611
10.5,1.6573,0.02374,0.01289,-0.0612
10.6,1.6704,0.02386,0.01304,-0.0613
10.7,1.6835,0.02398,0.01321,-0.0614
10.8,1.6965,0.02411,0.01338,-0.0615
10.9,1.7096,0.02425,0.01356,-0.0615
11,1.7226,0.02434,0.01369,-0.0616
11.1,1.7356,0.0245,0.01387,-0.0617
11.2,1.7486,0.02466,0.01404,-0.0618
11.3,1.7617,0.02482,0.01422,-0.0619
11.4,1.7747,0.02499,0.01439,-0.062
11.5,1.7877,0.02516,0.01456,-0.062
11.6,1.8007,0.02532,0.01474,-0.0621
11.7,1.8137,0.0255,0.01491,-0.0622
11.8,1.8267,0.02568,0.01508,-0.0623
11.9,1.8397,0.02586,0.01525,-0.0624
12,1.8526,0.02605,0.01543,-0.0625
12.1,1.8656,0.02626,0.01562,-0.0626
12.2,1.8786,0.02647,0.0158,-0.0627
12.3,1.8916,0.0267,0.016,-0.0628
12.4,1.9046,0.02695,0.01621,-0.0629
12.5,1.9174,0.02713,0.0164,-0.0629
12.6,1.9301,0.02725,0.0166,-0.0629
12.7,1.9428,0.0274,0.0168,-0.0629
12.8,1.9555,0.02756,0.01701,-0.063
12.9,1.9682,0.02773,0.01723,-0.063
13,1.9807,0.02783,0.01738,-0.063
13.1,1.9934,0.02801,0.01759,-0.063
13.2,2.0061,0.02819,0.01779,-0.0631
13.3,2.0188,0.02837,0.01799,-0.0631
13.4,2.0315,0.02855,0.01819,-0.0631
13.5,2.0441,0.02874,0.01839,-0.0631
13.6,2.0568,0.02893,0.01859,-0.0632
13.7,2.0695,0.02911,0.01879,-0.0632
13.8,2.0822,0.02931,0.01899,-0.0632
13.9,2.0948,0.02951,0.01919,-0.0633
14,2.1075,0.02971,0.01938,-0.0633
14.1,2.1201,0.02993,0.01959,-0.0633
14.2,2.1328,0.03015,0.01979,-0.0633
14.3,2.1456,0.03039,0.02001,-0.0634
14.4,2.1583,0.03065,0.02023,-0.0634
14.5,2.1711,0.03092,0.02047,-0.0635
14.6,2.183,0.03106,0.0207,-0.0634
14.7,2.195,0.03122,0.02095,-0.0633
14.8,2.207,0.0314,0.0212,-0.0633
14.9,2.219,0.03159,0.02145,-0.0632
15,2.2308,0.0317,0.02164,-0.0631
15.1,2.2429,0.0319,0.02189,-0.0631
15.2,2.255,0.03211,0.02213,-0.063
15.3,2.267,0.03231,0.02237,-0.063
15.4,2.2791,0.03252,0.02261,-0.0629
15.5,2.2913,0.03272,0.02285,-0.0629
15.6,2.3033,0.03293,0.02308,-0.0628
15.7,2.3154,0.03314,0.02331,-0.0628
15.8,2.3275,0.03335,0.02354,-0.0627
15.9,2.3395,0.03356,0.02377,-0.0627
16,2.3516,0.03378,0.02399,-0.0626
16.1,2.3636,0.03399,0.02422,-0.0626
16.2,2.3757,0.03422,0.02444,-0.0625
16.3,2.3879,0.03445,0.02467,-0.0625
16.4,2.4001,0.03469,0.0249,-0.0624
16.5,2.4124,0.03494,0.02514,-0.0624
16.6,2.4246,0.0352,0.02538,-0.0624
16.7,2.4369,0.03548,0.02564,-0.0624
16.8,2.4478,0.03569,0.02591,-0.0622
16.9,2.4582,0.03589,0.02623,-0.062
17,2.4688,0.0361,0.02654,-0.0619
17.1,2.4795,0.03633,0.02686,-0.0617
17.2,2.4897,0.03647,0.02711,-0.0615
17.3,2.5005,0.03671,0.02741,-0.0614
17.4,2.5113,0.03695,0.0277,-0.0612
17.5,2.5223,0.03718,0.028,-0.0611
17.6,2.5331,0.03742,0.02829,-0.061
17.7,2.544,0.03766,0.02857,-0.0608
17.8,2.5549,0.03789,0.02884,-0.0607
17.9,2.5657,0.03813,0.02911,-0.0606
18,2.5766,0.03836,0.02938,-0.0604
18.1,2.5875,0.0386,0.02964,-0.0603
18.2,2.5984,0.03883,0.02991,-0.0602
18.3,2.6092,0.03906,0.03016,-0.06
18.4,2.6201,0.0393,0.03042,-0.0599
18.5,2.6312,0.03953,0.03067,-0.0598
18.6,2.6422,0.03977,0.03092,-0.0596
18.7,2.6532,0.04001,0.03117,-0.0595
18.8,2.6643,0.04026,0.03142,-0.0594
18.9,2.6754,0.04052,0.03167,-0.0593
19,2.6867,0.04079,0.03193,-0.0592
19.1,2.698,0.04108,0.0322,-0.0591
19.2,2.7061,0.04134,0.03256,-0.0588
19.3,2.713,0.0416,0.03298,-0.0586
19.4,2.7202,0.04187,0.03339,-0.0583
19.5,2.7277,0.04216,0.03379,-0.0581
19.6,2.7354,0.04244,0.03418,-0.0579
19.7,2.7426,0.04264,0.0345,-0.0578
19.8,2.7506,0.04292,0.03486,-0.0577
19.9,2.7586,0.04319,0.03521,-0.0575
20,2.7666,0.04346,0.03555,-0.0574
20.1,2.7747,0.04373,0.03587,-0.0573
20.2,2.7828,0.04399,0.03619,-0.0572
20.3,2.791,0.04424,0.0365,-0.0571
20.4,2.7992,0.04449,0.0368,-0.057
20.5,2.8074,0.04474,0.03709,-0.0569
20.6,2.8155,0.04497,0.03737,-0.0568
20.7,2.8238,0.04521,0.03764,-0.0567
20.8,2.8321,0.04543,0.03791,-0.0567
20.9,2.8404,0.04566,0.03817,-0.0566
21,2.8492,0.04588,0.03842,-0.0567
21.1,2.8576,0.0461,0.03867,-0.0567
21.2,2.8661,0.04631,0.0389,-0.0567
21.3,2.8746,0.04653,0.03914,-0.0566
21.4,2.8833,0.04674,0.03936,-0.0566
21.5,2.8923,0.04696,0.03959,-0.0566
21.6,2.9014,0.04719,0.03981,-0.0566
21.7,2.9107,0.04743,0.04004,-0.0565
21.8,2.91,0.04767,0.04048,-0.0573
21.9,2.908,0.0479,0.04093,-0.0584
22,2.9086,0.04816,0.04139,-0.06
22.1,2.9135,0.04845,0.04187,-0.0625
22.2,2.9219,0.0487,0.04233,-0.0662
22.3,2.9324,0.04902,0.0428,-0.0692
22.4,2.9444,0.04937,0.04328,-0.0725
22.5,2.9562,0.04974,0.04377,-0.0756
22.6,2.968,0.05013,0.04427,-0.0787
22.7,2.9793,0.05055,0.04479,-0.0818
22.8,2.9903,0.05097,0.0453,-0.0848
22.9,3.0008,0.0514,0.04582,-0.0877
23,3.011,0.05184,0.04633,-0.0906
23.1,3.0208,0.05227,0.04683,-0.0933
23.2,3.0303,0.05269,0.0473,-0.0959
23.3,3.0396,0.0531,0.04775,-0.0983
23.4,3.0488,0.05348,0.04816,-0.1005
23.5,3.0578,0.05383,0.04854,-0.1024
23.6,3.0679,0.05414,0.04886,-0.1041
23.7,3.0772,0.0544,0.04913,-0.1053

