airfoilName st3.dat
Re 	9.700000e+05
M 	2.500000e-01
N 	4.500000e+00
VACC 	0 VACCflag 1
XTR 	1.00 	1.00 XTRflag 0
alpha,cl,cd,cdp,cm
-28.6,-3.0949,0.15621,0.15386,0.2459
-28.5,-3.0928,0.15375,0.15139,0.243
-28.4,-3.0904,0.1514,0.14905,0.2402
-28.3,-3.0887,0.1488,0.14644,0.237
-28.2,-3.0885,0.14572,0.14333,0.2331
-28.1,-3.0871,0.14306,0.14066,0.2298
-28,-3.0854,0.14048,0.13807,0.2266
-27.9,-3.0839,0.13784,0.13541,0.2233
-27.8,-3.0832,0.13497,0.13251,0.2195
-27.7,-3.0849,0.13141,0.1289,0.2148
-27.6,-3.084,0.12863,0.12609,0.2111
-27.5,-3.0829,0.12591,0.12333,0.2074
-27.4,-3.0825,0.12302,0.1204,0.2035
-27.3,-3.0845,0.11944,0.11676,0.1984
-27.2,-3.0837,0.11668,0.11396,0.1945
-27.1,-3.0826,0.114,0.11124,0.1907
-27,-3.0822,0.11113,0.10831,0.1865
-26.9,-3.0846,0.10754,0.10463,0.1811
-26.8,-3.0828,0.10496,0.10199,0.1772
-26.7,-3.0819,0.10223,0.09922,0.173
-26.6,-3.0842,0.09864,0.09559,0.1671
-26.5,-3.0836,0.09585,0.09276,0.1625
-26.4,-3.0835,0.09298,0.08985,0.1577
-26.3,-3.0865,0.08932,0.08613,0.1511
-26.2,-3.0862,0.08658,0.08334,0.1461
-26.1,-3.0895,0.08301,0.07969,0.1391
-26,-3.0902,0.08016,0.07678,0.1332
-25.9,-3.0945,0.07653,0.07306,0.1252
-25.8,-3.0958,0.07372,0.07016,0.1185
-25.7,-3.1007,0.07018,0.06651,0.1094
-25.6,-3.1063,0.06653,0.06273,0.0992
-25.5,-3.1117,0.06277,0.05883,0.0881
-25.4,-3.1176,0.05859,0.05447,0.0754
-25.3,-3.1259,0.05355,0.04921,0.0599
-25.2,-3.1342,0.04789,0.04326,0.0416
-25.1,-3.1333,0.04353,0.03864,0.0263
-25,-3.1243,0.04095,0.03587,0.0164
-24.9,-3.1116,0.03934,0.03412,0.0098
-24.8,-3.0974,0.03821,0.03287,0.0049
-24.7,-3.0816,0.03708,0.03164,-0.0005
-24.6,-3.0655,0.03631,0.03079,-0.0042
-24.5,-3.0491,0.03569,0.0301,-0.0073
-24.4,-3.0325,0.03518,0.02952,-0.0099
-24.3,-3.016,0.03474,0.02903,-0.0122
-24.2,-2.9996,0.03436,0.02859,-0.0143
-24.1,-2.9833,0.03401,0.02819,-0.0161
-24,-2.967,0.0337,0.02783,-0.0178
-23.9,-2.9507,0.03341,0.02749,-0.0193
-23.8,-2.9346,0.03314,0.02718,-0.0208
-23.7,-2.9187,0.03289,0.02688,-0.0221
-23.6,-2.9029,0.03265,0.0266,-0.0233
-23.5,-2.8873,0.03242,0.02633,-0.0244
-23.4,-2.8719,0.03221,0.02607,-0.0255
-23.3,-2.8568,0.032,0.02582,-0.0264
-23.2,-2.8421,0.0318,0.02558,-0.0273
-23.1,-2.8279,0.03161,0.02535,-0.028
-23,-2.8142,0.03142,0.02512,-0.0287
-22.9,-2.8013,0.03124,0.0249,-0.0292
-22.8,-2.7893,0.03107,0.02469,-0.0295
-22.7,-2.7778,0.03092,0.02449,-0.0296
-22.6,-2.7662,0.03072,0.02426,-0.0299
-22.5,-2.7548,0.03051,0.02402,-0.0301
-22.4,-2.7434,0.0303,0.02378,-0.0302
-22.3,-2.7323,0.03008,0.02355,-0.0303
-22.2,-2.7207,0.02988,0.02332,-0.0303
-22.1,-2.7091,0.02968,0.0231,-0.0303
-22,-2.6974,0.02948,0.02287,-0.0303
-21.9,-2.6855,0.02929,0.02265,-0.0302
-21.8,-2.6737,0.02909,0.02242,-0.0302
-21.7,-2.6617,0.02889,0.0222,-0.0301
-21.6,-2.6496,0.0287,0.02198,-0.03
-21.5,-2.6374,0.02851,0.02176,-0.0299
-21.4,-2.6252,0.02832,0.02155,-0.0297
-21.3,-2.6128,0.02813,0.02133,-0.0296
-21.2,-2.6005,0.02795,0.02112,-0.0295
-21.1,-2.588,0.02776,0.02091,-0.0293
-21,-2.5755,0.02758,0.02071,-0.0292
-20.9,-2.5629,0.0274,0.0205,-0.029
-20.8,-2.5503,0.02723,0.0203,-0.0289
-20.7,-2.5375,0.02706,0.0201,-0.0287
-20.6,-2.5248,0.02688,0.01989,-0.0285
-20.5,-2.5123,0.02667,0.01967,-0.0284
-20.4,-2.4997,0.02647,0.01945,-0.0283
-20.3,-2.4871,0.02627,0.01923,-0.0282
-20.2,-2.4744,0.02608,0.01902,-0.028
-20.1,-2.4615,0.02589,0.01882,-0.0279
-20,-2.4486,0.0257,0.01862,-0.0278
-19.9,-2.4357,0.02552,0.01842,-0.0276
-19.8,-2.4227,0.02534,0.01823,-0.0275
-19.7,-2.4096,0.02516,0.01803,-0.0274
-19.6,-2.3964,0.02499,0.01784,-0.0272
-19.5,-2.3833,0.02481,0.01766,-0.0271
-19.4,-2.37,0.02464,0.01747,-0.0269
-19.3,-2.3568,0.02448,0.0173,-0.0268
-19.2,-2.3435,0.02432,0.01712,-0.0267
-19.1,-2.3302,0.02416,0.01694,-0.0266
-19,-2.3168,0.02401,0.01677,-0.0264
-18.9,-2.3033,0.02386,0.0166,-0.0263
-18.8,-2.29,0.02368,0.01641,-0.0262
-18.7,-2.2768,0.0235,0.01621,-0.0261
-18.6,-2.2634,0.02332,0.01602,-0.026
-18.5,-2.25,0.02314,0.01584,-0.0259
-18.4,-2.2366,0.02297,0.01566,-0.0258
-18.3,-2.223,0.0228,0.01549,-0.0257
-18.2,-2.2095,0.02263,0.01532,-0.0257
-18.1,-2.196,0.02247,0.01515,-0.0256
-18,-2.1824,0.02232,0.01499,-0.0255
-17.9,-2.1688,0.02216,0.01482,-0.0254
-17.8,-2.1552,0.02201,0.01466,-0.0253
-17.7,-2.1415,0.02186,0.0145,-0.0252
-17.6,-2.1278,0.02172,0.01435,-0.0252
-17.5,-2.1141,0.02157,0.01419,-0.0251
-17.4,-2.1004,0.02143,0.01404,-0.025
-17.3,-2.0867,0.0213,0.01389,-0.025
-17.2,-2.073,0.02116,0.01374,-0.0249
-17.1,-2.0594,0.02099,0.01357,-0.0249
-17,-2.0456,0.02083,0.0134,-0.0248
-16.9,-2.032,0.02065,0.01324,-0.0248
-16.8,-2.0182,0.0205,0.01309,-0.0248
-16.7,-2.0044,0.02035,0.01294,-0.0247
-16.6,-1.9907,0.0202,0.01279,-0.0247
-16.5,-1.9769,0.02006,0.01265,-0.0247
-16.4,-1.963,0.01992,0.0125,-0.0247
-16.3,-1.9492,0.01979,0.01236,-0.0246
-16.2,-1.9354,0.01965,0.01222,-0.0246
-16.1,-1.9215,0.01953,0.01209,-0.0246
-16,-1.9076,0.0194,0.01196,-0.0246
-15.9,-1.8938,0.01928,0.01183,-0.0245
-15.8,-1.8799,0.01915,0.01168,-0.0245
-15.7,-1.8661,0.01899,0.01153,-0.0246
-15.6,-1.8523,0.01882,0.01139,-0.0246
-15.5,-1.8384,0.01868,0.01125,-0.0246
-15.4,-1.8245,0.01854,0.01111,-0.0246
-15.3,-1.8106,0.01841,0.01098,-0.0246
-15.2,-1.7967,0.01828,0.01085,-0.0246
-15.1,-1.7828,0.01815,0.01073,-0.0247
-15,-1.7689,0.01803,0.0106,-0.0247
-14.9,-1.755,0.01791,0.01048,-0.0247
-14.8,-1.741,0.01779,0.01036,-0.0247
-14.7,-1.7271,0.01767,0.01024,-0.0247
-14.6,-1.7132,0.01756,0.01013,-0.0248
-14.5,-1.6993,0.01742,0.00999,-0.0248
-14.4,-1.6853,0.01728,0.00986,-0.0249
-14.3,-1.6714,0.01715,0.00974,-0.0249
-14.2,-1.6575,0.01702,0.00961,-0.025
-14.1,-1.6436,0.01689,0.0095,-0.025
-14,-1.6296,0.01677,0.00938,-0.0251
-13.9,-1.6157,0.01665,0.00927,-0.0251
-13.8,-1.6017,0.01654,0.00915,-0.0252
-13.7,-1.5878,0.01642,0.00904,-0.0253
-13.6,-1.5739,0.01631,0.00894,-0.0253
-13.5,-1.5599,0.01621,0.00884,-0.0254
-13.4,-1.546,0.01609,0.00872,-0.0255
-13.3,-1.532,0.01596,0.0086,-0.0255
-13.2,-1.5181,0.01583,0.00849,-0.0256
-13.1,-1.5041,0.01571,0.00838,-0.0257
-13,-1.4902,0.01559,0.00827,-0.0258
-12.9,-1.4762,0.01548,0.00817,-0.0259
-12.8,-1.4623,0.01537,0.00806,-0.026
-12.7,-1.4483,0.01526,0.00797,-0.026
-12.6,-1.4344,0.01516,0.00787,-0.0261
-12.5,-1.4204,0.01506,0.00777,-0.0262
-12.4,-1.4065,0.01496,0.00767,-0.0263
-12.3,-1.3926,0.01483,0.00756,-0.0264
-12.2,-1.3786,0.01471,0.00746,-0.0265
-12.1,-1.3647,0.0146,0.00736,-0.0267
-12,-1.3507,0.01449,0.00726,-0.0268
-11.9,-1.3368,0.01438,0.00717,-0.0269
-11.8,-1.3229,0.01428,0.00708,-0.027
-11.7,-1.3089,0.01419,0.00699,-0.0271
-11.6,-1.295,0.01409,0.0069,-0.0272
-11.5,-1.281,0.014,0.00682,-0.0273
-11.4,-1.2671,0.01391,0.00672,-0.0274
-11.3,-1.2532,0.01377,0.00662,-0.0276
-11.2,-1.2392,0.01366,0.00653,-0.0277
-11.1,-1.2253,0.01356,0.00644,-0.0278
-11,-1.2114,0.01346,0.00636,-0.028
-10.9,-1.1974,0.01337,0.00628,-0.0281
-10.8,-1.1835,0.01328,0.00619,-0.0282
-10.7,-1.1696,0.01319,0.00612,-0.0284
-10.6,-1.1557,0.0131,0.00604,-0.0285
-10.5,-1.1418,0.01301,0.00595,-0.0286
-10.4,-1.1278,0.0129,0.00586,-0.0288
-10.3,-1.1139,0.0128,0.00578,-0.0289
-10.2,-1.1,0.01268,0.0057,-0.0291
-10.1,-1.0861,0.0126,0.00562,-0.0292
-10,-1.0722,0.01251,0.00555,-0.0294
-9.8,-1.0475,0.01287,0.00559,-0.0288
-9.6,-1.0206,0.01279,0.00545,-0.0289
-9.5,-1.0076,0.01283,0.00539,-0.0289
-9.4,-0.9939,0.01277,0.00533,-0.029
-9.3,-0.9801,0.01271,0.00526,-0.0292
-9.2,-0.9664,0.01267,0.0052,-0.0293
-9.1,-0.9526,0.01261,0.00514,-0.0295
-9,-0.9388,0.01256,0.00508,-0.0296
-8.9,-0.9251,0.01251,0.00501,-0.0298
-8.8,-0.9113,0.01244,0.00495,-0.0299
-8.7,-0.8974,0.01237,0.00489,-0.0301
-8.6,-0.8836,0.01231,0.00483,-0.0303
-8.5,-0.8698,0.01225,0.00477,-0.0304
-8.4,-0.856,0.01221,0.00472,-0.0306
-8.3,-0.8422,0.01216,0.00467,-0.0308
-8.2,-0.8284,0.01211,0.00462,-0.0309
-8.1,-0.8145,0.01202,0.00454,-0.0311
-7.9,-0.787,0.01192,0.00445,-0.0315
-7.8,-0.7732,0.01187,0.00439,-0.0317
-7.7,-0.7594,0.01182,0.00435,-0.0319
-7.6,-0.7456,0.01177,0.0043,-0.032
-7.5,-0.7318,0.01172,0.00425,-0.0322
-7.4,-0.7179,0.01166,0.00419,-0.0324
-7.3,-0.7043,0.01163,0.00415,-0.0326
-7.2,-0.6905,0.01158,0.00411,-0.0328
-7.1,-0.6767,0.01153,0.00406,-0.033
-7,-0.663,0.01149,0.00402,-0.0332
-6.9,-0.6492,0.01145,0.00398,-0.0334
-6.8,-0.6353,0.01139,0.00393,-0.0336
-6.7,-0.6216,0.01135,0.00389,-0.0338
-6.6,-0.6078,0.01129,0.00385,-0.034
-6.5,-0.594,0.01124,0.00381,-0.0342
-6.4,-0.5802,0.0112,0.00377,-0.0344
-6.3,-0.5664,0.01115,0.00373,-0.0346
-6.2,-0.5527,0.01113,0.00369,-0.0348
-6.1,-0.539,0.0111,0.00366,-0.035
-6,-0.5252,0.01105,0.00362,-0.0352
-5.9,-0.5114,0.01101,0.00359,-0.0354
-5.8,-0.4977,0.01097,0.00356,-0.0356
-5.7,-0.4839,0.01094,0.00353,-0.0358
-5.6,-0.4701,0.01087,0.00348,-0.0361
-5.5,-0.4563,0.01081,0.00345,-0.0363
-5.4,-0.4425,0.01077,0.00341,-0.0365
-5.3,-0.4287,0.01073,0.00338,-0.0367
-5.2,-0.4149,0.01069,0.00335,-0.0369
-5.1,-0.4013,0.0107,0.00333,-0.0371
-5,-0.3875,0.01066,0.0033,-0.0374
-4.9,-0.3737,0.01058,0.00327,-0.0376
-4.8,-0.3599,0.01055,0.00324,-0.0378
-4.7,-0.3462,0.01051,0.00321,-0.0381
-4.6,-0.3324,0.01049,0.00319,-0.0383
-4.5,-0.3186,0.01046,0.00316,-0.0385
-4.4,-0.3049,0.01041,0.00313,-0.0387
-4.3,-0.2912,0.01039,0.00311,-0.039
-4.2,-0.2776,0.01039,0.0031,-0.0392
-4.1,-0.2638,0.01037,0.00308,-0.0394
-4,-0.2501,0.01034,0.00305,-0.0396
-3.9,-0.2364,0.01031,0.00303,-0.0399
-3.8,-0.2226,0.01027,0.00301,-0.0401
-3.7,-0.2089,0.01025,0.00299,-0.0403
-3.6,-0.1951,0.01023,0.00298,-0.0406
-3.5,-0.1815,0.01022,0.00296,-0.0408
-3.4,-0.1677,0.01018,0.00293,-0.041
-3.3,-0.154,0.01016,0.00292,-0.0413
-3.2,-0.1404,0.01016,0.00291,-0.0415
-3.1,-0.1267,0.01016,0.0029,-0.0417
-3,-0.1132,0.01019,0.0029,-0.0419
-2.9,-0.0995,0.01017,0.00289,-0.0422
-2.8,-0.0858,0.01017,0.00288,-0.0424
-2.7,-0.0721,0.01016,0.00287,-0.0427
-2.6,-0.0584,0.01015,0.00286,-0.0429
-2.5,-0.0448,0.01016,0.00285,-0.0432
-2.4,-0.0312,0.01015,0.00285,-0.0434
-2.3,-0.0175,0.01015,0.00285,-0.0436
-2.2,-0.0041,0.0102,0.00286,-0.0439
-2.1,0.0095,0.01022,0.00286,-0.0441
-2,0.0231,0.01023,0.00286,-0.0444
-1.9,0.0367,0.01025,0.00286,-0.0446
-1.8,0.0499,0.01036,0.00289,-0.0449
-1.7,0.0634,0.01042,0.00291,-0.0451
-1.6,0.0767,0.01051,0.00293,-0.0453
-1.5,0.0901,0.0106,0.00295,-0.0456
-1.3,0.1157,0.01107,0.00311,-0.0462
-1.2,0.1291,0.01116,0.00313,-0.0464
-1.1,0.1427,0.01118,0.00315,-0.0467
-1,0.1563,0.0112,0.00316,-0.0469
-0.9,0.1699,0.01122,0.00317,-0.0472
-0.8,0.1835,0.01125,0.00318,-0.0474
-0.7,0.197,0.01129,0.00321,-0.0476
-0.6,0.2107,0.01127,0.00321,-0.0479
-0.5,0.2243,0.0113,0.00322,-0.0482
-0.4,0.238,0.01132,0.00324,-0.0484
-0.3,0.2516,0.01134,0.00325,-0.0487
-0.2,0.2652,0.01137,0.00326,-0.0489
-0.1,0.2788,0.01138,0.00328,-0.0492
0,0.2924,0.01141,0.0033,-0.0494
0.1,0.3061,0.01141,0.00332,-0.0497
0.2,0.3197,0.01143,0.00333,-0.0499
0.3,0.3334,0.01143,0.00334,-0.0502
0.4,0.347,0.01144,0.00336,-0.0504
0.5,0.3607,0.01146,0.00337,-0.0506
0.6,0.3743,0.01149,0.00339,-0.0509
0.7,0.388,0.01149,0.0034,-0.0512
0.8,0.4015,0.01153,0.00343,-0.0514
0.9,0.4151,0.01157,0.00345,-0.0517
1,0.4287,0.0116,0.00347,-0.0519
1.1,0.4423,0.01163,0.0035,-0.0521
1.2,0.456,0.01164,0.00352,-0.0524
1.3,0.4697,0.01163,0.00354,-0.0527
1.4,0.4833,0.01166,0.00356,-0.0529
1.5,0.4969,0.01169,0.00358,-0.0531
1.6,0.5106,0.01171,0.0036,-0.0534
1.7,0.5242,0.01173,0.00363,-0.0536
1.8,0.5378,0.01177,0.00365,-0.0539
1.9,0.5514,0.01181,0.00368,-0.0541
2,0.5651,0.01182,0.0037,-0.0544
2.1,0.5786,0.01186,0.00373,-0.0546
2.2,0.5922,0.01191,0.00377,-0.0549
2.3,0.6058,0.01194,0.0038,-0.0551
2.4,0.6194,0.01197,0.00383,-0.0553
2.5,0.6331,0.01199,0.00385,-0.0556
2.6,0.6468,0.012,0.00388,-0.0558
2.7,0.6604,0.01204,0.00391,-0.0561
2.8,0.674,0.01208,0.00394,-0.0563
2.9,0.6876,0.01211,0.00398,-0.0565
3,0.7012,0.01215,0.00401,-0.0568
3.1,0.7148,0.01219,0.00405,-0.057
3.2,0.7284,0.01224,0.00408,-0.0572
3.3,0.742,0.01226,0.00412,-0.0575
3.4,0.7556,0.01231,0.00416,-0.0577
3.5,0.7692,0.01237,0.0042,-0.0579
3.6,0.7827,0.01242,0.00425,-0.0582
3.7,0.7964,0.01246,0.00428,-0.0584
3.8,0.81,0.01249,0.00432,-0.0586
3.9,0.8237,0.01251,0.00435,-0.0589
4,0.8373,0.01255,0.0044,-0.0591
4.1,0.8509,0.0126,0.00443,-0.0593
4.2,0.8645,0.01264,0.00448,-0.0595
4.3,0.8781,0.01269,0.00452,-0.0598
4.4,0.8917,0.01274,0.00457,-0.06
4.5,0.9053,0.0128,0.00461,-0.0602
4.6,0.9189,0.01283,0.00466,-0.0604
4.7,0.9325,0.01289,0.00471,-0.0607
4.8,0.9461,0.01296,0.00476,-0.0609
4.9,0.9596,0.01303,0.00481,-0.0611
5,0.9732,0.0131,0.00486,-0.0613
5.1,0.9868,0.01314,0.00492,-0.0615
5.2,1.0005,0.01316,0.00497,-0.0618
5.3,1.0141,0.01321,0.00502,-0.062
5.4,1.0277,0.01327,0.00507,-0.0622
5.5,1.0413,0.01332,0.00512,-0.0624
5.6,1.0549,0.01337,0.00517,-0.0626
5.7,1.0684,0.01343,0.00523,-0.0628
5.8,1.082,0.01349,0.00528,-0.063
5.9,1.0957,0.01354,0.00534,-0.0632
6,1.1092,0.0136,0.0054,-0.0634
6.1,1.1228,0.01367,0.00546,-0.0636
6.2,1.1363,0.01374,0.00552,-0.0638
6.3,1.1499,0.01383,0.00559,-0.064
6.4,1.1634,0.0139,0.00565,-0.0642
6.5,1.177,0.01398,0.00572,-0.0644
6.6,1.1905,0.01404,0.00579,-0.0646
6.7,1.2041,0.0141,0.00585,-0.0648
6.8,1.2177,0.01416,0.00591,-0.065
6.9,1.2313,0.01422,0.00598,-0.0651
7,1.2449,0.01428,0.00604,-0.0653
7.1,1.2585,0.01435,0.00611,-0.0655
7.2,1.272,0.01442,0.00617,-0.0657
7.3,1.2856,0.01449,0.00624,-0.0659
7.4,1.2991,0.01456,0.00631,-0.066
7.5,1.3127,0.01464,0.00638,-0.0662
7.6,1.3262,0.01471,0.00645,-0.0664
7.7,1.3397,0.01479,0.00652,-0.0666
7.8,1.3533,0.01489,0.0066,-0.0667
7.9,1.3668,0.01498,0.00667,-0.0669
8,1.3803,0.01506,0.00675,-0.0671
8.1,1.3938,0.01516,0.00683,-0.0672
8.2,1.4073,0.01524,0.00691,-0.0674
8.3,1.4208,0.01534,0.007,-0.0676
8.4,1.4343,0.0154,0.00707,-0.0677
8.5,1.4479,0.01548,0.00714,-0.0679
8.6,1.4615,0.01555,0.00722,-0.068
8.7,1.475,0.01562,0.0073,-0.0682
8.8,1.4886,0.01571,0.00738,-0.0683
8.9,1.5021,0.01579,0.00746,-0.0685
9,1.5157,0.01587,0.00754,-0.0686
9.1,1.5292,0.01596,0.00762,-0.0688
9.2,1.5427,0.01605,0.0077,-0.0689
9.3,1.5562,0.01614,0.00778,-0.069
9.4,1.5697,0.01623,0.00786,-0.0692
9.5,1.5832,0.01632,0.00795,-0.0693
9.6,1.5967,0.01642,0.00804,-0.0695
9.7,1.6102,0.01652,0.00813,-0.0696
9.8,1.6237,0.01663,0.00822,-0.0697
9.9,1.6371,0.01673,0.00831,-0.0699
10,1.6505,0.01682,0.00841,-0.07
10.1,1.6639,0.01694,0.00851,-0.0701
10.2,1.6774,0.01701,0.0086,-0.0702
10.3,1.691,0.01709,0.00869,-0.0703
10.4,1.7045,0.01718,0.00878,-0.0705
10.5,1.718,0.01727,0.00887,-0.0706
10.6,1.7316,0.01736,0.00896,-0.0707
10.7,1.7451,0.01746,0.00906,-0.0708
10.8,1.7586,0.01755,0.00915,-0.0709
10.9,1.7721,0.01765,0.00924,-0.071
11,1.7855,0.01774,0.00934,-0.0711
11.1,1.799,0.01784,0.00944,-0.0712
11.2,1.8124,0.01794,0.00953,-0.0713
11.3,1.8258,0.01804,0.00963,-0.0714
11.4,1.8393,0.01815,0.00973,-0.0715
11.5,1.8527,0.01826,0.00983,-0.0716
11.6,1.8661,0.01837,0.00994,-0.0717
11.7,1.8796,0.01849,0.01004,-0.0718
11.8,1.8928,0.01859,0.01015,-0.0718
11.9,1.9061,0.0187,0.01026,-0.0719
12,1.9194,0.01882,0.01037,-0.072
12.1,1.9328,0.01895,0.0105,-0.0721
12.2,1.9463,0.01904,0.01059,-0.0721
12.3,1.9597,0.01912,0.01069,-0.0722
12.4,1.9732,0.01922,0.0108,-0.0723
12.5,1.9865,0.01931,0.0109,-0.0723
12.6,2,0.01942,0.01101,-0.0724
12.7,2.0134,0.01952,0.01112,-0.0724
12.8,2.0268,0.01963,0.01123,-0.0725
12.9,2.0402,0.01973,0.01134,-0.0725
13,2.0536,0.01984,0.01145,-0.0726
13.1,2.0669,0.01995,0.01156,-0.0726
13.2,2.0803,0.02006,0.01167,-0.0727
13.3,2.0935,0.02016,0.01179,-0.0727
13.4,2.1067,0.02028,0.0119,-0.0727
13.5,2.1201,0.0204,0.01201,-0.0727
13.6,2.1333,0.02052,0.01213,-0.0728
13.7,2.1466,0.02064,0.01225,-0.0728
13.8,2.1598,0.02076,0.01237,-0.0728
13.9,2.1729,0.02087,0.01249,-0.0728
14,2.1861,0.02101,0.01262,-0.0728
14.1,2.1992,0.02114,0.01275,-0.0728
14.2,2.2121,0.02127,0.01289,-0.0728
14.3,2.2253,0.02138,0.01301,-0.0728
14.4,2.2387,0.02147,0.01312,-0.0728
14.5,2.252,0.02158,0.01324,-0.0728
14.6,2.2652,0.02168,0.01336,-0.0727
14.7,2.2785,0.02179,0.01348,-0.0727
14.8,2.2917,0.02191,0.0136,-0.0727
14.9,2.305,0.02202,0.01373,-0.0727
15,2.3178,0.02212,0.01385,-0.0726
15.1,2.3309,0.02224,0.01398,-0.0725
15.2,2.344,0.02236,0.01411,-0.0725
15.3,2.3571,0.02248,0.01423,-0.0725
15.4,2.3702,0.0226,0.01436,-0.0724
15.5,2.3833,0.02272,0.01449,-0.0724
15.6,2.3963,0.02284,0.01461,-0.0723
15.7,2.409,0.02296,0.01474,-0.0722
15.8,2.4219,0.02308,0.01487,-0.0721
15.9,2.4347,0.02321,0.015,-0.072
16.1,2.4601,0.02346,0.01527,-0.0718
16.2,2.4729,0.0236,0.01541,-0.0717
16.3,2.4857,0.02374,0.01556,-0.0716
16.4,2.4984,0.02389,0.01571,-0.0715
16.5,2.5107,0.02404,0.01586,-0.0713
16.6,2.5236,0.02414,0.01599,-0.0712
16.7,2.5364,0.02424,0.01612,-0.071
16.8,2.5491,0.02435,0.01625,-0.0709
16.9,2.5619,0.02446,0.01639,-0.0707
17,2.5744,0.02457,0.01652,-0.0705
17.1,2.5871,0.02468,0.01666,-0.0704
17.2,2.5998,0.0248,0.0168,-0.0702
17.3,2.6116,0.02491,0.01693,-0.0699
17.4,2.6241,0.02504,0.01706,-0.0697
17.5,2.6366,0.02516,0.0172,-0.0695
17.6,2.6491,0.02529,0.01735,-0.0693
17.7,2.6617,0.02542,0.01749,-0.0691
17.8,2.6742,0.02555,0.01764,-0.0689
17.9,2.6866,0.02568,0.01778,-0.0687
18,2.6978,0.02577,0.0179,-0.0683
18.1,2.7098,0.0259,0.01804,-0.068
18.3,2.732,0.02608,0.01827,-0.0672
18.6,2.7699,0.02654,0.01874,-0.0668
18.7,2.7821,0.02669,0.0189,-0.0666
18.8,2.7944,0.02686,0.01907,-0.0664
18.9,2.8065,0.02703,0.01925,-0.0662
19,2.8187,0.02719,0.01943,-0.066
19.1,2.8315,0.02732,0.01958,-0.0658
19.2,2.8439,0.02744,0.01974,-0.0656
19.3,2.8562,0.02757,0.0199,-0.0654
19.4,2.8685,0.02771,0.02006,-0.0651
19.5,2.8807,0.02784,0.02022,-0.0649
19.6,2.8929,0.02798,0.02039,-0.0647
19.7,2.905,0.02812,0.02055,-0.0644
19.8,2.9169,0.02826,0.02072,-0.0641
19.9,2.9288,0.0284,0.02089,-0.0638
20.5,2.9999,0.02931,0.02193,-0.0622
20.6,3.0117,0.02947,0.0221,-0.0619
20.7,3.0232,0.02963,0.02228,-0.0616
20.8,3.0346,0.02979,0.02246,-0.0613
20.9,3.0458,0.02995,0.02264,-0.0609
21,3.057,0.03011,0.02282,-0.0606
21.1,3.0678,0.03027,0.02298,-0.0602
21.2,3.0786,0.03044,0.02317,-0.0599
21.3,3.0903,0.03062,0.02336,-0.0597
21.4,3.1011,0.0308,0.02356,-0.0593
21.5,3.1117,0.03099,0.02376,-0.0589
21.6,3.1222,0.03118,0.02397,-0.0586
21.7,3.1329,0.03134,0.02416,-0.0582
21.8,3.1437,0.03148,0.02435,-0.0578
21.9,3.1544,0.03163,0.02453,-0.0574
22,3.1648,0.03178,0.02472,-0.0569
22.1,3.1753,0.03193,0.02492,-0.0565
22.2,3.1856,0.03209,0.02511,-0.0561
22.3,3.1957,0.03224,0.02531,-0.0556
22.4,3.2055,0.0324,0.0255,-0.0551
22.5,3.2168,0.03257,0.0257,-0.0549
22.6,3.2266,0.03273,0.0259,-0.0545
22.7,3.2362,0.0329,0.0261,-0.054
22.8,3.2457,0.03306,0.0263,-0.0536
22.9,3.255,0.03323,0.02651,-0.0531
23,3.2642,0.0334,0.02671,-0.0526
23.1,3.2732,0.03356,0.02691,-0.0521
23.2,3.2819,0.03373,0.02711,-0.0516
23.3,3.2905,0.0339,0.02732,-0.0511
23.4,3.299,0.03407,0.02752,-0.0506
23.5,3.3072,0.03424,0.02772,-0.0501
23.6,3.3151,0.03441,0.02793,-0.0496
23.7,3.3226,0.03458,0.02813,-0.049
23.8,3.332,0.03476,0.02834,-0.0488
23.9,3.3393,0.03493,0.02854,-0.0483
24,3.346,0.0351,0.02874,-0.0477
24.1,3.3516,0.03526,0.02891,-0.0472
24.2,3.3577,0.03542,0.02911,-0.0466
24.3,3.3634,0.03559,0.02931,-0.0461
24.4,3.3687,0.03576,0.02951,-0.0456
24.5,3.3738,0.03594,0.02972,-0.0451
24.6,3.3779,0.0361,0.02991,-0.0446
24.7,3.3807,0.03624,0.03011,-0.0439
24.8,3.3848,0.03639,0.03031,-0.0434
24.9,3.3906,0.03653,0.03052,-0.0433
25,3.3975,0.03668,0.03072,-0.0433
25.1,3.4054,0.03683,0.03093,-0.0436
25.2,3.4137,0.03698,0.03113,-0.0439
25.3,3.4249,0.03715,0.03135,-0.0447
25.4,3.4347,0.0373,0.03156,-0.0454
25.5,3.445,0.03745,0.03177,-0.0461
25.6,3.4557,0.03761,0.03198,-0.047
25.7,3.4667,0.03776,0.03219,-0.048
25.8,3.4779,0.03793,0.03241,-0.0491
25.9,3.4894,0.0381,0.03263,-0.0502
26,3.5011,0.03828,0.03287,-0.0515
26.1,3.5129,0.03847,0.03311,-0.0528
26.2,3.5247,0.03868,0.03337,-0.0543
26.3,3.5364,0.0389,0.03365,-0.0558
26.4,3.5476,0.03915,0.03395,-0.0574
26.5,3.5616,0.03945,0.03431,-0.0596
26.6,3.5729,0.03976,0.03467,-0.0615
26.7,3.5838,0.0401,0.03508,-0.0636
26.8,3.5941,0.0405,0.03554,-0.066
26.9,3.6038,0.04095,0.03605,-0.0686
27,3.6124,0.0415,0.03666,-0.0718
27.1,3.6198,0.04214,0.03738,-0.0753
27.2,3.6254,0.04296,0.03827,-0.0796
27.3,3.6286,0.04398,0.0394,-0.0847
27.4,3.6275,0.04547,0.04106,-0.0915
27.5,3.6174,0.04786,0.04368,-0.1015
27.6,3.559,0.05548,0.05183,-0.1278
27.7,3.4647,0.06682,0.06377,-0.1613
27.8,3.4377,0.07056,0.06766,-0.1736
27.9,3.4185,0.0734,0.07061,-0.1836
28,3.4074,0.07536,0.07264,-0.1912
28.1,3.4013,0.07681,0.0741,-0.1972
28.2,3.4004,0.07773,0.07503,-0.2014
28.3,3.3742,0.08135,0.07884,-0.2145
28.4,3.3472,0.08536,0.08304,-0.2275
28.5,3.3392,0.08738,0.08513,-0.2338
28.6,3.3269,0.08997,0.08781,-0.2413
28.7,3.3243,0.09143,0.0893,-0.2455
28.8,3.3248,0.09253,0.09041,-0.2486
28.9,3.3263,0.0935,0.09139,-0.2513
29,3.3286,0.09438,0.09227,-0.2537
29.1,3.3329,0.09502,0.09289,-0.2554
29.2,3.3362,0.09575,0.09362,-0.2574
29.3,3.3399,0.09644,0.0943,-0.2592
29.5,3.2825,0.10618,0.10438,-0.2833
29.6,3.2783,0.10791,0.10615,-0.2874
29.7,3.2771,0.10925,0.1075,-0.2906
29.8,3.2789,0.11018,0.10844,-0.2927
29.9,3.2819,0.11094,0.1092,-0.2944
30,3.2853,0.1116,0.10985,-0.2959

