airfoilName st3.dat
Re 	950000
M 	2.500000e-01
N 	4.500000e+00
VACC 	0 VACCflag 1
XTR 	1.00 	1.00 XTRflag 0
alpha,cl,cd,cdp,cm
-28.6,-3.0929,0.15682,0.15448,0.2467
-28.5,-3.09,0.15463,0.15229,0.2442
-28.4,-3.0874,0.15234,0.14999,0.2415
-28.3,-3.0853,0.14987,0.14751,0.2385
-28.2,-3.0844,0.14701,0.14464,0.2349
-28.1,-3.084,0.14398,0.14159,0.2311
-28,-3.0824,0.14139,0.13897,0.2279
-27.9,-3.0809,0.13875,0.13632,0.2245
-27.8,-3.0799,0.13596,0.1335,0.221
-27.7,-3.0808,0.13261,0.13011,0.2165
-27.6,-3.0812,0.12943,0.1269,0.2123
-27.5,-3.0802,0.12668,0.12411,0.2086
-27.4,-3.0795,0.12384,0.12123,0.2047
-27.3,-3.0809,0.12044,0.11777,0.1999
-27.2,-3.0812,0.11736,0.11464,0.1956
-27.1,-3.0801,0.11468,0.1119,0.1918
-27,-3.0794,0.11187,0.10905,0.1877
-26.9,-3.0824,0.10813,0.10522,0.182
-26.8,-3.0807,0.10552,0.10254,0.1781
-26.7,-3.0797,0.10279,0.09979,0.174
-26.6,-3.0813,0.09938,0.09634,0.1685
-26.5,-3.0813,0.09642,0.09334,0.1636
-26.4,-3.0808,0.09364,0.09051,0.159
-26.3,-3.0837,0.08999,0.08681,0.1525
-26.2,-3.0834,0.08724,0.08401,0.1475
-26.1,-3.0848,0.0841,0.0808,0.1415
-26,-3.0869,0.08086,0.07749,0.1349
-25.9,-3.089,0.07773,0.07428,0.1281
-25.8,-3.0917,0.07454,0.071,0.1207
-25.7,-3.0966,0.07097,0.06732,0.1118
-25.6,-3.101,0.06757,0.0638,0.1025
-25.5,-3.1057,0.06402,0.06012,0.0921
-25.4,-3.1117,0.05992,0.05585,0.0798
-25.3,-3.1172,0.05566,0.0514,0.0667
-25.2,-3.126,0.05019,0.04567,0.0494
-25.1,-3.1285,0.04539,0.04059,0.0332
-25,-3.1225,0.04216,0.03714,0.0213
-24.9,-3.1113,0.04018,0.035,0.0134
-24.7,-3.0821,0.03744,0.03202,0.0012
-24.6,-3.0662,0.03662,0.03112,-0.0027
-24.5,-3.0499,0.03596,0.03039,-0.0059
-24.4,-3.0334,0.03543,0.02978,-0.0087
-24.3,-3.017,0.03497,0.02926,-0.0111
-24.2,-3.0006,0.03456,0.02881,-0.0132
-24.1,-2.9842,0.03421,0.02839,-0.0151
-24,-2.9679,0.03388,0.02802,-0.0168
-23.9,-2.9516,0.03358,0.02767,-0.0184
-23.8,-2.9355,0.03331,0.02735,-0.0199
-23.7,-2.9195,0.03305,0.02705,-0.0213
-23.6,-2.9036,0.03281,0.02676,-0.0225
-23.5,-2.888,0.03258,0.02649,-0.0237
-23.4,-2.8724,0.03236,0.02622,-0.0248
-23.3,-2.8572,0.03215,0.02597,-0.0257
-23.2,-2.8424,0.03195,0.02572,-0.0266
-23.1,-2.828,0.03175,0.02549,-0.0274
-23,-2.814,0.03157,0.02526,-0.0281
-22.9,-2.8007,0.03139,0.02504,-0.0287
-22.8,-2.7881,0.03121,0.02482,-0.0291
-22.7,-2.7767,0.03104,0.0246,-0.0294
-22.6,-2.7654,0.03083,0.02437,-0.0296
-22.5,-2.7538,0.03062,0.02413,-0.0298
-22.4,-2.7424,0.03042,0.0239,-0.03
-22.3,-2.7312,0.03021,0.02367,-0.0301
-22.2,-2.7196,0.03001,0.02344,-0.0302
-22.1,-2.708,0.02981,0.02322,-0.0302
-22,-2.6963,0.02961,0.023,-0.0301
-21.9,-2.6844,0.02941,0.02277,-0.0301
-21.8,-2.6726,0.02922,0.02255,-0.03
-21.7,-2.6606,0.02902,0.02232,-0.0299
-21.6,-2.6486,0.02883,0.0221,-0.0299
-21.5,-2.6364,0.02864,0.02188,-0.0298
-21.4,-2.6241,0.02845,0.02167,-0.0296
-21.2,-2.5995,0.02808,0.02124,-0.0294
-21.1,-2.587,0.02789,0.02103,-0.0292
-21,-2.5745,0.02771,0.02082,-0.0291
-20.9,-2.562,0.02753,0.02062,-0.0289
-20.8,-2.5493,0.02736,0.02041,-0.0288
-20.7,-2.5366,0.02719,0.02022,-0.0286
-20.6,-2.5242,0.02699,0.01999,-0.0285
-20.5,-2.5116,0.02678,0.01976,-0.0284
-20.4,-2.499,0.02658,0.01955,-0.0282
-20.3,-2.4865,0.02638,0.01933,-0.0281
-20.2,-2.4737,0.02619,0.01912,-0.028
-20.1,-2.4609,0.026,0.01892,-0.0279
-20,-2.448,0.02581,0.01872,-0.0277
-19.9,-2.4351,0.02563,0.01852,-0.0276
-19.8,-2.422,0.02545,0.01832,-0.0274
-19.7,-2.409,0.02527,0.01813,-0.0273
-19.6,-2.3959,0.0251,0.01794,-0.0272
-19.5,-2.3827,0.02492,0.01775,-0.027
-19.4,-2.3695,0.02476,0.01757,-0.0269
-19.3,-2.3563,0.02459,0.01739,-0.0268
-19.2,-2.343,0.02443,0.01721,-0.0266
-19.1,-2.3296,0.02428,0.01703,-0.0265
-19,-2.3162,0.02412,0.01686,-0.0264
-18.9,-2.3029,0.02396,0.01668,-0.0263
-18.8,-2.2896,0.02377,0.01648,-0.0262
-18.7,-2.2764,0.02359,0.01629,-0.0261
-18.6,-2.263,0.02341,0.0161,-0.026
-18.5,-2.2496,0.02324,0.01592,-0.0259
-18.4,-2.2362,0.02307,0.01574,-0.0258
-18.3,-2.2227,0.02289,0.01557,-0.0257
-18.2,-2.2092,0.02273,0.0154,-0.0256
-18.1,-2.1956,0.02257,0.01523,-0.0255
-18,-2.1821,0.02241,0.01506,-0.0255
-17.9,-2.1685,0.02226,0.0149,-0.0254
-17.8,-2.1548,0.02211,0.01474,-0.0253
-17.7,-2.1412,0.02196,0.01458,-0.0252
-17.6,-2.1275,0.02181,0.01442,-0.0251
-17.5,-2.1138,0.02167,0.01427,-0.0251
-17.4,-2.1001,0.02153,0.01412,-0.025
-17.3,-2.0864,0.0214,0.01397,-0.0249
-17.2,-2.0728,0.02124,0.01379,-0.0249
-17.1,-2.0591,0.02107,0.01363,-0.0248
-17,-2.0455,0.02089,0.01346,-0.0248
-16.9,-2.0317,0.02073,0.0133,-0.0248
-16.8,-2.018,0.02058,0.01315,-0.0248
-16.7,-2.0042,0.02043,0.013,-0.0247
-16.6,-1.9905,0.02029,0.01285,-0.0247
-16.5,-1.9767,0.02015,0.01271,-0.0247
-16.4,-1.9628,0.02001,0.01257,-0.0246
-16.3,-1.949,0.01987,0.01243,-0.0246
-16.2,-1.9352,0.01974,0.01229,-0.0246
-16.1,-1.9213,0.01961,0.01215,-0.0246
-16,-1.9075,0.01949,0.01202,-0.0245
-15.9,-1.8936,0.01937,0.01189,-0.0245
-15.8,-1.8798,0.01922,0.01173,-0.0245
-15.7,-1.8659,0.01906,0.01158,-0.0245
-15.6,-1.8521,0.01889,0.01144,-0.0246
-15.5,-1.8383,0.01875,0.0113,-0.0246
-15.4,-1.8244,0.01862,0.01116,-0.0246
-15.3,-1.8105,0.01848,0.01103,-0.0246
-15.2,-1.7966,0.01835,0.0109,-0.0246
-15.1,-1.7827,0.01823,0.01078,-0.0246
-15,-1.7688,0.0181,0.01065,-0.0247
-14.9,-1.7549,0.01798,0.01053,-0.0247
-14.8,-1.741,0.01787,0.01041,-0.0247
-14.7,-1.727,0.01775,0.01029,-0.0247
-14.6,-1.7131,0.01764,0.01016,-0.0248
-14.5,-1.6992,0.01749,0.01003,-0.0248
-14.4,-1.6853,0.01735,0.0099,-0.0249
-14.3,-1.6714,0.01721,0.00978,-0.0249
-14.2,-1.6574,0.01708,0.00966,-0.025
-14.1,-1.6435,0.01696,0.00954,-0.025
-14,-1.6296,0.01684,0.00942,-0.0251
-13.9,-1.6156,0.01672,0.00931,-0.0251
-13.8,-1.6017,0.0166,0.0092,-0.0252
-13.6,-1.5738,0.01638,0.00898,-0.0253
-13.5,-1.5599,0.01628,0.00887,-0.0254
-13.4,-1.5459,0.01615,0.00875,-0.0254
-13.3,-1.532,0.01601,0.00863,-0.0255
-13.2,-1.5181,0.01589,0.00852,-0.0256
-13.1,-1.5041,0.01577,0.00841,-0.0257
-13,-1.4902,0.01565,0.0083,-0.0258
-12.9,-1.4762,0.01554,0.0082,-0.0259
-12.8,-1.4623,0.01543,0.0081,-0.0259
-12.7,-1.4483,0.01533,0.008,-0.026
-12.6,-1.4344,0.01523,0.0079,-0.0261
-12.5,-1.4205,0.01513,0.00781,-0.0262
-12.4,-1.4065,0.01501,0.0077,-0.0263
-12.3,-1.3926,0.01489,0.00759,-0.0264
-12.2,-1.3786,0.01477,0.00749,-0.0265
-12.1,-1.3647,0.01466,0.00739,-0.0266
-12,-1.3507,0.01455,0.00729,-0.0267
-11.9,-1.3368,0.01444,0.0072,-0.0269
-11.8,-1.3229,0.01434,0.00711,-0.027
-11.7,-1.3089,0.01425,0.00702,-0.0271
-11.6,-1.295,0.01415,0.00693,-0.0272
-11.5,-1.2811,0.01406,0.00685,-0.0273
-11.4,-1.2671,0.01396,0.00675,-0.0274
-11.3,-1.2532,0.01382,0.00664,-0.0276
-11.2,-1.2393,0.01371,0.00655,-0.0277
-11.1,-1.2253,0.01361,0.00647,-0.0278
-11,-1.2114,0.01352,0.00638,-0.028
-10.9,-1.1975,0.01342,0.0063,-0.0281
-10.8,-1.1836,0.01333,0.00622,-0.0282
-10.7,-1.1696,0.01324,0.00614,-0.0283
-10.6,-1.1557,0.01316,0.00606,-0.0285
-10.5,-1.1418,0.01306,0.00597,-0.0286
-10.4,-1.1279,0.01295,0.00588,-0.0288
-10.3,-1.114,0.01285,0.0058,-0.0289
-10.2,-1.1001,0.01274,0.00572,-0.0291
-10.1,-1.0862,0.01265,0.00564,-0.0292
-10,-1.0722,0.01256,0.00557,-0.0294
-9.9,-1.0583,0.01248,0.00549,-0.0295
-9.8,-1.0444,0.0124,0.00542,-0.0297
-9.7,-1.0335,0.01283,0.00553,-0.0289
-9.5,-1.0073,0.01283,0.00541,-0.0289
-9.4,-0.9937,0.01278,0.00534,-0.0291
-9.3,-0.98,0.01273,0.00528,-0.0292
-9.2,-0.9662,0.01268,0.00522,-0.0293
-9.1,-0.9525,0.01263,0.00516,-0.0295
-9,-0.9388,0.01259,0.0051,-0.0296
-8.9,-0.925,0.01252,0.00502,-0.0298
-8.8,-0.9112,0.01245,0.00496,-0.0299
-8.7,-0.8974,0.01239,0.0049,-0.0301
-8.6,-0.8836,0.01233,0.00484,-0.0303
-8.5,-0.8698,0.01228,0.00479,-0.0304
-8.4,-0.856,0.01223,0.00473,-0.0306
-8.3,-0.8422,0.01219,0.00468,-0.0308
-8.2,-0.8284,0.01214,0.00462,-0.0309
-8.1,-0.8145,0.01204,0.00456,-0.0311
-8,-0.8007,0.01198,0.0045,-0.0313
-7.9,-0.7871,0.01196,0.00446,-0.0315
-7.8,-0.7732,0.0119,0.00441,-0.0317
-7.7,-0.7594,0.01185,0.00436,-0.0318
-7.6,-0.7456,0.0118,0.00431,-0.032
-7.5,-0.7318,0.01175,0.00425,-0.0322
-7.4,-0.718,0.01168,0.0042,-0.0324
-7.3,-0.7043,0.01166,0.00416,-0.0326
-7.2,-0.6905,0.01158,0.00411,-0.0328
-7.1,-0.6768,0.01157,0.00407,-0.033
-7,-0.663,0.01152,0.00403,-0.0332
-6.9,-0.6492,0.01149,0.00399,-0.0334
-6.8,-0.6354,0.01142,0.00394,-0.0336
-6.7,-0.6216,0.01138,0.0039,-0.0338
-6.6,-0.6078,0.01133,0.00386,-0.034
-6.5,-0.594,0.01128,0.00382,-0.0342
-6.4,-0.5802,0.01122,0.00378,-0.0344
-6.3,-0.5665,0.01119,0.00373,-0.0346
-6.2,-0.5528,0.01116,0.0037,-0.0348
-6.1,-0.539,0.0111,0.00366,-0.035
-6,-0.5253,0.01108,0.00363,-0.0352
-5.9,-0.5115,0.01104,0.0036,-0.0354
-5.8,-0.4977,0.011,0.00356,-0.0356
-5.7,-0.484,0.01098,0.00353,-0.0358
-5.6,-0.4702,0.0109,0.00349,-0.0361
-5.5,-0.4564,0.01085,0.00345,-0.0363
-5.4,-0.4426,0.0108,0.00342,-0.0365
-5.3,-0.4288,0.01076,0.00339,-0.0367
-5.2,-0.415,0.01073,0.00336,-0.0369
-5.1,-0.4014,0.01073,0.00334,-0.0371
-5,-0.3876,0.01068,0.0033,-0.0373
-4.9,-0.3738,0.01062,0.00327,-0.0376
-4.8,-0.36,0.01058,0.00325,-0.0378
-4.7,-0.3462,0.01055,0.00322,-0.038
-4.6,-0.3325,0.01052,0.0032,-0.0382
-4.5,-0.3187,0.01048,0.00316,-0.0385
-4.4,-0.305,0.01044,0.00314,-0.0387
-4.3,-0.2912,0.01041,0.00311,-0.0389
-4.2,-0.2775,0.0104,0.0031,-0.0392
-4.1,-0.2639,0.0104,0.00308,-0.0394
-4,-0.2501,0.01036,0.00305,-0.0396
-3.9,-0.2364,0.01033,0.00303,-0.0399
-3.8,-0.2227,0.0103,0.00302,-0.0401
-3.7,-0.2089,0.01028,0.003,-0.0403
-3.6,-0.1952,0.01026,0.00298,-0.0405
-3.5,-0.1815,0.01025,0.00297,-0.0408
-3.4,-0.1678,0.0102,0.00294,-0.041
-3.3,-0.1541,0.01019,0.00293,-0.0413
-3.2,-0.1404,0.01017,0.00291,-0.0415
-3.1,-0.1268,0.01018,0.00291,-0.0417
-3,-0.1132,0.01021,0.0029,-0.0419
-2.9,-0.0995,0.01019,0.00289,-0.0422
-2.8,-0.0859,0.01019,0.00288,-0.0424
-2.7,-0.0722,0.01019,0.00287,-0.0426
-2.6,-0.0585,0.01018,0.00287,-0.0429
-2.5,-0.0449,0.01017,0.00285,-0.0431
-2.4,-0.0313,0.01018,0.00285,-0.0434
-2.3,-0.0176,0.01017,0.00285,-0.0436
-2.2,-0.0041,0.01023,0.00286,-0.0439
-2.1,0.0095,0.01024,0.00286,-0.0441
-2,0.0231,0.01024,0.00285,-0.0444
-1.9,0.0367,0.01026,0.00286,-0.0446
-1.8,0.0499,0.01037,0.00289,-0.0448
-1.7,0.0633,0.01043,0.00291,-0.0451
-1.6,0.0767,0.01051,0.00293,-0.0453
-1.5,0.0901,0.01059,0.00295,-0.0456
-1.3,0.1156,0.01108,0.00311,-0.0461
-1.2,0.1291,0.01116,0.00313,-0.0464
-1.1,0.1426,0.0112,0.00315,-0.0466
-1,0.1562,0.01122,0.00316,-0.0469
-0.9,0.1698,0.01124,0.00317,-0.0471
-0.8,0.1833,0.01128,0.00319,-0.0474
-0.7,0.1969,0.01132,0.0032,-0.0476
-0.6,0.2106,0.0113,0.00321,-0.0479
-0.5,0.2242,0.01133,0.00323,-0.0482
-0.4,0.2378,0.01135,0.00324,-0.0484
-0.3,0.2514,0.01137,0.00326,-0.0486
-0.2,0.265,0.01139,0.00327,-0.0489
-0.1,0.2787,0.01141,0.00328,-0.0491
0,0.2923,0.01142,0.0033,-0.0494
0.1,0.3059,0.01145,0.00332,-0.0496
0.2,0.3196,0.01146,0.00333,-0.0499
0.3,0.3332,0.01146,0.00335,-0.0501
0.4,0.3469,0.01148,0.00336,-0.0504
0.5,0.3605,0.0115,0.00338,-0.0506
0.6,0.3741,0.01153,0.0034,-0.0509
0.7,0.3878,0.01152,0.00341,-0.0512
0.8,0.4013,0.01156,0.00343,-0.0514
0.9,0.4149,0.0116,0.00346,-0.0516
1,0.4285,0.01164,0.00348,-0.0519
1.1,0.4421,0.01166,0.0035,-0.0521
1.2,0.4558,0.01167,0.00352,-0.0524
1.3,0.4695,0.01167,0.00354,-0.0526
1.4,0.4831,0.0117,0.00357,-0.0529
1.5,0.4968,0.01172,0.00358,-0.0531
1.6,0.5104,0.01174,0.00361,-0.0534
1.7,0.524,0.01177,0.00363,-0.0536
1.8,0.5376,0.0118,0.00366,-0.0538
1.9,0.5512,0.01184,0.00369,-0.0541
2,0.5649,0.01185,0.00371,-0.0544
2.1,0.5785,0.01189,0.00374,-0.0546
2.2,0.592,0.01195,0.00378,-0.0548
2.3,0.6056,0.01199,0.00381,-0.0551
2.4,0.6192,0.01201,0.00383,-0.0553
2.5,0.6329,0.01203,0.00386,-0.0555
2.6,0.6466,0.01205,0.00389,-0.0558
2.7,0.6602,0.01208,0.00392,-0.056
2.8,0.6738,0.01211,0.00395,-0.0563
2.9,0.6874,0.01215,0.00399,-0.0565
3,0.701,0.01219,0.00402,-0.0567
3.1,0.7146,0.01223,0.00406,-0.057
3.2,0.7283,0.01225,0.00409,-0.0572
3.3,0.7418,0.0123,0.00413,-0.0575
3.4,0.7554,0.01235,0.00417,-0.0577
3.5,0.769,0.0124,0.00421,-0.0579
3.6,0.7825,0.01247,0.00425,-0.0581
3.7,0.7961,0.0125,0.00429,-0.0584
3.8,0.8098,0.01253,0.00433,-0.0586
3.9,0.8235,0.01255,0.00437,-0.0588
4,0.837,0.0126,0.00441,-0.0591
4.1,0.8507,0.01264,0.00445,-0.0593
4.2,0.8643,0.01268,0.00449,-0.0595
4.3,0.8779,0.01273,0.00454,-0.0597
4.4,0.8915,0.01279,0.00458,-0.0599
4.5,0.9051,0.01282,0.00462,-0.0602
4.6,0.9187,0.01287,0.00467,-0.0604
4.7,0.9323,0.01293,0.00472,-0.0606
4.8,0.9458,0.013,0.00477,-0.0608
4.9,0.9594,0.01307,0.00482,-0.0611
5,0.9729,0.01314,0.00487,-0.0613
5.1,0.9865,0.01319,0.00494,-0.0615
5.2,1.0002,0.01321,0.00499,-0.0617
5.3,1.0138,0.01326,0.00504,-0.0619
5.4,1.0274,0.01331,0.00508,-0.0621
5.5,1.041,0.01336,0.00514,-0.0623
5.6,1.0546,0.01342,0.00519,-0.0625
5.7,1.0682,0.01348,0.00525,-0.0628
5.8,1.0817,0.01354,0.0053,-0.063
5.9,1.0954,0.01358,0.00536,-0.0632
6,1.109,0.01365,0.00542,-0.0634
6.1,1.1225,0.01371,0.00548,-0.0636
6.2,1.136,0.01379,0.00554,-0.0638
6.3,1.1496,0.01387,0.0056,-0.064
6.4,1.1631,0.01394,0.00567,-0.0642
6.5,1.1767,0.01402,0.00574,-0.0644
6.6,1.1902,0.01409,0.00581,-0.0646
6.7,1.2038,0.01416,0.00588,-0.0647
6.8,1.2174,0.01421,0.00594,-0.0649
6.9,1.2309,0.01427,0.006,-0.0651
7,1.2445,0.01434,0.00607,-0.0653
7.1,1.2581,0.01441,0.00613,-0.0655
7.2,1.2716,0.01447,0.0062,-0.0656
7.3,1.2852,0.01454,0.00626,-0.0658
7.4,1.2987,0.01461,0.00633,-0.066
7.5,1.3123,0.01469,0.00641,-0.0662
7.6,1.3258,0.01477,0.00648,-0.0663
7.7,1.3393,0.01485,0.00655,-0.0665
7.8,1.3529,0.01494,0.00662,-0.0667
7.9,1.3664,0.01503,0.0067,-0.0668
8,1.3799,0.01511,0.00677,-0.067
8.1,1.3934,0.0152,0.00685,-0.0672
8.2,1.4069,0.0153,0.00694,-0.0673
8.3,1.4204,0.01539,0.00702,-0.0675
8.4,1.4339,0.01547,0.0071,-0.0677
8.5,1.4475,0.01554,0.00718,-0.0678
8.6,1.461,0.01561,0.00726,-0.068
8.7,1.4746,0.01569,0.00733,-0.0681
8.8,1.4881,0.01577,0.00741,-0.0683
8.9,1.5017,0.01585,0.00749,-0.0684
9,1.5152,0.01593,0.00757,-0.0686
9.1,1.5287,0.01602,0.00765,-0.0687
9.2,1.5422,0.01611,0.00773,-0.0688
9.3,1.5557,0.0162,0.00782,-0.069
9.4,1.5692,0.01628,0.0079,-0.0691
9.5,1.5827,0.01638,0.00799,-0.0693
9.6,1.5962,0.01648,0.00808,-0.0694
9.7,1.6097,0.01658,0.00816,-0.0695
9.8,1.6232,0.01668,0.00826,-0.0697
9.9,1.6366,0.01679,0.00835,-0.0698
10,1.65,0.01688,0.00844,-0.0699
10.1,1.6634,0.017,0.00854,-0.07
10.2,1.6769,0.01709,0.00865,-0.0702
10.3,1.6904,0.01717,0.00874,-0.0703
10.4,1.7039,0.01726,0.00882,-0.0704
10.5,1.7175,0.01735,0.00891,-0.0705
10.6,1.731,0.01744,0.00901,-0.0706
10.7,1.7445,0.01753,0.0091,-0.0707
10.8,1.758,0.01762,0.00919,-0.0708
10.9,1.7715,0.01772,0.00929,-0.0709
11,1.7849,0.0178,0.00939,-0.071
11.1,1.7984,0.01791,0.00949,-0.0711
11.2,1.8118,0.01801,0.00959,-0.0712
11.3,1.8252,0.01811,0.00968,-0.0713
11.4,1.8387,0.01822,0.00978,-0.0714
11.5,1.8521,0.01833,0.00988,-0.0715
11.6,1.8655,0.01844,0.00998,-0.0716
11.7,1.8788,0.01854,0.01009,-0.0717
11.8,1.8922,0.01866,0.0102,-0.0718
12,1.9188,0.01889,0.01042,-0.0719
12.1,1.9321,0.01901,0.01054,-0.072
12.2,1.9455,0.01912,0.01065,-0.0721
12.3,1.959,0.01921,0.01075,-0.0721
12.4,1.9724,0.0193,0.01085,-0.0722
12.5,1.9858,0.0194,0.01096,-0.0722
12.6,1.9992,0.0195,0.01107,-0.0723
12.7,2.0126,0.0196,0.01118,-0.0723
12.8,2.026,0.0197,0.01129,-0.0724
12.9,2.0394,0.01981,0.0114,-0.0724
13,2.0527,0.01992,0.01151,-0.0725
13.1,2.0661,0.02003,0.01162,-0.0725
13.2,2.0795,0.02014,0.01173,-0.0726
13.3,2.0926,0.02024,0.01185,-0.0726
13.4,2.1059,0.02036,0.01196,-0.0726
13.5,2.1192,0.02048,0.01207,-0.0726
13.6,2.1325,0.0206,0.01219,-0.0727
13.7,2.1458,0.02072,0.01231,-0.0727
13.8,2.1589,0.02084,0.01243,-0.0727
13.9,2.1717,0.02092,0.01254,-0.0726
14,2.1851,0.02108,0.01267,-0.0727
14.1,2.198,0.0212,0.0128,-0.0726
14.2,2.2111,0.02134,0.01294,-0.0727
14.3,2.2243,0.02148,0.01308,-0.0727
14.4,2.2376,0.02157,0.01319,-0.0726
14.5,2.2509,0.02167,0.01331,-0.0726
14.6,2.2642,0.02178,0.01343,-0.0726
14.7,2.2774,0.02188,0.01355,-0.0726
14.8,2.2906,0.02199,0.01367,-0.0726
14.9,2.3034,0.02209,0.0138,-0.0725
15,2.3165,0.02221,0.01392,-0.0724
15.1,2.3296,0.02233,0.01405,-0.0724
15.2,2.3428,0.02245,0.01418,-0.0723
15.3,2.3559,0.02257,0.01431,-0.0723
15.4,2.369,0.02269,0.01444,-0.0723
15.5,2.3821,0.02281,0.01457,-0.0722
15.6,2.3951,0.02293,0.01468,-0.0722
15.7,2.4075,0.02304,0.01481,-0.072
15.8,2.4204,0.02317,0.01494,-0.0719
15.9,2.4333,0.02329,0.01507,-0.0718
16.1,2.4587,0.02354,0.01534,-0.0716
16.2,2.4715,0.02368,0.01549,-0.0715
16.3,2.4843,0.02382,0.01563,-0.0714
16.4,2.4964,0.02395,0.01577,-0.0712
16.5,2.509,0.0241,0.01592,-0.071
16.6,2.5216,0.02425,0.01608,-0.0709
16.7,2.5344,0.02435,0.0162,-0.0708
16.8,2.5472,0.02446,0.01634,-0.0706
16.9,2.56,0.02457,0.01647,-0.0705
17,2.5725,0.02467,0.0166,-0.0703
17.1,2.5853,0.02479,0.01674,-0.0701
17.2,2.5966,0.02487,0.01686,-0.0697
17.4,2.6217,0.02512,0.01714,-0.0694
17.5,2.6342,0.02525,0.01728,-0.0692
17.6,2.6469,0.02538,0.01743,-0.069
17.7,2.6594,0.02551,0.01757,-0.0688
17.8,2.6716,0.02563,0.01771,-0.0686
17.9,2.6837,0.02575,0.01785,-0.0683
18,2.695,0.02585,0.01798,-0.0679
18.1,2.7068,0.02596,0.01811,-0.0676
18.4,2.7438,0.02634,0.01852,-0.067
18.5,2.7562,0.0265,0.01868,-0.0668
18.6,2.7686,0.02665,0.01884,-0.0667
18.7,2.7808,0.02681,0.019,-0.0664
18.8,2.793,0.02697,0.01917,-0.0663
18.9,2.8052,0.02713,0.01934,-0.0661
19,2.8172,0.02731,0.01952,-0.0658
19.1,2.8298,0.02746,0.0197,-0.0657
19.2,2.8421,0.02759,0.01986,-0.0655
19.3,2.8545,0.02771,0.02002,-0.0652
19.4,2.8667,0.02785,0.02018,-0.065
19.5,2.879,0.02798,0.02034,-0.0648
19.6,2.8911,0.02812,0.02051,-0.0645
19.7,2.9031,0.02826,0.02067,-0.0643
19.8,2.9152,0.02841,0.02084,-0.064
19.9,2.9271,0.02855,0.02101,-0.0637
20,2.939,0.0287,0.02118,-0.0635
20.1,2.9513,0.02885,0.02136,-0.0633
20.2,2.963,0.02899,0.02153,-0.063
20.3,2.9747,0.02915,0.02171,-0.0627
20.4,2.9864,0.0293,0.02188,-0.0624
20.5,2.9981,0.02946,0.02206,-0.0621
20.6,3.0097,0.02962,0.02224,-0.0618
20.7,3.0212,0.02977,0.02241,-0.0615
20.8,3.0324,0.02993,0.02259,-0.0611
20.9,3.0437,0.03009,0.02277,-0.0608
21,3.0549,0.03026,0.02296,-0.0605
21.1,3.0657,0.03041,0.02312,-0.0601
21.2,3.0765,0.03058,0.02331,-0.0597
21.3,3.0882,0.03076,0.0235,-0.0595
21.4,3.099,0.03093,0.02369,-0.0592
21.5,3.1096,0.03112,0.02389,-0.0588
21.6,3.1201,0.0313,0.02409,-0.0584
21.7,3.1304,0.0315,0.0243,-0.058
21.8,3.1411,0.03165,0.0245,-0.0576
21.9,3.1517,0.0318,0.02468,-0.0572
22,3.1621,0.03194,0.02487,-0.0568
22.1,3.1725,0.0321,0.02507,-0.0564
22.2,3.1828,0.03225,0.02526,-0.0559
22.3,3.1928,0.03241,0.02546,-0.0555
22.4,3.2027,0.03257,0.02566,-0.055
22.5,3.2138,0.03274,0.02586,-0.0548
22.6,3.2235,0.0329,0.02606,-0.0544
22.7,3.2331,0.03306,0.02626,-0.0539
22.8,3.2425,0.03323,0.02647,-0.0534
22.9,3.2518,0.0334,0.02667,-0.053
23,3.2609,0.03356,0.02687,-0.0525
23.1,3.2697,0.03373,0.02708,-0.052
23.2,3.2784,0.0339,0.02728,-0.0515
23.3,3.287,0.03407,0.02749,-0.051
23.4,3.2953,0.03424,0.02769,-0.0505
23.5,3.3035,0.03441,0.0279,-0.05
23.6,3.3114,0.03458,0.0281,-0.0494
23.7,3.3188,0.03475,0.0283,-0.0489
23.8,3.328,0.03493,0.02851,-0.0487
23.9,3.3351,0.0351,0.02871,-0.0482
24,3.3417,0.03526,0.02891,-0.0476
24.1,3.3474,0.03541,0.02908,-0.0471
24.2,3.3534,0.03558,0.02928,-0.0465
24.3,3.3591,0.03575,0.02947,-0.046
24.4,3.3644,0.03591,0.02967,-0.0455
24.5,3.3696,0.03608,0.02988,-0.0451
24.6,3.3726,0.03624,0.03006,-0.0444
24.7,3.3752,0.03641,0.03027,-0.0439
24.8,3.3801,0.03656,0.03048,-0.0436
24.9,3.3864,0.03671,0.03069,-0.0435
25,3.3939,0.03686,0.03089,-0.0437
25.1,3.4021,0.037,0.0311,-0.044
25.2,3.4109,0.03715,0.0313,-0.0444
25.3,3.4222,0.03732,0.03153,-0.0453
25.4,3.4322,0.03747,0.03174,-0.046
25.5,3.4427,0.03763,0.03195,-0.0468
25.6,3.4535,0.03778,0.03216,-0.0477
25.7,3.4647,0.03794,0.03238,-0.0488
25.8,3.4761,0.03811,0.0326,-0.0499
25.9,3.4877,0.03829,0.03283,-0.0511
26,3.4994,0.03847,0.03307,-0.0524
26.1,3.5113,0.03867,0.03333,-0.0538
26.2,3.523,0.03889,0.0336,-0.0553
26.3,3.5347,0.03913,0.0339,-0.0569
26.4,3.5459,0.03938,0.03422,-0.0586
26.5,3.5597,0.0397,0.03459,-0.0608
26.6,3.5708,0.04003,0.03498,-0.0629
26.7,3.5814,0.0404,0.03541,-0.0651
26.8,3.5915,0.04082,0.03589,-0.0676
26.9,3.6008,0.0413,0.03644,-0.0703
27,3.6089,0.04189,0.03709,-0.0737
27.1,3.6156,0.0426,0.03788,-0.0775
27.2,3.6204,0.04349,0.03886,-0.0821
27.3,3.6216,0.04471,0.04019,-0.088
27.4,3.6178,0.04645,0.04211,-0.0957
27.5,3.5979,0.0499,0.04585,-0.1092
27.6,3.4854,0.06347,0.06024,-0.1512
27.7,3.439,0.06935,0.0664,-0.1695
27.8,3.4165,0.07257,0.06976,-0.1806
27.9,3.4087,0.07424,0.07148,-0.187
28,3.3957,0.07638,0.0737,-0.1953
28.1,3.3936,0.07743,0.07475,-0.1999
28.2,3.3935,0.07829,0.07561,-0.2039
28.3,3.3669,0.08201,0.07952,-0.2171
28.4,3.3388,0.08622,0.08393,-0.2305
28.5,3.3263,0.0888,0.0866,-0.2382
28.6,3.3186,0.09089,0.08874,-0.2441
28.7,3.3174,0.09219,0.09007,-0.2478
28.8,3.3182,0.09324,0.09113,-0.2507
28.9,3.32,0.09419,0.09209,-0.2533
29,3.3234,0.09494,0.09282,-0.2553
29.1,3.3259,0.0958,0.09368,-0.2576
29.2,3.3295,0.0965,0.09437,-0.2595
29.3,3.3337,0.09712,0.09499,-0.2612
29.6,3.2691,0.10905,0.1073,-0.2903
29.7,3.2704,0.11006,0.10832,-0.2927
29.8,3.2731,0.11087,0.10913,-0.2946
29.9,3.2765,0.11158,0.10983,-0.2961
30,3.2804,0.1122,0.11045,-0.2975

