airfoilName st3.dat
Re 	790000
M 	2.500000e-01
N 	4.500000e+00
VACC 	0 VACCflag 1
XTR 	1.00 	1.00 XTRflag 0
alpha,cl,cd,cdp,cm
-28.1,-3.0471,0.15602,0.15372,0.2473
-28,-3.0457,0.1532,0.15088,0.2439
-27.9,-3.0445,0.15033,0.14799,0.2404
-27.8,-3.0443,0.14714,0.14477,0.2365
-27.6,-3.0485,0.13928,0.1368,0.2263
-27.4,-3.0529,0.13156,0.12895,0.2161
-27.3,-3.0549,0.12782,0.12514,0.211
-27.2,-3.0558,0.12432,0.12156,0.2062
-27.1,-3.0601,0.12002,0.11716,0.2001
-27,-3.0588,0.11735,0.11449,0.1964
-26.9,-3.0567,0.1149,0.11202,0.193
-26.8,-3.0552,0.11228,0.10938,0.1893
-26.7,-3.0555,0.10912,0.10618,0.1846
-26.6,-3.0548,0.10627,0.1033,0.1804
-26.5,-3.0535,0.10357,0.10057,0.1764
-26.4,-3.0536,0.10053,0.09748,0.1716
-26.3,-3.0547,0.09722,0.09411,0.1663
-26.2,-3.0538,0.09446,0.0913,0.1618
-26.1,-3.0548,0.09122,0.08799,0.1562
-26,-3.0554,0.08811,0.08482,0.1507
-25.9,-3.0552,0.08528,0.08192,0.1455
-25.8,-3.0574,0.08188,0.07844,0.1389
-25.7,-3.0571,0.0792,0.07568,0.1335
-25.6,-3.0596,0.07588,0.07225,0.1262
-25.5,-3.0596,0.07326,0.06954,0.1201
-25.4,-3.0621,0.07015,0.06632,0.1122
-25.3,-3.0644,0.06716,0.0632,0.1041
-25.2,-3.0672,0.064,0.05993,0.0947
-25.1,-3.0728,0.05994,0.05572,0.0822
-25,-3.077,0.05592,0.05154,0.0695
-24.9,-3.0822,0.05126,0.04666,0.0545
-24.8,-3.0852,0.04632,0.04148,0.0376
-24.7,-3.0794,0.04304,0.03799,0.0253
-24.6,-3.0684,0.04092,0.0357,0.0166
-24.5,-3.0549,0.03947,0.03412,0.0103
-24.4,-3.0399,0.0384,0.03294,0.0055
-24.3,-3.0245,0.03757,0.03202,0.0016
-24.2,-3.0086,0.0369,0.03126,-0.0017
-24.1,-2.9925,0.03634,0.03062,-0.0045
-24,-2.9763,0.03585,0.03007,-0.007
-23.9,-2.9601,0.03543,0.02957,-0.0092
-23.8,-2.9439,0.03505,0.02914,-0.0111
-23.7,-2.9277,0.03472,0.02874,-0.0129
-23.6,-2.9116,0.03441,0.02837,-0.0145
-23.5,-2.8956,0.03413,0.02802,-0.016
-23.4,-2.8796,0.03387,0.0277,-0.0173
-23.3,-2.8637,0.03362,0.02739,-0.0186
-23.2,-2.8475,0.03333,0.02707,-0.0202
-23.1,-2.8315,0.03307,0.02677,-0.0216
-23,-2.8159,0.03282,0.02649,-0.0229
-22.9,-2.8007,0.03259,0.02622,-0.0241
-22.8,-2.7859,0.03237,0.02597,-0.0251
-22.7,-2.7716,0.03216,0.02572,-0.026
-22.5,-2.7455,0.03177,0.02526,-0.0274
-22.4,-2.7338,0.03159,0.02504,-0.0278
-22.3,-2.7221,0.0314,0.02482,-0.028
-22.2,-2.7103,0.03121,0.02459,-0.0282
-22.1,-2.6985,0.03102,0.02437,-0.0283
-22,-2.6868,0.03082,0.02414,-0.0284
-21.9,-2.675,0.03063,0.02391,-0.0285
-21.8,-2.6632,0.03044,0.02369,-0.0285
-21.7,-2.6513,0.03025,0.02346,-0.0285
-21.6,-2.6393,0.03006,0.02323,-0.0285
-21.5,-2.6272,0.02987,0.02301,-0.0285
-21.4,-2.615,0.02969,0.02279,-0.0284
-21.3,-2.6028,0.02951,0.02257,-0.0283
-21.2,-2.5908,0.02929,0.02233,-0.0283
-21.1,-2.5789,0.02907,0.02208,-0.0283
-21,-2.5668,0.02885,0.02185,-0.0282
-20.9,-2.5547,0.02864,0.02162,-0.0282
-20.8,-2.5425,0.02843,0.02139,-0.0281
-20.7,-2.5302,0.02823,0.02116,-0.028
-20.6,-2.5178,0.02803,0.02094,-0.0279
-20.5,-2.5053,0.02783,0.02072,-0.0278
-20.4,-2.4928,0.02763,0.02051,-0.0277
-20.3,-2.4802,0.02744,0.02029,-0.0276
-20.2,-2.4676,0.02725,0.02008,-0.0275
-20.1,-2.4549,0.02706,0.01987,-0.0274
-20,-2.4421,0.02688,0.01966,-0.0272
-19.8,-2.4163,0.02651,0.01925,-0.027
-19.7,-2.4034,0.02634,0.01905,-0.0268
-19.6,-2.3904,0.02618,0.01886,-0.0267
-19.5,-2.3773,0.02601,0.01867,-0.0266
-19.4,-2.3643,0.02584,0.01847,-0.0265
-19.3,-2.3514,0.02563,0.01825,-0.0264
-19.2,-2.3384,0.02543,0.01804,-0.0263
-19.1,-2.3254,0.02523,0.01784,-0.0262
-19,-2.3123,0.02505,0.01764,-0.0261
-18.9,-2.2992,0.02486,0.01744,-0.026
-18.8,-2.286,0.02468,0.01725,-0.0259
-18.7,-2.2727,0.0245,0.01705,-0.0258
-18.6,-2.2594,0.02433,0.01687,-0.0257
-18.5,-2.2461,0.02416,0.01668,-0.0256
-18.4,-2.2327,0.02399,0.0165,-0.0255
-18.3,-2.2193,0.02382,0.01632,-0.0254
-18.2,-2.2059,0.02366,0.01615,-0.0253
-18.1,-2.1924,0.0235,0.01597,-0.0253
-18,-2.1789,0.02334,0.0158,-0.0252
-17.9,-2.1653,0.02319,0.01563,-0.0251
-17.8,-2.1518,0.02305,0.01546,-0.025
-17.7,-2.1382,0.02289,0.01528,-0.0249
-17.6,-2.1247,0.0227,0.0151,-0.0249
-17.5,-2.1114,0.02253,0.01491,-0.0248
-17.4,-2.0978,0.02235,0.01474,-0.0248
-17.3,-2.0843,0.02218,0.01457,-0.0248
-17.2,-2.0707,0.02201,0.0144,-0.0247
-17.1,-2.0571,0.02185,0.01424,-0.0247
-17,-2.0434,0.0217,0.01408,-0.0246
-16.9,-2.0298,0.02155,0.01392,-0.0246
-16.8,-2.0161,0.0214,0.01376,-0.0245
-16.7,-2.0023,0.02125,0.01361,-0.0245
-16.6,-1.9886,0.02111,0.01346,-0.0245
-16.5,-1.9748,0.02097,0.01331,-0.0244
-16.4,-1.9611,0.02084,0.01316,-0.0244
-16.3,-1.9473,0.0207,0.01301,-0.0244
-16.2,-1.9336,0.02054,0.01284,-0.0244
-16.1,-1.9199,0.02037,0.01268,-0.0244
-16,-1.9061,0.02021,0.01252,-0.0244
-15.9,-1.8924,0.02006,0.01237,-0.0244
-15.8,-1.8786,0.0199,0.01223,-0.0244
-15.7,-1.8648,0.01976,0.01208,-0.0244
-15.6,-1.851,0.01962,0.01194,-0.0244
-15.5,-1.8372,0.01948,0.0118,-0.0244
-15.4,-1.8233,0.01935,0.01166,-0.0244
-15.3,-1.8095,0.01922,0.01153,-0.0244
-15.2,-1.7956,0.01909,0.0114,-0.0244
-15.1,-1.7817,0.01897,0.01127,-0.0244
-15,-1.7679,0.01885,0.01112,-0.0244
-14.9,-1.7541,0.01869,0.01098,-0.0245
-14.8,-1.7402,0.01853,0.01084,-0.0245
-14.7,-1.7263,0.01839,0.0107,-0.0246
-14.6,-1.7125,0.01825,0.01057,-0.0246
-14.5,-1.6986,0.01812,0.01044,-0.0247
-14.4,-1.6847,0.01799,0.01031,-0.0247
-14.3,-1.6708,0.01786,0.01019,-0.0247
-14.2,-1.6569,0.01773,0.01006,-0.0248
-14.1,-1.643,0.01761,0.00994,-0.0248
-14,-1.6291,0.0175,0.00982,-0.0249
-13.9,-1.6152,0.01739,0.00971,-0.0249
-13.8,-1.6014,0.01726,0.00958,-0.025
-13.7,-1.5874,0.01711,0.00945,-0.0251
-13.6,-1.5735,0.01697,0.00933,-0.0252
-13.5,-1.5596,0.01684,0.00921,-0.0252
-13.4,-1.5457,0.01672,0.00909,-0.0253
-13.3,-1.5318,0.0166,0.00898,-0.0254
-13.2,-1.5179,0.01648,0.00886,-0.0255
-13.1,-1.504,0.01637,0.00875,-0.0255
-13,-1.4901,0.01626,0.00864,-0.0256
-12.9,-1.4761,0.01615,0.00854,-0.0257
-12.8,-1.4622,0.01605,0.00843,-0.0258
-12.7,-1.4483,0.01593,0.00832,-0.0258
-12.6,-1.4344,0.01578,0.0082,-0.026
-12.5,-1.4205,0.01565,0.00809,-0.0261
-12.4,-1.4066,0.01554,0.00798,-0.0262
-12.3,-1.3926,0.01542,0.00788,-0.0263
-12.2,-1.3787,0.01531,0.00777,-0.0264
-12.1,-1.3648,0.01521,0.00768,-0.0265
-12,-1.3509,0.01511,0.00758,-0.0266
-11.9,-1.337,0.01501,0.00748,-0.0267
-11.8,-1.3231,0.01491,0.00739,-0.0268
-11.7,-1.3091,0.01479,0.00728,-0.0269
-11.6,-1.2952,0.01467,0.00718,-0.027
-11.5,-1.2813,0.01454,0.00707,-0.0272
-11.4,-1.2674,0.01443,0.00698,-0.0273
-11.3,-1.2535,0.01433,0.00689,-0.0274
-11.2,-1.2396,0.01423,0.0068,-0.0275
-11.1,-1.2257,0.01413,0.00671,-0.0277
-11,-1.2118,0.01404,0.00662,-0.0278
-10.9,-1.1979,0.01396,0.00654,-0.0279
-10.8,-1.1839,0.01384,0.00643,-0.0281
-10.7,-1.17,0.01372,0.00634,-0.0282
-10.6,-1.1561,0.01361,0.00625,-0.0283
-10.5,-1.1422,0.01351,0.00616,-0.0285
-10.4,-1.1283,0.0134,0.00608,-0.0286
-10.3,-1.1144,0.01331,0.006,-0.0288
-10.2,-1.1005,0.01323,0.00592,-0.0289
-10.1,-1.0866,0.01315,0.00584,-0.0291
-10,-1.0727,0.01304,0.00575,-0.0292
-9.9,-1.0588,0.01293,0.00566,-0.0294
-9.8,-1.0449,0.01283,0.00558,-0.0295
-9.7,-1.0311,0.01273,0.0055,-0.0297
-9.6,-1.0172,0.01264,0.00543,-0.0299
-9.5,-1.0033,0.01255,0.00535,-0.03
-9.4,-0.9894,0.01247,0.00528,-0.0302
-9.3,-0.9755,0.01239,0.0052,-0.0303
-9.2,-0.9616,0.01228,0.00512,-0.0305
-9.1,-0.9478,0.01218,0.00504,-0.0307
-8.7,-0.8955,0.0125,0.00501,-0.0304
-8.6,-0.8821,0.01248,0.00496,-0.0305
-8.5,-0.8685,0.01245,0.00489,-0.0306
-8.4,-0.855,0.0124,0.00483,-0.0307
-8.3,-0.8413,0.01233,0.00477,-0.0309
-8.2,-0.8277,0.01229,0.00471,-0.031
-8.1,-0.814,0.01225,0.00466,-0.0312
-8,-0.8003,0.0122,0.00461,-0.0313
-7.9,-0.7866,0.01217,0.00455,-0.0315
-7.8,-0.7728,0.01213,0.0045,-0.0316
-7.7,-0.7591,0.01206,0.00444,-0.0318
-7.6,-0.7453,0.012,0.00438,-0.032
-7.5,-0.7317,0.01199,0.00434,-0.0322
-7.4,-0.718,0.01192,0.00429,-0.0324
-7.3,-0.7042,0.01188,0.00424,-0.0325
-7.2,-0.6904,0.01184,0.0042,-0.0327
-7.1,-0.6769,0.01182,0.00415,-0.0329
-7,-0.663,0.01176,0.0041,-0.0331
-6.9,-0.6495,0.01175,0.00406,-0.0333
-6.8,-0.6357,0.0117,0.00402,-0.0335
-6.7,-0.6219,0.01165,0.00398,-0.0337
-6.6,-0.6081,0.0116,0.00394,-0.0338
-6.5,-0.5945,0.01157,0.00389,-0.0341
-6.4,-0.5807,0.01151,0.00385,-0.0343
-6.3,-0.5669,0.01147,0.00381,-0.0345
-6.2,-0.5531,0.01142,0.00377,-0.0347
-6.1,-0.5393,0.01137,0.00373,-0.0349
-6,-0.5256,0.01135,0.0037,-0.0351
-5.9,-0.5119,0.01131,0.00365,-0.0353
-5.8,-0.4983,0.01128,0.00362,-0.0355
-5.7,-0.4845,0.01123,0.00359,-0.0357
-5.6,-0.4707,0.01118,0.00355,-0.0359
-5.5,-0.4569,0.01115,0.00352,-0.0361
-5.4,-0.4432,0.01111,0.00349,-0.0363
-5.3,-0.4294,0.01106,0.00345,-0.0366
-5.2,-0.4156,0.01101,0.00341,-0.0368
-5.1,-0.4019,0.01098,0.00338,-0.037
-5,-0.3881,0.01093,0.00335,-0.0372
-4.9,-0.3743,0.0109,0.00333,-0.0374
-4.8,-0.3606,0.01087,0.00329,-0.0377
-4.7,-0.3469,0.01082,0.00327,-0.0379
-4.6,-0.3331,0.01078,0.00324,-0.0381
-4.5,-0.3194,0.01075,0.00321,-0.0383
-4.4,-0.3057,0.01073,0.00319,-0.0386
-4.3,-0.2919,0.01071,0.00317,-0.0388
-4.2,-0.2781,0.01064,0.00313,-0.039
-4.1,-0.2643,0.0106,0.00311,-0.0393
-4,-0.2506,0.01057,0.00309,-0.0395
-3.9,-0.237,0.01058,0.00307,-0.0397
-3.8,-0.2234,0.01058,0.00306,-0.0399
-3.7,-0.2096,0.01053,0.00303,-0.0402
-3.6,-0.1958,0.01048,0.00301,-0.0404
-3.5,-0.1821,0.01047,0.00299,-0.0407
-3.4,-0.1684,0.01046,0.00298,-0.0409
-3.3,-0.1548,0.01044,0.00296,-0.0411
-3.2,-0.141,0.0104,0.00294,-0.0414
-3.1,-0.1274,0.0104,0.00293,-0.0416
-3,-0.1137,0.0104,0.00292,-0.0418
-2.9,-0.1001,0.01039,0.00291,-0.042
-2.8,-0.0865,0.01038,0.00289,-0.0423
-2.7,-0.0728,0.01038,0.00288,-0.0425
-2.6,-0.0591,0.01037,0.00288,-0.0428
-2.5,-0.0455,0.01037,0.00287,-0.043
-2.4,-0.0318,0.01037,0.00287,-0.0432
-2.3,-0.0182,0.01038,0.00286,-0.0435
-2.2,-0.0045,0.01035,0.00285,-0.0437
-2.1,0.0091,0.01036,0.00285,-0.044
-2,0.0226,0.0104,0.00286,-0.0442
-1.9,0.0362,0.01042,0.00285,-0.0444
-1.8,0.0497,0.01044,0.00286,-0.0447
-1.7,0.0633,0.01045,0.00286,-0.0449
-1.5,0.09,0.01059,0.0029,-0.0454
-1.4,0.1035,0.01064,0.00291,-0.0457
-1.3,0.1166,0.01077,0.00296,-0.0459
-1.2,0.1298,0.01089,0.00299,-0.0461
-1,0.1554,0.01137,0.00314,-0.0467
-0.9,0.1688,0.01143,0.00316,-0.0469
-0.8,0.1823,0.01148,0.00319,-0.0472
-0.7,0.1959,0.01151,0.00321,-0.0475
-0.6,0.2094,0.01154,0.00322,-0.0477
-0.5,0.223,0.01156,0.00323,-0.048
-0.4,0.2366,0.0116,0.00325,-0.0482
-0.3,0.2501,0.01165,0.00329,-0.0485
-0.2,0.2637,0.01165,0.00329,-0.0487
-0.1,0.2774,0.01166,0.00331,-0.049
0,0.291,0.01168,0.00332,-0.0492
0.1,0.3046,0.01171,0.00334,-0.0495
0.2,0.3181,0.01174,0.00336,-0.0497
0.3,0.3317,0.01177,0.00338,-0.05
0.4,0.3453,0.0118,0.0034,-0.0502
0.5,0.359,0.0118,0.00343,-0.0505
0.6,0.3726,0.01182,0.00344,-0.0507
0.7,0.3862,0.01183,0.00346,-0.051
0.8,0.3999,0.01185,0.00348,-0.0512
0.9,0.4135,0.01187,0.0035,-0.0515
1,0.427,0.01191,0.00353,-0.0517
1.1,0.4407,0.01192,0.00354,-0.052
1.2,0.4543,0.01195,0.00357,-0.0522
1.4,0.4814,0.01204,0.00362,-0.0527
1.5,0.495,0.01207,0.00365,-0.0529
1.6,0.5086,0.01208,0.00368,-0.0532
1.7,0.5223,0.0121,0.0037,-0.0534
1.8,0.5359,0.01211,0.00373,-0.0537
1.9,0.5496,0.01214,0.00375,-0.0539
2,0.5632,0.01217,0.00378,-0.0542
2.1,0.5768,0.0122,0.00381,-0.0544
2.2,0.5903,0.01224,0.00384,-0.0546
2.3,0.6039,0.01228,0.00387,-0.0549
2.4,0.6175,0.01231,0.0039,-0.0552
2.5,0.6311,0.01236,0.00394,-0.0554
2.6,0.6446,0.01242,0.00397,-0.0556
2.7,0.6582,0.01245,0.00402,-0.0558
2.8,0.6718,0.01248,0.00405,-0.0561
2.9,0.6855,0.01251,0.00408,-0.0563
3,0.6991,0.01252,0.00411,-0.0566
3.1,0.7127,0.01256,0.00415,-0.0568
3.2,0.7263,0.0126,0.00419,-0.057
3.3,0.7399,0.01264,0.00423,-0.0573
3.4,0.7535,0.01269,0.00427,-0.0575
3.5,0.767,0.01274,0.00431,-0.0577
3.6,0.7806,0.01279,0.00435,-0.0579
3.7,0.7942,0.01281,0.00439,-0.0582
3.8,0.8078,0.01287,0.00443,-0.0584
3.9,0.8213,0.01294,0.00448,-0.0586
4,0.8348,0.01301,0.00453,-0.0589
4.1,0.8484,0.01305,0.00458,-0.0591
4.2,0.862,0.01308,0.00462,-0.0593
4.3,0.8757,0.01311,0.00467,-0.0595
4.4,0.8893,0.01315,0.00471,-0.0598
4.5,0.9029,0.0132,0.00476,-0.06
4.6,0.9164,0.01325,0.00481,-0.0602
4.7,0.93,0.01331,0.00486,-0.0604
4.8,0.9435,0.01337,0.00491,-0.0606
4.9,0.9571,0.01343,0.00497,-0.0608
5,0.9707,0.01346,0.00502,-0.0611
5.1,0.9843,0.01353,0.00508,-0.0613
5.2,0.9978,0.0136,0.00513,-0.0615
5.3,1.0113,0.01367,0.00519,-0.0617
5.4,1.0248,0.01374,0.00525,-0.0619
5.5,1.0383,0.01381,0.00532,-0.0621
5.6,1.0519,0.01386,0.00538,-0.0623
5.7,1.0655,0.01389,0.00543,-0.0625
5.8,1.0791,0.01395,0.00549,-0.0627
5.9,1.0926,0.01402,0.00555,-0.0629
6,1.1062,0.01408,0.00562,-0.0631
6.1,1.1197,0.01415,0.00568,-0.0633
6.2,1.1332,0.01422,0.00574,-0.0634
6.3,1.1468,0.01429,0.00581,-0.0636
6.4,1.1603,0.01435,0.00587,-0.0638
6.5,1.1738,0.01443,0.00594,-0.064
6.6,1.1873,0.01451,0.00601,-0.0642
6.7,1.2008,0.01459,0.00608,-0.0644
6.8,1.2143,0.01468,0.00615,-0.0646
6.9,1.2278,0.01476,0.00622,-0.0647
7,1.2412,0.01483,0.0063,-0.0649
7.1,1.2546,0.01494,0.00638,-0.0651
7.2,1.2682,0.015,0.00645,-0.0652
7.3,1.2817,0.01507,0.00652,-0.0654
7.4,1.2953,0.01513,0.00659,-0.0656
7.5,1.3088,0.0152,0.00666,-0.0657
7.6,1.3223,0.01528,0.00674,-0.0659
7.7,1.3358,0.01535,0.00681,-0.0661
7.8,1.3493,0.01544,0.00689,-0.0662
7.9,1.3628,0.01552,0.00697,-0.0664
8,1.3763,0.01561,0.00704,-0.0665
8.1,1.3898,0.01569,0.00712,-0.0667
8.2,1.4032,0.01578,0.00721,-0.0669
8.3,1.4167,0.01588,0.00729,-0.067
8.4,1.4301,0.01596,0.00737,-0.0672
8.5,1.4436,0.01606,0.00746,-0.0673
8.6,1.457,0.01616,0.00754,-0.0675
8.7,1.4704,0.01626,0.00763,-0.0676
8.8,1.4838,0.01638,0.00773,-0.0677
8.9,1.4973,0.01646,0.00782,-0.0679
9,1.5108,0.01654,0.0079,-0.068
9.1,1.5243,0.01661,0.00799,-0.0681
9.2,1.5377,0.01669,0.00808,-0.0683
9.3,1.5512,0.01678,0.00816,-0.0684
9.4,1.5647,0.01687,0.00825,-0.0685
9.5,1.5782,0.01696,0.00833,-0.0687
9.6,1.5916,0.01705,0.00843,-0.0688
9.7,1.6051,0.01715,0.00852,-0.0689
9.8,1.6185,0.01725,0.00861,-0.069
9.9,1.6319,0.01733,0.0087,-0.0691
10,1.6453,0.01744,0.0088,-0.0693
10.1,1.6587,0.01754,0.0089,-0.0694
10.2,1.6721,0.01765,0.00899,-0.0695
10.3,1.6855,0.01776,0.00909,-0.0696
10.4,1.6988,0.01786,0.00919,-0.0697
10.5,1.7122,0.01798,0.0093,-0.0698
10.6,1.7255,0.01811,0.00941,-0.0699
10.7,1.7387,0.01822,0.00952,-0.07
10.8,1.7521,0.0183,0.00962,-0.0701
10.9,1.7656,0.01839,0.00972,-0.0702
11,1.779,0.01848,0.00982,-0.0703
11.1,1.7924,0.01857,0.00992,-0.0704
11.2,1.8058,0.01867,0.01002,-0.0705
11.3,1.8193,0.01878,0.01013,-0.0706
11.4,1.8327,0.01888,0.01023,-0.0706
11.5,1.8459,0.01897,0.01033,-0.0707
11.6,1.8592,0.01908,0.01043,-0.0708
11.7,1.8725,0.01918,0.01054,-0.0708
11.8,1.8859,0.01929,0.01065,-0.0709
11.9,1.8992,0.01941,0.01076,-0.071
12,1.9125,0.01952,0.01087,-0.071
12.1,1.9257,0.01963,0.01098,-0.0711
12.2,1.9386,0.01971,0.01109,-0.0711
12.3,1.9521,0.01986,0.01121,-0.0712
12.4,1.9653,0.01999,0.01133,-0.0712
12.5,1.9785,0.02012,0.01145,-0.0713
12.6,1.9916,0.02025,0.01158,-0.0713
12.7,2.0048,0.02039,0.01171,-0.0714
12.8,2.018,0.02049,0.01183,-0.0714
12.9,2.0313,0.02059,0.01194,-0.0714
13,2.0444,0.02067,0.01205,-0.0714
13.1,2.0576,0.02078,0.01217,-0.0714
13.2,2.0709,0.02089,0.01229,-0.0714
13.3,2.0842,0.021,0.01241,-0.0715
13.4,2.0973,0.0211,0.01253,-0.0715
13.7,2.1367,0.02144,0.01288,-0.0715
13.8,2.1498,0.02156,0.013,-0.0715
13.9,2.1625,0.02166,0.01312,-0.0714
14,2.1755,0.02178,0.01325,-0.0714
14.2,2.2017,0.02203,0.0135,-0.0713
14.3,2.2146,0.02216,0.01363,-0.0713
14.4,2.2275,0.02229,0.01376,-0.0713
14.5,2.2404,0.02242,0.01389,-0.0712
14.6,2.2533,0.02256,0.01403,-0.0712
14.7,2.2655,0.02268,0.01416,-0.071
14.8,2.2784,0.02284,0.01431,-0.0709
14.9,2.2913,0.02299,0.01446,-0.0709
15,2.3043,0.02309,0.01458,-0.0708
15.1,2.3171,0.02319,0.01471,-0.0708
15.2,2.3298,0.02329,0.01484,-0.0706
15.3,2.3426,0.0234,0.01497,-0.0705
15.4,2.3554,0.02351,0.0151,-0.0704
15.5,2.3674,0.0236,0.01522,-0.0701
15.6,2.38,0.02372,0.01535,-0.07
15.7,2.3925,0.02383,0.01549,-0.0698
15.8,2.405,0.02395,0.01562,-0.0697
15.9,2.4175,0.02405,0.01573,-0.0696
16,2.4301,0.02418,0.01587,-0.0694
16.1,2.4423,0.02429,0.016,-0.0692
16.2,2.453,0.02437,0.0161,-0.0687
16.3,2.4653,0.02449,0.01623,-0.0685
16.4,2.4777,0.02461,0.01636,-0.0683
16.7,2.5167,0.02503,0.01679,-0.0682
16.8,2.5294,0.02518,0.01695,-0.0681
16.9,2.5421,0.02534,0.0171,-0.068
17,2.5547,0.0255,0.01727,-0.0679
17.1,2.5674,0.02567,0.01744,-0.0678
17.2,2.5799,0.02585,0.01761,-0.0677
17.3,2.5926,0.02599,0.01777,-0.0676
17.4,2.6054,0.02611,0.01792,-0.0675
17.5,2.6181,0.02623,0.01808,-0.0673
17.6,2.6307,0.02636,0.01823,-0.0672
17.7,2.6434,0.0265,0.01839,-0.0671
17.8,2.656,0.02663,0.01855,-0.0669
17.9,2.6685,0.02677,0.01871,-0.0668
18,2.6809,0.02691,0.01888,-0.0666
18.1,2.6936,0.02706,0.01904,-0.0665
18.2,2.706,0.0272,0.01921,-0.0663
18.3,2.7184,0.02735,0.01938,-0.0661
18.4,2.7308,0.0275,0.01954,-0.0659
18.5,2.7431,0.02765,0.01971,-0.0658
18.6,2.7552,0.02778,0.01985,-0.0656
18.7,2.7674,0.02793,0.02002,-0.0654
18.8,2.7796,0.02808,0.02019,-0.0652
18.9,2.7917,0.02824,0.02036,-0.065
19,2.8038,0.0284,0.02053,-0.0648
19.1,2.816,0.02856,0.0207,-0.0646
19.2,2.828,0.02872,0.02088,-0.0644
19.3,2.8399,0.02889,0.02106,-0.0642
19.4,2.8517,0.02906,0.02124,-0.0639
19.5,2.8634,0.02924,0.02142,-0.0637
19.6,2.8751,0.02943,0.02161,-0.0634
19.7,2.8867,0.02962,0.02181,-0.0632
19.8,2.8984,0.02977,0.022,-0.0629
19.9,2.9102,0.02991,0.02218,-0.0627
20,2.9218,0.03006,0.02236,-0.0624
20.1,2.9333,0.0302,0.02255,-0.0621
20.2,2.9453,0.03036,0.02274,-0.0619
20.3,2.9568,0.03051,0.02293,-0.0616
20.4,2.9682,0.03067,0.02312,-0.0613
20.5,2.9795,0.03083,0.02331,-0.061
20.6,2.9907,0.03099,0.0235,-0.0606
20.7,3.0019,0.03115,0.0237,-0.0603
20.8,3.0129,0.03131,0.02389,-0.06
20.9,3.0239,0.03148,0.02409,-0.0597
21,3.0348,0.03164,0.02428,-0.0593
21.1,3.0456,0.03181,0.02448,-0.059
21.2,3.0563,0.03198,0.02468,-0.0586
21.3,3.0665,0.03212,0.02484,-0.0582
21.4,3.0779,0.0323,0.02504,-0.058
21.5,3.0883,0.03247,0.02524,-0.0576
21.6,3.0986,0.03265,0.02544,-0.0572
21.7,3.1089,0.03282,0.02563,-0.0569
21.8,3.119,0.033,0.02584,-0.0565
21.9,3.1289,0.03318,0.02604,-0.0561
22,3.1388,0.03336,0.02624,-0.0557
22.1,3.1484,0.03355,0.02645,-0.0553
22.2,3.1579,0.03374,0.02666,-0.0549
22.3,3.1673,0.03394,0.02687,-0.0545
22.4,3.1763,0.03414,0.02709,-0.054
22.5,3.1853,0.03433,0.02732,-0.0536
22.6,3.1955,0.0345,0.02754,-0.0533
22.7,3.2044,0.03466,0.02775,-0.0529
22.8,3.2131,0.03482,0.02797,-0.0524
22.9,3.2216,0.03499,0.02819,-0.0519
23,3.23,0.03516,0.02842,-0.0515
23.1,3.2382,0.03534,0.02864,-0.051
23.2,3.2461,0.03551,0.02886,-0.0506
23.3,3.2539,0.03568,0.02908,-0.0501
23.4,3.2613,0.03585,0.0293,-0.0496
23.5,3.2684,0.03602,0.02951,-0.0491
23.6,3.275,0.03619,0.02972,-0.0486
23.7,3.2815,0.03635,0.02993,-0.0481
23.8,3.2877,0.03651,0.03014,-0.0476
23.9,3.2935,0.03667,0.03035,-0.0471
24,3.301,0.03684,0.03056,-0.047
24.1,3.3068,0.037,0.03076,-0.0466
24.2,3.3111,0.03714,0.03095,-0.0461
24.3,3.3141,0.03726,0.0311,-0.0456
24.4,3.319,0.03742,0.0313,-0.0453
24.5,3.3252,0.03758,0.0315,-0.0453
24.6,3.3326,0.03774,0.0317,-0.0456
24.7,3.3408,0.0379,0.0319,-0.0459
24.8,3.3497,0.03806,0.0321,-0.0464
24.9,3.3592,0.03821,0.03229,-0.0471
25,3.3691,0.03837,0.03249,-0.0478
25.1,3.3795,0.03854,0.03269,-0.0487
25.2,3.3901,0.0387,0.03289,-0.0497
25.3,3.4008,0.03887,0.0331,-0.0507
25.4,3.4137,0.03908,0.03333,-0.0522
25.5,3.4253,0.03927,0.03358,-0.0535
25.6,3.4371,0.03946,0.03386,-0.0551
25.7,3.449,0.03968,0.03416,-0.0567
25.8,3.4609,0.03991,0.03448,-0.0584
25.9,3.4726,0.04018,0.03482,-0.0602
26,3.4841,0.04047,0.0352,-0.0622
26.1,3.4953,0.0408,0.03561,-0.0643
26.2,3.506,0.04117,0.03606,-0.0666
26.3,3.5161,0.04159,0.03657,-0.0691
26.4,3.5253,0.04207,0.03714,-0.072
26.5,3.5332,0.04262,0.03779,-0.0751
26.6,3.5433,0.04332,0.03859,-0.0792
26.7,3.549,0.04414,0.03952,-0.0835
26.8,3.5522,0.0452,0.04071,-0.0889
26.9,3.5514,0.04668,0.04232,-0.0958
27,3.5429,0.04894,0.04477,-0.1054
27.1,3.5181,0.05295,0.04904,-0.1202
27.2,3.4738,0.05909,0.05549,-0.1399
27.3,3.4498,0.06283,0.05937,-0.1515
27.4,3.3609,0.07307,0.07022,-0.184
27.5,3.3334,0.07682,0.07416,-0.1975
27.6,3.3172,0.07941,0.07685,-0.2073
27.7,3.3145,0.08062,0.07807,-0.2121
27.8,3.3146,0.08151,0.07899,-0.2158
27.9,3.3181,0.08234,0.07982,-0.2194
28,3.32,0.08313,0.08061,-0.2225
28.1,3.3231,0.08378,0.08126,-0.2252
28.2,3.3276,0.0843,0.08177,-0.2273
28.5,3.2476,0.09784,0.0958,-0.2645
28.6,3.2516,0.09852,0.09648,-0.2663
28.7,3.2559,0.09916,0.09711,-0.268
28.8,3.2608,0.09971,0.09766,-0.2695
28.9,3.2659,0.10023,0.09817,-0.2708
29,3.2714,0.10069,0.09863,-0.272
29.1,3.2772,0.10112,0.09904,-0.2732
29.2,3.2833,0.10151,0.09941,-0.2741

