airfoilName st4.dat
Re 	990000
M 	2.500000e-01
N 	4.500000e+00
VACC 	0 VACCflag 1
XTR 	1.00 	1.00 XTRflag 0
alpha,cl,cd,cdp,cm
-23.6,-2.444,0.15252,0.15093,0.2123
-23.5,-2.4392,0.15078,0.14919,0.2104
-23.4,-2.4346,0.14896,0.14738,0.2083
-23.3,-2.4301,0.1471,0.14552,0.2062
-23.2,-2.4258,0.14511,0.14353,0.2038
-23.1,-2.4219,0.14294,0.14135,0.2013
-23,-2.4188,0.14039,0.13879,0.1982
-22.9,-2.4168,0.13735,0.13573,0.1945
-22.8,-2.4147,0.13438,0.13275,0.1907
-22.7,-2.4137,0.13097,0.12931,0.1863
-22.6,-2.4167,0.12602,0.12429,0.1797
-22.5,-2.4166,0.12241,0.12064,0.1747
-22.4,-2.4212,0.11715,0.11529,0.1672
-22.3,-2.4207,0.11388,0.11197,0.1623
-22.2,-2.4212,0.11029,0.1083,0.1568
-22.1,-2.4219,0.10661,0.10455,0.1509
-22,-2.4196,0.10397,0.10188,0.1465
-21.9,-2.4171,0.10138,0.09926,0.1419
-21.8,-2.4162,0.09815,0.09599,0.136
-21.7,-2.4134,0.09554,0.09335,0.1309
-21.6,-2.4115,0.09253,0.0903,0.1248
-21.5,-2.4104,0.08912,0.08683,0.1176
-21.4,-2.4078,0.08609,0.08375,0.1107
-21.3,-2.4071,0.08244,0.08002,0.1019
-21.2,-2.4067,0.07866,0.07615,0.0924
-21.1,-2.4051,0.07531,0.07271,0.0836
-21,-2.4054,0.07109,0.06838,0.0726
-20.9,-2.4073,0.06606,0.0632,0.0596
-20.6,-2.4094,0.03946,0.03549,-0.0097
-20.5,-2.3894,0.03701,0.03283,-0.0174
-20.4,-2.3692,0.0356,0.03128,-0.0225
-20.3,-2.3496,0.03462,0.03018,-0.0265
-20.2,-2.3309,0.03387,0.02933,-0.0297
-20.1,-2.3131,0.03325,0.02862,-0.0324
-20,-2.2961,0.03273,0.02802,-0.0347
-19.9,-2.2799,0.03225,0.02746,-0.0367
-19.8,-2.2647,0.03171,0.02687,-0.0389
-19.7,-2.2516,0.03127,0.02636,-0.0404
-19.6,-2.2398,0.03087,0.02591,-0.0414
-19.5,-2.2285,0.03049,0.02547,-0.0421
-19.4,-2.2175,0.03012,0.02506,-0.0426
-19.3,-2.2064,0.02976,0.02465,-0.043
-19.2,-2.1955,0.02942,0.02426,-0.0432
-19.1,-2.1845,0.02908,0.02388,-0.0434
-19,-2.1733,0.02875,0.02351,-0.0436
-18.9,-2.1621,0.02843,0.02314,-0.0437
-18.8,-2.1508,0.02812,0.02279,-0.0438
-18.7,-2.1394,0.02781,0.02244,-0.0438
-18.6,-2.1279,0.02752,0.0221,-0.0438
-18.5,-2.1163,0.02723,0.02176,-0.0438
-18.4,-2.1046,0.02694,0.02144,-0.0438
-18.3,-2.0929,0.02666,0.02112,-0.0437
-18.2,-2.081,0.02639,0.02081,-0.0437
-18.1,-2.0691,0.02613,0.0205,-0.0436
-18,-2.0571,0.02587,0.02021,-0.0435
-17.9,-2.045,0.02562,0.01992,-0.0434
-17.8,-2.0329,0.02537,0.01963,-0.0433
-17.7,-2.0206,0.02513,0.01936,-0.0432
-17.6,-2.0083,0.02491,0.01909,-0.043
-17.5,-1.9962,0.02463,0.01878,-0.0429
-17.4,-1.984,0.02436,0.01848,-0.0429
-17.3,-1.9717,0.0241,0.01819,-0.0428
-17.2,-1.9594,0.02384,0.01793,-0.0427
-17.1,-1.9469,0.0236,0.01766,-0.0426
-17,-1.9344,0.02337,0.0174,-0.0425
-16.9,-1.9217,0.02315,0.01715,-0.0424
-16.8,-1.9091,0.02292,0.0169,-0.0422
-16.7,-1.8964,0.02271,0.01666,-0.0421
-16.6,-1.8836,0.02249,0.01642,-0.042
-16.5,-1.8708,0.02229,0.01619,-0.0419
-16.4,-1.8579,0.02208,0.01596,-0.0418
-16.3,-1.845,0.02188,0.01573,-0.0417
-16.2,-1.8321,0.02169,0.01551,-0.0416
-16.1,-1.8191,0.02149,0.0153,-0.0414
-16,-1.8061,0.02131,0.01508,-0.0413
-15.9,-1.793,0.02112,0.01488,-0.0412
-15.8,-1.78,0.02095,0.01468,-0.0411
-15.7,-1.7668,0.02078,0.01448,-0.041
-15.6,-1.7538,0.02058,0.01426,-0.0409
-15.5,-1.7408,0.02037,0.01403,-0.0409
-15.4,-1.7277,0.02017,0.01382,-0.0408
-15.3,-1.7145,0.01998,0.01362,-0.0407
-15.2,-1.7014,0.01979,0.01342,-0.0406
-15.1,-1.6882,0.01961,0.01322,-0.0406
-15,-1.675,0.01944,0.01304,-0.0405
-14.9,-1.6617,0.01927,0.01285,-0.0404
-14.8,-1.6485,0.0191,0.01267,-0.0404
-14.7,-1.6352,0.01894,0.01249,-0.0403
-14.6,-1.6219,0.01877,0.01231,-0.0403
-14.5,-1.6086,0.01862,0.01215,-0.0402
-14.4,-1.5953,0.01847,0.01199,-0.0401
-14.3,-1.5819,0.01832,0.01182,-0.0401
-14.2,-1.5685,0.01818,0.01166,-0.04
-14.1,-1.5551,0.01804,0.01151,-0.04
-14,-1.5418,0.01788,0.01133,-0.0399
-13.9,-1.5284,0.01771,0.01115,-0.0399
-13.8,-1.5151,0.01754,0.01098,-0.0399
-13.7,-1.5017,0.01738,0.01082,-0.0399
-13.6,-1.4883,0.01723,0.01066,-0.0399
-13.5,-1.4749,0.01708,0.01051,-0.0398
-13.4,-1.4615,0.01694,0.01036,-0.0398
-13.3,-1.448,0.0168,0.01021,-0.0398
-13.2,-1.4346,0.01666,0.01006,-0.0398
-13.1,-1.4211,0.01652,0.00992,-0.0398
-13,-1.4077,0.01639,0.00978,-0.0398
-12.9,-1.3942,0.01626,0.00964,-0.0398
-12.8,-1.3807,0.01614,0.00951,-0.0398
-12.7,-1.3673,0.01602,0.00938,-0.0397
-12.6,-1.3538,0.0159,0.00924,-0.0397
-12.5,-1.3404,0.01573,0.00909,-0.0398
-12.4,-1.3269,0.01559,0.00895,-0.0398
-12.3,-1.3134,0.01546,0.00882,-0.0398
-12.2,-1.2999,0.01533,0.00869,-0.0398
-12.1,-1.2864,0.0152,0.00856,-0.0399
-12,-1.273,0.01508,0.00844,-0.0399
-11.9,-1.2595,0.01496,0.00832,-0.0399
-11.8,-1.246,0.01484,0.0082,-0.0399
-11.7,-1.2325,0.01473,0.00808,-0.04
-11.6,-1.219,0.01462,0.00797,-0.04
-11.5,-1.2055,0.01451,0.00786,-0.04
-11.4,-1.192,0.0144,0.00774,-0.0401
-11.3,-1.1785,0.01427,0.00761,-0.0401
-11.2,-1.165,0.01414,0.00749,-0.0402
-11.1,-1.1515,0.01402,0.00738,-0.0402
-11,-1.138,0.0139,0.00727,-0.0403
-10.9,-1.1245,0.01379,0.00716,-0.0403
-10.8,-1.111,0.01368,0.00706,-0.0404
-10.7,-1.0975,0.01358,0.00695,-0.0405
-10.6,-1.084,0.01348,0.00685,-0.0405
-10.5,-1.0705,0.01338,0.00676,-0.0406
-10.4,-1.057,0.01329,0.00665,-0.0406
-10.3,-1.0435,0.01316,0.00655,-0.0407
-10.2,-1.03,0.01305,0.00644,-0.0408
-10.1,-1.0165,0.01294,0.00634,-0.0409
-10,-1.003,0.01283,0.00624,-0.0409
-9.9,-0.9888,0.01275,0.00616,-0.0412
-9.8,-0.9742,0.01266,0.00609,-0.0415
-9.7,-0.9596,0.01259,0.00602,-0.0418
-9.6,-0.9457,0.01254,0.00595,-0.0419
-9.5,-0.933,0.01252,0.00589,-0.0418
-9.4,-0.9209,0.01247,0.00582,-0.0415
-9.3,-0.9088,0.01244,0.00575,-0.0413
-9.2,-0.8964,0.0124,0.00567,-0.0411
-9.1,-0.885,0.01245,0.00561,-0.0407
-9,-0.8719,0.01241,0.00554,-0.0407
-8.9,-0.8589,0.01237,0.00546,-0.0407
-8.8,-0.8457,0.01232,0.00539,-0.0408
-8.7,-0.8325,0.01228,0.00532,-0.0408
-8.6,-0.8192,0.01224,0.00524,-0.0408
-8.5,-0.806,0.01217,0.00516,-0.0409
-8.4,-0.7927,0.01209,0.00509,-0.041
-8.3,-0.7794,0.01203,0.00501,-0.0411
-8.2,-0.7662,0.01201,0.00495,-0.0412
-8.1,-0.7529,0.01196,0.00489,-0.0412
-8,-0.7395,0.01191,0.00482,-0.0413
-7.9,-0.7261,0.01186,0.00476,-0.0414
-7.8,-0.7128,0.01179,0.00468,-0.0416
-7.7,-0.6994,0.01173,0.00462,-0.0417
-7.6,-0.686,0.01167,0.00456,-0.0418
-7.5,-0.6726,0.0116,0.00449,-0.0419
-7.4,-0.6592,0.01154,0.00443,-0.042
-7.3,-0.6458,0.01149,0.00438,-0.0421
-7.2,-0.6325,0.01144,0.00431,-0.0423
-7.1,-0.6191,0.01137,0.00425,-0.0424
-7,-0.6057,0.01132,0.0042,-0.0425
-6.9,-0.5924,0.01127,0.00414,-0.0426
-6.8,-0.579,0.01122,0.00409,-0.0428
-6.7,-0.5656,0.01117,0.00404,-0.0429
-6.6,-0.5522,0.0111,0.00398,-0.043
-6.5,-0.5388,0.01104,0.00393,-0.0432
-6.4,-0.5254,0.01098,0.00388,-0.0433
-6.3,-0.512,0.01092,0.00383,-0.0435
-6.2,-0.4988,0.01091,0.00379,-0.0436
-6.1,-0.4854,0.01086,0.00374,-0.0437
-6,-0.4721,0.01083,0.00369,-0.0439
-5.9,-0.4587,0.01077,0.00365,-0.044
-5.8,-0.4454,0.01072,0.0036,-0.0442
-5.7,-0.4321,0.01069,0.00357,-0.0443
-5.6,-0.4187,0.01065,0.00353,-0.0445
-5.5,-0.4053,0.0106,0.00348,-0.0446
-5.4,-0.3919,0.01055,0.00344,-0.0448
-5.3,-0.3786,0.0105,0.0034,-0.0449
-5.2,-0.3653,0.01047,0.00336,-0.0451
-5.1,-0.352,0.01046,0.00333,-0.0452
-5,-0.3387,0.0104,0.00329,-0.0454
-4.9,-0.3253,0.01035,0.00325,-0.0456
-4.8,-0.3119,0.01031,0.00322,-0.0457
-4.7,-0.2985,0.01027,0.00319,-0.0459
-4.6,-0.2852,0.01024,0.00316,-0.046
-4.5,-0.2718,0.01019,0.00311,-0.0462
-4.4,-0.2586,0.01016,0.00309,-0.0464
-4.3,-0.2453,0.01013,0.00306,-0.0466
-4.2,-0.232,0.01011,0.00303,-0.0467
-4.1,-0.2186,0.01007,0.003,-0.0469
-4,-0.2053,0.01003,0.00297,-0.0471
-3.9,-0.1919,0.01,0.00295,-0.0472
-3.8,-0.1786,0.00997,0.00292,-0.0474
-3.7,-0.1653,0.00992,0.00289,-0.0476
-3.6,-0.1521,0.00992,0.00287,-0.0478
-3.5,-0.1387,0.00989,0.00285,-0.0479
-3.4,-0.1254,0.00987,0.00283,-0.0481
-3.3,-0.1121,0.00985,0.0028,-0.0483
-3.2,-0.0988,0.00982,0.00279,-0.0485
-3.1,-0.0855,0.00978,0.00277,-0.0487
-3,-0.0722,0.00976,0.00274,-0.0488
-2.9,-0.059,0.00978,0.00274,-0.049
-2.8,-0.0457,0.00975,0.00272,-0.0492
-2.7,-0.0326,0.00978,0.00271,-0.0494
-2.6,-0.0193,0.00977,0.0027,-0.0495
-2.5,-0.006,0.00972,0.00268,-0.0498
-2.4,0.0073,0.00972,0.00267,-0.0499
-2.3,0.0205,0.00972,0.00267,-0.0501
-2.2,0.0338,0.0097,0.00265,-0.0503
-2.1,0.0471,0.00969,0.00264,-0.0505
-2,0.0603,0.0097,0.00264,-0.0507
-1.9,0.0736,0.00967,0.00263,-0.0509
-1.8,0.0869,0.00967,0.00262,-0.0511
-1.7,0.1,0.0097,0.00263,-0.0512
-1.6,0.113,0.00977,0.00264,-0.0514
-1.5,0.1261,0.0098,0.00264,-0.0516
-1.4,0.1393,0.00982,0.00265,-0.0518
-1.3,0.1525,0.00983,0.00265,-0.052
-1.2,0.1656,0.00986,0.00266,-0.0522
-1.1,0.1786,0.00993,0.00268,-0.0524
-1,0.1917,0.00999,0.0027,-0.0526
-0.9,0.2047,0.01006,0.00272,-0.0528
-0.8,0.2178,0.0101,0.00274,-0.053
-0.7,0.2307,0.01021,0.00277,-0.0532
-0.6,0.2435,0.01032,0.00281,-0.0534
-0.5,0.2565,0.01043,0.00285,-0.0537
-0.4,0.2692,0.01058,0.0029,-0.0539
-0.3,0.2824,0.0106,0.00292,-0.0541
-0.2,0.2956,0.01063,0.00294,-0.0543
-0.1,0.3087,0.01066,0.00296,-0.0545
0,0.3218,0.0107,0.00297,-0.0547
0.1,0.335,0.01072,0.003,-0.0549
0.2,0.3482,0.01073,0.00302,-0.0551
0.3,0.3615,0.01073,0.00303,-0.0553
0.4,0.3747,0.01074,0.00304,-0.0555
0.5,0.3878,0.01077,0.00306,-0.0557
0.6,0.401,0.0108,0.00308,-0.0558
0.7,0.4141,0.01084,0.00312,-0.056
0.8,0.4274,0.01084,0.00313,-0.0563
0.9,0.4406,0.01085,0.00315,-0.0564
1,0.4538,0.01087,0.00317,-0.0566
1.1,0.4669,0.01089,0.00319,-0.0568
1.2,0.4801,0.01092,0.00321,-0.057
1.3,0.4933,0.01093,0.00324,-0.0572
1.4,0.5065,0.01097,0.00326,-0.0574
1.5,0.5197,0.01098,0.00329,-0.0576
1.6,0.5329,0.011,0.00331,-0.0578
1.7,0.5461,0.01102,0.00334,-0.0579
1.8,0.5593,0.01102,0.00336,-0.0582
1.9,0.5725,0.01105,0.00339,-0.0583
2,0.5856,0.01109,0.00341,-0.0585
2.1,0.5988,0.01112,0.00344,-0.0587
2.2,0.6119,0.01116,0.00348,-0.0589
2.3,0.6251,0.01118,0.00351,-0.0591
2.4,0.6383,0.0112,0.00354,-0.0593
2.5,0.6515,0.01123,0.00357,-0.0595
2.6,0.6646,0.01125,0.0036,-0.0596
2.7,0.6778,0.01128,0.00363,-0.0598
2.8,0.691,0.01129,0.00366,-0.06
2.9,0.7042,0.01132,0.0037,-0.0602
3,0.7173,0.01136,0.00373,-0.0604
3.1,0.7305,0.01141,0.00377,-0.0605
3.2,0.7436,0.01145,0.00381,-0.0607
3.3,0.7567,0.01151,0.00386,-0.0609
3.4,0.7699,0.01151,0.00389,-0.0611
3.5,0.7831,0.01154,0.00393,-0.0612
3.6,0.7962,0.01158,0.00397,-0.0614
3.7,0.8093,0.01162,0.00401,-0.0615
3.8,0.8225,0.01165,0.00405,-0.0617
3.9,0.8357,0.01167,0.00409,-0.0619
4,0.8488,0.01171,0.00413,-0.0621
4.1,0.8619,0.01176,0.00418,-0.0622
4.2,0.875,0.01181,0.00423,-0.0624
4.3,0.8881,0.01186,0.00428,-0.0625
4.4,0.9013,0.01189,0.00433,-0.0627
4.5,0.9144,0.01194,0.00438,-0.0629
4.6,0.9275,0.01197,0.00443,-0.063
4.7,0.9406,0.01202,0.00448,-0.0632
4.8,0.9537,0.01204,0.00453,-0.0633
4.9,0.9668,0.01209,0.00458,-0.0635
5,0.9799,0.01214,0.00463,-0.0636
5.1,0.993,0.01219,0.00468,-0.0637
5.2,1.0061,0.01225,0.00474,-0.0639
5.3,1.0191,0.01229,0.00479,-0.064
5.4,1.0321,0.01235,0.00485,-0.0641
5.5,1.0452,0.01242,0.00491,-0.0643
5.6,1.0582,0.01249,0.00497,-0.0644
5.7,1.0712,0.01256,0.00504,-0.0645
5.8,1.0843,0.01259,0.0051,-0.0646
5.9,1.0974,0.01264,0.00515,-0.0647
6,1.1104,0.0127,0.00521,-0.0649
6.1,1.1234,0.01276,0.00527,-0.065
6.2,1.1365,0.01282,0.00533,-0.0651
6.3,1.1494,0.01287,0.00539,-0.0652
6.4,1.1625,0.01293,0.00545,-0.0653
6.5,1.1755,0.013,0.00552,-0.0654
6.6,1.1884,0.01307,0.00558,-0.0655
6.7,1.2014,0.01315,0.00565,-0.0656
6.8,1.2143,0.01321,0.00572,-0.0657
6.9,1.2272,0.01329,0.00579,-0.0658
7,1.2402,0.01337,0.00587,-0.0659
7.1,1.2532,0.01342,0.00594,-0.066
7.2,1.2662,0.01348,0.006,-0.0661
7.3,1.2791,0.01353,0.00607,-0.0661
7.4,1.292,0.0136,0.00614,-0.0662
7.5,1.305,0.01366,0.00621,-0.0663
7.6,1.3179,0.01374,0.00628,-0.0663
7.7,1.3308,0.01381,0.00635,-0.0664
7.8,1.3437,0.01388,0.00642,-0.0665
7.9,1.3564,0.01394,0.0065,-0.0665
8,1.3692,0.01402,0.00657,-0.0666
8.1,1.382,0.01411,0.00665,-0.0666
8.2,1.3949,0.0142,0.00673,-0.0667
8.3,1.4077,0.01429,0.00682,-0.0667
8.4,1.42,0.01435,0.00691,-0.0667
8.5,1.4329,0.01441,0.00698,-0.0667
8.6,1.4457,0.01448,0.00705,-0.0667
8.7,1.4584,0.01455,0.00713,-0.0667
8.8,1.4711,0.01462,0.00721,-0.0667
8.9,1.4831,0.01466,0.00728,-0.0666
9,1.4956,0.01473,0.00736,-0.0665
9.1,1.5082,0.01481,0.00744,-0.0665
9.2,1.5207,0.01488,0.00751,-0.0665
9.3,1.5329,0.01496,0.00759,-0.0664
9.4,1.5434,0.01499,0.00764,-0.0659
9.5,1.5554,0.01506,0.00771,-0.0657
9.6,1.5671,0.01512,0.00778,-0.0655
9.7,1.5791,0.0152,0.00785,-0.0654
9.8,1.5923,0.01527,0.00791,-0.0655
9.9,1.6051,0.01538,0.00802,-0.0655
10,1.6182,0.01546,0.0081,-0.0656
10.1,1.6312,0.01555,0.00819,-0.0656
10.2,1.6442,0.01564,0.00828,-0.0657
10.3,1.6572,0.01574,0.00838,-0.0657
10.4,1.6701,0.01583,0.00847,-0.0658
10.5,1.6831,0.01593,0.00857,-0.0658
10.6,1.6961,0.01603,0.00867,-0.0659
10.7,1.709,0.01613,0.00876,-0.0659
10.8,1.7219,0.01623,0.00886,-0.066
10.9,1.7348,0.01634,0.00897,-0.066
11,1.7476,0.01646,0.00907,-0.066
11.1,1.7605,0.01658,0.00917,-0.0661
11.2,1.7733,0.0167,0.00928,-0.0661
11.3,1.7862,0.01682,0.00939,-0.0661
11.4,1.7989,0.01694,0.00951,-0.0661
11.5,1.8117,0.01705,0.00963,-0.0661
11.6,1.8247,0.01715,0.00973,-0.0662
11.7,1.8376,0.01725,0.00983,-0.0662
11.8,1.8505,0.01735,0.00994,-0.0662
11.9,1.8634,0.01745,0.01005,-0.0662
12,1.8763,0.01756,0.01016,-0.0662
12.1,1.8891,0.01767,0.01027,-0.0662
12.2,1.9019,0.01778,0.01038,-0.0662
12.3,1.9147,0.01789,0.0105,-0.0662
12.4,1.9275,0.01801,0.01061,-0.0661
12.5,1.9403,0.01812,0.01073,-0.0661
12.6,1.9531,0.01825,0.01085,-0.0661
12.7,1.9657,0.01838,0.01097,-0.0661
12.8,1.9784,0.01851,0.01109,-0.0661
12.9,1.991,0.01864,0.01122,-0.066
13,2.0035,0.01878,0.01135,-0.066
13.1,2.0161,0.01892,0.01149,-0.066
13.2,2.0288,0.01904,0.01163,-0.0659
13.3,2.0416,0.01914,0.01175,-0.0659
13.4,2.0543,0.01925,0.01187,-0.0658
13.5,2.0671,0.01937,0.01199,-0.0658
13.6,2.0798,0.01949,0.01212,-0.0657
13.7,2.0924,0.01961,0.01225,-0.0657
13.8,2.1051,0.01973,0.01238,-0.0656
13.9,2.1177,0.01986,0.01251,-0.0655
14,2.1303,0.01998,0.01264,-0.0654
14.1,2.1428,0.02011,0.01278,-0.0654
14.2,2.1554,0.02025,0.01292,-0.0653
14.3,2.1679,0.02038,0.01305,-0.0652
14.4,2.1803,0.02052,0.0132,-0.0651
14.5,2.1928,0.02066,0.01334,-0.065
14.6,2.2051,0.0208,0.01349,-0.0649
14.7,2.2171,0.02097,0.01364,-0.0648
14.8,2.2293,0.02112,0.0138,-0.0647
14.9,2.2415,0.02129,0.01397,-0.0645
15,2.2539,0.02141,0.01411,-0.0644
15.1,2.2664,0.02153,0.01425,-0.0643
15.2,2.2788,0.02166,0.0144,-0.0642
15.3,2.2912,0.02179,0.01455,-0.064
15.4,2.3036,0.02193,0.0147,-0.0639
15.5,2.3159,0.02207,0.01485,-0.0637
15.6,2.3282,0.02221,0.015,-0.0636
15.7,2.3404,0.02235,0.01516,-0.0634
15.8,2.3525,0.02249,0.01532,-0.0633
15.9,2.3647,0.02264,0.01548,-0.0631
16,2.3767,0.02279,0.01564,-0.0629
16.1,2.3887,0.02295,0.0158,-0.0627
16.2,2.4007,0.0231,0.01597,-0.0625
16.3,2.4126,0.02326,0.01614,-0.0624
16.4,2.4244,0.02342,0.01632,-0.0621
16.5,2.4359,0.02359,0.0165,-0.0619
16.6,2.4473,0.02378,0.01668,-0.0617
16.7,2.4589,0.02396,0.01688,-0.0614
16.8,2.4703,0.02415,0.01707,-0.0612
16.9,2.4821,0.0243,0.01725,-0.061
17,2.4939,0.02444,0.01742,-0.0607
17.1,2.5057,0.02459,0.01759,-0.0605
17.2,2.5174,0.02474,0.01777,-0.0602
17.3,2.529,0.0249,0.01795,-0.06
17.4,2.5406,0.02506,0.01813,-0.0597
17.5,2.5521,0.02522,0.01832,-0.0594
17.6,2.5636,0.02539,0.01851,-0.0592
17.7,2.5749,0.02556,0.0187,-0.0589
17.8,2.5861,0.02573,0.01889,-0.0586
17.9,2.5973,0.02591,0.01909,-0.0582
18,2.6083,0.02609,0.01929,-0.0579
18.1,2.6192,0.02627,0.01949,-0.0576
18.2,2.6301,0.02645,0.01969,-0.0573
18.3,2.6407,0.02664,0.0199,-0.0569
18.4,2.6511,0.02683,0.02012,-0.0565
18.5,2.6616,0.02703,0.02033,-0.0561
18.6,2.6719,0.02723,0.02055,-0.0558
18.7,2.6821,0.02744,0.02078,-0.0554
18.8,2.692,0.02766,0.02102,-0.055
18.9,2.7017,0.02788,0.02126,-0.0545
19,2.7117,0.02807,0.02148,-0.0541
19.1,2.722,0.02824,0.02169,-0.0537
19.2,2.7322,0.02843,0.02191,-0.0533
19.3,2.7421,0.02862,0.02213,-0.0528
19.4,2.7519,0.02881,0.02236,-0.0524
19.5,2.7615,0.02901,0.02259,-0.0519
19.6,2.7709,0.02921,0.02282,-0.0515
19.8,2.7894,0.02962,0.0233,-0.0505
19.9,2.7983,0.02983,0.02354,-0.05
20,2.8071,0.03004,0.02379,-0.0495
20.1,2.8154,0.03026,0.02403,-0.0489
20.2,2.8232,0.03048,0.02429,-0.0483
20.3,2.8308,0.0307,0.02455,-0.0477
20.4,2.8383,0.03093,0.0248,-0.0471
20.5,2.8453,0.03115,0.02506,-0.0465
20.6,2.852,0.03139,0.02532,-0.0459
20.7,2.8582,0.03163,0.02559,-0.0452
20.8,2.864,0.03187,0.02587,-0.0445
20.9,2.8695,0.03212,0.02616,-0.0438
21,2.8746,0.03238,0.02645,-0.0432
21.1,2.8754,0.03267,0.02676,-0.0422
21.2,2.8773,0.03296,0.02709,-0.0413
21.3,2.8819,0.03322,0.0274,-0.0407
21.4,2.888,0.03346,0.02769,-0.0404
21.5,2.8947,0.03371,0.02799,-0.0402
21.6,2.9019,0.03396,0.02829,-0.0401
21.7,2.9098,0.03422,0.0286,-0.0402
21.8,2.9179,0.03447,0.02891,-0.0404
21.9,2.9263,0.03474,0.02922,-0.0408
22,2.9351,0.03501,0.02954,-0.0412
22.1,2.9442,0.03528,0.02986,-0.0417
22.2,2.9537,0.03556,0.03019,-0.0424
22.3,2.9634,0.03585,0.03052,-0.0431
22.4,2.9733,0.03615,0.03087,-0.044
22.5,2.9834,0.03645,0.03122,-0.045
22.6,2.9937,0.03677,0.03159,-0.0461
22.7,3.0042,0.0371,0.03198,-0.0473
22.8,3.0147,0.03746,0.03238,-0.0486
22.9,3.0252,0.03784,0.03281,-0.05
23,3.0359,0.03824,0.03327,-0.0517
23.1,3.0462,0.03869,0.03377,-0.0534
23.2,3.0564,0.03917,0.03431,-0.0553
23.3,3.0662,0.03971,0.03491,-0.0575
23.4,3.0755,0.04033,0.03559,-0.0599
23.5,3.0843,0.04102,0.03635,-0.0626
23.6,3.0931,0.04168,0.03709,-0.065
23.7,3.1015,0.04236,0.03786,-0.0675
23.8,3.109,0.04317,0.03875,-0.0703
23.9,3.1155,0.0441,0.03977,-0.0734
24,3.1206,0.0452,0.04098,-0.0771
24.1,3.1239,0.04653,0.04241,-0.0813
24.2,3.1244,0.04822,0.04422,-0.0864
24.3,3.1211,0.05038,0.04653,-0.0926
24.4,3.1118,0.05331,0.04963,-0.1004
24.5,3.0922,0.05757,0.05411,-0.111
24.6,3.0605,0.0634,0.0602,-0.1244
24.7,3.0278,0.06918,0.06622,-0.1374
24.8,3.0056,0.07336,0.07054,-0.1475
24.9,2.9883,0.0768,0.07409,-0.1564
25,2.9781,0.07925,0.0766,-0.1632
25.1,2.9643,0.08207,0.0795,-0.1713
25.2,2.9567,0.08407,0.08156,-0.1775
25.3,2.945,0.08665,0.08427,-0.185
25.4,2.9402,0.08833,0.08603,-0.1902
25.5,2.9301,0.09074,0.08852,-0.1973
25.6,2.9266,0.09235,0.09019,-0.2021
25.7,2.9208,0.09433,0.09223,-0.2076
25.8,2.9151,0.09638,0.09434,-0.2129
25.9,2.9133,0.09792,0.09591,-0.2169
26,2.9121,0.09939,0.09741,-0.2205
26.1,2.9079,0.10135,0.09941,-0.2251
26.2,2.9059,0.10299,0.10106,-0.2289
26.3,2.9061,0.10432,0.1024,-0.232
26.4,2.9071,0.10551,0.1036,-0.2348
26.5,2.909,0.10662,0.10471,-0.2373
26.6,2.9001,0.10941,0.1076,-0.243
26.7,2.894,0.11175,0.11002,-0.2478
26.8,2.889,0.11394,0.11227,-0.2522
26.9,2.8837,0.11618,0.11456,-0.2567
27,2.8798,0.1182,0.11662,-0.2607
27.1,2.8791,0.11971,0.11816,-0.2637
27.2,2.8793,0.12107,0.11953,-0.2664
27.3,2.88,0.12234,0.12081,-0.2689
27.4,2.8812,0.12354,0.12202,-0.2713
27.5,2.8825,0.12472,0.1232,-0.2735
27.6,2.8833,0.12597,0.12445,-0.276
27.7,2.8851,0.12707,0.12554,-0.2781
27.8,2.8878,0.12801,0.12648,-0.2799
27.9,2.8775,0.13109,0.12965,-0.2857
28,2.8585,0.13574,0.13444,-0.2945
28.1,2.8551,0.13773,0.13646,-0.2981
28.2,2.8538,0.13937,0.13812,-0.3012
28.3,2.8539,0.14078,0.13955,-0.3037
28.4,2.8547,0.14207,0.14084,-0.306
28.5,2.8555,0.14336,0.14213,-0.3083
28.6,2.8573,0.14446,0.14324,-0.3103
28.7,2.8619,0.14508,0.14383,-0.3112
28.8,2.8648,0.14597,0.14472,-0.3128
28.9,2.8681,0.14681,0.14554,-0.3142
29,2.8716,0.14758,0.14631,-0.3156
29.3,2.8324,0.15929,0.15827,-0.3365
29.4,2.8342,0.1604,0.15938,-0.3384
29.5,2.8387,0.1611,0.16007,-0.3394
29.6,2.8413,0.16204,0.16101,-0.341
29.7,2.8444,0.1629,0.16186,-0.3424
29.8,2.8494,0.16338,0.16232,-0.3431
29.9,2.8527,0.16417,0.1631,-0.3444
30,2.8562,0.16493,0.16385,-0.3456

