airfoilName st4.dat
Re 	530000
M 	2.500000e-01
N 	4.500000e+00
VACC 	0 VACCflag 1
XTR 	1.00 	1.00 XTRflag 0
alpha,cl,cd,cdp,cm
-20.9,-2.325,0.09681,0.0943,0.1387
-20.8,-2.3197,0.0951,0.09259,0.1354
-20.7,-2.3145,0.0933,0.09079,0.1318
-20.6,-2.3096,0.09124,0.08871,0.1276
-20.5,-2.3065,0.08825,0.08568,0.1214
-20.4,-2.3034,0.08509,0.08247,0.1145
-20.3,-2.3017,0.08123,0.07853,0.1059
-20.2,-2.3012,0.07688,0.07406,0.0953
-20.1,-2.3001,0.07269,0.06974,0.0846
-20,-2.2982,0.06858,0.0655,0.0738
-19.9,-2.2955,0.06457,0.06133,0.0631
-19.8,-2.2917,0.06045,0.05706,0.0521
-19.6,-2.2802,0.05149,0.04768,0.0277
-19.5,-2.2699,0.04706,0.043,0.0153
-19.4,-2.2553,0.04329,0.03897,0.0044
-19.3,-2.2365,0.04041,0.03589,-0.0046
-19.2,-2.2159,0.03844,0.03376,-0.0114
-19.1,-2.1951,0.03711,0.03229,-0.0165
-19,-2.1748,0.03614,0.0312,-0.0207
-18.9,-2.1556,0.03538,0.03035,-0.0242
-18.8,-2.1374,0.03475,0.02963,-0.0271
-18.7,-2.1203,0.03421,0.029,-0.0297
-18.6,-2.1047,0.03373,0.02844,-0.0318
-18.5,-2.0907,0.0333,0.02793,-0.0335
-18.4,-2.0776,0.03288,0.02745,-0.0347
-18.3,-2.0656,0.03248,0.02698,-0.0356
-18.2,-2.0539,0.03209,0.02652,-0.0364
-18.1,-2.0422,0.03176,0.02614,-0.0369
-18,-2.0307,0.03138,0.0257,-0.0374
-17.9,-2.0192,0.03102,0.02526,-0.0378
-17.8,-2.0077,0.03066,0.02484,-0.0382
-17.7,-1.9962,0.03031,0.02442,-0.0385
-17.6,-1.9847,0.02997,0.02402,-0.0387
-17.5,-1.973,0.02964,0.02362,-0.0389
-17.4,-1.9614,0.02932,0.02324,-0.0391
-17.3,-1.9499,0.02896,0.02285,-0.0393
-17.2,-1.9384,0.02863,0.02248,-0.0395
-17.1,-1.9267,0.0283,0.02212,-0.0396
-17,-1.9149,0.02799,0.02177,-0.0397
-16.9,-1.9031,0.02769,0.02143,-0.0397
-16.8,-1.8911,0.02739,0.0211,-0.0398
-16.7,-1.8791,0.02711,0.02078,-0.0398
-16.6,-1.8671,0.02683,0.02046,-0.0398
-16.5,-1.8549,0.02655,0.02014,-0.0398
-16.4,-1.8427,0.02628,0.01983,-0.0398
-16.3,-1.8304,0.02601,0.01953,-0.0398
-16.2,-1.8181,0.02575,0.01923,-0.0398
-16.1,-1.8057,0.0255,0.01893,-0.0398
-16,-1.7932,0.02524,0.01864,-0.0397
-15.9,-1.7807,0.025,0.01835,-0.0397
-15.8,-1.7682,0.02475,0.01807,-0.0397
-15.7,-1.7556,0.02452,0.01779,-0.0396
-15.6,-1.7429,0.02429,0.01751,-0.0396
-15.5,-1.7302,0.02407,0.01724,-0.0395
-15.4,-1.7177,0.02381,0.01699,-0.0395
-15.3,-1.705,0.02356,0.01672,-0.0395
-15.2,-1.6923,0.02333,0.01646,-0.0395
-15.1,-1.6795,0.0231,0.01621,-0.0395
-15,-1.6667,0.02287,0.01597,-0.0394
-14.9,-1.6538,0.02265,0.01572,-0.0394
-14.8,-1.6409,0.02244,0.01549,-0.0394
-14.7,-1.628,0.02223,0.01525,-0.0393
-14.6,-1.615,0.02202,0.01502,-0.0393
-14.5,-1.602,0.02182,0.01479,-0.0393
-14.4,-1.589,0.02162,0.01456,-0.0392
-14.3,-1.5759,0.02143,0.01434,-0.0392
-14.2,-1.5628,0.02124,0.01412,-0.0392
-14.1,-1.5497,0.02106,0.01391,-0.0391
-14,-1.5366,0.02088,0.0137,-0.0391
-13.9,-1.5235,0.02069,0.01349,-0.0391
-13.8,-1.5104,0.02048,0.01327,-0.0391
-13.7,-1.4973,0.02027,0.01305,-0.0391
-13.6,-1.4841,0.02008,0.01285,-0.0391
-13.5,-1.4709,0.01989,0.01265,-0.0391
-13.4,-1.4578,0.01972,0.01248,-0.0391
-13.3,-1.4445,0.01955,0.01229,-0.0391
-13.2,-1.4313,0.01937,0.0121,-0.0391
-13.1,-1.418,0.01921,0.01192,-0.0391
-13,-1.4048,0.01904,0.01173,-0.0391
-12.9,-1.3915,0.01888,0.01155,-0.0391
-12.8,-1.3782,0.01873,0.01137,-0.0391
-12.7,-1.3648,0.01858,0.0112,-0.0391
-12.6,-1.3515,0.01842,0.01103,-0.0391
-12.5,-1.3382,0.01824,0.01084,-0.0392
-12.4,-1.3249,0.01806,0.01067,-0.0392
-12.3,-1.3116,0.01789,0.0105,-0.0392
-12.2,-1.2983,0.01773,0.01034,-0.0393
-12.1,-1.2849,0.01758,0.01017,-0.0393
-12,-1.2716,0.01743,0.01002,-0.0393
-11.9,-1.2582,0.01728,0.00986,-0.0394
-11.8,-1.2448,0.01715,0.00972,-0.0394
-11.7,-1.2315,0.01701,0.00957,-0.0394
-11.6,-1.2181,0.01688,0.00942,-0.0395
-11.5,-1.2047,0.01675,0.00927,-0.0395
-11.4,-1.1913,0.01659,0.00912,-0.0396
-11.3,-1.1779,0.01643,0.00897,-0.0396
-11.2,-1.1645,0.01628,0.00882,-0.0397
-11.1,-1.1511,0.01614,0.00868,-0.0398
-11,-1.1377,0.016,0.00854,-0.0398
-10.9,-1.1243,0.01587,0.0084,-0.0399
-10.8,-1.1109,0.01574,0.00827,-0.0399
-10.7,-1.0975,0.01561,0.00814,-0.04
-10.6,-1.0841,0.0155,0.00802,-0.04
-10.5,-1.0707,0.01539,0.0079,-0.0401
-10.4,-1.0573,0.01524,0.00776,-0.0402
-10.3,-1.0438,0.0151,0.00763,-0.0403
-10.2,-1.0304,0.01497,0.0075,-0.0404
-10.1,-1.017,0.01484,0.00738,-0.0404
-10,-1.0036,0.01472,0.00726,-0.0405
-9.9,-0.9902,0.0146,0.00714,-0.0406
-9.8,-0.9767,0.01449,0.00703,-0.0407
-9.7,-0.9633,0.01438,0.00692,-0.0407
-9.6,-0.9499,0.01427,0.00681,-0.0408
-9.5,-0.9365,0.01415,0.00669,-0.0409
-9.4,-0.923,0.01402,0.00657,-0.041
-9.3,-0.9096,0.0139,0.00646,-0.0411
-9.2,-0.8962,0.01378,0.00636,-0.0412
-9.1,-0.8828,0.01367,0.00625,-0.0413
-9,-0.8694,0.01356,0.00615,-0.0414
-8.9,-0.8559,0.01346,0.00605,-0.0415
-8.8,-0.8425,0.01337,0.00596,-0.0416
-8.7,-0.8291,0.01325,0.00584,-0.0417
-8.6,-0.8157,0.01313,0.00575,-0.0419
-8.5,-0.8023,0.01302,0.00565,-0.042
-8.4,-0.7889,0.01291,0.00555,-0.0421
-8.3,-0.7754,0.01281,0.00546,-0.0422
-8.2,-0.762,0.01272,0.00538,-0.0423
-8.1,-0.7486,0.01263,0.00528,-0.0424
-8,-0.7352,0.01251,0.00519,-0.0425
-7.9,-0.7218,0.0124,0.0051,-0.0427
-7.8,-0.7084,0.0123,0.00501,-0.0428
-7.7,-0.695,0.0122,0.00493,-0.0429
-7.6,-0.6816,0.01211,0.00484,-0.043
-7.5,-0.6676,0.01204,0.00478,-0.0433
-7.4,-0.6528,0.01197,0.00471,-0.0437
-7.3,-0.6378,0.01187,0.00465,-0.0442
-7.2,-0.6229,0.01182,0.0046,-0.0446
-7.1,-0.6099,0.01189,0.00461,-0.0445
-7,-0.598,0.01189,0.00457,-0.0442
-6.9,-0.5859,0.0119,0.00452,-0.044
-6.8,-0.5735,0.01187,0.00446,-0.0439
-6.7,-0.561,0.01185,0.0044,-0.0438
-6.6,-0.5484,0.01182,0.00435,-0.0438
-6.5,-0.5355,0.0118,0.00429,-0.0438
-6.4,-0.5227,0.01177,0.00424,-0.0438
-6.3,-0.5097,0.01173,0.00418,-0.0439
-6.2,-0.4966,0.01169,0.00412,-0.044
-6.1,-0.4835,0.01164,0.00407,-0.044
-6,-0.4704,0.01162,0.00402,-0.0441
-5.9,-0.4575,0.01161,0.00397,-0.0442
-5.8,-0.4444,0.01159,0.00392,-0.0443
-5.7,-0.4311,0.01152,0.00386,-0.0444
-5.6,-0.4178,0.01146,0.00381,-0.0446
-5.5,-0.4046,0.01142,0.00377,-0.0447
-5.4,-0.3916,0.01143,0.00373,-0.0447
-5.3,-0.3787,0.01142,0.00369,-0.0448
-5.2,-0.3653,0.01136,0.00364,-0.045
-5.1,-0.352,0.01132,0.0036,-0.0452
-5,-0.339,0.01132,0.00357,-0.0452
-4.9,-0.3257,0.01125,0.00351,-0.0454
-4.8,-0.3124,0.0112,0.00347,-0.0456
-4.7,-0.2992,0.01118,0.00344,-0.0457
-4.6,-0.2861,0.01117,0.00341,-0.0458
-4.5,-0.2727,0.01113,0.00336,-0.046
-4.4,-0.2596,0.0111,0.00333,-0.0462
-4.3,-0.2463,0.01107,0.0033,-0.0463
-4.2,-0.233,0.01102,0.00327,-0.0465
-4.1,-0.2197,0.01097,0.00322,-0.0467
-4,-0.2063,0.01092,0.00319,-0.0468
-3.9,-0.193,0.01088,0.00316,-0.047
-3.8,-0.1798,0.01086,0.00313,-0.0472
-3.7,-0.1666,0.01082,0.0031,-0.0474
-3.6,-0.1533,0.01078,0.00307,-0.0475
-3.5,-0.14,0.01075,0.00305,-0.0477
-3.3,-0.1135,0.0107,0.00299,-0.048
-3.2,-0.1002,0.01067,0.00297,-0.0482
-3.1,-0.0869,0.01064,0.00295,-0.0484
-3,-0.0736,0.01058,0.00291,-0.0486
-2.9,-0.0605,0.01059,0.0029,-0.0487
-2.8,-0.0472,0.01056,0.00288,-0.0489
-2.7,-0.0339,0.01053,0.00285,-0.0491
-2.6,-0.0207,0.01053,0.00284,-0.0493
-2.5,-0.0075,0.01051,0.00283,-0.0494
-2.4,0.0058,0.01046,0.0028,-0.0497
-2.3,0.0191,0.01043,0.00279,-0.0498
-2.2,0.0323,0.01042,0.00277,-0.05
-2.1,0.0455,0.01043,0.00276,-0.0502
-2,0.0588,0.0104,0.00275,-0.0504
-1.9,0.0718,0.01041,0.00275,-0.0506
-1.8,0.0851,0.01039,0.00273,-0.0507
-1.7,0.0983,0.01038,0.00272,-0.0509
-1.6,0.1115,0.01038,0.00271,-0.0511
-1.5,0.1247,0.01037,0.00271,-0.0513
-1.4,0.1379,0.01038,0.00271,-0.0515
-1.3,0.151,0.01039,0.00271,-0.0517
-1.2,0.1642,0.01038,0.0027,-0.0519
-1.1,0.1773,0.01039,0.0027,-0.052
-1,0.1904,0.01043,0.00271,-0.0522
-0.9,0.2033,0.01048,0.00273,-0.0524
-0.8,0.2165,0.01048,0.00273,-0.0526
-0.7,0.2296,0.0105,0.00274,-0.0528
-0.6,0.2427,0.01052,0.00274,-0.053
-0.5,0.2558,0.01056,0.00276,-0.0531
-0.4,0.2688,0.0106,0.00277,-0.0533
-0.3,0.2819,0.01062,0.00279,-0.0536
-0.2,0.2948,0.01068,0.00281,-0.0537
-0.1,0.3078,0.01074,0.00283,-0.0539
0,0.3207,0.01081,0.00286,-0.0541
0.1,0.3336,0.01091,0.00289,-0.0543
0.2,0.3464,0.01099,0.00293,-0.0545
0.3,0.3587,0.01123,0.00302,-0.0547
0.4,0.3715,0.01134,0.00307,-0.0549
0.5,0.3844,0.01145,0.00311,-0.0551
0.6,0.3973,0.01153,0.00315,-0.0553
0.7,0.4103,0.01157,0.00318,-0.0556
0.8,0.4234,0.01163,0.00322,-0.0558
0.9,0.4364,0.01166,0.00325,-0.0559
1,0.4495,0.01171,0.00329,-0.0561
1.1,0.4625,0.01176,0.00332,-0.0563
1.2,0.4756,0.01178,0.00336,-0.0565
1.3,0.4887,0.01181,0.00339,-0.0567
1.4,0.5018,0.01186,0.00343,-0.0569
1.5,0.5149,0.0119,0.00346,-0.0571
1.6,0.5279,0.01194,0.0035,-0.0573
1.7,0.541,0.01196,0.00354,-0.0575
1.8,0.5541,0.01201,0.00358,-0.0576
1.9,0.5672,0.01203,0.00362,-0.0578
2,0.5803,0.01206,0.00365,-0.058
2.1,0.5934,0.01209,0.00369,-0.0581
2.2,0.6065,0.0121,0.00373,-0.0583
2.3,0.6196,0.01214,0.00376,-0.0585
2.4,0.6326,0.01218,0.00381,-0.0587
2.5,0.6456,0.01224,0.00385,-0.0588
2.6,0.6586,0.01229,0.0039,-0.059
2.7,0.6717,0.01229,0.00395,-0.0592
2.8,0.6847,0.01232,0.004,-0.0593
2.9,0.6978,0.01236,0.00404,-0.0595
3,0.7108,0.0124,0.00409,-0.0596
3.1,0.7238,0.01245,0.00414,-0.0597
3.2,0.7367,0.01247,0.00419,-0.0599
3.3,0.7497,0.01253,0.00423,-0.06
3.4,0.7626,0.01259,0.00429,-0.0602
3.5,0.7755,0.01266,0.00435,-0.0603
3.6,0.7885,0.0127,0.0044,-0.0604
3.7,0.8015,0.01274,0.00446,-0.0605
3.8,0.8144,0.01276,0.00451,-0.0606
3.9,0.8273,0.01281,0.00456,-0.0607
4,0.8402,0.01287,0.00462,-0.0609
4.1,0.8531,0.01293,0.00467,-0.061
4.2,0.8658,0.01296,0.00473,-0.061
4.3,0.8787,0.01303,0.00479,-0.0611
4.4,0.8915,0.01311,0.00485,-0.0612
4.5,0.9043,0.01318,0.00491,-0.0613
4.6,0.9169,0.01322,0.00498,-0.0614
4.7,0.9298,0.01327,0.00504,-0.0615
4.8,0.9427,0.01332,0.0051,-0.0615
4.9,0.9556,0.01338,0.00517,-0.0616
5,0.9683,0.01344,0.00523,-0.0617
5.1,0.9808,0.01348,0.00529,-0.0617
5.2,0.9935,0.01354,0.00535,-0.0617
5.3,1.0062,0.01361,0.00542,-0.0618
5.4,1.0188,0.01369,0.00548,-0.0618
5.5,1.0309,0.01374,0.00554,-0.0618
5.6,1.0435,0.01382,0.00562,-0.0618
5.7,1.056,0.01391,0.00569,-0.0618
5.9,1.0812,0.01401,0.00583,-0.0618
6,1.0937,0.01407,0.00589,-0.0618
6.1,1.1051,0.0141,0.00595,-0.0616
6.2,1.1175,0.01416,0.00602,-0.0615
6.3,1.1297,0.01422,0.00608,-0.0615
6.4,1.1418,0.01428,0.00615,-0.0614
6.5,1.1539,0.01435,0.00621,-0.0613
6.6,1.164,0.01436,0.00624,-0.0607
6.7,1.1757,0.01442,0.00629,-0.0605
6.8,1.1876,0.01448,0.00635,-0.0604
6.9,1.1998,0.01456,0.0064,-0.0604
7.1,1.2266,0.01471,0.00653,-0.0607
7.2,1.2396,0.01479,0.00662,-0.0608
7.3,1.2526,0.01488,0.00671,-0.0609
7.4,1.2656,0.01497,0.00679,-0.061
7.5,1.2786,0.01507,0.00688,-0.0611
7.6,1.2916,0.01517,0.00697,-0.0613
7.7,1.3045,0.01526,0.00706,-0.0614
7.8,1.3175,0.01537,0.00716,-0.0614
7.9,1.3304,0.01547,0.00725,-0.0615
8.1,1.3562,0.01569,0.00744,-0.0617
8.2,1.3691,0.0158,0.00754,-0.0618
8.3,1.3819,0.01593,0.00764,-0.0619
8.4,1.3947,0.01605,0.00774,-0.062
8.5,1.4077,0.01613,0.00784,-0.0621
8.6,1.4206,0.01623,0.00794,-0.0622
8.7,1.4336,0.01633,0.00804,-0.0622
8.8,1.4465,0.01643,0.00814,-0.0623
8.9,1.4594,0.01653,0.00824,-0.0624
9.1,1.4852,0.01674,0.00846,-0.0625
9.2,1.498,0.01686,0.00856,-0.0626
9.3,1.5109,0.01697,0.00867,-0.0627
9.4,1.5237,0.01709,0.00878,-0.0627
9.5,1.5365,0.01721,0.00889,-0.0628
9.6,1.5493,0.01734,0.009,-0.0629
9.7,1.562,0.01747,0.00911,-0.0629
9.8,1.5747,0.01761,0.00924,-0.063
9.9,1.5875,0.01775,0.00936,-0.063
10,1.6004,0.01782,0.00946,-0.0631
10.1,1.6133,0.01792,0.00958,-0.0631
10.2,1.6261,0.01804,0.0097,-0.0632
10.3,1.6389,0.01815,0.00981,-0.0632
10.4,1.6517,0.01827,0.00993,-0.0632
10.5,1.6645,0.01838,0.01006,-0.0633
10.6,1.6772,0.01851,0.01018,-0.0633
10.7,1.69,0.01863,0.0103,-0.0633
10.8,1.7027,0.01876,0.01043,-0.0634
10.9,1.7154,0.01889,0.01055,-0.0634
11,1.728,0.01902,0.01068,-0.0634
11.1,1.7406,0.01916,0.01081,-0.0634
11.2,1.7532,0.0193,0.01094,-0.0634
11.3,1.7658,0.01945,0.01108,-0.0635
11.4,1.7783,0.01961,0.01122,-0.0635
11.5,1.791,0.01973,0.01136,-0.0635
11.6,1.8038,0.01984,0.0115,-0.0635
11.7,1.8165,0.01996,0.01164,-0.0635
11.8,1.8291,0.02007,0.01176,-0.0635
11.9,1.8418,0.0202,0.0119,-0.0635
12,1.8544,0.02033,0.01204,-0.0634
12.1,1.8669,0.02046,0.01218,-0.0634
12.2,1.8795,0.0206,0.01232,-0.0634
12.3,1.892,0.02074,0.01246,-0.0634
12.4,1.9045,0.02088,0.01261,-0.0634
12.5,1.917,0.02102,0.01276,-0.0633
12.6,1.9294,0.02117,0.01291,-0.0633
12.7,1.9418,0.02132,0.01306,-0.0633
12.8,1.9541,0.02148,0.01321,-0.0632
12.9,1.9664,0.02164,0.01337,-0.0632
13,1.9787,0.02182,0.01353,-0.0631
13.1,1.991,0.02198,0.0137,-0.0631
13.2,2.0035,0.02211,0.01386,-0.063
13.3,2.0159,0.02224,0.01402,-0.063
13.4,2.0284,0.02238,0.01418,-0.0629
13.5,2.0407,0.02249,0.01433,-0.0628
13.6,2.053,0.02264,0.01449,-0.0627
13.7,2.0653,0.02279,0.01466,-0.0627
13.8,2.0776,0.02294,0.01482,-0.0626
13.9,2.0898,0.0231,0.01499,-0.0625
14,2.1019,0.02326,0.01516,-0.0624
14.1,2.1141,0.02342,0.01533,-0.0623
14.2,2.1261,0.02358,0.0155,-0.0622
14.3,2.1382,0.02374,0.01568,-0.0621
14.4,2.1502,0.02391,0.01585,-0.062
14.5,2.1621,0.02409,0.01603,-0.0619
14.6,2.1739,0.02427,0.01621,-0.0617
14.7,2.1857,0.02446,0.0164,-0.0616
14.8,2.1974,0.02466,0.0166,-0.0615
14.9,2.2093,0.02482,0.01679,-0.0613
15,2.2213,0.02497,0.01698,-0.0612
15.1,2.2333,0.02513,0.01717,-0.061
15.2,2.2451,0.02529,0.01737,-0.0609
15.3,2.257,0.02546,0.01756,-0.0607
15.4,2.2687,0.0256,0.01774,-0.0606
15.5,2.2804,0.02577,0.01794,-0.0604
15.6,2.292,0.02595,0.01814,-0.0602
15.7,2.3036,0.02613,0.01834,-0.06
15.8,2.3151,0.02631,0.01854,-0.0598
15.9,2.3265,0.02649,0.01874,-0.0596
16,2.3379,0.02668,0.01895,-0.0594
16.1,2.3492,0.02687,0.01915,-0.0592
16.2,2.3604,0.02706,0.01936,-0.059
16.3,2.3715,0.02726,0.01957,-0.0588
16.4,2.3826,0.02746,0.01978,-0.0585
16.5,2.3935,0.02767,0.02,-0.0583
16.6,2.4043,0.02788,0.02023,-0.0581
16.7,2.415,0.02811,0.02046,-0.0578
16.8,2.426,0.0283,0.02069,-0.0576
16.9,2.437,0.02848,0.02092,-0.0573
17,2.4479,0.02867,0.02116,-0.057
17.1,2.4587,0.02887,0.0214,-0.0567
17.2,2.4694,0.02907,0.02164,-0.0564
17.3,2.48,0.02927,0.02188,-0.0561
17.4,2.4904,0.02944,0.02209,-0.0558
17.5,2.5008,0.02965,0.02234,-0.0555
17.6,2.511,0.02986,0.02258,-0.0552
17.7,2.5212,0.03007,0.02283,-0.0549
17.8,2.5312,0.03029,0.02307,-0.0546
17.9,2.5411,0.03051,0.02332,-0.0542
18,2.5509,0.03073,0.02357,-0.0539
18.1,2.5605,0.03095,0.02382,-0.0535
18.2,2.57,0.03118,0.02407,-0.0532
18.3,2.5793,0.03141,0.02432,-0.0528
18.4,2.5885,0.03164,0.02458,-0.0524
18.5,2.5974,0.03189,0.02484,-0.052
18.6,2.6061,0.03213,0.02511,-0.0516
18.7,2.6147,0.03239,0.02539,-0.0512
18.8,2.623,0.03266,0.02567,-0.0508
18.9,2.6316,0.03288,0.02596,-0.0504
19,2.6401,0.03311,0.02626,-0.05
19.1,2.6482,0.03335,0.02655,-0.0495
19.2,2.6561,0.03359,0.02685,-0.0491
19.3,2.6637,0.03383,0.02715,-0.0486
19.4,2.671,0.03407,0.02744,-0.0481
19.5,2.678,0.03432,0.02774,-0.0476
19.6,2.6848,0.03456,0.02804,-0.0471
19.7,2.6913,0.03481,0.02834,-0.0466
19.8,2.6975,0.03503,0.0286,-0.0461
19.9,2.7035,0.03529,0.0289,-0.0457
20,2.7086,0.03553,0.0292,-0.0451
20.1,2.7124,0.03579,0.0295,-0.0445
20.2,2.7168,0.03605,0.02981,-0.044
20.3,2.722,0.03633,0.03012,-0.0438
20.4,2.728,0.0366,0.03044,-0.0437
20.5,2.7348,0.03688,0.03076,-0.0438
20.6,2.7422,0.03716,0.03109,-0.0441
20.7,2.7501,0.03744,0.03141,-0.0445
20.8,2.7583,0.03773,0.03174,-0.0451
20.9,2.767,0.03803,0.03207,-0.0458
21,2.776,0.03833,0.03241,-0.0466
21.1,2.7852,0.03865,0.03276,-0.0475
21.2,2.7951,0.03896,0.03315,-0.0486
21.3,2.8051,0.03928,0.03356,-0.0497
21.4,2.8153,0.03961,0.03398,-0.0509
21.5,2.8257,0.03996,0.03441,-0.0523
21.6,2.836,0.04033,0.03486,-0.0537
21.7,2.8465,0.04071,0.03532,-0.0553
21.9,2.8675,0.04152,0.03629,-0.0588
22,2.8779,0.04198,0.03683,-0.0608
22.1,2.8879,0.04247,0.0374,-0.0629
22.2,2.8976,0.043,0.03801,-0.0651
22.3,2.9069,0.04358,0.03866,-0.0675
22.4,2.9159,0.04422,0.03937,-0.0701
22.5,2.9242,0.04492,0.04015,-0.0729
22.6,2.932,0.0457,0.04101,-0.076
22.7,2.9389,0.04659,0.04198,-0.0793
22.8,2.9448,0.0476,0.04307,-0.083
22.9,2.9494,0.04877,0.04432,-0.0871
23,2.9526,0.0501,0.04574,-0.0916
23.1,2.954,0.05164,0.04737,-0.0966
23.2,2.951,0.05386,0.04978,-0.1032
23.3,2.9437,0.05663,0.05277,-0.111
23.4,2.9312,0.06013,0.05649,-0.1201
23.5,2.9138,0.06428,0.06088,-0.1303
23.6,2.8946,0.06857,0.0654,-0.1407
23.7,2.8737,0.07297,0.06999,-0.1515
23.8,2.8615,0.076,0.07314,-0.1593
23.9,2.8549,0.07818,0.07538,-0.1653
24,2.8491,0.08021,0.07747,-0.1709
24.1,2.8478,0.08158,0.07887,-0.1751
24.2,2.8486,0.08262,0.07993,-0.1785
24.3,2.8501,0.08355,0.08086,-0.1816
24.4,2.8525,0.08433,0.08164,-0.1845
24.5,2.7658,0.09822,0.09612,-0.2199
24.6,2.7631,0.1,0.09794,-0.2245
24.7,2.7644,0.10116,0.09912,-0.2275
24.9,2.775,0.10219,0.10012,-0.2306
25,2.78,0.10274,0.10067,-0.2322
25.1,2.7854,0.10321,0.10113,-0.2336
25.2,2.7911,0.10363,0.10154,-0.2349
25.3,2.7973,0.10402,0.10193,-0.2361
25.4,2.8034,0.10436,0.10226,-0.2371

