airfoilName st5.dat
Re 	9.700000e+05
M 	2.500000e-01
N 	4.500000e+00
VACC 	0 VACCflag 1
XTR 	1.00 	1.00 XTRflag 0
alpha,cl,cd,cdp,cm
-18.3,-1.9121,0.10533,0.10375,0.1185
-18.2,-1.9058,0.10339,0.1018,0.115
-18.1,-1.9003,0.10092,0.09932,0.1107
-18,-1.8942,0.09867,0.09706,0.1065
-17.9,-1.8886,0.09601,0.09438,0.1014
-17.8,-1.8851,0.09188,0.0902,0.0933
-17.4,-1.8488,0.03466,0.0311,-0.0435
-17.3,-1.8379,0.03359,0.02991,-0.0462
-17.2,-1.828,0.03272,0.02894,-0.0479
-17.1,-1.8187,0.03196,0.02808,-0.0491
-17,-1.8094,0.03128,0.02731,-0.0499
-16.9,-1.8,0.03064,0.02659,-0.0505
-16.8,-1.7899,0.03018,0.02606,-0.0508
-16.7,-1.7802,0.02961,0.02542,-0.0512
-16.6,-1.7704,0.02908,0.02481,-0.0514
-16.5,-1.7604,0.02859,0.02424,-0.0516
-16.4,-1.7501,0.02811,0.0237,-0.0517
-16.3,-1.7397,0.02768,0.02319,-0.0517
-16.2,-1.7295,0.02718,0.02263,-0.0518
-16.1,-1.7192,0.0267,0.0221,-0.0518
-16,-1.7086,0.02626,0.0216,-0.0518
-15.9,-1.6978,0.02584,0.02113,-0.0518
-15.8,-1.6868,0.02544,0.02068,-0.0517
-15.7,-1.6756,0.02507,0.02025,-0.0516
-15.6,-1.6644,0.02471,0.01984,-0.0515
-15.5,-1.6529,0.02436,0.01945,-0.0514
-15.4,-1.6414,0.02402,0.01906,-0.0513
-15.3,-1.6298,0.0237,0.01869,-0.0512
-15.2,-1.618,0.02338,0.01833,-0.0511
-15.1,-1.6062,0.02307,0.01798,-0.0509
-15,-1.5943,0.02277,0.01764,-0.0508
-14.9,-1.5823,0.02248,0.01731,-0.0507
-14.8,-1.5702,0.0222,0.01698,-0.0505
-14.7,-1.5581,0.02192,0.01666,-0.0504
-14.6,-1.5459,0.02165,0.01635,-0.0503
-14.5,-1.5336,0.02139,0.01605,-0.0501
-14.4,-1.5213,0.02114,0.01575,-0.05
-14.3,-1.5089,0.02089,0.01546,-0.0499
-14.2,-1.4965,0.02065,0.01518,-0.0498
-14.1,-1.484,0.02042,0.01491,-0.0496
-14,-1.4714,0.0202,0.01465,-0.0495
-13.9,-1.4588,0.01998,0.0144,-0.0494
-13.8,-1.4464,0.01971,0.0141,-0.0493
-13.7,-1.4339,0.01946,0.01382,-0.0492
-13.6,-1.4213,0.01922,0.01356,-0.0491
-13.5,-1.4086,0.019,0.01331,-0.049
-13.4,-1.3959,0.01878,0.01306,-0.0489
-13.3,-1.3832,0.01857,0.01283,-0.0488
-13.2,-1.3704,0.01837,0.0126,-0.0487
-13.1,-1.3576,0.01817,0.01238,-0.0486
-13,-1.3448,0.01797,0.01217,-0.0485
-12.9,-1.332,0.01778,0.01195,-0.0485
-12.8,-1.3191,0.0176,0.01174,-0.0484
-12.7,-1.3062,0.01742,0.01154,-0.0483
-12.6,-1.2933,0.01724,0.01134,-0.0482
-12.5,-1.2803,0.01707,0.01114,-0.0481
-12.4,-1.2673,0.0169,0.01095,-0.0481
-12.3,-1.2544,0.01674,0.01076,-0.048
-12.2,-1.2414,0.01658,0.01058,-0.0479
-12,-1.2155,0.01623,0.0102,-0.0479
-11.9,-1.2025,0.01605,0.01002,-0.0478
-11.8,-1.1895,0.01588,0.00984,-0.0478
-11.7,-1.1765,0.01572,0.00966,-0.0477
-11.6,-1.1634,0.01556,0.00949,-0.0477
-11.5,-1.1504,0.01541,0.00933,-0.0477
-11.4,-1.1373,0.01526,0.00916,-0.0476
-11.3,-1.1242,0.01512,0.00901,-0.0476
-11.2,-1.1112,0.01498,0.00885,-0.0476
-11.1,-1.0981,0.01484,0.0087,-0.0476
-11,-1.085,0.0147,0.00855,-0.0476
-10.9,-1.0719,0.01457,0.0084,-0.0475
-10.8,-1.0588,0.01444,0.00826,-0.0475
-10.7,-1.0457,0.01431,0.00812,-0.0475
-10.6,-1.0326,0.01416,0.00797,-0.0475
-10.5,-1.0195,0.01401,0.00782,-0.0475
-10.4,-1.0064,0.01388,0.00768,-0.0475
-10.3,-0.9933,0.01375,0.00754,-0.0475
-10.2,-0.9802,0.01362,0.00741,-0.0476
-10.1,-0.9671,0.01349,0.00728,-0.0476
-10,-0.954,0.01337,0.00715,-0.0476
-9.9,-0.9408,0.01325,0.00703,-0.0476
-9.8,-0.9277,0.01314,0.00691,-0.0476
-9.7,-0.9144,0.01303,0.00679,-0.0477
-9.6,-0.9004,0.01293,0.00668,-0.0479
-9.5,-0.8863,0.01284,0.00657,-0.0481
-9.4,-0.8724,0.01272,0.00645,-0.0483
-9.3,-0.8584,0.0126,0.00633,-0.0485
-9.2,-0.8447,0.01249,0.00623,-0.0487
-9.1,-0.8315,0.01243,0.00615,-0.0487
-9,-0.8189,0.01236,0.00606,-0.0486
-8.9,-0.8063,0.01228,0.00597,-0.0484
-8.8,-0.7941,0.01222,0.00588,-0.0483
-8.7,-0.7816,0.01215,0.00579,-0.0481
-8.6,-0.7693,0.01209,0.00571,-0.048
-8.5,-0.7576,0.01208,0.00562,-0.0477
-8.4,-0.7449,0.012,0.00552,-0.0476
-8.3,-0.7322,0.01192,0.00543,-0.0476
-8.2,-0.7195,0.01184,0.00533,-0.0475
-8.1,-0.7067,0.01176,0.00525,-0.0475
-8,-0.6939,0.01169,0.00516,-0.0475
-7.9,-0.6811,0.01163,0.00508,-0.0475
-7.8,-0.6686,0.01159,0.005,-0.0474
-7.7,-0.6557,0.01153,0.00492,-0.0475
-7.6,-0.6427,0.01147,0.00484,-0.0475
-7.5,-0.6297,0.01139,0.00475,-0.0475
-7.4,-0.6168,0.01132,0.00467,-0.0476
-7.3,-0.6038,0.01125,0.00459,-0.0476
-7.2,-0.5908,0.01117,0.00452,-0.0477
-7.1,-0.5781,0.01114,0.00444,-0.0477
-7,-0.5651,0.01108,0.00438,-0.0477
-6.9,-0.5521,0.01102,0.00431,-0.0478
-6.8,-0.539,0.01096,0.00424,-0.0479
-6.7,-0.526,0.01089,0.00416,-0.0479
-6.6,-0.5131,0.01081,0.00409,-0.048
-6.5,-0.5,0.01075,0.00402,-0.0481
-6.4,-0.487,0.01069,0.00396,-0.0482
-6.3,-0.4741,0.01065,0.0039,-0.0482
-6.2,-0.4611,0.01061,0.00384,-0.0483
-6.1,-0.4481,0.01055,0.00378,-0.0484
-6,-0.435,0.01047,0.00371,-0.0485
-5.9,-0.422,0.01041,0.00366,-0.0486
-5.8,-0.409,0.01036,0.0036,-0.0487
-5.7,-0.396,0.01031,0.00354,-0.0488
-5.6,-0.383,0.01026,0.0035,-0.0489
-5.5,-0.37,0.01021,0.00343,-0.049
-5.4,-0.357,0.01014,0.00338,-0.0491
-5.3,-0.344,0.01009,0.00333,-0.0492
-5.2,-0.331,0.01005,0.00329,-0.0493
-5.1,-0.318,0.01,0.00324,-0.0494
-5,-0.3051,0.00998,0.00319,-0.0495
-4.9,-0.2922,0.00993,0.00314,-0.0496
-4.8,-0.2792,0.00988,0.0031,-0.0497
-4.7,-0.2664,0.00987,0.00306,-0.0498
-4.6,-0.2534,0.00983,0.00302,-0.0499
-4.5,-0.2405,0.0098,0.00297,-0.05
-4.4,-0.2275,0.00976,0.00293,-0.0501
-4.3,-0.2146,0.00974,0.0029,-0.0502
-4.2,-0.2018,0.00974,0.00287,-0.0503
-4.1,-0.1889,0.0097,0.00282,-0.0505
-4,-0.1759,0.00966,0.00279,-0.0506
-3.9,-0.1629,0.00963,0.00276,-0.0507
-3.8,-0.15,0.00961,0.00273,-0.0508
-3.7,-0.137,0.00957,0.00269,-0.051
-3.6,-0.1241,0.00954,0.00266,-0.0511
-3.5,-0.1113,0.00956,0.00264,-0.0512
-3.4,-0.0984,0.00953,0.00261,-0.0514
-3.3,-0.0855,0.0095,0.00258,-0.0515
-3.2,-0.0725,0.00948,0.00256,-0.0516
-3.1,-0.0596,0.00946,0.00254,-0.0518
-3,-0.0466,0.00942,0.00251,-0.0519
-2.9,-0.0337,0.00939,0.00249,-0.0521
-2.8,-0.021,0.00944,0.00248,-0.0522
-2.7,-0.0081,0.0094,0.00246,-0.0523
-2.6,0.0049,0.00938,0.00244,-0.0525
-2.5,0.0178,0.00938,0.00243,-0.0526
-2.4,0.0307,0.00936,0.00241,-0.0528
-2.3,0.0437,0.00932,0.00239,-0.0529
-2.2,0.0565,0.00934,0.00238,-0.0531
-2.1,0.0694,0.00931,0.00237,-0.0532
-2,0.0822,0.00935,0.00237,-0.0534
-1.9,0.0951,0.00931,0.00236,-0.0536
-1.8,0.108,0.0093,0.00235,-0.0537
-1.7,0.1208,0.00933,0.00235,-0.0538
-1.6,0.1336,0.00934,0.00234,-0.054
-1.5,0.1465,0.00934,0.00234,-0.0542
-1.4,0.1594,0.00934,0.00234,-0.0543
-1.3,0.1722,0.00932,0.00233,-0.0545
-1.2,0.1851,0.00933,0.00233,-0.0546
-1.1,0.1978,0.00939,0.00234,-0.0548
-1,0.2106,0.00939,0.00234,-0.0549
-0.9,0.2235,0.00939,0.00235,-0.0551
-0.8,0.2363,0.0094,0.00235,-0.0553
-0.7,0.2491,0.00942,0.00235,-0.0554
-0.6,0.2619,0.00945,0.00236,-0.0556
-0.5,0.2747,0.00946,0.00237,-0.0557
-0.4,0.2875,0.00947,0.00238,-0.0559
-0.3,0.3003,0.00949,0.00239,-0.0561
-0.2,0.313,0.00953,0.00241,-0.0562
-0.1,0.3255,0.00964,0.00244,-0.0564
0,0.3382,0.0097,0.00247,-0.0566
0.1,0.3508,0.00973,0.00249,-0.0568
0.2,0.3634,0.00981,0.00252,-0.0569
0.3,0.376,0.00988,0.00255,-0.0571
0.4,0.3886,0.00996,0.00258,-0.0572
0.5,0.4013,0.01,0.00261,-0.0574
0.6,0.4139,0.01006,0.00265,-0.0576
0.7,0.4267,0.0101,0.00267,-0.0578
0.8,0.4392,0.01018,0.00271,-0.0579
0.9,0.4521,0.01018,0.00273,-0.0581
1,0.4648,0.01021,0.00276,-0.0583
1.1,0.4776,0.01024,0.00279,-0.0585
1.2,0.4904,0.01026,0.00281,-0.0586
1.3,0.5033,0.01024,0.00283,-0.0588
1.4,0.5161,0.01026,0.00286,-0.059
1.5,0.5289,0.01029,0.00288,-0.0591
1.6,0.5416,0.01032,0.00291,-0.0593
1.7,0.5544,0.01034,0.00294,-0.0594
1.8,0.5673,0.01032,0.00297,-0.0596
1.9,0.5801,0.01035,0.003,-0.0598
2,0.5929,0.01038,0.00303,-0.06
2.1,0.6056,0.01041,0.00306,-0.0601
2.2,0.6184,0.0104,0.0031,-0.0603
2.3,0.6313,0.0104,0.00313,-0.0605
2.4,0.6441,0.01042,0.00315,-0.0606
2.5,0.6569,0.01044,0.00319,-0.0608
2.6,0.6697,0.01041,0.00322,-0.061
2.7,0.6825,0.01043,0.00326,-0.0611
2.8,0.6953,0.01045,0.00329,-0.0613
2.9,0.708,0.01048,0.00334,-0.0614
3,0.7207,0.0105,0.00338,-0.0616
3.1,0.7334,0.01047,0.00342,-0.0617
3.2,0.7461,0.01049,0.00346,-0.0618
3.3,0.7589,0.01052,0.0035,-0.0619
3.4,0.7715,0.01055,0.00355,-0.0621
3.5,0.7841,0.01055,0.00359,-0.0621
3.6,0.7967,0.01059,0.00364,-0.0622
3.7,0.8093,0.01064,0.00369,-0.0623
3.8,0.8219,0.01066,0.00374,-0.0624
3.9,0.8342,0.01065,0.00378,-0.0624
4,0.8468,0.01068,0.00383,-0.0625
4.1,0.8593,0.01071,0.00388,-0.0625
4.2,0.8717,0.01076,0.00392,-0.0626
4.3,0.884,0.01081,0.00397,-0.0626
4.4,0.8964,0.01085,0.00402,-0.0627
4.5,0.9087,0.0109,0.00408,-0.0627
4.6,0.9199,0.0109,0.00413,-0.0624
4.7,0.9319,0.01092,0.00417,-0.0623
4.8,0.944,0.01096,0.00422,-0.0623
4.9,0.9557,0.01099,0.00426,-0.0621
5,0.9633,0.0109,0.00425,-0.061
5.1,0.9751,0.01093,0.00428,-0.0609
5.2,0.9874,0.01097,0.00431,-0.0608
5.4,1.0132,0.01109,0.00438,-0.0611
5.5,1.0259,0.01117,0.00445,-0.0613
5.6,1.0387,0.01124,0.00451,-0.0614
5.7,1.0514,0.0113,0.00456,-0.0615
5.8,1.0642,0.01137,0.00462,-0.0616
5.9,1.0769,0.01144,0.00468,-0.0617
6,1.0897,0.01152,0.00475,-0.0618
6.1,1.1024,0.01159,0.00481,-0.0619
6.2,1.1151,0.01167,0.00488,-0.062
6.3,1.1278,0.01175,0.00494,-0.0621
6.4,1.1404,0.01184,0.00501,-0.0622
6.5,1.1531,0.01193,0.00508,-0.0623
6.6,1.1657,0.01201,0.00515,-0.0624
6.7,1.1785,0.01208,0.00522,-0.0624
6.8,1.1912,0.01216,0.00529,-0.0625
6.9,1.2039,0.01224,0.00536,-0.0626
7,1.2166,0.01232,0.00543,-0.0627
7.1,1.2292,0.0124,0.0055,-0.0628
7.2,1.2419,0.01248,0.00557,-0.0629
7.3,1.2545,0.01257,0.00565,-0.0629
7.4,1.2671,0.01267,0.00573,-0.063
7.5,1.2797,0.01277,0.00581,-0.0631
7.6,1.2923,0.01286,0.0059,-0.0632
7.7,1.305,0.01293,0.00597,-0.0632
7.8,1.3177,0.01301,0.00605,-0.0633
7.9,1.3303,0.01309,0.00612,-0.0634
8,1.3429,0.01318,0.0062,-0.0634
8.1,1.3556,0.01327,0.00628,-0.0635
8.2,1.3682,0.01336,0.00636,-0.0636
8.3,1.3807,0.01346,0.00645,-0.0636
8.4,1.3933,0.01356,0.00654,-0.0637
8.5,1.4058,0.01366,0.00663,-0.0637
8.6,1.4184,0.01377,0.00672,-0.0638
8.7,1.4309,0.01387,0.00682,-0.0638
8.8,1.4435,0.01395,0.0069,-0.0639
8.9,1.4561,0.01404,0.00699,-0.0639
9,1.4687,0.01413,0.00708,-0.0639
9.1,1.4813,0.01422,0.00717,-0.064
9.2,1.4938,0.01432,0.00726,-0.064
9.3,1.5063,0.01442,0.00735,-0.0641
9.4,1.5188,0.01452,0.00745,-0.0641
9.5,1.5313,0.01463,0.00755,-0.0641
9.6,1.5438,0.01474,0.00765,-0.0641
9.7,1.5562,0.01485,0.00775,-0.0641
9.8,1.5686,0.01497,0.00786,-0.0642
9.9,1.5811,0.01508,0.00797,-0.0642
10,1.5936,0.01517,0.00806,-0.0642
10.1,1.6061,0.01526,0.00817,-0.0642
10.2,1.6186,0.01536,0.00827,-0.0642
10.3,1.6311,0.01546,0.00837,-0.0642
10.4,1.6435,0.01557,0.00847,-0.0642
10.5,1.656,0.01567,0.00858,-0.0642
10.6,1.6684,0.01578,0.00869,-0.0642
10.7,1.6806,0.01591,0.0088,-0.0642
10.8,1.693,0.01604,0.00892,-0.0642
10.9,1.7052,0.01616,0.00904,-0.0641
11,1.7175,0.01629,0.00916,-0.0641
11.1,1.7297,0.01643,0.0093,-0.0641
11.2,1.7422,0.01653,0.00941,-0.0641
11.3,1.7546,0.01663,0.00952,-0.064
11.4,1.7669,0.01674,0.00963,-0.064
11.5,1.7792,0.01685,0.00975,-0.0639
11.6,1.7916,0.01696,0.00987,-0.0639
11.7,1.8038,0.01708,0.00999,-0.0638
11.8,1.8161,0.0172,0.01012,-0.0638
11.9,1.8283,0.01733,0.01024,-0.0637
12,1.8405,0.01746,0.01038,-0.0637
12.1,1.8524,0.01761,0.01051,-0.0636
12.2,1.8645,0.01775,0.01065,-0.0635
12.3,1.8765,0.0179,0.01079,-0.0634
12.4,1.8885,0.01805,0.01095,-0.0633
12.5,1.9007,0.01816,0.01108,-0.0633
12.6,1.9129,0.01828,0.01121,-0.0632
12.7,1.925,0.0184,0.01134,-0.0631
12.8,1.9371,0.01853,0.01148,-0.063
12.9,1.9492,0.01866,0.01162,-0.0629
13,1.9612,0.01879,0.01176,-0.0628
13.1,1.9732,0.01892,0.01191,-0.0626
13.2,1.9851,0.01906,0.01205,-0.0625
13.3,1.997,0.01921,0.0122,-0.0624
13.4,2.0088,0.01936,0.01236,-0.0622
13.5,2.0205,0.01951,0.01252,-0.0621
13.6,2.0322,0.01967,0.01268,-0.0619
13.7,2.0439,0.01984,0.01284,-0.0618
13.8,2.0552,0.02003,0.01304,-0.0616
13.9,2.0671,0.02016,0.01319,-0.0615
14,2.0789,0.02029,0.01334,-0.0613
14.1,2.0906,0.02043,0.0135,-0.0611
14.2,2.1023,0.02058,0.01366,-0.0609
14.3,2.1139,0.02073,0.01383,-0.0607
14.4,2.1255,0.02088,0.01399,-0.0605
14.5,2.137,0.02104,0.01416,-0.0603
14.6,2.1484,0.0212,0.01434,-0.0601
14.7,2.1598,0.02136,0.01451,-0.0599
14.8,2.1711,0.02153,0.0147,-0.0597
14.9,2.1823,0.02171,0.01488,-0.0594
15,2.1933,0.02189,0.01507,-0.0592
15.1,2.2044,0.02207,0.01527,-0.0589
15.2,2.2148,0.0223,0.01549,-0.0586
15.3,2.2258,0.02248,0.01569,-0.0583
15.4,2.237,0.02263,0.01588,-0.0581
15.5,2.2482,0.02279,0.01606,-0.0578
15.6,2.2592,0.02296,0.01625,-0.0575
15.7,2.27,0.02313,0.01645,-0.0572
15.8,2.2809,0.02331,0.01664,-0.0569
15.9,2.2916,0.02349,0.01685,-0.0565
16,2.3022,0.02367,0.01705,-0.0562
16.1,2.3127,0.02386,0.01726,-0.0559
16.2,2.3231,0.02406,0.01748,-0.0555
16.3,2.3333,0.02425,0.01769,-0.0551
16.4,2.3434,0.02446,0.01792,-0.0547
16.5,2.3534,0.02467,0.01815,-0.0543
16.6,2.3632,0.02489,0.01838,-0.0539
16.7,2.3726,0.02511,0.01863,-0.0535
16.8,2.3819,0.02535,0.01889,-0.053
16.9,2.391,0.02559,0.01915,-0.0525
17,2.4007,0.02579,0.01938,-0.0521
17.1,2.4103,0.02598,0.01961,-0.0516
17.2,2.4198,0.02619,0.01984,-0.0512
17.3,2.4291,0.0264,0.02008,-0.0507
17.4,2.4381,0.02661,0.02033,-0.0502
17.5,2.4468,0.02683,0.02058,-0.0496
17.6,2.4553,0.02705,0.02083,-0.049
17.7,2.4635,0.02728,0.02109,-0.0484
17.8,2.4714,0.02752,0.02135,-0.0478
17.9,2.4789,0.02776,0.02162,-0.0472
18,2.486,0.028,0.0219,-0.0465
18.1,2.4932,0.02825,0.02218,-0.0458
18.2,2.4997,0.02851,0.02247,-0.0451
18.3,2.5057,0.02878,0.02277,-0.0443
18.4,2.5112,0.02906,0.02308,-0.0435
18.5,2.516,0.02934,0.0234,-0.0426
18.6,2.5184,0.02964,0.02373,-0.0415
18.7,2.5205,0.02996,0.02409,-0.0403
18.8,2.5232,0.0303,0.02446,-0.0394
18.9,2.528,0.03059,0.02481,-0.0388
19,2.5337,0.03088,0.02514,-0.0382
19.1,2.5396,0.03117,0.02548,-0.0378
19.2,2.5459,0.03148,0.02583,-0.0375
19.3,2.5524,0.03178,0.02617,-0.0373
19.4,2.559,0.0321,0.02654,-0.0372
19.5,2.5658,0.03244,0.02692,-0.0372
19.6,2.5729,0.03278,0.0273,-0.0373
19.7,2.5801,0.03313,0.0277,-0.0375
19.8,2.5875,0.03349,0.0281,-0.0378
19.9,2.5951,0.03386,0.02853,-0.0382
20,2.6028,0.03425,0.02896,-0.0387
20.1,2.6107,0.03464,0.0294,-0.0394
20.2,2.6186,0.03507,0.02987,-0.0401
20.3,2.6265,0.03551,0.03037,-0.041
20.4,2.6346,0.03597,0.03088,-0.042
20.5,2.6427,0.03646,0.03141,-0.0431
20.6,2.6507,0.03698,0.03199,-0.0443
20.7,2.6587,0.03755,0.0326,-0.0458
20.8,2.667,0.03809,0.03321,-0.0472
20.9,2.6759,0.03857,0.03375,-0.0484
21,2.6846,0.03908,0.03433,-0.0498
21.1,2.6932,0.03964,0.03496,-0.0513
21.2,2.7015,0.04025,0.03563,-0.053
21.3,2.7098,0.04089,0.03634,-0.0548
21.4,2.7176,0.04162,0.03715,-0.0568
21.5,2.7252,0.04241,0.038,-0.059
21.6,2.732,0.04332,0.03897,-0.0615
21.7,2.7383,0.04433,0.04006,-0.0643
21.8,2.7437,0.04549,0.04131,-0.0674
21.9,2.7478,0.04685,0.04276,-0.071
22,2.7505,0.04845,0.04446,-0.075
22.1,2.751,0.05035,0.04647,-0.0796
22.2,2.7488,0.05268,0.04892,-0.0849
22.3,2.7423,0.05563,0.05201,-0.0914
22.4,2.7304,0.05937,0.05591,-0.0991
22.5,2.7114,0.06413,0.06087,-0.1084
22.6,2.6883,0.06944,0.06637,-0.1183
22.7,2.6745,0.07314,0.07022,-0.1254
22.8,2.6633,0.07638,0.07358,-0.1318
22.9,2.6529,0.07943,0.07674,-0.1379
23,2.6453,0.08198,0.07937,-0.1434
23.1,2.6353,0.08485,0.08234,-0.1496
23.2,2.6289,0.08713,0.08469,-0.1547
23.3,2.6207,0.08965,0.0873,-0.1606
23.4,2.6159,0.09162,0.08932,-0.1655
23.5,2.6054,0.09443,0.0922,-0.1723
23.6,2.6013,0.09627,0.09409,-0.177
23.7,2.5934,0.09874,0.09662,-0.183
23.8,2.5897,0.10059,0.09851,-0.1876
23.9,2.5866,0.10241,0.10036,-0.1919
24,2.5799,0.10489,0.10289,-0.1973
24.1,2.5774,0.10671,0.10473,-0.2013
24.2,2.5759,0.10845,0.10654,-0.2047
24.3,2.5729,0.11046,0.10861,-0.2085
24.4,2.5703,0.11242,0.11062,-0.2122
24.5,2.5695,0.11409,0.11232,-0.2153
24.6,2.5688,0.11572,0.11399,-0.2184
24.7,2.5675,0.11748,0.11578,-0.2216
24.8,2.5635,0.11978,0.11813,-0.2257
24.9,2.5623,0.12155,0.11993,-0.2288
25,2.5619,0.12318,0.12158,-0.2317
25.1,2.5614,0.12482,0.12324,-0.2345
25.2,2.5605,0.12656,0.125,-0.2376
25.3,2.5562,0.12901,0.12746,-0.2417
25.4,2.5557,0.13068,0.12913,-0.2446
25.5,2.5551,0.13236,0.13085,-0.2474
25.6,2.5543,0.1341,0.13264,-0.2502
25.7,2.5529,0.13595,0.13453,-0.2533
25.8,2.5484,0.13845,0.13708,-0.2573
25.9,2.547,0.14032,0.13899,-0.2603
26,2.5462,0.14206,0.14076,-0.2631
26.1,2.5457,0.14378,0.14251,-0.2659
26.2,2.5451,0.14551,0.14427,-0.2687
26.3,2.542,0.14777,0.14655,-0.2722
26.4,2.5414,0.14957,0.14834,-0.275
26.5,2.542,0.15108,0.14986,-0.2774
26.6,2.543,0.15251,0.15129,-0.2797
26.7,2.5443,0.15388,0.15264,-0.2818
26.8,2.5347,0.1576,0.15646,-0.2874
26.9,2.5315,0.15997,0.15888,-0.2911
27,2.5304,0.1619,0.16083,-0.294
27.1,2.5298,0.16369,0.16264,-0.2967
27.2,2.5297,0.16541,0.16437,-0.2993
27.3,2.5297,0.16711,0.16608,-0.3019
27.4,2.5289,0.169,0.16798,-0.3047
27.5,2.5296,0.17056,0.16953,-0.307
27.6,2.5309,0.17195,0.17092,-0.3091
27.7,2.5324,0.17331,0.17228,-0.3111
27.8,2.5273,0.17625,0.17529,-0.3155
27.9,2.5217,0.17937,0.17846,-0.3201
28,2.518,0.1821,0.18123,-0.324
28.1,2.5175,0.184,0.18314,-0.3268
28.2,2.5181,0.1856,0.18475,-0.3291
28.3,2.5193,0.18706,0.18621,-0.3312
28.4,2.5211,0.18835,0.18749,-0.3331
28.5,2.5232,0.18956,0.1887,-0.3348
28.6,2.5255,0.19071,0.18983,-0.3365
28.7,2.5183,0.19449,0.19368,-0.3418
28.8,2.5145,0.19741,0.19664,-0.346
28.9,2.5137,0.19946,0.19871,-0.3489
29,2.514,0.20121,0.20046,-0.3513
29.1,2.5151,0.20271,0.20196,-0.3534
29.2,2.5166,0.20409,0.20334,-0.3554
29.3,2.5186,0.20535,0.20459,-0.3572
29.4,2.5209,0.20646,0.20568,-0.3588
29.5,2.5161,0.20982,0.2091,-0.3634
29.6,2.5146,0.21218,0.21149,-0.3667
29.7,2.5145,0.21409,0.2134,-0.3693
29.8,2.5162,0.21542,0.21471,-0.3712
29.9,2.5177,0.21679,0.21607,-0.3731
30,2.5195,0.21804,0.21731,-0.3749

