airfoilName st5.dat
Re 	890000
M 	2.500000e-01
N 	4.500000e+00
VACC 	0 VACCflag 1
XTR 	1.00 	1.00 XTRflag 0
alpha,cl,cd,cdp,cm
-18.3,-1.9059,0.10947,0.10788,0.125
-18.2,-1.8989,0.10809,0.10651,0.1226
-18.1,-1.8921,0.10648,0.10489,0.1198
-18,-1.8853,0.10484,0.10326,0.117
-17.9,-1.8787,0.10295,0.10136,0.1137
-17.8,-1.8728,0.10056,0.09896,0.1095
-17.7,-1.8685,0.09684,0.09521,0.1028
-17.6,-1.8667,0.09132,0.08962,0.0923
-17.5,-1.865,0.08533,0.08352,0.0795
-17.3,-1.8452,0.03666,0.03323,-0.036
-17.2,-1.8237,0.03468,0.03103,-0.043
-17.1,-1.8125,0.03384,0.03009,-0.045
-17,-1.8023,0.03295,0.02908,-0.0468
-16.9,-1.7927,0.03217,0.02821,-0.048
-16.8,-1.7832,0.03149,0.02743,-0.0489
-16.7,-1.7736,0.03086,0.02671,-0.0495
-16.6,-1.7638,0.03028,0.02605,-0.05
-16.5,-1.7544,0.02965,0.02535,-0.0505
-16.4,-1.7448,0.02906,0.02469,-0.0508
-16.3,-1.735,0.02852,0.02408,-0.051
-16.2,-1.7248,0.02802,0.02352,-0.0512
-16.1,-1.7145,0.02755,0.02299,-0.0513
-16,-1.704,0.0271,0.02248,-0.0513
-15.9,-1.6933,0.02667,0.022,-0.0513
-15.8,-1.6825,0.02627,0.02153,-0.0513
-15.7,-1.6715,0.02587,0.02109,-0.0513
-15.6,-1.6604,0.02549,0.02066,-0.0512
-15.5,-1.6491,0.02513,0.02024,-0.0511
-15.4,-1.6377,0.02477,0.01983,-0.051
-15.3,-1.6263,0.02443,0.01944,-0.0509
-15.2,-1.6147,0.0241,0.01906,-0.0508
-15.1,-1.603,0.02377,0.01868,-0.0507
-15,-1.5912,0.02345,0.01832,-0.0506
-14.9,-1.5794,0.02315,0.01796,-0.0505
-14.8,-1.5674,0.02285,0.01761,-0.0504
-14.7,-1.5554,0.02256,0.01727,-0.0503
-14.6,-1.5434,0.02227,0.01694,-0.0501
-14.5,-1.5312,0.022,0.01662,-0.05
-14.4,-1.519,0.02173,0.01631,-0.0499
-14.3,-1.5067,0.02148,0.01601,-0.0498
-14.2,-1.4943,0.02123,0.01572,-0.0496
-14.1,-1.4819,0.02098,0.01544,-0.0495
-14,-1.4697,0.02069,0.01511,-0.0494
-13.9,-1.4573,0.02042,0.01481,-0.0493
-13.8,-1.4449,0.02017,0.01452,-0.0492
-13.7,-1.4324,0.01992,0.01425,-0.0491
-13.6,-1.4198,0.01969,0.01399,-0.049
-13.5,-1.4072,0.01946,0.01373,-0.0489
-13.4,-1.3946,0.01924,0.01349,-0.0488
-13.3,-1.3819,0.01903,0.01325,-0.0488
-13.2,-1.3692,0.01882,0.01301,-0.0487
-13.1,-1.3564,0.01861,0.01278,-0.0486
-13,-1.3436,0.01841,0.01255,-0.0485
-12.9,-1.3308,0.01822,0.01233,-0.0484
-12.8,-1.318,0.01802,0.01211,-0.0483
-12.7,-1.3051,0.01784,0.0119,-0.0483
-12.6,-1.2922,0.01766,0.01169,-0.0482
-12.5,-1.2793,0.01748,0.01148,-0.0481
-12.4,-1.2664,0.01731,0.01128,-0.048
-12.3,-1.2534,0.01715,0.01109,-0.048
-12.2,-1.2406,0.01694,0.01088,-0.0479
-12.1,-1.2277,0.01675,0.01068,-0.0479
-12,-1.2148,0.01657,0.01049,-0.0478
-11.9,-1.2018,0.0164,0.0103,-0.0478
-11.8,-1.1888,0.01623,0.01012,-0.0478
-11.7,-1.1758,0.01607,0.00994,-0.0477
-11.6,-1.1628,0.01591,0.00977,-0.0477
-11.5,-1.1498,0.01575,0.00959,-0.0477
-11.4,-1.1368,0.0156,0.00942,-0.0476
-11.3,-1.1237,0.01545,0.00926,-0.0476
-11.2,-1.1106,0.01531,0.0091,-0.0476
-11.1,-1.0976,0.01517,0.00894,-0.0476
-11,-1.0845,0.01503,0.00879,-0.0475
-10.9,-1.0714,0.01491,0.00865,-0.0475
-10.8,-1.0584,0.01474,0.00848,-0.0475
-10.7,-1.0453,0.01459,0.00832,-0.0475
-10.6,-1.0323,0.01444,0.00817,-0.0475
-10.5,-1.0192,0.0143,0.00802,-0.0475
-10.4,-1.0061,0.01416,0.00787,-0.0475
-10.3,-0.993,0.01403,0.00773,-0.0475
-10.2,-0.9799,0.0139,0.0076,-0.0475
-10.1,-0.9668,0.01377,0.00746,-0.0476
-10,-0.9537,0.01365,0.00733,-0.0476
-9.9,-0.9406,0.01353,0.00721,-0.0476
-9.8,-0.9275,0.01342,0.00708,-0.0476
-9.7,-0.9144,0.01331,0.00696,-0.0476
-9.6,-0.9012,0.0132,0.00684,-0.0476
-9.5,-0.8882,0.01306,0.0067,-0.0477
-9.4,-0.8749,0.01293,0.00657,-0.0477
-9.3,-0.8609,0.01281,0.00646,-0.048
-9.2,-0.8469,0.0127,0.00635,-0.0482
-9.1,-0.8329,0.0126,0.00625,-0.0484
-9,-0.8182,0.01252,0.00616,-0.0488
-8.9,-0.8046,0.01243,0.00606,-0.0489
-8.8,-0.7914,0.01235,0.00597,-0.0489
-8.7,-0.7787,0.01229,0.00588,-0.0488
-8.6,-0.766,0.01222,0.0058,-0.0487
-8.5,-0.7537,0.01214,0.00569,-0.0486
-8.4,-0.7413,0.01206,0.0056,-0.0485
-8.3,-0.7299,0.01202,0.00552,-0.0481
-8.2,-0.7174,0.01196,0.00543,-0.048
-8.1,-0.7048,0.01189,0.00534,-0.048
-8,-0.6921,0.01182,0.00526,-0.0479
-7.9,-0.6795,0.01176,0.00518,-0.0479
-7.8,-0.6667,0.0117,0.00509,-0.0478
-7.7,-0.6544,0.01167,0.00501,-0.0477
-7.6,-0.6416,0.01159,0.00492,-0.0477
-7.5,-0.6287,0.01151,0.00483,-0.0478
-7.4,-0.6159,0.01145,0.00475,-0.0478
-7.3,-0.6029,0.01137,0.00468,-0.0478
-7.2,-0.59,0.01131,0.0046,-0.0478
-7.1,-0.5771,0.01125,0.00452,-0.0479
-7,-0.5642,0.0112,0.00445,-0.0479
-6.9,-0.5514,0.01116,0.00439,-0.0479
-6.8,-0.5385,0.01109,0.0043,-0.048
-6.7,-0.5255,0.01101,0.00423,-0.0481
-6.6,-0.5125,0.01094,0.00416,-0.0481
-6.5,-0.4995,0.01088,0.00409,-0.0482
-6.4,-0.4865,0.01083,0.00403,-0.0483
-6.3,-0.4736,0.01078,0.00397,-0.0483
-6.2,-0.4605,0.01072,0.0039,-0.0484
-6.1,-0.4477,0.01067,0.00384,-0.0485
-6,-0.4347,0.0106,0.00377,-0.0486
-5.9,-0.4217,0.01055,0.00372,-0.0486
-5.8,-0.4087,0.01049,0.00366,-0.0487
-5.7,-0.3957,0.01044,0.0036,-0.0488
-5.6,-0.3826,0.01037,0.00354,-0.0489
-5.5,-0.3696,0.01031,0.00348,-0.049
-5.4,-0.3567,0.01026,0.00343,-0.0491
-5.3,-0.3437,0.01022,0.00338,-0.0492
-5.2,-0.3307,0.01018,0.00334,-0.0493
-5.1,-0.3177,0.01013,0.00328,-0.0494
-5,-0.3049,0.01008,0.00323,-0.0495
-4.9,-0.2919,0.01003,0.00319,-0.0496
-4.8,-0.2791,0.01001,0.00314,-0.0497
-4.7,-0.2661,0.00998,0.0031,-0.0498
-4.6,-0.2532,0.00994,0.00305,-0.0499
-4.5,-0.2402,0.0099,0.00301,-0.05
-4.4,-0.2273,0.00987,0.00298,-0.0502
-4.3,-0.2143,0.00983,0.00294,-0.0503
-4.2,-0.2015,0.0098,0.00289,-0.0504
-4.1,-0.1888,0.0098,0.00286,-0.0505
-4,-0.1758,0.00976,0.00283,-0.0506
-3.9,-0.1628,0.00974,0.00279,-0.0507
-3.8,-0.1499,0.0097,0.00275,-0.0508
-3.7,-0.1369,0.00967,0.00272,-0.051
-3.6,-0.124,0.00964,0.00269,-0.0511
-3.5,-0.1111,0.0096,0.00265,-0.0512
-3.4,-0.0983,0.0096,0.00263,-0.0514
-3.3,-0.0854,0.00958,0.00261,-0.0515
-3.2,-0.0725,0.00958,0.00259,-0.0516
-3.1,-0.0596,0.00955,0.00256,-0.0518
-3,-0.0467,0.00951,0.00254,-0.0519
-2.9,-0.0337,0.00949,0.00251,-0.0521
-2.8,-0.0209,0.00949,0.00249,-0.0522
-2.7,-0.0081,0.0095,0.00248,-0.0523
-2.6,0.0048,0.00949,0.00247,-0.0525
-2.5,0.0177,0.00947,0.00245,-0.0526
-2.4,0.0307,0.00943,0.00243,-0.0528
-2.3,0.0436,0.00942,0.00241,-0.0529
-2.2,0.0565,0.0094,0.0024,-0.0531
-2.1,0.0693,0.0094,0.00239,-0.0532
-2,0.0822,0.00938,0.00237,-0.0534
-1.9,0.095,0.0094,0.00237,-0.0535
-1.8,0.1078,0.00941,0.00237,-0.0537
-1.7,0.1207,0.00941,0.00236,-0.0538
-1.6,0.1335,0.00941,0.00236,-0.054
-1.5,0.1463,0.00943,0.00236,-0.0541
-1.4,0.1592,0.00941,0.00235,-0.0543
-1.3,0.1721,0.00942,0.00235,-0.0544
-1.2,0.185,0.00942,0.00234,-0.0546
-1.1,0.1978,0.00942,0.00234,-0.0547
-1,0.2105,0.00946,0.00235,-0.0549
-0.9,0.2233,0.00947,0.00236,-0.0551
-0.8,0.2361,0.00948,0.00236,-0.0552
-0.7,0.2489,0.0095,0.00236,-0.0554
-0.6,0.2618,0.00951,0.00237,-0.0555
-0.5,0.2745,0.00951,0.00237,-0.0557
-0.4,0.2873,0.00953,0.00238,-0.0559
-0.3,0.3001,0.00956,0.0024,-0.056
-0.2,0.3129,0.00958,0.00241,-0.0562
-0.1,0.3256,0.00963,0.00243,-0.0563
0,0.3381,0.00971,0.00246,-0.0565
0.1,0.3507,0.00977,0.00249,-0.0567
0.2,0.3634,0.00982,0.00251,-0.0569
0.3,0.376,0.00989,0.00254,-0.057
0.4,0.3886,0.00993,0.00257,-0.0572
0.5,0.4012,0.01002,0.0026,-0.0574
0.6,0.4137,0.01009,0.00264,-0.0576
0.7,0.4263,0.01017,0.00268,-0.0577
0.8,0.4391,0.0102,0.0027,-0.0579
0.9,0.4516,0.01027,0.00275,-0.0581
1,0.4644,0.01029,0.00277,-0.0582
1.1,0.4772,0.01032,0.0028,-0.0584
1.2,0.4899,0.01037,0.00283,-0.0586
1.3,0.5027,0.01035,0.00286,-0.0588
1.4,0.5155,0.01036,0.00288,-0.0589
1.5,0.5283,0.01038,0.00291,-0.0591
1.6,0.5411,0.01041,0.00293,-0.0592
1.7,0.5539,0.0104,0.00296,-0.0594
1.8,0.5667,0.01043,0.003,-0.0596
2,0.5922,0.01047,0.00306,-0.0599
2.1,0.6051,0.01045,0.00308,-0.0601
2.2,0.6178,0.01048,0.00312,-0.0603
2.3,0.6306,0.01051,0.00315,-0.0604
2.4,0.6434,0.01052,0.00319,-0.0606
2.5,0.6562,0.01054,0.00323,-0.0607
2.6,0.669,0.01049,0.00326,-0.0609
2.7,0.6817,0.0105,0.0033,-0.061
2.8,0.6944,0.01052,0.00334,-0.0612
2.9,0.7071,0.01055,0.00338,-0.0613
3,0.7197,0.01053,0.00342,-0.0614
3.1,0.7323,0.01058,0.00347,-0.0616
3.2,0.745,0.0106,0.00351,-0.0617
3.3,0.7577,0.01062,0.00355,-0.0618
3.4,0.7701,0.01061,0.0036,-0.0618
3.5,0.7827,0.01064,0.00364,-0.0619
3.6,0.7953,0.01068,0.00369,-0.062
3.7,0.8078,0.01072,0.00374,-0.062
3.8,0.8198,0.01072,0.00379,-0.062
3.9,0.8322,0.01076,0.00384,-0.062
4,0.8446,0.01079,0.00389,-0.0621
4.1,0.857,0.01082,0.00393,-0.0621
4.3,0.8814,0.0109,0.00403,-0.062
4.4,0.8934,0.01094,0.00408,-0.062
4.5,0.9039,0.01093,0.00411,-0.0616
4.6,0.9156,0.01097,0.00416,-0.0614
4.7,0.927,0.01102,0.0042,-0.0612
4.8,0.9386,0.01104,0.00425,-0.0611
4.9,0.95,0.01106,0.00428,-0.0608
5,0.9609,0.01097,0.00421,-0.0604
5.1,0.9737,0.01104,0.00427,-0.0606
5.2,0.9864,0.01111,0.00432,-0.0607
5.3,0.9992,0.01118,0.00438,-0.0608
5.4,1.0119,0.01126,0.00444,-0.0609
5.5,1.0245,0.01136,0.00451,-0.061
5.6,1.0372,0.01145,0.00457,-0.0611
5.7,1.0499,0.01152,0.00464,-0.0612
5.8,1.0627,0.01158,0.0047,-0.0613
5.9,1.0754,0.01165,0.00476,-0.0614
6,1.0881,0.01173,0.00483,-0.0615
6.1,1.1008,0.0118,0.00489,-0.0616
6.2,1.1135,0.01188,0.00496,-0.0617
6.3,1.1262,0.01196,0.00502,-0.0618
6.4,1.1389,0.01204,0.00509,-0.0619
6.5,1.1515,0.01213,0.00516,-0.062
6.6,1.1642,0.01222,0.00524,-0.0621
6.7,1.1768,0.01232,0.00531,-0.0622
6.8,1.1895,0.01239,0.00538,-0.0623
6.9,1.2022,0.01246,0.00546,-0.0623
7,1.2149,0.01254,0.00553,-0.0624
7.1,1.2275,0.01262,0.0056,-0.0625
7.2,1.2402,0.01271,0.00567,-0.0626
7.3,1.2528,0.01279,0.00575,-0.0627
7.4,1.2654,0.01288,0.00583,-0.0627
7.5,1.278,0.01298,0.00591,-0.0628
7.6,1.2906,0.01308,0.00599,-0.0629
7.7,1.3031,0.01318,0.00608,-0.0629
7.8,1.3158,0.01327,0.00617,-0.063
7.9,1.3284,0.01335,0.00624,-0.0631
8,1.3411,0.01343,0.00632,-0.0631
8.1,1.3537,0.01352,0.0064,-0.0632
8.2,1.3663,0.01361,0.00649,-0.0633
8.3,1.3788,0.0137,0.00657,-0.0633
8.4,1.3914,0.01379,0.00666,-0.0634
8.5,1.4039,0.01389,0.00675,-0.0634
8.6,1.4165,0.014,0.00684,-0.0635
8.7,1.429,0.0141,0.00694,-0.0635
8.8,1.4414,0.01422,0.00703,-0.0635
8.9,1.454,0.01432,0.00713,-0.0636
9,1.4666,0.0144,0.00722,-0.0636
9.1,1.4791,0.01449,0.00731,-0.0637
9.2,1.4917,0.01458,0.00741,-0.0637
9.3,1.5042,0.01468,0.0075,-0.0637
9.4,1.5167,0.01478,0.0076,-0.0637
9.5,1.5291,0.01489,0.0077,-0.0638
9.6,1.5416,0.015,0.0078,-0.0638
9.7,1.554,0.01511,0.0079,-0.0638
9.8,1.5664,0.01522,0.00801,-0.0638
9.9,1.5788,0.01534,0.00812,-0.0638
10,1.5912,0.01547,0.00823,-0.0638
10.1,1.6036,0.01557,0.00835,-0.0638
10.2,1.6161,0.01567,0.00845,-0.0638
10.3,1.6286,0.01576,0.00855,-0.0638
10.4,1.641,0.01587,0.00866,-0.0638
10.5,1.6534,0.01597,0.00877,-0.0638
10.6,1.6658,0.01608,0.00888,-0.0638
10.7,1.6782,0.0162,0.00899,-0.0638
10.8,1.6904,0.01632,0.0091,-0.0638
10.9,1.7027,0.01644,0.00922,-0.0638
11,1.715,0.01657,0.00935,-0.0637
11.1,1.7272,0.0167,0.00947,-0.0637
11.2,1.7394,0.01684,0.0096,-0.0637
11.3,1.7516,0.01697,0.00974,-0.0636
11.4,1.7639,0.01708,0.00986,-0.0636
11.5,1.7762,0.01718,0.00997,-0.0635
11.6,1.7885,0.0173,0.0101,-0.0635
11.7,1.8008,0.01742,0.01022,-0.0634
11.8,1.813,0.01754,0.01035,-0.0634
11.9,1.8252,0.01766,0.01048,-0.0633
12,1.8374,0.01779,0.01061,-0.0633
12.1,1.8495,0.01792,0.01074,-0.0632
12.2,1.8614,0.01807,0.01088,-0.0631
12.3,1.8734,0.01821,0.01102,-0.063
12.4,1.8855,0.01836,0.01117,-0.0629
12.5,1.8973,0.01851,0.01132,-0.0628
12.6,1.9092,0.01866,0.01148,-0.0627
12.7,1.9214,0.01878,0.01161,-0.0626
12.8,1.9334,0.0189,0.01175,-0.0625
12.9,1.9455,0.01903,0.01189,-0.0624
13,1.9575,0.01916,0.01204,-0.0623
13.1,1.9694,0.0193,0.01219,-0.0622
13.2,1.9813,0.01944,0.01234,-0.0621
13.3,1.9932,0.01958,0.01249,-0.0619
13.4,2.005,0.01973,0.01265,-0.0618
13.5,2.0167,0.01988,0.01281,-0.0616
13.6,2.0284,0.02003,0.01297,-0.0615
13.7,2.04,0.02019,0.01313,-0.0613
13.8,2.0517,0.02036,0.0133,-0.0612
13.9,2.0627,0.02056,0.01349,-0.0609
14,2.0742,0.02073,0.01368,-0.0608
14.1,2.0859,0.02086,0.01384,-0.0606
14.2,2.0976,0.02101,0.014,-0.0604
14.3,2.1092,0.02116,0.01417,-0.0602
14.4,2.1208,0.02131,0.01434,-0.06
14.5,2.1322,0.02146,0.01451,-0.0598
14.6,2.1436,0.02162,0.01469,-0.0596
14.7,2.1549,0.02179,0.01487,-0.0594
14.8,2.1662,0.02196,0.01506,-0.0591
14.9,2.1773,0.02213,0.01524,-0.0589
15,2.1884,0.02231,0.01543,-0.0586
15.1,2.1994,0.02249,0.01563,-0.0584
15.2,2.2103,0.02268,0.01583,-0.0581
15.3,2.2205,0.0229,0.01605,-0.0578
15.4,2.2311,0.02311,0.01628,-0.0575
15.5,2.2418,0.0233,0.01649,-0.0571
15.6,2.2528,0.02346,0.01668,-0.0569
15.7,2.2637,0.02363,0.01688,-0.0565
15.8,2.2744,0.02381,0.01708,-0.0562
15.9,2.2851,0.02399,0.01728,-0.0559
16,2.2956,0.02417,0.01749,-0.0556
16.1,2.306,0.02436,0.01771,-0.0552
16.2,2.3162,0.02456,0.01793,-0.0548
16.3,2.3263,0.02475,0.01815,-0.0544
16.4,2.3364,0.02496,0.01837,-0.0541
16.5,2.3463,0.02517,0.0186,-0.0537
16.6,2.3561,0.02538,0.01884,-0.0532
16.7,2.3656,0.0256,0.01909,-0.0528
16.8,2.3749,0.02583,0.01933,-0.0523
16.9,2.3838,0.02607,0.0196,-0.0518
17,2.3926,0.02631,0.01986,-0.0513
17.1,2.4007,0.02659,0.02016,-0.0508
17.2,2.4101,0.02679,0.02039,-0.0503
17.3,2.4191,0.02699,0.02063,-0.0498
17.4,2.4279,0.02721,0.02088,-0.0493
17.5,2.4364,0.02743,0.02114,-0.0487
17.6,2.4446,0.02765,0.02139,-0.0481
17.7,2.4526,0.02788,0.02166,-0.0475
17.8,2.4601,0.02812,0.02193,-0.0469
17.9,2.4675,0.02836,0.0222,-0.0462
18,2.4744,0.0286,0.02248,-0.0455
18.1,2.481,0.02886,0.02277,-0.0448
18.2,2.4873,0.02912,0.02307,-0.0441
18.3,2.4931,0.02938,0.02337,-0.0433
18.4,2.4977,0.02965,0.02367,-0.0424
18.5,2.5004,0.02994,0.024,-0.0413
18.6,2.503,0.03025,0.02435,-0.0403
18.7,2.5065,0.03057,0.0247,-0.0394
18.8,2.5107,0.03091,0.02508,-0.0388
18.9,2.5153,0.03126,0.02546,-0.0383
19,2.5202,0.03162,0.02586,-0.038
19.1,2.5254,0.032,0.02628,-0.0379
19.2,2.5323,0.03231,0.02664,-0.0377
19.3,2.5395,0.03261,0.027,-0.0377
19.4,2.5468,0.03293,0.02737,-0.0378
19.5,2.5545,0.03325,0.02773,-0.0379
19.6,2.562,0.03359,0.02813,-0.0382
19.7,2.5697,0.03395,0.02854,-0.0385
19.8,2.5776,0.03431,0.02895,-0.039
19.9,2.5856,0.03469,0.02938,-0.0395
20,2.5938,0.03509,0.02982,-0.0402
20.1,2.602,0.03549,0.03028,-0.0409
20.2,2.6101,0.03593,0.03077,-0.0418
20.3,2.6185,0.03637,0.03126,-0.0427
20.4,2.6268,0.03684,0.03178,-0.0438
20.5,2.6351,0.03733,0.03233,-0.045
20.6,2.6434,0.03786,0.03291,-0.0464
20.7,2.6516,0.03843,0.03353,-0.0479
20.8,2.6596,0.03905,0.0342,-0.0496
20.9,2.6675,0.03972,0.03494,-0.0516
21,2.6751,0.04046,0.03574,-0.0537
21.1,2.6836,0.04106,0.03641,-0.0553
21.2,2.6919,0.04171,0.03715,-0.0572
21.3,2.6997,0.04245,0.03796,-0.0592
21.4,2.7072,0.04326,0.03885,-0.0614
21.5,2.7143,0.04414,0.03981,-0.0639
21.6,2.7204,0.04517,0.04093,-0.0666
21.7,2.7256,0.04636,0.0422,-0.0698
21.8,2.7297,0.04773,0.04366,-0.0733
21.9,2.7322,0.04933,0.04536,-0.0772
22,2.7329,0.0512,0.04734,-0.0817
22.1,2.7309,0.05348,0.04974,-0.0869
22.2,2.7254,0.05626,0.05266,-0.0929
22.3,2.7157,0.05964,0.05619,-0.0999
22.4,2.7011,0.06373,0.06045,-0.1079
22.5,2.6827,0.06833,0.06523,-0.1167
22.6,2.6646,0.07275,0.0698,-0.1251
22.7,2.649,0.07667,0.07384,-0.133
22.8,2.6351,0.08021,0.07748,-0.1404
22.9,2.6295,0.08246,0.07982,-0.1453
23,2.6225,0.08491,0.08236,-0.1506
23.1,2.6184,0.08686,0.08438,-0.1551
23.2,2.6111,0.08926,0.08687,-0.1607
23.3,2.6075,0.09107,0.08874,-0.1651
23.4,2.5985,0.0937,0.09145,-0.1714
23.5,2.5949,0.09548,0.09328,-0.1759
23.6,2.587,0.09795,0.09582,-0.1819
23.7,2.583,0.09988,0.09779,-0.1865
23.8,2.5806,0.10159,0.09953,-0.1906
23.9,2.5755,0.10378,0.10177,-0.1955
24,2.5721,0.10575,0.10378,-0.1997
24.1,2.5705,0.10747,0.10551,-0.2034
24.2,2.5692,0.10914,0.1072,-0.2069
24.3,2.563,0.11177,0.10991,-0.2117
24.4,2.5617,0.11353,0.11172,-0.215
24.5,2.5608,0.1152,0.11344,-0.218
24.6,2.5598,0.11692,0.1152,-0.2212
24.7,2.5555,0.11928,0.11761,-0.2253
24.8,2.5539,0.12114,0.11951,-0.2286
24.9,2.5531,0.12284,0.12124,-0.2316
25,2.5525,0.12451,0.12294,-0.2345
25.1,2.551,0.12638,0.12483,-0.2377
25.2,2.5482,0.12852,0.127,-0.2413
25.3,2.5473,0.13032,0.12879,-0.2443
25.4,2.5476,0.13185,0.13033,-0.247
25.5,2.5483,0.13329,0.13178,-0.2494
25.6,2.5478,0.13498,0.13349,-0.2522
25.7,2.5423,0.13768,0.13627,-0.2565
25.8,2.5391,0.13993,0.13857,-0.2601
25.9,2.5372,0.14191,0.14059,-0.2633
26,2.5355,0.14387,0.14259,-0.2665
26.1,2.5314,0.14636,0.14513,-0.2704
26.2,2.5295,0.14841,0.1472,-0.2736
26.4,2.5298,0.15165,0.15047,-0.2787
26.5,2.5307,0.15311,0.15194,-0.281
26.6,2.532,0.15449,0.15332,-0.2831
26.7,2.5347,0.15559,0.15439,-0.2848
26.8,2.523,0.15991,0.1588,-0.2913
26.9,2.52,0.16229,0.16122,-0.2949
27,2.5177,0.16452,0.16348,-0.2983
27.1,2.5137,0.16719,0.16618,-0.3022
27.2,2.5135,0.16897,0.16798,-0.3049
27.3,2.5146,0.17045,0.16946,-0.3071
27.4,2.5162,0.17178,0.17079,-0.3091
27.5,2.5184,0.17298,0.17198,-0.3108
27.6,2.5208,0.17414,0.17313,-0.3126
27.7,2.5233,0.17523,0.17421,-0.3142
27.8,2.509,0.18066,0.17976,-0.3221
27.9,2.5043,0.18374,0.18289,-0.3265
28,2.5032,0.18586,0.18502,-0.3295
28.1,2.5027,0.18782,0.18699,-0.3323
28.2,2.5042,0.18921,0.18839,-0.3343
28.3,2.5064,0.19041,0.18959,-0.336
28.4,2.5091,0.19145,0.19061,-0.3375
28.5,2.512,0.19244,0.1916,-0.339
28.6,2.5151,0.19336,0.1925,-0.3403
28.7,2.4983,0.20029,0.19955,-0.3499
28.8,2.4977,0.20238,0.20166,-0.3528
28.9,2.499,0.20384,0.20312,-0.3548
29,2.501,0.20508,0.20436,-0.3566
29.1,2.5035,0.20616,0.20542,-0.3581
29.2,2.5062,0.20715,0.20641,-0.3595
29.3,2.509,0.20811,0.20735,-0.3609
29.4,2.5121,0.20904,0.20828,-0.3623
29.5,2.5008,0.21479,0.21411,-0.3699
29.6,2.5011,0.21662,0.21594,-0.3724
29.7,2.5026,0.21808,0.21741,-0.3744
29.8,2.5047,0.21926,0.21859,-0.3761
29.9,2.5084,0.21985,0.21915,-0.377

