airfoilName st6.dat
Re 	4.100000e+05
M 	2.500000e-01
N 	4.500000e+00
VACC 	0 VACCflag 1
XTR 	1.00 	1.00 XTRflag 0
alpha,cl,cd,cdp,cm
-13,-1.2419,0.0326,0.02838,-0.0512
-12.9,-1.2328,0.03153,0.02715,-0.0522
-12.8,-1.2235,0.03057,0.02603,-0.053
-12.7,-1.2141,0.02968,0.02499,-0.0536
-12.6,-1.2044,0.02886,0.02402,-0.054
-12.5,-1.1945,0.02811,0.02312,-0.0543
-12.4,-1.1842,0.02742,0.02232,-0.0545
-12.3,-1.1737,0.02684,0.02167,-0.0547
-12.2,-1.1629,0.02632,0.02109,-0.0548
-12.1,-1.152,0.02583,0.02054,-0.0549
-12,-1.1408,0.02537,0.02002,-0.055
-11.9,-1.1296,0.02494,0.01952,-0.0551
-11.8,-1.1182,0.02452,0.01904,-0.0551
-11.7,-1.1068,0.02412,0.01857,-0.0551
-11.6,-1.0952,0.02372,0.01811,-0.0551
-11.5,-1.0836,0.02333,0.01765,-0.0551
-11.4,-1.0719,0.02295,0.01721,-0.0551
-11.3,-1.0602,0.02257,0.01677,-0.0551
-11.2,-1.0484,0.0222,0.01634,-0.0551
-11.1,-1.0365,0.02184,0.01591,-0.0551
-11,-1.0246,0.02148,0.01549,-0.0551
-10.9,-1.0126,0.02113,0.01507,-0.0551
-10.8,-1.0006,0.02079,0.01466,-0.0551
-10.7,-0.9885,0.02046,0.01426,-0.055
-10.6,-0.9764,0.02015,0.01386,-0.055
-10.5,-0.9641,0.01985,0.01349,-0.055
-10.4,-0.952,0.01954,0.01315,-0.055
-10.3,-0.9398,0.01924,0.01283,-0.055
-10.2,-0.9275,0.01897,0.01253,-0.055
-10.1,-0.9151,0.01872,0.01225,-0.055
-10,-0.9028,0.01847,0.01198,-0.0549
-9.9,-0.8904,0.01824,0.01171,-0.0549
-9.8,-0.8779,0.01811,0.01157,-0.0549
-9.7,-0.8654,0.01787,0.01129,-0.0549
-9.6,-0.853,0.01763,0.01101,-0.0549
-9.5,-0.8405,0.0174,0.01074,-0.0549
-9.4,-0.828,0.01718,0.01046,-0.0548
-9.3,-0.8155,0.01696,0.0102,-0.0548
-9.2,-0.8029,0.01675,0.00994,-0.0548
-9.1,-0.7904,0.01653,0.0097,-0.0548
-9,-0.7779,0.0163,0.00946,-0.0548
-8.9,-0.7654,0.01609,0.00924,-0.0548
-8.8,-0.7529,0.0159,0.00903,-0.0548
-8.7,-0.7403,0.01571,0.00883,-0.0548
-8.6,-0.7277,0.01553,0.00863,-0.0548
-8.5,-0.7151,0.01536,0.00844,-0.0548
-8.4,-0.7026,0.01523,0.0083,-0.0548
-8.3,-0.69,0.01506,0.00809,-0.0548
-8.2,-0.6774,0.0149,0.0079,-0.0548
-8.1,-0.6648,0.01474,0.00771,-0.0548
-8,-0.6522,0.01456,0.00752,-0.0548
-7.9,-0.6397,0.01438,0.00733,-0.0549
-7.8,-0.6267,0.01421,0.00716,-0.055
-7.7,-0.6129,0.01405,0.007,-0.0552
-7.6,-0.599,0.0139,0.00684,-0.0555
-7.5,-0.5852,0.01376,0.00669,-0.0558
-7.4,-0.5712,0.01362,0.00653,-0.0561
-7.3,-0.5567,0.01349,0.00637,-0.0565
-7.2,-0.5428,0.01336,0.00622,-0.0568
-7,-0.5152,0.01309,0.00596,-0.0573
-6.9,-0.5011,0.01296,0.00583,-0.0576
-6.8,-0.4873,0.01284,0.0057,-0.0579
-6.7,-0.4738,0.01273,0.00558,-0.0581
-6.6,-0.4605,0.01262,0.00546,-0.0582
-6.5,-0.4472,0.01252,0.00534,-0.0584
-6.4,-0.4338,0.01243,0.00523,-0.0585
-6.3,-0.4208,0.01233,0.00511,-0.0586
-6.2,-0.408,0.01222,0.005,-0.0587
-6.1,-0.3952,0.01212,0.0049,-0.0587
-6,-0.3826,0.01203,0.00482,-0.0587
-5.9,-0.3704,0.01196,0.00473,-0.0586
-5.8,-0.3579,0.01189,0.00464,-0.0586
-5.7,-0.3454,0.01182,0.00454,-0.0586
-5.6,-0.333,0.01171,0.00444,-0.0585
-5.5,-0.3207,0.01163,0.00436,-0.0585
-5.4,-0.3082,0.01155,0.00428,-0.0585
-5.3,-0.2958,0.01148,0.00419,-0.0585
-5.2,-0.2839,0.01144,0.00411,-0.0583
-5.1,-0.2714,0.01135,0.00404,-0.0583
-5,-0.259,0.01127,0.00396,-0.0583
-4.9,-0.2466,0.0112,0.00388,-0.0583
-4.8,-0.2343,0.01115,0.00381,-0.0582
-4.7,-0.2217,0.01109,0.00374,-0.0583
-4.6,-0.2092,0.01102,0.00367,-0.0583
-4.5,-0.1972,0.01097,0.0036,-0.0582
-4.4,-0.1847,0.0109,0.00354,-0.0582
-4.3,-0.1721,0.01084,0.00348,-0.0582
-4.2,-0.1596,0.01077,0.00341,-0.0583
-4.1,-0.1472,0.01071,0.00335,-0.0583
-4,-0.1347,0.01066,0.0033,-0.0583
-3.9,-0.122,0.01061,0.00323,-0.0584
-3.8,-0.1098,0.01056,0.00318,-0.0584
-3.7,-0.0973,0.01051,0.00314,-0.0584
-3.6,-0.0847,0.01044,0.00308,-0.0585
-3.5,-0.0726,0.01041,0.00303,-0.0584
-3.4,-0.0603,0.01038,0.00299,-0.0584
-3.3,-0.0477,0.01033,0.00294,-0.0585
-3.2,-0.036,0.01034,0.0029,-0.0583
-3.1,-0.0235,0.01031,0.00287,-0.0584
-3,-0.0109,0.01023,0.00282,-0.0585
-2.9,0.0016,0.0102,0.00278,-0.0585
-2.8,0.0138,0.01018,0.00274,-0.0585
-2.7,0.0264,0.01015,0.00271,-0.0586
-2.6,0.0389,0.01012,0.00267,-0.0587
-2.5,0.0514,0.01006,0.00265,-0.0588
-2.4,0.0637,0.01005,0.00261,-0.0588
-2.3,0.0761,0.01004,0.00259,-0.0588
-2.2,0.0883,0.01005,0.00256,-0.0588
-2.1,0.1008,0.01003,0.00254,-0.0589
-2,0.1133,0.00998,0.00252,-0.059
-1.9,0.1258,0.00997,0.0025,-0.0591
-1.8,0.1383,0.00995,0.00247,-0.0592
-1.7,0.1508,0.00994,0.00245,-0.0593
-1.6,0.1631,0.00995,0.00243,-0.0593
-1.5,0.1752,0.00997,0.00243,-0.0594
-1.4,0.1875,0.00999,0.00242,-0.0594
-1.3,0.2,0.00998,0.0024,-0.0595
-1.2,0.2123,0.01,0.0024,-0.0596
-1.1,0.2248,0.00996,0.00238,-0.0597
-1,0.2372,0.00997,0.00238,-0.0598
-0.9,0.2498,0.00995,0.00237,-0.0599
-0.8,0.2619,0.00999,0.00238,-0.06
-0.7,0.2744,0.00999,0.00238,-0.0601
-0.6,0.2868,0.00995,0.00238,-0.0603
-0.5,0.2993,0.00994,0.00237,-0.0604
-0.4,0.3118,0.00995,0.00237,-0.0605
-0.3,0.3242,0.00989,0.00237,-0.0606
-0.2,0.3366,0.00989,0.00237,-0.0608
-0.1,0.3491,0.00989,0.00238,-0.0609
0,0.3612,0.00994,0.00241,-0.0609
0.1,0.3736,0.00987,0.00241,-0.0611
0.2,0.3859,0.00988,0.00242,-0.0612
0.3,0.3983,0.00986,0.00243,-0.0613
0.4,0.4106,0.00987,0.00245,-0.0614
0.5,0.4228,0.00978,0.00245,-0.0616
0.6,0.435,0.00978,0.00247,-0.0616
0.7,0.4472,0.00975,0.00249,-0.0617
0.8,0.4587,0.00963,0.00251,-0.0617
0.9,0.4702,0.00965,0.00255,-0.0617
1,0.4818,0.00962,0.00257,-0.0616
1.1,0.4931,0.00961,0.00261,-0.0614
1.2,0.5027,0.00951,0.00263,-0.0608
1.3,0.5131,0.00951,0.00267,-0.0604
1.4,0.5229,0.00952,0.00269,-0.0599
1.5,0.5326,0.00954,0.00271,-0.0593
1.6,0.5407,0.00948,0.00267,-0.0582
1.7,0.5527,0.00954,0.00268,-0.0582
1.8,0.5658,0.00963,0.00269,-0.0584
1.9,0.5785,0.00978,0.00272,-0.0587
2,0.5907,0.00991,0.00279,-0.0588
2.1,0.6029,0.01004,0.00284,-0.0589
2.2,0.6151,0.01016,0.00291,-0.059
2.3,0.6274,0.01028,0.00298,-0.0591
2.4,0.6397,0.01039,0.00303,-0.0592
2.5,0.652,0.0105,0.00309,-0.0593
2.6,0.6643,0.01061,0.00316,-0.0594
2.7,0.6767,0.0107,0.00322,-0.0594
2.8,0.6888,0.01083,0.00329,-0.0595
2.9,0.7011,0.01094,0.00337,-0.0596
3,0.7136,0.01102,0.00342,-0.0597
3.1,0.726,0.0111,0.00348,-0.0598
3.2,0.7383,0.01119,0.00355,-0.0599
3.3,0.7507,0.01129,0.00361,-0.06
3.4,0.763,0.0114,0.00369,-0.0601
3.5,0.7754,0.01147,0.00375,-0.0602
3.6,0.7878,0.01155,0.00382,-0.0603
3.7,0.8002,0.01164,0.00388,-0.0603
3.8,0.8124,0.01176,0.00396,-0.0604
3.9,0.8246,0.01187,0.00404,-0.0605
4,0.8371,0.01194,0.0041,-0.0606
4.1,0.8495,0.01202,0.00417,-0.0607
4.2,0.8618,0.01211,0.00424,-0.0608
4.3,0.8742,0.0122,0.00431,-0.0608
4.4,0.8865,0.01229,0.00439,-0.0609
4.5,0.8987,0.0124,0.00446,-0.061
4.6,0.911,0.0125,0.00455,-0.061
4.7,0.9234,0.01257,0.00462,-0.0611
4.8,0.9358,0.01266,0.00469,-0.0612
4.9,0.948,0.01275,0.00477,-0.0613
5,0.9603,0.01285,0.00485,-0.0613
5.1,0.9725,0.01296,0.00493,-0.0614
5.2,0.9847,0.01307,0.00501,-0.0615
5.3,0.997,0.01316,0.0051,-0.0615
5.4,1.0093,0.01324,0.00518,-0.0616
5.5,1.0217,0.01333,0.00526,-0.0616
5.6,1.0339,0.01342,0.00535,-0.0617
5.7,1.0462,0.01352,0.00544,-0.0618
5.8,1.0584,0.01362,0.00553,-0.0618
6,1.0826,0.01385,0.00571,-0.0619
6.1,1.0949,0.01394,0.0058,-0.0619
6.2,1.1072,0.01403,0.00589,-0.062
6.3,1.1194,0.01413,0.00598,-0.062
6.4,1.1316,0.01423,0.00608,-0.0621
6.5,1.1437,0.01433,0.00618,-0.0621
6.6,1.1559,0.01444,0.00628,-0.0621
6.7,1.168,0.01456,0.00638,-0.0622
6.8,1.1799,0.01469,0.00648,-0.0622
6.9,1.1921,0.01479,0.00659,-0.0622
7,1.2044,0.01488,0.00669,-0.0623
7.1,1.2165,0.01498,0.00678,-0.0623
7.2,1.2286,0.01509,0.00689,-0.0623
7.3,1.2407,0.0152,0.007,-0.0623
7.4,1.2528,0.01532,0.00711,-0.0623
7.5,1.2648,0.01545,0.00722,-0.0623
7.6,1.2767,0.01558,0.00734,-0.0623
7.7,1.2886,0.0157,0.00746,-0.0623
7.8,1.3008,0.0158,0.00757,-0.0624
7.9,1.3129,0.01591,0.00769,-0.0624
8,1.325,0.01602,0.0078,-0.0624
8.1,1.337,0.01613,0.00793,-0.0624
8.2,1.349,0.01626,0.00805,-0.0623
8.3,1.3608,0.01639,0.00816,-0.0623
8.4,1.3726,0.01652,0.00829,-0.0623
8.5,1.3844,0.01667,0.00842,-0.0623
8.6,1.3962,0.0168,0.00855,-0.0623
8.7,1.4083,0.01691,0.00868,-0.0622
8.8,1.4203,0.01703,0.00881,-0.0622
8.9,1.4322,0.01715,0.00894,-0.0622
9,1.4441,0.01728,0.00908,-0.0621
9.1,1.4559,0.01741,0.00922,-0.0621
9.2,1.4677,0.01754,0.00936,-0.0621
9.3,1.4794,0.01769,0.0095,-0.062
9.4,1.4911,0.01783,0.00964,-0.0619
9.5,1.5024,0.01801,0.00978,-0.0619
9.6,1.5143,0.01814,0.00993,-0.0618
9.7,1.5261,0.01826,0.01008,-0.0617
9.8,1.5379,0.01839,0.01023,-0.0617
9.9,1.5496,0.01853,0.01039,-0.0616
10,1.5613,0.01867,0.01054,-0.0615
10.1,1.5729,0.01882,0.01069,-0.0614
10.2,1.5844,0.01897,0.01085,-0.0614
10.3,1.5959,0.01913,0.01101,-0.0613
10.4,1.6073,0.01929,0.01118,-0.0611
10.5,1.6186,0.01947,0.01134,-0.061
10.6,1.6298,0.01965,0.01152,-0.0609
10.7,1.6414,0.01977,0.01168,-0.0608
10.8,1.653,0.01992,0.01185,-0.0607
11,1.6758,0.02023,0.0122,-0.0604
11.1,1.6871,0.02039,0.01238,-0.0603
11.2,1.6983,0.02056,0.01256,-0.0602
11.3,1.7095,0.02073,0.01274,-0.06
11.4,1.7205,0.02091,0.01293,-0.0598
11.5,1.7315,0.0211,0.01312,-0.0597
11.6,1.7423,0.0213,0.01332,-0.0595
11.7,1.753,0.02151,0.01353,-0.0593
11.8,1.7643,0.02166,0.01373,-0.0591
11.9,1.7754,0.02183,0.01392,-0.0589
12,1.7865,0.022,0.01414,-0.0587
12.1,1.7974,0.02216,0.01432,-0.0585
12.2,1.8083,0.02234,0.01453,-0.0583
12.3,1.819,0.02253,0.01474,-0.0581
12.4,1.8296,0.02273,0.01495,-0.0579
12.5,1.8401,0.02293,0.01516,-0.0576
12.6,1.8504,0.02314,0.01539,-0.0573
12.7,1.8606,0.02336,0.01562,-0.0571
12.8,1.8706,0.0236,0.01585,-0.0568
12.9,1.8808,0.02381,0.01609,-0.0565
13,1.8914,0.024,0.01633,-0.0562
13.1,1.9018,0.02419,0.01656,-0.0559
13.2,1.9121,0.02439,0.0168,-0.0556
13.3,1.9222,0.0246,0.01705,-0.0553
13.4,1.9322,0.02482,0.0173,-0.055
13.5,1.942,0.02502,0.01752,-0.0547
13.6,1.9516,0.02525,0.01778,-0.0543
13.7,1.9611,0.02548,0.01803,-0.0539
13.8,1.9703,0.02572,0.01829,-0.0535
13.9,1.9794,0.02597,0.01856,-0.0531
14,1.9882,0.02624,0.01884,-0.0527
14.1,1.9967,0.02652,0.01913,-0.0523
14.2,2.0058,0.02675,0.01942,-0.0518
14.3,2.015,0.02698,0.0197,-0.0514
14.4,2.024,0.02721,0.01998,-0.051
14.5,2.0327,0.02746,0.02027,-0.0505
14.6,2.0412,0.02771,0.02058,-0.05
14.7,2.0493,0.02797,0.02088,-0.0495
14.8,2.0572,0.02823,0.02118,-0.0489
14.9,2.0648,0.0285,0.02149,-0.0483
15,2.0721,0.02877,0.0218,-0.0477
15.1,2.0788,0.02903,0.02208,-0.0471
15.2,2.0852,0.02933,0.0224,-0.0464
15.3,2.0912,0.02963,0.02273,-0.0457
15.4,2.0968,0.02994,0.02307,-0.045
15.5,2.1009,0.03026,0.02342,-0.0441
15.6,2.104,0.03061,0.02379,-0.0431
15.7,2.1091,0.0309,0.02415,-0.0422
15.8,2.1141,0.03121,0.02452,-0.0415
15.9,2.1193,0.03153,0.0249,-0.0408
16,2.1245,0.03186,0.0253,-0.0402
16.1,2.1298,0.03221,0.0257,-0.0397
16.2,2.1352,0.03256,0.02611,-0.0393
16.3,2.1407,0.03293,0.02654,-0.0389
16.4,2.1462,0.03331,0.02698,-0.0386
16.5,2.1518,0.03369,0.02742,-0.0385
16.6,2.1575,0.03409,0.02787,-0.0384
16.7,2.1633,0.0345,0.02833,-0.0383
16.8,2.1692,0.03492,0.0288,-0.0384
16.9,2.1751,0.03536,0.02929,-0.0386
17,2.181,0.03582,0.02979,-0.0389
17.1,2.187,0.03629,0.03031,-0.0392
17.2,2.1924,0.03682,0.03085,-0.0399
17.3,2.1987,0.03732,0.03141,-0.0405
17.4,2.2058,0.03777,0.03194,-0.041
17.5,2.2128,0.03825,0.0325,-0.0416
17.6,2.2198,0.03875,0.03308,-0.0423
17.7,2.2269,0.03927,0.03367,-0.0431
17.8,2.2339,0.03981,0.03429,-0.044
17.9,2.241,0.04037,0.03493,-0.0451
18,2.2481,0.04095,0.03559,-0.0462
18.1,2.2552,0.04157,0.03629,-0.0476
18.2,2.2623,0.04221,0.037,-0.049
18.3,2.2694,0.04289,0.03775,-0.0505
18.4,2.2764,0.04361,0.03854,-0.0523
18.5,2.2834,0.04438,0.03938,-0.0542
18.6,2.2902,0.0452,0.04027,-0.0562
18.7,2.2968,0.04609,0.04123,-0.0585
18.8,2.3031,0.04706,0.04227,-0.061
18.9,2.309,0.04812,0.0434,-0.0637
19,2.3147,0.04926,0.04461,-0.0665
19.1,2.3204,0.05036,0.04583,-0.0691
19.2,2.3255,0.05156,0.04714,-0.0719
19.3,2.3301,0.05288,0.04857,-0.0749
19.4,2.3339,0.05431,0.05011,-0.0781
19.5,2.3369,0.05587,0.05179,-0.0816
19.6,2.3391,0.05758,0.05361,-0.0852
19.7,2.3403,0.05943,0.05558,-0.0891
19.8,2.3406,0.06143,0.05769,-0.0932
19.9,2.3398,0.06361,0.05998,-0.0974
20,2.3376,0.06606,0.06252,-0.1022
20.1,2.3349,0.06851,0.06508,-0.1068
20.2,2.3314,0.07105,0.06772,-0.1115
20.3,2.3276,0.07358,0.07034,-0.1161
20.4,2.3238,0.07607,0.0729,-0.1206
20.5,2.3203,0.07843,0.07533,-0.125
20.6,2.3175,0.08058,0.07753,-0.1291
20.7,2.3148,0.08267,0.07967,-0.1332
20.9,2.2984,0.08896,0.08624,-0.1446
21,2.2927,0.09151,0.0889,-0.1495
21.1,2.2856,0.09431,0.09179,-0.1549
21.2,2.2789,0.09702,0.09459,-0.1601
21.3,2.2722,0.09971,0.09737,-0.1653
21.4,2.2647,0.10267,0.1004,-0.1709
21.5,2.2611,0.10481,0.10259,-0.1751
21.6,2.2586,0.10678,0.10461,-0.179
21.7,2.2571,0.10856,0.10642,-0.1825
21.8,2.2577,0.10991,0.10778,-0.1852
21.9,2.2596,0.111,0.10886,-0.1875
22,2.2621,0.11192,0.10979,-0.1895
22.2,2.1891,0.13265,0.13096,-0.22
22.3,2.1895,0.13438,0.13271,-0.2227
22.4,2.1916,0.13564,0.13399,-0.2247
22.5,2.1946,0.13669,0.13504,-0.2265
22.6,2.2008,0.13694,0.13528,-0.2272
22.7,2.2055,0.13754,0.13588,-0.2283
22.8,2.2102,0.1381,0.13645,-0.2294
22.9,2.2152,0.1386,0.13694,-0.2304
23,2.2204,0.13903,0.13737,-0.2314
23.1,2.2259,0.13941,0.13774,-0.2322

