airfoilName st6.dat
Re 	650000
M 	2.500000e-01
N 	4.500000e+00
VACC 	0 VACCflag 1
XTR 	1.00 	1.00 XTRflag 0
alpha,cl,cd,cdp,cm
-14.1,-1.3769,0.0331,0.02959,-0.0512
-14,-1.368,0.03184,0.02818,-0.0528
-13.9,-1.3592,0.03078,0.02698,-0.0538
-13.8,-1.3501,0.02985,0.02592,-0.0545
-13.7,-1.3408,0.02902,0.02497,-0.0551
-13.6,-1.3313,0.02826,0.02409,-0.0554
-13.5,-1.3214,0.02757,0.02329,-0.0557
-13.4,-1.3113,0.02694,0.02255,-0.0559
-13.3,-1.3011,0.02631,0.02184,-0.0561
-13.2,-1.2908,0.02572,0.02117,-0.0562
-13.1,-1.2801,0.02518,0.02056,-0.0563
-13,-1.2693,0.02468,0.01999,-0.0563
-12.9,-1.2583,0.02422,0.01946,-0.0564
-12.8,-1.2471,0.02378,0.01895,-0.0564
-12.7,-1.2357,0.02336,0.01847,-0.0564
-12.6,-1.2243,0.02296,0.01802,-0.0563
-12.5,-1.2127,0.02258,0.01757,-0.0563
-12.4,-1.2011,0.02221,0.01715,-0.0562
-12.3,-1.1894,0.02185,0.01673,-0.0562
-12.2,-1.1776,0.0215,0.01633,-0.0561
-12.1,-1.1657,0.02116,0.01593,-0.0561
-12,-1.1535,0.02095,0.01568,-0.056
-11.9,-1.1415,0.02061,0.01529,-0.0559
-11.8,-1.1295,0.02029,0.01491,-0.0559
-11.7,-1.1174,0.01997,0.01453,-0.0558
-11.6,-1.1053,0.01967,0.01417,-0.0558
-11.5,-1.0931,0.01938,0.01382,-0.0557
-11.4,-1.0808,0.0191,0.01349,-0.0556
-11.3,-1.0685,0.01883,0.01316,-0.0556
-11.2,-1.0561,0.01859,0.01288,-0.0555
-11.1,-1.0438,0.01827,0.01253,-0.0555
-11,-1.0315,0.018,0.01222,-0.0554
-10.9,-1.0191,0.01774,0.01193,-0.0554
-10.8,-1.0066,0.0175,0.01166,-0.0554
-10.7,-0.9941,0.01727,0.01141,-0.0553
-10.6,-0.9816,0.01706,0.01116,-0.0553
-10.5,-0.969,0.01684,0.01092,-0.0553
-10.4,-0.9565,0.01664,0.01068,-0.0552
-10.3,-0.9439,0.01643,0.01045,-0.0552
-10.2,-0.9312,0.01623,0.01022,-0.0551
-10.1,-0.9186,0.01604,0.00999,-0.0551
-10,-0.9059,0.01585,0.00977,-0.0551
-9.9,-0.8933,0.01566,0.00955,-0.055
-9.8,-0.8806,0.01548,0.00934,-0.055
-9.7,-0.8679,0.01531,0.00914,-0.055
-9.6,-0.8552,0.01514,0.00894,-0.055
-9.5,-0.8425,0.01495,0.00873,-0.055
-9.4,-0.8298,0.01476,0.00852,-0.055
-9.3,-0.8172,0.01458,0.00833,-0.055
-9.2,-0.8045,0.01441,0.00815,-0.055
-9.1,-0.7918,0.01425,0.00798,-0.0549
-9,-0.779,0.0141,0.00781,-0.0549
-8.9,-0.7653,0.01395,0.00765,-0.0551
-8.8,-0.7515,0.01383,0.00752,-0.0554
-8.7,-0.7378,0.01369,0.00736,-0.0556
-8.6,-0.7239,0.01355,0.0072,-0.0558
-8.5,-0.7095,0.01343,0.00705,-0.0561
-8.4,-0.6957,0.01331,0.00691,-0.0563
-8.3,-0.6822,0.01314,0.00673,-0.0565
-8.2,-0.6687,0.013,0.00658,-0.0567
-8.1,-0.6553,0.01287,0.00644,-0.0568
-8,-0.6419,0.01276,0.00632,-0.057
-7.9,-0.6289,0.01265,0.0062,-0.057
-7.8,-0.616,0.01254,0.00608,-0.057
-7.7,-0.6033,0.01245,0.00598,-0.057
-7.6,-0.591,0.01237,0.00587,-0.0569
-7.5,-0.5786,0.01229,0.00576,-0.0568
-7.4,-0.5661,0.0122,0.00565,-0.0567
-7.3,-0.5536,0.01208,0.00552,-0.0567
-7.2,-0.5413,0.01198,0.0054,-0.0566
-7.1,-0.5294,0.0119,0.0053,-0.0564
-7,-0.517,0.01181,0.0052,-0.0563
-6.9,-0.5046,0.01173,0.0051,-0.0563
-6.8,-0.4921,0.01165,0.005,-0.0562
-6.7,-0.4795,0.01157,0.0049,-0.0562
-6.6,-0.4671,0.0115,0.00481,-0.0562
-6.5,-0.455,0.01145,0.00472,-0.056
-6.4,-0.4424,0.01136,0.00462,-0.056
-6.3,-0.4298,0.01126,0.00453,-0.056
-6.2,-0.4174,0.01119,0.00444,-0.056
-6.1,-0.4047,0.01112,0.00436,-0.056
-6,-0.3921,0.01104,0.00428,-0.056
-5.9,-0.3798,0.011,0.0042,-0.056
-5.8,-0.3672,0.01094,0.00412,-0.056
-5.7,-0.3545,0.01086,0.00404,-0.056
-5.6,-0.3418,0.01078,0.00396,-0.056
-5.5,-0.3291,0.01071,0.00388,-0.0561
-5.4,-0.3165,0.01065,0.00381,-0.0561
-5.3,-0.3039,0.01059,0.00374,-0.0561
-5.2,-0.2914,0.01055,0.00368,-0.0561
-5.1,-0.2787,0.01048,0.0036,-0.0562
-5,-0.2661,0.01041,0.00353,-0.0562
-4.9,-0.2534,0.01035,0.00347,-0.0563
-4.8,-0.2406,0.01029,0.00341,-0.0564
-4.7,-0.2279,0.01024,0.00335,-0.0564
-4.6,-0.2153,0.0102,0.00329,-0.0565
-4.5,-0.2028,0.01013,0.00323,-0.0565
-4.4,-0.19,0.01007,0.00318,-0.0566
-4.3,-0.1774,0.01003,0.00312,-0.0567
-4.2,-0.1647,0.00999,0.00307,-0.0567
-4.1,-0.152,0.00992,0.00301,-0.0568
-4,-0.1398,0.00992,0.00297,-0.0568
-3.9,-0.1271,0.00988,0.00292,-0.0569
-3.8,-0.1146,0.00987,0.00288,-0.0569
-3.7,-0.1024,0.00985,0.00283,-0.0569
-3.6,-0.0897,0.00981,0.00279,-0.057
-3.5,-0.077,0.00977,0.00275,-0.0571
-3.4,-0.0644,0.00973,0.0027,-0.0571
-3.3,-0.0519,0.00972,0.00267,-0.0572
-3.2,-0.0393,0.0097,0.00263,-0.0573
-3.1,-0.0266,0.00964,0.00259,-0.0574
-3,-0.014,0.00961,0.00256,-0.0575
-2.9,-0.0015,0.00961,0.00253,-0.0575
-2.8,0.0111,0.00957,0.0025,-0.0576
-2.7,0.0235,0.00959,0.00248,-0.0577
-2.6,0.0359,0.0096,0.00245,-0.0578
-2.5,0.0485,0.00957,0.00242,-0.0579
-2.4,0.0611,0.00955,0.0024,-0.058
-2.3,0.0737,0.00953,0.00238,-0.0581
-2.2,0.0863,0.00952,0.00236,-0.0582
-2.1,0.0987,0.00952,0.00235,-0.0583
-2,0.1112,0.00953,0.00234,-0.0584
-1.9,0.1238,0.00952,0.00232,-0.0585
-1.8,0.1364,0.00951,0.00231,-0.0586
-1.7,0.1491,0.00949,0.00229,-0.0588
-1.6,0.1615,0.00951,0.00229,-0.0589
-1.5,0.1741,0.00948,0.00228,-0.059
-1.4,0.1866,0.0095,0.00228,-0.0591
-1.3,0.199,0.00954,0.00228,-0.0592
-1.2,0.2116,0.00954,0.00227,-0.0593
-1.1,0.2241,0.00952,0.00226,-0.0595
-1,0.2368,0.00952,0.00226,-0.0596
-0.9,0.2494,0.00952,0.00226,-0.0597
-0.8,0.2619,0.00953,0.00226,-0.0598
-0.7,0.2745,0.00953,0.00226,-0.06
-0.6,0.287,0.00951,0.00225,-0.0601
-0.5,0.2994,0.00955,0.00227,-0.0602
-0.4,0.3119,0.00957,0.00228,-0.0604
-0.3,0.3245,0.00954,0.00228,-0.0605
-0.2,0.337,0.00956,0.00229,-0.0607
-0.1,0.3495,0.00956,0.0023,-0.0608
0,0.362,0.00959,0.00232,-0.0609
0.1,0.3745,0.00956,0.00232,-0.0611
0.2,0.387,0.00958,0.00233,-0.0612
0.3,0.3992,0.00965,0.00237,-0.0613
0.4,0.4116,0.00968,0.00238,-0.0615
0.5,0.424,0.00966,0.0024,-0.0616
0.6,0.4364,0.00969,0.00242,-0.0618
0.7,0.4488,0.00973,0.00245,-0.0619
0.8,0.4612,0.00977,0.00248,-0.062
0.9,0.4735,0.00976,0.0025,-0.0622
1,0.4858,0.0098,0.00253,-0.0623
1.1,0.4981,0.00986,0.00257,-0.0625
1.2,0.5102,0.00985,0.00261,-0.0626
1.3,0.5221,0.00997,0.00267,-0.0628
1.4,0.5343,0.01001,0.00271,-0.0629
1.5,0.5465,0.01004,0.00275,-0.063
1.6,0.5585,0.00995,0.0028,-0.0631
1.7,0.5706,0.00996,0.00284,-0.0632
1.8,0.5826,0.00998,0.00289,-0.0632
1.9,0.594,0.00989,0.00293,-0.0631
2,0.6058,0.0099,0.00297,-0.063
2.1,0.6174,0.00992,0.00302,-0.0629
2.2,0.6288,0.00993,0.00307,-0.0627
2.3,0.6377,0.00987,0.0031,-0.0619
2.4,0.6483,0.00987,0.00312,-0.0616
2.5,0.6587,0.00989,0.00315,-0.0611
2.6,0.6692,0.00991,0.00317,-0.0607
2.7,0.6807,0.00987,0.00314,-0.0605
2.8,0.694,0.00989,0.00315,-0.0608
2.9,0.7067,0.00995,0.00318,-0.0609
3,0.7192,0.01002,0.00323,-0.061
3.1,0.7317,0.0101,0.00328,-0.0611
3.2,0.7442,0.01018,0.00334,-0.0612
3.3,0.7566,0.01026,0.00339,-0.0613
3.4,0.7692,0.01033,0.00344,-0.0614
3.5,0.7816,0.0104,0.0035,-0.0615
3.6,0.7941,0.01048,0.00355,-0.0616
3.7,0.8065,0.01057,0.00361,-0.0617
3.8,0.819,0.01064,0.00367,-0.0618
3.9,0.8315,0.0107,0.00372,-0.0619
4,0.844,0.01077,0.00378,-0.062
4.1,0.8565,0.01084,0.00383,-0.0621
4.2,0.8689,0.01092,0.00389,-0.0622
4.3,0.8814,0.011,0.00395,-0.0623
4.4,0.8936,0.01111,0.00402,-0.0624
4.5,0.9061,0.01118,0.00408,-0.0625
4.6,0.9186,0.01125,0.00414,-0.0626
4.7,0.9311,0.01132,0.0042,-0.0626
4.8,0.9435,0.01139,0.00427,-0.0627
4.9,0.9559,0.01147,0.00433,-0.0628
5,0.9683,0.01156,0.0044,-0.0629
5.1,0.9806,0.01165,0.00447,-0.063
5.2,0.993,0.01174,0.00454,-0.063
5.3,1.0054,0.01181,0.00461,-0.0631
5.4,1.0178,0.01189,0.00467,-0.0632
5.5,1.0302,0.01197,0.00474,-0.0633
5.6,1.0426,0.01205,0.00481,-0.0633
5.7,1.0549,0.01214,0.00489,-0.0634
5.8,1.0672,0.01223,0.00496,-0.0635
5.9,1.0795,0.01233,0.00504,-0.0635
6,1.0918,0.01243,0.00513,-0.0636
6.1,1.1042,0.0125,0.0052,-0.0637
6.2,1.1166,0.01258,0.00527,-0.0637
6.3,1.129,0.01266,0.00535,-0.0638
6.4,1.1413,0.01274,0.00543,-0.0638
6.5,1.1536,0.01283,0.00551,-0.0639
6.6,1.1658,0.01294,0.00559,-0.0639
6.7,1.178,0.01305,0.00568,-0.064
6.8,1.1902,0.01316,0.00577,-0.064
6.9,1.2025,0.01324,0.00586,-0.0641
7,1.2148,0.01332,0.00594,-0.0641
7.1,1.2271,0.01341,0.00603,-0.0641
7.2,1.2394,0.0135,0.00611,-0.0642
7.3,1.2516,0.01359,0.00621,-0.0642
7.4,1.2639,0.01369,0.0063,-0.0642
7.5,1.2761,0.01379,0.00639,-0.0643
7.6,1.2882,0.0139,0.00649,-0.0643
7.7,1.3001,0.01404,0.00659,-0.0643
7.8,1.3124,0.01413,0.00669,-0.0643
7.9,1.3247,0.01422,0.00678,-0.0643
8,1.3369,0.01431,0.00688,-0.0643
8.1,1.349,0.01441,0.00698,-0.0644
8.2,1.3612,0.01452,0.00709,-0.0644
8.3,1.3733,0.01462,0.00719,-0.0644
8.4,1.3854,0.01473,0.00729,-0.0644
8.5,1.3975,0.01485,0.0074,-0.0644
8.6,1.4095,0.01497,0.00751,-0.0644
8.7,1.4214,0.01511,0.00763,-0.0643
8.8,1.4335,0.01521,0.00775,-0.0643

