airfoilName st6.dat
Re 	330000
M 	2.500000e-01
N 	4.500000e+00
VACC 	0 VACCflag 1
XTR 	1.00 	1.00 XTRflag 0
alpha,cl,cd,cdp,cm
-13,-1.2331,0.03626,0.032,-0.0468
-12.9,-1.2228,0.03523,0.03087,-0.0484
-12.8,-1.2127,0.03432,0.02986,-0.0496
-12.7,-1.2027,0.03349,0.02894,-0.0506
-12.6,-1.1927,0.03272,0.02808,-0.0513
-12.5,-1.1826,0.032,0.02726,-0.052
-12.4,-1.1725,0.03131,0.02648,-0.0525
-12.3,-1.1623,0.03065,0.02573,-0.0529
-12.2,-1.152,0.03001,0.02499,-0.0532
-12.1,-1.1416,0.02938,0.02428,-0.0535
-12,-1.1312,0.02877,0.02357,-0.0538
-11.9,-1.1206,0.02818,0.02288,-0.054
-11.8,-1.1099,0.0276,0.0222,-0.0542
-11.7,-1.0991,0.02703,0.02153,-0.0543
-11.6,-1.0882,0.02647,0.02087,-0.0544
-11.5,-1.0773,0.02592,0.02022,-0.0545
-11.4,-1.0662,0.02538,0.01959,-0.0546
-11.3,-1.0549,0.02486,0.01896,-0.0547
-11.2,-1.0436,0.02436,0.01835,-0.0547
-11.1,-1.0322,0.02387,0.01775,-0.0548
-11,-1.0206,0.02341,0.01717,-0.0548
-10.9,-1.009,0.02299,0.01671,-0.0548
-10.8,-0.9972,0.02261,0.01629,-0.0548
-10.7,-0.9854,0.02227,0.01591,-0.0548
-10.6,-0.9734,0.02194,0.01554,-0.0548
-10.5,-0.9614,0.02163,0.01519,-0.0549
-10.4,-0.9494,0.02132,0.01483,-0.0549
-10.3,-0.937,0.0212,0.0147,-0.0548
-10.2,-0.9249,0.02088,0.01432,-0.0548
-10.1,-0.9128,0.02056,0.01395,-0.0548
-10,-0.9006,0.02025,0.01357,-0.0548
-9.9,-0.8884,0.01994,0.0132,-0.0548
-9.8,-0.8761,0.01964,0.01284,-0.0548
-9.7,-0.8639,0.01935,0.01248,-0.0548
-9.6,-0.8515,0.01907,0.01213,-0.0547
-9.5,-0.8392,0.01878,0.01182,-0.0547
-9.4,-0.8269,0.0185,0.01152,-0.0548
-9.3,-0.8146,0.01825,0.01125,-0.0548
-9.2,-0.8022,0.01802,0.01099,-0.0548
-9.1,-0.7898,0.01779,0.01075,-0.0548
-9,-0.7774,0.01758,0.0105,-0.0548
-8.9,-0.7649,0.01736,0.01025,-0.0548
-8.8,-0.7524,0.01714,0.01001,-0.0548
-8.7,-0.7399,0.017,0.00984,-0.0548
-8.6,-0.7274,0.01679,0.00958,-0.0547
-8.5,-0.7149,0.01659,0.00933,-0.0547
-8.4,-0.7024,0.01639,0.0091,-0.0547
-8.3,-0.69,0.01615,0.00885,-0.0547
-8.2,-0.6775,0.01594,0.00864,-0.0548
-8.1,-0.6651,0.01575,0.00844,-0.0548
-8,-0.6526,0.01557,0.00825,-0.0548
-7.9,-0.6401,0.0154,0.00806,-0.0548
-7.8,-0.6276,0.01523,0.00787,-0.0548
-7.7,-0.6151,0.01506,0.00768,-0.0548
-7.6,-0.6026,0.01489,0.00749,-0.0548
-7.5,-0.5901,0.01474,0.0073,-0.0548
-7.4,-0.5776,0.01459,0.00712,-0.0548
-7.3,-0.5652,0.01443,0.00698,-0.0548
-7.2,-0.5516,0.01426,0.00682,-0.0551
-7.1,-0.5376,0.01411,0.00666,-0.0554
-7,-0.523,0.01396,0.0065,-0.0559
-6.9,-0.509,0.01381,0.00634,-0.0562
-6.8,-0.495,0.01368,0.00619,-0.0565
-6.7,-0.4812,0.01355,0.00603,-0.0568
-6.6,-0.4672,0.01343,0.00588,-0.057
-6.5,-0.4525,0.01327,0.00574,-0.0575
-6.4,-0.4389,0.01313,0.00561,-0.0578
-6.3,-0.4252,0.01302,0.00551,-0.0581
-6.2,-0.4113,0.0129,0.00538,-0.0584
-6.1,-0.3975,0.01279,0.00526,-0.0586
-6,-0.3837,0.01269,0.00513,-0.0589
-5.9,-0.3702,0.01258,0.00502,-0.0591
-5.8,-0.3567,0.01246,0.00491,-0.0593
-5.7,-0.3436,0.01235,0.00481,-0.0595
-5.6,-0.3305,0.01225,0.0047,-0.0596
-5.5,-0.3174,0.01218,0.00462,-0.0597
-5.4,-0.3047,0.0121,0.00452,-0.0597
-5.3,-0.292,0.012,0.00443,-0.0598
-5.2,-0.2793,0.01191,0.00434,-0.0598
-5.1,-0.2667,0.01183,0.00426,-0.0598
-5,-0.2542,0.01175,0.00417,-0.0598
-4.9,-0.2421,0.01171,0.0041,-0.0597
-4.8,-0.2297,0.01162,0.00402,-0.0597
-4.7,-0.2173,0.01154,0.00394,-0.0597
-4.6,-0.205,0.01147,0.00388,-0.0597
-4.5,-0.1927,0.01141,0.0038,-0.0596
-4.4,-0.1802,0.01132,0.00372,-0.0596
-4.3,-0.1678,0.01125,0.00366,-0.0596
-4.2,-0.1559,0.01122,0.0036,-0.0595
-4.1,-0.1434,0.01116,0.00353,-0.0595
-4,-0.131,0.01108,0.00347,-0.0595
-3.9,-0.1187,0.01102,0.00342,-0.0595
-3.8,-0.1064,0.01096,0.00335,-0.0595
-3.7,-0.0939,0.01089,0.0033,-0.0596
-3.6,-0.0814,0.01084,0.00325,-0.0596
-3.5,-0.0694,0.0108,0.00319,-0.0595
-3.4,-0.0569,0.01074,0.00314,-0.0596
-3.3,-0.0449,0.0107,0.00309,-0.0595
-3.2,-0.0328,0.01066,0.00305,-0.0594
-3.1,-0.0203,0.01061,0.00301,-0.0595
-3,-0.0082,0.01058,0.00296,-0.0594
-2.9,0.0036,0.01058,0.00293,-0.0593
-2.8,0.0161,0.01051,0.00289,-0.0594
-2.7,0.0286,0.01047,0.00286,-0.0594
-2.6,0.041,0.01043,0.00281,-0.0595
-2.5,0.0532,0.01042,0.00278,-0.0594
-2.4,0.0656,0.01039,0.00275,-0.0595
-2.3,0.0781,0.01034,0.00272,-0.0596
-2.2,0.0905,0.01029,0.00268,-0.0597
-2.1,0.1026,0.0103,0.00266,-0.0596
-2,0.1149,0.01028,0.00263,-0.0596
-1.9,0.1271,0.01029,0.00261,-0.0596
-1.8,0.1395,0.01024,0.00258,-0.0597
-1.7,0.152,0.01021,0.00255,-0.0598
-1.6,0.1644,0.01019,0.00254,-0.0599
-1.5,0.1767,0.01019,0.00251,-0.0599
-1.4,0.1891,0.01017,0.0025,-0.06
-1.3,0.2009,0.01019,0.00249,-0.0599
-1.2,0.2133,0.01018,0.00247,-0.06
-1.1,0.2255,0.0102,0.00247,-0.0601
-1,0.2378,0.0102,0.00245,-0.0601
-0.9,0.2502,0.01014,0.00244,-0.0603
-0.8,0.2626,0.01014,0.00243,-0.0603
-0.7,0.275,0.01013,0.00242,-0.0604
-0.6,0.2874,0.01012,0.00242,-0.0605
-0.5,0.2994,0.0101,0.00242,-0.0606
-0.4,0.3117,0.0101,0.00243,-0.0607
-0.3,0.3241,0.01008,0.00243,-0.0608
-0.2,0.3364,0.01007,0.00243,-0.0609
-0.1,0.3487,0.00999,0.00243,-0.061
0,0.361,0.00998,0.00243,-0.0611
0.1,0.3733,0.00995,0.00244,-0.0612
0.2,0.3855,0.00993,0.00245,-0.0613
0.3,0.3971,0.00986,0.00246,-0.0613
0.4,0.409,0.00983,0.00248,-0.0613
0.5,0.4208,0.00976,0.00249,-0.0613
0.6,0.4314,0.0096,0.0025,-0.061
0.7,0.4425,0.00955,0.00252,-0.0607
0.8,0.4532,0.00952,0.00254,-0.0604
0.9,0.4635,0.00948,0.00255,-0.0599
1,0.4703,0.00935,0.00254,-0.0585
1.1,0.4798,0.00933,0.00253,-0.0578
1.2,0.49,0.00938,0.00252,-0.0573
1.3,0.5023,0.00942,0.00251,-0.0573
1.4,0.517,0.00942,0.00245,-0.0579
1.5,0.5293,0.00952,0.0025,-0.058
1.6,0.5415,0.00964,0.00255,-0.058
1.7,0.5537,0.00976,0.00261,-0.0581
1.8,0.5659,0.00988,0.00266,-0.0582
1.9,0.578,0.01001,0.00272,-0.0582
2,0.5901,0.01014,0.00279,-0.0583
2.1,0.6022,0.01028,0.00285,-0.0584
2.2,0.6139,0.01047,0.00293,-0.0584
2.3,0.626,0.01061,0.00301,-0.0585
2.4,0.6382,0.01074,0.00307,-0.0586
2.5,0.6503,0.01087,0.00314,-0.0587
2.6,0.6625,0.011,0.0032,-0.0588
2.7,0.6747,0.01112,0.00328,-0.0588
2.8,0.6869,0.01123,0.00335,-0.0589
2.9,0.6991,0.01136,0.00342,-0.059
3,0.7114,0.01147,0.0035,-0.0591
3.1,0.7235,0.0116,0.00357,-0.0592
3.2,0.7357,0.01172,0.00364,-0.0592
3.3,0.748,0.01182,0.00373,-0.0593
3.4,0.7603,0.01191,0.0038,-0.0594
3.5,0.7726,0.01201,0.00387,-0.0595
3.6,0.7849,0.01211,0.00394,-0.0596
3.7,0.7971,0.01223,0.00402,-0.0596
3.8,0.8094,0.01233,0.00411,-0.0597
3.9,0.8217,0.01242,0.00418,-0.0598
4,0.8341,0.01251,0.00425,-0.0599
4.1,0.8462,0.01263,0.00433,-0.06
4.2,0.8584,0.01274,0.00442,-0.06
4.3,0.8706,0.01285,0.00451,-0.0601
4.4,0.883,0.01294,0.00459,-0.0602
4.5,0.8953,0.01303,0.00467,-0.0602
4.6,0.9076,0.01312,0.00475,-0.0603
4.7,0.9198,0.01322,0.00483,-0.0604
4.8,0.932,0.01333,0.00492,-0.0604
4.9,0.9441,0.01345,0.005,-0.0605
5,0.9563,0.01356,0.00511,-0.0605
5.1,0.9687,0.01365,0.00519,-0.0606
5.2,0.9809,0.01374,0.00527,-0.0607
5.3,0.9931,0.01384,0.00536,-0.0607
5.4,1.0053,0.01395,0.00545,-0.0608
5.5,1.0174,0.01407,0.00554,-0.0608
5.6,1.0294,0.0142,0.00564,-0.0609
5.7,1.0417,0.0143,0.00574,-0.0609
5.8,1.0539,0.01439,0.00584,-0.061
5.9,1.0662,0.01449,0.00594,-0.061
6,1.0784,0.01459,0.00604,-0.061
6.1,1.0905,0.0147,0.00614,-0.0611
6.2,1.1025,0.01483,0.00623,-0.0611
6.3,1.1144,0.01496,0.00634,-0.0611
6.4,1.1265,0.01508,0.00645,-0.0612
6.5,1.1388,0.01517,0.00656,-0.0612
6.6,1.1509,0.01527,0.00666,-0.0612
6.7,1.1631,0.01538,0.00677,-0.0613
6.8,1.1752,0.01549,0.00688,-0.0613
6.9,1.1872,0.01561,0.00699,-0.0613
7,1.1992,0.01573,0.0071,-0.0613
7.1,1.2112,0.01587,0.00722,-0.0613
7.2,1.223,0.01601,0.00734,-0.0613
7.3,1.2351,0.01613,0.00747,-0.0614
7.5,1.2593,0.01633,0.0077,-0.0614
7.6,1.2713,0.01645,0.00782,-0.0614
7.7,1.2832,0.01658,0.00794,-0.0614
7.8,1.2951,0.01671,0.00807,-0.0614
7.9,1.307,0.01685,0.00819,-0.0614
8,1.3188,0.017,0.00832,-0.0613
8.1,1.3305,0.01715,0.00846,-0.0613
8.2,1.3426,0.01726,0.0086,-0.0613
8.3,1.3546,0.01738,0.00874,-0.0613
8.4,1.3665,0.0175,0.00888,-0.0613
8.6,1.3901,0.01776,0.00914,-0.0612
8.7,1.4019,0.0179,0.00928,-0.0612
8.8,1.4136,0.01805,0.00942,-0.0611
8.9,1.4252,0.01821,0.00957,-0.0611

