airfoilName st6.dat
Re 	550000
M 	2.500000e-01
N 	4.500000e+00
VACC 	0 VACCflag 1
XTR 	1.00 	1.00 XTRflag 0
alpha,cl,cd,cdp,cm
-13.8,-1.3403,0.03288,0.02908,-0.0511
-13.7,-1.3308,0.03184,0.02793,-0.0524
-13.6,-1.3213,0.03094,0.02692,-0.0533
-13.5,-1.3117,0.03014,0.02602,-0.0539
-13.4,-1.3019,0.02941,0.0252,-0.0544
-13.3,-1.2919,0.02874,0.02444,-0.0548
-13.2,-1.2818,0.0281,0.02372,-0.055
-13.1,-1.2715,0.0275,0.02303,-0.0553
-13,-1.261,0.02693,0.02238,-0.0554
-12.9,-1.2504,0.02639,0.02175,-0.0556
-12.8,-1.2397,0.02587,0.02116,-0.0557
-12.7,-1.2288,0.02537,0.02057,-0.0557
-12.5,-1.2061,0.02461,0.01969,-0.0557
-12.4,-1.195,0.02414,0.01914,-0.0558
-12.3,-1.1837,0.02368,0.0186,-0.0558
-12.2,-1.1724,0.02324,0.01808,-0.0558
-12.1,-1.1609,0.02281,0.01757,-0.0557
-12,-1.1493,0.0224,0.01708,-0.0557
-11.9,-1.1376,0.02201,0.01662,-0.0557
-11.8,-1.1259,0.02164,0.01617,-0.0556
-11.7,-1.114,0.02128,0.01573,-0.0556
-11.6,-1.102,0.02096,0.01533,-0.0555
-11.5,-1.0902,0.02057,0.01492,-0.0555
-11.4,-1.0782,0.02024,0.01454,-0.0555
-11.3,-1.0661,0.01992,0.01419,-0.0555
-11.2,-1.0539,0.01963,0.01386,-0.0555
-11.1,-1.0417,0.01936,0.01355,-0.0554
-11,-1.0294,0.01909,0.01324,-0.0554
-10.9,-1.0171,0.01883,0.01294,-0.0553
-10.8,-1.0047,0.01858,0.01265,-0.0553
-10.7,-0.9923,0.01833,0.01236,-0.0553
-10.6,-0.9799,0.01809,0.01208,-0.0552
-10.5,-0.9674,0.01785,0.0118,-0.0552
-10.4,-0.955,0.01761,0.01152,-0.0552
-10.3,-0.9425,0.01738,0.01125,-0.0551
-10.2,-0.9299,0.01716,0.01099,-0.0551
-10.1,-0.9174,0.01694,0.01073,-0.055
-10,-0.9048,0.01673,0.01047,-0.055
-9.9,-0.8922,0.01654,0.01024,-0.055
-9.8,-0.8797,0.01631,0.00999,-0.055
-9.7,-0.8671,0.01608,0.00975,-0.055
-9.6,-0.8545,0.01588,0.00953,-0.055
-9.5,-0.8419,0.01569,0.00932,-0.055
-9.4,-0.8293,0.01551,0.00911,-0.0549
-9.3,-0.8166,0.01533,0.00892,-0.0549
-9.2,-0.804,0.01516,0.00873,-0.0549
-9.1,-0.7913,0.01503,0.00859,-0.0549
-9,-0.7786,0.01487,0.0084,-0.0549
-8.9,-0.766,0.0147,0.00821,-0.0549
-8.8,-0.7533,0.01454,0.00802,-0.0549
-8.7,-0.7406,0.01439,0.00784,-0.0549
-8.6,-0.7279,0.01423,0.00767,-0.0549
-8.5,-0.7149,0.01405,0.00748,-0.055
-8.4,-0.701,0.01388,0.0073,-0.0552
-8.3,-0.6865,0.01373,0.00714,-0.0556
-8.2,-0.6726,0.01358,0.00698,-0.0559
-8.1,-0.6589,0.01344,0.00683,-0.0561
-7.9,-0.6314,0.0132,0.00657,-0.0566
-7.8,-0.6172,0.01309,0.00643,-0.0569
-7.7,-0.6037,0.01297,0.00629,-0.057
-7.6,-0.5901,0.01285,0.00615,-0.0572
-7.5,-0.5769,0.01271,0.00601,-0.0573
-7.4,-0.5637,0.01258,0.00588,-0.0574
-7.3,-0.5507,0.01249,0.00577,-0.0575
-7.2,-0.5379,0.01238,0.00565,-0.0575
-7.1,-0.5252,0.01228,0.00554,-0.0575
-7,-0.5126,0.01219,0.00543,-0.0575
-6.9,-0.5001,0.0121,0.00533,-0.0574
-6.8,-0.488,0.01204,0.00523,-0.0573
-6.7,-0.4757,0.01197,0.00513,-0.0572
-6.6,-0.4633,0.01185,0.00503,-0.0572
-6.5,-0.4508,0.01176,0.00493,-0.0571
-6.4,-0.4385,0.01168,0.00483,-0.0571
-6.3,-0.4265,0.01161,0.00474,-0.0569
-6.2,-0.414,0.01154,0.00465,-0.0569
-6.1,-0.4016,0.01147,0.00455,-0.0568
-6,-0.3892,0.0114,0.00447,-0.0568
-5.9,-0.3766,0.01132,0.00437,-0.0568
-5.8,-0.3641,0.01123,0.00429,-0.0568
-5.7,-0.3516,0.01116,0.0042,-0.0568
-5.6,-0.3394,0.0111,0.00413,-0.0567
-5.5,-0.3268,0.01103,0.00406,-0.0567
-5.4,-0.3143,0.01098,0.00398,-0.0567
-5.3,-0.3018,0.01091,0.00389,-0.0567
-5.2,-0.2891,0.01083,0.00382,-0.0568
-5.1,-0.2765,0.01076,0.00375,-0.0568
-5,-0.2642,0.01072,0.00368,-0.0568
-4.9,-0.2516,0.01066,0.00362,-0.0568
-4.8,-0.2389,0.01061,0.00355,-0.0568
-4.7,-0.2263,0.01052,0.00348,-0.0569
-4.6,-0.2137,0.01046,0.00342,-0.057
-4.5,-0.2011,0.01042,0.00336,-0.057
-4.4,-0.1884,0.01036,0.0033,-0.057
-4.3,-0.176,0.01031,0.00324,-0.0571
-4.2,-0.1634,0.01026,0.00318,-0.0571
-4.1,-0.1507,0.01021,0.00313,-0.0572
-4,-0.138,0.01016,0.00308,-0.0573
-3.9,-0.1257,0.01011,0.00303,-0.0573
-3.8,-0.1133,0.01008,0.00298,-0.0573
-3.7,-0.1007,0.01004,0.00294,-0.0573
-3.6,-0.0882,0.01001,0.00288,-0.0574
-3.5,-0.0761,0.01001,0.00284,-0.0573
-3.4,-0.0634,0.00997,0.0028,-0.0574
-3.3,-0.0508,0.00994,0.00276,-0.0575
-3.2,-0.0382,0.00988,0.00272,-0.0576
-3.1,-0.0259,0.00988,0.00269,-0.0576
-3,-0.0132,0.00984,0.00264,-0.0577
-2.9,-0.0006,0.0098,0.00261,-0.0578
-2.8,0.012,0.00978,0.00258,-0.0579
-2.7,0.0245,0.00974,0.00255,-0.058
-2.5,0.0491,0.00975,0.00249,-0.0581
-2.4,0.0617,0.00973,0.00247,-0.0582
-2.3,0.0743,0.00972,0.00244,-0.0582
-2.2,0.0869,0.00968,0.00242,-0.0584
-2.1,0.0994,0.00966,0.0024,-0.0585
-2,0.112,0.00965,0.00238,-0.0586
-1.9,0.1243,0.00968,0.00237,-0.0586
-1.8,0.1367,0.0097,0.00236,-0.0587
-1.7,0.1493,0.00966,0.00234,-0.0588
-1.6,0.1617,0.00968,0.00234,-0.0589
-1.5,0.1743,0.00967,0.00233,-0.059
-1.4,0.1867,0.0097,0.00232,-0.0591
-1.3,0.1993,0.00966,0.00231,-0.0593
-1.2,0.2119,0.00966,0.00231,-0.0594
-1.1,0.2242,0.0097,0.00231,-0.0595
-1,0.2367,0.00971,0.0023,-0.0596
-0.9,0.2493,0.0097,0.0023,-0.0597
-0.8,0.2618,0.00967,0.00229,-0.0599
-0.7,0.2744,0.00968,0.0023,-0.06
-0.6,0.2869,0.00967,0.00229,-0.0601
-0.5,0.2994,0.00969,0.0023,-0.0602
-0.3,0.3242,0.0097,0.00232,-0.0605
-0.2,0.3367,0.00971,0.00233,-0.0606
-0.1,0.3492,0.00972,0.00234,-0.0608
0,0.3617,0.00968,0.00234,-0.0609
0.1,0.3741,0.0097,0.00236,-0.061
0.2,0.3866,0.0097,0.00236,-0.0612
0.3,0.3991,0.00973,0.00238,-0.0613
0.4,0.4115,0.00969,0.00239,-0.0615
0.5,0.4236,0.00976,0.00242,-0.0616
0.6,0.436,0.00978,0.00244,-0.0617
0.7,0.4483,0.00975,0.00246,-0.0619
0.8,0.4607,0.00977,0.00249,-0.062
0.9,0.4729,0.0098,0.00252,-0.0621
1,0.4852,0.00982,0.00254,-0.0622
1.1,0.4973,0.00977,0.00257,-0.0624
1.2,0.5094,0.00979,0.00262,-0.0625
1.3,0.5214,0.00981,0.00265,-0.0626
1.4,0.5333,0.00982,0.0027,-0.0626
1.5,0.5442,0.00984,0.00277,-0.0625
1.6,0.5558,0.00988,0.00281,-0.0625
1.7,0.5673,0.0099,0.00287,-0.0624
1.8,0.5772,0.00985,0.00292,-0.0619
1.9,0.588,0.00987,0.00295,-0.0615
2,0.5983,0.00988,0.00298,-0.0611
2.1,0.6085,0.00991,0.00302,-0.0607
2.2,0.6167,0.00984,0.00299,-0.0596
2.3,0.6287,0.00987,0.003,-0.0596
2.4,0.6416,0.00992,0.00302,-0.0598
2.5,0.6548,0.00998,0.00304,-0.0601
2.6,0.6673,0.01005,0.00308,-0.0602
2.7,0.6798,0.01013,0.00314,-0.0603
2.8,0.6922,0.01022,0.00319,-0.0604
2.9,0.7046,0.01031,0.00326,-0.0605
3,0.7171,0.01038,0.00331,-0.0606
3.1,0.7296,0.01045,0.00336,-0.0607
3.2,0.7421,0.01052,0.00341,-0.0608
3.3,0.7545,0.01061,0.00347,-0.0609
3.4,0.7669,0.0107,0.00353,-0.061
3.5,0.7793,0.01079,0.00359,-0.0611
3.6,0.7918,0.01086,0.00365,-0.0612
3.7,0.8042,0.01093,0.00371,-0.0612
3.8,0.8167,0.01101,0.00376,-0.0613
3.9,0.8291,0.0111,0.00382,-0.0614
4,0.8414,0.01119,0.00389,-0.0615
4.1,0.8539,0.01127,0.00396,-0.0616
4.2,0.8663,0.01134,0.00402,-0.0617
4.3,0.8788,0.01141,0.00408,-0.0618
4.4,0.8912,0.01149,0.00414,-0.0619
4.5,0.9035,0.01159,0.00421,-0.062
4.6,0.9158,0.01168,0.00428,-0.062
4.7,0.9282,0.01178,0.00435,-0.0621
4.8,0.9406,0.01185,0.00442,-0.0622
4.9,0.953,0.01192,0.00448,-0.0623
5,0.9655,0.012,0.00455,-0.0623
5.1,0.9778,0.01208,0.00462,-0.0624
5.2,0.9902,0.01216,0.00469,-0.0625
5.3,1.0025,0.01226,0.00477,-0.0626
5.4,1.0148,0.01235,0.00484,-0.0626
5.5,1.027,0.01246,0.00492,-0.0627
5.6,1.0394,0.01253,0.005,-0.0628
5.7,1.0518,0.01261,0.00508,-0.0628
5.8,1.0641,0.0127,0.00515,-0.0629
5.9,1.0764,0.01279,0.00523,-0.0629
6,1.0887,0.01288,0.00531,-0.063
6.1,1.101,0.01298,0.00539,-0.0631
6.2,1.1132,0.01309,0.00548,-0.0631
6.3,1.1254,0.01319,0.00557,-0.0632
6.4,1.1377,0.01327,0.00565,-0.0632
6.5,1.1501,0.01335,0.00574,-0.0633
6.6,1.1623,0.01344,0.00583,-0.0633
6.7,1.1745,0.01354,0.00591,-0.0633
6.8,1.1868,0.01364,0.006,-0.0634
6.9,1.1989,0.01375,0.00609,-0.0634
7,1.2111,0.01386,0.00618,-0.0634
7.1,1.2232,0.01398,0.00628,-0.0635
7.2,1.2354,0.01407,0.00638,-0.0635
7.3,1.2477,0.01415,0.00648,-0.0635
7.4,1.2599,0.01425,0.00658,-0.0636
7.5,1.2721,0.01435,0.00667,-0.0636
7.6,1.2843,0.01445,0.00677,-0.0636
7.7,1.2964,0.01455,0.00687,-0.0636
7.8,1.3085,0.01466,0.00697,-0.0636
7.9,1.3204,0.0148,0.00708,-0.0636
8,1.3324,0.01493,0.00719,-0.0636
8.1,1.3446,0.01502,0.00731,-0.0636
8.2,1.3567,0.01512,0.00741,-0.0636
8.3,1.3689,0.01522,0.00752,-0.0636
8.4,1.381,0.01533,0.00763,-0.0636
8.5,1.393,0.01544,0.00774,-0.0636
8.6,1.4051,0.01556,0.00785,-0.0636
8.7,1.417,0.01568,0.00797,-0.0636
8.8,1.429,0.0158,0.00809,-0.0636
8.9,1.4409,0.01594,0.00821,-0.0636
9,1.4527,0.01608,0.00834,-0.0635
9.1,1.4647,0.01618,0.00846,-0.0635
9.2,1.4767,0.01629,0.00858,-0.0635
9.3,1.4887,0.01641,0.0087,-0.0634
9.4,1.5006,0.01653,0.00883,-0.0634
9.5,1.5125,0.01665,0.00896,-0.0633
9.6,1.5243,0.01678,0.00909,-0.0633
9.7,1.5361,0.01692,0.00922,-0.0632
9.8,1.5479,0.01706,0.00935,-0.0632
9.9,1.5596,0.0172,0.0095,-0.0631
10,1.5711,0.01736,0.00965,-0.063
10.1,1.583,0.01749,0.0098,-0.063
10.2,1.5948,0.01761,0.00993,-0.0629
10.3,1.6066,0.01773,0.01007,-0.0628
10.4,1.6183,0.01786,0.01021,-0.0627
10.5,1.63,0.018,0.01035,-0.0626
10.6,1.6416,0.01814,0.0105,-0.0626
10.7,1.6532,0.01829,0.01065,-0.0625
10.8,1.6647,0.01844,0.0108,-0.0623
10.9,1.6761,0.0186,0.01097,-0.0622
11,1.6875,0.01877,0.01114,-0.0621
11.1,1.6988,0.01895,0.01132,-0.062
11.2,1.7104,0.01908,0.01147,-0.0618
11.3,1.722,0.01921,0.01163,-0.0617
11.4,1.7335,0.01936,0.01179,-0.0616
11.5,1.7449,0.01951,0.01196,-0.0614
11.6,1.7563,0.01966,0.01213,-0.0613
11.7,1.7675,0.01982,0.01229,-0.0611
11.8,1.7787,0.01999,0.01246,-0.061
11.9,1.7898,0.02016,0.01264,-0.0608
12,1.8008,0.02034,0.01284,-0.0606
12.1,1.8116,0.02053,0.01303,-0.0604
12.2,1.8224,0.02073,0.01324,-0.0602
12.3,1.8336,0.02089,0.01343,-0.06
12.4,1.8447,0.02104,0.01361,-0.0598
12.5,1.8558,0.02121,0.0138,-0.0596
12.6,1.8668,0.02137,0.01399,-0.0593
12.7,1.8777,0.02155,0.01419,-0.0591
12.8,1.8885,0.02173,0.01439,-0.0589
12.9,1.8992,0.02191,0.01459,-0.0586
13,1.9097,0.0221,0.0148,-0.0584
13.1,1.92,0.0223,0.015,-0.0581
13.2,1.9303,0.02251,0.01523,-0.0578
13.3,1.9404,0.02273,0.01546,-0.0575
13.4,1.9503,0.02296,0.0157,-0.0572
13.5,1.9606,0.02316,0.01592,-0.0568
13.6,1.9711,0.02334,0.01614,-0.0565
13.7,1.9814,0.02353,0.01636,-0.0562
13.8,1.9915,0.02372,0.01659,-0.0559
13.9,2.0015,0.02393,0.01683,-0.0555
14,2.0114,0.02414,0.01706,-0.0552
14.1,2.0211,0.02435,0.01731,-0.0548
14.2,2.0307,0.02457,0.01755,-0.0544
14.3,2.0401,0.0248,0.0178,-0.054
14.4,2.0493,0.02503,0.01806,-0.0536
14.5,2.0583,0.02527,0.01833,-0.0531
14.6,2.0666,0.02554,0.0186,-0.0526
14.7,2.0749,0.02581,0.01889,-0.0521
14.8,2.0833,0.02607,0.01918,-0.0516
14.9,2.0922,0.02628,0.01944,-0.0511
15,2.1009,0.02651,0.01971,-0.0506
15.1,2.1092,0.02674,0.01999,-0.05
15.2,2.1173,0.02699,0.02027,-0.0495
15.3,2.1251,0.02723,0.02056,-0.0489
15.4,2.1325,0.02749,0.02085,-0.0482
15.5,2.1397,0.02775,0.02115,-0.0476
15.6,2.1465,0.02802,0.02146,-0.0469
15.7,2.153,0.0283,0.02177,-0.0462
15.8,2.1591,0.02858,0.02209,-0.0454
15.9,2.1638,0.02887,0.02241,-0.0445
16,2.1674,0.02917,0.02275,-0.0434
16.1,2.1709,0.0295,0.02312,-0.0425
16.2,2.1746,0.02984,0.0235,-0.0416
16.3,2.1785,0.03021,0.0239,-0.0408
16.4,2.1824,0.03059,0.02432,-0.0401
16.5,2.1868,0.03098,0.02474,-0.0396
16.6,2.1937,0.03125,0.02508,-0.0392
16.7,2.1995,0.03159,0.02548,-0.0388
16.8,2.2054,0.03195,0.02589,-0.0385
16.9,2.2113,0.03232,0.02631,-0.0383
17,2.2172,0.0327,0.02675,-0.0381
17.1,2.2233,0.03309,0.02719,-0.038
17.2,2.2294,0.0335,0.02765,-0.0381
17.3,2.2356,0.03392,0.02813,-0.0382
17.4,2.2418,0.03435,0.02861,-0.0384
17.5,2.2481,0.0348,0.02911,-0.0386
17.6,2.2544,0.03527,0.02962,-0.039
17.7,2.2607,0.03575,0.03016,-0.0395
17.8,2.2671,0.03626,0.03072,-0.0401
17.9,2.2734,0.03679,0.03131,-0.0408
18,2.2798,0.03736,0.03193,-0.0417
18.1,2.2861,0.03797,0.03258,-0.0427
18.2,2.2926,0.03858,0.03325,-0.0438
18.3,2.3002,0.03909,0.03384,-0.0447
18.4,2.3077,0.03964,0.03447,-0.0458
18.5,2.3155,0.04017,0.03507,-0.0468
18.6,2.3228,0.0408,0.03577,-0.0481
18.7,2.33,0.04146,0.0365,-0.0495
18.8,2.3372,0.04216,0.03728,-0.0511
18.9,2.3442,0.04291,0.0381,-0.0529
19,2.3513,0.04373,0.03896,-0.0549
19.1,2.3579,0.04462,0.03993,-0.0571
19.2,2.3642,0.04562,0.04099,-0.0595
19.3,2.37,0.04671,0.04217,-0.0622
19.4,2.3752,0.04793,0.04347,-0.0651
19.5,2.3796,0.04933,0.04495,-0.0684
19.6,2.3831,0.05089,0.0466,-0.072
19.7,2.3876,0.05221,0.04803,-0.0748
19.8,2.391,0.05371,0.04965,-0.078
19.9,2.3935,0.05538,0.05143,-0.0815
20,2.3948,0.05723,0.05339,-0.0852
20.1,2.3947,0.0593,0.05557,-0.0892
20.2,2.3932,0.06157,0.05796,-0.0936
20.3,2.3905,0.06403,0.06055,-0.0981
20.4,2.3863,0.06671,0.06334,-0.103
20.5,2.3814,0.06948,0.06623,-0.1079
20.6,2.3754,0.07238,0.06924,-0.1129
20.7,2.3694,0.07524,0.0722,-0.1179
20.8,2.3632,0.07805,0.07511,-0.1228
20.9,2.3573,0.08078,0.07793,-0.1277
21,2.35,0.08372,0.08094,-0.1331
21.1,2.3447,0.08621,0.0835,-0.1377
21.2,2.3388,0.08878,0.08614,-0.1426
21.3,2.3347,0.09096,0.08837,-0.147
21.4,2.3291,0.09334,0.0908,-0.1518
21.5,2.3259,0.09525,0.09275,-0.1559
21.6,2.3212,0.09749,0.09507,-0.1604
21.7,2.3175,0.09955,0.09721,-0.1645
21.8,2.3136,0.10166,0.09939,-0.1687
21.9,2.3086,0.10399,0.1018,-0.1732
22,2.3053,0.10605,0.10394,-0.1773
22.1,2.3001,0.10853,0.10648,-0.1819
22.2,2.2963,0.11078,0.1088,-0.186
22.3,2.2935,0.11289,0.11096,-0.1897
22.4,2.2889,0.11543,0.11355,-0.1941
22.5,2.2865,0.11753,0.11569,-0.1977
22.6,2.2858,0.11935,0.11751,-0.2008
22.7,2.2858,0.12102,0.11917,-0.2036
22.8,2.2856,0.12272,0.12084,-0.2065
22.9,2.279,0.12593,0.12416,-0.2113
23,2.2708,0.12951,0.12784,-0.2166
23.1,2.2631,0.13312,0.13153,-0.2218
23.2,2.2541,0.13713,0.13562,-0.2274
23.3,2.2491,0.14018,0.13872,-0.2318
23.4,2.248,0.14231,0.14087,-0.2349
23.5,2.2475,0.14429,0.14286,-0.2377
23.6,2.2486,0.14588,0.14447,-0.24
23.7,2.2511,0.14709,0.14568,-0.2418
23.8,2.2544,0.1481,0.14669,-0.2434
23.9,2.2183,0.16013,0.1589,-0.2588
24,2.2148,0.16321,0.162,-0.2628
24.1,2.2161,0.16487,0.16367,-0.265
24.2,2.2187,0.16613,0.16494,-0.2668
24.3,2.2222,0.16709,0.16591,-0.2682
24.4,2.2261,0.16794,0.16676,-0.2695
24.5,2.2302,0.16871,0.16752,-0.2706
24.6,2.2344,0.16944,0.16825,-0.2718
24.7,2.2389,0.1701,0.1689,-0.2728
24.8,2.2436,0.17069,0.16948,-0.2737
25.5,2.2333,0.18914,0.18807,-0.2968
26.7,2.2375,0.21664,0.21572,-0.3296
27.3,2.247,0.22746,0.22659,-0.3428
27.4,2.2498,0.22854,0.22767,-0.3443
27.5,2.2527,0.22951,0.22863,-0.3456
27.6,2.2556,0.23048,0.22959,-0.347
27.9,2.2554,0.23909,0.23826,-0.3567
28,2.2575,0.24055,0.23972,-0.3586
28.1,2.2597,0.24193,0.24111,-0.3603
28.2,2.2619,0.24321,0.24239,-0.362
28.3,2.2643,0.24443,0.24361,-0.3637
28.4,2.2666,0.24563,0.24481,-0.3653
28.5,2.2691,0.24673,0.24591,-0.3669
28.6,2.2715,0.24786,0.24704,-0.3684
28.7,2.2739,0.24895,0.24813,-0.37
28.8,2.2764,0.25,0.24918,-0.3714
28.9,2.2749,0.25409,0.2533,-0.3758
29,2.2756,0.25661,0.25584,-0.3787
29.1,2.2768,0.25868,0.25792,-0.3811
29.2,2.2783,0.2605,0.25975,-0.3833
29.3,2.2799,0.26221,0.26146,-0.3855
29.4,2.2819,0.26355,0.26279,-0.3872
29.5,2.2838,0.26497,0.26421,-0.3891
29.6,2.2857,0.26634,0.26559,-0.3909
29.7,2.2876,0.2677,0.26695,-0.3927
29.8,2.2896,0.269,0.26825,-0.3945
29.9,2.2916,0.27024,0.26949,-0.3962
30,2.2936,0.27148,0.27073,-0.3979

