airfoilName st6.dat
Re 	70000
M 	2.500000e-01
N 	4.500000e+00
VACC 	0 VACCflag 1
XTR 	1.00 	1.00 XTRflag 0
alpha,cl,cd,cdp,cm
-12.4,-1.1994,0.08464,0.0786,0.0287
-12.3,-1.1971,0.08571,0.07964,0.0311
-11.5,-1.054,0.06609,0.05971,-0.0132
-11.4,-1.0449,0.06553,0.05914,-0.0139
-11.3,-1.0351,0.06491,0.05853,-0.0148
-11.2,-1.0248,0.06423,0.05785,-0.0159
-11.1,-1.0139,0.06346,0.05707,-0.0173
-11,-1.0024,0.06259,0.05618,-0.0188
-10.9,-0.9902,0.06158,0.05514,-0.0207
-10.8,-0.9773,0.06039,0.0539,-0.023
-9.2,-0.7932,0.03668,0.02723,-0.0529
-8.5,-0.7149,0.03279,0.02292,-0.0537
-8.3,-0.6915,0.03118,0.02091,-0.0541
-8.2,-0.6802,0.03071,0.02048,-0.0541
-8.1,-0.6687,0.03025,0.02004,-0.0541
-8,-0.6572,0.0298,0.01957,-0.0541
-7.9,-0.6456,0.02932,0.01906,-0.0542
-7.8,-0.6338,0.02882,0.01849,-0.0542
-7.7,-0.622,0.02829,0.01785,-0.0543
-7.6,-0.61,0.02772,0.01714,-0.0543
-7.5,-0.5979,0.0274,0.0167,-0.0545
-7.4,-0.5864,0.02699,0.01631,-0.0545
-7.3,-0.5747,0.02659,0.01591,-0.0545
-7.2,-0.5629,0.02618,0.01547,-0.0545
-7.1,-0.551,0.02575,0.01498,-0.0545
-7,-0.5389,0.02531,0.01445,-0.0545
-6.9,-0.5267,0.02487,0.01384,-0.0544
-6.8,-0.5148,0.02446,0.01344,-0.0544
-6.7,-0.5031,0.02411,0.01313,-0.0545
-6.6,-0.4915,0.02396,0.01302,-0.0545
-6.5,-0.4795,0.02359,0.01258,-0.0545
-6.4,-0.4673,0.02322,0.01209,-0.0545
-6.3,-0.4553,0.02286,0.0117,-0.0545
-6.2,-0.4437,0.02253,0.01142,-0.0545
-6.1,-0.4319,0.02222,0.01113,-0.0544
-6,-0.42,0.02191,0.0108,-0.0544
-5.9,-0.408,0.02161,0.01043,-0.0544
-5.8,-0.3962,0.02142,0.01027,-0.0544
-5.7,-0.3844,0.02113,0.01,-0.0544
-5.6,-0.3725,0.02085,0.00969,-0.0544
-5.5,-0.3605,0.02058,0.00936,-0.0543
-5.4,-0.3486,0.0203,0.0091,-0.0543
-5.3,-0.3369,0.02004,0.00887,-0.0543
-5.2,-0.325,0.01988,0.00867,-0.0543
-5.1,-0.3132,0.01962,0.00844,-0.0543
-5,-0.3015,0.01937,0.00822,-0.0543
-4.9,-0.2897,0.01914,0.00798,-0.0543
-4.8,-0.2777,0.01893,0.00771,-0.0542
-4.7,-0.266,0.01869,0.00754,-0.0542
-4.6,-0.2542,0.01853,0.00738,-0.0543
-4.5,-0.2426,0.0183,0.00721,-0.0543
-4.4,-0.2308,0.01809,0.00701,-0.0543
-4.3,-0.2188,0.01791,0.0068,-0.0542
-4.2,-0.2071,0.0177,0.00663,-0.0543
-4.1,-0.1953,0.01752,0.00645,-0.0543
-4,-0.1837,0.01734,0.00634,-0.0543
-3.9,-0.1718,0.01718,0.00616,-0.0543
-3.8,-0.16,0.01698,0.00601,-0.0544
-3.7,-0.1481,0.01682,0.00585,-0.0544
-3,-0.0608,0.01559,0.00487,-0.0557
-2.9,-0.0455,0.01542,0.00474,-0.0564
-2.8,-0.0304,0.01526,0.0046,-0.0571
-2.7,-0.016,0.01502,0.00446,-0.0577
-2.6,-0.0009,0.01486,0.00433,-0.0584
-2.5,0.0152,0.01469,0.00419,-0.0592
-2.4,0.0289,0.01443,0.00406,-0.0597
-2.3,0.0433,0.01426,0.00395,-0.0602
-2.2,0.0579,0.01409,0.00383,-0.0607
-2.1,0.0713,0.01382,0.0037,-0.0611
-2,0.0857,0.01362,0.00359,-0.0615
-1.9,0.0996,0.01343,0.00347,-0.0619
-1.8,0.1135,0.01322,0.00338,-0.0622
-1.7,0.1243,0.01286,0.00324,-0.0619
-0.5,0.2895,0.01188,0.00234,-0.0626
-0.4,0.3027,0.01191,0.00234,-0.0628
-0.3,0.316,0.01201,0.00237,-0.0627
-0.1,0.342,0.01213,0.0024,-0.0627
0,0.3546,0.01221,0.00243,-0.0626
0.1,0.3664,0.01232,0.00247,-0.0622
0.3,0.3912,0.01245,0.00253,-0.0621
0.5,0.4158,0.01258,0.00259,-0.0619
0.6,0.4272,0.01269,0.00265,-0.0615
0.8,0.4513,0.01285,0.00273,-0.0613
1,0.4754,0.01301,0.00282,-0.061
1.1,0.4865,0.01314,0.00288,-0.0606
1.3,0.5103,0.01332,0.00299,-0.0603
1.6,0.5457,0.01362,0.00318,-0.0598
1.8,0.5682,0.01392,0.00334,-0.0591
1.9,0.5799,0.01403,0.00341,-0.059
2,0.5916,0.01416,0.00349,-0.0588
2.2,0.6146,0.01444,0.00367,-0.0584
2.3,0.6263,0.01458,0.00375,-0.0582
2.5,0.6485,0.01494,0.00396,-0.0576
2.7,0.6719,0.01525,0.00417,-0.0574
2.8,0.6835,0.01542,0.00429,-0.0572
3.1,0.7184,0.01592,0.00463,-0.0569
3.2,0.7298,0.01611,0.00476,-0.0567
3.3,0.7407,0.01634,0.0049,-0.0565
3.5,0.7639,0.0167,0.00515,-0.0563
3.6,0.7753,0.01689,0.00529,-0.0562
3.8,0.7983,0.01726,0.00556,-0.056
3.9,0.8097,0.01746,0.0057,-0.0559
4,0.8213,0.01765,0.00584,-0.0558
4.1,0.8327,0.01784,0.00598,-0.0558
4.2,0.8435,0.0181,0.00614,-0.0556
4.3,0.855,0.0183,0.0063,-0.0555
4.4,0.8664,0.0185,0.00646,-0.0555
4.5,0.8779,0.01871,0.00661,-0.0554
4.6,0.8893,0.01892,0.00678,-0.0553
4.7,0.9008,0.01913,0.00695,-0.0553
4.8,0.9121,0.01937,0.00712,-0.0552
4.9,0.9237,0.01957,0.0073,-0.0552
5,0.9351,0.0198,0.00748,-0.0551
5.1,0.9459,0.02006,0.00768,-0.055
5.2,0.9574,0.02029,0.00787,-0.055
5.3,0.9685,0.02055,0.00807,-0.0549
5.4,0.9802,0.02076,0.00827,-0.0549
5.5,0.9916,0.02099,0.00847,-0.0549
5.6,1.0029,0.02124,0.00868,-0.0548
5.7,1.0142,0.02151,0.00889,-0.0548
5.8,1.0259,0.02172,0.00911,-0.0547
5.9,1.0374,0.02196,0.00935,-0.0547
6,1.0479,0.02229,0.00956,-0.0546
6.1,1.0594,0.02254,0.00979,-0.0546
6.2,1.0711,0.02277,0.01003,-0.0546
6.3,1.0825,0.02302,0.01028,-0.0546
6.4,1.0939,0.02329,0.01052,-0.0545
6.5,1.1052,0.02359,0.01077,-0.0545
6.6,1.1165,0.02388,0.01101,-0.0544
6.7,1.1282,0.02411,0.0113,-0.0544
6.8,1.1398,0.02436,0.01157,-0.0544
6.9,1.1512,0.02463,0.01185,-0.0544
7,1.1618,0.02496,0.01208,-0.0543
7.1,1.1732,0.02526,0.01234,-0.0543
7.2,1.1848,0.02549,0.01264,-0.0543
7.3,1.1962,0.02575,0.01294,-0.0542
7.4,1.2076,0.02602,0.01323,-0.0542
7.5,1.219,0.02632,0.01352,-0.0542
7.6,1.2303,0.02664,0.01383,-0.0541
7.7,1.2415,0.02698,0.01412,-0.0541
7.8,1.2529,0.02726,0.01442,-0.054
7.9,1.2642,0.02752,0.01476,-0.054
8,1.2749,0.02774,0.01503,-0.0539
8.1,1.2862,0.02805,0.01534,-0.0539
8.2,1.2974,0.02837,0.01565,-0.0538
8.3,1.3086,0.02871,0.01595,-0.0538
8.4,1.3198,0.02905,0.01626,-0.0537
8.5,1.3308,0.02931,0.01665,-0.0537
8.6,1.3418,0.02961,0.01703,-0.0536
8.7,1.3529,0.02992,0.01739,-0.0535
8.8,1.3639,0.03025,0.01775,-0.0534
8.9,1.375,0.03058,0.01809,-0.0534
9,1.3861,0.03093,0.01842,-0.0533
9.1,1.3966,0.03121,0.0186,-0.0532
9.2,1.407,0.03151,0.01906,-0.0531
9.3,1.4177,0.03184,0.01948,-0.053
9.4,1.4283,0.03218,0.01991,-0.0529
9.5,1.439,0.03253,0.0203,-0.0528
9.6,1.4498,0.03288,0.02067,-0.0527
9.7,1.4607,0.03323,0.02103,-0.0526
9.8,1.4716,0.0336,0.02137,-0.0525
9.9,1.4827,0.03399,0.02172,-0.0525
10,1.4928,0.03437,0.02216,-0.0523
10.1,1.5025,0.03475,0.0227,-0.0521
10.2,1.5114,0.03499,0.02308,-0.0519
10.3,1.5216,0.03537,0.02351,-0.0518
10.4,1.532,0.03575,0.02394,-0.0516
10.5,1.5424,0.03612,0.02433,-0.0515
10.6,1.5531,0.0365,0.02469,-0.0514
10.7,1.5639,0.0369,0.02505,-0.0513
10.8,1.5739,0.03732,0.02548,-0.0512
10.9,1.5821,0.03778,0.02615,-0.0509
11,1.591,0.03824,0.02676,-0.0507
11.1,1.6001,0.0387,0.02732,-0.0505
11.2,1.6094,0.03914,0.02784,-0.0503
11.3,1.6189,0.03958,0.02833,-0.0501
11.5,1.6385,0.04015,0.0289,-0.0497
11.6,1.649,0.04056,0.02928,-0.0496
11.7,1.6583,0.04103,0.02974,-0.0494
11.8,1.6643,0.04162,0.03059,-0.049
11.9,1.6713,0.04218,0.03132,-0.0487
12,1.6789,0.04273,0.03199,-0.0485
12.1,1.6867,0.04325,0.03261,-0.0482
12.2,1.6949,0.04374,0.03318,-0.0479
12.3,1.7034,0.04422,0.03371,-0.0477
12.4,1.7122,0.04468,0.0342,-0.0475
12.5,1.7213,0.04512,0.03466,-0.0473
12.6,1.7309,0.04556,0.0351,-0.0471
12.7,1.741,0.04599,0.03553,-0.047
12.8,1.7417,0.04654,0.0363,-0.0464
12.9,1.7456,0.04726,0.03722,-0.046
13,1.7503,0.04793,0.03804,-0.0457
13.1,1.7556,0.04856,0.03879,-0.0454
13.2,1.7614,0.04916,0.03948,-0.0451
13.3,1.7676,0.04972,0.04012,-0.0448
13.4,1.7742,0.05025,0.0407,-0.0446
13.5,1.7814,0.05075,0.04124,-0.0444
13.6,1.7891,0.05122,0.04174,-0.0441
13.7,1.7975,0.05168,0.04219,-0.0439
13.8,1.8067,0.05212,0.04261,-0.0437
13.9,1.8168,0.05256,0.04301,-0.0436
14,1.8096,0.0537,0.04446,-0.0432
14.1,1.8053,0.05476,0.04577,-0.043
14.2,1.8028,0.05572,0.04693,-0.0429
14.3,1.7973,0.05631,0.04771,-0.0428
14.4,1.7977,0.05701,0.04851,-0.0427
14.5,1.7994,0.05768,0.04926,-0.0428
14.6,1.8025,0.05831,0.04999,-0.0429
14.7,1.8067,0.0589,0.05062,-0.0431
14.8,1.8121,0.05943,0.05119,-0.0433
14.9,1.8183,0.05991,0.0517,-0.0434
15,1.8256,0.06035,0.05215,-0.0434
15.1,1.834,0.06075,0.05253,-0.0432
15.2,1.8433,0.06113,0.05287,-0.0429
15.4,1.8164,0.06648,0.05916,-0.0582
15.5,1.8168,0.06865,0.06157,-0.0648
15.6,1.8209,0.07016,0.06322,-0.069
15.7,1.8266,0.07124,0.06437,-0.0717
15.8,1.8332,0.07203,0.06522,-0.0733
16,1.8514,0.07183,0.06498,-0.0725
16.1,1.8593,0.07212,0.06527,-0.0725
16.2,1.8673,0.07233,0.06547,-0.072
16.3,1.8756,0.07249,0.0656,-0.0713
17,1.8288,0.12503,0.11933,-0.1323
17.1,1.8353,0.12536,0.11968,-0.1333
17.2,1.8419,0.12563,0.11997,-0.1341
17.3,1.8486,0.12585,0.12021,-0.1348
17.4,1.8553,0.12602,0.12041,-0.1354
17.5,1.862,0.12617,0.1206,-0.136
17.6,1.8688,0.12628,0.12073,-0.1364
17.7,1.8756,0.12638,0.12084,-0.1368
18.7,1.8792,0.14214,0.1368,-0.1537

