airfoilName st6.dat
Re 	890000
M 	2.500000e-01
N 	4.500000e+00
VACC 	0 VACCflag 1
XTR 	1.00 	1.00 XTRflag 0
alpha,cl,cd,cdp,cm
-14.8,-1.4638,0.03313,0.02996,-0.0526
-14.7,-1.4552,0.03184,0.02854,-0.0542
-14.6,-1.4466,0.03079,0.02737,-0.0552
-14.5,-1.4377,0.02988,0.02636,-0.056
-14.4,-1.4287,0.02906,0.02544,-0.0565
-14.3,-1.4193,0.02832,0.0246,-0.0569
-14.2,-1.4098,0.02763,0.02382,-0.0571
-14.1,-1.4,0.02699,0.02308,-0.0573
-14,-1.3899,0.02638,0.02239,-0.0574
-13.9,-1.3797,0.02581,0.02174,-0.0575
-13.8,-1.3693,0.02527,0.02112,-0.0576
-13.7,-1.3586,0.02475,0.02053,-0.0576
-13.6,-1.3479,0.02426,0.01995,-0.0576
-13.5,-1.3369,0.02379,0.01941,-0.0575
-13.4,-1.3258,0.02334,0.01889,-0.0575
-13.3,-1.3146,0.02291,0.01839,-0.0574
-13.2,-1.3033,0.02249,0.01791,-0.0573
-13.1,-1.2918,0.0221,0.01744,-0.0573
-13,-1.2802,0.02172,0.017,-0.0572
-12.9,-1.2685,0.02135,0.01657,-0.0571
-12.8,-1.2567,0.021,0.01615,-0.057
-12.7,-1.2449,0.02067,0.01576,-0.0569
-12.6,-1.2329,0.02035,0.01539,-0.0568
-12.5,-1.2208,0.02005,0.01503,-0.0567
-12.4,-1.2087,0.01977,0.0147,-0.0566
-12.3,-1.1967,0.01941,0.0143,-0.0565
-12.2,-1.1846,0.01909,0.01393,-0.0565
-12.1,-1.1724,0.0188,0.0136,-0.0564
-12,-1.1601,0.01852,0.01328,-0.0563
-11.9,-1.1478,0.01826,0.01298,-0.0562
-11.8,-1.1354,0.01801,0.0127,-0.0561
-11.7,-1.123,0.01776,0.01242,-0.0561
-11.6,-1.1105,0.01753,0.01215,-0.056
-11.5,-1.098,0.0173,0.01189,-0.0559
-11.4,-1.0854,0.01708,0.01164,-0.0558
-11.3,-1.0728,0.01686,0.01139,-0.0558
-11.2,-1.0602,0.01665,0.01114,-0.0557
-11.1,-1.0476,0.0165,0.01097,-0.0556
-11,-1.0349,0.01629,0.01073,-0.0556
-10.9,-1.0222,0.01609,0.0105,-0.0555
-10.8,-1.0096,0.0159,0.01027,-0.0554
-10.7,-0.9968,0.01572,0.01006,-0.0554
-10.6,-0.9841,0.01555,0.00986,-0.0553
-10.5,-0.9714,0.01535,0.00963,-0.0553
-10.4,-0.9587,0.01514,0.0094,-0.0553
-10.3,-0.946,0.01494,0.00919,-0.0552
-10.2,-0.9333,0.01476,0.00899,-0.0552
-10.1,-0.9205,0.01459,0.0088,-0.0552
-10,-0.9078,0.01442,0.00862,-0.0551
-9.9,-0.895,0.01426,0.00844,-0.0551
-9.8,-0.8821,0.01411,0.00827,-0.0551
-9.7,-0.8683,0.01396,0.0081,-0.0553
-9.6,-0.8546,0.01381,0.00793,-0.0555
-9.5,-0.8409,0.01366,0.00777,-0.0556
-9.4,-0.8265,0.01353,0.00761,-0.0559
-9.3,-0.8128,0.0134,0.00746,-0.0561
-9.2,-0.7993,0.01327,0.00731,-0.0562
-9.1,-0.786,0.01316,0.00717,-0.0563
-9,-0.7726,0.01304,0.00703,-0.0563
-8.9,-0.7598,0.0129,0.00688,-0.0563
-8.8,-0.7471,0.01277,0.00674,-0.0563
-8.7,-0.7346,0.01266,0.00662,-0.0562
-8.6,-0.7221,0.01255,0.00649,-0.0561
-8.5,-0.7103,0.01247,0.00638,-0.0558
-8.4,-0.6979,0.01237,0.00626,-0.0558
-8.3,-0.6854,0.01228,0.00614,-0.0557
-8.2,-0.6731,0.0122,0.00605,-0.0555
-8.1,-0.6607,0.01211,0.00593,-0.0554
-8,-0.6486,0.01205,0.00583,-0.0553
-7.9,-0.6362,0.01196,0.00572,-0.0552
-7.8,-0.6236,0.01185,0.00559,-0.0551
-7.7,-0.611,0.01175,0.00548,-0.0551
-7.6,-0.5984,0.01165,0.00537,-0.0551
-7.5,-0.5863,0.01158,0.00527,-0.0549
-7.4,-0.5736,0.0115,0.00517,-0.0549
-7.3,-0.5609,0.01142,0.00508,-0.0549
-7.2,-0.5483,0.01134,0.00498,-0.0549
-7.1,-0.5356,0.01127,0.00489,-0.0549
-7,-0.5231,0.01121,0.0048,-0.0548
-6.9,-0.5104,0.01113,0.0047,-0.0548
-6.8,-0.4977,0.01104,0.0046,-0.0548
-6.7,-0.485,0.01096,0.00452,-0.0549
-6.6,-0.4722,0.01088,0.00443,-0.0549
-6.5,-0.4595,0.0108,0.00435,-0.0549
-6.4,-0.4467,0.01074,0.00427,-0.055
-6.3,-0.4342,0.01069,0.00419,-0.0549
-6.2,-0.4214,0.01062,0.00411,-0.055
-6.1,-0.4086,0.01056,0.00404,-0.055
-6,-0.3959,0.01049,0.00395,-0.0551
-5.9,-0.3832,0.01041,0.00388,-0.0551
-5.8,-0.3704,0.01034,0.00381,-0.0552
-5.7,-0.3577,0.01029,0.00374,-0.0552
-5.6,-0.345,0.01024,0.00367,-0.0552
-5.5,-0.3323,0.01019,0.00361,-0.0553
-5.4,-0.3194,0.01013,0.00354,-0.0554
-5.3,-0.3066,0.01006,0.00347,-0.0554
-5.2,-0.2939,0.01,0.00341,-0.0555
-5.1,-0.2811,0.00994,0.00335,-0.0556
-5,-0.2685,0.00991,0.00329,-0.0556
-4.9,-0.2557,0.00985,0.00324,-0.0557
-4.8,-0.243,0.0098,0.00318,-0.0558
-4.7,-0.2303,0.00975,0.00312,-0.0558
-4.6,-0.2175,0.00969,0.00307,-0.0559
-4.5,-0.2047,0.00964,0.00302,-0.056
-4.4,-0.1922,0.00963,0.00297,-0.056
-4.3,-0.1796,0.00961,0.00292,-0.0561
-4.2,-0.167,0.00958,0.00287,-0.0561
-4.1,-0.1545,0.00955,0.00283,-0.0562
-4,-0.1419,0.00954,0.00279,-0.0563
-3.9,-0.1291,0.00951,0.00274,-0.0563
-3.8,-0.1164,0.00947,0.0027,-0.0564
-3.7,-0.1037,0.00943,0.00266,-0.0565
-3.6,-0.0912,0.00944,0.00263,-0.0566
-3.5,-0.0785,0.00941,0.0026,-0.0567
-3.4,-0.0658,0.00936,0.00256,-0.0568
-3.3,-0.0531,0.00934,0.00252,-0.0569
-3.2,-0.0405,0.00935,0.0025,-0.057
-3.1,-0.0281,0.00936,0.00247,-0.0571
-3,-0.0154,0.00933,0.00244,-0.0572
-2.9,-0.0027,0.00932,0.00242,-0.0573
-2.8,0.0098,0.0093,0.00239,-0.0574
-2.7,0.0225,0.00929,0.00237,-0.0575
-2.6,0.0352,0.00927,0.00234,-0.0576
-2.5,0.0479,0.00924,0.00232,-0.0578
-2.4,0.0604,0.00927,0.00231,-0.0579
-2.2,0.0856,0.00924,0.00228,-0.0581
-2.1,0.0983,0.00923,0.00226,-0.0582
-2,0.111,0.00921,0.00225,-0.0584
-1.9,0.1237,0.0092,0.00224,-0.0585
-1.8,0.1362,0.00919,0.00223,-0.0586
-1.7,0.1487,0.00923,0.00223,-0.0587
-1.6,0.1612,0.00923,0.00222,-0.0589
-1.5,0.1739,0.00924,0.00221,-0.059
-1.4,0.1865,0.00923,0.0022,-0.0591
-1.3,0.1992,0.0092,0.0022,-0.0593
-1.2,0.2118,0.0092,0.0022,-0.0594
-1.1,0.2244,0.0092,0.0022,-0.0595
-1,0.2371,0.0092,0.00219,-0.0597
-0.9,0.2495,0.00923,0.0022,-0.0598
-0.8,0.2621,0.00924,0.0022,-0.0599
-0.7,0.2747,0.00925,0.0022,-0.0601
-0.6,0.2873,0.00927,0.00221,-0.0602
-0.5,0.2999,0.00928,0.00221,-0.0603
-0.4,0.3124,0.00927,0.00221,-0.0605
-0.3,0.325,0.00929,0.00223,-0.0606
-0.2,0.3375,0.00931,0.00223,-0.0607
-0.1,0.3501,0.00933,0.00225,-0.0609
0,0.3624,0.00938,0.00227,-0.061
0.1,0.3748,0.00941,0.00229,-0.0612
0.2,0.3873,0.00944,0.00231,-0.0613
0.3,0.3998,0.00949,0.00233,-0.0614
0.4,0.4122,0.00949,0.00235,-0.0616
0.5,0.4247,0.00954,0.00238,-0.0617
0.6,0.437,0.00959,0.0024,-0.0619
0.7,0.4494,0.00962,0.00243,-0.0621
0.8,0.4618,0.00968,0.00246,-0.0622
0.9,0.4741,0.00974,0.0025,-0.0623
1,0.4862,0.00987,0.00255,-0.0625
1.1,0.4986,0.00987,0.00259,-0.0626
1.2,0.5111,0.0099,0.00262,-0.0628
1.3,0.5235,0.00994,0.00265,-0.0629
1.4,0.5361,0.00996,0.00268,-0.0631
1.5,0.5486,0.00993,0.00271,-0.0632
1.6,0.5611,0.00995,0.00274,-0.0634
1.7,0.5736,0.00996,0.00278,-0.0635
1.8,0.5861,0.00996,0.0028,-0.0637
1.9,0.5985,0.00993,0.00284,-0.0638
2,0.611,0.00995,0.00288,-0.064
2.1,0.6234,0.00993,0.00292,-0.0641
2.2,0.6357,0.00984,0.00296,-0.0642
2.3,0.6481,0.00983,0.00299,-0.0643
2.4,0.6605,0.00984,0.00303,-0.0644
2.5,0.6727,0.00985,0.00307,-0.0645
2.6,0.6844,0.0098,0.00312,-0.0644
2.7,0.6964,0.0098,0.00317,-0.0644
2.8,0.7084,0.0098,0.00321,-0.0643
2.9,0.7201,0.00983,0.00325,-0.0642
3,0.73,0.00977,0.00328,-0.0637
3.1,0.7411,0.00979,0.00332,-0.0634
3.2,0.7519,0.00981,0.00335,-0.0631
3.3,0.7627,0.00982,0.00338,-0.0628
3.4,0.7724,0.00976,0.00336,-0.0621
3.5,0.7851,0.00979,0.00338,-0.0622
3.7,0.8109,0.00987,0.00343,-0.0626
3.8,0.8234,0.00995,0.00348,-0.0627
3.9,0.8359,0.01003,0.00353,-0.0628
4,0.8484,0.0101,0.00359,-0.0629
4.1,0.8609,0.01016,0.00364,-0.063
4.2,0.8735,0.01023,0.00369,-0.0631
4.3,0.886,0.0103,0.00374,-0.0632
4.4,0.8985,0.01037,0.00379,-0.0633
4.5,0.911,0.01044,0.00385,-0.0634
4.6,0.9234,0.01052,0.00391,-0.0635
4.7,0.9359,0.0106,0.00397,-0.0636
4.8,0.9484,0.01066,0.00403,-0.0637
4.9,0.9609,0.01073,0.00408,-0.0638
5,0.9734,0.01079,0.00414,-0.0639
5.1,0.9858,0.01088,0.0042,-0.0639
5.2,0.9983,0.01096,0.00426,-0.064
5.3,1.0107,0.01104,0.00432,-0.0641
5.4,1.0231,0.01113,0.00439,-0.0642
5.5,1.0355,0.0112,0.00446,-0.0643
5.6,1.048,0.01127,0.00452,-0.0644
5.7,1.0605,0.01134,0.00459,-0.0644
5.8,1.0729,0.01141,0.00465,-0.0645
5.9,1.0854,0.01149,0.00471,-0.0646
6,1.0978,0.01157,0.00478,-0.0646
6.1,1.1102,0.01165,0.00485,-0.0647
6.2,1.1224,0.01176,0.00493,-0.0648
6.3,1.1348,0.01185,0.00501,-0.0648
6.4,1.1472,0.01192,0.00508,-0.0649
6.5,1.1596,0.012,0.00515,-0.065
6.6,1.172,0.01207,0.00522,-0.065
6.7,1.1844,0.01215,0.00529,-0.0651
6.8,1.1968,0.01224,0.00537,-0.0651
6.9,1.2091,0.01233,0.00544,-0.0652
7,1.2214,0.01242,0.00552,-0.0652
7.1,1.2337,0.01252,0.00561,-0.0653
7.2,1.246,0.01262,0.0057,-0.0653
7.3,1.2583,0.01271,0.00578,-0.0654
7.4,1.2706,0.01279,0.00586,-0.0654
7.5,1.283,0.01287,0.00594,-0.0654
7.6,1.2953,0.01296,0.00602,-0.0655
7.7,1.3076,0.01305,0.00611,-0.0655
7.8,1.3199,0.01315,0.00619,-0.0655
7.9,1.3321,0.01325,0.00628,-0.0656
8,1.3443,0.01335,0.00638,-0.0656
8.1,1.3565,0.01346,0.00648,-0.0656
8.2,1.3687,0.01357,0.00658,-0.0656
8.3,1.381,0.01365,0.00667,-0.0656
8.4,1.3932,0.01374,0.00676,-0.0656
8.5,1.4055,0.01383,0.00685,-0.0657
8.6,1.4176,0.01394,0.00694,-0.0657
8.7,1.4298,0.01404,0.00704,-0.0657
8.8,1.442,0.01415,0.00714,-0.0657
8.9,1.4541,0.01426,0.00725,-0.0657
9,1.4662,0.01438,0.00735,-0.0656
9.1,1.4782,0.0145,0.00747,-0.0656
9.2,1.4903,0.0146,0.00758,-0.0656
9.3,1.5025,0.0147,0.00768,-0.0656
9.4,1.5147,0.0148,0.00778,-0.0656
9.5,1.5268,0.0149,0.00789,-0.0656
9.6,1.5389,0.01501,0.008,-0.0655
9.7,1.551,0.01512,0.00811,-0.0655
9.8,1.5629,0.01525,0.00823,-0.0655
9.9,1.5749,0.01537,0.00834,-0.0654
10,1.5868,0.0155,0.00846,-0.0654
10.1,1.5987,0.01563,0.00859,-0.0653
10.2,1.6106,0.01576,0.00873,-0.0653
10.3,1.6226,0.01587,0.00884,-0.0652
10.4,1.6346,0.01597,0.00896,-0.0651
10.5,1.6466,0.01609,0.00908,-0.0651
10.6,1.6586,0.0162,0.0092,-0.065
10.7,1.6705,0.01633,0.00932,-0.0649
10.8,1.6823,0.01645,0.00946,-0.0649
10.9,1.6942,0.01658,0.00959,-0.0648
11,1.7059,0.01671,0.00972,-0.0647
11.1,1.7176,0.01685,0.00986,-0.0646
11.2,1.7291,0.01703,0.01002,-0.0645
11.3,1.7407,0.01718,0.01017,-0.0643
11.4,1.7526,0.01729,0.0103,-0.0642
11.5,1.7644,0.01741,0.01044,-0.0641
11.6,1.7761,0.01754,0.01058,-0.064
11.7,1.7878,0.01767,0.01072,-0.0639
11.8,1.7994,0.01781,0.01086,-0.0638
11.9,1.811,0.01795,0.01102,-0.0636
12,1.8225,0.01809,0.01117,-0.0635
12.1,1.834,0.01824,0.01133,-0.0633
12.2,1.8454,0.0184,0.01149,-0.0631
12.3,1.8567,0.01856,0.01165,-0.063
12.4,1.868,0.01873,0.01182,-0.0628
12.5,1.8791,0.01891,0.012,-0.0626
12.6,1.8905,0.01905,0.01216,-0.0624
12.7,1.9019,0.01919,0.01232,-0.0622
12.8,1.9133,0.01934,0.01248,-0.062
12.9,1.9245,0.01949,0.01265,-0.0618
13,1.9357,0.01965,0.01283,-0.0616
13.1,1.9468,0.01981,0.013,-0.0614
13.2,1.9579,0.01998,0.01318,-0.0612
13.3,1.9688,0.02015,0.01337,-0.0609
13.4,1.9797,0.02033,0.01355,-0.0607
13.5,1.9904,0.02051,0.01375,-0.0604
13.6,2.001,0.02071,0.01395,-0.0601
13.7,2.0115,0.02091,0.01416,-0.0598
13.8,2.022,0.02111,0.01438,-0.0595
13.9,2.0329,0.02125,0.01455,-0.0592
14,2.0436,0.02142,0.01474,-0.0589
14.1,2.0542,0.0216,0.01494,-0.0586
14.2,2.0647,0.02178,0.01514,-0.0583
14.3,2.0751,0.02196,0.01535,-0.0579
14.4,2.0854,0.02215,0.01556,-0.0576
14.5,2.0955,0.02235,0.01578,-0.0572
14.6,2.1055,0.02255,0.016,-0.0568
14.7,2.1153,0.02277,0.01623,-0.0564
14.8,2.125,0.02298,0.01646,-0.056
14.9,2.1345,0.02321,0.0167,-0.0556
15,2.1437,0.02345,0.01696,-0.0551
15.1,2.1527,0.0237,0.01722,-0.0546
15.2,2.1621,0.0239,0.01747,-0.0542
15.3,2.1717,0.0241,0.01769,-0.0537
15.4,2.181,0.0243,0.01793,-0.0532
15.5,2.1902,0.02451,0.01817,-0.0527
15.6,2.199,0.02473,0.01842,-0.0522
15.7,2.2076,0.02495,0.01867,-0.0516
15.8,2.2158,0.02519,0.01893,-0.051
15.9,2.2237,0.02543,0.0192,-0.0504
16,2.2314,0.02567,0.01947,-0.0497
16.1,2.2388,0.02592,0.01975,-0.0491
16.2,2.2458,0.02619,0.02004,-0.0483
16.3,2.2524,0.02646,0.02034,-0.0476
16.4,2.2587,0.02674,0.02065,-0.0468
16.5,2.2643,0.02703,0.02097,-0.0459
16.6,2.2691,0.02733,0.0213,-0.045
16.7,2.2717,0.02765,0.02165,-0.0437
16.8,2.2755,0.02793,0.02198,-0.0426
16.9,2.2799,0.02822,0.02231,-0.0416
17,2.2845,0.02851,0.02265,-0.0408
17.1,2.2893,0.02882,0.023,-0.04
17.2,2.2944,0.02914,0.02337,-0.0393
17.3,2.2996,0.02947,0.02374,-0.0387
17.4,2.3049,0.02982,0.02413,-0.0382
17.5,2.3102,0.03017,0.02452,-0.0378
17.6,2.3155,0.03054,0.02494,-0.0374
17.7,2.3206,0.03095,0.02537,-0.0372
17.8,2.3254,0.03139,0.02584,-0.0371
17.9,2.3309,0.03182,0.02632,-0.037
18,2.3365,0.03227,0.0268,-0.037
18.1,2.342,0.03274,0.02732,-0.0372
18.2,2.3475,0.03324,0.02785,-0.0374
18.3,2.354,0.03368,0.02836,-0.0377
18.4,2.3609,0.0341,0.02883,-0.038
18.5,2.3678,0.03454,0.02933,-0.0384
18.6,2.3748,0.035,0.02984,-0.0389
18.7,2.3817,0.03548,0.03037,-0.0394
18.8,2.3887,0.03598,0.03093,-0.0401
18.9,2.3956,0.03651,0.03151,-0.0409
19,2.4027,0.03705,0.03211,-0.0418
19.1,2.4097,0.03763,0.03274,-0.0428
19.2,2.4167,0.03824,0.0334,-0.0439
19.3,2.4237,0.03888,0.0341,-0.0452
19.4,2.4306,0.03956,0.03485,-0.0466
19.5,2.4374,0.04029,0.03564,-0.0482
19.6,2.4434,0.04118,0.03657,-0.0502
19.7,2.4496,0.04209,0.03755,-0.0523
19.8,2.4556,0.04307,0.0386,-0.0546
19.9,2.4614,0.04413,0.03974,-0.057
20,2.4679,0.04506,0.04075,-0.0591
20.1,2.4741,0.04605,0.04181,-0.0613
20.2,2.4793,0.04723,0.04307,-0.064
20.3,2.4838,0.04855,0.04448,-0.0669
20.4,2.4873,0.05004,0.04607,-0.0701
20.5,2.4897,0.05171,0.04784,-0.0736
20.6,2.4905,0.05367,0.0499,-0.0775
20.7,2.4895,0.05592,0.05226,-0.0819
20.8,2.4861,0.05853,0.055,-0.0869
20.9,2.4797,0.06162,0.05822,-0.0925
21,2.4701,0.06523,0.06197,-0.0988
21.1,2.4569,0.06937,0.06626,-0.1057
21.2,2.4423,0.07366,0.0707,-0.1127
21.3,2.4285,0.07773,0.07489,-0.1195
21.4,2.4163,0.08144,0.07871,-0.1259
21.5,2.4049,0.08496,0.08233,-0.1322
21.6,2.3939,0.08837,0.08584,-0.1384
21.7,2.3849,0.0914,0.08893,-0.1441
21.8,2.3767,0.09421,0.09181,-0.1496
21.9,2.3675,0.09714,0.09482,-0.1555
22,2.3628,0.09929,0.09703,-0.1601
22.1,2.3595,0.10123,0.09903,-0.1641
22.2,2.3544,0.10351,0.10138,-0.1687
22.3,2.351,0.10547,0.10338,-0.1727
22.4,2.3463,0.10773,0.1057,-0.1772
22.5,2.3429,0.1098,0.10782,-0.1813
22.6,2.3409,0.11163,0.1097,-0.1848
22.7,2.338,0.11371,0.11181,-0.1886
22.8,2.3339,0.11608,0.11424,-0.1927
22.9,2.3321,0.11801,0.1162,-0.1961
23,2.3306,0.11991,0.11812,-0.1993
23.1,2.3266,0.12236,0.12061,-0.2033
23.2,2.3238,0.1246,0.12287,-0.2069
23.3,2.3223,0.12656,0.12485,-0.2101
23.4,2.3215,0.12839,0.12672,-0.213
23.5,2.3204,0.13032,0.1287,-0.2159
23.6,2.3178,0.13259,0.13102,-0.2193
23.7,2.317,0.13447,0.13294,-0.2221
23.8,2.3166,0.13628,0.13478,-0.2248
23.9,2.3149,0.1384,0.13692,-0.2279
24,2.312,0.14083,0.13939,-0.2314
24.1,2.3101,0.14304,0.14164,-0.2346
24.2,2.3095,0.14495,0.14357,-0.2373
24.3,2.3091,0.14681,0.14544,-0.24
24.4,2.3085,0.14875,0.14739,-0.2428
24.5,2.3065,0.15105,0.1497,-0.2461
24.6,2.3045,0.15334,0.15202,-0.2492
24.7,2.3037,0.15534,0.15407,-0.252
24.8,2.3018,0.15764,0.1564,-0.2551
24.9,2.3011,0.15964,0.15842,-0.2579
25,2.2982,0.16224,0.16106,-0.2614
25.1,2.2969,0.16444,0.16328,-0.2644
25.2,2.2966,0.16638,0.16523,-0.267
25.3,2.2967,0.16825,0.16711,-0.2696
25.4,2.2968,0.17011,0.16896,-0.2721
25.5,2.2961,0.17219,0.17107,-0.2749
25.6,2.2924,0.17508,0.17401,-0.2787
25.7,2.2915,0.17725,0.17621,-0.2815
25.8,2.2911,0.17929,0.17827,-0.2842
25.9,2.2909,0.1813,0.18028,-0.2869
26,2.2907,0.18331,0.1823,-0.2895
26.1,2.2893,0.18572,0.18472,-0.2926
26.2,2.2893,0.18774,0.18673,-0.2952
26.3,2.2886,0.18996,0.18898,-0.2981
26.4,2.2883,0.19205,0.1911,-0.3008
26.5,2.2881,0.19412,0.19318,-0.3034
26.6,2.288,0.19622,0.19528,-0.3061
26.7,2.2865,0.1988,0.19788,-0.3094
26.8,2.2864,0.20094,0.2,-0.3121
26.9,2.2865,0.203,0.20208,-0.3147
27,2.2868,0.205,0.20409,-0.3172
27.1,2.2871,0.20699,0.20609,-0.3198
27.2,2.2874,0.20901,0.20811,-0.3223
27.3,2.2874,0.21116,0.21026,-0.325
27.4,2.2867,0.21363,0.21273,-0.328
27.5,2.2869,0.21574,0.21486,-0.3307
27.6,2.2875,0.21771,0.21684,-0.3332
27.7,2.288,0.2197,0.21883,-0.3356
27.8,2.2887,0.22163,0.22077,-0.3381
27.9,2.2893,0.22362,0.22276,-0.3405
28,2.2899,0.22566,0.22481,-0.3431
28.1,2.29,0.22793,0.22708,-0.3459
28.2,2.2903,0.23009,0.22925,-0.3485
28.3,2.2912,0.23201,0.23118,-0.3509
28.4,2.2922,0.23385,0.23303,-0.3532
28.5,2.2933,0.23566,0.23486,-0.3555
28.6,2.2944,0.23745,0.23665,-0.3578
28.7,2.2955,0.23924,0.23845,-0.36
28.8,2.2965,0.24108,0.2403,-0.3623
28.9,2.2976,0.24293,0.24215,-0.3646
29,2.2981,0.24502,0.24424,-0.3672
29.1,2.2988,0.24704,0.24626,-0.3697
29.2,2.2997,0.24899,0.24821,-0.3721
29.3,2.3009,0.25079,0.25001,-0.3743
29.4,2.3021,0.25252,0.25174,-0.3765
29.5,2.3034,0.25424,0.25347,-0.3787
29.6,2.3046,0.25598,0.25523,-0.3809
29.7,2.3058,0.2577,0.25696,-0.3831
29.8,2.3071,0.25942,0.2587,-0.3853
29.9,2.3082,0.2612,0.26048,-0.3875
30,2.3094,0.26298,0.26227,-0.3897

