airfoilName st7.dat
Re 	90000
M 	2.500000e-01
N 	4.500000e+00
VACC 	0 VACCflag 1
XTR 	1.00 	1.00 XTRflag 0
alpha,cl,cd,cdp,cm
-11.5,-1.0342,0.08578,0.08052,0.0204
-11.4,-1.0261,0.08495,0.07969,0.0191
-11.3,-1.0178,0.08411,0.07886,0.0177
-11.2,-1.0092,0.08327,0.07802,0.0162
-11.1,-1.0005,0.08239,0.07715,0.0147
-10.2,-0.8568,0.06038,0.05478,-0.0276
-10.1,-0.8543,0.06186,0.05635,-0.0247
-10,-0.8527,0.06386,0.05843,-0.0213
-9.9,-0.8263,0.0593,0.05375,-0.0303
-9.1,-0.7276,0.03939,0.03176,-0.0574
-7.9,-0.6033,0.03029,0.02139,-0.0598
-7.8,-0.5926,0.02978,0.02091,-0.0597
-7.7,-0.5819,0.02931,0.02044,-0.0597
-7.6,-0.571,0.02884,0.01995,-0.0597
-7.5,-0.5601,0.02836,0.01943,-0.0596
-7.2,-0.5269,0.02677,0.0176,-0.0595
-7.1,-0.5158,0.02618,0.01688,-0.0595
-7,-0.5045,0.02556,0.01609,-0.0594
-6.8,-0.4824,0.02489,0.01536,-0.0593
-6.7,-0.4714,0.02451,0.01497,-0.0592
-6.6,-0.4604,0.02411,0.01455,-0.0591
-6.5,-0.4493,0.02371,0.01409,-0.059
-6.4,-0.4382,0.02329,0.0136,-0.0588
-6.3,-0.427,0.02287,0.01308,-0.0587
-6.2,-0.4157,0.02245,0.0125,-0.0585
-6.1,-0.4047,0.02206,0.01213,-0.0584
-6,-0.3938,0.02173,0.01184,-0.0583
-5.8,-0.3719,0.02131,0.01141,-0.0581
-5.7,-0.3607,0.02097,0.01101,-0.0579
-5.6,-0.3495,0.02065,0.01056,-0.0577
-5.5,-0.3385,0.02032,0.01025,-0.0576
-5.4,-0.3276,0.02003,0.01,-0.0574
-5.3,-0.3166,0.01977,0.00975,-0.0573
-5.2,-0.3056,0.01951,0.00948,-0.0572
-5.1,-0.2944,0.01925,0.00919,-0.057
-4.9,-0.272,0.01884,0.00878,-0.0569
-4.8,-0.2557,0.01855,0.0085,-0.0578
-4.7,-0.2407,0.0183,0.0082,-0.0584
-4.6,-0.2255,0.01807,0.00787,-0.0589
-4.5,-0.2106,0.0178,0.00769,-0.0596
-4.4,-0.1947,0.01763,0.00751,-0.0605
-4.3,-0.1798,0.0174,0.00727,-0.0611
-4.2,-0.1649,0.01717,0.00708,-0.0617
-4.1,-0.1496,0.01696,0.00687,-0.0624
-4,-0.1339,0.01677,0.00664,-0.0631
-3.9,-0.1196,0.01659,0.00653,-0.0637
-3.8,-0.1048,0.0164,0.00634,-0.0642
-3.7,-0.0899,0.01621,0.00617,-0.0649
-3.6,-0.0747,0.01605,0.00599,-0.0655
-3.5,-0.0603,0.01588,0.00588,-0.0661
-3.4,-0.0462,0.01571,0.00573,-0.0665
-3.3,-0.0317,0.01555,0.00559,-0.067
-3.2,-0.0169,0.0154,0.00546,-0.0676
-3.1,-0.002,0.01527,0.00533,-0.0682
-3,0.0113,0.0151,0.00523,-0.0685
-2.9,0.0256,0.01496,0.00512,-0.069
-2.8,0.0401,0.01482,0.005,-0.0695
-2.7,0.0548,0.01466,0.0049,-0.0702
-2.6,0.0678,0.01453,0.00479,-0.0704
-2.5,0.0819,0.0144,0.00468,-0.0708
-2.4,0.0961,0.01427,0.00459,-0.0712
-2.3,0.1101,0.01407,0.00449,-0.0717
-2.2,0.1227,0.01395,0.00441,-0.0719
-2.1,0.1361,0.01382,0.00432,-0.0722
-2,0.1502,0.01362,0.00422,-0.0726
-1.9,0.1629,0.01348,0.00413,-0.0727
-1.8,0.1755,0.01333,0.00405,-0.0729
-1.7,0.1887,0.01318,0.00398,-0.0731
-1.6,0.2009,0.01294,0.00389,-0.0731
-1.5,0.2128,0.01276,0.00381,-0.0731
-1.4,0.2249,0.01256,0.00373,-0.073
-1.3,0.2348,0.01219,0.00364,-0.0724
-1.2,0.2434,0.01191,0.00357,-0.0715
-0.8,0.2911,0.01128,0.00307,-0.069
-0.7,0.3036,0.01133,0.00305,-0.0689
-0.6,0.316,0.01136,0.00304,-0.0689
-0.5,0.3277,0.01143,0.00303,-0.0686
-0.3,0.352,0.01152,0.00302,-0.0683
-0.2,0.3639,0.01159,0.00302,-0.0681
0,0.3873,0.01171,0.00303,-0.0676
0.1,0.3994,0.01177,0.00303,-0.0675
0.2,0.4114,0.01183,0.00305,-0.0674
0.3,0.4234,0.01189,0.00306,-0.0672
0.4,0.4353,0.01195,0.00308,-0.0671
0.5,0.4466,0.01204,0.0031,-0.0668
0.6,0.4586,0.01211,0.00311,-0.0666
0.7,0.4704,0.01218,0.00314,-0.0665
0.8,0.4823,0.01226,0.00316,-0.0664
0.9,0.494,0.01233,0.0032,-0.0662
1,0.5057,0.01242,0.00323,-0.066
1.1,0.5171,0.01253,0.00327,-0.0657
1.2,0.529,0.01262,0.00331,-0.0656
1.3,0.5408,0.01271,0.00335,-0.0655
1.4,0.5526,0.01281,0.00339,-0.0654
1.5,0.5644,0.01291,0.00344,-0.0652
1.6,0.576,0.01303,0.00349,-0.0651
1.7,0.5878,0.01313,0.00354,-0.0649
1.8,0.5988,0.01329,0.00361,-0.0646
1.9,0.6105,0.01341,0.00367,-0.0645
2,0.6221,0.01354,0.00374,-0.0643
2.1,0.6337,0.01366,0.00381,-0.0642
2.2,0.6453,0.01379,0.00389,-0.0641
2.3,0.6568,0.01394,0.00396,-0.064
2.4,0.6684,0.01406,0.00405,-0.0639
2.5,0.6793,0.01426,0.00414,-0.0636
2.6,0.6908,0.0144,0.00423,-0.0635
2.7,0.7022,0.01456,0.00432,-0.0633
2.8,0.7137,0.0147,0.00442,-0.0632
2.9,0.7251,0.01485,0.00452,-0.0631
3,0.7364,0.01502,0.00462,-0.063
3.1,0.7478,0.01518,0.00471,-0.0628
3.2,0.7592,0.01533,0.00482,-0.0627
3.3,0.7705,0.0155,0.00493,-0.0626
3.4,0.7812,0.01572,0.00505,-0.0624
3.5,0.7925,0.0159,0.00517,-0.0623
3.6,0.8038,0.01607,0.00529,-0.0622
3.7,0.8151,0.01625,0.00541,-0.0621
3.8,0.8262,0.01643,0.00554,-0.062
3.9,0.8376,0.0166,0.00565,-0.0619
4,0.8488,0.01679,0.00579,-0.0618
4.1,0.8601,0.01697,0.00591,-0.0617
4.2,0.8708,0.0172,0.00606,-0.0616
4.3,0.8819,0.0174,0.0062,-0.0615
4.4,0.8933,0.01758,0.00634,-0.0614
4.5,0.9045,0.01778,0.00649,-0.0614
4.6,0.9158,0.01796,0.00665,-0.0613
4.7,0.9271,0.01816,0.0068,-0.0612
4.8,0.9382,0.01838,0.00697,-0.0611
4.9,0.9496,0.01856,0.00714,-0.0611
5,0.9608,0.01877,0.0073,-0.061
5.1,0.9714,0.01903,0.00748,-0.0609
5.2,0.9827,0.01923,0.00765,-0.0608
5.3,0.9938,0.01945,0.00785,-0.0608
5.4,1.0047,0.0197,0.00804,-0.0607
5.5,1.0162,0.01989,0.00823,-0.0606
5.6,1.0276,0.0201,0.00843,-0.0606
5.7,1.0388,0.02032,0.00863,-0.0605
5.8,1.0498,0.02057,0.00883,-0.0604
5.9,1.0609,0.02082,0.00903,-0.0603
6,1.0724,0.02101,0.00925,-0.0603
6.1,1.0832,0.02124,0.00946,-0.0602
6.2,1.0943,0.02149,0.00969,-0.0601
6.3,1.1052,0.02177,0.00991,-0.06
6.4,1.1167,0.02196,0.01013,-0.06
6.5,1.1281,0.02217,0.01036,-0.0599
6.6,1.1394,0.02239,0.0106,-0.0599
6.7,1.1505,0.02263,0.01083,-0.0598
6.8,1.1615,0.0229,0.01107,-0.0597
6.9,1.1725,0.02319,0.0113,-0.0596
7,1.1838,0.0234,0.01156,-0.0596
7.1,1.1948,0.02358,0.01179,-0.0595
7.2,1.2059,0.02382,0.01204,-0.0594
7.3,1.2169,0.02408,0.01229,-0.0593
7.4,1.2278,0.02436,0.01254,-0.0592
7.5,1.2388,0.02464,0.01278,-0.0591
7.6,1.2501,0.02485,0.01307,-0.0591
7.7,1.2612,0.02509,0.01336,-0.059
7.8,1.2723,0.02534,0.01364,-0.0589
7.9,1.2833,0.0256,0.01393,-0.0588
8,1.2942,0.02587,0.0142,-0.0587
8.1,1.3044,0.02615,0.01438,-0.0585
8.2,1.3154,0.02638,0.01469,-0.0584
8.3,1.3263,0.02663,0.01501,-0.0583
8.4,1.3372,0.02689,0.01532,-0.0582
8.5,1.348,0.02716,0.01562,-0.0581
8.6,1.3588,0.02744,0.01591,-0.0579
8.7,1.3695,0.02773,0.0162,-0.0578
8.8,1.3802,0.02804,0.01649,-0.0577
8.9,1.3909,0.02835,0.01677,-0.0576
9,1.4014,0.02862,0.01716,-0.0574
9.1,1.412,0.02891,0.01753,-0.0572
9.2,1.4218,0.02911,0.01779,-0.057
9.3,1.4323,0.02941,0.01811,-0.0569
9.4,1.4427,0.02971,0.01842,-0.0567
9.5,1.4532,0.03002,0.01872,-0.0566
9.6,1.4637,0.03035,0.01901,-0.0564
9.7,1.4737,0.03067,0.01942,-0.0562
9.8,1.4837,0.03099,0.01987,-0.056
9.9,1.4937,0.03133,0.02028,-0.0558
10,1.5037,0.03166,0.02068,-0.0556
10.1,1.5138,0.03199,0.02105,-0.0554
10.2,1.5238,0.03233,0.02141,-0.0552
10.3,1.5339,0.03266,0.02175,-0.055
10.4,1.5433,0.03287,0.02187,-0.0547
10.5,1.5525,0.03324,0.02235,-0.0545
10.6,1.5616,0.03362,0.02286,-0.0542
10.7,1.5708,0.034,0.02334,-0.0539
10.8,1.5801,0.03438,0.02379,-0.0536
10.9,1.5894,0.03475,0.02424,-0.0533
11,1.5987,0.03511,0.02464,-0.0531
11.1,1.6081,0.03547,0.02502,-0.0528
11.2,1.6176,0.03583,0.02539,-0.0526
11.3,1.6272,0.0362,0.02574,-0.0523
11.4,1.637,0.03658,0.02609,-0.0521
11.5,1.6439,0.03707,0.02676,-0.0517
11.6,1.6496,0.03742,0.02731,-0.0511
11.7,1.6576,0.03786,0.02783,-0.0507
11.8,1.6657,0.03828,0.02832,-0.0504
11.9,1.6738,0.03869,0.02878,-0.05
12,1.6821,0.03909,0.02921,-0.0497
12.1,1.6905,0.03948,0.02962,-0.0493
12.2,1.6991,0.03986,0.03003,-0.049
12.3,1.7079,0.04025,0.03041,-0.0487
12.4,1.7146,0.04076,0.03097,-0.0483
12.5,1.719,0.04138,0.03179,-0.0477
12.6,1.7239,0.04197,0.03254,-0.0471
12.7,1.7292,0.04254,0.03324,-0.0466
12.8,1.7347,0.04309,0.03389,-0.0461
12.9,1.7403,0.04361,0.0345,-0.0457
13,1.7455,0.0438,0.03472,-0.0451
13.1,1.7518,0.04424,0.03519,-0.0447
13.2,1.7585,0.04467,0.03564,-0.0442
13.3,1.7654,0.04508,0.03606,-0.0438
13.4,1.7728,0.04549,0.03646,-0.0435
13.5,1.776,0.0461,0.03712,-0.0429
13.6,1.7746,0.04689,0.03814,-0.0421
13.7,1.7733,0.04761,0.03903,-0.0413
13.8,1.7722,0.04832,0.03988,-0.0405
13.9,1.772,0.04902,0.0407,-0.0399
14,1.7725,0.04971,0.04153,-0.0395
14.1,1.7738,0.05039,0.0423,-0.0392
14.2,1.7758,0.05104,0.04305,-0.0391
14.3,1.7786,0.05167,0.04375,-0.039
14.4,1.7821,0.05226,0.0444,-0.0391
14.5,1.7863,0.05282,0.04501,-0.0391
14.6,1.7912,0.05335,0.04557,-0.0392
14.7,1.8003,0.05322,0.04534,-0.0389
14.8,1.8068,0.05368,0.04575,-0.0389
14.9,1.8001,0.05511,0.04749,-0.0406
15,1.7963,0.05653,0.04917,-0.0427
15.1,1.7944,0.05791,0.05076,-0.0451
15.2,1.7941,0.05925,0.05229,-0.0476
15.3,1.7952,0.06053,0.05373,-0.0502
15.4,1.7974,0.06174,0.05507,-0.0528
15.5,1.8008,0.06284,0.05628,-0.0552
15.6,1.8051,0.06383,0.05735,-0.0574
15.7,1.8103,0.06467,0.05826,-0.0591
15.8,1.8163,0.06535,0.05898,-0.0604
15.9,1.823,0.06589,0.05954,-0.0612
16,1.8302,0.06631,0.05997,-0.0616
16.1,1.8378,0.06663,0.06028,-0.0617
16.3,1.797,0.08559,0.0803,-0.1072
16.4,1.8025,0.08637,0.08111,-0.1085
16.5,1.8087,0.08689,0.08164,-0.1094
16.6,1.8153,0.08723,0.082,-0.1099
16.7,1.8223,0.08743,0.0822,-0.1101
16.8,1.8296,0.0875,0.08231,-0.1101
16.9,1.8372,0.08745,0.08226,-0.1099
17,1.845,0.0873,0.08211,-0.1094
17.4,1.8,0.11433,0.10947,-0.1517
17.5,1.8026,0.11606,0.11123,-0.1542
17.6,1.8064,0.11722,0.11242,-0.1559
17.7,1.8106,0.11817,0.11339,-0.1573
17.8,1.8152,0.11897,0.11422,-0.1585
17.9,1.8199,0.11967,0.11497,-0.1596
18,1.8247,0.1203,0.11562,-0.1606
18.1,1.8296,0.12086,0.1162,-0.1615
18.2,1.8346,0.12137,0.11674,-0.1623
18.3,1.8397,0.12182,0.11721,-0.163
18.4,1.8449,0.12224,0.11765,-0.1637
18.5,1.8501,0.12261,0.11805,-0.1644
18.6,1.8553,0.12295,0.11841,-0.1649
18.7,1.8605,0.12326,0.11873,-0.1655

