airfoilName st8.dat
Re 	430000
M 	2.500000e-01
N 	4.500000e+00
VACC 	0 VACCflag 1
XTR 	1.00 	1.00 XTRflag 0
alpha,cl,cd,cdp,cm
-30,-1.886,0.4216,0.41964,0.3564
-29.9,-1.8822,0.41897,0.41701,0.3541
-29.8,-1.8791,0.41716,0.41519,0.3519
-29.7,-1.8755,0.41484,0.41287,0.3496
-29.4,-1.8682,0.41141,0.40943,0.3438
-29.3,-1.8648,0.40931,0.40732,0.3415
-29.2,-1.8613,0.40718,0.4052,0.3393
-29.1,-1.8578,0.40506,0.40307,0.3371
-29,-1.8543,0.40293,0.40093,0.3349
-28.9,-1.8508,0.40078,0.39878,0.3327
-28.3,-1.8217,0.38022,0.37821,0.3157
-28.2,-1.8184,0.37833,0.37631,0.3137
-28.1,-1.8151,0.37642,0.3744,0.3117
-28,-1.8117,0.37453,0.37251,0.3096
-27.9,-1.8083,0.37264,0.37062,0.3076
-27.8,-1.8049,0.37076,0.36873,0.3056
-27.7,-1.8015,0.36891,0.36688,0.3036
-27.6,-1.798,0.36703,0.365,0.3016
-27.5,-1.7946,0.36517,0.36314,0.2996
-27.3,-1.7877,0.3617,0.35966,0.2957
-27.2,-1.7842,0.35985,0.3578,0.2937
-27.1,-1.7806,0.358,0.35595,0.2917
-27,-1.777,0.35614,0.35408,0.2898
-26.9,-1.7734,0.3543,0.35224,0.2878
-26.8,-1.7698,0.35245,0.35039,0.2858
-26.7,-1.7661,0.35061,0.34855,0.2839
-26.6,-1.7625,0.34877,0.3467,0.2819
-26.5,-1.7588,0.34694,0.34487,0.28
-26.4,-1.7551,0.3451,0.34303,0.278
-26.3,-1.7514,0.34327,0.3412,0.2761
-26.2,-1.7477,0.34144,0.33937,0.2742
-26.1,-1.744,0.33962,0.33754,0.2723
-26,-1.7402,0.3378,0.33572,0.2703
-25.9,-1.7364,0.33598,0.3339,0.2684
-25.8,-1.7326,0.33415,0.33207,0.2665
-25.7,-1.7288,0.33234,0.33025,0.2646
-25.6,-1.725,0.33052,0.32843,0.2627
-25.5,-1.7212,0.3287,0.32662,0.2608
-25.4,-1.7173,0.32689,0.3248,0.259
-25.3,-1.7135,0.32508,0.32299,0.2571
-25.2,-1.7096,0.32328,0.32118,0.2552
-25.1,-1.7057,0.32147,0.31937,0.2533
-25,-1.7018,0.31967,0.31756,0.2515
-24.9,-1.6979,0.31786,0.31575,0.2496
-24.8,-1.6939,0.31606,0.31395,0.2478
-24.7,-1.69,0.31426,0.31215,0.2459
-24.6,-1.686,0.31246,0.31034,0.2441
-24.5,-1.6821,0.31066,0.30855,0.2422
-24.4,-1.6781,0.30887,0.30675,0.2404
-24.3,-1.6741,0.30707,0.30495,0.2386
-24.2,-1.6701,0.30527,0.30315,0.2368
-24.1,-1.666,0.30348,0.30136,0.2349
-24,-1.662,0.30169,0.29956,0.2331
-23.9,-1.6579,0.2999,0.29777,0.2313
-23.8,-1.6539,0.2981,0.29597,0.2295
-23.7,-1.6498,0.29631,0.29418,0.2277
-23.6,-1.6457,0.29451,0.29237,0.2259
-23.5,-1.6416,0.29271,0.29058,0.2242
-23.4,-1.6375,0.29091,0.28877,0.2224
-23.3,-1.6333,0.28911,0.28697,0.2206
-23.2,-1.6291,0.2873,0.28516,0.2188
-23.1,-1.6249,0.28548,0.28333,0.217
-23,-1.6207,0.28367,0.28151,0.2153
-22.9,-1.6165,0.28183,0.27968,0.2135
-22.8,-1.6122,0.28,0.27784,0.2117
-22.7,-1.6079,0.27815,0.27599,0.2099
-22.6,-1.6036,0.27629,0.27413,0.2081
-22.5,-1.5993,0.27442,0.27226,0.2064
-22.4,-1.5949,0.27253,0.27037,0.2046
-22,-1.5697,0.25757,0.2554,0.1943
-21.9,-1.5658,0.25589,0.25371,0.1928
-21.8,-1.5619,0.25422,0.25204,0.1912
-21.7,-1.5579,0.25255,0.25037,0.1896
-21.6,-1.554,0.25089,0.24871,0.1881
-21.5,-1.55,0.24925,0.24706,0.1865
-21.4,-1.546,0.24761,0.24543,0.185
-21.3,-1.542,0.24598,0.2438,0.1834
-21.2,-1.5379,0.24437,0.24218,0.1819
-21.1,-1.5339,0.24277,0.24057,0.1803
-21,-1.5298,0.24117,0.23898,0.1788
-20.9,-1.5257,0.23957,0.23738,0.1772
-20.8,-1.5215,0.23799,0.2358,0.1757
-20.7,-1.5174,0.23642,0.23422,0.1742
-20.6,-1.5132,0.23484,0.23264,0.1727
-20.5,-1.5091,0.23328,0.23107,0.1711
-20.4,-1.5049,0.23172,0.22951,0.1696
-20.3,-1.5007,0.23016,0.22795,0.1681
-20.2,-1.4964,0.22861,0.2264,0.1666
-20.1,-1.4922,0.22707,0.22486,0.1651
-20,-1.4879,0.22552,0.22331,0.1636
-19.9,-1.4836,0.22397,0.22175,0.1621
-19.8,-1.4793,0.22243,0.22021,0.1607
-19.7,-1.475,0.22089,0.21867,0.1592
-19.6,-1.4706,0.21935,0.21714,0.1577
-19.5,-1.4662,0.21781,0.21559,0.1562
-19.4,-1.4618,0.21626,0.21404,0.1547
-19.3,-1.4573,0.21472,0.2125,0.1532
-19.2,-1.4528,0.21317,0.21095,0.1518
-19.1,-1.4483,0.21163,0.20941,0.1503
-19,-1.4438,0.21008,0.20786,0.1488
-18.9,-1.4393,0.20854,0.20631,0.1473
-18.8,-1.4347,0.20699,0.20476,0.1459
-18.7,-1.4301,0.20543,0.20321,0.1444
-18.6,-1.4255,0.20388,0.20166,0.1429
-18.5,-1.4208,0.20232,0.20009,0.1415
-18.4,-1.4161,0.20077,0.19853,0.14
-18.3,-1.4114,0.1992,0.19697,0.1385
-18.2,-1.4067,0.19764,0.19541,0.1371
-18.1,-1.4019,0.19607,0.19384,0.1356
-18,-1.3971,0.1945,0.19226,0.1342
-17.9,-1.3923,0.19293,0.19069,0.1327
-17.8,-1.3874,0.19136,0.18912,0.1312
-17.7,-1.3825,0.18977,0.18754,0.1298
-17.6,-1.3776,0.18819,0.18595,0.1283
-17.5,-1.3727,0.1866,0.18437,0.1269
-17.4,-1.3676,0.18502,0.18278,0.1254
-17.3,-1.3626,0.18342,0.18118,0.124
-17.2,-1.3575,0.18182,0.17958,0.1225
-17.1,-1.3524,0.18022,0.17798,0.121
-17,-1.3472,0.17861,0.17637,0.1196
-16.9,-1.342,0.17699,0.17475,0.1181
-16.7,-1.3312,0.17373,0.17149,0.115
-16.6,-1.3259,0.17208,0.16984,0.1136
-16.5,-1.3206,0.17044,0.1682,0.1121
-16.4,-1.3152,0.16879,0.16655,0.1106
-16.3,-1.3098,0.16714,0.16489,0.1092
-16.2,-1.3044,0.16548,0.16323,0.1077
-16.1,-1.299,0.16381,0.16155,0.1062
-16,-1.2935,0.16214,0.15988,0.1047
-15.9,-1.288,0.16044,0.15819,0.1033
-15.8,-1.2824,0.15874,0.15648,0.1018
-15.7,-1.2769,0.15701,0.15476,0.1003
-15.6,-1.2712,0.15526,0.153,0.0988
-15.5,-1.2656,0.15344,0.15119,0.0972
-15.4,-1.2599,0.15157,0.14931,0.0957
-15.3,-1.2541,0.14958,0.14732,0.0941
-15.2,-1.2482,0.14742,0.14516,0.0924
-15.1,-1.24,0.14094,0.13868,0.0889
-15,-1.2347,0.13955,0.13729,0.0876
-14.9,-1.2293,0.1382,0.13594,0.0862
-14.8,-1.2238,0.13685,0.13459,0.0848
-14.7,-1.2182,0.13551,0.13325,0.0834
-14.6,-1.2125,0.1342,0.13194,0.082
-14.5,-1.2068,0.1329,0.13064,0.0806
-14.4,-1.201,0.13161,0.12935,0.0792
-14.3,-1.1951,0.13033,0.12808,0.0778
-14.2,-1.1891,0.12906,0.12681,0.0764
-14.1,-1.183,0.12779,0.12554,0.075
-14,-1.1769,0.12652,0.12427,0.0735
-13.9,-1.1707,0.12527,0.12302,0.0721
-13.8,-1.1644,0.12402,0.12177,0.0707
-13.7,-1.1581,0.12276,0.12052,0.0692
-13.6,-1.1516,0.12153,0.11927,0.0678
-13.5,-1.1452,0.12028,0.11803,0.0663
-13.4,-1.1386,0.11906,0.11681,0.0648
-13.3,-1.132,0.11783,0.11558,0.0634
-13.2,-1.1254,0.1166,0.11436,0.0619
-13.1,-1.1186,0.11537,0.11313,0.0604
-13,-1.1118,0.11415,0.11191,0.0589
-12.9,-1.1049,0.11292,0.11068,0.0574
-12.8,-1.0979,0.1117,0.10947,0.0559
-12.7,-1.0908,0.11047,0.10823,0.0543
-12.6,-1.0837,0.10925,0.10702,0.0528
-12.5,-1.0765,0.10802,0.10579,0.0512
-12.4,-1.0692,0.10679,0.10457,0.0496
-12.3,-1.0619,0.10557,0.10335,0.048
-12.2,-1.0544,0.10434,0.10212,0.0464
-12.1,-1.0468,0.10309,0.10088,0.0448
-12,-1.0392,0.10185,0.09963,0.0431
-11.9,-1.0314,0.1006,0.09838,0.0414
-11.8,-1.0236,0.09934,0.09713,0.0397
-11.7,-1.0157,0.09807,0.09586,0.038
-11.6,-1.0076,0.09678,0.09458,0.0362
-11.5,-0.9994,0.09548,0.09327,0.0344
-11.4,-0.9911,0.09416,0.09195,0.0326
-10,-0.7944,0.0381,0.03514,-0.0561
-9.5,-0.7496,0.02406,0.01942,-0.0672
-9.4,-0.7394,0.02319,0.01839,-0.0673
-9.3,-0.729,0.02245,0.01748,-0.0674
-9.2,-0.7183,0.0218,0.0167,-0.0674
-9.1,-0.7048,0.02114,0.01596,-0.068
-9,-0.6916,0.0206,0.01535,-0.0685
-8.9,-0.6782,0.02012,0.0148,-0.0689
-8.8,-0.6645,0.01967,0.01429,-0.0694
-8.7,-0.6512,0.01927,0.01382,-0.0697
-8.6,-0.637,0.01887,0.01336,-0.0702
-8.5,-0.6238,0.0185,0.01293,-0.0705
-8.4,-0.6107,0.01815,0.01251,-0.0708
-8.3,-0.5975,0.01781,0.0121,-0.071
-8.2,-0.5835,0.01746,0.01169,-0.0714
-8.1,-0.5699,0.01713,0.0113,-0.0717
-8,-0.557,0.01681,0.01092,-0.0719
-7.9,-0.5436,0.0165,0.01054,-0.0721
-7.8,-0.5304,0.0162,0.01018,-0.0723
-7.7,-0.5172,0.0159,0.00982,-0.0725
-7.6,-0.5038,0.01563,0.00947,-0.0727
-7.5,-0.491,0.01537,0.00915,-0.0728
-7.4,-0.4782,0.01514,0.00885,-0.0729
-7.3,-0.4654,0.01488,0.00857,-0.073
-7.2,-0.4524,0.01465,0.0083,-0.0731
-7.1,-0.44,0.01459,0.00827,-0.0731
-7,-0.4275,0.0144,0.00804,-0.0732
-6.9,-0.415,0.01421,0.00781,-0.0732
-6.8,-0.4026,0.01403,0.00759,-0.0731
-6.7,-0.3902,0.01385,0.00737,-0.0731
-6.6,-0.3779,0.01367,0.00715,-0.073
-6.5,-0.3656,0.0135,0.00694,-0.073
-6.4,-0.3536,0.01335,0.00674,-0.0728
-6.3,-0.3413,0.01321,0.00655,-0.0728
-6.2,-0.3291,0.01302,0.00636,-0.0728
-6.1,-0.3168,0.01286,0.00618,-0.0727
-6,-0.3047,0.01273,0.00602,-0.0727
-5.9,-0.2928,0.01261,0.00588,-0.0725
-5.8,-0.2805,0.01248,0.00573,-0.0725
-5.7,-0.2682,0.01236,0.00558,-0.0724
-5.6,-0.256,0.01225,0.00543,-0.0724
-5.5,-0.2439,0.01215,0.00529,-0.0723
-5.4,-0.2318,0.01205,0.00515,-0.0722
-5.2,-0.2074,0.01183,0.00494,-0.0721
-5.1,-0.1952,0.01173,0.00482,-0.0721
-5,-0.1828,0.01163,0.0047,-0.0721
-4.8,-0.1586,0.01147,0.00446,-0.0719
-4.7,-0.1462,0.01138,0.00435,-0.0719
-4.6,-0.1339,0.01127,0.00424,-0.0719
-4.5,-0.1217,0.01119,0.00417,-0.0719
-4.4,-0.1095,0.01111,0.00407,-0.0718
-4.3,-0.097,0.01104,0.00397,-0.0719
-4.2,-0.0849,0.01098,0.00388,-0.0718
-4.1,-0.0727,0.0109,0.00378,-0.0718
-4,-0.0603,0.01082,0.00369,-0.0718
-3.9,-0.0479,0.01074,0.00361,-0.0718
-3.8,-0.0356,0.01068,0.00353,-0.0718
-3.7,-0.0234,0.01064,0.00347,-0.0718
-3.6,-0.0112,0.01057,0.00339,-0.0718
-3.5,0.0012,0.01051,0.00332,-0.0718
-3.4,0.0134,0.01046,0.00325,-0.0718
-3.3,0.0252,0.01044,0.00318,-0.0717
-3.2,0.0376,0.01039,0.00312,-0.0717
-3.1,0.05,0.01033,0.00306,-0.0717
-3,0.0616,0.01034,0.003,-0.0716
-2.9,0.0738,0.0103,0.00295,-0.0716
-2.8,0.0862,0.01024,0.0029,-0.0716
-2.7,0.0985,0.0102,0.00285,-0.0717
-2.6,0.1106,0.01019,0.0028,-0.0716
-2.5,0.1229,0.01015,0.00276,-0.0717
-2.4,0.1351,0.01011,0.00272,-0.0717
-2.3,0.1475,0.01006,0.00269,-0.0718
-2.2,0.1596,0.01006,0.00266,-0.0718
-2.1,0.1714,0.01007,0.00262,-0.0717
-2,0.1837,0.01005,0.00259,-0.0718
-1.9,0.1959,0.01002,0.00255,-0.0718
-1.8,0.2082,0.00996,0.00253,-0.0719
-1.7,0.2204,0.00995,0.0025,-0.072
-1.6,0.2327,0.00992,0.00248,-0.0721
-1.5,0.2444,0.00997,0.00246,-0.072
-1.4,0.2565,0.00994,0.00245,-0.0721
-1.3,0.2686,0.00995,0.00244,-0.0721
-1.2,0.2808,0.00994,0.00243,-0.0722
-1.1,0.2929,0.00995,0.00242,-0.0722
-1,0.3051,0.00992,0.00242,-0.0723
-0.9,0.3174,0.00991,0.0024,-0.0724
-0.8,0.3293,0.00995,0.00241,-0.0724
-0.7,0.3415,0.00996,0.00241,-0.0725
-0.6,0.3537,0.00991,0.00241,-0.0726
-0.5,0.3659,0.00991,0.0024,-0.0727
-0.4,0.3781,0.00991,0.0024,-0.0728
-0.3,0.3903,0.0099,0.0024,-0.0729
-0.2,0.4024,0.00986,0.00242,-0.073
-0.1,0.4147,0.00984,0.00242,-0.0731
0,0.4265,0.00988,0.00244,-0.0732
0.1,0.4386,0.00982,0.00245,-0.0733
0.2,0.4507,0.0098,0.00245,-0.0734
0.3,0.4628,0.00979,0.00247,-0.0735
0.4,0.4747,0.00968,0.00248,-0.0736
0.5,0.4867,0.00965,0.00249,-0.0737
0.6,0.4986,0.00959,0.00251,-0.0737
0.8,0.5206,0.00925,0.00256,-0.0735
0.9,0.5305,0.0092,0.0026,-0.0731
1,0.5398,0.00912,0.00263,-0.0724
1.1,0.5443,0.00892,0.0026,-0.0704
1.2,0.556,0.00893,0.00257,-0.0702
1.3,0.5706,0.00894,0.00253,-0.0708
1.4,0.5826,0.00904,0.00257,-0.0708
1.5,0.5945,0.00915,0.00262,-0.0709
1.6,0.6064,0.00926,0.00266,-0.0709
1.7,0.6179,0.00944,0.00274,-0.0709
1.8,0.6297,0.00957,0.00278,-0.0709
1.9,0.6416,0.00969,0.00284,-0.071
2,0.6534,0.00982,0.00291,-0.071
2.1,0.6651,0.00995,0.00297,-0.071
2.2,0.6769,0.01008,0.00303,-0.0711
2.3,0.6888,0.0102,0.0031,-0.0711
2.4,0.7007,0.01033,0.00317,-0.0712
2.5,0.7126,0.01043,0.00322,-0.0712
2.6,0.7242,0.01059,0.00331,-0.0712
2.7,0.7363,0.01069,0.00337,-0.0713
2.8,0.7483,0.01078,0.00343,-0.0713
2.9,0.7602,0.01089,0.0035,-0.0714
3,0.7722,0.01099,0.00357,-0.0714
3.1,0.7842,0.01107,0.00363,-0.0715
3.2,0.7963,0.01116,0.0037,-0.0715
3.3,0.8082,0.01126,0.00376,-0.0715
3.4,0.8201,0.01137,0.00385,-0.0716
3.5,0.8322,0.01145,0.00391,-0.0716
3.6,0.8441,0.01155,0.00398,-0.0717
3.7,0.8561,0.01164,0.00405,-0.0717
3.8,0.8679,0.01175,0.00413,-0.0717
3.9,0.8799,0.01184,0.00421,-0.0718
4,0.892,0.01192,0.00427,-0.0718
4.1,0.904,0.01201,0.00435,-0.0718
4.2,0.9159,0.0121,0.00442,-0.0719
4.3,0.9278,0.01219,0.00449,-0.0719
4.4,0.9397,0.0123,0.00457,-0.0719
4.5,0.9516,0.0124,0.00467,-0.0719
4.6,0.9636,0.01248,0.00474,-0.072
4.7,0.9755,0.01258,0.00482,-0.072
4.8,0.9873,0.01267,0.0049,-0.072
4.9,0.9992,0.01277,0.00498,-0.072
5,1.0109,0.01289,0.00507,-0.072
5.1,1.0228,0.01298,0.00516,-0.072
5.2,1.0348,0.01307,0.00524,-0.072
5.3,1.0467,0.01316,0.00533,-0.072
5.4,1.0585,0.01325,0.00542,-0.072
5.5,1.0704,0.01335,0.00551,-0.072
5.6,1.0821,0.01346,0.00561,-0.072
5.7,1.0936,0.0136,0.00571,-0.072
5.8,1.1055,0.01369,0.0058,-0.072
5.9,1.1174,0.01378,0.00589,-0.072
6,1.1292,0.01388,0.00599,-0.072
6.1,1.1409,0.01398,0.00608,-0.072
6.2,1.1526,0.01409,0.00619,-0.072
6.3,1.1643,0.0142,0.00629,-0.0719
6.4,1.1759,0.01432,0.0064,-0.0719
6.5,1.1874,0.01445,0.00652,-0.0719
6.6,1.1992,0.01454,0.00662,-0.0718
6.7,1.211,0.01464,0.00673,-0.0718
6.8,1.2226,0.01475,0.00683,-0.0718
6.9,1.2342,0.01487,0.00694,-0.0717
7,1.2458,0.01499,0.00705,-0.0717
7.1,1.2572,0.01511,0.00717,-0.0716
7.2,1.2686,0.01525,0.0073,-0.0715
7.3,1.2802,0.01537,0.00742,-0.0715
7.4,1.2918,0.01547,0.00754,-0.0714
7.5,1.3034,0.01558,0.00766,-0.0714
7.6,1.3149,0.0157,0.00778,-0.0713
7.7,1.3264,0.01582,0.00791,-0.0712
7.8,1.3378,0.01595,0.00803,-0.0711
7.9,1.349,0.0161,0.00816,-0.071
8,1.3601,0.01625,0.0083,-0.0709
8.1,1.3715,0.01638,0.00844,-0.0708
8.2,1.383,0.01649,0.00858,-0.0707
8.3,1.3944,0.01662,0.00871,-0.0706
8.4,1.4057,0.01674,0.00885,-0.0705
8.5,1.417,0.01688,0.00899,-0.0704
8.6,1.4282,0.01702,0.00913,-0.0703
8.7,1.4393,0.01716,0.00928,-0.0702
8.8,1.4503,0.01732,0.00943,-0.07
8.9,1.4612,0.01748,0.0096,-0.0698
9,1.4722,0.01764,0.00976,-0.0697
9.1,1.4835,0.01775,0.0099,-0.0696
9.2,1.4946,0.01789,0.01005,-0.0694
9.3,1.5057,0.01804,0.01021,-0.0693
9.4,1.5166,0.01819,0.01037,-0.0691
9.5,1.5275,0.01834,0.01054,-0.0689
9.6,1.5383,0.01851,0.0107,-0.0687
9.7,1.5489,0.01868,0.01088,-0.0685
9.8,1.5594,0.01886,0.01106,-0.0683
9.9,1.5699,0.01904,0.01125,-0.0681
10,1.5809,0.01919,0.01143,-0.0679
10.1,1.5917,0.01934,0.01161,-0.0676
10.2,1.6023,0.0195,0.01179,-0.0674
10.3,1.6129,0.01966,0.01196,-0.0672
10.4,1.6234,0.01983,0.01215,-0.0669
10.5,1.6336,0.02001,0.01234,-0.0667
10.6,1.6438,0.0202,0.01254,-0.0664
10.7,1.6538,0.0204,0.01275,-0.0661
10.8,1.6637,0.02062,0.01296,-0.0658
10.9,1.6739,0.0208,0.01318,-0.0655
11,1.6842,0.02097,0.01338,-0.0652
11.1,1.6944,0.02115,0.0136,-0.0649
11.2,1.7044,0.02133,0.01381,-0.0645
11.3,1.7143,0.02152,0.01403,-0.0642
11.4,1.7241,0.02172,0.01425,-0.0638
11.5,1.7337,0.02192,0.01447,-0.0635
11.6,1.7431,0.02214,0.01471,-0.0631
11.7,1.752,0.02237,0.01493,-0.0626
11.8,1.7609,0.02261,0.01518,-0.0622
11.9,1.7697,0.02285,0.01544,-0.0617
12,1.7792,0.02304,0.01568,-0.0613
12.1,1.7884,0.02325,0.01592,-0.0609
12.2,1.7974,0.02346,0.01617,-0.0604
12.3,1.8061,0.02368,0.01643,-0.0599
12.4,1.8146,0.02391,0.0167,-0.0594
12.5,1.8229,0.02415,0.01696,-0.0588
12.6,1.8309,0.02439,0.01724,-0.0582
12.7,1.8386,0.02464,0.01751,-0.0576
12.8,1.846,0.0249,0.0178,-0.0569
12.9,1.853,0.02517,0.01809,-0.0562
13,1.8588,0.02549,0.0184,-0.0554
13.1,1.8657,0.02575,0.01871,-0.0547
13.2,1.8724,0.02599,0.019,-0.0539
13.3,1.8781,0.02625,0.0193,-0.053
13.4,1.8834,0.02652,0.01962,-0.052
13.5,1.8886,0.02681,0.01995,-0.0511
13.6,1.8938,0.02711,0.0203,-0.0502
13.7,1.8989,0.02742,0.02065,-0.0493
13.8,1.9039,0.02775,0.02102,-0.0485
13.9,1.9089,0.02809,0.0214,-0.0477
14,1.9137,0.02845,0.02179,-0.0469
14.1,1.9185,0.02882,0.02221,-0.0462
14.2,1.9231,0.0292,0.02263,-0.0455
14.3,1.9275,0.02961,0.02307,-0.0449
14.4,1.9317,0.03004,0.02354,-0.0443
14.5,1.9357,0.0305,0.02403,-0.0437
14.6,1.9403,0.03094,0.02452,-0.0433
14.7,1.946,0.03132,0.02497,-0.0428
14.8,1.9524,0.03166,0.02537,-0.0425
14.9,1.9578,0.03207,0.02582,-0.0422
15,1.9628,0.03253,0.02633,-0.0419
15.1,1.9676,0.033,0.02685,-0.0417
15.2,1.9723,0.03349,0.02739,-0.0415
15.3,1.977,0.034,0.02795,-0.0414
15.4,1.9816,0.03454,0.02854,-0.0414
15.5,1.9861,0.0351,0.02914,-0.0415
15.6,1.9905,0.03569,0.02978,-0.0416
15.7,1.9948,0.03631,0.03044,-0.0419
15.8,1.9989,0.03698,0.03115,-0.0423
15.9,2.0036,0.03761,0.03184,-0.0427
16,2.0093,0.03817,0.03248,-0.043
16.1,2.0158,0.03867,0.03306,-0.0434
16.2,2.0211,0.03931,0.03376,-0.0439
16.3,2.0263,0.03997,0.03449,-0.0446
16.4,2.0315,0.04066,0.03525,-0.0453
16.5,2.0367,0.04138,0.03603,-0.0462
16.6,2.0418,0.04214,0.03685,-0.0472
16.7,2.0468,0.04293,0.03771,-0.0483
16.8,2.0518,0.04377,0.03861,-0.0496
16.9,2.0564,0.04472,0.03959,-0.0512
17,2.0609,0.04571,0.04064,-0.0528
17.1,2.0651,0.04678,0.04177,-0.0547
17.2,2.0711,0.04758,0.04266,-0.056
17.3,2.0763,0.04854,0.04371,-0.0576
17.4,2.0811,0.04957,0.04482,-0.0593
17.5,2.0857,0.05067,0.04601,-0.0613
17.6,2.09,0.05184,0.04726,-0.0633
17.7,2.0939,0.0531,0.0486,-0.0656
17.8,2.0973,0.05444,0.05003,-0.0679
17.9,2.1004,0.05589,0.05156,-0.0705
18,2.1028,0.05746,0.05321,-0.0732
18.1,2.1046,0.05915,0.05499,-0.0762
18.2,2.1056,0.06099,0.05691,-0.0793
18.3,2.1058,0.06299,0.05901,-0.0827
18.4,2.105,0.06516,0.06128,-0.0862
18.5,2.1032,0.06754,0.06374,-0.0901
18.6,2.1004,0.07008,0.06637,-0.0941
18.7,2.0982,0.07246,0.06886,-0.0977
18.8,2.0961,0.07478,0.07128,-0.1011
18.9,2.0934,0.07722,0.07383,-0.1047
19,2.09,0.07978,0.07649,-0.1084
19.1,2.0861,0.08241,0.07922,-0.1122
19.2,2.0819,0.08506,0.08196,-0.116
19.4,2.072,0.09062,0.08769,-0.1241
19.5,2.0672,0.09327,0.09042,-0.128
19.6,2.0619,0.09597,0.0932,-0.132
19.7,2.0573,0.09848,0.09577,-0.1357
19.8,2.052,0.1011,0.09847,-0.1397
19.9,2.0474,0.10356,0.10098,-0.1435
20,2.0425,0.10608,0.10355,-0.1474
20.1,2.0384,0.1084,0.10592,-0.151
20.2,2.0336,0.1109,0.10847,-0.1549
20.3,2.0302,0.11308,0.11068,-0.1584
20.4,2.0262,0.11543,0.11306,-0.1621
20.6,2.0129,0.12183,0.11965,-0.171
20.7,2.007,0.12495,0.12284,-0.1753
20.8,2.0014,0.12803,0.12598,-0.1794
20.9,1.9972,0.13083,0.12884,-0.1832
21,1.9934,0.13357,0.13162,-0.1868
21.1,1.9892,0.13652,0.13461,-0.1906
21.2,1.9876,0.1388,0.13692,-0.1936
21.3,1.9891,0.14031,0.1384,-0.1957
21.5,1.9764,0.14778,0.146,-0.2046
21.6,1.9612,0.15432,0.15265,-0.2119
21.7,1.9415,0.16269,0.16113,-0.2208
21.8,1.9378,0.16617,0.16464,-0.2247
21.9,1.9408,0.16739,0.16586,-0.2263
22,1.9449,0.16823,0.16671,-0.2275
22.1,1.9502,0.1687,0.16716,-0.2283
22.2,1.9557,0.16905,0.16751,-0.229
22.4,1.9259,0.18508,0.18367,-0.2449
22.5,1.929,0.18632,0.18492,-0.2465
22.6,1.933,0.18719,0.18579,-0.2477
22.7,1.9375,0.18781,0.18641,-0.2487
22.8,1.9424,0.18829,0.18689,-0.2495
23.1,1.934,0.20024,0.19891,-0.2613
23.2,1.9379,0.20109,0.19976,-0.2625
23.3,1.942,0.20182,0.20049,-0.2636
23.6,1.9415,0.21091,0.20963,-0.2726
23.7,1.9449,0.212,0.21073,-0.274
23.8,1.9485,0.21295,0.21168,-0.2753
23.9,1.9523,0.21373,0.21246,-0.2764
24,1.9533,0.2162,0.21494,-0.2789
24.1,1.9543,0.21869,0.21744,-0.2815
24.2,1.9565,0.22045,0.21922,-0.2834
24.3,1.9592,0.22191,0.22068,-0.2851
24.4,1.962,0.22324,0.22201,-0.2867
24.5,1.9651,0.22445,0.22322,-0.2882
24.6,1.9684,0.22549,0.22426,-0.2896
24.7,1.9716,0.22656,0.22532,-0.2909
24.8,1.9751,0.22748,0.22624,-0.2922
24.9,1.9764,0.22972,0.2285,-0.2946
25,1.9778,0.23196,0.23075,-0.2969
25.1,1.9793,0.23412,0.23292,-0.2992
25.2,1.981,0.23619,0.23501,-0.3014
25.3,1.9831,0.238,0.23683,-0.3034
25.4,1.9852,0.23973,0.23856,-0.3054
25.5,1.9877,0.24128,0.24012,-0.3071
25.6,1.9901,0.24283,0.24167,-0.3089
25.7,1.9927,0.2442,0.24305,-0.3106
25.8,1.9966,0.24467,0.24347,-0.3115
25.9,1.999,0.24618,0.24499,-0.3133
26,2.0004,0.24841,0.24723,-0.3156
26.1,2.0019,0.25061,0.24945,-0.318
26.2,2.0035,0.25275,0.2516,-0.3203
26.3,2.0052,0.25486,0.25373,-0.3225
26.4,2.0069,0.25689,0.25577,-0.3247
26.5,2.0088,0.25886,0.25775,-0.3269
26.6,2.0107,0.2608,0.25969,-0.329
26.7,2.0126,0.2627,0.2616,-0.3311
26.8,2.0146,0.26453,0.26344,-0.3331
26.9,2.0166,0.26633,0.26524,-0.3352
27,2.0188,0.26792,0.26685,-0.337
27.1,2.021,0.26949,0.26842,-0.3389
27.2,2.0233,0.27092,0.26985,-0.3406
27.3,2.0256,0.27242,0.27136,-0.3425
27.4,2.028,0.27375,0.27268,-0.3441
27.5,2.0303,0.27511,0.27405,-0.3458
27.6,2.0327,0.27633,0.27526,-0.3475
27.7,2.0352,0.27747,0.2764,-0.349
27.8,2.0376,0.27872,0.27766,-0.3507
27.9,2.0387,0.28137,0.28031,-0.3534
28,2.0361,0.28981,0.28881,-0.3603
28.1,2.0375,0.29306,0.29207,-0.3633
28.2,2.0393,0.2955,0.29452,-0.3658
28.3,2.0413,0.29765,0.29668,-0.3681
28.4,2.0433,0.29962,0.29865,-0.3702
28.5,2.0454,0.30148,0.30052,-0.3723
28.6,2.0475,0.30321,0.30226,-0.3743
28.7,2.0496,0.30493,0.30399,-0.3763
28.9,2.0539,0.30745,0.30652,-0.3797
29,2.056,0.30896,0.30803,-0.3816
29.1,2.0581,0.31044,0.30952,-0.3834
29.2,2.0601,0.31192,0.311,-0.3853
29.3,2.0622,0.31332,0.3124,-0.3871
29.4,2.0642,0.31468,0.31376,-0.3889
29.5,2.0662,0.31612,0.31521,-0.3908
29.6,2.0682,0.3174,0.31649,-0.3926
29.7,2.0702,0.31869,0.31779,-0.3943

