airfoilName st8.dat
Re 	4.100000e+05
M 	2.500000e-01
N 	4.500000e+00
VACC 	0 VACCflag 1
XTR 	1.00 	1.00 XTRflag 0
alpha,cl,cd,cdp,cm
-30,-1.8823,0.42502,0.42299,0.3552
-29.9,-1.8786,0.42268,0.42066,0.3529
-29.8,-1.8756,0.42071,0.41868,0.3508
-29.4,-1.8646,0.41371,0.41167,0.3425
-29.3,-1.861,0.41145,0.4094,0.3403
-29.2,-1.8574,0.4092,0.40714,0.338
-28.6,-1.8319,0.38638,0.38431,0.3218
-28.5,-1.8286,0.38447,0.38239,0.3198
-28.4,-1.8253,0.38255,0.38047,0.3178
-28.3,-1.822,0.38065,0.37857,0.3157
-28.2,-1.8187,0.37876,0.37668,0.3137
-28.1,-1.8153,0.37686,0.37478,0.3117
-28,-1.8119,0.37498,0.3729,0.3097
-27.9,-1.8085,0.3731,0.37102,0.3077
-27.8,-1.8051,0.37122,0.36913,0.3057
-27.7,-1.8016,0.36938,0.36729,0.3037
-27.6,-1.7981,0.3675,0.36541,0.3016
-27.5,-1.7946,0.36564,0.36355,0.2997
-27.4,-1.7912,0.36402,0.36193,0.2977
-27.3,-1.7877,0.36216,0.36006,0.2957
-27.2,-1.7841,0.3603,0.35819,0.2937
-27.1,-1.7806,0.35845,0.35634,0.2917
-27,-1.7769,0.35658,0.35447,0.2897
-26.9,-1.7733,0.35474,0.35263,0.2878
-26.8,-1.7697,0.35288,0.35076,0.2858
-26.7,-1.766,0.35104,0.34892,0.2838
-26.6,-1.7624,0.34919,0.34707,0.2819
-26.5,-1.7587,0.34735,0.34523,0.2799
-26.4,-1.755,0.34551,0.34338,0.278
-26.3,-1.7512,0.34367,0.34154,0.2761
-26.2,-1.7475,0.34183,0.3397,0.2741
-26.1,-1.7438,0.34,0.33787,0.2722
-26,-1.74,0.33818,0.33604,0.2703
-25.9,-1.7362,0.33635,0.33421,0.2684
-25.8,-1.7324,0.33451,0.33237,0.2664
-25.7,-1.7286,0.33269,0.33054,0.2645
-25.6,-1.7247,0.33086,0.32871,0.2626
-25.5,-1.7209,0.32904,0.32689,0.2607
-25.4,-1.717,0.32722,0.32507,0.2589
-25.3,-1.7132,0.3254,0.32325,0.257
-25.2,-1.7093,0.32358,0.32142,0.2551
-25.1,-1.7054,0.32178,0.31961,0.2532
-25,-1.7015,0.31996,0.31779,0.2514
-24.9,-1.6975,0.31815,0.31597,0.2495
-24.8,-1.6936,0.31633,0.31416,0.2476
-24.7,-1.6896,0.31453,0.31235,0.2458
-24.6,-1.6856,0.31272,0.31054,0.244
-24.5,-1.6817,0.31091,0.30873,0.2421
-24.4,-1.6777,0.30911,0.30693,0.2403
-24.3,-1.6737,0.3073,0.30511,0.2384
-24.2,-1.6696,0.30549,0.3033,0.2366
-24.1,-1.6656,0.30369,0.3015,0.2348
-24,-1.6615,0.30188,0.29969,0.233
-23.9,-1.6575,0.30008,0.29788,0.2312
-23.8,-1.6534,0.29827,0.29608,0.2294
-23.7,-1.6493,0.29646,0.29427,0.2276
-23.6,-1.6452,0.29465,0.29245,0.2258
-23.5,-1.6411,0.29284,0.29064,0.224
-23.4,-1.6369,0.29102,0.28882,0.2222
-23.3,-1.6327,0.28919,0.28699,0.2204
-23.2,-1.6285,0.28737,0.28516,0.2186
-23.1,-1.6243,0.28553,0.28331,0.2168
-23,-1.6201,0.28368,0.28146,0.215
-22.9,-1.6158,0.28182,0.2796,0.2132
-22.8,-1.6115,0.27995,0.27772,0.2114
-22.7,-1.6072,0.27806,0.27583,0.2096
-22.3,-1.5817,0.26303,0.2608,0.1992
-22.2,-1.5778,0.26133,0.25909,0.1976
-22.1,-1.5739,0.25964,0.2574,0.196
-22,-1.57,0.25796,0.25572,0.1944
-21.9,-1.5661,0.25629,0.25405,0.1928
-21.8,-1.5621,0.25464,0.25239,0.1912
-21.7,-1.5581,0.25299,0.25074,0.1897
-21.6,-1.5541,0.25135,0.2491,0.1881
-21.5,-1.5501,0.24972,0.24747,0.1865
-21.4,-1.5461,0.2481,0.24585,0.185
-21.3,-1.542,0.24649,0.24423,0.1834
-21.2,-1.5379,0.24488,0.24263,0.1819
-21.1,-1.5338,0.24329,0.24103,0.1803
-21,-1.5297,0.2417,0.23944,0.1788
-20.9,-1.5255,0.2401,0.23785,0.1772
-20.8,-1.5214,0.23853,0.23627,0.1757
-20.7,-1.5172,0.23696,0.23469,0.1742
-20.6,-1.513,0.23538,0.23311,0.1726
-20.5,-1.5088,0.23382,0.23155,0.1711
-20.4,-1.5046,0.23226,0.22999,0.1696
-20.3,-1.5004,0.2307,0.22842,0.1681
-20.2,-1.4961,0.22914,0.22686,0.1666
-20.1,-1.4918,0.2276,0.22532,0.1651
-20,-1.4875,0.22604,0.22376,0.1636
-19.9,-1.4832,0.22448,0.2222,0.1621
-19.8,-1.4789,0.22294,0.22066,0.1606
-19.7,-1.4745,0.22139,0.21911,0.1591
-19.6,-1.4702,0.21985,0.21756,0.1576
-19.5,-1.4657,0.21829,0.21601,0.1561
-19.4,-1.4613,0.21674,0.21445,0.1546
-19.3,-1.4568,0.21519,0.2129,0.1532
-19.2,-1.4523,0.21363,0.21134,0.1517
-19.1,-1.4478,0.21208,0.20979,0.1502
-19,-1.4433,0.21052,0.20823,0.1487
-18.9,-1.4387,0.20896,0.20668,0.1472
-18.8,-1.4341,0.2074,0.20511,0.1458
-18.7,-1.4295,0.20584,0.20355,0.1443
-18.6,-1.4249,0.20427,0.20198,0.1428
-18.5,-1.4202,0.2027,0.20041,0.1414
-18.4,-1.4155,0.20113,0.19884,0.1399
-18.3,-1.4108,0.19956,0.19726,0.1384
-18.2,-1.406,0.19798,0.19568,0.137
-18.1,-1.4012,0.1964,0.1941,0.1355
-18,-1.3964,0.19482,0.19252,0.134
-17.9,-1.3916,0.19323,0.19093,0.1326
-17.8,-1.3867,0.19165,0.18934,0.1311
-17.7,-1.3818,0.19005,0.18775,0.1297
-17.6,-1.3769,0.18846,0.18615,0.1282
-17.5,-1.3719,0.18685,0.18455,0.1267
-17.4,-1.3669,0.18525,0.18295,0.1253
-17.3,-1.3619,0.18364,0.18133,0.1238
-17.2,-1.3568,0.18203,0.17972,0.1224
-17.1,-1.3516,0.18041,0.1781,0.1209
-17,-1.3465,0.17878,0.17647,0.1194
-16.8,-1.3357,0.17546,0.17315,0.1163
-16.7,-1.3304,0.17381,0.1715,0.1149
-16.6,-1.3251,0.17213,0.16983,0.1134
-16.5,-1.3198,0.17047,0.16816,0.1119
-16.4,-1.3144,0.16878,0.16647,0.1104
-16.3,-1.309,0.1671,0.16479,0.109
-16.2,-1.3036,0.16541,0.16309,0.1075
-16.1,-1.2981,0.16369,0.16137,0.106
-16,-1.2926,0.16197,0.15965,0.1045
-15.9,-1.2871,0.16022,0.1579,0.103
-15.8,-1.2815,0.15844,0.15611,0.1015
-15.7,-1.2759,0.15661,0.15429,0.1
-15.6,-1.2702,0.1547,0.15238,0.0984
-15.5,-1.2645,0.15265,0.15032,0.0968
-15.3,-1.2506,0.14421,0.14189,0.0917
-15.2,-1.2453,0.14281,0.14049,0.0904
-15.1,-1.24,0.14145,0.13913,0.089
-15,-1.2345,0.14008,0.13776,0.0876
-14.9,-1.229,0.13874,0.13642,0.0862
-14.8,-1.2234,0.13741,0.13509,0.0848
-14.7,-1.2177,0.13608,0.13376,0.0835
-14.6,-1.212,0.13478,0.13246,0.0821
-14.5,-1.2062,0.13348,0.13116,0.0807
-14.4,-1.2003,0.13219,0.12987,0.0793
-14.3,-1.1944,0.13091,0.12859,0.0779
-14.2,-1.1884,0.12964,0.12732,0.0764
-14.1,-1.1823,0.12836,0.12605,0.075
-14,-1.1762,0.1271,0.12478,0.0736
-13.9,-1.1699,0.12583,0.12352,0.0722
-13.8,-1.1636,0.12458,0.12227,0.0707
-13.7,-1.1573,0.12331,0.121,0.0693
-13.6,-1.1508,0.12207,0.11975,0.0678
-13.5,-1.1444,0.12082,0.1185,0.0664
-13.4,-1.1378,0.11958,0.11727,0.0649
-13.3,-1.1312,0.11834,0.11603,0.0634
-13.2,-1.1246,0.1171,0.11479,0.062
-13.1,-1.1178,0.11586,0.11356,0.0605
-13,-1.111,0.11462,0.11232,0.059
-12.9,-1.1041,0.11339,0.11109,0.0575
-12.8,-1.0971,0.11215,0.10986,0.0559
-12.7,-1.0901,0.11091,0.10861,0.0544
-12.6,-1.0829,0.10967,0.10738,0.0528
-12.5,-1.0758,0.10843,0.10614,0.0513
-12.4,-1.0685,0.10719,0.1049,0.0497
-12.3,-1.0611,0.10595,0.10366,0.0481
-12.2,-1.0537,0.10471,0.10242,0.0465
-12.1,-1.0462,0.10344,0.10116,0.0449
-12,-1.0385,0.10218,0.0999,0.0432
-11.9,-1.0308,0.10091,0.09864,0.0415
-11.8,-1.0229,0.09963,0.09736,0.0398
-11.7,-1.015,0.09834,0.09607,0.0381
-9.5,-0.7489,0.02448,0.01978,-0.067
-9.4,-0.7388,0.02361,0.01872,-0.0672
-9.3,-0.7284,0.02288,0.01787,-0.0672
-9.2,-0.718,0.02225,0.01717,-0.0673
-9.1,-0.707,0.02171,0.01656,-0.0673
-9,-0.6932,0.02117,0.01595,-0.0679
-8.9,-0.6799,0.02069,0.0154,-0.0684
-8.8,-0.6658,0.02023,0.01486,-0.0689
-8.7,-0.6526,0.01981,0.01437,-0.0693
-8.6,-0.6393,0.01941,0.0139,-0.0696
-8.5,-0.6251,0.019,0.01342,-0.0701
-8.4,-0.6118,0.01862,0.01297,-0.0704
-8.3,-0.5987,0.01825,0.01253,-0.0707
-8.2,-0.5849,0.01787,0.01209,-0.0711
-8.1,-0.5714,0.01752,0.01166,-0.0713
-8,-0.5578,0.01717,0.01124,-0.0717
-7.9,-0.5448,0.01683,0.01084,-0.0719
-7.8,-0.5314,0.01651,0.01044,-0.0721
-7.7,-0.5182,0.0162,0.01006,-0.0723
-7.6,-0.5049,0.01591,0.0097,-0.0725
-7.5,-0.4912,0.01565,0.00936,-0.0727
-7.4,-0.4786,0.01537,0.00906,-0.0728
-7.3,-0.4658,0.01511,0.00877,-0.073
-7.2,-0.4529,0.01506,0.00873,-0.0731
-7.1,-0.4398,0.01485,0.00849,-0.0732
-7,-0.4272,0.01465,0.00824,-0.0733
-6.9,-0.4146,0.01445,0.008,-0.0733
-6.8,-0.4022,0.01425,0.00776,-0.0733
-6.7,-0.3897,0.01406,0.00753,-0.0733
-6.6,-0.3772,0.01388,0.0073,-0.0732
-6.5,-0.3648,0.0137,0.00708,-0.0732
-6.4,-0.3525,0.01354,0.00687,-0.0732
-6.3,-0.3405,0.01336,0.00667,-0.0731
-6.2,-0.3283,0.01319,0.00648,-0.073
-6.1,-0.316,0.01304,0.00631,-0.073
-6,-0.3037,0.0129,0.00615,-0.073
-5.9,-0.2918,0.01278,0.006,-0.0728
-5.8,-0.2797,0.01266,0.00585,-0.0727
-5.7,-0.2673,0.01253,0.00569,-0.0727
-5.6,-0.2551,0.01241,0.00553,-0.0726
-5.5,-0.2428,0.0123,0.00538,-0.0726
-5.4,-0.231,0.0122,0.00525,-0.0724
-5.3,-0.2188,0.01208,0.00517,-0.0724
-5.2,-0.2065,0.01197,0.00504,-0.0724
-5.1,-0.1943,0.01187,0.00491,-0.0724
-5,-0.1821,0.01178,0.00478,-0.0723
-4.9,-0.1697,0.01168,0.00466,-0.0723
-4.8,-0.1577,0.0116,0.00454,-0.0722
-4.7,-0.1455,0.0115,0.00442,-0.0721
-4.6,-0.1332,0.01139,0.00432,-0.0721
-4.5,-0.1209,0.01131,0.00424,-0.0721
-4.4,-0.1086,0.01123,0.00414,-0.0721
-4.3,-0.0964,0.01117,0.00404,-0.0721
-4.2,-0.0843,0.01111,0.00394,-0.072
-4.1,-0.072,0.01101,0.00384,-0.072
-4,-0.0597,0.01093,0.00375,-0.072
-3.9,-0.0474,0.01086,0.00367,-0.072
-3.8,-0.035,0.0108,0.00359,-0.072
-3.7,-0.0227,0.01074,0.00352,-0.072
-3.6,-0.0107,0.01068,0.00344,-0.0719
-3.5,0.0017,0.01061,0.00337,-0.072
-3.4,0.014,0.01056,0.0033,-0.072
-3.3,0.026,0.01053,0.00324,-0.0719
-3.2,0.038,0.01049,0.00317,-0.0718
-3.1,0.0503,0.01043,0.00311,-0.0719
-3,0.0627,0.01038,0.00306,-0.0719
-2.9,0.0743,0.01038,0.003,-0.0717
-2.8,0.0865,0.01034,0.00294,-0.0718
-2.7,0.0989,0.0103,0.0029,-0.0718
-2.6,0.1108,0.01028,0.00284,-0.0717
-2.5,0.1232,0.01024,0.00281,-0.0718
-2.4,0.1355,0.01018,0.00276,-0.0719
-2.3,0.1477,0.01015,0.00273,-0.0719
-2.2,0.1599,0.01013,0.00268,-0.0719
-2.1,0.172,0.01012,0.00265,-0.0719
-2,0.1839,0.01012,0.00262,-0.0719
-1.9,0.1962,0.01007,0.00259,-0.072
-1.8,0.2084,0.01004,0.00257,-0.072
-1.7,0.2207,0.01001,0.00253,-0.0721
-1.6,0.2329,0.01,0.00252,-0.0721
-1.5,0.2449,0.00997,0.0025,-0.0722
-1.4,0.2568,0.01,0.00248,-0.0722
-1.3,0.2689,0.00999,0.00247,-0.0722
-1.2,0.281,0.01001,0.00246,-0.0723
-1.1,0.293,0.01002,0.00245,-0.0723
-1,0.3052,0.00999,0.00244,-0.0724
-0.9,0.3174,0.00998,0.00243,-0.0725
-0.8,0.3297,0.00998,0.00242,-0.0725
-0.7,0.3416,0.01001,0.00243,-0.0726
-0.6,0.3537,0.00998,0.00243,-0.0727
-0.5,0.366,0.00997,0.00243,-0.0727
-0.4,0.3781,0.00997,0.00243,-0.0728
-0.3,0.3903,0.00991,0.00243,-0.0729
-0.2,0.4024,0.0099,0.00243,-0.073
-0.1,0.4146,0.0099,0.00244,-0.0731
0,0.4264,0.00993,0.00246,-0.0732
0.1,0.4385,0.00985,0.00247,-0.0733
0.2,0.4505,0.00985,0.00248,-0.0734
0.3,0.4627,0.00981,0.00249,-0.0735
0.4,0.4745,0.0097,0.00249,-0.0736
0.5,0.4865,0.00965,0.00251,-0.0737
0.6,0.4982,0.00959,0.00253,-0.0737
0.7,0.5086,0.00931,0.00255,-0.0735
0.8,0.519,0.0092,0.00258,-0.0731
0.9,0.5281,0.00915,0.00262,-0.0724
1,0.5324,0.00893,0.00259,-0.0704
1.1,0.5435,0.00892,0.00256,-0.0701
1.2,0.5575,0.00895,0.00254,-0.0705
1.3,0.5704,0.00901,0.00254,-0.0707
1.4,0.5824,0.00911,0.00258,-0.0707
1.5,0.5944,0.00922,0.00263,-0.0708
1.6,0.6063,0.00933,0.00268,-0.0708
1.7,0.6181,0.00945,0.00272,-0.0709
1.8,0.6296,0.00963,0.0028,-0.0708
1.9,0.6414,0.00976,0.00286,-0.0709
2,0.6531,0.00989,0.00291,-0.0709
2.1,0.665,0.01002,0.00298,-0.0709
2.2,0.6767,0.01015,0.00304,-0.071
2.3,0.6885,0.01028,0.00311,-0.071
2.4,0.7004,0.0104,0.00317,-0.0711
2.5,0.7122,0.01052,0.00324,-0.0711
2.6,0.7242,0.01063,0.0033,-0.0711
2.7,0.7358,0.01079,0.00339,-0.0712
2.8,0.7478,0.01088,0.00345,-0.0712
2.9,0.7597,0.01099,0.00352,-0.0712
3,0.7716,0.0111,0.00359,-0.0713
3.1,0.7836,0.01119,0.00366,-0.0713
3.2,0.7957,0.01127,0.00372,-0.0714
3.3,0.8076,0.01137,0.00379,-0.0714
3.4,0.8195,0.01147,0.00386,-0.0714
3.5,0.8315,0.01158,0.00395,-0.0715
3.6,0.8435,0.01166,0.00401,-0.0715
3.7,0.8554,0.01177,0.00409,-0.0715
3.8,0.8673,0.01186,0.00416,-0.0716
3.9,0.8791,0.01198,0.00424,-0.0716
4,0.8911,0.01206,0.00432,-0.0716
4.1,0.9032,0.01214,0.00439,-0.0717
4.2,0.9151,0.01223,0.00446,-0.0717
4.3,0.9271,0.01233,0.00454,-0.0717
4.4,0.9389,0.01243,0.00462,-0.0717
4.5,0.9507,0.01254,0.00471,-0.0718
4.6,0.9626,0.01263,0.0048,-0.0718
4.7,0.9745,0.01272,0.00487,-0.0718
4.8,0.9865,0.01282,0.00496,-0.0718
4.9,0.9983,0.01292,0.00504,-0.0718
5,1.0101,0.01302,0.00513,-0.0718
5.1,1.0218,0.01314,0.00522,-0.0718
5.2,1.0337,0.01323,0.00531,-0.0718
5.3,1.0456,0.01332,0.0054,-0.0718
5.4,1.0575,0.01341,0.00549,-0.0718
5.5,1.0693,0.01351,0.00558,-0.0718
5.6,1.0811,0.01361,0.00568,-0.0718
5.7,1.0928,0.01372,0.00577,-0.0718
5.8,1.1043,0.01387,0.00588,-0.0718
5.9,1.1162,0.01395,0.00597,-0.0718
6,1.128,0.01405,0.00607,-0.0718
6.1,1.1398,0.01415,0.00616,-0.0718
6.2,1.1515,0.01425,0.00627,-0.0717
6.3,1.1632,0.01437,0.00638,-0.0717
6.4,1.1748,0.01448,0.00648,-0.0717
6.5,1.1863,0.01461,0.00659,-0.0716
6.6,1.1979,0.01474,0.00671,-0.0716
6.7,1.2096,0.01483,0.00682,-0.0716
6.8,1.2213,0.01494,0.00692,-0.0715
6.9,1.2329,0.01505,0.00703,-0.0715
7,1.2445,0.01517,0.00715,-0.0714
7.1,1.256,0.01529,0.00727,-0.0714
7.2,1.2674,0.01542,0.00739,-0.0713
7.3,1.2787,0.01557,0.00752,-0.0712
7.4,1.2903,0.01568,0.00765,-0.0712
7.5,1.3019,0.01579,0.00777,-0.0711
7.6,1.3134,0.0159,0.00789,-0.071
7.7,1.3249,0.01602,0.00802,-0.071
7.8,1.3363,0.01615,0.00815,-0.0709
7.9,1.3475,0.01629,0.00827,-0.0708
8,1.3587,0.01644,0.00842,-0.0707
8.1,1.3698,0.01659,0.00856,-0.0705
8.2,1.3812,0.01672,0.0087,-0.0705
8.3,1.3926,0.01684,0.00884,-0.0704
8.4,1.404,0.01696,0.00898,-0.0702
8.5,1.4153,0.01709,0.00912,-0.0701
8.6,1.4265,0.01723,0.00927,-0.07
8.7,1.4376,0.01737,0.00942,-0.0699
8.8,1.4487,0.01753,0.00957,-0.0697
8.9,1.4596,0.01768,0.00973,-0.0696
9,1.4704,0.01786,0.0099,-0.0694
9.1,1.4815,0.01799,0.01005,-0.0693
9.2,1.4926,0.01813,0.01021,-0.0691
9.3,1.5036,0.01827,0.01037,-0.0689
9.4,1.5146,0.01842,0.01053,-0.0688
9.5,1.5255,0.01858,0.0107,-0.0686
9.6,1.5363,0.01874,0.01087,-0.0684
9.7,1.5469,0.01891,0.01104,-0.0682
9.8,1.5575,0.01909,0.01122,-0.068
9.9,1.5678,0.01928,0.01141,-0.0677
10,1.5783,0.01946,0.01162,-0.0675
10.1,1.5892,0.01961,0.0118,-0.0673
10.2,1.5999,0.01976,0.01198,-0.0671
10.3,1.6105,0.01993,0.01217,-0.0668
10.4,1.6209,0.02009,0.01234,-0.0666
10.5,1.6313,0.02027,0.01254,-0.0663
10.6,1.6414,0.02046,0.01274,-0.066
10.7,1.6515,0.02065,0.01294,-0.0657
10.8,1.6614,0.02086,0.01316,-0.0654
10.9,1.671,0.02109,0.01338,-0.0651
11,1.6811,0.02127,0.0136,-0.0648
11.1,1.6913,0.02144,0.01382,-0.0645
11.2,1.7014,0.02163,0.01404,-0.0641
11.3,1.7113,0.02182,0.01426,-0.0638
11.4,1.721,0.02202,0.01448,-0.0634
11.5,1.7306,0.02222,0.01471,-0.0631
11.6,1.74,0.02243,0.01495,-0.0627
11.7,1.7491,0.02265,0.01517,-0.0622
11.8,1.758,0.02289,0.01541,-0.0618
11.9,1.7666,0.02314,0.01567,-0.0613
12,1.7751,0.02339,0.01595,-0.0608
12.1,1.7844,0.02359,0.01619,-0.0604
12.2,1.7933,0.0238,0.01644,-0.0599
12.3,1.8021,0.02402,0.0167,-0.0594
12.4,1.8106,0.02425,0.01698,-0.0588
12.5,1.8188,0.02448,0.01725,-0.0583
12.6,1.8268,0.02472,0.01752,-0.0577
12.7,1.8344,0.02497,0.01781,-0.0571
12.8,1.8418,0.02523,0.01809,-0.0564
12.9,1.8488,0.0255,0.01839,-0.0557
13,1.8554,0.02578,0.0187,-0.055
13.1,1.8606,0.0261,0.01901,-0.0541
13.2,1.8655,0.02639,0.01933,-0.0531
13.3,1.8713,0.02665,0.01964,-0.0522
13.4,1.8769,0.02692,0.01997,-0.0513
13.5,1.8823,0.02721,0.02031,-0.0504
13.6,1.8876,0.02752,0.02066,-0.0495
13.7,1.8928,0.02783,0.02102,-0.0487
13.8,1.898,0.02816,0.02139,-0.0479
13.9,1.9031,0.02851,0.02178,-0.0471
14,1.9081,0.02886,0.02218,-0.0464
14.1,1.913,0.02923,0.0226,-0.0457
14.2,1.9177,0.02962,0.02303,-0.0451
14.3,1.9223,0.03002,0.02347,-0.0445
14.4,1.9267,0.03044,0.02393,-0.0439
14.5,1.931,0.03089,0.02441,-0.0434
14.6,1.935,0.03137,0.02492,-0.043
14.7,1.9388,0.03187,0.02546,-0.0426
14.8,1.9446,0.03227,0.02593,-0.0422
14.9,1.95,0.0327,0.02642,-0.0419
15,1.956,0.03309,0.02687,-0.0417
15.1,1.9615,0.03351,0.02735,-0.0416
15.2,1.9663,0.03401,0.02789,-0.0414
15.3,1.9711,0.03452,0.02846,-0.0414
15.4,1.9759,0.03506,0.02904,-0.0414
15.5,1.9805,0.03562,0.02965,-0.0415
15.6,1.9851,0.0362,0.03028,-0.0417
15.7,1.9897,0.03681,0.03094,-0.0419
15.8,1.9941,0.03745,0.03163,-0.0423
15.9,1.9983,0.03814,0.03237,-0.0429
16,2.0024,0.03887,0.03314,-0.0435
16.1,2.0082,0.03946,0.03382,-0.044
16.2,2.0139,0.04007,0.03451,-0.0445
16.3,2.0202,0.04063,0.03514,-0.0451
16.4,2.0255,0.04133,0.03591,-0.0459
16.5,2.0307,0.04205,0.0367,-0.0468
16.6,2.0359,0.04281,0.03753,-0.0478
16.7,2.0411,0.04361,0.03839,-0.049
16.8,2.0461,0.04445,0.0393,-0.0503
16.9,2.0511,0.04534,0.04025,-0.0517
17,2.0557,0.04633,0.04129,-0.0535
17.1,2.0602,0.04737,0.04239,-0.0553
17.2,2.0643,0.04851,0.04359,-0.0573
17.3,2.0696,0.04948,0.04464,-0.059
17.4,2.0745,0.05052,0.04577,-0.0608
17.5,2.079,0.05163,0.04697,-0.0627
17.6,2.0832,0.05282,0.04825,-0.0648
17.7,2.0871,0.05409,0.04961,-0.0671
17.8,2.0905,0.05546,0.05106,-0.0695
17.9,2.0934,0.05691,0.05261,-0.072
18,2.0958,0.05849,0.05427,-0.0748
18.1,2.0975,0.06018,0.05605,-0.0777
18.2,2.0985,0.06202,0.05798,-0.0808
18.3,2.0987,0.064,0.06005,-0.0841
18.4,2.0982,0.06613,0.06228,-0.0876
18.5,2.0967,0.06842,0.06466,-0.0913
18.6,2.0942,0.07089,0.06722,-0.0952
18.7,2.0908,0.07354,0.06996,-0.0993
18.8,2.0867,0.07628,0.07279,-0.1034
18.9,2.0831,0.07889,0.07549,-0.1073
19,2.0801,0.08136,0.07807,-0.1109
19.1,2.0766,0.08389,0.0807,-0.1145
19.2,2.0728,0.08644,0.08335,-0.1182
19.3,2.0685,0.08907,0.08607,-0.122
19.4,2.064,0.09167,0.08876,-0.1258
19.5,2.0587,0.09449,0.09166,-0.1299
19.6,2.0538,0.09711,0.09436,-0.1338
19.7,2.0487,0.09971,0.09703,-0.1377
19.8,2.0441,0.1022,0.09958,-0.1415
19.9,2.0389,0.10481,0.10226,-0.1455
20,2.0345,0.10722,0.10472,-0.1492
20.1,2.0296,0.10976,0.10733,-0.1531
20.2,2.0257,0.11209,0.1097,-0.1567
20.3,2.0221,0.11439,0.11204,-0.1603
20.4,2.0184,0.11674,0.11442,-0.1639
20.5,2.0163,0.11874,0.11644,-0.1671
20.6,2.0124,0.12126,0.11901,-0.1707
20.7,2.0062,0.12443,0.12228,-0.175
20.9,1.9885,0.13244,0.13048,-0.1854
21,1.979,0.13675,0.13487,-0.1907
21.1,1.9713,0.14075,0.13893,-0.1956
21.2,1.9649,0.14448,0.14272,-0.2001
21.3,1.964,0.1467,0.14495,-0.2029
21.4,1.9695,0.14717,0.1454,-0.2038
21.5,1.9702,0.14906,0.14726,-0.2062
21.7,1.9229,0.16854,0.16699,-0.2268
21.8,1.9233,0.17071,0.16918,-0.2293
21.9,1.926,0.17207,0.17054,-0.231
22,1.9347,0.17139,0.16984,-0.2307
22.1,1.94,0.17179,0.17025,-0.2315
22.2,1.9454,0.17216,0.17061,-0.2322
22.5,1.9244,0.18788,0.18645,-0.248
22.6,1.9282,0.18879,0.18735,-0.2492
22.7,1.9326,0.18945,0.18802,-0.2503
22.8,1.9372,0.19002,0.18859,-0.2512
23.2,1.9344,0.20244,0.20108,-0.2637
23.3,1.9384,0.20321,0.20185,-0.2649
23.7,1.9418,0.21338,0.21207,-0.2752
23.8,1.9453,0.21437,0.21307,-0.2765
23.9,1.949,0.21523,0.21392,-0.2777
24,1.95,0.2177,0.21641,-0.2803
24.1,1.9507,0.22048,0.21921,-0.283
24.2,1.9529,0.22226,0.22099,-0.285
24.3,1.9556,0.22372,0.22246,-0.2867
24.4,1.9585,0.22505,0.2238,-0.2883
24.5,1.9615,0.22626,0.22501,-0.2898
24.6,1.9649,0.22728,0.22603,-0.2911
24.7,1.9681,0.22831,0.22706,-0.2925
24.8,1.9716,0.22921,0.22796,-0.2937
24.9,1.9743,0.23061,0.22936,-0.2954
25,1.9749,0.23342,0.23219,-0.2982
25.1,1.9762,0.23577,0.23455,-0.3006
25.2,1.9779,0.23786,0.23666,-0.3028
25.3,1.98,0.23968,0.23848,-0.3048
25.4,1.9823,0.2414,0.24021,-0.3068
25.5,1.9848,0.24292,0.24173,-0.3085
25.6,1.9873,0.24444,0.24327,-0.3103
25.7,1.9899,0.2458,0.24463,-0.3119
26,1.9991,0.24883,0.24762,-0.316
26.1,2.0004,0.25123,0.25004,-0.3185
26.2,2.0019,0.25352,0.25235,-0.3209
26.3,2.0034,0.25581,0.25465,-0.3233
26.4,2.005,0.25797,0.25682,-0.3256
26.5,2.0067,0.26011,0.25898,-0.3279
26.6,2.0085,0.26222,0.2611,-0.3302
26.7,2.0104,0.26417,0.26306,-0.3323
26.8,2.0125,0.26599,0.26488,-0.3343
26.9,2.0145,0.26777,0.26667,-0.3363
27,2.0168,0.26938,0.26829,-0.3382
27.1,2.019,0.27098,0.26989,-0.3401
27.2,2.0213,0.27244,0.27135,-0.3418
27.3,2.0236,0.27393,0.27285,-0.3436
27.4,2.0259,0.27526,0.27418,-0.3453
27.5,2.0283,0.27662,0.27554,-0.347
27.6,2.0307,0.27786,0.27679,-0.3487
27.7,2.0332,0.27903,0.27796,-0.3503
27.8,2.0355,0.28032,0.27924,-0.3519
27.9,2.0379,0.28151,0.28044,-0.3535
28.1,2.0364,0.29428,0.29326,-0.3642
28.2,2.0384,0.29667,0.29566,-0.3666
28.3,2.0404,0.29876,0.29775,-0.3688
28.4,2.0425,0.30066,0.29966,-0.3709
28.5,2.0446,0.30248,0.30149,-0.373
28.6,2.0467,0.30419,0.3032,-0.3749
28.7,2.0488,0.30588,0.30489,-0.3769
28.9,2.0531,0.30844,0.30747,-0.3804
29,2.0552,0.30995,0.30898,-0.3822
29.1,2.0573,0.31142,0.31046,-0.3841
29.2,2.0594,0.31289,0.31194,-0.386
29.3,2.0614,0.31429,0.31335,-0.3878
29.4,2.0634,0.31566,0.31471,-0.3896
29.5,2.0654,0.3171,0.31616,-0.3914
29.6,2.0674,0.31838,0.31744,-0.3932
29.7,2.0694,0.31967,0.31874,-0.395

