airfoilName st9.dat
Re 	990000
M 	2.500000e-01
N 	4.500000e+00
VACC 	0 VACCflag 1
XTR 	1.00 	1.00 XTRflag 0
alpha,cl,cd,cdp,cm
-1.2,0.3091,0.00908,0.0021,-0.0774
-1.1,0.3214,0.00907,0.00209,-0.0775
-1,0.3337,0.00907,0.00209,-0.0776
-0.9,0.346,0.00904,0.00208,-0.0777
-0.8,0.3583,0.00904,0.00208,-0.0778
-0.7,0.3706,0.00904,0.00208,-0.0779
-0.6,0.3827,0.0091,0.0021,-0.0779
-0.5,0.395,0.00907,0.0021,-0.0781
-0.4,0.4072,0.00909,0.00211,-0.0782
-0.3,0.4195,0.00909,0.00211,-0.0783
-0.2,0.4317,0.00912,0.00213,-0.0784
-0.1,0.4439,0.0091,0.00213,-0.0785
0,0.4561,0.00913,0.00215,-0.0786
0.1,0.4683,0.00915,0.00216,-0.0787
0.2,0.4801,0.00922,0.0022,-0.0788
0.3,0.4923,0.00926,0.00222,-0.0789
0.4,0.5043,0.0093,0.00225,-0.0789
0.5,0.5164,0.00931,0.00227,-0.0791
0.6,0.5285,0.00936,0.0023,-0.0792
0.7,0.5405,0.00942,0.00234,-0.0792
0.8,0.5524,0.00948,0.00237,-0.0793
0.9,0.5644,0.00949,0.00241,-0.0795
1,0.5764,0.00955,0.00245,-0.0795
1.1,0.588,0.00963,0.00251,-0.0797
1.2,0.6001,0.00965,0.00255,-0.0798
1.3,0.6122,0.00967,0.00259,-0.0799
1.4,0.6242,0.0097,0.00263,-0.08
1.5,0.6364,0.00962,0.00267,-0.0801
1.6,0.6486,0.00961,0.0027,-0.0803
1.7,0.6606,0.00948,0.00274,-0.0804
2,0.6932,0.009,0.0029,-0.0799
2.1,0.7017,0.00892,0.00293,-0.079
2.2,0.7106,0.00894,0.00296,-0.0783
2.3,0.7225,0.00887,0.00291,-0.0782
2.4,0.7351,0.00891,0.00293,-0.0783
2.5,0.7473,0.00897,0.00297,-0.0784
2.6,0.7595,0.00904,0.00301,-0.0785
2.7,0.7716,0.00911,0.00306,-0.0785
2.8,0.7838,0.00918,0.00311,-0.0786
2.9,0.796,0.00923,0.00315,-0.0787
3,0.8082,0.00929,0.00319,-0.0787
3.1,0.8202,0.00938,0.00324,-0.0788
3.2,0.8323,0.00946,0.00329,-0.0788
3.3,0.8444,0.00953,0.00335,-0.0789
3.4,0.8566,0.00958,0.00339,-0.079
3.5,0.8687,0.00964,0.00344,-0.079
3.6,0.8809,0.00971,0.00349,-0.0791
3.7,0.893,0.00977,0.00354,-0.0791
3.8,0.9051,0.00985,0.00359,-0.0792
3.9,0.9171,0.00992,0.00365,-0.0792
4,0.9292,0.01,0.00371,-0.0793
4.1,0.9413,0.01007,0.00376,-0.0793
4.2,0.9534,0.01014,0.00381,-0.0794
4.3,0.9654,0.01021,0.00387,-0.0794
4.4,0.9775,0.01028,0.00393,-0.0795
4.5,0.9895,0.01036,0.00399,-0.0795
4.6,1.0014,0.01045,0.00406,-0.0795
4.7,1.0135,0.01051,0.00412,-0.0796
4.8,1.0256,0.01057,0.00418,-0.0796
4.9,1.0376,0.01064,0.00424,-0.0796
5,1.0497,0.01072,0.0043,-0.0797
5.1,1.0617,0.01079,0.00436,-0.0797
5.2,1.0736,0.01087,0.00443,-0.0797
5.3,1.0853,0.01099,0.00451,-0.0797
5.4,1.0973,0.01106,0.00457,-0.0798
5.5,1.1093,0.01113,0.00464,-0.0798
5.6,1.1213,0.0112,0.00471,-0.0798
5.7,1.1333,0.01128,0.00478,-0.0798
5.8,1.1452,0.01136,0.00485,-0.0798
5.9,1.1571,0.01145,0.00493,-0.0798
6,1.1689,0.01154,0.00501,-0.0798
6.1,1.1807,0.01164,0.00509,-0.0798
6.2,1.1926,0.01172,0.00517,-0.0798
6.3,1.2044,0.01181,0.00525,-0.0798
6.4,1.2163,0.01189,0.00533,-0.0798
6.5,1.2281,0.01198,0.00541,-0.0798
6.6,1.2399,0.01207,0.00549,-0.0798
6.7,1.2517,0.01216,0.00558,-0.0797
6.8,1.2634,0.01226,0.00566,-0.0797
6.9,1.275,0.01237,0.00576,-0.0797
7,1.2868,0.01246,0.00585,-0.0796
7.1,1.2987,0.01254,0.00594,-0.0796
7.2,1.3104,0.01263,0.00602,-0.0796
7.3,1.3222,0.01272,0.00612,-0.0795
7.4,1.3337,0.01283,0.00621,-0.0795
7.5,1.3453,0.01293,0.00631,-0.0794
7.6,1.3569,0.01304,0.00641,-0.0794
7.7,1.3684,0.01316,0.00651,-0.0793
7.8,1.38,0.01327,0.00662,-0.0792
7.9,1.3917,0.01336,0.00672,-0.0792
8,1.4033,0.01345,0.00682,-0.0791
8.1,1.4149,0.01355,0.00692,-0.079
8.2,1.4265,0.01365,0.00703,-0.0789
8.3,1.438,0.01376,0.00713,-0.0789
8.4,1.4495,0.01387,0.00724,-0.0788
8.5,1.4609,0.01399,0.00736,-0.0787
8.6,1.4719,0.01415,0.00749,-0.0785
8.7,1.4833,0.01426,0.00761,-0.0784
8.8,1.4948,0.01436,0.00772,-0.0783
8.9,1.5063,0.01447,0.00783,-0.0782
9,1.5177,0.01458,0.00795,-0.0781
9.1,1.529,0.0147,0.00807,-0.0779
9.2,1.5403,0.01482,0.0082,-0.0778
9.3,1.5515,0.01494,0.00832,-0.0777
9.4,1.5626,0.01507,0.00845,-0.0775
9.5,1.5737,0.01521,0.00859,-0.0773
9.6,1.5847,0.01536,0.00873,-0.0772
9.7,1.5957,0.0155,0.00888,-0.077
9.8,1.6069,0.01562,0.009,-0.0768
9.9,1.618,0.01574,0.00914,-0.0766
10,1.629,0.01587,0.00927,-0.0764
10.1,1.64,0.016,0.00941,-0.0763
10.2,1.6509,0.01614,0.00956,-0.076
10.3,1.6617,0.01629,0.00971,-0.0758
10.4,1.6724,0.01644,0.00987,-0.0756
10.5,1.6831,0.0166,0.01003,-0.0753
10.6,1.6936,0.01677,0.0102,-0.0751
10.7,1.7043,0.01692,0.01037,-0.0748
10.8,1.715,0.01705,0.01051,-0.0746
10.9,1.7257,0.01719,0.01067,-0.0743
11,1.7363,0.01733,0.01083,-0.074
11.1,1.7469,0.01748,0.01099,-0.0738
11.2,1.7571,0.01765,0.01116,-0.0734
11.3,1.7673,0.01782,0.01134,-0.0731
11.4,1.7775,0.01799,0.01152,-0.0728
11.5,1.787,0.01822,0.01174,-0.0724
11.6,1.7969,0.01841,0.01194,-0.072
11.7,1.8071,0.01856,0.01211,-0.0717
11.8,1.8172,0.01872,0.01229,-0.0713
11.9,1.8269,0.0189,0.01248,-0.0709
12,1.8367,0.01908,0.01267,-0.0705
12.1,1.8463,0.01926,0.01287,-0.0701
12.2,1.8557,0.01946,0.01307,-0.0696
12.3,1.8649,0.01966,0.01329,-0.0691
12.4,1.8739,0.01987,0.01351,-0.0686
12.5,1.8822,0.02013,0.01377,-0.0681
12.6,1.8914,0.02031,0.01397,-0.0675
12.7,1.9003,0.02049,0.01418,-0.067
12.8,1.9091,0.02069,0.0144,-0.0664
12.9,1.9176,0.02089,0.01463,-0.0658
13,1.9258,0.0211,0.01486,-0.0652
13.1,1.9338,0.02132,0.0151,-0.0645
13.2,1.9415,0.02155,0.01534,-0.0638
13.3,1.9489,0.02179,0.0156,-0.0631
13.4,1.956,0.02204,0.01587,-0.0623
13.5,1.9627,0.0223,0.01615,-0.0615
13.6,1.9687,0.02257,0.01643,-0.0606
13.7,1.9737,0.02282,0.01672,-0.0594
13.8,1.9785,0.02308,0.017,-0.0583
13.9,1.9833,0.02335,0.0173,-0.0572
14,1.9882,0.02363,0.01761,-0.0561
14.1,1.9931,0.02392,0.01793,-0.0551
14.2,1.9979,0.02423,0.01827,-0.0541
14.3,2.0026,0.02456,0.01862,-0.0531
14.4,2.0072,0.0249,0.01899,-0.0522
14.5,2.0104,0.02534,0.01943,-0.0512
14.6,2.0146,0.02573,0.01985,-0.0504
14.7,2.0193,0.02609,0.02026,-0.0496
14.8,2.0242,0.02645,0.02066,-0.0488
14.9,2.0291,0.02682,0.02106,-0.0481
15,2.0337,0.02721,0.02149,-0.0474
15.1,2.0384,0.02761,0.02193,-0.0468
15.2,2.0428,0.02804,0.02239,-0.0462
15.3,2.0472,0.02849,0.02287,-0.0456
15.4,2.05,0.02904,0.02345,-0.045
15.5,2.0536,0.02956,0.024,-0.0445
15.6,2.0571,0.0301,0.02457,-0.0441
15.7,2.0606,0.03066,0.02517,-0.0437
15.8,2.0649,0.03117,0.02572,-0.0435
15.9,2.0692,0.0317,0.0263,-0.0432
16,2.0734,0.03226,0.02689,-0.043
16.1,2.0774,0.03284,0.02752,-0.043
16.2,2.0814,0.03345,0.02817,-0.0429
16.3,2.0851,0.0341,0.02886,-0.043
16.4,2.0887,0.03479,0.02959,-0.0432
16.5,2.092,0.03553,0.03036,-0.0434
16.6,2.0951,0.03631,0.03118,-0.0438
16.7,2.0977,0.03716,0.03208,-0.0443
16.8,2.1014,0.03794,0.0329,-0.0449
16.9,2.1052,0.03873,0.03375,-0.0455
17,2.1085,0.03961,0.03467,-0.0463
17.1,2.1116,0.04055,0.03566,-0.0473
17.2,2.114,0.04162,0.03677,-0.0485
17.3,2.1169,0.04267,0.03788,-0.0498
17.4,2.1202,0.0437,0.03897,-0.0511
17.5,2.123,0.04485,0.04016,-0.0526
17.6,2.1251,0.04613,0.0415,-0.0545
17.7,2.1266,0.04756,0.04298,-0.0566
17.8,2.1276,0.04911,0.04461,-0.0589
17.9,2.1285,0.05072,0.04628,-0.0614
18,2.1286,0.05251,0.04814,-0.0642
20.7,1.9098,0.14679,0.14473,-0.1909
20.8,1.9064,0.14973,0.1477,-0.1943
20.9,1.9047,0.15222,0.15022,-0.1972
21,1.9037,0.15455,0.15258,-0.2
21.1,1.9012,0.15736,0.15543,-0.2031
21.2,1.8994,0.16002,0.15813,-0.206
21.3,1.8984,0.16244,0.16057,-0.2088
21.4,1.8979,0.16474,0.1629,-0.2113
21.5,1.8971,0.16716,0.16535,-0.214
21.6,1.895,0.17005,0.16827,-0.2171
21.7,1.8946,0.17241,0.17066,-0.2196
21.8,1.8944,0.17472,0.173,-0.2221
21.9,1.8943,0.17699,0.17529,-0.2246
22,1.8936,0.17952,0.17785,-0.2273
22.1,1.8923,0.18228,0.18064,-0.2301
22.2,1.8924,0.18457,0.18295,-0.2326
22.3,1.8928,0.18677,0.18518,-0.2349
22.4,1.8936,0.18882,0.18725,-0.2371
22.5,1.8943,0.19093,0.18938,-0.2393
22.6,1.8943,0.19334,0.19182,-0.2418
22.7,1.8943,0.19579,0.1943,-0.2443
22.8,1.8952,0.19791,0.19644,-0.2465
22.9,1.8963,0.19994,0.19849,-0.2487
23,1.8975,0.20193,0.20049,-0.2508
23.1,1.8987,0.20395,0.20253,-0.2529
23.2,1.8999,0.20599,0.20459,-0.255
23.3,1.9007,0.20819,0.20681,-0.2573
23.4,1.9011,0.21062,0.20927,-0.2598
23.5,1.9022,0.21274,0.21142,-0.262
23.6,1.9036,0.21473,0.21342,-0.2641
23.7,1.9052,0.21665,0.21535,-0.2661
23.8,1.9068,0.21856,0.21728,-0.2681
23.9,1.9085,0.22045,0.21918,-0.2701
24,1.9101,0.22237,0.22112,-0.2722
24.1,1.9117,0.22433,0.22309,-0.2742
24.2,1.9133,0.22629,0.22506,-0.2763
24.3,1.9142,0.22859,0.22739,-0.2787
24.4,1.9156,0.23067,0.22948,-0.2808
24.5,1.9173,0.23263,0.23146,-0.2829
24.6,1.9191,0.23449,0.23333,-0.2849
24.7,1.921,0.23634,0.23519,-0.2869
24.8,1.9229,0.23813,0.23699,-0.2888
24.9,1.9249,0.23988,0.23875,-0.2907
25,1.9269,0.24167,0.24054,-0.2927
25.1,1.929,0.24339,0.24227,-0.2946
25.2,1.9311,0.24505,0.24394,-0.2964
25.3,1.9333,0.2467,0.2456,-0.2983
25.4,1.9354,0.24832,0.24722,-0.3001
25.5,1.9377,0.24988,0.24879,-0.3019
25.6,1.9399,0.25145,0.25036,-0.3037
25.7,1.9419,0.25321,0.25214,-0.3056
25.8,1.9435,0.25521,0.25416,-0.3077
25.9,1.9452,0.25716,0.25613,-0.3098
26,1.947,0.25904,0.25803,-0.3118
26.1,1.949,0.2608,0.2598,-0.3137
26.2,1.951,0.26251,0.26152,-0.3156
26.3,1.9529,0.26426,0.2633,-0.3175
26.4,1.955,0.26593,0.26498,-0.3194
26.5,1.957,0.26765,0.26672,-0.3213
26.6,1.9586,0.26969,0.26878,-0.3234
26.7,1.9606,0.27142,0.27051,-0.3254
26.8,1.9626,0.27317,0.27228,-0.3273
26.9,1.9645,0.27494,0.27406,-0.3293
27,1.9664,0.27672,0.27586,-0.3312
27.1,1.9683,0.27853,0.27768,-0.3332
27.2,1.9702,0.28039,0.27956,-0.3353
27.3,1.9718,0.28243,0.28162,-0.3375
27.4,1.9735,0.28444,0.28364,-0.3396
27.5,1.9753,0.28639,0.2856,-0.3417
27.6,1.9772,0.28824,0.28747,-0.3438
27.7,1.9791,0.29007,0.28931,-0.3458
27.8,1.9809,0.29189,0.29114,-0.3479
27.9,1.9828,0.29374,0.29301,-0.3499
28,1.9846,0.29559,0.29487,-0.352
28.1,1.9865,0.29743,0.29672,-0.354
28.2,1.9883,0.29929,0.29859,-0.3561
28.3,1.9902,0.30115,0.30046,-0.3582
28.4,1.992,0.30301,0.30233,-0.3603
28.5,1.9938,0.30486,0.30419,-0.3624
28.6,1.9957,0.30672,0.30606,-0.3645
28.7,1.9975,0.30857,0.30791,-0.3666
28.8,1.9993,0.31048,0.30983,-0.3687
28.9,2.0009,0.31249,0.31186,-0.3709
29,2.0027,0.31437,0.31374,-0.3731
29.1,2.0045,0.31618,0.31555,-0.3752
29.2,2.0064,0.31794,0.31732,-0.3773
29.3,2.0082,0.31962,0.31901,-0.3793
29.4,2.01,0.32131,0.32069,-0.3814
29.5,2.0113,0.32426,0.32367,-0.3842
29.6,2.0125,0.32733,0.32677,-0.3871
29.7,2.0137,0.33051,0.32998,-0.3901
29.8,2.0143,0.33634,0.33586,-0.3948
29.9,2.0152,0.34579,0.34536,-0.4017

