airfoilName st10.dat
Re 	850000
M 	5.000000e-02
N 	4.500000e+00
VACC 	0 VACCflag 1
XTR 	1.00 	1.00 XTRflag 0
alpha,cl,cd,cdp,cm
-11.6,-0.869,0.02813,0.02497,-0.0693
-11.5,-0.8604,0.02703,0.02375,-0.07
-11.4,-0.8516,0.02611,0.02272,-0.0705
-11.3,-0.8425,0.02532,0.02184,-0.0708
-11.2,-0.8333,0.02461,0.02104,-0.0711
-11.1,-0.824,0.02397,0.02032,-0.0713
-11,-0.8145,0.02337,0.01964,-0.0715
-10.9,-0.8037,0.02279,0.01898,-0.0719
-10.8,-0.7923,0.02225,0.01837,-0.0724
-10.7,-0.7806,0.02175,0.0178,-0.0729
-10.6,-0.7688,0.02126,0.01724,-0.0734
-10.5,-0.7571,0.02082,0.01673,-0.0738
-10.4,-0.7446,0.02039,0.01624,-0.0743
-10.3,-0.7323,0.01999,0.01577,-0.0748
-10.2,-0.72,0.01963,0.01535,-0.0753
-10.1,-0.7082,0.0193,0.01497,-0.0756
-10,-0.6965,0.01899,0.0146,-0.0758
-9.9,-0.6845,0.01867,0.01423,-0.0762
-9.8,-0.6724,0.0184,0.01392,-0.0765
-9.7,-0.6611,0.01813,0.01361,-0.0766
-9.6,-0.6497,0.01791,0.01334,-0.0767
-9.5,-0.6381,0.01769,0.01308,-0.0769
-9.4,-0.6272,0.01719,0.01252,-0.0771
-9.3,-0.6166,0.01665,0.0119,-0.0772
-9.2,-0.606,0.0161,0.01127,-0.0773
-9.1,-0.5953,0.01571,0.01082,-0.0773
-8.9,-0.5734,0.01512,0.01014,-0.0773
-8.8,-0.5625,0.01488,0.00986,-0.0773
-8.7,-0.5514,0.01464,0.00958,-0.0773
-8.6,-0.5403,0.01442,0.00932,-0.0773
-8.5,-0.5297,0.01422,0.00909,-0.0771
-8.4,-0.5184,0.01402,0.00885,-0.0771
-8.3,-0.5071,0.01382,0.00862,-0.0772
-8.2,-0.4959,0.01364,0.00841,-0.0771
-8.1,-0.485,0.01348,0.0082,-0.077
-8,-0.4739,0.01331,0.008,-0.077
-7.9,-0.4624,0.01314,0.0078,-0.077
-7.8,-0.451,0.01297,0.00761,-0.077
-7.7,-0.44,0.01282,0.00742,-0.0769
-7.6,-0.4287,0.01268,0.00723,-0.0769
-7.5,-0.4173,0.01252,0.00705,-0.0769
-7.4,-0.406,0.01238,0.00687,-0.0769
-7.3,-0.3945,0.01224,0.0067,-0.0769
-7.2,-0.3831,0.0121,0.00652,-0.0769
-7.1,-0.3716,0.01197,0.00636,-0.0769
-7,-0.3602,0.01184,0.00619,-0.0768
-6.9,-0.3487,0.01171,0.00603,-0.0768
-6.8,-0.3372,0.01159,0.00588,-0.0768
-6.7,-0.3256,0.01148,0.00573,-0.0768
-6.6,-0.314,0.01136,0.00559,-0.0769
-6.5,-0.3026,0.01127,0.00546,-0.0768
-6.4,-0.291,0.01119,0.00533,-0.0768
-6.3,-0.2793,0.01106,0.00519,-0.0769
-6.2,-0.2676,0.0109,0.005,-0.0769
-6.1,-0.2562,0.01078,0.00484,-0.0769
-6,-0.2445,0.01067,0.00471,-0.0769
-5.9,-0.2328,0.01057,0.00459,-0.077
-5.8,-0.221,0.01047,0.00448,-0.077
-5.7,-0.2093,0.01039,0.00437,-0.0771
-5.6,-0.1977,0.01031,0.00427,-0.0771
-5.5,-0.186,0.01024,0.00417,-0.0771
-5.4,-0.1743,0.01016,0.00407,-0.0771
-5.3,-0.1625,0.01009,0.00397,-0.0772
-5.2,-0.1508,0.01002,0.00387,-0.0772
-5.1,-0.1389,0.00995,0.00378,-0.0773
-5,-0.1271,0.00989,0.0037,-0.0773
-4.9,-0.1156,0.00984,0.00362,-0.0773
-4.8,-0.1037,0.00975,0.00352,-0.0774
-4.7,-0.0919,0.00968,0.00343,-0.0775
-4.6,-0.0801,0.00962,0.00336,-0.0775
-4.5,-0.0684,0.00957,0.00329,-0.0776
-4.4,-0.0565,0.00951,0.00322,-0.0776
-4.3,-0.0448,0.00947,0.00315,-0.0776
-4.2,-0.033,0.00943,0.00308,-0.0777
-4.1,-0.0212,0.00938,0.00302,-0.0778
-4,-0.0093,0.00933,0.00295,-0.0778
-3.9,0.0021,0.00932,0.00289,-0.0778
-3.8,0.0139,0.00927,0.00283,-0.0779
-3.7,0.0254,0.00927,0.00278,-0.0779
-3.6,0.0372,0.00924,0.00273,-0.0779
-3.5,0.0489,0.00923,0.00267,-0.0779
-3.4,0.0606,0.00921,0.00262,-0.078
-3.3,0.0723,0.00919,0.00257,-0.078
-3.2,0.0841,0.00916,0.00253,-0.0781
-3.1,0.0959,0.00913,0.00248,-0.0782
-3,0.1077,0.00911,0.00244,-0.0782
-2.9,0.1195,0.00909,0.0024,-0.0783
-2.8,0.1308,0.0091,0.00238,-0.0783
-2.7,0.1426,0.00909,0.00234,-0.0784
-2.6,0.1544,0.00908,0.00231,-0.0785
-2.5,0.1661,0.00906,0.00227,-0.0785
-2.4,0.1778,0.00907,0.00224,-0.0786
-2.3,0.1893,0.0091,0.00222,-0.0786
-2.2,0.2011,0.00909,0.0022,-0.0787
-2.1,0.2129,0.00907,0.00217,-0.0788
-2,0.2246,0.00906,0.00215,-0.0788
-1.9,0.2363,0.00908,0.00213,-0.0789
-1.8,0.2481,0.00907,0.00211,-0.079
-1.7,0.2599,0.00906,0.00209,-0.0791
-1.6,0.2714,0.0091,0.00209,-0.0791
-1.5,0.2832,0.00907,0.00207,-0.0792
-1.4,0.295,0.00907,0.00206,-0.0793
-1.3,0.3066,0.00908,0.00205,-0.0794
-1.2,0.3182,0.0091,0.00204,-0.0795
-1.1,0.33,0.0091,0.00204,-0.0795
-1,0.3417,0.00909,0.00203,-0.0796
-0.9,0.3535,0.00908,0.00202,-0.0797
-0.8,0.365,0.00913,0.00203,-0.0798
-0.7,0.3767,0.00913,0.00203,-0.0799
-0.6,0.3884,0.00914,0.00203,-0.08
-0.5,0.4002,0.00912,0.00203,-0.0801
-0.4,0.4119,0.00913,0.00203,-0.0802
-0.3,0.4236,0.00913,0.00204,-0.0803
-0.2,0.4353,0.00912,0.00205,-0.0804
-0.1,0.4469,0.00913,0.00206,-0.0805
0,0.4583,0.0092,0.00208,-0.0805
0.1,0.47,0.00922,0.00209,-0.0806
0.2,0.4816,0.00922,0.00211,-0.0807
0.3,0.4933,0.00923,0.00212,-0.0808
0.4,0.5049,0.00926,0.00213,-0.0809
0.5,0.5165,0.00929,0.00215,-0.081
0.6,0.528,0.00928,0.00217,-0.0811
0.7,0.5396,0.0093,0.00219,-0.0812
0.8,0.5511,0.00932,0.00222,-0.0813
0.9,0.5622,0.00937,0.00227,-0.0814
1,0.5737,0.0094,0.0023,-0.0815
1.1,0.5851,0.00943,0.00234,-0.0816
1.2,0.5965,0.00947,0.00238,-0.0817
1.3,0.6079,0.00941,0.00242,-0.0818
1.4,0.6192,0.00944,0.00247,-0.0819
1.5,0.6305,0.00945,0.00251,-0.0821
1.9,0.6662,0.0086,0.0026,-0.0799
2,0.6778,0.00868,0.00264,-0.08
2.1,0.6893,0.00876,0.00268,-0.08
2.2,0.7009,0.00882,0.00273,-0.0801
2.3,0.7125,0.00889,0.00276,-0.0802
2.4,0.724,0.00895,0.0028,-0.0802
2.5,0.7355,0.00903,0.00284,-0.0803
2.6,0.747,0.0091,0.00289,-0.0804
2.7,0.7586,0.00916,0.00293,-0.0804
2.8,0.77,0.00924,0.00298,-0.0805
2.9,0.7815,0.00932,0.00302,-0.0805
3,0.793,0.00939,0.00308,-0.0806
3.1,0.8045,0.00945,0.00312,-0.0807
3.2,0.8161,0.00951,0.00316,-0.0807
3.3,0.8276,0.00957,0.0032,-0.0808
3.4,0.8391,0.00964,0.00325,-0.0809
3.5,0.8505,0.00971,0.0033,-0.0809
3.6,0.8619,0.00979,0.00336,-0.081
3.7,0.8734,0.00984,0.0034,-0.081
3.8,0.8848,0.00992,0.00345,-0.0811
3.9,0.8963,0.00999,0.0035,-0.0811
4,0.9076,0.01006,0.00356,-0.0812
4.1,0.919,0.01014,0.00361,-0.0812
4.2,0.9304,0.01021,0.00367,-0.0813
4.3,0.9418,0.01027,0.00372,-0.0813
4.4,0.9533,0.01033,0.00377,-0.0814
4.5,0.9646,0.0104,0.00382,-0.0815
4.6,0.976,0.01047,0.00388,-0.0815
4.7,0.9873,0.01055,0.00394,-0.0815
4.8,0.9984,0.01065,0.00401,-0.0816
4.9,1.0098,0.01071,0.00407,-0.0816
5,1.0211,0.01078,0.00413,-0.0817
5.1,1.0325,0.01085,0.00419,-0.0817
5.2,1.0437,0.01092,0.00425,-0.0818
5.3,1.055,0.011,0.00431,-0.0818
5.4,1.0662,0.01108,0.00438,-0.0818
5.5,1.0773,0.01117,0.00445,-0.0819
5.6,1.0885,0.01125,0.00452,-0.0819
5.7,1.0998,0.01131,0.00458,-0.0819
5.8,1.111,0.01138,0.00466,-0.082
5.9,1.1221,0.01148,0.00472,-0.082
6,1.1332,0.01156,0.0048,-0.082
6.1,1.1443,0.01165,0.00487,-0.0821
6.2,1.1553,0.01174,0.00494,-0.0821
6.3,1.1664,0.01183,0.00503,-0.0821
6.4,1.1776,0.0119,0.0051,-0.0821
6.5,1.1887,0.01197,0.00517,-0.0821
6.6,1.1998,0.01205,0.00525,-0.0822
6.7,1.2108,0.01214,0.00533,-0.0822
6.8,1.2218,0.01222,0.00541,-0.0822
6.9,1.2328,0.01231,0.00549,-0.0822
7,1.2434,0.01245,0.00558,-0.0822
7.1,1.2544,0.01253,0.00567,-0.0822
7.2,1.2654,0.01261,0.00575,-0.0822
7.3,1.2763,0.01269,0.00584,-0.0822
7.4,1.2872,0.01278,0.00592,-0.0822
7.5,1.2981,0.01287,0.00601,-0.0822
7.6,1.3089,0.01297,0.0061,-0.0822
7.7,1.3197,0.01307,0.0062,-0.0822
7.8,1.3304,0.01317,0.00629,-0.0822
7.9,1.3411,0.01329,0.00639,-0.0822
8,1.3518,0.01339,0.0065,-0.0821
8.1,1.3625,0.01348,0.00659,-0.0821
8.2,1.3732,0.01357,0.00668,-0.0821
8.3,1.3839,0.01367,0.00678,-0.0821
8.4,1.3946,0.01377,0.00688,-0.0821
8.5,1.4051,0.01388,0.00698,-0.082
8.6,1.4156,0.014,0.0071,-0.082
8.7,1.4261,0.01412,0.00721,-0.0819
8.8,1.4365,0.01424,0.00732,-0.0819
8.9,1.4471,0.01434,0.00743,-0.0818
9,1.4576,0.01443,0.00754,-0.0818
9.1,1.4681,0.01454,0.00764,-0.0817
9.2,1.4786,0.01464,0.00775,-0.0817
9.3,1.4888,0.01477,0.00787,-0.0816
9.4,1.499,0.01489,0.00799,-0.0816
9.5,1.5093,0.01502,0.00811,-0.0815
9.6,1.5194,0.01515,0.00824,-0.0814
9.7,1.5295,0.01529,0.00838,-0.0813
9.8,1.5397,0.0154,0.0085,-0.0812
9.9,1.55,0.01551,0.00862,-0.0811
10,1.5602,0.01562,0.00874,-0.0811
10.1,1.5704,0.01573,0.00886,-0.081
10.2,1.5804,0.01586,0.00899,-0.0809
10.3,1.5904,0.01598,0.00912,-0.0808
10.4,1.6003,0.01611,0.00926,-0.0806
10.5,1.6098,0.01629,0.00941,-0.0805
10.6,1.6195,0.01644,0.00955,-0.0803
10.7,1.6292,0.01659,0.00972,-0.0802
10.8,1.6391,0.01671,0.00985,-0.0801
10.9,1.649,0.01683,0.00999,-0.0799
11,1.6587,0.01696,0.01013,-0.0798
11.1,1.6682,0.01711,0.01027,-0.0796
11.2,1.6777,0.01725,0.01042,-0.0795
11.3,1.6872,0.01741,0.01058,-0.0793
11.4,1.6965,0.01756,0.01074,-0.0791
11.5,1.7051,0.01779,0.01093,-0.0788
11.6,1.7145,0.01793,0.01109,-0.0786
11.7,1.7237,0.01808,0.01125,-0.0784
11.8,1.733,0.01823,0.0114,-0.0782
11.9,1.7421,0.01838,0.01157,-0.078
12,1.7511,0.01854,0.01174,-0.0778
12.1,1.76,0.01871,0.01192,-0.0775
12.2,1.7687,0.01889,0.0121,-0.0773
12.3,1.7773,0.01907,0.01228,-0.077
12.4,1.7857,0.01926,0.01248,-0.0766
12.5,1.7941,0.01946,0.01268,-0.0763
12.6,1.8028,0.01961,0.01286,-0.076
12.7,1.8113,0.01977,0.01303,-0.0757
12.8,1.8197,0.01993,0.01321,-0.0754
12.9,1.8279,0.02011,0.0134,-0.075
13,1.8359,0.02028,0.01359,-0.0747
13.1,1.8438,0.02047,0.01379,-0.0743
13.2,1.8515,0.02066,0.01399,-0.0738
13.4,1.8645,0.0212,0.01451,-0.0727
13.5,1.8719,0.02138,0.01472,-0.0723
13.6,1.8791,0.02157,0.01493,-0.0718
13.7,1.8861,0.02177,0.01514,-0.0712
13.8,1.8928,0.02198,0.01537,-0.0707
13.9,1.8993,0.0222,0.0156,-0.0701
14,1.9053,0.02242,0.01583,-0.0694
14.1,1.9101,0.02265,0.01608,-0.0685
14.2,1.9144,0.02291,0.01635,-0.0676
14.3,1.9185,0.02318,0.01663,-0.0666
14.4,1.9226,0.02346,0.01693,-0.0657
14.5,1.9267,0.02375,0.01725,-0.0648
14.6,1.9316,0.024,0.01752,-0.064
14.7,1.9364,0.02426,0.01781,-0.0632
14.8,1.941,0.02453,0.01811,-0.0625
14.9,1.9457,0.02482,0.01841,-0.0617
15,1.9502,0.02511,0.01873,-0.061
15.1,1.9546,0.02543,0.01907,-0.0603
15.2,1.9589,0.02575,0.01941,-0.0597
15.3,1.9599,0.02629,0.01992,-0.0587
15.4,1.9634,0.02668,0.02035,-0.058
15.5,1.9677,0.02701,0.02071,-0.0574
15.6,1.9718,0.02737,0.0211,-0.0569
15.7,1.9758,0.02774,0.02149,-0.0563
15.8,1.9796,0.02813,0.02191,-0.0558
15.9,1.9833,0.02853,0.02234,-0.0553
16,1.9868,0.02896,0.02279,-0.0548
16.1,1.9899,0.02941,0.02326,-0.0543
16.2,1.9929,0.02989,0.02376,-0.0539
16.3,1.9956,0.0304,0.02429,-0.0534
16.4,1.9982,0.03093,0.02484,-0.0531
16.5,2.0016,0.03141,0.02537,-0.0528
16.6,2.005,0.0319,0.02589,-0.0525
16.7,2.0082,0.03241,0.02643,-0.0523
16.8,2.0113,0.03295,0.02699,-0.0522
16.9,2.0143,0.03351,0.02758,-0.0521
17,2.0145,0.03432,0.02839,-0.052
17.1,2.0163,0.03502,0.02914,-0.0521
17.2,2.0191,0.03564,0.02978,-0.0522
17.3,2.0218,0.03628,0.03045,-0.0523
17.4,2.0246,0.03694,0.03114,-0.0525
17.5,2.0271,0.03764,0.03187,-0.0529
17.6,2.0292,0.03841,0.03267,-0.0533
17.7,2.0268,0.03969,0.03396,-0.0541
17.8,2.0287,0.04054,0.03484,-0.0548
17.9,2.0303,0.04145,0.03578,-0.0556
18,2.0311,0.0425,0.03688,-0.0566
18.1,2.0326,0.0435,0.03791,-0.0576
18.2,2.0338,0.04456,0.039,-0.0589
18.3,2.0343,0.04577,0.04023,-0.0603
18.4,2.0346,0.04703,0.04156,-0.062
18.5,2.0353,0.04829,0.04285,-0.0637
18.6,2.0356,0.04966,0.04426,-0.0656
18.8,2.0314,0.0534,0.04814,-0.0712
18.9,2.0323,0.05483,0.04963,-0.0734
19,2.0329,0.05637,0.05124,-0.0758
19.1,2.0335,0.05794,0.05287,-0.0782
19.2,2.0338,0.05961,0.0546,-0.0808
19.3,2.0336,0.0614,0.05647,-0.0835
19.4,2.033,0.0633,0.05844,-0.0863
19.5,2.0317,0.06538,0.06061,-0.0894
19.6,2.03,0.06758,0.06289,-0.0927
19.7,2.0274,0.07003,0.06543,-0.0962
19.8,2.0239,0.0727,0.06819,-0.0999
19.9,2.0194,0.07562,0.07121,-0.1039
20,2.014,0.07879,0.0745,-0.1082
20.1,2.0076,0.08223,0.07805,-0.1126
20.2,1.9987,0.0864,0.08235,-0.1178
20.3,1.9889,0.09079,0.08688,-0.1231
20.4,1.9789,0.09522,0.09144,-0.1284
20.5,1.968,0.09979,0.09614,-0.1338
20.6,1.9565,0.10443,0.10091,-0.1394
20.7,1.9457,0.10879,0.10539,-0.1448
20.8,1.9371,0.11252,0.10922,-0.1495
20.9,1.9274,0.11655,0.11335,-0.1546
21,1.9181,0.12047,0.11738,-0.1596
21.1,1.9108,0.12389,0.12088,-0.1641
21.2,1.9031,0.12753,0.12461,-0.1687
21.3,1.8968,0.13094,0.1281,-0.173
21.4,1.8913,0.13422,0.13145,-0.177
21.5,1.8869,0.13726,0.13455,-0.1807
21.6,1.8813,0.14085,0.13822,-0.1848
21.7,1.8789,0.14346,0.14088,-0.1879
21.8,1.8738,0.14704,0.14453,-0.1918
21.9,1.8712,0.14986,0.1474,-0.195
22,1.8694,0.15246,0.15004,-0.1979
22.1,1.8657,0.15579,0.15344,-0.2014
22.2,1.8634,0.15863,0.15633,-0.2044
22.3,1.8626,0.16101,0.15874,-0.207
22.4,1.8619,0.16334,0.16111,-0.2095
22.5,1.8586,0.1667,0.16453,-0.2129
22.6,1.8574,0.16926,0.16714,-0.2156
22.7,1.857,0.17155,0.16946,-0.218
22.8,1.8568,0.1738,0.17174,-0.2204
22.9,1.8553,0.17655,0.17454,-0.2232
23,1.8532,0.17965,0.17768,-0.2263
23.1,1.8532,0.18191,0.17997,-0.2287
23.2,1.8534,0.18405,0.18214,-0.2309
23.3,1.8535,0.18627,0.18439,-0.2332
23.4,1.853,0.18881,0.18697,-0.2358
23.5,1.8513,0.19193,0.19013,-0.2388
23.6,1.8515,0.19416,0.19239,-0.2412
23.7,1.8521,0.19628,0.19453,-0.2434
23.8,1.8527,0.19836,0.19664,-0.2456
23.9,1.8532,0.20055,0.19885,-0.2478
24,1.8522,0.20348,0.20182,-0.2507
24.1,1.8519,0.20611,0.20449,-0.2533
24.2,1.8528,0.20819,0.20659,-0.2555
24.3,1.8537,0.21023,0.20865,-0.2576
24.4,1.8547,0.21221,0.21065,-0.2597
24.5,1.8557,0.21421,0.21266,-0.2618
24.6,1.8567,0.21626,0.21474,-0.264
24.7,1.8566,0.21891,0.21742,-0.2666
24.8,1.8569,0.22143,0.21997,-0.2691
24.9,1.858,0.22343,0.22198,-0.2713
25,1.8593,0.22534,0.22391,-0.2733
25.1,1.8607,0.2272,0.22578,-0.2753
25.2,1.8622,0.229,0.2276,-0.2773
25.3,1.8636,0.23083,0.22944,-0.2793
25.4,1.865,0.23265,0.23127,-0.2813
25.5,1.8664,0.23448,0.23311,-0.2833
25.6,1.8679,0.23627,0.23492,-0.2853
25.7,1.8691,0.23823,0.23689,-0.2874
25.8,1.8702,0.2403,0.23897,-0.2896
25.9,1.8718,0.24197,0.24066,-0.2915
26,1.8737,0.24349,0.24218,-0.2933
26.1,1.8757,0.24486,0.24355,-0.2951
26.2,1.8778,0.24612,0.24482,-0.2967
26.3,1.8795,0.24774,0.24644,-0.2985
26.4,1.8812,0.24942,0.24814,-0.3004
26.5,1.8829,0.25102,0.24976,-0.3022
26.6,1.8847,0.25261,0.25137,-0.304
26.7,1.8865,0.25417,0.25295,-0.3058
26.8,1.8882,0.25577,0.25456,-0.3077
26.9,1.89,0.25734,0.25614,-0.3095
27,1.8918,0.25889,0.25771,-0.3113
27.1,1.8935,0.2605,0.25934,-0.3132
27.2,1.8952,0.2621,0.26096,-0.315
27.3,1.8969,0.2637,0.26257,-0.3169
27.4,1.8986,0.26536,0.26424,-0.3188
27.5,1.8999,0.2673,0.2662,-0.3209
27.7,1.9022,0.27163,0.27058,-0.3255
27.8,1.9039,0.2732,0.27217,-0.3273
27.9,1.9057,0.27473,0.27371,-0.3292
28,1.9074,0.27629,0.27529,-0.3311
28.1,1.9092,0.2778,0.27681,-0.3329
28.2,1.9109,0.27934,0.27836,-0.3348
28.3,1.9126,0.28086,0.2799,-0.3366
28.4,1.9144,0.28238,0.28143,-0.3385
28.5,1.9161,0.28392,0.28298,-0.3404
28.6,1.9178,0.28548,0.28454,-0.3423
28.7,1.9194,0.28707,0.28615,-0.3442
28.8,1.9211,0.28862,0.28771,-0.3461
28.9,1.9227,0.29021,0.28932,-0.348
29,1.9243,0.29184,0.29096,-0.35
29.1,1.9259,0.29345,0.29258,-0.352
29.2,1.9274,0.29508,0.29422,-0.354
29.3,1.9287,0.29706,0.29621,-0.3562
29.4,1.9301,0.29893,0.2981,-0.3583
29.5,1.9316,0.30064,0.29982,-0.3604
29.6,1.9332,0.30222,0.30141,-0.3624
29.7,1.9348,0.30375,0.30294,-0.3643
29.8,1.9363,0.3053,0.3045,-0.3662
29.9,1.9379,0.30678,0.30599,-0.3682
30,1.9395,0.30825,0.30747,-0.3701

