airfoilName st10.dat
Re 	530000
M 	5.000000e-02
N 	4.500000e+00
VACC 	0 VACCflag 1
XTR 	1.00 	1.00 XTRflag 0
alpha,cl,cd,cdp,cm
-10.9,-0.7922,0.02978,0.02619,-0.0682
-10.8,-0.7836,0.02876,0.02506,-0.0689
-10.7,-0.7748,0.02788,0.02408,-0.0694
-10.6,-0.766,0.02708,0.0232,-0.0697
-10.5,-0.757,0.02637,0.0224,-0.07
-10.4,-0.7481,0.0257,0.02164,-0.0702
-10.3,-0.7391,0.02508,0.02095,-0.0703
-10.2,-0.7301,0.02451,0.0203,-0.0703
-10.1,-0.7203,0.02396,0.01968,-0.0705
-9.9,-0.6952,0.02336,0.01902,-0.0716
-9.8,-0.6825,0.02279,0.01837,-0.0724
-9.7,-0.6697,0.02224,0.01774,-0.0731
-9.6,-0.6575,0.02173,0.01716,-0.0736
-9.5,-0.645,0.02125,0.0166,-0.0742
-9.4,-0.6323,0.02077,0.01605,-0.0748
-9.3,-0.6201,0.02032,0.01553,-0.0753
-9.2,-0.6079,0.01989,0.01504,-0.0757
-9.1,-0.5961,0.01949,0.01456,-0.076
-9,-0.5842,0.01909,0.01409,-0.0764
-8.9,-0.5716,0.0187,0.01364,-0.0768
-8.8,-0.5593,0.01833,0.0132,-0.0772
-8.7,-0.5472,0.01797,0.01279,-0.0775
-8.6,-0.5356,0.01764,0.01239,-0.0777
-8.5,-0.5238,0.01731,0.01201,-0.078
-8.4,-0.5116,0.017,0.01163,-0.0782
-8.3,-0.4996,0.01669,0.01127,-0.0785
-8.2,-0.4878,0.01641,0.01093,-0.0786
-8.1,-0.4763,0.01614,0.01061,-0.0787
-8,-0.4648,0.01588,0.0103,-0.0788
-7.9,-0.4531,0.01565,0.01001,-0.0789
-7.8,-0.4415,0.01543,0.00974,-0.079
-7.7,-0.4299,0.01524,0.00949,-0.0791
-7.6,-0.4185,0.01506,0.00927,-0.0791
-7.5,-0.4074,0.01483,0.009,-0.0791
-7.4,-0.3962,0.01443,0.00857,-0.0791
-7.3,-0.3849,0.01417,0.00827,-0.0792
-7.2,-0.3736,0.01394,0.00802,-0.0792
-7.1,-0.3624,0.01375,0.00779,-0.0791
-7,-0.3511,0.01357,0.00759,-0.0791
-6.9,-0.3397,0.0134,0.00739,-0.0791
-6.8,-0.3285,0.01324,0.00721,-0.0791
-6.7,-0.3172,0.01309,0.00703,-0.079
-6.6,-0.3058,0.01294,0.00685,-0.079
-6.5,-0.2944,0.01279,0.00668,-0.079
-6.4,-0.2831,0.01265,0.00649,-0.079
-6.3,-0.2718,0.01252,0.00632,-0.0789
-6.2,-0.2603,0.01238,0.00615,-0.0789
-6.1,-0.2489,0.01224,0.00599,-0.0789
-6,-0.2375,0.01212,0.00582,-0.0788
-5.9,-0.2262,0.012,0.00566,-0.0788
-5.8,-0.2146,0.01188,0.00551,-0.0788
-5.7,-0.2031,0.01178,0.00537,-0.0788
-5.6,-0.1917,0.01164,0.00522,-0.0787
-5.5,-0.1801,0.01149,0.00506,-0.0788
-5.4,-0.1687,0.01138,0.00492,-0.0787
-5.3,-0.1572,0.01128,0.00479,-0.0787
-5.2,-0.1457,0.01119,0.00468,-0.0787
-5.1,-0.134,0.01109,0.00457,-0.0787
-5,-0.1223,0.011,0.00446,-0.0788
-4.9,-0.1107,0.01091,0.00435,-0.0788
-4.8,-0.0993,0.01084,0.00423,-0.0787
-4.7,-0.0876,0.01076,0.00413,-0.0787
-4.6,-0.0759,0.01069,0.00403,-0.0787
-4.5,-0.0643,0.0106,0.00392,-0.0787
-4.4,-0.0527,0.01052,0.00383,-0.0788
-4.3,-0.0411,0.01045,0.00375,-0.0788
-4.2,-0.0295,0.01039,0.00366,-0.0788
-4.1,-0.0178,0.01033,0.00358,-0.0788
-4,-0.006,0.01026,0.00349,-0.0788
-3.9,0.0057,0.01021,0.00341,-0.0789
-3.8,0.0174,0.01015,0.00333,-0.0789
-3.7,0.0289,0.01009,0.0033,-0.0789
-3.6,0.0406,0.01004,0.00322,-0.0789
-3.5,0.0523,0.01,0.00315,-0.079
-3.4,0.0636,0.00999,0.00308,-0.0789
-3.3,0.0752,0.00992,0.00303,-0.0789
-3.2,0.0868,0.00989,0.00297,-0.0789
-3.1,0.0985,0.00985,0.0029,-0.0789
-3,0.1099,0.00985,0.00284,-0.0789
-2.9,0.1216,0.00981,0.00279,-0.0789
-2.8,0.1331,0.00979,0.00273,-0.0789
-2.7,0.1448,0.00975,0.00269,-0.079
-2.6,0.1566,0.00972,0.00265,-0.079
-2.5,0.1683,0.00969,0.00259,-0.0791
-2.4,0.1801,0.00965,0.00256,-0.0791
-2.3,0.1913,0.00968,0.00252,-0.0791
-2.2,0.2031,0.00966,0.00248,-0.0791
-2.1,0.2147,0.00964,0.00244,-0.0792
-2,0.2263,0.00964,0.00241,-0.0792
-1.9,0.2379,0.00961,0.00238,-0.0792
-1.8,0.2493,0.00963,0.00236,-0.0792
-1.7,0.261,0.00962,0.00233,-0.0793
-1.6,0.2726,0.00961,0.0023,-0.0793
-1.5,0.2841,0.00962,0.00229,-0.0794
-1.4,0.2958,0.0096,0.00227,-0.0794
-1.3,0.3074,0.0096,0.00226,-0.0795
-1.2,0.3191,0.00959,0.00224,-0.0796
-1.1,0.3303,0.00965,0.00224,-0.0796
-1,0.342,0.00964,0.00223,-0.0796
-0.9,0.3535,0.00964,0.00223,-0.0797
-0.8,0.3651,0.00964,0.00222,-0.0798
-0.7,0.3767,0.00964,0.00223,-0.0798
-0.6,0.3884,0.00963,0.00222,-0.0799
-0.5,0.4,0.00962,0.00223,-0.08
-0.4,0.4117,0.00961,0.00222,-0.0801
-0.3,0.423,0.00966,0.00224,-0.0801
-0.2,0.4346,0.00966,0.00224,-0.0802
-0.1,0.4462,0.00964,0.00225,-0.0803
0,0.4579,0.00964,0.00225,-0.0804
0.1,0.4694,0.00965,0.00226,-0.0805
0.2,0.481,0.0096,0.00227,-0.0806
0.3,0.4925,0.0096,0.00229,-0.0807
0.4,0.5041,0.00958,0.0023,-0.0808
0.5,0.5154,0.00962,0.00233,-0.0808
0.6,0.5268,0.00954,0.00235,-0.081
0.7,0.5383,0.00951,0.00237,-0.0811
0.8,0.5497,0.00948,0.00239,-0.0812
1.2,0.584,0.00835,0.0024,-0.0786
1.3,0.5967,0.00839,0.00239,-0.0789
1.4,0.6081,0.00849,0.00243,-0.0789
1.5,0.619,0.00864,0.00248,-0.0789
1.6,0.6303,0.00875,0.00252,-0.079
1.7,0.6416,0.00886,0.00256,-0.079
1.8,0.6529,0.00897,0.00261,-0.079
1.9,0.6641,0.00908,0.00266,-0.079
2,0.6753,0.00921,0.00271,-0.0791
2.1,0.6865,0.00933,0.00276,-0.0791
2.2,0.6977,0.00945,0.00282,-0.0791
2.3,0.7085,0.00964,0.0029,-0.0791
2.4,0.7198,0.00974,0.00296,-0.0791
2.5,0.7311,0.00984,0.00301,-0.0792
2.6,0.7424,0.00994,0.00307,-0.0792
2.7,0.7538,0.01003,0.00312,-0.0793
2.8,0.7651,0.01012,0.00317,-0.0793
2.9,0.7764,0.01022,0.00323,-0.0793
3,0.7878,0.0103,0.0033,-0.0794
3.1,0.7992,0.01037,0.00335,-0.0794
3.2,0.8105,0.01045,0.0034,-0.0795
3.3,0.8216,0.01058,0.00348,-0.0795
3.4,0.833,0.01065,0.00353,-0.0795
3.5,0.8444,0.01073,0.00359,-0.0796
3.6,0.8557,0.01081,0.00365,-0.0796
3.7,0.867,0.0109,0.00371,-0.0796
3.8,0.8782,0.01099,0.00378,-0.0797
3.9,0.8896,0.01106,0.00384,-0.0797
4,0.9009,0.01113,0.0039,-0.0797
4.1,0.9122,0.01121,0.00396,-0.0798
4.2,0.9235,0.01129,0.00402,-0.0798
4.3,0.9344,0.01142,0.00411,-0.0798
4.4,0.9458,0.01149,0.00417,-0.0799
4.5,0.957,0.01156,0.00423,-0.0799
4.6,0.9683,0.01164,0.0043,-0.0799
4.7,0.9795,0.01172,0.00436,-0.08
4.8,0.9907,0.01181,0.00443,-0.08
4.9,1.0018,0.0119,0.00452,-0.08
5,1.0129,0.01199,0.0046,-0.08
5.1,1.0241,0.01207,0.00466,-0.08
5.2,1.0353,0.01214,0.00474,-0.0801
5.3,1.0463,0.01224,0.00481,-0.0801
5.4,1.0574,0.01233,0.00488,-0.0801
5.5,1.0684,0.01243,0.00496,-0.0801
5.6,1.0794,0.01254,0.00505,-0.0801
5.7,1.0905,0.01261,0.00513,-0.0801
5.8,1.1016,0.01269,0.00522,-0.0801
5.9,1.1127,0.01277,0.0053,-0.0802
6,1.1237,0.01286,0.00538,-0.0802
6.1,1.1346,0.01296,0.00546,-0.0802
6.2,1.1455,0.01306,0.00555,-0.0802
6.3,1.1564,0.01317,0.00564,-0.0802
6.4,1.1672,0.01327,0.00573,-0.0801
6.5,1.1782,0.01336,0.00582,-0.0801
6.6,1.1891,0.01345,0.00591,-0.0801
6.7,1.2,0.01354,0.00601,-0.0801
6.8,1.2108,0.01364,0.0061,-0.0801
6.9,1.2216,0.01375,0.0062,-0.0801
7,1.2322,0.01386,0.0063,-0.0801
7.1,1.2428,0.01399,0.00641,-0.08
7.2,1.2537,0.01407,0.00651,-0.08
7.3,1.2645,0.01416,0.00661,-0.08
7.4,1.2753,0.01426,0.00671,-0.08
7.5,1.2859,0.01437,0.0068,-0.08
7.6,1.2965,0.01448,0.00691,-0.0799
7.7,1.307,0.0146,0.00703,-0.0799
7.8,1.3174,0.01473,0.00714,-0.0798
7.9,1.3279,0.01485,0.00727,-0.0798
8,1.3386,0.01495,0.00737,-0.0797
8.1,1.3492,0.01505,0.00748,-0.0797
8.2,1.3597,0.01515,0.0076,-0.0796
8.3,1.3702,0.01526,0.00771,-0.0796
8.4,1.3806,0.01538,0.00783,-0.0795
8.5,1.3909,0.0155,0.00795,-0.0795
8.6,1.4012,0.01563,0.00808,-0.0794
8.7,1.411,0.0158,0.00823,-0.0793
8.8,1.4215,0.01591,0.00835,-0.0792
8.9,1.4318,0.01602,0.00847,-0.0791
9,1.4421,0.01613,0.00859,-0.079
9.1,1.4523,0.01625,0.00872,-0.079
9.2,1.4625,0.01638,0.00885,-0.0789
9.3,1.4726,0.01651,0.00899,-0.0788
9.4,1.4825,0.01665,0.00913,-0.0787
9.5,1.4924,0.01679,0.00927,-0.0785
9.6,1.5022,0.01695,0.00942,-0.0784
9.7,1.512,0.0171,0.00959,-0.0783
9.8,1.5221,0.01722,0.00973,-0.0781
9.9,1.532,0.01734,0.00986,-0.078
10,1.5419,0.01748,0.01,-0.0779
10.1,1.5516,0.01762,0.01015,-0.0778
10.2,1.5613,0.01776,0.01031,-0.0776
10.3,1.5709,0.01792,0.01046,-0.0774
10.4,1.5803,0.01808,0.01063,-0.0773
10.5,1.5896,0.01825,0.0108,-0.0771
10.6,1.5988,0.01844,0.01098,-0.0768
10.7,1.6084,0.01856,0.01114,-0.0767
10.8,1.618,0.0187,0.01131,-0.0765
10.9,1.6274,0.01884,0.01147,-0.0763
11,1.6367,0.01899,0.01164,-0.0761
11.1,1.6458,0.01916,0.0118,-0.0759
11.2,1.6549,0.01933,0.01198,-0.0757
11.3,1.6638,0.0195,0.01216,-0.0754
11.4,1.6726,0.01969,0.01235,-0.0752
11.5,1.6811,0.01988,0.01255,-0.0749
11.6,1.6895,0.02009,0.01276,-0.0745
11.7,1.6985,0.02024,0.01294,-0.0743
11.8,1.7073,0.0204,0.01313,-0.074
11.9,1.716,0.02056,0.01332,-0.0737
12,1.7245,0.02073,0.01351,-0.0734
12.1,1.7327,0.02092,0.01371,-0.0731
12.2,1.7408,0.02111,0.01391,-0.0727
12.3,1.7488,0.02131,0.01412,-0.0723
12.4,1.756,0.02156,0.01435,-0.0719
12.5,1.7633,0.02179,0.01459,-0.0714
12.6,1.771,0.02198,0.01481,-0.071
12.7,1.7789,0.02215,0.015,-0.0706
12.8,1.7863,0.02234,0.01522,-0.0702
12.9,1.7935,0.02255,0.01544,-0.0697
13,1.8005,0.02276,0.01567,-0.0691
13.1,1.8073,0.02298,0.01591,-0.0686
13.2,1.8137,0.02321,0.01616,-0.068
13.3,1.8197,0.02345,0.01641,-0.0674
13.4,1.8246,0.0237,0.01667,-0.0665
13.5,1.829,0.02397,0.01696,-0.0656
13.6,1.8335,0.02424,0.01726,-0.0647
13.7,1.839,0.02447,0.01753,-0.064
13.8,1.8442,0.02471,0.01781,-0.0632
13.9,1.8494,0.02496,0.01809,-0.0625
14,1.8544,0.02522,0.01838,-0.0618
14.1,1.8594,0.0255,0.01869,-0.0611
14.3,1.8686,0.02611,0.01933,-0.0597
14.4,1.8731,0.02643,0.01968,-0.059
14.5,1.8774,0.02676,0.02004,-0.0583
14.6,1.8816,0.02711,0.02041,-0.0577
14.7,1.8854,0.02749,0.0208,-0.057
14.8,1.8891,0.02788,0.02122,-0.0564
14.9,1.894,0.0282,0.02159,-0.0559
15,1.8987,0.02854,0.02196,-0.0554
15.1,1.9031,0.02889,0.02234,-0.0549
15.2,1.9073,0.02927,0.02275,-0.0544
15.3,1.9114,0.02966,0.02318,-0.0539
15.4,1.9153,0.03008,0.02362,-0.0535
15.5,1.9191,0.0305,0.02407,-0.0531
15.6,1.9226,0.03095,0.02455,-0.0527
15.7,1.9261,0.03142,0.02506,-0.0523
15.8,1.9293,0.03192,0.02558,-0.052
15.9,1.932,0.03247,0.02616,-0.0517
16,1.9361,0.03292,0.02665,-0.0515
16.1,1.94,0.03339,0.02716,-0.0514
16.2,1.9438,0.03387,0.02769,-0.0512
16.3,1.9475,0.03438,0.02824,-0.0511
16.4,1.9506,0.03495,0.02883,-0.0511
16.5,1.9539,0.03552,0.02942,-0.0511
16.6,1.9572,0.0361,0.03004,-0.0512
16.7,1.9602,0.03671,0.03069,-0.0513
16.8,1.963,0.03737,0.03137,-0.0515
16.9,1.9657,0.03805,0.03208,-0.0517
17,1.9691,0.03868,0.03277,-0.052
17.1,1.9729,0.03929,0.03343,-0.0524
17.2,1.9766,0.03992,0.0341,-0.0528
17.3,1.9802,0.04057,0.0348,-0.0532
17.4,1.9837,0.04125,0.03552,-0.0538
17.5,1.9872,0.04195,0.03627,-0.0544
17.6,1.9905,0.04269,0.03705,-0.0551
17.7,1.9937,0.04346,0.03786,-0.0558
17.8,1.9952,0.04446,0.03887,-0.0569
17.9,1.9977,0.04538,0.03983,-0.058
18,2.001,0.0462,0.04072,-0.059
18.1,2.0044,0.04702,0.0416,-0.06
18.2,2.0076,0.04788,0.04251,-0.0611
18.3,2.0107,0.04879,0.04347,-0.0624
18.4,2.0136,0.04975,0.04447,-0.0637
18.5,2.0163,0.05076,0.04553,-0.0652
18.6,2.0188,0.05183,0.04665,-0.0667
18.7,2.0207,0.05301,0.04788,-0.0685
18.8,2.0208,0.05453,0.04945,-0.0708
18.9,2.0228,0.05575,0.05072,-0.0726
19,2.0245,0.05705,0.05208,-0.0746
19.1,2.0259,0.05843,0.05352,-0.0768
19.2,2.0268,0.05993,0.05508,-0.0791
19.3,2.0269,0.0616,0.05681,-0.0816
19.4,2.0263,0.06344,0.05871,-0.0844
19.5,2.0252,0.0654,0.06077,-0.0874
19.6,2.0244,0.06735,0.06278,-0.0903
19.7,2.0229,0.06946,0.06497,-0.0934
19.8,2.0206,0.07177,0.06736,-0.0967
19.9,2.0174,0.0743,0.06998,-0.1003
20,2.0134,0.07706,0.07283,-0.1041
20.1,2.0083,0.08008,0.07595,-0.1082
20.2,2.0017,0.08354,0.07951,-0.1128
20.5,1.9778,0.09507,0.09143,-0.1272
20.6,1.9694,0.09897,0.09544,-0.132
20.7,1.9605,0.10289,0.09947,-0.1369
20.8,1.9525,0.10655,0.10323,-0.1415
20.9,1.9443,0.11019,0.10697,-0.1462
21,1.9378,0.11337,0.11023,-0.1503
21.1,1.9298,0.11695,0.1139,-0.1549
21.2,1.9229,0.12025,0.11728,-0.1592
21.3,1.9169,0.12338,0.12048,-0.1633
21.4,1.9107,0.12665,0.12383,-0.1675
21.5,1.905,0.12986,0.1271,-0.1716
21.6,1.8998,0.13304,0.13034,-0.1755
21.8,1.8904,0.13937,0.13677,-0.1832
22.2,1.8678,0.15432,0.15191,-0.2
22.3,1.8636,0.15784,0.15552,-0.2037
22.4,1.861,0.16084,0.15856,-0.2069
22.5,1.8593,0.16349,0.16124,-0.2098
22.6,1.8575,0.16625,0.16404,-0.2127
22.7,1.8541,0.16971,0.16754,-0.2162
22.8,1.8527,0.17241,0.17027,-0.2191
22.9,1.8513,0.17511,0.173,-0.2219
23,1.8488,0.17837,0.1763,-0.2252
23.1,1.8468,0.18147,0.17946,-0.2283
23.2,1.8464,0.18391,0.18192,-0.2308
23.3,1.846,0.18636,0.1844,-0.2334
23.4,1.8458,0.18881,0.18688,-0.2359
23.5,1.8443,0.19185,0.18996,-0.2389
23.6,1.8441,0.19433,0.19247,-0.2414
23.7,1.8444,0.19664,0.1948,-0.2438
23.8,1.8447,0.1989,0.19709,-0.2462
23.9,1.8449,0.20125,0.19946,-0.2486
24,1.8442,0.20414,0.20239,-0.2514
24.1,1.8442,0.2067,0.20497,-0.254
24.2,1.8448,0.20891,0.2072,-0.2563
24.3,1.8455,0.2111,0.20941,-0.2586
24.4,1.8463,0.21327,0.2116,-0.2608
24.5,1.8471,0.21543,0.21377,-0.2631
24.6,1.8478,0.21774,0.2161,-0.2655
24.7,1.848,0.22029,0.21868,-0.268
24.8,1.8489,0.2225,0.2209,-0.2703
24.9,1.8501,0.22452,0.22293,-0.2725
25,1.8514,0.22645,0.22487,-0.2746
25.1,1.8529,0.22825,0.22667,-0.2766
25.2,1.8546,0.22993,0.22836,-0.2784
25.3,1.8563,0.23161,0.23007,-0.2803
25.4,1.858,0.23329,0.23177,-0.2822
25.5,1.8597,0.23497,0.23347,-0.284
25.6,1.8613,0.23667,0.23518,-0.2859
25.7,1.8628,0.23847,0.23701,-0.2879
25.8,1.8642,0.24042,0.23897,-0.29
25.9,1.8657,0.24221,0.24078,-0.2919
26,1.8675,0.24388,0.24247,-0.2938
26.1,1.8691,0.24556,0.24417,-0.2957
26.2,1.8709,0.24719,0.24581,-0.2976
26.3,1.8727,0.24877,0.24741,-0.2994
26.4,1.8745,0.25037,0.24902,-0.3013
26.5,1.8763,0.25195,0.25061,-0.3031
26.6,1.8781,0.2535,0.25218,-0.305
26.7,1.88,0.25505,0.25373,-0.3068
26.8,1.8818,0.25661,0.25531,-0.3086
26.9,1.8836,0.25814,0.25685,-0.3105
27,1.8854,0.25965,0.25837,-0.3123
27.1,1.8872,0.26119,0.25992,-0.3141
27.2,1.8891,0.26269,0.26143,-0.3159
27.3,1.8909,0.26418,0.26292,-0.3177
27.4,1.8927,0.26566,0.26442,-0.3196
27.5,1.8946,0.26711,0.26587,-0.3214
27.6,1.8964,0.26859,0.26736,-0.3232
27.7,1.8982,0.27004,0.26881,-0.325
27.8,1.9,0.27145,0.27024,-0.3268
27.9,1.902,0.27271,0.2715,-0.3285
28,1.9039,0.27398,0.27277,-0.3302
28.1,1.906,0.27506,0.27386,-0.3318
28.2,1.9081,0.27607,0.27486,-0.3333
28.3,1.9104,0.27693,0.27572,-0.3348
28.4,1.9125,0.27792,0.27671,-0.3363
28.5,1.9149,0.27855,0.27733,-0.3376
28.6,1.9172,0.27914,0.27791,-0.3389
28.7,1.9189,0.28058,0.27936,-0.3407
28.8,1.8344,0.28408,0.28287,-0.3411
28.9,1.8378,0.28401,0.28281,-0.3425
29,1.8336,0.28532,0.28411,-0.3437
29.1,1.8234,0.28844,0.28724,-0.3451
29.2,1.8073,0.29392,0.29271,-0.3465
29.3,1.7927,0.29998,0.29876,-0.348

