airfoilName st10.dat
Re 	630000
M 	5.000000e-02
N 	4.500000e+00
VACC 	0 VACCflag 1
XTR 	1.00 	1.00 XTRflag 0
alpha,cl,cd,cdp,cm
-11.2,-0.8173,0.03191,0.02858,-0.0665
-11,-0.8028,0.02853,0.0249,-0.0691
-10.8,-0.7874,0.02612,0.02224,-0.0703
-10.7,-0.7791,0.02521,0.02123,-0.0706
-10.6,-0.7705,0.02439,0.02032,-0.0708
-10.5,-0.7616,0.02369,0.01954,-0.071
-10.4,-0.7517,0.02304,0.01881,-0.0713
-10.3,-0.7402,0.02242,0.01811,-0.0718
-10.2,-0.7285,0.02185,0.01747,-0.0724
-10,-0.703,0.02081,0.0163,-0.0738
-9.9,-0.6912,0.02036,0.0158,-0.0742
-9.8,-0.6788,0.01993,0.01531,-0.0747
-9.6,-0.6534,0.01943,0.01476,-0.0756
-9.5,-0.6417,0.01907,0.01434,-0.0759
-9.4,-0.6295,0.01871,0.01393,-0.0763
-9.3,-0.6175,0.01836,0.01352,-0.0766
-9.2,-0.605,0.01803,0.01314,-0.0771
-9.1,-0.5932,0.01771,0.01278,-0.0773
-9,-0.5817,0.01741,0.01242,-0.0775
-8.9,-0.5699,0.01711,0.01207,-0.0777
-8.8,-0.5582,0.01682,0.01174,-0.0779
-8.7,-0.5462,0.01654,0.01141,-0.0781
-8.6,-0.5348,0.01627,0.0111,-0.0782
-8.5,-0.5234,0.01601,0.0108,-0.0783
-8.4,-0.5121,0.01577,0.0105,-0.0783
-8.3,-0.5007,0.01552,0.01021,-0.0784
-8.2,-0.4893,0.01528,0.00992,-0.0785
-8.1,-0.4779,0.01505,0.00965,-0.0785
-8,-0.4669,0.01483,0.00939,-0.0785
-7.9,-0.4556,0.01461,0.00913,-0.0785
-7.8,-0.4443,0.0144,0.00887,-0.0785
-7.7,-0.4334,0.01421,0.00863,-0.0784
-7.6,-0.422,0.01402,0.00839,-0.0784
-7.5,-0.4107,0.01383,0.00817,-0.0784
-7.4,-0.3994,0.01366,0.00796,-0.0784
-7.3,-0.3885,0.01351,0.00776,-0.0782
-7.2,-0.3771,0.01337,0.00758,-0.0782
-7.1,-0.3656,0.01324,0.00741,-0.0782
-7,-0.3546,0.01302,0.00717,-0.0781
-6.9,-0.3434,0.01277,0.00687,-0.0781
-6.8,-0.3321,0.01257,0.00664,-0.0781
-6.7,-0.3205,0.01239,0.00645,-0.0782
-6.6,-0.3093,0.01225,0.00627,-0.0781
-6.5,-0.2979,0.01211,0.00611,-0.0781
-6.4,-0.2865,0.01199,0.00595,-0.078
-6.3,-0.2749,0.01186,0.00581,-0.0781
-6.2,-0.2633,0.01174,0.00566,-0.0781
-6.1,-0.2521,0.01164,0.00552,-0.078
-6,-0.2406,0.01152,0.00538,-0.078
-5.9,-0.2289,0.01141,0.00524,-0.078
-5.8,-0.2173,0.0113,0.00511,-0.078
-5.6,-0.1944,0.01111,0.00484,-0.078
-5.5,-0.1827,0.01102,0.00472,-0.078
-5.4,-0.171,0.01093,0.0046,-0.078
-5.3,-0.1594,0.01082,0.00447,-0.078
-5.2,-0.1478,0.01071,0.00434,-0.078
-5.1,-0.1362,0.01062,0.00423,-0.078
-5,-0.1246,0.01054,0.00413,-0.0781
-4.9,-0.113,0.01047,0.00403,-0.0781
-4.8,-0.1012,0.01039,0.00394,-0.0781
-4.7,-0.0894,0.01032,0.00385,-0.0782
-4.6,-0.0777,0.01025,0.00376,-0.0782
-4.5,-0.0662,0.0102,0.00367,-0.0782
-4.4,-0.0544,0.01014,0.00359,-0.0782
-4.3,-0.0427,0.01006,0.0035,-0.0783
-4.2,-0.031,0.01,0.00342,-0.0783
-4.1,-0.0192,0.00993,0.00334,-0.0783
-4,-0.0074,0.00987,0.00327,-0.0784
-3.9,0.0041,0.00984,0.0032,-0.0784
-3.8,0.0159,0.00979,0.00313,-0.0784
-3.7,0.0277,0.00975,0.00307,-0.0785
-3.6,0.039,0.00973,0.003,-0.0784
-3.5,0.0508,0.00967,0.00294,-0.0785
-3.4,0.0623,0.00965,0.0029,-0.0785
-3.3,0.0739,0.00963,0.00284,-0.0785
-3.2,0.0855,0.00961,0.00278,-0.0785
-3.1,0.0973,0.00956,0.00273,-0.0786
-3,0.1088,0.00955,0.00268,-0.0786
-2.9,0.1205,0.00952,0.00263,-0.0786
-2.8,0.1323,0.0095,0.00259,-0.0787
-2.7,0.1441,0.00946,0.00254,-0.0787
-2.6,0.1558,0.00943,0.0025,-0.0788
-2.5,0.1671,0.00946,0.00247,-0.0787
-2.4,0.1789,0.00943,0.00242,-0.0788
-2.3,0.1906,0.00941,0.00239,-0.0789
-2.2,0.2022,0.00941,0.00236,-0.0789
-2.1,0.2139,0.00941,0.00233,-0.0789
-2,0.2253,0.00944,0.00229,-0.0789
-1.9,0.237,0.00942,0.00227,-0.079
-1.8,0.2487,0.00941,0.00224,-0.0791
-1.7,0.2604,0.00939,0.00223,-0.0792
-1.6,0.272,0.00941,0.00221,-0.0792
-1.5,0.2837,0.0094,0.00219,-0.0793
-1.4,0.2954,0.00939,0.00218,-0.0793
-1.3,0.3071,0.00937,0.00217,-0.0794
-1.2,0.3184,0.00943,0.00217,-0.0794
-1.1,0.3301,0.00942,0.00215,-0.0795
-1,0.3417,0.00944,0.00215,-0.0796
-0.9,0.3534,0.00944,0.00214,-0.0797
-0.8,0.3651,0.00941,0.00214,-0.0798
-0.7,0.3768,0.00942,0.00214,-0.0798
-0.6,0.3884,0.00942,0.00214,-0.0799
-0.5,0.3998,0.00947,0.00214,-0.08
-0.4,0.4115,0.00944,0.00215,-0.0801
-0.3,0.4232,0.00945,0.00216,-0.0802
-0.2,0.4348,0.00945,0.00216,-0.0802
-0.1,0.4465,0.00946,0.00216,-0.0803
0,0.4581,0.00945,0.00218,-0.0804
0.1,0.4697,0.00945,0.00218,-0.0805
0.2,0.4813,0.00947,0.0022,-0.0806
0.3,0.4926,0.00953,0.00222,-0.0806
0.4,0.5042,0.00948,0.00224,-0.0808
0.5,0.5157,0.00949,0.00225,-0.0809
0.6,0.5273,0.00949,0.00227,-0.081
0.7,0.5388,0.00943,0.0023,-0.0811
0.8,0.5503,0.00942,0.00232,-0.0812
0.9,0.5618,0.00942,0.00235,-0.0813
1,0.5733,0.0094,0.00237,-0.0814
1.1,0.5845,0.00925,0.00241,-0.0816
1.4,0.6079,0.00836,0.00242,-0.0791
1.5,0.6196,0.00845,0.00244,-0.0792
1.6,0.6309,0.00856,0.00249,-0.0792
1.7,0.6422,0.00867,0.00253,-0.0793
1.8,0.6535,0.00878,0.00258,-0.0793
1.9,0.6648,0.0089,0.00263,-0.0794
2,0.6761,0.00902,0.00269,-0.0794
2.2,0.6984,0.00929,0.00281,-0.0794
2.3,0.7097,0.00939,0.00286,-0.0795
2.4,0.7212,0.00946,0.00291,-0.0795
2.5,0.7326,0.00955,0.00295,-0.0796
2.6,0.744,0.00964,0.003,-0.0796
2.7,0.7554,0.00971,0.00306,-0.0797
2.8,0.7669,0.00978,0.0031,-0.0797
2.9,0.7784,0.00986,0.00315,-0.0798
3,0.7897,0.00994,0.00321,-0.0798
3.1,0.801,0.01005,0.00327,-0.0799
3.2,0.8124,0.01011,0.00332,-0.0799
3.3,0.8239,0.01019,0.00337,-0.08
3.4,0.8352,0.01027,0.00342,-0.08
3.5,0.8465,0.01036,0.00349,-0.0801
3.6,0.858,0.01042,0.00354,-0.0801
3.7,0.8694,0.01049,0.00359,-0.0802
3.8,0.8808,0.01056,0.00364,-0.0802
3.9,0.8922,0.01063,0.00371,-0.0803
4,0.9034,0.01072,0.00377,-0.0803
4.1,0.9146,0.01082,0.00384,-0.0803
4.2,0.926,0.01088,0.00389,-0.0804
4.3,0.9373,0.01096,0.00395,-0.0804
4.4,0.9486,0.01103,0.00401,-0.0805
4.5,0.9599,0.01111,0.00407,-0.0805
4.6,0.9711,0.0112,0.00414,-0.0805
4.7,0.9823,0.01129,0.00421,-0.0806
4.8,0.9936,0.01135,0.00427,-0.0806
4.9,1.0049,0.01142,0.00434,-0.0806
5,1.0162,0.0115,0.00441,-0.0807
5.1,1.0272,0.0116,0.00447,-0.0807
5.2,1.0383,0.01169,0.00455,-0.0807
5.3,1.0494,0.01179,0.00463,-0.0807
5.4,1.0607,0.01186,0.00469,-0.0808
5.5,1.0719,0.01193,0.00476,-0.0808
5.6,1.083,0.01201,0.00483,-0.0808
5.7,1.0942,0.01209,0.00491,-0.0808
5.8,1.1052,0.01218,0.00499,-0.0809
5.9,1.1163,0.01227,0.00507,-0.0809
6,1.1272,0.01237,0.00515,-0.0809
6.1,1.1382,0.01247,0.00524,-0.0809
6.2,1.1493,0.01255,0.00531,-0.0809
6.3,1.1603,0.01263,0.00539,-0.0809
6.4,1.1713,0.01272,0.00548,-0.0809
6.5,1.1822,0.01281,0.00556,-0.0809
6.6,1.1931,0.01291,0.00565,-0.0809
6.7,1.204,0.01302,0.00574,-0.0809
6.8,1.2148,0.01312,0.00585,-0.0809
6.9,1.2257,0.0132,0.00593,-0.0809
7,1.2367,0.01329,0.00602,-0.0809
7.1,1.2476,0.01338,0.00611,-0.0809
7.2,1.2584,0.01347,0.0062,-0.0809
7.3,1.269,0.01359,0.00629,-0.0809
7.4,1.2797,0.0137,0.00639,-0.0808
7.5,1.2903,0.01382,0.0065,-0.0808
7.6,1.301,0.01392,0.00661,-0.0808
7.7,1.3118,0.01401,0.00671,-0.0808
7.8,1.3225,0.01411,0.00681,-0.0807
7.9,1.3332,0.0142,0.00691,-0.0807
8,1.3439,0.01431,0.00701,-0.0807
8.1,1.3544,0.01441,0.00712,-0.0806
8.2,1.365,0.01453,0.00723,-0.0806
8.3,1.3754,0.01465,0.00734,-0.0805
8.4,1.3858,0.01478,0.00746,-0.0805
8.5,1.3961,0.0149,0.00758,-0.0804
8.6,1.4067,0.015,0.0077,-0.0804
8.7,1.4171,0.01511,0.00781,-0.0803
8.8,1.4275,0.01522,0.00793,-0.0803
8.9,1.4379,0.01533,0.00804,-0.0802
9,1.4482,0.01546,0.00817,-0.0801
9.1,1.4584,0.01558,0.00829,-0.08
9.2,1.4685,0.01572,0.00842,-0.0799
9.3,1.4785,0.01587,0.00856,-0.0798
9.4,1.4887,0.01599,0.0087,-0.0797
9.5,1.4989,0.0161,0.00882,-0.0797
9.7,1.5191,0.01634,0.00908,-0.0795
9.8,1.5291,0.01647,0.00922,-0.0794
9.9,1.5391,0.01661,0.00936,-0.0792
10,1.5489,0.01675,0.0095,-0.0791
10.1,1.5586,0.0169,0.00965,-0.079
10.2,1.5683,0.01706,0.0098,-0.0788
10.3,1.5779,0.01721,0.00996,-0.0787
10.4,1.5878,0.01733,0.0101,-0.0785
10.5,1.5976,0.01746,0.01025,-0.0784
10.6,1.6074,0.01759,0.01039,-0.0782
10.7,1.617,0.01773,0.01054,-0.0781
10.8,1.6266,0.01787,0.01071,-0.0779
10.9,1.6358,0.01805,0.01087,-0.0777
11,1.6451,0.01821,0.01103,-0.0775
11.1,1.6542,0.01838,0.01121,-0.0773
11.2,1.6633,0.01856,0.01139,-0.0771
11.3,1.6724,0.01873,0.01157,-0.0769
11.4,1.6817,0.01886,0.01173,-0.0767
11.5,1.691,0.01901,0.01189,-0.0764
11.6,1.7001,0.01916,0.01206,-0.0762
11.7,1.7089,0.01933,0.01223,-0.076
11.8,1.7177,0.0195,0.01241,-0.0757
11.9,1.7264,0.01968,0.0126,-0.0754
12,1.7349,0.01987,0.01279,-0.0751
12.1,1.7432,0.02006,0.013,-0.0748
12.2,1.7512,0.02028,0.01321,-0.0744
12.3,1.7596,0.02045,0.0134,-0.0741
12.4,1.7679,0.02062,0.01359,-0.0738
12.5,1.7761,0.0208,0.01379,-0.0734
12.6,1.7841,0.02099,0.01399,-0.073
12.7,1.7918,0.02119,0.0142,-0.0726
12.8,1.7994,0.02139,0.01441,-0.0722
12.9,1.8067,0.02161,0.01464,-0.0717
13,1.8137,0.02183,0.01487,-0.0712
13.1,1.8205,0.02207,0.01511,-0.0707
13.2,1.8276,0.02227,0.01535,-0.0702
13.3,1.8348,0.02246,0.01556,-0.0697
13.4,1.8417,0.02266,0.01579,-0.0691
13.5,1.8484,0.02286,0.01602,-0.0686
13.6,1.8543,0.02307,0.01626,-0.0679
13.7,1.8594,0.0233,0.01651,-0.067
13.8,1.8643,0.02353,0.01677,-0.0662
13.9,1.8684,0.02382,0.01706,-0.0652
14,1.873,0.0241,0.01735,-0.0644
14.1,1.8773,0.02439,0.01765,-0.0635
14.2,1.8816,0.02469,0.01797,-0.0627
14.3,1.8857,0.02501,0.0183,-0.0619
14.4,1.8909,0.02527,0.0186,-0.0612
14.5,1.8957,0.02555,0.01891,-0.0605
14.6,1.9005,0.02585,0.01923,-0.0599
14.7,1.9051,0.02615,0.01957,-0.0592
14.8,1.9096,0.02647,0.01991,-0.0586
14.9,1.9139,0.02681,0.02027,-0.058
15,1.9181,0.02716,0.02065,-0.0573
15.1,1.922,0.02753,0.02104,-0.0567
15.2,1.9258,0.02792,0.02145,-0.0561
15.3,1.9295,0.02833,0.02188,-0.0556
15.4,1.9328,0.02876,0.02233,-0.055
15.5,1.9373,0.02912,0.02274,-0.0546
15.6,1.9416,0.0295,0.02317,-0.0541
15.7,1.9453,0.02992,0.02361,-0.0537
15.8,1.9491,0.03034,0.02406,-0.0533
15.9,1.9529,0.03078,0.02453,-0.0529
16,1.9554,0.03131,0.02507,-0.0526
16.1,1.9587,0.03181,0.0256,-0.0523
16.2,1.9617,0.03233,0.02615,-0.052
16.3,1.9646,0.03288,0.02672,-0.0518
16.4,1.9679,0.03341,0.0273,-0.0517
16.5,1.9716,0.03391,0.02784,-0.0516
16.6,1.9753,0.03443,0.02839,-0.0515
16.7,1.9789,0.03496,0.02897,-0.0515
16.8,1.9823,0.03552,0.02956,-0.0515
16.9,1.9856,0.0361,0.03017,-0.0516
17,1.9888,0.0367,0.03081,-0.0518
17.1,1.9918,0.03735,0.03149,-0.052
17.2,1.9947,0.03801,0.03218,-0.0523
17.3,1.9974,0.03872,0.03292,-0.0526
17.4,2,0.03946,0.03369,-0.0531
17.5,2.0024,0.04025,0.03452,-0.0536
17.6,2.0057,0.04094,0.03526,-0.0542
17.7,2.009,0.04167,0.03602,-0.0548
17.8,2.012,0.04244,0.03684,-0.0555
17.9,2.0149,0.04325,0.03768,-0.0563
18,2.0176,0.0441,0.03857,-0.0573
18.1,2.02,0.04501,0.03952,-0.0583
18.2,2.022,0.04601,0.04058,-0.0595
18.3,2.025,0.0469,0.04151,-0.0607
18.4,2.0278,0.04783,0.04248,-0.0619
18.5,2.0304,0.0488,0.0435,-0.0632
18.6,2.0329,0.04983,0.04458,-0.0647
18.7,2.032,0.0514,0.04616,-0.0669
18.8,2.0335,0.05265,0.04749,-0.0688
18.9,2.0351,0.05391,0.0488,-0.0707
19,2.0307,0.05624,0.05116,-0.0743
19.1,2.0309,0.05784,0.05281,-0.0767
19.2,2.0309,0.05953,0.05455,-0.0793
19.3,2.03,0.06139,0.05648,-0.0822
19.4,2.0282,0.0635,0.05864,-0.0854
19.5,2.0258,0.06578,0.06103,-0.0888
19.6,2.0235,0.06809,0.06342,-0.0922
19.7,2.0203,0.07062,0.06602,-0.0959
19.8,2.0163,0.07337,0.06887,-0.0998
19.9,2.0109,0.07649,0.07209,-0.1041
20,2.0051,0.07973,0.07543,-0.1084
20.1,1.9982,0.08332,0.07917,-0.1131
20.2,1.9897,0.08732,0.0833,-0.1182
20.3,1.9809,0.0915,0.08761,-0.1233
20.4,1.9721,0.09559,0.09182,-0.1282
20.5,1.963,0.09969,0.09604,-0.1332
20.6,1.9535,0.10381,0.10028,-0.1382
20.7,1.9442,0.10779,0.10437,-0.1432
20.8,1.9356,0.11159,0.10827,-0.148
20.9,1.9266,0.11546,0.11225,-0.1529
21,1.9195,0.11879,0.11567,-0.1572
21.1,1.9118,0.12233,0.11929,-0.1618
21.2,1.904,0.12598,0.12302,-0.1665
21.3,1.8989,0.12898,0.12609,-0.1703
21.4,1.8923,0.13256,0.12975,-0.1748
21.5,1.8876,0.13566,0.13291,-0.1786
21.6,1.8825,0.13898,0.1363,-0.1825
21.7,1.8785,0.14209,0.13946,-0.1861
21.8,1.8752,0.145,0.14241,-0.1895
21.9,1.8706,0.14848,0.14596,-0.1934
22,1.8672,0.15156,0.14907,-0.1968
22.1,1.8653,0.1542,0.15178,-0.1997
22.2,1.8616,0.15759,0.15523,-0.2033
22.3,1.8597,0.16031,0.15799,-0.2062
22.4,1.8586,0.16276,0.16048,-0.2089
22.5,1.8572,0.16538,0.16314,-0.2117
22.6,1.8544,0.16861,0.16642,-0.215
22.7,1.8532,0.1712,0.16904,-0.2177
22.8,1.8526,0.17359,0.17147,-0.2202
22.9,1.8517,0.17612,0.17404,-0.2229
23,1.8492,0.17943,0.1774,-0.2261
23.1,1.8485,0.18196,0.17996,-0.2287
23.2,1.8484,0.18429,0.18232,-0.2312
23.3,1.848,0.18673,0.18478,-0.2337
23.4,1.8469,0.18959,0.18768,-0.2366
23.5,1.8458,0.19242,0.19055,-0.2394
23.6,1.8458,0.19482,0.19298,-0.2418
23.7,1.846,0.19715,0.19533,-0.2443
23.8,1.8462,0.19945,0.19765,-0.2466
23.9,1.8459,0.20206,0.20029,-0.2493
24,1.845,0.20506,0.20333,-0.2522
24.1,1.8452,0.20748,0.20577,-0.2546
24.2,1.846,0.20962,0.20793,-0.2569
24.3,1.8472,0.21156,0.20989,-0.2589
24.4,1.8484,0.21351,0.21186,-0.261
24.5,1.8495,0.21546,0.21383,-0.2631
24.6,1.8505,0.21758,0.21597,-0.2653
24.7,1.8509,0.22003,0.21845,-0.2677
24.8,1.852,0.22206,0.22051,-0.2698
24.9,1.8534,0.22392,0.22238,-0.2718
25,1.8549,0.22572,0.2242,-0.2738
25.1,1.8565,0.22749,0.22598,-0.2757
25.2,1.8581,0.22921,0.22774,-0.2777
25.3,1.8597,0.23095,0.22948,-0.2796
25.4,1.8613,0.23268,0.23124,-0.2815
25.5,1.8628,0.23446,0.23303,-0.2835
25.6,1.8643,0.23624,0.23482,-0.2854
25.7,1.8657,0.23812,0.23672,-0.2874
25.8,1.8668,0.24026,0.23888,-0.2897
25.9,1.8682,0.24212,0.24076,-0.2917
26,1.8698,0.24383,0.24248,-0.2936
26.1,1.8715,0.24552,0.24418,-0.2955
26.2,1.8732,0.24715,0.24582,-0.2974
26.3,1.875,0.24873,0.24741,-0.2992
26.4,1.8768,0.2503,0.249,-0.3011
26.5,1.8786,0.25185,0.25055,-0.3029
26.6,1.8804,0.25337,0.25208,-0.3047
26.7,1.8823,0.25486,0.25358,-0.3065
26.8,1.8842,0.25634,0.25506,-0.3083
26.9,1.886,0.25779,0.25651,-0.3101
27,1.888,0.25918,0.25791,-0.3118
27.1,1.8899,0.26051,0.25924,-0.3136
27.2,1.8919,0.2618,0.26054,-0.3152
27.3,1.894,0.26298,0.26171,-0.3169
27.4,1.8961,0.26413,0.26287,-0.3185
27.5,1.8984,0.26512,0.26385,-0.32
27.6,1.9006,0.26607,0.2648,-0.3214
27.7,1.903,0.26684,0.26557,-0.3228
27.8,1.9048,0.26833,0.26706,-0.3246
27.9,1.9063,0.27011,0.26887,-0.3266
28,1.9077,0.27197,0.27076,-0.3287
28.1,1.9092,0.27375,0.27255,-0.3307
28.2,1.9104,0.27584,0.27467,-0.333
28.3,1.9117,0.2779,0.27676,-0.3352
28.4,1.9121,0.28105,0.27996,-0.3382
28.5,1.9137,0.28272,0.28165,-0.3401
28.6,1.9153,0.2844,0.28335,-0.3421
28.7,1.9168,0.28611,0.28508,-0.3441
28.8,1.9184,0.28775,0.28673,-0.3461
28.9,1.92,0.28941,0.28841,-0.3481
29,1.9216,0.29112,0.29014,-0.3501
29.1,1.9231,0.29281,0.29185,-0.3521
29.2,1.9247,0.29451,0.29356,-0.3541
29.3,1.9262,0.29626,0.29533,-0.3562
29.4,1.9277,0.29805,0.29713,-0.3583
29.5,1.9289,0.30014,0.29925,-0.3606
29.6,1.9302,0.30219,0.30132,-0.3629
29.7,1.9316,0.30409,0.30323,-0.3651
29.8,1.9331,0.30591,0.30507,-0.3672
29.9,1.9346,0.30767,0.30685,-0.3693
30,1.9361,0.30944,0.30863,-0.3714

