airfoilName st11.dat
Re 	550000
M 	5.000000e-02
N 	4.500000e+00
VACC 	0 VACCflag 1
XTR 	1.00 	1.00 XTRflag 0
alpha,cl,cd,cdp,cm
-10.1,-0.6984,0.02825,0.02459,-0.0719
-9.9,-0.6759,0.02517,0.0212,-0.0749
-9.8,-0.6644,0.02409,0.02,-0.0759
-9.7,-0.6525,0.02322,0.01904,-0.0767
-9.6,-0.6409,0.02251,0.01825,-0.0774
-9.5,-0.6289,0.02186,0.01752,-0.078
-9.4,-0.616,0.02126,0.01684,-0.0788
-9.3,-0.6039,0.02074,0.01625,-0.0793
-9.2,-0.5906,0.02024,0.01569,-0.0801
-9.1,-0.5788,0.01979,0.01517,-0.0805
-9,-0.567,0.01938,0.01469,-0.0808
-8.9,-0.5545,0.01897,0.01422,-0.0813
-8.8,-0.5424,0.0186,0.0138,-0.0817
-8.7,-0.5302,0.01824,0.01338,-0.0821
-8.6,-0.518,0.0179,0.01298,-0.0824
-8.5,-0.5064,0.01757,0.0126,-0.0826
-8.4,-0.4946,0.01725,0.01223,-0.0829
-8.3,-0.4827,0.01695,0.01188,-0.0831
-8.2,-0.4705,0.01665,0.01153,-0.0834
-8.1,-0.4585,0.01636,0.01118,-0.0836
-8,-0.4472,0.01608,0.01086,-0.0837
-7.9,-0.4359,0.01581,0.01054,-0.0838
-7.8,-0.4243,0.01555,0.01023,-0.0839
-7.7,-0.4127,0.0153,0.00992,-0.084
-7.6,-0.4011,0.01505,0.00962,-0.0841
-7.5,-0.3899,0.01481,0.00934,-0.0841
-7.4,-0.3785,0.01458,0.00906,-0.0841
-7.2,-0.3559,0.01436,0.00875,-0.0841
-7.1,-0.3445,0.01417,0.00851,-0.0841
-7,-0.3331,0.01399,0.00829,-0.0841
-6.9,-0.322,0.01384,0.00808,-0.084
-6.8,-0.3107,0.01359,0.00781,-0.084
-6.7,-0.2995,0.01327,0.00745,-0.084
-6.6,-0.2885,0.01304,0.00718,-0.0839
-6.5,-0.2771,0.01284,0.00696,-0.0839
-6.4,-0.2658,0.01266,0.00675,-0.0839
-6.3,-0.2544,0.01251,0.00656,-0.0839
-6.2,-0.2434,0.01237,0.00639,-0.0838
-6.1,-0.2319,0.01222,0.00622,-0.0838
-6,-0.2204,0.01208,0.00605,-0.0838
-5.9,-0.209,0.01195,0.00589,-0.0838
-5.8,-0.198,0.01183,0.00573,-0.0836
-5.7,-0.1864,0.0117,0.00557,-0.0837
-5.6,-0.1749,0.01157,0.00541,-0.0837
-5.5,-0.1634,0.01145,0.00525,-0.0836
-5.4,-0.152,0.01134,0.0051,-0.0836
-5.3,-0.1406,0.01124,0.00497,-0.0835
-5.2,-0.129,0.01113,0.00482,-0.0835
-5.1,-0.1175,0.01098,0.00466,-0.0835
-5,-0.1061,0.01088,0.00453,-0.0835
-4.9,-0.0944,0.01078,0.00442,-0.0835
-4.8,-0.083,0.01069,0.00431,-0.0835
-4.7,-0.0715,0.01061,0.0042,-0.0835
-4.6,-0.0599,0.01053,0.00409,-0.0835
-4.5,-0.0483,0.01045,0.00399,-0.0835
-4.4,-0.0366,0.01037,0.00389,-0.0835
-4.3,-0.0251,0.01031,0.00379,-0.0835
-4.2,-0.0136,0.01023,0.00369,-0.0834
-4.1,-0.0019,0.01015,0.00359,-0.0835
-4,0.0096,0.01008,0.00351,-0.0835
-3.9,0.0212,0.01002,0.00343,-0.0835
-3.8,0.033,0.00996,0.00335,-0.0835
-3.7,0.0444,0.00991,0.00327,-0.0835
-3.6,0.056,0.00987,0.0032,-0.0835
-3.5,0.0678,0.00981,0.00312,-0.0835
-3.4,0.0794,0.00974,0.00309,-0.0836
-3.3,0.0908,0.00972,0.00302,-0.0835
-3.2,0.1019,0.00971,0.00295,-0.0834
-3.1,0.1135,0.00968,0.00289,-0.0834
-3,0.1251,0.00962,0.00283,-0.0834
-2.9,0.1366,0.0096,0.00277,-0.0834
-2.8,0.148,0.00959,0.00271,-0.0834
-2.7,0.1597,0.00956,0.00266,-0.0834
-2.6,0.1714,0.00953,0.00261,-0.0834
-2.5,0.183,0.00949,0.00256,-0.0835
-2.4,0.1944,0.00949,0.00251,-0.0834
-2.3,0.2059,0.00947,0.00248,-0.0834
-2.2,0.2175,0.00947,0.00244,-0.0834
-2.1,0.2292,0.00943,0.00239,-0.0835
-2,0.2408,0.00941,0.00236,-0.0835
-1.9,0.2525,0.0094,0.00233,-0.0836
-1.8,0.2638,0.00943,0.0023,-0.0835
-1.7,0.2751,0.00943,0.00228,-0.0835
-1.6,0.2865,0.00945,0.00225,-0.0835
-1.5,0.2981,0.00945,0.00223,-0.0835
-1.4,0.3097,0.00944,0.00221,-0.0836
-1.3,0.3213,0.00945,0.00219,-0.0836
-1.2,0.3325,0.0095,0.00218,-0.0836
-1.1,0.3441,0.00948,0.00217,-0.0837
-1,0.3555,0.00952,0.00217,-0.0837
-0.9,0.3669,0.00954,0.00216,-0.0837
-0.8,0.3785,0.00955,0.00216,-0.0837
-0.7,0.3901,0.00956,0.00214,-0.0838
-0.6,0.4017,0.00955,0.00215,-0.0839
-0.5,0.4129,0.00961,0.00216,-0.0839
-0.4,0.4245,0.00961,0.00216,-0.0839
-0.3,0.436,0.00964,0.00216,-0.084
-0.2,0.4476,0.00963,0.00217,-0.084
-0.1,0.4591,0.00965,0.00217,-0.0841
0,0.4707,0.00966,0.00218,-0.0841
0.1,0.4822,0.00968,0.00218,-0.0842
0.2,0.4937,0.0097,0.0022,-0.0842
0.3,0.5049,0.00975,0.00222,-0.0843
0.4,0.5164,0.00977,0.00223,-0.0843
0.5,0.5278,0.0098,0.00224,-0.0844
0.6,0.5393,0.00981,0.00226,-0.0844
0.7,0.5507,0.00981,0.00228,-0.0845
0.8,0.5622,0.00981,0.00229,-0.0846
0.9,0.5736,0.00982,0.00232,-0.0846
1,0.585,0.00981,0.00234,-0.0847
1.1,0.5959,0.00985,0.00239,-0.0848
1.2,0.6072,0.00972,0.00243,-0.085
1.3,0.6184,0.00967,0.00247,-0.0851
1.6,0.6428,0.00858,0.00247,-0.0828
1.7,0.654,0.00869,0.00251,-0.0828
1.8,0.6652,0.0088,0.00255,-0.0829
1.9,0.6763,0.00891,0.0026,-0.0829
2,0.6869,0.00911,0.00267,-0.0828
2.1,0.6981,0.00924,0.00273,-0.0828
2.2,0.7092,0.00936,0.00279,-0.0828
2.3,0.7203,0.00948,0.00285,-0.0828
2.4,0.7315,0.00958,0.00289,-0.0828
2.5,0.7426,0.00969,0.00295,-0.0829
2.6,0.7539,0.00978,0.00301,-0.0829
2.7,0.7652,0.00987,0.00306,-0.0829
2.8,0.7764,0.00997,0.00311,-0.0829
2.9,0.7875,0.01008,0.00318,-0.0829
3,0.7988,0.01016,0.00323,-0.0829
3.1,0.81,0.01026,0.00329,-0.083
3.2,0.8212,0.01034,0.00336,-0.083
3.3,0.8326,0.01041,0.00341,-0.083
3.4,0.8439,0.01049,0.00346,-0.083
3.5,0.8551,0.01057,0.00352,-0.0831
3.6,0.8662,0.01066,0.00358,-0.0831
3.7,0.8775,0.01074,0.00365,-0.0831
3.8,0.8888,0.01081,0.0037,-0.0831
3.9,0.8999,0.01091,0.00377,-0.0831
4,0.911,0.011,0.00383,-0.0831
4.1,0.9221,0.01109,0.00391,-0.0831
4.2,0.9334,0.01116,0.00397,-0.0832
4.3,0.9446,0.01123,0.00403,-0.0832
4.4,0.9558,0.01131,0.00409,-0.0832
4.5,0.967,0.01139,0.00416,-0.0832
4.6,0.978,0.01148,0.00423,-0.0832
4.7,0.989,0.01158,0.0043,-0.0832
4.8,1.0002,0.01166,0.00437,-0.0832
4.9,1.0113,0.01174,0.00444,-0.0832
5,1.0224,0.01182,0.00451,-0.0832
5.1,1.0334,0.01191,0.00459,-0.0832
5.2,1.0444,0.01201,0.00467,-0.0832
5.3,1.0553,0.01211,0.00475,-0.0832
5.4,1.0664,0.01218,0.00482,-0.0832
5.5,1.0775,0.01226,0.0049,-0.0832
5.6,1.0885,0.01234,0.00497,-0.0832
5.7,1.0995,0.01243,0.00505,-0.0832
5.8,1.1104,0.01253,0.00513,-0.0832
5.9,1.121,0.01266,0.00522,-0.0831
6,1.132,0.01274,0.00531,-0.0831
6.1,1.1429,0.01282,0.0054,-0.0831
6.2,1.1538,0.01291,0.00549,-0.0831
6.3,1.1647,0.013,0.00557,-0.0831
6.4,1.1755,0.0131,0.00566,-0.0831
6.5,1.1862,0.0132,0.00575,-0.083
6.6,1.1969,0.01332,0.00585,-0.083
6.7,1.2076,0.01342,0.00596,-0.083
6.8,1.2184,0.01351,0.00605,-0.0829
6.9,1.2291,0.01361,0.00613,-0.0829
7,1.2398,0.01371,0.00624,-0.0829
7.1,1.2505,0.01381,0.00634,-0.0828
7.2,1.2611,0.01392,0.00644,-0.0828
7.3,1.2715,0.01404,0.00655,-0.0827
7.4,1.282,0.01416,0.00667,-0.0826
7.5,1.2927,0.01425,0.00677,-0.0826
7.6,1.3033,0.01435,0.00687,-0.0826
7.7,1.3139,0.01445,0.00698,-0.0825
7.8,1.3244,0.01456,0.00709,-0.0824
7.9,1.3348,0.01467,0.0072,-0.0824
8,1.345,0.01482,0.00732,-0.0823
8.1,1.3552,0.01496,0.00745,-0.0822
8.2,1.3656,0.01507,0.00757,-0.0821
8.3,1.376,0.01517,0.00769,-0.082
8.4,1.3864,0.01528,0.0078,-0.082
8.5,1.3967,0.01539,0.00792,-0.0819
8.6,1.4069,0.01551,0.00805,-0.0818
8.7,1.4171,0.01564,0.00817,-0.0817
8.8,1.4272,0.01577,0.0083,-0.0816
8.9,1.4372,0.01591,0.00844,-0.0814
9,1.447,0.01606,0.00859,-0.0813
9.1,1.4571,0.01618,0.00872,-0.0812
9.2,1.4672,0.0163,0.00885,-0.0811
9.3,1.4773,0.01643,0.00899,-0.081
9.4,1.4872,0.01656,0.00913,-0.0808
9.5,1.4971,0.0167,0.00927,-0.0807
9.6,1.5068,0.01684,0.00941,-0.0805
9.7,1.5165,0.01699,0.00956,-0.0804
9.8,1.526,0.01716,0.00972,-0.0802
9.9,1.5355,0.01732,0.00989,-0.08
10,1.5453,0.01744,0.01004,-0.0799
10.1,1.5551,0.01757,0.0102,-0.0797
10.2,1.5647,0.01771,0.01035,-0.0795
10.3,1.5742,0.01785,0.01051,-0.0793
10.4,1.5835,0.01802,0.01066,-0.0791
10.5,1.5928,0.01818,0.01083,-0.0789
10.6,1.6019,0.01835,0.011,-0.0787
10.7,1.6109,0.01853,0.01118,-0.0784
10.8,1.6199,0.01872,0.01138,-0.0782
10.9,1.6292,0.01886,0.01154,-0.078
11,1.6384,0.019,0.01171,-0.0777
11.1,1.6475,0.01916,0.01189,-0.0775
11.2,1.6565,0.01932,0.01206,-0.0772
11.3,1.6653,0.01949,0.01226,-0.077
11.4,1.674,0.01966,0.01245,-0.0767
11.5,1.6823,0.01987,0.01264,-0.0763
11.6,1.6906,0.02007,0.01285,-0.076
11.7,1.6987,0.02028,0.01306,-0.0756
11.8,1.7071,0.02045,0.01325,-0.0753
11.9,1.7155,0.02063,0.01345,-0.075
12,1.7237,0.02081,0.01365,-0.0746
12.1,1.7317,0.02099,0.01386,-0.0742
12.2,1.7396,0.02119,0.01407,-0.0738
12.3,1.7472,0.02139,0.01428,-0.0734
12.4,1.7547,0.0216,0.01451,-0.0729
12.5,1.7618,0.02182,0.01474,-0.0724
12.6,1.768,0.02211,0.01501,-0.0718
12.7,1.7754,0.0223,0.01524,-0.0713
12.8,1.7825,0.0225,0.01547,-0.0708
12.9,1.7894,0.0227,0.0157,-0.0702
13,1.7959,0.02293,0.01593,-0.0696
13.1,1.8019,0.02315,0.01618,-0.0689
13.2,1.8069,0.02339,0.01643,-0.0681
13.3,1.8117,0.02364,0.0167,-0.0672
13.4,1.8164,0.02391,0.01699,-0.0663
13.5,1.8208,0.02419,0.01729,-0.0654
13.6,1.8252,0.02449,0.01761,-0.0646
13.7,1.8297,0.02479,0.01793,-0.0637
13.8,1.8349,0.02504,0.01822,-0.063
13.9,1.8399,0.02531,0.01853,-0.0623
14,1.8449,0.02559,0.01884,-0.0616
14.1,1.8497,0.02589,0.01917,-0.0609
14.2,1.8544,0.02619,0.0195,-0.0602
14.3,1.8589,0.02651,0.01985,-0.0595
14.4,1.8633,0.02684,0.02021,-0.0589
14.5,1.8675,0.02719,0.0206,-0.0582
14.6,1.8715,0.02755,0.02099,-0.0576
14.7,1.8754,0.02793,0.02139,-0.0569
14.8,1.8791,0.02833,0.02182,-0.0563
14.9,1.8825,0.02876,0.02227,-0.0557
15,1.8857,0.02921,0.02274,-0.0551
15.1,1.89,0.02958,0.02315,-0.0546
15.2,1.8938,0.02999,0.02359,-0.0541
15.3,1.8969,0.03046,0.02407,-0.0537
15.4,1.9003,0.03092,0.02456,-0.0532
15.5,1.9035,0.0314,0.02507,-0.0528
15.6,1.9064,0.03191,0.02561,-0.0524
15.7,1.9093,0.03244,0.02617,-0.0521
15.8,1.9119,0.03301,0.02676,-0.0518
15.9,1.9148,0.03355,0.02736,-0.0515
16,1.9184,0.03405,0.0279,-0.0513
16.1,1.9218,0.03458,0.02847,-0.0512
16.2,1.9251,0.03512,0.02905,-0.0511
16.3,1.9283,0.03569,0.02966,-0.051
16.4,1.9313,0.03628,0.03029,-0.051
16.5,1.9343,0.03689,0.03094,-0.051
16.6,1.9371,0.03753,0.03163,-0.0511
16.7,1.9387,0.0383,0.03242,-0.0513
16.8,1.941,0.03903,0.03318,-0.0516
16.9,1.9431,0.03981,0.03399,-0.0519
17,1.9457,0.04055,0.03479,-0.0523
17.1,1.9488,0.04124,0.03553,-0.0527
17.2,1.9518,0.04198,0.03631,-0.0532
17.3,1.9547,0.04273,0.03711,-0.0538
17.4,1.9576,0.04352,0.03794,-0.0544
17.5,1.9602,0.04434,0.03881,-0.0552
17.6,1.9628,0.0452,0.03971,-0.056
17.7,1.9651,0.0461,0.04065,-0.0569
17.8,1.9672,0.04706,0.04165,-0.058
17.9,1.969,0.04808,0.04272,-0.0591
18,1.9698,0.04928,0.04396,-0.0606
18.1,1.9722,0.05028,0.04502,-0.0619
18.2,1.9743,0.05135,0.04614,-0.0633
18.3,1.9764,0.05246,0.0473,-0.0647
18.4,1.978,0.05367,0.04856,-0.0664
18.5,1.9793,0.05494,0.04989,-0.0682
18.6,1.98,0.05636,0.05136,-0.0702
18.7,1.9801,0.05793,0.05297,-0.0725
18.8,1.981,0.05939,0.05452,-0.0746
18.9,1.9817,0.06092,0.05612,-0.0768
19,1.9818,0.06258,0.05784,-0.0792
19.1,1.9815,0.06436,0.05969,-0.0818
19.2,1.9805,0.06631,0.0617,-0.0846
19.3,1.9787,0.06845,0.06392,-0.0877
19.4,1.9758,0.07087,0.06642,-0.0911
19.5,1.9725,0.07343,0.06909,-0.0946
19.6,1.9688,0.07611,0.07187,-0.0982
19.7,1.9644,0.07901,0.07486,-0.1021
19.8,1.9589,0.08223,0.07818,-0.1063
19.9,1.9524,0.08573,0.08179,-0.1107
20,1.9453,0.08942,0.0856,-0.1152
20.1,1.9369,0.09351,0.08981,-0.1201
20.2,1.9285,0.09753,0.09395,-0.1249
20.3,1.9197,0.10161,0.09815,-0.1297
20.4,1.9108,0.10564,0.10228,-0.1345
20.5,1.9023,0.10948,0.10622,-0.1392
20.6,1.8937,0.11329,0.11013,-0.1438
20.7,1.8856,0.11698,0.11391,-0.1484
20.8,1.8784,0.1204,0.11741,-0.1527
20.9,1.8712,0.12388,0.12097,-0.157
21,1.8641,0.12741,0.12457,-0.1614
21.1,1.8586,0.13058,0.12781,-0.1653
21.2,1.8521,0.13414,0.13144,-0.1696
21.3,1.8469,0.13739,0.13475,-0.1735
21.4,1.8422,0.14064,0.13809,-0.1772
21.5,1.8374,0.14401,0.14151,-0.1811
21.6,1.8342,0.14692,0.14446,-0.1844
21.7,1.83,0.15029,0.1479,-0.188
21.8,1.8272,0.15319,0.15084,-0.1912
21.9,1.8247,0.15604,0.15372,-0.1943
22,1.8205,0.15957,0.1573,-0.1979
22.1,1.8178,0.16261,0.16038,-0.2011
22.2,1.8156,0.16552,0.16332,-0.2041
22.3,1.8116,0.16918,0.16706,-0.2078
22.4,1.8095,0.17216,0.17008,-0.2108
22.5,1.8085,0.17476,0.17271,-0.2135
22.6,1.8073,0.17746,0.17543,-0.2162
22.7,1.8044,0.18097,0.17899,-0.2196
22.8,1.8037,0.18356,0.18161,-0.2222
22.9,1.8028,0.18622,0.18429,-0.2249
23,1.8022,0.18885,0.18695,-0.2275
23.1,1.7996,0.19242,0.19056,-0.2309
23.2,1.7987,0.19527,0.19344,-0.2337
23.3,1.7986,0.19776,0.19597,-0.2362
23.4,1.7987,0.2002,0.19843,-0.2386
23.5,1.7985,0.20282,0.20109,-0.2412
23.6,1.7977,0.20581,0.20412,-0.2441
23.7,1.798,0.20825,0.20658,-0.2465
23.8,1.7987,0.21048,0.20883,-0.2487
24,1.7987,0.21576,0.21414,-0.254
24.1,1.7987,0.2185,0.21691,-0.2566
24.2,1.7991,0.221,0.21943,-0.259
24.3,1.8001,0.22321,0.22166,-0.2613
24.4,1.8012,0.22529,0.22375,-0.2634
24.5,1.8024,0.22736,0.22583,-0.2655
24.6,1.8037,0.22936,0.22784,-0.2676
24.7,1.8049,0.2314,0.22989,-0.2697
24.8,1.8063,0.23334,0.23184,-0.2718
24.9,1.8075,0.23543,0.23394,-0.274
25,1.8089,0.23745,0.23597,-0.2761
25.1,1.8105,0.23923,0.23776,-0.278
25.2,1.8122,0.24103,0.23957,-0.2799
25.3,1.8139,0.24278,0.24135,-0.2818
25.4,1.8157,0.24447,0.24305,-0.2837
25.5,1.8175,0.24615,0.24475,-0.2855
25.6,1.8194,0.24781,0.24643,-0.2873
25.7,1.8212,0.24948,0.24811,-0.2892
25.8,1.8231,0.25113,0.24978,-0.291
25.9,1.8249,0.25276,0.25142,-0.2929
26,1.8268,0.25442,0.2531,-0.2947
26.1,1.8286,0.25604,0.25473,-0.2965
26.2,1.8304,0.25772,0.25643,-0.2984
26.3,1.8322,0.25942,0.25814,-0.3003
26.4,1.834,0.26114,0.25988,-0.3023
26.5,1.8356,0.26303,0.26179,-0.3043
26.6,1.8372,0.26485,0.26362,-0.3063
26.7,1.839,0.26661,0.26539,-0.3082
26.8,1.8408,0.26826,0.26706,-0.3101
26.9,1.8426,0.26989,0.2687,-0.312
27,1.8445,0.27147,0.2703,-0.3139
27.1,1.8464,0.27305,0.27188,-0.3157
27.2,1.8483,0.27459,0.27344,-0.3176
27.3,1.8502,0.27612,0.27498,-0.3194
27.4,1.8521,0.27758,0.27645,-0.3212
27.5,1.854,0.27906,0.27793,-0.323
27.6,1.8559,0.28048,0.27936,-0.3248
27.7,1.8579,0.28186,0.28074,-0.3265
27.8,1.8598,0.28319,0.28208,-0.3283
27.9,1.8618,0.28449,0.28338,-0.33
28,1.8638,0.28571,0.2846,-0.3317
28.1,1.8659,0.28686,0.28576,-0.3333
28.2,1.8679,0.28799,0.28689,-0.3349
28.3,1.8701,0.28893,0.28783,-0.3364
28.4,1.8722,0.28987,0.28877,-0.3379
28.5,1.8743,0.29083,0.28973,-0.3395
28.6,1.8765,0.29152,0.29041,-0.3409
28.7,1.8786,0.2923,0.29118,-0.3423
28.8,1.8799,0.29457,0.29348,-0.3447
28.9,1.881,0.29702,0.29596,-0.3472
29,1.8821,0.29959,0.29857,-0.3497
29.1,1.8832,0.30226,0.30128,-0.3524
29.2,1.8839,0.30564,0.30469,-0.3555
29.3,1.8849,0.30868,0.30777,-0.3584
29.4,1.8859,0.31177,0.3109,-0.3613
29.5,1.887,0.3149,0.31406,-0.3643
29.6,1.8868,0.32264,0.32187,-0.3701
29.7,1.8881,0.32653,0.32578,-0.3735
29.8,1.8894,0.33214,0.33143,-0.3779
29.9,1.8912,0.33471,0.33401,-0.3804
30,1.893,0.33689,0.33619,-0.3827

