airfoilName st11.dat
Re 	9.300000e+05
M 	5.000000e-02
N 	4.500000e+00
VACC 	0 VACCflag 1
XTR 	1.00 	1.00 XTRflag 0
alpha,cl,cd,cdp,cm
-11,-0.793,0.02558,0.02245,-0.075
-10.9,-0.7819,0.02433,0.02106,-0.0761
-10.8,-0.7706,0.02337,0.02,-0.077
-10.7,-0.7592,0.02257,0.0191,-0.0777
-10.6,-0.7481,0.02188,0.01832,-0.0782
-10.5,-0.7368,0.02127,0.01762,-0.0787
-10.4,-0.7254,0.0207,0.01697,-0.0792
-10.3,-0.7137,0.02018,0.01637,-0.0796
-10.2,-0.702,0.01967,0.0158,-0.0801
-10.1,-0.6902,0.01921,0.01526,-0.0805
-10,-0.6784,0.01877,0.01476,-0.0808
-9.9,-0.6666,0.01836,0.01428,-0.0812
-9.8,-0.6547,0.01797,0.01383,-0.0815
-9.7,-0.6435,0.01761,0.01341,-0.0817
-9.6,-0.6324,0.01727,0.01302,-0.0818
-9.5,-0.6212,0.01695,0.01264,-0.082
-9.4,-0.61,0.01663,0.01226,-0.0821
-9.3,-0.5989,0.01634,0.01192,-0.0821
-9.2,-0.5878,0.01607,0.0116,-0.0822
-9.1,-0.577,0.0158,0.01128,-0.0822
-9,-0.5659,0.01554,0.01096,-0.0822
-8.9,-0.5552,0.01531,0.01068,-0.0821
-8.8,-0.5442,0.01508,0.01041,-0.0821
-8.7,-0.533,0.01486,0.01015,-0.0821
-8.6,-0.5222,0.01466,0.0099,-0.082
-8.5,-0.5111,0.01446,0.00966,-0.082
-8.4,-0.5001,0.01428,0.00943,-0.082
-8.3,-0.4892,0.01412,0.00924,-0.0819
-8.2,-0.4779,0.01395,0.00903,-0.0819
-8.1,-0.4667,0.01379,0.00884,-0.0819
-8,-0.4555,0.01368,0.0087,-0.0818
-7.9,-0.4448,0.01334,0.0083,-0.0817
-7.8,-0.4336,0.013,0.00791,-0.0818
-7.7,-0.4223,0.01271,0.00756,-0.0818
-7.6,-0.4114,0.0125,0.0073,-0.0818
-7.5,-0.4002,0.0123,0.00706,-0.0817
-7.4,-0.3887,0.01212,0.00685,-0.0818
-7.3,-0.3775,0.01196,0.00665,-0.0817
-7.2,-0.3661,0.01181,0.00647,-0.0817
-7.1,-0.3547,0.01167,0.0063,-0.0817
-7,-0.3432,0.01154,0.00614,-0.0817
-6.9,-0.3319,0.01141,0.00598,-0.0817
-6.8,-0.3204,0.01129,0.00583,-0.0817
-6.7,-0.3089,0.01117,0.00568,-0.0817
-6.6,-0.2973,0.01105,0.00554,-0.0817
-6.5,-0.2857,0.01094,0.0054,-0.0817
-6.4,-0.2743,0.01084,0.00525,-0.0817
-6.3,-0.2628,0.01073,0.00511,-0.0817
-6.1,-0.2395,0.01059,0.00493,-0.0817
-6,-0.2281,0.01051,0.00481,-0.0817
-5.9,-0.2165,0.01042,0.00469,-0.0817
-5.8,-0.2048,0.01034,0.00458,-0.0817
-5.7,-0.1931,0.01023,0.00446,-0.0818
-5.6,-0.1814,0.01008,0.00428,-0.0818
-5.5,-0.1699,0.00999,0.00415,-0.0818
-5.4,-0.1582,0.0099,0.00404,-0.0818
-5.3,-0.1465,0.00981,0.00393,-0.0819
-5.2,-0.1348,0.00974,0.00383,-0.0819
-5.1,-0.1231,0.00966,0.00374,-0.0819
-5,-0.1113,0.00959,0.00365,-0.082
-4.9,-0.0997,0.00954,0.00356,-0.082
-4.8,-0.088,0.00948,0.00348,-0.082
-4.7,-0.0762,0.00942,0.00339,-0.0821
-4.6,-0.0645,0.00936,0.00331,-0.0821
-4.5,-0.0527,0.00931,0.00324,-0.0821
-4.4,-0.0411,0.00924,0.00315,-0.0822
-4.3,-0.0293,0.00918,0.00308,-0.0822
-4.2,-0.0176,0.00913,0.00301,-0.0823
-4.1,-0.0058,0.00908,0.00294,-0.0823
-4,0.006,0.00903,0.00288,-0.0824
-3.9,0.0178,0.00899,0.00282,-0.0824
-3.8,0.0288,0.00904,0.00276,-0.0823
-3.7,0.0406,0.00899,0.0027,-0.0823
-3.6,0.0523,0.00895,0.00264,-0.0824
-3.5,0.0639,0.00893,0.00259,-0.0824
-3.4,0.0756,0.0089,0.00254,-0.0825
-3.3,0.0872,0.00889,0.00249,-0.0825
-3.2,0.0989,0.00887,0.00245,-0.0825
-3.1,0.1107,0.00885,0.0024,-0.0826
-3,0.1223,0.00884,0.00235,-0.0826
-2.9,0.1338,0.00885,0.00232,-0.0826
-2.8,0.1455,0.00883,0.00228,-0.0827
-2.7,0.1572,0.00882,0.00224,-0.0827
-2.6,0.1689,0.0088,0.00221,-0.0828
-2.5,0.1806,0.00877,0.00218,-0.0829
-2.4,0.192,0.00881,0.00216,-0.0829
-2.3,0.2038,0.0088,0.00213,-0.0829
-2.2,0.2155,0.0088,0.0021,-0.083
-2.1,0.2271,0.00881,0.00207,-0.083
-2,0.2386,0.00882,0.00206,-0.0831
-1.9,0.2504,0.00882,0.00204,-0.0831
-1.8,0.2618,0.00885,0.00202,-0.0832
-1.7,0.2736,0.00884,0.002,-0.0832
-1.6,0.2853,0.00884,0.00199,-0.0833
-1.5,0.297,0.00884,0.00198,-0.0834
-1.4,0.3087,0.00884,0.00196,-0.0834
-1.3,0.3203,0.00886,0.00195,-0.0835
-1.2,0.3319,0.00886,0.00195,-0.0836
-1.1,0.3435,0.00888,0.00194,-0.0836
-1,0.355,0.00893,0.00194,-0.0837
-0.9,0.3666,0.00894,0.00194,-0.0837
-0.8,0.3783,0.00894,0.00193,-0.0838
-0.7,0.39,0.00894,0.00194,-0.0839
-0.6,0.4016,0.00896,0.00193,-0.084
-0.5,0.4133,0.00896,0.00193,-0.084
-0.4,0.4249,0.00898,0.00194,-0.0841
-0.3,0.4363,0.00905,0.00195,-0.0841
-0.2,0.4479,0.00905,0.00196,-0.0842
-0.1,0.4595,0.00908,0.00197,-0.0843
0,0.4711,0.00909,0.00198,-0.0843
0.1,0.4827,0.00913,0.00198,-0.0844
0.2,0.4943,0.00913,0.002,-0.0845
0.3,0.5058,0.00917,0.00201,-0.0846
0.4,0.5174,0.0092,0.00203,-0.0846
0.5,0.5289,0.00924,0.00205,-0.0847
0.6,0.54,0.00934,0.00209,-0.0847
0.7,0.5515,0.00937,0.00211,-0.0848
0.8,0.563,0.00942,0.00214,-0.0848
0.9,0.5744,0.00947,0.00217,-0.0849
1,0.5857,0.00953,0.0022,-0.085
1.1,0.5971,0.00956,0.00223,-0.085
1.2,0.6084,0.00963,0.00226,-0.0851
1.3,0.6197,0.00969,0.0023,-0.0851
1.4,0.6306,0.00983,0.00237,-0.0852
1.5,0.642,0.00985,0.00241,-0.0853
1.6,0.6533,0.0098,0.00246,-0.0854
1.7,0.6648,0.00979,0.0025,-0.0855
1.8,0.6763,0.00977,0.00254,-0.0856
1.9,0.6877,0.00975,0.00258,-0.0858
2.1,0.7016,0.00853,0.00261,-0.0839
2.2,0.7131,0.00859,0.00264,-0.0839
2.3,0.7246,0.00866,0.00268,-0.084
2.4,0.7359,0.00876,0.00274,-0.084
2.5,0.7474,0.00882,0.00277,-0.0841
2.6,0.7589,0.00888,0.00281,-0.0841
2.7,0.7703,0.00896,0.00285,-0.0842
2.8,0.7818,0.00902,0.0029,-0.0842
2.9,0.7933,0.00908,0.00294,-0.0843
3,0.8048,0.00913,0.00298,-0.0843
3.1,0.8162,0.0092,0.00302,-0.0843
3.2,0.8276,0.00927,0.00307,-0.0844
3.3,0.839,0.00934,0.00311,-0.0844
3.4,0.8503,0.00942,0.00316,-0.0845
3.5,0.8618,0.00948,0.00321,-0.0845
3.6,0.8732,0.00954,0.00325,-0.0846
3.7,0.8845,0.00961,0.0033,-0.0846
3.8,0.8958,0.00969,0.00335,-0.0846
3.9,0.9072,0.00975,0.0034,-0.0847
4,0.9186,0.00981,0.00345,-0.0847
4.1,0.93,0.00987,0.0035,-0.0848
4.2,0.9412,0.00996,0.00356,-0.0848
4.3,0.9525,0.01004,0.00361,-0.0848
4.4,0.9637,0.01012,0.00368,-0.0848
4.5,0.9751,0.01017,0.00373,-0.0849
4.6,0.9864,0.01024,0.00378,-0.0849
4.7,0.9977,0.0103,0.00383,-0.085
4.8,1.009,0.01037,0.00389,-0.085
4.9,1.0202,0.01044,0.00395,-0.085
5,1.0314,0.01052,0.00401,-0.085
5.1,1.0425,0.01061,0.00408,-0.0851
5.2,1.0538,0.01068,0.00414,-0.0851
5.3,1.065,0.01074,0.0042,-0.0851
5.4,1.0761,0.01083,0.00427,-0.0851
5.5,1.0872,0.0109,0.00433,-0.0852
5.6,1.0983,0.01099,0.0044,-0.0852
5.7,1.1094,0.01107,0.00446,-0.0852
5.8,1.1204,0.01116,0.00454,-0.0852
5.9,1.1316,0.01123,0.00461,-0.0852
6,1.1427,0.0113,0.00468,-0.0852
6.1,1.1538,0.01137,0.00475,-0.0852
6.2,1.1649,0.01145,0.00482,-0.0852
6.3,1.1757,0.01156,0.0049,-0.0852
6.4,1.1866,0.01166,0.00498,-0.0852
6.5,1.1975,0.01175,0.00506,-0.0852
6.6,1.2086,0.01182,0.00514,-0.0852
6.7,1.2196,0.0119,0.00521,-0.0852
6.8,1.2305,0.01198,0.00529,-0.0852
6.9,1.2414,0.01206,0.00537,-0.0852
7,1.2523,0.01215,0.00545,-0.0852
7.1,1.2631,0.01225,0.00554,-0.0852
7.2,1.2739,0.01235,0.00563,-0.0852
7.3,1.2846,0.01245,0.00572,-0.0852
7.4,1.2954,0.01255,0.00581,-0.0851
7.5,1.3062,0.01263,0.0059,-0.0851
7.6,1.317,0.01272,0.00598,-0.0851
7.7,1.3277,0.01282,0.00607,-0.0851
7.8,1.3384,0.01292,0.00617,-0.085
7.9,1.349,0.01302,0.00627,-0.085
8,1.3596,0.01313,0.00637,-0.085
8.1,1.3701,0.01325,0.00647,-0.0849
8.2,1.3807,0.01334,0.00658,-0.0849
8.3,1.3914,0.01343,0.00667,-0.0848
8.4,1.402,0.01352,0.00677,-0.0848
8.5,1.4124,0.01364,0.00687,-0.0847
8.6,1.4228,0.01375,0.00698,-0.0847
8.7,1.4332,0.01386,0.00708,-0.0846
8.8,1.4436,0.01398,0.0072,-0.0845
8.9,1.4538,0.01411,0.00732,-0.0844
9,1.4642,0.01422,0.00744,-0.0844
9.1,1.4746,0.01432,0.00755,-0.0843
9.2,1.485,0.01442,0.00766,-0.0842
9.3,1.4953,0.01453,0.00777,-0.0842
9.4,1.5056,0.01464,0.00788,-0.0841
9.5,1.5158,0.01476,0.008,-0.084
9.6,1.5259,0.01488,0.00812,-0.0839
9.7,1.5356,0.01505,0.00826,-0.0837
9.8,1.5456,0.01519,0.00839,-0.0836
9.9,1.5556,0.01531,0.00853,-0.0835
10,1.5658,0.01542,0.00866,-0.0834
10.1,1.5758,0.01553,0.00878,-0.0833
10.2,1.5858,0.01565,0.00891,-0.0832
10.3,1.5957,0.01578,0.00904,-0.0831
10.4,1.6055,0.01591,0.00917,-0.0829
10.5,1.6153,0.01605,0.00931,-0.0828
10.6,1.625,0.01619,0.00945,-0.0826
10.7,1.634,0.01639,0.00963,-0.0824
10.8,1.6436,0.01654,0.00978,-0.0822
10.9,1.6532,0.01667,0.00992,-0.082
11,1.6628,0.0168,0.01006,-0.0819
11.1,1.6723,0.01694,0.01021,-0.0817
11.2,1.6817,0.01709,0.01037,-0.0815
11.3,1.6905,0.0173,0.01055,-0.0812
11.4,1.6996,0.01747,0.01072,-0.081
11.5,1.7086,0.01765,0.01089,-0.0808
11.6,1.7178,0.01779,0.01106,-0.0805
11.7,1.727,0.01793,0.01121,-0.0803
11.8,1.7361,0.01808,0.01138,-0.0801
11.9,1.7451,0.01823,0.01154,-0.0798
12,1.754,0.01839,0.01171,-0.0796
12.1,1.7628,0.01856,0.01188,-0.0793
12.2,1.7708,0.01878,0.01209,-0.0789
12.3,1.7792,0.01898,0.01228,-0.0786
12.4,1.7874,0.01917,0.01248,-0.0782
12.5,1.7957,0.01935,0.01269,-0.0779
12.6,1.8041,0.01951,0.01287,-0.0775
12.7,1.8124,0.01968,0.01306,-0.0772
12.8,1.8205,0.01986,0.01324,-0.0768
12.9,1.8284,0.02004,0.01344,-0.0764
13,1.8361,0.02023,0.01364,-0.076
13.1,1.8436,0.02042,0.01385,-0.0755
13.2,1.8509,0.02063,0.01406,-0.075
13.3,1.8579,0.02085,0.01428,-0.0745
13.4,1.8636,0.02116,0.01458,-0.0738
13.5,1.8707,0.02135,0.01479,-0.0733
13.6,1.8776,0.02154,0.01501,-0.0727
13.7,1.8842,0.02175,0.01523,-0.0721
13.8,1.8906,0.02196,0.01546,-0.0715
13.9,1.896,0.02218,0.0157,-0.0707
14,1.8996,0.02247,0.01598,-0.0696
14.1,1.9038,0.02273,0.01626,-0.0686
14.2,1.9078,0.02301,0.01656,-0.0676
14.3,1.9119,0.0233,0.01686,-0.0667
14.4,1.9155,0.02363,0.01721,-0.0657
14.5,1.92,0.0239,0.0175,-0.0649
14.6,1.9245,0.02418,0.0178,-0.0641
14.7,1.9289,0.02447,0.01812,-0.0633
14.8,1.9331,0.02478,0.01845,-0.0625
14.9,1.9371,0.02511,0.01879,-0.0618
15,1.941,0.02546,0.01916,-0.061
15.1,1.9446,0.02582,0.01954,-0.0602
15.2,1.948,0.0262,0.01994,-0.0595
15.3,1.9511,0.02661,0.02036,-0.0587
15.4,1.9548,0.02699,0.02078,-0.0581
15.5,1.9586,0.02736,0.02118,-0.0574
15.6,1.9623,0.02775,0.02159,-0.0568
15.7,1.9645,0.02825,0.0221,-0.0562
15.8,1.9674,0.0287,0.02257,-0.0556
15.9,1.9702,0.02918,0.02307,-0.055
16,1.9724,0.0297,0.02361,-0.0545
16.1,1.9747,0.03022,0.02416,-0.054
16.2,1.9773,0.03074,0.02473,-0.0535
16.3,1.9802,0.03125,0.02526,-0.0532
16.4,1.9829,0.03178,0.02582,-0.0528
16.5,1.9855,0.03234,0.0264,-0.0525
16.6,1.9879,0.03292,0.02702,-0.0523
16.7,1.9899,0.03355,0.02767,-0.0521
16.8,1.9915,0.03423,0.02837,-0.052
16.9,1.9925,0.03497,0.02914,-0.0519
17,1.9947,0.03564,0.02985,-0.0519
17.1,1.9967,0.03633,0.03058,-0.0519
17.2,1.9984,0.03707,0.03134,-0.0521
17.3,1.9999,0.03786,0.03216,-0.0523
17.4,2.001,0.03871,0.03304,-0.0527
17.5,2.0015,0.03966,0.03404,-0.0532
17.6,2.0027,0.04056,0.03496,-0.0537
17.8,1.9999,0.04306,0.03753,-0.0557
17.9,2.0005,0.04414,0.03864,-0.0567
18,2.0008,0.04531,0.03984,-0.0579
18.1,2.0004,0.0466,0.0412,-0.0593
18.2,2,0.04794,0.04257,-0.0609
18.3,2.0005,0.0492,0.04388,-0.0625
18.4,1.9999,0.0507,0.04545,-0.0645
18.5,2.0011,0.05196,0.04676,-0.0662
18.6,1.9986,0.05388,0.04875,-0.0689
18.7,1.9993,0.05532,0.05025,-0.0709
18.8,1.9997,0.05685,0.05184,-0.0731
18.9,2.0001,0.05842,0.05348,-0.0754
19,1.9999,0.06015,0.05527,-0.0779
19.1,1.9994,0.06198,0.05718,-0.0806
19.2,1.9984,0.06392,0.0592,-0.0833
19.3,1.997,0.06601,0.06136,-0.0863
19.4,1.9949,0.06828,0.06372,-0.0895
19.5,1.9922,0.0707,0.06623,-0.0928
19.6,1.9885,0.07339,0.06901,-0.0965
19.7,1.984,0.07631,0.07203,-0.1004
19.8,1.9783,0.07957,0.07541,-0.1046
19.9,1.9714,0.08316,0.07911,-0.1091
20,1.9628,0.08726,0.08334,-0.1141
20.1,1.9526,0.09184,0.08806,-0.1194
20.2,1.9411,0.09675,0.09309,-0.1251
20.3,1.9287,0.10181,0.09829,-0.1308
20.4,1.9164,0.10674,0.10335,-0.1365
20.5,1.9046,0.11143,0.10816,-0.142
20.6,1.8934,0.11589,0.11273,-0.1474
20.7,1.8833,0.12005,0.11699,-0.1524
20.8,1.8748,0.12378,0.12081,-0.1571
20.9,1.8653,0.12795,0.12508,-0.1622
21,1.8579,0.13159,0.1288,-0.1666
21.1,1.8513,0.13518,0.13248,-0.1709
21.2,1.8452,0.13872,0.13609,-0.1751
21.3,1.8398,0.14222,0.13965,-0.179
21.4,1.8369,0.14499,0.14247,-0.1822
21.5,1.8306,0.14901,0.14657,-0.1865
21.6,1.828,0.15183,0.14944,-0.1896
21.7,1.8259,0.15454,0.15219,-0.1925
21.8,1.8209,0.15836,0.15609,-0.1964
21.9,1.8194,0.16095,0.15873,-0.1992
22,1.8183,0.16343,0.16124,-0.2018
22.1,1.8143,0.16706,0.16493,-0.2053
22.2,1.813,0.1697,0.16762,-0.208
22.3,1.8124,0.17208,0.17003,-0.2105
22.4,1.8118,0.17449,0.17247,-0.213
22.5,1.8085,0.17805,0.1761,-0.2164
22.6,1.8076,0.18069,0.17876,-0.219
22.7,1.8075,0.18302,0.18113,-0.2214
22.8,1.8076,0.18522,0.18336,-0.2236
22.9,1.8073,0.18767,0.18584,-0.2261
23,1.8046,0.19129,0.18952,-0.2294
23.1,1.8046,0.19366,0.19192,-0.2318
23.2,1.8051,0.19583,0.19411,-0.234
23.3,1.8056,0.198,0.19631,-0.2362
23.4,1.806,0.20027,0.19861,-0.2385
23.5,1.8042,0.20364,0.20202,-0.2416
23.6,1.8043,0.20614,0.20456,-0.2441
23.7,1.8051,0.20829,0.20673,-0.2463
23.8,1.806,0.21033,0.20879,-0.2484
23.9,1.807,0.2124,0.21088,-0.2505
24,1.8078,0.21453,0.21303,-0.2526
24.1,1.8085,0.21679,0.21532,-0.2549
24.2,1.8075,0.22006,0.21863,-0.2579
24.3,1.8085,0.22223,0.22082,-0.2601
24.4,1.8097,0.22422,0.22282,-0.2622
24.5,1.811,0.22617,0.22478,-0.2642
24.6,1.8124,0.22806,0.2267,-0.2662
24.7,1.8137,0.23002,0.22867,-0.2682
24.8,1.8149,0.23198,0.23064,-0.2703
24.9,1.8161,0.23407,0.23275,-0.2724
25,1.8161,0.23692,0.23563,-0.2751
25.1,1.8173,0.23906,0.23779,-0.2773
25.2,1.8187,0.24095,0.23969,-0.2793
25.3,1.8203,0.24273,0.24148,-0.2812
25.4,1.8221,0.24442,0.24318,-0.2831
25.5,1.8239,0.24606,0.24482,-0.2849
25.6,1.8258,0.24763,0.2464,-0.2867
25.7,1.8277,0.24915,0.24793,-0.2885
25.8,1.8297,0.25062,0.2494,-0.2903
25.9,1.8317,0.25203,0.25082,-0.292
26,1.8338,0.25335,0.25214,-0.2936
26.1,1.836,0.25465,0.25344,-0.2953
26.2,1.8379,0.25611,0.2549,-0.297
26.3,1.8396,0.25792,0.25673,-0.2989
26.4,1.8414,0.25949,0.25832,-0.3007
26.5,1.8431,0.26127,0.26012,-0.3026
26.6,1.8446,0.26315,0.26201,-0.3046
26.7,1.8456,0.26557,0.26447,-0.307
26.8,1.8472,0.26742,0.26634,-0.309
26.9,1.8489,0.26916,0.26809,-0.3109
27,1.8507,0.27078,0.26974,-0.3128
27.1,1.8525,0.27243,0.27141,-0.3147
27.2,1.8544,0.27398,0.27296,-0.3165
27.3,1.8562,0.27559,0.27459,-0.3183
27.4,1.858,0.27717,0.27618,-0.3202
27.5,1.8598,0.27881,0.27784,-0.322
27.6,1.8616,0.28037,0.27941,-0.3239
27.7,1.8634,0.28201,0.28107,-0.3258
27.8,1.8652,0.28353,0.2826,-0.3276
27.9,1.8669,0.28521,0.28429,-0.3295
28,1.8686,0.28689,0.28599,-0.3315
28.1,1.8703,0.28856,0.28768,-0.3334
28.2,1.872,0.29033,0.28945,-0.3354
28.3,1.8733,0.29245,0.29159,-0.3377
28.4,1.8748,0.29444,0.29361,-0.3399
28.5,1.8763,0.29627,0.29545,-0.3419
28.6,1.878,0.29804,0.29723,-0.344
28.7,1.8793,0.30022,0.29942,-0.3463
28.8,1.8811,0.30182,0.30104,-0.3482
28.9,1.8828,0.30345,0.30267,-0.3501
29,1.8845,0.30505,0.30428,-0.3521
29.1,1.8861,0.30668,0.30593,-0.354
29.2,1.8878,0.30834,0.30759,-0.356
29.3,1.8895,0.30997,0.30924,-0.358
29.4,1.8911,0.31165,0.31092,-0.36
29.5,1.8927,0.31327,0.31256,-0.362
29.6,1.8943,0.31492,0.31422,-0.364
29.7,1.896,0.31656,0.31586,-0.366
29.8,1.8976,0.31822,0.31754,-0.368
29.9,1.8992,0.31978,0.31911,-0.37
30,1.9008,0.32139,0.32072,-0.372

