airfoilName st11.dat
Re 	270000
M 	5.000000e-02
N 	4.500000e+00
VACC 	0 VACCflag 1
XTR 	1.00 	1.00 XTRflag 0
alpha,cl,cd,cdp,cm
-8.5,-0.533,0.02716,0.02212,-0.0733
-8.4,-0.5207,0.02647,0.02136,-0.0741
-8.3,-0.5077,0.02583,0.02066,-0.0749
-8.2,-0.4953,0.02524,0.02001,-0.0756
-8.1,-0.4828,0.02467,0.01938,-0.0763
-8,-0.4693,0.02412,0.01876,-0.0771
-7.9,-0.4565,0.02358,0.01816,-0.0778
-7.8,-0.4436,0.02306,0.01756,-0.0784
-7.7,-0.4311,0.02256,0.01697,-0.079
-7.6,-0.4189,0.02206,0.0164,-0.0794
-7.5,-0.4059,0.02156,0.01581,-0.08
-7.4,-0.3933,0.02107,0.01524,-0.0805
-7.3,-0.3805,0.02058,0.01467,-0.081
-7.2,-0.3668,0.02008,0.01407,-0.0817
-7.1,-0.3545,0.01962,0.01352,-0.0821
-7,-0.3427,0.01917,0.01297,-0.0824
-6.9,-0.3302,0.01872,0.01243,-0.0827
-6.8,-0.3176,0.01828,0.01189,-0.0831
-6.7,-0.3049,0.01788,0.01138,-0.0835
-6.6,-0.2913,0.01751,0.0109,-0.084
-6.5,-0.2783,0.01719,0.0105,-0.0844
-6.4,-0.2671,0.01678,0.01008,-0.0845
-6.3,-0.255,0.01647,0.00975,-0.0847
-6.2,-0.2427,0.01621,0.00947,-0.085
-6.1,-0.2301,0.01598,0.00921,-0.0853
-6,-0.217,0.01575,0.00895,-0.0857
-5.9,-0.205,0.01553,0.0087,-0.0859
-5.8,-0.1934,0.01532,0.00846,-0.0859
-5.7,-0.1815,0.0151,0.0082,-0.0861
-5.6,-0.1692,0.01488,0.00793,-0.0862
-5.5,-0.1568,0.01466,0.00766,-0.0864
-5.4,-0.1446,0.01444,0.00739,-0.0866
-5.3,-0.1331,0.01425,0.00713,-0.0866
-5.2,-0.1214,0.01406,0.00691,-0.0866
-5.1,-0.1096,0.01383,0.00668,-0.0867
-5,-0.0976,0.01366,0.0065,-0.0868
-4.9,-0.0859,0.01351,0.00634,-0.0869
-4.8,-0.0745,0.01337,0.00618,-0.0868
-4.7,-0.0628,0.01323,0.00601,-0.0869
-4.5,-0.0394,0.0131,0.00579,-0.0869
-4.4,-0.0279,0.0129,0.0056,-0.0869
-4.3,-0.0166,0.01274,0.00545,-0.0868
-4.2,-0.005,0.01262,0.0053,-0.0868
-4.1,0.0066,0.0125,0.00517,-0.0868
-4,0.0181,0.01239,0.00503,-0.0868
-3.9,0.0296,0.01227,0.00489,-0.0868
-3.8,0.0409,0.01222,0.00481,-0.0867
-3.7,0.0523,0.01208,0.00468,-0.0867
-3.6,0.0639,0.01198,0.00457,-0.0867
-3.5,0.0754,0.01188,0.00445,-0.0866
-3.4,0.0869,0.01179,0.00433,-0.0866
-3.3,0.0982,0.01171,0.00421,-0.0865
-3.2,0.1097,0.01162,0.00411,-0.0864
-3.1,0.1212,0.01151,0.004,-0.0864
-3,0.1325,0.01146,0.00396,-0.0864
-2.9,0.1441,0.01138,0.00386,-0.0863
-2.8,0.1557,0.01132,0.00376,-0.0863
-2.7,0.1668,0.01124,0.00367,-0.0862
-2.6,0.1784,0.01116,0.0036,-0.0862
-2.5,0.1896,0.01111,0.00352,-0.086
-2.4,0.2007,0.01108,0.00346,-0.0859
-2.3,0.2119,0.01102,0.00339,-0.0858
-2.2,0.2232,0.01097,0.00333,-0.0857
-2.1,0.2344,0.01094,0.00325,-0.0856
-2,0.2456,0.01091,0.00319,-0.0855
-1.9,0.257,0.01087,0.00314,-0.0854
-1.8,0.2685,0.01083,0.00311,-0.0854
-1.7,0.28,0.01079,0.00306,-0.0854
-1.6,0.2914,0.01076,0.00302,-0.0854
-1.5,0.3024,0.01076,0.00297,-0.0852
-1.4,0.3139,0.01073,0.00293,-0.0852
-1.3,0.3251,0.01071,0.0029,-0.0851
-1.2,0.3365,0.01069,0.00288,-0.0851
-1.1,0.3481,0.01067,0.00285,-0.0851
-1,0.3593,0.01066,0.00282,-0.085
-0.9,0.3703,0.01067,0.00279,-0.0849
-0.8,0.3818,0.01065,0.00278,-0.0849
-0.7,0.3932,0.01064,0.00275,-0.0849
-0.6,0.4042,0.01067,0.00273,-0.0848
-0.5,0.4156,0.01066,0.00272,-0.0848
-0.4,0.4269,0.01064,0.00271,-0.0848
-0.3,0.4379,0.01068,0.00269,-0.0847
-0.2,0.4492,0.01067,0.00268,-0.0847
-0.1,0.4605,0.01068,0.00267,-0.0847
0,0.4718,0.01064,0.00267,-0.0847
0.1,0.4831,0.01063,0.00266,-0.0847
0.2,0.4944,0.01061,0.00267,-0.0847
0.3,0.5057,0.01057,0.00267,-0.0848
0.4,0.5165,0.01056,0.00268,-0.0847
0.5,0.5274,0.01034,0.00269,-0.0848
0.6,0.5383,0.01017,0.00271,-0.0849
0.8,0.5522,0.00902,0.00254,-0.0823
0.9,0.5635,0.00911,0.00257,-0.0823
1,0.5748,0.00918,0.00258,-0.0823
1.1,0.586,0.00927,0.00261,-0.0822
1.2,0.5968,0.00939,0.00264,-0.0821
1.3,0.6081,0.00947,0.00266,-0.0821
1.4,0.6193,0.00956,0.0027,-0.0821
1.5,0.6305,0.00965,0.00273,-0.082
1.6,0.6417,0.00974,0.00276,-0.082
1.7,0.6528,0.00983,0.0028,-0.082
1.8,0.6639,0.00992,0.00284,-0.0819
1.9,0.675,0.01003,0.00288,-0.0819
2,0.6861,0.01013,0.00292,-0.0819
2.1,0.6966,0.01029,0.00298,-0.0817
2.2,0.7076,0.01039,0.00303,-0.0817
2.3,0.7185,0.01051,0.00309,-0.0817
2.4,0.7294,0.01063,0.00315,-0.0816
2.5,0.7403,0.01075,0.00319,-0.0816
2.6,0.7511,0.01088,0.00326,-0.0815
2.7,0.7619,0.01101,0.00333,-0.0815
2.8,0.7726,0.01115,0.0034,-0.0814
2.9,0.7829,0.01135,0.00348,-0.0813
3,0.7936,0.0115,0.00356,-0.0812
3.1,0.8042,0.01164,0.00362,-0.0812
3.2,0.815,0.01178,0.00371,-0.0811
3.3,0.8257,0.01192,0.0038,-0.0811
3.4,0.8365,0.01206,0.00387,-0.081
3.5,0.8473,0.01219,0.00396,-0.081
3.6,0.8581,0.01232,0.00404,-0.081
3.7,0.8688,0.01247,0.00414,-0.0809
3.8,0.8797,0.01258,0.00422,-0.0809
3.9,0.8902,0.01275,0.00432,-0.0808
4,0.901,0.01287,0.00442,-0.0808
4.1,0.9119,0.01298,0.0045,-0.0808
4.2,0.9228,0.01309,0.0046,-0.0807
4.3,0.9336,0.01322,0.00469,-0.0807
4.4,0.9443,0.01335,0.0048,-0.0806
4.5,0.9552,0.01345,0.00489,-0.0806
4.6,0.9661,0.01355,0.00498,-0.0806
4.7,0.9769,0.01367,0.00508,-0.0805
4.8,0.9876,0.0138,0.00518,-0.0805
4.9,0.9982,0.01393,0.00529,-0.0804
5,1.0091,0.01404,0.00538,-0.0804
5.1,1.0198,0.01415,0.00548,-0.0804
5.2,1.0305,0.01427,0.0056,-0.0803
5.3,1.0411,0.0144,0.00571,-0.0803
5.4,1.0518,0.01452,0.00582,-0.0802
5.5,1.0626,0.01462,0.00592,-0.0802
5.6,1.0733,0.01473,0.00603,-0.0801
5.7,1.084,0.01485,0.00614,-0.0801
5.8,1.0943,0.015,0.00625,-0.08
5.9,1.1047,0.01514,0.00637,-0.0799
6,1.1155,0.01524,0.00648,-0.0799
6.1,1.1262,0.01534,0.00659,-0.0798
6.2,1.1368,0.01546,0.00672,-0.0797
6.3,1.1473,0.01558,0.00684,-0.0797
6.4,1.1577,0.01572,0.00696,-0.0796
6.5,1.168,0.01586,0.00709,-0.0795
6.6,1.1783,0.016,0.00722,-0.0794
6.7,1.189,0.0161,0.00734,-0.0794
6.8,1.1995,0.01622,0.00746,-0.0793
6.9,1.2098,0.01635,0.00758,-0.0792
7,1.22,0.01648,0.00771,-0.0791
7.1,1.2302,0.01663,0.00786,-0.079
7.2,1.2402,0.01679,0.00801,-0.0789
7.3,1.2507,0.0169,0.00814,-0.0788
7.4,1.2611,0.01702,0.00828,-0.0787
7.5,1.2713,0.01715,0.00842,-0.0786
7.6,1.2815,0.01729,0.00856,-0.0785
7.7,1.2916,0.01743,0.0087,-0.0784
7.8,1.3016,0.01758,0.00885,-0.0782
7.9,1.3112,0.01776,0.009,-0.0781
8,1.3214,0.01788,0.00914,-0.078
8.1,1.3315,0.01801,0.00931,-0.0778
8.2,1.3416,0.01815,0.00946,-0.0777
8.3,1.3515,0.0183,0.00962,-0.0776
8.4,1.3613,0.01845,0.00978,-0.0774
8.5,1.371,0.01862,0.00994,-0.0773
8.6,1.3805,0.01879,0.01011,-0.0771
8.7,1.3899,0.01898,0.01029,-0.0769
8.8,1.3999,0.01911,0.01046,-0.0767
8.9,1.4097,0.01925,0.01063,-0.0766
9,1.4195,0.01939,0.01078,-0.0764
9.1,1.429,0.01955,0.01097,-0.0762
9.2,1.4384,0.01973,0.01115,-0.076
9.3,1.4476,0.01991,0.01133,-0.0758
9.4,1.4567,0.02011,0.01153,-0.0756
9.5,1.4658,0.02029,0.01172,-0.0753
9.6,1.4754,0.02044,0.01191,-0.0752
9.7,1.4848,0.0206,0.0121,-0.075
9.8,1.4941,0.02077,0.0123,-0.0747
9.9,1.5032,0.02095,0.0125,-0.0745
10,1.5122,0.02113,0.0127,-0.0742
10.1,1.521,0.02132,0.0129,-0.074
10.2,1.5293,0.02154,0.01309,-0.0737
10.3,1.5376,0.02177,0.01333,-0.0733
10.4,1.5468,0.02193,0.01354,-0.0731
10.5,1.5557,0.02211,0.01376,-0.0728
10.6,1.5644,0.02229,0.01397,-0.0725
10.7,1.573,0.02249,0.0142,-0.0722
10.8,1.5814,0.02269,0.01442,-0.0719
10.9,1.5896,0.0229,0.01465,-0.0715
11,1.5976,0.02311,0.01489,-0.0711
11.1,1.6053,0.02334,0.01513,-0.0707
11.2,1.6128,0.02359,0.01538,-0.0703
11.3,1.6199,0.02386,0.01565,-0.0698
11.4,1.628,0.02405,0.01589,-0.0694
11.5,1.6364,0.02421,0.01612,-0.0691
11.6,1.6439,0.02443,0.01637,-0.0686
11.7,1.6512,0.02466,0.01663,-0.0682
11.8,1.6583,0.02489,0.01689,-0.0677
11.9,1.6651,0.02514,0.01716,-0.0671
12,1.6716,0.02539,0.01744,-0.0665
12.1,1.6777,0.02566,0.01772,-0.0659
12.2,1.6833,0.02594,0.01801,-0.0652
12.3,1.6877,0.02624,0.01832,-0.0643
12.4,1.6933,0.02648,0.01861,-0.0636
12.5,1.6991,0.02672,0.01891,-0.0629
12.6,1.7047,0.02698,0.01922,-0.0622
12.7,1.71,0.02725,0.01953,-0.0615
12.8,1.7154,0.02751,0.01982,-0.0608
12.9,1.7202,0.02781,0.02015,-0.06
13,1.7249,0.02812,0.0205,-0.0593
13.1,1.7294,0.02845,0.02087,-0.0586
13.2,1.7336,0.02879,0.02124,-0.0579
13.3,1.7376,0.02916,0.02163,-0.0571
13.4,1.7413,0.02955,0.02204,-0.0564
13.5,1.7445,0.02997,0.02248,-0.0557
13.6,1.7498,0.03029,0.02286,-0.0551
13.7,1.7548,0.03062,0.02326,-0.0546
13.8,1.7595,0.03098,0.02367,-0.0541
13.9,1.764,0.03135,0.0241,-0.0535
14,1.7683,0.03174,0.02454,-0.053
14.1,1.7724,0.03214,0.02499,-0.0525
14.2,1.7764,0.03253,0.02539,-0.0521
14.3,1.7798,0.03298,0.02588,-0.0516
14.4,1.7831,0.03345,0.02638,-0.0511
14.5,1.7861,0.03395,0.02691,-0.0507
14.6,1.7887,0.03448,0.02747,-0.0503
14.7,1.7911,0.03505,0.02807,-0.05
14.8,1.7961,0.03543,0.02852,-0.0497
14.9,1.8001,0.03591,0.02906,-0.0495
15,1.8038,0.0364,0.02962,-0.0493
15.1,1.8074,0.03692,0.03021,-0.0491
15.2,1.8108,0.03746,0.0308,-0.0489
15.3,1.814,0.03802,0.03142,-0.0488
15.4,1.8171,0.0386,0.03205,-0.0488
15.5,1.8201,0.0392,0.0327,-0.0488
15.6,1.8223,0.03987,0.03336,-0.049
15.7,1.8246,0.04056,0.03409,-0.0491
15.8,1.8267,0.0413,0.03486,-0.0494
15.9,1.8291,0.04203,0.03564,-0.0497
16,1.833,0.04263,0.03631,-0.0499
16.1,1.8367,0.04326,0.03702,-0.0502
16.2,1.8402,0.04392,0.03775,-0.0506
16.3,1.8435,0.04461,0.03851,-0.051
16.4,1.8467,0.04533,0.03929,-0.0515
16.5,1.8498,0.04608,0.0401,-0.0521
16.6,1.8529,0.04684,0.04093,-0.0528
16.7,1.8558,0.04765,0.04176,-0.0536
16.8,1.8585,0.0485,0.04267,-0.0545
16.9,1.8605,0.04949,0.04368,-0.0558
17,1.8626,0.05047,0.04471,-0.0569
17.1,1.8645,0.05152,0.04581,-0.0583
17.2,1.8678,0.05238,0.04674,-0.0593
17.3,1.8713,0.05323,0.04768,-0.0604
17.4,1.8745,0.05414,0.04868,-0.0616
17.5,1.8775,0.05509,0.0497,-0.0629
17.6,1.8804,0.05608,0.05077,-0.0642
17.7,1.883,0.05713,0.0519,-0.0658
17.8,1.8855,0.05823,0.05307,-0.0674
17.9,1.8878,0.05938,0.05429,-0.0691
18,1.8898,0.06059,0.05557,-0.0709
18.1,1.8912,0.06201,0.05703,-0.0732
18.2,1.8924,0.06344,0.05852,-0.0754
18.3,1.8932,0.06496,0.06011,-0.0778
18.4,1.8935,0.06661,0.06182,-0.0804
18.5,1.8933,0.06837,0.06365,-0.0831
18.6,1.8948,0.06977,0.06515,-0.0851
18.7,1.896,0.07125,0.06673,-0.0873
18.8,1.8967,0.07285,0.06842,-0.0897
18.9,1.8969,0.07458,0.07023,-0.0922
19,1.8966,0.07642,0.07217,-0.0949
19.1,1.8955,0.07858,0.07441,-0.098
19.2,1.8941,0.08076,0.07668,-0.1011
19.3,1.8921,0.08309,0.0791,-0.1044
19.4,1.8895,0.08558,0.08167,-0.1078
19.5,1.8864,0.0882,0.08438,-0.1114
19.6,1.8828,0.09096,0.08723,-0.1151
19.7,1.8787,0.09388,0.09023,-0.119
20,1.8622,0.10383,0.10044,-0.1317
20.1,1.8582,0.10661,0.10332,-0.1353
20.2,1.8539,0.10949,0.10628,-0.1389
20.3,1.8499,0.11225,0.10912,-0.1424
20.4,1.8453,0.11524,0.1122,-0.1462
20.5,1.8406,0.11825,0.11528,-0.1499
20.6,1.836,0.12128,0.11839,-0.1537
20.7,1.831,0.12446,0.12165,-0.1576
20.8,1.8265,0.12754,0.12479,-0.1614
20.9,1.8213,0.1309,0.12822,-0.1654
21,1.8171,0.13398,0.13135,-0.1691
21.1,1.8123,0.13734,0.13477,-0.173
21.2,1.8088,0.14032,0.13779,-0.1766
21.3,1.8056,0.14324,0.14073,-0.18
21.4,1.8005,0.14696,0.14455,-0.184
21.6,1.7868,0.15606,0.15384,-0.1934
21.7,1.7751,0.16279,0.16068,-0.1998
21.8,1.7367,0.18193,0.18006,-0.2163
21.9,1.7354,0.18529,0.18344,-0.2195
22,1.7382,0.18648,0.18464,-0.221
22.2,1.7579,0.182,0.18007,-0.2186
22.6,1.7377,0.20429,0.20251,-0.2379
22.7,1.7421,0.20446,0.20268,-0.2387
22.8,1.7466,0.20459,0.20281,-0.2394
23.2,1.7448,0.21888,0.21718,-0.252
23.3,1.7484,0.2194,0.21771,-0.253
23.4,1.7523,0.21977,0.21808,-0.254
23.7,1.7532,0.22979,0.22815,-0.2627
23.8,1.7559,0.23101,0.22937,-0.2642
23.9,1.7589,0.23202,0.2304,-0.2656
24,1.762,0.23286,0.23124,-0.2669
24.1,1.7652,0.23358,0.23196,-0.2681
24.2,1.7686,0.23419,0.23257,-0.2692
24.3,1.7719,0.23474,0.23313,-0.2702
24.4,1.7752,0.23534,0.23373,-0.2713
24.5,1.7787,0.23579,0.23417,-0.2723
24.6,1.7784,0.23967,0.23808,-0.2757
24.7,1.7782,0.24376,0.24219,-0.2791
24.8,1.7798,0.24599,0.24443,-0.2813
24.9,1.782,0.24772,0.24617,-0.2832
25,1.7843,0.24925,0.24771,-0.2849
25.1,1.7868,0.2506,0.24906,-0.2865
25.2,1.7893,0.25182,0.2503,-0.2881
25.3,1.792,0.25289,0.25138,-0.2895
25.4,1.7947,0.25389,0.25238,-0.2909
25.5,1.7974,0.25475,0.25324,-0.2923
25.6,1.8002,0.25562,0.25412,-0.2936
25.7,1.803,0.25639,0.25488,-0.2949
25.8,1.8059,0.25711,0.2556,-0.2961
25.9,1.8087,0.25775,0.25625,-0.2973
26,1.8117,0.25829,0.25677,-0.2984
26.1,1.8117,0.26235,0.26086,-0.3019
26.2,1.8109,0.26792,0.26646,-0.3064
26.4,1.8142,0.27323,0.27178,-0.3113
26.5,1.8164,0.27477,0.27333,-0.3131
26.6,1.8186,0.27617,0.27474,-0.3149
26.7,1.8209,0.2775,0.27608,-0.3166
26.8,1.8232,0.27877,0.27735,-0.3182
26.9,1.8255,0.27998,0.27857,-0.3198
27,1.8278,0.28114,0.27974,-0.3214
27.1,1.8302,0.28219,0.2808,-0.3229
27.2,1.8325,0.28328,0.28189,-0.3245
27.3,1.8349,0.2842,0.28281,-0.3259
27.4,1.8373,0.28496,0.28357,-0.3273
27.5,1.8396,0.28577,0.28439,-0.3287
27.6,1.842,0.2866,0.28522,-0.3301
27.7,1.8444,0.28719,0.28581,-0.3314
27.8,1.8467,0.28795,0.28659,-0.3328
27.9,1.8492,0.28847,0.28711,-0.334

