airfoilName st12.dat
Re 	550000
M 	5.000000e-02
N 	4.500000e+00
VACC 	0 VACCflag 1
XTR 	1.00 	1.00 XTRflag 0
alpha,cl,cd,cdp,cm
-8.9,-0.5389,0.02301,0.01916,-0.0833
-8.8,-0.5275,0.02201,0.01801,-0.084
-8.7,-0.5155,0.02115,0.01702,-0.0847
-8.6,-0.5029,0.0204,0.01614,-0.0855
-8.5,-0.4908,0.01974,0.01537,-0.086
-8.4,-0.4781,0.01914,0.01466,-0.0866
-8.3,-0.4667,0.01862,0.01404,-0.0869
-8.2,-0.4552,0.01814,0.01347,-0.0872
-8.1,-0.4435,0.01769,0.01293,-0.0875
-8,-0.4315,0.01728,0.01243,-0.0878
-7.9,-0.4195,0.01691,0.01199,-0.0881
-7.8,-0.4073,0.01657,0.01156,-0.0884
-7.7,-0.3961,0.01629,0.01121,-0.0884
-7.6,-0.3846,0.01604,0.01089,-0.0885
-7.5,-0.3731,0.01581,0.01062,-0.0886
-7.4,-0.3618,0.01524,0.00998,-0.0888
-7.3,-0.3503,0.01485,0.00953,-0.089
-7.2,-0.3391,0.01454,0.00918,-0.089
-7.1,-0.3278,0.01428,0.00888,-0.0891
-7,-0.3164,0.01404,0.00861,-0.0891
-6.9,-0.3052,0.01383,0.00836,-0.0891
-6.8,-0.2938,0.01363,0.00812,-0.0891
-6.7,-0.2824,0.01344,0.00789,-0.0891
-6.6,-0.2713,0.01325,0.00767,-0.0891
-6.5,-0.26,0.01308,0.00746,-0.0891
-6.4,-0.2486,0.0129,0.00724,-0.0891
-6.3,-0.2376,0.01274,0.00703,-0.089
-6.2,-0.2262,0.01257,0.00682,-0.089
-6.1,-0.2148,0.0124,0.00662,-0.089
-6,-0.2037,0.01224,0.00642,-0.0889
-5.9,-0.1924,0.01209,0.00622,-0.0888
-5.8,-0.181,0.01194,0.00603,-0.0888
-5.7,-0.1695,0.0118,0.00585,-0.0888
-5.6,-0.158,0.01166,0.00568,-0.0888
-5.5,-0.147,0.01156,0.00552,-0.0886
-5.4,-0.1356,0.01139,0.00534,-0.0886
-5.3,-0.1241,0.01122,0.00515,-0.0886
-5.2,-0.1126,0.01109,0.00499,-0.0886
-5.1,-0.1015,0.01098,0.00485,-0.0885
-5,-0.09,0.01088,0.00472,-0.0885
-4.9,-0.0784,0.01077,0.0046,-0.0885
-4.8,-0.0669,0.01067,0.00448,-0.0885
-4.7,-0.0555,0.01058,0.00435,-0.0885
-4.6,-0.0442,0.0105,0.00423,-0.0884
-4.5,-0.0326,0.01041,0.00411,-0.0884
-4.3,-0.0097,0.01026,0.00395,-0.0884
-4.2,0.0018,0.01017,0.00385,-0.0884
-4.1,0.0133,0.0101,0.00374,-0.0883
-4,0.0248,0.01003,0.00364,-0.0883
-3.9,0.0363,0.00996,0.00355,-0.0883
-3.8,0.048,0.00989,0.00345,-0.0883
-3.7,0.0596,0.00984,0.00337,-0.0883
-3.6,0.0709,0.00976,0.00327,-0.0882
-3.5,0.0825,0.00969,0.00319,-0.0883
-3.4,0.0941,0.00963,0.00312,-0.0883
-3.3,0.1057,0.00957,0.00304,-0.0883
-3.2,0.1173,0.00953,0.00297,-0.0883
-3.1,0.1283,0.00952,0.00292,-0.0881
-3,0.1396,0.00948,0.00284,-0.0881
-2.9,0.1508,0.00946,0.00278,-0.088
-2.8,0.1625,0.00941,0.00272,-0.088
-2.7,0.174,0.00938,0.00266,-0.088
-2.5,0.1969,0.00933,0.00255,-0.088
-2.4,0.2084,0.00931,0.00251,-0.088
-2.3,0.2197,0.0093,0.00246,-0.0879
-2.2,0.2314,0.00928,0.00241,-0.0879
-2.1,0.2429,0.00927,0.00237,-0.0879
-2,0.2542,0.00926,0.00232,-0.0879
-1.9,0.2657,0.00924,0.00229,-0.0879
-1.8,0.2773,0.00922,0.00226,-0.0879
-1.7,0.2888,0.00923,0.00223,-0.0879
-1.6,0.3002,0.00922,0.00219,-0.0879
-1.5,0.3117,0.00921,0.00217,-0.0879
-1.4,0.3229,0.00926,0.00215,-0.0879
-1.3,0.3343,0.00927,0.00212,-0.0879
-1.2,0.3456,0.00928,0.00212,-0.0879
-1.1,0.3571,0.00929,0.0021,-0.0879
-1,0.3683,0.00934,0.00208,-0.0879
-0.9,0.3799,0.00933,0.00207,-0.0879
-0.8,0.3913,0.00935,0.00206,-0.0879
-0.7,0.4023,0.00942,0.00207,-0.0879
-0.6,0.4138,0.00943,0.00207,-0.0879
-0.5,0.4252,0.00945,0.00207,-0.0879
-0.4,0.4367,0.00947,0.00206,-0.0879
-0.3,0.4482,0.00949,0.00207,-0.088
-0.2,0.4597,0.0095,0.00207,-0.088
-0.1,0.4711,0.00952,0.00208,-0.088
0,0.4822,0.00959,0.00209,-0.088
0.1,0.4936,0.00961,0.0021,-0.088
0.2,0.505,0.00964,0.00211,-0.0881
0.3,0.5165,0.00965,0.00213,-0.0881
0.4,0.5279,0.00969,0.00214,-0.0881
0.5,0.5393,0.00972,0.00215,-0.0882
0.6,0.5506,0.00975,0.00217,-0.0882
0.7,0.562,0.00978,0.00219,-0.0882
0.8,0.573,0.00986,0.00222,-0.0882
0.9,0.5843,0.0099,0.00224,-0.0882
1,0.5956,0.00994,0.00226,-0.0883
1.1,0.6069,0.00998,0.00229,-0.0883
1.2,0.6182,0.01002,0.00231,-0.0883
1.3,0.6294,0.01003,0.00234,-0.0884
1.4,0.6406,0.01006,0.00238,-0.0884
1.5,0.6518,0.01006,0.00242,-0.0885
1.8,0.6758,0.00871,0.0025,-0.0866
1.9,0.6868,0.00882,0.00255,-0.0866
2,0.6978,0.00895,0.0026,-0.0866
2.1,0.7088,0.00907,0.00266,-0.0866
2.2,0.7198,0.0092,0.00271,-0.0866
2.3,0.7308,0.00932,0.00276,-0.0866
2.4,0.7418,0.00944,0.00282,-0.0865
2.5,0.7525,0.00961,0.0029,-0.0865
2.6,0.7637,0.0097,0.00295,-0.0865
2.7,0.7748,0.00981,0.00301,-0.0865
2.8,0.786,0.00989,0.00306,-0.0865
2.9,0.7972,0.00997,0.00311,-0.0865
3,0.8083,0.01007,0.00317,-0.0865
3.1,0.8195,0.01015,0.00323,-0.0865
3.2,0.8307,0.01023,0.00328,-0.0865
3.3,0.8419,0.01031,0.00334,-0.0865
3.4,0.8528,0.01044,0.00341,-0.0865
3.5,0.864,0.01051,0.00347,-0.0865
3.6,0.8752,0.01058,0.00353,-0.0865
3.7,0.8864,0.01066,0.00359,-0.0865
3.8,0.8974,0.01075,0.00365,-0.0865
3.9,0.9085,0.01084,0.00372,-0.0865
4,0.9197,0.01091,0.00377,-0.0865
4.1,0.9309,0.01098,0.00383,-0.0865
4.2,0.942,0.01106,0.0039,-0.0865
4.3,0.953,0.01115,0.00396,-0.0865
4.4,0.9639,0.01127,0.00404,-0.0865
4.5,0.975,0.01134,0.00411,-0.0865
4.6,0.9861,0.01141,0.00418,-0.0865
4.7,0.9971,0.0115,0.00425,-0.0864
4.8,1.0081,0.01159,0.00432,-0.0864
4.9,1.019,0.01168,0.00439,-0.0864
5,1.03,0.01177,0.00447,-0.0864
5.1,1.041,0.01184,0.00454,-0.0864
5.2,1.0519,0.01194,0.00461,-0.0864
5.3,1.0628,0.01203,0.00469,-0.0863
5.4,1.0737,0.01213,0.00477,-0.0863
5.5,1.0844,0.01224,0.00487,-0.0863
5.6,1.0954,0.01231,0.00495,-0.0863
5.7,1.1064,0.01239,0.00502,-0.0862
5.8,1.1172,0.01248,0.0051,-0.0862
5.9,1.1281,0.01257,0.00519,-0.0862
6,1.1389,0.01267,0.00527,-0.0861
6.1,1.1496,0.01277,0.00536,-0.0861
6.2,1.1602,0.01289,0.00546,-0.086
6.3,1.171,0.01297,0.00555,-0.086
6.4,1.1817,0.01306,0.00563,-0.086
6.5,1.1925,0.01316,0.00574,-0.0859
6.6,1.2031,0.01326,0.00583,-0.0859
6.7,1.2137,0.01337,0.00593,-0.0858
6.8,1.2242,0.01349,0.00603,-0.0857
6.9,1.2348,0.01359,0.00614,-0.0857
7,1.2455,0.01368,0.00623,-0.0856
7.1,1.2561,0.01378,0.00633,-0.0856
7.2,1.2667,0.01388,0.00643,-0.0855
7.3,1.277,0.01401,0.00654,-0.0854
7.4,1.2874,0.01413,0.00665,-0.0853
7.5,1.2976,0.01427,0.00678,-0.0852
7.6,1.3082,0.01436,0.00689,-0.0852
7.7,1.3187,0.01446,0.007,-0.0851
7.8,1.3291,0.01457,0.00711,-0.085
7.9,1.3394,0.01468,0.00722,-0.0849
8,1.3497,0.0148,0.00734,-0.0848
8.1,1.36,0.01492,0.00746,-0.0847
8.2,1.3701,0.01505,0.00759,-0.0846
8.3,1.38,0.0152,0.00772,-0.0845
8.4,1.3903,0.01531,0.00784,-0.0844
8.5,1.4005,0.01543,0.00798,-0.0843
8.6,1.4107,0.01555,0.0081,-0.0842
8.7,1.4207,0.01567,0.00823,-0.084
8.8,1.4307,0.01581,0.00837,-0.0839
8.9,1.4406,0.01595,0.00851,-0.0838
9,1.4504,0.0161,0.00865,-0.0836
9.1,1.4601,0.01625,0.00881,-0.0834
9.2,1.4702,0.01637,0.00894,-0.0833
9.3,1.4801,0.01649,0.00908,-0.0832
9.4,1.4898,0.01663,0.00922,-0.083
9.5,1.4996,0.01677,0.00936,-0.0828
9.6,1.5092,0.01692,0.00953,-0.0827
9.7,1.5187,0.01708,0.00968,-0.0825
9.8,1.5281,0.01725,0.00985,-0.0823
9.9,1.5374,0.01742,0.01003,-0.0821
10,1.5471,0.01754,0.01018,-0.0819
10.1,1.5567,0.01768,0.01033,-0.0817
10.2,1.5661,0.01783,0.01049,-0.0815
10.3,1.5755,0.01798,0.01066,-0.0813
10.4,1.5847,0.01814,0.01083,-0.081
10.5,1.5939,0.0183,0.011,-0.0808
10.6,1.6025,0.01851,0.01119,-0.0805
10.7,1.6113,0.01871,0.01138,-0.0802
10.8,1.6204,0.01887,0.01158,-0.08
10.9,1.6295,0.01902,0.01175,-0.0797
11,1.6384,0.01918,0.01193,-0.0794
11.1,1.6473,0.01934,0.01212,-0.0791
11.2,1.656,0.01951,0.01231,-0.0788
11.3,1.6643,0.01972,0.0125,-0.0785
11.4,1.6726,0.01992,0.01271,-0.0782
11.5,1.6807,0.02014,0.01292,-0.0778
11.6,1.6886,0.02036,0.01316,-0.0774
11.7,1.6971,0.02053,0.01335,-0.077
11.8,1.7054,0.0207,0.01355,-0.0767
11.9,1.7134,0.02089,0.01375,-0.0763
12,1.7212,0.02109,0.01397,-0.0759
12.1,1.7289,0.02129,0.01419,-0.0754
12.2,1.7363,0.0215,0.01443,-0.0749
12.3,1.7435,0.02173,0.01466,-0.0744
12.4,1.7504,0.02196,0.01491,-0.0739
12.5,1.7571,0.02221,0.01517,-0.0733
12.6,1.7639,0.02243,0.01541,-0.0727
12.7,1.7708,0.02264,0.01564,-0.0722
12.8,1.7774,0.02286,0.01589,-0.0716
12.9,1.7836,0.02309,0.01614,-0.0709
13,1.7889,0.02332,0.01639,-0.0701
13.1,1.7939,0.02357,0.01666,-0.0692
13.2,1.7986,0.02383,0.01695,-0.0683
13.3,1.8031,0.02411,0.01724,-0.0674
13.4,1.8076,0.0244,0.01755,-0.0665
13.5,1.8119,0.02471,0.01788,-0.0657
13.6,1.816,0.02504,0.01823,-0.0648
13.7,1.8211,0.0253,0.01853,-0.0641
13.8,1.8258,0.02559,0.01884,-0.0633
13.9,1.8303,0.0259,0.01919,-0.0626
14,1.8348,0.02622,0.01954,-0.0618
14.1,1.8391,0.02655,0.0199,-0.0611
14.2,1.8431,0.02691,0.02028,-0.0604
14.3,1.847,0.02727,0.02067,-0.0596
14.4,1.8506,0.02767,0.02109,-0.0589
14.5,1.854,0.02808,0.02152,-0.0582
14.6,1.8571,0.02851,0.02198,-0.0575
14.7,1.8611,0.02889,0.02241,-0.0569
14.8,1.8651,0.02928,0.02283,-0.0563
14.9,1.869,0.02968,0.02327,-0.0558
15,1.8726,0.0301,0.02373,-0.0552
15.1,1.8761,0.03053,0.0242,-0.0547
15.2,1.8794,0.03098,0.02469,-0.0542
15.3,1.8825,0.03146,0.0252,-0.0537
15.4,1.8849,0.03201,0.02577,-0.0532
15.5,1.8875,0.03255,0.02634,-0.0528
15.6,1.8899,0.03311,0.02693,-0.0524
15.7,1.8922,0.03371,0.02756,-0.0521
15.8,1.8941,0.03433,0.02821,-0.0518
15.9,1.897,0.0349,0.02882,-0.0516
16,1.8997,0.03549,0.02946,-0.0514
16.1,1.9022,0.0361,0.03011,-0.0513
16.2,1.9047,0.03673,0.03079,-0.0512
16.3,1.9069,0.0374,0.03149,-0.0512
16.4,1.909,0.0381,0.03223,-0.0513
16.5,1.9109,0.03884,0.03301,-0.0514
16.6,1.9127,0.03962,0.03382,-0.0516
16.7,1.9141,0.04045,0.03469,-0.0519
16.8,1.9158,0.04127,0.03556,-0.0522
16.9,1.9181,0.04205,0.03639,-0.0526
17,1.9202,0.04287,0.03725,-0.0531
17.1,1.9222,0.04373,0.03816,-0.0537
17.2,1.924,0.04463,0.03909,-0.0544
17.3,1.9255,0.04559,0.04009,-0.0552
17.4,1.9266,0.04662,0.04116,-0.0561
17.5,1.9275,0.04771,0.0423,-0.0571
17.6,1.9291,0.04875,0.04341,-0.0582
17.7,1.9307,0.04981,0.04452,-0.0594
17.8,1.9323,0.05091,0.04568,-0.0607
17.9,1.9336,0.05209,0.0469,-0.0621
18,1.9347,0.05333,0.04819,-0.0636
18.1,1.9352,0.05469,0.04961,-0.0654
18.2,1.9351,0.05622,0.05118,-0.0674
18.3,1.9353,0.05773,0.05278,-0.0695
18.4,1.9356,0.05928,0.05439,-0.0716
18.5,1.9357,0.06091,0.05608,-0.0739
18.6,1.9352,0.06267,0.05791,-0.0763
18.7,1.9341,0.06463,0.05993,-0.0791
18.8,1.9322,0.06677,0.06215,-0.0821
18.9,1.9299,0.06906,0.06455,-0.0853
19,1.927,0.07154,0.06712,-0.0887
19.1,1.9239,0.07413,0.06979,-0.0922
19.2,1.9199,0.07699,0.07275,-0.0959
19.3,1.9152,0.08007,0.07592,-0.0999
19.4,1.9093,0.08352,0.07949,-0.1043
19.5,1.9028,0.08718,0.08327,-0.1088
19.6,1.8947,0.09132,0.08753,-0.1137
19.7,1.8858,0.0957,0.09204,-0.1188
19.8,1.8764,0.10014,0.09661,-0.1239
19.9,1.867,0.10452,0.10111,-0.1289
20,1.8572,0.10888,0.10557,-0.1339
20.1,1.8485,0.11289,0.10968,-0.1386
20.2,1.8393,0.11697,0.11388,-0.1434
20.3,1.8309,0.12084,0.11784,-0.148
20.4,1.824,0.1243,0.12137,-0.1522
20.5,1.8162,0.12807,0.12523,-0.1568
20.6,1.8095,0.13164,0.12888,-0.161
20.7,1.8039,0.13494,0.13225,-0.165
20.8,1.7981,0.13847,0.13585,-0.1691
20.9,1.7934,0.14172,0.13916,-0.1728
21,1.7894,0.14486,0.14236,-0.1764
21.1,1.7841,0.14856,0.14611,-0.1804
21.2,1.7806,0.15168,0.14929,-0.1838
21.3,1.776,0.15534,0.153,-0.1876
21.4,1.7728,0.15854,0.15627,-0.1909
21.5,1.7709,0.16132,0.15909,-0.1938
21.6,1.7675,0.16476,0.16259,-0.1972
21.7,1.7653,0.16783,0.16569,-0.2003
21.8,1.7641,0.17049,0.1684,-0.203
21.9,1.7625,0.17339,0.17133,-0.2058
22,1.7597,0.17685,0.17484,-0.2091
22.1,1.7586,0.17961,0.17763,-0.2119
22.2,1.7579,0.18228,0.18033,-0.2145
22.3,1.7565,0.18525,0.18334,-0.2174
22.4,1.7543,0.18872,0.18684,-0.2206
22.5,1.7534,0.1916,0.18975,-0.2233
22.6,1.7527,0.19441,0.19259,-0.2261
22.7,1.7525,0.19708,0.1953,-0.2286
22.8,1.7511,0.20039,0.19865,-0.2317
22.9,1.7512,0.20293,0.20122,-0.2341
23,1.7517,0.20531,0.20362,-0.2364
23.1,1.7525,0.20754,0.20587,-0.2386
23.2,1.7531,0.20991,0.20827,-0.2409
23.3,1.7534,0.21245,0.21084,-0.2434
23.4,1.7533,0.21528,0.21369,-0.246
23.5,1.7541,0.21761,0.21606,-0.2483
23.6,1.7552,0.21977,0.21823,-0.2504
23.7,1.7563,0.2219,0.22038,-0.2525
23.8,1.7576,0.22397,0.22246,-0.2546
23.9,1.7588,0.22608,0.22459,-0.2567
24,1.7601,0.22816,0.22669,-0.2588
24.1,1.7608,0.23069,0.22924,-0.2612
24.2,1.7618,0.23303,0.23159,-0.2635
24.3,1.7632,0.23504,0.23361,-0.2655
24.4,1.7648,0.23696,0.23554,-0.2675
24.5,1.7665,0.23878,0.23737,-0.2694
24.6,1.7683,0.24053,0.23912,-0.2713
24.7,1.7703,0.24217,0.24077,-0.2731
24.8,1.7723,0.24369,0.24229,-0.2749
24.9,1.7745,0.2451,0.2437,-0.2765
25,1.7768,0.24634,0.24494,-0.2781
25.1,1.7788,0.24785,0.24645,-0.2798
25.2,1.7807,0.24958,0.24819,-0.2817
25.4,1.7828,0.25464,0.25332,-0.2864
25.5,1.7844,0.25666,0.25537,-0.2885
25.6,1.7861,0.25854,0.25727,-0.2904
25.7,1.7879,0.26035,0.2591,-0.2924
25.8,1.7898,0.26212,0.26088,-0.2943
25.9,1.7916,0.26385,0.26263,-0.2961
26,1.7935,0.26558,0.26438,-0.298
26.1,1.7954,0.26729,0.2661,-0.2999
26.2,1.7973,0.26901,0.26784,-0.3018
26.3,1.7992,0.27075,0.26959,-0.3037
26.4,1.8011,0.27246,0.27131,-0.3056
26.5,1.803,0.27419,0.27306,-0.3075
26.6,1.8049,0.27591,0.27479,-0.3094
26.7,1.8067,0.27767,0.27656,-0.3114
26.8,1.8086,0.27939,0.27829,-0.3133
26.9,1.8103,0.28122,0.28014,-0.3153
27.1,1.8138,0.28502,0.28398,-0.3194
27.2,1.8157,0.28674,0.28571,-0.3214
27.3,1.8176,0.28836,0.28733,-0.3232
27.4,1.8195,0.28996,0.28894,-0.3251
27.5,1.8215,0.29142,0.29041,-0.3269
27.6,1.8235,0.29292,0.29191,-0.3287
27.7,1.8255,0.29424,0.29324,-0.3305
27.8,1.8276,0.29556,0.29456,-0.3322
27.9,1.8296,0.29677,0.29578,-0.3339
28,1.8316,0.29797,0.29698,-0.3355
28.1,1.8337,0.29908,0.2981,-0.3372
28.2,1.8359,0.29986,0.29888,-0.3386
28.3,1.838,0.30091,0.29992,-0.3402
28.4,1.8401,0.30161,0.30062,-0.3416
28.5,1.8423,0.30231,0.30132,-0.343
28.6,1.844,0.30379,0.3028,-0.3449
28.7,1.8443,0.30856,0.30763,-0.3488

