airfoilName st12.dat
Re 	570000
M 	5.000000e-02
N 	4.500000e+00
VACC 	0 VACCflag 1
XTR 	1.00 	1.00 XTRflag 0
alpha,cl,cd,cdp,cm
-9.1,-0.563,0.02491,0.02136,-0.0815
-9,-0.5501,0.02324,0.01947,-0.0831
-8.9,-0.5384,0.02218,0.01826,-0.0839
-8.8,-0.5266,0.02132,0.01727,-0.0846
-8.7,-0.514,0.02055,0.01638,-0.0853
-8.6,-0.502,0.01989,0.01561,-0.0859
-8.5,-0.4894,0.01928,0.01489,-0.0865
-8.4,-0.4778,0.01874,0.01426,-0.0869
-8.3,-0.4664,0.01825,0.01367,-0.0871
-8.2,-0.4548,0.01779,0.01313,-0.0874
-8.1,-0.4431,0.01736,0.01262,-0.0877
-8,-0.431,0.01696,0.01213,-0.088
-7.9,-0.4191,0.0166,0.01169,-0.0883
-7.8,-0.4076,0.01627,0.01129,-0.0884
-7.7,-0.3963,0.01599,0.01093,-0.0885
-7.6,-0.3849,0.01572,0.0106,-0.0885
-7.5,-0.3733,0.01549,0.01031,-0.0886
-7.4,-0.3616,0.01527,0.01005,-0.0887
-7.3,-0.3506,0.01474,0.00945,-0.0888
-7.2,-0.3394,0.01438,0.00904,-0.0889
-7.1,-0.3281,0.0141,0.00872,-0.089
-7,-0.317,0.01385,0.00843,-0.089
-6.9,-0.3056,0.01364,0.00818,-0.089
-6.8,-0.2943,0.01343,0.00794,-0.089
-6.7,-0.2832,0.01325,0.00771,-0.0889
-6.6,-0.2718,0.01306,0.0075,-0.0889
-6.5,-0.2605,0.01289,0.00729,-0.0889
-6.4,-0.2492,0.01273,0.00708,-0.0889
-6.3,-0.2381,0.01256,0.00688,-0.0888
-6.2,-0.2267,0.0124,0.00669,-0.0888
-6.1,-0.2153,0.01224,0.00649,-0.0888
-6,-0.2043,0.0121,0.0063,-0.0887
-5.9,-0.1929,0.01194,0.00611,-0.0886
-5.8,-0.1815,0.0118,0.00592,-0.0886
-5.7,-0.17,0.01165,0.00575,-0.0886
-5.6,-0.1589,0.01153,0.00557,-0.0885
-5.5,-0.1476,0.01142,0.00542,-0.0885
-5.4,-0.136,0.01131,0.00529,-0.0885
-5.3,-0.1245,0.01112,0.00507,-0.0885
-5.2,-0.1131,0.01098,0.0049,-0.0885
-5.1,-0.102,0.01087,0.00476,-0.0884
-5,-0.0904,0.01076,0.00464,-0.0884
-4.9,-0.0789,0.01066,0.00451,-0.0884
-4.8,-0.0674,0.01056,0.00439,-0.0884
-4.7,-0.0562,0.01048,0.00428,-0.0883
-4.6,-0.0446,0.01039,0.00416,-0.0883
-4.5,-0.033,0.0103,0.00404,-0.0883
-4.4,-0.0215,0.01023,0.00393,-0.0882
-4.3,-0.0101,0.01016,0.00388,-0.0882
-4.2,0.0014,0.01008,0.00378,-0.0882
-4.1,0.0129,0.01001,0.00368,-0.0882
-4,0.0244,0.00994,0.00358,-0.0882
-3.9,0.036,0.00987,0.00349,-0.0882
-3.8,0.0477,0.0098,0.0034,-0.0882
-3.7,0.0592,0.00975,0.00331,-0.0882
-3.6,0.0706,0.00968,0.00322,-0.0882
-3.5,0.0823,0.0096,0.00314,-0.0882
-3.4,0.0938,0.00955,0.00307,-0.0882
-3.3,0.1054,0.0095,0.003,-0.0882
-3.2,0.1165,0.00948,0.00292,-0.0881
-3.1,0.1281,0.00946,0.00289,-0.0881
-3,0.1393,0.00942,0.0028,-0.088
-2.9,0.1507,0.00938,0.00274,-0.0879
-2.8,0.1622,0.00935,0.00268,-0.0879
-2.7,0.1738,0.00931,0.00262,-0.0879
-2.6,0.1855,0.00928,0.00257,-0.088
-2.5,0.1968,0.00927,0.00252,-0.0879
-2.4,0.2082,0.00924,0.00247,-0.0879
-2.3,0.2196,0.00923,0.00243,-0.0879
-2.2,0.2312,0.00921,0.00238,-0.0879
-2.1,0.2428,0.0092,0.00234,-0.0879
-2,0.254,0.00921,0.00229,-0.0878
-1.9,0.2656,0.00918,0.00226,-0.0879
-1.8,0.2771,0.00917,0.00223,-0.0879
-1.7,0.2885,0.00918,0.0022,-0.0879
-1.6,0.3,0.00917,0.00217,-0.0879
-1.5,0.3112,0.0092,0.00215,-0.0878
-1.4,0.3227,0.00921,0.00212,-0.0878
-1.3,0.3342,0.00922,0.0021,-0.0878
-1.2,0.3454,0.00924,0.00209,-0.0878
-1.1,0.357,0.00924,0.00207,-0.0879
-1,0.3683,0.00928,0.00207,-0.0878
-0.9,0.3798,0.00928,0.00205,-0.0879
-0.8,0.3909,0.00934,0.00205,-0.0878
-0.7,0.4023,0.00938,0.00205,-0.0878
-0.6,0.4137,0.00939,0.00205,-0.0879
-0.5,0.4252,0.0094,0.00205,-0.0879
-0.4,0.4367,0.00942,0.00204,-0.0879
-0.3,0.4482,0.00943,0.00205,-0.088
-0.2,0.4596,0.00946,0.00205,-0.088
-0.1,0.4711,0.00947,0.00206,-0.088
0,0.4822,0.00954,0.00208,-0.088
0.1,0.4937,0.00957,0.00208,-0.088
0.2,0.5051,0.00959,0.00209,-0.0881
0.3,0.5165,0.00961,0.00211,-0.0881
0.4,0.5279,0.00964,0.00212,-0.0881
0.5,0.5393,0.00967,0.00214,-0.0882
0.6,0.5507,0.0097,0.00215,-0.0882
0.7,0.5617,0.00979,0.00218,-0.0882
0.8,0.573,0.00983,0.0022,-0.0882
0.9,0.5844,0.00985,0.00222,-0.0883
1,0.5957,0.0099,0.00225,-0.0883
1.1,0.607,0.00994,0.00227,-0.0883
1.2,0.6182,0.00998,0.0023,-0.0883
1.3,0.6295,0.01003,0.00232,-0.0884
1.4,0.6407,0.01003,0.00236,-0.0884
1.5,0.6514,0.01012,0.00242,-0.0884
1.6,0.6625,0.01011,0.00247,-0.0885
1.9,0.6869,0.00879,0.00254,-0.0867
2,0.6979,0.00891,0.00259,-0.0867
2.1,0.7089,0.00903,0.00264,-0.0867
2.2,0.72,0.00916,0.0027,-0.0866
2.3,0.731,0.00928,0.00276,-0.0866
2.4,0.7416,0.00946,0.00283,-0.0866
2.5,0.7528,0.00955,0.00288,-0.0866
2.6,0.7639,0.00965,0.00294,-0.0866
2.7,0.7751,0.00974,0.00299,-0.0866
2.8,0.7864,0.00982,0.00304,-0.0866
2.9,0.7976,0.00991,0.00309,-0.0866
3,0.8087,0.01,0.00316,-0.0866
3.1,0.8199,0.01007,0.00321,-0.0866
3.2,0.8312,0.01015,0.00326,-0.0866
3.3,0.8421,0.01028,0.00333,-0.0866
3.4,0.8533,0.01035,0.00339,-0.0866
3.5,0.8645,0.01042,0.00345,-0.0866
3.6,0.8757,0.0105,0.0035,-0.0866
3.7,0.8868,0.01058,0.00356,-0.0866
3.8,0.8979,0.01068,0.00362,-0.0866
3.9,0.9091,0.01075,0.00369,-0.0866
4,0.9203,0.01082,0.00374,-0.0866
4.1,0.9314,0.01089,0.0038,-0.0866
4.2,0.9425,0.01098,0.00387,-0.0866
4.3,0.9533,0.0111,0.00395,-0.0866
4.4,0.9645,0.01117,0.00401,-0.0866
4.5,0.9756,0.01124,0.00408,-0.0866
4.6,0.9867,0.01132,0.00414,-0.0866
4.7,0.9977,0.0114,0.00421,-0.0866
4.8,1.0087,0.0115,0.00428,-0.0866
4.9,1.0196,0.01159,0.00436,-0.0865
5,1.0307,0.01167,0.00443,-0.0865
5.1,1.0417,0.01174,0.0045,-0.0865
5.2,1.0526,0.01184,0.00457,-0.0865
5.3,1.0635,0.01194,0.00465,-0.0865
5.4,1.0743,0.01204,0.00473,-0.0864
5.5,1.0852,0.01212,0.00482,-0.0864
5.6,1.0962,0.0122,0.0049,-0.0864
5.7,1.1071,0.01228,0.00498,-0.0864
5.8,1.118,0.01237,0.00506,-0.0864
5.9,1.1288,0.01246,0.00514,-0.0863
6,1.1396,0.01256,0.00522,-0.0863
6.1,1.1503,0.01267,0.00531,-0.0862
6.2,1.1611,0.01277,0.00541,-0.0862
6.3,1.1718,0.01286,0.00549,-0.0862
6.4,1.1826,0.01295,0.00558,-0.0861
6.5,1.1933,0.01305,0.00568,-0.0861
6.6,1.2039,0.01315,0.00577,-0.086
6.7,1.2145,0.01327,0.00587,-0.086
6.8,1.2251,0.01338,0.00598,-0.0859
6.9,1.2358,0.01347,0.00607,-0.0859
7,1.2465,0.01356,0.00617,-0.0858
7.1,1.2571,0.01366,0.00627,-0.0857
7.2,1.2675,0.01378,0.00637,-0.0857
7.3,1.2779,0.0139,0.00647,-0.0856
7.4,1.2882,0.01402,0.00659,-0.0855
7.5,1.2987,0.01413,0.00671,-0.0854
7.6,1.3092,0.01423,0.00682,-0.0854
7.7,1.3197,0.01433,0.00693,-0.0853
7.8,1.3302,0.01444,0.00704,-0.0852
7.9,1.3405,0.01455,0.00715,-0.0851
8,1.3508,0.01467,0.00727,-0.085
8.1,1.361,0.0148,0.00739,-0.0849
8.2,1.3711,0.01494,0.00751,-0.0848
8.3,1.3812,0.01506,0.00764,-0.0847
8.4,1.3915,0.01517,0.00776,-0.0846
8.5,1.4017,0.01529,0.00789,-0.0845
8.6,1.4119,0.01541,0.00802,-0.0844
8.7,1.4219,0.01554,0.00815,-0.0843
8.8,1.4319,0.01568,0.00828,-0.0841
8.9,1.4418,0.01582,0.00842,-0.084
9,1.4515,0.01598,0.00857,-0.0838
9.1,1.4615,0.0161,0.00871,-0.0837
9.2,1.4716,0.01622,0.00884,-0.0836
9.3,1.4815,0.01634,0.00898,-0.0834
9.4,1.4912,0.01649,0.00912,-0.0833
9.5,1.5009,0.01663,0.00926,-0.0831
9.6,1.5105,0.01678,0.00943,-0.0829
9.7,1.52,0.01694,0.00959,-0.0827
9.8,1.5294,0.01712,0.00975,-0.0825
9.9,1.5391,0.01725,0.00991,-0.0823
10,1.5487,0.01738,0.01006,-0.0821
10.1,1.5583,0.01752,0.01022,-0.082
10.2,1.5678,0.01766,0.01038,-0.0818
10.3,1.5771,0.01782,0.01054,-0.0815
10.4,1.5864,0.01798,0.01071,-0.0813
10.5,1.5952,0.01818,0.01089,-0.081
10.6,1.6041,0.01836,0.01107,-0.0808
10.7,1.6131,0.01854,0.01127,-0.0805
10.8,1.6223,0.01869,0.01145,-0.0803
10.9,1.6314,0.01884,0.01162,-0.08
11,1.6404,0.019,0.0118,-0.0797
11.1,1.6492,0.01916,0.01198,-0.0795
11.2,1.6577,0.01937,0.01217,-0.0792
11.3,1.6662,0.01956,0.01237,-0.0788
11.4,1.6745,0.01976,0.01257,-0.0785
11.5,1.6826,0.01998,0.01279,-0.0781
11.6,1.691,0.02016,0.013,-0.0778
11.7,1.6995,0.02033,0.0132,-0.0774
11.8,1.7077,0.02051,0.01339,-0.077
11.9,1.7157,0.0207,0.0136,-0.0767
12,1.7236,0.0209,0.01381,-0.0762
12.1,1.7313,0.0211,0.01404,-0.0758
12.2,1.7387,0.02132,0.01427,-0.0753
12.3,1.7459,0.02155,0.01451,-0.0748
12.4,1.7524,0.02182,0.01478,-0.0742
12.5,1.7598,0.02202,0.015,-0.0737
12.6,1.7669,0.02222,0.01523,-0.0732
12.7,1.7738,0.02243,0.01546,-0.0726
12.8,1.7805,0.02265,0.01571,-0.072
12.9,1.7869,0.02288,0.01596,-0.0714
13,1.7925,0.02311,0.01621,-0.0707
13.1,1.7974,0.02336,0.01648,-0.0698
13.2,1.8021,0.02362,0.01676,-0.0689
13.3,1.8066,0.0239,0.01705,-0.0679
13.4,1.8109,0.0242,0.01736,-0.067
13.5,1.8151,0.02451,0.0177,-0.0661
13.6,1.8201,0.02477,0.018,-0.0654
13.7,1.8251,0.02504,0.01829,-0.0646
13.8,1.8296,0.02534,0.01862,-0.0638
13.9,1.8341,0.02565,0.01896,-0.0631
14,1.8385,0.02597,0.0193,-0.0623
14.1,1.8427,0.0263,0.01966,-0.0615
14.2,1.8467,0.02666,0.02004,-0.0608
14.3,1.8505,0.02703,0.02044,-0.0601
14.4,1.854,0.02743,0.02085,-0.0593
14.5,1.8573,0.02784,0.02129,-0.0586
14.6,1.8614,0.0282,0.0217,-0.0579
14.7,1.8655,0.02857,0.02211,-0.0573
14.8,1.8695,0.02895,0.02253,-0.0567
14.9,1.8733,0.02935,0.02296,-0.0561
15,1.8769,0.02977,0.02342,-0.0556
15.1,1.8803,0.0302,0.02389,-0.055
15.2,1.8836,0.03065,0.02437,-0.0545
15.3,1.8859,0.03119,0.02492,-0.054
15.4,1.8887,0.0317,0.02546,-0.0535
15.5,1.8911,0.03224,0.02603,-0.0531
15.6,1.8925,0.03289,0.0267,-0.0526
15.7,1.8956,0.03341,0.02726,-0.0523
15.8,1.8985,0.03395,0.02784,-0.052
15.9,1.9013,0.03451,0.02844,-0.0518
16,1.9039,0.0351,0.02908,-0.0516
16.1,1.9064,0.03572,0.02973,-0.0514
16.2,1.9087,0.03635,0.03041,-0.0513
16.3,1.9107,0.03703,0.03112,-0.0513
16.4,1.9126,0.03775,0.03187,-0.0513
16.5,1.9143,0.0385,0.03266,-0.0514
16.6,1.9158,0.0393,0.03349,-0.0516
16.7,1.9182,0.04002,0.03428,-0.0518
16.8,1.9199,0.04082,0.03511,-0.0521
16.9,1.9221,0.04161,0.03594,-0.0525
17,1.924,0.04244,0.03681,-0.053
17.1,1.9258,0.04332,0.03773,-0.0535
17.2,1.9273,0.04424,0.03869,-0.0542
17.3,1.9283,0.04524,0.03973,-0.055
17.4,1.9293,0.04628,0.04084,-0.0559
17.5,1.9311,0.04725,0.04185,-0.0568
17.6,1.9328,0.04826,0.0429,-0.0578
17.7,1.9343,0.04932,0.04401,-0.059
17.8,1.9357,0.05044,0.04518,-0.0602
17.9,1.9366,0.05165,0.04644,-0.0617
18,1.9373,0.05295,0.04779,-0.0633
18.1,1.9372,0.0544,0.04932,-0.0652
18.2,1.9379,0.0558,0.05077,-0.067
18.3,1.9384,0.05724,0.05227,-0.069
18.4,1.9386,0.0588,0.05388,-0.0711
18.5,1.9384,0.06046,0.0556,-0.0734
18.6,1.9374,0.06232,0.05752,-0.076
18.7,1.9356,0.0644,0.0597,-0.0789
18.8,1.9341,0.06647,0.06186,-0.0818
18.9,1.9324,0.06863,0.0641,-0.0848
19,1.9296,0.07107,0.06662,-0.0882
19.1,1.9266,0.07362,0.06926,-0.0916
19.2,1.9224,0.07652,0.07225,-0.0955
19.3,1.9176,0.07961,0.07544,-0.0995
19.4,1.9116,0.08311,0.07905,-0.1039
19.5,1.9048,0.08681,0.08286,-0.1085
19.6,1.8966,0.091,0.08719,-0.1135
19.7,1.8877,0.09538,0.09169,-0.1185
19.8,1.8781,0.09989,0.09634,-0.1237
19.9,1.8685,0.10431,0.10088,-0.1287
20.1,1.8498,0.11276,0.10954,-0.1385
20.2,1.8404,0.1169,0.11378,-0.1433
20.3,1.8319,0.1208,0.11779,-0.148
20.4,1.8246,0.12436,0.12143,-0.1523
20.5,1.8167,0.12816,0.12531,-0.1568
20.6,1.8095,0.13185,0.12909,-0.1613
20.7,1.804,0.13515,0.13245,-0.1652
20.8,1.7975,0.13887,0.13624,-0.1695
20.9,1.793,0.14208,0.13952,-0.1732
21,1.788,0.14558,0.14308,-0.1771
21.1,1.7832,0.14911,0.14669,-0.1809
21.2,1.7803,0.15205,0.14968,-0.1841
21.3,1.7758,0.15565,0.15334,-0.1878
21.4,1.7733,0.15863,0.15636,-0.191
21.5,1.7715,0.16138,0.15915,-0.1938
21.6,1.768,0.16486,0.16269,-0.1973
21.7,1.7658,0.16788,0.16575,-0.2003
21.8,1.7646,0.17054,0.16844,-0.203
21.9,1.7627,0.17357,0.17151,-0.206
22,1.76,0.177,0.17498,-0.2092
22.1,1.7589,0.17979,0.1778,-0.212
22.2,1.7579,0.18255,0.1806,-0.2147
22.3,1.7555,0.186,0.18409,-0.218
22.4,1.7537,0.18927,0.1874,-0.221
22.5,1.7534,0.1919,0.19007,-0.2236
22.6,1.7533,0.1944,0.1926,-0.226
22.7,1.7532,0.19701,0.19524,-0.2286
22.8,1.7518,0.20032,0.19859,-0.2316
22.9,1.7519,0.20285,0.20114,-0.234
23,1.7525,0.20521,0.20352,-0.2363
23.1,1.7532,0.20743,0.20577,-0.2385
23.2,1.7538,0.2098,0.20816,-0.2408
23.3,1.7542,0.21231,0.2107,-0.2432
23.4,1.754,0.21521,0.21363,-0.2459
23.5,1.7547,0.21759,0.21604,-0.2482
23.6,1.7557,0.21976,0.21823,-0.2504
23.7,1.7569,0.22189,0.22038,-0.2525
23.8,1.7581,0.22397,0.22247,-0.2546
23.9,1.7593,0.2261,0.22461,-0.2567
24,1.7605,0.22819,0.22672,-0.2588
24.1,1.7611,0.23078,0.22933,-0.2612
24.2,1.7622,0.23309,0.23166,-0.2635
24.3,1.7636,0.23508,0.23365,-0.2655
24.4,1.7653,0.23695,0.23553,-0.2675
24.5,1.7671,0.23871,0.2373,-0.2694
24.6,1.769,0.24037,0.23896,-0.2712
24.7,1.771,0.2419,0.24049,-0.2729
24.8,1.7732,0.24326,0.24185,-0.2746
24.9,1.7754,0.24464,0.24322,-0.2762
25,1.7772,0.24642,0.24503,-0.2781
25.1,1.779,0.24817,0.2468,-0.2799
25.3,1.7816,0.25273,0.25142,-0.2843
25.4,1.7831,0.25483,0.25354,-0.2865
25.5,1.7847,0.2568,0.25553,-0.2885
25.6,1.7865,0.25863,0.25738,-0.2904
25.7,1.7883,0.26041,0.25918,-0.2923
25.8,1.7902,0.26216,0.26094,-0.2942
25.9,1.7921,0.26387,0.26266,-0.2961
26,1.794,0.26558,0.26439,-0.298
26.1,1.7959,0.26726,0.26609,-0.2998
26.2,1.7978,0.26896,0.2678,-0.3017
26.3,1.7997,0.27068,0.26953,-0.3036
26.4,1.8016,0.27236,0.27122,-0.3055
26.5,1.8035,0.27407,0.27294,-0.3074
26.6,1.8054,0.27575,0.27464,-0.3093
26.7,1.8073,0.27747,0.27637,-0.3112
26.8,1.8092,0.27914,0.27805,-0.3131
26.9,1.811,0.28082,0.27975,-0.315
27,1.8128,0.28266,0.2816,-0.317
27.1,1.8147,0.2844,0.28336,-0.319
27.2,1.8165,0.2861,0.28507,-0.3209
27.3,1.8184,0.2877,0.28667,-0.3228
27.4,1.8203,0.28926,0.28824,-0.3246
27.5,1.8224,0.29065,0.28964,-0.3264
27.6,1.8243,0.29208,0.29108,-0.3282
27.7,1.8264,0.29332,0.29231,-0.3298
27.8,1.8285,0.29455,0.29355,-0.3315
27.9,1.8306,0.29566,0.29466,-0.3331
28,1.8326,0.29674,0.29574,-0.3347
28.1,1.8348,0.29771,0.29672,-0.3363
28.2,1.8371,0.29822,0.29722,-0.3375
28.3,1.8393,0.29905,0.29806,-0.339
28.4,1.8416,0.29943,0.29843,-0.3402
28.5,1.8426,0.30242,0.30143,-0.3431
28.7,1.8439,0.31064,0.30976,-0.35

