airfoilName st13.dat
Re 	310000
M 	5.000000e-02
N 	4.500000e+00
VACC 	0 VACCflag 1
XTR 	1.00 	1.00 XTRflag 0
alpha,cl,cd,cdp,cm
-7.5,-0.3502,0.02486,0.02045,-0.0942
-7.4,-0.336,0.02359,0.01901,-0.0957
-7.3,-0.3218,0.0226,0.01787,-0.0969
-7.2,-0.3105,0.0218,0.01694,-0.0973
-7.1,-0.2986,0.02106,0.01607,-0.0979
-7,-0.286,0.02034,0.01522,-0.0985
-6.9,-0.2735,0.01968,0.01444,-0.0991
-6.8,-0.2609,0.01906,0.01368,-0.0997
-6.7,-0.2477,0.01845,0.01294,-0.1003
-6.6,-0.2348,0.0179,0.01226,-0.1008
-6.5,-0.2212,0.01736,0.0116,-0.1014
-6.4,-0.2103,0.01694,0.01104,-0.1015
-6.3,-0.1985,0.01656,0.01055,-0.1017
-6.2,-0.1864,0.01617,0.0101,-0.1019
-6.1,-0.1742,0.01581,0.00971,-0.1022
-6,-0.1615,0.01552,0.00938,-0.1026
-5.9,-0.1489,0.01527,0.0091,-0.1029
-5.8,-0.1362,0.01504,0.00884,-0.1033
-5.7,-0.1253,0.01483,0.00859,-0.1032
-5.6,-0.1136,0.01462,0.00834,-0.1033
-5.5,-0.1017,0.01439,0.00807,-0.1034
-5.4,-0.0894,0.01416,0.00779,-0.1036
-5.3,-0.0771,0.01394,0.00751,-0.1038
-5.2,-0.0647,0.01371,0.00721,-0.104
-5.1,-0.0537,0.01351,0.00695,-0.1039
-5,-0.042,0.01333,0.00669,-0.104
-4.9,-0.0302,0.01311,0.00646,-0.1041
-4.8,-0.0185,0.01312,0.00653,-0.1042
-4.7,-0.0065,0.01296,0.00634,-0.1043
-4.6,0.005,0.0128,0.00615,-0.1043
-4.5,0.0165,0.01264,0.00596,-0.1043
-4.4,0.028,0.01249,0.00575,-0.1042
-4.3,0.0398,0.01234,0.00555,-0.1043
-4.2,0.0516,0.0122,0.00537,-0.1043
-4.1,0.0632,0.01202,0.00518,-0.1044
-4,0.0744,0.01189,0.00505,-0.1043
-3.9,0.086,0.01178,0.00492,-0.1043
-3.8,0.0975,0.01176,0.0049,-0.1043
-3.7,0.1092,0.01164,0.00473,-0.1043
-3.6,0.1205,0.01153,0.00458,-0.1042
-3.5,0.132,0.01139,0.00444,-0.1042
-3.4,0.1436,0.01127,0.00432,-0.1042
-3.3,0.1551,0.01117,0.00421,-0.1042
-3.2,0.1667,0.01109,0.00411,-0.1042
-3.1,0.178,0.011,0.004,-0.1041
-3,0.1894,0.01097,0.00393,-0.104
-2.9,0.201,0.01086,0.00381,-0.104
-2.8,0.2124,0.01077,0.00372,-0.104
-2.7,0.2239,0.01069,0.00364,-0.104
-2.6,0.2353,0.01062,0.00355,-0.1039
-2.5,0.2464,0.01057,0.00345,-0.1037
-2.4,0.2574,0.01052,0.00335,-0.1035
-2.3,0.2687,0.01046,0.00331,-0.1035
-2.2,0.2802,0.0104,0.00325,-0.1035
-2.1,0.2915,0.01035,0.00317,-0.1034
-2,0.3024,0.01032,0.00308,-0.1032
-1.9,0.3139,0.01028,0.00301,-0.1031
-1.8,0.3253,0.01022,0.00296,-0.1031
-1.7,0.3368,0.01018,0.00291,-0.1031
-1.6,0.3478,0.01017,0.00287,-0.1029
-1.5,0.3591,0.01015,0.00282,-0.1028
-1.4,0.3705,0.01011,0.00278,-0.1028
-1.3,0.3819,0.01008,0.00274,-0.1027
-1.2,0.3931,0.01007,0.0027,-0.1027
-1.1,0.4045,0.01006,0.00264,-0.1026
-1,0.4155,0.01005,0.00264,-0.1025
-0.9,0.4267,0.01005,0.00261,-0.1024
-0.8,0.4381,0.01005,0.00257,-0.1023
-0.7,0.4494,0.01003,0.00255,-0.1023
-0.6,0.4608,0.01002,0.00253,-0.1023
-0.5,0.4721,0.01003,0.00252,-0.1022
-0.4,0.4828,0.01007,0.0025,-0.102
-0.3,0.4939,0.01009,0.00249,-0.1019
-0.2,0.5051,0.0101,0.00247,-0.1018
-0.1,0.5164,0.01011,0.00246,-0.1018
0,0.5274,0.01014,0.00245,-0.1017
0.1,0.5385,0.01017,0.00245,-0.1016
0.2,0.5494,0.01021,0.00245,-0.1015
0.3,0.56,0.0103,0.00245,-0.1013
0.4,0.5711,0.01033,0.00245,-0.1012
0.5,0.5822,0.01036,0.00246,-0.1012
0.7,0.6043,0.01043,0.00249,-0.1011
0.8,0.6153,0.01048,0.00251,-0.101
0.9,0.6264,0.01052,0.00252,-0.101
1.1,0.6479,0.01066,0.00257,-0.1007
1.2,0.6589,0.01069,0.0026,-0.1007
1.3,0.6698,0.01074,0.00262,-0.1006
1.4,0.6808,0.01078,0.00265,-0.1006
1.5,0.6917,0.01081,0.00269,-0.1006
1.6,0.7025,0.01083,0.00273,-0.1005
1.8,0.7153,0.00937,0.00272,-0.0985
1.9,0.7254,0.00956,0.00278,-0.0983
2,0.7362,0.00968,0.00282,-0.0982
2.1,0.7468,0.00981,0.00288,-0.098
2.2,0.7574,0.00995,0.00293,-0.0979
2.3,0.7679,0.01009,0.00299,-0.0978
2.4,0.7784,0.01024,0.00306,-0.0977
2.5,0.7889,0.0104,0.00312,-0.0976
2.6,0.7992,0.01056,0.0032,-0.0974
2.8,0.8191,0.011,0.00339,-0.0971
2.9,0.8295,0.01117,0.00347,-0.097
3,0.8399,0.01134,0.00356,-0.0969
3.1,0.8504,0.01149,0.00363,-0.0968
3.2,0.861,0.01163,0.00372,-0.0967
3.3,0.8716,0.01177,0.0038,-0.0966
3.4,0.8823,0.0119,0.00389,-0.0965
3.5,0.893,0.01201,0.00397,-0.0964
3.6,0.9037,0.01214,0.00405,-0.0964
3.7,0.9141,0.01229,0.00417,-0.0963
3.8,0.9249,0.0124,0.00425,-0.0962
3.9,0.9355,0.01252,0.00434,-0.0961
4,0.9462,0.01265,0.00443,-0.096
4.1,0.957,0.01274,0.00451,-0.096
4.2,0.9678,0.01284,0.0046,-0.0959
4.3,0.9784,0.01296,0.00469,-0.0958
4.4,0.989,0.01309,0.00478,-0.0957
4.5,0.9997,0.01319,0.00488,-0.0957
4.6,1.0104,0.01329,0.00497,-0.0956
4.7,1.0209,0.01342,0.00506,-0.0955
4.8,1.0314,0.01354,0.00517,-0.0954
4.9,1.042,0.01366,0.00528,-0.0953
5,1.0527,0.01375,0.00537,-0.0952
5.1,1.0634,0.01385,0.00546,-0.0952
5.2,1.074,0.01396,0.00556,-0.0951
5.3,1.0845,0.01408,0.00566,-0.095
5.4,1.0948,0.01421,0.00577,-0.0949
5.5,1.1053,0.01433,0.00587,-0.0948
5.6,1.1159,0.01443,0.00598,-0.0947
5.7,1.1264,0.01454,0.00608,-0.0946
5.8,1.1368,0.01466,0.00621,-0.0945
5.9,1.1471,0.0148,0.00632,-0.0944
6,1.1573,0.01493,0.00645,-0.0942
6.1,1.1678,0.01503,0.00656,-0.0941
6.2,1.1783,0.01514,0.00667,-0.094
6.3,1.1887,0.01525,0.00678,-0.0939
6.4,1.1989,0.01538,0.0069,-0.0938
6.5,1.2091,0.01551,0.00703,-0.0936
6.6,1.219,0.01567,0.00715,-0.0935
6.7,1.2294,0.01577,0.00727,-0.0934
6.8,1.2397,0.01589,0.00741,-0.0933
6.9,1.2499,0.01601,0.00754,-0.0931
7,1.26,0.01614,0.00767,-0.093
7.1,1.27,0.01628,0.0078,-0.0928
7.2,1.2799,0.01643,0.00794,-0.0927
7.3,1.2898,0.01659,0.00809,-0.0925
7.4,1.3,0.0167,0.00823,-0.0923
7.5,1.3101,0.01682,0.00835,-0.0922
7.6,1.32,0.01696,0.00849,-0.092
7.7,1.3298,0.0171,0.00864,-0.0919
7.8,1.3396,0.01726,0.00879,-0.0917
7.9,1.3491,0.01743,0.00896,-0.0914
8,1.3589,0.01757,0.00912,-0.0913
8.1,1.3689,0.0177,0.00927,-0.0911
8.2,1.3786,0.01784,0.00943,-0.0909
8.3,1.3883,0.01798,0.00959,-0.0907
8.4,1.3979,0.01813,0.00975,-0.0905
8.5,1.4074,0.0183,0.00991,-0.0903
8.6,1.4168,0.01847,0.01008,-0.09
8.7,1.426,0.01865,0.01025,-0.0898
8.8,1.4356,0.01879,0.01042,-0.0896
8.9,1.4451,0.01894,0.01061,-0.0893
9,1.4544,0.0191,0.01078,-0.0891
9.1,1.4637,0.01926,0.01096,-0.0889
9.2,1.4728,0.01944,0.01115,-0.0886
9.3,1.4818,0.01962,0.01133,-0.0883
9.4,1.4906,0.01982,0.01153,-0.088
9.5,1.4993,0.02003,0.01174,-0.0877
9.6,1.5086,0.02018,0.01193,-0.0874
9.7,1.5178,0.02032,0.0121,-0.0872
9.8,1.5267,0.0205,0.0123,-0.0869
9.9,1.5354,0.02069,0.0125,-0.0865
10,1.544,0.02089,0.01271,-0.0862
10.1,1.5524,0.02109,0.01294,-0.0858
10.2,1.5605,0.02132,0.01316,-0.0854
10.3,1.5687,0.02154,0.0134,-0.085
10.4,1.5774,0.02171,0.01361,-0.0847
10.5,1.5859,0.02189,0.01383,-0.0843
10.6,1.5942,0.02209,0.01406,-0.084
10.7,1.6023,0.02229,0.01429,-0.0836
10.8,1.6102,0.0225,0.01452,-0.0831
10.9,1.6178,0.02273,0.01474,-0.0827
11,1.6251,0.02297,0.01499,-0.0822
11.1,1.6321,0.02323,0.01525,-0.0816
11.2,1.6396,0.02345,0.01551,-0.0811
11.3,1.6472,0.02365,0.01575,-0.0806
11.5,1.6617,0.02409,0.01629,-0.0796
11.6,1.6686,0.02432,0.01655,-0.079
11.7,1.6752,0.02456,0.01682,-0.0784
11.8,1.6815,0.02481,0.0171,-0.0777
11.9,1.687,0.02507,0.01738,-0.0769
12,1.692,0.02534,0.01767,-0.076
12.1,1.6967,0.02564,0.01798,-0.0751
12.2,1.701,0.02596,0.01832,-0.0742
12.3,1.707,0.02619,0.01859,-0.0735
12.4,1.7125,0.02646,0.0189,-0.0728
12.5,1.7177,0.02674,0.01923,-0.072
12.6,1.7228,0.02703,0.01956,-0.0712
12.7,1.7277,0.02734,0.01991,-0.0705
12.8,1.7324,0.02765,0.02026,-0.0697
12.9,1.737,0.02798,0.02062,-0.0689
13,1.7414,0.02833,0.021,-0.0682
13.1,1.7455,0.02869,0.02141,-0.0674
13.2,1.7481,0.02915,0.02183,-0.0665
13.3,1.7528,0.02948,0.02222,-0.0659
13.4,1.7576,0.02982,0.02261,-0.0652
13.5,1.762,0.03018,0.02303,-0.0645
13.6,1.7663,0.03055,0.02345,-0.0639
13.7,1.7703,0.03095,0.02389,-0.0632
13.8,1.7742,0.03135,0.02435,-0.0626
13.9,1.7779,0.03178,0.02482,-0.0619
14,1.7813,0.03222,0.0253,-0.0613
14.1,1.7846,0.03268,0.02581,-0.0607
14.2,1.7876,0.03317,0.02633,-0.0601
14.3,1.79,0.03369,0.02686,-0.0595
14.4,1.7919,0.03427,0.02744,-0.059
14.5,1.7956,0.03473,0.02796,-0.0585
14.6,1.799,0.03522,0.02851,-0.0581
14.7,1.8022,0.03573,0.02909,-0.0577
14.8,1.8052,0.03627,0.02967,-0.0573
14.9,1.808,0.03682,0.03029,-0.0569
15,1.8106,0.0374,0.03092,-0.0566
15.1,1.8131,0.038,0.03157,-0.0563
15.2,1.8154,0.03862,0.03226,-0.056
15.3,1.8176,0.03928,0.03296,-0.0558
15.4,1.8196,0.03995,0.03369,-0.0557
15.5,1.8214,0.04066,0.03444,-0.0556
15.7,1.8237,0.04227,0.03608,-0.0557
15.8,1.8275,0.04283,0.03672,-0.0558
15.9,1.8297,0.04357,0.03751,-0.0559
16,1.8318,0.04432,0.03833,-0.0561
16.1,1.8338,0.04511,0.03918,-0.0563
16.2,1.8356,0.04592,0.04005,-0.0566
16.3,1.8374,0.04677,0.04095,-0.057
16.4,1.839,0.04765,0.04189,-0.0575
16.5,1.8405,0.04858,0.04287,-0.0581
16.6,1.8418,0.04954,0.04389,-0.0588
16.7,1.8429,0.05055,0.04496,-0.0596
16.8,1.8439,0.05162,0.04608,-0.0606
16.9,1.8443,0.05279,0.04729,-0.0617
17,1.8464,0.05376,0.04833,-0.0626
17.1,1.8482,0.05479,0.04944,-0.0637
17.2,1.8497,0.05588,0.0506,-0.0648
17.3,1.8511,0.05701,0.05181,-0.0661
17.4,1.8524,0.05821,0.05307,-0.0675
17.5,1.8534,0.05946,0.0544,-0.069
17.6,1.8542,0.06078,0.05579,-0.0707
17.7,1.8549,0.06218,0.05726,-0.0725
17.8,1.8552,0.06369,0.05885,-0.0745
17.9,1.8553,0.06529,0.06052,-0.0767
18,1.855,0.06703,0.06234,-0.0791
18.1,1.8542,0.06893,0.06431,-0.0817
18.2,1.8529,0.07101,0.06648,-0.0847
18.3,1.8514,0.07318,0.06874,-0.0877
18.4,1.8511,0.07512,0.07077,-0.0903
18.5,1.8501,0.07724,0.07299,-0.0931
18.6,1.8485,0.07956,0.07541,-0.0962
18.7,1.8463,0.08211,0.07806,-0.0996
18.8,1.8433,0.08489,0.08095,-0.1032
18.9,1.8397,0.08791,0.08408,-0.1071
19,1.8352,0.09117,0.08745,-0.1112
19.1,1.83,0.0947,0.09108,-0.1155
19.2,1.8242,0.09839,0.09488,-0.1199
19.3,1.818,0.1022,0.09881,-0.1244
19.4,1.8114,0.10606,0.10277,-0.1289
19.5,1.8048,0.10984,0.10665,-0.1333
19.6,1.7983,0.11352,0.11042,-0.1376
19.7,1.7921,0.1171,0.11408,-0.1418
19.8,1.7856,0.12073,0.1178,-0.1461
19.9,1.7793,0.12429,0.12144,-0.1503
20,1.7738,0.12762,0.12483,-0.1543
20.1,1.7676,0.13121,0.1285,-0.1586
20.2,1.7623,0.13456,0.13192,-0.1626
20.3,1.7567,0.13808,0.13549,-0.1667
20.4,1.7521,0.14133,0.1388,-0.1705
20.5,1.7471,0.14484,0.14235,-0.1745
20.6,1.7441,0.14779,0.14537,-0.1778
20.7,1.7397,0.15138,0.14904,-0.1816
20.8,1.7365,0.15461,0.15233,-0.185
20.9,1.7321,0.1584,0.1562,-0.1888
21,1.7282,0.1621,0.15996,-0.1925
21.1,1.7242,0.16596,0.16388,-0.1963
21.2,1.7191,0.17045,0.16845,-0.2006
21.3,1.715,0.17467,0.17272,-0.2046
21.4,1.7094,0.17969,0.17778,-0.2091
21.5,1.7081,0.18286,0.18097,-0.2122
21.6,1.7075,0.18571,0.18383,-0.215
21.7,1.7087,0.18767,0.18579,-0.2171
21.8,1.704,0.19277,0.19095,-0.2215
21.9,1.6778,0.21203,0.21036,-0.2357
22,1.6802,0.21367,0.21201,-0.2375
22.1,1.6836,0.21445,0.2128,-0.2386
22.2,1.6872,0.21511,0.21345,-0.2397
22.3,1.6913,0.21543,0.21377,-0.2406
22.4,1.6955,0.21568,0.21402,-0.2414
22.5,1.6998,0.2158,0.21413,-0.2421
22.6,1.691,0.22619,0.22458,-0.2496
22.7,1.6917,0.22932,0.22772,-0.2523
22.8,1.6939,0.23118,0.22959,-0.2542
22.9,1.6965,0.23258,0.231,-0.2558
23,1.6995,0.23369,0.23212,-0.2572
23.1,1.7025,0.23467,0.23311,-0.2585
23.2,1.7056,0.23554,0.23398,-0.2597
23.5,1.7125,0.2408,0.23924,-0.2652
23.6,1.7118,0.24595,0.24442,-0.2691
23.7,1.7134,0.24853,0.24701,-0.2714
23.8,1.7156,0.25052,0.24901,-0.2734
23.9,1.7181,0.25207,0.25056,-0.275
24,1.7206,0.25353,0.25203,-0.2767
24.1,1.7232,0.25485,0.25336,-0.2782
24.2,1.7259,0.256,0.25451,-0.2797
24.3,1.7286,0.25715,0.25566,-0.2812
24.4,1.7315,0.25811,0.25662,-0.2825
24.5,1.7344,0.25889,0.25742,-0.2838
24.6,1.7372,0.25979,0.25832,-0.2851
24.7,1.7401,0.26055,0.25908,-0.2863
24.8,1.7429,0.26133,0.25986,-0.2876
24.9,1.7458,0.26207,0.2606,-0.2889
25.6,1.7478,0.28504,0.28362,-0.3071
25.7,1.7505,0.28634,0.28492,-0.3088
25.8,1.7533,0.2876,0.2862,-0.3105
25.9,1.7559,0.28884,0.28744,-0.3121
26,1.7586,0.29002,0.28862,-0.3137
26.1,1.7613,0.29122,0.28984,-0.3154
26.2,1.7639,0.29228,0.29091,-0.317
26.3,1.7665,0.29337,0.292,-0.3185
26.4,1.7691,0.29446,0.2931,-0.3201
26.5,1.7717,0.29544,0.29408,-0.3217
26.6,1.7743,0.29632,0.29497,-0.3232
26.7,1.7769,0.29725,0.29592,-0.3247
26.8,1.7794,0.29814,0.29682,-0.3262
26.9,1.7819,0.29896,0.29765,-0.3277
27,1.7845,0.29961,0.2983,-0.3291
27.1,1.787,0.30031,0.29901,-0.3305

