airfoilName st13.dat
Re 	990000
M 	5.000000e-02
N 	4.500000e+00
VACC 	0 VACCflag 1
XTR 	1.00 	1.00 XTRflag 0
alpha,cl,cd,cdp,cm
-9.2,-0.5231,0.01949,0.01603,-0.0985
-9.1,-0.512,0.01872,0.01514,-0.099
-9,-0.5008,0.01811,0.01444,-0.0993
-8.9,-0.4898,0.01762,0.01388,-0.0995
-8.8,-0.4793,0.01719,0.01337,-0.0996
-8.7,-0.4683,0.01681,0.01293,-0.0997
-8.6,-0.4572,0.01647,0.01253,-0.0998
-8.5,-0.4468,0.01613,0.01212,-0.0997
-8.4,-0.4357,0.01588,0.01183,-0.0998
-8.3,-0.4246,0.01562,0.01151,-0.0999
-8.1,-0.403,0.01434,0.01002,-0.1002
-8,-0.3923,0.01386,0.00944,-0.1003
-7.9,-0.3813,0.01344,0.00895,-0.1004
-7.8,-0.3699,0.01309,0.00854,-0.1005
-7.7,-0.3588,0.01282,0.00821,-0.1005
-7.6,-0.3476,0.01257,0.00792,-0.1005
-7.5,-0.3366,0.01235,0.00765,-0.1004
-7.4,-0.3254,0.01215,0.0074,-0.1004
-7.3,-0.3141,0.01197,0.00718,-0.1004
-7.2,-0.3027,0.01179,0.00697,-0.1005
-7.1,-0.2913,0.01161,0.00676,-0.1005
-7,-0.2799,0.01145,0.00656,-0.1005
-6.9,-0.2689,0.0113,0.00637,-0.1004
-6.8,-0.2573,0.01115,0.00618,-0.1004
-6.7,-0.2458,0.011,0.006,-0.1005
-6.6,-0.2345,0.01086,0.00582,-0.1004
-6.5,-0.2231,0.01072,0.00565,-0.1004
-6.4,-0.2116,0.0106,0.00547,-0.1004
-6.3,-0.2,0.01047,0.00531,-0.1005
-6.2,-0.1886,0.01035,0.00516,-0.1004
-6.1,-0.1771,0.01024,0.00501,-0.1004
-6,-0.1656,0.01013,0.00487,-0.1004
-5.9,-0.1542,0.01004,0.00474,-0.1004
-5.8,-0.1426,0.00995,0.00463,-0.1004
-5.7,-0.1309,0.0098,0.00445,-0.1005
-5.6,-0.1196,0.00968,0.00428,-0.1004
-5.5,-0.108,0.00957,0.00415,-0.1005
-5.4,-0.0963,0.00946,0.00403,-0.1005
-5.3,-0.0847,0.00937,0.00392,-0.1005
-5.2,-0.0733,0.0093,0.00381,-0.1005
-5.1,-0.0617,0.00922,0.00371,-0.1005
-5,-0.05,0.00914,0.00361,-0.1005
-4.9,-0.0383,0.00907,0.00352,-0.1006
-4.8,-0.0267,0.009,0.00342,-0.1006
-4.7,-0.0152,0.00895,0.00334,-0.1006
-4.6,-0.0035,0.00888,0.00325,-0.1006
-4.5,0.0082,0.00883,0.00318,-0.1006
-4.4,0.0198,0.00874,0.00307,-0.1007
-4.3,0.0314,0.00868,0.00299,-0.1007
-4.2,0.043,0.00862,0.00292,-0.1007
-4.1,0.0547,0.00857,0.00285,-0.1007
-4,0.0663,0.00852,0.00278,-0.1007
-3.9,0.078,0.00847,0.00271,-0.1008
-3.8,0.0897,0.00842,0.00265,-0.1008
-3.7,0.1009,0.00843,0.00259,-0.1007
-3.6,0.1123,0.00839,0.00252,-0.1007
-3.5,0.1238,0.00836,0.00246,-0.1007
-3.4,0.1355,0.00831,0.00241,-0.1007
-3.3,0.1469,0.0083,0.00235,-0.1007
-3.2,0.1583,0.00829,0.0023,-0.1007
-3.1,0.17,0.00826,0.00226,-0.1007
-3,0.1817,0.00824,0.00221,-0.1008
-2.9,0.1929,0.00825,0.00216,-0.1007
-2.8,0.2045,0.00822,0.00212,-0.1007
-2.7,0.2161,0.0082,0.0021,-0.1008
-2.6,0.2278,0.00818,0.00206,-0.1008
-2.5,0.2394,0.00816,0.00202,-0.1008
-2.4,0.251,0.00813,0.00198,-0.1009
-2.3,0.2621,0.00818,0.00195,-0.1008
-2.2,0.2736,0.00817,0.00192,-0.1008
-2.1,0.285,0.0082,0.0019,-0.1008
-2,0.2965,0.00821,0.00187,-0.1008
-1.9,0.308,0.0082,0.00184,-0.1008
-1.8,0.3196,0.0082,0.00182,-0.1009
-1.7,0.3307,0.00826,0.00181,-0.1008
-1.6,0.3423,0.00827,0.0018,-0.1009
-1.5,0.3536,0.00831,0.00179,-0.1009
-1.4,0.3652,0.00831,0.00177,-0.1009
-1.3,0.3767,0.00832,0.00176,-0.1009
-1.2,0.3883,0.00833,0.00175,-0.101
-1.1,0.3998,0.00834,0.00174,-0.101
-1,0.4109,0.00841,0.00174,-0.101
-0.9,0.4225,0.00842,0.00174,-0.101
-0.8,0.4338,0.00846,0.00174,-0.101
-0.7,0.4451,0.00852,0.00175,-0.101
-0.6,0.4566,0.00854,0.00174,-0.101
-0.5,0.4681,0.00855,0.00175,-0.1011
-0.4,0.4796,0.00857,0.00176,-0.1011
-0.3,0.491,0.00861,0.00176,-0.1011
-0.2,0.5019,0.00873,0.00178,-0.1011
-0.1,0.5133,0.00876,0.0018,-0.1011
0,0.5247,0.0088,0.00181,-0.1012
0.1,0.536,0.00884,0.00182,-0.1012
0.2,0.5474,0.00888,0.00184,-0.1012
0.3,0.5587,0.00892,0.00186,-0.1012
0.4,0.5701,0.00898,0.00188,-0.1012
0.5,0.5813,0.00904,0.00189,-0.1012
0.6,0.5921,0.00917,0.00195,-0.1012
0.7,0.6033,0.00925,0.00198,-0.1012
0.8,0.6144,0.00933,0.00201,-0.1012
0.9,0.6255,0.00941,0.00205,-0.1012
1,0.6365,0.00951,0.00209,-0.1012
1.1,0.6475,0.0096,0.00213,-0.1012
1.2,0.6585,0.00971,0.00218,-0.1012
1.3,0.6695,0.00981,0.00223,-0.1011
1.4,0.6802,0.00997,0.00229,-0.1011
1.5,0.6914,0.01004,0.00233,-0.1011
1.6,0.7027,0.01008,0.00237,-0.1011
1.7,0.714,0.01012,0.0024,-0.1011
1.8,0.7252,0.01018,0.00245,-0.1012
1.9,0.7366,0.01021,0.00248,-0.1012
2,0.7479,0.01025,0.00251,-0.1012
2.1,0.7591,0.0103,0.00255,-0.1012
2.2,0.7704,0.01033,0.0026,-0.1012
2.3,0.7816,0.01038,0.00263,-0.1013
2.4,0.7929,0.01042,0.00267,-0.1013
2.5,0.8041,0.01046,0.00272,-0.1013
2.6,0.8155,0.01048,0.00276,-0.1013
2.7,0.8268,0.01048,0.0028,-0.1014
2.8,0.8308,0.00898,0.0029,-0.1002
2.9,0.8421,0.00904,0.00294,-0.1002
3,0.8533,0.00911,0.00298,-0.1002
3.1,0.8645,0.00918,0.00303,-0.1002
3.2,0.8759,0.00924,0.00307,-0.1002
3.3,0.8871,0.0093,0.00311,-0.1002
3.4,0.8982,0.00939,0.00316,-0.1002
3.5,0.9094,0.00946,0.00321,-0.1002
3.6,0.9206,0.00953,0.00327,-0.1002
3.7,0.9319,0.00958,0.00331,-0.1002
3.8,0.9431,0.00964,0.00336,-0.1002
3.9,0.9543,0.00971,0.00341,-0.1002
4,0.9654,0.00978,0.00346,-0.1002
4.1,0.9765,0.00985,0.00351,-0.1002
4.2,0.9875,0.00994,0.00357,-0.1002
4.3,0.9987,0.01001,0.00362,-0.1002
4.4,1.0098,0.01007,0.00367,-0.1002
4.5,1.0209,0.01014,0.00373,-0.1002
4.6,1.032,0.01022,0.00378,-0.1001
4.7,1.043,0.0103,0.00385,-0.1001
4.8,1.054,0.01038,0.00392,-0.1001
4.9,1.0651,0.01044,0.00397,-0.1001
5,1.0762,0.01051,0.00403,-0.1001
5.1,1.0872,0.01058,0.00409,-0.1001
5.2,1.098,0.01068,0.00416,-0.1
5.3,1.1089,0.01077,0.00423,-0.1
5.4,1.1199,0.01085,0.0043,-0.1
5.5,1.1309,0.01092,0.00436,-0.0999
5.6,1.1419,0.01099,0.00443,-0.0999
5.7,1.1528,0.01106,0.0045,-0.0999
5.8,1.1637,0.01114,0.00457,-0.0999
5.9,1.1745,0.01123,0.00464,-0.0998
6,1.1853,0.01132,0.00472,-0.0998
6.1,1.1959,0.01143,0.00481,-0.0997
6.2,1.2068,0.0115,0.00488,-0.0997
6.3,1.2176,0.01158,0.00495,-0.0996
6.4,1.2284,0.01167,0.00503,-0.0996
6.5,1.2392,0.01175,0.00511,-0.0996
6.6,1.2499,0.01185,0.00519,-0.0995
6.7,1.2605,0.01195,0.00528,-0.0994
6.8,1.2711,0.01205,0.00537,-0.0994
6.9,1.2818,0.01213,0.00546,-0.0993
7,1.2925,0.01221,0.00554,-0.0993
7.1,1.3032,0.0123,0.00563,-0.0992
7.2,1.3138,0.01239,0.00571,-0.0991
7.3,1.3242,0.01251,0.00581,-0.099
7.4,1.3347,0.01262,0.0059,-0.099
7.5,1.3451,0.01273,0.006,-0.0989
7.6,1.3556,0.01283,0.00611,-0.0988
7.7,1.3661,0.01292,0.00621,-0.0987
7.8,1.3766,0.01301,0.0063,-0.0986
7.9,1.3871,0.01311,0.0064,-0.0986
8,1.3975,0.01321,0.00649,-0.0985
8.2,1.4178,0.01347,0.00672,-0.0982
8.3,1.4279,0.01359,0.00683,-0.0981
8.4,1.4383,0.01369,0.00694,-0.098
8.5,1.4486,0.01379,0.00704,-0.0979
8.6,1.4589,0.01389,0.00715,-0.0978
8.7,1.4691,0.014,0.00727,-0.0977
8.8,1.4793,0.01412,0.00738,-0.0975
8.9,1.4893,0.01424,0.0075,-0.0974
9,1.4993,0.01436,0.00762,-0.0973
9.1,1.5092,0.0145,0.00775,-0.0971
9.2,1.5191,0.01464,0.00788,-0.0969
9.3,1.529,0.01476,0.00801,-0.0968
9.4,1.539,0.01487,0.00813,-0.0967
9.5,1.5489,0.01499,0.00825,-0.0965
9.6,1.5588,0.01512,0.00838,-0.0963
9.7,1.5685,0.01525,0.00851,-0.0962
9.8,1.5782,0.01539,0.00866,-0.096
9.9,1.5878,0.01554,0.0088,-0.0958
10,1.5971,0.01572,0.00897,-0.0955
10.1,1.6068,0.01584,0.0091,-0.0954
10.2,1.6164,0.01597,0.00924,-0.0952
10.3,1.626,0.0161,0.00938,-0.095
10.4,1.6352,0.01628,0.00953,-0.0947
10.5,1.6445,0.01643,0.00969,-0.0945
10.6,1.6537,0.0166,0.00985,-0.0942
10.7,1.6628,0.01676,0.01002,-0.094
10.8,1.672,0.01692,0.01019,-0.0937
10.9,1.6813,0.01706,0.01033,-0.0935
11,1.6905,0.0172,0.01049,-0.0932
11.1,1.6997,0.01734,0.01065,-0.093
11.2,1.7087,0.0175,0.01082,-0.0927
11.3,1.7176,0.01766,0.01098,-0.0924
11.4,1.7264,0.01782,0.01116,-0.0921
11.5,1.7344,0.01807,0.01137,-0.0917
11.6,1.7429,0.01826,0.01156,-0.0914
11.7,1.7515,0.01843,0.01175,-0.091
11.8,1.7602,0.01859,0.01192,-0.0907
11.9,1.7688,0.01875,0.0121,-0.0904
12,1.7772,0.01892,0.01228,-0.09
12.1,1.785,0.01913,0.01249,-0.0896
12.2,1.7925,0.01938,0.01272,-0.0891
12.3,1.8002,0.01959,0.01293,-0.0886
12.4,1.8077,0.0198,0.01315,-0.0881
12.5,1.8154,0.01999,0.01338,-0.0876
12.6,1.8231,0.02017,0.01358,-0.0872
12.7,1.8306,0.02036,0.01378,-0.0867
12.8,1.8379,0.02056,0.01399,-0.0861
12.9,1.845,0.02076,0.0142,-0.0856
13,1.8519,0.02097,0.01443,-0.085
13.1,1.8585,0.02119,0.01466,-0.0844
13.2,1.8648,0.02143,0.0149,-0.0837
13.3,1.8709,0.02167,0.01516,-0.083
13.4,1.8763,0.02192,0.01541,-0.0822
13.5,1.8806,0.02219,0.01571,-0.0811
13.6,1.8854,0.02242,0.01596,-0.0802
13.7,1.8901,0.02267,0.01622,-0.0792
13.8,1.8947,0.02292,0.01649,-0.0783
13.9,1.8993,0.02319,0.01678,-0.0774
14,1.9037,0.02347,0.01707,-0.0765
14.1,1.9079,0.02376,0.01739,-0.0755
14.2,1.9119,0.02407,0.01772,-0.0746
14.3,1.9158,0.0244,0.01807,-0.0737
14.4,1.9183,0.02483,0.0185,-0.0726
14.5,1.9224,0.02514,0.01884,-0.0718
14.6,1.9265,0.02547,0.01919,-0.071
14.7,1.9304,0.02581,0.01955,-0.0702
14.8,1.9339,0.02617,0.01994,-0.0693
14.9,1.9373,0.02655,0.02034,-0.0685
15,1.9402,0.02696,0.02077,-0.0676
15.1,1.943,0.0274,0.02122,-0.0668
15.2,1.9456,0.02785,0.02169,-0.066
15.3,1.9485,0.02829,0.02217,-0.0652
15.4,1.9502,0.02881,0.02271,-0.0644
15.5,1.9526,0.02929,0.02321,-0.0637
15.6,1.9546,0.0298,0.02374,-0.063
15.7,1.9561,0.03036,0.02432,-0.0622
15.8,1.9572,0.03097,0.02495,-0.0615
15.9,1.959,0.03153,0.02556,-0.0609
16,1.9607,0.03212,0.02617,-0.0604
16.1,1.9622,0.03273,0.02681,-0.0598
16.2,1.9631,0.03341,0.02751,-0.0593
16.3,1.963,0.03417,0.02829,-0.0588
16.4,1.9632,0.03492,0.02909,-0.0584
16.5,1.9639,0.03566,0.02985,-0.0581
16.6,1.9645,0.03641,0.03065,-0.0579
16.7,1.9643,0.03727,0.03154,-0.0577
16.8,1.9635,0.03822,0.03254,-0.0576
16.9,1.9637,0.03908,0.03344,-0.0576
17,1.9638,0.03999,0.03438,-0.0577
17.1,1.9637,0.04093,0.03536,-0.0579
17.2,1.9633,0.04195,0.03641,-0.0582
17.3,1.9632,0.04294,0.03747,-0.0586
17.4,1.9637,0.0439,0.03847,-0.059
17.5,1.9642,0.04488,0.03951,-0.0595
17.6,1.9648,0.04587,0.04055,-0.0602
17.7,1.9653,0.04691,0.04163,-0.0609
17.8,1.9657,0.048,0.04277,-0.0618
17.9,1.9662,0.0491,0.04393,-0.0627
18,1.9666,0.05025,0.04514,-0.0638
18.1,1.9669,0.05146,0.0464,-0.065
18.2,1.9671,0.05272,0.04772,-0.0663
18.3,1.9673,0.05402,0.04907,-0.0678
18.4,1.9671,0.05544,0.05056,-0.0695
18.5,1.967,0.05688,0.05206,-0.0712
18.6,1.9665,0.05845,0.0537,-0.0732
18.7,1.966,0.06005,0.05537,-0.0752
18.8,1.9651,0.06179,0.05718,-0.0775
18.9,1.9638,0.06366,0.05912,-0.0799
19,1.9622,0.06567,0.06121,-0.0826
19.1,1.9602,0.06782,0.06343,-0.0854
19.2,1.9575,0.07019,0.06589,-0.0885
19.3,1.9546,0.0727,0.06849,-0.0918
19.4,1.9502,0.07563,0.07152,-0.0956
19.5,1.9452,0.07881,0.0748,-0.0996
19.6,1.9385,0.08249,0.07859,-0.1041
19.7,1.9298,0.08686,0.08309,-0.1093
19.8,1.9185,0.09206,0.08844,-0.1153
19.9,1.904,0.09836,0.09491,-0.1221
20,1.8866,0.10537,0.1021,-0.1295
20.1,1.8682,0.11237,0.10927,-0.1369
20.2,1.8513,0.1187,0.11575,-0.1438
20.3,1.8364,0.12441,0.12159,-0.1502
20.4,1.8227,0.12979,0.12708,-0.1564
20.5,1.8097,0.13501,0.13242,-0.1625
20.6,1.7985,0.13984,0.13735,-0.1682
20.7,1.7917,0.14355,0.14114,-0.1725
20.8,1.7825,0.14825,0.14593,-0.1777
20.9,1.7779,0.15156,0.1493,-0.1815
21,1.771,0.15591,0.15372,-0.186
21.1,1.7675,0.15912,0.15698,-0.1894
21.2,1.7649,0.16208,0.15999,-0.1924
21.3,1.7588,0.16655,0.16453,-0.1968
21.4,1.7571,0.16935,0.16737,-0.1996
21.5,1.7555,0.17217,0.17024,-0.2024
21.6,1.7505,0.1765,0.17463,-0.2064
21.7,1.7494,0.17926,0.17742,-0.2091
21.8,1.7485,0.18197,0.18017,-0.2118
21.9,1.7466,0.18515,0.18339,-0.2148
22,1.7434,0.18904,0.18733,-0.2183
22.1,1.743,0.19167,0.18999,-0.2209
22.2,1.7429,0.19418,0.19253,-0.2233
22.3,1.7423,0.19699,0.19537,-0.2259
22.4,1.7393,0.2011,0.19954,-0.2295
22.5,1.7393,0.20373,0.20219,-0.232
22.6,1.7397,0.20615,0.20463,-0.2344
22.7,1.74,0.20862,0.20712,-0.2367
22.8,1.7403,0.21116,0.20969,-0.2391
22.9,1.7383,0.2151,0.21368,-0.2426
23,1.7393,0.21731,0.21591,-0.2447
23.1,1.7407,0.21928,0.2179,-0.2466
23.2,1.7422,0.22119,0.21983,-0.2485
23.3,1.7436,0.22312,0.22178,-0.2504
23.4,1.745,0.2251,0.22377,-0.2524
23.5,1.7463,0.22714,0.22583,-0.2544
23.6,1.7475,0.22935,0.22806,-0.2565
23.7,1.747,0.2327,0.23145,-0.2594
23.8,1.7483,0.23482,0.23359,-0.2614
23.9,1.75,0.23675,0.23554,-0.2634
24,1.7517,0.23857,0.23738,-0.2652
24.1,1.7535,0.24035,0.23917,-0.2671
24.2,1.7553,0.24215,0.24098,-0.2689
24.3,1.7572,0.24391,0.24276,-0.2707
24.4,1.759,0.24572,0.24458,-0.2726
24.5,1.7607,0.24759,0.24647,-0.2745
24.6,1.7624,0.24946,0.24835,-0.2764
24.7,1.764,0.25144,0.25035,-0.2784
24.8,1.7646,0.25434,0.25327,-0.281
24.9,1.7662,0.25636,0.25532,-0.283
25,1.768,0.25826,0.25722,-0.285
25.1,1.7699,0.26001,0.25898,-0.2868
25.2,1.7718,0.26176,0.26075,-0.2887
25.3,1.7738,0.26346,0.26245,-0.2905
25.4,1.7758,0.26513,0.26415,-0.2923
25.5,1.7777,0.26681,0.26583,-0.2942
25.6,1.7797,0.26848,0.26752,-0.296
25.7,1.7813,0.27056,0.26959,-0.2981
25.8,1.7832,0.27222,0.27126,-0.2999
25.9,1.7852,0.27384,0.27289,-0.3017
26,1.7872,0.27548,0.27453,-0.3036
26.1,1.7892,0.27707,0.27614,-0.3054
26.2,1.7912,0.27858,0.27765,-0.3072
26.3,1.7933,0.28006,0.27914,-0.3089
26.4,1.7954,0.28152,0.2806,-0.3107
26.5,1.7975,0.28281,0.2819,-0.3123
26.6,1.7997,0.28399,0.28307,-0.3139
26.7,1.802,0.28514,0.28422,-0.3155
26.8,1.8042,0.28622,0.28531,-0.3171
26.9,1.8065,0.28726,0.28636,-0.3186
27,1.8087,0.28828,0.28737,-0.3202
27.1,1.8101,0.2906,0.28971,-0.3224
27.2,1.8111,0.29373,0.29287,-0.3252
27.3,1.8126,0.29593,0.2951,-0.3274
27.4,1.8143,0.29798,0.29717,-0.3295
27.5,1.816,0.29998,0.29918,-0.3316
27.6,1.8177,0.30205,0.30128,-0.3337
27.7,1.8195,0.30402,0.30326,-0.3357
27.8,1.8211,0.30618,0.30544,-0.3379
27.9,1.8227,0.30843,0.30771,-0.3402
28,1.8242,0.31086,0.31017,-0.3426
28.1,1.8252,0.31453,0.31387,-0.3457
28.2,1.8267,0.31715,0.31652,-0.3482
28.3,1.8284,0.31953,0.31892,-0.3506
28.4,1.83,0.32192,0.32133,-0.3529
28.5,1.8317,0.32441,0.32383,-0.3553
28.6,1.8333,0.32709,0.32653,-0.3579
28.7,1.8345,0.33251,0.33199,-0.362
28.8,1.8362,0.33584,0.33534,-0.3649
28.9,1.8381,0.3387,0.33821,-0.3676
29,1.84,0.34183,0.34135,-0.3703
29.1,1.842,0.34503,0.34457,-0.3731
29.2,1.844,0.34756,0.3471,-0.3756
29.3,1.8459,0.34968,0.34923,-0.3778
29.4,1.8479,0.35157,0.35112,-0.3798
29.5,1.8499,0.35339,0.35295,-0.3819
29.6,1.8518,0.35495,0.35452,-0.3838
29.7,1.8537,0.35665,0.35622,-0.3858
29.8,1.8555,0.35823,0.3578,-0.3878
29.9,1.8574,0.35978,0.35936,-0.3897
30,1.8592,0.36128,0.36086,-0.3916

