airfoilName st13.dat
Re 	750000
M 	5.000000e-02
N 	4.500000e+00
VACC 	0 VACCflag 1
XTR 	1.00 	1.00 XTRflag 0
alpha,cl,cd,cdp,cm
-9,-0.5009,0.0207,0.01704,-0.0981
-8.9,-0.4897,0.01964,0.01586,-0.0988
-8.8,-0.4786,0.01882,0.01492,-0.0993
-8.7,-0.4672,0.01816,0.01417,-0.0997
-8.6,-0.4557,0.01759,0.01352,-0.1001
-8.5,-0.4442,0.01709,0.01294,-0.1004
-8.4,-0.4324,0.01664,0.01242,-0.1007
-8.3,-0.4211,0.01624,0.01195,-0.1009
-8.2,-0.4103,0.01587,0.01152,-0.1009
-8.1,-0.3992,0.01553,0.01112,-0.101
-8,-0.3879,0.0152,0.01073,-0.1012
-7.9,-0.3767,0.01491,0.01038,-0.1012
-7.8,-0.3654,0.01462,0.01004,-0.1013
-7.7,-0.3544,0.01434,0.0097,-0.1013
-7.6,-0.3431,0.01408,0.00939,-0.1014
-7.5,-0.3318,0.01383,0.00909,-0.1014
-7.4,-0.3208,0.01358,0.00879,-0.1014
-7.3,-0.3095,0.01335,0.0085,-0.1014
-7.2,-0.2984,0.01313,0.00823,-0.1014
-7.1,-0.287,0.01291,0.00796,-0.1014
-7,-0.2757,0.01269,0.0077,-0.1015
-6.9,-0.2646,0.0125,0.00745,-0.1014
-6.8,-0.2533,0.01231,0.00721,-0.1014
-6.7,-0.242,0.01213,0.00699,-0.1014
-6.6,-0.2307,0.01196,0.00678,-0.1013
-6.5,-0.2192,0.0118,0.00657,-0.1014
-6.4,-0.2078,0.01167,0.00639,-0.1014
-6.3,-0.1965,0.01156,0.00626,-0.1013
-6.2,-0.1853,0.01129,0.00593,-0.1013
-6.1,-0.1737,0.01108,0.00569,-0.1013
-6,-0.1622,0.01092,0.0055,-0.1014
-5.9,-0.151,0.01078,0.00532,-0.1013
-5.8,-0.1396,0.01066,0.00517,-0.1013
-5.7,-0.1281,0.01054,0.00503,-0.1013
-5.6,-0.1167,0.01042,0.00489,-0.1013
-5.5,-0.1051,0.01031,0.00475,-0.1013
-5.4,-0.0936,0.01021,0.00461,-0.1013
-5.3,-0.0822,0.01011,0.00448,-0.1013
-5.2,-0.0707,0.01001,0.00435,-0.1012
-5.1,-0.0591,0.00992,0.00422,-0.1013
-5,-0.0476,0.00983,0.0041,-0.1013
-4.9,-0.0361,0.00975,0.00399,-0.1012
-4.8,-0.0246,0.00966,0.00388,-0.1012
-4.7,-0.013,0.00955,0.00375,-0.1012
-4.6,-0.0014,0.00946,0.00365,-0.1013
-4.5,0.0101,0.00939,0.00355,-0.1013
-4.4,0.0217,0.00932,0.00347,-0.1013
-4.3,0.0332,0.00925,0.00338,-0.1012
-4.2,0.0448,0.00919,0.00329,-0.1013
-4.1,0.0564,0.00913,0.0032,-0.1013
-4,0.068,0.00907,0.00312,-0.1013
-3.9,0.0797,0.00901,0.00304,-0.1013
-3.8,0.0911,0.00894,0.00295,-0.1013
-3.7,0.1027,0.00889,0.00288,-0.1013
-3.6,0.1143,0.00883,0.00282,-0.1013
-3.5,0.1257,0.00879,0.00275,-0.1013
-3.4,0.1371,0.00877,0.00268,-0.1012
-3.3,0.1485,0.00874,0.00262,-0.1012
-3.2,0.1599,0.00871,0.00258,-0.1012
-3.1,0.1715,0.00866,0.00252,-0.1012
-3,0.1828,0.00865,0.00248,-0.1011
-2.9,0.1942,0.00864,0.00242,-0.1011
-2.8,0.2058,0.00862,0.00237,-0.1011
-2.7,0.2175,0.00857,0.00231,-0.1011
-2.6,0.2286,0.00857,0.00226,-0.1011
-2.5,0.2402,0.00854,0.00221,-0.1011
-2.4,0.2518,0.00852,0.00217,-0.1011
-2.3,0.2634,0.0085,0.00213,-0.1011
-2.2,0.275,0.00848,0.0021,-0.1011
-2.1,0.2865,0.00846,0.00206,-0.1011
-2,0.2976,0.00849,0.00203,-0.1011
-1.9,0.3089,0.00851,0.002,-0.101
-1.8,0.3205,0.0085,0.00197,-0.101
-1.7,0.332,0.00851,0.00194,-0.101
-1.6,0.3435,0.0085,0.00191,-0.1011
-1.5,0.355,0.0085,0.00189,-0.1011
-1.4,0.366,0.00855,0.00189,-0.101
-1.3,0.3775,0.00857,0.00187,-0.101
-1.2,0.3887,0.00861,0.00185,-0.101
-1.1,0.4001,0.00862,0.00184,-0.101
-1,0.4116,0.00863,0.00183,-0.101
-0.9,0.423,0.00865,0.00183,-0.101
-0.8,0.4345,0.00866,0.00182,-0.1011
-0.7,0.4456,0.00873,0.00183,-0.101
-0.6,0.4568,0.00878,0.00184,-0.101
-0.5,0.468,0.00884,0.00185,-0.101
-0.4,0.4794,0.00886,0.00184,-0.101
-0.3,0.4908,0.00888,0.00185,-0.101
-0.2,0.5023,0.00891,0.00186,-0.101
-0.1,0.5134,0.00897,0.00187,-0.101
0,0.5244,0.00906,0.00189,-0.101
0.1,0.5357,0.0091,0.00191,-0.101
0.2,0.5471,0.00915,0.00192,-0.101
0.3,0.5584,0.00918,0.00193,-0.101
0.4,0.5697,0.00922,0.00196,-0.101
0.5,0.581,0.00927,0.00197,-0.101
0.6,0.5922,0.00932,0.00199,-0.101
0.7,0.6034,0.00938,0.00202,-0.101
0.8,0.6142,0.00952,0.00206,-0.101
0.9,0.6253,0.00958,0.0021,-0.101
1,0.6364,0.00965,0.00213,-0.101
1.1,0.6474,0.00974,0.00217,-0.1009
1.2,0.6585,0.00982,0.0022,-0.1009
1.3,0.6695,0.00992,0.00225,-0.1009
1.4,0.6804,0.01003,0.00229,-0.1009
1.5,0.6912,0.01013,0.00235,-0.1009
1.6,0.7021,0.01025,0.00241,-0.1008
1.7,0.7123,0.01046,0.00249,-0.1007
1.8,0.7234,0.01053,0.00254,-0.1007
1.9,0.7345,0.01061,0.00258,-0.1007
2,0.7457,0.01064,0.00263,-0.1007
2.1,0.7569,0.01069,0.00267,-0.1008
2.2,0.768,0.01075,0.00272,-0.1008
2.3,0.7792,0.01078,0.00276,-0.1008
2.4,0.7905,0.01079,0.00281,-0.1008
2.6,0.8048,0.00936,0.00296,-0.0994
2.7,0.8161,0.00942,0.003,-0.0994
2.8,0.8273,0.00949,0.00304,-0.0994
2.9,0.8385,0.00957,0.00309,-0.0994
3,0.8496,0.00965,0.00314,-0.0994
3.1,0.8609,0.00971,0.00319,-0.0994
3.2,0.8721,0.00978,0.00323,-0.0994
3.3,0.8833,0.00985,0.00328,-0.0994
3.4,0.8944,0.00992,0.00333,-0.0994
3.5,0.9055,0.01001,0.00338,-0.0994
3.6,0.9166,0.01009,0.00345,-0.0994
3.7,0.9278,0.01015,0.0035,-0.0993
3.8,0.9389,0.01023,0.00355,-0.0993
3.9,0.9499,0.01031,0.0036,-0.0993
4,0.9609,0.01039,0.00367,-0.0993
4.1,0.9721,0.01046,0.00372,-0.0993
4.2,0.9832,0.01052,0.00378,-0.0993
4.3,0.9943,0.01059,0.00383,-0.0993
4.4,1.0051,0.0107,0.0039,-0.0992
4.5,1.0161,0.01079,0.00396,-0.0992
4.6,1.0271,0.01086,0.00403,-0.0992
4.7,1.0382,0.01093,0.0041,-0.0991
4.8,1.0492,0.011,0.00416,-0.0991
4.9,1.0602,0.01107,0.00422,-0.0991
5,1.0711,0.01116,0.00429,-0.0991
5.1,1.082,0.01125,0.00436,-0.099
5.2,1.0928,0.01134,0.00444,-0.099
5.3,1.1038,0.01141,0.0045,-0.0989
5.4,1.1147,0.01149,0.00457,-0.0989
5.5,1.1255,0.01158,0.00464,-0.0989
5.6,1.1363,0.01167,0.00472,-0.0988
5.7,1.1471,0.01176,0.00481,-0.0988
5.8,1.1578,0.01187,0.00489,-0.0987
5.9,1.1686,0.01194,0.00497,-0.0987
6,1.1795,0.01202,0.00505,-0.0986
6.1,1.1903,0.0121,0.00512,-0.0986
6.2,1.201,0.01219,0.0052,-0.0985
6.3,1.2117,0.01228,0.00529,-0.0985
6.4,1.222,0.01242,0.00538,-0.0984
6.5,1.2327,0.01251,0.00548,-0.0983
6.6,1.2434,0.0126,0.00556,-0.0982
6.7,1.2541,0.01268,0.00566,-0.0982
6.8,1.2647,0.01278,0.00574,-0.0981
6.9,1.2753,0.01287,0.00584,-0.098
7,1.2858,0.01297,0.00593,-0.098
7.1,1.2962,0.01308,0.00603,-0.0979
7.2,1.3066,0.0132,0.00613,-0.0978
7.3,1.3171,0.0133,0.00624,-0.0977
7.4,1.3276,0.01339,0.00633,-0.0976
7.5,1.3381,0.01349,0.00643,-0.0975
7.6,1.3483,0.01361,0.00653,-0.0974
7.7,1.3587,0.01372,0.00665,-0.0973
7.8,1.3689,0.01384,0.00676,-0.0972
7.9,1.3791,0.01396,0.00687,-0.0971
8,1.3893,0.01409,0.007,-0.0969
8.1,1.3996,0.01418,0.0071,-0.0968
8.2,1.4099,0.01429,0.00721,-0.0967
8.3,1.4201,0.01439,0.00732,-0.0966
8.4,1.4301,0.01453,0.00744,-0.0965
8.5,1.4402,0.01465,0.00756,-0.0963
8.6,1.4501,0.01479,0.00769,-0.0962
8.7,1.46,0.01493,0.00782,-0.096
8.8,1.47,0.01505,0.00796,-0.0959
8.9,1.4801,0.01516,0.00809,-0.0957
9,1.4901,0.01527,0.00821,-0.0956
9.1,1.5,0.0154,0.00834,-0.0954
9.2,1.5099,0.01552,0.00847,-0.0952
9.3,1.5196,0.01566,0.0086,-0.0951
9.4,1.5293,0.0158,0.00874,-0.0949
9.5,1.5389,0.01595,0.00889,-0.0947
9.6,1.5482,0.01612,0.00905,-0.0944
9.7,1.558,0.01625,0.00919,-0.0943
9.8,1.5676,0.01638,0.00933,-0.0941
9.9,1.5772,0.01651,0.00948,-0.0939
10,1.5867,0.01665,0.00963,-0.0937
10.1,1.5961,0.0168,0.00978,-0.0934
10.2,1.6054,0.01695,0.00994,-0.0932
10.3,1.6146,0.01712,0.0101,-0.0929
10.4,1.6237,0.01729,0.01027,-0.0927
10.5,1.6326,0.01747,0.01045,-0.0924
10.6,1.6419,0.01761,0.01061,-0.0921
10.7,1.6508,0.01778,0.01077,-0.0919
10.8,1.6598,0.01794,0.01094,-0.0916
10.9,1.6687,0.01811,0.01112,-0.0913
11,1.6774,0.01829,0.0113,-0.091
11.1,1.686,0.01848,0.0115,-0.0906
11.2,1.6945,0.01868,0.0117,-0.0903
11.3,1.7031,0.01885,0.0119,-0.0899
11.4,1.7118,0.019,0.01207,-0.0896
11.5,1.7204,0.01917,0.01225,-0.0893
11.6,1.7289,0.01934,0.01244,-0.0889
11.7,1.7372,0.01951,0.01263,-0.0885
11.8,1.7454,0.0197,0.01283,-0.0881
11.9,1.7534,0.01989,0.01303,-0.0877
12,1.7611,0.02009,0.01324,-0.0873
12.1,1.7679,0.02038,0.0135,-0.0867
12.2,1.7754,0.02058,0.01373,-0.0862
12.3,1.7831,0.02076,0.01393,-0.0857
12.4,1.7904,0.02096,0.01414,-0.0852
12.5,1.7973,0.02119,0.01437,-0.0846
12.6,1.8042,0.02141,0.01461,-0.084
12.7,1.8109,0.02164,0.01485,-0.0834
12.8,1.8173,0.02188,0.0151,-0.0828
12.9,1.8234,0.02212,0.01536,-0.0821
13,1.8289,0.02238,0.01562,-0.0812
13.1,1.8341,0.0226,0.01588,-0.0804
13.2,1.8394,0.02283,0.01613,-0.0795
13.3,1.8444,0.02306,0.01639,-0.0786
13.4,1.8494,0.0233,0.01666,-0.0777
13.5,1.8543,0.02356,0.01694,-0.0768
13.6,1.8591,0.02383,0.01723,-0.076
13.7,1.8638,0.02411,0.01753,-0.0751
13.8,1.8683,0.0244,0.01784,-0.0742
13.9,1.8726,0.02471,0.01817,-0.0734
14,1.8756,0.02511,0.01857,-0.0724
14.1,1.8795,0.02546,0.01893,-0.0715
14.2,1.884,0.02576,0.01928,-0.0708
14.3,1.8885,0.02608,0.01963,-0.07
14.4,1.8927,0.02641,0.02,-0.0692
14.5,1.8967,0.02675,0.02037,-0.0685
14.6,1.9006,0.02711,0.02075,-0.0677
14.7,1.9043,0.02748,0.02115,-0.0669
14.8,1.9079,0.02787,0.02157,-0.0662
14.9,1.9112,0.02828,0.02201,-0.0655
15,1.9144,0.02871,0.02246,-0.0647
15.1,1.9172,0.02917,0.02295,-0.064
15.2,1.9198,0.02964,0.02344,-0.0633
15.3,1.9221,0.03014,0.02397,-0.0626
15.4,1.9245,0.03065,0.02451,-0.062
15.5,1.9273,0.03113,0.02503,-0.0614
15.7,1.931,0.03228,0.02621,-0.0602
15.8,1.9328,0.03287,0.02682,-0.0597
15.9,1.9344,0.03349,0.02747,-0.0592
16,1.9359,0.03413,0.02816,-0.0588
16.1,1.938,0.03472,0.02879,-0.0584
16.2,1.9399,0.03535,0.02945,-0.0581
16.3,1.9416,0.036,0.03013,-0.0578
16.4,1.9431,0.03669,0.03086,-0.0575
16.5,1.9444,0.03741,0.03162,-0.0574
16.6,1.9455,0.03818,0.03241,-0.0573
16.7,1.9458,0.03903,0.0333,-0.0572
16.8,1.9463,0.03989,0.03422,-0.0573
16.9,1.9475,0.0407,0.03507,-0.0574
17,1.9484,0.04157,0.03597,-0.0576
17.1,1.949,0.04247,0.03691,-0.0579
17.2,1.9493,0.04344,0.03791,-0.0582
17.3,1.9489,0.04449,0.039,-0.0588
17.4,1.9487,0.04557,0.04015,-0.0594
17.5,1.9488,0.04664,0.04126,-0.0601
17.6,1.949,0.04772,0.04238,-0.0609
17.7,1.9489,0.04888,0.04359,-0.0618
17.8,1.9483,0.05015,0.0449,-0.063
17.9,1.9476,0.05148,0.04629,-0.0643
18,1.9472,0.05281,0.04769,-0.0657
18.1,1.947,0.05416,0.0491,-0.0672
18.2,1.9468,0.05557,0.05057,-0.0688
18.3,1.9466,0.05702,0.05208,-0.0705
18.4,1.9456,0.05865,0.05377,-0.0726
18.5,1.9447,0.06034,0.05552,-0.0747
18.6,1.9429,0.06224,0.05749,-0.0772
18.7,1.9414,0.06417,0.05952,-0.0797
18.8,1.9401,0.06613,0.06156,-0.0823
18.9,1.9383,0.06825,0.06377,-0.0852
19,1.936,0.07057,0.06617,-0.0882
19.1,1.9331,0.07311,0.06879,-0.0916
19.2,1.9294,0.07589,0.07168,-0.0952
19.3,1.9252,0.07891,0.0748,-0.099
19.4,1.9191,0.08248,0.07849,-0.1035
19.5,1.9115,0.08657,0.0827,-0.1084
19.6,1.9018,0.09137,0.08764,-0.114
19.7,1.8898,0.09696,0.09339,-0.1202
19.8,1.8752,0.10327,0.09987,-0.1269
19.9,1.86,0.10952,0.10628,-0.1336
20,1.8456,0.11531,0.11221,-0.1399
20.1,1.8315,0.12094,0.11797,-0.1461
20.2,1.8193,0.12595,0.12309,-0.1519
20.3,1.8093,0.13034,0.12756,-0.157
20.4,1.7994,0.13481,0.13214,-0.1622
20.5,1.7912,0.13881,0.13622,-0.1669
20.6,1.7837,0.14276,0.14026,-0.1716
20.7,1.7768,0.14671,0.14428,-0.176
20.8,1.7715,0.15027,0.1479,-0.18
20.9,1.7667,0.15378,0.15148,-0.1838
21,1.7616,0.1576,0.15537,-0.1878
21.1,1.7585,0.16074,0.15857,-0.1911
21.2,1.7544,0.16445,0.16234,-0.1948
21.3,1.7514,0.16776,0.1657,-0.198
21.4,1.7501,0.17048,0.16845,-0.2008
21.5,1.7485,0.17334,0.17136,-0.2036
21.6,1.7447,0.17725,0.17532,-0.2073
21.7,1.7439,0.17991,0.17802,-0.2099
21.8,1.7431,0.18259,0.18073,-0.2125
21.9,1.7415,0.1857,0.18389,-0.2155
22,1.7393,0.18923,0.18746,-0.2187
22.1,1.739,0.19183,0.1901,-0.2212
22.2,1.739,0.19431,0.1926,-0.2236
22.3,1.7388,0.19693,0.19526,-0.2261
22.4,1.7368,0.20053,0.19889,-0.2293
22.5,1.7365,0.20332,0.20172,-0.2319
22.6,1.737,0.20573,0.20415,-0.2342
22.7,1.7375,0.20811,0.20655,-0.2365
22.8,1.7381,0.21047,0.20894,-0.2388
22.9,1.7379,0.21331,0.21181,-0.2414
23,1.7371,0.2166,0.21513,-0.2443
23.1,1.7379,0.21893,0.21748,-0.2465
23.2,1.7389,0.22113,0.2197,-0.2486
23.3,1.7399,0.22337,0.22196,-0.2508
23.4,1.741,0.2256,0.2242,-0.253
23.5,1.742,0.2279,0.22652,-0.2552
23.6,1.7419,0.23097,0.22962,-0.2579
23.7,1.7427,0.2335,0.23216,-0.2603
23.8,1.7441,0.23563,0.2343,-0.2624
23.9,1.7457,0.23756,0.23624,-0.2644
24,1.7476,0.23934,0.23803,-0.2663
24.1,1.7495,0.241,0.2397,-0.268
24.2,1.7516,0.24252,0.24122,-0.2698
24.3,1.7536,0.24417,0.24287,-0.2715
24.4,1.7555,0.24596,0.24468,-0.2733
24.5,1.7573,0.2478,0.24655,-0.2752
24.6,1.7591,0.24956,0.24832,-0.277
24.7,1.7609,0.2514,0.25018,-0.2789
24.8,1.7627,0.25332,0.25212,-0.2809
24.9,1.764,0.25565,0.25447,-0.2831
25,1.7655,0.25782,0.25666,-0.2852
25.1,1.7673,0.25968,0.25854,-0.2871
25.2,1.7692,0.2615,0.26038,-0.289
25.3,1.7711,0.26324,0.26213,-0.2909
25.4,1.7731,0.26495,0.26386,-0.2927
25.5,1.775,0.26666,0.26559,-0.2946
25.6,1.777,0.26839,0.26733,-0.2964
25.7,1.7789,0.27009,0.26905,-0.2983
25.8,1.7809,0.27183,0.2708,-0.3001
25.9,1.7828,0.27353,0.27252,-0.302
26,1.7847,0.2753,0.2743,-0.3039
26.1,1.7866,0.27703,0.27605,-0.3058
26.2,1.7885,0.27886,0.27788,-0.3077
26.4,1.7911,0.284,0.28306,-0.3126
26.5,1.793,0.2858,0.28487,-0.3145
26.6,1.795,0.2875,0.28658,-0.3164
26.7,1.797,0.28918,0.28827,-0.3183
26.8,1.799,0.29078,0.28987,-0.3201
26.9,1.801,0.29237,0.29147,-0.322
27,1.803,0.29385,0.29296,-0.3238
27.1,1.805,0.29536,0.29448,-0.3256
27.2,1.8071,0.29677,0.29589,-0.3273
27.3,1.8091,0.29824,0.29737,-0.3291
27.4,1.8112,0.29956,0.29869,-0.3308
27.5,1.8133,0.30086,0.29999,-0.3325
27.6,1.8153,0.30213,0.30127,-0.3342
27.7,1.8173,0.30341,0.30256,-0.336
27.8,1.8194,0.30443,0.30357,-0.3375
27.9,1.8215,0.30549,0.30464,-0.3391
28,1.8236,0.30635,0.3055,-0.3407
28.1,1.8256,0.30741,0.30657,-0.3423
28.2,1.8271,0.30958,0.30874,-0.3446
28.3,1.8284,0.31259,0.31179,-0.3473
28.4,1.8294,0.3165,0.31573,-0.3505
28.5,1.8293,0.32496,0.32428,-0.3565

