airfoilName st14.dat
Re 	3.500000e+05
M 	5.000000e-02
N 	4.500000e+00
VACC 	0 VACCflag 1
XTR 	1.00 	1.00 XTRflag 0
alpha,cl,cd,cdp,cm
-7.5,-0.3093,0.02354,0.01913,-0.1063
-7.4,-0.2965,0.02205,0.01746,-0.1076
-7.3,-0.2844,0.02115,0.01647,-0.1084
-7.1,-0.2592,0.01987,0.01504,-0.1098
-7,-0.2457,0.01933,0.01442,-0.1106
-6.9,-0.2325,0.01883,0.01384,-0.1113
-6.8,-0.2191,0.01836,0.01329,-0.1119
-6.7,-0.2082,0.01795,0.01282,-0.1121
-6.6,-0.1967,0.01755,0.01234,-0.1123
-6.5,-0.1848,0.01714,0.01186,-0.1126
-6.4,-0.1726,0.01674,0.01137,-0.1129
-6.3,-0.16,0.01634,0.01088,-0.1133
-6.2,-0.1476,0.01595,0.0104,-0.1137
-6.1,-0.135,0.01557,0.00993,-0.1141
-6,-0.1226,0.0152,0.00947,-0.1144
-5.9,-0.1114,0.01488,0.00906,-0.1144
-5.8,-0.1,0.01457,0.00867,-0.1144
-5.7,-0.088,0.01432,0.00832,-0.1146
-5.6,-0.076,0.01399,0.00797,-0.1148
-5.5,-0.0637,0.01372,0.00767,-0.1151
-5.4,-0.0515,0.01351,0.00743,-0.1153
-5.3,-0.0398,0.01333,0.00723,-0.1154
-5.2,-0.0288,0.01316,0.00701,-0.1153
-5.1,-0.0171,0.01299,0.0068,-0.1154
-5,-0.0053,0.01281,0.00659,-0.1155
-4.9,0.0065,0.01263,0.00635,-0.1155
-4.8,0.0185,0.01245,0.00613,-0.1156
-4.7,0.0302,0.01229,0.00591,-0.1157
-4.6,0.0414,0.01214,0.0057,-0.1156
-4.5,0.053,0.01196,0.00551,-0.1157
-4.4,0.0646,0.01181,0.00535,-0.1157
-4.3,0.0763,0.01168,0.0052,-0.1157
-4.2,0.0878,0.01169,0.00522,-0.1158
-4.1,0.0992,0.01156,0.00505,-0.1157
-4,0.1108,0.01144,0.00489,-0.1157
-3.9,0.1222,0.01133,0.00472,-0.1157
-3.8,0.1338,0.01117,0.00456,-0.1157
-3.7,0.1455,0.01105,0.00443,-0.1157
-3.5,0.1682,0.01092,0.00429,-0.1157
-3.4,0.1797,0.01082,0.00416,-0.1157
-3.3,0.1913,0.01073,0.00403,-0.1157
-3.2,0.2029,0.01065,0.00392,-0.1156
-3.1,0.2142,0.01052,0.00379,-0.1156
-3,0.2258,0.01043,0.00369,-0.1156
-2.9,0.2373,0.01035,0.0036,-0.1156
-2.8,0.2488,0.01028,0.00351,-0.1156
-2.7,0.2601,0.01025,0.00346,-0.1155
-2.6,0.2716,0.01019,0.00337,-0.1155
-2.5,0.2831,0.01009,0.00328,-0.1155
-2.4,0.2943,0.01003,0.0032,-0.1154
-2.3,0.3056,0.00997,0.00313,-0.1153
-2.2,0.3166,0.00993,0.00304,-0.1151
-2,0.3393,0.00985,0.00292,-0.115
-1.9,0.3507,0.0098,0.00286,-0.1149
-1.8,0.3622,0.00975,0.00281,-0.1149
-1.7,0.3731,0.00973,0.00274,-0.1147
-1.6,0.3844,0.00971,0.00268,-0.1146
-1.5,0.3959,0.00967,0.00263,-0.1146
-1.4,0.4073,0.00963,0.00259,-0.1146
-1.3,0.4187,0.00962,0.00258,-0.1145
-1.2,0.4298,0.00961,0.00253,-0.1144
-1.1,0.441,0.0096,0.00248,-0.1143
-1,0.4525,0.00957,0.00246,-0.1143
-0.9,0.4638,0.00956,0.00243,-0.1143
-0.8,0.4752,0.00955,0.0024,-0.1142
-0.7,0.4866,0.00954,0.00239,-0.1142
-0.6,0.4971,0.00957,0.00236,-0.114
-0.5,0.5084,0.00958,0.00234,-0.1139
-0.4,0.5198,0.00958,0.00232,-0.1139
-0.3,0.531,0.00958,0.0023,-0.1138
-0.2,0.5424,0.00958,0.00229,-0.1138
-0.1,0.5533,0.00961,0.00229,-0.1137
0,0.5641,0.00966,0.00228,-0.1135
0.1,0.5753,0.00967,0.00227,-0.1134
0.2,0.5865,0.00969,0.00227,-0.1134
0.3,0.5973,0.00975,0.00227,-0.1132
0.4,0.6081,0.00981,0.00226,-0.1131
0.5,0.6191,0.00983,0.00229,-0.113
0.6,0.6298,0.00991,0.00229,-0.1129
0.7,0.6401,0.01002,0.00231,-0.1126
0.8,0.6511,0.01006,0.00233,-0.1125
0.9,0.662,0.01012,0.00235,-0.1124
1,0.673,0.01017,0.00236,-0.1124
1.1,0.6839,0.01023,0.00239,-0.1123
1.2,0.6947,0.01029,0.00242,-0.1122
1.3,0.7056,0.01034,0.00245,-0.1121
1.4,0.7165,0.01041,0.00249,-0.1121
1.5,0.7265,0.01055,0.00253,-0.1118
1.6,0.7373,0.01062,0.00257,-0.1117
1.7,0.748,0.0107,0.00262,-0.1116
1.8,0.7586,0.01076,0.00267,-0.1116
1.9,0.7693,0.01084,0.00271,-0.1115
2,0.7799,0.01092,0.00275,-0.1114
2.1,0.7904,0.011,0.00281,-0.1113
2.2,0.8009,0.01106,0.00287,-0.1112
2.4,0.8124,0.00991,0.003,-0.1091
2.5,0.8226,0.01009,0.00307,-0.1089
2.6,0.8327,0.01027,0.00314,-0.1087
2.7,0.8429,0.01046,0.00324,-0.1086
2.8,0.853,0.01065,0.00333,-0.1084
2.9,0.8631,0.01083,0.00342,-0.1083
3,0.8734,0.01101,0.0035,-0.1081
3.1,0.8837,0.01117,0.0036,-0.108
3.2,0.8936,0.01139,0.00371,-0.1078
3.3,0.9043,0.01151,0.00378,-0.1077
3.4,0.9148,0.01165,0.00386,-0.1076
3.5,0.9255,0.01176,0.00395,-0.1075
3.6,0.9362,0.01187,0.00403,-0.1075
3.7,0.9468,0.01199,0.00411,-0.1074
3.8,0.9573,0.01211,0.0042,-0.1073
3.9,0.9681,0.01221,0.00429,-0.1072
4,0.9788,0.01232,0.00437,-0.1071
4.1,0.989,0.01248,0.00448,-0.107
4.2,0.9998,0.01257,0.00456,-0.1069
4.3,1.0104,0.01267,0.00464,-0.1068
4.4,1.021,0.01278,0.00473,-0.1067
4.5,1.0315,0.0129,0.00482,-0.1066
4.6,1.0421,0.01301,0.00492,-0.1065
4.7,1.0528,0.0131,0.005,-0.1064
4.8,1.0634,0.0132,0.00509,-0.1063
4.9,1.0736,0.01334,0.00519,-0.1062
5,1.084,0.01347,0.00531,-0.1061
5.1,1.0947,0.01356,0.0054,-0.106
5.2,1.1052,0.01366,0.0055,-0.1059
5.3,1.1157,0.01376,0.00559,-0.1057
5.4,1.1261,0.01388,0.00569,-0.1056
5.5,1.1364,0.01401,0.0058,-0.1055
5.6,1.1468,0.01412,0.00591,-0.1054
5.7,1.1573,0.01422,0.00601,-0.1053
5.8,1.1676,0.01434,0.00611,-0.1051
5.9,1.1779,0.01446,0.00622,-0.105
6,1.188,0.0146,0.00635,-0.1049
6.1,1.1983,0.01472,0.00647,-0.1047
6.2,1.2086,0.01482,0.00658,-0.1046
6.3,1.2189,0.01493,0.00669,-0.1045
6.4,1.2292,0.01505,0.00681,-0.1043
6.5,1.2393,0.01517,0.00693,-0.1042
6.6,1.2493,0.01531,0.00705,-0.104
6.7,1.2592,0.01546,0.00719,-0.1038
6.8,1.2695,0.01556,0.0073,-0.1037
6.9,1.2796,0.01568,0.00742,-0.1035
7,1.2896,0.01581,0.00755,-0.1033
7.1,1.2995,0.01595,0.0077,-0.1032
7.2,1.3093,0.0161,0.00784,-0.103
7.3,1.3191,0.01625,0.00799,-0.1028
7.4,1.3291,0.01637,0.00812,-0.1026
7.5,1.3391,0.01649,0.00826,-0.1024
7.6,1.3489,0.01662,0.0084,-0.1022
7.7,1.3587,0.01676,0.00854,-0.102
7.8,1.3681,0.01694,0.00868,-0.1018
7.9,1.3776,0.0171,0.00885,-0.1016
8,1.3874,0.01723,0.00899,-0.1014
8.1,1.3972,0.01736,0.00914,-0.1012
8.2,1.4068,0.01751,0.00931,-0.1009
8.3,1.4163,0.01766,0.00947,-0.1007
8.4,1.4257,0.01782,0.00963,-0.1004
8.5,1.4349,0.01799,0.0098,-0.1002
8.6,1.444,0.01818,0.00998,-0.0999
8.7,1.4536,0.01831,0.01014,-0.0997
8.8,1.4629,0.01846,0.01031,-0.0994
8.9,1.4722,0.01862,0.01048,-0.0991
9,1.4813,0.01879,0.01066,-0.0988
9.1,1.4903,0.01897,0.01084,-0.0985
9.2,1.4991,0.01916,0.01103,-0.0982
9.3,1.5078,0.01936,0.01125,-0.0979
9.4,1.517,0.01951,0.01143,-0.0976
9.5,1.526,0.01968,0.01162,-0.0973
9.6,1.5349,0.01985,0.01182,-0.097
9.8,1.552,0.02023,0.0122,-0.0963
9.9,1.5603,0.02044,0.01241,-0.0959
10,1.5684,0.02068,0.01264,-0.0954
10.1,1.5771,0.02084,0.01285,-0.0951
10.2,1.5856,0.02102,0.01306,-0.0947
10.3,1.5939,0.02121,0.01328,-0.0943
10.4,1.6021,0.02141,0.0135,-0.0939
10.5,1.6101,0.02161,0.01374,-0.0935
10.6,1.6179,0.02183,0.01397,-0.093
10.7,1.6255,0.02206,0.01421,-0.0925
10.8,1.6328,0.0223,0.01446,-0.092
10.9,1.6398,0.02256,0.01473,-0.0914
11,1.6474,0.02276,0.01497,-0.0909
11.1,1.6552,0.02295,0.01519,-0.0904
11.2,1.6624,0.02317,0.01544,-0.0898
11.3,1.6694,0.0234,0.01569,-0.0893
11.4,1.6761,0.02364,0.01596,-0.0886
11.5,1.6826,0.02388,0.01623,-0.088
11.6,1.6885,0.02414,0.0165,-0.0872
11.7,1.6937,0.02442,0.01679,-0.0863
11.8,1.6984,0.02472,0.0171,-0.0854
11.9,1.7037,0.02499,0.01741,-0.0845
12,1.7094,0.02523,0.01771,-0.0838
12.1,1.715,0.02548,0.01801,-0.083
12.2,1.7203,0.02576,0.01833,-0.0822
12.3,1.7256,0.02604,0.01865,-0.0814
12.4,1.7306,0.02633,0.01898,-0.0805
12.5,1.7356,0.02663,0.01929,-0.0798
12.6,1.7402,0.02696,0.01964,-0.0789
12.7,1.7438,0.02736,0.02001,-0.0781
12.8,1.748,0.02771,0.0204,-0.0772
12.9,1.7531,0.02802,0.02076,-0.0765
13,1.7579,0.02834,0.02113,-0.0758
13.1,1.7629,0.02865,0.02146,-0.0751
13.2,1.7672,0.029,0.02186,-0.0743
13.3,1.7713,0.02938,0.02227,-0.0736
13.4,1.7752,0.02977,0.0227,-0.0728
13.5,1.7789,0.03017,0.02314,-0.0721
13.6,1.7824,0.0306,0.0236,-0.0713
13.7,1.7857,0.03105,0.02408,-0.0706
13.8,1.7885,0.03153,0.02459,-0.0698
13.9,1.791,0.03204,0.02515,-0.0691
14,1.7942,0.0325,0.02566,-0.0684
14.1,1.7979,0.03293,0.02615,-0.0678
14.2,1.802,0.03334,0.0266,-0.0672
14.3,1.8052,0.03382,0.02713,-0.0666
14.4,1.8081,0.03432,0.02768,-0.0661
14.5,1.8109,0.03485,0.02826,-0.0655
14.6,1.8135,0.03539,0.02884,-0.065
14.7,1.8159,0.03596,0.02946,-0.0644
14.8,1.8181,0.03655,0.03009,-0.064
14.9,1.82,0.03717,0.03075,-0.0635
15,1.8218,0.03782,0.03144,-0.0631
15.1,1.8232,0.03851,0.03217,-0.0627
15.2,1.8244,0.03924,0.03292,-0.0624
15.3,1.8269,0.03986,0.03361,-0.0622
15.4,1.8292,0.04051,0.03432,-0.0619
15.5,1.832,0.04112,0.03496,-0.0618
15.6,1.8337,0.04185,0.03574,-0.0617
15.7,1.8353,0.0426,0.03654,-0.0616
15.8,1.8366,0.04339,0.03738,-0.0616
15.9,1.8377,0.04421,0.03825,-0.0616
16,1.8386,0.04508,0.03916,-0.0617
16.1,1.8393,0.04599,0.04012,-0.062
16.2,1.8397,0.04695,0.04113,-0.0623
16.3,1.8402,0.04793,0.04218,-0.0626
16.4,1.8418,0.04879,0.04312,-0.063
16.5,1.8432,0.04971,0.0441,-0.0634
16.6,1.8443,0.05066,0.04512,-0.064
16.7,1.8454,0.05165,0.04617,-0.0646
16.8,1.8462,0.05269,0.04728,-0.0654
16.9,1.8471,0.05376,0.04841,-0.0662
17,1.8477,0.05488,0.0496,-0.0671
17.1,1.848,0.05606,0.05084,-0.0682
17.2,1.8483,0.0573,0.05213,-0.0694
17.3,1.8482,0.05861,0.05351,-0.0708
17.4,1.848,0.06001,0.05497,-0.0723
17.5,1.8474,0.06151,0.05653,-0.074
17.6,1.8464,0.06314,0.05824,-0.0759
17.7,1.8468,0.06459,0.05978,-0.0777
17.8,1.8469,0.06614,0.06141,-0.0796
17.9,1.8468,0.06778,0.06314,-0.0817
18,1.8463,0.06955,0.06499,-0.084
18.1,1.8455,0.07146,0.06698,-0.0864
18.2,1.8444,0.07351,0.06912,-0.0891
18.3,1.8428,0.07573,0.07143,-0.092
18.4,1.8406,0.07817,0.07397,-0.0952
18.5,1.8378,0.08088,0.07677,-0.0987
18.6,1.8342,0.08385,0.07985,-0.1025
18.7,1.8297,0.08718,0.08329,-0.1067
18.8,1.8242,0.09087,0.08709,-0.1112
18.9,1.8175,0.09502,0.09137,-0.1162
19,1.8101,0.09948,0.09596,-0.1213
19.1,1.8018,0.10422,0.10083,-0.1266
19.2,1.7934,0.10886,0.10559,-0.1318
19.3,1.7851,0.11336,0.1102,-0.1368
19.4,1.777,0.11771,0.11465,-0.1416
19.5,1.7692,0.12188,0.11892,-0.1463
19.6,1.7615,0.12598,0.12311,-0.151
19.7,1.7544,0.12988,0.12709,-0.1554
19.8,1.748,0.13354,0.13083,-0.1597
19.9,1.7413,0.13735,0.13471,-0.1641
20,1.7356,0.14086,0.13829,-0.1682
20.1,1.7296,0.14456,0.14205,-0.1724
20.2,1.7249,0.14799,0.14553,-0.1763
20.3,1.7209,0.15136,0.14898,-0.18
20.4,1.7184,0.15424,0.15191,-0.1832
20.5,1.7151,0.15757,0.1553,-0.1867
20.6,1.7121,0.16085,0.15865,-0.1901
20.7,1.7098,0.16393,0.16178,-0.1932
20.8,1.7063,0.16769,0.1656,-0.1969
20.9,1.7039,0.17102,0.16898,-0.2002
21,1.7018,0.17433,0.17234,-0.2034
21.1,1.6983,0.17837,0.17644,-0.2071
21.2,1.6965,0.18174,0.17985,-0.2103
21.3,1.6946,0.1852,0.18333,-0.2135
21.4,1.6918,0.18924,0.18742,-0.2172
21.5,1.6911,0.19228,0.19047,-0.22
21.6,1.6911,0.19496,0.19317,-0.2226
21.7,1.6913,0.19756,0.19577,-0.2251
21.9,1.6865,0.20601,0.20434,-0.2323
22,1.6817,0.21225,0.21064,-0.2372
22.1,1.6797,0.2169,0.21534,-0.241
22.2,1.6772,0.22217,0.22064,-0.2451
22.3,1.6788,0.22442,0.2229,-0.2473
22.4,1.6811,0.22606,0.22455,-0.249
22.5,1.6838,0.2274,0.22588,-0.2505
22.6,1.6867,0.22852,0.227,-0.2519
22.7,1.6899,0.22941,0.22789,-0.2531
22.8,1.6931,0.23024,0.22871,-0.2543
22.9,1.6963,0.23109,0.22955,-0.2556
23,1.6984,0.23275,0.23121,-0.2573
23.1,1.6915,0.24332,0.24186,-0.2647
23.2,1.6916,0.24769,0.24625,-0.2681
23.3,1.6934,0.25026,0.24883,-0.2704
23.4,1.6957,0.2521,0.25068,-0.2722
23.5,1.6982,0.25372,0.2523,-0.2739
23.6,1.7008,0.25517,0.25376,-0.2755
23.7,1.7034,0.25648,0.25508,-0.277
23.8,1.7061,0.25776,0.25636,-0.2786
24.1,1.7158,0.25935,0.25794,-0.2818
24.2,1.7189,0.26001,0.2586,-0.283
24.3,1.7217,0.26082,0.2594,-0.2842
24.4,1.7247,0.26139,0.25998,-0.2854
25.5,1.7445,0.29237,0.29105,-0.3121
25.6,1.7469,0.29362,0.29231,-0.3137
25.7,1.7494,0.29478,0.29347,-0.3153
25.8,1.7518,0.29592,0.29464,-0.3168
25.9,1.7542,0.29695,0.29567,-0.3183
26,1.7565,0.29816,0.29689,-0.3199
26.1,1.7589,0.29911,0.29784,-0.3214
26.2,1.7612,0.30005,0.29879,-0.3229
26.3,1.7635,0.30096,0.29971,-0.3244
26.4,1.7658,0.30172,0.30047,-0.3258

