airfoilName st14.dat
Re 	610000
M 	5.000000e-02
N 	4.500000e+00
VACC 	0 VACCflag 1
XTR 	1.00 	1.00 XTRflag 0
alpha,cl,cd,cdp,cm
-8.2,-0.3747,0.01978,0.01593,-0.11
-8.1,-0.3624,0.01878,0.01479,-0.1108
-8,-0.3502,0.01806,0.01397,-0.1115
-7.9,-0.338,0.01747,0.01328,-0.112
-7.8,-0.3264,0.01696,0.0127,-0.1123
-7.7,-0.3153,0.01651,0.01216,-0.1125
-7.6,-0.3041,0.0161,0.01168,-0.1127
-7.4,-0.2811,0.01567,0.01116,-0.1129
-7.3,-0.2694,0.01528,0.0107,-0.1132
-7.2,-0.2582,0.01493,0.01027,-0.1133
-7.1,-0.2468,0.01459,0.00987,-0.1134
-7,-0.2354,0.01427,0.00948,-0.1135
-6.9,-0.2241,0.01397,0.00911,-0.1136
-6.8,-0.2125,0.01369,0.00876,-0.1137
-6.7,-0.2012,0.01344,0.00843,-0.1137
-6.6,-0.1897,0.0132,0.00813,-0.1138
-6.5,-0.1785,0.01298,0.00786,-0.1138
-6.4,-0.1671,0.0128,0.00761,-0.1139
-6.3,-0.1558,0.01259,0.00737,-0.1138
-6.2,-0.1443,0.01223,0.00695,-0.114
-6.1,-0.1328,0.01197,0.00665,-0.114
-6,-0.1214,0.01177,0.00641,-0.1141
-5.9,-0.11,0.0116,0.0062,-0.1141
-5.8,-0.0985,0.01143,0.00601,-0.1141
-5.7,-0.0873,0.01129,0.00583,-0.1141
-5.6,-0.0758,0.01115,0.00565,-0.1141
-5.5,-0.0644,0.01101,0.00547,-0.1141
-5.4,-0.0528,0.01087,0.0053,-0.1141
-5.3,-0.0414,0.01074,0.00514,-0.1141
-5.2,-0.0299,0.01061,0.00496,-0.1141
-5.1,-0.0184,0.01049,0.00481,-0.1141
-5,-0.0072,0.01039,0.00466,-0.114
-4.9,0.0044,0.01029,0.00454,-0.114
-4.8,0.016,0.01013,0.00435,-0.1141
-4.7,0.0276,0.01001,0.00422,-0.1141
-4.6,0.0389,0.00991,0.0041,-0.114
-4.5,0.0503,0.00983,0.00399,-0.114
-4.4,0.0619,0.00974,0.00388,-0.114
-4.3,0.0734,0.00965,0.00377,-0.114
-4.2,0.0849,0.00958,0.00367,-0.114
-4.1,0.0964,0.0095,0.00356,-0.114
-4,0.1079,0.00944,0.00346,-0.114
-3.9,0.1194,0.00934,0.00335,-0.114
-3.8,0.131,0.00926,0.00326,-0.114
-3.7,0.1425,0.00919,0.00318,-0.114
-3.6,0.154,0.00913,0.0031,-0.114
-3.5,0.1656,0.00907,0.00302,-0.114
-3.3,0.1886,0.00898,0.0029,-0.114
-3.2,0.2001,0.00891,0.00282,-0.114
-3.1,0.2116,0.00887,0.00278,-0.114
-3,0.223,0.00882,0.00271,-0.114
-2.9,0.2341,0.0088,0.00263,-0.1138
-2.8,0.2455,0.00876,0.00256,-0.1138
-2.7,0.2567,0.00875,0.0025,-0.1137
-2.6,0.2683,0.00868,0.00243,-0.1137
-2.5,0.2799,0.00863,0.00238,-0.1137
-2.3,0.3026,0.0086,0.00227,-0.1136
-2.2,0.3138,0.00859,0.00223,-0.1136
-2.1,0.3254,0.00856,0.00219,-0.1136
-2,0.3369,0.00853,0.00214,-0.1136
-1.9,0.3484,0.00851,0.00211,-0.1136
-1.8,0.3594,0.00853,0.00207,-0.1135
-1.7,0.3709,0.00851,0.00203,-0.1135
-1.6,0.3824,0.0085,0.002,-0.1135
-1.5,0.3939,0.00849,0.00196,-0.1135
-1.4,0.4054,0.00846,0.00195,-0.1135
-1.3,0.4166,0.00848,0.00193,-0.1134
-1.2,0.4277,0.00851,0.0019,-0.1133
-1.1,0.4391,0.00851,0.00188,-0.1133
-1,0.4503,0.00854,0.00186,-0.1133
-0.9,0.4617,0.00853,0.00185,-0.1133
-0.8,0.473,0.00855,0.00185,-0.1132
-0.7,0.4844,0.00857,0.00183,-0.1132
-0.6,0.4949,0.00867,0.00183,-0.113
-0.5,0.5061,0.00869,0.00183,-0.113
-0.4,0.5174,0.00872,0.00183,-0.113
-0.3,0.5286,0.00875,0.00182,-0.1129
-0.2,0.5399,0.00877,0.00183,-0.1129
-0.1,0.5511,0.00881,0.00184,-0.1129
0,0.5621,0.00887,0.00185,-0.1128
0.1,0.5725,0.00902,0.00188,-0.1127
0.2,0.5837,0.00905,0.00189,-0.1126
0.3,0.5949,0.00909,0.00191,-0.1126
0.4,0.6058,0.00917,0.00193,-0.1126
0.5,0.6169,0.00922,0.00195,-0.1125
0.6,0.6281,0.00926,0.00197,-0.1125
0.7,0.6392,0.00932,0.002,-0.1125
0.8,0.6502,0.00938,0.00202,-0.1124
0.9,0.6607,0.00952,0.00206,-0.1123
1,0.6717,0.00958,0.0021,-0.1123
1.1,0.6827,0.00965,0.00213,-0.1122
1.2,0.6937,0.00972,0.00216,-0.1122
1.3,0.7046,0.0098,0.0022,-0.1121
1.4,0.7154,0.00989,0.00225,-0.1121
1.5,0.7262,0.00999,0.00229,-0.112
1.6,0.737,0.01009,0.00234,-0.112
1.7,0.7469,0.01031,0.00243,-0.1118
1.8,0.7575,0.01043,0.00249,-0.1117
1.9,0.768,0.01057,0.00255,-0.1116
2,0.7785,0.01072,0.00262,-0.1115
2.1,0.789,0.01085,0.0027,-0.1115
2.2,0.7996,0.01098,0.00276,-0.1114
2.3,0.8104,0.01107,0.00282,-0.1113
2.4,0.8212,0.01114,0.00288,-0.1113
2.5,0.8317,0.01127,0.00296,-0.1112
2.6,0.8427,0.01132,0.00302,-0.1112
2.7,0.8538,0.01135,0.00308,-0.1112
2.9,0.8682,0.01,0.00324,-0.1098
3,0.8793,0.01008,0.00329,-0.1098
3.1,0.8903,0.01016,0.00334,-0.1097
3.2,0.9013,0.01024,0.0034,-0.1097
3.3,0.9121,0.01034,0.00347,-0.1096
3.4,0.923,0.01043,0.00352,-0.1096
3.5,0.934,0.01051,0.00358,-0.1095
3.6,0.9449,0.0106,0.00364,-0.1095
3.7,0.9558,0.01069,0.00371,-0.1094
3.8,0.9668,0.01076,0.00377,-0.1094
3.9,0.9778,0.01084,0.00383,-0.1094
4,0.9887,0.01092,0.00389,-0.1093
4.1,0.9996,0.01101,0.00396,-0.1093
4.2,1.0104,0.0111,0.00403,-0.1092
4.3,1.0212,0.01119,0.00409,-0.1091
4.4,1.0321,0.01127,0.00416,-0.1091
4.5,1.0429,0.01136,0.00423,-0.109
4.6,1.0536,0.01145,0.0043,-0.109
4.7,1.0644,0.01154,0.00438,-0.1089
4.8,1.0753,0.01162,0.00444,-0.1088
4.9,1.0861,0.0117,0.00453,-0.1088
5,1.0969,0.01178,0.0046,-0.1087
5.1,1.1076,0.01187,0.00467,-0.1086
5.2,1.118,0.012,0.00477,-0.1085
5.3,1.1288,0.01208,0.00484,-0.1085
5.4,1.1395,0.01217,0.00492,-0.1084
5.5,1.1502,0.01225,0.005,-0.1083
5.6,1.1608,0.01235,0.00508,-0.1082
5.7,1.1714,0.01245,0.00516,-0.1081
5.8,1.1818,0.01257,0.00525,-0.108
5.9,1.1925,0.01265,0.00535,-0.108
6,1.2031,0.01274,0.00545,-0.1079
6.1,1.2135,0.01285,0.00553,-0.1078
6.2,1.224,0.01295,0.00562,-0.1077
6.3,1.2344,0.01306,0.00572,-0.1076
6.4,1.2447,0.01318,0.00583,-0.1074
6.5,1.2553,0.01327,0.00592,-0.1073
6.6,1.2657,0.01336,0.00602,-0.1072
6.7,1.2762,0.01346,0.00611,-0.1071
6.8,1.2865,0.01357,0.00621,-0.107
6.9,1.2968,0.01368,0.00632,-0.1069
7,1.307,0.0138,0.00644,-0.1068
7.1,1.3171,0.01393,0.00656,-0.1066
7.2,1.3274,0.01403,0.00666,-0.1065
7.3,1.3376,0.01414,0.00677,-0.1063
7.4,1.3478,0.01425,0.00688,-0.1062
7.5,1.3579,0.01437,0.00699,-0.1061
7.6,1.3679,0.0145,0.00711,-0.1059
7.7,1.3778,0.01464,0.00724,-0.1057
7.8,1.3879,0.01476,0.00737,-0.1056
7.9,1.3979,0.01488,0.00748,-0.1054
8,1.4079,0.015,0.00761,-0.1052
8.1,1.4179,0.01512,0.00774,-0.1051
8.2,1.4277,0.01526,0.00787,-0.1049
8.3,1.4374,0.01541,0.00801,-0.1047
8.4,1.4471,0.01556,0.00816,-0.1045
8.5,1.457,0.01567,0.00829,-0.1043
8.6,1.4668,0.01579,0.00842,-0.1041
8.7,1.4766,0.01592,0.00855,-0.1039
8.8,1.4863,0.01605,0.00869,-0.1037
8.9,1.4956,0.01622,0.00884,-0.1035
9,1.505,0.01639,0.00899,-0.1032
9.1,1.5143,0.01655,0.00916,-0.103
9.2,1.524,0.01668,0.00932,-0.1028
9.3,1.5335,0.01681,0.00947,-0.1025
9.4,1.5429,0.01695,0.00962,-0.1023
9.5,1.5523,0.0171,0.00977,-0.102
9.6,1.5615,0.01725,0.00993,-0.1018
9.7,1.5707,0.01742,0.0101,-0.1015
9.8,1.5797,0.01759,0.01027,-0.1012
9.9,1.5885,0.01778,0.01045,-0.1009
10,1.5976,0.01794,0.01064,-0.1006
10.1,1.6067,0.01809,0.0108,-0.1003
10.2,1.6156,0.01825,0.01097,-0.1
10.3,1.6245,0.01842,0.01115,-0.0997
10.4,1.6332,0.01859,0.01134,-0.0993
10.5,1.6418,0.01877,0.01153,-0.099
10.6,1.6502,0.01897,0.01173,-0.0986
10.7,1.6585,0.01918,0.01193,-0.0982
10.8,1.6668,0.01937,0.01215,-0.0978
10.9,1.6754,0.01954,0.01233,-0.0974
11,1.6837,0.01972,0.01252,-0.0971
11.1,1.6919,0.0199,0.01272,-0.0966
11.2,1.6999,0.0201,0.01293,-0.0962
11.3,1.7077,0.0203,0.01314,-0.0957
11.4,1.7149,0.02056,0.01338,-0.0952
11.5,1.7222,0.02079,0.01362,-0.0946
11.6,1.7299,0.02098,0.01384,-0.0941
11.7,1.7375,0.02117,0.01406,-0.0936
11.8,1.7447,0.02138,0.01429,-0.0931
11.9,1.7519,0.02159,0.01452,-0.0925
12,1.7588,0.0218,0.01475,-0.0919
12.1,1.7655,0.02203,0.015,-0.0913
12.2,1.7719,0.02227,0.01525,-0.0906
12.3,1.7779,0.02252,0.01551,-0.0898
12.4,1.783,0.02278,0.01578,-0.0889
12.5,1.7879,0.02305,0.01608,-0.088
12.6,1.7935,0.02327,0.01633,-0.0872
12.7,1.7988,0.0235,0.01659,-0.0863
12.8,1.8041,0.02375,0.01687,-0.0854
12.9,1.8092,0.02401,0.01715,-0.0846
13,1.8143,0.02427,0.01745,-0.0837
13.1,1.8181,0.02463,0.01778,-0.0828
13.2,1.8226,0.02495,0.01811,-0.0819
13.3,1.8268,0.02528,0.01846,-0.081
13.4,1.8309,0.02562,0.01882,-0.0801
13.5,1.8357,0.02592,0.01918,-0.0793
13.6,1.8404,0.02622,0.01952,-0.0785
13.7,1.8449,0.02654,0.01987,-0.0778
13.8,1.8492,0.02687,0.02023,-0.077
13.9,1.8534,0.02721,0.0206,-0.0762
14,1.8574,0.02757,0.02099,-0.0754
14.1,1.8613,0.02794,0.02139,-0.0746
14.2,1.8649,0.02833,0.02181,-0.0738
14.3,1.8684,0.02874,0.02225,-0.073
14.4,1.8706,0.02924,0.02275,-0.0722
14.5,1.8734,0.02971,0.02324,-0.0714
14.6,1.8766,0.03014,0.02373,-0.0707
14.7,1.88,0.03057,0.02419,-0.07
14.8,1.8831,0.03101,0.02467,-0.0693
14.9,1.8862,0.03147,0.02517,-0.0686
15,1.889,0.03196,0.02569,-0.068
15.1,1.8917,0.03246,0.02623,-0.0674
15.2,1.8943,0.03299,0.02679,-0.0668
15.3,1.8965,0.03354,0.02738,-0.0662
15.4,1.8985,0.03412,0.02799,-0.0656
15.5,1.9002,0.03474,0.02864,-0.0651
15.6,1.9016,0.03538,0.02933,-0.0646
15.7,1.9028,0.03606,0.03005,-0.0641
15.8,1.9049,0.03667,0.03071,-0.0637
15.9,1.9069,0.0373,0.03138,-0.0634
16,1.9087,0.03797,0.03209,-0.0631
16.1,1.9103,0.03866,0.03282,-0.0628
16.2,1.9117,0.03938,0.03359,-0.0626
16.3,1.913,0.04014,0.03438,-0.0625
16.4,1.914,0.04093,0.03522,-0.0624
16.5,1.9146,0.04177,0.0361,-0.0624
16.6,1.9148,0.04267,0.03703,-0.0624
16.7,1.915,0.04359,0.03801,-0.0626
16.8,1.9159,0.04446,0.03893,-0.0627
16.9,1.9167,0.04536,0.03988,-0.063
17,1.9173,0.0463,0.04086,-0.0633
17.1,1.9178,0.04727,0.04188,-0.0637
17.2,1.9181,0.04829,0.04295,-0.0643
17.3,1.9182,0.04936,0.04407,-0.0649
17.4,1.9179,0.0505,0.04525,-0.0657
17.5,1.9174,0.0517,0.0465,-0.0665
17.6,1.9166,0.05298,0.04786,-0.0676
17.7,1.9165,0.0542,0.04914,-0.0687
17.8,1.9164,0.05545,0.05045,-0.0699
17.9,1.9161,0.05678,0.05183,-0.0712
18,1.9157,0.05816,0.05327,-0.0727
18.1,1.9151,0.05963,0.05481,-0.0743
18.2,1.9144,0.06119,0.05643,-0.0761
18.4,1.9083,0.06533,0.06072,-0.0812
18.5,1.9071,0.0672,0.06266,-0.0835
18.6,1.9054,0.06925,0.06479,-0.0861
18.7,1.9036,0.07141,0.06705,-0.0889
18.8,1.9011,0.07381,0.06953,-0.0919
18.9,1.8979,0.07643,0.07225,-0.0953
19,1.8942,0.07931,0.07523,-0.0989
19.1,1.8892,0.08262,0.07865,-0.103
19.2,1.883,0.08635,0.0825,-0.1075
19.3,1.8753,0.09065,0.08693,-0.1126
19.4,1.8652,0.09581,0.09224,-0.1185
19.5,1.8527,0.10186,0.09844,-0.125
19.6,1.8384,0.10835,0.1051,-0.1318
19.7,1.8231,0.1149,0.11182,-0.1386
19.8,1.8094,0.12076,0.11781,-0.1449
20,1.79,0.13,0.12726,-0.1551
20.1,1.78,0.1346,0.13197,-0.1603
20.2,1.7721,0.13856,0.13601,-0.1649
20.3,1.7628,0.14304,0.14058,-0.1701
20.4,1.7566,0.14665,0.14426,-0.1743
20.5,1.7495,0.15077,0.14845,-0.1789
20.6,1.7448,0.15417,0.15192,-0.1827
20.7,1.7386,0.15839,0.15621,-0.1871
20.8,1.7352,0.16169,0.15955,-0.1906
20.9,1.7305,0.16567,0.16361,-0.1946
21,1.7277,0.16893,0.16692,-0.1979
21.1,1.7263,0.17176,0.16979,-0.2007
21.2,1.7233,0.17533,0.17342,-0.2041
21.3,1.7211,0.17865,0.17678,-0.2073
21.6,1.7146,0.189,0.18724,-0.217
21.7,1.7141,0.19177,0.19004,-0.2196
21.8,1.7137,0.19449,0.19279,-0.2222
21.9,1.7131,0.19739,0.19572,-0.2249
22,1.711,0.20123,0.19961,-0.2283
22.1,1.7108,0.204,0.2024,-0.2308
22.2,1.7109,0.20667,0.20509,-0.2333
22.3,1.7109,0.20944,0.20789,-0.2359
22.4,1.7099,0.21285,0.21133,-0.2389
22.5,1.7094,0.21609,0.2146,-0.2418
22.6,1.7101,0.21862,0.21715,-0.2441
22.7,1.7112,0.22088,0.21943,-0.2463
22.8,1.7124,0.22307,0.22163,-0.2483
22.9,1.7137,0.22526,0.22384,-0.2504
23,1.7148,0.22756,0.22617,-0.2526
23.1,1.7151,0.23057,0.22921,-0.2552
23.2,1.7163,0.23292,0.23158,-0.2574
23.3,1.7177,0.23509,0.23377,-0.2595
23.4,1.7193,0.23718,0.23588,-0.2615
23.5,1.721,0.23919,0.2379,-0.2635
23.6,1.7226,0.24127,0.24,-0.2655
23.7,1.7243,0.24334,0.24208,-0.2675
23.8,1.7259,0.24544,0.24419,-0.2696
23.9,1.7275,0.24759,0.24636,-0.2716
24,1.7286,0.25025,0.24904,-0.274
24.1,1.7302,0.25246,0.25127,-0.2761
24.2,1.732,0.25448,0.2533,-0.2782
24.3,1.7339,0.25637,0.2552,-0.2801
24.4,1.7359,0.2582,0.25704,-0.2819
24.5,1.7379,0.25995,0.2588,-0.2838
24.6,1.7401,0.26162,0.26048,-0.2856
24.7,1.7422,0.26327,0.26213,-0.2874
24.8,1.7444,0.26476,0.26363,-0.2891
24.9,1.7467,0.26621,0.26508,-0.2907
25,1.7489,0.26763,0.26651,-0.2924
25.1,1.7514,0.26878,0.26766,-0.2939
25.2,1.7539,0.26984,0.26872,-0.2954
25.3,1.7564,0.2708,0.26967,-0.2968
25.4,1.759,0.27163,0.27048,-0.2982
25.5,1.7605,0.27401,0.27289,-0.3004
25.6,1.762,0.27651,0.27542,-0.3027
25.7,1.7632,0.27941,0.27836,-0.3053
25.8,1.7639,0.28334,0.28233,-0.3085
25.9,1.765,0.28676,0.28578,-0.3114
26,1.7665,0.2896,0.28865,-0.3139
26.1,1.7675,0.29378,0.29287,-0.3173
26.2,1.7673,0.30207,0.30121,-0.323
26.3,1.7688,0.30732,0.30647,-0.3268
26.4,1.771,0.30968,0.30884,-0.329
26.5,1.7733,0.31175,0.31091,-0.331
26.6,1.7756,0.31354,0.31271,-0.3329
26.7,1.7778,0.31525,0.31442,-0.3348
26.8,1.7801,0.31702,0.31619,-0.3367
26.9,1.7824,0.31853,0.31771,-0.3384
27,1.7846,0.31998,0.31916,-0.3402
27.1,1.7869,0.32156,0.32075,-0.342
27.2,1.7891,0.32297,0.32217,-0.3437
27.3,1.7913,0.32454,0.32375,-0.3456
27.4,1.7935,0.32587,0.32508,-0.3473
27.7,1.7999,0.32914,0.32836,-0.3521
27.8,1.8019,0.33024,0.32946,-0.3538
27.9,1.804,0.33139,0.33062,-0.3554
28,1.806,0.33249,0.33172,-0.3571
28.1,1.8079,0.33356,0.33279,-0.3589

