airfoilName st15.dat
Re 	50000
M 	5.000000e-02
N 	4.500000e+00
VACC 	0 VACCflag 1
XTR 	1.00 	1.00 XTRflag 0
alpha,cl,cd,cdp,cm
-29.1,-1.3938,0.462,0.45533,0.2521
-29,-1.3908,0.45973,0.45304,0.2502
-28.9,-1.3878,0.45745,0.45076,0.2484
-28.8,-1.3849,0.45519,0.44848,0.2465
-28.7,-1.3819,0.45292,0.4462,0.2447
-28.6,-1.3789,0.45066,0.44393,0.2429
-28.5,-1.3759,0.4487,0.44196,0.241
-28.4,-1.3729,0.44643,0.43966,0.2392
-28.3,-1.3698,0.44417,0.43739,0.2374
-28.2,-1.3667,0.44191,0.43512,0.2356
-28.1,-1.3636,0.43966,0.43286,0.2338
-28,-1.3605,0.43741,0.4306,0.232
-27.9,-1.3574,0.43516,0.42835,0.2302
-27.8,-1.3542,0.43292,0.42609,0.2284
-27.7,-1.3511,0.43068,0.42384,0.2266
-27.6,-1.3479,0.42844,0.4216,0.2248
-27.5,-1.3447,0.42621,0.41936,0.223
-27.4,-1.3415,0.42398,0.41711,0.2213
-27.3,-1.3382,0.42176,0.41488,0.2195
-27.2,-1.335,0.41954,0.41266,0.2177
-27.1,-1.3317,0.41732,0.41043,0.216
-27,-1.3284,0.41512,0.40821,0.2142
-26.9,-1.3251,0.4129,0.40599,0.2124
-26.8,-1.3218,0.4107,0.40378,0.2107
-26.7,-1.3185,0.4085,0.40157,0.2089
-26.6,-1.3151,0.40632,0.39938,0.2072
-26.5,-1.3118,0.40413,0.39718,0.2055
-26.4,-1.3084,0.40194,0.39498,0.2037
-26.3,-1.305,0.39976,0.39279,0.202
-26.2,-1.3015,0.39757,0.3906,0.2003
-26.1,-1.2981,0.3954,0.38839,0.1985
-26,-1.2946,0.39323,0.38622,0.1968
-25.9,-1.2911,0.39107,0.38404,0.1951
-25.8,-1.2876,0.38891,0.38188,0.1934
-25.7,-1.2841,0.38675,0.37971,0.1917
-25.6,-1.2805,0.3846,0.37754,0.19
-25.5,-1.277,0.38246,0.3754,0.1882
-25.4,-1.2734,0.38031,0.37325,0.1865
-25.3,-1.2698,0.37818,0.3711,0.1848
-25.2,-1.2661,0.37604,0.36896,0.1831
-25.1,-1.2625,0.37392,0.36682,0.1814
-25,-1.2588,0.37181,0.36471,0.1797
-24.9,-1.2551,0.3697,0.36259,0.178
-24.8,-1.2514,0.36758,0.36046,0.1763
-24.7,-1.2476,0.36547,0.35835,0.1746
-24.6,-1.2439,0.36337,0.35624,0.1729
-24.5,-1.2401,0.36126,0.35412,0.1713
-24.4,-1.2362,0.35916,0.35202,0.1696
-24.3,-1.2323,0.35706,0.3499,0.1679
-24.2,-1.2285,0.35497,0.34781,0.1662
-24.1,-1.2245,0.35286,0.34569,0.1645
-24,-1.2206,0.35076,0.34359,0.1628
-23.9,-1.2166,0.34866,0.34148,0.1611
-23.8,-1.2126,0.34656,0.33937,0.1593
-23.7,-1.2085,0.34445,0.33722,0.1576
-23.6,-1.2044,0.34233,0.33509,0.1559
-23.5,-1.2003,0.3402,0.33296,0.1542
-23.4,-1.1961,0.33807,0.33082,0.1525
-23.3,-1.1919,0.33596,0.32871,0.1508
-23.2,-1.1875,0.33372,0.32646,0.149
-23.1,-1.1831,0.33149,0.32423,0.1472
-23,-1.1785,0.32926,0.32198,0.1454
-22.3,-1.1451,0.31318,0.30594,0.1324
-22.2,-1.1415,0.31122,0.30397,0.131
-22.1,-1.1379,0.30927,0.30202,0.1297
-22,-1.1343,0.30733,0.30007,0.1283
-21.9,-1.1306,0.3054,0.29814,0.1269
-21.8,-1.1269,0.30348,0.2962,0.1255
-21.7,-1.1232,0.30156,0.29428,0.1241
-21.6,-1.1195,0.29966,0.29237,0.1227
-21.5,-1.1158,0.29776,0.29047,0.1214
-21.4,-1.112,0.29587,0.28857,0.12
-21.3,-1.1083,0.29398,0.28668,0.1187
-21.2,-1.1045,0.2921,0.28479,0.1173
-21.1,-1.1007,0.29023,0.28288,0.1159
-21,-1.0969,0.28836,0.28101,0.1146
-20.9,-1.0931,0.2865,0.27914,0.1133
-20.8,-1.0893,0.28464,0.27728,0.1119
-20.7,-1.0854,0.28279,0.27542,0.1106
-20.6,-1.0816,0.28094,0.27357,0.1093
-20.5,-1.0777,0.2791,0.27172,0.1079
-20.4,-1.0738,0.27726,0.26988,0.1066
-20.3,-1.0699,0.27543,0.26804,0.1053
-20.2,-1.066,0.2736,0.26621,0.104
-20.1,-1.0621,0.27178,0.26438,0.1027
-20,-1.0582,0.26996,0.26255,0.1014
-19.9,-1.0542,0.26814,0.26073,0.1001
-19.8,-1.0502,0.26633,0.25892,0.0988
-19.7,-1.0462,0.26452,0.2571,0.0975
-19.6,-1.0422,0.26271,0.25529,0.0962
-19.5,-1.0382,0.26091,0.25349,0.0949
-19.4,-1.0342,0.25911,0.25168,0.0936
-19.3,-1.0302,0.25732,0.24988,0.0924
-19.2,-1.0261,0.25553,0.24809,0.0911
-19.1,-1.0221,0.25374,0.2463,0.0898
-19,-1.018,0.25196,0.24451,0.0886
-18.9,-1.0139,0.25018,0.24273,0.0873
-18.8,-1.0098,0.24841,0.24096,0.086
-18.7,-1.0057,0.24663,0.23917,0.0848
-18.6,-1.0015,0.24486,0.23739,0.0835
-18.5,-0.9974,0.24308,0.23558,0.0823
-18.4,-0.9932,0.24132,0.23382,0.081
-18.3,-0.989,0.23956,0.23205,0.0798
-18.2,-0.9848,0.2378,0.23029,0.0786
-18.1,-0.9806,0.23604,0.22853,0.0773
-18,-0.9764,0.23429,0.22677,0.0761
-17.9,-0.9722,0.23255,0.22503,0.0749
-17.8,-0.9679,0.2308,0.22328,0.0736
-17.7,-0.9636,0.22905,0.22153,0.0724
-17.6,-0.9593,0.22731,0.21978,0.0712
-17.5,-0.955,0.22556,0.21803,0.0699
-17.4,-0.9506,0.22382,0.21629,0.0687
-17.3,-0.9462,0.22208,0.21454,0.0675
-17.2,-0.9418,0.22034,0.2128,0.0662
-17.1,-0.9374,0.21859,0.21105,0.065
-17,-0.9329,0.21684,0.2093,0.0638
-16.9,-0.9284,0.21509,0.20755,0.0625
-16.8,-0.9238,0.21334,0.20579,0.0613
-16.7,-0.9192,0.21158,0.20403,0.06
-16.3,-0.89,0.20387,0.19639,0.0509
-16.2,-0.8864,0.20215,0.19467,0.05
-16.1,-0.8826,0.20046,0.19298,0.0491
-16,-0.8789,0.19879,0.19131,0.0481
-15.9,-0.8751,0.19714,0.18966,0.0472
-15.8,-0.8712,0.19551,0.18802,0.0463
-15.7,-0.8673,0.19389,0.1864,0.0453
-15.6,-0.8633,0.19228,0.18476,0.0444
-15.5,-0.8593,0.19069,0.18317,0.0434
-15.4,-0.8553,0.18911,0.18159,0.0425
-15.3,-0.8512,0.18755,0.18002,0.0415
-15.2,-0.8471,0.18599,0.17847,0.0405
-15.1,-0.8429,0.18444,0.17692,0.0395
-15,-0.8388,0.1829,0.17538,0.0386
-14.9,-0.8346,0.18138,0.17386,0.0376
-14.8,-0.8303,0.17986,0.17234,0.0366
-14.7,-0.8261,0.17835,0.17083,0.0357
-14.6,-0.8218,0.17685,0.16933,0.0347
-14.5,-0.8175,0.17535,0.16783,0.0337
-14.4,-0.8132,0.17386,0.16635,0.0328
-14.3,-0.8089,0.17238,0.16487,0.0318
-14.2,-0.8045,0.17091,0.1634,0.0308
-14.1,-0.8001,0.16945,0.16194,0.0298
-14,-0.7957,0.16799,0.16048,0.0289
-13.9,-0.7913,0.16653,0.15902,0.0279
-13.8,-0.7868,0.16508,0.15758,0.0269
-13.7,-0.7823,0.16363,0.15613,0.026
-13.6,-0.7778,0.1622,0.1547,0.025
-13.5,-0.7732,0.16076,0.15327,0.024
-13.4,-0.7687,0.15934,0.15185,0.0231
-13.3,-0.7641,0.15791,0.15043,0.0221
-13.2,-0.7595,0.1565,0.14902,0.0211
-13.1,-0.7549,0.15509,0.14761,0.0202
-13,-0.7502,0.15368,0.14617,0.0192
-12.9,-0.7455,0.15228,0.14477,0.0182
-12.8,-0.7408,0.15088,0.14338,0.0172
-12.7,-0.7361,0.14949,0.14199,0.0162
-12.6,-0.7313,0.1481,0.14061,0.0153
-12.5,-0.7265,0.14671,0.13923,0.0143
-12.4,-0.7217,0.14533,0.13785,0.0133
-12.3,-0.7168,0.14395,0.13648,0.0123
-12.2,-0.7119,0.14258,0.13512,0.0113
-12.1,-0.707,0.14121,0.13375,0.0103
-12,-0.702,0.13984,0.13239,0.0092
-11.9,-0.697,0.13848,0.13103,0.0082
-11.8,-0.6919,0.13712,0.12968,0.0071
-11.7,-0.6868,0.13575,0.12832,0.0061
-11.6,-0.6816,0.13439,0.12697,0.005
-11.4,-0.6708,0.13164,0.12424,0.0026
-11.3,-0.6652,0.13026,0.12286,0.0013
-11,-0.6429,0.12578,0.1185,-0.0056
-10.9,-0.6391,0.12452,0.11724,-0.0061
-10.8,-0.6354,0.12328,0.11602,-0.0066
-10.7,-0.6315,0.12207,0.11482,-0.0071
-10.6,-0.6276,0.12089,0.11364,-0.0076
-10.5,-0.6238,0.11972,0.11249,-0.0082
-10.4,-0.6199,0.11858,0.11137,-0.0087
-10.3,-0.6161,0.11746,0.11026,-0.0093
-10.2,-0.6123,0.11636,0.10917,-0.0098
-10.1,-0.6086,0.11528,0.1081,-0.0103
-10,-0.6049,0.11421,0.10702,-0.0108
-9.8,-0.5976,0.11253,0.10538,-0.0118
-9.7,-0.5938,0.11149,0.10436,-0.0124
-9.6,-0.5899,0.11044,0.10332,-0.013
-9.5,-0.5856,0.10936,0.10226,-0.0137
-9.4,-0.5812,0.10827,0.10119,-0.0144
-9.3,-0.5767,0.10719,0.10013,-0.0151
-9.2,-0.5723,0.10612,0.09907,-0.0158
-9.1,-0.5679,0.10505,0.09802,-0.0165
-9,-0.5635,0.10399,0.09698,-0.0172
-8.9,-0.5592,0.10293,0.09593,-0.0179
-8.8,-0.5547,0.10187,0.09489,-0.0186
-8.7,-0.5503,0.1008,0.09384,-0.0193
-8.6,-0.5458,0.09973,0.09278,-0.02
-8.5,-0.5412,0.09865,0.09172,-0.0208
-8.3,-0.5316,0.09643,0.08954,-0.0224
-8.2,-0.5267,0.09532,0.08844,-0.0232
-8.1,-0.5216,0.09416,0.0873,-0.0241
-7.7,-0.4831,0.08679,0.07997,-0.0353
-7.6,-0.4799,0.08584,0.07903,-0.0352
-7.5,-0.4764,0.08489,0.0781,-0.0352
-7.4,-0.4727,0.08394,0.07717,-0.0352
-7.3,-0.4689,0.083,0.07624,-0.0353
-7.2,-0.4648,0.08205,0.07531,-0.0355
-7.1,-0.4605,0.0811,0.07437,-0.0357
-7,-0.456,0.08015,0.07339,-0.0359
-6.9,-0.4513,0.07918,0.07244,-0.0362
-6.8,-0.4463,0.07821,0.07147,-0.0365
-6.7,-0.4412,0.07722,0.07049,-0.0368
-6.6,-0.4358,0.07622,0.06949,-0.0373
-6.5,-0.4301,0.0752,0.06847,-0.0377
-6.4,-0.4242,0.07416,0.06744,-0.0382
-6,-0.3963,0.0697,0.06294,-0.0412
-5.7,-0.3363,0.0604,0.05327,-0.0551
-5.6,-0.3244,0.05955,0.05241,-0.0562
-5.5,-0.3129,0.05869,0.05154,-0.0573
-5.4,-0.3009,0.05778,0.05061,-0.0585
-5.3,-0.2882,0.05683,0.04962,-0.0598
-5.2,-0.2736,0.05576,0.04851,-0.0616
-5.1,-0.2596,0.05466,0.04736,-0.0632
-5,-0.2452,0.05347,0.04607,-0.065
-4.9,-0.2299,0.05214,0.04467,-0.0669
-4.7,-0.1701,0.04343,0.03509,-0.0791
-4.6,-0.1587,0.043,0.0347,-0.0797
-4.5,-0.1465,0.04256,0.03427,-0.0804
-4.4,-0.1337,0.04206,0.03375,-0.0813
-4.3,-0.1189,0.04144,0.0331,-0.0826
-4,-0.061,0.03556,0.02608,-0.0902
-3.9,-0.0485,0.0352,0.0258,-0.0908
-3.8,-0.0361,0.03488,0.02551,-0.0914
-3.7,-0.0232,0.03451,0.02514,-0.0921
-3.6,-0.0095,0.03405,0.02462,-0.0929
-3.5,0.0062,0.03341,0.02388,-0.0942
-3.4,0.0223,0.03248,0.02274,-0.0955
-3.3,0.0415,0.03102,0.02074,-0.0975
-3.2,0.0545,0.03073,0.02049,-0.0981
-3.1,0.0666,0.0304,0.02017,-0.0985
-3,0.0797,0.03001,0.01973,-0.0991
-2.9,0.094,0.02945,0.01903,-0.0999
-2.5,0.1535,0.02776,0.01687,-0.1034
-2.4,0.169,0.02722,0.01609,-0.1043
-2.2,0.196,0.02651,0.01524,-0.1053
-2.1,0.2084,0.02629,0.01503,-0.1057
-2,0.2221,0.02601,0.01466,-0.1063
-1.9,0.2376,0.02583,0.01429,-0.1072
-1.8,0.2516,0.02562,0.01412,-0.1079
-1.7,0.2662,0.02539,0.01384,-0.1086
-1.6,0.2819,0.0251,0.0133,-0.1094
-1.5,0.298,0.02485,0.01311,-0.1105
-1.3,0.32,0.02471,0.01274,-0.1105
-1.2,0.3333,0.02449,0.01265,-0.1111
-1.1,0.3484,0.02428,0.01246,-0.1118
-1,0.3634,0.0241,0.01216,-0.1126
-0.9,0.3783,0.02391,0.01201,-0.1134
-0.8,0.3907,0.0239,0.01194,-0.1136
-0.7,0.4019,0.02375,0.01181,-0.1137
-0.6,0.415,0.02358,0.01166,-0.1141
-0.5,0.4293,0.02346,0.01146,-0.1147
-0.4,0.4448,0.02325,0.01132,-0.1155
-0.3,0.4599,0.02319,0.01125,-0.1164
-0.2,0.4751,0.02299,0.0111,-0.1172
-0.1,0.4826,0.02296,0.01101,-0.1165
0,0.4959,0.02275,0.01091,-0.1169
0.1,0.5102,0.02263,0.01077,-0.1175
0.2,0.5247,0.02247,0.01071,-0.1182
0.3,0.5393,0.02225,0.01058,-0.119
0.4,0.5485,0.02214,0.01052,-0.1185
0.5,0.5607,0.02199,0.01045,-0.1188
0.6,0.5741,0.02174,0.0104,-0.1193
0.7,0.589,0.0215,0.01029,-0.12
0.8,0.6037,0.02128,0.01021,-0.1207
0.9,0.6118,0.02118,0.01025,-0.1202
1,0.6238,0.02096,0.01024,-0.1205
1.1,0.6287,0.02012,0.00976,-0.1176
1.2,0.6434,0.02015,0.0097,-0.1181
1.3,0.6511,0.02027,0.00976,-0.1174
1.4,0.6636,0.02029,0.00972,-0.1174
1.5,0.6776,0.02032,0.00969,-0.1178
1.6,0.6863,0.0203,0.00961,-0.1169
1.8,0.7087,0.02026,0.00946,-0.1162
1.9,0.7223,0.02023,0.00939,-0.1163
2,0.7306,0.02021,0.00933,-0.1153
2.1,0.7449,0.02015,0.00923,-0.1155
2.2,0.7526,0.02027,0.00935,-0.1148
2.4,0.7744,0.02014,0.00915,-0.1136
2.5,0.784,0.02021,0.00921,-0.1132
2.6,0.7953,0.02024,0.00923,-0.113
2.7,0.8069,0.02026,0.00923,-0.1129
2.8,0.8177,0.0202,0.00915,-0.1123
2.9,0.8263,0.0203,0.00926,-0.1117
3,0.8394,0.02027,0.00922,-0.1117
3.1,0.8481,0.02037,0.00933,-0.1111
3.3,0.8704,0.02033,0.0093,-0.1103
3.4,0.8805,0.02039,0.00937,-0.11
3.5,0.8909,0.02044,0.00943,-0.1096
3.6,0.9035,0.02042,0.0094,-0.1095
3.7,0.9144,0.02046,0.00945,-0.1092
3.8,0.9254,0.02042,0.00938,-0.1086
3.9,0.9376,0.02041,0.00937,-0.1084
4,0.9492,0.02043,0.00938,-0.1081
4.1,0.9613,0.02044,0.00938,-0.1079
4.2,0.9737,0.02045,0.00937,-0.1077
4.3,0.9864,0.02042,0.00926,-0.1074
4.4,0.9983,0.02048,0.00932,-0.1071
4.5,1.0099,0.02056,0.00935,-0.1068
4.6,1.0211,0.02066,0.00939,-0.1065
4.7,1.0321,0.02079,0.00945,-0.1062
4.8,1.0425,0.02094,0.00955,-0.1058
4.9,1.052,0.02115,0.00959,-0.1051
5,1.0616,0.02135,0.00973,-0.1046
5.1,1.071,0.02158,0.00988,-0.1041
5.2,1.0802,0.02182,0.01004,-0.1036
5.3,1.0892,0.02208,0.01023,-0.1031
5.4,1.098,0.02235,0.01043,-0.1026
5.5,1.1052,0.02272,0.01062,-0.1018
5.6,1.1138,0.02302,0.0109,-0.1013
5.7,1.1224,0.02333,0.01115,-0.1009
5.8,1.1309,0.02365,0.01142,-0.1004
5.9,1.1392,0.024,0.01168,-0.0999
6,1.1479,0.02432,0.01198,-0.0995
6.1,1.1563,0.02467,0.01228,-0.099
6.3,1.1719,0.02544,0.01287,-0.098
6.4,1.1803,0.02582,0.01319,-0.0976
6.5,1.1891,0.02617,0.01353,-0.0972
6.6,1.1977,0.02654,0.01387,-0.0969
6.7,1.2061,0.02695,0.0142,-0.0965
6.8,1.2152,0.0273,0.01462,-0.0962
6.9,1.2241,0.02769,0.01499,-0.0959
7,1.2313,0.02813,0.01534,-0.0954
7.1,1.2402,0.02851,0.01572,-0.0951
7.2,1.249,0.02894,0.01611,-0.0948
7.3,1.258,0.02934,0.01649,-0.0945
7.4,1.2672,0.02971,0.01692,-0.0942
7.5,1.2762,0.03012,0.01734,-0.0939
7.6,1.2852,0.03058,0.01774,-0.0937
7.7,1.2943,0.03097,0.01817,-0.0934
7.8,1.3012,0.03133,0.01855,-0.0929
7.9,1.3102,0.03178,0.01896,-0.0927
8,1.3191,0.03218,0.01944,-0.0924
8.1,1.328,0.03257,0.01993,-0.0921
8.2,1.3368,0.03299,0.02039,-0.0918
8.3,1.3458,0.03344,0.02082,-0.0915
8.4,1.3549,0.03391,0.02124,-0.0913
8.5,1.3633,0.03431,0.0218,-0.091
8.6,1.3692,0.03462,0.02214,-0.0903
8.7,1.378,0.03507,0.02257,-0.0901
8.8,1.3865,0.03552,0.02305,-0.0897
8.9,1.3946,0.03595,0.02363,-0.0894
9,1.4029,0.03641,0.02416,-0.089
9.1,1.4114,0.03687,0.02464,-0.0887
9.2,1.4201,0.03734,0.02514,-0.0885
9.3,1.4286,0.03783,0.02562,-0.0882
9.5,1.4401,0.03858,0.02664,-0.0869
9.6,1.4483,0.03904,0.02711,-0.0865
9.7,1.4569,0.03953,0.02754,-0.0863
9.8,1.4635,0.04006,0.02824,-0.0857
9.9,1.4705,0.0406,0.02893,-0.0853
10,1.4779,0.04112,0.02954,-0.0848
10.1,1.4854,0.04163,0.03009,-0.0845
10.2,1.4934,0.04212,0.03059,-0.0841
10.3,1.5021,0.04263,0.03104,-0.0839
10.4,1.5018,0.04301,0.03169,-0.0826
10.5,1.5083,0.04357,0.03235,-0.0821
10.7,1.5221,0.04461,0.03351,-0.0812
10.8,1.5297,0.04511,0.03398,-0.0808
10.9,1.5357,0.04573,0.03465,-0.0803
11,1.5399,0.04647,0.03563,-0.0796
11.1,1.545,0.04716,0.03647,-0.079
11.2,1.5504,0.0478,0.03721,-0.0784
11.3,1.5563,0.0484,0.03788,-0.0779
11.4,1.5626,0.04897,0.03847,-0.0774
11.6,1.5662,0.04988,0.03949,-0.0755
11.7,1.569,0.0507,0.04049,-0.0747
11.8,1.5724,0.05144,0.04138,-0.074
11.9,1.5761,0.05214,0.04216,-0.0733
12,1.5802,0.05278,0.04287,-0.0726
12.1,1.5849,0.05337,0.04349,-0.072
12.2,1.5902,0.05392,0.04404,-0.0715
12.3,1.5971,0.05445,0.04453,-0.0712
12.4,1.5976,0.0553,0.0455,-0.0702
12.5,1.5946,0.05635,0.0468,-0.0689
12.6,1.593,0.05737,0.04801,-0.0678
12.7,1.5924,0.05834,0.04913,-0.0669
12.8,1.5924,0.05926,0.05017,-0.066
13.1,1.593,0.06077,0.05179,-0.0636
13.2,1.5979,0.06133,0.05233,-0.0632
13.3,1.6045,0.06187,0.05273,-0.0629
13.4,1.5969,0.06332,0.05446,-0.062
13.5,1.5906,0.06478,0.05614,-0.0613
13.6,1.5852,0.06621,0.05777,-0.0608
13.7,1.5806,0.06762,0.05934,-0.0605
13.8,1.5765,0.06899,0.06086,-0.0602
13.9,1.573,0.07034,0.06233,-0.0601
14,1.5702,0.07163,0.06374,-0.06
14.1,1.5681,0.07287,0.06507,-0.06
14.2,1.5669,0.07404,0.06631,-0.0601
14.3,1.5668,0.0751,0.06743,-0.0601
14.4,1.5681,0.07602,0.06839,-0.0601
14.5,1.5717,0.07672,0.0691,-0.06
14.6,1.5789,0.07711,0.06945,-0.0596
14.7,1.5896,0.07729,0.06945,-0.0589
14.8,1.5771,0.07961,0.07201,-0.06
15.7,1.4697,0.11447,0.10835,-0.1029
15.8,1.4731,0.11532,0.10923,-0.1035
15.9,1.4784,0.11533,0.10927,-0.1029
16,1.4854,0.11468,0.10863,-0.1012
16.1,1.4947,0.11326,0.10719,-0.0983
16.2,1.5084,0.11059,0.10447,-0.0931
16.3,1.4469,0.14412,0.13817,-0.137
16.4,1.4492,0.14589,0.13997,-0.1386
16.5,1.4521,0.14712,0.14123,-0.1397
16.6,1.4555,0.148,0.14214,-0.1405
16.7,1.4591,0.14863,0.14281,-0.1409
16.8,1.463,0.14905,0.14327,-0.1412
16.9,1.4671,0.14931,0.14356,-0.1412
17,1.4714,0.14939,0.14368,-0.141
17.1,1.4759,0.1493,0.14363,-0.1405
17.2,1.4807,0.14902,0.14338,-0.1398
17.5,1.4706,0.1696,0.16389,-0.1629
17.6,1.474,0.17039,0.16471,-0.1635
17.7,1.4774,0.17101,0.16537,-0.164
17.8,1.481,0.17151,0.16591,-0.1644
17.9,1.4846,0.17186,0.1663,-0.1647
18,1.4883,0.1721,0.16657,-0.1648
18.1,1.492,0.1722,0.16672,-0.1648
18.2,1.4959,0.1722,0.16675,-0.1646
18.8,1.5051,0.19225,0.18681,-0.1859
18.9,1.5083,0.1928,0.1874,-0.1864
19,1.5115,0.19326,0.18788,-0.1868
19.1,1.5148,0.1936,0.18826,-0.1871
19.2,1.518,0.19386,0.1886,-0.1873
19.3,1.5212,0.19411,0.18881,-0.1875
19.9,1.5364,0.21295,0.20771,-0.2073
20,1.5393,0.21364,0.20843,-0.208
20.1,1.5423,0.21423,0.20905,-0.2087
20.2,1.5452,0.21474,0.2096,-0.2092
20.3,1.5481,0.21517,0.21006,-0.2097
20.4,1.5509,0.21553,0.21045,-0.2101
20.8,1.5642,0.23165,0.22647,-0.2263
20.9,1.5671,0.23269,0.22755,-0.2275
21,1.57,0.23364,0.22852,-0.2286
21.1,1.5729,0.23452,0.22943,-0.2296
21.2,1.5757,0.23531,0.23024,-0.2305
21.3,1.5785,0.23601,0.23097,-0.2314
21.4,1.5812,0.23669,0.23168,-0.2322
21.5,1.5838,0.23729,0.23231,-0.233
21.6,1.5864,0.23783,0.23288,-0.2337
22.2,1.6084,0.25709,0.25207,-0.2511
22.4,1.6137,0.25803,0.25307,-0.2535
22.5,1.6164,0.25899,0.25405,-0.2547
22.6,1.6191,0.25988,0.25497,-0.2558
22.7,1.6217,0.26072,0.25583,-0.2569
22.8,1.6242,0.26152,0.25666,-0.258
22.9,1.6266,0.26225,0.25741,-0.2589
23.5,1.65,0.28094,0.27607,-0.2751
23.6,1.653,0.28245,0.2776,-0.2766
23.7,1.6559,0.28389,0.27906,-0.2782
23.8,1.6587,0.28527,0.28047,-0.2797
23.9,1.6615,0.2866,0.28181,-0.2812
24,1.6642,0.28787,0.28311,-0.2826
24.1,1.6669,0.28908,0.28434,-0.284
24.2,1.6695,0.29026,0.28554,-0.2854
24.3,1.6721,0.2914,0.28671,-0.2868
24.4,1.6746,0.2925,0.28783,-0.2881
24.5,1.677,0.29352,0.28887,-0.2894
24.6,1.6794,0.29453,0.28991,-0.2907
24.7,1.6817,0.29552,0.29092,-0.292
24.8,1.684,0.29645,0.29188,-0.2932
25.3,1.7055,0.31343,0.30876,-0.3079
25.4,1.7084,0.31504,0.31039,-0.3096
25.5,1.7111,0.3166,0.31197,-0.3113
25.6,1.7139,0.31811,0.3135,-0.3129
25.7,1.7165,0.31959,0.31499,-0.3145
25.8,1.7191,0.32103,0.31646,-0.3162
25.9,1.7217,0.32244,0.31789,-0.3178
26,1.7242,0.32382,0.31928,-0.3194
26.1,1.7267,0.32514,0.32062,-0.321
26.2,1.7291,0.32643,0.32194,-0.3225
26.3,1.7315,0.32772,0.32325,-0.3241
26.4,1.7338,0.32895,0.3245,-0.3256
26.5,1.7361,0.33016,0.32578,-0.3271
26.6,1.7383,0.33134,0.32698,-0.3286
26.7,1.7404,0.33247,0.32813,-0.3301

