airfoilName st17.dat
Re 	4.100000e+05
M 	5.000000e-02
N 	4.500000e+00
VACC 	0 VACCflag 1
XTR 	1.00 	1.00 XTRflag 0
alpha,cl,cd,cdp,cm
-6.4,-0.1296,0.01894,0.01462,-0.1285
-6.3,-0.1159,0.01766,0.01311,-0.1297
-6.2,-0.1028,0.01679,0.01206,-0.1306
-6.1,-0.0898,0.0161,0.01121,-0.1313
-6,-0.077,0.01556,0.01053,-0.1318
-5.9,-0.0643,0.01513,0.00997,-0.1323
-5.8,-0.0517,0.0148,0.00954,-0.1327
-5.7,-0.0406,0.01417,0.00886,-0.133
-5.6,-0.0291,0.0138,0.00843,-0.1331
-5.4,-0.0057,0.01325,0.00777,-0.1334
-5.3,0.0064,0.01302,0.00749,-0.1337
-5.2,0.0187,0.01278,0.0072,-0.1339
-5.1,0.0309,0.01255,0.00691,-0.1342
-5,0.0423,0.01234,0.00665,-0.1342
-4.9,0.0534,0.01213,0.00639,-0.1342
-4.8,0.065,0.01193,0.00613,-0.1343
-4.7,0.0768,0.01173,0.00587,-0.1344
-4.6,0.0886,0.01156,0.00563,-0.1345
-4.5,0.1005,0.01137,0.00541,-0.1346
-4.4,0.1125,0.01115,0.00515,-0.1348
-4.3,0.124,0.011,0.00499,-0.1348
-4.2,0.1351,0.01088,0.00483,-0.1348
-4.1,0.1466,0.01076,0.00469,-0.1348
-4,0.1582,0.01064,0.00454,-0.1348
-3.9,0.1699,0.01052,0.00438,-0.1349
-3.8,0.1816,0.0104,0.00422,-0.1349
-3.7,0.1933,0.0103,0.00407,-0.135
-3.6,0.2043,0.01023,0.00405,-0.1349
-3.5,0.2157,0.01014,0.00394,-0.135
-3.4,0.2273,0.01005,0.00382,-0.135
-3.3,0.2387,0.00995,0.0037,-0.135
-3.2,0.2504,0.00986,0.00357,-0.135
-3,0.2732,0.0097,0.00339,-0.135
-2.9,0.2846,0.00962,0.0033,-0.135
-2.8,0.2961,0.00954,0.00321,-0.135
-2.7,0.3075,0.00947,0.00311,-0.135
-2.6,0.319,0.00941,0.00301,-0.135
-2.5,0.3306,0.00935,0.00293,-0.135
-2.4,0.3419,0.00926,0.00284,-0.135
-2.3,0.3534,0.0092,0.00278,-0.135
-2.2,0.3648,0.00916,0.00276,-0.135
-2.1,0.3763,0.00911,0.00267,-0.135
-2,0.3876,0.00906,0.00259,-0.1349
-1.9,0.3991,0.00901,0.00254,-0.1349
-1.8,0.4105,0.00895,0.00249,-0.1349
-1.7,0.4216,0.00891,0.00242,-0.1348
-1.6,0.4328,0.00887,0.00237,-0.1347
-1.5,0.4439,0.00886,0.00233,-0.1346
-1.4,0.4552,0.00881,0.00227,-0.1345
-1.3,0.4663,0.00878,0.00223,-0.1344
-1.2,0.4776,0.00875,0.00219,-0.1344
-1.1,0.489,0.00873,0.00215,-0.1343
-1,0.5004,0.00871,0.00211,-0.1343
-0.9,0.5114,0.00869,0.0021,-0.1342
-0.8,0.5224,0.00868,0.00206,-0.1341
-0.7,0.5338,0.00866,0.00203,-0.1341
-0.6,0.5452,0.00865,0.002,-0.134
-0.5,0.5562,0.00865,0.00197,-0.1339
-0.4,0.5675,0.00863,0.00196,-0.1339
-0.3,0.5786,0.00863,0.00194,-0.1338
-0.2,0.5899,0.00864,0.00194,-0.1338
-0.1,0.6012,0.00862,0.00192,-0.1337
0,0.6121,0.00864,0.00191,-0.1336
0.1,0.6231,0.00865,0.0019,-0.1335
0.2,0.6341,0.00867,0.00188,-0.1334
0.3,0.6453,0.00868,0.00188,-0.1333
0.4,0.6564,0.00869,0.00188,-0.1333
0.5,0.6669,0.00875,0.00189,-0.133
0.6,0.6779,0.00877,0.00188,-0.1329
0.7,0.689,0.00879,0.00189,-0.1329
0.8,0.7,0.00881,0.0019,-0.1328
0.9,0.7107,0.00887,0.00191,-0.1326
1,0.7216,0.00891,0.00192,-0.1325
1.1,0.7313,0.00904,0.00194,-0.1321
1.2,0.742,0.0091,0.00197,-0.132
1.3,0.7522,0.0092,0.002,-0.1317
1.4,0.7623,0.00931,0.00203,-0.1315
1.5,0.7729,0.00939,0.00206,-0.1313
1.6,0.7834,0.00947,0.0021,-0.1312
1.7,0.7929,0.00965,0.00216,-0.1308
1.8,0.8033,0.00974,0.00221,-0.1307
1.9,0.8136,0.00984,0.00227,-0.1305
2,0.8239,0.00994,0.00233,-0.1303
2.1,0.8341,0.01006,0.0024,-0.1302
2.2,0.8443,0.01017,0.00246,-0.13
2.3,0.8544,0.0103,0.00252,-0.1298
2.4,0.8631,0.01057,0.00264,-0.1294
2.5,0.873,0.01072,0.00272,-0.1292
2.6,0.8828,0.01086,0.00281,-0.129
2.7,0.8925,0.01102,0.00291,-0.1288
2.8,0.9021,0.01118,0.00303,-0.1286
2.9,0.9048,0.01003,0.00314,-0.127
3,0.9144,0.01027,0.00324,-0.1267
3.1,0.9231,0.01062,0.00341,-0.1264
3.2,0.9331,0.01079,0.0035,-0.1262
3.3,0.9435,0.01093,0.00358,-0.1261
3.4,0.9537,0.01108,0.0037,-0.1259
3.5,0.9642,0.01119,0.00378,-0.1258
3.6,0.9745,0.01133,0.00386,-0.1256
3.7,0.985,0.01144,0.00395,-0.1255
3.8,0.9954,0.01155,0.00404,-0.1254
3.9,1.0055,0.01171,0.00414,-0.1252
4,1.016,0.01182,0.00422,-0.1251
4.1,1.0263,0.01194,0.00431,-0.1249
4.2,1.0368,0.01205,0.00441,-0.1248
4.3,1.0472,0.01215,0.00449,-0.1247
4.4,1.0576,0.01226,0.00458,-0.1245
4.5,1.0677,0.01241,0.00468,-0.1244
4.6,1.0781,0.01251,0.00479,-0.1242
4.7,1.0884,0.01263,0.00488,-0.1241
4.8,1.0987,0.01275,0.00499,-0.1239
4.9,1.1091,0.01285,0.00508,-0.1238
5,1.1195,0.01295,0.00517,-0.1237
5.1,1.1297,0.01307,0.00527,-0.1235
5.2,1.1397,0.01322,0.00538,-0.1233
5.3,1.15,0.01332,0.00548,-0.1232
5.4,1.1602,0.01344,0.00559,-0.123
5.5,1.1702,0.01358,0.0057,-0.1228
5.6,1.1805,0.01369,0.00581,-0.1227
5.7,1.1907,0.0138,0.00592,-0.1225
5.8,1.2008,0.01392,0.00605,-0.1223
5.9,1.2107,0.01406,0.00617,-0.1221
6,1.2206,0.0142,0.00629,-0.1219
6.1,1.2307,0.01432,0.00641,-0.1218
6.2,1.2406,0.01445,0.00653,-0.1216
6.3,1.2503,0.01461,0.00666,-0.1213
6.4,1.2604,0.01472,0.00679,-0.1212
6.5,1.2704,0.01485,0.00692,-0.121
6.6,1.2802,0.01498,0.00705,-0.1208
6.7,1.2896,0.01517,0.00719,-0.1205
6.8,1.2995,0.01529,0.00732,-0.1203
6.9,1.3093,0.01543,0.00746,-0.1201
7,1.319,0.01557,0.00762,-0.1198
7.1,1.3285,0.01573,0.00777,-0.1196
7.2,1.338,0.01589,0.00793,-0.1193
7.3,1.3478,0.01603,0.00808,-0.1191
7.4,1.3574,0.01617,0.00822,-0.1189
7.5,1.3665,0.01636,0.00838,-0.1186
7.6,1.3758,0.01654,0.00856,-0.1183
7.7,1.3854,0.01669,0.00871,-0.118
7.8,1.3948,0.01684,0.00887,-0.1178
7.9,1.4041,0.017,0.00904,-0.1175
8,1.4133,0.01718,0.00921,-0.1172
8.1,1.4223,0.01737,0.0094,-0.1169
8.2,1.4315,0.01754,0.00961,-0.1165
8.3,1.4408,0.0177,0.00978,-0.1162
8.4,1.4497,0.01789,0.00996,-0.1159
8.5,1.4586,0.01808,0.01015,-0.1156
8.6,1.4674,0.01829,0.01035,-0.1152
8.7,1.4762,0.01848,0.01056,-0.1149
8.8,1.4852,0.01865,0.01076,-0.1145
8.9,1.4941,0.01883,0.01096,-0.1142
9,1.5028,0.01902,0.01116,-0.1138
9.1,1.5114,0.01923,0.01137,-0.1134
9.2,1.5199,0.01944,0.01159,-0.113
9.3,1.5282,0.01968,0.01183,-0.1126
9.4,1.5364,0.0199,0.01207,-0.1122
9.5,1.545,0.02009,0.01231,-0.1118
9.6,1.5534,0.02029,0.01254,-0.1114
9.7,1.5616,0.0205,0.01275,-0.1109
9.8,1.5697,0.02072,0.01299,-0.1105
9.9,1.5776,0.02096,0.01324,-0.11
10,1.5853,0.02121,0.0135,-0.1095
10.1,1.5927,0.02149,0.01379,-0.1089
10.2,1.6007,0.02168,0.01401,-0.1085
10.3,1.6085,0.02191,0.01427,-0.108
10.4,1.616,0.02214,0.01453,-0.1074
10.5,1.6234,0.02238,0.01479,-0.1069
10.6,1.6306,0.02263,0.01507,-0.1063
10.7,1.6375,0.02289,0.01535,-0.1056
10.8,1.6442,0.02317,0.01565,-0.105
10.9,1.6508,0.02345,0.0159,-0.1044
11,1.6575,0.02369,0.0162,-0.1037
11.1,1.664,0.02395,0.01649,-0.103
11.2,1.6702,0.02421,0.01678,-0.1023
11.3,1.6758,0.02448,0.01708,-0.1014
11.4,1.681,0.02476,0.01739,-0.1005
11.5,1.6861,0.02506,0.01771,-0.0996
11.6,1.6909,0.02538,0.01805,-0.0986
11.7,1.6954,0.02573,0.01842,-0.0977
11.8,1.7003,0.02604,0.01877,-0.0968
11.9,1.7055,0.02633,0.01911,-0.0959
12,1.7104,0.02664,0.01946,-0.095
12.1,1.7152,0.02695,0.01982,-0.0941
12.2,1.7198,0.02728,0.02019,-0.0932
12.3,1.7243,0.02763,0.02057,-0.0923
12.4,1.7286,0.02799,0.02096,-0.0914
12.5,1.7328,0.02836,0.02137,-0.0905
12.6,1.7367,0.02875,0.02179,-0.0896
12.7,1.7402,0.02917,0.02224,-0.0887
12.8,1.7433,0.02963,0.02272,-0.0877
12.9,1.7469,0.03004,0.02319,-0.0868
13,1.7507,0.03044,0.02366,-0.086
13.1,1.7543,0.03086,0.02413,-0.0851
13.2,1.7576,0.0313,0.02461,-0.0842
13.3,1.7607,0.03175,0.02512,-0.0834
13.4,1.7636,0.03222,0.02564,-0.0825
13.5,1.7664,0.03271,0.02617,-0.0816
13.6,1.7689,0.03322,0.02673,-0.0808
13.7,1.7713,0.03375,0.0273,-0.08
13.8,1.7733,0.03431,0.0279,-0.0791
13.9,1.7751,0.03491,0.02854,-0.0783
14,1.7765,0.03553,0.02921,-0.0775
14.1,1.7773,0.03621,0.02993,-0.0767
14.2,1.7791,0.03681,0.03059,-0.0759
14.3,1.7807,0.03744,0.03128,-0.0752
14.4,1.7819,0.0381,0.03201,-0.0746
14.5,1.7846,0.03864,0.03258,-0.074
14.6,1.7856,0.03935,0.03334,-0.0734
14.7,1.7863,0.04009,0.03413,-0.0728
14.8,1.7869,0.04086,0.03496,-0.0723
14.9,1.7873,0.04166,0.03581,-0.0718
15,1.7874,0.04249,0.0367,-0.0714
15.1,1.7872,0.04337,0.03763,-0.071
15.2,1.7868,0.04428,0.03861,-0.0706
15.3,1.7862,0.04525,0.03963,-0.0704
15.4,1.7852,0.04626,0.0407,-0.0702
15.5,1.7839,0.04734,0.04185,-0.0701
15.6,1.7831,0.04839,0.04298,-0.07
15.7,1.7822,0.04947,0.04413,-0.0701
15.8,1.7813,0.05058,0.04531,-0.0702
15.9,1.7801,0.05173,0.04654,-0.0705
16,1.7788,0.05293,0.04781,-0.0708
16.1,1.7772,0.05419,0.04915,-0.0713
16.2,1.7754,0.0555,0.05054,-0.0718
16.3,1.7735,0.05687,0.05199,-0.0726
16.4,1.7715,0.0583,0.0535,-0.0734
16.5,1.7694,0.0598,0.05507,-0.0744
16.6,1.767,0.06137,0.05673,-0.0757
16.7,1.7647,0.06303,0.05848,-0.077
16.8,1.7622,0.06478,0.06031,-0.0786
16.9,1.7595,0.06665,0.06227,-0.0805
17,1.7569,0.06863,0.06434,-0.0825
17.1,1.7539,0.07077,0.06658,-0.0849
17.2,1.7509,0.07306,0.06896,-0.0875
17.3,1.7474,0.07558,0.07158,-0.0905
17.4,1.7437,0.07835,0.07445,-0.0938
17.5,1.7395,0.08145,0.07767,-0.0976
17.6,1.7347,0.08496,0.08131,-0.102
17.7,1.7287,0.08909,0.08557,-0.107
17.8,1.7214,0.094,0.09062,-0.1128
17.9,1.712,0.09998,0.09676,-0.1195
18,1.7001,0.1071,0.10407,-0.1271
18.1,1.6872,0.11429,0.11142,-0.1344
18.2,1.6744,0.12115,0.11843,-0.1414
18.3,1.6628,0.12737,0.12476,-0.1477
18.4,1.6523,0.13309,0.13058,-0.1535
18.5,1.6434,0.13812,0.1357,-0.1587
18.6,1.6351,0.14293,0.1406,-0.1638
18.7,1.6273,0.14759,0.14531,-0.1687
18.8,1.6213,0.1516,0.14939,-0.1731
18.9,1.6153,0.15577,0.15363,-0.1776
19,1.6108,0.15949,0.15741,-0.1816
19.1,1.6063,0.16344,0.16142,-0.1857
19.2,1.6035,0.16684,0.16487,-0.1892
19.3,1.5996,0.17098,0.16906,-0.1932
19.4,1.5976,0.1744,0.17253,-0.1965
19.5,1.5957,0.1779,0.17607,-0.1998
19.6,1.5928,0.18212,0.18035,-0.2035
19.7,1.5915,0.18561,0.18388,-0.2067
19.8,1.5895,0.18963,0.18794,-0.2101
19.9,1.587,0.19424,0.1926,-0.2138
20,1.5858,0.1981,0.1965,-0.217
20.1,1.5828,0.20351,0.20197,-0.2212
20.2,1.5815,0.208,0.20648,-0.2246
20.3,1.58,0.21289,0.2114,-0.2283
20.4,1.5802,0.21658,0.21511,-0.2311
20.5,1.5819,0.21893,0.21747,-0.2332
20.6,1.5839,0.22099,0.21953,-0.2351
20.7,1.5868,0.22233,0.22087,-0.2366
20.8,1.5894,0.22379,0.22233,-0.2381
20.9,1.5924,0.22479,0.22333,-0.2394
21,1.5956,0.22557,0.22411,-0.2406
21.1,1.5987,0.2264,0.22493,-0.2419

