airfoilName st17.dat
Re 	5.100000e+05
M 	5.000000e-02
N 	4.500000e+00
VACC 	0 VACCflag 1
XTR 	1.00 	1.00 XTRflag 0
alpha,cl,cd,cdp,cm
-6.8,-0.1704,0.01843,0.01442,-0.1289
-6.7,-0.1573,0.0174,0.01323,-0.1299
-6.6,-0.1447,0.01667,0.01237,-0.1306
-6.5,-0.1321,0.01604,0.01163,-0.1312
-6.4,-0.1196,0.0155,0.01098,-0.1318
-6.3,-0.1075,0.01501,0.01039,-0.1322
-6.2,-0.0962,0.01458,0.00987,-0.1324
-6.1,-0.0846,0.01418,0.00938,-0.1326
-6,-0.0729,0.0138,0.00891,-0.1328
-5.9,-0.0611,0.01345,0.00847,-0.1331
-5.8,-0.0492,0.01313,0.00807,-0.1333
-5.7,-0.0373,0.01284,0.0077,-0.1335
-5.6,-0.0254,0.0126,0.00737,-0.1336
-5.5,-0.0143,0.01241,0.00713,-0.1336
-5.4,-0.0026,0.01201,0.00666,-0.1338
-5.3,0.0091,0.01171,0.00632,-0.134
-5.2,0.0207,0.01149,0.00606,-0.1341
-5.1,0.0323,0.0113,0.00583,-0.1341
-5,0.044,0.01114,0.00563,-0.1342
-4.9,0.0557,0.01098,0.00542,-0.1343
-4.8,0.0671,0.01083,0.00524,-0.1343
-4.7,0.0786,0.01068,0.00505,-0.1344
-4.6,0.09,0.01053,0.00486,-0.1344
-4.5,0.1016,0.01039,0.00468,-0.1344
-4.4,0.113,0.01027,0.0045,-0.1344
-4.3,0.1246,0.01016,0.00437,-0.1344
-4.2,0.1363,0.00998,0.00414,-0.1345
-4.1,0.1476,0.00985,0.00401,-0.1345
-4,0.1591,0.00975,0.00389,-0.1346
-3.9,0.1704,0.00966,0.00377,-0.1345
-3.8,0.1819,0.00957,0.00366,-0.1346
-3.7,0.1935,0.00948,0.00354,-0.1346
-3.6,0.205,0.0094,0.00342,-0.1346
-3.5,0.2163,0.00933,0.00332,-0.1345
-3.3,0.2392,0.00917,0.0032,-0.1346
-3.2,0.2505,0.0091,0.0031,-0.1346
-3.1,0.262,0.00903,0.00299,-0.1346
-3,0.2734,0.00897,0.0029,-0.1345
-2.9,0.2848,0.0089,0.00284,-0.1346
-2.8,0.2963,0.00883,0.00276,-0.1346
-2.7,0.3077,0.00877,0.00269,-0.1346
-2.6,0.3192,0.00871,0.00261,-0.1346
-2.5,0.3306,0.00866,0.00254,-0.1345
-2.4,0.3421,0.00861,0.00247,-0.1346
-2.3,0.3535,0.00857,0.00241,-0.1345
-2.2,0.365,0.0085,0.00234,-0.1345
-2.1,0.3764,0.00846,0.00231,-0.1346
-2,0.3878,0.00842,0.00225,-0.1345
-1.9,0.3988,0.00839,0.00218,-0.1344
-1.8,0.4099,0.00837,0.00212,-0.1342
-1.7,0.4214,0.00832,0.00208,-0.1343
-1.6,0.4327,0.00828,0.00203,-0.1342
-1.5,0.4436,0.00827,0.00199,-0.1341
-1.4,0.4551,0.00824,0.00195,-0.1341
-1.3,0.4665,0.00823,0.00193,-0.1341
-1.2,0.4776,0.00821,0.00189,-0.134
-1.1,0.489,0.00819,0.00186,-0.134
-1,0.5,0.00819,0.00182,-0.1338
-0.9,0.5114,0.00817,0.0018,-0.1338
-0.8,0.5228,0.00817,0.00177,-0.1338
-0.7,0.5337,0.00817,0.00176,-0.1337
-0.6,0.5449,0.00816,0.00174,-0.1336
-0.5,0.5562,0.00816,0.00172,-0.1336
-0.4,0.5675,0.00817,0.00171,-0.1336
-0.3,0.5789,0.00815,0.0017,-0.1336
-0.2,0.5897,0.00818,0.00169,-0.1334
-0.1,0.6008,0.0082,0.00167,-0.1333
0,0.612,0.00821,0.00167,-0.1333
0.1,0.623,0.00823,0.00167,-0.1332
0.2,0.6341,0.00824,0.00167,-0.1331
0.3,0.6446,0.00832,0.00167,-0.1329
0.4,0.6556,0.00836,0.00167,-0.1328
0.5,0.6667,0.00837,0.00168,-0.1328
0.6,0.6777,0.00841,0.00169,-0.1327
0.7,0.6883,0.00847,0.00171,-0.1325
0.8,0.6992,0.00851,0.00171,-0.1324
0.9,0.7092,0.00864,0.00175,-0.1321
1,0.7195,0.00874,0.00178,-0.1319
1.1,0.7298,0.00885,0.00181,-0.1317
1.2,0.7405,0.00892,0.00184,-0.1316
1.3,0.7508,0.00903,0.00188,-0.1314
1.4,0.7614,0.00911,0.00193,-0.1313
1.5,0.7709,0.0093,0.00199,-0.131
1.6,0.7814,0.00939,0.00204,-0.1309
1.7,0.7919,0.00949,0.00209,-0.1307
1.8,0.8023,0.0096,0.00214,-0.1306
1.9,0.8127,0.0097,0.00219,-0.1304
2,0.823,0.00982,0.00226,-0.1303
2.1,0.8332,0.00994,0.00233,-0.1301
2.2,0.8422,0.01021,0.00244,-0.1298
2.3,0.8522,0.01037,0.00253,-0.1296
2.4,0.8621,0.01054,0.0026,-0.1294
2.5,0.8719,0.01072,0.0027,-0.1292
2.6,0.8817,0.01091,0.00279,-0.129
2.7,0.8915,0.0111,0.00289,-0.1288
2.8,0.9015,0.01125,0.00299,-0.1287
2.9,0.9109,0.01148,0.00313,-0.1284
3.1,0.9253,0.01032,0.00335,-0.1271
3.2,0.9359,0.01042,0.00341,-0.1269
3.3,0.9464,0.01055,0.00349,-0.1268
3.4,0.957,0.01065,0.00358,-0.1267
3.5,0.9676,0.01075,0.00365,-0.1266
3.6,0.9779,0.0109,0.00374,-0.1265
3.7,0.9885,0.01099,0.00381,-0.1264
3.8,0.999,0.01111,0.00389,-0.1262
3.9,1.0096,0.0112,0.00397,-0.1261
4,1.0202,0.01129,0.00404,-0.126
4.1,1.0307,0.01139,0.00411,-0.1259
4.2,1.0412,0.01151,0.0042,-0.1258
4.3,1.0516,0.01162,0.00428,-0.1257
4.4,1.062,0.01172,0.00436,-0.1255
4.5,1.0724,0.01183,0.00445,-0.1254
4.6,1.083,0.01192,0.00455,-0.1253
4.7,1.0935,0.01202,0.00463,-0.1252
4.8,1.1039,0.01212,0.00472,-0.1251
4.9,1.1142,0.01224,0.00482,-0.1249
5,1.1245,0.01236,0.0049,-0.1248
5.1,1.1349,0.01246,0.00499,-0.1246
5.2,1.1451,0.01259,0.00509,-0.1245
5.3,1.1555,0.01269,0.00519,-0.1243
5.4,1.1658,0.01278,0.00528,-0.1242
5.5,1.1761,0.01289,0.00538,-0.1241
5.6,1.1863,0.01301,0.00548,-0.1239
5.7,1.1963,0.01315,0.00559,-0.1237
5.8,1.2065,0.01326,0.00571,-0.1236
5.9,1.2167,0.01338,0.00581,-0.1234
6,1.2267,0.01351,0.00593,-0.1232
6.1,1.2368,0.01363,0.00605,-0.1231
6.2,1.247,0.01374,0.00615,-0.1229
6.3,1.2571,0.01386,0.00627,-0.1227
6.4,1.2666,0.01404,0.00639,-0.1225
6.5,1.2767,0.01415,0.00652,-0.1223
6.6,1.2867,0.01427,0.00664,-0.1221
6.7,1.2967,0.01439,0.00676,-0.1219
6.8,1.3065,0.01454,0.00689,-0.1217
6.9,1.3161,0.0147,0.00705,-0.1215
7,1.3261,0.01481,0.00718,-0.1213
7.1,1.3359,0.01494,0.00731,-0.1211
7.2,1.3454,0.01511,0.00745,-0.1208
7.3,1.3549,0.01528,0.00759,-0.1206
7.4,1.3646,0.01541,0.00774,-0.1203
7.5,1.3743,0.01555,0.00789,-0.1201
7.6,1.3839,0.01569,0.00803,-0.1199
7.7,1.3934,0.01585,0.00818,-0.1196
7.8,1.4027,0.01602,0.00834,-0.1193
7.9,1.4121,0.01619,0.00852,-0.1191
8,1.4216,0.01633,0.00867,-0.1188
8.1,1.4309,0.0165,0.00883,-0.1185
8.2,1.4401,0.01667,0.00901,-0.1182
8.3,1.4492,0.01686,0.00919,-0.1179
8.4,1.4583,0.01704,0.00938,-0.1176
8.5,1.4676,0.01719,0.00955,-0.1173
8.6,1.4768,0.01735,0.00972,-0.117
8.7,1.4859,0.01752,0.0099,-0.1167
8.8,1.4949,0.0177,0.01008,-0.1164
8.9,1.5038,0.01789,0.01028,-0.116
9,1.5124,0.0181,0.01048,-0.1157
9.1,1.5212,0.0183,0.0107,-0.1153
9.2,1.5301,0.01847,0.01089,-0.1149
9.3,1.5389,0.01865,0.01108,-0.1146
9.4,1.5475,0.01884,0.01128,-0.1142
9.5,1.5561,0.01904,0.01151,-0.1138
9.6,1.5644,0.01926,0.01173,-0.1134
9.8,1.5808,0.01971,0.01219,-0.1125
9.9,1.5892,0.0199,0.01241,-0.1121
10,1.5975,0.0201,0.01263,-0.1117
10.1,1.6057,0.02031,0.01286,-0.1112
10.2,1.6137,0.02052,0.01309,-0.1108
10.3,1.6211,0.0208,0.01334,-0.1103
10.4,1.6286,0.02106,0.01361,-0.1097
10.5,1.6363,0.02129,0.01387,-0.1092
10.6,1.6441,0.02149,0.01411,-0.1087
10.7,1.6516,0.02171,0.01434,-0.1082
10.8,1.659,0.02194,0.01459,-0.1076
10.9,1.6662,0.02218,0.01487,-0.107
11,1.6731,0.02243,0.01514,-0.1064
11.1,1.6798,0.02269,0.01542,-0.1057
11.2,1.6863,0.02297,0.01571,-0.105
11.3,1.6923,0.02327,0.01602,-0.1043
11.4,1.6989,0.02351,0.0163,-0.1036
11.5,1.7051,0.02375,0.01658,-0.1028
11.6,1.7106,0.024,0.01686,-0.1019
11.7,1.7159,0.02426,0.01715,-0.101
11.8,1.7211,0.02453,0.01746,-0.1001
11.9,1.7261,0.02482,0.01777,-0.0992
12,1.731,0.02512,0.0181,-0.0983
12.1,1.7358,0.02543,0.01843,-0.0973
12.2,1.7403,0.02577,0.01879,-0.0964
12.3,1.7445,0.02612,0.01917,-0.0954
12.4,1.7488,0.02647,0.01956,-0.0945
12.5,1.7535,0.02678,0.01991,-0.0936
12.6,1.758,0.02711,0.02028,-0.0927
12.7,1.7624,0.02745,0.02066,-0.0918
12.8,1.7666,0.02781,0.02107,-0.0909
12.9,1.7706,0.02818,0.02148,-0.09
13,1.7744,0.02856,0.0219,-0.0891
13.1,1.778,0.02896,0.02233,-0.0881
13.2,1.7813,0.02939,0.02279,-0.0872
13.3,1.7844,0.02983,0.02327,-0.0863
13.5,1.7906,0.03072,0.02422,-0.0845
13.6,1.7937,0.03118,0.02472,-0.0836
13.7,1.7964,0.03165,0.02523,-0.0828
13.8,1.7991,0.03213,0.02576,-0.0819
13.9,1.8015,0.03264,0.02631,-0.081
14,1.8038,0.03317,0.02688,-0.0802
14.1,1.8058,0.03372,0.02748,-0.0793
14.2,1.8077,0.0343,0.0281,-0.0785
14.3,1.8091,0.03491,0.02875,-0.0777
14.4,1.8104,0.03554,0.02942,-0.0769
14.5,1.8111,0.03622,0.03015,-0.0761
14.6,1.8125,0.03686,0.03085,-0.0754
14.7,1.8137,0.03752,0.03157,-0.0747
14.8,1.8147,0.03821,0.03231,-0.0741
14.9,1.8156,0.03892,0.03308,-0.0734
15,1.8163,0.03965,0.03388,-0.0729
15.1,1.8168,0.04043,0.03471,-0.0723
15.2,1.8171,0.04123,0.03557,-0.0718
15.3,1.8172,0.04206,0.03647,-0.0714
15.4,1.8171,0.04292,0.03739,-0.071
15.5,1.8168,0.04382,0.03835,-0.0707
15.6,1.8164,0.04475,0.03934,-0.0704
15.7,1.8158,0.04572,0.04037,-0.0702
15.8,1.8151,0.04673,0.04144,-0.0701
15.9,1.8143,0.04777,0.04255,-0.0701
16,1.8132,0.04886,0.0437,-0.0701
16.1,1.8119,0.05,0.04491,-0.0703
16.2,1.8104,0.05119,0.04616,-0.0706
16.3,1.8087,0.05242,0.04746,-0.0709
16.4,1.8068,0.0537,0.04881,-0.0714
16.5,1.8047,0.05504,0.05022,-0.072
16.6,1.8023,0.05647,0.05172,-0.0728
16.7,1.7997,0.05797,0.05329,-0.0737
16.8,1.7972,0.05952,0.05491,-0.0748
16.9,1.7941,0.06122,0.05669,-0.0761
17,1.7911,0.06299,0.05855,-0.0776
17.1,1.7878,0.0649,0.06054,-0.0794
17.2,1.7842,0.06697,0.0627,-0.0815
17.3,1.7807,0.06917,0.06499,-0.0839
17.4,1.7765,0.07163,0.06755,-0.0867
17.5,1.7731,0.07409,0.0701,-0.0895
17.6,1.7694,0.07678,0.07289,-0.0928
17.7,1.765,0.07985,0.07608,-0.0965
17.8,1.7599,0.08334,0.07968,-0.1007
17.9,1.7537,0.08742,0.08389,-0.1056
18,1.7453,0.0926,0.08922,-0.1117
18.1,1.7338,0.09929,0.09609,-0.1193
18.6,1.6671,0.13457,0.13215,-0.1547
18.7,1.6564,0.1401,0.13778,-0.1603
18.8,1.6471,0.14522,0.14299,-0.1657
18.9,1.6394,0.14971,0.14755,-0.1705
19,1.6311,0.15451,0.15243,-0.1757
19.1,1.6258,0.15832,0.15631,-0.1799
19.2,1.6196,0.16278,0.16082,-0.1846
19.3,1.6158,0.16644,0.16453,-0.1885
19.4,1.6113,0.17072,0.16887,-0.1927
19.5,1.6087,0.17426,0.17245,-0.1962
19.6,1.6066,0.1778,0.17603,-0.1996
19.7,1.6039,0.18183,0.18011,-0.2032
19.8,1.6028,0.18508,0.18339,-0.2062
19.9,1.602,0.18823,0.18658,-0.2091
20,1.6002,0.19214,0.19052,-0.2125
20.1,1.6,0.19517,0.19358,-0.2152
20.2,1.6004,0.19785,0.19627,-0.2177
20.3,1.6013,0.20026,0.1987,-0.2199
20.4,1.6026,0.20233,0.20077,-0.222
20.5,1.6026,0.20551,0.20397,-0.2247
20.6,1.6023,0.20906,0.20756,-0.2275
20.7,1.6024,0.21237,0.21091,-0.2302
20.8,1.6031,0.21527,0.21384,-0.2326
20.9,1.6028,0.21912,0.21774,-0.2356
21,1.6012,0.22442,0.22309,-0.2394
21.1,1.6005,0.22912,0.22783,-0.2429
21.3,1.5939,0.24757,0.24635,-0.2541
21.4,1.5964,0.24982,0.2486,-0.2559
21.5,1.5989,0.25193,0.25072,-0.2578
21.6,1.6016,0.25372,0.25251,-0.2594
21.7,1.6043,0.25552,0.25431,-0.2611
21.8,1.6071,0.25712,0.25592,-0.2627
21.9,1.6099,0.25877,0.25757,-0.2643
22,1.6127,0.2602,0.25901,-0.2659
22.1,1.6155,0.26163,0.26044,-0.2674
22.2,1.6183,0.26307,0.26188,-0.269
22.3,1.6211,0.26436,0.26318,-0.2705
22.4,1.6239,0.26554,0.26436,-0.2719
22.5,1.6266,0.26678,0.26561,-0.2734
22.6,1.6293,0.26797,0.26679,-0.2749
22.7,1.632,0.26902,0.26785,-0.2763
22.8,1.6346,0.27006,0.26892,-0.2778
22.9,1.637,0.27104,0.2699,-0.2792

