airfoilName st18.dat
Re 	270000
M 	5.000000e-02
N 	4.500000e+00
VACC 	0 VACCflag 1
XTR 	1.00 	1.00 XTRflag 0
alpha,cl,cd,cdp,cm
-26,-1.2434,0.39309,0.39039,0.1986
-25.9,-1.2401,0.39101,0.3883,0.1969
-25.8,-1.2367,0.38893,0.38622,0.1952
-25.7,-1.2334,0.38687,0.38416,0.1934
-25.6,-1.2301,0.38482,0.3821,0.1917
-25.5,-1.2267,0.38277,0.38005,0.19
-25.4,-1.2234,0.38073,0.378,0.1883
-25.3,-1.22,0.3787,0.37597,0.1866
-25.2,-1.2166,0.37668,0.37395,0.1849
-25.1,-1.2131,0.37467,0.37193,0.1832
-25,-1.2097,0.37265,0.36991,0.1815
-24.9,-1.2062,0.37067,0.36792,0.1798
-24.8,-1.2027,0.36868,0.36593,0.1781
-24.7,-1.1992,0.3667,0.36395,0.1764
-24.6,-1.1956,0.36475,0.36199,0.1747
-24.5,-1.192,0.36279,0.36003,0.173
-24.4,-1.1884,0.36085,0.35808,0.1713
-24.3,-1.1848,0.3589,0.35613,0.1696
-24.2,-1.1811,0.357,0.35423,0.1679
-24.1,-1.1773,0.35508,0.35231,0.1661
-24,-1.1735,0.3532,0.35042,0.1644
-23.9,-1.1696,0.35135,0.34857,0.1626
-23.8,-1.1657,0.34948,0.3467,0.1608
-23.7,-1.1617,0.34765,0.34487,0.159
-23.6,-1.1576,0.34581,0.34302,0.1572
-23.5,-1.1533,0.34399,0.3412,0.1553
-23.4,-1.1489,0.34215,0.33936,0.1533
-23.1,-1.1279,0.33577,0.33299,0.1451
-23,-1.1247,0.33352,0.33074,0.1437
-22.9,-1.1215,0.33126,0.32848,0.1423
-22.8,-1.1183,0.32904,0.32625,0.1409
-22.7,-1.1151,0.32682,0.32403,0.1396
-22.6,-1.1118,0.32463,0.32183,0.1382
-22.5,-1.1086,0.32245,0.31965,0.1368
-22.4,-1.1053,0.32029,0.31749,0.1354
-22.3,-1.102,0.31815,0.31535,0.134
-22.2,-1.0986,0.31604,0.31323,0.1326
-22.1,-1.0952,0.31394,0.31113,0.1313
-22,-1.0919,0.31186,0.30904,0.1299
-21.9,-1.0884,0.3098,0.30697,0.1285
-21.8,-1.085,0.30775,0.30493,0.1271
-21.7,-1.0816,0.30572,0.30289,0.1258
-21.6,-1.0782,0.30405,0.30121,0.1243
-21.5,-1.0747,0.30206,0.29923,0.123
-21.4,-1.0711,0.30009,0.29725,0.1216
-21.3,-1.0676,0.29814,0.29529,0.1202
-21.2,-1.064,0.29619,0.29334,0.1188
-21.1,-1.0604,0.29425,0.2914,0.1175
-21,-1.0568,0.29232,0.28947,0.1161
-20.9,-1.0532,0.29041,0.28755,0.1148
-20.8,-1.0495,0.2885,0.28564,0.1134
-20.7,-1.0459,0.2866,0.28374,0.1121
-20.6,-1.0422,0.28472,0.28185,0.1107
-20.5,-1.0385,0.28284,0.27997,0.1094
-20.4,-1.0348,0.28096,0.27807,0.108
-20.3,-1.0311,0.2791,0.27621,0.1067
-20.2,-1.0273,0.27724,0.27434,0.1053
-20.1,-1.0236,0.27539,0.27249,0.104
-20,-1.0198,0.27354,0.27065,0.1027
-19.9,-1.016,0.2717,0.2688,0.1014
-19.8,-1.0122,0.26987,0.26697,0.1
-19.7,-1.0084,0.26803,0.26513,0.0987
-19.6,-1.0046,0.26621,0.2633,0.0974
-19.5,-1.0007,0.2644,0.26149,0.0961
-19.4,-0.9969,0.26258,0.25967,0.0948
-19.3,-0.993,0.26077,0.25786,0.0935
-19.2,-0.9891,0.25897,0.25606,0.0922
-19.1,-0.9853,0.25718,0.25426,0.0909
-19,-0.9814,0.25539,0.25246,0.0897
-18.9,-0.9775,0.2536,0.25068,0.0884
-18.8,-0.9736,0.25181,0.24889,0.0871
-18.7,-0.9697,0.25005,0.24712,0.0859
-18.6,-0.9657,0.24827,0.24534,0.0846
-18.5,-0.9618,0.2465,0.24357,0.0833
-18.4,-0.9579,0.24474,0.2418,0.0821
-18.3,-0.9539,0.24297,0.24004,0.0809
-18.2,-0.9499,0.24121,0.23828,0.0796
-18.1,-0.946,0.23946,0.23652,0.0784
-18,-0.942,0.23771,0.23477,0.0771
-17.9,-0.938,0.23596,0.23302,0.0759
-17.8,-0.934,0.23421,0.23127,0.0747
-17.7,-0.9299,0.23247,0.22952,0.0735
-17.6,-0.9259,0.23073,0.22777,0.0722
-17.5,-0.9218,0.22899,0.22602,0.071
-17.4,-0.9177,0.22725,0.22428,0.0698
-17.3,-0.9136,0.22551,0.22254,0.0686
-17.2,-0.9094,0.22377,0.2208,0.0673
-17.1,-0.9052,0.22204,0.21906,0.0661
-17,-0.901,0.22029,0.21732,0.0648
-16.9,-0.8967,0.21854,0.21557,0.0636
-16.8,-0.8925,0.21679,0.21381,0.0624
-16.7,-0.8881,0.21501,0.21203,0.0611
-16.6,-0.8838,0.21322,0.21024,0.0598
-16.5,-0.8794,0.21142,0.20844,0.0586
-16.4,-0.8749,0.20955,0.20657,0.0573
-16.3,-0.8704,0.20765,0.20467,0.056
-16.2,-0.8657,0.20564,0.20265,0.0547
-16,-0.8467,0.19923,0.19628,0.0495
-15.9,-0.8433,0.19741,0.19446,0.0485
-15.8,-0.84,0.19561,0.19265,0.0476
-15.7,-0.8366,0.19382,0.19087,0.0467
-15.6,-0.8332,0.19205,0.1891,0.0458
-15.5,-0.8297,0.19031,0.18735,0.0448
-15.4,-0.8262,0.18859,0.18563,0.0439
-15.3,-0.8226,0.18689,0.18393,0.0429
-15.2,-0.8189,0.18521,0.18225,0.042
-15.1,-0.8152,0.18355,0.18059,0.041
-15,-0.8115,0.18191,0.17895,0.0401
-14.8,-0.8042,0.17899,0.17603,0.0381
-14.7,-0.8002,0.17743,0.17447,0.0371
-14.6,-0.7962,0.17588,0.17292,0.0361
-14.5,-0.7922,0.17434,0.17137,0.0351
-14.4,-0.7881,0.17281,0.16984,0.0341
-14.3,-0.784,0.17129,0.16831,0.0331
-14.2,-0.7799,0.16978,0.1668,0.0321
-14.1,-0.7757,0.16829,0.16531,0.0311
-14,-0.7715,0.16681,0.16383,0.0301
-13.9,-0.7673,0.16534,0.16235,0.0292
-13.8,-0.763,0.16385,0.16087,0.0282
-13.7,-0.7587,0.1624,0.15942,0.0272
-13.6,-0.7544,0.16095,0.15796,0.0262
-13.5,-0.75,0.1595,0.15652,0.0252
-13.4,-0.7456,0.15806,0.15508,0.0242
-13.3,-0.7412,0.15662,0.15364,0.0232
-13.2,-0.7368,0.1552,0.15222,0.0222
-13.1,-0.7323,0.15378,0.1508,0.0212
-13,-0.7278,0.15236,0.14938,0.0202
-12.9,-0.7233,0.15095,0.14797,0.0192
-12.8,-0.7188,0.14954,0.14656,0.0182
-12.7,-0.7143,0.14813,0.14516,0.0172
-12.6,-0.7097,0.14673,0.14376,0.0162
-12.5,-0.7051,0.14533,0.14236,0.0152
-12.4,-0.7005,0.14394,0.14097,0.0143
-12.3,-0.6959,0.14254,0.13958,0.0133
-12.2,-0.6912,0.14116,0.13819,0.0123
-12.1,-0.6866,0.13978,0.13681,0.0113
-12,-0.6819,0.1384,0.13544,0.0104
-11.9,-0.6773,0.13703,0.13407,0.0094
-11.8,-0.6726,0.13565,0.1327,0.0084
-11.7,-0.6679,0.13428,0.13133,0.0075
-11.6,-0.6632,0.13291,0.12995,0.0065
-11.5,-0.6585,0.13154,0.12857,0.0056
-11.4,-0.6538,0.13017,0.12721,0.0046
-11.3,-0.6491,0.1288,0.12584,0.0037
-11.2,-0.6444,0.12744,0.12448,0.0027
-11.1,-0.6397,0.12608,0.12312,0.0018
-11,-0.6351,0.12471,0.12176,0.0009
-10.9,-0.6304,0.12333,0.12039,0
-10.8,-0.6258,0.12196,0.11902,-0.0009
-10.7,-0.6213,0.12057,0.11763,-0.0018
-10.6,-0.6168,0.11919,0.11625,-0.0027
-10.5,-0.6124,0.11778,0.11485,-0.0035
-10.4,-0.6081,0.11636,0.11343,-0.0043
-10.3,-0.6038,0.11494,0.11201,-0.0051
-10.2,-0.5998,0.11348,0.11056,-0.0059
-10.1,-0.5959,0.11193,0.10903,-0.0067
-10,-0.5921,0.11028,0.10739,-0.0074
-9.9,-0.5854,0.10732,0.10447,-0.0098
-9.8,-0.5843,0.10635,0.10351,-0.0097
-9.7,-0.584,0.10545,0.10263,-0.0095
-9.6,-0.5844,0.10467,0.10186,-0.0091
-9.5,-0.5859,0.10399,0.10121,-0.0084
-9.4,-0.5885,0.10343,0.10068,-0.0074
-9.3,-0.5922,0.10298,0.10026,-0.0062
-9.2,-0.595,0.10245,0.09975,-0.0053
-9.1,-0.586,0.10081,0.09811,-0.0074
-9,-0.5765,0.09918,0.09647,-0.0095
-5.5,-0.0386,0.01878,0.01329,-0.1304
-5.4,-0.0256,0.01792,0.01236,-0.1313
-5.3,-0.0127,0.01743,0.01182,-0.1319
-5.2,0.0003,0.01703,0.01137,-0.1325
-5.1,0.0133,0.01667,0.01095,-0.1331
-5,0.0264,0.01631,0.01052,-0.1336
-4.9,0.0396,0.01594,0.01007,-0.1342
-4.8,0.0533,0.01553,0.00957,-0.1348
-4.7,0.0654,0.01516,0.0091,-0.1351
-4.6,0.0757,0.01481,0.00866,-0.135
-4.5,0.0877,0.01443,0.00816,-0.1352
-4.4,0.1001,0.0141,0.00771,-0.1355
-4.3,0.1127,0.01379,0.00732,-0.1358
-4.2,0.1257,0.01346,0.00696,-0.1362
-4.1,0.1384,0.01325,0.00673,-0.1366
-4,0.1512,0.01307,0.00652,-0.137
-3.9,0.1644,0.01288,0.00628,-0.1374
-3.8,0.1751,0.01271,0.00607,-0.1373
-3.7,0.1858,0.01254,0.00584,-0.1371
-3.5,0.2095,0.01229,0.00554,-0.1374
-3.4,0.2218,0.01213,0.00537,-0.1376
-3.3,0.2342,0.01199,0.0052,-0.1378
-3.2,0.2467,0.01185,0.005,-0.1381
-3.1,0.2596,0.01169,0.00479,-0.1384
-3,0.2701,0.01159,0.00463,-0.1382
-2.9,0.2808,0.01151,0.0046,-0.1381
-2.8,0.2925,0.0114,0.00448,-0.1382
-2.7,0.3045,0.01129,0.00435,-0.1383
-2.6,0.3167,0.01117,0.00419,-0.1384
-2.5,0.329,0.01106,0.00404,-0.1386
-2.4,0.3414,0.01096,0.00391,-0.1388
-2.3,0.3518,0.01086,0.00382,-0.1386
-2.2,0.3629,0.01084,0.00383,-0.1386
-2.1,0.3745,0.01076,0.00371,-0.1386
-2,0.3864,0.01067,0.00359,-0.1386
-1.9,0.3984,0.01058,0.00348,-0.1388
-1.8,0.4105,0.01049,0.00341,-0.1389
-1.7,0.4214,0.01044,0.00335,-0.1388
-1.6,0.4326,0.01039,0.0033,-0.1387
-1.5,0.444,0.01037,0.00326,-0.1387
-1.4,0.4557,0.01028,0.00319,-0.1388
-1.3,0.4675,0.01023,0.00313,-0.1388
-1.2,0.4794,0.01017,0.00307,-0.1389
-1.1,0.4904,0.01014,0.00301,-0.1388
-1,0.5014,0.01009,0.00297,-0.1387
-0.9,0.5128,0.01005,0.00296,-0.1387
-0.8,0.5239,0.01,0.00287,-0.1385
-0.7,0.535,0.00996,0.00281,-0.1384
-0.6,0.5464,0.0099,0.00274,-0.1383
-0.5,0.5576,0.00986,0.00273,-0.1383
-0.4,0.5689,0.00984,0.0027,-0.1382
-0.3,0.58,0.00981,0.00266,-0.1381
-0.2,0.5914,0.00978,0.00264,-0.138
-0.1,0.6026,0.00976,0.00263,-0.138
0,0.6137,0.00974,0.00257,-0.1378
0.1,0.6247,0.00971,0.00254,-0.1377
0.2,0.636,0.00969,0.00253,-0.1377
0.3,0.6473,0.00967,0.00251,-0.1376
0.4,0.6583,0.00966,0.0025,-0.1375
0.5,0.6694,0.00965,0.00248,-0.1374
0.6,0.6807,0.00964,0.00247,-0.1373
0.7,0.6918,0.00964,0.00246,-0.1372
0.8,0.7029,0.00963,0.00245,-0.1371
0.9,0.7136,0.00963,0.00242,-0.1369
1,0.7247,0.00964,0.00243,-0.1368
1.1,0.7357,0.00964,0.00244,-0.1367
1.2,0.7468,0.00965,0.00244,-0.1366
1.3,0.7578,0.00965,0.00244,-0.1365
1.4,0.7682,0.00968,0.00243,-0.1362
1.5,0.7792,0.0097,0.00243,-0.1361
1.6,0.7899,0.00973,0.00244,-0.1359
1.7,0.8005,0.00976,0.00245,-0.1357
1.8,0.811,0.0098,0.00246,-0.1355
1.9,0.8209,0.00989,0.00247,-0.1351
2,0.8314,0.00993,0.0025,-0.1349
2.1,0.8417,0.00999,0.00253,-0.1347
2.2,0.852,0.01006,0.00259,-0.1345
2.3,0.8621,0.01012,0.00263,-0.1343
2.4,0.8647,0.00889,0.00265,-0.1324
2.5,0.8747,0.00903,0.0027,-0.1321
2.6,0.8832,0.00929,0.00278,-0.1315
2.7,0.893,0.00946,0.00285,-0.1312
2.8,0.9026,0.00963,0.00293,-0.1309
2.9,0.912,0.00982,0.00301,-0.1305
3,0.9214,0.01003,0.00311,-0.1302
3.1,0.9306,0.01025,0.00321,-0.1298
3.2,0.9378,0.01065,0.00338,-0.1291
3.3,0.9467,0.01092,0.00349,-0.1287
3.4,0.9554,0.0112,0.00363,-0.1283
3.5,0.9642,0.01148,0.00377,-0.1279
3.6,0.9731,0.01176,0.00395,-0.1276
3.7,0.9822,0.01202,0.00408,-0.1273
3.8,0.9907,0.01235,0.00426,-0.1269
3.9,1.0004,0.01255,0.0044,-0.1266
4,1.0103,0.01271,0.00451,-0.1264
4.1,1.0202,0.01288,0.00464,-0.1262
4.2,1.0302,0.01303,0.00476,-0.126
4.3,1.0401,0.0132,0.00488,-0.1258
4.4,1.0502,0.01333,0.005,-0.1256
4.5,1.0597,0.01354,0.00515,-0.1254
4.6,1.0698,0.01366,0.00526,-0.1252
4.7,1.0798,0.01381,0.00538,-0.125
4.8,1.0898,0.01396,0.00551,-0.1248
4.9,1.0999,0.01409,0.00566,-0.1246
5,1.1098,0.01423,0.00579,-0.1244
5.1,1.1195,0.0144,0.00592,-0.1242
5.2,1.1294,0.01455,0.00605,-0.124
5.3,1.1392,0.01471,0.00619,-0.1237
5.4,1.1492,0.01483,0.00632,-0.1235
5.5,1.1592,0.01497,0.00645,-0.1233
5.6,1.1689,0.01513,0.00659,-0.1231
5.7,1.1787,0.01528,0.00674,-0.1229
5.8,1.1883,0.01544,0.00686,-0.1226
5.9,1.1979,0.01562,0.00702,-0.1224
6,1.2078,0.01575,0.00716,-0.1222
6.1,1.2175,0.01589,0.00731,-0.1219
6.2,1.2271,0.01606,0.00749,-0.1217
6.3,1.2366,0.01623,0.00765,-0.1214
6.4,1.2461,0.0164,0.00779,-0.1212
6.5,1.2555,0.01658,0.00796,-0.1209
6.6,1.2651,0.01674,0.00813,-0.1206
6.7,1.2746,0.01689,0.00829,-0.1204
6.8,1.2841,0.01706,0.00846,-0.1201
6.9,1.2932,0.01726,0.00864,-0.1198
7,1.3026,0.01743,0.00883,-0.1195
7.1,1.3121,0.01759,0.00901,-0.1192
7.2,1.3209,0.01781,0.00918,-0.1189
7.3,1.3301,0.018,0.00938,-0.1186
7.4,1.3394,0.01818,0.00959,-0.1183
7.5,1.3485,0.01836,0.00979,-0.118
7.6,1.3575,0.01857,0.00999,-0.1176
7.7,1.3662,0.0188,0.01022,-0.1173
7.8,1.3753,0.01898,0.01043,-0.1169
7.9,1.3843,0.01917,0.01064,-0.1166
8,1.3932,0.01937,0.01086,-0.1162
8.1,1.4015,0.01964,0.01107,-0.1158
8.2,1.4103,0.01985,0.01131,-0.1155
8.3,1.4191,0.02005,0.01154,-0.1151
8.4,1.4277,0.02026,0.01178,-0.1147
8.5,1.4362,0.02049,0.01203,-0.1143
8.6,1.4445,0.02074,0.01228,-0.1139
8.7,1.4526,0.02101,0.01258,-0.1134
8.8,1.4608,0.02125,0.01285,-0.113
8.9,1.4692,0.02148,0.01312,-0.1125
9,1.4775,0.02171,0.0134,-0.1121
9.2,1.4934,0.02222,0.01392,-0.1112
9.3,1.501,0.02252,0.01422,-0.1106
9.4,1.5083,0.02284,0.01455,-0.1101
9.5,1.5162,0.02308,0.01485,-0.1096
9.6,1.524,0.02333,0.01516,-0.109
9.7,1.5315,0.0236,0.01547,-0.1085
9.8,1.5389,0.02388,0.01579,-0.1079
9.9,1.5461,0.02418,0.01612,-0.1073
10,1.553,0.02448,0.01646,-0.1067
10.1,1.5595,0.02482,0.01675,-0.1061
10.2,1.5669,0.02505,0.01704,-0.1056
10.3,1.5737,0.02534,0.01738,-0.1049
10.4,1.5803,0.02564,0.01773,-0.1043
10.5,1.5867,0.02595,0.01808,-0.1035
10.6,1.5928,0.02627,0.01844,-0.1028
10.7,1.5986,0.0266,0.0188,-0.102
10.8,1.6036,0.02694,0.01917,-0.1011
10.9,1.608,0.02732,0.01957,-0.1001
11,1.6117,0.02775,0.02003,-0.099
11.1,1.6168,0.02808,0.02041,-0.0981
11.2,1.6238,0.02825,0.02063,-0.0976
11.3,1.6285,0.0286,0.02103,-0.0966
11.4,1.633,0.02897,0.02145,-0.0957
11.5,1.6374,0.02935,0.02187,-0.0948
11.6,1.6416,0.02975,0.0223,-0.0939
11.7,1.6454,0.03018,0.02276,-0.0929
11.8,1.6487,0.03065,0.02327,-0.0919
11.9,1.6518,0.03114,0.02379,-0.0909
12,1.6557,0.03155,0.0243,-0.09
12.1,1.6593,0.03199,0.02481,-0.089
12.2,1.6626,0.03246,0.02535,-0.0881
12.3,1.6657,0.03293,0.02589,-0.0871
12.4,1.6687,0.03343,0.02645,-0.0862
12.5,1.6715,0.03394,0.02702,-0.0853
12.6,1.6741,0.03446,0.0276,-0.0843
12.7,1.6765,0.03501,0.0282,-0.0834
12.8,1.6786,0.03557,0.02882,-0.0825
12.9,1.6805,0.03616,0.02947,-0.0816
13,1.682,0.03679,0.03015,-0.0807
13.1,1.6831,0.03746,0.03087,-0.0798
13.2,1.6835,0.03818,0.03164,-0.0789
13.3,1.6831,0.03898,0.0325,-0.078
13.4,1.6838,0.0397,0.03327,-0.0772
13.5,1.6847,0.04042,0.03408,-0.0764
13.6,1.6851,0.04119,0.03493,-0.0757
13.7,1.6853,0.04198,0.03581,-0.075
13.8,1.6853,0.04282,0.03673,-0.0743
13.9,1.685,0.04369,0.03767,-0.0737
14,1.6845,0.04459,0.03866,-0.0731
14.1,1.6838,0.04552,0.03967,-0.0726
14.2,1.683,0.04649,0.04071,-0.0722
14.3,1.6819,0.0475,0.0418,-0.0718
14.4,1.6806,0.04855,0.04293,-0.0715
14.5,1.6793,0.04964,0.0441,-0.0714
14.6,1.6779,0.05076,0.0453,-0.0713
14.7,1.6762,0.05194,0.04655,-0.0713
14.8,1.6745,0.05315,0.04784,-0.0714
14.9,1.6723,0.05444,0.0492,-0.0716
15,1.6702,0.05576,0.05063,-0.0719
15.1,1.6677,0.05716,0.0521,-0.0724
15.2,1.6651,0.05862,0.05365,-0.073
15.3,1.6623,0.06016,0.05527,-0.0739
15.4,1.6593,0.06178,0.05697,-0.0748
15.5,1.6562,0.0635,0.05877,-0.076
15.6,1.6528,0.06531,0.06067,-0.0775
15.7,1.6493,0.06725,0.06269,-0.0792
15.8,1.6456,0.0693,0.06484,-0.0811
15.9,1.6418,0.0715,0.06713,-0.0834
16,1.6379,0.07384,0.06957,-0.0859
16.1,1.6338,0.07641,0.07224,-0.0889
16.2,1.6296,0.0792,0.07514,-0.0922
16.3,1.6254,0.08225,0.07829,-0.096
16.4,1.621,0.08559,0.08175,-0.1001
16.5,1.6166,0.08926,0.08553,-0.1047
16.6,1.6122,0.09325,0.08966,-0.1096
16.7,1.6074,0.09763,0.09416,-0.1149
16.8,1.6025,0.10227,0.09893,-0.1203
16.9,1.5975,0.10708,0.10386,-0.1256
17,1.592,0.11198,0.10888,-0.1309
17.1,1.5866,0.11667,0.11368,-0.1359
17.2,1.5815,0.1211,0.11821,-0.1405
17.3,1.5765,0.12539,0.12259,-0.145
17.4,1.5715,0.12957,0.12684,-0.1493
17.5,1.567,0.13353,0.13087,-0.1534
17.6,1.5629,0.13725,0.13465,-0.1572
17.7,1.5589,0.1409,0.13834,-0.161
17.8,1.5555,0.14426,0.14175,-0.1646
17.9,1.5524,0.14754,0.14507,-0.1681
18,1.5502,0.1503,0.14786,-0.1711
18.1,1.5474,0.15355,0.15112,-0.1745
18.2,1.5444,0.15714,0.15478,-0.1781
18.4,1.5369,0.1658,0.16358,-0.1863
18.5,1.5325,0.17083,0.16868,-0.1908
18.6,1.5261,0.17765,0.17558,-0.1963

