airfoilName st19.dat
Re 	190000
M 	5.000000e-02
N 	4.500000e+00
VACC 	0 VACCflag 1
XTR 	1.00 	1.00 XTRflag 0
alpha,cl,cd,cdp,cm
-30,-1.3329,0.49764,0.49464,0.2644
-29.9,-1.3303,0.49516,0.49215,0.2626
-29.8,-1.3277,0.49267,0.48966,0.2607
-29.7,-1.325,0.49022,0.4872,0.2588
-29.6,-1.3224,0.48775,0.48473,0.257
-29.5,-1.3197,0.48533,0.48229,0.2551
-29.4,-1.317,0.48289,0.47983,0.2532
-29.3,-1.3143,0.48047,0.47741,0.2514
-29.2,-1.3116,0.47803,0.47497,0.2495
-29,-1.3061,0.4736,0.47053,0.2458
-28.9,-1.3033,0.47122,0.46813,0.244
-28.8,-1.3005,0.46882,0.46573,0.2421
-28.7,-1.2977,0.46646,0.46336,0.2403
-28.6,-1.2949,0.46407,0.46097,0.2385
-28.5,-1.2921,0.46169,0.45858,0.2367
-28.4,-1.2892,0.45933,0.45622,0.2349
-28.3,-1.2864,0.45696,0.45384,0.2331
-28.2,-1.2835,0.45461,0.45149,0.2313
-28.1,-1.2806,0.45227,0.44914,0.2295
-28,-1.2777,0.44993,0.44679,0.2277
-27.9,-1.2748,0.4476,0.44445,0.2259
-27.8,-1.2718,0.44527,0.44211,0.2242
-27.7,-1.2689,0.44294,0.43978,0.2224
-27.6,-1.2659,0.44061,0.43745,0.2206
-27.5,-1.263,0.4383,0.43513,0.2189
-27.4,-1.26,0.43599,0.43282,0.2171
-27.3,-1.257,0.4337,0.43052,0.2154
-27.2,-1.2539,0.43138,0.4282,0.2136
-27.1,-1.2509,0.42908,0.42588,0.2119
-27,-1.2479,0.42681,0.4236,0.2102
-26.9,-1.2448,0.42453,0.42131,0.2085
-26.8,-1.2417,0.42226,0.41904,0.2067
-26.7,-1.2387,0.41999,0.41676,0.205
-26.6,-1.2356,0.41773,0.41449,0.2033
-26.5,-1.2324,0.41548,0.41224,0.2016
-26.4,-1.2293,0.41323,0.40999,0.1999
-26.3,-1.2261,0.41099,0.40774,0.1982
-26.2,-1.223,0.40875,0.40549,0.1966
-26.1,-1.2198,0.40652,0.40326,0.1949
-26,-1.2167,0.40429,0.40103,0.1932
-25.9,-1.2135,0.40208,0.39881,0.1915
-25.8,-1.2102,0.39986,0.39659,0.1899
-25.7,-1.207,0.39767,0.39439,0.1882
-25.6,-1.2038,0.39547,0.39218,0.1865
-25.5,-1.2005,0.39329,0.39,0.1849
-25.4,-1.1972,0.39111,0.38781,0.1832
-25.3,-1.194,0.38893,0.38562,0.1816
-25.2,-1.1907,0.38676,0.38345,0.18
-25.1,-1.1873,0.3846,0.38129,0.1783
-25,-1.184,0.38245,0.37914,0.1767
-24.9,-1.1807,0.3803,0.37698,0.1751
-24.8,-1.1773,0.37816,0.37484,0.1734
-24.7,-1.1739,0.37603,0.3727,0.1718
-24.6,-1.1705,0.37391,0.37055,0.1702
-24.5,-1.1671,0.37179,0.36844,0.1686
-24.4,-1.1637,0.36969,0.36633,0.167
-24.3,-1.1602,0.36759,0.36422,0.1654
-24.2,-1.1568,0.36549,0.36212,0.1638
-24.1,-1.1533,0.36341,0.36003,0.1622
-24,-1.1498,0.36134,0.35796,0.1606
-23.9,-1.1462,0.35927,0.35588,0.159
-23.8,-1.1427,0.35721,0.35382,0.1574
-23.7,-1.1391,0.35515,0.35175,0.1558
-23.6,-1.1355,0.35311,0.34972,0.1542
-23.5,-1.1319,0.35109,0.34769,0.1526
-23.4,-1.1283,0.34906,0.34566,0.151
-23.3,-1.1247,0.34704,0.34363,0.1494
-23.2,-1.121,0.34504,0.34163,0.1478
-23.1,-1.1172,0.34306,0.33965,0.1462
-23,-1.1136,0.34107,0.33765,0.1446
-22.9,-1.1098,0.33911,0.33569,0.143
-22.8,-1.106,0.33715,0.33373,0.1414
-22.7,-1.1021,0.33521,0.33178,0.1398
-22.6,-1.0982,0.33328,0.32985,0.1381
-22.5,-1.0943,0.33136,0.32792,0.1365
-22.4,-1.0904,0.32945,0.32601,0.1348
-22.3,-1.0863,0.32754,0.3241,0.1332
-22.2,-1.0822,0.32567,0.32222,0.1315
-22.1,-1.078,0.32378,0.32033,0.1298
-22,-1.0737,0.32189,0.31844,0.128
-21.9,-1.0694,0.32003,0.31657,0.1263
-21.8,-1.0648,0.31801,0.31454,0.1244
-21.4,-1.0394,0.308,0.30457,0.1156
-21.3,-1.0362,0.30587,0.30243,0.1144
-21.2,-1.033,0.30375,0.30031,0.1131
-21.1,-1.0298,0.30164,0.29819,0.1119
-21,-1.0265,0.29955,0.2961,0.1106
-20.9,-1.0233,0.29747,0.29401,0.1093
-20.8,-1.0199,0.29541,0.29195,0.1081
-20.7,-1.0166,0.29335,0.28989,0.1068
-20.6,-1.0133,0.29132,0.28785,0.1056
-20.5,-1.0099,0.2893,0.28582,0.1043
-20.4,-1.0065,0.2873,0.28382,0.103
-20.3,-1.0035,0.28559,0.28211,0.1018
-20.2,-1,0.28362,0.28014,0.1005
-20.1,-0.9965,0.28167,0.27819,0.0993
-20,-0.9929,0.27973,0.27624,0.098
-19.9,-0.9893,0.2778,0.27431,0.0967
-19.8,-0.9857,0.27588,0.27238,0.0955
-19.7,-0.9821,0.27397,0.27047,0.0942
-19.6,-0.9785,0.27207,0.26856,0.0929
-19.5,-0.9748,0.27017,0.26666,0.0917
-19.4,-0.9712,0.26829,0.26478,0.0904
-19.3,-0.9675,0.26641,0.2629,0.0892
-19.2,-0.9638,0.26455,0.26103,0.0879
-19.1,-0.9601,0.26269,0.25917,0.0867
-19,-0.9564,0.26084,0.25731,0.0855
-18.9,-0.9526,0.25899,0.25547,0.0842
-18.8,-0.9489,0.25716,0.25363,0.083
-18.7,-0.9451,0.25533,0.25178,0.0818
-18.6,-0.9414,0.25351,0.24996,0.0806
-18.5,-0.9376,0.2517,0.24814,0.0794
-18.4,-0.9338,0.24989,0.24633,0.0781
-18.3,-0.93,0.24809,0.24452,0.0769
-18.2,-0.9261,0.24629,0.24273,0.0757
-18.1,-0.9223,0.2445,0.24093,0.0746
-18,-0.9185,0.24272,0.23915,0.0734
-17.9,-0.9146,0.24094,0.23737,0.0722
-17.8,-0.9108,0.23917,0.2356,0.071
-17.7,-0.9069,0.2374,0.23383,0.0698
-17.6,-0.9031,0.23564,0.23207,0.0687
-17.5,-0.8992,0.23389,0.23031,0.0675
-17.4,-0.8953,0.23214,0.22855,0.0663
-17.3,-0.8914,0.23039,0.2268,0.0652
-17.2,-0.8874,0.22865,0.22506,0.064
-17.1,-0.8835,0.2269,0.22332,0.0629
-17,-0.8796,0.22517,0.22158,0.0617
-16.9,-0.8756,0.22344,0.21985,0.0606
-16.8,-0.8716,0.22171,0.21812,0.0595
-16.7,-0.8676,0.21999,0.2164,0.0583
-16.6,-0.8636,0.21827,0.21468,0.0572
-16.5,-0.8596,0.21657,0.21297,0.0561
-16.4,-0.8556,0.21485,0.21126,0.055
-16.3,-0.8515,0.21315,0.20955,0.0538
-16.2,-0.8475,0.21144,0.20784,0.0527
-16.1,-0.8434,0.20974,0.20613,0.0516
-16,-0.8393,0.20804,0.20443,0.0505
-15.9,-0.8352,0.20634,0.20273,0.0494
-15.8,-0.8311,0.20464,0.20104,0.0483
-15.7,-0.827,0.20295,0.19932,0.0472
-15.6,-0.8229,0.20125,0.19762,0.0461
-15.5,-0.8187,0.19956,0.19593,0.0449
-15.4,-0.8145,0.19785,0.19422,0.0438
-15.3,-0.8102,0.19615,0.19252,0.0427
-15.2,-0.806,0.19443,0.1908,0.0416
-15.1,-0.8016,0.1927,0.18907,0.0405
-15,-0.7973,0.19097,0.18734,0.0394
-14.9,-0.7929,0.18921,0.18558,0.0382
-14.8,-0.7885,0.18743,0.1838,0.0371
-14.7,-0.784,0.18563,0.182,0.0359
-14.6,-0.7795,0.18376,0.18013,0.0348
-14.5,-0.7748,0.18182,0.17819,0.0336
-14.3,-0.7544,0.17591,0.17233,0.0281
-14.2,-0.7511,0.17416,0.17057,0.0273
-14.1,-0.7478,0.1724,0.16882,0.0266
-14,-0.7444,0.17069,0.1671,0.0258
-13.9,-0.7409,0.16901,0.16542,0.025
-13.8,-0.7375,0.16734,0.16375,0.0242
-13.7,-0.7339,0.1657,0.16211,0.0234
-13.6,-0.7303,0.16408,0.16049,0.0225
-13.5,-0.7267,0.16248,0.15889,0.0217
-13.4,-0.7237,0.16116,0.15757,0.0209
-13.3,-0.7199,0.15964,0.15605,0.0201
-13.2,-0.716,0.15813,0.15454,0.0192
-13.1,-0.7121,0.15664,0.15305,0.0183
-13,-0.7081,0.15516,0.15157,0.0174
-12.9,-0.7041,0.1537,0.15011,0.0166
-12.8,-0.7001,0.15224,0.14866,0.0157
-12.7,-0.696,0.1508,0.14722,0.0148
-12.6,-0.6919,0.14938,0.14579,0.0139
-12.5,-0.6877,0.14796,0.14438,0.013
-12.4,-0.6835,0.14655,0.14297,0.0121
-12.3,-0.6793,0.14515,0.14155,0.0112
-12.2,-0.6751,0.14376,0.14016,0.0104
-12.1,-0.6709,0.14238,0.13879,0.0095
-12,-0.6666,0.14102,0.13742,0.0086
-11.9,-0.6623,0.13966,0.13607,0.0077
-11.8,-0.658,0.13831,0.13472,0.0068
-11.7,-0.6537,0.13697,0.13338,0.006
-11.6,-0.6493,0.13563,0.13204,0.0051
-11.5,-0.645,0.1343,0.13072,0.0042
-11.4,-0.6407,0.13299,0.12941,0.0034
-11.3,-0.6363,0.13168,0.1281,0.0025
-11.2,-0.632,0.13037,0.1268,0.0017
-11.1,-0.6277,0.12908,0.12551,0.0009
-11,-0.6233,0.12779,0.12423,0
-10.9,-0.6191,0.12652,0.12296,-0.0008
-10.8,-0.6148,0.12525,0.1217,-0.0016
-10.7,-0.6106,0.12399,0.12045,-0.0024
-10.6,-0.6064,0.12275,0.11921,-0.0031
-10.5,-0.6023,0.12151,0.11798,-0.0039
-10.4,-0.5982,0.12029,0.11677,-0.0046
-10.3,-0.5943,0.11908,0.11556,-0.0053
-10.2,-0.5905,0.11789,0.11438,-0.0059
-10.1,-0.5868,0.11671,0.11321,-0.0065
-10,-0.5834,0.11557,0.11207,-0.0071
-9.9,-0.5802,0.11444,0.11096,-0.0076
-9.8,-0.5773,0.11336,0.10989,-0.008
-9.7,-0.5748,0.11231,0.10886,-0.0083
-9.6,-0.5729,0.11132,0.10788,-0.0084
-9.5,-0.5714,0.11037,0.10695,-0.0085
-9.3,-0.5702,0.10865,0.10527,-0.0081
-9.2,-0.5706,0.10789,0.10452,-0.0077
-9.1,-0.5716,0.10717,0.10383,-0.0072
-9,-0.5728,0.10646,0.10313,-0.0066
-8.9,-0.5736,0.10571,0.10241,-0.0061
-8.8,-0.574,0.1049,0.10161,-0.0057
-8.7,-0.5748,0.10413,0.10087,-0.0053
-8.6,-0.5755,0.10332,0.10009,-0.0049
-8.5,-0.5648,0.10137,0.09813,-0.0075
-8.4,-0.5536,0.09929,0.09603,-0.0103
-8.3,-0.5418,0.09704,0.09377,-0.0132
-8.1,-0.5053,0.09016,0.08687,-0.0239
-7.9,-0.4888,0.08749,0.08418,-0.0272
-7.8,-0.4786,0.08598,0.08267,-0.0293
-7.7,-0.4679,0.08448,0.08115,-0.0315
-7.6,-0.4568,0.08298,0.07964,-0.0338
-7.5,-0.4452,0.08148,0.07812,-0.0362
-7.4,-0.4331,0.07997,0.0766,-0.0387
-4.7,0.025,0.01926,0.01293,-0.1284
-4.6,0.0387,0.01849,0.01204,-0.1293
-4.5,0.0517,0.0181,0.01162,-0.1299
-4.4,0.0653,0.01777,0.01123,-0.1306
-4.2,0.0911,0.01767,0.01109,-0.1315
-4.1,0.1049,0.01712,0.01039,-0.1322
-4,0.1194,0.01653,0.00961,-0.133
-3.9,0.134,0.01607,0.00893,-0.1337
-3.8,0.1472,0.01562,0.00849,-0.1343
-3.7,0.1558,0.01543,0.00829,-0.1338
-3.6,0.1677,0.01523,0.00807,-0.134
-3.5,0.1803,0.01501,0.0078,-0.1343
-3.4,0.193,0.01477,0.0075,-0.1347
-3.3,0.206,0.0145,0.00714,-0.135
-3.2,0.2193,0.01437,0.00694,-0.1355
-3.1,0.2324,0.01417,0.00673,-0.1359
-3,0.2456,0.014,0.00654,-0.1364
-2.9,0.2594,0.0138,0.00628,-0.1369
-2.8,0.2702,0.01363,0.00606,-0.1368
-2.7,0.2807,0.01349,0.00583,-0.1366
-2.6,0.2924,0.0133,0.00565,-0.1367
-2.5,0.3044,0.01331,0.0057,-0.1369
-2.4,0.3169,0.01317,0.00552,-0.1372
-2.3,0.3301,0.013,0.00529,-0.1375
-2.2,0.343,0.01285,0.00509,-0.1378
-2.1,0.3565,0.01269,0.00496,-0.1383
-2,0.3683,0.01261,0.00487,-0.1384
-1.9,0.3778,0.01262,0.00486,-0.138
-1.8,0.3891,0.01251,0.00472,-0.138
-1.7,0.4012,0.01241,0.00464,-0.1382
-1.6,0.4135,0.01232,0.00456,-0.1384
-1.5,0.4264,0.01222,0.00443,-0.1387
-1.3,0.452,0.01209,0.00431,-0.1393
-1.2,0.4608,0.01205,0.00428,-0.1387
-1.1,0.4722,0.012,0.00418,-0.1387
-1,0.4841,0.01193,0.00412,-0.1388
-0.9,0.4964,0.01184,0.00405,-0.139
-0.8,0.5088,0.01183,0.00402,-0.1392
-0.7,0.5214,0.01175,0.00396,-0.1395
-0.6,0.5313,0.01171,0.00394,-0.1391
-0.5,0.5424,0.01168,0.00391,-0.1391
-0.4,0.554,0.01164,0.00385,-0.1391
-0.3,0.5661,0.01156,0.00381,-0.1392
-0.2,0.5778,0.0115,0.00375,-0.1391
-0.1,0.5881,0.01146,0.00371,-0.1389
0,0.6002,0.01136,0.00362,-0.1389
0.1,0.6126,0.01131,0.00357,-0.1391
0.2,0.6223,0.01129,0.00355,-0.1387
0.3,0.6339,0.01123,0.00351,-0.1387
0.4,0.6462,0.01118,0.00346,-0.1388
0.5,0.6563,0.01114,0.00345,-0.1384
0.6,0.6679,0.0111,0.00343,-0.1385
0.7,0.68,0.01105,0.00338,-0.1385
0.8,0.6904,0.01102,0.00336,-0.1382
0.9,0.702,0.01096,0.00332,-0.1382
1,0.7136,0.01094,0.0033,-0.1382
1.1,0.7242,0.0109,0.00331,-0.1381
1.2,0.7356,0.01087,0.00331,-0.138
1.3,0.7466,0.01082,0.00327,-0.1379
1.4,0.758,0.01079,0.00325,-0.1378
1.5,0.7694,0.01075,0.00324,-0.1378
1.6,0.7803,0.01072,0.00322,-0.1376
1.7,0.7914,0.01064,0.0032,-0.1375
1.8,0.8028,0.01059,0.00319,-0.1374
1.9,0.8139,0.01052,0.00323,-0.1374
2.1,0.8276,0.0094,0.00309,-0.135
2.2,0.8386,0.00944,0.00309,-0.1348
2.3,0.8494,0.00949,0.00311,-0.1346
2.4,0.8602,0.00955,0.00313,-0.1344
2.5,0.871,0.00961,0.00317,-0.1342
2.6,0.8816,0.00968,0.00319,-0.134
2.7,0.8914,0.00979,0.00318,-0.1335
2.8,0.9016,0.00989,0.00321,-0.1331
2.9,0.9116,0.01002,0.00325,-0.1328
3,0.9213,0.01016,0.00329,-0.1324
3.1,0.9309,0.01032,0.00335,-0.1319
3.2,0.9387,0.01062,0.00343,-0.1311
3.3,0.9477,0.01083,0.00352,-0.1306
3.4,0.9565,0.01106,0.00363,-0.1301
3.5,0.965,0.01132,0.00375,-0.1296
3.6,0.9734,0.0116,0.00389,-0.1291
3.7,0.9815,0.0119,0.00403,-0.1285
3.8,0.9871,0.01244,0.00426,-0.1275
3.9,0.9951,0.01278,0.00447,-0.127
4,1.0033,0.0131,0.00465,-0.1266
4.1,1.0118,0.01341,0.00484,-0.1261
4.2,1.0207,0.01368,0.00501,-0.1258
4.3,1.0298,0.01393,0.00519,-0.1255
4.4,1.0383,0.01425,0.00538,-0.1251
4.5,1.0478,0.01445,0.00554,-0.1248
4.6,1.0574,0.01464,0.00571,-0.1245
4.7,1.0669,0.01483,0.00587,-0.1243
4.8,1.0765,0.01502,0.00603,-0.124
4.9,1.0855,0.01527,0.00621,-0.1237
5,1.0953,0.01543,0.00637,-0.1234
5.1,1.1047,0.01563,0.00653,-0.1232
5.2,1.1145,0.01578,0.0067,-0.1229
5.3,1.1241,0.01596,0.0069,-0.1227
5.4,1.1336,0.01615,0.00708,-0.1224
5.5,1.1428,0.01636,0.00723,-0.1221
5.6,1.1524,0.01653,0.00741,-0.1218
5.7,1.162,0.0167,0.00758,-0.1216
5.8,1.1713,0.0169,0.00775,-0.1213
5.9,1.1809,0.01707,0.00794,-0.121
6,1.1903,0.01725,0.00812,-0.1207
6.1,1.1994,0.01747,0.00829,-0.1204
6.2,1.2088,0.01765,0.00848,-0.1201
6.3,1.2178,0.01787,0.00868,-0.1198
6.4,1.2273,0.01805,0.00887,-0.1195
6.5,1.2366,0.01824,0.00907,-0.1192
6.6,1.2455,0.01847,0.00931,-0.1189
6.7,1.2548,0.01866,0.00953,-0.1186
6.8,1.2636,0.01889,0.00971,-0.1183
6.9,1.2726,0.01911,0.00994,-0.1179
7,1.2817,0.01931,0.01016,-0.1176
7.1,1.2906,0.01953,0.01039,-0.1172
7.2,1.2992,0.01979,0.01063,-0.1168
7.3,1.3082,0.02,0.01088,-0.1165
7.4,1.3171,0.02023,0.01113,-0.1161
7.5,1.3258,0.02047,0.01139,-0.1157
7.6,1.3341,0.02074,0.01162,-0.1154
7.7,1.3428,0.02097,0.01189,-0.115
7.8,1.3514,0.02122,0.01216,-0.1145
7.9,1.3597,0.02149,0.01245,-0.1141
8,1.3678,0.02179,0.01278,-0.1137
8.1,1.376,0.02208,0.01309,-0.1132
8.2,1.3844,0.02234,0.01341,-0.1127
8.3,1.3926,0.02262,0.01373,-0.1123
8.4,1.4007,0.02288,0.01397,-0.1119
8.5,1.4083,0.02321,0.01431,-0.1114
8.6,1.4159,0.02355,0.01467,-0.1108
8.7,1.4239,0.02384,0.01502,-0.1103
8.8,1.4317,0.02414,0.01538,-0.1098
8.9,1.4394,0.02445,0.01575,-0.1092
9,1.4468,0.02478,0.01612,-0.1087
9.1,1.454,0.02513,0.0165,-0.1081
9.2,1.4609,0.02551,0.0169,-0.1075
9.3,1.4671,0.02595,0.01736,-0.1068
9.4,1.4751,0.02618,0.01763,-0.1063
9.5,1.4821,0.02654,0.01808,-0.1057
9.6,1.4889,0.0269,0.01851,-0.1051
9.8,1.5028,0.02751,0.01913,-0.104
9.9,1.508,0.028,0.01963,-0.1032
10,1.5142,0.02839,0.02007,-0.1024
10.1,1.5204,0.02877,0.02054,-0.1017
10.2,1.5262,0.02917,0.02102,-0.1009
10.3,1.5317,0.02958,0.02151,-0.1001
10.4,1.5369,0.03,0.02199,-0.0992
10.5,1.5413,0.03042,0.02246,-0.0982
10.6,1.5455,0.03084,0.02294,-0.0972
10.7,1.5494,0.03129,0.02343,-0.0962
10.8,1.5528,0.03177,0.02396,-0.0951
10.9,1.5555,0.03231,0.02453,-0.094
11,1.5572,0.03295,0.0252,-0.0927
11.1,1.5659,0.03302,0.02536,-0.0925
11.2,1.5693,0.03353,0.02594,-0.0914
11.3,1.5724,0.03406,0.02657,-0.0904
11.4,1.5754,0.03459,0.02718,-0.0894
11.5,1.5782,0.03513,0.02779,-0.0884
11.6,1.5808,0.03568,0.0284,-0.0873
11.7,1.5832,0.03625,0.02903,-0.0863
11.8,1.5852,0.03684,0.02968,-0.0853
11.9,1.5867,0.03748,0.03037,-0.0843
12,1.5875,0.03816,0.0311,-0.0832
12.1,1.5877,0.03891,0.0319,-0.0822
12.2,1.5869,0.03974,0.03279,-0.081
12.3,1.5878,0.04049,0.03359,-0.0801
12.4,1.5889,0.04123,0.03445,-0.0792
12.5,1.5895,0.04202,0.03534,-0.0782
12.6,1.5896,0.04285,0.03627,-0.0773
12.7,1.5894,0.04371,0.03723,-0.0765
12.8,1.589,0.0446,0.03822,-0.0756
12.9,1.5884,0.04552,0.03923,-0.0749
13,1.5875,0.04648,0.04028,-0.0741
13.1,1.5865,0.04746,0.04135,-0.0735
13.2,1.5851,0.04847,0.04245,-0.0729
13.3,1.5837,0.04951,0.04358,-0.0723
13.4,1.582,0.05059,0.04475,-0.0719
13.5,1.5802,0.05172,0.04595,-0.0715
13.6,1.5783,0.05287,0.04719,-0.0713
13.7,1.5762,0.05407,0.04848,-0.0711
13.8,1.5739,0.05532,0.04981,-0.071
13.9,1.5714,0.05662,0.05119,-0.0711
14,1.5687,0.05797,0.05262,-0.0712
14.1,1.5659,0.05938,0.05411,-0.0715
14.2,1.563,0.06083,0.05564,-0.0719
14.3,1.5599,0.06237,0.05727,-0.0725
14.4,1.5568,0.06396,0.05894,-0.0733
14.5,1.5534,0.06564,0.0607,-0.0742
14.6,1.5499,0.06741,0.06256,-0.0753
14.7,1.5463,0.06927,0.0645,-0.0767
14.8,1.5426,0.07121,0.06652,-0.0783
14.9,1.5389,0.07325,0.06865,-0.0801
15,1.535,0.0754,0.07089,-0.0821
15.1,1.5312,0.07767,0.07328,-0.0844
15.2,1.5273,0.08009,0.0758,-0.0871
15.3,1.5235,0.08265,0.07845,-0.09
15.4,1.5198,0.08536,0.08125,-0.0932
15.5,1.5163,0.08823,0.08422,-0.0967
15.6,1.5129,0.09129,0.08738,-0.1005
15.7,1.5097,0.09453,0.09072,-0.1045
15.8,1.5066,0.09797,0.09426,-0.1088
15.9,1.5035,0.10159,0.09799,-0.1132
16,1.5007,0.10535,0.10185,-0.1177
16.1,1.4978,0.10924,0.1058,-0.1223
16.2,1.4949,0.11313,0.10979,-0.1267
16.3,1.4921,0.11708,0.11383,-0.1311
16.4,1.4893,0.12085,0.11767,-0.1352
16.5,1.4862,0.12504,0.1219,-0.1397
16.6,1.483,0.12926,0.12621,-0.1442
16.9,1.4718,0.14322,0.14041,-0.1581
17,1.4674,0.14848,0.14575,-0.1631
17.1,1.462,0.15454,0.15189,-0.1685
17.2,1.4556,0.16157,0.159,-0.1744
18,1.4392,0.21455,0.21204,-0.2079
18.1,1.4422,0.21605,0.21354,-0.2093
18.2,1.4452,0.21745,0.21495,-0.2107
18.3,1.4481,0.21886,0.21637,-0.2121
18.4,1.4511,0.22014,0.21766,-0.2134
18.5,1.454,0.22137,0.21889,-0.2148
18.6,1.4569,0.22262,0.22014,-0.2161
18.8,1.4633,0.23297,0.23044,-0.2219
18.9,1.4667,0.23645,0.23391,-0.2239
19,1.4701,0.2391,0.23656,-0.2257
19.1,1.4734,0.24138,0.23884,-0.2273
19.2,1.4767,0.24355,0.24101,-0.2289
19.3,1.4799,0.24557,0.24304,-0.2304
19.4,1.4832,0.2475,0.24498,-0.232
19.5,1.4864,0.24937,0.24685,-0.2335
19.6,1.4897,0.25118,0.24867,-0.235
19.7,1.4929,0.25294,0.25043,-0.2365
19.8,1.4961,0.25469,0.25219,-0.238
19.9,1.4993,0.25639,0.2539,-0.2394
20,1.5024,0.25804,0.25555,-0.2409
20.1,1.5056,0.25967,0.25718,-0.2424
20.2,1.5087,0.2613,0.25882,-0.2438
20.3,1.5118,0.26286,0.26039,-0.2453
20.4,1.5149,0.26446,0.262,-0.2467
20.5,1.518,0.26603,0.26357,-0.2482
20.6,1.521,0.26752,0.26507,-0.2496
20.7,1.524,0.26907,0.26662,-0.251
20.8,1.527,0.27054,0.2681,-0.2525
20.9,1.53,0.27201,0.26958,-0.2539
21,1.5329,0.27343,0.27102,-0.2553
21.1,1.5358,0.2749,0.27249,-0.2568
21.2,1.5387,0.27629,0.27389,-0.2582
21.3,1.5416,0.27778,0.27538,-0.2596
21.4,1.5443,0.27914,0.27675,-0.261
21.5,1.5471,0.28057,0.27819,-0.2624
21.6,1.5499,0.28198,0.27961,-0.2638
21.7,1.5525,0.28337,0.28103,-0.2652
21.8,1.5552,0.28473,0.2824,-0.2666
21.9,1.5578,0.28617,0.28385,-0.268
22,1.5602,0.2875,0.28519,-0.2693
22.2,1.5738,0.30119,0.29881,-0.2755
22.3,1.5775,0.30387,0.3015,-0.2772
22.4,1.581,0.30619,0.30382,-0.2789
22.5,1.5845,0.30847,0.3061,-0.2806
22.6,1.5879,0.31069,0.30832,-0.2823
22.7,1.5912,0.31279,0.31043,-0.2839
22.8,1.5945,0.31491,0.31256,-0.2856
22.9,1.5978,0.31695,0.3146,-0.2873
23,1.601,0.31897,0.31662,-0.2889
23.1,1.6042,0.32095,0.31861,-0.2905
23.2,1.6074,0.32292,0.32059,-0.2922
23.3,1.6106,0.32486,0.32253,-0.2938
23.4,1.6137,0.32679,0.32447,-0.2955
23.5,1.6168,0.32869,0.32638,-0.2971
23.6,1.6198,0.33059,0.32828,-0.2987
23.7,1.6229,0.33248,0.33018,-0.3004
23.8,1.6259,0.33435,0.33207,-0.302
23.9,1.629,0.33622,0.33394,-0.3037
24,1.632,0.33808,0.33581,-0.3053
24.1,1.635,0.33992,0.33766,-0.307
24.2,1.6379,0.34177,0.33951,-0.3087
24.3,1.6409,0.34361,0.34136,-0.3103
24.4,1.6438,0.34543,0.34319,-0.312
24.6,1.6494,0.34837,0.34614,-0.3154
24.7,1.6522,0.35014,0.34792,-0.3171
24.8,1.655,0.35186,0.34965,-0.3188
24.9,1.6578,0.35363,0.35143,-0.3205
25,1.6605,0.35535,0.35316,-0.3221
25.1,1.6633,0.35714,0.35495,-0.3238
25.2,1.666,0.35882,0.35664,-0.3255
25.3,1.6687,0.36055,0.35838,-0.3272
25.4,1.6714,0.3623,0.36016,-0.3288
25.5,1.674,0.36404,0.36191,-0.3305
25.6,1.6766,0.36579,0.36367,-0.3322
25.7,1.6792,0.36746,0.36535,-0.3339
25.8,1.6818,0.36919,0.3671,-0.3356
25.9,1.6843,0.37094,0.36885,-0.3373
26,1.6868,0.37266,0.37058,-0.339
26.1,1.6893,0.3744,0.37233,-0.3407
26.2,1.6918,0.37614,0.37408,-0.3423
26.3,1.6942,0.37791,0.37586,-0.344
26.4,1.6966,0.37966,0.37762,-0.3457
26.5,1.699,0.38145,0.37942,-0.3474
26.6,1.7013,0.38321,0.38119,-0.3491
26.7,1.7037,0.38504,0.38302,-0.3508
26.8,1.706,0.38685,0.38485,-0.3525
26.9,1.7082,0.38873,0.38674,-0.3542
27,1.7104,0.39062,0.38863,-0.3558
27.1,1.7126,0.39255,0.39058,-0.3575
27.2,1.7242,0.40214,0.40009,-0.362
27.3,1.7274,0.40472,0.40268,-0.3639
27.4,1.7308,0.4074,0.40537,-0.366
27.5,1.7338,0.40987,0.40784,-0.3679
27.6,1.7368,0.41223,0.4102,-0.3699
27.7,1.7398,0.41457,0.41255,-0.3719
27.8,1.7425,0.41675,0.41474,-0.3738
27.9,1.7453,0.41895,0.41695,-0.3757
28,1.748,0.42114,0.41914,-0.3776
28.1,1.7507,0.42325,0.42126,-0.3796
28.2,1.7533,0.42535,0.42337,-0.3815
28.3,1.7559,0.42744,0.42547,-0.3834
28.4,1.7585,0.42955,0.42758,-0.3853
28.5,1.761,0.4316,0.42964,-0.3872
28.6,1.7635,0.43366,0.4317,-0.3892
28.7,1.7659,0.43571,0.43379,-0.3911
28.8,1.7684,0.43777,0.43585,-0.393
28.9,1.7708,0.43977,0.43786,-0.395
29,1.7732,0.44181,0.43991,-0.3969
29.1,1.7755,0.44383,0.44194,-0.3988
29.2,1.7779,0.44583,0.44395,-0.4008
29.3,1.7802,0.44785,0.44597,-0.4027
29.4,1.7825,0.44985,0.44799,-0.4046
29.5,1.7848,0.45187,0.45002,-0.4066
29.6,1.787,0.45385,0.45201,-0.4086
29.7,1.7892,0.45586,0.45402,-0.4105
29.8,1.7914,0.45786,0.45603,-0.4125
29.9,1.7937,0.45988,0.45806,-0.4144
30,1.7958,0.46187,0.46005,-0.4164

