airfoilName st19.dat
Re 	990000
M 	5.000000e-02
N 	4.500000e+00
VACC 	0 VACCflag 1
XTR 	1.00 	1.00 XTRflag 0
alpha,cl,cd,cdp,cm
-1.1,0.4899,0.00674,0.00115,-0.1384
-1,0.5009,0.00676,0.00114,-0.1384
-0.9,0.5121,0.00677,0.00112,-0.1383
-0.8,0.5234,0.00677,0.00111,-0.1383
-0.7,0.5348,0.00676,0.0011,-0.1383
-0.6,0.546,0.00676,0.00109,-0.1383
-0.5,0.5569,0.00679,0.00109,-0.1382
-0.4,0.568,0.00682,0.00109,-0.1382
-0.3,0.5792,0.00683,0.00108,-0.1381
-0.2,0.5902,0.00686,0.00109,-0.1381
-0.1,0.6005,0.00697,0.0011,-0.1379
0,0.6116,0.00699,0.0011,-0.1378
0.1,0.6226,0.00703,0.00111,-0.1378
0.2,0.6337,0.00706,0.00111,-0.1377
0.3,0.6438,0.0072,0.00115,-0.1375
0.4,0.6542,0.00731,0.00117,-0.1374
0.5,0.6652,0.00735,0.00119,-0.1373
0.6,0.6761,0.00741,0.00122,-0.1372
0.7,0.6869,0.00747,0.00125,-0.1372
0.8,0.6974,0.00758,0.00128,-0.1371
0.9,0.7069,0.00782,0.00136,-0.1368
1,0.7177,0.00789,0.00139,-0.1367
1.1,0.7284,0.00796,0.00143,-0.1366
1.2,0.7391,0.00805,0.00148,-0.1365
1.3,0.7494,0.00819,0.00153,-0.1364
1.4,0.7596,0.00834,0.00159,-0.1362
1.5,0.769,0.00861,0.00169,-0.136
1.6,0.7793,0.00875,0.00175,-0.1358
1.7,0.7897,0.00888,0.00181,-0.1357
1.8,0.7999,0.00903,0.00188,-0.1356
1.9,0.81,0.00919,0.00196,-0.1354
2,0.8188,0.00956,0.0021,-0.1351
2.1,0.8293,0.00967,0.00216,-0.135
2.2,0.84,0.00976,0.00222,-0.1349
2.3,0.8506,0.00985,0.00228,-0.1349
2.4,0.8614,0.00991,0.00233,-0.1348
2.5,0.8721,0.00999,0.0024,-0.1347
2.6,0.8825,0.0101,0.00247,-0.1346
2.7,0.8933,0.01016,0.00253,-0.1346
2.8,0.9041,0.01022,0.00258,-0.1345
2.9,0.9149,0.01029,0.00264,-0.1344
3,0.9257,0.01034,0.00269,-0.1344
3.1,0.9361,0.01045,0.00276,-0.1343
3.2,0.9469,0.0105,0.00281,-0.1342
3.3,0.9578,0.01053,0.00287,-0.1342
3.4,0.9685,0.01058,0.00294,-0.1342
3.5,0.9747,0.00937,0.00314,-0.1335
3.6,0.9855,0.00945,0.00319,-0.1334
3.7,0.9958,0.00958,0.00326,-0.1333
3.8,1.0065,0.00966,0.00334,-0.1332
3.9,1.0172,0.00975,0.0034,-0.1331
4,1.0278,0.00984,0.00347,-0.133
4.1,1.0385,0.00992,0.00353,-0.1329
4.2,1.0487,0.01006,0.00362,-0.1328
4.3,1.0593,0.01014,0.00368,-0.1327
4.4,1.0699,0.01023,0.00375,-0.1326
4.5,1.0803,0.01033,0.00383,-0.1324
4.6,1.0909,0.01042,0.00391,-0.1323
4.7,1.1014,0.01051,0.00398,-0.1322
4.8,1.1115,0.01067,0.00408,-0.1321
4.9,1.122,0.01075,0.00416,-0.1319
5,1.1324,0.01085,0.00423,-0.1318
5.1,1.1428,0.01096,0.00434,-0.1317
5.2,1.1531,0.01107,0.00444,-0.1316
5.3,1.1635,0.01117,0.00452,-0.1314
5.4,1.1734,0.01133,0.00463,-0.1312
5.5,1.1838,0.01144,0.00473,-0.1311
5.6,1.1941,0.01154,0.00482,-0.131
5.7,1.2043,0.01165,0.00492,-0.1308
5.8,1.2144,0.01179,0.00502,-0.1306
5.9,1.2246,0.0119,0.00513,-0.1305
6,1.2349,0.012,0.00523,-0.1303
6.1,1.2446,0.01217,0.00535,-0.1301
6.2,1.2547,0.0123,0.00548,-0.13
6.3,1.2649,0.01241,0.0056,-0.1298
6.4,1.275,0.01253,0.00571,-0.1296
6.5,1.285,0.01266,0.00582,-0.1294
6.6,1.2949,0.0128,0.00595,-0.1292
6.7,1.3049,0.01293,0.00608,-0.129
6.8,1.3149,0.01305,0.0062,-0.1289
6.9,1.3249,0.01317,0.00632,-0.1287
7,1.3348,0.0133,0.00644,-0.1285
7.1,1.3447,0.01344,0.00658,-0.1283
7.2,1.3542,0.01362,0.00674,-0.128
7.3,1.3641,0.01375,0.00687,-0.1278
7.4,1.374,0.01387,0.007,-0.1276
7.5,1.3834,0.01405,0.00715,-0.1274
7.6,1.393,0.01421,0.00731,-0.1271
7.7,1.4025,0.01438,0.00748,-0.1269
7.8,1.4123,0.01451,0.00762,-0.1266
7.9,1.4219,0.01465,0.00777,-0.1264
8,1.4316,0.0148,0.00791,-0.1262
8.1,1.4411,0.01495,0.00807,-0.1259
8.2,1.4505,0.01512,0.00823,-0.1257
8.3,1.4599,0.01529,0.00841,-0.1254
8.4,1.4692,0.01546,0.00859,-0.1251
8.5,1.4787,0.01561,0.00874,-0.1248
8.6,1.4881,0.01576,0.00891,-0.1246
8.7,1.4975,0.01591,0.00907,-0.1243
8.8,1.5067,0.01608,0.00925,-0.124
8.9,1.5159,0.01626,0.00943,-0.1237
9,1.5249,0.01645,0.00963,-0.1234
9.1,1.5339,0.01664,0.00983,-0.123
9.2,1.5429,0.01682,0.01003,-0.1227
9.3,1.552,0.01699,0.01021,-0.1224
9.4,1.561,0.01716,0.0104,-0.1221
9.5,1.5699,0.01735,0.01059,-0.1217
9.6,1.5787,0.01754,0.0108,-0.1214
9.7,1.5874,0.01775,0.01101,-0.121
9.8,1.5959,0.01796,0.01124,-0.1206
9.9,1.6044,0.01818,0.01147,-0.1202
10,1.6131,0.01837,0.01168,-0.1198
10.1,1.6215,0.01858,0.01189,-0.1194
10.2,1.6299,0.01879,0.01212,-0.119
10.3,1.6381,0.01901,0.01235,-0.1186
10.4,1.6462,0.01925,0.0126,-0.1181
10.5,1.6542,0.01949,0.01287,-0.1177
10.6,1.6623,0.01972,0.01314,-0.1172
10.7,1.6703,0.01995,0.01339,-0.1167
10.8,1.6782,0.02018,0.01365,-0.1162
10.9,1.686,0.02042,0.01391,-0.1157
11,1.6936,0.02066,0.01419,-0.1152
11.1,1.7012,0.02091,0.01446,-0.1146
11.2,1.7086,0.02117,0.01475,-0.1141
11.3,1.7159,0.02143,0.01504,-0.1135
11.4,1.723,0.0217,0.01534,-0.1129
11.5,1.7299,0.02197,0.01564,-0.1122
11.6,1.7366,0.02226,0.01596,-0.1116
11.7,1.7431,0.02255,0.01628,-0.1109
11.8,1.7493,0.02285,0.01662,-0.1101
11.9,1.7553,0.02317,0.01697,-0.1093
12,1.7608,0.0235,0.01733,-0.1085
12.1,1.766,0.02384,0.01771,-0.1075
12.2,1.7709,0.0242,0.01811,-0.1066
12.3,1.7749,0.02458,0.01855,-0.1055
12.4,1.7781,0.02498,0.019,-0.1042
12.5,1.7807,0.02541,0.01949,-0.1028
12.6,1.7826,0.0259,0.02004,-0.1014
12.7,1.7861,0.02627,0.02043,-0.1002
12.8,1.7901,0.02658,0.02078,-0.0992
12.9,1.7941,0.02691,0.02114,-0.0981
13,1.7976,0.02727,0.02155,-0.0971
13.1,1.801,0.02763,0.02196,-0.096
13.2,1.8043,0.02802,0.02239,-0.0949
13.3,1.8074,0.02842,0.02284,-0.0938
13.4,1.8103,0.02884,0.0233,-0.0927
13.5,1.8127,0.02928,0.02379,-0.0916
13.6,1.8152,0.02974,0.0243,-0.0905
13.7,1.8172,0.03023,0.02483,-0.0894
13.8,1.8193,0.03072,0.02538,-0.0883
13.9,1.821,0.03124,0.02594,-0.0873
14,1.8225,0.03177,0.02653,-0.0862
14.1,1.8237,0.03234,0.02715,-0.0851
14.2,1.825,0.03291,0.02777,-0.084
14.3,1.8259,0.03351,0.02842,-0.083
14.4,1.8265,0.03415,0.02912,-0.082
14.5,1.8269,0.03481,0.02984,-0.081
14.6,1.8273,0.03547,0.03055,-0.08
14.7,1.8274,0.03617,0.0313,-0.0791
14.8,1.827,0.03692,0.03211,-0.0782
14.9,1.8266,0.03769,0.03295,-0.0773
15,1.826,0.03849,0.03381,-0.0765
15.1,1.8252,0.03932,0.0347,-0.0757
15.2,1.8242,0.0402,0.03563,-0.075
15.3,1.8229,0.04111,0.03661,-0.0743
15.4,1.8212,0.04207,0.03763,-0.0737
15.5,1.8196,0.04304,0.03866,-0.0731
15.6,1.8174,0.0441,0.03978,-0.0727
15.7,1.8155,0.04515,0.0409,-0.0723
15.8,1.8131,0.0463,0.04211,-0.072
15.9,1.8107,0.04746,0.04334,-0.0718
16,1.808,0.04869,0.04463,-0.0717
16.1,1.8048,0.05002,0.04603,-0.0718
16.2,1.8016,0.05137,0.04745,-0.0719
16.3,1.798,0.0528,0.04894,-0.0722
16.4,1.7942,0.05429,0.0505,-0.0726
16.5,1.79,0.0559,0.05218,-0.0732
16.6,1.7862,0.0575,0.05385,-0.074
16.7,1.7812,0.05933,0.05576,-0.075
16.8,1.7764,0.06123,0.05774,-0.0763
16.9,1.7717,0.06322,0.05981,-0.0778
17,1.7666,0.06539,0.06206,-0.0796
17.1,1.7612,0.06775,0.06451,-0.0818
17.2,1.7559,0.07029,0.06714,-0.0843
17.3,1.7499,0.07314,0.07008,-0.0874
17.4,1.7432,0.07645,0.0735,-0.0911
17.5,1.7361,0.08024,0.07741,-0.0955
17.6,1.7271,0.08506,0.08235,-0.1012
17.7,1.7157,0.09142,0.08888,-0.1086
17.8,1.6881,0.10575,0.10352,-0.1238
18,1.596,0.14425,0.1426,-0.1593
18.1,1.5751,0.15392,0.15239,-0.1685
18.2,1.5636,0.16017,0.15871,-0.175
18.3,1.5524,0.16663,0.16524,-0.1815
18.4,1.5442,0.17235,0.17102,-0.1872
18.5,1.5402,0.17651,0.17522,-0.1913
18.6,1.5378,0.1801,0.17885,-0.1948
18.7,1.533,0.1855,0.18431,-0.1994
18.8,1.5321,0.18881,0.18765,-0.2024
18.9,1.5316,0.19205,0.19092,-0.2052
19,1.5285,0.19724,0.19616,-0.2092
19.1,1.5283,0.20063,0.19958,-0.212
19.2,1.5285,0.2038,0.20278,-0.2146
19.3,1.5286,0.20717,0.20617,-0.2172
19.4,1.5258,0.2133,0.21236,-0.2214
19.5,1.5259,0.2171,0.21619,-0.2242
19.6,1.521,0.22658,0.22573,-0.2298
19.8,1.516,0.24592,0.24511,-0.2399
19.9,1.5188,0.24813,0.24732,-0.2417
20,1.5216,0.25017,0.24937,-0.2433
20.1,1.5246,0.25207,0.25127,-0.245
20.2,1.5274,0.25405,0.25325,-0.2466
20.3,1.5304,0.25569,0.25489,-0.2482
20.4,1.5333,0.2576,0.25681,-0.2498
20.5,1.5362,0.25939,0.25859,-0.2514
20.6,1.5392,0.26092,0.26013,-0.253
20.7,1.5421,0.2626,0.26181,-0.2546
20.8,1.545,0.26412,0.26333,-0.2561
20.9,1.5477,0.26569,0.26492,-0.2577
21,1.5504,0.26708,0.2663,-0.2593
21.1,1.5526,0.26861,0.26785,-0.261
21.2,1.5549,0.27417,0.27339,-0.2636
21.4,1.5624,0.28439,0.28359,-0.2678
21.5,1.5666,0.28959,0.28878,-0.2699
21.6,1.5699,0.29208,0.29127,-0.2716
21.7,1.5732,0.29438,0.29358,-0.2732
21.8,1.5764,0.29663,0.29583,-0.2749
21.9,1.5796,0.29876,0.29797,-0.2765
22,1.5829,0.30088,0.3001,-0.2781
22.1,1.586,0.30293,0.30215,-0.2797
22.2,1.5892,0.30494,0.30416,-0.2813
22.3,1.5923,0.30695,0.30618,-0.2829
22.4,1.5955,0.30893,0.30815,-0.2846
22.5,1.5986,0.31088,0.31011,-0.2862
22.6,1.6017,0.31281,0.31204,-0.2878
22.7,1.6048,0.31473,0.31396,-0.2894
22.8,1.6078,0.31662,0.31586,-0.291
22.9,1.6109,0.31849,0.31773,-0.2927
23,1.6139,0.32035,0.31959,-0.2943
23.1,1.617,0.3222,0.32145,-0.2959
23.2,1.62,0.32403,0.32328,-0.2976
23.3,1.623,0.32586,0.32511,-0.2992
23.4,1.626,0.32765,0.32691,-0.3009
23.5,1.629,0.32948,0.32874,-0.3025
23.6,1.6319,0.33127,0.33053,-0.3042
23.7,1.6348,0.333,0.33227,-0.3058
23.8,1.6378,0.3348,0.33407,-0.3075
23.9,1.6407,0.33655,0.33583,-0.3091
24,1.6436,0.3383,0.33757,-0.3108
24.1,1.6464,0.34001,0.33929,-0.3125
24.2,1.6493,0.34175,0.34104,-0.3141
24.3,1.6521,0.34344,0.34273,-0.3158
24.4,1.6549,0.34516,0.34445,-0.3175
24.5,1.6577,0.34683,0.34612,-0.3192
24.6,1.6605,0.34853,0.34783,-0.3209
24.7,1.6633,0.35016,0.34946,-0.3226
24.8,1.666,0.3518,0.35111,-0.3243
24.9,1.6687,0.35351,0.35282,-0.326
25,1.6714,0.35508,0.35439,-0.3277
25.1,1.6741,0.35679,0.35611,-0.3294
25.2,1.6767,0.35827,0.3576,-0.3311
25.3,1.6793,0.35992,0.35926,-0.3328
25.4,1.6819,0.36151,0.36085,-0.3345
25.5,1.6845,0.36314,0.36249,-0.3362
25.6,1.6871,0.3648,0.36416,-0.3379
25.7,1.6895,0.36628,0.36564,-0.3396
25.8,1.692,0.3679,0.36726,-0.3414
25.9,1.6944,0.3695,0.36887,-0.3431
26,1.6966,0.37113,0.3705,-0.3448
26.1,1.6988,0.37294,0.37231,-0.3465
26.2,1.7005,0.37509,0.37446,-0.3481
26.4,1.7071,0.38032,0.37968,-0.352
26.5,1.7103,0.38271,0.38208,-0.354
26.6,1.7143,0.38564,0.38501,-0.3561
26.7,1.7183,0.38882,0.38819,-0.3581
26.8,1.7225,0.39251,0.39188,-0.3602
26.9,1.7267,0.39647,0.39584,-0.3623
27,1.7302,0.39946,0.39883,-0.3643
27.1,1.7331,0.40187,0.40124,-0.3662
27.2,1.7363,0.4045,0.40388,-0.3681
27.3,1.7388,0.40644,0.40581,-0.37
27.4,1.7417,0.4088,0.40818,-0.3719
27.5,1.7445,0.41097,0.41035,-0.3738
27.6,1.7472,0.41317,0.41255,-0.3757
27.7,1.75,0.41531,0.4147,-0.3776
27.8,1.7526,0.41739,0.41678,-0.3795
27.9,1.7557,0.41973,0.41912,-0.3816
28,1.7583,0.42176,0.42116,-0.3835
28.1,1.7608,0.42373,0.42313,-0.3854
28.2,1.7633,0.42571,0.42511,-0.3873
28.3,1.7658,0.42767,0.42708,-0.3892
28.4,1.7683,0.42964,0.42906,-0.3912
28.5,1.7707,0.43158,0.431,-0.3931
28.6,1.7731,0.43353,0.43295,-0.395
28.7,1.7756,0.43546,0.43489,-0.397
28.8,1.778,0.43737,0.4368,-0.3989
28.9,1.7803,0.43927,0.43871,-0.4009
29,1.7826,0.44117,0.44062,-0.4028
29.1,1.7849,0.44309,0.44254,-0.4047
29.2,1.7872,0.44493,0.44438,-0.4067
29.3,1.7895,0.44684,0.44629,-0.4087
29.4,1.7917,0.44866,0.44812,-0.4106
29.5,1.7939,0.45055,0.45002,-0.4126
29.6,1.7961,0.45239,0.45186,-0.4146
29.7,1.7983,0.45422,0.45369,-0.4166
29.8,1.8004,0.45606,0.45554,-0.4185
29.9,1.8026,0.45786,0.45734,-0.4206
30,1.8047,0.45968,0.45917,-0.4225

