airfoilName st19.dat
Re 	8.700000e+05
M 	5.000000e-02
N 	4.500000e+00
VACC 	0 VACCflag 1
XTR 	1.00 	1.00 XTRflag 0
alpha,cl,cd,cdp,cm
-6.7,-0.1513,0.01507,0.01146,-0.1348
-6.6,-0.1391,0.01426,0.01051,-0.1354
-6.5,-0.1272,0.01367,0.0098,-0.1359
-6.4,-0.1154,0.01317,0.0092,-0.1362
-6.3,-0.1037,0.01275,0.00868,-0.1365
-6.2,-0.0922,0.01237,0.00822,-0.1367
-6.1,-0.0806,0.01203,0.00781,-0.1369
-6,-0.069,0.01176,0.00747,-0.1371
-5.9,-0.0575,0.01149,0.00713,-0.1373
-5.8,-0.046,0.01127,0.00685,-0.1374
-5.7,-0.0345,0.01108,0.00661,-0.1375
-5.6,-0.0231,0.01094,0.00643,-0.1376
-5.4,0.0005,0.01019,0.00551,-0.138
-5.3,0.0121,0.00979,0.00502,-0.1382
-5.2,0.0234,0.00958,0.00477,-0.1382
-5.1,0.035,0.00941,0.00456,-0.1383
-5,0.0464,0.00926,0.00437,-0.1383
-4.9,0.0577,0.00912,0.00419,-0.1383
-4.8,0.0691,0.00899,0.00402,-0.1384
-4.7,0.0807,0.00886,0.00386,-0.1384
-4.6,0.0921,0.00874,0.0037,-0.1385
-4.5,0.1037,0.00863,0.00354,-0.1385
-4.4,0.1152,0.00852,0.0034,-0.1386
-4.3,0.1265,0.00842,0.00327,-0.1385
-4.2,0.1379,0.00835,0.00316,-0.1386
-4.1,0.1493,0.00822,0.00301,-0.1386
-4,0.1609,0.0081,0.00286,-0.1386
-3.9,0.1723,0.00801,0.00275,-0.1387
-3.8,0.1838,0.00793,0.00265,-0.1387
-3.7,0.1953,0.00785,0.00256,-0.1387
-3.6,0.2065,0.00779,0.00247,-0.1387
-3.5,0.218,0.00773,0.00239,-0.1387
-3.4,0.2294,0.00767,0.00231,-0.1387
-3.3,0.2409,0.00761,0.00222,-0.1388
-3.2,0.2524,0.00753,0.00214,-0.1388
-3.1,0.2637,0.00748,0.00207,-0.1388
-3,0.2751,0.00743,0.002,-0.1388
-2.9,0.2866,0.00738,0.00195,-0.1388
-2.8,0.298,0.00734,0.00189,-0.1388
-2.7,0.3095,0.0073,0.00183,-0.1388
-2.6,0.3209,0.00724,0.00177,-0.1389
-2.4,0.3436,0.00718,0.00172,-0.1389
-2.3,0.3551,0.00712,0.00165,-0.1389
-2.2,0.3665,0.00708,0.0016,-0.1389
-2.1,0.3779,0.00704,0.00155,-0.1389
-2,0.3893,0.00701,0.00151,-0.1389
-1.9,0.4003,0.00701,0.00147,-0.1388
-1.8,0.4114,0.007,0.00143,-0.1387
-1.7,0.4229,0.00696,0.00139,-0.1388
-1.6,0.4336,0.00697,0.00136,-0.1386
-1.5,0.4451,0.00694,0.00133,-0.1387
-1.4,0.4565,0.00692,0.00131,-0.1387
-1.3,0.4679,0.00691,0.00128,-0.1387
-1.2,0.4787,0.00693,0.00124,-0.1385
-1.1,0.49,0.00692,0.00122,-0.1385
-1,0.5013,0.00691,0.00121,-0.1385
-0.9,0.5123,0.00692,0.00119,-0.1384
-0.8,0.5236,0.00692,0.00118,-0.1384
-0.7,0.5349,0.00691,0.00116,-0.1384
-0.6,0.5461,0.00692,0.00115,-0.1384
-0.5,0.5571,0.00695,0.00115,-0.1383
-0.4,0.5682,0.00696,0.00113,-0.1383
-0.3,0.5794,0.00697,0.00114,-0.1382
-0.2,0.5906,0.00698,0.00114,-0.1382
-0.1,0.6016,0.00701,0.00114,-0.1381
0,0.6122,0.00708,0.00114,-0.138
0.1,0.623,0.00712,0.00115,-0.1379
0.2,0.6341,0.00715,0.00115,-0.1378
0.3,0.6451,0.00718,0.00116,-0.1378
0.4,0.6553,0.0073,0.00119,-0.1375
0.5,0.6658,0.0074,0.00121,-0.1374
0.6,0.6766,0.00745,0.00123,-0.1373
0.7,0.6874,0.00752,0.00126,-0.1372
0.8,0.6981,0.00759,0.00128,-0.1371
0.9,0.7082,0.00773,0.00133,-0.1369
1,0.718,0.00792,0.0014,-0.1367
1.1,0.7287,0.008,0.00143,-0.1366
1.2,0.7394,0.00808,0.00148,-0.1365
1.3,0.75,0.00817,0.00152,-0.1364
1.4,0.7602,0.00831,0.00158,-0.1362
1.5,0.7704,0.00847,0.00164,-0.1361
1.6,0.7796,0.00873,0.00174,-0.1358
1.7,0.79,0.00886,0.0018,-0.1357
1.8,0.8003,0.009,0.00186,-0.1355
1.9,0.8105,0.00915,0.00194,-0.1354
2,0.8205,0.00931,0.00202,-0.1352
2.1,0.8291,0.00971,0.00216,-0.1349
2.2,0.8393,0.00986,0.00224,-0.1347
2.3,0.8497,0.00998,0.00231,-0.1346
2.4,0.8603,0.01006,0.00237,-0.1345
2.5,0.871,0.01014,0.00245,-0.1344
2.6,0.8817,0.01022,0.00251,-0.1344
2.7,0.892,0.01035,0.00259,-0.1342
2.8,0.9026,0.01043,0.00265,-0.1342
2.9,0.9134,0.01048,0.0027,-0.1341
3,0.9242,0.01054,0.00276,-0.134
3.1,0.9348,0.01061,0.00282,-0.134
3.2,0.9453,0.01069,0.0029,-0.1339
3.4,0.962,0.00952,0.00315,-0.1331
3.5,0.9727,0.00961,0.00321,-0.133
3.6,0.9833,0.0097,0.00328,-0.1329
3.7,0.994,0.00977,0.00333,-0.1328
3.8,1.0043,0.00991,0.00343,-0.1327
3.9,1.015,0.00999,0.00349,-0.1326
4,1.0256,0.01008,0.00356,-0.1325
4.1,1.0361,0.01018,0.00363,-0.1324
4.2,1.0467,0.01026,0.0037,-0.1323
4.3,1.0569,0.0104,0.00378,-0.1321
4.4,1.0675,0.01049,0.00386,-0.132
4.5,1.078,0.01058,0.00393,-0.1319
4.6,1.0885,0.01068,0.004,-0.1318
4.7,1.0989,0.01079,0.0041,-0.1317
4.8,1.1094,0.01088,0.00417,-0.1316
4.9,1.1194,0.01104,0.00426,-0.1314
5,1.1298,0.01113,0.00436,-0.1313
5.1,1.1402,0.01123,0.00446,-0.1311
5.2,1.1505,0.01134,0.00455,-0.131
5.3,1.1607,0.01147,0.00466,-0.1308
5.4,1.1711,0.01156,0.00474,-0.1307
5.5,1.181,0.01172,0.00485,-0.1305
5.6,1.1912,0.01184,0.00496,-0.1304
5.7,1.2015,0.01195,0.00506,-0.1302
5.8,1.2117,0.01206,0.00516,-0.1301
5.9,1.2217,0.0122,0.00527,-0.1299
6,1.2318,0.01232,0.00539,-0.1297
6.1,1.242,0.01244,0.00549,-0.1295
6.2,1.2521,0.01256,0.0056,-0.1294
6.3,1.2616,0.01275,0.00575,-0.1291
6.4,1.2718,0.01286,0.00588,-0.129
6.5,1.2818,0.01298,0.006,-0.1288
6.6,1.2918,0.01311,0.00612,-0.1286
6.7,1.3016,0.01326,0.00625,-0.1284
6.8,1.3114,0.01341,0.00639,-0.1282
6.9,1.3214,0.01353,0.00652,-0.128
7,1.3313,0.01365,0.00664,-0.1278
7.1,1.3412,0.01378,0.00678,-0.1276
7.2,1.3509,0.01393,0.00692,-0.1274
7.3,1.3606,0.01409,0.00706,-0.1271
7.4,1.3701,0.01426,0.00723,-0.1269
7.5,1.3799,0.01439,0.00737,-0.1266
7.6,1.3896,0.01453,0.00753,-0.1264
7.7,1.3989,0.01473,0.00769,-0.1261
7.8,1.4081,0.01492,0.00787,-0.1258
7.9,1.4178,0.01506,0.00802,-0.1256
8,1.4274,0.0152,0.00818,-0.1254
8.1,1.4369,0.01535,0.00833,-0.1251
8.2,1.4463,0.01551,0.0085,-0.1248
8.3,1.4557,0.01568,0.00867,-0.1246
8.4,1.4649,0.01586,0.00885,-0.1243
8.5,1.4741,0.01605,0.00904,-0.124
8.6,1.4834,0.01621,0.00922,-0.1237
8.7,1.4927,0.01637,0.00939,-0.1234
8.8,1.502,0.01653,0.00956,-0.1231
8.9,1.5111,0.0167,0.00975,-0.1228
9,1.5201,0.01688,0.00995,-0.1225
9.1,1.5291,0.01708,0.01015,-0.1221
9.2,1.5379,0.01728,0.01036,-0.1218
9.3,1.5466,0.01749,0.01058,-0.1214
9.4,1.5556,0.01766,0.01077,-0.1211
9.5,1.5645,0.01785,0.01097,-0.1207
9.6,1.5732,0.01804,0.01118,-0.1204
9.7,1.5819,0.01823,0.01139,-0.12
9.8,1.5904,0.01844,0.01161,-0.1196
9.9,1.5988,0.01867,0.01185,-0.1192
10,1.607,0.01891,0.0121,-0.1187
10.1,1.6154,0.01913,0.01234,-0.1183
10.2,1.6238,0.01933,0.01257,-0.1179
10.3,1.632,0.01954,0.01281,-0.1175
10.4,1.64,0.01977,0.01303,-0.117
10.5,1.648,0.02001,0.0133,-0.1165
10.6,1.6558,0.02026,0.01357,-0.116
10.7,1.6635,0.02052,0.01385,-0.1155
10.8,1.671,0.02079,0.01415,-0.115
10.9,1.6786,0.02103,0.01442,-0.1144
11,1.6862,0.02128,0.01471,-0.1139
11.1,1.6935,0.02154,0.015,-0.1133
11.2,1.7008,0.0218,0.01529,-0.1127
11.3,1.7078,0.02207,0.0156,-0.1121
11.4,1.7147,0.02235,0.01591,-0.1115
11.5,1.7214,0.02263,0.01622,-0.1108
11.6,1.7279,0.02292,0.01654,-0.1101
11.7,1.7341,0.02322,0.01687,-0.1093
11.8,1.7401,0.02352,0.01721,-0.1085
11.9,1.7458,0.02382,0.01755,-0.1077
12,1.7512,0.02415,0.01791,-0.1068
12.1,1.7563,0.02447,0.01828,-0.1059
12.2,1.7605,0.0248,0.01864,-0.1048
12.3,1.7643,0.02515,0.01905,-0.1036
12.4,1.7679,0.02552,0.01945,-0.1025
12.5,1.7713,0.02591,0.01988,-0.1013
12.6,1.7743,0.02632,0.02035,-0.1
12.7,1.7772,0.02675,0.02083,-0.0988
12.8,1.7797,0.02721,0.02133,-0.0976
12.9,1.7815,0.02773,0.02191,-0.0962
13,1.783,0.02826,0.0225,-0.0949
13.1,1.7838,0.02886,0.02317,-0.0935
13.2,1.7841,0.02949,0.02384,-0.0921
13.3,1.7876,0.02987,0.02426,-0.0911
13.4,1.7907,0.03027,0.02471,-0.0901
13.5,1.7933,0.03073,0.02522,-0.0891
13.6,1.7959,0.03118,0.02572,-0.0881
13.7,1.7979,0.03169,0.02627,-0.0871
13.8,1.7997,0.0322,0.02684,-0.086
13.9,1.8013,0.03274,0.02743,-0.085
14,1.8027,0.03331,0.02805,-0.084
14.1,1.8037,0.03391,0.02871,-0.0829
14.2,1.8049,0.03451,0.02936,-0.082
14.3,1.8055,0.03515,0.03006,-0.081
14.4,1.8058,0.03583,0.0308,-0.08
14.5,1.8057,0.03655,0.03158,-0.0791
14.6,1.8059,0.03726,0.03234,-0.0782
14.7,1.8058,0.03801,0.03315,-0.0774
14.8,1.805,0.03883,0.03403,-0.0765
14.9,1.8043,0.03967,0.03493,-0.0758
15,1.8034,0.04054,0.03586,-0.0751
15.1,1.8021,0.04145,0.03686,-0.0744
15.2,1.8006,0.0424,0.03787,-0.0738
15.3,1.7989,0.04339,0.03892,-0.0732
15.4,1.7968,0.04445,0.04005,-0.0728
15.5,1.7947,0.04553,0.04119,-0.0724
15.6,1.7922,0.04669,0.04242,-0.0721
15.7,1.79,0.04786,0.04365,-0.072
15.8,1.787,0.04913,0.04499,-0.0719
15.9,1.7842,0.05042,0.04635,-0.0719
16,1.7811,0.05178,0.04778,-0.0721
16.1,1.7772,0.05326,0.04934,-0.0724
16.2,1.7735,0.05477,0.05091,-0.0729
16.3,1.7694,0.05637,0.05259,-0.0735
16.4,1.7652,0.05806,0.05435,-0.0744
16.5,1.7605,0.05988,0.05626,-0.0754
16.6,1.7563,0.06173,0.05818,-0.0767
16.7,1.751,0.06384,0.06038,-0.0783
16.8,1.7457,0.06609,0.06271,-0.0803
16.9,1.7406,0.06845,0.06516,-0.0825
17,1.735,0.07111,0.06792,-0.0852
17.1,1.729,0.07406,0.07097,-0.0884
17.2,1.7227,0.07739,0.0744,-0.0922
17.3,1.7155,0.08138,0.07851,-0.0969
17.4,1.7063,0.08648,0.08375,-0.103
17.5,1.6938,0.09363,0.09108,-0.1113
17.6,1.6631,0.10963,0.10742,-0.1276
17.7,1.6177,0.12892,0.127,-0.1453
17.8,1.5913,0.14066,0.13889,-0.1562
17.9,1.574,0.14904,0.14738,-0.1643
18,1.5609,0.15598,0.15439,-0.1711
18.1,1.5524,0.1612,0.15968,-0.1766
18.2,1.5445,0.16637,0.16491,-0.182
18.3,1.5403,0.17026,0.16883,-0.186
18.4,1.5348,0.17521,0.17384,-0.1907
18.5,1.5328,0.17865,0.17732,-0.194
18.6,1.5303,0.18262,0.18133,-0.1976
18.7,1.5278,0.18695,0.1857,-0.2013
18.8,1.5274,0.19015,0.18893,-0.2041
18.9,1.527,0.19342,0.19223,-0.2068
19,1.5244,0.19842,0.19728,-0.2106
19.1,1.5244,0.20178,0.20068,-0.2133
19.2,1.5244,0.20527,0.20419,-0.216
19.3,1.5222,0.21073,0.20971,-0.2198
19.4,1.509,0.22909,0.22818,-0.2298
20.2,1.5256,0.25612,0.25523,-0.2472
20.3,1.5287,0.2577,0.25681,-0.2488
20.4,1.5316,0.25951,0.25863,-0.2503
20.5,1.5346,0.26122,0.26034,-0.2519
20.6,1.5376,0.26274,0.26186,-0.2534
20.7,1.5405,0.26438,0.26351,-0.255
20.8,1.5435,0.2659,0.26502,-0.2565
20.9,1.5463,0.26747,0.2666,-0.2581
21,1.5492,0.2689,0.26804,-0.2596
21.1,1.5519,0.27051,0.26966,-0.2612
21.2,1.5544,0.27188,0.27104,-0.2628
21.3,1.5567,0.27341,0.27257,-0.2643
21.4,1.559,0.27671,0.27585,-0.2663
21.5,1.5628,0.28125,0.28039,-0.2684
21.6,1.5668,0.28595,0.28508,-0.2704
21.7,1.5705,0.28968,0.28881,-0.2723
21.8,1.5753,0.29574,0.29486,-0.2745
21.9,1.5786,0.29807,0.2972,-0.2762
22,1.5819,0.30047,0.2996,-0.2778
22.1,1.5851,0.30263,0.30177,-0.2795
22.2,1.5883,0.30476,0.3039,-0.2811
22.3,1.5916,0.30691,0.30604,-0.2827
22.4,1.5947,0.30895,0.3081,-0.2843
22.5,1.5979,0.31097,0.31012,-0.286
22.6,1.601,0.31299,0.31214,-0.2876
22.7,1.6042,0.31496,0.31411,-0.2892
22.8,1.6073,0.31692,0.31607,-0.2909
22.9,1.6104,0.31885,0.31801,-0.2925
23,1.6135,0.32076,0.31992,-0.2941
23.1,1.6165,0.32266,0.32182,-0.2958
23.2,1.6196,0.32454,0.32371,-0.2974
23.3,1.6226,0.32641,0.32558,-0.2991
23.4,1.6257,0.32825,0.32742,-0.3007
23.5,1.6287,0.33011,0.32929,-0.3024
23.6,1.6316,0.33193,0.33111,-0.304
23.7,1.6346,0.33371,0.33289,-0.3057
23.8,1.6375,0.33554,0.33472,-0.3073
23.9,1.6405,0.33732,0.33651,-0.309
24,1.6434,0.33909,0.33829,-0.3107
24.1,1.6463,0.34083,0.34003,-0.3123
24.2,1.6492,0.3426,0.3418,-0.314
24.3,1.652,0.34431,0.34352,-0.3157
24.4,1.6549,0.34606,0.34527,-0.3174
24.5,1.6577,0.34774,0.34696,-0.3191
24.6,1.6605,0.34946,0.34868,-0.3208
24.7,1.6633,0.35112,0.35034,-0.3225
24.8,1.666,0.35278,0.352,-0.3241
24.9,1.6688,0.3545,0.35373,-0.3259
25,1.6715,0.35609,0.35532,-0.3276
25.1,1.6742,0.35783,0.35707,-0.3293
25.2,1.6768,0.35933,0.35858,-0.331
25.3,1.6795,0.361,0.36026,-0.3327
25.4,1.6821,0.36261,0.36188,-0.3344
25.5,1.6847,0.36426,0.36353,-0.3361
25.6,1.6873,0.36593,0.3652,-0.3379
25.7,1.6898,0.36741,0.36669,-0.3396
25.8,1.6923,0.36902,0.36831,-0.3413
25.9,1.6948,0.37061,0.36989,-0.343
26,1.6972,0.37217,0.37146,-0.3448
26.1,1.6997,0.37382,0.37312,-0.3465
26.2,1.702,0.37545,0.37475,-0.3482
26.3,1.7044,0.3772,0.37651,-0.35
26.4,1.7065,0.37899,0.3783,-0.3517
26.5,1.7087,0.38096,0.38028,-0.3534
26.6,1.7106,0.3831,0.38242,-0.355
26.8,1.7169,0.38814,0.38744,-0.3589
26.9,1.7207,0.39085,0.39016,-0.361
27,1.7244,0.39367,0.39298,-0.3631
27.1,1.7279,0.39639,0.3957,-0.3651
27.2,1.7325,0.40046,0.39977,-0.3673
27.3,1.7351,0.40246,0.40177,-0.3691
27.4,1.7391,0.40616,0.40547,-0.3713
27.5,1.7423,0.40886,0.40818,-0.3732
27.6,1.7454,0.41157,0.41089,-0.3752
27.7,1.7484,0.41405,0.41337,-0.3771
27.8,1.7512,0.41635,0.41567,-0.379
27.9,1.7539,0.4186,0.41792,-0.3809
28,1.7568,0.42092,0.42025,-0.3829
28.1,1.76,0.42345,0.42278,-0.385
28.2,1.7625,0.42552,0.42485,-0.3869
28.3,1.7651,0.42757,0.42691,-0.3889
28.4,1.7677,0.42965,0.42899,-0.3908
28.5,1.7702,0.43165,0.431,-0.3928
28.6,1.7727,0.43366,0.43301,-0.3947
28.7,1.7751,0.43565,0.43501,-0.3966
28.8,1.7776,0.43764,0.43701,-0.3986
28.9,1.78,0.43959,0.43896,-0.4006
29,1.7823,0.44154,0.44091,-0.4025
29.1,1.7847,0.4435,0.44287,-0.4045
29.2,1.787,0.4454,0.44478,-0.4064
29.3,1.7893,0.44734,0.44672,-0.4084
29.4,1.7916,0.44922,0.44861,-0.4104
29.5,1.7939,0.45115,0.45054,-0.4124
29.6,1.7961,0.45303,0.45243,-0.4144
29.7,1.7983,0.4549,0.4543,-0.4163
29.8,1.8005,0.45678,0.45618,-0.4183
29.9,1.8027,0.45862,0.45803,-0.4203
30,1.8048,0.46048,0.45989,-0.4223

