airfoilName st19.dat
Re 	650000
M 	5.000000e-02
N 	4.500000e+00
VACC 	0 VACCflag 1
XTR 	1.00 	1.00 XTRflag 0
alpha,cl,cd,cdp,cm
-6.5,-0.1314,0.01754,0.01384,-0.1335
-6.4,-0.118,0.01628,0.01238,-0.1347
-6.3,-0.1063,0.01563,0.01161,-0.1351
-6.2,-0.0945,0.0151,0.01097,-0.1356
-6.1,-0.0829,0.01475,0.01054,-0.1358
-6,-0.0699,0.01347,0.00906,-0.1369
-5.9,-0.0577,0.01278,0.00824,-0.1374
-5.8,-0.0458,0.01233,0.00769,-0.1377
-5.7,-0.0339,0.01199,0.00728,-0.138
-5.6,-0.0221,0.0117,0.00693,-0.1382
-5.5,-0.0103,0.01146,0.00663,-0.1384
-5.4,0.0013,0.01122,0.00634,-0.1385
-5.3,0.0128,0.01101,0.00609,-0.1386
-5.2,0.0243,0.0108,0.00583,-0.1387
-5.1,0.0358,0.0106,0.00558,-0.1388
-5,0.0473,0.01041,0.00533,-0.1389
-4.9,0.0586,0.01022,0.00509,-0.1389
-4.8,0.0701,0.01005,0.00485,-0.1389
-4.7,0.0815,0.00989,0.00464,-0.1389
-4.6,0.093,0.00975,0.00446,-0.139
-4.5,0.1043,0.00965,0.00431,-0.139
-4.4,0.116,0.00941,0.00403,-0.1391
-4.3,0.1276,0.00923,0.00383,-0.1392
-4.2,0.139,0.00911,0.00367,-0.1392
-4.1,0.1505,0.009,0.00353,-0.1392
-4,0.1618,0.00889,0.0034,-0.1392
-3.9,0.1733,0.00879,0.00328,-0.1393
-3.8,0.1848,0.0087,0.00316,-0.1393
-3.7,0.1961,0.00861,0.00304,-0.1393
-3.6,0.2075,0.00854,0.00293,-0.1393
-3.5,0.2189,0.00844,0.00281,-0.1393
-3.4,0.2303,0.00835,0.0027,-0.1393
-3.2,0.2531,0.0082,0.00253,-0.1393
-3.1,0.2646,0.00814,0.00245,-0.1394
-3,0.2759,0.00809,0.00237,-0.1393
-2.9,0.2872,0.00803,0.00233,-0.1393
-2.8,0.2986,0.00797,0.00227,-0.1394
-2.7,0.31,0.00791,0.0022,-0.1394
-2.5,0.3328,0.00782,0.00209,-0.1394
-2.4,0.3441,0.00776,0.00201,-0.1394
-2.3,0.3555,0.00771,0.00195,-0.1393
-2.2,0.367,0.00767,0.0019,-0.1394
-2.1,0.3783,0.00763,0.00184,-0.1394
-2,0.3897,0.0076,0.00179,-0.1394
-1.9,0.401,0.00756,0.00174,-0.1393
-1.8,0.4123,0.00752,0.00171,-0.1393
-1.7,0.4238,0.00748,0.00167,-0.1394
-1.6,0.4348,0.00746,0.00162,-0.1393
-1.5,0.4458,0.00745,0.00158,-0.1391
-1.4,0.4571,0.00742,0.00154,-0.1391
-1.3,0.4681,0.00741,0.0015,-0.139
-1.2,0.4794,0.00739,0.00147,-0.139
-1.1,0.4908,0.00737,0.00145,-0.139
-1,0.5018,0.00737,0.00142,-0.1389
-0.9,0.513,0.00735,0.0014,-0.1388
-0.8,0.5241,0.00735,0.00138,-0.1388
-0.7,0.5354,0.00734,0.00136,-0.1388
-0.6,0.5464,0.00735,0.00134,-0.1387
-0.5,0.5577,0.00734,0.00134,-0.1386
-0.4,0.5689,0.00734,0.00133,-0.1386
-0.3,0.5801,0.00734,0.00131,-0.1386
-0.2,0.591,0.00737,0.0013,-0.1385
-0.1,0.6022,0.00737,0.0013,-0.1384
0,0.6132,0.00739,0.00129,-0.1383
0.1,0.6242,0.00741,0.00129,-0.1382
0.2,0.6353,0.00742,0.0013,-0.1382
0.3,0.646,0.00747,0.0013,-0.1381
0.4,0.6568,0.00751,0.0013,-0.1379
0.5,0.6679,0.00754,0.00131,-0.1379
0.6,0.6789,0.00756,0.00132,-0.1378
0.7,0.6892,0.00765,0.00134,-0.1376
0.8,0.6997,0.00773,0.00136,-0.1374
0.9,0.7105,0.00778,0.00138,-0.1373
1,0.7207,0.00788,0.00141,-0.1371
1.1,0.731,0.00799,0.00144,-0.1369
1.2,0.7416,0.00807,0.00148,-0.1368
1.3,0.7511,0.00826,0.00154,-0.1365
1.4,0.7616,0.00835,0.00158,-0.1363
1.5,0.7717,0.00849,0.00164,-0.1361
1.6,0.7817,0.00863,0.00171,-0.1359
1.7,0.7921,0.00873,0.00176,-0.1358
1.8,0.8012,0.009,0.00186,-0.1354
1.9,0.8114,0.00913,0.00192,-0.1353
2,0.8216,0.00926,0.00199,-0.1351
2.1,0.8316,0.00942,0.00207,-0.1349
2.2,0.8416,0.00958,0.00214,-0.1348
2.3,0.8515,0.00975,0.00223,-0.1346
2.4,0.8597,0.01016,0.0024,-0.1341
2.5,0.8695,0.01035,0.00251,-0.134
2.6,0.8794,0.01052,0.00261,-0.1338
2.7,0.8897,0.01065,0.00268,-0.1337
2.8,0.9002,0.01075,0.00276,-0.1336
3,0.9208,0.01095,0.00295,-0.1334
3.1,0.9259,0.00972,0.00311,-0.1324
3.2,0.9364,0.00983,0.00317,-0.1323
3.3,0.9471,0.00992,0.00324,-0.1322
3.4,0.9573,0.01007,0.00333,-0.132
3.5,0.9679,0.01016,0.00339,-0.1319
3.6,0.9784,0.01026,0.00346,-0.1318
3.7,0.989,0.01035,0.00353,-0.1317
3.8,0.9996,0.01044,0.0036,-0.1316
3.9,1.0101,0.01055,0.00369,-0.1315
4.1,1.0308,0.01079,0.00385,-0.1312
4.2,1.0413,0.01088,0.00394,-0.1311
4.3,1.0518,0.01097,0.00401,-0.131
4.4,1.0622,0.01108,0.00409,-0.1309
4.5,1.0726,0.01118,0.00418,-0.1307
4.6,1.0827,0.01133,0.00427,-0.1306
4.7,1.0931,0.01144,0.00436,-0.1304
4.8,1.1035,0.01154,0.00445,-0.1303
4.9,1.1138,0.01164,0.00453,-0.1302
5,1.124,0.01177,0.00464,-0.13
5.1,1.1344,0.01187,0.00473,-0.1299
5.2,1.1442,0.01203,0.00485,-0.1297
5.3,1.1545,0.01215,0.00496,-0.1295
5.4,1.1647,0.01226,0.00506,-0.1294
5.5,1.1748,0.01238,0.00517,-0.1292
5.6,1.1849,0.01252,0.00529,-0.129
5.7,1.1951,0.01263,0.00539,-0.1288
5.8,1.2048,0.0128,0.00551,-0.1286
5.9,1.2148,0.01293,0.00564,-0.1284
6,1.2249,0.01305,0.00575,-0.1283
6.1,1.2349,0.01318,0.00587,-0.1281
6.2,1.2447,0.01334,0.006,-0.1279
6.3,1.2546,0.01347,0.00613,-0.1277
6.4,1.2646,0.0136,0.00628,-0.1275
6.5,1.2745,0.01373,0.0064,-0.1273
6.6,1.2838,0.01394,0.00657,-0.127
6.7,1.2937,0.01406,0.0067,-0.1268
6.8,1.3036,0.0142,0.00683,-0.1266
6.9,1.3133,0.01435,0.00698,-0.1263
7,1.3229,0.01451,0.00713,-0.1261
7.1,1.3325,0.01468,0.0073,-0.1258
7.2,1.3423,0.01481,0.00744,-0.1256
7.3,1.352,0.01496,0.00759,-0.1254
7.4,1.3616,0.01511,0.00775,-0.1251
7.5,1.3711,0.01527,0.00791,-0.1249
7.6,1.3805,0.01545,0.00808,-0.1246
7.7,1.3897,0.01564,0.00828,-0.1243
7.8,1.3992,0.01579,0.00845,-0.124
7.9,1.4087,0.01595,0.00862,-0.1238
8,1.4178,0.01614,0.00879,-0.1235
8.1,1.427,0.01632,0.00898,-0.1232
8.2,1.4361,0.01652,0.00918,-0.1229
8.3,1.4453,0.0167,0.00936,-0.1226
8.4,1.4545,0.01687,0.00954,-0.1223
8.5,1.4636,0.01705,0.00973,-0.122
8.6,1.4727,0.01724,0.00993,-0.1216
8.7,1.4816,0.01744,0.01013,-0.1213
8.8,1.4904,0.01765,0.01035,-0.1209
8.9,1.4992,0.01786,0.01058,-0.1206
9,1.5082,0.01803,0.01077,-0.1202
9.1,1.5171,0.01822,0.011,-0.1199
9.2,1.5259,0.01841,0.01121,-0.1195
9.3,1.5345,0.01861,0.01143,-0.1191
9.4,1.5431,0.01883,0.01165,-0.1187
9.5,1.5515,0.01906,0.01189,-0.1183
9.6,1.5597,0.01931,0.01215,-0.1179
9.7,1.5681,0.01952,0.01239,-0.1175
9.8,1.5765,0.01973,0.01263,-0.1171
9.9,1.5849,0.01994,0.01287,-0.1166
10,1.593,0.02017,0.01312,-0.1162
10.1,1.6011,0.0204,0.01337,-0.1157
10.2,1.609,0.02064,0.01364,-0.1152
10.3,1.6168,0.0209,0.01391,-0.1147
10.4,1.6243,0.02118,0.01421,-0.1142
10.5,1.6317,0.02147,0.01453,-0.1136
10.6,1.6394,0.02171,0.01482,-0.1131
10.7,1.6469,0.02196,0.01511,-0.1125
10.8,1.6542,0.02222,0.01541,-0.112
10.9,1.6614,0.0225,0.01572,-0.1114
11,1.6684,0.02278,0.01603,-0.1107
11.2,1.6818,0.02333,0.01661,-0.1095
11.3,1.688,0.02365,0.01696,-0.1087
11.4,1.6939,0.024,0.01734,-0.1079
11.5,1.6994,0.02434,0.01772,-0.1071
11.6,1.7052,0.02465,0.01808,-0.1062
11.7,1.7107,0.02497,0.01844,-0.1054
11.8,1.7154,0.02529,0.0188,-0.1044
11.9,1.7197,0.02562,0.01918,-0.1033
12,1.7238,0.02596,0.01957,-0.1022
12.1,1.7278,0.02631,0.01997,-0.1011
12.2,1.7317,0.02668,0.02038,-0.1
12.3,1.7354,0.02706,0.02081,-0.0989
12.4,1.739,0.02745,0.02125,-0.0978
12.5,1.7424,0.02785,0.02172,-0.0967
12.6,1.7456,0.02827,0.02218,-0.0956
12.7,1.7487,0.0287,0.02266,-0.0945
12.8,1.7517,0.02914,0.02315,-0.0934
12.9,1.7544,0.0296,0.02366,-0.0923
13,1.7569,0.03008,0.02419,-0.0912
13.1,1.7592,0.03058,0.02474,-0.0901
13.2,1.7612,0.03109,0.02531,-0.089
13.3,1.7631,0.03163,0.0259,-0.088
13.4,1.7648,0.03218,0.0265,-0.0869
13.5,1.766,0.03277,0.02714,-0.0858
13.6,1.767,0.03338,0.02781,-0.0847
13.7,1.7676,0.03403,0.02852,-0.0836
13.8,1.768,0.0347,0.02925,-0.0825
13.9,1.7681,0.03542,0.03003,-0.0815
14,1.7677,0.03617,0.03084,-0.0804
14.1,1.7668,0.03697,0.0317,-0.0794
14.2,1.7654,0.03783,0.03263,-0.0784
14.3,1.764,0.0387,0.03357,-0.0775
14.4,1.7613,0.03971,0.03466,-0.0765
14.5,1.7588,0.04073,0.03574,-0.0757
14.6,1.7559,0.04181,0.0369,-0.0749
14.7,1.7522,0.04298,0.03814,-0.0742
14.8,1.7477,0.04424,0.03949,-0.0736
14.9,1.7429,0.04559,0.04091,-0.0731
15,1.7384,0.04695,0.04236,-0.0727
15.1,1.7329,0.04847,0.04396,-0.0725
15.2,1.7311,0.04963,0.04517,-0.0725
15.3,1.7298,0.05077,0.04637,-0.0725
15.4,1.7277,0.05203,0.0477,-0.0726
15.5,1.7252,0.05336,0.0491,-0.0729
15.6,1.7224,0.05476,0.05058,-0.0733
15.7,1.7201,0.05615,0.05204,-0.0738
15.8,1.7162,0.05779,0.05376,-0.0745
15.9,1.7132,0.05939,0.05543,-0.0754
16,1.7098,0.0611,0.05722,-0.0764
16.1,1.7051,0.0631,0.05931,-0.0779
16.2,1.7012,0.06509,0.06139,-0.0795
16.3,1.6964,0.06734,0.06373,-0.0815
16.4,1.6919,0.06971,0.0662,-0.0838
16.5,1.6866,0.07243,0.06903,-0.0867
16.6,1.6818,0.07528,0.07198,-0.0899
16.7,1.6756,0.07876,0.07557,-0.0939
16.8,1.6674,0.0833,0.08023,-0.0994
16.9,1.6585,0.08877,0.08586,-0.1059
17,1.6444,0.09739,0.09468,-0.1158
17.1,1.6081,0.11542,0.11304,-0.1339
17.2,1.5941,0.12317,0.12094,-0.1411
17.3,1.5851,0.12897,0.12685,-0.1464
17.4,1.5756,0.13486,0.13282,-0.1518
17.5,1.5674,0.14027,0.13831,-0.1568
17.7,1.5522,0.1503,0.14849,-0.1664
17.8,1.5448,0.1553,0.15355,-0.1713
17.9,1.5394,0.15943,0.15774,-0.1755
18,1.5333,0.16412,0.16249,-0.1802
18.1,1.5297,0.16776,0.16616,-0.1839
18.2,1.526,0.17175,0.1702,-0.1879
18.3,1.5231,0.17565,0.17415,-0.1915
18.4,1.5218,0.17882,0.17734,-0.1946
18.5,1.521,0.18185,0.1804,-0.1975
18.6,1.5189,0.18601,0.1846,-0.201
18.7,1.5189,0.1888,0.18742,-0.2036
18.8,1.5194,0.19129,0.18992,-0.206
18.9,1.5201,0.19365,0.1923,-0.2082
19,1.5209,0.19601,0.19468,-0.2104
19.1,1.5216,0.19834,0.19703,-0.2127
19.2,1.5202,0.20294,0.20166,-0.216
19.3,1.5195,0.20739,0.20614,-0.2192
19.4,1.5189,0.21197,0.21076,-0.2223

