airfoilName st19.dat
Re 	370000
M 	5.000000e-02
N 	4.500000e+00
VACC 	0 VACCflag 1
XTR 	1.00 	1.00 XTRflag 0
alpha,cl,cd,cdp,cm
-26.6,-1.2323,0.41676,0.41459,0.2029
-26.5,-1.2294,0.41432,0.41215,0.2013
-26.4,-1.2264,0.41188,0.40971,0.1996
-26.3,-1.2234,0.40943,0.40725,0.198
-26.2,-1.2204,0.407,0.40482,0.1964
-26.1,-1.2174,0.40455,0.40236,0.1948
-26,-1.2144,0.40213,0.39994,0.1932
-25.9,-1.2114,0.39971,0.39751,0.1916
-25.8,-1.2084,0.39727,0.39507,0.19
-25.7,-1.2053,0.39489,0.39268,0.1884
-25.6,-1.2023,0.39243,0.39023,0.1868
-25.5,-1.1992,0.39011,0.3879,0.1852
-25.4,-1.1961,0.3877,0.38548,0.1836
-25.3,-1.193,0.3853,0.38308,0.1821
-25.2,-1.1899,0.38294,0.38071,0.1805
-25.1,-1.1868,0.38059,0.37837,0.1789
-25,-1.1837,0.37822,0.37599,0.1774
-24.9,-1.1805,0.3759,0.37366,0.1758
-24.8,-1.1773,0.37362,0.37138,0.1743
-24.7,-1.1741,0.37132,0.36908,0.1727
-24.6,-1.1709,0.36901,0.36676,0.1712
-24.5,-1.1677,0.36675,0.36449,0.1696
-24.4,-1.1645,0.36449,0.36223,0.1681
-24.3,-1.1613,0.36226,0.35999,0.1666
-24.2,-1.158,0.36003,0.35776,0.165
-24.1,-1.1547,0.35783,0.35555,0.1635
-24,-1.1514,0.35564,0.35336,0.162
-23.9,-1.1481,0.35348,0.3512,0.1604
-23.8,-1.1448,0.35131,0.34902,0.1589
-23.7,-1.1415,0.34918,0.34689,0.1574
-23.6,-1.1381,0.34706,0.34477,0.1559
-23.5,-1.1348,0.34496,0.34267,0.1544
-23.4,-1.1314,0.34288,0.34058,0.1529
-23.3,-1.128,0.34081,0.33851,0.1514
-23.2,-1.1245,0.33875,0.33645,0.1499
-23.1,-1.1211,0.33672,0.33441,0.1484
-23,-1.1177,0.33469,0.33238,0.1469
-22.9,-1.1142,0.33268,0.33036,0.1454
-22.8,-1.1107,0.33068,0.32836,0.1439
-22.7,-1.1072,0.3287,0.32637,0.1424
-22.6,-1.1037,0.32672,0.32439,0.1409
-22.5,-1.1002,0.32475,0.32242,0.1394
-22.4,-1.0966,0.32278,0.32045,0.138
-22.3,-1.0931,0.32083,0.31849,0.1365
-22.2,-1.0895,0.31889,0.31655,0.135
-22.1,-1.0859,0.31696,0.31462,0.1336
-22,-1.0823,0.31503,0.31268,0.1321
-21.9,-1.0787,0.31311,0.31076,0.1306
-21.8,-1.0751,0.31119,0.30883,0.1292
-21.7,-1.0715,0.30929,0.30692,0.1278
-21.6,-1.0678,0.30738,0.30501,0.1263
-21.5,-1.0642,0.30549,0.30312,0.1249
-21.4,-1.0605,0.30359,0.30121,0.1235
-21.3,-1.0568,0.30169,0.29931,0.122
-21.2,-1.0531,0.29981,0.29743,0.1206
-21.1,-1.0494,0.29793,0.29555,0.1192
-21,-1.0457,0.29605,0.29366,0.1178
-20.9,-1.042,0.29418,0.29179,0.1164
-20.8,-1.0383,0.2923,0.28991,0.115
-20.7,-1.0345,0.29044,0.28805,0.1136
-20.6,-1.0308,0.28857,0.28618,0.1122
-20.5,-1.0271,0.28671,0.28431,0.1109
-20.4,-1.0233,0.28485,0.28245,0.1095
-20.3,-1.0195,0.283,0.2806,0.1081
-20.2,-1.0157,0.28115,0.27875,0.1067
-20.1,-1.0119,0.27931,0.2769,0.1054
-20,-1.008,0.27747,0.27506,0.104
-19.9,-1.0041,0.27563,0.27322,0.1026
-19.8,-1.0003,0.2738,0.27138,0.1012
-19.7,-0.9963,0.27197,0.26955,0.0999
-19.6,-0.9924,0.27014,0.26772,0.0985
-19.5,-0.9884,0.26832,0.26589,0.0971
-19.4,-0.9845,0.26648,0.26406,0.0957
-19.3,-0.9804,0.26467,0.26225,0.0943
-19.2,-0.9764,0.26286,0.26043,0.093
-19.1,-0.9723,0.26104,0.25861,0.0916
-19,-0.9682,0.25922,0.25679,0.0902
-18.9,-0.9641,0.2574,0.25497,0.0888
-18.8,-0.9599,0.25557,0.25312,0.0874
-18.7,-0.9558,0.25374,0.25129,0.086
-18.6,-0.9516,0.25188,0.24943,0.0846
-18.5,-0.9473,0.25001,0.24756,0.0832
-18.4,-0.9431,0.24813,0.24567,0.0818
-18.3,-0.9387,0.24619,0.24373,0.0804
-18.2,-0.9345,0.24421,0.24175,0.079
-17.9,-0.9115,0.23754,0.23511,0.0722
-17.8,-0.9081,0.23558,0.23315,0.0711
-17.7,-0.9047,0.23363,0.2312,0.0701
-17.6,-0.9014,0.23168,0.22925,0.069
-17.5,-0.898,0.22974,0.2273,0.068
-17.4,-0.8946,0.22778,0.22534,0.067
-17.3,-0.8912,0.22586,0.22342,0.0659
-17.2,-0.8878,0.22393,0.22148,0.0649
-17.1,-0.8844,0.22201,0.21956,0.0639
-17,-0.8809,0.2201,0.21766,0.0628
-16.9,-0.8775,0.21821,0.21577,0.0618
-16.8,-0.874,0.21634,0.2139,0.0608
-16.7,-0.8705,0.2145,0.21205,0.0597
-16.6,-0.867,0.21267,0.21022,0.0587
-16.5,-0.8634,0.21087,0.20842,0.0577
-16.4,-0.8598,0.20909,0.20664,0.0566
-16.3,-0.8562,0.20734,0.20488,0.0556
-16.2,-0.8525,0.20561,0.20315,0.0546
-16.1,-0.8488,0.2039,0.20145,0.0535
-16,-0.8451,0.20222,0.19976,0.0525
-15.9,-0.8413,0.20055,0.1981,0.0515
-15.8,-0.8375,0.19892,0.19646,0.0504
-15.7,-0.8336,0.19729,0.19483,0.0494
-15.6,-0.8297,0.19568,0.19322,0.0483
-15.5,-0.8258,0.19409,0.19161,0.0473
-15.4,-0.8218,0.19252,0.19004,0.0462
-15.3,-0.8178,0.19095,0.18847,0.0451
-15.2,-0.8138,0.18939,0.18691,0.0441
-15.1,-0.8097,0.18785,0.18537,0.043
-15,-0.8056,0.1863,0.18381,0.042
-14.9,-0.8015,0.18477,0.18229,0.0409
-14.8,-0.7973,0.18324,0.18075,0.0398
-14.7,-0.7931,0.1817,0.17922,0.0388
-14.6,-0.7889,0.18018,0.1777,0.0377
-14.5,-0.7846,0.17866,0.17618,0.0366
-14.4,-0.7804,0.17715,0.17467,0.0356
-14.3,-0.7761,0.17565,0.17316,0.0345
-14.2,-0.7718,0.17413,0.17164,0.0335
-14.1,-0.7675,0.17263,0.17015,0.0324
-14,-0.7631,0.17113,0.16864,0.0313
-13.9,-0.7588,0.16962,0.16713,0.0303
-13.8,-0.7544,0.16812,0.16563,0.0292
-13.7,-0.7499,0.16661,0.16412,0.0282
-13.6,-0.7455,0.1651,0.16262,0.0271
-13.5,-0.741,0.16359,0.16111,0.026
-13.4,-0.7365,0.16208,0.1596,0.025
-13.3,-0.7321,0.16057,0.15808,0.0239
-13.2,-0.7275,0.15905,0.15657,0.0229
-13.1,-0.723,0.15753,0.15505,0.0218
-13,-0.7185,0.15601,0.15352,0.0208
-12.9,-0.7139,0.15448,0.152,0.0197
-12.8,-0.7093,0.15294,0.15046,0.0187
-12.7,-0.7047,0.1514,0.14892,0.0177
-12.6,-0.7001,0.14983,0.14735,0.0166
-12.5,-0.6954,0.14824,0.14575,0.0155
-12.4,-0.6907,0.14665,0.14416,0.0145
-12.3,-0.686,0.14503,0.14253,0.0134
-12.2,-0.6812,0.14336,0.14087,0.0124
-12.1,-0.6764,0.14166,0.13916,0.0113
-12,-0.6715,0.13987,0.13738,0.0102
-11.9,-0.6542,0.13599,0.13353,0.0055
-11.8,-0.6505,0.13443,0.13198,0.0048
-11.7,-0.6468,0.13288,0.13043,0.0041
-11.6,-0.6431,0.13134,0.12889,0.0033
-11.5,-0.6395,0.1298,0.12735,0.0026
-11.4,-0.6358,0.12829,0.12585,0.0019
-11.3,-0.6322,0.1268,0.12436,0.0012
-11.2,-0.6285,0.12534,0.1229,0.0005
-11.1,-0.6248,0.12389,0.12145,-0.0003
-11,-0.6211,0.12247,0.12004,-0.001
-10.9,-0.6174,0.12108,0.11865,-0.0017
-10.8,-0.6138,0.11972,0.11729,-0.0024
-10.7,-0.6101,0.1184,0.11597,-0.0031
-10.6,-0.6064,0.11712,0.11469,-0.0038
-10.5,-0.6028,0.11588,0.11345,-0.0044
-10.4,-0.5992,0.11467,0.11225,-0.0051
-10.3,-0.5957,0.1135,0.11109,-0.0057
-10.2,-0.5923,0.11238,0.10997,-0.0063
-10.1,-0.5891,0.1113,0.1089,-0.0068
-10,-0.5862,0.11027,0.10788,-0.0072
-9.9,-0.5839,0.10931,0.10693,-0.0074
-9.8,-0.582,0.1084,0.10603,-0.0076
-9.7,-0.5809,0.10759,0.10523,-0.0075
-9.6,-0.5806,0.10685,0.10451,-0.0072
-9.5,-0.5815,0.10624,0.10392,-0.0066
-9.4,-0.5839,0.10577,0.10347,-0.0057
-9.3,-0.5885,0.10549,0.10322,-0.0042
-9.2,-0.5805,0.10409,0.10181,-0.006
-9.1,-0.5711,0.10258,0.1003,-0.0082
-9,-0.562,0.10112,0.09883,-0.0103
-8.9,-0.5519,0.09957,0.09726,-0.0126
-5.7,-0.0528,0.01796,0.01339,-0.133
-5.6,-0.0387,0.01678,0.01196,-0.1342
-5.5,-0.0252,0.01594,0.01093,-0.1351
-5.4,-0.0118,0.0153,0.01011,-0.1358
-5.3,0.0012,0.01483,0.00949,-0.1363
-5.2,0.0141,0.01446,0.00903,-0.1368
-5.1,0.0273,0.01378,0.00826,-0.1375
-5,0.0385,0.01345,0.00788,-0.1377
-4.9,0.0496,0.01318,0.00756,-0.1377
-4.8,0.0612,0.01294,0.00727,-0.1379
-4.7,0.0731,0.01271,0.00699,-0.1381
-4.6,0.0852,0.01247,0.0067,-0.1383
-4.5,0.0974,0.01224,0.00639,-0.1386
-4.4,0.1097,0.01201,0.0061,-0.1388
-4.3,0.1226,0.01175,0.00577,-0.1391
-4.2,0.1345,0.01155,0.00549,-0.1393
-4.1,0.1455,0.01138,0.00526,-0.1392
-4,0.157,0.01117,0.00503,-0.1393
-3.9,0.1686,0.01098,0.00482,-0.1394
-3.8,0.1804,0.01084,0.00465,-0.1395
-3.7,0.1923,0.01071,0.0045,-0.1396
-3.6,0.2039,0.01073,0.00452,-0.1397
-3.5,0.2162,0.01059,0.00431,-0.1399
-3.4,0.2281,0.01041,0.0041,-0.14
-3.3,0.2388,0.01028,0.00396,-0.1399
-3.2,0.2502,0.01017,0.00384,-0.14
-3.1,0.2618,0.01008,0.00373,-0.14
-3,0.2734,0.00997,0.00359,-0.14
-2.9,0.285,0.00995,0.00355,-0.1401
-2.8,0.2971,0.00979,0.00338,-0.1402
-2.7,0.3085,0.00971,0.00329,-0.1402
-2.6,0.3194,0.00963,0.0032,-0.1401
-2.5,0.3308,0.00956,0.0031,-0.1402
-2.4,0.3424,0.00949,0.003,-0.1402
-2.3,0.354,0.00941,0.00289,-0.1402
-2.2,0.3656,0.00934,0.00285,-0.1403
-2.1,0.3772,0.00928,0.00278,-0.1403
-2,0.3882,0.00922,0.00271,-0.1402
-1.9,0.3995,0.00917,0.00263,-0.1402
-1.8,0.411,0.00911,0.00257,-0.1402
-1.7,0.4225,0.00904,0.0025,-0.1402
-1.6,0.434,0.00901,0.00248,-0.1402
-1.5,0.4454,0.00897,0.00242,-0.1402
-1.4,0.4565,0.00893,0.00237,-0.1402
-1.3,0.4678,0.00888,0.00234,-0.1402
-1.2,0.4791,0.00884,0.00228,-0.1401
-1.1,0.4906,0.0088,0.00223,-0.1401
-1,0.5015,0.00877,0.00217,-0.1399
-0.9,0.5125,0.00873,0.00216,-0.1398
-0.8,0.5236,0.0087,0.00211,-0.1397
-0.7,0.5347,0.00867,0.00207,-0.1396
-0.6,0.546,0.00865,0.00203,-0.1396
-0.5,0.5572,0.00862,0.002,-0.1395
-0.4,0.5681,0.0086,0.00197,-0.1393
-0.3,0.5793,0.0086,0.00196,-0.1393
-0.2,0.5906,0.00858,0.00195,-0.1393
-0.1,0.6017,0.00856,0.00194,-0.1392
0,0.6127,0.00856,0.0019,-0.1391
0.1,0.6239,0.00855,0.00189,-0.139
0.2,0.6352,0.00853,0.00189,-0.139
0.3,0.6462,0.00853,0.00189,-0.1389
0.4,0.6569,0.00855,0.00186,-0.1387
0.5,0.6681,0.00854,0.00186,-0.1386
0.6,0.6792,0.00854,0.00186,-0.1386
0.7,0.6902,0.00855,0.00185,-0.1385
0.8,0.7009,0.00858,0.00184,-0.1383
0.9,0.712,0.00859,0.00185,-0.1382
1,0.7229,0.00861,0.00186,-0.1381
1.1,0.7338,0.00862,0.00187,-0.138
1.3,0.7547,0.00873,0.00188,-0.1375
1.4,0.7656,0.00875,0.0019,-0.1374
1.5,0.7761,0.00881,0.00192,-0.1372
1.6,0.7868,0.00886,0.00194,-0.137
1.7,0.7974,0.0089,0.00197,-0.1369
1.8,0.806,0.00911,0.002,-0.1363
1.9,0.8162,0.0092,0.00204,-0.136
2,0.8263,0.0093,0.00208,-0.1358
2.1,0.8364,0.0094,0.00213,-0.1356
2.2,0.8465,0.00951,0.00219,-0.1353
2.3,0.855,0.00975,0.00229,-0.1349
2.4,0.8649,0.00985,0.00237,-0.1347
2.6,0.8776,0.00882,0.00258,-0.1328
2.7,0.8872,0.00901,0.00266,-0.1325
2.8,0.8966,0.00923,0.00276,-0.1322
2.9,0.9041,0.00965,0.00292,-0.1316
3,0.9132,0.00992,0.00304,-0.1312
3.1,0.9223,0.01019,0.00317,-0.1309
3.2,0.9314,0.01046,0.0033,-0.1306
3.3,0.9407,0.01071,0.00344,-0.1303
3.4,0.9504,0.01092,0.00355,-0.1301
3.5,0.9595,0.01121,0.0037,-0.1298
3.6,0.9696,0.01135,0.0038,-0.1296
3.7,0.9797,0.0115,0.0039,-0.1294
3.8,0.99,0.01163,0.00401,-0.1293
3.9,1.0002,0.01177,0.00413,-0.1291
4,1.01,0.01195,0.00425,-0.1289
4.1,1.0202,0.01208,0.00436,-0.1287
4.2,1.0305,0.01219,0.00445,-0.1286
4.3,1.0406,0.01233,0.00455,-0.1284
4.4,1.0509,0.01245,0.00466,-0.1283
4.5,1.0611,0.01257,0.00476,-0.1281
4.6,1.0709,0.01274,0.00488,-0.1279
4.7,1.0811,0.01286,0.00498,-0.1277
4.8,1.0911,0.013,0.0051,-0.1275
4.9,1.1013,0.01311,0.00521,-0.1274
5,1.1114,0.01324,0.00531,-0.1272
5.1,1.1214,0.01338,0.00544,-0.127
5.2,1.1312,0.01354,0.00558,-0.1268
5.3,1.1411,0.01369,0.00571,-0.1266
5.4,1.1512,0.01381,0.00583,-0.1264
5.5,1.1611,0.01395,0.00595,-0.1262
5.6,1.1709,0.01411,0.0061,-0.126
5.7,1.1809,0.01423,0.00622,-0.1258
5.8,1.1903,0.01444,0.00635,-0.1255
5.9,1.2002,0.01457,0.0065,-0.1253
6,1.2101,0.01471,0.00663,-0.1251
6.1,1.2197,0.01488,0.00677,-0.1249
6.2,1.2294,0.01503,0.00693,-0.1246
6.3,1.2392,0.01518,0.00708,-0.1244
6.4,1.2488,0.01534,0.00723,-0.1241
6.5,1.2582,0.01553,0.00743,-0.1239
6.6,1.2677,0.0157,0.00758,-0.1236
6.7,1.2771,0.01587,0.00774,-0.1233
6.8,1.2864,0.01607,0.00793,-0.1231
6.9,1.296,0.01622,0.0081,-0.1228
7,1.3055,0.01639,0.00827,-0.1225
7.1,1.3148,0.01657,0.00845,-0.1222
7.2,1.324,0.01678,0.00864,-0.1219
7.3,1.3333,0.01696,0.00884,-0.1216
7.4,1.3425,0.01714,0.00902,-0.1213
7.5,1.3517,0.01734,0.00922,-0.121
7.6,1.3607,0.01755,0.00942,-0.1207
7.7,1.3695,0.01777,0.00965,-0.1203
7.8,1.3788,0.01795,0.00988,-0.12
7.9,1.3879,0.01813,0.01009,-0.1197
8,1.3969,0.01833,0.01031,-0.1193
8.1,1.4058,0.01854,0.01054,-0.119
8.2,1.4145,0.01877,0.01077,-0.1186
8.3,1.4231,0.01902,0.01103,-0.1182
8.4,1.4315,0.01928,0.01131,-0.1178
8.5,1.4405,0.01945,0.0115,-0.1175
8.6,1.4492,0.01965,0.0117,-0.1171
8.7,1.4576,0.01989,0.01195,-0.1167
8.8,1.4659,0.02015,0.01222,-0.1163
8.9,1.474,0.02044,0.01252,-0.1158
9,1.4823,0.02067,0.01279,-0.1154
9.1,1.4907,0.02089,0.01305,-0.1149
9.2,1.499,0.02112,0.01335,-0.1145
9.3,1.5072,0.02137,0.01363,-0.114
9.4,1.5152,0.02161,0.01383,-0.1136
9.5,1.5229,0.0219,0.01414,-0.1131
9.6,1.5304,0.0222,0.01446,-0.1126
9.7,1.5384,0.02244,0.01475,-0.1121
9.8,1.5462,0.02269,0.01505,-0.1116
9.9,1.5538,0.02296,0.01535,-0.111
10,1.5612,0.02324,0.01567,-0.1105
10.1,1.5686,0.02352,0.01598,-0.1099
10.2,1.5757,0.02382,0.01631,-0.1093
10.3,1.5825,0.02414,0.01665,-0.1087
10.4,1.589,0.0245,0.01703,-0.108
10.5,1.5954,0.02484,0.01741,-0.1073
10.6,1.602,0.02514,0.01777,-0.1066
10.7,1.6084,0.02545,0.01814,-0.1059
10.8,1.6144,0.02578,0.01854,-0.1051
10.9,1.6203,0.02611,0.01893,-0.1043
11,1.6259,0.02646,0.01932,-0.1035
11.1,1.6308,0.02681,0.01971,-0.1026
11.2,1.6353,0.02716,0.02011,-0.1016
11.3,1.6396,0.02753,0.02053,-0.1005
11.4,1.6437,0.02793,0.02096,-0.0995
11.5,1.6475,0.02835,0.02142,-0.0984
11.6,1.6507,0.02881,0.02193,-0.0973
11.7,1.6532,0.02934,0.0225,-0.0961
11.8,1.6563,0.02981,0.02302,-0.0949
11.9,1.6598,0.03024,0.02352,-0.0939
12,1.663,0.0307,0.02405,-0.0928
12.1,1.6659,0.03118,0.0246,-0.0918
12.2,1.6685,0.03168,0.02517,-0.0907
12.3,1.6709,0.03221,0.02576,-0.0896
12.4,1.6731,0.03275,0.02637,-0.0885
12.5,1.6751,0.0333,0.02699,-0.0874
12.6,1.677,0.03388,0.02763,-0.0863
12.7,1.6785,0.03447,0.02829,-0.0853
12.8,1.6799,0.03508,0.02897,-0.0842
12.9,1.6811,0.03571,0.02966,-0.0832
13.1,1.6892,0.03651,0.03052,-0.082
13.2,1.6898,0.03721,0.03128,-0.081
13.3,1.6898,0.03796,0.03209,-0.08
13.4,1.6894,0.03875,0.03294,-0.0791
13.5,1.6883,0.03961,0.03387,-0.0781
13.6,1.6866,0.04054,0.03487,-0.0772
13.7,1.6841,0.04155,0.03596,-0.0763
13.8,1.6822,0.04255,0.037,-0.0755
13.9,1.6818,0.04342,0.03795,-0.0748
14,1.6808,0.04435,0.03896,-0.0742
14.1,1.6795,0.04533,0.04002,-0.0737
14.2,1.678,0.04636,0.04113,-0.0732
14.3,1.6762,0.04744,0.0423,-0.0728
14.4,1.6741,0.04858,0.04352,-0.0725
14.5,1.6717,0.04979,0.04482,-0.0723
14.6,1.6693,0.05103,0.04613,-0.0722
14.7,1.6667,0.05233,0.04752,-0.0722
14.8,1.6636,0.05371,0.04899,-0.0724
14.9,1.6604,0.05515,0.05051,-0.0726
15,1.6569,0.05667,0.05212,-0.0731
15.1,1.6534,0.05825,0.05378,-0.0737
15.2,1.6496,0.05993,0.05556,-0.0745
15.3,1.6457,0.0617,0.05742,-0.0755
15.4,1.6415,0.06359,0.0594,-0.0768
15.5,1.6373,0.06558,0.06148,-0.0783
15.6,1.633,0.06769,0.06369,-0.0801
15.7,1.6287,0.06994,0.06604,-0.0822
15.8,1.6239,0.07243,0.06863,-0.0847
15.9,1.6192,0.07507,0.07138,-0.0875
16,1.6143,0.07803,0.07445,-0.0909
16.1,1.609,0.08138,0.07792,-0.0949
16.2,1.6037,0.08513,0.0818,-0.0994
16.3,1.5979,0.08952,0.08632,-0.1048
16.5,1.5834,0.10114,0.09825,-0.1183
16.6,1.5745,0.10816,0.10543,-0.1258
16.7,1.5643,0.11527,0.11268,-0.133
16.8,1.5549,0.12168,0.1192,-0.1393
16.9,1.5463,0.12761,0.12523,-0.1451
17,1.5385,0.13313,0.13083,-0.1504
17.1,1.5311,0.13836,0.13613,-0.1554
17.4,1.5131,0.15247,0.15043,-0.169
17.5,1.5077,0.15711,0.15513,-0.1734
17.6,1.503,0.16148,0.15955,-0.1776
17.7,1.4978,0.16642,0.16455,-0.1821
17.8,1.4933,0.17131,0.16948,-0.1865
19.6,1.4984,0.23905,0.23744,-0.2347
19.7,1.5012,0.24028,0.23868,-0.2361
19.8,1.5038,0.24158,0.23998,-0.2375
19.9,1.5064,0.24279,0.24119,-0.2389
20.2,1.5173,0.26347,0.26182,-0.2471
20.3,1.5206,0.26571,0.26406,-0.2487
20.4,1.5238,0.26776,0.26612,-0.2503
20.5,1.5271,0.26979,0.26815,-0.2518
20.6,1.5304,0.27176,0.27012,-0.2534
20.7,1.5336,0.27368,0.27204,-0.255
20.8,1.5368,0.27555,0.27392,-0.2565
20.9,1.54,0.2774,0.27577,-0.258
21,1.5432,0.2792,0.27758,-0.2596
21.1,1.5464,0.28101,0.27939,-0.2611
21.2,1.5495,0.28276,0.28115,-0.2626
21.3,1.5526,0.28455,0.28294,-0.2642
21.4,1.5557,0.28625,0.28465,-0.2657
21.5,1.5588,0.28798,0.28637,-0.2672
21.6,1.5619,0.28969,0.2881,-0.2688
21.7,1.5649,0.29138,0.28979,-0.2703
21.8,1.568,0.29303,0.29144,-0.2718
21.9,1.571,0.29474,0.29317,-0.2734
22,1.574,0.29632,0.29476,-0.2749
22.1,1.577,0.29803,0.29647,-0.2765
22.2,1.58,0.29964,0.29809,-0.278
22.3,1.5829,0.30123,0.29968,-0.2795
22.4,1.5859,0.3029,0.30136,-0.2811
22.5,1.5888,0.30455,0.30302,-0.2826
22.6,1.5917,0.30615,0.30462,-0.2842
22.7,1.5946,0.30782,0.3063,-0.2857
22.8,1.5975,0.30941,0.30789,-0.2873
22.9,1.6003,0.31102,0.30951,-0.2888
23,1.6032,0.31262,0.31112,-0.2904
23.1,1.606,0.31429,0.31279,-0.292
23.2,1.6088,0.3159,0.3144,-0.2935
23.3,1.6116,0.31752,0.31603,-0.2951
23.4,1.6144,0.31913,0.31765,-0.2967
23.6,1.6192,0.32154,0.32007,-0.2998
23.7,1.6217,0.32316,0.3217,-0.3013
23.8,1.6244,0.3249,0.32344,-0.3029
23.9,1.6269,0.32662,0.32517,-0.3044
24,1.6295,0.32838,0.32694,-0.306
24.1,1.632,0.33015,0.32872,-0.3075
24.2,1.6375,0.33492,0.33345,-0.31
24.3,1.6439,0.34074,0.33927,-0.3126
24.4,1.6483,0.34452,0.34305,-0.3147
24.5,1.6523,0.34772,0.34625,-0.3166
24.6,1.6558,0.3504,0.34893,-0.3185
24.7,1.6593,0.35296,0.35149,-0.3203
24.8,1.6626,0.35532,0.35386,-0.3221
24.9,1.6657,0.35754,0.35608,-0.3239
25,1.6689,0.35978,0.35832,-0.3257
25.1,1.6719,0.36186,0.36041,-0.3274
25.2,1.6751,0.36403,0.36258,-0.3292
25.3,1.6781,0.36604,0.3646,-0.331
25.4,1.681,0.36807,0.36663,-0.3328
25.5,1.684,0.37006,0.36865,-0.3346
25.6,1.6868,0.37202,0.37061,-0.3363
25.7,1.6897,0.37397,0.37256,-0.3381
25.8,1.6926,0.37589,0.3745,-0.3399
25.9,1.6954,0.37782,0.37643,-0.3417
26,1.6982,0.3797,0.37832,-0.3435
26.1,1.701,0.38159,0.38021,-0.3452
26.2,1.7037,0.38347,0.38209,-0.347
26.3,1.7064,0.38534,0.38397,-0.3488
26.4,1.7091,0.38718,0.38582,-0.3506
26.5,1.7118,0.38904,0.38768,-0.3524
26.6,1.7144,0.39086,0.38951,-0.3542
26.7,1.7171,0.39268,0.39134,-0.356
26.8,1.7196,0.39448,0.39314,-0.3578
26.9,1.7222,0.3963,0.39497,-0.3597
27,1.7248,0.3981,0.39677,-0.3615
27.1,1.7273,0.39992,0.3986,-0.3633
27.2,1.7298,0.40166,0.40035,-0.3651
27.3,1.7323,0.40355,0.40225,-0.3669
27.4,1.7348,0.40532,0.40402,-0.3688
27.5,1.7372,0.40711,0.40582,-0.3706
27.6,1.7396,0.40889,0.40761,-0.3724
27.7,1.742,0.41063,0.40935,-0.3743
27.8,1.7444,0.41246,0.41119,-0.3761
27.9,1.7467,0.41424,0.41297,-0.3779
28,1.749,0.41595,0.41469,-0.3798
28.1,1.7514,0.41778,0.41653,-0.3816
28.2,1.7537,0.41962,0.41837,-0.3835
28.3,1.756,0.42142,0.42018,-0.3853
28.4,1.7582,0.42315,0.42191,-0.3872
28.5,1.7604,0.42495,0.42373,-0.3891
28.6,1.7626,0.42681,0.4256,-0.3909
28.7,1.7649,0.42867,0.42747,-0.3928
28.8,1.767,0.43045,0.42926,-0.3947
28.9,1.7691,0.4323,0.43112,-0.3965
29,1.7713,0.43423,0.43305,-0.3984
29.1,1.7734,0.43614,0.43497,-0.4003
29.2,1.7755,0.43801,0.43685,-0.4022
29.3,1.7776,0.43995,0.43879,-0.4041
29.4,1.7797,0.44187,0.44072,-0.4059
29.5,1.7817,0.44385,0.44271,-0.4078
29.6,1.7837,0.44584,0.4447,-0.4097
29.7,1.7858,0.44785,0.44672,-0.4116
29.8,1.7878,0.44989,0.44876,-0.4135
29.9,1.7898,0.45197,0.45085,-0.4154
30,1.7918,0.45405,0.45294,-0.4173

