airfoilName st20.dat
Re 	550000
M 	5.000000e-02
N 	4.500000e+00
VACC 	0 VACCflag 1
XTR 	1.00 	1.00 XTRflag 0
alpha,cl,cd,cdp,cm
-14.6,-0.7743,0.18432,0.18234,0.0382
-14.5,-0.7701,0.18262,0.18064,0.0372
-14.4,-0.7658,0.1809,0.17892,0.0361
-14.3,-0.7616,0.17919,0.17721,0.035
-14.2,-0.7573,0.17743,0.17545,0.0339
-14.1,-0.7531,0.1757,0.17372,0.0329
-14,-0.7488,0.17393,0.17195,0.0318
-13.9,-0.7445,0.17211,0.17013,0.0307
-13.8,-0.7401,0.17027,0.1683,0.0296
-13.7,-0.7357,0.16836,0.16638,0.0286
-13.6,-0.7311,0.16637,0.16439,0.0274
-13.5,-0.7257,0.16413,0.16215,0.0261
-13.4,-0.7198,0.16211,0.16013,0.0247
-13.3,-0.7135,0.16033,0.15834,0.0232
-13.1,-0.7012,0.15693,0.15497,0.0202
-13,-0.6982,0.15511,0.15315,0.0195
-12.9,-0.6953,0.15325,0.15129,0.0188
-12.8,-0.6925,0.15141,0.14945,0.0182
-12.7,-0.6897,0.14961,0.14765,0.0175
-12.6,-0.6865,0.14794,0.14599,0.0167
-12.5,-0.683,0.14639,0.14443,0.0159
-12.4,-0.6793,0.14489,0.14293,0.015
-12.3,-0.6753,0.14344,0.14148,0.0141
-12.2,-0.6713,0.14204,0.14009,0.0132
-12.1,-0.6671,0.14067,0.13872,0.0123
-12,-0.6629,0.13933,0.13737,0.0114
-11.9,-0.6586,0.138,0.13605,0.0105
-11.8,-0.6543,0.1367,0.13475,0.0095
-11.7,-0.6499,0.13541,0.13345,0.0086
-11.6,-0.6455,0.13412,0.13217,0.0077
-11.5,-0.641,0.13283,0.13088,0.0067
-11.4,-0.6365,0.13155,0.1296,0.0058
-11.3,-0.632,0.13027,0.12832,0.0049
-11.2,-0.6275,0.12901,0.12706,0.0039
-11.1,-0.623,0.12774,0.12579,0.003
-11,-0.6185,0.12648,0.12453,0.0021
-10.9,-0.6139,0.12521,0.12327,0.0012
-10.8,-0.6094,0.12395,0.12201,0.0003
-10.7,-0.6049,0.12269,0.12075,-0.0006
-6,-0.0867,0.01693,0.01295,-0.1331
-5.9,-0.0733,0.01589,0.01172,-0.1341
-5.8,-0.0603,0.01514,0.01081,-0.1349
-5.7,-0.0476,0.01455,0.01009,-0.1355
-5.6,-0.0356,0.01407,0.0095,-0.1358
-5.5,-0.0243,0.01368,0.00902,-0.136
-5.4,-0.0129,0.01335,0.00859,-0.1362
-5.3,-0.0013,0.01308,0.00825,-0.1364
-5.2,0.0104,0.01286,0.00795,-0.1365
-5.1,0.023,0.01206,0.00704,-0.1371
-5,0.0353,0.01157,0.00645,-0.1375
-4.9,0.0473,0.01124,0.00606,-0.1378
-4.8,0.0593,0.01099,0.00577,-0.138
-4.7,0.0713,0.01078,0.00549,-0.1382
-4.6,0.0824,0.01059,0.00526,-0.1382
-4.5,0.0938,0.01041,0.00505,-0.1383
-4.4,0.1052,0.01023,0.00483,-0.1383
-4.3,0.1166,0.01006,0.0046,-0.1383
-4.2,0.1282,0.00989,0.00438,-0.1384
-4.1,0.14,0.00973,0.00417,-0.1385
-4,0.1514,0.00959,0.00398,-0.1385
-3.9,0.1627,0.00949,0.00384,-0.1385
-3.8,0.1744,0.00926,0.00359,-0.1386
-3.7,0.1858,0.00912,0.00342,-0.1386
-3.6,0.1973,0.00901,0.00329,-0.1387
-3.5,0.2087,0.00891,0.00315,-0.1387
-3.4,0.2202,0.00882,0.00302,-0.1387
-3.3,0.2317,0.00873,0.00291,-0.1387
-3.2,0.2429,0.00865,0.0028,-0.1387
-3.1,0.2544,0.00855,0.00269,-0.1387
-2.9,0.2771,0.00839,0.00251,-0.1387
-2.8,0.2884,0.00833,0.00242,-0.1387
-2.7,0.2998,0.00827,0.00235,-0.1387
-2.6,0.3112,0.00822,0.00227,-0.1387
-2.5,0.3225,0.00814,0.0022,-0.1387
-2.3,0.3449,0.00807,0.00213,-0.1387
-2.2,0.3564,0.00799,0.00205,-0.1387
-2.1,0.3678,0.00794,0.002,-0.1387
-2,0.379,0.00789,0.00195,-0.1387
-1.9,0.3904,0.00785,0.00189,-0.1387
-1.8,0.4018,0.00782,0.00184,-0.1387
-1.7,0.413,0.00777,0.00178,-0.1387
-1.6,0.4243,0.00773,0.00176,-0.1387
-1.5,0.4357,0.0077,0.00173,-0.1387
-1.4,0.447,0.00767,0.00168,-0.1386
-1.3,0.4581,0.00764,0.00164,-0.1386
-1.2,0.469,0.00761,0.00159,-0.1384
-1.1,0.48,0.00759,0.00155,-0.1383
-1,0.4911,0.00758,0.00152,-0.1382
-0.9,0.5024,0.00755,0.0015,-0.1382
-0.8,0.5133,0.00754,0.00147,-0.1381
-0.7,0.5246,0.00753,0.00145,-0.1381
-0.6,0.5359,0.00752,0.00143,-0.1381
-0.5,0.5469,0.00751,0.0014,-0.138
-0.4,0.5578,0.00751,0.0014,-0.1379
-0.3,0.5691,0.0075,0.00139,-0.1378
-0.2,0.58,0.00751,0.00137,-0.1377
-0.1,0.5911,0.00751,0.00136,-0.1376
0,0.6022,0.00751,0.00135,-0.1376
0.1,0.6134,0.00751,0.00135,-0.1376
0.2,0.6242,0.00754,0.00134,-0.1374
0.3,0.6352,0.00755,0.00135,-0.1373
0.4,0.6463,0.00756,0.00134,-0.1373
0.5,0.6574,0.00757,0.00135,-0.1372
0.6,0.6682,0.0076,0.00135,-0.1371
0.7,0.6785,0.00767,0.00136,-0.1369
0.8,0.6896,0.00769,0.00136,-0.1368
0.9,0.7005,0.00771,0.00139,-0.1367
1,0.7111,0.00777,0.0014,-0.1366
1.1,0.7212,0.00787,0.00142,-0.1363
1.2,0.7319,0.00792,0.00144,-0.1362
1.3,0.7421,0.00801,0.00148,-0.1359
1.4,0.7521,0.00814,0.00152,-0.1357
1.5,0.7625,0.00823,0.00155,-0.1355
1.6,0.7713,0.00848,0.00163,-0.135
1.7,0.7811,0.00863,0.0017,-0.1348
1.8,0.7913,0.00874,0.00175,-0.1346
1.9,0.8015,0.00886,0.00181,-0.1344
2,0.8116,0.00898,0.00187,-0.1342
2.1,0.8202,0.00928,0.00199,-0.1338
2.2,0.8302,0.00944,0.00207,-0.1336
2.3,0.84,0.00961,0.00215,-0.1334
2.4,0.8498,0.00977,0.00225,-0.1332
2.5,0.8594,0.00997,0.00235,-0.133
2.6,0.8673,0.0104,0.00252,-0.1325
2.7,0.877,0.01058,0.00267,-0.1324
2.8,0.8812,0.00942,0.00284,-0.1312
2.9,0.8913,0.00958,0.00293,-0.131
3,0.9016,0.00973,0.00302,-0.1309
3.1,0.912,0.00985,0.00309,-0.1308
3.2,0.9218,0.01005,0.0032,-0.1306
3.3,0.9323,0.01016,0.00328,-0.1304
3.4,0.9428,0.01027,0.00335,-0.1303
3.5,0.9532,0.01038,0.00343,-0.1302
3.6,0.9637,0.01048,0.00351,-0.1301
3.7,0.9738,0.01064,0.0036,-0.1299
3.8,0.9841,0.01076,0.00369,-0.1298
3.9,0.9947,0.01085,0.00376,-0.1297
4,1.0051,0.01096,0.00384,-0.1295
4.1,1.0154,0.01107,0.00396,-0.1294
4.2,1.0254,0.01124,0.00405,-0.1292
4.3,1.0358,0.01133,0.00414,-0.1291
4.4,1.0462,0.01144,0.00423,-0.1289
4.5,1.0564,0.01157,0.00433,-0.1288
4.6,1.0668,0.01167,0.00442,-0.1287
4.7,1.0766,0.01184,0.00453,-0.1285
4.8,1.0869,0.01195,0.00463,-0.1283
4.9,1.097,0.01209,0.00473,-0.1281
5,1.1072,0.01221,0.00484,-0.128
5.1,1.1174,0.01232,0.00494,-0.1278
5.2,1.1274,0.01247,0.00505,-0.1276
5.3,1.1372,0.01263,0.00518,-0.1274
5.4,1.1471,0.01278,0.00529,-0.1272
5.5,1.1572,0.01291,0.00545,-0.127
5.6,1.1673,0.01304,0.00557,-0.1269
5.7,1.1771,0.01319,0.00569,-0.1267
5.8,1.1871,0.01333,0.00584,-0.1265
5.9,1.197,0.01346,0.00596,-0.1263
6,1.2064,0.01367,0.00611,-0.126
6.1,1.2164,0.0138,0.00625,-0.1258
6.2,1.2263,0.01394,0.00639,-0.1256
6.3,1.2361,0.01409,0.00653,-0.1254
6.4,1.2456,0.01427,0.00668,-0.1251
6.5,1.2555,0.01441,0.00685,-0.1249
6.6,1.2653,0.01455,0.00699,-0.1247
6.7,1.275,0.01471,0.00715,-0.1244
6.8,1.2846,0.01487,0.00733,-0.1242
6.9,1.294,0.01506,0.00751,-0.1239
7,1.3036,0.01522,0.00769,-0.1237
7.1,1.3133,0.01537,0.00786,-0.1234
7.2,1.3227,0.01554,0.00802,-0.1231
7.3,1.3318,0.01576,0.00821,-0.1228
7.4,1.341,0.01597,0.00842,-0.1225
7.5,1.3506,0.01612,0.00859,-0.1223
7.6,1.36,0.01628,0.00878,-0.122
7.7,1.3694,0.01646,0.00897,-0.1217
7.8,1.3783,0.01668,0.00915,-0.1214
7.9,1.3873,0.0169,0.00937,-0.1211
8,1.3965,0.01708,0.00958,-0.1207
8.1,1.4058,0.01725,0.0098,-0.1204
8.2,1.4149,0.01744,0.01,-0.1201
8.3,1.424,0.01763,0.01021,-0.1198
8.4,1.4329,0.01783,0.01043,-0.1195
8.5,1.4417,0.01806,0.01066,-0.1191
8.6,1.4503,0.0183,0.01091,-0.1187
8.7,1.4591,0.01852,0.01115,-0.1183
8.8,1.4679,0.01871,0.01138,-0.118
8.9,1.4767,0.01892,0.01162,-0.1176
9,1.4853,0.01914,0.01187,-0.1172
9.1,1.4938,0.01937,0.01212,-0.1168
9.2,1.5023,0.01961,0.01238,-0.1164
9.3,1.5105,0.01987,0.01266,-0.116
9.4,1.5184,0.02016,0.01297,-0.1155
9.5,1.5265,0.02043,0.01326,-0.115
9.6,1.5348,0.02067,0.01357,-0.1145
9.7,1.5428,0.02093,0.01387,-0.114
9.8,1.5507,0.02119,0.01417,-0.1136
9.9,1.5586,0.02147,0.01449,-0.113
10,1.5662,0.02175,0.01481,-0.1125
10.1,1.5738,0.02204,0.01514,-0.112
10.2,1.5811,0.02235,0.01547,-0.1114
10.3,1.5883,0.02267,0.01583,-0.1108
10.4,1.5952,0.02301,0.01621,-0.1102
10.5,1.6017,0.0234,0.01663,-0.1095
10.6,1.6092,0.02362,0.01686,-0.109
10.7,1.616,0.02395,0.01724,-0.1083
10.8,1.6224,0.0243,0.01764,-0.1076
10.9,1.6287,0.02464,0.01803,-0.1069
11,1.6348,0.025,0.01844,-0.1061
11.1,1.6405,0.02536,0.01886,-0.1053
11.2,1.646,0.02573,0.01928,-0.1045
11.3,1.6513,0.0261,0.0197,-0.1036
11.4,1.6562,0.02648,0.02015,-0.1026
11.5,1.6605,0.02686,0.02058,-0.1016
11.6,1.6642,0.02726,0.02103,-0.1004
11.7,1.6678,0.02766,0.02148,-0.0993
11.8,1.671,0.02809,0.02196,-0.0981
11.9,1.6741,0.02853,0.02246,-0.0969
12,1.6771,0.02898,0.02296,-0.0958
12.1,1.6798,0.02946,0.02349,-0.0946
12.2,1.6821,0.02997,0.02405,-0.0934
12.3,1.6841,0.0305,0.02464,-0.0921
12.4,1.6857,0.03107,0.02527,-0.0909
12.5,1.6868,0.03167,0.02593,-0.0896
12.6,1.6874,0.03231,0.02663,-0.0883
12.7,1.6873,0.03301,0.02741,-0.087
12.8,1.6868,0.03375,0.02822,-0.0857
12.9,1.6855,0.03456,0.0291,-0.0843
13,1.6831,0.03546,0.03008,-0.0829
13.1,1.6807,0.03637,0.03107,-0.0815
13.2,1.6772,0.03739,0.03217,-0.0801
13.3,1.6727,0.0385,0.03337,-0.0788
13.4,1.6732,0.03921,0.03411,-0.0779
13.5,1.6745,0.03986,0.03483,-0.0772
13.6,1.6746,0.04063,0.03566,-0.0764
13.7,1.6741,0.04146,0.03657,-0.0756
13.8,1.6734,0.04233,0.03751,-0.0748
13.9,1.6725,0.04324,0.0385,-0.0742
14,1.6712,0.0442,0.03952,-0.0735
14.1,1.6696,0.04521,0.0406,-0.073
14.2,1.6673,0.0463,0.04178,-0.0725
14.3,1.6648,0.04746,0.04301,-0.0721
14.4,1.6622,0.04866,0.04428,-0.0718
14.5,1.6593,0.04993,0.04563,-0.0716
14.6,1.656,0.05128,0.04706,-0.0715
14.7,1.6525,0.0527,0.04858,-0.0716
14.8,1.6489,0.05417,0.05014,-0.0718
14.9,1.6441,0.05584,0.05189,-0.0722
15,1.6399,0.0575,0.05364,-0.0728
15.1,1.6352,0.0593,0.05552,-0.0736
15.2,1.6302,0.06122,0.05753,-0.0746
15.3,1.6253,0.06324,0.05963,-0.0759
15.4,1.6198,0.06546,0.06195,-0.0776
15.5,1.6142,0.06786,0.06444,-0.0796
15.6,1.6084,0.07046,0.06713,-0.082
15.7,1.6021,0.07338,0.07017,-0.0849
15.8,1.5957,0.07663,0.07352,-0.0884
15.9,1.5888,0.0804,0.07741,-0.0927
16,1.5814,0.08489,0.08202,-0.098
16.1,1.5725,0.0907,0.08799,-0.1049
16.3,1.545,0.10931,0.10697,-0.1247
16.4,1.5291,0.11848,0.11627,-0.1334
16.6,1.505,0.1326,0.13058,-0.1466
16.7,1.4964,0.13814,0.13618,-0.1517
16.8,1.4891,0.14327,0.14136,-0.1565
16.9,1.4834,0.1476,0.14575,-0.1606
17,1.4774,0.15218,0.15037,-0.1649
17.1,1.473,0.15604,0.15427,-0.1687
17.2,1.4683,0.16018,0.15846,-0.1727
17.4,1.4612,0.16791,0.16628,-0.18
17.6,1.4562,0.17565,0.1741,-0.1869
17.7,1.4527,0.18077,0.17927,-0.1909
17.8,1.4508,0.18501,0.18354,-0.1943
17.9,1.4467,0.19142,0.19001,-0.1987

