airfoilName st20.dat
Re 	2.500000e+05
M 	5.000000e-02
N 	4.500000e+00
VACC 	0 VACCflag 1
XTR 	1.00 	1.00 XTRflag 0
alpha,cl,cd,cdp,cm
-25.5,-1.1678,0.40073,0.39795,0.1794
-25.4,-1.1647,0.39838,0.3956,0.1778
-25.3,-1.1616,0.39603,0.39325,0.1762
-25.2,-1.1585,0.39369,0.3909,0.1747
-25.1,-1.1554,0.39135,0.38855,0.1731
-25,-1.1523,0.38902,0.38622,0.1716
-24.9,-1.1492,0.38669,0.38389,0.17
-24.8,-1.1461,0.38436,0.38155,0.1685
-24.7,-1.1429,0.38206,0.37924,0.167
-24.6,-1.1397,0.37975,0.37694,0.1654
-24.5,-1.1365,0.37748,0.37466,0.1639
-24.4,-1.1334,0.37519,0.37237,0.1624
-24.3,-1.1302,0.3729,0.37007,0.1609
-24.2,-1.127,0.37063,0.3678,0.1594
-24.1,-1.1237,0.36839,0.36555,0.1579
-24,-1.1205,0.36614,0.3633,0.1564
-23.9,-1.1172,0.36391,0.36106,0.1549
-23.8,-1.114,0.36168,0.35883,0.1534
-23.7,-1.1107,0.35946,0.3566,0.1519
-23.6,-1.1074,0.35726,0.3544,0.1504
-23.5,-1.1041,0.35506,0.35219,0.1489
-23.4,-1.1008,0.35288,0.35001,0.1475
-23.3,-1.0975,0.35069,0.34782,0.146
-23.2,-1.0941,0.34854,0.34566,0.1445
-23.1,-1.0908,0.34639,0.3435,0.1431
-23,-1.0874,0.34424,0.34136,0.1416
-22.9,-1.084,0.34211,0.33922,0.1402
-22.8,-1.0806,0.34,0.33709,0.1387
-22.7,-1.0772,0.33789,0.33498,0.1373
-22.6,-1.0738,0.3358,0.33288,0.1358
-22.5,-1.0704,0.33372,0.3308,0.1344
-22.4,-1.0669,0.33164,0.32872,0.133
-22.3,-1.0634,0.32958,0.32665,0.1315
-22.2,-1.06,0.32754,0.3246,0.1301
-22.1,-1.0565,0.32549,0.32255,0.1287
-22,-1.053,0.32346,0.32052,0.1273
-21.9,-1.0495,0.32144,0.3185,0.1259
-21.8,-1.0459,0.31942,0.31647,0.1245
-21.7,-1.0424,0.31742,0.31447,0.1231
-21.6,-1.0389,0.31542,0.31247,0.1217
-21.5,-1.0353,0.31344,0.31048,0.1203
-21.4,-1.0317,0.31146,0.3085,0.1189
-21.3,-1.0281,0.30949,0.30652,0.1175
-21.2,-1.0246,0.30753,0.30456,0.1161
-21.1,-1.021,0.30557,0.3026,0.1148
-21,-1.0173,0.30361,0.30064,0.1134
-20.9,-1.0137,0.30167,0.29869,0.112
-20.8,-1.0101,0.29974,0.29676,0.1107
-20.7,-1.0065,0.2978,0.29481,0.1093
-20.6,-1.0028,0.29586,0.29287,0.108
-20.5,-0.9992,0.29394,0.29095,0.1067
-20.4,-0.9955,0.29201,0.28902,0.1053
-20.3,-0.9918,0.2901,0.2871,0.104
-20.2,-0.9882,0.28818,0.28519,0.1027
-20.1,-0.9845,0.28627,0.28327,0.1014
-20,-0.9808,0.28437,0.28136,0.1001
-19.9,-0.9771,0.28246,0.27944,0.0988
-19.8,-0.9733,0.28057,0.27754,0.0975
-19.7,-0.9696,0.27868,0.27565,0.0962
-19.6,-0.9658,0.27679,0.27375,0.0949
-19.5,-0.9621,0.2749,0.27187,0.0936
-19.4,-0.9583,0.27302,0.26998,0.0923
-19.3,-0.9545,0.27115,0.26811,0.091
-19.2,-0.9507,0.26928,0.26623,0.0897
-19.1,-0.9468,0.26742,0.26437,0.0884
-19,-0.943,0.26556,0.26251,0.0871
-18.9,-0.9391,0.2637,0.26065,0.0858
-18.8,-0.9352,0.26186,0.25881,0.0846
-18.7,-0.9313,0.26002,0.25696,0.0833
-18.6,-0.9273,0.25818,0.25512,0.082
-18.5,-0.9234,0.25635,0.25329,0.0807
-18.4,-0.9194,0.25452,0.25146,0.0794
-18.3,-0.9153,0.2527,0.24963,0.0781
-18.2,-0.9113,0.25088,0.24781,0.0767
-18.1,-0.9072,0.24905,0.24598,0.0754
-18,-0.9031,0.24722,0.24415,0.0741
-17.9,-0.899,0.24539,0.24232,0.0728
-17.8,-0.8948,0.24354,0.24047,0.0715
-17.7,-0.8906,0.24168,0.23861,0.0701
-17.6,-0.8864,0.2398,0.23672,0.0688
-17.5,-0.8821,0.23789,0.23482,0.0675
-17.4,-0.8779,0.23594,0.23286,0.0662
-17.3,-0.8605,0.23228,0.22925,0.0613
-17.2,-0.8572,0.23032,0.22729,0.0604
-17.1,-0.8539,0.22838,0.22534,0.0594
-17,-0.8506,0.22644,0.22341,0.0584
-16.9,-0.8473,0.22452,0.22148,0.0575
-16.8,-0.8439,0.2226,0.21956,0.0565
-16.7,-0.8405,0.2207,0.21766,0.0555
-16.6,-0.8372,0.21881,0.21576,0.0545
-16.5,-0.8338,0.21693,0.21386,0.0536
-16.4,-0.8304,0.21506,0.212,0.0526
-16.3,-0.827,0.21321,0.21014,0.0516
-16.2,-0.8236,0.21137,0.2083,0.0507
-16.1,-0.8201,0.20955,0.20648,0.0497
-16,-0.8166,0.20775,0.20467,0.0487
-15.9,-0.8131,0.20596,0.20288,0.0478
-15.8,-0.8096,0.20419,0.20111,0.0468
-15.7,-0.8061,0.20243,0.19935,0.0458
-15.6,-0.8025,0.20069,0.19761,0.0449
-15.5,-0.799,0.19897,0.19589,0.0439
-15.4,-0.7954,0.19727,0.19418,0.0429
-15.3,-0.7917,0.19558,0.19249,0.042
-15.2,-0.7881,0.1939,0.19082,0.041
-15.1,-0.7844,0.19224,0.18915,0.04
-15,-0.7806,0.19059,0.1875,0.039
-14.9,-0.7769,0.18896,0.18587,0.0381
-14.8,-0.7731,0.18734,0.18425,0.0371
-14.7,-0.7692,0.18573,0.18264,0.0361
-14.6,-0.7654,0.18414,0.18105,0.0351
-14.5,-0.7615,0.18255,0.17946,0.0342
-14.4,-0.7576,0.18098,0.17789,0.0332
-14.3,-0.7536,0.17942,0.17633,0.0322
-14.2,-0.7497,0.17788,0.17479,0.0312
-14.1,-0.7457,0.17633,0.17324,0.0302
-14,-0.7417,0.1748,0.17171,0.0293
-13.9,-0.7377,0.17328,0.17019,0.0283
-13.8,-0.7336,0.17175,0.16866,0.0273
-13.7,-0.7295,0.17024,0.16715,0.0263
-13.6,-0.7254,0.16873,0.16564,0.0254
-13.5,-0.7212,0.16723,0.16414,0.0244
-13.4,-0.7171,0.16573,0.16262,0.0234
-13.3,-0.7128,0.16422,0.16112,0.0224
-13.2,-0.7086,0.16273,0.15963,0.0214
-13.1,-0.7044,0.16124,0.15813,0.0205
-13,-0.7002,0.15975,0.15664,0.0195
-12.9,-0.6959,0.15826,0.15516,0.0185
-12.8,-0.6916,0.15678,0.15368,0.0176
-12.7,-0.6873,0.1553,0.1522,0.0166
-12.6,-0.683,0.15382,0.15072,0.0156
-12.5,-0.6787,0.15234,0.14925,0.0147
-12.4,-0.6744,0.15087,0.14777,0.0137
-12.3,-0.67,0.14939,0.14629,0.0128
-12.2,-0.6656,0.14791,0.14482,0.0118
-12.1,-0.6612,0.14643,0.14333,0.0109
-12,-0.6568,0.14495,0.14186,0.0099
-11.9,-0.6524,0.14346,0.14037,0.009
-11.8,-0.648,0.14197,0.13889,0.008
-11.7,-0.6436,0.14048,0.13739,0.0071
-11.6,-0.6391,0.13897,0.13589,0.0061
-11.5,-0.6346,0.13746,0.13438,0.0052
-11.4,-0.6301,0.13593,0.13285,0.0042
-11.3,-0.6256,0.13438,0.13131,0.0033
-11.2,-0.6211,0.13281,0.12974,0.0023
-11.1,-0.6166,0.13122,0.12815,0.0014
-11,-0.612,0.12958,0.12651,0.0004
-10.9,-0.5951,0.12582,0.12281,-0.0049
-10.8,-0.5917,0.12431,0.1213,-0.0055
-10.7,-0.5884,0.12283,0.11982,-0.006
-10.6,-0.5851,0.12136,0.11836,-0.0066
-10.5,-0.5818,0.11994,0.11694,-0.0071
-10.4,-0.5786,0.11853,0.11554,-0.0076
-10.3,-0.5755,0.11716,0.11417,-0.0081
-10.2,-0.5725,0.11583,0.11284,-0.0086
-10.1,-0.5696,0.11453,0.11155,-0.0091
-10,-0.5668,0.11328,0.1103,-0.0095
-9.9,-0.5642,0.11207,0.10911,-0.0098
-9.8,-0.5619,0.11092,0.10795,-0.0101
-9.7,-0.56,0.10984,0.10687,-0.0103
-9.6,-0.5585,0.10882,0.10586,-0.0103
-9.5,-0.5575,0.10787,0.10493,-0.0103
-9.4,-0.5571,0.10699,0.10407,-0.0101
-9.3,-0.5574,0.1062,0.1033,-0.0097
-9.2,-0.5585,0.1055,0.10262,-0.0091
-9.1,-0.5605,0.10489,0.10204,-0.0083
-9,-0.5631,0.10435,0.10152,-0.0073
-8.9,-0.5657,0.10381,0.101,-0.0064
-8.8,-0.5678,0.10322,0.10044,-0.0056
-8.7,-0.5599,0.10171,0.09892,-0.0074
-8.6,-0.5506,0.10011,0.09732,-0.0095
-8.5,-0.5413,0.09856,0.09576,-0.0117
-8.4,-0.5317,0.09703,0.09422,-0.0139
-8.3,-0.5218,0.09549,0.09267,-0.0162
-8.2,-0.5115,0.09394,0.09111,-0.0186
-8.1,-0.5016,0.09244,0.0896,-0.0208
-8,-0.4916,0.09095,0.0881,-0.023
-7.9,-0.4805,0.08937,0.08651,-0.0255
-5,-0.0057,0.01916,0.01379,-0.1287
-4.9,0.0087,0.01798,0.0123,-0.1299
-4.8,0.0222,0.01728,0.01135,-0.1306
-4.7,0.0355,0.01649,0.01048,-0.1314
-4.6,0.0485,0.016,0.00992,-0.132
-4.5,0.0615,0.01565,0.00951,-0.1326
-4.4,0.0746,0.01533,0.00914,-0.1331
-4.3,0.0877,0.01501,0.00876,-0.1336
-4.2,0.1014,0.01467,0.00834,-0.1342
-4.1,0.1147,0.01433,0.00791,-0.1348
-4,0.1281,0.01399,0.00746,-0.1353
-3.9,0.1389,0.0137,0.00708,-0.1352
-3.7,0.1619,0.01313,0.00638,-0.1354
-3.6,0.1744,0.0129,0.00612,-0.1357
-3.5,0.1872,0.01271,0.00591,-0.136
-3.4,0.1999,0.01254,0.00568,-0.1364
-3.3,0.2127,0.01236,0.00545,-0.1367
-3.2,0.2257,0.01232,0.00537,-0.1371
-3.1,0.2387,0.0121,0.00514,-0.1375
-3,0.2492,0.01199,0.00502,-0.1374
-2.9,0.2598,0.01187,0.00487,-0.1372
-2.8,0.2716,0.01174,0.0047,-0.1373
-2.7,0.2834,0.01168,0.00462,-0.1375
-2.6,0.296,0.01151,0.00445,-0.1377
-2.5,0.3084,0.0114,0.00432,-0.138
-2.4,0.321,0.01128,0.00417,-0.1382
-2.3,0.334,0.01115,0.00398,-0.1385
-2.2,0.3446,0.01107,0.00388,-0.1384
-2.1,0.355,0.01103,0.00389,-0.1382
-2,0.3666,0.01095,0.00379,-0.1383
-1.9,0.3786,0.01086,0.00367,-0.1384
-1.8,0.3909,0.01076,0.00355,-0.1386
-1.7,0.4032,0.01067,0.00348,-0.1388
-1.6,0.4158,0.01058,0.00338,-0.139
-1.5,0.4259,0.01059,0.00336,-0.1388
-1.4,0.437,0.01052,0.00332,-0.1387
-1.3,0.4484,0.01046,0.00327,-0.1387
-1.2,0.4602,0.0104,0.00319,-0.1388
-1.1,0.4722,0.01035,0.00311,-0.1389
-0.9,0.4954,0.01026,0.00306,-0.139
-0.8,0.5061,0.01023,0.00301,-0.1389
-0.7,0.5175,0.01018,0.00299,-0.1389
-0.6,0.5292,0.01013,0.00296,-0.139
-0.5,0.5411,0.01009,0.00291,-0.139
-0.3,0.5628,0.00999,0.00283,-0.1387
-0.2,0.5745,0.00993,0.00273,-0.1386
-0.1,0.5852,0.0099,0.00272,-0.1384
0,0.5966,0.00987,0.00271,-0.1384
0.3,0.6301,0.00977,0.00263,-0.1382
0.4,0.6417,0.00973,0.00256,-0.1381
0.5,0.6525,0.00971,0.00257,-0.138
0.6,0.6637,0.00969,0.00256,-0.1379
0.7,0.675,0.00966,0.00252,-0.1378
0.8,0.6859,0.00964,0.00252,-0.1377
0.9,0.6972,0.00963,0.00252,-0.1376
1,0.7085,0.0096,0.00251,-0.1376
1.1,0.7192,0.00958,0.00246,-0.1373
1.2,0.7302,0.00957,0.00247,-0.1373
1.3,0.7414,0.00956,0.00249,-0.1372
1.4,0.7524,0.00955,0.00248,-0.1371
1.5,0.7632,0.00953,0.00247,-0.1369
1.6,0.7741,0.00952,0.00248,-0.1368
1.7,0.785,0.00951,0.00247,-0.1366
1.8,0.7958,0.00951,0.00247,-0.1365
1.9,0.8067,0.00948,0.00251,-0.1364
2,0.8166,0.00947,0.00251,-0.136
2.1,0.8199,0.00832,0.00248,-0.1341
2.2,0.8305,0.00839,0.0025,-0.1339
2.3,0.841,0.00847,0.00253,-0.1337
2.5,0.8603,0.00874,0.00257,-0.1328
2.6,0.8701,0.00889,0.00262,-0.1324
2.7,0.8797,0.00904,0.0027,-0.1321
2.8,0.8893,0.00921,0.00277,-0.1317
2.9,0.8986,0.0094,0.00285,-0.1313
3,0.9059,0.00977,0.00297,-0.1305
3.1,0.9148,0.01001,0.00308,-0.13
3.2,0.9235,0.01027,0.0032,-0.1295
3.3,0.9321,0.01055,0.00334,-0.1291
3.4,0.9404,0.01085,0.00348,-0.1286
3.5,0.9465,0.01141,0.0037,-0.1278
3.6,0.955,0.01173,0.00388,-0.1274
3.7,0.9638,0.01203,0.00403,-0.127
3.8,0.9729,0.01228,0.00418,-0.1267
3.9,0.9825,0.01249,0.00433,-0.1264
4,0.9913,0.0128,0.00452,-0.1261
4.1,1.0011,0.01296,0.00465,-0.1259
4.2,1.0109,0.01313,0.00483,-0.1256
4.3,1.0208,0.0133,0.00496,-0.1254
4.4,1.0307,0.01346,0.0051,-0.1252
4.5,1.04,0.01368,0.00525,-0.1249
4.6,1.05,0.01383,0.00538,-0.1247
4.7,1.0598,0.014,0.00553,-0.1245
4.8,1.0697,0.01414,0.00566,-0.1243
4.9,1.0794,0.01431,0.00581,-0.1241
5,1.0894,0.01445,0.00594,-0.1239
5.1,1.0988,0.01466,0.00609,-0.1236
5.2,1.1086,0.01482,0.00623,-0.1234
5.3,1.1182,0.01499,0.00639,-0.1231
5.4,1.128,0.01514,0.00653,-0.1229
5.5,1.1376,0.01532,0.00668,-0.1227
5.6,1.1473,0.01548,0.00689,-0.1224
5.7,1.1565,0.01571,0.00705,-0.1221
5.8,1.1662,0.01587,0.00721,-0.1219
5.9,1.1756,0.01605,0.00738,-0.1216
6,1.1851,0.01624,0.00757,-0.1213
6.1,1.1947,0.01641,0.00774,-0.1211
6.2,1.204,0.01661,0.00792,-0.1208
6.3,1.2131,0.01683,0.00811,-0.1205
6.4,1.2224,0.01703,0.0083,-0.1202
6.5,1.2316,0.01724,0.00851,-0.1199
6.6,1.241,0.01742,0.00871,-0.1196
6.7,1.2503,0.01762,0.00892,-0.1193
6.8,1.2593,0.01785,0.00914,-0.119
6.9,1.2683,0.01808,0.00941,-0.1186
7,1.2775,0.01828,0.00964,-0.1183
7.1,1.2864,0.01851,0.00984,-0.118
7.2,1.2951,0.01877,0.01009,-0.1176
7.3,1.3041,0.019,0.01035,-0.1172
7.4,1.3131,0.01921,0.0106,-0.1169
7.5,1.3219,0.01945,0.01087,-0.1165
7.6,1.3306,0.01969,0.01114,-0.1161
7.7,1.3392,0.01996,0.01142,-0.1157
7.8,1.3473,0.02028,0.01174,-0.1152
7.9,1.3558,0.02056,0.01205,-0.1148
8,1.3648,0.02074,0.01227,-0.1145
8.1,1.3732,0.02101,0.01257,-0.114
8.2,1.3815,0.02129,0.01288,-0.1136
8.3,1.3895,0.0216,0.01324,-0.1131
8.4,1.3977,0.02187,0.01349,-0.1127
8.5,1.4059,0.02215,0.01382,-0.1122
8.6,1.414,0.02243,0.01415,-0.1118
8.7,1.422,0.02273,0.01449,-0.1113
8.8,1.4298,0.02304,0.01483,-0.1108
8.9,1.4374,0.02337,0.01519,-0.1102
9,1.4445,0.02376,0.01561,-0.1096
9.1,1.4512,0.02419,0.01605,-0.109
9.2,1.4589,0.0245,0.01644,-0.1084
9.3,1.468,0.0246,0.01656,-0.1082
9.4,1.4753,0.02493,0.01694,-0.1076
9.5,1.4824,0.02528,0.01733,-0.107
9.6,1.4892,0.02566,0.01774,-0.1064
9.7,1.4954,0.02609,0.0182,-0.1057
9.8,1.5013,0.02656,0.01869,-0.105
9.9,1.5079,0.02693,0.01917,-0.1043
10,1.5141,0.02733,0.01966,-0.1035
10.1,1.5201,0.02775,0.02016,-0.1027
10.2,1.5258,0.02818,0.02066,-0.1019
10.3,1.5312,0.02862,0.02116,-0.1011
10.4,1.5365,0.02905,0.02165,-0.1002
10.5,1.5415,0.02949,0.02215,-0.0994
10.6,1.546,0.02994,0.02265,-0.0984
10.7,1.5496,0.03039,0.02315,-0.0973
10.8,1.5529,0.03087,0.02368,-0.0962
10.9,1.5557,0.0314,0.02426,-0.095
11,1.5576,0.032,0.0249,-0.0937
11.1,1.5583,0.0327,0.02565,-0.0923
11.2,1.5603,0.03331,0.0263,-0.0911
11.3,1.5634,0.03383,0.02693,-0.09
11.4,1.5659,0.03442,0.02761,-0.0889
11.5,1.5678,0.03504,0.02832,-0.0877
11.6,1.5695,0.03568,0.02906,-0.0866
11.7,1.5708,0.03636,0.02982,-0.0854
11.8,1.5719,0.03704,0.03059,-0.0843
11.9,1.5728,0.03776,0.03139,-0.0832
12,1.5734,0.03849,0.0322,-0.0821
12.1,1.5738,0.03924,0.03304,-0.081
12.2,1.5741,0.04001,0.03389,-0.0799
12.3,1.574,0.04081,0.0348,-0.0789
12.4,1.5738,0.04163,0.03569,-0.0779
12.5,1.5733,0.04248,0.03662,-0.077
12.6,1.5726,0.04335,0.03757,-0.0761
12.7,1.5717,0.04425,0.03855,-0.0752
12.8,1.5706,0.04519,0.03956,-0.0744
12.9,1.5692,0.04617,0.04062,-0.0737
13,1.5676,0.04717,0.0417,-0.073
13.1,1.5657,0.04823,0.04283,-0.0724
13.2,1.5635,0.04934,0.04402,-0.0719
13.3,1.5611,0.05049,0.04525,-0.0714
13.4,1.5584,0.0517,0.04653,-0.0711
13.5,1.5555,0.05296,0.04787,-0.0709
13.6,1.5523,0.0543,0.04929,-0.0707
13.7,1.5489,0.05571,0.05077,-0.0707
13.8,1.545,0.0572,0.05234,-0.0709
13.9,1.5409,0.05876,0.05399,-0.0712
14,1.5367,0.0604,0.0557,-0.0717
14.6,1.5152,0.07137,0.06721,-0.0787
14.7,1.5103,0.07378,0.06973,-0.0808
14.8,1.5053,0.07634,0.07239,-0.0833
14.9,1.5002,0.07913,0.0753,-0.0862
15,1.4952,0.08215,0.07843,-0.0896
15.1,1.4901,0.08549,0.08189,-0.0935
15.2,1.4852,0.08918,0.0857,-0.0979
15.4,1.4757,0.09789,0.09466,-0.1085
15.5,1.4707,0.10306,0.09996,-0.1145
16.2,1.437,0.13713,0.13466,-0.1488
16.3,1.4287,0.1446,0.14225,-0.1555
16.4,1.3898,0.17231,0.17017,-0.1753
16.5,1.3906,0.17491,0.17277,-0.1775
16.6,1.3923,0.17671,0.17457,-0.1792
16.7,1.3936,0.17878,0.17665,-0.181
16.8,1.3962,0.17981,0.17768,-0.1823
16.9,1.3982,0.18108,0.17895,-0.1837
17,1.4005,0.1818,0.17966,-0.1848
17.3,1.3904,0.21447,0.21225,-0.2006
17.4,1.3933,0.2164,0.21418,-0.2021
17.5,1.3963,0.21826,0.21605,-0.2036
17.6,1.3993,0.22006,0.21785,-0.2051
17.7,1.4023,0.2218,0.21959,-0.2066
17.8,1.4053,0.22352,0.22131,-0.208
17.9,1.4084,0.22516,0.22296,-0.2094
18,1.4114,0.22676,0.22457,-0.2109
18.1,1.4145,0.22832,0.22613,-0.2123
18.2,1.4175,0.22987,0.22768,-0.2137
18.3,1.4205,0.23145,0.22926,-0.2151
18.4,1.4235,0.23292,0.23075,-0.2165
18.5,1.4265,0.23441,0.23224,-0.2179
18.6,1.4295,0.23582,0.23365,-0.2192
18.7,1.4324,0.23726,0.2351,-0.2206
18.8,1.4353,0.2386,0.23645,-0.222
18.9,1.4382,0.23993,0.23778,-0.2233
19,1.4411,0.24142,0.23928,-0.2247
19.1,1.4439,0.24274,0.2406,-0.226
19.2,1.4465,0.24391,0.24178,-0.2273
19.3,1.4492,0.24537,0.24324,-0.2286
19.5,1.4593,0.2594,0.25721,-0.2342
19.6,1.463,0.26216,0.25997,-0.2359
19.7,1.4666,0.26464,0.26245,-0.2375
19.8,1.4702,0.26707,0.26489,-0.2391
19.9,1.4736,0.26925,0.26707,-0.2407
20,1.4771,0.27144,0.26927,-0.2422
20.1,1.4805,0.27352,0.27135,-0.2437
20.2,1.4839,0.27554,0.27337,-0.2453
20.3,1.4872,0.27754,0.27538,-0.2468
20.4,1.4906,0.2795,0.27734,-0.2483
20.5,1.4939,0.28144,0.27928,-0.2498
20.6,1.4972,0.28335,0.28122,-0.2513
20.7,1.5005,0.28524,0.28311,-0.2528
20.8,1.5037,0.2871,0.28498,-0.2543
20.9,1.507,0.28894,0.28683,-0.2559
21,1.5102,0.29077,0.28866,-0.2574
21.1,1.5134,0.29259,0.29049,-0.2589
21.2,1.5167,0.2944,0.2923,-0.2604
21.3,1.5198,0.2962,0.2941,-0.2619
21.4,1.523,0.29797,0.29588,-0.2634
21.5,1.5262,0.29979,0.2977,-0.2649
21.6,1.5293,0.30156,0.29948,-0.2664
21.7,1.5325,0.30332,0.30125,-0.268
21.8,1.5356,0.30507,0.303,-0.2695
21.9,1.5387,0.30686,0.3048,-0.271
22,1.5417,0.30855,0.3065,-0.2725
22.1,1.5448,0.31033,0.30829,-0.2741
22.2,1.5479,0.3121,0.31006,-0.2756
22.3,1.5509,0.31382,0.31178,-0.2771
22.4,1.554,0.31555,0.31352,-0.2787
22.5,1.557,0.31729,0.31527,-0.2802
22.6,1.56,0.319,0.31698,-0.2818
22.7,1.563,0.32081,0.3188,-0.2833
22.8,1.566,0.32255,0.32054,-0.2849
22.9,1.5689,0.32425,0.32226,-0.2864
23,1.5718,0.32598,0.32399,-0.288
23.1,1.5748,0.3278,0.32582,-0.2895
23.2,1.5776,0.32948,0.3275,-0.2911
23.3,1.5805,0.33124,0.32927,-0.2926
23.4,1.5834,0.33303,0.33106,-0.2942
23.5,1.5862,0.33478,0.33282,-0.2958
23.6,1.5891,0.33656,0.33461,-0.2973
23.7,1.592,0.33839,0.33645,-0.2989
23.8,1.5947,0.34013,0.33821,-0.3005
23.9,1.5975,0.34191,0.34,-0.3021
24,1.6002,0.34371,0.34181,-0.3036
24.1,1.603,0.34554,0.34365,-0.3052
24.2,1.6057,0.3474,0.34551,-0.3068
24.3,1.6084,0.34924,0.34737,-0.3084
24.4,1.61,0.35036,0.34849,-0.3098
24.5,1.6126,0.35229,0.35044,-0.3113
24.6,1.6151,0.35424,0.35239,-0.3129
24.8,1.6267,0.36298,0.36109,-0.318
24.9,1.6314,0.36665,0.36475,-0.3201
25,1.6356,0.36992,0.36803,-0.3221
25.1,1.6395,0.37292,0.37103,-0.3241
25.2,1.6429,0.37544,0.37356,-0.3259
25.3,1.6463,0.37797,0.37609,-0.3277
25.4,1.6495,0.38029,0.37841,-0.3296
25.5,1.6527,0.38259,0.38072,-0.3314
25.6,1.6558,0.38481,0.38294,-0.3332
25.7,1.6589,0.38704,0.38518,-0.335
25.8,1.6619,0.38919,0.38733,-0.3368
25.9,1.6649,0.39133,0.38948,-0.3386
26,1.6679,0.39344,0.3916,-0.3404
26.1,1.6707,0.3955,0.39366,-0.3422
26.2,1.6737,0.3976,0.39576,-0.344
26.3,1.6765,0.39965,0.39782,-0.3458
26.4,1.6793,0.40168,0.39986,-0.3476
26.5,1.6821,0.4037,0.40189,-0.3494
26.6,1.6849,0.40571,0.40391,-0.3512
26.7,1.6877,0.40772,0.40593,-0.3531
26.8,1.6904,0.40973,0.40794,-0.3549
26.9,1.6931,0.41171,0.40992,-0.3567
27,1.6957,0.41372,0.41194,-0.3585
27.1,1.6984,0.4157,0.41393,-0.3604
27.2,1.701,0.41771,0.41594,-0.3622
27.3,1.7037,0.41962,0.41786,-0.364
27.4,1.7062,0.42162,0.41989,-0.3659
27.5,1.7088,0.42359,0.42187,-0.3677
27.6,1.7114,0.42555,0.42383,-0.3696
27.7,1.7139,0.42749,0.42578,-0.3714
27.8,1.7164,0.42945,0.42775,-0.3733
27.9,1.7189,0.43142,0.42973,-0.3751
28,1.7214,0.43336,0.43167,-0.377
28.1,1.7238,0.43531,0.43363,-0.3789
28.2,1.7262,0.43726,0.43559,-0.3807
28.3,1.7286,0.43918,0.43752,-0.3826
28.4,1.731,0.44115,0.43949,-0.3845
28.5,1.7333,0.44311,0.44146,-0.3864
28.6,1.7357,0.44511,0.44347,-0.3883
28.7,1.738,0.44708,0.44544,-0.3901
28.8,1.7403,0.44903,0.4474,-0.392
28.9,1.7426,0.45098,0.44936,-0.3939
29,1.7448,0.45299,0.45138,-0.3958
29.1,1.7471,0.45495,0.45335,-0.3977
29.2,1.7493,0.45694,0.45535,-0.3996
29.3,1.7515,0.45892,0.45734,-0.4016
29.4,1.7536,0.4609,0.45933,-0.4035
29.5,1.7558,0.46296,0.46139,-0.4054
29.6,1.758,0.46498,0.46342,-0.4073
29.7,1.7601,0.46697,0.46542,-0.4092
29.8,1.7621,0.469,0.46746,-0.4111
29.9,1.7642,0.47109,0.46955,-0.4131
30,1.7663,0.47316,0.47163,-0.415

