airfoilName st21.dat
Re 	690000
M 	5.000000e-02
N 	4.500000e+00
VACC 	0 VACCflag 1
XTR 	1.00 	1.00 XTRflag 0
alpha,cl,cd,cdp,cm
-10.9,-0.5918,0.12527,0.12359,-0.0003
-10.8,-0.5905,0.12327,0.12159,-0.0006
-10.7,-0.5891,0.12134,0.11965,-0.0009
-10.6,-0.5866,0.11972,0.11803,-0.0015
-10.5,-0.5832,0.11831,0.11662,-0.0023
-10.4,-0.5796,0.117,0.1153,-0.003
-10.3,-0.5759,0.11574,0.11404,-0.0038
-10.2,-0.5721,0.11452,0.11283,-0.0045
-10.1,-0.5683,0.11333,0.11165,-0.0053
-10,-0.5645,0.11215,0.11047,-0.006
-9.9,-0.5608,0.11101,0.10933,-0.0066
-9.8,-0.5574,0.10991,0.10823,-0.0073
-9.7,-0.5543,0.10885,0.10717,-0.0078
-9.6,-0.5517,0.10784,0.10617,-0.0081
-9.5,-0.55,0.10692,0.10526,-0.0083
-9.4,-0.5492,0.10609,0.10445,-0.0082
-9.3,-0.5501,0.10544,0.1038,-0.0076
-9.2,-0.548,0.10449,0.10287,-0.0079
-9.1,-0.5404,0.10305,0.10142,-0.0097
-9,-0.5326,0.10159,0.09996,-0.0116
-8.9,-0.5244,0.10012,0.09848,-0.0135
-8.8,-0.5157,0.0986,0.09695,-0.0157
-8.7,-0.506,0.09701,0.09536,-0.018
-8.6,-0.4964,0.09543,0.09377,-0.0203
-8.5,-0.4871,0.09389,0.09222,-0.0225
-8.4,-0.4774,0.09233,0.09066,-0.0249
-8.3,-0.4674,0.09074,0.08906,-0.0273
-8.2,-0.4569,0.08913,0.08744,-0.0298
-8,-0.4341,0.08587,0.08416,-0.0353
-7.9,-0.4238,0.08424,0.08251,-0.0377
-7.8,-0.4142,0.08268,0.08094,-0.0398
-6.4,-0.1509,0.01749,0.01401,-0.1281
-6.3,-0.1376,0.01615,0.01247,-0.1294
-6.2,-0.1251,0.01533,0.0115,-0.1301
-6.1,-0.1127,0.01467,0.01071,-0.1308
-6,-0.1005,0.01411,0.01005,-0.1313
-5.9,-0.0883,0.01363,0.00946,-0.1317
-5.8,-0.0762,0.01319,0.00892,-0.1321
-5.7,-0.0648,0.0128,0.00846,-0.1323
-5.6,-0.0534,0.01245,0.00803,-0.1325
-5.5,-0.042,0.01212,0.00762,-0.1327
-5.4,-0.0304,0.01181,0.00724,-0.1329
-5.3,-0.0187,0.01152,0.00687,-0.1331
-5.2,-0.007,0.01125,0.00654,-0.1332
-5.1,0.0047,0.01099,0.00622,-0.1334
-5,0.0164,0.01075,0.00591,-0.1336
-4.9,0.0282,0.01052,0.00562,-0.1337
-4.7,0.0507,0.01029,0.00531,-0.1338
-4.6,0.062,0.0101,0.00506,-0.1338
-4.5,0.0735,0.00992,0.00484,-0.1339
-4.4,0.085,0.00978,0.00465,-0.134
-4.3,0.0962,0.00965,0.00448,-0.1339
-4.2,0.1073,0.00956,0.00434,-0.1339
-4.1,0.1192,0.00909,0.0038,-0.1341
-4,0.1308,0.00888,0.00356,-0.1342
-3.9,0.1423,0.00874,0.00339,-0.1343
-3.8,0.1537,0.00861,0.00323,-0.1343
-3.7,0.1651,0.0085,0.00309,-0.1343
-3.6,0.1766,0.00839,0.00294,-0.1343
-3.5,0.1879,0.00829,0.00281,-0.1343
-3.4,0.1992,0.0082,0.00268,-0.1343
-3.3,0.2106,0.00813,0.00258,-0.1343
-3.2,0.2221,0.00799,0.00243,-0.1343
-3.1,0.2334,0.0079,0.00232,-0.1343
-3,0.2448,0.00783,0.00224,-0.1343
-2.9,0.256,0.00777,0.00216,-0.1343
-2.8,0.2674,0.00771,0.00208,-0.1343
-2.7,0.2788,0.00766,0.00201,-0.1343
-2.6,0.2901,0.00758,0.00193,-0.1343
-2.5,0.3014,0.00753,0.00187,-0.1343
-2.4,0.3126,0.00748,0.0018,-0.1343
-2.3,0.324,0.00744,0.00175,-0.1343
-2.2,0.3354,0.00739,0.00169,-0.1343
-2.1,0.3467,0.00734,0.00164,-0.1343
-2,0.358,0.0073,0.00161,-0.1343
-1.9,0.3691,0.00727,0.00156,-0.1342
-1.8,0.3805,0.00722,0.00153,-0.1343
-1.7,0.3919,0.00718,0.0015,-0.1343
-1.6,0.4031,0.00715,0.00146,-0.1343
-1.5,0.4144,0.00713,0.00142,-0.1343
-1.4,0.4254,0.0071,0.00137,-0.1341
-1.3,0.4361,0.00709,0.00133,-0.1339
-1.2,0.4474,0.00707,0.00131,-0.134
-1.1,0.4585,0.00705,0.00127,-0.1339
-1,0.4694,0.00704,0.00124,-0.1338
-0.9,0.4808,0.00702,0.00123,-0.1338
-0.8,0.4917,0.00703,0.0012,-0.1337
-0.7,0.5029,0.00702,0.00118,-0.1336
-0.6,0.5142,0.007,0.00118,-0.1336
-0.5,0.525,0.00701,0.00116,-0.1335
-0.4,0.5363,0.00701,0.00114,-0.1335
-0.3,0.5471,0.00702,0.00113,-0.1334
-0.2,0.5584,0.00702,0.00113,-0.1334
-0.1,0.5691,0.00705,0.00112,-0.1332
0,0.5802,0.00705,0.00112,-0.1332
0.1,0.5913,0.00707,0.00112,-0.1331
0.2,0.6025,0.00707,0.00112,-0.1331
0.3,0.6131,0.00712,0.00112,-0.1329
0.4,0.6239,0.00716,0.00113,-0.1328
0.5,0.635,0.00717,0.00113,-0.1328
0.6,0.6459,0.0072,0.00115,-0.1327
0.7,0.6564,0.00727,0.00116,-0.1325
0.8,0.6665,0.00737,0.00118,-0.1323
0.9,0.6773,0.00743,0.0012,-0.1322
1,0.688,0.00748,0.00122,-0.1321
1.1,0.697,0.00772,0.00127,-0.1316
1.2,0.7075,0.0078,0.00131,-0.1315
1.3,0.7181,0.00788,0.00135,-0.1314
1.4,0.7277,0.00807,0.00143,-0.1311
1.5,0.7382,0.00817,0.00147,-0.1309
1.6,0.7481,0.00832,0.00154,-0.1307
1.7,0.7572,0.0086,0.00164,-0.1304
1.8,0.7674,0.00873,0.0017,-0.1302
1.9,0.7776,0.00887,0.00177,-0.1301
2,0.7876,0.00902,0.00184,-0.1299
2.1,0.7961,0.0094,0.00199,-0.1296
2.2,0.8059,0.0096,0.00208,-0.1294
2.3,0.8156,0.0098,0.00218,-0.1292
2.4,0.8255,0.00999,0.00227,-0.129
2.5,0.8357,0.01012,0.00236,-0.1289
2.6,0.8456,0.01029,0.00247,-0.1288
2.8,0.8613,0.00913,0.00271,-0.1277
2.9,0.872,0.00923,0.0028,-0.1276
3,0.8825,0.00934,0.00287,-0.1275
3.1,0.8927,0.0095,0.00295,-0.1274
3.2,0.9033,0.00958,0.00302,-0.1273
3.3,0.9139,0.00968,0.00308,-0.1272
3.4,0.9245,0.00978,0.00315,-0.1271
3.5,0.9351,0.00987,0.00322,-0.127
3.6,0.9453,0.01002,0.0033,-0.1268
3.7,0.9557,0.01013,0.00338,-0.1267
3.8,0.9663,0.01022,0.00345,-0.1266
3.9,0.9768,0.01032,0.00353,-0.1265
4,0.9872,0.01043,0.00361,-0.1264
4.1,0.9972,0.01059,0.0037,-0.1262
4.2,1.0077,0.01068,0.00379,-0.1261
4.3,1.0181,0.01079,0.00389,-0.126
4.4,1.0284,0.01091,0.00399,-0.1258
4.5,1.0388,0.01101,0.00408,-0.1257
4.6,1.0487,0.01118,0.00419,-0.1255
4.7,1.059,0.01129,0.00428,-0.1254
4.8,1.0692,0.01143,0.00438,-0.1252
4.9,1.0795,0.01154,0.00449,-0.1251
5,1.0897,0.01166,0.00459,-0.1249
5.1,1.0998,0.0118,0.00471,-0.1247
5.2,1.1097,0.01196,0.00482,-0.1245
5.3,1.1197,0.0121,0.00493,-0.1244
5.4,1.1299,0.01222,0.00506,-0.1242
5.5,1.14,0.01235,0.00517,-0.124
5.6,1.15,0.01249,0.00529,-0.1238
5.7,1.16,0.01264,0.00546,-0.1236
5.8,1.1701,0.01276,0.00558,-0.1235
5.9,1.1801,0.01288,0.0057,-0.1233
6,1.1901,0.01303,0.00584,-0.1231
6.1,1.1999,0.01319,0.00598,-0.1229
6.2,1.2099,0.01332,0.00613,-0.1227
6.3,1.2197,0.01347,0.00627,-0.1225
6.4,1.2296,0.01361,0.00641,-0.1222
6.5,1.2393,0.01377,0.00656,-0.122
6.6,1.2489,0.01395,0.00673,-0.1218
6.7,1.2588,0.01409,0.00688,-0.1216
6.8,1.2686,0.01423,0.00703,-0.1213
6.9,1.2783,0.01439,0.00719,-0.1211
7,1.2874,0.01462,0.0074,-0.1208
7.1,1.2972,0.01476,0.00756,-0.1206
7.2,1.3069,0.01491,0.00773,-0.1203
7.3,1.3165,0.01507,0.0079,-0.1201
7.4,1.326,0.01524,0.00807,-0.1198
7.5,1.3354,0.01542,0.00826,-0.1196
7.6,1.3446,0.01562,0.00846,-0.1193
7.7,1.354,0.0158,0.00865,-0.119
7.8,1.3635,0.01596,0.00884,-0.1187
7.9,1.3729,0.01613,0.00903,-0.1184
8,1.3822,0.01631,0.00922,-0.1181
8.1,1.3914,0.01651,0.00943,-0.1178
8.2,1.4004,0.01672,0.00965,-0.1175
8.3,1.4093,0.01696,0.0099,-0.1171
8.4,1.4184,0.01714,0.01013,-0.1168
8.5,1.4276,0.01733,0.01035,-0.1165
8.6,1.4365,0.01753,0.01058,-0.1162
8.7,1.4455,0.01775,0.01082,-0.1158
8.8,1.4543,0.01797,0.01106,-0.1154
8.9,1.463,0.0182,0.01131,-0.1151
9,1.4715,0.01845,0.01158,-0.1147
9.1,1.4799,0.01872,0.01188,-0.1142
9.2,1.4878,0.01906,0.01225,-0.1137
9.3,1.497,0.01917,0.01237,-0.1135
9.4,1.5054,0.01942,0.01266,-0.113
9.5,1.5136,0.01968,0.01295,-0.1126
9.6,1.5218,0.01995,0.01325,-0.1121
9.7,1.5298,0.02022,0.01356,-0.1116
9.8,1.5378,0.02051,0.01388,-0.1111
9.9,1.5456,0.0208,0.01423,-0.1106
10,1.5533,0.02111,0.01457,-0.1101
10.1,1.5608,0.02143,0.01493,-0.1095
10.2,1.568,0.02178,0.01532,-0.109
10.3,1.5748,0.02217,0.01576,-0.1083
10.4,1.5813,0.0226,0.01624,-0.1076
10.5,1.587,0.02311,0.01682,-0.1067
10.6,1.5918,0.02372,0.01748,-0.1058
10.7,1.599,0.02399,0.0178,-0.1052
10.8,1.606,0.02428,0.01814,-0.1046
10.9,1.6127,0.02461,0.01851,-0.1039
11,1.6191,0.02495,0.01891,-0.1032
11.1,1.6251,0.02532,0.01933,-0.1025
11.2,1.6308,0.0257,0.01976,-0.1017
11.3,1.6361,0.02608,0.02021,-0.1008
11.4,1.641,0.02649,0.02067,-0.0999
11.5,1.6456,0.0269,0.02114,-0.0989
11.6,1.6497,0.02733,0.02163,-0.0978
11.7,1.6529,0.02776,0.02211,-0.0966
11.8,1.6556,0.02821,0.02262,-0.0953
11.9,1.6583,0.02866,0.02313,-0.0941
12,1.6607,0.02913,0.02368,-0.0928
12.1,1.6629,0.02963,0.02424,-0.0915
12.2,1.6649,0.03014,0.02482,-0.0902
12.3,1.6667,0.03067,0.02541,-0.089
12.4,1.6683,0.03121,0.02602,-0.0877
12.5,1.6696,0.03179,0.02666,-0.0864
12.6,1.6708,0.03237,0.0273,-0.0852
12.7,1.6716,0.03299,0.02798,-0.084
12.8,1.6721,0.03364,0.0287,-0.0827
12.9,1.6728,0.03428,0.02941,-0.0815
13,1.6727,0.03498,0.03018,-0.0803
13.1,1.6725,0.03569,0.03095,-0.0792
13.2,1.6723,0.03643,0.03176,-0.078
13.3,1.6715,0.03722,0.03262,-0.0769
13.4,1.6705,0.03804,0.03351,-0.0758
13.5,1.669,0.0389,0.03444,-0.0748
13.6,1.6677,0.03977,0.03538,-0.0738
13.7,1.6655,0.04074,0.03642,-0.0729
13.8,1.6634,0.04172,0.03747,-0.072
13.9,1.6612,0.04273,0.03855,-0.0712
14,1.6586,0.04382,0.03971,-0.0705
14.1,1.6555,0.04495,0.04092,-0.0698
14.2,1.6521,0.04616,0.0422,-0.0693
14.3,1.6485,0.04742,0.04353,-0.0688
14.4,1.6441,0.0488,0.04499,-0.0685
14.5,1.6402,0.05019,0.04645,-0.0683
14.6,1.6355,0.05172,0.04806,-0.0683
14.7,1.6308,0.0533,0.04972,-0.0684
14.8,1.6256,0.05499,0.05149,-0.0688
14.9,1.6196,0.05685,0.05343,-0.0693
15,1.6139,0.05877,0.05543,-0.0701
15.1,1.6075,0.06087,0.05762,-0.0711
15.2,1.601,0.06313,0.05997,-0.0725
15.3,1.594,0.06561,0.06254,-0.0743
15.4,1.5865,0.06836,0.06539,-0.0765
15.5,1.579,0.07138,0.0685,-0.0793
15.6,1.5706,0.07487,0.0721,-0.0828
15.7,1.5619,0.07893,0.07627,-0.0871
15.8,1.5517,0.08405,0.08153,-0.0929
15.9,1.5391,0.0913,0.08895,-0.1013
16,1.516,0.10538,0.10332,-0.1158
16.3,1.4494,0.13896,0.13734,-0.1451
16.4,1.4362,0.14646,0.14491,-0.1514
16.5,1.4245,0.15351,0.15201,-0.1573
16.6,1.4137,0.16048,0.15904,-0.1632
16.7,1.4038,0.16735,0.16598,-0.1689
16.8,1.3968,0.17324,0.17191,-0.1738
16.9,1.3858,0.18222,0.18097,-0.1804

