airfoilName st21.dat
Re 	5.100000e+05
M 	5.000000e-02
N 	4.500000e+00
VACC 	0 VACCflag 1
XTR 	1.00 	1.00 XTRflag 0
alpha,cl,cd,cdp,cm
-30,-1.2852,0.50202,0.50037,0.2628
-29.9,-1.2827,0.49928,0.49763,0.2611
-29.8,-1.2803,0.49634,0.49468,0.2593
-29.7,-1.2779,0.49338,0.49172,0.2576
-29.6,-1.2755,0.49047,0.4888,0.2559
-29.5,-1.273,0.48766,0.48599,0.2541
-29.4,-1.2705,0.48492,0.48324,0.2524
-29.3,-1.2681,0.48188,0.4802,0.2507
-29.2,-1.2655,0.47926,0.47758,0.2489
-29.1,-1.2629,0.47653,0.47483,0.2472
-29,-1.2603,0.47389,0.47219,0.2454
-28.9,-1.2577,0.47131,0.4696,0.2437
-28.8,-1.255,0.46879,0.46708,0.2419
-28.7,-1.2524,0.46617,0.46446,0.2402
-28.6,-1.2497,0.46368,0.46196,0.2384
-28.5,-1.247,0.4612,0.45948,0.2367
-28.4,-1.2443,0.45877,0.45704,0.2349
-28.3,-1.2415,0.45639,0.45465,0.2331
-28.2,-1.2387,0.45402,0.45229,0.2314
-28.1,-1.2359,0.45166,0.44992,0.2296
-28,-1.2331,0.44932,0.44758,0.2279
-27.9,-1.2303,0.44703,0.44528,0.2261
-27.8,-1.2274,0.44477,0.44302,0.2244
-27.7,-1.2245,0.44251,0.44076,0.2226
-27.6,-1.2216,0.44027,0.43851,0.2209
-27.5,-1.2187,0.43806,0.43629,0.2191
-27.4,-1.2157,0.43585,0.43408,0.2173
-27.3,-1.2128,0.43366,0.43189,0.2156
-27.2,-1.2098,0.43148,0.4297,0.2139
-27.1,-1.2068,0.42931,0.42753,0.2121
-27,-1.2038,0.42715,0.42537,0.2104
-26.9,-1.2008,0.42501,0.42322,0.2087
-26.8,-1.1977,0.42289,0.4211,0.2069
-26.7,-1.1946,0.42074,0.41894,0.2052
-26.6,-1.1916,0.41861,0.4168,0.2035
-26.5,-1.1885,0.4165,0.41469,0.2018
-26.4,-1.1854,0.41438,0.41256,0.2001
-26.3,-1.1823,0.41228,0.41046,0.1984
-26.2,-1.1791,0.41018,0.40835,0.1967
-26.1,-1.176,0.40807,0.40625,0.195
-26,-1.1728,0.40597,0.40414,0.1933
-25.9,-1.1697,0.40388,0.40205,0.1916
-25.8,-1.1665,0.40179,0.39995,0.1899
-25.7,-1.1633,0.3997,0.39786,0.1882
-25.6,-1.1601,0.39762,0.39578,0.1866
-25.5,-1.1569,0.39555,0.3937,0.1849
-25.4,-1.1536,0.39349,0.39163,0.1833
-25.3,-1.1504,0.39142,0.38956,0.1816
-25.2,-1.1471,0.38936,0.3875,0.18
-25.1,-1.1439,0.3873,0.38544,0.1783
-25,-1.1406,0.38524,0.38337,0.1767
-24.9,-1.1373,0.38319,0.38132,0.1751
-24.8,-1.134,0.38116,0.37929,0.1735
-24.7,-1.1307,0.37911,0.37723,0.1718
-24.6,-1.1274,0.37708,0.3752,0.1702
-24.5,-1.124,0.37505,0.37317,0.1686
-24.4,-1.1207,0.37302,0.37113,0.167
-24.3,-1.1173,0.371,0.36911,0.1654
-24.2,-1.1139,0.36897,0.36708,0.1638
-24.1,-1.1106,0.36695,0.36505,0.1623
-23.9,-1.1035,0.36353,0.36161,0.1589
-23.8,-1.1001,0.36148,0.35957,0.1573
-23.7,-1.0967,0.35946,0.35754,0.1558
-23.6,-1.0932,0.35743,0.35552,0.1542
-23.5,-1.0898,0.35542,0.3535,0.1527
-23.4,-1.0863,0.3534,0.35147,0.1511
-23.3,-1.0829,0.35137,0.34944,0.1496
-23.2,-1.0794,0.34938,0.34744,0.1481
-23.1,-1.0759,0.34735,0.34542,0.1465
-23,-1.0723,0.34536,0.34342,0.145
-22.9,-1.0688,0.34335,0.34141,0.1435
-22.8,-1.0653,0.34135,0.33941,0.142
-22.7,-1.0618,0.33935,0.3374,0.1405
-22.6,-1.0582,0.33736,0.33542,0.139
-22.5,-1.0546,0.33536,0.33341,0.1375
-22.4,-1.0511,0.33337,0.33141,0.136
-22.3,-1.0475,0.33139,0.32943,0.1345
-22.2,-1.0439,0.32941,0.32745,0.133
-22.1,-1.0403,0.32742,0.32546,0.1316
-22,-1.0367,0.32546,0.3235,0.1301
-21.9,-1.0331,0.32348,0.32152,0.1286
-21.8,-1.0294,0.32151,0.31954,0.1272
-21.7,-1.0258,0.31954,0.31757,0.1257
-21.6,-1.0221,0.31759,0.31561,0.1243
-21.5,-1.0185,0.31563,0.31365,0.1228
-21.4,-1.0148,0.31367,0.3117,0.1214
-21.3,-1.0111,0.31173,0.30975,0.12
-21.2,-1.0074,0.30978,0.3078,0.1185
-21.1,-1.0037,0.30783,0.30585,0.1171
-21,-1,0.30589,0.30389,0.1157
-20.9,-0.9964,0.30393,0.30193,0.1143
-20.8,-0.9926,0.30201,0.30001,0.1129
-20.7,-0.9889,0.30008,0.29807,0.1115
-20.6,-0.9851,0.29814,0.29614,0.1101
-20.5,-0.9814,0.2962,0.2942,0.1087
-20.4,-0.9776,0.29429,0.29228,0.1073
-20.3,-0.9738,0.29235,0.29034,0.1059
-20.2,-0.9701,0.29041,0.2884,0.1045
-20.1,-0.9662,0.2885,0.28648,0.1031
-20,-0.9624,0.28656,0.28455,0.1017
-19.9,-0.9586,0.28463,0.28261,0.1004
-19.8,-0.9547,0.28269,0.28068,0.099
-19.7,-0.9509,0.28075,0.27873,0.0976
-19.6,-0.9471,0.2788,0.27678,0.0963
-19.5,-0.9432,0.27683,0.27481,0.0949
-19.4,-0.9393,0.27485,0.27283,0.0936
-19.3,-0.9353,0.27286,0.27084,0.0922
-19.2,-0.9313,0.27083,0.2688,0.0908
-19.1,-0.9272,0.26881,0.26678,0.0894
-19,-0.923,0.26676,0.26473,0.088
-18.9,-0.9183,0.26465,0.26262,0.0865
-18.8,-0.9135,0.2627,0.26067,0.0849
-18.7,-0.9086,0.26086,0.25883,0.0833
-18.4,-0.8913,0.25619,0.25419,0.0776
-18.3,-0.8883,0.25396,0.25195,0.0767
-18.2,-0.8852,0.25175,0.24975,0.0757
-18.1,-0.8823,0.24944,0.24743,0.0748
-18,-0.8794,0.24716,0.24515,0.0739
-17.9,-0.8765,0.24485,0.24284,0.073
-17.8,-0.8737,0.24254,0.24053,0.0721
-17.7,-0.8709,0.24024,0.23823,0.0712
-17.6,-0.8679,0.23815,0.23611,0.0703
-17.5,-0.8647,0.23613,0.2341,0.0693
-17.4,-0.8614,0.23419,0.23216,0.0683
-17.3,-0.858,0.23233,0.23029,0.0672
-17.2,-0.8545,0.23051,0.22847,0.0662
-17.1,-0.851,0.22874,0.22669,0.0651
-17,-0.8475,0.22698,0.22494,0.064
-16.9,-0.8439,0.22526,0.22321,0.063
-16.8,-0.8402,0.22356,0.22151,0.0619
-16.7,-0.8366,0.22187,0.21983,0.0608
-16.6,-0.8328,0.22019,0.21814,0.0597
-16.5,-0.8291,0.21852,0.21647,0.0586
-16.4,-0.8253,0.21686,0.21481,0.0575
-16.3,-0.8215,0.2152,0.21314,0.0564
-16.2,-0.8177,0.21356,0.2115,0.0553
-16.1,-0.8138,0.21191,0.20985,0.0543
-16,-0.81,0.21026,0.2082,0.0532
-15.9,-0.8061,0.20862,0.20656,0.0521
-15.8,-0.8022,0.20697,0.20491,0.051
-15.7,-0.7983,0.20534,0.20328,0.0499
-15.6,-0.7944,0.20371,0.20165,0.0488
-15.5,-0.7905,0.20207,0.20001,0.0477
-15.4,-0.7865,0.20044,0.19837,0.0467
-15.3,-0.7826,0.19881,0.19674,0.0456
-15.2,-0.7787,0.19718,0.19511,0.0445
-15.1,-0.7747,0.19555,0.19349,0.0435
-15,-0.7707,0.19392,0.19186,0.0424
-14.9,-0.7668,0.1923,0.19023,0.0414
-14.8,-0.7628,0.19068,0.18862,0.0403
-14.7,-0.7588,0.18906,0.18699,0.0393
-14.6,-0.7548,0.18743,0.18536,0.0382
-14.5,-0.7507,0.18581,0.18374,0.0372
-14.4,-0.7466,0.18419,0.18211,0.0361
-14.3,-0.7426,0.18257,0.18049,0.0351
-14.2,-0.7385,0.18095,0.17887,0.0341
-14.1,-0.7344,0.17934,0.17725,0.033
-14,-0.7294,0.17798,0.17589,0.0315
-13.9,-0.7254,0.17633,0.17425,0.0305
-13.8,-0.7213,0.17469,0.17261,0.0295
-13.7,-0.7172,0.17305,0.17097,0.0285
-13.6,-0.7131,0.17141,0.16933,0.0275
-13.5,-0.709,0.16977,0.16769,0.0265
-13.4,-0.7048,0.16813,0.16605,0.0255
-13.3,-0.7007,0.16649,0.1644,0.0245
-13.2,-0.6965,0.16484,0.16275,0.0235
-13.1,-0.6923,0.16319,0.1611,0.0225
-13,-0.6881,0.16152,0.15944,0.0215
-12.9,-0.6839,0.15986,0.15778,0.0205
-12.8,-0.6797,0.15819,0.15611,0.0195
-12.7,-0.6755,0.15649,0.15442,0.0185
-12.6,-0.6712,0.15476,0.15268,0.0175
-12.5,-0.6669,0.15302,0.15095,0.0165
-12.4,-0.6626,0.15124,0.14916,0.0156
-12.3,-0.6581,0.14937,0.1473,0.0145
-12.2,-0.6536,0.14748,0.14541,0.0135
-12.1,-0.6485,0.14533,0.14326,0.0123
-12,-0.6427,0.14329,0.14122,0.011
-11.9,-0.6368,0.14148,0.13941,0.0096
-11.7,-0.6239,0.13804,0.13601,0.0065
-11.6,-0.6209,0.13633,0.1343,0.0058
-11.5,-0.6183,0.13455,0.13252,0.0053
-11.4,-0.6157,0.13281,0.13078,0.0047
-11.3,-0.6129,0.13115,0.12913,0.0041
-11.2,-0.6099,0.12958,0.12755,0.0034
-11.1,-0.6065,0.12811,0.12609,0.0027
-11,-0.6028,0.12672,0.1247,0.0019
-10.9,-0.5991,0.12538,0.12336,0.0011
-10.8,-0.5952,0.12408,0.12204,0.0003
-10.7,-0.5912,0.1228,0.12076,-0.0005
-10.6,-0.5872,0.12155,0.11952,-0.0013
-10.5,-0.5831,0.12031,0.11828,-0.0021
-10.4,-0.5791,0.1191,0.11707,-0.0029
-10.3,-0.5751,0.1179,0.11587,-0.0037
-10.2,-0.5711,0.11671,0.11469,-0.0045
-10.1,-0.5671,0.11554,0.11353,-0.0052
-10,-0.5633,0.11436,0.11235,-0.006
-9.9,-0.5595,0.11322,0.11121,-0.0067
-9.8,-0.556,0.11209,0.11009,-0.0073
-9.7,-0.5527,0.111,0.109,-0.0078
-9.6,-0.5498,0.10994,0.10794,-0.0083
-9.5,-0.5476,0.10894,0.10696,-0.0086
-9.4,-0.5461,0.10802,0.10605,-0.0086
-9.3,-0.5456,0.1072,0.10524,-0.0085
-9.2,-0.5464,0.1065,0.10456,-0.0079
-8.9,-0.5387,0.10345,0.10153,-0.0092
-8.8,-0.5304,0.10188,0.09995,-0.0113
-8.7,-0.5212,0.10025,0.09831,-0.0135
-8.6,-0.5113,0.09854,0.09659,-0.0159
-8.5,-0.5013,0.09685,0.0949,-0.0184
-8.4,-0.4921,0.09523,0.09327,-0.0206
-8.3,-0.4819,0.09352,0.09155,-0.023
-5.9,-0.1005,0.01839,0.01456,-0.1276
-5.8,-0.0863,0.01673,0.01263,-0.1291
-5.7,-0.0733,0.01579,0.01151,-0.13
-5.6,-0.0606,0.01507,0.01064,-0.1306
-5.5,-0.0481,0.01447,0.0099,-0.1312
-5.4,-0.0356,0.01395,0.00926,-0.1317
-5.3,-0.0231,0.01348,0.00868,-0.1322
-5.2,-0.0104,0.01307,0.00817,-0.1326
-5,0.0125,0.01284,0.00781,-0.1328
-4.9,0.0238,0.0126,0.0075,-0.1329
-4.8,0.0352,0.01241,0.00722,-0.133
-4.7,0.0474,0.01181,0.00654,-0.1334
-4.6,0.0596,0.01129,0.00594,-0.1338
-4.5,0.0716,0.01097,0.00556,-0.134
-4.4,0.0835,0.01073,0.00528,-0.1342
-4.3,0.0956,0.01052,0.00503,-0.1344
-4.2,0.1076,0.01034,0.0048,-0.1346
-4.1,0.1192,0.01017,0.00459,-0.1347
-4,0.1299,0.01001,0.0044,-0.1346
-3.9,0.1412,0.00984,0.00419,-0.1345
-3.8,0.1529,0.00969,0.00398,-0.1346
-3.7,0.1646,0.00954,0.00379,-0.1347
-3.6,0.1763,0.00942,0.00361,-0.1348
-3.5,0.1882,0.00923,0.00339,-0.1349
-3.4,0.1992,0.00908,0.00322,-0.1349
-3.3,0.2106,0.00897,0.0031,-0.1349
-3.2,0.2219,0.00887,0.00297,-0.1349
-3.1,0.2335,0.00877,0.00285,-0.1349
-3,0.2449,0.00869,0.00273,-0.1349
-2.9,0.2564,0.00861,0.00263,-0.1349
-2.8,0.2679,0.00851,0.00252,-0.135
-2.7,0.279,0.00843,0.00244,-0.1349
-2.6,0.2903,0.00837,0.00237,-0.1349
-2.5,0.3016,0.00831,0.00229,-0.1349
-2.4,0.313,0.00826,0.0022,-0.1349
-2.3,0.3244,0.00818,0.00212,-0.1349
-2.2,0.3355,0.00817,0.00214,-0.1349
-2.1,0.3469,0.00809,0.00207,-0.1349
-2,0.3581,0.00803,0.00201,-0.1349
-1.9,0.3695,0.00798,0.00195,-0.1349
-1.8,0.3807,0.00794,0.00189,-0.1348
-1.7,0.392,0.00791,0.00184,-0.1348
-1.6,0.4034,0.00785,0.00179,-0.1348
-1.5,0.4146,0.00781,0.00176,-0.1348
-1.4,0.4259,0.00778,0.00173,-0.1348
-1.3,0.4371,0.00775,0.00168,-0.1347
-1.2,0.4484,0.00771,0.00164,-0.1347
-1.1,0.4593,0.00768,0.0016,-0.1346
-1,0.4701,0.00767,0.00155,-0.1344
-0.9,0.4813,0.00764,0.00152,-0.1344
-0.8,0.4923,0.00762,0.00151,-0.1343
-0.7,0.5033,0.0076,0.00148,-0.1342
-0.6,0.5145,0.00759,0.00145,-0.1341
-0.5,0.5254,0.00758,0.00143,-0.134
-0.4,0.5367,0.00756,0.00142,-0.134
-0.3,0.5478,0.00755,0.00141,-0.1339
-0.2,0.5586,0.00755,0.00139,-0.1338
-0.1,0.5697,0.00755,0.00138,-0.1337
0,0.5807,0.00756,0.00137,-0.1336
0.1,0.5919,0.00755,0.00136,-0.1336
0.2,0.6027,0.00757,0.00135,-0.1334
0.3,0.6137,0.00758,0.00136,-0.1334
0.4,0.6248,0.00758,0.00135,-0.1333
0.5,0.6358,0.00758,0.00136,-0.1333
0.6,0.6464,0.00763,0.00135,-0.1331
0.7,0.6574,0.00764,0.00136,-0.133
0.8,0.6683,0.00766,0.00137,-0.1329
0.9,0.6791,0.0077,0.00137,-0.1327
1,0.6891,0.00778,0.00139,-0.1324
1.1,0.7,0.00782,0.00141,-0.1323
1.2,0.7108,0.00786,0.00142,-0.1322
1.3,0.7212,0.00792,0.00145,-0.132
1.4,0.7307,0.00808,0.00149,-0.1317
1.5,0.7406,0.00821,0.00153,-0.1314
1.6,0.7504,0.00834,0.00157,-0.1311
1.7,0.7602,0.00848,0.00163,-0.1308
1.8,0.7705,0.00859,0.00169,-0.1306
1.9,0.7792,0.00886,0.00178,-0.1302
2,0.7892,0.00898,0.00185,-0.13
2.1,0.7992,0.00913,0.00192,-0.1298
2.2,0.8091,0.00927,0.002,-0.1296
2.3,0.819,0.00939,0.0021,-0.1295
2.5,0.8307,0.00863,0.00241,-0.1277
2.6,0.8402,0.00888,0.00252,-0.1274
2.7,0.8497,0.00913,0.00263,-0.1272
2.8,0.8593,0.00937,0.00275,-0.127
2.9,0.8684,0.00968,0.00291,-0.1267
3,0.8787,0.00982,0.00299,-0.1265
3.1,0.8891,0.00994,0.00307,-0.1264
3.2,0.8994,0.01007,0.00316,-0.1263
3.3,0.9099,0.01018,0.00324,-0.1261
3.4,0.9198,0.01036,0.00334,-0.126
3.5,0.9302,0.01048,0.00343,-0.1258
3.6,0.9407,0.01058,0.0035,-0.1257
3.7,0.9511,0.0107,0.00359,-0.1256
3.8,0.9611,0.01087,0.00369,-0.1254
3.9,0.9715,0.01097,0.00377,-0.1253
4,0.9818,0.01109,0.00385,-0.1251
4.1,0.9922,0.0112,0.00395,-0.125
4.2,1.0026,0.01131,0.00404,-0.1249

