airfoilName st21.dat
Re 	670000
M 	5.000000e-02
N 	4.500000e+00
VACC 	0 VACCflag 1
XTR 	1.00 	1.00 XTRflag 0
alpha,cl,cd,cdp,cm
-6.3,-0.1388,0.01674,0.01312,-0.1289
-6.2,-0.126,0.01576,0.01197,-0.1298
-6.1,-0.1136,0.01503,0.01109,-0.1305
-6,-0.1012,0.01443,0.01038,-0.131
-5.9,-0.089,0.0139,0.00974,-0.1315
-5.8,-0.0768,0.01344,0.00918,-0.1319
-5.7,-0.0648,0.01302,0.00867,-0.1323
-5.6,-0.0535,0.01266,0.00822,-0.1325
-5.5,-0.0422,0.01231,0.0078,-0.1326
-5.4,-0.0306,0.01199,0.00741,-0.1328
-5.3,-0.019,0.01169,0.00703,-0.133
-5.2,-0.0073,0.01141,0.00669,-0.1332
-5.1,0.0045,0.01114,0.00635,-0.1334
-5,0.0162,0.01089,0.00604,-0.1336
-4.9,0.028,0.01065,0.00573,-0.1337
-4.7,0.0507,0.01043,0.00542,-0.1338
-4.6,0.0619,0.01023,0.00517,-0.1339
-4.5,0.0734,0.01006,0.00496,-0.1339
-4.4,0.0849,0.00993,0.00478,-0.134
-4.3,0.0961,0.00981,0.00461,-0.134
-4.2,0.1079,0.00944,0.00418,-0.1341
-4.1,0.1195,0.00915,0.00383,-0.1342
-4,0.1309,0.00897,0.00361,-0.1343
-3.9,0.1424,0.00883,0.00345,-0.1343
-3.8,0.1537,0.0087,0.0033,-0.1343
-3.7,0.1651,0.00859,0.00316,-0.1343
-3.6,0.1766,0.00848,0.003,-0.1344
-3.5,0.1879,0.00838,0.00286,-0.1343
-3.4,0.1994,0.00829,0.00274,-0.1344
-3.3,0.2107,0.00819,0.00262,-0.1344
-3.2,0.2222,0.00806,0.00247,-0.1344
-3,0.2448,0.00791,0.00228,-0.1344
-2.9,0.2562,0.00784,0.0022,-0.1344
-2.8,0.2675,0.00778,0.00212,-0.1344
-2.7,0.2789,0.00772,0.00204,-0.1344
-2.6,0.2901,0.00765,0.00197,-0.1344
-2.5,0.3015,0.00759,0.00191,-0.1344
-2.4,0.3128,0.00755,0.00183,-0.1344
-2.3,0.324,0.00751,0.00177,-0.1343
-2.2,0.3354,0.00746,0.00172,-0.1344
-2,0.358,0.00736,0.00164,-0.1344
-1.9,0.3692,0.00732,0.0016,-0.1343
-1.8,0.3805,0.00728,0.00156,-0.1343
-1.7,0.3919,0.00724,0.00153,-0.1343
-1.6,0.4031,0.00722,0.00148,-0.1343
-1.5,0.4145,0.00719,0.00144,-0.1343
-1.4,0.4254,0.00716,0.0014,-0.1342
-1.3,0.4361,0.00715,0.00136,-0.134
-1.2,0.4474,0.00713,0.00133,-0.134
-1.1,0.4585,0.00711,0.0013,-0.1339
-1,0.4694,0.0071,0.00126,-0.1338
-0.9,0.4808,0.00708,0.00125,-0.1338
-0.8,0.4921,0.00706,0.00123,-0.1338
-0.7,0.503,0.00707,0.0012,-0.1337
-0.6,0.5142,0.00705,0.0012,-0.1337
-0.5,0.5254,0.00704,0.00118,-0.1337
-0.4,0.5363,0.00706,0.00116,-0.1335
-0.3,0.5472,0.00707,0.00115,-0.1334
-0.2,0.5584,0.00707,0.00115,-0.1334
-0.1,0.5692,0.00709,0.00114,-0.1333
0,0.5802,0.0071,0.00114,-0.1332
0.1,0.5913,0.00711,0.00114,-0.1332
0.2,0.6024,0.00712,0.00114,-0.1331
0.3,0.6131,0.00716,0.00114,-0.1329
0.4,0.624,0.00719,0.00114,-0.1329
0.5,0.635,0.00721,0.00115,-0.1328
0.6,0.646,0.00723,0.00116,-0.1327
0.7,0.6565,0.0073,0.00117,-0.1326
0.8,0.6667,0.0074,0.00119,-0.1323
0.9,0.6774,0.00745,0.00121,-0.1322
1,0.6881,0.0075,0.00123,-0.1321
1.1,0.6984,0.00761,0.00126,-0.1319
1.2,0.7077,0.0078,0.00132,-0.1315
1.3,0.7182,0.00789,0.00136,-0.1314
1.4,0.7279,0.00807,0.00143,-0.1311
1.5,0.7383,0.00817,0.00148,-0.131
1.6,0.7483,0.00833,0.00154,-0.1308
1.7,0.7573,0.0086,0.00164,-0.1304
1.8,0.7675,0.00873,0.0017,-0.1303
1.9,0.7777,0.00886,0.00178,-0.1301
2,0.7878,0.00901,0.00184,-0.1299
2.1,0.7978,0.00917,0.00192,-0.1298
2.2,0.806,0.00958,0.00207,-0.1294
2.3,0.8158,0.00978,0.00217,-0.1292
2.4,0.8256,0.00998,0.00227,-0.129
2.5,0.8356,0.01014,0.00236,-0.1288
2.6,0.8454,0.01031,0.00248,-0.1287
2.7,0.8505,0.00907,0.00266,-0.1277
2.8,0.861,0.00917,0.00272,-0.1276
2.9,0.8716,0.00928,0.00282,-0.1275
3,0.8822,0.00938,0.00288,-0.1274
3.1,0.8923,0.00954,0.00297,-0.1273
3.2,0.9029,0.00964,0.00304,-0.1272
3.3,0.9135,0.00973,0.0031,-0.1271
3.4,0.924,0.00984,0.00318,-0.127
3.5,0.9346,0.00992,0.00324,-0.1269
3.6,0.9448,0.01008,0.00332,-0.1267
3.7,0.9553,0.01018,0.00339,-0.1266
3.8,0.9658,0.01028,0.00348,-0.1265
3.9,0.9763,0.01038,0.00355,-0.1264
4,0.9866,0.01049,0.00364,-0.1263
4.1,0.9968,0.01064,0.00372,-0.1261
4.2,1.0072,0.01075,0.00381,-0.126
4.3,1.0176,0.01085,0.00392,-0.1258
4.4,1.0278,0.01098,0.00402,-0.1257
4.5,1.0383,0.01108,0.00411,-0.1256
4.6,1.0481,0.01125,0.00422,-0.1254
4.7,1.0585,0.01136,0.00431,-0.1252
4.8,1.0686,0.01149,0.00441,-0.1251
4.9,1.0789,0.01161,0.00452,-0.1249
5,1.0891,0.01173,0.00462,-0.1248
5.1,1.0992,0.01187,0.00473,-0.1246
5.2,1.1091,0.01203,0.00485,-0.1244
5.3,1.1191,0.01217,0.00497,-0.1242
5.4,1.1292,0.0123,0.0051,-0.1241
5.5,1.1394,0.01242,0.00521,-0.1239
5.6,1.1494,0.01256,0.00533,-0.1237
5.7,1.1593,0.01272,0.0055,-0.1235
5.8,1.1694,0.01284,0.00562,-0.1233
5.9,1.1794,0.01296,0.00574,-0.1231
6,1.1894,0.01311,0.00588,-0.1229
6.1,1.1992,0.01326,0.00602,-0.1227
6.2,1.2091,0.01341,0.00618,-0.1225
6.3,1.2191,0.01354,0.00631,-0.1223
6.4,1.2288,0.0137,0.00646,-0.1221
6.5,1.2386,0.01386,0.00661,-0.1219
6.6,1.2481,0.01404,0.00678,-0.1216
6.7,1.2579,0.01418,0.00693,-0.1214
6.8,1.2677,0.01433,0.00709,-0.1212
6.9,1.2774,0.01448,0.00725,-0.1209
7,1.2866,0.01471,0.00745,-0.1206
7.1,1.2963,0.01486,0.00762,-0.1204
7.2,1.306,0.01501,0.00779,-0.1202
7.3,1.3156,0.01517,0.00796,-0.1199
7.4,1.3251,0.01534,0.00814,-0.1197
7.5,1.3345,0.01552,0.00832,-0.1194
7.6,1.3437,0.01572,0.00852,-0.1191
7.7,1.353,0.01591,0.00873,-0.1188
7.8,1.3625,0.01607,0.00891,-0.1185
7.9,1.3719,0.01624,0.00911,-0.1182
8,1.3812,0.01643,0.0093,-0.1179
8.1,1.3903,0.01662,0.00951,-0.1176
8.2,1.3994,0.01683,0.00973,-0.1173
8.3,1.4083,0.01706,0.00997,-0.117
8.4,1.4173,0.01727,0.01022,-0.1166
8.5,1.4264,0.01746,0.01044,-0.1163
8.6,1.4354,0.01766,0.01068,-0.1159
8.7,1.4443,0.01787,0.01092,-0.1156
8.8,1.4531,0.0181,0.01116,-0.1152
8.9,1.4618,0.01833,0.01142,-0.1148
9,1.4703,0.01857,0.01169,-0.1144
9.1,1.4787,0.01884,0.01198,-0.114
9.2,1.4868,0.01915,0.01232,-0.1135
9.4,1.504,0.01957,0.01278,-0.1128
9.5,1.5122,0.01983,0.01308,-0.1123
9.6,1.5204,0.0201,0.01338,-0.1119
9.7,1.5284,0.02038,0.0137,-0.1114
9.8,1.5363,0.02066,0.01402,-0.1109
9.9,1.5441,0.02096,0.01437,-0.1104
10,1.5517,0.02126,0.01471,-0.1098
10.1,1.5592,0.02158,0.01506,-0.1093
10.2,1.5665,0.02192,0.01544,-0.1087
10.3,1.5735,0.02229,0.01586,-0.1081
10.4,1.5801,0.02269,0.01631,-0.1074
10.5,1.5861,0.02316,0.01684,-0.1066
10.6,1.5914,0.02371,0.01746,-0.1057
10.7,1.5961,0.02429,0.01809,-0.1047
10.8,1.6032,0.02457,0.01841,-0.1041
10.9,1.61,0.02488,0.01877,-0.1035
11,1.6163,0.02521,0.01916,-0.1028
11.1,1.6223,0.02558,0.01957,-0.102
11.2,1.6279,0.02596,0.02001,-0.1012
11.3,1.6332,0.02634,0.02045,-0.1003
11.4,1.638,0.02675,0.02092,-0.0994
11.5,1.6426,0.02716,0.02139,-0.0984
11.6,1.6463,0.02759,0.02187,-0.0973
11.7,1.6493,0.02802,0.02236,-0.096
11.8,1.6519,0.02848,0.02288,-0.0947
11.9,1.6545,0.02894,0.0234,-0.0935
12,1.6569,0.02942,0.02396,-0.0922
12.1,1.659,0.02993,0.02453,-0.0909
12.2,1.6609,0.03045,0.02512,-0.0897
12.3,1.6626,0.03098,0.02572,-0.0884
12.4,1.6642,0.03154,0.02634,-0.0871
12.5,1.6653,0.03213,0.027,-0.0859
12.6,1.6664,0.03272,0.02765,-0.0846
12.7,1.6671,0.03335,0.02835,-0.0834
12.8,1.6675,0.03402,0.02908,-0.0822
12.9,1.668,0.03468,0.02981,-0.081
13,1.6677,0.0354,0.03059,-0.0798
13.1,1.6675,0.03612,0.03139,-0.0786
13.2,1.667,0.03688,0.03222,-0.0775
13.3,1.6662,0.03769,0.03309,-0.0764
13.4,1.665,0.03853,0.03401,-0.0754
13.5,1.6634,0.03942,0.03496,-0.0743
13.6,1.6619,0.04031,0.03593,-0.0734
13.7,1.6595,0.0413,0.03699,-0.0724
13.8,1.6573,0.04231,0.03807,-0.0716
13.9,1.655,0.04335,0.03918,-0.0709
14,1.6521,0.04446,0.04036,-0.0702
14.1,1.6489,0.04563,0.04161,-0.0696
14.2,1.6453,0.04686,0.04292,-0.0691
14.3,1.6416,0.04816,0.04429,-0.0687
14.4,1.6371,0.04958,0.04579,-0.0684
14.5,1.6331,0.05101,0.04729,-0.0683
14.6,1.6282,0.05258,0.04895,-0.0684
14.7,1.6234,0.05421,0.05065,-0.0686
14.8,1.6181,0.05594,0.05247,-0.069
14.9,1.612,0.05787,0.05447,-0.0697
15,1.6061,0.05985,0.05654,-0.0706
15.1,1.5997,0.06204,0.05881,-0.0718
15.2,1.593,0.06439,0.06125,-0.0733
15.3,1.5859,0.06698,0.06394,-0.0753
15.4,1.5783,0.06987,0.06692,-0.0778
15.5,1.5706,0.07305,0.07021,-0.0809
15.6,1.562,0.07681,0.07408,-0.0848
15.7,1.5529,0.08125,0.07864,-0.0897
15.8,1.542,0.0871,0.08464,-0.0964
15.9,1.5271,0.09626,0.094,-0.1067
16.1,1.4752,0.12397,0.12216,-0.1324
16.2,1.4573,0.13324,0.13154,-0.1403
16.3,1.4424,0.14144,0.13983,-0.1472
16.4,1.4301,0.1486,0.14705,-0.1533
16.5,1.4201,0.15501,0.15351,-0.1587
16.6,1.4097,0.16187,0.16043,-0.1644
16.7,1.3998,0.16895,0.16757,-0.1702
16.8,1.3907,0.17623,0.17491,-0.1759
19.1,1.4125,0.25665,0.25546,-0.2279
19.2,1.4166,0.26093,0.25973,-0.2297
19.3,1.4204,0.26466,0.26346,-0.2314
19.4,1.424,0.26756,0.26636,-0.233
19.5,1.4277,0.27085,0.26965,-0.2346
19.6,1.4311,0.27312,0.27192,-0.2361
19.7,1.4346,0.27566,0.27446,-0.2376
19.8,1.438,0.27789,0.27669,-0.2391
19.9,1.4415,0.28029,0.27909,-0.2406
20,1.4447,0.28233,0.28114,-0.2421
20.1,1.4482,0.28463,0.28344,-0.2436
20.2,1.4515,0.28667,0.28548,-0.2451
20.3,1.4549,0.28881,0.28762,-0.2466
20.4,1.4583,0.29096,0.28977,-0.2481
20.5,1.4615,0.29296,0.29178,-0.2496
20.6,1.4649,0.29508,0.2939,-0.2511
20.7,1.4682,0.29711,0.29593,-0.2526
20.8,1.4715,0.29916,0.29799,-0.2541
20.9,1.4748,0.30116,0.29999,-0.2556
21,1.4781,0.30317,0.302,-0.2571
21.1,1.4814,0.30516,0.304,-0.2586
21.2,1.4847,0.30718,0.30601,-0.2601
21.3,1.488,0.30917,0.30801,-0.2617
21.4,1.4912,0.31114,0.30999,-0.2632
21.5,1.4945,0.31311,0.31196,-0.2647
21.6,1.4977,0.31508,0.31393,-0.2662
21.7,1.5009,0.31705,0.3159,-0.2678
21.8,1.5042,0.319,0.31786,-0.2693
21.9,1.5074,0.32097,0.31983,-0.2709
22,1.5106,0.32292,0.32178,-0.2724
22.1,1.5138,0.32487,0.32375,-0.274
22.2,1.517,0.32682,0.3257,-0.2755
22.3,1.5202,0.32877,0.32765,-0.2771
22.5,1.5267,0.33244,0.33133,-0.2804
22.6,1.5298,0.33432,0.33322,-0.282
22.7,1.533,0.33623,0.33513,-0.2836
22.8,1.5361,0.33811,0.33702,-0.2852
22.9,1.5392,0.33998,0.33889,-0.2868
23,1.5423,0.34187,0.34078,-0.2884
23.1,1.5454,0.34372,0.34263,-0.29
23.2,1.5485,0.3456,0.34452,-0.2916
23.3,1.5515,0.34746,0.34638,-0.2932
23.4,1.5546,0.34934,0.34827,-0.2949
23.5,1.5576,0.3512,0.35013,-0.2965
23.6,1.5606,0.35305,0.35199,-0.2981
23.7,1.5636,0.35489,0.35384,-0.2998
23.8,1.5666,0.35672,0.35566,-0.3014
23.9,1.5696,0.35857,0.35753,-0.3031
24,1.5725,0.36042,0.35937,-0.3047
24.1,1.5755,0.36226,0.36122,-0.3064
24.2,1.5784,0.36407,0.36303,-0.308
24.3,1.5813,0.36588,0.36485,-0.3097
24.4,1.5842,0.36769,0.36666,-0.3113
24.5,1.5871,0.3695,0.36848,-0.313
24.6,1.5899,0.3713,0.37028,-0.3147
24.7,1.5927,0.37315,0.37213,-0.3164
24.8,1.5956,0.37494,0.37393,-0.318
24.9,1.5984,0.37679,0.37578,-0.3197
25,1.6011,0.37855,0.37756,-0.3214
25.1,1.6039,0.38033,0.37934,-0.3231
25.2,1.6066,0.38214,0.38115,-0.3248
25.3,1.6093,0.38397,0.383,-0.3265
25.4,1.612,0.38574,0.38477,-0.3282
25.5,1.6146,0.38751,0.38655,-0.3299
25.6,1.6172,0.38933,0.38837,-0.3316
25.7,1.6199,0.39124,0.39028,-0.3333
25.8,1.6224,0.39303,0.39209,-0.335
25.9,1.6249,0.39495,0.39401,-0.3367
26,1.6275,0.3969,0.39596,-0.3383
26.1,1.6299,0.39893,0.398,-0.34
26.2,1.6322,0.40111,0.40018,-0.3416
26.3,1.6348,0.40325,0.40233,-0.3433
26.4,1.6369,0.40578,0.40486,-0.3449
26.5,1.6391,0.4084,0.40748,-0.3464
26.6,1.6413,0.41102,0.41012,-0.3479
26.7,1.6437,0.41342,0.41251,-0.3495
26.8,1.646,0.41591,0.41501,-0.3511
27.1,1.6588,0.42358,0.42266,-0.3581
27.2,1.6626,0.42623,0.42531,-0.3603
27.3,1.6666,0.42921,0.42829,-0.3624
27.4,1.6709,0.43266,0.43174,-0.3646
27.5,1.674,0.43525,0.43433,-0.3665
27.6,1.6773,0.43796,0.43705,-0.3685
27.7,1.6805,0.44064,0.43973,-0.3705
27.8,1.6831,0.44282,0.44191,-0.3723
27.9,1.6861,0.44534,0.44443,-0.3743
28,1.6888,0.44754,0.44664,-0.3762
28.1,1.6917,0.44993,0.44903,-0.3781
28.2,1.6943,0.45211,0.45121,-0.38
28.3,1.697,0.45434,0.45345,-0.382
28.4,1.6996,0.45654,0.45565,-0.3839
28.5,1.7021,0.4587,0.45781,-0.3858
28.6,1.7047,0.46087,0.45999,-0.3877
28.7,1.7073,0.46302,0.46215,-0.3897
28.8,1.7098,0.46515,0.46429,-0.3916
28.9,1.7123,0.4673,0.46644,-0.3936
29,1.7147,0.46942,0.46857,-0.3955
29.1,1.7172,0.47153,0.47069,-0.3975
29.2,1.7196,0.47365,0.47281,-0.3994
29.3,1.7219,0.47577,0.47493,-0.4014
29.4,1.7243,0.47785,0.47702,-0.4034
29.5,1.7266,0.48,0.47917,-0.4053
29.6,1.729,0.48206,0.48123,-0.4073
29.7,1.7317,0.48358,0.48275,-0.4096
29.8,1.734,0.48564,0.48482,-0.4115
29.9,1.7362,0.48765,0.48683,-0.4135
30,1.7385,0.48972,0.48892,-0.4155

