airfoilName st21.dat
Re 	3.500000e+05
M 	5.000000e-02
N 	4.500000e+00
VACC 	0 VACCflag 1
XTR 	1.00 	1.00 XTRflag 0
alpha,cl,cd,cdp,cm
-24.7,-1.1272,0.38415,0.3818,0.1695
-24.6,-1.1237,0.38216,0.37981,0.1678
-24.5,-1.1202,0.38013,0.37777,0.1662
-24.4,-1.1167,0.3781,0.37574,0.1645
-24.3,-1.1132,0.3761,0.37374,0.1628
-24.2,-1.1097,0.37405,0.37169,0.1612
-24.1,-1.1062,0.37203,0.36966,0.1596
-24,-1.1026,0.37004,0.36767,0.1579
-23.9,-1.0991,0.36802,0.36562,0.1563
-23.8,-1.0955,0.36599,0.3636,0.1546
-23.7,-1.0919,0.36398,0.36158,0.153
-23.6,-1.0883,0.36196,0.35955,0.1514
-23.5,-1.0846,0.35996,0.35756,0.1497
-23.4,-1.081,0.35791,0.35551,0.1481
-23.3,-1.0774,0.35589,0.35348,0.1465
-23.2,-1.0737,0.35389,0.35147,0.1449
-23.1,-1.07,0.35183,0.34942,0.1433
-23,-1.0663,0.34982,0.3474,0.1417
-22.9,-1.0626,0.34778,0.34536,0.1401
-22.8,-1.0589,0.34573,0.34331,0.1385
-22.7,-1.0552,0.34367,0.34124,0.137
-22.6,-1.0515,0.34164,0.33921,0.1354
-22.5,-1.0478,0.33955,0.33711,0.1339
-22.4,-1.044,0.33747,0.33504,0.1323
-22.3,-1.0402,0.33541,0.33297,0.1308
-22.2,-1.0365,0.33332,0.33088,0.1292
-22.1,-1.0327,0.33123,0.32879,0.1277
-22,-1.0288,0.32915,0.32671,0.1262
-21.9,-1.025,0.32706,0.32461,0.1247
-21.8,-1.0211,0.32496,0.32251,0.1232
-21.7,-1.0171,0.32289,0.32044,0.1216
-21.6,-1.0131,0.32082,0.31837,0.1201
-21.5,-1.009,0.31877,0.31632,0.1185
-21.4,-1.0047,0.31676,0.3143,0.1169
-20.8,-0.9758,0.30539,0.30294,0.1064
-20.7,-0.9725,0.30323,0.30078,0.1051
-20.6,-0.9692,0.30105,0.2986,0.1039
-20.5,-0.9659,0.29889,0.29644,0.1027
-20.4,-0.9627,0.29669,0.29423,0.1016
-20.3,-0.9594,0.29453,0.29206,0.1004
-20.2,-0.9561,0.29235,0.28989,0.0992
-20.1,-0.9529,0.29015,0.28769,0.0981
-20,-0.9497,0.28797,0.2855,0.0969
-19.9,-0.9464,0.28579,0.28332,0.0958
-19.8,-0.9432,0.28359,0.28111,0.0946
-19.7,-0.9399,0.28143,0.27895,0.0935
-19.6,-0.9367,0.27926,0.27678,0.0924
-19.5,-0.9335,0.2771,0.27462,0.0913
-19.4,-0.9302,0.27495,0.27247,0.0902
-19.3,-0.927,0.27282,0.27033,0.089
-19.2,-0.9237,0.27069,0.2682,0.0879
-19.1,-0.9204,0.26862,0.26613,0.0868
-19,-0.9171,0.26656,0.26406,0.0857
-18.9,-0.9138,0.26452,0.26203,0.0846
-18.8,-0.9104,0.26253,0.26003,0.0835
-18.7,-0.907,0.26057,0.25806,0.0823
-18.6,-0.9036,0.25864,0.25613,0.0812
-18.5,-0.9001,0.25674,0.25423,0.0801
-18.4,-0.8966,0.25486,0.25236,0.0789
-18.3,-0.8931,0.25302,0.2505,0.0778
-18.2,-0.8895,0.25118,0.24867,0.0767
-18.1,-0.8859,0.24938,0.24686,0.0755
-18,-0.8823,0.24757,0.24506,0.0744
-17.9,-0.8787,0.24578,0.24326,0.0732
-17.8,-0.875,0.24401,0.24149,0.0721
-17.7,-0.8713,0.24226,0.23972,0.0709
-17.6,-0.8676,0.2405,0.23796,0.0698
-17.5,-0.8639,0.23876,0.23622,0.0686
-17.4,-0.8602,0.23703,0.23448,0.0675
-17.3,-0.8564,0.2353,0.23275,0.0663
-17.2,-0.8526,0.23357,0.23102,0.0652
-17.1,-0.8489,0.23186,0.2293,0.064
-17,-0.8451,0.23013,0.22758,0.0629
-16.9,-0.8413,0.22842,0.22586,0.0618
-16.8,-0.8375,0.22671,0.22415,0.0606
-16.7,-0.8336,0.225,0.22244,0.0595
-16.6,-0.8298,0.22328,0.22072,0.0584
-16.5,-0.8259,0.22157,0.219,0.0573
-16.4,-0.8221,0.21985,0.21729,0.0562
-16.3,-0.8182,0.21814,0.21557,0.055
-16.2,-0.8143,0.21643,0.21386,0.0539
-16.1,-0.8104,0.21472,0.21215,0.0528
-16,-0.8065,0.21301,0.21044,0.0517
-15.9,-0.8025,0.2113,0.20873,0.0506
-15.8,-0.7986,0.20959,0.20702,0.0495
-15.7,-0.7947,0.20788,0.20531,0.0484
-15.6,-0.7907,0.20618,0.20361,0.0474
-15.5,-0.7868,0.20448,0.2019,0.0463
-15.4,-0.7828,0.20277,0.2002,0.0452
-15.3,-0.7788,0.20108,0.1985,0.0441
-15.2,-0.7748,0.19938,0.1968,0.043
-15.1,-0.7708,0.19768,0.1951,0.0419
-15,-0.7668,0.19598,0.19341,0.0409
-14.9,-0.7628,0.19428,0.19171,0.0398
-14.8,-0.7574,0.19261,0.19004,0.0381
-14.7,-0.7534,0.19084,0.18826,0.037
-14.6,-0.7493,0.18905,0.18648,0.036
-14.5,-0.7452,0.18726,0.18469,0.0349
-14.4,-0.7411,0.18545,0.18286,0.0339
-14.3,-0.737,0.18363,0.18104,0.0328
-14.2,-0.7328,0.18181,0.17922,0.0318
-14.1,-0.7286,0.17995,0.17736,0.0308
-14,-0.7243,0.17808,0.17549,0.0297
-13.9,-0.72,0.17618,0.17358,0.0287
-13.8,-0.7153,0.17418,0.17159,0.0275
-13.7,-0.7106,0.17223,0.16963,0.0264
-13.6,-0.7055,0.17026,0.16767,0.0252
-13.5,-0.7,0.16833,0.16574,0.0239
-13.2,-0.6824,0.16294,0.16039,0.0193
-13.1,-0.679,0.1612,0.15865,0.0186
-13,-0.6757,0.15945,0.1569,0.0179
-12.9,-0.6724,0.15772,0.15517,0.0171
-12.8,-0.6691,0.156,0.15345,0.0164
-12.7,-0.6658,0.15429,0.15174,0.0157
-12.6,-0.6626,0.15259,0.15005,0.0149
-12.5,-0.6593,0.15094,0.14839,0.0142
-12.4,-0.656,0.14931,0.14677,0.0135
-12.3,-0.6526,0.14772,0.14518,0.0127
-12.2,-0.6491,0.14617,0.14363,0.0119
-12.1,-0.6456,0.14466,0.14212,0.0111
-12,-0.6419,0.14318,0.14064,0.0103
-11.9,-0.6382,0.14173,0.13919,0.0095
-11.8,-0.6344,0.14033,0.13779,0.0087
-11.7,-0.6306,0.13894,0.13641,0.0079
-11.6,-0.6266,0.13757,0.13503,0.007
-11.5,-0.6227,0.13622,0.13369,0.0062
-11.4,-0.6186,0.13489,0.13235,0.0053
-11.3,-0.6146,0.13355,0.13102,0.0045
-11.2,-0.6105,0.13224,0.12971,0.0036
-11.1,-0.6064,0.13094,0.12841,0.0028
-11,-0.6022,0.12962,0.1271,0.0019
-10.9,-0.5981,0.12833,0.12579,0.001
-10.8,-0.5939,0.12703,0.1245,0.0002
-10.7,-0.5898,0.12574,0.12321,-0.0006
-10.6,-0.5856,0.12447,0.12194,-0.0015
-10.5,-0.5815,0.12319,0.12066,-0.0023
-10.4,-0.5773,0.12192,0.11939,-0.0031
-10.3,-0.5733,0.12065,0.11813,-0.0039
-10.2,-0.5693,0.11939,0.11688,-0.0047
-10.1,-0.5653,0.11814,0.11563,-0.0055
-10,-0.5615,0.11689,0.11438,-0.0062
-9.9,-0.5578,0.11566,0.11316,-0.0069
-9.8,-0.5542,0.11445,0.11196,-0.0075
-9.7,-0.5509,0.11326,0.11077,-0.0081
-9.6,-0.5478,0.1121,0.10962,-0.0086
-5.6,-0.0798,0.0201,0.01571,-0.1252
-5.5,-0.0642,0.01843,0.0137,-0.1271
-5.4,-0.0522,0.01761,0.01268,-0.1276
-5.3,-0.0404,0.01674,0.0117,-0.1283
-5.2,-0.0283,0.01613,0.01099,-0.1288
-5.1,-0.016,0.01563,0.0104,-0.1293
-5,-0.0034,0.01518,0.00988,-0.1298
-4.9,0.0091,0.01479,0.00941,-0.1303
-4.8,0.0218,0.01442,0.00894,-0.1307
-4.7,0.0345,0.01406,0.00851,-0.1312
-4.6,0.0473,0.01372,0.00809,-0.1316
-4.5,0.0601,0.01338,0.00767,-0.1321
-4.4,0.073,0.01305,0.00726,-0.1325
-4.3,0.0859,0.01273,0.00686,-0.1329
-4.2,0.0979,0.01244,0.00649,-0.1332
-4.1,0.1083,0.01219,0.00617,-0.133
-4,0.12,0.01198,0.00588,-0.1331
-3.9,0.1319,0.01179,0.00564,-0.1333
-3.8,0.1443,0.01139,0.0052,-0.1336
-3.6,0.1695,0.01098,0.0047,-0.1342
-3.5,0.182,0.01081,0.0045,-0.1345
-3.4,0.1942,0.01065,0.0043,-0.1347
-3.3,0.2045,0.01052,0.00412,-0.1344
-3.2,0.216,0.01039,0.00394,-0.1345
-3.1,0.2277,0.01023,0.00377,-0.1346
-3,0.2396,0.01009,0.00362,-0.1347
-2.9,0.2515,0.00999,0.0035,-0.1348
-2.8,0.2636,0.00989,0.00338,-0.135
-2.7,0.2759,0.00978,0.00323,-0.1352
-2.6,0.2866,0.0097,0.00314,-0.135
-2.5,0.2976,0.00966,0.00315,-0.135
-2.4,0.3091,0.00958,0.00303,-0.1351
-2.3,0.3206,0.00951,0.00296,-0.1351
-2.2,0.3324,0.00942,0.00287,-0.1352
-2.1,0.3443,0.00934,0.00277,-0.1353
-2,0.3559,0.00928,0.00269,-0.1353
-1.9,0.3669,0.00923,0.00262,-0.1353
-1.8,0.378,0.00916,0.00256,-0.1352
-1.7,0.3894,0.00912,0.00254,-0.1352
-1.6,0.4009,0.00906,0.00246,-0.1353
-1.5,0.4126,0.009,0.00239,-0.1353
-1.4,0.4242,0.00894,0.00235,-0.1354
-1.3,0.435,0.00891,0.00231,-0.1352
-1.2,0.4463,0.00887,0.00226,-0.1352
-1.1,0.4576,0.00883,0.00224,-0.1352
-1,0.4691,0.00879,0.0022,-0.1352
-0.9,0.4806,0.00876,0.00215,-0.1352
-0.8,0.4913,0.00872,0.00211,-0.1351
-0.7,0.5023,0.00867,0.00206,-0.1349
-0.6,0.5134,0.00865,0.00203,-0.1348
-0.5,0.5244,0.00861,0.00201,-0.1347
-0.4,0.5354,0.00858,0.00196,-0.1346
-0.3,0.5466,0.00856,0.00194,-0.1345
-0.2,0.5577,0.00854,0.00192,-0.1344
-0.1,0.5688,0.00851,0.00189,-0.1343
0,0.5799,0.0085,0.00189,-0.1343
0.1,0.591,0.00848,0.00188,-0.1342
0.2,0.6018,0.00847,0.00185,-0.134
0.3,0.613,0.00846,0.00184,-0.134
0.4,0.6241,0.00845,0.00183,-0.1339
0.5,0.6349,0.00844,0.00181,-0.1337
0.6,0.646,0.00844,0.00181,-0.1336
0.7,0.6571,0.00843,0.00181,-0.1336
0.8,0.6681,0.00843,0.00181,-0.1335
0.9,0.6788,0.00845,0.0018,-0.1333
1,0.6897,0.00845,0.0018,-0.1331
1.1,0.7005,0.00847,0.0018,-0.133
1.2,0.7115,0.00847,0.00181,-0.1329
1.3,0.7223,0.00849,0.00182,-0.1328
1.4,0.7327,0.00852,0.00184,-0.1325
1.5,0.7435,0.00855,0.00186,-0.1324
1.6,0.7538,0.0086,0.00186,-0.1322
1.7,0.7645,0.00863,0.00188,-0.132
1.8,0.7736,0.00878,0.0019,-0.1315
1.9,0.7839,0.0088,0.00193,-0.1313
2,0.7941,0.00885,0.00198,-0.1311
2.2,0.8071,0.00778,0.00209,-0.1291
2.3,0.8155,0.00807,0.00217,-0.1285
2.4,0.8251,0.00825,0.00224,-0.1282
2.5,0.8347,0.00844,0.00232,-0.1279
2.6,0.8442,0.00864,0.00241,-0.1276
2.7,0.8535,0.00886,0.00251,-0.1272
2.8,0.8608,0.00931,0.00267,-0.1266
2.9,0.8698,0.00958,0.00282,-0.1262
3,0.8787,0.00987,0.00295,-0.1259
3.1,0.8876,0.01017,0.0031,-0.1255
3.2,0.8967,0.01045,0.00324,-0.1252
3.3,0.9051,0.01083,0.00341,-0.1248
3.4,0.9151,0.01101,0.00352,-0.1246
3.5,0.9251,0.01117,0.00364,-0.1244
3.6,0.9352,0.01132,0.00374,-0.1243
3.7,0.9454,0.01146,0.00385,-0.1241
3.8,0.955,0.01167,0.00398,-0.1239
3.9,0.9651,0.01181,0.00409,-0.1237
4,0.9754,0.01194,0.00419,-0.1236
4.1,0.9855,0.01208,0.00431,-0.1234
4.2,0.9952,0.01227,0.00443,-0.1232
4.3,1.0054,0.01239,0.00453,-0.123
4.4,1.0154,0.01254,0.00469,-0.1228
4.5,1.0256,0.01266,0.00479,-0.1227
4.6,1.0357,0.0128,0.00491,-0.1225
4.7,1.0458,0.01294,0.00503,-0.1223
4.8,1.0554,0.01314,0.00516,-0.1221
4.9,1.0654,0.01327,0.00528,-0.1219
5,1.0753,0.01343,0.00542,-0.1217
5.1,1.0853,0.01357,0.00555,-0.1215
5.2,1.0951,0.01373,0.00568,-0.1213
5.3,1.105,0.01388,0.00583,-0.1211
5.4,1.1144,0.0141,0.00598,-0.1208
5.5,1.1243,0.01424,0.00612,-0.1206
5.6,1.134,0.0144,0.00626,-0.1204
5.7,1.1437,0.01458,0.00646,-0.1201
5.8,1.1535,0.01473,0.00662,-0.1199
5.9,1.1632,0.0149,0.00678,-0.1197
6,1.1726,0.0151,0.00697,-0.1194
6.1,1.1821,0.01528,0.00712,-0.1191
6.2,1.1916,0.01547,0.0073,-0.1189
6.3,1.2011,0.01567,0.0075,-0.1186
6.4,1.2107,0.01583,0.00768,-0.1183
6.5,1.2203,0.01601,0.00787,-0.1181
6.6,1.2297,0.0162,0.00807,-0.1178
6.7,1.2389,0.01642,0.00828,-0.1175
6.8,1.2481,0.01663,0.00851,-0.1172
6.9,1.2576,0.01681,0.00873,-0.1169
7,1.2669,0.017,0.00892,-0.1166
7.1,1.276,0.01722,0.00917,-0.1163
7.2,1.285,0.01746,0.00942,-0.1159
7.3,1.2938,0.01773,0.00969,-0.1155
7.4,1.3032,0.01788,0.00987,-0.1153
7.5,1.3123,0.01809,0.01011,-0.1149
7.6,1.3212,0.01832,0.01036,-0.1146
7.7,1.33,0.01858,0.01062,-0.1142
7.8,1.3384,0.01888,0.01093,-0.1138
7.9,1.3472,0.01912,0.01121,-0.1134
8,1.3565,0.01926,0.01135,-0.1132
8.1,1.3652,0.0195,0.01162,-0.1128
8.2,1.3738,0.01976,0.0119,-0.1124
8.3,1.3821,0.02006,0.01221,-0.1119
8.4,1.3903,0.02036,0.01253,-0.1115
8.5,1.3988,0.02061,0.01286,-0.1111
8.6,1.4072,0.02087,0.01318,-0.1106
8.7,1.4155,0.02115,0.01351,-0.1102
8.8,1.4236,0.02144,0.01383,-0.1097
8.9,1.4317,0.02174,0.01417,-0.1092
9,1.4395,0.02205,0.01451,-0.1087
9.1,1.4471,0.0224,0.01489,-0.1082
9.2,1.4541,0.02281,0.01534,-0.1076
9.3,1.4613,0.0232,0.01576,-0.107
9.4,1.4688,0.02353,0.01616,-0.1064
9.5,1.476,0.02389,0.01659,-0.1058
9.6,1.4831,0.02427,0.01703,-0.1051
9.7,1.4899,0.02466,0.01748,-0.1045
9.8,1.4966,0.02505,0.01793,-0.1038
9.9,1.5032,0.02545,0.01839,-0.1031
10,1.5097,0.02585,0.01884,-0.1024
10.1,1.5159,0.02626,0.01931,-0.1017
10.2,1.5219,0.02669,0.01981,-0.101
10.3,1.5275,0.02714,0.02031,-0.1002
10.4,1.5326,0.02764,0.02086,-0.0993
10.5,1.5366,0.02822,0.02149,-0.0983
10.6,1.5392,0.0289,0.02224,-0.0971
10.7,1.5405,0.02966,0.02304,-0.0957
10.8,1.5449,0.03007,0.02352,-0.0946
10.9,1.5483,0.03053,0.02406,-0.0935
11.1,1.5624,0.03084,0.0245,-0.0924
11.2,1.5649,0.03138,0.02511,-0.0911
11.3,1.5673,0.03193,0.02573,-0.0899
11.4,1.5694,0.0325,0.02637,-0.0887
11.5,1.5713,0.03307,0.02702,-0.0875
11.6,1.573,0.03368,0.0277,-0.0862
11.7,1.5745,0.0343,0.02839,-0.085
11.8,1.5757,0.03493,0.0291,-0.0838
11.9,1.5768,0.03558,0.02982,-0.0827
12,1.5776,0.03626,0.03057,-0.0815
12.1,1.5782,0.03696,0.03135,-0.0804
12.2,1.5784,0.03769,0.03215,-0.0792
12.3,1.5784,0.03845,0.03298,-0.0781
12.4,1.5782,0.03922,0.03383,-0.0771
12.5,1.5775,0.04005,0.03473,-0.076
12.6,1.5768,0.0409,0.03565,-0.075
12.7,1.5754,0.0418,0.03663,-0.074
12.8,1.5737,0.04275,0.03766,-0.0731
12.9,1.5719,0.04373,0.03874,-0.0722
13,1.5695,0.04479,0.03987,-0.0714
13.1,1.5668,0.04589,0.04105,-0.0707
13.2,1.5639,0.04703,0.04227,-0.07
13.3,1.5603,0.04827,0.04359,-0.0694
13.4,1.5563,0.04959,0.04499,-0.069
13.5,1.5523,0.05095,0.04643,-0.0687
13.6,1.548,0.0524,0.04796,-0.0685
13.7,1.543,0.05397,0.04961,-0.0684
13.8,1.5381,0.0556,0.05132,-0.0686
13.9,1.5328,0.05731,0.05312,-0.0689
14,1.5268,0.0592,0.0551,-0.0695
14.1,1.521,0.06114,0.05713,-0.0702
14.2,1.5153,0.06318,0.05926,-0.0713
14.3,1.5092,0.06541,0.06157,-0.0726
14.4,1.5027,0.06782,0.06408,-0.0743
14.5,1.4968,0.07031,0.06666,-0.0763
14.6,1.4901,0.07313,0.06958,-0.0789
14.7,1.4839,0.07606,0.07262,-0.0817
14.9,1.4713,0.08295,0.07974,-0.0892
15,1.465,0.08707,0.08397,-0.0939
15.1,1.4591,0.09179,0.08883,-0.0993
15.2,1.4528,0.09739,0.09458,-0.1057
15.3,1.4455,0.10413,0.10149,-0.113
15.8,1.3913,0.14267,0.14064,-0.1477
17.4,1.3542,0.22624,0.22435,-0.2012
17.5,1.3572,0.22922,0.22733,-0.2028
17.6,1.3603,0.2318,0.22992,-0.2044
17.7,1.3635,0.2343,0.23242,-0.206
17.8,1.3667,0.23653,0.23465,-0.2075
17.9,1.3699,0.23872,0.23684,-0.209
18,1.3732,0.24084,0.23896,-0.2105
18.1,1.3764,0.24287,0.241,-0.212
18.2,1.3796,0.24486,0.24299,-0.2134
18.3,1.3829,0.24681,0.24496,-0.2149
18.4,1.3861,0.24873,0.24688,-0.2163
18.5,1.3894,0.25058,0.24874,-0.2178
18.6,1.3926,0.25239,0.25055,-0.2193
18.7,1.3959,0.2542,0.25237,-0.2207
18.8,1.3991,0.25601,0.25418,-0.2221
18.9,1.4023,0.25778,0.25595,-0.2236
19,1.4055,0.2595,0.25767,-0.225
19.1,1.4087,0.26123,0.25941,-0.2264
19.2,1.4119,0.26291,0.2611,-0.2278
19.3,1.4151,0.2646,0.26278,-0.2293
19.4,1.4183,0.26631,0.2645,-0.2307
19.5,1.4214,0.26788,0.26608,-0.2321
19.6,1.4246,0.26961,0.26781,-0.2336
19.7,1.4277,0.27121,0.26941,-0.235
19.8,1.4308,0.2729,0.27111,-0.2364
19.9,1.4338,0.27446,0.27267,-0.2378
20,1.4369,0.27621,0.27443,-0.2392
20.1,1.4399,0.27775,0.27597,-0.2406
20.2,1.443,0.27953,0.27776,-0.2421
20.3,1.446,0.28115,0.27938,-0.2435
20.4,1.449,0.28273,0.28096,-0.2449
20.5,1.452,0.28445,0.28269,-0.2463
20.6,1.4549,0.28607,0.28431,-0.2477
20.7,1.4578,0.28778,0.28603,-0.2491
20.8,1.4607,0.28948,0.28773,-0.2505
20.9,1.4636,0.29127,0.28952,-0.2519
21,1.4665,0.29305,0.29131,-0.2533
21.1,1.4694,0.29486,0.29312,-0.2547
21.2,1.4722,0.29667,0.29494,-0.2561
21.3,1.475,0.29853,0.29681,-0.2575
21.4,1.4778,0.3004,0.29868,-0.2589
21.5,1.4806,0.30232,0.3006,-0.2603
21.6,1.4835,0.30428,0.30257,-0.2617
21.7,1.4863,0.30623,0.30455,-0.2631
21.8,1.4899,0.30878,0.30707,-0.2648
21.9,1.4939,0.31146,0.30975,-0.2666
22,1.4985,0.31461,0.3129,-0.2686
22.1,1.5023,0.31717,0.31546,-0.2703
22.2,1.5068,0.32029,0.31858,-0.2722
22.3,1.5104,0.32278,0.32108,-0.2739
22.4,1.5146,0.32572,0.32402,-0.2757
22.5,1.518,0.32803,0.32633,-0.2773
22.6,1.5218,0.33067,0.32898,-0.279
22.7,1.5253,0.33306,0.33137,-0.2806
22.8,1.529,0.33565,0.33396,-0.2823
22.9,1.5326,0.33816,0.33647,-0.284
23,1.5359,0.34041,0.33873,-0.2856
23.1,1.5395,0.34289,0.34121,-0.2873
23.2,1.5428,0.34521,0.34354,-0.289
23.3,1.5463,0.34756,0.34589,-0.2906
23.4,1.5495,0.34975,0.34809,-0.2923
23.5,1.554,0.35293,0.35126,-0.2943
23.6,1.5573,0.35505,0.35339,-0.296
23.7,1.5605,0.35717,0.35552,-0.2977
23.8,1.5637,0.35929,0.35764,-0.2993
23.9,1.5669,0.3614,0.35976,-0.301
24,1.57,0.36348,0.36184,-0.3027
24.1,1.5731,0.36555,0.36391,-0.3044
24.2,1.5763,0.36761,0.36598,-0.3061
24.3,1.5794,0.36966,0.36803,-0.3077
24.4,1.5824,0.37169,0.37007,-0.3094
24.5,1.5855,0.37374,0.37212,-0.3111
24.6,1.5886,0.37576,0.37415,-0.3129
24.7,1.5915,0.37777,0.37617,-0.3145
24.8,1.5946,0.37978,0.37818,-0.3163
24.9,1.5975,0.38179,0.3802,-0.318
25,1.6005,0.38378,0.38219,-0.3197
25.1,1.6035,0.38576,0.38418,-0.3214
25.2,1.6064,0.38773,0.38615,-0.3232
25.3,1.6093,0.3897,0.38813,-0.3249
25.4,1.6122,0.39165,0.39008,-0.3266
25.5,1.6151,0.39358,0.39202,-0.3284
25.6,1.618,0.39552,0.39398,-0.3301
25.7,1.6208,0.39749,0.39596,-0.3319
25.8,1.6236,0.39939,0.39787,-0.3336
25.9,1.6264,0.40131,0.39979,-0.3354
26,1.6291,0.40323,0.40172,-0.3372
26.1,1.6319,0.40515,0.40365,-0.3389
26.2,1.6346,0.40703,0.40553,-0.3407
26.3,1.6373,0.40898,0.40749,-0.3425
26.4,1.64,0.41086,0.40937,-0.3442
26.5,1.6426,0.41277,0.41129,-0.346
26.6,1.6453,0.41463,0.41316,-0.3478
26.7,1.6479,0.41656,0.4151,-0.3496
26.8,1.6504,0.41842,0.41696,-0.3514
26.9,1.653,0.4203,0.41884,-0.3531
27,1.6555,0.42223,0.42078,-0.3549
27.1,1.658,0.42414,0.4227,-0.3567
27.2,1.6605,0.42605,0.42462,-0.3585
27.3,1.663,0.42798,0.42655,-0.3603
27.4,1.6654,0.42986,0.42844,-0.3621
27.5,1.6679,0.43187,0.43046,-0.3639
27.6,1.6703,0.43383,0.43242,-0.3657
27.7,1.6726,0.4358,0.43439,-0.3675
27.8,1.675,0.43784,0.43644,-0.3693
27.9,1.6773,0.43983,0.43844,-0.3711
28,1.6797,0.44193,0.44054,-0.3729
28.1,1.6819,0.44399,0.44262,-0.3747
28.2,1.6842,0.44613,0.44476,-0.3765
28.3,1.6865,0.4483,0.44694,-0.3783
28.4,1.6888,0.45051,0.44915,-0.3801
28.5,1.691,0.45273,0.45138,-0.3819
28.6,1.6933,0.45501,0.45368,-0.3837
28.7,1.6955,0.4573,0.45598,-0.3855
28.8,1.6977,0.45963,0.45831,-0.3873
28.9,1.6999,0.46203,0.46072,-0.3891
29,1.7021,0.46434,0.46304,-0.3909
29.1,1.7043,0.46676,0.46547,-0.3927
29.2,1.7065,0.46921,0.46793,-0.3945
29.3,1.7086,0.47162,0.47034,-0.3964
29.4,1.7107,0.47413,0.47285,-0.3982
29.5,1.7129,0.47649,0.47522,-0.4
29.6,1.715,0.47903,0.47777,-0.4018
29.7,1.7171,0.48152,0.48026,-0.4037
29.8,1.7192,0.48399,0.48274,-0.4055
29.9,1.7212,0.48656,0.48532,-0.4073
30,1.7234,0.48905,0.48782,-0.4092

