airfoilName st22.dat
Re 	950000
M 	5.000000e-02
N 	4.500000e+00
VACC 	0 VACCflag 1
XTR 	1.00 	1.00 XTRflag 0
alpha,cl,cd,cdp,cm
-6.4,-0.1801,0.01929,0.01634,-0.1196
-6.3,-0.1677,0.01851,0.01542,-0.1204
-6.2,-0.1524,0.01413,0.01044,-0.1238
-6.1,-0.1403,0.01309,0.00922,-0.1245
-6,-0.1286,0.0124,0.00841,-0.1249
-5.9,-0.117,0.01189,0.00779,-0.1252
-5.8,-0.1055,0.01147,0.00728,-0.1254
-5.7,-0.0941,0.01111,0.00684,-0.1256
-5.6,-0.0825,0.01078,0.00645,-0.1258
-5.5,-0.0711,0.01051,0.00611,-0.1259
-5.4,-0.0596,0.01026,0.00579,-0.126
-5.3,-0.0482,0.01003,0.00551,-0.1261
-5.2,-0.0367,0.00982,0.00525,-0.1262
-5.1,-0.0253,0.00962,0.00501,-0.1263
-5,-0.0139,0.00944,0.00479,-0.1264
-4.9,-0.0024,0.00927,0.00457,-0.1265
-4.8,0.009,0.00911,0.00436,-0.1265
-4.7,0.0202,0.00895,0.00417,-0.1265
-4.6,0.0312,0.00881,0.00398,-0.1264
-4.5,0.0427,0.00867,0.00381,-0.1265
-4.4,0.0539,0.00854,0.00364,-0.1265
-4.3,0.0652,0.00841,0.00348,-0.1265
-4.2,0.0766,0.00829,0.00332,-0.1265
-4.1,0.0878,0.00818,0.00317,-0.1265
-4,0.0991,0.00806,0.00302,-0.1265
-3.9,0.1106,0.00796,0.00289,-0.1266
-3.8,0.1217,0.00796,0.00289,-0.1265
-3.7,0.1331,0.00789,0.00279,-0.1266
-3.6,0.1445,0.00771,0.00257,-0.1266
-3.5,0.1559,0.00754,0.00235,-0.1266
-3.4,0.1673,0.00744,0.00224,-0.1266
-3.3,0.1788,0.00736,0.00214,-0.1266
-3.2,0.1901,0.00729,0.00205,-0.1266
-3.1,0.2015,0.00722,0.00196,-0.1266
-3,0.2127,0.00717,0.00188,-0.1266
-2.9,0.224,0.00711,0.0018,-0.1266
-2.8,0.2354,0.00704,0.00172,-0.1266
-2.7,0.2468,0.00698,0.00166,-0.1266
-2.6,0.2582,0.00693,0.00161,-0.1266
-2.5,0.2694,0.0069,0.00155,-0.1266
-2.4,0.2806,0.00686,0.00148,-0.1266
-2.3,0.2921,0.00681,0.00143,-0.1266
-2.2,0.3035,0.00676,0.00139,-0.1266
-2.1,0.3148,0.00673,0.00135,-0.1266
-2,0.326,0.00671,0.00131,-0.1266
-1.9,0.3373,0.00667,0.00126,-0.1266
-1.8,0.3482,0.00665,0.00122,-0.1265
-1.7,0.3591,0.00664,0.00119,-0.1264
-1.6,0.3705,0.00661,0.00115,-0.1264
-1.5,0.3814,0.00659,0.00113,-0.1263
-1.4,0.3927,0.00657,0.00111,-0.1263
-1.3,0.4038,0.00657,0.00107,-0.1262
-1.2,0.4149,0.00656,0.00104,-0.1262
-1.1,0.426,0.00656,0.00102,-0.1261
-1,0.4373,0.00655,0.001,-0.1261
-0.9,0.4483,0.00655,0.00099,-0.126
-0.8,0.4594,0.00655,0.00097,-0.126
-0.7,0.4707,0.00655,0.00096,-0.126
-0.6,0.4819,0.00655,0.00095,-0.126
-0.5,0.4925,0.00659,0.00094,-0.1258
-0.4,0.5036,0.0066,0.00094,-0.1258
-0.3,0.5147,0.00662,0.00094,-0.1257
-0.2,0.526,0.00662,0.00093,-0.1257
-0.1,0.5364,0.0067,0.00094,-0.1255
0,0.5475,0.00672,0.00094,-0.1255
0.1,0.5585,0.00674,0.00094,-0.1255
0.2,0.5693,0.00679,0.00095,-0.1254
0.3,0.5796,0.0069,0.00097,-0.1252
0.4,0.5904,0.00695,0.00098,-0.1251
0.5,0.6008,0.00706,0.00101,-0.125
0.6,0.6113,0.00717,0.00104,-0.1248
0.7,0.622,0.00724,0.00107,-0.1247
0.8,0.6319,0.00742,0.00113,-0.1245
0.9,0.6426,0.0075,0.00116,-0.1244
1,0.653,0.00763,0.00121,-0.1243
1.1,0.6636,0.00771,0.00124,-0.1242
1.2,0.6739,0.00786,0.0013,-0.1241
1.3,0.683,0.00818,0.0014,-0.1238
1.4,0.6935,0.0083,0.00145,-0.1237
1.5,0.7039,0.00842,0.00152,-0.1236
1.6,0.7142,0.00856,0.00158,-0.1235
1.7,0.7231,0.00893,0.00171,-0.1232
1.8,0.7332,0.0091,0.00179,-0.1231
1.9,0.7436,0.00924,0.00185,-0.1229
2,0.7541,0.00935,0.00192,-0.1229
2.1,0.7648,0.00942,0.00198,-0.1228
2.2,0.7751,0.00957,0.00206,-0.1227
2.3,0.7859,0.00963,0.00211,-0.1226
2.4,0.7966,0.00969,0.00216,-0.1226
2.5,0.8074,0.00975,0.00221,-0.1225
2.6,0.8179,0.00985,0.00228,-0.1225
2.7,0.8287,0.00989,0.00234,-0.1224
2.8,0.8346,0.0086,0.00253,-0.1217
2.9,0.8454,0.00867,0.0026,-0.1216
3,0.8562,0.00875,0.00265,-0.1216
3.1,0.8669,0.00884,0.00271,-0.1215
3.2,0.8773,0.00897,0.00278,-0.1214
3.3,0.888,0.00905,0.00283,-0.1213
3.4,0.8987,0.00914,0.00289,-0.1212
3.5,0.9091,0.00927,0.00297,-0.1211
3.6,0.9196,0.00937,0.00304,-0.121
3.7,0.9303,0.00945,0.0031,-0.1209
3.8,0.9409,0.00955,0.00317,-0.1208
3.9,0.9515,0.00965,0.00324,-0.1207
4,0.9621,0.00973,0.00331,-0.1206
4.1,0.9726,0.00984,0.00339,-0.1205
4.2,0.9828,0.00997,0.00348,-0.1204
4.3,0.9932,0.01009,0.00356,-0.1203
4.4,1.0038,0.01019,0.00367,-0.1201
4.5,1.0142,0.01029,0.00375,-0.12
4.6,1.0243,0.01045,0.00386,-0.1199
4.7,1.0347,0.01055,0.00395,-0.1197
4.8,1.045,0.01068,0.00404,-0.1196
4.9,1.0554,0.01078,0.00414,-0.1195
5,1.0658,0.01089,0.00424,-0.1193
5.1,1.0761,0.01101,0.00434,-0.1192
5.2,1.0863,0.01114,0.00445,-0.1191
5.3,1.0967,0.01124,0.00455,-0.1189
5.4,1.107,0.01135,0.00465,-0.1188
5.5,1.1171,0.01148,0.00476,-0.1186
5.6,1.1273,0.01161,0.00489,-0.1185
5.7,1.1376,0.01172,0.00502,-0.1183
5.8,1.1477,0.01186,0.00514,-0.1181
5.9,1.1578,0.01199,0.00526,-0.118
6,1.1678,0.01213,0.00539,-0.1178
6.1,1.1779,0.01225,0.00552,-0.1176
6.2,1.188,0.01238,0.00564,-0.1174
6.3,1.1977,0.01256,0.00578,-0.1172
6.4,1.2077,0.0127,0.00593,-0.117
6.5,1.2177,0.01283,0.00607,-0.1169
6.6,1.2278,0.01295,0.0062,-0.1167
6.7,1.2378,0.01308,0.00633,-0.1165
6.8,1.2477,0.01322,0.00647,-0.1163
6.9,1.2575,0.01337,0.00662,-0.1161
7,1.2673,0.01353,0.0068,-0.1159
7.1,1.277,0.01369,0.00697,-0.1156
7.2,1.2869,0.01383,0.00712,-0.1154
7.3,1.2967,0.01397,0.00727,-0.1152
7.4,1.3064,0.01412,0.00743,-0.115
7.5,1.3161,0.01428,0.0076,-0.1147
7.6,1.3256,0.01446,0.00777,-0.1145
7.7,1.335,0.01465,0.00797,-0.1142
7.8,1.3447,0.0148,0.00814,-0.114
7.9,1.3543,0.01496,0.00831,-0.1137
8,1.3638,0.01512,0.0085,-0.1135
8.1,1.3732,0.0153,0.00868,-0.1132
8.2,1.3822,0.01552,0.00888,-0.1129
8.3,1.3916,0.0157,0.00908,-0.1126
8.4,1.4009,0.01588,0.0093,-0.1123
8.5,1.4101,0.01607,0.00951,-0.112
8.6,1.4193,0.01626,0.00973,-0.1117
8.7,1.4284,0.01646,0.00995,-0.1114
8.8,1.4375,0.01667,0.01018,-0.1111
8.9,1.4464,0.01689,0.01042,-0.1107
9,1.4552,0.01712,0.01067,-0.1104
9.1,1.4639,0.01737,0.01095,-0.11
9.2,1.4724,0.01764,0.01125,-0.1096
9.3,1.4807,0.01795,0.01159,-0.1091
9.4,1.4886,0.0183,0.01198,-0.1086
9.5,1.4974,0.01851,0.01222,-0.1082
9.6,1.5059,0.01874,0.01248,-0.1078
9.7,1.5144,0.01898,0.01276,-0.1074
9.8,1.5227,0.01923,0.01305,-0.107
9.9,1.5309,0.0195,0.01336,-0.1065
10,1.539,0.01977,0.01369,-0.106
10.1,1.547,0.02006,0.01401,-0.1056
10.2,1.5548,0.02035,0.01435,-0.1051
10.3,1.5626,0.02065,0.01469,-0.1045
10.4,1.5702,0.02096,0.01504,-0.104
10.5,1.5776,0.02127,0.0154,-0.1034
10.6,1.585,0.02159,0.01576,-0.1029
10.7,1.5922,0.02192,0.01614,-0.1023
10.8,1.5993,0.02225,0.01651,-0.1017
10.9,1.6062,0.0226,0.0169,-0.1011
11,1.6129,0.02295,0.0173,-0.1004
11.1,1.6195,0.02331,0.01771,-0.0997
11.2,1.6259,0.02368,0.01812,-0.099
11.3,1.632,0.02406,0.01856,-0.0983
11.4,1.638,0.02445,0.01899,-0.0976
11.5,1.6437,0.02485,0.01944,-0.0968
11.6,1.649,0.02527,0.01991,-0.0959
11.7,1.6541,0.02568,0.02038,-0.095
11.8,1.6586,0.02612,0.02087,-0.094
11.9,1.6628,0.02656,0.02138,-0.093
12,1.6664,0.02702,0.0219,-0.0919
12.1,1.6689,0.02748,0.02241,-0.0906
12.2,1.671,0.02796,0.02295,-0.0892
12.3,1.6727,0.02846,0.02351,-0.0878
12.4,1.674,0.029,0.02411,-0.0864
12.5,1.6751,0.02957,0.02474,-0.085
12.6,1.6759,0.03015,0.02538,-0.0836
12.7,1.676,0.03079,0.02609,-0.0821
12.8,1.6758,0.03147,0.02684,-0.0806
12.9,1.6753,0.03217,0.02761,-0.0792
13,1.6745,0.0329,0.0284,-0.0778
13.1,1.6729,0.0337,0.02928,-0.0763
13.2,1.6709,0.03455,0.03021,-0.0749
13.3,1.6685,0.03542,0.03116,-0.0735
13.4,1.6656,0.03637,0.03218,-0.0722
13.5,1.6617,0.03741,0.03331,-0.0708
13.6,1.6578,0.03848,0.03445,-0.0696
13.7,1.6533,0.03961,0.03567,-0.0684
13.8,1.648,0.04085,0.03699,-0.0673
13.9,1.6418,0.04223,0.03845,-0.0663
14,1.6351,0.04369,0.04,-0.0654
14.1,1.6288,0.04516,0.04156,-0.0647
14.2,1.6228,0.04664,0.04311,-0.0642
14.3,1.6139,0.0485,0.04507,-0.0638
14.4,1.6105,0.04984,0.04647,-0.0636
14.5,1.6017,0.05185,0.04857,-0.0637
14.6,1.5924,0.05404,0.05085,-0.0641
14.7,1.5835,0.0563,0.05321,-0.0648
14.8,1.5766,0.05839,0.05537,-0.0657
14.9,1.5648,0.06135,0.05844,-0.0673
15,1.5599,0.06345,0.0606,-0.0687
15.1,1.5489,0.06677,0.06403,-0.0712
15.3,1.5359,0.0726,0.07002,-0.0764
15.4,1.5283,0.07624,0.07375,-0.08
15.5,1.5192,0.08082,0.07844,-0.0849
15.6,1.5116,0.08571,0.08344,-0.0902
15.7,1.5026,0.09221,0.09007,-0.0971
15.8,1.4924,0.10047,0.09849,-0.1052
16,1.4557,0.12014,0.11845,-0.1214
16.2,1.413,0.13986,0.13837,-0.137
16.3,1.3966,0.14804,0.14661,-0.1435
16.4,1.3823,0.15567,0.15431,-0.1496
16.5,1.3723,0.1617,0.16039,-0.1547
16.6,1.3605,0.16877,0.16752,-0.1605
16.7,1.3529,0.17439,0.17318,-0.1652
16.8,1.3448,0.18081,0.17965,-0.1702
16.9,1.3363,0.18833,0.18723,-0.1756
17,1.3321,0.19397,0.19291,-0.1795
17.2,1.3125,0.21871,0.21772,-0.1919
17.3,1.3146,0.22121,0.22022,-0.1937
17.4,1.3168,0.22362,0.22263,-0.1954
17.5,1.3191,0.22589,0.2249,-0.1971
17.6,1.3216,0.22789,0.22691,-0.1987
17.7,1.3241,0.22988,0.22889,-0.2003
17.8,1.3267,0.23152,0.23053,-0.2018
17.9,1.329,0.23332,0.23233,-0.2034
18,1.3288,0.23836,0.23736,-0.2058
18.1,1.3318,0.24722,0.24621,-0.2082
18.2,1.3349,0.25152,0.25051,-0.2099
18.3,1.3381,0.2544,0.25339,-0.2114
18.4,1.3414,0.25691,0.2559,-0.2129
18.5,1.3446,0.25931,0.2583,-0.2144
18.6,1.3479,0.26158,0.26056,-0.2159
18.7,1.3512,0.2638,0.26279,-0.2173
18.8,1.3544,0.26597,0.26496,-0.2188
18.9,1.3578,0.26811,0.26711,-0.2203
19,1.361,0.27022,0.26922,-0.2217
19.1,1.3643,0.2723,0.2713,-0.2232
19.2,1.3676,0.27435,0.27335,-0.2246
19.3,1.3709,0.27637,0.27538,-0.2261
19.4,1.3742,0.27839,0.2774,-0.2275
19.5,1.3775,0.2804,0.27942,-0.229
19.6,1.3808,0.28237,0.28139,-0.2304
19.7,1.3841,0.28435,0.28337,-0.2319
19.8,1.3873,0.28633,0.28535,-0.2333
19.9,1.3906,0.28827,0.28729,-0.2348
20,1.3939,0.29021,0.28924,-0.2363
20.1,1.3971,0.29215,0.29118,-0.2377
20.2,1.4004,0.2941,0.29313,-0.2392
20.3,1.4036,0.29601,0.29505,-0.2407
20.4,1.4069,0.29797,0.29701,-0.2421
20.5,1.4101,0.29981,0.29884,-0.2436
20.6,1.4134,0.30177,0.30081,-0.2451
20.7,1.4166,0.3037,0.30274,-0.2466
20.8,1.4199,0.30558,0.30462,-0.2481
20.9,1.4231,0.30751,0.30656,-0.2496
21,1.4263,0.30938,0.30843,-0.251
21.1,1.4295,0.31131,0.31036,-0.2525
21.2,1.4328,0.31322,0.31227,-0.254
21.3,1.436,0.3151,0.31416,-0.2555
21.4,1.4392,0.31699,0.31606,-0.2571
21.5,1.4424,0.31884,0.31791,-0.2586
21.6,1.4456,0.32078,0.31985,-0.2601
21.7,1.4487,0.32265,0.32172,-0.2616
21.8,1.4519,0.32453,0.32361,-0.2631
21.9,1.4551,0.32638,0.32546,-0.2647
22,1.4583,0.32834,0.32742,-0.2662
22.1,1.4614,0.33024,0.32932,-0.2677
22.2,1.4645,0.33207,0.33116,-0.2693
22.3,1.4677,0.334,0.33309,-0.2708
22.4,1.4708,0.33587,0.33496,-0.2724
22.5,1.4739,0.33775,0.33685,-0.274
22.7,1.48,0.34098,0.34009,-0.2772
22.8,1.4831,0.34288,0.34199,-0.2787
22.9,1.4861,0.34471,0.34383,-0.2803
23,1.4892,0.34658,0.3457,-0.2819
23.1,1.4922,0.34843,0.34755,-0.2835
23.2,1.4953,0.35031,0.34944,-0.2851
23.3,1.4983,0.35217,0.3513,-0.2867
23.4,1.5013,0.35401,0.35315,-0.2883
23.5,1.5043,0.35587,0.35501,-0.2899
23.6,1.5073,0.35771,0.35685,-0.2915
23.7,1.5102,0.35959,0.35874,-0.2931
23.8,1.5132,0.36146,0.36061,-0.2947
23.9,1.5161,0.36336,0.36252,-0.2963
24,1.5191,0.36523,0.36439,-0.2979
24.1,1.522,0.36708,0.36624,-0.2996
24.2,1.5249,0.36899,0.36815,-0.3012
24.3,1.5277,0.37087,0.37004,-0.3028
24.4,1.5306,0.37277,0.37194,-0.3045
24.5,1.5335,0.37467,0.37385,-0.3061
24.6,1.5363,0.3766,0.37578,-0.3077
24.7,1.5391,0.37853,0.37772,-0.3094
24.8,1.5419,0.38048,0.37967,-0.311
24.9,1.5447,0.38245,0.38164,-0.3127
25,1.5475,0.38446,0.38365,-0.3143
25.1,1.5502,0.38647,0.38567,-0.316
25.2,1.5529,0.38854,0.38775,-0.3176
25.3,1.5556,0.3907,0.38991,-0.3192
25.4,1.5583,0.39284,0.39205,-0.3209
25.5,1.5607,0.39535,0.39457,-0.3224
25.6,1.5631,0.39801,0.39723,-0.3238
25.7,1.5654,0.4008,0.40003,-0.3253

