airfoilName st22.dat
Re 	190000
M 	5.000000e-02
N 	4.500000e+00
VACC 	0 VACCflag 1
XTR 	1.00 	1.00 XTRflag 0
alpha,cl,cd,cdp,cm
-30,-1.2551,0.50886,0.50581,0.2583
-29.9,-1.2524,0.50651,0.50344,0.2564
-29.8,-1.2497,0.50421,0.50113,0.2545
-29.7,-1.247,0.5019,0.49881,0.2526
-29.6,-1.2443,0.49961,0.49652,0.2508
-29.5,-1.2415,0.49733,0.49423,0.2489
-29.4,-1.2387,0.49506,0.49196,0.247
-29.3,-1.2359,0.49281,0.48971,0.2451
-29.2,-1.2331,0.49057,0.48746,0.2432
-29.1,-1.2302,0.48837,0.48524,0.2413
-29,-1.2274,0.48616,0.48304,0.2394
-28.9,-1.2245,0.48397,0.48084,0.2375
-28.8,-1.2215,0.4818,0.47867,0.2356
-28.7,-1.2186,0.47967,0.47653,0.2337
-28.6,-1.2156,0.47754,0.4744,0.2318
-28.5,-1.2126,0.4754,0.47225,0.2299
-28.4,-1.2095,0.47338,0.47022,0.228
-28.3,-1.2064,0.4713,0.46814,0.2261
-28.2,-1.2033,0.46925,0.46608,0.2242
-28.1,-1.2002,0.46726,0.46408,0.2222
-28,-1.197,0.46527,0.46209,0.2203
-27.9,-1.1938,0.4633,0.46012,0.2183
-27.8,-1.1905,0.46139,0.4582,0.2163
-27.7,-1.1871,0.45953,0.45633,0.2143
-27.6,-1.1837,0.45764,0.45444,0.2123
-27.5,-1.1802,0.45587,0.45267,0.2102
-27.4,-1.1768,0.45401,0.45081,0.2082
-27.3,-1.1732,0.45224,0.44902,0.206
-27.2,-1.1693,0.45067,0.44744,0.2038
-27.1,-1.1656,0.44889,0.44566,0.2016
-27,-1.1616,0.44721,0.44399,0.1993
-26.9,-1.1578,0.44532,0.44209,0.1972
-23.5,-1.0417,0.36721,0.36384,0.1411
-23.4,-1.0385,0.36497,0.3616,0.1397
-23.3,-1.0352,0.36275,0.35938,0.1383
-23.2,-1.032,0.36053,0.35715,0.1369
-23.1,-1.0288,0.35831,0.35492,0.1355
-23,-1.0255,0.35609,0.3527,0.1342
-22.9,-1.0222,0.35389,0.3505,0.1328
-22.8,-1.019,0.35169,0.34829,0.1314
-22.7,-1.0157,0.3495,0.3461,0.13
-22.6,-1.0124,0.34732,0.34391,0.1287
-22.5,-1.0091,0.34515,0.34174,0.1273
-22.4,-1.0058,0.34299,0.33957,0.1259
-22.3,-1.0025,0.34083,0.33741,0.1246
-22.2,-0.9991,0.33868,0.33526,0.1232
-22.1,-0.9958,0.33654,0.33311,0.1219
-22,-0.9924,0.33441,0.33098,0.1206
-21.9,-0.9891,0.33229,0.32885,0.1192
-21.8,-0.9857,0.33018,0.32674,0.1179
-21.7,-0.9823,0.32808,0.32463,0.1166
-21.6,-0.979,0.32598,0.32253,0.1153
-21.5,-0.9756,0.3239,0.32042,0.114
-21.4,-0.9722,0.32182,0.31834,0.1126
-21.3,-0.9688,0.31975,0.31627,0.1113
-21.2,-0.9653,0.3177,0.3142,0.11
-21.1,-0.9619,0.31565,0.31216,0.1087
-21,-0.9585,0.31361,0.31011,0.1075
-20.9,-0.955,0.31158,0.30808,0.1062
-20.8,-0.9516,0.30957,0.30606,0.1049
-20.7,-0.9481,0.30755,0.30404,0.1036
-20.6,-0.9446,0.30555,0.30204,0.1023
-20.5,-0.9411,0.30356,0.30005,0.101
-20.4,-0.9376,0.30158,0.29805,0.0998
-20.3,-0.9341,0.2996,0.29608,0.0985
-20.2,-0.9306,0.29764,0.29411,0.0973
-20.1,-0.9271,0.29567,0.29214,0.096
-20,-0.9236,0.29372,0.29018,0.0947
-19.9,-0.92,0.29178,0.28824,0.0935
-19.8,-0.9165,0.28984,0.2863,0.0923
-19.7,-0.9129,0.2879,0.28435,0.091
-19.6,-0.9094,0.28598,0.28243,0.0898
-19.5,-0.9058,0.28406,0.28051,0.0886
-19.4,-0.9022,0.28214,0.27859,0.0874
-19.3,-0.8987,0.28023,0.27667,0.0862
-19.2,-0.8951,0.27832,0.27476,0.085
-19.1,-0.8915,0.27643,0.27287,0.0838
-19,-0.8879,0.27453,0.27096,0.0826
-18.9,-0.8843,0.27264,0.26907,0.0814
-18.8,-0.8807,0.27074,0.26717,0.0802
-18.7,-0.8771,0.26886,0.26528,0.079
-18.6,-0.8734,0.26697,0.26339,0.0778
-18.5,-0.8698,0.26509,0.26151,0.0767
-18.4,-0.8661,0.26322,0.25962,0.0755
-18.3,-0.8625,0.26134,0.25774,0.0744
-18.2,-0.8588,0.25947,0.25586,0.0732
-18.1,-0.8551,0.2576,0.25399,0.072
-18,-0.8515,0.25574,0.25212,0.0709
-17.9,-0.8478,0.25388,0.25026,0.0698
-17.8,-0.8441,0.25202,0.2484,0.0686
-17.7,-0.8403,0.25016,0.24654,0.0675
-17.6,-0.8366,0.24831,0.24469,0.0663
-17.5,-0.8329,0.24646,0.24284,0.0652
-17.4,-0.8291,0.24462,0.24099,0.064
-17.3,-0.8254,0.24278,0.23915,0.0629
-17.2,-0.8216,0.24094,0.23731,0.0617
-17.1,-0.8178,0.2391,0.23546,0.0606
-17,-0.814,0.23725,0.23362,0.0594
-16.9,-0.8102,0.23541,0.23178,0.0583
-16.8,-0.8064,0.23356,0.22993,0.0571
-16.7,-0.8026,0.23171,0.22807,0.056
-16.6,-0.7987,0.22983,0.2262,0.0548
-16.5,-0.7948,0.22796,0.22432,0.0537
-16.4,-0.7909,0.22607,0.22243,0.0525
-16.3,-0.787,0.22415,0.22051,0.0514
-16.2,-0.783,0.22221,0.21857,0.0502
-16.1,-0.779,0.22025,0.21661,0.0491
-15.9,-0.7597,0.21437,0.21079,0.0431
-15.8,-0.7565,0.21243,0.20885,0.0423
-15.7,-0.7533,0.2105,0.20691,0.0415
-15.6,-0.75,0.20859,0.205,0.0407
-15.5,-0.7468,0.2067,0.20311,0.0398
-15.4,-0.7435,0.20482,0.20123,0.039
-15.3,-0.7403,0.20296,0.19937,0.0382
-15.2,-0.737,0.20112,0.19753,0.0374
-15.1,-0.7337,0.19929,0.1957,0.0365
-15,-0.7304,0.19748,0.19389,0.0357
-14.9,-0.7271,0.19569,0.19209,0.0349
-14.8,-0.7239,0.19391,0.19028,0.034
-14.7,-0.7205,0.19215,0.18853,0.0332
-14.6,-0.7172,0.19041,0.18678,0.0324
-14.5,-0.7138,0.18868,0.18505,0.0315
-14.4,-0.7105,0.18697,0.18334,0.0307
-14.3,-0.7071,0.18527,0.18165,0.0299
-14.2,-0.7037,0.18359,0.17997,0.029
-14.1,-0.7002,0.18193,0.1783,0.0282
-14,-0.6968,0.18027,0.17664,0.0273
-13.9,-0.6933,0.17863,0.17501,0.0265
-13.8,-0.6898,0.17701,0.17338,0.0257
-13.7,-0.6863,0.1754,0.17177,0.0248
-13.6,-0.6827,0.1738,0.17017,0.024
-13.5,-0.6792,0.17221,0.16858,0.0231
-13.4,-0.6756,0.17064,0.16701,0.0223
-13.3,-0.672,0.16907,0.16544,0.0214
-13.2,-0.6684,0.16752,0.16389,0.0206
-13.1,-0.6647,0.16597,0.16235,0.0197
-13,-0.6611,0.16444,0.16081,0.0189
-12.9,-0.6574,0.16291,0.15929,0.018
-12.8,-0.6537,0.16139,0.15777,0.0171
-12.7,-0.6499,0.15988,0.15625,0.0163
-12.6,-0.6462,0.15836,0.15475,0.0154
-12.5,-0.6424,0.15686,0.15324,0.0146
-12.4,-0.6386,0.15536,0.15175,0.0137
-12.3,-0.6348,0.15387,0.15026,0.0129
-12.2,-0.631,0.15239,0.14878,0.012
-12.1,-0.6272,0.15091,0.1473,0.0111
-12,-0.6234,0.14943,0.14583,0.0103
-11.9,-0.6195,0.14796,0.14435,0.0094
-11.8,-0.6156,0.14648,0.14288,0.0086
-11.7,-0.6117,0.14501,0.14141,0.0077
-11.6,-0.6078,0.14354,0.13992,0.0069
-11.5,-0.6039,0.14208,0.13846,0.0061
-11.4,-0.6,0.14062,0.137,0.0052
-11.3,-0.5961,0.13916,0.13555,0.0044
-11.2,-0.5922,0.1377,0.13409,0.0035
-11.1,-0.5883,0.13625,0.13264,0.0027
-11,-0.5844,0.13479,0.13119,0.0019
-10.9,-0.5805,0.13333,0.12974,0.0011
-10.8,-0.5765,0.13188,0.12829,0.0002
-10.7,-0.5726,0.13042,0.12683,-0.0006
-10.6,-0.5687,0.12896,0.12538,-0.0014
-10.5,-0.5648,0.1275,0.12392,-0.0022
-10.4,-0.5609,0.12604,0.12246,-0.0031
-10.3,-0.557,0.12456,0.12099,-0.0039
-10.2,-0.5531,0.12307,0.11951,-0.0047
-10.1,-0.5493,0.12159,0.11803,-0.0055
-10,-0.5455,0.1201,0.11654,-0.0063
-9.9,-0.5417,0.11857,0.11502,-0.0071
-9.8,-0.5379,0.11702,0.11348,-0.0079
-9.7,-0.5343,0.11548,0.11194,-0.0087
-9.6,-0.5256,0.11184,0.10839,-0.014
-9.5,-0.5232,0.11046,0.10701,-0.0142
-9.4,-0.5211,0.10912,0.10568,-0.0144
-9.3,-0.5191,0.10785,0.10442,-0.0146
-9.2,-0.5175,0.10663,0.1032,-0.0147
-9.1,-0.5163,0.10547,0.10206,-0.0147
-9,-0.5154,0.10438,0.10098,-0.0146
-8.9,-0.5148,0.10334,0.09995,-0.0145
-8.8,-0.5142,0.1023,0.09894,-0.0144
-8.7,-0.5132,0.10125,0.09789,-0.0144
-8.6,-0.5119,0.10017,0.09684,-0.0145
-8.5,-0.5109,0.09915,0.09582,-0.0145
-8.4,-0.51,0.09816,0.09485,-0.0145
-8.3,-0.5094,0.0972,0.09391,-0.0144
-8.2,-0.5091,0.09628,0.09301,-0.0142
-8.1,-0.5089,0.09538,0.09213,-0.014
-8,-0.509,0.09452,0.09129,-0.0138
-7.9,-0.5094,0.09368,0.09047,-0.0135
-7.7,-0.5043,0.09152,0.08834,-0.0144
-7.6,-0.4948,0.08988,0.08668,-0.0166
-7.5,-0.485,0.08825,0.08504,-0.0188
-7.4,-0.4741,0.08655,0.08329,-0.0213
-7.3,-0.4637,0.08492,0.08165,-0.0237
-7.2,-0.4528,0.08327,0.07999,-0.0262
-7.1,-0.4423,0.08168,0.07838,-0.0285
-7,-0.4316,0.08008,0.07677,-0.0309
-6.9,-0.4206,0.07847,0.07514,-0.0333
-6.8,-0.409,0.07683,0.07349,-0.0358
-6.7,-0.397,0.07517,0.07181,-0.0384
-6.6,-0.3835,0.07342,0.07003,-0.0414
-6.5,-0.3704,0.07169,0.06828,-0.0442
-6.4,-0.3586,0.07003,0.0666,-0.0467
-6.3,-0.3466,0.06835,0.0649,-0.0491
-6.2,-0.3336,0.0666,0.06312,-0.0518
-6.1,-0.3199,0.06476,0.06125,-0.0547
-6,-0.3054,0.06282,0.05928,-0.0578
-5.9,-0.2901,0.06075,0.05717,-0.0611
-5.8,-0.2736,0.05845,0.05484,-0.0647
-5.6,-0.2091,0.04378,0.03982,-0.085
-5.5,-0.1991,0.04286,0.03887,-0.0859
-5.4,-0.1867,0.04186,0.03784,-0.0874
-5.3,-0.1732,0.04079,0.03672,-0.0892
-5.2,-0.1588,0.03962,0.03551,-0.0911
-5.1,-0.1436,0.03836,0.03416,-0.0932
-4.9,-0.1134,0.03645,0.03213,-0.097
-4.8,-0.0941,0.03387,0.0294,-0.1003
-4.7,-0.0564,0.02332,0.01785,-0.1105
-4.6,-0.0387,0.02103,0.01509,-0.1128
-4.5,-0.0237,0.01972,0.01343,-0.1141
-4.4,-0.0094,0.01891,0.01231,-0.115
-4.3,0.0044,0.01808,0.01139,-0.1159
-4.2,0.0178,0.01752,0.01078,-0.1166
-4.1,0.0313,0.01713,0.01035,-0.1173
-4,0.0449,0.01678,0.00995,-0.1179
-3.9,0.0586,0.01644,0.00954,-0.1186
-3.8,0.0688,0.01613,0.00916,-0.1184
-3.7,0.0808,0.01578,0.00872,-0.1187
-3.6,0.0934,0.0154,0.00824,-0.1191
-3.5,0.1063,0.01504,0.00775,-0.1195
-3.4,0.1194,0.01473,0.00732,-0.1199
-3.3,0.133,0.01437,0.00696,-0.1205
-3.2,0.1466,0.01415,0.00671,-0.121
-3.1,0.1603,0.01393,0.00646,-0.1216
-3,0.1736,0.01372,0.00619,-0.1221
-2.8,0.2008,0.01342,0.00585,-0.1232
-2.7,0.2113,0.01329,0.00569,-0.123
-2.6,0.2222,0.01313,0.0055,-0.1229
-2.5,0.2344,0.01298,0.00528,-0.1231
-2.4,0.2469,0.0129,0.00525,-0.1235
-2.3,0.2597,0.01276,0.00507,-0.1238
-2.2,0.2726,0.01263,0.00488,-0.1241
-2.1,0.2862,0.01247,0.0047,-0.1246
-2,0.2994,0.01234,0.00459,-0.125
-1.8,0.3219,0.01222,0.00445,-0.125
-1.7,0.3332,0.01214,0.00438,-0.1251
-1.6,0.3454,0.01205,0.00428,-0.1252
-1.5,0.3579,0.01197,0.00417,-0.1255
-1.4,0.3708,0.01191,0.00416,-0.1258
-1.3,0.3837,0.01183,0.00406,-0.1262
-1.2,0.3967,0.01174,0.00398,-0.1265
-1.1,0.4066,0.0117,0.00393,-0.1262
-1,0.4176,0.01166,0.00389,-0.1262
-0.9,0.4294,0.01161,0.00388,-0.1263
-0.8,0.4417,0.01156,0.00382,-0.1265
-0.7,0.4542,0.0115,0.00375,-0.1267
-0.6,0.4673,0.01141,0.00369,-0.1271
-0.5,0.4785,0.01138,0.00366,-0.127
-0.4,0.4884,0.01136,0.00369,-0.1267
-0.3,0.5,0.01132,0.00365,-0.1268
-0.2,0.5121,0.01128,0.00362,-0.127
-0.1,0.525,0.01114,0.00349,-0.1271
0,0.5347,0.0111,0.00344,-0.1266
0.1,0.5466,0.01104,0.00344,-0.1268
0.2,0.559,0.01096,0.00335,-0.1268
0.3,0.569,0.01092,0.00334,-0.1265
0.4,0.5808,0.01088,0.00331,-0.1266
0.5,0.5926,0.01078,0.00324,-0.1266
0.6,0.6035,0.01076,0.00324,-0.1264
0.7,0.6151,0.01068,0.00321,-0.1265
0.8,0.6262,0.01061,0.00315,-0.1263
0.9,0.6375,0.01057,0.00314,-0.1262
1,0.6494,0.01049,0.0031,-0.1263
1.1,0.6604,0.01045,0.00311,-0.1263
1.2,0.6718,0.0103,0.0031,-0.1262
1.3,0.683,0.01017,0.00309,-0.1262
1.4,0.6863,0.00899,0.00303,-0.1242
1.5,0.6977,0.009,0.00303,-0.124
1.6,0.7088,0.00899,0.00299,-0.1238
1.7,0.7198,0.00901,0.00298,-0.1237
1.8,0.7312,0.00902,0.00296,-0.1235
1.9,0.742,0.00904,0.00291,-0.1232
2,0.7529,0.00906,0.00288,-0.1229
2.1,0.7638,0.0091,0.00289,-0.1228
2.2,0.7747,0.00914,0.0029,-0.1226
2.3,0.7856,0.00918,0.00291,-0.1224
2.4,0.7958,0.00925,0.00288,-0.122
2.5,0.8064,0.00932,0.0029,-0.1217
2.6,0.8167,0.0094,0.00292,-0.1214
2.7,0.8269,0.0095,0.00295,-0.121
2.8,0.8353,0.00973,0.00295,-0.1202
2.9,0.8446,0.00991,0.003,-0.1197
3,0.8536,0.01012,0.00313,-0.1192
3.1,0.8624,0.01035,0.00322,-0.1187
3.2,0.871,0.01061,0.00333,-0.1181
3.3,0.8769,0.01113,0.0035,-0.1171
3.4,0.8849,0.01147,0.00365,-0.1166
3.5,0.8929,0.01183,0.00383,-0.116
3.6,0.901,0.01218,0.00401,-0.1155
3.7,0.9094,0.01252,0.00419,-0.1151
3.8,0.917,0.01297,0.00441,-0.1146
3.9,0.9264,0.01321,0.00457,-0.1144
4,0.9359,0.01342,0.00474,-0.1141
4.1,0.9455,0.01364,0.00491,-0.1138
4.2,0.9553,0.01382,0.00506,-0.1136
4.3,0.9643,0.01409,0.00524,-0.1133
4.4,0.9741,0.01427,0.0054,-0.1131
4.5,0.9838,0.01446,0.00562,-0.1128
4.6,0.9937,0.01462,0.00577,-0.1126
4.7,1.0033,0.01481,0.00594,-0.1124
4.8,1.0126,0.01504,0.0061,-0.1121
4.9,1.0224,0.01521,0.00626,-0.1119
5,1.032,0.0154,0.00644,-0.1117
5.1,1.0418,0.01557,0.0066,-0.1114
5.2,1.0513,0.01577,0.00679,-0.1112
5.3,1.0605,0.01601,0.00695,-0.1109
5.4,1.0703,0.01618,0.00712,-0.1107
5.5,1.0797,0.01638,0.00731,-0.1104
5.6,1.0893,0.01658,0.00751,-0.1101
5.7,1.0987,0.01677,0.00771,-0.1098
5.8,1.108,0.017,0.00792,-0.1095
5.9,1.1172,0.01723,0.00814,-0.1093
6,1.1265,0.01746,0.00838,-0.109
6.1,1.1359,0.01766,0.0086,-0.1087
6.2,1.1451,0.01789,0.00884,-0.1084
6.3,1.154,0.01816,0.00909,-0.108
6.4,1.1633,0.01838,0.00936,-0.1077
6.6,1.181,0.01892,0.00985,-0.107
6.7,1.1901,0.01915,0.01013,-0.1067
6.8,1.1991,0.0194,0.01043,-0.1063
6.9,1.208,0.01967,0.01073,-0.1059
7,1.2166,0.01997,0.01104,-0.1055
7.1,1.2249,0.02032,0.0114,-0.1051
7.2,1.2333,0.02064,0.01175,-0.1046
7.4,1.2511,0.02114,0.01237,-0.1039
7.5,1.2593,0.02147,0.01272,-0.1034
7.6,1.2671,0.02186,0.01313,-0.1029
7.7,1.2747,0.02229,0.01356,-0.1024
7.8,1.2831,0.02261,0.01397,-0.1019
7.9,1.2924,0.02275,0.01416,-0.1017
8,1.3004,0.0231,0.01455,-0.1012
8.1,1.3082,0.02348,0.01495,-0.1007
8.2,1.3152,0.02395,0.01544,-0.1001
8.3,1.3222,0.02443,0.01594,-0.0994
8.4,1.33,0.02481,0.01641,-0.0989
8.5,1.3375,0.02523,0.01692,-0.0983
8.6,1.3447,0.02566,0.01743,-0.0977
8.8,1.3613,0.02611,0.01789,-0.0971
8.9,1.3672,0.02667,0.01852,-0.0964
9,1.374,0.02715,0.01905,-0.0957
9.1,1.3808,0.02762,0.01963,-0.095
9.2,1.3872,0.02813,0.02023,-0.0943
9.3,1.3935,0.02865,0.02084,-0.0936
9.4,1.3996,0.02917,0.02143,-0.0928
9.5,1.4055,0.02969,0.02202,-0.0921
9.6,1.4113,0.0302,0.02261,-0.0914
9.7,1.4168,0.03072,0.02318,-0.0906
9.8,1.422,0.03126,0.02378,-0.0898
9.9,1.4267,0.03184,0.02441,-0.089
10,1.4304,0.0325,0.02511,-0.088
10.1,1.4328,0.03328,0.02594,-0.0869
10.2,1.4356,0.03404,0.02674,-0.0858
10.3,1.4399,0.03466,0.02749,-0.0848
10.4,1.4428,0.03533,0.02829,-0.0836
10.5,1.4452,0.03605,0.02912,-0.0824
10.6,1.4471,0.03679,0.02997,-0.0812
10.7,1.4487,0.03755,0.03084,-0.08
10.8,1.4501,0.03833,0.03172,-0.0787
10.9,1.4511,0.03912,0.03261,-0.0775
11,1.4519,0.03992,0.03351,-0.0763
11.1,1.4524,0.04073,0.03445,-0.0751
11.2,1.4526,0.04156,0.03537,-0.0739
11.3,1.4526,0.0424,0.0363,-0.0728
11.4,1.4523,0.04327,0.03726,-0.0717
11.5,1.4517,0.04415,0.03823,-0.0706
11.6,1.4509,0.04505,0.0392,-0.0696
11.7,1.4498,0.04598,0.04022,-0.0686
11.8,1.4484,0.04694,0.04126,-0.0676
11.9,1.4466,0.04795,0.04235,-0.0667
12,1.4446,0.04898,0.04346,-0.0659
12.1,1.4423,0.05007,0.04462,-0.0651
12.2,1.4396,0.05121,0.04585,-0.0644
12.3,1.4367,0.0524,0.04711,-0.0638
12.4,1.4334,0.05363,0.04842,-0.0632
12.5,1.4298,0.05494,0.04981,-0.0628
12.6,1.4259,0.05632,0.05127,-0.0625
12.7,1.4217,0.05777,0.05279,-0.0623
12.8,1.4171,0.0593,0.0544,-0.0623
12.9,1.4123,0.06091,0.05609,-0.0624
13,1.4072,0.06261,0.05787,-0.0626
13.1,1.402,0.0644,0.05974,-0.0631
13.2,1.3965,0.0663,0.06173,-0.0637
13.3,1.3908,0.0683,0.0638,-0.0646
13.4,1.385,0.07042,0.066,-0.0657
13.5,1.3791,0.07266,0.06834,-0.0671
13.6,1.3731,0.07502,0.07079,-0.0687
13.7,1.3671,0.07753,0.07338,-0.0706
13.8,1.3609,0.08021,0.07616,-0.0729
13.9,1.3547,0.0831,0.07914,-0.0756
14,1.3486,0.08621,0.08236,-0.0786
14.1,1.3424,0.08962,0.08588,-0.0822
14.2,1.3363,0.0934,0.08977,-0.0864
14.3,1.33,0.09775,0.09425,-0.0913
14.5,1.314,0.11057,0.10742,-0.1057
14.9,1.2374,0.16929,0.16658,-0.1507
15,1.2387,0.17168,0.16897,-0.1524
15.1,1.2404,0.17375,0.17104,-0.154
15.2,1.2421,0.17583,0.17311,-0.1555
15.3,1.2441,0.17768,0.17497,-0.157
15.4,1.2462,0.17939,0.17668,-0.1583
15.5,1.2483,0.18098,0.17827,-0.1597
15.6,1.2507,0.1823,0.17959,-0.1609
15.7,1.253,0.1836,0.18089,-0.162
15.8,1.2552,0.18493,0.18223,-0.1632
15.9,1.2575,0.1859,0.1832,-0.1642
16,1.2595,0.18702,0.18432,-0.1652
16.2,1.257,0.2068,0.204,-0.1742
16.3,1.2596,0.20976,0.20696,-0.1759
16.4,1.2624,0.2124,0.2096,-0.1775
16.5,1.2652,0.21481,0.212,-0.1791
16.7,1.2717,0.21931,0.2165,-0.1825
16.8,1.2746,0.2212,0.2184,-0.1839
16.9,1.2776,0.22304,0.22024,-0.1853
17,1.2805,0.22484,0.22204,-0.1866
17.1,1.2835,0.2266,0.22381,-0.188
17.2,1.2865,0.22834,0.22555,-0.1893
17.3,1.2895,0.23,0.22722,-0.1906
17.4,1.2925,0.23167,0.22889,-0.192
17.5,1.2955,0.23334,0.23056,-0.1933
17.6,1.2985,0.23493,0.23216,-0.1946
17.7,1.3015,0.23653,0.23376,-0.1959
17.8,1.3044,0.23803,0.23527,-0.1972
17.9,1.3074,0.23958,0.23683,-0.1985
18,1.3103,0.24112,0.23837,-0.1997
18.1,1.3132,0.24263,0.23989,-0.201
18.2,1.3161,0.24406,0.24133,-0.2022
18.3,1.3189,0.24553,0.2428,-0.2035
18.4,1.3217,0.24697,0.24424,-0.2047
18.5,1.3244,0.2484,0.24568,-0.2059
18.6,1.327,0.24983,0.24712,-0.2071
18.7,1.3296,0.25132,0.24864,-0.2082
18.9,1.3411,0.2638,0.26102,-0.2139
19,1.345,0.26675,0.26398,-0.2155
19.1,1.3487,0.26926,0.26649,-0.2171
19.2,1.3523,0.27168,0.26891,-0.2186
19.3,1.3558,0.27393,0.27116,-0.2201
19.4,1.3594,0.2762,0.27346,-0.2216
19.5,1.3629,0.27834,0.2756,-0.2231
19.6,1.3663,0.28046,0.27773,-0.2246
19.7,1.3698,0.28254,0.27982,-0.226
19.8,1.3732,0.28458,0.28185,-0.2275
19.9,1.3766,0.28661,0.28389,-0.229
20,1.38,0.28861,0.2859,-0.2304
20.1,1.3834,0.2906,0.28789,-0.2319
20.2,1.3868,0.29256,0.28986,-0.2333
20.3,1.3901,0.29451,0.29181,-0.2348
20.4,1.3935,0.29645,0.29376,-0.2363
20.5,1.3968,0.29836,0.29567,-0.2377
20.6,1.4001,0.30029,0.29761,-0.2392
20.7,1.4034,0.3022,0.29953,-0.2407
20.8,1.4067,0.3041,0.30143,-0.2421
20.9,1.41,0.306,0.30333,-0.2436
21,1.4133,0.30787,0.30521,-0.2451
21.1,1.4165,0.30977,0.30712,-0.2465
21.2,1.4198,0.31164,0.30899,-0.248
21.3,1.423,0.31352,0.31088,-0.2495
21.4,1.4263,0.31541,0.31277,-0.251
21.5,1.4295,0.31726,0.31463,-0.2525
21.6,1.4327,0.31914,0.31652,-0.2539
21.7,1.4359,0.32101,0.31839,-0.2554
21.8,1.439,0.32287,0.32026,-0.2569
21.9,1.4422,0.3247,0.3221,-0.2584
22,1.4454,0.32662,0.32402,-0.2599
22.1,1.4485,0.32851,0.32592,-0.2614
22.2,1.4516,0.33034,0.32775,-0.2629
22.3,1.4548,0.33225,0.32967,-0.2644
22.4,1.4579,0.33412,0.33155,-0.266
22.5,1.4609,0.33599,0.33343,-0.2675
22.6,1.464,0.3379,0.33535,-0.269
22.7,1.4671,0.33974,0.33719,-0.2705
22.8,1.4701,0.34164,0.33913,-0.272
22.9,1.4731,0.34353,0.34102,-0.2735
23,1.4761,0.34543,0.34293,-0.2751
23.1,1.4792,0.34734,0.34484,-0.2766
23.2,1.4822,0.34929,0.3468,-0.2781
23.3,1.4851,0.35119,0.34871,-0.2797
23.4,1.4881,0.35312,0.35065,-0.2812
23.5,1.491,0.35506,0.3526,-0.2827
23.6,1.494,0.35701,0.35455,-0.2843
23.7,1.4969,0.35898,0.35653,-0.2858
23.8,1.4998,0.36094,0.3585,-0.2874
23.9,1.5027,0.36295,0.36052,-0.2889
24,1.5056,0.36495,0.36252,-0.2905
24.1,1.5084,0.36695,0.36453,-0.292
24.2,1.5113,0.36897,0.36657,-0.2936
24.3,1.5141,0.371,0.3686,-0.2951
24.4,1.5169,0.37308,0.37069,-0.2967
24.5,1.5197,0.37514,0.37276,-0.2982
24.6,1.5225,0.37721,0.37484,-0.2998
24.7,1.5252,0.37933,0.37696,-0.3013
24.8,1.5279,0.38144,0.37908,-0.3029
24.9,1.5306,0.38358,0.38123,-0.3044
25,1.5333,0.38574,0.3834,-0.306
25.1,1.536,0.38791,0.38558,-0.3075
25.2,1.5386,0.3901,0.38778,-0.309
25.3,1.5413,0.39233,0.39001,-0.3106
25.4,1.5439,0.39454,0.39224,-0.3121
25.5,1.557,0.40331,0.40093,-0.3174
25.6,1.5604,0.40592,0.40354,-0.3192
25.7,1.5636,0.40836,0.40599,-0.321
25.8,1.567,0.41094,0.40857,-0.3229
25.9,1.5702,0.41337,0.41101,-0.3247
26,1.5734,0.41573,0.41337,-0.3265
26.1,1.5764,0.41808,0.41572,-0.3284
26.2,1.5795,0.42039,0.41804,-0.3302
26.3,1.5825,0.42268,0.42036,-0.332
26.4,1.5854,0.42491,0.4226,-0.3338
26.5,1.5884,0.42717,0.42487,-0.3356
26.6,1.5913,0.4294,0.4271,-0.3374
26.7,1.5942,0.43164,0.42935,-0.3393
26.8,1.5971,0.43383,0.43155,-0.3411
26.9,1.5999,0.43604,0.43377,-0.3429
27,1.6027,0.43821,0.43595,-0.3447
27.1,1.6055,0.44039,0.43813,-0.3465
27.2,1.6082,0.44257,0.44032,-0.3484
27.3,1.6109,0.44476,0.44252,-0.3502
27.4,1.6137,0.4469,0.44466,-0.352
27.5,1.6163,0.44908,0.44686,-0.3539
27.6,1.619,0.45124,0.44903,-0.3557
27.7,1.6217,0.4534,0.45119,-0.3575
27.8,1.6243,0.45557,0.45337,-0.3594
27.9,1.6269,0.45771,0.45551,-0.3612
28,1.6294,0.45986,0.45767,-0.3631
28.1,1.632,0.46202,0.45984,-0.3649
28.2,1.6345,0.46418,0.46201,-0.3668
28.3,1.6371,0.46636,0.4642,-0.3686
28.4,1.6395,0.46851,0.46636,-0.3705
28.5,1.642,0.47066,0.46852,-0.3724
28.6,1.6445,0.47284,0.4707,-0.3743
28.7,1.6469,0.47496,0.47283,-0.3761
28.8,1.6494,0.47709,0.47497,-0.378
28.9,1.6518,0.4793,0.47719,-0.3799
29,1.6541,0.48143,0.47933,-0.3818
29.1,1.6565,0.48363,0.48154,-0.3837
29.2,1.6588,0.48578,0.4837,-0.3856
29.3,1.6612,0.48797,0.48589,-0.3875
29.4,1.6635,0.49016,0.48811,-0.3894
29.5,1.6658,0.49237,0.49033,-0.3913
29.6,1.6681,0.49457,0.49254,-0.3932
29.7,1.6703,0.49678,0.49476,-0.3952
29.8,1.6725,0.49896,0.49695,-0.3971
29.9,1.6747,0.50119,0.49919,-0.399
30,1.6769,0.50339,0.5014,-0.4009

