airfoilName st22.dat
Re 	570000
M 	5.000000e-02
N 	4.500000e+00
VACC 	0 VACCflag 1
XTR 	1.00 	1.00 XTRflag 0
alpha,cl,cd,cdp,cm
-29.3,-1.2098,0.51237,0.51079,0.2363
-29.2,-1.2075,0.5091,0.50752,0.2347
-29.1,-1.2053,0.5054,0.50381,0.2332
-29,-1.203,0.50185,0.50026,0.2317
-28.9,-1.2007,0.49859,0.49699,0.2302
-28.8,-1.1984,0.49497,0.49336,0.2287
-28.7,-1.1961,0.49164,0.49004,0.2272
-28.6,-1.1937,0.4883,0.48669,0.2257
-28.5,-1.1913,0.48525,0.48364,0.2241
-28.4,-1.1889,0.48185,0.48024,0.2226
-28.3,-1.1864,0.47891,0.47728,0.221
-28.2,-1.1839,0.47593,0.47431,0.2195
-28.1,-1.1813,0.47297,0.47134,0.2179
-28,-1.1787,0.47019,0.46856,0.2163
-27.9,-1.1761,0.46748,0.46584,0.2147
-27.8,-1.1734,0.46482,0.46317,0.213
-27.7,-1.1707,0.46216,0.46051,0.2114
-27.6,-1.1679,0.45964,0.45799,0.2098
-27.5,-1.1651,0.4571,0.45544,0.2082
-27.4,-1.1623,0.45468,0.45302,0.2065
-27.3,-1.1595,0.45223,0.45056,0.2048
-27.2,-1.1566,0.44984,0.44817,0.2032
-27.1,-1.1537,0.44748,0.4458,0.2015
-27,-1.1507,0.44517,0.44349,0.1999
-26.9,-1.1478,0.44288,0.4412,0.1982
-26.8,-1.1448,0.44061,0.43892,0.1966
-26.7,-1.1418,0.43836,0.43667,0.1949
-26.6,-1.1388,0.43614,0.43445,0.1932
-26.5,-1.1357,0.43394,0.43223,0.1916
-26.4,-1.1326,0.43175,0.43005,0.1899
-26.3,-1.1296,0.42957,0.42786,0.1883
-26.2,-1.1264,0.42742,0.4257,0.1866
-26.1,-1.1233,0.42529,0.42357,0.1849
-26,-1.1202,0.42314,0.42142,0.1833
-25.9,-1.117,0.42101,0.41929,0.1817
-25.8,-1.1138,0.4189,0.41717,0.18
-25.7,-1.1106,0.41679,0.41506,0.1784
-25.6,-1.1074,0.4147,0.41297,0.1767
-25.5,-1.1042,0.41261,0.41087,0.1751
-25.4,-1.101,0.4105,0.40876,0.1735
-25.3,-1.0977,0.40844,0.40669,0.1719
-25.2,-1.0945,0.40637,0.40462,0.1703
-25.1,-1.0912,0.40433,0.40258,0.1687
-25,-1.0879,0.40227,0.40051,0.167
-24.9,-1.0846,0.40021,0.39846,0.1655
-24.8,-1.0813,0.39815,0.39639,0.1639
-24.7,-1.078,0.39612,0.39434,0.1623
-24.6,-1.0747,0.39407,0.3923,0.1607
-24.5,-1.0713,0.39203,0.39025,0.1591
-24.4,-1.068,0.38999,0.38821,0.1576
-24.3,-1.0646,0.38797,0.38618,0.156
-24.2,-1.0612,0.38597,0.38418,0.1544
-24,-1.0541,0.38278,0.38098,0.1511
-23.9,-1.0507,0.38072,0.37892,0.1496
-23.8,-1.0473,0.37869,0.37689,0.148
-23.7,-1.0439,0.37665,0.37484,0.1465
-23.6,-1.0405,0.37462,0.37281,0.145
-23.5,-1.037,0.37259,0.37078,0.1435
-23.4,-1.0336,0.37057,0.36876,0.142
-23.3,-1.0301,0.36854,0.36672,0.1405
-23.2,-1.0266,0.36653,0.36471,0.139
-23.1,-1.0231,0.36452,0.3627,0.1375
-23,-1.0196,0.36254,0.36072,0.136
-22.9,-1.0161,0.3605,0.35868,0.1345
-22.8,-1.0126,0.35852,0.3567,0.1331
-22.7,-1.0091,0.35653,0.3547,0.1316
-22.6,-1.0055,0.35455,0.35272,0.1301
-22.5,-1.002,0.35257,0.35074,0.1287
-22.4,-0.9984,0.35059,0.34875,0.1272
-22.3,-0.9948,0.34864,0.3468,0.1258
-22.2,-0.9912,0.34665,0.34481,0.1243
-22.1,-0.9877,0.3447,0.34286,0.1229
-22,-0.984,0.34275,0.34091,0.1215
-21.9,-0.9804,0.3408,0.33895,0.12
-21.8,-0.9768,0.33885,0.33699,0.1186
-21.7,-0.9732,0.33691,0.33505,0.1172
-21.6,-0.9696,0.33497,0.3331,0.1158
-21.5,-0.9659,0.33305,0.33118,0.1144
-21.4,-0.9623,0.33114,0.32926,0.113
-21.3,-0.9586,0.32921,0.32734,0.1116
-21.2,-0.955,0.32732,0.32544,0.1102
-21.1,-0.9513,0.32541,0.32353,0.1088
-21,-0.9476,0.3235,0.32162,0.1075
-20.9,-0.9439,0.32162,0.31973,0.1061
-20.8,-0.9403,0.31974,0.31786,0.1047
-20.7,-0.9366,0.31783,0.31595,0.1034
-20.6,-0.9329,0.31598,0.31409,0.102
-20.5,-0.9292,0.31411,0.31221,0.1007
-20.4,-0.9255,0.31222,0.31033,0.0993
-20.3,-0.9217,0.31039,0.3085,0.098
-20.2,-0.918,0.30853,0.30663,0.0966
-20.1,-0.9143,0.30667,0.30478,0.0953
-20,-0.9106,0.30481,0.30291,0.094
-19.9,-0.9068,0.30301,0.30111,0.0927
-19.8,-0.903,0.30116,0.29926,0.0914
-19.7,-0.8993,0.29932,0.29742,0.0901
-19.6,-0.8955,0.29754,0.29564,0.0887
-19.5,-0.8917,0.29572,0.29381,0.0874
-19.4,-0.8879,0.29391,0.292,0.0861
-19.3,-0.8841,0.29209,0.29018,0.0849
-19.2,-0.8803,0.29028,0.28837,0.0836
-19.1,-0.8764,0.28851,0.2866,0.0822
-19,-0.8725,0.2867,0.28478,0.081
-18.9,-0.8686,0.28492,0.28301,0.0797
-18.8,-0.8647,0.28314,0.28123,0.0783
-18.7,-0.8609,0.28133,0.27939,0.0771
-18.6,-0.857,0.27952,0.27758,0.0758
-18.5,-0.853,0.27775,0.27581,0.0745
-18.4,-0.8491,0.27595,0.27402,0.0732
-18.3,-0.8451,0.27414,0.2722,0.0719
-18.2,-0.8411,0.27234,0.27041,0.0706
-18.1,-0.8371,0.2705,0.26856,0.0694
-18,-0.833,0.26864,0.26671,0.068
-17.9,-0.829,0.26674,0.2648,0.0668
-17.8,-0.8246,0.26474,0.26281,0.0653
-17.1,-0.8187,0.23413,0.23222,0.0622
-17,-0.8161,0.23175,0.22984,0.0615
-16.9,-0.8137,0.22926,0.22735,0.0609
-16.8,-0.8114,0.22681,0.22489,0.0602
-16.7,-0.8086,0.22463,0.22271,0.0594
-16.6,-0.8056,0.22261,0.22069,0.0585
-16.5,-0.8024,0.22071,0.21879,0.0576
-16.4,-0.7991,0.21889,0.21696,0.0567
-16.3,-0.7957,0.21711,0.21519,0.0557
-16.2,-0.7923,0.21539,0.21346,0.0547
-16.1,-0.7888,0.21368,0.21175,0.0537
-16,-0.7852,0.21198,0.21005,0.0527
-15.9,-0.7816,0.21032,0.20839,0.0517
-15.8,-0.778,0.20865,0.20671,0.0507
-15.7,-0.7743,0.20701,0.20507,0.0496
-15.6,-0.7707,0.20537,0.20343,0.0486
-15.5,-0.767,0.20373,0.20179,0.0476
-15.4,-0.7632,0.2021,0.20016,0.0466
-15.3,-0.7595,0.20047,0.19853,0.0456
-15.2,-0.7558,0.19884,0.1969,0.0445
-15.1,-0.752,0.19722,0.19528,0.0435
-15,-0.7483,0.1956,0.19364,0.0425
-14.9,-0.7445,0.19399,0.19203,0.0415
-14.8,-0.7407,0.19239,0.19043,0.0405
-14.7,-0.7369,0.19077,0.18881,0.0395
-14.6,-0.7331,0.18916,0.1872,0.0385
-14.5,-0.7293,0.18756,0.1856,0.0375
-14.4,-0.7255,0.18596,0.184,0.0365
-14.3,-0.7217,0.18436,0.18239,0.0355
-14.2,-0.7178,0.18276,0.1808,0.0345
-14.1,-0.7139,0.18115,0.17919,0.0335
-14,-0.71,0.17955,0.17759,0.0325
-13.9,-0.7061,0.17795,0.17599,0.0315
-13.8,-0.7022,0.17636,0.17439,0.0305
-13.7,-0.6983,0.17476,0.1728,0.0296
-13.6,-0.6944,0.17317,0.1712,0.0286
-13.4,-0.686,0.17026,0.1683,0.0262
-13.3,-0.6821,0.16864,0.16668,0.0252
-13.2,-0.6781,0.16703,0.16507,0.0243
-13.1,-0.6742,0.16542,0.16346,0.0233
-13,-0.6703,0.16381,0.16185,0.0224
-12.9,-0.6663,0.16221,0.16025,0.0214
-12.8,-0.6623,0.16059,0.15864,0.0205
-12.7,-0.6583,0.15898,0.15703,0.0195
-12.6,-0.6543,0.15737,0.15542,0.0186
-12.5,-0.6503,0.15577,0.15382,0.0177
-12.4,-0.6463,0.15416,0.15221,0.0167
-12.3,-0.6423,0.15256,0.1506,0.0158
-12.2,-0.6383,0.15094,0.14899,0.0148
-12.1,-0.6342,0.14934,0.14738,0.0139
-12,-0.6302,0.14771,0.14576,0.013
-11.9,-0.6261,0.14607,0.14412,0.0121
-11.8,-0.6221,0.14443,0.14248,0.0111
-11.7,-0.618,0.14277,0.14081,0.0102
-11.6,-0.6138,0.14105,0.13909,0.0093
-11.5,-0.6097,0.13927,0.13732,0.0083
-11.4,-0.6055,0.13741,0.13546,0.0073
-11.3,-0.6012,0.13546,0.13351,0.0063
-11.2,-0.5965,0.13333,0.13138,0.0053
-11.1,-0.591,0.13109,0.12914,0.0039
-11,-0.5852,0.12922,0.12728,0.0025
-10.8,-0.5735,0.12579,0.12388,-0.0006
-10.7,-0.5712,0.12401,0.12211,-0.001
-10.6,-0.5695,0.12217,0.12026,-0.0013
-10.5,-0.5673,0.12049,0.11859,-0.0018
-10.4,-0.5643,0.11902,0.11711,-0.0025
-10.3,-0.5611,0.11762,0.11572,-0.0032
-10.2,-0.5577,0.11629,0.11439,-0.0039
-10.1,-0.5541,0.11501,0.11311,-0.0046
-10,-0.5505,0.11376,0.11186,-0.0054
-9.9,-0.5469,0.11253,0.11064,-0.0061
-9.8,-0.5433,0.11134,0.10945,-0.0068
-9.7,-0.5398,0.11015,0.10826,-0.0075
-9.6,-0.5363,0.109,0.10712,-0.0082
-9.5,-0.5331,0.10787,0.10599,-0.0088
-9.4,-0.5301,0.10677,0.1049,-0.0093
-9.3,-0.5274,0.10571,0.10384,-0.0098
-9.2,-0.5255,0.10471,0.10285,-0.01
-9.1,-0.5244,0.10381,0.10195,-0.0101
-9,-0.5245,0.10301,0.10117,-0.0098
-8.9,-0.5262,0.10236,0.10054,-0.009
-8.7,-0.5231,0.10047,0.09866,-0.0095
-8.6,-0.5149,0.0989,0.09709,-0.0116
-8.5,-0.5058,0.09725,0.09543,-0.0139
-8.4,-0.4964,0.0956,0.09378,-0.0163
-8.3,-0.4869,0.09395,0.09212,-0.0187
-8.2,-0.4771,0.09228,0.09044,-0.0211
-8.1,-0.4674,0.09061,0.08876,-0.0235
-8,-0.4579,0.08896,0.08709,-0.0259
-7.9,-0.4479,0.08728,0.0854,-0.0283
-7.8,-0.4375,0.08558,0.08369,-0.0309
-7.7,-0.4258,0.08375,0.08185,-0.0339
-7.6,-0.4146,0.08195,0.08003,-0.0366
-7.5,-0.4031,0.0801,0.07818,-0.0395
-7.3,-0.3815,0.07654,0.07459,-0.0446
-7.2,-0.3703,0.07473,0.07277,-0.0472
-6.2,-0.1613,0.01812,0.01441,-0.121
-6.1,-0.1479,0.01697,0.01307,-0.1221
-6,-0.1348,0.01614,0.01209,-0.123
-5.9,-0.1227,0.01546,0.01129,-0.1236
-5.8,-0.1113,0.0149,0.01061,-0.1239
-5.7,-0.0996,0.01438,0.00999,-0.1243
-5.6,-0.0878,0.01391,0.00942,-0.1246
-5.5,-0.0759,0.01348,0.0089,-0.1249
-5.4,-0.0639,0.01309,0.00841,-0.1253
-5.3,-0.0518,0.01272,0.00796,-0.1256
-5.2,-0.0397,0.01238,0.00754,-0.1259
-5.1,-0.0274,0.01205,0.00713,-0.1262
-5,-0.0152,0.01176,0.00676,-0.1265
-4.9,-0.0031,0.01148,0.00641,-0.1268
-4.8,0.008,0.01124,0.00609,-0.1268
-4.7,0.0193,0.011,0.00579,-0.1269
-4.6,0.0308,0.01079,0.00552,-0.127
-4.5,0.0424,0.0106,0.00528,-0.1271
-4.4,0.054,0.01043,0.00506,-0.1272
-4.3,0.0655,0.01033,0.00494,-0.1273
-4.2,0.0776,0.00998,0.00453,-0.1275
-4.1,0.0895,0.00976,0.00428,-0.1277
-4,0.1006,0.00959,0.00407,-0.1276
-3.9,0.1118,0.00944,0.0039,-0.1276
-3.8,0.1231,0.0093,0.00372,-0.1276
-3.7,0.1346,0.00916,0.00355,-0.1277
-3.6,0.1462,0.00903,0.00336,-0.1277
-3.5,0.1578,0.0089,0.00319,-0.1277
-3.4,0.1691,0.0088,0.00306,-0.1277
-3.3,0.1805,0.00867,0.00291,-0.1278
-3.2,0.1918,0.00853,0.00275,-0.1278
-3.1,0.2033,0.00843,0.00263,-0.1278
-3,0.2146,0.00834,0.00253,-0.1278
-2.9,0.2259,0.00826,0.00242,-0.1277
-2.8,0.2373,0.00819,0.00233,-0.1277
-2.7,0.2486,0.00812,0.00225,-0.1278
-2.6,0.2598,0.00804,0.00216,-0.1277
-2.5,0.2712,0.00798,0.0021,-0.1277
-2.4,0.2824,0.00792,0.00201,-0.1277
-2.3,0.2937,0.00788,0.00194,-0.1277
-2.2,0.3049,0.00781,0.00188,-0.1276
-2.1,0.3163,0.00776,0.00183,-0.1277
-2,0.3275,0.00772,0.00183,-0.1277
-1.9,0.3387,0.00766,0.00177,-0.1276
-1.8,0.35,0.00762,0.00172,-0.1276
-1.7,0.3612,0.00758,0.00167,-0.1276
-1.6,0.3725,0.00755,0.00163,-0.1276
-1.5,0.3838,0.0075,0.00159,-0.1276
-1.4,0.395,0.00747,0.00155,-0.1275
-1.3,0.4054,0.00745,0.0015,-0.1272
-1.2,0.4165,0.00742,0.00145,-0.1271
-1.1,0.4278,0.00739,0.00143,-0.1271
-1,0.4389,0.00737,0.0014,-0.1271
-0.9,0.4497,0.00737,0.00135,-0.1269
-0.8,0.461,0.00734,0.00134,-0.1269
-0.7,0.472,0.00733,0.00132,-0.1268
-0.6,0.4831,0.00732,0.0013,-0.1268
-0.5,0.494,0.00731,0.00128,-0.1266
-0.4,0.5051,0.0073,0.00127,-0.1266
-0.3,0.5164,0.0073,0.00126,-0.1266
-0.2,0.5272,0.0073,0.00124,-0.1264
-0.1,0.5384,0.00729,0.00124,-0.1264
0,0.5492,0.00732,0.00122,-0.1262
0.2,0.5713,0.00732,0.00122,-0.1261
0.3,0.582,0.00736,0.00122,-0.1259
0.4,0.593,0.00736,0.00123,-0.1259
0.5,0.6039,0.00739,0.00123,-0.1258
0.6,0.6149,0.00741,0.00123,-0.1257
0.7,0.6248,0.00751,0.00124,-0.1254
0.8,0.6357,0.00754,0.00125,-0.1253
0.9,0.6465,0.00758,0.00126,-0.1252
1,0.6573,0.00762,0.00128,-0.1251
1.1,0.6677,0.00769,0.0013,-0.1249
1.2,0.6772,0.00786,0.00134,-0.1245
1.3,0.6872,0.00799,0.00138,-0.1243
1.4,0.6971,0.00813,0.00144,-0.124
1.5,0.7071,0.00827,0.0015,-0.1238
1.6,0.7174,0.00838,0.00154,-0.1236
1.7,0.7264,0.00863,0.00164,-0.1233
1.8,0.7366,0.00876,0.0017,-0.1231
1.9,0.7467,0.0089,0.00177,-0.123
2,0.7568,0.00904,0.00184,-0.1228
2.1,0.7653,0.0094,0.00198,-0.1224
2.2,0.7751,0.00957,0.00207,-0.1223
2.4,0.7887,0.00857,0.00233,-0.1209
2.5,0.7985,0.0088,0.00243,-0.1207
2.6,0.8078,0.00911,0.00257,-0.1204
2.7,0.8182,0.00923,0.00264,-0.1203
2.8,0.8287,0.00935,0.00271,-0.1202
2.9,0.8392,0.00947,0.00279,-0.1201
3,0.8498,0.00957,0.00288,-0.12
3.1,0.8599,0.00974,0.00297,-0.1198
3.2,0.8704,0.00985,0.00305,-0.1197
3.3,0.881,0.00994,0.00312,-0.1196
3.4,0.8915,0.01005,0.0032,-0.1195
3.5,0.9021,0.01015,0.00327,-0.1194
3.6,0.9123,0.0103,0.00336,-0.1192
3.7,0.9227,0.01041,0.00343,-0.1191
3.8,0.9332,0.01051,0.00352,-0.119
3.9,0.9437,0.01062,0.00359,-0.1189
4,0.9538,0.01077,0.00369,-0.1187
4.1,0.9641,0.0109,0.00379,-0.1186
4.2,0.9746,0.011,0.00387,-0.1185
4.3,0.9849,0.01112,0.00396,-0.1184
4.4,0.9952,0.01123,0.00409,-0.1182
4.5,1.0056,0.01134,0.00418,-0.1181
4.6,1.0155,0.01151,0.0043,-0.1179
4.7,1.0257,0.01164,0.0044,-0.1177
4.8,1.0359,0.01177,0.00452,-0.1176
4.9,1.0462,0.01189,0.00462,-0.1174
5,1.0562,0.01204,0.00473,-0.1173
5.1,1.0664,0.01216,0.00486,-0.1171
5.2,1.0762,0.01235,0.00498,-0.1169
5.3,1.0863,0.01248,0.00511,-0.1167
5.4,1.0964,0.01261,0.00523,-0.1166
5.5,1.1064,0.01275,0.00536,-0.1164
5.6,1.1163,0.01291,0.00551,-0.1162
5.7,1.1265,0.01303,0.00564,-0.116
5.8,1.1365,0.01317,0.0058,-0.1158
5.9,1.1464,0.01332,0.00594,-0.1156
6,1.1562,0.01349,0.0061,-0.1154
6.1,1.1662,0.01363,0.00626,-0.1152
6.2,1.1761,0.01376,0.0064,-0.115
6.3,1.1858,0.01393,0.00656,-0.1148
6.4,1.1955,0.01411,0.00672,-0.1145
6.5,1.2051,0.01429,0.00692,-0.1143
6.6,1.215,0.01443,0.00708,-0.114
6.7,1.2247,0.01459,0.00723,-0.1138
6.8,1.2344,0.01476,0.00741,-0.1136
6.9,1.2439,0.01494,0.00759,-0.1133
7,1.2533,0.01514,0.00777,-0.1131
7.1,1.2629,0.0153,0.00798,-0.1128
7.2,1.2725,0.01547,0.00816,-0.1126
7.3,1.2819,0.01565,0.00835,-0.1123
7.4,1.2913,0.01585,0.00855,-0.112
7.5,1.3004,0.01607,0.00878,-0.1117
7.6,1.3099,0.01625,0.00899,-0.1114
7.7,1.3193,0.01643,0.00919,-0.1111
7.8,1.3286,0.01662,0.0094,-0.1108
7.9,1.3378,0.01681,0.00962,-0.1105
8,1.3469,0.01702,0.00984,-0.1102
8.1,1.3559,0.01725,0.01009,-0.1099
8.2,1.3646,0.01752,0.01037,-0.1095
8.3,1.3737,0.01773,0.01061,-0.1092
8.4,1.3827,0.01795,0.01086,-0.1088
8.5,1.3915,0.01817,0.01115,-0.1085
8.6,1.4003,0.01841,0.01142,-0.1081
8.7,1.409,0.01865,0.0117,-0.1077
8.8,1.4176,0.01891,0.01198,-0.1073
8.9,1.426,0.01918,0.01228,-0.1069
9,1.4342,0.01948,0.01261,-0.1064
9.1,1.442,0.01984,0.01301,-0.1059
9.2,1.4496,0.02023,0.01342,-0.1053
9.4,1.4673,0.02055,0.01381,-0.1047
9.5,1.4753,0.02085,0.01415,-0.1042
9.6,1.4831,0.02116,0.0145,-0.1037
9.7,1.4909,0.02147,0.01486,-0.1032
9.8,1.4985,0.0218,0.01523,-0.1026
9.9,1.5059,0.02213,0.01561,-0.1021
10,1.5132,0.02248,0.016,-0.1015
10.1,1.5203,0.02285,0.01643,-0.1009
10.2,1.527,0.02325,0.01689,-0.1003
10.3,1.5334,0.02369,0.01738,-0.0996
10.4,1.5392,0.02419,0.01793,-0.0988
10.5,1.5441,0.02478,0.0186,-0.0978
10.6,1.5477,0.0255,0.0194,-0.0967
10.7,1.5532,0.02595,0.01989,-0.0959
10.8,1.5597,0.02629,0.02029,-0.0952
10.9,1.5657,0.02666,0.02072,-0.0945
11,1.5711,0.02707,0.02119,-0.0937
11.1,1.5763,0.02749,0.02167,-0.0928
11.2,1.5808,0.02793,0.02218,-0.0918
11.3,1.5849,0.02839,0.02271,-0.0908
11.4,1.5882,0.02886,0.02324,-0.0896
11.5,1.5908,0.02934,0.02379,-0.0884
11.6,1.5929,0.02985,0.02437,-0.087
11.7,1.595,0.03038,0.02496,-0.0857
11.8,1.5966,0.03094,0.02559,-0.0844
11.9,1.5982,0.0315,0.02622,-0.0831
12,1.5994,0.03209,0.02689,-0.0818
12.1,1.6004,0.03272,0.02759,-0.0805
12.2,1.6013,0.03335,0.02828,-0.0793
12.3,1.6016,0.03403,0.02904,-0.078
12.4,1.6017,0.03473,0.02981,-0.0767
12.5,1.6016,0.03545,0.03061,-0.0755
12.6,1.6012,0.03621,0.03146,-0.0743
12.7,1.6003,0.03701,0.03234,-0.0731
12.8,1.5993,0.03784,0.03325,-0.0719
12.9,1.5982,0.03869,0.03417,-0.0708
13,1.5962,0.03962,0.03518,-0.0697
13.1,1.5943,0.04056,0.03619,-0.0687
13.2,1.5922,0.04153,0.03724,-0.0678
13.3,1.5892,0.04261,0.0384,-0.0669
13.4,1.5861,0.04373,0.0396,-0.0661
13.5,1.5832,0.04486,0.04081,-0.0654
13.6,1.5793,0.04611,0.04214,-0.0647
13.7,1.5753,0.0474,0.04351,-0.0642
13.8,1.5707,0.0488,0.04499,-0.0638
13.9,1.566,0.05026,0.04653,-0.0636
14,1.5613,0.05178,0.04813,-0.0635
14.1,1.5557,0.05348,0.04991,-0.0636
14.2,1.5497,0.05528,0.05179,-0.0639
14.3,1.5436,0.05717,0.05377,-0.0644
14.4,1.5369,0.05923,0.05591,-0.0652
14.5,1.5297,0.06149,0.05826,-0.0663
14.6,1.5228,0.06385,0.06071,-0.0678
14.7,1.5147,0.06657,0.06352,-0.0697
14.8,1.5063,0.06958,0.06663,-0.0721
14.9,1.4978,0.07289,0.07004,-0.0751
15,1.4882,0.07684,0.07411,-0.079
15.1,1.4778,0.08159,0.07897,-0.084
15.2,1.4655,0.08785,0.08538,-0.0909
15.3,1.4494,0.09747,0.09521,-0.1013
15.4,1.4269,0.11034,0.1083,-0.1133
15.5,1.407,0.12062,0.11868,-0.1221
15.6,1.39,0.12943,0.12758,-0.1294
15.7,1.3765,0.13693,0.13515,-0.1354
15.8,1.3648,0.14378,0.14207,-0.1408
15.9,1.3538,0.15052,0.14886,-0.1461
16,1.344,0.15683,0.15522,-0.1511
16.1,1.3356,0.16284,0.16128,-0.1558
16.2,1.3261,0.16977,0.16825,-0.161
18.3,1.3337,0.24729,0.24589,-0.2093
18.4,1.3366,0.24888,0.24748,-0.2107
18.5,1.3394,0.25042,0.24903,-0.212
18.6,1.3422,0.25201,0.25064,-0.2134
18.7,1.3448,0.25358,0.25221,-0.2148
18.8,1.347,0.25518,0.25381,-0.2161
18.9,1.3487,0.25712,0.25573,-0.2173
19,1.353,0.26114,0.25975,-0.2192
19.1,1.3571,0.26463,0.26324,-0.2209
19.2,1.3611,0.26813,0.26673,-0.2226
19.3,1.3648,0.27118,0.26979,-0.2242
19.4,1.3688,0.27472,0.27332,-0.2259
19.5,1.3724,0.27737,0.27598,-0.2274
19.6,1.376,0.28006,0.27867,-0.2289
19.7,1.3794,0.28248,0.28109,-0.2304
19.8,1.3829,0.28482,0.28342,-0.2318
19.9,1.3864,0.28723,0.28584,-0.2333
20,1.3898,0.2895,0.28811,-0.2348
20.1,1.3932,0.29173,0.29034,-0.2363
20.2,1.3966,0.29387,0.29249,-0.2377
20.3,1.4,0.29605,0.29467,-0.2392
20.4,1.4033,0.2981,0.29672,-0.2407
20.5,1.4068,0.30034,0.29896,-0.2422
20.6,1.4101,0.3024,0.30103,-0.2436
20.7,1.4135,0.30448,0.30311,-0.2451
20.8,1.4169,0.30659,0.30523,-0.2466
20.9,1.4202,0.30863,0.30727,-0.2481
21,1.4235,0.3107,0.30933,-0.2496
21.1,1.4268,0.31274,0.31139,-0.2511
21.2,1.4301,0.31478,0.31342,-0.2526
21.3,1.4334,0.31681,0.31546,-0.2541
21.4,1.4368,0.31885,0.3175,-0.2556
21.5,1.4401,0.32089,0.31954,-0.2572
21.6,1.4433,0.3229,0.32156,-0.2587
21.7,1.4466,0.32492,0.32358,-0.2602
21.8,1.4499,0.32694,0.32561,-0.2617
21.9,1.4532,0.32895,0.32762,-0.2633
22,1.4564,0.33095,0.32962,-0.2648
22.1,1.4596,0.33296,0.33164,-0.2663
22.2,1.4629,0.33496,0.33364,-0.2679
22.3,1.4661,0.33696,0.33565,-0.2694
22.4,1.4693,0.33896,0.33765,-0.271
22.5,1.4725,0.34096,0.33965,-0.2726
22.6,1.4757,0.34295,0.34165,-0.2741
22.7,1.4789,0.34494,0.34364,-0.2757
22.8,1.4821,0.34693,0.34563,-0.2773
22.9,1.4854,0.34866,0.34738,-0.2791
23,1.4886,0.3506,0.34933,-0.2807
23.1,1.4917,0.35254,0.35127,-0.2823
23.2,1.4949,0.3545,0.35323,-0.2839
23.3,1.498,0.35644,0.35518,-0.2855
23.4,1.501,0.35837,0.35711,-0.2871
23.5,1.5041,0.36029,0.35904,-0.2887
23.6,1.5072,0.3622,0.36095,-0.2904
23.7,1.5103,0.36413,0.36289,-0.292
23.8,1.5133,0.36606,0.36482,-0.2936
23.9,1.5164,0.368,0.36676,-0.2953
24,1.5194,0.36991,0.36867,-0.2969
24.1,1.5224,0.37177,0.37055,-0.2986
24.2,1.5254,0.37371,0.37249,-0.3002
24.3,1.5283,0.37559,0.37438,-0.3019
24.4,1.5313,0.37748,0.37626,-0.3035
24.5,1.5342,0.37937,0.37816,-0.3052
24.6,1.5371,0.38126,0.38006,-0.3069
24.7,1.54,0.38314,0.38194,-0.3085
24.8,1.5429,0.38502,0.38383,-0.3102
24.9,1.5458,0.38687,0.38568,-0.3119
25,1.5486,0.38875,0.38757,-0.3136
25.1,1.5515,0.39065,0.38947,-0.3153
25.2,1.5543,0.39251,0.39133,-0.317
25.3,1.557,0.39435,0.39318,-0.3187
25.4,1.5598,0.39626,0.3951,-0.3204
25.5,1.5625,0.39808,0.39692,-0.322
25.6,1.5652,0.39996,0.39881,-0.3237
25.7,1.568,0.40191,0.40076,-0.3254
25.8,1.5706,0.40374,0.4026,-0.3271
25.9,1.5733,0.40564,0.4045,-0.3288
26,1.5759,0.40756,0.40643,-0.3305
26.1,1.5785,0.40953,0.40842,-0.3322
26.2,1.581,0.4115,0.41039,-0.3339
26.3,1.5835,0.41359,0.41249,-0.3356
26.4,1.5862,0.41568,0.41458,-0.3373
26.5,1.5885,0.41785,0.41676,-0.3389
26.6,1.591,0.42011,0.41902,-0.3406
26.7,1.5931,0.42278,0.4217,-0.3421
26.8,1.5957,0.42505,0.42397,-0.3438
26.9,1.5979,0.42778,0.42671,-0.3453
27,1.6002,0.43044,0.42938,-0.3468
27.1,1.6026,0.43308,0.43202,-0.3484
27.2,1.605,0.4356,0.43454,-0.35
27.3,1.6074,0.43805,0.437,-0.3517
27.4,1.6097,0.44068,0.43963,-0.3532
28,1.5099,0.52183,0.52071,-0.3418

