airfoilName st23.dat
Re 	1.300000e+05
M 	5.000000e-02
N 	4.500000e+00
VACC 	0 VACCflag 1
XTR 	1.00 	1.00 XTRflag 0
alpha,cl,cd,cdp,cm
-27.5,-1.1404,0.46226,0.45833,0.2009
-27.4,-1.1376,0.45988,0.45591,0.1993
-27.3,-1.1347,0.45752,0.45355,0.1976
-27.2,-1.1318,0.45517,0.45119,0.196
-27.1,-1.1289,0.45282,0.44883,0.1944
-27,-1.1259,0.45047,0.44648,0.1927
-26.9,-1.123,0.44813,0.44413,0.1911
-26.8,-1.12,0.44579,0.44179,0.1895
-26.7,-1.1171,0.44347,0.43946,0.1879
-26.6,-1.1141,0.44115,0.43713,0.1863
-26.5,-1.1111,0.43883,0.4348,0.1847
-26.4,-1.1081,0.43651,0.43248,0.1831
-26.3,-1.1051,0.4342,0.43017,0.1815
-26.2,-1.102,0.4319,0.42785,0.1799
-26.1,-1.099,0.42961,0.42555,0.1784
-26,-1.096,0.42732,0.42326,0.1768
-25.9,-1.0929,0.42503,0.42096,0.1752
-25.8,-1.0898,0.42275,0.41867,0.1737
-25.7,-1.0867,0.42047,0.41639,0.1721
-25.6,-1.0836,0.4182,0.41412,0.1706
-25.5,-1.0805,0.41593,0.41184,0.1691
-25.4,-1.0774,0.41367,0.40957,0.1675
-25.3,-1.0743,0.41141,0.4073,0.166
-25.2,-1.0712,0.40916,0.40504,0.1645
-25.1,-1.068,0.40691,0.40279,0.163
-25,-1.0648,0.40467,0.40054,0.1615
-24.9,-1.0617,0.40243,0.39829,0.16
-24.8,-1.0585,0.4002,0.39606,0.1585
-24.7,-1.0553,0.39797,0.3938,0.157
-24.6,-1.0521,0.39575,0.39157,0.1555
-24.5,-1.0489,0.39353,0.38935,0.154
-24.4,-1.0457,0.39131,0.38713,0.1525
-24.3,-1.0424,0.3891,0.38491,0.1511
-24.2,-1.0392,0.3869,0.3827,0.1496
-24.1,-1.0359,0.3847,0.38049,0.1481
-24,-1.0327,0.38251,0.37829,0.1467
-23.9,-1.0294,0.38032,0.3761,0.1453
-23.8,-1.0261,0.37814,0.37392,0.1438
-23.7,-1.0228,0.37597,0.37174,0.1424
-23.6,-1.0195,0.37378,0.36955,0.141
-23.5,-1.0162,0.37162,0.36738,0.1395
-23.4,-1.0129,0.36945,0.36521,0.1381
-23.3,-1.0096,0.36729,0.36304,0.1367
-23.2,-1.0062,0.36514,0.36088,0.1353
-23.1,-1.0029,0.363,0.35874,0.1339
-23,-0.9995,0.36084,0.35658,0.1325
-22.9,-0.9962,0.35872,0.35444,0.1311
-22.8,-0.9928,0.35659,0.35231,0.1297
-22.7,-0.9894,0.35446,0.35017,0.1284
-22.6,-0.986,0.35233,0.34805,0.127
-22.5,-0.9826,0.35022,0.34593,0.1256
-22.4,-0.9792,0.34811,0.34381,0.1243
-22.3,-0.9757,0.34601,0.34171,0.1229
-22.2,-0.9723,0.34391,0.3396,0.1215
-22.1,-0.9689,0.34182,0.33751,0.1202
-22,-0.9654,0.33974,0.33542,0.1188
-21.9,-0.9619,0.33765,0.33333,0.1175
-21.8,-0.9585,0.33558,0.33123,0.1161
-21.7,-0.955,0.33351,0.32916,0.1148
-21.6,-0.9515,0.33145,0.32709,0.1134
-21.5,-0.948,0.32939,0.32502,0.1121
-21.4,-0.9444,0.32734,0.32296,0.1108
-21.3,-0.9409,0.32529,0.32092,0.1094
-21.2,-0.9374,0.32325,0.31887,0.1081
-21.1,-0.9338,0.32121,0.31683,0.1068
-21,-0.9302,0.31918,0.3148,0.1054
-20.9,-0.9267,0.31716,0.31277,0.1041
-20.8,-0.9231,0.31514,0.31074,0.1028
-20.7,-0.9195,0.31313,0.30873,0.1014
-20.6,-0.9158,0.31112,0.30672,0.1001
-20.5,-0.9122,0.30911,0.30471,0.0988
-20.4,-0.9086,0.30711,0.3027,0.0974
-20.3,-0.9049,0.3051,0.30069,0.0961
-20.2,-0.9012,0.30309,0.29868,0.0947
-20.1,-0.8976,0.30109,0.29667,0.0934
-20,-0.8938,0.29907,0.29465,0.092
-19.9,-0.8901,0.29704,0.29262,0.0907
-19.8,-0.8864,0.295,0.29058,0.0893
-19.7,-0.8825,0.29293,0.2885,0.0879
-19.6,-0.8787,0.29083,0.28641,0.0866
-19.5,-0.8748,0.28871,0.28428,0.0852
-19.4,-0.8709,0.28652,0.28209,0.0839
-19.3,-0.8669,0.2843,0.27986,0.0825
-19.2,-0.8627,0.28195,0.27751,0.0811
-18.9,-0.8457,0.27381,0.26943,0.0753
-18.8,-0.8424,0.27177,0.2674,0.0743
-18.7,-0.8392,0.26977,0.26538,0.0733
-18.6,-0.8359,0.26776,0.26337,0.0723
-18.5,-0.8327,0.26577,0.26138,0.0713
-18.4,-0.8295,0.2638,0.25938,0.0703
-18.3,-0.8262,0.26185,0.25742,0.0693
-18.2,-0.8229,0.25991,0.25548,0.0683
-18.1,-0.8196,0.25799,0.25355,0.0672
-18,-0.8163,0.25608,0.25164,0.0662
-17.9,-0.8129,0.25418,0.24973,0.0652
-17.8,-0.8096,0.25228,0.24784,0.0642
-17.7,-0.8062,0.25041,0.24596,0.0632
-17.6,-0.8029,0.24854,0.24408,0.0622
-17.5,-0.7995,0.24667,0.24222,0.0612
-17.4,-0.7961,0.24482,0.24036,0.0602
-17.3,-0.7927,0.24298,0.23852,0.0592
-17.2,-0.7893,0.24114,0.23668,0.0582
-17.1,-0.7859,0.23931,0.23485,0.0572
-17,-0.7824,0.23749,0.23302,0.0562
-16.9,-0.779,0.23568,0.2312,0.0552
-16.8,-0.7755,0.23387,0.2294,0.0542
-16.7,-0.7721,0.23208,0.2276,0.0532
-16.6,-0.7686,0.23029,0.22581,0.0522
-16.5,-0.7652,0.2285,0.22402,0.0512
-16.4,-0.7617,0.22673,0.22224,0.0502
-16.3,-0.7582,0.22495,0.22047,0.0492
-16.2,-0.7548,0.22319,0.21871,0.0483
-16.1,-0.7513,0.22143,0.21694,0.0473
-16,-0.7478,0.21968,0.21519,0.0463
-15.9,-0.7443,0.21793,0.21344,0.0454
-15.8,-0.7408,0.21618,0.21169,0.0444
-15.7,-0.7373,0.21444,0.20995,0.0435
-15.6,-0.7338,0.21271,0.20821,0.0425
-15.5,-0.7303,0.21098,0.20648,0.0416
-15.4,-0.7268,0.20926,0.20476,0.0406
-15.3,-0.7232,0.20753,0.20304,0.0397
-15.2,-0.7197,0.20582,0.20129,0.0388
-15.1,-0.7162,0.2041,0.19957,0.0378
-15,-0.7126,0.20239,0.19786,0.0369
-14.9,-0.7091,0.20069,0.19616,0.036
-14.8,-0.7055,0.19899,0.19446,0.0351
-14.7,-0.702,0.19729,0.19276,0.0342
-14.6,-0.6984,0.1956,0.19107,0.0333
-14.5,-0.6948,0.19391,0.18938,0.0324
-14.4,-0.6913,0.19222,0.18769,0.0314
-14.3,-0.6877,0.19054,0.18602,0.0306
-14.2,-0.6841,0.18887,0.18434,0.0297
-14.1,-0.6806,0.18719,0.18266,0.0288
-14,-0.677,0.18551,0.18098,0.0279
-13.9,-0.6734,0.18383,0.17931,0.027
-13.8,-0.6698,0.18216,0.17763,0.0261
-13.7,-0.6662,0.18048,0.17596,0.0252
-13.6,-0.6626,0.1788,0.17428,0.0243
-13.5,-0.6589,0.17712,0.1726,0.0234
-13.4,-0.6553,0.17543,0.17091,0.0225
-13.3,-0.6516,0.17374,0.16922,0.0216
-13.2,-0.648,0.17205,0.16753,0.0208
-13.1,-0.6443,0.17035,0.16584,0.0199
-13,-0.6406,0.16864,0.16413,0.019
-12.9,-0.6369,0.16693,0.16241,0.0181
-12.8,-0.6332,0.1652,0.16069,0.0172
-12.7,-0.6295,0.16345,0.15894,0.0162
-12.6,-0.6257,0.16168,0.15718,0.0153
-12.5,-0.6219,0.1599,0.15539,0.0144
-12.4,-0.618,0.15805,0.15355,0.0134
-12.3,-0.614,0.15614,0.15164,0.0123
-12.2,-0.6098,0.15412,0.14962,0.0112
-12.1,-0.6051,0.15185,0.14736,0.0096
-12,-0.5987,0.14909,0.14467,0.0059
-11.9,-0.5955,0.1474,0.14298,0.0053
-11.8,-0.5924,0.14574,0.14133,0.0048
-11.7,-0.5892,0.14412,0.1397,0.0043
-11.5,-0.5836,0.14124,0.1368,0.0035
-11.4,-0.5803,0.13974,0.1353,0.0028
-11.3,-0.5769,0.13825,0.13381,0.0022
-11.2,-0.5736,0.13678,0.13234,0.0016
-11.1,-0.5702,0.13532,0.13089,0.0009
-11,-0.5669,0.13387,0.12944,0.0002
-10.9,-0.5635,0.13244,0.12801,-0.0004
-10.8,-0.5601,0.13102,0.1266,-0.0011
-10.7,-0.5567,0.12961,0.12519,-0.0018
-10.6,-0.5533,0.12821,0.12379,-0.0025
-10.5,-0.5499,0.12682,0.12241,-0.0031
-10.4,-0.5465,0.12544,0.12103,-0.0038
-10.3,-0.5431,0.12407,0.11967,-0.0045
-10.2,-0.5397,0.12271,0.11831,-0.0052
-10.1,-0.5364,0.12136,0.11697,-0.0058
-10,-0.533,0.12002,0.11563,-0.0065
-9.9,-0.5296,0.11868,0.1143,-0.0072
-9.8,-0.5263,0.11736,0.11299,-0.0078
-9.7,-0.5231,0.11604,0.11168,-0.0085
-9.6,-0.5199,0.11474,0.11038,-0.0091
-9.5,-0.5167,0.11345,0.1091,-0.0098
-9.4,-0.5136,0.11217,0.10783,-0.0104
-9.3,-0.5106,0.1109,0.10657,-0.011
-9.2,-0.5077,0.10965,0.10533,-0.0115
-9.1,-0.505,0.10841,0.1041,-0.0121
-9,-0.5024,0.10719,0.1029,-0.0126
-8.9,-0.5,0.106,0.10171,-0.013
-8.8,-0.4978,0.10483,0.10056,-0.0134
-8.7,-0.4959,0.10369,0.09943,-0.0138
-8.6,-0.4942,0.10256,0.09832,-0.0141
-8.5,-0.4927,0.10145,0.09722,-0.0144
-8.4,-0.4909,0.10031,0.0961,-0.0147
-8.3,-0.4885,0.09912,0.09492,-0.0152
-8.2,-0.4862,0.09793,0.09375,-0.0157
-8.1,-0.484,0.09675,0.09258,-0.0162
-8,-0.4818,0.09557,0.09139,-0.0167
-7.9,-0.4797,0.09439,0.09022,-0.0172
-7.8,-0.4777,0.09321,0.08906,-0.0176
-7.7,-0.4758,0.09203,0.0879,-0.018
-7.6,-0.4739,0.09084,0.08673,-0.0185
-7.5,-0.4721,0.08965,0.08555,-0.0189
-7.4,-0.4703,0.08845,0.08437,-0.0193
-7.3,-0.4686,0.08723,0.08317,-0.0197
-7.2,-0.4668,0.086,0.08195,-0.0201
-7.1,-0.465,0.08473,0.0807,-0.0205
-7,-0.4632,0.08343,0.07941,-0.021
-6.9,-0.4611,0.08205,0.07805,-0.0216
-6.8,-0.4589,0.0806,0.0766,-0.0222
-6.7,-0.4564,0.079,0.07502,-0.0231
-6.6,-0.4474,0.07636,0.07235,-0.026
-6.5,-0.4236,0.06982,0.06577,-0.0356
-6.4,-0.4136,0.0684,0.06433,-0.0373
-6.3,-0.4019,0.06691,0.06281,-0.0394
-6.2,-0.3904,0.06548,0.06136,-0.0414
-6.1,-0.3786,0.06404,0.05988,-0.0436
-6,-0.3668,0.06259,0.05841,-0.0457
-5.9,-0.3545,0.06111,0.05689,-0.0479
-5,-0.1787,0.02884,0.02261,-0.089
-4.9,-0.1669,0.02792,0.0217,-0.0898
-4.8,-0.1547,0.02726,0.02103,-0.0905
-4.7,-0.1422,0.02667,0.0204,-0.0912
-4.6,-0.1292,0.02604,0.01971,-0.0921
-4.5,-0.1151,0.02533,0.01887,-0.0931
-4.4,-0.1014,0.02455,0.01797,-0.0941
-4.3,-0.0875,0.02371,0.01698,-0.0951
-4.2,-0.0734,0.02283,0.01591,-0.0961
-4.1,-0.0591,0.0219,0.01476,-0.097
-4,-0.0448,0.02095,0.01355,-0.0979
-3.9,-0.0304,0.02007,0.01238,-0.0987
-3.8,-0.0164,0.0194,0.01149,-0.0995
-3.7,-0.0036,0.01891,0.01101,-0.1
-3.6,0.0082,0.01861,0.0107,-0.1003
-3.5,0.0205,0.01833,0.01038,-0.1007
-3.4,0.0332,0.01801,0.01,-0.1011
-3.3,0.0469,0.01763,0.00952,-0.1017
-3,0.0873,0.01688,0.00856,-0.1034
-2.9,0.1017,0.01661,0.00824,-0.1041
-2.8,0.1155,0.01632,0.00786,-0.1046
-2.7,0.1302,0.01603,0.00746,-0.1053
-2.6,0.1432,0.016,0.00752,-0.1059
-2.5,0.1536,0.01582,0.0073,-0.1058
-2.4,0.1662,0.01559,0.00698,-0.106
-2.3,0.179,0.01537,0.00677,-0.1064
-2.2,0.1919,0.01523,0.00664,-0.1068
-2,0.2192,0.01501,0.00636,-0.1079
-1.9,0.2336,0.01486,0.0062,-0.1086
-1.8,0.2474,0.01472,0.00602,-0.1091
-1.6,0.2715,0.01459,0.0059,-0.1095
-1.5,0.2832,0.01449,0.0058,-0.1097
-1.4,0.296,0.01439,0.00572,-0.11
-1.3,0.309,0.0143,0.00561,-0.1104
-1.2,0.322,0.01428,0.00563,-0.1108
-1.1,0.336,0.01417,0.00547,-0.1113
-1,0.3496,0.01408,0.00541,-0.1119
-0.9,0.3613,0.01401,0.00533,-0.1119
-0.7,0.3834,0.01395,0.0053,-0.1119
-0.6,0.3964,0.01385,0.00524,-0.1123
-0.5,0.4095,0.01379,0.00518,-0.1127
-0.4,0.4235,0.01369,0.0051,-0.1132
-0.3,0.437,0.01364,0.00508,-0.1137
-0.2,0.4462,0.01361,0.00508,-0.1133
-0.1,0.4575,0.01356,0.00504,-0.1133
0,0.4699,0.01349,0.00501,-0.1135
0.1,0.4833,0.0134,0.00494,-0.1139
0.2,0.4959,0.01325,0.00485,-0.1141
0.3,0.5063,0.01317,0.00481,-0.1138
0.4,0.5209,0.01296,0.00463,-0.1143
0.5,0.5315,0.01291,0.00464,-0.1142
0.6,0.5422,0.01278,0.00464,-0.1141
0.7,0.5561,0.01255,0.00452,-0.1144
0.8,0.5669,0.0124,0.00456,-0.1144
1,0.5826,0.01122,0.00434,-0.1121
1.1,0.5927,0.01126,0.00436,-0.1118
1.2,0.604,0.01126,0.00434,-0.1116
1.3,0.6155,0.01121,0.00425,-0.1114
1.4,0.6271,0.0112,0.00422,-0.1113
1.5,0.6399,0.01118,0.00418,-0.1115
1.6,0.6504,0.01115,0.00416,-0.1111
1.7,0.6614,0.01113,0.00413,-0.1109
1.8,0.6739,0.0111,0.00407,-0.1109
1.9,0.6848,0.01109,0.00405,-0.1107
2,0.6964,0.01106,0.00399,-0.1105
2.1,0.7082,0.01106,0.00398,-0.1104
2.2,0.7197,0.01106,0.00397,-0.1103
2.3,0.7311,0.01107,0.00398,-0.1102
2.4,0.7429,0.01104,0.0039,-0.11
2.5,0.7543,0.01106,0.0039,-0.1098
2.6,0.7657,0.01108,0.00389,-0.1096
2.7,0.7769,0.0111,0.00389,-0.1094
2.8,0.788,0.01114,0.00388,-0.1092
2.9,0.7984,0.0112,0.00385,-0.1086
3,0.8087,0.0113,0.00385,-0.1081
3.1,0.8183,0.01144,0.00386,-0.1076
3.2,0.8276,0.01163,0.0039,-0.107
3.3,0.8345,0.012,0.00395,-0.1059
3.4,0.8427,0.01229,0.00407,-0.1053
3.5,0.8506,0.01262,0.0042,-0.1046
3.6,0.8583,0.01297,0.00436,-0.104
3.7,0.8661,0.01334,0.00454,-0.1034
3.9,0.8809,0.01421,0.00495,-0.1022
4,0.8898,0.01451,0.00516,-0.1019
4.1,0.8989,0.01478,0.00534,-0.1016
4.2,0.9083,0.01503,0.00554,-0.1013
4.3,0.9168,0.01537,0.00576,-0.1009
4.4,0.9264,0.01558,0.00596,-0.1007
4.5,0.9359,0.01581,0.00622,-0.1004
4.6,0.9455,0.01601,0.00642,-0.1001
4.7,0.9551,0.01623,0.00662,-0.0999
4.9,0.9738,0.01669,0.00701,-0.0993
5,0.9833,0.0169,0.00722,-0.0991
5.1,0.9929,0.0171,0.00742,-0.0988
5.2,1.0024,0.01733,0.00764,-0.0985
5.3,1.012,0.01752,0.00785,-0.0983
5.4,1.0212,0.01776,0.00802,-0.098
5.5,1.0305,0.01799,0.00824,-0.0977
5.6,1.04,0.0182,0.00847,-0.0974
5.7,1.0493,0.01843,0.0087,-0.0971
5.8,1.0585,0.01867,0.00895,-0.0968
5.9,1.0676,0.0189,0.00918,-0.0966
6,1.0769,0.01914,0.00944,-0.0963
6.1,1.0862,0.01938,0.0097,-0.0959
6.2,1.0951,0.01965,0.00997,-0.0956
6.3,1.1042,0.01991,0.01026,-0.0953
6.4,1.1133,0.02017,0.01056,-0.0949
6.6,1.131,0.02071,0.01109,-0.0943
6.7,1.1399,0.021,0.01141,-0.0939
6.8,1.1484,0.02132,0.01173,-0.0935
6.9,1.1567,0.02168,0.01208,-0.093
7,1.1654,0.02199,0.01247,-0.0926
7.1,1.174,0.02232,0.01286,-0.0922
7.2,1.1824,0.02267,0.01329,-0.0917
7.3,1.1904,0.02299,0.01351,-0.0914
7.4,1.1989,0.02333,0.01395,-0.091
7.5,1.2072,0.0237,0.01439,-0.0905
7.6,1.2154,0.02408,0.01483,-0.09
7.7,1.2233,0.02447,0.01526,-0.0895
7.8,1.2307,0.02491,0.01572,-0.089
7.9,1.2373,0.02547,0.01627,-0.0883
8,1.245,0.02593,0.01678,-0.0878
8.1,1.2544,0.0261,0.01707,-0.0875
8.2,1.2619,0.02654,0.01757,-0.087
8.3,1.2693,0.02698,0.01806,-0.0865
8.4,1.2762,0.02747,0.01858,-0.0859
8.5,1.2822,0.02806,0.01918,-0.0852
8.6,1.2882,0.02872,0.01983,-0.0845
8.7,1.2958,0.02922,0.02048,-0.0839
8.8,1.305,0.02932,0.02074,-0.0837
8.9,1.3117,0.02983,0.02133,-0.083
9,1.3181,0.03035,0.0219,-0.0824
9.1,1.3241,0.03088,0.02248,-0.0818
9.2,1.3295,0.0315,0.02312,-0.081
9.3,1.3335,0.03228,0.02391,-0.0802
9.4,1.3396,0.03293,0.02465,-0.0794
9.5,1.3457,0.0336,0.02547,-0.0787
9.6,1.3512,0.03431,0.02632,-0.0779
9.7,1.3563,0.03503,0.02715,-0.0771
9.8,1.3611,0.03575,0.02797,-0.0763
10,1.3731,0.03612,0.0284,-0.0753
10.1,1.3766,0.03678,0.02912,-0.0744
10.2,1.3791,0.03754,0.0299,-0.0734
10.3,1.3801,0.03843,0.03082,-0.0722
10.4,1.3834,0.0392,0.03173,-0.0712
10.5,1.3857,0.04007,0.03276,-0.07
10.6,1.3873,0.04096,0.03381,-0.0689
10.7,1.3883,0.04189,0.03487,-0.0677
10.8,1.389,0.04282,0.03593,-0.0665
10.9,1.3893,0.04376,0.03699,-0.0653
11,1.3892,0.0447,0.03809,-0.0642
11.1,1.3888,0.04565,0.03915,-0.063
11.2,1.3881,0.04661,0.04021,-0.062
11.3,1.3871,0.04759,0.04128,-0.0609
11.4,1.3859,0.04858,0.04236,-0.0599
11.5,1.3843,0.04959,0.04346,-0.0589
11.6,1.3825,0.05063,0.04459,-0.058
11.7,1.3804,0.05169,0.04573,-0.0572
11.8,1.3779,0.05279,0.04692,-0.0564
11.9,1.3753,0.05393,0.04813,-0.0558
12,1.3722,0.05513,0.04941,-0.0551
12.1,1.369,0.05637,0.05073,-0.0546
12.2,1.3654,0.05767,0.0521,-0.0542
12.3,1.3615,0.05903,0.05353,-0.0539
12.4,1.3573,0.06045,0.05503,-0.0537
12.5,1.353,0.06195,0.0566,-0.0537
12.6,1.3482,0.06355,0.05827,-0.0537
12.7,1.3432,0.06522,0.06001,-0.054
12.8,1.3379,0.06699,0.06186,-0.0544
12.9,1.3324,0.06885,0.0638,-0.055
13,1.3267,0.07082,0.06584,-0.0557
13.1,1.3206,0.07293,0.06804,-0.0568
13.2,1.3144,0.07517,0.07036,-0.058
13.3,1.308,0.07752,0.07279,-0.0595
13.4,1.3013,0.08007,0.07543,-0.0613
13.5,1.2942,0.08284,0.07829,-0.0635
13.6,1.2868,0.08591,0.08147,-0.0662
13.7,1.2788,0.08934,0.08502,-0.0694
13.8,1.2697,0.09346,0.08928,-0.0736
13.9,1.2579,0.09903,0.09502,-0.0795
14.3,1.1629,0.15881,0.15531,-0.1295
14.4,1.1627,0.16188,0.15838,-0.1314
14.5,1.1633,0.16448,0.16097,-0.1331
14.6,1.1643,0.16677,0.16326,-0.1347
14.7,1.1657,0.16879,0.16528,-0.1361
14.8,1.1673,0.17069,0.16718,-0.1375
14.9,1.169,0.17244,0.16893,-0.1387
15,1.171,0.17394,0.17044,-0.1399
15.1,1.1731,0.17531,0.17181,-0.141
15.2,1.1752,0.17659,0.1731,-0.142
15.3,1.1774,0.17768,0.17419,-0.1429
15.4,1.1797,0.17857,0.17508,-0.1437
15.5,1.1821,0.17926,0.17578,-0.1444
15.6,1.1845,0.17979,0.17632,-0.1449
15.8,1.179,0.20105,0.19744,-0.1558
15.9,1.1813,0.20387,0.20026,-0.1576
16,1.1837,0.20637,0.20276,-0.1591
16.1,1.1863,0.20867,0.20505,-0.1606
16.2,1.1889,0.21082,0.20721,-0.162
16.3,1.1915,0.21287,0.20926,-0.1634
16.4,1.1943,0.21482,0.21122,-0.1647
16.5,1.197,0.2167,0.21309,-0.166
16.6,1.1998,0.21853,0.21493,-0.1673
16.7,1.2026,0.22028,0.21669,-0.1686
16.8,1.2054,0.22197,0.21838,-0.1698
16.9,1.2082,0.22365,0.22006,-0.1711
17,1.211,0.22521,0.22163,-0.1723
17.1,1.2138,0.22672,0.22315,-0.1735
17.2,1.2166,0.22825,0.22468,-0.1746
17.3,1.2194,0.22969,0.22614,-0.1758
17.4,1.2222,0.23113,0.22758,-0.1769
17.5,1.225,0.2325,0.22895,-0.178
17.6,1.2277,0.23383,0.2303,-0.1791
17.7,1.2304,0.23511,0.23158,-0.1802
17.8,1.233,0.2363,0.23278,-0.1812
17.9,1.2355,0.2375,0.234,-0.1821
18,1.2379,0.23862,0.23512,-0.183
18.2,1.2481,0.25241,0.24881,-0.1901
18.3,1.2516,0.25502,0.25142,-0.1917
18.4,1.2558,0.25832,0.25472,-0.1941
18.5,1.2591,0.26034,0.25674,-0.1955
18.6,1.2623,0.26231,0.25872,-0.1968
18.7,1.2656,0.26425,0.26066,-0.1982
18.8,1.2689,0.26616,0.26258,-0.1996
18.9,1.2721,0.26804,0.26446,-0.201
19,1.2754,0.26989,0.26632,-0.2023
19.1,1.2786,0.27172,0.26816,-0.2037
19.2,1.2818,0.27353,0.27,-0.205
19.3,1.2851,0.27533,0.27181,-0.2064
19.4,1.2883,0.2771,0.27358,-0.2077
19.5,1.2914,0.27886,0.27535,-0.2091
19.6,1.2947,0.28062,0.27711,-0.2104
19.7,1.2978,0.28231,0.27881,-0.2117
19.8,1.3009,0.28398,0.2805,-0.2131
19.9,1.3041,0.28574,0.28226,-0.2144
20,1.3072,0.28738,0.28391,-0.2157
20.1,1.3103,0.28903,0.28557,-0.2171
20.2,1.3133,0.29064,0.28719,-0.2184
20.3,1.3163,0.29229,0.28884,-0.2197
20.4,1.3194,0.29395,0.29051,-0.221
20.5,1.3224,0.2956,0.29217,-0.2223
20.6,1.3253,0.2972,0.29378,-0.2236
20.7,1.3283,0.29881,0.2954,-0.2248
20.8,1.3311,0.30043,0.29702,-0.2261
20.9,1.334,0.30205,0.29866,-0.2273
21,1.3367,0.30366,0.30028,-0.2286
21.1,1.3395,0.30534,0.30197,-0.2298
21.2,1.3471,0.31241,0.30896,-0.2334
21.3,1.3516,0.31586,0.31241,-0.2354
21.4,1.3557,0.31883,0.31538,-0.2372
21.5,1.3595,0.3214,0.31796,-0.2389
21.6,1.3632,0.32397,0.32054,-0.2405
21.7,1.3668,0.32633,0.32289,-0.2421
21.8,1.3704,0.32869,0.32526,-0.2437
21.9,1.3739,0.331,0.32758,-0.2453
22,1.3774,0.33327,0.32986,-0.2469
22.1,1.3808,0.3355,0.33209,-0.2484
22.2,1.3842,0.33768,0.33428,-0.25
22.3,1.3876,0.33985,0.33646,-0.2516
22.4,1.391,0.34201,0.33862,-0.2531
22.5,1.3943,0.34415,0.34077,-0.2547
22.6,1.3977,0.34629,0.34291,-0.2563
22.7,1.401,0.3484,0.34503,-0.2578
22.8,1.4042,0.35051,0.34717,-0.2594
22.9,1.4075,0.35261,0.34928,-0.2609
23,1.4108,0.35469,0.35137,-0.2625
23.1,1.414,0.35678,0.35347,-0.2641
23.2,1.4172,0.35887,0.35557,-0.2656
23.3,1.4204,0.36095,0.35766,-0.2672
23.4,1.4236,0.36303,0.35974,-0.2688
23.5,1.4268,0.36511,0.36183,-0.2704
23.6,1.43,0.36718,0.36391,-0.272
23.7,1.4331,0.36926,0.36599,-0.2736
23.8,1.4362,0.37133,0.36807,-0.2751
23.9,1.4394,0.3734,0.37016,-0.2767
24,1.4425,0.37546,0.37222,-0.2783
24.1,1.4455,0.37754,0.37431,-0.2799
24.2,1.4486,0.37961,0.37639,-0.2816
24.3,1.4517,0.38168,0.37847,-0.2832
24.4,1.4547,0.38374,0.38054,-0.2848
24.5,1.4578,0.38582,0.38262,-0.2864
24.6,1.4608,0.38789,0.38471,-0.288
24.7,1.4638,0.38996,0.38679,-0.2896
24.8,1.4667,0.39203,0.38886,-0.2913
24.9,1.4697,0.39411,0.39095,-0.2929
25,1.4727,0.39617,0.39303,-0.2945
25.1,1.4756,0.39827,0.39514,-0.2962
25.2,1.4785,0.40035,0.39722,-0.2978
25.3,1.4814,0.40245,0.39934,-0.2995
25.4,1.4843,0.40453,0.40143,-0.3011
25.5,1.4872,0.40664,0.40354,-0.3028
25.6,1.49,0.40872,0.40563,-0.3044
25.7,1.4928,0.41083,0.40775,-0.3061
25.8,1.4957,0.41293,0.40986,-0.3077
25.9,1.4984,0.41502,0.41199,-0.3094
26,1.5012,0.41713,0.41411,-0.3111
26.1,1.504,0.41925,0.41624,-0.3127
26.2,1.5067,0.42138,0.41838,-0.3144
26.3,1.5094,0.42351,0.42052,-0.3161
26.4,1.5121,0.42563,0.42265,-0.3177
26.5,1.5147,0.42776,0.4248,-0.3194
26.6,1.5166,0.42898,0.42603,-0.321
26.7,1.5193,0.43116,0.42822,-0.3227
26.8,1.5218,0.43336,0.43042,-0.3243
26.9,1.5243,0.43554,0.43262,-0.3259
27,1.5268,0.43776,0.43485,-0.3276
27.1,1.5293,0.44003,0.43713,-0.3292
27.2,1.5317,0.44229,0.4394,-0.3308
27.3,1.5342,0.44459,0.44172,-0.3325
27.4,1.5366,0.44692,0.44406,-0.3341
27.5,1.539,0.44927,0.44642,-0.3357
27.7,1.551,0.45835,0.45543,-0.3419
27.8,1.5545,0.46144,0.45852,-0.344
27.9,1.5579,0.46433,0.46141,-0.3461
28,1.5611,0.46709,0.46418,-0.3481
28.1,1.5641,0.4697,0.4668,-0.3501
28.2,1.5671,0.47225,0.46935,-0.352
28.3,1.5699,0.47473,0.47184,-0.354
28.4,1.5728,0.47724,0.47436,-0.3559
28.5,1.5755,0.47966,0.47679,-0.3579
28.6,1.5782,0.48204,0.47918,-0.3598
28.7,1.581,0.48446,0.4816,-0.3617
28.8,1.5836,0.48683,0.48398,-0.3636
28.9,1.5863,0.48919,0.48635,-0.3656
29,1.5889,0.49154,0.48871,-0.3675
29.1,1.5914,0.49391,0.49109,-0.3694
29.3,1.5965,0.4986,0.49582,-0.3733
29.4,1.599,0.50094,0.49817,-0.3752
29.5,1.6015,0.50328,0.50052,-0.3772
29.6,1.6039,0.50562,0.50287,-0.3791
29.7,1.6063,0.50794,0.5052,-0.381
29.8,1.6087,0.51031,0.50759,-0.3829
29.9,1.6111,0.51265,0.50993,-0.3849
30,1.6135,0.51499,0.51228,-0.3868

