airfoilName st23.dat
Re 	3.000000e+04
M 	5.000000e-02
N 	4.500000e+00
VACC 	0 VACCflag 1
XTR 	1.00 	1.00 XTRflag 0
alpha,cl,cd,cdp,cm
-28.1,-1.1498,0.48653,0.47791,0.2042
-28,-1.1469,0.4841,0.47546,0.2025
-27.9,-1.1441,0.48165,0.473,0.2008
-27.8,-1.1412,0.47922,0.47055,0.1992
-27.7,-1.1383,0.4768,0.46812,0.1975
-27.6,-1.1354,0.47437,0.46567,0.1958
-27.4,-1.1295,0.46955,0.46078,0.1925
-27.3,-1.1265,0.46715,0.45837,0.1909
-27.2,-1.1236,0.46475,0.45596,0.1893
-27.1,-1.1206,0.46236,0.45355,0.1876
-27,-1.1176,0.45997,0.45115,0.186
-26.9,-1.1145,0.45759,0.44876,0.1844
-26.8,-1.1115,0.45521,0.44636,0.1827
-26.7,-1.1085,0.45285,0.44399,0.1811
-26.6,-1.1054,0.45048,0.44161,0.1795
-26.5,-1.1023,0.44814,0.43924,0.1779
-26.4,-1.0993,0.44578,0.43688,0.1763
-26.3,-1.0962,0.44343,0.43451,0.1747
-26.2,-1.093,0.44109,0.43216,0.1731
-26.1,-1.0899,0.43876,0.42982,0.1715
-26,-1.0868,0.43644,0.42748,0.1699
-25.9,-1.0836,0.43411,0.42514,0.1683
-25.8,-1.0804,0.4318,0.42281,0.1667
-25.7,-1.0772,0.42949,0.42049,0.1652
-25.6,-1.074,0.4272,0.41819,0.1636
-25.5,-1.0708,0.42489,0.41587,0.162
-25.4,-1.0676,0.4226,0.41356,0.1604
-25.3,-1.0644,0.42033,0.41128,0.1589
-25.2,-1.0611,0.41805,0.40899,0.1573
-25.1,-1.0578,0.41577,0.4067,0.1558
-25,-1.0546,0.41351,0.40443,0.1542
-24.9,-1.0513,0.41125,0.40215,0.1526
-24.8,-1.048,0.409,0.39989,0.1511
-24.7,-1.0446,0.40674,0.39758,0.1495
-24.6,-1.0413,0.4045,0.39532,0.148
-24.5,-1.0379,0.40225,0.39307,0.1464
-24.4,-1.0345,0.40002,0.39082,0.1449
-24.3,-1.0311,0.39778,0.38857,0.1433
-24.2,-1.0277,0.39556,0.38634,0.1418
-24.1,-1.0243,0.39334,0.38411,0.1403
-24,-1.0209,0.39112,0.38188,0.1387
-23.9,-1.0174,0.38891,0.37966,0.1372
-23.8,-1.0139,0.38669,0.37743,0.1356
-23.7,-1.0104,0.38449,0.37522,0.1341
-23.6,-1.0069,0.38227,0.37299,0.1326
-23.5,-1.0034,0.38006,0.37077,0.131
-23.3,-0.9962,0.37565,0.36635,0.1279
-23.2,-0.9926,0.37345,0.36414,0.1264
-23.1,-0.989,0.37125,0.36193,0.1248
-23,-0.9853,0.36905,0.35972,0.1233
-22.9,-0.9816,0.36686,0.35752,0.1217
-22.8,-0.9779,0.36467,0.35533,0.1201
-20.5,-0.8958,0.31564,0.30618,0.0884
-20.4,-0.8923,0.31355,0.30408,0.0872
-20.3,-0.8889,0.31148,0.302,0.086
-20.2,-0.8854,0.30942,0.29993,0.0849
-20.1,-0.8819,0.30737,0.29787,0.0837
-20,-0.8784,0.30532,0.29582,0.0826
-19.9,-0.8749,0.30329,0.29377,0.0815
-19.8,-0.8715,0.30126,0.29174,0.0803
-19.7,-0.8679,0.29924,0.28971,0.0792
-19.6,-0.8644,0.29723,0.28769,0.0781
-19.5,-0.8609,0.29522,0.28568,0.0769
-19.4,-0.8574,0.29322,0.28367,0.0758
-19.3,-0.8539,0.29123,0.28167,0.0747
-19.2,-0.8504,0.28925,0.27968,0.0736
-19.1,-0.8468,0.28727,0.2777,0.0725
-19,-0.8433,0.28531,0.27572,0.0714
-18.9,-0.8397,0.28334,0.27375,0.0703
-18.8,-0.8362,0.28138,0.27179,0.0692
-18.7,-0.8326,0.27944,0.26983,0.0681
-18.6,-0.8291,0.27749,0.26788,0.067
-18.5,-0.8255,0.27555,0.26587,0.0659
-18.4,-0.822,0.27362,0.26394,0.0648
-18.3,-0.8184,0.2717,0.26201,0.0637
-18.2,-0.8148,0.26977,0.26008,0.0627
-18.1,-0.8112,0.26785,0.25815,0.0616
-18,-0.8077,0.26594,0.25624,0.0605
-17.9,-0.8041,0.26404,0.25432,0.0595
-17.8,-0.8005,0.26213,0.25241,0.0584
-17.7,-0.7969,0.26024,0.25052,0.0573
-17.6,-0.7933,0.25834,0.24862,0.0563
-17.5,-0.7897,0.25646,0.24673,0.0552
-17.4,-0.786,0.25458,0.24484,0.0542
-17.3,-0.7824,0.2527,0.24296,0.0531
-17.2,-0.7788,0.25084,0.24109,0.0521
-17.1,-0.7752,0.24897,0.23922,0.051
-17,-0.7716,0.24711,0.23736,0.05
-16.9,-0.7679,0.24525,0.2355,0.049
-16.8,-0.7643,0.2434,0.23365,0.0479
-16.7,-0.7607,0.24155,0.2318,0.0469
-16.6,-0.757,0.23971,0.22995,0.0458
-16.5,-0.7534,0.23788,0.22811,0.0448
-16.4,-0.7498,0.23604,0.22628,0.0437
-16.3,-0.7461,0.23422,0.22445,0.0427
-16.2,-0.7425,0.2324,0.22263,0.0416
-16.1,-0.7388,0.23057,0.22081,0.0405
-16,-0.7352,0.22877,0.219,0.0395
-15.9,-0.7315,0.22696,0.21719,0.0384
-15.8,-0.7278,0.22516,0.21539,0.0373
-15.7,-0.7241,0.22336,0.2136,0.0361
-15.6,-0.7205,0.22158,0.21182,0.035
-15.5,-0.7168,0.21982,0.21006,0.0338
-15.4,-0.7131,0.21807,0.20832,0.0325
-15.3,-0.7094,0.21637,0.20662,0.0312
-15.2,-0.7059,0.21474,0.205,0.0296
-15,-0.6991,0.21181,0.20222,0.026
-14.9,-0.6956,0.20986,0.2002,0.0254
-14.8,-0.6922,0.20794,0.19828,0.0247
-14.7,-0.6887,0.20608,0.19641,0.024
-14.6,-0.6852,0.20423,0.19456,0.0233
-14.5,-0.6818,0.20242,0.19275,0.0226
-14.4,-0.6783,0.20063,0.19096,0.0219
-14.3,-0.6749,0.19887,0.18919,0.0212
-14.2,-0.6714,0.19712,0.18744,0.0205
-14.1,-0.668,0.19539,0.1857,0.0198
-14,-0.6645,0.19367,0.18398,0.0191
-13.9,-0.6611,0.19197,0.18228,0.0183
-13.8,-0.6576,0.19028,0.18059,0.0176
-13.7,-0.6541,0.1886,0.17891,0.0169
-13.6,-0.6507,0.18693,0.17724,0.0161
-13.5,-0.6472,0.18528,0.17558,0.0154
-13.4,-0.6438,0.18363,0.17394,0.0147
-13.3,-0.6407,0.18241,0.17272,0.0139
-13.2,-0.6372,0.18078,0.17109,0.0131
-13.1,-0.6338,0.17915,0.16947,0.0124
-13,-0.6303,0.17753,0.16785,0.0116
-12.9,-0.6268,0.17592,0.16624,0.0109
-12.8,-0.6234,0.17432,0.16464,0.0101
-12.7,-0.6199,0.17272,0.16305,0.0093
-12.6,-0.6165,0.17113,0.16146,0.0086
-12.5,-0.613,0.16954,0.15988,0.0078
-12.4,-0.6096,0.16796,0.1583,0.007
-12.3,-0.6062,0.16639,0.15674,0.0062
-12.2,-0.6027,0.16482,0.15518,0.0054
-12.1,-0.5993,0.16326,0.15362,0.0046
-12,-0.5959,0.16171,0.15207,0.0038
-11.9,-0.5926,0.16016,0.15054,0.003
-11.8,-0.5892,0.15862,0.149,0.0022
-11.7,-0.5858,0.15709,0.14741,0.0013
-11.6,-0.5824,0.15553,0.14587,0.0005
-11.5,-0.5792,0.15403,0.14438,-0.0004
-11.4,-0.5759,0.15251,0.14287,-0.0013
-11.3,-0.5727,0.151,0.14137,-0.0022
-11.2,-0.5695,0.1495,0.13988,-0.0032
-11.1,-0.5663,0.14801,0.13841,-0.0042
-11,-0.5633,0.14652,0.13694,-0.0053
-10.9,-0.5604,0.14505,0.13548,-0.0065
-10.8,-0.5577,0.1436,0.13406,-0.0077
-10.7,-0.5552,0.14218,0.13267,-0.0092
-10.6,-0.5534,0.14084,0.13136,-0.0111
-10.5,-0.552,0.1395,0.13018,-0.013
-10.4,-0.5484,0.13788,0.12856,-0.0132
-10.3,-0.545,0.13632,0.127,-0.0134
-10.2,-0.5416,0.1348,0.12548,-0.0137
-10.1,-0.5383,0.13332,0.12401,-0.014
-10,-0.5351,0.13188,0.12258,-0.0143
-9.9,-0.5319,0.13046,0.12117,-0.0147
-9.8,-0.5288,0.12906,0.11978,-0.0151
-9.7,-0.5257,0.12768,0.11841,-0.0155
-9.6,-0.5227,0.12632,0.11706,-0.0159
-9.5,-0.5196,0.12497,0.11572,-0.0163
-9.4,-0.5165,0.12363,0.11439,-0.0168
-9.3,-0.5133,0.12228,0.11305,-0.0173
-9.2,-0.5099,0.12092,0.1117,-0.0179
-9.1,-0.5064,0.11956,0.11036,-0.0185
-9,-0.5029,0.1182,0.10901,-0.0191
-8.9,-0.4994,0.11686,0.10768,-0.0197
-8.8,-0.4959,0.11551,0.10634,-0.0203
-8.7,-0.4924,0.11416,0.10501,-0.021
-8.6,-0.4888,0.11282,0.10368,-0.0217
-8.5,-0.4852,0.11147,0.10235,-0.0224
-8.4,-0.4816,0.11013,0.10101,-0.0231
-8.3,-0.4779,0.10878,0.09968,-0.0238
-8.2,-0.4742,0.10743,0.09834,-0.0246
-8.1,-0.4705,0.10607,0.09699,-0.0253
-8,-0.4666,0.10469,0.09563,-0.0262
-7.9,-0.4628,0.10333,0.09422,-0.027
-7.8,-0.4589,0.10194,0.09284,-0.0279
-7.7,-0.4549,0.10054,0.09145,-0.0288
-7.6,-0.4508,0.0991,0.09003,-0.0298
-7.5,-0.4466,0.09764,0.08858,-0.0309
-7.3,-0.4375,0.09457,0.08551,-0.0335
-7.2,-0.4326,0.09292,0.08387,-0.0351
-7.1,-0.4269,0.09108,0.08202,-0.0371
-6.9,-0.4117,0.08615,0.07712,-0.0443
-6.8,-0.4079,0.08505,0.07604,-0.0439
-6.7,-0.4059,0.08488,0.07591,-0.0422
-6.6,-0.4012,0.08368,0.07471,-0.0424
-6.5,-0.3964,0.08246,0.07349,-0.0427
-6.4,-0.3913,0.08123,0.07226,-0.0431
-6.3,-0.386,0.07998,0.071,-0.0435
-6.2,-0.3805,0.07871,0.06973,-0.044
-6.1,-0.3748,0.07742,0.06843,-0.0446
-6,-0.3687,0.0761,0.0671,-0.0452
-5.9,-0.3623,0.07475,0.06572,-0.046
-5.8,-0.3556,0.07336,0.06432,-0.0468
-5.7,-0.3485,0.07193,0.06286,-0.0478
-5.6,-0.3409,0.07043,0.06132,-0.0489
-5.5,-0.3327,0.06884,0.05969,-0.0502
-5.4,-0.3235,0.06711,0.05789,-0.0517
-5.3,-0.313,0.06512,0.05582,-0.0538
-5.2,-0.2993,0.06248,0.053,-0.0571
-5.1,-0.279,0.05839,0.04861,-0.0631
-5,-0.2733,0.05763,0.04789,-0.0626
-4.9,-0.267,0.05686,0.04715,-0.0623
-4.8,-0.2602,0.05606,0.04635,-0.0622
-4.7,-0.2528,0.0552,0.04542,-0.0623
-4.6,-0.2448,0.05428,0.04447,-0.0625
-4.5,-0.2362,0.05327,0.04343,-0.063
-4.3,-0.2167,0.05098,0.04098,-0.0644
-4.2,-0.2054,0.04961,0.03951,-0.0656
-4.1,-0.1745,0.04517,0.03411,-0.0728
-4,-0.1675,0.04453,0.03357,-0.0724
-3.9,-0.1599,0.04395,0.03305,-0.0721
-3.8,-0.1517,0.04334,0.03247,-0.0721
-3.7,-0.1427,0.04268,0.03178,-0.0722
-3.6,-0.1329,0.0419,0.03094,-0.0725
-3.5,-0.1219,0.04099,0.02992,-0.073
-3.4,-0.1092,0.03983,0.02855,-0.074
-3.3,-0.0916,0.03793,0.02607,-0.076
-3.2,-0.0791,0.03689,0.02488,-0.0768
-3.1,-0.0704,0.03646,0.02452,-0.0767
-3,-0.061,0.036,0.02406,-0.0767
-2.8,-0.0328,0.03426,0.02142,-0.0786
-2.7,-0.024,0.03382,0.02114,-0.0785
-2.6,-0.0147,0.03344,0.02082,-0.0784
-2.5,-0.0044,0.033,0.02033,-0.0785
-2.4,0.0076,0.03239,0.01951,-0.0789
-2.3,0.0213,0.03163,0.0184,-0.0796
-2.2,0.0308,0.0313,0.01817,-0.0795
-2.1,0.0407,0.0312,0.01795,-0.0796
-2,0.053,0.03067,0.01722,-0.08
-1.9,0.0629,0.03035,0.01697,-0.08
-1.8,0.0741,0.02998,0.01648,-0.0801
-1.7,0.0862,0.02957,0.01589,-0.0804
-1.6,0.0964,0.02928,0.01565,-0.0804
-1.5,0.1069,0.02921,0.01538,-0.0806
-1.4,0.1176,0.02892,0.01511,-0.0807
-1.3,0.1297,0.02863,0.01463,-0.0809
-1.2,0.1404,0.02834,0.01442,-0.081
-1.1,0.1522,0.02812,0.01402,-0.0812
-1,0.1622,0.02807,0.01398,-0.0813
-0.9,0.1733,0.02779,0.01376,-0.0815
-0.8,0.1849,0.02759,0.01347,-0.0817
-0.7,0.196,0.02732,0.01326,-0.0819
-0.6,0.2074,0.02712,0.01305,-0.0821
-0.5,0.218,0.02698,0.01298,-0.0823
-0.4,0.2295,0.02677,0.01278,-0.0825
-0.3,0.2409,0.02657,0.01258,-0.0827
-0.2,0.2524,0.02633,0.0124,-0.083
-0.1,0.2638,0.02607,0.01236,-0.0834
0,0.2755,0.02584,0.01225,-0.0837
0.1,0.2872,0.02562,0.01217,-0.084
0.2,0.2994,0.02527,0.01214,-0.0845
0.3,0.3115,0.025,0.01209,-0.0848
0.4,0.3236,0.02465,0.01204,-0.0851
0.6,0.328,0.02455,0.01164,-0.0804
0.7,0.3429,0.02476,0.01164,-0.0812
0.8,0.358,0.02493,0.01164,-0.0822
0.9,0.3722,0.02512,0.01168,-0.0829
1,0.3868,0.02532,0.01176,-0.0838
1.1,0.4018,0.0255,0.01182,-0.0847
1.2,0.4152,0.02568,0.01191,-0.0854
1.3,0.4294,0.02588,0.01203,-0.0862
1.4,0.4455,0.02609,0.01215,-0.0873
1.5,0.4582,0.02627,0.01227,-0.0879
1.6,0.4712,0.02645,0.01242,-0.0885
1.7,0.4865,0.02664,0.01257,-0.0895
1.8,0.5015,0.02686,0.01275,-0.0904
1.9,0.5142,0.02702,0.0129,-0.0909
2,0.5271,0.02721,0.01308,-0.0915
2.1,0.5414,0.02742,0.01329,-0.0924
2.2,0.558,0.02761,0.01348,-0.0936
2.3,0.5684,0.02779,0.01367,-0.0937
2.4,0.5823,0.02796,0.01392,-0.0944
2.5,0.5972,0.02816,0.01415,-0.0953
2.6,0.6106,0.02833,0.01434,-0.0959
2.7,0.6221,0.02852,0.01457,-0.0962
2.8,0.6378,0.02868,0.01478,-0.0972
2.9,0.6511,0.02884,0.01498,-0.0977
3,0.6624,0.02903,0.01524,-0.0979
3.1,0.6786,0.02917,0.01545,-0.0989
3.2,0.6895,0.02931,0.01566,-0.0989
3.3,0.7059,0.02907,0.01548,-0.0991
3.4,0.72,0.02895,0.01542,-0.0991
3.5,0.7337,0.02878,0.01532,-0.0988
3.6,0.7461,0.02871,0.01543,-0.0985
3.7,0.7614,0.02872,0.01555,-0.099
3.8,0.7729,0.02859,0.0155,-0.0984
3.9,0.7812,0.02868,0.01567,-0.0977
4,0.7927,0.02848,0.01556,-0.0969
4.1,0.8016,0.02852,0.0157,-0.0962
4.3,0.8198,0.02833,0.01568,-0.0941
4.4,0.8281,0.02836,0.01581,-0.0931
4.5,0.8352,0.0282,0.01573,-0.0915
4.6,0.843,0.02825,0.01589,-0.0905
4.7,0.8542,0.02817,0.01594,-0.0899
4.8,0.8637,0.02798,0.01585,-0.0886
4.9,0.8821,0.02762,0.01564,-0.0886
5,0.9156,0.02652,0.01477,-0.0895
5.1,0.9445,0.02591,0.01417,-0.0903
5.2,0.9642,0.02578,0.0137,-0.0899
5.3,0.9751,0.0261,0.01389,-0.0892
5.5,0.991,0.02712,0.01444,-0.0873
5.6,0.999,0.02768,0.01488,-0.0866
5.7,1.0068,0.02826,0.01537,-0.0859
5.8,1.012,0.02895,0.01578,-0.085
5.9,1.0197,0.02958,0.01632,-0.0844
6,1.0276,0.03024,0.0169,-0.0838
6.1,1.0359,0.03089,0.01754,-0.0833
6.3,1.0497,0.03223,0.01881,-0.0821
6.4,1.058,0.03293,0.01946,-0.0816
6.5,1.0669,0.03363,0.02022,-0.0813
6.6,1.0759,0.03435,0.02096,-0.081
6.7,1.0813,0.03486,0.02143,-0.0803
6.8,1.0901,0.03558,0.02216,-0.08
6.9,1.0989,0.0363,0.02295,-0.0796
7,1.1077,0.03704,0.02372,-0.0793
7.1,1.1166,0.03781,0.02454,-0.079
7.3,1.1296,0.03895,0.0258,-0.0779
7.4,1.1382,0.0397,0.02653,-0.0776
7.5,1.1466,0.04053,0.02745,-0.0772
7.6,1.155,0.04136,0.02841,-0.0768
7.7,1.1638,0.04215,0.02913,-0.0766
7.9,1.1753,0.04333,0.03058,-0.0754
8,1.1832,0.04423,0.03151,-0.0751
8.1,1.1907,0.04524,0.03278,-0.0746
8.2,1.1985,0.04613,0.03373,-0.0742
8.3,1.207,0.04696,0.03447,-0.074
8.4,1.2138,0.04807,0.03574,-0.0735
8.5,1.2201,0.04924,0.03718,-0.073
8.7,1.2324,0.05025,0.0379,-0.0722
8.8,1.2362,0.05167,0.03983,-0.0714
8.9,1.2416,0.05294,0.04137,-0.0708
9,1.2476,0.05405,0.0426,-0.0703
9.1,1.2543,0.05502,0.0436,-0.0699
9.2,1.2622,0.05592,0.04443,-0.0697
9.3,1.2691,0.05711,0.04552,-0.0694
9.4,1.2694,0.05879,0.04769,-0.0685
9.5,1.2713,0.06037,0.04958,-0.0677
9.6,1.2741,0.06182,0.05124,-0.0671
9.7,1.276,0.06201,0.05147,-0.0664
9.8,1.2821,0.06298,0.05251,-0.066
9.9,1.2903,0.06392,0.05332,-0.0659
10.1,1.2888,0.06736,0.0572,-0.0643
10.2,1.2857,0.06925,0.05941,-0.0634
10.3,1.2828,0.07109,0.06149,-0.0627
10.4,1.2801,0.07286,0.06347,-0.062
10.5,1.2775,0.07458,0.06537,-0.0613
10.6,1.2749,0.07625,0.06718,-0.0607
10.7,1.2724,0.07787,0.06893,-0.0602
10.8,1.2698,0.07941,0.07058,-0.0596
10.9,1.2668,0.08087,0.07213,-0.0589
11,1.2644,0.08231,0.07364,-0.0584
11.1,1.2629,0.08369,0.07508,-0.0579
11.2,1.2628,0.08498,0.07641,-0.0575
11.3,1.2676,0.08601,0.07742,-0.0571
11.4,1.2934,0.08662,0.07761,-0.0576
11.6,1.2745,0.09021,0.08149,-0.0563
11.7,1.2653,0.09214,0.08355,-0.0561
11.8,1.2561,0.09413,0.08566,-0.0561
11.9,1.2469,0.09622,0.08785,-0.0564
12,1.2379,0.09839,0.09013,-0.0569
12.2,1.2201,0.10304,0.09495,-0.0587
12.4,1.2025,0.10815,0.10019,-0.0616
12.5,1.1942,0.11088,0.10297,-0.0634
12.6,1.1859,0.11378,0.10592,-0.0655
12.7,1.1778,0.11682,0.10899,-0.0679
12.8,1.17,0.12004,0.11225,-0.0706
13.1,1.1483,0.131,0.12327,-0.0807
13.3,1.1362,0.13946,0.13172,-0.0887

