airfoilName st24.dat
Re 	630000
M 	5.000000e-02
N 	4.500000e+00
VACC 	0 VACCflag 1
XTR 	1.00 	1.00 XTRflag 0
alpha,cl,cd,cdp,cm
-7,-0.3547,0.02155,0.01818,-0.0921
-6.9,-0.3424,0.01975,0.01613,-0.0935
-6.8,-0.3303,0.0186,0.0148,-0.0944
-6.7,-0.3181,0.01769,0.01373,-0.0952
-6.6,-0.3059,0.01691,0.01282,-0.0958
-6.5,-0.2936,0.01625,0.01202,-0.0964
-6.4,-0.2812,0.01566,0.01132,-0.097
-6.3,-0.2688,0.01512,0.01068,-0.0975
-6.2,-0.2563,0.01463,0.01009,-0.098
-6.1,-0.245,0.01421,0.00958,-0.0981
-6,-0.2336,0.01382,0.0091,-0.0983
-5.9,-0.222,0.01346,0.00867,-0.0985
-5.8,-0.2101,0.01311,0.00823,-0.0988
-5.7,-0.1982,0.01281,0.00786,-0.099
-5.6,-0.1862,0.01254,0.00752,-0.0993
-5.5,-0.1741,0.01229,0.00721,-0.0996
-5.4,-0.1619,0.01207,0.00694,-0.0998
-5.3,-0.1497,0.01189,0.0067,-0.1001
-5.2,-0.1374,0.01173,0.0065,-0.1003
-5.1,-0.1264,0.01146,0.00619,-0.1003
-5,-0.115,0.01089,0.00554,-0.1005
-4.9,-0.1034,0.01056,0.00515,-0.1006
-4.8,-0.0918,0.01033,0.00489,-0.1008
-4.7,-0.08,0.01015,0.00468,-0.1009
-4.6,-0.0681,0.00998,0.00448,-0.101
-4.5,-0.0561,0.00983,0.00428,-0.1012
-4.4,-0.0447,0.00968,0.00411,-0.1012
-4.3,-0.0338,0.00955,0.00395,-0.1011
-4.2,-0.0224,0.00941,0.00378,-0.1011
-4.1,-0.0109,0.00928,0.00362,-0.1011
-4,0.0007,0.00917,0.00346,-0.1011
-3.9,0.0123,0.00907,0.00333,-0.1012
-3.8,0.0234,0.00892,0.00318,-0.1011
-3.7,0.0346,0.00879,0.00302,-0.1011
-3.6,0.0458,0.00868,0.0029,-0.1011
-3.5,0.0572,0.00859,0.0028,-0.1011
-3.4,0.0685,0.00851,0.00268,-0.101
-3.3,0.0798,0.00843,0.00259,-0.101
-3.2,0.091,0.00836,0.0025,-0.1009
-3.1,0.1023,0.00828,0.00241,-0.1009
-3,0.1135,0.0082,0.00232,-0.1009
-2.9,0.1248,0.00814,0.00225,-0.1008
-2.8,0.1361,0.00808,0.00218,-0.1008
-2.7,0.1472,0.00802,0.00212,-0.1008
-2.6,0.1586,0.00796,0.00205,-0.1007
-2.5,0.1697,0.0079,0.00199,-0.1007
-2.4,0.1807,0.00785,0.00193,-0.1006
-2.3,0.1915,0.00779,0.00188,-0.1004
-2.2,0.2024,0.00775,0.00183,-0.1003
-2.1,0.2138,0.00771,0.00178,-0.1003
-2,0.2243,0.00767,0.00171,-0.1
-1.9,0.2356,0.00762,0.00167,-0.1
-1.8,0.2468,0.00759,0.00163,-0.1
-1.7,0.2577,0.00756,0.00158,-0.0998
-1.6,0.269,0.00752,0.00155,-0.0998
-1.5,0.2798,0.00751,0.00151,-0.0996
-1.4,0.2908,0.0075,0.00146,-0.0995
-1.3,0.3019,0.00747,0.00143,-0.0995
-1.2,0.3132,0.00744,0.00141,-0.0995
-1.1,0.3243,0.00743,0.00138,-0.0994
-1,0.3352,0.00742,0.00135,-0.0992
-0.9,0.3463,0.00742,0.00133,-0.0992
-0.8,0.3576,0.0074,0.00131,-0.0992
-0.7,0.3686,0.0074,0.0013,-0.0991
-0.6,0.3796,0.00741,0.00128,-0.099
-0.5,0.3903,0.00744,0.00127,-0.0988
-0.4,0.4014,0.00744,0.00126,-0.0988
-0.3,0.4123,0.00747,0.00124,-0.0986
-0.2,0.4234,0.00748,0.00124,-0.0986
-0.1,0.4339,0.00754,0.00124,-0.0984
0,0.4446,0.00759,0.00124,-0.0983
0.1,0.4556,0.00762,0.00124,-0.0982
0.2,0.4666,0.00765,0.00124,-0.0981
0.4,0.4875,0.00784,0.00127,-0.0978
0.5,0.4973,0.00801,0.00131,-0.0975
0.6,0.5077,0.00813,0.00133,-0.0974
0.7,0.5181,0.00824,0.00137,-0.0973
0.8,0.5288,0.00833,0.0014,-0.0972
0.9,0.5395,0.00842,0.00144,-0.0971
1,0.5501,0.00849,0.00147,-0.097
1.1,0.5599,0.00872,0.00154,-0.0968
1.2,0.5704,0.00883,0.00158,-0.0968
1.3,0.5809,0.00895,0.00165,-0.0967
1.4,0.5914,0.00907,0.0017,-0.0966
1.5,0.6018,0.0092,0.00175,-0.0965
2,0.6463,0.00842,0.00215,-0.0947
2.1,0.6572,0.00851,0.00221,-0.0947
2.2,0.668,0.00861,0.00227,-0.0946
2.3,0.6786,0.00874,0.00232,-0.0945
2.4,0.6895,0.00882,0.00238,-0.0945
2.5,0.7004,0.0089,0.00242,-0.0944
2.6,0.7113,0.00899,0.0025,-0.0944
2.7,0.7222,0.00906,0.00255,-0.0943
2.8,0.7331,0.00914,0.0026,-0.0943
2.9,0.7438,0.00925,0.00266,-0.0942
3,0.7546,0.00934,0.00271,-0.0941
3.1,0.7654,0.00942,0.00278,-0.0941
3.2,0.7763,0.00949,0.00283,-0.094
3.3,0.7871,0.00957,0.00289,-0.094
3.4,0.7978,0.00968,0.00296,-0.0939
3.5,0.8085,0.00977,0.00302,-0.0938
3.6,0.8193,0.00986,0.00309,-0.0937
3.7,0.8301,0.00994,0.00315,-0.0937
3.8,0.8409,0.01002,0.00322,-0.0936
3.9,0.8515,0.01012,0.00331,-0.0935
4,0.8623,0.0102,0.00339,-0.0934
4.1,0.8728,0.01032,0.00346,-0.0933
4.2,0.8834,0.01042,0.00355,-0.0932
4.3,0.8941,0.0105,0.00362,-0.0932
4.4,0.9048,0.01059,0.0037,-0.0931
4.5,0.9153,0.0107,0.00378,-0.093
4.6,0.9259,0.0108,0.00388,-0.0929
4.7,0.9363,0.01092,0.00396,-0.0928
4.8,0.9467,0.01104,0.00405,-0.0927
4.9,0.9573,0.01114,0.00415,-0.0926
5,0.9679,0.01123,0.00424,-0.0924
5.1,0.9783,0.01135,0.00434,-0.0923
5.2,0.9886,0.01148,0.00446,-0.0922
5.3,0.9991,0.01157,0.00457,-0.0921
5.4,1.0093,0.01171,0.00468,-0.092
5.5,1.0196,0.01184,0.00479,-0.0918
5.6,1.03,0.01196,0.00491,-0.0917
5.7,1.0404,0.01207,0.00502,-0.0916
5.8,1.0507,0.01219,0.00513,-0.0914
5.9,1.0608,0.01232,0.00525,-0.0913
6,1.071,0.01246,0.0054,-0.0911
6.1,1.0813,0.01258,0.00551,-0.091
6.2,1.0915,0.0127,0.00564,-0.0908
6.3,1.1015,0.01286,0.00577,-0.0906
6.4,1.1115,0.01301,0.00593,-0.0905
6.5,1.1216,0.01314,0.00608,-0.0903
6.6,1.1317,0.01327,0.00622,-0.0901
6.7,1.1418,0.0134,0.00636,-0.09
6.8,1.1518,0.01354,0.0065,-0.0898
6.9,1.1618,0.01369,0.00665,-0.0896
7,1.1716,0.01386,0.00682,-0.0894
7.1,1.1813,0.01404,0.007,-0.0891
7.2,1.1913,0.01417,0.00716,-0.089
7.3,1.2013,0.01431,0.00732,-0.0888
7.4,1.2111,0.01446,0.00748,-0.0886
7.5,1.2209,0.01461,0.00765,-0.0883
7.6,1.2306,0.01478,0.00783,-0.0881
7.7,1.2398,0.01501,0.00804,-0.0878
7.8,1.2494,0.01518,0.00824,-0.0876
7.9,1.2591,0.01533,0.00841,-0.0874
8,1.2687,0.01549,0.00857,-0.0872
8.1,1.2783,0.01567,0.00876,-0.0869
8.2,1.2877,0.01585,0.00895,-0.0867
8.3,1.297,0.01606,0.00916,-0.0864
8.4,1.3061,0.01627,0.00939,-0.0861
8.5,1.3154,0.01647,0.00961,-0.0858
8.6,1.3248,0.01664,0.00981,-0.0855
8.7,1.3342,0.01682,0.01002,-0.0853
8.8,1.3434,0.017,0.01023,-0.085
8.9,1.3525,0.0172,0.01045,-0.0847
9,1.3616,0.01741,0.01067,-0.0844
9.1,1.3705,0.01763,0.01092,-0.084
9.2,1.3792,0.01787,0.01118,-0.0837
9.3,1.3878,0.01813,0.01145,-0.0833
9.4,1.3968,0.01832,0.01168,-0.083
9.5,1.4057,0.01853,0.01192,-0.0827
9.6,1.4144,0.01875,0.01217,-0.0823
9.7,1.423,0.01897,0.01243,-0.0819
9.8,1.4315,0.01921,0.01269,-0.0816
9.9,1.4398,0.01947,0.01296,-0.0812
10,1.448,0.01974,0.01326,-0.0807
10.1,1.4558,0.02005,0.0136,-0.0803
10.2,1.464,0.0203,0.01388,-0.0798
10.3,1.4721,0.02056,0.01419,-0.0794
10.4,1.4804,0.02077,0.0144,-0.079
10.5,1.4882,0.02105,0.01471,-0.0786
10.6,1.4958,0.02134,0.01503,-0.0781
10.7,1.5033,0.02165,0.01539,-0.0775
10.8,1.5105,0.02198,0.01575,-0.077
10.9,1.5173,0.02234,0.01615,-0.0764
11,1.5243,0.02267,0.01653,-0.0758
11.1,1.5313,0.023,0.01691,-0.0752
11.2,1.538,0.02334,0.0173,-0.0746
11.3,1.5446,0.02369,0.0177,-0.0739
11.4,1.5509,0.02405,0.0181,-0.0732
11.5,1.5569,0.02441,0.01852,-0.0725
11.6,1.5627,0.02479,0.01895,-0.0718
11.7,1.5683,0.02517,0.01938,-0.071
11.8,1.5734,0.02557,0.01983,-0.0701
11.9,1.5783,0.02597,0.02028,-0.0692
12,1.5828,0.02638,0.02074,-0.0683
12.1,1.5862,0.02679,0.0212,-0.0672
12.2,1.5893,0.02722,0.02168,-0.066
12.3,1.5921,0.02768,0.02219,-0.0648
12.4,1.5947,0.02815,0.02271,-0.0636
12.5,1.597,0.02865,0.02327,-0.0624
12.6,1.599,0.02917,0.02384,-0.0612
12.7,1.6006,0.02973,0.02446,-0.06
12.8,1.6018,0.03032,0.02513,-0.0588
12.9,1.6027,0.03095,0.02582,-0.0576
13,1.6029,0.03163,0.02656,-0.0563
13.1,1.6026,0.03235,0.02735,-0.0551
13.2,1.6017,0.03313,0.02819,-0.0538
13.3,1.6001,0.03398,0.02912,-0.0526
13.4,1.598,0.03487,0.03008,-0.0514
13.5,1.5948,0.03587,0.03116,-0.0501
13.6,1.591,0.03693,0.0323,-0.049
13.7,1.5863,0.03811,0.03354,-0.0479
13.8,1.5855,0.03897,0.03446,-0.0471
13.9,1.5845,0.03985,0.03541,-0.0464
14,1.5826,0.04083,0.03646,-0.0457
14.1,1.5804,0.04188,0.03758,-0.045
14.2,1.5775,0.04302,0.03879,-0.0445
14.3,1.5745,0.04421,0.04004,-0.0441
14.4,1.5705,0.04554,0.04145,-0.0437
14.5,1.5662,0.04693,0.04291,-0.0435
14.6,1.5606,0.04852,0.04458,-0.0435
14.7,1.5553,0.05015,0.04629,-0.0436
14.8,1.5491,0.05197,0.04818,-0.0439
14.9,1.5422,0.05396,0.05026,-0.0445
15,1.5341,0.05622,0.05259,-0.0453
15.1,1.5252,0.05871,0.05517,-0.0465
15.2,1.5147,0.0616,0.05815,-0.0482
15.3,1.5037,0.06482,0.06147,-0.0505
15.4,1.4893,0.06899,0.06575,-0.0538
15.5,1.4731,0.07405,0.07093,-0.0582
15.6,1.4454,0.08298,0.08004,-0.0667
15.7,1.4149,0.09523,0.09255,-0.0783
15.8,1.3981,0.10349,0.10097,-0.0851
15.9,1.377,0.11235,0.10994,-0.0919
16,1.3516,0.12201,0.11973,-0.0992
16.2,1.3098,0.13831,0.13623,-0.1111
16.3,1.292,0.14549,0.14348,-0.1164
16.5,1.2646,0.15731,0.15541,-0.1254
16.6,1.2521,0.16307,0.16122,-0.1298
16.7,1.2434,0.16768,0.16587,-0.1335
16.8,1.2349,0.17256,0.1708,-0.1372
16.9,1.2279,0.17722,0.1755,-0.1407
17.1,1.2172,0.18642,0.18477,-0.1474
17.2,1.2139,0.19049,0.18887,-0.1503
17.3,1.2114,0.19446,0.19287,-0.1531
17.4,1.2063,0.20037,0.19881,-0.1568
17.5,1.2041,0.20483,0.20329,-0.1597
17.6,1.1977,0.2128,0.21131,-0.1642
17.7,1.191,0.22229,0.22083,-0.1689
17.8,1.1911,0.22623,0.22477,-0.1713
17.9,1.1923,0.22935,0.2279,-0.1732
18,1.1944,0.23152,0.23008,-0.1748
18.1,1.1964,0.23381,0.23237,-0.1765
18.2,1.1989,0.2356,0.23415,-0.178
18.3,1.2014,0.23735,0.2359,-0.1794
18.4,1.204,0.2389,0.23746,-0.1808
18.5,1.2068,0.24024,0.23879,-0.1821
18.6,1.2094,0.24168,0.24024,-0.1835
18.7,1.2121,0.2429,0.24146,-0.1848
18.8,1.2146,0.24422,0.24278,-0.1862

