airfoilName st24.dat
Re 	470000
M 	5.000000e-02
N 	4.500000e+00
VACC 	0 VACCflag 1
XTR 	1.00 	1.00 XTRflag 0
alpha,cl,cd,cdp,cm
-6.7,-0.3332,0.02269,0.01892,-0.0897
-6.6,-0.3205,0.02094,0.01691,-0.0911
-6.5,-0.308,0.01977,0.01553,-0.0921
-6.4,-0.2955,0.01887,0.01446,-0.0929
-6.3,-0.2829,0.01815,0.01359,-0.0936
-6.2,-0.2703,0.01754,0.01285,-0.0942
-6.1,-0.2578,0.01702,0.01221,-0.0948
-6,-0.2451,0.01661,0.0117,-0.0953
-5.9,-0.232,0.01627,0.01126,-0.0959
-5.8,-0.2193,0.01558,0.01046,-0.0965
-5.7,-0.2068,0.01463,0.00938,-0.0972
-5.6,-0.1953,0.01401,0.00868,-0.0974
-5.5,-0.184,0.01359,0.00819,-0.0976
-5.4,-0.1722,0.01323,0.00779,-0.0979
-5.3,-0.1603,0.01293,0.00744,-0.0981
-5.2,-0.1481,0.01266,0.00712,-0.0984
-5.1,-0.1359,0.01241,0.00683,-0.0987
-5,-0.1235,0.01217,0.00654,-0.099
-4.9,-0.1107,0.01193,0.00626,-0.0994
-4.8,-0.0981,0.01171,0.00598,-0.0997
-4.7,-0.0855,0.01149,0.00572,-0.1001
-4.6,-0.0728,0.01128,0.00546,-0.1004
-4.5,-0.062,0.01109,0.00521,-0.1003
-4.4,-0.0506,0.01091,0.00499,-0.1003
-4.3,-0.0389,0.01074,0.00478,-0.1004
-4.2,-0.0267,0.01061,0.0046,-0.1006
-4.1,-0.0143,0.01032,0.00429,-0.1009
-4,-0.0015,0.01013,0.00406,-0.1012
-3.9,0.0101,0.00999,0.00391,-0.1013
-3.8,0.0211,0.00987,0.00377,-0.1012
-3.7,0.0325,0.00975,0.00363,-0.1012
-3.6,0.0442,0.00963,0.00349,-0.1013
-3.5,0.0561,0.00952,0.00334,-0.1014
-3.4,0.0681,0.00942,0.00319,-0.1015
-3.3,0.08,0.00929,0.00306,-0.1016
-3.2,0.0908,0.00919,0.00296,-0.1015
-3.1,0.1021,0.00911,0.00287,-0.1015
-3,0.1136,0.00903,0.00277,-0.1015
-2.9,0.1252,0.00895,0.00268,-0.1015
-2.8,0.1369,0.00887,0.00258,-0.1016
-2.7,0.1482,0.00879,0.00251,-0.1016
-2.6,0.1591,0.00874,0.00249,-0.1015
-2.5,0.1705,0.00866,0.00241,-0.1015
-2.4,0.1818,0.00859,0.00236,-0.1015
-2.3,0.1933,0.00854,0.00228,-0.1015
-2.2,0.2044,0.00847,0.00221,-0.1014
-2.1,0.2155,0.00841,0.00215,-0.1013
-1.9,0.2374,0.0083,0.00203,-0.101
-1.8,0.2485,0.00825,0.00198,-0.1009
-1.7,0.2593,0.00821,0.00192,-0.1008
-1.6,0.2706,0.00817,0.00188,-0.1007
-1.5,0.2816,0.00813,0.00182,-0.1006
-1.4,0.2927,0.00809,0.0018,-0.1005
-1.3,0.3037,0.00806,0.00175,-0.1004
-1.2,0.3149,0.00802,0.00172,-0.1003
-1.1,0.3257,0.008,0.00167,-0.1001
-1,0.3368,0.00798,0.00163,-0.1001
-0.9,0.3481,0.00794,0.00163,-0.1001
-0.8,0.3591,0.00793,0.00159,-0.0999
-0.7,0.37,0.00792,0.00156,-0.0998
-0.6,0.3811,0.00791,0.00154,-0.0997
-0.5,0.3923,0.00789,0.00152,-0.0997
-0.4,0.403,0.00789,0.00151,-0.0995
-0.3,0.4142,0.00788,0.0015,-0.0994
-0.2,0.4249,0.0079,0.00148,-0.0992
-0.1,0.4357,0.00792,0.00147,-0.0991
0,0.4468,0.00791,0.00146,-0.099
0.1,0.4578,0.00792,0.00145,-0.0989
0.2,0.4681,0.00798,0.00144,-0.0987
0.3,0.479,0.008,0.00144,-0.0986
0.4,0.4897,0.00804,0.00144,-0.0984
0.5,0.5005,0.00807,0.00145,-0.0983
0.6,0.5111,0.00814,0.00145,-0.0981
0.7,0.5218,0.00817,0.00146,-0.098
0.8,0.5306,0.00841,0.00149,-0.0975
0.9,0.5411,0.00849,0.00151,-0.0973
1,0.5516,0.00857,0.00154,-0.0972
1.1,0.5621,0.00865,0.00157,-0.0971
1.2,0.5726,0.00873,0.00162,-0.097
1.3,0.5831,0.00873,0.00168,-0.097
1.7,0.6158,0.0079,0.00194,-0.0947
1.8,0.626,0.00809,0.00199,-0.0946
1.9,0.635,0.00846,0.0021,-0.0943
2,0.645,0.00868,0.00219,-0.0941
2.1,0.6552,0.00887,0.00226,-0.094
2.2,0.6657,0.00902,0.00233,-0.0939
2.3,0.6762,0.00916,0.0024,-0.0938
2.4,0.6869,0.00928,0.00247,-0.0937
2.5,0.6976,0.00938,0.00253,-0.0936
2.6,0.708,0.00954,0.00263,-0.0935
2.7,0.7187,0.00964,0.0027,-0.0935
2.8,0.7296,0.00973,0.00276,-0.0934
2.9,0.7403,0.00983,0.00282,-0.0933
3,0.7511,0.00991,0.00289,-0.0932
3.1,0.7618,0.01,0.00295,-0.0932
3.2,0.7723,0.01013,0.00303,-0.0931
3.3,0.7831,0.01022,0.00309,-0.093
3.4,0.7937,0.01032,0.00317,-0.0929
3.5,0.8045,0.0104,0.00324,-0.0928
3.6,0.8152,0.01049,0.00331,-0.0928
3.7,0.8257,0.01062,0.00339,-0.0927
3.8,0.8364,0.01071,0.00346,-0.0926
3.9,0.8469,0.01082,0.00355,-0.0925
4,0.8576,0.0109,0.00365,-0.0924
4.1,0.8683,0.011,0.00373,-0.0923
4.2,0.8788,0.01111,0.00381,-0.0922
4.3,0.8894,0.0112,0.00391,-0.0921
4.4,0.8998,0.01133,0.00399,-0.092
4.5,0.9103,0.01145,0.00409,-0.0919
4.6,0.9208,0.01154,0.00418,-0.0918
4.7,0.9313,0.01165,0.00427,-0.0916
4.8,0.9417,0.01177,0.00437,-0.0915
4.9,0.9522,0.01188,0.00448,-0.0914
5,0.9624,0.01201,0.00458,-0.0913
5.1,0.9727,0.01215,0.0047,-0.0911
5.2,0.9831,0.01225,0.0048,-0.091
5.3,0.9935,0.01237,0.00494,-0.0909
5.4,1.0037,0.0125,0.00505,-0.0907
5.5,1.0139,0.01263,0.00519,-0.0906
5.6,1.0242,0.01275,0.00531,-0.0904
5.7,1.0343,0.0129,0.00542,-0.0903
5.8,1.0443,0.01306,0.00557,-0.0901
5.9,1.0546,0.01318,0.0057,-0.0899
6,1.0648,0.0133,0.00583,-0.0898
6.1,1.0748,0.01344,0.00596,-0.0896
6.2,1.0848,0.0136,0.00611,-0.0894
6.3,1.0948,0.01375,0.00627,-0.0892
6.4,1.1049,0.01388,0.00642,-0.0891
6.5,1.1149,0.01402,0.00659,-0.0889
6.6,1.1248,0.01418,0.00674,-0.0887
6.8,1.1443,0.01453,0.00708,-0.0883
6.9,1.1542,0.01468,0.00725,-0.0881
7,1.1641,0.01483,0.00742,-0.0879
7.1,1.1738,0.01499,0.00759,-0.0876
7.2,1.1835,0.01517,0.00778,-0.0874
7.3,1.1931,0.01536,0.00797,-0.0872
7.4,1.2024,0.01558,0.00819,-0.0869
7.5,1.2121,0.01574,0.00839,-0.0866
7.6,1.2218,0.0159,0.00858,-0.0864
7.7,1.2314,0.01608,0.00879,-0.0861
7.8,1.2409,0.01626,0.00902,-0.0859
8,1.2595,0.01666,0.00943,-0.0853
8.1,1.2683,0.01693,0.00967,-0.085
8.2,1.2778,0.0171,0.00988,-0.0848
8.3,1.2871,0.01729,0.0101,-0.0845
8.4,1.2963,0.01748,0.01033,-0.0842
8.5,1.3055,0.01767,0.0105,-0.0839
8.6,1.3145,0.01789,0.01074,-0.0836
8.7,1.3233,0.01815,0.01101,-0.0833
8.8,1.3318,0.01842,0.0113,-0.0829
8.9,1.3409,0.01861,0.01153,-0.0826
9,1.3499,0.01882,0.01178,-0.0823
9.2,1.3674,0.01927,0.01232,-0.0815
9.3,1.376,0.01951,0.01258,-0.0812
9.4,1.3845,0.01976,0.01285,-0.0808
9.5,1.3928,0.02003,0.01315,-0.0804
9.6,1.4008,0.02034,0.01348,-0.08
9.7,1.409,0.02061,0.01378,-0.0795
9.8,1.4173,0.02085,0.01408,-0.0791
9.9,1.4255,0.02112,0.01439,-0.0787
10,1.4335,0.02139,0.01471,-0.0782
10.1,1.4414,0.02167,0.01503,-0.0778
10.2,1.4491,0.02197,0.01536,-0.0773
10.3,1.4567,0.02227,0.01569,-0.0768
10.4,1.464,0.0226,0.01605,-0.0762
10.5,1.471,0.02296,0.01645,-0.0757
10.6,1.4775,0.02337,0.01689,-0.075
10.7,1.4846,0.02369,0.01727,-0.0744
10.8,1.4914,0.02403,0.0177,-0.0738
10.9,1.498,0.0244,0.01812,-0.0732
11,1.5044,0.02477,0.01855,-0.0725
11.2,1.5184,0.02531,0.01913,-0.0714
11.3,1.5242,0.0257,0.01957,-0.0707
11.4,1.5295,0.02611,0.02002,-0.0699
11.5,1.5344,0.02656,0.02051,-0.0691
11.6,1.5386,0.02704,0.02105,-0.0681
11.7,1.5418,0.02756,0.02161,-0.067
11.8,1.5452,0.02798,0.02209,-0.0659
11.9,1.5483,0.02842,0.0226,-0.0647
12,1.5511,0.0289,0.02314,-0.0635
12.1,1.5537,0.02939,0.0237,-0.0624
12.2,1.556,0.0299,0.02427,-0.0612
12.3,1.558,0.03043,0.02488,-0.06
12.4,1.5598,0.03099,0.0255,-0.0589
12.5,1.5613,0.03158,0.02615,-0.0577
12.6,1.5627,0.03218,0.02682,-0.0566
12.7,1.5637,0.0328,0.02751,-0.0555
12.8,1.5644,0.03346,0.02824,-0.0544
12.9,1.5648,0.03415,0.029,-0.0533
13,1.5651,0.03486,0.02978,-0.0522
13.1,1.5649,0.03561,0.03062,-0.0512
13.2,1.5644,0.0364,0.03147,-0.0502
13.3,1.5634,0.03723,0.03238,-0.0492
13.4,1.5624,0.03809,0.03331,-0.0483
13.5,1.5608,0.03903,0.03431,-0.0474
13.6,1.5589,0.03999,0.03535,-0.0466
13.7,1.5565,0.04103,0.03645,-0.0458
13.8,1.5536,0.04213,0.03763,-0.0452
13.9,1.5504,0.0433,0.03887,-0.0446
14,1.5467,0.04456,0.04021,-0.0441
14.1,1.5426,0.0459,0.04162,-0.0437
14.2,1.5378,0.04733,0.04313,-0.0435
14.3,1.5328,0.04886,0.04473,-0.0434
14.4,1.5269,0.05055,0.0465,-0.0435
14.5,1.5207,0.05235,0.04838,-0.0438
14.6,1.5138,0.05434,0.05045,-0.0443
14.7,1.5063,0.0565,0.05269,-0.0451
14.8,1.4981,0.05886,0.05514,-0.0462
14.9,1.4889,0.06152,0.05789,-0.0477
15,1.4789,0.06451,0.06098,-0.0497
15.1,1.4678,0.06795,0.06452,-0.0522
15.2,1.4551,0.07202,0.06871,-0.0556
15.3,1.4408,0.07692,0.07373,-0.06
15.4,1.4228,0.08345,0.08041,-0.0661
15.5,1.398,0.09322,0.09038,-0.0754
15.6,1.3625,0.10747,0.10485,-0.0877
15.7,1.3334,0.11859,0.11611,-0.0964
15.8,1.3116,0.12722,0.12484,-0.103
15.9,1.2938,0.13453,0.13221,-0.1084
16,1.2781,0.1412,0.13894,-0.1133
16.1,1.2647,0.14719,0.14498,-0.1178
16.2,1.2537,0.15234,0.15017,-0.1217
16.3,1.2431,0.15744,0.1553,-0.1256
16.4,1.235,0.16171,0.1596,-0.129
16.5,1.227,0.1662,0.16412,-0.1325
16.6,1.2214,0.16993,0.16789,-0.1355
16.7,1.2161,0.1739,0.17189,-0.1385
16.8,1.2116,0.17783,0.17585,-0.1415
16.9,1.2083,0.18152,0.17957,-0.1442
17,1.2045,0.1858,0.18388,-0.1472
17.1,1.2012,0.19023,0.18833,-0.1503
17.2,1.1982,0.19471,0.19284,-0.1532
17.3,1.1933,0.20104,0.19922,-0.157
18.3,1.1927,0.24466,0.24292,-0.181
18.4,1.1955,0.24619,0.24445,-0.1823
18.5,1.1983,0.24762,0.24589,-0.1837
18.6,1.2011,0.2491,0.24737,-0.185
18.7,1.204,0.25049,0.24877,-0.1863
18.8,1.2067,0.25192,0.2502,-0.1877
18.9,1.2095,0.25313,0.25141,-0.1889
19,1.2122,0.25436,0.25264,-0.1902
19.1,1.2147,0.25554,0.25383,-0.1915
19.3,1.2206,0.27319,0.27144,-0.1969
19.4,1.2238,0.2756,0.27385,-0.1984
19.5,1.227,0.27778,0.27603,-0.1999
19.6,1.2302,0.27989,0.27814,-0.2013
19.7,1.2334,0.28192,0.28018,-0.2028
19.8,1.2366,0.28389,0.28215,-0.2042
19.9,1.2397,0.28581,0.28407,-0.2056
20,1.2429,0.28771,0.28598,-0.2071
20.1,1.2461,0.28958,0.28785,-0.2085
20.2,1.2493,0.29136,0.28964,-0.2099
20.3,1.2524,0.29315,0.29143,-0.2114
20.4,1.2556,0.29497,0.29324,-0.2128
20.5,1.2587,0.29672,0.29501,-0.2142
20.6,1.2619,0.29841,0.2967,-0.2157
20.7,1.265,0.30013,0.29843,-0.2171
20.8,1.2681,0.30185,0.30016,-0.2185
20.9,1.2712,0.30349,0.30181,-0.2199
21,1.2743,0.30513,0.30345,-0.2214
21.1,1.2774,0.30679,0.30511,-0.2228
21.2,1.2805,0.30848,0.3068,-0.2243
21.3,1.2836,0.31018,0.30851,-0.2257
21.4,1.2866,0.31172,0.31005,-0.2271
21.5,1.2897,0.31341,0.31174,-0.2286
21.6,1.2928,0.31519,0.31353,-0.23
21.7,1.2958,0.31676,0.31511,-0.2314
21.8,1.2989,0.31848,0.31683,-0.2329
21.9,1.3018,0.32008,0.31843,-0.2343
22,1.3048,0.32185,0.32021,-0.2357
22.1,1.3078,0.32359,0.32195,-0.2371
22.2,1.3108,0.32541,0.32378,-0.2386
22.3,1.3137,0.32718,0.32555,-0.24
22.4,1.3166,0.32904,0.32742,-0.2414
22.5,1.3195,0.33097,0.32934,-0.2428
22.6,1.3224,0.33289,0.33127,-0.2441
22.7,1.3253,0.3349,0.33329,-0.2455
22.8,1.3282,0.33694,0.33533,-0.2469
22.9,1.3327,0.34083,0.3392,-0.249
23,1.337,0.3445,0.34287,-0.2511
23.1,1.3438,0.35233,0.35069,-0.254
23.2,1.3474,0.35505,0.35341,-0.2556
23.3,1.3508,0.35751,0.35587,-0.2573
23.4,1.3542,0.35989,0.35826,-0.2589
23.5,1.3576,0.36235,0.36072,-0.2606
23.6,1.3609,0.36462,0.36299,-0.2622
23.7,1.3642,0.3669,0.36528,-0.2638
23.8,1.3675,0.36913,0.36752,-0.2655
23.9,1.3707,0.37135,0.36973,-0.2671
24,1.374,0.37351,0.3719,-0.2688
24.1,1.3772,0.37565,0.37405,-0.2704
24.2,1.3804,0.37779,0.37618,-0.2721
24.3,1.3835,0.37987,0.37828,-0.2737
24.4,1.3867,0.38196,0.38038,-0.2754
24.5,1.3898,0.38402,0.38244,-0.2771
24.6,1.3929,0.38605,0.38448,-0.2787
24.7,1.396,0.38808,0.38651,-0.2804
24.8,1.399,0.39008,0.38852,-0.2821
24.9,1.4021,0.39211,0.39055,-0.2838
25,1.4051,0.39403,0.39247,-0.2855
25.1,1.4081,0.396,0.39446,-0.2871
25.2,1.4111,0.39796,0.39641,-0.2888
25.3,1.4141,0.39994,0.3984,-0.2905
25.4,1.417,0.40176,0.40023,-0.2922
25.5,1.4199,0.40364,0.40212,-0.2939
25.6,1.4228,0.40559,0.40407,-0.2956
25.7,1.4257,0.40745,0.40594,-0.2973
25.8,1.4285,0.40927,0.40776,-0.299
25.9,1.4314,0.41118,0.40967,-0.3007
26,1.4342,0.41305,0.41154,-0.3024
26.1,1.4369,0.4149,0.4134,-0.3041
26.2,1.4397,0.4168,0.41531,-0.3058
26.3,1.4425,0.41864,0.41715,-0.3075
26.4,1.4452,0.42052,0.41904,-0.3093
26.5,1.448,0.42238,0.42091,-0.311
26.6,1.4507,0.42429,0.42282,-0.3127
26.7,1.4533,0.42609,0.42463,-0.3144
26.8,1.456,0.42804,0.42658,-0.3161
26.9,1.4586,0.42987,0.42842,-0.3178
27,1.4612,0.43173,0.43028,-0.3195
27.1,1.4639,0.43374,0.4323,-0.3213
27.2,1.4664,0.43562,0.43418,-0.323
27.3,1.469,0.43763,0.4362,-0.3247
27.4,1.4715,0.43965,0.43824,-0.3264
27.5,1.4741,0.44175,0.44034,-0.3281
27.6,1.4766,0.44382,0.44241,-0.3298
27.7,1.4791,0.44599,0.44459,-0.3315
27.8,1.4817,0.4482,0.44681,-0.3332
27.9,1.4841,0.45044,0.44905,-0.3349
28,1.4866,0.45275,0.45137,-0.3366
28.1,1.4891,0.45511,0.45373,-0.3383
28.2,1.4916,0.45756,0.45619,-0.34
28.3,1.4941,0.45999,0.45862,-0.3417
28.4,1.4966,0.46242,0.46106,-0.3434
28.5,1.499,0.46497,0.46362,-0.345
28.6,1.5014,0.46744,0.46609,-0.3467
28.7,1.5038,0.46998,0.46864,-0.3484
28.8,1.5063,0.47237,0.47104,-0.3502
28.9,1.5087,0.47485,0.47352,-0.3519
29,1.5111,0.4776,0.47628,-0.3535
29.3,1.5213,0.48516,0.48382,-0.3607
29.4,1.525,0.48791,0.48657,-0.3631
29.5,1.528,0.49054,0.4892,-0.3652
29.6,1.5311,0.49335,0.49201,-0.3673
29.7,1.5345,0.49639,0.49506,-0.3696
29.8,1.5368,0.4987,0.49738,-0.3714
29.9,1.5398,0.50148,0.50016,-0.3735
30,1.5441,0.50496,0.50363,-0.3762

