airfoilName st25.dat
Re 	310000
M 	5.000000e-02
N 	4.500000e+00
VACC 	0 VACCflag 1
XTR 	1.00 	1.00 XTRflag 0
alpha,cl,cd,cdp,cm
-18.9,-0.8095,0.27113,0.2683,0.0839
-18.8,-0.8061,0.26924,0.26641,0.0828
-18.7,-0.8026,0.26734,0.26451,0.0816
-18.6,-0.7992,0.26543,0.2626,0.0805
-18.5,-0.7957,0.26351,0.26068,0.0793
-18.4,-0.7922,0.26157,0.25873,0.0781
-18.3,-0.7887,0.2596,0.25676,0.077
-18.2,-0.7853,0.25762,0.25478,0.0758
-18,-0.7782,0.25357,0.25071,0.0735
-17.9,-0.7747,0.25148,0.24861,0.0723
-17.8,-0.7711,0.24931,0.24645,0.0711
-17.7,-0.7675,0.24707,0.2442,0.0699
-17.6,-0.7636,0.24455,0.24168,0.0687
-17.5,-0.7594,0.24162,0.23875,0.0672
-17.3,-0.7495,0.23473,0.23189,0.0628
-17.2,-0.7463,0.23284,0.23,0.0619
-17.1,-0.7431,0.23097,0.22813,0.0611
-17,-0.7399,0.22912,0.22628,0.0603
-16.9,-0.7368,0.22728,0.22443,0.0594
-16.8,-0.7342,0.22566,0.22281,0.0587
-16.7,-0.731,0.22389,0.22104,0.0579
-16.6,-0.7278,0.22212,0.21927,0.057
-16.5,-0.7247,0.22038,0.21752,0.0561
-16.4,-0.7215,0.21864,0.21579,0.0552
-16.3,-0.7183,0.21692,0.21407,0.0543
-16.2,-0.7151,0.21521,0.21235,0.0535
-16.1,-0.712,0.21351,0.21065,0.0526
-16,-0.7088,0.21182,0.20896,0.0517
-15.9,-0.7056,0.21014,0.20728,0.0508
-15.8,-0.7025,0.20846,0.2056,0.05
-15.7,-0.6993,0.20679,0.20393,0.0491
-15.6,-0.6961,0.20513,0.20227,0.0482
-15.5,-0.693,0.20347,0.20061,0.0473
-15.4,-0.6898,0.20181,0.19895,0.0465
-15.3,-0.6866,0.20016,0.1973,0.0456
-15.2,-0.6834,0.19851,0.19565,0.0447
-15.1,-0.6802,0.19685,0.19399,0.0438
-15,-0.6771,0.19521,0.19235,0.043
-14.9,-0.6739,0.19356,0.1907,0.0421
-14.8,-0.6707,0.19191,0.18905,0.0412
-14.7,-0.6676,0.19027,0.18741,0.0404
-14.6,-0.6644,0.18863,0.18575,0.0395
-14.5,-0.6613,0.18697,0.18409,0.0386
-14.4,-0.6581,0.18532,0.18244,0.0378
-14.3,-0.655,0.18367,0.18079,0.0369
-14.2,-0.6519,0.18202,0.17914,0.036
-14.1,-0.6487,0.18036,0.17749,0.0352
-14,-0.6456,0.1787,0.17583,0.0343
-13.9,-0.6425,0.17704,0.17417,0.0335
-13.8,-0.6394,0.17538,0.17251,0.0326
-13.7,-0.6364,0.17371,0.17084,0.0318
-13.6,-0.6333,0.17204,0.16917,0.0309
-13.5,-0.6302,0.17036,0.16749,0.0301
-13.4,-0.6271,0.16868,0.16581,0.0292
-13.3,-0.624,0.16699,0.16412,0.0284
-13.2,-0.6209,0.16529,0.16243,0.0275
-13.1,-0.6178,0.16359,0.16072,0.0267
-13,-0.6148,0.16188,0.15902,0.0258
-12.9,-0.6118,0.16017,0.1573,0.025
-12.8,-0.6087,0.15844,0.15558,0.0241
-12.7,-0.6057,0.15671,0.15384,0.0232
-12.6,-0.6027,0.15496,0.1521,0.0224
-12.5,-0.5998,0.1532,0.15034,0.0215
-12.4,-0.5968,0.15143,0.14857,0.0207
-12.3,-0.5939,0.14964,0.14679,0.0198
-12.2,-0.591,0.14783,0.14498,0.0189
-12.1,-0.5881,0.14597,0.14312,0.018
-12,-0.5852,0.1441,0.14125,0.0171
-11.9,-0.5823,0.14218,0.13933,0.0162
-11.8,-0.5795,0.1402,0.13735,0.0153
-7.2,-0.4987,0.02911,0.02504,-0.0583
-7,-0.4755,0.0248,0.0201,-0.0613
-6.9,-0.4637,0.02348,0.01854,-0.0622
-6.8,-0.4517,0.0224,0.01723,-0.063
-6.7,-0.4397,0.0215,0.01615,-0.0636
-6.6,-0.4278,0.02077,0.01525,-0.064
-6.5,-0.4157,0.02017,0.01449,-0.0645
-6.4,-0.4034,0.0197,0.01388,-0.065
-6.3,-0.3911,0.0192,0.01329,-0.0654
-6.2,-0.3787,0.01826,0.01228,-0.0661
-6.1,-0.3665,0.01768,0.01164,-0.0666
-6,-0.354,0.01722,0.01113,-0.0671
-5.9,-0.3413,0.01684,0.0107,-0.0676
-5.8,-0.3284,0.01649,0.01031,-0.0681
-5.7,-0.3158,0.01617,0.00995,-0.0685
-5.6,-0.304,0.01587,0.0096,-0.0688
-5.5,-0.2918,0.01558,0.00924,-0.0691
-5.4,-0.2788,0.01528,0.00889,-0.0696
-5.3,-0.2661,0.01499,0.00855,-0.07
-5.2,-0.2533,0.01471,0.00822,-0.0704
-5.1,-0.2404,0.01443,0.00788,-0.0708
-5,-0.2274,0.01416,0.00755,-0.0713
-4.9,-0.2119,0.01421,0.00753,-0.0721
-4.8,-0.1978,0.01398,0.00726,-0.0727
-4.7,-0.1867,0.0135,0.00676,-0.0729
-4.6,-0.1745,0.01321,0.00645,-0.0731
-4.5,-0.1621,0.01299,0.00621,-0.0734
-4.4,-0.149,0.01278,0.00598,-0.0739
-4.3,-0.1357,0.01258,0.00574,-0.0743
-4.2,-0.1227,0.01239,0.00552,-0.0747
-4.1,-0.1089,0.01219,0.00528,-0.0753
-4,-0.0978,0.01203,0.00508,-0.0752
-3.9,-0.0859,0.01188,0.0049,-0.0753
-3.8,-0.0735,0.01167,0.00468,-0.0756
-3.7,-0.0609,0.0115,0.00451,-0.0759
-3.6,-0.0477,0.01135,0.00435,-0.0763
-3.5,-0.0348,0.01122,0.0042,-0.0766
-3.4,-0.0237,0.0111,0.00406,-0.0766
-3.3,-0.012,0.011,0.00393,-0.0766
-3.2,0.0002,0.01086,0.00378,-0.0768
-3.1,0.0126,0.01075,0.00368,-0.077
-3,0.0255,0.01068,0.0036,-0.0774
-2.9,0.0368,0.01056,0.0035,-0.0774
-2.8,0.048,0.01046,0.00341,-0.0773
-2.7,0.06,0.01038,0.00332,-0.0774
-2.6,0.072,0.01029,0.00325,-0.0776
-2.5,0.0842,0.0102,0.00316,-0.0777
-2.4,0.0953,0.01013,0.00309,-0.0777
-2.1,0.1304,0.00989,0.00288,-0.0779
-2,0.1416,0.00983,0.00284,-0.0778
-1.9,0.1526,0.00976,0.00274,-0.0776
-1.8,0.1642,0.00969,0.0027,-0.0776
-1.7,0.1749,0.00961,0.00264,-0.0774
-1.6,0.1863,0.00955,0.00259,-0.0774
-1.5,0.1973,0.00949,0.00254,-0.0772
-1.4,0.2086,0.00945,0.00249,-0.0772
-1.3,0.2195,0.00938,0.00246,-0.077
-1.2,0.2305,0.00933,0.0024,-0.0769
-1.1,0.2417,0.00929,0.00236,-0.0768
-1,0.2528,0.00924,0.00232,-0.0767
-0.9,0.264,0.00921,0.00229,-0.0766
-0.8,0.2748,0.00915,0.00225,-0.0765
-0.7,0.2858,0.00912,0.00222,-0.0764
-0.6,0.2967,0.00908,0.00219,-0.0762
-0.5,0.3079,0.00905,0.00216,-0.0761
-0.4,0.3186,0.00899,0.00213,-0.076
-0.3,0.3294,0.00896,0.0021,-0.0758
-0.2,0.3405,0.00892,0.00208,-0.0758
-0.1,0.3511,0.00889,0.00206,-0.0756
0,0.362,0.00876,0.00205,-0.0755
0.1,0.3724,0.0087,0.00203,-0.0753
0.2,0.3832,0.00861,0.00203,-0.0753
0.3,0.3939,0.00849,0.00204,-0.0752
0.4,0.4043,0.00833,0.00204,-0.0751
0.5,0.4095,0.00726,0.00197,-0.073
0.6,0.4198,0.00737,0.00195,-0.0727
0.7,0.4305,0.00744,0.00195,-0.0726
0.8,0.4412,0.00752,0.00194,-0.0724
0.9,0.4518,0.00762,0.00195,-0.0722
1,0.4624,0.00771,0.00196,-0.0721
1.1,0.4723,0.00788,0.00198,-0.0718
1.2,0.483,0.00799,0.002,-0.0716
1.3,0.4936,0.00809,0.00203,-0.0715
1.4,0.5042,0.0082,0.00206,-0.0713
1.5,0.5148,0.00832,0.00209,-0.0712
1.6,0.5253,0.00844,0.00213,-0.0711
1.7,0.5359,0.00856,0.00216,-0.071
1.8,0.5457,0.00878,0.00222,-0.0707
1.9,0.5562,0.00891,0.00227,-0.0706
2,0.5666,0.00905,0.00232,-0.0705
2.1,0.5771,0.0092,0.00237,-0.0704
2.2,0.5874,0.00936,0.00244,-0.0703
2.3,0.5971,0.00962,0.00253,-0.0701
2.4,0.6075,0.00978,0.00261,-0.07
2.5,0.6179,0.00994,0.00267,-0.0699
2.6,0.6283,0.0101,0.00274,-0.0698
2.7,0.6388,0.01025,0.00282,-0.0697
2.8,0.6494,0.01039,0.0029,-0.0696
2.9,0.66,0.01051,0.00297,-0.0695
3,0.6703,0.01068,0.00306,-0.0694
3.1,0.681,0.0108,0.00315,-0.0694
3.2,0.6918,0.01091,0.00322,-0.0693
3.3,0.7024,0.01103,0.00331,-0.0692
3.4,0.7132,0.01112,0.00339,-0.0692
3.5,0.7239,0.01123,0.00347,-0.0691
3.6,0.7346,0.01134,0.00358,-0.069
3.7,0.7451,0.01147,0.00366,-0.0689
3.8,0.7557,0.01158,0.00376,-0.0689
3.9,0.7665,0.01168,0.00384,-0.0688
4,0.7772,0.01178,0.00392,-0.0687
4.1,0.7878,0.0119,0.00402,-0.0686
4.2,0.7985,0.01199,0.00411,-0.0686
4.3,0.8092,0.0121,0.0042,-0.0685
4.4,0.8195,0.01224,0.0043,-0.0684
4.5,0.8302,0.01234,0.00439,-0.0683
4.6,0.8407,0.01245,0.00449,-0.0682
4.7,0.8512,0.01258,0.0046,-0.0681
4.8,0.8619,0.01267,0.00473,-0.068
4.9,0.8724,0.01279,0.00483,-0.0679
5,0.8828,0.01291,0.00494,-0.0678
5.1,0.8932,0.01304,0.00505,-0.0677
5.2,0.9037,0.01316,0.00516,-0.0676
5.3,0.914,0.01329,0.00528,-0.0675
5.4,0.9244,0.01342,0.00541,-0.0674
5.5,0.9349,0.01353,0.00553,-0.0673
5.6,0.9452,0.01366,0.00565,-0.0672
5.7,0.9554,0.0138,0.00578,-0.067
5.8,0.9656,0.01394,0.0059,-0.0669
5.9,0.9759,0.01407,0.00604,-0.0668
6,0.9861,0.01422,0.0062,-0.0666
6.1,0.9962,0.01437,0.00635,-0.0665
6.2,1.0064,0.0145,0.00649,-0.0664
6.3,1.0166,0.01463,0.00664,-0.0662
6.4,1.0267,0.01478,0.00679,-0.0661
6.5,1.0366,0.01495,0.00694,-0.0659
6.6,1.0466,0.0151,0.00711,-0.0657
6.7,1.0566,0.01525,0.00725,-0.0656
6.8,1.0665,0.01541,0.00741,-0.0654
6.9,1.0762,0.0156,0.00759,-0.0652
7,1.0862,0.01576,0.00777,-0.065
7.1,1.0961,0.01591,0.00795,-0.0648
7.2,1.1059,0.01607,0.00815,-0.0646
7.3,1.1156,0.01625,0.00833,-0.0644
7.4,1.1252,0.01644,0.00853,-0.0642
7.5,1.1345,0.01666,0.00875,-0.064
7.6,1.1443,0.01682,0.00894,-0.0638
7.7,1.154,0.01698,0.00911,-0.0636
7.8,1.1635,0.01717,0.00932,-0.0633
7.9,1.1728,0.01738,0.00954,-0.0631
8,1.1819,0.01762,0.00977,-0.0628
8.1,1.1912,0.01783,0.01001,-0.0625
8.2,1.2006,0.01801,0.01023,-0.0623
8.3,1.2099,0.01821,0.01047,-0.062
8.4,1.2191,0.01842,0.01071,-0.0617
8.5,1.2281,0.01864,0.01097,-0.0614
8.6,1.237,0.01887,0.01123,-0.0611
8.7,1.2458,0.01912,0.01149,-0.0608
8.8,1.2543,0.01939,0.01178,-0.0604
8.9,1.2631,0.01961,0.01202,-0.0601
9,1.272,0.01984,0.01229,-0.0598
9.1,1.2807,0.02007,0.01257,-0.0594
9.2,1.2892,0.02032,0.01285,-0.0591
9.3,1.2977,0.02057,0.01315,-0.0587
9.4,1.306,0.02084,0.01344,-0.0583
9.5,1.3141,0.02112,0.01375,-0.0579
9.6,1.322,0.02142,0.01407,-0.0574
9.7,1.3295,0.02175,0.01443,-0.057
9.8,1.3364,0.02214,0.01485,-0.0564
9.9,1.344,0.02244,0.01521,-0.0559
10,1.352,0.02271,0.01554,-0.0554
10.1,1.3596,0.02299,0.01589,-0.0549
10.2,1.367,0.0233,0.01625,-0.0544
10.3,1.3754,0.02348,0.01647,-0.0541
10.4,1.3833,0.02372,0.01671,-0.0537
10.5,1.3905,0.02402,0.01697,-0.0533
10.6,1.3965,0.02443,0.01739,-0.0527
10.7,1.4037,0.0247,0.01774,-0.0521
10.8,1.4105,0.02501,0.01811,-0.0515
10.9,1.417,0.02533,0.01849,-0.0509
11,1.4232,0.02567,0.01888,-0.0502
11.1,1.4292,0.02601,0.01927,-0.0496
11.2,1.4349,0.02636,0.01967,-0.0488
11.3,1.4403,0.02671,0.02007,-0.0481
11.4,1.4451,0.02708,0.02048,-0.0472
11.5,1.449,0.02746,0.02089,-0.0463
11.6,1.4526,0.02787,0.02134,-0.0452
11.7,1.4556,0.02833,0.02185,-0.0442
11.8,1.4578,0.02885,0.02241,-0.043
11.9,1.4614,0.02927,0.02289,-0.0421
12,1.4649,0.0297,0.02339,-0.0412
12.1,1.4681,0.03016,0.02392,-0.0402
12.2,1.471,0.03065,0.02447,-0.0393
12.3,1.4737,0.03115,0.02504,-0.0383
12.4,1.4761,0.03168,0.02563,-0.0374
12.5,1.4783,0.03222,0.02623,-0.0365
12.6,1.4803,0.03279,0.02686,-0.0356
12.7,1.482,0.03339,0.02751,-0.0348
12.8,1.4834,0.03402,0.02819,-0.0339
12.9,1.4845,0.03469,0.02892,-0.0331
13,1.485,0.0354,0.02968,-0.0323
13.1,1.485,0.03617,0.0305,-0.0315
13.2,1.4842,0.03702,0.0314,-0.0307
13.3,1.4827,0.03795,0.03239,-0.03
13.4,1.4807,0.03894,0.03343,-0.0293
13.5,1.4799,0.03985,0.03442,-0.0287
13.6,1.4783,0.04085,0.0355,-0.0281
13.7,1.4763,0.04192,0.03665,-0.0277
13.8,1.4739,0.04306,0.03787,-0.0273
13.9,1.4709,0.04429,0.03919,-0.027
14,1.4675,0.04561,0.04058,-0.0268
14.1,1.4634,0.04703,0.04209,-0.0268
14.2,1.4589,0.04856,0.04369,-0.0269
14.3,1.4538,0.0502,0.04542,-0.0271
14.4,1.4587,0.05073,0.04595,-0.0272
14.5,1.453,0.05254,0.04783,-0.0277
14.6,1.4468,0.05451,0.04988,-0.0284
14.7,1.4397,0.05667,0.05213,-0.0294
14.8,1.4319,0.05905,0.05459,-0.0306
14.9,1.4232,0.06165,0.05729,-0.0321
15,1.4136,0.06456,0.06028,-0.0339
15.1,1.4029,0.0678,0.06363,-0.0362
15.2,1.3912,0.07143,0.06735,-0.0389
15.3,1.3783,0.07548,0.07152,-0.042
15.4,1.3501,0.08286,0.07908,-0.048
15.5,1.3343,0.08819,0.08452,-0.0524
15.6,1.3175,0.09409,0.09052,-0.0572
15.7,1.2995,0.10056,0.09709,-0.0624
15.8,1.2807,0.10741,0.10402,-0.0678
15.9,1.2652,0.11326,0.10997,-0.0723
16,1.2529,0.11824,0.11503,-0.0759
16.1,1.241,0.12304,0.11992,-0.0793
16.2,1.2293,0.12774,0.1247,-0.0827
16.3,1.218,0.13239,0.12941,-0.086
16.4,1.207,0.13698,0.13407,-0.0893
16.5,1.1967,0.14138,0.13853,-0.0925
16.6,1.1863,0.14593,0.14314,-0.0958
16.7,1.176,0.15063,0.1479,-0.0993
16.8,1.1667,0.15511,0.15243,-0.1026
16.9,1.1564,0.16029,0.15767,-0.1063
17,1.1458,0.166,0.16343,-0.1105
17.1,1.1335,0.17301,0.1705,-0.1153
17.2,1.0999,0.19266,0.19027,-0.1272
17.3,1.0994,0.19532,0.19294,-0.1291
17.4,1.1006,0.19699,0.1946,-0.1305
17.5,1.1025,0.19827,0.19588,-0.1317
17.6,1.1061,0.19837,0.19598,-0.1323
17.7,1.1094,0.19863,0.19623,-0.133
17.8,1.1135,0.19837,0.19596,-0.1335
18.8,1.1092,0.23744,0.2351,-0.1574
18.9,1.1121,0.23824,0.2359,-0.1585
19,1.115,0.23893,0.2366,-0.1595

