airfoilName st25.dat
Re 	190000
M 	5.000000e-02
N 	4.500000e+00
VACC 	0 VACCflag 1
XTR 	1.00 	1.00 XTRflag 0
alpha,cl,cd,cdp,cm
-30,-1.1664,0.50568,0.50244,0.2474
-29.9,-1.1637,0.50358,0.50033,0.2455
-29.8,-1.1611,0.50152,0.49826,0.2437
-29.7,-1.1584,0.49948,0.49621,0.2418
-29.6,-1.1557,0.49738,0.49411,0.2399
-29.5,-1.153,0.49542,0.49213,0.238
-29.4,-1.1503,0.49343,0.49014,0.2361
-29.3,-1.1476,0.4914,0.48811,0.2342
-29.2,-1.1449,0.48946,0.48616,0.2323
-29.1,-1.1421,0.48753,0.48422,0.2303
-29,-1.1393,0.48559,0.48228,0.2283
-28.9,-1.1366,0.48362,0.48031,0.2263
-28.8,-1.1338,0.48168,0.47837,0.2243
-28.7,-1.1309,0.47975,0.47644,0.2222
-27.6,-1.0957,0.45223,0.4489,0.2013
-27.5,-1.0928,0.44993,0.4466,0.1997
-27.4,-1.0899,0.44763,0.44429,0.1982
-27.3,-1.087,0.44533,0.44199,0.1967
-27.2,-1.0841,0.44308,0.43972,0.1951
-27.1,-1.0812,0.44079,0.43743,0.1936
-27,-1.0782,0.43854,0.43518,0.192
-26.9,-1.0753,0.4363,0.43293,0.1905
-26.8,-1.0723,0.43407,0.43069,0.189
-26.7,-1.0693,0.43185,0.42845,0.1874
-26.6,-1.0663,0.42962,0.42622,0.1859
-26.5,-1.0633,0.42741,0.424,0.1844
-26.4,-1.0602,0.42522,0.4218,0.1829
-26.3,-1.0572,0.42303,0.4196,0.1814
-26.2,-1.0542,0.42085,0.41742,0.1798
-26.1,-1.0511,0.41867,0.41524,0.1783
-26,-1.048,0.4165,0.41307,0.1768
-25.9,-1.0449,0.41435,0.4109,0.1753
-25.8,-1.0418,0.41219,0.40874,0.1738
-25.7,-1.0387,0.41005,0.4066,0.1723
-25.5,-1.0327,0.40621,0.40274,0.1692
-25.4,-1.0296,0.40407,0.40061,0.1677
-25.3,-1.0264,0.40195,0.39847,0.1663
-25.2,-1.0232,0.39983,0.39635,0.1648
-25.1,-1.02,0.39771,0.39423,0.1633
-25,-1.0168,0.3956,0.39211,0.1618
-24.9,-1.0136,0.39349,0.38999,0.1604
-24.8,-1.0103,0.39138,0.38789,0.1589
-24.7,-1.0071,0.38928,0.38578,0.1575
-24.6,-1.0039,0.38719,0.38368,0.156
-24.5,-1.0006,0.38509,0.38158,0.1546
-24.4,-0.9973,0.38301,0.37949,0.1531
-24.3,-0.994,0.38093,0.37741,0.1517
-24.2,-0.9907,0.37885,0.37532,0.1503
-24.1,-0.9874,0.37677,0.37324,0.1489
-24,-0.9841,0.37469,0.37114,0.1474
-23.9,-0.9808,0.37263,0.36907,0.146
-23.8,-0.9775,0.37056,0.367,0.1446
-23.7,-0.9741,0.3685,0.36493,0.1432
-23.6,-0.9708,0.36644,0.36287,0.1418
-23.5,-0.9674,0.36438,0.36081,0.1404
-23.4,-0.964,0.36233,0.35875,0.1391
-23.3,-0.9607,0.36028,0.3567,0.1377
-23.2,-0.9573,0.35824,0.35465,0.1363
-23.1,-0.9539,0.3562,0.35261,0.1349
-23,-0.9505,0.35417,0.35057,0.1336
-22.9,-0.9471,0.35214,0.34854,0.1322
-22.8,-0.9437,0.3501,0.3465,0.1309
-22.7,-0.9403,0.34808,0.34448,0.1295
-22.6,-0.9368,0.34606,0.34245,0.1282
-22.5,-0.9334,0.34404,0.34043,0.1268
-22.4,-0.93,0.34202,0.3384,0.1255
-22.3,-0.9265,0.34001,0.33639,0.1242
-22.2,-0.9231,0.33799,0.33437,0.1228
-22.1,-0.9196,0.33598,0.33235,0.1215
-22,-0.9162,0.33397,0.33034,0.1202
-21.9,-0.9127,0.33197,0.32833,0.1189
-21.8,-0.9092,0.32996,0.32632,0.1176
-21.7,-0.9058,0.32795,0.32431,0.1163
-21.6,-0.9023,0.32595,0.32231,0.1149
-21.5,-0.8988,0.32395,0.3203,0.1136
-21.4,-0.8953,0.32194,0.31829,0.1123
-21.3,-0.8918,0.31994,0.31629,0.111
-21.2,-0.8884,0.31794,0.31426,0.1097
-21.1,-0.8849,0.31593,0.31226,0.1084
-21,-0.8814,0.31392,0.31024,0.1071
-20.9,-0.8779,0.3119,0.30822,0.1058
-20.8,-0.8744,0.30988,0.30619,0.1046
-20.7,-0.8708,0.30784,0.30415,0.1033
-20.6,-0.8673,0.3058,0.30211,0.102
-20.5,-0.8638,0.30374,0.30005,0.1007
-20.4,-0.8602,0.30167,0.29798,0.0994
-20.3,-0.8567,0.29957,0.29587,0.0981
-20.2,-0.8531,0.29744,0.29374,0.0968
-20.1,-0.8494,0.29528,0.29158,0.0955
-20,-0.8458,0.29305,0.28935,0.0941
-19.9,-0.842,0.29072,0.28701,0.0928
-19.8,-0.8381,0.28825,0.28454,0.0914
-19.6,-0.8269,0.28036,0.27669,0.0863
-19.5,-0.8236,0.27838,0.27471,0.0853
-19.4,-0.8203,0.27643,0.27275,0.0843
-19.3,-0.817,0.27449,0.27081,0.0834
-19.2,-0.8137,0.27257,0.26889,0.0824
-19.1,-0.8103,0.27067,0.26698,0.0814
-19,-0.807,0.26878,0.26509,0.0804
-18.9,-0.8037,0.26691,0.26322,0.0794
-18.8,-0.8004,0.26505,0.26136,0.0784
-18.7,-0.7971,0.26321,0.25952,0.0774
-18.6,-0.7938,0.26138,0.25768,0.0764
-18.5,-0.7905,0.25956,0.25586,0.0754
-18.4,-0.7871,0.25775,0.25405,0.0744
-18.3,-0.7838,0.25595,0.25224,0.0734
-18.2,-0.7805,0.25415,0.25044,0.0724
-18.1,-0.7771,0.25236,0.24865,0.0714
-18,-0.7738,0.25058,0.24687,0.0704
-17.8,-0.7675,0.24743,0.24369,0.0684
-17.7,-0.7641,0.24565,0.24191,0.0674
-17.6,-0.7607,0.24388,0.24014,0.0664
-17.5,-0.7574,0.2421,0.23836,0.0654
-17.4,-0.754,0.24033,0.23659,0.0644
-17.3,-0.7506,0.23857,0.23482,0.0634
-17.2,-0.7472,0.2368,0.23305,0.0624
-17.1,-0.7439,0.23504,0.23129,0.0614
-17,-0.7405,0.23328,0.22953,0.0604
-16.9,-0.7371,0.23152,0.22777,0.0594
-16.8,-0.7338,0.22976,0.22601,0.0585
-16.7,-0.7304,0.22801,0.22425,0.0575
-16.6,-0.727,0.22625,0.22249,0.0565
-16.5,-0.7237,0.2245,0.22074,0.0556
-16.4,-0.7203,0.22275,0.21899,0.0546
-16.3,-0.717,0.221,0.21724,0.0537
-16.2,-0.7137,0.21925,0.21549,0.0527
-16.1,-0.7103,0.2175,0.21374,0.0518
-16,-0.707,0.21575,0.21199,0.0508
-15.9,-0.7037,0.214,0.21024,0.0499
-15.8,-0.7004,0.21225,0.20849,0.049
-15.7,-0.697,0.2105,0.20674,0.048
-15.6,-0.6937,0.20875,0.20499,0.0471
-15.5,-0.6904,0.207,0.20324,0.0462
-15.4,-0.6871,0.20524,0.20148,0.0453
-15.3,-0.6838,0.20348,0.19972,0.0444
-15.2,-0.6805,0.20172,0.19796,0.0434
-15.1,-0.6772,0.19996,0.19619,0.0425
-15,-0.6739,0.19818,0.19442,0.0416
-14.9,-0.6706,0.19641,0.19264,0.0407
-14.8,-0.6673,0.19462,0.19086,0.0398
-14.7,-0.6641,0.19283,0.18905,0.0389
-14.6,-0.6608,0.19103,0.18725,0.038
-14.5,-0.6576,0.18923,0.18545,0.0371
-14.4,-0.6543,0.18741,0.18363,0.0362
-14.3,-0.6511,0.18557,0.18179,0.0352
-14.2,-0.6479,0.18371,0.17993,0.0343
-14.1,-0.6446,0.18184,0.17806,0.0334
-14,-0.6414,0.17994,0.17616,0.0325
-13.9,-0.6383,0.17799,0.17421,0.0315
-13.8,-0.6351,0.17597,0.17219,0.0305
-13.7,-0.6319,0.17388,0.1701,0.0295
-13.6,-0.6287,0.17166,0.16788,0.0284
-13.5,-0.6256,0.16921,0.16543,0.0272
-13.4,-0.6225,0.16584,0.16206,0.0252
-13.3,-0.6204,0.16184,0.15811,0.0224
-13.2,-0.6174,0.16018,0.15645,0.0218
-13.1,-0.6145,0.15855,0.15482,0.0212
-13,-0.6116,0.15693,0.1532,0.0206
-12.9,-0.6087,0.15533,0.1516,0.0199
-12.8,-0.6059,0.15376,0.15003,0.0193
-12.7,-0.603,0.15219,0.14846,0.0187
-12.6,-0.6001,0.15063,0.1469,0.018
-12.5,-0.5973,0.14909,0.14536,0.0173
-12.2,-0.5888,0.14505,0.14133,0.0154
-12.1,-0.5859,0.14351,0.13979,0.0147
-12,-0.583,0.14198,0.13827,0.0139
-11.9,-0.5801,0.14045,0.13674,0.0132
-11.8,-0.5772,0.13893,0.13522,0.0125
-11.7,-0.5743,0.1374,0.1337,0.0117
-11.6,-0.5714,0.13588,0.13217,0.011
-11.5,-0.5686,0.13436,0.13066,0.0102
-11.4,-0.5657,0.13284,0.12914,0.0095
-11.3,-0.5629,0.13132,0.12763,0.0087
-11.2,-0.5601,0.1298,0.12611,0.008
-11.1,-0.5573,0.12829,0.1246,0.0072
-11,-0.5545,0.12676,0.12308,0.0064
-10.9,-0.5517,0.12524,0.12156,0.0057
-10.8,-0.5489,0.12372,0.12002,0.0049
-10.7,-0.5462,0.12219,0.1185,0.0041
-10.6,-0.5435,0.12067,0.11698,0.0033
-10.5,-0.5408,0.11914,0.11546,0.0025
-10.4,-0.5381,0.11762,0.11394,0.0017
-10.3,-0.5354,0.11609,0.11242,0.0009
-10.2,-0.5328,0.11455,0.11089,0.0001
-10.1,-0.5302,0.11301,0.10935,-0.0007
-10,-0.5276,0.11147,0.10782,-0.0016
-9.9,-0.5251,0.10993,0.10628,-0.0024
-9.8,-0.5227,0.10838,0.10474,-0.0033
-9.7,-0.5203,0.10682,0.10319,-0.0041
-9.6,-0.5179,0.10526,0.10163,-0.005
-9.5,-0.5156,0.10368,0.10007,-0.0059
-9.4,-0.5134,0.1021,0.0985,-0.0068
-9.3,-0.5112,0.10051,0.09691,-0.0077
-9.2,-0.5092,0.09891,0.09532,-0.0086
-9.1,-0.5072,0.09729,0.09371,-0.0095
-9,-0.5055,0.09567,0.09209,-0.0105
-8.9,-0.5038,0.09402,0.09046,-0.0114
-8.8,-0.5024,0.09237,0.08881,-0.0124
-8.7,-0.5013,0.09069,0.08714,-0.0134
-8.6,-0.5004,0.089,0.08546,-0.0144
-8.5,-0.5,0.0873,0.08377,-0.0154
-8.4,-0.5,0.08557,0.08205,-0.0164
-8.3,-0.5002,0.0838,0.08029,-0.0175
-8.2,-0.4995,0.08178,0.07828,-0.0191
-8.1,-0.4983,0.07954,0.07604,-0.021
-8,-0.4974,0.07705,0.07355,-0.0232
-7.7,-0.5235,0.04293,0.03864,-0.0533
-7.6,-0.5223,0.03889,0.03427,-0.0557
-7.5,-0.5178,0.03752,0.03286,-0.0557
-7.4,-0.5127,0.03632,0.03161,-0.0557
-7.3,-0.5071,0.03526,0.0305,-0.0556
-7.2,-0.5013,0.03426,0.02944,-0.0555
-7.1,-0.4953,0.03332,0.02843,-0.0554
-7,-0.489,0.03244,0.02749,-0.0552
-6.9,-0.4827,0.03159,0.02653,-0.055
-6.8,-0.4762,0.03076,0.02563,-0.0548
-6.7,-0.4696,0.02997,0.02476,-0.0546
-6.6,-0.4629,0.02918,0.02388,-0.0543
-6.5,-0.4553,0.02839,0.023,-0.0542
-6.4,-0.4432,0.02745,0.02193,-0.0551
-6.3,-0.431,0.02654,0.02089,-0.0559
-6.2,-0.4188,0.02565,0.01986,-0.0566
-6.1,-0.4065,0.02479,0.01886,-0.0573
-5.9,-0.3808,0.02311,0.01687,-0.0588
-5.8,-0.3681,0.02233,0.01592,-0.0594
-5.7,-0.3556,0.02159,0.01501,-0.06
-5.6,-0.3432,0.02089,0.01416,-0.0605
-5.4,-0.3177,0.01996,0.01283,-0.0614
-5.3,-0.3055,0.01938,0.01223,-0.0619
-5.2,-0.2922,0.01893,0.01174,-0.0626
-5.1,-0.2794,0.01855,0.01133,-0.0631
-5,-0.2664,0.0182,0.01095,-0.0636
-4.9,-0.2533,0.01786,0.01056,-0.0641
-4.8,-0.2401,0.01752,0.01017,-0.0647
-4.7,-0.2275,0.01717,0.00976,-0.065
-4.5,-0.2002,0.01646,0.0089,-0.0661
-4.4,-0.1864,0.01613,0.00849,-0.0667
-4.3,-0.1732,0.01588,0.00814,-0.0671
-4.2,-0.1592,0.01545,0.00771,-0.0678
-4.1,-0.1458,0.01517,0.00742,-0.0684
-4,-0.1322,0.01494,0.00718,-0.069
-3.9,-0.1197,0.01472,0.00693,-0.0693
-3.8,-0.1069,0.0145,0.00667,-0.0697
-3.7,-0.094,0.01429,0.00642,-0.07
-3.6,-0.0801,0.01408,0.00614,-0.0706
-3.5,-0.0668,0.01384,0.00593,-0.0711
-3.3,-0.039,0.01359,0.00567,-0.0723
-3.2,-0.0255,0.01341,0.00546,-0.0728
-3.1,-0.0142,0.01322,0.00528,-0.0728
-3,-0.0016,0.01307,0.00512,-0.0731
-2.9,0.0113,0.013,0.00504,-0.0734
-2.8,0.025,0.0128,0.00487,-0.074
-2.7,0.0385,0.01267,0.00473,-0.0745
-2.6,0.0523,0.01254,0.00457,-0.075
-2.5,0.063,0.01244,0.00449,-0.0749
-2.4,0.0753,0.01234,0.00442,-0.0751
-2.3,0.088,0.01223,0.00433,-0.0754
-2.2,0.1017,0.01211,0.00421,-0.0759
-2.1,0.1152,0.01201,0.0041,-0.0764
-2,0.126,0.01194,0.00407,-0.0763
-1.9,0.1377,0.01185,0.004,-0.0763
-1.8,0.1502,0.01177,0.00393,-0.0766
-1.7,0.1631,0.01168,0.00387,-0.0769
-1.6,0.176,0.01158,0.00382,-0.0773
-1.5,0.1868,0.01152,0.00378,-0.0772
-1.4,0.1987,0.01146,0.00373,-0.0773
-1.3,0.2121,0.01134,0.00363,-0.0776
-1.2,0.2229,0.01123,0.00358,-0.0774
-1.1,0.2356,0.01113,0.00348,-0.0776
-1,0.2471,0.01106,0.00343,-0.0776
-0.9,0.2585,0.01096,0.00341,-0.0777
-0.8,0.2707,0.01084,0.00331,-0.0777
-0.7,0.2819,0.01076,0.00327,-0.0776
-0.6,0.2938,0.01067,0.00322,-0.0777
-0.5,0.3048,0.01049,0.00317,-0.0776
-0.4,0.3164,0.01036,0.00314,-0.0777
-0.3,0.3276,0.01022,0.00313,-0.0777
-0.2,0.3385,0.01001,0.00305,-0.0774
-0.1,0.3481,0.00958,0.00304,-0.0772
0.1,0.3675,0.00868,0.00293,-0.0752
0.2,0.3786,0.00868,0.00286,-0.075
0.3,0.3895,0.00868,0.0028,-0.0747
0.4,0.4007,0.0087,0.00277,-0.0746
0.5,0.4118,0.00872,0.00274,-0.0745
0.6,0.4228,0.00875,0.00271,-0.0743
0.7,0.4338,0.00877,0.0027,-0.0742
0.8,0.4444,0.00881,0.00265,-0.0738
0.9,0.4553,0.00885,0.00264,-0.0736
1,0.4662,0.00889,0.00262,-0.0735
1.1,0.4769,0.00894,0.00262,-0.0732
1.2,0.4877,0.00899,0.00261,-0.073
1.3,0.4978,0.00908,0.00258,-0.0726
1.4,0.5084,0.00915,0.00258,-0.0724
1.5,0.5189,0.00923,0.00258,-0.0722
1.6,0.5292,0.00932,0.00258,-0.0719
1.7,0.5396,0.00943,0.0026,-0.0716
1.8,0.549,0.0096,0.00261,-0.0712
1.9,0.5593,0.00972,0.00264,-0.0709
2,0.5696,0.00985,0.00268,-0.0707
2.1,0.5797,0.00999,0.00272,-0.0704
2.2,0.5898,0.01013,0.00278,-0.0702
2.3,0.6,0.01028,0.00285,-0.07
2.4,0.6092,0.01052,0.00291,-0.0696
2.5,0.6192,0.01069,0.00298,-0.0694
2.6,0.6292,0.01086,0.00305,-0.0692
2.7,0.6391,0.01104,0.00313,-0.069
2.8,0.6491,0.01122,0.00321,-0.0688
2.9,0.659,0.01141,0.0033,-0.0686
3,0.6683,0.01169,0.0034,-0.0683
3.1,0.6783,0.01187,0.00349,-0.0682
3.2,0.6884,0.01205,0.00359,-0.068
3.3,0.6986,0.01222,0.0037,-0.0679
3.4,0.7088,0.01239,0.00381,-0.0677
3.5,0.7191,0.01255,0.00391,-0.0676
3.6,0.7294,0.01271,0.00406,-0.0675
3.7,0.7393,0.01292,0.00419,-0.0673
3.8,0.7497,0.01305,0.0043,-0.0672
3.9,0.76,0.0132,0.00441,-0.0671
4,0.7705,0.01333,0.00454,-0.067
4.1,0.7808,0.01347,0.00465,-0.0668
4.2,0.7911,0.01363,0.00479,-0.0667
4.3,0.8016,0.01375,0.0049,-0.0666
4.4,0.8115,0.01393,0.00503,-0.0664
4.5,0.822,0.01405,0.00515,-0.0663
4.6,0.8323,0.01419,0.00528,-0.0662
4.7,0.8425,0.01435,0.00542,-0.0661
4.8,0.8529,0.01447,0.00555,-0.0659
4.9,0.8632,0.01461,0.00572,-0.0658
5,0.8733,0.01477,0.00586,-0.0656
5.1,0.8835,0.01491,0.00598,-0.0655
5.2,0.8937,0.01506,0.00613,-0.0654
5.3,0.9038,0.01522,0.00628,-0.0652
5.4,0.9141,0.01535,0.00643,-0.0651
5.5,0.9242,0.0155,0.00658,-0.0649
5.6,0.9341,0.01567,0.00673,-0.0647
5.7,0.9442,0.01582,0.0069,-0.0646
5.8,0.9543,0.01597,0.00703,-0.0644
5.9,0.9641,0.01616,0.00719,-0.0643
6,0.9742,0.0163,0.0074,-0.0641
6.1,0.9842,0.01646,0.00758,-0.0639
6.2,0.994,0.01663,0.00775,-0.0637
6.3,1.0037,0.01683,0.00793,-0.0635
6.4,1.0136,0.017,0.00813,-0.0633
6.5,1.0235,0.01716,0.00833,-0.0631
6.6,1.033,0.01736,0.00847,-0.0629
6.7,1.0426,0.01755,0.00868,-0.0627
6.8,1.0524,0.01772,0.00889,-0.0625
6.9,1.0621,0.01791,0.0091,-0.0623
7,1.0715,0.01811,0.00931,-0.062
7.1,1.0807,0.01835,0.00953,-0.0618
7.2,1.0903,0.01854,0.00976,-0.0615
7.3,1.0998,0.01874,0.01003,-0.0613
7.4,1.1092,0.01893,0.0102,-0.0611
7.5,1.1182,0.01918,0.01044,-0.0608
7.6,1.1274,0.0194,0.0107,-0.0605
7.7,1.1367,0.01961,0.01096,-0.0602
7.8,1.1459,0.01984,0.01123,-0.0599
7.9,1.1549,0.02008,0.01149,-0.0596
8,1.1637,0.02033,0.01176,-0.0593
8.1,1.1721,0.02062,0.01205,-0.059
8.2,1.1807,0.0209,0.01235,-0.0586
8.3,1.1896,0.02114,0.01266,-0.0583
8.4,1.1984,0.0214,0.01298,-0.0579
8.5,1.2074,0.0216,0.01319,-0.0577
8.6,1.2156,0.02189,0.01352,-0.0573
8.7,1.2236,0.02222,0.01386,-0.0569
8.8,1.2313,0.02257,0.01421,-0.0564
8.9,1.2397,0.02284,0.01456,-0.056
9,1.2479,0.02313,0.01492,-0.0556
9.1,1.256,0.02344,0.01529,-0.0552
9.2,1.2638,0.02375,0.01566,-0.0547
9.3,1.2715,0.02408,0.01603,-0.0542
9.4,1.2789,0.02442,0.01641,-0.0537
9.5,1.286,0.02478,0.01681,-0.0532
9.6,1.2927,0.02518,0.01723,-0.0526
9.7,1.2999,0.0255,0.01754,-0.0522
9.8,1.3072,0.02585,0.01797,-0.0517
9.9,1.3142,0.02621,0.01841,-0.0511
10,1.321,0.02659,0.01886,-0.0505
10.1,1.3275,0.02697,0.01934,-0.0499
10.2,1.3338,0.02737,0.01979,-0.0493
10.3,1.3398,0.02777,0.02025,-0.0486
10.4,1.3455,0.02819,0.02071,-0.0479
10.5,1.3507,0.02862,0.02119,-0.0472
10.6,1.3552,0.0291,0.0217,-0.0463
10.7,1.3588,0.02962,0.02225,-0.0454
10.8,1.3609,0.03022,0.02287,-0.0443
10.9,1.3634,0.03075,0.02343,-0.0431
11,1.3678,0.03118,0.02397,-0.0422
11.1,1.3715,0.03166,0.02454,-0.0412
11.2,1.3782,0.03189,0.02487,-0.0407
11.3,1.3811,0.03241,0.02546,-0.0397
11.4,1.3878,0.03257,0.02565,-0.0393
11.5,1.3904,0.03309,0.02623,-0.0384
11.6,1.3925,0.03365,0.02683,-0.0374
11.7,1.3941,0.03424,0.02748,-0.0364
11.8,1.395,0.03489,0.02817,-0.0354
11.9,1.3949,0.03562,0.02894,-0.0344
12,1.3939,0.03645,0.0298,-0.0333
12.1,1.3948,0.03716,0.03057,-0.0324
12.2,1.3967,0.03784,0.03135,-0.0317
12.3,1.405,0.03798,0.03165,-0.0315
12.4,1.4055,0.03873,0.03248,-0.0307
12.5,1.4056,0.03952,0.03335,-0.03
12.6,1.4056,0.04035,0.03424,-0.0293
12.7,1.4052,0.0412,0.03517,-0.0287
12.8,1.4044,0.04211,0.03614,-0.0281
12.9,1.4031,0.04307,0.03717,-0.0275
13,1.4014,0.0441,0.03827,-0.0271
13.1,1.3992,0.0452,0.03943,-0.0267
13.2,1.3964,0.04639,0.04068,-0.0264
13.3,1.3931,0.04767,0.04202,-0.0262
13.4,1.389,0.04906,0.04348,-0.0261
13.5,1.3843,0.05056,0.04505,-0.0262
13.6,1.3791,0.05218,0.04674,-0.0264
13.7,1.3733,0.05394,0.04856,-0.0268
13.8,1.367,0.05583,0.05053,-0.0274
13.9,1.3604,0.05786,0.05258,-0.0281
14,1.3547,0.05986,0.05469,-0.029
14.1,1.3484,0.06203,0.05695,-0.03
14.2,1.3413,0.06439,0.05941,-0.0314
14.3,1.3337,0.06693,0.06205,-0.0329
14.4,1.3255,0.06969,0.0649,-0.0347
14.5,1.3168,0.07265,0.06795,-0.0368
14.6,1.3076,0.07583,0.07121,-0.0392
14.7,1.2977,0.07923,0.07469,-0.0418
14.8,1.2875,0.08284,0.07838,-0.0446
14.9,1.277,0.08662,0.08223,-0.0476
15,1.2667,0.09053,0.08626,-0.0507
15.1,1.2568,0.09458,0.09041,-0.054
15.2,1.2464,0.09886,0.09479,-0.0574
15.3,1.2358,0.10332,0.09935,-0.061
15.4,1.2251,0.10794,0.10406,-0.0646
15.5,1.214,0.11271,0.10893,-0.0683
15.6,1.2027,0.1176,0.11392,-0.072
15.7,1.1908,0.12278,0.11918,-0.0759
15.8,1.1779,0.12839,0.12486,-0.0801
15.9,1.1633,0.13472,0.13128,-0.0848
16,1.1445,0.14285,0.13952,-0.0907
17.7,1.0766,0.2195,0.21635,-0.1399
17.8,1.0792,0.22039,0.21726,-0.1409
17.9,1.0818,0.22114,0.21801,-0.1419
18,1.0845,0.22184,0.21872,-0.1428
18.1,1.0873,0.22242,0.2193,-0.1437
18.2,1.0901,0.22282,0.21971,-0.1444
20.3,1.1426,0.28057,0.27745,-0.1814
20.4,1.1456,0.28192,0.27881,-0.1827
20.5,1.1486,0.28315,0.28005,-0.1839
20.6,1.1515,0.28432,0.28122,-0.1852
20.7,1.1545,0.28549,0.2824,-0.1864
20.8,1.1575,0.28658,0.2835,-0.1877
20.9,1.1604,0.28767,0.28459,-0.1889
21,1.1633,0.28878,0.28571,-0.1901
21.1,1.1662,0.28971,0.28665,-0.1913
22.5,1.2136,0.32754,0.32452,-0.2151
22.6,1.2167,0.32914,0.32612,-0.2165
22.7,1.2198,0.33072,0.32771,-0.218
22.8,1.2228,0.33231,0.32931,-0.2194
22.9,1.2259,0.33385,0.33086,-0.2208
23,1.2289,0.3354,0.33242,-0.2223
23.1,1.2319,0.33694,0.33397,-0.2237
23.2,1.2349,0.33844,0.33547,-0.2251
23.3,1.2378,0.33984,0.33688,-0.2265
23.4,1.2408,0.34135,0.3384,-0.2279
23.5,1.2437,0.34278,0.33983,-0.2293
23.6,1.2466,0.34427,0.34134,-0.2307
23.7,1.2494,0.3457,0.34278,-0.232
23.8,1.2523,0.34717,0.34425,-0.2334
23.9,1.2588,0.35717,0.3542,-0.2372
24,1.2627,0.36061,0.35764,-0.2392
24.1,1.2662,0.36328,0.36031,-0.2409
24.2,1.2696,0.36591,0.36295,-0.2427
24.3,1.2729,0.36829,0.36533,-0.2444
24.4,1.2763,0.37081,0.36785,-0.2465
24.5,1.2795,0.3729,0.36995,-0.2481
24.6,1.2827,0.37496,0.37201,-0.2497
24.7,1.2858,0.37699,0.37405,-0.2513
24.8,1.2889,0.37899,0.37606,-0.253
24.9,1.292,0.381,0.37807,-0.2546
25,1.2951,0.38295,0.38004,-0.2562
25.1,1.2982,0.38492,0.38201,-0.2579
25.2,1.3012,0.38686,0.38396,-0.2595
25.3,1.3042,0.38882,0.38593,-0.2611
25.4,1.3072,0.39074,0.38787,-0.2627
25.5,1.3102,0.39265,0.3898,-0.2644
25.6,1.3132,0.39455,0.3917,-0.266
25.7,1.3162,0.39645,0.39361,-0.2676
25.8,1.3191,0.39831,0.39548,-0.2693
25.9,1.322,0.4002,0.39738,-0.2709
26,1.3249,0.4021,0.39928,-0.2726
26.1,1.3278,0.40391,0.40109,-0.2742
26.2,1.3306,0.4058,0.403,-0.2758
26.3,1.3335,0.40762,0.40482,-0.2775
26.4,1.3363,0.40951,0.40672,-0.2791
26.5,1.3391,0.41139,0.40861,-0.2808
26.6,1.3419,0.41324,0.41047,-0.2824
26.7,1.3447,0.41508,0.41232,-0.284
26.8,1.3474,0.41693,0.41418,-0.2857
26.9,1.3501,0.41876,0.41602,-0.2873
27,1.3528,0.42061,0.41788,-0.2889
27.1,1.3556,0.42255,0.41982,-0.2906
27.2,1.3582,0.42443,0.42172,-0.2922
27.3,1.3608,0.42626,0.42355,-0.2938
27.4,1.3635,0.42824,0.42554,-0.2954
27.5,1.3661,0.43019,0.4275,-0.297
27.6,1.3688,0.43224,0.42956,-0.2987
27.7,1.3713,0.43424,0.43157,-0.3002
27.8,1.3738,0.43629,0.43363,-0.3018
27.9,1.3811,0.44504,0.44233,-0.3061
28,1.3845,0.44817,0.44545,-0.3082
28.1,1.3877,0.45102,0.44831,-0.3102
28.2,1.3908,0.45371,0.45101,-0.3121
28.3,1.3938,0.45625,0.45355,-0.314
28.4,1.3968,0.45871,0.45602,-0.3159
28.5,1.3997,0.46119,0.45852,-0.3179
28.6,1.4025,0.46355,0.46089,-0.3198

