airfoilName st25.dat
Re 	850000
M 	5.000000e-02
N 	4.500000e+00
VACC 	0 VACCflag 1
XTR 	1.00 	1.00 XTRflag 0
alpha,cl,cd,cdp,cm
-8.7,-0.6227,0.02654,0.02375,-0.0649
-8.6,-0.6129,0.0245,0.02148,-0.0664
-8.5,-0.6024,0.0231,0.01991,-0.0674
-8.4,-0.5914,0.02205,0.0187,-0.0682
-8.3,-0.58,0.02119,0.01771,-0.0689
-8.2,-0.5687,0.02048,0.0169,-0.0694
-8.1,-0.5574,0.0199,0.01622,-0.0699
-8,-0.5455,0.01936,0.01559,-0.0704
-7.9,-0.5339,0.0189,0.01505,-0.0708
-7.8,-0.5221,0.01853,0.01461,-0.0712
-7.7,-0.5103,0.01816,0.01417,-0.0715
-7.6,-0.4983,0.01785,0.0138,-0.0719
-7.5,-0.4861,0.01764,0.01354,-0.0722
-7.4,-0.4739,0.0174,0.01325,-0.0726
-7.3,-0.4614,0.01729,0.01309,-0.073
-7.2,-0.453,0.01506,0.0106,-0.0734
-7.1,-0.4424,0.01418,0.00958,-0.0737
-7,-0.4309,0.01364,0.00896,-0.074
-6.9,-0.4193,0.01321,0.00845,-0.0742
-6.8,-0.4074,0.01287,0.00805,-0.0745
-6.7,-0.3954,0.01257,0.00771,-0.0747
-6.6,-0.3833,0.01231,0.0074,-0.075
-6.5,-0.3712,0.01206,0.00712,-0.0753
-6.4,-0.3597,0.01184,0.00686,-0.0754
-6.3,-0.3485,0.01164,0.00663,-0.0755
-6.2,-0.3371,0.01145,0.0064,-0.0755
-6.1,-0.3254,0.01126,0.00618,-0.0756
-6,-0.3136,0.01109,0.00597,-0.0758
-5.9,-0.3017,0.01091,0.00577,-0.0759
-5.8,-0.2903,0.01076,0.00558,-0.076
-5.7,-0.2793,0.0106,0.0054,-0.0759
-5.6,-0.268,0.01045,0.0052,-0.076
-5.5,-0.2568,0.0103,0.00502,-0.0759
-5.4,-0.2455,0.01016,0.00485,-0.0759
-5.2,-0.2233,0.0099,0.00453,-0.0758
-5.1,-0.2123,0.00977,0.00437,-0.0757
-5,-0.2012,0.00965,0.00423,-0.0756
-4.9,-0.19,0.00954,0.00409,-0.0756
-4.8,-0.179,0.00944,0.00397,-0.0756
-4.7,-0.1677,0.00935,0.00385,-0.0755
-4.6,-0.1568,0.00928,0.00375,-0.0754
-4.5,-0.1456,0.00912,0.00357,-0.0754
-4.4,-0.1345,0.00896,0.00338,-0.0753
-4.3,-0.1232,0.00884,0.00324,-0.0753
-4.2,-0.1122,0.00874,0.00312,-0.0752
-4.1,-0.101,0.00866,0.00302,-0.0751
-4,-0.0899,0.00858,0.00292,-0.0751
-3.9,-0.0786,0.0085,0.00283,-0.0751
-3.7,-0.0564,0.00841,0.0027,-0.0749
-3.6,-0.045,0.0083,0.00259,-0.0749
-3.5,-0.0338,0.00822,0.00249,-0.0748
-3.4,-0.0226,0.00816,0.00242,-0.0748
-3.3,-0.0113,0.0081,0.00235,-0.0748
-3.2,0.0001,0.00804,0.00227,-0.0748
-3.1,0.0113,0.008,0.0022,-0.0747
-3,0.0226,0.00794,0.00213,-0.0747
-2.9,0.0334,0.0079,0.00206,-0.0745
-2.8,0.0443,0.00787,0.002,-0.0744
-2.7,0.0553,0.00785,0.00195,-0.0743
-2.6,0.0667,0.00781,0.00189,-0.0743
-2.5,0.0777,0.00778,0.00184,-0.0742
-2.4,0.0889,0.00775,0.00179,-0.0741
-2.3,0.1003,0.00772,0.00175,-0.0741
-2.2,0.1114,0.00771,0.0017,-0.074
-2.1,0.1225,0.00769,0.00165,-0.074
-2,0.1336,0.00764,0.00162,-0.074
-1.9,0.1446,0.00764,0.00158,-0.0739
-1.8,0.156,0.00763,0.00155,-0.0739
-1.7,0.1674,0.0076,0.00152,-0.0739
-1.6,0.1785,0.0076,0.00149,-0.0738
-1.5,0.1898,0.0076,0.00147,-0.0738
-1.4,0.2008,0.00762,0.00144,-0.0738
-1.3,0.2121,0.0076,0.00142,-0.0738
-1.2,0.2234,0.00759,0.0014,-0.0738
-1.1,0.2343,0.00764,0.00138,-0.0737
-1,0.2456,0.00764,0.00136,-0.0737
-0.9,0.2563,0.00771,0.00136,-0.0736
-0.8,0.2675,0.00773,0.00135,-0.0736
-0.7,0.2785,0.00779,0.00135,-0.0736
-0.6,0.2895,0.00785,0.00135,-0.0735
-0.5,0.3007,0.00788,0.00135,-0.0735
-0.4,0.3115,0.00796,0.00137,-0.0735
-0.3,0.3227,0.00799,0.00137,-0.0735
-0.2,0.3339,0.00802,0.00138,-0.0735
-0.1,0.3451,0.00805,0.00138,-0.0735
0,0.3563,0.00808,0.00139,-0.0735
0.1,0.3671,0.00818,0.00142,-0.0735
0.2,0.3782,0.00822,0.00143,-0.0735
0.3,0.3894,0.00826,0.00145,-0.0735
0.4,0.4006,0.00828,0.00146,-0.0736
0.5,0.4117,0.00832,0.00148,-0.0736
0.6,0.4229,0.00836,0.0015,-0.0736
0.7,0.434,0.00841,0.00152,-0.0736
0.8,0.4446,0.00855,0.00156,-0.0736
0.9,0.4556,0.00853,0.0016,-0.0737
1,0.4666,0.00856,0.00164,-0.0737
1.1,0.4776,0.0086,0.00168,-0.0738
1.2,0.4885,0.00863,0.00173,-0.0738
1.3,0.4988,0.00868,0.0018,-0.0739
1.4,0.5098,0.00867,0.00185,-0.0739
1.7,0.5355,0.00765,0.00194,-0.0721
1.8,0.5467,0.00772,0.00197,-0.0721
1.9,0.5578,0.00779,0.00201,-0.0721
2,0.5687,0.00791,0.00206,-0.0721
2.1,0.58,0.00796,0.0021,-0.0721
2.2,0.5912,0.00803,0.00213,-0.0721
2.3,0.6023,0.0081,0.00219,-0.0721
2.4,0.6135,0.00816,0.00222,-0.0721
2.5,0.6247,0.00822,0.00226,-0.0721
2.6,0.6358,0.00829,0.0023,-0.072
2.7,0.6468,0.00838,0.00235,-0.072
2.8,0.6579,0.00845,0.00239,-0.072
2.9,0.669,0.00852,0.00244,-0.072
3,0.6802,0.00858,0.00248,-0.072
3.1,0.6913,0.00864,0.00252,-0.072
3.2,0.7023,0.00872,0.00257,-0.072
3.3,0.7133,0.00881,0.00263,-0.072
3.4,0.7244,0.00888,0.00268,-0.072
3.5,0.7354,0.00896,0.00275,-0.0719
3.6,0.7465,0.00902,0.0028,-0.0719
3.7,0.7575,0.00909,0.00285,-0.0719
3.8,0.7685,0.00916,0.00291,-0.0719
3.9,0.7795,0.00925,0.00298,-0.0719
4,0.7905,0.00932,0.00303,-0.0718
4.1,0.8013,0.00942,0.00309,-0.0718
4.2,0.8122,0.00951,0.00316,-0.0718
4.3,0.8232,0.00958,0.00323,-0.0717
4.4,0.8342,0.00965,0.00329,-0.0717
4.5,0.8451,0.00973,0.00335,-0.0717
4.6,0.8559,0.00983,0.00342,-0.0716
4.7,0.8667,0.00993,0.00352,-0.0716
4.8,0.8775,0.01001,0.00359,-0.0716
4.9,0.8883,0.01011,0.00367,-0.0715
5,0.8991,0.01021,0.00376,-0.0714
5.1,0.9099,0.01028,0.00383,-0.0714
5.2,0.9208,0.01037,0.00391,-0.0714
5.3,0.9315,0.01046,0.00399,-0.0713
5.4,0.9422,0.01057,0.00408,-0.0712
5.5,0.9527,0.01068,0.00417,-0.0712
5.6,0.9635,0.01078,0.00426,-0.0711
5.7,0.9741,0.01088,0.00435,-0.071
5.8,0.9847,0.01099,0.00445,-0.071
5.9,0.9953,0.0111,0.00457,-0.0709
6,1.0059,0.01119,0.00466,-0.0708
6.1,1.0166,0.01129,0.00475,-0.0707
6.2,1.0271,0.01139,0.00485,-0.0706
6.3,1.0376,0.01151,0.00496,-0.0706
6.4,1.0479,0.01165,0.00509,-0.0704
6.5,1.0584,0.01176,0.00519,-0.0704
6.6,1.0689,0.01187,0.0053,-0.0703
6.7,1.0793,0.01199,0.00541,-0.0702
6.8,1.0896,0.01212,0.00553,-0.07
6.9,1.0998,0.01225,0.00566,-0.0699
7,1.1103,0.01236,0.0058,-0.0698
7.1,1.1206,0.01247,0.00591,-0.0697
7.2,1.1308,0.01261,0.00604,-0.0696
7.3,1.141,0.01275,0.00617,-0.0694
7.4,1.1511,0.01289,0.00631,-0.0693
7.5,1.1611,0.01304,0.00645,-0.0691
7.6,1.1714,0.01315,0.00659,-0.069
7.7,1.1816,0.01327,0.00672,-0.0689
7.8,1.1918,0.0134,0.00686,-0.0687
7.9,1.2018,0.01354,0.007,-0.0686
8,1.2118,0.01368,0.00715,-0.0684
8.1,1.2217,0.01383,0.0073,-0.0683
8.2,1.2316,0.01399,0.00747,-0.0681
8.3,1.2412,0.01417,0.00765,-0.0679
8.4,1.2512,0.01431,0.00781,-0.0677
8.5,1.2611,0.01445,0.00796,-0.0675
8.6,1.2709,0.0146,0.00812,-0.0673
8.7,1.2806,0.01475,0.00829,-0.0671
8.8,1.2903,0.01491,0.00846,-0.0669
8.9,1.2996,0.01511,0.00865,-0.0667
9,1.3091,0.0153,0.00884,-0.0665
9.1,1.3184,0.01549,0.00904,-0.0662
9.2,1.328,0.01564,0.00922,-0.066
9.3,1.3376,0.01579,0.0094,-0.0658
9.4,1.3471,0.01596,0.00958,-0.0655
9.6,1.3657,0.01631,0.00996,-0.0651
9.7,1.3749,0.01649,0.01017,-0.0648
9.8,1.384,0.01669,0.01037,-0.0645
9.9,1.3929,0.0169,0.01059,-0.0642
10,1.4018,0.01711,0.01082,-0.0639
10.1,1.4105,0.01734,0.01107,-0.0635
10.2,1.4194,0.01753,0.01128,-0.0632
10.3,1.4284,0.01771,0.01149,-0.0629
10.4,1.4372,0.0179,0.01168,-0.0627
10.5,1.4459,0.01811,0.0119,-0.0623
10.6,1.4544,0.01833,0.01214,-0.062
10.7,1.4627,0.01856,0.01239,-0.0616
10.8,1.4708,0.01881,0.01265,-0.0612
10.9,1.4788,0.01907,0.01293,-0.0607
11,1.4871,0.01928,0.01317,-0.0604
11.1,1.4953,0.0195,0.01342,-0.06
11.2,1.5033,0.01974,0.01369,-0.0595
11.3,1.5112,0.01998,0.01395,-0.0591
11.4,1.5188,0.02024,0.01423,-0.0586
11.5,1.5262,0.02051,0.01452,-0.0581
11.6,1.5333,0.02081,0.01483,-0.0576
11.7,1.5403,0.0211,0.01515,-0.057
11.8,1.5474,0.02136,0.01544,-0.0565
11.9,1.5543,0.02163,0.01574,-0.0559
12,1.561,0.02192,0.01605,-0.0552
12.1,1.5673,0.02221,0.01636,-0.0546
12.2,1.5734,0.02252,0.0167,-0.0539
12.3,1.579,0.02285,0.01705,-0.0531
12.4,1.5842,0.0232,0.01742,-0.0523
12.5,1.5894,0.02353,0.0178,-0.0515
12.6,1.5937,0.02386,0.01817,-0.0505
12.7,1.5975,0.0242,0.01854,-0.0494
12.8,1.601,0.02456,0.01894,-0.0483
12.9,1.6044,0.02493,0.01935,-0.0472
13,1.6077,0.02531,0.01977,-0.0461
13.1,1.6109,0.02572,0.02022,-0.045
13.2,1.6138,0.02614,0.0207,-0.044
13.3,1.6165,0.02659,0.02118,-0.0429
13.4,1.6189,0.02705,0.02169,-0.0419
13.5,1.6213,0.02754,0.02222,-0.0408
13.6,1.6233,0.02804,0.02277,-0.0398
13.7,1.6251,0.02858,0.02334,-0.0388
13.8,1.6264,0.02914,0.02396,-0.0378
13.9,1.6275,0.02974,0.0246,-0.0368
14,1.6283,0.03036,0.02527,-0.0358
14.1,1.6289,0.03103,0.02599,-0.0348
14.2,1.629,0.03172,0.02673,-0.0339
14.3,1.6286,0.03247,0.02753,-0.033
14.4,1.6279,0.03326,0.02838,-0.0321
14.5,1.6268,0.0341,0.02927,-0.0312
14.6,1.6252,0.03502,0.03025,-0.0304
14.7,1.6231,0.03599,0.03127,-0.0297
14.8,1.6203,0.03704,0.03239,-0.029
14.9,1.6175,0.03812,0.03353,-0.0284
15,1.6141,0.0393,0.03477,-0.0279
15.1,1.6101,0.04058,0.03612,-0.0275
15.2,1.6052,0.042,0.0376,-0.0272
15.3,1.5997,0.04353,0.0392,-0.0271
15.4,1.5952,0.04499,0.04071,-0.0271
15.5,1.5899,0.04658,0.04237,-0.0272
15.6,1.5847,0.04825,0.04411,-0.0275
15.7,1.5782,0.05014,0.04607,-0.0279
15.8,1.5714,0.05215,0.04815,-0.0286
15.9,1.5625,0.05453,0.05061,-0.0297
16,1.553,0.05713,0.05329,-0.031
16.1,1.5421,0.06005,0.0563,-0.0327
16.2,1.5297,0.06339,0.05973,-0.0348
16.3,1.5159,0.0672,0.06364,-0.0375
16.4,1.4984,0.07198,0.06852,-0.0411
16.5,1.4839,0.07651,0.07318,-0.0447
16.6,1.4669,0.0819,0.07867,-0.0491
16.7,1.4484,0.08796,0.08487,-0.054
16.8,1.4243,0.09598,0.09304,-0.0606
16.9,1.3936,0.10637,0.10362,-0.0687
17,1.358,0.11789,0.11532,-0.0772
17.1,1.3242,0.1285,0.12607,-0.0848
17.2,1.2952,0.13763,0.13532,-0.0912
17.3,1.2686,0.14619,0.14398,-0.0973
17.4,1.247,0.15344,0.15132,-0.1026
17.5,1.2317,0.15909,0.15703,-0.1069
17.6,1.2154,0.1655,0.16352,-0.1116
17.7,1.2044,0.17059,0.16866,-0.1154
17.8,1.195,0.17569,0.17381,-0.1191
17.9,1.1885,0.17993,0.17809,-0.1223
18,1.1803,0.18539,0.1836,-0.1262
18.1,1.1766,0.18905,0.1873,-0.1289
18.2,1.171,0.19393,0.19222,-0.1323
18.3,1.1672,0.19817,0.1965,-0.1352
18.4,1.1654,0.20149,0.19984,-0.1376
18.5,1.1635,0.20501,0.20339,-0.1401
18.6,1.1592,0.21025,0.20867,-0.1435
18.7,1.1585,0.21341,0.21186,-0.1458
18.8,1.1582,0.21643,0.2149,-0.1479
18.9,1.1577,0.21967,0.21816,-0.1502
19,1.1547,0.22477,0.2233,-0.1534
19.1,1.1548,0.22786,0.22641,-0.1555
19.2,1.1554,0.23064,0.22921,-0.1575
19.3,1.1559,0.2336,0.23219,-0.1596
19.4,1.1562,0.23686,0.23547,-0.1618
19.5,1.1543,0.24214,0.24078,-0.1649
19.6,1.1552,0.24516,0.24381,-0.1669
19.7,1.1563,0.24808,0.24675,-0.1689
19.8,1.1574,0.2511,0.24978,-0.171
19.9,1.1571,0.2557,0.25441,-0.1737
20,1.1584,0.25886,0.25757,-0.1758
20.1,1.1603,0.26143,0.26015,-0.1776
20.2,1.1626,0.26352,0.26224,-0.1793
20.3,1.1649,0.26565,0.26437,-0.1809
20.4,1.1673,0.2676,0.26633,-0.1825
20.5,1.17,0.26929,0.26802,-0.184
20.6,1.1728,0.27076,0.26948,-0.1855
20.7,1.1755,0.2723,0.27103,-0.1869
20.8,1.1785,0.2734,0.27213,-0.1883
20.9,1.1813,0.27459,0.27331,-0.1896
21,1.184,0.27579,0.27451,-0.191
21.1,1.1853,0.27948,0.27821,-0.1933
23.3,1.2469,0.3461,0.34489,-0.2339
23.4,1.2504,0.34879,0.34759,-0.2355
23.5,1.2538,0.35139,0.3502,-0.2372
23.6,1.257,0.35372,0.35253,-0.2388
23.7,1.2603,0.35598,0.35479,-0.2405
23.8,1.2635,0.35812,0.35693,-0.2421
23.9,1.2667,0.36025,0.35907,-0.2437
24,1.2699,0.3623,0.36112,-0.2454
24.1,1.273,0.36433,0.36314,-0.247
24.2,1.2761,0.36624,0.36506,-0.2487
24.3,1.2793,0.36819,0.36701,-0.2503
24.4,1.2823,0.3701,0.36893,-0.2519
24.5,1.2854,0.37198,0.37081,-0.2536
24.6,1.2884,0.37381,0.37265,-0.2552
24.7,1.2915,0.37564,0.37448,-0.2568
24.8,1.2944,0.3773,0.37615,-0.2585
24.9,1.2974,0.37911,0.37796,-0.2601
25,1.3004,0.38082,0.37967,-0.2618
25.1,1.3033,0.38257,0.38143,-0.2635
25.2,1.3062,0.38422,0.38309,-0.2651
25.3,1.3092,0.38602,0.38489,-0.2668
25.4,1.3121,0.38766,0.38654,-0.2684
25.5,1.3149,0.38931,0.38818,-0.2701
25.6,1.3178,0.39102,0.3899,-0.2718
25.7,1.3207,0.39262,0.39151,-0.2734
25.8,1.3235,0.39416,0.39305,-0.2751
25.9,1.3263,0.39589,0.39479,-0.2768
26,1.3291,0.39755,0.39645,-0.2785
26.1,1.3318,0.39904,0.39794,-0.2801
26.2,1.3346,0.40074,0.39965,-0.2818
26.3,1.3373,0.40231,0.40122,-0.2835
26.4,1.3401,0.40399,0.4029,-0.2852
26.5,1.3428,0.40573,0.40464,-0.2869
26.6,1.3455,0.40736,0.40628,-0.2885
26.7,1.3481,0.40912,0.40804,-0.2902
26.8,1.3508,0.41103,0.40995,-0.2918
26.9,1.3534,0.41302,0.41195,-0.2934
27,1.356,0.41516,0.4141,-0.2949
27.1,1.3589,0.41761,0.41654,-0.2966
27.2,1.3623,0.42051,0.41943,-0.2986
27.3,1.3665,0.42457,0.4235,-0.301
27.4,1.3698,0.42746,0.42639,-0.3029
27.5,1.3736,0.43116,0.43009,-0.305
27.6,1.3765,0.43352,0.43246,-0.3068
27.7,1.3805,0.4378,0.43674,-0.3089
27.8,1.3838,0.4408,0.43973,-0.3108
27.9,1.3869,0.44346,0.4424,-0.3126
28,1.3907,0.44738,0.44632,-0.3148
28.1,1.3937,0.44988,0.44882,-0.3167
28.2,1.3966,0.45222,0.45117,-0.3185
28.3,1.3994,0.45449,0.45344,-0.3204
28.4,1.4023,0.45676,0.45571,-0.3223
28.5,1.4051,0.45906,0.45801,-0.3242
28.6,1.4079,0.46124,0.46021,-0.3261
28.7,1.4107,0.46343,0.4624,-0.328
28.8,1.4133,0.46558,0.46455,-0.3298
28.9,1.416,0.4677,0.46668,-0.3317
29,1.4187,0.46982,0.4688,-0.3336
29.1,1.4214,0.47194,0.47092,-0.3355
29.2,1.424,0.47401,0.47299,-0.3374
29.3,1.4266,0.47603,0.47503,-0.3394
29.4,1.4292,0.47814,0.47714,-0.3413
29.5,1.4318,0.48014,0.47914,-0.3432
29.6,1.4343,0.48212,0.48112,-0.3451
29.7,1.4368,0.48418,0.48319,-0.347
29.8,1.4393,0.48616,0.48518,-0.349
29.9,1.4418,0.48812,0.48713,-0.3509
30,1.4442,0.49003,0.48905,-0.3528

