airfoilName st2.dat
Re 	1.500000e+05
M 	5.000000e-02
N 	4.500000e+00
VACC 	0 VACCflag 1
XTR 	1.00 	1.00 XTRflag 0
alpha,cl,cd,cdp,cm
-30,-3.4328,0.05244,0.04089,0.0344
-29.9,-3.4224,0.05206,0.04057,0.0344
-29.8,-3.4122,0.05173,0.04029,0.0343
-29.7,-3.4023,0.05145,0.04005,0.0343
-29.5,-3.382,0.05132,0.04005,0.0334
-29.4,-3.3724,0.05106,0.03979,0.0334
-29.3,-3.3631,0.05086,0.03959,0.0332
-29.2,-3.3538,0.05068,0.03941,0.033
-29.1,-3.3445,0.05052,0.03924,0.0328
-29,-3.3352,0.05038,0.03909,0.0326
-28.9,-3.326,0.05024,0.03894,0.0324
-28.8,-3.3169,0.05011,0.03879,0.0321
-28.7,-3.3078,0.05,0.03865,0.0318
-28.6,-3.2988,0.04989,0.03851,0.0315
-28.5,-3.2889,0.05015,0.03881,0.0306
-28.4,-3.28,0.04993,0.0385,0.0305
-28.3,-3.2715,0.04984,0.03834,0.0302
-28.2,-3.2632,0.0498,0.03822,0.0299
-28.1,-3.2552,0.04981,0.03813,0.0296
-28,-3.2476,0.04988,0.03808,0.0292
-27.9,-3.2407,0.05003,0.03808,0.0289
-27.8,-3.2293,0.04962,0.0378,0.0289
-27.7,-3.2183,0.04924,0.03749,0.0288
-27.6,-3.2075,0.0489,0.0372,0.0287
-27.5,-3.1968,0.04859,0.03694,0.0286
-27.4,-3.1854,0.04843,0.03685,0.0282
-27.3,-3.1751,0.04814,0.03658,0.0282
-27.2,-3.1649,0.04789,0.03635,0.0281
-27.1,-3.1548,0.04767,0.03613,0.028
-27,-3.1448,0.04746,0.03592,0.0278
-26.9,-3.1348,0.04726,0.03572,0.0277
-26.8,-3.1249,0.04708,0.03553,0.0275
-26.7,-3.115,0.0469,0.03534,0.0274
-26.6,-3.1052,0.04673,0.03515,0.0272
-26.5,-3.0954,0.04657,0.03496,0.0271
-26.4,-3.0851,0.04649,0.03486,0.0267
-26.3,-3.0756,0.04635,0.03467,0.0265
-26.2,-3.0662,0.04623,0.03449,0.0264
-26.1,-3.057,0.04614,0.03432,0.0262
-26,-3.0479,0.04608,0.03417,0.026
-25.9,-3.0392,0.04607,0.03405,0.0259
-25.8,-3.0305,0.04606,0.03394,0.0257
-25.7,-3.0186,0.04564,0.03361,0.0256
-25.6,-3.0071,0.04528,0.03331,0.0255
-25.5,-2.9952,0.04498,0.0331,0.0252
-25.4,-2.9842,0.04471,0.0329,0.0251
-25.3,-2.9732,0.04444,0.03266,0.025
-25.2,-2.9623,0.04419,0.03243,0.0248
-25.1,-2.9516,0.04395,0.03221,0.0247
-25,-2.9409,0.04374,0.032,0.0246
-24.9,-2.9302,0.04353,0.03179,0.0244
-24.8,-2.9196,0.04333,0.03158,0.0243
-24.7,-2.909,0.04314,0.03138,0.0241
-24.6,-2.8982,0.04299,0.03121,0.0239
-24.5,-2.8878,0.04281,0.031,0.0238
-24.4,-2.8774,0.04265,0.0308,0.0236
-24.3,-2.8671,0.04251,0.03061,0.0235
-24.2,-2.8569,0.04239,0.03042,0.0233
-24.1,-2.8469,0.04229,0.03025,0.0232
-24,-2.8371,0.04224,0.03009,0.023
-23.9,-2.8268,0.04212,0.02991,0.0229
-23.8,-2.8148,0.04174,0.02962,0.0227
-23.7,-2.8028,0.04142,0.02936,0.0225
-23.6,-2.7911,0.04111,0.02911,0.0224
-23.5,-2.7795,0.04083,0.02887,0.0222
-23.4,-2.768,0.04056,0.02864,0.0221
-23.3,-2.7568,0.04037,0.02849,0.0219
-23.2,-2.7455,0.04015,0.02828,0.0217
-23.1,-2.7343,0.03994,0.02807,0.0216
-23,-2.7231,0.03973,0.02786,0.0214
-22.9,-2.7118,0.03955,0.02766,0.0212
-22.8,-2.7007,0.03937,0.02746,0.0211
-22.7,-2.6896,0.03919,0.02725,0.0209
-22.6,-2.6786,0.03904,0.02705,0.0207
-22.5,-2.6677,0.03889,0.02686,0.0206
-22.4,-2.6568,0.03878,0.02667,0.0204
-22.3,-2.6461,0.0387,0.0265,0.0203
-22.2,-2.6354,0.03862,0.02634,0.0201
-22.1,-2.623,0.03826,0.02607,0.0199
-22,-2.6109,0.03794,0.02582,0.0197
-21.9,-2.5989,0.03764,0.02557,0.0195
-21.8,-2.587,0.03737,0.02534,0.0193
-21.7,-2.5751,0.03712,0.02513,0.0192
-21.6,-2.5633,0.03688,0.02492,0.019
-21.5,-2.5518,0.03671,0.02477,0.0188
-21.4,-2.5401,0.03651,0.02457,0.0186
-21.3,-2.5284,0.03632,0.02437,0.0184
-21.2,-2.5168,0.03614,0.02417,0.0182
-21.1,-2.5052,0.03597,0.02397,0.018
-21,-2.4937,0.03581,0.02378,0.0179
-20.9,-2.4822,0.03567,0.02359,0.0177
-20.8,-2.4707,0.03555,0.0234,0.0175
-20.7,-2.4595,0.03547,0.02323,0.0173
-20.6,-2.4478,0.03531,0.02304,0.0171
-20.5,-2.4353,0.03498,0.02279,0.0169
-20.4,-2.423,0.03468,0.02255,0.0167
-20.3,-2.4107,0.03441,0.02233,0.0165
-20.2,-2.3986,0.03416,0.02212,0.0163
-20.1,-2.3864,0.03393,0.02192,0.0161
-20,-2.3743,0.0337,0.02172,0.0159
-19.9,-2.3622,0.0335,0.02152,0.0157
-19.8,-2.3504,0.03337,0.02139,0.0154
-19.7,-2.3384,0.03319,0.0212,0.0152
-19.6,-2.3265,0.03303,0.02101,0.015
-19.5,-2.3145,0.03287,0.02082,0.0148
-19.4,-2.3026,0.03274,0.02064,0.0146
-19.3,-2.2907,0.03263,0.02046,0.0144
-19.2,-2.279,0.03256,0.0203,0.0142
-19.1,-2.2665,0.03228,0.02007,0.014
-19,-2.2539,0.03199,0.01984,0.0138
-18.9,-2.2414,0.03172,0.01963,0.0136
-18.8,-2.229,0.03148,0.01944,0.0133
-18.7,-2.2166,0.03125,0.01924,0.0131
-18.6,-2.2042,0.03104,0.01905,0.0129
-18.5,-2.1919,0.03084,0.01887,0.0127
-18.4,-2.1795,0.03065,0.01868,0.0124
-18.3,-2.1672,0.03048,0.0185,0.0122
-18.2,-2.1552,0.03038,0.01837,0.012
-18.1,-2.1429,0.03024,0.01819,0.0118
-18,-2.1307,0.03012,0.01802,0.0115
-17.9,-2.1185,0.03003,0.01785,0.0113
-17.8,-2.1061,0.02987,0.01767,0.0111
-17.7,-2.0933,0.02958,0.01746,0.0109
-17.6,-2.0807,0.02932,0.01725,0.0106
-17.5,-2.068,0.02908,0.01706,0.0104
-17.4,-2.0554,0.02886,0.01688,0.0101
-17.3,-2.0428,0.02866,0.0167,0.0099
-17.2,-2.0303,0.02846,0.01653,0.0097
-17.1,-2.0177,0.02828,0.01635,0.0094
-17,-2.0052,0.02812,0.01618,0.0092
-16.9,-1.9927,0.02798,0.01601,0.0089
-16.7,-1.9679,0.02781,0.01572,0.0084
-16.6,-1.9555,0.02774,0.01557,0.0082
-16.5,-1.9426,0.02746,0.01536,0.008
-16.4,-1.9297,0.0272,0.01517,0.0077
-15.9,-1.8659,0.02619,0.01432,0.0064
-15.6,-1.8278,0.02579,0.01385,0.0057
-15.5,-1.8151,0.02569,0.01369,0.0054
-15.4,-1.8024,0.02563,0.01357,0.0052
-15.1,-1.7638,0.02494,0.01306,0.0044
-15,-1.751,0.02477,0.0129,0.0041
-14.9,-1.7381,0.0246,0.01275,0.0038
-14.8,-1.7252,0.02444,0.01259,0.0036
-14.7,-1.7124,0.02428,0.01244,0.0033
-14.6,-1.6994,0.02414,0.01229,0.003
-14.3,-1.6608,0.02384,0.01185,0.0022
-14.2,-1.6477,0.02363,0.01169,0.002
-14.1,-1.6349,0.02341,0.01155,0.0016
-14,-1.6219,0.02323,0.0114,0.0014
-13.9,-1.609,0.02306,0.01125,0.0011
-13.8,-1.596,0.02289,0.01111,0.0008
-13.7,-1.583,0.02274,0.01096,0.0005
-13.6,-1.5699,0.0226,0.01082,0.0003
-13.5,-1.5569,0.02247,0.01068,0
-13.4,-1.5439,0.02236,0.01054,-0.0003
-13.2,-1.5178,0.02214,0.01027,-0.0008
-13.1,-1.5048,0.02194,0.01011,-0.0011
-13,-1.4917,0.02175,0.00997,-0.0014
-12.9,-1.4787,0.02157,0.00985,-0.0017
-12.8,-1.4656,0.02142,0.00971,-0.002
-12.7,-1.4525,0.02127,0.00957,-0.0023
-12.6,-1.4394,0.02114,0.00944,-0.0026
-12.5,-1.4263,0.02102,0.00931,-0.0029
-12.4,-1.4131,0.02092,0.00918,-0.0031
-12.3,-1.3999,0.02085,0.00906,-0.0034
-12.2,-1.3869,0.02068,0.00892,-0.0037
-12.1,-1.3738,0.02049,0.00878,-0.004
-12,-1.3607,0.02032,0.00865,-0.0043
-11.9,-1.3475,0.02016,0.00852,-0.0046
-11.8,-1.3344,0.02001,0.0084,-0.0049
-11.7,-1.3212,0.01988,0.00828,-0.0052
-11.6,-1.308,0.01977,0.00816,-0.0055
-11.5,-1.2947,0.01967,0.00804,-0.0058
-11.4,-1.2815,0.0196,0.00792,-0.0061
-11.3,-1.2684,0.01944,0.00779,-0.0064
-11.2,-1.2552,0.01926,0.00766,-0.0067
-11.1,-1.242,0.0191,0.00754,-0.007
-11,-1.2288,0.01895,0.00742,-0.0073
-10.9,-1.2156,0.01881,0.0073,-0.0076
-10.8,-1.2023,0.01869,0.00719,-0.0079
-10.7,-1.189,0.01859,0.00708,-0.0082
-10.6,-1.1757,0.01851,0.00697,-0.0085
-10.5,-1.1625,0.01842,0.00685,-0.0088
-10.4,-1.1493,0.01824,0.00673,-0.0091
-10.3,-1.1361,0.01808,0.00661,-0.0094
-10.2,-1.1228,0.01793,0.0065,-0.0097
-10.1,-1.1096,0.0178,0.00639,-0.01
-10,-1.0963,0.01767,0.00628,-0.0103
-9.9,-1.083,0.01756,0.00618,-0.0106
-9.8,-1.0696,0.01747,0.00607,-0.0109
-9.7,-1.0562,0.01739,0.00597,-0.0112
-9.6,-1.043,0.01724,0.00585,-0.0116
-9.5,-1.0298,0.01709,0.00574,-0.0119
-9.4,-1.0165,0.01695,0.00563,-0.0122
-9.3,-1.0032,0.01682,0.00553,-0.0125
-9.2,-0.9898,0.01671,0.00543,-0.0128
-9.1,-0.9765,0.0166,0.00533,-0.0131
-9,-0.9631,0.01652,0.00524,-0.0134
-8.9,-0.9497,0.01645,0.00514,-0.0137
-8.8,-0.9364,0.01631,0.00502,-0.0141
-8.7,-0.9232,0.01613,0.00492,-0.0144
-8.6,-0.9098,0.016,0.00483,-0.0147
-8.5,-0.8965,0.01589,0.00473,-0.015
-8.4,-0.8831,0.01579,0.00464,-0.0153
-8.3,-0.8697,0.0157,0.00455,-0.0156
-8.2,-0.8563,0.01563,0.00446,-0.0159
-7.7,-0.7896,0.01501,0.00399,-0.0175
-7.5,-0.7626,0.01486,0.00383,-0.0182
-6.9,-0.6824,0.0142,0.00331,-0.0201
-6.7,-0.6555,0.01399,0.00312,-0.0208
-6.6,-0.6422,0.01387,0.00304,-0.0211
-6.5,-0.6288,0.01376,0.00297,-0.0214
-6.4,-0.6154,0.01367,0.0029,-0.0217
-6.3,-0.6019,0.01359,0.00282,-0.022
-6.2,-0.5884,0.01352,0.00276,-0.0224
-6.1,-0.5749,0.01344,0.00266,-0.0227
-6,-0.5616,0.01331,0.00258,-0.023
-5.9,-0.5483,0.01317,0.0025,-0.0234
-5.8,-0.5348,0.01308,0.00243,-0.0237
-5.7,-0.5214,0.013,0.00237,-0.024
-5.6,-0.5079,0.01293,0.0023,-0.0243
-5.5,-0.4943,0.01286,0.00221,-0.0247
-5.4,-0.481,0.01273,0.00214,-0.025
-5.3,-0.4676,0.01263,0.00207,-0.0253
-5.2,-0.4542,0.01253,0.002,-0.0257
-5.1,-0.4407,0.01245,0.00194,-0.026
-5,-0.4272,0.01237,0.00188,-0.0263
-4.9,-0.4137,0.01227,0.00178,-0.0267
-4.8,-0.4004,0.01216,0.00172,-0.027
-4.7,-0.387,0.01207,0.00166,-0.0273
-4.6,-0.3735,0.01198,0.0016,-0.0277
-4.5,-0.36,0.01191,0.00154,-0.028
-4.4,-0.3465,0.01185,0.00149,-0.0283
-4.2,-0.3196,0.01165,0.00134,-0.029
-4.1,-0.3063,0.01153,0.00127,-0.0293
-4,-0.2928,0.01145,0.00122,-0.0297
-3.9,-0.2792,0.01139,0.00117,-0.03
-3.7,-0.2523,0.01121,0.00103,-0.0307
-3.6,-0.2389,0.01112,0.00097,-0.031
-3.5,-0.2255,0.01104,0.00092,-0.0313
-3.4,-0.212,0.01097,0.00088,-0.0316
-3.2,-0.1851,0.01077,0.00073,-0.0323
-3.1,-0.1717,0.01068,0.00068,-0.0327
-3,-0.1582,0.01061,0.00064,-0.033
-2.9,-0.1447,0.01055,0.0006,-0.0333
-2.7,-0.1178,0.01039,0.00047,-0.034
-2.6,-0.1043,0.0103,0.00043,-0.0343
-2.5,-0.091,0.0102,0.00037,-0.0347
-2.4,-0.0774,0.01015,0.00033,-0.035
-2.3,-0.064,0.01005,0.00026,-0.0353
-2.2,-0.0506,0.00996,0.00021,-0.0357
-2.1,-0.0372,0.00989,0.00017,-0.036
-2,-0.0237,0.00983,0.00014,-0.0363
-1.9,-0.0102,0.00978,0.0001,-0.0366
-1.8,0.0033,0.00968,3e-05,-0.037
-1.7,0.0165,0.00956,-2e-05,-0.0373
-1.6,0.03,0.0095,-6e-05,-0.0376
-1.5,0.0534,0.01038,0.0007,-0.0394
-1.4,0.0653,0.01052,0.00076,-0.0393
-1.3,0.0773,0.01063,0.00082,-0.0393
-1.2,0.0898,0.0107,0.00087,-0.0394
-1.1,0.1023,0.0108,0.00091,-0.0395
-1,0.1151,0.01086,0.00094,-0.0397
-0.9,0.1275,0.01084,0.00095,-0.0399
-0.8,0.1399,0.01097,0.00104,-0.0399
-0.7,0.153,0.01102,0.00106,-0.0402
-0.6,0.1658,0.01105,0.00107,-0.0404
-0.5,0.1784,0.0111,0.00111,-0.0405
-0.4,0.1909,0.0112,0.00119,-0.0407
-0.3,0.2034,0.01132,0.00126,-0.0408
-0.2,0.2163,0.01136,0.00129,-0.041
0,0.2414,0.0114,0.00134,-0.0413
0.1,0.254,0.01147,0.00139,-0.0415
0.3,0.2793,0.01158,0.00149,-0.0418
0.4,0.2922,0.01165,0.00156,-0.0421
0.5,0.3051,0.01165,0.00157,-0.0423
0.6,0.3178,0.0117,0.00162,-0.0424
0.7,0.3302,0.01171,0.00164,-0.0426
0.8,0.343,0.01176,0.00168,-0.0427
0.9,0.3552,0.01191,0.00179,-0.0429
1,0.3678,0.01202,0.00184,-0.043
1.1,0.3802,0.01208,0.0019,-0.0431
1.2,0.3925,0.0122,0.00199,-0.0432
1.3,0.4051,0.0123,0.00205,-0.0434
1.4,0.4174,0.01243,0.00212,-0.0435
1.5,0.4294,0.01256,0.00221,-0.0436
1.6,0.4411,0.01268,0.00226,-0.0436
1.7,0.453,0.01283,0.00234,-0.0437
1.8,0.4647,0.01301,0.00243,-0.0437
1.9,0.4765,0.01322,0.00253,-0.0438
2,0.4883,0.01345,0.00262,-0.0439
2.1,0.4997,0.01365,0.00271,-0.044
2.2,0.5114,0.01385,0.00281,-0.0441
2.3,0.5233,0.01405,0.00291,-0.0442
2.5,0.5455,0.01443,0.00308,-0.0442
2.6,0.5579,0.01457,0.00315,-0.0444
2.7,0.5697,0.01468,0.0032,-0.0444
2.8,0.5817,0.01482,0.00327,-0.0445
2.9,0.5939,0.01496,0.00336,-0.0447
3,0.6061,0.01506,0.00342,-0.0448
3.1,0.6181,0.01515,0.00348,-0.0449
3.2,0.6288,0.0152,0.0035,-0.0446
3.3,0.6407,0.0153,0.00356,-0.0447
3.4,0.6528,0.01543,0.00363,-0.0448
3.5,0.6648,0.01556,0.0037,-0.0449
3.6,0.6766,0.0157,0.00378,-0.0449
3.7,0.6886,0.01584,0.00388,-0.045
3.8,0.7008,0.01591,0.00393,-0.0451
3.9,0.7131,0.01598,0.004,-0.0452
4,0.7239,0.01601,0.004,-0.045
4.1,0.7366,0.0161,0.00407,-0.0452
4.4,0.7774,0.01647,0.0043,-0.0464
4.5,0.7904,0.01662,0.00442,-0.0467
4.6,0.8034,0.01678,0.00454,-0.047
4.7,0.8163,0.01695,0.00466,-0.0473
4.9,0.8421,0.01733,0.00493,-0.0479
5,0.855,0.01754,0.00508,-0.0482
5.1,0.8678,0.01777,0.00522,-0.0485
5.2,0.881,0.01785,0.00532,-0.0488
5.3,0.8942,0.01794,0.00542,-0.0491
5.4,0.9073,0.01804,0.00553,-0.0494
5.5,0.9204,0.01815,0.00564,-0.0497
5.7,0.9465,0.01839,0.00586,-0.0503
5.8,0.9595,0.01853,0.00599,-0.0506
5.9,0.9725,0.01867,0.00611,-0.0509
6,0.9854,0.01882,0.00624,-0.0512
6.1,0.9984,0.01898,0.00637,-0.0515
6.2,1.0113,0.01915,0.0065,-0.0518
6.3,1.0242,0.01933,0.00664,-0.0521
6.4,1.037,0.01951,0.00679,-0.0524
6.5,1.0498,0.01971,0.00694,-0.0527
6.6,1.0626,0.01992,0.0071,-0.053
6.7,1.0754,0.02016,0.00727,-0.0533
6.8,1.0881,0.02041,0.00746,-0.0536
6.9,1.1009,0.02063,0.00761,-0.0539
7,1.114,0.0207,0.00772,-0.0542
7.1,1.127,0.02078,0.00783,-0.0545
7.2,1.1399,0.02089,0.00795,-0.0548
7.3,1.1529,0.021,0.00808,-0.0551
7.4,1.1658,0.02113,0.00821,-0.0554
7.5,1.1786,0.02122,0.00831,-0.0557
7.6,1.1915,0.02137,0.00845,-0.056
7.7,1.2043,0.02151,0.00859,-0.0563
7.8,1.2171,0.02167,0.00873,-0.0565
7.9,1.2299,0.02182,0.00887,-0.0568
8,1.2426,0.02199,0.00902,-0.0571
8.1,1.2554,0.02216,0.00917,-0.0574
8.2,1.2681,0.02234,0.00932,-0.0577
8.3,1.2808,0.02253,0.00948,-0.058
8.4,1.2935,0.02273,0.00965,-0.0583
8.5,1.3061,0.02294,0.00982,-0.0586
8.6,1.3187,0.02317,0.01,-0.0589
8.7,1.3313,0.02342,0.0102,-0.0592
8.8,1.3439,0.02369,0.01041,-0.0595
8.9,1.3564,0.02399,0.01064,-0.0598
9,1.369,0.02422,0.01082,-0.0601
9.1,1.3817,0.02427,0.01092,-0.0603
9.2,1.3945,0.02435,0.01105,-0.0606
9.3,1.4071,0.02446,0.01118,-0.0609
9.4,1.4198,0.02458,0.01132,-0.0611
9.5,1.4324,0.02463,0.01141,-0.0614
9.6,1.445,0.02478,0.01157,-0.0617
9.7,1.4576,0.02493,0.01173,-0.0619
9.8,1.4701,0.02509,0.01188,-0.0622
9.9,1.4827,0.02525,0.01204,-0.0625
10,1.4952,0.02542,0.0122,-0.0627
10.1,1.5077,0.02559,0.01237,-0.063
10.2,1.5202,0.02576,0.01253,-0.0633
10.3,1.5327,0.02594,0.01271,-0.0635
10.4,1.5451,0.02613,0.01288,-0.0638
10.5,1.5575,0.02632,0.01305,-0.0641
10.6,1.5699,0.02653,0.01323,-0.0643
10.7,1.5823,0.02674,0.01342,-0.0646
10.8,1.5947,0.02697,0.01361,-0.0649
10.9,1.607,0.02722,0.01382,-0.0652
11,1.6193,0.02748,0.01404,-0.0654
11.1,1.6316,0.02776,0.01427,-0.0657
11.2,1.6438,0.02807,0.01452,-0.066
11.3,1.656,0.02842,0.0148,-0.0663
11.4,1.6683,0.02865,0.01499,-0.0666
11.5,1.6806,0.02867,0.01509,-0.0668
11.6,1.6929,0.02873,0.01522,-0.067
11.7,1.7052,0.0287,0.01527,-0.0672
11.8,1.7174,0.02883,0.01543,-0.0674
11.9,1.7296,0.02896,0.0156,-0.0677
12,1.7418,0.02911,0.01577,-0.0679
12.1,1.754,0.02927,0.01594,-0.0681
12.2,1.7662,0.02943,0.01611,-0.0684
12.3,1.7783,0.0296,0.01629,-0.0686
12.4,1.7904,0.02978,0.01648,-0.0688
12.5,1.8025,0.02995,0.01666,-0.0691
12.6,1.8146,0.03014,0.01684,-0.0693
12.7,1.8267,0.03032,0.01703,-0.0695
12.8,1.8388,0.03051,0.01721,-0.0698
12.9,1.8508,0.03071,0.0174,-0.07
13,1.8628,0.03091,0.01759,-0.0703
13.1,1.8748,0.03112,0.01779,-0.0705
13.2,1.8868,0.03133,0.01799,-0.0707
13.3,1.8988,0.03155,0.01819,-0.071
13.4,1.9107,0.03179,0.01841,-0.0712
13.5,1.9226,0.03205,0.01863,-0.0714
13.6,1.9345,0.03232,0.01886,-0.0717
13.7,1.9464,0.03261,0.01911,-0.0719
13.8,1.9582,0.03292,0.01938,-0.0722
13.9,1.9701,0.03327,0.01967,-0.0725
14,1.9818,0.03364,0.01999,-0.0727
14.1,1.9936,0.03388,0.0202,-0.0729
14.2,2.0052,0.03363,0.02013,-0.073
14.3,2.0169,0.03371,0.02028,-0.0732
14.4,2.0285,0.03381,0.02044,-0.0734
14.5,2.0401,0.03394,0.02061,-0.0735
14.6,2.0518,0.03408,0.02079,-0.0737
14.7,2.0634,0.03423,0.02098,-0.0739
14.8,2.075,0.03439,0.02117,-0.0741
14.9,2.0866,0.03456,0.02136,-0.0743
15,2.0982,0.03473,0.02156,-0.0745
15.1,2.1097,0.03491,0.02176,-0.0747
15.2,2.1213,0.0351,0.02195,-0.0748
15.3,2.1328,0.03529,0.02215,-0.075
15.4,2.1443,0.03548,0.02236,-0.0752
15.5,2.1558,0.03568,0.02257,-0.0754
15.6,2.1673,0.03589,0.02277,-0.0756
15.7,2.1788,0.0361,0.02298,-0.0758
15.8,2.1902,0.03631,0.02319,-0.076
15.9,2.2017,0.03653,0.0234,-0.0761
16,2.2131,0.03675,0.02361,-0.0763
16.1,2.2245,0.03698,0.02383,-0.0765
16.2,2.236,0.03721,0.02406,-0.0767
16.3,2.2473,0.03746,0.02428,-0.0769
16.4,2.2587,0.03771,0.02452,-0.0771
16.5,2.2699,0.03798,0.02477,-0.0773
16.6,2.2813,0.03827,0.02503,-0.0775
16.7,2.2926,0.03859,0.0253,-0.0777
16.8,2.3038,0.03893,0.0256,-0.0779
17,2.3266,0.03976,0.02625,-0.0784
17.1,2.3372,0.03966,0.0263,-0.0784
17.2,2.3479,0.03966,0.02641,-0.0785
17.3,2.3586,0.03971,0.02655,-0.0785
17.4,2.3693,0.0398,0.02672,-0.0786
17.5,2.3798,0.03991,0.02691,-0.0787
17.6,2.3906,0.04005,0.0271,-0.0788
17.7,2.4013,0.0402,0.0273,-0.0789
17.8,2.4119,0.04036,0.0275,-0.079
17.9,2.4229,0.04053,0.02772,-0.0792
18,2.4336,0.04071,0.02793,-0.0793
18.1,2.4443,0.04089,0.02814,-0.0794
18.2,2.455,0.04108,0.02835,-0.0795
18.3,2.4656,0.04127,0.02856,-0.0796
18.4,2.4763,0.04147,0.02878,-0.0797
18.5,2.4869,0.04167,0.02899,-0.0798
18.6,2.4974,0.04188,0.02921,-0.0799
18.7,2.5079,0.04209,0.02943,-0.08
18.8,2.519,0.0423,0.02966,-0.0802
18.9,2.5296,0.04252,0.02988,-0.0803
19,2.5402,0.04274,0.0301,-0.0804
19.1,2.5508,0.04297,0.03033,-0.0805
19.2,2.5613,0.0432,0.03056,-0.0806
19.3,2.5719,0.04344,0.03079,-0.0807
19.4,2.5824,0.04368,0.03103,-0.0808
19.5,2.5929,0.04393,0.03127,-0.0809
19.6,2.603,0.04419,0.03151,-0.0809
19.8,2.625,0.04471,0.03196,-0.0813
19.9,2.6355,0.04502,0.03225,-0.0814
20,2.646,0.04536,0.03255,-0.0815
20.1,2.6564,0.04572,0.03287,-0.0816
20.2,2.6669,0.04611,0.03321,-0.0817
20.3,2.6773,0.04653,0.03358,-0.0818
20.4,2.687,0.04674,0.0338,-0.0818
20.5,2.6954,0.04659,0.03383,-0.0816
20.6,2.7053,0.04656,0.03395,-0.0819
20.7,2.7139,0.0466,0.0341,-0.0817
20.8,2.7229,0.04669,0.03429,-0.0817
20.9,2.732,0.0468,0.03448,-0.0816
21,2.7411,0.04694,0.03468,-0.0816
21.1,2.7502,0.04709,0.0349,-0.0815
21.2,2.7593,0.04725,0.03511,-0.0815
21.3,2.7684,0.04742,0.03533,-0.0815
21.4,2.7775,0.0476,0.03555,-0.0814
21.5,2.7863,0.04778,0.03577,-0.0813
21.6,2.7974,0.04798,0.036,-0.0817
21.7,2.8066,0.04817,0.03623,-0.0817
21.8,2.8154,0.04837,0.03645,-0.0815
21.9,2.8245,0.04857,0.03668,-0.0815
22,2.8336,0.04877,0.0369,-0.0814
22.1,2.8426,0.04897,0.03712,-0.0813
22.2,2.8517,0.04918,0.03735,-0.0813
22.3,2.8606,0.04939,0.03757,-0.0811
22.4,2.8695,0.0496,0.0378,-0.081
22.5,2.8778,0.04982,0.03802,-0.0807
22.6,2.8902,0.05007,0.03826,-0.0815
22.7,2.8991,0.05029,0.03849,-0.0814
22.8,2.9076,0.05052,0.03872,-0.0812
22.9,2.9165,0.05075,0.03896,-0.081
23.1,2.9344,0.05115,0.03933,-0.0807
23.2,2.9431,0.0514,0.03957,-0.0805
23.3,2.9516,0.05166,0.03982,-0.0803
23.4,2.96,0.05193,0.04008,-0.08
23.5,2.9677,0.0522,0.04035,-0.0795
23.6,2.9817,0.05256,0.04066,-0.0807
23.7,2.9904,0.05288,0.04096,-0.0805
23.8,2.999,0.05323,0.04127,-0.0802
23.9,3.007,0.0536,0.04161,-0.0798
24,3.0155,0.054,0.04197,-0.0795
24.1,3.0238,0.05443,0.04237,-0.0792
24.3,3.0321,0.05401,0.04235,-0.0784
24.4,3.0366,0.05395,0.04245,-0.0779
24.5,3.0413,0.05397,0.04261,-0.0774
24.6,3.0454,0.05402,0.04278,-0.0767
24.7,3.0598,0.05416,0.04299,-0.0787
24.8,3.0654,0.05428,0.04319,-0.0784
24.9,3.0712,0.0544,0.04339,-0.078
25,3.0768,0.05454,0.0436,-0.0775
25.1,3.0818,0.05468,0.04381,-0.0769
25.2,3.0871,0.05483,0.04402,-0.0763
25.3,3.0923,0.05498,0.04423,-0.0757
25.4,3.0967,0.05515,0.04444,-0.075
25.5,3.1014,0.05537,0.04471,-0.0743
25.6,3.1058,0.05559,0.04497,-0.0736
25.7,3.1103,0.05586,0.04528,-0.0728
25.8,3.117,0.05646,0.04591,-0.0723
25.9,3.1332,0.05611,0.04556,-0.0745
26,3.1379,0.05635,0.04582,-0.0738
26.1,3.143,0.05664,0.04614,-0.0731
26.2,3.1499,0.05709,0.04661,-0.0727
26.3,3.1608,0.05791,0.04745,-0.073

