airfoilName st3.dat
Re 	7.300000e+05
M 	5.000000e-02
N 	4.500000e+00
VACC 	0 VACCflag 1
XTR 	1.00 	1.00 XTRflag 0
alpha,cl,cd,cdp,cm
-30,-3.2697,0.04419,0.03735,0.0651
-29.9,-3.2607,0.0433,0.03642,0.061
-29.8,-3.2531,0.04254,0.03562,0.0574
-29.7,-3.2448,0.04185,0.03489,0.054
-29.6,-3.236,0.04124,0.03424,0.051
-29.5,-3.2269,0.04058,0.03357,0.0476
-29.4,-3.2174,0.04011,0.03306,0.0451
-29.3,-3.2077,0.03966,0.03259,0.0427
-29.2,-3.1979,0.03927,0.03217,0.0405
-29.1,-3.1878,0.03889,0.03177,0.0384
-29,-3.1777,0.03855,0.0314,0.0365
-28.9,-3.1674,0.03823,0.03106,0.0347
-28.8,-3.157,0.03793,0.03074,0.0329
-28.7,-3.1465,0.03765,0.03044,0.0313
-28.6,-3.1353,0.03739,0.03015,0.0297
-28.5,-3.1248,0.03714,0.02989,0.0282
-28.4,-3.1141,0.0369,0.02962,0.0267
-28.3,-3.1033,0.03667,0.02937,0.0253
-28.2,-3.0925,0.03645,0.02913,0.0239
-28.1,-3.0816,0.03624,0.0289,0.0227
-28,-3.0707,0.03603,0.02868,0.0214
-27.9,-3.0597,0.03584,0.02847,0.0202
-27.8,-3.0487,0.03566,0.02826,0.0191
-27.7,-3.0377,0.03548,0.02806,0.0179
-27.6,-3.0267,0.0353,0.02787,0.0169
-27.5,-3.0152,0.03514,0.02768,0.0158
-27.4,-3.0042,0.03498,0.0275,0.0148
-27.3,-2.9931,0.03483,0.02733,0.0138
-27.2,-2.982,0.03468,0.02716,0.0129
-27.1,-2.9709,0.03454,0.02699,0.012
-27,-2.9597,0.03438,0.02681,0.011
-26.9,-2.9484,0.03419,0.02662,0.0099
-26.8,-2.9371,0.03401,0.02643,0.0088
-26.7,-2.9258,0.03384,0.02625,0.0078
-26.6,-2.9145,0.03366,0.02608,0.0068
-26.5,-2.9029,0.0335,0.02591,0.0058
-26.4,-2.8917,0.03334,0.02574,0.0049
-26.3,-2.8805,0.03319,0.02557,0.0039
-26.2,-2.8693,0.03303,0.02541,0.0031
-26.1,-2.8581,0.03288,0.02526,0.0022
-26,-2.847,0.03274,0.0251,0.0014
-25.9,-2.836,0.03259,0.02495,0.0007
-25.8,-2.825,0.03244,0.0248,-0.0001
-25.7,-2.8141,0.0323,0.02465,-0.0008
-25.6,-2.8033,0.03216,0.0245,-0.0014
-25.5,-2.7926,0.03203,0.02436,-0.0021
-25.4,-2.7818,0.0319,0.02421,-0.0027
-25.3,-2.7713,0.03176,0.02406,-0.0032
-25.2,-2.761,0.03163,0.02392,-0.0037
-25.1,-2.7508,0.0315,0.02378,-0.0042
-25,-2.7409,0.03137,0.02363,-0.0046
-24.9,-2.7312,0.03125,0.02349,-0.0049
-24.8,-2.7219,0.03112,0.02335,-0.0052
-24.7,-2.7129,0.031,0.02321,-0.0054
-24.6,-2.7041,0.03089,0.02308,-0.0055
-24.5,-2.6952,0.03078,0.02295,-0.0056
-24.4,-2.6856,0.03066,0.02281,-0.0058
-24.3,-2.6763,0.03053,0.02266,-0.0059
-24.2,-2.6673,0.03036,0.02249,-0.0061
-24.1,-2.6582,0.0302,0.02232,-0.0062
-24,-2.6489,0.03003,0.02216,-0.0064
-23.9,-2.6395,0.02987,0.022,-0.0065
-23.8,-2.6304,0.02972,0.02183,-0.0066
-23.7,-2.621,0.02956,0.02167,-0.0067
-23.6,-2.6115,0.0294,0.02151,-0.0068
-23.5,-2.6019,0.02925,0.02135,-0.0069
-23.4,-2.5922,0.02909,0.02119,-0.007
-23.3,-2.5824,0.02894,0.02103,-0.0071
-23.2,-2.5725,0.02879,0.02087,-0.0072
-23.1,-2.5627,0.02863,0.02071,-0.0073
-23,-2.5528,0.02848,0.02056,-0.0074
-22.9,-2.5428,0.02833,0.0204,-0.0074
-22.8,-2.5327,0.02819,0.02025,-0.0075
-22.7,-2.5225,0.02804,0.02009,-0.0076
-22.6,-2.5123,0.0279,0.01994,-0.0076
-22.5,-2.502,0.02775,0.01979,-0.0077
-22.4,-2.4917,0.02761,0.01964,-0.0078
-22.3,-2.4813,0.02748,0.01949,-0.0078
-22.2,-2.4708,0.02734,0.01934,-0.0079
-22.1,-2.4604,0.02721,0.01919,-0.008
-22,-2.4498,0.02708,0.01905,-0.008
-21.9,-2.4393,0.02694,0.01889,-0.0081
-21.8,-2.4289,0.02677,0.01872,-0.0082
-21.7,-2.4184,0.02659,0.01856,-0.0082
-21.6,-2.4081,0.02643,0.01839,-0.0083
-21.5,-2.3975,0.02627,0.01823,-0.0084
-21.4,-2.3869,0.02611,0.01807,-0.0085
-21.3,-2.3762,0.02595,0.01791,-0.0086
-21.2,-2.3654,0.02579,0.01776,-0.0087
-21.1,-2.3546,0.02564,0.01761,-0.0087
-21,-2.3438,0.02549,0.01745,-0.0088
-20.9,-2.3329,0.02534,0.01731,-0.0089
-20.8,-2.322,0.0252,0.01716,-0.009
-20.7,-2.311,0.02505,0.01701,-0.0091
-20.6,-2.3,0.02491,0.01687,-0.0091
-20.5,-2.2889,0.02477,0.01672,-0.0092
-20.4,-2.2778,0.02464,0.01658,-0.0093
-20.3,-2.2666,0.0245,0.01644,-0.0094
-20.2,-2.2554,0.02437,0.0163,-0.0095
-20.1,-2.2442,0.02424,0.01616,-0.0095
-20,-2.2329,0.02411,0.01603,-0.0096
-19.9,-2.2216,0.02401,0.0159,-0.0097
-19.8,-2.2104,0.02384,0.01574,-0.0098
-19.7,-2.1993,0.02369,0.01559,-0.0099
-19.5,-2.1766,0.02338,0.01529,-0.0101
-19.4,-2.1652,0.02323,0.01515,-0.0102
-19.3,-2.1538,0.02308,0.01501,-0.0104
-19.2,-2.1424,0.02294,0.01487,-0.0105
-19.1,-2.1309,0.0228,0.01473,-0.0106
-19,-2.1194,0.02266,0.01459,-0.0107
-18.9,-2.1079,0.02252,0.01446,-0.0108
-18.8,-2.0963,0.02239,0.01433,-0.0109
-18.7,-2.0847,0.02226,0.01419,-0.011
-18.6,-2.073,0.02213,0.01406,-0.0111
-18.5,-2.0613,0.02201,0.01393,-0.0112
-18.4,-2.0496,0.02188,0.01381,-0.0113
-18.3,-2.0379,0.02176,0.01368,-0.0114
-18.2,-2.0261,0.02165,0.01356,-0.0115
-18.1,-2.0143,0.02153,0.01344,-0.0117
-18,-2.0026,0.02141,0.01331,-0.0118
-17.9,-1.9908,0.02126,0.01317,-0.0119
-17.8,-1.979,0.02111,0.01303,-0.012
-17.7,-1.9672,0.02097,0.01289,-0.0122
-17.6,-1.9554,0.02083,0.01276,-0.0123
-17.5,-1.9435,0.02069,0.01264,-0.0125
-17.4,-1.9317,0.02055,0.01251,-0.0126
-17.3,-1.9197,0.02042,0.01239,-0.0127
-17.2,-1.9078,0.0203,0.01227,-0.0129
-17.1,-1.8958,0.02018,0.01215,-0.013
-17,-1.8838,0.02006,0.01203,-0.0131
-16.9,-1.8717,0.01994,0.01191,-0.0133
-16.8,-1.8597,0.01983,0.0118,-0.0134
-16.7,-1.8476,0.01972,0.01168,-0.0135
-16.6,-1.8355,0.01961,0.01157,-0.0137
-16.5,-1.8234,0.01951,0.01146,-0.0138
-16.4,-1.8113,0.01937,0.01133,-0.014
-16.3,-1.7992,0.01923,0.0112,-0.0141
-16.2,-1.7871,0.01909,0.01108,-0.0143
-16.1,-1.775,0.01894,0.01096,-0.0145
-16,-1.7628,0.01882,0.01084,-0.0146
-15.9,-1.7506,0.0187,0.01073,-0.0148
-15.8,-1.7383,0.01859,0.01062,-0.0149
-15.7,-1.7261,0.01847,0.01051,-0.0151
-15.6,-1.7138,0.01836,0.0104,-0.0152
-15.5,-1.7016,0.01825,0.0103,-0.0154
-15.4,-1.6893,0.01815,0.01019,-0.0155
-15.3,-1.677,0.01804,0.01009,-0.0157
-15.2,-1.6646,0.01795,0.00999,-0.0158
-15.1,-1.6523,0.01783,0.00988,-0.016
-15,-1.64,0.0177,0.00976,-0.0162
-14.9,-1.6276,0.01757,0.00965,-0.0163
-14.8,-1.6152,0.01745,0.00954,-0.0165
-14.7,-1.6029,0.01733,0.00943,-0.0167
-14.6,-1.5905,0.01722,0.00933,-0.0169
-14.5,-1.578,0.01711,0.00923,-0.017
-14.4,-1.5656,0.017,0.00913,-0.0172
-14.3,-1.5532,0.01689,0.00903,-0.0174
-14.2,-1.5407,0.01679,0.00893,-0.0175
-14.1,-1.5282,0.01669,0.00884,-0.0177
-14,-1.5158,0.0166,0.00875,-0.0179
-13.9,-1.5033,0.0165,0.00864,-0.0181
-13.8,-1.4908,0.01637,0.00853,-0.0182
-13.7,-1.4782,0.01625,0.00843,-0.0184
-13.6,-1.4657,0.01614,0.00833,-0.0186
-13.5,-1.4532,0.01603,0.00824,-0.0188
-13.4,-1.4406,0.01592,0.00814,-0.019
-13.3,-1.4281,0.01582,0.00805,-0.0192
-13.2,-1.4155,0.01572,0.00796,-0.0194
-13.1,-1.4029,0.01562,0.00787,-0.0195
-13,-1.3903,0.01553,0.00778,-0.0197
-12.9,-1.3777,0.01544,0.00769,-0.0199
-12.8,-1.3651,0.01534,0.0076,-0.0201
-12.7,-1.3524,0.01522,0.0075,-0.0203
-12.6,-1.3398,0.01511,0.00741,-0.0205
-12.5,-1.3271,0.015,0.00732,-0.0207
-12.4,-1.3145,0.0149,0.00723,-0.0209
-12.3,-1.3018,0.0148,0.00715,-0.0211
-12.2,-1.2891,0.01471,0.00706,-0.0213
-12.1,-1.2764,0.01461,0.00698,-0.0215
-12,-1.2637,0.01453,0.0069,-0.0216
-11.9,-1.251,0.01444,0.00682,-0.0218
-11.8,-1.2383,0.01436,0.00674,-0.022
-11.7,-1.2256,0.01423,0.00664,-0.0222
-11.6,-1.2129,0.01413,0.00656,-0.0225
-11.5,-1.2001,0.01403,0.00648,-0.0227
-11.4,-1.1874,0.01393,0.0064,-0.0229
-11.3,-1.1746,0.01384,0.00632,-0.0231
-11.2,-1.1619,0.01375,0.00624,-0.0233
-11.1,-1.1491,0.01367,0.00617,-0.0235
-11,-1.1363,0.01359,0.00609,-0.0237
-10.9,-1.1235,0.01351,0.00602,-0.0239
-10.8,-1.1107,0.01342,0.00594,-0.0241
-10.7,-1.0979,0.01331,0.00586,-0.0243
-10.6,-1.0851,0.0132,0.00578,-0.0245
-10.5,-1.0723,0.01311,0.0057,-0.0247
-10.4,-1.0595,0.01302,0.00563,-0.0249
-10.3,-1.0466,0.01294,0.00556,-0.0251
-10.2,-1.0338,0.01286,0.00549,-0.0253
-10.1,-1.021,0.01279,0.00543,-0.0255
-10,-1.0081,0.01271,0.00535,-0.0257
-9.9,-0.9952,0.01261,0.00528,-0.026
-9.8,-0.9824,0.01251,0.0052,-0.0262
-9.7,-0.9695,0.01242,0.00514,-0.0264
-9.6,-0.9566,0.01234,0.00507,-0.0266
-9.5,-0.9437,0.01226,0.005,-0.0268
-9.4,-0.9309,0.01218,0.00494,-0.0271
-9.3,-0.918,0.01211,0.00488,-0.0273
-9.2,-0.9051,0.01202,0.00481,-0.0275
-9.1,-0.8921,0.01193,0.00474,-0.0277
-9,-0.8792,0.01184,0.00467,-0.0279
-8.9,-0.8663,0.01176,0.00461,-0.0282
-8.8,-0.8534,0.01168,0.00455,-0.0284
-8.7,-0.8405,0.01161,0.00449,-0.0286
-8.6,-0.8275,0.01154,0.00443,-0.0288
-8.5,-0.8144,0.01148,0.00438,-0.0291
-8.1,-0.7651,0.01178,0.00439,-0.0291
-8,-0.7526,0.01177,0.00434,-0.0292
-7.9,-0.74,0.01175,0.0043,-0.0294
-7.8,-0.7273,0.01174,0.00426,-0.0295
-7.7,-0.7146,0.01171,0.00421,-0.0297
-7.6,-0.7018,0.01167,0.00416,-0.0299
-7.5,-0.6894,0.01167,0.00412,-0.0301
-7.4,-0.6765,0.01163,0.00408,-0.0303
-7.3,-0.6637,0.0116,0.00404,-0.0305
-7.2,-0.6508,0.01157,0.004,-0.0307
-7.1,-0.6379,0.01154,0.00395,-0.0309
-7,-0.6253,0.01154,0.00393,-0.0311
-6.9,-0.6123,0.01149,0.00388,-0.0313
-6.8,-0.5996,0.0115,0.00386,-0.0315
-6.7,-0.5867,0.01146,0.00382,-0.0317
-6.6,-0.5737,0.01141,0.00378,-0.0319
-6.5,-0.5608,0.01137,0.00373,-0.0322
-6.4,-0.548,0.01136,0.00371,-0.0324
-6.3,-0.535,0.01131,0.00367,-0.0326
-6.2,-0.522,0.01126,0.00363,-0.0328
-6.1,-0.509,0.01122,0.0036,-0.0331
-6,-0.4962,0.01122,0.00357,-0.0333
-5.9,-0.4832,0.01118,0.00353,-0.0335
-5.8,-0.4702,0.01112,0.0035,-0.0338
-5.7,-0.4573,0.01111,0.00347,-0.034
-5.6,-0.4443,0.01108,0.00344,-0.0342
-5.5,-0.4313,0.01105,0.00341,-0.0344
-5.4,-0.4184,0.01102,0.00339,-0.0347
-5.3,-0.4054,0.01099,0.00335,-0.0349
-5.2,-0.3923,0.01093,0.00332,-0.0352
-5.1,-0.3792,0.01087,0.00329,-0.0354
-5,-0.3662,0.01083,0.00326,-0.0357
-4.9,-0.3532,0.0108,0.00324,-0.0359
-4.8,-0.3402,0.01078,0.00321,-0.0361
-4.7,-0.3273,0.01077,0.00319,-0.0363
-4.6,-0.3143,0.01073,0.00316,-0.0366
-4.5,-0.3012,0.01069,0.00314,-0.0368
-4.4,-0.2882,0.01066,0.00312,-0.0371
-4.3,-0.2751,0.01062,0.00309,-0.0373
-4.2,-0.2621,0.01058,0.00306,-0.0376
-4.1,-0.2491,0.01054,0.00304,-0.0378
-4,-0.236,0.01052,0.00302,-0.0381
-3.8,-0.2102,0.01051,0.003,-0.0385
-3.7,-0.1971,0.01046,0.00297,-0.0388
-3.6,-0.1841,0.01043,0.00295,-0.039
-3.5,-0.1711,0.01042,0.00293,-0.0393
-3.4,-0.1581,0.0104,0.00292,-0.0395
-3.3,-0.145,0.01038,0.00291,-0.0397
-3.2,-0.132,0.01035,0.00288,-0.04
-3.1,-0.119,0.01033,0.00287,-0.0402
-3,-0.1061,0.01034,0.00287,-0.0405
-2.9,-0.093,0.01031,0.00285,-0.0407
-2.8,-0.08,0.0103,0.00283,-0.041
-2.7,-0.0672,0.01032,0.00283,-0.0412
-2.6,-0.0542,0.0103,0.00282,-0.0415
-2.5,-0.0412,0.01029,0.00281,-0.0417
-2.4,-0.0282,0.01029,0.00281,-0.0419
-2.3,-0.0152,0.01027,0.00279,-0.0422
-2.2,-0.0022,0.01026,0.00279,-0.0425
-2.1,0.0107,0.01028,0.00279,-0.0427
-2,0.0236,0.0103,0.00279,-0.0429
-1.9,0.0365,0.01031,0.00279,-0.0432
-1.8,0.0495,0.01031,0.00278,-0.0434
-1.7,0.0624,0.01032,0.00278,-0.0437
-1.6,0.0754,0.01031,0.00279,-0.0439
-1.5,0.0883,0.01034,0.00279,-0.0442
-1.4,0.101,0.01042,0.00281,-0.0444
-1.3,0.1138,0.01045,0.00282,-0.0446
-1.2,0.1265,0.01054,0.00284,-0.0449
-1.1,0.1393,0.01058,0.00286,-0.0451
-1,0.152,0.01066,0.00289,-0.0454
-0.9,0.1647,0.0107,0.0029,-0.0457
-0.7,0.1899,0.01093,0.00298,-0.0462
-0.6,0.2017,0.01126,0.00308,-0.0464
-0.5,0.2144,0.01136,0.00312,-0.0467
-0.4,0.2271,0.01142,0.00314,-0.0469
-0.3,0.2399,0.01148,0.00318,-0.0472
-0.2,0.2527,0.01153,0.0032,-0.0475
-0.1,0.2656,0.01156,0.00321,-0.0477
0,0.2785,0.01159,0.00323,-0.048
0.1,0.2914,0.01163,0.00325,-0.0482
0.2,0.3043,0.01165,0.00328,-0.0485
0.3,0.3172,0.01168,0.00329,-0.0487
0.4,0.3302,0.01166,0.0033,-0.049
0.5,0.3431,0.01169,0.00332,-0.0493
0.6,0.356,0.01171,0.00334,-0.0495
0.7,0.3689,0.01175,0.00336,-0.0497
0.8,0.3818,0.01177,0.00338,-0.05
0.9,0.3947,0.0118,0.0034,-0.0502
1,0.4076,0.01184,0.00343,-0.0505
1.1,0.4205,0.01185,0.00345,-0.0508
1.2,0.4334,0.01186,0.00347,-0.051
1.3,0.4464,0.01188,0.0035,-0.0513
1.4,0.4593,0.01191,0.00352,-0.0515
1.5,0.4721,0.01194,0.00354,-0.0517
1.6,0.485,0.01197,0.00356,-0.052
1.7,0.498,0.01197,0.00359,-0.0523
1.8,0.5108,0.01201,0.00361,-0.0525
1.9,0.5237,0.01205,0.00364,-0.0527
2,0.5365,0.01209,0.00367,-0.053
2.1,0.5494,0.01213,0.00371,-0.0532
2.2,0.5623,0.01215,0.00374,-0.0535
2.3,0.5752,0.01216,0.00376,-0.0537
2.4,0.5881,0.01218,0.00378,-0.054
2.6,0.6138,0.01224,0.00385,-0.0545
2.7,0.6266,0.01228,0.00388,-0.0547
2.8,0.6394,0.01232,0.00391,-0.0549
2.9,0.6523,0.01236,0.00394,-0.0552
3,0.6652,0.01238,0.00397,-0.0555
3.1,0.6779,0.01243,0.00401,-0.0557
3.2,0.6907,0.01248,0.00404,-0.0559
3.3,0.7035,0.01253,0.00408,-0.0562
3.4,0.7163,0.01256,0.00413,-0.0564
3.5,0.7292,0.01259,0.00416,-0.0566
3.6,0.742,0.0126,0.00419,-0.0569
3.7,0.7549,0.01263,0.00423,-0.0571
3.8,0.7677,0.01267,0.00427,-0.0574
3.9,0.7805,0.01271,0.00431,-0.0576
4,0.7932,0.01276,0.00435,-0.0578
4.1,0.806,0.0128,0.00439,-0.0581
4.2,0.8189,0.01282,0.00443,-0.0583
4.3,0.8315,0.01288,0.00447,-0.0586
4.4,0.8443,0.01294,0.00452,-0.0588
4.5,0.857,0.01299,0.00456,-0.059
4.6,0.8697,0.01305,0.00461,-0.0592
4.7,0.8824,0.01311,0.00466,-0.0595
4.8,0.8951,0.01317,0.00471,-0.0597
4.9,0.9079,0.01318,0.00476,-0.0599
5,0.9206,0.01322,0.0048,-0.0602
5.1,0.9333,0.01326,0.00485,-0.0604
5.2,0.946,0.01331,0.0049,-0.0606
5.3,0.9587,0.01336,0.00495,-0.0608
5.4,0.9714,0.01341,0.005,-0.061
5.5,0.9841,0.01346,0.00505,-0.0612
5.6,0.9968,0.0135,0.0051,-0.0615
5.7,1.0094,0.01356,0.00515,-0.0617
5.8,1.022,0.01362,0.0052,-0.0619
5.9,1.0346,0.01369,0.00526,-0.0621
6,1.0472,0.01376,0.00531,-0.0623
6.1,1.0598,0.01384,0.00537,-0.0625
6.2,1.0724,0.01391,0.00543,-0.0627
6.3,1.0849,0.01397,0.00549,-0.063
6.4,1.0975,0.01403,0.00556,-0.0632
6.5,1.1101,0.01408,0.00562,-0.0634
6.6,1.1227,0.01414,0.00567,-0.0636
6.7,1.1353,0.0142,0.00573,-0.0638
6.8,1.1479,0.01426,0.00578,-0.064
6.9,1.1604,0.0143,0.00585,-0.0642
7,1.173,0.01436,0.00591,-0.0644
7.1,1.1855,0.01443,0.00597,-0.0646
7.2,1.1981,0.0145,0.00603,-0.0648
7.3,1.2106,0.01457,0.00609,-0.065
7.4,1.2231,0.01464,0.00616,-0.0652
7.5,1.2356,0.01471,0.00622,-0.0654
7.6,1.248,0.01478,0.00628,-0.0656
7.7,1.2604,0.01486,0.00635,-0.0658
7.8,1.2728,0.01494,0.00642,-0.066
7.9,1.2853,0.01503,0.00649,-0.0662
8,1.2977,0.01512,0.00656,-0.0664
8.1,1.31,0.01521,0.00663,-0.0666
8.2,1.3225,0.01528,0.00671,-0.0667
8.3,1.3349,0.01532,0.00677,-0.0669
8.4,1.3473,0.01538,0.00684,-0.0671
8.5,1.3598,0.01545,0.00691,-0.0673
8.6,1.3722,0.01552,0.00698,-0.0675
8.7,1.3846,0.01559,0.00705,-0.0677
8.8,1.397,0.01567,0.00712,-0.0679
8.9,1.4094,0.01574,0.00719,-0.0681
9,1.4218,0.01582,0.00726,-0.0682
9.1,1.434,0.01588,0.00734,-0.0684
9.2,1.4463,0.01596,0.00741,-0.0686
9.3,1.4586,0.01604,0.00748,-0.0688
9.4,1.4709,0.01613,0.00756,-0.0689
9.5,1.4832,0.01622,0.00764,-0.0691
9.6,1.4955,0.01631,0.00772,-0.0693
9.7,1.5077,0.01641,0.00779,-0.0695
9.8,1.5197,0.01649,0.00787,-0.0696
9.9,1.5319,0.01658,0.00796,-0.0698
10,1.544,0.01668,0.00804,-0.07
10.1,1.5562,0.01677,0.00813,-0.0702
10.2,1.5685,0.01683,0.00821,-0.0703
10.3,1.5808,0.0169,0.00829,-0.0705
10.4,1.593,0.01698,0.00836,-0.0707
10.5,1.6052,0.01706,0.00844,-0.0708
10.6,1.6173,0.01713,0.00852,-0.071
10.7,1.6294,0.01721,0.0086,-0.0711
10.8,1.6415,0.01729,0.00869,-0.0713
10.9,1.6537,0.01737,0.00877,-0.0715
11,1.6658,0.01746,0.00885,-0.0716
11.1,1.6779,0.01755,0.00894,-0.0718
11.2,1.69,0.01763,0.00902,-0.072
11.3,1.7018,0.01772,0.00911,-0.0721
11.4,1.7139,0.01781,0.0092,-0.0722
11.5,1.7259,0.0179,0.00928,-0.0724
11.6,1.7379,0.018,0.00937,-0.0725
11.7,1.7497,0.01811,0.00945,-0.0727
11.8,1.7616,0.0182,0.00955,-0.0728
11.9,1.7734,0.0183,0.00964,-0.073
12,1.7853,0.01841,0.00974,-0.0731
12.1,1.7969,0.01852,0.00984,-0.0732
12.2,1.8088,0.01861,0.00994,-0.0733
12.3,1.8208,0.01868,0.01002,-0.0735
12.4,1.8327,0.01876,0.01011,-0.0736
12.5,1.8446,0.01883,0.0102,-0.0737
12.6,1.8564,0.01892,0.01029,-0.0739
12.7,1.8682,0.019,0.01038,-0.074
12.8,1.88,0.01909,0.01047,-0.0741
12.9,1.8914,0.01917,0.01056,-0.0741
13,1.9033,0.01926,0.01065,-0.0743
13.1,1.915,0.01935,0.01075,-0.0744
13.2,1.9267,0.01944,0.01084,-0.0745
13.3,1.9383,0.01954,0.01093,-0.0746
13.4,1.9499,0.01963,0.01103,-0.0747
13.5,1.9615,0.01973,0.01113,-0.0748
13.6,1.9731,0.01983,0.01122,-0.0749
13.7,1.9841,0.01991,0.01131,-0.0749
13.8,1.9956,0.02001,0.01141,-0.075
13.9,2.0068,0.02012,0.0115,-0.075
14.1,2.0294,0.02032,0.0117,-0.0752
14.2,2.0408,0.02044,0.0118,-0.0752
14.3,2.0519,0.02055,0.01191,-0.0753
14.4,2.0632,0.02068,0.01203,-0.0754
14.5,2.0731,0.02073,0.01211,-0.0751
14.6,2.0845,0.02081,0.0122,-0.0751
14.7,2.0958,0.02088,0.01229,-0.0752
14.8,2.107,0.02096,0.01238,-0.0752
14.9,2.118,0.02104,0.01247,-0.0752
15,2.129,0.02111,0.01256,-0.0752
15.1,2.1402,0.0212,0.01265,-0.0752
15.2,2.1511,0.02128,0.01274,-0.0752
15.3,2.1631,0.02135,0.01282,-0.0754
15.4,2.1746,0.02146,0.01292,-0.0756
15.5,2.1862,0.02156,0.01303,-0.0757
15.6,2.1976,0.02167,0.01314,-0.0758
15.7,2.209,0.02178,0.01325,-0.0759
15.8,2.2205,0.02189,0.01336,-0.076
15.9,2.2319,0.02201,0.01347,-0.0762
16,2.2432,0.02212,0.01358,-0.0763
16.1,2.2546,0.02223,0.0137,-0.0764
16.2,2.2658,0.02235,0.0138,-0.0765
16.4,2.2882,0.02259,0.01403,-0.0767
16.5,2.2994,0.02272,0.01415,-0.0768
16.6,2.3105,0.02285,0.01427,-0.0769
16.7,2.3216,0.02298,0.0144,-0.077
16.8,2.3327,0.02312,0.01453,-0.0771
16.9,2.3437,0.02327,0.01466,-0.0772
17,2.3548,0.02339,0.01479,-0.0773
17.1,2.3661,0.02348,0.0149,-0.0774
17.2,2.3773,0.02357,0.01501,-0.0775
17.3,2.3885,0.02367,0.01512,-0.0776
17.4,2.3996,0.02377,0.01523,-0.0777
17.5,2.4107,0.02387,0.01535,-0.0778
17.6,2.4217,0.02398,0.01547,-0.0779
17.7,2.4326,0.02408,0.01558,-0.0779
17.9,2.4546,0.02431,0.01582,-0.0781
18,2.4657,0.02442,0.01595,-0.0782
18.1,2.4766,0.02454,0.01607,-0.0783
18.2,2.4875,0.02465,0.01619,-0.0784
18.3,2.4983,0.02477,0.01631,-0.0784
18.4,2.5091,0.02489,0.01643,-0.0785
18.5,2.5198,0.02501,0.01656,-0.0785
18.6,2.5305,0.02513,0.01668,-0.0786
18.7,2.5411,0.02525,0.01681,-0.0786
18.8,2.5515,0.02535,0.01693,-0.0786
18.9,2.562,0.0255,0.01704,-0.0787
19.1,2.5834,0.02577,0.01731,-0.0789
19.2,2.5938,0.0259,0.01744,-0.0789
19.3,2.6042,0.02604,0.01758,-0.079
19.4,2.6145,0.02619,0.01771,-0.079
19.5,2.6248,0.02633,0.01786,-0.079
19.6,2.6351,0.02649,0.018,-0.0791
19.7,2.6453,0.02665,0.01816,-0.0791
19.8,2.6557,0.02674,0.01828,-0.0791
19.9,2.6661,0.02684,0.0184,-0.0791
20,2.6764,0.02694,0.01852,-0.0791
20.1,2.6871,0.02704,0.01865,-0.0792
20.2,2.6974,0.02715,0.01877,-0.0792
20.3,2.7076,0.02726,0.0189,-0.0792
20.4,2.7178,0.02737,0.01903,-0.0792
20.5,2.7279,0.02749,0.01916,-0.0792
20.6,2.738,0.0276,0.01929,-0.0792
20.7,2.748,0.02772,0.01942,-0.0792
20.8,2.7577,0.02782,0.01955,-0.0792
21,2.7777,0.02808,0.01983,-0.0791
21.3,2.8076,0.02845,0.02023,-0.0792
21.4,2.8171,0.02858,0.02037,-0.0791
21.5,2.8266,0.0287,0.0205,-0.0791
21.7,2.8459,0.02898,0.02077,-0.079
21.8,2.8554,0.02912,0.02091,-0.079
21.9,2.8647,0.02926,0.02105,-0.0789
22,2.874,0.0294,0.0212,-0.0789
22.1,2.8832,0.02954,0.02134,-0.0788
22.2,2.8924,0.02969,0.02149,-0.0787
22.3,2.9023,0.02984,0.02164,-0.0789
22.4,2.9114,0.02999,0.02179,-0.0788
22.5,2.9204,0.03015,0.02195,-0.0787
22.6,2.9293,0.03032,0.02211,-0.0787
22.7,2.9383,0.03047,0.02227,-0.0786
22.8,2.9474,0.03057,0.0224,-0.0785
22.9,2.9563,0.03067,0.02254,-0.0784
23,2.9653,0.03077,0.02267,-0.0782
23.1,2.9742,0.03088,0.02281,-0.0781
23.2,2.983,0.031,0.02295,-0.078
23.3,2.9918,0.03111,0.02309,-0.0779
23.4,3.0003,0.03123,0.02323,-0.0777
23.5,3.0103,0.03135,0.02337,-0.0779
23.6,3.0189,0.03147,0.02352,-0.0778
23.7,3.0274,0.0316,0.02366,-0.0777
23.8,3.0358,0.03172,0.0238,-0.0775
23.9,3.0441,0.03185,0.02395,-0.0774
24,3.0522,0.03197,0.02409,-0.0772
24.1,3.0603,0.0321,0.02424,-0.0771
24.2,3.0684,0.03223,0.02439,-0.0769
24.3,3.0764,0.03236,0.02453,-0.0767
24.4,3.0843,0.03249,0.02468,-0.0766
24.5,3.0921,0.03262,0.02482,-0.0764
24.6,3.0991,0.03275,0.02495,-0.0761
24.7,3.1087,0.03289,0.0251,-0.0764
24.8,3.1163,0.03302,0.02525,-0.0762
24.9,3.1237,0.03316,0.02539,-0.076
25,3.131,0.0333,0.02554,-0.0758
25.1,3.1382,0.03344,0.02569,-0.0756
25.2,3.1452,0.03358,0.02584,-0.0754
25.3,3.1521,0.03372,0.02599,-0.0752
25.4,3.1589,0.03386,0.02614,-0.075
25.5,3.1655,0.03401,0.0263,-0.0747
25.6,3.1718,0.03416,0.02645,-0.0745
25.7,3.1781,0.0343,0.0266,-0.0742
25.8,3.1841,0.03446,0.02676,-0.074
25.9,3.19,0.03461,0.02692,-0.0737
26,3.1984,0.03475,0.02708,-0.0739
26.1,3.2044,0.03484,0.02721,-0.0736
26.2,3.2103,0.03493,0.02734,-0.0733
26.3,3.2161,0.03503,0.02747,-0.0731
26.4,3.2218,0.03512,0.02761,-0.0728
26.5,3.2274,0.03522,0.02774,-0.0725
26.6,3.2327,0.03532,0.02787,-0.0722
26.7,3.2366,0.03541,0.02799,-0.0717
26.8,3.2405,0.03551,0.02813,-0.0713
26.9,3.2449,0.03561,0.02827,-0.071
27,3.2498,0.03572,0.0284,-0.0708
27.1,3.2552,0.03583,0.02854,-0.0707
27.2,3.261,0.03594,0.02868,-0.0706
27.3,3.267,0.03604,0.02881,-0.0707
27.4,3.2726,0.03614,0.02894,-0.0707
27.5,3.2824,0.03627,0.02908,-0.0715
27.6,3.2892,0.03637,0.02921,-0.0717
27.8,3.3032,0.03656,0.02944,-0.0724
27.9,3.3106,0.03667,0.02956,-0.0728
28,3.3181,0.03677,0.02968,-0.0732
28.1,3.3257,0.03687,0.0298,-0.0737
28.2,3.3334,0.03697,0.02991,-0.0742
28.3,3.3411,0.03707,0.03003,-0.0747
28.4,3.3489,0.03718,0.03014,-0.0753
28.5,3.3567,0.03728,0.03026,-0.0758
28.6,3.3643,0.03737,0.03037,-0.0764
28.7,3.3707,0.03746,0.03047,-0.0767
28.8,3.383,0.03762,0.03063,-0.0783
28.9,3.3912,0.03773,0.03075,-0.079
29,3.3993,0.03784,0.03087,-0.0798
29.1,3.4074,0.03796,0.03099,-0.0805
29.2,3.4155,0.03808,0.03111,-0.0813
29.3,3.4236,0.0382,0.03124,-0.0821
29.4,3.4318,0.03832,0.03137,-0.0829
29.5,3.4404,0.03839,0.03149,-0.0838
29.6,3.4489,0.03846,0.0316,-0.0847
29.7,3.4573,0.03854,0.03172,-0.0855
29.8,3.4654,0.03862,0.03184,-0.0864
30,3.4852,0.03885,0.03215,-0.0888

