airfoilName st3.dat
Re 	950000
M 	5.000000e-02
N 	4.500000e+00
VACC 	0 VACCflag 1
XTR 	1.00 	1.00 XTRflag 0
alpha,cl,cd,cdp,cm
-30,-3.2805,0.03911,0.03223,0.0426
-29.9,-3.2709,0.03873,0.03182,0.0406
-29.8,-3.2599,0.03836,0.03141,0.0385
-29.7,-3.2503,0.03803,0.03106,0.0367
-29.6,-3.2404,0.03772,0.03072,0.035
-29.5,-3.2303,0.03743,0.03041,0.0334
-29.4,-3.2201,0.03716,0.03011,0.0318
-29.3,-3.2098,0.0369,0.02983,0.0303
-29.2,-3.1994,0.03666,0.02956,0.0288
-29.1,-3.1889,0.03643,0.02931,0.0275
-29,-3.1784,0.03621,0.02907,0.0262
-28.9,-3.1678,0.03601,0.02884,0.025
-28.8,-3.1569,0.03573,0.02854,0.0232
-28.7,-3.146,0.03548,0.02829,0.0217
-28.6,-3.1344,0.03525,0.02804,0.0202
-28.5,-3.1236,0.03503,0.02782,0.0189
-28.4,-3.1125,0.03481,0.02758,0.0175
-28.3,-3.1015,0.03461,0.02737,0.0162
-28.2,-3.0905,0.03442,0.02717,0.0151
-28.1,-3.0795,0.03424,0.02697,0.0139
-28,-3.0684,0.03406,0.02679,0.0128
-27.9,-3.0573,0.03389,0.02661,0.0118
-27.8,-3.0462,0.03372,0.02643,0.0107
-27.7,-3.0352,0.03356,0.02626,0.0098
-27.6,-3.0241,0.0334,0.0261,0.0088
-27.5,-3.0126,0.03325,0.02593,0.0078
-27.4,-3.0015,0.0331,0.02577,0.0069
-27.3,-2.9904,0.03295,0.02561,0.0061
-27.2,-2.9794,0.03281,0.02546,0.0052
-27.1,-2.9683,0.03267,0.02531,0.0044
-27,-2.9572,0.03253,0.02516,0.0036
-26.9,-2.9461,0.03239,0.02501,0.0028
-26.8,-2.9351,0.03226,0.02487,0.002
-26.7,-2.9241,0.03213,0.02472,0.0013
-26.6,-2.9131,0.032,0.02458,0.0006
-26.4,-2.8911,0.03175,0.02431,-0.0007
-26.3,-2.8803,0.03163,0.02417,-0.0014
-26.2,-2.8695,0.0315,0.02403,-0.0019
-26.1,-2.8588,0.03139,0.0239,-0.0025
-26,-2.8482,0.03127,0.02377,-0.003
-25.9,-2.8376,0.03116,0.02364,-0.0035
-25.8,-2.8273,0.03101,0.02348,-0.0041
-25.7,-2.8172,0.03086,0.02332,-0.0047
-25.6,-2.8075,0.03071,0.02316,-0.0052
-25.5,-2.798,0.03056,0.02301,-0.0056
-25.4,-2.7889,0.03042,0.02286,-0.006
-25.3,-2.7803,0.03028,0.02271,-0.0062
-25.2,-2.7725,0.03012,0.02256,-0.0063
-25.1,-2.7641,0.02999,0.02242,-0.0064
-25,-2.7551,0.02985,0.02228,-0.0065
-24.9,-2.7461,0.02971,0.02213,-0.0066
-24.8,-2.737,0.02957,0.02198,-0.0067
-24.7,-2.7279,0.02943,0.02184,-0.0068
-24.6,-2.7187,0.02929,0.02169,-0.0069
-24.5,-2.7095,0.02915,0.02154,-0.007
-24.4,-2.7001,0.02901,0.0214,-0.007
-24.3,-2.6906,0.02888,0.02125,-0.0071
-24.2,-2.6812,0.02874,0.02111,-0.0072
-24.1,-2.6716,0.0286,0.02096,-0.0072
-24,-2.662,0.02847,0.02081,-0.0073
-23.9,-2.6523,0.02833,0.02067,-0.0073
-23.8,-2.6425,0.0282,0.02052,-0.0074
-23.7,-2.6327,0.02806,0.02038,-0.0074
-23.6,-2.6227,0.02793,0.02023,-0.0075
-23.5,-2.6127,0.0278,0.02009,-0.0075
-23.4,-2.6027,0.02767,0.01995,-0.0076
-23.2,-2.5824,0.02741,0.01966,-0.0076
-23.1,-2.5725,0.02725,0.01949,-0.0077
-23,-2.5625,0.02708,0.01933,-0.0078
-22.9,-2.5525,0.02692,0.01916,-0.0078
-22.8,-2.5422,0.02675,0.01901,-0.0079
-22.7,-2.532,0.0266,0.01885,-0.0079
-22.6,-2.5218,0.02644,0.01869,-0.008
-22.5,-2.5116,0.02627,0.01853,-0.0081
-22.4,-2.5012,0.02612,0.01838,-0.0081
-22.3,-2.4907,0.02598,0.01823,-0.0082
-22.2,-2.4802,0.02583,0.01809,-0.0082
-22.1,-2.4696,0.02569,0.01794,-0.0083
-22,-2.459,0.02555,0.0178,-0.0084
-21.9,-2.4483,0.02541,0.01766,-0.0084
-21.8,-2.4376,0.02527,0.01751,-0.0085
-21.7,-2.4268,0.02514,0.01737,-0.0085
-21.6,-2.416,0.025,0.01723,-0.0086
-21.5,-2.4051,0.02487,0.0171,-0.0086
-21.4,-2.3942,0.02474,0.01696,-0.0087
-21.3,-2.3832,0.02462,0.01683,-0.0088
-21.2,-2.3722,0.02449,0.01669,-0.0088
-21.1,-2.3612,0.02437,0.01656,-0.0089
-21,-2.3501,0.02425,0.01644,-0.009
-20.9,-2.3392,0.02411,0.01628,-0.009
-20.8,-2.3282,0.02395,0.01613,-0.0091
-20.7,-2.3171,0.02379,0.01598,-0.0092
-20.6,-2.306,0.02364,0.01583,-0.0093
-20.5,-2.2949,0.02349,0.01569,-0.0094
-20.4,-2.2837,0.02335,0.01555,-0.0095
-20.3,-2.2725,0.0232,0.01541,-0.0095
-20.2,-2.2612,0.02306,0.01527,-0.0096
-20.1,-2.2499,0.02293,0.01514,-0.0097
-20,-2.2386,0.02279,0.015,-0.0098
-19.9,-2.2272,0.02266,0.01487,-0.0099
-19.8,-2.2158,0.02253,0.01474,-0.01
-19.7,-2.2043,0.0224,0.01461,-0.0101
-19.6,-2.1928,0.02227,0.01449,-0.0102
-19.5,-2.1813,0.02215,0.01436,-0.0103
-19.4,-2.1698,0.02203,0.01424,-0.0104
-19.3,-2.1582,0.02191,0.01412,-0.0105
-19.2,-2.1466,0.0218,0.014,-0.0106
-19.1,-2.135,0.02168,0.01388,-0.0107
-19,-2.1234,0.02156,0.01375,-0.0108
-18.9,-2.1117,0.02141,0.01361,-0.0109
-18.8,-2.1001,0.02126,0.01347,-0.011
-18.7,-2.0884,0.02112,0.01334,-0.0111
-18.6,-2.0767,0.02099,0.01321,-0.0112
-18.5,-2.065,0.02085,0.01308,-0.0114
-18.4,-2.0532,0.02072,0.01296,-0.0115
-18.3,-2.0414,0.0206,0.01284,-0.0116
-18.2,-2.0296,0.02047,0.01272,-0.0117
-18.1,-2.0178,0.02035,0.0126,-0.0118
-18,-2.0059,0.02023,0.01248,-0.012
-17.9,-1.994,0.02011,0.01236,-0.0121
-17.8,-1.9821,0.01999,0.01225,-0.0122
-17.7,-1.9701,0.01988,0.01214,-0.0123
-17.6,-1.9581,0.01977,0.01202,-0.0124
-17.5,-1.9462,0.01966,0.01191,-0.0126
-17.4,-1.9341,0.01955,0.01181,-0.0127
-17.3,-1.9221,0.01945,0.0117,-0.0128
-17.2,-1.9101,0.01933,0.01158,-0.013
-17.1,-1.898,0.01919,0.01145,-0.0131
-17,-1.8861,0.01903,0.01132,-0.0133
-16.9,-1.874,0.01891,0.0112,-0.0134
-16.8,-1.8619,0.01878,0.01109,-0.0136
-16.7,-1.8498,0.01867,0.01098,-0.0137
-16.6,-1.8376,0.01855,0.01087,-0.0138
-16.5,-1.8255,0.01844,0.01076,-0.014
-16.4,-1.8133,0.01833,0.01066,-0.0141
-16.3,-1.8011,0.01822,0.01055,-0.0143
-16.2,-1.7888,0.01811,0.01045,-0.0144
-16.1,-1.7766,0.01801,0.01035,-0.0146
-16,-1.7643,0.01791,0.01025,-0.0147
-15.9,-1.7521,0.01781,0.01015,-0.0149
-15.8,-1.7398,0.01771,0.01005,-0.015
-15.7,-1.7275,0.01755,0.00992,-0.0152
-15.6,-1.7152,0.01743,0.00981,-0.0154
-15.5,-1.7029,0.01731,0.00971,-0.0155
-15.4,-1.6906,0.0172,0.0096,-0.0157
-15.3,-1.6782,0.01709,0.0095,-0.0159
-15.2,-1.6659,0.01698,0.0094,-0.016
-15.1,-1.6535,0.01688,0.00931,-0.0162
-15,-1.6411,0.01677,0.00921,-0.0163
-14.9,-1.6286,0.01667,0.00912,-0.0165
-14.8,-1.6162,0.01657,0.00902,-0.0167
-14.7,-1.6038,0.01648,0.00893,-0.0168
-14.6,-1.5913,0.01639,0.00884,-0.017
-14.5,-1.5788,0.0163,0.00875,-0.0172
-14.4,-1.5664,0.01618,0.00864,-0.0173
-14.3,-1.5539,0.01606,0.00854,-0.0175
-14.2,-1.5414,0.01595,0.00844,-0.0177
-14.1,-1.5289,0.01584,0.00835,-0.0179
-14,-1.5164,0.01573,0.00826,-0.0181
-13.9,-1.5038,0.01563,0.00817,-0.0182
-13.8,-1.4913,0.01553,0.00808,-0.0184
-13.7,-1.4787,0.01542,0.00799,-0.0186
-13.6,-1.4662,0.01533,0.0079,-0.0188
-13.5,-1.4536,0.01524,0.00782,-0.019
-13.4,-1.441,0.01516,0.00774,-0.0191
-13.3,-1.4284,0.01507,0.00764,-0.0193
-13.2,-1.4158,0.01495,0.00755,-0.0195
-13.1,-1.4031,0.01484,0.00746,-0.0197
-13,-1.3905,0.01474,0.00737,-0.0199
-12.9,-1.3779,0.01464,0.00729,-0.0201
-12.8,-1.3652,0.01454,0.0072,-0.0203
-12.7,-1.3525,0.01445,0.00712,-0.0205
-12.6,-1.3399,0.01436,0.00704,-0.0207
-12.5,-1.3272,0.01426,0.00696,-0.0208
-12.4,-1.3145,0.01418,0.00689,-0.021
-12.3,-1.3018,0.0141,0.00681,-0.0212
-12.2,-1.2891,0.014,0.00672,-0.0214
-12.1,-1.2764,0.01389,0.00663,-0.0216
-12,-1.2636,0.01379,0.00655,-0.0218
-11.9,-1.2509,0.0137,0.00647,-0.022
-11.8,-1.2382,0.0136,0.0064,-0.0222
-11.7,-1.2254,0.01352,0.00632,-0.0224
-11.6,-1.2127,0.01343,0.00625,-0.0226
-11.5,-1.1999,0.01335,0.00618,-0.0228
-11.4,-1.1871,0.01326,0.00611,-0.023
-11.3,-1.1743,0.01319,0.00603,-0.0232
-11.2,-1.1615,0.01308,0.00595,-0.0234
-11.1,-1.1487,0.01299,0.00587,-0.0236
-11,-1.1359,0.01289,0.0058,-0.0238
-10.9,-1.1231,0.0128,0.00573,-0.024
-10.8,-1.1103,0.01272,0.00566,-0.0243
-10.7,-1.0975,0.01264,0.00559,-0.0245
-10.6,-1.0847,0.01256,0.00552,-0.0247
-10.5,-1.0718,0.01248,0.00546,-0.0249
-10.4,-1.059,0.01241,0.0054,-0.0251
-10.3,-1.0461,0.01233,0.00532,-0.0253
-10.2,-1.0333,0.01221,0.00524,-0.0255
-10.1,-1.0204,0.01212,0.00518,-0.0257
-10,-1.0075,0.01204,0.00511,-0.0259
-9.9,-0.9946,0.01196,0.00505,-0.0261
-9.8,-0.9818,0.01189,0.00499,-0.0264
-9.7,-0.9686,0.01183,0.00494,-0.0266
-9.5,-0.9466,0.0123,0.00501,-0.0259
-9.4,-0.934,0.01226,0.00495,-0.0261
-9.3,-0.9214,0.01221,0.0049,-0.0263
-9.2,-0.9087,0.01217,0.00484,-0.0265
-9.1,-0.896,0.01212,0.00479,-0.0267
-9,-0.8832,0.01208,0.00474,-0.0268
-8.9,-0.8704,0.01205,0.00469,-0.027
-8.8,-0.8576,0.01202,0.00464,-0.0272
-8.7,-0.8447,0.01197,0.00458,-0.0274
-8.6,-0.8319,0.01191,0.00453,-0.0276
-8.5,-0.819,0.01186,0.00448,-0.0279
-8.4,-0.8061,0.01181,0.00443,-0.0281
-8.3,-0.7932,0.01176,0.00439,-0.0283
-8.2,-0.7803,0.01172,0.00434,-0.0285
-8.1,-0.7675,0.01168,0.00429,-0.0287
-8,-0.7547,0.01166,0.00425,-0.0289
-7.9,-0.7417,0.0116,0.0042,-0.0291
-7.8,-0.7288,0.01155,0.00415,-0.0294
-7.7,-0.7159,0.0115,0.00411,-0.0296
-7.6,-0.7029,0.01146,0.00407,-0.0298
-7.5,-0.69,0.01141,0.00403,-0.03
-7.4,-0.677,0.01137,0.00399,-0.0302
-7.3,-0.6642,0.01137,0.00396,-0.0304
-7.2,-0.6512,0.01129,0.0039,-0.0307
-7.1,-0.6384,0.01127,0.00387,-0.0309
-7,-0.6254,0.01122,0.00383,-0.0311
-6.9,-0.6124,0.01118,0.0038,-0.0314
-6.8,-0.5994,0.01114,0.00376,-0.0316
-6.7,-0.5866,0.01114,0.00373,-0.0318
-6.6,-0.5736,0.01109,0.00369,-0.032
-6.5,-0.5605,0.01103,0.00365,-0.0323
-6.4,-0.5475,0.01096,0.00361,-0.0325
-6.3,-0.5346,0.01094,0.00358,-0.0328
-6.2,-0.5217,0.01093,0.00356,-0.033
-6.1,-0.5087,0.0109,0.00353,-0.0332
-6,-0.4957,0.01087,0.00349,-0.0334
-5.9,-0.4827,0.01082,0.00346,-0.0337
-5.8,-0.4697,0.01077,0.00343,-0.0339
-5.7,-0.4567,0.01074,0.0034,-0.0341
-5.6,-0.4437,0.01069,0.00337,-0.0344
-5.5,-0.4307,0.01067,0.00334,-0.0346
-5.4,-0.4176,0.01062,0.00331,-0.0348
-5.3,-0.4046,0.01057,0.00328,-0.0351
-5.2,-0.3915,0.01053,0.00325,-0.0353
-5.1,-0.3786,0.01052,0.00323,-0.0356
-5,-0.3656,0.01049,0.0032,-0.0358
-4.9,-0.3525,0.01045,0.00317,-0.036
-4.8,-0.3395,0.01041,0.00315,-0.0363
-4.7,-0.3265,0.01037,0.00312,-0.0365
-4.6,-0.3134,0.01034,0.0031,-0.0368
-4.5,-0.3004,0.01031,0.00308,-0.037
-4.4,-0.2874,0.0103,0.00306,-0.0372
-4.3,-0.2744,0.01028,0.00303,-0.0375
-4.2,-0.2614,0.01024,0.00301,-0.0377
-4.1,-0.2484,0.01024,0.003,-0.038
-4,-0.2353,0.01019,0.00298,-0.0382
-3.9,-0.2223,0.01018,0.00296,-0.0384
-3.8,-0.2093,0.01016,0.00294,-0.0387
-3.7,-0.1963,0.01014,0.00292,-0.0389
-3.6,-0.1833,0.01011,0.00291,-0.0392
-3.5,-0.1702,0.01009,0.00289,-0.0394
-3.4,-0.1572,0.01006,0.00288,-0.0397
-3.3,-0.1442,0.01004,0.00286,-0.0399
-3.2,-0.1311,0.01002,0.00284,-0.0402
-3.1,-0.1182,0.01002,0.00284,-0.0404
-3,-0.1054,0.01006,0.00284,-0.0406
-2.9,-0.0924,0.01005,0.00283,-0.0409
-2.8,-0.0794,0.01005,0.00282,-0.0411
-2.7,-0.0663,0.01004,0.00281,-0.0414
-2.6,-0.0533,0.01001,0.0028,-0.0416
-2.5,-0.0404,0.01001,0.00279,-0.0419
-2.4,-0.0275,0.01004,0.00279,-0.0421
-2.3,-0.0146,0.01006,0.00279,-0.0423
-2.2,-0.0015,0.01005,0.00279,-0.0426
-2.1,0.0114,0.01005,0.00278,-0.0429
-2,0.0244,0.01006,0.00279,-0.0431
-1.9,0.0373,0.01008,0.00279,-0.0434
-1.8,0.05,0.01015,0.0028,-0.0436
-1.7,0.0629,0.01018,0.00281,-0.0439
-1.6,0.0758,0.01021,0.00282,-0.0441
-1.5,0.0886,0.01027,0.00283,-0.0443
-1.4,0.1014,0.01032,0.00285,-0.0446
-1.3,0.1142,0.01036,0.00286,-0.0449
-1.2,0.1266,0.01054,0.00292,-0.0451
-1,0.1512,0.01096,0.00305,-0.0457
-0.9,0.164,0.01103,0.00307,-0.0459
-0.8,0.1768,0.01107,0.00309,-0.0462
-0.7,0.1898,0.01109,0.00311,-0.0464
-0.6,0.2027,0.0111,0.00312,-0.0467
-0.5,0.2155,0.01117,0.00314,-0.0469
-0.4,0.2284,0.01119,0.00316,-0.0472
-0.3,0.2414,0.01119,0.00317,-0.0475
-0.2,0.2544,0.01121,0.00318,-0.0477
-0.1,0.2673,0.01122,0.00319,-0.0479
0,0.2802,0.01125,0.00321,-0.0482
0.1,0.2933,0.01123,0.00321,-0.0485
0.2,0.3062,0.01126,0.00323,-0.0487
0.3,0.3191,0.01129,0.00325,-0.049
0.4,0.332,0.01132,0.00327,-0.0492
0.5,0.3449,0.01134,0.00329,-0.0495
0.6,0.3579,0.01135,0.0033,-0.0497
0.7,0.3709,0.01134,0.00332,-0.05
0.8,0.3838,0.01137,0.00334,-0.0502
0.9,0.3968,0.01139,0.00335,-0.0505
1,0.4097,0.01141,0.00337,-0.0507
1.1,0.4226,0.01143,0.00339,-0.051
1.2,0.4355,0.01146,0.00341,-0.0512
1.3,0.4485,0.01147,0.00343,-0.0515
1.4,0.4614,0.0115,0.00345,-0.0518
1.5,0.4742,0.01153,0.00348,-0.052
1.6,0.4872,0.01155,0.0035,-0.0522
1.7,0.5001,0.01158,0.00352,-0.0525
1.8,0.513,0.01159,0.00354,-0.0527
1.9,0.526,0.01161,0.00356,-0.053
2,0.5389,0.01162,0.00358,-0.0532
2.1,0.5518,0.01165,0.00361,-0.0535
2.2,0.5647,0.01169,0.00363,-0.0537
2.3,0.5775,0.01172,0.00366,-0.054
2.4,0.5904,0.01175,0.00369,-0.0542
2.5,0.6032,0.01179,0.00372,-0.0545
2.6,0.6162,0.01181,0.00374,-0.0547
2.7,0.629,0.01185,0.00377,-0.055
2.8,0.6419,0.01188,0.00381,-0.0552
2.9,0.6548,0.01191,0.00384,-0.0555
3,0.6676,0.01194,0.00387,-0.0557
3.1,0.6805,0.01196,0.00389,-0.0559
3.2,0.6934,0.01199,0.00392,-0.0562
3.3,0.7063,0.01201,0.00395,-0.0564
3.4,0.7191,0.01204,0.00399,-0.0567
3.5,0.732,0.01208,0.00402,-0.0569
3.6,0.7448,0.01211,0.00405,-0.0572
3.7,0.7576,0.01216,0.00409,-0.0574
3.8,0.7704,0.0122,0.00412,-0.0576
3.9,0.7833,0.01223,0.00415,-0.0579
4,0.796,0.01229,0.0042,-0.0581
4.1,0.8087,0.01235,0.00424,-0.0584
4.2,0.8216,0.01238,0.00428,-0.0586
4.3,0.8344,0.01242,0.00432,-0.0588
4.4,0.8472,0.01245,0.00435,-0.0591
4.5,0.86,0.01249,0.00439,-0.0593
4.6,0.8728,0.0125,0.00443,-0.0596
4.7,0.8856,0.01255,0.00447,-0.0598
4.8,0.8984,0.0126,0.00451,-0.06
4.9,0.9111,0.01264,0.00455,-0.0602
5,0.9239,0.01268,0.0046,-0.0605
5.1,0.9366,0.01273,0.00464,-0.0607
5.2,0.9494,0.01277,0.00468,-0.061
5.3,0.9621,0.01281,0.00473,-0.0612
5.4,0.9748,0.01288,0.00478,-0.0614
5.5,0.9875,0.01294,0.00483,-0.0617
5.6,1.0001,0.01301,0.00488,-0.0619
5.7,1.0128,0.01307,0.00494,-0.0621
5.8,1.0256,0.0131,0.00498,-0.0623
5.9,1.0383,0.01313,0.00503,-0.0626
6,1.051,0.01317,0.00508,-0.0628
6.1,1.0637,0.01322,0.00512,-0.063
6.2,1.0764,0.01327,0.00518,-0.0632
6.3,1.0891,0.01332,0.00523,-0.0635
6.4,1.1017,0.01338,0.00528,-0.0637
6.5,1.1144,0.01344,0.00533,-0.0639
6.6,1.127,0.01348,0.00538,-0.0641
6.7,1.1396,0.01354,0.00544,-0.0643
6.8,1.1522,0.0136,0.00549,-0.0646
6.9,1.1648,0.01367,0.00555,-0.0648
7,1.1774,0.01374,0.00561,-0.065
7.1,1.19,0.01381,0.00567,-0.0652
7.2,1.2024,0.0139,0.00573,-0.0654
7.3,1.215,0.01396,0.00579,-0.0656
7.4,1.2275,0.01403,0.00586,-0.0658
7.5,1.2401,0.01408,0.00592,-0.066
7.6,1.2527,0.01414,0.00597,-0.0662
7.7,1.2652,0.0142,0.00603,-0.0664
7.8,1.2778,0.01426,0.00609,-0.0666
7.9,1.2903,0.01432,0.00615,-0.0668
8,1.3029,0.01437,0.00621,-0.0671
8.1,1.3154,0.01443,0.00627,-0.0673
8.2,1.3279,0.0145,0.00633,-0.0675
8.3,1.3404,0.01457,0.0064,-0.0677
8.4,1.3528,0.01464,0.00646,-0.0679
8.5,1.3653,0.01471,0.00652,-0.0681
8.6,1.3777,0.01479,0.00659,-0.0683
8.7,1.3901,0.01485,0.00666,-0.0685
8.8,1.4026,0.01493,0.00672,-0.0687
8.9,1.415,0.01501,0.0068,-0.0689
9,1.4274,0.0151,0.00687,-0.0691
9.1,1.4397,0.01518,0.00694,-0.0693
9.2,1.4521,0.01527,0.00701,-0.0695
9.3,1.4644,0.01536,0.00709,-0.0696
9.4,1.4768,0.01542,0.00715,-0.0698
9.5,1.4892,0.01547,0.00722,-0.07
9.6,1.5016,0.01554,0.00729,-0.0702
9.7,1.5139,0.01561,0.00736,-0.0704
9.8,1.5263,0.01568,0.00743,-0.0706
9.9,1.5386,0.01575,0.0075,-0.0708
10,1.551,0.01582,0.00757,-0.071
10.1,1.5633,0.0159,0.00764,-0.0712
10.2,1.5756,0.01597,0.00772,-0.0713
10.3,1.5879,0.01605,0.00779,-0.0715
10.4,1.6001,0.01613,0.00787,-0.0717
10.5,1.6124,0.01621,0.00794,-0.0719
10.6,1.6246,0.0163,0.00802,-0.0721
10.7,1.6368,0.01639,0.0081,-0.0723
10.8,1.649,0.01648,0.00818,-0.0724
10.9,1.6612,0.01657,0.00826,-0.0726
11,1.6733,0.01665,0.00834,-0.0728
11.1,1.6855,0.01675,0.00843,-0.073
11.2,1.6976,0.01685,0.00851,-0.0732
11.3,1.7096,0.01695,0.00861,-0.0733
11.4,1.7218,0.01702,0.00868,-0.0735
11.5,1.734,0.01709,0.00875,-0.0737
11.6,1.7461,0.01716,0.00883,-0.0738
11.7,1.7582,0.01723,0.00891,-0.074
11.8,1.7703,0.01731,0.009,-0.0741
11.9,1.7824,0.01739,0.00908,-0.0743
12,1.7945,0.01747,0.00916,-0.0745
12.1,1.8066,0.01755,0.00924,-0.0747
12.2,1.8187,0.01764,0.00932,-0.0748
12.3,1.8308,0.01773,0.00941,-0.075
12.4,1.8428,0.01781,0.00949,-0.0752
12.5,1.8546,0.01789,0.00958,-0.0753
12.6,1.8666,0.01798,0.00967,-0.0754
12.7,1.8785,0.01807,0.00975,-0.0756
12.8,1.8905,0.01817,0.00984,-0.0757
12.9,1.9024,0.01827,0.00993,-0.0759
13,1.9143,0.01837,0.01002,-0.0761
13.1,1.9262,0.01847,0.01011,-0.0762
13.2,1.938,0.01857,0.01021,-0.0764
13.3,1.9496,0.01866,0.0103,-0.0765
13.5,1.9729,0.01889,0.01051,-0.0767
13.6,1.9848,0.01896,0.0106,-0.0769
13.8,2.0085,0.01912,0.01077,-0.0771
13.9,2.0203,0.0192,0.01086,-0.0773
14,2.0321,0.01928,0.01095,-0.0774
14.1,2.0437,0.01936,0.01104,-0.0775
14.2,2.0554,0.01945,0.01113,-0.0776
14.3,2.0671,0.01953,0.01122,-0.0777
14.4,2.0787,0.01962,0.01132,-0.0779
14.5,2.0904,0.01972,0.01141,-0.078
14.6,2.102,0.01981,0.0115,-0.0781
14.7,2.1137,0.01991,0.0116,-0.0782
14.8,2.1252,0.02,0.0117,-0.0784
14.9,2.1366,0.02009,0.01179,-0.0784
15,2.1481,0.02019,0.01189,-0.0785
15.1,2.1594,0.02029,0.01199,-0.0786
15.2,2.1709,0.02039,0.01209,-0.0787
15.3,2.1823,0.02049,0.01219,-0.0788
15.4,2.1936,0.02059,0.01229,-0.0789
15.5,2.205,0.0207,0.01239,-0.079
15.6,2.2159,0.0208,0.01249,-0.079
15.7,2.2268,0.02091,0.0126,-0.079
15.8,2.2381,0.02103,0.01271,-0.0791
15.9,2.2492,0.02115,0.01282,-0.0792
16,2.2602,0.02124,0.01293,-0.0792
16.1,2.2715,0.02131,0.01302,-0.0793
16.2,2.2828,0.02139,0.01311,-0.0793
16.3,2.294,0.02148,0.0132,-0.0794
16.4,2.3044,0.02154,0.01329,-0.0793
16.5,2.3156,0.02163,0.01339,-0.0793
16.6,2.3266,0.02172,0.01348,-0.0793
16.7,2.3376,0.02181,0.01358,-0.0794
16.8,2.3486,0.0219,0.01368,-0.0794
16.9,2.3596,0.02199,0.01378,-0.0794
17,2.37,0.02207,0.01387,-0.0793
17.1,2.3807,0.02216,0.01396,-0.0793
17.2,2.3901,0.02221,0.01403,-0.079
17.3,2.401,0.02231,0.01413,-0.079
17.4,2.412,0.0224,0.01422,-0.0791
17.6,2.4347,0.02261,0.01443,-0.0794
17.7,2.4457,0.02272,0.01455,-0.0794
17.8,2.4568,0.02284,0.01466,-0.0795
17.9,2.4678,0.02296,0.01477,-0.0796
18,2.4789,0.02307,0.01489,-0.0797
18.1,2.4898,0.02319,0.01501,-0.0798
18.2,2.5007,0.02332,0.01512,-0.0799
18.3,2.5113,0.02343,0.01524,-0.0799
18.4,2.5221,0.02356,0.01536,-0.08
18.5,2.5326,0.02371,0.0155,-0.0801
18.6,2.5432,0.02385,0.01563,-0.0801
18.7,2.5541,0.02394,0.01574,-0.0802
18.8,2.565,0.02403,0.01585,-0.0802
18.9,2.5759,0.02412,0.01595,-0.0803
19,2.5869,0.02422,0.01606,-0.0804
19.1,2.5978,0.02432,0.01618,-0.0804
19.2,2.6085,0.02442,0.01629,-0.0805
19.3,2.6193,0.02453,0.0164,-0.0806
19.4,2.63,0.02464,0.01652,-0.0806
19.5,2.6406,0.02474,0.01663,-0.0806
19.6,2.6512,0.02485,0.01675,-0.0807
19.7,2.6617,0.02496,0.01687,-0.0807
19.8,2.6723,0.02507,0.01698,-0.0807
19.9,2.6827,0.02519,0.0171,-0.0808
20,2.6935,0.0253,0.01722,-0.0809
20.1,2.704,0.02542,0.01734,-0.0809
20.2,2.7143,0.02554,0.01747,-0.0809
20.3,2.7247,0.02565,0.01759,-0.081
20.4,2.735,0.02577,0.01771,-0.081
20.5,2.7452,0.02589,0.01783,-0.081
20.6,2.7554,0.02602,0.01796,-0.081
20.7,2.7654,0.02614,0.01809,-0.081
20.8,2.7755,0.02627,0.01821,-0.081
20.9,2.7855,0.0264,0.01834,-0.0809
21,2.7953,0.02652,0.01847,-0.0809
21.1,2.8054,0.02664,0.0186,-0.081
21.2,2.815,0.0268,0.01874,-0.081
21.3,2.8247,0.02694,0.01888,-0.0809
21.4,2.8344,0.02709,0.01903,-0.0809
21.5,2.8441,0.02723,0.01918,-0.0809
21.6,2.8541,0.02732,0.01929,-0.0808
21.7,2.864,0.02742,0.01941,-0.0808
21.8,2.8738,0.02751,0.01953,-0.0807
21.9,2.8835,0.02761,0.01965,-0.0807
22,2.8933,0.02772,0.01977,-0.0806
22.1,2.903,0.02783,0.01989,-0.0806
22.2,2.9135,0.02794,0.02002,-0.0808
22.3,2.9231,0.02806,0.02014,-0.0807
22.4,2.9327,0.02817,0.02027,-0.0806
22.5,2.9422,0.02829,0.0204,-0.0806
22.6,2.9516,0.0284,0.02053,-0.0805
22.7,2.961,0.02852,0.02066,-0.0804
22.8,2.9702,0.02864,0.02079,-0.0803
22.9,2.9794,0.02876,0.02092,-0.0802
23,2.9886,0.02888,0.02105,-0.0801
23.1,2.9977,0.029,0.02118,-0.08
23.2,3.0066,0.02913,0.02132,-0.0799
23.3,3.0154,0.02925,0.02145,-0.0798
23.4,3.0258,0.02938,0.02159,-0.08
23.5,3.0347,0.02951,0.02172,-0.0799
23.6,3.0435,0.02964,0.02186,-0.0798
23.7,3.0521,0.02977,0.02199,-0.0797
23.8,3.0607,0.0299,0.02213,-0.0795
23.9,3.0691,0.03003,0.02227,-0.0794
24,3.0774,0.03016,0.02242,-0.0792
24.2,3.0927,0.03045,0.02271,-0.0788
24.3,3.1008,0.03059,0.02286,-0.0786
24.4,3.1086,0.03074,0.02301,-0.0784
24.5,3.1161,0.03089,0.02317,-0.0782
24.6,3.1261,0.03106,0.02333,-0.0785
24.7,3.1342,0.03118,0.02347,-0.0783
24.8,3.1423,0.03127,0.0236,-0.0781
24.9,3.1504,0.03137,0.02372,-0.078
25,3.1583,0.03147,0.02385,-0.0777
25.1,3.1662,0.03158,0.02398,-0.0776
25.2,3.1739,0.03168,0.02411,-0.0773
25.3,3.1816,0.0318,0.02425,-0.0771
25.4,3.1893,0.03191,0.02438,-0.0769
25.5,3.1967,0.03202,0.02452,-0.0767
25.6,3.204,0.03214,0.02465,-0.0764
25.7,3.211,0.03226,0.02479,-0.0761
25.8,3.2171,0.03237,0.02492,-0.0757
25.9,3.2279,0.0325,0.02506,-0.0763
26,3.2347,0.03261,0.0252,-0.076
26.1,3.2414,0.03273,0.02533,-0.0757
26.2,3.248,0.03285,0.02546,-0.0755
26.3,3.2543,0.03296,0.0256,-0.0752
26.4,3.2605,0.03308,0.02573,-0.0749
26.5,3.2665,0.0332,0.02587,-0.0745
26.6,3.2724,0.03331,0.026,-0.0742
26.7,3.278,0.03343,0.02613,-0.0739
26.8,3.2835,0.03354,0.02627,-0.0736
26.9,3.2888,0.03366,0.0264,-0.0732
27,3.2939,0.03378,0.02653,-0.0728
27.1,3.2985,0.03389,0.02667,-0.0724
27.2,3.3008,0.03399,0.02679,-0.0717
27.3,3.3072,0.03414,0.02693,-0.072
27.4,3.3094,0.03426,0.02708,-0.0715
27.5,3.3123,0.03438,0.02723,-0.0711
27.6,3.3182,0.03451,0.02737,-0.071
27.7,3.3236,0.03464,0.02751,-0.071
27.8,3.3293,0.03478,0.02766,-0.0711
27.9,3.3352,0.03491,0.0278,-0.0712
28,3.3413,0.03504,0.02794,-0.0714
28.1,3.3477,0.03517,0.02808,-0.0716
28.2,3.3547,0.03527,0.02821,-0.0719
28.3,3.362,0.03534,0.02831,-0.0722
28.4,3.3694,0.03541,0.02842,-0.0725
28.5,3.3767,0.03549,0.02853,-0.0728
28.6,3.3829,0.03555,0.02862,-0.0729
28.7,3.395,0.03567,0.02877,-0.0742
28.8,3.4029,0.03575,0.02888,-0.0747
28.9,3.4109,0.03584,0.02899,-0.0751
29,3.419,0.03592,0.0291,-0.0756
29.1,3.4271,0.03601,0.0292,-0.0762
29.2,3.4352,0.03609,0.02931,-0.0767
29.3,3.4433,0.03618,0.02942,-0.0773
29.4,3.4516,0.03627,0.02953,-0.078
29.5,3.4597,0.03636,0.02963,-0.0786
29.6,3.4678,0.03644,0.02974,-0.0792
29.7,3.4757,0.03653,0.02984,-0.0799
29.8,3.483,0.0366,0.02994,-0.0804
29.9,3.4952,0.03675,0.0301,-0.0819
30,3.5035,0.03684,0.03022,-0.0827

