airfoilName st6.dat
Re 	430000
M 	5.000000e-02
N 	4.500000e+00
VACC 	0 VACCflag 1
XTR 	1.00 	1.00 XTRflag 0
alpha,cl,cd,cdp,cm
-17.2,-1.6364,0.05619,0.05269,0.013
-16.9,-1.5624,0.04017,0.03584,-0.0278
-16.8,-1.5421,0.0386,0.03412,-0.0337
-16.7,-1.5307,0.03762,0.03305,-0.0368
-16.6,-1.5227,0.03683,0.03219,-0.0385
-16.5,-1.5149,0.03614,0.03144,-0.0398
-16.4,-1.507,0.0355,0.03073,-0.0409
-16.3,-1.4991,0.03491,0.03008,-0.0417
-16.2,-1.4913,0.03434,0.02946,-0.0424
-16.1,-1.4833,0.0338,0.02886,-0.043
-16,-1.4752,0.03329,0.02829,-0.0435
-15.9,-1.4671,0.03279,0.02775,-0.0439
-15.8,-1.4588,0.03231,0.02721,-0.0443
-15.7,-1.4505,0.03185,0.0267,-0.0446
-15.6,-1.442,0.0314,0.0262,-0.0449
-15.5,-1.4335,0.03096,0.02571,-0.0451
-15.4,-1.4248,0.03054,0.02523,-0.0453
-15.3,-1.416,0.03012,0.02476,-0.0455
-15.2,-1.407,0.02972,0.0243,-0.0457
-15.1,-1.398,0.02932,0.02385,-0.0458
-15,-1.3889,0.02893,0.02341,-0.046
-14.9,-1.3797,0.02855,0.02298,-0.0461
-14.8,-1.3704,0.02817,0.02256,-0.0462
-14.7,-1.361,0.0278,0.02214,-0.0463
-14.6,-1.3514,0.02745,0.02173,-0.0464
-14.5,-1.3418,0.02709,0.02133,-0.0464
-14.4,-1.3321,0.02675,0.02093,-0.0465
-14.3,-1.3223,0.02641,0.02055,-0.0466
-14.2,-1.3125,0.02609,0.02017,-0.0467
-14.1,-1.3025,0.02577,0.01979,-0.0467
-14,-1.2916,0.02566,0.01961,-0.0467
-13.9,-1.2815,0.02534,0.01926,-0.0468
-13.8,-1.2718,0.02495,0.01884,-0.0469
-13.7,-1.2618,0.02459,0.01846,-0.047
-13.6,-1.2517,0.02426,0.01811,-0.047
-13.5,-1.2414,0.02395,0.01777,-0.0471
-13.4,-1.231,0.02366,0.01745,-0.0472
-13.3,-1.2206,0.02338,0.01715,-0.0472
-13.2,-1.21,0.02311,0.01686,-0.0473
-13.1,-1.1994,0.02285,0.01657,-0.0474
-13,-1.1888,0.02259,0.01628,-0.0474
-12.9,-1.178,0.02234,0.01601,-0.0475
-12.8,-1.1672,0.02209,0.01573,-0.0475
-12.7,-1.1564,0.02185,0.01546,-0.0476
-12.6,-1.1456,0.02161,0.01519,-0.0476
-12.5,-1.1346,0.02138,0.01493,-0.0477
-12.4,-1.1237,0.02115,0.01466,-0.0478
-12.3,-1.1127,0.02092,0.0144,-0.0478
-12.2,-1.1017,0.02069,0.01415,-0.0479
-12.1,-1.0906,0.02047,0.01389,-0.0479
-12,-1.0795,0.02024,0.01363,-0.048
-11.9,-1.0683,0.02003,0.01338,-0.048
-11.8,-1.0571,0.01982,0.01314,-0.0481
-11.7,-1.0459,0.01962,0.0129,-0.0481
-11.6,-1.0346,0.01942,0.01266,-0.0482
-11.5,-1.0233,0.01924,0.01244,-0.0482
-11.4,-1.0121,0.01899,0.01219,-0.0483
-11.3,-1.0009,0.01875,0.01194,-0.0484
-11.2,-0.9896,0.01853,0.01171,-0.0485
-11.1,-0.9783,0.01832,0.01149,-0.0486
-11,-0.9669,0.01813,0.01129,-0.0486
-10.9,-0.9555,0.01794,0.01109,-0.0487
-10.8,-0.944,0.01776,0.01089,-0.0488
-10.7,-0.9326,0.01758,0.0107,-0.0489
-10.6,-0.9211,0.01741,0.01051,-0.0489
-10.5,-0.9095,0.01724,0.01031,-0.049
-10.4,-0.898,0.01707,0.01012,-0.0491
-10.3,-0.8864,0.0169,0.00994,-0.0491
-10.2,-0.8748,0.01674,0.00975,-0.0492
-10.1,-0.8631,0.01665,0.00964,-0.0493
-10,-0.8515,0.01649,0.00946,-0.0493
-9.9,-0.8398,0.01636,0.00929,-0.0494
-9.8,-0.8283,0.01615,0.00909,-0.0495
-9.7,-0.8167,0.01595,0.00889,-0.0496
-9.6,-0.805,0.01578,0.00872,-0.0497
-9.5,-0.7934,0.01562,0.00855,-0.0498
-9.4,-0.7817,0.01546,0.00839,-0.0498
-9.3,-0.77,0.01531,0.00823,-0.0499
-9.2,-0.7582,0.01517,0.00808,-0.05
-9.1,-0.7465,0.01503,0.00792,-0.0501
-9,-0.7347,0.01489,0.00777,-0.0502
-8.9,-0.723,0.01475,0.00763,-0.0502
-8.8,-0.7112,0.01462,0.00748,-0.0503
-8.7,-0.6994,0.01449,0.00733,-0.0504
-8.6,-0.6876,0.01442,0.00724,-0.0504
-8.5,-0.6759,0.01424,0.00707,-0.0505
-8.4,-0.6641,0.01409,0.00692,-0.0506
-8.3,-0.6523,0.01394,0.00678,-0.0507
-8.2,-0.6405,0.01381,0.00665,-0.0508
-8.1,-0.6287,0.01368,0.00652,-0.0509
-8,-0.6169,0.01356,0.00639,-0.051
-7.9,-0.6051,0.01344,0.00627,-0.051
-7.8,-0.5933,0.01333,0.00615,-0.0511
-7.7,-0.5803,0.01322,0.00602,-0.0514
-7.6,-0.5672,0.01311,0.00591,-0.0518
-7.5,-0.5542,0.01301,0.00579,-0.0521
-7.4,-0.5403,0.01288,0.00566,-0.0526
-7.3,-0.5275,0.01275,0.00554,-0.0529
-7.2,-0.5146,0.01264,0.00546,-0.0532
-7.1,-0.5015,0.01253,0.00535,-0.0536
-7,-0.488,0.01244,0.00525,-0.054
-6.9,-0.4751,0.01234,0.00515,-0.0542
-6.8,-0.4622,0.01226,0.00505,-0.0545
-6.7,-0.4493,0.01218,0.00496,-0.0547
-6.6,-0.4368,0.01207,0.00485,-0.0549
-6.5,-0.4241,0.01197,0.00477,-0.0552
-6.4,-0.4117,0.01189,0.00468,-0.0553
-6.3,-0.3995,0.0118,0.00459,-0.0554
-6.2,-0.3873,0.01172,0.00451,-0.0555
-6.1,-0.3753,0.01166,0.00444,-0.0556
-6,-0.3636,0.01161,0.00437,-0.0556
-5.9,-0.3517,0.01152,0.00429,-0.0556
-5.8,-0.34,0.01144,0.00422,-0.0556
-5.7,-0.3282,0.01137,0.00414,-0.0556
-5.6,-0.3164,0.0113,0.00407,-0.0557
-5.5,-0.3046,0.01125,0.004,-0.0557
-5.4,-0.2929,0.01119,0.00394,-0.0556
-5.3,-0.2815,0.01113,0.00386,-0.0556
-5.2,-0.2698,0.01106,0.00379,-0.0556
-5.1,-0.2581,0.011,0.00374,-0.0556
-5,-0.2462,0.01094,0.00367,-0.0556
-4.9,-0.2343,0.01089,0.00361,-0.0556
-4.8,-0.2225,0.01082,0.00354,-0.0557
-4.7,-0.2107,0.01076,0.00349,-0.0557
-4.6,-0.1991,0.01071,0.00343,-0.0557
-4.5,-0.1872,0.01067,0.00338,-0.0557
-4.4,-0.1755,0.0106,0.00332,-0.0557
-4.3,-0.1635,0.01053,0.00326,-0.0558
-4.2,-0.1515,0.01048,0.00321,-0.0559
-4.1,-0.1396,0.01044,0.00315,-0.0559
-4,-0.128,0.0104,0.00311,-0.0559
-3.9,-0.1159,0.01034,0.00306,-0.056
-3.8,-0.104,0.0103,0.00302,-0.0561
-3.7,-0.0921,0.01025,0.00296,-0.0561
-3.6,-0.0803,0.0102,0.00293,-0.0561
-3.5,-0.0688,0.01019,0.00288,-0.0561
-3.4,-0.0567,0.01013,0.00284,-0.0562
-3.3,-0.0449,0.0101,0.0028,-0.0562
-3.2,-0.0335,0.01011,0.00276,-0.0561
-3.1,-0.0215,0.01006,0.00273,-0.0562
-3,-0.0095,0.01001,0.00269,-0.0563
-2.9,0.0025,0.00996,0.00266,-0.0564
-2.8,0.0142,0.00996,0.00263,-0.0564
-2.7,0.0262,0.00992,0.00259,-0.0565
-2.6,0.0382,0.00989,0.00256,-0.0566
-2.5,0.0502,0.00983,0.00253,-0.0567
-2.4,0.0621,0.00983,0.00251,-0.0568
-2.3,0.0739,0.00982,0.00248,-0.0568
-2.2,0.0856,0.00983,0.00247,-0.0569
-2.1,0.0976,0.00981,0.00244,-0.057
-2,0.1095,0.00978,0.00243,-0.0571
-1.9,0.1216,0.00974,0.0024,-0.0572
-1.8,0.1335,0.00974,0.00238,-0.0573
-1.7,0.1454,0.00974,0.00236,-0.0573
-1.6,0.157,0.00978,0.00235,-0.0574
-1.5,0.1689,0.00975,0.00234,-0.0575
-1.4,0.1808,0.00977,0.00233,-0.0575
-1.3,0.1927,0.00976,0.00231,-0.0577
-1.2,0.2046,0.00979,0.00231,-0.0577
-1.1,0.2165,0.00975,0.0023,-0.0579
-1,0.2285,0.00973,0.00229,-0.058
-0.9,0.2405,0.00974,0.00228,-0.0581
-0.8,0.2522,0.00977,0.00229,-0.0582
-0.7,0.2642,0.00976,0.00229,-0.0583
-0.6,0.2761,0.00972,0.00228,-0.0585
-0.5,0.2881,0.00972,0.00228,-0.0586
-0.4,0.3001,0.00971,0.00229,-0.0587
-0.3,0.312,0.00966,0.00228,-0.0589
-0.2,0.324,0.00966,0.00229,-0.059
-0.1,0.3359,0.00965,0.00229,-0.0591
0,0.3476,0.00968,0.00231,-0.0592
0.1,0.3594,0.00963,0.00231,-0.0594
0.2,0.3713,0.00962,0.00231,-0.0595
0.3,0.3832,0.00962,0.00232,-0.0596
0.4,0.3951,0.0096,0.00234,-0.0597
0.5,0.4068,0.00952,0.00234,-0.0599
0.6,0.4185,0.0095,0.00236,-0.06
0.7,0.4302,0.00947,0.00238,-0.0601
0.9,0.4524,0.00936,0.00243,-0.06
1,0.4636,0.00934,0.00245,-0.06
1.1,0.4746,0.00932,0.00248,-0.0599
1.2,0.484,0.00922,0.0025,-0.0593
1.3,0.4942,0.00922,0.00253,-0.059
1.4,0.504,0.00923,0.00255,-0.0586
1.5,0.5135,0.00923,0.00257,-0.058
1.6,0.521,0.00916,0.00254,-0.057
1.7,0.5322,0.0092,0.00253,-0.0569
1.8,0.5445,0.00926,0.00254,-0.057
1.9,0.5571,0.00938,0.00253,-0.0574
2,0.5688,0.0095,0.00259,-0.0575
2.1,0.5805,0.00962,0.00265,-0.0576
2.2,0.5922,0.00975,0.00271,-0.0577
2.3,0.6039,0.00987,0.00276,-0.0578
2.4,0.6156,0.00998,0.00282,-0.0579
2.5,0.6273,0.0101,0.00288,-0.058
2.6,0.6391,0.01021,0.00294,-0.0581
2.7,0.6509,0.0103,0.003,-0.0582
2.8,0.6624,0.01045,0.00307,-0.0583
2.9,0.6743,0.01053,0.00313,-0.0584
3,0.6861,0.01062,0.00318,-0.0585
3.1,0.6978,0.01072,0.00324,-0.0587
3.2,0.7096,0.01082,0.00331,-0.0588
3.3,0.7215,0.01089,0.00336,-0.0589
3.4,0.7333,0.01097,0.00342,-0.059
3.5,0.7451,0.01106,0.00348,-0.0591
3.6,0.7569,0.01115,0.00354,-0.0592
3.7,0.7686,0.01125,0.00361,-0.0593
3.8,0.7804,0.01133,0.00367,-0.0594
3.9,0.7922,0.01141,0.00373,-0.0595
4,0.804,0.01149,0.00379,-0.0596
4.1,0.8157,0.01159,0.00386,-0.0597
4.2,0.8274,0.01169,0.00394,-0.0598
4.3,0.8392,0.01176,0.00399,-0.0599
4.4,0.851,0.01183,0.00406,-0.06
4.5,0.8628,0.01191,0.00412,-0.0601
4.6,0.8745,0.01199,0.00418,-0.0602
4.7,0.8862,0.01208,0.00425,-0.0603
4.8,0.8979,0.01217,0.00432,-0.0604
4.9,0.9095,0.01228,0.0044,-0.0605
5,0.9212,0.01235,0.00447,-0.0606
5.1,0.933,0.01243,0.00453,-0.0607
5.2,0.9446,0.01251,0.0046,-0.0608
5.3,0.9563,0.01259,0.00467,-0.0609
5.4,0.9679,0.01269,0.00475,-0.061
5.5,0.9795,0.01279,0.00482,-0.0611
5.6,0.991,0.01289,0.00491,-0.0612
5.7,1.0027,0.01296,0.00499,-0.0613
5.8,1.0144,0.01304,0.00506,-0.0614
5.9,1.026,0.01313,0.00513,-0.0615
6,1.0376,0.01322,0.00521,-0.0616
6.1,1.0491,0.01331,0.00529,-0.0617
6.2,1.0606,0.01341,0.00537,-0.0617
6.3,1.0721,0.01352,0.00545,-0.0618
6.4,1.0836,0.01361,0.00554,-0.0619
6.5,1.0952,0.01369,0.00563,-0.062
6.6,1.1067,0.01377,0.00571,-0.0621
6.7,1.1183,0.01386,0.00579,-0.0622
6.8,1.1298,0.01395,0.00587,-0.0623
6.9,1.1412,0.01405,0.00596,-0.0623
7,1.1527,0.01415,0.00605,-0.0624
7.1,1.1639,0.01428,0.00614,-0.0625
7.2,1.1752,0.01439,0.00624,-0.0626
7.3,1.1867,0.01447,0.00633,-0.0626
7.4,1.1982,0.01455,0.00642,-0.0627
7.5,1.2096,0.01464,0.00651,-0.0628
7.6,1.221,0.01474,0.00661,-0.0629
7.7,1.2323,0.01484,0.0067,-0.0629
7.8,1.2436,0.01494,0.0068,-0.063
7.9,1.2549,0.01505,0.0069,-0.0631
8,1.2661,0.01517,0.007,-0.0631
8.1,1.2773,0.0153,0.00711,-0.0632
8.2,1.2885,0.0154,0.00722,-0.0632
8.3,1.2999,0.01548,0.00731,-0.0633
8.4,1.3111,0.01558,0.00741,-0.0634
8.5,1.3224,0.01569,0.00751,-0.0634
8.6,1.3336,0.01579,0.00762,-0.0635
8.7,1.3447,0.0159,0.00773,-0.0635
8.8,1.3558,0.01602,0.00784,-0.0636
8.9,1.3669,0.01614,0.00795,-0.0636
9,1.3778,0.01627,0.00807,-0.0637
9.1,1.3887,0.01641,0.0082,-0.0637
9.2,1.4,0.01651,0.00831,-0.0638
9.3,1.4111,0.01661,0.00842,-0.0638
9.4,1.4222,0.01671,0.00853,-0.0639
9.5,1.4332,0.01682,0.00864,-0.0639
9.6,1.4442,0.01694,0.00876,-0.0639
9.7,1.4551,0.01706,0.00888,-0.064
9.8,1.466,0.01719,0.009,-0.064
9.9,1.4768,0.01732,0.00913,-0.064
10,1.4875,0.01746,0.00926,-0.0641
10.1,1.4982,0.01761,0.0094,-0.0641
10.2,1.5092,0.01772,0.00953,-0.0641
10.3,1.5201,0.01783,0.00965,-0.0641
10.4,1.531,0.01794,0.00978,-0.0642
10.5,1.5418,0.01806,0.00991,-0.0642
10.6,1.5526,0.01819,0.01004,-0.0642
10.7,1.5633,0.01831,0.01018,-0.0642
10.8,1.5738,0.01845,0.0103,-0.0642
10.9,1.5844,0.01859,0.01045,-0.0642
11,1.5948,0.01874,0.01059,-0.0642
11.1,1.6052,0.0189,0.01074,-0.0642
11.2,1.6156,0.01906,0.0109,-0.0642
11.3,1.6263,0.01917,0.01104,-0.0642
11.4,1.6369,0.01929,0.01118,-0.0642
11.5,1.6475,0.01942,0.01132,-0.0642
11.6,1.658,0.01955,0.01147,-0.0641
11.7,1.6684,0.01969,0.01162,-0.0641
11.8,1.6788,0.01983,0.01177,-0.0641
11.9,1.6891,0.01998,0.01192,-0.0641
12,1.6993,0.02013,0.01208,-0.064
12.1,1.7092,0.0203,0.01224,-0.064
12.2,1.7192,0.02047,0.0124,-0.0639
12.3,1.7291,0.02065,0.01258,-0.0639
12.4,1.7392,0.0208,0.01275,-0.0638
12.5,1.7495,0.02093,0.0129,-0.0638
12.6,1.7597,0.02107,0.01307,-0.0638
12.7,1.7698,0.02121,0.01323,-0.0637
12.8,1.7798,0.02136,0.0134,-0.0636
12.9,1.7898,0.02152,0.01357,-0.0636
13,1.7997,0.02168,0.01374,-0.0635
13.1,1.8094,0.02184,0.01392,-0.0634
13.2,1.8191,0.02201,0.0141,-0.0633
13.3,1.8287,0.02218,0.01428,-0.0632
13.4,1.8382,0.02236,0.01447,-0.0631
13.5,1.8472,0.02258,0.01466,-0.063
13.6,1.8564,0.02278,0.01487,-0.0629
13.7,1.8662,0.02292,0.01504,-0.0628
13.8,1.8758,0.02307,0.01522,-0.0627
13.9,1.8853,0.02323,0.01541,-0.0625
14,1.8948,0.0234,0.0156,-0.0624
14.1,1.9041,0.02357,0.01579,-0.0623
14.2,1.9133,0.02374,0.01599,-0.0621
14.3,1.9224,0.02392,0.01619,-0.062
14.4,1.9314,0.02411,0.0164,-0.0618
14.5,1.9403,0.0243,0.0166,-0.0617
14.6,1.9491,0.0245,0.01681,-0.0615
14.7,1.9577,0.0247,0.01703,-0.0613
14.8,1.9661,0.02491,0.01725,-0.0611
14.9,1.9743,0.02514,0.01747,-0.0608
15,1.9822,0.02537,0.01771,-0.0606
15.1,1.991,0.02554,0.01791,-0.0604
15.2,1.9996,0.02572,0.01813,-0.0602
15.3,2.0081,0.0259,0.01834,-0.06
15.4,2.0164,0.0261,0.01857,-0.0597
15.5,2.0245,0.02629,0.01879,-0.0595
15.6,2.0325,0.0265,0.01902,-0.0592
15.7,2.0403,0.0267,0.01925,-0.0589
15.8,2.0479,0.02692,0.0195,-0.0586
15.9,2.0552,0.02713,0.01974,-0.0582
16,2.0624,0.02736,0.01998,-0.0579
16.1,2.0693,0.02759,0.02023,-0.0575
16.2,2.0759,0.02783,0.02049,-0.0571
16.3,2.0823,0.02807,0.02075,-0.0566
16.4,2.0883,0.02833,0.02102,-0.0562
16.5,2.094,0.0286,0.0213,-0.0557
16.6,2.0993,0.02889,0.0216,-0.0551
16.7,2.1058,0.02909,0.02185,-0.0547
16.8,2.1117,0.0293,0.02211,-0.0542
16.9,2.117,0.02949,0.02234,-0.0536
17,2.1216,0.02973,0.02262,-0.0529
17.1,2.1262,0.02998,0.0229,-0.0522
17.2,2.1307,0.03024,0.0232,-0.0516
17.3,2.1354,0.03051,0.0235,-0.0511
17.4,2.1401,0.03078,0.02381,-0.0506
17.5,2.145,0.03107,0.02414,-0.0502
17.6,2.1498,0.03136,0.02447,-0.0498
17.7,2.1547,0.03166,0.0248,-0.0495
17.8,2.1595,0.03197,0.02514,-0.0492
17.9,2.1644,0.03229,0.02548,-0.049
18,2.1693,0.03262,0.02584,-0.0488
18.1,2.1741,0.03297,0.02621,-0.0487
18.2,2.179,0.03332,0.02659,-0.0487
18.3,2.1838,0.0337,0.02699,-0.0487
18.4,2.1885,0.03409,0.0274,-0.0488
18.5,2.1945,0.0344,0.02777,-0.0489
18.6,2.2007,0.03469,0.02811,-0.049
18.7,2.2069,0.035,0.02847,-0.0492
18.8,2.2134,0.03529,0.02881,-0.0494
18.9,2.2193,0.03562,0.02919,-0.0496
19,2.2253,0.03597,0.02958,-0.0499
19.1,2.2313,0.03632,0.02997,-0.0503
19.2,2.2374,0.03668,0.03039,-0.0507
19.3,2.2434,0.03706,0.0308,-0.0512
19.4,2.2492,0.03745,0.03122,-0.0518
19.5,2.2551,0.03785,0.03165,-0.0525
19.6,2.2606,0.03832,0.03213,-0.0533
19.7,2.2664,0.03877,0.03261,-0.0541
19.8,2.2721,0.03924,0.03311,-0.055
19.9,2.2779,0.03974,0.03364,-0.0561
20,2.2843,0.04016,0.03411,-0.0569
20.1,2.2911,0.04054,0.03455,-0.0577
20.2,2.2979,0.04094,0.03501,-0.0586
20.3,2.3046,0.04136,0.03548,-0.0595
20.4,2.3112,0.0418,0.03597,-0.0606
20.5,2.3177,0.04225,0.03648,-0.0616
20.6,2.3243,0.04272,0.03701,-0.0628
20.7,2.3308,0.04322,0.03755,-0.064
20.8,2.3372,0.04373,0.03811,-0.0654
20.9,2.3436,0.04427,0.03871,-0.0668
21,2.3498,0.04486,0.03933,-0.0684
21.1,2.3559,0.04546,0.03999,-0.07
21.2,2.3619,0.0461,0.04067,-0.0717
21.3,2.3678,0.04678,0.0414,-0.0736
21.4,2.3734,0.04752,0.04218,-0.0756
21.5,2.3788,0.0483,0.04301,-0.0777
21.6,2.3839,0.04916,0.04391,-0.0799
21.7,2.3887,0.05008,0.04489,-0.0824
21.8,2.3941,0.05087,0.04575,-0.0844
21.9,2.4002,0.0515,0.04646,-0.086
22,2.4052,0.05233,0.04736,-0.088
22.1,2.41,0.05324,0.04834,-0.0903
22.2,2.4143,0.05421,0.04938,-0.0926
22.3,2.4183,0.05524,0.05049,-0.0951
22.4,2.4219,0.05635,0.05167,-0.0976
22.5,2.4251,0.05755,0.05294,-0.1004
22.6,2.4271,0.059,0.05446,-0.1036
22.8,2.4288,0.06236,0.05798,-0.1109
22.9,2.4287,0.06417,0.05987,-0.1146
23,2.4277,0.06615,0.06194,-0.1186
23.1,2.4257,0.06832,0.06419,-0.1229
23.2,2.4227,0.07066,0.06663,-0.1275
23.3,2.419,0.07312,0.06918,-0.1322
23.4,2.4178,0.07501,0.07117,-0.1357
23.5,2.4161,0.07695,0.07321,-0.1393
23.6,2.4141,0.07889,0.07526,-0.143
23.7,2.4115,0.08094,0.0774,-0.1468
23.8,2.4082,0.08308,0.07964,-0.1509
23.9,2.4055,0.08502,0.08166,-0.1547
24,2.4017,0.08718,0.08392,-0.1589
24.1,2.3985,0.08916,0.08598,-0.1629
24.2,2.3946,0.09127,0.08817,-0.1672
24.3,2.3911,0.09325,0.09022,-0.1712
24.4,2.387,0.09539,0.09244,-0.1756
24.5,2.3841,0.09727,0.09438,-0.1794
24.6,2.3795,0.09957,0.09675,-0.184
24.7,2.3743,0.10201,0.09922,-0.1888
24.8,2.3697,0.1044,0.10167,-0.1933
24.9,2.3671,0.10635,0.10366,-0.1971
25,2.3652,0.10818,0.10551,-0.2006
25.1,2.3618,0.1105,0.10792,-0.2046
25.2,2.3602,0.11243,0.10993,-0.2078
25.3,2.3588,0.1143,0.11187,-0.211
25.4,2.3555,0.11671,0.11436,-0.2148
25.5,2.353,0.11891,0.11662,-0.2184
25.6,2.3514,0.1209,0.11866,-0.2215
25.7,2.3495,0.12302,0.12083,-0.2249
25.8,2.3458,0.12561,0.12349,-0.2288
25.9,2.3439,0.12774,0.12566,-0.2321
26,2.3427,0.12969,0.12765,-0.2351
26.1,2.3409,0.13186,0.12984,-0.2383
26.2,2.3384,0.13419,0.1322,-0.2418
26.3,2.3379,0.13599,0.13401,-0.2446
26.4,2.3381,0.13756,0.13558,-0.247
26.5,2.3377,0.1393,0.13734,-0.2496
26.6,2.331,0.14296,0.14112,-0.2546
26.7,2.3263,0.14603,0.14428,-0.2588
26.8,2.3227,0.14879,0.14711,-0.2625
26.9,2.3156,0.15266,0.15107,-0.2677
27,2.3132,0.15511,0.15357,-0.271
27.1,2.3116,0.15734,0.15582,-0.2741
27.2,2.3105,0.15944,0.15794,-0.277
27.3,2.3114,0.16094,0.1594,-0.2792
27.4,2.3126,0.16229,0.16074,-0.2812
27.5,2.3107,0.16466,0.16314,-0.2845
27.6,2.2853,0.17533,0.17407,-0.2973
27.7,2.2777,0.18012,0.17893,-0.3031
27.8,2.2789,0.18155,0.18036,-0.3052
27.9,2.2811,0.18258,0.18138,-0.3067
28,2.2837,0.18344,0.18224,-0.3081
28.1,2.2865,0.18421,0.18299,-0.3094
28.2,2.2897,0.18485,0.18362,-0.3106
28.3,2.293,0.18543,0.18417,-0.3117
28.6,2.269,0.2017,0.20066,-0.3308
28.7,2.2721,0.20228,0.20124,-0.3319
28.8,2.2754,0.20275,0.2017,-0.3329
28.9,2.2787,0.20317,0.2021,-0.3338
29,2.2821,0.20356,0.20248,-0.3347

