airfoilName st6.dat
Re 	710000
M 	5.000000e-02
N 	4.500000e+00
VACC 	0 VACCflag 1
XTR 	1.00 	1.00 XTRflag 0
alpha,cl,cd,cdp,cm
-18.9,-1.7498,0.10397,0.10198,0.1072
-18.8,-1.7436,0.1028,0.10081,0.1049
-18.1,-1.6826,0.03768,0.03368,-0.0332
-18,-1.6682,0.03645,0.03233,-0.0376
-17.9,-1.6587,0.03554,0.03134,-0.0401
-17.8,-1.652,0.03478,0.03051,-0.0416
-17.7,-1.6464,0.03414,0.0298,-0.0424
-17.6,-1.6396,0.03354,0.02914,-0.0431
-17.5,-1.6327,0.03298,0.02853,-0.0437
-17.4,-1.6256,0.03245,0.02794,-0.0441
-17.3,-1.6183,0.03195,0.02739,-0.0445
-17.2,-1.6107,0.03146,0.02685,-0.0448
-17.1,-1.603,0.031,0.02634,-0.0451
-17,-1.5951,0.03055,0.02584,-0.0453
-16.9,-1.5871,0.03012,0.02537,-0.0455
-16.8,-1.579,0.0297,0.0249,-0.0457
-16.7,-1.5706,0.02929,0.02445,-0.0458
-16.6,-1.5622,0.0289,0.02401,-0.0459
-16.5,-1.5536,0.02852,0.02358,-0.046
-16.4,-1.5449,0.02815,0.02316,-0.0461
-16.3,-1.536,0.02778,0.02276,-0.0462
-16.2,-1.527,0.02743,0.02236,-0.0462
-16.1,-1.5179,0.02709,0.02198,-0.0463
-16,-1.5087,0.02675,0.0216,-0.0463
-15.9,-1.4994,0.02643,0.02124,-0.0464
-15.8,-1.49,0.02611,0.02088,-0.0464
-15.7,-1.4804,0.0258,0.02053,-0.0464
-15.6,-1.4708,0.02551,0.02019,-0.0465
-15.5,-1.4611,0.02521,0.01986,-0.0465
-15.4,-1.4512,0.02494,0.01955,-0.0465
-15.3,-1.4413,0.02467,0.01924,-0.0465
-15.2,-1.4312,0.02441,0.01894,-0.0465
-15.1,-1.4211,0.02417,0.01866,-0.0466
-15,-1.4113,0.02384,0.01831,-0.0466
-14.9,-1.4015,0.02348,0.01792,-0.0467
-14.8,-1.3916,0.02316,0.01757,-0.0467
-14.7,-1.3815,0.02286,0.01724,-0.0467
-14.6,-1.3713,0.02257,0.01692,-0.0468
-14.5,-1.361,0.02229,0.01662,-0.0468
-14.4,-1.3506,0.02203,0.01634,-0.0468
-14.3,-1.3401,0.02178,0.01606,-0.0469
-14.2,-1.3295,0.02153,0.01579,-0.0469
-14.1,-1.3189,0.02129,0.01553,-0.0469
-14,-1.3083,0.02106,0.01528,-0.047
-13.9,-1.2975,0.02083,0.01502,-0.047
-13.8,-1.2867,0.02061,0.01478,-0.047
-13.7,-1.2759,0.02039,0.01454,-0.0471
-13.6,-1.265,0.02018,0.01431,-0.0471
-13.5,-1.2541,0.01997,0.01408,-0.0471
-13.4,-1.2432,0.01977,0.01385,-0.0472
-13.3,-1.2322,0.01956,0.01363,-0.0472
-13.2,-1.2211,0.01936,0.0134,-0.0473
-13.1,-1.21,0.01917,0.01319,-0.0473
-13,-1.1989,0.01898,0.01297,-0.0473
-12.9,-1.1878,0.01879,0.01276,-0.0474
-12.8,-1.1766,0.0186,0.01255,-0.0474
-12.7,-1.1654,0.01842,0.01234,-0.0475
-12.6,-1.1541,0.01824,0.01214,-0.0475
-12.5,-1.1428,0.01807,0.01194,-0.0476
-12.4,-1.1315,0.0179,0.01175,-0.0476
-12.3,-1.1201,0.01774,0.01157,-0.0477
-12.2,-1.1087,0.01759,0.01139,-0.0477
-12.1,-1.0975,0.01737,0.01118,-0.0478
-12,-1.0862,0.01718,0.01098,-0.0479
-11.9,-1.0748,0.01699,0.01078,-0.0479
-11.8,-1.0634,0.01682,0.0106,-0.048
-11.7,-1.0519,0.01665,0.01042,-0.0481
-11.6,-1.0404,0.01648,0.01023,-0.0481
-11.5,-1.0289,0.01632,0.01006,-0.0482
-11.4,-1.0174,0.01616,0.00989,-0.0483
-11.3,-1.0058,0.01601,0.00973,-0.0483
-11.2,-0.9942,0.01586,0.00957,-0.0484
-11.1,-0.9826,0.01571,0.00941,-0.0485
-11,-0.971,0.01556,0.00925,-0.0485
-10.9,-0.9593,0.01542,0.00909,-0.0486
-10.8,-0.9477,0.01528,0.00894,-0.0487
-10.7,-0.936,0.01514,0.00878,-0.0488
-10.6,-0.9243,0.01501,0.00864,-0.0488
-10.5,-0.9125,0.01489,0.00849,-0.0489
-10.4,-0.9008,0.01476,0.00835,-0.049
-10.3,-0.889,0.01464,0.00821,-0.049
-10.2,-0.8773,0.01447,0.00804,-0.0491
-10.1,-0.8656,0.01431,0.00788,-0.0492
-10,-0.8539,0.01417,0.00774,-0.0493
-9.9,-0.8421,0.01403,0.0076,-0.0494
-9.8,-0.8303,0.0139,0.00746,-0.0495
-9.7,-0.8185,0.01377,0.00733,-0.0496
-9.6,-0.8067,0.01365,0.00721,-0.0496
-9.5,-0.7948,0.01353,0.00708,-0.0497
-9.4,-0.783,0.01341,0.00695,-0.0498
-9.3,-0.7711,0.01329,0.00683,-0.0499
-9.2,-0.7593,0.01318,0.00671,-0.05
-9.1,-0.7472,0.01307,0.00659,-0.0501
-9,-0.7344,0.01297,0.00648,-0.0504
-8.9,-0.7215,0.01287,0.00637,-0.0507
-8.8,-0.7088,0.01275,0.00626,-0.051
-8.7,-0.6953,0.01263,0.00614,-0.0514
-8.6,-0.6825,0.01252,0.00603,-0.0517
-8.5,-0.6697,0.01241,0.00593,-0.0519
-8.4,-0.6571,0.01231,0.00582,-0.0522
-8.3,-0.6446,0.01221,0.00572,-0.0524
-8.2,-0.6319,0.01213,0.00563,-0.0526
-8.1,-0.6197,0.01205,0.00554,-0.0527
-8,-0.6077,0.01197,0.00545,-0.0528
-7.9,-0.5958,0.0119,0.00536,-0.0528
-7.8,-0.5839,0.01184,0.00529,-0.0529
-7.7,-0.5726,0.01176,0.0052,-0.0527
-7.6,-0.561,0.01167,0.0051,-0.0527
-7.5,-0.5493,0.01158,0.00502,-0.0527
-7.4,-0.5377,0.0115,0.00493,-0.0527
-7.3,-0.5261,0.01144,0.00485,-0.0527
-7.2,-0.5148,0.01138,0.00477,-0.0526
-7.1,-0.5031,0.01131,0.00469,-0.0526
-7,-0.4915,0.01125,0.00461,-0.0526
-6.9,-0.4796,0.01119,0.00454,-0.0526
-6.8,-0.4678,0.01113,0.00446,-0.0526
-6.7,-0.4564,0.01108,0.00438,-0.0525
-6.6,-0.4445,0.01099,0.0043,-0.0526
-6.5,-0.4326,0.01092,0.00422,-0.0526
-6.4,-0.4207,0.01086,0.00415,-0.0527
-6.3,-0.409,0.0108,0.00408,-0.0527
-6.2,-0.397,0.01074,0.00402,-0.0528
-6.1,-0.3852,0.0107,0.00395,-0.0528
-6,-0.3733,0.01064,0.00388,-0.0528
-5.9,-0.3614,0.01057,0.00381,-0.0529
-5.8,-0.3493,0.0105,0.00374,-0.053
-5.7,-0.3373,0.01044,0.00368,-0.0531
-5.6,-0.3253,0.01038,0.00362,-0.0531
-5.5,-0.3133,0.01034,0.00356,-0.0532
-5.4,-0.3014,0.0103,0.00351,-0.0532
-5.3,-0.2893,0.01023,0.00344,-0.0533
-5.2,-0.2773,0.01017,0.00338,-0.0534
-5.1,-0.2653,0.01012,0.00332,-0.0535
-5,-0.2532,0.01007,0.00327,-0.0536
-4.9,-0.2411,0.01002,0.00322,-0.0537
-4.8,-0.229,0.00998,0.00316,-0.0538
-4.7,-0.2171,0.00994,0.00311,-0.0538
-4.6,-0.205,0.00988,0.00306,-0.0539
-4.5,-0.1929,0.00982,0.00302,-0.054
-4.4,-0.1808,0.00978,0.00297,-0.0541
-4.3,-0.1687,0.00973,0.00291,-0.0542
-4.2,-0.1568,0.0097,0.00287,-0.0543
-4.1,-0.1449,0.00969,0.00283,-0.0543
-4,-0.1329,0.00966,0.00279,-0.0544
-3.9,-0.1208,0.00963,0.00275,-0.0545
-3.8,-0.1092,0.00963,0.00271,-0.0545
-3.7,-0.0971,0.00958,0.00268,-0.0546
-3.6,-0.0849,0.00955,0.00263,-0.0547
-3.5,-0.0728,0.0095,0.00259,-0.0548
-3.4,-0.0609,0.0095,0.00257,-0.0549
-3.3,-0.0488,0.00948,0.00253,-0.055
-3.2,-0.0367,0.00944,0.0025,-0.0551
-3.1,-0.0246,0.00941,0.00247,-0.0552
-3,-0.0126,0.0094,0.00244,-0.0553
-2.9,-0.0005,0.00936,0.00241,-0.0555
-2.8,0.0113,0.00938,0.00239,-0.0555
-2.7,0.0232,0.0094,0.00236,-0.0556
-2.6,0.0353,0.00937,0.00234,-0.0557
-2.5,0.0474,0.00934,0.00232,-0.0559
-2.4,0.0595,0.00932,0.0023,-0.056
-2.3,0.0716,0.00931,0.00228,-0.0561
-2.2,0.0835,0.00933,0.00226,-0.0562
-2.1,0.0955,0.00934,0.00226,-0.0563
-2,0.1075,0.00931,0.00224,-0.0565
-1.9,0.1196,0.0093,0.00223,-0.0566
-1.8,0.1318,0.00929,0.00221,-0.0567
-1.7,0.1437,0.0093,0.00221,-0.0568
-1.6,0.1559,0.0093,0.0022,-0.057
-1.5,0.1678,0.00929,0.0022,-0.0571
-1.4,0.1797,0.00933,0.0022,-0.0572
-1.3,0.1918,0.00932,0.00219,-0.0574
-1.2,0.2039,0.00933,0.00219,-0.0575
-1.1,0.216,0.0093,0.00218,-0.0576
-1,0.2281,0.0093,0.00217,-0.0578
-0.9,0.2401,0.0093,0.00217,-0.0579
-0.8,0.2522,0.00931,0.00218,-0.058
-0.7,0.2643,0.0093,0.00217,-0.0582
-0.6,0.2762,0.00932,0.00218,-0.0583
-0.5,0.2882,0.00933,0.00219,-0.0585
-0.4,0.3003,0.00934,0.00219,-0.0586
-0.3,0.3123,0.00934,0.0022,-0.0587
-0.2,0.3243,0.00933,0.00221,-0.0589
-0.1,0.3364,0.00933,0.00221,-0.0591
0,0.3484,0.00935,0.00222,-0.0592
0.1,0.3604,0.00935,0.00223,-0.0593
0.2,0.3722,0.00938,0.00225,-0.0595
0.3,0.3842,0.0094,0.00226,-0.0596
0.4,0.3961,0.00943,0.00228,-0.0598
0.5,0.4081,0.0094,0.00229,-0.06
0.6,0.42,0.00943,0.00232,-0.0601
0.7,0.4319,0.00946,0.00234,-0.0602
0.8,0.4439,0.00948,0.00236,-0.0604
0.9,0.4557,0.00948,0.00238,-0.0606
1,0.4676,0.00951,0.00241,-0.0607
1.1,0.4794,0.00955,0.00244,-0.0608
1.2,0.4912,0.00959,0.00247,-0.061
1.3,0.5026,0.00965,0.00252,-0.0612
1.4,0.5144,0.00969,0.00256,-0.0613
1.5,0.5261,0.00973,0.0026,-0.0614
1.6,0.5379,0.00976,0.00264,-0.0616
1.7,0.5494,0.00968,0.00268,-0.0617
1.8,0.5611,0.00969,0.00272,-0.0618
1.9,0.5727,0.00971,0.00276,-0.0618
2,0.5837,0.00964,0.0028,-0.0618
2.1,0.5952,0.00965,0.00284,-0.0618
2.2,0.6063,0.0097,0.00289,-0.0617
2.3,0.6174,0.00971,0.00294,-0.0616
2.4,0.6269,0.00963,0.00296,-0.0611
2.5,0.6373,0.00963,0.00299,-0.0608
2.6,0.6475,0.00964,0.00302,-0.0605
2.7,0.6576,0.00966,0.00304,-0.0601
2.8,0.6665,0.00961,0.00302,-0.0594
2.9,0.6786,0.00963,0.00303,-0.0595
3,0.6912,0.00966,0.00304,-0.0598
3.1,0.7035,0.00969,0.00306,-0.06
3.2,0.7153,0.00979,0.00311,-0.0601
3.3,0.7272,0.00987,0.00317,-0.0602
3.4,0.7392,0.00993,0.00321,-0.0603
3.5,0.7511,0.00999,0.00325,-0.0605
3.6,0.7631,0.01005,0.0033,-0.0606
3.7,0.775,0.01012,0.00335,-0.0607
3.8,0.7869,0.01019,0.00339,-0.0608
3.9,0.7987,0.01027,0.00345,-0.0609
4,0.8106,0.01034,0.0035,-0.0611
4.1,0.8225,0.0104,0.00355,-0.0612
4.2,0.8344,0.01046,0.0036,-0.0613
4.3,0.8462,0.01054,0.00365,-0.0614
4.4,0.8581,0.01061,0.0037,-0.0615
4.5,0.8699,0.01069,0.00376,-0.0616
4.6,0.8817,0.01077,0.00381,-0.0618
4.7,0.8935,0.01084,0.00388,-0.0619
4.8,0.9054,0.0109,0.00393,-0.062
4.9,0.9172,0.01096,0.00399,-0.0621
5,0.929,0.01103,0.00404,-0.0622
5.1,0.9408,0.0111,0.0041,-0.0623
5.2,0.9526,0.01117,0.00415,-0.0624
5.3,0.9642,0.01128,0.00422,-0.0625
5.4,0.9759,0.01136,0.00429,-0.0626
5.5,0.9877,0.01142,0.00434,-0.0628
5.6,0.9995,0.01149,0.0044,-0.0629
5.7,1.0113,0.01156,0.00447,-0.063
5.8,1.023,0.01163,0.00453,-0.0631
5.9,1.0347,0.0117,0.00459,-0.0632
6,1.0464,0.01178,0.00465,-0.0633
6.1,1.0581,0.01187,0.00472,-0.0634
6.2,1.0697,0.01196,0.00479,-0.0635
6.3,1.0813,0.01205,0.00487,-0.0636
6.4,1.093,0.01211,0.00494,-0.0637
6.5,1.1046,0.01219,0.005,-0.0638
6.6,1.1163,0.01226,0.00507,-0.0639
6.7,1.1279,0.01234,0.00514,-0.064
6.8,1.1395,0.01243,0.00521,-0.0641
6.9,1.151,0.01251,0.00528,-0.0642
7,1.1626,0.0126,0.00536,-0.0643
7.1,1.174,0.0127,0.00543,-0.0644
7.2,1.1856,0.01279,0.00552,-0.0644
7.3,1.1972,0.01286,0.0056,-0.0645
7.4,1.2087,0.01294,0.00567,-0.0646
7.5,1.2203,0.01302,0.00575,-0.0647
7.6,1.2318,0.0131,0.00582,-0.0648
7.7,1.2432,0.0132,0.0059,-0.0649
7.8,1.2546,0.01329,0.00598,-0.065
7.9,1.266,0.01339,0.00607,-0.0651
8,1.2774,0.01349,0.00616,-0.0651
8.1,1.2887,0.0136,0.00625,-0.0652
8.2,1.3002,0.01368,0.00633,-0.0653
8.3,1.3116,0.01376,0.00642,-0.0654
8.4,1.323,0.01384,0.0065,-0.0655
8.5,1.3344,0.01393,0.00659,-0.0655
8.6,1.3458,0.01402,0.00667,-0.0656
8.7,1.3571,0.01411,0.00676,-0.0657
8.8,1.3684,0.01421,0.00685,-0.0658
8.9,1.3795,0.01434,0.00695,-0.0658
9,1.3906,0.01445,0.00705,-0.0659
9.1,1.4018,0.01456,0.00716,-0.0659
9.2,1.4131,0.01464,0.00725,-0.066
9.3,1.4244,0.01473,0.00734,-0.0661
9.4,1.4356,0.01482,0.00744,-0.0661
9.5,1.4468,0.01492,0.00753,-0.0662
9.6,1.458,0.01502,0.00763,-0.0663
9.7,1.4692,0.01512,0.00773,-0.0663
9.8,1.4802,0.01523,0.00784,-0.0664
9.9,1.4913,0.01534,0.00794,-0.0664
10,1.5023,0.01545,0.00805,-0.0665
10.1,1.513,0.01561,0.00817,-0.0665
10.2,1.5241,0.01571,0.00828,-0.0665
10.3,1.5352,0.0158,0.00838,-0.0666
10.4,1.5463,0.0159,0.00849,-0.0666
10.5,1.5573,0.016,0.00859,-0.0667
10.6,1.5682,0.01611,0.0087,-0.0667
10.7,1.5792,0.01622,0.00881,-0.0668
10.8,1.59,0.01633,0.00893,-0.0668
10.9,1.6009,0.01645,0.00905,-0.0668
11,1.6117,0.01657,0.00917,-0.0668
11.1,1.6224,0.0167,0.00929,-0.0669
11.2,1.633,0.01684,0.00942,-0.0669
11.3,1.6437,0.01698,0.00955,-0.0669
11.4,1.6544,0.01709,0.00967,-0.0669
11.5,1.6652,0.0172,0.00978,-0.0669
11.6,1.676,0.01731,0.0099,-0.0669
11.7,1.6866,0.01742,0.01003,-0.0669
11.8,1.6973,0.01754,0.01015,-0.067
11.9,1.7079,0.01767,0.01029,-0.067
12,1.7184,0.0178,0.01042,-0.067
12.1,1.7289,0.01793,0.01055,-0.0669
12.2,1.7393,0.01807,0.01069,-0.0669
12.3,1.7497,0.01821,0.01083,-0.0669
12.4,1.7599,0.01836,0.01097,-0.0669
12.5,1.7701,0.01852,0.01112,-0.0669
12.6,1.7805,0.01865,0.01127,-0.0668
12.7,1.791,0.01876,0.0114,-0.0668
12.8,1.8014,0.01888,0.01153,-0.0668
12.9,1.8117,0.01901,0.01167,-0.0668
13,1.8219,0.01914,0.01182,-0.0667
13.1,1.8321,0.01928,0.01196,-0.0667
13.2,1.8422,0.01942,0.01211,-0.0667
13.3,1.8522,0.01957,0.01226,-0.0666
13.4,1.8622,0.01972,0.01241,-0.0665
13.5,1.8721,0.01988,0.01257,-0.0665
13.6,1.8819,0.02004,0.01274,-0.0664
13.7,1.8916,0.02022,0.0129,-0.0663
13.8,1.9012,0.02039,0.01308,-0.0662
13.9,1.9111,0.02053,0.01324,-0.0661
14,1.9211,0.02066,0.01339,-0.0661
14.1,1.9309,0.0208,0.01355,-0.066
14.2,1.9406,0.02094,0.0137,-0.0659
14.3,1.9503,0.02109,0.01387,-0.0658
14.4,1.9599,0.02125,0.01403,-0.0657
14.5,1.9693,0.0214,0.0142,-0.0656
14.6,1.9787,0.02157,0.01438,-0.0655
14.7,1.988,0.02174,0.01456,-0.0653
14.8,1.9972,0.02192,0.01474,-0.0652
14.9,2.0063,0.0221,0.01493,-0.065
15,2.0152,0.02229,0.01512,-0.0649
15.1,2.024,0.02248,0.01532,-0.0647
15.2,2.0327,0.02269,0.01553,-0.0645
15.3,2.0419,0.02284,0.01571,-0.0643
15.4,2.051,0.02299,0.01588,-0.0642
15.5,2.06,0.02315,0.01606,-0.064
15.6,2.0689,0.02331,0.01625,-0.0638
15.7,2.0776,0.02348,0.01644,-0.0636
15.8,2.0862,0.02365,0.01664,-0.0634
15.9,2.0947,0.02383,0.01683,-0.0632
16,2.1029,0.02403,0.01703,-0.0629
16.1,2.1111,0.02422,0.01724,-0.0627
16.2,2.1191,0.02442,0.01745,-0.0624
16.3,2.1269,0.02463,0.01767,-0.0621
16.4,2.1345,0.02484,0.01789,-0.0618
16.5,2.1419,0.02506,0.01812,-0.0614
16.6,2.149,0.02529,0.01836,-0.061
16.7,2.1559,0.02552,0.01861,-0.0606
16.8,2.1629,0.02573,0.01884,-0.0602
16.9,2.1704,0.02591,0.01905,-0.0599
17,2.1776,0.02609,0.01926,-0.0595
17.1,2.1846,0.02628,0.01949,-0.0591
17.2,2.1913,0.02648,0.01972,-0.0586
17.3,2.1978,0.02669,0.01995,-0.0582
17.4,2.2041,0.0269,0.02018,-0.0577
17.5,2.2101,0.02712,0.02042,-0.0572
17.6,2.2153,0.02735,0.02067,-0.0566
17.7,2.2193,0.02758,0.02093,-0.0558
17.8,2.2222,0.02787,0.02121,-0.0549
17.9,2.2247,0.02818,0.02153,-0.054
18,2.2283,0.02847,0.02184,-0.0532
18.1,2.2323,0.02877,0.02216,-0.0526
18.2,2.236,0.02908,0.02249,-0.052
18.3,2.2405,0.02937,0.02282,-0.0516
18.4,2.2458,0.02962,0.02311,-0.0512
18.5,2.2512,0.02988,0.0234,-0.0509
18.6,2.2565,0.03015,0.0237,-0.0506
18.7,2.2618,0.03043,0.02401,-0.0504
18.8,2.2671,0.03071,0.02433,-0.0502
18.9,2.2724,0.031,0.02467,-0.05
19,2.2778,0.03131,0.025,-0.0499
19.1,2.2832,0.03161,0.02534,-0.0499
19.2,2.2886,0.03193,0.02569,-0.0498
19.3,2.2941,0.03226,0.02605,-0.0499
19.4,2.2995,0.03259,0.02641,-0.05
19.5,2.3049,0.03294,0.02679,-0.0501
19.6,2.3103,0.03329,0.02717,-0.0503
19.7,2.3157,0.03366,0.02756,-0.0506
19.8,2.3212,0.03404,0.02797,-0.0509
19.9,2.3256,0.03452,0.02845,-0.0514
20,2.3309,0.03494,0.0289,-0.0518
20.1,2.3369,0.0353,0.0293,-0.0523
20.2,2.3431,0.03565,0.02969,-0.0527
20.3,2.3494,0.036,0.03008,-0.0533
20.4,2.3557,0.03637,0.03049,-0.0538
20.5,2.3619,0.03675,0.03091,-0.0545
20.6,2.3682,0.03714,0.03134,-0.0552
20.7,2.3744,0.03755,0.03178,-0.0559
20.8,2.3807,0.03796,0.03224,-0.0567
20.9,2.3869,0.03839,0.0327,-0.0576
21,2.3931,0.03884,0.03318,-0.0585
21.1,2.3993,0.0393,0.03368,-0.0595
21.2,2.4055,0.03978,0.0342,-0.0606
21.3,2.4116,0.04029,0.03474,-0.0618
21.4,2.4176,0.04082,0.03531,-0.0631
21.5,2.4236,0.04137,0.0359,-0.0644
21.6,2.4294,0.04196,0.03652,-0.0659
21.7,2.4352,0.04258,0.03717,-0.0674
21.8,2.441,0.0432,0.03784,-0.069
21.9,2.4472,0.04376,0.03844,-0.0705
22,2.4534,0.04434,0.03907,-0.0719
22.1,2.4594,0.04496,0.03974,-0.0735
22.2,2.4652,0.04562,0.04044,-0.0752
22.3,2.4709,0.04631,0.0412,-0.077
22.4,2.4763,0.04705,0.04199,-0.0789
22.5,2.4815,0.04784,0.04283,-0.0809
22.6,2.4864,0.0487,0.04374,-0.083
22.7,2.4909,0.04962,0.04472,-0.0853
22.8,2.4951,0.05062,0.04577,-0.0877
22.9,2.4987,0.05171,0.04692,-0.0903
23,2.5018,0.05291,0.04818,-0.093
23.1,2.5043,0.05424,0.04958,-0.096
23.2,2.5059,0.05573,0.05113,-0.0993
23.3,2.5066,0.05738,0.05287,-0.1028
23.4,2.5063,0.05925,0.05482,-0.1067
23.5,2.5068,0.0609,0.05656,-0.11
23.6,2.5064,0.06272,0.05847,-0.1135
23.7,2.5049,0.06476,0.0606,-0.1174
23.8,2.5021,0.06701,0.06296,-0.1216
23.9,2.4978,0.06958,0.06565,-0.1263
24,2.4901,0.07285,0.06904,-0.132
24.1,2.4825,0.07605,0.07236,-0.1375
24.2,2.4732,0.07953,0.07598,-0.1435
24.3,2.464,0.0829,0.07947,-0.1493
24.4,2.4548,0.08617,0.08286,-0.1552
24.5,2.4457,0.08932,0.08612,-0.161
24.6,2.4385,0.09201,0.0889,-0.1663
24.7,2.4288,0.09519,0.09218,-0.1725
24.8,2.4199,0.09819,0.09528,-0.1785
24.9,2.4136,0.10068,0.09784,-0.1836
25,2.4046,0.10383,0.10107,-0.1897
25.1,2.3995,0.10621,0.10351,-0.1944
25.2,2.3946,0.10868,0.10607,-0.1989
25.3,2.3925,0.11058,0.10802,-0.2023
25.4,2.3914,0.11224,0.10973,-0.2053
25.5,2.3901,0.11399,0.11153,-0.2084
25.6,2.3855,0.1166,0.11422,-0.2127
25.7,2.384,0.11846,0.11612,-0.2158
25.8,2.383,0.12022,0.11792,-0.2187
25.9,2.381,0.12224,0.11998,-0.222
26,2.3766,0.12494,0.12274,-0.2261
26.1,2.3751,0.12687,0.1247,-0.2291
26.2,2.3737,0.12877,0.12664,-0.2321
26.3,2.3713,0.13099,0.12889,-0.2355
26.4,2.3662,0.13392,0.13187,-0.2398
26.5,2.3642,0.13604,0.13401,-0.243
26.6,2.3625,0.13813,0.13613,-0.2461
26.7,2.3625,0.13973,0.13778,-0.2485
26.8,2.3594,0.14219,0.1403,-0.252
26.9,2.3582,0.14414,0.14228,-0.2548
27,2.3578,0.14586,0.14404,-0.2574
27.1,2.3573,0.1476,0.14581,-0.2599
27.2,2.3566,0.1494,0.14764,-0.2626
27.3,2.3538,0.15184,0.15012,-0.266
27.4,2.3507,0.15438,0.15269,-0.2695
27.5,2.3493,0.1564,0.15473,-0.2724
27.6,2.3481,0.15838,0.15672,-0.2752
27.7,2.3466,0.16046,0.15881,-0.2782
27.8,2.3434,0.16306,0.16146,-0.2818
27.9,2.3416,0.16526,0.1637,-0.2848
28,2.3411,0.16706,0.16554,-0.2873
28.1,2.3407,0.16882,0.16732,-0.2898
28.2,2.3401,0.17065,0.16917,-0.2924
28.3,2.3392,0.17262,0.17116,-0.2951
28.4,2.3351,0.17565,0.17423,-0.2991
28.5,2.3331,0.17801,0.17661,-0.3023
28.6,2.3318,0.18011,0.17871,-0.3052
28.7,2.3308,0.18217,0.18079,-0.3081
28.8,2.3305,0.18397,0.18261,-0.3105
28.9,2.3291,0.18617,0.18485,-0.3135
29,2.3259,0.18904,0.18775,-0.3172
29.1,2.325,0.19108,0.18981,-0.32
29.2,2.3244,0.19305,0.1918,-0.3227
29.3,2.3236,0.19508,0.19383,-0.3255
29.4,2.3225,0.19726,0.196,-0.3284
29.5,2.3195,0.20021,0.199,-0.3322
29.6,2.3183,0.20248,0.2013,-0.3352
29.7,2.318,0.20439,0.20322,-0.3378
29.8,2.3177,0.2063,0.20515,-0.3404
29.9,2.3173,0.20825,0.2071,-0.343
30,2.3166,0.21036,0.20921,-0.3458

