airfoilName st6.dat
Re 	690000
M 	5.000000e-02
N 	4.500000e+00
VACC 	0 VACCflag 1
XTR 	1.00 	1.00 XTRflag 0
alpha,cl,cd,cdp,cm
-18.9,-1.7472,0.10584,0.10387,0.1097
-18.8,-1.741,0.10471,0.10273,0.1075
-18.7,-1.7348,0.10358,0.10161,0.1054
-18,-1.6709,0.03748,0.03344,-0.0342
-17.9,-1.6577,0.03635,0.03221,-0.038
-17.8,-1.6488,0.03548,0.03124,-0.0403
-17.7,-1.6424,0.03475,0.03045,-0.0416
-17.6,-1.6365,0.03412,0.02975,-0.0424
-17.5,-1.6296,0.03352,0.02909,-0.0431
-17.4,-1.6225,0.03296,0.02848,-0.0437
-17.3,-1.6154,0.03243,0.0279,-0.0441
-17.2,-1.608,0.03193,0.02734,-0.0445
-17.1,-1.6004,0.03145,0.02681,-0.0448
-17,-1.5926,0.03098,0.02629,-0.0451
-16.9,-1.5847,0.03054,0.0258,-0.0453
-16.8,-1.5766,0.0301,0.02531,-0.0455
-16.7,-1.5684,0.02968,0.02485,-0.0457
-16.6,-1.56,0.02928,0.0244,-0.0458
-16.5,-1.5515,0.02889,0.02395,-0.0459
-16.4,-1.5429,0.0285,0.02352,-0.046
-16.3,-1.5341,0.02813,0.02311,-0.0461
-16.2,-1.5252,0.02777,0.0227,-0.0462
-16.1,-1.5162,0.02742,0.02231,-0.0462
-16,-1.507,0.02708,0.02193,-0.0463
-15.9,-1.4977,0.02675,0.02155,-0.0463
-15.8,-1.4884,0.02643,0.02119,-0.0464
-15.7,-1.4789,0.02611,0.02084,-0.0464
-15.6,-1.4693,0.02582,0.0205,-0.0464
-15.5,-1.4596,0.02552,0.02016,-0.0465
-15.4,-1.4497,0.02525,0.01985,-0.0465
-15.3,-1.4398,0.02498,0.01954,-0.0465
-15.2,-1.4298,0.02473,0.01924,-0.0465
-15.1,-1.4202,0.02435,0.01885,-0.0466
-15,-1.4106,0.024,0.01846,-0.0466
-14.9,-1.4008,0.02366,0.01809,-0.0467
-14.8,-1.3908,0.02335,0.01775,-0.0467
-14.7,-1.3807,0.02305,0.01743,-0.0467
-14.6,-1.3705,0.02277,0.01712,-0.0468
-14.5,-1.3602,0.0225,0.01682,-0.0468
-14.4,-1.3498,0.02224,0.01654,-0.0468
-14.3,-1.3393,0.02198,0.01626,-0.0469
-14.2,-1.3288,0.02174,0.01599,-0.0469
-14.1,-1.3182,0.0215,0.01573,-0.0469
-14,-1.3075,0.02126,0.01547,-0.047
-13.9,-1.2968,0.02104,0.01522,-0.047
-13.8,-1.2861,0.02081,0.01497,-0.047
-13.7,-1.2753,0.02059,0.01473,-0.0471
-13.6,-1.2644,0.02038,0.01449,-0.0471
-13.5,-1.2535,0.02016,0.01426,-0.0471
-13.4,-1.2426,0.01996,0.01402,-0.0472
-13.3,-1.2316,0.01975,0.0138,-0.0472
-13.2,-1.2206,0.01955,0.01357,-0.0473
-13.1,-1.2095,0.01935,0.01335,-0.0473
-13,-1.1984,0.01916,0.01313,-0.0474
-12.9,-1.1873,0.01897,0.01292,-0.0474
-12.8,-1.1761,0.01878,0.0127,-0.0474
-12.7,-1.1649,0.01859,0.01249,-0.0475
-12.6,-1.1537,0.01841,0.01228,-0.0475
-12.5,-1.1424,0.01824,0.01209,-0.0476
-12.4,-1.1311,0.01808,0.0119,-0.0476
-12.3,-1.1197,0.01792,0.01171,-0.0477
-12.2,-1.1085,0.01771,0.01151,-0.0478
-12.1,-1.0972,0.0175,0.0113,-0.0478
-12,-1.0859,0.01731,0.01109,-0.0479
-11.9,-1.0745,0.01713,0.0109,-0.048
-11.8,-1.0631,0.01695,0.01071,-0.048
-11.7,-1.0516,0.01678,0.01053,-0.0481
-11.6,-1.0401,0.01662,0.01035,-0.0481
-11.5,-1.0286,0.01646,0.01018,-0.0482
-11.4,-1.0171,0.0163,0.01001,-0.0483
-11.3,-1.0056,0.01614,0.00984,-0.0483
-11.2,-0.994,0.01599,0.00967,-0.0484
-11.1,-0.9824,0.01584,0.00951,-0.0485
-11,-0.9708,0.0157,0.00935,-0.0486
-10.9,-0.9591,0.01555,0.00919,-0.0486
-10.8,-0.9475,0.01541,0.00903,-0.0487
-10.7,-0.9358,0.01527,0.00888,-0.0488
-10.6,-0.9241,0.01514,0.00873,-0.0488
-10.5,-0.9124,0.01501,0.00858,-0.0489
-10.4,-0.9006,0.01489,0.00844,-0.049
-10.3,-0.8889,0.01473,0.00828,-0.0491
-10.2,-0.8772,0.01457,0.00811,-0.0491
-10.1,-0.8655,0.01442,0.00796,-0.0492
-10,-0.8537,0.01427,0.00781,-0.0493
-9.9,-0.842,0.01414,0.00767,-0.0494
-9.8,-0.8302,0.014,0.00754,-0.0495
-9.7,-0.8184,0.01388,0.00741,-0.0496
-9.6,-0.8066,0.01375,0.00728,-0.0497
-9.5,-0.7947,0.01363,0.00715,-0.0497
-9.4,-0.7829,0.01351,0.00702,-0.0498
-9.3,-0.7711,0.01339,0.0069,-0.0499
-9.2,-0.7592,0.01328,0.00677,-0.05
-9.1,-0.7473,0.01317,0.00666,-0.0501
-9,-0.7351,0.01307,0.00654,-0.0502
-8.9,-0.7223,0.01297,0.00644,-0.0505
-8.8,-0.7095,0.01283,0.00631,-0.0508
-8.7,-0.6958,0.01271,0.0062,-0.0513
-8.6,-0.6832,0.0126,0.00608,-0.0515
-8.5,-0.6704,0.01249,0.00598,-0.0518
-8.4,-0.6575,0.01239,0.00587,-0.0521
-8.3,-0.645,0.01229,0.00577,-0.0523
-8.2,-0.632,0.01221,0.00567,-0.0526
-8.1,-0.6197,0.01212,0.00558,-0.0527
-8,-0.6075,0.01204,0.00549,-0.0528
-7.9,-0.5954,0.01198,0.00542,-0.0529
-7.8,-0.5835,0.01189,0.00532,-0.053
-7.7,-0.572,0.01181,0.00523,-0.0529
-7.6,-0.5603,0.01172,0.00514,-0.0529
-7.5,-0.5487,0.01164,0.00505,-0.0529
-7.4,-0.537,0.01156,0.00497,-0.0529
-7.3,-0.5253,0.01149,0.00488,-0.0529
-7.2,-0.5142,0.01144,0.0048,-0.0527
-7.1,-0.5024,0.01137,0.00472,-0.0528
-7,-0.4908,0.01131,0.00464,-0.0527
-6.9,-0.4791,0.01125,0.00457,-0.0527
-6.8,-0.4672,0.01119,0.00449,-0.0528
-6.7,-0.4558,0.01112,0.00441,-0.0527
-6.6,-0.4441,0.01105,0.00433,-0.0527
-6.5,-0.4322,0.01097,0.00426,-0.0528
-6.4,-0.4203,0.0109,0.00419,-0.0528
-6.3,-0.4084,0.01085,0.00411,-0.0528
-6.2,-0.3966,0.01079,0.00404,-0.0529
-6.1,-0.3846,0.01074,0.00398,-0.0529
-6,-0.3729,0.01069,0.0039,-0.0529
-5.9,-0.361,0.01062,0.00383,-0.053
-5.8,-0.349,0.01056,0.00377,-0.053
-5.7,-0.337,0.01049,0.00371,-0.0531
-5.6,-0.3249,0.01043,0.00365,-0.0532
-5.5,-0.3129,0.01038,0.00359,-0.0533
-5.4,-0.301,0.01034,0.00353,-0.0533
-5.3,-0.2891,0.01028,0.00346,-0.0534
-5.2,-0.277,0.01021,0.0034,-0.0535
-5.1,-0.265,0.01016,0.00335,-0.0536
-5,-0.253,0.01012,0.00329,-0.0536
-4.9,-0.2409,0.01007,0.00324,-0.0537
-4.8,-0.2288,0.01002,0.00318,-0.0538
-4.7,-0.2167,0.00996,0.00313,-0.0539
-4.6,-0.2048,0.00993,0.00308,-0.054
-4.5,-0.1927,0.00987,0.00304,-0.0541
-4.4,-0.1806,0.00983,0.00299,-0.0542
-4.3,-0.1685,0.00977,0.00293,-0.0543
-4.2,-0.1565,0.00973,0.00289,-0.0544
-4.1,-0.1445,0.0097,0.00285,-0.0544
-4,-0.1326,0.00969,0.00281,-0.0545
-3.9,-0.1207,0.00966,0.00276,-0.0545
-3.8,-0.1088,0.00963,0.00273,-0.0546
-3.7,-0.0969,0.00963,0.00269,-0.0546
-3.6,-0.0848,0.00959,0.00265,-0.0548
-3.5,-0.0727,0.00954,0.00261,-0.0549
-3.4,-0.0608,0.00954,0.00258,-0.0549
-3.3,-0.0487,0.00952,0.00255,-0.055
-3.2,-0.0366,0.00948,0.00251,-0.0552
-3.1,-0.0245,0.00945,0.00248,-0.0553
-3,-0.0126,0.00943,0.00245,-0.0554
-2.9,-0.0004,0.00939,0.00242,-0.0555
-2.8,0.0114,0.00942,0.0024,-0.0555
-2.7,0.0233,0.00943,0.00238,-0.0556
-2.6,0.0354,0.0094,0.00235,-0.0558
-2.5,0.0475,0.00937,0.00232,-0.0559
-2.4,0.0596,0.00935,0.00231,-0.056
-2.3,0.0717,0.00934,0.00229,-0.0561
-2.2,0.0837,0.00932,0.00227,-0.0563
-2.1,0.0955,0.00936,0.00226,-0.0563
-2,0.1076,0.00933,0.00225,-0.0565
-1.9,0.1197,0.00933,0.00224,-0.0566
-1.8,0.1318,0.00932,0.00222,-0.0567
-1.7,0.1437,0.00933,0.00222,-0.0568
-1.6,0.1559,0.00933,0.00221,-0.057
-1.5,0.1678,0.00932,0.0022,-0.0571
-1.4,0.1797,0.00935,0.0022,-0.0572
-1.3,0.1918,0.00936,0.0022,-0.0574
-1.2,0.2039,0.00936,0.00219,-0.0575
-1.1,0.216,0.00933,0.00219,-0.0576
-1,0.228,0.00933,0.00218,-0.0578
-0.9,0.2401,0.00933,0.00218,-0.0579
-0.8,0.2522,0.00934,0.00218,-0.058
-0.7,0.2643,0.00933,0.00218,-0.0582
-0.6,0.2761,0.00935,0.00219,-0.0583
-0.5,0.2882,0.00936,0.00219,-0.0585
-0.4,0.3002,0.00937,0.0022,-0.0586
-0.3,0.3123,0.00937,0.00221,-0.0587
-0.2,0.3243,0.00935,0.00221,-0.0589
-0.1,0.3363,0.00935,0.00222,-0.059
0,0.3484,0.00936,0.00222,-0.0592
0.1,0.3603,0.00934,0.00223,-0.0594
0.2,0.3724,0.00935,0.00224,-0.0595
0.3,0.3841,0.00942,0.00227,-0.0596
0.4,0.396,0.00944,0.00229,-0.0598
0.5,0.408,0.00942,0.0023,-0.0599
0.6,0.4199,0.00944,0.00232,-0.0601
0.7,0.4319,0.00947,0.00234,-0.0602
0.8,0.4438,0.0095,0.00236,-0.0604
0.9,0.4556,0.00948,0.00238,-0.0606
1,0.4675,0.00951,0.00241,-0.0607
1.1,0.4793,0.00955,0.00244,-0.0608
1.2,0.4911,0.00959,0.00247,-0.061
1.3,0.5025,0.00964,0.00252,-0.0611
1.4,0.5143,0.00969,0.00256,-0.0613
1.5,0.526,0.00972,0.0026,-0.0614
1.6,0.5375,0.00965,0.00264,-0.0615
1.7,0.5491,0.00968,0.00268,-0.0616
1.8,0.5607,0.00969,0.00272,-0.0617
1.9,0.5723,0.0097,0.00276,-0.0617
2,0.5831,0.00965,0.00282,-0.0616
2.1,0.5945,0.00965,0.00285,-0.0616
2.2,0.6054,0.0097,0.0029,-0.0615
2.3,0.6164,0.00972,0.00295,-0.0614
2.4,0.6253,0.00964,0.00297,-0.0607
2.5,0.6356,0.00964,0.00299,-0.0604
2.6,0.6457,0.00965,0.00301,-0.06
2.7,0.6559,0.00966,0.00303,-0.0597
2.8,0.6662,0.00963,0.003,-0.0593
2.9,0.6788,0.00966,0.00302,-0.0596
3,0.6912,0.00969,0.00303,-0.0598
3.1,0.7032,0.00975,0.00307,-0.0599
3.2,0.715,0.00985,0.00312,-0.06
3.3,0.7269,0.00993,0.00317,-0.0602
3.4,0.7388,0.00999,0.00322,-0.0603
3.5,0.7508,0.01005,0.00327,-0.0604
3.6,0.7627,0.01011,0.00331,-0.0605
3.7,0.7746,0.01018,0.00336,-0.0606
3.8,0.7865,0.01025,0.00341,-0.0608
3.9,0.7984,0.01032,0.00346,-0.0609
4,0.8102,0.0104,0.00351,-0.061
4.1,0.8221,0.01047,0.00357,-0.0611
4.2,0.834,0.01053,0.00362,-0.0612
4.3,0.8458,0.0106,0.00367,-0.0613
4.4,0.8577,0.01067,0.00372,-0.0614
4.5,0.8695,0.01075,0.00378,-0.0616
4.6,0.8813,0.01083,0.00383,-0.0617
4.7,0.8931,0.01091,0.0039,-0.0618
4.8,0.9049,0.01097,0.00395,-0.0619
4.9,0.9168,0.01103,0.00401,-0.062
5,0.9286,0.0111,0.00406,-0.0621
5.1,0.9404,0.01117,0.00412,-0.0622
5.2,0.9522,0.01124,0.00418,-0.0623
5.3,0.9639,0.01132,0.00424,-0.0625
5.4,0.9755,0.01143,0.0043,-0.0626
5.5,0.9873,0.0115,0.00437,-0.0627
5.6,0.999,0.01157,0.00443,-0.0628
5.7,1.0108,0.01163,0.00449,-0.0629
5.8,1.0225,0.0117,0.00455,-0.063
5.9,1.0343,0.01178,0.00462,-0.0631
6,1.0459,0.01185,0.00468,-0.0632
6.1,1.0576,0.01194,0.00475,-0.0633
6.2,1.0692,0.01202,0.00482,-0.0634
6.3,1.0808,0.01212,0.00489,-0.0635
6.4,1.0924,0.0122,0.00497,-0.0636
6.5,1.1041,0.01227,0.00503,-0.0637
6.6,1.1157,0.01234,0.0051,-0.0638
6.7,1.1274,0.01242,0.00517,-0.0639
6.8,1.139,0.0125,0.00524,-0.064
6.9,1.1505,0.01259,0.00531,-0.0641
7,1.1621,0.01268,0.00539,-0.0642
7.1,1.1735,0.01277,0.00547,-0.0643
7.2,1.185,0.01288,0.00555,-0.0643
7.3,1.1966,0.01295,0.00564,-0.0644
7.4,1.2081,0.01303,0.00571,-0.0645
7.5,1.2197,0.0131,0.00579,-0.0646
7.6,1.2312,0.01319,0.00586,-0.0647
7.7,1.2426,0.01328,0.00594,-0.0648
7.8,1.254,0.01337,0.00602,-0.0649
7.9,1.2654,0.01347,0.00611,-0.065
8,1.2768,0.01357,0.0062,-0.065
8.1,1.2881,0.01368,0.00629,-0.0651
8.2,1.2995,0.01377,0.00638,-0.0652
8.3,1.3109,0.01385,0.00646,-0.0653
8.4,1.3224,0.01393,0.00655,-0.0653
8.5,1.3337,0.01402,0.00663,-0.0654
8.6,1.3451,0.01411,0.00672,-0.0655
8.7,1.3564,0.0142,0.00681,-0.0656
8.8,1.3677,0.0143,0.0069,-0.0656
8.9,1.3788,0.01442,0.007,-0.0657
9,1.39,0.01453,0.0071,-0.0658
9.1,1.4011,0.01465,0.0072,-0.0658
9.2,1.4124,0.01475,0.00731,-0.0659
9.3,1.4236,0.01483,0.0074,-0.066
9.4,1.4349,0.01492,0.00749,-0.066
9.5,1.4461,0.01502,0.00759,-0.0661
9.6,1.4573,0.01512,0.00769,-0.0661
9.7,1.4684,0.01522,0.00779,-0.0662
9.8,1.4795,0.01532,0.00789,-0.0662
9.9,1.4906,0.01543,0.008,-0.0663
10,1.5016,0.01555,0.00811,-0.0663
10.1,1.5123,0.0157,0.00822,-0.0664
10.2,1.5232,0.01582,0.00835,-0.0664
10.3,1.5343,0.01591,0.00845,-0.0665
10.4,1.5454,0.01601,0.00855,-0.0665
10.5,1.5564,0.01611,0.00866,-0.0665
10.6,1.5674,0.01622,0.00877,-0.0666
10.7,1.5783,0.01633,0.00888,-0.0666
10.8,1.5892,0.01644,0.009,-0.0666
10.9,1.6,0.01656,0.00912,-0.0667
11,1.6108,0.01668,0.00924,-0.0667
11.1,1.6215,0.01681,0.00936,-0.0667
11.2,1.6322,0.01694,0.00948,-0.0667
11.3,1.6428,0.01708,0.00962,-0.0667
11.4,1.6534,0.01722,0.00975,-0.0667
11.5,1.6642,0.01732,0.00986,-0.0668
11.6,1.6749,0.01743,0.00999,-0.0668
11.7,1.6856,0.01754,0.01011,-0.0668
11.8,1.6963,0.01766,0.01023,-0.0668
11.9,1.7069,0.01779,0.01037,-0.0668
12,1.7174,0.01791,0.0105,-0.0668
12.1,1.7279,0.01805,0.01063,-0.0668
12.2,1.7383,0.01818,0.01077,-0.0668
12.3,1.7486,0.01832,0.01091,-0.0668
12.4,1.7589,0.01847,0.01105,-0.0667
12.5,1.7692,0.01863,0.0112,-0.0667
12.6,1.7793,0.01879,0.01137,-0.0667
12.7,1.7897,0.0189,0.0115,-0.0666
12.8,1.8001,0.01902,0.01162,-0.0666
12.9,1.8104,0.01914,0.01176,-0.0666
13,1.8207,0.01928,0.01191,-0.0666
13.1,1.8309,0.01941,0.01206,-0.0665
13.2,1.841,0.01955,0.01221,-0.0665
13.3,1.851,0.0197,0.01236,-0.0664
13.4,1.861,0.01985,0.01251,-0.0664
13.5,1.8709,0.02001,0.01267,-0.0663
13.6,1.8807,0.02017,0.01283,-0.0662
13.7,1.8904,0.02034,0.013,-0.0661
13.8,1.9,0.02051,0.01318,-0.066
13.9,1.9096,0.02069,0.01336,-0.0659
14,1.9195,0.02081,0.01351,-0.0659
14.1,1.9294,0.02095,0.01366,-0.0658
14.2,1.9391,0.02109,0.01382,-0.0657
14.3,1.9488,0.02124,0.01399,-0.0656
14.4,1.9583,0.02139,0.01415,-0.0655
14.5,1.9678,0.02155,0.01432,-0.0654
14.6,1.9772,0.02171,0.0145,-0.0652
14.7,1.9865,0.02188,0.01468,-0.0651
14.8,1.9956,0.02206,0.01486,-0.065
14.9,2.0047,0.02224,0.01505,-0.0648
15,2.0136,0.02243,0.01524,-0.0646
15.1,2.0225,0.02262,0.01543,-0.0645
15.2,2.0311,0.02282,0.01564,-0.0643
15.3,2.0398,0.02302,0.01586,-0.0641
15.4,2.0489,0.02317,0.01603,-0.0639
15.5,2.0579,0.02332,0.01621,-0.0637
15.6,2.0668,0.02348,0.0164,-0.0635
15.7,2.0755,0.02365,0.01659,-0.0633
15.8,2.0841,0.02383,0.01679,-0.0631
15.9,2.0926,0.02401,0.01698,-0.0629
16,2.1008,0.0242,0.01718,-0.0626
16.1,2.1089,0.02439,0.01739,-0.0624
16.2,2.1169,0.02459,0.0176,-0.0621
16.3,2.1247,0.02479,0.01782,-0.0618
16.4,2.1323,0.025,0.01804,-0.0615
16.5,2.1396,0.02522,0.01827,-0.0611
16.6,2.1468,0.02544,0.0185,-0.0607
16.7,2.1536,0.02568,0.01875,-0.0603
16.8,2.1602,0.02592,0.019,-0.0599
16.9,2.1672,0.02612,0.01924,-0.0595
17,2.1744,0.0263,0.01945,-0.0591
17.1,2.1814,0.02649,0.01968,-0.0587
17.2,2.1881,0.02669,0.0199,-0.0583
17.3,2.1945,0.02689,0.02013,-0.0578
17.4,2.2007,0.0271,0.02037,-0.0573
17.5,2.2066,0.02732,0.02061,-0.0568
17.6,2.2115,0.02754,0.02086,-0.0561
17.7,2.2151,0.02778,0.02112,-0.0552
17.8,2.2182,0.02806,0.02141,-0.0544
17.9,2.2211,0.02838,0.02172,-0.0536
18,2.2249,0.02866,0.02203,-0.0529
18.1,2.2289,0.02896,0.02235,-0.0523
18.2,2.2331,0.02927,0.02267,-0.0518
18.3,2.2371,0.02959,0.02302,-0.0513
18.4,2.2417,0.02989,0.02336,-0.0509
18.5,2.2472,0.03014,0.02365,-0.0506
18.6,2.2527,0.03041,0.02395,-0.0504
18.7,2.2581,0.03068,0.02426,-0.0502
18.8,2.2635,0.03097,0.02458,-0.05
18.9,2.269,0.03126,0.02491,-0.0499
19,2.2745,0.03156,0.02525,-0.0498
19.1,2.28,0.03187,0.02559,-0.0498
19.2,2.2855,0.03219,0.02594,-0.0498
19.3,2.291,0.03251,0.0263,-0.0499
19.4,2.2965,0.03285,0.02666,-0.05
19.5,2.302,0.03319,0.02704,-0.0502
19.6,2.3075,0.03354,0.02742,-0.0504
19.7,2.313,0.03391,0.02781,-0.0506
19.8,2.3185,0.03428,0.02821,-0.051
19.9,2.324,0.03467,0.02863,-0.0514
20,2.3286,0.03516,0.02912,-0.052
20.1,2.3337,0.03562,0.02961,-0.0526
20.2,2.3401,0.03596,0.02999,-0.053
20.3,2.3465,0.03631,0.03039,-0.0536
20.4,2.3528,0.03668,0.03079,-0.0542
20.5,2.3592,0.03706,0.03121,-0.0548
20.6,2.3655,0.03745,0.03165,-0.0555
20.7,2.3718,0.03785,0.03209,-0.0563
20.8,2.3781,0.03827,0.03255,-0.0572
20.9,2.3844,0.0387,0.03302,-0.058
21,2.3907,0.03915,0.0335,-0.059
21.1,2.3969,0.03961,0.034,-0.06
21.2,2.4031,0.04009,0.03452,-0.0611
21.3,2.4093,0.0406,0.03506,-0.0623
21.4,2.4154,0.04113,0.03562,-0.0636
21.5,2.4214,0.04168,0.03622,-0.065
21.6,2.4273,0.04227,0.03684,-0.0664
21.7,2.4331,0.04289,0.0375,-0.068
21.8,2.4379,0.04372,0.03836,-0.0701
21.9,2.4445,0.0442,0.03889,-0.0714
22,2.4507,0.04479,0.03953,-0.0729
22.1,2.4567,0.04541,0.0402,-0.0745
22.2,2.4625,0.04608,0.04092,-0.0762
22.3,2.4682,0.04678,0.04169,-0.078
22.4,2.4735,0.04754,0.0425,-0.08
22.5,2.4787,0.04834,0.04335,-0.082
22.6,2.4835,0.0492,0.04427,-0.0841
22.7,2.488,0.05014,0.04526,-0.0864
22.8,2.4921,0.05116,0.04633,-0.0888
22.9,2.4956,0.05227,0.0475,-0.0914
23,2.4986,0.05348,0.04878,-0.0942
23.1,2.501,0.05482,0.05019,-0.0972
23.2,2.5026,0.05632,0.05176,-0.1004
23.3,2.5033,0.05798,0.05349,-0.1039
23.4,2.5029,0.05985,0.05545,-0.1078
23.5,2.501,0.06202,0.05771,-0.1121
23.6,2.4988,0.06421,0.06001,-0.1163
23.7,2.4979,0.0661,0.062,-0.1199
23.8,2.4947,0.06846,0.06446,-0.1242
23.9,2.4903,0.07102,0.06713,-0.1288
24,2.4842,0.07393,0.07016,-0.1339
24.1,2.4749,0.07748,0.07384,-0.14
24.2,2.4669,0.08065,0.07714,-0.1455
24.3,2.4584,0.08383,0.08043,-0.1511
24.4,2.4497,0.08698,0.0837,-0.1568
24.5,2.4409,0.09008,0.08691,-0.1626
24.6,2.4339,0.09271,0.08963,-0.1678
24.7,2.4259,0.09554,0.09255,-0.1734
24.8,2.4174,0.09849,0.09559,-0.1792
24.9,2.4118,0.10083,0.098,-0.184
25,2.4034,0.10388,0.10114,-0.19
25.1,2.3986,0.10621,0.10352,-0.1945
25.2,2.3909,0.1093,0.10668,-0.2001
25.3,2.3894,0.11106,0.10851,-0.2033
25.4,2.3887,0.11265,0.11015,-0.2062
25.5,2.3868,0.11459,0.11214,-0.2095
25.6,2.3832,0.11696,0.11458,-0.2134
25.7,2.3821,0.11874,0.11641,-0.2164
25.8,2.3812,0.12047,0.11818,-0.2192
25.9,2.3789,0.12259,0.12035,-0.2226
26,2.3751,0.12511,0.12292,-0.2265
26.1,2.3738,0.12701,0.12485,-0.2295
26.2,2.3726,0.12888,0.12675,-0.2324
26.3,2.3704,0.13101,0.12892,-0.2356
26.4,2.3656,0.13389,0.13184,-0.2398
26.5,2.3638,0.13597,0.13395,-0.243
26.6,2.362,0.13806,0.13607,-0.2461
26.7,2.3606,0.14004,0.13809,-0.2491
26.8,2.3577,0.14249,0.14059,-0.2525
26.9,2.3567,0.14436,0.14251,-0.2553
27,2.3564,0.14607,0.14425,-0.2578
27.1,2.356,0.14779,0.14601,-0.2603
27.2,2.3554,0.14958,0.14782,-0.2629
27.3,2.3524,0.15207,0.15036,-0.2664
27.4,2.3496,0.15451,0.15283,-0.2698
27.5,2.3484,0.1565,0.15484,-0.2726
27.6,2.3473,0.15843,0.15679,-0.2754
27.7,2.346,0.16047,0.15884,-0.2783
27.8,2.3418,0.16341,0.1618,-0.2823
27.9,2.3402,0.16552,0.16397,-0.2852
28,2.3398,0.16731,0.16579,-0.2877
28.1,2.3395,0.16905,0.16755,-0.2902
28.2,2.339,0.17085,0.16938,-0.2927
28.3,2.338,0.17282,0.17137,-0.2954
28.4,2.3339,0.17586,0.17446,-0.2994
28.5,2.3321,0.17815,0.17676,-0.3025
28.6,2.3311,0.1802,0.17882,-0.3054
28.7,2.33,0.18229,0.18091,-0.3083
28.8,2.3292,0.18425,0.18289,-0.3109
28.9,2.3269,0.1868,0.18549,-0.3143
29,2.3246,0.18933,0.18806,-0.3176
29.1,2.3239,0.19134,0.19008,-0.3204
29.2,2.3233,0.19329,0.19205,-0.323
29.3,2.3226,0.19529,0.19405,-0.3258
29.4,2.3217,0.19742,0.19618,-0.3286
29.5,2.3181,0.20062,0.19942,-0.3327
29.6,2.3173,0.20273,0.20156,-0.3355
29.7,2.317,0.20462,0.20347,-0.3381
29.8,2.3167,0.20653,0.20538,-0.3407
29.9,2.3164,0.20847,0.20733,-0.3433
30,2.3157,0.21055,0.20943,-0.3461

