airfoilName st6.dat
Re 	2.300000e+05
M 	5.000000e-02
N 	4.500000e+00
VACC 	0 VACCflag 1
XTR 	1.00 	1.00 XTRflag 0
alpha,cl,cd,cdp,cm
-16.2,-1.5208,0.05718,0.05309,0.0128
-16.1,-1.5097,0.05599,0.05188,0.0095
-16,-1.4965,0.05429,0.05014,0.0048
-15.9,-1.4811,0.05225,0.04802,-0.0009
-15.8,-1.4635,0.05011,0.04577,-0.0071
-15.7,-1.4435,0.04798,0.04348,-0.0137
-15.6,-1.4221,0.04613,0.04149,-0.0199
-15.5,-1.4006,0.04462,0.03983,-0.0257
-15.4,-1.3832,0.0435,0.03859,-0.0303
-15.3,-1.3711,0.04261,0.03762,-0.0333
-15.2,-1.362,0.04185,0.03676,-0.0353
-15.1,-1.3529,0.04111,0.03595,-0.037
-15,-1.3443,0.0404,0.03516,-0.0384
-14.9,-1.3359,0.03972,0.0344,-0.0396
-14.8,-1.3276,0.03905,0.03366,-0.0406
-14.7,-1.3195,0.0384,0.03293,-0.0414
-14.6,-1.3114,0.03777,0.03222,-0.0422
-14.5,-1.3032,0.03715,0.03151,-0.0428
-14.4,-1.295,0.03654,0.03082,-0.0434
-14.3,-1.2868,0.03593,0.03012,-0.0439
-14.2,-1.2785,0.03533,0.02943,-0.0443
-14.1,-1.2701,0.03475,0.02876,-0.0447
-14,-1.2616,0.03417,0.02808,-0.0451
-13.9,-1.253,0.0336,0.02742,-0.0454
-13.8,-1.2443,0.03304,0.02676,-0.0456
-13.7,-1.2355,0.03249,0.0261,-0.0459
-13.6,-1.2265,0.03195,0.02546,-0.0461
-13.5,-1.2173,0.03144,0.02483,-0.0463
-13.4,-1.208,0.03097,0.02422,-0.0465
-13.3,-1.1987,0.0305,0.02377,-0.0466
-13.2,-1.1893,0.03007,0.02334,-0.0468
-13.1,-1.1796,0.02968,0.02293,-0.0469
-13,-1.1698,0.02931,0.02253,-0.047
-12.9,-1.1599,0.02896,0.02215,-0.0471
-12.8,-1.1499,0.02861,0.02178,-0.0472
-12.7,-1.1398,0.02828,0.02141,-0.0473
-12.6,-1.1296,0.02794,0.02105,-0.0474
-12.5,-1.1194,0.02762,0.02068,-0.0475
-12.4,-1.1091,0.02729,0.02032,-0.0476
-12.3,-1.0988,0.02696,0.01995,-0.0477
-12.2,-1.0884,0.02663,0.01958,-0.0478
-12.1,-1.0779,0.02631,0.01921,-0.0479
-12,-1.0674,0.02598,0.01883,-0.0479
-11.9,-1.0569,0.02565,0.01845,-0.048
-11.8,-1.0459,0.0255,0.01823,-0.0481
-11.7,-1.0352,0.02516,0.01781,-0.0482
-11.6,-1.0245,0.02482,0.0174,-0.0482
-11.5,-1.0138,0.02451,0.017,-0.0483
-11.4,-1.0029,0.02421,0.01661,-0.0484
-11.3,-0.9922,0.02385,0.01628,-0.0484
-11.2,-0.9815,0.02352,0.01595,-0.0485
-11.1,-0.9707,0.02322,0.01565,-0.0486
-11,-0.9597,0.02295,0.01536,-0.0487
-10.9,-0.9487,0.02269,0.01509,-0.0488
-10.8,-0.9377,0.02244,0.01482,-0.0489
-10.7,-0.9266,0.02219,0.01454,-0.0489
-10.6,-0.9154,0.02194,0.01426,-0.049
-10.5,-0.9042,0.0217,0.01399,-0.0491
-10.4,-0.8931,0.02145,0.01371,-0.0492
-10.3,-0.8818,0.0212,0.01343,-0.0492
-10.2,-0.8706,0.02096,0.01315,-0.0493
-10.1,-0.8593,0.02071,0.01286,-0.0494
-10,-0.8479,0.02047,0.01258,-0.0494
-9.9,-0.8363,0.0204,0.01239,-0.0495
-9.8,-0.8251,0.02011,0.01212,-0.0495
-9.7,-0.8138,0.01983,0.01186,-0.0496
-9.6,-0.8025,0.01959,0.01162,-0.0497
-9.5,-0.7911,0.01937,0.01139,-0.0498
-9.4,-0.7797,0.01916,0.01117,-0.0499
-9.3,-0.7682,0.01896,0.01095,-0.05
-9.2,-0.7568,0.01876,0.01073,-0.05
-9.1,-0.7453,0.01856,0.01051,-0.0501
-9,-0.7337,0.01836,0.01029,-0.0502
-8.9,-0.7222,0.01816,0.01006,-0.0502
-8.8,-0.7106,0.01797,0.00984,-0.0503
-8.7,-0.699,0.01778,0.00961,-0.0503
-8.6,-0.6874,0.01761,0.00939,-0.0504
-8.5,-0.6759,0.01741,0.00919,-0.0505
-8.4,-0.6643,0.01719,0.00899,-0.0506
-8.2,-0.6412,0.01688,0.0087,-0.0507
-8.1,-0.6296,0.01671,0.00852,-0.0508
-8,-0.618,0.01654,0.00834,-0.0509
-7.9,-0.6063,0.01638,0.00815,-0.0509
-7.8,-0.5947,0.01622,0.00796,-0.051
-7.7,-0.583,0.01606,0.00778,-0.051
-7.6,-0.5713,0.01592,0.0076,-0.0511
-7.5,-0.5597,0.01573,0.00743,-0.0512
-7.4,-0.5481,0.01555,0.00727,-0.0512
-7.3,-0.5365,0.01539,0.00711,-0.0513
-7.2,-0.5249,0.01524,0.00696,-0.0514
-7,-0.5016,0.01499,0.00671,-0.0515
-6.9,-0.4899,0.01486,0.00655,-0.0515
-6.8,-0.4783,0.01474,0.0064,-0.0516
-6.7,-0.4667,0.01456,0.00626,-0.0516
-6.6,-0.4551,0.01441,0.00612,-0.0517
-6.5,-0.4435,0.01427,0.006,-0.0517
-6.4,-0.4319,0.01414,0.00587,-0.0518
-6.3,-0.4203,0.01402,0.00574,-0.0518
-6.2,-0.4079,0.0139,0.0056,-0.052
-6.1,-0.3945,0.01379,0.0055,-0.0525
-6,-0.3804,0.01365,0.00537,-0.053
-5.9,-0.3671,0.01352,0.00526,-0.0534
-5.8,-0.3538,0.0134,0.00514,-0.0538
-5.7,-0.3403,0.01329,0.00502,-0.0542
-5.6,-0.3272,0.01319,0.00491,-0.0546
-5.5,-0.314,0.01306,0.00479,-0.0549
-5.4,-0.2998,0.01294,0.00469,-0.0555
-5.3,-0.2867,0.01283,0.00461,-0.0559
-5.2,-0.2736,0.01274,0.00451,-0.0562
-5.1,-0.2604,0.01263,0.00441,-0.0566
-5,-0.247,0.01252,0.00432,-0.057
-4.9,-0.2335,0.01243,0.00423,-0.0574
-4.8,-0.2205,0.01234,0.00415,-0.0577
-4.7,-0.2074,0.01224,0.00406,-0.058
-4.5,-0.1817,0.01206,0.00392,-0.0585
-4.4,-0.1689,0.01196,0.00384,-0.0588
-4.3,-0.1558,0.01189,0.00377,-0.0591
-4.2,-0.1434,0.01181,0.00371,-0.0592
-4.1,-0.131,0.01174,0.00364,-0.0594
-4,-0.1186,0.01166,0.00358,-0.0596
-3.9,-0.1063,0.01158,0.00352,-0.0597
-3.8,-0.0942,0.01149,0.00347,-0.0598
-3.7,-0.0822,0.01145,0.00342,-0.0598
-3.6,-0.0702,0.01138,0.00336,-0.0599
-3.5,-0.0582,0.01131,0.00331,-0.06
-3.4,-0.0464,0.01123,0.00326,-0.06
-3.3,-0.0345,0.01117,0.00322,-0.0601
-3.2,-0.0227,0.01111,0.00317,-0.0601
-3.1,-0.0108,0.01105,0.00313,-0.0601
-3,0.0005,0.01102,0.00308,-0.06
-2.9,0.0124,0.01096,0.00305,-0.0601
-2.8,0.0236,0.01091,0.00301,-0.06
-2.7,0.0349,0.01089,0.00298,-0.0598
-2.6,0.0466,0.01083,0.00293,-0.0598
-2.5,0.0579,0.01082,0.00291,-0.0597
-2.4,0.0688,0.01082,0.00287,-0.0595
-2.3,0.0807,0.01073,0.00284,-0.0596
-2.2,0.0924,0.01069,0.00281,-0.0596
-2.1,0.1041,0.01065,0.00277,-0.0596
-2,0.116,0.0106,0.00275,-0.0597
-1.9,0.1273,0.01059,0.00271,-0.0596
-1.8,0.1388,0.01052,0.00268,-0.0596
-1.7,0.1502,0.01051,0.00267,-0.0595
-1.6,0.1621,0.01046,0.00264,-0.0596
-1.5,0.1738,0.01042,0.00261,-0.0596
-1.4,0.1851,0.01036,0.00259,-0.0596
-1.3,0.1968,0.01033,0.00256,-0.0596
-1.2,0.2084,0.01031,0.00254,-0.0596
-1.1,0.2198,0.01029,0.00253,-0.0595
-1,0.2314,0.01019,0.0025,-0.0596
-0.9,0.2429,0.01017,0.00248,-0.0596
-0.8,0.2546,0.01012,0.00246,-0.0596
-0.7,0.2658,0.01012,0.00245,-0.0596
-0.6,0.2771,0.01,0.00243,-0.0596
-0.5,0.2886,0.00994,0.00242,-0.0596
-0.4,0.3,0.00989,0.0024,-0.0595
-0.3,0.3113,0.00982,0.00239,-0.0595
-0.2,0.3215,0.00963,0.00238,-0.0592
-0.1,0.332,0.00953,0.00236,-0.0589
0,0.342,0.00945,0.00236,-0.0585
0.1,0.3513,0.00942,0.00236,-0.0579
0.2,0.3579,0.00924,0.00233,-0.0565
0.3,0.3666,0.00918,0.00229,-0.0557
0.4,0.3761,0.00914,0.00226,-0.0551
0.5,0.3877,0.00911,0.00221,-0.0549
0.7,0.415,0.00912,0.0021,-0.0557
0.8,0.4268,0.00921,0.00214,-0.0558
0.9,0.4383,0.00934,0.00218,-0.0558
1,0.4502,0.00942,0.00222,-0.0558
1.1,0.4619,0.00951,0.00225,-0.0559
1.2,0.4738,0.00959,0.00229,-0.056
1.3,0.4855,0.00969,0.00234,-0.056
1.4,0.4973,0.00978,0.00238,-0.0561
1.5,0.509,0.00988,0.00242,-0.0561
1.6,0.5208,0.00997,0.00246,-0.0562
1.7,0.5325,0.01007,0.00252,-0.0562
1.8,0.5438,0.01023,0.00258,-0.0562
1.9,0.5555,0.01033,0.00262,-0.0563
2,0.5672,0.01044,0.00268,-0.0564
2.1,0.5787,0.01056,0.00274,-0.0564
2.2,0.5904,0.01067,0.00279,-0.0565
2.3,0.6019,0.01079,0.00286,-0.0565
2.4,0.6134,0.01092,0.00292,-0.0566
2.5,0.625,0.01103,0.00298,-0.0567
2.6,0.6365,0.01116,0.00305,-0.0567
2.7,0.6479,0.0113,0.00312,-0.0568
2.8,0.659,0.0115,0.0032,-0.0568
2.9,0.6704,0.01164,0.00328,-0.0569
3,0.6819,0.01177,0.00334,-0.0569
3.1,0.6933,0.01191,0.00343,-0.057
3.2,0.7047,0.01206,0.00351,-0.0571
3.3,0.7162,0.01218,0.00358,-0.0571
3.4,0.7276,0.01233,0.00367,-0.0572
3.5,0.7392,0.01245,0.00374,-0.0573
3.6,0.7506,0.01259,0.00382,-0.0574
3.7,0.7619,0.01275,0.00392,-0.0574
3.8,0.7734,0.01288,0.004,-0.0575
3.9,0.7848,0.01302,0.0041,-0.0576
4,0.7964,0.01312,0.00417,-0.0577
4.1,0.808,0.01324,0.00426,-0.0578
4.2,0.8195,0.01336,0.00435,-0.0578
4.3,0.8309,0.0135,0.00444,-0.0579
4.4,0.8425,0.0136,0.00454,-0.058
4.5,0.8541,0.01371,0.00462,-0.0581
4.6,0.8657,0.01381,0.00471,-0.0582
4.7,0.8769,0.01397,0.00481,-0.0582
4.8,0.8883,0.01411,0.00492,-0.0583
4.9,0.8999,0.0142,0.005,-0.0584
5,0.9115,0.0143,0.0051,-0.0585
5.1,0.9231,0.01441,0.00519,-0.0585
5.2,0.9345,0.01452,0.00529,-0.0586
5.3,0.9459,0.01465,0.00539,-0.0587
5.4,0.9573,0.01479,0.00549,-0.0587
5.5,0.9687,0.01489,0.0056,-0.0588
5.6,0.9803,0.01499,0.00569,-0.0589
5.7,0.9918,0.01509,0.00579,-0.059
5.8,1.0031,0.01522,0.00589,-0.059
5.9,1.0145,0.01534,0.006,-0.0591
6,1.0257,0.01548,0.00611,-0.0592
6.1,1.037,0.01561,0.00622,-0.0592
6.2,1.0485,0.0157,0.00632,-0.0593
6.3,1.06,0.01581,0.00643,-0.0594
6.4,1.0714,0.01592,0.00654,-0.0594
6.5,1.0828,0.01603,0.00665,-0.0595
6.6,1.094,0.01616,0.00677,-0.0596
6.7,1.1053,0.01629,0.00688,-0.0596
6.8,1.1164,0.01643,0.007,-0.0597
6.9,1.1276,0.01655,0.00711,-0.0597
7,1.139,0.01665,0.00722,-0.0598
7.1,1.1503,0.01677,0.00734,-0.0599
7.2,1.1616,0.01689,0.00746,-0.0599
7.3,1.1728,0.01701,0.00758,-0.06
7.4,1.1839,0.01714,0.00771,-0.06
7.5,1.195,0.01728,0.00783,-0.0601
7.6,1.206,0.01744,0.00796,-0.0601
7.7,1.2171,0.01757,0.00809,-0.0601
7.8,1.2284,0.01768,0.00821,-0.0602
7.9,1.2396,0.01779,0.00834,-0.0603
8.1,1.2618,0.01803,0.00859,-0.0603
8.2,1.2728,0.01817,0.00873,-0.0604
8.3,1.2837,0.01832,0.00886,-0.0604
8.4,1.2946,0.01847,0.009,-0.0604
8.5,1.3054,0.01864,0.00914,-0.0605
8.6,1.3165,0.01875,0.00928,-0.0605
8.7,1.3276,0.01887,0.00942,-0.0605
8.8,1.3386,0.019,0.00957,-0.0606
8.9,1.3496,0.01913,0.00971,-0.0606
9,1.3605,0.01927,0.00986,-0.0606
9.1,1.3714,0.01941,0.01001,-0.0607
9.3,1.3926,0.01972,0.01028,-0.0607
9.4,1.4031,0.0199,0.01044,-0.0607
9.5,1.414,0.02004,0.0106,-0.0607
9.6,1.4249,0.02016,0.01075,-0.0607
9.7,1.4358,0.0203,0.01091,-0.0608
9.8,1.4465,0.02044,0.01107,-0.0608
9.9,1.4572,0.02058,0.01124,-0.0608
10,1.4678,0.02074,0.01141,-0.0608
10.1,1.4784,0.0209,0.01157,-0.0608
10.2,1.4889,0.02106,0.01173,-0.0608
10.3,1.4993,0.02123,0.0119,-0.0608
10.4,1.5096,0.02141,0.01207,-0.0607
10.5,1.5199,0.02156,0.01222,-0.0607
10.6,1.5305,0.0217,0.01239,-0.0607
10.7,1.5411,0.02185,0.01257,-0.0607
10.8,1.5516,0.02201,0.01275,-0.0607
10.9,1.5619,0.02217,0.01293,-0.0607
11,1.5722,0.02233,0.01312,-0.0606
11.1,1.5825,0.0225,0.0133,-0.0606
11.2,1.5926,0.02268,0.01348,-0.0606
11.3,1.6027,0.02286,0.01367,-0.0605
11.4,1.6126,0.02306,0.01385,-0.0605
11.5,1.6225,0.02326,0.01404,-0.0604
11.6,1.6324,0.02345,0.01424,-0.0604
11.7,1.6427,0.02361,0.01444,-0.0603
11.8,1.653,0.02373,0.01462,-0.0603
11.9,1.663,0.0239,0.01482,-0.0602
12,1.6729,0.02408,0.01502,-0.0602
12.1,1.6828,0.02426,0.01524,-0.0601
12.2,1.6925,0.02445,0.01544,-0.06
12.3,1.7022,0.02464,0.01564,-0.0599
12.4,1.7118,0.02484,0.01584,-0.0599
12.5,1.7212,0.02505,0.01605,-0.0598
12.6,1.7305,0.02527,0.01626,-0.0597
12.7,1.7397,0.02551,0.01648,-0.0595
12.8,1.7495,0.02567,0.01671,-0.0595
12.9,1.7592,0.02585,0.01694,-0.0594
13,1.7688,0.02604,0.01718,-0.0593
13.1,1.7782,0.02624,0.01741,-0.0591
13.2,1.7875,0.0264,0.0176,-0.059
13.3,1.7966,0.0266,0.01784,-0.0589
13.4,1.8057,0.02681,0.01807,-0.0588
13.5,1.8146,0.02702,0.0183,-0.0586
13.6,1.8234,0.02724,0.01853,-0.0584
13.7,1.8321,0.02747,0.01876,-0.0583
13.8,1.8406,0.02772,0.019,-0.0581
13.9,1.849,0.02798,0.01925,-0.0579
14,1.8577,0.02819,0.01951,-0.0577
14.1,1.8666,0.02839,0.01977,-0.0576
14.2,1.8754,0.02861,0.02004,-0.0574
14.3,1.884,0.02882,0.02031,-0.0572
14.4,1.8924,0.02905,0.02057,-0.057
14.5,1.9008,0.02928,0.02084,-0.0568
14.6,1.9089,0.02951,0.02112,-0.0566
14.7,1.9167,0.0297,0.02133,-0.0563
14.8,1.9245,0.02994,0.02159,-0.0561
14.9,1.9321,0.03019,0.02186,-0.0558
15,1.9395,0.03045,0.02213,-0.0555
15.1,1.9467,0.03071,0.0224,-0.0552
15.2,1.9537,0.03099,0.02268,-0.0549
15.3,1.9605,0.03129,0.02297,-0.0546
15.4,1.9679,0.03152,0.02327,-0.0543
15.5,1.9752,0.03176,0.02358,-0.054
15.6,1.9823,0.032,0.02388,-0.0536
15.7,1.9891,0.03226,0.02419,-0.0533
15.8,1.9957,0.03252,0.0245,-0.0529
15.9,2.002,0.03278,0.02481,-0.0525
16,2.0081,0.03304,0.02512,-0.0521
16.1,2.014,0.03331,0.02545,-0.0517
16.2,2.0196,0.03359,0.02576,-0.0512
16.3,2.0236,0.03381,0.026,-0.0506
16.4,2.0276,0.03409,0.0263,-0.0499
16.5,2.0316,0.03439,0.02662,-0.0493
16.6,2.0356,0.03469,0.02695,-0.0488
16.7,2.0397,0.03501,0.02729,-0.0483
16.8,2.0438,0.03535,0.02764,-0.0479
16.9,2.0481,0.0357,0.02799,-0.0475
17,2.0532,0.03601,0.02836,-0.0472
17.1,2.0585,0.03632,0.02875,-0.047
17.2,2.0637,0.03664,0.02914,-0.0468
17.3,2.069,0.03696,0.02954,-0.0467
17.4,2.0742,0.03729,0.02994,-0.0466
17.5,2.0795,0.03763,0.03033,-0.0466
17.6,2.0849,0.03798,0.03073,-0.0466
17.7,2.0902,0.03832,0.03114,-0.0467
17.8,2.0956,0.03868,0.03154,-0.0468
17.9,2.1011,0.03903,0.03196,-0.047
18,2.1065,0.03939,0.03236,-0.0472
18.1,2.112,0.03976,0.03276,-0.0475
18.2,2.1175,0.04013,0.03317,-0.0479
18.3,2.123,0.04051,0.03358,-0.0483
18.4,2.1282,0.04088,0.03395,-0.0489
18.5,2.1337,0.04129,0.03437,-0.0494
18.6,2.1392,0.04171,0.03481,-0.05
18.7,2.145,0.04212,0.03526,-0.0506
18.8,2.1511,0.04252,0.03576,-0.0513
18.9,2.1573,0.04293,0.03626,-0.052
19,2.1634,0.04335,0.03677,-0.0528
19.1,2.1695,0.04378,0.03727,-0.0536
19.2,2.1756,0.04422,0.03778,-0.0545
19.3,2.1818,0.04466,0.03829,-0.0554
19.4,2.188,0.0451,0.0388,-0.0564
19.5,2.1942,0.04556,0.03932,-0.0575
19.6,2.2004,0.04602,0.03985,-0.0586
19.7,2.2067,0.04649,0.04037,-0.0598
19.8,2.213,0.04697,0.0409,-0.061
19.9,2.2192,0.04746,0.04143,-0.0624
20,2.2255,0.04796,0.04198,-0.0637
20.1,2.2317,0.04847,0.04253,-0.0652
20.2,2.2379,0.049,0.04309,-0.0667
20.3,2.244,0.04956,0.04363,-0.0686
20.4,2.2498,0.05012,0.04418,-0.0701
20.5,2.256,0.05075,0.04494,-0.0719
20.6,2.262,0.05139,0.04569,-0.0738
20.7,2.2679,0.05206,0.04647,-0.0757
20.8,2.2737,0.05275,0.04725,-0.0776
20.9,2.2794,0.05346,0.04806,-0.0796
21,2.2849,0.05419,0.04888,-0.0817
21.1,2.2903,0.05496,0.04973,-0.0838
21.2,2.2955,0.05575,0.0506,-0.086
21.3,2.3005,0.05656,0.05149,-0.0883
21.4,2.3054,0.05742,0.05244,-0.0907
21.5,2.31,0.05831,0.0534,-0.0931
21.6,2.3144,0.05923,0.05438,-0.0956
21.7,2.3186,0.06016,0.05538,-0.0981
21.8,2.3226,0.06112,0.05639,-0.1006
21.9,2.3264,0.06211,0.05743,-0.1032
22,2.3297,0.06322,0.05854,-0.1064
22.1,2.333,0.06418,0.05951,-0.1088
22.2,2.3363,0.06507,0.06043,-0.111
22.4,2.3364,0.06894,0.06466,-0.1199
22.5,2.3368,0.0706,0.06645,-0.1236
22.6,2.3367,0.07233,0.0683,-0.1274
22.7,2.3361,0.07414,0.07022,-0.1312
22.8,2.3352,0.076,0.0722,-0.1352
22.9,2.3338,0.07793,0.07423,-0.1392
23,2.3321,0.07991,0.07632,-0.1433
23.1,2.3282,0.08255,0.07905,-0.1487
23.2,2.3271,0.08423,0.08079,-0.1523
23.3,2.3262,0.08583,0.08245,-0.1557
23.4,2.3262,0.08717,0.08382,-0.1587
23.5,2.3264,0.08842,0.0851,-0.1616
23.6,2.3274,0.0894,0.08609,-0.164
23.7,2.3294,0.09014,0.08682,-0.1659
23.8,2.3322,0.09063,0.08729,-0.1675
23.9,2.3205,0.09487,0.09177,-0.1754
24,2.2847,0.10561,0.10298,-0.1937
24.1,2.262,0.11319,0.1108,-0.2059
24.2,2.2543,0.11691,0.11461,-0.2119
24.3,2.2545,0.11842,0.11614,-0.2147
24.4,2.2567,0.11936,0.11709,-0.2165
24.5,2.2604,0.11985,0.11758,-0.2178
24.6,2.269,0.11906,0.11673,-0.2173
24.7,2.2739,0.11918,0.11683,-0.218
24.8,2.2792,0.11921,0.11684,-0.2185
24.9,2.2847,0.11915,0.11675,-0.219
25,2.2907,0.119,0.11658,-0.2193

