airfoilName st7.dat
Re 	270000
M 	5.000000e-02
N 	4.500000e+00
VACC 	0 VACCflag 1
XTR 	1.00 	1.00 XTRflag 0
alpha,cl,cd,cdp,cm
-13.5,-1.1402,0.03789,0.03309,-0.0486
-13.4,-1.1329,0.03676,0.03179,-0.05
-13.3,-1.1255,0.03576,0.03062,-0.051
-13.2,-1.1178,0.03485,0.02956,-0.0518
-13.1,-1.1099,0.03405,0.02859,-0.0524
-13,-1.1018,0.03334,0.02782,-0.0528
-12.9,-1.0937,0.03271,0.02716,-0.0531
-12.8,-1.0851,0.03215,0.02656,-0.0534
-12.7,-1.0763,0.03162,0.026,-0.0536
-12.6,-1.0674,0.03112,0.02546,-0.0539
-12.5,-1.0582,0.03065,0.02495,-0.0541
-12.4,-1.0489,0.03019,0.02445,-0.0542
-12.3,-1.0395,0.02975,0.02396,-0.0544
-12.2,-1.03,0.02932,0.02349,-0.0546
-12.1,-1.0204,0.02889,0.02302,-0.0547
-12,-1.0107,0.02848,0.02257,-0.0548
-11.9,-1.0009,0.02808,0.02211,-0.055
-11.8,-0.991,0.02767,0.02166,-0.0551
-11.7,-0.9811,0.02727,0.02121,-0.0552
-11.6,-0.9711,0.02687,0.02076,-0.0553
-11.4,-0.95,0.02643,0.02022,-0.0555
-11.3,-0.94,0.026,0.01972,-0.0556
-11.2,-0.9298,0.02558,0.01923,-0.0556
-11.1,-0.9196,0.02516,0.01874,-0.0557
-11,-0.9093,0.02475,0.01826,-0.0558
-10.9,-0.8989,0.02435,0.01778,-0.0559
-10.8,-0.8885,0.02396,0.01731,-0.0559
-10.7,-0.878,0.02358,0.01685,-0.056
-10.6,-0.8673,0.02323,0.01641,-0.056
-10.5,-0.8566,0.02292,0.01604,-0.056
-10.4,-0.8462,0.0225,0.01561,-0.0561
-10.3,-0.8356,0.02215,0.01524,-0.0562
-10.2,-0.8249,0.02183,0.01491,-0.0563
-10.1,-0.8141,0.02154,0.01461,-0.0563
-10,-0.8032,0.02127,0.01431,-0.0564
-9.9,-0.7923,0.02101,0.01403,-0.0564
-9.8,-0.7814,0.02075,0.01374,-0.0565
-9.7,-0.7704,0.0205,0.01346,-0.0565
-9.6,-0.7594,0.02025,0.01318,-0.0566
-9.5,-0.7484,0.02,0.0129,-0.0566
-9.4,-0.7373,0.01975,0.01262,-0.0567
-9.3,-0.7263,0.0195,0.01233,-0.0567
-9.2,-0.7152,0.01925,0.01204,-0.0567
-9.1,-0.7041,0.019,0.01175,-0.0567
-9,-0.6929,0.01876,0.01145,-0.0568
-8.9,-0.6818,0.01852,0.01117,-0.0568
-8.8,-0.6706,0.0183,0.01089,-0.0568
-8.7,-0.6594,0.0181,0.01066,-0.0568
-8.6,-0.6484,0.01781,0.01037,-0.0568
-8.5,-0.6374,0.01758,0.01014,-0.0569
-8.4,-0.6262,0.01737,0.00993,-0.0569
-8.3,-0.6151,0.01717,0.00972,-0.0569
-8.2,-0.604,0.01699,0.00953,-0.0569
-8.1,-0.5928,0.01694,0.00948,-0.0569
-8,-0.5817,0.01675,0.00927,-0.0569
-7.9,-0.5706,0.01656,0.00904,-0.0569
-7.8,-0.5595,0.01637,0.00882,-0.0569
-7.7,-0.5484,0.01619,0.0086,-0.0568
-7.6,-0.5373,0.01602,0.0084,-0.0568
-7.5,-0.5262,0.01585,0.00821,-0.0568
-7.4,-0.5132,0.01561,0.00798,-0.0572
-7.3,-0.5001,0.01541,0.00779,-0.0576
-7.2,-0.486,0.01523,0.00761,-0.0582
-7.1,-0.473,0.01507,0.00744,-0.0586
-7,-0.46,0.01491,0.00726,-0.0589
-6.9,-0.4469,0.01483,0.00717,-0.0593
-6.8,-0.4327,0.01467,0.00697,-0.0599
-6.7,-0.4199,0.01452,0.00679,-0.0602
-6.6,-0.407,0.01436,0.00662,-0.0605
-6.5,-0.394,0.01417,0.00644,-0.0609
-6.4,-0.3801,0.01401,0.00629,-0.0614
-6.3,-0.3671,0.01387,0.00615,-0.0617
-6.2,-0.3544,0.01373,0.00601,-0.062
-6.1,-0.3415,0.0136,0.00586,-0.0623
-6,-0.3279,0.01348,0.00572,-0.0628
-5.9,-0.3146,0.01336,0.00558,-0.0631
-5.8,-0.302,0.01324,0.00548,-0.0634
-5.7,-0.2895,0.01311,0.00535,-0.0636
-5.6,-0.2767,0.01299,0.00523,-0.0639
-5.5,-0.2635,0.01288,0.00511,-0.0642
-5.4,-0.2508,0.01277,0.00499,-0.0645
-5.3,-0.2385,0.01267,0.00488,-0.0646
-5.2,-0.2261,0.01259,0.00476,-0.0648
-5.1,-0.2137,0.01246,0.00466,-0.065
-5,-0.2011,0.01236,0.00457,-0.0651
-4.9,-0.1892,0.01227,0.0045,-0.0652
-4.8,-0.1771,0.01219,0.00439,-0.0653
-4.7,-0.1649,0.01211,0.00429,-0.0654
-4.6,-0.1529,0.012,0.00421,-0.0655
-4.5,-0.1412,0.01192,0.00413,-0.0655
-4.4,-0.1294,0.01184,0.00405,-0.0655
-4.3,-0.1175,0.01177,0.00397,-0.0655
-4.2,-0.1058,0.01168,0.0039,-0.0656
-4.1,-0.094,0.0116,0.00383,-0.0656
-4,-0.0822,0.01153,0.00376,-0.0656
-3.9,-0.0708,0.01149,0.00368,-0.0655
-3.8,-0.0591,0.0114,0.00362,-0.0656
-3.7,-0.0474,0.01133,0.00356,-0.0656
-3.6,-0.0357,0.01128,0.00349,-0.0656
-3.5,-0.0242,0.01119,0.00344,-0.0656
-3.4,-0.0124,0.01113,0.00339,-0.0656
-3.3,-0.0007,0.01106,0.00332,-0.0656
-3.2,0.0106,0.01101,0.00327,-0.0655
-3.1,0.0223,0.01096,0.00322,-0.0655
-3,0.0341,0.01088,0.00317,-0.0656
-2.9,0.0457,0.01081,0.00312,-0.0656
-2.8,0.057,0.01077,0.00308,-0.0655
-2.7,0.0682,0.01073,0.00303,-0.0654
-2.6,0.0797,0.01069,0.003,-0.0653
-2.5,0.0906,0.01068,0.00295,-0.0651
-2.4,0.1023,0.0106,0.00292,-0.0652
-2.3,0.1139,0.01056,0.00289,-0.0652
-2.2,0.1253,0.01053,0.00285,-0.0651
-2.1,0.1369,0.0105,0.00282,-0.0651
-2,0.1484,0.01047,0.00278,-0.0651
-1.9,0.1601,0.0104,0.00275,-0.0652
-1.8,0.1718,0.01038,0.00272,-0.0652
-1.7,0.1833,0.01035,0.00269,-0.0652
-1.6,0.1946,0.01035,0.00266,-0.0651
-1.5,0.2062,0.01028,0.00263,-0.0652
-1.4,0.2178,0.01026,0.00261,-0.0652
-1.3,0.2294,0.01023,0.00259,-0.0652
-1.2,0.2412,0.0102,0.00257,-0.0653
-1.1,0.2529,0.01017,0.00254,-0.0653
-1,0.2639,0.01015,0.00253,-0.0652
-0.9,0.2753,0.01014,0.00252,-0.0652
-0.8,0.2869,0.01011,0.0025,-0.0653
-0.7,0.2985,0.01002,0.00248,-0.0654
-0.6,0.31,0.00999,0.00247,-0.0654
-0.5,0.3216,0.00995,0.00246,-0.0654
-0.4,0.3331,0.00991,0.00245,-0.0655
-0.3,0.3439,0.00983,0.00244,-0.0654
-0.2,0.3553,0.00975,0.00243,-0.0654
-0.1,0.3665,0.00968,0.00242,-0.0654
0,0.3765,0.00943,0.00242,-0.0651
0.1,0.3865,0.0093,0.00242,-0.0648
0.2,0.3958,0.00919,0.00242,-0.0642
0.3,0.4042,0.00908,0.00241,-0.0633
0.4,0.4093,0.00888,0.00235,-0.0615
0.5,0.4206,0.0089,0.00229,-0.0613
0.6,0.4344,0.0089,0.00226,-0.0617
0.7,0.4478,0.00892,0.00221,-0.0622
0.8,0.4596,0.00899,0.00224,-0.0622
0.9,0.4712,0.00908,0.00227,-0.0622
1,0.483,0.00915,0.00231,-0.0623
1.1,0.4946,0.00924,0.00234,-0.0623
1.2,0.5063,0.00932,0.00237,-0.0624
1.3,0.5179,0.00941,0.00241,-0.0624
1.4,0.5292,0.00955,0.00245,-0.0624
1.5,0.5408,0.00963,0.0025,-0.0625
1.6,0.5523,0.00974,0.00254,-0.0625
1.7,0.564,0.00982,0.00258,-0.0626
1.8,0.5755,0.00993,0.00263,-0.0626
1.9,0.587,0.01003,0.00267,-0.0627
2,0.5985,0.01013,0.00273,-0.0627
2.1,0.6099,0.01025,0.00278,-0.0627
2.3,0.6324,0.01053,0.0029,-0.0628
2.4,0.6438,0.01064,0.00296,-0.0628
2.5,0.6551,0.01077,0.00302,-0.0629
2.6,0.6664,0.01091,0.00308,-0.0629
2.7,0.6778,0.01103,0.00315,-0.063
2.8,0.6891,0.01116,0.00322,-0.063
2.9,0.7003,0.0113,0.0033,-0.063
3,0.7116,0.01143,0.00336,-0.0631
3.1,0.7229,0.01156,0.00344,-0.0631
3.2,0.7339,0.01175,0.00353,-0.0632
3.3,0.7452,0.01188,0.0036,-0.0632
3.4,0.7565,0.012,0.00368,-0.0633
3.5,0.7679,0.01212,0.00376,-0.0633
3.6,0.7792,0.01225,0.00383,-0.0634
3.7,0.7906,0.01236,0.00392,-0.0635
3.8,0.8021,0.01247,0.00399,-0.0635
3.9,0.8134,0.01258,0.00407,-0.0636
4,0.8247,0.01271,0.00416,-0.0636
4.1,0.836,0.01284,0.00425,-0.0637
4.2,0.8474,0.01294,0.00433,-0.0637
4.3,0.8588,0.01305,0.00442,-0.0638
4.4,0.87,0.01318,0.00451,-0.0638
4.5,0.8815,0.01328,0.0046,-0.0639
4.6,0.8929,0.01337,0.00468,-0.064
4.7,0.9043,0.01347,0.00477,-0.064
4.8,0.9156,0.01358,0.00486,-0.0641
4.9,0.9269,0.0137,0.00495,-0.0641
5,0.9381,0.01383,0.00505,-0.0642
5.1,0.9495,0.01393,0.00514,-0.0642
5.2,0.9608,0.01403,0.00523,-0.0643
5.3,0.9721,0.01413,0.00532,-0.0643
5.4,0.9834,0.01425,0.00542,-0.0644
5.5,0.9945,0.01437,0.00552,-0.0644
5.6,1.0057,0.01449,0.00562,-0.0644
5.7,1.0171,0.01458,0.00572,-0.0645
5.8,1.0284,0.01468,0.00581,-0.0645
5.9,1.0397,0.01478,0.00591,-0.0646
6,1.0509,0.01489,0.00602,-0.0646
6.1,1.062,0.01501,0.00612,-0.0647
6.2,1.0728,0.01517,0.00623,-0.0647
6.3,1.0842,0.01526,0.00633,-0.0647
6.4,1.0954,0.01536,0.00643,-0.0648
6.5,1.1066,0.01546,0.00654,-0.0648
6.6,1.1178,0.01558,0.00665,-0.0649
6.7,1.1288,0.0157,0.00676,-0.0649
6.8,1.1398,0.01582,0.00688,-0.0649
6.9,1.1507,0.01596,0.00699,-0.0649
7,1.1617,0.01609,0.00712,-0.0649
7.1,1.1729,0.01619,0.00723,-0.065
7.2,1.184,0.01629,0.00734,-0.065
7.3,1.195,0.0164,0.00745,-0.065
7.4,1.206,0.01653,0.00756,-0.0651
7.5,1.2168,0.01666,0.00769,-0.0651
7.6,1.2276,0.0168,0.00781,-0.0651
7.7,1.2383,0.01695,0.00795,-0.0651
7.8,1.2493,0.01706,0.00808,-0.0651
7.9,1.2603,0.01717,0.0082,-0.0651
8,1.2713,0.01728,0.00833,-0.0651
8.1,1.2821,0.01741,0.00846,-0.0651
8.2,1.2929,0.01753,0.00859,-0.0651
8.3,1.3037,0.01767,0.00872,-0.0651
8.5,1.3247,0.01798,0.00899,-0.0651
8.6,1.3354,0.01811,0.00914,-0.0651
8.7,1.3463,0.01822,0.00928,-0.0651
8.8,1.357,0.01835,0.00942,-0.0651
8.9,1.3677,0.01848,0.00956,-0.0651
9,1.3783,0.01861,0.00971,-0.0651
9.1,1.3889,0.01876,0.00985,-0.065
9.2,1.3993,0.01891,0.01,-0.065
9.3,1.4097,0.01906,0.01015,-0.065
9.4,1.42,0.01923,0.01031,-0.0649
9.5,1.4301,0.01941,0.01048,-0.0649
9.6,1.4409,0.0195,0.01061,-0.0649
9.7,1.4514,0.01964,0.01077,-0.0649
9.8,1.4618,0.01978,0.01093,-0.0648
9.9,1.4722,0.01993,0.01109,-0.0648
10,1.4824,0.02008,0.01126,-0.0647
10.1,1.4926,0.02024,0.01142,-0.0647
10.2,1.5027,0.02041,0.01159,-0.0646
10.3,1.5126,0.02059,0.01176,-0.0645
10.4,1.5224,0.02078,0.01194,-0.0644
10.5,1.5326,0.02093,0.01213,-0.0644
10.6,1.5429,0.02107,0.0123,-0.0643
10.7,1.5531,0.02122,0.01249,-0.0642
10.8,1.5631,0.02138,0.01267,-0.0642
10.9,1.573,0.02153,0.01282,-0.0641
11,1.5829,0.0217,0.013,-0.064
11.1,1.5926,0.02188,0.01319,-0.0639
11.2,1.6022,0.02206,0.01338,-0.0638
11.3,1.6117,0.02226,0.01357,-0.0636
11.4,1.6209,0.02247,0.01377,-0.0635
11.5,1.6307,0.02264,0.01397,-0.0634
11.6,1.6406,0.0228,0.01417,-0.0633
11.7,1.6503,0.02296,0.01439,-0.0632
11.8,1.6599,0.02314,0.01459,-0.0631
11.9,1.6694,0.02332,0.0148,-0.0629
12,1.6788,0.0235,0.01501,-0.0628
12.1,1.6878,0.02368,0.01518,-0.0626
12.2,1.6969,0.02388,0.01539,-0.0624
12.3,1.7058,0.02409,0.01561,-0.0623
12.4,1.7145,0.02432,0.01583,-0.0621
12.5,1.723,0.02456,0.01607,-0.0618
12.6,1.7323,0.02473,0.01629,-0.0617
12.7,1.7415,0.02491,0.01652,-0.0615
12.8,1.7505,0.0251,0.01675,-0.0613
12.9,1.7594,0.0253,0.017,-0.0611
13,1.7681,0.0255,0.01723,-0.0609
13.1,1.7767,0.02571,0.01747,-0.0607
13.2,1.7851,0.02593,0.01771,-0.0604
13.3,1.7934,0.02615,0.01795,-0.0602
13.4,1.8014,0.02638,0.01819,-0.0599
13.5,1.8093,0.02661,0.01844,-0.0596
13.6,1.8164,0.02687,0.01868,-0.0592
13.7,1.8236,0.02714,0.01895,-0.0589
13.8,1.8319,0.02734,0.0192,-0.0586
13.9,1.84,0.02755,0.01947,-0.0583
14,1.8478,0.02777,0.01973,-0.058
14.1,1.8554,0.02799,0.02,-0.0576
14.2,1.8627,0.02823,0.02028,-0.0573
14.3,1.8698,0.02847,0.02057,-0.0569
14.4,1.8767,0.02871,0.02084,-0.0565
14.5,1.8833,0.02896,0.02112,-0.056
14.6,1.8896,0.02922,0.02141,-0.0555
14.7,1.8957,0.02948,0.0217,-0.055
14.8,1.9014,0.02976,0.02199,-0.0545
14.9,1.9066,0.03004,0.02229,-0.0539
15,1.9106,0.03033,0.0226,-0.0531
15.1,1.9136,0.03064,0.0229,-0.0523
15.2,1.9189,0.03089,0.02322,-0.0517
15.3,1.9241,0.03116,0.02355,-0.0511
15.4,1.9291,0.03144,0.02388,-0.0505
15.5,1.9341,0.03173,0.02423,-0.05
15.6,1.939,0.03203,0.02458,-0.0495
15.7,1.9439,0.03235,0.02493,-0.049
15.8,1.9487,0.03267,0.0253,-0.0486
15.9,1.9534,0.03299,0.02567,-0.0482
16,1.9581,0.03333,0.02604,-0.0478
16.1,1.9627,0.03368,0.02644,-0.0475
16.2,1.9672,0.03404,0.02683,-0.0472
16.3,1.9717,0.03441,0.02724,-0.047
16.4,1.9761,0.03479,0.02765,-0.0468
16.5,1.9804,0.0352,0.02808,-0.0466
16.6,1.9845,0.03562,0.02852,-0.0466
16.7,1.9885,0.03606,0.02898,-0.0465
16.8,1.9933,0.03647,0.02943,-0.0465
16.9,1.9988,0.03682,0.02987,-0.0465
17,2.0042,0.0372,0.03031,-0.0466
17.1,2.0095,0.03759,0.03077,-0.0467
17.2,2.0151,0.03794,0.03119,-0.0469
17.3,2.0203,0.03836,0.03167,-0.0471
17.4,2.0254,0.03879,0.03215,-0.0474
17.5,2.0305,0.03923,0.03264,-0.0477
17.6,2.0356,0.03968,0.03313,-0.0481
17.7,2.0407,0.04014,0.03364,-0.0486
17.8,2.0458,0.04061,0.03416,-0.0491
17.9,2.0508,0.0411,0.03469,-0.0497
18,2.0558,0.04161,0.03524,-0.0504
18.1,2.0607,0.04213,0.0358,-0.0512
18.2,2.0656,0.04268,0.03638,-0.052
18.3,2.0705,0.04325,0.03698,-0.053
18.4,2.0752,0.04384,0.0376,-0.054
18.5,2.0811,0.04434,0.03817,-0.0548
18.6,2.0878,0.04477,0.03872,-0.0557
18.7,2.0935,0.0453,0.03933,-0.0567
18.8,2.0991,0.04586,0.03995,-0.0578
18.9,2.1048,0.04643,0.04058,-0.0589
19,2.1104,0.04702,0.04124,-0.0601
19.1,2.1162,0.04762,0.04189,-0.0616
19.2,2.1218,0.04826,0.04259,-0.063
19.3,2.1272,0.04893,0.04331,-0.0646
19.4,2.1324,0.0497,0.0441,-0.0666
19.5,2.1376,0.05047,0.04491,-0.0685
19.6,2.1425,0.05128,0.04576,-0.0704
19.7,2.1472,0.05214,0.04666,-0.0725
19.8,2.1524,0.05292,0.04753,-0.0743
19.9,2.1577,0.05369,0.04839,-0.076
20,2.1628,0.05449,0.04928,-0.0778
20.1,2.1677,0.05534,0.05022,-0.0797
20.2,2.1723,0.05623,0.0512,-0.0817
20.3,2.1767,0.05717,0.05222,-0.0838
20.4,2.1809,0.05815,0.05329,-0.086
20.5,2.1848,0.05919,0.05441,-0.0883
20.6,2.1883,0.06046,0.05574,-0.0913
20.7,2.1913,0.06168,0.05703,-0.0939
20.8,2.194,0.06296,0.05838,-0.0967
21,2.1971,0.06609,0.06162,-0.1033
21.1,2.1982,0.06767,0.06326,-0.1065
21.2,2.1988,0.06932,0.06497,-0.1098
21.3,2.1995,0.07092,0.06666,-0.1129
21.4,2.2004,0.07252,0.06837,-0.1159
21.5,2.2006,0.07423,0.07019,-0.119
21.6,2.2004,0.07603,0.0721,-0.1223
21.7,2.1997,0.07791,0.07409,-0.1257
21.8,2.1985,0.07986,0.07614,-0.1292
21.9,2.197,0.08189,0.07827,-0.1327
22,2.195,0.08398,0.08046,-0.1364
22.1,2.1926,0.08615,0.08272,-0.1402
22.2,2.1899,0.08833,0.08499,-0.1441
22.3,2.1873,0.09042,0.08716,-0.1478
22.4,2.1842,0.09262,0.08944,-0.1517
22.5,2.1814,0.09471,0.0916,-0.1554
22.6,2.1753,0.09771,0.09461,-0.1607
22.7,2.1728,0.09967,0.0966,-0.1643
22.8,2.1715,0.1013,0.09825,-0.1674
22.9,2.1668,0.10402,0.10108,-0.1719
23,2.162,0.10679,0.10398,-0.1763
23.1,2.1557,0.11,0.10732,-0.1814
23.2,2.1499,0.11312,0.11055,-0.1862
23.3,2.1427,0.11675,0.11429,-0.1916
23.4,2.1348,0.12065,0.11831,-0.1973
23.5,2.1289,0.12406,0.1218,-0.2022
23.6,2.1222,0.1278,0.12563,-0.2074
23.7,2.1205,0.13004,0.1279,-0.2106
23.8,2.121,0.13164,0.12951,-0.2131
23.9,2.1228,0.13285,0.13072,-0.215
24,2.1256,0.13372,0.13159,-0.2166
24.1,2.1293,0.13429,0.13214,-0.2177
24.9,2.0822,0.16657,0.16491,-0.2569
25,2.0916,0.1649,0.16321,-0.2556

