airfoilName st7.dat
Re 	670000
M 	5.000000e-02
N 	4.500000e+00
VACC 	0 VACCflag 1
XTR 	1.00 	1.00 XTRflag 0
alpha,cl,cd,cdp,cm
-15.9,-1.4004,0.03678,0.03319,-0.0455
-15.8,-1.3924,0.03543,0.03173,-0.0479
-15.7,-1.385,0.0344,0.03061,-0.0493
-15.6,-1.3776,0.03354,0.02966,-0.0504
-15.5,-1.3703,0.03277,0.02881,-0.0512
-15.4,-1.3628,0.03206,0.02803,-0.0518
-15.3,-1.3551,0.03141,0.02731,-0.0523
-15.2,-1.3473,0.0308,0.02663,-0.0527
-15.1,-1.3393,0.03021,0.02599,-0.053
-15,-1.3312,0.02967,0.02538,-0.0533
-14.9,-1.3228,0.02914,0.02479,-0.0535
-14.8,-1.3143,0.02864,0.02423,-0.0537
-14.7,-1.3057,0.02815,0.02369,-0.0539
-14.6,-1.2969,0.02769,0.02317,-0.054
-14.5,-1.288,0.02724,0.02266,-0.0541
-14.4,-1.2789,0.0268,0.02217,-0.0543
-14.3,-1.2697,0.02638,0.0217,-0.0544
-14.2,-1.2604,0.02597,0.02124,-0.0544
-14.1,-1.251,0.02558,0.0208,-0.0545
-14,-1.2415,0.0252,0.02036,-0.0546
-13.9,-1.2318,0.02483,0.01994,-0.0547
-13.8,-1.2221,0.02447,0.01953,-0.0547
-13.7,-1.2122,0.02412,0.01913,-0.0548
-13.6,-1.2023,0.02378,0.01874,-0.0548
-13.5,-1.1922,0.02346,0.01838,-0.0549
-13.4,-1.1821,0.02315,0.01802,-0.0549
-13.3,-1.1719,0.02285,0.01767,-0.0549
-13.2,-1.1616,0.02256,0.01734,-0.055
-13.1,-1.1511,0.02229,0.01703,-0.055
-13,-1.1406,0.02203,0.01673,-0.0551
-12.9,-1.1301,0.02178,0.01644,-0.0551
-12.8,-1.1201,0.02137,0.016,-0.0552
-12.7,-1.1098,0.02099,0.01559,-0.0552
-12.6,-1.0994,0.02066,0.01521,-0.0553
-12.5,-1.0889,0.02034,0.01486,-0.0553
-12.4,-1.0783,0.02005,0.01455,-0.0554
-12.3,-1.0675,0.01978,0.01424,-0.0555
-12.2,-1.0568,0.01952,0.01396,-0.0555
-12.1,-1.0459,0.01927,0.01368,-0.0555
-12,-1.035,0.01903,0.01342,-0.0556
-11.9,-1.024,0.0188,0.01316,-0.0556
-11.8,-1.013,0.01857,0.01291,-0.0557
-11.7,-1.002,0.01835,0.01267,-0.0557
-11.6,-0.9909,0.01814,0.01243,-0.0558
-11.5,-0.9798,0.01792,0.0122,-0.0558
-11.4,-0.9686,0.01772,0.01196,-0.0559
-11.3,-0.9574,0.01752,0.01173,-0.0559
-11.2,-0.9462,0.01732,0.01151,-0.056
-11.1,-0.935,0.01712,0.01129,-0.056
-11,-0.9237,0.01693,0.01108,-0.0561
-10.9,-0.9124,0.01674,0.01086,-0.0561
-10.8,-0.9011,0.01656,0.01065,-0.0562
-10.7,-0.8897,0.01637,0.01045,-0.0562
-10.6,-0.8784,0.0162,0.01024,-0.0563
-10.5,-0.867,0.01602,0.01004,-0.0563
-10.4,-0.8556,0.01585,0.00985,-0.0564
-10.3,-0.8441,0.01569,0.00966,-0.0564
-10.2,-0.8327,0.01553,0.00947,-0.0565
-10.1,-0.8212,0.01538,0.0093,-0.0565
-10,-0.8097,0.01522,0.00913,-0.0566
-9.9,-0.7983,0.01501,0.0089,-0.0566
-9.8,-0.7869,0.01482,0.0087,-0.0567
-9.7,-0.7754,0.01465,0.00852,-0.0568
-9.6,-0.7639,0.01449,0.00835,-0.0568
-9.5,-0.7521,0.01433,0.00819,-0.0569
-9.4,-0.7395,0.01418,0.00803,-0.0572
-9.3,-0.7266,0.01404,0.00787,-0.0576
-9.2,-0.7135,0.0139,0.00772,-0.0579
-9.1,-0.7008,0.01376,0.00757,-0.0582
-9,-0.6879,0.01362,0.00742,-0.0586
-8.9,-0.6751,0.01349,0.00727,-0.0589
-8.8,-0.6625,0.01337,0.00713,-0.0591
-8.7,-0.6498,0.0133,0.00705,-0.0594
-8.6,-0.6373,0.01318,0.00692,-0.0596
-8.5,-0.6248,0.01308,0.0068,-0.0598
-8.4,-0.6125,0.01292,0.00664,-0.06
-8.3,-0.6003,0.01279,0.00649,-0.0602
-8.2,-0.5883,0.01266,0.00636,-0.0603
-8.1,-0.5764,0.01255,0.00624,-0.0603
-8,-0.5645,0.01244,0.00613,-0.0604
-7.9,-0.5528,0.01234,0.00601,-0.0605
-7.8,-0.541,0.01224,0.0059,-0.0605
-7.7,-0.5297,0.01216,0.0058,-0.0604
-7.6,-0.5181,0.01207,0.00569,-0.0604
-7.5,-0.5065,0.01198,0.00559,-0.0604
-7.4,-0.4948,0.01189,0.00548,-0.0604
-7.3,-0.4836,0.01182,0.00539,-0.0603
-7.2,-0.4721,0.01176,0.00529,-0.0602
-7.1,-0.4605,0.01165,0.00518,-0.0603
-7,-0.4488,0.01154,0.00507,-0.0603
-6.9,-0.4376,0.01146,0.00497,-0.0602
-6.8,-0.4261,0.01138,0.00488,-0.0602
-6.7,-0.4143,0.0113,0.00479,-0.0602
-6.6,-0.4025,0.01122,0.0047,-0.0602
-6.5,-0.3908,0.01114,0.00461,-0.0603
-6.4,-0.3795,0.01109,0.00453,-0.0602
-6.3,-0.3677,0.01104,0.00446,-0.0602
-6.2,-0.3558,0.01095,0.00437,-0.0603
-6.1,-0.3441,0.01087,0.00428,-0.0603
-6,-0.3323,0.01079,0.00419,-0.0603
-5.9,-0.3205,0.01072,0.00411,-0.0603
-5.8,-0.3089,0.01065,0.00404,-0.0603
-5.7,-0.2971,0.01059,0.00396,-0.0604
-5.6,-0.2853,0.01054,0.00389,-0.0604
-5.5,-0.2734,0.01048,0.00382,-0.0605
-5.4,-0.2615,0.01041,0.00374,-0.0605
-5.3,-0.2496,0.01034,0.00367,-0.0606
-5.2,-0.238,0.01029,0.0036,-0.0606
-5.1,-0.226,0.01022,0.00353,-0.0607
-5,-0.2141,0.01017,0.00347,-0.0607
-4.9,-0.2022,0.01012,0.0034,-0.0608
-4.8,-0.1903,0.01008,0.00334,-0.0608
-4.7,-0.1783,0.01002,0.00327,-0.0609
-4.6,-0.1666,0.00997,0.00321,-0.0609
-4.5,-0.1547,0.00991,0.00316,-0.061
-4.4,-0.1427,0.00986,0.0031,-0.0611
-4.3,-0.1307,0.00981,0.00305,-0.0611
-4.2,-0.1188,0.00977,0.00299,-0.0612
-4.1,-0.1069,0.00972,0.00294,-0.0613
-4,-0.0949,0.00967,0.00289,-0.0614
-3.9,-0.0834,0.00967,0.00285,-0.0613
-3.8,-0.0716,0.00965,0.0028,-0.0614
-3.7,-0.0599,0.00962,0.00275,-0.0614
-3.6,-0.0479,0.00957,0.0027,-0.0615
-3.5,-0.0359,0.00954,0.00266,-0.0616
-3.4,-0.0241,0.00953,0.00263,-0.0616
-3.3,-0.0124,0.00952,0.00258,-0.0617
-3.2,-0.0004,0.00949,0.00255,-0.0618
-3.1,0.0114,0.00948,0.00252,-0.0618
-3,0.0234,0.00945,0.00247,-0.0619
-2.9,0.0353,0.0094,0.00244,-0.062
-2.8,0.047,0.00942,0.00242,-0.062
-2.7,0.059,0.00939,0.00238,-0.0621
-2.6,0.071,0.00936,0.00235,-0.0622
-2.5,0.0829,0.00935,0.00233,-0.0623
-2.4,0.0949,0.0093,0.0023,-0.0625
-2.3,0.1066,0.00932,0.00227,-0.0625
-2.2,0.1184,0.00933,0.00226,-0.0626
-2.1,0.1301,0.00936,0.00225,-0.0627
-2,0.142,0.00934,0.00222,-0.0628
-1.9,0.154,0.0093,0.0022,-0.0629
-1.8,0.1659,0.00929,0.0022,-0.063
-1.7,0.1779,0.00928,0.00218,-0.0631
-1.6,0.1898,0.00927,0.00217,-0.0632
-1.5,0.2017,0.00928,0.00216,-0.0633
-1.4,0.2132,0.00932,0.00217,-0.0634
-1.3,0.2252,0.00931,0.00216,-0.0635
-1.2,0.2371,0.0093,0.00216,-0.0637
-1.1,0.2491,0.0093,0.00215,-0.0638
-1,0.261,0.00927,0.00214,-0.0639
-0.9,0.273,0.00927,0.00214,-0.064
-0.8,0.2849,0.00928,0.00214,-0.0641
-0.7,0.2966,0.00933,0.00215,-0.0642
-0.6,0.3085,0.0093,0.00215,-0.0644
-0.5,0.3204,0.0093,0.00215,-0.0645
-0.4,0.3323,0.00931,0.00216,-0.0646
-0.3,0.3443,0.00931,0.00215,-0.0647
-0.2,0.3561,0.00932,0.00216,-0.0649
-0.1,0.368,0.00928,0.00217,-0.065
0,0.3799,0.00929,0.00218,-0.0651
0.1,0.3918,0.0093,0.00219,-0.0653
0.2,0.4034,0.00932,0.00221,-0.0654
0.3,0.4152,0.00933,0.00222,-0.0655
0.4,0.427,0.00934,0.00224,-0.0657
0.5,0.4389,0.0093,0.00225,-0.0658
0.6,0.4506,0.00931,0.00227,-0.0659
0.7,0.4624,0.00932,0.00229,-0.0661
0.8,0.4742,0.00934,0.00231,-0.0662
0.9,0.4859,0.00929,0.00233,-0.0664
1,0.4976,0.0093,0.00236,-0.0665
1.1,0.509,0.00938,0.0024,-0.0666
1.2,0.5205,0.0093,0.00243,-0.0668
1.3,0.532,0.0093,0.00247,-0.0669
1.4,0.5434,0.00928,0.0025,-0.0669
1.5,0.554,0.00917,0.00255,-0.0668
1.6,0.565,0.00919,0.0026,-0.0668
1.7,0.5757,0.0092,0.00264,-0.0666
1.8,0.584,0.0091,0.00268,-0.0659
1.9,0.5934,0.00912,0.00271,-0.0654
2,0.6025,0.00918,0.00275,-0.0648
2.1,0.6122,0.0092,0.00276,-0.0644
2.2,0.6239,0.00917,0.00273,-0.0644
2.3,0.6366,0.0092,0.00273,-0.0647
2.4,0.6483,0.00929,0.00277,-0.0648
2.5,0.6601,0.00936,0.00282,-0.0649
2.6,0.672,0.00943,0.00286,-0.065
2.7,0.6837,0.0095,0.00291,-0.0651
2.8,0.6955,0.00957,0.00296,-0.0652
2.9,0.7072,0.00966,0.00301,-0.0653
3,0.7189,0.00974,0.00306,-0.0654
3.1,0.7307,0.0098,0.0031,-0.0655
3.2,0.7425,0.00988,0.00315,-0.0656
3.3,0.7542,0.00996,0.0032,-0.0656
3.4,0.7659,0.01003,0.00326,-0.0657
3.5,0.7777,0.01009,0.00331,-0.0658
3.6,0.7895,0.01015,0.00335,-0.0659
3.7,0.8012,0.01022,0.0034,-0.066
3.8,0.8129,0.01029,0.00345,-0.0661
3.9,0.8246,0.01037,0.0035,-0.0662
4,0.8362,0.01046,0.00357,-0.0663
4.1,0.8479,0.01052,0.00362,-0.0664
4.2,0.8596,0.01059,0.00367,-0.0665
4.3,0.8713,0.01066,0.00373,-0.0666
4.4,0.883,0.01074,0.00378,-0.0667
4.5,0.8946,0.01082,0.00384,-0.0668
4.6,0.9062,0.0109,0.00391,-0.0669
4.7,0.9179,0.01096,0.00396,-0.067
4.8,0.9295,0.01103,0.00401,-0.0671
4.9,0.9412,0.01109,0.00407,-0.0672
5,0.9527,0.01118,0.00413,-0.0672
5.1,0.9642,0.01127,0.0042,-0.0673
5.2,0.9757,0.01136,0.00426,-0.0674
5.3,0.9873,0.01143,0.00433,-0.0675
5.4,0.9989,0.0115,0.00439,-0.0676
5.5,1.0105,0.01157,0.00445,-0.0677
5.6,1.0221,0.01164,0.00452,-0.0677
5.7,1.0336,0.01171,0.00458,-0.0678
5.8,1.0451,0.0118,0.00465,-0.0679
5.9,1.0566,0.01188,0.00472,-0.068
6,1.068,0.01197,0.0048,-0.0681
6.1,1.0794,0.01207,0.00487,-0.0681
6.2,1.0909,0.01214,0.00494,-0.0682
6.3,1.1024,0.01221,0.00501,-0.0683
6.4,1.1138,0.01229,0.00508,-0.0684
6.5,1.1252,0.01238,0.00515,-0.0684
6.6,1.1366,0.01246,0.00523,-0.0685
6.7,1.1479,0.01256,0.00531,-0.0686
6.8,1.1592,0.01266,0.00539,-0.0686
6.9,1.1706,0.01275,0.00548,-0.0687
7,1.182,0.01282,0.00556,-0.0688
7.1,1.1934,0.0129,0.00563,-0.0688
7.2,1.2046,0.01299,0.00571,-0.0689
7.3,1.2159,0.01308,0.00579,-0.069
7.4,1.2272,0.01318,0.00588,-0.069
7.5,1.2384,0.01328,0.00597,-0.0691
7.6,1.2495,0.01338,0.00606,-0.0691
7.7,1.2607,0.01349,0.00616,-0.0692
7.8,1.272,0.01357,0.00624,-0.0692
7.9,1.2832,0.01365,0.00633,-0.0693
8,1.2944,0.01374,0.00641,-0.0693
8.1,1.3056,0.01383,0.0065,-0.0694
8.2,1.3168,0.01392,0.00659,-0.0694
8.3,1.3277,0.01404,0.00669,-0.0695
8.4,1.3388,0.01415,0.00679,-0.0695
8.5,1.3497,0.01427,0.00689,-0.0695
8.6,1.3607,0.01438,0.007,-0.0696
8.7,1.3719,0.01446,0.00709,-0.0696
8.8,1.3829,0.01455,0.00719,-0.0696
8.9,1.394,0.01465,0.00729,-0.0697
9,1.405,0.01475,0.00739,-0.0697
9.1,1.416,0.01485,0.00749,-0.0697
9.2,1.4269,0.01496,0.00759,-0.0698
9.3,1.4377,0.01507,0.0077,-0.0698
9.4,1.4485,0.01519,0.00782,-0.0698
9.5,1.4593,0.01531,0.00793,-0.0698
9.6,1.47,0.01545,0.00806,-0.0698
9.7,1.4809,0.01554,0.00816,-0.0698
9.8,1.4917,0.01565,0.00827,-0.0698
9.9,1.5025,0.01575,0.00838,-0.0698
10,1.5133,0.01586,0.0085,-0.0699
10.1,1.524,0.01598,0.00861,-0.0699
10.2,1.5346,0.0161,0.00873,-0.0699
10.3,1.5452,0.01622,0.00885,-0.0698
10.4,1.5557,0.01635,0.00898,-0.0698
10.5,1.5662,0.01649,0.00911,-0.0698
10.6,1.5766,0.01664,0.00925,-0.0698
10.7,1.5872,0.01674,0.00937,-0.0698
10.8,1.5978,0.01685,0.00949,-0.0698
10.9,1.6083,0.01697,0.00962,-0.0697
11,1.6188,0.01709,0.00975,-0.0697
11.1,1.6292,0.01722,0.00988,-0.0697
11.2,1.6395,0.01735,0.01001,-0.0696
11.3,1.6498,0.01748,0.01015,-0.0696
11.4,1.66,0.01763,0.0103,-0.0695
11.5,1.6702,0.01777,0.01044,-0.0695
11.6,1.6802,0.01793,0.01059,-0.0694
11.7,1.6902,0.01809,0.01076,-0.0693
11.8,1.7005,0.01821,0.01089,-0.0693
11.9,1.7107,0.01833,0.01103,-0.0692
12,1.7209,0.01845,0.01117,-0.0692
12.1,1.7309,0.01859,0.01131,-0.0691
12.2,1.7409,0.01873,0.01146,-0.069
12.3,1.7508,0.01888,0.01161,-0.069
12.4,1.7606,0.01903,0.01176,-0.0689
12.5,1.7704,0.01919,0.01192,-0.0688
12.6,1.78,0.01935,0.01209,-0.0686
12.7,1.7896,0.01952,0.01227,-0.0685
12.8,1.799,0.0197,0.01245,-0.0684
12.9,1.8086,0.01986,0.01262,-0.0683
13,1.8183,0.01999,0.01278,-0.0681
13.1,1.828,0.02013,0.01294,-0.068
13.2,1.8376,0.02028,0.0131,-0.0679
13.3,1.847,0.02044,0.01326,-0.0678
13.4,1.8563,0.0206,0.01344,-0.0676
13.5,1.8656,0.02076,0.01361,-0.0674
13.6,1.8747,0.02093,0.01379,-0.0673
13.7,1.8837,0.02111,0.01398,-0.0671
13.8,1.8926,0.0213,0.01417,-0.0669
13.9,1.9014,0.02149,0.01437,-0.0667
14,1.91,0.02169,0.01458,-0.0664
14.1,1.9184,0.02191,0.01481,-0.0662
14.2,1.9275,0.02205,0.01498,-0.066
14.3,1.9364,0.02221,0.01516,-0.0658
14.4,1.9451,0.02238,0.01535,-0.0655
14.5,1.9537,0.02255,0.01555,-0.0653
14.6,1.9622,0.02273,0.01574,-0.065
14.7,1.9705,0.02291,0.01594,-0.0648
14.8,1.9787,0.0231,0.01615,-0.0645
14.9,1.9863,0.02331,0.01636,-0.0641
15,1.994,0.02352,0.01658,-0.0638
15.1,2.001,0.02377,0.01682,-0.0634
15.2,2.0082,0.024,0.01706,-0.0629
15.3,2.0151,0.02424,0.01731,-0.0625
15.4,2.0224,0.02444,0.01754,-0.0621
15.5,2.0298,0.02462,0.01776,-0.0617
15.6,2.0369,0.02481,0.01798,-0.0612
15.7,2.0438,0.02501,0.01821,-0.0608
15.8,2.0505,0.02522,0.01844,-0.0603
15.9,2.0569,0.02543,0.01868,-0.0598
16,2.0631,0.02565,0.01892,-0.0592
16.1,2.0686,0.02588,0.01917,-0.0586
16.2,2.073,0.02611,0.01943,-0.0578
16.3,2.0764,0.0264,0.01972,-0.0568
16.4,2.0803,0.02667,0.02001,-0.056
16.5,2.0841,0.02695,0.02032,-0.0552
16.6,2.088,0.02725,0.02063,-0.0544
16.7,2.0919,0.02756,0.02096,-0.0537
16.8,2.0954,0.02791,0.02133,-0.0531
17,2.1055,0.02844,0.02193,-0.0521
17.1,2.1104,0.02874,0.02225,-0.0516
17.2,2.1151,0.02904,0.02259,-0.0512
17.3,2.1199,0.02935,0.02294,-0.0508
17.4,2.1246,0.02967,0.02329,-0.0505
17.5,2.1293,0.03,0.02365,-0.0502
17.6,2.134,0.03035,0.02403,-0.0499
17.7,2.1387,0.0307,0.02441,-0.0497
17.8,2.1432,0.03107,0.02481,-0.0495
17.9,2.1477,0.03145,0.02522,-0.0494
18,2.1522,0.03185,0.02564,-0.0493
18.1,2.1565,0.03226,0.02608,-0.0492
18.2,2.1608,0.03269,0.02653,-0.0493
18.3,2.1651,0.03314,0.027,-0.0493
18.4,2.17,0.03354,0.02746,-0.0494
18.5,2.1754,0.03391,0.02786,-0.0496
18.6,2.1808,0.03429,0.02829,-0.0498
18.7,2.1861,0.03469,0.02873,-0.05
18.8,2.1914,0.0351,0.02918,-0.0503
18.9,2.1967,0.03552,0.02964,-0.0507
19,2.202,0.03596,0.03012,-0.0511
19.1,2.2072,0.03641,0.0306,-0.0515
19.2,2.2121,0.03692,0.03114,-0.0521
19.3,2.2172,0.03741,0.03167,-0.0527
19.4,2.2224,0.03792,0.03221,-0.0534
19.5,2.2263,0.03858,0.03288,-0.0544
19.6,2.2312,0.03916,0.03349,-0.0552
19.7,2.236,0.03976,0.03412,-0.0562
19.8,2.2416,0.04028,0.0347,-0.0571
19.9,2.2474,0.04079,0.03525,-0.058
20,2.2531,0.04132,0.03583,-0.059
20.1,2.2588,0.04188,0.03644,-0.0601
20.2,2.2643,0.04246,0.03706,-0.0612
20.3,2.2699,0.04307,0.03771,-0.0624
20.4,2.2753,0.0437,0.03839,-0.0637
20.5,2.2806,0.04437,0.03911,-0.0651
20.6,2.2859,0.04507,0.03985,-0.0666
20.7,2.291,0.04581,0.04064,-0.0682
20.8,2.2959,0.0466,0.04147,-0.0699
20.9,2.3005,0.04745,0.04237,-0.0717
21,2.3026,0.04881,0.04375,-0.0746
21.1,2.307,0.04972,0.04473,-0.0766
21.2,2.3117,0.0506,0.04567,-0.0784
21.3,2.316,0.05155,0.04667,-0.0804
21.4,2.32,0.05256,0.04775,-0.0826
21.5,2.3235,0.05366,0.04891,-0.0848
21.6,2.3267,0.05485,0.05017,-0.0872
21.7,2.3293,0.05615,0.05153,-0.0898
21.8,2.3314,0.05755,0.053,-0.0926
21.9,2.3328,0.05908,0.0546,-0.0955
22,2.3335,0.06078,0.05638,-0.0987
22.1,2.3332,0.06266,0.05834,-0.1021
22.2,2.3319,0.06475,0.06052,-0.1058
22.3,2.3292,0.06713,0.06299,-0.11
22.4,2.325,0.06983,0.06579,-0.1145
22.5,2.3195,0.07279,0.06886,-0.1193
22.6,2.3121,0.07618,0.07238,-0.1247
22.7,2.3032,0.07989,0.07621,-0.1304
22.8,2.295,0.08338,0.07985,-0.1357
22.9,2.2871,0.08673,0.08332,-0.1409
23,2.2791,0.09001,0.08671,-0.146
23.1,2.2716,0.0931,0.08991,-0.151
23.2,2.2653,0.09585,0.09275,-0.1556
23.3,2.2572,0.09898,0.09598,-0.1608
23.4,2.2502,0.10179,0.09888,-0.1657
23.5,2.2444,0.10435,0.10151,-0.1702
23.6,2.2376,0.10717,0.10442,-0.175
23.7,2.2328,0.10958,0.1069,-0.1792
23.8,2.2277,0.11216,0.10955,-0.1835
23.9,2.2224,0.11488,0.11233,-0.188
24,2.2192,0.11714,0.11464,-0.1916
24.1,2.2128,0.12029,0.11786,-0.1964
24.2,2.2095,0.12271,0.12032,-0.2001
24.3,2.2055,0.12538,0.12304,-0.204
24.4,2.1999,0.12854,0.12626,-0.2085
24.5,2.1982,0.13065,0.12843,-0.2115
24.6,2.1976,0.1325,0.13031,-0.2142
24.7,2.1946,0.13506,0.13293,-0.2177
24.8,2.1925,0.13738,0.1353,-0.2208
24.9,2.1914,0.1394,0.13735,-0.2236
25,2.1903,0.14141,0.13939,-0.2263
25.1,2.187,0.14411,0.14213,-0.2299
25.2,2.1839,0.1468,0.14487,-0.2334
25.3,2.182,0.14911,0.1472,-0.2364
25.4,2.1799,0.15151,0.14962,-0.2396
25.5,2.1753,0.15475,0.15292,-0.2436
25.6,2.1741,0.15692,0.15513,-0.2464
25.7,2.1734,0.15892,0.15716,-0.249
25.8,2.1728,0.16092,0.15918,-0.2516
25.9,2.1718,0.16307,0.16135,-0.2543
26,2.1676,0.16632,0.16465,-0.2583
26.1,2.1655,0.16887,0.16722,-0.2614
26.2,2.1639,0.17126,0.16963,-0.2645
26.3,2.1593,0.17479,0.17318,-0.2687
26.4,2.1562,0.17782,0.17626,-0.2723
26.5,2.1552,0.18008,0.17853,-0.2751
26.6,2.1543,0.18235,0.18081,-0.2779
26.7,2.1526,0.18493,0.18341,-0.2811
26.8,2.149,0.18831,0.18684,-0.285
26.9,2.1481,0.19065,0.1892,-0.2879
27,2.1478,0.19275,0.19133,-0.2905
27.1,2.1474,0.19492,0.19351,-0.2931
27.2,2.1468,0.19717,0.19577,-0.2959
27.3,2.1445,0.20021,0.19884,-0.2994
27.4,2.1425,0.20319,0.20183,-0.3029
27.5,2.1422,0.20537,0.20405,-0.3055
27.6,2.1425,0.20729,0.20597,-0.3079
27.7,2.143,0.20916,0.20786,-0.3103
27.8,2.1432,0.21112,0.20984,-0.3127
27.9,2.1428,0.21347,0.21221,-0.3155
28,2.1419,0.21607,0.21484,-0.3185
28.1,2.142,0.21816,0.21694,-0.321
28.2,2.1423,0.22017,0.21896,-0.3235
28.3,2.1428,0.22212,0.22092,-0.3259
28.4,2.1431,0.22415,0.22296,-0.3284
28.5,2.1434,0.22619,0.22501,-0.3309
28.6,2.1437,0.22828,0.22712,-0.3335
28.7,2.1437,0.23054,0.2294,-0.3361
28.8,2.1443,0.23245,0.23133,-0.3385
28.9,2.1452,0.23417,0.23306,-0.3407
29,2.1463,0.23582,0.23473,-0.3428
29.1,2.1474,0.23745,0.23637,-0.3449
29.2,2.1485,0.23904,0.23797,-0.347
29.3,2.1496,0.24067,0.2396,-0.3491
29.4,2.1507,0.24225,0.2412,-0.3511
29.5,2.1518,0.24387,0.24283,-0.3532
29.6,2.1528,0.2455,0.24447,-0.3554
29.7,2.1538,0.24717,0.24615,-0.3575
29.8,2.1548,0.24884,0.24783,-0.3597
29.9,2.1554,0.25085,0.24985,-0.3621
30,2.1561,0.25273,0.25174,-0.3645

