airfoilName st7.dat
Re 	1.500000e+05
M 	5.000000e-02
N 	4.500000e+00
VACC 	0 VACCflag 1
XTR 	1.00 	1.00 XTRflag 0
alpha,cl,cd,cdp,cm
-13.2,-1.1633,0.08533,0.08141,0.0343
-13.1,-1.1552,0.08472,0.08081,0.0329
-13,-1.147,0.08407,0.08016,0.0314
-12.9,-1.1385,0.08342,0.07952,0.0299
-12.5,-1.0324,0.05231,0.04764,-0.0299
-12.4,-1.0145,0.0425,0.03649,-0.0501
-12.3,-1.0064,0.04189,0.03587,-0.0504
-12.2,-0.9982,0.04131,0.03529,-0.0507
-12.1,-0.9898,0.04074,0.0347,-0.0511
-12,-0.9813,0.04018,0.03412,-0.0514
-11.9,-0.9727,0.03962,0.03354,-0.0517
-11.8,-0.964,0.03907,0.03294,-0.0521
-11.7,-0.9552,0.03851,0.03234,-0.0524
-11.6,-0.9464,0.03795,0.03173,-0.0527
-11.5,-0.9375,0.03738,0.03111,-0.053
-11.4,-0.9285,0.03679,0.03047,-0.0533
-11.3,-0.9195,0.0362,0.02982,-0.0536
-11.2,-0.9104,0.0356,0.02915,-0.0538
-11.1,-0.9013,0.03498,0.02845,-0.0541
-11,-0.8921,0.03435,0.02774,-0.0544
-10.9,-0.8829,0.03371,0.027,-0.0546
-10.8,-0.8735,0.03305,0.02625,-0.0548
-10.7,-0.8641,0.03238,0.02547,-0.0551
-10.6,-0.8547,0.03169,0.02466,-0.0552
-10.5,-0.8451,0.031,0.02384,-0.0554
-10.4,-0.8355,0.0303,0.02297,-0.0556
-10.3,-0.8258,0.02959,0.02209,-0.0558
-10.2,-0.8158,0.02891,0.02121,-0.0559
-10.1,-0.8058,0.02831,0.0205,-0.056
-10,-0.7957,0.02786,0.02005,-0.0561
-9.9,-0.7855,0.02746,0.01966,-0.0561
-9.8,-0.7751,0.02709,0.01929,-0.0562
-9.7,-0.7647,0.02675,0.01893,-0.0563
-9.6,-0.7542,0.02641,0.01857,-0.0563
-9.4,-0.7327,0.02615,0.0183,-0.0565
-9.3,-0.7221,0.02576,0.01785,-0.0565
-9.2,-0.7115,0.02535,0.01738,-0.0566
-9.1,-0.7009,0.02494,0.01688,-0.0566
-9,-0.6902,0.02452,0.01638,-0.0566
-8.9,-0.6795,0.0241,0.01587,-0.0566
-8.8,-0.6687,0.02369,0.01534,-0.0566
-8.7,-0.6578,0.02332,0.01482,-0.0566
-8.6,-0.6472,0.02291,0.01445,-0.0567
-8.5,-0.6366,0.02257,0.01413,-0.0567
-8.4,-0.6258,0.02227,0.01383,-0.0567
-8.3,-0.6151,0.02199,0.01355,-0.0567
-8.2,-0.6042,0.02172,0.01327,-0.0567
-8.1,-0.5934,0.02145,0.01298,-0.0567
-8,-0.5825,0.02118,0.01268,-0.0567
-7.9,-0.5717,0.0209,0.01236,-0.0567
-7.7,-0.5497,0.02052,0.01184,-0.0567
-7.6,-0.5387,0.02025,0.01147,-0.0566
-7.5,-0.528,0.01994,0.01117,-0.0566
-7.4,-0.5173,0.01963,0.01089,-0.0566
-7.3,-0.5066,0.01938,0.01065,-0.0565
-7.2,-0.4959,0.01915,0.01042,-0.0565
-7.1,-0.4851,0.01892,0.01019,-0.0564
-7,-0.4744,0.0187,0.00995,-0.0564
-6.9,-0.4637,0.01848,0.00971,-0.0563
-6.8,-0.453,0.01826,0.00946,-0.0562
-6.7,-0.4423,0.01804,0.00919,-0.0561
-6.6,-0.4315,0.01784,0.00893,-0.056
-6.5,-0.421,0.01769,0.00883,-0.0559
-6.4,-0.4105,0.01748,0.00863,-0.0558
-6.3,-0.3999,0.01729,0.00844,-0.0557
-6.2,-0.3893,0.0171,0.00825,-0.0556
-6.1,-0.3779,0.01691,0.00804,-0.0557
-6,-0.3643,0.0167,0.0078,-0.0562
-5.9,-0.3505,0.01651,0.00756,-0.0567
-5.8,-0.3354,0.01631,0.00734,-0.0574
-5.7,-0.3217,0.01608,0.00714,-0.058
-5.6,-0.3083,0.01596,0.00705,-0.0585
-5.5,-0.2947,0.01578,0.00685,-0.059
-5.3,-0.2662,0.01545,0.00645,-0.0601
-5.2,-0.2531,0.01525,0.00629,-0.0606
-5.1,-0.24,0.01508,0.00614,-0.061
-5,-0.2257,0.01492,0.00598,-0.0615
-4.9,-0.212,0.01478,0.00581,-0.062
-4.8,-0.1983,0.01464,0.00571,-0.0626
-4.7,-0.1854,0.01449,0.00556,-0.0629
-4.6,-0.1723,0.01435,0.00542,-0.0632
-4.5,-0.1582,0.01422,0.00528,-0.0638
-4.4,-0.1446,0.01408,0.00515,-0.0642
-4.3,-0.1309,0.01395,0.00503,-0.0647
-4.2,-0.1183,0.01384,0.00494,-0.065
-4.1,-0.1054,0.0137,0.00483,-0.0653
-4,-0.0916,0.01358,0.00472,-0.0658
-3.9,-0.0781,0.01347,0.00461,-0.0662
-3.8,-0.0651,0.01335,0.0045,-0.0665
-3.7,-0.0526,0.01324,0.00441,-0.0667
-3.6,-0.0398,0.01312,0.00434,-0.0671
-3.5,-0.0261,0.01303,0.00425,-0.0675
-3.4,-0.0134,0.01292,0.00417,-0.0677
-3.3,-0.001,0.01283,0.0041,-0.0679
-3.1,0.0243,0.01262,0.00396,-0.0684
-3,0.037,0.01253,0.0039,-0.0686
-2.9,0.0489,0.01244,0.00383,-0.0687
-2.8,0.0613,0.01237,0.00377,-0.0689
-2.7,0.0737,0.01226,0.00371,-0.0691
-2.6,0.0856,0.01217,0.00366,-0.0692
-2.5,0.0975,0.01209,0.0036,-0.0692
-2.4,0.1096,0.01203,0.00355,-0.0693
-2.3,0.1213,0.01191,0.0035,-0.0693
-2.2,0.133,0.01183,0.00345,-0.0694
-2.1,0.1449,0.01175,0.0034,-0.0694
-2,0.1567,0.01167,0.00334,-0.0695
-1.9,0.1679,0.01161,0.0033,-0.0693
-1.8,0.1786,0.0115,0.00326,-0.0691
-1.7,0.1899,0.01144,0.00322,-0.069
-1.6,0.2009,0.01137,0.00318,-0.0688
-1.4,0.2235,0.01115,0.00309,-0.0687
-1.3,0.2346,0.01106,0.00306,-0.0686
-1.2,0.2454,0.01098,0.00302,-0.0684
-1.1,0.2557,0.0108,0.00296,-0.0681
-1,0.2666,0.01067,0.00292,-0.068
-0.9,0.2773,0.01052,0.00289,-0.0678
-0.8,0.2872,0.01037,0.00286,-0.0673
-0.7,0.2939,0.01,0.0028,-0.066
-0.6,0.3005,0.00985,0.00276,-0.0645
-0.5,0.3071,0.00971,0.00269,-0.063
-0.4,0.318,0.0096,0.00259,-0.0625
-0.3,0.3358,0.00949,0.0024,-0.0636
-0.2,0.3475,0.00953,0.0024,-0.0636
-0.1,0.359,0.0096,0.0024,-0.0635
0,0.3707,0.00965,0.00241,-0.0635
0.1,0.3819,0.00974,0.00242,-0.0633
0.2,0.3934,0.00981,0.00242,-0.0632
0.3,0.405,0.00987,0.00244,-0.0632
0.4,0.4166,0.00994,0.00245,-0.0632
0.5,0.4281,0.01001,0.00247,-0.0631
0.6,0.4396,0.01009,0.00248,-0.0631
0.7,0.4512,0.01016,0.00251,-0.063
0.8,0.4621,0.01029,0.00253,-0.0629
0.9,0.4735,0.01038,0.00256,-0.0628
1,0.4851,0.01046,0.00259,-0.0628
1.1,0.4964,0.01056,0.00262,-0.0627
1.2,0.508,0.01064,0.00265,-0.0627
1.3,0.5194,0.01074,0.0027,-0.0627
1.4,0.5309,0.01083,0.00273,-0.0627
1.5,0.5419,0.01097,0.00278,-0.0625
1.6,0.5532,0.01107,0.00283,-0.0625
1.7,0.5647,0.01117,0.00287,-0.0625
1.8,0.5761,0.01128,0.00293,-0.0625
1.9,0.5874,0.01138,0.00297,-0.0624
2,0.5988,0.01149,0.00303,-0.0624
2.1,0.6101,0.01161,0.00309,-0.0624
2.2,0.6215,0.01171,0.00315,-0.0624
2.3,0.6328,0.01183,0.00321,-0.0624
2.4,0.6436,0.01199,0.00328,-0.0623
2.5,0.6548,0.01212,0.00334,-0.0623
2.6,0.6661,0.01223,0.00341,-0.0622
2.7,0.6772,0.01237,0.00349,-0.0622
2.8,0.6884,0.0125,0.00355,-0.0622
2.9,0.6996,0.01262,0.00363,-0.0622
3,0.7107,0.01277,0.00371,-0.0622
3.1,0.7217,0.01291,0.00378,-0.0622
3.2,0.7329,0.01304,0.00387,-0.0621
3.3,0.7434,0.01324,0.00396,-0.0621
3.4,0.7544,0.01339,0.00405,-0.0621
3.5,0.7654,0.01355,0.00415,-0.062
3.6,0.7764,0.01369,0.00423,-0.062
3.7,0.7874,0.01384,0.00433,-0.062
3.8,0.7984,0.014,0.00442,-0.062
3.9,0.8095,0.01415,0.00452,-0.062
4,0.8204,0.01431,0.00463,-0.062
4.1,0.8315,0.01445,0.00472,-0.062
4.2,0.842,0.01466,0.00484,-0.062
4.3,0.8531,0.0148,0.00494,-0.062
4.4,0.864,0.01497,0.00507,-0.062
4.5,0.8751,0.01511,0.00517,-0.0621
4.6,0.8861,0.01526,0.00528,-0.0621
4.7,0.8971,0.01542,0.0054,-0.0621
4.8,0.9081,0.01558,0.00552,-0.0621
4.9,0.9192,0.01571,0.00564,-0.0621
5,0.9302,0.01586,0.00576,-0.0621
5.1,0.9411,0.01603,0.00588,-0.0621
5.2,0.9519,0.01621,0.00603,-0.0621
5.3,0.963,0.01635,0.00616,-0.0621
5.4,0.974,0.0165,0.00628,-0.0622
5.5,0.9849,0.01666,0.00642,-0.0622
5.6,0.9957,0.01684,0.00656,-0.0622
5.7,1.0067,0.01698,0.00669,-0.0622
5.8,1.0179,0.01711,0.00683,-0.0622
5.9,1.0289,0.01725,0.00696,-0.0622
6,1.0398,0.0174,0.00712,-0.0622
6.1,1.0506,0.01757,0.00726,-0.0622
6.2,1.0612,0.01775,0.0074,-0.0622
6.3,1.0723,0.01788,0.00754,-0.0622
6.4,1.0833,0.01802,0.00769,-0.0622
6.5,1.0942,0.01817,0.00783,-0.0622
6.6,1.105,0.01833,0.00798,-0.0622
6.7,1.1157,0.01851,0.00813,-0.0622
6.8,1.1262,0.0187,0.00829,-0.0622
6.9,1.1373,0.01883,0.00845,-0.0622
7,1.1483,0.01896,0.00861,-0.0622
7.1,1.1592,0.01911,0.00877,-0.0622
7.2,1.1697,0.01926,0.0089,-0.0622
7.3,1.1804,0.01944,0.00906,-0.0622
7.4,1.1909,0.01963,0.00922,-0.0622
7.5,1.2015,0.0198,0.00939,-0.0622
7.6,1.2125,0.01993,0.00956,-0.0622
7.7,1.2233,0.02008,0.00974,-0.0622
7.8,1.234,0.02023,0.00991,-0.0622
7.9,1.2446,0.02039,0.01008,-0.0622
8,1.2552,0.02057,0.01025,-0.0621
8.1,1.2656,0.02075,0.01042,-0.0621
8.2,1.2759,0.02095,0.01059,-0.0621
8.3,1.2863,0.02115,0.01077,-0.062
8.4,1.2971,0.02124,0.01093,-0.062
8.5,1.3077,0.0214,0.01112,-0.062
8.6,1.3182,0.02157,0.01132,-0.062
8.7,1.3286,0.02175,0.0115,-0.0619
8.8,1.3389,0.02194,0.01168,-0.0619
8.9,1.3491,0.02214,0.01187,-0.0618
9,1.3591,0.02235,0.01206,-0.0618
9.1,1.3695,0.02253,0.01225,-0.0617
9.2,1.38,0.02269,0.01246,-0.0617
9.3,1.3904,0.02286,0.01267,-0.0617
9.4,1.4007,0.02304,0.01288,-0.0616
9.5,1.4107,0.02319,0.01304,-0.0616
9.6,1.4207,0.02339,0.01325,-0.0615
9.7,1.4307,0.02359,0.01345,-0.0614
9.8,1.4405,0.02382,0.01365,-0.0613
9.9,1.4504,0.02403,0.01386,-0.0613
10,1.4607,0.0242,0.0141,-0.0612
10.1,1.4708,0.02439,0.01433,-0.0611
10.2,1.4808,0.02458,0.01456,-0.0611
10.3,1.4908,0.02478,0.01479,-0.061
10.4,1.5006,0.02498,0.01502,-0.0609
10.5,1.5103,0.02519,0.01524,-0.0608
10.6,1.5199,0.02541,0.01548,-0.0607
10.7,1.5289,0.02561,0.01563,-0.0605
10.8,1.5384,0.02585,0.01586,-0.0604
10.9,1.5483,0.02604,0.01613,-0.0603
11,1.558,0.02624,0.01639,-0.0602
11.1,1.5676,0.02645,0.01665,-0.0601
11.2,1.5771,0.02667,0.01691,-0.06
11.3,1.5865,0.02689,0.01716,-0.0598
11.4,1.5958,0.02711,0.01741,-0.0597
11.5,1.6049,0.02735,0.01765,-0.0596
11.6,1.614,0.02759,0.01789,-0.0594
11.7,1.6229,0.02784,0.01814,-0.0592
11.8,1.6317,0.02811,0.01841,-0.0591
11.9,1.6407,0.02835,0.01868,-0.0589
12,1.6497,0.02851,0.01895,-0.0587
12.1,1.6586,0.02874,0.01924,-0.0585
12.2,1.6675,0.02899,0.01953,-0.0584
12.3,1.6762,0.02923,0.01982,-0.0582
12.4,1.6848,0.02948,0.02009,-0.058
12.5,1.6932,0.02973,0.02037,-0.0577
12.6,1.7015,0.02999,0.02064,-0.0575
12.7,1.7097,0.03026,0.02091,-0.0573
12.8,1.7178,0.03054,0.02118,-0.0571
12.9,1.7258,0.03085,0.02147,-0.0568
13,1.734,0.0311,0.02181,-0.0566
13.1,1.7422,0.03137,0.02218,-0.0563
13.2,1.7502,0.03164,0.02253,-0.0561
13.4,1.7652,0.03212,0.02312,-0.0554
13.5,1.7726,0.0324,0.02344,-0.0551
13.6,1.78,0.03268,0.02375,-0.0548
13.7,1.7871,0.03296,0.02405,-0.0545
13.8,1.7941,0.03325,0.02436,-0.0542
13.9,1.801,0.03356,0.02467,-0.0538
14,1.8077,0.03388,0.02498,-0.0535
14.1,1.8143,0.0342,0.0253,-0.0531
14.2,1.8208,0.03451,0.02571,-0.0527
14.3,1.8271,0.03482,0.02612,-0.0523
14.4,1.8333,0.03514,0.02652,-0.0518
14.5,1.8392,0.03546,0.02691,-0.0514
14.6,1.8449,0.03579,0.02732,-0.0509
14.7,1.8504,0.03611,0.0277,-0.0504
14.8,1.8556,0.03644,0.02808,-0.0499
14.9,1.8599,0.03676,0.02844,-0.0493
15,1.8624,0.03697,0.02867,-0.0485
15.1,1.8663,0.03731,0.02903,-0.0478
15.2,1.8703,0.03765,0.02939,-0.0473
15.3,1.8745,0.03801,0.02975,-0.0468
15.4,1.8787,0.03838,0.03012,-0.0463
15.5,1.8829,0.03877,0.03053,-0.0459
15.6,1.8868,0.03917,0.03105,-0.0455
15.7,1.8907,0.03958,0.03156,-0.0451
15.8,1.8948,0.03999,0.03206,-0.0448
15.9,1.8989,0.04041,0.03257,-0.0445
16,1.9031,0.04083,0.03306,-0.0443
16.1,1.9072,0.04126,0.03356,-0.0442
16.2,1.9114,0.04168,0.03405,-0.0441
16.3,1.9156,0.04211,0.03453,-0.044
16.4,1.9199,0.04254,0.03502,-0.044
16.5,1.9242,0.04297,0.03551,-0.0441
16.6,1.9287,0.0434,0.03598,-0.0442
16.7,1.9332,0.04383,0.03645,-0.0443
16.8,1.9372,0.04416,0.03676,-0.0447
16.9,1.9419,0.04461,0.03721,-0.0449
17,1.9467,0.04506,0.03765,-0.0451
17.1,1.9505,0.04562,0.03833,-0.0456
17.2,1.9546,0.04617,0.03902,-0.0461
17.3,1.9587,0.04673,0.03969,-0.0467
17.4,1.9631,0.04729,0.04034,-0.0473
17.5,1.9675,0.04784,0.04099,-0.048
17.6,1.972,0.0484,0.04163,-0.0487
17.7,1.9766,0.04896,0.04227,-0.0496
17.8,1.9814,0.04951,0.04289,-0.0504
17.9,1.9862,0.05006,0.04351,-0.0514
18,1.9912,0.05061,0.04412,-0.0523
18.1,1.9963,0.05116,0.04472,-0.0534
18.2,2.0015,0.0517,0.04531,-0.0544
18.3,2.0068,0.05223,0.04588,-0.0555
18.4,2.0122,0.05275,0.04642,-0.0565
18.5,2.0176,0.05327,0.04697,-0.0576
18.6,2.0231,0.05377,0.04748,-0.0585
18.7,2.0286,0.05427,0.04797,-0.0594
18.8,2.0318,0.05538,0.04933,-0.0628
18.9,2.0363,0.05622,0.05031,-0.0648
19,2.0408,0.05706,0.05127,-0.0668
19.1,2.0453,0.0579,0.05223,-0.0689
19.2,2.0499,0.05875,0.05318,-0.071
19.3,2.0545,0.0596,0.05412,-0.0732
19.4,2.0591,0.06045,0.05506,-0.0753
19.5,2.0638,0.06129,0.05599,-0.0775
19.6,2.0684,0.06213,0.0569,-0.0796
19.7,2.073,0.06297,0.05779,-0.0818
19.8,2.0776,0.06378,0.05867,-0.0838
19.9,2.0822,0.06457,0.0595,-0.0858
20,2.0869,0.0653,0.06026,-0.0876
20.1,2.0916,0.06596,0.06093,-0.0892
20.2,2.0964,0.06657,0.06155,-0.0906
20.3,2.1012,0.06709,0.06206,-0.0917
20.4,2.1035,0.06843,0.06348,-0.095
20.5,2.103,0.07058,0.06588,-0.1001
20.7,2.0977,0.07628,0.07208,-0.1131
20.8,2.0961,0.07862,0.07458,-0.1179
20.9,2.0941,0.08105,0.07714,-0.1228
21,2.0919,0.0835,0.07972,-0.1276
21.1,2.0901,0.08581,0.08213,-0.132
21.2,2.0891,0.08784,0.08424,-0.1358
21.3,2.0894,0.08944,0.0859,-0.1389
21.4,2.0907,0.09069,0.08719,-0.1413
21.5,2.0931,0.09156,0.08808,-0.1431
21.6,2.0967,0.09207,0.08859,-0.1443
21.7,2.1012,0.09226,0.08877,-0.145
21.8,2.1065,0.09218,0.08866,-0.1452
21.9,2.1123,0.09191,0.08835,-0.145
22.6,2.0311,0.12836,0.12568,-0.2007
22.7,2.0395,0.12708,0.12439,-0.1997
22.8,2.0481,0.12572,0.12302,-0.1986

