airfoilName st7.dat
Re 	7.300000e+05
M 	5.000000e-02
N 	4.500000e+00
VACC 	0 VACCflag 1
XTR 	1.00 	1.00 XTRflag 0
alpha,cl,cd,cdp,cm
-16.1,-1.4229,0.03574,0.03212,-0.0474
-16,-1.4156,0.03462,0.0309,-0.0491
-15.9,-1.4085,0.0337,0.0299,-0.0502
-15.8,-1.4014,0.03289,0.02902,-0.0511
-15.7,-1.3941,0.03217,0.02823,-0.0517
-15.6,-1.3866,0.03151,0.02751,-0.0523
-15.5,-1.3789,0.0309,0.02683,-0.0527
-15.4,-1.371,0.03031,0.02618,-0.053
-15.3,-1.363,0.02976,0.02557,-0.0533
-15.2,-1.3548,0.02924,0.02499,-0.0535
-15.1,-1.3464,0.02874,0.02443,-0.0537
-15,-1.3379,0.02826,0.0239,-0.0539
-14.9,-1.3292,0.02779,0.02339,-0.054
-14.8,-1.3204,0.02734,0.02288,-0.0542
-14.7,-1.3114,0.02691,0.0224,-0.0543
-14.6,-1.3023,0.02649,0.02193,-0.0544
-14.5,-1.2931,0.02609,0.02148,-0.0544
-14.4,-1.2838,0.02569,0.02104,-0.0545
-14.3,-1.2744,0.02531,0.02061,-0.0546
-14.2,-1.2649,0.02493,0.02019,-0.0546
-14.1,-1.2552,0.02457,0.01978,-0.0547
-14,-1.2455,0.02422,0.01937,-0.0547
-13.9,-1.2356,0.02387,0.01898,-0.0548
-13.8,-1.2257,0.02354,0.0186,-0.0548
-13.7,-1.2157,0.02321,0.01823,-0.0549
-13.6,-1.2057,0.02289,0.01787,-0.0549
-13.5,-1.1955,0.02258,0.01752,-0.055
-13.4,-1.1852,0.02228,0.01718,-0.055
-13.3,-1.1749,0.02199,0.01685,-0.055
-13.2,-1.1645,0.02171,0.01652,-0.0551
-13.1,-1.154,0.02144,0.01621,-0.0551
-13,-1.1435,0.02117,0.01591,-0.0551
-12.9,-1.1329,0.02091,0.01561,-0.0552
-12.8,-1.1222,0.02068,0.01534,-0.0552
-12.7,-1.1115,0.02044,0.01507,-0.0552
-12.6,-1.1007,0.02022,0.0148,-0.0553
-12.5,-1.0901,0.01992,0.01449,-0.0553
-12.4,-1.0795,0.01959,0.01411,-0.0554
-12.3,-1.0689,0.01927,0.01377,-0.0554
-12.2,-1.0581,0.01899,0.01345,-0.0555
-12.1,-1.0473,0.01872,0.01317,-0.0555
-12,-1.0363,0.01848,0.01289,-0.0556
-11.9,-1.0253,0.01824,0.01264,-0.0556
-11.8,-1.0143,0.01802,0.01239,-0.0557
-11.7,-1.0032,0.0178,0.01215,-0.0557
-11.6,-0.9921,0.01759,0.01192,-0.0558
-11.5,-0.9809,0.01738,0.0117,-0.0558
-11.4,-0.9697,0.01719,0.01147,-0.0559
-11.3,-0.9584,0.01699,0.01126,-0.0559
-11.2,-0.9472,0.0168,0.01105,-0.056
-11.1,-0.9359,0.01662,0.01084,-0.056
-11,-0.9246,0.01643,0.01064,-0.0561
-10.9,-0.9132,0.01626,0.01044,-0.0561
-10.8,-0.9019,0.01608,0.01024,-0.0562
-10.7,-0.8905,0.01591,0.01005,-0.0562
-10.6,-0.879,0.01574,0.00986,-0.0563
-10.5,-0.8676,0.01557,0.00967,-0.0563
-10.4,-0.8562,0.0154,0.00949,-0.0564
-10.3,-0.8447,0.01524,0.00931,-0.0564
-10.2,-0.8332,0.01509,0.00912,-0.0565
-10.1,-0.8217,0.01494,0.00895,-0.0565
-10,-0.8102,0.01479,0.00878,-0.0566
-9.9,-0.7987,0.01466,0.00863,-0.0566
-9.8,-0.7871,0.01451,0.00847,-0.0567
-9.7,-0.7752,0.01432,0.00827,-0.0568
-9.6,-0.7626,0.01414,0.00808,-0.0571
-9.5,-0.7499,0.01398,0.00791,-0.0575
-9.4,-0.7368,0.01383,0.00775,-0.0578
-9.3,-0.7241,0.01368,0.0076,-0.0581
-9.2,-0.7115,0.01355,0.00745,-0.0584
-9.1,-0.6991,0.01341,0.00731,-0.0586
-9,-0.6861,0.01329,0.00717,-0.059
-8.9,-0.6734,0.01316,0.00703,-0.0592
-8.8,-0.6612,0.01304,0.0069,-0.0594
-8.7,-0.649,0.01293,0.00677,-0.0596
-8.6,-0.6366,0.01282,0.00665,-0.0598
-8.5,-0.6244,0.01272,0.00653,-0.0599
-8.4,-0.6125,0.01267,0.00646,-0.06
-8.3,-0.6008,0.01256,0.00634,-0.06
-8.2,-0.5891,0.01243,0.0062,-0.06
-8.1,-0.5775,0.01231,0.00608,-0.06
-8,-0.5658,0.0122,0.00596,-0.0601
-7.9,-0.5546,0.01211,0.00585,-0.06
-7.8,-0.5432,0.01202,0.00575,-0.0599
-7.7,-0.5315,0.01192,0.00564,-0.0599
-7.6,-0.5199,0.01183,0.00554,-0.06
-7.5,-0.5088,0.01176,0.00544,-0.0598
-7.4,-0.4972,0.01168,0.00534,-0.0598
-7.3,-0.4855,0.0116,0.00524,-0.0598
-7.2,-0.4738,0.01152,0.00515,-0.0598
-7.1,-0.4622,0.01145,0.00505,-0.0598
-7,-0.451,0.01138,0.00496,-0.0597
-6.9,-0.4392,0.01127,0.00485,-0.0598
-6.8,-0.4275,0.01118,0.00475,-0.0598
-6.7,-0.4158,0.0111,0.00466,-0.0598
-6.6,-0.4042,0.01103,0.00457,-0.0598
-6.5,-0.3925,0.01096,0.00449,-0.0598
-6.4,-0.3807,0.01089,0.00441,-0.0598
-6.3,-0.369,0.01082,0.00433,-0.0599
-6.2,-0.3572,0.01076,0.00425,-0.0599
-6.1,-0.3453,0.0107,0.00418,-0.0599
-6,-0.3335,0.01062,0.00409,-0.06
-5.9,-0.3219,0.01056,0.00401,-0.06
-5.8,-0.3101,0.01049,0.00394,-0.06
-5.7,-0.2981,0.01042,0.00386,-0.0601
-5.6,-0.2862,0.01035,0.00379,-0.0602
-5.5,-0.2744,0.0103,0.00373,-0.0602
-5.4,-0.2625,0.01026,0.00366,-0.0602
-5.3,-0.2507,0.0102,0.00358,-0.0603
-5.2,-0.2388,0.01013,0.00351,-0.0603
-5.1,-0.2269,0.01007,0.00345,-0.0604
-5,-0.215,0.01001,0.00339,-0.0605
-4.9,-0.203,0.00996,0.00333,-0.0606
-4.8,-0.191,0.00991,0.00327,-0.0606
-4.7,-0.1793,0.00988,0.00321,-0.0606
-4.6,-0.1673,0.00983,0.00314,-0.0607
-4.5,-0.1553,0.00977,0.00308,-0.0608
-4.4,-0.1434,0.00971,0.00303,-0.0609
-4.3,-0.1315,0.00967,0.00298,-0.0609
-4.2,-0.1194,0.00963,0.00293,-0.061
-4.1,-0.1074,0.00958,0.00288,-0.0611
-4,-0.0957,0.00955,0.00283,-0.0612
-3.9,-0.0841,0.00956,0.00279,-0.0611
-3.8,-0.0723,0.00954,0.00274,-0.0612
-3.7,-0.0604,0.00951,0.0027,-0.0613
-3.6,-0.0484,0.00945,0.00265,-0.0614
-3.5,-0.0366,0.00944,0.00261,-0.0614
-3.4,-0.0248,0.00944,0.00258,-0.0615
-3.3,-0.0128,0.00942,0.00254,-0.0615
-3.2,-0.0009,0.00939,0.0025,-0.0616
-3.1,0.011,0.00937,0.00247,-0.0617
-3,0.023,0.00934,0.00244,-0.0618
-2.9,0.035,0.00929,0.0024,-0.0619
-2.8,0.0467,0.00931,0.00237,-0.062
-2.7,0.0587,0.0093,0.00235,-0.0621
-2.6,0.0707,0.00926,0.00231,-0.0622
-2.5,0.0826,0.00925,0.00229,-0.0623
-2.4,0.0944,0.00927,0.00226,-0.0623
-2.3,0.1062,0.00927,0.00225,-0.0624
-2.2,0.1179,0.00928,0.00223,-0.0625
-2.1,0.1299,0.00926,0.00221,-0.0626
-2,0.1419,0.00926,0.0022,-0.0627
-1.9,0.1539,0.00923,0.00218,-0.0629
-1.8,0.1658,0.0092,0.00216,-0.063
-1.7,0.1778,0.00919,0.00215,-0.0631
-1.6,0.1898,0.00917,0.00214,-0.0632
-1.5,0.2012,0.00926,0.00215,-0.0633
-1.4,0.2132,0.00925,0.00214,-0.0634
-1.3,0.2252,0.00922,0.00213,-0.0635
-1.2,0.2371,0.00921,0.00213,-0.0637
-1.1,0.2491,0.00921,0.00213,-0.0638
-1,0.261,0.00921,0.00212,-0.0639
-0.9,0.273,0.00918,0.00212,-0.064
-0.8,0.2847,0.00923,0.00213,-0.0641
-0.7,0.2967,0.00923,0.00212,-0.0643
-0.6,0.3086,0.00925,0.00213,-0.0644
-0.5,0.3205,0.00922,0.00213,-0.0645
-0.4,0.3324,0.00922,0.00213,-0.0646
-0.3,0.3443,0.00923,0.00214,-0.0648
-0.2,0.3563,0.00924,0.00214,-0.0649
-0.1,0.3681,0.00921,0.00215,-0.065
0,0.3801,0.00922,0.00215,-0.0652
0.1,0.3917,0.00928,0.00218,-0.0653
0.2,0.4035,0.00926,0.00219,-0.0654
0.3,0.4154,0.00927,0.00221,-0.0656
0.4,0.4272,0.00928,0.00222,-0.0657
0.5,0.4391,0.0093,0.00224,-0.0658
0.6,0.4508,0.00927,0.00225,-0.066
0.7,0.4627,0.00929,0.00227,-0.0661
0.8,0.4744,0.00931,0.0023,-0.0662
0.9,0.4862,0.00933,0.00232,-0.0664
1,0.4976,0.00937,0.00236,-0.0665
1.1,0.5093,0.00939,0.00239,-0.0666
1.3,0.5324,0.00936,0.00246,-0.0669
1.4,0.544,0.00937,0.00249,-0.067
1.5,0.5552,0.00926,0.00254,-0.0671
1.6,0.5664,0.00927,0.00258,-0.0671
1.7,0.5776,0.00928,0.00263,-0.0671
1.8,0.5887,0.00928,0.00267,-0.0671
1.9,0.5978,0.00924,0.00274,-0.0666
2,0.608,0.00922,0.00277,-0.0663
2.1,0.6177,0.00921,0.00279,-0.0658
2.2,0.6272,0.00922,0.00282,-0.0653
2.3,0.6358,0.00916,0.00279,-0.0645
2.4,0.6482,0.00918,0.0028,-0.0647
2.5,0.661,0.0092,0.00279,-0.0651
2.6,0.6728,0.00927,0.00284,-0.0652
2.7,0.6845,0.00935,0.00288,-0.0653
2.8,0.6964,0.00942,0.00293,-0.0654
2.9,0.7081,0.0095,0.00298,-0.0655
3,0.7199,0.00957,0.00302,-0.0656
3.1,0.7316,0.00964,0.00307,-0.0657
3.2,0.7434,0.00972,0.00312,-0.0658
3.3,0.7552,0.00978,0.00317,-0.0659
3.4,0.767,0.00984,0.00321,-0.066
3.5,0.7788,0.0099,0.00326,-0.0661
3.6,0.7905,0.00997,0.0033,-0.0662
3.7,0.8022,0.01004,0.00335,-0.0663
3.8,0.8139,0.01013,0.00341,-0.0664
3.9,0.8256,0.0102,0.00346,-0.0665
4,0.8374,0.01026,0.00351,-0.0666
4.1,0.8491,0.01033,0.00356,-0.0667
4.2,0.8608,0.0104,0.00361,-0.0668
4.3,0.8724,0.01047,0.00367,-0.0668
4.4,0.8841,0.01056,0.00372,-0.0669
4.5,0.8958,0.01062,0.00378,-0.067
4.6,0.9075,0.01068,0.00384,-0.0671
4.7,0.9192,0.01075,0.00389,-0.0672
4.8,0.9308,0.01081,0.00394,-0.0673
4.9,0.9423,0.01091,0.004,-0.0674
5,0.9539,0.01099,0.00406,-0.0675
5.1,0.9655,0.01108,0.00414,-0.0676
5.2,0.9771,0.01114,0.00419,-0.0677
5.3,0.9888,0.0112,0.00425,-0.0678
5.4,1.0004,0.01127,0.00431,-0.0679
5.5,1.012,0.01134,0.00437,-0.0679
5.6,1.0235,0.01142,0.00443,-0.068
5.7,1.035,0.0115,0.0045,-0.0681
5.8,1.0465,0.01159,0.00457,-0.0682
5.9,1.0579,0.01168,0.00464,-0.0683
6,1.0694,0.01175,0.00471,-0.0683
6.1,1.081,0.01183,0.00478,-0.0684
6.2,1.0925,0.0119,0.00484,-0.0685
6.3,1.1039,0.01198,0.00491,-0.0686
6.4,1.1154,0.01206,0.00498,-0.0687
6.5,1.1268,0.01215,0.00505,-0.0687
6.6,1.1381,0.01225,0.00513,-0.0688
6.7,1.1495,0.01234,0.00522,-0.0689
6.8,1.1609,0.01241,0.00529,-0.0689
6.9,1.1724,0.01249,0.00537,-0.069
7,1.1838,0.01256,0.00544,-0.0691
7.1,1.1951,0.01266,0.00551,-0.0691
7.2,1.2064,0.01275,0.00559,-0.0692
7.3,1.2176,0.01284,0.00567,-0.0693
7.4,1.2289,0.01294,0.00576,-0.0693
7.5,1.2401,0.01305,0.00585,-0.0694
7.6,1.2514,0.01313,0.00594,-0.0694
7.7,1.2627,0.01321,0.00602,-0.0695
7.8,1.274,0.01329,0.0061,-0.0696
7.9,1.2852,0.01338,0.00619,-0.0696
8,1.2964,0.01346,0.00627,-0.0697
8.1,1.3076,0.01356,0.00636,-0.0697
8.2,1.3186,0.01368,0.00645,-0.0698
8.3,1.3297,0.01379,0.00655,-0.0698
8.4,1.3407,0.0139,0.00665,-0.0698
8.5,1.3518,0.01399,0.00675,-0.0699
8.6,1.363,0.01408,0.00684,-0.0699
8.7,1.3741,0.01417,0.00693,-0.07
8.8,1.3852,0.01426,0.00703,-0.07
8.9,1.3962,0.01436,0.00712,-0.0701
9,1.4072,0.01446,0.00722,-0.0701
9.1,1.4182,0.01456,0.00732,-0.0701
9.2,1.4291,0.01468,0.00743,-0.0701
9.3,1.44,0.01479,0.00754,-0.0702
9.4,1.4507,0.01492,0.00765,-0.0702
9.5,1.4616,0.01503,0.00776,-0.0702
9.6,1.4725,0.01512,0.00787,-0.0702
9.7,1.4834,0.01522,0.00797,-0.0703
9.8,1.4943,0.01533,0.00808,-0.0703
9.9,1.5051,0.01544,0.00819,-0.0703
10,1.5158,0.01555,0.0083,-0.0703
10.1,1.5265,0.01567,0.00841,-0.0703
10.2,1.5372,0.01579,0.00853,-0.0703
10.3,1.5478,0.01592,0.00866,-0.0703
10.4,1.5583,0.01606,0.00879,-0.0703
10.5,1.5689,0.01618,0.00892,-0.0703
10.6,1.5796,0.01628,0.00903,-0.0703
10.7,1.5902,0.01639,0.00915,-0.0703
10.8,1.6008,0.01651,0.00927,-0.0702
10.9,1.6113,0.01663,0.00939,-0.0702
11,1.6218,0.01675,0.00951,-0.0702
11.1,1.6322,0.01688,0.00964,-0.0702
11.2,1.6425,0.01702,0.00978,-0.0701
11.3,1.6528,0.01716,0.00991,-0.0701
11.4,1.663,0.01731,0.01006,-0.07
11.5,1.6732,0.01746,0.01021,-0.07
11.6,1.6835,0.01758,0.01035,-0.0699
11.7,1.6939,0.01769,0.01048,-0.0699
11.8,1.7041,0.01781,0.01061,-0.0699
11.9,1.7144,0.01794,0.01075,-0.0698
12,1.7244,0.01808,0.01089,-0.0697
12.1,1.7345,0.01822,0.01103,-0.0697
12.2,1.7445,0.01836,0.01118,-0.0696
12.3,1.7544,0.01851,0.01133,-0.0695
12.4,1.7642,0.01867,0.01149,-0.0694
12.5,1.774,0.01883,0.01165,-0.0693
12.6,1.7836,0.019,0.01182,-0.0692
12.7,1.7933,0.01916,0.012,-0.0691
12.8,1.8032,0.01929,0.01214,-0.069
12.9,1.8131,0.01942,0.01229,-0.0689
13,1.8228,0.01956,0.01245,-0.0688
13.1,1.8325,0.0197,0.0126,-0.0687
13.2,1.842,0.01986,0.01276,-0.0686
13.3,1.8514,0.02002,0.01293,-0.0684
13.4,1.8608,0.02018,0.0131,-0.0683
13.5,1.8701,0.02035,0.01328,-0.0681
13.6,1.8792,0.02053,0.01346,-0.0679
13.7,1.8883,0.02071,0.01365,-0.0678
13.8,1.8972,0.02091,0.01384,-0.0676
13.9,1.9059,0.02111,0.01404,-0.0673
14,1.9152,0.02125,0.01423,-0.0672
14.1,1.9243,0.0214,0.0144,-0.067
14.2,1.9334,0.02156,0.01458,-0.0668
14.3,1.9423,0.02172,0.01476,-0.0666
14.4,1.951,0.02189,0.01494,-0.0664
14.5,1.9597,0.02206,0.01513,-0.0661
14.6,1.9682,0.02224,0.01533,-0.0659
14.7,1.9763,0.02245,0.01553,-0.0656
14.8,1.9845,0.02265,0.01574,-0.0653
14.9,1.9925,0.02285,0.01595,-0.065
15,1.9997,0.02311,0.0162,-0.0646
15.1,2.0071,0.02334,0.01643,-0.0642
15.2,2.015,0.02352,0.01665,-0.0639
15.3,2.0229,0.02369,0.01684,-0.0635
15.4,2.0306,0.02387,0.01706,-0.0632
15.5,2.0381,0.02406,0.01727,-0.0628
15.6,2.0453,0.02426,0.01749,-0.0624
15.7,2.0524,0.02446,0.01771,-0.0619
15.8,2.0592,0.02466,0.01794,-0.0615
15.9,2.0658,0.02488,0.01818,-0.061
16,2.0716,0.02513,0.01843,-0.0604
16.1,2.0775,0.02537,0.01868,-0.0598
16.2,2.0831,0.02561,0.01894,-0.0592
16.3,2.0872,0.02586,0.01921,-0.0583
16.4,2.0908,0.02613,0.0195,-0.0574
16.5,2.0943,0.02642,0.0198,-0.0565
16.6,2.0981,0.02669,0.02011,-0.0557
16.7,2.1027,0.02694,0.02038,-0.055
16.8,2.1073,0.0272,0.02067,-0.0543
16.9,2.1119,0.02748,0.02097,-0.0537
17,2.1165,0.02776,0.02128,-0.0531
17.1,2.1211,0.02805,0.0216,-0.0526
17.2,2.1257,0.02835,0.02194,-0.0521
17.3,2.1302,0.02866,0.02227,-0.0517
17.4,2.1347,0.02898,0.02262,-0.0512
17.5,2.1391,0.02932,0.02298,-0.0508
17.6,2.1435,0.02967,0.02336,-0.0505
17.7,2.1479,0.03003,0.02374,-0.0502
17.8,2.1522,0.0304,0.02414,-0.05
17.9,2.1564,0.03079,0.02455,-0.0497
18,2.1606,0.0312,0.02498,-0.0496
18.1,2.1651,0.03158,0.02541,-0.0495
18.2,2.1703,0.03192,0.02579,-0.0494
18.3,2.1755,0.03227,0.02617,-0.0494
18.4,2.1806,0.03263,0.02658,-0.0494
18.5,2.1857,0.03301,0.02699,-0.0495
18.6,2.1908,0.0334,0.02741,-0.0496
18.7,2.1958,0.0338,0.02785,-0.0498
18.8,2.2009,0.03421,0.02829,-0.05
18.9,2.2059,0.03463,0.02875,-0.0503
19,2.2104,0.03512,0.02926,-0.0506
19.1,2.2143,0.03569,0.02984,-0.0512
19.2,2.219,0.03619,0.03037,-0.0517
19.3,2.2238,0.03671,0.03092,-0.0522
19.4,2.2285,0.03725,0.03149,-0.0529
19.5,2.2337,0.03775,0.03204,-0.0536
19.6,2.2394,0.03821,0.03254,-0.0542
19.7,2.2449,0.03868,0.03306,-0.0549
19.8,2.2505,0.03918,0.0336,-0.0557
19.9,2.256,0.03969,0.03415,-0.0566
20,2.2615,0.04023,0.03472,-0.0575
20.1,2.267,0.04078,0.03532,-0.0585
20.2,2.2724,0.04136,0.03593,-0.0596
20.3,2.2778,0.04196,0.03658,-0.0607
20.4,2.2831,0.04259,0.03725,-0.062
20.5,2.2882,0.04325,0.03795,-0.0633
20.6,2.2933,0.04395,0.03869,-0.0647
20.7,2.2982,0.04469,0.03947,-0.0663
20.8,2.303,0.04547,0.0403,-0.068
20.9,2.3063,0.04654,0.04139,-0.0702
21,2.3114,0.0473,0.04221,-0.0718
21.1,2.3163,0.0481,0.04307,-0.0736
21.2,2.321,0.04896,0.04398,-0.0754
21.3,2.3254,0.04988,0.04495,-0.0774
21.4,2.3294,0.05087,0.04599,-0.0795
21.5,2.3331,0.05194,0.04712,-0.0817
21.6,2.3364,0.05308,0.04832,-0.0841
21.7,2.3392,0.05434,0.04964,-0.0866
21.8,2.3414,0.05571,0.05107,-0.0893
21.9,2.3429,0.05723,0.05266,-0.0923
22,2.3435,0.05893,0.05443,-0.0955
22.1,2.3432,0.06081,0.05639,-0.099
22.2,2.342,0.0629,0.05856,-0.1028
22.3,2.3411,0.06489,0.06065,-0.1063
22.4,2.3393,0.06705,0.06291,-0.1101
22.5,2.3362,0.06949,0.06546,-0.1141
22.6,2.3319,0.07217,0.06824,-0.1185
22.7,2.3262,0.07516,0.07135,-0.1233
22.8,2.3184,0.07861,0.07493,-0.1286
22.9,2.3099,0.08216,0.0786,-0.134
23,2.2998,0.08602,0.0826,-0.1398
23.1,2.29,0.0897,0.08641,-0.1455
23.2,2.2805,0.09321,0.09003,-0.1511
23.3,2.2726,0.09631,0.09322,-0.1562
23.4,2.2632,0.09968,0.0967,-0.1618
23.5,2.2538,0.10299,0.10011,-0.1674
23.6,2.2479,0.10554,0.10273,-0.172
23.7,2.2391,0.10882,0.1061,-0.1775
23.8,2.2338,0.11134,0.10869,-0.1819
23.9,2.2259,0.11463,0.11206,-0.1872
24,2.2215,0.11714,0.11462,-0.1913
24.1,2.2138,0.12062,0.11817,-0.1966
24.2,2.2108,0.12295,0.12056,-0.2002
24.3,2.2089,0.12506,0.12272,-0.2033
24.4,2.2049,0.12778,0.12551,-0.2072
24.5,2.2035,0.12982,0.12758,-0.2101
24.6,2.2022,0.13182,0.12963,-0.213
24.7,2.1991,0.13439,0.13224,-0.2165
24.8,2.1956,0.13707,0.13497,-0.2201
24.9,2.1939,0.13925,0.13718,-0.2231
25,2.1922,0.14146,0.13942,-0.2262
25.1,2.1869,0.14475,0.14276,-0.2304
25.2,2.1837,0.14743,0.14547,-0.2339
25.3,2.1822,0.14962,0.1477,-0.2368
25.4,2.1816,0.15156,0.14968,-0.2394
25.5,2.178,0.15446,0.15262,-0.243
25.6,2.1763,0.15677,0.15497,-0.246
25.7,2.1753,0.1589,0.15712,-0.2487
26,2.1634,0.1683,0.16661,-0.2604
26.1,2.1628,0.17035,0.16868,-0.263
26.2,2.1622,0.17244,0.17078,-0.2656
26.3,2.1589,0.17548,0.17387,-0.2693
26.4,2.1562,0.17835,0.17676,-0.2727
26.5,2.1546,0.18088,0.1793,-0.2759
26.6,2.1535,0.18319,0.18164,-0.2787
26.7,2.1527,0.18545,0.18392,-0.2815
26.8,2.1495,0.18865,0.18717,-0.2852
27,2.1482,0.19316,0.19171,-0.2908
27.1,2.1471,0.19561,0.19417,-0.2938
27.2,2.1456,0.1983,0.1969,-0.297
27.3,2.1436,0.20121,0.19984,-0.3003
27.4,2.1435,0.20328,0.20193,-0.3029
27.5,2.1438,0.20522,0.20389,-0.3053
27.6,2.1441,0.20714,0.20582,-0.3077
27.7,2.1444,0.20905,0.20774,-0.3101
27.8,2.1444,0.21111,0.20981,-0.3126
27.9,2.143,0.21392,0.21266,-0.3158
28,2.1423,0.21644,0.21519,-0.3188
28.1,2.1424,0.21856,0.21733,-0.3214
28.2,2.1426,0.22063,0.2194,-0.3239
28.3,2.1432,0.22249,0.22128,-0.3262
28.4,2.144,0.22422,0.22302,-0.3284
28.5,2.1449,0.22594,0.22476,-0.3306
28.6,2.1457,0.22771,0.22654,-0.3328
28.7,2.1458,0.22991,0.22877,-0.3355
28.8,2.1461,0.23201,0.23089,-0.338
28.9,2.1469,0.23377,0.23266,-0.3402
29,2.1479,0.23547,0.23437,-0.3424
29.1,2.1489,0.23714,0.23606,-0.3445
29.2,2.1499,0.23876,0.23769,-0.3466
29.3,2.1509,0.24042,0.23936,-0.3488
29.4,2.152,0.24201,0.24096,-0.3508
29.5,2.1531,0.24364,0.24259,-0.353
29.6,2.1541,0.24527,0.24423,-0.3551
29.7,2.1551,0.24694,0.24591,-0.3572
29.8,2.1561,0.24861,0.24759,-0.3594
29.9,2.1567,0.25059,0.24958,-0.3618
30,2.1573,0.25252,0.25152,-0.3643

