airfoilName st7.dat
Re 	330000
M 	5.000000e-02
N 	4.500000e+00
VACC 	0 VACCflag 1
XTR 	1.00 	1.00 XTRflag 0
alpha,cl,cd,cdp,cm
-14,-1.194,0.03812,0.03383,-0.0466
-13.9,-1.1858,0.03709,0.03269,-0.0482
-13.8,-1.1779,0.03617,0.03167,-0.0494
-13.7,-1.17,0.03533,0.03072,-0.0503
-13.6,-1.1621,0.03453,0.02984,-0.0511
-13.5,-1.154,0.03379,0.029,-0.0517
-13.4,-1.1459,0.03308,0.0282,-0.0522
-13.3,-1.1377,0.03241,0.02743,-0.0527
-13.2,-1.1293,0.03176,0.02669,-0.0531
-13.1,-1.1208,0.03113,0.02598,-0.0534
-13,-1.1121,0.03053,0.02529,-0.0537
-12.9,-1.1033,0.02995,0.0246,-0.0539
-12.8,-1.0943,0.02938,0.02395,-0.0541
-12.7,-1.0852,0.02884,0.02332,-0.0543
-12.6,-1.0759,0.02832,0.02271,-0.0545
-12.5,-1.0665,0.02783,0.02213,-0.0546
-12.4,-1.0569,0.02736,0.02157,-0.0547
-12.3,-1.0471,0.02693,0.02104,-0.0548
-12.2,-1.0373,0.0265,0.02056,-0.0549
-12.1,-1.0278,0.026,0.02003,-0.0551
-12,-1.0181,0.02557,0.01957,-0.0552
-11.9,-1.0081,0.02517,0.01915,-0.0553
-11.8,-0.998,0.0248,0.01874,-0.0554
-11.7,-0.9878,0.02445,0.01837,-0.0554
-11.6,-0.9774,0.02412,0.018,-0.0555
-11.5,-0.967,0.0238,0.01764,-0.0556
-11.4,-0.9565,0.02349,0.01729,-0.0557
-11.3,-0.946,0.02318,0.01695,-0.0557
-11.2,-0.9354,0.02288,0.01662,-0.0558
-11.1,-0.9247,0.02259,0.01628,-0.0559
-11,-0.9141,0.02229,0.01595,-0.0559
-10.8,-0.8921,0.02195,0.01555,-0.056
-10.7,-0.8813,0.02165,0.0152,-0.0561
-10.6,-0.8705,0.02134,0.01485,-0.0561
-10.5,-0.8597,0.02105,0.0145,-0.0562
-10.4,-0.8488,0.02076,0.01416,-0.0562
-10.3,-0.8379,0.02047,0.01382,-0.0563
-10.2,-0.8269,0.0202,0.01348,-0.0563
-10.1,-0.8159,0.01994,0.01317,-0.0563
-10,-0.8048,0.01971,0.01287,-0.0564
-9.9,-0.7938,0.01941,0.01257,-0.0564
-9.8,-0.7829,0.0191,0.01225,-0.0565
-9.7,-0.7719,0.01883,0.01197,-0.0566
-9.6,-0.7608,0.01859,0.01172,-0.0566
-9.5,-0.7496,0.01837,0.01148,-0.0567
-9.4,-0.7385,0.01816,0.01125,-0.0567
-9.3,-0.7273,0.01795,0.01103,-0.0568
-9.2,-0.7161,0.01775,0.0108,-0.0568
-9.1,-0.7048,0.01755,0.01058,-0.0568
-9,-0.6936,0.01735,0.01035,-0.0569
-8.9,-0.6824,0.01715,0.01012,-0.0569
-8.8,-0.6711,0.01695,0.0099,-0.0569
-8.7,-0.6599,0.01676,0.00968,-0.0569
-8.6,-0.6486,0.01657,0.00945,-0.0569
-8.5,-0.6373,0.01638,0.00923,-0.0569
-8.4,-0.6261,0.01621,0.00902,-0.0569
-8.3,-0.6148,0.01606,0.00885,-0.0569
-8.2,-0.6037,0.01582,0.00861,-0.057
-8.1,-0.5925,0.01562,0.00842,-0.057
-8,-0.5813,0.01545,0.00824,-0.057
-7.9,-0.5698,0.01528,0.00807,-0.0571
-7.8,-0.5561,0.01512,0.00788,-0.0576
-7.7,-0.543,0.01504,0.00781,-0.058
-7.6,-0.5299,0.01488,0.00763,-0.0584
-7.5,-0.5163,0.01472,0.00744,-0.0588
-7.4,-0.5033,0.01457,0.00726,-0.0592
-7.3,-0.4901,0.01443,0.00708,-0.0596
-7.2,-0.4772,0.01426,0.00691,-0.0599
-7.1,-0.4639,0.01407,0.00673,-0.0603
-7,-0.4509,0.01391,0.00658,-0.0607
-6.9,-0.4378,0.01377,0.00643,-0.061
-6.8,-0.4248,0.01364,0.00629,-0.0614
-6.6,-0.399,0.01343,0.00605,-0.062
-6.5,-0.3861,0.01331,0.00591,-0.0623
-6.4,-0.3731,0.0132,0.00577,-0.0626
-6.3,-0.3603,0.01305,0.00563,-0.0629
-6.2,-0.3479,0.01291,0.0055,-0.0631
-6.1,-0.3353,0.01279,0.00538,-0.0633
-6,-0.3227,0.01267,0.00527,-0.0635
-5.9,-0.3102,0.01257,0.00515,-0.0637
-5.8,-0.2981,0.01247,0.00504,-0.0638
-5.7,-0.2858,0.01238,0.00493,-0.0639
-5.5,-0.2616,0.01219,0.00474,-0.0642
-5.4,-0.2497,0.01208,0.00464,-0.0642
-5.3,-0.2379,0.012,0.00455,-0.0642
-5.2,-0.2261,0.01192,0.00446,-0.0643
-5.1,-0.2142,0.01184,0.00437,-0.0643
-5,-0.2024,0.01177,0.00427,-0.0643
-4.9,-0.1907,0.01168,0.00418,-0.0643
-4.8,-0.1793,0.01161,0.0041,-0.0642
-4.7,-0.1676,0.01152,0.00404,-0.0643
-4.6,-0.1558,0.01145,0.00396,-0.0643
-4.5,-0.1441,0.01139,0.00388,-0.0643
-4.4,-0.1325,0.01131,0.0038,-0.0643
-4.3,-0.1208,0.01123,0.00373,-0.0643
-4.2,-0.1094,0.01117,0.00366,-0.0642
-4.1,-0.0977,0.01112,0.0036,-0.0642
-4,-0.086,0.01106,0.00353,-0.0642
-3.9,-0.0743,0.01097,0.00347,-0.0643
-3.8,-0.0625,0.01091,0.00341,-0.0643
-3.7,-0.0509,0.01086,0.00334,-0.0643
-3.6,-0.0392,0.01079,0.00329,-0.0643
-3.5,-0.0276,0.01074,0.00323,-0.0643
-3.4,-0.0159,0.0107,0.00318,-0.0643
-3.3,-0.0042,0.01063,0.00312,-0.0643
-3.2,0.0076,0.01056,0.00308,-0.0644
-3,0.0304,0.01048,0.00299,-0.0642
-2.9,0.0418,0.01045,0.00293,-0.0642
-2.8,0.0533,0.01042,0.00289,-0.0641
-2.7,0.0647,0.0104,0.00286,-0.064
-2.6,0.0765,0.01032,0.00282,-0.0641
-2.5,0.0882,0.01028,0.00277,-0.0642
-2.4,0.0997,0.01026,0.00274,-0.0641
-2.3,0.1114,0.01022,0.0027,-0.0642
-2.2,0.123,0.0102,0.00268,-0.0642
-2.1,0.1348,0.01014,0.00265,-0.0643
-2,0.1465,0.01011,0.00262,-0.0643
-1.9,0.158,0.01011,0.00259,-0.0643
-1.8,0.1696,0.01009,0.00257,-0.0643
-1.7,0.1813,0.01004,0.00254,-0.0644
-1.6,0.1931,0.01002,0.00251,-0.0644
-1.5,0.2047,0.01002,0.00249,-0.0644
-1.4,0.2165,0.00999,0.00247,-0.0645
-1.3,0.2282,0.00994,0.00245,-0.0646
-1.2,0.2397,0.00996,0.00244,-0.0646
-1.1,0.2512,0.00996,0.00243,-0.0646
-1,0.2627,0.00997,0.00241,-0.0646
-0.9,0.2744,0.00996,0.0024,-0.0647
-0.8,0.2861,0.0099,0.00239,-0.0648
-0.7,0.2978,0.00989,0.00238,-0.0649
-0.6,0.3092,0.00992,0.00238,-0.0649
-0.5,0.3207,0.00986,0.00237,-0.065
-0.4,0.3325,0.00983,0.00236,-0.0651
-0.3,0.3442,0.00981,0.00236,-0.0651
-0.2,0.3559,0.00977,0.00236,-0.0652
-0.1,0.3673,0.00967,0.00236,-0.0653
0,0.3789,0.00963,0.00236,-0.0654
0.1,0.3904,0.00957,0.00237,-0.0655
0.2,0.4015,0.00955,0.00238,-0.0655
0.3,0.4118,0.00933,0.00238,-0.0653
0.4,0.4224,0.00922,0.00239,-0.0651
0.5,0.4324,0.00913,0.00241,-0.0647
0.6,0.4387,0.00891,0.0024,-0.0633
0.7,0.4468,0.00885,0.00238,-0.0623
0.8,0.4562,0.00881,0.00235,-0.0617
0.9,0.4701,0.00875,0.00226,-0.0621
1,0.483,0.00878,0.00225,-0.0624
1.1,0.4944,0.00892,0.00229,-0.0625
1.2,0.5061,0.00899,0.00232,-0.0625
1.3,0.5178,0.00908,0.00236,-0.0626
1.4,0.5295,0.00917,0.00239,-0.0627
1.5,0.5411,0.00926,0.00244,-0.0627
1.6,0.5527,0.00936,0.00247,-0.0628
1.7,0.5643,0.00945,0.00252,-0.0628
1.8,0.5758,0.00956,0.00257,-0.0629
1.9,0.5874,0.00965,0.00261,-0.063
2,0.5985,0.00982,0.00267,-0.063
2.1,0.6101,0.00993,0.00273,-0.063
2.2,0.6215,0.01005,0.00278,-0.0631
2.3,0.6329,0.01018,0.00285,-0.0631
2.4,0.6443,0.01029,0.00289,-0.0632
2.5,0.6557,0.01042,0.00296,-0.0633
2.6,0.6671,0.01055,0.00303,-0.0633
2.7,0.6785,0.01068,0.00309,-0.0634
2.8,0.6899,0.0108,0.00316,-0.0634
2.9,0.7009,0.01099,0.00324,-0.0635
3,0.7123,0.01112,0.00332,-0.0635
3.1,0.7238,0.01122,0.00338,-0.0636
3.2,0.7353,0.01134,0.00344,-0.0637
3.3,0.7467,0.01146,0.00352,-0.0637
3.4,0.7582,0.01155,0.00358,-0.0638
3.5,0.7697,0.01165,0.00365,-0.0639
3.6,0.7812,0.01177,0.00373,-0.064
3.7,0.7926,0.01187,0.00381,-0.064
3.8,0.8042,0.01196,0.00387,-0.0641
3.9,0.8155,0.01209,0.00395,-0.0642
4,0.8269,0.0122,0.00403,-0.0642
4.1,0.8384,0.0123,0.00411,-0.0643
4.2,0.85,0.01238,0.00418,-0.0644
4.3,0.8615,0.01247,0.00426,-0.0644
4.4,0.8729,0.01256,0.00433,-0.0645
4.5,0.8843,0.01267,0.00441,-0.0646
4.6,0.8957,0.01279,0.0045,-0.0646
4.7,0.9072,0.01287,0.00458,-0.0647
4.8,0.9186,0.01297,0.00465,-0.0648
4.9,0.93,0.01306,0.00473,-0.0648
5,0.9414,0.01316,0.00481,-0.0649
5.1,0.9527,0.01328,0.0049,-0.0649
5.2,0.964,0.01339,0.005,-0.065
5.3,0.9755,0.01347,0.00508,-0.0651
5.4,0.9869,0.01355,0.00516,-0.0651
5.5,0.9983,0.01365,0.00525,-0.0652
5.6,1.0096,0.01375,0.00533,-0.0652
5.7,1.0209,0.01385,0.00542,-0.0653
5.8,1.0321,0.01397,0.00551,-0.0653
5.9,1.0433,0.01408,0.00561,-0.0654
6,1.0547,0.01417,0.0057,-0.0654
6.1,1.066,0.01426,0.00579,-0.0655
6.2,1.0773,0.01436,0.00589,-0.0655
6.3,1.0885,0.01447,0.00598,-0.0656
6.4,1.0996,0.01458,0.00608,-0.0656
6.5,1.1107,0.0147,0.00618,-0.0657
6.6,1.1218,0.01482,0.00629,-0.0657
6.7,1.1331,0.01491,0.00638,-0.0657
6.8,1.1444,0.015,0.00649,-0.0658
6.9,1.1556,0.0151,0.00659,-0.0658
7,1.1666,0.01522,0.00669,-0.0659
7.1,1.1777,0.01533,0.00679,-0.0659
7.2,1.1886,0.01546,0.0069,-0.0659
7.3,1.1995,0.01559,0.00701,-0.0659
7.4,1.2107,0.01569,0.00713,-0.066
7.5,1.2218,0.01579,0.00723,-0.066
7.6,1.2329,0.01589,0.00735,-0.066
7.7,1.2439,0.016,0.00747,-0.0661
7.8,1.2549,0.01612,0.00758,-0.0661
7.9,1.2658,0.01624,0.00769,-0.0661
8,1.2767,0.01637,0.00781,-0.0661
8.1,1.2872,0.01653,0.00793,-0.0661
8.2,1.2982,0.01663,0.00806,-0.0661
8.3,1.3092,0.01674,0.00818,-0.0661
8.4,1.3201,0.01685,0.0083,-0.0662
8.5,1.3309,0.01697,0.00843,-0.0662
8.6,1.3417,0.01709,0.00856,-0.0662
8.7,1.3525,0.01722,0.00868,-0.0662
8.8,1.3632,0.01735,0.00881,-0.0662
8.9,1.3737,0.01749,0.00895,-0.0662
9,1.3842,0.01765,0.00909,-0.0661
9.1,1.3948,0.01779,0.00923,-0.0661
9.2,1.4056,0.0179,0.00937,-0.0661
9.3,1.4163,0.01801,0.00949,-0.0661
9.4,1.4269,0.01814,0.00962,-0.0661
9.5,1.4375,0.01827,0.00977,-0.0661
9.6,1.448,0.01841,0.00992,-0.0661
9.7,1.4584,0.01856,0.01006,-0.066
9.8,1.4687,0.01871,0.01021,-0.066
9.9,1.4789,0.01887,0.01037,-0.0659
10,1.4891,0.01904,0.01053,-0.0659
10.1,1.4996,0.01916,0.01068,-0.0658
10.2,1.5101,0.01929,0.01083,-0.0658
10.3,1.5205,0.01942,0.01099,-0.0658
10.4,1.5308,0.01956,0.01114,-0.0657
10.5,1.541,0.01971,0.01131,-0.0657
10.6,1.5511,0.01986,0.01145,-0.0656
10.7,1.5611,0.02002,0.01162,-0.0655
10.8,1.571,0.0202,0.01179,-0.0654
10.9,1.5808,0.02038,0.01196,-0.0654
11,1.5906,0.02055,0.01214,-0.0653
11.1,1.6008,0.02069,0.01231,-0.0652
11.2,1.6109,0.02083,0.01248,-0.0651
11.3,1.6209,0.02098,0.01266,-0.065
11.4,1.6308,0.02114,0.01284,-0.0649
11.5,1.6406,0.0213,0.01302,-0.0648
11.6,1.6503,0.02147,0.01321,-0.0647
11.7,1.66,0.02164,0.01339,-0.0646
11.8,1.6692,0.02183,0.01356,-0.0645
11.9,1.6785,0.02203,0.01376,-0.0643
12,1.6876,0.02224,0.01396,-0.0642
12.1,1.6972,0.0224,0.01416,-0.064
12.2,1.7069,0.02256,0.01435,-0.0639
12.3,1.7164,0.02272,0.01455,-0.0638
12.4,1.7258,0.02289,0.01475,-0.0636
12.5,1.7351,0.02307,0.01495,-0.0635
12.6,1.7443,0.02325,0.01516,-0.0633
12.7,1.7533,0.02344,0.01536,-0.0631
12.8,1.7622,0.02364,0.01559,-0.0629
12.9,1.771,0.02384,0.0158,-0.0627
13,1.7796,0.02405,0.01602,-0.0625
13.1,1.7881,0.02427,0.01625,-0.0623
13.2,1.7959,0.02452,0.01648,-0.062
13.3,1.8049,0.02469,0.01669,-0.0618
13.4,1.8137,0.02487,0.01692,-0.0616
13.5,1.8223,0.02506,0.01714,-0.0613
13.6,1.8308,0.02526,0.01738,-0.0611
13.7,1.8391,0.02547,0.01761,-0.0608
13.8,1.8472,0.02568,0.01785,-0.0605
13.9,1.8552,0.0259,0.01809,-0.0602
14,1.8629,0.02612,0.01833,-0.0599
14.1,1.8704,0.02635,0.01858,-0.0595
14.2,1.8777,0.02658,0.01884,-0.0592
14.3,1.8847,0.02683,0.01911,-0.0588
14.4,1.8914,0.02709,0.01938,-0.0583
14.5,1.8977,0.02737,0.01966,-0.0578
14.6,1.9049,0.02756,0.0199,-0.0574
14.7,1.912,0.02778,0.02017,-0.057
14.8,1.9189,0.02801,0.02043,-0.0566
14.9,1.9254,0.02824,0.02071,-0.0561
15,1.9317,0.02848,0.02099,-0.0556
15.1,1.9375,0.02873,0.02127,-0.0551
15.2,1.9422,0.02898,0.02155,-0.0543
15.3,1.9467,0.02924,0.02185,-0.0536
15.4,1.9511,0.02952,0.02216,-0.0529
15.5,1.9554,0.02981,0.02248,-0.0522
15.6,1.9596,0.03011,0.02281,-0.0515
15.7,1.9639,0.03043,0.02314,-0.0509
15.8,1.968,0.03075,0.0235,-0.0503
15.9,1.9721,0.0311,0.02386,-0.0498
16,1.976,0.03146,0.02426,-0.0493
16.1,1.9799,0.03185,0.02466,-0.0489
16.2,1.9856,0.03213,0.025,-0.0486
16.3,1.9911,0.03242,0.02536,-0.0483
16.4,1.9964,0.03274,0.02573,-0.048
16.5,2.0017,0.03307,0.02611,-0.0478
16.6,2.0069,0.0334,0.0265,-0.0476
16.7,2.0121,0.03373,0.02686,-0.0474
16.8,2.0171,0.03409,0.02727,-0.0473
16.9,2.022,0.03446,0.02769,-0.0472
17,2.0268,0.03485,0.02811,-0.0472
17.1,2.0315,0.03525,0.02855,-0.0472
17.2,2.0362,0.03566,0.02899,-0.0473
17.3,2.0409,0.03608,0.02945,-0.0474
17.4,2.0455,0.03652,0.02993,-0.0476
17.5,2.0501,0.03699,0.03042,-0.0479
17.6,2.0536,0.03754,0.03096,-0.0484
17.7,2.0594,0.03792,0.03141,-0.0486
17.8,2.0652,0.03832,0.03189,-0.049
17.9,2.0709,0.03873,0.03236,-0.0493
18,2.0765,0.03916,0.03285,-0.0498
18.1,2.082,0.03961,0.03336,-0.0503
18.2,2.0875,0.04007,0.03387,-0.0508
18.3,2.093,0.04054,0.0344,-0.0515
18.4,2.0984,0.04103,0.03494,-0.0522
18.5,2.1039,0.04153,0.03549,-0.0529
18.6,2.1093,0.04205,0.03604,-0.0539
18.7,2.1143,0.04264,0.03665,-0.0551
18.8,2.1195,0.04323,0.03728,-0.0562
18.9,2.1247,0.04386,0.03794,-0.0574
19,2.1297,0.04452,0.03863,-0.0587
19.1,2.1348,0.04518,0.03934,-0.0601
19.2,2.141,0.0457,0.03994,-0.0611
19.3,2.147,0.04626,0.04057,-0.0622
19.4,2.1534,0.04677,0.04116,-0.0634
19.5,2.1591,0.04741,0.04186,-0.0648
19.6,2.1647,0.04807,0.04258,-0.0662
19.7,2.1702,0.04877,0.04335,-0.0678
19.8,2.1756,0.0495,0.04414,-0.0695
19.9,2.1808,0.05027,0.04497,-0.0712
20,2.1859,0.05109,0.04585,-0.0731
20.1,2.1907,0.05195,0.04677,-0.0751
20.2,2.1954,0.05288,0.04775,-0.0772
20.3,2.1997,0.05387,0.0488,-0.0795
20.4,2.2037,0.05493,0.04991,-0.0819
20.5,2.2063,0.05634,0.05136,-0.0852
20.6,2.2105,0.05734,0.05244,-0.0873
20.7,2.2147,0.05832,0.05351,-0.0894
20.8,2.2184,0.05939,0.05467,-0.0916
20.9,2.2218,0.06054,0.0559,-0.0939
21,2.2247,0.06176,0.05721,-0.0964
21.1,2.2272,0.06307,0.0586,-0.099
21.2,2.2293,0.06445,0.06007,-0.1018
21.3,2.2308,0.06594,0.06164,-0.1047
21.4,2.2318,0.06754,0.06332,-0.1077
21.5,2.2323,0.06925,0.06512,-0.1109
21.6,2.2321,0.07106,0.06701,-0.1143
21.7,2.2314,0.07298,0.06902,-0.1178
21.8,2.2302,0.07501,0.07113,-0.1214
21.9,2.2283,0.07714,0.07335,-0.1252
22,2.2235,0.08001,0.07629,-0.1302
22.1,2.2203,0.0824,0.07877,-0.1343
22.2,2.2146,0.08534,0.08179,-0.1393
22.3,2.2126,0.08737,0.08392,-0.1428
22.4,2.2107,0.08932,0.08596,-0.1461
22.5,2.2077,0.09148,0.08822,-0.1499
22.6,2.2051,0.0935,0.09033,-0.1534
22.7,2.2017,0.0957,0.09262,-0.1572
22.8,2.1987,0.09781,0.0948,-0.1609
22.9,2.195,0.10007,0.09714,-0.1648
23,2.192,0.10219,0.09934,-0.1685
23.1,2.1881,0.10456,0.10179,-0.1726
23.2,2.1852,0.1067,0.10398,-0.1762
23.3,2.1809,0.10926,0.10661,-0.1805
23.4,2.1782,0.11144,0.10885,-0.1841
23.5,2.175,0.11381,0.11127,-0.188
23.6,2.1722,0.11609,0.11358,-0.1916
23.7,2.1709,0.11801,0.11552,-0.1948
23.8,2.1698,0.11987,0.11739,-0.1978
23.9,2.1651,0.12292,0.12054,-0.2021
24,2.1614,0.12569,0.12342,-0.206
24.1,2.1552,0.12925,0.12708,-0.2108
24.2,2.1508,0.13231,0.13023,-0.2149
24.3,2.1435,0.13634,0.13436,-0.2201
24.4,2.139,0.13956,0.13765,-0.2243
24.5,2.1335,0.14316,0.14132,-0.2289
24.6,2.1311,0.14579,0.14398,-0.2323
24.7,2.1335,0.14698,0.14512,-0.2341
24.8,2.1354,0.1482,0.14632,-0.236
24.9,2.1327,0.151,0.14917,-0.2395
25.1,2.0833,0.17359,0.17215,-0.2641
25.2,2.0873,0.17409,0.17266,-0.2651
25.3,2.0916,0.17445,0.17301,-0.266
25.4,2.0959,0.17478,0.17333,-0.2668
25.5,2.1003,0.17507,0.1736,-0.2676
25.6,2.1048,0.17531,0.17383,-0.2683
28.4,2.1089,0.24103,0.23999,-0.3444
28.5,2.1112,0.24191,0.24088,-0.3458
28.6,2.1135,0.24276,0.24173,-0.3472
28.7,2.1159,0.24361,0.24258,-0.3487
28.8,2.1183,0.24434,0.24331,-0.35
28.9,2.1206,0.24512,0.24409,-0.3513
29,2.123,0.24583,0.24479,-0.3526
29.1,2.1185,0.25377,0.25279,-0.3599
29.2,2.1201,0.25535,0.25438,-0.3619
29.3,2.1218,0.25671,0.25574,-0.3638
29.4,2.1235,0.25805,0.25709,-0.3656
29.5,2.1254,0.25926,0.2583,-0.3673
29.6,2.1272,0.26043,0.25947,-0.369
29.7,2.1291,0.26146,0.2605,-0.3706
29.8,2.131,0.26245,0.2615,-0.3722
29.9,2.1329,0.26346,0.2625,-0.3738
30,2.1348,0.26438,0.26343,-0.3753

