airfoilName st8.dat
Re 	670000
M 	5.000000e-02
N 	4.500000e+00
VACC 	0 VACCflag 1
XTR 	1.00 	1.00 XTRflag 0
alpha,cl,cd,cdp,cm
-14,-1.1667,0.03358,0.03008,-0.0561
-13.9,-1.1591,0.03245,0.02884,-0.0573
-13.8,-1.1514,0.03151,0.0278,-0.0582
-13.7,-1.1436,0.03068,0.02687,-0.0588
-13.6,-1.1354,0.02993,0.02603,-0.0593
-13.5,-1.1271,0.02924,0.02526,-0.0597
-13.4,-1.1186,0.02861,0.02455,-0.06
-13.3,-1.1098,0.02803,0.02389,-0.0603
-13.2,-1.1009,0.02748,0.02328,-0.0605
-13.1,-1.0918,0.02697,0.0227,-0.0607
-13,-1.0824,0.0265,0.02216,-0.0609
-12.9,-1.073,0.02605,0.02165,-0.061
-12.8,-1.0634,0.02563,0.02117,-0.0611
-12.7,-1.0536,0.02524,0.02072,-0.0612
-12.6,-1.0437,0.02488,0.0203,-0.0613
-12.5,-1.0348,0.02425,0.01962,-0.0615
-12.4,-1.0259,0.02359,0.01889,-0.0617
-12.3,-1.0166,0.02302,0.01826,-0.0618
-12.2,-1.0069,0.02253,0.01772,-0.0619
-12.1,-0.997,0.02209,0.01722,-0.062
-12,-0.9869,0.02168,0.01676,-0.0621
-11.9,-0.9767,0.0213,0.01634,-0.0622
-11.8,-0.9664,0.02095,0.01595,-0.0622
-11.7,-0.956,0.02061,0.01558,-0.0623
-11.6,-0.9454,0.0203,0.01523,-0.0624
-11.5,-0.9349,0.01999,0.01488,-0.0624
-11.4,-0.9242,0.0197,0.01456,-0.0625
-11.3,-0.9135,0.01942,0.01424,-0.0625
-11.2,-0.9027,0.01915,0.01394,-0.0625
-11.1,-0.892,0.01888,0.01364,-0.0626
-11,-0.8811,0.01863,0.01336,-0.0626
-10.9,-0.8702,0.01837,0.01308,-0.0627
-10.8,-0.8593,0.01814,0.0128,-0.0627
-10.7,-0.8484,0.01789,0.01252,-0.0627
-10.6,-0.8374,0.01766,0.01226,-0.0628
-10.5,-0.8264,0.01743,0.012,-0.0628
-10.4,-0.8154,0.0172,0.01174,-0.0628
-10.3,-0.8043,0.01698,0.01149,-0.0629
-10.2,-0.7933,0.01676,0.01124,-0.0629
-10.1,-0.7822,0.01655,0.011,-0.0629
-10,-0.7702,0.01633,0.01076,-0.0631
-9.9,-0.7577,0.01611,0.01051,-0.0635
-9.8,-0.7451,0.01591,0.01027,-0.0638
-9.7,-0.7321,0.0157,0.01003,-0.0642
-9.6,-0.7197,0.0155,0.0098,-0.0645
-9.5,-0.7065,0.01531,0.00957,-0.0649
-9.4,-0.6941,0.01512,0.00935,-0.0652
-9.3,-0.6819,0.01495,0.00915,-0.0654
-9.2,-0.669,0.01478,0.00895,-0.0657
-9.1,-0.6565,0.01464,0.00877,-0.066
-9,-0.6442,0.01447,0.0086,-0.0662
-8.9,-0.6321,0.01423,0.00833,-0.0664
-8.8,-0.6201,0.01403,0.00811,-0.0666
-8.7,-0.608,0.01385,0.00791,-0.0668
-8.6,-0.5959,0.01369,0.00774,-0.0669
-8.5,-0.5842,0.01354,0.00757,-0.067
-8.4,-0.5724,0.0134,0.00741,-0.0671
-8.3,-0.5607,0.01326,0.00726,-0.0671
-8.2,-0.5493,0.01314,0.00712,-0.0671
-8.1,-0.5377,0.01302,0.00697,-0.0671
-8,-0.5261,0.01289,0.00683,-0.0672
-7.9,-0.5146,0.01277,0.00669,-0.0672
-7.8,-0.5035,0.01267,0.00656,-0.067
-7.7,-0.492,0.01255,0.00642,-0.067
-7.6,-0.4804,0.01244,0.00628,-0.067
-7.5,-0.4693,0.01234,0.00616,-0.0669
-7.4,-0.4579,0.01225,0.00603,-0.0669
-7.3,-0.4463,0.01215,0.00591,-0.0669
-7.2,-0.4347,0.01206,0.00579,-0.0669
-7.1,-0.4231,0.01192,0.00564,-0.0669
-7,-0.412,0.01181,0.00551,-0.0668
-6.9,-0.4005,0.01171,0.0054,-0.0668
-6.8,-0.3888,0.0116,0.00529,-0.0668
-6.7,-0.3771,0.01151,0.00518,-0.0669
-6.6,-0.3659,0.01143,0.00508,-0.0668
-6.5,-0.3543,0.01135,0.00498,-0.0668
-6.4,-0.3425,0.01126,0.00487,-0.0668
-6.2,-0.3192,0.01114,0.00472,-0.0669
-6.1,-0.3078,0.01106,0.00461,-0.0668
-6,-0.296,0.01095,0.0045,-0.0669
-5.9,-0.2842,0.01087,0.0044,-0.0669
-5.8,-0.2725,0.01079,0.00431,-0.0669
-5.7,-0.2608,0.01072,0.00423,-0.0669
-5.6,-0.249,0.01064,0.00414,-0.067
-5.5,-0.2374,0.01058,0.00405,-0.067
-5.4,-0.2257,0.01052,0.00397,-0.067
-5.3,-0.2138,0.01046,0.00389,-0.067
-5.2,-0.2019,0.0104,0.00382,-0.0671
-5.1,-0.1901,0.01032,0.00373,-0.0672
-5,-0.1784,0.01025,0.00364,-0.0672
-4.9,-0.1667,0.0102,0.00357,-0.0672
-4.8,-0.1548,0.01014,0.00352,-0.0673
-4.7,-0.143,0.01009,0.00345,-0.0673
-4.6,-0.1312,0.01005,0.00338,-0.0674
-4.5,-0.1193,0.00998,0.00331,-0.0674
-4.4,-0.1074,0.00992,0.00324,-0.0675
-4.3,-0.0957,0.00988,0.00318,-0.0675
-4.2,-0.0838,0.00982,0.00312,-0.0676
-4.1,-0.0719,0.00978,0.00307,-0.0677
-4,-0.06,0.00974,0.00301,-0.0677
-3.9,-0.0482,0.00969,0.00295,-0.0678
-3.8,-0.0367,0.00968,0.00289,-0.0677
-3.7,-0.0248,0.00963,0.00284,-0.0678
-3.6,-0.013,0.00961,0.00279,-0.0679
-3.5,-0.0013,0.0096,0.00275,-0.0679
-3.4,0.0103,0.00959,0.00269,-0.0679
-3.3,0.0223,0.00955,0.00265,-0.068
-3.2,0.0339,0.00954,0.00262,-0.068
-3.1,0.0458,0.00951,0.00258,-0.0681
-3,0.0577,0.00947,0.00252,-0.0682
-2.9,0.0696,0.00944,0.00249,-0.0683
-2.8,0.0813,0.00944,0.00246,-0.0683
-2.7,0.0932,0.00942,0.00242,-0.0684
-2.6,0.1048,0.00942,0.00239,-0.0684
-2.5,0.1167,0.00939,0.00237,-0.0685
-2.4,0.1284,0.00939,0.00233,-0.0686
-2.3,0.1402,0.00938,0.00231,-0.0687
-2.2,0.1521,0.00937,0.00229,-0.0687
-2.1,0.164,0.00935,0.00226,-0.0688
-2,0.1756,0.00936,0.00224,-0.0689
-1.9,0.1873,0.00936,0.00223,-0.069
-1.8,0.1992,0.00935,0.0022,-0.0691
-1.7,0.211,0.00934,0.0022,-0.0692
-1.6,0.2229,0.00933,0.00218,-0.0693
-1.5,0.2346,0.00933,0.00217,-0.0694
-1.4,0.2465,0.00929,0.00216,-0.0695
-1.3,0.258,0.00935,0.00216,-0.0696
-1.2,0.2698,0.00935,0.00216,-0.0697
-1.1,0.2817,0.00931,0.00215,-0.0698
-1,0.2935,0.0093,0.00214,-0.0699
-0.9,0.3054,0.0093,0.00215,-0.07
-0.8,0.3172,0.00929,0.00214,-0.0701
-0.7,0.329,0.00931,0.00214,-0.0702
-0.6,0.3409,0.00927,0.00214,-0.0704
-0.5,0.3525,0.00932,0.00215,-0.0704
-0.4,0.3643,0.00933,0.00215,-0.0705
-0.3,0.3761,0.0093,0.00216,-0.0707
-0.2,0.3879,0.00931,0.00217,-0.0708
-0.1,0.3997,0.00932,0.00217,-0.0709
0,0.4115,0.00932,0.00218,-0.071
0.1,0.4233,0.00929,0.00219,-0.0712
0.2,0.435,0.00929,0.00221,-0.0713
0.3,0.4468,0.0093,0.00221,-0.0714
0.4,0.4583,0.00931,0.00224,-0.0715
0.5,0.47,0.00932,0.00226,-0.0716
0.6,0.4817,0.00933,0.00228,-0.0717
0.7,0.4933,0.00928,0.0023,-0.0719
0.8,0.505,0.00928,0.00232,-0.072
0.9,0.5166,0.00929,0.00234,-0.0721
1,0.5282,0.00921,0.00237,-0.0723
1.1,0.5397,0.0092,0.00239,-0.0724
1.2,0.5508,0.00925,0.00244,-0.0725
1.4,0.5724,0.00904,0.00254,-0.0724
1.5,0.583,0.00903,0.00258,-0.0723
1.7,0.599,0.00888,0.00265,-0.0706
1.8,0.6073,0.00887,0.00264,-0.0698
1.9,0.6186,0.00892,0.00265,-0.0697
2,0.6318,0.00895,0.00264,-0.0702
2.1,0.6435,0.00904,0.00268,-0.0703
2.2,0.6548,0.00918,0.00275,-0.0703
2.3,0.6665,0.00925,0.00279,-0.0704
2.4,0.6782,0.00933,0.00283,-0.0705
2.5,0.6897,0.00942,0.00288,-0.0706
2.6,0.7015,0.00949,0.00293,-0.0707
2.7,0.7132,0.00955,0.00298,-0.0707
2.8,0.7248,0.00963,0.00302,-0.0708
2.9,0.7364,0.00971,0.00307,-0.0709
3,0.748,0.00979,0.00313,-0.071
3.1,0.7597,0.00985,0.00317,-0.0711
3.2,0.7713,0.00994,0.00322,-0.0712
3.3,0.7829,0.01001,0.00327,-0.0712
3.4,0.7944,0.01009,0.00332,-0.0713
3.5,0.8061,0.01016,0.00338,-0.0714
3.6,0.8177,0.01022,0.00343,-0.0715
3.7,0.8294,0.01029,0.00348,-0.0716
3.8,0.841,0.01036,0.00353,-0.0716
3.9,0.8525,0.01043,0.00358,-0.0717
4,0.864,0.01051,0.00364,-0.0718
4.1,0.8756,0.01059,0.0037,-0.0719
4.2,0.8871,0.01067,0.00376,-0.072
4.3,0.8987,0.01073,0.00381,-0.072
4.4,0.9102,0.01081,0.00387,-0.0721
4.5,0.9217,0.01089,0.00393,-0.0722
4.6,0.9331,0.01097,0.00399,-0.0722
4.7,0.9446,0.01105,0.00406,-0.0723
4.8,0.9561,0.01112,0.00412,-0.0724
4.9,0.9677,0.01118,0.00417,-0.0725
5,0.9792,0.01125,0.00423,-0.0725
5.1,0.9906,0.01133,0.00429,-0.0726
5.2,1.0019,0.01143,0.00436,-0.0727
5.3,1.0132,0.01152,0.00444,-0.0727
5.4,1.0247,0.0116,0.00451,-0.0728
5.5,1.0361,0.01167,0.00457,-0.0729
5.6,1.0475,0.01174,0.00464,-0.0729
5.7,1.0589,0.01181,0.0047,-0.073
5.8,1.0703,0.01189,0.00477,-0.073
5.9,1.0816,0.01198,0.00484,-0.0731
6,1.0929,0.01207,0.00492,-0.0732
6.1,1.1041,0.01216,0.00499,-0.0732
6.2,1.1154,0.01225,0.00508,-0.0733
6.3,1.1267,0.01233,0.00515,-0.0733
6.4,1.138,0.01241,0.00523,-0.0734
6.5,1.1493,0.01249,0.0053,-0.0734
6.6,1.1605,0.01258,0.00538,-0.0735
6.7,1.1717,0.01267,0.00546,-0.0735
6.8,1.1828,0.01277,0.00554,-0.0735
6.9,1.1939,0.01288,0.00563,-0.0736
7,1.2051,0.01296,0.00573,-0.0736
7.1,1.2163,0.01304,0.00581,-0.0737
7.2,1.2275,0.01312,0.00589,-0.0737
7.3,1.2386,0.0132,0.00597,-0.0737
7.4,1.2496,0.01331,0.00606,-0.0738
7.5,1.2606,0.01341,0.00615,-0.0738
7.6,1.2716,0.01352,0.00624,-0.0738
7.7,1.2825,0.01363,0.00634,-0.0738
7.8,1.2935,0.01373,0.00644,-0.0739
7.9,1.3046,0.01381,0.00653,-0.0739
8,1.3157,0.0139,0.00663,-0.0739
8.1,1.3266,0.01399,0.00672,-0.0739
8.2,1.3376,0.01409,0.00681,-0.074
8.3,1.3485,0.01419,0.00691,-0.074
8.4,1.3593,0.01429,0.00701,-0.074
8.5,1.3701,0.01441,0.00712,-0.074
8.6,1.3806,0.01456,0.00723,-0.074
8.7,1.3915,0.01465,0.00734,-0.074
8.8,1.4024,0.01475,0.00745,-0.074
8.9,1.4132,0.01485,0.00755,-0.074
9,1.424,0.01495,0.00766,-0.074
9.1,1.4347,0.01506,0.00777,-0.074
9.2,1.4454,0.01517,0.00788,-0.074
9.3,1.456,0.01528,0.00799,-0.074
9.4,1.4665,0.0154,0.00811,-0.0739
9.5,1.477,0.01553,0.00823,-0.0739
9.6,1.4874,0.01567,0.00836,-0.0739
9.7,1.498,0.01579,0.00848,-0.0738
9.8,1.5086,0.01589,0.0086,-0.0738
9.9,1.5191,0.016,0.00872,-0.0738
10,1.5296,0.01612,0.00884,-0.0738
10.1,1.54,0.01624,0.00896,-0.0737
10.2,1.5504,0.01636,0.00909,-0.0737
10.3,1.5606,0.01649,0.00922,-0.0736
10.4,1.5709,0.01663,0.00935,-0.0736
10.5,1.581,0.01678,0.00949,-0.0735
10.6,1.591,0.01693,0.00964,-0.0734
10.7,1.6012,0.01705,0.00978,-0.0733
10.8,1.6115,0.01717,0.00991,-0.0733
10.9,1.6218,0.01729,0.01005,-0.0732
11,1.6319,0.01741,0.01019,-0.0731
11.1,1.6419,0.01755,0.01032,-0.073
11.2,1.6519,0.01769,0.01047,-0.073
11.3,1.6618,0.01783,0.01061,-0.0729
11.4,1.6716,0.01798,0.01077,-0.0727
11.5,1.6813,0.01814,0.01092,-0.0726
11.6,1.6909,0.01831,0.01109,-0.0725
11.7,1.7004,0.01848,0.01126,-0.0724
11.8,1.7103,0.0186,0.01141,-0.0722
11.9,1.7201,0.01873,0.01156,-0.0721
12,1.7298,0.01887,0.01171,-0.072
12.1,1.7395,0.01901,0.01188,-0.0719
12.2,1.749,0.01916,0.01204,-0.0717
12.3,1.7583,0.01933,0.0122,-0.0715
12.4,1.7676,0.01949,0.01237,-0.0714
12.5,1.7767,0.01967,0.01255,-0.0712
12.6,1.7858,0.01985,0.01273,-0.071
12.7,1.7947,0.02003,0.01292,-0.0708
12.8,1.8035,0.02023,0.01312,-0.0705
12.9,1.8127,0.02038,0.0133,-0.0703
13,1.8218,0.02053,0.01347,-0.0701
13.1,1.8309,0.02068,0.01364,-0.0699
13.2,1.8398,0.02085,0.01382,-0.0697
13.3,1.8484,0.02103,0.01401,-0.0694
13.4,1.857,0.0212,0.0142,-0.0692
13.5,1.8654,0.02139,0.0144,-0.0689
13.6,1.8736,0.02158,0.01461,-0.0686
13.7,1.8817,0.02178,0.01482,-0.0683
13.8,1.8896,0.02199,0.01503,-0.0679
13.9,1.8967,0.02225,0.01529,-0.0675
14,1.9049,0.02242,0.01548,-0.0671
14.1,1.9128,0.02259,0.01567,-0.0668
14.2,1.9205,0.02278,0.01588,-0.0664
14.3,1.928,0.02298,0.0161,-0.066
14.4,1.9352,0.02318,0.01632,-0.0655
14.5,1.9423,0.02339,0.01654,-0.0651
14.6,1.9491,0.0236,0.01677,-0.0646
14.7,1.9557,0.02383,0.01701,-0.064
14.8,1.962,0.02406,0.01726,-0.0635
14.9,1.9679,0.02431,0.01752,-0.0629
15,1.9732,0.02456,0.01778,-0.0622
15.1,1.9773,0.02482,0.01807,-0.0612
15.2,1.9816,0.02507,0.01836,-0.0604
15.3,1.9865,0.0253,0.01862,-0.0596
15.4,1.9913,0.02554,0.01889,-0.0588
15.5,1.996,0.02579,0.01916,-0.0581
15.6,2.0006,0.02606,0.01946,-0.0574
15.7,2.0053,0.02634,0.01976,-0.0567
15.8,2.0099,0.02662,0.02007,-0.056
15.9,2.0145,0.02692,0.0204,-0.0554
16,2.019,0.02723,0.02073,-0.0548
16.1,2.0234,0.02755,0.02108,-0.0543
16.2,2.0277,0.02788,0.02144,-0.0537
16.3,2.0319,0.02823,0.02181,-0.0532
16.4,2.0348,0.02868,0.02225,-0.0527
16.5,2.0387,0.02906,0.02267,-0.0522
16.6,2.0438,0.02938,0.02302,-0.0519
16.7,2.0485,0.02971,0.02339,-0.0515
16.8,2.0531,0.03007,0.02378,-0.0512
16.9,2.0576,0.03044,0.02418,-0.051
17,2.062,0.03083,0.02461,-0.0507
17.1,2.0663,0.03123,0.02504,-0.0505
17.2,2.0706,0.03164,0.02548,-0.0503
17.3,2.0747,0.03207,0.02594,-0.0502
17.4,2.0788,0.03252,0.02642,-0.0501
17.5,2.0828,0.03298,0.02691,-0.0501
17.6,2.0867,0.03347,0.02743,-0.0502
17.7,2.0906,0.03398,0.02796,-0.0503
17.8,2.0944,0.0345,0.02852,-0.0504
17.9,2.099,0.03497,0.02903,-0.0506
18,2.1037,0.03543,0.02952,-0.0508
18.1,2.1084,0.03591,0.03005,-0.0511
18.2,2.113,0.03641,0.03058,-0.0514
18.3,2.1176,0.03693,0.03113,-0.0518
18.4,2.1221,0.03746,0.0317,-0.0523
18.5,2.1265,0.03801,0.03229,-0.0528
18.6,2.131,0.03859,0.0329,-0.0534
18.7,2.1353,0.03919,0.03354,-0.0541
18.8,2.1396,0.03982,0.0342,-0.0549
18.9,2.1437,0.04048,0.0349,-0.0558
19,2.1478,0.04118,0.03564,-0.0567
19.1,2.1518,0.04191,0.03642,-0.0578
19.2,2.1568,0.04251,0.03707,-0.0587
19.3,2.1615,0.04319,0.03778,-0.0598
19.4,2.1662,0.04387,0.03851,-0.0609
19.5,2.1708,0.04459,0.03927,-0.0621
19.6,2.1753,0.04535,0.04007,-0.0634
19.7,2.1796,0.04614,0.04091,-0.0648
19.8,2.1837,0.047,0.04181,-0.0664
19.9,2.1876,0.04789,0.04275,-0.068
20,2.1911,0.04888,0.04378,-0.0698
20.1,2.1945,0.04991,0.04486,-0.0717
20.2,2.1974,0.05103,0.04604,-0.0738
20.3,2.2012,0.05202,0.04709,-0.0756
20.4,2.2039,0.05321,0.04832,-0.0778
20.5,2.2067,0.05438,0.04955,-0.08
20.6,2.2092,0.05562,0.05085,-0.0823
20.7,2.2111,0.05699,0.05228,-0.0847
20.8,2.2123,0.0585,0.05385,-0.0874
20.9,2.2129,0.06016,0.05558,-0.0903
21,2.2127,0.06199,0.05748,-0.0934
21.1,2.2115,0.06403,0.05959,-0.0969
21.2,2.2099,0.06617,0.06184,-0.1004
21.3,2.2083,0.0683,0.06406,-0.1038
21.4,2.2059,0.07064,0.06649,-0.1075
21.5,2.2021,0.07329,0.06924,-0.1115
21.6,2.1971,0.07621,0.07227,-0.1159
21.7,2.191,0.07936,0.07554,-0.1205
21.9,2.1747,0.08668,0.0831,-0.1307
22.2,2.1471,0.09782,0.09458,-0.1464
22.3,2.1374,0.10146,0.09832,-0.1517
22.4,2.1282,0.10499,0.10195,-0.1569
22.5,2.1196,0.10837,0.10542,-0.162
23.1,2.0763,0.12806,0.12556,-0.1909
23.2,2.0734,0.13051,0.12805,-0.1943
23.3,2.0683,0.13365,0.13126,-0.1983
23.4,2.0644,0.1365,0.13415,-0.202
23.5,2.0615,0.13911,0.13679,-0.2054
23.7,2.053,0.14532,0.14312,-0.213
23.8,2.0512,0.1477,0.14553,-0.216
23.9,2.0474,0.15077,0.14864,-0.2197
24,2.0445,0.15361,0.15152,-0.223
24.1,2.0422,0.15626,0.15419,-0.2262
24.2,2.0397,0.15897,0.15693,-0.2294
24.3,2.0346,0.16268,0.16072,-0.2336
24.4,2.0332,0.16514,0.1632,-0.2365
24.5,2.0321,0.1675,0.16559,-0.2393
24.6,2.0298,0.1703,0.16842,-0.2425
24.7,2.0265,0.17356,0.17172,-0.2462
24.8,2.0246,0.1763,0.17448,-0.2493
24.9,2.0234,0.17878,0.177,-0.2522
25,2.0217,0.18152,0.17977,-0.2552
25.1,2.0193,0.1846,0.18288,-0.2586
25.2,2.0188,0.18691,0.18521,-0.2612
25.3,2.0185,0.18913,0.18746,-0.2638
25.4,2.0181,0.19141,0.18975,-0.2664
25.5,2.0162,0.19437,0.19274,-0.2696
25.6,2.0146,0.19729,0.19569,-0.2728
25.7,2.0142,0.19968,0.19811,-0.2755
25.8,2.0146,0.2017,0.20016,-0.2778
25.9,2.0152,0.20368,0.20216,-0.2801
26,2.0156,0.20571,0.2042,-0.2824
26.1,2.0154,0.20813,0.20665,-0.2851
26.2,2.0149,0.21068,0.20923,-0.2879
26.3,2.0153,0.2128,0.21137,-0.2903
26.4,2.0161,0.21473,0.21332,-0.2925
26.5,2.017,0.21664,0.21524,-0.2948
26.6,2.0178,0.21855,0.21716,-0.297
26.7,2.0186,0.22049,0.21913,-0.2992
26.8,2.0194,0.22246,0.22111,-0.3015
26.9,2.0195,0.22489,0.22357,-0.3042
27,2.0198,0.22718,0.22588,-0.3067
27.1,2.0207,0.22909,0.2278,-0.309
27.2,2.0217,0.23097,0.22968,-0.3112
27.3,2.023,0.2327,0.23142,-0.3133
27.4,2.0242,0.23446,0.23318,-0.3154
27.5,2.0255,0.23615,0.23488,-0.3174
27.6,2.0268,0.23782,0.23656,-0.3195
27.7,2.0283,0.23939,0.23813,-0.3215
27.8,2.0298,0.24093,0.23967,-0.3234
27.9,2.0313,0.2425,0.24126,-0.3253
28,2.0327,0.24414,0.24291,-0.3273
28.1,2.0337,0.24605,0.24485,-0.3296
28.2,2.0348,0.24789,0.24671,-0.3317
28.3,2.0362,0.24955,0.24839,-0.3338
28.4,2.0376,0.25117,0.25002,-0.3358
28.5,2.0391,0.25274,0.25162,-0.3377
28.6,2.0405,0.25428,0.25317,-0.3397
28.7,2.042,0.2558,0.25471,-0.3416
28.8,2.0436,0.25728,0.2562,-0.3435
28.9,2.0451,0.25879,0.25773,-0.3454
29,2.0465,0.26033,0.25928,-0.3474
29.1,2.048,0.26184,0.2608,-0.3493
29.2,2.0494,0.26334,0.26231,-0.3512
29.3,2.0509,0.26486,0.26385,-0.3532
29.4,2.0522,0.2664,0.26539,-0.3552
29.5,2.0537,0.2679,0.2669,-0.3571
29.6,2.055,0.26945,0.26846,-0.3591
29.7,2.0558,0.27153,0.27055,-0.3615
29.8,2.057,0.27323,0.27225,-0.3636
29.9,2.0582,0.27487,0.27391,-0.3657
30,2.0595,0.27645,0.2755,-0.3677

