airfoilName st8.dat
Re 	9.700000e+05
M 	5.000000e-02
N 	4.500000e+00
VACC 	0 VACCflag 1
XTR 	1.00 	1.00 XTRflag 0
alpha,cl,cd,cdp,cm
-15.1,-1.2822,0.0343,0.0312,-0.0554
-15,-1.2755,0.03282,0.0296,-0.0571
-14.9,-1.2687,0.03173,0.02841,-0.0582
-14.8,-1.2615,0.03082,0.02742,-0.0589
-14.7,-1.2541,0.03001,0.02654,-0.0594
-14.6,-1.2464,0.02929,0.02574,-0.0599
-14.5,-1.2384,0.02862,0.025,-0.0602
-14.4,-1.2302,0.028,0.02432,-0.0605
-14.3,-1.2218,0.02741,0.02367,-0.0607
-14.2,-1.2132,0.02686,0.02306,-0.0609
-14.1,-1.2045,0.02634,0.02248,-0.061
-14,-1.1956,0.02583,0.02192,-0.0612
-13.9,-1.1865,0.02535,0.02139,-0.0613
-13.8,-1.1773,0.0249,0.02088,-0.0614
-13.7,-1.1679,0.02445,0.02038,-0.0615
-13.6,-1.1585,0.02403,0.01991,-0.0616
-13.5,-1.1489,0.02361,0.01944,-0.0617
-13.4,-1.1392,0.02322,0.01899,-0.0617
-13.3,-1.1294,0.02283,0.01856,-0.0618
-13.2,-1.1195,0.02246,0.01814,-0.0619
-13.1,-1.1095,0.0221,0.01773,-0.0619
-13,-1.0994,0.02175,0.01735,-0.062
-12.9,-1.0893,0.02141,0.01696,-0.062
-12.8,-1.0791,0.02108,0.01659,-0.0621
-12.7,-1.0687,0.02076,0.01622,-0.0621
-12.6,-1.0584,0.02045,0.01587,-0.0621
-12.5,-1.0479,0.02014,0.01552,-0.0622
-12.4,-1.0374,0.01985,0.0152,-0.0622
-12.3,-1.0268,0.01957,0.01488,-0.0623
-12.2,-1.0162,0.01929,0.01456,-0.0623
-12.1,-1.0055,0.01902,0.01425,-0.0623
-12,-0.9947,0.01876,0.01395,-0.0624
-11.9,-0.9839,0.01851,0.01366,-0.0624
-11.8,-0.9731,0.01826,0.01338,-0.0624
-11.7,-0.9622,0.01802,0.01311,-0.0625
-11.6,-0.9512,0.0178,0.01286,-0.0625
-11.5,-0.9402,0.01758,0.0126,-0.0625
-11.4,-0.9292,0.01737,0.01237,-0.0626
-11.3,-0.9181,0.01716,0.01213,-0.0626
-11.2,-0.907,0.01697,0.01191,-0.0626
-11.1,-0.8959,0.01678,0.01169,-0.0627
-11,-0.8847,0.01661,0.0115,-0.0627
-10.9,-0.8736,0.01638,0.01125,-0.0628
-10.8,-0.8627,0.01604,0.01086,-0.0628
-10.7,-0.8505,0.01575,0.01054,-0.0631
-10.6,-0.8376,0.01548,0.01024,-0.0636
-10.5,-0.825,0.01524,0.00997,-0.0639
-10.4,-0.8127,0.01502,0.00973,-0.0642
-10.3,-0.7999,0.01482,0.00951,-0.0646
-10.2,-0.7879,0.01463,0.0093,-0.0647
-10.1,-0.7758,0.01445,0.0091,-0.0649
-10,-0.7633,0.01428,0.00891,-0.0652
-9.9,-0.7514,0.01412,0.00873,-0.0654
-9.8,-0.7395,0.01397,0.00856,-0.0655
-9.7,-0.7278,0.01381,0.00838,-0.0656
-9.6,-0.7161,0.01367,0.00822,-0.0656
-9.5,-0.7045,0.01353,0.00806,-0.0657
-9.4,-0.6933,0.0134,0.0079,-0.0656
-9.3,-0.6818,0.01327,0.00775,-0.0656
-9.2,-0.6705,0.01314,0.0076,-0.0656
-9.1,-0.6594,0.01302,0.00746,-0.0655
-9,-0.648,0.0129,0.00731,-0.0655
-8.9,-0.6367,0.01277,0.00717,-0.0655
-8.8,-0.6254,0.01266,0.00703,-0.0654
-8.7,-0.6143,0.01255,0.00689,-0.0653
-8.6,-0.6028,0.01244,0.00676,-0.0653
-8.5,-0.5913,0.01233,0.00662,-0.0653
-8.4,-0.5804,0.01224,0.0065,-0.0652
-8.3,-0.5688,0.01214,0.00637,-0.0652
-8.2,-0.5572,0.01204,0.00625,-0.0652
-8.1,-0.5456,0.01194,0.00614,-0.0652
-8,-0.5345,0.01182,0.00598,-0.0651
-7.9,-0.5229,0.0117,0.00584,-0.0651
-7.8,-0.5112,0.01158,0.00571,-0.0652
-7.7,-0.4995,0.01147,0.0056,-0.0652
-7.6,-0.4879,0.01137,0.00548,-0.0652
-7.5,-0.4766,0.0113,0.00538,-0.0652
-7.4,-0.4648,0.0112,0.00527,-0.0652
-7.3,-0.4531,0.01111,0.00517,-0.0653
-7.2,-0.4414,0.01103,0.00507,-0.0653
-7.1,-0.4299,0.01096,0.00496,-0.0652
-7,-0.4181,0.01088,0.00486,-0.0653
-6.9,-0.4063,0.0108,0.00477,-0.0653
-6.8,-0.3945,0.01073,0.00467,-0.0654
-6.7,-0.3828,0.01066,0.00458,-0.0654
-6.6,-0.3711,0.0106,0.0045,-0.0654
-6.5,-0.3593,0.01051,0.0044,-0.0655
-6.4,-0.3475,0.01043,0.0043,-0.0655
-6.3,-0.3357,0.01035,0.00421,-0.0656
-6.2,-0.3238,0.01027,0.00413,-0.0656
-6.1,-0.312,0.0102,0.00405,-0.0657
-6,-0.3004,0.01016,0.00397,-0.0657
-5.9,-0.2884,0.01009,0.00389,-0.0658
-5.8,-0.2765,0.01003,0.00382,-0.0659
-5.7,-0.2646,0.00997,0.00374,-0.0659
-5.6,-0.2528,0.00992,0.00367,-0.066
-5.5,-0.2409,0.00987,0.0036,-0.066
-5.4,-0.2291,0.00981,0.00352,-0.0661
-5.3,-0.2172,0.00974,0.00346,-0.0662
-5.2,-0.2053,0.00969,0.0034,-0.0662
-5.1,-0.1933,0.00963,0.00334,-0.0663
-5,-0.1814,0.00958,0.00327,-0.0664
-4.9,-0.1695,0.00954,0.00321,-0.0665
-4.8,-0.1577,0.00951,0.00315,-0.0665
-4.7,-0.1457,0.00945,0.00308,-0.0666
-4.6,-0.1338,0.0094,0.00302,-0.0667
-4.5,-0.1218,0.00935,0.00297,-0.0668
-4.4,-0.1098,0.00931,0.00292,-0.0668
-4.3,-0.0979,0.00927,0.00287,-0.0669
-4.2,-0.0861,0.00926,0.00282,-0.067
-4.1,-0.0745,0.00925,0.00277,-0.067
-4,-0.0625,0.0092,0.00272,-0.0671
-3.9,-0.0507,0.0092,0.00267,-0.0671
-3.8,-0.0389,0.00919,0.00263,-0.0672
-3.7,-0.027,0.00916,0.00259,-0.0673
-3.6,-0.0153,0.00916,0.00255,-0.0673
-3.5,-0.0033,0.00912,0.00251,-0.0674
-3.4,0.0087,0.00909,0.00247,-0.0675
-3.3,0.0206,0.00908,0.00244,-0.0676
-3.2,0.0324,0.00909,0.0024,-0.0677
-3.1,0.0443,0.00906,0.00236,-0.0678
-3,0.056,0.00908,0.00234,-0.0678
-2.9,0.068,0.00906,0.00231,-0.0679
-2.8,0.0799,0.00905,0.00228,-0.068
-2.7,0.0917,0.00905,0.00225,-0.0681
-2.6,0.1036,0.00903,0.00223,-0.0682
-2.5,0.1156,0.00902,0.00221,-0.0683
-2.4,0.1275,0.00901,0.00218,-0.0684
-2.3,0.1393,0.00902,0.00217,-0.0685
-2.2,0.1511,0.00903,0.00216,-0.0686
-2.1,0.163,0.009,0.00213,-0.0687
-2,0.175,0.00899,0.00212,-0.0688
-1.9,0.1869,0.00898,0.00209,-0.0689
-1.8,0.1988,0.00896,0.00208,-0.0691
-1.7,0.2106,0.00897,0.00207,-0.0692
-1.6,0.2224,0.00898,0.00207,-0.0693
-1.5,0.2342,0.00901,0.00206,-0.0694
-1.4,0.2461,0.00899,0.00205,-0.0695
-1.3,0.2581,0.00899,0.00205,-0.0696
-1.2,0.2699,0.00898,0.00204,-0.0697
-1.1,0.2819,0.00894,0.00203,-0.0699
-1,0.2938,0.00895,0.00203,-0.07
-0.9,0.3055,0.00898,0.00204,-0.0701
-0.8,0.3173,0.00896,0.00204,-0.0702
-0.7,0.3292,0.00896,0.00204,-0.0703
-0.6,0.3411,0.00897,0.00204,-0.0704
-0.5,0.353,0.00898,0.00205,-0.0705
-0.4,0.3648,0.00898,0.00205,-0.0707
-0.3,0.3767,0.00897,0.00206,-0.0708
-0.2,0.3886,0.00898,0.00206,-0.0709
-0.1,0.4004,0.009,0.00207,-0.071
0,0.4119,0.00905,0.0021,-0.0711
0.1,0.4238,0.00907,0.0021,-0.0713
0.2,0.4355,0.00909,0.00212,-0.0714
0.3,0.4473,0.00908,0.00214,-0.0715
0.4,0.4591,0.00911,0.00216,-0.0716
0.5,0.4708,0.00913,0.00217,-0.0717
0.6,0.4825,0.00917,0.0022,-0.0719
0.7,0.4942,0.00916,0.00222,-0.072
0.8,0.5056,0.00928,0.00227,-0.0721
0.9,0.5172,0.00933,0.0023,-0.0722
1,0.5288,0.00933,0.00233,-0.0724
1.1,0.5404,0.00938,0.00237,-0.0725
1.2,0.552,0.00943,0.00241,-0.0726
1.3,0.5636,0.0094,0.00244,-0.0728
1.4,0.5753,0.00943,0.00248,-0.0729
1.5,0.587,0.00944,0.00251,-0.073
1.6,0.5986,0.00937,0.00255,-0.0732
1.7,0.6102,0.00938,0.00259,-0.0733
1.9,0.633,0.00919,0.00268,-0.0735
2.1,0.6554,0.00908,0.00275,-0.0735
2.2,0.6643,0.00894,0.0028,-0.0728
2.3,0.674,0.00893,0.00283,-0.0724
2.4,0.6823,0.00888,0.00284,-0.0716
2.5,0.6928,0.0088,0.00279,-0.0713
2.6,0.7052,0.00883,0.0028,-0.0715
2.7,0.717,0.00889,0.00283,-0.0716
2.8,0.7285,0.00899,0.00289,-0.0717
2.9,0.7403,0.00904,0.00293,-0.0718
3,0.752,0.0091,0.00297,-0.0719
3.1,0.7638,0.00915,0.003,-0.072
3.2,0.7755,0.00921,0.00304,-0.0721
3.3,0.7872,0.00928,0.00309,-0.0722
3.4,0.7989,0.00936,0.00313,-0.0723
3.5,0.8106,0.00941,0.00318,-0.0724
3.6,0.8223,0.00947,0.00322,-0.0725
3.7,0.834,0.00952,0.00327,-0.0726
3.8,0.8456,0.00961,0.00332,-0.0726
3.9,0.8572,0.00968,0.00336,-0.0727
4,0.8688,0.00975,0.00341,-0.0728
4.1,0.8805,0.00981,0.00346,-0.0729
4.2,0.8921,0.00987,0.00351,-0.073
4.3,0.9038,0.00993,0.00356,-0.0731
4.4,0.9154,0.00999,0.0036,-0.0732
4.5,0.927,0.01005,0.00366,-0.0733
4.6,0.9386,0.01012,0.00371,-0.0733
4.7,0.9501,0.0102,0.00376,-0.0734
4.8,0.9616,0.01028,0.00383,-0.0735
4.9,0.9732,0.01034,0.00388,-0.0736
5,0.9848,0.01041,0.00393,-0.0737
5.1,0.9963,0.01047,0.00398,-0.0738
5.2,1.0078,0.01054,0.00404,-0.0738
5.3,1.0193,0.01062,0.0041,-0.0739
5.4,1.0308,0.0107,0.00416,-0.074
5.5,1.0422,0.01078,0.00423,-0.0741
5.6,1.0537,0.01084,0.00429,-0.0741
5.7,1.0652,0.01091,0.00435,-0.0742
5.8,1.0767,0.01097,0.00441,-0.0743
5.9,1.088,0.01106,0.00447,-0.0744
6,1.0994,0.01114,0.00453,-0.0744
6.1,1.1108,0.01122,0.00461,-0.0745
6.2,1.1221,0.01131,0.00467,-0.0745
6.3,1.1335,0.01139,0.00475,-0.0746
6.4,1.1449,0.01146,0.00481,-0.0747
6.5,1.1563,0.01153,0.00488,-0.0748
6.6,1.1677,0.0116,0.00494,-0.0748
6.7,1.179,0.01167,0.00501,-0.0749
6.8,1.1903,0.01175,0.00508,-0.0749
6.9,1.2014,0.01186,0.00516,-0.075
7,1.2126,0.01196,0.00525,-0.075
7.1,1.2238,0.01205,0.00533,-0.0751
7.2,1.2351,0.01212,0.0054,-0.0751
7.3,1.2464,0.01219,0.00547,-0.0752
7.4,1.2576,0.01227,0.00555,-0.0752
7.5,1.2688,0.01235,0.00563,-0.0753
7.6,1.28,0.01244,0.0057,-0.0753
7.7,1.2911,0.01253,0.00578,-0.0754
7.8,1.3022,0.01262,0.00587,-0.0754
7.9,1.3133,0.01272,0.00596,-0.0755
8,1.3243,0.01282,0.00605,-0.0755
8.1,1.3353,0.01292,0.00614,-0.0755
8.2,1.3464,0.013,0.00622,-0.0756
8.3,1.3575,0.01309,0.00631,-0.0756
8.4,1.3685,0.01318,0.0064,-0.0756
8.5,1.3795,0.01327,0.00648,-0.0757
8.6,1.3904,0.01337,0.00658,-0.0757
8.7,1.4013,0.01347,0.00667,-0.0757
8.8,1.4122,0.01358,0.00677,-0.0757
8.9,1.423,0.01369,0.00688,-0.0757
9,1.4338,0.0138,0.00698,-0.0757
9.1,1.4448,0.01388,0.00707,-0.0758
9.2,1.4557,0.01397,0.00717,-0.0758
9.3,1.4665,0.01407,0.00726,-0.0758
9.4,1.4772,0.01418,0.00736,-0.0758
9.5,1.488,0.01429,0.00747,-0.0758
9.6,1.4987,0.0144,0.00757,-0.0758
9.7,1.5093,0.01451,0.00768,-0.0758
9.8,1.5199,0.01464,0.0078,-0.0758
9.9,1.5304,0.01476,0.00792,-0.0757
10,1.5411,0.01487,0.00803,-0.0757
10.1,1.5517,0.01496,0.00814,-0.0757
10.2,1.5624,0.01506,0.00824,-0.0757
10.3,1.573,0.01517,0.00835,-0.0757
10.4,1.5835,0.01528,0.00846,-0.0757
10.5,1.594,0.01539,0.00858,-0.0756
10.6,1.6044,0.01551,0.0087,-0.0756
10.7,1.6145,0.01566,0.00883,-0.0755
10.8,1.6248,0.0158,0.00896,-0.0755
10.9,1.635,0.01593,0.00909,-0.0754
11,1.6453,0.01606,0.00923,-0.0754
11.1,1.6557,0.01617,0.00935,-0.0753
11.2,1.666,0.01628,0.00947,-0.0753
11.3,1.6762,0.0164,0.00959,-0.0752
11.4,1.6865,0.01652,0.00972,-0.0752
11.5,1.6966,0.01664,0.00985,-0.0751
11.6,1.7067,0.01677,0.00998,-0.075
11.7,1.7167,0.0169,0.01012,-0.0749
11.8,1.7263,0.01708,0.01027,-0.0748
11.9,1.7361,0.01723,0.01042,-0.0747
12,1.7458,0.01739,0.01058,-0.0746
12.1,1.7557,0.01753,0.01074,-0.0745
12.2,1.7656,0.01765,0.01087,-0.0744
12.3,1.7755,0.01777,0.01101,-0.0743
12.4,1.7853,0.0179,0.01115,-0.0742
12.5,1.7948,0.01806,0.0113,-0.074
12.6,1.8043,0.01821,0.01145,-0.0739
12.7,1.8138,0.01836,0.01161,-0.0737
12.8,1.8232,0.01851,0.01177,-0.0736
12.9,1.8325,0.01868,0.01193,-0.0734
13,1.8417,0.01885,0.01211,-0.0732
13.1,1.8508,0.01903,0.01228,-0.073
13.2,1.8598,0.0192,0.01246,-0.0728
13.4,1.8781,0.01951,0.0128,-0.0724
13.5,1.8871,0.01967,0.01297,-0.0722
13.6,1.896,0.01984,0.01314,-0.072
13.7,1.9048,0.02001,0.01332,-0.0718
13.8,1.9134,0.02019,0.01351,-0.0715
13.9,1.9219,0.02037,0.0137,-0.0712
14,1.9303,0.02057,0.01389,-0.071
14.1,1.9385,0.02077,0.0141,-0.0706
14.2,1.9465,0.02097,0.01431,-0.0703
14.3,1.9549,0.02113,0.0145,-0.07
14.4,1.9632,0.02129,0.01468,-0.0697
14.5,1.9712,0.02146,0.01487,-0.0694
14.6,1.9792,0.02164,0.01506,-0.069
14.7,1.9866,0.02185,0.01527,-0.0686
14.8,1.9941,0.02204,0.01548,-0.0682
14.9,2.0014,0.02224,0.0157,-0.0677
15,2.0084,0.02245,0.01592,-0.0672
15.1,2.0152,0.02267,0.01614,-0.0667
15.2,2.0217,0.02289,0.01638,-0.0662
15.3,2.028,0.02312,0.01662,-0.0656
15.4,2.0335,0.0234,0.0169,-0.065
15.5,2.0399,0.0236,0.01713,-0.0644
15.6,2.0456,0.02381,0.01735,-0.0637
15.7,2.0502,0.02402,0.01759,-0.0628
15.8,2.0537,0.02429,0.01787,-0.0618
15.9,2.0577,0.02455,0.01815,-0.0609
16,2.0617,0.02481,0.01843,-0.06
16.1,2.0657,0.02509,0.01873,-0.0592
16.2,2.0696,0.02538,0.01904,-0.0584
16.3,2.0736,0.02569,0.01936,-0.0576
16.4,2.0776,0.026,0.01969,-0.0569
16.5,2.0815,0.02633,0.02004,-0.0563
16.6,2.0853,0.02667,0.0204,-0.0556
16.7,2.0897,0.02698,0.02075,-0.055
16.8,2.0943,0.02728,0.02109,-0.0545
16.9,2.0987,0.0276,0.02143,-0.054
17,2.1032,0.02792,0.02178,-0.0535
17.1,2.1075,0.02827,0.02215,-0.0531
17.2,2.1118,0.02862,0.02253,-0.0527
17.3,2.115,0.02906,0.02298,-0.0523
17.4,2.119,0.02945,0.0234,-0.052
17.5,2.1228,0.02986,0.02383,-0.0517
17.6,2.1264,0.03029,0.02428,-0.0514
17.7,2.13,0.03074,0.02475,-0.0512
17.8,2.1335,0.0312,0.02524,-0.051
17.9,2.1372,0.03167,0.02574,-0.0509
18,2.1416,0.03208,0.02619,-0.0508
18.1,2.1459,0.03252,0.02665,-0.0508
18.2,2.1502,0.03297,0.02714,-0.0508
18.3,2.1545,0.03343,0.02763,-0.0509
18.4,2.1586,0.03391,0.02814,-0.0511
18.5,2.1628,0.03441,0.02867,-0.0513
18.6,2.1669,0.03493,0.02922,-0.0516
18.7,2.1708,0.03548,0.0298,-0.0519
18.8,2.1728,0.03624,0.03056,-0.0524
18.9,2.1763,0.03686,0.03122,-0.053
19,2.1805,0.03744,0.03184,-0.0535
19.1,2.1849,0.038,0.03244,-0.0541
19.2,2.1893,0.03859,0.03306,-0.0548
19.3,2.1936,0.03921,0.03371,-0.0555
19.4,2.198,0.03983,0.03437,-0.0563
19.5,2.202,0.04051,0.03508,-0.0573
19.6,2.206,0.04122,0.03582,-0.0583
19.7,2.2099,0.04196,0.0366,-0.0594
19.8,2.2134,0.04278,0.03745,-0.0607
19.9,2.215,0.0439,0.0386,-0.0625
20,2.2189,0.04473,0.03946,-0.064
20.1,2.2228,0.04558,0.04036,-0.0655
20.2,2.2234,0.04697,0.04176,-0.0679
20.3,2.2259,0.04811,0.04297,-0.07
20.4,2.2288,0.0492,0.0441,-0.072
20.5,2.2315,0.05035,0.04529,-0.0741
20.6,2.2339,0.05157,0.04656,-0.0764
20.7,2.2354,0.05298,0.04801,-0.079
20.8,2.2359,0.05457,0.04966,-0.0818
20.9,2.2357,0.05634,0.05152,-0.085
21,2.2357,0.0581,0.05334,-0.0881
21.1,2.2352,0.05997,0.05528,-0.0914
21.2,2.2337,0.06207,0.05745,-0.0949
21.3,2.23,0.06462,0.06008,-0.0991
21.4,2.2256,0.06739,0.06295,-0.1036
21.5,2.2203,0.07037,0.06606,-0.1082
21.6,2.2134,0.07375,0.06956,-0.1133
21.7,2.2054,0.07736,0.07329,-0.1185
21.8,2.1958,0.0814,0.07747,-0.1241
21.9,2.1836,0.08609,0.08231,-0.1304
22,2.1712,0.09075,0.08712,-0.1366
22.1,2.1576,0.09555,0.09207,-0.1431
22.3,2.1323,0.10431,0.1011,-0.1555
22.4,2.1209,0.10836,0.10526,-0.1614
22.5,2.1102,0.11222,0.10924,-0.1672
22.6,2.1015,0.11565,0.11275,-0.1725
22.7,2.0912,0.11964,0.11684,-0.1783
22.8,2.0858,0.1225,0.11976,-0.1825
22.9,2.0767,0.12648,0.12384,-0.188
23,2.072,0.12936,0.12677,-0.1921
23.1,2.0645,0.13318,0.13068,-0.197
23.2,2.0602,0.13609,0.13363,-0.2009
23.3,2.0533,0.13991,0.13751,-0.2056
23.4,2.0493,0.14289,0.14056,-0.2093
23.5,2.047,0.1454,0.14311,-0.2125
23.6,2.0413,0.14906,0.14683,-0.2168
23.7,2.0389,0.1517,0.1495,-0.22
23.8,2.0371,0.15416,0.15199,-0.223
23.9,2.0327,0.15757,0.15545,-0.2269
24,2.0293,0.16065,0.1586,-0.2305
24.1,2.0285,0.16289,0.16086,-0.2331
24.2,2.0282,0.16498,0.16298,-0.2356
24.3,2.026,0.16775,0.16579,-0.2388
24.4,2.0233,0.17075,0.16884,-0.2421
24.5,2.0231,0.17284,0.17096,-0.2446
24.6,2.023,0.17491,0.17305,-0.247
24.7,2.023,0.17697,0.17513,-0.2495
24.8,2.0218,0.17948,0.17768,-0.2523
25,2.0192,0.18472,0.183,-0.2581
25.1,2.0195,0.18671,0.18501,-0.2605
25.2,2.0197,0.18872,0.18704,-0.2628
25.3,2.0197,0.19082,0.18916,-0.2652
25.4,2.0173,0.19404,0.19243,-0.2687
25.5,2.0167,0.19646,0.19488,-0.2714
25.6,2.0172,0.19842,0.19686,-0.2736
25.7,2.0175,0.20045,0.19891,-0.276
25.8,2.0179,0.20249,0.20097,-0.2783
25.9,2.0182,0.20456,0.20306,-0.2807
26,2.0166,0.20763,0.20617,-0.284
26.1,2.0168,0.20985,0.20842,-0.2864
26.2,2.0178,0.21163,0.21022,-0.2885
26.3,2.019,0.21335,0.21196,-0.2906
26.4,2.0202,0.21502,0.21365,-0.2926
26.5,2.0214,0.21671,0.21535,-0.2946
26.6,2.0226,0.2184,0.21706,-0.2966
26.7,2.0237,0.22016,0.21883,-0.2987
26.8,2.0247,0.22197,0.22067,-0.3008
26.9,2.0246,0.2245,0.22322,-0.3035
27,2.0249,0.2267,0.22546,-0.306
27.1,2.0261,0.22848,0.22725,-0.3081
27.2,2.0273,0.23019,0.22897,-0.3101
27.3,2.0287,0.23182,0.23061,-0.3121
27.4,2.03,0.23346,0.23227,-0.3141
27.5,2.0314,0.23506,0.23388,-0.3161
27.6,2.0328,0.2367,0.23553,-0.3181
27.7,2.0341,0.23835,0.2372,-0.3201
27.8,2.0354,0.24002,0.23888,-0.3221
27.9,2.0367,0.2417,0.24057,-0.3242
28,2.0377,0.24354,0.24243,-0.3264
28.1,2.0379,0.24601,0.24492,-0.3291
28.2,2.039,0.24785,0.24678,-0.3313
28.3,2.0403,0.24952,0.24846,-0.3333
28.4,2.0416,0.25115,0.2501,-0.3353
28.5,2.043,0.25275,0.25171,-0.3373
28.6,2.044,0.25464,0.2536,-0.3396
28.7,2.0459,0.25584,0.25481,-0.3412
28.8,2.047,0.25761,0.25658,-0.3434
28.9,2.0485,0.25908,0.25805,-0.3453
29,2.0501,0.2605,0.25947,-0.3472
29.1,2.0517,0.26186,0.26084,-0.3491
29.2,2.0534,0.26316,0.26214,-0.3509
29.3,2.0551,0.2644,0.26338,-0.3526
29.4,2.0568,0.2656,0.26458,-0.3543
29.5,2.0586,0.26674,0.26571,-0.356
29.6,2.0598,0.26844,0.26744,-0.3581
29.7,2.061,0.27011,0.26913,-0.3601
29.8,2.0622,0.27174,0.27077,-0.3622
29.9,2.0631,0.27366,0.27271,-0.3644
30,2.0638,0.27588,0.27496,-0.3669

