airfoilName st9.dat
Re 	10000
M 	5.000000e-02
N 	4.500000e+00
VACC 	0 VACCflag 1
XTR 	1.00 	1.00 XTRflag 0
alpha,cl,cd,cdp,cm
-3.9,-0.1948,0.04468,0.02559,-0.0586
-3.8,-0.1854,0.04384,0.02482,-0.0584
-2.6,-0.0909,0.03319,0.01587,-0.0499
-2.5,-0.0903,0.03198,0.01509,-0.0464
-2.3,-0.0493,0.03194,0.01323,-0.0474
-2.2,-0.0347,0.03212,0.01293,-0.048
-1.9,0.0045,0.03252,0.0122,-0.0489
-1.8,0.0167,0.03263,0.012,-0.0491
-1.7,0.0286,0.03273,0.01182,-0.0492
-1.6,0.0402,0.03282,0.01164,-0.0494

