airfoilName st9.dat
Re 	8.300000e+05
M 	5.000000e-02
N 	4.500000e+00
VACC 	0 VACCflag 1
XTR 	1.00 	1.00 XTRflag 0
alpha,cl,cd,cdp,cm
-12.5,-0.989,0.0279,0.02433,-0.0653
-12.4,-0.9811,0.02695,0.02328,-0.0658
-12.3,-0.9729,0.02608,0.02232,-0.0662
-12.2,-0.9642,0.02536,0.02152,-0.0665
-12.1,-0.9553,0.02467,0.02075,-0.0667
-12,-0.9462,0.02405,0.02005,-0.0669
-11.9,-0.9368,0.02345,0.01939,-0.0671
-11.8,-0.9272,0.02294,0.01882,-0.0672
-11.7,-0.9175,0.02244,0.01826,-0.0674
-11.6,-0.9076,0.02197,0.01773,-0.0675
-11.5,-0.8977,0.02153,0.01724,-0.0676
-11.4,-0.8876,0.02111,0.01676,-0.0677
-11.3,-0.8774,0.02071,0.01631,-0.0677
-11.2,-0.8671,0.02033,0.01589,-0.0678
-11.1,-0.8568,0.01997,0.01548,-0.0678
-11,-0.8464,0.01962,0.01509,-0.0679
-10.9,-0.8359,0.01929,0.01472,-0.0679
-10.8,-0.8254,0.01897,0.01435,-0.068
-10.7,-0.8137,0.01865,0.01399,-0.0683
-10.6,-0.8011,0.01833,0.01363,-0.0687
-10.5,-0.7882,0.01802,0.01328,-0.0692
-10.4,-0.7759,0.01773,0.01294,-0.0696
-10.3,-0.7628,0.01744,0.01261,-0.0701
-10.2,-0.7507,0.01716,0.0123,-0.0704
-10.1,-0.7389,0.0169,0.01201,-0.0706
-10,-0.7267,0.01664,0.0117,-0.0709
-9.9,-0.7147,0.01639,0.01142,-0.0712
-9.8,-0.7026,0.01615,0.01113,-0.0714
-9.7,-0.6909,0.01592,0.01087,-0.0716
-9.6,-0.6793,0.01569,0.0106,-0.0717
-9.5,-0.6675,0.01547,0.01035,-0.0718
-9.4,-0.6559,0.01526,0.0101,-0.0719
-9.3,-0.6445,0.01506,0.00986,-0.072
-9.2,-0.6333,0.01486,0.00963,-0.072
-9.1,-0.622,0.01466,0.0094,-0.072
-9,-0.6107,0.01448,0.00918,-0.072
-8.9,-0.5997,0.0143,0.00896,-0.0719
-8.8,-0.5884,0.01413,0.00876,-0.0719
-8.7,-0.5771,0.01395,0.00854,-0.0719
-8.6,-0.5662,0.0138,0.00835,-0.0718
-8.5,-0.5551,0.01365,0.00816,-0.0718
-8.4,-0.5436,0.0135,0.00798,-0.0718
-8.3,-0.5322,0.01336,0.00781,-0.0718
-8.2,-0.5212,0.01323,0.00764,-0.0717
-8.1,-0.51,0.01312,0.0075,-0.0716
-8,-0.4986,0.013,0.00735,-0.0716
-7.9,-0.4871,0.01277,0.00711,-0.0716
-7.8,-0.476,0.01257,0.00687,-0.0716
-7.7,-0.4647,0.01239,0.00666,-0.0716
-7.6,-0.4533,0.01225,0.00649,-0.0716
-7.5,-0.4417,0.01211,0.00632,-0.0716
-7.4,-0.4304,0.01198,0.00617,-0.0715
-7.3,-0.4189,0.01187,0.00603,-0.0715
-7.2,-0.4074,0.01176,0.0059,-0.0715
-7.1,-0.3957,0.01164,0.00576,-0.0716
-7,-0.3843,0.01154,0.00563,-0.0715
-6.9,-0.3727,0.01144,0.00551,-0.0715
-6.8,-0.3612,0.01134,0.00539,-0.0716
-6.7,-0.3494,0.01124,0.00526,-0.0716
-6.6,-0.3377,0.01114,0.00515,-0.0716
-6.5,-0.3263,0.01106,0.00503,-0.0716
-6.4,-0.3146,0.01097,0.00492,-0.0716
-6.3,-0.3028,0.01088,0.0048,-0.0717
-6.2,-0.2911,0.0108,0.00469,-0.0717
-6.1,-0.2793,0.01073,0.00459,-0.0717
-6,-0.2678,0.01065,0.00448,-0.0717
-5.9,-0.256,0.01054,0.00436,-0.0718
-5.8,-0.2442,0.01045,0.00426,-0.0718
-5.7,-0.2325,0.01038,0.00417,-0.0719
-5.6,-0.2207,0.0103,0.00408,-0.0719
-5.5,-0.2089,0.01023,0.00399,-0.072
-5.4,-0.1972,0.01018,0.00391,-0.072
-5.3,-0.1854,0.01011,0.00382,-0.072
-5.2,-0.1736,0.01005,0.00374,-0.0721
-5.1,-0.1617,0.00999,0.00366,-0.0722
-5,-0.1499,0.00994,0.00358,-0.0722
-4.9,-0.1381,0.00988,0.0035,-0.0723
-4.8,-0.1263,0.00981,0.00343,-0.0723
-4.7,-0.1145,0.00975,0.00335,-0.0724
-4.6,-0.1027,0.0097,0.00329,-0.0724
-4.5,-0.0908,0.00965,0.00322,-0.0725
-4.4,-0.0789,0.0096,0.00316,-0.0726
-4.3,-0.067,0.00955,0.0031,-0.0726
-4.2,-0.0553,0.00953,0.00304,-0.0727
-4.1,-0.0434,0.00947,0.00297,-0.0728
-4,-0.0317,0.00945,0.00291,-0.0728
-3.9,-0.02,0.00942,0.00286,-0.0728
-3.8,-0.0083,0.0094,0.00282,-0.0729
-3.7,0.0035,0.00937,0.00277,-0.0729
-3.6,0.0152,0.00935,0.00271,-0.073
-3.5,0.0271,0.00931,0.00266,-0.073
-3.4,0.0388,0.0093,0.00262,-0.0731
-3.3,0.0507,0.00927,0.00258,-0.0732
-3.2,0.0623,0.00928,0.00254,-0.0732
-3.1,0.0742,0.00924,0.00249,-0.0733
-3,0.0861,0.00921,0.00245,-0.0734
-2.9,0.0977,0.00922,0.00242,-0.0734
-2.8,0.1096,0.0092,0.00239,-0.0735
-2.7,0.1214,0.00918,0.00235,-0.0736
-2.6,0.133,0.0092,0.00232,-0.0736
-2.5,0.1447,0.00921,0.0023,-0.0737
-2.4,0.1565,0.00921,0.00227,-0.0738
-2.3,0.1684,0.00918,0.00224,-0.0739
-2.2,0.1803,0.00917,0.00222,-0.074
-2.1,0.1921,0.00914,0.00219,-0.0741
-2,0.204,0.00912,0.00217,-0.0742
-1.9,0.2156,0.00915,0.00216,-0.0742
-1.8,0.2273,0.00917,0.00214,-0.0743
-1.7,0.2392,0.00915,0.00213,-0.0744
-1.6,0.2509,0.00917,0.00211,-0.0745
-1.5,0.2628,0.00915,0.0021,-0.0746
-1.4,0.2746,0.00912,0.00209,-0.0747
-1.2,0.2979,0.00916,0.00208,-0.0749
-1.1,0.3097,0.00916,0.00208,-0.075
-1,0.3215,0.00913,0.00208,-0.0751
-0.9,0.3333,0.00912,0.00207,-0.0752
-0.8,0.3451,0.00912,0.00206,-0.0753
-0.7,0.3569,0.00912,0.00207,-0.0754
-0.6,0.3687,0.00909,0.00207,-0.0756
-0.5,0.3805,0.00909,0.00207,-0.0757
-0.4,0.392,0.00914,0.00208,-0.0757
-0.3,0.4038,0.00914,0.00209,-0.0758
-0.2,0.4156,0.00912,0.00209,-0.076
-0.1,0.4273,0.00914,0.00211,-0.0761
0,0.4391,0.00915,0.00211,-0.0762
0.1,0.4508,0.00914,0.00213,-0.0763
0.2,0.4625,0.00915,0.00214,-0.0764
0.3,0.4742,0.00918,0.00216,-0.0765
0.4,0.4856,0.00921,0.00219,-0.0766
0.5,0.4973,0.00923,0.0022,-0.0767
0.6,0.5089,0.00925,0.00222,-0.0768
0.7,0.5205,0.00923,0.00225,-0.077
0.8,0.5321,0.00925,0.00228,-0.0771
0.9,0.5437,0.00929,0.00231,-0.0772
1,0.5552,0.00925,0.00234,-0.0774
1.1,0.5667,0.00928,0.00237,-0.0775
1.2,0.5782,0.00931,0.00241,-0.0776
1.3,0.5892,0.00932,0.00247,-0.0777
1.4,0.6006,0.00933,0.00251,-0.0778
1.6,0.6219,0.009,0.00262,-0.0778
1.7,0.6321,0.00896,0.00267,-0.0775
1.8,0.6417,0.00891,0.00271,-0.0771
1.9,0.6462,0.00873,0.00268,-0.0753
2,0.6587,0.00875,0.00268,-0.0755
2.1,0.6711,0.00878,0.00269,-0.0757
2.2,0.6827,0.00885,0.00272,-0.0758
2.3,0.6943,0.00892,0.00276,-0.0759
2.4,0.7058,0.00902,0.00282,-0.076
2.5,0.7174,0.00909,0.00286,-0.076
2.6,0.7291,0.00915,0.0029,-0.0761
2.7,0.7406,0.00923,0.00294,-0.0762
2.8,0.7522,0.0093,0.00299,-0.0763
2.9,0.7639,0.00935,0.00304,-0.0764
3,0.7755,0.00941,0.00308,-0.0764
3.1,0.7871,0.00948,0.00312,-0.0765
3.2,0.7987,0.00955,0.00316,-0.0766
3.3,0.8101,0.00965,0.00322,-0.0766
3.4,0.8217,0.0097,0.00327,-0.0767
3.5,0.8333,0.00976,0.00331,-0.0768
3.6,0.8449,0.00983,0.00336,-0.0769
3.7,0.8564,0.0099,0.00341,-0.077
3.8,0.8679,0.00997,0.00346,-0.077
3.9,0.8794,0.01005,0.00352,-0.0771
4,0.8909,0.01011,0.00357,-0.0772
4.1,0.9025,0.01017,0.00361,-0.0772
4.2,0.9139,0.01025,0.00367,-0.0773
4.3,0.9254,0.01032,0.00372,-0.0774
4.4,0.9368,0.0104,0.00378,-0.0774
4.5,0.9482,0.01048,0.00384,-0.0775
4.6,0.9597,0.01054,0.00389,-0.0776
4.7,0.9712,0.0106,0.00395,-0.0776
4.8,0.9826,0.01067,0.00401,-0.0777
4.9,0.9941,0.01074,0.00407,-0.0778
5,1.0054,0.01081,0.00412,-0.0778
5.1,1.0168,0.01089,0.00418,-0.0779
5.2,1.0281,0.01098,0.00425,-0.0779
5.3,1.0394,0.01106,0.00432,-0.078
5.4,1.0508,0.01113,0.00438,-0.0781
5.5,1.0621,0.0112,0.00445,-0.0781
5.6,1.0734,0.01127,0.00451,-0.0782
5.7,1.0847,0.01135,0.00458,-0.0782
5.8,1.096,0.01144,0.00465,-0.0783
5.9,1.1072,0.01153,0.00472,-0.0783
6,1.1184,0.01161,0.0048,-0.0783
6.1,1.1297,0.01168,0.00486,-0.0784
6.2,1.141,0.01175,0.00493,-0.0784
6.3,1.1522,0.01183,0.005,-0.0785
6.4,1.1634,0.01191,0.00508,-0.0785
6.5,1.1744,0.01201,0.00516,-0.0786
6.6,1.1855,0.0121,0.00523,-0.0786
6.7,1.1966,0.0122,0.00531,-0.0786
6.8,1.2077,0.01229,0.0054,-0.0787
6.9,1.2189,0.01236,0.00548,-0.0787
7,1.23,0.01244,0.00555,-0.0787
7.1,1.2411,0.01252,0.00563,-0.0788
7.2,1.2522,0.01261,0.00571,-0.0788
7.3,1.2632,0.0127,0.0058,-0.0788
7.4,1.2742,0.01279,0.00589,-0.0788
7.5,1.2851,0.01289,0.00598,-0.0788
7.6,1.2958,0.01302,0.00608,-0.0788
7.7,1.3068,0.0131,0.00617,-0.0789
7.8,1.3178,0.01319,0.00625,-0.0789
7.9,1.3287,0.01328,0.00634,-0.0789
8,1.3396,0.01337,0.00643,-0.0789
8.1,1.3505,0.01346,0.00652,-0.0789
8.2,1.3613,0.01356,0.00662,-0.0789
8.3,1.372,0.01367,0.00672,-0.0789
8.4,1.3827,0.01378,0.00682,-0.0789
8.5,1.3934,0.0139,0.00693,-0.0789
8.6,1.4041,0.014,0.00704,-0.0789
8.7,1.4149,0.01409,0.00714,-0.0789
8.8,1.4255,0.01419,0.00723,-0.0788
8.9,1.4362,0.0143,0.00734,-0.0788
9,1.4468,0.0144,0.00744,-0.0788
9.1,1.4574,0.01451,0.00755,-0.0788
9.2,1.4679,0.01463,0.00767,-0.0787
9.3,1.4783,0.01475,0.00778,-0.0787
9.4,1.4887,0.01488,0.0079,-0.0787
9.5,1.4991,0.015,0.00803,-0.0786
9.6,1.5097,0.0151,0.00814,-0.0786
9.7,1.5202,0.0152,0.00825,-0.0785
9.8,1.5306,0.01531,0.00836,-0.0785
9.9,1.5409,0.01543,0.00848,-0.0784
10,1.5512,0.01555,0.0086,-0.0784
10.1,1.5614,0.01568,0.00873,-0.0783
10.2,1.5715,0.01581,0.00886,-0.0782
10.3,1.5816,0.01595,0.009,-0.0781
10.4,1.5916,0.01609,0.00913,-0.078
10.5,1.6017,0.01622,0.00928,-0.078
10.6,1.6119,0.01633,0.0094,-0.0779
10.7,1.6221,0.01645,0.00952,-0.0778
10.8,1.6321,0.01657,0.00965,-0.0777
10.9,1.6421,0.01669,0.00979,-0.0776
11,1.6521,0.01682,0.00992,-0.0775
11.1,1.6619,0.01696,0.01006,-0.0774
11.2,1.6717,0.0171,0.01021,-0.0773
11.3,1.6814,0.01725,0.01036,-0.0771
11.4,1.6906,0.01744,0.01054,-0.0769
11.5,1.7,0.01761,0.0107,-0.0768
11.6,1.7098,0.01773,0.01085,-0.0766
11.7,1.7195,0.01786,0.01099,-0.0765
11.8,1.7289,0.01801,0.01114,-0.0763
11.9,1.7384,0.01815,0.01129,-0.0762
12,1.7478,0.0183,0.01145,-0.076
12.1,1.757,0.01846,0.01161,-0.0758
12.2,1.7657,0.01867,0.0118,-0.0756
12.3,1.7746,0.01885,0.01198,-0.0753
12.4,1.7834,0.01904,0.01217,-0.0751
12.5,1.7926,0.01918,0.01234,-0.0749
12.6,1.8016,0.01933,0.0125,-0.0747
12.7,1.8105,0.01949,0.01267,-0.0744
12.8,1.8193,0.01965,0.01285,-0.0742
12.9,1.828,0.01982,0.01303,-0.0739
13,1.8365,0.02,0.01322,-0.0736
13.1,1.8448,0.02019,0.01341,-0.0733
13.2,1.853,0.02038,0.01361,-0.073
13.3,1.8609,0.02058,0.01382,-0.0726
13.4,1.8687,0.02079,0.01403,-0.0722
13.5,1.8766,0.02098,0.01424,-0.0718
13.6,1.8847,0.02115,0.01443,-0.0715
13.7,1.8926,0.02132,0.01462,-0.0711
13.8,1.9002,0.0215,0.01482,-0.0707
13.9,1.9077,0.02169,0.01503,-0.0702
14,1.9149,0.02188,0.01524,-0.0697
14.1,1.9213,0.02213,0.01548,-0.0692
14.2,1.9279,0.02236,0.01571,-0.0686
14.4,1.9393,0.0229,0.01626,-0.0673
14.5,1.9455,0.0231,0.01649,-0.0667
14.6,1.9506,0.02331,0.01673,-0.0658
14.7,1.9553,0.02353,0.01697,-0.0649
14.8,1.9599,0.02377,0.01723,-0.0641
14.9,1.9645,0.02402,0.01751,-0.0632
15,1.969,0.02428,0.01779,-0.0624
15.1,1.9734,0.02455,0.01808,-0.0616
15.2,1.9778,0.02483,0.01838,-0.0608
15.3,1.9822,0.02513,0.0187,-0.0601
15.4,1.9864,0.02544,0.01903,-0.0594
15.5,1.9905,0.02577,0.01937,-0.0587
15.6,1.9946,0.0261,0.01973,-0.058
15.7,1.9984,0.02646,0.0201,-0.0573
15.8,2.0024,0.02681,0.02048,-0.0567
15.9,2.0068,0.02713,0.02083,-0.0561
16,2.0112,0.02747,0.02119,-0.0556
16.1,2.0154,0.02782,0.02157,-0.0551
16.2,2.0186,0.02825,0.02201,-0.0546
16.3,2.0223,0.02865,0.02245,-0.0541
16.4,2.026,0.02907,0.02289,-0.0537
16.5,2.0293,0.02952,0.02335,-0.0533
16.6,2.0325,0.02998,0.02383,-0.0529
16.7,2.0359,0.03044,0.02433,-0.0525
16.8,2.0399,0.03086,0.02478,-0.0523
16.9,2.0439,0.03129,0.02525,-0.0521
17,2.0477,0.03174,0.02573,-0.0519
17.1,2.0516,0.03221,0.02623,-0.0517
17.2,2.0552,0.0327,0.02675,-0.0516
17.3,2.0588,0.03322,0.02729,-0.0516
17.4,2.0623,0.03375,0.02785,-0.0516
17.5,2.0655,0.03432,0.02845,-0.0517
17.6,2.0685,0.03492,0.02908,-0.0518
17.7,2.0714,0.03555,0.02972,-0.052
17.8,2.0746,0.03616,0.03038,-0.0523
17.9,2.0784,0.03673,0.03099,-0.0526
18,2.082,0.03733,0.03163,-0.053
18.2,2.0876,0.03878,0.03311,-0.0541
18.3,2.0871,0.0399,0.03425,-0.0551
18.4,2.0905,0.04063,0.03501,-0.0558
18.5,2.0938,0.04138,0.0358,-0.0567
18.6,2.097,0.04217,0.03662,-0.0576
18.7,2.0997,0.04304,0.03753,-0.0587
18.8,2.102,0.04401,0.03852,-0.06
18.9,2.1043,0.045,0.03957,-0.0614
19,2.1071,0.04595,0.04056,-0.0628
19.1,2.1097,0.04696,0.0416,-0.0643
19.2,2.1114,0.04813,0.0428,-0.0662
19.3,2.1128,0.04939,0.0441,-0.0682
19.4,2.1142,0.05069,0.04547,-0.0703
19.6,2.1109,0.05446,0.04934,-0.0765
19.7,2.1106,0.05619,0.05112,-0.0794
19.8,2.1099,0.05804,0.05303,-0.0825
19.9,2.1078,0.06022,0.05531,-0.086
20,2.1062,0.06234,0.05749,-0.0894
20.1,2.104,0.06463,0.05986,-0.093
20.2,2.1009,0.06713,0.06245,-0.0969
20.3,2.0965,0.06997,0.06538,-0.1011
20.4,2.0921,0.07284,0.06839,-0.1053
20.5,2.0869,0.07592,0.07158,-0.1097
20.6,2.0808,0.07929,0.07506,-0.1143
20.7,2.073,0.08306,0.07895,-0.1193
20.8,2.0632,0.08736,0.0834,-0.1248
20.9,2.0525,0.09183,0.08801,-0.1304
21,2.0418,0.09624,0.09255,-0.1359
21.1,2.0309,0.10057,0.09701,-0.1414
21.2,2.0201,0.10479,0.10135,-0.1469
21.3,2.0093,0.10898,0.10566,-0.1524
21.4,1.9998,0.1128,0.10959,-0.1576
21.5,1.9925,0.11608,0.11296,-0.1622
21.6,1.9833,0.11992,0.1169,-0.1674
21.7,1.9771,0.12303,0.12008,-0.1717
21.8,1.9697,0.12658,0.12372,-0.1764
21.9,1.965,0.12948,0.12669,-0.1803
22,1.9585,0.13306,0.13035,-0.1847
22.1,1.9554,0.13569,0.13302,-0.1881
22.2,1.9498,0.13921,0.13663,-0.1923
22.3,1.9471,0.14191,0.13937,-0.1955
22.4,1.9452,0.14438,0.14188,-0.1985
22.5,1.9404,0.14787,0.14544,-0.2024
22.6,1.9384,0.15046,0.14807,-0.2054
22.7,1.9371,0.15284,0.1505,-0.2082
22.8,1.9343,0.1558,0.1535,-0.2115
22.9,1.9315,0.15882,0.15657,-0.2148
23,1.9306,0.16115,0.15894,-0.2174
23.1,1.9297,0.1635,0.16132,-0.22
23.2,1.9272,0.1665,0.16437,-0.2232
23.3,1.925,0.16944,0.16736,-0.2264
23.4,1.9245,0.17174,0.16968,-0.2289
23.5,1.924,0.17403,0.17201,-0.2315
23.6,1.9233,0.17643,0.17444,-0.2341
23.7,1.9204,0.17978,0.17785,-0.2375
23.8,1.9199,0.18217,0.18026,-0.2401
23.9,1.92,0.18431,0.18244,-0.2424
24,1.9204,0.18635,0.1845,-0.2446
24.1,1.9206,0.18848,0.18666,-0.2469
24.2,1.9188,0.19154,0.18976,-0.25
24.3,1.9188,0.19385,0.19211,-0.2525
24.4,1.9194,0.19585,0.19413,-0.2547
24.5,1.9202,0.19778,0.19609,-0.2568
24.6,1.921,0.19975,0.19808,-0.259
24.7,1.9216,0.20179,0.20014,-0.2612
24.8,1.9216,0.20419,0.20258,-0.2637
24.9,1.921,0.20692,0.20535,-0.2665
25,1.9216,0.209,0.20745,-0.2687
25.1,1.9226,0.21092,0.20938,-0.2708
25.2,1.9238,0.21276,0.21124,-0.2729
25.3,1.9249,0.21462,0.21312,-0.275
25.4,1.926,0.21651,0.21503,-0.2771
25.5,1.927,0.21845,0.21699,-0.2792
25.6,1.9273,0.22082,0.2194,-0.2817
25.7,1.9276,0.22323,0.22183,-0.2842
25.8,1.9287,0.2252,0.22382,-0.2864
25.9,1.93,0.22698,0.22561,-0.2884
26,1.9314,0.22875,0.22739,-0.2904
26.1,1.9328,0.23049,0.22915,-0.2924
26.2,1.9343,0.2322,0.23088,-0.2944
26.3,1.9356,0.23399,0.23268,-0.2964
26.4,1.9371,0.23571,0.23441,-0.2984
26.5,1.9384,0.23751,0.23622,-0.3005
26.6,1.9398,0.23927,0.23799,-0.3025
26.7,1.9407,0.24143,0.24017,-0.3048
26.8,1.9418,0.24341,0.24216,-0.307
26.9,1.9432,0.24513,0.24389,-0.3091
27,1.9449,0.24669,0.24546,-0.3109
27.1,1.9467,0.24817,0.24694,-0.3128
27.2,1.9485,0.24956,0.24834,-0.3146
27.3,1.9504,0.25089,0.24967,-0.3163
27.4,1.9521,0.25227,0.25103,-0.3181
27.5,1.9537,0.2539,0.25268,-0.32
27.6,1.9553,0.25546,0.25426,-0.3218
27.7,1.9569,0.25703,0.25585,-0.3237
27.8,1.9586,0.25856,0.25739,-0.3256
27.9,1.9602,0.26012,0.25897,-0.3274
28,1.9618,0.26168,0.26055,-0.3293
28.1,1.9634,0.26323,0.26211,-0.3312
28.2,1.9649,0.26482,0.26372,-0.3331
28.3,1.9665,0.26645,0.26537,-0.3351
28.4,1.968,0.26805,0.26698,-0.337
28.5,1.9691,0.27002,0.26898,-0.3392
28.6,1.9705,0.27183,0.27081,-0.3413
28.7,1.9719,0.27356,0.27255,-0.3433
28.8,1.9734,0.27517,0.27419,-0.3453
28.9,1.9749,0.27671,0.27574,-0.3472
29,1.9765,0.27827,0.27731,-0.3491
29.1,1.9781,0.27979,0.27884,-0.351
29.2,1.9796,0.2813,0.28036,-0.3529
29.3,1.9812,0.28282,0.28189,-0.3549
29.4,1.9828,0.28434,0.28343,-0.3568
29.5,1.9843,0.28587,0.28497,-0.3587
29.6,1.9858,0.2874,0.28652,-0.3606
29.7,1.9873,0.28892,0.28804,-0.3626
29.8,1.9888,0.29047,0.28961,-0.3645
29.9,1.9902,0.29205,0.2912,-0.3665
30,1.9917,0.2936,0.29276,-0.3685

