airfoilName st9.dat
Re 	470000
M 	5.000000e-02
N 	4.500000e+00
VACC 	0 VACCflag 1
XTR 	1.00 	1.00 XTRflag 0
alpha,cl,cd,cdp,cm
-11.4,-0.8634,0.03095,0.02712,-0.064
-11.3,-0.8552,0.02988,0.02591,-0.0646
-11.2,-0.8468,0.02893,0.02484,-0.0652
-11.1,-0.8381,0.02807,0.02386,-0.0656
-11,-0.8293,0.0273,0.02298,-0.0659
-10.9,-0.8202,0.02658,0.02216,-0.0662
-10.8,-0.8111,0.02591,0.02138,-0.0664
-10.7,-0.8017,0.0253,0.02068,-0.0665
-10.6,-0.7922,0.02471,0.02,-0.0667
-10.5,-0.7826,0.02417,0.01936,-0.0668
-10.4,-0.7728,0.02366,0.01877,-0.0669
-10.3,-0.763,0.0232,0.01823,-0.0669
-10.2,-0.7531,0.02277,0.01772,-0.067
-10.1,-0.7431,0.02237,0.01724,-0.067
-10,-0.733,0.02201,0.0168,-0.067
-9.9,-0.7229,0.02168,0.01641,-0.0669
-9.8,-0.7131,0.02129,0.01597,-0.0669
-9.7,-0.702,0.02056,0.01518,-0.0673
-9.6,-0.6901,0.02003,0.0146,-0.0678
-9.5,-0.6772,0.01957,0.0141,-0.0684
-9.4,-0.6648,0.01919,0.01368,-0.0689
-9.3,-0.6527,0.01884,0.0133,-0.0692
-9.2,-0.6398,0.01851,0.01293,-0.0697
-9.1,-0.6274,0.01821,0.01259,-0.0701
-8.9,-0.602,0.01764,0.01195,-0.071
-8.8,-0.5898,0.01738,0.01164,-0.0712
-8.7,-0.577,0.01711,0.01134,-0.0716
-8.6,-0.5645,0.01686,0.01105,-0.072
-8.5,-0.5519,0.01661,0.01077,-0.0723
-8.4,-0.5394,0.01637,0.01049,-0.0726
-8.3,-0.5274,0.01614,0.01022,-0.0728
-8.2,-0.5153,0.01591,0.00995,-0.0731
-8.1,-0.5027,0.01568,0.00969,-0.0734
-8,-0.4903,0.01546,0.00942,-0.0736
-7.9,-0.4784,0.01524,0.00917,-0.0738
-7.8,-0.4666,0.01504,0.00893,-0.0739
-7.7,-0.4547,0.01484,0.00869,-0.074
-7.6,-0.4428,0.01464,0.00845,-0.0741
-7.5,-0.4309,0.01446,0.00822,-0.0743
-7.4,-0.4193,0.01429,0.00801,-0.0743
-7.3,-0.4077,0.01413,0.00781,-0.0743
-7.2,-0.3961,0.01398,0.00764,-0.0744
-7.1,-0.3846,0.01374,0.00737,-0.0744
-7,-0.3733,0.01355,0.00717,-0.0744
-6.9,-0.3618,0.01338,0.00698,-0.0744
-6.8,-0.3503,0.01323,0.00682,-0.0744
-6.7,-0.3391,0.0131,0.00666,-0.0743
-6.6,-0.3277,0.01298,0.00651,-0.0743
-6.5,-0.3161,0.01284,0.00636,-0.0743
-6.4,-0.3046,0.01272,0.00622,-0.0743
-6.3,-0.2931,0.01259,0.00606,-0.0743
-6.2,-0.282,0.01248,0.00591,-0.0742
-6.1,-0.2704,0.01236,0.00577,-0.0742
-6,-0.2588,0.01224,0.00562,-0.0742
-5.9,-0.2473,0.01214,0.00548,-0.0742
-5.8,-0.2358,0.01204,0.00535,-0.0742
-5.7,-0.2245,0.01192,0.00521,-0.0741
-5.6,-0.2129,0.01179,0.00508,-0.0741
-5.5,-0.2014,0.01168,0.00496,-0.0741
-5.4,-0.1899,0.01159,0.00485,-0.0741
-5.3,-0.1783,0.0115,0.00474,-0.0741
-5.2,-0.1669,0.01141,0.00462,-0.0741
-5.1,-0.1553,0.01138,0.00458,-0.0741
-5,-0.1438,0.01131,0.00447,-0.074
-4.9,-0.1321,0.01119,0.00436,-0.0741
-4.8,-0.1204,0.01109,0.00425,-0.0741
-4.7,-0.1087,0.01101,0.00415,-0.0741
-4.6,-0.0973,0.01094,0.00406,-0.074
-4.5,-0.0856,0.01087,0.00397,-0.0741
-4.4,-0.0739,0.0108,0.00388,-0.0741
-4.3,-0.0622,0.01074,0.00379,-0.0741
-4.2,-0.0505,0.01068,0.00371,-0.0741
-4.1,-0.0387,0.01059,0.00361,-0.0742
-4,-0.0273,0.01054,0.00356,-0.0742
-3.9,-0.0156,0.01048,0.00349,-0.0742
-3.8,-0.0037,0.01042,0.00341,-0.0742
-3.7,0.008,0.01037,0.00333,-0.0743
-3.6,0.0197,0.0103,0.00326,-0.0743
-3.5,0.0315,0.01024,0.00319,-0.0743
-3.4,0.0428,0.01022,0.00314,-0.0743
-3.3,0.0543,0.01019,0.00308,-0.0742
-3.2,0.0658,0.01017,0.00301,-0.0742
-3.1,0.0776,0.01011,0.00295,-0.0743
-3,0.0891,0.01009,0.00289,-0.0742
-2.9,0.1009,0.01005,0.00285,-0.0743
-2.8,0.1127,0.01002,0.00279,-0.0744
-2.7,0.1243,0.00997,0.00275,-0.0744
-2.6,0.1361,0.00994,0.00271,-0.0744
-2.5,0.1474,0.00995,0.00266,-0.0744
-2.4,0.1591,0.00992,0.00262,-0.0744
-2.3,0.1709,0.00989,0.00259,-0.0745
-2.2,0.1827,0.00986,0.00254,-0.0746
-2.1,0.1944,0.00984,0.00251,-0.0746
-2,0.2058,0.00982,0.00248,-0.0746
-1.9,0.2174,0.00981,0.00246,-0.0747
-1.8,0.2291,0.00979,0.00243,-0.0747
-1.7,0.2409,0.00977,0.0024,-0.0748
-1.6,0.2525,0.00973,0.00239,-0.0749
-1.5,0.2643,0.0097,0.00236,-0.075
-1.4,0.2757,0.00972,0.00234,-0.075
-1.3,0.287,0.00977,0.00234,-0.075
-1.2,0.2987,0.00975,0.00232,-0.0751
-1.1,0.3103,0.00971,0.00232,-0.0752
-1,0.3219,0.00972,0.00231,-0.0752
-0.9,0.3336,0.00972,0.0023,-0.0753
-0.8,0.3453,0.00971,0.0023,-0.0754
-0.7,0.3569,0.00967,0.0023,-0.0755
-0.6,0.3684,0.00971,0.0023,-0.0755
-0.5,0.3801,0.00971,0.00231,-0.0756
-0.4,0.3917,0.00966,0.0023,-0.0758
-0.3,0.4034,0.00966,0.0023,-0.0758
-0.2,0.4151,0.00965,0.00231,-0.0759
-0.1,0.4267,0.00966,0.00232,-0.076
0,0.4383,0.00959,0.00233,-0.0762
0.1,0.45,0.00958,0.00233,-0.0763
0.2,0.4613,0.0096,0.00235,-0.0763
0.3,0.4728,0.00952,0.00236,-0.0765
0.4,0.4844,0.00949,0.00238,-0.0766
0.5,0.4959,0.00946,0.00239,-0.0767
0.6,0.5072,0.00929,0.0024,-0.0768
0.7,0.5184,0.00921,0.00243,-0.0768
0.9,0.5346,0.00863,0.00248,-0.0753
1,0.5415,0.00859,0.00248,-0.0741
1.1,0.5512,0.00855,0.00245,-0.0736
1.2,0.5654,0.00854,0.00238,-0.0742
1.3,0.577,0.00862,0.00242,-0.0742
1.4,0.5884,0.00872,0.00246,-0.0743
1.5,0.5999,0.00881,0.00249,-0.0743
1.6,0.6113,0.00891,0.00253,-0.0744
1.7,0.6227,0.00901,0.00258,-0.0744
1.8,0.6341,0.00912,0.00262,-0.0745
1.9,0.6454,0.00923,0.00267,-0.0745
2,0.6562,0.00942,0.00274,-0.0745
2.1,0.6675,0.00954,0.00279,-0.0746
2.2,0.6788,0.00966,0.00285,-0.0746
2.3,0.69,0.00979,0.00291,-0.0746
2.4,0.7013,0.00991,0.00297,-0.0747
2.5,0.7126,0.01002,0.00303,-0.0747
2.6,0.7239,0.01013,0.00308,-0.0748
2.7,0.7352,0.01023,0.00315,-0.0748
2.8,0.7466,0.01033,0.0032,-0.0749
2.9,0.758,0.01043,0.00327,-0.0749
3,0.7692,0.01056,0.00334,-0.0749
3.1,0.7806,0.01064,0.0034,-0.075
3.2,0.7919,0.01074,0.00346,-0.075
3.3,0.8033,0.01083,0.00353,-0.0751
3.4,0.8147,0.01091,0.00358,-0.0752
3.5,0.8262,0.01099,0.00364,-0.0752
3.6,0.8375,0.01108,0.0037,-0.0753
3.7,0.8488,0.01117,0.00377,-0.0753
3.8,0.8602,0.01126,0.00385,-0.0753
3.9,0.8716,0.01133,0.00391,-0.0754
4,0.8829,0.01143,0.00397,-0.0754
4.1,0.8942,0.01152,0.00404,-0.0755
4.2,0.9054,0.01162,0.00411,-0.0755
4.3,0.9167,0.0117,0.00418,-0.0756
4.4,0.9281,0.01178,0.00425,-0.0756
4.5,0.9395,0.01186,0.00431,-0.0757
4.6,0.9508,0.01194,0.00438,-0.0757
4.7,0.962,0.01203,0.00446,-0.0758
4.8,0.9732,0.01213,0.00453,-0.0758
4.9,0.9843,0.01223,0.00462,-0.0758
5,0.9956,0.01231,0.00469,-0.0759
5.1,1.0069,0.01239,0.00476,-0.0759
5.2,1.0181,0.01248,0.00483,-0.0759
5.3,1.0293,0.01257,0.00491,-0.076
5.4,1.0403,0.01267,0.00499,-0.076
5.5,1.0514,0.01278,0.00507,-0.076
5.6,1.0626,0.01285,0.00517,-0.076
5.7,1.0738,0.01293,0.00524,-0.0761
5.8,1.085,0.01302,0.00532,-0.0761
5.9,1.0961,0.01311,0.00541,-0.0761
6,1.1072,0.0132,0.00549,-0.0761
6.1,1.118,0.01333,0.00558,-0.0761
6.2,1.1289,0.01344,0.00568,-0.0762
6.3,1.14,0.01352,0.00576,-0.0762
6.4,1.1511,0.0136,0.00585,-0.0762
6.5,1.1621,0.0137,0.00595,-0.0762
6.6,1.1731,0.01379,0.00604,-0.0762
6.7,1.1841,0.01389,0.00613,-0.0762
6.8,1.1949,0.014,0.00623,-0.0762
6.9,1.2057,0.01411,0.00633,-0.0762
7,1.2164,0.01424,0.00644,-0.0762
7.1,1.2274,0.01433,0.00654,-0.0762
7.2,1.2383,0.01442,0.00663,-0.0762
7.3,1.2491,0.01452,0.00673,-0.0762
7.4,1.2599,0.01462,0.00684,-0.0762
7.5,1.2707,0.01473,0.00695,-0.0762
7.6,1.2813,0.01485,0.00706,-0.0762
7.7,1.2919,0.01498,0.00717,-0.0761
7.8,1.3024,0.01511,0.00729,-0.0761
7.9,1.3132,0.0152,0.0074,-0.0761
8,1.324,0.0153,0.00751,-0.0761
8.1,1.3347,0.01541,0.00762,-0.076
8.2,1.3453,0.01552,0.00774,-0.076
8.3,1.3557,0.01564,0.00785,-0.076
8.4,1.3662,0.01577,0.00798,-0.0759
8.5,1.3765,0.0159,0.0081,-0.0759
8.6,1.3868,0.01605,0.00823,-0.0758
8.7,1.3973,0.01616,0.00836,-0.0758
8.8,1.4078,0.01627,0.00848,-0.0757
8.9,1.4183,0.01638,0.00861,-0.0757
9,1.4287,0.0165,0.00874,-0.0756
9.1,1.439,0.01662,0.00887,-0.0755
9.2,1.4492,0.01675,0.009,-0.0755
9.3,1.4594,0.01688,0.00914,-0.0754
9.4,1.4695,0.01702,0.00928,-0.0753
9.5,1.4791,0.01721,0.00943,-0.0752
9.6,1.4894,0.01733,0.00958,-0.0751
9.7,1.4996,0.01745,0.00971,-0.075
9.8,1.5097,0.01757,0.00985,-0.0749
9.9,1.5198,0.0177,0.01,-0.0748
10,1.5298,0.01784,0.01014,-0.0747
10.1,1.5397,0.01798,0.01029,-0.0746
10.2,1.5495,0.01813,0.01045,-0.0745
10.3,1.5592,0.01828,0.0106,-0.0743
10.4,1.5688,0.01845,0.01078,-0.0742
10.5,1.5782,0.01862,0.01095,-0.074
10.6,1.5877,0.01879,0.01113,-0.0739
10.7,1.5977,0.0189,0.01126,-0.0738
10.8,1.6073,0.01905,0.01142,-0.0736
10.9,1.6169,0.01919,0.01159,-0.0734
11,1.6263,0.01935,0.01176,-0.0733
11.1,1.6357,0.01951,0.01193,-0.0731
11.2,1.645,0.01967,0.0121,-0.0729
11.3,1.6541,0.01985,0.01228,-0.0727
11.4,1.6631,0.02003,0.01247,-0.0725
11.5,1.6718,0.02023,0.01267,-0.0722
11.6,1.6806,0.02043,0.01289,-0.072
11.7,1.6899,0.02057,0.01306,-0.0718
11.8,1.699,0.02073,0.01325,-0.0715
11.9,1.7079,0.02089,0.01343,-0.0713
12,1.7167,0.02106,0.01362,-0.071
12.1,1.7254,0.02123,0.01381,-0.0708
12.2,1.7338,0.02142,0.01401,-0.0705
12.3,1.7422,0.02161,0.01421,-0.0702
12.4,1.7503,0.02182,0.01443,-0.0698
12.5,1.7582,0.02203,0.01465,-0.0695
12.6,1.7658,0.02225,0.01488,-0.0691
12.7,1.7732,0.02249,0.01512,-0.0686
12.8,1.7815,0.02265,0.01533,-0.0683
12.9,1.7894,0.02283,0.01554,-0.0679
13,1.7973,0.02301,0.01575,-0.0675
13.1,1.8047,0.02321,0.01597,-0.0671
13.2,1.8119,0.02342,0.0162,-0.0666
13.3,1.8189,0.02363,0.01644,-0.0661
13.4,1.8256,0.02386,0.01668,-0.0656
13.5,1.8316,0.02412,0.01694,-0.065
13.6,1.8376,0.02438,0.01721,-0.0644
13.7,1.8426,0.02463,0.01746,-0.0636
13.8,1.848,0.02484,0.01771,-0.0629
13.9,1.8532,0.02507,0.01798,-0.0621
14,1.8583,0.02532,0.01825,-0.0613
14.1,1.8633,0.02557,0.01854,-0.0606
14.2,1.8683,0.02583,0.01883,-0.0598
14.3,1.8731,0.02611,0.01914,-0.0591
14.4,1.8779,0.0264,0.01945,-0.0584
14.5,1.8826,0.0267,0.01977,-0.0578
14.6,1.8871,0.02701,0.02011,-0.0571
14.7,1.8916,0.02734,0.02047,-0.0565
14.8,1.8958,0.02769,0.02084,-0.0558
14.9,1.8998,0.02805,0.02123,-0.0552
15,1.9037,0.02842,0.02163,-0.0546
15.1,1.9089,0.02872,0.02198,-0.0542
15.2,1.9139,0.02904,0.02234,-0.0537
15.3,1.9187,0.02937,0.02271,-0.0533
15.4,1.9234,0.02972,0.0231,-0.0529
15.5,1.9279,0.03009,0.02349,-0.0525
15.6,1.9323,0.03047,0.02391,-0.0521
15.7,1.9365,0.03087,0.02434,-0.0518
15.8,1.9406,0.03128,0.02478,-0.0514
15.9,1.9446,0.03171,0.02525,-0.0511
16,1.9484,0.03216,0.02573,-0.0509
16.1,1.9521,0.03263,0.02622,-0.0507
16.2,1.9556,0.03313,0.02675,-0.0505
16.3,1.9591,0.03363,0.02728,-0.0504
16.4,1.9636,0.03407,0.02776,-0.0504
16.5,1.968,0.03453,0.02827,-0.0503
16.6,1.9722,0.03501,0.02878,-0.0504
16.7,1.9763,0.03551,0.02933,-0.0504
16.8,1.9803,0.03603,0.02989,-0.0505
16.9,1.9842,0.03657,0.03047,-0.0507
17,1.988,0.03713,0.03106,-0.0509
17.1,1.9917,0.03771,0.03168,-0.0512
17.2,1.9953,0.03833,0.03233,-0.0516
17.3,1.9988,0.03898,0.03301,-0.0521
17.4,2.0021,0.03965,0.03372,-0.0526
17.5,2.0067,0.04021,0.03434,-0.0531
17.6,2.011,0.04081,0.03498,-0.0536
17.7,2.0154,0.04143,0.03565,-0.0542
17.8,2.0196,0.04206,0.03633,-0.0549
17.9,2.0238,0.04273,0.03705,-0.0557
18,2.0279,0.04342,0.03778,-0.0565
18.1,2.0319,0.04414,0.03855,-0.0575
18.2,2.0358,0.0449,0.03935,-0.0585
18.3,2.0396,0.0457,0.04019,-0.0596
18.4,2.0431,0.04654,0.04108,-0.0609
18.5,2.0465,0.04745,0.04202,-0.0622
18.6,2.0496,0.0484,0.04303,-0.0637
18.7,2.0539,0.04918,0.04387,-0.0649
18.8,2.058,0.05001,0.04478,-0.0663
18.9,2.0615,0.05094,0.04575,-0.0678
19,2.065,0.0519,0.04676,-0.0694
19.1,2.0683,0.05291,0.04783,-0.0711
19.2,2.0712,0.05399,0.04897,-0.0729
19.3,2.0739,0.05514,0.05017,-0.0748
19.4,2.0762,0.05638,0.05147,-0.0769
19.5,2.0778,0.05776,0.0529,-0.0792
19.6,2.0791,0.05923,0.05443,-0.0817
19.7,2.0805,0.06067,0.05596,-0.0841
19.8,2.0817,0.06216,0.05751,-0.0865
19.9,2.0827,0.06371,0.05913,-0.089
20,2.0832,0.06538,0.06087,-0.0917
20.1,2.0831,0.06719,0.06275,-0.0945
20.2,2.0821,0.06918,0.06482,-0.0976
20.3,2.0804,0.07136,0.06708,-0.1009
20.4,2.0777,0.07378,0.06959,-0.1045
20.5,2.0739,0.07645,0.07235,-0.1085
20.6,2.0694,0.0793,0.0753,-0.1125
20.7,2.0637,0.08246,0.07858,-0.117
20.8,2.0586,0.08545,0.08168,-0.121
20.9,2.0529,0.08859,0.08493,-0.1253
21,2.047,0.09177,0.08821,-0.1295
21.1,2.0406,0.09502,0.09156,-0.1338
21.2,2.0339,0.09828,0.09491,-0.1382
21.3,2.0272,0.10151,0.09824,-0.1426
21.4,2.0212,0.10449,0.1013,-0.1467
21.5,2.0151,0.10749,0.10438,-0.1508
21.6,2.0088,0.11058,0.10756,-0.1551
21.7,2.0037,0.11332,0.11036,-0.159
21.8,1.9971,0.11649,0.11362,-0.1633
21.9,1.9924,0.1192,0.11639,-0.1671
22,1.9857,0.12252,0.11978,-0.1716
22.1,1.981,0.12535,0.12266,-0.1755
22.2,1.9747,0.12877,0.12614,-0.1799
22.3,1.9719,0.13125,0.1287,-0.1831
22.4,1.9684,0.13403,0.13154,-0.1866
22.5,1.9648,0.13687,0.13443,-0.1901
22.6,1.9624,0.1394,0.137,-0.1933
22.7,1.9588,0.14237,0.14002,-0.1968
22.8,1.9552,0.1454,0.1431,-0.2004
23.1,1.9405,0.15609,0.1539,-0.2125
23.2,1.9381,0.15895,0.15679,-0.2157
23.3,1.9339,0.16246,0.16034,-0.2195
23.4,1.9312,0.16549,0.1634,-0.2228
23.5,1.9294,0.16822,0.16619,-0.2259
23.6,1.9261,0.17157,0.16958,-0.2294
23.7,1.9245,0.17429,0.17233,-0.2323
23.8,1.9231,0.17697,0.17502,-0.2352
23.9,1.9214,0.17982,0.1779,-0.2383
24,1.9182,0.18335,0.18146,-0.2419
24.1,1.9173,0.18598,0.18414,-0.2447
24.2,1.9168,0.18841,0.18659,-0.2473
24.3,1.9163,0.19092,0.18912,-0.25
24.4,1.9147,0.19398,0.19222,-0.2531
24.5,1.9141,0.19657,0.19483,-0.2559
24.6,1.914,0.199,0.19728,-0.2585
24.7,1.9137,0.20149,0.19978,-0.2611
24.8,1.9134,0.20406,0.20236,-0.2638
24.9,1.9127,0.20691,0.20527,-0.2667
25,1.9129,0.20929,0.20766,-0.2692
25.1,1.9136,0.21141,0.20981,-0.2715
25.2,1.9145,0.21344,0.21185,-0.2738
25.3,1.9154,0.21546,0.21389,-0.276
25.4,1.9164,0.21749,0.21593,-0.2782
25.5,1.9173,0.21953,0.21798,-0.2804
25.6,1.9178,0.22189,0.22037,-0.2829
25.7,1.9187,0.22399,0.22248,-0.2852
25.8,1.9198,0.22599,0.2245,-0.2874
25.9,1.9211,0.22784,0.22637,-0.2895
26,1.9225,0.22968,0.22822,-0.2915
26.1,1.9239,0.23149,0.23004,-0.2936
26.2,1.9253,0.23326,0.23182,-0.2956
26.3,1.9267,0.23505,0.23362,-0.2977
26.4,1.9282,0.23676,0.23533,-0.2997
26.5,1.9298,0.23845,0.23702,-0.3017
26.6,1.9314,0.24005,0.23863,-0.3036
26.7,1.9331,0.24163,0.2402,-0.3055
26.8,1.9348,0.24308,0.24166,-0.3073
26.9,1.9365,0.24463,0.2432,-0.3092
27,1.938,0.24635,0.24495,-0.3112
27.1,1.9396,0.24803,0.24665,-0.3131
27.2,1.9412,0.24969,0.24832,-0.3151
27.3,1.9428,0.25128,0.24993,-0.317
27.4,1.9445,0.25286,0.25153,-0.3189
27.5,1.9461,0.25446,0.25315,-0.3208
27.6,1.9478,0.25601,0.25472,-0.3227
27.7,1.9494,0.25757,0.2563,-0.3246
27.8,1.9511,0.25911,0.25785,-0.3264
27.9,1.9528,0.26065,0.25941,-0.3283
28,1.9544,0.26219,0.26096,-0.3302
28.1,1.9561,0.26374,0.26252,-0.3321
28.2,1.9577,0.26528,0.26407,-0.334
28.3,1.9593,0.26685,0.26566,-0.3359
28.4,1.961,0.26837,0.26719,-0.3378
28.5,1.9626,0.26995,0.26879,-0.3398
28.6,1.9641,0.27159,0.27045,-0.3418
28.7,1.9656,0.27329,0.27217,-0.3438
28.8,1.9671,0.27492,0.27381,-0.3458
28.9,1.9687,0.27648,0.27538,-0.3478
29,1.9703,0.27797,0.27687,-0.3497
29.1,1.9719,0.27944,0.27835,-0.3516
29.3,1.9751,0.2823,0.28121,-0.3553
29.4,1.9769,0.28352,0.28242,-0.3571
29.5,1.9786,0.2847,0.2836,-0.3588
29.6,1.9805,0.28576,0.28466,-0.3604
29.7,1.9823,0.28684,0.28575,-0.362
29.8,1.9841,0.28775,0.28666,-0.3636
29.9,1.9859,0.28834,0.28724,-0.365

