airfoilName st10.dat
Re 	3.900000e+05
M 	0
N 	4.500000e+00
VACC 	0 VACCflag 1
XTR 	1.00 	1.00 XTRflag 0
alpha,cl,cd,cdp,cm
-9.7,-0.6743,0.02753,0.02322,-0.0682
-9.6,-0.6664,0.02665,0.02221,-0.0683
-9.5,-0.6546,0.02573,0.02115,-0.0692
-9.4,-0.6427,0.02489,0.02018,-0.07
-9.3,-0.629,0.0241,0.01925,-0.0711
-9.2,-0.6161,0.02338,0.0184,-0.0719
-9.1,-0.6035,0.02274,0.01765,-0.0726
-9,-0.5915,0.02217,0.01696,-0.0731
-8.9,-0.5794,0.02165,0.01633,-0.0736
-8.8,-0.5664,0.02116,0.01574,-0.0742
-8.7,-0.5538,0.02075,0.01523,-0.0747
-8.6,-0.5414,0.02038,0.01477,-0.0751
-8.5,-0.529,0.02001,0.01434,-0.0755
-8.4,-0.5175,0.0193,0.01359,-0.076
-8.3,-0.5049,0.0188,0.01304,-0.0765
-8.2,-0.4925,0.01839,0.0126,-0.0769
-8.1,-0.4799,0.01804,0.01221,-0.0774
-8,-0.4678,0.01773,0.01186,-0.0777
-7.9,-0.4558,0.01744,0.01154,-0.0779
-7.8,-0.4437,0.01716,0.01123,-0.0782
-7.7,-0.431,0.01689,0.01091,-0.0786
-7.6,-0.4186,0.01663,0.01062,-0.0789
-7.5,-0.4061,0.01638,0.01032,-0.0792
-7.4,-0.3946,0.01614,0.01005,-0.0793
-7.3,-0.3827,0.0159,0.00977,-0.0795
-7.2,-0.3708,0.01567,0.0095,-0.0797
-7.1,-0.3586,0.01544,0.00922,-0.0799
-7,-0.3465,0.01521,0.00895,-0.0801
-6.9,-0.3351,0.01499,0.0087,-0.0801
-6.8,-0.3235,0.01477,0.00844,-0.0802
-6.7,-0.3119,0.01456,0.00818,-0.0802
-6.6,-0.3002,0.01436,0.00793,-0.0803
-6.5,-0.2884,0.01418,0.00769,-0.0803
-6.4,-0.277,0.01401,0.00747,-0.0803
-6.3,-0.2657,0.01387,0.00728,-0.0803
-6.2,-0.2543,0.0136,0.00702,-0.0803
-6.1,-0.2428,0.0134,0.0068,-0.0804
-6,-0.2314,0.01324,0.00662,-0.0804
-5.9,-0.2202,0.01309,0.00645,-0.0803
-5.8,-0.2087,0.01295,0.00629,-0.0803
-5.7,-0.1973,0.01282,0.00614,-0.0803
-5.6,-0.1859,0.01269,0.00599,-0.0803
-5.5,-0.1746,0.01256,0.00583,-0.0802
-5.4,-0.1631,0.01243,0.00567,-0.0802
-5.3,-0.1517,0.01231,0.00551,-0.0802
-5.2,-0.1403,0.0122,0.00536,-0.0801
-5.1,-0.1287,0.01209,0.00521,-0.0801
-5,-0.1174,0.01197,0.00507,-0.08
-4.9,-0.106,0.01184,0.00493,-0.08
-4.8,-0.0946,0.01173,0.00481,-0.08
-4.7,-0.083,0.01163,0.0047,-0.08
-4.6,-0.0714,0.01153,0.00459,-0.08
-4.5,-0.06,0.01145,0.00448,-0.08
-4.3,-0.0371,0.01132,0.00432,-0.0799
-4.2,-0.0256,0.01121,0.0042,-0.0799
-4.1,-0.0142,0.01113,0.0041,-0.0799
-4,-0.0025,0.01105,0.004,-0.0799
-3.9,0.0089,0.01098,0.00391,-0.0799
-3.8,0.0204,0.01092,0.00381,-0.0798
-3.7,0.0321,0.01085,0.00372,-0.0798
-3.6,0.0437,0.01077,0.00366,-0.0799
-3.5,0.0553,0.0107,0.00358,-0.0799
-3.4,0.0668,0.01064,0.0035,-0.0799
-3.3,0.0784,0.01059,0.00342,-0.0799
-3.2,0.09,0.01054,0.00334,-0.0799
-3.1,0.1015,0.01047,0.00326,-0.0799
-2.9,0.1242,0.01039,0.00314,-0.0798
-2.8,0.1357,0.01037,0.00307,-0.0797
-2.7,0.1471,0.01032,0.00301,-0.0797
-2.6,0.1585,0.01029,0.00295,-0.0797
-2.5,0.1701,0.01026,0.0029,-0.0797
-2.4,0.1815,0.01024,0.00284,-0.0796
-2.3,0.1931,0.01019,0.00281,-0.0797
-2.2,0.2048,0.01016,0.00276,-0.0797
-2.1,0.2164,0.01012,0.00271,-0.0797
-2,0.2281,0.01009,0.00267,-0.0798
-1.9,0.2392,0.01011,0.00264,-0.0797
-1.8,0.2506,0.01008,0.00261,-0.0797
-1.7,0.2622,0.01006,0.00258,-0.0797
-1.6,0.2739,0.01003,0.00254,-0.0798
-1.5,0.2854,0.01002,0.00252,-0.0798
-1.4,0.2967,0.01003,0.00249,-0.0798
-1.3,0.3083,0.01002,0.00246,-0.0798
-1.2,0.3196,0.01,0.00245,-0.0798
-1.1,0.3312,0.00999,0.00244,-0.0799
-1,0.3425,0.01,0.00242,-0.0799
-0.9,0.3541,0.01,0.00241,-0.0799
-0.8,0.3654,0.00999,0.00241,-0.08
-0.7,0.3766,0.01003,0.00241,-0.0799
-0.6,0.3881,0.01003,0.0024,-0.08
-0.5,0.3997,0.01002,0.0024,-0.0801
-0.4,0.4112,0.00999,0.0024,-0.0802
-0.3,0.4227,0.00998,0.0024,-0.0802
-0.2,0.4343,0.00997,0.00239,-0.0803
0,0.4573,0.00989,0.00241,-0.0805
0.1,0.4684,0.00992,0.00242,-0.0805
0.2,0.4799,0.00989,0.00243,-0.0806
0.3,0.4912,0.00977,0.00245,-0.0807
0.4,0.5026,0.00971,0.00245,-0.0808
0.5,0.5139,0.00964,0.00247,-0.0809
0.6,0.5252,0.00954,0.00248,-0.081
0.8,0.5375,0.00845,0.00238,-0.0782
0.9,0.5493,0.00854,0.00238,-0.0783
1,0.5607,0.00862,0.0024,-0.0783
1.1,0.5721,0.0087,0.00243,-0.0783
1.2,0.5835,0.00878,0.00246,-0.0783
1.3,0.5949,0.00886,0.00249,-0.0784
1.4,0.6062,0.00895,0.00253,-0.0784
1.5,0.6176,0.00904,0.00255,-0.0784
1.6,0.6289,0.00913,0.00259,-0.0784
1.7,0.6401,0.00923,0.00263,-0.0784
1.8,0.6509,0.00939,0.00269,-0.0784
1.9,0.6622,0.00949,0.00273,-0.0784
2,0.6733,0.0096,0.00278,-0.0784
2.1,0.6845,0.00972,0.00284,-0.0784
2.2,0.6955,0.00984,0.00289,-0.0785
2.3,0.7066,0.00996,0.00294,-0.0785
2.4,0.7177,0.01009,0.003,-0.0785
2.5,0.7287,0.01022,0.00307,-0.0785
2.6,0.7397,0.01035,0.00313,-0.0785
2.7,0.7503,0.01054,0.00322,-0.0784
2.8,0.7614,0.01067,0.00328,-0.0785
2.9,0.7725,0.01078,0.00335,-0.0785
3,0.7836,0.01089,0.00341,-0.0785
3.1,0.7947,0.01101,0.00349,-0.0785
3.2,0.8059,0.01111,0.00355,-0.0785
3.3,0.8171,0.0112,0.00362,-0.0786
3.4,0.8282,0.01131,0.00369,-0.0786
3.5,0.8393,0.01142,0.00376,-0.0786
3.6,0.8506,0.0115,0.00383,-0.0786
3.7,0.8615,0.01163,0.00391,-0.0786
3.8,0.8726,0.01174,0.00398,-0.0786
3.9,0.8838,0.01183,0.00406,-0.0787
4,0.895,0.01191,0.00413,-0.0787
4.1,0.9062,0.012,0.0042,-0.0787
4.2,0.9173,0.0121,0.00428,-0.0787
4.3,0.9283,0.0122,0.00436,-0.0787
4.4,0.9394,0.0123,0.00444,-0.0787
4.5,0.9506,0.01238,0.00451,-0.0788
4.6,0.9617,0.01247,0.00459,-0.0788
4.7,0.9726,0.01258,0.00467,-0.0788
4.8,0.9836,0.01269,0.00475,-0.0788
4.9,0.9946,0.01279,0.00485,-0.0788
5,1.0057,0.01287,0.00493,-0.0788
5.1,1.0168,0.01296,0.005,-0.0788
5.2,1.0278,0.01305,0.00509,-0.0788
5.3,1.0388,0.01315,0.00517,-0.0788
5.4,1.0497,0.01325,0.00526,-0.0788
5.5,1.0605,0.01337,0.00535,-0.0788
5.6,1.0714,0.01346,0.00545,-0.0788
5.7,1.0824,0.01356,0.00553,-0.0788
5.8,1.0933,0.01365,0.00562,-0.0788
5.9,1.1042,0.01375,0.00572,-0.0788
6,1.115,0.01386,0.00581,-0.0788
6.1,1.1257,0.01398,0.00591,-0.0788
6.2,1.1364,0.01409,0.00602,-0.0787
6.3,1.1473,0.01418,0.00611,-0.0787
6.4,1.1582,0.01427,0.00621,-0.0787
6.5,1.169,0.01437,0.00631,-0.0787
6.6,1.1797,0.01448,0.00641,-0.0787
6.7,1.1904,0.01459,0.00652,-0.0786
6.8,1.2007,0.01474,0.00663,-0.0786
6.9,1.2114,0.01485,0.00675,-0.0786
7,1.2221,0.01494,0.00685,-0.0785
7.1,1.2328,0.01504,0.00696,-0.0785
7.2,1.2435,0.01515,0.00707,-0.0785
7.3,1.254,0.01526,0.00718,-0.0784
7.4,1.2645,0.01538,0.0073,-0.0784
7.5,1.2749,0.01551,0.00742,-0.0783
7.6,1.2853,0.01564,0.00754,-0.0783
7.7,1.2955,0.01578,0.00768,-0.0782
7.8,1.3061,0.01588,0.0078,-0.0781
7.9,1.3166,0.01599,0.00791,-0.0781
8,1.327,0.0161,0.00803,-0.078
8.1,1.3373,0.01623,0.00816,-0.078
8.2,1.3476,0.01636,0.00829,-0.0779
8.3,1.3577,0.0165,0.00842,-0.0778
8.4,1.3677,0.01665,0.00856,-0.0777
8.5,1.3778,0.01679,0.00871,-0.0776
8.6,1.3881,0.0169,0.00884,-0.0775
8.7,1.3984,0.01702,0.00898,-0.0774
8.8,1.4085,0.01714,0.00912,-0.0773
8.9,1.4186,0.01727,0.00926,-0.0772
9,1.4286,0.01741,0.0094,-0.0771
9.1,1.4383,0.01757,0.00954,-0.077
9.2,1.448,0.01773,0.00969,-0.0769
9.3,1.4576,0.0179,0.00986,-0.0767
9.4,1.4677,0.01802,0.01001,-0.0766
9.5,1.4776,0.01815,0.01016,-0.0765
9.6,1.4875,0.01828,0.01031,-0.0764
9.7,1.4972,0.01842,0.01048,-0.0762
9.8,1.5069,0.01857,0.01064,-0.0761
9.9,1.5164,0.01873,0.0108,-0.0759
10,1.5259,0.01889,0.01097,-0.0757
10.1,1.5352,0.01906,0.01114,-0.0756
10.2,1.5444,0.01924,0.01132,-0.0753
10.3,1.5536,0.0194,0.01149,-0.0752
10.4,1.5631,0.01955,0.01166,-0.075
10.5,1.5725,0.0197,0.01184,-0.0748
10.6,1.5818,0.01986,0.01201,-0.0746
10.7,1.5909,0.02002,0.0122,-0.0744
10.8,1.6,0.02019,0.01238,-0.0742
10.9,1.6089,0.02037,0.01258,-0.0739
11,1.6176,0.02056,0.01278,-0.0736
11.1,1.6262,0.02076,0.01298,-0.0734
11.2,1.6345,0.02097,0.01319,-0.0731
11.3,1.643,0.02116,0.01341,-0.0728
11.4,1.6519,0.02132,0.0136,-0.0725
11.5,1.6607,0.02148,0.0138,-0.0722
11.6,1.6692,0.02165,0.01398,-0.072
11.7,1.6776,0.02184,0.01419,-0.0716
11.8,1.6857,0.02203,0.0144,-0.0713
11.9,1.6937,0.02223,0.01462,-0.0709
12,1.7013,0.02245,0.01485,-0.0705
12.1,1.7088,0.02267,0.01508,-0.0701
12.2,1.716,0.0229,0.01532,-0.0696
12.3,1.7228,0.02316,0.01559,-0.0691
12.4,1.7305,0.02334,0.01582,-0.0687
12.5,1.7381,0.02353,0.01605,-0.0682
12.6,1.7454,0.02373,0.01629,-0.0678
12.7,1.7525,0.02394,0.01653,-0.0673
12.8,1.7593,0.02416,0.01678,-0.0668
12.9,1.7658,0.02438,0.017,-0.0662
13,1.7709,0.02463,0.01725,-0.0655
13.1,1.7756,0.02489,0.01753,-0.0646
13.2,1.78,0.02517,0.01782,-0.0637
13.3,1.7842,0.02548,0.01814,-0.0628
13.4,1.7895,0.02573,0.01843,-0.0621
13.5,1.7951,0.02597,0.01872,-0.0615
13.6,1.8004,0.02623,0.01901,-0.0608
13.7,1.8058,0.02648,0.01928,-0.0602
13.8,1.8108,0.02677,0.01961,-0.0595
13.9,1.8156,0.02707,0.01995,-0.0588
14,1.8202,0.02738,0.0203,-0.0582
14.1,1.8247,0.02771,0.02065,-0.0576
14.2,1.829,0.02806,0.02102,-0.0569
14.3,1.833,0.02843,0.02141,-0.0563
14.4,1.8367,0.02882,0.02182,-0.0557
14.5,1.8404,0.02922,0.02226,-0.0551
14.6,1.8455,0.02954,0.02263,-0.0546
14.7,1.8503,0.02987,0.02301,-0.0542
14.8,1.855,0.03023,0.02341,-0.0537
14.9,1.8596,0.03059,0.0238,-0.0533
15,1.8638,0.03098,0.02423,-0.0529
15.1,1.8678,0.03139,0.02468,-0.0525
15.2,1.8717,0.03182,0.02514,-0.0521
15.3,1.8755,0.03226,0.02562,-0.0518
15.4,1.8791,0.03272,0.02612,-0.0515
15.5,1.8825,0.03321,0.02664,-0.0512
15.6,1.8858,0.03372,0.02718,-0.051
15.7,1.8888,0.03427,0.02775,-0.0508
15.8,1.8915,0.03484,0.02835,-0.0507
15.9,1.8959,0.03529,0.02888,-0.0506
16,1.9002,0.03577,0.02941,-0.0505
16.1,1.9042,0.03626,0.02996,-0.0505
16.2,1.9081,0.03678,0.03052,-0.0505
16.3,1.9119,0.03732,0.03111,-0.0506
16.4,1.9156,0.03787,0.0317,-0.0508
16.5,1.9183,0.03853,0.03236,-0.051
16.6,1.9215,0.03917,0.03304,-0.0513
16.7,1.9245,0.03985,0.03375,-0.0517
16.8,1.9273,0.04056,0.0345,-0.0521
16.9,1.9304,0.04126,0.03525,-0.0526
17,1.9349,0.04182,0.03586,-0.053
17.1,1.9388,0.04247,0.03656,-0.0535
17.2,1.9425,0.04314,0.03728,-0.0541
17.3,1.9462,0.04384,0.03804,-0.0548
17.4,1.9498,0.04457,0.03881,-0.0555
17.5,1.9532,0.04532,0.03961,-0.0564
17.6,1.9566,0.04611,0.04045,-0.0573
17.7,1.9598,0.04694,0.04132,-0.0583
17.8,1.9628,0.04781,0.04224,-0.0594
17.9,1.9656,0.04874,0.04322,-0.0607
18,1.9681,0.04973,0.04425,-0.062
18.1,1.9713,0.05065,0.04524,-0.0633
18.2,1.975,0.0515,0.04617,-0.0646
18.3,1.9783,0.05241,0.04713,-0.0659
18.4,1.9814,0.05339,0.04817,-0.0674
18.5,1.9843,0.05442,0.04926,-0.069
18.6,1.987,0.05551,0.0504,-0.0706
18.7,1.9893,0.05667,0.05162,-0.0724
18.8,1.9914,0.0579,0.05292,-0.0744
18.9,1.993,0.05924,0.05431,-0.0765
19,1.994,0.0607,0.05584,-0.0788
19.1,1.9947,0.06228,0.05747,-0.0813
19.2,1.996,0.06372,0.05899,-0.0835
19.3,1.997,0.06522,0.06057,-0.0858
19.4,1.9977,0.06683,0.06225,-0.0883
19.5,1.9978,0.06855,0.06405,-0.0909
19.6,1.9973,0.07041,0.06598,-0.0937
19.7,1.9962,0.07244,0.06808,-0.0967
19.8,1.9943,0.07466,0.07039,-0.0999
19.9,1.9916,0.07708,0.0729,-0.1034
20,1.9881,0.07972,0.07563,-0.1071
20.1,1.9837,0.08259,0.07859,-0.111
20.2,1.9783,0.08576,0.08185,-0.1153
20.3,1.9738,0.08868,0.0849,-0.1192
20.4,1.9689,0.09172,0.08804,-0.1231
20.5,1.9637,0.09484,0.09126,-0.1271
20.6,1.9582,0.09796,0.09447,-0.1311
20.7,1.9527,0.10107,0.09767,-0.1351
20.8,1.9468,0.10421,0.10091,-0.1392
20.9,1.941,0.10733,0.10411,-0.1432
21,1.9361,0.11014,0.107,-0.1469
21.1,1.9301,0.11326,0.1102,-0.151
21.2,1.9247,0.11624,0.11325,-0.1549
21.3,1.9196,0.11918,0.11626,-0.1587
21.4,1.9142,0.12224,0.1194,-0.1627
21.5,1.9089,0.12533,0.12255,-0.1666
21.6,1.9036,0.1285,0.12578,-0.1707
21.7,1.8988,0.1316,0.12894,-0.1745
21.8,1.8949,0.13451,0.13192,-0.1781
21.9,1.8913,0.13742,0.1349,-0.1816
22,1.8889,0.14001,0.13753,-0.1847
22.1,1.8855,0.14295,0.14053,-0.1881
22.2,1.8821,0.14598,0.14361,-0.1915
22.3,1.8796,0.14875,0.14642,-0.1947
22.4,1.8757,0.15204,0.14976,-0.1983
22.5,1.8723,0.15524,0.153,-0.2018
22.6,1.8693,0.1583,0.15609,-0.2052
22.7,1.866,0.16156,0.15942,-0.2086
22.8,1.8638,0.16445,0.16235,-0.2117
22.9,1.8623,0.16713,0.16506,-0.2145
23,1.8598,0.17021,0.16818,-0.2178
23.1,1.8568,0.1736,0.1716,-0.2212
23.2,1.8547,0.17663,0.17465,-0.2244
23.3,1.8527,0.17972,0.17779,-0.2275
23.4,1.8504,0.183,0.18111,-0.2308
23.5,1.8493,0.18574,0.18388,-0.2336
23.6,1.8486,0.18839,0.18654,-0.2364
23.7,1.8477,0.19113,0.18931,-0.2392
23.8,1.8456,0.19454,0.19274,-0.2425
23.9,1.8444,0.19755,0.19577,-0.2455
24,1.8442,0.2001,0.19835,-0.2482
24.1,1.8444,0.20252,0.20079,-0.2506
24.2,1.8442,0.20515,0.20344,-0.2533
24.3,1.8438,0.2079,0.20622,-0.256
24.4,1.8422,0.21141,0.20971,-0.2595
24.5,1.8427,0.21374,0.21205,-0.2619
24.6,1.8433,0.21607,0.21439,-0.2643
24.7,1.844,0.21839,0.21674,-0.2667
24.8,1.8445,0.22084,0.21921,-0.2691
24.9,1.8455,0.22295,0.22133,-0.2714
25,1.8468,0.22493,0.22333,-0.2735
25.1,1.8481,0.22684,0.22525,-0.2755
25.2,1.8496,0.22868,0.22711,-0.2776
25.3,1.8511,0.2305,0.22894,-0.2796
25.4,1.8526,0.23233,0.23079,-0.2816
25.5,1.8541,0.23414,0.23261,-0.2836
25.6,1.8556,0.23594,0.23442,-0.2855
25.7,1.8571,0.2378,0.2363,-0.2876
25.8,1.8584,0.23981,0.23831,-0.2897
25.9,1.8599,0.24167,0.24019,-0.2918
26,1.8615,0.24339,0.24192,-0.2937
26.1,1.8633,0.24505,0.24358,-0.2956
26.2,1.8651,0.2466,0.24512,-0.2975
26.3,1.867,0.24807,0.24661,-0.2993
26.4,1.869,0.24944,0.24797,-0.301
26.5,1.8711,0.2507,0.24923,-0.3026
26.6,1.8734,0.25182,0.25034,-0.3042
26.7,1.8755,0.253,0.2515,-0.3058
26.8,1.8771,0.25477,0.2533,-0.3078
26.9,1.8788,0.25644,0.25499,-0.3097
27,1.8806,0.25807,0.25664,-0.3116
27.1,1.8822,0.25981,0.25841,-0.3136
27.2,1.8839,0.26146,0.26008,-0.3155
27.3,1.8855,0.26317,0.2618,-0.3174
27.4,1.8872,0.26484,0.26349,-0.3194
27.5,1.8889,0.26651,0.26519,-0.3213
27.6,1.8905,0.26826,0.26695,-0.3234
27.7,1.892,0.27011,0.26883,-0.3254
27.8,1.8936,0.2719,0.27063,-0.3275
27.9,1.8952,0.27363,0.27238,-0.3295
28,1.8969,0.27536,0.27413,-0.3315
28.1,1.8985,0.27703,0.27581,-0.3335
28.2,1.9002,0.27869,0.27749,-0.3355
28.3,1.9019,0.28032,0.27914,-0.3374
28.4,1.9036,0.28195,0.28079,-0.3394
28.5,1.9053,0.28353,0.28238,-0.3413
28.6,1.907,0.28509,0.28395,-0.3432
28.7,1.9087,0.28664,0.28551,-0.3452
28.8,1.9105,0.28812,0.287,-0.347
28.9,1.9122,0.2896,0.28848,-0.3489
29,1.914,0.29102,0.28991,-0.3508
29.1,1.9157,0.29237,0.29127,-0.3526
29.2,1.9176,0.29365,0.29256,-0.3543
29.3,1.9194,0.29488,0.29379,-0.3561
29.4,1.9212,0.29608,0.29499,-0.3578
29.5,1.9231,0.29716,0.29608,-0.3594
29.6,1.9249,0.29823,0.29714,-0.3611
29.7,1.9268,0.29919,0.29811,-0.3627
29.8,1.9287,0.30006,0.29898,-0.3642
29.9,1.9305,0.30075,0.29967,-0.3656

