airfoilName st10.dat
Re 	2.300000e+05
M 	0
N 	4.500000e+00
VACC 	0 VACCflag 1
XTR 	1.00 	1.00 XTRflag 0
alpha,cl,cd,cdp,cm
-8.6,-0.5699,0.02966,0.02457,-0.0657
-8.5,-0.5574,0.02869,0.02346,-0.0667
-8.4,-0.5439,0.02774,0.02237,-0.0678
-8.3,-0.5313,0.02686,0.02134,-0.0687
-8.2,-0.5185,0.02601,0.02035,-0.0696
-8.1,-0.5048,0.02517,0.01936,-0.0706
-8,-0.4924,0.0244,0.01845,-0.0712
-7.9,-0.4798,0.02366,0.01756,-0.0718
-7.8,-0.4662,0.02293,0.01667,-0.0726
-7.7,-0.4533,0.02228,0.01585,-0.0733
-7.6,-0.4393,0.02168,0.01508,-0.074
-7.5,-0.4265,0.0212,0.01444,-0.0745
-7.4,-0.4145,0.02067,0.01389,-0.0749
-7.3,-0.4017,0.0202,0.0134,-0.0754
-7.2,-0.3891,0.01982,0.01301,-0.0759
-7.1,-0.3763,0.01949,0.01265,-0.0763
-7,-0.3625,0.01917,0.0123,-0.077
-6.9,-0.3497,0.01888,0.01198,-0.0774
-6.8,-0.3378,0.01859,0.01166,-0.0777
-6.7,-0.3254,0.01831,0.01134,-0.078
-6.6,-0.3123,0.01801,0.011,-0.0784
-6.5,-0.2994,0.01772,0.01065,-0.0788
-6.4,-0.2863,0.01742,0.0103,-0.0792
-6.3,-0.273,0.01712,0.00994,-0.0797
-6.2,-0.2612,0.01684,0.0096,-0.0798
-6.1,-0.2489,0.01656,0.00926,-0.08
-6,-0.2363,0.01629,0.00892,-0.0803
-5.9,-0.223,0.01606,0.00863,-0.0807
-5.8,-0.2103,0.01575,0.00832,-0.0811
-5.7,-0.198,0.01552,0.00809,-0.0813
-5.6,-0.1863,0.01533,0.00789,-0.0814
-5.4,-0.1617,0.01497,0.00749,-0.0818
-5.2,-0.1367,0.01477,0.00722,-0.0823
-5.1,-0.1252,0.0146,0.00698,-0.0822
-5,-0.1133,0.01438,0.00676,-0.0823
-4.9,-0.1012,0.01417,0.00655,-0.0825
-4.8,-0.0891,0.014,0.00638,-0.0827
-4.7,-0.0777,0.01385,0.00622,-0.0826
-4.6,-0.0659,0.01371,0.00606,-0.0827
-4.5,-0.0541,0.01357,0.00589,-0.0827
-4.4,-0.0421,0.01343,0.00571,-0.0828
-4.3,-0.0305,0.0133,0.00554,-0.0828
-4.2,-0.0193,0.0132,0.00548,-0.0828
-4.1,-0.0076,0.01307,0.00534,-0.0828
-4,0.0042,0.01295,0.0052,-0.0828
-3.9,0.0157,0.01283,0.00506,-0.0828
-3.8,0.0273,0.01272,0.00492,-0.0828
-3.7,0.0387,0.01261,0.00478,-0.0827
-3.6,0.0502,0.01248,0.00466,-0.0827
-3.4,0.0732,0.01231,0.00449,-0.0827
-3.3,0.0848,0.01222,0.00436,-0.0826
-3.2,0.0963,0.01211,0.00426,-0.0826
-3.1,0.1076,0.01202,0.00416,-0.0825
-3,0.1191,0.01194,0.00407,-0.0825
-2.9,0.1306,0.01187,0.00397,-0.0824
-2.8,0.1421,0.01178,0.00392,-0.0825
-2.7,0.1536,0.0117,0.00384,-0.0824
-2.6,0.1651,0.01164,0.00375,-0.0824
-2.5,0.1764,0.01158,0.00368,-0.0823
-2.4,0.1875,0.01152,0.00361,-0.0822
-2.3,0.1987,0.01146,0.00355,-0.0821
-2.2,0.2102,0.01139,0.00349,-0.082
-2.1,0.221,0.01137,0.00342,-0.0818
-2,0.2322,0.01132,0.00336,-0.0817
-1.9,0.2437,0.01127,0.00332,-0.0817
-1.8,0.2552,0.0112,0.00328,-0.0817
-1.7,0.2663,0.01117,0.00323,-0.0816
-1.6,0.2778,0.01113,0.00319,-0.0816
-1.5,0.2892,0.01109,0.00315,-0.0816
-1.4,0.3003,0.01104,0.00312,-0.0815
-1.3,0.3116,0.01101,0.00308,-0.0815
-1.2,0.3228,0.01099,0.00304,-0.0814
-1.1,0.3342,0.01096,0.00303,-0.0814
-1,0.3457,0.01088,0.003,-0.0814
-0.9,0.3571,0.01085,0.00297,-0.0814
-0.8,0.3684,0.01083,0.00294,-0.0814
-0.7,0.3795,0.01081,0.00292,-0.0813
-0.6,0.3904,0.01074,0.00291,-0.0813
-0.5,0.4016,0.0107,0.00288,-0.0812
-0.4,0.4129,0.01064,0.00287,-0.0813
-0.3,0.4242,0.01058,0.00286,-0.0813
-0.2,0.4351,0.0104,0.00285,-0.0813
0,0.4569,0.01013,0.00282,-0.0812
0.2,0.4706,0.00903,0.00258,-0.0784
0.3,0.4818,0.00911,0.00258,-0.0783
0.4,0.4933,0.00917,0.00259,-0.0783
0.5,0.5046,0.00925,0.0026,-0.0783
0.6,0.5161,0.00931,0.00261,-0.0783
0.7,0.5274,0.00939,0.00263,-0.0782
0.8,0.5388,0.00946,0.00265,-0.0782
0.9,0.5497,0.00958,0.00267,-0.0781
1,0.561,0.00966,0.00269,-0.0781
1.1,0.5723,0.00974,0.00272,-0.0781
1.2,0.5836,0.00983,0.00275,-0.0781
1.3,0.5948,0.00991,0.00278,-0.078
1.4,0.6061,0.01,0.00281,-0.078
1.5,0.6173,0.01008,0.00284,-0.078
1.6,0.6285,0.01018,0.00288,-0.078
1.7,0.6393,0.01031,0.00292,-0.0779
1.8,0.6505,0.0104,0.00297,-0.0779
1.9,0.6615,0.01051,0.00301,-0.0778
2,0.6727,0.0106,0.00305,-0.0778
2.1,0.6838,0.01071,0.00311,-0.0778
2.2,0.6948,0.01082,0.00315,-0.0777
2.3,0.7058,0.01092,0.00321,-0.0777
2.4,0.7168,0.01104,0.00326,-0.0777
2.5,0.7277,0.01116,0.00332,-0.0776
2.6,0.7381,0.01134,0.0034,-0.0775
2.7,0.749,0.01147,0.00345,-0.0775
2.8,0.7598,0.01159,0.00352,-0.0775
2.9,0.7706,0.01173,0.00359,-0.0774
3,0.7813,0.01188,0.00368,-0.0774
3.1,0.7921,0.01202,0.00374,-0.0773
3.2,0.8029,0.01216,0.00382,-0.0773
3.3,0.8136,0.0123,0.00391,-0.0772
3.4,0.8243,0.01245,0.00399,-0.0772
3.5,0.8345,0.01266,0.00409,-0.0771
3.6,0.8453,0.01279,0.00418,-0.0771
3.7,0.856,0.01294,0.00426,-0.0771
3.8,0.8668,0.01307,0.00436,-0.077
3.9,0.8777,0.0132,0.00445,-0.077
4,0.8883,0.01335,0.00456,-0.077
4.1,0.8992,0.01347,0.00466,-0.077
4.2,0.9101,0.01359,0.00475,-0.0769
4.3,0.9209,0.01372,0.00485,-0.0769
4.4,0.9315,0.01388,0.00496,-0.0769
4.5,0.9422,0.01401,0.00507,-0.0768
4.6,0.953,0.01413,0.00517,-0.0768
4.7,0.9638,0.01427,0.00527,-0.0768
4.8,0.9744,0.01441,0.00539,-0.0767
4.9,0.9853,0.01452,0.00549,-0.0767
5,0.9962,0.01463,0.00561,-0.0767
5.1,1.0069,0.01475,0.00572,-0.0767
5.2,1.0176,0.01488,0.00583,-0.0766
5.3,1.0281,0.01503,0.00594,-0.0766
5.5,1.0496,0.01526,0.00617,-0.0765
5.6,1.0603,0.01539,0.00628,-0.0765
5.7,1.0709,0.01552,0.0064,-0.0764
5.8,1.0814,0.01566,0.00652,-0.0764
5.9,1.0919,0.0158,0.00666,-0.0763
6,1.1027,0.01591,0.00678,-0.0763
6.1,1.1134,0.01602,0.0069,-0.0763
6.2,1.124,0.01615,0.00702,-0.0762
6.3,1.1345,0.01628,0.00715,-0.0762
6.4,1.1449,0.01642,0.00728,-0.0761
6.5,1.155,0.01659,0.00741,-0.076
6.6,1.1657,0.0167,0.00753,-0.076
6.7,1.1762,0.01682,0.00766,-0.0759
6.8,1.1867,0.01694,0.00781,-0.0758
6.9,1.1971,0.01708,0.00794,-0.0758
7,1.2073,0.01723,0.00808,-0.0757
7.1,1.2175,0.01738,0.00822,-0.0756
7.2,1.2275,0.01755,0.00838,-0.0755
7.3,1.238,0.01767,0.00851,-0.0754
7.4,1.2485,0.01779,0.00866,-0.0754
7.5,1.2588,0.01792,0.0088,-0.0753
7.6,1.2689,0.01806,0.00893,-0.0752
7.7,1.2789,0.01822,0.00908,-0.0751
7.8,1.2888,0.01839,0.00925,-0.075
7.9,1.2986,0.01857,0.00942,-0.0748
8,1.3089,0.01869,0.00957,-0.0748
8.1,1.3191,0.01882,0.00973,-0.0747
8.2,1.3292,0.01896,0.00989,-0.0746
8.3,1.3392,0.01911,0.01006,-0.0744
8.4,1.3491,0.01927,0.01022,-0.0743
8.5,1.3589,0.01943,0.01039,-0.0742
8.6,1.3685,0.01961,0.01056,-0.074
8.7,1.3779,0.01979,0.01072,-0.0739
8.8,1.3879,0.01993,0.01091,-0.0737
8.9,1.3978,0.02008,0.01108,-0.0736
9,1.4075,0.02023,0.01126,-0.0735
9.1,1.4171,0.0204,0.01144,-0.0733
9.2,1.4266,0.02057,0.01163,-0.0731
9.3,1.436,0.02075,0.01181,-0.073
9.4,1.4452,0.02094,0.01201,-0.0728
9.5,1.4542,0.02115,0.0122,-0.0725
9.6,1.4635,0.02133,0.01241,-0.0723
9.7,1.4731,0.02149,0.0126,-0.0722
9.8,1.4826,0.02165,0.01281,-0.072
9.9,1.4919,0.02181,0.01299,-0.0718
10,1.501,0.02199,0.0132,-0.0716
10.1,1.5099,0.02219,0.0134,-0.0714
10.2,1.5186,0.02239,0.01361,-0.0711
10.3,1.5271,0.02261,0.01383,-0.0708
10.4,1.5354,0.02284,0.01406,-0.0705
10.5,1.5445,0.02302,0.01428,-0.0703
10.6,1.5535,0.0232,0.01451,-0.07
10.7,1.5624,0.02339,0.01474,-0.0698
10.8,1.571,0.02358,0.01497,-0.0695
10.9,1.5795,0.02379,0.0152,-0.0692
11,1.5878,0.024,0.01544,-0.0689
11.1,1.5959,0.02422,0.01569,-0.0686
11.2,1.6033,0.02445,0.0159,-0.0682
11.3,1.6107,0.0247,0.01615,-0.0678
11.4,1.6184,0.02493,0.01641,-0.0674
11.5,1.6267,0.02513,0.01666,-0.067
11.6,1.6347,0.02534,0.01692,-0.0667
11.7,1.6425,0.02556,0.01719,-0.0663
11.8,1.65,0.02579,0.01745,-0.0659
11.9,1.6573,0.02602,0.01772,-0.0654
12,1.6643,0.02626,0.01799,-0.065
12.1,1.671,0.02652,0.01827,-0.0644
12.2,1.6774,0.02678,0.01855,-0.0639
12.3,1.6834,0.02705,0.01884,-0.0633
12.4,1.689,0.02734,0.01914,-0.0627
12.5,1.6936,0.02765,0.01946,-0.0618
12.6,1.7001,0.02783,0.01972,-0.0613
12.7,1.7057,0.02808,0.02002,-0.0606
12.8,1.7111,0.02835,0.02034,-0.0599
12.9,1.7163,0.02863,0.02067,-0.0592
13,1.7213,0.02892,0.021,-0.0585
13.1,1.7261,0.02922,0.02134,-0.0578
13.2,1.7308,0.02954,0.02169,-0.0571
13.3,1.7353,0.02987,0.02205,-0.0564
13.4,1.7395,0.03021,0.02242,-0.0557
13.5,1.7436,0.03057,0.0228,-0.0551
13.6,1.7473,0.03096,0.02321,-0.0544
13.7,1.7508,0.03137,0.02363,-0.0537
13.8,1.7551,0.03174,0.02404,-0.0532
13.9,1.7604,0.03207,0.02445,-0.0527
14,1.7654,0.03242,0.02486,-0.0523
14.1,1.7701,0.03279,0.02529,-0.0518
14.2,1.7747,0.03317,0.02573,-0.0514
14.3,1.7792,0.03352,0.02615,-0.051
14.4,1.7832,0.03393,0.02661,-0.0506
14.5,1.787,0.03436,0.02708,-0.0502
14.6,1.7906,0.03481,0.02757,-0.0498
14.7,1.7941,0.03528,0.02807,-0.0494
14.8,1.7973,0.03577,0.0286,-0.0491
14.9,1.8004,0.03628,0.02914,-0.0489
15,1.8032,0.03682,0.02971,-0.0486
15.1,1.8075,0.03725,0.03019,-0.0486
15.2,1.8117,0.03772,0.03073,-0.0484
15.3,1.8157,0.03821,0.03129,-0.0483
15.4,1.8195,0.03872,0.03186,-0.0483
15.5,1.8232,0.03925,0.03244,-0.0482
15.6,1.8268,0.03979,0.03305,-0.0483
15.7,1.8303,0.04035,0.03366,-0.0483
15.8,1.8337,0.04094,0.0343,-0.0485
15.9,1.8369,0.04154,0.03495,-0.0487
16,1.8401,0.04217,0.03562,-0.049
16.1,1.8432,0.04282,0.03631,-0.0493
16.2,1.8441,0.04367,0.03712,-0.0501
16.3,1.8484,0.04425,0.03778,-0.0505
16.4,1.8534,0.04476,0.03841,-0.0509
16.5,1.8572,0.04541,0.03913,-0.0514
16.6,1.861,0.04608,0.03986,-0.0519
16.7,1.8645,0.04677,0.04062,-0.0526
16.8,1.8681,0.04748,0.0414,-0.0533
16.9,1.8715,0.04822,0.04219,-0.0541
17,1.8749,0.04898,0.04302,-0.055
17.1,1.8782,0.04978,0.04387,-0.056
17.2,1.8814,0.0506,0.04475,-0.0571
17.3,1.8845,0.05147,0.04566,-0.0583
17.4,1.8874,0.05238,0.04661,-0.0596
17.5,1.8901,0.05333,0.04761,-0.0611
17.6,1.8926,0.05434,0.04866,-0.0627
17.7,1.8962,0.05519,0.04959,-0.0639
17.8,1.9009,0.05595,0.05046,-0.0651
17.9,1.9044,0.05686,0.05146,-0.0665
18,1.9076,0.05782,0.0525,-0.068
18.1,1.9106,0.05883,0.05358,-0.0696
18.2,1.9134,0.05988,0.05471,-0.0714
18.3,1.9159,0.06108,0.05596,-0.0735
18.4,1.9181,0.06228,0.05723,-0.0755
18.5,1.92,0.06355,0.05856,-0.0777
18.6,1.9216,0.06489,0.05997,-0.08
18.7,1.9228,0.06634,0.06147,-0.0824
18.8,1.9235,0.06787,0.06308,-0.085
18.9,1.9242,0.0694,0.06467,-0.0876
19,1.9261,0.07072,0.0661,-0.0896
19.1,1.9274,0.07215,0.06763,-0.0919
19.2,1.9283,0.07367,0.06925,-0.0942
19.3,1.9288,0.07529,0.07097,-0.0967
19.4,1.9289,0.07701,0.07279,-0.0994
19.5,1.9281,0.07913,0.075,-0.1027
19.6,1.927,0.08116,0.07711,-0.1058
19.7,1.9255,0.08331,0.07935,-0.109
19.8,1.9236,0.08559,0.08172,-0.1124
20.1,1.9096,0.09485,0.09116,-0.1257
20.2,1.9071,0.09732,0.09375,-0.129
20.3,1.904,0.09987,0.09641,-0.1324
20.4,1.9004,0.1026,0.09924,-0.136
20.5,1.894,0.10624,0.103,-0.1407
20.6,1.8892,0.10927,0.10612,-0.1447
20.7,1.8843,0.11233,0.10927,-0.1487
20.8,1.8788,0.11559,0.11262,-0.1529
20.9,1.873,0.119,0.11611,-0.1573
21,1.8679,0.12218,0.11937,-0.1613
21.1,1.862,0.12569,0.12295,-0.1657
21.2,1.8576,0.1288,0.12612,-0.1696
21.3,1.8536,0.13181,0.12917,-0.1734
21.4,1.8521,0.13404,0.13141,-0.1763
21.5,1.8466,0.13771,0.13515,-0.1807
21.6,1.8331,0.14428,0.14188,-0.1877
21.7,1.7808,0.16649,0.1644,-0.2085
22.3,1.7926,0.17566,0.17362,-0.2198
24,1.7972,0.22236,0.22062,-0.2657
24.1,1.8007,0.22282,0.22109,-0.2668
24.4,1.803,0.23193,0.23024,-0.2751
24.5,1.8057,0.23307,0.2314,-0.2766
24.6,1.8086,0.23408,0.23242,-0.278
24.7,1.8115,0.235,0.23334,-0.2793
24.8,1.8145,0.23576,0.23411,-0.2806
24.9,1.8176,0.23645,0.2348,-0.2818
25,1.8208,0.23703,0.23539,-0.2829
25.1,1.824,0.23753,0.23589,-0.284
25.2,1.8271,0.23811,0.23648,-0.2851
25.3,1.83,0.23899,0.23734,-0.2864
25.4,1.8275,0.24542,0.24381,-0.2915
25.5,1.8293,0.24747,0.24588,-0.2937
25.6,1.8315,0.24905,0.24747,-0.2955
25.7,1.8338,0.25048,0.2489,-0.2972
25.8,1.8363,0.25173,0.25017,-0.2988
25.9,1.8387,0.25288,0.25132,-0.3003
26,1.8413,0.25398,0.25242,-0.3019
26.1,1.8438,0.25497,0.25343,-0.3033
26.2,1.8465,0.25588,0.25434,-0.3047
26.6,1.8567,0.25967,0.25812,-0.3104
26.7,1.8562,0.26477,0.26326,-0.3146
26.8,1.8574,0.26791,0.26641,-0.3175
26.9,1.8592,0.27009,0.2686,-0.3197
27,1.8612,0.27186,0.27037,-0.3217
27.1,1.8633,0.27341,0.27193,-0.3236
27.2,1.8654,0.27482,0.27336,-0.3253
27.3,1.8676,0.27618,0.27472,-0.3271
27.4,1.8698,0.27744,0.27599,-0.3287
27.5,1.872,0.27861,0.27716,-0.3304
27.6,1.8742,0.27976,0.27832,-0.332
27.7,1.8765,0.28079,0.27936,-0.3335
27.8,1.8787,0.28185,0.28043,-0.3351
27.9,1.8809,0.28283,0.28141,-0.3366
28,1.8832,0.28378,0.28236,-0.3381
28.1,1.8854,0.28464,0.28323,-0.3396
28.2,1.8877,0.2854,0.284,-0.3409
28.3,1.8899,0.28615,0.28476,-0.3423
28.4,1.8921,0.28699,0.2856,-0.3438
28.5,1.8944,0.2876,0.28621,-0.3451
28.6,1.8966,0.28818,0.28679,-0.3464
28.7,1.8989,0.28874,0.28737,-0.3476

