airfoilName st10.dat
Re 	650000
M 	0
N 	4.500000e+00
VACC 	0 VACCflag 1
XTR 	1.00 	1.00 XTRflag 0
alpha,cl,cd,cdp,cm
-11.4,-0.8371,0.03173,0.02844,-0.0663
-11.3,-0.8282,0.03048,0.02706,-0.0675
-11.2,-0.8192,0.02951,0.02597,-0.0682
-11.1,-0.8101,0.02873,0.0251,-0.0688
-11,-0.8009,0.02804,0.02432,-0.0692
-10.9,-0.7934,0.0268,0.02298,-0.0698
-10.7,-0.778,0.02455,0.02049,-0.0706
-10.6,-0.7696,0.0237,0.01954,-0.0708
-10.5,-0.7608,0.02299,0.01875,-0.0709
-10.4,-0.7497,0.0223,0.01798,-0.0715
-10.3,-0.7382,0.02169,0.01729,-0.072
-10.2,-0.7264,0.02114,0.01667,-0.0725
-10.1,-0.7132,0.02061,0.01608,-0.0733
-10,-0.7012,0.02015,0.01556,-0.0738
-9.9,-0.6889,0.01971,0.01507,-0.0743
-9.8,-0.6769,0.01932,0.01462,-0.0748
-9.5,-0.6398,0.01848,0.01369,-0.076
-9.4,-0.6279,0.01816,0.01331,-0.0763
-9.3,-0.6159,0.01783,0.01294,-0.0766
-9.2,-0.6035,0.01752,0.01259,-0.077
-9.1,-0.5921,0.01723,0.01226,-0.0771
-9,-0.5804,0.01695,0.01192,-0.0773
-8.9,-0.5687,0.01668,0.0116,-0.0775
-8.8,-0.5569,0.01641,0.01129,-0.0777
-8.7,-0.5453,0.01616,0.011,-0.0779
-8.6,-0.534,0.01591,0.0107,-0.078
-8.5,-0.5226,0.01566,0.01042,-0.078
-8.4,-0.5113,0.01543,0.01015,-0.0781
-8.3,-0.5,0.0152,0.00987,-0.0781
-8.2,-0.4887,0.01498,0.00961,-0.0782
-8.1,-0.4777,0.01477,0.00936,-0.0781
-8,-0.4664,0.01456,0.00911,-0.0781
-7.9,-0.4552,0.01435,0.00886,-0.0781
-7.8,-0.444,0.01416,0.00862,-0.0781
-7.7,-0.433,0.01397,0.00838,-0.078
-7.6,-0.4217,0.01379,0.00816,-0.0781
-7.5,-0.4104,0.01361,0.00795,-0.0781
-7.4,-0.3995,0.01346,0.00774,-0.0779
-7.3,-0.3882,0.0133,0.00755,-0.0779
-7.2,-0.3768,0.01315,0.00737,-0.0779
-7.1,-0.3654,0.01302,0.0072,-0.0779
-7,-0.3544,0.01292,0.00706,-0.0778
-6.9,-0.3432,0.01264,0.00676,-0.0778
-6.8,-0.3317,0.01242,0.00651,-0.0778
-6.7,-0.3203,0.01224,0.00631,-0.0779
-6.6,-0.3091,0.0121,0.00613,-0.0778
-6.5,-0.2978,0.01197,0.00597,-0.0777
-6.4,-0.2862,0.01184,0.00582,-0.0778
-6.3,-0.2747,0.01172,0.00568,-0.0778
-6.2,-0.2635,0.01161,0.00554,-0.0777
-6.1,-0.252,0.01151,0.0054,-0.0777
-6,-0.2404,0.01139,0.00527,-0.0777
-5.9,-0.2288,0.01128,0.00513,-0.0778
-5.8,-0.2172,0.01118,0.005,-0.0778
-5.7,-0.2059,0.01109,0.00487,-0.0777
-5.6,-0.1942,0.01099,0.00475,-0.0777
-5.5,-0.1826,0.01091,0.00463,-0.0778
-5.4,-0.171,0.01082,0.00452,-0.0778
-5.3,-0.1594,0.01073,0.0044,-0.0778
-5.2,-0.1477,0.01062,0.00427,-0.0778
-5.1,-0.1362,0.01053,0.00416,-0.0778
-5,-0.1246,0.01045,0.00406,-0.0778
-4.9,-0.1129,0.01037,0.00397,-0.0779
-4.8,-0.1012,0.0103,0.00387,-0.0779
-4.7,-0.0894,0.01023,0.00379,-0.0779
-4.6,-0.078,0.01018,0.0037,-0.0779
-4.5,-0.0662,0.01011,0.00361,-0.078
-4.4,-0.0545,0.01006,0.00353,-0.078
-4.3,-0.0428,0.00999,0.00345,-0.078
-4.2,-0.0311,0.00992,0.00337,-0.0781
-4.1,-0.0193,0.00986,0.00329,-0.0782
-4,-0.0077,0.00982,0.00322,-0.0781
-3.9,0.004,0.00977,0.00316,-0.0782
-3.8,0.0158,0.00972,0.00309,-0.0783
-3.7,0.0276,0.00968,0.00302,-0.0783
-3.6,0.0389,0.00966,0.00296,-0.0782
-3.5,0.0506,0.00961,0.0029,-0.0783
-3.4,0.0622,0.00959,0.00284,-0.0783
-3.3,0.0737,0.00957,0.0028,-0.0783
-3.2,0.0853,0.00955,0.00275,-0.0783
-3.1,0.097,0.0095,0.0027,-0.0784
-3,0.1085,0.00949,0.00265,-0.0784
-2.9,0.1202,0.00947,0.0026,-0.0784
-2.8,0.1321,0.00944,0.00256,-0.0785
-2.7,0.1438,0.0094,0.00251,-0.0786
-2.5,0.1668,0.0094,0.00243,-0.0786
-2.4,0.1786,0.00938,0.00239,-0.0787
-2.3,0.1903,0.00936,0.00236,-0.0787
-2.2,0.2018,0.00937,0.00233,-0.0787
-2.1,0.2135,0.00936,0.0023,-0.0788
-2,0.2249,0.00939,0.00227,-0.0788
-1.9,0.2366,0.00938,0.00225,-0.0789
-1.8,0.2483,0.00937,0.00223,-0.079
-1.7,0.26,0.00934,0.0022,-0.079
-1.6,0.2715,0.00936,0.00219,-0.0791
-1.5,0.2833,0.00936,0.00217,-0.0792
-1.4,0.2949,0.00935,0.00216,-0.0792
-1.3,0.3064,0.00939,0.00216,-0.0793
-1.2,0.3179,0.00938,0.00215,-0.0793
-1.1,0.3295,0.0094,0.00214,-0.0794
-1,0.3412,0.0094,0.00213,-0.0795
-0.9,0.3528,0.0094,0.00213,-0.0796
-0.8,0.3646,0.00939,0.00212,-0.0796
-0.7,0.3762,0.00938,0.00212,-0.0797
-0.6,0.3879,0.00937,0.00212,-0.0798
-0.5,0.3993,0.00942,0.00214,-0.0799
-0.4,0.4109,0.0094,0.00213,-0.08
-0.3,0.4225,0.00941,0.00214,-0.0801
-0.2,0.4342,0.00941,0.00214,-0.0802
0,0.4575,0.0094,0.00216,-0.0803
0.1,0.4691,0.00941,0.00217,-0.0804
0.2,0.4807,0.00943,0.00218,-0.0805
0.3,0.492,0.00949,0.0022,-0.0806
0.4,0.5035,0.00945,0.00222,-0.0807
0.5,0.5151,0.00946,0.00224,-0.0808
0.6,0.5266,0.00946,0.00226,-0.0809
0.7,0.5381,0.0094,0.00228,-0.081
0.8,0.5496,0.0094,0.0023,-0.0811
0.9,0.5611,0.00939,0.00233,-0.0812
1,0.5725,0.00938,0.00236,-0.0813
1.1,0.5838,0.00925,0.00239,-0.0815
1.4,0.6059,0.00844,0.0025,-0.0789
1.5,0.6189,0.0084,0.00243,-0.0792
1.6,0.6302,0.00851,0.00248,-0.0792
1.7,0.6414,0.00863,0.00252,-0.0793
1.8,0.6527,0.00875,0.00258,-0.0793
1.9,0.664,0.00886,0.00262,-0.0793
2,0.6752,0.00897,0.00267,-0.0794
2.1,0.6862,0.00914,0.00274,-0.0794
2.2,0.6976,0.00924,0.00279,-0.0794
2.3,0.709,0.00932,0.00284,-0.0795
2.4,0.7204,0.0094,0.00289,-0.0795
2.5,0.7318,0.00948,0.00293,-0.0796
2.6,0.7432,0.00958,0.00299,-0.0796
2.7,0.7546,0.00964,0.00303,-0.0797
2.8,0.7661,0.00971,0.00308,-0.0797
2.9,0.7775,0.00979,0.00313,-0.0798
3,0.7889,0.00988,0.00318,-0.0798
3.1,0.8002,0.00997,0.00325,-0.0799
3.2,0.8116,0.01004,0.00329,-0.0799
3.3,0.823,0.01011,0.00334,-0.08
3.4,0.8343,0.0102,0.0034,-0.08
3.5,0.8457,0.01027,0.00346,-0.0801
3.6,0.8571,0.01034,0.00351,-0.0801
3.7,0.8685,0.0104,0.00356,-0.0802
3.8,0.8799,0.01047,0.00361,-0.0802
3.9,0.8912,0.01055,0.00367,-0.0803
4,0.9025,0.01064,0.00373,-0.0803
4.1,0.9137,0.01073,0.0038,-0.0804
4.2,0.9251,0.01079,0.00385,-0.0804
4.3,0.9364,0.01087,0.00391,-0.0805
4.4,0.9477,0.01094,0.00397,-0.0805
4.5,0.9589,0.01103,0.00403,-0.0805
4.6,0.9701,0.01112,0.0041,-0.0806
4.7,0.9814,0.01119,0.00416,-0.0806
4.8,0.9927,0.01126,0.00422,-0.0806
4.9,1.0039,0.01133,0.00429,-0.0807
5,1.0151,0.0114,0.00436,-0.0807
5.1,1.0262,0.01151,0.00443,-0.0807
5.2,1.0372,0.0116,0.0045,-0.0808
5.3,1.0484,0.01168,0.00458,-0.0808
5.4,1.0596,0.01175,0.00464,-0.0808
5.5,1.0708,0.01183,0.00471,-0.0809
5.6,1.0819,0.0119,0.00478,-0.0809
5.7,1.093,0.01199,0.00485,-0.0809
5.8,1.1041,0.01207,0.00494,-0.0809
5.9,1.1151,0.01217,0.00501,-0.0809
6,1.126,0.01227,0.0051,-0.081
6.1,1.1371,0.01235,0.00518,-0.081
6.2,1.1481,0.01244,0.00525,-0.081
6.3,1.1591,0.01252,0.00533,-0.081
6.4,1.1701,0.01261,0.00541,-0.081
6.5,1.181,0.0127,0.00549,-0.081
6.6,1.1919,0.0128,0.00558,-0.081
6.7,1.2027,0.01291,0.00568,-0.081
6.8,1.2136,0.013,0.00578,-0.081
6.9,1.2245,0.01308,0.00586,-0.081
7,1.2354,0.01317,0.00594,-0.081
7.1,1.2463,0.01326,0.00603,-0.081
7.2,1.2571,0.01335,0.00612,-0.081
7.3,1.2677,0.01347,0.00622,-0.081
7.4,1.2784,0.01358,0.00632,-0.081
7.5,1.289,0.0137,0.00642,-0.081
7.6,1.2998,0.01379,0.00653,-0.0809
7.7,1.3105,0.01388,0.00663,-0.0809
7.8,1.3212,0.01397,0.00672,-0.0809
7.9,1.3319,0.01407,0.00682,-0.0809
8,1.3425,0.01417,0.00692,-0.0809
8.1,1.3531,0.01428,0.00703,-0.0808
8.2,1.3636,0.01439,0.00714,-0.0808
8.3,1.374,0.01451,0.00725,-0.0807
8.4,1.3842,0.01466,0.00737,-0.0807
8.5,1.3948,0.01475,0.00748,-0.0806
8.6,1.4053,0.01486,0.0076,-0.0806
8.7,1.4158,0.01496,0.00771,-0.0805
8.8,1.4262,0.01507,0.00782,-0.0805
8.9,1.4365,0.01519,0.00794,-0.0804
9,1.4468,0.01531,0.00806,-0.0804
9.1,1.457,0.01544,0.00818,-0.0803
9.2,1.467,0.01557,0.00831,-0.0802
9.3,1.4771,0.01572,0.00845,-0.0801
9.4,1.4873,0.01583,0.00858,-0.08
9.5,1.4976,0.01594,0.0087,-0.08
9.6,1.5077,0.01606,0.00883,-0.0799
9.7,1.5177,0.01618,0.00896,-0.0798
9.8,1.5277,0.01631,0.00909,-0.0797
9.9,1.5377,0.01645,0.00923,-0.0796
10,1.5475,0.01659,0.00937,-0.0794
10.1,1.5572,0.01674,0.00951,-0.0793
10.2,1.5668,0.0169,0.00967,-0.0792
10.3,1.5767,0.01703,0.00982,-0.079
10.4,1.5866,0.01715,0.00996,-0.0789
10.5,1.5964,0.01728,0.0101,-0.0788
10.6,1.6061,0.01741,0.01024,-0.0786
10.7,1.6157,0.01754,0.01039,-0.0785
10.8,1.6253,0.01769,0.01055,-0.0783
10.9,1.6345,0.01786,0.01071,-0.0781
11,1.6438,0.01802,0.01087,-0.078
11.1,1.6529,0.01819,0.01104,-0.0778
11.2,1.662,0.01837,0.01122,-0.0775
11.3,1.6713,0.01852,0.01139,-0.0773
11.4,1.6807,0.01865,0.01155,-0.0772
11.5,1.6899,0.0188,0.01171,-0.077
11.6,1.6989,0.01896,0.01187,-0.0767
11.7,1.7078,0.01912,0.01205,-0.0765
11.8,1.7167,0.01929,0.01222,-0.0762
11.9,1.7254,0.01947,0.01241,-0.076
12,1.7339,0.01965,0.0126,-0.0757
12.1,1.7417,0.01989,0.01282,-0.0753
12.2,1.7504,0.02005,0.013,-0.0751
12.3,1.7589,0.02022,0.01319,-0.0748
12.4,1.7673,0.02039,0.01338,-0.0744
12.5,1.7755,0.02057,0.01357,-0.0741
12.6,1.7835,0.02076,0.01377,-0.0737
12.7,1.7913,0.02095,0.01397,-0.0733
12.8,1.7989,0.02115,0.01418,-0.0729
12.9,1.8063,0.02137,0.01441,-0.0725
13,1.8135,0.02159,0.01463,-0.072
13.1,1.8204,0.02182,0.01488,-0.0715
13.2,1.8279,0.02199,0.01509,-0.071
13.3,1.8352,0.02218,0.0153,-0.0706
13.4,1.8422,0.02238,0.01552,-0.0701
13.5,1.849,0.02258,0.01574,-0.0695
13.6,1.8556,0.02279,0.01598,-0.0689
13.7,1.8614,0.02301,0.01622,-0.0682
13.8,1.8657,0.02327,0.01648,-0.0673
13.9,1.8703,0.02352,0.01675,-0.0664
14,1.8747,0.02379,0.01703,-0.0655
14.1,1.879,0.02407,0.01733,-0.0647
14.2,1.8832,0.02437,0.01764,-0.0638
14.3,1.888,0.02464,0.01794,-0.0631
14.4,1.8929,0.0249,0.01823,-0.0623
14.5,1.8977,0.02518,0.01853,-0.0616
14.6,1.9024,0.02547,0.01885,-0.061
14.7,1.907,0.02577,0.01917,-0.0603
14.8,1.9115,0.02609,0.01951,-0.0596
14.9,1.9158,0.02642,0.01986,-0.059
15,1.9199,0.02676,0.02023,-0.0583
15.1,1.9238,0.02712,0.02061,-0.0577
15.2,1.9276,0.02751,0.02102,-0.0571
15.3,1.9311,0.02791,0.02144,-0.0565
15.4,1.9353,0.02827,0.02185,-0.0559
15.5,1.9397,0.02863,0.02225,-0.0555
15.6,1.9436,0.02902,0.02266,-0.055
15.7,1.9476,0.02941,0.02309,-0.0545
15.8,1.9515,0.02982,0.02352,-0.0541
15.9,1.9541,0.03033,0.02403,-0.0537
16,1.9575,0.03079,0.02452,-0.0533
16.1,1.9605,0.03129,0.02504,-0.053
16.2,1.9635,0.0318,0.02558,-0.0527
16.3,1.9665,0.03232,0.02614,-0.0524
16.4,1.9703,0.03279,0.02665,-0.0522
16.5,1.974,0.03328,0.02717,-0.0521
16.6,1.9776,0.03378,0.02771,-0.052
16.7,1.9811,0.03431,0.02827,-0.0519
16.8,1.9845,0.03485,0.02885,-0.0519
16.9,1.9877,0.03542,0.02945,-0.0519
17,1.9908,0.03602,0.03008,-0.052
17.1,1.9936,0.03665,0.03074,-0.0522
17.2,1.9964,0.03731,0.03143,-0.0524
17.3,1.9989,0.03801,0.03216,-0.0527
17.4,2.0016,0.03871,0.03292,-0.0531
17.5,2.0044,0.03943,0.03366,-0.0535
17.6,2.0075,0.04012,0.03438,-0.054
17.7,2.0107,0.04083,0.03514,-0.0546
17.8,2.0136,0.04159,0.03593,-0.0552
17.9,2.0163,0.04239,0.03677,-0.056
18,2.0188,0.04324,0.03765,-0.0568
18.1,2.021,0.04414,0.03858,-0.0578
18.2,2.0237,0.04502,0.03952,-0.0588
18.3,2.0266,0.04588,0.04042,-0.0599
18.4,2.0294,0.04677,0.04136,-0.061
18.5,2.032,0.04772,0.04235,-0.0623
18.6,2.0344,0.04872,0.04339,-0.0636
18.8,2.0314,0.05202,0.04674,-0.0684
18.9,2.032,0.05342,0.04818,-0.0705
19,2.0321,0.05496,0.04979,-0.0728
19.1,2.0327,0.05645,0.05133,-0.0751
19.2,2.0328,0.05807,0.053,-0.0776
19.3,2.0316,0.05996,0.05494,-0.0805
19.4,2.0303,0.06193,0.05701,-0.0836
19.5,2.0287,0.06401,0.05915,-0.0867
19.6,2.0269,0.06617,0.06138,-0.09
19.7,2.0239,0.06862,0.06391,-0.0936
19.8,2.0198,0.07135,0.06676,-0.0975
19.9,2.0152,0.07426,0.06976,-0.1016
20,2.0105,0.07723,0.07283,-0.1057
20.1,2.0048,0.08046,0.07617,-0.11
20.2,1.9972,0.08425,0.08008,-0.1149
20.3,1.9893,0.08813,0.08409,-0.1198
20.4,1.9806,0.09226,0.08835,-0.1248
20.5,1.9716,0.09642,0.09264,-0.1298
20.6,1.9617,0.10076,0.0971,-0.1351
20.7,1.9518,0.10498,0.10144,-0.1402
20.8,1.9433,0.10876,0.10533,-0.145
20.9,1.9347,0.11254,0.10921,-0.1498
21,1.9262,0.11631,0.11308,-0.1545
21.1,1.9176,0.12005,0.11692,-0.1594
21.2,1.911,0.1233,0.12025,-0.1636
21.3,1.9037,0.12692,0.12395,-0.1682
21.4,1.8985,0.12995,0.12705,-0.1721
21.5,1.8914,0.13372,0.1309,-0.1767
21.6,1.8872,0.13669,0.13392,-0.1803
21.7,1.8818,0.14021,0.13751,-0.1844
21.8,1.8776,0.14337,0.14075,-0.1881
21.9,1.8752,0.14607,0.1435,-0.1912
22,1.8705,0.1496,0.1471,-0.1951
22.1,1.8685,0.15224,0.14978,-0.198
22.2,1.8668,0.15482,0.1524,-0.2009
22.3,1.8629,0.15831,0.15595,-0.2045
22.4,1.8614,0.16091,0.15859,-0.2073
22.5,1.8603,0.16336,0.16107,-0.21
22.6,1.8584,0.16616,0.16392,-0.2129
22.7,1.8556,0.16938,0.1672,-0.2162
22.8,1.8548,0.17184,0.16968,-0.2188
22.9,1.8541,0.17425,0.17213,-0.2214
23,1.853,0.17691,0.17483,-0.2241
23.1,1.8505,0.18018,0.17814,-0.2273
23.2,1.8501,0.18261,0.18061,-0.2299
23.3,1.8498,0.18502,0.18304,-0.2324
23.4,1.8496,0.18736,0.18541,-0.2348
23.5,1.848,0.19042,0.18852,-0.2378
23.6,1.8472,0.19319,0.19132,-0.2406
23.7,1.8472,0.19558,0.19373,-0.2431
23.8,1.8475,0.19784,0.19602,-0.2454
23.9,1.8476,0.20021,0.19841,-0.2479
24,1.8467,0.20314,0.20138,-0.2507
24.1,1.8463,0.20585,0.20412,-0.2534
24.2,1.8472,0.20792,0.20622,-0.2556
24.3,1.8483,0.2099,0.20822,-0.2577
24.4,1.8494,0.21184,0.21018,-0.2597
24.5,1.8506,0.21377,0.21213,-0.2618
24.6,1.8518,0.21571,0.21409,-0.2638
24.7,1.8529,0.21771,0.21611,-0.266
24.8,1.853,0.22028,0.21872,-0.2685
24.9,1.8541,0.22236,0.22082,-0.2707
25,1.8554,0.22426,0.22274,-0.2727
25.1,1.8569,0.22608,0.22458,-0.2747
25.2,1.8584,0.22782,0.22634,-0.2766
25.3,1.86,0.22956,0.2281,-0.2785
25.4,1.8615,0.23132,0.22987,-0.2805
25.5,1.863,0.2331,0.23166,-0.2825
25.6,1.8645,0.23487,0.23344,-0.2844
25.7,1.866,0.2366,0.23519,-0.2863
25.8,1.8673,0.23855,0.23716,-0.2884
25.9,1.8683,0.24069,0.23932,-0.2907
26,1.8698,0.24253,0.24118,-0.2927
26.1,1.8713,0.2443,0.24296,-0.2947
26.2,1.873,0.24596,0.24463,-0.2966
26.3,1.8747,0.24756,0.24624,-0.2984
26.4,1.8765,0.24914,0.24783,-0.3003
26.5,1.8782,0.25069,0.24939,-0.3021
26.6,1.8801,0.2522,0.25091,-0.3039
26.7,1.8819,0.25369,0.25239,-0.3057
26.8,1.8837,0.25516,0.25387,-0.3075
26.9,1.8856,0.25658,0.2553,-0.3092
27,1.8876,0.25794,0.25666,-0.311
27.1,1.8896,0.25922,0.25794,-0.3127
27.2,1.8916,0.26047,0.2592,-0.3143
27.3,1.8937,0.26159,0.26032,-0.3159
27.4,1.8959,0.26269,0.26142,-0.3175
27.5,1.8981,0.26362,0.26234,-0.3189
27.6,1.9004,0.2645,0.26322,-0.3204
27.7,1.9023,0.26587,0.26459,-0.3221
27.8,1.9039,0.26757,0.26631,-0.324
27.9,1.9054,0.2693,0.26806,-0.326
28,1.9069,0.2711,0.26989,-0.328
28.1,1.9084,0.27283,0.27164,-0.33
28.4,1.9113,0.27993,0.27884,-0.3373
28.5,1.9129,0.28157,0.2805,-0.3393
28.6,1.9145,0.28321,0.28215,-0.3412
28.7,1.9161,0.28488,0.28384,-0.3432
28.8,1.9177,0.28646,0.28545,-0.3451
28.9,1.9194,0.28808,0.28707,-0.3471
29,1.9209,0.28974,0.28875,-0.3491
29.1,1.9225,0.29137,0.2904,-0.3511
29.2,1.9241,0.293,0.29205,-0.353
29.3,1.9256,0.29469,0.29375,-0.3551
29.4,1.9271,0.29637,0.29545,-0.3571
29.5,1.9286,0.29809,0.29718,-0.3592
29.6,1.9299,0.30005,0.29916,-0.3614
29.7,1.9312,0.30212,0.30125,-0.3637
29.8,1.9325,0.304,0.30315,-0.3659
29.9,1.934,0.30577,0.30494,-0.368
30,1.9354,0.30753,0.30671,-0.3701

