airfoilName st11.dat
Re 	50000
M 	0
N 	4.500000e+00
VACC 	0 VACCflag 1
XTR 	1.00 	1.00 XTRflag 0
alpha,cl,cd,cdp,cm
-29.4,-1.584,0.43288,0.42615,0.2866
-29.3,-1.5809,0.4308,0.42407,0.2847
-29.2,-1.5778,0.42875,0.42201,0.2828
-29.1,-1.5747,0.42669,0.41994,0.2808
-29,-1.5715,0.42462,0.41787,0.2789
-28.9,-1.5684,0.42257,0.41581,0.277
-28.8,-1.5652,0.42052,0.41375,0.2751
-28.7,-1.562,0.41848,0.4117,0.2732
-28.6,-1.5587,0.41644,0.40965,0.2713
-28.5,-1.5555,0.4144,0.4076,0.2694
-28.4,-1.5522,0.41236,0.40555,0.2675
-28.3,-1.549,0.41033,0.40351,0.2656
-28.2,-1.5457,0.4083,0.40147,0.2638
-28.1,-1.5424,0.40626,0.39941,0.2619
-28,-1.539,0.40423,0.39737,0.26
-27.9,-1.5357,0.40221,0.39534,0.2581
-27.8,-1.5323,0.40019,0.39331,0.2563
-27.7,-1.5289,0.39817,0.39129,0.2544
-27.6,-1.5255,0.39616,0.38927,0.2526
-27.5,-1.5221,0.39413,0.38724,0.2507
-27.4,-1.5187,0.39213,0.38522,0.2489
-27.3,-1.5152,0.39011,0.3832,0.2471
-27.2,-1.5118,0.38811,0.38119,0.2452
-27.1,-1.5083,0.3861,0.37917,0.2434
-27,-1.5048,0.3841,0.37716,0.2416
-26.9,-1.5013,0.3821,0.37516,0.2398
-26.8,-1.4977,0.38009,0.37314,0.238
-26.7,-1.4942,0.3781,0.37114,0.2361
-26.6,-1.4906,0.37611,0.36914,0.2343
-26.5,-1.487,0.37411,0.36714,0.2325
-26.4,-1.4834,0.37212,0.36514,0.2308
-26.3,-1.4798,0.37013,0.36315,0.229
-26.2,-1.4762,0.36815,0.36116,0.2272
-26.1,-1.4725,0.36616,0.35916,0.2254
-26,-1.4689,0.36418,0.35715,0.2236
-25.9,-1.4652,0.3622,0.35516,0.2219
-25.8,-1.4615,0.36022,0.35318,0.2201
-25.7,-1.4577,0.35824,0.35118,0.2183
-25.6,-1.4539,0.35653,0.34947,0.2165
-25.5,-1.4501,0.35454,0.34748,0.2147
-25.4,-1.4463,0.35256,0.34548,0.213
-25.3,-1.4425,0.35057,0.34349,0.2112
-25.2,-1.4387,0.34859,0.3415,0.2095
-25.1,-1.4348,0.3466,0.33951,0.2077
-25,-1.431,0.34462,0.33752,0.206
-24.9,-1.4271,0.34264,0.33553,0.2043
-24.8,-1.4232,0.34067,0.33356,0.2025
-24.7,-1.4192,0.33869,0.33157,0.2008
-24.6,-1.4153,0.33671,0.32958,0.1991
-24.5,-1.4113,0.33473,0.3276,0.1973
-24.4,-1.4073,0.33275,0.32561,0.1956
-24.3,-1.4033,0.33077,0.32362,0.1939
-24.2,-1.3993,0.32878,0.32163,0.1922
-24.1,-1.3952,0.3268,0.31965,0.1905
-24,-1.3911,0.32481,0.31765,0.1887
-23.9,-1.387,0.32281,0.31562,0.187
-23.8,-1.3829,0.32082,0.31362,0.1853
-23.7,-1.3787,0.31882,0.31161,0.1836
-23.6,-1.3745,0.31682,0.30961,0.1819
-23.5,-1.3702,0.31481,0.30759,0.1802
-23.4,-1.366,0.3128,0.30557,0.1785
-23.3,-1.3617,0.31077,0.30354,0.1768
-23.2,-1.3573,0.30875,0.30151,0.175
-23.1,-1.3529,0.30669,0.29945,0.1733
-23,-1.3485,0.30465,0.2974,0.1716
-22.9,-1.344,0.30256,0.2953,0.1698
-22.8,-1.3394,0.30046,0.2932,0.1681
-22.7,-1.3347,0.29835,0.29108,0.1663
-22.2,-1.3042,0.28579,0.27855,0.1548
-22.1,-1.3004,0.28396,0.27672,0.1534
-22,-1.2966,0.28215,0.2749,0.152
-21.9,-1.2928,0.28035,0.2731,0.1506
-21.8,-1.2889,0.27856,0.2713,0.1492
-21.7,-1.285,0.27677,0.26951,0.1477
-21.6,-1.2811,0.27499,0.26773,0.1463
-21.5,-1.2771,0.27322,0.26595,0.1449
-21.4,-1.2731,0.27145,0.26415,0.1435
-21.3,-1.2691,0.26969,0.26239,0.1421
-21.2,-1.2651,0.26794,0.26063,0.1407
-21.1,-1.2611,0.2662,0.25889,0.1393
-21,-1.257,0.26446,0.25714,0.1379
-20.9,-1.2529,0.26273,0.2554,0.1365
-20.8,-1.2488,0.26099,0.25367,0.1351
-20.7,-1.2447,0.25927,0.25194,0.1337
-20.6,-1.2406,0.25755,0.25021,0.1323
-20.5,-1.2364,0.25583,0.24849,0.131
-20.4,-1.2323,0.25412,0.24678,0.1296
-20.3,-1.2281,0.25241,0.24507,0.1282
-20.2,-1.2239,0.25071,0.24336,0.1268
-20.1,-1.2197,0.24901,0.24166,0.1255
-20,-1.2154,0.24732,0.23996,0.1241
-19.8,-1.2069,0.24427,0.23691,0.1214
-19.7,-1.2026,0.24258,0.23521,0.12
-19.6,-1.1983,0.24089,0.23352,0.1187
-19.5,-1.1939,0.2392,0.23183,0.1173
-19.4,-1.1896,0.23752,0.23015,0.116
-19.3,-1.1852,0.23584,0.22846,0.1146
-19.2,-1.1808,0.23416,0.22676,0.1133
-19.1,-1.1764,0.23249,0.22508,0.1119
-19,-1.172,0.23082,0.22341,0.1106
-18.9,-1.1675,0.22915,0.22173,0.1093
-18.8,-1.1631,0.22748,0.22006,0.1079
-18.7,-1.1586,0.22581,0.21839,0.1066
-18.6,-1.1541,0.22414,0.21672,0.1053
-18.5,-1.1496,0.22248,0.21506,0.1039
-18.4,-1.145,0.22082,0.2134,0.1026
-18.3,-1.1404,0.21917,0.21174,0.1013
-18.2,-1.1359,0.21751,0.21008,0.1
-18.1,-1.1313,0.21585,0.20842,0.0987
-18,-1.1266,0.2142,0.20677,0.0973
-17.9,-1.122,0.21255,0.20512,0.096
-17.8,-1.1173,0.2109,0.20347,0.0947
-17.7,-1.1126,0.20925,0.20182,0.0934
-17.6,-1.1079,0.20761,0.20017,0.0921
-17.5,-1.1032,0.20597,0.19853,0.0908
-17.4,-1.0984,0.20433,0.19689,0.0894
-17.3,-1.0936,0.20268,0.19524,0.0881
-17.2,-1.0887,0.20104,0.1936,0.0868
-17.1,-1.0839,0.1994,0.19195,0.0855
-17,-1.079,0.19776,0.19031,0.0841
-16.9,-1.074,0.19611,0.18866,0.0828
-16.8,-1.069,0.19447,0.18699,0.0814
-16.7,-1.0639,0.19281,0.18534,0.08
-16.6,-1.0588,0.19116,0.18368,0.0787
-16.5,-1.0536,0.1895,0.18202,0.0773
-16.4,-1.0483,0.18783,0.18034,0.0758
-16.3,-1.0428,0.18614,0.17866,0.0743
-15.8,-1.007,0.17696,0.16953,0.0636
-15.7,-1.0028,0.17543,0.16801,0.0626
-15.6,-0.9985,0.17393,0.16651,0.0616
-15.5,-0.9942,0.17243,0.16501,0.0606
-15.4,-0.9898,0.17096,0.16354,0.0596
-15.3,-0.9853,0.16949,0.16207,0.0586
-15.2,-0.9807,0.16803,0.16062,0.0575
-15.1,-0.9762,0.16658,0.15917,0.0565
-15,-0.9715,0.16515,0.15773,0.0554
-14.9,-0.9668,0.16371,0.15631,0.0544
-14.8,-0.9621,0.16229,0.15488,0.0533
-14.7,-0.9573,0.16087,0.15347,0.0523
-14.6,-0.9525,0.15947,0.15207,0.0512
-14.5,-0.9477,0.15807,0.15067,0.0501
-14.4,-0.9427,0.15667,0.14928,0.049
-14.3,-0.9378,0.15529,0.14789,0.0479
-14.2,-0.9328,0.1539,0.14649,0.0469
-14.1,-0.9278,0.15253,0.14511,0.0458
-14,-0.9227,0.15116,0.14375,0.0447
-13.9,-0.9176,0.14979,0.14239,0.0436
-13.8,-0.9125,0.14843,0.14103,0.0425
-13.7,-0.9073,0.14708,0.13968,0.0413
-13.6,-0.902,0.14573,0.13833,0.0402
-13.5,-0.8968,0.14438,0.13699,0.0391
-13.4,-0.8914,0.14303,0.13565,0.038
-13.3,-0.8861,0.1417,0.13432,0.0368
-13.2,-0.8806,0.14036,0.13298,0.0357
-13.1,-0.8745,0.13932,0.13195,0.0343
-13,-0.8689,0.13797,0.13061,0.0331
-12.9,-0.8632,0.13663,0.12928,0.0319
-12.8,-0.8575,0.13529,0.12794,0.0307
-12.7,-0.8518,0.13395,0.12661,0.0295
-12.6,-0.8459,0.13261,0.12527,0.0283
-12.5,-0.84,0.13127,0.12394,0.027
-12.4,-0.834,0.12993,0.1226,0.0257
-12.3,-0.8279,0.12858,0.12126,0.0244
-12.2,-0.8217,0.12723,0.11991,0.023
-12.1,-0.8154,0.12587,0.11856,0.0216
-12,-0.8089,0.12449,0.11719,0.0202
-11.5,-0.7621,0.11579,0.10856,0.0064
-11.4,-0.7573,0.1146,0.10737,0.0057
-11.3,-0.7523,0.11342,0.10621,0.0049
-11.2,-0.7473,0.11226,0.10505,0.0041
-11.1,-0.7421,0.1111,0.10391,0.0033
-11,-0.7368,0.10996,0.10278,0.0024
-10.9,-0.7314,0.10883,0.10166,0.0015
-10.8,-0.726,0.10771,0.10054,0.0006
-10.7,-0.7205,0.10659,0.09944,-0.0003
-10.6,-0.7149,0.10548,0.09834,-0.0013
-10.5,-0.7093,0.10438,0.09725,-0.0023
-10.4,-0.7036,0.10328,0.09616,-0.0033
-10.3,-0.6979,0.10218,0.09507,-0.0043
-10.2,-0.6921,0.10109,0.09399,-0.0054
-10.1,-0.6862,0.09999,0.09291,-0.0065
-10,-0.6801,0.09889,0.09182,-0.0076
-9.9,-0.6737,0.09776,0.0907,-0.0089
-9.8,-0.6667,0.0966,0.08955,-0.0102
-9.7,-0.6594,0.09542,0.08837,-0.0117
-9.6,-0.6521,0.09422,0.08717,-0.0131
-5.7,-0.3092,0.03738,0.02774,-0.0622
-5.6,-0.3012,0.03691,0.02732,-0.062
-5.5,-0.2931,0.03644,0.02687,-0.0618
-5.4,-0.2848,0.03596,0.02639,-0.0616
-5.3,-0.2763,0.03544,0.02586,-0.0614
-5.2,-0.2676,0.03488,0.02525,-0.0613
-4.7,-0.2165,0.0307,0.02003,-0.0618
-4.6,-0.2043,0.03024,0.01966,-0.0623
-4.5,-0.1906,0.02981,0.01927,-0.0631
-4.4,-0.1752,0.02936,0.01881,-0.0641
-4.3,-0.1606,0.02915,0.01851,-0.0651
-4.2,-0.1451,0.02842,0.0175,-0.0659
-4.1,-0.1302,0.02773,0.01658,-0.0667
-4,-0.1154,0.02729,0.01624,-0.0676
-3.9,-0.1013,0.02693,0.0159,-0.0684
-3.8,-0.0869,0.02653,0.01547,-0.0691
-3.7,-0.0718,0.02608,0.01487,-0.0699
-3.5,-0.042,0.02543,0.01411,-0.0716
-3.4,-0.0278,0.02508,0.01374,-0.0723
-3.3,-0.0131,0.02469,0.01324,-0.073
-3.2,0.0035,0.02428,0.01271,-0.074
-3.1,0.0181,0.02397,0.01248,-0.0749
-3,0.033,0.02386,0.01227,-0.0757
-2.9,0.0462,0.02352,0.01191,-0.0761
-2.8,0.061,0.02321,0.01165,-0.0769
-2.7,0.0756,0.02293,0.01132,-0.0776
-2.6,0.0907,0.02264,0.01099,-0.0784
-2.5,0.1058,0.02253,0.0109,-0.0794
-2.4,0.121,0.02224,0.01061,-0.0801
-2.3,0.1339,0.02199,0.0104,-0.0805
-2.2,0.1481,0.02177,0.01012,-0.0811
-2.1,0.1627,0.02164,0.01002,-0.0819
-2,0.1791,0.02135,0.00981,-0.0829
-1.9,0.1949,0.02114,0.00955,-0.0838
-1.8,0.2065,0.02092,0.00938,-0.084
-1.7,0.2197,0.02075,0.00928,-0.0845
-1.6,0.2351,0.02051,0.00906,-0.0853
-1.5,0.2501,0.0203,0.00887,-0.086
-1.4,0.265,0.02003,0.00873,-0.0869
-1.3,0.2755,0.01984,0.00859,-0.0868
-1.2,0.2892,0.0196,0.00841,-0.0872
-1,0.3175,0.01901,0.00812,-0.0885
-0.9,0.328,0.01879,0.00801,-0.0884
-0.7,0.35,0.01776,0.00774,-0.0882
-0.6,0.3628,0.01722,0.00731,-0.0865
-0.5,0.3734,0.01727,0.00727,-0.0863
-0.4,0.3876,0.01728,0.00718,-0.0866
-0.3,0.4025,0.01731,0.00711,-0.0871
0,0.4408,0.0174,0.00694,-0.0875
0.1,0.4508,0.01745,0.00694,-0.0872
0.2,0.4637,0.01749,0.00691,-0.0874
0.3,0.4776,0.01749,0.00684,-0.0876
0.4,0.4879,0.01755,0.00685,-0.0874
0.5,0.501,0.01758,0.00683,-0.0876
0.6,0.5128,0.0176,0.00679,-0.0875
0.7,0.5244,0.01764,0.00679,-0.0874
0.8,0.5356,0.01764,0.00672,-0.0869
0.9,0.5483,0.01762,0.00664,-0.0868
1,0.5584,0.01766,0.00663,-0.0863
1.1,0.569,0.01768,0.00659,-0.0858
1.2,0.5817,0.01771,0.00658,-0.0859
1.3,0.592,0.01774,0.00657,-0.0854
1.4,0.6041,0.01778,0.00656,-0.0853
1.5,0.6149,0.01784,0.0066,-0.0851
1.6,0.6274,0.01786,0.00658,-0.0851
1.7,0.6377,0.01791,0.00658,-0.0846
1.8,0.6485,0.01797,0.00662,-0.0844
1.9,0.6603,0.01802,0.00663,-0.0842
2,0.671,0.01809,0.00668,-0.084
2.2,0.6933,0.01818,0.00669,-0.0834
2.3,0.7041,0.01826,0.00674,-0.0831
2.4,0.7156,0.01831,0.00677,-0.0829
2.5,0.7262,0.01839,0.00683,-0.0827
2.6,0.7372,0.01847,0.00688,-0.0824
2.7,0.7475,0.01854,0.00689,-0.0819
2.8,0.7587,0.01862,0.00692,-0.0817
2.9,0.7694,0.01871,0.00699,-0.0814
3,0.7803,0.01881,0.00705,-0.0811
3.2,0.8018,0.01901,0.00718,-0.0805
3.3,0.8117,0.01914,0.00724,-0.08
3.4,0.8222,0.01926,0.00732,-0.0797
3.6,0.843,0.01953,0.0075,-0.0791
3.7,0.8532,0.01967,0.00761,-0.0787
3.8,0.8635,0.01982,0.00771,-0.0784
3.9,0.8738,0.01997,0.00782,-0.0781
4,0.8832,0.02016,0.00791,-0.0776
4.1,0.8934,0.02033,0.00805,-0.0774
4.2,0.9036,0.0205,0.00818,-0.0771
4.3,0.9137,0.02068,0.00833,-0.0768
4.4,0.9238,0.02086,0.00849,-0.0765
4.5,0.9338,0.02105,0.00864,-0.0763
4.6,0.9438,0.02124,0.00878,-0.076
4.7,0.9527,0.02148,0.00893,-0.0755
4.8,0.9627,0.02167,0.0091,-0.0753
4.9,0.9725,0.02188,0.00927,-0.075
5,0.9824,0.0221,0.00943,-0.0747
5.1,0.9922,0.02231,0.00963,-0.0745
5.2,1.0018,0.02255,0.00981,-0.0742
5.3,1.0117,0.02277,0.01002,-0.074
5.4,1.0212,0.02303,0.01026,-0.0737
5.5,1.0299,0.0233,0.01044,-0.0733
5.6,1.0396,0.02354,0.01067,-0.0731
5.7,1.0492,0.0238,0.01089,-0.0728
5.8,1.0587,0.02406,0.01113,-0.0726
5.9,1.0683,0.02433,0.01138,-0.0724
6,1.0776,0.02462,0.0116,-0.0721
6.1,1.0874,0.02487,0.01187,-0.0719
6.2,1.0969,0.02516,0.01213,-0.0717
6.3,1.1053,0.02546,0.01236,-0.0713
6.4,1.1148,0.02575,0.01266,-0.0711
6.5,1.1241,0.02606,0.01291,-0.0709
6.6,1.1337,0.02634,0.01322,-0.0707
6.7,1.1432,0.02664,0.01351,-0.0705
6.8,1.1526,0.02696,0.01378,-0.0703
6.9,1.1621,0.02728,0.01408,-0.0701
7,1.1716,0.02758,0.01441,-0.0699
7.1,1.1811,0.02791,0.01473,-0.0697
7.2,1.1892,0.02826,0.01497,-0.0694
7.3,1.1987,0.02858,0.01533,-0.0692
7.4,1.2081,0.02891,0.0157,-0.069
7.5,1.2175,0.02927,0.01602,-0.0689
7.6,1.227,0.02965,0.01634,-0.0687
7.7,1.2364,0.02997,0.01673,-0.0685
7.8,1.2458,0.03032,0.01712,-0.0683
7.9,1.2552,0.03068,0.0175,-0.0682
8,1.2647,0.03106,0.01785,-0.068
8.1,1.2744,0.03147,0.01819,-0.0679
8.2,1.2816,0.03175,0.01859,-0.0675
8.3,1.2908,0.03212,0.01899,-0.0673
8.4,1.3002,0.0325,0.01937,-0.0672
8.5,1.3097,0.03291,0.01976,-0.067
8.6,1.3188,0.03329,0.02017,-0.0669
8.7,1.3275,0.03367,0.02066,-0.0666
8.8,1.3364,0.03406,0.02112,-0.0664
8.9,1.3455,0.03446,0.02155,-0.0662
9,1.3548,0.03486,0.02195,-0.0661
9.2,1.3702,0.03558,0.02275,-0.0654
9.3,1.3787,0.03599,0.02325,-0.0652
9.4,1.3874,0.03641,0.02371,-0.065
9.5,1.3964,0.03682,0.02413,-0.0648
9.6,1.4057,0.03724,0.02456,-0.0647
9.7,1.4152,0.03768,0.02492,-0.0646
9.8,1.422,0.03814,0.02559,-0.0642
9.9,1.4296,0.0386,0.02618,-0.0639
10,1.4377,0.03906,0.02672,-0.0636
10.1,1.446,0.0395,0.02721,-0.0634
10.2,1.4532,0.03973,0.02736,-0.063
10.3,1.4624,0.04017,0.02773,-0.0629
10.4,1.4681,0.0407,0.02849,-0.0624
10.5,1.4748,0.04121,0.02915,-0.062
10.6,1.482,0.04171,0.02974,-0.0616
10.7,1.4897,0.04219,0.03028,-0.0614
10.8,1.4977,0.04265,0.0308,-0.0611
10.9,1.5063,0.04309,0.03125,-0.0609
11,1.5155,0.04354,0.03166,-0.0608
11.1,1.5226,0.04408,0.03223,-0.0605
11.2,1.5267,0.04472,0.0331,-0.0599
11.4,1.5351,0.04561,0.03423,-0.0587
11.5,1.5423,0.04609,0.03475,-0.0584
11.6,1.5502,0.04655,0.03522,-0.0581
11.7,1.5589,0.047,0.03564,-0.058
11.8,1.5673,0.04748,0.03607,-0.0578
11.9,1.5683,0.04828,0.03714,-0.057
12,1.5713,0.04901,0.03806,-0.0563
12.1,1.5753,0.04969,0.03886,-0.0558
12.2,1.5802,0.05031,0.03959,-0.0553
12.3,1.5857,0.0509,0.04028,-0.0549
12.4,1.592,0.05144,0.04086,-0.0546
12.5,1.5991,0.05194,0.04139,-0.0543
12.7,1.6055,0.05279,0.04227,-0.0531
12.8,1.6042,0.05371,0.04341,-0.0522
12.9,1.6045,0.05456,0.04442,-0.0514
13,1.6057,0.05534,0.04532,-0.0508
13.1,1.6075,0.05605,0.04613,-0.0501
13.2,1.6098,0.0567,0.04686,-0.0495
13.3,1.6132,0.05731,0.04752,-0.049
13.4,1.6178,0.05787,0.04811,-0.0485
13.5,1.6238,0.05837,0.04863,-0.0482
13.6,1.6321,0.05881,0.04905,-0.048
13.7,1.6435,0.0592,0.04937,-0.0481
13.8,1.6343,0.06036,0.0507,-0.0469
13.9,1.6254,0.06164,0.05221,-0.0459
14,1.6186,0.06291,0.05366,-0.0454
14.1,1.6134,0.06414,0.05505,-0.045
14.2,1.6097,0.06531,0.05636,-0.0449
14.3,1.6075,0.06642,0.05759,-0.0448
14.5,1.6063,0.06765,0.05892,-0.0448
14.6,1.6105,0.06827,0.05961,-0.0447
14.7,1.6165,0.06876,0.06011,-0.0446
14.8,1.6252,0.06907,0.0604,-0.0443
14.9,1.6373,0.06921,0.06047,-0.0439
15.3,1.5813,0.07915,0.0713,-0.0527
15.4,1.5721,0.08185,0.07417,-0.0563
15.5,1.5662,0.08426,0.07671,-0.0596
15.6,1.5642,0.08615,0.0787,-0.0622
15.7,1.5656,0.08746,0.08008,-0.0637
15.8,1.5693,0.08832,0.08098,-0.0644
15.9,1.5749,0.08879,0.08147,-0.0643
16,1.5818,0.089,0.08169,-0.0637
16.1,1.5902,0.08895,0.08164,-0.0626
16.2,1.6002,0.08869,0.08135,-0.061
16.3,1.6125,0.08813,0.08075,-0.0587
16.5,1.5406,0.1119,0.10519,-0.102
16.6,1.5459,0.11217,0.10549,-0.1019
16.7,1.5515,0.11228,0.10564,-0.1015
16.8,1.5575,0.11226,0.10564,-0.1009
16.9,1.5638,0.11212,0.10553,-0.1001
17,1.5704,0.11188,0.10531,-0.099
17.1,1.5773,0.11153,0.10498,-0.0977
17.6,1.5591,0.13336,0.12709,-0.1275
17.7,1.564,0.13355,0.12732,-0.1273
17.8,1.5691,0.13368,0.12749,-0.1271
17.9,1.5743,0.13373,0.12757,-0.1267

