airfoilName st11.dat
Re 	3.900000e+05
M 	0
N 	4.500000e+00
VACC 	0 VACCflag 1
XTR 	1.00 	1.00 XTRflag 0
alpha,cl,cd,cdp,cm
-9.2,-0.6024,0.02735,0.02331,-0.0729
-9.1,-0.5899,0.02616,0.02195,-0.0742
-8.9,-0.5638,0.02425,0.01976,-0.0764
-8.8,-0.5512,0.02346,0.01884,-0.0772
-8.7,-0.5384,0.02272,0.01798,-0.078
-8.6,-0.526,0.02206,0.01721,-0.0787
-8.5,-0.5136,0.02143,0.01646,-0.0793
-8.4,-0.5017,0.02085,0.01579,-0.0798
-8.3,-0.4897,0.02031,0.01514,-0.0802
-8.2,-0.4771,0.01979,0.01452,-0.0808
-8,-0.4517,0.01924,0.01375,-0.0816
-7.9,-0.4386,0.01887,0.01328,-0.0821
-7.8,-0.4269,0.01857,0.0129,-0.0823
-7.7,-0.4152,0.01797,0.01225,-0.0827
-7.6,-0.4033,0.01748,0.01172,-0.083
-7.5,-0.3912,0.01709,0.01129,-0.0834
-7.4,-0.3784,0.01675,0.01092,-0.0838
-7.3,-0.3661,0.01646,0.01059,-0.0841
-7.2,-0.3547,0.0162,0.0103,-0.0842
-7.1,-0.343,0.01595,0.01001,-0.0843
-7,-0.331,0.01571,0.00973,-0.0845
-6.9,-0.319,0.01547,0.00946,-0.0847
-6.8,-0.3068,0.01524,0.00919,-0.0849
-6.7,-0.2953,0.01501,0.00893,-0.085
-6.6,-0.2838,0.01479,0.00867,-0.0851
-6.5,-0.2722,0.01458,0.00839,-0.0851
-6.4,-0.2605,0.01436,0.00813,-0.0852
-6.3,-0.2488,0.01415,0.00788,-0.0853
-6.2,-0.2373,0.01394,0.00763,-0.0853
-6.1,-0.226,0.01375,0.00738,-0.0852
-6,-0.2145,0.01357,0.00715,-0.0853
-5.9,-0.203,0.01341,0.00694,-0.0853
-5.8,-0.1914,0.01322,0.00672,-0.0853
-5.7,-0.1803,0.01299,0.00649,-0.0852
-5.6,-0.1689,0.01282,0.0063,-0.0853
-5.5,-0.1575,0.01267,0.00613,-0.0852
-5.4,-0.146,0.01254,0.00597,-0.0852
-5.3,-0.1348,0.01241,0.00582,-0.0851
-5.2,-0.1234,0.01228,0.00566,-0.0851
-5.1,-0.1119,0.01215,0.0055,-0.0851
-5,-0.1005,0.01203,0.00535,-0.0851
-4.9,-0.0891,0.01191,0.0052,-0.085
-4.8,-0.0778,0.01181,0.00505,-0.085
-4.7,-0.0663,0.01171,0.00492,-0.0849
-4.6,-0.055,0.01156,0.00476,-0.0849
-4.5,-0.0435,0.01145,0.00464,-0.0849
-4.4,-0.032,0.01135,0.00453,-0.0849
-4.3,-0.0208,0.01126,0.00442,-0.0848
-4.2,-0.0094,0.01118,0.00431,-0.0847
-4.1,0.0022,0.01109,0.00419,-0.0847
-3.9,0.0252,0.01095,0.00404,-0.0847
-3.8,0.0364,0.01087,0.00394,-0.0846
-3.7,0.048,0.01079,0.00385,-0.0847
-3.6,0.0595,0.01072,0.00375,-0.0846
-3.5,0.071,0.01066,0.00365,-0.0846
-3.4,0.0825,0.01059,0.0036,-0.0846
-3.3,0.0941,0.01051,0.00351,-0.0846
-3.2,0.1054,0.01046,0.00343,-0.0845
-3.1,0.117,0.0104,0.00335,-0.0845
-3,0.1286,0.01035,0.00327,-0.0846
-2.9,0.1396,0.01033,0.00319,-0.0844
-2.8,0.1509,0.01028,0.00311,-0.0843
-2.6,0.1738,0.01019,0.00301,-0.0843
-2.5,0.1851,0.01018,0.00294,-0.0842
-2.4,0.1964,0.01014,0.00288,-0.0841
-2.3,0.208,0.0101,0.00283,-0.0841
-2.2,0.2196,0.01006,0.00278,-0.0841
-2.1,0.2311,0.01004,0.00273,-0.0841
-2,0.2422,0.01004,0.00269,-0.084
-1.9,0.2537,0.01001,0.00265,-0.084
-1.8,0.2653,0.00999,0.00261,-0.0841
-1.7,0.2768,0.00997,0.00257,-0.0841
-1.6,0.2884,0.00994,0.00254,-0.0841
-1.5,0.2997,0.00995,0.00252,-0.0841
-1.4,0.3109,0.00996,0.00249,-0.084
-1.3,0.3222,0.00996,0.00247,-0.084
-1.2,0.3337,0.00996,0.00243,-0.084
-1.1,0.3452,0.00995,0.00242,-0.084
-1,0.3566,0.00994,0.00241,-0.084
-0.9,0.3682,0.00994,0.00239,-0.084
-0.8,0.3788,0.01004,0.00238,-0.0839
-0.7,0.3902,0.01004,0.00237,-0.0839
-0.6,0.4016,0.01006,0.00237,-0.0839
-0.5,0.4131,0.01005,0.00237,-0.084
-0.4,0.4246,0.01006,0.00236,-0.084
-0.3,0.436,0.01007,0.00236,-0.084
-0.2,0.4475,0.01008,0.00235,-0.0841
0,0.47,0.01013,0.00238,-0.0841
0.1,0.4814,0.01014,0.00238,-0.0841
0.2,0.4928,0.01016,0.00238,-0.0841
0.3,0.5043,0.01016,0.00239,-0.0842
0.4,0.5156,0.01014,0.0024,-0.0843
0.5,0.5271,0.01012,0.00241,-0.0843
0.6,0.5384,0.01012,0.00244,-0.0844
0.7,0.5493,0.01013,0.00246,-0.0844
0.8,0.5607,0.01007,0.00248,-0.0845
0.9,0.5717,0.00988,0.00251,-0.0847
1.1,0.5839,0.00862,0.00244,-0.0821
1.2,0.5963,0.00866,0.00243,-0.0823
1.3,0.6075,0.00875,0.00246,-0.0823
1.4,0.6188,0.00883,0.00249,-0.0823
1.5,0.63,0.00892,0.00253,-0.0823
1.6,0.6408,0.00907,0.00258,-0.0822
1.7,0.652,0.00917,0.00261,-0.0822
1.8,0.6632,0.00926,0.00265,-0.0822
1.9,0.6743,0.00937,0.0027,-0.0822
2,0.6853,0.00949,0.00275,-0.0822
2.1,0.6964,0.00959,0.00279,-0.0822
2.2,0.7074,0.00971,0.00284,-0.0822
2.3,0.7184,0.00984,0.0029,-0.0821
2.4,0.7288,0.01003,0.00297,-0.0821
2.5,0.7398,0.01016,0.00304,-0.0821
2.6,0.7507,0.0103,0.0031,-0.082
2.7,0.7616,0.01043,0.00317,-0.082
2.8,0.7725,0.01055,0.00323,-0.082
2.9,0.7835,0.01068,0.0033,-0.082
3,0.7945,0.01079,0.00336,-0.082
3.1,0.8054,0.01092,0.00344,-0.082
3.2,0.8166,0.01101,0.00351,-0.082
3.3,0.8276,0.01112,0.00357,-0.082
3.4,0.8384,0.01127,0.00366,-0.082
3.5,0.8495,0.01136,0.00373,-0.082
3.6,0.8606,0.01145,0.0038,-0.082
3.7,0.8715,0.01156,0.00387,-0.0819
3.8,0.8826,0.01166,0.00395,-0.0819
3.9,0.8937,0.01174,0.00401,-0.082
4,0.9048,0.01183,0.00408,-0.082
4.1,0.9158,0.01193,0.00416,-0.0819
4.2,0.9267,0.01204,0.00425,-0.0819
4.3,0.9377,0.01214,0.00433,-0.0819
4.4,0.9487,0.01223,0.0044,-0.0819
4.5,0.9597,0.01233,0.00448,-0.0819
4.6,0.9707,0.01243,0.00456,-0.0819
4.7,0.9815,0.01255,0.00465,-0.0819
4.8,0.9925,0.01262,0.00473,-0.0819
4.9,1.0036,0.01271,0.0048,-0.0819
5,1.0145,0.0128,0.00488,-0.0819
5.1,1.0254,0.0129,0.00497,-0.0818
5.2,1.036,0.01304,0.00507,-0.0818
5.3,1.0469,0.01313,0.00516,-0.0818
5.4,1.0579,0.01321,0.00525,-0.0818
5.5,1.0688,0.01331,0.00533,-0.0817
5.6,1.0796,0.0134,0.00542,-0.0817
5.7,1.0904,0.01351,0.00551,-0.0817
5.8,1.1011,0.01362,0.00561,-0.0817
5.9,1.1117,0.01375,0.00571,-0.0816
6,1.1226,0.01383,0.00581,-0.0816
6.1,1.1334,0.01392,0.00591,-0.0816
6.2,1.1441,0.01402,0.00601,-0.0815
6.3,1.1548,0.01412,0.00611,-0.0815
6.4,1.1653,0.01425,0.00621,-0.0814
6.5,1.1757,0.01438,0.00631,-0.0814
6.6,1.1864,0.01448,0.00642,-0.0813
6.7,1.1971,0.01458,0.00653,-0.0813
6.8,1.2077,0.01468,0.00663,-0.0812
6.9,1.2183,0.01479,0.00674,-0.0812
7,1.2288,0.0149,0.00686,-0.0811
7.1,1.2392,0.01502,0.00698,-0.0811
7.2,1.2496,0.01515,0.00709,-0.081
7.3,1.2599,0.01528,0.00721,-0.0809
7.4,1.2704,0.01539,0.00733,-0.0808
7.5,1.2808,0.0155,0.00744,-0.0808
7.6,1.2912,0.01561,0.00756,-0.0807
7.7,1.3015,0.01574,0.00769,-0.0806
7.8,1.3117,0.01587,0.00781,-0.0805
7.9,1.3218,0.01601,0.00794,-0.0804
8,1.3318,0.01616,0.00809,-0.0803
8.1,1.3421,0.01627,0.00823,-0.0802
8.2,1.3524,0.01638,0.00836,-0.0801
8.3,1.3626,0.0165,0.00849,-0.08
8.4,1.3727,0.01663,0.00862,-0.0799
8.5,1.3826,0.01677,0.00875,-0.0798
8.6,1.3925,0.01692,0.00889,-0.0797
8.7,1.4023,0.01708,0.00904,-0.0795
8.8,1.412,0.01723,0.0092,-0.0794
8.9,1.4221,0.01735,0.00934,-0.0793
9,1.4321,0.01748,0.0095,-0.0791
9.1,1.442,0.01761,0.00965,-0.079
9.2,1.4518,0.01775,0.0098,-0.0788
9.3,1.4615,0.0179,0.00995,-0.0787
9.4,1.4711,0.01805,0.01011,-0.0785
9.5,1.4805,0.01821,0.01028,-0.0783
9.6,1.4895,0.01842,0.01045,-0.0781
9.7,1.4993,0.01854,0.01061,-0.078
9.8,1.5089,0.01868,0.01077,-0.0778
9.9,1.5184,0.01883,0.01094,-0.0776
10,1.5278,0.01899,0.01111,-0.0774
10.1,1.5371,0.01915,0.0113,-0.0772
10.2,1.5463,0.01931,0.01147,-0.077
10.3,1.5553,0.01949,0.01166,-0.0767
10.4,1.5642,0.01968,0.01185,-0.0765
10.5,1.5728,0.01988,0.01205,-0.0762
10.6,1.5817,0.02006,0.01225,-0.0759
10.7,1.5908,0.02021,0.01243,-0.0757
10.8,1.5998,0.02037,0.01262,-0.0754
10.9,1.6087,0.02053,0.01279,-0.0752
11,1.6174,0.02071,0.01299,-0.0749
11.1,1.6259,0.0209,0.01319,-0.0746
11.2,1.6342,0.0211,0.0134,-0.0743
11.3,1.6423,0.02131,0.01362,-0.0739
11.4,1.6502,0.02153,0.01386,-0.0735
11.5,1.6578,0.02176,0.0141,-0.0731
11.6,1.6663,0.02193,0.01431,-0.0728
11.7,1.6745,0.02211,0.01452,-0.0724
11.8,1.6825,0.0223,0.01474,-0.072
11.9,1.6902,0.02249,0.01497,-0.0716
12,1.6978,0.0227,0.01518,-0.0712
12.1,1.705,0.02291,0.01541,-0.0707
12.2,1.7121,0.02314,0.01566,-0.0702
12.3,1.7188,0.02338,0.01591,-0.0697
12.4,1.7252,0.02363,0.01617,-0.0691
12.5,1.7312,0.0239,0.01645,-0.0684
12.6,1.7378,0.02413,0.01672,-0.0678
12.7,1.7446,0.0243,0.01692,-0.0673
12.8,1.75,0.02453,0.01718,-0.0665
12.9,1.7552,0.02477,0.01747,-0.0657
13,1.7602,0.02502,0.01775,-0.0649
13.1,1.7652,0.02529,0.01805,-0.0641
13.2,1.77,0.02557,0.01835,-0.0633
13.3,1.7747,0.02587,0.01867,-0.0625
13.4,1.7791,0.02618,0.019,-0.0618
13.5,1.7834,0.0265,0.01935,-0.061
13.6,1.7873,0.02686,0.01972,-0.0602
13.7,1.7915,0.0272,0.0201,-0.0595
13.8,1.7975,0.02744,0.02038,-0.059
13.9,1.8027,0.02773,0.02069,-0.0584
14,1.8072,0.02806,0.02106,-0.0578
14.1,1.8115,0.02841,0.02144,-0.0571
14.2,1.8156,0.02877,0.02183,-0.0565
14.3,1.8196,0.02915,0.02224,-0.0559
14.4,1.8234,0.02955,0.02267,-0.0553
14.5,1.827,0.02998,0.02312,-0.0548
14.6,1.8302,0.03042,0.0236,-0.0542
14.7,1.8332,0.0309,0.0241,-0.0537
14.8,1.8377,0.03128,0.02455,-0.0532
14.9,1.8419,0.03168,0.025,-0.0528
15,1.8459,0.03209,0.02547,-0.0524
15.1,1.8497,0.03253,0.02595,-0.0521
15.2,1.8534,0.03299,0.02645,-0.0517
15.3,1.857,0.03347,0.02697,-0.0514
15.4,1.8605,0.03396,0.02751,-0.0511
15.5,1.8638,0.03447,0.02806,-0.0509
15.6,1.867,0.03501,0.02864,-0.0507
15.7,1.8701,0.03557,0.02923,-0.0506
15.8,1.8722,0.03621,0.02989,-0.0505
15.9,1.8734,0.03695,0.03064,-0.0505
16,1.8773,0.03748,0.03122,-0.0505
16.1,1.8809,0.03803,0.03183,-0.0505
16.2,1.8843,0.03862,0.03247,-0.0506
16.3,1.8876,0.03923,0.03313,-0.0508
16.4,1.8909,0.03986,0.03381,-0.051
16.5,1.894,0.04051,0.03452,-0.0512
16.6,1.8971,0.04119,0.03524,-0.0516
16.7,1.9001,0.0419,0.036,-0.052
16.8,1.903,0.04263,0.03678,-0.0524
16.9,1.9057,0.0434,0.0376,-0.053
17,1.9066,0.04441,0.03861,-0.0539
17.1,1.9089,0.04527,0.03952,-0.0547
17.2,1.9124,0.046,0.04032,-0.0553
17.3,1.9158,0.04676,0.04112,-0.0561
17.4,1.9188,0.04759,0.04201,-0.057
17.5,1.9217,0.04845,0.04292,-0.058
17.6,1.9245,0.04935,0.04388,-0.059
17.7,1.9271,0.05029,0.04488,-0.0602
17.8,1.9296,0.05129,0.04592,-0.0615
17.9,1.9319,0.05234,0.04703,-0.0629
18,1.9339,0.05345,0.04819,-0.0644
18.1,1.9357,0.05464,0.04943,-0.0661
18.2,1.937,0.05593,0.05078,-0.0679
18.3,1.9392,0.05709,0.05202,-0.0696
18.4,1.9415,0.05824,0.05323,-0.0713
18.5,1.9434,0.05949,0.05455,-0.0731
18.6,1.9449,0.06083,0.05595,-0.0751
18.7,1.9462,0.06224,0.05743,-0.0772
18.8,1.947,0.06377,0.05902,-0.0794
18.9,1.9474,0.0654,0.06073,-0.0819
19,1.9471,0.06719,0.06258,-0.0845
19.1,1.9463,0.06913,0.06459,-0.0873
19.2,1.9447,0.07126,0.0668,-0.0904
19.3,1.9427,0.07353,0.06917,-0.0936
19.4,1.9414,0.07563,0.07136,-0.0966
19.5,1.9395,0.07791,0.07373,-0.0997
19.6,1.9369,0.08037,0.07628,-0.103
19.7,1.9336,0.08304,0.07905,-0.1066
19.8,1.9295,0.08591,0.08201,-0.1103
19.9,1.9248,0.08895,0.08516,-0.1142
20,1.9196,0.09213,0.08844,-0.1182
20.1,1.9139,0.09545,0.09185,-0.1224
20.2,1.9079,0.09882,0.09532,-0.1265
20.3,1.9017,0.10218,0.09878,-0.1307
20.4,1.8952,0.10557,0.10226,-0.1349
20.5,1.8886,0.10895,0.10573,-0.1391
20.6,1.8823,0.11221,0.10907,-0.1431
20.7,1.8765,0.11534,0.11227,-0.1471
20.8,1.8698,0.11876,0.11578,-0.1513
20.9,1.8643,0.12185,0.11893,-0.1552
21,1.858,0.12526,0.12241,-0.1595
21.1,1.8531,0.12831,0.12555,-0.1633
21.2,1.8491,0.1312,0.1285,-0.1668
21.3,1.8463,0.13377,0.13112,-0.1699
21.4,1.842,0.13687,0.13429,-0.1736
21.5,1.839,0.13964,0.13712,-0.1768
21.6,1.8358,0.14251,0.14004,-0.1801
21.7,1.832,0.14567,0.14326,-0.1836
21.8,1.8294,0.14847,0.1461,-0.1868
21.9,1.8256,0.15175,0.14943,-0.1903
22,1.8219,0.15505,0.15277,-0.1938
22.1,1.819,0.15811,0.15587,-0.1971
22.2,1.8154,0.16152,0.15934,-0.2006
22.3,1.8134,0.1644,0.16227,-0.2036
22.4,1.8119,0.1671,0.165,-0.2064
22.5,1.8099,0.17007,0.16802,-0.2095
22.6,1.807,0.17346,0.17145,-0.2128
22.7,1.805,0.17649,0.17451,-0.2159
22.8,1.8035,0.17941,0.17746,-0.2189
22.9,1.7998,0.18335,0.18143,-0.2226
23,1.7987,0.18616,0.18429,-0.2255
23.1,1.7981,0.18884,0.18699,-0.2281
23.2,1.7971,0.19172,0.18991,-0.231
23.3,1.7953,0.19503,0.19325,-0.2341
23.4,1.7946,0.19785,0.19609,-0.2369
23.5,1.7942,0.20059,0.19885,-0.2396
23.6,1.7937,0.20344,0.20172,-0.2424
23.7,1.7922,0.20685,0.20517,-0.2456
23.8,1.7925,0.20934,0.20767,-0.2481
23.9,1.7931,0.21168,0.21004,-0.2504
24,1.7937,0.21399,0.21237,-0.2528
24.1,1.7944,0.21632,0.21471,-0.2551
24.2,1.7944,0.21907,0.21749,-0.2577
24.3,1.7947,0.22171,0.22015,-0.2603
24.4,1.7956,0.22396,0.22241,-0.2626
24.5,1.7967,0.22611,0.22457,-0.2648
24.6,1.798,0.22814,0.22661,-0.2669
24.7,1.7994,0.23014,0.2286,-0.269
24.8,1.8009,0.23202,0.23048,-0.271
24.9,1.8024,0.23392,0.2324,-0.273
25,1.8038,0.23591,0.2344,-0.2751
25.1,1.805,0.23805,0.23656,-0.2773
25.2,1.8064,0.24008,0.23861,-0.2794
25.3,1.8079,0.24204,0.24059,-0.2815
25.5,1.8105,0.24634,0.2449,-0.2859
25.6,1.8123,0.24808,0.24665,-0.2878
25.7,1.8141,0.24978,0.24836,-0.2897
25.8,1.816,0.25144,0.25002,-0.2916
25.9,1.8179,0.25305,0.25164,-0.2934
26,1.8198,0.25464,0.25323,-0.2952
26.1,1.8218,0.25615,0.25475,-0.297
26.2,1.8239,0.2576,0.2562,-0.2988
26.3,1.826,0.25894,0.25754,-0.3005
26.4,1.8281,0.26026,0.25886,-0.3021
26.5,1.8303,0.26144,0.26004,-0.3037
26.6,1.8327,0.26244,0.26103,-0.3052
26.7,1.8351,0.26335,0.26193,-0.3066
26.8,1.837,0.2649,0.26348,-0.3084
26.9,1.8383,0.26707,0.26568,-0.3107
27,1.8396,0.26938,0.26802,-0.313
27.1,1.841,0.27155,0.27022,-0.3153
27.2,1.8426,0.27357,0.27227,-0.3174
27.3,1.8441,0.27561,0.27434,-0.3196
27.4,1.8457,0.27761,0.27637,-0.3218
27.5,1.8472,0.27968,0.27845,-0.324
27.6,1.8488,0.28167,0.28047,-0.3261
27.7,1.8504,0.28375,0.28257,-0.3283
27.8,1.852,0.28572,0.28456,-0.3305
27.9,1.8534,0.28797,0.28683,-0.3328
28,1.8549,0.29029,0.28916,-0.3352
28.1,1.8565,0.29241,0.2913,-0.3375
28.2,1.8581,0.29445,0.29336,-0.3397
28.3,1.8598,0.29633,0.29525,-0.3418
28.4,1.8616,0.29812,0.29705,-0.3438
28.5,1.8634,0.29992,0.29887,-0.3459
28.6,1.8652,0.3016,0.30056,-0.3479
28.7,1.867,0.30311,0.30207,-0.3498
28.8,1.8689,0.30471,0.30368,-0.3517
28.9,1.8707,0.30616,0.30513,-0.3536
29,1.8726,0.30747,0.30646,-0.3554
29.1,1.8745,0.30881,0.3078,-0.3572
29.2,1.8764,0.31007,0.30906,-0.3589
29.3,1.8783,0.31116,0.31016,-0.3606
29.4,1.8802,0.31213,0.31112,-0.3621
29.5,1.8821,0.31317,0.31217,-0.3638
29.6,1.8841,0.31391,0.31291,-0.3652
29.7,1.8859,0.31503,0.31403,-0.3669
29.8,1.8877,0.31586,0.31487,-0.3685
29.9,1.8897,0.31642,0.31543,-0.3698
30,1.8915,0.31711,0.31613,-0.3713

