airfoilName st12.dat
Re 	750000
M 	0
N 	4.500000e+00
VACC 	0 VACCflag 1
XTR 	1.00 	1.00 XTRflag 0
alpha,cl,cd,cdp,cm
-9.8,-0.6394,0.02314,0.01963,-0.0819
-9.7,-0.6277,0.02208,0.01844,-0.0829
-9.6,-0.6158,0.02124,0.0175,-0.0836
-9.5,-0.6039,0.02053,0.01669,-0.0843
-9.4,-0.5925,0.01993,0.01601,-0.0847
-9.3,-0.5807,0.01936,0.01537,-0.0852
-9.2,-0.5688,0.01886,0.01479,-0.0857
-9.1,-0.5566,0.01839,0.01423,-0.0861
-9,-0.5447,0.01796,0.01374,-0.0865
-8.9,-0.5333,0.01756,0.01328,-0.0867
-8.8,-0.5219,0.01719,0.01284,-0.0869
-8.7,-0.5105,0.01683,0.01243,-0.0871
-8.6,-0.4989,0.01649,0.01202,-0.0873
-8.5,-0.4874,0.01616,0.01163,-0.0875
-8.4,-0.4764,0.01586,0.01128,-0.0876
-8.3,-0.4652,0.01556,0.01093,-0.0877
-8.2,-0.4542,0.01528,0.0106,-0.0877
-8.1,-0.4429,0.01501,0.01027,-0.0877
-8,-0.4317,0.01474,0.00995,-0.0878
-7.9,-0.4208,0.01449,0.00965,-0.0878
-7.8,-0.4096,0.01425,0.00936,-0.0878
-7.7,-0.3987,0.01402,0.00907,-0.0877
-7.6,-0.3876,0.01379,0.00879,-0.0877
-7.5,-0.3764,0.01358,0.00853,-0.0877
-7.4,-0.3652,0.01337,0.00828,-0.0877
-7.3,-0.3542,0.01318,0.00804,-0.0877
-7.2,-0.343,0.013,0.00781,-0.0877
-7.1,-0.3321,0.01283,0.00759,-0.0875
-7,-0.3209,0.01267,0.00739,-0.0875
-6.9,-0.3095,0.01253,0.00722,-0.0875
-6.8,-0.2981,0.01239,0.00704,-0.0875
-6.7,-0.2872,0.01222,0.00684,-0.0874
-6.6,-0.276,0.01194,0.0065,-0.0874
-6.5,-0.2646,0.01172,0.00625,-0.0874
-6.4,-0.2534,0.01155,0.00603,-0.0874
-6.3,-0.2421,0.0114,0.00585,-0.0874
-6.2,-0.2308,0.01126,0.00569,-0.0873
-6.1,-0.2194,0.01113,0.00553,-0.0873
-6,-0.2079,0.01101,0.00539,-0.0874
-5.9,-0.1966,0.0109,0.00524,-0.0873
-5.8,-0.1853,0.01079,0.0051,-0.0873
-5.7,-0.1738,0.01068,0.00496,-0.0873
-5.6,-0.1622,0.01057,0.00483,-0.0873
-5.5,-0.1509,0.01048,0.0047,-0.0872
-5.4,-0.1395,0.01038,0.00456,-0.0872
-5.3,-0.1279,0.01028,0.00444,-0.0872
-5.2,-0.1163,0.01019,0.00431,-0.0872
-5.1,-0.1047,0.0101,0.0042,-0.0872
-5,-0.0935,0.01005,0.00409,-0.0872
-4.9,-0.0818,0.00992,0.00396,-0.0872
-4.8,-0.0702,0.00982,0.00384,-0.0872
-4.7,-0.0587,0.00974,0.00374,-0.0872
-4.6,-0.0472,0.00967,0.00364,-0.0872
-4.5,-0.0357,0.0096,0.00355,-0.0872
-4.4,-0.0241,0.00953,0.00346,-0.0872
-4.3,-0.0125,0.00947,0.00338,-0.0872
-4.2,-0.0009,0.00941,0.00329,-0.0873
-4.1,0.0108,0.00935,0.00321,-0.0873
-4,0.0222,0.00932,0.00313,-0.0873
-3.9,0.0338,0.00924,0.00304,-0.0873
-3.8,0.0454,0.00919,0.00301,-0.0874
-3.7,0.0571,0.00913,0.00294,-0.0874
-3.6,0.0687,0.00909,0.00287,-0.0874
-3.5,0.0799,0.00909,0.0028,-0.0873
-3.4,0.0914,0.00905,0.00274,-0.0873
-3.3,0.1028,0.00902,0.00266,-0.0873
-3.2,0.1142,0.00899,0.00261,-0.0872
-3.1,0.1258,0.00896,0.00255,-0.0873
-3,0.1375,0.00892,0.0025,-0.0873
-2.9,0.1491,0.00889,0.00245,-0.0873
-2.8,0.1603,0.0089,0.00241,-0.0873
-2.7,0.1719,0.00887,0.00236,-0.0873
-2.6,0.1836,0.00884,0.00231,-0.0873
-2.5,0.195,0.00884,0.00227,-0.0873
-2.4,0.2066,0.00882,0.00223,-0.0874
-2.3,0.2179,0.00884,0.0022,-0.0873
-2.2,0.2295,0.00882,0.00216,-0.0874
-2.1,0.2411,0.0088,0.00213,-0.0874
-2,0.2524,0.00883,0.0021,-0.0874
-1.9,0.264,0.00883,0.00207,-0.0874
-1.8,0.2756,0.00882,0.00203,-0.0875
-1.7,0.2868,0.00886,0.00202,-0.0874
-1.6,0.2983,0.00886,0.002,-0.0875
-1.5,0.3099,0.00887,0.00198,-0.0875
-1.4,0.3215,0.00886,0.00196,-0.0876
-1.3,0.3328,0.00889,0.00195,-0.0876
-1.2,0.3442,0.00892,0.00195,-0.0876
-1.1,0.3555,0.00898,0.00194,-0.0876
-1,0.3671,0.00897,0.00193,-0.0876
-0.9,0.3786,0.00898,0.00193,-0.0877
-0.8,0.39,0.00902,0.00192,-0.0877
-0.7,0.4015,0.00903,0.00192,-0.0877
-0.6,0.4131,0.00904,0.00192,-0.0878
-0.5,0.4246,0.00906,0.00192,-0.0878
-0.4,0.4361,0.00906,0.00192,-0.0879
-0.3,0.4473,0.00913,0.00194,-0.0879
-0.2,0.4588,0.00915,0.00193,-0.0879
0,0.4818,0.0092,0.00195,-0.088
0.1,0.4932,0.00923,0.00195,-0.0881
0.2,0.5047,0.00924,0.00197,-0.0881
0.3,0.5161,0.00927,0.00198,-0.0882
0.4,0.5272,0.00936,0.00201,-0.0882
0.5,0.5386,0.0094,0.00203,-0.0882
0.6,0.5501,0.00942,0.00205,-0.0882
0.7,0.5614,0.00947,0.00207,-0.0883
0.8,0.5728,0.00951,0.00209,-0.0883
0.9,0.5841,0.00956,0.00211,-0.0883
1,0.5954,0.00961,0.00213,-0.0884
1.1,0.6067,0.00965,0.00217,-0.0884
1.2,0.6175,0.00979,0.00222,-0.0884
1.3,0.6287,0.00985,0.00225,-0.0884
1.4,0.6399,0.00992,0.00229,-0.0885
1.5,0.651,0.00999,0.00233,-0.0885
1.6,0.6621,0.01003,0.00238,-0.0885
1.7,0.6732,0.01009,0.00243,-0.0886
1.8,0.6843,0.01012,0.00247,-0.0887
1.9,0.6955,0.01012,0.00253,-0.0887
2.1,0.709,0.00877,0.00261,-0.0871
2.2,0.7202,0.00886,0.00266,-0.0871
2.3,0.7316,0.00893,0.0027,-0.0871
2.4,0.7429,0.009,0.00274,-0.0871
2.5,0.7542,0.00909,0.00278,-0.0871
2.6,0.7654,0.00916,0.00283,-0.0871
2.7,0.7768,0.00923,0.00287,-0.0872
2.8,0.7881,0.0093,0.00292,-0.0872
2.9,0.7994,0.00937,0.00296,-0.0872
3,0.8105,0.00947,0.00302,-0.0872
3.1,0.8218,0.00954,0.00306,-0.0872
3.2,0.8331,0.00961,0.00311,-0.0873
3.3,0.8443,0.00968,0.00316,-0.0873
3.4,0.8555,0.00976,0.00322,-0.0873
3.5,0.8668,0.00982,0.00327,-0.0873
3.6,0.8781,0.00989,0.00332,-0.0873
3.7,0.8893,0.00995,0.00336,-0.0874
3.8,0.9005,0.01003,0.00342,-0.0874
3.9,0.9117,0.01011,0.00347,-0.0874
4,0.9228,0.0102,0.00353,-0.0874
4.1,0.934,0.01026,0.00359,-0.0874
4.2,0.9452,0.01033,0.00364,-0.0874
4.3,0.9563,0.01041,0.0037,-0.0874
4.4,0.9674,0.0105,0.00376,-0.0874
4.5,0.9785,0.01057,0.00383,-0.0874
4.6,0.9897,0.01064,0.00389,-0.0874
4.7,1.0008,0.01071,0.00395,-0.0875
4.8,1.0119,0.01078,0.00401,-0.0875
4.9,1.0228,0.01089,0.00407,-0.0874
5,1.0337,0.01098,0.00415,-0.0874
5.1,1.0449,0.01105,0.00421,-0.0874
5.2,1.0559,0.01112,0.00427,-0.0874
5.3,1.067,0.01119,0.00434,-0.0874
5.4,1.078,0.01127,0.00441,-0.0874
5.5,1.089,0.01135,0.00449,-0.0874
5.6,1.0999,0.01144,0.00456,-0.0874
5.7,1.1107,0.01154,0.00464,-0.0874
5.8,1.1217,0.01161,0.00471,-0.0874
5.9,1.1327,0.01169,0.00479,-0.0874
6,1.1435,0.01178,0.00486,-0.0874
6.1,1.1543,0.01187,0.00494,-0.0873
6.2,1.1651,0.01197,0.00502,-0.0873
6.3,1.1758,0.01207,0.0051,-0.0873
6.4,1.1867,0.01216,0.00519,-0.0873
6.5,1.1975,0.01224,0.00528,-0.0872
6.6,1.2084,0.01232,0.00536,-0.0872
6.7,1.2191,0.01241,0.00544,-0.0872
6.8,1.2299,0.0125,0.00553,-0.0872
6.9,1.2403,0.01263,0.00562,-0.0871
7,1.2508,0.01274,0.00572,-0.087
7.1,1.2616,0.01283,0.00582,-0.087
7.2,1.2723,0.01292,0.00591,-0.087
7.3,1.283,0.01301,0.006,-0.0869
7.4,1.2936,0.0131,0.0061,-0.0869
7.5,1.3041,0.0132,0.0062,-0.0868
7.6,1.3146,0.01331,0.0063,-0.0868
7.7,1.325,0.01342,0.0064,-0.0867
7.8,1.3354,0.01355,0.00651,-0.0866
7.9,1.3458,0.01365,0.00662,-0.0866
8,1.3563,0.01375,0.00672,-0.0865
8.1,1.3667,0.01385,0.00682,-0.0864
8.2,1.3771,0.01396,0.00693,-0.0864
8.3,1.3874,0.01408,0.00704,-0.0863
8.4,1.3976,0.0142,0.00716,-0.0862
8.5,1.4078,0.01433,0.00728,-0.0861
8.6,1.4179,0.01446,0.00742,-0.086
8.7,1.4282,0.01456,0.00753,-0.0859
8.8,1.4385,0.01466,0.00764,-0.0858
8.9,1.4487,0.01477,0.00776,-0.0857
9,1.4589,0.01489,0.00787,-0.0856
9.1,1.4687,0.01504,0.008,-0.0855
9.2,1.4786,0.01518,0.00813,-0.0853
9.3,1.4885,0.01532,0.00827,-0.0852
9.4,1.4983,0.01546,0.00842,-0.0851
9.5,1.5084,0.01557,0.00855,-0.085
9.6,1.5183,0.01569,0.00868,-0.0848
9.7,1.5282,0.01581,0.00881,-0.0847
9.8,1.5381,0.01594,0.00895,-0.0846
9.9,1.5478,0.01607,0.00908,-0.0844
10,1.5575,0.01621,0.00923,-0.0842
10.1,1.567,0.01636,0.00938,-0.0841
10.2,1.576,0.01657,0.00955,-0.0838
10.3,1.5857,0.0167,0.0097,-0.0837
10.4,1.5953,0.01683,0.00985,-0.0835
10.5,1.6049,0.01696,0.00999,-0.0833
10.6,1.6143,0.0171,0.01015,-0.0831
10.7,1.6234,0.01728,0.01032,-0.0829
10.8,1.6325,0.01745,0.01048,-0.0827
10.9,1.6416,0.01762,0.01066,-0.0824
11,1.6505,0.0178,0.01084,-0.0822
11.1,1.6595,0.01796,0.01102,-0.0819
11.2,1.6687,0.01811,0.01118,-0.0817
11.3,1.6778,0.01826,0.01135,-0.0814
11.4,1.6865,0.01843,0.01152,-0.0812
11.5,1.6953,0.0186,0.0117,-0.0809
11.6,1.7039,0.01878,0.01188,-0.0806
11.7,1.7117,0.01903,0.0121,-0.0802
11.8,1.72,0.01924,0.01231,-0.0799
11.9,1.7286,0.0194,0.0125,-0.0795
12,1.7371,0.01956,0.0127,-0.0792
12.1,1.7454,0.01974,0.01289,-0.0789
12.2,1.7536,0.01991,0.01308,-0.0785
12.3,1.7616,0.0201,0.01328,-0.0781
12.4,1.7695,0.02029,0.01349,-0.0777
12.5,1.7771,0.0205,0.0137,-0.0773
12.6,1.7845,0.02071,0.01392,-0.0768
12.7,1.7916,0.02094,0.01415,-0.0763
12.8,1.7985,0.02117,0.01439,-0.0757
12.9,1.8055,0.02139,0.01464,-0.0752
13,1.8127,0.02158,0.01485,-0.0747
13.1,1.8194,0.02179,0.01508,-0.0741
13.2,1.8261,0.02201,0.01531,-0.0735
13.3,1.8325,0.02223,0.01555,-0.0729
13.4,1.8377,0.0225,0.01582,-0.0721
13.5,1.8423,0.02275,0.01608,-0.0712
13.6,1.8466,0.02302,0.01637,-0.0703
13.7,1.8508,0.0233,0.01667,-0.0693
13.8,1.855,0.02359,0.01699,-0.0683
13.9,1.8599,0.02384,0.01726,-0.0675
14,1.8647,0.0241,0.01755,-0.0667
14.1,1.8694,0.02437,0.01785,-0.0659
14.2,1.8739,0.02465,0.01816,-0.0651
14.3,1.8784,0.02495,0.01848,-0.0643
14.4,1.8826,0.02526,0.01881,-0.0636
14.5,1.8852,0.02569,0.01923,-0.0626
14.6,1.8889,0.02606,0.01962,-0.0619
14.7,1.8923,0.02644,0.02002,-0.0611
14.8,1.8959,0.02682,0.02043,-0.0603
14.9,1.8994,0.0272,0.02083,-0.0596
15,1.9031,0.02757,0.02123,-0.0589
15.1,1.9067,0.02796,0.02165,-0.0583
15.2,1.9101,0.02837,0.02209,-0.0577
15.3,1.9132,0.02881,0.02255,-0.057
15.4,1.9163,0.02926,0.02302,-0.0564
15.5,1.9188,0.02974,0.02353,-0.0558
15.6,1.9211,0.03026,0.02407,-0.0552
15.7,1.9233,0.03079,0.02466,-0.0547
15.8,1.9263,0.03127,0.02517,-0.0542
15.9,1.9292,0.03178,0.02571,-0.0538
16,1.9319,0.0323,0.02627,-0.0534
16.1,1.9344,0.03286,0.02685,-0.0531
16.2,1.9368,0.03343,0.02746,-0.0528
16.3,1.9389,0.03405,0.0281,-0.0525
16.4,1.9407,0.0347,0.02878,-0.0523
16.6,1.9417,0.03627,0.03041,-0.0521
16.7,1.9436,0.03696,0.03114,-0.0521
16.8,1.9453,0.0377,0.03191,-0.0521
16.9,1.9468,0.03846,0.03271,-0.0523
17,1.9479,0.0393,0.03357,-0.0525
17.1,1.9483,0.04024,0.03454,-0.0528
17.2,1.9492,0.04114,0.0355,-0.0533
17.3,1.9504,0.04205,0.03644,-0.0538
17.4,1.9515,0.04299,0.03742,-0.0544
17.5,1.9522,0.044,0.03846,-0.0552
17.6,1.9521,0.04514,0.03963,-0.0561
17.7,1.9521,0.0463,0.04086,-0.0572
17.8,1.9526,0.04743,0.04203,-0.0583
17.9,1.9529,0.04865,0.04329,-0.0596
18,1.953,0.04993,0.04462,-0.061
18.1,1.9524,0.05138,0.04614,-0.0628
18.2,1.9523,0.05279,0.04761,-0.0645
18.3,1.9524,0.05422,0.04909,-0.0664
18.4,1.9522,0.05576,0.05068,-0.0685
18.5,1.9518,0.0574,0.05239,-0.0707
18.6,1.9508,0.05919,0.05428,-0.0732
18.7,1.9504,0.06093,0.05608,-0.0756
18.8,1.9499,0.06274,0.05797,-0.0782
18.9,1.9491,0.06463,0.05994,-0.0808
19,1.9474,0.06677,0.06215,-0.0838
19.1,1.9457,0.06894,0.06441,-0.0867
19.2,1.943,0.07138,0.06694,-0.0901
19.3,1.9397,0.07403,0.06968,-0.0936
19.4,1.9356,0.07692,0.07267,-0.0974
19.5,1.9306,0.08007,0.07593,-0.1014
19.6,1.924,0.0837,0.07967,-0.1059
19.7,1.9163,0.0877,0.08379,-0.1108
19.8,1.907,0.09215,0.08838,-0.1159
19.9,1.8961,0.09709,0.09346,-0.1215
20,1.8839,0.10233,0.09884,-0.1274
20.1,1.8726,0.10717,0.10381,-0.1328
20.2,1.8611,0.11193,0.10869,-0.1383
20.3,1.8503,0.11648,0.11335,-0.1435
20.4,1.8396,0.12095,0.11793,-0.1488
20.5,1.8299,0.12516,0.12223,-0.1538
20.6,1.8223,0.12883,0.12599,-0.1582
20.7,1.8134,0.13302,0.13027,-0.1631
20.8,1.8081,0.13624,0.13356,-0.167
20.9,1.8008,0.14029,0.13769,-0.1716
21,1.7969,0.1433,0.14077,-0.1751
21.1,1.7905,0.14732,0.14486,-0.1794
21.2,1.7875,0.15027,0.14787,-0.1826
21.3,1.7834,0.15369,0.15134,-0.1862
21.4,1.7796,0.15707,0.15478,-0.1897
21.5,1.7778,0.15976,0.15752,-0.1925
21.6,1.775,0.16291,0.16072,-0.1957
21.7,1.7714,0.16644,0.16431,-0.1991
21.8,1.7703,0.16907,0.16697,-0.2018
21.9,1.7689,0.1718,0.16974,-0.2045
22,1.7654,0.17553,0.17353,-0.2081
22.1,1.7641,0.17832,0.17636,-0.2108
22.2,1.7636,0.18087,0.17894,-0.2133
22.3,1.7628,0.18353,0.18163,-0.2159
22.4,1.7599,0.18725,0.18541,-0.2194
22.5,1.7592,0.18997,0.18817,-0.222
22.6,1.7591,0.19247,0.19069,-0.2244
22.7,1.7589,0.195,0.19325,-0.2269
22.8,1.7576,0.1982,0.19648,-0.2299
22.9,1.7565,0.20134,0.19966,-0.2328
23,1.7566,0.20384,0.20219,-0.2352
23.1,1.7573,0.20611,0.20449,-0.2374
23.2,1.7576,0.20859,0.20699,-0.2398
23.3,1.7581,0.211,0.20942,-0.2422
23.4,1.7569,0.21441,0.21287,-0.2453
23.5,1.7574,0.2169,0.21537,-0.2477
23.6,1.7585,0.21903,0.21752,-0.2498
23.7,1.76,0.22092,0.21942,-0.2517
23.8,1.7615,0.22276,0.22129,-0.2536
23.9,1.763,0.22465,0.2232,-0.2555
24,1.7645,0.22653,0.2251,-0.2574
24.1,1.7659,0.22849,0.22708,-0.2594
24.2,1.7667,0.23094,0.22956,-0.2617
24.3,1.767,0.23366,0.23231,-0.2642
24.4,1.7686,0.23556,0.23422,-0.2662
24.5,1.7703,0.23737,0.23605,-0.2681
24.6,1.7721,0.23914,0.23783,-0.2699
24.7,1.7739,0.24088,0.23958,-0.2718
24.8,1.7756,0.24263,0.24135,-0.2736
24.9,1.7775,0.24435,0.24308,-0.2755
25,1.7792,0.24609,0.24484,-0.2773
25.1,1.781,0.24789,0.24665,-0.2792
25.2,1.7827,0.24966,0.24844,-0.2811
25.3,1.7844,0.25152,0.25031,-0.2831
25.4,1.7857,0.25377,0.25258,-0.2853
25.5,1.7871,0.25586,0.25469,-0.2874
25.6,1.7888,0.25767,0.25651,-0.2893
25.7,1.7907,0.2594,0.25825,-0.2912
25.8,1.7926,0.26107,0.25993,-0.2931
25.9,1.7945,0.26267,0.26154,-0.2949
26,1.7965,0.26427,0.26315,-0.2967
26.1,1.7985,0.2658,0.26469,-0.2984
26.2,1.8005,0.26732,0.26621,-0.3002
26.3,1.8025,0.2688,0.26769,-0.302
26.4,1.8045,0.27024,0.26915,-0.3037
26.5,1.8065,0.27165,0.27056,-0.3054
26.6,1.8086,0.27302,0.27194,-0.3071
26.7,1.8108,0.27425,0.27317,-0.3088
26.8,1.8129,0.27548,0.27441,-0.3104
26.9,1.8151,0.27656,0.27549,-0.3119
27,1.8174,0.27767,0.2766,-0.3135
27.1,1.8197,0.27855,0.27748,-0.315
27.2,1.822,0.27944,0.27836,-0.3164
27.3,1.8241,0.28055,0.27946,-0.318
27.4,1.8258,0.2824,0.28134,-0.32
27.5,1.8273,0.28448,0.28344,-0.3221
27.6,1.8288,0.28649,0.28548,-0.3242
27.7,1.8303,0.28865,0.28767,-0.3264
27.8,1.8318,0.29075,0.28979,-0.3286
27.9,1.8326,0.29389,0.29297,-0.3315
28,1.834,0.29613,0.29523,-0.3338
28.1,1.8356,0.29822,0.29734,-0.336
28.2,1.8371,0.30048,0.29962,-0.3383
28.3,1.8387,0.30246,0.30162,-0.3404
28.4,1.8403,0.30455,0.30374,-0.3426
28.5,1.8419,0.30669,0.30589,-0.3449
28.6,1.8433,0.30897,0.30819,-0.3472
28.7,1.8448,0.31148,0.31073,-0.3497
28.8,1.8457,0.3153,0.31458,-0.353
28.9,1.8472,0.31808,0.31739,-0.3556
29,1.8487,0.32074,0.32007,-0.3582
29.1,1.8502,0.32345,0.3228,-0.3608
29.2,1.8517,0.32644,0.32581,-0.3636
29.3,1.853,0.33111,0.33051,-0.3673
29.4,1.8547,0.33385,0.33326,-0.3699
29.5,1.8565,0.3363,0.33572,-0.3724
29.6,1.8584,0.33849,0.33791,-0.3747
29.7,1.8602,0.34054,0.33997,-0.3769
29.8,1.862,0.3424,0.34184,-0.379
29.9,1.8638,0.34414,0.34359,-0.381

