airfoilName st12.dat
Re 	530000
M 	0
N 	4.500000e+00
VACC 	0 VACCflag 1
XTR 	1.00 	1.00 XTRflag 0
alpha,cl,cd,cdp,cm
-9,-0.5521,0.02428,0.02052,-0.0815
-8.9,-0.5392,0.02294,0.019,-0.0828
-8.8,-0.5271,0.02197,0.01788,-0.0837
-8.7,-0.5153,0.02115,0.01693,-0.0843
-8.6,-0.5028,0.02043,0.01608,-0.085
-8.5,-0.4908,0.01979,0.01533,-0.0855
-8.4,-0.4782,0.01921,0.01464,-0.0861
-8.3,-0.4659,0.01868,0.01401,-0.0866
-8.2,-0.4545,0.01822,0.01347,-0.0868
-8.1,-0.443,0.0178,0.01296,-0.0871
-8,-0.4312,0.01741,0.01249,-0.0874
-7.9,-0.4191,0.01707,0.01207,-0.0877
-7.8,-0.4067,0.01676,0.01167,-0.088
-7.7,-0.3947,0.01651,0.01135,-0.0882
-7.6,-0.3837,0.01607,0.01087,-0.0884
-7.5,-0.3726,0.01558,0.01031,-0.0885
-7.4,-0.3611,0.01521,0.00989,-0.0887
-7.3,-0.3495,0.0149,0.00953,-0.0888
-7.2,-0.3379,0.01464,0.00923,-0.0889
-7.1,-0.3266,0.01439,0.00895,-0.089
-7,-0.3153,0.01417,0.0087,-0.089
-6.9,-0.3041,0.01397,0.00845,-0.089
-6.8,-0.2927,0.01377,0.00822,-0.0891
-6.7,-0.2812,0.01358,0.00799,-0.0891
-6.6,-0.2701,0.01339,0.00776,-0.089
-6.5,-0.2588,0.01321,0.00755,-0.089
-6.4,-0.2474,0.01303,0.00732,-0.089
-6.3,-0.2361,0.01285,0.0071,-0.089
-6.2,-0.225,0.01269,0.00689,-0.0889
-6.1,-0.2136,0.01252,0.00668,-0.0889
-6,-0.2023,0.01235,0.00648,-0.0889
-5.9,-0.1912,0.0122,0.00628,-0.0888
-5.8,-0.1799,0.01205,0.00609,-0.0888
-5.7,-0.1685,0.01192,0.00591,-0.0888
-5.6,-0.157,0.01179,0.00575,-0.0888
-5.5,-0.1459,0.01163,0.00556,-0.0887
-5.4,-0.1346,0.01145,0.00536,-0.0887
-5.3,-0.1232,0.01131,0.0052,-0.0886
-5.2,-0.1117,0.01119,0.00505,-0.0886
-5.1,-0.1003,0.01108,0.00492,-0.0886
-5,-0.0892,0.01098,0.00479,-0.0885
-4.9,-0.0778,0.01088,0.00466,-0.0885
-4.8,-0.0662,0.01077,0.00453,-0.0885
-4.7,-0.0547,0.01068,0.00441,-0.0885
-4.6,-0.0435,0.01059,0.00428,-0.0884
-4.4,-0.0206,0.01044,0.00411,-0.0884
-4.3,-0.0091,0.01034,0.004,-0.0884
-4.2,0.0024,0.01026,0.0039,-0.0884
-4.1,0.0137,0.01019,0.00379,-0.0883
-4,0.0253,0.01011,0.00369,-0.0883
-3.9,0.0368,0.01004,0.00359,-0.0883
-3.8,0.0483,0.00999,0.0035,-0.0883
-3.7,0.0599,0.0099,0.0034,-0.0883
-3.6,0.0715,0.00982,0.00331,-0.0883
-3.5,0.0827,0.00977,0.00323,-0.0882
-3.4,0.0944,0.00971,0.00316,-0.0883
-3.3,0.106,0.00965,0.00309,-0.0883
-3.2,0.1175,0.00964,0.00304,-0.0883
-3.1,0.1285,0.00959,0.00296,-0.0881
-3,0.14,0.00953,0.00288,-0.0881
-2.9,0.1512,0.00951,0.00282,-0.088
-2.8,0.1625,0.00949,0.00275,-0.088
-2.7,0.1741,0.00945,0.00269,-0.088
-2.6,0.1856,0.00942,0.00264,-0.088
-2.5,0.1972,0.00937,0.00259,-0.088
-2.4,0.2084,0.00936,0.00254,-0.0879
-2.3,0.2199,0.00934,0.00249,-0.0879
-2.2,0.2312,0.00934,0.00244,-0.0879
-2.1,0.2428,0.00932,0.00239,-0.0879
-2,0.2543,0.00929,0.00235,-0.0879
-1.9,0.2655,0.0093,0.00232,-0.0879
-1.8,0.2771,0.00928,0.00229,-0.0879
-1.7,0.2886,0.00927,0.00225,-0.0879
-1.6,0.3,0.00927,0.00222,-0.0879
-1.5,0.3114,0.00927,0.00219,-0.0879
-1.4,0.3226,0.00931,0.00217,-0.0878
-1.3,0.3341,0.00931,0.00214,-0.0878
-1.2,0.3453,0.00933,0.00214,-0.0878
-1.1,0.3567,0.00934,0.00212,-0.0878
-1,0.3682,0.00935,0.0021,-0.0878
-0.9,0.3794,0.00938,0.00209,-0.0878
-0.8,0.3909,0.00939,0.00208,-0.0878
-0.7,0.4018,0.00946,0.00209,-0.0878
-0.6,0.4132,0.00948,0.00209,-0.0878
-0.5,0.4247,0.0095,0.00208,-0.0878
-0.4,0.4361,0.00951,0.00208,-0.0878
-0.3,0.4476,0.00953,0.00208,-0.0879
-0.2,0.459,0.00954,0.00209,-0.0879
0,0.4815,0.00963,0.00211,-0.0879
0.1,0.4929,0.00966,0.00212,-0.0879
0.2,0.5043,0.00968,0.00213,-0.088
0.3,0.5157,0.0097,0.00215,-0.088
0.4,0.5271,0.00973,0.00215,-0.088
0.5,0.5384,0.00977,0.00217,-0.088
0.6,0.5498,0.00979,0.00218,-0.0881
0.7,0.5611,0.00983,0.0022,-0.0881
0.8,0.5721,0.00991,0.00224,-0.0881
0.9,0.5834,0.00993,0.00225,-0.0881
1,0.5947,0.00998,0.00227,-0.0881
1.1,0.606,0.01001,0.0023,-0.0882
1.2,0.6172,0.01005,0.00232,-0.0882
1.3,0.6284,0.01006,0.00236,-0.0883
1.4,0.6396,0.01007,0.00238,-0.0883
1.5,0.6508,0.01005,0.00243,-0.0884
1.8,0.6747,0.00874,0.00251,-0.0865
1.9,0.6857,0.00886,0.00255,-0.0865
2,0.6967,0.00897,0.0026,-0.0865
2.1,0.7077,0.0091,0.00265,-0.0864
2.2,0.7187,0.00922,0.0027,-0.0864
2.3,0.7296,0.00935,0.00276,-0.0864
2.4,0.7406,0.00948,0.00281,-0.0864
2.5,0.7512,0.00966,0.00291,-0.0863
2.6,0.7623,0.00975,0.00295,-0.0863
2.7,0.7734,0.00985,0.00301,-0.0863
2.8,0.7845,0.00995,0.00307,-0.0863
2.9,0.7957,0.01003,0.00312,-0.0863
3,0.8068,0.01012,0.00317,-0.0863
3.1,0.8179,0.01022,0.00323,-0.0863
3.2,0.8291,0.0103,0.00329,-0.0863
3.3,0.8403,0.01038,0.00335,-0.0863
3.4,0.8511,0.0105,0.00342,-0.0863
3.5,0.8622,0.01059,0.00349,-0.0863
3.6,0.8734,0.01066,0.00354,-0.0863
3.7,0.8846,0.01073,0.0036,-0.0863
3.8,0.8957,0.01082,0.00366,-0.0863
3.9,0.9067,0.01091,0.00373,-0.0863
4,0.9178,0.011,0.0038,-0.0863
4.1,0.9289,0.01107,0.00385,-0.0863
4.2,0.94,0.01114,0.00392,-0.0863
4.3,0.9511,0.01123,0.00398,-0.0863
4.4,0.9618,0.01136,0.00406,-0.0863
4.5,0.9729,0.01143,0.00414,-0.0863
4.6,0.984,0.0115,0.0042,-0.0863
4.7,0.995,0.01158,0.00427,-0.0863
4.8,1.006,0.01167,0.00434,-0.0862
4.9,1.0169,0.01176,0.00441,-0.0862
5,1.0277,0.01186,0.00449,-0.0862
5.1,1.0387,0.01194,0.00457,-0.0862
5.2,1.0497,0.01202,0.00464,-0.0862
5.3,1.0605,0.01212,0.00471,-0.0861
5.4,1.0714,0.01221,0.00479,-0.0861
5.5,1.0822,0.01231,0.00489,-0.0861
5.6,1.0929,0.01241,0.00498,-0.0861
5.7,1.1039,0.01249,0.00506,-0.086
5.8,1.1147,0.01257,0.00514,-0.086
5.9,1.1256,0.01266,0.00522,-0.086
6,1.1363,0.01276,0.0053,-0.0859
6.1,1.147,0.01286,0.00539,-0.0859
6.2,1.1577,0.01297,0.00548,-0.0859
6.3,1.1683,0.01308,0.00558,-0.0858
6.4,1.179,0.01317,0.00567,-0.0858
6.5,1.1897,0.01326,0.00577,-0.0857
6.6,1.2004,0.01336,0.00587,-0.0857
6.7,1.211,0.01346,0.00596,-0.0856
6.8,1.2215,0.01358,0.00606,-0.0856
6.9,1.2319,0.0137,0.00617,-0.0855
7,1.2425,0.01379,0.00628,-0.0854
7.1,1.2531,0.01389,0.00638,-0.0854
7.2,1.2637,0.01399,0.00648,-0.0853
7.3,1.274,0.01411,0.00658,-0.0852
7.4,1.2844,0.01422,0.00669,-0.0852
7.5,1.2947,0.01435,0.00681,-0.0851
7.6,1.305,0.01448,0.00694,-0.085
7.7,1.3154,0.01458,0.00705,-0.0849
7.8,1.3259,0.01468,0.00716,-0.0848
7.9,1.3362,0.01479,0.00727,-0.0848
8,1.3465,0.0149,0.00739,-0.0847
8.1,1.3567,0.01502,0.00751,-0.0846
8.2,1.3668,0.01515,0.00763,-0.0845
8.3,1.3769,0.01529,0.00776,-0.0843
8.4,1.3868,0.01543,0.0079,-0.0842
8.5,1.397,0.01554,0.00803,-0.0841
8.6,1.4072,0.01566,0.00816,-0.084
8.7,1.4172,0.01578,0.00829,-0.0839
8.8,1.4272,0.01591,0.00842,-0.0837
8.9,1.4371,0.01605,0.00856,-0.0836
9,1.4469,0.0162,0.0087,-0.0835
9.1,1.4565,0.01635,0.00885,-0.0833
9.2,1.4663,0.0165,0.00901,-0.0831
9.3,1.4762,0.01662,0.00914,-0.083
9.4,1.4861,0.01674,0.00928,-0.0829
9.5,1.4957,0.01689,0.00942,-0.0827
9.6,1.5054,0.01703,0.00958,-0.0825
9.7,1.5149,0.01718,0.00974,-0.0823
9.8,1.5243,0.01735,0.0099,-0.0821
9.9,1.5336,0.01752,0.01007,-0.0819
10,1.5429,0.01768,0.01025,-0.0817
10.1,1.5525,0.01781,0.0104,-0.0815
10.2,1.5619,0.01795,0.01056,-0.0813
10.3,1.5713,0.0181,0.01072,-0.0811
10.4,1.5805,0.01825,0.01089,-0.0809
10.5,1.5897,0.01842,0.01106,-0.0807
10.6,1.5984,0.01861,0.01124,-0.0804
10.7,1.6072,0.0188,0.01143,-0.0801
10.8,1.6159,0.019,0.01164,-0.0798
10.9,1.6249,0.01916,0.01183,-0.0796
11,1.6338,0.01931,0.01201,-0.0793
11.1,1.6427,0.01947,0.01219,-0.079
11.2,1.6514,0.01964,0.01238,-0.0787
11.3,1.66,0.01982,0.01257,-0.0784
11.4,1.6682,0.02003,0.01277,-0.0781
11.5,1.6763,0.02023,0.01298,-0.0777
11.6,1.6843,0.02045,0.0132,-0.0773
11.7,1.692,0.02068,0.01344,-0.0769
11.8,1.7004,0.02084,0.01364,-0.0766
11.9,1.7085,0.02102,0.01383,-0.0762
12,1.7164,0.02121,0.01404,-0.0758
12.1,1.724,0.02141,0.01426,-0.0754
12.2,1.7315,0.02162,0.0145,-0.0749
12.3,1.7387,0.02183,0.01473,-0.0744
12.4,1.7457,0.02206,0.01497,-0.0739
12.5,1.7525,0.0223,0.01522,-0.0733
12.6,1.7589,0.02255,0.01548,-0.0727
12.7,1.7655,0.02278,0.01573,-0.0721
12.8,1.7722,0.02299,0.01597,-0.0716
12.9,1.7784,0.02321,0.01622,-0.0709
13,1.7838,0.02344,0.01647,-0.0701
13.1,1.7888,0.02368,0.01673,-0.0692
13.2,1.7936,0.02394,0.01701,-0.0684
13.3,1.7983,0.02421,0.0173,-0.0675
13.4,1.8029,0.02449,0.01761,-0.0666
13.5,1.8073,0.02479,0.01792,-0.0658
13.6,1.8115,0.02511,0.01826,-0.0649
13.7,1.8155,0.02544,0.01861,-0.0641
13.8,1.8204,0.02572,0.01893,-0.0634
13.9,1.8251,0.02602,0.01926,-0.0627
14,1.8296,0.02633,0.01961,-0.0619
14.1,1.834,0.02666,0.01996,-0.0612
14.2,1.8382,0.027,0.02033,-0.0605
14.3,1.8422,0.02736,0.02072,-0.0598
14.4,1.846,0.02773,0.02112,-0.0591
14.5,1.8495,0.02813,0.02154,-0.0584
14.6,1.8529,0.02855,0.02198,-0.0578
14.7,1.856,0.02899,0.02244,-0.0571
14.8,1.8594,0.02942,0.02292,-0.0565
14.9,1.8634,0.02981,0.02335,-0.0559
15,1.8671,0.03021,0.0238,-0.0554
15.1,1.8707,0.03064,0.02426,-0.0549
15.2,1.8741,0.03108,0.02475,-0.0544
15.3,1.8774,0.03154,0.02524,-0.0539
15.5,1.883,0.03258,0.02633,-0.0531
15.6,1.8856,0.03312,0.02691,-0.0527
15.7,1.8881,0.03369,0.02751,-0.0524
15.8,1.8904,0.03429,0.02814,-0.0521
15.9,1.8924,0.03493,0.0288,-0.0519
16,1.8946,0.03554,0.02947,-0.0517
16.1,1.8973,0.03614,0.03011,-0.0516
16.2,1.8999,0.03675,0.03077,-0.0515
16.3,1.9023,0.0374,0.03145,-0.0514
16.4,1.9046,0.03807,0.03217,-0.0515
16.5,1.9069,0.03878,0.03291,-0.0516
16.6,1.9089,0.03951,0.03368,-0.0518
16.7,1.9107,0.04029,0.0345,-0.052
16.9,1.9134,0.04202,0.03631,-0.0528
17,1.9157,0.04281,0.03715,-0.0533
17.1,1.9179,0.04364,0.03802,-0.0538
17.2,1.92,0.04449,0.03891,-0.0544
17.3,1.9218,0.04539,0.03986,-0.0552
17.4,1.9234,0.04634,0.04085,-0.056
17.5,1.9249,0.04734,0.0419,-0.0569
17.6,1.9259,0.04843,0.04303,-0.058
17.7,1.9267,0.04959,0.04425,-0.0593
17.8,1.9285,0.05065,0.04537,-0.0605
17.9,1.93,0.05176,0.04654,-0.0618
18,1.9315,0.05293,0.04775,-0.0633
18.1,1.9327,0.05417,0.04905,-0.0649
18.2,1.9335,0.05551,0.05044,-0.0666
18.3,1.9338,0.05696,0.05195,-0.0686
18.4,1.9335,0.05858,0.05361,-0.0708
18.5,1.9336,0.06019,0.05531,-0.073
18.6,1.9336,0.06183,0.05703,-0.0753
18.7,1.9332,0.0636,0.05887,-0.0778
18.8,1.9324,0.06548,0.06082,-0.0805
18.9,1.9312,0.0675,0.06291,-0.0833
19,1.9286,0.06986,0.06534,-0.0865
19.1,1.9255,0.07238,0.06794,-0.09
19.2,1.9218,0.07513,0.07082,-0.0937
19.3,1.9177,0.078,0.07379,-0.0975
19.4,1.9127,0.08119,0.07708,-0.1016
19.5,1.9071,0.08457,0.08056,-0.1059
19.6,1.9,0.08842,0.08453,-0.1106
19.7,1.8922,0.09247,0.08871,-0.1154
19.8,1.8832,0.09688,0.09326,-0.1205
19.9,1.874,0.10126,0.09776,-0.1255
20,1.8641,0.10576,0.10238,-0.1307
20.1,1.8552,0.10987,0.1066,-0.1355
20.2,1.8465,0.11386,0.11069,-0.1402
20.3,1.8381,0.11775,0.11467,-0.1448
20.4,1.8296,0.12167,0.11869,-0.1495
20.5,1.8223,0.12527,0.12237,-0.1538
20.6,1.8155,0.12881,0.12598,-0.1581
20.7,1.8089,0.13237,0.12963,-0.1623
20.8,1.8036,0.13564,0.13295,-0.1662
20.9,1.7983,0.13904,0.13643,-0.1702
21,1.7937,0.14229,0.13974,-0.1739
21.1,1.79,0.14536,0.14286,-0.1774
21.2,1.7849,0.14904,0.1466,-0.1813
21.3,1.7818,0.15202,0.14963,-0.1845
21.4,1.7774,0.15562,0.15328,-0.1883
21.5,1.7741,0.1589,0.15661,-0.1917
21.6,1.7714,0.16198,0.15976,-0.1949
21.7,1.7677,0.16556,0.16339,-0.1984
21.8,1.7658,0.16851,0.16638,-0.2013
21.9,1.7643,0.17129,0.16919,-0.2041
22,1.7628,0.17419,0.17213,-0.207
22.1,1.7602,0.1776,0.17559,-0.2103
22.2,1.7592,0.18032,0.17835,-0.2129
22.3,1.7585,0.18298,0.18103,-0.2156
22.4,1.7574,0.18587,0.18396,-0.2184
22.5,1.7552,0.18931,0.18743,-0.2216
22.6,1.7546,0.19208,0.19023,-0.2242
22.7,1.754,0.19485,0.19303,-0.2269
22.8,1.7532,0.19778,0.19599,-0.2297
22.9,1.7515,0.20127,0.19953,-0.2329
23,1.7516,0.20383,0.20211,-0.2354
23.1,1.7523,0.20611,0.20442,-0.2376
23.2,1.7528,0.20847,0.2068,-0.2399
23.3,1.7536,0.21075,0.20912,-0.2422
23.4,1.7536,0.21349,0.21188,-0.2447
23.5,1.7538,0.21617,0.21459,-0.2472
23.6,1.7547,0.21842,0.21686,-0.2494
23.7,1.7558,0.22056,0.21902,-0.2516
23.8,1.757,0.22263,0.2211,-0.2536
23.9,1.7582,0.22473,0.22322,-0.2557
24,1.7595,0.22678,0.22528,-0.2578
24.1,1.7607,0.22889,0.22741,-0.2599
24.2,1.7614,0.23143,0.22997,-0.2623
24.3,1.7626,0.23366,0.23222,-0.2645
24.4,1.764,0.2357,0.23427,-0.2666
24.5,1.7656,0.23761,0.23619,-0.2686
24.6,1.7673,0.23944,0.23803,-0.2705
24.7,1.7691,0.2412,0.23979,-0.2724
24.8,1.7709,0.2429,0.2415,-0.2743
24.9,1.7729,0.24449,0.24309,-0.276
25,1.7749,0.24598,0.24458,-0.2778
25.1,1.7771,0.24734,0.24594,-0.2794
25.2,1.7794,0.24854,0.24714,-0.281
25.3,1.7817,0.24978,0.24836,-0.2825
25.4,1.7834,0.25165,0.25026,-0.2845
25.5,1.7838,0.25488,0.25354,-0.2873
25.6,1.7853,0.25696,0.25565,-0.2894
25.7,1.7869,0.25893,0.25763,-0.2914
25.8,1.7887,0.26078,0.25951,-0.2934
25.9,1.7905,0.26256,0.2613,-0.2953
26,1.7923,0.26431,0.26308,-0.2972
26.1,1.7942,0.26604,0.26482,-0.2991
26.2,1.7961,0.26779,0.26658,-0.301
26.3,1.7979,0.26954,0.26836,-0.3029
26.4,1.7998,0.27125,0.27008,-0.3048
26.5,1.8016,0.273,0.27185,-0.3068
26.6,1.8035,0.27472,0.27358,-0.3087
26.7,1.8053,0.2765,0.27537,-0.3106
26.8,1.8072,0.27823,0.27711,-0.3126
26.9,1.809,0.28,0.2789,-0.3145
27,1.8107,0.28192,0.28084,-0.3166
27.1,1.8124,0.28389,0.28282,-0.3187
27.2,1.8141,0.28577,0.28472,-0.3207
27.3,1.8159,0.28755,0.28651,-0.3227
27.4,1.8178,0.28925,0.28822,-0.3247
27.5,1.8197,0.29082,0.28981,-0.3265
27.6,1.8216,0.29242,0.29141,-0.3284
27.7,1.8236,0.29385,0.29285,-0.3302
27.8,1.8256,0.29528,0.29428,-0.332
27.9,1.8276,0.29662,0.29563,-0.3337
28,1.8296,0.29794,0.29695,-0.3355
28.1,1.8316,0.29918,0.2982,-0.3372
28.2,1.8337,0.30017,0.29919,-0.3387
28.3,1.8357,0.30137,0.30039,-0.3404
28.4,1.8377,0.3023,0.30132,-0.342
28.5,1.8398,0.30326,0.30228,-0.3435
28.6,1.8418,0.30407,0.30309,-0.345
28.7,1.844,0.30468,0.3037,-0.3464
28.8,1.8461,0.30515,0.30418,-0.3477
28.9,1.8463,0.31035,0.30942,-0.3518

