airfoilName st13.dat
Re 	10000
M 	0
N 	4.500000e+00
VACC 	0 VACCflag 1
XTR 	1.00 	1.00 XTRflag 0
alpha,cl,cd,cdp,cm
-19.8,-1.0838,0.28014,0.26294,0.0946
-19.7,-1.0795,0.2783,0.2611,0.0933
-19.6,-1.0752,0.27649,0.25927,0.0919
-19.5,-1.0709,0.27469,0.25746,0.0906
-19.4,-1.0665,0.2729,0.25567,0.0893
-19.3,-1.0621,0.27113,0.2539,0.088
-19.2,-1.0577,0.26938,0.25214,0.0867
-19.1,-1.0533,0.26765,0.25041,0.0853
-19,-1.0488,0.26594,0.24869,0.084
-18.9,-1.0443,0.26424,0.24698,0.0826
-18.8,-1.0398,0.26256,0.2453,0.0813
-18.7,-1.0353,0.26091,0.24364,0.0799
-18.6,-1.0307,0.25928,0.24201,0.0785
-18.5,-1.026,0.25767,0.2404,0.0771
-18.4,-1.0214,0.25609,0.23882,0.0757
-18.3,-1.0166,0.25454,0.23726,0.0743
-18.2,-1.0119,0.25302,0.23574,0.0728
-18.1,-1.007,0.25154,0.23426,0.0714
-18,-1.0021,0.2501,0.23281,0.0698
-17.9,-0.9971,0.24871,0.23143,0.0683
-17.8,-0.9921,0.24739,0.2301,0.0667
-17.7,-0.9869,0.24613,0.22878,0.065
-17.6,-0.9815,0.24499,0.22764,0.0632
-17.2,-0.9568,0.24304,0.22595,0.0534
-17.1,-0.953,0.24083,0.22373,0.0527
-17,-0.9491,0.23867,0.22156,0.0519
-16.9,-0.9451,0.23657,0.21945,0.0511
-16.8,-0.9412,0.23451,0.21738,0.0503
-16.7,-0.9372,0.23249,0.21536,0.0495
-16.6,-0.9331,0.23051,0.21338,0.0487
-16.5,-0.929,0.22857,0.21143,0.0478
-16.4,-0.9249,0.22665,0.20951,0.047
-16.3,-0.9208,0.22477,0.20763,0.0461
-16.2,-0.9166,0.22292,0.20577,0.0452
-16.1,-0.9124,0.2211,0.20395,0.0443
-16,-0.9082,0.2193,0.20215,0.0434
-15.9,-0.9039,0.21753,0.20038,0.0425
-15.8,-0.8996,0.21579,0.19863,0.0415
-15.7,-0.8953,0.21406,0.19691,0.0406
-15.6,-0.8913,0.21287,0.19572,0.0396
-15.5,-0.8868,0.21124,0.19409,0.0386
-15.4,-0.8823,0.20963,0.19248,0.0376
-15.3,-0.8777,0.20804,0.1909,0.0365
-15.2,-0.8731,0.20647,0.18933,0.0354
-15.1,-0.8685,0.20492,0.18772,0.0343
-15,-0.8638,0.2034,0.1862,0.0332
-14.9,-0.8591,0.2019,0.1847,0.0321
-14.8,-0.8544,0.20043,0.18324,0.031
-14.7,-0.8496,0.19898,0.18179,0.0298
-14.6,-0.8447,0.19756,0.18038,0.0286
-14.5,-0.8398,0.19618,0.179,0.0274
-14.4,-0.8348,0.19483,0.17766,0.0261
-14.3,-0.8298,0.19352,0.17636,0.0248
-14.2,-0.8246,0.19226,0.17512,0.0234
-14.1,-0.8194,0.19105,0.17392,0.0219
-14,-0.814,0.18992,0.1728,0.0203
-13.9,-0.8084,0.18888,0.17178,0.0186
-13.8,-0.8027,0.18797,0.17089,0.0167
-13.7,-0.7966,0.18727,0.17022,0.0145
-13.5,-0.7836,0.18682,0.17005,0.0085
-13.4,-0.7796,0.1848,0.16803,0.0082
-13.3,-0.7756,0.18285,0.16608,0.0078
-13.2,-0.7716,0.18097,0.1642,0.0074
-13.1,-0.7675,0.17914,0.16238,0.0069
-13,-0.7633,0.17737,0.1606,0.0064
-12.9,-0.7591,0.17563,0.15887,0.0058
-12.8,-0.7549,0.17394,0.15718,0.0053
-12.7,-0.7506,0.17228,0.15553,0.0047
-12.6,-0.7463,0.17065,0.15391,0.0041
-12.5,-0.7419,0.16906,0.15233,0.0034
-12.4,-0.7375,0.1675,0.1507,0.0027
-12.3,-0.7331,0.16596,0.14918,0.002
-12.2,-0.7286,0.16445,0.14768,0.0013
-12.1,-0.724,0.16297,0.1462,0.0005
-12,-0.7194,0.16151,0.14475,-0.0003
-11.9,-0.7147,0.16006,0.14332,-0.0011
-11.8,-0.7098,0.15863,0.1419,-0.002
-11.7,-0.7047,0.15721,0.14049,-0.003
-11.6,-0.6996,0.15582,0.13911,-0.004
-11.5,-0.6945,0.15444,0.13774,-0.005
-11.4,-0.6892,0.15309,0.1364,-0.006
-11.3,-0.6839,0.15177,0.13509,-0.0071
-11.2,-0.676,0.15164,0.13499,-0.0104
-11.1,-0.67,0.15052,0.13387,-0.012
-11,-0.6637,0.14946,0.13283,-0.0139
-10.9,-0.657,0.14854,0.13191,-0.0162
-10.7,-0.6428,0.14717,0.13075,-0.0226
-10.6,-0.6386,0.14535,0.12894,-0.0225
-10.5,-0.6343,0.1436,0.12721,-0.0226
-10.4,-0.63,0.14192,0.12553,-0.0227
-10.3,-0.6255,0.14028,0.12391,-0.0228
-10.2,-0.621,0.1387,0.12234,-0.0231
-10.1,-0.6164,0.13715,0.1208,-0.0234
-10,-0.6118,0.13563,0.11929,-0.0237
-9.9,-0.6071,0.13415,0.11782,-0.0241
-9.8,-0.6023,0.13269,0.11637,-0.0245
-9.7,-0.5974,0.13126,0.11488,-0.025
-9.6,-0.5924,0.12985,0.11348,-0.0255
-9.5,-0.5874,0.12846,0.1121,-0.0261
-9.4,-0.5822,0.12709,0.11073,-0.0267
-9.3,-0.577,0.12573,0.10939,-0.0274
-9.2,-0.5716,0.1244,0.10806,-0.0282
-8.5,-0.5271,0.11559,0.09918,-0.0374
-2.7,-0.0381,0.05071,0.03111,-0.0709
-2.6,-0.029,0.04994,0.03035,-0.0708
-2.4,-0.0072,0.04858,0.02881,-0.0714
-2.2,0.0128,0.04729,0.02742,-0.0718
-2.1,0.0249,0.04677,0.0267,-0.0723
-2,0.0341,0.04598,0.026,-0.0722
-1.9,0.0457,0.04542,0.02532,-0.0725
-1.8,0.0556,0.04469,0.02464,-0.0725
-1.7,0.0665,0.04407,0.024,-0.0728
-1.6,0.0777,0.04351,0.0234,-0.073
-1.5,0.0869,0.04275,0.02281,-0.0731
-1.4,0.0977,0.04213,0.02223,-0.0733
-1.2,0.119,0.04081,0.02105,-0.0735
-1.1,0.1295,0.04013,0.02056,-0.0735
-0.6,0.1752,0.03562,0.01781,-0.0714
-0.4,0.1866,0.0356,0.01629,-0.0668
-0.3,0.1995,0.03584,0.01611,-0.0671
2.7,0.5508,0.04152,0.01709,-0.0798

