airfoilName st13.dat
Re 	190000
M 	0
N 	4.500000e+00
VACC 	0 VACCflag 1
XTR 	1.00 	1.00 XTRflag 0
alpha,cl,cd,cdp,cm
-12.8,-0.8155,0.13224,0.12863,0.0281
-12.7,-0.811,0.13089,0.12728,0.0272
-12.6,-0.8064,0.12957,0.12597,0.0262
-12.5,-0.8017,0.12827,0.12467,0.0252
-12.4,-0.7969,0.12699,0.12339,0.0242
-12.3,-0.792,0.12574,0.12214,0.0232
-12.2,-0.787,0.12449,0.1209,0.0222
-12.1,-0.7819,0.12325,0.11967,0.0212
-12,-0.7768,0.12204,0.11845,0.0201
-11.9,-0.7716,0.12082,0.11723,0.0191
-11.8,-0.7663,0.11962,0.11603,0.018
-11.7,-0.761,0.11843,0.11484,0.017
-11.6,-0.7557,0.11725,0.11366,0.0159
-11.5,-0.7502,0.11607,0.11249,0.0149
-11.4,-0.7448,0.11491,0.11133,0.0138
-11.3,-0.7393,0.11374,0.11017,0.0127
-11.2,-0.7337,0.11259,0.10902,0.0116
-11.1,-0.7281,0.11144,0.10788,0.0105
-11,-0.7225,0.11029,0.10673,0.0095
-10.9,-0.7168,0.10916,0.10561,0.0084
-10.8,-0.7111,0.10802,0.10448,0.0073
-10.7,-0.7054,0.1069,0.10335,0.0062
-10.6,-0.6997,0.10577,0.10224,0.0051
-7,-0.3211,0.02759,0.02221,-0.0888
-6.9,-0.3085,0.02709,0.02169,-0.0895
-6.8,-0.2948,0.0266,0.02117,-0.0904
-6.7,-0.2816,0.0261,0.02064,-0.0912
-6.6,-0.2683,0.02556,0.02004,-0.0921
-6.5,-0.2538,0.02496,0.01936,-0.0931
-6.4,-0.2401,0.02433,0.01862,-0.094
-6.3,-0.2272,0.02367,0.01786,-0.0947
-6.2,-0.2151,0.02298,0.01704,-0.0953
-6.1,-0.2025,0.02224,0.01617,-0.0959
-6,-0.1896,0.02148,0.01525,-0.0965
-5.9,-0.1759,0.0207,0.01428,-0.0973
-5.8,-0.1626,0.01992,0.01331,-0.0979
-5.7,-0.1491,0.01921,0.01237,-0.0985
-5.5,-0.1218,0.01882,0.01197,-0.0998
-5.4,-0.1106,0.01855,0.01166,-0.0999
-5.3,-0.0987,0.01827,0.01134,-0.1001
-5.2,-0.0863,0.01796,0.01097,-0.1004
-5.1,-0.0732,0.01761,0.01055,-0.1008
-5,-0.0601,0.01725,0.0101,-0.1012
-4.9,-0.0469,0.01687,0.00962,-0.1016
-4.8,-0.0335,0.01651,0.00912,-0.1021
-4.7,-0.0212,0.01618,0.00873,-0.1023
-4.6,-0.01,0.01592,0.00848,-0.1023
-4.5,0.002,0.01572,0.00828,-0.1025
-4.4,0.0148,0.01553,0.00807,-0.1028
-4.3,0.0276,0.01533,0.00784,-0.1031
-4.2,0.0406,0.0153,0.00776,-0.1035
-4.1,0.0539,0.01504,0.0074,-0.1038
-4,0.0644,0.01483,0.00714,-0.1036
-3.9,0.0762,0.01459,0.00692,-0.1037
-3.8,0.0885,0.01442,0.00675,-0.1039
-3.7,0.1013,0.01425,0.00656,-0.1042
-3.6,0.1142,0.01409,0.00637,-0.1045
-3.5,0.1258,0.01393,0.00617,-0.1045
-3.4,0.1371,0.01389,0.00608,-0.1044
-3.3,0.149,0.01368,0.00589,-0.1045
-3.2,0.1613,0.01353,0.00574,-0.1047
-3.1,0.1739,0.0134,0.00559,-0.1049
-3,0.1857,0.01327,0.00543,-0.105
-2.9,0.1968,0.01314,0.00527,-0.1048
-2.8,0.2087,0.01303,0.00509,-0.1049
-2.6,0.2331,0.01283,0.00496,-0.1052
-2.5,0.2445,0.01273,0.00484,-0.1051
-2.4,0.2558,0.01262,0.0047,-0.105
-2.3,0.2677,0.01252,0.00458,-0.1051
-2.2,0.2797,0.01241,0.00448,-0.1052
-2,0.3025,0.0123,0.00435,-0.1051
-1.9,0.3142,0.0122,0.00425,-0.1051
-1.8,0.3254,0.01211,0.00415,-0.1049
-1.7,0.3369,0.01204,0.00408,-0.1049
-1.6,0.3484,0.01197,0.00397,-0.1047
-1.5,0.3594,0.01193,0.00395,-0.1046
-1.3,0.382,0.01181,0.0038,-0.1043
-1.2,0.3935,0.01176,0.00372,-0.1043
-1.1,0.405,0.0117,0.00367,-0.1042
-1,0.4163,0.01165,0.00363,-0.1042
-0.9,0.4275,0.01163,0.0036,-0.1041
-0.8,0.4384,0.01159,0.00354,-0.1038
-0.7,0.4497,0.01156,0.00349,-0.1037
-0.6,0.4611,0.01153,0.00343,-0.1037
-0.5,0.4724,0.01149,0.00341,-0.1036
-0.4,0.4835,0.01148,0.00338,-0.1035
-0.3,0.4945,0.01146,0.00334,-0.1033
-0.2,0.5058,0.01144,0.00331,-0.1032
0,0.5279,0.01141,0.00324,-0.1029
0.1,0.5391,0.0114,0.00323,-0.1029
0.2,0.5503,0.01138,0.00321,-0.1028
0.3,0.5613,0.01138,0.00319,-0.1026
0.4,0.5718,0.01141,0.00315,-0.1023
0.5,0.583,0.0114,0.00314,-0.1023
0.6,0.594,0.0114,0.00312,-0.1021
0.7,0.6051,0.01137,0.00312,-0.1021
0.8,0.6161,0.01137,0.00311,-0.102
0.9,0.6272,0.01136,0.0031,-0.1019
1,0.6381,0.01135,0.0031,-0.1018
1.1,0.6485,0.01138,0.0031,-0.1016
1.2,0.6591,0.01124,0.00312,-0.1016
1.4,0.6723,0.00993,0.00298,-0.0991
1.5,0.6832,0.01003,0.00299,-0.0989
1.6,0.694,0.01012,0.00301,-0.0988
1.7,0.7048,0.01022,0.00305,-0.0986
1.8,0.7149,0.01037,0.00308,-0.0984
1.9,0.7256,0.01048,0.00312,-0.0982
2,0.7363,0.0106,0.00315,-0.098
2.1,0.7469,0.01071,0.00319,-0.0979
2.2,0.7575,0.01083,0.00324,-0.0977
2.3,0.768,0.01095,0.0033,-0.0976
2.4,0.7785,0.01108,0.00334,-0.0974
2.5,0.7889,0.01121,0.0034,-0.0972
2.6,0.7986,0.01142,0.00349,-0.0969
2.7,0.8088,0.01156,0.00356,-0.0967
2.8,0.819,0.01172,0.00363,-0.0965
2.9,0.8292,0.01188,0.0037,-0.0963
3,0.8393,0.01205,0.00378,-0.0961
3.1,0.8493,0.01222,0.00387,-0.0959
3.2,0.8593,0.0124,0.00396,-0.0957
3.3,0.8692,0.01259,0.00405,-0.0955
3.4,0.8792,0.01278,0.00415,-0.0953
3.5,0.8882,0.01306,0.00428,-0.095
3.6,0.8982,0.01324,0.00439,-0.0949
3.7,0.9083,0.01342,0.0045,-0.0947
3.8,0.9184,0.0136,0.00461,-0.0946
3.9,0.9285,0.01378,0.00472,-0.0944
4,0.9388,0.01394,0.00484,-0.0943
4.1,0.949,0.0141,0.00495,-0.0941
4.2,0.9591,0.01427,0.00507,-0.094
4.3,0.9695,0.01441,0.00518,-0.0939
4.4,0.9793,0.01463,0.00532,-0.0937
4.5,0.9896,0.01478,0.00545,-0.0936
4.6,1,0.01491,0.00556,-0.0934
4.7,1.0103,0.01506,0.00568,-0.0933
4.8,1.0204,0.01522,0.00583,-0.0932
4.9,1.0307,0.01537,0.00597,-0.093
5,1.0411,0.0155,0.00609,-0.0929
5.1,1.0514,0.01564,0.00622,-0.0928
5.2,1.0616,0.01579,0.00635,-0.0927
5.3,1.0716,0.01597,0.00649,-0.0925
5.4,1.0818,0.0161,0.00662,-0.0924
5.5,1.0921,0.01624,0.00675,-0.0922
5.6,1.1022,0.01639,0.00689,-0.0921
5.7,1.1122,0.01656,0.00703,-0.0919
5.8,1.1222,0.01672,0.00718,-0.0918
5.9,1.1325,0.01684,0.00734,-0.0917
6,1.1428,0.01697,0.00748,-0.0915
6.1,1.1528,0.01712,0.00762,-0.0914
6.2,1.1628,0.01728,0.00777,-0.0912
6.3,1.1724,0.01747,0.00792,-0.091
6.4,1.1826,0.01759,0.00806,-0.0909
6.5,1.1927,0.01773,0.00821,-0.0907
6.6,1.2027,0.01788,0.00837,-0.0906
6.7,1.2125,0.01804,0.00852,-0.0904
6.8,1.2222,0.01822,0.00869,-0.0902
6.9,1.2317,0.01841,0.00887,-0.09
7,1.2419,0.01854,0.00904,-0.0898
7.1,1.2518,0.01868,0.0092,-0.0897
7.2,1.2617,0.01884,0.00937,-0.0895
7.3,1.2714,0.019,0.00954,-0.0893
7.4,1.2807,0.01919,0.00969,-0.0891
7.5,1.29,0.01938,0.00987,-0.0888
7.6,1.2999,0.01952,0.01005,-0.0886
7.7,1.3097,0.01967,0.01023,-0.0885
7.8,1.3193,0.01984,0.01041,-0.0882
7.9,1.3288,0.02001,0.0106,-0.088
8,1.3382,0.02019,0.01081,-0.0878
8.1,1.3473,0.02039,0.011,-0.0875
8.2,1.3562,0.02061,0.0112,-0.0872
8.3,1.3658,0.02077,0.0114,-0.087
8.4,1.3755,0.0209,0.01156,-0.0868
8.5,1.3847,0.02108,0.01176,-0.0866
8.6,1.3938,0.02127,0.01197,-0.0863
8.7,1.4027,0.02147,0.01217,-0.086
8.8,1.4114,0.02169,0.01239,-0.0857
8.9,1.42,0.02191,0.01261,-0.0854
9,1.4294,0.02208,0.01283,-0.0852
9.1,1.4385,0.02227,0.01307,-0.0849
9.2,1.4475,0.02246,0.0133,-0.0846
9.3,1.4563,0.02266,0.01353,-0.0843
9.4,1.4649,0.02287,0.01376,-0.084
9.6,1.4807,0.02335,0.01419,-0.0832
9.7,1.4897,0.02353,0.01443,-0.0829
9.8,1.4984,0.02373,0.01468,-0.0826
9.9,1.5069,0.02394,0.01494,-0.0822
10,1.5152,0.02416,0.01519,-0.0819
10.1,1.5233,0.02439,0.01545,-0.0815
10.2,1.5312,0.02463,0.0157,-0.0811
10.3,1.5387,0.02488,0.01599,-0.0806
10.4,1.546,0.02515,0.01626,-0.0801
10.5,1.5531,0.02543,0.01654,-0.0796
10.6,1.5619,0.02558,0.01677,-0.0793
10.7,1.5696,0.02582,0.01706,-0.0789
10.8,1.5771,0.02606,0.01734,-0.0784
10.9,1.5842,0.02632,0.01763,-0.0779
11,1.591,0.02658,0.01792,-0.0774
11.1,1.5975,0.02686,0.01821,-0.0768
11.2,1.6037,0.02715,0.01852,-0.0761
11.3,1.6093,0.02747,0.01884,-0.0754
11.4,1.6159,0.02774,0.01916,-0.0749
11.5,1.6228,0.028,0.01948,-0.0743
11.6,1.6288,0.02826,0.01981,-0.0736
11.7,1.6344,0.02854,0.02016,-0.0728
11.8,1.6396,0.02883,0.0205,-0.0721
11.9,1.6447,0.02913,0.02084,-0.0713
12,1.649,0.0294,0.02111,-0.0704
12.1,1.6533,0.02974,0.02147,-0.0696
12.2,1.6573,0.0301,0.02185,-0.0687
12.3,1.6608,0.03049,0.02225,-0.0678
12.4,1.6658,0.03083,0.02265,-0.0671
12.5,1.6712,0.03115,0.02305,-0.0665
12.6,1.6762,0.0315,0.02346,-0.0658
12.7,1.6809,0.03186,0.02388,-0.0651
12.8,1.6854,0.03223,0.02431,-0.0644
12.9,1.6896,0.03261,0.02475,-0.0637
13,1.6936,0.03301,0.0252,-0.063
13.1,1.6973,0.03343,0.02566,-0.0623
13.2,1.7007,0.03386,0.02613,-0.0616
13.3,1.7039,0.03432,0.02662,-0.0609
13.4,1.7067,0.0348,0.02713,-0.0602
13.5,1.7091,0.03531,0.02769,-0.0595
13.6,1.7111,0.03586,0.02825,-0.0589
13.7,1.7161,0.03621,0.0287,-0.0584
13.8,1.7198,0.03668,0.02925,-0.0579
13.9,1.7232,0.03718,0.02981,-0.0574
14,1.7264,0.03769,0.03039,-0.0569
14.1,1.7293,0.03822,0.03099,-0.0564
14.2,1.7321,0.03877,0.0316,-0.056
14.3,1.7346,0.03934,0.03222,-0.0556
14.4,1.7368,0.03994,0.03287,-0.0552
14.5,1.7388,0.04055,0.03354,-0.0548
14.6,1.7407,0.0412,0.03422,-0.0545
14.7,1.7422,0.04187,0.03494,-0.0543
14.8,1.7436,0.04258,0.03569,-0.0541
14.9,1.7446,0.04333,0.03647,-0.0539
15,1.7453,0.04413,0.03729,-0.0539
15.1,1.7476,0.04483,0.03806,-0.0538
15.2,1.7503,0.04551,0.03884,-0.0538
15.3,1.7527,0.04622,0.03964,-0.0538
15.4,1.7548,0.04696,0.04047,-0.0539
15.5,1.7583,0.04756,0.04116,-0.0542
15.6,1.76,0.04836,0.04203,-0.0544
15.7,1.7616,0.04919,0.04295,-0.0547
15.8,1.7631,0.05001,0.0438,-0.0553
15.9,1.7642,0.05093,0.04477,-0.0558
16,1.7652,0.05188,0.04577,-0.0564
16.1,1.766,0.05287,0.04681,-0.0572
16.2,1.7666,0.05392,0.0479,-0.058
16.3,1.769,0.05481,0.04887,-0.0589
16.4,1.7709,0.05577,0.04992,-0.0597
16.5,1.7726,0.05676,0.05101,-0.0606
16.6,1.7741,0.0578,0.05214,-0.0616
16.7,1.7755,0.05887,0.0533,-0.0628
16.8,1.7768,0.05998,0.05449,-0.064
16.9,1.778,0.06113,0.05572,-0.0654
17,1.7791,0.06232,0.05699,-0.0668
17.1,1.7801,0.06357,0.05832,-0.0685
17.2,1.781,0.06495,0.05973,-0.0706
17.3,1.7814,0.06636,0.06122,-0.0726
17.4,1.7817,0.06786,0.06277,-0.0748
17.5,1.7816,0.06945,0.06442,-0.0771
17.6,1.7813,0.07111,0.06615,-0.0796
17.7,1.7816,0.07272,0.06784,-0.0819
17.8,1.7822,0.07433,0.06956,-0.0841
17.9,1.7825,0.07604,0.0714,-0.0865
18,1.7824,0.07787,0.07334,-0.0891
18.1,1.7819,0.07982,0.0754,-0.0919
18.2,1.7811,0.0819,0.07759,-0.0949
18.3,1.7798,0.08442,0.08022,-0.0986
18.4,1.778,0.08687,0.08277,-0.102
18.5,1.7757,0.0895,0.0855,-0.1056
18.6,1.773,0.0923,0.08841,-0.1095
18.7,1.7698,0.09527,0.09147,-0.1134
18.8,1.7664,0.09835,0.09463,-0.1174
18.9,1.7626,0.10153,0.0979,-0.1215
19,1.7586,0.10475,0.10121,-0.1256
19.1,1.7548,0.10789,0.10442,-0.1296
19.2,1.7511,0.11091,0.1075,-0.1334
19.3,1.7478,0.11372,0.11035,-0.1369
19.5,1.7382,0.1205,0.1173,-0.1451
19.8,1.7106,0.13567,0.13286,-0.162
20.3,1.6508,0.17139,0.16897,-0.1964
20.4,1.6556,0.17136,0.16895,-0.1971
20.5,1.6611,0.17095,0.16855,-0.1974
20.6,1.6673,0.17021,0.16781,-0.1974
20.7,1.6741,0.1692,0.16679,-0.1972
20.8,1.6818,0.16774,0.16532,-0.1966
21.2,1.6521,0.19564,0.19336,-0.2198
22.7,1.6772,0.23076,0.22862,-0.2531
22.8,1.6803,0.23146,0.22934,-0.2543
22.9,1.6834,0.23209,0.22998,-0.2555
23,1.6867,0.23263,0.23053,-0.2566
23.1,1.6899,0.23318,0.23109,-0.2578

