airfoilName st14.dat
Re 	6.700000e+05
M 	0
N 	4.500000e+00
VACC 	0 VACCflag 1
XTR 	1.00 	1.00 XTRflag 0
alpha,cl,cd,cdp,cm
-8.4,-0.3954,0.01934,0.01549,-0.1099
-8.3,-0.3833,0.01834,0.01436,-0.1107
-8.2,-0.3713,0.01761,0.01353,-0.1113
-8.1,-0.3594,0.01701,0.01284,-0.1118
-8,-0.3481,0.01652,0.01228,-0.1121
-7.9,-0.337,0.01609,0.01178,-0.1123
-7.8,-0.3258,0.01569,0.01132,-0.1124
-7.7,-0.3145,0.01533,0.01088,-0.1126
-7.6,-0.303,0.015,0.01049,-0.1128
-7.5,-0.2915,0.01469,0.01011,-0.1129
-7.4,-0.2803,0.0144,0.00977,-0.113
-7.2,-0.2579,0.01408,0.0094,-0.1131
-7.1,-0.2467,0.0138,0.00906,-0.1131
-7,-0.2353,0.01353,0.00873,-0.1132
-6.9,-0.2239,0.01327,0.00841,-0.1133
-6.8,-0.2127,0.01304,0.00812,-0.1133
-6.7,-0.2013,0.0128,0.00783,-0.1134
-6.6,-0.1901,0.01258,0.00756,-0.1134
-6.5,-0.1787,0.01238,0.0073,-0.1134
-6.4,-0.1675,0.0122,0.00705,-0.1134
-6.3,-0.1561,0.01204,0.00684,-0.1134
-6.2,-0.1447,0.01189,0.00665,-0.1134
-6.1,-0.1334,0.01162,0.00634,-0.1135
-6,-0.1218,0.01136,0.00604,-0.1136
-5.9,-0.1104,0.01117,0.00582,-0.1136
-5.8,-0.0992,0.01101,0.00562,-0.1135
-5.7,-0.0878,0.01088,0.00546,-0.1135
-5.6,-0.0763,0.01073,0.00529,-0.1136
-5.5,-0.0647,0.0106,0.00513,-0.1136
-5.4,-0.0534,0.01048,0.00498,-0.1136
-5.3,-0.042,0.01037,0.00483,-0.1136
-5.2,-0.0306,0.01026,0.00467,-0.1136
-5.1,-0.0192,0.01015,0.00453,-0.1136
-5,-0.0076,0.01004,0.0044,-0.1136
-4.9,0.0039,0.00995,0.00427,-0.1136
-4.8,0.0152,0.00987,0.00415,-0.1135
-4.7,0.0267,0.00973,0.00399,-0.1135
-4.6,0.0383,0.00962,0.00387,-0.1136
-4.5,0.0499,0.00953,0.00377,-0.1136
-4.4,0.0612,0.00945,0.00367,-0.1136
-4.3,0.0727,0.00938,0.00357,-0.1136
-4.2,0.0842,0.00931,0.00348,-0.1136
-4.1,0.0958,0.00923,0.00338,-0.1136
-4,0.1073,0.00917,0.00328,-0.1136
-3.9,0.1188,0.00912,0.0032,-0.1136
-3.8,0.1303,0.00903,0.00309,-0.1136
-3.7,0.1419,0.00895,0.00302,-0.1136
-3.6,0.1533,0.00889,0.00294,-0.1136
-3.5,0.1649,0.00884,0.00287,-0.1136
-3.4,0.1764,0.00879,0.0028,-0.1136
-3.3,0.1879,0.00874,0.00273,-0.1136
-3.2,0.1995,0.00869,0.00269,-0.1137
-3.1,0.2111,0.00863,0.00262,-0.1137
-3,0.222,0.00862,0.00257,-0.1135
-2.9,0.2332,0.0086,0.0025,-0.1134
-2.8,0.2446,0.00857,0.00244,-0.1134
-2.7,0.2561,0.00854,0.00238,-0.1134
-2.6,0.2676,0.0085,0.00232,-0.1134
-2.5,0.2791,0.00846,0.00227,-0.1134
-2.4,0.2903,0.00845,0.00221,-0.1133
-2.3,0.3016,0.00843,0.00217,-0.1133
-2.2,0.3132,0.00841,0.00213,-0.1133
-2.1,0.3246,0.00839,0.00209,-0.1133
-2,0.3362,0.00836,0.00205,-0.1133
-1.9,0.3472,0.00838,0.00201,-0.1132
-1.8,0.3587,0.00836,0.00198,-0.1132
-1.7,0.3701,0.00835,0.00195,-0.1132
-1.6,0.3817,0.00834,0.00192,-0.1132
-1.5,0.3932,0.00833,0.00189,-0.1132
-1.3,0.4155,0.00836,0.00186,-0.1131
-1.2,0.4269,0.00836,0.00183,-0.1131
-1.1,0.4383,0.00837,0.00181,-0.1131
-1,0.4494,0.00841,0.00179,-0.113
-0.9,0.4608,0.00841,0.00178,-0.113
-0.8,0.4721,0.00843,0.00178,-0.113
-0.7,0.4826,0.00854,0.00178,-0.1128
-0.6,0.4938,0.00856,0.00177,-0.1128
-0.5,0.5051,0.00859,0.00177,-0.1128
-0.4,0.5164,0.00861,0.00178,-0.1128
-0.3,0.5276,0.00865,0.00178,-0.1128
-0.2,0.5389,0.00868,0.00178,-0.1127
0,0.5607,0.00883,0.00182,-0.1126
0.1,0.5716,0.00891,0.00184,-0.1125
0.2,0.5828,0.00896,0.00185,-0.1125
0.3,0.594,0.00899,0.00186,-0.1125
0.4,0.6049,0.00907,0.00189,-0.1125
0.5,0.6161,0.00912,0.00191,-0.1124
0.6,0.6272,0.00916,0.00193,-0.1124
0.7,0.6383,0.00922,0.00196,-0.1124
0.8,0.6488,0.00936,0.002,-0.1123
0.9,0.6599,0.00942,0.00203,-0.1122
1,0.6709,0.00949,0.00206,-0.1122
1.1,0.6818,0.00956,0.0021,-0.1122
1.2,0.6928,0.00964,0.00213,-0.1121
1.3,0.7037,0.00972,0.00217,-0.1121
1.4,0.7145,0.00981,0.00221,-0.112
1.5,0.7253,0.00991,0.00226,-0.112
1.6,0.7352,0.01014,0.00234,-0.1118
1.7,0.7458,0.01026,0.0024,-0.1118
1.8,0.7564,0.0104,0.00248,-0.1117
1.9,0.7669,0.01053,0.00254,-0.1116
2,0.7775,0.01066,0.0026,-0.1115
2.1,0.7882,0.01078,0.00266,-0.1115
2.2,0.799,0.01087,0.00272,-0.1114
2.3,0.8099,0.01095,0.00278,-0.1114
2.4,0.8205,0.01107,0.00286,-0.1113
2.5,0.8315,0.01111,0.0029,-0.1113
2.6,0.8426,0.01116,0.00295,-0.1113
2.7,0.8535,0.01122,0.00301,-0.1113
2.8,0.8646,0.01124,0.00308,-0.1113
3,0.8794,0.00988,0.00323,-0.11
3.1,0.8904,0.00996,0.00328,-0.1099
3.2,0.9013,0.01005,0.00334,-0.1099
3.3,0.9122,0.01014,0.00339,-0.1099
3.4,0.9232,0.01022,0.00345,-0.1098
3.5,0.9341,0.01031,0.0035,-0.1098
3.6,0.9451,0.01038,0.00357,-0.1097
3.7,0.9562,0.01045,0.00362,-0.1097
3.8,0.9671,0.01053,0.00368,-0.1097
3.9,0.9781,0.01061,0.00374,-0.1096
4,0.9889,0.0107,0.0038,-0.1096
4.1,0.9998,0.01078,0.00387,-0.1095
4.2,1.0106,0.01087,0.00393,-0.1095
4.3,1.0215,0.01094,0.00399,-0.1094
4.4,1.0324,0.01103,0.00406,-0.1094
4.5,1.0431,0.01113,0.00412,-0.1093
4.6,1.054,0.0112,0.0042,-0.1093
4.7,1.0649,0.01128,0.00426,-0.1092
4.8,1.0757,0.01135,0.00433,-0.1092
4.9,1.0865,0.01144,0.00441,-0.1091
5,1.0973,0.01153,0.00448,-0.109
5.1,1.1078,0.01165,0.00457,-0.109
5.2,1.1186,0.01172,0.00464,-0.1089
5.3,1.1293,0.0118,0.00471,-0.1088
5.4,1.14,0.01189,0.00478,-0.1088
5.5,1.1507,0.01198,0.00486,-0.1087
5.6,1.1612,0.01208,0.00494,-0.1086
5.7,1.1718,0.01219,0.00504,-0.1085
5.8,1.1825,0.01227,0.00511,-0.1085
5.9,1.1931,0.01235,0.00519,-0.1084
6,1.2036,0.01246,0.00529,-0.1083
6.1,1.2141,0.01256,0.00538,-0.1082
6.2,1.2245,0.01267,0.00547,-0.1081
6.3,1.2349,0.01277,0.00557,-0.108
6.4,1.2455,0.01286,0.00566,-0.1079
6.5,1.256,0.01295,0.00575,-0.1078
6.6,1.2665,0.01305,0.00584,-0.1077
6.7,1.2768,0.01315,0.00594,-0.1076
6.8,1.2872,0.01326,0.00604,-0.1075
6.9,1.2974,0.01338,0.00614,-0.1074
7,1.3076,0.0135,0.00626,-0.1072
7.1,1.3179,0.0136,0.00636,-0.1071
7.2,1.3282,0.0137,0.00646,-0.107
7.3,1.3384,0.01381,0.00657,-0.1069
7.4,1.3486,0.01393,0.00668,-0.1068
7.5,1.3587,0.01405,0.00679,-0.1066
7.6,1.3686,0.01419,0.00691,-0.1064
7.7,1.3789,0.01429,0.00703,-0.1063
7.8,1.3889,0.01441,0.00714,-0.1062
7.9,1.3989,0.01452,0.00725,-0.106
8,1.4089,0.01465,0.00739,-0.1059
8.1,1.4188,0.01478,0.00751,-0.1057
8.2,1.4286,0.01492,0.00764,-0.1055
8.3,1.4384,0.01505,0.00778,-0.1053
8.4,1.4484,0.01517,0.0079,-0.1052
8.5,1.4583,0.01528,0.00803,-0.105
8.6,1.4681,0.01541,0.00816,-0.1048
8.7,1.4779,0.01553,0.00829,-0.1046
8.8,1.4873,0.01571,0.00843,-0.1044
8.9,1.4967,0.01586,0.00858,-0.1042
9,1.5063,0.01601,0.00873,-0.104
9.1,1.516,0.01613,0.00888,-0.1038
9.2,1.5256,0.01626,0.00902,-0.1036
9.3,1.5351,0.01639,0.00916,-0.1033
9.4,1.5446,0.01654,0.00931,-0.1031
9.5,1.5539,0.01668,0.00946,-0.1029
9.6,1.5632,0.01684,0.00962,-0.1026
9.7,1.5723,0.01701,0.00979,-0.1023
9.8,1.5812,0.01719,0.00996,-0.1021
9.9,1.5905,0.01734,0.01013,-0.1018
10,1.5997,0.01748,0.01028,-0.1015
10.1,1.6088,0.01764,0.01044,-0.1013
10.2,1.6178,0.0178,0.01061,-0.101
10.3,1.6266,0.01796,0.0108,-0.1007
10.4,1.6354,0.01814,0.01098,-0.1003
10.5,1.644,0.01833,0.01116,-0.1
10.6,1.6524,0.01853,0.01136,-0.0996
10.7,1.6611,0.0187,0.01155,-0.0993
10.8,1.6697,0.01886,0.01173,-0.099
10.9,1.6782,0.01904,0.01191,-0.0986
11,1.6866,0.01921,0.0121,-0.0982
11.1,1.6949,0.0194,0.0123,-0.0978
11.2,1.7026,0.01964,0.01252,-0.0974
11.3,1.7104,0.01986,0.01274,-0.0969
11.4,1.7182,0.02006,0.01297,-0.0965
11.5,1.7263,0.02023,0.01316,-0.096
11.6,1.7341,0.02042,0.01336,-0.0956
11.7,1.7416,0.02062,0.01358,-0.0951
11.8,1.7491,0.02082,0.0138,-0.0946
11.9,1.7563,0.02104,0.01403,-0.094
12,1.7634,0.02126,0.01426,-0.0934
12.1,1.7702,0.02149,0.0145,-0.0928
12.2,1.7767,0.02173,0.01475,-0.0922
12.3,1.783,0.02198,0.01501,-0.0915
12.4,1.7898,0.02218,0.01525,-0.0909
12.5,1.7961,0.02239,0.01549,-0.0902
12.6,1.8016,0.02261,0.01573,-0.0893
12.7,1.8065,0.02286,0.01598,-0.0884
12.8,1.8116,0.02311,0.01625,-0.0875
12.9,1.8165,0.02337,0.01653,-0.0866
13,1.8206,0.02369,0.01685,-0.0856
13.1,1.8251,0.02399,0.01716,-0.0847
13.2,1.8295,0.0243,0.01749,-0.0838
13.3,1.8346,0.02456,0.01779,-0.083
13.4,1.8395,0.02483,0.0181,-0.0822
13.5,1.8442,0.02512,0.01842,-0.0813
13.6,1.8489,0.02541,0.01874,-0.0805
13.7,1.8535,0.02572,0.01908,-0.0797
13.8,1.8578,0.02604,0.01942,-0.0789
13.9,1.8621,0.02637,0.01978,-0.0781
14,1.866,0.02672,0.02016,-0.0773
14.1,1.8697,0.02709,0.02055,-0.0764
14.2,1.8733,0.02748,0.02096,-0.0756
14.3,1.8755,0.02797,0.02145,-0.0747
14.4,1.8794,0.02833,0.02186,-0.0739
14.5,1.8831,0.02871,0.02227,-0.0732
14.6,1.8867,0.02911,0.0227,-0.0725
14.7,1.8901,0.02952,0.02315,-0.0717
14.8,1.8933,0.02995,0.02361,-0.071
14.9,1.8963,0.03039,0.02409,-0.0703
15,1.899,0.03086,0.02459,-0.0696
15.1,1.9016,0.03136,0.02511,-0.0689
15.2,1.9039,0.03188,0.02566,-0.0682
15.3,1.906,0.03243,0.02624,-0.0676
15.4,1.9077,0.03302,0.02685,-0.067
15.5,1.9098,0.03358,0.02748,-0.0664
15.6,1.9122,0.03412,0.02806,-0.0659
15.7,1.9144,0.03469,0.02866,-0.0654
15.8,1.9163,0.03528,0.02929,-0.0649
15.9,1.9182,0.03589,0.02994,-0.0645
16,1.9198,0.03654,0.03063,-0.0641
16.1,1.9211,0.03723,0.03135,-0.0637
16.2,1.9223,0.03795,0.0321,-0.0634
16.3,1.9231,0.03872,0.0329,-0.0632
16.4,1.9235,0.03953,0.03375,-0.063
16.5,1.9246,0.0403,0.03458,-0.0629
16.6,1.9258,0.04107,0.03539,-0.0628
16.7,1.9268,0.04188,0.03624,-0.0628
16.8,1.9276,0.04271,0.03712,-0.0628
16.9,1.9281,0.04359,0.03804,-0.063
17,1.9284,0.04452,0.03901,-0.0632
17.1,1.9285,0.04549,0.04002,-0.0635
17.2,1.9282,0.04653,0.0411,-0.0639
17.3,1.9277,0.04762,0.04226,-0.0644
17.4,1.9279,0.04865,0.04334,-0.065
17.5,1.9281,0.04971,0.04445,-0.0656
17.6,1.9281,0.05082,0.04561,-0.0664
17.7,1.928,0.05197,0.04681,-0.0673
17.8,1.9243,0.05363,0.0485,-0.0688
17.9,1.9232,0.05501,0.04995,-0.07
18,1.9229,0.05632,0.05133,-0.0713
18.1,1.9223,0.0577,0.05277,-0.0728
18.2,1.9219,0.05914,0.05427,-0.0744
18.3,1.9212,0.06067,0.05586,-0.0761
18.4,1.9204,0.06228,0.05755,-0.078
18.5,1.9195,0.06395,0.0593,-0.0801
18.6,1.9181,0.0658,0.06122,-0.0824
18.7,1.9168,0.06772,0.06321,-0.0848
18.8,1.9148,0.06985,0.06542,-0.0875
18.9,1.9123,0.07216,0.06782,-0.0905
19,1.9094,0.07467,0.07042,-0.0937
19.1,1.9056,0.07747,0.07332,-0.0972
19.2,1.9009,0.08061,0.07656,-0.1012
19.3,1.8953,0.08409,0.08015,-0.1054
19.4,1.8884,0.08807,0.08425,-0.1102
19.5,1.8796,0.09274,0.08906,-0.1156
19.6,1.8684,0.0983,0.09478,-0.1218
19.7,1.8547,0.10471,0.10137,-0.1285
19.8,1.8393,0.11146,0.10829,-0.1355
19.9,1.825,0.11761,0.11457,-0.142
20,1.8099,0.12386,0.12097,-0.1487
20.1,1.7967,0.12946,0.12669,-0.1548
20.2,1.7857,0.13435,0.1317,-0.1603
20.3,1.7761,0.1388,0.13623,-0.1655
20.4,1.7659,0.14357,0.14111,-0.1709
20.5,1.7583,0.14766,0.14527,-0.1756
20.6,1.7517,0.1516,0.14929,-0.1801
20.7,1.7461,0.15543,0.15319,-0.1842
20.8,1.741,0.15926,0.15709,-0.1883
20.9,1.738,0.1624,0.16028,-0.1916
21,1.7326,0.16666,0.1646,-0.1958
21.1,1.7304,0.16975,0.16774,-0.1989
21.2,1.7285,0.17275,0.17078,-0.2019
21.3,1.7243,0.17689,0.17498,-0.2058
21.4,1.723,0.17981,0.17794,-0.2086
21.5,1.7218,0.18273,0.18089,-0.2114
21.6,1.7191,0.18641,0.18462,-0.2148
21.7,1.7172,0.18985,0.1881,-0.218
21.8,1.7165,0.19269,0.19097,-0.2207
21.9,1.7158,0.19561,0.19392,-0.2234
22,1.7133,0.19957,0.19793,-0.2269
22.1,1.7124,0.20275,0.20114,-0.2298
22.2,1.7125,0.20536,0.20379,-0.2323
22.3,1.713,0.20783,0.20627,-0.2346
22.4,1.7135,0.2103,0.20877,-0.2369
22.5,1.7125,0.21371,0.21223,-0.2399
22.6,1.7128,0.21644,0.21498,-0.2423
22.7,1.7136,0.21881,0.21737,-0.2446
22.8,1.7148,0.22101,0.21959,-0.2467
22.9,1.716,0.22317,0.22177,-0.2487
23,1.7172,0.2254,0.22402,-0.2509
23.1,1.7183,0.22772,0.22637,-0.2531
23.2,1.7184,0.23078,0.22945,-0.2557
23.3,1.7194,0.23329,0.23199,-0.258
23.4,1.7207,0.23551,0.23422,-0.2602
23.5,1.7223,0.23755,0.23628,-0.2622
23.6,1.7239,0.23963,0.23837,-0.2642
23.7,1.7255,0.24165,0.24041,-0.2662
23.8,1.7272,0.24369,0.24246,-0.2682
23.9,1.7288,0.24574,0.24452,-0.2702
24,1.7304,0.24782,0.24661,-0.2722
24.1,1.7318,0.25019,0.249,-0.2744
24.2,1.7332,0.25257,0.2514,-0.2767
24.3,1.735,0.25453,0.25337,-0.2787
24.4,1.7369,0.25631,0.25516,-0.2805
24.5,1.739,0.25796,0.25681,-0.2823
24.6,1.7412,0.25949,0.25834,-0.284
24.7,1.7434,0.26095,0.25981,-0.2857
24.8,1.7458,0.26219,0.26105,-0.2873
24.9,1.7482,0.26339,0.26224,-0.2888
25,1.7506,0.26457,0.26343,-0.2903
25.1,1.7533,0.26538,0.26423,-0.2916
25.2,1.7548,0.26774,0.26661,-0.2938
25.3,1.7564,0.26996,0.26886,-0.296
25.4,1.758,0.27221,0.27113,-0.2981
25.5,1.7597,0.27433,0.27328,-0.3002
25.6,1.7614,0.27656,0.27553,-0.3024
25.7,1.7627,0.27933,0.27833,-0.3049
25.8,1.7639,0.28244,0.28148,-0.3076
25.9,1.7653,0.28515,0.28421,-0.31
26,1.7671,0.28738,0.28645,-0.3122
26.1,1.7687,0.28996,0.28906,-0.3146
26.2,1.7703,0.29263,0.29175,-0.3171
26.3,1.7719,0.29543,0.29457,-0.3196
26.4,1.7728,0.30009,0.29926,-0.3232
26.5,1.7744,0.30335,0.30254,-0.326
26.6,1.7762,0.30616,0.30537,-0.3285
26.7,1.7782,0.30872,0.30794,-0.3309
26.8,1.7801,0.31145,0.31068,-0.3333
26.9,1.7822,0.31375,0.31298,-0.3355
27,1.7843,0.31559,0.31483,-0.3375
27.1,1.7865,0.31748,0.31673,-0.3395
27.2,1.7886,0.31903,0.31828,-0.3413
27.3,1.7908,0.32083,0.32009,-0.3432
27.4,1.7929,0.3223,0.32156,-0.345
27.5,1.795,0.32383,0.32309,-0.3468
27.6,1.7972,0.32528,0.32455,-0.3486
27.8,1.8015,0.32671,0.32598,-0.3514
27.9,1.8035,0.3279,0.32718,-0.3531
28,1.8055,0.32907,0.32835,-0.3548
28.1,1.8075,0.33024,0.32953,-0.3565
28.2,1.8095,0.33113,0.33042,-0.3581
28.3,1.8114,0.33193,0.33123,-0.3597

