airfoilName st14.dat
Re 	50000
M 	0
N 	4.500000e+00
VACC 	0 VACCflag 1
XTR 	1.00 	1.00 XTRflag 0
alpha,cl,cd,cdp,cm
-30,-1.4657,0.47538,0.46873,0.2793
-29.9,-1.4627,0.47314,0.46648,0.2773
-29.8,-1.4596,0.47087,0.46418,0.2753
-29.7,-1.4565,0.46862,0.46192,0.2732
-29.6,-1.4534,0.46638,0.45968,0.2712
-29.5,-1.4502,0.46418,0.45746,0.2692
-29.4,-1.447,0.46195,0.45522,0.2672
-29.3,-1.4438,0.45973,0.45299,0.2652
-29.2,-1.4406,0.45752,0.45077,0.2632
-29.1,-1.4373,0.45532,0.44856,0.2611
-29,-1.434,0.45311,0.44634,0.2591
-28.9,-1.4307,0.45092,0.44414,0.2571
-28.8,-1.4273,0.44872,0.44193,0.255
-28.7,-1.4239,0.44652,0.43973,0.253
-28.6,-1.4205,0.44432,0.43752,0.251
-28.5,-1.4169,0.44213,0.43532,0.2489
-28.4,-1.4134,0.43993,0.43311,0.2469
-28.3,-1.4098,0.43772,0.43089,0.2448
-28.2,-1.4062,0.43551,0.42867,0.2427
-28.1,-1.4025,0.43329,0.42644,0.2406
-28,-1.3987,0.43104,0.42418,0.2385
-27.8,-1.3909,0.42642,0.41954,0.2343
-27.7,-1.3869,0.42405,0.41717,0.2321
-27.6,-1.3826,0.42158,0.41469,0.2299
-25.8,-1.3159,0.37998,0.37298,0.1959
-25.7,-1.3125,0.37792,0.37091,0.1943
-25.6,-1.3091,0.37586,0.36884,0.1926
-25.5,-1.3057,0.3738,0.36678,0.191
-25.4,-1.3022,0.37175,0.36472,0.1893
-25.3,-1.2988,0.36971,0.36267,0.1877
-25.2,-1.2953,0.36767,0.36059,0.1861
-25.1,-1.2918,0.36562,0.35853,0.1844
-25,-1.2883,0.36358,0.35649,0.1828
-24.9,-1.2848,0.36157,0.35447,0.1812
-24.8,-1.2813,0.35989,0.35278,0.1796
-24.7,-1.2777,0.35786,0.35074,0.178
-24.6,-1.2741,0.35584,0.34872,0.1764
-24.5,-1.2705,0.35381,0.34669,0.1748
-24.4,-1.2669,0.3518,0.34466,0.1732
-24.3,-1.2633,0.34979,0.34264,0.1716
-24.2,-1.2596,0.34777,0.34062,0.17
-24.1,-1.256,0.34577,0.33861,0.1684
-24,-1.2523,0.34377,0.3366,0.1668
-23.9,-1.2486,0.34176,0.33459,0.1652
-23.8,-1.2449,0.33976,0.33259,0.1637
-23.7,-1.2412,0.33777,0.33059,0.1621
-23.6,-1.2375,0.33579,0.3286,0.1606
-23.5,-1.2337,0.3338,0.3266,0.159
-23.4,-1.23,0.33182,0.32461,0.1575
-23.3,-1.2262,0.32984,0.32263,0.1559
-23.2,-1.2224,0.32786,0.32065,0.1544
-23.1,-1.2186,0.32589,0.31867,0.1529
-23,-1.2148,0.32392,0.31669,0.1513
-22.9,-1.211,0.32195,0.31469,0.1498
-22.8,-1.2071,0.31999,0.31271,0.1483
-22.7,-1.2032,0.31803,0.31075,0.1468
-22.6,-1.1994,0.31608,0.30879,0.1452
-22.5,-1.1955,0.31412,0.30683,0.1437
-22.4,-1.1916,0.31217,0.30487,0.1422
-22.3,-1.1876,0.31022,0.30291,0.1407
-22.2,-1.1837,0.30827,0.30096,0.1392
-22.1,-1.1797,0.30632,0.299,0.1377
-22,-1.1758,0.30438,0.29705,0.1363
-21.9,-1.1718,0.30244,0.29511,0.1348
-21.8,-1.1677,0.3005,0.29317,0.1333
-21.7,-1.1637,0.29856,0.29122,0.1318
-21.6,-1.1597,0.29664,0.2893,0.1303
-21.5,-1.1556,0.29472,0.28737,0.1289
-21.4,-1.1515,0.29279,0.28543,0.1274
-21.3,-1.1474,0.29086,0.2835,0.1259
-21.2,-1.1433,0.28894,0.28157,0.1244
-21.1,-1.1392,0.28702,0.27965,0.123
-21,-1.135,0.2851,0.27772,0.1215
-20.9,-1.1308,0.28318,0.2758,0.1201
-20.8,-1.1266,0.28125,0.27386,0.1186
-20.7,-1.1223,0.27932,0.27193,0.1171
-20.6,-1.1181,0.27739,0.27,0.1157
-20.5,-1.1138,0.27546,0.26806,0.1142
-20.4,-1.1094,0.27353,0.26609,0.1127
-20.3,-1.105,0.27158,0.26414,0.1112
-20.2,-1.1006,0.26964,0.26219,0.1098
-20.1,-1.0962,0.26769,0.26024,0.1083
-20,-1.0917,0.26572,0.25826,0.1068
-19.9,-1.0871,0.26373,0.25627,0.1053
-19.8,-1.0823,0.26171,0.25425,0.1037
-19.7,-1.0775,0.25968,0.2522,0.1022
-19.6,-1.0724,0.25759,0.25011,0.1005
-19.4,-1.0565,0.25253,0.24511,0.0951
-19.3,-1.0528,0.25071,0.24329,0.094
-19.1,-1.0459,0.24744,0.24001,0.0917
-19,-1.0421,0.24568,0.23825,0.0906
-18.9,-1.0382,0.24393,0.2365,0.0894
-18.8,-1.0343,0.24219,0.23476,0.0882
-18.7,-1.0304,0.24046,0.23302,0.087
-18.6,-1.0264,0.23874,0.2313,0.0858
-18.5,-1.0225,0.23703,0.22958,0.0846
-18.4,-1.0185,0.23533,0.22788,0.0835
-18.3,-1.0145,0.23363,0.22617,0.0823
-18.2,-1.0104,0.23193,0.22448,0.0811
-18.1,-1.0064,0.23025,0.22279,0.0799
-18,-1.0023,0.22857,0.22111,0.0788
-17.9,-0.9983,0.2269,0.21944,0.0776
-17.8,-0.9942,0.22524,0.21777,0.0765
-17.7,-0.99,0.22358,0.21608,0.0753
-17.6,-0.9859,0.22193,0.21442,0.0741
-17.5,-0.9818,0.22028,0.21277,0.073
-17.4,-0.9776,0.21863,0.21113,0.0718
-17.3,-0.9734,0.217,0.20949,0.0707
-17.2,-0.9692,0.21536,0.20785,0.0695
-17.1,-0.965,0.21373,0.20622,0.0684
-17,-0.9607,0.21211,0.20459,0.0672
-16.9,-0.9565,0.21048,0.20296,0.0661
-16.8,-0.9522,0.20886,0.20134,0.065
-16.7,-0.9479,0.20725,0.19973,0.0638
-16.6,-0.9436,0.20565,0.19813,0.0627
-16.5,-0.9392,0.20404,0.19652,0.0616
-16.4,-0.9349,0.20244,0.19491,0.0604
-16.3,-0.9305,0.20084,0.19331,0.0593
-16.2,-0.9261,0.19924,0.19172,0.0582
-16.1,-0.9217,0.19765,0.19013,0.0571
-16,-0.9173,0.19605,0.18853,0.0559
-15.9,-0.9128,0.19447,0.18695,0.0548
-15.8,-0.9083,0.1929,0.18537,0.0537
-15.7,-0.9038,0.19132,0.1838,0.0526
-15.6,-0.8993,0.18974,0.18222,0.0514
-15.5,-0.8948,0.18817,0.18064,0.0503
-15.4,-0.8902,0.1866,0.17907,0.0492
-15.3,-0.8856,0.18504,0.17751,0.0481
-15.2,-0.881,0.18347,0.17591,0.0469
-15.1,-0.8763,0.18191,0.17435,0.0458
-15,-0.8716,0.18034,0.17279,0.0447
-14.9,-0.8669,0.17878,0.17123,0.0435
-14.8,-0.8621,0.17722,0.16967,0.0424
-14.7,-0.8573,0.17567,0.16811,0.0412
-14.6,-0.8524,0.17411,0.16656,0.0401
-14.5,-0.8475,0.17255,0.165,0.0389
-14.4,-0.8425,0.17099,0.16344,0.0377
-14.3,-0.8375,0.16943,0.16188,0.0365
-14.2,-0.8324,0.16786,0.16031,0.0353
-14.1,-0.8272,0.16629,0.15874,0.034
-14,-0.8218,0.16471,0.15716,0.0327
-13.6,-0.7926,0.15795,0.15049,0.0242
-13.5,-0.7886,0.15647,0.14901,0.0235
-13.4,-0.7845,0.15501,0.14756,0.0227
-13.3,-0.7803,0.15357,0.14612,0.0219
-13.2,-0.7761,0.15216,0.14471,0.0211
-13.1,-0.7718,0.15075,0.14331,0.0202
-13,-0.7674,0.14936,0.14192,0.0194
-12.9,-0.763,0.14798,0.14055,0.0185
-12.8,-0.7586,0.14662,0.13919,0.0177
-12.7,-0.754,0.14527,0.13784,0.0168
-12.5,-0.745,0.14298,0.13557,0.0151
-12.4,-0.7403,0.14166,0.13422,0.0142
-12.3,-0.7356,0.14034,0.13291,0.0133
-12.2,-0.7309,0.13903,0.13161,0.0124
-12.1,-0.7261,0.13773,0.13031,0.0115
-12,-0.7213,0.13643,0.12902,0.0106
-11.9,-0.7164,0.13514,0.12774,0.0097
-11.8,-0.7116,0.13386,0.12647,0.0087
-11.7,-0.7067,0.13259,0.1252,0.0078
-11.6,-0.7018,0.13132,0.12394,0.0069
-11.5,-0.6969,0.13006,0.12269,0.006
-11.4,-0.6919,0.12881,0.12145,0.0051
-11.3,-0.687,0.12756,0.12021,0.0041
-11.2,-0.682,0.12632,0.11898,0.0032
-11.1,-0.677,0.12509,0.11775,0.0023
-11,-0.672,0.12386,0.11654,0.0014
-10.9,-0.667,0.12264,0.11532,0.0004
-10.8,-0.662,0.12142,0.11412,-0.0005
-10.7,-0.657,0.12021,0.11292,-0.0015
-10.6,-0.6519,0.119,0.11173,-0.0024
-10.5,-0.6469,0.11781,0.11054,-0.0034
-10.4,-0.6419,0.11661,0.10936,-0.0043
-10.3,-0.6369,0.11543,0.10819,-0.0053
-10.2,-0.6319,0.11424,0.10702,-0.0063
-10.1,-0.6269,0.11307,0.10586,-0.0073
-10,-0.6218,0.11189,0.10469,-0.0084
-9.6,-0.5891,0.10575,0.09868,-0.0188
-9.5,-0.585,0.10463,0.09757,-0.0192
-9.4,-0.5808,0.10353,0.09645,-0.0197
-9.3,-0.5766,0.10244,0.09538,-0.0201
-9.2,-0.5722,0.10137,0.09432,-0.0206
-9.1,-0.5678,0.10032,0.09328,-0.0212
-9,-0.5634,0.09927,0.09225,-0.0217
-8.9,-0.5589,0.09824,0.09123,-0.0222
-8.8,-0.5544,0.09721,0.09022,-0.0228
-8.7,-0.5499,0.09619,0.08921,-0.0233
-8.6,-0.5453,0.09517,0.08821,-0.0239
-8.5,-0.5407,0.09415,0.0872,-0.0244
-8.4,-0.536,0.09313,0.0862,-0.025
-8.3,-0.5312,0.09211,0.0852,-0.0256
-8.2,-0.5264,0.09109,0.08419,-0.0262
-8.1,-0.5215,0.09006,0.08318,-0.0268
-8,-0.5165,0.08903,0.08216,-0.0274
-7.9,-0.5115,0.08799,0.08113,-0.028
-7.8,-0.5064,0.08694,0.0801,-0.0287
-7.7,-0.5011,0.08588,0.07905,-0.0293
-7.6,-0.4957,0.08481,0.07798,-0.03
-6.3,-0.397,0.06741,0.0605,-0.0455
-6.2,-0.3906,0.06646,0.05954,-0.0459
-6.1,-0.3839,0.06548,0.05856,-0.0463
-5.4,-0.2861,0.05023,0.04254,-0.063
-5.3,-0.2749,0.04968,0.04201,-0.0637
-5.2,-0.2631,0.04912,0.04145,-0.0645
-5.1,-0.2496,0.0485,0.0408,-0.0657
-5,-0.2365,0.04779,0.04007,-0.0668
-4.9,-0.2227,0.04698,0.03917,-0.0681
-4.8,-0.2085,0.04635,0.03848,-0.0695
-4.6,-0.1576,0.03906,0.03011,-0.0786
-4.5,-0.1458,0.03867,0.02978,-0.0791
-4.4,-0.1334,0.03828,0.02942,-0.0798
-4.3,-0.1193,0.03782,0.02895,-0.0808
-4.2,-0.1056,0.03728,0.02838,-0.0817
-4.1,-0.0911,0.03661,0.02764,-0.0828
-4,-0.077,0.03574,0.02663,-0.0839
-3.9,-0.0606,0.03437,0.02498,-0.0854
-3.8,-0.0413,0.03271,0.02284,-0.0875
-3.7,-0.0285,0.03238,0.02254,-0.0881
-3.6,-0.0152,0.032,0.02213,-0.0888
-3.5,-0.0012,0.03152,0.02159,-0.0897
-3.4,0.015,0.03083,0.02074,-0.0909
-3.2,0.0476,0.02892,0.01822,-0.0932
-3.1,0.0609,0.02866,0.01802,-0.0939
-3,0.0726,0.02873,0.01814,-0.0942
-2.9,0.0865,0.02824,0.01754,-0.0949
-2.7,0.1174,0.02705,0.01594,-0.0966
-2.6,0.1311,0.02681,0.01575,-0.0973
-2.5,0.1455,0.02655,0.01544,-0.0981
-2.4,0.1617,0.02628,0.01479,-0.099
-2.3,0.1763,0.02595,0.01453,-0.0998
-2.2,0.1874,0.02573,0.01435,-0.0999
-2.1,0.2004,0.02549,0.01409,-0.1004
-2,0.2147,0.02518,0.01364,-0.101
-1.9,0.2303,0.02486,0.01321,-0.1018
-1.8,0.2443,0.02488,0.0133,-0.1026
-1.7,0.2597,0.02461,0.01289,-0.1034
-1.6,0.2749,0.02436,0.01259,-0.1043
-1.5,0.2857,0.02417,0.01243,-0.1042
-1.4,0.2985,0.02398,0.01221,-0.1046
-1.2,0.3266,0.02374,0.01194,-0.1059
-1.1,0.3431,0.02356,0.01161,-0.1068
-1,0.358,0.02333,0.01147,-0.1076
-0.9,0.3702,0.02317,0.01131,-0.1078
-0.7,0.3951,0.02296,0.01108,-0.1084
-0.6,0.4097,0.02279,0.0109,-0.109
-0.5,0.4245,0.0226,0.01075,-0.1098
-0.4,0.4399,0.02245,0.01058,-0.1106
-0.3,0.4496,0.02237,0.01052,-0.1103
-0.2,0.4621,0.02218,0.01042,-0.1106
0,0.491,0.02179,0.01012,-0.1118
0.2,0.5148,0.02145,0.00996,-0.1122
0.3,0.5268,0.02129,0.00989,-0.1124
0.4,0.5409,0.02106,0.00976,-0.1129
0.5,0.5553,0.02084,0.00968,-0.1136
0.7,0.5772,0.02033,0.00963,-0.1137
0.9,0.596,0.01944,0.00911,-0.1112
1,0.6069,0.01951,0.00909,-0.111
1.1,0.6176,0.01956,0.00907,-0.1107
1.2,0.6313,0.01959,0.00903,-0.1111
1.3,0.6424,0.01959,0.00897,-0.1107
1.4,0.6555,0.01948,0.00878,-0.1104
1.5,0.6646,0.01957,0.00883,-0.11
1.6,0.678,0.01944,0.00862,-0.1096
1.8,0.6995,0.01951,0.00863,-0.1091
1.9,0.7083,0.01949,0.00856,-0.1082
2,0.7183,0.01948,0.00851,-0.1076
2.1,0.7305,0.0195,0.00851,-0.1075
2.2,0.7417,0.01953,0.00852,-0.1073
2.3,0.7522,0.01959,0.00856,-0.107
2.4,0.7622,0.01958,0.00852,-0.1064
2.5,0.7748,0.01958,0.00849,-0.1064
2.6,0.7846,0.01965,0.00856,-0.106
2.7,0.7969,0.01965,0.00855,-0.1059
2.8,0.8068,0.01965,0.00852,-0.1052
2.9,0.8172,0.0197,0.00857,-0.1049
3,0.8297,0.0197,0.00857,-0.1048
3.1,0.8395,0.01977,0.00865,-0.1044
3.2,0.8511,0.01979,0.00867,-0.1042
3.3,0.8629,0.01981,0.00868,-0.104
3.4,0.8738,0.0198,0.00863,-0.1035
3.5,0.8848,0.01984,0.00866,-0.1032
3.6,0.896,0.01989,0.0087,-0.1029
3.7,0.9076,0.01992,0.00872,-0.1027
3.8,0.9196,0.01994,0.00872,-0.1025
3.9,0.9314,0.01995,0.00864,-0.102
4,0.9429,0.02,0.00866,-0.1017
4.1,0.9542,0.02008,0.00873,-0.1014
4.2,0.9653,0.02017,0.00878,-0.1011
4.3,0.9763,0.02028,0.00884,-0.1008
4.4,0.9871,0.0204,0.00891,-0.1005
4.5,0.9976,0.02054,0.00899,-0.1001
4.6,1.0072,0.02073,0.00904,-0.0994
4.7,1.0172,0.02091,0.00916,-0.099
4.8,1.0269,0.0211,0.00929,-0.0986
4.9,1.0365,0.02131,0.00944,-0.0982
5,1.0459,0.02154,0.00959,-0.0977
5.1,1.0552,0.02177,0.00976,-0.0973
5.2,1.0631,0.02208,0.00995,-0.0966
5.3,1.0722,0.02234,0.01015,-0.0962
5.4,1.0811,0.02261,0.01037,-0.0957
5.5,1.09,0.0229,0.01059,-0.0953
5.6,1.0987,0.0232,0.01082,-0.0949
5.7,1.1076,0.02349,0.01107,-0.0945
5.8,1.1163,0.0238,0.01133,-0.0941
5.9,1.1252,0.02411,0.01159,-0.0937
6,1.1326,0.02449,0.01185,-0.0931
6.1,1.1412,0.02483,0.01213,-0.0927
6.2,1.1502,0.02514,0.01242,-0.0924
6.3,1.1588,0.0255,0.01272,-0.092
6.4,1.1678,0.02583,0.01308,-0.0917
6.5,1.1767,0.02617,0.01339,-0.0914
6.6,1.1853,0.02656,0.0137,-0.091
6.7,1.1946,0.02689,0.01405,-0.0907
6.8,1.2017,0.02733,0.01435,-0.0902
6.9,1.2109,0.02767,0.0147,-0.09
7,1.22,0.02803,0.01506,-0.0897
7.1,1.229,0.02842,0.01542,-0.0894
7.2,1.2381,0.02884,0.01577,-0.0892
7.3,1.2473,0.02918,0.01618,-0.0889
7.4,1.2565,0.02956,0.01657,-0.0887
7.5,1.2657,0.02997,0.017,-0.0885
7.6,1.2731,0.03035,0.01735,-0.088
7.7,1.2822,0.03072,0.01777,-0.0878
7.8,1.2913,0.03113,0.01817,-0.0875
7.9,1.3006,0.03157,0.01856,-0.0873
8,1.3095,0.03195,0.01899,-0.0871
8.1,1.3185,0.03233,0.01946,-0.0868
8.2,1.3276,0.03275,0.01991,-0.0866
8.3,1.3367,0.03318,0.02033,-0.0864
8.5,1.352,0.03391,0.02115,-0.0855
8.6,1.3608,0.03432,0.02161,-0.0853
8.7,1.3698,0.03476,0.02208,-0.0851
8.8,1.379,0.03522,0.02249,-0.0849
8.9,1.3872,0.03564,0.02301,-0.0845
9,1.3954,0.03607,0.02357,-0.0842
9.1,1.4039,0.03651,0.02408,-0.0839
9.2,1.4126,0.03696,0.02456,-0.0836
9.4,1.4261,0.03772,0.02538,-0.0827
9.5,1.4339,0.03818,0.02596,-0.0823
9.6,1.442,0.03864,0.02648,-0.082
9.7,1.4503,0.0391,0.02697,-0.0817
9.8,1.4589,0.03956,0.02741,-0.0814
9.9,1.4675,0.04005,0.02789,-0.0812
10,1.4738,0.04059,0.02865,-0.0806
10.1,1.4808,0.04112,0.02932,-0.0802
10.2,1.4882,0.04163,0.02992,-0.0798
10.4,1.5014,0.04229,0.0305,-0.0789
10.5,1.5073,0.04287,0.0312,-0.0783
10.6,1.513,0.04347,0.032,-0.0778
10.7,1.5193,0.04404,0.03269,-0.0773
10.8,1.526,0.04459,0.03332,-0.0768
10.9,1.533,0.0451,0.03388,-0.0764
11,1.5406,0.0456,0.03438,-0.0761
11.1,1.5489,0.04609,0.03483,-0.0759
11.2,1.5547,0.04672,0.03552,-0.0754
11.3,1.5581,0.04748,0.03656,-0.0746
11.5,1.563,0.0484,0.03773,-0.0728
11.6,1.5692,0.04893,0.0383,-0.0724
11.7,1.576,0.04944,0.0388,-0.072
11.8,1.5838,0.04992,0.03925,-0.0717
11.9,1.5869,0.05068,0.04011,-0.071
12,1.5879,0.05157,0.04125,-0.0701
12.1,1.5901,0.05239,0.04224,-0.0693
12.2,1.5931,0.05315,0.04312,-0.0686
12.3,1.5966,0.05385,0.04392,-0.0679
12.4,1.6007,0.0545,0.04463,-0.0673
12.5,1.6054,0.0551,0.04527,-0.0668
12.6,1.6112,0.05565,0.04583,-0.0663
12.7,1.6186,0.05616,0.04631,-0.0661
12.9,1.6032,0.05771,0.0482,-0.0627
13,1.6016,0.0587,0.04935,-0.0618
13.1,1.6007,0.05964,0.05042,-0.061
13.2,1.6007,0.06053,0.05141,-0.0603
13.3,1.6013,0.06136,0.05234,-0.0597
13.4,1.6028,0.06214,0.05322,-0.0591
13.5,1.6053,0.06285,0.05398,-0.0587
13.6,1.609,0.06348,0.05463,-0.0582
13.7,1.6147,0.06401,0.05515,-0.0579
13.8,1.6232,0.06443,0.05552,-0.0577
13.9,1.6191,0.06564,0.05681,-0.0571
14,1.6096,0.06725,0.05866,-0.0566
14.1,1.6013,0.06887,0.06048,-0.0563
14.2,1.5941,0.07051,0.06231,-0.0563
14.3,1.5876,0.07213,0.06409,-0.0564
14.4,1.5818,0.07373,0.06583,-0.0567
14.5,1.5769,0.07531,0.06754,-0.0572
14.6,1.5729,0.07683,0.06917,-0.0577
14.7,1.5699,0.07827,0.07071,-0.0583
14.8,1.5682,0.0796,0.07211,-0.0588
15,1.5784,0.07964,0.07209,-0.0585
15.1,1.5881,0.07968,0.07207,-0.0578
15.2,1.5901,0.08064,0.07299,-0.058
15.3,1.5749,0.08365,0.07624,-0.0606
15.6,1.5235,0.09669,0.08997,-0.0771
15.9,1.4824,0.11622,0.10992,-0.1052
16,1.4852,0.11742,0.11116,-0.1063
16.1,1.4893,0.11802,0.1118,-0.1066
16.2,1.4944,0.11815,0.11196,-0.1061
16.3,1.5004,0.11792,0.11175,-0.1052
16.4,1.5072,0.11738,0.11122,-0.1037
16.5,1.5149,0.11651,0.11037,-0.1016
16.6,1.524,0.11522,0.10907,-0.0987
16.9,1.4813,0.14556,0.13959,-0.1376
17.1,1.4926,0.14403,0.13813,-0.1368
17.2,1.4973,0.14405,0.13817,-0.1365
17.3,1.5021,0.14392,0.13808,-0.136
17.4,1.5071,0.14364,0.13784,-0.1353
18.1,1.5079,0.16728,0.16162,-0.1605
18.2,1.5118,0.16757,0.16195,-0.1606
18.3,1.5157,0.16777,0.16219,-0.1606
18.9,1.5244,0.18579,0.18027,-0.1807
19,1.5277,0.18639,0.18091,-0.1812
19.1,1.5311,0.18691,0.18146,-0.1817
19.2,1.5345,0.18732,0.18191,-0.182
19.3,1.5379,0.18765,0.18228,-0.1822
19.4,1.5413,0.1879,0.18257,-0.1823
20,1.5544,0.20513,0.19983,-0.2015
20.1,1.5575,0.20575,0.20049,-0.2021
20.2,1.5606,0.20629,0.2011,-0.2027
20.3,1.5637,0.20673,0.20158,-0.2032
20.4,1.5667,0.20711,0.202,-0.2035
20.5,1.5698,0.20742,0.20234,-0.2038
20.9,1.5804,0.22262,0.21749,-0.2203
21,1.5833,0.22346,0.21836,-0.2213
21.1,1.5862,0.22423,0.21916,-0.2222
21.2,1.5891,0.2249,0.21986,-0.223
21.3,1.5919,0.22547,0.22047,-0.2237
22.1,1.6164,0.24268,0.23772,-0.2421
22.2,1.6192,0.24355,0.23862,-0.2432
22.3,1.6219,0.24433,0.23943,-0.2442
22.4,1.6246,0.24506,0.24018,-0.2452
22.5,1.6273,0.24571,0.24086,-0.2461
22.6,1.6298,0.2463,0.24148,-0.247
22.7,1.6324,0.24682,0.24203,-0.2478
23,1.6447,0.26018,0.25527,-0.2604
23.1,1.6475,0.26142,0.25654,-0.2618
23.2,1.6503,0.26257,0.25771,-0.2632
23.3,1.6531,0.26364,0.25881,-0.2645
23.4,1.6557,0.26464,0.25983,-0.2658
23.5,1.6584,0.26558,0.2608,-0.2671
23.6,1.6609,0.26645,0.2617,-0.2683
23.7,1.6634,0.26726,0.26253,-0.2694
23.8,1.6659,0.26802,0.26336,-0.2705
23.9,1.6683,0.26875,0.26411,-0.2716
24,1.6706,0.26938,0.26477,-0.2726
24.6,1.6932,0.288,0.28333,-0.289
24.7,1.6959,0.28936,0.28471,-0.2906
24.8,1.6986,0.29067,0.28604,-0.2921
24.9,1.7013,0.29189,0.28729,-0.2936
25,1.7038,0.29309,0.2885,-0.2951
25.1,1.7063,0.2942,0.28964,-0.2965
25.3,1.7102,0.29439,0.28989,-0.2989
25.4,1.7125,0.29525,0.29077,-0.3002
25.5,1.7146,0.29606,0.29161,-0.3015
26,1.735,0.31324,0.30871,-0.3157
26.1,1.7377,0.31488,0.31037,-0.3175
26.2,1.7404,0.31646,0.31196,-0.3192
26.3,1.7431,0.31796,0.31348,-0.3209
26.4,1.7457,0.31942,0.31496,-0.3226
26.5,1.7482,0.32083,0.31639,-0.3243
26.6,1.7507,0.32221,0.31779,-0.3259
26.7,1.7532,0.32351,0.31912,-0.3276
26.8,1.7556,0.32482,0.32044,-0.3292
26.9,1.7579,0.32604,0.32168,-0.3308
27,1.7602,0.32723,0.3229,-0.3324
27.1,1.7624,0.32842,0.32415,-0.334
27.2,1.7646,0.32953,0.32528,-0.3355
27.3,1.7667,0.33064,0.32642,-0.337
27.4,1.7687,0.33167,0.32747,-0.3385
27.5,1.7707,0.33271,0.32853,-0.34
28.1,1.7933,0.35149,0.34725,-0.3559
28.2,1.7959,0.35327,0.34905,-0.3578
28.3,1.7982,0.35432,0.35012,-0.3599
28.4,1.8006,0.35591,0.35173,-0.3617
28.5,1.803,0.35745,0.35329,-0.3635
28.6,1.8053,0.35898,0.35483,-0.3654
28.7,1.8075,0.36046,0.35634,-0.3672
28.8,1.8097,0.36191,0.3578,-0.369
28.9,1.8118,0.36332,0.35923,-0.3707
29,1.8139,0.36471,0.36065,-0.3725
29.1,1.816,0.36607,0.36202,-0.3743
29.2,1.818,0.36739,0.36338,-0.376
29.3,1.82,0.36871,0.36472,-0.3778
29.4,1.8219,0.36999,0.36601,-0.3795
29.5,1.8237,0.37124,0.36729,-0.3812
29.6,1.8255,0.37249,0.36856,-0.3829
29.7,1.8272,0.37366,0.36975,-0.3846

