airfoilName st14.dat
Re 	10000
M 	0
N 	4.500000e+00
VACC 	0 VACCflag 1
XTR 	1.00 	1.00 XTRflag 0
alpha,cl,cd,cdp,cm
-29.4,-1.4175,0.47728,0.46147,0.2517
-29.3,-1.4144,0.47493,0.4591,0.2498
-29.2,-1.4113,0.47257,0.45672,0.2479
-29.1,-1.4082,0.47024,0.45437,0.246
-29,-1.405,0.4679,0.452,0.2441
-28.9,-1.4018,0.46558,0.44966,0.2422
-28.8,-1.3986,0.46327,0.44733,0.2403
-28.7,-1.3954,0.46096,0.445,0.2385
-28.6,-1.3922,0.45867,0.44269,0.2366
-28.5,-1.3889,0.45638,0.44038,0.2347
-28.4,-1.3856,0.45411,0.43809,0.2328
-28.3,-1.3823,0.45184,0.4358,0.231
-28.2,-1.379,0.44959,0.43353,0.2291
-28.1,-1.3754,0.44792,0.43184,0.227
-28,-1.372,0.44569,0.4296,0.2251
-27.9,-1.3685,0.44348,0.42736,0.2233
-27.8,-1.3651,0.4413,0.42516,0.2214
-27.7,-1.3616,0.4391,0.42289,0.2195
-27.6,-1.3581,0.43693,0.4207,0.2176
-27.5,-1.3546,0.43476,0.41851,0.2157
-27.4,-1.351,0.4326,0.41633,0.2139
-27.3,-1.3474,0.43046,0.41417,0.212
-27.2,-1.3438,0.42833,0.41202,0.2101
-27.1,-1.3402,0.42621,0.40989,0.2082
-27,-1.3365,0.42411,0.40777,0.2063
-26.9,-1.3328,0.42202,0.40566,0.2044
-26.8,-1.3291,0.41995,0.40357,0.2025
-26.7,-1.3253,0.41789,0.4015,0.2006
-26.6,-1.3215,0.41586,0.39945,0.1987
-26.5,-1.3177,0.41384,0.39742,0.1968
-26.4,-1.3138,0.41184,0.3954,0.1949
-26.3,-1.3099,0.40988,0.39342,0.193
-26.2,-1.306,0.40793,0.39146,0.1911
-26.1,-1.3019,0.40601,0.38952,0.1891
-26,-1.2979,0.40413,0.38763,0.1871
-25.9,-1.2938,0.40229,0.38577,0.1852
-25.8,-1.2896,0.40054,0.384,0.1832
-23.9,-1.2134,0.3637,0.34701,0.149
-23.8,-1.2097,0.36146,0.34476,0.1476
-23.7,-1.2061,0.35923,0.34251,0.1461
-23.6,-1.2024,0.35702,0.34029,0.1447
-23.5,-1.1987,0.35484,0.33808,0.1432
-23.4,-1.195,0.35264,0.33588,0.1418
-23.2,-1.1879,0.3487,0.33191,0.139
-23.1,-1.1841,0.3466,0.32979,0.1376
-23,-1.1802,0.3445,0.32762,0.1361
-22.9,-1.1764,0.34243,0.32553,0.1346
-22.8,-1.1725,0.34037,0.32345,0.1332
-22.7,-1.1686,0.33832,0.32139,0.1317
-22.6,-1.1647,0.33628,0.31934,0.1302
-22.5,-1.1607,0.33427,0.31731,0.1288
-22.4,-1.1568,0.33225,0.31528,0.1273
-22.3,-1.1528,0.33026,0.31327,0.1259
-22.2,-1.1488,0.32828,0.31128,0.1244
-22.1,-1.1448,0.32631,0.3093,0.1229
-22,-1.1407,0.32435,0.30733,0.1215
-21.9,-1.1366,0.32242,0.30539,0.12
-21.8,-1.1326,0.32049,0.30345,0.1185
-21.7,-1.1284,0.31858,0.30152,0.1171
-21.6,-1.1243,0.31668,0.29961,0.1156
-21.5,-1.1202,0.3148,0.29772,0.1141
-21.4,-1.116,0.31293,0.29585,0.1127
-21.3,-1.1118,0.31108,0.29399,0.1112
-21.2,-1.1075,0.30925,0.29214,0.1097
-21.1,-1.1033,0.30745,0.29033,0.1082
-21,-1.099,0.30565,0.28853,0.1067
-20.9,-1.0946,0.30388,0.28675,0.1052
-20.8,-1.0903,0.30213,0.28499,0.1037
-20.7,-1.0859,0.3004,0.28325,0.1022
-20.5,-1.0769,0.29704,0.2798,0.0991
-20.4,-1.0724,0.2954,0.27816,0.0975
-20.3,-1.0678,0.29381,0.27656,0.0959
-20.2,-1.0632,0.29226,0.275,0.0943
-20.1,-1.0585,0.29077,0.27351,0.0927
-20,-1.0537,0.28937,0.27211,0.091
-19.9,-1.0487,0.28798,0.27072,0.0892
-19.8,-1.0437,0.28676,0.26949,0.0874
-19.4,-1.021,0.28422,0.26718,0.078
-19.3,-1.0173,0.28191,0.26485,0.0771
-19.2,-1.0135,0.27964,0.26257,0.0761
-19.1,-1.0097,0.27741,0.26033,0.0752
-19,-1.0059,0.27523,0.25814,0.0742
-18.9,-1.0021,0.27308,0.25598,0.0732
-18.8,-0.9982,0.27097,0.25386,0.0722
-18.7,-0.9955,0.26884,0.25172,0.0717
-18.6,-0.9914,0.26686,0.24973,0.0706
-18.5,-0.9874,0.26491,0.24777,0.0695
-18.4,-0.9833,0.26297,0.24583,0.0685
-18.3,-0.9793,0.26106,0.2439,0.0674
-18.2,-0.9752,0.25916,0.242,0.0663
-18.1,-0.971,0.2573,0.24013,0.0652
-18,-0.9669,0.25544,0.23827,0.0641
-17.9,-0.9627,0.25361,0.23635,0.063
-17.8,-0.9585,0.25179,0.23453,0.0619
-17.7,-0.9543,0.25,0.23273,0.0607
-17.6,-0.9501,0.24822,0.23095,0.0596
-17.5,-0.9458,0.24646,0.22918,0.0585
-17.4,-0.9416,0.24472,0.22744,0.0574
-17.3,-0.9373,0.243,0.22572,0.0562
-17.2,-0.9329,0.24129,0.22401,0.0551
-17.1,-0.9286,0.23961,0.22232,0.0539
-17,-0.9242,0.23794,0.22065,0.0528
-16.9,-0.9198,0.23629,0.219,0.0516
-16.8,-0.9154,0.23467,0.21737,0.0505
-16.7,-0.9109,0.23306,0.21577,0.0493
-16.6,-0.9064,0.23148,0.21418,0.0481
-16.5,-0.9019,0.22992,0.21263,0.0468
-16.4,-0.8973,0.22839,0.2111,0.0456
-16.3,-0.8927,0.22689,0.2096,0.0444
-16.2,-0.888,0.22542,0.20813,0.0431
-16.1,-0.8833,0.22398,0.20669,0.0418
-16,-0.8786,0.22258,0.2053,0.0404
-15.9,-0.8737,0.22123,0.20395,0.039
-15.8,-0.8688,0.21993,0.20266,0.0376
-15.7,-0.8638,0.21871,0.20144,0.0361
-15.6,-0.8587,0.21757,0.20031,0.0345
-15.5,-0.8535,0.21657,0.19933,0.0328
-15.4,-0.848,0.21571,0.19848,0.0309
-15.1,-0.8311,0.21385,0.19682,0.0242
-15,-0.8273,0.21176,0.19472,0.0237
-14.9,-0.8234,0.20974,0.1927,0.0231
-14.8,-0.8195,0.20777,0.19072,0.0225
-14.7,-0.8155,0.20585,0.1888,0.0219
-14.6,-0.8115,0.20397,0.18692,0.0212
-14.5,-0.8074,0.20213,0.18508,0.0205
-14.4,-0.8034,0.20032,0.18327,0.0198
-14.3,-0.7993,0.19855,0.1815,0.0191
-14.2,-0.7952,0.19681,0.17976,0.0184
-14.1,-0.7918,0.19539,0.17835,0.018
-14,-0.7875,0.19377,0.17673,0.0171
-13.9,-0.7832,0.19216,0.17513,0.0163
-13.8,-0.7789,0.19059,0.17356,0.0154
-13.7,-0.7745,0.18904,0.17201,0.0146
-13.6,-0.7701,0.18751,0.17049,0.0137
-13.5,-0.7657,0.186,0.169,0.0127
-13.4,-0.7612,0.18452,0.16752,0.0118
-13.3,-0.7567,0.18307,0.16608,0.0109
-13.2,-0.7522,0.18164,0.16466,0.0099
-13.1,-0.7476,0.18024,0.16327,0.0089
-13,-0.7431,0.17886,0.16191,0.0079
-12.9,-0.7384,0.17752,0.16058,0.0068
-12.8,-0.7337,0.17622,0.15929,0.0057
-12.7,-0.729,0.17495,0.15804,0.0046
-12.6,-0.7242,0.17372,0.15683,0.0034
-12.4,-0.7144,0.17143,0.1545,0.0007
-12.3,-0.7092,0.17039,0.15347,-0.0008
-12.2,-0.7038,0.16943,0.15254,-0.0026
-12.1,-0.6976,0.16859,0.15171,-0.0047
-11.8,-0.6785,0.16621,0.1496,-0.0121
-11.7,-0.6746,0.16434,0.14773,-0.0122
-11.6,-0.6706,0.16253,0.14592,-0.0125
-11.5,-0.6665,0.16078,0.14418,-0.0128
-11.4,-0.6623,0.15907,0.14248,-0.0131
-11.3,-0.6581,0.15742,0.14083,-0.0135
-11.2,-0.6538,0.15579,0.13922,-0.0139
-11.1,-0.6495,0.15421,0.13764,-0.0143
-11,-0.6451,0.15265,0.1361,-0.0148
-10.9,-0.6407,0.15113,0.13458,-0.0153
-10.8,-0.6362,0.14963,0.13309,-0.0159
-10.7,-0.6317,0.14816,0.13163,-0.0164
-10.6,-0.6271,0.14671,0.13019,-0.017
-10.5,-0.6224,0.14528,0.12878,-0.0177
-10.4,-0.6177,0.14388,0.12739,-0.0183
-10.3,-0.6129,0.1425,0.12602,-0.0191
-10.2,-0.6081,0.14114,0.12467,-0.0198
-10.1,-0.6032,0.1398,0.12334,-0.0206
-10,-0.5981,0.13849,0.12204,-0.0215
-9.9,-0.593,0.1372,0.12076,-0.0224
-9.7,-0.5796,0.13577,0.11927,-0.0269
-9.6,-0.5734,0.13471,0.11821,-0.0287
-9.5,-0.5665,0.13378,0.11727,-0.0311
-9.3,-0.5541,0.13158,0.11525,-0.0353
-2.8,-0.0398,0.05427,0.03493,-0.0754
-2.5,-0.0065,0.05215,0.03242,-0.0766
-2.4,0.0003,0.05143,0.03188,-0.0763
-2.2,0.0234,0.05011,0.0303,-0.0772
-2.1,0.033,0.0494,0.02954,-0.0773
-2,0.0463,0.04892,0.02879,-0.078
-1.9,0.0553,0.04813,0.0281,-0.0779
-1.7,0.0775,0.04693,0.02674,-0.0785
-1.6,0.0882,0.04641,0.02617,-0.0789
-1.5,0.0985,0.04576,0.02551,-0.0791
-1.4,0.1098,0.04518,0.0249,-0.0794
-1.2,0.1316,0.04398,0.0237,-0.0799
-1.1,0.1427,0.04342,0.02314,-0.0801
-1,0.1527,0.04275,0.0226,-0.0803
-0.9,0.1637,0.04215,0.02204,-0.0805
-0.8,0.1749,0.04156,0.02154,-0.0808
-0.7,0.186,0.04095,0.02105,-0.081
0,0.2415,0.03673,0.01712,-0.0746
0.1,0.2541,0.03698,0.01699,-0.0748
0.2,0.2662,0.03721,0.01685,-0.075
0.3,0.2779,0.03742,0.01669,-0.0751
0.4,0.2892,0.03762,0.01657,-0.0752
1.4,0.3917,0.03938,0.0162,-0.0758
2.6,0.5295,0.04195,0.01768,-0.0819

