airfoilName st15.dat
Re 	2.300000e+05
M 	0
N 	4.500000e+00
VACC 	0 VACCflag 1
XTR 	1.00 	1.00 XTRflag 0
alpha,cl,cd,cdp,cm
-20.5,-1.107,0.27308,0.26988,0.1183
-20.4,-1.1028,0.27121,0.26801,0.1168
-20.3,-1.0986,0.26932,0.26612,0.1153
-20.2,-1.0943,0.26742,0.26421,0.1138
-20.1,-1.09,0.26551,0.2623,0.1123
-20,-1.0856,0.26356,0.26035,0.1108
-19.9,-1.0811,0.26158,0.25836,0.1092
-19.8,-1.0766,0.25954,0.25632,0.1077
-19.7,-1.0617,0.25379,0.2506,0.1031
-19.6,-1.0584,0.25189,0.24869,0.1019
-19.5,-1.0549,0.24999,0.24679,0.1007
-19.4,-1.0515,0.24811,0.24491,0.0995
-19.3,-1.048,0.24625,0.24304,0.0983
-19.2,-1.0445,0.2444,0.2412,0.0971
-19.1,-1.041,0.24257,0.23936,0.096
-19,-1.0374,0.24075,0.23754,0.0948
-18.9,-1.0338,0.23896,0.23574,0.0936
-18.8,-1.0301,0.23718,0.23396,0.0924
-18.7,-1.0264,0.23541,0.23219,0.0912
-18.6,-1.0227,0.23366,0.23044,0.09
-18.5,-1.019,0.23192,0.2287,0.0888
-18.4,-1.0152,0.23019,0.22697,0.0876
-18.3,-1.0114,0.22848,0.22525,0.0864
-18.2,-1.0075,0.22678,0.22353,0.0853
-18.1,-1.0037,0.22509,0.22184,0.0841
-18,-0.9998,0.2234,0.22015,0.0829
-17.9,-0.9959,0.22174,0.21849,0.0817
-17.8,-0.9919,0.22007,0.21682,0.0805
-17.7,-0.9879,0.21842,0.21517,0.0793
-17.6,-0.9839,0.21678,0.21352,0.0782
-17.5,-0.9799,0.21515,0.21189,0.077
-17.4,-0.9758,0.21352,0.21026,0.0758
-17.3,-0.9717,0.21189,0.20863,0.0746
-17.2,-0.9676,0.21028,0.20701,0.0734
-17.1,-0.9634,0.20867,0.2054,0.0722
-17,-0.9593,0.20706,0.2038,0.0711
-16.9,-0.9551,0.20546,0.20219,0.0699
-16.8,-0.9509,0.20387,0.2006,0.0687
-16.7,-0.9466,0.20228,0.19902,0.0676
-16.6,-0.9424,0.2007,0.19743,0.0664
-16.5,-0.9381,0.19912,0.19585,0.0652
-16.3,-0.9291,0.1963,0.19303,0.0628
-16.2,-0.9248,0.19472,0.19145,0.0616
-16.1,-0.9205,0.19315,0.18987,0.0605
-16,-0.9161,0.19158,0.1883,0.0593
-15.9,-0.9117,0.19001,0.18674,0.0582
-15.8,-0.9073,0.18846,0.18518,0.057
-15.7,-0.9029,0.1869,0.18362,0.0559
-15.6,-0.8985,0.18534,0.18205,0.0547
-15.5,-0.894,0.18379,0.1805,0.0536
-15.4,-0.8895,0.18224,0.17895,0.0525
-15.3,-0.885,0.1807,0.1774,0.0513
-15.2,-0.8805,0.17915,0.17586,0.0502
-15.1,-0.8759,0.17761,0.17431,0.0491
-15,-0.8714,0.17607,0.17278,0.048
-14.9,-0.8668,0.17454,0.17124,0.0468
-14.8,-0.8622,0.173,0.16971,0.0457
-14.7,-0.8576,0.17147,0.16818,0.0446
-14.6,-0.8529,0.16994,0.16665,0.0435
-14.5,-0.8483,0.16841,0.16512,0.0424
-14.4,-0.8436,0.16688,0.16359,0.0413
-14.3,-0.8389,0.16536,0.16207,0.0401
-14.2,-0.8342,0.16383,0.16054,0.039
-14.1,-0.8294,0.1623,0.15901,0.0379
-14,-0.8247,0.16077,0.15749,0.0368
-13.9,-0.8198,0.15924,0.15595,0.0357
-13.8,-0.815,0.1577,0.15441,0.0345
-13.7,-0.8101,0.15615,0.15286,0.0334
-13.6,-0.8052,0.15459,0.15131,0.0323
-13.5,-0.8003,0.15304,0.14975,0.0312
-13.4,-0.7953,0.15145,0.14816,0.03
-13.3,-0.7903,0.14984,0.14656,0.0289
-13.2,-0.7853,0.14822,0.14493,0.0277
-13.1,-0.7802,0.14654,0.14326,0.0265
-13,-0.7749,0.14478,0.14149,0.0253
-12.7,-0.7521,0.13638,0.13312,0.0191
-12.6,-0.748,0.13497,0.13171,0.0182
-12.5,-0.7437,0.13358,0.1303,0.0174
-12.4,-0.7394,0.13221,0.12893,0.0164
-12.3,-0.735,0.13086,0.12759,0.0155
-12.2,-0.7305,0.12954,0.12627,0.0146
-12.1,-0.726,0.12823,0.12497,0.0137
-12,-0.7213,0.12695,0.12368,0.0127
-11.9,-0.7166,0.12567,0.12241,0.0118
-11.8,-0.7119,0.12442,0.12116,0.0108
-11.7,-0.7071,0.12318,0.11993,0.0099
-11.6,-0.7022,0.12195,0.1187,0.0089
-11.5,-0.6974,0.12074,0.1175,0.008
-11.4,-0.6925,0.11954,0.1163,0.007
-11.3,-0.6875,0.11835,0.11511,0.0061
-11.2,-0.6825,0.11718,0.11394,0.0051
-6.6,-0.2307,0.0355,0.03146,-0.0988
-6.5,-0.2193,0.03565,0.03162,-0.0992
-6.4,-0.2068,0.03553,0.0315,-0.0999
-6,-0.1263,0.02284,0.01768,-0.115
-5.9,-0.1137,0.02121,0.01574,-0.1161
-5.8,-0.1009,0.02001,0.01427,-0.1169
-5.7,-0.088,0.01904,0.01305,-0.1176
-5.6,-0.0748,0.01831,0.01207,-0.1182
-5.5,-0.0621,0.01777,0.01148,-0.1188
-5.4,-0.0494,0.01741,0.01111,-0.1193
-5.3,-0.0361,0.01711,0.01078,-0.1198
-5.2,-0.023,0.01684,0.01045,-0.1203
-5.1,-0.0099,0.01657,0.01014,-0.1208
-5,0.0021,0.01629,0.0098,-0.121
-4.9,0.0131,0.01601,0.00946,-0.121
-4.8,0.0249,0.01571,0.00908,-0.1211
-4.7,0.0373,0.01538,0.00865,-0.1214
-4.6,0.05,0.01505,0.00822,-0.1217
-4.5,0.0627,0.01478,0.00785,-0.122
-4.3,0.0885,0.01455,0.00766,-0.1228
-4.2,0.0995,0.01437,0.00745,-0.1227
-4.1,0.1108,0.01418,0.0072,-0.1227
-4,0.1227,0.01397,0.00694,-0.1228
-3.9,0.1349,0.01375,0.00665,-0.123
-3.8,0.1475,0.01355,0.00636,-0.1232
-3.7,0.1601,0.01332,0.00613,-0.1235
-3.6,0.1728,0.01315,0.00597,-0.1238
-3.5,0.1836,0.01304,0.00584,-0.1237
-3.4,0.1948,0.01304,0.00584,-0.1236
-3.3,0.2066,0.01289,0.00564,-0.1237
-3.2,0.2188,0.01273,0.00541,-0.1238
-3.1,0.2312,0.01256,0.00523,-0.124
-3,0.2436,0.0124,0.00506,-0.1242
-2.9,0.2545,0.0123,0.00496,-0.1241
-2.8,0.2659,0.01221,0.00486,-0.1241
-2.6,0.2895,0.01207,0.00464,-0.1242
-2.5,0.3018,0.01192,0.00449,-0.1243
-2.4,0.3135,0.01181,0.0044,-0.1244
-2.3,0.3246,0.01174,0.00432,-0.1243
-2.2,0.336,0.01166,0.00423,-0.1243
-2.1,0.3478,0.01157,0.00411,-0.1243
-2,0.3597,0.01149,0.00398,-0.1244
-1.9,0.3716,0.01143,0.00397,-0.1244
-1.8,0.3826,0.01137,0.00391,-0.1244
-1.7,0.3939,0.0113,0.00383,-0.1243
-1.6,0.4056,0.01124,0.00373,-0.1243
-1.5,0.4168,0.01116,0.00362,-0.1241
-1.4,0.4281,0.0111,0.00358,-0.1241
-1.3,0.4395,0.01106,0.00353,-0.1239
-1.2,0.4506,0.01101,0.00346,-0.1238
-1.1,0.4621,0.01096,0.00339,-0.1238
-1,0.4735,0.0109,0.00333,-0.1237
-0.9,0.4848,0.01086,0.0033,-0.1237
-0.8,0.4962,0.01082,0.00325,-0.1236
-0.7,0.5075,0.0108,0.00322,-0.1235
-0.6,0.5183,0.01076,0.00317,-0.1233
-0.5,0.5298,0.01073,0.00313,-0.1233
-0.4,0.5412,0.01071,0.00308,-0.1232
-0.3,0.5523,0.01068,0.00305,-0.1231
-0.2,0.5637,0.01065,0.00302,-0.1231
0,0.586,0.01063,0.00297,-0.1228
0.1,0.5971,0.01061,0.00295,-0.1227
0.2,0.6084,0.0106,0.00293,-0.1227
0.3,0.6194,0.01061,0.0029,-0.1225
0.4,0.6303,0.0106,0.00287,-0.1223
0.5,0.6413,0.0106,0.00286,-0.1222
0.6,0.6525,0.01062,0.00285,-0.1221
0.7,0.6636,0.01061,0.00285,-0.122
0.8,0.6747,0.01061,0.00285,-0.122
0.9,0.6854,0.01064,0.00283,-0.1217
1,0.6964,0.01065,0.00283,-0.1216
1.1,0.7067,0.01071,0.00281,-0.1213
1.2,0.7176,0.01073,0.00283,-0.1212
1.3,0.7285,0.01075,0.00283,-0.1211
1.4,0.7394,0.01078,0.00283,-0.1209
1.5,0.7501,0.01081,0.00285,-0.1208
1.6,0.7608,0.01086,0.00286,-0.1206
1.7,0.7706,0.01096,0.00288,-0.1203
1.8,0.7812,0.01098,0.00291,-0.1201
1.9,0.7918,0.01102,0.00294,-0.12
2,0.8023,0.01106,0.00298,-0.1199
2.1,0.8127,0.01106,0.00304,-0.1198
2.2,0.8147,0.00982,0.00298,-0.1176
2.3,0.8251,0.00994,0.00302,-0.1174
2.4,0.8354,0.01007,0.00308,-0.1172
2.5,0.8446,0.01029,0.00315,-0.1168
2.6,0.8547,0.01044,0.00321,-0.1165
2.7,0.8647,0.0106,0.00328,-0.1163
2.8,0.8747,0.01076,0.00335,-0.116
2.9,0.8845,0.01093,0.00343,-0.1158
3,0.8942,0.01111,0.00353,-0.1155
3.1,0.9038,0.01131,0.00362,-0.1152
3.2,0.9134,0.01151,0.00372,-0.1149
3.3,0.9216,0.01185,0.00386,-0.1144
3.4,0.9309,0.01208,0.00398,-0.1141
3.5,0.9404,0.01231,0.00409,-0.1139
3.6,0.9499,0.01253,0.00421,-0.1136
3.7,0.9595,0.01274,0.00433,-0.1134
3.8,0.9692,0.01294,0.00445,-0.1132
3.9,0.979,0.01313,0.00456,-0.1129
4,0.9891,0.0133,0.00468,-0.1128
4.1,0.9985,0.01354,0.00483,-0.1125
4.2,1.0087,0.01368,0.00496,-0.1124
4.3,1.0187,0.01384,0.00508,-0.1122
4.4,1.0288,0.01399,0.00521,-0.112
4.5,1.0391,0.01413,0.00532,-0.1119
4.6,1.0492,0.01427,0.00544,-0.1117
4.7,1.0591,0.01444,0.00557,-0.1115
4.8,1.0695,0.01456,0.00569,-0.1114
4.9,1.0797,0.01469,0.0058,-0.1112
5,1.0892,0.01489,0.00594,-0.111
5.1,1.0995,0.01501,0.00606,-0.1108
5.2,1.1097,0.01514,0.00618,-0.1107
5.3,1.1197,0.01528,0.00633,-0.1105
5.4,1.1296,0.01544,0.00647,-0.1103
5.5,1.1396,0.01558,0.00661,-0.1101
5.6,1.1498,0.0157,0.00673,-0.1099
5.7,1.1599,0.01584,0.00686,-0.1098
5.8,1.1694,0.01602,0.007,-0.1095
5.9,1.1793,0.01616,0.00714,-0.1094
6,1.1894,0.01629,0.00727,-0.1092
6.1,1.1994,0.01642,0.00741,-0.109
6.2,1.2092,0.01657,0.00755,-0.1088
6.3,1.2189,0.01674,0.0077,-0.1086
6.4,1.2285,0.0169,0.00786,-0.1083
6.5,1.2385,0.01703,0.00803,-0.1082
6.6,1.2484,0.01717,0.00818,-0.1079
6.7,1.2579,0.01733,0.00831,-0.1077
6.8,1.2673,0.01751,0.00847,-0.1075
6.9,1.277,0.01766,0.00864,-0.1072
7,1.2868,0.0178,0.00879,-0.107
7.1,1.2965,0.01795,0.00895,-0.1068
7.2,1.306,0.01811,0.00912,-0.1066
7.3,1.3153,0.01828,0.00929,-0.1063
7.4,1.3244,0.01848,0.00947,-0.106
7.5,1.334,0.01863,0.00964,-0.1058
7.6,1.3435,0.01877,0.00981,-0.1055
7.7,1.3528,0.01894,0.00999,-0.1053
7.8,1.362,0.01912,0.01017,-0.105
7.9,1.3708,0.01933,0.01036,-0.1047
8,1.3802,0.01949,0.01056,-0.1044
8.1,1.3895,0.01965,0.01075,-0.1041
8.2,1.3986,0.01982,0.01094,-0.1038
8.3,1.4077,0.02,0.01114,-0.1035
8.4,1.4165,0.0202,0.01134,-0.1032
8.5,1.4249,0.02042,0.01152,-0.1028
8.6,1.4341,0.02058,0.01173,-0.1025
8.7,1.443,0.02076,0.01195,-0.1022
8.8,1.4518,0.02096,0.01217,-0.1019
8.9,1.4604,0.02116,0.01238,-0.1015
9,1.4687,0.02137,0.0126,-0.1011
9.1,1.4768,0.02161,0.01283,-0.1007
9.2,1.4853,0.02182,0.01307,-0.1003
9.3,1.4939,0.02201,0.0133,-0.0999
9.4,1.5024,0.02221,0.01354,-0.0995
9.5,1.5106,0.02241,0.01374,-0.0992
9.6,1.5185,0.02264,0.01398,-0.0987
9.7,1.5261,0.0229,0.01423,-0.0982
9.8,1.5339,0.02314,0.0145,-0.0978
9.9,1.542,0.02335,0.01475,-0.0973
10,1.55,0.02357,0.01503,-0.0969
10.1,1.5576,0.0238,0.0153,-0.0964
10.2,1.5651,0.02404,0.01557,-0.0959
10.3,1.5723,0.02429,0.01584,-0.0953
10.4,1.5792,0.02456,0.01612,-0.0947
10.5,1.5857,0.02485,0.01641,-0.0941
10.6,1.5922,0.02514,0.01672,-0.0934
10.7,1.6,0.02531,0.01696,-0.093
10.8,1.6068,0.02557,0.01726,-0.0924
10.9,1.6132,0.02584,0.01756,-0.0917
11,1.6192,0.02611,0.01786,-0.091
11.1,1.6244,0.02639,0.01817,-0.0901
11.2,1.6294,0.0267,0.01849,-0.0892
11.3,1.634,0.02702,0.01883,-0.0883
11.4,1.6382,0.02739,0.0192,-0.0873
11.5,1.6441,0.02766,0.01954,-0.0866
11.6,1.6496,0.02795,0.01991,-0.0858
11.7,1.6549,0.02826,0.02028,-0.085
11.8,1.66,0.02858,0.02065,-0.0842
11.9,1.6648,0.02892,0.02103,-0.0834
12,1.6695,0.02927,0.02142,-0.0826
12.2,1.6779,0.02999,0.02217,-0.081
12.3,1.6814,0.03041,0.02262,-0.0801
12.4,1.6844,0.03088,0.0231,-0.0792
12.5,1.6889,0.03125,0.02353,-0.0784
12.6,1.6935,0.03162,0.02397,-0.0777
12.7,1.6977,0.03201,0.02443,-0.0769
12.8,1.7017,0.03243,0.02491,-0.0762
12.9,1.7055,0.03285,0.02539,-0.0754
13,1.7091,0.0333,0.0259,-0.0747
13.1,1.7124,0.03376,0.02641,-0.0739
13.2,1.7154,0.03424,0.02694,-0.0732
13.3,1.7182,0.03475,0.02749,-0.0724
13.4,1.7207,0.03527,0.02806,-0.0717
13.5,1.7229,0.03583,0.02868,-0.071
13.6,1.7247,0.03642,0.0293,-0.0703
13.7,1.7289,0.03682,0.02972,-0.0699
13.8,1.7317,0.03736,0.03032,-0.0693
13.9,1.7343,0.03792,0.03094,-0.0687
14,1.7367,0.03849,0.03159,-0.0681
14.1,1.7388,0.0391,0.03225,-0.0676
14.2,1.7408,0.03973,0.03294,-0.0671
14.3,1.7436,0.04026,0.03347,-0.0667
14.4,1.7448,0.04097,0.03422,-0.0663
14.5,1.7456,0.04172,0.03501,-0.0659
14.6,1.746,0.04252,0.03586,-0.0656
14.7,1.7462,0.04336,0.03673,-0.0653
14.8,1.7485,0.04404,0.03749,-0.065
14.9,1.7523,0.04456,0.0381,-0.0648
15,1.7537,0.04533,0.03894,-0.0646
15.1,1.7548,0.04613,0.03981,-0.0645
15.2,1.7559,0.04696,0.04071,-0.0645
15.3,1.7567,0.04782,0.04163,-0.0645
15.4,1.7574,0.04872,0.04259,-0.0646
15.5,1.7579,0.04965,0.04358,-0.0648
15.6,1.7582,0.05063,0.04462,-0.065
15.7,1.7583,0.05165,0.0457,-0.0654
15.8,1.7582,0.05273,0.04683,-0.0659
15.9,1.7576,0.05388,0.04804,-0.0664
16,1.7566,0.05511,0.04934,-0.0672
16.1,1.7564,0.05627,0.05057,-0.0679
16.2,1.7572,0.05732,0.05172,-0.0686
16.3,1.7577,0.05844,0.05293,-0.0694
16.4,1.7579,0.05962,0.05419,-0.0703
16.5,1.758,0.06085,0.05552,-0.0714
16.6,1.758,0.06214,0.05689,-0.0726
16.7,1.7578,0.06349,0.05832,-0.0739
16.8,1.7575,0.06491,0.05982,-0.0754
16.9,1.757,0.0664,0.0614,-0.0771
17,1.7564,0.06798,0.06306,-0.0789
17.1,1.7557,0.06966,0.06482,-0.0809
17.2,1.7547,0.07145,0.0667,-0.0832
17.3,1.7535,0.07336,0.06869,-0.0856
17.4,1.752,0.07543,0.07085,-0.0883
17.5,1.7501,0.07768,0.07319,-0.0913
17.6,1.7477,0.08015,0.07575,-0.0946
17.7,1.745,0.08284,0.07853,-0.0982
17.8,1.7416,0.08581,0.0816,-0.1021
17.9,1.7378,0.08903,0.08492,-0.1063
18,1.7349,0.09206,0.08806,-0.1101
18.1,1.7316,0.09527,0.0914,-0.1141
18.2,1.7277,0.09875,0.095,-0.1183
18.3,1.7234,0.10242,0.09879,-0.1226
18.4,1.7186,0.10628,0.10277,-0.1271
18.5,1.7135,0.11019,0.10679,-0.1315
18.6,1.7082,0.1141,0.11081,-0.136
18.7,1.7028,0.118,0.11481,-0.1403
18.8,1.6974,0.12182,0.11872,-0.1446
18.9,1.692,0.12558,0.12258,-0.1488
19,1.6867,0.12928,0.12637,-0.153
19.1,1.6812,0.13307,0.13024,-0.1572
19.2,1.6757,0.13694,0.13419,-0.1615
19.3,1.6705,0.14067,0.13801,-0.1656
19.4,1.6647,0.14481,0.14223,-0.17
19.5,1.6586,0.1491,0.1466,-0.1746
19.6,1.6527,0.15352,0.1511,-0.1792
19.7,1.6452,0.15886,0.15652,-0.1845
19.8,1.6361,0.1653,0.16304,-0.1906
19.9,1.6242,0.17361,0.17145,-0.1979
20,1.6189,0.17907,0.17693,-0.2027
20.1,1.6211,0.18047,0.17835,-0.2044
20.2,1.6252,0.18072,0.17859,-0.2052
20.3,1.6305,0.18033,0.17819,-0.2056
20.4,1.636,0.17978,0.17762,-0.2058
20.5,1.6402,0.17992,0.1777,-0.2065
21.1,1.6116,0.22117,0.21913,-0.2376
21.2,1.6176,0.21879,0.21676,-0.2371
21.3,1.6238,0.21665,0.21463,-0.2366
21.4,1.6303,0.21442,0.21243,-0.236

