airfoilName st15.dat
Re 	190000
M 	0
N 	4.500000e+00
VACC 	0 VACCflag 1
XTR 	1.00 	1.00 XTRflag 0
alpha,cl,cd,cdp,cm
-5.8,-0.1136,0.02186,0.01567,-0.1143
-5.6,-0.0863,0.02082,0.01462,-0.1159
-5.5,-0.0766,0.02054,0.01432,-0.1157
-5.4,-0.0647,0.02022,0.01397,-0.116
-5.3,-0.0523,0.01989,0.01359,-0.1164
-5.2,-0.0396,0.0195,0.01312,-0.1169
-5.1,-0.026,0.01905,0.01257,-0.1175
-5,-0.0127,0.01856,0.01197,-0.1181
-4.9,0.0007,0.01802,0.01129,-0.1187
-4.8,0.015,0.01744,0.01053,-0.1194
-4.7,0.0287,0.01695,0.00983,-0.12
-4.6,0.0406,0.01661,0.00949,-0.1203
-4.4,0.0624,0.01656,0.0095,-0.1202
-4.3,0.0749,0.01631,0.0092,-0.1205
-4.2,0.0881,0.01601,0.00883,-0.1209
-4.1,0.1012,0.0157,0.00842,-0.1213
-4,0.1144,0.01539,0.00798,-0.1217
-3.9,0.1283,0.01508,0.00761,-0.1222
-3.8,0.1393,0.01487,0.00741,-0.1222
-3.7,0.1501,0.01473,0.00726,-0.1221
-3.6,0.1619,0.01457,0.00709,-0.1222
-3.5,0.1742,0.01457,0.00707,-0.1224
-3.4,0.1869,0.01435,0.00678,-0.1227
-3.3,0.2002,0.01414,0.00646,-0.123
-3.2,0.2132,0.0139,0.00625,-0.1234
-3.1,0.2241,0.01377,0.00613,-0.1233
-3,0.2349,0.01366,0.00599,-0.1232
-2.9,0.2469,0.01353,0.00584,-0.1233
-2.7,0.2717,0.01335,0.00556,-0.1236
-2.6,0.2848,0.01315,0.00537,-0.124
-2.5,0.2956,0.01305,0.00529,-0.1239
-2.4,0.3067,0.01296,0.00519,-0.1238
-2.3,0.3185,0.01286,0.00507,-0.1239
-2.2,0.3307,0.01274,0.0049,-0.1239
-2.1,0.3431,0.01268,0.00486,-0.1241
-2,0.3557,0.01257,0.00475,-0.1244
-1.9,0.3662,0.01251,0.00468,-0.1242
-1.8,0.3774,0.01242,0.00457,-0.1241
-1.7,0.3893,0.01233,0.00444,-0.1241
-1.6,0.4015,0.01223,0.00436,-0.1243
-1.4,0.4243,0.01215,0.00428,-0.1242
-1.3,0.4358,0.01208,0.00419,-0.1242
-1.2,0.448,0.01196,0.00407,-0.1242
-1,0.4702,0.01184,0.00394,-0.1239
-0.9,0.4822,0.01177,0.00384,-0.1239
-0.8,0.493,0.01175,0.00386,-0.1238
-0.7,0.5044,0.01169,0.00379,-0.1237
-0.6,0.5162,0.01164,0.00372,-0.1237
-0.5,0.5272,0.01161,0.00366,-0.1235
-0.4,0.5386,0.01155,0.00362,-0.1235
-0.3,0.5498,0.0115,0.00356,-0.1233
-0.2,0.5611,0.0115,0.00355,-0.1233
0,0.5838,0.01142,0.00348,-0.1231
0.1,0.5951,0.01139,0.00344,-0.1231
0.2,0.6063,0.01137,0.00339,-0.1229
0.3,0.6174,0.01134,0.00337,-0.1228
0.4,0.6286,0.01134,0.00334,-0.1226
0.5,0.6398,0.0113,0.00333,-0.1226
0.6,0.6511,0.01128,0.00331,-0.1225
0.7,0.6619,0.01129,0.00326,-0.1222
0.8,0.6731,0.01127,0.00325,-0.1222
0.9,0.6842,0.01126,0.00324,-0.1221
1,0.695,0.01126,0.00322,-0.1219
1.1,0.7061,0.01125,0.00321,-0.1218
1.2,0.717,0.01126,0.0032,-0.1216
1.3,0.728,0.01126,0.0032,-0.1215
1.4,0.7385,0.01129,0.00318,-0.1212
1.5,0.7494,0.01129,0.00318,-0.1211
1.6,0.7602,0.01127,0.00319,-0.121
1.7,0.7709,0.01128,0.0032,-0.1208
1.8,0.7817,0.01128,0.00321,-0.1207
1.9,0.7924,0.01125,0.00324,-0.1206
2.1,0.8044,0.01014,0.00316,-0.118
2.2,0.8148,0.01025,0.00319,-0.1177
2.3,0.8252,0.01037,0.00323,-0.1175
2.4,0.8355,0.01049,0.00327,-0.1172
2.5,0.8458,0.01062,0.00331,-0.117
2.6,0.856,0.01075,0.00337,-0.1168
2.7,0.8661,0.01089,0.00343,-0.1165
2.8,0.8752,0.01112,0.00351,-0.116
2.9,0.885,0.01128,0.00358,-0.1157
3,0.8948,0.01145,0.00367,-0.1154
3.1,0.9045,0.01163,0.00375,-0.1151
3.2,0.9141,0.01182,0.00384,-0.1148
3.3,0.9236,0.01201,0.00395,-0.1145
3.4,0.9329,0.01222,0.00405,-0.1142
3.5,0.9422,0.01245,0.00415,-0.1138
3.6,0.9501,0.0128,0.00431,-0.1133
3.7,0.9593,0.01303,0.00443,-0.113
3.8,0.9686,0.01327,0.00456,-0.1127
3.9,0.9779,0.01349,0.00469,-0.1124
4,0.9874,0.01371,0.00482,-0.1122
4.1,0.997,0.01392,0.00496,-0.1119
4.2,1.0066,0.01412,0.00511,-0.1117
4.3,1.0165,0.0143,0.00525,-0.1115
4.4,1.0256,0.01456,0.00541,-0.1112
4.5,1.0357,0.01472,0.00553,-0.111
4.6,1.0455,0.01489,0.00567,-0.1108
4.7,1.0554,0.01506,0.00582,-0.1106
4.8,1.0655,0.01521,0.00594,-0.1104
4.9,1.0754,0.01537,0.00608,-0.1102
5,1.0851,0.01556,0.00623,-0.11
5.1,1.0953,0.0157,0.00637,-0.1098
5.2,1.1053,0.01584,0.00651,-0.1096
5.3,1.1146,0.01606,0.00666,-0.1094
5.4,1.1247,0.0162,0.00683,-0.1092
5.5,1.1347,0.01634,0.00697,-0.109
5.6,1.1446,0.01649,0.00712,-0.1088
5.7,1.1543,0.01667,0.00727,-0.1086
5.8,1.1639,0.01684,0.00743,-0.1084
5.9,1.174,0.01697,0.00758,-0.1082
6,1.1839,0.01712,0.00773,-0.108
6.1,1.1933,0.01731,0.00787,-0.1077
6.2,1.2028,0.01749,0.00804,-0.1075
6.3,1.2128,0.01762,0.0082,-0.1073
6.4,1.2226,0.01777,0.00835,-0.1071
6.5,1.2322,0.01794,0.00854,-0.1069
6.6,1.2417,0.01812,0.00871,-0.1066
6.7,1.2509,0.01832,0.00889,-0.1063
6.8,1.2608,0.01845,0.00906,-0.1061
6.9,1.2704,0.01861,0.00923,-0.1059
7,1.2797,0.01878,0.00938,-0.1056
7.1,1.2889,0.01898,0.00956,-0.1053
7.2,1.2983,0.01915,0.00975,-0.1051
7.3,1.3079,0.0193,0.00993,-0.1048
7.4,1.3173,0.01947,0.01012,-0.1046
7.5,1.3266,0.01965,0.01031,-0.1043
7.6,1.3357,0.01984,0.01052,-0.104
7.7,1.3445,0.02006,0.01072,-0.1037
7.8,1.3537,0.02024,0.01093,-0.1034
7.9,1.3631,0.02038,0.01109,-0.1031
8,1.3721,0.02057,0.01129,-0.1028
8.1,1.381,0.02077,0.0115,-0.1025
8.2,1.3895,0.021,0.01171,-0.1021
8.3,1.3984,0.02119,0.01193,-0.1018
8.4,1.4075,0.02137,0.01215,-0.1015
8.5,1.4164,0.02156,0.01237,-0.1012
8.6,1.4251,0.02177,0.0126,-0.1008
8.7,1.4337,0.02198,0.01282,-0.1005
8.8,1.4419,0.02222,0.01308,-0.1001
8.9,1.4504,0.02241,0.01328,-0.0997
9,1.459,0.02261,0.01352,-0.0993
9.1,1.4675,0.02282,0.01376,-0.099
9.2,1.4757,0.02305,0.01401,-0.0986
9.3,1.4837,0.02328,0.01426,-0.0981
9.4,1.4914,0.02354,0.01451,-0.0976
9.5,1.499,0.0238,0.01478,-0.0972
9.6,1.5074,0.02401,0.01505,-0.0968
9.7,1.5155,0.02424,0.01532,-0.0963
9.8,1.5234,0.02448,0.0156,-0.0959
9.9,1.5309,0.0247,0.01581,-0.0954
10,1.538,0.02497,0.01609,-0.0949
10.1,1.5446,0.02527,0.01641,-0.0942
10.2,1.5522,0.02551,0.01671,-0.0937
10.3,1.5597,0.02575,0.01701,-0.0932
10.4,1.5669,0.02601,0.01731,-0.0927
10.5,1.5738,0.02628,0.01762,-0.0921
10.6,1.5804,0.02655,0.01793,-0.0915
10.7,1.5867,0.02684,0.01825,-0.0908
10.8,1.5925,0.02715,0.01857,-0.0901
10.9,1.5974,0.02748,0.0189,-0.0892
11,1.6021,0.02781,0.01925,-0.0883
11.1,1.6082,0.02808,0.01959,-0.0875
11.2,1.6147,0.02829,0.01987,-0.0869
11.3,1.62,0.0286,0.02022,-0.0861
11.4,1.625,0.02893,0.02058,-0.0853
11.5,1.6297,0.02927,0.02096,-0.0844
11.6,1.6342,0.02962,0.02134,-0.0835
11.7,1.6382,0.03,0.02176,-0.0827
11.8,1.6418,0.03042,0.02219,-0.0817
11.9,1.646,0.03081,0.02262,-0.0809
12,1.6512,0.03115,0.02304,-0.0802
12.1,1.6561,0.03152,0.02348,-0.0794
12.2,1.6606,0.0319,0.02393,-0.0786
12.3,1.6649,0.0323,0.02439,-0.0779
12.4,1.6689,0.03271,0.02485,-0.0771
12.5,1.6727,0.03314,0.02533,-0.0763
12.6,1.6762,0.03359,0.02582,-0.0755
12.7,1.6792,0.034,0.02623,-0.0747
12.8,1.6816,0.03452,0.02677,-0.0739
12.9,1.6835,0.03508,0.02736,-0.0731
13,1.6866,0.03558,0.0279,-0.0723
13.1,1.6905,0.03604,0.02845,-0.0717
13.2,1.6939,0.03653,0.02902,-0.071
13.3,1.6971,0.03704,0.02961,-0.0703
13.4,1.7,0.03758,0.03022,-0.0697
13.5,1.7027,0.03813,0.03084,-0.069
13.6,1.7051,0.0387,0.0315,-0.0684
13.7,1.7073,0.0393,0.03215,-0.0678
13.8,1.7092,0.03991,0.03282,-0.0672
13.9,1.7108,0.04056,0.03352,-0.0667
14,1.7122,0.04123,0.03424,-0.0662
14.1,1.7132,0.04194,0.035,-0.0657
14.3,1.7131,0.04354,0.0366,-0.0649
14.4,1.7157,0.04419,0.03736,-0.0646
14.5,1.7206,0.04462,0.0379,-0.0644
14.6,1.722,0.04537,0.03873,-0.0642
14.7,1.7233,0.04614,0.03957,-0.0639
14.8,1.7243,0.04695,0.04045,-0.0638
14.9,1.7252,0.04778,0.04135,-0.0637
15,1.7259,0.04865,0.04228,-0.0637
15.1,1.7263,0.04955,0.04325,-0.0637
15.2,1.7266,0.0505,0.04425,-0.0639
15.4,1.7252,0.05261,0.04636,-0.0648
15.5,1.7295,0.05321,0.04709,-0.0649
15.6,1.7301,0.05421,0.04818,-0.0653
15.7,1.7306,0.05524,0.04929,-0.0657
15.8,1.7309,0.0563,0.05044,-0.0663
15.9,1.731,0.05741,0.05162,-0.067
16,1.731,0.05856,0.05286,-0.0678
16.1,1.7309,0.05976,0.05413,-0.0687
16.2,1.7306,0.06102,0.05546,-0.0697
16.3,1.7302,0.06233,0.05684,-0.0709
16.4,1.7296,0.06371,0.05832,-0.0723
16.5,1.7288,0.06517,0.05985,-0.0739
16.6,1.7277,0.06672,0.06147,-0.0756
16.7,1.7264,0.06837,0.06319,-0.0776
16.8,1.7247,0.07015,0.06504,-0.0798
16.9,1.7238,0.07187,0.06683,-0.0819
17,1.7237,0.0735,0.06858,-0.0839
17.1,1.7232,0.07525,0.07044,-0.086
17.2,1.7224,0.07714,0.07245,-0.0885
17.3,1.7214,0.07915,0.07457,-0.0911
17.4,1.7201,0.08131,0.07684,-0.0939
17.5,1.7185,0.08364,0.07928,-0.097
17.6,1.7166,0.08614,0.08189,-0.1004
17.7,1.7144,0.08884,0.0847,-0.1039
17.8,1.7118,0.09176,0.08774,-0.1078
17.9,1.7087,0.09489,0.09098,-0.1118
18,1.7051,0.09828,0.09448,-0.1161
18.1,1.7012,0.10185,0.09817,-0.1205
18.2,1.6968,0.10564,0.10206,-0.125
18.3,1.6921,0.10954,0.10607,-0.1296
18.4,1.687,0.11352,0.11015,-0.1342
18.5,1.6818,0.11748,0.11421,-0.1388
18.6,1.6766,0.12139,0.11821,-0.1433
18.7,1.6714,0.12525,0.12215,-0.1476
18.8,1.6664,0.12901,0.12599,-0.1519
18.9,1.6615,0.13275,0.12979,-0.1561
19,1.6574,0.1362,0.1333,-0.16
19.1,1.6539,0.13943,0.13657,-0.1636
19.2,1.6516,0.14212,0.13929,-0.1668
19.3,1.6506,0.14434,0.14152,-0.1695
19.5,1.6385,0.15351,0.15084,-0.1789
19.6,1.6246,0.16215,0.15962,-0.1869
20.2,1.5947,0.19632,0.194,-0.2157
20.3,1.5985,0.19658,0.19427,-0.2166
20.4,1.6025,0.19671,0.19441,-0.2174
20.5,1.6066,0.19672,0.19443,-0.2181
20.6,1.6111,0.1965,0.19421,-0.2187

