airfoilName st15.dat
Re 	3.100000e+05
M 	0
N 	4.500000e+00
VACC 	0 VACCflag 1
XTR 	1.00 	1.00 XTRflag 0
alpha,cl,cd,cdp,cm
-30,-1.4452,0.4551,0.45274,0.2845
-29.9,-1.4424,0.45301,0.45065,0.2826
-29.8,-1.4396,0.45094,0.44857,0.2806
-29.7,-1.4368,0.44886,0.44648,0.2787
-29.6,-1.4339,0.44679,0.44441,0.2767
-29.5,-1.4311,0.44471,0.44233,0.2748
-29.4,-1.4282,0.44265,0.44027,0.2729
-29.3,-1.4253,0.4406,0.43821,0.271
-29.2,-1.4224,0.43855,0.43616,0.269
-29.1,-1.4194,0.4365,0.43411,0.2671
-29,-1.4165,0.43446,0.43206,0.2652
-28.9,-1.4135,0.43243,0.43002,0.2633
-28.8,-1.4105,0.43039,0.42798,0.2614
-28.7,-1.4076,0.42836,0.42595,0.2595
-28.6,-1.4046,0.42634,0.42392,0.2577
-28.5,-1.4015,0.42433,0.42191,0.2558
-28.4,-1.3985,0.42231,0.41987,0.2539
-28.3,-1.3954,0.4203,0.41786,0.252
-28.2,-1.3924,0.41829,0.41584,0.2502
-28.1,-1.3893,0.41629,0.41384,0.2483
-28,-1.3862,0.4143,0.41184,0.2464
-27.9,-1.3831,0.41231,0.40985,0.2446
-27.8,-1.3799,0.41032,0.40786,0.2427
-27.7,-1.3768,0.40833,0.40587,0.2409
-27.6,-1.3736,0.40636,0.40389,0.239
-27.5,-1.3704,0.4044,0.40193,0.2372
-27.4,-1.3672,0.40244,0.39996,0.2354
-27.3,-1.364,0.40049,0.39801,0.2335
-27.2,-1.3608,0.39853,0.39605,0.2317
-27.1,-1.3575,0.39658,0.3941,0.2299
-27,-1.3543,0.39464,0.39215,0.2281
-26.9,-1.3509,0.39328,0.39078,0.2261
-26.8,-1.3476,0.39133,0.38884,0.2243
-26.7,-1.3442,0.3894,0.3869,0.2225
-26.6,-1.3409,0.38748,0.38497,0.2207
-26.5,-1.3375,0.38556,0.38305,0.2189
-26.4,-1.3341,0.38363,0.38112,0.217
-26.3,-1.3307,0.38173,0.37922,0.2152
-26.2,-1.3273,0.37984,0.37732,0.2134
-26.1,-1.3238,0.37794,0.37541,0.2116
-26,-1.3203,0.37606,0.37353,0.2098
-25.9,-1.3168,0.37418,0.37165,0.208
-25.8,-1.3133,0.37232,0.36978,0.2061
-25.7,-1.3097,0.37048,0.36793,0.2043
-25.6,-1.3061,0.36863,0.36608,0.2025
-25.5,-1.3025,0.36678,0.36424,0.2006
-25.4,-1.2988,0.36494,0.36239,0.1988
-25.3,-1.2949,0.36314,0.36059,0.1968
-25.2,-1.291,0.36135,0.35879,0.1949
-25.1,-1.287,0.35953,0.35697,0.1929
-25,-1.2744,0.35695,0.35441,0.1875
-24.9,-1.2713,0.3547,0.35216,0.1859
-24.8,-1.2681,0.35244,0.3499,0.1844
-24.7,-1.2649,0.3502,0.34766,0.1828
-24.6,-1.2617,0.34801,0.34546,0.1813
-24.5,-1.2585,0.34583,0.34328,0.1798
-24.4,-1.2552,0.34368,0.34112,0.1782
-24.3,-1.2519,0.34155,0.33899,0.1767
-24.2,-1.2486,0.33945,0.33689,0.1751
-24.1,-1.2452,0.33738,0.33481,0.1736
-24,-1.2418,0.33532,0.33275,0.1721
-23.9,-1.2384,0.3333,0.33072,0.1705
-23.8,-1.235,0.33128,0.3287,0.169
-23.7,-1.2316,0.32929,0.3267,0.1675
-23.6,-1.2281,0.32731,0.32472,0.1659
-23.5,-1.2246,0.32535,0.32275,0.1644
-23.4,-1.2211,0.32341,0.3208,0.1629
-23.3,-1.2175,0.32149,0.31888,0.1613
-23.2,-1.214,0.31957,0.31696,0.1598
-23.1,-1.2104,0.31768,0.31506,0.1583
-23,-1.2068,0.31578,0.31316,0.1568
-22.9,-1.2032,0.3139,0.31128,0.1552
-22.8,-1.1995,0.31203,0.30941,0.1537
-22.7,-1.1959,0.31017,0.30754,0.1522
-22.6,-1.1922,0.30831,0.30568,0.1507
-22.5,-1.1885,0.30646,0.30383,0.1492
-22.4,-1.1848,0.30463,0.302,0.1477
-22.3,-1.1811,0.30279,0.30016,0.1462
-22.2,-1.1773,0.30097,0.29833,0.1447
-22.1,-1.1736,0.29914,0.2965,0.1432
-22,-1.1698,0.29733,0.29468,0.1417
-21.9,-1.166,0.29551,0.29287,0.1403
-21.8,-1.1622,0.29371,0.29106,0.1388
-21.7,-1.1584,0.29191,0.28926,0.1373
-21.6,-1.1546,0.29011,0.28745,0.1359
-21.5,-1.1508,0.28831,0.28565,0.1344
-21.4,-1.1469,0.28652,0.28386,0.1329
-21.3,-1.143,0.28473,0.28207,0.1315
-21.2,-1.1392,0.28295,0.28028,0.1301
-21.1,-1.1353,0.28116,0.27849,0.1286
-20.9,-1.1271,0.278,0.27532,0.1256
-20.8,-1.1232,0.27621,0.27352,0.1242
-20.7,-1.1193,0.27441,0.27173,0.1227
-20.6,-1.1154,0.27263,0.26993,0.1213
-20.5,-1.1114,0.27083,0.26814,0.1199
-20.4,-1.1074,0.26905,0.26635,0.1185
-20.3,-1.1034,0.26727,0.26457,0.1171
-20.2,-1.0994,0.26548,0.26278,0.1157
-20.1,-1.0954,0.26369,0.26099,0.1143
-20,-1.0913,0.26191,0.25921,0.1129
-19.9,-1.0872,0.26013,0.25742,0.1115
-19.8,-1.0832,0.25835,0.25564,0.1102
-19.7,-1.0791,0.25657,0.25386,0.1088
-19.6,-1.0749,0.25479,0.25208,0.1074
-19.5,-1.0708,0.25301,0.2503,0.106
-19.4,-1.0667,0.25123,0.24852,0.1046
-19.3,-1.0625,0.24945,0.24673,0.1032
-19.2,-1.0583,0.24767,0.24495,0.1018
-19.1,-1.0541,0.24588,0.24316,0.1005
-19,-1.0498,0.24409,0.24136,0.0991
-18.9,-1.0455,0.24229,0.23956,0.0977
-18.8,-1.0412,0.24048,0.23775,0.0963
-18.7,-1.0369,0.23864,0.23591,0.0949
-18.6,-1.0325,0.2368,0.23407,0.0935
-18.5,-1.028,0.2349,0.23217,0.092
-18.4,-1.0235,0.23296,0.23022,0.0906
-18.2,-1.0042,0.2253,0.22258,0.0846
-18.1,-1.0008,0.22344,0.22071,0.0836
-18,-0.9973,0.22161,0.21888,0.0825
-17.9,-0.9938,0.21979,0.21705,0.0814
-17.8,-0.9903,0.21799,0.21525,0.0803
-17.7,-0.9867,0.2162,0.21346,0.0792
-17.6,-0.9831,0.21443,0.21169,0.0781
-17.5,-0.9794,0.21268,0.20994,0.0769
-17.4,-0.9757,0.21095,0.2082,0.0758
-17.3,-0.972,0.20923,0.20648,0.0747
-17.2,-0.9682,0.20754,0.20479,0.0736
-17.1,-0.9643,0.20586,0.20311,0.0725
-17,-0.9604,0.2042,0.20144,0.0714
-16.9,-0.9565,0.20255,0.1998,0.0702
-16.8,-0.9525,0.20092,0.19816,0.0691
-16.7,-0.9486,0.19931,0.19655,0.068
-16.6,-0.9445,0.19771,0.19495,0.0669
-16.5,-0.9404,0.19612,0.19336,0.0657
-16.4,-0.9363,0.19455,0.19179,0.0646
-16.3,-0.9322,0.19298,0.19022,0.0635
-16.2,-0.9281,0.19143,0.18867,0.0624
-16.1,-0.9239,0.18989,0.18713,0.0612
-16,-0.9196,0.18835,0.18559,0.0601
-15.9,-0.9152,0.18717,0.18441,0.0589
-15.8,-0.9109,0.18564,0.18288,0.0578
-15.7,-0.9066,0.18412,0.18136,0.0567
-15.6,-0.9022,0.1826,0.17984,0.0556
-15.5,-0.8978,0.18109,0.17832,0.0544
-15.4,-0.8934,0.17958,0.17681,0.0533
-15.3,-0.889,0.17808,0.17531,0.0522
-15.2,-0.8845,0.17658,0.17381,0.0511
-15.1,-0.88,0.17509,0.17231,0.05
-15,-0.8755,0.17361,0.17083,0.0488
-14.9,-0.8709,0.17213,0.16936,0.0477
-14.8,-0.8664,0.17065,0.16788,0.0466
-14.7,-0.8618,0.16918,0.16641,0.0455
-14.6,-0.8572,0.16772,0.16494,0.0444
-14.5,-0.8525,0.16626,0.16348,0.0433
-14.4,-0.8479,0.1648,0.16202,0.0422
-14.3,-0.8432,0.16335,0.16057,0.0411
-14.2,-0.8385,0.16189,0.15911,0.04
-14.1,-0.8338,0.16044,0.15767,0.0389
-14,-0.829,0.15899,0.15621,0.0377
-13.9,-0.8242,0.15754,0.15477,0.0366
-13.8,-0.8194,0.1561,0.15333,0.0355
-13.7,-0.8146,0.15466,0.15189,0.0344
-13.6,-0.8097,0.15322,0.15045,0.0333
-13.5,-0.8048,0.15178,0.14901,0.0322
-13.4,-0.7999,0.15035,0.14758,0.0311
-13.3,-0.795,0.14891,0.14614,0.03
-13.2,-0.7901,0.14748,0.14472,0.0289
-13.1,-0.7851,0.14605,0.14328,0.0278
-13,-0.7801,0.14462,0.14185,0.0267
-12.9,-0.7751,0.14319,0.14042,0.0256
-12.8,-0.77,0.14175,0.13897,0.0245
-12.7,-0.7649,0.1403,0.13753,0.0234
-12.6,-0.7598,0.13886,0.13609,0.0223
-12.5,-0.7546,0.13741,0.13464,0.0212
-12.4,-0.7495,0.13596,0.13319,0.0201
-6.6,-0.1808,0.01932,0.01417,-0.1178
-6.5,-0.1673,0.01855,0.01321,-0.1186
-6.4,-0.1542,0.01793,0.01253,-0.1194
-6.3,-0.1444,0.01754,0.0121,-0.1192
-6.2,-0.1322,0.01717,0.01168,-0.1196
-6.1,-0.1199,0.01684,0.0113,-0.12
-5.9,-0.0949,0.0167,0.01114,-0.1206
-5.8,-0.0821,0.01631,0.01066,-0.1211
-5.7,-0.0693,0.01591,0.01017,-0.1216
-5.6,-0.0575,0.01553,0.00969,-0.1217
-5.5,-0.0463,0.01517,0.00924,-0.1218
-5.4,-0.0346,0.01483,0.0088,-0.122
-5.3,-0.0224,0.01453,0.00838,-0.1222
-5.2,-0.0102,0.01423,0.00802,-0.1224
-5.1,0.0023,0.0139,0.00767,-0.1228
-5,0.0147,0.01368,0.00743,-0.1231
-4.9,0.0272,0.01349,0.00721,-0.1233
-4.8,0.0379,0.01333,0.00702,-0.1232
-4.7,0.0493,0.01315,0.00681,-0.1232
-4.6,0.0611,0.01297,0.00658,-0.1233
-4.5,0.0731,0.01278,0.00634,-0.1235
-4.4,0.0852,0.01259,0.00609,-0.1236
-4.3,0.0974,0.01242,0.00585,-0.1238
-4.2,0.109,0.01225,0.00565,-0.1238
-4.1,0.12,0.01221,0.00564,-0.1238
-4,0.1316,0.01207,0.00549,-0.1238
-3.9,0.1433,0.01194,0.00532,-0.1239
-3.8,0.1552,0.0118,0.00515,-0.124
-3.7,0.1671,0.01166,0.00497,-0.124
-3.6,0.1785,0.01154,0.00479,-0.124
-3.5,0.1899,0.01142,0.00465,-0.124
-3.4,0.2015,0.01127,0.0045,-0.124
-3.3,0.213,0.01116,0.00438,-0.124
-3.2,0.2246,0.01114,0.00436,-0.1241
-3.1,0.2365,0.01103,0.00422,-0.1241
-3,0.2478,0.01094,0.00409,-0.1241
-2.9,0.259,0.01086,0.00396,-0.124
-2.8,0.2706,0.01073,0.00385,-0.124
-2.7,0.2822,0.01063,0.00376,-0.1241
-2.6,0.2939,0.01056,0.00367,-0.1241
-2.5,0.3052,0.01049,0.00358,-0.124
-2.4,0.3165,0.01046,0.00353,-0.124
-2.3,0.3281,0.01039,0.00344,-0.124
-2.2,0.3396,0.0103,0.00335,-0.124
-2.1,0.3511,0.01023,0.00328,-0.1239
-2,0.3625,0.01017,0.00321,-0.1239
-1.9,0.3734,0.01012,0.00312,-0.1237
-1.8,0.385,0.01007,0.00304,-0.1237
-1.7,0.396,0.01003,0.00302,-0.1236
-1.6,0.4071,0.00998,0.00295,-0.1234
-1.5,0.4185,0.00994,0.00289,-0.1234
-1.4,0.4297,0.0099,0.00283,-0.1233
-1.3,0.4411,0.00988,0.00276,-0.1233
-1.2,0.4525,0.00983,0.00273,-0.1232
-1.1,0.4637,0.00981,0.00272,-0.1232
-1,0.4748,0.00979,0.00266,-0.123
-0.9,0.486,0.00977,0.00261,-0.1229
-0.8,0.4974,0.00974,0.00258,-0.1229
-0.7,0.5087,0.00972,0.00255,-0.1228
-0.6,0.5199,0.0097,0.00252,-0.1228
-0.5,0.5309,0.00971,0.00248,-0.1226
-0.4,0.5422,0.00969,0.00248,-0.1226
-0.3,0.5535,0.00969,0.00246,-0.1225
-0.2,0.5646,0.00969,0.00244,-0.1224
0,0.5867,0.0097,0.00239,-0.1222
0.1,0.598,0.0097,0.00238,-0.1221
0.2,0.6089,0.00973,0.00238,-0.122
0.3,0.6198,0.00975,0.00237,-0.1219
0.4,0.6311,0.00975,0.00237,-0.1218
0.5,0.6421,0.00977,0.00236,-0.1217
0.6,0.6527,0.00983,0.00236,-0.1215
0.7,0.6635,0.00986,0.00236,-0.1214
0.8,0.6742,0.00991,0.00236,-0.1212
0.9,0.6848,0.00997,0.00237,-0.121
1,0.6957,0.01001,0.00239,-0.1209
1.1,0.7064,0.01007,0.00241,-0.1208
1.2,0.7172,0.01013,0.00241,-0.1207
1.3,0.7271,0.01025,0.00245,-0.1204
1.4,0.7378,0.01031,0.00247,-0.1202
1.5,0.7485,0.01037,0.00251,-0.1201
1.6,0.7592,0.01044,0.00254,-0.12
1.7,0.7697,0.01052,0.00258,-0.1198
1.8,0.7803,0.01058,0.00262,-0.1197
1.9,0.7909,0.01066,0.00266,-0.1196
2,0.8014,0.01074,0.00271,-0.1194
2.1,0.8108,0.01092,0.00278,-0.1191
2.2,0.8212,0.01097,0.00284,-0.119
2.3,0.8315,0.01104,0.00291,-0.1189
2.5,0.8438,0.00985,0.00299,-0.1168
2.6,0.8538,0.01002,0.00306,-0.1166
2.7,0.8638,0.01019,0.00315,-0.1164
2.8,0.8738,0.01038,0.00323,-0.1162
2.9,0.8824,0.0107,0.00335,-0.1158
3,0.8921,0.01092,0.00347,-0.1156
3.1,0.9018,0.01113,0.00356,-0.1153
3.2,0.9116,0.01134,0.00366,-0.1151
3.3,0.9215,0.01153,0.00377,-0.1149
3.4,0.9316,0.01171,0.00387,-0.1148
3.5,0.9417,0.01188,0.00398,-0.1146
3.6,0.952,0.01202,0.00406,-0.1145
3.7,0.9618,0.01222,0.00419,-0.1143
3.8,0.9722,0.01236,0.00428,-0.1141
3.9,0.9825,0.0125,0.00438,-0.114
4,0.993,0.01261,0.00447,-0.1139
4.1,1.0034,0.01273,0.00456,-0.1138
4.2,1.0137,0.01287,0.00468,-0.1136
4.3,1.0242,0.01298,0.00478,-0.1135
4.4,1.0347,0.01309,0.00488,-0.1134
4.5,1.0447,0.01326,0.00498,-0.1132
4.6,1.0551,0.01337,0.00509,-0.1131
4.7,1.0656,0.01348,0.00518,-0.113
4.8,1.0759,0.01359,0.00528,-0.1128
4.9,1.0862,0.01372,0.00539,-0.1127
5,1.0964,0.01385,0.0055,-0.1125
5.1,1.1068,0.01395,0.0056,-0.1124
5.2,1.1172,0.01406,0.0057,-0.1123
5.3,1.1271,0.01422,0.00583,-0.1121
5.4,1.1373,0.01435,0.00595,-0.112
5.5,1.1477,0.01445,0.00606,-0.1118
5.6,1.1579,0.01457,0.00617,-0.1117
5.7,1.1681,0.01469,0.00628,-0.1115
5.8,1.1781,0.01482,0.0064,-0.1114
5.9,1.1881,0.01497,0.00653,-0.1112
6,1.1984,0.01508,0.00665,-0.111
6.1,1.2085,0.01519,0.00677,-0.1109
6.2,1.2184,0.01534,0.00688,-0.1107
6.3,1.2282,0.01548,0.00701,-0.1105
6.4,1.2382,0.01562,0.00717,-0.1103
6.5,1.2483,0.01573,0.00729,-0.1101
6.6,1.2583,0.01586,0.00742,-0.11
6.7,1.2682,0.01599,0.00755,-0.1098
6.8,1.278,0.01614,0.00769,-0.1096
6.9,1.2876,0.0163,0.00784,-0.1094
7,1.2974,0.01643,0.00798,-0.1091
7.1,1.3073,0.01656,0.00811,-0.109
7.2,1.317,0.0167,0.00825,-0.1087
7.3,1.3266,0.01686,0.0084,-0.1085
7.4,1.336,0.01703,0.00856,-0.1083
7.5,1.3456,0.01717,0.00874,-0.108
7.6,1.3553,0.01731,0.00889,-0.1078
7.7,1.3649,0.01745,0.00905,-0.1076
7.8,1.3744,0.0176,0.00921,-0.1073
7.9,1.3838,0.01776,0.00937,-0.1071
8,1.3927,0.01797,0.00954,-0.1068
8.1,1.4022,0.01811,0.0097,-0.1066
8.2,1.4116,0.01826,0.00987,-0.1063
8.3,1.4209,0.01842,0.01004,-0.106
8.4,1.4301,0.01858,0.01022,-0.1057
8.5,1.4391,0.01877,0.0104,-0.1054
8.6,1.4479,0.01896,0.01059,-0.1051
8.7,1.4569,0.01914,0.0108,-0.1048
8.8,1.466,0.0193,0.01099,-0.1045
8.9,1.475,0.01947,0.01118,-0.1042
9,1.4838,0.01965,0.01135,-0.1039
9.1,1.4924,0.01985,0.01155,-0.1035
9.2,1.5008,0.02007,0.01176,-0.1031
9.3,1.5094,0.02026,0.01198,-0.1028
9.4,1.5182,0.02043,0.01219,-0.1024
9.5,1.5268,0.02062,0.0124,-0.1021
9.6,1.5353,0.02081,0.01261,-0.1017
9.7,1.5436,0.02101,0.01283,-0.1013
9.8,1.5518,0.02123,0.01305,-0.1009
9.9,1.5597,0.02146,0.01331,-0.1004
10.1,1.5757,0.02188,0.01376,-0.0995
10.2,1.5837,0.02209,0.014,-0.0991
10.3,1.5915,0.0223,0.01424,-0.0986
10.4,1.5991,0.02253,0.01449,-0.0981
10.5,1.6065,0.02276,0.01474,-0.0976
10.6,1.6136,0.02301,0.015,-0.097
10.7,1.6204,0.02328,0.01528,-0.0964
10.8,1.6272,0.02355,0.01556,-0.0958
10.9,1.6345,0.02376,0.01582,-0.0952
11,1.6415,0.02399,0.01609,-0.0946
11.1,1.6482,0.02423,0.01637,-0.094
11.2,1.6547,0.02448,0.01665,-0.0933
11.3,1.6604,0.02473,0.01694,-0.0925
11.4,1.6658,0.025,0.01722,-0.0917
11.5,1.6708,0.02529,0.01753,-0.0908
11.6,1.6755,0.02561,0.01786,-0.0899
11.7,1.6801,0.02594,0.01821,-0.0889
11.8,1.6858,0.0262,0.01852,-0.0882
11.9,1.6913,0.02647,0.01885,-0.0874
12,1.6965,0.02677,0.01919,-0.0866
12.1,1.7016,0.02707,0.01953,-0.0858
12.2,1.7064,0.02738,0.01989,-0.085
12.3,1.7111,0.02771,0.02026,-0.0841
12.4,1.7157,0.02805,0.02064,-0.0833
12.5,1.7201,0.02841,0.02103,-0.0825
12.6,1.7242,0.02879,0.02143,-0.0816
12.7,1.7274,0.02922,0.02184,-0.0808
12.8,1.7309,0.02965,0.0223,-0.0799
12.9,1.7371,0.02988,0.02258,-0.0794
13,1.7416,0.03022,0.02296,-0.0787
13.1,1.7455,0.03062,0.0234,-0.0779
13.2,1.7492,0.03104,0.02387,-0.0771
13.3,1.7527,0.03147,0.02434,-0.0764
13.4,1.7559,0.03192,0.02483,-0.0756
13.5,1.7588,0.0324,0.02534,-0.0748
13.6,1.7613,0.03291,0.02589,-0.074
13.7,1.7635,0.03346,0.02647,-0.0732
13.8,1.7664,0.03395,0.02701,-0.0725
13.9,1.7698,0.03442,0.02754,-0.0719
14,1.7729,0.03491,0.02809,-0.0713
14.1,1.7765,0.03536,0.02858,-0.0707
14.2,1.7791,0.03589,0.02917,-0.0701
14.3,1.7815,0.03645,0.02978,-0.0695
14.4,1.7837,0.03703,0.0304,-0.069
14.5,1.7857,0.03764,0.03106,-0.0684
14.6,1.7875,0.03827,0.03173,-0.0679
14.7,1.789,0.03894,0.03245,-0.0674
14.8,1.7902,0.03965,0.03319,-0.067
14.9,1.7911,0.0404,0.03398,-0.0666
15,1.7914,0.04121,0.03484,-0.0663
15.1,1.7937,0.04186,0.03556,-0.066
15.2,1.7956,0.04256,0.03632,-0.0657
15.3,1.7971,0.04329,0.03712,-0.0655
15.4,1.7985,0.04405,0.03794,-0.0654
15.5,1.7996,0.04485,0.03882,-0.0653
15.6,1.8007,0.04567,0.03971,-0.0652
15.7,1.8016,0.04652,0.04062,-0.0652
15.8,1.8023,0.04741,0.04157,-0.0653
15.9,1.8029,0.04834,0.04255,-0.0655
16,1.8033,0.04931,0.04358,-0.0658
16.1,1.8035,0.05032,0.04464,-0.0661
16.2,1.8034,0.05138,0.04576,-0.0666
16.3,1.8031,0.0525,0.04694,-0.0671
16.4,1.8023,0.05371,0.0482,-0.0678
16.5,1.8016,0.05493,0.04948,-0.0686
16.6,1.8044,0.0557,0.05032,-0.0691
16.7,1.8044,0.05687,0.05156,-0.07
16.8,1.8043,0.05809,0.05286,-0.071
16.9,1.804,0.05937,0.0542,-0.0721
17,1.8036,0.06071,0.05562,-0.0733
17.1,1.8031,0.06213,0.0571,-0.0748
17.2,1.8024,0.06362,0.05867,-0.0763
17.3,1.8016,0.0652,0.06032,-0.0781
17.4,1.8004,0.06691,0.0621,-0.0801
17.5,1.7991,0.06873,0.064,-0.0823
17.6,1.7973,0.07072,0.06607,-0.0847
17.7,1.7952,0.0729,0.06833,-0.0875
17.8,1.794,0.07495,0.07049,-0.0901
17.9,1.7923,0.07716,0.07281,-0.0929
18,1.7902,0.0796,0.07534,-0.096
18.1,1.7876,0.08225,0.07811,-0.0994
18.2,1.7843,0.08523,0.0812,-0.1032
18.3,1.7803,0.08852,0.0846,-0.1073
18.4,1.7753,0.09221,0.08842,-0.1118
18.5,1.7693,0.09638,0.09272,-0.1168
18.6,1.7623,0.10097,0.09744,-0.1221
18.7,1.7545,0.10586,0.10246,-0.1275
18.8,1.7464,0.11074,0.10748,-0.1328
18.9,1.7381,0.11555,0.1124,-0.1381
19,1.7303,0.12011,0.11707,-0.1431
19.1,1.7228,0.12447,0.12152,-0.1478
19.2,1.7159,0.12857,0.12571,-0.1524
19.3,1.7097,0.13239,0.12962,-0.1567
19.4,1.7031,0.13633,0.13364,-0.161
19.5,1.6976,0.13995,0.13734,-0.1651
19.6,1.6922,0.14359,0.14104,-0.1692
19.7,1.6872,0.14718,0.14471,-0.1732
19.8,1.6826,0.15072,0.14832,-0.1771
19.9,1.6782,0.15433,0.15199,-0.181
20,1.6741,0.15803,0.15575,-0.185
20.1,1.6706,0.16157,0.15935,-0.1886
20.2,1.6665,0.16556,0.1634,-0.1926
20.3,1.6639,0.16906,0.16694,-0.1961
20.4,1.6601,0.17323,0.17117,-0.2
20.5,1.6578,0.17681,0.1748,-0.2034
20.6,1.656,0.18029,0.1783,-0.2067
20.7,1.6537,0.18415,0.1822,-0.2103
20.8,1.6534,0.18692,0.18499,-0.2129
20.9,1.6542,0.18915,0.18721,-0.2152
21,1.6527,0.19277,0.19087,-0.2184
21.1,1.6483,0.19831,0.19648,-0.2229
21.2,1.6363,0.20955,0.20784,-0.2311
21.3,1.6279,0.2202,0.21854,-0.2385
21.4,1.6298,0.22237,0.22072,-0.2405
21.5,1.6323,0.22396,0.22231,-0.2422
21.6,1.6351,0.22532,0.22368,-0.2437
21.7,1.6381,0.22647,0.22483,-0.2451
21.8,1.6413,0.22733,0.2257,-0.2463
21.9,1.6447,0.22802,0.22639,-0.2474
22,1.6481,0.2287,0.22708,-0.2486
22.1,1.6518,0.22911,0.22748,-0.2495
22.2,1.6552,0.22968,0.22804,-0.2506
22.3,1.6586,0.23021,0.22857,-0.2516
23.3,1.6728,0.26009,0.25854,-0.2762
23.4,1.6756,0.26111,0.25957,-0.2776
23.5,1.6784,0.262,0.26046,-0.279
23.6,1.6812,0.26293,0.2614,-0.2803
23.7,1.684,0.26372,0.26219,-0.2816
23.8,1.6868,0.26443,0.26291,-0.2829

