airfoilName st15.dat
Re 	470000
M 	0
N 	4.500000e+00
VACC 	0 VACCflag 1
XTR 	1.00 	1.00 XTRflag 0
alpha,cl,cd,cdp,cm
-7.5,-0.2743,0.01959,0.01541,-0.1177
-7.4,-0.2614,0.01874,0.01444,-0.1186
-7.3,-0.2486,0.01806,0.01366,-0.1193
-7.2,-0.2371,0.01752,0.01302,-0.1197
-7.1,-0.2258,0.01703,0.01245,-0.12
-7,-0.2143,0.01659,0.01193,-0.1203
-6.9,-0.2025,0.01616,0.01143,-0.1206
-6.8,-0.1905,0.01576,0.01095,-0.1209
-6.7,-0.1784,0.01538,0.01049,-0.1213
-6.6,-0.1658,0.01501,0.01003,-0.1216
-6.5,-0.1542,0.01467,0.00961,-0.1218
-6.4,-0.1432,0.01435,0.00921,-0.1218
-6.3,-0.1317,0.01405,0.00884,-0.122
-6.2,-0.12,0.01376,0.00848,-0.1222
-6.1,-0.1083,0.01349,0.00813,-0.1223
-6,-0.0964,0.01324,0.00781,-0.1225
-5.9,-0.0846,0.01304,0.00753,-0.1226
-5.8,-0.0731,0.01276,0.00722,-0.1227
-5.7,-0.0617,0.01249,0.00691,-0.1228
-5.6,-0.0504,0.01228,0.00667,-0.1228
-5.5,-0.0388,0.0121,0.00646,-0.1229
-5.3,-0.0159,0.01196,0.00629,-0.1229
-5.2,-0.0042,0.01179,0.00607,-0.123
-5.1,0.007,0.01162,0.00586,-0.123
-5,0.0185,0.01146,0.00565,-0.123
-4.9,0.03,0.01131,0.00545,-0.1231
-4.8,0.0414,0.01119,0.00528,-0.123
-4.7,0.053,0.01099,0.00506,-0.1231
-4.6,0.0646,0.01082,0.00487,-0.1231
-4.5,0.0759,0.01069,0.00472,-0.1231
-4.4,0.0874,0.01058,0.00459,-0.1231
-4.3,0.0989,0.01047,0.00446,-0.1232
-4.2,0.1103,0.01037,0.00433,-0.1231
-4.1,0.1218,0.01027,0.00419,-0.1231
-4,0.1333,0.01018,0.00406,-0.1231
-3.9,0.1446,0.01009,0.00393,-0.1231
-3.8,0.1561,0.00999,0.00381,-0.1231
-3.7,0.1675,0.00991,0.00377,-0.1231
-3.6,0.179,0.00983,0.00366,-0.1231
-3.5,0.1903,0.00975,0.00356,-0.1231
-3.4,0.2019,0.00967,0.00346,-0.1231
-3.3,0.2134,0.0096,0.00336,-0.1231
-3.2,0.2249,0.00954,0.00326,-0.1231
-3.1,0.2362,0.00945,0.00316,-0.123
-3,0.2478,0.00936,0.00306,-0.123
-2.9,0.2592,0.00932,0.00304,-0.1231
-2.8,0.2707,0.00926,0.00296,-0.1231
-2.7,0.2821,0.00921,0.00287,-0.123
-2.6,0.2935,0.00916,0.00279,-0.123
-2.5,0.3051,0.0091,0.00273,-0.123
-2.4,0.3161,0.00904,0.00264,-0.1229
-2.3,0.3275,0.009,0.00259,-0.1228
-2.2,0.3387,0.00896,0.00253,-0.1227
-2.1,0.3498,0.00895,0.00248,-0.1226
-2,0.3613,0.00892,0.00242,-0.1226
-1.9,0.3725,0.00887,0.00236,-0.1225
-1.8,0.3839,0.00884,0.00232,-0.1225
-1.7,0.3953,0.00881,0.00228,-0.1225
-1.5,0.4178,0.00878,0.00219,-0.1224
-1.4,0.4293,0.00876,0.00215,-0.1224
-1.3,0.4407,0.00873,0.00213,-0.1224
-1.2,0.4519,0.00872,0.0021,-0.1223
-1.1,0.4631,0.00872,0.00206,-0.1222
-1,0.4741,0.00873,0.00203,-0.1221
-0.9,0.4855,0.00872,0.002,-0.1221
-0.8,0.4968,0.00871,0.00199,-0.122
-0.7,0.5082,0.00871,0.00198,-0.122
-0.6,0.5193,0.00873,0.00196,-0.1219
-0.5,0.5302,0.00875,0.00194,-0.1218
-0.4,0.5415,0.00876,0.00193,-0.1218
-0.3,0.5528,0.00876,0.00192,-0.1218
-0.2,0.564,0.00878,0.00192,-0.1217
0,0.586,0.00885,0.00191,-0.1215
0.2,0.6076,0.00896,0.00191,-0.1213
0.3,0.6186,0.009,0.00192,-0.1212
0.4,0.6293,0.00907,0.00193,-0.121
0.5,0.6403,0.00911,0.00194,-0.121
0.6,0.6512,0.00916,0.00196,-0.1209
0.7,0.6619,0.00924,0.00199,-0.1208

