airfoilName st16.dat
Re 	610000
M 	0
N 	4.500000e+00
VACC 	0 VACCflag 1
XTR 	1.00 	1.00 XTRflag 0
alpha,cl,cd,cdp,cm
-7.4,-0.2452,0.01756,0.0136,-0.1245
-7.3,-0.233,0.01675,0.01267,-0.1252
-7.2,-0.221,0.01612,0.01194,-0.1257
-7.1,-0.2089,0.01558,0.0113,-0.1262
-7,-0.197,0.01511,0.01073,-0.1266
-6.9,-0.185,0.01468,0.01021,-0.1269
-6.8,-0.1738,0.01429,0.00974,-0.1271
-6.7,-0.1624,0.01393,0.0093,-0.1272
-6.6,-0.1509,0.0136,0.00888,-0.1274
-6.5,-0.1394,0.01329,0.0085,-0.1275
-6.4,-0.1279,0.01301,0.00815,-0.1277
-6.3,-0.1165,0.01276,0.00782,-0.1277
-6.2,-0.1051,0.01255,0.00755,-0.1278
-6.1,-0.0938,0.01236,0.0073,-0.1278
-6,-0.0822,0.01202,0.00692,-0.128
-5.9,-0.0707,0.01171,0.00655,-0.1281
-5.8,-0.0592,0.01148,0.00628,-0.1282
-5.7,-0.0476,0.0113,0.00606,-0.1283
-5.6,-0.0363,0.01113,0.00586,-0.1283
-5.5,-0.0248,0.01097,0.00567,-0.1284
-5.4,-0.0135,0.01083,0.00548,-0.1284
-5.3,-0.002,0.01068,0.00529,-0.1284
-5.2,0.0095,0.01054,0.00512,-0.1285
-5.1,0.0208,0.01041,0.00494,-0.1284
-5,0.0323,0.01028,0.00477,-0.1285
-4.9,0.0437,0.01016,0.00461,-0.1284
-4.8,0.0552,0.01005,0.00446,-0.1285
-4.7,0.0667,0.00994,0.00433,-0.1285
-4.6,0.0781,0.00978,0.00414,-0.1285
-4.5,0.0896,0.00966,0.004,-0.1285
-4.4,0.101,0.00956,0.00389,-0.1286
-4.3,0.1123,0.00947,0.00378,-0.1285
-4.2,0.1239,0.00938,0.00366,-0.1286
-4.1,0.1354,0.0093,0.00355,-0.1286
-4,0.1467,0.00922,0.00344,-0.1286
-3.9,0.1582,0.00915,0.00334,-0.1286
-3.8,0.1696,0.00909,0.00325,-0.1285
-3.7,0.1811,0.00898,0.00313,-0.1286
-3.6,0.1925,0.00894,0.00312,-0.1286
-3.5,0.204,0.00887,0.00303,-0.1286
-3.4,0.2155,0.00881,0.00295,-0.1286
-3.3,0.2267,0.00875,0.00286,-0.1285
-3.2,0.2383,0.00869,0.0028,-0.1286
-3.1,0.2498,0.00861,0.00271,-0.1286
-3,0.2612,0.00855,0.00264,-0.1286
-2.9,0.2727,0.0085,0.00257,-0.1286
-2.8,0.2841,0.00846,0.0025,-0.1286
-2.7,0.2957,0.00841,0.00244,-0.1286
-2.6,0.3071,0.00837,0.00237,-0.1286
-2.5,0.3186,0.00831,0.0023,-0.1286
-2.4,0.3298,0.00827,0.00224,-0.1285
-2.3,0.3411,0.00823,0.00221,-0.1285
-2.2,0.3523,0.00821,0.00215,-0.1284
-2.1,0.3634,0.00819,0.00209,-0.1283
-2,0.3749,0.00817,0.00204,-0.1283
-1.9,0.3863,0.00813,0.00199,-0.1283
-1.8,0.3974,0.00812,0.00194,-0.1282
-1.7,0.4086,0.00811,0.00191,-0.1281
-1.6,0.4201,0.00808,0.00188,-0.1282
-1.5,0.4315,0.00806,0.00184,-0.1282
-1.4,0.4426,0.00807,0.00181,-0.1281
-1.3,0.454,0.00804,0.00179,-0.1281
-1.2,0.4654,0.00803,0.00176,-0.1281
-1.1,0.4767,0.00803,0.00174,-0.128
-1,0.4881,0.00802,0.00171,-0.128
-0.9,0.4994,0.00802,0.00169,-0.128
-0.8,0.5104,0.00803,0.00168,-0.1279
-0.7,0.5213,0.00807,0.00167,-0.1278
-0.6,0.5326,0.00808,0.00165,-0.1277
-0.5,0.5439,0.00809,0.00164,-0.1277
-0.4,0.5552,0.00809,0.00163,-0.1277
-0.3,0.566,0.00814,0.00163,-0.1276
-0.2,0.5769,0.00818,0.00163,-0.1275
0,0.5992,0.00822,0.00163,-0.1274
0.1,0.6103,0.00825,0.00163,-0.1273
0.2,0.6214,0.00829,0.00164,-0.1273
0.3,0.6316,0.00841,0.00165,-0.127
0.4,0.6419,0.00853,0.00167,-0.1268
0.5,0.6528,0.00857,0.00171,-0.1268
0.6,0.6638,0.00863,0.00172,-0.1267
0.7,0.6747,0.00868,0.00174,-0.1266
0.8,0.6853,0.00877,0.00177,-0.1265
0.9,0.6962,0.00883,0.0018,-0.1265
1,0.7059,0.00903,0.00187,-0.1262
1.1,0.7167,0.00911,0.0019,-0.1261
1.2,0.7275,0.00917,0.00194,-0.126
1.3,0.7383,0.00925,0.00197,-0.1259
1.4,0.749,0.00934,0.00201,-0.1259
1.5,0.7596,0.00943,0.00205,-0.1258
1.6,0.7703,0.00952,0.0021,-0.1257
1.7,0.7799,0.00974,0.00219,-0.1254
1.8,0.7903,0.00986,0.00224,-0.1253
1.9,0.8007,0.00998,0.00231,-0.1252
2,0.811,0.01011,0.00238,-0.1251
2.1,0.8212,0.01027,0.00245,-0.1249
2.2,0.8314,0.01042,0.00253,-0.1248
2.3,0.8415,0.01059,0.00261,-0.1246
2.4,0.8506,0.0109,0.00274,-0.1243
2.5,0.861,0.01102,0.00282,-0.1242
2.6,0.8715,0.01113,0.00288,-0.1242
2.7,0.8823,0.0112,0.00295,-0.1241
2.8,0.8929,0.01129,0.00301,-0.124
2.9,0.9037,0.01135,0.00309,-0.124
3,0.9145,0.01141,0.00314,-0.1239
3.1,0.9252,0.01146,0.00323,-0.1239
3.3,0.94,0.01027,0.00344,-0.1226
3.4,0.9506,0.01038,0.00351,-0.1225
3.5,0.9615,0.01045,0.00357,-0.1224
3.6,0.9723,0.01053,0.00362,-0.1224
3.7,0.983,0.01063,0.00369,-0.1223
3.8,0.9936,0.01073,0.00376,-0.1222
3.9,1.0044,0.0108,0.00382,-0.1221
4,1.0149,0.01092,0.00389,-0.122
4.1,1.0255,0.01102,0.00396,-0.1219
4.2,1.0363,0.0111,0.00403,-0.1218
4.3,1.047,0.01118,0.00412,-0.1218
4.4,1.0577,0.01127,0.00419,-0.1217
4.5,1.0682,0.01136,0.00426,-0.1216
4.6,1.0788,0.01146,0.00434,-0.1215
4.7,1.0893,0.01156,0.00441,-0.1214
4.8,1.0999,0.01166,0.00449,-0.1213
4.9,1.1103,0.01176,0.00457,-0.1212
5,1.1208,0.01186,0.00466,-0.121
5.1,1.1314,0.01194,0.00474,-0.121
5.2,1.142,0.01203,0.00481,-0.1209
5.3,1.1524,0.01213,0.0049,-0.1207
5.4,1.1628,0.01224,0.00498,-0.1206
5.5,1.173,0.01236,0.0051,-0.1205
5.6,1.1835,0.01245,0.00519,-0.1204
5.7,1.1939,0.01255,0.00527,-0.1202
5.8,1.2042,0.01266,0.00537,-0.1201
5.9,1.2144,0.01279,0.00547,-0.12
6,1.2248,0.01288,0.00557,-0.1198
6.1,1.2351,0.01298,0.00566,-0.1197
6.2,1.2451,0.01311,0.00576,-0.1195
6.3,1.2552,0.01324,0.00587,-0.1194
6.4,1.2654,0.01335,0.00598,-0.1192
6.5,1.2756,0.01345,0.00609,-0.1191
6.6,1.2858,0.01356,0.0062,-0.1189
6.7,1.296,0.01367,0.00631,-0.1188
6.8,1.306,0.0138,0.00643,-0.1186
6.9,1.3158,0.01394,0.00655,-0.1184
7,1.3259,0.01405,0.00667,-0.1183
7.1,1.336,0.01416,0.00678,-0.1181
7.2,1.3457,0.0143,0.0069,-0.1179
7.3,1.3555,0.01444,0.00703,-0.1177
7.4,1.3652,0.01459,0.00716,-0.1175
7.5,1.3751,0.01471,0.00729,-0.1173
7.6,1.385,0.01483,0.00742,-0.1171
7.7,1.3949,0.01496,0.00755,-0.1169
7.8,1.4043,0.01513,0.0077,-0.1167
7.9,1.4138,0.01529,0.00784,-0.1164
8,1.4234,0.01542,0.00799,-0.1162
8.1,1.4331,0.01555,0.00813,-0.116
8.2,1.4427,0.01569,0.00827,-0.1158
8.3,1.4523,0.01583,0.00841,-0.1155
8.4,1.4617,0.01598,0.00856,-0.1153
8.5,1.471,0.01615,0.00872,-0.115
8.6,1.4801,0.01633,0.0089,-0.1147
8.7,1.4896,0.01646,0.00905,-0.1145
8.8,1.499,0.0166,0.0092,-0.1142
8.9,1.5083,0.01675,0.00936,-0.114
9.1,1.5262,0.01712,0.00972,-0.1133
9.2,1.5351,0.01731,0.0099,-0.113
9.3,1.5442,0.01747,0.01008,-0.1127
9.4,1.5533,0.01762,0.01025,-0.1124
9.5,1.5623,0.01778,0.01043,-0.1121
9.6,1.5711,0.01795,0.01061,-0.1118
9.7,1.5799,0.01813,0.01079,-0.1114
9.8,1.5886,0.01832,0.01098,-0.1111
9.9,1.5971,0.01852,0.01119,-0.1107
10,1.6054,0.01873,0.0114,-0.1103
10.1,1.6138,0.01893,0.01162,-0.1099
10.2,1.6224,0.0191,0.0118,-0.1095
10.3,1.6306,0.01929,0.01201,-0.1091
10.4,1.6384,0.01954,0.01223,-0.1087
10.5,1.6463,0.01977,0.01246,-0.1082
10.6,1.6542,0.02,0.01269,-0.1077
10.7,1.6623,0.02018,0.01291,-0.1073
10.8,1.6703,0.02037,0.01313,-0.1068
10.9,1.6782,0.02057,0.01334,-0.1063
11,1.6859,0.02077,0.01357,-0.1058
11.1,1.6934,0.02098,0.0138,-0.1053
11.2,1.7008,0.0212,0.01403,-0.1048
11.3,1.7079,0.02143,0.01428,-0.1042
11.4,1.7149,0.02168,0.01453,-0.1036
11.5,1.7215,0.02193,0.01479,-0.1029
11.6,1.728,0.02219,0.01507,-0.1022
11.7,1.7346,0.02242,0.01532,-0.1016
11.8,1.7412,0.02264,0.01559,-0.1009
11.9,1.7474,0.02287,0.01584,-0.1002
12,1.7529,0.0231,0.0161,-0.0993
12.1,1.7582,0.02335,0.01638,-0.0984
12.2,1.7633,0.02361,0.01666,-0.0975
12.3,1.7683,0.02389,0.01695,-0.0966
12.4,1.773,0.02418,0.01726,-0.0956
12.5,1.7777,0.02448,0.01759,-0.0947
12.6,1.7821,0.02481,0.01793,-0.0938
12.7,1.7867,0.02512,0.01828,-0.0928
12.8,1.7916,0.0254,0.01859,-0.092
12.9,1.7964,0.0257,0.01892,-0.0911
13,1.801,0.026,0.01926,-0.0902
13.1,1.8051,0.02635,0.01961,-0.0894
13.2,1.8092,0.0267,0.01998,-0.0885
13.3,1.8131,0.02706,0.02037,-0.0876
13.4,1.8167,0.02745,0.02078,-0.0867
13.5,1.8201,0.02785,0.02121,-0.0857
13.6,1.8236,0.02825,0.02165,-0.0848
13.7,1.8275,0.02862,0.02205,-0.084
13.8,1.8311,0.02901,0.02249,-0.0832
13.9,1.8346,0.02941,0.02293,-0.0823
14,1.8379,0.02983,0.02338,-0.0815
14.1,1.8409,0.03027,0.02386,-0.0806
14.2,1.8437,0.03073,0.02435,-0.0798
14.3,1.8462,0.03121,0.02486,-0.079
14.4,1.8485,0.03173,0.02541,-0.0781
14.5,1.8504,0.03227,0.02598,-0.0773
14.6,1.8524,0.03282,0.02658,-0.0765
14.7,1.8548,0.03334,0.02714,-0.0758
14.8,1.8569,0.03388,0.02773,-0.0751
14.9,1.8589,0.03444,0.02833,-0.0744
15,1.8606,0.03503,0.02896,-0.0737
15.1,1.8622,0.03564,0.02961,-0.073
15.2,1.8635,0.03627,0.03029,-0.0724
15.3,1.8647,0.03694,0.03099,-0.0718
15.4,1.8656,0.03764,0.03173,-0.0712
15.5,1.8663,0.03837,0.0325,-0.0707
15.6,1.8668,0.03914,0.03331,-0.0702
15.7,1.867,0.03994,0.03416,-0.0698
15.8,1.8675,0.04073,0.03502,-0.0694
15.9,1.868,0.04152,0.03586,-0.0691
16,1.8684,0.04235,0.03673,-0.0688
16.1,1.8687,0.04319,0.03763,-0.0686
16.2,1.8687,0.04408,0.03858,-0.0684
16.3,1.8687,0.045,0.03955,-0.0684
16.4,1.8686,0.04594,0.04056,-0.0684
16.5,1.8682,0.04693,0.04161,-0.0684
16.6,1.8678,0.04795,0.04268,-0.0686
16.7,1.8672,0.04901,0.0438,-0.0688
16.8,1.8664,0.05011,0.04496,-0.0691
16.9,1.8654,0.05126,0.04617,-0.0696
17,1.8643,0.05244,0.04741,-0.0701
17.1,1.863,0.05367,0.04871,-0.0707
17.2,1.8614,0.05497,0.05007,-0.0715
17.3,1.8599,0.05631,0.05148,-0.0724
17.4,1.8581,0.05774,0.05297,-0.0735
17.5,1.8563,0.05922,0.05452,-0.0747
17.6,1.8543,0.0608,0.05617,-0.0761
17.7,1.8524,0.06244,0.05789,-0.0777
17.8,1.8502,0.06421,0.05973,-0.0795
17.9,1.8477,0.06611,0.06172,-0.0816
18,1.845,0.06816,0.06385,-0.0839
18.1,1.8422,0.07033,0.0661,-0.0864
18.2,1.8393,0.07265,0.06851,-0.0891
18.3,1.8362,0.07513,0.0711,-0.0921
18.4,1.8327,0.07783,0.07389,-0.0954
18.5,1.8284,0.08088,0.07705,-0.0992
18.6,1.8231,0.08436,0.08064,-0.1034
18.7,1.8164,0.08846,0.08487,-0.1082
18.8,1.8076,0.09349,0.09005,-0.1141
18.9,1.7955,0.09986,0.09659,-0.1211
19,1.7779,0.10843,0.10537,-0.1299
19.1,1.7623,0.11592,0.11303,-0.1374
19.2,1.7456,0.12353,0.1208,-0.145
19.4,1.7174,0.13648,0.13402,-0.1583
19.5,1.7064,0.14177,0.13942,-0.164
19.6,1.6955,0.14703,0.14477,-0.1697
19.7,1.6854,0.15216,0.14998,-0.1753
19.8,1.6784,0.15638,0.15428,-0.1801
19.9,1.6715,0.16088,0.15885,-0.1849
20,1.6671,0.1646,0.16263,-0.1888
20.1,1.6615,0.16913,0.16722,-0.1933
20.2,1.6589,0.17249,0.17063,-0.1967
20.3,1.6545,0.17689,0.17509,-0.2008
20.4,1.6524,0.18037,0.17861,-0.2042
20.5,1.6509,0.18361,0.18189,-0.2072
20.6,1.6478,0.18786,0.18619,-0.211
20.7,1.6466,0.19119,0.18955,-0.214
20.8,1.646,0.1942,0.19259,-0.2168
20.9,1.6454,0.19731,0.19573,-0.2196
21,1.6436,0.20124,0.19971,-0.223
21.1,1.6436,0.20414,0.20262,-0.2256
21.2,1.6442,0.20671,0.2052,-0.228
21.3,1.6451,0.20912,0.20764,-0.2302
21.4,1.6461,0.21155,0.2101,-0.2324
21.5,1.6463,0.21455,0.21313,-0.2349
21.6,1.6463,0.21777,0.21639,-0.2376
21.7,1.6474,0.22027,0.21892,-0.2399
21.8,1.6486,0.22265,0.22132,-0.242
21.9,1.6499,0.22507,0.22376,-0.2442
22,1.6511,0.22755,0.22626,-0.2464
22.1,1.6523,0.23011,0.22885,-0.2486
22.2,1.6523,0.23374,0.23251,-0.2515
22.3,1.6533,0.23659,0.23539,-0.2539
22.4,1.6548,0.23909,0.23791,-0.2561
22.5,1.6562,0.24162,0.24046,-0.2584
22.6,1.6576,0.24429,0.24314,-0.2607
22.7,1.6589,0.24705,0.24593,-0.263
22.8,1.6594,0.25101,0.24991,-0.2661
22.9,1.6609,0.25381,0.25273,-0.2684
23,1.6628,0.25614,0.25507,-0.2705
23.1,1.6648,0.25836,0.2573,-0.2725
23.2,1.667,0.26033,0.25927,-0.2744
23.3,1.6692,0.26231,0.26128,-0.2763
23.4,1.6716,0.26397,0.26294,-0.278
23.5,1.674,0.26574,0.26472,-0.2798
23.6,1.6764,0.26733,0.26631,-0.2815
23.7,1.6789,0.2687,0.26768,-0.2831
23.8,1.6815,0.27004,0.26903,-0.2847
23.9,1.6839,0.27141,0.2704,-0.2863
24.1,1.69,0.27183,0.2708,-0.2883
24.2,1.6915,0.27463,0.27361,-0.2907

