airfoilName st16.dat
Re 	1.700000e+05
M 	0
N 	4.500000e+00
VACC 	0 VACCflag 1
XTR 	1.00 	1.00 XTRflag 0
alpha,cl,cd,cdp,cm
-30,-1.4092,0.47236,0.46903,0.2763
-29.9,-1.4065,0.47006,0.46672,0.2744
-29.8,-1.4037,0.46775,0.46442,0.2724
-29.7,-1.4009,0.46545,0.46211,0.2705
-29.6,-1.3981,0.46317,0.45982,0.2686
-29.5,-1.3952,0.46089,0.45753,0.2667
-29.4,-1.3924,0.45863,0.45526,0.2648
-29.3,-1.3895,0.45635,0.45298,0.2629
-29.2,-1.3866,0.45411,0.45072,0.2611
-29.1,-1.3837,0.45185,0.44846,0.2592
-29,-1.3808,0.44962,0.44622,0.2573
-28.9,-1.3778,0.44738,0.44398,0.2554
-28.8,-1.3749,0.44517,0.44176,0.2535
-28.7,-1.3719,0.44294,0.43953,0.2517
-28.6,-1.3689,0.44074,0.43732,0.2498
-28.5,-1.3659,0.43856,0.43513,0.2479
-28.4,-1.3629,0.43638,0.43294,0.2461
-28.3,-1.3598,0.43421,0.43077,0.2442
-28.2,-1.3567,0.43204,0.4286,0.2424
-28.1,-1.3537,0.42988,0.42643,0.2405
-28,-1.3505,0.42774,0.42429,0.2387
-27.9,-1.3474,0.42561,0.42215,0.2368
-27.8,-1.3443,0.42349,0.42002,0.235
-27.7,-1.3411,0.42138,0.4179,0.2331
-27.6,-1.3379,0.41928,0.4158,0.2313
-27.5,-1.3347,0.41719,0.41371,0.2294
-27.4,-1.3315,0.41513,0.41164,0.2276
-27.3,-1.3282,0.41306,0.40957,0.2257
-27.2,-1.3249,0.41101,0.40751,0.2239
-27.1,-1.3216,0.40898,0.40547,0.222
-27,-1.3183,0.40695,0.40343,0.2202
-26.9,-1.315,0.40495,0.40142,0.2184
-26.8,-1.3116,0.40294,0.39941,0.2165
-26.7,-1.3082,0.40096,0.39742,0.2147
-26.6,-1.3041,0.40004,0.3965,0.2123
-26.5,-1.3005,0.3981,0.39456,0.2104
-26.4,-1.2969,0.39619,0.39264,0.2085
-26.3,-1.2933,0.39428,0.39072,0.2066
-26.2,-1.2896,0.39241,0.38886,0.2047
-26.1,-1.2859,0.39051,0.38695,0.2028
-26,-1.2821,0.38867,0.3851,0.2008
-25.8,-1.2741,0.38498,0.38141,0.1967
-25.7,-1.27,0.38312,0.37955,0.1946
-25.6,-1.2656,0.38119,0.37761,0.1924
-25.2,-1.2432,0.37063,0.36708,0.1826
-25.1,-1.2401,0.36846,0.3649,0.181
-25,-1.2369,0.36628,0.36272,0.1795
-24.9,-1.2337,0.36413,0.36056,0.1779
-24.8,-1.2305,0.36198,0.35841,0.1763
-24.7,-1.2272,0.35985,0.35627,0.1748
-24.6,-1.224,0.35773,0.35414,0.1732
-24.5,-1.2207,0.35562,0.35203,0.1717
-24.4,-1.2174,0.35352,0.34993,0.1701
-24.3,-1.214,0.35144,0.34783,0.1685
-24.2,-1.2107,0.34937,0.34575,0.167
-24.1,-1.2073,0.3473,0.34368,0.1654
-24,-1.2039,0.34525,0.34162,0.1639
-23.9,-1.2005,0.3432,0.33957,0.1624
-23.8,-1.197,0.34117,0.33753,0.1608
-23.7,-1.1935,0.33914,0.3355,0.1593
-23.6,-1.1901,0.33713,0.33349,0.1578
-23.5,-1.1866,0.33512,0.33147,0.1562
-23.4,-1.183,0.33312,0.32947,0.1547
-23.3,-1.1795,0.33112,0.32747,0.1532
-23.2,-1.176,0.32914,0.32548,0.1517
-23.1,-1.1724,0.32717,0.3235,0.1501
-23,-1.1688,0.3252,0.32153,0.1486
-22.9,-1.1652,0.32324,0.31956,0.1471
-22.8,-1.1616,0.32128,0.31761,0.1456
-22.7,-1.1579,0.31933,0.31565,0.1441
-22.6,-1.1543,0.31739,0.3137,0.1427
-22.5,-1.1506,0.31545,0.31176,0.1412
-22.4,-1.1469,0.31352,0.30982,0.1397
-22.3,-1.1432,0.31159,0.30789,0.1382
-22.2,-1.1395,0.30966,0.30596,0.1368
-22.1,-1.1358,0.30775,0.30404,0.1353
-22,-1.1321,0.30583,0.30213,0.1338
-21.9,-1.1284,0.30393,0.30021,0.1324
-21.8,-1.1247,0.30202,0.29829,0.131
-21.7,-1.1209,0.30012,0.29638,0.1295
-21.6,-1.1171,0.29823,0.29449,0.1281
-21.5,-1.1134,0.29634,0.29259,0.1267
-21.4,-1.1096,0.29445,0.29071,0.1253
-21.3,-1.1058,0.29258,0.28883,0.1238
-21.2,-1.102,0.2907,0.28695,0.1224
-21.1,-1.0982,0.28883,0.28507,0.121
-21,-1.0944,0.28696,0.2832,0.1196
-20.9,-1.0905,0.2851,0.28134,0.1183
-20.8,-1.0867,0.28324,0.27947,0.1169
-20.7,-1.0828,0.2814,0.27762,0.1155
-20.6,-1.0789,0.27955,0.27577,0.1141
-20.5,-1.075,0.2777,0.27392,0.1127
-20.4,-1.0711,0.27585,0.27206,0.1114
-20.2,-1.0627,0.27255,0.26876,0.1084
-20.1,-1.0587,0.2707,0.26691,0.107
-20,-1.0547,0.26885,0.26506,0.1057
-19.9,-1.0507,0.26701,0.26321,0.1043
-19.8,-1.0467,0.26516,0.26136,0.1029
-19.7,-1.0426,0.26332,0.25952,0.1016
-19.6,-1.0386,0.26148,0.25768,0.1002
-19.5,-1.0345,0.25966,0.25585,0.0988
-19.4,-1.0304,0.25782,0.25401,0.0975
-19.3,-1.0262,0.25598,0.25217,0.0961
-19.2,-1.0221,0.25415,0.25031,0.0947
-19.1,-1.0179,0.25231,0.24847,0.0934
-19,-1.0137,0.25046,0.24662,0.092
-18.9,-1.0094,0.24861,0.24477,0.0906
-18.8,-1.0052,0.24674,0.2429,0.0893
-18.7,-1.0009,0.24487,0.24102,0.0879
-18.6,-0.9965,0.24298,0.23914,0.0865
-18.5,-0.9922,0.24107,0.23722,0.0851
-18.4,-0.9877,0.23912,0.23527,0.0837
-18.3,-0.9832,0.23712,0.23327,0.0824
-18.2,-0.9786,0.23505,0.23119,0.0809
-18.1,-0.9635,0.22978,0.22596,0.0765
-18,-0.9601,0.22793,0.22411,0.0755
-17.9,-0.9567,0.22611,0.22228,0.0744
-17.8,-0.9533,0.2243,0.22047,0.0734
-17.7,-0.9498,0.22251,0.21868,0.0723
-17.6,-0.9463,0.22074,0.21691,0.0712
-17.5,-0.9428,0.21899,0.21515,0.0702
-17.4,-0.9392,0.21724,0.21341,0.0691
-17.3,-0.9355,0.21552,0.21168,0.068
-17.2,-0.9318,0.21381,0.20997,0.067
-17.1,-0.9281,0.21212,0.20828,0.0659
-17,-0.9244,0.21044,0.20659,0.0648
-16.9,-0.9206,0.20877,0.20492,0.0637
-16.8,-0.9168,0.20712,0.20327,0.0626
-16.7,-0.9129,0.20547,0.20162,0.0615
-16.6,-0.909,0.20384,0.19998,0.0605
-16.5,-0.9051,0.20221,0.19836,0.0594
-16.4,-0.9011,0.2006,0.19674,0.0583
-16.3,-0.8971,0.19899,0.19514,0.0572
-16.2,-0.8931,0.1974,0.19354,0.0561
-16.1,-0.8891,0.19581,0.19193,0.0551
-16,-0.885,0.19423,0.19035,0.054
-15.9,-0.8809,0.19266,0.18877,0.0529
-15.8,-0.8768,0.19109,0.18721,0.0518
-15.7,-0.8727,0.18953,0.18565,0.0507
-15.6,-0.8685,0.18799,0.1841,0.0497
-15.5,-0.8643,0.18644,0.18255,0.0486
-15.4,-0.8601,0.1849,0.18101,0.0475
-15.3,-0.8558,0.18336,0.17947,0.0464
-15.2,-0.8515,0.18183,0.17794,0.0454
-15.1,-0.8472,0.1803,0.17642,0.0443
-15,-0.8428,0.17878,0.1749,0.0432
-14.9,-0.8381,0.17759,0.1737,0.042
-14.8,-0.8337,0.17607,0.17218,0.0409
-14.7,-0.8293,0.17455,0.17066,0.0399
-14.6,-0.8249,0.17304,0.16916,0.0388
-14.5,-0.8204,0.17153,0.16764,0.0378
-14.4,-0.816,0.17003,0.16614,0.0367
-14.3,-0.8115,0.16853,0.16465,0.0357
-14.2,-0.807,0.16704,0.16316,0.0346
-14.1,-0.8025,0.16556,0.16167,0.0336
-14,-0.798,0.16407,0.16019,0.0325
-13.9,-0.7934,0.1626,0.15872,0.0315
-13.8,-0.7888,0.16112,0.15724,0.0304
-13.7,-0.7842,0.15965,0.15577,0.0294
-13.6,-0.7796,0.15818,0.1543,0.0283
-13.5,-0.7749,0.15671,0.15283,0.0273
-13.4,-0.7703,0.15525,0.15135,0.0263
-13.3,-0.7656,0.15379,0.1499,0.0252
-13.2,-0.7609,0.15234,0.14845,0.0242
-13.1,-0.7561,0.15088,0.14699,0.0232
-13,-0.7514,0.14943,0.14554,0.0221
-12.9,-0.7466,0.14798,0.14409,0.0211
-12.8,-0.7419,0.14653,0.14264,0.0201
-12.7,-0.737,0.14508,0.14119,0.019
-12.6,-0.7322,0.14363,0.13975,0.018
-12.5,-0.7273,0.14218,0.1383,0.017
-12.4,-0.7224,0.14072,0.13685,0.0159
-12.3,-0.7175,0.13927,0.13539,0.0149
-12.2,-0.7126,0.1378,0.13393,0.0139
-12.1,-0.7076,0.13632,0.13245,0.0128
-12,-0.7026,0.13484,0.13097,0.0118
-11.9,-0.6976,0.13333,0.12947,0.0107
-11.8,-0.6925,0.1318,0.12794,0.0096
-11.7,-0.6874,0.13023,0.12637,0.0085
-11.6,-0.6821,0.1286,0.12475,0.0074
-11.5,-0.6767,0.12688,0.12302,0.0062
-11.3,-0.6599,0.12125,0.11744,0.0013
-11.2,-0.656,0.11997,0.11616,0.0006
-11.1,-0.6519,0.11872,0.11491,-0.0001
-11,-0.6478,0.1175,0.1137,-0.0009
-10.9,-0.6437,0.11631,0.11251,-0.0016
-10.8,-0.6395,0.11514,0.11135,-0.0023
-10.7,-0.6354,0.114,0.11021,-0.0031
-10.6,-0.6312,0.11287,0.1091,-0.0038
-10.5,-0.627,0.11177,0.108,-0.0045
-10.4,-0.6229,0.11068,0.10692,-0.0052
-10.3,-0.6189,0.10962,0.10585,-0.0058
-10.2,-0.615,0.10859,0.10482,-0.0065
-10.1,-0.6113,0.10758,0.10383,-0.0071
-10,-0.6077,0.1066,0.10286,-0.0076
-9.9,-0.6044,0.10565,0.10192,-0.008
-9.8,-0.6015,0.10474,0.10103,-0.0084
-9.7,-0.5991,0.10388,0.10018,-0.0086
-9.6,-0.5973,0.10308,0.0994,-0.0087
-9.5,-0.596,0.10233,0.09866,-0.0087
-9.4,-0.5952,0.10161,0.09797,-0.0086
-9.3,-0.5946,0.10092,0.0973,-0.0084
-9.2,-0.5938,0.10021,0.09661,-0.0083
-9.1,-0.5925,0.09944,0.09587,-0.0083
-9,-0.5913,0.0987,0.09515,-0.0083
-8.9,-0.5905,0.09799,0.09446,-0.0082
-8.7,-0.589,0.09697,0.09349,-0.0079
-8.5,-0.5794,0.09487,0.09141,-0.0098
-8.4,-0.568,0.09332,0.08984,-0.0122
-8.3,-0.5565,0.09176,0.08828,-0.0147
-6,-0.1734,0.03555,0.03088,-0.1017
-5.9,-0.1622,0.03574,0.03109,-0.102
-5.8,-0.1501,0.03577,0.03113,-0.1025
-5.7,-0.1363,0.03557,0.03091,-0.1035
-5.6,-0.1226,0.03521,0.03053,-0.1046
-5.4,-0.0962,0.03388,0.0291,-0.1067
-5.3,-0.082,0.03283,0.02797,-0.1081
-5.2,-0.0418,0.02149,0.01499,-0.119
-5.1,-0.0286,0.02062,0.01398,-0.1198
-5,-0.0162,0.02026,0.01362,-0.1202
-4.9,-0.0035,0.01998,0.01333,-0.1207
-4.8,0.01,0.01969,0.01301,-0.1213
-4.7,0.0232,0.01937,0.01264,-0.1219
-4.6,0.0366,0.01899,0.01218,-0.1225
-4.5,0.0509,0.01851,0.01159,-0.1232
-4.4,0.0648,0.01798,0.01092,-0.1239
-4.3,0.0787,0.01743,0.01017,-0.1245
-4.2,0.0891,0.01705,0.00963,-0.1244
-4,0.1119,0.0169,0.00956,-0.1246
-3.9,0.125,0.01665,0.00927,-0.125
-3.8,0.138,0.01638,0.00893,-0.1254
-3.7,0.1513,0.01607,0.00853,-0.1259
-3.6,0.1652,0.01573,0.00806,-0.1264
-3.5,0.1787,0.01544,0.00769,-0.1268
-3.4,0.1918,0.01521,0.00748,-0.1273
-3.3,0.2006,0.01509,0.00736,-0.1268
-3.1,0.2247,0.01493,0.00715,-0.1271
-3,0.2377,0.0147,0.00681,-0.1274
-2.9,0.2508,0.01448,0.00655,-0.1277
-2.8,0.2638,0.01429,0.00638,-0.1281
-2.7,0.2776,0.01414,0.00622,-0.1286
-2.6,0.2868,0.01405,0.00612,-0.1282
-2.5,0.2982,0.01393,0.00597,-0.1282
-2.4,0.3102,0.01391,0.00584,-0.1282
-2.3,0.3228,0.01371,0.00571,-0.1285
-2.2,0.3356,0.01359,0.0056,-0.1288
-2.1,0.3485,0.01348,0.00547,-0.1291
-2,0.3596,0.01337,0.00532,-0.129
-1.9,0.3704,0.01328,0.00519,-0.1289
-1.8,0.382,0.01325,0.0052,-0.1289
-1.7,0.3942,0.01316,0.00511,-0.1291
-1.6,0.4069,0.01304,0.00497,-0.1293
-1.5,0.4197,0.01294,0.00483,-0.1295
-1.4,0.4308,0.01286,0.00475,-0.1294
-1.3,0.4412,0.01279,0.00471,-0.1292
-1.2,0.453,0.01279,0.00471,-0.1293
-1.1,0.4652,0.01271,0.00459,-0.1294
-1,0.4777,0.01261,0.00452,-0.1296
-0.9,0.4891,0.01254,0.00446,-0.1296
-0.8,0.4996,0.01248,0.0044,-0.1293
-0.7,0.5122,0.01237,0.00424,-0.1293
-0.6,0.5233,0.01236,0.00427,-0.1293
-0.5,0.534,0.0123,0.00421,-0.1291
-0.4,0.5465,0.01221,0.00408,-0.1291
-0.3,0.5574,0.01217,0.00406,-0.129
-0.2,0.5686,0.01212,0.00404,-0.129
0,0.5916,0.01203,0.00393,-0.1288
0.1,0.6027,0.01199,0.00391,-0.1287
0.2,0.6144,0.01194,0.00386,-0.1287
0.3,0.6255,0.01189,0.00378,-0.1285
0.4,0.6371,0.01183,0.00374,-0.1285
0.5,0.6486,0.0118,0.00371,-0.1284
0.6,0.6597,0.01178,0.00369,-0.1283
0.7,0.6711,0.01174,0.00368,-0.1283
0.8,0.6821,0.01171,0.00363,-0.1281
0.9,0.6935,0.01168,0.00361,-0.128
1,0.7044,0.01165,0.00357,-0.1278
1.1,0.7157,0.01163,0.00355,-0.1277
1.2,0.7269,0.0116,0.00354,-0.1277
1.3,0.738,0.01157,0.00352,-0.1276
1.4,0.7488,0.01155,0.00348,-0.1273
1.5,0.7598,0.01153,0.00346,-0.1272
1.6,0.7709,0.01152,0.00345,-0.127
1.7,0.7819,0.0115,0.00346,-0.127
1.8,0.793,0.01148,0.00347,-0.1269
1.9,0.8036,0.01137,0.00348,-0.1267
2.1,0.8168,0.01025,0.00338,-0.1243
2.2,0.8275,0.01032,0.00339,-0.1241
2.3,0.8381,0.01041,0.0034,-0.1238
2.4,0.8486,0.0105,0.00341,-0.1236
2.5,0.859,0.0106,0.00344,-0.1233
2.6,0.8685,0.01077,0.00347,-0.1228
2.7,0.8786,0.01089,0.00351,-0.1225
2.8,0.8887,0.01103,0.00356,-0.1222
2.9,0.8986,0.01117,0.00362,-0.1219
3,0.9085,0.01132,0.00369,-0.1215
3.1,0.9182,0.01149,0.00376,-0.1212
3.2,0.9278,0.01166,0.00386,-0.1208
3.3,0.936,0.01195,0.00396,-0.1202
3.4,0.9452,0.01216,0.00407,-0.1198
3.5,0.9543,0.01237,0.00417,-0.1194
3.6,0.9632,0.01261,0.00428,-0.119
3.7,0.9721,0.01285,0.00441,-0.1186
3.8,0.9808,0.01311,0.00455,-0.1181
3.9,0.9896,0.01337,0.00468,-0.1177
4,0.9983,0.01364,0.00482,-0.1173
4.1,1.0059,0.01402,0.00502,-0.1168
4.2,1.0151,0.01426,0.00518,-0.1165
4.3,1.0244,0.01449,0.00531,-0.1162
4.4,1.0338,0.0147,0.00547,-0.1159
4.5,1.0432,0.01492,0.00564,-0.1157
4.6,1.0529,0.01511,0.0058,-0.1154
4.7,1.0625,0.0153,0.00595,-0.1152
4.8,1.072,0.0155,0.00611,-0.1149
4.9,1.0813,0.01573,0.00628,-0.1146
5,1.0908,0.01593,0.00645,-0.1144
5.1,1.1007,0.01608,0.00659,-0.1142
5.2,1.1105,0.01625,0.00675,-0.1139
5.3,1.1199,0.01645,0.00691,-0.1137
5.4,1.1297,0.01661,0.00707,-0.1134
5.5,1.1396,0.01677,0.00723,-0.1132
5.6,1.1492,0.01695,0.00739,-0.113
5.7,1.1584,0.01716,0.00759,-0.1127
5.8,1.1682,0.01731,0.00775,-0.1125
5.9,1.1778,0.01749,0.00792,-0.1122
6,1.1871,0.01769,0.0081,-0.112
6.1,1.1968,0.01785,0.00827,-0.1117
6.2,1.2065,0.01801,0.00844,-0.1115
6.3,1.216,0.01818,0.00862,-0.1112
6.5,1.2347,0.01855,0.00896,-0.1107
6.6,1.2442,0.01872,0.00914,-0.1104
6.7,1.2535,0.0189,0.00932,-0.1101
6.8,1.2626,0.01911,0.00954,-0.1098
6.9,1.2719,0.01929,0.00974,-0.1095
7,1.2814,0.01946,0.00993,-0.1093
7.1,1.2908,0.01964,0.01013,-0.109
7.2,1.2999,0.01983,0.01033,-0.1087
7.3,1.3086,0.02004,0.0105,-0.1084
7.4,1.318,0.02021,0.01071,-0.1081
7.5,1.3271,0.0204,0.01091,-0.1078
7.6,1.336,0.0206,0.01112,-0.1074
7.7,1.3447,0.02083,0.01134,-0.1071
7.8,1.3534,0.02104,0.01156,-0.1067
7.9,1.3626,0.02123,0.01179,-0.1064

