airfoilName st16.dat
Re 	2.300000e+05
M 	0
N 	4.500000e+00
VACC 	0 VACCflag 1
XTR 	1.00 	1.00 XTRflag 0
alpha,cl,cd,cdp,cm
-30,-1.4086,0.46962,0.46684,0.2762
-29.9,-1.4058,0.46732,0.46453,0.2743
-29.8,-1.4031,0.46503,0.46223,0.2724
-29.7,-1.4003,0.46274,0.45995,0.2705
-29.6,-1.3975,0.46048,0.45768,0.2686
-29.5,-1.3947,0.45822,0.45541,0.2667
-29.4,-1.3919,0.45598,0.45317,0.2648
-29.3,-1.3891,0.45373,0.45091,0.2629
-29.2,-1.3862,0.45151,0.44869,0.261
-29.1,-1.3833,0.44928,0.44644,0.2591
-29,-1.3804,0.44707,0.44423,0.2573
-28.9,-1.3775,0.44486,0.44201,0.2554
-28.8,-1.3746,0.44267,0.43981,0.2535
-28.7,-1.3717,0.44046,0.4376,0.2517
-28.6,-1.3687,0.43827,0.43541,0.2498
-28.5,-1.3658,0.4361,0.43323,0.248
-28.4,-1.3628,0.43392,0.43105,0.2461
-28.3,-1.3598,0.43175,0.42887,0.2443
-28.2,-1.3568,0.42958,0.4267,0.2425
-28.1,-1.3538,0.42742,0.42453,0.2406
-28,-1.3507,0.42526,0.42237,0.2388
-27.9,-1.3477,0.42312,0.42022,0.237
-27.8,-1.3446,0.42098,0.41807,0.2352
-27.7,-1.3415,0.41884,0.41593,0.2334
-27.6,-1.3384,0.4167,0.41379,0.2316
-27.5,-1.3353,0.41458,0.41166,0.2298
-27.4,-1.3322,0.41247,0.40955,0.228
-27.3,-1.329,0.41035,0.40742,0.2262
-27.2,-1.3259,0.40824,0.40531,0.2244
-27.1,-1.3227,0.40614,0.4032,0.2227
-27,-1.3195,0.40404,0.4011,0.2209
-26.9,-1.3163,0.40195,0.399,0.2191
-26.8,-1.3131,0.39986,0.3969,0.2174
-26.7,-1.3099,0.39779,0.39482,0.2156
-26.6,-1.3066,0.39572,0.39275,0.2139
-26.5,-1.3034,0.39365,0.39067,0.2121
-26.4,-1.3001,0.3916,0.38862,0.2104
-26.3,-1.2968,0.38954,0.38656,0.2086
-26.2,-1.2935,0.3875,0.38451,0.2069
-26.1,-1.2902,0.38545,0.38246,0.2052
-26,-1.2868,0.38343,0.38043,0.2034
-25.9,-1.2834,0.3814,0.3784,0.2017
-25.8,-1.2801,0.37939,0.37638,0.2
-25.7,-1.2765,0.37797,0.37496,0.1981
-25.6,-1.273,0.37595,0.37294,0.1964
-25.5,-1.2696,0.37396,0.37094,0.1946
-25.4,-1.2661,0.37195,0.36893,0.1929
-25.3,-1.2626,0.36997,0.36694,0.1912
-25.2,-1.2592,0.36798,0.36495,0.1895
-25.1,-1.2556,0.36601,0.36298,0.1878
-25,-1.2521,0.36404,0.361,0.1861
-24.9,-1.2485,0.36208,0.35905,0.1843
-24.8,-1.2449,0.36013,0.35709,0.1826
-24.7,-1.2413,0.35818,0.35514,0.1809
-24.6,-1.2376,0.35626,0.35321,0.1792
-24.5,-1.2339,0.35433,0.35126,0.1775
-24.4,-1.2302,0.3524,0.34933,0.1757
-24.3,-1.2264,0.3505,0.34742,0.174
-24.2,-1.2226,0.34859,0.34552,0.1722
-24.1,-1.2188,0.34668,0.3436,0.1705
-24,-1.2149,0.3448,0.34171,0.1687
-23.9,-1.2109,0.34291,0.33983,0.1669
-23.8,-1.2068,0.34102,0.33793,0.1651
-23.7,-1.2027,0.33911,0.33602,0.1633
-23.6,-1.1985,0.33721,0.33412,0.1614
-23.3,-1.1771,0.32914,0.32607,0.153
-23.2,-1.1739,0.32699,0.32392,0.1515
-23.1,-1.1707,0.32486,0.32178,0.1501
-23,-1.1674,0.32274,0.31965,0.1487
-22.9,-1.1641,0.32064,0.31756,0.1473
-22.8,-1.1608,0.31856,0.31547,0.1459
-22.7,-1.1574,0.3165,0.31341,0.1445
-22.6,-1.1541,0.31446,0.31137,0.143
-22.5,-1.1507,0.31244,0.30934,0.1416
-22.4,-1.1472,0.31043,0.30732,0.1402
-22.3,-1.1438,0.30843,0.30532,0.1388
-22.2,-1.1403,0.30645,0.30334,0.1374
-22.1,-1.1368,0.30449,0.30138,0.136
-22,-1.1333,0.30254,0.29942,0.1346
-21.9,-1.1297,0.3006,0.29748,0.1331
-21.8,-1.1261,0.29868,0.29556,0.1317
-21.7,-1.1225,0.29677,0.29362,0.1303
-21.6,-1.1189,0.29487,0.29172,0.1289
-21.5,-1.1153,0.29298,0.28983,0.1275
-21.4,-1.1116,0.2911,0.28795,0.1261
-21.3,-1.1079,0.28924,0.28608,0.1247
-21.2,-1.1042,0.28738,0.28422,0.1234
-21.1,-1.1005,0.28553,0.28237,0.122
-21,-1.0968,0.28368,0.28052,0.1206
-20.9,-1.093,0.28186,0.27869,0.1192
-20.8,-1.0892,0.28003,0.27686,0.1178
-20.7,-1.0854,0.27821,0.27504,0.1164
-20.6,-1.0816,0.2764,0.27322,0.1151
-20.5,-1.0778,0.27459,0.27141,0.1137
-20.4,-1.0739,0.27279,0.26961,0.1123
-20.3,-1.0701,0.27099,0.2678,0.111
-20.2,-1.0662,0.2692,0.26601,0.1096
-20.1,-1.0623,0.26741,0.26422,0.1083
-20,-1.0584,0.26562,0.26243,0.1069
-19.9,-1.0545,0.26384,0.26064,0.1056
-19.8,-1.0505,0.26206,0.25886,0.1042
-19.7,-1.0466,0.26029,0.25709,0.1029
-19.5,-1.0382,0.25717,0.25397,0.1
-19.4,-1.0342,0.2554,0.25219,0.0987
-19.3,-1.0303,0.25362,0.25041,0.0974
-19.2,-1.0263,0.25185,0.24864,0.0961
-19.1,-1.0223,0.25009,0.24686,0.0948
-19,-1.0182,0.24833,0.24509,0.0935
-18.9,-1.0142,0.24657,0.24334,0.0922
-18.8,-1.0101,0.24481,0.24158,0.0909
-18.7,-1.0061,0.24306,0.23982,0.0897
-18.6,-1.002,0.24131,0.23806,0.0884
-18.5,-0.9979,0.23956,0.23632,0.0871
-18.4,-0.9938,0.23781,0.23456,0.0858
-18.3,-0.9897,0.23607,0.23282,0.0846
-18.2,-0.9856,0.23432,0.23107,0.0833
-18.1,-0.9815,0.23258,0.22933,0.082
-18,-0.9773,0.23084,0.22759,0.0808
-17.9,-0.9731,0.2291,0.22584,0.0795
-17.8,-0.9689,0.22736,0.2241,0.0782
-17.7,-0.9647,0.22562,0.22236,0.077
-17.6,-0.9604,0.22387,0.22061,0.0757
-17.5,-0.9562,0.22212,0.21887,0.0744
-17.4,-0.9519,0.22036,0.2171,0.0732
-17.3,-0.9475,0.2186,0.21533,0.0719
-17.2,-0.9432,0.21682,0.21355,0.0706
-17.1,-0.9387,0.21502,0.21176,0.0693
-17,-0.9343,0.21322,0.20995,0.068
-16.9,-0.9299,0.2114,0.20813,0.0668
-16.8,-0.9253,0.20949,0.20622,0.0654
-16.7,-0.9207,0.20755,0.20428,0.0641
-16.5,-0.901,0.20029,0.19705,0.0585
-16.4,-0.8976,0.19853,0.19528,0.0575
-16.3,-0.8941,0.19678,0.19353,0.0566
-16.2,-0.8906,0.19505,0.1918,0.0556
-16.1,-0.887,0.19333,0.19008,0.0546
-16,-0.8834,0.19165,0.18837,0.0536
-15.9,-0.8797,0.18998,0.1867,0.0526
-15.8,-0.876,0.18833,0.18505,0.0516
-15.7,-0.8722,0.18669,0.18342,0.0506
-15.6,-0.8684,0.18508,0.1818,0.0496
-15.5,-0.8645,0.18348,0.1802,0.0486
-15.4,-0.8606,0.18189,0.17861,0.0476
-15.3,-0.8566,0.18032,0.17704,0.0465
-15.2,-0.8526,0.17876,0.17548,0.0455
-15.1,-0.8485,0.17722,0.17394,0.0445
-15,-0.8444,0.17569,0.17241,0.0435
-14.9,-0.8403,0.17418,0.1709,0.0424
-14.8,-0.8361,0.17267,0.16939,0.0414
-14.7,-0.8319,0.17118,0.1679,0.0404
-14.6,-0.8277,0.1697,0.16642,0.0394
-14.4,-0.8189,0.16713,0.16385,0.0372
-14.3,-0.8145,0.16566,0.16238,0.0362
-14.2,-0.8101,0.16421,0.16093,0.0352
-14.1,-0.8057,0.16276,0.15948,0.0341
-14,-0.8012,0.16131,0.15803,0.0331
-13.9,-0.7967,0.15988,0.1566,0.0321
-13.8,-0.7922,0.15844,0.15516,0.031
-13.7,-0.7876,0.15701,0.15373,0.03
-13.6,-0.783,0.15559,0.15231,0.029
-13.5,-0.7784,0.15418,0.1509,0.0279
-13.4,-0.7738,0.15276,0.14949,0.0269
-13.3,-0.7692,0.15136,0.14807,0.0259
-13.2,-0.7645,0.14996,0.14667,0.0248
-13.1,-0.7598,0.14856,0.14528,0.0238
-13,-0.7551,0.14718,0.1439,0.0228
-12.9,-0.7503,0.1458,0.14251,0.0218
-12.8,-0.7455,0.14442,0.14114,0.0208
-12.7,-0.7407,0.14305,0.13977,0.0197
-12.6,-0.7359,0.14168,0.1384,0.0187
-12.5,-0.7311,0.14031,0.13704,0.0177
-12.4,-0.7262,0.13895,0.13568,0.0167
-12.3,-0.7213,0.13759,0.13432,0.0157
-12.2,-0.7164,0.13624,0.13297,0.0146
-12.1,-0.7115,0.1349,0.13163,0.0136
-12,-0.7066,0.13355,0.13029,0.0126
-11.9,-0.7016,0.13221,0.12895,0.0116
-11.8,-0.6967,0.13087,0.12761,0.0106
-11.7,-0.6917,0.12953,0.12628,0.0096
-11.6,-0.6867,0.1282,0.12494,0.0086
-11.5,-0.6817,0.12687,0.12362,0.0076
-11.4,-0.6767,0.12554,0.12229,0.0066
-11.3,-0.6717,0.12421,0.12097,0.0056
-11.2,-0.6667,0.12289,0.11965,0.0046
-11.1,-0.6617,0.12156,0.11833,0.0037
-6,-0.1172,0.0216,0.01619,-0.1199
-5.9,-0.1023,0.02019,0.01449,-0.1214
-5.8,-0.0896,0.0197,0.01397,-0.1221
-5.7,-0.0796,0.01935,0.01358,-0.122
-5.6,-0.0675,0.019,0.01319,-0.1224
-5.5,-0.0547,0.01864,0.01278,-0.1229
-5.4,-0.0415,0.01826,0.01233,-0.1234
-5.3,-0.0285,0.01787,0.01184,-0.124
-5.2,-0.0154,0.01744,0.01131,-0.1245
-5.1,-0.0016,0.01697,0.01073,-0.1252
-4.9,0.0252,0.01629,0.0097,-0.1263
-4.8,0.0354,0.01588,0.0093,-0.1262
-4.7,0.0468,0.01563,0.00903,-0.1263
-4.6,0.0588,0.01542,0.0088,-0.1265
-4.5,0.0712,0.0152,0.00854,-0.1268
-4.4,0.0839,0.01497,0.00826,-0.1271
-4.3,0.0967,0.01472,0.00795,-0.1275
-4.2,0.11,0.01444,0.00759,-0.1279
-4.1,0.1231,0.01418,0.00721,-0.1283
-4,0.1353,0.01396,0.00689,-0.1285
-3.8,0.1567,0.01376,0.00676,-0.1283
-3.7,0.169,0.01359,0.00655,-0.1285
-3.6,0.1814,0.01341,0.00633,-0.1287
-3.5,0.194,0.01322,0.00608,-0.129
-3.4,0.2071,0.01302,0.00581,-0.1293
-3.3,0.219,0.01286,0.00561,-0.1294
-3.2,0.2297,0.0127,0.00546,-0.1293
-3.1,0.241,0.01258,0.00533,-0.1293
-3,0.2527,0.01257,0.00533,-0.1294
-2.9,0.265,0.01243,0.00515,-0.1295
-2.8,0.2774,0.01229,0.00495,-0.1297
-2.7,0.2902,0.01214,0.00477,-0.1299
-2.6,0.3008,0.01202,0.00467,-0.1298
-2.5,0.312,0.01194,0.00459,-0.1298
-2.4,0.3236,0.01184,0.00448,-0.1298
-2.2,0.3477,0.01172,0.00429,-0.13
-2.1,0.3597,0.01159,0.00416,-0.1301
-2,0.3706,0.01152,0.0041,-0.13
-1.9,0.382,0.01145,0.00403,-0.13
-1.8,0.3937,0.01138,0.00394,-0.13
-1.7,0.4057,0.0113,0.00382,-0.13
-1.6,0.4177,0.01125,0.0038,-0.1302
-1.5,0.4288,0.01119,0.00375,-0.1301
-1.4,0.44,0.01114,0.00369,-0.1301
-1.3,0.4515,0.01106,0.00358,-0.1299
-1.2,0.4626,0.01099,0.00348,-0.1297
-1.1,0.4739,0.01093,0.00344,-0.1297
-1,0.4853,0.01091,0.00341,-0.1296
-0.9,0.4968,0.01086,0.00333,-0.1296
-0.8,0.5078,0.0108,0.00328,-0.1295
-0.7,0.5194,0.01076,0.00325,-0.1295
-0.6,0.5306,0.01071,0.00319,-0.1293
-0.5,0.5419,0.01068,0.00315,-0.1293
-0.3,0.5647,0.01063,0.0031,-0.1292
-0.2,0.5757,0.0106,0.00305,-0.129
0,0.5981,0.01054,0.00298,-0.1288
0.1,0.6094,0.01052,0.00296,-0.1288
0.2,0.6208,0.01051,0.00292,-0.1287
0.3,0.6317,0.0105,0.00292,-0.1285
0.4,0.6428,0.01049,0.00289,-0.1284
0.5,0.654,0.01048,0.00287,-0.1284
0.6,0.6653,0.01047,0.00286,-0.1283
0.7,0.6765,0.01046,0.00285,-0.1282
0.8,0.6873,0.01046,0.00282,-0.128
0.9,0.6981,0.01048,0.00282,-0.1278
1,0.7091,0.01048,0.00282,-0.1277
1.1,0.72,0.0105,0.0028,-0.1276
1.2,0.7311,0.0105,0.00281,-0.1275
1.3,0.7417,0.01053,0.0028,-0.1272
1.4,0.7526,0.01056,0.00279,-0.1271
1.5,0.7629,0.01061,0.0028,-0.1268
1.6,0.7737,0.01062,0.00281,-0.1267
1.7,0.7844,0.01065,0.00282,-0.1265
1.8,0.795,0.01069,0.00284,-0.1264
1.9,0.8055,0.01073,0.00286,-0.1262
2,0.816,0.01077,0.00289,-0.126
2.1,0.8256,0.01088,0.00293,-0.1256
2.3,0.838,0.00968,0.00294,-0.1234
2.4,0.8482,0.0098,0.00299,-0.1231
2.5,0.8584,0.00994,0.00304,-0.1229
2.6,0.8684,0.01008,0.0031,-0.1226
2.7,0.8784,0.01023,0.00316,-0.1223
2.8,0.8882,0.0104,0.00323,-0.122
2.9,0.8967,0.01067,0.00333,-0.1215
3,0.9064,0.01086,0.00343,-0.1212
3.1,0.9159,0.01105,0.00352,-0.1209
3.2,0.9252,0.01127,0.00363,-0.1205
3.3,0.9344,0.01149,0.00375,-0.1202
3.4,0.9436,0.01173,0.00385,-0.1199
3.5,0.9527,0.01197,0.00398,-0.1195
3.6,0.9604,0.01236,0.00416,-0.119
3.7,0.9697,0.0126,0.00429,-0.1187
3.8,0.9792,0.01282,0.00442,-0.1184
3.9,0.9887,0.01303,0.00455,-0.1182
4,0.9986,0.01321,0.00466,-0.118
4.1,1.0083,0.0134,0.00479,-0.1178
4.2,1.0183,0.01356,0.00491,-0.1176
4.3,1.0281,0.01374,0.00504,-0.1174
4.4,1.0378,0.01393,0.0052,-0.1171
4.5,1.0477,0.01411,0.00533,-0.1169
4.6,1.0578,0.01424,0.00546,-0.1168
4.7,1.0679,0.01438,0.00558,-0.1166
4.8,1.0778,0.01454,0.00571,-0.1164
4.9,1.0878,0.01469,0.00584,-0.1162
5,1.098,0.01481,0.00596,-0.116
5.1,1.108,0.01496,0.00609,-0.1158
5.2,1.1176,0.01515,0.00623,-0.1156
5.3,1.1277,0.01527,0.00636,-0.1154
5.4,1.1376,0.01542,0.00649,-0.1152
5.5,1.1474,0.01558,0.00663,-0.115
5.6,1.1573,0.01572,0.0068,-0.1148
5.7,1.1673,0.01585,0.00693,-0.1146
5.8,1.1772,0.01599,0.00707,-0.1144
5.9,1.1865,0.01619,0.00721,-0.1142
6,1.1966,0.01632,0.00735,-0.114
6.1,1.2065,0.01645,0.0075,-0.1138
6.2,1.2162,0.0166,0.00764,-0.1135
6.3,1.2258,0.01677,0.00779,-0.1133
6.4,1.2353,0.01694,0.00796,-0.113
6.5,1.2452,0.01707,0.00811,-0.1128
6.6,1.2549,0.01721,0.00826,-0.1126
6.7,1.2645,0.01737,0.00842,-0.1124
6.8,1.2736,0.01757,0.0086,-0.1121
6.9,1.2833,0.01771,0.00876,-0.1119
7,1.2929,0.01786,0.00893,-0.1116
7.1,1.3023,0.01803,0.00909,-0.1113
7.2,1.3115,0.01821,0.00927,-0.1111
7.3,1.3206,0.01841,0.00946,-0.1108
7.4,1.3302,0.01855,0.00963,-0.1105
7.5,1.3396,0.01871,0.00981,-0.1102
7.6,1.3486,0.0189,0.00997,-0.1099
7.7,1.3575,0.0191,0.01016,-0.1096
7.8,1.3667,0.01927,0.01036,-0.1093
7.9,1.376,0.01944,0.01055,-0.109
8,1.385,0.01962,0.01077,-0.1087
8.1,1.394,0.01981,0.01097,-0.1084
8.2,1.4027,0.02002,0.01117,-0.108
8.3,1.4111,0.02025,0.0114,-0.1077
8.4,1.4202,0.02041,0.01161,-0.1073
8.5,1.4291,0.0206,0.01182,-0.107
8.6,1.4378,0.02079,0.012,-0.1067
8.7,1.4461,0.02102,0.01223,-0.1063
8.8,1.4542,0.02126,0.01247,-0.1058
8.9,1.463,0.02145,0.0127,-0.1055
9,1.4716,0.02165,0.01293,-0.1051
9.1,1.48,0.02186,0.01317,-0.1047
9.2,1.4882,0.02208,0.01344,-0.1043
9.3,1.4961,0.02232,0.01368,-0.1038
9.4,1.5038,0.02258,0.01394,-0.1033
9.5,1.512,0.02279,0.01417,-0.1029
9.6,1.52,0.02301,0.01443,-0.1025
9.7,1.5279,0.02325,0.0147,-0.102
9.8,1.5355,0.02349,0.01496,-0.1015
9.9,1.5428,0.02375,0.01524,-0.101
10,1.5499,0.02404,0.01553,-0.1004
10.1,1.5567,0.02433,0.01583,-0.0998
10.2,1.5642,0.02456,0.01612,-0.0992
10.3,1.5715,0.02481,0.01642,-0.0987
10.4,1.5785,0.02507,0.01672,-0.0981
10.5,1.5852,0.02534,0.01703,-0.0974
10.6,1.5917,0.02563,0.01734,-0.0968
10.7,1.5979,0.02592,0.01769,-0.0961
10.9,1.6083,0.02655,0.01831,-0.0944
11,1.614,0.02682,0.01864,-0.0936
11.1,1.6196,0.0271,0.01899,-0.0928
11.2,1.6249,0.02741,0.01934,-0.0919
11.3,1.6301,0.02772,0.0197,-0.0911
11.4,1.6351,0.02805,0.02007,-0.0902
11.5,1.6399,0.02839,0.02045,-0.0894
11.6,1.6444,0.02875,0.02084,-0.0885
11.7,1.6487,0.02913,0.02125,-0.0876
11.8,1.6525,0.02953,0.02168,-0.0867
11.9,1.6558,0.02998,0.02215,-0.0857
12,1.6595,0.03041,0.0226,-0.0848
12.1,1.6643,0.03076,0.02304,-0.084
12.2,1.6702,0.03103,0.02337,-0.0834
12.3,1.6743,0.03144,0.02383,-0.0826
12.4,1.6781,0.03185,0.0243,-0.0817
12.5,1.6818,0.03229,0.02481,-0.0809
12.6,1.6852,0.03274,0.02531,-0.0801
12.7,1.6888,0.03315,0.0257,-0.0794
12.8,1.6911,0.03368,0.02626,-0.0785
12.9,1.6928,0.03426,0.02687,-0.0776
13,1.6961,0.03474,0.02741,-0.0768
13.1,1.6995,0.03521,0.02795,-0.0761
13.2,1.7026,0.03571,0.02853,-0.0754
13.3,1.7055,0.03623,0.02912,-0.0746
13.4,1.7097,0.03664,0.02957,-0.0741
13.5,1.7121,0.0372,0.03019,-0.0734
13.6,1.7142,0.03779,0.03083,-0.0727
13.7,1.716,0.03839,0.03149,-0.0721
13.8,1.7176,0.039,0.03205,-0.0716
13.9,1.7184,0.03972,0.03281,-0.0709
14,1.7208,0.04032,0.03349,-0.0704
14.1,1.7229,0.04095,0.0342,-0.0699
14.2,1.7247,0.04162,0.03495,-0.0694
14.3,1.7262,0.04232,0.03572,-0.0689
14.4,1.7276,0.04304,0.03651,-0.0685
14.5,1.7287,0.0438,0.03733,-0.0681
14.6,1.7296,0.04458,0.03818,-0.0678
14.7,1.7303,0.04539,0.03905,-0.0675
14.8,1.7309,0.04623,0.03998,-0.0673
14.9,1.7312,0.04711,0.04092,-0.0672
15,1.7313,0.04804,0.0419,-0.0671
15.1,1.7311,0.04901,0.04293,-0.0671
15.2,1.7305,0.05005,0.04402,-0.0672
15.3,1.7295,0.05116,0.04518,-0.0674
15.4,1.7282,0.05232,0.04639,-0.0677
15.5,1.7287,0.05332,0.04748,-0.0679
15.6,1.7288,0.05438,0.04863,-0.0683
15.7,1.7286,0.05548,0.04983,-0.0687
15.8,1.7282,0.05664,0.05108,-0.0693
15.9,1.7277,0.05785,0.05237,-0.07
16,1.727,0.05911,0.05371,-0.0708
16.1,1.7262,0.06042,0.0551,-0.0717
16.2,1.7253,0.06178,0.05655,-0.0728
16.3,1.7242,0.06321,0.05806,-0.074
16.4,1.723,0.0647,0.05964,-0.0754
16.5,1.7218,0.06628,0.06129,-0.0769
16.6,1.7203,0.06794,0.06304,-0.0787
16.7,1.7187,0.06971,0.0649,-0.0807
16.8,1.7169,0.07159,0.06687,-0.0829
16.9,1.715,0.07361,0.06897,-0.0853
17,1.7127,0.0758,0.07126,-0.0881
17.1,1.7101,0.07819,0.07373,-0.0911
17.2,1.7073,0.08079,0.07643,-0.0945
17.3,1.7041,0.08364,0.07939,-0.0982
17.4,1.7004,0.08679,0.08264,-0.1023
17.5,1.6963,0.09021,0.08618,-0.1066
17.6,1.6917,0.09399,0.09008,-0.1114
17.7,1.6873,0.0978,0.09399,-0.116
17.8,1.6827,0.10175,0.09806,-0.1207
17.9,1.6778,0.10587,0.10231,-0.1254
18,1.6726,0.11008,0.10664,-0.1301
18.1,1.6674,0.11421,0.11088,-0.1347
18.2,1.6621,0.11827,0.11504,-0.1392
18.3,1.6568,0.12224,0.1191,-0.1435
18.4,1.6517,0.1261,0.12305,-0.1477
18.5,1.6465,0.12995,0.127,-0.1519
18.6,1.6415,0.13371,0.13084,-0.156
18.7,1.6367,0.13741,0.13462,-0.16
18.9,1.6269,0.14507,0.14243,-0.1683
19,1.6218,0.14908,0.14653,-0.1725
19.1,1.6164,0.15337,0.1509,-0.1769
19.3,1.6037,0.16351,0.1612,-0.1868
19.4,1.5621,0.19053,0.18842,-0.2073
19.5,1.5623,0.19355,0.19145,-0.2099
19.6,1.5645,0.19519,0.19309,-0.2116
19.7,1.5673,0.19639,0.1943,-0.2131
19.8,1.5704,0.19734,0.19526,-0.2144
19.9,1.5736,0.19819,0.19611,-0.2157
20,1.577,0.19883,0.19679,-0.2168
20.1,1.5808,0.19916,0.19711,-0.2177
20.2,1.5848,0.19935,0.19731,-0.2186
20.3,1.5891,0.19924,0.1972,-0.2192
20.4,1.5938,0.1988,0.19676,-0.2196
20.5,1.5987,0.19812,0.19607,-0.2199

