airfoilName st16.dat
Re 	370000
M 	0
N 	4.500000e+00
VACC 	0 VACCflag 1
XTR 	1.00 	1.00 XTRflag 0
alpha,cl,cd,cdp,cm
-7,-0.215,0.02248,0.01826,-0.1198
-6.9,-0.1995,0.02032,0.01582,-0.1221
-6.8,-0.1861,0.01936,0.01475,-0.1233
-6.7,-0.1733,0.01868,0.01398,-0.124
-6.6,-0.1624,0.01815,0.01336,-0.1243
-6.5,-0.1507,0.01765,0.01278,-0.1247
-6.4,-0.1387,0.01719,0.01224,-0.1251
-6.3,-0.1264,0.01676,0.01174,-0.1255
-6.2,-0.114,0.01635,0.01125,-0.126
-6.1,-0.1016,0.01594,0.01076,-0.1264
-6,-0.089,0.01555,0.01028,-0.1268
-5.9,-0.0757,0.01514,0.00977,-0.1274
-5.8,-0.0639,0.01478,0.00933,-0.1276
-5.7,-0.0527,0.01444,0.0089,-0.1277
-5.6,-0.0412,0.01411,0.00849,-0.1278
-5.5,-0.0292,0.01381,0.0081,-0.128
-5.4,-0.0172,0.01355,0.00773,-0.1282
-5.3,-0.0049,0.01327,0.0074,-0.1285
-5.2,0.0074,0.01297,0.00706,-0.1288
-5.1,0.0196,0.01275,0.00682,-0.129
-5,0.0309,0.01258,0.00661,-0.129
-4.9,0.0422,0.01242,0.00642,-0.129
-4.8,0.0535,0.01226,0.00622,-0.1291
-4.7,0.0653,0.01209,0.00602,-0.1292
-4.6,0.0772,0.01192,0.0058,-0.1293
-4.5,0.0892,0.01175,0.00558,-0.1294
-4.3,0.112,0.01154,0.00533,-0.1295
-4.2,0.1234,0.0114,0.00517,-0.1295
-4.1,0.135,0.01128,0.00503,-0.1296
-4,0.1466,0.01116,0.00487,-0.1296
-3.9,0.1584,0.01104,0.00472,-0.1296
-3.8,0.1702,0.01091,0.00455,-0.1297
-3.7,0.1815,0.0108,0.0044,-0.1297
-3.5,0.2043,0.01061,0.00421,-0.1297
-3.4,0.2157,0.01051,0.00409,-0.1297
-3.3,0.2274,0.01041,0.00397,-0.1297
-3.2,0.239,0.01032,0.00384,-0.1298
-3.1,0.2503,0.01023,0.00372,-0.1297
-3,0.2617,0.01015,0.0036,-0.1297
-2.9,0.2733,0.01005,0.0035,-0.1297
-2.8,0.2848,0.00995,0.0034,-0.1297
-2.7,0.2962,0.00991,0.00336,-0.1297
-2.6,0.3076,0.00984,0.00328,-0.1297
-2.5,0.3191,0.00978,0.00319,-0.1297
-2.4,0.3305,0.00972,0.0031,-0.1297
-2.3,0.3419,0.00964,0.00301,-0.1296
-2.2,0.3535,0.00957,0.00294,-0.1297
-2.1,0.3649,0.00952,0.00287,-0.1296
-2,0.3762,0.00946,0.00281,-0.1296
-1.9,0.3874,0.00944,0.00276,-0.1295
-1.8,0.3986,0.00939,0.00269,-0.1294
-1.7,0.4098,0.00933,0.00263,-0.1293
-1.6,0.4209,0.00929,0.00257,-0.1292
-1.5,0.4322,0.00926,0.00252,-0.1291
-1.4,0.4436,0.00923,0.00248,-0.1291
-1.3,0.4548,0.00921,0.00241,-0.129
-1.2,0.4659,0.00918,0.0024,-0.1289
-1.1,0.4773,0.00915,0.00236,-0.1289
-1,0.4885,0.00913,0.00232,-0.1288
-0.9,0.4999,0.00911,0.00228,-0.1288
-0.8,0.511,0.00909,0.00224,-0.1287
-0.7,0.5223,0.00908,0.00222,-0.1286
-0.6,0.5336,0.00907,0.00222,-0.1286
-0.5,0.5448,0.00907,0.00218,-0.1285
-0.4,0.5559,0.00906,0.00216,-0.1284
-0.3,0.5668,0.00906,0.00214,-0.1283
-0.2,0.5781,0.00906,0.00212,-0.1283
0,0.6004,0.00907,0.00209,-0.1281
0.1,0.6116,0.00907,0.0021,-0.1281
0.2,0.6224,0.00911,0.00208,-0.1279
0.3,0.6333,0.00914,0.00207,-0.1278
0.4,0.6445,0.00914,0.00207,-0.1277
0.5,0.6556,0.00916,0.00207,-0.1276
0.6,0.6664,0.0092,0.00207,-0.1275
0.7,0.6774,0.00922,0.00209,-0.1274
0.8,0.6875,0.00932,0.00209,-0.1271
0.9,0.6984,0.00936,0.0021,-0.127
1,0.7092,0.00941,0.00211,-0.1269
1.1,0.7193,0.00952,0.00213,-0.1266
1.2,0.7299,0.00958,0.00216,-0.1264
1.3,0.7406,0.00965,0.00218,-0.1263
1.4,0.7512,0.00971,0.00222,-0.1262
1.5,0.7609,0.00987,0.00227,-0.1259
1.6,0.7715,0.00996,0.0023,-0.1257
1.7,0.782,0.01003,0.00234,-0.1256
1.8,0.7925,0.01011,0.00239,-0.1254
1.9,0.8029,0.01021,0.00243,-0.1253
2,0.8133,0.0103,0.0025,-0.1251
2.1,0.8236,0.01039,0.00255,-0.125
2.2,0.8328,0.01061,0.00264,-0.1246
2.3,0.843,0.01072,0.0027,-0.1245
2.4,0.8531,0.01085,0.00277,-0.1243
2.5,0.8631,0.01097,0.00285,-0.1241
2.6,0.873,0.0111,0.00294,-0.1239
2.8,0.8852,0.01003,0.00311,-0.122
2.9,0.8948,0.01025,0.00322,-0.1218
3,0.9033,0.01062,0.00336,-0.1214
3.1,0.9131,0.01083,0.00348,-0.1212
3.2,0.923,0.01102,0.00358,-0.121
3.3,0.9333,0.01117,0.00367,-0.1208
3.4,0.9435,0.01133,0.00377,-0.1207
3.5,0.9539,0.01145,0.00385,-0.1206
3.6,0.9641,0.0116,0.00395,-0.1204
3.7,0.9743,0.01176,0.00405,-0.1203
3.8,0.9846,0.0119,0.00415,-0.1201
3.9,0.9952,0.012,0.00423,-0.12
4,1.0056,0.01211,0.00431,-0.1199
4.1,1.016,0.01223,0.0044,-0.1197
4.2,1.0264,0.01234,0.0045,-0.1196
4.3,1.037,0.01244,0.00458,-0.1195
4.4,1.0474,0.01256,0.00469,-0.1194
4.5,1.0574,0.01271,0.0048,-0.1192
4.6,1.0679,0.01281,0.00489,-0.1191
4.7,1.0783,0.01292,0.00498,-0.119
4.8,1.0885,0.01305,0.00508,-0.1188
4.9,1.0989,0.01316,0.00518,-0.1187
5,1.1093,0.01326,0.00527,-0.1186
5.1,1.1196,0.01336,0.00537,-0.1184
5.2,1.1299,0.01349,0.00547,-0.1183
5.3,1.1399,0.01363,0.00558,-0.1181
5.4,1.1502,0.01373,0.00568,-0.118
5.5,1.1604,0.01385,0.00579,-0.1178
5.6,1.1705,0.01398,0.00592,-0.1176
5.7,1.1806,0.01411,0.00604,-0.1175
5.8,1.1909,0.01421,0.00615,-0.1173
5.9,1.201,0.01432,0.00626,-0.1172
6,1.2111,0.01445,0.00637,-0.117
6.1,1.2208,0.01462,0.0065,-0.1168
6.2,1.2309,0.01472,0.00661,-0.1166
6.3,1.241,0.01484,0.00673,-0.1164
6.4,1.251,0.01497,0.00686,-0.1163
6.5,1.2608,0.01511,0.00698,-0.1161
6.6,1.2705,0.01527,0.00713,-0.1158
6.7,1.2805,0.01538,0.00727,-0.1157
6.8,1.2903,0.01552,0.00739,-0.1155
6.9,1.3001,0.01566,0.00753,-0.1153
7,1.3097,0.01582,0.00767,-0.115
7.1,1.3194,0.01596,0.00782,-0.1148
7.2,1.3292,0.01608,0.00796,-0.1146
7.3,1.3389,0.01622,0.0081,-0.1144
7.4,1.3485,0.01637,0.00825,-0.1141
7.5,1.358,0.01653,0.0084,-0.1139
7.6,1.3672,0.01671,0.00856,-0.1136
7.7,1.3769,0.01684,0.00872,-0.1134
7.8,1.3863,0.01699,0.00886,-0.1131
7.9,1.3957,0.01715,0.00904,-0.1129
8,1.4049,0.01732,0.00921,-0.1126
8.1,1.414,0.01751,0.0094,-0.1123
8.2,1.4234,0.01766,0.00956,-0.112
8.3,1.4327,0.01781,0.00973,-0.1117
8.4,1.4419,0.01797,0.0099,-0.1115
8.5,1.451,0.01814,0.01008,-0.1112
8.6,1.4595,0.01838,0.01027,-0.1108
8.7,1.4685,0.01854,0.01046,-0.1105
8.8,1.4776,0.0187,0.01065,-0.1102
8.9,1.4865,0.01888,0.01083,-0.1098
9,1.4953,0.01906,0.01103,-0.1095
9.1,1.504,0.01925,0.01124,-0.1091
9.2,1.5125,0.01946,0.01145,-0.1088
9.3,1.5207,0.0197,0.01168,-0.1084
9.4,1.5295,0.01987,0.01189,-0.108
9.5,1.5381,0.02005,0.0121,-0.1076
9.6,1.5466,0.02024,0.01231,-0.1072
9.7,1.5549,0.02044,0.01253,-0.1068
9.8,1.5631,0.02065,0.01276,-0.1064
9.9,1.5707,0.02092,0.01299,-0.1059
10,1.5785,0.02116,0.01325,-0.1054
10.1,1.5866,0.02135,0.01348,-0.105
10.2,1.5946,0.02155,0.01371,-0.1045
10.3,1.6024,0.02177,0.01396,-0.104
10.4,1.6101,0.02199,0.0142,-0.1035
10.5,1.6175,0.02222,0.01447,-0.103
10.6,1.6248,0.02247,0.01474,-0.1024
10.7,1.6317,0.02273,0.01501,-0.1018
10.8,1.6384,0.023,0.0153,-0.1012
10.9,1.6447,0.02331,0.01561,-0.1005
11,1.6518,0.02352,0.01588,-0.0999
11.1,1.6589,0.02373,0.01611,-0.0993
11.2,1.6654,0.02397,0.0164,-0.0986
11.3,1.6713,0.02423,0.01665,-0.0979
11.4,1.6767,0.0245,0.01694,-0.097
11.5,1.6818,0.02478,0.01725,-0.0961
11.6,1.6867,0.02509,0.01758,-0.0952
11.7,1.6912,0.02543,0.01793,-0.0942
11.8,1.6962,0.02573,0.01827,-0.0933
11.9,1.7024,0.02595,0.01852,-0.0927
12,1.7074,0.02625,0.01886,-0.0918
12.1,1.7123,0.02655,0.01922,-0.091
12.2,1.7171,0.02687,0.01957,-0.0901
12.3,1.7217,0.02721,0.01994,-0.0892
12.4,1.7259,0.02758,0.0203,-0.0884
12.5,1.73,0.02796,0.02071,-0.0875
12.6,1.7336,0.02838,0.02115,-0.0866
12.7,1.7381,0.02871,0.02154,-0.0858
12.8,1.7425,0.02905,0.02193,-0.085
12.9,1.7467,0.02942,0.02234,-0.0841
13,1.7507,0.0298,0.02277,-0.0833
13.1,1.7546,0.03019,0.0232,-0.0825
13.2,1.7583,0.0306,0.02366,-0.0817
13.3,1.7618,0.03102,0.02412,-0.0809
13.4,1.7651,0.03147,0.0246,-0.0801
13.5,1.7681,0.03193,0.0251,-0.0793
13.6,1.7709,0.03242,0.02562,-0.0784
13.7,1.7733,0.03294,0.02618,-0.0776
13.8,1.7754,0.0335,0.02677,-0.0768
13.9,1.7778,0.03402,0.02734,-0.0761
14,1.7808,0.03451,0.02789,-0.0754
14.1,1.7834,0.03503,0.02847,-0.0747
14.2,1.7859,0.03557,0.02908,-0.074
14.3,1.7881,0.03614,0.0297,-0.0733
14.4,1.7901,0.03672,0.03034,-0.0727
14.5,1.7919,0.03733,0.03099,-0.0721
14.6,1.7936,0.03796,0.03167,-0.0715
14.7,1.7951,0.03863,0.03238,-0.0709
14.8,1.7964,0.03932,0.03312,-0.0704
14.9,1.7973,0.04005,0.03389,-0.0699
15,1.798,0.04082,0.03471,-0.0695
15.1,1.7983,0.04164,0.03557,-0.0691
15.2,1.7983,0.0425,0.03648,-0.0688
15.3,1.7995,0.04324,0.0373,-0.0685
15.4,1.8019,0.04389,0.03798,-0.0683
15.5,1.8024,0.04473,0.03888,-0.0681
15.6,1.8028,0.0456,0.03981,-0.068
15.7,1.803,0.04652,0.04078,-0.0679
15.8,1.8031,0.04746,0.04179,-0.0679
15.9,1.803,0.04845,0.04283,-0.068
16,1.8026,0.04949,0.04392,-0.0682
16.1,1.8021,0.05057,0.04506,-0.0684
16.2,1.8013,0.0517,0.04625,-0.0688
16.3,1.8001,0.0529,0.04751,-0.0693
16.4,1.799,0.05412,0.0488,-0.0699
16.5,1.7984,0.0553,0.05006,-0.0705
16.6,1.7975,0.05655,0.05138,-0.0713
16.7,1.7966,0.05784,0.05275,-0.0722
16.8,1.7955,0.0592,0.05419,-0.0732
16.9,1.7943,0.06061,0.05568,-0.0743
17,1.7929,0.06211,0.05726,-0.0757
17.1,1.7915,0.06369,0.05892,-0.0772
17.2,1.79,0.06534,0.06065,-0.0789
17.3,1.7883,0.0671,0.06251,-0.0808
17.4,1.7865,0.06897,0.06447,-0.0829
17.5,1.7845,0.07098,0.06656,-0.0852
17.6,1.7823,0.07314,0.06882,-0.0878
17.7,1.7798,0.07546,0.07124,-0.0907
17.8,1.7768,0.07804,0.07391,-0.0939
17.9,1.7733,0.08086,0.07684,-0.0974
18,1.7692,0.08405,0.08014,-0.1014
18.1,1.7642,0.08768,0.08389,-0.1058
18.2,1.7582,0.09184,0.08819,-0.1108
18.3,1.7507,0.09669,0.09319,-0.1165
18.4,1.7418,0.10223,0.09888,-0.1227
18.5,1.7313,0.10837,0.10518,-0.1292
18.6,1.7203,0.11448,0.11142,-0.1356
18.7,1.7098,0.12018,0.11725,-0.1416
18.8,1.6999,0.12554,0.12273,-0.1472
18.9,1.6908,0.13052,0.12781,-0.1525
19,1.6826,0.13514,0.13252,-0.1574
19.1,1.6746,0.13965,0.13711,-0.1623
19.2,1.6675,0.14386,0.1414,-0.1669
19.3,1.6617,0.14767,0.14528,-0.1712
19.4,1.6554,0.15179,0.14948,-0.1757
19.5,1.6511,0.15528,0.15302,-0.1795
19.6,1.6459,0.15933,0.15714,-0.1838
19.7,1.6426,0.16282,0.16069,-0.1875
19.8,1.6389,0.1666,0.16452,-0.1913
19.9,1.636,0.17029,0.16826,-0.1949
20,1.6341,0.17355,0.17156,-0.1981
20.1,1.6309,0.17764,0.17571,-0.2019
20.2,1.6294,0.18103,0.17914,-0.2051
20.3,1.6282,0.18425,0.18239,-0.2081
20.4,1.6262,0.18814,0.18632,-0.2115
20.5,1.6255,0.1913,0.1895,-0.2144
20.6,1.6257,0.19399,0.1922,-0.2169
20.7,1.6266,0.1963,0.19452,-0.2192
20.8,1.6277,0.19848,0.19669,-0.2213
20.9,1.6255,0.20298,0.20125,-0.2249
21,1.6243,0.20696,0.20528,-0.2282
21.1,1.6213,0.21245,0.21084,-0.2324
21.3,1.6084,0.23231,0.23082,-0.2456
21.4,1.6104,0.23472,0.23324,-0.2476
21.5,1.6129,0.23654,0.23506,-0.2494
21.6,1.6156,0.23819,0.23672,-0.251
21.7,1.6183,0.23967,0.2382,-0.2526
21.8,1.6211,0.24111,0.23965,-0.2541
21.9,1.624,0.24236,0.2409,-0.2556
22,1.6269,0.24346,0.242,-0.257
22.1,1.6299,0.24453,0.24307,-0.2583
22.2,1.6329,0.24547,0.24402,-0.2596
22.3,1.636,0.24629,0.24484,-0.2609
22.4,1.639,0.24712,0.24567,-0.2621
22.5,1.6421,0.24785,0.24641,-0.2633
22.6,1.6453,0.24825,0.24681,-0.2643

