airfoilName st16.dat
Re 	690000
M 	0
N 	4.500000e+00
VACC 	0 VACCflag 1
XTR 	1.00 	1.00 XTRflag 0
alpha,cl,cd,cdp,cm
-7.6,-0.2668,0.01703,0.01314,-0.1247
-7.5,-0.2548,0.01625,0.01224,-0.1253
-7.4,-0.2429,0.01565,0.01155,-0.1258
-7.3,-0.2311,0.01516,0.01097,-0.1262
-7.2,-0.2193,0.01474,0.01047,-0.1265
-7.1,-0.2079,0.01435,0.01001,-0.1267
-7,-0.1966,0.014,0.0096,-0.1269
-6.9,-0.1853,0.01367,0.0092,-0.127
-6.8,-0.1738,0.01336,0.00882,-0.1272
-6.7,-0.1623,0.01306,0.00846,-0.1274
-6.6,-0.151,0.01279,0.00811,-0.1274
-6.5,-0.1396,0.01253,0.00778,-0.1275
-6.4,-0.1283,0.01228,0.00748,-0.1275
-6.3,-0.117,0.01205,0.00719,-0.1276
-6.2,-0.1056,0.01183,0.00691,-0.1277
-6.1,-0.0942,0.01163,0.00666,-0.1277
-6,-0.0828,0.01148,0.00645,-0.1278
-5.9,-0.0714,0.01133,0.00625,-0.1278
-5.8,-0.06,0.01105,0.00593,-0.1279
-5.7,-0.0484,0.01081,0.00564,-0.128
-5.6,-0.037,0.01062,0.00542,-0.128
-5.5,-0.0255,0.01046,0.00523,-0.1281
-5.4,-0.014,0.01032,0.00506,-0.1281
-5.3,-0.0028,0.01019,0.00488,-0.1281
-5.2,0.0087,0.01007,0.00473,-0.1281
-5.1,0.0201,0.00995,0.00458,-0.1281
-5,0.0316,0.00983,0.00443,-0.1282
-4.9,0.0431,0.00972,0.00429,-0.1282
-4.8,0.0544,0.00962,0.00415,-0.1282
-4.7,0.0659,0.00952,0.00402,-0.1282
-4.6,0.0774,0.00944,0.0039,-0.1282
-4.5,0.0888,0.00931,0.00375,-0.1282
-4.4,0.1004,0.00919,0.00362,-0.1282
-4.3,0.1119,0.0091,0.00351,-0.1283
-4.1,0.1346,0.00895,0.00331,-0.1282
-4,0.1462,0.00887,0.00322,-0.1283
-3.9,0.1576,0.0088,0.00312,-0.1283
-3.8,0.1691,0.00874,0.00303,-0.1283
-3.7,0.1806,0.00869,0.00295,-0.1283
-3.6,0.1921,0.0086,0.00285,-0.1283
-3.5,0.2035,0.00852,0.00277,-0.1283
-3.4,0.215,0.00846,0.0027,-0.1283
-3.3,0.2265,0.00843,0.00268,-0.1284
-3.2,0.238,0.00838,0.0026,-0.1284
-3.1,0.2492,0.00834,0.00254,-0.1283
-3,0.2608,0.00826,0.00246,-0.1284
-2.9,0.2724,0.00821,0.0024,-0.1284
-2.8,0.2838,0.00816,0.00234,-0.1284
-2.7,0.2952,0.00812,0.00228,-0.1284
-2.6,0.3067,0.00809,0.00222,-0.1284
-2.5,0.3181,0.00806,0.00216,-0.1283
-2.4,0.3291,0.00804,0.00209,-0.1282
-2.3,0.3402,0.008,0.00203,-0.1281
-2.2,0.3516,0.00798,0.00201,-0.1281
-2.1,0.3632,0.00794,0.00196,-0.1281
-2,0.3744,0.00793,0.00191,-0.1281
-1.9,0.3856,0.00793,0.00187,-0.128
-1.8,0.397,0.0079,0.00182,-0.128
-1.7,0.4084,0.00788,0.00179,-0.128
-1.6,0.4199,0.00786,0.00176,-0.128
-1.5,0.431,0.00786,0.00173,-0.1279
-1.4,0.4424,0.00785,0.0017,-0.1279
-1.3,0.4537,0.00784,0.00168,-0.1279
-1.2,0.4651,0.00783,0.00166,-0.1279
-1.1,0.4765,0.00782,0.00164,-0.1279
-1,0.4875,0.00785,0.00162,-0.1278
-0.9,0.4989,0.00785,0.0016,-0.1278
-0.8,0.5097,0.00789,0.00158,-0.1277
-0.7,0.5211,0.00788,0.00158,-0.1277
-0.6,0.5324,0.0079,0.00157,-0.1276
-0.5,0.5437,0.0079,0.00156,-0.1276
-0.4,0.5544,0.00797,0.00155,-0.1275
-0.3,0.5654,0.00801,0.00155,-0.1274
-0.2,0.5765,0.00803,0.00155,-0.1274
0,0.5987,0.0081,0.00156,-0.1273
0.1,0.6091,0.00821,0.00158,-0.1271
0.2,0.6201,0.00825,0.00159,-0.127
0.3,0.6308,0.00833,0.00161,-0.1269
0.4,0.6415,0.00842,0.00164,-0.1268
0.5,0.6525,0.00848,0.00165,-0.1267
0.6,0.6635,0.00852,0.00168,-0.1267
0.7,0.6744,0.00858,0.00171,-0.1266
0.8,0.6851,0.00868,0.00174,-0.1265
0.9,0.6949,0.00887,0.0018,-0.1263
1,0.7057,0.00894,0.00184,-0.1262
1.1,0.7166,0.00901,0.00187,-0.1261
1.2,0.7274,0.00909,0.0019,-0.1261
1.3,0.7382,0.00916,0.00195,-0.126
1.4,0.7489,0.00925,0.00199,-0.1259
1.5,0.7586,0.00947,0.00207,-0.1257
1.6,0.7692,0.00958,0.00211,-0.1256
1.7,0.7798,0.00969,0.00217,-0.1255
1.8,0.7902,0.00981,0.00223,-0.1254
1.9,0.8005,0.00996,0.00229,-0.1253
2,0.8108,0.0101,0.00238,-0.1251
2.1,0.821,0.01026,0.00245,-0.125
2.2,0.8312,0.01043,0.00253,-0.1249
2.3,0.8406,0.0107,0.00265,-0.1246
2.4,0.8512,0.0108,0.00271,-0.1245
2.5,0.8619,0.01089,0.00278,-0.1245
2.6,0.8727,0.01096,0.00283,-0.1244
2.7,0.8835,0.01103,0.0029,-0.1244
2.8,0.8943,0.01109,0.00295,-0.1243
2.9,0.9051,0.01116,0.00301,-0.1243
3,0.9157,0.01125,0.00308,-0.1242
3.1,0.9265,0.01131,0.00315,-0.1242
3.2,0.9373,0.01136,0.00322,-0.1241
3.4,0.9528,0.01011,0.00342,-0.123
3.5,0.9636,0.01019,0.00348,-0.1229
3.6,0.9743,0.01029,0.00354,-0.1228
3.7,0.9852,0.01036,0.0036,-0.1228
3.8,0.9958,0.01047,0.00367,-0.1227
3.9,1.0064,0.01056,0.00373,-0.1226
4,1.0172,0.01064,0.0038,-0.1225
4.1,1.028,0.01072,0.00386,-0.1224
4.2,1.0388,0.0108,0.00392,-0.1224
4.3,1.0494,0.01089,0.004,-0.1223
4.4,1.06,0.01099,0.00408,-0.1222
4.5,1.0708,0.01106,0.00415,-0.1221
4.6,1.0813,0.01117,0.00422,-0.122
4.7,1.0919,0.01127,0.00429,-0.1219
4.8,1.1024,0.01137,0.00437,-0.1218
4.9,1.1131,0.01145,0.00444,-0.1217
5,1.1237,0.01153,0.00452,-0.1216
5.1,1.1343,0.01162,0.00459,-0.1215
5.2,1.1447,0.01172,0.00467,-0.1214
5.3,1.1551,0.01183,0.00476,-0.1213
5.4,1.1656,0.01193,0.00484,-0.1212
5.5,1.1761,0.01202,0.00494,-0.1211
5.6,1.1865,0.01212,0.00503,-0.121
5.7,1.1968,0.01224,0.00512,-0.1209
5.8,1.2072,0.01233,0.00522,-0.1207
5.9,1.2176,0.01242,0.0053,-0.1206
6,1.228,0.01252,0.00539,-0.1205
6.1,1.238,0.01266,0.00549,-0.1203
6.2,1.2482,0.01278,0.0056,-0.1202
6.3,1.2586,0.01288,0.0057,-0.1201
6.4,1.2689,0.01297,0.00579,-0.1199
6.5,1.2791,0.01308,0.00589,-0.1198
6.6,1.2893,0.01319,0.00601,-0.1196
6.7,1.2993,0.01332,0.00612,-0.1195
6.8,1.3094,0.01344,0.00624,-0.1193
6.9,1.3196,0.01355,0.00634,-0.1192
7,1.3295,0.01368,0.00645,-0.119
7.1,1.3394,0.0138,0.00657,-0.1188
7.2,1.3493,0.01394,0.00669,-0.1186
7.3,1.3592,0.01407,0.00682,-0.1184
7.4,1.3693,0.01418,0.00693,-0.1183
7.5,1.3792,0.0143,0.00705,-0.1181
7.6,1.3891,0.01442,0.00717,-0.1179
7.7,1.3985,0.0146,0.00733,-0.1177
7.8,1.4082,0.01475,0.00747,-0.1174
7.9,1.418,0.01486,0.0076,-0.1173
8,1.4278,0.01499,0.00773,-0.1171
8.1,1.4375,0.01512,0.00786,-0.1168
8.2,1.4471,0.01526,0.008,-0.1166
8.3,1.4566,0.01542,0.00814,-0.1164
8.4,1.4659,0.01558,0.0083,-0.1161
8.5,1.4755,0.01572,0.00845,-0.1159
8.6,1.485,0.01585,0.00859,-0.1156
8.7,1.4945,0.01599,0.00874,-0.1154
8.8,1.5039,0.01614,0.00889,-0.1151
8.9,1.5129,0.01634,0.00907,-0.1148
9,1.522,0.01651,0.00924,-0.1145
9.1,1.5311,0.01668,0.00942,-0.1143
9.2,1.5404,0.01682,0.00957,-0.114
9.3,1.5496,0.01697,0.00974,-0.1137
9.4,1.5588,0.01713,0.0099,-0.1134
9.5,1.5678,0.01729,0.01007,-0.1131
9.6,1.5766,0.01747,0.01025,-0.1128
9.7,1.5854,0.01765,0.01044,-0.1124
9.8,1.594,0.01785,0.01063,-0.1121
9.9,1.6027,0.01804,0.01084,-0.1117
10,1.6114,0.0182,0.01101,-0.1114
10.1,1.6196,0.01843,0.01121,-0.111
10.2,1.628,0.01863,0.01141,-0.1106
10.3,1.6362,0.01884,0.01163,-0.1102
10.4,1.6444,0.01906,0.01185,-0.1097
10.5,1.6529,0.01923,0.01206,-0.1094
10.6,1.6612,0.01941,0.01225,-0.109
10.7,1.6695,0.01959,0.01246,-0.1085
10.8,1.6776,0.01979,0.01266,-0.1081
10.9,1.6856,0.01999,0.01288,-0.1076
11,1.6934,0.02019,0.0131,-0.1072
11.1,1.7009,0.02041,0.01333,-0.1067
11.2,1.7084,0.02064,0.01356,-0.1061
11.3,1.7156,0.02088,0.01381,-0.1055
11.4,1.7226,0.02113,0.01407,-0.1049
11.5,1.7299,0.02133,0.01431,-0.1044
11.6,1.7371,0.02154,0.01453,-0.1038
11.7,1.744,0.02175,0.01477,-0.1032
11.8,1.7508,0.02198,0.01503,-0.1025
11.9,1.7573,0.02221,0.01528,-0.1019
12,1.7636,0.02245,0.01554,-0.1011
12.1,1.7692,0.0227,0.01581,-0.1003
12.2,1.7742,0.02297,0.01608,-0.0994
12.3,1.779,0.02325,0.01638,-0.0984
12.4,1.7837,0.02354,0.01669,-0.0974
12.5,1.7889,0.02379,0.01698,-0.0965
12.6,1.7938,0.02406,0.01726,-0.0956
12.7,1.7987,0.02434,0.01756,-0.0947
12.8,1.8034,0.02463,0.01788,-0.0938
12.9,1.8079,0.02493,0.0182,-0.0929
13,1.8123,0.02525,0.01854,-0.092
13.1,1.8164,0.02559,0.0189,-0.091
13.2,1.8203,0.02595,0.01928,-0.0901
13.3,1.8242,0.02631,0.01967,-0.0892
13.4,1.8286,0.02663,0.02003,-0.0883
13.5,1.8328,0.02696,0.0204,-0.0874
13.6,1.8367,0.02731,0.02078,-0.0866
13.7,1.8405,0.02768,0.02119,-0.0857
13.8,1.844,0.02807,0.0216,-0.0848
13.9,1.8474,0.02847,0.02203,-0.0839
14,1.8505,0.0289,0.02248,-0.083
14.1,1.8533,0.02935,0.02296,-0.0821
14.2,1.8557,0.02983,0.02347,-0.0812
14.3,1.8585,0.03028,0.02397,-0.0804
14.4,1.8614,0.03073,0.02446,-0.0795
14.5,1.864,0.03121,0.02497,-0.0787
14.6,1.8665,0.0317,0.0255,-0.0779
14.7,1.8688,0.03221,0.02604,-0.0771
14.8,1.8709,0.03274,0.02661,-0.0763
14.9,1.8727,0.03331,0.02721,-0.0756
15,1.8743,0.03389,0.02783,-0.0748
15.1,1.8755,0.03452,0.02849,-0.0741
15.2,1.8765,0.03516,0.02917,-0.0734
15.3,1.8775,0.03582,0.02989,-0.0727
15.4,1.8789,0.03646,0.03057,-0.0721
15.5,1.8801,0.03712,0.03128,-0.0715
15.6,1.8812,0.03781,0.03201,-0.071
15.7,1.8821,0.03852,0.03277,-0.0705
15.8,1.8829,0.03926,0.03356,-0.0701
15.9,1.8836,0.04002,0.03437,-0.0697
16,1.884,0.04082,0.03522,-0.0693
16.1,1.8842,0.04164,0.03608,-0.069
16.2,1.8842,0.0425,0.03701,-0.0688
16.3,1.8841,0.0434,0.03796,-0.0686
16.4,1.8838,0.04432,0.03893,-0.0685
16.5,1.8833,0.04529,0.03995,-0.0684
16.6,1.8828,0.04629,0.041,-0.0685
16.7,1.882,0.04734,0.04211,-0.0686
16.8,1.881,0.04842,0.04325,-0.0688
16.9,1.8797,0.04958,0.04446,-0.0691
17,1.8785,0.05073,0.04568,-0.0695
17.1,1.877,0.05196,0.04696,-0.0701
17.2,1.8755,0.0532,0.04827,-0.0707
17.3,1.8742,0.05445,0.04959,-0.0714
17.4,1.8728,0.05576,0.05097,-0.0723
17.5,1.8713,0.05713,0.0524,-0.0733
17.6,1.8697,0.05857,0.05391,-0.0744
17.7,1.8681,0.06006,0.05547,-0.0757
17.8,1.8665,0.06164,0.05713,-0.0772
17.9,1.8646,0.0633,0.05887,-0.0789
18,1.8627,0.06507,0.06072,-0.0808
18.1,1.8607,0.06694,0.06267,-0.0828
18.2,1.8585,0.06895,0.06476,-0.0851
18.3,1.8558,0.07115,0.06704,-0.0877
18.4,1.853,0.07348,0.06947,-0.0905
18.5,1.8496,0.07606,0.07214,-0.0936
18.6,1.8455,0.07895,0.07513,-0.0971
18.7,1.8406,0.08219,0.07847,-0.101
18.8,1.8346,0.08594,0.08234,-0.1055
18.9,1.8269,0.09039,0.08693,-0.1107
19,1.8164,0.09602,0.09271,-0.1171
19.1,1.8017,0.10336,0.10024,-0.1249
19.2,1.7816,0.11262,0.10971,-0.1341
19.3,1.7587,0.12226,0.11956,-0.1437
19.4,1.7392,0.13047,0.12792,-0.152
19.5,1.7211,0.1381,0.1357,-0.1599
19.6,1.7062,0.14462,0.14234,-0.1668
19.7,1.6933,0.15056,0.14838,-0.1733
19.8,1.6849,0.15511,0.15299,-0.1784
19.9,1.6762,0.16016,0.15813,-0.1838
20,1.6712,0.16401,0.16204,-0.188
20.1,1.6646,0.16882,0.16692,-0.1928
20.2,1.6616,0.17235,0.1705,-0.1963
20.3,1.6565,0.17705,0.17527,-0.2007
20.4,1.6545,0.18041,0.17867,-0.204
20.5,1.6535,0.18341,0.18171,-0.2069
20.6,1.6503,0.18767,0.18602,-0.2106
20.7,1.6496,0.19069,0.18908,-0.2134
20.8,1.6496,0.19337,0.19179,-0.2159
20.9,1.6496,0.19609,0.19454,-0.2184
21,1.6483,0.19963,0.19812,-0.2215
21.1,1.6477,0.20287,0.2014,-0.2243
21.2,1.6481,0.20551,0.20407,-0.2267
21.3,1.6488,0.20803,0.20661,-0.229
21.4,1.6496,0.21053,0.20914,-0.2313
21.5,1.6502,0.21321,0.21184,-0.2336
21.6,1.6494,0.21696,0.21564,-0.2367
21.7,1.6503,0.21953,0.21823,-0.239
21.8,1.6516,0.22188,0.2206,-0.2411
21.9,1.6529,0.22422,0.22296,-0.2432
22,1.6542,0.2266,0.22536,-0.2454
22.1,1.6554,0.22902,0.2278,-0.2476
22.2,1.6562,0.23189,0.2307,-0.25
22.3,1.6566,0.23528,0.23412,-0.2528
22.4,1.658,0.23771,0.23657,-0.2549
22.5,1.6596,0.24002,0.23889,-0.257
22.6,1.6613,0.24228,0.24118,-0.2591
22.7,1.6631,0.2445,0.24341,-0.2611
22.8,1.6649,0.2467,0.24563,-0.2632
22.9,1.6667,0.24894,0.24788,-0.2652
23,1.6685,0.25112,0.25006,-0.2672
23.1,1.6699,0.25396,0.25292,-0.2696
23.2,1.6719,0.256,0.25497,-0.2716
23.3,1.674,0.25787,0.25685,-0.2734
23.4,1.6764,0.25943,0.25841,-0.2751
23.5,1.6788,0.26098,0.25996,-0.2768
23.6,1.6812,0.26244,0.26143,-0.2784
23.7,1.6837,0.26366,0.26265,-0.28
23.8,1.6874,0.26301,0.26197,-0.2805
23.9,1.6889,0.26556,0.26452,-0.2828
24,1.6896,0.26986,0.26887,-0.286

