airfoilName st17.dat
Re 	8.300000e+05
M 	0
N 	4.500000e+00
VACC 	0 VACCflag 1
XTR 	1.00 	1.00 XTRflag 0
alpha,cl,cd,cdp,cm
-7.4,-0.2326,0.0161,0.01241,-0.1296
-7.3,-0.2209,0.01533,0.01151,-0.1301
-7.2,-0.2092,0.01475,0.01082,-0.1305
-7.1,-0.1977,0.01428,0.01027,-0.1309
-7,-0.1861,0.01387,0.00977,-0.1311
-6.9,-0.1746,0.01352,0.00935,-0.1313
-6.8,-0.1631,0.01322,0.00898,-0.1315
-6.7,-0.1519,0.01296,0.00865,-0.1316
-6.6,-0.1404,0.01273,0.00836,-0.1317
-6.5,-0.129,0.01253,0.00811,-0.1319
-6.4,-0.1175,0.01227,0.00781,-0.132
-6.3,-0.1058,0.01159,0.00702,-0.1324
-6.2,-0.0944,0.01129,0.00666,-0.1325
-6.1,-0.0833,0.01106,0.00636,-0.1325
-6,-0.072,0.01085,0.0061,-0.1326
-5.9,-0.0604,0.01065,0.00587,-0.1327
-5.8,-0.0489,0.01047,0.00566,-0.1328
-5.7,-0.0375,0.01031,0.00545,-0.1328
-5.6,-0.026,0.01015,0.00525,-0.1329
-5.5,-0.0147,0.01,0.00506,-0.1329
-5.4,-0.0033,0.00985,0.00486,-0.1329
-5.3,0.0081,0.00972,0.00468,-0.1329
-5.2,0.0197,0.00958,0.00451,-0.133
-5.1,0.0311,0.00945,0.00435,-0.133
-5,0.0426,0.00935,0.0042,-0.133
-4.9,0.0541,0.00925,0.00407,-0.1331
-4.8,0.0656,0.00911,0.0039,-0.1331
-4.7,0.077,0.00895,0.00371,-0.1331
-4.6,0.0886,0.00883,0.00356,-0.1332
-4.5,0.1,0.00873,0.00345,-0.1332
-4.4,0.1115,0.00864,0.00334,-0.1332
-4.3,0.123,0.00856,0.00323,-0.1333
-4.2,0.1344,0.00848,0.00312,-0.1333
-4.1,0.1459,0.00841,0.00302,-0.1333
-4,0.1574,0.00834,0.00293,-0.1333
-3.9,0.1688,0.00828,0.00284,-0.1333
-3.8,0.1803,0.0082,0.00274,-0.1333
-3.7,0.1918,0.00812,0.00265,-0.1333
-3.6,0.2032,0.00806,0.00257,-0.1333
-3.5,0.2147,0.008,0.0025,-0.1334
-3.4,0.2263,0.00794,0.00243,-0.1334
-3.3,0.2376,0.00789,0.00236,-0.1334
-3.2,0.2491,0.00785,0.00229,-0.1334
-3.1,0.2606,0.00781,0.00223,-0.1334
-3,0.272,0.00774,0.00215,-0.1334
-2.9,0.2836,0.00769,0.0021,-0.1335
-2.8,0.2951,0.00764,0.00204,-0.1335
-2.7,0.3064,0.00762,0.00202,-0.1335
-2.6,0.3178,0.00759,0.00198,-0.1335
-2.5,0.3294,0.00753,0.00192,-0.1335
-2.4,0.3404,0.00752,0.00186,-0.1334
-2.3,0.3517,0.00749,0.00181,-0.1334
-2.2,0.3632,0.00746,0.00177,-0.1334
-2.1,0.3743,0.00746,0.00172,-0.1333
-2,0.3855,0.00745,0.00168,-0.1333
-1.9,0.3969,0.00743,0.00164,-0.1333
-1.8,0.4084,0.00739,0.0016,-0.1333
-1.7,0.4194,0.0074,0.00157,-0.1332
-1.6,0.4308,0.00738,0.00155,-0.1332
-1.5,0.4421,0.00739,0.00152,-0.1332
-1.4,0.4534,0.00738,0.00149,-0.1332
-1.3,0.4649,0.00735,0.00147,-0.1332
-1.2,0.4758,0.00739,0.00145,-0.1331
-1.1,0.4872,0.00738,0.00143,-0.1331
-1,0.4985,0.00738,0.00141,-0.1331
-0.9,0.5099,0.00737,0.0014,-0.1331
-0.8,0.5213,0.00736,0.00139,-0.1331
-0.7,0.5319,0.00742,0.00138,-0.1329
-0.6,0.5432,0.00744,0.00137,-0.1329
-0.5,0.5545,0.00745,0.00136,-0.1329
-0.4,0.5657,0.00746,0.00135,-0.1329
-0.3,0.5767,0.00749,0.00136,-0.1328
0,0.609,0.00769,0.00138,-0.1325
0.1,0.62,0.00773,0.00139,-0.1324
0.2,0.631,0.00778,0.00141,-0.1323
0.3,0.6417,0.00786,0.00143,-0.1322
0.4,0.6519,0.008,0.00147,-0.132
0.5,0.6629,0.00805,0.00149,-0.132
0.6,0.6738,0.00811,0.00151,-0.1319
0.7,0.6848,0.00816,0.00154,-0.1319
0.8,0.695,0.00831,0.00158,-0.1317
0.9,0.7059,0.00838,0.00161,-0.1316
1,0.7167,0.00844,0.00164,-0.1316
1.1,0.7263,0.00867,0.00173,-0.1313
1.2,0.737,0.00876,0.00177,-0.1312
1.3,0.7477,0.00885,0.00181,-0.1312
1.4,0.7584,0.00894,0.00185,-0.1311
1.5,0.7689,0.00905,0.0019,-0.131
1.6,0.7795,0.00916,0.00195,-0.1309
1.7,0.7889,0.00944,0.00205,-0.1306
1.8,0.7991,0.00958,0.00213,-0.1305
1.9,0.8094,0.00973,0.0022,-0.1304
2,0.8195,0.0099,0.00228,-0.1302
2.1,0.8297,0.01006,0.00236,-0.1301
2.2,0.8401,0.01019,0.00243,-0.13
2.3,0.8507,0.0103,0.0025,-0.1299
2.4,0.8609,0.01046,0.00258,-0.1297
2.5,0.8717,0.01052,0.00263,-0.1297
2.6,0.8825,0.0106,0.0027,-0.1296
2.7,0.8933,0.01065,0.00274,-0.1296
2.8,0.9042,0.01071,0.0028,-0.1295
2.9,0.9149,0.01078,0.00286,-0.1295
3,0.9258,0.01083,0.00291,-0.1294
3.1,0.9363,0.01094,0.00297,-0.1293
3.2,0.9472,0.01097,0.00303,-0.1293
3.3,0.9581,0.01102,0.0031,-0.1293
3.4,0.9689,0.01105,0.00316,-0.1292
3.5,0.9742,0.0098,0.00334,-0.1283
3.6,0.985,0.00988,0.0034,-0.1283
3.7,0.9958,0.00995,0.00345,-0.1282
3.8,1.0062,0.01008,0.00352,-0.1281
3.9,1.017,0.01015,0.00358,-0.128
4,1.0278,0.01022,0.00364,-0.1279
4.1,1.0385,0.0103,0.0037,-0.1279
4.2,1.0491,0.0104,0.00376,-0.1278
4.3,1.0598,0.01048,0.00384,-0.1277
4.4,1.0705,0.01056,0.0039,-0.1276
4.5,1.0809,0.01068,0.00397,-0.1275
4.6,1.0914,0.01077,0.00407,-0.1274
4.7,1.1021,0.01085,0.00413,-0.1273
4.8,1.1127,0.01093,0.0042,-0.1272
4.9,1.1233,0.01102,0.00427,-0.1271
5,1.1337,0.01112,0.00435,-0.127
5.1,1.1442,0.01122,0.00444,-0.1269
5.2,1.1546,0.01133,0.00451,-0.1268
5.3,1.165,0.01143,0.00459,-0.1266
5.4,1.1754,0.01154,0.00468,-0.1265
5.5,1.1858,0.01163,0.00477,-0.1264
5.6,1.1963,0.01172,0.00485,-0.1263
5.7,1.2067,0.01181,0.00495,-0.1262
5.8,1.217,0.01192,0.00504,-0.126
5.9,1.227,0.01206,0.00515,-0.1259
6,1.2374,0.01216,0.00524,-0.1257
6.1,1.2477,0.01226,0.00533,-0.1256
6.2,1.2579,0.01237,0.00543,-0.1255
6.3,1.2679,0.0125,0.00553,-0.1253
6.4,1.2782,0.01261,0.00564,-0.1252
6.5,1.2884,0.01271,0.00574,-0.125
6.6,1.2986,0.01281,0.00584,-0.1249
6.7,1.3082,0.01299,0.00596,-0.1246
6.8,1.3183,0.01311,0.00608,-0.1245
6.9,1.3284,0.01321,0.0062,-0.1243
7,1.3385,0.01333,0.00631,-0.1242
7.1,1.3484,0.01345,0.00643,-0.124
7.2,1.3583,0.01359,0.00655,-0.1238
7.3,1.368,0.01373,0.00668,-0.1236
7.4,1.3778,0.01387,0.00681,-0.1234
7.5,1.3877,0.01399,0.00693,-0.1232
7.6,1.3975,0.01413,0.00706,-0.123
7.7,1.4071,0.01428,0.00719,-0.1228
7.8,1.4167,0.01443,0.00735,-0.1225
7.9,1.4265,0.01455,0.00747,-0.1223
8,1.4363,0.01468,0.0076,-0.1221
8.1,1.4459,0.01482,0.00775,-0.1219
8.2,1.4555,0.01496,0.00789,-0.1217
8.3,1.4649,0.01512,0.00804,-0.1214
8.4,1.4743,0.01528,0.0082,-0.1211
8.5,1.4837,0.01543,0.00836,-0.1209
8.6,1.4933,0.01557,0.00851,-0.1206
8.7,1.5026,0.01573,0.00866,-0.1204
8.8,1.5119,0.01588,0.00881,-0.1201
8.9,1.5211,0.01605,0.00898,-0.1198
9,1.5298,0.01627,0.00917,-0.1195
9.1,1.5391,0.01642,0.00934,-0.1192
9.2,1.5481,0.0166,0.0095,-0.1189
9.3,1.5572,0.01676,0.00967,-0.1186
9.4,1.5662,0.01693,0.00986,-0.1183
9.5,1.5751,0.01711,0.01004,-0.118
9.6,1.5838,0.0173,0.01023,-0.1176
9.7,1.5926,0.0175,0.01043,-0.1173
9.8,1.6015,0.01766,0.01062,-0.1169
9.9,1.6103,0.01782,0.01079,-0.1166
10,1.6191,0.01799,0.01098,-0.1163
10.1,1.6278,0.01817,0.01117,-0.1159
10.2,1.6364,0.01835,0.01136,-0.1155
10.3,1.6445,0.01858,0.01157,-0.1151
10.4,1.6527,0.01879,0.01179,-0.1147
10.5,1.6608,0.01901,0.01201,-0.1142
10.6,1.6691,0.01921,0.01224,-0.1138
10.7,1.6774,0.01939,0.01244,-0.1134
10.8,1.6855,0.01958,0.01266,-0.113
10.9,1.6936,0.01977,0.01287,-0.1125
11,1.7015,0.01998,0.01309,-0.112
11.1,1.7092,0.02019,0.01332,-0.1115
11.2,1.7168,0.02041,0.01355,-0.111
11.3,1.7241,0.02065,0.0138,-0.1105
11.4,1.7312,0.0209,0.01406,-0.1099
11.5,1.7382,0.02115,0.01432,-0.1093
11.6,1.7454,0.02136,0.01456,-0.1087
11.7,1.7522,0.0216,0.0148,-0.1081
11.8,1.7589,0.02183,0.01505,-0.1074
11.9,1.7654,0.02208,0.01532,-0.1067
12,1.7716,0.02234,0.01559,-0.106
12.1,1.7774,0.02261,0.01588,-0.1052
12.2,1.7828,0.0229,0.01618,-0.1043
12.3,1.788,0.02314,0.01645,-0.1034
12.4,1.793,0.02339,0.01674,-0.1024
12.5,1.7979,0.02365,0.01703,-0.1015
12.6,1.8026,0.02393,0.01733,-0.1005
12.7,1.8071,0.02422,0.01765,-0.0995
12.8,1.8115,0.02453,0.01798,-0.0985
12.9,1.8157,0.02485,0.01832,-0.0975
13,1.8196,0.0252,0.01868,-0.0965
13.1,1.8235,0.02554,0.01907,-0.0955
13.2,1.8277,0.02587,0.01942,-0.0945
13.3,1.8317,0.0262,0.01979,-0.0936
13.4,1.8357,0.02654,0.02016,-0.0927
13.5,1.8395,0.0269,0.02056,-0.0917
13.6,1.8431,0.02727,0.02096,-0.0907
13.7,1.8465,0.02765,0.02137,-0.0898
13.8,1.8497,0.02806,0.02181,-0.0888
13.9,1.8528,0.02847,0.02226,-0.0879
14,1.8557,0.02891,0.02273,-0.0869
14.1,1.8583,0.02936,0.02322,-0.0859
14.2,1.8607,0.02984,0.02373,-0.085
14.3,1.8628,0.03033,0.02426,-0.084
14.4,1.8649,0.03083,0.02481,-0.0831
14.5,1.8671,0.03133,0.02535,-0.0822
14.6,1.8692,0.03184,0.0259,-0.0813
14.7,1.8712,0.03237,0.02649,-0.0804
14.8,1.873,0.03292,0.02708,-0.0796
14.9,1.8747,0.03349,0.02769,-0.0787
15,1.876,0.03408,0.02833,-0.0779
15.1,1.8773,0.03469,0.02899,-0.0771
15.2,1.8783,0.03532,0.02967,-0.0764
15.3,1.8793,0.03597,0.03037,-0.0756
15.4,1.88,0.03665,0.0311,-0.0749
15.5,1.8807,0.03736,0.03185,-0.0743
15.6,1.8811,0.03809,0.03263,-0.0737
15.7,1.8814,0.03885,0.03344,-0.0731
15.8,1.8815,0.03964,0.03429,-0.0726
15.9,1.8815,0.04045,0.03515,-0.0721
16,1.8811,0.04131,0.03606,-0.0716
16.1,1.8806,0.04219,0.037,-0.0713
16.2,1.8799,0.04311,0.03798,-0.0709
16.3,1.8791,0.04407,0.03899,-0.0707
16.4,1.8783,0.04505,0.04003,-0.0705
16.5,1.8772,0.04608,0.04111,-0.0705
16.6,1.8758,0.04717,0.04226,-0.0705
16.7,1.8743,0.04828,0.04343,-0.0705
16.8,1.8729,0.04941,0.04462,-0.0707
16.9,1.8709,0.05063,0.0459,-0.071
17,1.8687,0.0519,0.04723,-0.0714
17.1,1.8664,0.0532,0.0486,-0.0719
17.2,1.8638,0.05458,0.05004,-0.0726
17.3,1.8613,0.056,0.05153,-0.0734
17.4,1.8584,0.05752,0.05312,-0.0744
17.5,1.8557,0.05908,0.05476,-0.0755
17.6,1.8526,0.06078,0.05653,-0.0769
17.7,1.8496,0.06256,0.05838,-0.0785
17.8,1.8465,0.06442,0.06033,-0.0802
17.9,1.843,0.06649,0.06248,-0.0824
18,1.8395,0.06866,0.06473,-0.0847
18.1,1.8358,0.07102,0.06717,-0.0873
18.2,1.8312,0.07368,0.06994,-0.0904
18.3,1.8271,0.07643,0.07278,-0.0937
18.4,1.8217,0.07967,0.07613,-0.0975
18.5,1.8155,0.08336,0.07993,-0.102
18.6,1.8075,0.08788,0.08458,-0.1073
18.7,1.7983,0.09311,0.08996,-0.1133
18.8,1.7854,0.10007,0.0971,-0.1209
18.9,1.7659,0.10975,0.10701,-0.1305
19.1,1.7166,0.13095,0.12863,-0.1509
19.2,1.6953,0.13998,0.13781,-0.1599
19.3,1.6773,0.14777,0.14574,-0.1679
19.4,1.6633,0.1543,0.15238,-0.1748
19.5,1.6535,0.15951,0.15767,-0.1806
19.6,1.6441,0.16494,0.16318,-0.1863
19.7,1.6364,0.1702,0.16852,-0.1916
19.8,1.6324,0.17418,0.17255,-0.1956
19.9,1.6288,0.17817,0.17659,-0.1995
20,1.6243,0.18288,0.18136,-0.2038
20.1,1.6232,0.18605,0.18456,-0.2068
20.2,1.622,0.18933,0.18788,-0.2098
20.3,1.6188,0.19395,0.19256,-0.2137
20.4,1.6183,0.19701,0.19565,-0.2165
20.5,1.6184,0.19981,0.19847,-0.219
20.6,1.6186,0.20268,0.20137,-0.2215
20.7,1.6164,0.2072,0.20594,-0.2252
20.8,1.617,0.20995,0.20871,-0.2276
20.9,1.6178,0.21259,0.21136,-0.2299
21,1.6187,0.21516,0.21395,-0.2322
21.1,1.6199,0.21763,0.21644,-0.2344
21.2,1.6208,0.22035,0.21918,-0.2367
21.3,1.6203,0.22425,0.22311,-0.2398
21.4,1.6218,0.22662,0.2255,-0.2419
21.5,1.6236,0.2287,0.22759,-0.2439
21.6,1.6256,0.23064,0.22954,-0.2457
21.7,1.6277,0.23245,0.23135,-0.2475
21.8,1.6299,0.23409,0.233,-0.2492
21.9,1.6322,0.23573,0.23465,-0.2509
22,1.6346,0.23714,0.23606,-0.2525
22.1,1.637,0.2385,0.23742,-0.2541
22.2,1.6394,0.23976,0.23869,-0.2557
22.3,1.6411,0.24209,0.24103,-0.2577
22.4,1.6421,0.24529,0.24426,-0.2602
22.5,1.642,0.2498,0.24881,-0.2635
22.6,1.643,0.25329,0.25234,-0.2661
22.7,1.6441,0.25678,0.25586,-0.2688
25.7,1.72,0.3464,0.34566,-0.3353
25.8,1.7227,0.34815,0.34741,-0.3371
25.9,1.7253,0.34987,0.34913,-0.3389
26,1.728,0.35156,0.35083,-0.3407
26.1,1.7306,0.35321,0.35249,-0.3424
26.2,1.7332,0.3549,0.35418,-0.3442
26.3,1.7357,0.35657,0.35585,-0.346
26.4,1.7382,0.35818,0.35747,-0.3477
26.5,1.7407,0.35978,0.35907,-0.3495
26.6,1.7432,0.36139,0.36069,-0.3513
26.7,1.7457,0.36311,0.36241,-0.3531
26.8,1.7481,0.36463,0.36394,-0.3549
26.9,1.7505,0.36614,0.36545,-0.3567
27,1.7529,0.36776,0.36707,-0.3585
27.1,1.7553,0.36942,0.36874,-0.3603
27.2,1.7576,0.37084,0.37017,-0.3621
27.3,1.7599,0.37238,0.37171,-0.3639
27.4,1.7623,0.37399,0.37333,-0.3657
27.5,1.7646,0.37558,0.37493,-0.3675
27.6,1.7668,0.37702,0.37637,-0.3693
27.7,1.769,0.37856,0.37791,-0.3711
27.8,1.7713,0.3801,0.37946,-0.3729
27.9,1.7734,0.38158,0.38095,-0.3748
28,1.7753,0.38276,0.38213,-0.3766
28.1,1.7775,0.38431,0.38368,-0.3784
28.2,1.7795,0.38584,0.38522,-0.3803
28.3,1.7815,0.3874,0.38678,-0.3821
28.4,1.7835,0.389,0.38839,-0.384
28.5,1.7854,0.39071,0.3901,-0.3858
28.7,1.7992,0.40585,0.40521,-0.392
28.8,1.8024,0.40882,0.40818,-0.3941
28.9,1.8051,0.41115,0.41052,-0.3961
29,1.8079,0.41359,0.41296,-0.3982
29.1,1.8105,0.41579,0.41517,-0.4002
29.2,1.813,0.41792,0.4173,-0.4022
29.3,1.8155,0.41996,0.41934,-0.4042
29.4,1.8178,0.42193,0.42131,-0.4062
29.5,1.8202,0.42385,0.42324,-0.4082
29.6,1.8225,0.42577,0.42516,-0.4102
29.7,1.8247,0.42763,0.42703,-0.4122
29.8,1.8269,0.42948,0.42888,-0.4142
29.9,1.8291,0.4313,0.4307,-0.4162
30,1.8312,0.4331,0.43251,-0.4182

