airfoilName st17.dat
Re 	750000
M 	0
N 	4.500000e+00
VACC 	0 VACCflag 1
XTR 	1.00 	1.00 XTRflag 0
alpha,cl,cd,cdp,cm
-7.3,-0.2212,0.01666,0.01289,-0.1295
-7.2,-0.2094,0.01585,0.01195,-0.1301
-7.1,-0.1978,0.0153,0.0113,-0.1305
-7,-0.1863,0.01483,0.01074,-0.1308
-6.9,-0.1748,0.01446,0.0103,-0.131
-6.8,-0.1633,0.01414,0.00991,-0.1313
-6.7,-0.1518,0.01388,0.00958,-0.1314
-6.6,-0.14,0.01316,0.00874,-0.1319
-6.5,-0.1282,0.01262,0.00811,-0.1323
-6.4,-0.1166,0.01228,0.00771,-0.1325
-6.3,-0.1051,0.012,0.00737,-0.1326
-6.2,-0.0938,0.01175,0.00708,-0.1327
-6.1,-0.0825,0.01152,0.0068,-0.1328
-6,-0.0714,0.01131,0.00653,-0.1327
-5.9,-0.0599,0.01111,0.00629,-0.1328
-5.8,-0.0485,0.01092,0.00605,-0.1329
-5.7,-0.037,0.01074,0.00583,-0.133
-5.6,-0.0256,0.01056,0.00561,-0.133
-5.5,-0.0141,0.01039,0.0054,-0.1331
-5.4,-0.0025,0.01023,0.00518,-0.1332
-5.3,0.0088,0.01008,0.00498,-0.1332
-5.2,0.0203,0.00994,0.0048,-0.1332
-5.1,0.0316,0.00982,0.00463,-0.1332
-5,0.0431,0.00972,0.0045,-0.1332
-4.9,0.0546,0.00952,0.00426,-0.1333
-4.8,0.0662,0.00935,0.00406,-0.1334
-4.7,0.0777,0.00922,0.00391,-0.1334
-4.6,0.089,0.00912,0.00377,-0.1334
-4.5,0.1004,0.00902,0.00365,-0.1334
-4.4,0.1119,0.00892,0.00353,-0.1334
-4.3,0.1234,0.00883,0.00342,-0.1335
-4.2,0.1349,0.00875,0.0033,-0.1335
-4.1,0.1464,0.00867,0.0032,-0.1335
-4,0.1577,0.00861,0.00309,-0.1335
-3.9,0.1692,0.00852,0.00299,-0.1335
-3.8,0.1808,0.00842,0.00288,-0.1335
-3.7,0.1922,0.00835,0.0028,-0.1336
-3.6,0.2037,0.00828,0.00272,-0.1336
-3.5,0.215,0.00823,0.00264,-0.1335
-3.4,0.2264,0.00817,0.00256,-0.1335
-3.3,0.238,0.00812,0.00249,-0.1336
-3.2,0.2494,0.00808,0.00242,-0.1336
-3.1,0.2609,0.008,0.00233,-0.1336
-3,0.2724,0.00794,0.00227,-0.1336
-2.9,0.2837,0.00791,0.00224,-0.1336
-2.8,0.2952,0.00787,0.00218,-0.1336
-2.7,0.3067,0.00783,0.00213,-0.1337
-2.6,0.3182,0.00777,0.00207,-0.1337
-2.5,0.3297,0.00772,0.00202,-0.1337
-2.4,0.341,0.00769,0.00197,-0.1337
-2.3,0.3521,0.00767,0.00191,-0.1336
-2.2,0.3633,0.00765,0.00186,-0.1335
-2.1,0.3748,0.00762,0.00181,-0.1335
-2,0.3859,0.00761,0.00176,-0.1334
-1.9,0.3971,0.00759,0.00172,-0.1334
-1.8,0.4086,0.00756,0.00168,-0.1334
-1.7,0.42,0.00754,0.00166,-0.1334
-1.6,0.4311,0.00754,0.00163,-0.1334
-1.5,0.4424,0.00754,0.00159,-0.1333
-1.4,0.4536,0.00752,0.00156,-0.1333
-1.3,0.4651,0.0075,0.00154,-0.1333
-1.2,0.4764,0.00749,0.00152,-0.1333
-1.1,0.4873,0.00752,0.00149,-0.1331
-1,0.4986,0.00753,0.00148,-0.1331
-0.9,0.51,0.00751,0.00146,-0.1331
-0.8,0.5214,0.0075,0.00145,-0.1331
-0.7,0.5326,0.00751,0.00144,-0.1331
-0.6,0.5433,0.00757,0.00143,-0.133
-0.5,0.5547,0.00757,0.00141,-0.1329
-0.4,0.5659,0.00758,0.00141,-0.1329
-0.3,0.5771,0.00759,0.00141,-0.1329
-0.2,0.5878,0.00765,0.00141,-0.1328
0,0.6094,0.00776,0.00142,-0.1325
0.1,0.6204,0.0078,0.00143,-0.1325
0.2,0.6315,0.00784,0.00143,-0.1324
0.3,0.6424,0.00789,0.00145,-0.1324
0.4,0.653,0.00797,0.00147,-0.1322
0.5,0.6631,0.00811,0.00151,-0.132
0.6,0.6741,0.00817,0.00153,-0.132
0.7,0.685,0.00823,0.00155,-0.1319
0.8,0.6959,0.00829,0.00158,-0.1318
0.9,0.7061,0.00843,0.00163,-0.1316
1,0.7169,0.0085,0.00167,-0.1316
1.2,0.7372,0.0088,0.00178,-0.1312
1.3,0.7478,0.00889,0.00182,-0.1311
1.4,0.7585,0.00898,0.00186,-0.131
1.5,0.7691,0.00909,0.00191,-0.1309
1.6,0.7796,0.00919,0.00196,-0.1308
1.7,0.7901,0.0093,0.00202,-0.1307
1.9,0.8096,0.00972,0.00219,-0.1303
2,0.8198,0.00988,0.00226,-0.1302
2.1,0.8299,0.01005,0.00235,-0.13
2.2,0.84,0.01022,0.00243,-0.1298
2.3,0.8502,0.01038,0.00252,-0.1297
2.4,0.8606,0.01049,0.00258,-0.1296
2.5,0.8707,0.01067,0.00268,-0.1295
2.6,0.8815,0.01073,0.00274,-0.1294
2.7,0.8922,0.01081,0.00279,-0.1293
2.8,0.9029,0.01088,0.00285,-0.1293
2.9,0.9138,0.01094,0.00291,-0.1292
3,0.9245,0.01101,0.00296,-0.1291
3.1,0.9353,0.01107,0.00303,-0.1291
3.2,0.9458,0.01114,0.0031,-0.129
3.3,0.9566,0.01119,0.00318,-0.129
3.4,0.9618,0.00991,0.00335,-0.128
3.5,0.9726,0.00999,0.0034,-0.128
3.6,0.9833,0.01007,0.00346,-0.1279
3.7,0.994,0.01016,0.00353,-0.1278
3.8,1.0048,0.01024,0.00358,-0.1277
3.9,1.0152,0.01036,0.00365,-0.1276
4,1.0258,0.01045,0.00372,-0.1275
4.1,1.0366,0.01052,0.00378,-0.1274
4.2,1.0473,0.0106,0.00385,-0.1274
4.3,1.0579,0.01069,0.00391,-0.1273
4.4,1.0684,0.01079,0.00399,-0.1272
4.5,1.0791,0.01087,0.00406,-0.1271
4.6,1.0895,0.01099,0.00415,-0.127
4.7,1.1,0.01109,0.00422,-0.1268
4.8,1.1106,0.01118,0.0043,-0.1267
4.9,1.1212,0.01126,0.00438,-0.1266
5,1.1317,0.01135,0.00445,-0.1265
5.1,1.1421,0.01145,0.00453,-0.1264
5.2,1.1525,0.01156,0.00462,-0.1263
5.3,1.1628,0.01167,0.0047,-0.1262
5.4,1.1732,0.01177,0.00479,-0.1261
5.5,1.1835,0.01188,0.00488,-0.1259
5.6,1.1939,0.01198,0.00497,-0.1258
5.7,1.2043,0.01207,0.00508,-0.1257
5.8,1.2147,0.01217,0.00516,-0.1255
5.9,1.2249,0.01228,0.00526,-0.1254
6,1.2348,0.01243,0.00537,-0.1252
6.1,1.2451,0.01253,0.00547,-0.1251
6.2,1.2554,0.01263,0.00556,-0.1249
6.3,1.2655,0.01275,0.00566,-0.1248
6.4,1.2756,0.01288,0.00577,-0.1246
6.5,1.2857,0.01299,0.00589,-0.1245
6.6,1.2959,0.0131,0.00599,-0.1243
6.7,1.306,0.01321,0.0061,-0.1241
6.8,1.3156,0.01338,0.00622,-0.1239
6.9,1.3255,0.01351,0.00637,-0.1237
7,1.3356,0.01362,0.00648,-0.1236
7.1,1.3456,0.01374,0.00659,-0.1234
7.2,1.3555,0.01386,0.00671,-0.1232
7.3,1.3652,0.014,0.00684,-0.123
7.4,1.3749,0.01416,0.00697,-0.1228
7.5,1.3848,0.01428,0.00711,-0.1226
7.6,1.3944,0.01443,0.00724,-0.1224
7.7,1.4041,0.01456,0.00737,-0.1221
7.8,1.4137,0.01472,0.00751,-0.1219
7.9,1.4231,0.01488,0.00766,-0.1217
8,1.4328,0.01501,0.00781,-0.1214
8.1,1.4425,0.01514,0.00796,-0.1212
8.2,1.4521,0.01528,0.0081,-0.121
8.3,1.4616,0.01543,0.00825,-0.1207
8.4,1.4709,0.01559,0.0084,-0.1205
8.5,1.4802,0.01576,0.00856,-0.1202
8.6,1.4894,0.01593,0.00874,-0.1199
8.7,1.4989,0.01607,0.00889,-0.1197
8.8,1.5081,0.01623,0.00905,-0.1194
8.9,1.5173,0.01639,0.00921,-0.1191
9,1.5265,0.01656,0.00938,-0.1188
9.1,1.535,0.01679,0.00958,-0.1184
9.2,1.5441,0.01696,0.00977,-0.1181
9.3,1.5532,0.01711,0.00993,-0.1178
9.4,1.562,0.01729,0.01012,-0.1175
9.5,1.5709,0.01747,0.0103,-0.1172
9.6,1.5797,0.01765,0.01049,-0.1168
9.7,1.5883,0.01785,0.01069,-0.1165
9.8,1.5969,0.01805,0.01089,-0.1161
9.9,1.6055,0.01824,0.0111,-0.1157
10,1.6142,0.01841,0.01129,-0.1154
10.1,1.6229,0.01859,0.01148,-0.115
10.2,1.6314,0.01877,0.01168,-0.1146
10.3,1.6396,0.01898,0.01189,-0.1142
10.4,1.6478,0.01918,0.0121,-0.1138
10.5,1.6559,0.0194,0.01232,-0.1133
10.6,1.6638,0.01962,0.01255,-0.1129
10.7,1.6716,0.01986,0.0128,-0.1124
10.8,1.6797,0.02005,0.01303,-0.1119
10.9,1.6877,0.02024,0.01325,-0.1115
11,1.6955,0.02044,0.01347,-0.111
11.1,1.7032,0.02065,0.0137,-0.1105
11.2,1.7107,0.02087,0.01393,-0.1099
11.3,1.718,0.0211,0.01418,-0.1094
11.4,1.725,0.02134,0.01443,-0.1088
11.5,1.7319,0.02159,0.01469,-0.1082
11.6,1.7385,0.02185,0.01497,-0.1075
11.7,1.745,0.02211,0.01525,-0.1068
11.8,1.7517,0.02233,0.0155,-0.1061
11.9,1.7582,0.02256,0.01576,-0.1054
12,1.7641,0.02283,0.01602,-0.1047
12.1,1.7695,0.02309,0.0163,-0.1038
12.2,1.7744,0.02336,0.01659,-0.1028
12.3,1.779,0.02365,0.0169,-0.1018
12.4,1.7834,0.02396,0.01722,-0.1008
12.5,1.7882,0.02423,0.01755,-0.0999
12.6,1.793,0.02451,0.01786,-0.0989
12.7,1.7977,0.0248,0.01818,-0.098
12.8,1.8022,0.02511,0.01851,-0.097
12.9,1.8066,0.02542,0.01885,-0.0961
13,1.8108,0.02575,0.0192,-0.0951
13.1,1.8147,0.0261,0.01958,-0.0942
13.2,1.8184,0.02647,0.01997,-0.0932
13.3,1.822,0.02685,0.02038,-0.0922
13.4,1.8256,0.02723,0.0208,-0.0912
13.5,1.8293,0.0276,0.0212,-0.0903
13.6,1.8329,0.02797,0.02162,-0.0893
13.7,1.8362,0.02837,0.02205,-0.0884
13.8,1.8396,0.02877,0.02249,-0.0875
13.9,1.8426,0.02919,0.02295,-0.0866
14,1.8456,0.02963,0.02342,-0.0856
14.1,1.8483,0.03008,0.02391,-0.0847
14.2,1.8507,0.03056,0.02442,-0.0838
14.3,1.853,0.03105,0.02496,-0.0829
14.4,1.8551,0.03156,0.02551,-0.082
14.5,1.8569,0.03211,0.02609,-0.0811
14.6,1.8585,0.03267,0.02669,-0.0802
14.7,1.8599,0.03326,0.02732,-0.0793
14.8,1.8611,0.03387,0.02799,-0.0785
14.9,1.8625,0.03447,0.02864,-0.0776
15,1.8637,0.03509,0.02931,-0.0769
15.1,1.8648,0.03572,0.02999,-0.0761
15.2,1.8657,0.03638,0.0307,-0.0754
15.3,1.8666,0.03706,0.03143,-0.0747
15.4,1.8673,0.03777,0.03219,-0.0741
15.5,1.8678,0.0385,0.03298,-0.0735
15.6,1.8681,0.03927,0.0338,-0.0729
15.7,1.8684,0.04005,0.03464,-0.0724
15.8,1.8683,0.04088,0.03552,-0.0719
15.9,1.8681,0.04172,0.03642,-0.0715
16,1.8677,0.04261,0.03736,-0.0712
16.1,1.8671,0.04353,0.03834,-0.0709
16.2,1.8664,0.04448,0.03935,-0.0706
16.3,1.8656,0.04547,0.04039,-0.0705
16.4,1.8647,0.04649,0.04148,-0.0704
16.5,1.8635,0.04756,0.0426,-0.0705
16.6,1.8621,0.04868,0.04378,-0.0706
16.7,1.8607,0.04982,0.04499,-0.0708
16.8,1.8592,0.051,0.04622,-0.0711
16.9,1.8571,0.05226,0.04755,-0.0715
17,1.8549,0.05355,0.04891,-0.072
17.1,1.8527,0.0549,0.05032,-0.0726
17.2,1.8503,0.05631,0.05181,-0.0735
17.3,1.8478,0.05779,0.05335,-0.0744
17.4,1.8452,0.05935,0.05498,-0.0756
17.5,1.8426,0.06098,0.05668,-0.0769
17.6,1.8398,0.06272,0.0585,-0.0784
17.7,1.8369,0.06457,0.06043,-0.0802
17.8,1.834,0.06651,0.06245,-0.0822
17.9,1.8307,0.06864,0.06467,-0.0844
18,1.8272,0.07093,0.06705,-0.087
18.1,1.8235,0.07339,0.06959,-0.0898
18.2,1.8191,0.07619,0.0725,-0.0932
18.3,1.8146,0.07918,0.07558,-0.0967
18.4,1.8088,0.08274,0.07925,-0.101
18.5,1.802,0.08684,0.08348,-0.1059
18.6,1.7928,0.09201,0.08879,-0.1119
18.7,1.7806,0.09865,0.09561,-0.1192
18.9,1.7357,0.11968,0.11712,-0.14
19,1.711,0.13011,0.12775,-0.1502
19.1,1.6927,0.13814,0.13592,-0.1582
19.2,1.6746,0.14604,0.14395,-0.1663
19.4,1.6511,0.15765,0.15575,-0.1788
19.5,1.641,0.16331,0.1615,-0.1847
19.6,1.636,0.16728,0.16552,-0.189
19.7,1.6293,0.17237,0.17069,-0.194
19.8,1.6267,0.17588,0.17424,-0.1975
19.9,1.6219,0.1807,0.17912,-0.2019
20,1.6201,0.18412,0.18258,-0.2051
20.1,1.6193,0.18719,0.18569,-0.208
20.2,1.6172,0.19109,0.18963,-0.2114
20.3,1.6156,0.19482,0.1934,-0.2147
20.4,1.6154,0.19776,0.19637,-0.2173
20.5,1.6157,0.20053,0.19917,-0.2198
20.6,1.6159,0.20335,0.20202,-0.2223
20.7,1.6142,0.20765,0.20637,-0.2257
20.8,1.6148,0.21035,0.20908,-0.2281
20.9,1.6157,0.21298,0.21173,-0.2304
21,1.6166,0.21563,0.2144,-0.2327
21.1,1.6176,0.21822,0.21702,-0.235
21.2,1.6175,0.22187,0.2207,-0.2379
21.3,1.6179,0.22516,0.22401,-0.2406
21.4,1.6193,0.22761,0.22648,-0.2427
21.5,1.621,0.22987,0.22875,-0.2447
21.6,1.6228,0.23208,0.23098,-0.2467
21.7,1.6246,0.23423,0.23313,-0.2487
21.8,1.6265,0.2363,0.23521,-0.2506
21.9,1.6285,0.23832,0.23724,-0.2525
22,1.6307,0.24015,0.23908,-0.2543
22.1,1.6329,0.24189,0.24083,-0.2561
22.2,1.6351,0.24362,0.24257,-0.2578
22.3,1.6375,0.24512,0.24407,-0.2595
22.4,1.64,0.24629,0.24524,-0.2609
22.5,1.6425,0.24751,0.24647,-0.2625
22.6,1.645,0.24861,0.24757,-0.264
22.7,1.6442,0.25438,0.25338,-0.2679
22.8,1.6447,0.25902,0.25806,-0.2712

