airfoilName st17.dat
Re 	890000
M 	0
N 	4.500000e+00
VACC 	0 VACCflag 1
XTR 	1.00 	1.00 XTRflag 0
alpha,cl,cd,cdp,cm
-7.5,-0.2442,0.01599,0.01237,-0.1294
-7.4,-0.2324,0.0152,0.01145,-0.13
-7.3,-0.2208,0.01461,0.01076,-0.1304
-7.2,-0.2092,0.01411,0.01017,-0.1307
-7.1,-0.1977,0.0137,0.00968,-0.131
-7,-0.1862,0.01332,0.00922,-0.1312
-6.9,-0.1748,0.01299,0.00882,-0.1314
-6.8,-0.1635,0.0127,0.00846,-0.1315
-6.7,-0.1521,0.01244,0.00814,-0.1317
-6.6,-0.1406,0.0122,0.00784,-0.1318
-6.5,-0.1292,0.012,0.00759,-0.1319
-6.4,-0.1179,0.01182,0.00736,-0.132
-6.3,-0.1068,0.01168,0.00718,-0.132
-6.2,-0.0952,0.01111,0.00651,-0.1323
-6.1,-0.0839,0.01081,0.00615,-0.1323
-6,-0.0723,0.01058,0.00587,-0.1325
-5.9,-0.0607,0.01037,0.00563,-0.1326
-5.8,-0.0494,0.0102,0.00541,-0.1326
-5.7,-0.0379,0.01004,0.00521,-0.1327
-5.6,-0.0266,0.00989,0.00502,-0.1327
-5.5,-0.0151,0.00975,0.00484,-0.1327
-5.4,-0.0035,0.00961,0.00466,-0.1328
-5.3,0.0079,0.00947,0.00449,-0.1328
-5.2,0.0193,0.00935,0.00433,-0.1328
-5.1,0.0308,0.00923,0.00417,-0.1329
-5,0.0422,0.00912,0.00402,-0.1329
-4.9,0.0537,0.00903,0.00389,-0.1329
-4.8,0.0651,0.00895,0.00379,-0.1329
-4.7,0.0768,0.00879,0.00361,-0.133
-4.6,0.0882,0.00866,0.00344,-0.133
-4.5,0.0997,0.00856,0.00332,-0.1331
-4.4,0.1112,0.00847,0.00321,-0.1331
-4.3,0.1227,0.00839,0.00311,-0.1331
-4.2,0.1341,0.00831,0.00301,-0.1331
-4.1,0.1457,0.00824,0.00291,-0.1332
-4,0.1571,0.00818,0.00282,-0.1332
-3.9,0.1685,0.00812,0.00274,-0.1332
-3.8,0.1799,0.00807,0.00267,-0.1332
-3.7,0.1915,0.00798,0.00256,-0.1332
-3.6,0.203,0.00791,0.00248,-0.1333
-3.5,0.2146,0.00785,0.00241,-0.1333
-3.4,0.2259,0.0078,0.00234,-0.1333
-3.3,0.2373,0.00776,0.00228,-0.1333
-3.2,0.2489,0.00771,0.00222,-0.1333
-3.1,0.2604,0.00767,0.00215,-0.1333
-3,0.2719,0.00761,0.00208,-0.1333
-2.9,0.2834,0.00756,0.00202,-0.1334
-2.8,0.2948,0.00752,0.00197,-0.1334
-2.7,0.3062,0.00749,0.00195,-0.1334
-2.6,0.3178,0.00745,0.0019,-0.1334
-2.5,0.3288,0.00744,0.00185,-0.1333
-2.4,0.3401,0.0074,0.0018,-0.1333
-2.3,0.3516,0.00737,0.00175,-0.1333
-2.2,0.3627,0.00736,0.00171,-0.1333
-2.1,0.3739,0.00736,0.00166,-0.1332
-2,0.3854,0.00734,0.00163,-0.1332
-1.9,0.3969,0.00732,0.00159,-0.1332
-1.8,0.4082,0.00729,0.00155,-0.1332
-1.7,0.4194,0.00729,0.00152,-0.1331
-1.6,0.4308,0.00727,0.0015,-0.1332
-1.5,0.442,0.00728,0.00148,-0.1331
-1.4,0.4534,0.00727,0.00145,-0.1331
-1.3,0.4643,0.0073,0.00143,-0.133
-1.2,0.4757,0.00729,0.00141,-0.133
-1.1,0.487,0.00729,0.00139,-0.133
-1,0.4985,0.00728,0.00137,-0.133
-0.9,0.5098,0.00729,0.00136,-0.133
-0.8,0.5205,0.00734,0.00135,-0.1329
-0.7,0.5318,0.00735,0.00135,-0.1329
-0.6,0.5431,0.00735,0.00134,-0.1329
-0.5,0.5543,0.00737,0.00133,-0.1328
-0.4,0.5653,0.00742,0.00133,-0.1328
-0.3,0.5762,0.00747,0.00133,-0.1327
-0.2,0.5866,0.00756,0.00136,-0.1325
0,0.6087,0.00765,0.00136,-0.1324
0.1,0.6198,0.00769,0.00137,-0.1324
0.2,0.6305,0.00777,0.0014,-0.1323
0.3,0.6415,0.00782,0.00141,-0.1322
0.4,0.6518,0.00796,0.00145,-0.132
0.5,0.6628,0.00801,0.00148,-0.132
0.6,0.6737,0.00807,0.0015,-0.1319
0.7,0.6847,0.00812,0.00153,-0.1319
0.8,0.6949,0.00827,0.00158,-0.1317
0.9,0.7058,0.00834,0.0016,-0.1317
1,0.7158,0.00852,0.00167,-0.1315
1.1,0.7262,0.00864,0.00172,-0.1314
1.2,0.737,0.00873,0.00176,-0.1313
1.3,0.7477,0.00883,0.0018,-0.1312
1.4,0.7583,0.00892,0.00185,-0.1311
1.5,0.7689,0.00903,0.0019,-0.131
1.6,0.7794,0.00915,0.00195,-0.1309
1.7,0.7887,0.00945,0.00206,-0.1307
1.8,0.799,0.00959,0.00213,-0.1305
1.9,0.8092,0.00975,0.00221,-0.1304
2,0.8194,0.00991,0.00228,-0.1303
2.1,0.8299,0.01003,0.00236,-0.1302
2.2,0.8405,0.01014,0.00242,-0.1301
2.4,0.8616,0.01036,0.00254,-0.1299
2.5,0.8724,0.01043,0.00261,-0.1298
2.6,0.8833,0.01048,0.00266,-0.1298
2.7,0.8941,0.01054,0.0027,-0.1298
2.8,0.9049,0.01061,0.00277,-0.1297
2.9,0.9158,0.01066,0.00281,-0.1296
3,0.9267,0.01071,0.00286,-0.1296
3.1,0.9372,0.01082,0.00293,-0.1295
3.2,0.9481,0.01086,0.00298,-0.1295
3.3,0.959,0.0109,0.00305,-0.1294
3.4,0.9697,0.01096,0.00312,-0.1294
3.6,0.9862,0.00973,0.00335,-0.1285
3.7,0.997,0.00981,0.0034,-0.1285
3.8,1.0075,0.00993,0.00347,-0.1283
3.9,1.0183,0.01,0.00353,-0.1283
4,1.029,0.01008,0.00359,-0.1282
4.1,1.0397,0.01017,0.00365,-0.1281
4.2,1.0504,0.01025,0.00372,-0.128
4.3,1.0612,0.01032,0.00378,-0.128
4.4,1.0716,0.01044,0.00385,-0.1279
4.5,1.0821,0.01054,0.00392,-0.1278
4.6,1.0929,0.01061,0.004,-0.1277
4.7,1.1035,0.01069,0.00407,-0.1276
4.8,1.1141,0.01078,0.00414,-0.1275
4.9,1.1246,0.01087,0.00421,-0.1274
5,1.1352,0.01097,0.00429,-0.1273
5.1,1.1458,0.01105,0.00436,-0.1272
5.2,1.1561,0.01117,0.00444,-0.1271
5.3,1.1664,0.01128,0.00453,-0.1269
5.4,1.1769,0.01137,0.00461,-0.1268
5.5,1.1874,0.01146,0.00469,-0.1267
5.6,1.1979,0.01155,0.00477,-0.1266
5.7,1.2083,0.01165,0.00487,-0.1265
5.8,1.2183,0.01179,0.00498,-0.1263
5.9,1.2287,0.01189,0.00507,-0.1262
6,1.2391,0.01198,0.00515,-0.1261
6.1,1.2493,0.01209,0.00525,-0.126
6.2,1.2595,0.01221,0.00535,-0.1258
6.3,1.2697,0.01232,0.00545,-0.1257
6.4,1.28,0.01242,0.00555,-0.1255
6.5,1.2902,0.01252,0.00564,-0.1254
6.6,1.3,0.01269,0.00576,-0.1252
6.7,1.31,0.01281,0.00588,-0.125
6.8,1.3202,0.01291,0.00598,-0.1249
6.9,1.3304,0.01302,0.0061,-0.1247
7,1.3404,0.01314,0.00621,-0.1245
7.1,1.3503,0.01327,0.00632,-0.1244
7.2,1.3601,0.01341,0.00645,-0.1242
7.3,1.3701,0.01353,0.00657,-0.124
7.4,1.3799,0.01367,0.00669,-0.1238
7.5,1.3897,0.0138,0.00682,-0.1236
7.6,1.3995,0.01394,0.00694,-0.1234
7.7,1.4091,0.01409,0.00708,-0.1232
7.8,1.419,0.01421,0.00722,-0.123
7.9,1.4288,0.01434,0.00734,-0.1228
8,1.4385,0.01447,0.00747,-0.1226
8.1,1.4482,0.01461,0.00762,-0.1223
8.2,1.4577,0.01476,0.00776,-0.1221
8.3,1.4672,0.01492,0.00791,-0.1218
8.4,1.4766,0.01507,0.00807,-0.1216
8.5,1.4863,0.0152,0.00821,-0.1214
8.6,1.4956,0.01535,0.00836,-0.1211
8.7,1.5051,0.0155,0.00851,-0.1209
8.8,1.5144,0.01566,0.00866,-0.1206
8.9,1.5232,0.01588,0.00885,-0.1203
9,1.5325,0.01603,0.00902,-0.12
9.1,1.5416,0.0162,0.00917,-0.1197
9.2,1.5508,0.01635,0.00934,-0.1194
9.3,1.5599,0.01652,0.00952,-0.1191
9.4,1.5689,0.0167,0.00969,-0.1188
9.5,1.5778,0.01688,0.00987,-0.1185
9.6,1.5866,0.01707,0.01006,-0.1181
9.7,1.5957,0.01723,0.01024,-0.1178
9.8,1.6046,0.01738,0.01042,-0.1175
9.9,1.6135,0.01755,0.01059,-0.1172
10,1.6223,0.01772,0.01077,-0.1168
10.1,1.631,0.0179,0.01096,-0.1165
10.2,1.6393,0.01812,0.01117,-0.1161
10.3,1.6477,0.01832,0.01138,-0.1157
10.4,1.656,0.01853,0.01159,-0.1153
10.5,1.6643,0.01872,0.01181,-0.1149
10.6,1.6728,0.0189,0.012,-0.1145
10.8,1.6894,0.01927,0.01242,-0.1136
10.9,1.6975,0.01947,0.01263,-0.1132
11,1.7054,0.01968,0.01285,-0.1127
11.1,1.7132,0.0199,0.01307,-0.1122
11.2,1.7207,0.02012,0.01331,-0.1117
11.3,1.7281,0.02036,0.01356,-0.1112
11.4,1.7354,0.02061,0.01382,-0.1106
11.5,1.7427,0.02082,0.01404,-0.1101
11.6,1.7499,0.02104,0.01428,-0.1095
11.7,1.7569,0.02127,0.01452,-0.1089
11.8,1.7637,0.02151,0.01478,-0.1082
11.9,1.7702,0.02177,0.01504,-0.1076
12,1.7763,0.02203,0.01532,-0.1068
12.1,1.7824,0.0223,0.01562,-0.1061
12.2,1.7887,0.02253,0.01587,-0.1053
12.3,1.7945,0.02277,0.01614,-0.1045
12.4,1.7995,0.02302,0.01642,-0.1036
12.5,1.8043,0.02329,0.01671,-0.1026
12.6,1.8089,0.02357,0.017,-0.1016
12.7,1.8133,0.02387,0.01732,-0.1005
12.8,1.8175,0.02418,0.01765,-0.0995
12.9,1.8215,0.02451,0.01801,-0.0985
13,1.8259,0.02481,0.01835,-0.0975
13.1,1.8302,0.02512,0.01868,-0.0965
13.2,1.8344,0.02544,0.01903,-0.0956
13.3,1.8385,0.02576,0.01939,-0.0946
13.4,1.8424,0.0261,0.01976,-0.0936
13.5,1.8462,0.02646,0.02014,-0.0927
13.6,1.8498,0.02683,0.02054,-0.0917
13.7,1.8531,0.02721,0.02095,-0.0907
13.8,1.8563,0.02762,0.02139,-0.0897
13.9,1.8592,0.02804,0.02184,-0.0887
14,1.862,0.02847,0.02231,-0.0877
14.1,1.8647,0.02892,0.0228,-0.0867
14.2,1.8675,0.02936,0.02328,-0.0858
14.3,1.8702,0.02981,0.02377,-0.0849
14.4,1.8726,0.03027,0.02427,-0.0839
14.5,1.875,0.03075,0.02479,-0.083
14.6,1.8771,0.03125,0.02534,-0.0821
14.7,1.8791,0.03176,0.0259,-0.0812
14.8,1.881,0.0323,0.02648,-0.0804
14.9,1.8828,0.03285,0.02708,-0.0795
15,1.8843,0.03342,0.0277,-0.0787
15.1,1.8856,0.03402,0.02834,-0.0778
15.2,1.8867,0.03463,0.029,-0.0771
15.3,1.8877,0.03527,0.02968,-0.0763
15.4,1.8885,0.03593,0.03039,-0.0755
15.5,1.8892,0.03662,0.03112,-0.0749
15.6,1.8896,0.03733,0.03189,-0.0742
15.7,1.8901,0.03807,0.03267,-0.0736
15.8,1.89,0.03886,0.03351,-0.073
15.9,1.8902,0.03965,0.03435,-0.0725
16,1.8898,0.04049,0.03524,-0.072
16.1,1.8893,0.04136,0.03617,-0.0716
16.2,1.8887,0.04225,0.03711,-0.0712
16.3,1.8878,0.0432,0.03811,-0.0709
16.4,1.8869,0.04417,0.03914,-0.0707
16.5,1.8859,0.04517,0.04019,-0.0705
16.6,1.8844,0.04624,0.04133,-0.0704
16.7,1.8828,0.04735,0.04249,-0.0705
16.8,1.8813,0.04847,0.04367,-0.0706
16.9,1.8793,0.04967,0.04493,-0.0708
17,1.8771,0.05093,0.04625,-0.0711
17.1,1.8747,0.05222,0.04761,-0.0716
17.2,1.8719,0.05359,0.04904,-0.0722
17.3,1.8691,0.055,0.05052,-0.0729
17.4,1.866,0.05651,0.05211,-0.0738
17.5,1.8631,0.05807,0.05373,-0.0749
17.6,1.8597,0.05976,0.0555,-0.0762
17.7,1.8565,0.06152,0.05733,-0.0777
17.8,1.8532,0.06338,0.05928,-0.0794
17.9,1.8492,0.06548,0.06146,-0.0815
18,1.8456,0.06763,0.06369,-0.0837
18.1,1.8417,0.06996,0.06612,-0.0863
18.2,1.8366,0.07269,0.06894,-0.0895
18.3,1.8326,0.07534,0.07169,-0.0926
18.4,1.8271,0.07857,0.07503,-0.0964
18.5,1.8208,0.08223,0.0788,-0.1008
18.6,1.8129,0.08662,0.08331,-0.106
18.7,1.8044,0.0915,0.08832,-0.1116
18.8,1.7929,0.09786,0.09485,-0.1187
19,1.7541,0.1168,0.11422,-0.1373
19.1,1.7312,0.12658,0.12418,-0.1467
19.2,1.7085,0.1361,0.13388,-0.156
19.3,1.6901,0.14398,0.1419,-0.1639
19.4,1.6749,0.15084,0.14888,-0.1711
19.6,1.6495,0.16349,0.16172,-0.1846
19.7,1.6437,0.16767,0.16597,-0.1891
19.8,1.636,0.17316,0.17154,-0.1944
19.9,1.6326,0.17695,0.17538,-0.1982
20,1.6269,0.18217,0.18066,-0.203
20.1,1.6255,0.18547,0.18399,-0.2061
20.2,1.6241,0.18882,0.18738,-0.2092
20.3,1.6204,0.19364,0.19226,-0.2133
20.4,1.6197,0.19681,0.19546,-0.2162
20.5,1.6197,0.19968,0.19836,-0.2187
20.6,1.6198,0.20258,0.20129,-0.2213
20.7,1.6174,0.20722,0.20597,-0.225
20.8,1.618,0.20988,0.20865,-0.2274
20.9,1.6189,0.21246,0.21125,-0.2297
21,1.62,0.21495,0.21375,-0.2319
21.1,1.6212,0.2173,0.21612,-0.2341
21.2,1.6224,0.21979,0.21863,-0.2363
21.3,1.6224,0.22319,0.22206,-0.2391
21.4,1.6237,0.22567,0.22455,-0.2413
21.5,1.6256,0.22764,0.22653,-0.2432
21.6,1.6277,0.22933,0.22823,-0.2449
21.7,1.6299,0.23097,0.22987,-0.2467
21.8,1.6323,0.2324,0.23131,-0.2483
21.9,1.6346,0.23385,0.23277,-0.2499
22,1.6365,0.23585,0.23477,-0.2518
22.1,1.638,0.23833,0.23728,-0.2539
22.2,1.6395,0.24083,0.2398,-0.256
22.3,1.6409,0.24355,0.24254,-0.2582
22.4,1.6405,0.24835,0.24739,-0.2617
22.5,1.6418,0.25135,0.25042,-0.2641
22.6,1.6433,0.25422,0.25331,-0.2664
22.7,1.6446,0.25743,0.25656,-0.2689
23,1.6427,0.28412,0.28335,-0.2847
23.1,1.6455,0.28608,0.28531,-0.2865
23.2,1.6482,0.28796,0.2872,-0.2882
23.3,1.6509,0.28971,0.28896,-0.2899
23.4,1.6536,0.29146,0.29071,-0.2916
23.5,1.6563,0.2932,0.29246,-0.2933
23.6,1.659,0.29475,0.29401,-0.2949
23.7,1.6617,0.29636,0.29562,-0.2966
23.8,1.6644,0.29799,0.29725,-0.2983
23.9,1.667,0.29956,0.29883,-0.2999
24,1.6697,0.3011,0.30037,-0.3016
24.1,1.6723,0.30262,0.3019,-0.3033
24.2,1.6749,0.30402,0.3033,-0.3049
24.3,1.6774,0.30564,0.30492,-0.3066
24.4,1.6799,0.30703,0.30632,-0.3083
24.5,1.6823,0.30843,0.30772,-0.31
24.6,1.6846,0.30968,0.30897,-0.3117

