airfoilName st17.dat
Re 	850000
M 	0
N 	4.500000e+00
VACC 	0 VACCflag 1
XTR 	1.00 	1.00 XTRflag 0
alpha,cl,cd,cdp,cm
-7.4,-0.2325,0.01577,0.01205,-0.1297
-7.3,-0.2208,0.01507,0.01124,-0.1302
-7.2,-0.2092,0.01452,0.01059,-0.1306
-7.1,-0.1977,0.01407,0.01006,-0.1309
-7,-0.1861,0.01367,0.00958,-0.1312
-6.9,-0.1746,0.01333,0.00916,-0.1314
-6.8,-0.1633,0.01303,0.00879,-0.1315
-6.7,-0.1519,0.01278,0.00846,-0.1316
-6.6,-0.1405,0.01254,0.00817,-0.1318
-6.5,-0.1291,0.01234,0.00792,-0.1319
-6.4,-0.1177,0.01216,0.00771,-0.132
-6.3,-0.1062,0.01154,0.00698,-0.1323
-6.2,-0.0946,0.01121,0.00659,-0.1325
-6.1,-0.0836,0.01097,0.00628,-0.1324
-6,-0.072,0.01075,0.00602,-0.1325
-5.9,-0.0605,0.01055,0.00579,-0.1326
-5.8,-0.0491,0.01038,0.00557,-0.1327
-5.7,-0.0376,0.01021,0.00537,-0.1328
-5.6,-0.0261,0.01006,0.00517,-0.1328
-5.5,-0.0149,0.00991,0.00498,-0.1328
-5.4,-0.0034,0.00977,0.00479,-0.1328
-5.3,0.0081,0.00963,0.00462,-0.1329
-5.2,0.0196,0.0095,0.00445,-0.133
-5.1,0.031,0.00937,0.00428,-0.133
-5,0.0425,0.00927,0.00414,-0.133
-4.9,0.0539,0.00917,0.00401,-0.133
-4.8,0.0653,0.00907,0.00388,-0.133
-4.7,0.0769,0.00889,0.00367,-0.1331
-4.6,0.0885,0.00877,0.00352,-0.1332
-4.5,0.0999,0.00867,0.0034,-0.1332
-4.4,0.1114,0.00858,0.00329,-0.1332
-4.3,0.1229,0.0085,0.00319,-0.1332
-4.2,0.1342,0.00843,0.00308,-0.1332
-4.1,0.1458,0.00835,0.00298,-0.1332
-4,0.1574,0.00828,0.00289,-0.1333
-3.9,0.1687,0.00823,0.00281,-0.1333
-3.8,0.1802,0.00816,0.00272,-0.1333
-3.7,0.1916,0.00808,0.00262,-0.1333
-3.6,0.2031,0.00801,0.00254,-0.1333
-3.5,0.2147,0.00794,0.00247,-0.1334
-3.4,0.2262,0.00789,0.0024,-0.1334
-3.3,0.2375,0.00785,0.00233,-0.1334
-3.2,0.249,0.0078,0.00227,-0.1334
-3.1,0.2605,0.00776,0.0022,-0.1334
-3,0.272,0.0077,0.00213,-0.1334
-2.9,0.2835,0.00764,0.00207,-0.1334
-2.8,0.295,0.0076,0.00202,-0.1335
-2.7,0.3063,0.00758,0.00199,-0.1335
-2.5,0.3294,0.00749,0.00189,-0.1335
-2.4,0.3403,0.00747,0.00184,-0.1334
-2.3,0.3517,0.00745,0.00179,-0.1334
-2.2,0.363,0.00743,0.00175,-0.1333
-2.1,0.3743,0.00741,0.0017,-0.1333
-2,0.3854,0.00742,0.00166,-0.1332
-1.9,0.3969,0.00739,0.00162,-0.1332
-1.8,0.4084,0.00735,0.00159,-0.1333
-1.7,0.4194,0.00737,0.00155,-0.1332
-1.6,0.4308,0.00734,0.00154,-0.1332
-1.5,0.442,0.00735,0.00151,-0.1331
-1.4,0.4534,0.00734,0.00148,-0.1331
-1.3,0.4649,0.00732,0.00145,-0.1332
-1.2,0.4758,0.00735,0.00144,-0.133
-1.1,0.4872,0.00734,0.00141,-0.1331
-1,0.4985,0.00735,0.0014,-0.133
-0.9,0.5099,0.00734,0.00139,-0.1331
-0.8,0.5212,0.00733,0.00137,-0.1331
-0.7,0.5319,0.0074,0.00137,-0.1329
-0.6,0.5432,0.00741,0.00136,-0.1329
-0.5,0.5545,0.00742,0.00135,-0.1329
-0.4,0.5657,0.00744,0.00134,-0.1328
-0.3,0.5766,0.00747,0.00135,-0.1328
-0.2,0.5868,0.0076,0.00137,-0.1325
0,0.6089,0.00768,0.00137,-0.1324
0.1,0.6199,0.00772,0.00138,-0.1324
0.3,0.6416,0.00785,0.00142,-0.1322
0.4,0.6518,0.00799,0.00146,-0.132
0.5,0.6629,0.00803,0.00148,-0.132
0.6,0.6738,0.00809,0.00151,-0.1319
0.7,0.6847,0.00815,0.00153,-0.1319
0.8,0.695,0.00829,0.00158,-0.1317
0.9,0.7059,0.00836,0.00161,-0.1317
1,0.7158,0.00854,0.00167,-0.1315
1.1,0.7263,0.00866,0.00173,-0.1313
1.2,0.737,0.00875,0.00176,-0.1313
1.3,0.7477,0.00884,0.0018,-0.1312
1.4,0.7584,0.00893,0.00185,-0.1311
1.5,0.769,0.00904,0.0019,-0.131
1.6,0.7795,0.00915,0.00195,-0.1309
1.7,0.7888,0.00944,0.00206,-0.1306
1.8,0.7991,0.00958,0.00213,-0.1305
1.9,0.8093,0.00974,0.00221,-0.1304
2,0.8195,0.00991,0.00228,-0.1302
2.1,0.8297,0.01006,0.00236,-0.1301
2.2,0.8402,0.01017,0.00242,-0.13
2.3,0.8509,0.01027,0.00249,-0.1299
2.4,0.8611,0.01042,0.00257,-0.1298
2.5,0.8719,0.01049,0.00262,-0.1297
2.6,0.8827,0.01056,0.00268,-0.1297
2.7,0.8936,0.01061,0.00273,-0.1296
2.8,0.9044,0.01068,0.00278,-0.1296
2.9,0.9152,0.01074,0.00284,-0.1295
3,0.9261,0.01079,0.00289,-0.1295
3.1,0.9366,0.0109,0.00296,-0.1294
3.2,0.9475,0.01094,0.00301,-0.1293
3.3,0.9584,0.01097,0.00308,-0.1293
3.4,0.9692,0.01102,0.00314,-0.1293
3.6,0.9854,0.00983,0.00338,-0.1283
3.7,0.9962,0.0099,0.00343,-0.1283
3.8,1.0066,0.01003,0.00351,-0.1282
3.9,1.0174,0.0101,0.00356,-0.1281
4,1.0282,0.01017,0.00362,-0.128
4.1,1.0389,0.01026,0.00368,-0.1279
4.2,1.0495,0.01035,0.00375,-0.1279
4.3,1.0603,0.01043,0.00382,-0.1278
4.4,1.071,0.0105,0.00388,-0.1277
4.5,1.0813,0.01063,0.00395,-0.1276
4.6,1.0919,0.01072,0.00404,-0.1275
4.7,1.1026,0.0108,0.00411,-0.1274
4.8,1.1132,0.01088,0.00418,-0.1273
4.9,1.1238,0.01097,0.00425,-0.1272
5,1.1342,0.01107,0.00433,-0.1271
5.1,1.1448,0.01116,0.00441,-0.127
5.2,1.1551,0.01127,0.00449,-0.1269
5.3,1.1655,0.01137,0.00457,-0.1267
5.4,1.1759,0.01148,0.00467,-0.1266
5.5,1.1864,0.01157,0.00474,-0.1265
5.6,1.1969,0.01166,0.00482,-0.1264
5.7,1.2073,0.01176,0.00492,-0.1263
5.8,1.2176,0.01186,0.00501,-0.1262
5.9,1.2276,0.012,0.00512,-0.126
6,1.238,0.0121,0.00521,-0.1259
6.1,1.2482,0.0122,0.0053,-0.1257
6.2,1.2584,0.01232,0.0054,-0.1256
6.3,1.2685,0.01244,0.00552,-0.1254
6.4,1.2788,0.01254,0.00561,-0.1253
6.5,1.289,0.01264,0.00571,-0.1251
6.6,1.2989,0.01279,0.00582,-0.1249
6.7,1.3088,0.01293,0.00593,-0.1248
6.8,1.319,0.01304,0.00605,-0.1246
6.9,1.3291,0.01315,0.00617,-0.1245
7,1.3391,0.01326,0.00628,-0.1243
7.1,1.3491,0.01339,0.00639,-0.1241
7.2,1.3589,0.01353,0.00651,-0.1239
7.3,1.3688,0.01366,0.00665,-0.1237
7.4,1.3785,0.0138,0.00677,-0.1235
7.5,1.3884,0.01393,0.00689,-0.1233
7.6,1.3982,0.01406,0.00702,-0.1231
7.7,1.4078,0.01422,0.00715,-0.1229
7.8,1.4175,0.01436,0.0073,-0.1227
7.9,1.4273,0.01448,0.00743,-0.1225
8,1.437,0.01461,0.00756,-0.1223
8.1,1.4467,0.01474,0.00771,-0.122
8.2,1.4563,0.01489,0.00785,-0.1218
8.3,1.4657,0.01505,0.008,-0.1216
8.4,1.4751,0.01521,0.00815,-0.1213
8.5,1.4846,0.01535,0.00831,-0.121
8.6,1.494,0.0155,0.00846,-0.1208
8.7,1.5034,0.01565,0.00861,-0.1205
8.8,1.5128,0.01581,0.00876,-0.1203
8.9,1.5216,0.01602,0.00894,-0.1199
9,1.5307,0.0162,0.00913,-0.1196
9.1,1.54,0.01634,0.00928,-0.1194
9.2,1.549,0.01651,0.00945,-0.1191
9.3,1.5581,0.01668,0.00963,-0.1188
9.4,1.5671,0.01685,0.0098,-0.1185
9.5,1.576,0.01703,0.00998,-0.1181
9.6,1.5848,0.01722,0.01017,-0.1178
9.7,1.5936,0.01741,0.01037,-0.1175
9.8,1.6026,0.01756,0.01055,-0.1171
9.9,1.6114,0.01773,0.01072,-0.1168
10,1.6202,0.0179,0.01091,-0.1165
10.1,1.6289,0.01807,0.01109,-0.1161
10.2,1.6372,0.01829,0.0113,-0.1157
10.3,1.6456,0.01849,0.01151,-0.1153
10.4,1.6538,0.0187,0.01172,-0.1149
10.5,1.662,0.01892,0.01194,-0.1144
10.6,1.6703,0.0191,0.01215,-0.114
10.7,1.6787,0.01928,0.01235,-0.1136
10.8,1.6869,0.01947,0.01258,-0.1132
10.9,1.6949,0.01967,0.01279,-0.1127
11,1.7029,0.01987,0.01301,-0.1123
11.1,1.7106,0.02009,0.01323,-0.1118
11.2,1.7182,0.02031,0.01347,-0.1113
11.3,1.7255,0.02055,0.01372,-0.1107
11.4,1.7326,0.0208,0.01397,-0.1101
11.5,1.7398,0.02103,0.01423,-0.1095
11.6,1.7471,0.02124,0.01446,-0.109
11.7,1.7539,0.02148,0.01471,-0.1083
11.8,1.7606,0.02172,0.01496,-0.1077
11.9,1.7671,0.02197,0.01522,-0.107
12,1.7732,0.02223,0.0155,-0.1063
12.1,1.7791,0.02251,0.01579,-0.1055
12.2,1.7849,0.02277,0.01608,-0.1047
12.3,1.7903,0.02301,0.01634,-0.1038
12.4,1.7953,0.02326,0.01663,-0.1028
12.5,1.8001,0.02353,0.01692,-0.1019
12.6,1.8048,0.0238,0.01722,-0.1009
12.7,1.8092,0.0241,0.01753,-0.0999
12.8,1.8136,0.02441,0.01786,-0.0989
12.9,1.8177,0.02473,0.01821,-0.0979
13,1.8216,0.02508,0.01857,-0.0968
13.1,1.8258,0.0254,0.01894,-0.0959
13.2,1.83,0.02572,0.01929,-0.0949
13.3,1.8341,0.02605,0.01965,-0.0939
13.4,1.838,0.02639,0.02002,-0.093
13.5,1.8418,0.02675,0.02041,-0.092
13.6,1.8454,0.02712,0.02081,-0.0911
13.7,1.8488,0.0275,0.02123,-0.0901
13.8,1.852,0.0279,0.02166,-0.0891
13.9,1.855,0.02832,0.02211,-0.0882
14,1.8579,0.02875,0.02258,-0.0872
14.1,1.8605,0.02921,0.02307,-0.0862
14.2,1.8629,0.02968,0.02358,-0.0853
14.3,1.8651,0.03017,0.02411,-0.0843
14.4,1.8675,0.03064,0.02462,-0.0834
14.5,1.8698,0.03113,0.02515,-0.0825
14.6,1.8719,0.03163,0.02572,-0.0816
14.7,1.8739,0.03216,0.02629,-0.0807
14.8,1.8757,0.03271,0.02688,-0.0798
14.9,1.8775,0.03326,0.02748,-0.079
15,1.8789,0.03385,0.02811,-0.0782
15.1,1.8801,0.03445,0.02876,-0.0774
15.2,1.8812,0.03508,0.02943,-0.0766
15.3,1.8822,0.03572,0.03013,-0.0759
15.4,1.8829,0.0364,0.03085,-0.0751
15.5,1.8836,0.0371,0.0316,-0.0745
15.6,1.8841,0.03783,0.03238,-0.0738
15.7,1.8844,0.03858,0.03317,-0.0732
15.8,1.8845,0.03937,0.03402,-0.0727
15.9,1.8845,0.04017,0.03487,-0.0722
16,1.8841,0.04102,0.03578,-0.0718
16.1,1.8836,0.0419,0.03671,-0.0714
16.2,1.883,0.04281,0.03767,-0.071
16.3,1.8822,0.04376,0.03868,-0.0708
16.4,1.8813,0.04474,0.03971,-0.0706
16.5,1.8802,0.04576,0.04079,-0.0705
16.6,1.8788,0.04684,0.04193,-0.0704
16.7,1.8773,0.04795,0.04309,-0.0705
16.8,1.8759,0.04908,0.04428,-0.0707
16.9,1.8739,0.05029,0.04556,-0.0709
17,1.8717,0.05155,0.04688,-0.0713
17.1,1.8693,0.05285,0.04824,-0.0718
17.2,1.8667,0.05421,0.04967,-0.0724
17.3,1.8641,0.05563,0.05116,-0.0732
17.4,1.8612,0.05715,0.05274,-0.0741
17.5,1.8584,0.0587,0.05437,-0.0753
17.6,1.8552,0.0604,0.05614,-0.0766
17.7,1.8521,0.06217,0.05799,-0.0781
17.8,1.849,0.06403,0.05993,-0.0799
17.9,1.8453,0.06611,0.06209,-0.082
18,1.8418,0.06825,0.06432,-0.0843
18.1,1.838,0.0706,0.06675,-0.0869
18.2,1.8333,0.07328,0.06953,-0.09
18.3,1.8293,0.07598,0.07233,-0.0932
18.4,1.8239,0.0792,0.07565,-0.097
18.5,1.8177,0.08287,0.07943,-0.1014
18.6,1.8098,0.0873,0.08399,-0.1067
18.7,1.8009,0.09242,0.08925,-0.1126
18.8,1.7884,0.09912,0.09613,-0.1199
18.9,1.7704,0.10825,0.10547,-0.1291
19,1.7464,0.11907,0.11652,-0.1395
19.1,1.7215,0.12952,0.12718,-0.1495
19.2,1.7017,0.13801,0.13582,-0.1579
19.3,1.6812,0.14666,0.14462,-0.1667
19.4,1.6668,0.15326,0.15133,-0.1737
19.5,1.6567,0.15855,0.1567,-0.1795
19.6,1.646,0.16443,0.16267,-0.1857
19.7,1.6384,0.16956,0.16787,-0.1909
19.8,1.6336,0.17382,0.17219,-0.1952
19.9,1.6304,0.17759,0.17601,-0.1989
20,1.6253,0.18262,0.18111,-0.2035
20.1,1.624,0.18582,0.18434,-0.2065
20.2,1.6228,0.18911,0.18766,-0.2096
20.3,1.6194,0.19379,0.1924,-0.2135
20.4,1.6189,0.1969,0.19554,-0.2163
20.5,1.6189,0.19975,0.19842,-0.2189
20.6,1.619,0.20263,0.20132,-0.2215
20.7,1.6167,0.20719,0.20593,-0.2251
20.8,1.6173,0.20991,0.20868,-0.2275
20.9,1.6182,0.21254,0.21132,-0.2298
21,1.6192,0.21509,0.21389,-0.2321
21.1,1.6203,0.21753,0.21634,-0.2343
21.2,1.6213,0.22018,0.21902,-0.2366
21.3,1.6209,0.224,0.22287,-0.2396
21.4,1.6224,0.22636,0.22524,-0.2417
21.5,1.6242,0.22839,0.22728,-0.2437
21.6,1.6263,0.23026,0.22915,-0.2455
21.7,1.6284,0.23198,0.23088,-0.2472
21.8,1.6307,0.23354,0.23245,-0.2489
21.9,1.633,0.23515,0.23406,-0.2506
22,1.6354,0.23645,0.23537,-0.2521
22.1,1.6379,0.23769,0.23662,-0.2537
22.2,1.6396,0.23996,0.2389,-0.2557
22.3,1.641,0.24261,0.24157,-0.2579
22.4,1.6419,0.24593,0.24492,-0.2605
22.5,1.6418,0.25053,0.24957,-0.2638
22.6,1.643,0.25369,0.25275,-0.2663
22.7,1.6442,0.25708,0.25618,-0.2689

