airfoilName st19.dat
Re 	2.500000e+05
M 	0
N 	4.500000e+00
VACC 	0 VACCflag 1
XTR 	1.00 	1.00 XTRflag 0
alpha,cl,cd,cdp,cm
-5.7,-0.0788,0.02287,0.01802,-0.126
-5.6,-0.0645,0.02187,0.01694,-0.1274
-5.5,-0.0543,0.02125,0.01625,-0.1277
-5.4,-0.042,0.02059,0.0155,-0.1283
-5.2,-0.0159,0.01931,0.01401,-0.1299
-5.1,-0.0026,0.01865,0.01324,-0.1307
-5,0.0108,0.01799,0.01244,-0.1315
-4.9,0.0243,0.01734,0.01164,-0.1323
-4.8,0.0378,0.01671,0.01085,-0.133
-4.7,0.0513,0.01611,0.01009,-0.1337
-4.6,0.0648,0.01556,0.00938,-0.1343
-4.5,0.0782,0.0151,0.00875,-0.1349
-4.4,0.092,0.01466,0.00821,-0.1355
-4.3,0.1053,0.01432,0.00784,-0.1361
-4.2,0.1159,0.01412,0.00761,-0.1361
-4.1,0.1265,0.01393,0.00739,-0.136
-4,0.1379,0.01405,0.00751,-0.136
-3.9,0.1505,0.01375,0.00713,-0.1364
-3.8,0.1635,0.01346,0.00673,-0.1367
-3.7,0.1763,0.01321,0.00641,-0.1371
-3.6,0.1892,0.01291,0.0061,-0.1375
-3.4,0.2154,0.01256,0.0057,-0.1383
-3.3,0.2258,0.01243,0.00551,-0.1382
-3.2,0.2367,0.01228,0.00532,-0.1381
-3.1,0.248,0.01222,0.00523,-0.1381
-3,0.2601,0.01204,0.00505,-0.1383
-2.9,0.2726,0.0119,0.00489,-0.1385
-2.8,0.2851,0.01177,0.00474,-0.1388
-2.7,0.2977,0.01164,0.00456,-0.1391
-2.6,0.3107,0.0115,0.00436,-0.1394
-2.5,0.3213,0.01139,0.00425,-0.1392
-2.4,0.3317,0.01136,0.00426,-0.1391
-2.3,0.3433,0.01127,0.00415,-0.1391
-2.2,0.3553,0.01117,0.004,-0.1393
-2.1,0.3675,0.01107,0.00384,-0.1394
-2,0.3798,0.01095,0.00375,-0.1396
-1.9,0.3922,0.01087,0.00367,-0.1398
-1.8,0.4027,0.01085,0.00365,-0.1396
-1.7,0.4138,0.01079,0.00355,-0.1396
-1.6,0.4252,0.0107,0.00348,-0.1396
-1.5,0.437,0.01063,0.00343,-0.1397
-1.4,0.449,0.01057,0.00335,-0.1398
-1.3,0.4614,0.01049,0.00325,-0.14
-1.2,0.4724,0.01047,0.00326,-0.1399
-1.1,0.4832,0.01043,0.00322,-0.1398
-1,0.4944,0.01038,0.00316,-0.1398
-0.9,0.5061,0.01034,0.00309,-0.1398
-0.8,0.5179,0.01028,0.00305,-0.1399
-0.7,0.53,0.01022,0.00299,-0.14
-0.6,0.5399,0.01021,0.00297,-0.1396
-0.5,0.5514,0.01015,0.00294,-0.1396
-0.4,0.5631,0.01008,0.00286,-0.1396
-0.3,0.5738,0.01006,0.00284,-0.1394
-0.2,0.5851,0.01002,0.00277,-0.1393
0,0.6074,0.00995,0.00274,-0.1392
0.1,0.6186,0.00992,0.00269,-0.139
0.2,0.6302,0.00988,0.00267,-0.1391
0.3,0.6413,0.00986,0.00266,-0.139
0.4,0.6522,0.00984,0.00261,-0.1388
0.5,0.6637,0.00981,0.00259,-0.1388
0.7,0.6857,0.00978,0.00259,-0.1386
0.8,0.697,0.00976,0.00257,-0.1385
0.9,0.7078,0.00974,0.00255,-0.1384
1,0.7191,0.00973,0.00253,-0.1383
1.1,0.7301,0.00972,0.00254,-0.1382
1.2,0.7412,0.00971,0.00255,-0.1381
1.3,0.752,0.0097,0.00254,-0.1379
1.4,0.7628,0.0097,0.00252,-0.1377
1.5,0.7739,0.0097,0.00253,-0.1377
1.6,0.7848,0.0097,0.00253,-0.1375
1.7,0.7953,0.00972,0.00251,-0.1373
1.8,0.806,0.00973,0.00251,-0.1371
1.9,0.8167,0.00972,0.00253,-0.1369
2,0.8273,0.00973,0.00255,-0.1368
2.1,0.838,0.00971,0.00259,-0.1366
2.3,0.8506,0.00865,0.00258,-0.1343
2.4,0.8608,0.00876,0.00261,-0.134
2.5,0.8708,0.00888,0.00267,-0.1337
2.6,0.8807,0.00902,0.00271,-0.1334
2.7,0.8905,0.00917,0.00277,-0.133
2.8,0.8986,0.00946,0.00285,-0.1323
2.9,0.908,0.00964,0.00293,-0.1319
3,0.9172,0.00985,0.00302,-0.1315
3.1,0.9263,0.01006,0.00312,-0.1311
3.2,0.9352,0.0103,0.00324,-0.1307
3.3,0.9439,0.01055,0.00336,-0.1302
3.4,0.9504,0.01103,0.00354,-0.1294
3.5,0.9588,0.01134,0.00369,-0.129
3.6,0.9673,0.01166,0.00386,-0.1286
3.7,0.9759,0.01196,0.00402,-0.1282
3.8,0.9848,0.01223,0.00417,-0.1278
3.9,0.9941,0.01247,0.00435,-0.1275
4,1.0027,0.01279,0.00452,-0.1272
4.1,1.0125,0.01296,0.00466,-0.1269
4.2,1.0221,0.01315,0.0048,-0.1267
4.3,1.0321,0.0133,0.00493,-0.1265
4.4,1.0418,0.01348,0.00506,-0.1263
4.5,1.0513,0.01369,0.00521,-0.126
4.6,1.0612,0.01384,0.00535,-0.1258
4.7,1.0711,0.01398,0.00548,-0.1256
4.8,1.0808,0.01415,0.00562,-0.1254
4.9,1.0909,0.01429,0.00575,-0.1252
5,1.1007,0.01444,0.00588,-0.1249
5.1,1.1102,0.01463,0.00602,-0.1247
5.2,1.1199,0.01479,0.00616,-0.1245
5.3,1.1297,0.01494,0.00635,-0.1243
5.4,1.1396,0.01509,0.00649,-0.124
5.5,1.1492,0.01526,0.00663,-0.1238
5.6,1.159,0.01541,0.00679,-0.1236
5.7,1.1682,0.01562,0.00693,-0.1233
5.8,1.178,0.01576,0.00709,-0.1231
5.9,1.1876,0.01592,0.00724,-0.1228
6,1.197,0.01611,0.0074,-0.1225
6.1,1.2067,0.01626,0.00757,-0.1223
6.2,1.2162,0.01643,0.00774,-0.122
6.3,1.2255,0.01662,0.00791,-0.1218
6.4,1.2348,0.01681,0.00807,-0.1215
6.5,1.2441,0.017,0.00825,-0.1212
6.6,1.2534,0.0172,0.00848,-0.1209
6.7,1.2628,0.01737,0.00866,-0.1206
6.8,1.272,0.01756,0.00885,-0.1203
6.9,1.281,0.01778,0.00905,-0.12
7,1.2903,0.01796,0.00926,-0.1197
7.1,1.2995,0.01815,0.00947,-0.1194
7.2,1.3081,0.01841,0.00966,-0.1191
7.3,1.3172,0.0186,0.00989,-0.1187
7.4,1.3263,0.0188,0.0101,-0.1184
7.5,1.3352,0.01901,0.01033,-0.1181
7.6,1.344,0.01924,0.01056,-0.1177
7.7,1.3524,0.01951,0.01082,-0.1173
7.8,1.3614,0.01972,0.01107,-0.1169
7.9,1.3702,0.01993,0.01135,-0.1166
8,1.3787,0.02017,0.01157,-0.1162
8.1,1.3871,0.02043,0.01183,-0.1158
8.2,1.3952,0.02073,0.01213,-0.1153
8.3,1.4039,0.02095,0.0124,-0.1149
8.4,1.4123,0.02118,0.01268,-0.1145
8.5,1.4207,0.02144,0.01297,-0.1141
8.6,1.4289,0.0217,0.01327,-0.1136
8.7,1.4369,0.02198,0.01357,-0.1132
8.8,1.4447,0.02228,0.01389,-0.1127
8.9,1.452,0.02264,0.01426,-0.1121
9,1.4604,0.02285,0.0145,-0.1117
9.1,1.4682,0.02313,0.01483,-0.1112
9.2,1.476,0.02342,0.01516,-0.1107
9.3,1.484,0.02365,0.0154,-0.1103
9.4,1.4911,0.02399,0.01575,-0.1097
9.5,1.4977,0.0244,0.01616,-0.1091
9.6,1.5053,0.02466,0.0165,-0.1085
9.7,1.5126,0.02496,0.01686,-0.108
9.8,1.5197,0.02528,0.01723,-0.1074
9.9,1.5267,0.0256,0.01761,-0.1067
10,1.5334,0.02593,0.01799,-0.1061
10.1,1.54,0.02628,0.01837,-0.1054
10.2,1.5462,0.02664,0.01877,-0.1047
10.3,1.5529,0.02693,0.01901,-0.1043
10.4,1.5591,0.02727,0.01943,-0.1035
10.5,1.565,0.02763,0.01985,-0.1027
10.6,1.5706,0.02799,0.02028,-0.1019
10.7,1.5759,0.02836,0.0207,-0.1011
10.8,1.5806,0.02873,0.02112,-0.1001
10.9,1.585,0.02911,0.02155,-0.0991
11,1.5893,0.02951,0.022,-0.0981
11.1,1.5932,0.02994,0.02249,-0.0971
11.2,1.5967,0.0304,0.02299,-0.0961
11.3,1.5995,0.03092,0.02355,-0.095
11.4,1.6021,0.03145,0.02411,-0.0938
11.5,1.6058,0.0319,0.02465,-0.0928
11.6,1.6091,0.03239,0.02522,-0.0918
11.7,1.6121,0.0329,0.02581,-0.0907
11.8,1.6147,0.03343,0.02641,-0.0896
11.9,1.6172,0.03397,0.02703,-0.0886
12,1.6195,0.03454,0.02767,-0.0875
12.1,1.6216,0.03511,0.02831,-0.0865
12.2,1.6236,0.0357,0.02897,-0.0855
12.3,1.6253,0.0363,0.02964,-0.0845
12.4,1.6269,0.03692,0.03032,-0.0835
12.5,1.6282,0.03756,0.03103,-0.0825
12.6,1.6294,0.03822,0.03176,-0.0816
12.7,1.6301,0.03892,0.03252,-0.0806
12.8,1.6305,0.03966,0.03332,-0.0797
12.9,1.6304,0.04044,0.03415,-0.0788
13,1.6297,0.04127,0.03505,-0.0778
13.1,1.6285,0.04217,0.03601,-0.077
13.2,1.6266,0.04314,0.03704,-0.0761
13.3,1.6239,0.04421,0.03818,-0.0753
13.4,1.6204,0.04537,0.03936,-0.0745
13.5,1.6203,0.04626,0.04035,-0.0739
13.6,1.6196,0.04721,0.04141,-0.0734
13.7,1.6184,0.04824,0.04253,-0.0729
13.8,1.6167,0.04934,0.04372,-0.0725
13.9,1.6148,0.05048,0.04499,-0.0722
14,1.6126,0.05169,0.04629,-0.072
14.1,1.6103,0.05294,0.04763,-0.0718
14.2,1.6077,0.05424,0.04903,-0.0718
14.3,1.6048,0.05561,0.05049,-0.0719
14.4,1.6019,0.05703,0.05201,-0.0722
14.5,1.5987,0.05852,0.05359,-0.0726
14.6,1.5954,0.06008,0.05525,-0.0731
14.7,1.5919,0.06172,0.05698,-0.0739
14.8,1.5883,0.06343,0.05879,-0.0748
14.9,1.5847,0.06522,0.06067,-0.0759
15,1.5809,0.06711,0.06265,-0.0772
15.1,1.5772,0.06907,0.06472,-0.0788
15.2,1.5732,0.07118,0.06692,-0.0806
15.3,1.5691,0.07339,0.06924,-0.0827
15.4,1.5651,0.07574,0.07169,-0.0852
15.5,1.5611,0.07827,0.07432,-0.0879
15.6,1.5571,0.08098,0.07714,-0.091
15.7,1.5532,0.08392,0.0802,-0.0945
15.8,1.5491,0.08717,0.08356,-0.0985
15.9,1.545,0.09075,0.08726,-0.1029
16,1.5409,0.0947,0.09134,-0.1078
16.1,1.5365,0.09909,0.09586,-0.1132
16.2,1.5318,0.10398,0.10088,-0.1189
16.3,1.5268,0.1092,0.10624,-0.1248
16.4,1.5213,0.11465,0.11181,-0.1307
16.5,1.5155,0.1201,0.11738,-0.1364
16.6,1.5092,0.12565,0.12303,-0.1421
16.9,1.4882,0.14328,0.14092,-0.159
26.6,1.4738,0.55151,0.54956,-0.3055
26.7,1.476,0.55505,0.5531,-0.307
26.8,1.4774,0.55963,0.55769,-0.3084

