airfoilName st20.dat
Re 	4.900000e+05
M 	0
N 	4.500000e+00
VACC 	0 VACCflag 1
XTR 	1.00 	1.00 XTRflag 0
alpha,cl,cd,cdp,cm
-6,-0.0908,0.01807,0.01403,-0.1315
-5.9,-0.0771,0.01692,0.01267,-0.1327
-5.8,-0.0641,0.01615,0.01173,-0.1335
-5.7,-0.0514,0.01557,0.01101,-0.1342
-5.6,-0.0389,0.01511,0.01044,-0.1347
-5.5,-0.0264,0.01477,0.01,-0.1351
-5.4,-0.0133,0.01389,0.00899,-0.1359
-5.3,-0.0014,0.01313,0.00811,-0.1364
-5.2,0.0101,0.01269,0.0076,-0.1366
-5.1,0.0218,0.01235,0.0072,-0.1369
-5,0.0335,0.01207,0.00686,-0.1371
-4.9,0.0453,0.01182,0.00656,-0.1373
-4.8,0.0571,0.01159,0.00628,-0.1375
-4.7,0.0691,0.01137,0.00599,-0.1377
-4.6,0.0811,0.01115,0.00572,-0.1379
-4.5,0.0932,0.01093,0.00545,-0.1381
-4.4,0.1053,0.01072,0.00518,-0.1383
-4.3,0.1161,0.01054,0.00495,-0.1382
-4.2,0.1271,0.01036,0.00471,-0.1382
-4.1,0.1387,0.01021,0.00451,-0.1382
-4,0.1504,0.01005,0.00431,-0.1383
-3.9,0.1623,0.00979,0.00401,-0.1385
-3.8,0.1741,0.00964,0.00383,-0.1386
-3.7,0.1856,0.00952,0.00369,-0.1387
-3.6,0.1966,0.00941,0.00355,-0.1386
-3.5,0.2081,0.0093,0.0034,-0.1386
-3.4,0.2196,0.0092,0.00327,-0.1387
-3.3,0.231,0.00911,0.00313,-0.1387
-3.2,0.2426,0.009,0.003,-0.1387
-3.1,0.2541,0.00889,0.00288,-0.1388
-3,0.2654,0.00881,0.0028,-0.1388
-2.9,0.2767,0.00874,0.00272,-0.1388
-2.8,0.2879,0.00867,0.00262,-0.1387
-2.7,0.2993,0.00861,0.00254,-0.1388
-2.6,0.3107,0.00853,0.00244,-0.1387
-2.5,0.322,0.00849,0.00244,-0.1388
-2.4,0.3333,0.00847,0.00241,-0.1388
-2.3,0.3445,0.00837,0.0023,-0.1388
-2.2,0.3559,0.00831,0.00224,-0.1388
-2.1,0.3671,0.00825,0.00217,-0.1387
-1.9,0.3898,0.00817,0.00204,-0.1387
-1.8,0.4011,0.00811,0.00198,-0.1387
-1.7,0.4124,0.00807,0.00197,-0.1387
-1.6,0.4237,0.00803,0.00192,-0.1387
-1.5,0.435,0.008,0.00187,-0.1387
-1.4,0.4464,0.00796,0.00182,-0.1387
-1.3,0.4576,0.00792,0.00179,-0.1386
-1.2,0.4689,0.00789,0.00175,-0.1386
-1.1,0.4795,0.00788,0.0017,-0.1384
-1,0.4905,0.00784,0.00166,-0.1383
-0.9,0.5016,0.00782,0.00163,-0.1382
-0.8,0.5128,0.0078,0.0016,-0.1382
-0.7,0.5238,0.00779,0.00157,-0.138
-0.6,0.535,0.00777,0.00155,-0.138
-0.5,0.5462,0.00775,0.00155,-0.138
-0.4,0.5572,0.00775,0.00152,-0.1379
-0.3,0.5681,0.00775,0.00149,-0.1378
-0.2,0.5794,0.00773,0.00149,-0.1378
0,0.6014,0.00774,0.00146,-0.1376
0.1,0.6125,0.00774,0.00145,-0.1375
0.2,0.6236,0.00773,0.00146,-0.1375
0.3,0.6347,0.00774,0.00146,-0.1374
0.4,0.6453,0.00777,0.00144,-0.1372
0.5,0.6565,0.00777,0.00145,-0.1372
0.6,0.6676,0.00778,0.00145,-0.1371
0.7,0.6784,0.00781,0.00145,-0.137
0.8,0.6887,0.00786,0.00146,-0.1368
0.9,0.6996,0.00789,0.00147,-0.1367
1,0.7106,0.00791,0.00148,-0.1366
1.1,0.7212,0.00795,0.0015,-0.1364
1.2,0.7314,0.00804,0.00151,-0.1362
1.3,0.7421,0.00809,0.00154,-0.136
1.4,0.7524,0.00817,0.00157,-0.1358
1.5,0.7624,0.00828,0.0016,-0.1356
1.6,0.7727,0.00836,0.00164,-0.1354
1.7,0.7814,0.00861,0.00171,-0.1348
1.8,0.7911,0.00876,0.00177,-0.1346
1.9,0.8013,0.00887,0.00182,-0.1344
2,0.8114,0.00899,0.00188,-0.1342
2.1,0.8214,0.00912,0.00195,-0.134
2.2,0.8299,0.0094,0.00207,-0.1335
2.3,0.8397,0.00956,0.00215,-0.1333
2.4,0.8495,0.00972,0.00223,-0.1331
2.5,0.8591,0.00988,0.00233,-0.1329
2.7,0.8723,0.00894,0.00262,-0.1313
2.8,0.8799,0.00942,0.00282,-0.1308
2.9,0.8895,0.00966,0.00292,-0.1306
3,0.8993,0.00985,0.00303,-0.1304
3.1,0.9095,0.01001,0.00312,-0.1302
3.2,0.9197,0.01014,0.00321,-0.1301
3.3,0.9295,0.01035,0.00332,-0.1299
3.4,0.9398,0.01048,0.00341,-0.1298
3.5,0.9502,0.01059,0.00349,-0.1296
3.6,0.9605,0.01071,0.00358,-0.1295
3.7,0.971,0.01082,0.00366,-0.1294
3.8,0.9809,0.01099,0.00376,-0.1292
3.9,0.9912,0.0111,0.00384,-0.129
4,1.0016,0.01121,0.00393,-0.1289
4.1,1.012,0.01132,0.00404,-0.1288
4.2,1.0222,0.01144,0.00415,-0.1286
4.3,1.0322,0.0116,0.00424,-0.1285
4.4,1.0425,0.01171,0.00434,-0.1283
4.5,1.0528,0.01182,0.00443,-0.1282
4.6,1.0629,0.01196,0.00453,-0.128
4.7,1.0732,0.01207,0.00463,-0.1279
4.8,1.0829,0.01224,0.00475,-0.1277
4.9,1.0931,0.01236,0.00485,-0.1275
5,1.1032,0.01249,0.00495,-0.1273
5.1,1.1133,0.01262,0.00507,-0.1272
5.2,1.1234,0.01274,0.00518,-0.127
5.3,1.1333,0.01289,0.00529,-0.1268
5.4,1.143,0.01306,0.00542,-0.1266
5.5,1.1529,0.01321,0.00557,-0.1264
5.6,1.1628,0.01335,0.00571,-0.1262
5.7,1.1728,0.01348,0.00584,-0.126
5.8,1.1826,0.01364,0.00597,-0.1258
5.9,1.1924,0.01379,0.00612,-0.1256
6,1.2023,0.01393,0.00625,-0.1254
6.1,1.2121,0.01408,0.00639,-0.1252
6.2,1.2215,0.01428,0.00656,-0.1249
6.3,1.2313,0.01442,0.0067,-0.1247
6.4,1.2409,0.01458,0.00685,-0.1244
6.5,1.2505,0.01476,0.00701,-0.1242
6.6,1.2601,0.01492,0.00718,-0.1239
6.7,1.2698,0.01506,0.00734,-0.1237
6.8,1.2794,0.01522,0.00752,-0.1235
6.9,1.2889,0.01539,0.00769,-0.1232
7,1.2983,0.01558,0.00788,-0.1229
7.1,1.3076,0.01577,0.00808,-0.1226
7.2,1.3172,0.01593,0.00826,-0.1224
7.3,1.3266,0.0161,0.00843,-0.1221
7.4,1.3359,0.01628,0.00862,-0.1218
7.5,1.3447,0.01653,0.00882,-0.1215
7.6,1.354,0.01671,0.00903,-0.1212
7.7,1.3633,0.01688,0.00922,-0.1209
7.8,1.3726,0.01706,0.00942,-0.1206
7.9,1.3817,0.01724,0.00963,-0.1203
8,1.3904,0.01749,0.00983,-0.12
8.1,1.3992,0.01771,0.01009,-0.1196
8.2,1.4084,0.01789,0.01029,-0.1193
8.3,1.4174,0.01808,0.01051,-0.119
8.4,1.4263,0.01828,0.01073,-0.1187
8.5,1.4352,0.01849,0.01096,-0.1183
8.6,1.4439,0.01871,0.0112,-0.1179
8.7,1.4524,0.01896,0.01145,-0.1175
8.8,1.4607,0.01923,0.01174,-0.1171
8.9,1.4694,0.01943,0.01197,-0.1167
9,1.478,0.01965,0.01223,-0.1164
9.1,1.4865,0.01988,0.01249,-0.1159
9.2,1.4949,0.02011,0.01275,-0.1155
9.3,1.5031,0.02036,0.01303,-0.1151
9.4,1.5112,0.02062,0.01331,-0.1147
9.5,1.5192,0.0209,0.01361,-0.1142
9.6,1.5268,0.02121,0.01397,-0.1136
9.7,1.5344,0.02151,0.0143,-0.1131
9.8,1.5423,0.02178,0.01461,-0.1126
9.9,1.55,0.02205,0.01494,-0.1121
10,1.5576,0.02234,0.01527,-0.1116
10.1,1.565,0.02264,0.01561,-0.111
10.2,1.5723,0.02295,0.01596,-0.1104
10.3,1.5794,0.02326,0.01632,-0.1098
10.4,1.5864,0.02359,0.01668,-0.1092
10.5,1.5931,0.02392,0.01706,-0.1086
10.6,1.5997,0.02428,0.01745,-0.1079
10.7,1.6059,0.02465,0.01787,-0.1072
10.8,1.6115,0.02508,0.01834,-0.1064
11,1.6244,0.02567,0.01899,-0.1051
11.1,1.6299,0.02605,0.01942,-0.1042
11.2,1.6351,0.02642,0.01985,-0.1033
11.3,1.6401,0.02681,0.02029,-0.1024
11.4,1.6443,0.0272,0.02074,-0.1014
11.5,1.6481,0.02759,0.02121,-0.1003
11.6,1.6516,0.028,0.02167,-0.0991
11.7,1.6551,0.02842,0.02215,-0.098
11.8,1.6583,0.02886,0.02264,-0.0968
11.9,1.6613,0.02931,0.02315,-0.0957
12,1.6643,0.02977,0.02366,-0.0945
12.1,1.6671,0.03024,0.02419,-0.0934
12.2,1.6696,0.03073,0.02474,-0.0922
12.3,1.6719,0.03124,0.02531,-0.0911
12.4,1.674,0.03177,0.02589,-0.09
12.5,1.6758,0.03232,0.0265,-0.0888
12.6,1.6774,0.03289,0.02713,-0.0877
12.7,1.6786,0.0335,0.0278,-0.0865
12.8,1.6795,0.03413,0.02849,-0.0854
12.9,1.6801,0.03479,0.02921,-0.0842
13,1.6801,0.0355,0.02999,-0.0831
13.1,1.6799,0.03623,0.03079,-0.0819
13.2,1.6792,0.03702,0.03164,-0.0808
13.3,1.678,0.03786,0.03255,-0.0797
13.4,1.6762,0.03876,0.03352,-0.0786
13.5,1.6735,0.03974,0.03458,-0.0775
13.6,1.6707,0.04075,0.03566,-0.0765
13.7,1.6676,0.04182,0.03681,-0.0756
13.8,1.6638,0.04298,0.03805,-0.0747
13.9,1.659,0.04427,0.03942,-0.0739
14,1.6545,0.04554,0.04077,-0.0732
14.1,1.649,0.04696,0.04227,-0.0726
14.2,1.6429,0.04849,0.04389,-0.0722
14.3,1.6374,0.05003,0.04551,-0.072
14.4,1.6305,0.05178,0.04732,-0.0719
14.5,1.6285,0.05304,0.04866,-0.072
14.6,1.6258,0.0544,0.0501,-0.0722
14.7,1.6237,0.05575,0.05152,-0.0725
14.8,1.6208,0.05721,0.05307,-0.0729
14.9,1.6162,0.05897,0.05491,-0.0737
15,1.6128,0.06065,0.05668,-0.0745
15.1,1.609,0.06246,0.05858,-0.0755
15.2,1.6044,0.06448,0.06068,-0.0769
15.3,1.5998,0.06662,0.06293,-0.0786
15.4,1.5949,0.06896,0.06537,-0.0806
15.5,1.5898,0.07149,0.06799,-0.083
15.6,1.584,0.07437,0.07098,-0.086
15.7,1.578,0.07759,0.07431,-0.0895
15.8,1.5715,0.0813,0.07813,-0.0938
15.9,1.565,0.08559,0.08253,-0.0988
16,1.5566,0.0912,0.08829,-0.1055
16.1,1.5457,0.09875,0.09601,-0.1141
16.2,1.5339,0.10716,0.10458,-0.1229
16.3,1.5209,0.11509,0.11264,-0.1308
16.4,1.5141,0.1207,0.11838,-0.1361
16.6,1.501,0.13142,0.12927,-0.1459
16.7,1.4954,0.13632,0.13425,-0.1502
16.8,1.489,0.14132,0.13932,-0.1547
16.9,1.4828,0.14633,0.1444,-0.1592
17,1.4766,0.15127,0.14941,-0.1637
17.1,1.4716,0.15561,0.1538,-0.1677
17.2,1.4657,0.16061,0.15886,-0.1722
17.3,1.4615,0.1648,0.16311,-0.1761
17.4,1.4563,0.1699,0.16826,-0.1806
17.5,1.4534,0.17396,0.17236,-0.1842
17.6,1.4487,0.17959,0.17805,-0.1887
17.7,1.447,0.18346,0.18194,-0.1919
17.8,1.4431,0.1894,0.18793,-0.1962
17.9,1.4423,0.19309,0.19164,-0.1991
18,1.4426,0.19588,0.19444,-0.2015
18.1,1.4432,0.19806,0.19662,-0.2035

