airfoilName st20.dat
Re 	2.500000e+05
M 	0
N 	4.500000e+00
VACC 	0 VACCflag 1
XTR 	1.00 	1.00 XTRflag 0
alpha,cl,cd,cdp,cm
-30,-1.3189,0.49179,0.48919,0.2681
-29.9,-1.3161,0.48961,0.48701,0.2661
-29.8,-1.3133,0.48748,0.48487,0.2641
-29.7,-1.3105,0.48532,0.48271,0.2622
-29.6,-1.3077,0.48319,0.48057,0.2602
-29.5,-1.3048,0.48113,0.47851,0.2582
-29.4,-1.3019,0.47904,0.47641,0.2562
-29.3,-1.299,0.47695,0.47431,0.2542
-29.2,-1.2961,0.47491,0.47228,0.2523
-29.1,-1.2931,0.47295,0.47031,0.2503
-29,-1.2901,0.47093,0.46828,0.2483
-28.9,-1.287,0.46899,0.46633,0.2463
-28.8,-1.2839,0.46701,0.46436,0.2443
-28.7,-1.2807,0.4652,0.46254,0.2422
-28.6,-1.2775,0.46335,0.46068,0.2402
-28.5,-1.2743,0.4615,0.45883,0.2381
-28.4,-1.2709,0.45981,0.45714,0.236
-28.3,-1.2674,0.45818,0.4555,0.2339
-28.2,-1.264,0.45642,0.45373,0.2318
-28.1,-1.2602,0.45507,0.45238,0.2295
-28,-1.2563,0.45366,0.45096,0.2271
-27.9,-1.2522,0.45235,0.44965,0.2247
-27.8,-1.2478,0.45112,0.44842,0.2222
-25.5,-1.1669,0.4002,0.39743,0.1791
-25.4,-1.1638,0.39785,0.39508,0.1776
-25.3,-1.1608,0.39551,0.39273,0.176
-25.2,-1.1577,0.39317,0.39039,0.1744
-25.1,-1.1546,0.39084,0.38805,0.1729
-25,-1.1515,0.38851,0.38572,0.1714
-24.9,-1.1484,0.38619,0.38339,0.1698
-24.8,-1.1452,0.38387,0.38106,0.1683
-24.7,-1.1421,0.38157,0.37876,0.1668
-24.6,-1.1389,0.37927,0.37646,0.1652
-24.5,-1.1358,0.37701,0.37419,0.1637
-24.4,-1.1326,0.37472,0.3719,0.1622
-24.3,-1.1294,0.37243,0.36961,0.1607
-24.2,-1.1262,0.37017,0.36734,0.1592
-24.1,-1.123,0.36793,0.36509,0.1577
-24,-1.1197,0.36569,0.36285,0.1562
-23.9,-1.1165,0.36346,0.36061,0.1547
-23.8,-1.1132,0.36124,0.35839,0.1532
-23.7,-1.11,0.35902,0.35617,0.1517
-23.6,-1.1067,0.35682,0.35397,0.1502
-23.5,-1.1034,0.35463,0.35177,0.1488
-23.4,-1.1001,0.35245,0.34958,0.1473
-23.3,-1.0968,0.35027,0.3474,0.1458
-23.2,-1.0934,0.34812,0.34525,0.1444
-23.1,-1.0901,0.34597,0.3431,0.1429
-23,-1.0867,0.34383,0.34095,0.1415
-22.9,-1.0834,0.34171,0.33882,0.14
-22.8,-1.08,0.3396,0.33669,0.1386
-22.7,-1.0766,0.3375,0.33459,0.1371
-22.6,-1.0732,0.33542,0.3325,0.1357
-22.5,-1.0697,0.33333,0.33042,0.1343
-22.4,-1.0663,0.33127,0.32835,0.1328
-22.3,-1.0628,0.32921,0.32629,0.1314
-22.2,-1.0594,0.32717,0.32424,0.13
-22.1,-1.0559,0.32513,0.3222,0.1286
-22,-1.0524,0.3231,0.32016,0.1272
-21.9,-1.0489,0.32109,0.31815,0.1257
-21.8,-1.0454,0.31907,0.31613,0.1243
-21.7,-1.0418,0.31708,0.31413,0.1229
-21.6,-1.0383,0.31508,0.31213,0.1215
-21.5,-1.0347,0.31311,0.31015,0.1202
-21.4,-1.0312,0.31113,0.30817,0.1188
-21.3,-1.0276,0.30916,0.3062,0.1174
-21.2,-1.024,0.30721,0.30425,0.116
-21.1,-1.0204,0.30525,0.30229,0.1146
-21,-1.0168,0.3033,0.30033,0.1133
-20.9,-1.0132,0.30136,0.29839,0.1119
-20.8,-1.0096,0.29944,0.29646,0.1106
-20.7,-1.006,0.2975,0.29452,0.1092
-20.6,-1.0023,0.29556,0.29258,0.1079
-20.5,-0.9987,0.29366,0.29067,0.1065
-20.4,-0.995,0.29173,0.28874,0.1052
-20.3,-0.9914,0.28982,0.28683,0.1039
-20.2,-0.9877,0.28791,0.28491,0.1026
-20.1,-0.984,0.286,0.283,0.1013
-20,-0.9803,0.2841,0.2811,0.1
-19.9,-0.9766,0.2822,0.27918,0.0987
-19.8,-0.9729,0.28031,0.27729,0.0974
-19.7,-0.9692,0.27842,0.27539,0.0961
-19.6,-0.9654,0.27654,0.2735,0.0948
-19.5,-0.9616,0.27466,0.27162,0.0935
-19.4,-0.9579,0.27278,0.26974,0.0922
-19.3,-0.9541,0.27091,0.26787,0.0909
-19.2,-0.9503,0.26904,0.266,0.0896
-19.1,-0.9464,0.26719,0.26414,0.0883
-19,-0.9426,0.26533,0.26229,0.087
-18.9,-0.9387,0.26348,0.26043,0.0858
-18.8,-0.9348,0.26164,0.25858,0.0845
-18.7,-0.9309,0.25979,0.25674,0.0832
-18.6,-0.927,0.25796,0.2549,0.0819
-18.5,-0.923,0.25613,0.25307,0.0806
-18.4,-0.919,0.2543,0.25124,0.0793
-18.3,-0.915,0.25249,0.24942,0.078
-18.2,-0.9109,0.25066,0.2476,0.0767
-18.1,-0.9069,0.24884,0.24578,0.0754
-18,-0.9028,0.24701,0.24395,0.074
-17.9,-0.8987,0.24518,0.24212,0.0727
-17.8,-0.8946,0.24336,0.24029,0.0714
-17.7,-0.8903,0.24147,0.2384,0.0701
-17.6,-0.8861,0.23959,0.23652,0.0687
-17.5,-0.8818,0.23767,0.2346,0.0674
-17.4,-0.8777,0.23574,0.23266,0.0661
-17.3,-0.8603,0.23204,0.22902,0.0613
-17.2,-0.857,0.23009,0.22706,0.0603
-17.1,-0.8537,0.22815,0.22512,0.0593
-17,-0.8503,0.22621,0.22318,0.0584
-16.9,-0.847,0.22429,0.22126,0.0574
-16.8,-0.8437,0.22238,0.21934,0.0564
-16.7,-0.8403,0.22048,0.21744,0.0555
-16.6,-0.837,0.21858,0.21554,0.0545
-16.5,-0.8336,0.21671,0.21365,0.0535
-16.4,-0.8302,0.21485,0.21178,0.0525
-16.3,-0.8268,0.21299,0.20993,0.0516
-16.2,-0.8234,0.21116,0.20809,0.0506
-16.1,-0.8199,0.20934,0.20627,0.0497
-16,-0.8164,0.20754,0.20447,0.0487
-15.9,-0.8129,0.20576,0.20268,0.0477
-15.8,-0.8094,0.20399,0.20091,0.0468
-15.7,-0.8059,0.20223,0.19916,0.0458
-15.6,-0.8024,0.2005,0.19742,0.0448
-15.5,-0.7988,0.19878,0.1957,0.0439
-15.4,-0.7952,0.19707,0.19399,0.0429
-15.3,-0.7916,0.19539,0.19231,0.0419
-15.2,-0.7879,0.19371,0.19063,0.041
-15.1,-0.7842,0.19205,0.18897,0.04
-15,-0.7805,0.19041,0.18732,0.039
-14.9,-0.7767,0.18878,0.18569,0.038
-14.8,-0.773,0.18716,0.18408,0.0371
-14.7,-0.7691,0.18555,0.18247,0.0361
-14.6,-0.7653,0.18397,0.18088,0.0351
-14.5,-0.7614,0.18238,0.1793,0.0341
-14.4,-0.7575,0.18082,0.17773,0.0332
-14.3,-0.7536,0.17925,0.17617,0.0322
-14.2,-0.7496,0.17772,0.17463,0.0312
-14.1,-0.7456,0.17617,0.17309,0.0302
-14,-0.7416,0.17465,0.17156,0.0292
-13.9,-0.7376,0.17313,0.17004,0.0283
-13.8,-0.7335,0.1716,0.16852,0.0273
-13.7,-0.7294,0.1701,0.16701,0.0263
-13.6,-0.7253,0.16859,0.1655,0.0253
-13.5,-0.7212,0.16709,0.164,0.0244
-13.4,-0.717,0.16559,0.16248,0.0234
-13.3,-0.7128,0.16409,0.16099,0.0224
-13.2,-0.7086,0.1626,0.1595,0.0214
-13.1,-0.7043,0.1611,0.158,0.0204
-13,-0.7001,0.15962,0.15652,0.0195
-12.9,-0.6958,0.15813,0.15503,0.0185
-12.8,-0.6916,0.15665,0.15355,0.0175
-12.7,-0.6873,0.15518,0.15208,0.0166
-12.6,-0.683,0.1537,0.1506,0.0156
-12.5,-0.6787,0.15222,0.14913,0.0147
-12.4,-0.6743,0.15075,0.14766,0.0137
-12.3,-0.67,0.14927,0.14618,0.0127
-12.2,-0.6656,0.14779,0.1447,0.0118
-12.1,-0.6612,0.14631,0.14322,0.0108
-12,-0.6568,0.14483,0.14174,0.0099
-11.9,-0.6524,0.14335,0.14026,0.0089
-11.8,-0.648,0.14186,0.13877,0.008
-11.7,-0.6435,0.14036,0.13728,0.007
-11.6,-0.6391,0.13886,0.13578,0.0061
-11.5,-0.6346,0.13734,0.13426,0.0052
-11.4,-0.6301,0.13581,0.13274,0.0042
-11.3,-0.6256,0.13426,0.13119,0.0033
-11.2,-0.6211,0.13269,0.12962,0.0023
-11.1,-0.6166,0.13109,0.12803,0.0014
-11,-0.6119,0.12945,0.12639,0.0004
-10.9,-0.5951,0.12566,0.12265,-0.0049
-10.8,-0.5917,0.12416,0.12115,-0.0055
-10.7,-0.5884,0.12268,0.11967,-0.0061
-10.6,-0.5852,0.12121,0.11821,-0.0066
-10.5,-0.5819,0.11979,0.11679,-0.0071
-10.4,-0.5787,0.11839,0.11539,-0.0077
-10.3,-0.5756,0.11702,0.11403,-0.0082
-10.2,-0.5726,0.11568,0.1127,-0.0086
-10.1,-0.5697,0.11439,0.11141,-0.0091
-10,-0.5669,0.11314,0.11017,-0.0095
-9.9,-0.5643,0.11194,0.10898,-0.0099
-9.8,-0.5621,0.11079,0.10782,-0.0101
-9.7,-0.5602,0.10971,0.10675,-0.0103
-9.6,-0.5588,0.1087,0.10575,-0.0103
-9.5,-0.5578,0.10776,0.10482,-0.0103
-9.4,-0.5575,0.10689,0.10397,-0.01
-9.3,-0.5579,0.10611,0.10321,-0.0096
-9.2,-0.5591,0.10542,0.10254,-0.009
-9.1,-0.5611,0.10481,0.10196,-0.0082
-9,-0.5637,0.10426,0.10144,-0.0072
-8.9,-0.5661,0.10371,0.10091,-0.0063
-8.8,-0.5681,0.10311,0.10033,-0.0056
-8.7,-0.5595,0.10154,0.09876,-0.0076
-8.6,-0.5503,0.09995,0.09717,-0.0097
-8.5,-0.541,0.09841,0.09561,-0.0119
-8.4,-0.5314,0.09687,0.09407,-0.0141
-8.3,-0.5214,0.09533,0.09252,-0.0164
-8.2,-0.5111,0.09379,0.09096,-0.0187
-8.1,-0.5012,0.09229,0.08946,-0.021
-8,-0.4912,0.0908,0.08795,-0.0232
-7.9,-0.48,0.08922,0.08637,-0.0257
-7.8,-0.4692,0.08769,0.08482,-0.028
-7.7,-0.458,0.08614,0.08326,-0.0305
-7.6,-0.4464,0.08457,0.08168,-0.0331
-7.5,-0.4343,0.08297,0.08006,-0.0357
-7.4,-0.4231,0.08142,0.0785,-0.0381
-7.3,-0.4125,0.07993,0.07699,-0.0403
-5,-0.0046,0.01881,0.01335,-0.1288
-4.9,0.0093,0.01778,0.01204,-0.1298
-4.8,0.0226,0.01716,0.01118,-0.1305
-4.7,0.0358,0.01636,0.01033,-0.1313
-4.6,0.0487,0.01591,0.0098,-0.1319
-4.5,0.0617,0.01557,0.00941,-0.1324
-4.4,0.0747,0.01526,0.00904,-0.1329
-4.3,0.0878,0.01495,0.00867,-0.1335
-4.2,0.1014,0.01461,0.00825,-0.1341
-4.1,0.1147,0.01427,0.00783,-0.1346
-4,0.128,0.01393,0.00739,-0.1351
-3.9,0.1395,0.01364,0.007,-0.1352
-3.8,0.1501,0.01341,0.00667,-0.1351
-3.7,0.1619,0.01309,0.00633,-0.1352
-3.6,0.1743,0.01287,0.00608,-0.1355
-3.5,0.187,0.01269,0.00587,-0.1359
-3.4,0.1997,0.01252,0.00565,-0.1362
-3.3,0.2125,0.01234,0.00542,-0.1365
-3.2,0.2254,0.01229,0.00534,-0.1369
-3.1,0.2384,0.01208,0.00512,-0.1373
-3,0.2493,0.01197,0.00499,-0.1373
-2.9,0.2597,0.01185,0.00485,-0.1371
-2.8,0.2714,0.01172,0.00467,-0.1371
-2.7,0.2832,0.01166,0.0046,-0.1373
-2.6,0.2956,0.0115,0.00444,-0.1375
-2.5,0.3081,0.01138,0.00431,-0.1378
-2.4,0.3206,0.01127,0.00416,-0.138
-2.3,0.3336,0.01114,0.00396,-0.1383
-2.2,0.3445,0.01105,0.00386,-0.1383
-2.1,0.3547,0.01102,0.00388,-0.1381
-2,0.3663,0.01094,0.00378,-0.1381
-1.9,0.3782,0.01086,0.00366,-0.1382
-1.8,0.3904,0.01075,0.00354,-0.1384
-1.7,0.4026,0.01067,0.00347,-0.1386
-1.6,0.4153,0.01058,0.00337,-0.1388
-1.5,0.4256,0.01058,0.00335,-0.1386
-1.4,0.4366,0.01051,0.00332,-0.1386
-1.3,0.4479,0.01045,0.00326,-0.1386
-1.2,0.4597,0.0104,0.00318,-0.1387
-1.1,0.4716,0.01034,0.0031,-0.1388
-0.9,0.495,0.01025,0.00305,-0.1389
-0.8,0.5055,0.01022,0.003,-0.1387
-0.7,0.5169,0.01017,0.00298,-0.1387
-0.6,0.5285,0.01013,0.00295,-0.1388
-0.5,0.5403,0.01009,0.0029,-0.1389
-0.4,0.551,0.01004,0.00287,-0.1386
-0.3,0.5621,0.00999,0.00282,-0.1385
-0.2,0.5739,0.00992,0.00273,-0.1384
0,0.5958,0.00986,0.00271,-0.1383
0.1,0.6075,0.00981,0.00263,-0.1382
0.2,0.6183,0.00979,0.00265,-0.1381
0.3,0.6293,0.00977,0.00263,-0.138
0.4,0.6408,0.00973,0.00256,-0.1379
0.5,0.6517,0.0097,0.00256,-0.1378
0.6,0.6629,0.00968,0.00256,-0.1378
0.7,0.6741,0.00966,0.00251,-0.1376
0.8,0.685,0.00964,0.00251,-0.1375
0.9,0.6962,0.00962,0.00251,-0.1375
1,0.7076,0.0096,0.00251,-0.1375
1.1,0.7182,0.00958,0.00246,-0.1372
1.2,0.7293,0.00957,0.00247,-0.1371
1.3,0.7404,0.00955,0.00249,-0.137
1.4,0.7514,0.00955,0.00248,-0.1369
1.5,0.7622,0.00953,0.00246,-0.1367
1.6,0.7731,0.00951,0.00247,-0.1366
1.7,0.7839,0.00951,0.00247,-0.1365
1.8,0.7948,0.0095,0.00247,-0.1363
1.9,0.8057,0.00947,0.0025,-0.1362
2.1,0.8188,0.00831,0.00248,-0.134
2.2,0.8294,0.00838,0.0025,-0.1338
2.3,0.8399,0.00846,0.00252,-0.1335
2.4,0.8502,0.00855,0.00255,-0.1333
2.5,0.8592,0.00873,0.00256,-0.1327
2.6,0.869,0.00888,0.0026,-0.1323
2.7,0.8786,0.00903,0.00269,-0.1319
2.8,0.8882,0.0092,0.00276,-0.1315
2.9,0.8975,0.00938,0.00284,-0.1311
3,0.9049,0.00975,0.00296,-0.1304
3.1,0.9137,0.00999,0.00307,-0.1299
3.2,0.9225,0.01024,0.00318,-0.1294
3.3,0.931,0.01052,0.00332,-0.129
3.4,0.9394,0.01082,0.00346,-0.1285
3.5,0.9454,0.01138,0.00369,-0.1277
3.6,0.9539,0.0117,0.00385,-0.1273
3.7,0.9627,0.012,0.00401,-0.1269
3.8,0.9718,0.01225,0.00416,-0.1266
3.9,0.9813,0.01247,0.00431,-0.1263
4,0.99,0.01278,0.0045,-0.126
4.1,0.9999,0.01294,0.00463,-0.1258
4.2,1.0097,0.01312,0.00481,-0.1255
4.3,1.0196,0.01328,0.00494,-0.1253
4.4,1.0294,0.01344,0.00508,-0.1251
4.6,1.0487,0.01381,0.00536,-0.1247
4.7,1.0584,0.01398,0.00551,-0.1244
4.8,1.0684,0.01412,0.00564,-0.1242
4.9,1.0781,0.01429,0.00577,-0.124
5,1.088,0.01443,0.00592,-0.1238
5.1,1.0974,0.01464,0.00607,-0.1235
5.2,1.1072,0.0148,0.0062,-0.1233
5.3,1.1168,0.01497,0.00636,-0.1231
5.4,1.1266,0.01512,0.00651,-0.1228
5.5,1.1362,0.01529,0.00666,-0.1226
5.6,1.1459,0.01546,0.00686,-0.1224
5.7,1.155,0.01569,0.00702,-0.1221
5.8,1.1647,0.01584,0.00718,-0.1218
5.9,1.1742,0.01602,0.00735,-0.1216
6,1.1836,0.01621,0.00753,-0.1213
6.1,1.1932,0.01638,0.00771,-0.121
6.2,1.2025,0.01658,0.00789,-0.1208
6.3,1.2116,0.01679,0.00807,-0.1205
6.4,1.2209,0.01699,0.00826,-0.1202
6.5,1.23,0.01721,0.00847,-0.1199
6.6,1.2394,0.01739,0.00867,-0.1196
6.7,1.2487,0.01759,0.00888,-0.1193
6.8,1.2577,0.01781,0.00909,-0.119
6.9,1.2667,0.01804,0.00936,-0.1186
7,1.2759,0.01824,0.00959,-0.1183
7.1,1.2848,0.01847,0.00979,-0.118
7.2,1.2935,0.01872,0.01004,-0.1176
7.3,1.3024,0.01895,0.0103,-0.1173
7.4,1.3114,0.01917,0.01055,-0.1169
7.5,1.3203,0.0194,0.01081,-0.1165
7.6,1.329,0.01964,0.01107,-0.1162
7.7,1.3376,0.0199,0.01135,-0.1158
7.8,1.3458,0.02021,0.01166,-0.1153
7.9,1.3541,0.0205,0.01197,-0.1149
8,1.3631,0.02068,0.01219,-0.1145
8.1,1.3716,0.02094,0.01249,-0.1141
8.2,1.3799,0.02122,0.0128,-0.1137
8.3,1.388,0.02152,0.01315,-0.1132
8.4,1.396,0.02181,0.0134,-0.1128
8.5,1.4043,0.02207,0.01373,-0.1124
8.6,1.4124,0.02235,0.01406,-0.1119
8.7,1.4204,0.02264,0.01439,-0.1114
8.8,1.4283,0.02295,0.01473,-0.1109
8.9,1.4359,0.02327,0.01508,-0.1104
9,1.4431,0.02365,0.01547,-0.1099
9.1,1.4496,0.02411,0.01594,-0.1092
9.2,1.4574,0.0244,0.01631,-0.1086
9.3,1.4665,0.02449,0.01644,-0.1084
9.4,1.4738,0.02482,0.01681,-0.1079
9.5,1.4809,0.02517,0.01719,-0.1073
9.6,1.4878,0.02553,0.01759,-0.1067
9.7,1.4943,0.02594,0.01803,-0.106
9.8,1.4999,0.02644,0.01853,-0.1052
9.9,1.5067,0.02679,0.019,-0.1046
10,1.513,0.02718,0.01947,-0.1039
10.1,1.5191,0.02759,0.01996,-0.1031
10.2,1.5249,0.02802,0.02045,-0.1023
10.3,1.5304,0.02844,0.02094,-0.1015
10.4,1.5358,0.02887,0.02143,-0.1007
10.5,1.5409,0.02931,0.02193,-0.0998
10.6,1.5457,0.02974,0.02242,-0.0989
10.7,1.5496,0.03019,0.02291,-0.0979
10.8,1.5531,0.03065,0.02342,-0.0968
10.9,1.5561,0.03116,0.02398,-0.0956
11,1.5583,0.03172,0.02459,-0.0944
11.1,1.5595,0.03238,0.0253,-0.093
11.2,1.5604,0.03307,0.02601,-0.0917
11.3,1.5639,0.03356,0.0266,-0.0906
11.4,1.5666,0.03412,0.02725,-0.0895
11.5,1.5688,0.03472,0.02794,-0.0884
11.6,1.5706,0.03534,0.02866,-0.0873
11.7,1.5721,0.03599,0.02939,-0.0861
11.8,1.5734,0.03666,0.03015,-0.085
11.9,1.5745,0.03736,0.03092,-0.0839
12,1.5753,0.03807,0.03172,-0.0828
12.1,1.5758,0.0388,0.03253,-0.0817
12.2,1.5762,0.03955,0.03338,-0.0806
12.3,1.5764,0.04033,0.03424,-0.0796
12.4,1.5764,0.04112,0.03511,-0.0786
12.5,1.5761,0.04194,0.03602,-0.0776
12.6,1.5756,0.04279,0.03694,-0.0767
12.7,1.5749,0.04366,0.03788,-0.0758
12.8,1.5739,0.04456,0.03887,-0.075
12.9,1.5728,0.04551,0.03988,-0.0743
13,1.5714,0.04648,0.04093,-0.0735
13.1,1.5697,0.0475,0.04203,-0.0729
13.2,1.5677,0.04857,0.04317,-0.0723
13.3,1.5655,0.04968,0.04436,-0.0718
13.4,1.563,0.05084,0.0456,-0.0714
13.5,1.5603,0.05206,0.04689,-0.0711
13.6,1.5573,0.05335,0.04825,-0.0709
13.7,1.5541,0.0547,0.04968,-0.0708
13.8,1.5504,0.05614,0.0512,-0.0709
13.9,1.5464,0.05765,0.05278,-0.0711
14,1.5423,0.05922,0.05444,-0.0714
14.5,1.5263,0.06754,0.06317,-0.0758
14.6,1.5218,0.06965,0.06539,-0.0773
14.7,1.517,0.07192,0.06777,-0.0792
14.8,1.5122,0.07432,0.07027,-0.0814
14.9,1.507,0.07693,0.07299,-0.084
15,1.5021,0.07973,0.0759,-0.0869
15.1,1.497,0.08281,0.0791,-0.0904
15.2,1.492,0.08617,0.08258,-0.0943
15.3,1.4872,0.08988,0.08641,-0.0988
15.5,1.4774,0.09883,0.09561,-0.1096
15.6,1.4726,0.10393,0.10084,-0.1155
15.7,1.4675,0.10948,0.10651,-0.1217
16.7,1.3965,0.17581,0.17368,-0.1791
16.8,1.3986,0.17716,0.17503,-0.1806
16.9,1.4002,0.17878,0.17665,-0.1822
17,1.4025,0.17963,0.1775,-0.1834
17.1,1.4055,0.17952,0.17738,-0.184
17.7,1.4015,0.22126,0.21905,-0.2061
17.8,1.4045,0.22298,0.22078,-0.2076
17.9,1.4075,0.22463,0.22244,-0.209
18,1.4106,0.22624,0.22405,-0.2105
18.1,1.4136,0.22781,0.22562,-0.2119
18.2,1.4166,0.22936,0.22717,-0.2133
18.3,1.4196,0.23094,0.22876,-0.2147
18.4,1.4226,0.23242,0.23024,-0.2161
18.5,1.4256,0.23391,0.23174,-0.2175
18.6,1.4286,0.23531,0.23315,-0.2188
18.7,1.4315,0.23675,0.2346,-0.2202
18.8,1.4344,0.2381,0.23595,-0.2216
18.9,1.4373,0.23942,0.23728,-0.2229
19,1.4402,0.24091,0.23877,-0.2243
19.1,1.443,0.24222,0.24009,-0.2256
19.2,1.4456,0.24339,0.24126,-0.2269
19.3,1.4483,0.24484,0.24272,-0.2282
19.4,1.4508,0.2462,0.24408,-0.2295
19.5,1.4582,0.25868,0.2565,-0.2338
19.6,1.4619,0.26154,0.25935,-0.2355
19.7,1.4654,0.26406,0.26188,-0.2371
19.8,1.469,0.26652,0.26435,-0.2387
19.9,1.4725,0.26872,0.26654,-0.2403
20,1.4759,0.27092,0.26875,-0.2418
20.1,1.4793,0.27301,0.27084,-0.2434
20.2,1.4827,0.27504,0.27287,-0.2449
20.3,1.4861,0.27704,0.27488,-0.2464
20.4,1.4894,0.279,0.27684,-0.2479
20.5,1.4927,0.28094,0.27879,-0.2494
20.6,1.496,0.28285,0.28072,-0.2509
20.7,1.4993,0.28473,0.28261,-0.2524
20.8,1.5025,0.28659,0.28448,-0.2539
20.9,1.5058,0.28844,0.28633,-0.2555
21,1.509,0.29026,0.28816,-0.257
21.1,1.5122,0.29208,0.28998,-0.2585
21.2,1.5154,0.29388,0.29179,-0.26
21.3,1.5186,0.29568,0.29359,-0.2615
21.4,1.5218,0.29745,0.29537,-0.263
21.5,1.5249,0.29926,0.29718,-0.2645
21.6,1.5281,0.30103,0.29896,-0.266
21.7,1.5312,0.30279,0.30072,-0.2676
21.8,1.5343,0.30453,0.30247,-0.2691
21.9,1.5374,0.30632,0.30426,-0.2706
22,1.5405,0.30801,0.30596,-0.2721
22.1,1.5435,0.30978,0.30774,-0.2737
22.2,1.5466,0.31154,0.3095,-0.2752
22.3,1.5496,0.31326,0.31122,-0.2767
22.4,1.5526,0.31498,0.31296,-0.2783
22.5,1.5556,0.31672,0.3147,-0.2798
22.6,1.5586,0.31842,0.31641,-0.2813
22.7,1.5616,0.32023,0.31822,-0.2829
22.8,1.5646,0.32195,0.31996,-0.2844
22.9,1.5675,0.32366,0.32166,-0.286
23,1.5704,0.32538,0.32339,-0.2875
23.1,1.5734,0.32719,0.32521,-0.2891
23.2,1.5762,0.32886,0.32689,-0.2906
23.3,1.5791,0.33061,0.32865,-0.2922
23.4,1.582,0.3324,0.33044,-0.2938
23.5,1.5848,0.33414,0.33219,-0.2953
23.6,1.5877,0.33592,0.33397,-0.2969
23.7,1.5905,0.33774,0.3358,-0.2985
23.8,1.5933,0.33947,0.33756,-0.3
23.9,1.596,0.34125,0.33934,-0.3016
24,1.5988,0.34304,0.34114,-0.3032
24.1,1.6015,0.34486,0.34298,-0.3047
24.2,1.6043,0.34671,0.34483,-0.3063
24.3,1.6069,0.34855,0.34668,-0.3079
24.5,1.6111,0.35158,0.34972,-0.3109
24.6,1.6136,0.35352,0.35167,-0.3124
24.7,1.6162,0.3555,0.35366,-0.314
24.8,1.6247,0.36185,0.35997,-0.3173
24.9,1.6296,0.36574,0.36385,-0.3196
25.1,1.6378,0.37213,0.37024,-0.3235
25.2,1.6413,0.37472,0.37284,-0.3254
25.3,1.6447,0.37727,0.37539,-0.3272
25.4,1.6479,0.3796,0.37772,-0.329
25.5,1.6511,0.3819,0.38003,-0.3309
25.6,1.6542,0.38412,0.38226,-0.3326
25.7,1.6574,0.38636,0.3845,-0.3345
25.8,1.6603,0.38851,0.38666,-0.3363
25.9,1.6633,0.39065,0.3888,-0.3381
26,1.6663,0.39276,0.39092,-0.3399
26.1,1.6691,0.39481,0.39298,-0.3417
26.2,1.6721,0.39691,0.39508,-0.3435
26.3,1.675,0.39896,0.39714,-0.3453
26.4,1.6777,0.40098,0.39917,-0.3471
26.5,1.6805,0.403,0.4012,-0.3489
26.6,1.6833,0.40501,0.40321,-0.3507
26.7,1.686,0.40702,0.40522,-0.3525
26.8,1.6887,0.40902,0.40723,-0.3543
26.9,1.6914,0.41099,0.40921,-0.3562
27,1.6941,0.41299,0.41122,-0.358
27.1,1.6968,0.41497,0.41321,-0.3598
27.2,1.6994,0.41697,0.41521,-0.3616
27.3,1.702,0.41888,0.41713,-0.3635
27.4,1.7046,0.42087,0.41915,-0.3653
27.5,1.7071,0.42284,0.42112,-0.3671
27.6,1.7097,0.42479,0.42308,-0.369
27.7,1.7122,0.42672,0.42501,-0.3708
27.8,1.7147,0.42868,0.42698,-0.3727
27.9,1.7172,0.43064,0.42895,-0.3746
28,1.7197,0.43257,0.43089,-0.3764
28.1,1.7221,0.43451,0.43284,-0.3783
28.2,1.7245,0.43646,0.43479,-0.3802
28.3,1.7269,0.43837,0.43671,-0.382
28.4,1.7293,0.44033,0.43868,-0.3839
28.5,1.7316,0.44228,0.44064,-0.3858
28.6,1.734,0.44428,0.44264,-0.3877
28.7,1.7363,0.44623,0.44461,-0.3895
28.8,1.7386,0.44818,0.44656,-0.3914
28.9,1.7408,0.45012,0.44851,-0.3933
29,1.7431,0.45212,0.45052,-0.3952
29.1,1.7453,0.45408,0.45248,-0.3971
29.2,1.7475,0.45606,0.45447,-0.399
29.3,1.7497,0.45803,0.45645,-0.4009
29.4,1.7518,0.46,0.45843,-0.4028
29.5,1.754,0.46205,0.46049,-0.4047
29.6,1.7562,0.46406,0.46251,-0.4067
29.7,1.7582,0.46605,0.4645,-0.4086
29.8,1.7603,0.46807,0.46653,-0.4105
29.9,1.7624,0.47014,0.46861,-0.4124
30,1.7645,0.4722,0.47068,-0.4143

