airfoilName st21.dat
Re 	8.300000e+05
M 	0
N 	4.500000e+00
VACC 	0 VACCflag 1
XTR 	1.00 	1.00 XTRflag 0
alpha,cl,cd,cdp,cm
-6.7,-0.1834,0.01802,0.01481,-0.1272
-6.6,-0.1695,0.01601,0.01254,-0.1289
-6.5,-0.157,0.01509,0.01147,-0.1297
-6.4,-0.1448,0.01438,0.01063,-0.1304
-6.3,-0.1328,0.01379,0.00993,-0.1309
-6.2,-0.1211,0.01329,0.00934,-0.1312
-6.1,-0.1097,0.01286,0.00881,-0.1315
-6,-0.0982,0.01248,0.00834,-0.1317
-5.9,-0.0867,0.01212,0.00792,-0.132
-5.8,-0.0751,0.0118,0.00753,-0.1322
-5.7,-0.0637,0.0115,0.00716,-0.1323
-5.6,-0.0521,0.01123,0.00682,-0.1325
-5.5,-0.0406,0.01097,0.0065,-0.1327
-5.4,-0.0291,0.01073,0.0062,-0.1328
-5.3,-0.0176,0.0105,0.00591,-0.1329
-5.2,-0.0062,0.01029,0.00566,-0.133
-5.1,0.0053,0.01008,0.0054,-0.1331
-5,0.0167,0.00989,0.00516,-0.1332
-4.9,0.0282,0.0097,0.00493,-0.1333
-4.8,0.0396,0.00953,0.00469,-0.1334
-4.7,0.0509,0.00936,0.00448,-0.1334
-4.5,0.0733,0.00916,0.00422,-0.1334
-4.4,0.0846,0.00901,0.00402,-0.1335
-4.3,0.0958,0.00887,0.00384,-0.1334
-4.2,0.1072,0.00874,0.00367,-0.1335
-4.1,0.1186,0.00863,0.00352,-0.1335
-4,0.1297,0.00855,0.00341,-0.1335
-3.9,0.1414,0.00833,0.00316,-0.1336
-3.8,0.1531,0.00811,0.00289,-0.1337
-3.7,0.1645,0.00798,0.00274,-0.1337
-3.6,0.1758,0.00788,0.0026,-0.1337
-3.5,0.1871,0.0078,0.00249,-0.1337
-3.4,0.1985,0.00772,0.00238,-0.1337
-3.3,0.2098,0.00764,0.00228,-0.1337
-3.2,0.2212,0.00757,0.00219,-0.1337
-3.1,0.2326,0.00749,0.00209,-0.1337
-3,0.244,0.00741,0.002,-0.1338
-2.9,0.2552,0.00735,0.00192,-0.1337
-2.8,0.2665,0.0073,0.00186,-0.1337
-2.7,0.2779,0.00725,0.0018,-0.1338
-2.6,0.2892,0.00721,0.00174,-0.1338
-2.5,0.3006,0.00714,0.00167,-0.1338
-2.4,0.3118,0.0071,0.0016,-0.1338
-2.3,0.3231,0.00706,0.00156,-0.1337
-2.2,0.3345,0.00702,0.00151,-0.1338
-2.1,0.3458,0.00698,0.00146,-0.1338
-1.9,0.3683,0.0069,0.00139,-0.1338
-1.8,0.3796,0.00688,0.00135,-0.1338
-1.7,0.391,0.00683,0.00133,-0.1338
-1.6,0.402,0.00681,0.00129,-0.1337
-1.5,0.4128,0.00681,0.00125,-0.1336
-1.4,0.4241,0.00679,0.00121,-0.1335
-1.3,0.4351,0.00678,0.00118,-0.1335
-1.2,0.4461,0.00677,0.00115,-0.1334
-1.1,0.4574,0.00676,0.00112,-0.1334
-1,0.4687,0.00674,0.00111,-0.1334
-0.9,0.4795,0.00674,0.00109,-0.1333
-0.8,0.4908,0.00673,0.00107,-0.1333
-0.7,0.5021,0.00672,0.00106,-0.1333
-0.6,0.5128,0.00675,0.00104,-0.1331
-0.5,0.5241,0.00673,0.00104,-0.1331
-0.4,0.535,0.00676,0.00103,-0.1331
-0.3,0.5459,0.00679,0.00102,-0.1329
-0.2,0.5569,0.0068,0.00101,-0.1329
0,0.5792,0.00682,0.00102,-0.1328
0.1,0.5898,0.00687,0.00102,-0.1327
0.2,0.6007,0.0069,0.00103,-0.1326
0.3,0.6117,0.00692,0.00103,-0.1326
0.4,0.6227,0.00695,0.00104,-0.1325
0.5,0.6335,0.007,0.00105,-0.1324
0.6,0.6432,0.00716,0.00108,-0.1321
0.7,0.6539,0.00722,0.0011,-0.132
0.8,0.6646,0.00728,0.00112,-0.1319
0.9,0.6749,0.00739,0.00116,-0.1317
1,0.6845,0.00759,0.00122,-0.1314
1.1,0.6951,0.00767,0.00125,-0.1313
1.2,0.7057,0.00775,0.00129,-0.1312
1.3,0.7155,0.00794,0.00136,-0.131
1.4,0.726,0.00803,0.00142,-0.1309
1.5,0.7349,0.00835,0.00153,-0.1305
1.6,0.7453,0.00847,0.00158,-0.1304
1.7,0.7555,0.00861,0.00164,-0.1303
1.8,0.7658,0.00875,0.00171,-0.1302
1.9,0.7759,0.0089,0.00178,-0.13
2,0.7844,0.0093,0.00192,-0.1296
2.1,0.7943,0.00948,0.00202,-0.1295
2.2,0.8044,0.00964,0.00209,-0.1294
2.3,0.8148,0.00976,0.00216,-0.1293
2.4,0.8253,0.00986,0.00223,-0.1292
2.5,0.8354,0.01002,0.00232,-0.129
2.6,0.846,0.01009,0.00238,-0.1289
2.7,0.8567,0.01015,0.00244,-0.1289
2.8,0.8675,0.01017,0.00254,-0.1289
2.9,0.8733,0.00892,0.00272,-0.1281
3,0.8835,0.00907,0.00279,-0.128
3.1,0.8942,0.00916,0.00285,-0.1279
3.2,0.9048,0.00925,0.00291,-0.1278
3.3,0.9155,0.00933,0.00297,-0.1277
3.4,0.9257,0.00947,0.00304,-0.1276
3.5,0.9363,0.00958,0.00311,-0.1275
3.6,0.9469,0.00966,0.00318,-0.1274
3.7,0.9575,0.00975,0.00324,-0.1273
3.8,0.9679,0.00985,0.00332,-0.1272
3.9,0.9781,0.01,0.00339,-0.127
4,0.9886,0.01009,0.00348,-0.1269
4.1,0.9991,0.01019,0.00355,-0.1268
4.2,1.0095,0.0103,0.00364,-0.1267
4.3,1.02,0.01039,0.00374,-0.1266
4.4,1.03,0.01056,0.00384,-0.1264
4.5,1.0404,0.01066,0.00392,-0.1263
4.6,1.0507,0.01077,0.004,-0.1262
4.7,1.061,0.01089,0.00411,-0.126
4.8,1.0714,0.01099,0.00419,-0.1259
4.9,1.0816,0.01111,0.00429,-0.1257
5,1.0916,0.01127,0.00441,-0.1256
5.1,1.1017,0.0114,0.0045,-0.1254
5.2,1.1119,0.01153,0.00462,-0.1252
5.3,1.1221,0.01164,0.00472,-0.1251
5.4,1.1323,0.01176,0.00483,-0.1249
5.5,1.1423,0.0119,0.00494,-0.1248
5.6,1.1525,0.01202,0.00509,-0.1246
5.7,1.1626,0.01213,0.0052,-0.1245
5.8,1.1727,0.01226,0.00531,-0.1243
5.9,1.1827,0.0124,0.00544,-0.1241
6,1.1927,0.01254,0.00558,-0.1239
6.1,1.2028,0.01266,0.0057,-0.1237
6.2,1.2126,0.0128,0.00583,-0.1235
6.3,1.2225,0.01294,0.00596,-0.1233
6.4,1.2322,0.01312,0.00612,-0.1231
6.5,1.2422,0.01324,0.00625,-0.1229
6.6,1.2521,0.01337,0.00639,-0.1227
6.7,1.2616,0.01356,0.00654,-0.1225
6.8,1.2713,0.01372,0.00669,-0.1223
6.9,1.2811,0.01386,0.00687,-0.1221
7,1.291,0.014,0.00701,-0.1219
7.1,1.3007,0.01414,0.00716,-0.1216
7.2,1.3104,0.01429,0.00732,-0.1214
7.3,1.32,0.01445,0.00748,-0.1212
7.4,1.3295,0.01462,0.00765,-0.1209
7.5,1.3389,0.01481,0.00784,-0.1207
7.6,1.3486,0.01495,0.008,-0.1204
7.7,1.3582,0.0151,0.00817,-0.1202
7.8,1.3676,0.01526,0.00834,-0.1199
7.9,1.377,0.01543,0.00852,-0.1197
8,1.3863,0.01562,0.00871,-0.1194
8.1,1.3955,0.01582,0.00892,-0.1191
8.2,1.4047,0.01601,0.00912,-0.1188
8.3,1.4141,0.01617,0.00933,-0.1185
8.4,1.4233,0.01635,0.00953,-0.1182
8.5,1.4325,0.01653,0.00973,-0.1179
8.6,1.4416,0.01673,0.00994,-0.1176
8.7,1.4505,0.01693,0.01016,-0.1173
8.8,1.4593,0.01716,0.0104,-0.1169
8.9,1.4681,0.01737,0.01061,-0.1166
9,1.4769,0.01758,0.01084,-0.1162
9.1,1.4857,0.01779,0.01109,-0.1159
9.2,1.4944,0.01802,0.01134,-0.1155
9.3,1.5031,0.01824,0.01159,-0.1151
9.4,1.5116,0.01848,0.01185,-0.1147
9.5,1.52,0.01872,0.01212,-0.1143
9.6,1.5283,0.01898,0.0124,-0.1139
9.7,1.5365,0.01924,0.0127,-0.1134
9.8,1.5445,0.01953,0.01302,-0.113
9.9,1.5522,0.01985,0.01339,-0.1124
10,1.5597,0.02021,0.01379,-0.1119
10.1,1.5666,0.02063,0.01426,-0.1112
10.2,1.5738,0.021,0.01467,-0.1106
10.3,1.5818,0.02124,0.01495,-0.1101
10.4,1.5896,0.0215,0.01524,-0.1096
10.5,1.5972,0.02177,0.01556,-0.1091
10.6,1.6045,0.02207,0.0159,-0.1086
10.7,1.6118,0.02237,0.01624,-0.108
10.8,1.6188,0.02268,0.0166,-0.1074
10.9,1.6257,0.02301,0.01698,-0.1068
11,1.6324,0.02334,0.01736,-0.1061
11.1,1.6389,0.02369,0.01776,-0.1054
11.2,1.6452,0.02405,0.01816,-0.1047
11.3,1.6514,0.02441,0.01857,-0.104
11.4,1.6572,0.02478,0.01899,-0.1032
11.5,1.6628,0.02515,0.01942,-0.1024
11.6,1.6681,0.02554,0.01985,-0.1016
11.7,1.673,0.02593,0.02029,-0.1006
11.8,1.6775,0.02634,0.02077,-0.0997
11.9,1.6819,0.02674,0.02122,-0.0986
12,1.6851,0.02714,0.02167,-0.0974
12.1,1.688,0.02756,0.02214,-0.0962
12.2,1.6907,0.02798,0.02262,-0.0949
12.3,1.6933,0.02843,0.02312,-0.0937
12.4,1.6957,0.02889,0.02363,-0.0924
12.5,1.6979,0.02937,0.02417,-0.0912
12.6,1.7,0.02985,0.02471,-0.0899
12.7,1.7017,0.03037,0.02528,-0.0887
12.8,1.7032,0.03092,0.02589,-0.0874
12.9,1.7047,0.03145,0.02648,-0.0862
13,1.7057,0.03204,0.02712,-0.085
13.1,1.7066,0.03263,0.02778,-0.0838
13.2,1.7074,0.03325,0.02846,-0.0826
13.3,1.7076,0.03391,0.02918,-0.0814
13.4,1.7075,0.0346,0.02993,-0.0802
13.5,1.7072,0.03531,0.03071,-0.079
13.6,1.7068,0.03605,0.0315,-0.0779
13.7,1.7057,0.03686,0.03238,-0.0768
13.8,1.7045,0.03768,0.03326,-0.0757
13.9,1.7031,0.03853,0.03418,-0.0747
14,1.701,0.03946,0.03518,-0.0737
14.1,1.6988,0.04042,0.0362,-0.0727
14.2,1.6963,0.04142,0.03728,-0.0719
14.3,1.6934,0.04249,0.03842,-0.0711
14.4,1.69,0.04365,0.03964,-0.0703
14.5,1.6865,0.04481,0.04088,-0.0697
14.6,1.6822,0.0461,0.04224,-0.0691
14.7,1.678,0.04743,0.04364,-0.0687
14.8,1.6738,0.04881,0.04509,-0.0685
14.9,1.6684,0.05036,0.04672,-0.0683
15,1.663,0.05199,0.04843,-0.0684
15.1,1.6577,0.05365,0.05016,-0.0686
15.2,1.6517,0.05546,0.05206,-0.0691
15.3,1.6453,0.05739,0.05407,-0.0697
15.4,1.6385,0.05949,0.05625,-0.0707
15.5,1.6309,0.06183,0.05868,-0.072
15.6,1.6246,0.06411,0.06104,-0.0735
15.7,1.6166,0.06684,0.06387,-0.0756
15.8,1.6089,0.06974,0.06686,-0.0781
15.9,1.6011,0.07295,0.07017,-0.0812
16,1.5918,0.07688,0.07421,-0.0853
16.1,1.5828,0.08129,0.07874,-0.0902
16.2,1.5719,0.08718,0.08478,-0.0969
16.4,1.5209,0.11535,0.11351,-0.1247
16.7,1.4485,0.14963,0.14818,-0.1538
16.9,1.4257,0.16336,0.16204,-0.1658
17,1.4148,0.17054,0.16927,-0.1719
17.1,1.4087,0.17589,0.17467,-0.1766
17.2,1.3998,0.18354,0.18238,-0.1824
17.4,1.3679,0.21839,0.21737,-0.2007
17.5,1.3703,0.22079,0.21976,-0.2024
17.6,1.3728,0.22308,0.22205,-0.2041
17.7,1.3755,0.22503,0.224,-0.2057
17.8,1.3782,0.22712,0.2261,-0.2074
17.9,1.381,0.22901,0.22799,-0.2089
18,1.3839,0.23074,0.22972,-0.2105
18.1,1.3866,0.23263,0.23161,-0.212
18.2,1.3895,0.23429,0.23327,-0.2135
18.3,1.3923,0.23596,0.23495,-0.2151
18.4,1.3951,0.23768,0.23667,-0.2166
18.5,1.3977,0.23912,0.23811,-0.2181
18.6,1.3984,0.24311,0.24209,-0.2202
18.7,1.4019,0.24874,0.24771,-0.2223
18.8,1.4054,0.25401,0.25297,-0.2241
19,1.4123,0.26074,0.2597,-0.2274
19.1,1.4156,0.26325,0.26221,-0.2289
19.2,1.419,0.26571,0.26468,-0.2304
19.3,1.4223,0.26802,0.26698,-0.2319
19.4,1.4256,0.27019,0.26916,-0.2334
19.5,1.429,0.27246,0.27143,-0.2349
19.6,1.4323,0.27453,0.2735,-0.2364
19.7,1.4357,0.27665,0.27562,-0.2379
19.8,1.439,0.2787,0.27767,-0.2394
19.9,1.4423,0.28079,0.27976,-0.2409
20,1.4456,0.28279,0.28177,-0.2423
20.1,1.4489,0.28482,0.2838,-0.2438
20.2,1.4522,0.28682,0.2858,-0.2453
20.3,1.4555,0.28882,0.2878,-0.2468
20.4,1.4588,0.2908,0.28978,-0.2483
20.5,1.4621,0.29276,0.29175,-0.2498
20.6,1.4653,0.29473,0.29371,-0.2513
20.7,1.4686,0.29667,0.29566,-0.2528
20.8,1.4719,0.29861,0.29761,-0.2543
20.9,1.4751,0.30055,0.29955,-0.2558
21,1.4783,0.30249,0.30148,-0.2573
21.1,1.4815,0.30441,0.30342,-0.2588
21.2,1.4848,0.30633,0.30533,-0.2603
21.3,1.488,0.30825,0.30726,-0.2618
21.4,1.4912,0.31015,0.30916,-0.2634
21.5,1.4944,0.31205,0.31106,-0.2649
21.6,1.4976,0.31399,0.31301,-0.2664
21.7,1.5008,0.31589,0.31491,-0.2679
21.8,1.504,0.31774,0.31677,-0.2695
21.9,1.5071,0.31969,0.31871,-0.271
22,1.5103,0.32156,0.32059,-0.2726
22.1,1.5134,0.32347,0.32252,-0.2741
22.3,1.5198,0.32687,0.32592,-0.2774
22.4,1.5228,0.32868,0.32773,-0.2789
22.5,1.526,0.33059,0.32965,-0.2805
22.6,1.529,0.33241,0.33147,-0.2821
22.7,1.5321,0.33427,0.33334,-0.2837
22.8,1.5352,0.3361,0.33516,-0.2852
22.9,1.5383,0.3379,0.33698,-0.2868
23,1.5413,0.33976,0.33884,-0.2884
23.1,1.5443,0.34154,0.34062,-0.29
23.2,1.5473,0.34338,0.34246,-0.2916
23.3,1.5503,0.34519,0.34427,-0.2932
23.4,1.5534,0.34704,0.34613,-0.2949
23.5,1.5563,0.34886,0.34795,-0.2965
23.6,1.5593,0.35067,0.34977,-0.2981
23.7,1.5623,0.35247,0.35157,-0.2997
23.8,1.5652,0.35426,0.35336,-0.3014
23.9,1.5681,0.35608,0.3552,-0.303
24,1.571,0.3579,0.35701,-0.3046
24.1,1.5739,0.35972,0.35884,-0.3063
24.2,1.5768,0.3615,0.36062,-0.3079
24.3,1.5797,0.3633,0.36243,-0.3096
24.4,1.5825,0.36509,0.36422,-0.3112
24.5,1.5853,0.36689,0.36602,-0.3129
24.6,1.5881,0.36868,0.36782,-0.3145
24.7,1.5909,0.37051,0.36966,-0.3162
24.8,1.5937,0.3723,0.37145,-0.3179
24.9,1.5965,0.37415,0.3733,-0.3195
25,1.5992,0.37594,0.37509,-0.3212
25.1,1.6019,0.37774,0.3769,-0.3229
25.2,1.6045,0.37958,0.37875,-0.3246
25.3,1.6072,0.38145,0.38063,-0.3262
25.4,1.6098,0.3833,0.38249,-0.3279
25.5,1.6124,0.3852,0.38439,-0.3296
25.6,1.6149,0.38718,0.38638,-0.3312
25.7,1.6175,0.38923,0.38843,-0.3329
25.8,1.6196,0.3916,0.39081,-0.3345
25.9,1.6219,0.39409,0.3933,-0.336
26,1.6239,0.39699,0.3962,-0.3374
26.1,1.626,0.39965,0.39887,-0.3388

