airfoilName st21.dat
Re 	610000
M 	0
N 	4.500000e+00
VACC 	0 VACCflag 1
XTR 	1.00 	1.00 XTRflag 0
alpha,cl,cd,cdp,cm
-29.5,-1.2695,0.49176,0.49028,0.2525
-29.4,-1.2671,0.48882,0.48734,0.2508
-29.3,-1.2649,0.48527,0.48378,0.2493
-29.2,-1.2624,0.48238,0.48089,0.2476
-29.1,-1.26,0.47916,0.47766,0.246
-29,-1.2575,0.47609,0.47458,0.2444
-28.9,-1.2551,0.47303,0.47152,0.2427
-28.8,-1.2525,0.47015,0.46863,0.241
-28.7,-1.2501,0.46692,0.4654,0.2395
-28.6,-1.2475,0.46403,0.46251,0.2378
-28.5,-1.245,0.46114,0.45961,0.2361
-28.4,-1.2424,0.45836,0.45683,0.2345
-28.3,-1.2397,0.45569,0.45416,0.2328
-28.2,-1.237,0.45307,0.45153,0.2311
-28.1,-1.2343,0.45043,0.44889,0.2294
-28,-1.2316,0.44784,0.44629,0.2277
-27.9,-1.2289,0.44534,0.44379,0.226
-27.8,-1.2261,0.44295,0.44139,0.2243
-27.7,-1.2233,0.44056,0.439,0.2226
-27.6,-1.2205,0.43821,0.43664,0.2208
-27.5,-1.2176,0.43589,0.43432,0.2191
-27.4,-1.2147,0.4336,0.43203,0.2174
-27.3,-1.2118,0.43134,0.42976,0.2157
-27.2,-1.2089,0.4291,0.42752,0.214
-27.1,-1.2059,0.4269,0.42531,0.2123
-27,-1.203,0.42469,0.42311,0.2105
-26.9,-1.2,0.42252,0.42093,0.2088
-26.8,-1.197,0.42038,0.41878,0.2071
-26.7,-1.194,0.41822,0.41662,0.2054
-26.6,-1.191,0.41608,0.41447,0.2037
-26.5,-1.1879,0.41397,0.41236,0.202
-26.4,-1.1848,0.41185,0.41024,0.2003
-26.3,-1.1817,0.40977,0.40815,0.1986
-26.2,-1.1787,0.40767,0.40605,0.1969
-26.1,-1.1755,0.40559,0.40396,0.1952
-26,-1.1724,0.4035,0.40187,0.1936
-25.9,-1.1693,0.40144,0.3998,0.1919
-25.8,-1.1661,0.39937,0.39773,0.1902
-25.7,-1.1629,0.3973,0.39566,0.1885
-25.6,-1.1598,0.39525,0.39361,0.1869
-25.5,-1.1566,0.3932,0.39156,0.1852
-25.4,-1.1533,0.39117,0.38951,0.1836
-25.3,-1.1501,0.38912,0.38747,0.1819
-25.2,-1.1469,0.38709,0.38543,0.1803
-25.1,-1.1436,0.38505,0.38339,0.1786
-25,-1.1404,0.38301,0.38135,0.177
-24.9,-1.1371,0.381,0.37933,0.1754
-24.8,-1.1338,0.37899,0.37732,0.1738
-24.7,-1.1306,0.37696,0.37528,0.1722
-24.6,-1.1273,0.37495,0.37328,0.1706
-24.5,-1.1239,0.37295,0.37127,0.169
-24.4,-1.1206,0.37093,0.36925,0.1674
-24.3,-1.1173,0.36893,0.36724,0.1658
-24.2,-1.1139,0.36692,0.36523,0.1642
-24.1,-1.1106,0.36491,0.36322,0.1626
-24,-1.1072,0.36292,0.36122,0.1611
-23.9,-1.1039,0.36092,0.35921,0.1595
-23.7,-1.0969,0.35746,0.35575,0.1562
-23.6,-1.0935,0.35545,0.35373,0.1547
-23.5,-1.0901,0.35345,0.35173,0.1531
-23.4,-1.0867,0.35143,0.34971,0.1516
-23.3,-1.0832,0.34942,0.34769,0.1501
-23.2,-1.0798,0.34743,0.3457,0.1486
-23.1,-1.0763,0.34542,0.34369,0.1471
-23,-1.0728,0.34343,0.3417,0.1456
-22.9,-1.0694,0.34144,0.3397,0.1441
-22.8,-1.0659,0.33945,0.33771,0.1426
-22.7,-1.0624,0.33746,0.33572,0.1411
-22.6,-1.0588,0.33548,0.33374,0.1396
-22.5,-1.0553,0.33349,0.33174,0.1381
-22.4,-1.0518,0.33151,0.32976,0.1366
-22.3,-1.0482,0.32954,0.32779,0.1352
-22.2,-1.0447,0.32757,0.32582,0.1337
-22.1,-1.0411,0.32559,0.32384,0.1322
-22,-1.0376,0.32365,0.32189,0.1308
-21.9,-1.034,0.32168,0.31992,0.1293
-21.8,-1.0304,0.31972,0.31796,0.1279
-21.7,-1.0268,0.31777,0.31601,0.1265
-21.6,-1.0232,0.31583,0.31406,0.125
-21.5,-1.0196,0.31388,0.31211,0.1236
-21.4,-1.016,0.31194,0.31017,0.1222
-21.3,-1.0123,0.31001,0.30824,0.1208
-21.2,-1.0087,0.30807,0.3063,0.1194
-21.1,-1.0051,0.30614,0.30436,0.118
-21,-1.0014,0.30422,0.30243,0.1166
-20.9,-0.9978,0.30228,0.30048,0.1152
-20.8,-0.9941,0.30038,0.29859,0.1138
-20.7,-0.9904,0.29846,0.29666,0.1124
-20.6,-0.9868,0.29655,0.29475,0.1111
-20.5,-0.9831,0.29463,0.29283,0.1097
-20.4,-0.9794,0.29274,0.29094,0.1083
-20.3,-0.9757,0.29083,0.28903,0.107
-20.2,-0.972,0.28892,0.28712,0.1056
-20.1,-0.9683,0.28704,0.28523,0.1043
-20,-0.9645,0.28514,0.28334,0.1029
-19.9,-0.9608,0.28325,0.28144,0.1016
-19.8,-0.9571,0.28137,0.27956,0.1002
-19.7,-0.9533,0.27948,0.27767,0.0989
-19.6,-0.9496,0.2776,0.27579,0.0976
-19.5,-0.9458,0.27571,0.2739,0.0963
-19.4,-0.942,0.27383,0.27201,0.095
-19.3,-0.9382,0.27195,0.27013,0.0937
-19.2,-0.9344,0.27007,0.26825,0.0923
-19.1,-0.9306,0.26818,0.26636,0.091
-19,-0.9268,0.2663,0.26447,0.0897
-18.9,-0.9229,0.2644,0.26258,0.0884
-18.8,-0.919,0.26249,0.26067,0.0871
-18.7,-0.9151,0.26058,0.25876,0.0858
-18.6,-0.9111,0.25865,0.25682,0.0844
-18.5,-0.9071,0.2567,0.25487,0.0831
-18.4,-0.9031,0.25473,0.2529,0.0818
-18.3,-0.899,0.25266,0.25084,0.0804
-18,-0.8845,0.2463,0.24448,0.0758
-17.9,-0.8791,0.24466,0.24283,0.074
-17.6,-0.8632,0.23989,0.23807,0.069
-17.5,-0.8606,0.23749,0.23567,0.0682
-17.4,-0.8582,0.23491,0.23309,0.0675
-17.3,-0.856,0.23228,0.23045,0.0668
-17.2,-0.8534,0.22993,0.22811,0.066
-17.1,-0.8505,0.22781,0.22598,0.0651
-17,-0.8473,0.22585,0.22402,0.0642
-16.9,-0.844,0.22397,0.22214,0.0632
-16.8,-0.8406,0.22217,0.22034,0.0622
-16.7,-0.8371,0.22041,0.21857,0.0611
-16.6,-0.8335,0.21867,0.21684,0.0601
-16.5,-0.8298,0.21697,0.21513,0.059
-16.4,-0.8262,0.21529,0.21345,0.0579
-16.3,-0.8224,0.21362,0.21178,0.0569
-16.2,-0.8187,0.21197,0.21013,0.0558
-16.1,-0.8149,0.21032,0.20848,0.0547
-16,-0.8111,0.20868,0.20684,0.0537
-15.9,-0.8073,0.20705,0.2052,0.0526
-15.8,-0.8035,0.20541,0.20357,0.0515
-15.7,-0.7996,0.20379,0.20195,0.0505
-15.6,-0.7958,0.20219,0.20034,0.0494
-15.5,-0.7919,0.20058,0.19873,0.0483
-15.4,-0.788,0.19896,0.19711,0.0473
-15.3,-0.7841,0.19736,0.19551,0.0462
-15.2,-0.7802,0.19576,0.1939,0.0451
-15.1,-0.7763,0.19416,0.19231,0.0441
-15,-0.7723,0.19256,0.19071,0.043
-14.9,-0.7684,0.19097,0.18911,0.042
-14.8,-0.7644,0.18939,0.18753,0.0409
-14.7,-0.7604,0.18779,0.18593,0.0399
-14.6,-0.7564,0.1862,0.18434,0.0389
-14.5,-0.7524,0.18461,0.18275,0.0378
-14.4,-0.7483,0.18302,0.18115,0.0368
-14.3,-0.7442,0.18143,0.17956,0.0357
-14.2,-0.7402,0.17985,0.17797,0.0347
-14.1,-0.7361,0.17827,0.17639,0.0337
-14,-0.732,0.17669,0.17481,0.0326
-13.9,-0.7279,0.17511,0.17324,0.0316
-13.8,-0.7238,0.17354,0.17167,0.0306
-13.7,-0.7189,0.17226,0.17039,0.0291
-13.6,-0.7148,0.17067,0.16879,0.0281
-13.5,-0.7107,0.16907,0.1672,0.0271
-13.4,-0.7066,0.16747,0.1656,0.0261
-13.3,-0.7025,0.16588,0.16401,0.0251
-13.2,-0.6983,0.16428,0.16241,0.0242
-13.1,-0.6941,0.16269,0.16082,0.0232
-13,-0.6899,0.1611,0.15923,0.0222
-12.9,-0.6857,0.1595,0.15763,0.0212
-12.8,-0.6815,0.15791,0.15605,0.0202
-12.7,-0.6773,0.15632,0.15446,0.0192
-12.6,-0.673,0.15473,0.15286,0.0182
-12.5,-0.6688,0.15313,0.15127,0.0172
-12.4,-0.6645,0.15153,0.14967,0.0163
-12.3,-0.6603,0.14992,0.14805,0.0153
-12.2,-0.656,0.14831,0.14644,0.0143
-12.1,-0.6517,0.14665,0.14478,0.0133
-12,-0.6473,0.14496,0.1431,0.0123
-11.9,-0.643,0.14326,0.14141,0.0114
-11.8,-0.6386,0.14144,0.13958,0.0103
-11.7,-0.6341,0.13951,0.13766,0.0093
-11.6,-0.6294,0.13743,0.13558,0.0082
-11.5,-0.6234,0.13502,0.13317,0.0068
-11.4,-0.6171,0.13318,0.13133,0.0054
-11.3,-0.6108,0.13155,0.12971,0.0039
-11.2,-0.6039,0.12986,0.12805,0.0022
-11.1,-0.602,0.12798,0.12617,0.0018
-11,-0.6,0.12612,0.12431,0.0014
-10.9,-0.5978,0.1244,0.12259,0.0008
-10.8,-0.5946,0.12291,0.12109,0.0001
-10.7,-0.5911,0.12152,0.11969,-0.0006
-10.6,-0.5875,0.12019,0.11837,-0.0014
-10.5,-0.5836,0.11891,0.11708,-0.0022
-10.4,-0.5797,0.11767,0.11585,-0.0029
-10.3,-0.5758,0.11645,0.11463,-0.0037
-10.2,-0.5719,0.11527,0.11345,-0.0045
-10.1,-0.568,0.1141,0.11229,-0.0053
-10,-0.5641,0.11294,0.11112,-0.006
-9.9,-0.5605,0.11181,0.11,-0.0066
-9.8,-0.557,0.1107,0.1089,-0.0073
-9.7,-0.5538,0.10964,0.10784,-0.0078
-9.6,-0.5511,0.10862,0.10682,-0.0082
-9.5,-0.5492,0.10768,0.10589,-0.0084
-9.4,-0.5482,0.10682,0.10505,-0.0083
-9.3,-0.5485,0.1061,0.10434,-0.0079
-9.2,-0.5509,0.10557,0.10383,-0.007
-9,-0.538,0.10286,0.10112,-0.01
-8.9,-0.5299,0.10137,0.09962,-0.0119
-8.8,-0.5212,0.09983,0.09807,-0.014
-8.7,-0.5116,0.09821,0.09645,-0.0164
-8.6,-0.5018,0.09658,0.09481,-0.0188
-8.5,-0.4921,0.09497,0.0932,-0.0211
-8.4,-0.4826,0.09339,0.09161,-0.0234
-8.3,-0.4728,0.09178,0.08999,-0.0257
-8.2,-0.4625,0.09014,0.08834,-0.0282
-8.1,-0.4508,0.08844,0.08663,-0.0311
-8,-0.4398,0.08671,0.08489,-0.0337
-7.9,-0.4285,0.08496,0.08312,-0.0364
-6.2,-0.1286,0.01709,0.01335,-0.1284
-6.1,-0.1157,0.01605,0.01215,-0.1294
-6,-0.1033,0.0153,0.01125,-0.1301
-5.9,-0.0909,0.01467,0.0105,-0.1307
-5.8,-0.0786,0.01413,0.00985,-0.1312
-5.7,-0.0664,0.01365,0.00927,-0.1316
-5.6,-0.0541,0.01322,0.00874,-0.132
-5.5,-0.0419,0.01283,0.00825,-0.1324
-5.4,-0.0307,0.01248,0.00783,-0.1325
-5.3,-0.0193,0.01216,0.00742,-0.1327
-5.2,-0.0078,0.01186,0.00705,-0.1329
-5.1,0.0039,0.01157,0.0067,-0.1331
-5,0.0155,0.01131,0.00636,-0.1332
-4.8,0.0386,0.01108,0.00603,-0.1335
-4.7,0.0504,0.01086,0.00576,-0.1336
-4.6,0.0621,0.01069,0.00553,-0.1337
-4.5,0.0733,0.01056,0.00535,-0.1338
-4.4,0.0849,0.01024,0.00499,-0.1339
-4.3,0.0967,0.00982,0.00449,-0.1341
-4.2,0.1081,0.00958,0.00421,-0.1342
-4.1,0.1195,0.00941,0.00399,-0.1342
-4,0.1311,0.00926,0.00381,-0.1343
-3.9,0.1424,0.00912,0.00365,-0.1343
-3.8,0.1538,0.009,0.00349,-0.1343
-3.7,0.1652,0.00888,0.00334,-0.1344
-3.6,0.1765,0.00876,0.00317,-0.1343
-3.5,0.188,0.00865,0.00303,-0.1344
-3.4,0.1993,0.00856,0.0029,-0.1344
-3.3,0.2109,0.0084,0.00272,-0.1344
-3.2,0.2221,0.0083,0.00261,-0.1344
-3.1,0.2335,0.00822,0.00251,-0.1344
-3,0.2449,0.00815,0.00242,-0.1344
-2.9,0.2561,0.00808,0.00232,-0.1344
-2.8,0.2675,0.00802,0.00224,-0.1344
-2.7,0.2787,0.00794,0.00214,-0.1344
-2.6,0.2901,0.00787,0.00208,-0.1344
-2.5,0.3013,0.00782,0.00202,-0.1344
-2.4,0.3126,0.00777,0.00194,-0.1344
-2.3,0.324,0.00772,0.00188,-0.1344
-2.2,0.3352,0.00766,0.00182,-0.1344
-2.1,0.3464,0.00762,0.00179,-0.1344
-2,0.3576,0.00757,0.00176,-0.1344
-1.9,0.369,0.00752,0.00171,-0.1344
-1.8,0.3803,0.00748,0.00167,-0.1344
-1.7,0.3915,0.00745,0.00162,-0.1343
-1.6,0.4028,0.00742,0.00157,-0.1343
-1.5,0.414,0.00738,0.00153,-0.1343
-1.4,0.4254,0.00734,0.0015,-0.1343
-1.3,0.4361,0.00733,0.00147,-0.1341
-1.2,0.4469,0.00731,0.00141,-0.134
-1.1,0.4582,0.00728,0.00138,-0.134
-1,0.4692,0.00726,0.00136,-0.1339
-0.9,0.4802,0.00726,0.00132,-0.1338
-0.8,0.4914,0.00725,0.0013,-0.1337
-0.7,0.5024,0.00723,0.00129,-0.1337
-0.6,0.5137,0.00721,0.00127,-0.1337
-0.5,0.5247,0.00722,0.00125,-0.1336
-0.4,0.5357,0.00721,0.00124,-0.1335
-0.3,0.5468,0.00721,0.00123,-0.1334
-0.2,0.5577,0.00722,0.00121,-0.1333
0,0.5797,0.00723,0.00121,-0.1332
0.1,0.5906,0.00725,0.0012,-0.1331
0.2,0.6018,0.00726,0.0012,-0.133
0.3,0.6129,0.00726,0.0012,-0.133
0.4,0.6235,0.0073,0.0012,-0.1328
0.5,0.6343,0.00733,0.00121,-0.1327
0.6,0.6453,0.00735,0.00122,-0.1327
0.7,0.6563,0.00737,0.00123,-0.1326
0.8,0.6667,0.00744,0.00123,-0.1324
0.9,0.6769,0.00753,0.00125,-0.1322
1,0.6877,0.00757,0.00127,-0.1321
1.1,0.6984,0.00762,0.00129,-0.1319
1.2,0.7075,0.00783,0.00134,-0.1315
1.3,0.7179,0.00791,0.00137,-0.1313
1.4,0.7279,0.00805,0.00143,-0.1311
1.5,0.7379,0.00819,0.00149,-0.1309
1.6,0.7478,0.00833,0.00155,-0.1307
1.7,0.7581,0.00845,0.0016,-0.1305
1.8,0.767,0.00872,0.0017,-0.1301
1.9,0.7771,0.00885,0.00177,-0.13
2,0.7872,0.00898,0.00184,-0.1298
2.1,0.7972,0.00914,0.00191,-0.1296
2.2,0.8055,0.00952,0.00206,-0.1292
2.3,0.8152,0.00971,0.00215,-0.129
2.4,0.8249,0.00992,0.00226,-0.1288
2.5,0.8347,0.01008,0.00237,-0.1287
2.6,0.8391,0.00889,0.00255,-0.1276
2.7,0.8484,0.00917,0.00267,-0.1273
2.8,0.8588,0.0093,0.00275,-0.1272
2.9,0.8693,0.00941,0.00284,-0.1271
3,0.8798,0.00953,0.00292,-0.127
3.1,0.8903,0.00963,0.00298,-0.1269
3.2,0.9004,0.0098,0.00307,-0.1267
3.3,0.9109,0.0099,0.00315,-0.1266
3.4,0.9214,0.01,0.00322,-0.1265
3.5,0.9319,0.01011,0.0033,-0.1264
3.6,0.9424,0.0102,0.00337,-0.1263
3.7,0.9525,0.01036,0.00345,-0.1261
3.8,0.9629,0.01046,0.00353,-0.126
3.9,0.9734,0.01057,0.00362,-0.1259
4,0.9838,0.01067,0.00369,-0.1258
4.1,0.9941,0.01079,0.00378,-0.1256
4.2,1.0042,0.01094,0.00387,-0.1255
4.3,1.0145,0.01105,0.00399,-0.1254
4.4,1.0248,0.01116,0.00408,-0.1252
4.5,1.035,0.01129,0.00419,-0.1251
4.6,1.0454,0.01139,0.00428,-0.1249
4.7,1.0552,0.01157,0.00439,-0.1247
4.8,1.0655,0.01168,0.00449,-0.1246
4.9,1.0755,0.01182,0.00459,-0.1244
5,1.0857,0.01194,0.00471,-0.1243
5.1,1.0959,0.01207,0.00481,-0.1241
5.2,1.1058,0.01222,0.00493,-0.1239
5.3,1.1157,0.01237,0.00505,-0.1237
5.4,1.1256,0.01253,0.00517,-0.1235
5.5,1.1357,0.01266,0.00531,-0.1234
5.6,1.1457,0.01278,0.00543,-0.1232
5.7,1.1557,0.01293,0.00558,-0.123
5.8,1.1655,0.01309,0.00573,-0.1228
5.9,1.1755,0.01321,0.00586,-0.1226
6,1.1855,0.01334,0.00599,-0.1224
6.1,1.1953,0.01349,0.00613,-0.1222
6.2,1.2051,0.01366,0.00628,-0.122
6.3,1.2149,0.0138,0.00644,-0.1218
6.4,1.2248,0.01394,0.00659,-0.1216
6.5,1.2344,0.0141,0.00674,-0.1213
6.6,1.2441,0.01427,0.0069,-0.1211
6.7,1.2536,0.01445,0.00707,-0.1208
6.8,1.2633,0.01461,0.00724,-0.1206
6.9,1.273,0.01476,0.0074,-0.1204
7,1.2826,0.01492,0.00759,-0.1201
7.1,1.2916,0.01515,0.00778,-0.1198
7.2,1.3012,0.01531,0.00795,-0.1196
7.3,1.3108,0.01546,0.00813,-0.1193
7.4,1.3203,0.01563,0.00831,-0.1191
7.5,1.3297,0.0158,0.00849,-0.1188
7.6,1.339,0.01599,0.00868,-0.1185
7.7,1.3482,0.0162,0.00889,-0.1182
7.8,1.3573,0.0164,0.00911,-0.1179
7.9,1.3667,0.01657,0.00931,-0.1176
8,1.3759,0.01675,0.00951,-0.1174
8.1,1.3851,0.01694,0.00972,-0.1171
8.2,1.3942,0.01714,0.00993,-0.1167
8.3,1.4031,0.01735,0.01015,-0.1164
8.4,1.4119,0.01758,0.01042,-0.116
8.5,1.4206,0.01783,0.01069,-0.1157
8.6,1.4296,0.01803,0.01092,-0.1153
8.7,1.4384,0.01824,0.01116,-0.115
8.8,1.4472,0.01846,0.01142,-0.1146
8.9,1.4559,0.01869,0.01168,-0.1142
9,1.4644,0.01893,0.01195,-0.1138
9.1,1.4728,0.01918,0.01222,-0.1134
9.2,1.4811,0.01945,0.01251,-0.113
9.3,1.4892,0.01974,0.01284,-0.1125
9.4,1.4968,0.0201,0.01323,-0.112
9.6,1.5138,0.0205,0.01367,-0.1112
9.7,1.5217,0.02078,0.014,-0.1107
9.8,1.5296,0.02107,0.01432,-0.1102
9.9,1.5373,0.02137,0.01466,-0.1097
10,1.5449,0.02167,0.01502,-0.1092
10.1,1.5524,0.02198,0.01537,-0.1087
10.2,1.5597,0.0223,0.01574,-0.1081
10.3,1.5668,0.02264,0.01611,-0.1075
10.4,1.5738,0.02299,0.0165,-0.1069
10.5,1.5805,0.02336,0.01692,-0.1062
10.6,1.5868,0.02377,0.01738,-0.1055
10.7,1.5927,0.02421,0.01787,-0.1048
10.8,1.598,0.02471,0.01844,-0.1039
10.9,1.6024,0.0253,0.01909,-0.1029
11,1.6053,0.026,0.01988,-0.1017
11.1,1.6111,0.02636,0.02026,-0.1009
11.2,1.6169,0.02669,0.02065,-0.1001
11.3,1.6224,0.02704,0.02104,-0.0993
11.4,1.6273,0.02741,0.02148,-0.0984
11.5,1.6318,0.0278,0.02192,-0.0974
11.6,1.6351,0.02821,0.02239,-0.0962
11.7,1.6382,0.02863,0.02287,-0.095
11.8,1.6409,0.02909,0.02339,-0.0938
11.9,1.6437,0.02954,0.02391,-0.0926
12,1.6461,0.03003,0.02447,-0.0913
12.1,1.6481,0.03054,0.02505,-0.0901
12.2,1.65,0.03107,0.02564,-0.0888
12.3,1.6517,0.03161,0.02625,-0.0876
12.4,1.6532,0.03218,0.02688,-0.0864
12.5,1.6542,0.03278,0.02755,-0.0851
12.6,1.6553,0.03338,0.02822,-0.0839
12.7,1.6559,0.03403,0.02894,-0.0827
12.8,1.6561,0.03471,0.02969,-0.0815
12.9,1.6565,0.03539,0.03043,-0.0804
13,1.6561,0.03612,0.03124,-0.0792
13.1,1.6558,0.03687,0.03206,-0.0781
13.2,1.6552,0.03765,0.0329,-0.077
13.3,1.6542,0.03848,0.03381,-0.0759
13.4,1.6528,0.03934,0.03475,-0.0749
13.5,1.6511,0.04025,0.03572,-0.0739
13.6,1.6494,0.04117,0.03672,-0.073
13.7,1.647,0.04219,0.03781,-0.0721
13.8,1.6447,0.04322,0.03891,-0.0713
13.9,1.6422,0.04429,0.04006,-0.0706
14,1.6393,0.04542,0.04127,-0.07
14.1,1.6359,0.04662,0.04254,-0.0695
14.2,1.6323,0.04789,0.04389,-0.069
14.3,1.6285,0.04922,0.0453,-0.0687
14.4,1.624,0.05068,0.04684,-0.0686
14.5,1.6199,0.05215,0.04837,-0.0685
14.6,1.6149,0.05376,0.05007,-0.0687
14.7,1.61,0.05543,0.05182,-0.069
14.8,1.6046,0.05722,0.05368,-0.0695
14.9,1.5985,0.05919,0.05574,-0.0703
15,1.5926,0.06123,0.05787,-0.0714
15.1,1.5861,0.06349,0.06021,-0.0727
15.2,1.5795,0.06592,0.06273,-0.0745
15.3,1.5724,0.06859,0.06551,-0.0766
15.4,1.5648,0.07159,0.06861,-0.0793
15.5,1.5572,0.07491,0.07203,-0.0826
15.6,1.5485,0.07887,0.0761,-0.0869
15.8,1.5283,0.09,0.08753,-0.0996
15.9,1.5125,0.10022,0.09797,-0.1107
16,1.4886,0.11396,0.11195,-0.1237
16.1,1.4678,0.12474,0.12288,-0.1332
16.2,1.4517,0.13348,0.13171,-0.1407
16.4,1.4274,0.14782,0.1462,-0.1529
16.5,1.417,0.15452,0.15294,-0.1585
16.6,1.4071,0.16123,0.15972,-0.1641
16.7,1.3981,0.16784,0.16638,-0.1696
16.9,1.3791,0.18407,0.18274,-0.1816

