airfoilName st21.dat
Re 	890000
M 	0
N 	4.500000e+00
VACC 	0 VACCflag 1
XTR 	1.00 	1.00 XTRflag 0
alpha,cl,cd,cdp,cm
-28,-1.2275,0.45672,0.45552,0.2254
-27.9,-1.2252,0.45295,0.45175,0.2241
-27.8,-1.2228,0.44946,0.44826,0.2226
-27.7,-1.2204,0.44581,0.4446,0.2212
-27.6,-1.2181,0.44203,0.44082,0.2199
-27.5,-1.2156,0.43839,0.43718,0.2184
-27.4,-1.2131,0.43495,0.43373,0.217
-27.3,-1.2105,0.4317,0.43048,0.2155
-27.2,-1.2078,0.42873,0.42751,0.2139
-27.1,-1.205,0.42602,0.42479,0.2123
-27,-1.2022,0.4233,0.42207,0.2107
-26.9,-1.1993,0.42079,0.41955,0.2091
-26.8,-1.1964,0.41826,0.41702,0.2074
-26.7,-1.1935,0.41588,0.41464,0.2058
-26.6,-1.1906,0.41349,0.41224,0.2041
-26.5,-1.1876,0.41118,0.40992,0.2025
-26.4,-1.1846,0.40889,0.40763,0.2008
-26.3,-1.1816,0.40664,0.40538,0.1992
-26.2,-1.1786,0.40442,0.40316,0.1975
-26.1,-1.1755,0.40223,0.40096,0.1959
-26,-1.1725,0.40006,0.39879,0.1942
-25.9,-1.1694,0.3979,0.39663,0.1926
-25.8,-1.1663,0.39576,0.39449,0.1909
-25.7,-1.1632,0.39364,0.39236,0.1893
-25.6,-1.1601,0.39153,0.39025,0.1877
-25.5,-1.1569,0.38943,0.38815,0.186
-25.4,-1.1538,0.38736,0.38607,0.1844
-25.3,-1.1506,0.38528,0.38398,0.1828
-25.2,-1.1474,0.38321,0.38192,0.1812
-25.1,-1.1442,0.38115,0.37985,0.1795
-25,-1.141,0.37909,0.37779,0.1779
-24.9,-1.1378,0.37705,0.37575,0.1763
-24.8,-1.1346,0.37503,0.37372,0.1747
-24.7,-1.1314,0.37299,0.37168,0.1731
-24.6,-1.1281,0.37097,0.36966,0.1716
-24.5,-1.1249,0.36896,0.36764,0.17
-24.4,-1.1216,0.36694,0.36562,0.1684
-24.3,-1.1183,0.36494,0.36362,0.1668
-24.2,-1.115,0.36293,0.36161,0.1653
-24.1,-1.1117,0.36093,0.3596,0.1637
-24,-1.1084,0.35895,0.35762,0.1622
-23.9,-1.1051,0.35696,0.35562,0.1606
-23.8,-1.1018,0.35496,0.35362,0.1591
-23.7,-1.0984,0.35299,0.35164,0.1575
-23.5,-1.0917,0.34948,0.34813,0.1544
-23.4,-1.0883,0.34748,0.34613,0.1529
-23.3,-1.0849,0.3455,0.34415,0.1514
-23.2,-1.0815,0.34354,0.34219,0.1498
-23.1,-1.0781,0.34156,0.3402,0.1483
-23,-1.0747,0.33961,0.33825,0.1468
-22.9,-1.0712,0.33764,0.33628,0.1454
-22.8,-1.0678,0.33568,0.33432,0.1439
-22.7,-1.0643,0.33372,0.33236,0.1424
-22.6,-1.0608,0.33178,0.33041,0.1409
-22.5,-1.0573,0.32982,0.32844,0.1394
-22.4,-1.0539,0.32787,0.3265,0.138
-22.3,-1.0504,0.32594,0.32457,0.1365
-22.2,-1.0468,0.324,0.32263,0.1351
-22.1,-1.0433,0.32206,0.32068,0.1336
-22,-1.0398,0.32015,0.31877,0.1322
-21.9,-1.0363,0.31821,0.31683,0.1307
-21.8,-1.0327,0.31629,0.3149,0.1293
-21.7,-1.0291,0.31438,0.31299,0.1279
-21.6,-1.0256,0.31247,0.31108,0.1265
-21.5,-1.022,0.31056,0.30917,0.125
-21.4,-1.0184,0.30866,0.30727,0.1236
-21.3,-1.0149,0.30677,0.30538,0.1222
-21.2,-1.0113,0.30487,0.30348,0.1208
-21.1,-1.0077,0.30298,0.30158,0.1195
-21,-1.0041,0.30109,0.29968,0.1181
-20.9,-1.0005,0.29919,0.29777,0.1167
-20.8,-0.9968,0.29734,0.29592,0.1153
-20.7,-0.9932,0.29546,0.29404,0.114
-20.6,-0.9896,0.29359,0.29217,0.1126
-20.5,-0.986,0.29171,0.29029,0.1112
-20.4,-0.9823,0.28987,0.28844,0.1099
-20.3,-0.9787,0.288,0.28658,0.1086
-20.2,-0.975,0.28613,0.28471,0.1072
-20.1,-0.9713,0.2843,0.28287,0.1059
-20,-0.9677,0.28245,0.28102,0.1046
-19.9,-0.964,0.2806,0.27917,0.1033
-19.8,-0.9603,0.27878,0.27735,0.1019
-19.7,-0.9567,0.27693,0.2755,0.1006
-19.6,-0.953,0.27511,0.27367,0.0993
-19.5,-0.9493,0.27327,0.27183,0.098
-19.4,-0.9456,0.27144,0.27001,0.0967
-19.3,-0.9419,0.26962,0.26818,0.0955
-19.2,-0.9382,0.26781,0.26637,0.0942
-19.1,-0.9345,0.26599,0.26455,0.0929
-19,-0.9307,0.26418,0.26274,0.0916
-18.9,-0.927,0.26237,0.26093,0.0904
-18.8,-0.9232,0.26056,0.25911,0.0891
-18.7,-0.9194,0.25874,0.25729,0.0878
-18.6,-0.9156,0.25694,0.25549,0.0866
-18.5,-0.9118,0.25513,0.25368,0.0853
-18.4,-0.908,0.25332,0.25187,0.0841
-18.3,-0.9042,0.25152,0.25007,0.0828
-18.2,-0.9004,0.24972,0.24827,0.0816
-18.1,-0.8965,0.24792,0.24647,0.0803
-18,-0.8927,0.24611,0.24466,0.0791
-17.9,-0.8889,0.24431,0.24285,0.0779
-17.8,-0.885,0.24251,0.24105,0.0766
-17.7,-0.8811,0.24072,0.23925,0.0754
-17.6,-0.8772,0.23891,0.23744,0.0742
-17.5,-0.8733,0.2371,0.23563,0.0729
-17.4,-0.8694,0.23527,0.2338,0.0717
-17.3,-0.8655,0.23344,0.23197,0.0705
-17.2,-0.8615,0.23157,0.2301,0.0692
-17.1,-0.8574,0.22966,0.22819,0.0679
-17,-0.8533,0.22762,0.22615,0.0666
-16.5,-0.8266,0.21742,0.21597,0.0583
-16.4,-0.8258,0.21399,0.21254,0.0581
-16.3,-0.8229,0.21182,0.21037,0.0572
-16.2,-0.8197,0.20984,0.20838,0.0563
-16.1,-0.8163,0.20798,0.20653,0.0553
-16,-0.8128,0.2062,0.20474,0.0543
-15.9,-0.8092,0.20446,0.203,0.0533
-15.8,-0.8056,0.20275,0.20129,0.0523
-15.7,-0.8019,0.20108,0.19962,0.0513
-15.6,-0.7981,0.19943,0.19797,0.0502
-15.5,-0.7944,0.19779,0.19632,0.0492
-15.4,-0.7906,0.19616,0.1947,0.0482
-15.3,-0.7868,0.19455,0.19309,0.0472
-15.2,-0.783,0.19295,0.19149,0.0461
-15.1,-0.7791,0.19137,0.1899,0.0451
-15,-0.7753,0.18979,0.18832,0.0441
-14.9,-0.7714,0.18821,0.18674,0.0431
-14.8,-0.7675,0.18666,0.18519,0.042
-14.7,-0.7636,0.18509,0.18362,0.041
-14.6,-0.7596,0.18353,0.18206,0.04
-14.5,-0.7556,0.18198,0.1805,0.0389
-14.4,-0.7516,0.18043,0.17895,0.0379
-14.3,-0.7476,0.17888,0.1774,0.0369
-14.2,-0.7436,0.17734,0.17585,0.0359
-14.1,-0.7395,0.17581,0.17432,0.0348
-14,-0.7355,0.17427,0.17279,0.0338
-13.9,-0.7314,0.17274,0.17126,0.0328
-13.8,-0.7273,0.17124,0.16975,0.0318
-13.7,-0.7232,0.16972,0.16823,0.0308
-13.6,-0.7191,0.16821,0.16673,0.0298
-13.5,-0.715,0.1667,0.16522,0.0288
-13.4,-0.7109,0.1652,0.16371,0.0278
-13.2,-0.7019,0.16257,0.16109,0.0255
-13.1,-0.6977,0.16104,0.15956,0.0245
-13,-0.6935,0.15952,0.15804,0.0235
-12.9,-0.6893,0.158,0.15651,0.0225
-12.8,-0.685,0.15649,0.155,0.0215
-12.7,-0.6808,0.15498,0.1535,0.0205
-12.6,-0.6765,0.15349,0.152,0.0195
-12.5,-0.6723,0.15198,0.15049,0.0185
-12.4,-0.668,0.15048,0.149,0.0176
-12.3,-0.6637,0.14899,0.14751,0.0166
-12.2,-0.6594,0.14749,0.14601,0.0156
-12.1,-0.655,0.146,0.14452,0.0146
-12,-0.6506,0.1445,0.14303,0.0136
-11.9,-0.6463,0.14301,0.14153,0.0126
-11.8,-0.6419,0.14152,0.14005,0.0116
-11.7,-0.6375,0.14003,0.13856,0.0107
-11.6,-0.6331,0.13854,0.13707,0.0097
-11.5,-0.6287,0.13704,0.13557,0.0087
-11.4,-0.6243,0.13554,0.13407,0.0077
-11.3,-0.6198,0.13403,0.13256,0.0067
-11.2,-0.6154,0.13249,0.13102,0.0057
-11.1,-0.6109,0.13092,0.12944,0.0047
-11,-0.6065,0.12934,0.12787,0.0038
-10.9,-0.602,0.12762,0.12614,0.0027
-10.8,-0.5976,0.12564,0.12417,0.0017
-10.7,-0.5911,0.12188,0.12042,0
-10.3,-0.5743,0.1146,0.11316,-0.0042
-10.2,-0.5717,0.11306,0.11161,-0.0048
-10.1,-0.5685,0.11169,0.11025,-0.0054
-10,-0.5651,0.11042,0.10898,-0.0061
-9.9,-0.5617,0.10922,0.10778,-0.0068
-9.8,-0.5585,0.10808,0.10664,-0.0073
-9.7,-0.5557,0.107,0.10557,-0.0078
-9.6,-0.5537,0.10601,0.10459,-0.008
-9.5,-0.5526,0.10514,0.10372,-0.008
-9.4,-0.5531,0.10442,0.10302,-0.0075
-9.3,-0.5457,0.10298,0.10158,-0.0093
-9.2,-0.5383,0.10156,0.10014,-0.0111
-9.1,-0.5306,0.10013,0.09872,-0.0129
-9,-0.5226,0.09868,0.09726,-0.0148
-8.9,-0.5133,0.09714,0.09571,-0.0171
-8.8,-0.505,0.09569,0.09425,-0.0191
-8.7,-0.4961,0.09421,0.09277,-0.0213
-8.6,-0.4867,0.09271,0.09126,-0.0235
-8.5,-0.4771,0.09119,0.08973,-0.0258
-8.4,-0.4671,0.08966,0.0882,-0.0282
-8.3,-0.4569,0.08812,0.08665,-0.0307
-8.2,-0.4463,0.08655,0.08508,-0.0332
-8.1,-0.4371,0.0851,0.08362,-0.0353
-7.9,-0.4164,0.08226,0.08075,-0.0401
-7.8,-0.4058,0.08068,0.07916,-0.0425
-7.7,-0.3947,0.07908,0.07755,-0.045
-7.6,-0.3832,0.07744,0.0759,-0.0476
-7.5,-0.3726,0.07589,0.07434,-0.05
-7.4,-0.3627,0.07438,0.07282,-0.0521
-7.3,-0.352,0.07281,0.07124,-0.0544
-6.7,-0.1814,0.01666,0.01336,-0.1282
-6.6,-0.1686,0.01545,0.01197,-0.1293
-6.5,-0.1564,0.0146,0.01098,-0.13
-6.4,-0.1444,0.01393,0.01018,-0.1305
-6.3,-0.1328,0.01337,0.00952,-0.1309
-6.2,-0.1213,0.01288,0.00895,-0.1312
-6.1,-0.1097,0.01246,0.00843,-0.1315
-6,-0.0981,0.01209,0.00797,-0.1318
-5.9,-0.0866,0.01174,0.00756,-0.132
-5.8,-0.0752,0.01143,0.00718,-0.1322
-5.7,-0.0636,0.01115,0.00682,-0.1323
-5.6,-0.0521,0.01089,0.0065,-0.1325
-5.5,-0.0407,0.01064,0.00619,-0.1326
-5.4,-0.0292,0.01041,0.00592,-0.1327
-5.3,-0.0178,0.01019,0.00565,-0.1329
-5.2,-0.0063,0.01,0.0054,-0.133
-5.1,0.0051,0.0098,0.00516,-0.1331
-5,0.0166,0.00962,0.00493,-0.1332
-4.9,0.028,0.00944,0.00471,-0.1332
-4.8,0.0393,0.00928,0.00449,-0.1333
-4.7,0.0505,0.00912,0.00428,-0.1333
-4.6,0.0619,0.00897,0.00409,-0.1333
-4.4,0.0841,0.00878,0.00385,-0.1333
-4.3,0.0956,0.00864,0.00367,-0.1333
-4.2,0.107,0.00852,0.0035,-0.1333
-4.1,0.1182,0.0084,0.00335,-0.1334
-4,0.1297,0.0083,0.00322,-0.1334
-3.9,0.1411,0.00821,0.00311,-0.1334
-3.8,0.1526,0.008,0.00285,-0.1335
-3.7,0.1641,0.00783,0.00264,-0.1335
-3.6,0.1754,0.00772,0.0025,-0.1335
-3.5,0.1868,0.00764,0.00239,-0.1336
-3.4,0.1982,0.00755,0.00229,-0.1336
-3.3,0.2097,0.00748,0.0022,-0.1336
-3.2,0.2209,0.00742,0.0021,-0.1336
-3.1,0.2323,0.00736,0.00203,-0.1336
-3,0.2435,0.00728,0.00192,-0.1336
-2.9,0.255,0.00721,0.00185,-0.1336
-2.8,0.2664,0.00716,0.00179,-0.1337
-2.7,0.2777,0.00711,0.00173,-0.1336
-2.6,0.289,0.00707,0.00167,-0.1336
-2.5,0.3002,0.00702,0.0016,-0.1336
-2.4,0.3116,0.00697,0.00154,-0.1336
-2.3,0.323,0.00693,0.0015,-0.1337
-2.2,0.3343,0.00689,0.00145,-0.1337
-2.1,0.3456,0.00686,0.00141,-0.1337
-2,0.3568,0.00683,0.00136,-0.1336
-1.9,0.3682,0.00678,0.00134,-0.1337
-1.8,0.3796,0.00675,0.0013,-0.1337
-1.7,0.3905,0.00675,0.00126,-0.1336
-1.6,0.4016,0.00671,0.00123,-0.1335
-1.5,0.4126,0.0067,0.0012,-0.1335
-1.4,0.4239,0.00669,0.00117,-0.1334
-1.3,0.4349,0.00668,0.00113,-0.1334
-1.2,0.446,0.00667,0.0011,-0.1333
-1.1,0.4573,0.00665,0.00108,-0.1333
-1,0.4681,0.00667,0.00106,-0.1332
-0.9,0.4795,0.00664,0.00105,-0.1332
-0.8,0.4908,0.00663,0.00103,-0.1332
-0.7,0.5015,0.00666,0.00102,-0.1331
-0.6,0.5128,0.00666,0.00101,-0.1331
-0.5,0.5238,0.00667,0.00099,-0.133
-0.4,0.535,0.00666,0.001,-0.133
-0.3,0.5456,0.00671,0.00099,-0.1329
-0.2,0.5567,0.00673,0.00098,-0.1328
0,0.5791,0.00674,0.00098,-0.1328
0.1,0.5894,0.00682,0.00099,-0.1326
0.2,0.6005,0.00683,0.001,-0.1326
0.3,0.6115,0.00686,0.00101,-0.1325
0.4,0.6223,0.00692,0.00102,-0.1324
0.5,0.6332,0.00695,0.00102,-0.1323
0.6,0.6428,0.00713,0.00106,-0.132
0.7,0.6535,0.0072,0.00108,-0.1319
0.8,0.6639,0.00731,0.00112,-0.1318
0.9,0.6736,0.0075,0.00118,-0.1315
1,0.6842,0.00757,0.00121,-0.1314
1.1,0.6949,0.00766,0.00125,-0.1313
1.2,0.7051,0.00779,0.0013,-0.1312
1.3,0.7153,0.00793,0.00136,-0.131
1.4,0.7258,0.00804,0.00142,-0.1309
1.5,0.7347,0.00835,0.00153,-0.1306
1.6,0.745,0.00848,0.00159,-0.1304
1.7,0.7553,0.00862,0.00165,-0.1303
1.8,0.7655,0.00877,0.00172,-0.1302
1.9,0.7741,0.00915,0.00186,-0.1298
2,0.7841,0.00934,0.00194,-0.1297
2.1,0.7943,0.00949,0.00201,-0.1295
2.2,0.8047,0.0096,0.00209,-0.1295
2.3,0.8152,0.0097,0.00215,-0.1294
2.4,0.8253,0.00986,0.00224,-0.1292
2.5,0.836,0.00993,0.0023,-0.1292
2.6,0.8467,0.00999,0.00235,-0.1291
2.7,0.8574,0.01006,0.00241,-0.129
2.8,0.8682,0.01009,0.00249,-0.129
3,0.8845,0.00896,0.00275,-0.1282
3.1,0.8951,0.00904,0.00282,-0.1281
3.2,0.9058,0.00912,0.00287,-0.128
3.3,0.9164,0.00922,0.00293,-0.1279
3.4,0.9267,0.00936,0.003,-0.1278
3.5,0.9373,0.00944,0.00307,-0.1277
3.6,0.948,0.00953,0.00313,-0.1276
3.7,0.9585,0.00963,0.0032,-0.1275
3.8,0.9691,0.00971,0.00327,-0.1274
3.9,0.9792,0.00986,0.00336,-0.1273
4,0.9898,0.00995,0.00342,-0.1272
4.1,1.0002,0.01006,0.0035,-0.1271
4.2,1.0107,0.01016,0.00358,-0.127
4.3,1.0212,0.01025,0.00368,-0.1268
4.4,1.0312,0.01041,0.00378,-0.1267
4.5,1.0416,0.01051,0.00386,-0.1266
4.6,1.0519,0.01064,0.00396,-0.1264
4.7,1.0623,0.01073,0.00404,-0.1263
4.8,1.0727,0.01084,0.00413,-0.1262
4.9,1.0826,0.01101,0.00425,-0.126
5,1.0929,0.01112,0.00434,-0.1258
5.1,1.103,0.01126,0.00444,-0.1257
5.2,1.1133,0.01136,0.00455,-0.1255
5.3,1.1235,0.01147,0.00465,-0.1254
5.4,1.1337,0.0116,0.00476,-0.1252
5.5,1.1438,0.01174,0.00488,-0.1251
5.6,1.154,0.01184,0.00501,-0.1249
5.7,1.1642,0.01196,0.00511,-0.1248
5.8,1.1742,0.01209,0.00523,-0.1246
5.9,1.1842,0.01224,0.00536,-0.1244
6,1.1943,0.01235,0.00549,-0.1242
6.1,1.2043,0.01249,0.00561,-0.1241
6.2,1.2143,0.01262,0.00573,-0.1239
6.3,1.2242,0.01277,0.00587,-0.1237
6.4,1.2339,0.01292,0.00602,-0.1235
6.5,1.244,0.01305,0.00615,-0.1233
6.6,1.2536,0.01322,0.00629,-0.1231
6.7,1.2633,0.01338,0.00643,-0.1228
6.8,1.2731,0.01352,0.00659,-0.1226
6.9,1.283,0.01365,0.00675,-0.1224
7,1.2929,0.01379,0.00689,-0.1222
7.1,1.3027,0.01393,0.00704,-0.122
7.2,1.3123,0.01408,0.00719,-0.1218
7.3,1.3219,0.01425,0.00735,-0.1216
7.4,1.3314,0.01442,0.00753,-0.1213
7.5,1.3411,0.01457,0.00769,-0.1211
7.6,1.3507,0.01471,0.00785,-0.1208
7.7,1.3603,0.01487,0.00802,-0.1206
7.8,1.3698,0.01503,0.00819,-0.1204
7.9,1.3792,0.01521,0.00837,-0.1201
8,1.3885,0.0154,0.00856,-0.1198
8.1,1.3977,0.01559,0.00876,-0.1195
8.2,1.4071,0.01575,0.00894,-0.1192
8.3,1.4165,0.01591,0.00914,-0.119
8.4,1.4258,0.01609,0.00934,-0.1187
8.5,1.4349,0.01627,0.00954,-0.1184
8.6,1.444,0.01647,0.00974,-0.1181
8.7,1.453,0.01668,0.00997,-0.1177
8.8,1.4618,0.01689,0.01018,-0.1174
8.9,1.4708,0.01709,0.0104,-0.1171
9,1.4797,0.0173,0.01063,-0.1167
9.1,1.4885,0.01751,0.01087,-0.1164
9.2,1.4972,0.01773,0.01111,-0.116
9.3,1.5059,0.01795,0.01136,-0.1157
9.4,1.5145,0.01819,0.01162,-0.1153
9.5,1.5229,0.01843,0.01189,-0.1149
9.6,1.5312,0.01869,0.01217,-0.1144
9.7,1.5394,0.01897,0.01248,-0.114
9.8,1.5473,0.01928,0.01283,-0.1135
9.9,1.5548,0.01964,0.01325,-0.1129
10,1.5618,0.02006,0.01371,-0.1122
10.1,1.5702,0.02027,0.01395,-0.1118
10.2,1.5783,0.02051,0.01423,-0.1114
10.3,1.5862,0.02077,0.01452,-0.1109
10.4,1.5939,0.02104,0.01483,-0.1104
10.5,1.6016,0.02132,0.01516,-0.1099
10.6,1.609,0.02162,0.01549,-0.1093
10.7,1.6163,0.02192,0.01584,-0.1088
10.8,1.6235,0.02223,0.01619,-0.1082
10.9,1.6305,0.02255,0.01656,-0.1076
11,1.6373,0.02287,0.01693,-0.1069
11.1,1.644,0.02321,0.01731,-0.1063
11.2,1.6505,0.02356,0.0177,-0.1056
11.3,1.6568,0.0239,0.0181,-0.1049
11.4,1.6629,0.02427,0.01851,-0.1042
11.5,1.6688,0.02463,0.01892,-0.1034
11.6,1.6743,0.025,0.01934,-0.1026
11.7,1.6797,0.02538,0.01978,-0.1017
11.8,1.6845,0.02577,0.02022,-0.1008
11.9,1.6892,0.02616,0.02066,-0.0998
12,1.6934,0.02656,0.0211,-0.0988
12.1,1.6966,0.02696,0.02155,-0.0976
12.2,1.6996,0.02737,0.02201,-0.0964
12.3,1.7023,0.02779,0.02249,-0.0951
12.4,1.7048,0.02823,0.02298,-0.0938
12.5,1.7072,0.02869,0.0235,-0.0926
12.6,1.7093,0.02916,0.02402,-0.0913
12.7,1.7113,0.02966,0.02457,-0.09
12.8,1.7128,0.03019,0.02515,-0.0888
12.9,1.7146,0.03071,0.02573,-0.0875
13,1.7156,0.03128,0.02636,-0.0863
13.1,1.7166,0.03186,0.027,-0.085
13.2,1.7173,0.03246,0.02766,-0.0838
13.3,1.7177,0.03311,0.02837,-0.0826
13.4,1.7177,0.03378,0.02911,-0.0813
13.5,1.7174,0.03448,0.02986,-0.0801
13.6,1.717,0.0352,0.03065,-0.0789
13.7,1.7159,0.036,0.03151,-0.0778
13.8,1.7147,0.03681,0.03239,-0.0766
13.9,1.7131,0.03766,0.0333,-0.0755
14,1.7106,0.0386,0.03431,-0.0744
14.1,1.7082,0.03956,0.03534,-0.0734
14.2,1.7056,0.04055,0.0364,-0.0725
14.3,1.7025,0.04162,0.03754,-0.0716
14.4,1.6989,0.04277,0.03876,-0.0708
14.5,1.6951,0.04395,0.04002,-0.0701
14.6,1.6904,0.04525,0.0414,-0.0694
14.7,1.6858,0.0466,0.04281,-0.069
14.8,1.6814,0.04796,0.04425,-0.0686
14.9,1.6757,0.04952,0.04589,-0.0684
15,1.6696,0.05119,0.04764,-0.0684
15.1,1.6643,0.05284,0.04936,-0.0686
15.2,1.6578,0.05468,0.05128,-0.0689
15.3,1.6514,0.05658,0.05327,-0.0695
15.4,1.6442,0.0587,0.05547,-0.0704
15.5,1.6359,0.0611,0.05796,-0.0717
15.6,1.6301,0.06327,0.06021,-0.0731
15.7,1.6216,0.06603,0.06306,-0.0752
15.8,1.614,0.06886,0.06599,-0.0776
15.9,1.6064,0.07194,0.06916,-0.0804
16,1.5971,0.07578,0.07311,-0.0844
16.1,1.5891,0.07978,0.07722,-0.0887
16.2,1.5796,0.08492,0.08249,-0.0945
16.3,1.5681,0.09203,0.08976,-0.1025
16.5,1.514,0.12109,0.11934,-0.1295
16.6,1.485,0.13413,0.13254,-0.1405
16.7,1.4638,0.14438,0.1429,-0.1491
16.8,1.4484,0.15257,0.15117,-0.1561
16.9,1.435,0.16019,0.15887,-0.1627
17,1.4258,0.16629,0.16502,-0.1682
17.1,1.4165,0.17281,0.17159,-0.1739
17.2,1.4073,0.18005,0.17889,-0.1798
17.4,1.3935,0.19479,0.19374,-0.1904
17.6,1.3749,0.22114,0.22016,-0.2036
17.7,1.3774,0.22328,0.22231,-0.2053
17.8,1.3799,0.22554,0.22457,-0.207
17.9,1.3826,0.22756,0.22659,-0.2086
18,1.3854,0.22938,0.22841,-0.2102
18.1,1.3881,0.23136,0.2304,-0.2118
18.2,1.3909,0.23307,0.23211,-0.2133
18.3,1.3936,0.23479,0.23383,-0.2149
18.4,1.3962,0.23654,0.23558,-0.2165
18.5,1.3982,0.23794,0.23698,-0.2181
18.7,1.403,0.25308,0.25209,-0.2229
18.8,1.4063,0.25617,0.25518,-0.2245
18.9,1.4096,0.25885,0.25785,-0.226
19,1.413,0.26147,0.26048,-0.2276
19.1,1.4163,0.26379,0.2628,-0.2291
19.2,1.4196,0.26609,0.2651,-0.2306
19.3,1.4229,0.26829,0.2673,-0.2321
19.4,1.4262,0.27042,0.26943,-0.2336
19.5,1.4296,0.27258,0.2716,-0.2351
19.6,1.4329,0.27463,0.27365,-0.2365
19.7,1.4362,0.2767,0.27572,-0.238
19.8,1.4395,0.27872,0.27775,-0.2395
19.9,1.4428,0.28076,0.27978,-0.241
20,1.4461,0.28276,0.28178,-0.2425
20.1,1.4494,0.28474,0.28377,-0.244
20.2,1.4527,0.28673,0.28576,-0.2455
20.3,1.456,0.2887,0.28773,-0.2469
20.4,1.4592,0.29065,0.28968,-0.2484
20.5,1.4625,0.2926,0.29164,-0.2499
20.6,1.4657,0.29453,0.29357,-0.2514
20.7,1.469,0.29646,0.2955,-0.2529
20.8,1.4722,0.29838,0.29742,-0.2544
20.9,1.4754,0.30031,0.29935,-0.2559
21,1.4787,0.30222,0.30127,-0.2574
21.1,1.4819,0.30413,0.30318,-0.2589
21.2,1.4851,0.30602,0.30508,-0.2605
21.3,1.4883,0.30793,0.30699,-0.262
21.4,1.4915,0.3098,0.30887,-0.2635
21.5,1.4947,0.31169,0.31075,-0.265
21.6,1.4979,0.31363,0.3127,-0.2666
21.7,1.501,0.31551,0.31458,-0.2681
21.8,1.5042,0.31733,0.31641,-0.2696
21.9,1.5074,0.31927,0.31835,-0.2712
22,1.5105,0.32113,0.32022,-0.2727
22.3,1.5199,0.32635,0.32545,-0.2775
22.4,1.523,0.32814,0.32725,-0.2791
22.5,1.5261,0.33005,0.32915,-0.2806
22.6,1.5291,0.33186,0.33097,-0.2822
22.7,1.5322,0.33371,0.33283,-0.2838
22.8,1.5353,0.33552,0.33464,-0.2854
22.9,1.5383,0.33731,0.33643,-0.287
23,1.5414,0.33917,0.33829,-0.2886
23.1,1.5444,0.34094,0.34007,-0.2902
23.2,1.5474,0.34276,0.3419,-0.2918
23.3,1.5503,0.34456,0.3437,-0.2934
23.4,1.5534,0.34641,0.34555,-0.295
23.5,1.5563,0.34822,0.34737,-0.2966
23.6,1.5593,0.35003,0.34917,-0.2982
23.7,1.5622,0.35183,0.35098,-0.2998
23.8,1.5651,0.35361,0.35277,-0.3015
23.9,1.5681,0.35544,0.3546,-0.3031
24,1.5709,0.35724,0.35641,-0.3047
24.1,1.5738,0.35906,0.35823,-0.3064
24.2,1.5767,0.36084,0.36001,-0.308
24.3,1.5795,0.36263,0.36181,-0.3097
24.4,1.5824,0.36442,0.3636,-0.3113
24.5,1.5852,0.36623,0.36541,-0.313
24.6,1.588,0.36803,0.36721,-0.3146
24.7,1.5908,0.36987,0.36906,-0.3163
24.8,1.5935,0.37168,0.37088,-0.318
24.9,1.5963,0.37354,0.37274,-0.3196
25,1.599,0.37536,0.37456,-0.3213
25.1,1.6017,0.3772,0.37641,-0.323
25.2,1.6043,0.37907,0.3783,-0.3246
25.3,1.607,0.38099,0.38021,-0.3263
25.4,1.6096,0.38292,0.38215,-0.328
25.5,1.6121,0.38494,0.38417,-0.3296
25.6,1.6145,0.38712,0.38636,-0.3312
25.7,1.617,0.38933,0.38857,-0.3328
25.8,1.6186,0.3926,0.39185,-0.3341
25.9,1.6207,0.39525,0.3945,-0.3355

