airfoilName st21.dat
Re 	590000
M 	0
N 	4.500000e+00
VACC 	0 VACCflag 1
XTR 	1.00 	1.00 XTRflag 0
alpha,cl,cd,cdp,cm
-29.7,-1.2748,0.49671,0.4952,0.2562
-29.6,-1.2725,0.49365,0.49213,0.2545
-29.5,-1.27,0.49067,0.48916,0.2528
-29.4,-1.2676,0.48773,0.48621,0.2511
-29.3,-1.2654,0.48419,0.48266,0.2496
-29.2,-1.2629,0.48133,0.4798,0.2479
-29.1,-1.2605,0.47817,0.47663,0.2463
-29,-1.258,0.47517,0.47362,0.2446
-28.9,-1.2555,0.47222,0.47067,0.2429
-28.8,-1.2529,0.46942,0.46787,0.2412
-28.7,-1.2504,0.46634,0.46479,0.2396
-28.6,-1.2478,0.46356,0.462,0.2379
-28.5,-1.2452,0.46078,0.45921,0.2362
-28.4,-1.2426,0.4581,0.45653,0.2345
-28.3,-1.2399,0.45551,0.45394,0.2328
-28.2,-1.2372,0.45296,0.45138,0.2311
-28.1,-1.2345,0.4504,0.44882,0.2294
-28,-1.2317,0.44788,0.4463,0.2277
-27.9,-1.229,0.44544,0.44385,0.226
-27.8,-1.2262,0.44308,0.44149,0.2243
-27.7,-1.2234,0.44074,0.43914,0.2225
-27.6,-1.2205,0.43842,0.43682,0.2208
-27.5,-1.2176,0.43613,0.43452,0.2191
-27.4,-1.2148,0.43386,0.43225,0.2174
-27.3,-1.2119,0.43162,0.43001,0.2156
-27.2,-1.2089,0.4294,0.42779,0.2139
-27.1,-1.206,0.42721,0.42559,0.2122
-27,-1.203,0.42502,0.4234,0.2105
-26.9,-1.2,0.42286,0.42123,0.2088
-26.8,-1.197,0.42072,0.41909,0.207
-26.7,-1.194,0.41857,0.41694,0.2053
-26.6,-1.1909,0.41644,0.4148,0.2036
-26.5,-1.1879,0.41433,0.41268,0.2019
-26.4,-1.1848,0.41222,0.41057,0.2002
-26.3,-1.1817,0.41014,0.40848,0.1985
-26.2,-1.1786,0.40804,0.40638,0.1968
-26.1,-1.1755,0.40596,0.4043,0.1951
-26,-1.1723,0.40388,0.40221,0.1935
-25.9,-1.1692,0.40181,0.40014,0.1918
-25.8,-1.166,0.39974,0.39806,0.1901
-25.7,-1.1628,0.39767,0.396,0.1884
-25.6,-1.1597,0.39562,0.39394,0.1868
-25.5,-1.1565,0.39357,0.39189,0.1851
-25.4,-1.1532,0.39153,0.38985,0.1835
-25.3,-1.15,0.38949,0.3878,0.1818
-25.2,-1.1468,0.38746,0.38576,0.1802
-25.1,-1.1435,0.38542,0.38372,0.1785
-25,-1.1403,0.38337,0.38167,0.1769
-24.9,-1.137,0.38136,0.37965,0.1753
-24.8,-1.1337,0.37934,0.37764,0.1737
-24.7,-1.1304,0.3773,0.3756,0.1721
-24.6,-1.1271,0.3753,0.37359,0.1705
-24.5,-1.1238,0.37329,0.37157,0.1689
-24.4,-1.1205,0.37126,0.36955,0.1673
-24.3,-1.1172,0.36926,0.36754,0.1657
-24.2,-1.1138,0.36725,0.36552,0.1641
-24.1,-1.1105,0.36524,0.36351,0.1625
-24,-1.1071,0.36324,0.36151,0.161
-23.9,-1.1037,0.36124,0.3595,0.1594
-23.8,-1.1001,0.35979,0.35804,0.1577
-23.7,-1.0967,0.35777,0.35602,0.1561
-23.6,-1.0933,0.35576,0.354,0.1546
-23.5,-1.0899,0.35375,0.352,0.153
-23.4,-1.0865,0.35173,0.34998,0.1515
-23.3,-1.0831,0.34972,0.34796,0.15
-23.2,-1.0796,0.34773,0.34597,0.1485
-23.1,-1.0761,0.34572,0.34395,0.1469
-23,-1.0727,0.34373,0.34196,0.1454
-22.9,-1.0692,0.34173,0.33996,0.1439
-22.8,-1.0657,0.33974,0.33796,0.1424
-22.7,-1.0622,0.33774,0.33597,0.1409
-22.6,-1.0586,0.33577,0.33399,0.1394
-22.5,-1.0551,0.33377,0.33199,0.138
-22.4,-1.0516,0.33179,0.33001,0.1365
-22.3,-1.048,0.32982,0.32804,0.135
-22.2,-1.0445,0.32785,0.32606,0.1336
-22.1,-1.0409,0.32587,0.32408,0.1321
-22,-1.0373,0.32392,0.32213,0.1306
-21.9,-1.0337,0.32195,0.32016,0.1292
-21.8,-1.0302,0.31999,0.31819,0.1278
-21.7,-1.0265,0.31804,0.31624,0.1263
-21.6,-1.0229,0.31609,0.31429,0.1249
-21.5,-1.0193,0.31414,0.31234,0.1235
-21.4,-1.0157,0.3122,0.3104,0.122
-21.3,-1.0121,0.31027,0.30846,0.1206
-21.2,-1.0084,0.30833,0.30652,0.1192
-21.1,-1.0048,0.30639,0.30458,0.1178
-21,-1.0011,0.30447,0.30264,0.1164
-20.9,-0.9975,0.30253,0.3007,0.1151
-20.8,-0.9938,0.30063,0.2988,0.1136
-20.7,-0.9901,0.29871,0.29687,0.1123
-20.6,-0.9864,0.29679,0.29495,0.1109
-20.5,-0.9828,0.29487,0.29303,0.1095
-20.4,-0.979,0.29297,0.29113,0.1081
-20.3,-0.9753,0.29107,0.28922,0.1068
-20.2,-0.9716,0.28915,0.28731,0.1054
-20.1,-0.9679,0.28726,0.28542,0.1041
-20,-0.9642,0.28537,0.28352,0.1027
-19.9,-0.9604,0.28347,0.28162,0.1014
-19.8,-0.9566,0.28158,0.27974,0.1
-19.7,-0.9529,0.27969,0.27784,0.0987
-19.6,-0.9491,0.2778,0.27595,0.0974
-19.5,-0.9454,0.2759,0.27405,0.0961
-19.4,-0.9416,0.27402,0.27216,0.0947
-19.3,-0.9378,0.27212,0.27027,0.0934
-19.2,-0.9339,0.27023,0.26837,0.0921
-19.1,-0.9301,0.26834,0.26648,0.0908
-19,-0.9262,0.26643,0.26457,0.0894
-18.9,-0.9223,0.26452,0.26266,0.0881
-18.8,-0.9184,0.26259,0.26072,0.0868
-18.7,-0.9145,0.26064,0.25878,0.0855
-18.6,-0.9104,0.25867,0.25681,0.0841
-18.5,-0.9064,0.25666,0.2548,0.0828
-18.4,-0.9022,0.25461,0.25275,0.0814
-18,-0.8821,0.2468,0.24494,0.0749
-17.7,-0.8669,0.24175,0.23991,0.0701
-17.6,-0.8642,0.2394,0.23755,0.0693
-17.5,-0.8617,0.2369,0.23504,0.0685
-17.4,-0.8594,0.23431,0.23246,0.0678
-17.3,-0.8568,0.23197,0.23011,0.067
-17.2,-0.8538,0.22983,0.22797,0.0661
-17.1,-0.8507,0.22784,0.22597,0.0652
-17,-0.8474,0.22595,0.22409,0.0642
-16.9,-0.844,0.22413,0.22226,0.0632
-16.8,-0.8405,0.22235,0.22048,0.0621
-16.7,-0.837,0.22062,0.21874,0.0611
-16.6,-0.8334,0.2189,0.21703,0.06
-16.5,-0.8297,0.21721,0.21533,0.0589
-16.4,-0.826,0.21554,0.21366,0.0579
-16.3,-0.8223,0.21387,0.21199,0.0568
-16.2,-0.8185,0.21222,0.21034,0.0557
-16.1,-0.8147,0.21058,0.2087,0.0546
-16,-0.8109,0.20894,0.20706,0.0536
-15.9,-0.8071,0.20731,0.20542,0.0525
-15.8,-0.8032,0.20567,0.20379,0.0514
-15.7,-0.7994,0.20405,0.20217,0.0504
-15.6,-0.7955,0.20244,0.20056,0.0493
-15.5,-0.7916,0.20083,0.19894,0.0482
-15.4,-0.7877,0.19922,0.19733,0.0472
-15.3,-0.7838,0.19761,0.19572,0.0461
-15.2,-0.7799,0.196,0.19411,0.045
-15.1,-0.776,0.19441,0.19251,0.044
-15,-0.772,0.1928,0.19091,0.0429
-14.9,-0.7681,0.1912,0.18931,0.0419
-14.8,-0.7641,0.18961,0.18772,0.0408
-14.7,-0.7601,0.18801,0.18612,0.0398
-14.6,-0.7561,0.18641,0.18452,0.0387
-14.5,-0.752,0.18482,0.18292,0.0377
-14.4,-0.748,0.18323,0.18132,0.0367
-14.3,-0.7439,0.18163,0.17972,0.0356
-14.2,-0.7399,0.18004,0.17813,0.0346
-14.1,-0.7358,0.17846,0.17655,0.0335
-14,-0.7317,0.17687,0.17496,0.0325
-13.9,-0.7276,0.17528,0.17337,0.0315
-13.7,-0.7186,0.1724,0.17049,0.029
-13.6,-0.7145,0.1708,0.16889,0.028
-13.5,-0.7104,0.1692,0.16729,0.027
-13.4,-0.7063,0.16759,0.16569,0.026
-13.3,-0.7021,0.16599,0.16408,0.025
-13.2,-0.698,0.16439,0.16248,0.024
-13.1,-0.6938,0.16279,0.16088,0.023
-13,-0.6896,0.16118,0.15928,0.022
-12.9,-0.6854,0.15958,0.15768,0.0211
-12.8,-0.6812,0.15799,0.15608,0.0201
-12.7,-0.6769,0.15638,0.15448,0.0191
-12.6,-0.6727,0.15477,0.15287,0.0181
-12.5,-0.6685,0.15316,0.15125,0.0171
-12.4,-0.6642,0.15154,0.14964,0.0161
-12.3,-0.66,0.1499,0.148,0.0152
-12.2,-0.6557,0.14827,0.14637,0.0142
-12.1,-0.6514,0.14657,0.14467,0.0132
-12,-0.647,0.14483,0.14293,0.0122
-11.9,-0.6426,0.14307,0.14117,0.0112
-11.8,-0.6381,0.14109,0.1392,0.0102
-11.7,-0.6332,0.13894,0.13705,0.0091
-11.6,-0.6278,0.13678,0.13489,0.0078
-11.5,-0.6214,0.13482,0.13293,0.0063
-11.4,-0.6149,0.13315,0.13127,0.0048
-11.2,-0.6054,0.12968,0.12783,0.0025
-11.1,-0.6036,0.12777,0.12591,0.0021
-11,-0.6012,0.12605,0.1242,0.0016
-10.9,-0.5983,0.12448,0.12263,0.0009
-10.8,-0.5949,0.12306,0.12121,0.0002
-10.7,-0.5912,0.1217,0.11984,-0.0006
-10.6,-0.5875,0.1204,0.11854,-0.0014
-10.5,-0.5836,0.11913,0.11727,-0.0021
-10.4,-0.5796,0.11791,0.11605,-0.0029
-10.3,-0.5757,0.11669,0.11484,-0.0037
-10.2,-0.5717,0.11551,0.11366,-0.0045
-10.1,-0.5678,0.11435,0.1125,-0.0052
-10,-0.564,0.11318,0.11133,-0.006
-9.9,-0.5603,0.11205,0.11021,-0.0066
-9.8,-0.5568,0.11094,0.10911,-0.0073
-9.7,-0.5536,0.10988,0.10804,-0.0078
-9.6,-0.5509,0.10885,0.10702,-0.0082
-9.5,-0.549,0.1079,0.10608,-0.0084
-9.4,-0.5478,0.10704,0.10523,-0.0084
-9.3,-0.548,0.10629,0.1045,-0.008
-9.2,-0.55,0.10573,0.10395,-0.0071
-9,-0.5395,0.10324,0.10146,-0.0095
-8.9,-0.5315,0.10174,0.09996,-0.0114
-8.8,-0.5228,0.10019,0.0984,-0.0135
-8.7,-0.5133,0.09857,0.09678,-0.0159
-8.6,-0.5033,0.09692,0.09511,-0.0183
-8.5,-0.4942,0.09535,0.09354,-0.0205
-8.4,-0.4842,0.09371,0.09189,-0.0229
-6.2,-0.1311,0.0184,0.0148,-0.1273
-6.1,-0.1171,0.01667,0.01282,-0.1289
-6,-0.1044,0.01577,0.01176,-0.1297
-5.9,-0.092,0.01507,0.01092,-0.1303
-5.8,-0.0797,0.01448,0.01021,-0.1309
-5.7,-0.0673,0.01396,0.00957,-0.1314
-5.6,-0.055,0.0135,0.00901,-0.1318
-5.5,-0.0428,0.01308,0.0085,-0.1322
-5.4,-0.0307,0.0127,0.00803,-0.1325
-5.3,-0.0195,0.01236,0.00761,-0.1327
-5.2,-0.0081,0.01205,0.00723,-0.1328
-5.1,0.0035,0.01176,0.00686,-0.133
-5,0.0152,0.01148,0.00651,-0.1332
-4.8,0.0381,0.01128,0.0062,-0.1334
-4.7,0.0499,0.01107,0.00593,-0.1335
-4.6,0.0616,0.0109,0.00571,-0.1337
-4.5,0.0733,0.01078,0.00553,-0.1338
-4.4,0.0852,0.01019,0.00487,-0.1341
-4.3,0.0967,0.0099,0.00453,-0.1342
-4.2,0.1081,0.0097,0.00429,-0.1342
-4.1,0.1194,0.00953,0.00409,-0.1342
-4,0.1309,0.00938,0.00391,-0.1343
-3.9,0.1424,0.00924,0.00373,-0.1343
-3.8,0.1538,0.00911,0.00357,-0.1344
-3.7,0.1652,0.00899,0.00341,-0.1344
-3.6,0.1765,0.00887,0.00324,-0.1344
-3.5,0.1879,0.00877,0.0031,-0.1344
-3.4,0.1994,0.00863,0.00294,-0.1345
-3.3,0.2109,0.00849,0.00278,-0.1345
-3.2,0.2222,0.0084,0.00266,-0.1345
-3.1,0.2335,0.00831,0.00256,-0.1345
-3,0.2449,0.00824,0.00247,-0.1345
-2.9,0.2561,0.00817,0.00238,-0.1345
-2.8,0.2675,0.00811,0.00229,-0.1345
-2.7,0.2788,0.00802,0.00219,-0.1345
-2.6,0.2901,0.00796,0.00212,-0.1345
-2.5,0.3014,0.0079,0.00206,-0.1345
-2.4,0.3127,0.00785,0.00199,-0.1344
-2.3,0.324,0.0078,0.00192,-0.1345
-2.2,0.3352,0.00774,0.00186,-0.1344
-2.1,0.3465,0.0077,0.00183,-0.1344
-2,0.3578,0.00765,0.0018,-0.1344
-1.9,0.369,0.0076,0.00175,-0.1344
-1.8,0.3803,0.00756,0.00171,-0.1344
-1.7,0.3915,0.00753,0.00166,-0.1344
-1.6,0.4028,0.0075,0.00161,-0.1344
-1.5,0.414,0.00746,0.00157,-0.1343
-1.4,0.4253,0.00742,0.00154,-0.1344
-1.3,0.4362,0.0074,0.0015,-0.1342
-1.2,0.4471,0.00738,0.00145,-0.1341
-1.1,0.4582,0.00735,0.00142,-0.134
-1,0.4695,0.00733,0.00139,-0.134
-0.9,0.4803,0.00732,0.00136,-0.1339
-0.8,0.4914,0.00731,0.00133,-0.1338
-0.7,0.5026,0.00729,0.00132,-0.1338
-0.6,0.5137,0.00728,0.0013,-0.1337
-0.5,0.5247,0.00728,0.00128,-0.1336
-0.4,0.5357,0.00727,0.00127,-0.1335
-0.3,0.5469,0.00727,0.00126,-0.1335
-0.2,0.5577,0.00728,0.00125,-0.1334
0,0.5797,0.00729,0.00123,-0.1332
0.1,0.5908,0.0073,0.00123,-0.1332
0.2,0.6017,0.00731,0.00122,-0.1331
0.3,0.6129,0.00731,0.00122,-0.133
0.4,0.6235,0.00735,0.00122,-0.1329
0.5,0.6343,0.00738,0.00123,-0.1327
0.6,0.6454,0.00739,0.00124,-0.1327
0.7,0.6563,0.00742,0.00125,-0.1326
0.8,0.6671,0.00746,0.00125,-0.1325
0.9,0.677,0.00756,0.00127,-0.1322
1,0.6878,0.00761,0.00129,-0.1321
1.1,0.6986,0.00765,0.00131,-0.132
1.2,0.7088,0.00773,0.00134,-0.1318
1.3,0.7182,0.00792,0.00138,-0.1314
1.4,0.7286,0.00801,0.00143,-0.1312
1.5,0.7381,0.00819,0.00149,-0.1309
1.6,0.748,0.00835,0.00155,-0.1307
1.7,0.7583,0.00845,0.0016,-0.1305
1.8,0.7672,0.00872,0.00171,-0.1301
1.9,0.7773,0.00884,0.00177,-0.13
2,0.7874,0.00898,0.00184,-0.1298
2.1,0.7974,0.00913,0.00191,-0.1296
2.2,0.8073,0.0093,0.00199,-0.1294
2.3,0.8154,0.00969,0.00215,-0.129
2.4,0.8251,0.00989,0.00225,-0.1288
2.5,0.8348,0.01005,0.00237,-0.1287
2.6,0.839,0.0089,0.00254,-0.1275
2.7,0.8489,0.00909,0.00264,-0.1274
2.8,0.8585,0.00934,0.00275,-0.1271
2.9,0.8689,0.00946,0.00285,-0.127
3,0.8793,0.00958,0.00293,-0.1269
3.1,0.8899,0.00969,0.003,-0.1268
3.3,0.9103,0.00997,0.00317,-0.1265
3.4,0.9209,0.01006,0.00324,-0.1264
3.5,0.9313,0.01017,0.00331,-0.1263
3.6,0.9419,0.01027,0.00339,-0.1262
3.7,0.9519,0.01043,0.00348,-0.126
3.8,0.9624,0.01053,0.00355,-0.1259
3.9,0.9728,0.01064,0.00364,-0.1258
4,0.9832,0.01074,0.00372,-0.1256
4.1,0.9936,0.01086,0.0038,-0.1255
4.2,1.0036,0.01101,0.0039,-0.1254
4.3,1.0139,0.01113,0.00403,-0.1252
4.4,1.0242,0.01124,0.00411,-0.1251
4.5,1.0344,0.01136,0.00421,-0.1249
4.6,1.0447,0.01148,0.00431,-0.1248
4.8,1.0648,0.01177,0.00452,-0.1244
4.9,1.0749,0.0119,0.00462,-0.1243
5,1.085,0.01203,0.00475,-0.1241
5.1,1.0952,0.01215,0.00485,-0.124
5.2,1.1052,0.01229,0.00496,-0.1238
5.3,1.1152,0.01243,0.00509,-0.1236
5.4,1.1249,0.0126,0.00521,-0.1234
5.5,1.1349,0.01275,0.00535,-0.1232
5.6,1.145,0.01287,0.00547,-0.123
5.7,1.1549,0.01301,0.00562,-0.1228
5.8,1.1647,0.01318,0.00576,-0.1226
5.9,1.1747,0.01331,0.00591,-0.1224
6,1.1847,0.01344,0.00604,-0.1222
6.1,1.1945,0.01358,0.00618,-0.122
6.2,1.2043,0.01375,0.00633,-0.1218
6.3,1.214,0.01391,0.0065,-0.1216
6.4,1.2239,0.01404,0.00665,-0.1214
6.5,1.2335,0.01421,0.0068,-0.1212
6.6,1.2432,0.01437,0.00696,-0.1209
6.7,1.2528,0.01455,0.00713,-0.1207
6.8,1.2623,0.01472,0.0073,-0.1204
6.9,1.272,0.01487,0.00747,-0.1202
7,1.2816,0.01503,0.00766,-0.1199
7.1,1.2911,0.0152,0.00784,-0.1197
7.2,1.3001,0.01543,0.00803,-0.1194
7.3,1.3097,0.01559,0.00821,-0.1191
7.4,1.3192,0.01575,0.00839,-0.1189
7.5,1.3286,0.01592,0.00857,-0.1186
7.6,1.3379,0.01611,0.00876,-0.1183
7.7,1.3471,0.01631,0.00897,-0.118
7.8,1.3561,0.01654,0.00921,-0.1177
7.9,1.3655,0.01671,0.0094,-0.1174
8,1.3747,0.01689,0.00961,-0.1171
8.1,1.3839,0.01708,0.00982,-0.1168
8.2,1.3929,0.01727,0.01003,-0.1165
8.3,1.4019,0.01748,0.01026,-0.1162
8.4,1.4107,0.01771,0.01052,-0.1158
8.5,1.4193,0.01797,0.01079,-0.1154
8.6,1.4282,0.01819,0.01104,-0.1151
8.7,1.437,0.0184,0.01128,-0.1147
8.8,1.4458,0.01862,0.01154,-0.1143
8.9,1.4544,0.01885,0.01181,-0.1139
9,1.4629,0.01909,0.01208,-0.1135
9.1,1.4714,0.01934,0.01236,-0.1131
9.2,1.4796,0.01961,0.01265,-0.1127
9.3,1.4877,0.01989,0.01296,-0.1122
9.4,1.4955,0.02022,0.01332,-0.1117
9.5,1.5027,0.02063,0.01377,-0.1111
9.7,1.52,0.02097,0.01415,-0.1104
9.8,1.5278,0.02126,0.01449,-0.1099
9.9,1.5354,0.02156,0.01483,-0.1094
10,1.543,0.02187,0.0152,-0.1089
10.1,1.5504,0.02218,0.01556,-0.1083
10.2,1.5577,0.02251,0.01592,-0.1077
10.3,1.5648,0.02284,0.0163,-0.1072
10.4,1.5718,0.02319,0.01669,-0.1065
10.5,1.5785,0.02355,0.0171,-0.1059
10.6,1.5849,0.02394,0.01753,-0.1052
10.7,1.591,0.02436,0.018,-0.1045
10.8,1.5966,0.02482,0.01851,-0.1036
10.9,1.6015,0.02534,0.0191,-0.1027
11,1.6055,0.02594,0.01976,-0.1017
11.1,1.6079,0.02666,0.02056,-0.1004
11.2,1.6124,0.02711,0.02105,-0.0994
11.3,1.618,0.02743,0.02142,-0.0986
11.4,1.623,0.02779,0.02184,-0.0977
11.5,1.6271,0.02816,0.02226,-0.0967
11.6,1.6305,0.02856,0.02272,-0.0955
11.7,1.6336,0.02898,0.02321,-0.0943
11.8,1.6363,0.02944,0.02373,-0.0931
11.9,1.6391,0.0299,0.02425,-0.0919
12,1.6415,0.03039,0.0248,-0.0907
12.1,1.6435,0.03091,0.0254,-0.0894
12.2,1.6453,0.03144,0.026,-0.0882
12.3,1.647,0.032,0.02662,-0.087
12.4,1.6483,0.03257,0.02727,-0.0857
12.5,1.6493,0.03319,0.02795,-0.0845
12.6,1.6502,0.0338,0.02863,-0.0833
12.7,1.6508,0.03446,0.02937,-0.0821
12.8,1.6508,0.03516,0.03013,-0.0809
12.9,1.651,0.03585,0.03089,-0.0798
13,1.6505,0.03661,0.03172,-0.0786
13.1,1.65,0.03737,0.03256,-0.0775
13.2,1.6494,0.03817,0.03343,-0.0764
13.3,1.6482,0.03902,0.03435,-0.0754
13.4,1.6466,0.03991,0.03532,-0.0744
13.5,1.6447,0.04085,0.03633,-0.0734
13.6,1.643,0.04179,0.03735,-0.0725
13.7,1.6404,0.04284,0.03847,-0.0717
13.8,1.6379,0.0439,0.03961,-0.071
13.9,1.6352,0.045,0.04078,-0.0703
14,1.632,0.04617,0.04203,-0.0697
14.1,1.6285,0.04741,0.04334,-0.0692
14.2,1.6247,0.04872,0.04473,-0.0689
14.3,1.6208,0.0501,0.04619,-0.0686
14.4,1.6161,0.05161,0.04778,-0.0686
14.5,1.6118,0.05312,0.04937,-0.0686
14.6,1.6067,0.05479,0.05112,-0.0689
14.7,1.6016,0.05651,0.05292,-0.0693
14.8,1.596,0.05837,0.05486,-0.07
14.9,1.5898,0.06042,0.057,-0.0709
15,1.5838,0.06255,0.05922,-0.0721
15.1,1.5771,0.06491,0.06167,-0.0737
15.2,1.5703,0.06746,0.06431,-0.0756
15.3,1.5631,0.07028,0.06723,-0.0781
15.4,1.5554,0.07347,0.07052,-0.0811
15.5,1.5476,0.07704,0.0742,-0.0848
15.6,1.5386,0.08137,0.07865,-0.0896
15.7,1.529,0.08672,0.08415,-0.0957
15.9,1.4979,0.10657,0.10443,-0.1169
16,1.4763,0.11843,0.11647,-0.1277
16.1,1.4586,0.12787,0.12602,-0.136
16.2,1.4442,0.13601,0.13425,-0.1429
16.3,1.4321,0.14324,0.14155,-0.149
16.5,1.4129,0.15583,0.15424,-0.1597
16.6,1.4035,0.16243,0.1609,-0.1652
16.8,1.3879,0.17524,0.17381,-0.1755

