airfoilName st22.dat
Re 	550000
M 	0
N 	4.500000e+00
VACC 	0 VACCflag 1
XTR 	1.00 	1.00 XTRflag 0
alpha,cl,cd,cdp,cm
-17.3,-0.8249,0.23802,0.23607,0.0641
-17.2,-0.8222,0.23573,0.23378,0.0633
-17.1,-0.8195,0.23341,0.23145,0.0625
-17,-0.8171,0.23094,0.22899,0.0619
-16.9,-0.8146,0.22856,0.2266,0.0612
-16.8,-0.8118,0.2264,0.22444,0.0604
-16.7,-0.8088,0.22439,0.22243,0.0595
-16.6,-0.8056,0.22248,0.22052,0.0586
-16.5,-0.8024,0.22066,0.21869,0.0576
-16.4,-0.799,0.21888,0.21691,0.0566
-16.3,-0.7955,0.21714,0.21517,0.0556
-16.2,-0.7921,0.21544,0.21347,0.0546
-16.1,-0.7885,0.21375,0.21178,0.0536
-16,-0.7849,0.21206,0.21009,0.0526
-15.9,-0.7813,0.21042,0.20844,0.0516
-15.8,-0.7777,0.20875,0.20677,0.0506
-15.7,-0.774,0.20711,0.20514,0.0495
-15.6,-0.7703,0.20547,0.2035,0.0485
-15.5,-0.7666,0.20384,0.20186,0.0475
-15.4,-0.7629,0.20221,0.20023,0.0465
-15.3,-0.7592,0.20058,0.1986,0.0454
-15.2,-0.7554,0.19895,0.19697,0.0444
-15.1,-0.7517,0.19734,0.19536,0.0434
-15,-0.7479,0.19571,0.19372,0.0424
-14.9,-0.7441,0.1941,0.1921,0.0414
-14.8,-0.7404,0.1925,0.1905,0.0404
-14.7,-0.7366,0.19088,0.18888,0.0394
-14.6,-0.7328,0.18926,0.18726,0.0384
-14.5,-0.729,0.18766,0.18566,0.0374
-14.4,-0.7251,0.18605,0.18405,0.0364
-14.3,-0.7213,0.18444,0.18244,0.0354
-14.2,-0.7175,0.18284,0.18084,0.0344
-14.1,-0.7136,0.18123,0.17923,0.0334
-14,-0.7097,0.17963,0.17762,0.0324
-13.9,-0.7058,0.17802,0.17602,0.0314
-13.8,-0.7019,0.17642,0.17442,0.0304
-13.7,-0.698,0.17483,0.17282,0.0294
-13.6,-0.6941,0.17322,0.17122,0.0284
-13.5,-0.6896,0.1719,0.1699,0.027
-13.4,-0.6857,0.17027,0.16827,0.026
-13.3,-0.6818,0.16865,0.16665,0.0251
-13.2,-0.6778,0.16704,0.16504,0.0241
-13.1,-0.6739,0.16542,0.16342,0.0232
-13,-0.67,0.1638,0.16181,0.0223
-12.9,-0.666,0.16219,0.16019,0.0213
-12.8,-0.662,0.16057,0.15857,0.0204
-12.7,-0.658,0.15895,0.15696,0.0194
-12.6,-0.6541,0.15734,0.15534,0.0185
-12.5,-0.6501,0.15573,0.15373,0.0175
-12.4,-0.646,0.1541,0.15211,0.0166
-12.3,-0.642,0.15248,0.15049,0.0157
-12.2,-0.638,0.15085,0.14886,0.0147
-12.1,-0.634,0.14923,0.14724,0.0138
-12,-0.63,0.14758,0.14559,0.0129
-11.9,-0.6259,0.14591,0.14392,0.0119
-11.8,-0.6218,0.14424,0.14225,0.011
-11.7,-0.6177,0.14253,0.14055,0.0101
-11.6,-0.6135,0.14075,0.13875,0.0091
-11.5,-0.6093,0.13886,0.13687,0.0081
-11.4,-0.6049,0.13683,0.13483,0.0071
-11.3,-0.6002,0.13469,0.1327,0.006
-11.2,-0.5949,0.13262,0.13063,0.0048
-11.1,-0.589,0.13071,0.12872,0.0033
-10.9,-0.5775,0.12721,0.12526,0.0003
-10.8,-0.575,0.12547,0.12352,-0.0002
-10.7,-0.5729,0.12368,0.12173,-0.0006
-10.6,-0.5708,0.12197,0.12003,-0.0011
-10.5,-0.5681,0.12045,0.11851,-0.0017
-10.4,-0.5649,0.11904,0.11709,-0.0024
-10.3,-0.5615,0.11769,0.11575,-0.0031
-10.2,-0.5579,0.1164,0.11445,-0.0039
-10.1,-0.5543,0.11513,0.1132,-0.0046
-10,-0.5507,0.1139,0.11196,-0.0054
-9.9,-0.547,0.11268,0.11075,-0.0061
-9.8,-0.5434,0.11149,0.10956,-0.0068
-9.7,-0.5398,0.11031,0.10838,-0.0075
-9.6,-0.5364,0.10916,0.10724,-0.0082
-9.5,-0.5331,0.10804,0.10612,-0.0088
-9.4,-0.5301,0.10693,0.10502,-0.0093
-9.3,-0.5275,0.10587,0.10396,-0.0098
-9.2,-0.5256,0.10487,0.10297,-0.01
-9.1,-0.5245,0.10396,0.10207,-0.0101
-9,-0.5246,0.10316,0.10128,-0.0098
-8.9,-0.5262,0.10251,0.10064,-0.0091
-8.7,-0.5249,0.10077,0.09893,-0.0091
-8.6,-0.5166,0.09918,0.09734,-0.0112
-8.5,-0.5074,0.09751,0.09566,-0.0135
-8.4,-0.4981,0.09586,0.094,-0.0158
-8.3,-0.4886,0.0942,0.09233,-0.0182
-8.2,-0.4788,0.09251,0.09064,-0.0207
-8.1,-0.4689,0.09082,0.08893,-0.0232
-8,-0.4594,0.08917,0.08726,-0.0255
-7.9,-0.4495,0.08748,0.08557,-0.028
-7.7,-0.4275,0.08389,0.08196,-0.0335
-7.6,-0.4163,0.08207,0.08012,-0.0363
-7.5,-0.4048,0.08021,0.07825,-0.0391
-7.4,-0.3934,0.07837,0.0764,-0.0418
-7.3,-0.3828,0.07658,0.07459,-0.0443
-7.2,-0.3717,0.07474,0.07275,-0.0469
-6.2,-0.1625,0.01845,0.01472,-0.1203
-6.1,-0.1489,0.01723,0.01331,-0.1215
-6,-0.1359,0.01637,0.0123,-0.1225
-5.9,-0.1229,0.01565,0.01144,-0.1232
-5.8,-0.1111,0.01506,0.01074,-0.1237
-5.7,-0.0998,0.01455,0.01011,-0.1239
-5.6,-0.0881,0.01407,0.00954,-0.1243
-5.5,-0.0763,0.01364,0.00901,-0.1246
-5.4,-0.0644,0.01325,0.00852,-0.1249
-5.3,-0.0524,0.01287,0.00806,-0.1252
-5.2,-0.0403,0.01253,0.00764,-0.1255
-5.1,-0.0281,0.0122,0.00722,-0.1258
-5,-0.0159,0.0119,0.00685,-0.1261
-4.9,-0.0037,0.01162,0.00649,-0.1264
-4.8,0.0084,0.01136,0.00615,-0.1267
-4.7,0.0194,0.01113,0.00587,-0.1267
-4.6,0.0307,0.01093,0.0056,-0.1268
-4.5,0.0421,0.01075,0.00537,-0.1268
-4.3,0.0653,0.01034,0.00489,-0.1271
-4.2,0.0772,0.01007,0.00457,-0.1273
-4.1,0.089,0.00987,0.00435,-0.1275
-4,0.1008,0.0097,0.00414,-0.1276
-3.9,0.1117,0.00956,0.00397,-0.1275
-3.8,0.1229,0.00942,0.00379,-0.1275
-3.7,0.1343,0.00927,0.00361,-0.1275
-3.6,0.1459,0.00914,0.00342,-0.1276
-3.5,0.1575,0.00902,0.00326,-0.1276
-3.4,0.169,0.00892,0.00312,-0.1276
-3.3,0.1805,0.00874,0.00293,-0.1277
-3.2,0.1917,0.00862,0.00279,-0.1277
-3.1,0.203,0.00852,0.00269,-0.1277
-3,0.2143,0.00844,0.00258,-0.1277
-2.9,0.2258,0.00836,0.00248,-0.1277
-2.8,0.2371,0.00829,0.00237,-0.1276
-2.7,0.2484,0.00821,0.00228,-0.1277
-2.6,0.2596,0.00813,0.00221,-0.1276
-2.5,0.2709,0.00807,0.00214,-0.1276
-2.4,0.2821,0.00802,0.00206,-0.1276
-2.3,0.2934,0.00797,0.00199,-0.1276
-2.2,0.3048,0.0079,0.00192,-0.1276
-2.1,0.3159,0.00785,0.00187,-0.1276
-2,0.3271,0.0078,0.00186,-0.1276
-1.9,0.3383,0.00775,0.00181,-0.1275
-1.8,0.3496,0.00771,0.00176,-0.1275
-1.7,0.3608,0.00767,0.0017,-0.1275
-1.6,0.3721,0.00763,0.00166,-0.1275
-1.5,0.3834,0.00759,0.00163,-0.1275
-1.4,0.3946,0.00755,0.00159,-0.1274
-1.3,0.4053,0.00753,0.00155,-0.1272
-1.2,0.4162,0.00749,0.00149,-0.1271
-1.1,0.4273,0.00747,0.00146,-0.127
-1,0.4383,0.00745,0.00143,-0.1269
-0.9,0.4494,0.00743,0.00139,-0.1269
-0.8,0.4604,0.00741,0.00138,-0.1268
-0.7,0.4714,0.0074,0.00136,-0.1267
-0.6,0.4826,0.00738,0.00133,-0.1267
-0.5,0.4937,0.00737,0.00132,-0.1266
-0.4,0.5046,0.00737,0.0013,-0.1265
-0.3,0.5157,0.00737,0.00128,-0.1264
-0.2,0.5268,0.00735,0.00129,-0.1264
0,0.5485,0.00737,0.00125,-0.1261
0.1,0.5596,0.00737,0.00125,-0.1261
0.2,0.5706,0.00738,0.00125,-0.126
0.3,0.5812,0.00742,0.00124,-0.1258
0.4,0.5923,0.00742,0.00125,-0.1258
0.5,0.6031,0.00744,0.00125,-0.1257
0.6,0.6141,0.00746,0.00125,-0.1256
0.7,0.6243,0.00753,0.00126,-0.1253
0.8,0.6349,0.00758,0.00127,-0.1252
0.9,0.6458,0.00762,0.00128,-0.1251
1,0.6566,0.00764,0.0013,-0.125
1.1,0.667,0.00771,0.00132,-0.1248
1.2,0.6766,0.00787,0.00135,-0.1244
1.3,0.6866,0.00799,0.00139,-0.1242
1.4,0.6965,0.00813,0.00145,-0.1239
1.5,0.7064,0.00827,0.0015,-0.1237
1.6,0.7167,0.00838,0.00154,-0.1235
1.7,0.7257,0.00863,0.00164,-0.1232
1.8,0.7359,0.00875,0.0017,-0.123
1.9,0.746,0.00888,0.00176,-0.1229
2,0.756,0.00902,0.00184,-0.1227
2.1,0.7645,0.00936,0.00197,-0.1223
2.2,0.7744,0.00952,0.00207,-0.1222
2.4,0.7879,0.00854,0.00231,-0.1207
2.5,0.7975,0.00878,0.00242,-0.1205
2.6,0.8074,0.00899,0.00251,-0.1203
2.7,0.8168,0.00927,0.00264,-0.1201
2.8,0.8272,0.0094,0.00272,-0.1199
2.9,0.8377,0.00951,0.00279,-0.1198
3,0.8482,0.00962,0.00289,-0.1197
3.1,0.8583,0.0098,0.00298,-0.1196
3.2,0.8688,0.00991,0.00307,-0.1195
3.3,0.8794,0.01,0.00313,-0.1194
3.4,0.8898,0.01011,0.0032,-0.1193
3.5,0.9004,0.01021,0.00328,-0.1192
3.6,0.9105,0.01037,0.00337,-0.119
3.7,0.921,0.01047,0.00345,-0.1189
3.8,0.9314,0.01058,0.00354,-0.1188
3.9,0.9419,0.01068,0.00361,-0.1187
4,0.9519,0.01084,0.00371,-0.1185
4.1,0.9623,0.01096,0.00379,-0.1184
4.2,0.9726,0.01107,0.00389,-0.1182
4.3,0.983,0.01118,0.00398,-0.1181
4.4,0.9932,0.01131,0.00411,-0.118
4.5,1.0036,0.01142,0.00421,-0.1178
4.6,1.0138,0.01155,0.0043,-0.1177
4.7,1.0237,0.01171,0.00442,-0.1175
4.8,1.0338,0.01185,0.00454,-0.1173
4.9,1.0441,0.01197,0.00464,-0.1172
5,1.0542,0.0121,0.00475,-0.117
5.1,1.0642,0.01224,0.00488,-0.1169
5.2,1.0741,0.01241,0.005,-0.1167
5.3,1.084,0.01256,0.00514,-0.1165
5.4,1.0942,0.01269,0.00526,-0.1163
5.5,1.1042,0.01282,0.00538,-0.1161
5.6,1.114,0.01299,0.00552,-0.1159
5.7,1.1241,0.01312,0.00567,-0.1158
5.8,1.1341,0.01325,0.00583,-0.1156
5.9,1.144,0.0134,0.00597,-0.1154
6,1.1538,0.01356,0.00612,-0.1152
6.1,1.1636,0.01372,0.00629,-0.115
6.2,1.1736,0.01385,0.00644,-0.1148
6.3,1.1833,0.01402,0.00659,-0.1145
6.4,1.193,0.01419,0.00675,-0.1143
6.5,1.2026,0.01437,0.00693,-0.1141
6.6,1.2123,0.01453,0.00712,-0.1138
6.7,1.222,0.01468,0.00727,-0.1136
6.8,1.2317,0.01485,0.00744,-0.1134
6.9,1.2412,0.01502,0.00762,-0.1131
7,1.2507,0.01522,0.00782,-0.1128
7.1,1.2601,0.0154,0.00802,-0.1126
7.2,1.2696,0.01557,0.0082,-0.1124
7.3,1.2791,0.01574,0.00839,-0.1121
7.4,1.2885,0.01593,0.00859,-0.1118
7.5,1.2977,0.01614,0.0088,-0.1115
7.6,1.3068,0.01636,0.00904,-0.1112
7.7,1.3162,0.01654,0.00924,-0.1109
7.8,1.3255,0.01672,0.00945,-0.1107
7.9,1.3348,0.01692,0.00967,-0.1104
8,1.3439,0.01712,0.00989,-0.1101
8.1,1.3529,0.01734,0.01012,-0.1097
8.2,1.3617,0.01758,0.01038,-0.1094
8.3,1.3703,0.01786,0.01067,-0.109
8.4,1.3794,0.01806,0.01091,-0.1087
8.5,1.3882,0.01828,0.01119,-0.1083
8.6,1.397,0.01851,0.01147,-0.1079
8.7,1.4057,0.01876,0.01175,-0.1075
8.8,1.4143,0.01901,0.01203,-0.1071
8.9,1.4227,0.01927,0.01232,-0.1067
9,1.431,0.01955,0.01263,-0.1063
9.1,1.4391,0.01987,0.01298,-0.1058
9.2,1.4466,0.02025,0.0134,-0.1053
9.3,1.4541,0.02063,0.01382,-0.1047
9.5,1.4718,0.02094,0.01419,-0.1041
9.6,1.4796,0.02125,0.01454,-0.1036
9.7,1.4873,0.02157,0.0149,-0.1031
9.8,1.4949,0.02189,0.01526,-0.1026
9.9,1.5024,0.02222,0.01564,-0.102
10,1.5097,0.02256,0.01602,-0.1015
10.1,1.5169,0.02291,0.01644,-0.1009
10.2,1.5238,0.02328,0.01686,-0.1003
10.3,1.5305,0.02368,0.0173,-0.0996
10.4,1.5367,0.02411,0.01779,-0.0989
10.5,1.5424,0.02461,0.01834,-0.0981
10.6,1.5474,0.02517,0.01897,-0.0972
10.7,1.5513,0.02582,0.01969,-0.0962
10.8,1.5543,0.02655,0.02048,-0.095
10.9,1.5607,0.02687,0.02086,-0.0944
11,1.5665,0.02724,0.02129,-0.0936
11.1,1.572,0.02762,0.02173,-0.0928
11.2,1.5768,0.02803,0.0222,-0.0919
11.3,1.5811,0.02848,0.02271,-0.0909
11.4,1.5847,0.02892,0.02322,-0.0898
11.5,1.5875,0.02938,0.02375,-0.0886
11.6,1.5898,0.02988,0.02432,-0.0873
11.7,1.592,0.03039,0.02489,-0.086
11.8,1.5938,0.03094,0.0255,-0.0847
11.9,1.5956,0.03149,0.02612,-0.0834
12,1.597,0.03207,0.02677,-0.0822
12.1,1.5981,0.03268,0.02746,-0.0809
12.2,1.5991,0.03329,0.02814,-0.0796
12.3,1.5996,0.03396,0.02888,-0.0784
12.4,1.5998,0.03464,0.02964,-0.0771
12.5,1.6,0.03535,0.03044,-0.0759
12.6,1.5997,0.0361,0.03126,-0.0747
12.7,1.599,0.03688,0.03212,-0.0735
12.8,1.598,0.03769,0.03301,-0.0724
12.9,1.5971,0.03852,0.03391,-0.0713
13,1.5953,0.03943,0.0349,-0.0702
13.1,1.5936,0.04034,0.03589,-0.0692
13.2,1.5917,0.0413,0.03692,-0.0682
13.3,1.5889,0.04234,0.03804,-0.0673
13.4,1.586,0.04344,0.03921,-0.0665
13.5,1.5832,0.04454,0.04039,-0.0657
13.6,1.5796,0.04575,0.04169,-0.0651
13.7,1.5758,0.04701,0.04302,-0.0645
13.8,1.5715,0.04836,0.04446,-0.0641
13.9,1.567,0.04978,0.04595,-0.0638
14,1.5625,0.05125,0.0475,-0.0636
14.1,1.5571,0.05289,0.04922,-0.0637
14.2,1.5514,0.05463,0.05105,-0.0639
14.3,1.5456,0.05645,0.05295,-0.0643
14.4,1.5392,0.05843,0.05502,-0.065
14.5,1.5322,0.06059,0.05726,-0.0659
14.6,1.5255,0.06284,0.0596,-0.0671
14.7,1.5177,0.06542,0.06227,-0.0688
14.8,1.5097,0.06825,0.0652,-0.071
14.9,1.5015,0.07134,0.06839,-0.0736
15,1.4923,0.07497,0.07212,-0.077
15.3,1.4581,0.09177,0.08934,-0.0951
15.4,1.4393,0.1033,0.1011,-0.1069
15.5,1.4176,0.11508,0.11303,-0.1174
15.6,1.3989,0.12473,0.12279,-0.1256
15.7,1.3844,0.13266,0.1308,-0.1321
15.8,1.3718,0.13984,0.13804,-0.1378
15.9,1.3607,0.1465,0.14477,-0.1431
16,1.3506,0.15286,0.15118,-0.1482
16.1,1.3407,0.15943,0.1578,-0.1533
16.3,1.3239,0.17207,0.17053,-0.163

