airfoilName st22.dat
Re 	690000
M 	0
N 	4.500000e+00
VACC 	0 VACCflag 1
XTR 	1.00 	1.00 XTRflag 0
alpha,cl,cd,cdp,cm
-6.5,-0.1901,0.01754,0.014,-0.1213
-6.4,-0.1769,0.01633,0.01261,-0.1225
-6.3,-0.165,0.0155,0.01164,-0.1231
-6.2,-0.1535,0.01483,0.01084,-0.1236
-6.1,-0.1419,0.01427,0.01017,-0.1239
-6,-0.1302,0.01379,0.0096,-0.1243
-5.9,-0.1185,0.01336,0.00908,-0.1246
-5.8,-0.1067,0.01297,0.00861,-0.1249
-5.7,-0.0948,0.01261,0.00817,-0.1252
-5.6,-0.0829,0.01228,0.00777,-0.1255
-5.5,-0.071,0.01197,0.00739,-0.1258
-5.4,-0.0591,0.01169,0.00704,-0.126
-5.3,-0.0477,0.01142,0.00671,-0.1262
-5.2,-0.0364,0.01118,0.00641,-0.1262
-5.1,-0.025,0.01093,0.00611,-0.1264
-5,-0.0136,0.01071,0.00583,-0.1265
-4.9,-0.0021,0.0105,0.00557,-0.1266
-4.8,0.0095,0.01029,0.0053,-0.1267
-4.7,0.0211,0.01009,0.00504,-0.1268
-4.6,0.0327,0.0099,0.00481,-0.1269
-4.5,0.0443,0.00973,0.00458,-0.127
-4.4,0.0556,0.00956,0.00437,-0.1271
-4.3,0.0669,0.00941,0.00418,-0.1271
-4,0.1004,0.00902,0.00369,-0.127
-3.9,0.112,0.0088,0.00342,-0.1271
-3.8,0.1234,0.00864,0.00325,-0.1272
-3.7,0.1347,0.00852,0.0031,-0.1272
-3.6,0.1461,0.00841,0.00295,-0.1272
-3.5,0.1573,0.0083,0.00282,-0.1272
-3.4,0.1687,0.0082,0.00269,-0.1272
-3.3,0.18,0.00811,0.00256,-0.1271
-3.2,0.1913,0.00804,0.00246,-0.1271
-3.1,0.2027,0.00791,0.00232,-0.1272
-3,0.214,0.00782,0.00222,-0.1272
-2.9,0.2254,0.00775,0.00214,-0.1272
-2.8,0.2365,0.00769,0.00206,-0.1271
-2.7,0.2478,0.00764,0.00198,-0.1271
-2.6,0.2591,0.00758,0.00191,-0.1271
-2.5,0.2704,0.00751,0.00185,-0.1271
-2.4,0.2816,0.00746,0.00177,-0.1271
-2.3,0.2929,0.00741,0.00172,-0.1271
-2.2,0.304,0.00738,0.00166,-0.127
-2.1,0.3154,0.00732,0.00161,-0.127
-2,0.3266,0.00728,0.00156,-0.127
-1.9,0.3379,0.00724,0.00153,-0.127
-1.8,0.3492,0.00719,0.00151,-0.1271
-1.7,0.3605,0.00715,0.00147,-0.127
-1.6,0.3717,0.00712,0.00143,-0.127
-1.5,0.3822,0.00711,0.00137,-0.1268
-1.4,0.3933,0.00708,0.00133,-0.1267
-1.3,0.4046,0.00705,0.0013,-0.1267
-1.2,0.4155,0.00704,0.00126,-0.1266
-1.1,0.4265,0.00702,0.00124,-0.1265
-1,0.4377,0.007,0.00121,-0.1265
-0.9,0.4487,0.007,0.00119,-0.1264
-0.8,0.4598,0.007,0.00117,-0.1263
-0.7,0.4707,0.00699,0.00114,-0.1262
-0.6,0.482,0.00698,0.00114,-0.1262
-0.5,0.4931,0.00698,0.00112,-0.1262
-0.4,0.5042,0.00697,0.00111,-0.1261
-0.3,0.5152,0.00698,0.0011,-0.126
-0.2,0.526,0.007,0.00109,-0.1259
0,0.5481,0.00701,0.00109,-0.1258
0.1,0.5588,0.00706,0.00109,-0.1257
0.2,0.5698,0.00707,0.00108,-0.1256
0.3,0.5807,0.00709,0.00109,-0.1255
0.4,0.5917,0.00712,0.0011,-0.1255
0.5,0.6019,0.00721,0.0011,-0.1252
0.6,0.6125,0.00727,0.00112,-0.1251
0.7,0.6233,0.00731,0.00113,-0.125
0.8,0.6341,0.00735,0.00115,-0.1249
0.9,0.6444,0.00745,0.00117,-0.1247
1,0.6539,0.00764,0.00122,-0.1244
1.1,0.6644,0.00772,0.00125,-0.1242
1.2,0.6746,0.00784,0.0013,-0.1241
1.3,0.6847,0.00798,0.00135,-0.1239
1.4,0.6947,0.00813,0.00141,-0.1237
1.5,0.704,0.00839,0.00151,-0.1234
1.6,0.7143,0.00851,0.00157,-0.1232
1.7,0.7246,0.00864,0.00162,-0.1231
1.8,0.7348,0.00878,0.00169,-0.123
1.9,0.7435,0.00912,0.00182,-0.1227
2,0.7535,0.0093,0.0019,-0.1225
2.1,0.7634,0.00949,0.00199,-0.1223
2.2,0.7733,0.00968,0.00208,-0.1222
2.3,0.7834,0.00983,0.00216,-0.1221
2.4,0.7931,0.01004,0.00228,-0.1219
2.6,0.8087,0.00884,0.00251,-0.1208
2.7,0.8193,0.00894,0.00257,-0.1207
2.8,0.8299,0.00904,0.00263,-0.1206
2.9,0.8402,0.0092,0.00271,-0.1205
3,0.8508,0.00929,0.0028,-0.1204
3.1,0.8614,0.00938,0.00286,-0.1203
3.2,0.872,0.00948,0.00293,-0.1202
3.3,0.8827,0.00956,0.00299,-0.1202
3.4,0.8929,0.00971,0.00307,-0.12
3.5,0.9035,0.00981,0.00314,-0.1199
3.6,0.914,0.0099,0.00321,-0.1198
3.7,0.9246,0.01,0.00328,-0.1197
3.8,0.9348,0.01015,0.00337,-0.1196
3.9,0.9452,0.01026,0.00344,-0.1195
4,0.9557,0.01035,0.00353,-0.1194
4.1,0.9662,0.01046,0.00361,-0.1193
4.2,0.9765,0.01057,0.0037,-0.1191
4.3,0.987,0.01067,0.00378,-0.119
4.4,0.997,0.01083,0.00391,-0.1189
4.5,1.0074,0.01094,0.004,-0.1187
4.6,1.0176,0.01107,0.00411,-0.1186
4.7,1.028,0.01118,0.0042,-0.1185
4.8,1.0382,0.0113,0.0043,-0.1183
4.9,1.0482,0.01146,0.00442,-0.1181
5,1.0584,0.01159,0.00452,-0.118
5.1,1.0685,0.01173,0.00465,-0.1178
5.2,1.0787,0.01184,0.00475,-0.1177
5.3,1.0889,0.01197,0.00486,-0.1175
5.4,1.0989,0.01211,0.00498,-0.1173
5.5,1.109,0.01224,0.00511,-0.1172
5.6,1.1192,0.01236,0.00523,-0.117
5.7,1.1293,0.01249,0.00537,-0.1168
5.8,1.1392,0.01264,0.00551,-0.1167
5.9,1.1492,0.01278,0.00566,-0.1165
6,1.1593,0.0129,0.00579,-0.1163
6.1,1.1692,0.01305,0.00592,-0.1161
6.2,1.179,0.01321,0.00607,-0.1159
6.3,1.1888,0.01337,0.00622,-0.1157
6.4,1.1987,0.01351,0.00638,-0.1155
6.5,1.2086,0.01365,0.00652,-0.1153
6.6,1.2184,0.0138,0.00667,-0.1151
6.7,1.2281,0.01396,0.00683,-0.1149
6.8,1.2376,0.01416,0.00701,-0.1146
6.9,1.2474,0.0143,0.00717,-0.1144
7,1.2571,0.01445,0.00735,-0.1142
7.1,1.2668,0.01461,0.00751,-0.1139
7.2,1.2763,0.01478,0.00769,-0.1137
7.3,1.2858,0.01497,0.00788,-0.1134
7.4,1.2952,0.01516,0.00808,-0.1132
7.5,1.3048,0.01531,0.00826,-0.1129
7.6,1.3143,0.01548,0.00844,-0.1127
7.7,1.3238,0.01565,0.00863,-0.1124
7.8,1.3331,0.01583,0.00882,-0.1121
7.9,1.3424,0.01603,0.00903,-0.1119
8,1.3514,0.01626,0.00926,-0.1115
8.1,1.3606,0.01645,0.00948,-0.1112
8.2,1.3699,0.01664,0.00969,-0.1109
8.3,1.3791,0.01683,0.00991,-0.1106
8.4,1.3882,0.01703,0.01014,-0.1103
8.5,1.3971,0.01724,0.0104,-0.11
8.6,1.406,0.01747,0.01064,-0.1096
8.7,1.4148,0.01771,0.0109,-0.1093
8.8,1.4233,0.01798,0.0112,-0.1089
9,1.4409,0.01839,0.01165,-0.1082
9.1,1.4495,0.01864,0.01193,-0.1078
9.2,1.458,0.01889,0.01221,-0.1074
9.3,1.4664,0.01915,0.0125,-0.107
9.4,1.4747,0.01942,0.0128,-0.1066
9.5,1.4829,0.01969,0.01311,-0.1061
9.6,1.4909,0.01998,0.01343,-0.1057
9.7,1.4988,0.02029,0.01378,-0.1052
9.8,1.5065,0.02062,0.01415,-0.1047
9.9,1.5138,0.021,0.01457,-0.1041
10,1.5207,0.02142,0.01505,-0.1034
10.1,1.5265,0.02198,0.0157,-0.1026
10.2,1.5337,0.02233,0.01607,-0.102
10.3,1.5414,0.02261,0.0164,-0.1015
10.4,1.5487,0.02291,0.01675,-0.101
10.5,1.5558,0.02323,0.01713,-0.1004
10.6,1.5628,0.02358,0.01752,-0.0998
10.7,1.5694,0.02394,0.01794,-0.0991
10.8,1.5759,0.02431,0.01836,-0.0985
10.9,1.5821,0.02469,0.0188,-0.0978
11,1.5881,0.02509,0.01926,-0.097
11.1,1.5939,0.0255,0.01973,-0.0962
11.2,1.5994,0.02592,0.0202,-0.0954
11.3,1.6045,0.02635,0.02069,-0.0946
11.4,1.6094,0.02678,0.02118,-0.0937
11.5,1.6138,0.02722,0.02168,-0.0927
11.6,1.6178,0.02769,0.0222,-0.0917
11.7,1.6211,0.02813,0.02271,-0.0905
11.8,1.6236,0.0286,0.02324,-0.0892
11.9,1.626,0.02907,0.02377,-0.0879
12,1.6281,0.02957,0.02433,-0.0866
12.1,1.63,0.03009,0.02491,-0.0853
12.2,1.632,0.0306,0.0255,-0.0841
12.3,1.6334,0.03116,0.02612,-0.0828
12.4,1.6347,0.03174,0.02676,-0.0815
12.5,1.6358,0.03233,0.02742,-0.0803
12.6,1.6365,0.03295,0.0281,-0.079
12.7,1.637,0.0336,0.02881,-0.0778
12.8,1.6372,0.03427,0.02956,-0.0765
12.9,1.6375,0.03495,0.0303,-0.0754
13,1.6369,0.0357,0.03112,-0.0742
13.1,1.6364,0.03645,0.03194,-0.073
13.2,1.6357,0.03724,0.03279,-0.0719
13.3,1.6342,0.0381,0.03372,-0.0708
13.4,1.6326,0.03899,0.03468,-0.0698
13.5,1.631,0.03988,0.03564,-0.0688
13.6,1.6285,0.04087,0.0367,-0.0678
13.7,1.6261,0.04188,0.03779,-0.0669
13.8,1.623,0.04298,0.03896,-0.0661
13.9,1.6198,0.04413,0.04018,-0.0654
14,1.6164,0.04531,0.04143,-0.0648
14.1,1.6122,0.04661,0.04281,-0.0643
14.2,1.6076,0.04799,0.04426,-0.0639
14.3,1.6028,0.04944,0.04579,-0.0636
14.4,1.5978,0.05097,0.0474,-0.0635
14.5,1.5922,0.05265,0.04915,-0.0636
14.6,1.5866,0.05439,0.05097,-0.0638
14.7,1.5801,0.0563,0.05297,-0.0643
14.8,1.5733,0.05834,0.05509,-0.0651
14.9,1.5662,0.06054,0.05737,-0.0661
15,1.5586,0.06297,0.05989,-0.0675
15.1,1.5504,0.06566,0.06267,-0.0694
15.2,1.5418,0.06864,0.06575,-0.0717
15.3,1.5325,0.07203,0.06923,-0.0747
15.4,1.5225,0.076,0.07332,-0.0786
15.5,1.5116,0.08076,0.0782,-0.0835
15.8,1.4369,0.11823,0.11637,-0.1201
15.9,1.4114,0.12996,0.12822,-0.1297
16,1.3934,0.13885,0.13719,-0.1369
16.1,1.3777,0.147,0.14542,-0.1433
16.2,1.3657,0.15392,0.1524,-0.1489
16.3,1.3535,0.16116,0.1597,-0.1546
16.5,1.3301,0.17692,0.17558,-0.1666
18.8,1.35,0.26182,0.26058,-0.2174
18.9,1.3536,0.2653,0.26405,-0.219
19,1.3571,0.26806,0.26681,-0.2205
19.1,1.3605,0.27056,0.26931,-0.222
19.2,1.3639,0.27296,0.27171,-0.2234
19.3,1.3673,0.27517,0.27394,-0.2249
19.4,1.3707,0.27754,0.27631,-0.2264
19.5,1.374,0.2797,0.27847,-0.2278
19.6,1.3774,0.28187,0.28064,-0.2293
19.7,1.3807,0.28398,0.28275,-0.2307
19.8,1.384,0.28607,0.28484,-0.2322
19.9,1.3874,0.28818,0.28696,-0.2336
20,1.3907,0.29025,0.28903,-0.2351
20.1,1.394,0.29231,0.29109,-0.2366
20.2,1.3973,0.29434,0.29312,-0.238
20.3,1.4007,0.29637,0.29515,-0.2395
20.4,1.4039,0.29836,0.29715,-0.2409
20.5,1.4073,0.30039,0.29918,-0.2424
20.6,1.4106,0.30239,0.30119,-0.2439
20.7,1.4139,0.30439,0.30319,-0.2454
20.8,1.4172,0.30639,0.30519,-0.2469
20.9,1.4204,0.30837,0.30717,-0.2484
21,1.4237,0.31034,0.30915,-0.2499
21.1,1.427,0.31232,0.31113,-0.2513
21.2,1.4303,0.3143,0.31311,-0.2528
21.3,1.4335,0.31625,0.31507,-0.2543
21.4,1.4368,0.31822,0.31704,-0.2559
21.5,1.44,0.32017,0.31899,-0.2574
21.6,1.4433,0.32215,0.32097,-0.2589
21.7,1.4465,0.32409,0.32292,-0.2604
21.8,1.4497,0.32605,0.32488,-0.2619
21.9,1.4529,0.32798,0.32682,-0.2635
22,1.4561,0.32996,0.3288,-0.265
22.1,1.4593,0.33192,0.33076,-0.2665
22.2,1.4625,0.33383,0.33268,-0.2681
22.3,1.4657,0.3358,0.33465,-0.2696
22.4,1.4689,0.33773,0.33658,-0.2712
22.5,1.4721,0.33967,0.33853,-0.2728
22.6,1.4752,0.34163,0.34049,-0.2743
22.9,1.4846,0.34694,0.34582,-0.2792
23,1.4877,0.34883,0.34772,-0.2808
23.1,1.4908,0.35072,0.34961,-0.2824
23.2,1.4939,0.35263,0.35152,-0.284
23.3,1.497,0.35452,0.35342,-0.2856
23.4,1.5,0.35639,0.3553,-0.2872
23.5,1.503,0.35826,0.35717,-0.2888
23.6,1.5061,0.36012,0.35903,-0.2904
23.7,1.5091,0.36201,0.36093,-0.292
23.8,1.5121,0.3639,0.36282,-0.2937
23.9,1.5151,0.3658,0.36473,-0.2953
24,1.518,0.36766,0.36659,-0.2969
24.1,1.521,0.36949,0.36843,-0.2986
24.2,1.5239,0.37139,0.37033,-0.3002
24.3,1.5268,0.37324,0.37218,-0.3019
24.4,1.5297,0.37509,0.37404,-0.3035
24.5,1.5326,0.37696,0.37591,-0.3052
24.6,1.5355,0.37883,0.37778,-0.3068
24.7,1.5384,0.38068,0.37964,-0.3085
24.8,1.5412,0.38254,0.38151,-0.3101
24.9,1.544,0.38438,0.38335,-0.3118
25,1.5468,0.38626,0.38523,-0.3135
25.1,1.5496,0.38815,0.38713,-0.3152
25.2,1.5524,0.39001,0.389,-0.3168
25.3,1.5551,0.39187,0.39086,-0.3185
25.4,1.5579,0.3938,0.39279,-0.3202
25.5,1.5605,0.39566,0.39466,-0.3219
25.6,1.5632,0.39758,0.39658,-0.3235
25.7,1.5659,0.39956,0.39857,-0.3252
25.8,1.5684,0.4015,0.40051,-0.3269
25.9,1.571,0.40354,0.40256,-0.3285
26,1.5735,0.40566,0.40469,-0.3302
26.1,1.5759,0.40789,0.40693,-0.3318
26.2,1.5782,0.41039,0.40943,-0.3333
26.3,1.5806,0.413,0.41205,-0.3348
26.4,1.5831,0.41547,0.41452,-0.3364
26.5,1.5851,0.41849,0.41755,-0.3377
26.6,1.5875,0.42107,0.42013,-0.3393
26.8,1.0709,0.30414,0.30324,-0.2195
26.9,1.0715,0.30581,0.30492,-0.2204
27,1.0721,0.30752,0.30664,-0.2212
27.1,1.0726,0.30952,0.30864,-0.222
27.2,1.0732,0.31125,0.31038,-0.2228
27.3,1.0739,0.31301,0.31214,-0.2237
27.4,1.0745,0.31473,0.31386,-0.2245

