airfoilName st22.dat
Re 	350000
M 	0
N 	4.500000e+00
VACC 	0 VACCflag 1
XTR 	1.00 	1.00 XTRflag 0
alpha,cl,cd,cdp,cm
-18.2,-0.8602,0.2545,0.25196,0.0747
-18.1,-0.8569,0.25253,0.24999,0.0737
-18,-0.8536,0.25059,0.24805,0.0726
-17.9,-0.8502,0.24869,0.24615,0.0716
-17.8,-0.8469,0.24683,0.24429,0.0705
-17.7,-0.8435,0.245,0.24245,0.0695
-17.6,-0.84,0.24319,0.24064,0.0684
-17.5,-0.8365,0.24138,0.23883,0.0673
-17.4,-0.833,0.23961,0.23706,0.0662
-17.3,-0.8295,0.23785,0.23529,0.0652
-17.2,-0.8259,0.2361,0.23354,0.0641
-17.1,-0.8223,0.23435,0.23179,0.063
-17,-0.8187,0.23262,0.23006,0.0619
-16.9,-0.8151,0.2309,0.22834,0.0608
-16.8,-0.8115,0.22919,0.22662,0.0597
-16.7,-0.8078,0.22748,0.22491,0.0586
-16.6,-0.8042,0.22577,0.22321,0.0576
-16.5,-0.8005,0.22408,0.22151,0.0565
-16.4,-0.7968,0.22236,0.21979,0.0554
-16.3,-0.7931,0.22067,0.21809,0.0543
-16.2,-0.7894,0.21897,0.2164,0.0533
-16.1,-0.7857,0.21727,0.2147,0.0522
-16,-0.782,0.21556,0.21298,0.0511
-15.9,-0.7782,0.21386,0.21129,0.0501
-15.8,-0.7744,0.21215,0.20958,0.049
-15.7,-0.7707,0.21045,0.20787,0.048
-15.6,-0.7669,0.20876,0.20618,0.0469
-15.5,-0.7631,0.20705,0.20447,0.0459
-15.4,-0.7593,0.20535,0.20277,0.0448
-15.3,-0.7555,0.20365,0.20107,0.0438
-15.2,-0.7518,0.20195,0.19936,0.0428
-15.1,-0.748,0.20025,0.19765,0.0417
-15,-0.7442,0.19855,0.19595,0.0407
-14.9,-0.7403,0.19685,0.19425,0.0397
-14.8,-0.7365,0.19516,0.19256,0.0387
-14.7,-0.7327,0.19347,0.19086,0.0376
-14.6,-0.7289,0.19177,0.18916,0.0366
-14.5,-0.725,0.19007,0.18747,0.0356
-14.4,-0.7212,0.18839,0.18578,0.0346
-14.3,-0.7164,0.18669,0.18409,0.033
-14.2,-0.7125,0.18493,0.18232,0.032
-14.1,-0.7086,0.18316,0.18056,0.031
-14,-0.7047,0.18139,0.17879,0.0301
-13.9,-0.7008,0.17962,0.17702,0.0291
-13.8,-0.6968,0.17783,0.17522,0.0281
-13.7,-0.6929,0.17603,0.17343,0.0271
-13.6,-0.6889,0.17423,0.17162,0.0262
-13.5,-0.6849,0.17238,0.16978,0.0252
-13.4,-0.6808,0.17051,0.16791,0.0242
-13.3,-0.6767,0.16866,0.16606,0.0232
-13.2,-0.6724,0.16674,0.16415,0.0222
-13.1,-0.668,0.16477,0.16217,0.0211
-13,-0.6633,0.16279,0.16019,0.02
-12.9,-0.6584,0.16083,0.15824,0.0188
-12.8,-0.653,0.1589,0.15631,0.0175
-12.6,-0.6406,0.15521,0.15266,0.0139
-12.5,-0.6373,0.1535,0.15095,0.0132
-12.4,-0.6341,0.15176,0.14921,0.0126
-12.3,-0.631,0.15004,0.14749,0.0119
-12.2,-0.6279,0.14832,0.14577,0.0113
-12.1,-0.6247,0.14664,0.14409,0.0106
-12,-0.6217,0.14496,0.14242,0.01
-11.9,-0.6185,0.14332,0.14078,0.0093
-11.8,-0.6153,0.14172,0.13918,0.0086
-11.7,-0.6121,0.14015,0.13761,0.0079
-11.6,-0.6088,0.13863,0.13609,0.0072
-11.5,-0.6054,0.13715,0.13462,0.0064
-11.4,-0.602,0.13572,0.13318,0.0057
-11.3,-0.5984,0.13431,0.13175,0.0049
-11.2,-0.5947,0.13293,0.13037,0.0041
-11.1,-0.5911,0.13157,0.12902,0.0034
-11,-0.5873,0.13023,0.12769,0.0026
-10.9,-0.5835,0.12889,0.12635,0.0018
-10.8,-0.5797,0.12757,0.12503,0.001
-10.7,-0.5759,0.12626,0.12372,0.0002
-10.6,-0.572,0.12497,0.12243,-0.0007
-10.5,-0.5682,0.12369,0.12115,-0.0015
-10.4,-0.5643,0.12239,0.11986,-0.0023
-10.3,-0.5604,0.12111,0.11858,-0.0031
-10.2,-0.5565,0.11983,0.11731,-0.0038
-10.1,-0.5527,0.11856,0.11604,-0.0046
-10,-0.5489,0.11729,0.11477,-0.0054
-9.9,-0.5452,0.11603,0.11352,-0.0062
-9.8,-0.5415,0.11478,0.11227,-0.0069
-9.7,-0.5379,0.11353,0.11102,-0.0076
-9.6,-0.5344,0.1123,0.1098,-0.0083
-9.5,-0.5311,0.11108,0.10859,-0.0089
-9.4,-0.528,0.10989,0.1074,-0.0095
-9.3,-0.5252,0.10872,0.10624,-0.01
-9.2,-0.5228,0.10759,0.10512,-0.0104
-9.1,-0.521,0.10652,0.10406,-0.0106
-9,-0.5199,0.10553,0.10308,-0.0106
-8.9,-0.5197,0.10462,0.10218,-0.0105
-8.7,-0.5223,0.10309,0.1007,-0.0093
-8.6,-0.5248,0.10245,0.10008,-0.0085
-8.5,-0.5272,0.1018,0.09945,-0.0076
-8.4,-0.525,0.10066,0.09832,-0.0081
-5.5,-0.0999,0.01899,0.01441,-0.1185
-5.4,-0.0857,0.01769,0.01284,-0.1198
-5.3,-0.0721,0.01682,0.01176,-0.1207
-5.2,-0.0587,0.01618,0.01094,-0.1215
-5.1,-0.0456,0.0157,0.01032,-0.1221
-5,-0.0324,0.01536,0.00988,-0.1226
-4.9,-0.0204,0.01446,0.00887,-0.1232
-4.7,0.0018,0.01399,0.00834,-0.1235
-4.6,0.0139,0.01368,0.00797,-0.1238
-4.5,0.0262,0.01338,0.00761,-0.1241
-4.4,0.0386,0.01309,0.00726,-0.1245
-4.3,0.0511,0.0128,0.0069,-0.1248
-4.2,0.0638,0.01252,0.00655,-0.1252
-4.1,0.0765,0.01224,0.0062,-0.1256
-4,0.0896,0.01197,0.00585,-0.126
-3.9,0.1024,0.01174,0.00555,-0.1263
-3.8,0.114,0.01157,0.00532,-0.1264
-3.7,0.125,0.01125,0.00497,-0.1265
-3.6,0.1365,0.01101,0.0047,-0.1266
-3.5,0.1485,0.01082,0.00448,-0.1267
-3.4,0.1607,0.01067,0.0043,-0.1269
-3.3,0.173,0.01052,0.00411,-0.1271
-3.2,0.1857,0.01036,0.0039,-0.1274
-3.1,0.1981,0.01023,0.00372,-0.1276
-3,0.2091,0.01008,0.00357,-0.1276
-2.9,0.2199,0.00997,0.00345,-0.1275
-2.8,0.2315,0.00987,0.00334,-0.1276
-2.7,0.2432,0.00977,0.00322,-0.1276
-2.6,0.2551,0.00968,0.0031,-0.1278
-2.4,0.2793,0.00952,0.00294,-0.1281
-2.3,0.2899,0.00945,0.00286,-0.128
-2.2,0.301,0.00939,0.00282,-0.128
-2.1,0.3125,0.00931,0.00274,-0.128
-2,0.3241,0.00924,0.00265,-0.128
-1.9,0.3358,0.00918,0.00257,-0.1281
-1.8,0.3478,0.0091,0.00248,-0.1282
-1.7,0.3588,0.00905,0.00244,-0.1282
-1.6,0.3696,0.00902,0.00241,-0.1281
-1.5,0.381,0.00896,0.00236,-0.1281
-1.4,0.3926,0.0089,0.00232,-0.1281
-1.3,0.4041,0.00885,0.00226,-0.1281
-1.2,0.4158,0.00882,0.00218,-0.1282
-1.1,0.4265,0.00877,0.00219,-0.1281
-1,0.4377,0.00874,0.00216,-0.1281
-0.9,0.449,0.0087,0.0021,-0.128
-0.8,0.4598,0.00864,0.00205,-0.1278
-0.7,0.4707,0.00861,0.00201,-0.1277
-0.6,0.482,0.00858,0.00196,-0.1276
-0.5,0.4928,0.00854,0.00195,-0.1274
-0.4,0.504,0.00852,0.00192,-0.1274
-0.3,0.5152,0.00849,0.00189,-0.1273
-0.2,0.5261,0.00846,0.00187,-0.1272
0,0.5483,0.00842,0.00184,-0.127
0.1,0.5593,0.00841,0.00183,-0.1269
0.2,0.5703,0.0084,0.0018,-0.1268
0.3,0.5813,0.00838,0.00179,-0.1267
0.4,0.5922,0.00838,0.00176,-0.1265
0.5,0.6033,0.00837,0.00176,-0.1265
0.6,0.6144,0.00835,0.00177,-0.1264
0.7,0.6253,0.00836,0.00176,-0.1263
0.8,0.636,0.00836,0.00175,-0.1261
0.9,0.6469,0.00837,0.00175,-0.126
1,0.6577,0.00837,0.00174,-0.1258
1.1,0.6687,0.00838,0.00175,-0.1258
1.2,0.6789,0.0084,0.00175,-0.1255
1.3,0.6898,0.00842,0.00176,-0.1254
1.4,0.7004,0.00845,0.00179,-0.1252
1.5,0.7109,0.00848,0.00179,-0.125
1.6,0.7205,0.00857,0.0018,-0.1246
1.7,0.7307,0.00862,0.00183,-0.1244
1.8,0.7411,0.00864,0.00187,-0.1242
1.9,0.7442,0.00738,0.00191,-0.1225
2,0.7542,0.00752,0.00195,-0.1222
2.1,0.7626,0.00779,0.00201,-0.1216
2.2,0.7724,0.00796,0.00208,-0.1213
2.3,0.7821,0.00814,0.00214,-0.121
2.4,0.7917,0.00833,0.00222,-0.1207
2.5,0.8012,0.00853,0.00231,-0.1204
2.6,0.8088,0.00896,0.00245,-0.1198
2.7,0.818,0.00921,0.00256,-0.1195
2.8,0.8272,0.00948,0.00268,-0.1191
2.9,0.8362,0.00977,0.0028,-0.1188
3,0.8453,0.01006,0.00298,-0.1185
3.1,0.8535,0.01048,0.00315,-0.1181
3.2,0.8635,0.01066,0.00327,-0.118
3.3,0.8735,0.01083,0.00338,-0.1178
3.4,0.8837,0.01097,0.00347,-0.1176
3.5,0.8939,0.01111,0.00358,-0.1175
3.6,0.9036,0.01132,0.0037,-0.1173
3.7,0.9138,0.01146,0.00381,-0.1171
3.8,0.9241,0.01158,0.00391,-0.117
3.9,0.9343,0.01172,0.00402,-0.1168
4,0.9446,0.01184,0.00411,-0.1167
4.1,0.9544,0.01202,0.00423,-0.1165
4.2,0.9645,0.01216,0.00433,-0.1163
4.3,0.9748,0.01228,0.00445,-0.1162
4.4,0.9849,0.01242,0.00455,-0.116
4.5,0.9947,0.0126,0.00471,-0.1158
4.6,1.0048,0.01274,0.00484,-0.1156
4.7,1.0149,0.01288,0.00495,-0.1155
4.8,1.0248,0.01303,0.00509,-0.1153
4.9,1.0349,0.01316,0.00521,-0.1151
5,1.0448,0.01333,0.00533,-0.1149
5.1,1.0548,0.01346,0.00548,-0.1147
5.2,1.0643,0.01367,0.00562,-0.1145
5.3,1.0743,0.01381,0.00576,-0.1143
5.4,1.0841,0.01398,0.0059,-0.1141
5.5,1.0939,0.01414,0.00606,-0.1139
5.6,1.1038,0.01429,0.00621,-0.1137
5.7,1.1134,0.01447,0.00637,-0.1134
5.8,1.123,0.01466,0.00657,-0.1132
5.9,1.1327,0.01484,0.00673,-0.113
6,1.1421,0.01504,0.00691,-0.1127
6.1,1.1519,0.01519,0.0071,-0.1125
6.2,1.1616,0.01536,0.00728,-0.1122
6.3,1.1712,0.01554,0.00747,-0.112
6.4,1.1806,0.01574,0.00767,-0.1117
6.5,1.1899,0.01596,0.00789,-0.1114
6.6,1.1995,0.01613,0.0081,-0.1112
6.8,1.2183,0.01652,0.0085,-0.1106
6.9,1.2274,0.01676,0.00873,-0.1103
7,1.2363,0.01702,0.009,-0.1099
7.1,1.2458,0.0172,0.00923,-0.1096
7.2,1.2551,0.01737,0.00943,-0.1094
7.3,1.2643,0.01759,0.00967,-0.1091
7.4,1.2732,0.01784,0.00993,-0.1087
7.5,1.2818,0.01813,0.01023,-0.1083
7.6,1.2907,0.01838,0.01051,-0.108
7.8,1.3091,0.01873,0.0109,-0.1074
7.9,1.3179,0.01898,0.01117,-0.1071
8,1.3264,0.01927,0.01147,-0.1067
8.1,1.3348,0.01956,0.01178,-0.1063
8.2,1.3436,0.0198,0.01208,-0.1059
8.3,1.3522,0.02006,0.01239,-0.1055
8.4,1.3607,0.02033,0.0127,-0.1051
8.5,1.3691,0.02061,0.01302,-0.1047
8.6,1.3773,0.0209,0.01337,-0.1042
8.7,1.3855,0.0212,0.0137,-0.1038
8.8,1.3932,0.02156,0.01409,-0.1033
8.9,1.4002,0.02201,0.01458,-0.1027
9,1.4082,0.02232,0.01493,-0.1022
9.1,1.416,0.02265,0.01533,-0.1016
9.2,1.4235,0.023,0.01575,-0.1011
9.3,1.4309,0.02337,0.01618,-0.1005
9.4,1.4381,0.02375,0.01662,-0.0999
9.5,1.4452,0.02413,0.01705,-0.0993
9.6,1.4522,0.02452,0.01749,-0.0987
9.7,1.4591,0.02491,0.01793,-0.0981
9.8,1.4657,0.02532,0.01839,-0.0974
9.9,1.472,0.02576,0.01888,-0.0968
10,1.4777,0.02626,0.01942,-0.096
10.1,1.4825,0.02685,0.02007,-0.0951
10.2,1.4852,0.02765,0.02093,-0.0939
10.3,1.4906,0.02813,0.02146,-0.0931
10.4,1.4963,0.02857,0.02201,-0.0923
10.6,1.5126,0.02886,0.02242,-0.0916
10.7,1.517,0.02937,0.02301,-0.0906
10.8,1.5211,0.02988,0.02359,-0.0896
10.9,1.5248,0.0304,0.02418,-0.0886
11,1.5275,0.03092,0.02476,-0.0874
11.1,1.5301,0.03144,0.02536,-0.0861
11.2,1.5325,0.03198,0.02596,-0.0849
11.3,1.5346,0.03254,0.02659,-0.0837
11.4,1.5366,0.03311,0.02723,-0.0825
11.5,1.5383,0.0337,0.02789,-0.0813
11.6,1.5397,0.03432,0.02858,-0.0801
11.7,1.5409,0.03496,0.02929,-0.0789
11.8,1.5417,0.03564,0.03003,-0.0777
11.9,1.5422,0.03633,0.0308,-0.0765
12,1.5424,0.03706,0.03159,-0.0753
12.1,1.5421,0.03784,0.03245,-0.0741
12.2,1.5414,0.03864,0.03332,-0.073
12.3,1.5402,0.03951,0.03426,-0.0718
12.4,1.5385,0.04042,0.03525,-0.0707
12.5,1.5363,0.04139,0.03629,-0.0696
12.6,1.5337,0.04242,0.0374,-0.0686
12.7,1.5302,0.04353,0.03859,-0.0676
12.8,1.5263,0.04472,0.03986,-0.0667
12.9,1.5223,0.04594,0.04116,-0.0659
13,1.5177,0.04727,0.04257,-0.0652
13.1,1.5125,0.04868,0.04406,-0.0646
13.2,1.5069,0.05017,0.04563,-0.0641
13.3,1.5009,0.05177,0.04732,-0.0638
13.4,1.4946,0.05347,0.04911,-0.0637
13.5,1.4884,0.05523,0.05095,-0.0638
13.6,1.4815,0.05716,0.05296,-0.0641
13.7,1.4747,0.05913,0.05502,-0.0647
13.8,1.4673,0.0613,0.05728,-0.0655
13.9,1.4599,0.06358,0.05965,-0.0666
14,1.4527,0.06599,0.06215,-0.0681
14.1,1.446,0.06848,0.06473,-0.0698
14.2,1.4392,0.07117,0.06751,-0.0719
14.3,1.4317,0.07417,0.07062,-0.0745
14.5,1.4201,0.08031,0.07695,-0.0805
14.6,1.414,0.08392,0.08068,-0.0843
14.7,1.4081,0.08795,0.08482,-0.0887
14.8,1.4025,0.09246,0.08945,-0.0937
14.9,1.3965,0.09784,0.09497,-0.0996
15,1.3907,0.10381,0.10108,-0.1057
15.1,1.3827,0.11065,0.10807,-0.1123
15.2,1.3739,0.11753,0.11508,-0.1186
15.3,1.3632,0.12487,0.12254,-0.1249
15.5,1.3378,0.14091,0.1388,-0.1379
15.6,1.3184,0.15241,0.15043,-0.1464
17.9,1.3158,0.24524,0.2433,-0.2024
18,1.319,0.24719,0.24525,-0.2038
18.1,1.3222,0.24909,0.24716,-0.2053
18.2,1.3253,0.25094,0.24901,-0.2067
18.3,1.3285,0.25278,0.25085,-0.2081
18.4,1.3317,0.25459,0.25266,-0.2095
18.5,1.3349,0.25637,0.25445,-0.2109
18.6,1.3381,0.25814,0.25622,-0.2123
18.7,1.3413,0.2599,0.25798,-0.2137
18.8,1.3444,0.26162,0.25971,-0.2151
18.9,1.3476,0.2633,0.26139,-0.2165
19,1.3507,0.26494,0.26304,-0.2179
19.1,1.3538,0.26666,0.26478,-0.2193
19.2,1.3569,0.26829,0.26642,-0.2207
19.3,1.36,0.26999,0.26811,-0.222
19.4,1.363,0.27154,0.26967,-0.2234
19.5,1.3661,0.27322,0.27136,-0.2248
19.6,1.3691,0.27483,0.27298,-0.2262
19.7,1.3722,0.27648,0.27463,-0.2276
19.8,1.3752,0.27817,0.27632,-0.2289
19.9,1.3781,0.27977,0.27793,-0.2303
20,1.3811,0.28144,0.2796,-0.2317
20.1,1.3841,0.28312,0.28128,-0.233
20.2,1.387,0.28485,0.28302,-0.2344
20.3,1.3899,0.28657,0.28474,-0.2358
20.4,1.3929,0.28841,0.28658,-0.2371
20.5,1.3956,0.29009,0.28827,-0.2384
20.6,1.3985,0.29197,0.29015,-0.2398
20.7,1.4014,0.29385,0.29204,-0.2411
20.8,1.4041,0.29574,0.29393,-0.2425
20.9,1.407,0.29767,0.29587,-0.2438
21,1.4098,0.29962,0.29782,-0.2451
21.1,1.4127,0.30161,0.29981,-0.2464
21.2,1.4167,0.30445,0.30263,-0.2482
21.3,1.4212,0.30753,0.30571,-0.2502
21.4,1.4255,0.31045,0.30863,-0.252
21.5,1.4298,0.31352,0.3117,-0.2539
21.6,1.4335,0.31603,0.31421,-0.2555
21.7,1.4374,0.31876,0.31694,-0.2572
21.8,1.4413,0.32146,0.31965,-0.2588
21.9,1.4451,0.32413,0.32232,-0.2605
22,1.4485,0.32637,0.32457,-0.262
22.1,1.4521,0.32884,0.32704,-0.2637
22.2,1.4557,0.33139,0.32959,-0.2653
22.3,1.4592,0.3337,0.3319,-0.2669
22.4,1.4627,0.33612,0.33432,-0.2685
22.5,1.4662,0.33845,0.33666,-0.2701
22.6,1.4695,0.34069,0.33891,-0.2717
22.7,1.473,0.3431,0.34131,-0.2733
22.8,1.4763,0.34529,0.34351,-0.2749
22.9,1.4797,0.34759,0.34583,-0.2765
23,1.483,0.3498,0.34805,-0.2781
23.1,1.4863,0.35203,0.35028,-0.2797
23.2,1.4896,0.35421,0.35247,-0.2813
23.3,1.4929,0.35641,0.35467,-0.2829
23.4,1.4961,0.35861,0.35688,-0.2845
23.5,1.4994,0.3608,0.35907,-0.2862
23.6,1.5033,0.36331,0.36158,-0.2882
23.7,1.5065,0.36541,0.36369,-0.2898
23.8,1.5097,0.3675,0.36578,-0.2914
23.9,1.5128,0.36959,0.36788,-0.2931
24,1.5159,0.37167,0.36996,-0.2947
24.1,1.5191,0.37374,0.37204,-0.2964
24.2,1.5222,0.37582,0.37412,-0.2981
24.3,1.5253,0.37787,0.37618,-0.2998
24.4,1.5284,0.37994,0.37825,-0.3014
24.5,1.5314,0.38199,0.38031,-0.3031
24.6,1.5345,0.38403,0.38235,-0.3048
24.7,1.5375,0.38608,0.38441,-0.3065
24.8,1.5405,0.3881,0.38643,-0.3082
24.9,1.5435,0.39012,0.38846,-0.3099
25,1.5465,0.39214,0.39049,-0.3116
25.1,1.5494,0.39416,0.39252,-0.3133
25.2,1.5524,0.39617,0.39453,-0.315
25.3,1.5553,0.39816,0.39652,-0.3168
25.4,1.5582,0.40016,0.39853,-0.3185
25.5,1.5611,0.40213,0.4005,-0.3202
25.6,1.5639,0.4041,0.40248,-0.3219
25.7,1.5668,0.40613,0.40451,-0.3237
25.8,1.5696,0.40805,0.40645,-0.3254
25.9,1.5725,0.41,0.4084,-0.3272
26,1.5752,0.41193,0.41034,-0.3289
26.1,1.578,0.4139,0.41232,-0.3307
26.2,1.5807,0.4158,0.41424,-0.3324
26.3,1.5835,0.41779,0.41623,-0.3342
26.4,1.5862,0.41979,0.41824,-0.3359
26.5,1.5888,0.42169,0.42014,-0.3377
26.6,1.5915,0.42365,0.42211,-0.3395
26.7,1.5941,0.42548,0.42395,-0.3412
26.8,1.5967,0.42754,0.42602,-0.343
26.9,1.5993,0.42948,0.42796,-0.3448
27,1.6018,0.43139,0.42988,-0.3465
27.1,1.6044,0.43335,0.43184,-0.3483
27.2,1.6069,0.43534,0.43384,-0.3501
27.3,1.6094,0.43738,0.43589,-0.3519
27.4,1.6118,0.43931,0.43782,-0.3536
27.5,1.6143,0.44139,0.43991,-0.3554
27.6,1.6168,0.44347,0.44199,-0.3572
27.7,1.6191,0.44548,0.44402,-0.3589
27.8,1.6215,0.44761,0.44615,-0.3607
27.9,1.6238,0.44974,0.44828,-0.3625
28,1.6262,0.45191,0.45047,-0.3642
28.1,1.6285,0.45414,0.4527,-0.366
28.2,1.6308,0.45642,0.45498,-0.3678
28.3,1.6332,0.45869,0.45726,-0.3695
28.4,1.6354,0.46104,0.45962,-0.3713
28.5,1.6377,0.46342,0.46201,-0.3731
28.6,1.64,0.4658,0.4644,-0.3748
28.7,1.6422,0.46827,0.46687,-0.3766
28.8,1.6444,0.47084,0.46944,-0.3783
28.9,1.6467,0.47322,0.47183,-0.3801
29,1.6489,0.47587,0.47449,-0.3818
29.1,1.6511,0.47834,0.47696,-0.3836
29.2,1.6533,0.48091,0.47956,-0.3854
29.3,1.6555,0.48345,0.48211,-0.3872
29.4,1.6577,0.48598,0.48464,-0.389
29.5,1.6599,0.48851,0.48717,-0.3908
29.6,1.662,0.49109,0.48976,-0.3926
29.7,1.6642,0.49359,0.49227,-0.3944
29.8,1.6663,0.49627,0.49496,-0.3962
29.9,1.6684,0.49881,0.4975,-0.398
30,1.6705,0.50142,0.50012,-0.3998

