airfoilName st23.dat
Re 	1.100000e+05
M 	0
N 	4.500000e+00
VACC 	0 VACCflag 1
XTR 	1.00 	1.00 XTRflag 0
alpha,cl,cd,cdp,cm
-28.5,-1.168,0.48686,0.48262,0.2171
-28.4,-1.1652,0.48446,0.48021,0.2154
-28.3,-1.1625,0.48204,0.47778,0.2138
-28.2,-1.1597,0.47964,0.47538,0.2121
-28.1,-1.1569,0.47725,0.47297,0.2104
-28,-1.1541,0.47485,0.47057,0.2087
-27.9,-1.1513,0.47245,0.46817,0.2071
-27.8,-1.1485,0.47007,0.46577,0.2054
-27.7,-1.1456,0.4677,0.46339,0.2038
-27.6,-1.1428,0.46532,0.46101,0.2021
-27.5,-1.1399,0.46294,0.45862,0.2005
-27.4,-1.1371,0.46057,0.45622,0.1989
-27.3,-1.1342,0.45822,0.45386,0.1972
-27.2,-1.1313,0.45586,0.45149,0.1956
-27.1,-1.1284,0.45351,0.44913,0.194
-27,-1.1254,0.45116,0.44677,0.1924
-26.9,-1.1225,0.44881,0.44442,0.1908
-26.8,-1.1195,0.44647,0.44207,0.1892
-26.7,-1.1165,0.44414,0.43973,0.1876
-26.6,-1.1136,0.44182,0.43741,0.186
-26.5,-1.1106,0.43949,0.43507,0.1844
-26.4,-1.1076,0.43716,0.43273,0.1828
-26.3,-1.1046,0.43486,0.43042,0.1813
-26.2,-1.1015,0.43253,0.42809,0.1797
-26.1,-1.0985,0.43025,0.42579,0.1781
-26,-1.0954,0.42795,0.42349,0.1766
-25.9,-1.0924,0.42564,0.42118,0.175
-25.8,-1.0893,0.42335,0.41888,0.1735
-25.7,-1.0862,0.42107,0.41659,0.1719
-25.6,-1.0831,0.4188,0.41431,0.1704
-25.5,-1.08,0.41651,0.41202,0.1689
-25.4,-1.0768,0.41425,0.40974,0.1673
-25.3,-1.0737,0.41198,0.40746,0.1658
-25.2,-1.0706,0.40972,0.4052,0.1643
-25.1,-1.0674,0.40746,0.40294,0.1628
-25,-1.0642,0.40521,0.40068,0.1613
-24.9,-1.061,0.40297,0.39843,0.1598
-24.8,-1.0578,0.40073,0.39619,0.1583
-24.7,-1.0546,0.39851,0.39393,0.1568
-24.6,-1.0514,0.39628,0.3917,0.1553
-24.5,-1.0482,0.39406,0.38947,0.1538
-24.4,-1.0449,0.39185,0.38725,0.1523
-24.3,-1.0417,0.38963,0.38502,0.1509
-24.2,-1.0384,0.38743,0.38282,0.1494
-24.1,-1.0351,0.38524,0.38062,0.1479
-24,-1.0318,0.38304,0.37842,0.1465
-23.9,-1.0285,0.38086,0.37623,0.145
-23.8,-1.0252,0.37868,0.37404,0.1436
-23.7,-1.0219,0.37651,0.37187,0.1421
-23.6,-1.0186,0.37434,0.3697,0.1407
-23.5,-1.0152,0.37218,0.36753,0.1392
-23.4,-1.0119,0.37002,0.36536,0.1378
-23.3,-1.0085,0.36788,0.36321,0.1363
-23.2,-1.0051,0.36574,0.36107,0.1349
-23.1,-1.0018,0.36361,0.35893,0.1335
-23,-0.9984,0.36147,0.35679,0.1321
-22.9,-0.995,0.35936,0.35467,0.1306
-22.8,-0.9915,0.35724,0.35255,0.1292
-22.7,-0.9881,0.35513,0.35043,0.1278
-22.6,-0.9846,0.35303,0.34833,0.1264
-22.5,-0.9812,0.35093,0.34623,0.125
-22.4,-0.9777,0.34884,0.34413,0.1236
-22.3,-0.9742,0.34676,0.34204,0.1222
-22.2,-0.9708,0.34468,0.33996,0.1208
-22.1,-0.9672,0.34261,0.33788,0.1193
-22,-0.9637,0.34054,0.33581,0.1179
-21.9,-0.9602,0.33849,0.33375,0.1165
-21.8,-0.9566,0.33643,0.33167,0.1151
-21.7,-0.9531,0.33438,0.32961,0.1137
-21.6,-0.9495,0.33233,0.32755,0.1123
-21.5,-0.9459,0.33028,0.3255,0.1109
-21.4,-0.9423,0.32823,0.32345,0.1095
-21.3,-0.9386,0.32619,0.3214,0.108
-21.2,-0.935,0.32414,0.31935,0.1066
-21.1,-0.9313,0.32208,0.31729,0.1052
-21,-0.9276,0.32001,0.31522,0.1038
-20.9,-0.9239,0.31794,0.31314,0.1024
-20.8,-0.9201,0.31584,0.31104,0.1009
-20.7,-0.9163,0.31372,0.30892,0.0995
-20.6,-0.9124,0.31156,0.30675,0.098
-20.5,-0.9086,0.30937,0.30456,0.0966
-20.4,-0.9045,0.30708,0.30227,0.0952
-20.2,-0.896,0.30228,0.29746,0.0922
-19.6,-0.8704,0.28818,0.28341,0.0833
-19.5,-0.8671,0.28615,0.28137,0.0822
-19.4,-0.8638,0.28414,0.27936,0.0812
-19.3,-0.8605,0.28214,0.27735,0.0801
-19.2,-0.8572,0.28015,0.27536,0.079
-19.1,-0.8539,0.27818,0.27338,0.0779
-19,-0.8506,0.27622,0.27142,0.0769
-18.9,-0.8473,0.27427,0.26946,0.0758
-18.8,-0.844,0.27233,0.26752,0.0747
-18.7,-0.8406,0.2704,0.26559,0.0736
-18.6,-0.8372,0.26848,0.26367,0.0726
-18.5,-0.8339,0.26658,0.26176,0.0715
-18.4,-0.8305,0.26467,0.25982,0.0704
-18.3,-0.8271,0.26279,0.25793,0.0694
-18.2,-0.8237,0.2609,0.25604,0.0683
-18.1,-0.8203,0.25902,0.25415,0.0672
-18,-0.8169,0.25715,0.25228,0.0662
-17.9,-0.8134,0.25528,0.25041,0.0651
-17.8,-0.81,0.25342,0.24854,0.0641
-17.7,-0.8065,0.25156,0.24669,0.063
-17.6,-0.803,0.24971,0.24483,0.062
-17.5,-0.7996,0.24787,0.24298,0.0609
-17.4,-0.7961,0.24603,0.24114,0.0599
-17.3,-0.7926,0.2442,0.23931,0.0589
-17.2,-0.7891,0.24237,0.23748,0.0578
-17.1,-0.7856,0.24055,0.23566,0.0568
-17,-0.7821,0.23874,0.23384,0.0558
-16.9,-0.7786,0.23693,0.23203,0.0548
-16.8,-0.7751,0.23513,0.23023,0.0538
-16.7,-0.7716,0.23333,0.22843,0.0528
-16.6,-0.7681,0.23153,0.22663,0.0518
-16.5,-0.7646,0.22975,0.22484,0.0508
-16.4,-0.761,0.22797,0.22306,0.0498
-16.3,-0.7575,0.22619,0.22128,0.0488
-16.2,-0.754,0.22442,0.21951,0.0478
-16.1,-0.7505,0.22265,0.21774,0.0469
-16,-0.747,0.22089,0.21597,0.0459
-15.9,-0.7434,0.21913,0.21421,0.0449
-15.8,-0.7399,0.21738,0.21246,0.044
-15.7,-0.7364,0.21563,0.21071,0.043
-15.6,-0.7328,0.21388,0.20896,0.0421
-15.5,-0.7293,0.21214,0.20721,0.0411
-15.4,-0.7257,0.21039,0.20547,0.0402
-15.3,-0.7222,0.20865,0.2037,0.0393
-15.2,-0.7186,0.20692,0.20196,0.0383
-15.1,-0.715,0.20519,0.20023,0.0374
-15,-0.7114,0.20344,0.19849,0.0364
-14.9,-0.7079,0.20172,0.19676,0.0355
-14.8,-0.7043,0.19998,0.19502,0.0346
-14.7,-0.7007,0.19825,0.19329,0.0337
-14.6,-0.6971,0.19653,0.19157,0.0327
-14.5,-0.6935,0.1948,0.18984,0.0318
-14.4,-0.6899,0.19307,0.18811,0.0309
-14.3,-0.6863,0.19134,0.18639,0.03
-14.2,-0.6826,0.18961,0.18465,0.0291
-14.1,-0.679,0.18787,0.18292,0.0282
-14,-0.6754,0.18613,0.18118,0.0272
-13.9,-0.6717,0.18438,0.17943,0.0263
-13.8,-0.6681,0.18263,0.17768,0.0254
-13.7,-0.6644,0.18087,0.17592,0.0245
-13.6,-0.6607,0.1791,0.17415,0.0235
-13.5,-0.6569,0.17731,0.17236,0.0226
-13.4,-0.6531,0.17551,0.17056,0.0216
-13.3,-0.6493,0.17367,0.16872,0.0206
-13.2,-0.6454,0.17179,0.16685,0.0196
-13.1,-0.6415,0.16989,0.16495,0.0186
-13,-0.6373,0.16787,0.16294,0.0174
-12.9,-0.6327,0.16569,0.16076,0.0159
-12.8,-0.626,0.163,0.15815,0.012
-12.7,-0.6229,0.16124,0.15639,0.0115
-12.6,-0.6197,0.15952,0.15466,0.011
-12.5,-0.6165,0.15783,0.15298,0.0104
-12.4,-0.6133,0.15617,0.15132,0.0098
-12.3,-0.6101,0.15454,0.14969,0.0092
-12.2,-0.6069,0.15294,0.14809,0.0086
-12.1,-0.6043,0.15169,0.14683,0.0083
-12,-0.601,0.15015,0.1453,0.0076
-11.9,-0.5976,0.14862,0.14378,0.0069
-11.8,-0.5943,0.14711,0.14227,0.0062
-11.7,-0.5909,0.14562,0.14077,0.0055
-11.6,-0.5875,0.14413,0.13925,0.0048
-11.5,-0.5841,0.14265,0.13778,0.0041
-11.4,-0.5807,0.14118,0.13631,0.0034
-11.3,-0.5773,0.13971,0.13485,0.0027
-11.2,-0.5738,0.13826,0.1334,0.002
-11.1,-0.5704,0.13682,0.13196,0.0013
-11,-0.5669,0.13538,0.13053,0.0006
-10.9,-0.5635,0.13395,0.1291,-0.0001
-10.8,-0.56,0.13252,0.12768,-0.0008
-10.7,-0.5566,0.13111,0.12627,-0.0015
-10.6,-0.5531,0.1297,0.12486,-0.0022
-10.5,-0.5497,0.1283,0.12347,-0.0029
-10.4,-0.5462,0.1269,0.12208,-0.0036
-10.3,-0.5428,0.12552,0.1207,-0.0043
-10.2,-0.5394,0.12414,0.11933,-0.005
-10.1,-0.536,0.12277,0.11796,-0.0057
-10,-0.5326,0.12141,0.11661,-0.0064
-9.9,-0.5293,0.12005,0.11526,-0.0071
-9.8,-0.5259,0.1187,0.11392,-0.0078
-9.7,-0.5227,0.11736,0.11258,-0.0084
-9.6,-0.5195,0.11603,0.11126,-0.0091
-9.5,-0.5163,0.11471,0.10995,-0.0097
-9.4,-0.5132,0.1134,0.10865,-0.0104
-9.3,-0.5102,0.1121,0.10736,-0.011
-9.2,-0.5074,0.11081,0.10608,-0.0116
-9.1,-0.5046,0.10954,0.10483,-0.0121
-9,-0.502,0.10829,0.10358,-0.0127
-8.9,-0.4996,0.10705,0.10236,-0.0131
-8.8,-0.4975,0.10583,0.10116,-0.0136
-8.7,-0.4955,0.10463,0.09997,-0.014
-8.6,-0.4937,0.10344,0.0988,-0.0144
-8.5,-0.4917,0.10222,0.0976,-0.0148
-8.4,-0.4895,0.10098,0.09637,-0.0153
-8.3,-0.4869,0.09969,0.09509,-0.016
-8.2,-0.4844,0.0984,0.09382,-0.0166
-8.1,-0.482,0.09709,0.09252,-0.0173
-8,-0.4795,0.09577,0.09121,-0.018
-7.9,-0.4771,0.09443,0.08986,-0.0186
-7.8,-0.4747,0.09305,0.0885,-0.0194
-7.7,-0.4722,0.09163,0.08709,-0.0201
-7.6,-0.4698,0.09013,0.08561,-0.021
-7.5,-0.4673,0.08851,0.084,-0.022
-7.4,-0.4645,0.08669,0.08219,-0.0233
-7.3,-0.461,0.08425,0.07977,-0.0255
-7.2,-0.4562,0.08116,0.07676,-0.0289
-7,-0.4518,0.07906,0.07465,-0.0289
-6.9,-0.4494,0.07803,0.07363,-0.029
-6.8,-0.4468,0.077,0.07261,-0.0291
-6.7,-0.444,0.07597,0.07159,-0.0293
-6.6,-0.441,0.07493,0.07056,-0.0295
-6.5,-0.4378,0.07388,0.06952,-0.0297
-6.4,-0.4343,0.07284,0.06848,-0.03
-6.3,-0.4296,0.0717,0.06734,-0.0306
-6.2,-0.418,0.07015,0.06576,-0.0329
-6.1,-0.4061,0.06857,0.06415,-0.0352
-6,-0.3938,0.06697,0.06252,-0.0375
-5.9,-0.381,0.06532,0.06084,-0.04
-5.8,-0.3677,0.06363,0.05911,-0.0426
-5.7,-0.353,0.06207,0.0575,-0.0456
-5.5,-0.3233,0.05802,0.05334,-0.0515
-5.4,-0.3076,0.05578,0.05103,-0.0547
-5.2,-0.2339,0.03629,0.03044,-0.0785
-5.1,-0.2231,0.03571,0.02992,-0.079
-5,-0.2114,0.03521,0.02943,-0.0797
-4.9,-0.1989,0.0346,0.0288,-0.0806
-4.8,-0.1857,0.03386,0.02801,-0.0817
-4.7,-0.1721,0.03297,0.02704,-0.083
-4.6,-0.1588,0.03193,0.02589,-0.0842
-4.5,-0.1439,0.03065,0.02444,-0.0858
-4.4,-0.129,0.02921,0.02282,-0.0873
-4.3,-0.1136,0.02761,0.02096,-0.089
-4.2,-0.0979,0.02588,0.01891,-0.0906
-4.1,-0.0822,0.02415,0.01677,-0.0921
-4,-0.0667,0.02269,0.0148,-0.0933
-3.9,-0.0532,0.02188,0.01388,-0.0941
-3.8,-0.0403,0.02145,0.01346,-0.0948
-3.7,-0.0265,0.02109,0.01308,-0.0955
-3.6,-0.0131,0.02073,0.01266,-0.0962
-3.5,0.0004,0.02032,0.01216,-0.0968
-3.4,0.0142,0.01983,0.01153,-0.0975
-3.3,0.0285,0.01952,0.01091,-0.0981
-3.2,0.0418,0.01908,0.01047,-0.0988
-3.1,0.0534,0.01882,0.01022,-0.099
-3,0.0664,0.01854,0.00989,-0.0995
-2.9,0.0793,0.01821,0.00948,-0.0999
-2.8,0.0933,0.01783,0.00895,-0.1005
-2.7,0.1067,0.0175,0.00858,-0.101
-2.6,0.1203,0.01754,0.00868,-0.1017
-2.5,0.134,0.01726,0.00833,-0.1022
-2.4,0.1478,0.01699,0.00794,-0.1027
-2.3,0.1624,0.01675,0.00775,-0.1036
-2.2,0.1763,0.01658,0.00757,-0.1042
-2.1,0.1871,0.01655,0.00747,-0.1041
-2,0.1992,0.01638,0.00731,-0.1044
-1.9,0.2118,0.01624,0.00715,-0.1047
-1.8,0.2249,0.01609,0.00691,-0.1051
-1.6,0.2523,0.01593,0.00675,-0.1063
-1.5,0.2669,0.01578,0.00666,-0.107
-1.4,0.2807,0.01567,0.00654,-0.1076
-1.2,0.3039,0.01558,0.00644,-0.1078
-1.1,0.3161,0.01549,0.00636,-0.1081
-1,0.3294,0.01539,0.00628,-0.1085
-0.9,0.3427,0.01533,0.00614,-0.109
-0.8,0.3561,0.01529,0.00616,-0.1095
-0.7,0.3705,0.01518,0.00607,-0.1102
-0.6,0.3844,0.0151,0.00599,-0.1107
-0.5,0.3943,0.01507,0.00597,-0.1105
-0.4,0.4055,0.015,0.00593,-0.1105
-0.3,0.418,0.01495,0.00593,-0.1108
-0.2,0.4315,0.01487,0.00584,-0.1113
0,0.4587,0.0147,0.00575,-0.1123
0.1,0.4694,0.01462,0.00574,-0.1122
0.2,0.4802,0.01457,0.00574,-0.1122
0.3,0.4928,0.01447,0.00569,-0.1125
0.4,0.5058,0.01438,0.00566,-0.1129
0.5,0.5217,0.0141,0.00553,-0.1137
0.6,0.5303,0.01394,0.00548,-0.113
0.7,0.5444,0.01368,0.0054,-0.1136
0.9,0.5575,0.01264,0.00527,-0.1108
1,0.5713,0.01254,0.00512,-0.111
1.1,0.5812,0.01256,0.00512,-0.1106
1.2,0.5924,0.01259,0.00512,-0.1105
1.3,0.6062,0.0125,0.00501,-0.1107
1.4,0.6153,0.01254,0.00504,-0.1102
1.5,0.6275,0.01251,0.00499,-0.1102
1.6,0.6379,0.01247,0.00496,-0.1098
1.7,0.6502,0.01246,0.00494,-0.1099
1.8,0.6612,0.01246,0.00494,-0.1097
1.9,0.6732,0.01242,0.00487,-0.1096
2,0.6851,0.0123,0.00472,-0.1093
2.1,0.6953,0.01234,0.00477,-0.109
2.2,0.7079,0.01231,0.00474,-0.109
2.3,0.7195,0.01226,0.00467,-0.1088
2.4,0.7305,0.01227,0.00469,-0.1086
2.5,0.7425,0.01226,0.00468,-0.1086
2.6,0.7544,0.01225,0.00467,-0.1085
2.7,0.7664,0.0122,0.00459,-0.1083
2.8,0.7782,0.0122,0.00458,-0.1082
2.9,0.7899,0.01221,0.00457,-0.108
3,0.8015,0.01222,0.00461,-0.1078
3.1,0.8131,0.01221,0.00448,-0.1074
3.2,0.8239,0.01228,0.00445,-0.107
3.3,0.8341,0.01239,0.00444,-0.1065
3.4,0.8436,0.01256,0.00446,-0.1059
3.5,0.8524,0.01278,0.00451,-0.1052
3.6,0.8586,0.01322,0.0046,-0.104
3.7,0.8663,0.01356,0.00474,-0.1033
3.8,0.8738,0.01393,0.00492,-0.1026
3.9,0.8813,0.01431,0.00509,-0.102
4,0.8891,0.01468,0.00531,-0.1014
4.1,0.8958,0.0152,0.00554,-0.1008
4.2,0.9044,0.01552,0.00577,-0.1004
4.3,0.9134,0.01581,0.00598,-0.1
4.4,0.9225,0.01608,0.0062,-0.0997
4.5,0.9317,0.01634,0.0065,-0.0994
4.6,0.9402,0.01668,0.00673,-0.0991
4.7,0.9495,0.01694,0.00697,-0.0988
4.8,0.9589,0.01717,0.00719,-0.0985
4.9,0.9683,0.01741,0.00742,-0.0982
5,0.9777,0.01764,0.00765,-0.0979
5.1,0.9866,0.01792,0.00785,-0.0976
5.2,0.996,0.01815,0.00809,-0.0973
5.3,1.0053,0.01837,0.00832,-0.097
5.4,1.0146,0.01862,0.00857,-0.0967
5.5,1.024,0.01884,0.00881,-0.0964
5.6,1.033,0.01909,0.009,-0.0962
5.7,1.042,0.01936,0.00924,-0.0958
5.8,1.0514,0.01958,0.00951,-0.0955
5.9,1.0605,0.01984,0.00983,-0.0952
6,1.0695,0.02011,0.01011,-0.0949
6.1,1.0784,0.02036,0.0103,-0.0946
6.2,1.0876,0.02062,0.0106,-0.0943
6.3,1.0965,0.02089,0.01091,-0.0939
6.4,1.1052,0.0212,0.01121,-0.0935
6.5,1.114,0.0215,0.01154,-0.0932
6.6,1.1229,0.0218,0.0119,-0.0928
6.7,1.1314,0.02213,0.01225,-0.0924
6.8,1.1402,0.02239,0.01247,-0.0921
6.9,1.1488,0.02271,0.01285,-0.0917
7,1.1571,0.02307,0.01321,-0.0913
7.1,1.1648,0.02348,0.01361,-0.0908
7.2,1.1733,0.02385,0.01404,-0.0903
7.3,1.1816,0.02423,0.01454,-0.0898
7.4,1.1898,0.02463,0.015,-0.0894
7.5,1.1975,0.02493,0.01522,-0.0891
7.6,1.2056,0.02535,0.01569,-0.0886
7.7,1.2137,0.02577,0.01621,-0.0881
7.8,1.2216,0.02621,0.01672,-0.0875
7.9,1.2293,0.02666,0.01722,-0.087
8,1.2367,0.02712,0.01772,-0.0865
8.1,1.2435,0.02765,0.01825,-0.0859
8.2,1.2492,0.02835,0.01887,-0.0852
8.4,1.2665,0.02898,0.01981,-0.0844
8.5,1.2735,0.02949,0.02038,-0.0839
8.6,1.2803,0.03001,0.02094,-0.0833
8.7,1.2866,0.03057,0.02153,-0.0827
8.8,1.292,0.03125,0.02221,-0.0819
8.9,1.2978,0.032,0.023,-0.0812
9,1.3051,0.0326,0.02379,-0.0806
9.1,1.3135,0.03272,0.02407,-0.0803
9.2,1.3196,0.03332,0.02474,-0.0797
9.3,1.3254,0.03391,0.0254,-0.079
9.4,1.3308,0.03451,0.02605,-0.0783
9.5,1.3358,0.03516,0.02673,-0.0776
9.6,1.3399,0.03592,0.02751,-0.0768
9.7,1.3435,0.03685,0.0284,-0.0759
9.8,1.3493,0.03759,0.02937,-0.0751
9.9,1.3542,0.03844,0.03039,-0.0743
10,1.3586,0.03931,0.03142,-0.0735
10.1,1.3625,0.04017,0.03241,-0.0726
10.2,1.366,0.04102,0.03336,-0.0717
10.3,1.3691,0.04184,0.03428,-0.0708
10.6,1.3767,0.04282,0.03535,-0.0681
10.7,1.3773,0.04362,0.03618,-0.0669
10.8,1.3773,0.04452,0.03712,-0.0658
10.9,1.377,0.04555,0.03816,-0.0646
11,1.3772,0.04662,0.03946,-0.0635
11.1,1.3767,0.04776,0.04083,-0.0624
11.2,1.3754,0.04895,0.0422,-0.0612
11.3,1.3736,0.05017,0.04358,-0.0602
11.4,1.3713,0.05141,0.04496,-0.0591
11.5,1.3686,0.05268,0.04637,-0.0581
11.6,1.3655,0.05398,0.0478,-0.0572
11.7,1.362,0.05531,0.04925,-0.0564
11.8,1.3581,0.05667,0.05073,-0.0557
11.9,1.3539,0.05808,0.05226,-0.0551
12,1.3493,0.05955,0.05384,-0.0545
12.1,1.3444,0.06107,0.05547,-0.0542
12.2,1.3391,0.06265,0.05717,-0.0539
12.3,1.3335,0.06432,0.05894,-0.0538
12.4,1.3276,0.06608,0.0608,-0.0539
12.5,1.3213,0.06793,0.06275,-0.0542
12.6,1.3146,0.06991,0.06483,-0.0547
12.7,1.3076,0.07201,0.06704,-0.0555
12.8,1.3002,0.07429,0.06941,-0.0565
12.9,1.2924,0.07674,0.07197,-0.0579
13,1.2841,0.07941,0.07473,-0.0597
13.1,1.2753,0.08236,0.0778,-0.0619
13.2,1.266,0.08564,0.08119,-0.0647
13.3,1.2562,0.08935,0.085,-0.0681
13.7,1.2115,0.11214,0.10819,-0.0918
13.8,1.2002,0.12007,0.1162,-0.0994
13.9,1.1899,0.12789,0.12406,-0.1062
14,1.18,0.1357,0.13189,-0.1124
14.1,1.1697,0.1444,0.14058,-0.1187
14.2,1.1611,0.15284,0.149,-0.1242
14.3,1.156,0.1597,0.15584,-0.1283
14.4,1.1543,0.16437,0.16049,-0.1311
14.5,1.1542,0.16794,0.16405,-0.1332
14.6,1.1548,0.17094,0.16704,-0.1351
14.7,1.156,0.17357,0.16967,-0.1368
14.8,1.1574,0.17594,0.17204,-0.1384
14.9,1.159,0.17812,0.17421,-0.1398
15,1.1609,0.1801,0.1762,-0.1412
15.1,1.1628,0.18194,0.17805,-0.1424
15.2,1.1649,0.18369,0.17979,-0.1437
15.3,1.1671,0.1853,0.18141,-0.1448
15.4,1.1693,0.1868,0.18292,-0.1459
15.5,1.1716,0.18822,0.18434,-0.147
15.6,1.1739,0.18957,0.1857,-0.1481
15.7,1.1763,0.19075,0.18689,-0.149
15.8,1.1787,0.19191,0.18806,-0.15
15.9,1.1811,0.19288,0.18903,-0.1508
16,1.1835,0.19373,0.18989,-0.1515
16.1,1.1858,0.19447,0.19064,-0.1522
16.3,1.1878,0.21191,0.20794,-0.1616
16.4,1.1906,0.21462,0.21066,-0.1633
16.5,1.1934,0.21711,0.21315,-0.1648
16.6,1.1962,0.21937,0.2154,-0.1663
16.7,1.1991,0.22151,0.21755,-0.1677
16.8,1.202,0.22357,0.21961,-0.1691
16.9,1.2049,0.22553,0.22158,-0.1705
17,1.2079,0.22743,0.22348,-0.1718
17.1,1.2108,0.22926,0.22531,-0.1731
17.2,1.2138,0.23105,0.22711,-0.1743
17.3,1.2167,0.23278,0.22885,-0.1756
17.4,1.2197,0.23449,0.23056,-0.1769
17.5,1.2227,0.23614,0.23221,-0.1781
17.6,1.2256,0.23774,0.23383,-0.1793
17.7,1.2285,0.2393,0.23539,-0.1805
17.8,1.2314,0.2408,0.2369,-0.1816
17.9,1.2343,0.24229,0.23839,-0.1828
18,1.2372,0.24371,0.23983,-0.1839
18.1,1.24,0.24512,0.24125,-0.185
18.2,1.2428,0.24647,0.2426,-0.1861
18.3,1.2455,0.24782,0.24396,-0.1872
18.4,1.2482,0.24909,0.24524,-0.1882
18.5,1.2508,0.25038,0.24658,-0.1892
18.6,1.2533,0.2516,0.24781,-0.1901
18.7,1.2603,0.26079,0.25687,-0.195
18.8,1.2643,0.26389,0.25997,-0.1969
18.9,1.268,0.26663,0.2627,-0.1986
19,1.2716,0.26911,0.26519,-0.2002
19.1,1.2759,0.27218,0.26825,-0.2025
19.2,1.2793,0.27421,0.27032,-0.2039
19.3,1.2826,0.2762,0.27232,-0.2053
19.4,1.286,0.27816,0.27428,-0.2067
19.5,1.2893,0.28009,0.27622,-0.2081
19.6,1.2926,0.28202,0.27816,-0.2095
19.7,1.2959,0.28391,0.28005,-0.2109
19.8,1.2992,0.28577,0.28192,-0.2123
19.9,1.3025,0.28765,0.28381,-0.2137
20,1.3057,0.28948,0.28565,-0.2151
20.1,1.309,0.29131,0.28748,-0.2164
20.2,1.3122,0.2931,0.28929,-0.2178
20.3,1.3154,0.29491,0.2911,-0.2192
20.4,1.3186,0.29671,0.29291,-0.2206
20.5,1.3218,0.2985,0.29471,-0.2219
20.6,1.325,0.30026,0.29647,-0.2233
20.7,1.3281,0.30201,0.29823,-0.2247
20.8,1.3313,0.30374,0.29998,-0.226
20.9,1.3344,0.30547,0.30171,-0.2274
21,1.3374,0.30718,0.30343,-0.2287
21.1,1.3405,0.30892,0.30518,-0.2301
21.2,1.3435,0.3106,0.30687,-0.2315
21.3,1.3465,0.31229,0.30857,-0.2328
21.4,1.3495,0.31397,0.31026,-0.2341
21.5,1.3524,0.31571,0.31201,-0.2354
21.6,1.3553,0.31737,0.31369,-0.2367
21.7,1.3582,0.31913,0.31545,-0.2381
21.8,1.361,0.32083,0.31716,-0.2393
21.9,1.3638,0.32254,0.31888,-0.2406
22,1.3665,0.32427,0.32062,-0.2418
22.1,1.374,0.33062,0.3269,-0.2454
22.2,1.3785,0.33411,0.33038,-0.2475
22.3,1.3826,0.33708,0.33336,-0.2494
22.4,1.3865,0.33976,0.33605,-0.2511
22.5,1.3902,0.34235,0.33864,-0.2528
22.6,1.3938,0.34485,0.34114,-0.2545
22.7,1.3973,0.3472,0.34354,-0.2561
22.8,1.4008,0.34955,0.34589,-0.2578
22.9,1.4042,0.35187,0.34821,-0.2594
23,1.4077,0.35416,0.35051,-0.261
23.1,1.411,0.35638,0.35274,-0.2626
23.2,1.4143,0.35862,0.35499,-0.2642
23.3,1.4177,0.36082,0.35719,-0.2658
23.4,1.4209,0.36301,0.35939,-0.2675
23.5,1.4242,0.3652,0.36159,-0.2691
23.6,1.4274,0.36737,0.36376,-0.2707
23.7,1.4307,0.36954,0.36594,-0.2723
23.8,1.4339,0.37169,0.3681,-0.2739
23.9,1.4371,0.37385,0.37027,-0.2755
24,1.4402,0.37599,0.37242,-0.2771
24.1,1.4433,0.37812,0.37456,-0.2787
24.2,1.4465,0.38026,0.37671,-0.2804
24.3,1.4496,0.38239,0.37885,-0.282
24.4,1.4527,0.38452,0.38098,-0.2836
24.5,1.4558,0.38665,0.38313,-0.2852
24.6,1.4589,0.38878,0.38527,-0.2869
24.7,1.4619,0.3909,0.3874,-0.2885
24.8,1.4649,0.39302,0.38953,-0.2901
24.9,1.4679,0.39515,0.39167,-0.2918
25,1.4709,0.39728,0.3938,-0.2934
25.1,1.4739,0.39941,0.39595,-0.2951
25.2,1.4769,0.40153,0.39808,-0.2967
25.3,1.4799,0.40367,0.40023,-0.2984
25.4,1.4828,0.4058,0.40236,-0.3001
25.5,1.4857,0.40794,0.40451,-0.3017
25.6,1.4886,0.41006,0.40665,-0.3034
25.7,1.4915,0.41221,0.40881,-0.3051
25.8,1.4944,0.41435,0.41095,-0.3067
25.9,1.4972,0.41648,0.41309,-0.3084
26,1.5001,0.41862,0.41528,-0.3101
26.1,1.5029,0.42077,0.41744,-0.3118
26.2,1.5057,0.42292,0.4196,-0.3135
26.3,1.5085,0.42508,0.42177,-0.3152
26.4,1.5112,0.42721,0.42391,-0.3169
26.5,1.514,0.42936,0.42608,-0.3186
26.6,1.5167,0.43153,0.42825,-0.3203
26.7,1.5194,0.43369,0.43042,-0.322
26.8,1.5221,0.43586,0.43261,-0.3237
26.9,1.5248,0.43802,0.43478,-0.3254
27,1.5274,0.44018,0.43695,-0.3271
27.2,1.5321,0.44357,0.44037,-0.3306
27.3,1.5346,0.44577,0.44258,-0.3323
27.4,1.5372,0.44796,0.44478,-0.334
27.5,1.5397,0.45016,0.44699,-0.3357
27.6,1.5421,0.45238,0.44923,-0.3374
27.7,1.5446,0.45461,0.45146,-0.3391
27.8,1.547,0.45684,0.45371,-0.3408
27.9,1.5494,0.4591,0.45598,-0.3425
28,1.5517,0.46139,0.45828,-0.3442
28.1,1.5541,0.46369,0.4606,-0.3459
28.2,1.5564,0.466,0.46292,-0.3475
28.3,1.5587,0.46837,0.4653,-0.3492
28.4,1.5609,0.47076,0.4677,-0.3509
28.5,1.5632,0.47317,0.47013,-0.3525
28.6,1.5654,0.47558,0.47255,-0.3542
28.7,1.5744,0.4818,0.47868,-0.3587
28.8,1.5779,0.48494,0.48183,-0.3609
28.9,1.5812,0.4879,0.48479,-0.363
29,1.5841,0.49062,0.48751,-0.3651
29.1,1.587,0.49328,0.49018,-0.3671
29.2,1.5898,0.49588,0.49282,-0.3691
29.3,1.5926,0.49844,0.49539,-0.3711
29.4,1.5953,0.50096,0.49792,-0.3731
29.5,1.598,0.50345,0.50041,-0.3751
29.6,1.6005,0.50588,0.50285,-0.3771
29.7,1.6031,0.50831,0.50529,-0.3791
29.8,1.6056,0.51075,0.50775,-0.3811
29.9,1.6081,0.51317,0.51017,-0.3831
30,1.6106,0.51556,0.51257,-0.385

