airfoilName st23.dat
Re 	10000
M 	0
N 	4.500000e+00
VACC 	0 VACCflag 1
XTR 	1.00 	1.00 XTRflag 0
alpha,cl,cd,cdp,cm
-11.3,-0.5957,0.1721,0.15594,-0.0115
-11.2,-0.5918,0.17035,0.15418,-0.012
-11.1,-0.588,0.16862,0.15246,-0.0125
-11,-0.5841,0.16692,0.15065,-0.0131
-10.9,-0.5804,0.16524,0.14897,-0.0136
-10.8,-0.5766,0.16358,0.14731,-0.0142
-10.7,-0.5729,0.16193,0.14567,-0.0148
-10.6,-0.5692,0.16031,0.14405,-0.0154
-10.5,-0.5656,0.15871,0.14245,-0.016
-10.4,-0.5619,0.15712,0.14087,-0.0167
-10.3,-0.5583,0.15554,0.1393,-0.0174
-10.2,-0.5548,0.15398,0.13775,-0.0181
-10.1,-0.5512,0.15244,0.13622,-0.0188
-10,-0.5477,0.15092,0.1347,-0.0196
-9.9,-0.5442,0.1494,0.1332,-0.0203
-9.8,-0.5406,0.14787,0.13168,-0.0212
-9.7,-0.5373,0.14641,0.13023,-0.022
-9.6,-0.5339,0.14494,0.12877,-0.0229
-9.5,-0.5305,0.14348,0.12732,-0.0239
-9.4,-0.5272,0.14204,0.12589,-0.025
-9.3,-0.5239,0.1406,0.12447,-0.0261
-9.2,-0.5206,0.13919,0.12307,-0.0273
-9.1,-0.5175,0.13779,0.12169,-0.0287
-9,-0.5144,0.13641,0.12032,-0.0302
-8.9,-0.5115,0.13505,0.11897,-0.032
-8.8,-0.5088,0.13374,0.11766,-0.0341
-8.7,-0.5061,0.13239,0.11654,-0.0363
-8.6,-0.5012,0.13052,0.11467,-0.0358
-8.5,-0.4965,0.12877,0.11292,-0.0355
-8.4,-0.4919,0.1271,0.11125,-0.0354
-8.3,-0.4873,0.12548,0.10964,-0.0354
-8.2,-0.4828,0.12391,0.10807,-0.0354
-8.1,-0.4783,0.12237,0.10653,-0.0356
-8,-0.4739,0.12086,0.10501,-0.0358
-7.9,-0.4694,0.11936,0.10351,-0.0361
-7.8,-0.4649,0.11787,0.10203,-0.0364
-7.7,-0.4604,0.1164,0.10055,-0.0368
-7.6,-0.4558,0.11493,0.09898,-0.0373
-7.5,-0.4512,0.11347,0.09752,-0.0379
-7.4,-0.4466,0.11201,0.09605,-0.0385
-7.3,-0.4417,0.11054,0.09458,-0.0392
-7.2,-0.4369,0.10909,0.09311,-0.04
-7.1,-0.4318,0.10762,0.09162,-0.0409
-7,-0.4266,0.10613,0.09011,-0.042
-6.9,-0.4211,0.10462,0.08857,-0.0434
-6.8,-0.4153,0.10307,0.08698,-0.045
-6.7,-0.4089,0.10146,0.08529,-0.0471
-6.6,-0.4022,0.09977,0.08347,-0.0499
-6.5,-0.396,0.09815,0.082,-0.0513
-6.4,-0.3911,0.09677,0.08065,-0.0507
-6.3,-0.386,0.09542,0.07932,-0.0503
-6.2,-0.3807,0.09409,0.078,-0.0501
-6.1,-0.3752,0.09277,0.07667,-0.0501
-6,-0.3694,0.09145,0.07533,-0.0503
-5.9,-0.3635,0.09047,0.0743,-0.051
-5.8,-0.3565,0.08901,0.07279,-0.052
-5.7,-0.3487,0.0875,0.07119,-0.0533
-5.6,-0.34,0.0859,0.06946,-0.0551
-5.4,-0.3191,0.08237,0.06567,-0.0602
-5.3,-0.3136,0.08115,0.0645,-0.0595
-5.2,-0.3076,0.07994,0.06332,-0.0592
-5.1,-0.3011,0.07874,0.06212,-0.059
-5,-0.2939,0.07751,0.06086,-0.0592
-4.9,-0.2861,0.07624,0.05943,-0.0596
-4.8,-0.2773,0.0749,0.05801,-0.0604
-4.7,-0.2671,0.07348,0.05644,-0.0617
-4.6,-0.2541,0.07185,0.05451,-0.0641
-4.5,-0.2407,0.0702,0.05267,-0.0665
-4.4,-0.2345,0.06914,0.05169,-0.0659
-4.3,-0.2274,0.06808,0.05066,-0.0657
-4.2,-0.2193,0.06699,0.04953,-0.0658
-4.1,-0.2097,0.06582,0.04826,-0.0664
-4,-0.1978,0.06452,0.04673,-0.0678
-3.8,-0.1775,0.06244,0.04449,-0.0694
-3.7,-0.1678,0.06137,0.04332,-0.0698
-3.5,-0.1419,0.05897,0.04043,-0.0726
-3.4,-0.1344,0.05805,0.03958,-0.0722
-3.3,-0.1252,0.05711,0.03859,-0.0723
-3.2,-0.1125,0.05608,0.03727,-0.0734
-3.1,-0.1006,0.05507,0.03611,-0.0743
-3,-0.0924,0.0542,0.03519,-0.0741
-2.9,-0.0816,0.05331,0.03415,-0.0745
-2.7,-0.0601,0.0518,0.03238,-0.0755
-2.6,-0.0482,0.05095,0.03138,-0.0762
-2.5,-0.0391,0.05013,0.03057,-0.0761
-2.4,-0.0259,0.04938,0.02953,-0.077
-2.3,-0.0174,0.04856,0.02879,-0.0768
-2.2,-0.0045,0.04788,0.02783,-0.0776
-2.1,0.0042,0.04707,0.02712,-0.0773
-1.9,0.0258,0.04581,0.02568,-0.078
-1.8,0.0361,0.04509,0.0249,-0.0781
-1.7,0.0464,0.04436,0.0242,-0.0782
-1.6,0.0573,0.04369,0.02349,-0.0784
-1.5,0.0681,0.04302,0.02269,-0.0786
-1.4,0.0769,0.04233,0.02216,-0.0784
-1.3,0.0873,0.04165,0.02152,-0.0785
-1.2,0.0977,0.04097,0.0209,-0.0785
-1.1,0.1083,0.04032,0.02035,-0.0785
-1,0.118,0.03959,0.01978,-0.0783
-0.9,0.1266,0.0388,0.01928,-0.0779
-0.8,0.1361,0.03804,0.01875,-0.0776
-0.7,0.1453,0.03726,0.01825,-0.0771
-0.6,0.1536,0.03643,0.01772,-0.0763
-0.5,0.1573,0.03529,0.01721,-0.0741
-0.3,0.1726,0.03562,0.01586,-0.0704
-0.2,0.1864,0.03581,0.0155,-0.0709
0,0.211,0.03616,0.01486,-0.0715
0.1,0.2224,0.03632,0.01464,-0.0716
0.2,0.2334,0.03648,0.01445,-0.0717
0.3,0.244,0.03664,0.0143,-0.0717
0.4,0.2544,0.03681,0.01418,-0.0717
0.5,0.2646,0.03697,0.01409,-0.0717
0.6,0.2747,0.03714,0.01403,-0.0716
0.7,0.2845,0.03732,0.01399,-0.0716
0.8,0.2943,0.03749,0.01397,-0.0715
0.9,0.3039,0.03768,0.01397,-0.0714
1,0.3135,0.03786,0.014,-0.0713
1.1,0.323,0.03805,0.01404,-0.0712
1.2,0.3324,0.03825,0.0141,-0.0711
1.3,0.3417,0.03845,0.01418,-0.0711
1.4,0.3509,0.03865,0.01428,-0.071
1.5,0.3601,0.03886,0.01439,-0.0709
1.6,0.3692,0.03908,0.01451,-0.0708
1.7,0.3783,0.0393,0.01465,-0.0707
1.8,0.3873,0.03953,0.01481,-0.0706
1.9,0.3962,0.03977,0.01499,-0.0705
2,0.4051,0.04001,0.01518,-0.0705
2.1,0.414,0.04026,0.01539,-0.0704
2.2,0.4228,0.04052,0.01561,-0.0703
2.3,0.4315,0.04078,0.01585,-0.0703
2.4,0.4402,0.04105,0.0161,-0.0702
2.5,0.4489,0.04132,0.01637,-0.0702
2.6,0.4575,0.04161,0.01666,-0.0702
2.7,0.4661,0.0419,0.01696,-0.0701
2.8,0.4746,0.0422,0.01727,-0.0701
2.9,0.483,0.0425,0.0176,-0.0701
3,0.4914,0.04282,0.01795,-0.0701
3.1,0.4998,0.04315,0.01832,-0.0701
3.2,0.5081,0.04348,0.01878,-0.0701
3.3,0.5163,0.04382,0.01917,-0.0702
3.4,0.5245,0.04418,0.01958,-0.0702
3.5,0.5326,0.04454,0.02001,-0.0703
3.6,0.5407,0.04492,0.02045,-0.0704
3.7,0.5487,0.0453,0.02091,-0.0705
3.8,0.5566,0.0457,0.02139,-0.0706
3.9,0.5645,0.04611,0.02189,-0.0707
4,0.5723,0.04653,0.02241,-0.0708
4.1,0.58,0.04697,0.02295,-0.071
4.2,0.5877,0.04742,0.02352,-0.0712
4.3,0.5952,0.04788,0.0241,-0.0714
4.4,0.603,0.04837,0.02471,-0.0717
4.5,0.6229,0.04911,0.02564,-0.0742
4.6,0.6429,0.04986,0.02661,-0.0768
4.7,0.662,0.05059,0.02757,-0.0792
4.8,0.6809,0.05132,0.02871,-0.0816
4.9,0.7005,0.05208,0.02972,-0.0841
5,0.7216,0.05288,0.0308,-0.0868
5.1,0.7415,0.05356,0.0318,-0.0891
5.2,0.7617,0.05421,0.03278,-0.0912
5.3,0.7837,0.0547,0.03362,-0.0931
5.4,0.8043,0.05511,0.03437,-0.0945
5.5,0.82,0.05552,0.03511,-0.0952
5.6,0.8332,0.05586,0.03574,-0.0953
5.7,0.8476,0.05614,0.03632,-0.0953
5.8,0.861,0.05665,0.03716,-0.0956
5.9,0.8733,0.05685,0.03785,-0.095
6.1,0.8961,0.0575,0.03907,-0.0937
6.2,0.9068,0.05757,0.03939,-0.0923
6.3,0.9206,0.05798,0.04011,-0.0919
6.4,0.9347,0.05784,0.04025,-0.0902
6.5,0.9512,0.05815,0.04088,-0.0897
6.6,0.9693,0.05781,0.0408,-0.0878
6.7,0.9905,0.0579,0.04123,-0.087
6.8,1.0099,0.0575,0.04105,-0.0848
7,1.0503,0.0575,0.04151,-0.0818
7.1,1.071,0.05791,0.042,-0.0808
7.3,1.0972,0.0591,0.04311,-0.0781
7.4,1.111,0.06005,0.04402,-0.0773
7.6,1.126,0.06202,0.0458,-0.0751
7.7,1.1361,0.06325,0.04698,-0.0745
7.8,1.1474,0.0645,0.04812,-0.0739
7.9,1.1526,0.06594,0.0497,-0.0733
8,1.1591,0.06739,0.05116,-0.0728
8.2,1.1731,0.06973,0.05327,-0.0712
8.3,1.1735,0.07133,0.05514,-0.0707
8.4,1.1847,0.07274,0.05655,-0.0702
8.5,1.1838,0.07441,0.0585,-0.0697
8.6,1.1976,0.0758,0.05978,-0.0693
8.7,1.1939,0.07754,0.06176,-0.0688
8.8,1.1985,0.07913,0.06348,-0.0684
9,1.2021,0.08171,0.06616,-0.0671
9.1,1.2087,0.08328,0.06768,-0.0667
9.2,1.2053,0.08514,0.06981,-0.0664
9.3,1.2082,0.08683,0.07162,-0.0661
9.4,1.2217,0.08822,0.07283,-0.0657
9.5,1.2154,0.09023,0.07512,-0.0655
9.6,1.2124,0.09218,0.07726,-0.0654
9.7,1.2156,0.0939,0.07909,-0.0652
9.8,1.2311,0.09523,0.08022,-0.0647
9.9,1.2233,0.09736,0.0826,-0.0647
10,1.2175,0.09945,0.08488,-0.0647
10.1,1.2145,0.10147,0.08703,-0.0648
10.2,1.2173,0.10323,0.08888,-0.0646
10.3,1.218,0.10406,0.0896,-0.064
10.4,1.211,0.10627,0.09195,-0.0643
10.5,1.2055,0.10846,0.09425,-0.0647
10.6,1.2023,0.11054,0.09642,-0.065
10.7,1.2042,0.11237,0.09832,-0.065
10.8,1.2276,0.11325,0.09904,-0.0638
10.9,1.2182,0.11562,0.10153,-0.0644
11.2,1.1942,0.12274,0.10887,-0.067
11.3,1.1882,0.12508,0.11124,-0.0679
11.4,1.1837,0.12729,0.11349,-0.0687
11.5,1.1816,0.12932,0.11556,-0.0692
11.6,1.1875,0.13099,0.1173,-0.069
11.7,1.2098,0.13204,0.11829,-0.0674
11.8,1.2001,0.13443,0.1207,-0.0686
12,1.1823,0.13923,0.1255,-0.0712
12.1,1.1746,0.14169,0.12796,-0.0727
12.2,1.1679,0.14416,0.13041,-0.0743
12.3,1.1624,0.14661,0.13286,-0.076
12.4,1.1584,0.149,0.13525,-0.0775
12.5,1.1564,0.15125,0.13751,-0.0787
12.6,1.1572,0.15329,0.13958,-0.0795
12.7,1.1637,0.15488,0.14125,-0.079
12.9,1.1797,0.15807,0.14443,-0.0777
13.1,1.1644,0.16343,0.14972,-0.0827
13.2,1.1585,0.16611,0.15236,-0.0853
13.3,1.1538,0.16876,0.15498,-0.0878
13.4,1.1506,0.17134,0.15753,-0.09
13.6,1.1455,0.17529,0.16144,-0.0938
13.7,1.1507,0.17687,0.1631,-0.0934
13.9,1.1688,0.1794,0.16582,-0.0904
14,1.1624,0.18233,0.16867,-0.0938
14.1,1.1574,0.18525,0.17153,-0.0972
14.2,1.1539,0.18803,0.17426,-0.1003
14.3,1.1516,0.19061,0.17679,-0.103
14.4,1.1507,0.19304,0.1792,-0.1052
14.5,1.1507,0.19534,0.18149,-0.1071
14.6,1.1517,0.19752,0.18367,-0.1087
14.7,1.1535,0.1996,0.18577,-0.1099
14.8,1.1561,0.20159,0.1878,-0.1108
14.9,1.1597,0.20349,0.18975,-0.1112
15,1.1644,0.20529,0.19161,-0.1112
15.1,1.1708,0.20695,0.19338,-0.1104
15.2,1.1815,0.20831,0.19492,-0.1078
15.3,1.1793,0.21088,0.19722,-0.1107
15.4,1.1758,0.21346,0.19973,-0.1143
15.5,1.1738,0.2159,0.20211,-0.1174
15.6,1.173,0.21821,0.20438,-0.1201
15.7,1.1731,0.22044,0.20658,-0.1224
15.8,1.174,0.22259,0.20872,-0.1244
15.9,1.1756,0.2247,0.21083,-0.1262
16,1.1776,0.22678,0.21292,-0.1277
16.1,1.1801,0.22882,0.21498,-0.1289
16.2,1.1829,0.23086,0.21704,-0.13
16.3,1.1861,0.23287,0.2191,-0.1309
16.4,1.1897,0.23488,0.22115,-0.1316
16.5,1.1937,0.2369,0.22322,-0.132
16.6,1.2015,0.23784,0.22434,-0.1292
16.8,1.2018,0.24221,0.22842,-0.1344
16.9,1.2016,0.2443,0.23046,-0.1374
17,1.2022,0.24636,0.23248,-0.1401
17.1,1.2036,0.24839,0.2345,-0.1424
17.2,1.2054,0.25041,0.23651,-0.1444
17.3,1.2076,0.25242,0.23852,-0.1462
17.4,1.2102,0.25443,0.24054,-0.1478
17.5,1.2129,0.25645,0.24257,-0.1493
17.6,1.2158,0.25847,0.24462,-0.1506
17.7,1.219,0.26049,0.24667,-0.1519
17.8,1.2222,0.26254,0.24874,-0.153
17.9,1.2256,0.26459,0.25083,-0.154
18,1.2291,0.26666,0.25294,-0.1548
18.1,1.2328,0.26877,0.25509,-0.1556
18.2,1.2366,0.2709,0.25728,-0.1562
18.3,1.2406,0.27309,0.25952,-0.1567
18.4,1.2448,0.27536,0.26185,-0.157
18.5,1.2493,0.27774,0.26443,-0.1571
18.6,1.2543,0.28033,0.26711,-0.1567
18.9,1.2573,0.28561,0.27202,-0.1658
19,1.2594,0.28743,0.27382,-0.1683
19.1,1.2617,0.28931,0.27569,-0.1706
19.2,1.2644,0.29123,0.27761,-0.1726
19.3,1.2672,0.29318,0.27956,-0.1745
19.4,1.2701,0.29516,0.28156,-0.1762
19.5,1.2732,0.29716,0.28358,-0.1779
19.6,1.2764,0.2992,0.28563,-0.1794
19.7,1.2796,0.30126,0.28771,-0.1809
19.8,1.2829,0.30334,0.28982,-0.1822
19.9,1.2862,0.30544,0.29195,-0.1836
20,1.2895,0.30757,0.29412,-0.1848
20.1,1.2929,0.30973,0.29631,-0.186
20.2,1.2964,0.31191,0.29853,-0.1872
20.3,1.2998,0.31413,0.30078,-0.1883
20.4,1.3033,0.31637,0.30306,-0.1893
20.5,1.3068,0.31865,0.30539,-0.1903
20.6,1.3103,0.32098,0.30777,-0.1912
20.7,1.3139,0.32337,0.3102,-0.1921
20.8,1.3176,0.32583,0.31272,-0.1929
20.9,1.3212,0.32838,0.31532,-0.1936
21,1.3249,0.33105,0.31805,-0.1942
22.1,1.3559,0.35004,0.3368,-0.2185
22.2,1.3591,0.3522,0.339,-0.22
22.3,1.3624,0.35439,0.34121,-0.2214
22.4,1.3657,0.3566,0.34345,-0.2229
22.5,1.369,0.35883,0.34583,-0.2243
22.6,1.3723,0.36109,0.34813,-0.2256
22.7,1.3755,0.36337,0.35044,-0.227
22.8,1.3788,0.36567,0.35278,-0.2283
22.9,1.382,0.368,0.35516,-0.2296
23,1.3853,0.37038,0.35757,-0.2308
23.1,1.3885,0.37276,0.36,-0.2321
23.2,1.3917,0.37521,0.36249,-0.2333
23.3,1.3949,0.37769,0.36501,-0.2344
23.4,1.3981,0.38022,0.36759,-0.2356
23.5,1.4013,0.38281,0.37023,-0.2367
23.6,1.4045,0.38548,0.37295,-0.2377
23.7,1.4077,0.38823,0.37576,-0.2387
23.8,1.4108,0.39109,0.37867,-0.2397
23.9,1.414,0.39412,0.38176,-0.2405
24.3,1.426,0.4002,0.38755,-0.2513
24.4,1.4292,0.402,0.38936,-0.2537
24.5,1.4323,0.4039,0.39127,-0.256
24.6,1.4355,0.4059,0.39328,-0.2581

