airfoilName st23.dat
Re 	210000
M 	0
N 	4.500000e+00
VACC 	0 VACCflag 1
XTR 	1.00 	1.00 XTRflag 0
alpha,cl,cd,cdp,cm
-15,-0.7128,0.1983,0.19483,0.0375
-14.9,-0.7095,0.19657,0.19311,0.0366
-14.8,-0.7062,0.19486,0.1914,0.0358
-14.7,-0.7029,0.19317,0.1897,0.0349
-14.6,-0.6996,0.19149,0.18802,0.0341
-14.5,-0.6962,0.18982,0.18635,0.0332
-14.4,-0.6929,0.18816,0.18469,0.0324
-14.3,-0.6895,0.18652,0.18305,0.0315
-14.2,-0.6861,0.18488,0.18141,0.0307
-14.1,-0.6827,0.18326,0.17979,0.0298
-14,-0.6793,0.18164,0.17817,0.029
-13.9,-0.6759,0.18003,0.17657,0.0281
-13.8,-0.6725,0.17844,0.17497,0.0272
-13.7,-0.669,0.17684,0.17337,0.0264
-13.6,-0.6656,0.17526,0.17179,0.0255
-13.5,-0.6621,0.17368,0.17021,0.0247
-13.4,-0.6585,0.1721,0.16863,0.0238
-13.3,-0.655,0.17053,0.16706,0.023
-13.2,-0.6515,0.16897,0.1655,0.0221
-13.1,-0.648,0.1674,0.16394,0.0212
-13,-0.6444,0.16585,0.16239,0.0204
-12.9,-0.6408,0.16429,0.16083,0.0195
-12.8,-0.6373,0.16274,0.15928,0.0187
-12.7,-0.6337,0.16119,0.15774,0.0178
-12.6,-0.6301,0.15965,0.15619,0.017
-12.5,-0.6265,0.1581,0.15464,0.0161
-12.4,-0.6229,0.15655,0.1531,0.0153
-12.3,-0.6193,0.15501,0.15155,0.0144
-12.2,-0.6156,0.15346,0.15001,0.0136
-12.1,-0.612,0.15191,0.14847,0.0127
-12,-0.6083,0.15037,0.14692,0.0119
-11.8,-0.601,0.14728,0.14382,0.0102
-11.7,-0.5973,0.14573,0.14227,0.0093
-11.6,-0.5936,0.14418,0.14072,0.0085
-11.5,-0.59,0.14262,0.13917,0.0077
-11.4,-0.5863,0.14107,0.13761,0.0068
-11.3,-0.5826,0.1395,0.13605,0.006
-11.2,-0.5788,0.13792,0.13447,0.0051
-11.1,-0.5751,0.13634,0.1329,0.0043
-11,-0.5714,0.13474,0.13129,0.0034
-10.9,-0.5677,0.13313,0.12969,0.0025
-10.8,-0.5639,0.13151,0.12807,0.0017
-10.7,-0.5602,0.12985,0.12641,0.0008
-10.6,-0.5564,0.12816,0.12473,-0.0001
-10.5,-0.5526,0.12643,0.123,-0.0011
-10.4,-0.5487,0.12463,0.1212,-0.0021
-10.3,-0.541,0.12018,0.11683,-0.0074
-10.2,-0.5379,0.11864,0.11528,-0.0079
-10.1,-0.5349,0.11712,0.11377,-0.0084
-10,-0.5318,0.11564,0.11229,-0.0089
-9.9,-0.5288,0.11418,0.11084,-0.0094
-9.8,-0.5258,0.11275,0.10941,-0.0099
-9.7,-0.5229,0.11135,0.10802,-0.0105
-9.6,-0.5199,0.10998,0.10665,-0.011
-9.5,-0.5171,0.10864,0.10531,-0.0115
-9.4,-0.5143,0.10733,0.10401,-0.012
-9.3,-0.5116,0.10605,0.10273,-0.0125
-9.2,-0.5091,0.1048,0.10149,-0.0129
-9.1,-0.5067,0.10358,0.10029,-0.0134
-9,-0.5045,0.10241,0.09912,-0.0137
-8.9,-0.5026,0.10127,0.09799,-0.014
-8.8,-0.501,0.10018,0.09691,-0.0143
-8.7,-0.4998,0.09914,0.09588,-0.0144
-8.6,-0.4989,0.09813,0.09489,-0.0145
-8.5,-0.498,0.09713,0.0939,-0.0145
-8.4,-0.4965,0.09607,0.09286,-0.0148
-8.3,-0.4948,0.09501,0.09181,-0.0151
-8.2,-0.4934,0.09398,0.09079,-0.0154
-8.1,-0.4922,0.09297,0.08981,-0.0155
-8,-0.4912,0.09199,0.08884,-0.0157
-7.9,-0.4905,0.09104,0.0879,-0.0157
-7.8,-0.4901,0.0901,0.08698,-0.0157
-7.7,-0.4899,0.08919,0.08609,-0.0156
-7.6,-0.49,0.0883,0.08522,-0.0155
-7.5,-0.4903,0.08744,0.08438,-0.0153
-7.4,-0.4877,0.08633,0.08325,-0.0158
-7.3,-0.4777,0.08462,0.08154,-0.0183
-7.2,-0.4665,0.08284,0.07973,-0.021
-7.1,-0.4559,0.08111,0.07799,-0.0236
-7,-0.4449,0.07935,0.07622,-0.0262
-5.9,-0.2703,0.04243,0.03864,-0.077
-5.8,-0.258,0.04136,0.03753,-0.0785
-5.7,-0.2446,0.04019,0.03632,-0.0804
-5.6,-0.2304,0.03895,0.03503,-0.0824
-5.5,-0.2145,0.03744,0.03344,-0.0848
-5.3,-0.1873,0.03655,0.03249,-0.0875
-5.2,-0.1679,0.03327,0.02903,-0.0914
-5.1,-0.1386,0.02406,0.01895,-0.0996
-5,-0.1231,0.02222,0.01679,-0.1014
-4.9,-0.1107,0.02096,0.01528,-0.1022
-4.8,-0.098,0.0199,0.01398,-0.1029
-4.7,-0.085,0.01898,0.01283,-0.1036
-4.6,-0.072,0.01823,0.01185,-0.1042
-4.5,-0.0585,0.01763,0.01103,-0.1049
-4.4,-0.0454,0.01715,0.01041,-0.1054
-4.3,-0.0325,0.01644,0.00966,-0.1061
-4.2,-0.0195,0.01604,0.00922,-0.1066
-4.1,-0.0064,0.01572,0.00887,-0.1072
-4,0.0068,0.01543,0.00853,-0.1077
-3.9,0.0201,0.01513,0.00817,-0.1083
-3.8,0.0336,0.01482,0.00779,-0.1088
-3.7,0.0478,0.01448,0.00737,-0.1095
-3.6,0.0614,0.01418,0.00696,-0.11
-3.5,0.0739,0.01394,0.00662,-0.1103
-3.4,0.0845,0.01363,0.00631,-0.1103
-3.3,0.0966,0.01343,0.00609,-0.1105
-3.2,0.1097,0.01323,0.00586,-0.1109
-3.1,0.1229,0.01303,0.00563,-0.1113
-2.8,0.1624,0.01261,0.00516,-0.1127
-2.7,0.1757,0.01245,0.00496,-0.1131
-2.6,0.1884,0.0123,0.00475,-0.1134
-2.5,0.1985,0.01225,0.00476,-0.1132
-2.4,0.2101,0.01213,0.00463,-0.1133
-2.3,0.2226,0.012,0.00443,-0.1136
-2.2,0.2352,0.01187,0.00429,-0.1139
-2.1,0.2484,0.01175,0.00418,-0.1143
-2,0.2612,0.0117,0.00412,-0.1146
-1.9,0.2748,0.01157,0.004,-0.1151
-1.8,0.2862,0.01149,0.00393,-0.1152
-1.7,0.2965,0.01143,0.00385,-0.1149
-1.6,0.3083,0.01136,0.00377,-0.115
-1.5,0.3204,0.01131,0.00377,-0.1152
-1.4,0.3331,0.01123,0.00365,-0.1155
-1.3,0.3459,0.01115,0.0036,-0.1158
-1.2,0.3592,0.01106,0.00352,-0.1162
-1.1,0.3691,0.01104,0.00347,-0.1159
-0.9,0.3919,0.01095,0.00341,-0.116
-0.8,0.4042,0.01089,0.00338,-0.1162
-0.7,0.4169,0.01082,0.00331,-0.1164
-0.5,0.4389,0.01068,0.00321,-0.1161
-0.4,0.4518,0.01059,0.00312,-0.1163
-0.2,0.4734,0.01052,0.00306,-0.116
0,0.4969,0.0104,0.00299,-0.1161
0.1,0.5079,0.01035,0.00298,-0.116
0.2,0.5202,0.01026,0.00287,-0.116
0.3,0.5307,0.01023,0.00287,-0.1158
0.4,0.5421,0.01019,0.00285,-0.1158
0.5,0.5537,0.01011,0.0028,-0.1158
0.6,0.5647,0.01006,0.00278,-0.1157
0.7,0.5763,0.01,0.00276,-0.1157
0.8,0.5873,0.00994,0.00273,-0.1156
0.9,0.5988,0.00986,0.00268,-0.1155
1,0.6098,0.00973,0.00271,-0.1155
1.2,0.6241,0.00837,0.00266,-0.1134
1.3,0.6351,0.00837,0.0026,-0.1131
1.4,0.6462,0.0084,0.0026,-0.113
1.5,0.6571,0.00842,0.00259,-0.1128
1.6,0.6681,0.00844,0.00257,-0.1126
1.7,0.6786,0.00848,0.00252,-0.1122
1.8,0.6894,0.00853,0.00252,-0.112
1.9,0.7002,0.00858,0.00253,-0.1118
2,0.7109,0.00863,0.00253,-0.1116
2.1,0.7215,0.0087,0.00254,-0.1113
2.2,0.7311,0.00882,0.00252,-0.1108
2.3,0.7412,0.00892,0.00254,-0.1104
2.4,0.751,0.00906,0.00257,-0.11
2.5,0.7605,0.00922,0.0026,-0.1096
2.6,0.7684,0.00953,0.00266,-0.1088
2.7,0.7775,0.00974,0.00274,-0.1084
2.8,0.7865,0.00998,0.00284,-0.1079
2.9,0.7954,0.01023,0.00298,-0.1075
3,0.804,0.01052,0.00309,-0.107
3.1,0.8126,0.01082,0.00323,-0.1066
3.2,0.8192,0.01135,0.00343,-0.1059
3.3,0.8281,0.01166,0.00358,-0.1055
3.4,0.8372,0.01194,0.00373,-0.1052
3.5,0.8467,0.01218,0.00387,-0.105
3.6,0.8563,0.01239,0.00402,-0.1048
3.7,0.8655,0.01267,0.00418,-0.1045
3.8,0.8753,0.01286,0.00432,-0.1043
3.9,0.8854,0.01301,0.00445,-0.1041
4,0.8953,0.01318,0.00459,-0.1039
4.1,0.9054,0.01334,0.00472,-0.1037
4.2,0.915,0.01355,0.00487,-0.1035
4.3,0.9249,0.01371,0.00501,-0.1033
4.4,0.935,0.01386,0.00519,-0.1031
4.5,0.9449,0.01402,0.00534,-0.1029
4.6,0.955,0.01417,0.00548,-0.1027
4.7,0.9648,0.01434,0.00564,-0.1025
4.8,0.9744,0.01454,0.00576,-0.1023
4.9,0.9844,0.01469,0.00592,-0.1021
5,0.9943,0.01485,0.00607,-0.1019
5.1,1.0041,0.01502,0.00624,-0.1017
5.2,1.014,0.01518,0.00639,-0.1015
5.3,1.0235,0.01539,0.00654,-0.1013
5.4,1.0332,0.01556,0.00671,-0.1011
5.5,1.0428,0.01575,0.00689,-0.1008
5.6,1.0526,0.01592,0.00707,-0.1006
5.7,1.0622,0.01612,0.00725,-0.1003
5.8,1.0717,0.01631,0.0075,-0.1001
5.9,1.0811,0.01652,0.00766,-0.0999
6,1.0905,0.01673,0.00787,-0.0996
6.1,1.1001,0.01692,0.00808,-0.0993
6.2,1.1095,0.01712,0.0083,-0.0991
6.3,1.1187,0.01736,0.00853,-0.0988
6.4,1.128,0.01758,0.00877,-0.0985
6.5,1.1374,0.01779,0.00902,-0.0982
6.6,1.1467,0.01802,0.00927,-0.0978
6.7,1.1554,0.0183,0.00949,-0.0976
6.8,1.1647,0.01852,0.00975,-0.0972
6.9,1.1738,0.01875,0.01003,-0.0969
7,1.1829,0.019,0.01031,-0.0966
7.1,1.1917,0.01927,0.01064,-0.0962
7.2,1.2003,0.01957,0.01095,-0.0958
7.3,1.2085,0.01993,0.0113,-0.0954
7.4,1.2175,0.02018,0.01163,-0.095
7.5,1.2262,0.02047,0.01198,-0.0946
7.6,1.2354,0.02066,0.01218,-0.0943
7.7,1.2438,0.02097,0.01252,-0.0939
7.8,1.2518,0.02133,0.0129,-0.0935
7.9,1.2591,0.0218,0.01335,-0.0929
8,1.2677,0.02207,0.01372,-0.0925
8.1,1.2772,0.0222,0.01389,-0.0923
8.2,1.2854,0.02252,0.01426,-0.0918
8.3,1.2934,0.02286,0.01464,-0.0914
8.4,1.3011,0.02323,0.01504,-0.0909
8.5,1.3081,0.0237,0.01553,-0.0903
8.6,1.3152,0.02415,0.01604,-0.0897
8.7,1.3231,0.0245,0.01649,-0.0892
8.8,1.3306,0.0249,0.01697,-0.0886
9,1.3478,0.0253,0.01743,-0.088
9.1,1.3547,0.02572,0.01788,-0.0875
9.2,1.361,0.02622,0.01842,-0.0868
9.3,1.3672,0.02674,0.01896,-0.0861
9.4,1.374,0.02717,0.01951,-0.0855
9.5,1.3805,0.02765,0.02008,-0.0848
9.6,1.3867,0.02815,0.02067,-0.0841
9.7,1.3927,0.02865,0.02125,-0.0834
9.8,1.3985,0.02915,0.02182,-0.0826
9.9,1.4042,0.02965,0.02239,-0.0819
10,1.4097,0.03015,0.02296,-0.0811
10.1,1.4149,0.03066,0.02353,-0.0804
10.2,1.4198,0.03119,0.02411,-0.0796
10.3,1.4238,0.03178,0.02474,-0.0787
10.4,1.4267,0.03244,0.02548,-0.0776
10.5,1.428,0.03322,0.02632,-0.0763
10.6,1.4299,0.03389,0.02703,-0.0751
10.7,1.433,0.03449,0.02775,-0.074
10.8,1.4353,0.03515,0.02853,-0.0728
10.9,1.437,0.03586,0.02934,-0.0716
11,1.4383,0.03659,0.03019,-0.0703
11.1,1.4393,0.03735,0.03104,-0.0691
11.2,1.44,0.03813,0.03192,-0.0679
11.3,1.4404,0.03893,0.03281,-0.0667
11.4,1.4406,0.03974,0.03372,-0.0655
11.5,1.4404,0.04058,0.03465,-0.0644
11.6,1.44,0.04144,0.0356,-0.0633
11.7,1.4393,0.04232,0.03657,-0.0622
11.8,1.4383,0.04323,0.03757,-0.0612
11.9,1.4371,0.04417,0.03859,-0.0602
12,1.4355,0.04515,0.03966,-0.0593
12.1,1.4337,0.04616,0.04074,-0.0584
12.2,1.4315,0.04721,0.04188,-0.0576
12.3,1.429,0.04832,0.04306,-0.0569
12.4,1.4262,0.04946,0.04429,-0.0563
12.5,1.4232,0.05066,0.04557,-0.0557
12.6,1.4196,0.05194,0.04692,-0.0553
12.7,1.4158,0.05327,0.04834,-0.0549
12.8,1.4116,0.05469,0.04984,-0.0547
12.9,1.4072,0.0562,0.05142,-0.0546
13,1.4024,0.05777,0.05308,-0.0547
13.1,1.3972,0.05948,0.05487,-0.0549
13.2,1.3917,0.06127,0.05674,-0.0554
13.3,1.3859,0.06319,0.05874,-0.056
13.4,1.3798,0.06523,0.06087,-0.0569
13.5,1.3733,0.06744,0.06317,-0.058
13.6,1.3667,0.0698,0.06562,-0.0595
13.7,1.3597,0.07237,0.06828,-0.0612
13.8,1.3525,0.07513,0.07114,-0.0633
13.9,1.3449,0.07817,0.07428,-0.0659
14,1.3369,0.0815,0.07771,-0.0689
14.1,1.3286,0.08522,0.08155,-0.0724
14.2,1.3197,0.08948,0.08593,-0.0767
14.3,1.3103,0.09444,0.09102,-0.0818
14.4,1.2996,0.10048,0.09721,-0.088
14.6,1.2699,0.11822,0.11531,-0.105
14.7,1.2417,0.13381,0.1311,-0.118
14.8,1.1865,0.16586,0.16321,-0.1383
14.9,1.1816,0.17205,0.16938,-0.1416
15,1.1807,0.1759,0.17322,-0.1439
15.1,1.1811,0.17892,0.17624,-0.1458
15.2,1.182,0.18151,0.17883,-0.1474
15.3,1.1834,0.18385,0.18116,-0.149
15.4,1.185,0.18601,0.18333,-0.1505
15.5,1.1867,0.188,0.18532,-0.1519
15.6,1.1886,0.18992,0.18724,-0.1533
15.7,1.1907,0.19167,0.18899,-0.1546
15.8,1.1928,0.1934,0.19072,-0.156
15.9,1.195,0.19496,0.19228,-0.1572
16,1.1972,0.19646,0.19378,-0.1585
16.1,1.1995,0.1979,0.19523,-0.1597
16.2,1.2018,0.19927,0.1966,-0.1609
16.3,1.2041,0.20049,0.19782,-0.162
16.4,1.2065,0.20165,0.19898,-0.1631
16.5,1.2088,0.20257,0.19991,-0.1641
16.6,1.2109,0.20362,0.20096,-0.1651
16.8,1.2117,0.22285,0.22011,-0.173
16.9,1.2149,0.22617,0.22342,-0.1752
17,1.2177,0.22817,0.22542,-0.1766
17.1,1.2206,0.2301,0.22735,-0.178
17.2,1.2235,0.232,0.22925,-0.1793
17.3,1.2264,0.23382,0.23108,-0.1807
17.4,1.2293,0.23564,0.2329,-0.182
17.5,1.2323,0.23739,0.23466,-0.1833
17.6,1.2352,0.23912,0.23639,-0.1847
17.7,1.2382,0.24081,0.23808,-0.186
17.8,1.2411,0.24242,0.23969,-0.1873
17.9,1.2441,0.24404,0.24133,-0.1886
18,1.247,0.24561,0.2429,-0.1898
18.1,1.25,0.2472,0.24449,-0.1911
18.2,1.2529,0.24871,0.24601,-0.1924
18.3,1.2558,0.25024,0.24755,-0.1937
18.4,1.2587,0.25172,0.24903,-0.1949
18.5,1.2615,0.2532,0.25052,-0.1962
18.6,1.2644,0.25466,0.25201,-0.1974
18.7,1.2671,0.256,0.25335,-0.1986
18.8,1.2699,0.25749,0.25485,-0.1998
18.9,1.2726,0.25891,0.25627,-0.201
19,1.2753,0.26031,0.25768,-0.2022
19.1,1.2807,0.26754,0.26485,-0.2052
19.2,1.2855,0.27253,0.26984,-0.2074
19.3,1.2893,0.27546,0.27277,-0.209
19.4,1.2929,0.27813,0.27544,-0.2106
19.5,1.2965,0.2806,0.27791,-0.2121
19.6,1.3,0.28294,0.28026,-0.2136
19.7,1.3035,0.28525,0.28257,-0.2151
19.8,1.3069,0.28746,0.28479,-0.2166
19.9,1.3103,0.28955,0.28688,-0.218
20,1.3137,0.29167,0.289,-0.2195
20.1,1.3171,0.29375,0.29108,-0.2209
20.2,1.3205,0.29579,0.29313,-0.2224
20.3,1.3239,0.2978,0.29515,-0.2238
20.4,1.3272,0.2998,0.29714,-0.2253
20.5,1.3305,0.30177,0.29913,-0.2267
20.6,1.3338,0.30373,0.30109,-0.2282
20.7,1.3371,0.30568,0.30304,-0.2297
20.8,1.3404,0.30762,0.30498,-0.2311
20.9,1.3437,0.30954,0.30691,-0.2326
21,1.347,0.31144,0.30882,-0.234
21.1,1.3502,0.31336,0.31074,-0.2355
21.2,1.3535,0.31525,0.31263,-0.237
21.3,1.3567,0.31714,0.31453,-0.2384
21.4,1.36,0.31902,0.31642,-0.2399
21.5,1.3632,0.32093,0.31833,-0.2414
21.6,1.3664,0.3228,0.32021,-0.2428
21.7,1.3696,0.32471,0.32212,-0.2443
21.8,1.3728,0.32658,0.324,-0.2458
21.9,1.376,0.32844,0.32587,-0.2473
22,1.3791,0.33031,0.32774,-0.2487
22.1,1.3823,0.33218,0.32962,-0.2502
22.2,1.3854,0.33405,0.3315,-0.2517
22.3,1.3885,0.33592,0.33337,-0.2532
22.4,1.3916,0.33781,0.33527,-0.2547
22.5,1.3947,0.33968,0.33715,-0.2562
22.6,1.3978,0.34156,0.33906,-0.2577
22.7,1.4009,0.34347,0.34098,-0.2592
22.8,1.404,0.34537,0.34288,-0.2607
22.9,1.407,0.34723,0.34475,-0.2622
23,1.41,0.34911,0.34663,-0.2637
23.1,1.4131,0.35105,0.34858,-0.2652
23.2,1.4161,0.35294,0.35048,-0.2667
23.3,1.4191,0.35489,0.35243,-0.2682
23.4,1.4221,0.35683,0.35438,-0.2697
23.5,1.425,0.35875,0.35631,-0.2713
23.6,1.428,0.3607,0.35827,-0.2728
23.7,1.4309,0.36267,0.36024,-0.2743
23.8,1.4339,0.36466,0.36224,-0.2758
23.9,1.4368,0.36664,0.36423,-0.2773
24,1.4397,0.36861,0.36621,-0.2789
24.1,1.4426,0.37066,0.36827,-0.2804
24.2,1.4454,0.37268,0.37029,-0.2819
24.3,1.4483,0.37474,0.37237,-0.2834
24.4,1.4511,0.3768,0.37442,-0.285
24.5,1.4539,0.37889,0.37653,-0.2865
24.6,1.4568,0.381,0.37865,-0.288
24.7,1.4595,0.38313,0.38078,-0.2895
24.8,1.4623,0.38527,0.38293,-0.291
24.9,1.4651,0.38744,0.38511,-0.2925
25,1.4677,0.38963,0.38731,-0.294
25.1,1.4705,0.39186,0.38954,-0.2956
25.2,1.4732,0.39408,0.39177,-0.2971
25.3,1.4843,0.40239,0.40001,-0.302
25.4,1.4879,0.4052,0.40283,-0.3039
25.5,1.4913,0.40785,0.40548,-0.3057
25.6,1.4946,0.41043,0.40806,-0.3075
25.7,1.4979,0.41291,0.41055,-0.3094
25.8,1.501,0.41525,0.4129,-0.3111
25.9,1.5042,0.41767,0.41533,-0.3129
26,1.5073,0.41999,0.41765,-0.3147
26.1,1.5103,0.42229,0.41997,-0.3165
26.2,1.5133,0.42456,0.42226,-0.3183
26.3,1.5163,0.42683,0.42453,-0.3201
26.4,1.5192,0.42906,0.42677,-0.3219
26.5,1.5222,0.4313,0.42902,-0.3237
26.6,1.5251,0.43353,0.43125,-0.3255
26.7,1.528,0.43573,0.43346,-0.3272
26.8,1.5308,0.43793,0.43566,-0.329
26.9,1.5337,0.4401,0.43784,-0.3308
27,1.5365,0.44228,0.44003,-0.3326
27.1,1.5393,0.44447,0.44223,-0.3344
27.2,1.542,0.44663,0.44439,-0.3362
27.3,1.5447,0.4488,0.44657,-0.338
27.4,1.5474,0.45097,0.44875,-0.3398
27.5,1.5502,0.45312,0.45091,-0.3417
27.6,1.5528,0.4553,0.4531,-0.3435
27.7,1.5555,0.45745,0.45525,-0.3453
27.8,1.5581,0.45961,0.45741,-0.3471
27.9,1.5607,0.46176,0.45957,-0.349
28,1.5633,0.46389,0.46172,-0.3508
28.1,1.5659,0.46605,0.46389,-0.3526
28.2,1.5685,0.46818,0.46602,-0.3545
28.3,1.571,0.47037,0.46821,-0.3563
28.4,1.5735,0.47248,0.47033,-0.3582
28.5,1.576,0.47466,0.47252,-0.36
28.6,1.5785,0.47684,0.47471,-0.3619
28.7,1.581,0.47899,0.47687,-0.3637
28.8,1.5834,0.48115,0.47903,-0.3656
28.9,1.5858,0.48329,0.48118,-0.3674
29,1.5883,0.48547,0.48337,-0.3693
29.2,1.593,0.48984,0.48778,-0.373
29.3,1.5954,0.49203,0.48998,-0.3749
29.4,1.5977,0.4942,0.49216,-0.3768
29.5,1.6,0.49639,0.49435,-0.3787
29.6,1.6023,0.49864,0.49661,-0.3806
29.7,1.6045,0.50082,0.4988,-0.3825
29.8,1.6068,0.50311,0.5011,-0.3843
29.9,1.609,0.50533,0.50333,-0.3862
30,1.6113,0.50758,0.50558,-0.3881

