airfoilName st24.dat
Re 	3.900000e+05
M 	0
N 	4.500000e+00
VACC 	0 VACCflag 1
XTR 	1.00 	1.00 XTRflag 0
alpha,cl,cd,cdp,cm
-30,-1.1941,0.50042,0.49834,0.2535
-29.9,-1.1914,0.49831,0.49622,0.2516
-29.8,-1.1887,0.49625,0.49414,0.2498
-29.7,-1.186,0.49419,0.49208,0.2479
-29.6,-1.1833,0.49209,0.48998,0.246
-29.5,-1.1805,0.49011,0.48799,0.2442
-29.4,-1.1778,0.48809,0.48597,0.2423
-29.3,-1.175,0.4861,0.48397,0.2404
-29.2,-1.1722,0.4842,0.48207,0.2385
-29.1,-1.1694,0.48217,0.48004,0.2366
-29,-1.1666,0.48025,0.47811,0.2347
-28.9,-1.1637,0.47846,0.47632,0.2328
-28.8,-1.1608,0.47662,0.47448,0.2308
-28.7,-1.1579,0.47467,0.47252,0.229
-28.6,-1.155,0.47298,0.47083,0.227
-28.5,-1.152,0.4711,0.46895,0.225
-28.4,-1.149,0.46953,0.46737,0.223
-28.3,-1.146,0.46771,0.46556,0.221
-28.2,-1.143,0.46596,0.46381,0.219
-28.1,-1.1399,0.46421,0.46205,0.217
-28,-1.1368,0.46248,0.46032,0.2149
-27.9,-1.1336,0.46065,0.45848,0.2129
-27.8,-1.1304,0.45875,0.45659,0.2109
-25.9,-1.0685,0.41786,0.41565,0.1766
-25.8,-1.0655,0.41547,0.41326,0.1752
-25.7,-1.0624,0.41308,0.41086,0.1737
-25.6,-1.0594,0.4107,0.40848,0.1723
-25.5,-1.0563,0.40832,0.40609,0.1708
-25.4,-1.0533,0.40597,0.40374,0.1694
-25.3,-1.0502,0.40359,0.40136,0.1679
-25.2,-1.0471,0.40124,0.399,0.1665
-25.1,-1.044,0.3988,0.39656,0.1651
-25,-1.0409,0.39647,0.39422,0.1637
-24.9,-1.0378,0.39408,0.39182,0.1623
-24.8,-1.0346,0.39174,0.38949,0.1608
-24.7,-1.0315,0.38938,0.38712,0.1594
-24.6,-1.0283,0.38704,0.38477,0.158
-24.5,-1.0252,0.38471,0.38244,0.1566
-24.4,-1.022,0.38234,0.38007,0.1553
-24.3,-1.0189,0.38004,0.37776,0.1539
-24.2,-1.0157,0.37774,0.37545,0.1525
-24.1,-1.0125,0.37547,0.37317,0.1511
-24,-1.0093,0.37318,0.37088,0.1498
-23.9,-1.0061,0.37096,0.36866,0.1484
-23.8,-1.0028,0.36874,0.36643,0.147
-23.7,-0.9996,0.36651,0.3642,0.1457
-23.6,-0.9964,0.36432,0.36201,0.1443
-23.5,-0.9932,0.36215,0.35983,0.1429
-23.4,-0.9899,0.35999,0.35767,0.1416
-23.3,-0.9867,0.35787,0.35554,0.1402
-23.2,-0.9834,0.35576,0.35343,0.1389
-23.1,-0.9801,0.35367,0.35134,0.1375
-23,-0.9769,0.3516,0.34927,0.1362
-22.9,-0.9736,0.34955,0.34721,0.1348
-22.8,-0.9702,0.34751,0.34516,0.1335
-22.7,-0.967,0.34549,0.34315,0.1321
-22.6,-0.9636,0.34347,0.34112,0.1308
-22.5,-0.9603,0.34148,0.33913,0.1294
-22.4,-0.957,0.3395,0.33715,0.1281
-22.3,-0.9536,0.33752,0.33516,0.1267
-22.2,-0.9503,0.33554,0.33318,0.1254
-22.1,-0.9469,0.33358,0.33122,0.1241
-22,-0.9435,0.33164,0.32927,0.1227
-21.9,-0.9402,0.32968,0.32732,0.1214
-21.8,-0.9368,0.32775,0.32538,0.1201
-21.7,-0.9334,0.32582,0.32345,0.1188
-21.6,-0.93,0.32389,0.32151,0.1174
-21.5,-0.9266,0.32197,0.31959,0.1161
-21.4,-0.9232,0.32004,0.31765,0.1148
-21.3,-0.9197,0.31812,0.31572,0.1135
-21.2,-0.9163,0.31621,0.31381,0.1122
-21.1,-0.9129,0.31429,0.31189,0.1109
-21,-0.9095,0.31239,0.30998,0.1096
-20.9,-0.906,0.31048,0.30807,0.1084
-20.8,-0.9026,0.30857,0.30615,0.1071
-20.7,-0.8991,0.30665,0.30424,0.1058
-20.6,-0.8957,0.30476,0.30234,0.1045
-20.5,-0.8922,0.30285,0.30043,0.1033
-20.4,-0.8887,0.30094,0.29852,0.102
-20.3,-0.8852,0.29904,0.29661,0.1008
-20.2,-0.8818,0.29713,0.29471,0.0995
-20.1,-0.8783,0.29524,0.29281,0.0983
-20,-0.8748,0.29333,0.2909,0.097
-19.9,-0.8713,0.29143,0.289,0.0958
-19.8,-0.8677,0.28953,0.2871,0.0945
-19.7,-0.8642,0.28764,0.2852,0.0933
-19.6,-0.8607,0.28573,0.2833,0.092
-19.5,-0.8572,0.28384,0.2814,0.0908
-19.4,-0.8537,0.28194,0.27949,0.0896
-19.3,-0.8501,0.28004,0.2776,0.0883
-19.2,-0.8466,0.27814,0.27569,0.0871
-19.1,-0.8431,0.27624,0.27379,0.0859
-19,-0.8396,0.27434,0.27189,0.0847
-18.9,-0.8361,0.27243,0.26998,0.0834
-18.8,-0.8325,0.27052,0.26807,0.0822
-18.7,-0.829,0.26861,0.26615,0.081
-18.6,-0.8253,0.2666,0.26415,0.0792
-18.5,-0.8217,0.26459,0.26214,0.078
-18.4,-0.8181,0.26257,0.26011,0.0768
-18.3,-0.8145,0.26054,0.25808,0.0756
-18.2,-0.8109,0.2585,0.25602,0.0745
-18.1,-0.8072,0.25643,0.25396,0.0733
-18,-0.8036,0.25436,0.25188,0.0722
-17.9,-0.7998,0.25223,0.24975,0.071
-17.8,-0.796,0.25006,0.24758,0.0698
-17.7,-0.7922,0.24792,0.24544,0.0686
-17.6,-0.7882,0.24569,0.24321,0.0674
-17.5,-0.7841,0.24351,0.24103,0.0661
-17.4,-0.7799,0.24132,0.23884,0.0647
-17.1,-0.7667,0.23492,0.23246,0.0602
-17,-0.7634,0.23299,0.23054,0.0593
-16.9,-0.7603,0.23104,0.22859,0.0584
-16.8,-0.7571,0.22911,0.22665,0.0575
-16.7,-0.7539,0.22718,0.22472,0.0567
-16.6,-0.7508,0.22525,0.22278,0.0558
-16.5,-0.7477,0.22333,0.22087,0.055
-16.4,-0.7445,0.22144,0.21897,0.0541
-16.3,-0.7414,0.21956,0.2171,0.0533
-16.2,-0.7383,0.2177,0.21523,0.0524
-16.1,-0.7352,0.21587,0.2134,0.0516
-16,-0.732,0.21405,0.21158,0.0507
-15.9,-0.7289,0.21227,0.2098,0.0498
-15.8,-0.7257,0.21052,0.20805,0.049
-15.7,-0.7225,0.20878,0.20631,0.0481
-15.6,-0.7194,0.20708,0.20461,0.0472
-15.5,-0.7162,0.2054,0.20293,0.0464
-15.4,-0.7129,0.20372,0.20125,0.0455
-15.3,-0.7097,0.20207,0.1996,0.0446
-15.2,-0.7065,0.20045,0.19798,0.0437
-15.1,-0.7032,0.19883,0.19635,0.0428
-15,-0.6999,0.19721,0.19473,0.0419
-14.9,-0.6967,0.1956,0.19312,0.041
-14.8,-0.6934,0.19401,0.19152,0.0401
-14.7,-0.6901,0.1924,0.1899,0.0392
-14.6,-0.6868,0.1908,0.1883,0.0383
-14.5,-0.6834,0.18919,0.18669,0.0374
-14.4,-0.6801,0.18758,0.18509,0.0365
-14.3,-0.6767,0.18599,0.18349,0.0356
-14.2,-0.6734,0.18438,0.18189,0.0347
-14.1,-0.67,0.18277,0.18028,0.0338
-14,-0.6666,0.18116,0.17867,0.0329
-13.9,-0.6632,0.17955,0.17706,0.032
-13.8,-0.6599,0.17793,0.17544,0.0311
-13.7,-0.6565,0.17631,0.17382,0.0302
-13.6,-0.6531,0.17468,0.17219,0.0293
-13.5,-0.6498,0.17306,0.17057,0.0284
-13.4,-0.6464,0.17143,0.16894,0.0276
-13.3,-0.643,0.16979,0.1673,0.0267
-13.2,-0.6397,0.16815,0.16566,0.0258
-13.1,-0.6363,0.16651,0.16402,0.0249
-13,-0.6329,0.16485,0.16236,0.024
-12.9,-0.6295,0.16318,0.16069,0.0231
-12.8,-0.626,0.16151,0.15902,0.0222
-12.7,-0.6226,0.15983,0.15734,0.0213
-12.6,-0.6192,0.15813,0.15565,0.0205
-12.5,-0.6158,0.15643,0.15395,0.0196
-12.4,-0.6124,0.15472,0.15224,0.0187
-12.3,-0.609,0.15299,0.15051,0.0178
-12.2,-0.6056,0.15125,0.14877,0.0169
-12.1,-0.6022,0.14948,0.147,0.016
-11.9,-0.5953,0.14585,0.14337,0.0142
-11.8,-0.5918,0.14398,0.1415,0.0133
-11.7,-0.5858,0.13936,0.13688,0.0104
-11.5,-0.5779,0.13474,0.13231,0.0067
-11.4,-0.5749,0.1331,0.13067,0.0061
-11.3,-0.5719,0.13147,0.12904,0.0055
-11.2,-0.569,0.12985,0.12742,0.0049
-11.1,-0.5661,0.12824,0.12581,0.0043
-11,-0.5632,0.12664,0.12421,0.0037
-10.9,-0.5604,0.12505,0.12263,0.0031
-10.8,-0.5575,0.12349,0.12105,0.0025
-10.7,-0.5547,0.12195,0.11951,0.0019
-10.6,-0.5518,0.12044,0.118,0.0012
-10.5,-0.549,0.11896,0.11652,0.0006
-10.4,-0.5461,0.11751,0.11507,-0.0001
-10.3,-0.5431,0.11608,0.11364,-0.0008
-10.2,-0.5402,0.11468,0.11226,-0.0015
-10.1,-0.5371,0.1133,0.11088,-0.0022
-10,-0.5341,0.11194,0.10952,-0.0029
-9.9,-0.531,0.11059,0.10817,-0.0037
-9.8,-0.5279,0.10926,0.10684,-0.0044
-9.7,-0.5249,0.10794,0.10553,-0.0052
-9.6,-0.5218,0.10662,0.10422,-0.0059
-9.5,-0.5187,0.10532,0.10291,-0.0067
-9.4,-0.5157,0.10401,0.10161,-0.0074
-9.3,-0.5127,0.10273,0.10033,-0.0082
-9.2,-0.5097,0.10145,0.09906,-0.0089
-9.1,-0.5069,0.10016,0.09778,-0.0097
-9,-0.5042,0.09891,0.09653,-0.0104
-8.9,-0.5016,0.09766,0.09528,-0.0111
-8.8,-0.4992,0.09642,0.09405,-0.0118
-8.7,-0.4971,0.09521,0.09284,-0.0124
-8.6,-0.4954,0.09402,0.09167,-0.0129
-8.5,-0.4942,0.09287,0.09053,-0.0133
-6.8,-0.3578,0.02799,0.0244,-0.0832
-6.7,-0.3422,0.02462,0.02059,-0.0866
-6.6,-0.3301,0.02321,0.01895,-0.0878
-6.5,-0.3179,0.02224,0.01778,-0.0887
-6.4,-0.3055,0.02152,0.0169,-0.0895
-6.3,-0.2936,0.01994,0.01517,-0.0905
-6.2,-0.2815,0.01871,0.01379,-0.0914
-6.1,-0.2692,0.01784,0.01281,-0.0921
-6,-0.2567,0.01713,0.012,-0.0927
-5.9,-0.2441,0.01656,0.01135,-0.0933
-5.8,-0.2314,0.01607,0.01076,-0.0939
-5.7,-0.218,0.01563,0.01025,-0.0946
-5.6,-0.2052,0.01524,0.0098,-0.0951
-5.5,-0.1923,0.01488,0.00937,-0.0956
-5.4,-0.1794,0.01454,0.00896,-0.0961
-5.3,-0.1674,0.01422,0.00859,-0.0964
-5.2,-0.1562,0.01393,0.00823,-0.0965
-5.1,-0.1444,0.01363,0.00788,-0.0967
-5,-0.1323,0.01334,0.00752,-0.097
-4.9,-0.1201,0.01305,0.00717,-0.0973
-4.8,-0.1073,0.01277,0.00682,-0.0977
-4.7,-0.0948,0.01251,0.0065,-0.098
-4.6,-0.0821,0.01227,0.00619,-0.0984
-4.5,-0.0694,0.01206,0.00591,-0.0987
-4.4,-0.0566,0.01188,0.00569,-0.0991
-4.3,-0.0438,0.01149,0.00527,-0.0995
-4.2,-0.0314,0.01128,0.00503,-0.0998
-4.1,-0.0209,0.01111,0.00484,-0.0996
-4,-0.009,0.01096,0.00466,-0.0998
-3.9,0.0035,0.01079,0.00446,-0.1
-3.8,0.0162,0.01063,0.00427,-0.1003
-3.7,0.0287,0.01048,0.00408,-0.1006
-3.6,0.0413,0.01035,0.00391,-0.1009
-3.5,0.0526,0.0102,0.00375,-0.1009
-3.4,0.0638,0.01007,0.0036,-0.1009
-3.3,0.0754,0.00996,0.00348,-0.1009
-3.2,0.0873,0.00985,0.00335,-0.101
-3.1,0.0994,0.00976,0.00323,-0.1012
-3,0.1119,0.00966,0.00311,-0.1014
-2.9,0.1234,0.00958,0.00309,-0.1015
-2.8,0.1342,0.0095,0.003,-0.1014
-2.7,0.1456,0.00943,0.0029,-0.1014
-2.6,0.1573,0.00933,0.0028,-0.1015
-2.5,0.1691,0.00926,0.00276,-0.1016
-2.4,0.1811,0.00919,0.00266,-0.1017
-2.3,0.1921,0.00911,0.00258,-0.1016
-2.2,0.2032,0.00904,0.00252,-0.1016
-2.1,0.2147,0.00899,0.00247,-0.1016
-2,0.2263,0.00892,0.00241,-0.1016
-1.9,0.2375,0.00885,0.00233,-0.1015
-1.8,0.2484,0.0088,0.00228,-0.1014
-1.7,0.2596,0.00874,0.0022,-0.1013
-1.6,0.2707,0.00868,0.00215,-0.1012
-1.5,0.2815,0.00863,0.0021,-0.101
-1.4,0.2929,0.00859,0.00205,-0.101
-1.3,0.3038,0.00854,0.00202,-0.1008
-1.2,0.315,0.00851,0.00197,-0.1007
-1.1,0.326,0.00847,0.00191,-0.1006
-1,0.3372,0.00843,0.00191,-0.1006
-0.9,0.348,0.0084,0.00185,-0.1004
-0.8,0.3592,0.00837,0.00183,-0.1003
-0.7,0.3704,0.00835,0.0018,-0.1003
-0.6,0.3815,0.00832,0.00178,-0.1002
-0.5,0.3922,0.00831,0.00175,-0.1
-0.4,0.4034,0.00828,0.00173,-0.0999
-0.3,0.4143,0.00827,0.00171,-0.0998
-0.2,0.4253,0.00827,0.00169,-0.0997
0,0.447,0.00825,0.00166,-0.0994
0.1,0.4579,0.00825,0.00165,-0.0993
0.2,0.4689,0.00826,0.00163,-0.0992
0.3,0.4799,0.00825,0.00163,-0.0991
0.4,0.4902,0.0083,0.00161,-0.0988
0.5,0.5008,0.00832,0.00161,-0.0986
0.6,0.5117,0.00833,0.00161,-0.0985
0.7,0.5223,0.00837,0.0016,-0.0983
0.8,0.533,0.00839,0.00161,-0.0982
0.9,0.5431,0.00848,0.00161,-0.0979
1,0.5525,0.00862,0.00162,-0.0975
1.1,0.5629,0.00862,0.00166,-0.0974
1.2,0.5733,0.00861,0.00171,-0.0973
1.5,0.5965,0.00751,0.00182,-0.095
1.6,0.6056,0.0078,0.00189,-0.0947
1.7,0.6158,0.00796,0.00194,-0.0945
1.8,0.6258,0.00814,0.002,-0.0943
1.9,0.6359,0.00832,0.00207,-0.0941
2,0.6459,0.00853,0.00214,-0.0939
2.1,0.6546,0.00891,0.00226,-0.0936
2.2,0.6645,0.00914,0.00234,-0.0934
2.3,0.6744,0.00935,0.00243,-0.0933
2.4,0.6847,0.00953,0.00251,-0.0932
2.5,0.6951,0.00968,0.00259,-0.093
2.6,0.7055,0.00982,0.00268,-0.0929
2.8,0.7264,0.0101,0.00285,-0.0927
2.9,0.737,0.01022,0.00292,-0.0926
3,0.7477,0.01031,0.003,-0.0926
3.1,0.7584,0.01042,0.00307,-0.0925
3.2,0.769,0.01052,0.00315,-0.0924
3.3,0.7797,0.01061,0.00322,-0.0923
3.4,0.7901,0.01075,0.00331,-0.0922
3.5,0.8007,0.01085,0.00338,-0.0921
3.6,0.8112,0.01096,0.00347,-0.092
3.7,0.8219,0.01105,0.00354,-0.0919
3.8,0.8325,0.01115,0.00362,-0.0918
3.9,0.8429,0.01128,0.00371,-0.0917
4,0.8534,0.01138,0.00382,-0.0916
4.1,0.8639,0.0115,0.00391,-0.0915
4.2,0.8745,0.01159,0.00401,-0.0914
4.3,0.885,0.01169,0.0041,-0.0913
4.4,0.8954,0.01181,0.00419,-0.0912
4.5,0.9059,0.01192,0.0043,-0.0911
4.6,0.9162,0.01205,0.00438,-0.0909
4.7,0.9265,0.01218,0.0045,-0.0908
4.8,0.937,0.01228,0.0046,-0.0907
4.9,0.9473,0.0124,0.0047,-0.0906
5,0.9575,0.01253,0.00481,-0.0904
5.1,0.9679,0.01264,0.00493,-0.0903
5.2,0.978,0.01279,0.00504,-0.0901
5.3,0.9882,0.01293,0.0052,-0.09
5.4,0.9985,0.01305,0.00532,-0.0898
5.5,1.0087,0.01317,0.00544,-0.0897
5.6,1.0188,0.01332,0.00557,-0.0895
5.7,1.0289,0.01346,0.00572,-0.0894
5.8,1.0391,0.01359,0.00585,-0.0892
5.9,1.0492,0.01372,0.00599,-0.089
6,1.0588,0.01392,0.00614,-0.0888
6.1,1.0689,0.01405,0.00628,-0.0887
6.2,1.079,0.01419,0.00643,-0.0885
6.3,1.0889,0.01434,0.00658,-0.0883
6.4,1.0987,0.01451,0.00674,-0.0881
6.5,1.1085,0.01468,0.00694,-0.0879
6.6,1.1184,0.01482,0.00711,-0.0877
6.7,1.1283,0.01497,0.00728,-0.0875
6.8,1.138,0.01514,0.00745,-0.0873
6.9,1.1477,0.01532,0.00763,-0.0871
7,1.1571,0.01553,0.00783,-0.0868
7.1,1.1668,0.01569,0.00801,-0.0866
7.2,1.1765,0.01586,0.0082,-0.0864
7.3,1.1861,0.01603,0.0084,-0.0861
7.4,1.1956,0.01622,0.0086,-0.0859
7.5,1.2049,0.01643,0.00882,-0.0856
7.6,1.2141,0.01667,0.00906,-0.0853
7.7,1.2233,0.01689,0.0093,-0.085
7.8,1.2328,0.01706,0.00954,-0.0847
7.9,1.2421,0.01725,0.00977,-0.0845
8,1.2514,0.01746,0.01001,-0.0842
8.2,1.2697,0.01788,0.01045,-0.0836
8.4,1.2872,0.01838,0.01096,-0.0829
8.5,1.2963,0.01858,0.01121,-0.0826
8.6,1.3053,0.0188,0.01146,-0.0823
8.7,1.3142,0.01902,0.01173,-0.082
8.8,1.3229,0.01926,0.012,-0.0816
8.9,1.3317,0.01947,0.01217,-0.0814
9,1.3399,0.01977,0.01249,-0.081
9.1,1.3484,0.02003,0.01278,-0.0806
9.2,1.3571,0.02026,0.01308,-0.0802
9.3,1.3656,0.0205,0.01337,-0.0798
9.4,1.374,0.02075,0.01366,-0.0794
9.5,1.3822,0.02102,0.01396,-0.079
9.6,1.3904,0.02129,0.01426,-0.0786
9.7,1.3984,0.02157,0.01458,-0.0782
9.8,1.4062,0.02188,0.01491,-0.0777
9.9,1.4135,0.02224,0.0153,-0.0772
10,1.4212,0.02254,0.01564,-0.0767
10.1,1.4289,0.02283,0.01599,-0.0762
10.2,1.4364,0.02314,0.01636,-0.0757
10.3,1.4437,0.02346,0.01673,-0.0752
10.4,1.4509,0.02379,0.01711,-0.0747
10.5,1.458,0.02412,0.01749,-0.0741
10.6,1.4648,0.02447,0.01788,-0.0735
10.7,1.4715,0.02483,0.01828,-0.0729
10.9,1.4836,0.02565,0.01921,-0.0716
11,1.4885,0.02616,0.01976,-0.0707
11.1,1.4942,0.02656,0.02022,-0.07
11.2,1.4996,0.02697,0.0207,-0.0692
11.3,1.5046,0.0274,0.0212,-0.0683
11.4,1.5091,0.02784,0.02171,-0.0674
11.5,1.5131,0.02829,0.02223,-0.0664
11.6,1.5162,0.02875,0.02275,-0.0653
11.8,1.5273,0.02927,0.02331,-0.0638
11.9,1.5302,0.02975,0.02384,-0.0627
12,1.5328,0.03025,0.0244,-0.0616
12.1,1.535,0.03079,0.02499,-0.0605
12.2,1.5367,0.03137,0.02562,-0.0593
12.3,1.5377,0.032,0.02632,-0.0581
12.4,1.538,0.0327,0.02707,-0.0569
12.5,1.5374,0.03347,0.02788,-0.0556
12.6,1.5386,0.03409,0.02858,-0.0546
12.7,1.5394,0.03475,0.02933,-0.0535
12.8,1.5397,0.03547,0.03012,-0.0525
12.9,1.5395,0.03622,0.03095,-0.0514
13,1.539,0.03701,0.03182,-0.0504
13.1,1.5381,0.03785,0.03274,-0.0494
13.2,1.5369,0.03873,0.03369,-0.0485
13.3,1.5352,0.03967,0.03471,-0.0476
13.4,1.5333,0.04064,0.03576,-0.0468
13.5,1.5307,0.0417,0.03692,-0.0461
13.6,1.5279,0.0428,0.0381,-0.0454
13.7,1.5247,0.04397,0.03935,-0.0448
13.8,1.521,0.04523,0.04069,-0.0443
13.9,1.5169,0.04657,0.04211,-0.044
14,1.5121,0.04801,0.04363,-0.0437
14.1,1.5072,0.04954,0.04524,-0.0436
14.2,1.5015,0.0512,0.04698,-0.0437
14.3,1.4955,0.05298,0.04884,-0.044
14.4,1.4888,0.05494,0.05089,-0.0445
14.5,1.4817,0.05705,0.05309,-0.0453
14.6,1.4736,0.0594,0.05553,-0.0464
14.7,1.4649,0.06198,0.05819,-0.0478
14.8,1.4554,0.06487,0.06118,-0.0497
14.9,1.4448,0.0682,0.06461,-0.0521
15,1.4332,0.07202,0.06854,-0.0553
15.1,1.4199,0.0766,0.07323,-0.0593
15.2,1.404,0.0824,0.07917,-0.0647
15.4,1.3591,0.101,0.09809,-0.0821
15.5,1.3321,0.11209,0.10933,-0.0913
15.6,1.3089,0.12138,0.11869,-0.0986
15.7,1.2953,0.12766,0.12508,-0.1033
15.8,1.2833,0.13335,0.13085,-0.1074
15.9,1.2717,0.13883,0.13641,-0.1114
16,1.2605,0.14416,0.1418,-0.1153
16.1,1.2494,0.14957,0.14728,-0.1193
16.5,1.2092,0.17003,0.16797,-0.1346
16.6,1.1968,0.17787,0.17585,-0.1399
16.7,1.1624,0.2026,0.20067,-0.1529
16.8,1.1631,0.20518,0.20325,-0.1547
16.9,1.1645,0.20728,0.20535,-0.1563
17,1.1663,0.20907,0.20714,-0.1578
17.1,1.1682,0.21082,0.20889,-0.1592
17.2,1.1704,0.21229,0.21036,-0.1606
17.4,1.1701,0.22129,0.21933,-0.1656

