airfoilName st24.dat
Re 	330000
M 	0
N 	4.500000e+00
VACC 	0 VACCflag 1
XTR 	1.00 	1.00 XTRflag 0
alpha,cl,cd,cdp,cm
-30,-1.1934,0.5037,0.5014,0.2522
-29.9,-1.1906,0.50183,0.49952,0.2503
-29.8,-1.1878,0.50004,0.49772,0.2483
-29.7,-1.185,0.49831,0.49599,0.2462
-29.6,-1.1822,0.49645,0.49412,0.2442
-29.5,-1.1793,0.49495,0.49262,0.2421
-29.4,-1.1764,0.49337,0.49104,0.2399
-29.3,-1.1734,0.49186,0.48953,0.2377
-29.2,-1.1703,0.49063,0.4883,0.2353
-29.1,-1.1673,0.48894,0.48661,0.2332
-26.9,-1.0991,0.44049,0.43809,0.1924
-26.8,-1.0962,0.43808,0.43567,0.1908
-26.7,-1.0932,0.43567,0.43326,0.1893
-26.6,-1.0903,0.43326,0.43084,0.1878
-26.5,-1.0873,0.43086,0.42844,0.1863
-26.4,-1.0843,0.42848,0.42606,0.1847
-26.3,-1.0813,0.42608,0.42365,0.1832
-26.2,-1.0783,0.42371,0.42127,0.1817
-26.1,-1.0753,0.42131,0.41887,0.1802
-26,-1.0723,0.41893,0.41649,0.1788
-25.9,-1.0693,0.41661,0.41416,0.1773
-25.8,-1.0662,0.41424,0.41179,0.1758
-25.7,-1.0632,0.41189,0.40943,0.1743
-25.6,-1.0601,0.40955,0.40709,0.1728
-25.5,-1.057,0.40722,0.40476,0.1714
-25.4,-1.054,0.40492,0.40245,0.1699
-25.3,-1.0509,0.40261,0.40013,0.1684
-25.2,-1.0478,0.40032,0.39784,0.167
-25.1,-1.0447,0.398,0.39552,0.1655
-25,-1.0415,0.39575,0.39326,0.1641
-24.9,-1.0384,0.39348,0.39099,0.1626
-24.8,-1.0352,0.39125,0.38875,0.1612
-24.7,-1.0321,0.38902,0.38652,0.1598
-24.6,-1.0289,0.3868,0.3843,0.1583
-24.5,-1.0257,0.3846,0.38209,0.1569
-24.4,-1.0226,0.38241,0.3799,0.1555
-24.3,-1.0194,0.38024,0.37773,0.154
-24.2,-1.0162,0.37808,0.37554,0.1526
-24.1,-1.0129,0.37593,0.37339,0.1512
-24,-1.0097,0.37381,0.37127,0.1498
-23.9,-1.0065,0.37168,0.36914,0.1484
-23.8,-1.0032,0.36956,0.36702,0.147
-23.7,-1,0.36748,0.36493,0.1455
-23.6,-0.9967,0.3654,0.36284,0.1441
-23.5,-0.9934,0.36332,0.36076,0.1427
-23.4,-0.9902,0.36125,0.35869,0.1413
-23.3,-0.9869,0.35922,0.35665,0.1399
-23.2,-0.9836,0.35717,0.3546,0.1385
-23.1,-0.9803,0.35515,0.35258,0.1372
-23,-0.9769,0.35312,0.35054,0.1358
-22.9,-0.9736,0.35111,0.34853,0.1344
-22.8,-0.9703,0.34908,0.3465,0.133
-22.7,-0.9669,0.34709,0.34451,0.1316
-22.6,-0.9636,0.34508,0.34249,0.1303
-22.5,-0.9602,0.34309,0.3405,0.1289
-22.4,-0.9569,0.34112,0.33852,0.1275
-22.3,-0.9535,0.33913,0.33653,0.1262
-22.2,-0.9501,0.33714,0.33454,0.1248
-22.1,-0.9467,0.33517,0.33256,0.1235
-22,-0.9433,0.3332,0.33059,0.1222
-21.9,-0.9399,0.33122,0.32861,0.1208
-21.8,-0.9365,0.32925,0.32664,0.1195
-21.7,-0.9331,0.32729,0.32468,0.1182
-21.6,-0.9296,0.32533,0.32271,0.1169
-21.5,-0.9262,0.32337,0.32075,0.1156
-21.4,-0.9228,0.32141,0.31877,0.1142
-21.3,-0.9193,0.31946,0.31681,0.1129
-21.2,-0.9159,0.31752,0.31487,0.1116
-21.1,-0.9124,0.31556,0.31291,0.1104
-21,-0.909,0.31363,0.31098,0.1091
-20.9,-0.9055,0.31169,0.30903,0.1078
-20.8,-0.9021,0.30975,0.30709,0.1065
-20.7,-0.8986,0.30781,0.30515,0.1052
-20.6,-0.8951,0.30589,0.30323,0.1039
-20.5,-0.8916,0.30396,0.30129,0.1026
-20.4,-0.8881,0.30202,0.29935,0.1013
-20.3,-0.8846,0.30009,0.29742,0.1001
-20.2,-0.8811,0.29816,0.29549,0.0988
-20.1,-0.8776,0.29624,0.29356,0.0975
-20,-0.8741,0.29431,0.29163,0.0962
-19.9,-0.8706,0.29237,0.28969,0.0949
-19.8,-0.867,0.29044,0.28776,0.0937
-19.7,-0.8635,0.28851,0.28583,0.0924
-19.6,-0.86,0.28657,0.28388,0.0911
-19.5,-0.8564,0.28462,0.28194,0.0898
-19.4,-0.8529,0.28267,0.27998,0.0885
-19.3,-0.8493,0.2807,0.27801,0.0872
-19.2,-0.8458,0.27872,0.27603,0.086
-19.1,-0.8422,0.27673,0.27403,0.0847
-19,-0.8377,0.27409,0.2714,0.0827
-18.9,-0.8339,0.27188,0.26919,0.0814
-18.8,-0.8299,0.26962,0.26693,0.0801
-18.6,-0.8218,0.2651,0.2624,0.0774
-18.5,-0.8174,0.26282,0.26012,0.076
-18.2,-0.8037,0.25619,0.25352,0.0711
-18.1,-0.8004,0.25421,0.25154,0.0701
-18,-0.7972,0.25224,0.24957,0.0692
-17.9,-0.7939,0.25027,0.24758,0.0682
-17.8,-0.7907,0.2483,0.24561,0.0673
-17.7,-0.7874,0.24636,0.24366,0.0664
-17.6,-0.7842,0.24441,0.24171,0.0654
-17.5,-0.781,0.24247,0.23978,0.0645
-17.4,-0.7778,0.24054,0.23784,0.0636
-17.3,-0.7746,0.23863,0.23593,0.0627
-17.2,-0.7714,0.23674,0.23403,0.0617
-17.1,-0.7682,0.23485,0.23214,0.0608
-17,-0.765,0.23298,0.23027,0.0599
-16.9,-0.7618,0.23113,0.22842,0.059
-16.8,-0.7586,0.22929,0.22658,0.0581
-16.7,-0.7553,0.22747,0.22476,0.0572
-16.6,-0.7521,0.22567,0.22295,0.0563
-16.5,-0.7489,0.22388,0.22116,0.0553
-16.4,-0.7456,0.22212,0.2194,0.0544
-16.3,-0.7423,0.22036,0.21764,0.0535
-16.2,-0.7391,0.21863,0.21591,0.0526
-16.1,-0.7358,0.21691,0.21419,0.0516
-16,-0.7325,0.21521,0.21248,0.0507
-15.9,-0.7292,0.21351,0.21078,0.0498
-15.8,-0.7259,0.21183,0.20911,0.0489
-15.7,-0.7226,0.21015,0.20743,0.048
-15.6,-0.7193,0.20849,0.20576,0.047
-15.5,-0.716,0.20683,0.20411,0.0461
-15.4,-0.7127,0.20517,0.20245,0.0452
-15.3,-0.7093,0.20353,0.2008,0.0443
-15.2,-0.706,0.2019,0.19917,0.0434
-15.1,-0.7027,0.20025,0.19753,0.0424
-15,-0.6994,0.19861,0.19588,0.0415
-14.9,-0.696,0.19697,0.19423,0.0406
-14.8,-0.6927,0.19533,0.19259,0.0397
-14.7,-0.6893,0.19369,0.19094,0.0388
-14.6,-0.686,0.19204,0.1893,0.0379
-14.5,-0.6826,0.19039,0.18765,0.0369
-14.4,-0.6792,0.18874,0.186,0.036
-14.3,-0.6758,0.18709,0.18435,0.0351
-14.2,-0.6724,0.18544,0.18269,0.0342
-14.1,-0.669,0.18378,0.18103,0.0333
-14,-0.6656,0.18211,0.17937,0.0324
-13.9,-0.6622,0.18045,0.17771,0.0315
-13.8,-0.6588,0.17878,0.17604,0.0306
-13.7,-0.6554,0.17711,0.17437,0.0297
-13.6,-0.652,0.17544,0.17269,0.0288
-13.5,-0.6487,0.17375,0.17101,0.0279
-13.4,-0.6453,0.17206,0.16932,0.027
-13.3,-0.6419,0.17037,0.16763,0.0261
-13.2,-0.6385,0.16866,0.16592,0.0252
-13.1,-0.6351,0.16694,0.1642,0.0243
-13,-0.6317,0.16521,0.16247,0.0234
-12.9,-0.6282,0.16345,0.16071,0.0225
-12.8,-0.6248,0.16169,0.15895,0.0216
-12.7,-0.6213,0.15988,0.15715,0.0207
-12.6,-0.6179,0.15805,0.15532,0.0198
-12.5,-0.6144,0.15619,0.15345,0.0189
-12.4,-0.6109,0.15428,0.15155,0.018
-12.3,-0.6074,0.15228,0.14954,0.017
-12.2,-0.5999,0.14671,0.14402,0.0121
-12.1,-0.5969,0.14502,0.14233,0.0115
-12,-0.5939,0.14335,0.14066,0.0109
-11.9,-0.5909,0.14168,0.13899,0.0103
-11.8,-0.5879,0.14003,0.13734,0.0096
-11.7,-0.5849,0.13839,0.13571,0.009
-11.6,-0.5819,0.13677,0.13409,0.0084
-11.5,-0.579,0.13517,0.13249,0.0078
-11.4,-0.576,0.1336,0.13091,0.0071
-11.3,-0.5731,0.13204,0.12935,0.0065
-11.2,-0.5701,0.13051,0.12782,0.0058
-11.1,-0.5671,0.129,0.12632,0.0052
-11,-0.5641,0.12751,0.12483,0.0045
-10.9,-0.5611,0.12604,0.12334,0.0038
-10.8,-0.558,0.12458,0.12189,0.0031
-10.7,-0.5549,0.12315,0.12046,0.0024
-10.6,-0.5518,0.12174,0.11905,0.0017
-10.5,-0.5487,0.12035,0.11767,0.001
-10.4,-0.5455,0.11896,0.11629,0.0003
-10.3,-0.5424,0.11759,0.11491,-0.0005
-10.2,-0.5392,0.11624,0.11357,-0.0012
-10.1,-0.536,0.11488,0.11221,-0.002
-10,-0.5328,0.11353,0.11086,-0.0027
-9.9,-0.5296,0.11219,0.10953,-0.0035
-9.8,-0.5265,0.11085,0.1082,-0.0042
-9.7,-0.5233,0.10952,0.10687,-0.005
-9.6,-0.5202,0.10819,0.10555,-0.0058
-9.5,-0.517,0.10687,0.10423,-0.0065
-9.4,-0.514,0.10554,0.10291,-0.0073
-9.3,-0.511,0.10423,0.1016,-0.008
-9.2,-0.508,0.10293,0.1003,-0.0088
-9.1,-0.5051,0.10162,0.09899,-0.0095
-9,-0.5024,0.10032,0.09771,-0.0103
-8.9,-0.4998,0.09904,0.09643,-0.011
-8.8,-0.4973,0.09777,0.09516,-0.0116
-8.7,-0.4952,0.09651,0.09392,-0.0122
-8.6,-0.4934,0.09528,0.09269,-0.0128
-8.5,-0.492,0.09409,0.09151,-0.0132
-8.4,-0.491,0.09293,0.09036,-0.0136
-8.3,-0.4902,0.09177,0.08921,-0.014
-8.2,-0.4886,0.09053,0.08798,-0.0146
-8.1,-0.487,0.08929,0.08675,-0.0152
-8,-0.4857,0.08807,0.08554,-0.0157
-7.9,-0.4848,0.08687,0.08435,-0.0161
-7.8,-0.4844,0.08571,0.08321,-0.0164
-7.7,-0.4846,0.0846,0.08211,-0.0166
-7.6,-0.4854,0.08354,0.08106,-0.0165
-6.8,-0.3689,0.02905,0.02515,-0.0806
-6.7,-0.3558,0.02649,0.02236,-0.083
-6.6,-0.3422,0.02465,0.02033,-0.0849
-6.5,-0.3294,0.02329,0.01881,-0.0862
-6.4,-0.3174,0.02223,0.01762,-0.0871
-6.3,-0.3057,0.02135,0.01662,-0.0878
-6.2,-0.2936,0.02058,0.01574,-0.0885
-6.1,-0.2814,0.01987,0.01493,-0.0891
-6,-0.269,0.01925,0.01421,-0.0898
-5.9,-0.2565,0.01868,0.01354,-0.0904
-5.8,-0.2439,0.01813,0.0129,-0.091
-5.7,-0.2312,0.01762,0.01227,-0.0916
-5.6,-0.2177,0.01711,0.01167,-0.0923
-5.5,-0.2048,0.01663,0.01109,-0.0928
-5.4,-0.1918,0.01617,0.01054,-0.0934
-5.3,-0.1788,0.01573,0.01001,-0.094
-5.2,-0.1657,0.01531,0.00949,-0.0945
-5.1,-0.1525,0.0149,0.00898,-0.0951
-5,-0.1411,0.01454,0.00854,-0.0952
-4.9,-0.1294,0.0142,0.00811,-0.0954
-4.8,-0.1174,0.01389,0.00772,-0.0956
-4.7,-0.1047,0.01363,0.00737,-0.096
-4.6,-0.0922,0.01341,0.0071,-0.0963
-4.5,-0.0796,0.01291,0.00654,-0.0968
-4.4,-0.067,0.01263,0.00624,-0.0972
-4.3,-0.0542,0.01241,0.00599,-0.0976
-4.2,-0.0413,0.01222,0.00576,-0.0979
-4.1,-0.0279,0.01201,0.00552,-0.0984
-4,-0.0149,0.01181,0.00528,-0.0989
-3.9,-0.0036,0.01164,0.00506,-0.0989
-3.8,0.0081,0.01145,0.00483,-0.0989
-3.7,0.0203,0.01131,0.00463,-0.0991
-3.6,0.033,0.01109,0.00441,-0.0994
-3.5,0.0456,0.01093,0.00424,-0.0997
-3.4,0.0586,0.01079,0.00408,-0.1001
-3.3,0.0714,0.01066,0.00392,-0.1005
-3.2,0.0826,0.01055,0.00378,-0.1004
-3,0.1055,0.01037,0.00363,-0.1005
-2.9,0.1176,0.01027,0.00351,-0.1007
-2.8,0.1301,0.01017,0.00337,-0.1009
-2.7,0.1425,0.01005,0.00326,-0.1012
-2.6,0.1547,0.00997,0.00321,-0.1014
-2.5,0.1655,0.0099,0.00312,-0.1013
-2.4,0.1769,0.00981,0.00302,-0.1012
-2.3,0.1886,0.00972,0.00295,-0.1013
-2.2,0.2007,0.00966,0.00287,-0.1015
-2.1,0.2129,0.00958,0.00279,-0.1017
-2,0.2241,0.0095,0.00273,-0.1016
-1.9,0.2353,0.00945,0.00267,-0.1016
-1.8,0.2467,0.00939,0.0026,-0.1016
-1.7,0.2586,0.00931,0.00256,-0.1016
-1.6,0.2698,0.00926,0.00249,-0.1016
-1.5,0.2807,0.00919,0.00242,-0.1014
-1.4,0.2923,0.00913,0.00236,-0.1014
-1.3,0.3031,0.00908,0.0023,-0.1012
-1.2,0.3144,0.00903,0.00229,-0.1012
-1.1,0.3257,0.00898,0.00221,-0.1011
-1,0.3366,0.00893,0.00216,-0.1009
-0.9,0.3479,0.00889,0.00213,-0.1009
-0.8,0.3589,0.00886,0.00209,-0.1007
-0.7,0.37,0.00882,0.00207,-0.1007
-0.6,0.3813,0.00879,0.00203,-0.1006
-0.5,0.3925,0.00876,0.00202,-0.1006
-0.4,0.4036,0.00873,0.00199,-0.1004
-0.3,0.4144,0.00871,0.00195,-0.1003
-0.2,0.4254,0.00869,0.00192,-0.1001
0,0.4475,0.00864,0.0019,-0.0999
0.1,0.4583,0.00864,0.00187,-0.0997
0.2,0.4693,0.00862,0.00185,-0.0996
0.3,0.4802,0.00862,0.00183,-0.0995
0.4,0.4912,0.00859,0.00183,-0.0994
0.5,0.502,0.00859,0.00182,-0.0993
0.6,0.5123,0.00862,0.00179,-0.0989
0.7,0.5231,0.00862,0.00178,-0.0988
0.8,0.5338,0.00863,0.00178,-0.0986
0.9,0.5441,0.00866,0.00178,-0.0984
1,0.5548,0.00857,0.00181,-0.0983
1.1,0.5645,0.00856,0.00182,-0.098
1.3,0.5773,0.00738,0.00182,-0.0957
1.4,0.5875,0.00751,0.00184,-0.0954
1.5,0.5977,0.00764,0.00187,-0.0952
1.6,0.6078,0.00779,0.00191,-0.095
1.7,0.6167,0.00806,0.00197,-0.0945
1.8,0.6268,0.00823,0.00202,-0.0943
1.9,0.6367,0.00841,0.00209,-0.0941
2,0.6466,0.0086,0.00216,-0.0938
2.1,0.6565,0.0088,0.00223,-0.0936
2.2,0.6662,0.00902,0.00231,-0.0934
2.3,0.6746,0.00943,0.00244,-0.093
2.4,0.6844,0.00966,0.00253,-0.0928
2.5,0.6943,0.00989,0.00263,-0.0926
2.7,0.7147,0.01024,0.00283,-0.0924
2.8,0.725,0.01038,0.00291,-0.0922
2.9,0.7351,0.01058,0.00302,-0.0921
3,0.7457,0.01069,0.0031,-0.092
3.1,0.7561,0.01082,0.00318,-0.0919
3.2,0.7668,0.01092,0.00327,-0.0918
3.3,0.7773,0.01103,0.00335,-0.0917
3.4,0.7879,0.01114,0.00344,-0.0916
3.5,0.7981,0.0113,0.00353,-0.0915
3.6,0.8087,0.01139,0.00362,-0.0914
3.7,0.8193,0.0115,0.0037,-0.0913
3.8,0.8297,0.01162,0.0038,-0.0912
3.9,0.8403,0.01171,0.00389,-0.0911
4,0.8508,0.01182,0.00401,-0.0909
4.1,0.8611,0.01196,0.0041,-0.0908
4.2,0.8715,0.01207,0.0042,-0.0907
4.3,0.8819,0.0122,0.00431,-0.0906
4.4,0.8924,0.0123,0.0044,-0.0905
4.5,0.9028,0.01241,0.0045,-0.0903
4.6,0.913,0.01255,0.00461,-0.0902
4.7,0.9235,0.01265,0.00473,-0.0901
4.8,0.9336,0.01281,0.00483,-0.0899
4.9,0.9439,0.01293,0.00495,-0.0898
5,0.9542,0.01304,0.00506,-0.0897
5.1,0.9644,0.01318,0.00518,-0.0895
5.2,0.9745,0.01332,0.00532,-0.0894
5.3,0.9848,0.01344,0.00547,-0.0892
5.4,0.9948,0.0136,0.00559,-0.089
5.5,1.0049,0.01374,0.00573,-0.0889
5.6,1.015,0.01387,0.00587,-0.0887
5.7,1.0251,0.01401,0.006,-0.0886
5.8,1.035,0.01418,0.00615,-0.0884
5.9,1.0451,0.01432,0.00631,-0.0882
6,1.0551,0.01446,0.00646,-0.088
6.1,1.065,0.01461,0.00661,-0.0878
6.2,1.0746,0.01481,0.00677,-0.0876
6.3,1.0846,0.01496,0.00693,-0.0874
6.4,1.0944,0.01511,0.0071,-0.0872
6.5,1.1042,0.01528,0.0073,-0.087
6.6,1.1137,0.01548,0.00748,-0.0868
6.7,1.1235,0.01565,0.00768,-0.0865
6.8,1.1333,0.01581,0.00786,-0.0863
6.9,1.143,0.01598,0.00806,-0.0861
7,1.1525,0.01617,0.00825,-0.0858
7.1,1.162,0.01637,0.00846,-0.0856
7.2,1.1712,0.01659,0.00867,-0.0853
7.3,1.1808,0.01677,0.00888,-0.0851
7.4,1.1903,0.01695,0.0091,-0.0848
7.5,1.1996,0.01715,0.00932,-0.0845
7.6,1.2089,0.01736,0.00955,-0.0843
7.7,1.218,0.01759,0.00979,-0.084
7.8,1.2269,0.01785,0.01009,-0.0836
7.9,1.2357,0.01812,0.01037,-0.0833
8,1.245,0.01832,0.01062,-0.083
8.1,1.2541,0.01853,0.01088,-0.0827
8.2,1.2631,0.01876,0.01116,-0.0823
8.3,1.2722,0.01895,0.01136,-0.0821
8.4,1.281,0.01921,0.01163,-0.0817
8.5,1.2895,0.01948,0.01193,-0.0813
8.6,1.2979,0.01976,0.01219,-0.081
8.7,1.3068,0.01999,0.01247,-0.0806
8.8,1.3154,0.02023,0.01276,-0.0803
8.9,1.324,0.02049,0.01306,-0.0799
9,1.3324,0.02075,0.01337,-0.0795
9.1,1.3408,0.02102,0.01368,-0.0791
9.2,1.3491,0.02127,0.0139,-0.0788
9.3,1.357,0.02159,0.01424,-0.0784
9.4,1.3653,0.02185,0.01456,-0.078
9.5,1.3734,0.02212,0.01489,-0.0775
9.6,1.3814,0.02241,0.01523,-0.0771
9.7,1.3893,0.0227,0.01557,-0.0766
9.8,1.397,0.023,0.01592,-0.0761
9.9,1.4046,0.02332,0.01627,-0.0757
10,1.412,0.02365,0.01663,-0.0752
10.1,1.4189,0.02402,0.01703,-0.0746
10.2,1.4253,0.02446,0.01749,-0.074
10.3,1.4325,0.02478,0.01789,-0.0734
10.4,1.4394,0.02513,0.01831,-0.0728
10.5,1.446,0.0255,0.01875,-0.0722
10.6,1.4524,0.02588,0.01919,-0.0715
10.7,1.4586,0.02628,0.01965,-0.0709
10.8,1.4646,0.02667,0.0201,-0.0702
10.9,1.4704,0.02708,0.02058,-0.0695
11,1.4759,0.02749,0.02104,-0.0687
11.1,1.481,0.02793,0.02153,-0.0679
11.2,1.4855,0.02839,0.02204,-0.067
11.3,1.4892,0.02891,0.02261,-0.0661
11.4,1.4911,0.02947,0.02323,-0.0648
11.5,1.4931,0.03002,0.02382,-0.0635
11.6,1.4961,0.03051,0.02438,-0.0624
11.7,1.4986,0.03103,0.02498,-0.0612
11.8,1.5007,0.03158,0.02561,-0.0601
11.9,1.5025,0.03216,0.02627,-0.0589
12,1.504,0.03277,0.02696,-0.0577
12.1,1.5052,0.0334,0.02766,-0.0566
12.2,1.5062,0.03405,0.02839,-0.0555
12.3,1.5069,0.03473,0.02914,-0.0544
12.5,1.5176,0.03533,0.02979,-0.0533
12.6,1.5181,0.03603,0.03056,-0.0523
12.7,1.5183,0.03677,0.03136,-0.0514
12.8,1.5178,0.03756,0.03222,-0.0504
12.9,1.5169,0.03841,0.03313,-0.0494
13,1.5154,0.03932,0.03411,-0.0485
13.1,1.5134,0.0403,0.03516,-0.0476
13.2,1.5106,0.04135,0.03628,-0.0468
13.3,1.507,0.0425,0.03751,-0.046
13.4,1.503,0.04373,0.03881,-0.0453
13.5,1.4979,0.0451,0.04025,-0.0447
13.6,1.4927,0.04653,0.04173,-0.0443
13.7,1.489,0.04784,0.04313,-0.044
13.8,1.4845,0.04929,0.04467,-0.0438
13.9,1.4796,0.05084,0.04631,-0.0438
14,1.4739,0.05255,0.0481,-0.0439
14.1,1.468,0.05436,0.05,-0.0443
14.2,1.4613,0.05636,0.0521,-0.0449
14.3,1.454,0.05854,0.05436,-0.0458
14.4,1.4459,0.06094,0.05686,-0.047
14.5,1.4373,0.0636,0.05961,-0.0486
14.6,1.4275,0.06663,0.06273,-0.0507
14.7,1.4171,0.07003,0.06623,-0.0533
14.8,1.4053,0.07404,0.07034,-0.0567
14.9,1.3913,0.07897,0.07539,-0.0612
15,1.3768,0.08465,0.08122,-0.0666
15.1,1.3647,0.09036,0.08708,-0.0719
15.2,1.3498,0.09747,0.09435,-0.0784
15.3,1.332,0.10571,0.10276,-0.0854
15.6,1.2747,0.12847,0.12588,-0.1032
15.7,1.2624,0.13428,0.13175,-0.1075
15.8,1.2513,0.13976,0.13728,-0.1116
15.9,1.2405,0.14521,0.14279,-0.1157
16,1.23,0.15067,0.14829,-0.1198
16.1,1.221,0.15566,0.15333,-0.1235
16.2,1.211,0.16131,0.15902,-0.1276
16.3,1.2005,0.16754,0.16528,-0.1321
16.4,1.1885,0.17515,0.17294,-0.1372
17.3,1.1649,0.21954,0.2174,-0.1633
17.4,1.1675,0.22083,0.21869,-0.1645
17.5,1.17,0.22205,0.21991,-0.1657
17.6,1.1726,0.22322,0.22109,-0.1669
18,1.1783,0.24422,0.24203,-0.1765
18.1,1.1811,0.24614,0.24396,-0.1779
18.2,1.184,0.24796,0.24578,-0.1793
18.3,1.1868,0.24974,0.24756,-0.1806
18.4,1.1897,0.25145,0.24928,-0.182
18.5,1.1926,0.25308,0.25091,-0.1833
18.6,1.1955,0.25471,0.25255,-0.1846
18.7,1.1984,0.2563,0.25414,-0.186
18.8,1.2013,0.25788,0.25573,-0.1873
18.9,1.2042,0.25932,0.25716,-0.1886
19,1.2072,0.26077,0.25863,-0.1899
19.1,1.2101,0.26225,0.2601,-0.1912
19.2,1.213,0.26366,0.26152,-0.1925
19.3,1.2159,0.26509,0.26295,-0.1939
19.4,1.2188,0.26641,0.26429,-0.1952
19.5,1.2217,0.26772,0.2656,-0.1964
19.6,1.2245,0.26911,0.26699,-0.1977
19.7,1.2273,0.27041,0.26829,-0.199
19.8,1.2299,0.27161,0.2695,-0.2002
19.9,1.2357,0.28463,0.28248,-0.2039
20,1.2392,0.28747,0.28531,-0.2055
20.1,1.2426,0.28996,0.2878,-0.207
20.2,1.246,0.29236,0.29021,-0.2085
20.3,1.2493,0.29457,0.29242,-0.21
20.4,1.2527,0.2967,0.29455,-0.2115
20.5,1.256,0.29879,0.29664,-0.2129
20.6,1.2592,0.30081,0.29867,-0.2144
20.7,1.2625,0.30281,0.30067,-0.2158
20.8,1.2658,0.30478,0.30265,-0.2173
20.9,1.269,0.30669,0.30458,-0.2188
21,1.2722,0.30859,0.30649,-0.2202
21.1,1.2755,0.31048,0.30838,-0.2217
21.2,1.2787,0.31235,0.31025,-0.2231
21.3,1.2819,0.31421,0.31212,-0.2246
21.4,1.2851,0.316,0.31391,-0.2261
21.5,1.2883,0.31783,0.31575,-0.2275
21.6,1.2915,0.3197,0.31762,-0.229
21.7,1.2946,0.32146,0.31938,-0.2304
21.8,1.2978,0.32327,0.3212,-0.2319
21.9,1.3009,0.32501,0.32294,-0.2334
22,1.3041,0.32681,0.32475,-0.2348
22.1,1.3072,0.32858,0.32653,-0.2363
22.2,1.3103,0.33039,0.32834,-0.2378
22.3,1.3134,0.33212,0.33007,-0.2393
22.4,1.3165,0.33387,0.33183,-0.2407
22.5,1.3196,0.33567,0.33363,-0.2422
22.6,1.3226,0.33739,0.33536,-0.2437
22.7,1.3257,0.33918,0.33715,-0.2452
22.8,1.3287,0.34098,0.33896,-0.2467
22.9,1.3318,0.34274,0.34073,-0.2482
23,1.3348,0.34448,0.34247,-0.2496
23.1,1.3378,0.34633,0.34433,-0.2511
23.2,1.3407,0.34805,0.34605,-0.2526
23.3,1.3438,0.34993,0.34794,-0.2541
23.4,1.3467,0.35174,0.34976,-0.2556
23.5,1.3497,0.35357,0.35159,-0.2571
23.6,1.3526,0.35542,0.35345,-0.2585
23.7,1.3556,0.35735,0.35539,-0.26
23.8,1.3584,0.35925,0.35728,-0.2615
23.9,1.3604,0.36042,0.35848,-0.2628
24,1.3633,0.36247,0.36054,-0.2642
24.1,1.3688,0.36754,0.36557,-0.2669
24.3,1.3779,0.37579,0.37382,-0.2712
24.4,1.3817,0.37897,0.37701,-0.273
24.5,1.3854,0.38196,0.38,-0.2749
24.6,1.3888,0.38463,0.38268,-0.2766
24.7,1.3922,0.38712,0.38517,-0.2784
24.8,1.3955,0.38953,0.38758,-0.2801
24.9,1.3987,0.39185,0.3899,-0.2818
25,1.402,0.39428,0.39234,-0.2835
25.1,1.4051,0.3965,0.39457,-0.2852
25.2,1.4083,0.39874,0.39681,-0.287
25.3,1.4114,0.4009,0.39898,-0.2887
25.4,1.4145,0.40312,0.4012,-0.2904
25.5,1.4176,0.40526,0.40335,-0.2921
25.6,1.4206,0.40736,0.40545,-0.2938
25.7,1.4236,0.40948,0.40757,-0.2956
25.8,1.4266,0.41156,0.40966,-0.2973
25.9,1.4295,0.41363,0.41173,-0.299
26,1.4324,0.4157,0.41381,-0.3008
26.1,1.4354,0.41772,0.41584,-0.3025
26.2,1.4383,0.41979,0.41791,-0.3042
26.3,1.4411,0.4218,0.41993,-0.306
26.4,1.444,0.42384,0.42197,-0.3077
26.5,1.4468,0.42586,0.424,-0.3094
26.6,1.4496,0.4279,0.42604,-0.3112
26.7,1.4524,0.42986,0.42801,-0.3129
26.8,1.4552,0.43189,0.43005,-0.3147
26.9,1.458,0.43386,0.43202,-0.3165
27,1.4607,0.4358,0.43397,-0.3182
27.1,1.4634,0.43786,0.43603,-0.32
27.2,1.4661,0.43977,0.43796,-0.3217
27.3,1.4688,0.44179,0.43998,-0.3235
27.4,1.4714,0.44376,0.44195,-0.3253
27.5,1.4741,0.4458,0.44401,-0.327
27.6,1.4767,0.44768,0.44591,-0.3288
27.7,1.4793,0.44967,0.4479,-0.3306
27.8,1.4819,0.45173,0.44996,-0.3324
27.9,1.4844,0.45371,0.45195,-0.3341
28,1.487,0.45572,0.45397,-0.3359
28.1,1.4895,0.45776,0.45601,-0.3377
28.2,1.492,0.45975,0.45801,-0.3395
28.3,1.4945,0.46179,0.46006,-0.3413
28.4,1.497,0.4639,0.46218,-0.3431
28.5,1.4994,0.46591,0.46419,-0.3449
28.6,1.5019,0.468,0.46629,-0.3466
28.7,1.5043,0.4701,0.4684,-0.3484
28.8,1.5067,0.47228,0.47058,-0.3502
28.9,1.5092,0.47445,0.47276,-0.352
29,1.5115,0.47652,0.47484,-0.3538
29.1,1.5139,0.47873,0.47706,-0.3556
29.2,1.5162,0.48096,0.4793,-0.3574
29.3,1.5185,0.48319,0.48153,-0.3592
29.4,1.5209,0.48545,0.48379,-0.361
29.5,1.5232,0.48775,0.4861,-0.3628
29.6,1.5255,0.49006,0.48842,-0.3646
29.7,1.5277,0.49242,0.49079,-0.3664
29.8,1.53,0.49478,0.49316,-0.3682
29.9,1.5323,0.49721,0.49559,-0.37
30,1.5345,0.49966,0.49805,-0.3718

