airfoilName st24.dat
Re 	50000
M 	0
N 	4.500000e+00
VACC 	0 VACCflag 1
XTR 	1.00 	1.00 XTRflag 0
alpha,cl,cd,cdp,cm
-29,-1.1536,0.50143,0.49485,0.2193
-28.9,-1.1509,0.499,0.4924,0.2176
-28.8,-1.1482,0.49658,0.48997,0.2159
-28.7,-1.1455,0.49417,0.48755,0.2143
-28.6,-1.1427,0.49176,0.48512,0.2126
-28.5,-1.1399,0.48935,0.48271,0.2109
-28.4,-1.1371,0.48694,0.48028,0.2093
-28.3,-1.1343,0.48454,0.47787,0.2077
-28.2,-1.1315,0.48216,0.47547,0.206
-28.1,-1.1287,0.47976,0.47307,0.2044
-28,-1.1259,0.47737,0.47067,0.2027
-27.9,-1.123,0.47499,0.46827,0.2011
-27.8,-1.1201,0.47261,0.46588,0.1995
-27.7,-1.1172,0.47024,0.46349,0.1979
-27.6,-1.1144,0.46788,0.46113,0.1963
-27.5,-1.1114,0.46551,0.45874,0.1947
-27.4,-1.1085,0.46316,0.45638,0.1931
-27.3,-1.1056,0.46081,0.45402,0.1915
-27.2,-1.1026,0.45844,0.45164,0.1898
-27.1,-1.0997,0.4564,0.44959,0.1882
-27,-1.0967,0.45405,0.4472,0.1866
-26.9,-1.0937,0.45172,0.44485,0.185
-26.8,-1.0907,0.4494,0.44252,0.1834
-26.7,-1.0877,0.44707,0.44018,0.1818
-26.6,-1.0846,0.44475,0.43785,0.1802
-26.5,-1.0816,0.44244,0.43553,0.1787
-26.4,-1.0785,0.44013,0.43321,0.1771
-26.3,-1.0754,0.43783,0.4309,0.1755
-26.2,-1.0723,0.43553,0.42859,0.174
-26.1,-1.0692,0.43323,0.42628,0.1724
-26,-1.0661,0.43094,0.42398,0.1708
-25.9,-1.0629,0.42866,0.42169,0.1693
-25.8,-1.0598,0.42638,0.4194,0.1677
-25.7,-1.0566,0.42411,0.41712,0.1662
-25.6,-1.0534,0.42184,0.41484,0.1646
-25.5,-1.0502,0.41958,0.41257,0.1631
-25.4,-1.047,0.41732,0.4103,0.1615
-25.3,-1.0438,0.41508,0.40805,0.16
-25.2,-1.0406,0.41283,0.40579,0.1584
-25.1,-1.0373,0.41058,0.40353,0.1569
-25,-1.0341,0.40835,0.4013,0.1554
-24.9,-1.0308,0.40611,0.39904,0.1538
-24.8,-1.0275,0.40388,0.39681,0.1523
-24.7,-1.0242,0.40165,0.39457,0.1507
-24.6,-1.0209,0.39942,0.39233,0.1492
-24.5,-1.0176,0.3972,0.3901,0.1477
-24.4,-1.0142,0.39498,0.38787,0.1461
-24.3,-1.0109,0.39275,0.38564,0.1446
-24.2,-1.0075,0.39053,0.38337,0.1431
-24.1,-1.0041,0.3883,0.38113,0.1416
-24,-1.0007,0.38607,0.37889,0.14
-23.9,-0.9972,0.38385,0.37666,0.1385
-23.8,-0.9938,0.38161,0.37442,0.137
-23.7,-0.9903,0.37937,0.37217,0.1354
-23.6,-0.9868,0.37712,0.36991,0.1339
-23.5,-0.9833,0.37485,0.36764,0.1323
-23.4,-0.9797,0.37258,0.36536,0.1308
-23.3,-0.9761,0.37028,0.36306,0.1292
-23.2,-0.9724,0.36798,0.36075,0.1277
-23.1,-0.9687,0.36562,0.35839,0.1261
-23,-0.9649,0.36325,0.35601,0.1245
-21.3,-0.9044,0.32551,0.31825,0.1006
-21.2,-0.901,0.32345,0.31618,0.0994
-21.1,-0.8976,0.32138,0.31406,0.0982
-21,-0.8943,0.31934,0.31201,0.097
-20.9,-0.8909,0.31729,0.30995,0.0958
-20.8,-0.8875,0.31526,0.30792,0.0947
-20.7,-0.8841,0.31324,0.30589,0.0935
-20.6,-0.8807,0.31122,0.30386,0.0923
-20.5,-0.8772,0.3092,0.30183,0.0912
-20.4,-0.8738,0.3072,0.29983,0.09
-20.3,-0.8704,0.3052,0.29782,0.0888
-20.2,-0.8669,0.30322,0.29583,0.0877
-20.1,-0.8635,0.30122,0.29383,0.0866
-20,-0.86,0.29925,0.29185,0.0854
-19.9,-0.8566,0.29727,0.28987,0.0843
-19.8,-0.8531,0.29531,0.2879,0.0831
-19.7,-0.8496,0.29335,0.28594,0.082
-19.6,-0.8462,0.2914,0.28398,0.0809
-19.5,-0.8427,0.28946,0.28203,0.0798
-19.4,-0.8392,0.28752,0.28008,0.0787
-19.3,-0.8357,0.28559,0.27815,0.0776
-19.2,-0.8325,0.28399,0.27655,0.0764
-19.1,-0.829,0.28206,0.27461,0.0753
-19,-0.8255,0.28013,0.27268,0.0742
-18.9,-0.822,0.2782,0.27075,0.0731
-18.8,-0.8185,0.27628,0.26882,0.072
-18.7,-0.815,0.27437,0.2669,0.071
-18.6,-0.8114,0.27246,0.26498,0.0699
-18.5,-0.8079,0.27055,0.26307,0.0688
-18.4,-0.8044,0.26864,0.26116,0.0677
-18.3,-0.8009,0.26674,0.25925,0.0667
-18.2,-0.7974,0.26484,0.25735,0.0656
-18.1,-0.7938,0.26295,0.25541,0.0645
-18,-0.7903,0.26106,0.25352,0.0635
-17.9,-0.7868,0.25916,0.25162,0.0624
-17.8,-0.7833,0.25728,0.24973,0.0614
-17.7,-0.7797,0.2554,0.24784,0.0604
-17.6,-0.7762,0.25351,0.24595,0.0593
-17.5,-0.7726,0.25163,0.24407,0.0583
-17.4,-0.7691,0.24976,0.24219,0.0572
-17.3,-0.7656,0.24788,0.24031,0.0562
-17.2,-0.762,0.246,0.23843,0.0552
-17.1,-0.7585,0.24413,0.23655,0.0541
-17,-0.7549,0.24226,0.23468,0.0531
-16.9,-0.7514,0.24038,0.2328,0.0521
-16.8,-0.7478,0.23851,0.23093,0.051
-16.7,-0.7443,0.23663,0.22905,0.05
-16.6,-0.7407,0.23475,0.22717,0.049
-16.5,-0.7371,0.23287,0.22528,0.0479
-16.4,-0.7336,0.23099,0.2234,0.0469
-16.3,-0.73,0.2291,0.22151,0.0458
-16.2,-0.7264,0.2272,0.21961,0.0448
-16.1,-0.7228,0.2253,0.21771,0.0437
-16,-0.7192,0.22339,0.2158,0.0426
-15.9,-0.7156,0.22147,0.21388,0.0415
-15.8,-0.712,0.21953,0.21194,0.0404
-15.7,-0.7084,0.21757,0.20998,0.0391
-15.6,-0.7048,0.21559,0.20801,0.0378
-15.5,-0.7012,0.21356,0.20598,0.0363
-15.3,-0.6948,0.20957,0.2021,0.0325
-15.2,-0.6914,0.20773,0.20025,0.0318
-15.1,-0.688,0.20591,0.19843,0.0312
-15,-0.6847,0.20413,0.19665,0.0305
-14.9,-0.6813,0.20237,0.19488,0.0298
-14.8,-0.678,0.20062,0.19313,0.0291
-14.7,-0.6746,0.19889,0.1914,0.0283
-14.6,-0.6713,0.19718,0.18964,0.0276
-14.5,-0.6679,0.19547,0.18793,0.0269
-14.4,-0.6646,0.19378,0.18624,0.0261
-14.3,-0.6612,0.1921,0.18456,0.0254
-14.2,-0.6579,0.19043,0.18288,0.0246
-14.1,-0.6546,0.18877,0.18122,0.0239
-14,-0.6512,0.18711,0.17956,0.0231
-13.9,-0.6479,0.18546,0.17791,0.0224
-13.8,-0.6445,0.18382,0.17627,0.0216
-13.7,-0.6412,0.18218,0.17463,0.0209
-13.6,-0.6379,0.18055,0.173,0.0201
-13.5,-0.6346,0.17892,0.17138,0.0194
-13.4,-0.6312,0.1773,0.16976,0.0186
-13.3,-0.6279,0.17569,0.16814,0.0179
-13.2,-0.6246,0.17408,0.16654,0.0171
-13.1,-0.6213,0.17247,0.16493,0.0163
-13,-0.618,0.17087,0.16333,0.0156
-12.9,-0.6146,0.16927,0.16173,0.0148
-12.8,-0.6113,0.16767,0.16014,0.0141
-12.7,-0.608,0.16608,0.15855,0.0133
-12.6,-0.605,0.16473,0.15721,0.0124
-12.5,-0.6017,0.16313,0.15561,0.0116
-12.4,-0.5984,0.16153,0.15401,0.0108
-12.3,-0.5951,0.15993,0.15241,0.01
-12.2,-0.5919,0.15833,0.15082,0.0092
-12.1,-0.5886,0.15673,0.14922,0.0084
-12,-0.5854,0.15513,0.14763,0.0076
-11.9,-0.5822,0.15353,0.14603,0.0068
-11.8,-0.5789,0.15193,0.14444,0.006
-11.7,-0.5757,0.15032,0.14284,0.0052
-11.6,-0.5726,0.14871,0.14123,0.0043
-11.5,-0.5694,0.14709,0.13963,0.0035
-11.4,-0.5663,0.14548,0.13802,0.0026
-11.3,-0.5632,0.14385,0.13635,0.0017
-11.2,-0.5602,0.14221,0.13472,0.0007
-11.1,-0.5572,0.14055,0.13307,-0.0002
-11,-0.5543,0.13888,0.13141,-0.0013
-10.9,-0.5515,0.13716,0.12971,-0.0024
-10.8,-0.549,0.1354,0.12796,-0.0037
-10.7,-0.5467,0.13356,0.12614,-0.0052
-10.6,-0.5452,0.13157,0.12417,-0.0072
-10.5,-0.5443,0.12951,0.12222,-0.0095
-10.4,-0.5409,0.12805,0.12077,-0.0098
-10.3,-0.5376,0.12663,0.11935,-0.0101
-10.2,-0.5343,0.12523,0.11796,-0.0104
-10.1,-0.5311,0.12385,0.11658,-0.0108
-10,-0.5279,0.12248,0.11522,-0.0112
-9.9,-0.5248,0.12113,0.11388,-0.0116
-9.8,-0.5218,0.11979,0.11255,-0.0121
-9.7,-0.5188,0.11846,0.11123,-0.0126
-9.6,-0.5159,0.11714,0.10991,-0.013
-9.5,-0.5131,0.11582,0.10861,-0.0135
-9.4,-0.5103,0.11452,0.10732,-0.014
-9.3,-0.5076,0.11322,0.10603,-0.0145
-9.2,-0.505,0.11193,0.10476,-0.015
-9.1,-0.5025,0.11065,0.10349,-0.0155
-9,-0.5,0.10938,0.10223,-0.016
-8.9,-0.4976,0.10811,0.10098,-0.0165
-8.8,-0.4952,0.10684,0.09972,-0.017
-8.7,-0.4927,0.10555,0.09845,-0.0176
-8.6,-0.4899,0.10422,0.09714,-0.0183
-8.5,-0.4867,0.10287,0.0958,-0.0191
-8.4,-0.4836,0.10151,0.09445,-0.0199
-8.3,-0.4804,0.10015,0.0931,-0.0207
-8.2,-0.4772,0.09877,0.09173,-0.0216
-8.1,-0.4739,0.09738,0.09035,-0.0224
-8,-0.4706,0.09598,0.08896,-0.0233
-7.9,-0.4673,0.09456,0.08756,-0.0242
-7.8,-0.4639,0.09312,0.08613,-0.0252
-7.7,-0.4604,0.09167,0.08469,-0.0261
-7.6,-0.4569,0.09019,0.08322,-0.0271
-7.5,-0.4533,0.08868,0.08171,-0.0282
-7.4,-0.4497,0.08713,0.08017,-0.0293
-7.3,-0.4459,0.08553,0.07858,-0.0304
-7.2,-0.4419,0.08386,0.07691,-0.0317
-7.1,-0.4377,0.08208,0.07509,-0.0332
-7,-0.4332,0.08015,0.07315,-0.0348
-6.9,-0.4281,0.07795,0.07094,-0.0369
-6.7,-0.4125,0.0696,0.06253,-0.0466
-6.6,-0.4081,0.0688,0.06174,-0.0462
-6.5,-0.4035,0.06795,0.06085,-0.0461
-6.4,-0.3986,0.06705,0.05996,-0.046
-6.3,-0.3935,0.06611,0.05901,-0.0461
-6.2,-0.3881,0.06511,0.05801,-0.0463
-6.1,-0.3825,0.06406,0.05696,-0.0465
-6,-0.3772,0.06388,0.05678,-0.0463
-5.9,-0.3708,0.06257,0.05545,-0.047
-5.8,-0.364,0.0612,0.05405,-0.0477
-5.7,-0.3568,0.05977,0.05257,-0.0486
-5.6,-0.3491,0.05824,0.051,-0.0496
-5.5,-0.3409,0.05658,0.04928,-0.0507
-5.3,-0.3218,0.05258,0.04509,-0.0538
-5.1,-0.2852,0.04269,0.03407,-0.064
-5,-0.2783,0.0421,0.03356,-0.0636
-4.9,-0.2712,0.04157,0.03309,-0.0633
-4.8,-0.2636,0.04104,0.03257,-0.0631
-4.7,-0.2558,0.04045,0.03199,-0.063
-4.6,-0.2475,0.03981,0.03132,-0.063
-4.5,-0.2387,0.03907,0.03053,-0.0632
-4.4,-0.2293,0.03822,0.0296,-0.0635
-4.3,-0.2193,0.03722,0.02848,-0.0639
-4.2,-0.2083,0.03602,0.02706,-0.0646
-4.1,-0.1958,0.0345,0.02526,-0.0655
-4,-0.1798,0.03223,0.02235,-0.0672
-3.8,-0.162,0.03147,0.02163,-0.0672
-3.7,-0.1526,0.031,0.02114,-0.0672
-3.6,-0.1427,0.03044,0.02051,-0.0673
-3.4,-0.1199,0.02884,0.0185,-0.0679
-3.3,-0.1057,0.02769,0.01681,-0.0685
-3.2,-0.0962,0.02726,0.01651,-0.0685
-3.1,-0.0867,0.02696,0.01625,-0.0685
-3,-0.0768,0.02663,0.01592,-0.0684
-2.9,-0.0662,0.02621,0.01542,-0.0685
-2.8,-0.0544,0.02579,0.01457,-0.0686
-2.7,-0.0447,0.02547,0.01432,-0.0687
-2.6,-0.0347,0.02521,0.01409,-0.0686
-2.5,-0.0241,0.02489,0.01371,-0.0687
-2.4,-0.0124,0.02446,0.01305,-0.0688
-2.3,-0.0014,0.02412,0.01269,-0.0689
-2.2,0.0089,0.02391,0.01253,-0.0689
-2.1,0.0191,0.02388,0.01226,-0.0689
-2,0.0297,0.02363,0.01212,-0.069
-1.9,0.0403,0.02343,0.01194,-0.0691
-1.8,0.052,0.02318,0.01153,-0.0692
-1.7,0.0666,0.02294,0.01136,-0.0701
-1.6,0.0804,0.02293,0.01126,-0.0708
-1.5,0.0939,0.02273,0.01108,-0.0714
-1.4,0.1092,0.02253,0.01078,-0.0723
-1.2,0.1361,0.02233,0.01064,-0.0736
-1.1,0.151,0.02217,0.01042,-0.0744
-1,0.1647,0.022,0.01029,-0.0751
-0.9,0.1787,0.02196,0.01027,-0.0759
-0.8,0.1939,0.02178,0.01012,-0.0768
-0.7,0.2069,0.02164,0.00999,-0.0773
-0.6,0.2203,0.02149,0.00987,-0.0779
-0.4,0.249,0.02118,0.00971,-0.0795
-0.3,0.2633,0.02103,0.00964,-0.0803
-0.2,0.2788,0.02079,0.00962,-0.0815
0,0.3049,0.02042,0.00954,-0.0826
0.1,0.3179,0.02,0.00957,-0.0832
0.3,0.338,0.01945,0.00925,-0.0812
0.4,0.3495,0.01954,0.00925,-0.0814
0.5,0.3628,0.01964,0.00926,-0.0819
0.6,0.3782,0.01973,0.00925,-0.0828
0.7,0.3931,0.01983,0.00928,-0.0836
0.8,0.4054,0.0199,0.00928,-0.0838
0.9,0.4178,0.02,0.00933,-0.0842
1,0.4317,0.0201,0.00939,-0.0848
1.1,0.4476,0.02017,0.00941,-0.0858
1.2,0.4606,0.02026,0.00947,-0.0862
1.3,0.4718,0.02034,0.00953,-0.0863
1.4,0.4857,0.02043,0.00961,-0.0869
1.5,0.502,0.02048,0.00964,-0.0879
1.6,0.5131,0.02058,0.00973,-0.0879
1.7,0.5294,0.02049,0.00964,-0.0886
1.8,0.5423,0.02044,0.0096,-0.0887
1.9,0.5618,0.02027,0.00942,-0.0898
2,0.5697,0.02037,0.00953,-0.0892
2.1,0.5862,0.02023,0.00938,-0.0897
2.2,0.5961,0.0202,0.00937,-0.0892
2.3,0.6072,0.02011,0.00929,-0.0887
2.4,0.6185,0.01998,0.00916,-0.0882
2.5,0.6322,0.01995,0.00915,-0.0884
2.6,0.6412,0.02001,0.00924,-0.0879
2.7,0.6518,0.0199,0.00915,-0.0873
2.8,0.665,0.01985,0.00913,-0.0873
2.9,0.6744,0.01989,0.00921,-0.0868
3,0.6846,0.01991,0.00933,-0.0863
3.1,0.6955,0.01978,0.00922,-0.0857
3.2,0.706,0.01979,0.00927,-0.0853
3.3,0.7171,0.01977,0.0093,-0.0849
3.4,0.7289,0.01962,0.00917,-0.0844
3.5,0.7411,0.01957,0.00917,-0.0841
3.6,0.7547,0.01946,0.00911,-0.0841
3.7,0.7685,0.01936,0.00906,-0.084
3.8,0.7893,0.01894,0.00859,-0.0845
3.9,0.8069,0.01874,0.00833,-0.0847
4,0.8217,0.01867,0.00816,-0.0846
4.1,0.834,0.01873,0.00791,-0.0838
4.2,0.8436,0.01894,0.00805,-0.0831
4.3,0.8521,0.01922,0.00816,-0.0823
4.4,0.8602,0.01954,0.00833,-0.0816
4.6,0.874,0.02037,0.00875,-0.0799
4.7,0.8822,0.02074,0.00904,-0.0794
4.8,0.8904,0.02113,0.00934,-0.0789
4.9,0.8987,0.02152,0.00965,-0.0784
5,0.9057,0.02202,0.00996,-0.0778
5.1,0.9141,0.02245,0.01031,-0.0774
5.2,0.9229,0.02283,0.01067,-0.077
5.3,0.9315,0.02326,0.01104,-0.0766
5.4,0.9405,0.02366,0.01144,-0.0763
5.6,0.957,0.02453,0.01217,-0.0755
5.7,0.9662,0.02492,0.01268,-0.0752
5.8,0.975,0.02537,0.01307,-0.0749
5.9,0.9844,0.02574,0.01353,-0.0746
6,0.9933,0.02619,0.01396,-0.0743
6.1,1.0012,0.02651,0.01427,-0.0739
6.2,1.0101,0.02694,0.01469,-0.0736
6.3,1.0194,0.02734,0.01517,-0.0733
6.4,1.0282,0.02778,0.01562,-0.0729
6.5,1.0373,0.02822,0.01609,-0.0726
6.7,1.0537,0.02892,0.01685,-0.0719
6.8,1.0626,0.02936,0.01736,-0.0715
6.9,1.0711,0.02983,0.0178,-0.0712
7,1.0801,0.0303,0.01842,-0.0709
7.1,1.0891,0.03079,0.019,-0.0705
7.2,1.0976,0.03128,0.0195,-0.0702
7.3,1.1046,0.03151,0.0198,-0.0697
7.4,1.113,0.032,0.02033,-0.0693
7.5,1.121,0.03251,0.0208,-0.069
7.6,1.1299,0.03308,0.02148,-0.0686
7.7,1.1386,0.03365,0.02219,-0.0683
7.8,1.1468,0.0342,0.02278,-0.0679
7.9,1.1548,0.03476,0.0233,-0.0675
8.1,1.1692,0.03563,0.02442,-0.0666
8.2,1.1768,0.03619,0.02498,-0.0662
8.3,1.1843,0.03678,0.0255,-0.0658
8.4,1.1925,0.03755,0.02647,-0.0654
8.5,1.2004,0.03831,0.02747,-0.0649
8.6,1.2079,0.03901,0.02826,-0.0645
8.7,1.2153,0.03966,0.02894,-0.0641
8.8,1.2226,0.04031,0.02955,-0.0637
9,1.2339,0.04159,0.03121,-0.0625
9.1,1.2406,0.04237,0.03209,-0.062
9.2,1.247,0.04309,0.03286,-0.0615
9.3,1.2535,0.04377,0.03354,-0.0611
9.4,1.2603,0.04449,0.03419,-0.0607
9.5,1.2659,0.04552,0.0353,-0.0601
9.6,1.2705,0.04675,0.03688,-0.0594
9.7,1.2751,0.0479,0.03825,-0.0588
9.8,1.2798,0.04895,0.03946,-0.0581
10,1.2877,0.0497,0.04024,-0.0569
10.1,1.2931,0.05045,0.04096,-0.0564
10.2,1.2995,0.05133,0.04179,-0.0561
10.3,1.2993,0.05282,0.0436,-0.055
10.4,1.2994,0.05436,0.04546,-0.0541
10.5,1.2995,0.05583,0.04717,-0.0532
10.6,1.2995,0.05722,0.04875,-0.0524
10.7,1.2995,0.05854,0.05023,-0.0515
10.8,1.2993,0.05979,0.05161,-0.0507
10.9,1.2992,0.06097,0.05291,-0.0499
11,1.2986,0.06207,0.0541,-0.049
11.1,1.2979,0.06311,0.05521,-0.0481
11.2,1.2977,0.06412,0.05626,-0.0473
11.3,1.2982,0.06507,0.05725,-0.0466
11.4,1.3001,0.06597,0.05814,-0.0459
11.6,1.295,0.06743,0.05956,-0.0444
11.7,1.2868,0.0692,0.06152,-0.0436
11.8,1.2784,0.07104,0.06354,-0.043
11.9,1.2698,0.07294,0.0656,-0.0427
12,1.2611,0.07493,0.06772,-0.0426
12.1,1.2522,0.07698,0.06991,-0.0427
12.2,1.2431,0.07915,0.07219,-0.043
12.3,1.2338,0.08142,0.07458,-0.0436
12.5,1.2149,0.0863,0.07965,-0.0457
12.6,1.2053,0.08897,0.0824,-0.0472
12.7,1.1956,0.0918,0.0853,-0.0489
12.8,1.1859,0.09481,0.08838,-0.0511
13.8,1.1083,0.13545,0.12927,-0.084
13.9,1.0978,0.14303,0.13683,-0.0904
14,1.0889,0.15071,0.14447,-0.0965
14.1,1.0841,0.15658,0.15031,-0.1008
14.2,1.0822,0.16077,0.15448,-0.1038
14.3,1.0817,0.16409,0.15779,-0.106
14.4,1.082,0.16688,0.16058,-0.1079
14.5,1.0823,0.16887,0.16256,-0.1098
14.6,1.0841,0.17059,0.16429,-0.1108
14.7,1.0862,0.17209,0.16581,-0.1116
14.8,1.0885,0.17338,0.16712,-0.1122
14.9,1.0911,0.17444,0.1682,-0.1127
15,1.0939,0.1753,0.16908,-0.113
15.1,1.0969,0.17594,0.16974,-0.1131
15.2,1.1003,0.17628,0.17011,-0.1129
15.3,1.1041,0.17626,0.17012,-0.1124
15.4,1.1006,0.18289,0.17663,-0.1174
15.5,1.0971,0.19053,0.18421,-0.1233
15.6,1.0975,0.19463,0.18829,-0.1263
15.7,1.0989,0.19774,0.19138,-0.1285
15.8,1.1007,0.20037,0.19402,-0.1303
15.9,1.1028,0.20272,0.19637,-0.1318
16,1.1051,0.20485,0.1985,-0.1332
16.1,1.1075,0.2068,0.20047,-0.1345
16.2,1.1101,0.20862,0.2023,-0.1356
16.3,1.1128,0.21031,0.204,-0.1366
16.4,1.1155,0.2119,0.20561,-0.1376
16.6,1.1209,0.21316,0.20696,-0.1388
16.7,1.1239,0.21422,0.20803,-0.1393
16.8,1.1269,0.21513,0.20897,-0.1397
16.9,1.1299,0.21593,0.2098,-0.1399
17,1.1313,0.21992,0.21368,-0.1428
17.1,1.1325,0.22604,0.21976,-0.1476
17.2,1.135,0.22951,0.22322,-0.1502
17.3,1.1377,0.23228,0.22598,-0.1521
17.4,1.1405,0.23473,0.22844,-0.1538
17.5,1.1435,0.23697,0.23068,-0.1553
17.6,1.1464,0.23906,0.23278,-0.1568
17.7,1.1494,0.24105,0.23477,-0.1581
17.8,1.1525,0.24293,0.23667,-0.1594
17.9,1.1555,0.24475,0.23849,-0.1606
18,1.1585,0.24648,0.24024,-0.1618
18.1,1.1616,0.24816,0.24193,-0.1629
18.2,1.1646,0.24978,0.24356,-0.164
18.3,1.1677,0.25134,0.24514,-0.165
18.4,1.1707,0.25285,0.24667,-0.166
18.5,1.1737,0.2543,0.24813,-0.1669
18.6,1.1768,0.2557,0.24955,-0.1678
18.7,1.1798,0.25706,0.25093,-0.1686
18.8,1.1827,0.25837,0.25225,-0.1694
18.9,1.1857,0.25961,0.25351,-0.1701
19,1.1886,0.26081,0.25475,-0.1706
19.1,1.1921,0.26685,0.26065,-0.1755
19.2,1.1957,0.27056,0.26434,-0.1783
19.3,1.1992,0.27341,0.2672,-0.1804
19.4,1.2027,0.27645,0.27022,-0.1832
19.5,1.206,0.27854,0.27232,-0.1847
19.6,1.2094,0.28056,0.27435,-0.1861
19.7,1.2127,0.28253,0.27633,-0.1875
19.8,1.216,0.28445,0.27826,-0.1888
19.9,1.2192,0.28633,0.28015,-0.1901
20,1.2225,0.28817,0.28201,-0.1915
20.1,1.2257,0.28998,0.28383,-0.1927
20.2,1.2289,0.29176,0.28562,-0.194
20.3,1.2321,0.29351,0.28739,-0.1953
20.4,1.2353,0.29525,0.28914,-0.1965
20.5,1.2384,0.29695,0.29085,-0.1977
20.6,1.2415,0.29861,0.29252,-0.1989
20.7,1.2446,0.30025,0.29423,-0.2001
20.8,1.2477,0.30188,0.29588,-0.2012
20.9,1.2507,0.30346,0.29747,-0.2023
21,1.2537,0.30503,0.29906,-0.2034
21.1,1.2566,0.30656,0.30061,-0.2044
21.2,1.2595,0.30813,0.3022,-0.2054
21.3,1.2637,0.31202,0.306,-0.2083
21.4,1.2684,0.3163,0.31026,-0.2115
21.5,1.2723,0.31929,0.31325,-0.2136
21.6,1.276,0.32193,0.31589,-0.2154
21.7,1.2796,0.32447,0.31844,-0.2172
21.8,1.2832,0.32688,0.32085,-0.2189
21.9,1.2867,0.3292,0.32319,-0.2206
22,1.2902,0.33145,0.32544,-0.2222
22.1,1.2936,0.33365,0.32765,-0.2237
22.2,1.2969,0.3358,0.32982,-0.2253
22.3,1.3003,0.33794,0.33197,-0.2268
22.4,1.3036,0.34004,0.33408,-0.2283
22.5,1.3069,0.34212,0.33617,-0.2298
22.6,1.3102,0.34418,0.33825,-0.2313
22.7,1.3134,0.34622,0.3403,-0.2328
22.8,1.3166,0.34825,0.34234,-0.2343
22.9,1.3198,0.35027,0.34438,-0.2358
23,1.323,0.35226,0.34638,-0.2372
23.1,1.3262,0.35426,0.3484,-0.2387
23.2,1.3293,0.35623,0.35038,-0.2402
23.3,1.3324,0.35822,0.35238,-0.2416
23.4,1.3355,0.36018,0.35436,-0.2431
23.5,1.3386,0.36214,0.35633,-0.2445
23.6,1.3416,0.36409,0.3583,-0.246
23.7,1.3447,0.36605,0.36027,-0.2474
23.8,1.3476,0.36798,0.36222,-0.2489
23.9,1.3506,0.3699,0.36415,-0.2503
24,1.3536,0.37183,0.36611,-0.2517
24.1,1.3564,0.37375,0.36809,-0.2531
24.3,1.3618,0.37706,0.37135,-0.2563
24.4,1.3669,0.3814,0.37568,-0.2593
24.5,1.3709,0.3846,0.37888,-0.2616
24.6,1.3746,0.38745,0.38173,-0.2636
24.7,1.3781,0.3901,0.3844,-0.2655
24.8,1.3815,0.39268,0.38699,-0.2673
24.9,1.3849,0.39517,0.38948,-0.2691
25,1.3882,0.39767,0.39199,-0.2709
25.1,1.3915,0.40007,0.3944,-0.2726
25.2,1.3947,0.40246,0.3968,-0.2743
25.3,1.3979,0.4048,0.39916,-0.2761
25.4,1.401,0.40717,0.40154,-0.2778
25.5,1.4041,0.40949,0.40387,-0.2795
25.6,1.4072,0.41179,0.40619,-0.2812
25.7,1.4103,0.41409,0.4085,-0.2829
25.8,1.4133,0.41637,0.4108,-0.2846
25.9,1.4163,0.41865,0.41309,-0.2863
26,1.4193,0.42092,0.41538,-0.288
26.1,1.4223,0.42318,0.41765,-0.2897
26.2,1.4253,0.42544,0.41993,-0.2914
26.3,1.4282,0.42769,0.42219,-0.293
26.4,1.4311,0.42993,0.42444,-0.2947
26.5,1.4339,0.43216,0.4267,-0.2964
26.6,1.4368,0.4344,0.42894,-0.2981
26.7,1.4396,0.43662,0.43119,-0.2998
26.8,1.4424,0.43885,0.43343,-0.3015
26.9,1.4452,0.44109,0.43568,-0.3032
27,1.448,0.4433,0.43791,-0.3048
27.1,1.4507,0.44553,0.44016,-0.3065
27.2,1.4535,0.44776,0.4424,-0.3082
27.3,1.4562,0.44999,0.44465,-0.3099
27.4,1.4589,0.45222,0.44694,-0.3116
27.5,1.4615,0.45444,0.44917,-0.3133
27.6,1.4642,0.45666,0.45141,-0.315
27.7,1.4668,0.45889,0.45366,-0.3167
27.8,1.4694,0.4611,0.45589,-0.3184
27.9,1.472,0.46333,0.45814,-0.3201
28,1.4745,0.46558,0.4604,-0.3218
28.1,1.4771,0.46779,0.46263,-0.3235
28.2,1.4796,0.47004,0.4649,-0.3252
28.3,1.4821,0.4723,0.46717,-0.3269
28.4,1.4845,0.47455,0.46945,-0.3286
28.5,1.4869,0.47679,0.47171,-0.3303
28.6,1.4893,0.47905,0.47398,-0.332
28.7,1.4917,0.48131,0.47627,-0.3337
28.8,1.494,0.48361,0.47858,-0.3354
28.9,1.4963,0.48591,0.4809,-0.337
29,1.4985,0.4882,0.48321,-0.3387
29.2,1.5066,0.49546,0.49039,-0.3441
29.3,1.5101,0.49878,0.49372,-0.3466
29.5,1.5162,0.50465,0.4996,-0.3509
29.6,1.5191,0.50742,0.50239,-0.353
29.7,1.5219,0.51016,0.50514,-0.355
29.8,1.5245,0.51279,0.50778,-0.357
29.9,1.5272,0.51545,0.51046,-0.359
30,1.5299,0.5181,0.51312,-0.3611

