airfoilName st24.dat
Re 	730000
M 	0
N 	4.500000e+00
VACC 	0 VACCflag 1
XTR 	1.00 	1.00 XTRflag 0
alpha,cl,cd,cdp,cm
-7.4,-0.3951,0.0212,0.01799,-0.0922
-7.3,-0.3834,0.01965,0.01624,-0.0934
-7.2,-0.3717,0.01859,0.01501,-0.0942
-7.1,-0.3599,0.01775,0.01404,-0.0949
-7,-0.3479,0.0175,0.01375,-0.0953
-6.9,-0.336,0.01678,0.0129,-0.0959
-6.8,-0.3239,0.01615,0.01216,-0.0964
-6.7,-0.3118,0.01557,0.01148,-0.0969
-6.6,-0.2996,0.01505,0.01085,-0.0974
-6.5,-0.2873,0.01457,0.01029,-0.0979
-6.4,-0.2754,0.01415,0.00978,-0.0982
-6.3,-0.2645,0.01376,0.00932,-0.0983
-6.2,-0.2531,0.01339,0.00887,-0.0985
-6.1,-0.2415,0.01304,0.00845,-0.0987
-6,-0.2298,0.01271,0.00805,-0.099
-5.9,-0.2179,0.01241,0.00768,-0.0992
-5.8,-0.206,0.01211,0.0073,-0.0995
-5.7,-0.194,0.01184,0.00698,-0.0997
-5.6,-0.1819,0.01159,0.00666,-0.1
-5.5,-0.1699,0.01135,0.00637,-0.1002
-5.4,-0.1588,0.01114,0.00611,-0.1002
-5.3,-0.1478,0.01094,0.00587,-0.1002
-5.2,-0.1364,0.01076,0.00564,-0.1003
-5.1,-0.1249,0.01061,0.00546,-0.1004
-5,-0.1133,0.01046,0.00527,-0.1005
-4.9,-0.1016,0.01035,0.00513,-0.1005
-4.8,-0.09,0.0102,0.00496,-0.1007
-4.7,-0.0784,0.0097,0.00437,-0.1008
-4.6,-0.0673,0.00947,0.0041,-0.1008
-4.5,-0.0562,0.0093,0.0039,-0.1007
-4.4,-0.0448,0.00917,0.00374,-0.1007
-4.3,-0.0334,0.00904,0.00358,-0.1007
-4.2,-0.0222,0.00893,0.00344,-0.1007
-4.1,-0.0109,0.00881,0.00331,-0.1007
-4,0.0002,0.00871,0.00317,-0.1006
-3.9,0.0114,0.00861,0.00305,-0.1006
-3.8,0.0226,0.00852,0.00292,-0.1005
-3.7,0.0339,0.00843,0.00282,-0.1005
-3.6,0.0452,0.0083,0.00268,-0.1005
-3.5,0.0564,0.00821,0.00257,-0.1005
-3.4,0.0675,0.00813,0.00247,-0.1004
-3.3,0.0788,0.00806,0.00238,-0.1004
-3.2,0.0901,0.00799,0.0023,-0.1004
-3.1,0.1012,0.00793,0.00222,-0.1003
-3,0.1125,0.00787,0.00215,-0.1003
-2.9,0.1237,0.0078,0.00207,-0.1002
-2.8,0.1349,0.00774,0.00201,-0.1002
-2.7,0.146,0.00769,0.00195,-0.1001
-2.6,0.1573,0.00764,0.00189,-0.1001
-2.5,0.1684,0.00759,0.00183,-0.1
-2.4,0.1789,0.00755,0.00176,-0.0998
-2.3,0.1902,0.0075,0.00172,-0.0998
-2.1,0.212,0.00742,0.00163,-0.0996
-2,0.2233,0.00738,0.00158,-0.0995
-1.9,0.2341,0.00735,0.00152,-0.0994
-1.8,0.2454,0.00732,0.00149,-0.0994
-1.7,0.2565,0.0073,0.00145,-0.0993
-1.6,0.2671,0.00729,0.00141,-0.0991
-1.5,0.2784,0.00726,0.00138,-0.0991
-1.4,0.2897,0.00724,0.00135,-0.0991
-1.3,0.3009,0.00723,0.00132,-0.099
-1.2,0.312,0.00721,0.0013,-0.099
-1.1,0.3229,0.00722,0.00126,-0.0988
-1,0.3341,0.0072,0.00124,-0.0988
-0.9,0.3451,0.0072,0.00123,-0.0988
-0.8,0.3563,0.0072,0.00121,-0.0987
-0.7,0.3673,0.00721,0.00119,-0.0986
-0.6,0.378,0.00725,0.00118,-0.0985
-0.5,0.3889,0.00727,0.00117,-0.0984
-0.4,0.4,0.00728,0.00117,-0.0984
-0.3,0.4111,0.00729,0.00116,-0.0983
-0.2,0.4216,0.00738,0.00116,-0.0981
0,0.4433,0.00747,0.00117,-0.098
0.1,0.4542,0.00751,0.00118,-0.0979
0.2,0.465,0.00757,0.00119,-0.0978
0.3,0.4751,0.00772,0.0012,-0.0976
0.4,0.4851,0.00789,0.00124,-0.0974
0.5,0.4959,0.00796,0.00127,-0.0973
0.6,0.5064,0.00807,0.00131,-0.0972
0.7,0.5169,0.00819,0.00135,-0.0971
0.8,0.5277,0.00828,0.00137,-0.0971
0.9,0.5384,0.00837,0.00141,-0.097
1,0.5482,0.0086,0.00147,-0.0968
1.1,0.5588,0.0087,0.00153,-0.0968
1.2,0.5693,0.00882,0.00157,-0.0967
1.3,0.5798,0.00895,0.00163,-0.0966
1.4,0.5902,0.00909,0.00169,-0.0965
1.5,0.5996,0.0094,0.00179,-0.0964
1.6,0.6102,0.0095,0.00184,-0.0963
2.1,0.6577,0.00828,0.00216,-0.0949
2.2,0.6683,0.00841,0.00222,-0.0949
2.3,0.6793,0.00848,0.00226,-0.0948
2.4,0.6902,0.00857,0.00231,-0.0948
2.5,0.7011,0.00863,0.00236,-0.0947
2.6,0.7121,0.0087,0.00242,-0.0947
2.7,0.7229,0.00879,0.00247,-0.0946
2.8,0.7337,0.00889,0.00252,-0.0946
2.9,0.7445,0.00897,0.00258,-0.0945
3,0.7555,0.00903,0.00262,-0.0945
3.1,0.7664,0.00911,0.00267,-0.0944
3.2,0.7771,0.0092,0.00273,-0.0944
3.3,0.7879,0.00929,0.00279,-0.0943
3.4,0.7986,0.00938,0.00285,-0.0942
3.5,0.8095,0.00946,0.00291,-0.0942
3.6,0.8203,0.00953,0.00297,-0.0941
3.7,0.8311,0.00961,0.00303,-0.0941
3.8,0.8418,0.0097,0.00311,-0.094
3.9,0.8526,0.00978,0.00319,-0.0939
4,0.8631,0.0099,0.00326,-0.0938
4.1,0.8738,0.00999,0.00334,-0.0938
4.2,0.8846,0.01007,0.00341,-0.0937
4.3,0.8952,0.01016,0.00348,-0.0936
4.4,0.9058,0.01027,0.00356,-0.0935
4.5,0.9163,0.01037,0.00364,-0.0934
4.6,0.9269,0.01047,0.00372,-0.0933
4.7,0.9374,0.01058,0.00382,-0.0932
4.8,0.948,0.01067,0.0039,-0.0931
4.9,0.9586,0.01076,0.00398,-0.093
5,0.969,0.01087,0.00407,-0.0929
5.1,0.9795,0.01099,0.00418,-0.0928
5.2,0.9898,0.01111,0.00429,-0.0927
5.3,1.0002,0.01122,0.00439,-0.0926
5.4,1.0105,0.01135,0.00449,-0.0925
5.5,1.021,0.01145,0.0046,-0.0924
5.6,1.0314,0.01155,0.00471,-0.0923
5.7,1.0418,0.01166,0.00481,-0.0921
5.8,1.052,0.0118,0.00492,-0.092
5.9,1.0623,0.01192,0.00505,-0.0918
6,1.0726,0.01203,0.00516,-0.0917
6.1,1.0829,0.01214,0.00528,-0.0916
6.2,1.0929,0.0123,0.0054,-0.0914
6.3,1.1029,0.01245,0.00554,-0.0913
6.4,1.1132,0.01256,0.00569,-0.0911
6.5,1.1234,0.01268,0.00581,-0.091
6.6,1.1335,0.01281,0.00594,-0.0908
6.7,1.1436,0.01294,0.00608,-0.0906
6.8,1.1536,0.01309,0.00622,-0.0905
6.9,1.1635,0.01324,0.00637,-0.0903
7,1.1735,0.01339,0.00653,-0.0901
7.1,1.1835,0.01351,0.00667,-0.0899
7.2,1.1935,0.01365,0.00682,-0.0898
7.3,1.2035,0.01379,0.00697,-0.0896
7.4,1.2134,0.01393,0.00713,-0.0894
7.5,1.2229,0.01412,0.00729,-0.0892
7.6,1.2323,0.01432,0.00749,-0.0889
7.7,1.2422,0.01446,0.00767,-0.0887
7.8,1.252,0.0146,0.00781,-0.0885
7.9,1.2616,0.01476,0.00798,-0.0883
8,1.2712,0.01493,0.00816,-0.0881
8.1,1.2807,0.01511,0.00834,-0.0878
8.2,1.2901,0.0153,0.00854,-0.0876
8.3,1.2994,0.01551,0.00876,-0.0873
8.4,1.309,0.01566,0.00893,-0.0871
8.5,1.3186,0.01581,0.00912,-0.0868
8.6,1.328,0.01598,0.00931,-0.0866
8.7,1.3374,0.01616,0.0095,-0.0863
8.8,1.3466,0.01634,0.0097,-0.0861
8.9,1.3558,0.01654,0.00991,-0.0858
9,1.3648,0.01675,0.01014,-0.0855
9.1,1.3737,0.01698,0.01039,-0.0852
9.2,1.3827,0.01719,0.01062,-0.0849
9.3,1.3918,0.01737,0.01083,-0.0846
9.4,1.4008,0.01756,0.01105,-0.0843
9.5,1.4098,0.01776,0.01127,-0.0839
9.6,1.4186,0.01798,0.0115,-0.0836
9.7,1.4272,0.0182,0.01175,-0.0833
9.8,1.4357,0.01844,0.012,-0.0829
9.9,1.444,0.01871,0.01229,-0.0825
10,1.4525,0.01895,0.01256,-0.0821
10.1,1.4611,0.01914,0.01276,-0.0818
10.2,1.4694,0.01938,0.01303,-0.0814
10.3,1.4776,0.01963,0.0133,-0.081
10.4,1.4857,0.0199,0.01359,-0.0806
10.5,1.4935,0.02018,0.0139,-0.0801
10.6,1.5012,0.02048,0.01424,-0.0796
10.7,1.5088,0.02078,0.01458,-0.0791
10.8,1.5165,0.02106,0.0149,-0.0786
10.9,1.524,0.02134,0.01523,-0.0781
11,1.5314,0.02164,0.01557,-0.0776
11.1,1.5387,0.02195,0.01591,-0.0771
11.2,1.5458,0.02226,0.01627,-0.0765
11.3,1.5527,0.02258,0.01663,-0.0759
11.4,1.5594,0.02292,0.01701,-0.0753
11.5,1.566,0.02326,0.01739,-0.0746
11.6,1.5723,0.0236,0.01778,-0.074
11.7,1.5784,0.02396,0.01818,-0.0733
11.8,1.5841,0.02434,0.0186,-0.0725
11.9,1.5896,0.02472,0.01903,-0.0717
12,1.5947,0.02512,0.01947,-0.0709
12.1,1.5993,0.02553,0.01993,-0.07
12.2,1.6035,0.02597,0.02042,-0.069
12.3,1.6065,0.02642,0.02092,-0.0678
12.4,1.6089,0.02689,0.02144,-0.0666
12.5,1.6106,0.02742,0.02203,-0.0652
12.6,1.6121,0.02797,0.02265,-0.0639
12.7,1.6125,0.02861,0.02336,-0.0624
12.8,1.6124,0.02928,0.0241,-0.061
12.9,1.6126,0.02993,0.0248,-0.0596
13,1.6155,0.03037,0.02529,-0.0586
13.1,1.6177,0.03088,0.02585,-0.0576
13.2,1.6196,0.0314,0.02643,-0.0565
13.3,1.621,0.03197,0.02706,-0.0555
13.4,1.6223,0.03256,0.0277,-0.0544
13.5,1.6229,0.0332,0.02841,-0.0534
13.6,1.6235,0.03386,0.02913,-0.0524
13.7,1.6234,0.03457,0.0299,-0.0514
13.8,1.623,0.03533,0.03072,-0.0504
13.9,1.6223,0.03611,0.03157,-0.0494
14,1.6212,0.03696,0.03249,-0.0485
14.1,1.6197,0.03786,0.03345,-0.0476
14.2,1.6177,0.0388,0.03446,-0.0468
14.3,1.6156,0.03978,0.0355,-0.046
14.4,1.6127,0.04087,0.03667,-0.0453
14.5,1.6097,0.042,0.03786,-0.0447
14.6,1.6059,0.04324,0.03917,-0.0442
14.7,1.602,0.04454,0.04054,-0.0438
14.8,1.5974,0.04593,0.042,-0.0435
14.9,1.5922,0.04743,0.04357,-0.0434
15,1.5865,0.04907,0.04529,-0.0434
15.1,1.5801,0.05085,0.04715,-0.0436
15.2,1.573,0.05282,0.04919,-0.0441
15.3,1.5655,0.05493,0.05138,-0.0448
15.4,1.5567,0.05732,0.05385,-0.0458
15.5,1.5475,0.0599,0.05652,-0.0472
15.6,1.5368,0.06292,0.05963,-0.049
15.7,1.5247,0.06641,0.06322,-0.0516
15.8,1.5112,0.07052,0.06743,-0.0549
15.9,1.4941,0.07588,0.07292,-0.0596
16,1.4698,0.08406,0.08127,-0.0673
16.1,1.356,0.12295,0.12072,-0.1003
16.2,1.3407,0.12956,0.12742,-0.105
16.3,1.324,0.13652,0.13446,-0.11
16.4,1.3082,0.1431,0.14111,-0.1147
16.5,1.2942,0.14906,0.14713,-0.1191
16.6,1.2786,0.15565,0.15379,-0.1241
16.7,1.2668,0.16102,0.15922,-0.1283
16.8,1.2556,0.16639,0.16463,-0.1324
16.9,1.2476,0.17082,0.1691,-0.136
17,1.2382,0.17628,0.17462,-0.1401
17.1,1.2334,0.18014,0.1785,-0.1431
17.2,1.2275,0.18496,0.18336,-0.1466
17.3,1.2234,0.18931,0.18775,-0.1497
17.4,1.2212,0.1929,0.19137,-0.1523
17.5,1.219,0.1967,0.1952,-0.155
17.6,1.2149,0.20209,0.20063,-0.1585
17.7,1.2139,0.20564,0.2042,-0.1609
17.8,1.2132,0.20919,0.20776,-0.1634
17.9,1.2104,0.2146,0.21321,-0.1666
18,1.2104,0.21807,0.21669,-0.1689
18.1,1.211,0.22109,0.21973,-0.171
18.2,1.2121,0.2238,0.22244,-0.1729
18.3,1.2134,0.22641,0.22506,-0.1748
18.4,1.2149,0.22879,0.22744,-0.1766
18.5,1.2168,0.23079,0.22945,-0.1783
18.6,1.2185,0.23296,0.23162,-0.18
18.7,1.221,0.23415,0.23281,-0.1813
18.8,1.2231,0.23558,0.23424,-0.1828

