airfoilName st25.dat
Re 	4.300000e+05
M 	0
N 	4.500000e+00
VACC 	0 VACCflag 1
XTR 	1.00 	1.00 XTRflag 0
alpha,cl,cd,cdp,cm
-30,-1.1646,0.49649,0.49448,0.2491
-29.9,-1.162,0.49418,0.49217,0.2474
-29.8,-1.1593,0.49187,0.48986,0.2457
-29.7,-1.1566,0.48957,0.48755,0.244
-29.6,-1.154,0.48731,0.48529,0.2423
-29.5,-1.1513,0.48504,0.48302,0.2406
-29.4,-1.1485,0.4828,0.48076,0.2389
-29.3,-1.1458,0.48055,0.47851,0.2371
-29.2,-1.1431,0.47833,0.47629,0.2355
-29.1,-1.1403,0.47612,0.47407,0.2338
-29,-1.1375,0.47392,0.47187,0.2321
-28.9,-1.1348,0.47171,0.46965,0.2304
-28.8,-1.132,0.46954,0.46748,0.2287
-28.7,-1.1292,0.46737,0.4653,0.227
-28.6,-1.1263,0.46521,0.46314,0.2253
-28.5,-1.1235,0.46306,0.46099,0.2237
-28.4,-1.1207,0.46093,0.45885,0.222
-28.3,-1.1178,0.45878,0.4567,0.2203
-28.2,-1.115,0.45665,0.45456,0.2187
-28.1,-1.1121,0.45452,0.45243,0.217
-28,-1.1092,0.45242,0.45032,0.2154
-27.9,-1.1063,0.45028,0.44818,0.2137
-27.8,-1.1034,0.44818,0.44607,0.2121
-27.7,-1.1004,0.44609,0.44398,0.2104
-27.6,-1.0975,0.44399,0.44187,0.2088
-27.5,-1.0945,0.44189,0.43978,0.2072
-27.4,-1.0916,0.43981,0.43769,0.2055
-27.3,-1.0886,0.43773,0.43561,0.2039
-27.2,-1.0856,0.43565,0.43353,0.2023
-27.1,-1.0826,0.43358,0.43145,0.2007
-27,-1.0796,0.43152,0.42937,0.1991
-26.9,-1.0766,0.42946,0.42731,0.1975
-26.8,-1.0735,0.42739,0.42524,0.1959
-26.7,-1.0705,0.42534,0.42319,0.1943
-26.6,-1.0674,0.42329,0.42113,0.1927
-26.5,-1.0644,0.42124,0.41908,0.1911
-26.4,-1.0613,0.41919,0.41702,0.1895
-26.3,-1.0582,0.41716,0.41499,0.188
-26.2,-1.0551,0.41513,0.41296,0.1864
-26.1,-1.052,0.41308,0.41091,0.1848
-26,-1.0489,0.41105,0.40887,0.1832
-25.9,-1.0457,0.40904,0.40685,0.1817
-25.8,-1.0426,0.40702,0.40483,0.1801
-25.7,-1.0394,0.405,0.40281,0.1786
-25.6,-1.0363,0.40301,0.40082,0.177
-25.5,-1.0331,0.401,0.3988,0.1754
-25.4,-1.03,0.39901,0.39681,0.1739
-25.3,-1.0268,0.39701,0.3948,0.1723
-25.2,-1.0236,0.39503,0.39283,0.1708
-25.1,-1.0204,0.39305,0.39084,0.1692
-25,-1.0172,0.39107,0.38886,0.1677
-24.9,-1.014,0.38911,0.3869,0.1661
-24.8,-1.0108,0.38711,0.3849,0.1645
-24.7,-1.0076,0.38515,0.38294,0.163
-24.6,-1.0044,0.38318,0.38096,0.1614
-24.5,-1.0012,0.38122,0.379,0.1599
-24.4,-0.9979,0.37925,0.37702,0.1583
-24.3,-0.9947,0.37729,0.37506,0.1567
-24.2,-0.9915,0.3753,0.37306,0.1551
-24.1,-0.9882,0.37332,0.37108,0.1535
-24,-0.985,0.37132,0.36907,0.1519
-23.9,-0.9817,0.36929,0.36704,0.1503
-23.8,-0.9784,0.36725,0.365,0.1487
-23.7,-0.975,0.36515,0.3629,0.1471
-23.6,-0.9716,0.36303,0.36077,0.1456
-23.5,-0.9682,0.36084,0.35858,0.144
-23.4,-0.9647,0.35859,0.35633,0.1424
-23.2,-0.955,0.35314,0.35091,0.1366
-23.1,-0.9517,0.35098,0.34874,0.1353
-23,-0.9484,0.34884,0.3466,0.134
-22.9,-0.945,0.34666,0.34442,0.1327
-22.8,-0.9417,0.34453,0.34228,0.1315
-22.7,-0.9383,0.34235,0.3401,0.1302
-22.6,-0.935,0.34022,0.33797,0.129
-22.5,-0.9316,0.33808,0.33583,0.1277
-22.4,-0.9282,0.33595,0.33369,0.1265
-22.3,-0.9249,0.33384,0.33158,0.1252
-22.2,-0.9215,0.33172,0.32946,0.124
-22.1,-0.9181,0.32959,0.32733,0.1228
-22,-0.9147,0.32749,0.32522,0.1216
-21.9,-0.9113,0.32539,0.32312,0.1204
-21.8,-0.908,0.3233,0.32103,0.1191
-21.7,-0.9046,0.32124,0.31896,0.1179
-21.6,-0.9012,0.31918,0.3169,0.1167
-21.5,-0.8978,0.31715,0.31487,0.1155
-21.4,-0.8944,0.31513,0.31284,0.1143
-21.3,-0.891,0.31313,0.31084,0.1131
-21.2,-0.8876,0.31115,0.30886,0.1119
-21.1,-0.8842,0.30919,0.3069,0.1107
-21,-0.8808,0.30725,0.30494,0.1096
-20.9,-0.8775,0.30533,0.30302,0.1084
-20.8,-0.8741,0.30341,0.3011,0.1072
-20.7,-0.8707,0.30152,0.29921,0.106
-20.6,-0.8673,0.29965,0.29733,0.1048
-20.5,-0.8639,0.29778,0.29547,0.1036
-20.4,-0.8605,0.29592,0.2936,0.1025
-20.3,-0.8571,0.29409,0.29177,0.1013
-20.2,-0.8537,0.29227,0.28994,0.1001
-20.1,-0.8503,0.29044,0.28812,0.0989
-20,-0.8469,0.28864,0.28632,0.0978
-19.9,-0.8436,0.28684,0.28451,0.0966
-19.8,-0.8402,0.28504,0.28271,0.0954
-19.7,-0.8368,0.28328,0.28094,0.0943
-19.6,-0.8334,0.28148,0.27914,0.0931
-19.5,-0.83,0.27969,0.27736,0.092
-19.4,-0.8266,0.2779,0.27556,0.0908
-19.3,-0.8232,0.27612,0.27378,0.0897
-19.2,-0.8199,0.27435,0.27201,0.0885
-19.1,-0.8165,0.27256,0.27022,0.0874
-19,-0.8131,0.27078,0.26843,0.0862
-18.9,-0.8097,0.269,0.26666,0.0851
-18.8,-0.8063,0.26721,0.26487,0.084
-18.7,-0.8029,0.26543,0.26308,0.0828
-18.6,-0.7995,0.26364,0.26129,0.0817
-18.5,-0.7962,0.26185,0.2595,0.0806
-18.4,-0.7928,0.26005,0.2577,0.0795
-18.3,-0.7894,0.25824,0.25589,0.0783
-18.2,-0.7859,0.25644,0.25409,0.0772
-18.1,-0.7825,0.25463,0.25226,0.0761
-18,-0.7791,0.25281,0.25044,0.075
-17.9,-0.7757,0.25099,0.24862,0.0739
-17.8,-0.7723,0.24915,0.24678,0.0728
-17.7,-0.7689,0.24731,0.24494,0.0717
-17.6,-0.7655,0.24546,0.24309,0.0706
-17.5,-0.7621,0.24361,0.24124,0.0695
-17.4,-0.7588,0.24174,0.23936,0.0684
-17.3,-0.7554,0.23986,0.23748,0.0674
-17.2,-0.752,0.23795,0.23558,0.0663
-17.1,-0.7486,0.23604,0.23366,0.0652
-17,-0.7452,0.2341,0.23172,0.0641
-16.9,-0.7418,0.23212,0.22974,0.063
-16.8,-0.7384,0.23013,0.22775,0.0619
-16.7,-0.735,0.22809,0.22571,0.0609
-16.6,-0.7316,0.22598,0.2236,0.0598
-16.5,-0.7281,0.22378,0.2214,0.0587
-16.4,-0.7245,0.22145,0.21906,0.0575
-16.3,-0.7207,0.21878,0.2164,0.0563
-16.2,-0.7164,0.21571,0.21332,0.0547
-16.1,-0.7112,0.21154,0.20919,0.0518
-16,-0.7082,0.20972,0.20736,0.051
-15.9,-0.7052,0.2079,0.20554,0.0503
-15.8,-0.7021,0.20609,0.20372,0.0495
-15.7,-0.6991,0.20429,0.20192,0.0487
-15.6,-0.6962,0.2025,0.20014,0.048
-15.5,-0.6932,0.20073,0.19837,0.0472
-15.4,-0.6902,0.19898,0.19662,0.0464
-15.3,-0.6872,0.19726,0.19489,0.0456
-15.2,-0.6842,0.19555,0.19318,0.0448
-15.1,-0.6812,0.19386,0.19149,0.044
-15,-0.6782,0.19219,0.18982,0.0432
-14.9,-0.6752,0.19053,0.18817,0.0424
-14.8,-0.6722,0.1889,0.18653,0.0416
-14.7,-0.6692,0.18728,0.18491,0.0408
-14.6,-0.6662,0.18567,0.1833,0.0399
-14.5,-0.6631,0.18405,0.18168,0.0391
-14.4,-0.6601,0.18246,0.18007,0.0383
-14.3,-0.6571,0.18086,0.17848,0.0375
-14.2,-0.6541,0.17929,0.1769,0.0366
-14.1,-0.6511,0.1777,0.17531,0.0358
-14,-0.6481,0.17611,0.17373,0.035
-13.9,-0.6451,0.17453,0.17215,0.0342
-13.8,-0.6421,0.17295,0.17057,0.0333
-13.7,-0.6391,0.17137,0.16898,0.0325
-13.6,-0.636,0.16978,0.1674,0.0317
-13.5,-0.633,0.16818,0.16581,0.0309
-13.4,-0.63,0.16659,0.16422,0.03
-13.3,-0.6269,0.16501,0.16263,0.0292
-13.2,-0.6239,0.1634,0.16103,0.0283
-13.1,-0.6209,0.1618,0.15942,0.0275
-13,-0.6179,0.16019,0.15782,0.0267
-12.9,-0.6149,0.15858,0.15621,0.0258
-12.8,-0.6119,0.15697,0.1546,0.025
-12.7,-0.6089,0.15535,0.15298,0.0242
-12.6,-0.606,0.15373,0.15136,0.0233
-12.5,-0.603,0.1521,0.14973,0.0225
-12.4,-0.6001,0.15047,0.1481,0.0217
-12.3,-0.5972,0.14883,0.14646,0.0208
-12.2,-0.5942,0.14718,0.14481,0.02
-12.1,-0.5913,0.14551,0.14315,0.0191
-12,-0.5884,0.14385,0.14148,0.0183
-11.9,-0.5855,0.14217,0.13981,0.0174
-11.8,-0.5826,0.14049,0.13813,0.0166
-11.7,-0.5797,0.1388,0.13644,0.0157
-11.6,-0.5769,0.1371,0.13475,0.0149
-11.5,-0.574,0.1354,0.13304,0.014
-11.4,-0.5712,0.13369,0.13134,0.0132
-11.3,-0.5685,0.13195,0.1296,0.0123
-11.2,-0.5657,0.13022,0.12787,0.0114
-11.1,-0.563,0.12846,0.12611,0.0105
-11,-0.5603,0.12668,0.12433,0.0096
-10.8,-0.5551,0.12304,0.12068,0.0078
-10.7,-0.5525,0.12117,0.11882,0.0068
-10.6,-0.5513,0.11744,0.1151,0.005
-10.5,-0.5491,0.11539,0.11304,0.004
-10.4,-0.547,0.11314,0.11079,0.0028
-10.3,-0.545,0.11101,0.10866,0.0017
-8.1,-0.5835,0.03025,0.02685,-0.0577
-8,-0.5722,0.02826,0.02465,-0.0595
-7.9,-0.5614,0.0268,0.02303,-0.0607
-7.8,-0.5503,0.02561,0.02169,-0.0617
-7.7,-0.539,0.02456,0.0205,-0.0625
-7.6,-0.5275,0.02361,0.01942,-0.0633
-7.5,-0.5158,0.02277,0.01846,-0.064
-7.4,-0.504,0.02197,0.01754,-0.0647
-7.3,-0.4914,0.02122,0.01667,-0.0655
-7.2,-0.4798,0.02053,0.01587,-0.066
-7.1,-0.4682,0.01989,0.01512,-0.0665
-7,-0.4563,0.01928,0.0144,-0.0669
-6.9,-0.4444,0.01871,0.01371,-0.0674
-6.8,-0.4323,0.01816,0.01307,-0.0678
-6.7,-0.4201,0.01765,0.01245,-0.0683
-6.6,-0.4078,0.01716,0.01187,-0.0688
-6.5,-0.3953,0.0167,0.01132,-0.0692
-6.4,-0.382,0.01626,0.01079,-0.0699
-6.3,-0.3693,0.01586,0.01031,-0.0703
-6.2,-0.3567,0.0155,0.00986,-0.0708
-6.1,-0.345,0.01518,0.00947,-0.071
-6,-0.3329,0.0149,0.00912,-0.0713
-5.9,-0.3206,0.01464,0.0088,-0.0716
-5.8,-0.3082,0.01445,0.00854,-0.0719
-5.7,-0.2958,0.01413,0.00819,-0.0723
-5.6,-0.2832,0.01358,0.00758,-0.0728
-5.5,-0.2707,0.01323,0.00718,-0.0732
-5.4,-0.2581,0.01296,0.00688,-0.0736
-5.3,-0.2453,0.01273,0.00662,-0.074
-5.2,-0.2323,0.01252,0.00639,-0.0744
-5.1,-0.2208,0.01233,0.00617,-0.0745
-5,-0.208,0.01213,0.00594,-0.0748
-4.9,-0.1956,0.01195,0.00573,-0.0751
-4.8,-0.1828,0.01177,0.00552,-0.0755
-4.7,-0.1701,0.01159,0.00531,-0.0758
-4.6,-0.1578,0.01161,0.00531,-0.076
-4.5,-0.1466,0.01147,0.00513,-0.076
-4.4,-0.1349,0.0113,0.00495,-0.0761
-4.3,-0.1227,0.01101,0.00462,-0.0763
-4.2,-0.1102,0.01082,0.00442,-0.0766
-4.1,-0.0978,0.01067,0.00426,-0.0769
-4,-0.0867,0.01055,0.00411,-0.0768
-3.9,-0.0752,0.01043,0.00397,-0.0768
-3.8,-0.0635,0.0103,0.00383,-0.0769
-3.7,-0.0515,0.01019,0.00369,-0.077
-3.6,-0.0394,0.01009,0.00356,-0.0771
-3.5,-0.0282,0.00995,0.00342,-0.0771
-3.4,-0.0171,0.00985,0.00332,-0.0771
-3.3,-0.0055,0.00976,0.00322,-0.0771
-3.2,0.0061,0.00967,0.0031,-0.0771
-3.1,0.0176,0.0096,0.00301,-0.0771
-3,0.0288,0.00951,0.00293,-0.0771
-2.9,0.04,0.00943,0.00285,-0.0771
-2.8,0.0514,0.00936,0.00277,-0.0771
-2.7,0.0626,0.00928,0.00271,-0.077
-2.6,0.0739,0.00921,0.00265,-0.077
-2.4,0.0964,0.00907,0.00253,-0.077
-2.3,0.1073,0.00901,0.00246,-0.0768
-2.2,0.1183,0.00896,0.0024,-0.0766
-2.1,0.129,0.0089,0.00231,-0.0764
-2,0.14,0.00885,0.00226,-0.0763
-1.9,0.1512,0.00879,0.00222,-0.0763
-1.8,0.1621,0.00874,0.00217,-0.0761
-1.7,0.1733,0.0087,0.00212,-0.0761
-1.6,0.1838,0.00867,0.00207,-0.0758
-1.5,0.195,0.00864,0.00203,-0.0757
-1.4,0.2062,0.00858,0.00201,-0.0757
-1.3,0.2171,0.00855,0.00197,-0.0756
-1.2,0.228,0.00854,0.00193,-0.0754
-1.1,0.2391,0.00851,0.00189,-0.0754
-1,0.2501,0.00847,0.00187,-0.0753
-0.9,0.2613,0.00845,0.00185,-0.0752
-0.8,0.2725,0.00843,0.00182,-0.0752
-0.7,0.283,0.00845,0.00179,-0.0749
-0.6,0.2939,0.00844,0.00177,-0.0748
-0.5,0.305,0.00841,0.00176,-0.0748
-0.4,0.3161,0.0084,0.00174,-0.0747
-0.3,0.3267,0.00844,0.00172,-0.0746
-0.2,0.3373,0.00847,0.0017,-0.0744
0,0.3593,0.00844,0.00169,-0.0743
0.1,0.3703,0.00844,0.00169,-0.0742
0.3,0.3913,0.00842,0.0017,-0.074
0.4,0.4021,0.0084,0.00171,-0.074
0.5,0.4129,0.00837,0.00173,-0.074
0.6,0.4236,0.00832,0.00175,-0.074
0.7,0.4337,0.00833,0.00178,-0.0738
0.9,0.4485,0.00725,0.00177,-0.0717
1,0.4593,0.00735,0.0018,-0.0716
1.1,0.4701,0.00745,0.00182,-0.0716
1.2,0.4809,0.00755,0.00185,-0.0715
1.3,0.4917,0.00766,0.00188,-0.0714
1.4,0.5024,0.00777,0.00191,-0.0713
1.5,0.5126,0.00797,0.00196,-0.0712
1.6,0.5233,0.00809,0.002,-0.0711
1.7,0.5339,0.00823,0.00204,-0.071
1.8,0.5445,0.00836,0.00209,-0.071
1.9,0.5552,0.0085,0.00214,-0.0709
2,0.5651,0.00875,0.00222,-0.0708
2.1,0.5757,0.0089,0.00228,-0.0707
2.2,0.5863,0.00904,0.00234,-0.0706
2.3,0.597,0.00917,0.00241,-0.0706
2.4,0.6077,0.00929,0.00247,-0.0705
2.5,0.6185,0.0094,0.00253,-0.0705
2.6,0.629,0.00956,0.0026,-0.0704
2.7,0.6399,0.00966,0.00267,-0.0704
2.8,0.6508,0.00974,0.00272,-0.0703
2.9,0.6616,0.00985,0.0028,-0.0703
3,0.6725,0.00993,0.00285,-0.0703
3.1,0.6834,0.01002,0.00291,-0.0702
3.2,0.6943,0.01011,0.00299,-0.0702
3.3,0.705,0.01023,0.00305,-0.0701
3.4,0.7158,0.01032,0.00313,-0.0701
3.5,0.7267,0.0104,0.00321,-0.07
3.6,0.7375,0.01049,0.00327,-0.07
3.7,0.7483,0.01059,0.00335,-0.0699
3.8,0.7592,0.01067,0.00342,-0.0699
3.9,0.77,0.01076,0.00349,-0.0698
4,0.7806,0.01088,0.00357,-0.0698
4.1,0.7914,0.01097,0.00365,-0.0697
4.2,0.8021,0.01106,0.00372,-0.0697
4.3,0.8128,0.01117,0.00381,-0.0696
4.4,0.8236,0.01126,0.00389,-0.0695
4.5,0.8343,0.01135,0.00398,-0.0695
4.6,0.845,0.01145,0.00406,-0.0694
4.7,0.8555,0.01157,0.00415,-0.0693
4.8,0.8662,0.01167,0.00426,-0.0693
4.9,0.8768,0.01178,0.00436,-0.0692
5,0.8873,0.01189,0.00446,-0.0691
5.1,0.898,0.01199,0.00456,-0.069
5.2,0.9086,0.01209,0.00465,-0.069
5.3,0.9191,0.0122,0.00475,-0.0689
5.4,0.9294,0.01234,0.00486,-0.0688
5.5,0.9399,0.01245,0.00497,-0.0687
5.6,0.9503,0.01256,0.00508,-0.0686
5.7,0.9606,0.0127,0.00519,-0.0685
5.8,0.9711,0.01281,0.00532,-0.0684
5.9,0.9816,0.01292,0.00545,-0.0683
6,0.9919,0.01304,0.00557,-0.0682
6.1,1.0022,0.01318,0.00569,-0.068
6.2,1.0123,0.01333,0.00582,-0.0679
6.3,1.0226,0.01345,0.00595,-0.0678
6.4,1.0328,0.01358,0.00608,-0.0677
6.5,1.0429,0.01373,0.00622,-0.0675
6.6,1.053,0.01388,0.00637,-0.0674
6.7,1.0632,0.014,0.00651,-0.0673
6.8,1.0734,0.01413,0.00665,-0.0671
6.9,1.0835,0.01427,0.0068,-0.067
7,1.0934,0.01443,0.00695,-0.0668
7.1,1.1032,0.01461,0.00713,-0.0666
7.2,1.1132,0.01475,0.00729,-0.0665
7.3,1.1232,0.01489,0.00745,-0.0663
7.4,1.1331,0.01505,0.00761,-0.0661
7.5,1.1428,0.01522,0.00778,-0.0659
7.6,1.1524,0.01541,0.00796,-0.0657
7.7,1.1621,0.01558,0.00816,-0.0655
7.8,1.1719,0.01573,0.00833,-0.0654
7.9,1.1817,0.01589,0.00851,-0.0652
8,1.1913,0.01606,0.0087,-0.0649
8.1,1.2009,0.01623,0.00889,-0.0647
8.2,1.2103,0.01642,0.00909,-0.0645
8.3,1.2193,0.01667,0.00931,-0.0642
8.4,1.2288,0.01685,0.00954,-0.064
8.5,1.2383,0.01702,0.00974,-0.0638
8.6,1.2477,0.0172,0.00995,-0.0635
8.7,1.257,0.01739,0.01017,-0.0633
8.8,1.2662,0.01758,0.01039,-0.063
8.9,1.2753,0.01779,0.01062,-0.0627
9,1.2842,0.01801,0.01085,-0.0624
9.1,1.293,0.01824,0.0111,-0.0621
9.2,1.3016,0.0185,0.01138,-0.0617
9.3,1.3098,0.0188,0.01169,-0.0613
9.4,1.3188,0.01899,0.01192,-0.061
9.5,1.3277,0.01919,0.01217,-0.0607
9.6,1.3364,0.01941,0.01243,-0.0604
9.7,1.3454,0.01958,0.01261,-0.0601
9.8,1.3539,0.0198,0.01284,-0.0598
9.9,1.3621,0.02006,0.01312,-0.0594
10,1.3701,0.02034,0.01342,-0.059
10.1,1.3778,0.02064,0.01372,-0.0586
10.2,1.3862,0.02086,0.01399,-0.0582
10.3,1.3944,0.0211,0.01427,-0.0578
10.4,1.4023,0.02134,0.01456,-0.0574
10.5,1.4102,0.0216,0.01486,-0.057
10.6,1.4179,0.02187,0.01516,-0.0565
10.7,1.4254,0.02214,0.01546,-0.056
10.8,1.4328,0.02242,0.01577,-0.0555
10.9,1.44,0.02272,0.0161,-0.055
11,1.4468,0.02304,0.01644,-0.0545
11.1,1.4532,0.02339,0.01682,-0.0539
11.2,1.4593,0.02376,0.01721,-0.0532
11.3,1.4662,0.02402,0.01753,-0.0526
11.4,1.4727,0.02431,0.01787,-0.052
11.5,1.4789,0.02461,0.01824,-0.0513
11.6,1.4849,0.02493,0.0186,-0.0507
11.7,1.4906,0.02525,0.01897,-0.0499
11.8,1.4958,0.02558,0.01934,-0.0491
11.9,1.5001,0.02592,0.01972,-0.0482
12,1.5042,0.02628,0.02011,-0.0472
12.1,1.5079,0.02666,0.02053,-0.0462
12.2,1.5113,0.02708,0.02098,-0.0452
12.3,1.5141,0.02754,0.02147,-0.0441
12.4,1.5195,0.02781,0.02176,-0.0434
12.5,1.5228,0.02823,0.02224,-0.0425
12.6,1.526,0.02867,0.02272,-0.0415
12.7,1.5289,0.02913,0.02323,-0.0406
12.8,1.5317,0.02961,0.02376,-0.0396
12.9,1.5341,0.03012,0.02431,-0.0387
13,1.5363,0.03065,0.02488,-0.0378
13.1,1.5381,0.03121,0.02549,-0.0369
13.2,1.5396,0.03181,0.02613,-0.036
13.3,1.5406,0.03246,0.02682,-0.0351
13.4,1.541,0.03316,0.02757,-0.0342
13.5,1.5419,0.03381,0.02829,-0.0333
13.6,1.5424,0.03451,0.02906,-0.0325
13.7,1.5426,0.03525,0.02986,-0.0317
13.8,1.5424,0.03604,0.03072,-0.031
13.9,1.5419,0.03688,0.03164,-0.0303
14,1.541,0.03776,0.03258,-0.0296
14.1,1.5395,0.03871,0.0336,-0.029
14.2,1.5379,0.03971,0.03466,-0.0285
14.3,1.5356,0.04079,0.0358,-0.028
14.4,1.5332,0.04192,0.037,-0.0276
14.5,1.5302,0.04314,0.03829,-0.0274
14.6,1.5267,0.04445,0.03967,-0.0272
14.7,1.5227,0.04586,0.04115,-0.0271
14.8,1.5181,0.04737,0.04273,-0.0272
14.9,1.513,0.04901,0.04444,-0.0274
15,1.5071,0.05081,0.04631,-0.0279
15.1,1.5007,0.05275,0.04834,-0.0285
15.2,1.4935,0.05489,0.05055,-0.0293
15.3,1.4856,0.05723,0.05298,-0.0305
15.4,1.4766,0.05983,0.05567,-0.0319
15.5,1.4666,0.06275,0.05867,-0.0337
15.6,1.4555,0.06598,0.06201,-0.0359
15.7,1.4429,0.0697,0.06583,-0.0386
15.8,1.4289,0.07393,0.07017,-0.0418
15.9,1.4126,0.07895,0.07531,-0.0458
16,1.3933,0.08495,0.08145,-0.0508
16.1,1.371,0.09217,0.08879,-0.0567
16.2,1.3447,0.101,0.09778,-0.0639
16.3,1.3159,0.11073,0.10766,-0.0714
16.4,1.2868,0.1204,0.11745,-0.0786
16.5,1.2712,0.1261,0.12325,-0.0826
16.6,1.2557,0.13173,0.12896,-0.0866
16.7,1.2414,0.13701,0.13431,-0.0903
16.8,1.2275,0.14221,0.13959,-0.0941
16.9,1.215,0.14706,0.1445,-0.0976
17,1.2038,0.15166,0.14916,-0.101
17.1,1.1928,0.15636,0.15392,-0.1045
17.2,1.1838,0.16061,0.15822,-0.1077
17.4,1.1692,0.16828,0.16599,-0.1135
17.5,1.1634,0.17226,0.17001,-0.1165
17.6,1.1559,0.17739,0.1752,-0.1202
17.7,1.1508,0.18169,0.17954,-0.1233
17.8,1.1434,0.18751,0.18541,-0.1273
17.9,1.1359,0.19382,0.19176,-0.1314
18.1,1.1058,0.21941,0.21746,-0.1456
18.2,1.1076,0.22123,0.21929,-0.1471
18.3,1.1098,0.22282,0.22088,-0.1485
18.4,1.1122,0.2242,0.22226,-0.1498
18.5,1.1151,0.22516,0.22322,-0.1509
18.6,1.1182,0.22599,0.22405,-0.152
19.6,1.1316,0.25655,0.25462,-0.1718
19.7,1.1346,0.25752,0.2556,-0.173
19.8,1.1377,0.25844,0.25652,-0.1742
21.8,1.1946,0.31406,0.31216,-0.2081
21.9,1.1979,0.3164,0.3145,-0.2097
22,1.2011,0.31858,0.31669,-0.2112
22.1,1.2043,0.32066,0.31878,-0.2128
22.2,1.2076,0.32269,0.32081,-0.2143
22.3,1.2108,0.32468,0.3228,-0.2158
22.4,1.214,0.32658,0.3247,-0.2173
22.5,1.2171,0.32848,0.32661,-0.2188
22.6,1.2203,0.33033,0.32846,-0.2204
22.7,1.2234,0.33214,0.33027,-0.2219
22.9,1.2294,0.33501,0.33315,-0.2251
23,1.2325,0.3367,0.33485,-0.2266
23.1,1.2356,0.33838,0.33653,-0.2281
23.2,1.2386,0.34002,0.33817,-0.2296
23.3,1.2416,0.34156,0.33972,-0.2311
23.4,1.2447,0.34321,0.34137,-0.2326
23.5,1.2477,0.34475,0.34292,-0.2342
23.6,1.2507,0.34636,0.34454,-0.2357
23.7,1.2536,0.34791,0.34609,-0.2372
23.8,1.2566,0.34949,0.34767,-0.2387
23.9,1.2596,0.35106,0.34925,-0.2403
24,1.2625,0.35252,0.35072,-0.2418
24.1,1.2654,0.35416,0.35236,-0.2433
24.2,1.2682,0.35558,0.35378,-0.2448
24.3,1.2711,0.35719,0.3554,-0.2463
24.4,1.274,0.35878,0.357,-0.2478
24.5,1.2768,0.36039,0.35861,-0.2493
24.6,1.2796,0.36203,0.36026,-0.2508
24.7,1.2824,0.36373,0.36196,-0.2522
24.8,1.2899,0.37555,0.37375,-0.2558
24.9,1.2936,0.37895,0.37715,-0.2577
25,1.2972,0.38194,0.38014,-0.2595
25.1,1.3005,0.38451,0.38271,-0.2612
25.2,1.3038,0.38697,0.38518,-0.263
25.3,1.307,0.38923,0.38745,-0.2647
25.4,1.3102,0.39149,0.38972,-0.2664
25.5,1.3133,0.39368,0.39191,-0.2681
25.6,1.3164,0.39578,0.39402,-0.2698
25.7,1.3195,0.39787,0.39612,-0.2715
25.8,1.3225,0.39993,0.39818,-0.2732
25.9,1.3255,0.40196,0.40021,-0.2749
26,1.3285,0.40397,0.40222,-0.2766
26.1,1.3315,0.40592,0.40418,-0.2784
26.2,1.3344,0.40792,0.40618,-0.2801
26.3,1.3374,0.40982,0.40809,-0.2818
26.4,1.3403,0.41179,0.41006,-0.2835
26.5,1.3432,0.41373,0.41201,-0.2852
26.6,1.346,0.41563,0.41391,-0.287
26.7,1.3489,0.41752,0.41582,-0.2887
26.8,1.3517,0.41943,0.41772,-0.2904
26.9,1.3545,0.42128,0.41958,-0.2921
27,1.3573,0.42312,0.42143,-0.2939
27.1,1.3601,0.42504,0.42335,-0.2956
27.2,1.3629,0.42691,0.42523,-0.2974
27.3,1.3656,0.42865,0.42697,-0.2991
27.4,1.3683,0.43056,0.42889,-0.3009
27.5,1.371,0.43239,0.43072,-0.3026
27.6,1.3738,0.43438,0.43272,-0.3044
27.7,1.3764,0.43614,0.43449,-0.3061
27.8,1.3791,0.43796,0.43631,-0.3079
27.9,1.3817,0.43984,0.43819,-0.3096
28,1.3844,0.44176,0.44012,-0.3114
28.1,1.387,0.44365,0.44201,-0.3132
28.2,1.3896,0.44549,0.44386,-0.3149
28.3,1.3922,0.44741,0.44579,-0.3167
28.4,1.3948,0.44935,0.44775,-0.3185
28.5,1.3972,0.45111,0.44951,-0.3202
28.6,1.3998,0.45307,0.45148,-0.322
28.7,1.4023,0.45496,0.45338,-0.3238
28.8,1.4049,0.45703,0.45545,-0.3255
28.9,1.4074,0.45904,0.45746,-0.3273
29,1.4099,0.46105,0.45948,-0.3291
29.1,1.4124,0.46308,0.46152,-0.3309
29.2,1.4148,0.46514,0.46358,-0.3326
29.3,1.4173,0.4672,0.46565,-0.3344
29.4,1.4197,0.46939,0.46785,-0.3362
29.5,1.4221,0.47151,0.46998,-0.3379
29.6,1.4242,0.47337,0.47184,-0.3396
29.7,1.4266,0.47571,0.47418,-0.3413
29.8,1.429,0.47809,0.47658,-0.3431
29.9,1.4313,0.48055,0.47904,-0.3448

