airfoilName st25.dat
Re 	2.300000e+05
M 	0
N 	4.500000e+00
VACC 	0 VACCflag 1
XTR 	1.00 	1.00 XTRflag 0
alpha,cl,cd,cdp,cm
-30,-1.1653,0.50218,0.49927,0.2482
-29.9,-1.1626,0.49996,0.49705,0.2464
-29.8,-1.1599,0.49775,0.49483,0.2447
-29.7,-1.1572,0.49554,0.49262,0.2429
-29.6,-1.1545,0.49335,0.49042,0.2411
-29.5,-1.1518,0.49118,0.48823,0.2393
-29.4,-1.149,0.48901,0.48606,0.2376
-29.3,-1.1463,0.48684,0.48388,0.2358
-29.2,-1.1435,0.4847,0.48173,0.2341
-29.1,-1.1407,0.48255,0.47958,0.2323
-29,-1.138,0.48042,0.47744,0.2305
-28.9,-1.1352,0.47827,0.47529,0.2288
-28.8,-1.1324,0.47617,0.47318,0.227
-28.7,-1.1296,0.47407,0.47108,0.2252
-28.6,-1.1267,0.472,0.469,0.2235
-28.5,-1.1239,0.46992,0.46692,0.2217
-28.4,-1.1211,0.46787,0.46487,0.2199
-28.3,-1.1182,0.46582,0.46281,0.2181
-28.2,-1.1153,0.46377,0.46076,0.2163
-28.1,-1.1125,0.46174,0.45872,0.2146
-28,-1.1096,0.45976,0.45674,0.2127
-27.9,-1.1067,0.45771,0.45469,0.211
-27.8,-1.1038,0.45574,0.45271,0.2091
-27.7,-1.1009,0.45382,0.45079,0.2073
-27.6,-1.098,0.45188,0.44885,0.2054
-27.5,-1.0951,0.4499,0.44687,0.2035
-27.4,-1.0921,0.44797,0.44493,0.2016
-27.3,-1.0891,0.44598,0.44294,0.1995
-26.6,-1.0644,0.42818,0.42513,0.1854
-26.5,-1.0614,0.42588,0.42283,0.1839
-26.4,-1.0584,0.4236,0.42054,0.1824
-26.3,-1.0554,0.42132,0.41826,0.181
-26.2,-1.0524,0.41906,0.41599,0.1795
-26.1,-1.0493,0.41681,0.41374,0.1781
-26,-1.0463,0.41457,0.41149,0.1766
-25.9,-1.0432,0.41235,0.40926,0.1751
-25.8,-1.0402,0.41012,0.40703,0.1737
-25.7,-1.0371,0.40792,0.40483,0.1722
-25.6,-1.034,0.40573,0.40264,0.1708
-25.5,-1.0309,0.40355,0.40045,0.1693
-25.4,-1.0277,0.40139,0.39828,0.1679
-25.3,-1.0246,0.39923,0.39612,0.1664
-25.2,-1.0215,0.39709,0.39397,0.165
-25,-1.0155,0.39317,0.39005,0.1621
-24.9,-1.0123,0.39105,0.38792,0.1606
-24.8,-1.0091,0.38895,0.38581,0.1592
-24.7,-1.0059,0.38685,0.38371,0.1577
-24.6,-1.0027,0.38476,0.38162,0.1563
-24.5,-0.9994,0.38267,0.37952,0.1549
-24.4,-0.9962,0.38059,0.37744,0.1535
-24.3,-0.993,0.37852,0.37536,0.152
-24.2,-0.9897,0.37645,0.37329,0.1506
-24.1,-0.9864,0.37439,0.37122,0.1492
-24,-0.9831,0.37234,0.36917,0.1478
-23.9,-0.9799,0.37029,0.3671,0.1464
-23.8,-0.9766,0.36824,0.36505,0.145
-23.7,-0.9732,0.36619,0.36299,0.1436
-23.6,-0.9699,0.36416,0.36096,0.1422
-23.5,-0.9666,0.36212,0.35892,0.1408
-23.4,-0.9633,0.3601,0.35689,0.1394
-23.3,-0.9599,0.35807,0.35486,0.1381
-23.2,-0.9566,0.35606,0.35284,0.1367
-23.1,-0.9532,0.35405,0.35083,0.1353
-23,-0.9499,0.35204,0.34882,0.134
-22.9,-0.9465,0.35004,0.34681,0.1326
-22.8,-0.9431,0.34804,0.34481,0.1313
-22.7,-0.9397,0.34605,0.34282,0.1299
-22.6,-0.9364,0.34406,0.34082,0.1286
-22.5,-0.933,0.34207,0.33883,0.1272
-22.4,-0.9296,0.34008,0.33684,0.1259
-22.3,-0.9261,0.3381,0.33486,0.1246
-22.2,-0.9227,0.33612,0.33287,0.1233
-22.1,-0.9193,0.33415,0.3309,0.122
-22,-0.9159,0.33218,0.32893,0.1207
-21.9,-0.9124,0.33022,0.32696,0.1194
-21.8,-0.909,0.32825,0.32499,0.1181
-21.7,-0.9056,0.32629,0.32302,0.1168
-21.6,-0.9021,0.32434,0.32107,0.1155
-21.5,-0.8987,0.32238,0.31911,0.1142
-21.4,-0.8952,0.32042,0.31715,0.1129
-21.3,-0.8917,0.31847,0.3152,0.1117
-21.2,-0.8883,0.31652,0.31324,0.1104
-21.1,-0.8848,0.31458,0.31128,0.1091
-21,-0.8813,0.31264,0.30933,0.1079
-20.9,-0.8779,0.31068,0.30738,0.1066
-20.8,-0.8744,0.30874,0.30543,0.1054
-20.7,-0.8709,0.30679,0.30348,0.1041
-20.6,-0.8674,0.30484,0.30153,0.1029
-20.5,-0.8639,0.3029,0.29958,0.1016
-20.4,-0.8604,0.30095,0.29763,0.1004
-20.3,-0.857,0.299,0.29568,0.0992
-20.2,-0.8535,0.29705,0.29372,0.0979
-20.1,-0.85,0.29509,0.29176,0.0967
-20,-0.8465,0.29313,0.2898,0.0955
-19.9,-0.843,0.29116,0.28783,0.0943
-19.8,-0.8395,0.28918,0.28585,0.093
-19.7,-0.836,0.28719,0.28386,0.0918
-19.6,-0.8325,0.28519,0.28185,0.0906
-19.5,-0.829,0.28316,0.27983,0.0893
-19.4,-0.8255,0.28113,0.27779,0.0881
-19.3,-0.822,0.27906,0.27572,0.0869
-19.2,-0.8184,0.27693,0.27358,0.0856
-19.1,-0.8148,0.27478,0.27143,0.0844
-19,-0.8111,0.27252,0.26918,0.0831
-18.9,-0.8072,0.27009,0.26674,0.0818
-18.8,-0.803,0.26729,0.26394,0.0803
-18.7,-0.796,0.2619,0.25859,0.0766
-18.6,-0.7927,0.25996,0.25665,0.0757
-18.5,-0.7894,0.25804,0.25473,0.0748
-18.4,-0.7862,0.25613,0.25281,0.0738
-18.3,-0.7829,0.25425,0.25092,0.0729
-18.2,-0.7796,0.25238,0.24905,0.072
-18.1,-0.7763,0.25053,0.2472,0.071
-18,-0.7731,0.24869,0.24536,0.0701
-17.9,-0.7698,0.24687,0.24354,0.0692
-17.8,-0.7665,0.24506,0.24173,0.0682
-17.7,-0.7632,0.24327,0.23991,0.0673
-17.6,-0.76,0.24149,0.23813,0.0664
-17.4,-0.7539,0.23836,0.235,0.0645
-17.3,-0.7506,0.23661,0.23324,0.0635
-17.2,-0.7473,0.23486,0.2315,0.0626
-17.1,-0.744,0.23312,0.22976,0.0616
-17,-0.7407,0.23139,0.22802,0.0607
-16.9,-0.7374,0.22966,0.22629,0.0597
-16.8,-0.7341,0.22793,0.22456,0.0588
-16.7,-0.7308,0.22621,0.22284,0.0578
-16.6,-0.7275,0.22449,0.22112,0.0569
-16.5,-0.7243,0.22278,0.2194,0.056
-16.4,-0.721,0.22106,0.21768,0.055
-16.3,-0.7177,0.21935,0.21597,0.0541
-16.2,-0.7144,0.21763,0.21426,0.0532
-16.1,-0.7112,0.21592,0.21255,0.0522
-16,-0.7079,0.21422,0.21084,0.0513
-15.9,-0.7046,0.21251,0.20913,0.0504
-15.8,-0.7014,0.2108,0.20742,0.0495
-15.7,-0.6981,0.2091,0.20572,0.0485
-15.6,-0.6949,0.20739,0.20401,0.0476
-15.5,-0.6916,0.20568,0.2023,0.0467
-15.4,-0.6883,0.20397,0.20059,0.0458
-15.3,-0.6851,0.20226,0.19888,0.0449
-15.2,-0.6818,0.20055,0.19717,0.044
-15.1,-0.6786,0.19883,0.19545,0.0431
-15,-0.6753,0.19712,0.19374,0.0422
-14.9,-0.6721,0.1954,0.19202,0.0413
-14.8,-0.6689,0.19368,0.1903,0.0404
-14.7,-0.6656,0.19196,0.18856,0.0395
-14.6,-0.6624,0.19024,0.18684,0.0386
-14.5,-0.6592,0.18851,0.18512,0.0378
-14.4,-0.656,0.18678,0.18339,0.0369
-14.3,-0.6528,0.18505,0.18165,0.036
-14.2,-0.6496,0.18331,0.17991,0.0351
-14.1,-0.6465,0.18157,0.17817,0.0342
-14,-0.6433,0.17982,0.17642,0.0334
-13.9,-0.6402,0.17806,0.17466,0.0325
-13.8,-0.637,0.17629,0.1729,0.0316
-13.7,-0.6339,0.17451,0.17112,0.0307
-13.6,-0.6308,0.17272,0.16933,0.0299
-13.5,-0.6277,0.17092,0.16752,0.029
-13.4,-0.6246,0.16908,0.16569,0.0281
-13.3,-0.6215,0.1672,0.16381,0.0272
-13.2,-0.6184,0.16531,0.16192,0.0263
-13.1,-0.6153,0.16337,0.15998,0.0253
-13,-0.6123,0.16137,0.15798,0.0244
-12.9,-0.6093,0.15929,0.15591,0.0234
-12.8,-0.6063,0.15702,0.15364,0.0223
-12.7,-0.6034,0.1545,0.15111,0.021
-12.6,-0.6007,0.15147,0.14808,0.0194
-12.5,-0.599,0.1468,0.14342,0.0161
-12.4,-0.5963,0.14517,0.14182,0.0156
-12.3,-0.5935,0.14356,0.14021,0.015
-12.2,-0.5908,0.14196,0.13862,0.0144
-12.1,-0.5881,0.14038,0.13704,0.0137
-12,-0.5856,0.13934,0.136,0.0134
-11.9,-0.5828,0.1378,0.13446,0.0127
-11.8,-0.58,0.13627,0.13293,0.012
-11.7,-0.5772,0.13474,0.13141,0.0113
-11.6,-0.5745,0.13322,0.12989,0.0106
-11.5,-0.5717,0.13172,0.12839,0.0099
-11.4,-0.569,0.13021,0.12688,0.0092
-11.3,-0.5662,0.12872,0.12539,0.0084
-11.2,-0.5635,0.12721,0.12389,0.0077
-11.1,-0.5607,0.12572,0.1224,0.007
-11,-0.558,0.12422,0.12091,0.0062
-10.9,-0.5553,0.12273,0.11942,0.0054
-10.8,-0.5525,0.12125,0.11795,0.0047
-10.7,-0.5499,0.11976,0.11646,0.0039
-10.6,-0.5472,0.11827,0.11497,0.0031
-10.5,-0.5445,0.11678,0.11347,0.0024
-10.4,-0.5419,0.1153,0.112,0.0016
-10.3,-0.5393,0.1138,0.1105,0.0008
-10.2,-0.5367,0.11232,0.10902,0
-10.1,-0.5341,0.11083,0.10754,-0.0008
-10,-0.5315,0.10933,0.10605,-0.0017
-9.9,-0.529,0.10784,0.10456,-0.0025
-9.8,-0.5266,0.10634,0.10307,-0.0033
-9.7,-0.5242,0.10485,0.10159,-0.0042
-9.6,-0.5218,0.10334,0.10008,-0.005
-9.5,-0.5194,0.10183,0.09858,-0.0059
-9.4,-0.5172,0.10032,0.09708,-0.0068
-9.3,-0.515,0.09881,0.09557,-0.0077
-9.2,-0.5129,0.09728,0.09405,-0.0086
-9.1,-0.5109,0.09575,0.09253,-0.0095
-9,-0.509,0.09421,0.091,-0.0104
-8.9,-0.5073,0.09268,0.08947,-0.0113
-8.8,-0.5058,0.09113,0.08793,-0.0123
-8.7,-0.5045,0.08958,0.08639,-0.0132
-8.6,-0.5035,0.08802,0.08484,-0.0141
-8.5,-0.5028,0.08647,0.0833,-0.015
-8.4,-0.5026,0.08492,0.08176,-0.0159
-8.3,-0.5023,0.08333,0.08018,-0.0169
-7.3,-0.5116,0.0334,0.02896,-0.0551
-7.2,-0.5071,0.03067,0.02584,-0.0559
-7.1,-0.5012,0.02908,0.02396,-0.056
-7,-0.4947,0.02799,0.02262,-0.0558
-6.8,-0.4737,0.02549,0.0199,-0.0572
-6.7,-0.4621,0.02464,0.01898,-0.0578
-6.6,-0.4502,0.02393,0.0182,-0.0585
-6.5,-0.4381,0.0233,0.01751,-0.0591
-6.4,-0.4259,0.02272,0.01685,-0.0597
-6.3,-0.4136,0.02217,0.01624,-0.0603
-6.2,-0.4011,0.02165,0.01563,-0.0608
-6.1,-0.3887,0.02114,0.01504,-0.0614
-6,-0.3758,0.02062,0.01444,-0.062
-5.9,-0.3636,0.02013,0.01386,-0.0625
-5.8,-0.3512,0.01964,0.01329,-0.0629
-5.7,-0.3387,0.01916,0.01271,-0.0634
-5.6,-0.3261,0.01869,0.01214,-0.0639
-5.5,-0.3134,0.01822,0.01158,-0.0643
-5.4,-0.3006,0.01778,0.01101,-0.0648
-5.2,-0.273,0.01748,0.01044,-0.066
-5.1,-0.2616,0.0168,0.00975,-0.0663
-5,-0.2496,0.01639,0.00933,-0.0666
-4.9,-0.2373,0.01608,0.00899,-0.067
-4.8,-0.2241,0.01578,0.00867,-0.0675
-4.7,-0.2098,0.01549,0.00834,-0.0682
-4.6,-0.196,0.01521,0.00802,-0.0688
-4.5,-0.182,0.01493,0.00769,-0.0695
-4.4,-0.1685,0.01466,0.00737,-0.07
-4.3,-0.1544,0.01439,0.00704,-0.0707
-4.2,-0.1429,0.01417,0.00675,-0.0707
-4.1,-0.1302,0.01392,0.00648,-0.0711
-4,-0.117,0.01362,0.00617,-0.0716
-3.9,-0.1041,0.01342,0.00596,-0.072
-3.8,-0.0904,0.01323,0.00575,-0.0725
-3.7,-0.0771,0.01305,0.00555,-0.073
-3.6,-0.063,0.01286,0.00532,-0.0736
-3.5,-0.0509,0.01272,0.00513,-0.0738
-3.4,-0.0394,0.01253,0.00496,-0.0738
-3.2,-0.0139,0.01232,0.00475,-0.0745
-3.1,-0.0003,0.01215,0.00455,-0.075
-3,0.013,0.012,0.00441,-0.0755
-2.9,0.0249,0.01188,0.00429,-0.0756
-2.8,0.0363,0.0118,0.00422,-0.0756
-2.7,0.0485,0.01167,0.00411,-0.0758
-2.6,0.0614,0.01156,0.00399,-0.0762
-2.5,0.0744,0.01147,0.00387,-0.0765
-2.4,0.0873,0.01134,0.00377,-0.0768
-2.3,0.0981,0.01128,0.00373,-0.0768
-2.2,0.11,0.01117,0.00365,-0.0769
-2.1,0.1225,0.01109,0.00356,-0.0771
-2,0.1352,0.011,0.00348,-0.0774
-1.9,0.1467,0.01092,0.00344,-0.0775
-1.8,0.1581,0.01085,0.00339,-0.0775
-1.7,0.17,0.01078,0.00333,-0.0776
-1.6,0.1826,0.0107,0.00327,-0.0778
-1.5,0.1936,0.0106,0.00322,-0.0777
-1.4,0.2059,0.0105,0.00312,-0.0777
-1.3,0.2169,0.01045,0.00308,-0.0776
-1.2,0.2285,0.01038,0.00304,-0.0777
-1.1,0.2403,0.01029,0.00297,-0.0777
-1,0.2513,0.01022,0.00293,-0.0776
-0.9,0.2629,0.01016,0.00286,-0.0775
-0.8,0.274,0.01009,0.00282,-0.0774
-0.7,0.2853,0.00999,0.00277,-0.0774
-0.6,0.2965,0.00993,0.00274,-0.0773
-0.5,0.3078,0.00986,0.00271,-0.0773
-0.4,0.3185,0.00977,0.00264,-0.077
-0.3,0.3296,0.00961,0.00263,-0.077
-0.2,0.3406,0.00949,0.00262,-0.077
0,0.3618,0.00919,0.00255,-0.0766
0.2,0.3783,0.00793,0.00245,-0.0743
0.3,0.3894,0.00795,0.00242,-0.0742
0.4,0.4004,0.00798,0.0024,-0.0741
0.5,0.4109,0.00803,0.00235,-0.0738
0.6,0.4218,0.00807,0.00234,-0.0736
0.7,0.4326,0.00812,0.00232,-0.0734
0.8,0.4434,0.00816,0.00231,-0.0732
0.9,0.4542,0.00822,0.0023,-0.0731
1,0.4643,0.00831,0.00228,-0.0727
1.1,0.475,0.00838,0.00228,-0.0725
1.2,0.4855,0.00846,0.00228,-0.0723
1.3,0.496,0.00855,0.00229,-0.0721
1.4,0.5064,0.00865,0.00229,-0.0718
1.5,0.516,0.00882,0.0023,-0.0714
1.6,0.5264,0.00893,0.00233,-0.0712
1.7,0.5368,0.00905,0.00236,-0.071
1.8,0.5471,0.00918,0.0024,-0.0708
1.9,0.5575,0.00931,0.00244,-0.0707
2,0.5678,0.00944,0.00249,-0.0705
2.1,0.578,0.00958,0.00254,-0.0703
2.2,0.5874,0.00982,0.00261,-0.07
2.3,0.5977,0.00997,0.00268,-0.0698
2.4,0.6078,0.01013,0.00274,-0.0696
2.5,0.6179,0.0103,0.00281,-0.0695
2.6,0.628,0.01047,0.00288,-0.0693
2.7,0.6374,0.01075,0.00298,-0.0691
2.8,0.6475,0.01093,0.00306,-0.0689
2.9,0.6577,0.0111,0.00314,-0.0688
3,0.668,0.01127,0.00323,-0.0687
3.1,0.6783,0.01142,0.00332,-0.0686
3.2,0.6886,0.01158,0.00342,-0.0684
3.3,0.699,0.01173,0.00351,-0.0683
3.4,0.7091,0.01192,0.00362,-0.0682
3.5,0.7196,0.01205,0.00373,-0.0681
3.6,0.7301,0.01217,0.00385,-0.068
3.7,0.7405,0.01231,0.00396,-0.0679
3.8,0.7511,0.01242,0.00406,-0.0678
3.9,0.7616,0.01255,0.00416,-0.0677
4,0.7721,0.01268,0.00427,-0.0676
4.1,0.7823,0.01283,0.00437,-0.0675
4.2,0.7928,0.01296,0.00449,-0.0674
4.3,0.8034,0.01307,0.00459,-0.0673
4.4,0.8138,0.0132,0.0047,-0.0672
4.5,0.8242,0.01333,0.00482,-0.0671
4.6,0.8347,0.01344,0.00493,-0.067
4.7,0.8451,0.01357,0.00505,-0.0669
4.8,0.8553,0.01372,0.0052,-0.0668
4.9,0.8657,0.01384,0.00532,-0.0666
5,0.8759,0.01398,0.00544,-0.0665
5.1,0.8862,0.01411,0.00557,-0.0664
5.2,0.8966,0.01423,0.0057,-0.0663
5.3,0.9069,0.01437,0.00583,-0.0661
5.4,0.917,0.01453,0.00597,-0.066
5.5,0.9272,0.01466,0.00609,-0.0659
5.6,0.9374,0.0148,0.00623,-0.0657
5.7,0.9474,0.01497,0.00638,-0.0656
5.8,0.9576,0.01509,0.00653,-0.0655
5.9,0.9678,0.01523,0.00668,-0.0653
6,0.9778,0.01539,0.00686,-0.0651
6.1,0.9876,0.01557,0.00702,-0.065
6.2,0.9978,0.01571,0.00719,-0.0648
6.3,1.0077,0.01587,0.00733,-0.0647
6.4,1.0174,0.01605,0.0075,-0.0645
6.5,1.0274,0.01621,0.00768,-0.0643
6.6,1.0373,0.01636,0.00786,-0.0641
6.7,1.0471,0.01653,0.00804,-0.0639
6.8,1.0568,0.01672,0.00822,-0.0637
6.9,1.0663,0.01692,0.00842,-0.0635
7,1.0761,0.01708,0.00862,-0.0633
7.1,1.0858,0.01725,0.00878,-0.0631
7.2,1.0953,0.01745,0.00901,-0.0629
7.3,1.1045,0.01768,0.00923,-0.0627
7.4,1.1142,0.01785,0.00945,-0.0624
7.5,1.1237,0.01804,0.00967,-0.0622
7.6,1.1331,0.01824,0.00989,-0.0619
7.7,1.1424,0.01845,0.01012,-0.0617
7.8,1.1514,0.01869,0.01036,-0.0614
7.9,1.1602,0.01895,0.01062,-0.0611
8,1.1696,0.01915,0.01087,-0.0608
8.1,1.1787,0.01936,0.01114,-0.0605
8.2,1.1879,0.01955,0.01133,-0.0603
8.3,1.1968,0.0198,0.01159,-0.06
8.4,1.2053,0.02007,0.01187,-0.0597
8.5,1.2136,0.02037,0.0122,-0.0593
8.6,1.2225,0.0206,0.01249,-0.059
8.7,1.2313,0.02084,0.01279,-0.0586
8.8,1.2399,0.02109,0.01309,-0.0583
8.9,1.2483,0.02136,0.0134,-0.0579
9,1.2566,0.02163,0.01371,-0.0575
9.1,1.2647,0.02192,0.01403,-0.0571
9.2,1.2726,0.02224,0.01437,-0.0567
9.3,1.28,0.02259,0.01474,-0.0562
9.4,1.2882,0.02285,0.01501,-0.0558
9.5,1.2962,0.02314,0.01536,-0.0554
9.6,1.3039,0.02344,0.01573,-0.0549
9.7,1.3115,0.02375,0.01609,-0.0544
9.8,1.319,0.02407,0.01647,-0.0539
9.9,1.3262,0.0244,0.01684,-0.0534
10,1.3332,0.02474,0.01726,-0.0529
10.1,1.34,0.02511,0.01765,-0.0523
10.2,1.3463,0.0255,0.01808,-0.0517
10.3,1.3519,0.02594,0.01855,-0.051
10.4,1.3565,0.02646,0.01909,-0.0502
10.5,1.3623,0.02686,0.01954,-0.0495
10.6,1.3687,0.02721,0.01997,-0.0488
10.7,1.3746,0.0276,0.02044,-0.0481
10.9,1.39,0.02798,0.02092,-0.0474
11,1.395,0.02838,0.02136,-0.0466
11.1,1.3993,0.02879,0.02181,-0.0457
11.2,1.4026,0.02922,0.02228,-0.0447
11.3,1.4053,0.02969,0.02279,-0.0436
11.4,1.4072,0.03023,0.02337,-0.0424
11.5,1.4147,0.03041,0.02359,-0.0421
11.6,1.4181,0.03087,0.02412,-0.0411
11.7,1.4212,0.03135,0.02467,-0.0402
11.8,1.4242,0.03184,0.02523,-0.0392
11.9,1.427,0.03235,0.0258,-0.0383
12,1.4295,0.03288,0.02642,-0.0374
12.1,1.4318,0.03343,0.02702,-0.0365
12.2,1.4338,0.034,0.02765,-0.0356
12.3,1.4354,0.03461,0.02831,-0.0348
12.4,1.4365,0.03526,0.02901,-0.0339
12.5,1.4371,0.03596,0.02976,-0.0331
12.6,1.4368,0.03674,0.03059,-0.0322
12.7,1.4355,0.0376,0.0315,-0.0313
12.8,1.4348,0.03845,0.0324,-0.0305
12.9,1.4353,0.03924,0.03328,-0.0299
13,1.4351,0.0401,0.03423,-0.0292
13.1,1.4342,0.04102,0.03524,-0.0286
13.2,1.4329,0.04199,0.0363,-0.028
13.3,1.4312,0.04303,0.03742,-0.0276
13.4,1.4291,0.04415,0.03862,-0.0272
13.5,1.4266,0.04532,0.03988,-0.0268
13.6,1.4236,0.04658,0.04121,-0.0266
13.7,1.4203,0.04791,0.04262,-0.0265
13.8,1.4165,0.04932,0.04411,-0.0266
13.9,1.4122,0.05085,0.04572,-0.0267
14,1.4074,0.05248,0.04744,-0.027
14.1,1.4022,0.05425,0.04928,-0.0275
14.2,1.3964,0.05615,0.05127,-0.0282
14.3,1.39,0.05822,0.05341,-0.0291
14.4,1.383,0.06045,0.05574,-0.0302
14.5,1.3753,0.06289,0.05826,-0.0315
14.6,1.367,0.06553,0.06099,-0.0332
14.7,1.358,0.06842,0.06397,-0.0351
14.8,1.3483,0.07158,0.06723,-0.0373
14.9,1.3377,0.07505,0.07079,-0.0399
15,1.3265,0.0788,0.07463,-0.0428
15.1,1.3144,0.08287,0.07881,-0.046
15.2,1.3017,0.08727,0.08331,-0.0496
15.3,1.2886,0.09199,0.08813,-0.0534
15.4,1.2752,0.09698,0.09322,-0.0574
15.5,1.2618,0.10214,0.09847,-0.0615
15.6,1.2486,0.10736,0.10377,-0.0656
15.7,1.2357,0.11251,0.109,-0.0696
15.8,1.2233,0.11757,0.11413,-0.0734
15.9,1.2115,0.12247,0.11909,-0.0771
16,1.2002,0.12729,0.12398,-0.0807
16.1,1.1896,0.13196,0.12869,-0.0841
16.2,1.1794,0.13661,0.1334,-0.0876
16.3,1.1694,0.14126,0.1381,-0.091
16.4,1.1597,0.14595,0.14281,-0.0944
16.5,1.1503,0.15064,0.14756,-0.0979
16.7,1.1295,0.16182,0.15883,-0.1059
16.8,1.1157,0.16966,0.16673,-0.1113
18,1.0914,0.21555,0.21276,-0.1414
18.1,1.0943,0.21589,0.21311,-0.1422
22.7,0.8382,0.86629,0.86361,-0.1422
22.8,0.8498,0.90152,0.89882,-0.1451
22.9,0.8613,0.93439,0.93168,-0.1481
23,0.8727,0.96349,0.96078,-0.151
23.1,0.8835,0.98727,0.98454,-0.1538
23.2,0.8945,1.00652,1.00379,-0.1566
23.3,0.9052,1.01934,1.0166,-0.1594
23.4,0.9152,1.02615,1.02343,-0.1621
23.5,0.9251,1.0279,1.02519,-0.1647
23.6,0.934,1.02631,1.0236,-0.1671
23.7,0.9427,1.02178,1.01908,-0.1696
23.8,0.9507,1.01596,1.01327,-0.1718

