airfoilName st2.dat
Re 	990000
M 	0
N 	4.500000e+00
VACC 	0 VACCflag 1
XTR 	1.00 	1.00 XTRflag 0
alpha,cl,cd,cdp,cm
-29.1,-3.3989,0.03309,0.02374,0.024
-29,-3.3876,0.03279,0.02348,0.0237
-28.8,-3.3643,0.03239,0.02313,0.023
-28.5,-3.3284,0.03196,0.02268,0.0215
-28.4,-3.3164,0.03171,0.02247,0.0211
-28.3,-3.3073,0.03154,0.02231,0.0212
-28.2,-3.2996,0.03139,0.02217,0.0216
-28,-3.2833,0.03139,0.02215,0.0225
-27.9,-3.2685,0.03109,0.0219,0.0216
-27.8,-3.2556,0.0308,0.02166,0.0211
-27.7,-3.2478,0.03068,0.02154,0.0215
-27.6,-3.2396,0.03056,0.02142,0.0218
-27.5,-3.2321,0.03045,0.02131,0.0223
-27.4,-3.2256,0.03037,0.02123,0.023
-27.2,-3.2099,0.03015,0.02101,0.0239
-27.1,-3.186,0.02998,0.02086,0.0215
-27,-3.1798,0.02987,0.02075,0.0222
-26.9,-3.1739,0.02979,0.02066,0.023
-26.7,-3.1566,0.0296,0.02044,0.0237
-26.6,-3.1463,0.02948,0.02031,0.0238
-26.5,-3.1359,0.02937,0.02019,0.0239
-26.4,-3.1254,0.02926,0.02007,0.0239
-26.3,-3.1147,0.02915,0.01996,0.0239
-26.2,-3.104,0.02905,0.01985,0.0239
-26.1,-3.0929,0.02904,0.01982,0.0235
-26,-3.0825,0.02887,0.01966,0.0236
-25.9,-3.0718,0.02871,0.01951,0.0236
-25.8,-3.0608,0.02854,0.01936,0.0236
-25.7,-3.0494,0.02834,0.01919,0.0235
-25.6,-3.0386,0.02821,0.01907,0.0235
-25.5,-3.0277,0.02807,0.01894,0.0234
-25.4,-3.0166,0.02793,0.01881,0.0234
-25.3,-3.0056,0.0278,0.01868,0.0233
-25.2,-2.9938,0.02769,0.01859,0.0231
-25.1,-2.9827,0.02756,0.01846,0.023
-25,-2.9716,0.02743,0.01834,0.023
-24.9,-2.9604,0.02731,0.01822,0.0229
-24.8,-2.9492,0.02719,0.0181,0.0228
-24.7,-2.9379,0.02707,0.01798,0.0227
-24.6,-2.9266,0.02695,0.01786,0.0227
-24.5,-2.9152,0.02683,0.01775,0.0226
-24.4,-2.9039,0.02675,0.01765,0.0225
-24.3,-2.8922,0.02665,0.01755,0.0223
-24.2,-2.8808,0.02654,0.01744,0.0222
-24.1,-2.8693,0.02644,0.01733,0.0221
-24,-2.8585,0.02642,0.01726,0.022
-23.9,-2.8469,0.02626,0.01712,0.0219
-23.8,-2.8352,0.02609,0.01698,0.0218
-23.7,-2.8232,0.02589,0.01681,0.0216
-23.6,-2.8118,0.02572,0.01668,0.0215
-23.5,-2.8,0.02558,0.01656,0.0213
-23.4,-2.7883,0.02545,0.01644,0.0212
-23.3,-2.7766,0.02532,0.01632,0.021
-23.2,-2.7648,0.02519,0.0162,0.0209
-23.1,-2.7531,0.02507,0.01608,0.0207
-23,-2.7413,0.02495,0.01597,0.0206
-22.9,-2.7295,0.02483,0.01586,0.0205
-22.8,-2.7176,0.02471,0.01574,0.0203
-22.7,-2.7057,0.02461,0.01564,0.0201
-22.6,-2.6938,0.02449,0.01553,0.02
-22.5,-2.6819,0.02438,0.01542,0.0198
-22.4,-2.67,0.02429,0.01532,0.0197
-22.3,-2.6581,0.02419,0.01522,0.0195
-22.2,-2.6461,0.02409,0.01512,0.0194
-22.1,-2.6346,0.02403,0.01503,0.0193
-22,-2.6224,0.02386,0.01489,0.0191
-21.9,-2.6101,0.02368,0.01474,0.0189
-21.8,-2.598,0.02354,0.01462,0.0187
-21.7,-2.5859,0.0234,0.0145,0.0185
-21.6,-2.5738,0.02326,0.01438,0.0183
-21.5,-2.5617,0.02313,0.01426,0.0181
-21.4,-2.5496,0.02301,0.01415,0.0179
-21.3,-2.5375,0.02287,0.01404,0.0178
-21.2,-2.5253,0.02275,0.01393,0.0176
-21.1,-2.5131,0.02264,0.01382,0.0174
-21,-2.5009,0.02253,0.01372,0.0172
-20.9,-2.4886,0.02242,0.01361,0.017
-20.8,-2.4764,0.02232,0.01351,0.0168
-20.7,-2.4641,0.02221,0.01341,0.0166
-20.6,-2.4519,0.02212,0.01332,0.0165
-20.5,-2.4395,0.02203,0.01322,0.0163
-20.4,-2.4275,0.02196,0.01313,0.0161
-20.3,-2.4148,0.02176,0.01298,0.0158
-20.2,-2.4025,0.02163,0.01287,0.0156
-20.1,-2.3901,0.02149,0.01275,0.0154
-20,-2.3777,0.02136,0.01264,0.0152
-19.9,-2.3653,0.02123,0.01253,0.015
-19.8,-2.3529,0.02111,0.01242,0.0148
-19.7,-2.3404,0.02099,0.01231,0.0146
-19.6,-2.3279,0.02087,0.01221,0.0144
-19.5,-2.3155,0.02076,0.01211,0.0141
-19.3,-2.2905,0.02054,0.01191,0.0137
-19.2,-2.278,0.02044,0.01181,0.0135
-19.1,-2.2655,0.02034,0.01172,0.0133
-19,-2.2529,0.02026,0.01163,0.0131
-18.9,-2.2404,0.02017,0.01154,0.0129
-18.8,-2.2277,0.02002,0.01142,0.0126
-18.7,-2.2152,0.0199,0.01131,0.0124
-18.6,-2.2026,0.01976,0.0112,0.0122
-18.5,-2.1899,0.01964,0.01109,0.0119
-18.4,-2.1773,0.01951,0.01099,0.0117
-18.3,-2.1646,0.01939,0.01089,0.0114
-18.2,-2.152,0.01928,0.01079,0.0112
-18.1,-2.1393,0.01917,0.01069,0.011
-18,-2.1266,0.01906,0.0106,0.0107
-17.9,-2.1139,0.01896,0.0105,0.0105
-17.8,-2.1012,0.01885,0.01041,0.0103
-17.7,-2.0885,0.01876,0.01032,0.01
-17.6,-2.0757,0.01867,0.01023,0.0098
-17.5,-2.063,0.01859,0.01015,0.0096
-17.4,-2.0502,0.01846,0.01004,0.0093
-17.3,-2.0374,0.01835,0.00994,0.0091
-17.2,-2.0246,0.01822,0.00984,0.0088
-17.1,-2.0118,0.0181,0.00974,0.0086
-17,-1.999,0.01798,0.00965,0.0083
-16.9,-1.9862,0.01787,0.00955,0.0081
-16.8,-1.9733,0.01776,0.00946,0.0078
-16.7,-1.9605,0.01765,0.00937,0.0076
-16.6,-1.9476,0.01755,0.00928,0.0073
-16.5,-1.9347,0.01745,0.00919,0.007
-16.4,-1.9219,0.01736,0.00911,0.0068
-16.3,-1.909,0.01727,0.00903,0.0065
-16.2,-1.8961,0.01718,0.00895,0.0063
-16.1,-1.8831,0.01708,0.00885,0.006
-16,-1.8703,0.01697,0.00876,0.0058
-15.9,-1.8573,0.01685,0.00866,0.0055
-15.8,-1.8443,0.01673,0.00857,0.0052
-15.7,-1.8314,0.01662,0.00848,0.005
-15.6,-1.8184,0.01652,0.0084,0.0047
-15.5,-1.8054,0.01641,0.00831,0.0044
-15.4,-1.7924,0.01631,0.00823,0.0042
-15.3,-1.7794,0.01622,0.00814,0.0039
-15.2,-1.7664,0.01613,0.00806,0.0036
-15.1,-1.7534,0.01604,0.00799,0.0034
-15,-1.7404,0.01595,0.00791,0.0031
-14.9,-1.7274,0.01587,0.00784,0.0029
-14.8,-1.7144,0.01577,0.00775,0.0026
-14.7,-1.7013,0.01566,0.00766,0.0023
-14.6,-1.6882,0.01554,0.00757,0.002
-14.5,-1.6752,0.01544,0.00749,0.0017
-14.4,-1.6621,0.01534,0.00741,0.0014
-14.3,-1.649,0.01524,0.00733,0.0012
-14.2,-1.6359,0.01514,0.00725,0.0009
-14.1,-1.6228,0.01505,0.00717,0.0006
-14,-1.6097,0.01497,0.0071,0.0003
-13.9,-1.5966,0.01488,0.00703,0.0001
-13.8,-1.5835,0.01481,0.00696,-0.0002
-13.7,-1.5703,0.01473,0.00689,-0.0005
-13.6,-1.5572,0.01466,0.00682,-0.0007
-13.5,-1.544,0.01455,0.00673,-0.001
-13.4,-1.5309,0.01441,0.00664,-0.0014
-13.3,-1.5177,0.01431,0.00657,-0.0016
-13.2,-1.5045,0.01422,0.00649,-0.0019
-13.1,-1.4913,0.01413,0.00642,-0.0022
-13,-1.4782,0.01404,0.00635,-0.0025
-12.9,-1.465,0.01396,0.00628,-0.0028
-12.8,-1.4518,0.01388,0.00622,-0.0031
-12.7,-1.4386,0.01381,0.00615,-0.0034
-12.6,-1.4254,0.01373,0.00609,-0.0036
-12.5,-1.4122,0.01367,0.00603,-0.0039
-12.4,-1.3989,0.01356,0.00594,-0.0042
-12.3,-1.3857,0.01346,0.00587,-0.0045
-12.2,-1.3724,0.01334,0.00579,-0.0048
-12.1,-1.3592,0.01325,0.00573,-0.0051
-12,-1.3459,0.01317,0.00566,-0.0054
-11.9,-1.3327,0.01309,0.0056,-0.0057
-11.8,-1.3194,0.01301,0.00554,-0.006
-11.7,-1.3062,0.01294,0.00547,-0.0063
-11.6,-1.2929,0.01287,0.00542,-0.0066
-11.5,-1.2796,0.01281,0.00536,-0.0069
-11.4,-1.2663,0.01272,0.00529,-0.0072
-11.3,-1.253,0.01263,0.00522,-0.0075
-11.2,-1.2397,0.01253,0.00515,-0.0078
-11.1,-1.2264,0.01245,0.00509,-0.0081
-11,-1.2131,0.01236,0.00503,-0.0084
-10.9,-1.1998,0.01227,0.00497,-0.0087
-10.8,-1.1865,0.0122,0.00491,-0.009
-10.7,-1.1731,0.01213,0.00486,-0.0093
-10.6,-1.1598,0.01207,0.0048,-0.0096
-10.5,-1.1465,0.01201,0.00475,-0.0099
-10.4,-1.1332,0.01192,0.00468,-0.0102
-10.3,-1.1198,0.01183,0.00462,-0.0105
-10.2,-1.1064,0.01175,0.00456,-0.0108
-10.1,-1.0927,0.01168,0.00452,-0.0112
-10,-1.0843,0.01245,0.00471,-0.0103
-9.9,-1.071,0.01238,0.00466,-0.0106
-9.8,-1.0577,0.01234,0.00461,-0.0109
-9.7,-1.0444,0.0123,0.00457,-0.0112
-9.6,-1.0312,0.01227,0.00453,-0.0115
-9.5,-1.0179,0.01223,0.00448,-0.0118
-9.4,-1.0045,0.01216,0.00443,-0.0121
-9.3,-0.9912,0.0121,0.00438,-0.0124
-9.2,-0.9778,0.01204,0.00434,-0.0127
-9.1,-0.9645,0.01199,0.00429,-0.013
-9,-0.9511,0.01194,0.00425,-0.0134
-8.9,-0.9378,0.0119,0.00421,-0.0137
-8.8,-0.9244,0.01186,0.00417,-0.014
-8.7,-0.9114,0.01188,0.00415,-0.0142
-8.6,-0.898,0.01184,0.0041,-0.0145
-8.5,-0.8846,0.01178,0.00406,-0.0149
-8.4,-0.8714,0.01176,0.00403,-0.0152
-8.3,-0.858,0.01171,0.00399,-0.0155
-8.2,-0.8446,0.01166,0.00395,-0.0158
-8.1,-0.8312,0.01161,0.00391,-0.0161
-8,-0.818,0.01161,0.00389,-0.0164
-7.9,-0.8046,0.01157,0.00386,-0.0167
-7.8,-0.7912,0.01152,0.00382,-0.017
-7.7,-0.7778,0.01147,0.00378,-0.0174
-7.6,-0.7643,0.01141,0.00374,-0.0177
-7.5,-0.751,0.01138,0.00371,-0.018
-7.4,-0.7375,0.01133,0.00367,-0.0183
-7.3,-0.7243,0.01133,0.00366,-0.0186
-7.2,-0.7109,0.01128,0.00362,-0.019
-7.1,-0.6974,0.01124,0.00359,-0.0193
-7,-0.684,0.0112,0.00356,-0.0196
-6.9,-0.6705,0.01117,0.00353,-0.0199
-6.8,-0.6571,0.01113,0.0035,-0.0202
-6.7,-0.6436,0.01104,0.00346,-0.0206
-6.6,-0.6301,0.011,0.00343,-0.0209
-6.5,-0.6167,0.01096,0.0034,-0.0212
-6.4,-0.6032,0.01092,0.00337,-0.0215
-6.3,-0.5899,0.01092,0.00336,-0.0218
-6.2,-0.5765,0.0109,0.00333,-0.0222
-6.1,-0.5631,0.01088,0.00331,-0.0225
-6,-0.5496,0.01083,0.00328,-0.0228
-5.9,-0.5362,0.0108,0.00326,-0.0231
-5.8,-0.5227,0.01073,0.00323,-0.0235
-5.7,-0.5092,0.01069,0.0032,-0.0238
-5.6,-0.4957,0.01066,0.00318,-0.0241
-5.5,-0.4823,0.01064,0.00316,-0.0245
-5.4,-0.4688,0.01061,0.00314,-0.0248
-5.3,-0.4554,0.0106,0.00312,-0.0251
-5.2,-0.4421,0.0106,0.00311,-0.0254
-5.1,-0.4286,0.01055,0.00309,-0.0258
-5,-0.4151,0.01051,0.00306,-0.0261
-4.9,-0.4016,0.01046,0.00304,-0.0264
-4.8,-0.3881,0.01044,0.00302,-0.0268
-4.7,-0.3747,0.01042,0.00301,-0.0271
-4.6,-0.3612,0.01041,0.00299,-0.0274
-4.5,-0.3479,0.01041,0.00298,-0.0277
-4.4,-0.3345,0.01038,0.00296,-0.0281
-4.3,-0.321,0.01035,0.00295,-0.0284
-4.2,-0.3075,0.01033,0.00293,-0.0287
-4.1,-0.294,0.01031,0.00292,-0.0291
-4,-0.2806,0.01028,0.00291,-0.0294
-3.9,-0.2674,0.01033,0.00291,-0.0297
-3.8,-0.2539,0.01031,0.00289,-0.03
-3.7,-0.2405,0.01029,0.00288,-0.0304
-3.6,-0.227,0.01028,0.00287,-0.0307
-3.5,-0.2137,0.01028,0.00286,-0.031
-3.4,-0.2002,0.01027,0.00286,-0.0314
-3.3,-0.1868,0.01027,0.00285,-0.0317
-3.2,-0.1734,0.01027,0.00285,-0.032
-3.1,-0.1601,0.01029,0.00285,-0.0323
-3,-0.1466,0.01026,0.00283,-0.0327
-2.9,-0.1332,0.01026,0.00283,-0.033
-2.8,-0.1198,0.01027,0.00283,-0.0334
-2.7,-0.1065,0.01029,0.00284,-0.0337
-2.6,-0.0935,0.01037,0.00285,-0.034
-2.5,-0.0802,0.0104,0.00286,-0.0343
-2.4,-0.0669,0.01044,0.00287,-0.0346
-2.3,-0.0537,0.01048,0.00288,-0.035
-2.2,-0.0404,0.01052,0.00289,-0.0353
-2.1,-0.0272,0.01055,0.0029,-0.0357
-2,-0.0141,0.01064,0.00293,-0.036
-1.9,-0.0012,0.01075,0.00296,-0.0363
-1.7,0.0229,0.01147,0.00317,-0.0369
-1.6,0.0362,0.01149,0.00318,-0.0373
-1.5,0.0495,0.01152,0.0032,-0.0377
-1.4,0.0628,0.01157,0.00321,-0.038
-1.3,0.0762,0.01156,0.00322,-0.0384
-1.2,0.0896,0.01158,0.00323,-0.0387
-1.1,0.103,0.0116,0.00324,-0.039
-1,0.1164,0.01163,0.00325,-0.0394
-0.9,0.1298,0.01164,0.00326,-0.0397
-0.8,0.1432,0.01165,0.00327,-0.0401
-0.7,0.1565,0.01168,0.00328,-0.0404
-0.6,0.1699,0.0117,0.0033,-0.0407
-0.5,0.1833,0.01172,0.00331,-0.0411
-0.4,0.1967,0.01173,0.00332,-0.0414
-0.3,0.2102,0.01173,0.00333,-0.0418
-0.2,0.2236,0.01174,0.00334,-0.0421
0,0.2504,0.01177,0.00337,-0.0428
0.1,0.2638,0.01179,0.00338,-0.0431
0.2,0.2772,0.01182,0.0034,-0.0435
0.3,0.2906,0.01184,0.00341,-0.0438
0.4,0.304,0.01186,0.00343,-0.0442
0.5,0.3174,0.01187,0.00344,-0.0446
0.6,0.3308,0.0119,0.00346,-0.0449
0.7,0.3441,0.01194,0.00348,-0.0452
0.8,0.3575,0.01197,0.0035,-0.0456
0.9,0.3708,0.01201,0.00353,-0.0459
1,0.3843,0.01201,0.00354,-0.0462
1.1,0.3977,0.01203,0.00356,-0.0466
1.2,0.4111,0.01205,0.00358,-0.0469
1.3,0.4246,0.01205,0.0036,-0.0473
1.4,0.4379,0.01208,0.00362,-0.0476
1.5,0.4513,0.01211,0.00364,-0.048
1.6,0.4647,0.01213,0.00366,-0.0483
1.7,0.4781,0.01215,0.00368,-0.0487
1.8,0.4915,0.01219,0.0037,-0.049
1.9,0.5048,0.01222,0.00373,-0.0494
2,0.5181,0.01226,0.00375,-0.0497
2.1,0.5314,0.01232,0.00378,-0.05
2.2,0.5448,0.01233,0.0038,-0.0504
2.3,0.5582,0.01237,0.00383,-0.0508
2.4,0.5715,0.01242,0.00386,-0.0511
2.5,0.5848,0.01245,0.0039,-0.0515
2.6,0.5982,0.01248,0.00392,-0.0518
2.7,0.6116,0.01252,0.00395,-0.0521
2.8,0.6249,0.01255,0.00398,-0.0525
2.9,0.6384,0.01255,0.004,-0.0529
3,0.6518,0.01258,0.00403,-0.0532
3.1,0.6651,0.01262,0.00406,-0.0535
3.2,0.6784,0.01266,0.00409,-0.0539
3.3,0.6917,0.0127,0.00413,-0.0542
3.4,0.705,0.01275,0.00416,-0.0545
3.5,0.7183,0.01279,0.00419,-0.0549
3.6,0.7317,0.01283,0.00423,-0.0552
3.7,0.745,0.01288,0.00426,-0.0556
3.8,0.7584,0.01291,0.0043,-0.056
3.9,0.7716,0.01298,0.00434,-0.0563
4,0.7848,0.01304,0.00438,-0.0566
4.1,0.7981,0.01311,0.00442,-0.057
4.2,0.8113,0.01316,0.00446,-0.0573
4.3,0.8246,0.0132,0.00451,-0.0576
4.4,0.8379,0.01324,0.00454,-0.058
4.5,0.8512,0.01328,0.00458,-0.0583
4.6,0.8645,0.01332,0.00462,-0.0586
4.7,0.8778,0.01337,0.00466,-0.059
4.8,0.8912,0.01339,0.00469,-0.0594
4.9,0.9045,0.01344,0.00474,-0.0597
5,0.9178,0.01349,0.00478,-0.06
5.1,0.931,0.01354,0.00483,-0.0604
5.2,0.9443,0.01359,0.00487,-0.0607
5.3,0.9575,0.01365,0.00492,-0.061
5.4,0.9707,0.01371,0.00497,-0.0613
5.5,0.9839,0.01377,0.00501,-0.0617
5.6,0.9973,0.01381,0.00506,-0.0621
5.7,1.0105,0.01387,0.00511,-0.0624
5.8,1.0237,0.01394,0.00516,-0.0627
5.9,1.0368,0.01401,0.00521,-0.0631
6,1.0499,0.01411,0.00527,-0.0634
6.1,1.0631,0.01419,0.00533,-0.0637
6.2,1.0762,0.01427,0.00539,-0.064
6.3,1.0894,0.01435,0.00545,-0.0644
6.4,1.1027,0.01436,0.0055,-0.0647
6.5,1.1159,0.01441,0.00555,-0.0651
6.6,1.1291,0.01446,0.0056,-0.0654
6.7,1.1423,0.01452,0.00565,-0.0657
6.8,1.1554,0.01458,0.00571,-0.066
6.9,1.1686,0.01465,0.00577,-0.0664
7,1.1817,0.01471,0.00582,-0.0667
7.1,1.1949,0.01478,0.00588,-0.067
7.2,1.208,0.01484,0.00594,-0.0673
7.3,1.2212,0.01491,0.006,-0.0677
7.4,1.2344,0.01495,0.00606,-0.068
7.5,1.2475,0.01502,0.00612,-0.0683
7.6,1.2606,0.0151,0.00618,-0.0687
7.7,1.2736,0.01519,0.00625,-0.069
7.8,1.2867,0.01527,0.00631,-0.0693
7.9,1.2998,0.01535,0.00638,-0.0696
8,1.3129,0.01543,0.00645,-0.07
8.1,1.3259,0.01552,0.00652,-0.0703
8.2,1.3389,0.01561,0.00659,-0.0706
8.3,1.3519,0.0157,0.00667,-0.0709
8.4,1.3649,0.0158,0.00674,-0.0712
8.5,1.3779,0.01589,0.00682,-0.0716
8.6,1.3908,0.01595,0.00688,-0.0719
8.7,1.4039,0.01603,0.00696,-0.0722
8.8,1.4169,0.01609,0.00702,-0.0725
8.9,1.4299,0.01616,0.00709,-0.0728
9,1.4429,0.01623,0.00715,-0.0731
9.1,1.4559,0.01631,0.00722,-0.0734
9.2,1.4689,0.01638,0.00729,-0.0737
9.3,1.4819,0.01645,0.00737,-0.074
9.4,1.4949,0.01653,0.00744,-0.0743
9.5,1.5078,0.01662,0.00751,-0.0746
9.6,1.5208,0.0167,0.00759,-0.0749
9.7,1.5337,0.01679,0.00766,-0.0752
9.8,1.5466,0.01688,0.00774,-0.0756
9.9,1.5595,0.01697,0.00782,-0.0759
10,1.5724,0.01706,0.00789,-0.0762
10.1,1.5853,0.01716,0.00797,-0.0765
10.2,1.5982,0.01725,0.00806,-0.0768
10.3,1.6111,0.01734,0.00814,-0.0771
10.4,1.6239,0.01744,0.00822,-0.0774
10.5,1.6367,0.01754,0.00831,-0.0777
10.6,1.6495,0.01764,0.0084,-0.078
10.7,1.6623,0.01775,0.00848,-0.0783
10.8,1.675,0.01787,0.00857,-0.0786
10.9,1.6878,0.01798,0.00867,-0.0789
11,1.7005,0.01809,0.00875,-0.0792
11.1,1.7131,0.01812,0.0088,-0.0794
11.2,1.726,0.01827,0.00893,-0.0797
11.3,1.7388,0.01834,0.009,-0.08
11.4,1.7516,0.01841,0.00908,-0.0803
11.5,1.7644,0.0185,0.00916,-0.0806
11.6,1.7772,0.01858,0.00923,-0.0809
11.7,1.7899,0.01867,0.00932,-0.0812
11.8,1.8027,0.01875,0.0094,-0.0815
11.9,1.8154,0.01884,0.00949,-0.0818
12,1.8281,0.01894,0.00957,-0.0821
12.1,1.8408,0.01903,0.00966,-0.0823
12.2,1.8535,0.01913,0.00975,-0.0826
12.3,1.8662,0.01921,0.00984,-0.0829
12.4,1.8788,0.01932,0.00993,-0.0832
12.5,1.8915,0.01942,0.01002,-0.0835
12.6,1.9041,0.01952,0.01011,-0.0838
12.7,1.9168,0.01962,0.01021,-0.0841
12.8,1.9294,0.01973,0.0103,-0.0843
12.9,1.942,0.01984,0.0104,-0.0846
13,1.9545,0.01995,0.0105,-0.0849
13.1,1.9671,0.02006,0.01059,-0.0852
13.2,1.9796,0.02018,0.01069,-0.0855
13.3,1.9922,0.0203,0.01079,-0.0857
13.4,2.0047,0.02041,0.0109,-0.086
13.5,2.0172,0.02053,0.011,-0.0863
13.6,2.0297,0.02065,0.0111,-0.0866
13.7,2.0421,0.02077,0.01121,-0.0868
14,2.0792,0.02113,0.01152,-0.0876
14.1,2.0917,0.0212,0.0116,-0.0879
14.2,2.1042,0.02128,0.01168,-0.0882
14.3,2.1167,0.02136,0.01177,-0.0884
14.4,2.1291,0.02145,0.01186,-0.0887
14.5,2.1415,0.02153,0.01195,-0.0889
14.6,2.154,0.02162,0.01205,-0.0892
14.7,2.1664,0.02172,0.01214,-0.0895
14.8,2.1788,0.02182,0.01224,-0.0897
14.9,2.1911,0.02192,0.01233,-0.09
15,2.2035,0.02202,0.01243,-0.0902
15.1,2.2158,0.02212,0.01253,-0.0905
15.2,2.2282,0.02223,0.01263,-0.0907
15.3,2.2405,0.02234,0.01273,-0.091
15.4,2.2528,0.02245,0.01284,-0.0913
15.5,2.2651,0.02256,0.01294,-0.0915
15.6,2.2773,0.02266,0.01305,-0.0918
15.7,2.2896,0.02277,0.01315,-0.092
15.8,2.3018,0.02289,0.01326,-0.0923
15.9,2.314,0.02301,0.01337,-0.0925
16,2.3262,0.02313,0.01347,-0.0928
16.1,2.3384,0.02325,0.01358,-0.093
16.2,2.3505,0.02337,0.01369,-0.0933
16.3,2.3627,0.02349,0.01381,-0.0935
16.4,2.3748,0.02362,0.01392,-0.0938
16.5,2.3869,0.02374,0.01403,-0.094
16.6,2.399,0.02387,0.01415,-0.0942
16.7,2.411,0.024,0.01426,-0.0945
16.8,2.4228,0.02412,0.01436,-0.0947
16.9,2.4348,0.02425,0.01449,-0.0949
17,2.4467,0.02436,0.01458,-0.0951
17.2,2.4707,0.02465,0.01485,-0.0956
17.3,2.4828,0.02471,0.01493,-0.0958
17.4,2.4948,0.02479,0.01502,-0.0961
17.5,2.5068,0.02487,0.01511,-0.0963
17.6,2.5189,0.02496,0.0152,-0.0965
17.7,2.5309,0.02505,0.0153,-0.0967
17.8,2.5428,0.02514,0.0154,-0.0969
17.9,2.5548,0.02524,0.0155,-0.0971
18,2.5667,0.02534,0.0156,-0.0974
18.1,2.5786,0.02544,0.0157,-0.0976
18.2,2.5905,0.02554,0.01581,-0.0978
18.3,2.6024,0.02565,0.01591,-0.098
18.4,2.6142,0.02576,0.01602,-0.0982
18.5,2.6261,0.02587,0.01613,-0.0984
18.6,2.6379,0.02598,0.01624,-0.0986
18.7,2.6497,0.02609,0.01635,-0.0989
18.8,2.6615,0.02621,0.01646,-0.0991
18.9,2.6732,0.02632,0.01657,-0.0993
19,2.685,0.02643,0.01668,-0.0995
19.1,2.6966,0.02654,0.0168,-0.0997
19.2,2.7083,0.02666,0.01691,-0.0999
19.3,2.7199,0.02678,0.01703,-0.1001
19.4,2.7316,0.0269,0.01714,-0.1003
19.5,2.7432,0.02703,0.01726,-0.1005
19.6,2.7548,0.02715,0.01738,-0.1007
19.7,2.7664,0.02728,0.0175,-0.1008
19.8,2.778,0.02741,0.01762,-0.101
19.9,2.7895,0.02753,0.01773,-0.1012
20,2.801,0.02766,0.01786,-0.1014
20.1,2.8125,0.02779,0.01798,-0.1016
20.2,2.824,0.02792,0.0181,-0.1018
20.4,2.8467,0.02819,0.01835,-0.1021
20.5,2.858,0.02833,0.01848,-0.1023
20.6,2.869,0.02847,0.0186,-0.1025
20.8,2.8917,0.02879,0.0189,-0.1028
20.9,2.9031,0.02884,0.01898,-0.103
21,2.9145,0.02891,0.01906,-0.1031
21.1,2.9259,0.02898,0.01914,-0.1033
21.3,2.9485,0.02914,0.01933,-0.1036
21.4,2.9598,0.02923,0.01942,-0.1037
21.6,2.9824,0.02942,0.01963,-0.104
21.8,3.0047,0.02959,0.01983,-0.1043
21.9,3.0159,0.02969,0.01994,-0.1044
22,3.0271,0.02979,0.02005,-0.1046
22.1,3.0382,0.0299,0.02015,-0.1047
22.2,3.0494,0.03001,0.02027,-0.1049
22.3,3.0605,0.03013,0.02038,-0.105
22.4,3.0716,0.03024,0.02049,-0.1051
22.5,3.0825,0.03035,0.02061,-0.1052
22.6,3.0936,0.03043,0.02071,-0.1054
22.7,3.1046,0.03055,0.02082,-0.1056
22.8,3.1156,0.03067,0.02094,-0.1057
22.9,3.1266,0.03079,0.02106,-0.1058
23,3.1375,0.03091,0.02118,-0.1059
23.1,3.1483,0.03103,0.0213,-0.106
23.2,3.159,0.03115,0.02142,-0.1061
23.3,3.1697,0.03127,0.02154,-0.1062
23.4,3.1804,0.03139,0.02167,-0.1063
23.5,3.1908,0.03153,0.0218,-0.1063
23.6,3.2024,0.03163,0.02189,-0.1066
23.7,3.213,0.03175,0.02201,-0.1067
23.8,3.2235,0.03188,0.02214,-0.1068
23.9,3.234,0.03201,0.02227,-0.1069
24,3.2445,0.03213,0.0224,-0.1069
24.1,3.2549,0.03227,0.02253,-0.107
24.2,3.2653,0.03241,0.02267,-0.107
24.3,3.2757,0.03256,0.02281,-0.1071
24.4,3.2859,0.03271,0.02295,-0.1071
24.6,3.3075,0.03296,0.02319,-0.1075
24.7,3.3177,0.03311,0.02333,-0.1075
24.8,3.3276,0.0333,0.0235,-0.1076
24.9,3.3377,0.03347,0.02366,-0.1076
25,3.3479,0.03355,0.02377,-0.1076
25.1,3.358,0.0336,0.02385,-0.1076
25.2,3.3681,0.03367,0.02394,-0.1075
25.3,3.3781,0.03375,0.02404,-0.1075
25.4,3.3882,0.03385,0.02415,-0.1075
25.5,3.3978,0.03402,0.02432,-0.1073
25.6,3.4089,0.03389,0.02426,-0.1077
25.7,3.4189,0.03399,0.02437,-0.1077
25.8,3.4289,0.03409,0.02448,-0.1076
25.9,3.4388,0.03419,0.0246,-0.1076
26,3.4488,0.03431,0.02472,-0.1076
26.2,3.4684,0.03461,0.02503,-0.1074
26.3,3.4779,0.0347,0.02514,-0.1073
26.4,3.4871,0.0348,0.02526,-0.1072
26.6,3.5081,0.035,0.02547,-0.1075
26.7,3.5177,0.03509,0.02557,-0.1075
26.8,3.5273,0.03519,0.02568,-0.1074
26.9,3.5367,0.03529,0.0258,-0.1073
27,3.546,0.03539,0.02592,-0.1072

