airfoilName st4.dat
Re 	450000
M 	0
N 	4.500000e+00
VACC 	0 VACCflag 1
XTR 	1.00 	1.00 XTRflag 0
alpha,cl,cd,cdp,cm
-28.9,-2.6446,0.16332,0.16044,0.2502
-28.8,-2.6401,0.16248,0.15962,0.2492
-28.7,-2.6356,0.16159,0.15874,0.2481
-28.6,-2.6311,0.1607,0.15787,0.2469
-28.5,-2.6268,0.15971,0.1569,0.2457
-28.4,-2.6225,0.15869,0.15589,0.2444
-28.3,-2.6183,0.15759,0.15481,0.2431
-28.2,-2.6141,0.15648,0.15371,0.2417
-28.1,-2.6101,0.15527,0.15251,0.2402
-28,-2.6061,0.15401,0.15125,0.2386
-27.9,-2.6023,0.15266,0.14992,0.2369
-27.8,-2.5986,0.15119,0.14844,0.2351
-27.7,-2.5952,0.1496,0.14686,0.2332
-27.6,-2.5921,0.14779,0.14504,0.2309
-27.5,-2.5901,0.14542,0.14266,0.228
-27.4,-2.5904,0.14169,0.13888,0.2235
-27.3,-2.5893,0.13883,0.13599,0.2199
-27.2,-2.5892,0.13552,0.13263,0.2158
-27.1,-2.5941,0.12972,0.12672,0.2084
-27,-2.5951,0.12592,0.12284,0.2034
-26.9,-2.6001,0.1202,0.11699,0.1959
-26.8,-2.6071,0.11356,0.11015,0.1868
-26.7,-2.6105,0.10872,0.10517,0.18
-26.6,-2.6119,0.10478,0.1011,0.1742
-26.5,-2.6152,0.1,0.09614,0.1671
-26.4,-2.6119,0.09819,0.09433,0.1642
-26.3,-2.6077,0.09684,0.09298,0.1619
-26.2,-2.6038,0.09527,0.09141,0.1593
-26.1,-2.6007,0.09339,0.08951,0.156
-26,-2.598,0.09128,0.08738,0.1523
-25.9,-2.5946,0.08952,0.0856,0.1491
-25.8,-2.5913,0.08764,0.0837,0.1455
-25.7,-2.5888,0.08543,0.08145,0.1413
-25.6,-2.5868,0.08301,0.07897,0.1364
-25.5,-2.5838,0.08104,0.07695,0.1321
-25.4,-2.5818,0.07863,0.07448,0.1267
-25.3,-2.5793,0.07646,0.07225,0.1215
-25.2,-2.5767,0.0743,0.07001,0.1159
-25.1,-2.574,0.07207,0.06771,0.1099
-25,-2.5709,0.06988,0.06543,0.1037
-24.9,-2.5671,0.06783,0.06329,0.0978
-24.8,-2.5635,0.06555,0.06091,0.0913
-24.7,-2.559,0.06355,0.05882,0.0855
-24.6,-2.5543,0.0615,0.05667,0.0797
-24.5,-2.5491,0.05938,0.05446,0.0738
-24.4,-2.5432,0.05738,0.05235,0.0681
-24.3,-2.5367,0.05552,0.0504,0.0628
-24.2,-2.5295,0.05373,0.04851,0.0576
-24.1,-2.5217,0.05204,0.04672,0.0526
-24,-2.5133,0.05048,0.04506,0.0479
-23.9,-2.5042,0.04905,0.04354,0.0434
-23.8,-2.4946,0.04775,0.04215,0.0393
-23.7,-2.4844,0.04657,0.04089,0.0354
-23.6,-2.4738,0.04552,0.03975,0.0319
-23.5,-2.4629,0.04457,0.03872,0.0286
-23.4,-2.4517,0.04372,0.03779,0.0255
-23.3,-2.4401,0.04291,0.03692,0.0225
-23.2,-2.428,0.04205,0.03602,0.0192
-23.1,-2.4157,0.04127,0.0352,0.0161
-23,-2.4032,0.04058,0.03447,0.0132
-22.9,-2.3906,0.03995,0.0338,0.0105
-22.8,-2.378,0.03938,0.03319,0.0081
-22.7,-2.3654,0.03887,0.03264,0.0058
-22.6,-2.3528,0.03839,0.03213,0.0036
-22.4,-2.3277,0.03756,0.03126,-0.0004
-22.3,-2.3153,0.03719,0.03085,-0.0022
-22.2,-2.303,0.03683,0.03046,-0.0039
-22.1,-2.2908,0.0365,0.03009,-0.0055
-22,-2.2786,0.03617,0.02973,-0.0071
-21.9,-2.2666,0.03587,0.02939,-0.0086
-21.8,-2.2546,0.03557,0.02906,-0.01
-21.7,-2.2428,0.03528,0.02874,-0.0113
-21.6,-2.2312,0.03501,0.02843,-0.0126
-21.5,-2.2196,0.03474,0.02812,-0.0138
-21.4,-2.2083,0.03448,0.02783,-0.0149
-21.3,-2.1971,0.03422,0.02754,-0.016
-21.2,-2.1862,0.03397,0.02725,-0.017
-21.1,-2.1755,0.03373,0.02697,-0.0179
-21,-2.1652,0.03349,0.02669,-0.0187
-20.9,-2.1552,0.03325,0.02642,-0.0194
-20.8,-2.1456,0.03303,0.02615,-0.02
-20.7,-2.1365,0.03281,0.02589,-0.0205
-20.6,-2.1276,0.0326,0.02564,-0.0209
-20.5,-2.1182,0.03238,0.02539,-0.0212
-20.4,-2.109,0.03215,0.02513,-0.0216
-20.3,-2.1001,0.03187,0.02484,-0.022
-20.2,-2.0911,0.0316,0.02456,-0.0224
-20.1,-2.082,0.03134,0.02428,-0.0227
-20,-2.0729,0.03109,0.02401,-0.023
-19.9,-2.0636,0.03084,0.02375,-0.0232
-19.8,-2.0543,0.03059,0.02349,-0.0235
-19.7,-2.0449,0.03035,0.02323,-0.0237
-19.6,-2.0354,0.03011,0.02298,-0.0239
-19.5,-2.0258,0.02988,0.02273,-0.0241
-19.4,-2.0162,0.02965,0.02248,-0.0243
-19.3,-2.0065,0.02942,0.02224,-0.0245
-19.2,-1.9967,0.02922,0.02203,-0.0246
-19.1,-1.9869,0.029,0.02179,-0.0248
-19,-1.977,0.02879,0.02155,-0.0249
-18.9,-1.967,0.02857,0.02132,-0.025
-18.8,-1.957,0.02836,0.02108,-0.0252
-18.7,-1.9469,0.02815,0.02085,-0.0253
-18.6,-1.9367,0.02794,0.02061,-0.0254
-18.5,-1.9265,0.02774,0.02039,-0.0255
-18.4,-1.9163,0.02754,0.02016,-0.0256
-18.3,-1.9059,0.02734,0.01994,-0.0257
-18.2,-1.8955,0.02715,0.01971,-0.0258
-18.1,-1.8851,0.02696,0.0195,-0.0259
-18,-1.8746,0.02678,0.01928,-0.026
-17.9,-1.864,0.0266,0.01908,-0.026
-17.8,-1.8537,0.02636,0.01883,-0.0262
-17.7,-1.8432,0.02612,0.0186,-0.0263
-17.6,-1.8327,0.0259,0.01837,-0.0264
-17.5,-1.8222,0.02568,0.01815,-0.0266
-17.4,-1.8116,0.02548,0.01793,-0.0267
-17.3,-1.8009,0.02527,0.01772,-0.0268
-17.2,-1.7901,0.02507,0.01751,-0.0269
-17.1,-1.7793,0.02488,0.01731,-0.027
-17,-1.7685,0.02469,0.01711,-0.0271
-16.9,-1.7576,0.0245,0.01691,-0.0272
-16.8,-1.7466,0.02432,0.01671,-0.0273
-16.7,-1.7356,0.02414,0.01652,-0.0274
-16.6,-1.7246,0.02396,0.01632,-0.0275
-16.5,-1.7135,0.02378,0.01613,-0.0276
-16.4,-1.7024,0.02361,0.01594,-0.0277
-16.3,-1.6912,0.02343,0.01575,-0.0278
-16.2,-1.68,0.0233,0.0156,-0.0279
-16.1,-1.6687,0.02314,0.01541,-0.028
-16,-1.6574,0.02298,0.01523,-0.0281
-15.9,-1.6461,0.02283,0.01506,-0.0281
-15.8,-1.6349,0.02263,0.01486,-0.0283
-15.7,-1.6236,0.02243,0.01466,-0.0284
-15.6,-1.6123,0.02224,0.01447,-0.0285
-15.5,-1.601,0.02206,0.01429,-0.0287
-15.4,-1.5896,0.02188,0.01411,-0.0288
-15.3,-1.5782,0.02171,0.01394,-0.0289
-15.2,-1.5667,0.02154,0.01376,-0.029
-15.1,-1.5552,0.02138,0.01359,-0.0291
-15,-1.5437,0.02122,0.01343,-0.0292
-14.9,-1.5321,0.02106,0.01326,-0.0294
-14.8,-1.5205,0.0209,0.0131,-0.0295
-14.7,-1.5089,0.02075,0.01294,-0.0296
-14.6,-1.4972,0.0206,0.01277,-0.0297
-14.5,-1.4856,0.02046,0.01261,-0.0298
-14.4,-1.4739,0.02031,0.01245,-0.0299
-14.3,-1.4621,0.02018,0.0123,-0.03
-14.2,-1.4504,0.02004,0.01215,-0.0301
-14.1,-1.4386,0.0199,0.01199,-0.0302
-14,-1.4269,0.01971,0.01183,-0.0304
-13.9,-1.4152,0.01955,0.01167,-0.0306
-13.8,-1.4034,0.01939,0.01152,-0.0307
-13.7,-1.3915,0.01924,0.01137,-0.0308
-13.6,-1.3797,0.01909,0.01122,-0.031
-13.5,-1.3678,0.01895,0.01107,-0.0311
-13.4,-1.3559,0.01881,0.01093,-0.0312
-13.3,-1.344,0.01867,0.01079,-0.0313
-13.2,-1.3321,0.01854,0.01065,-0.0315
-13.1,-1.3201,0.0184,0.01051,-0.0316
-13,-1.3081,0.01828,0.01037,-0.0317
-12.9,-1.2961,0.01815,0.01024,-0.0318
-12.8,-1.2841,0.01804,0.0101,-0.032
-12.7,-1.272,0.0179,0.00996,-0.0321
-12.6,-1.26,0.01774,0.00981,-0.0323
-12.5,-1.248,0.01759,0.00968,-0.0324
-12.4,-1.2359,0.01745,0.00954,-0.0326
-12.3,-1.2239,0.01731,0.00942,-0.0327
-12.2,-1.2118,0.01718,0.00929,-0.0329
-12.1,-1.1997,0.01706,0.00917,-0.033
-12,-1.1875,0.01693,0.00904,-0.0331
-11.9,-1.1754,0.01681,0.00892,-0.0333
-11.8,-1.1632,0.0167,0.00879,-0.0334
-11.7,-1.151,0.01659,0.00867,-0.0335
-11.6,-1.1388,0.01648,0.00856,-0.0337
-11.5,-1.1266,0.01634,0.00843,-0.0338
-11.4,-1.1144,0.0162,0.0083,-0.034
-11.3,-1.1022,0.01607,0.00818,-0.0341
-11.2,-1.09,0.01594,0.00807,-0.0343
-11.1,-1.0778,0.01582,0.00795,-0.0345
-11,-1.0655,0.01571,0.00784,-0.0346
-10.9,-1.0532,0.01559,0.00773,-0.0348
-10.8,-1.041,0.01549,0.00762,-0.0349
-10.7,-1.0287,0.01538,0.00752,-0.035
-10.6,-1.0163,0.01529,0.00741,-0.0352
-10.5,-1.004,0.01516,0.00729,-0.0353
-10.4,-0.9917,0.01503,0.00718,-0.0355
-10.3,-0.9794,0.01491,0.00707,-0.0357
-10.2,-0.967,0.01479,0.00697,-0.0358
-10.1,-0.9547,0.01468,0.00686,-0.036
-10,-0.9423,0.01458,0.00676,-0.0362
-9.9,-0.93,0.01447,0.00667,-0.0363
-9.8,-0.9176,0.01438,0.00657,-0.0365
-9.7,-0.9052,0.01428,0.00647,-0.0366
-9.6,-0.8928,0.01416,0.00637,-0.0368
-9.5,-0.8804,0.01404,0.00627,-0.037
-9.4,-0.868,0.01393,0.00618,-0.0371
-9.3,-0.8556,0.01383,0.00608,-0.0373
-9.2,-0.8431,0.01373,0.00599,-0.0374
-9.1,-0.8307,0.01363,0.0059,-0.0376
-9,-0.8182,0.01354,0.00581,-0.0378
-8.9,-0.8058,0.01345,0.00573,-0.0379
-8.8,-0.7933,0.01335,0.00563,-0.0381
-8.7,-0.7809,0.01324,0.00554,-0.0383
-8.6,-0.7684,0.01313,0.00545,-0.0384
-8.5,-0.7559,0.01302,0.00537,-0.0386
-8.4,-0.7434,0.01293,0.00529,-0.0388
-8.3,-0.7309,0.01285,0.00521,-0.0389
-8.2,-0.7184,0.01277,0.00513,-0.0391
-8.1,-0.7059,0.01266,0.00503,-0.0393
-8,-0.6934,0.01256,0.00495,-0.0394
-7.9,-0.6809,0.01246,0.00487,-0.0396
-7.8,-0.6684,0.01237,0.0048,-0.0398
-7.7,-0.6558,0.01228,0.00472,-0.04
-7.6,-0.6433,0.0122,0.00465,-0.0401
-7.5,-0.6308,0.0121,0.00457,-0.0403
-7.4,-0.6182,0.012,0.00449,-0.0405
-7.3,-0.6057,0.01191,0.00442,-0.0407
-7.2,-0.5931,0.01182,0.00435,-0.0408
-7.1,-0.5806,0.01174,0.00428,-0.041
-7,-0.568,0.01166,0.00421,-0.0412
-6.9,-0.5555,0.01158,0.00413,-0.0414
-6.8,-0.5422,0.0115,0.00408,-0.0417
-6.7,-0.5282,0.01142,0.00404,-0.0422
-6.6,-0.514,0.01137,0.004,-0.0427
-6.5,-0.4999,0.01134,0.00397,-0.0431
-6.4,-0.4864,0.0113,0.00394,-0.0435
-6.3,-0.4739,0.01128,0.00391,-0.0436
-6.2,-0.4622,0.01128,0.00389,-0.0435
-6.1,-0.4508,0.01129,0.00386,-0.0433
-6,-0.4393,0.0113,0.00383,-0.0432
-5.9,-0.4277,0.01128,0.00379,-0.0431
-5.8,-0.4158,0.01126,0.00374,-0.0431
-5.7,-0.4045,0.01132,0.00372,-0.043
-5.6,-0.3923,0.0113,0.00368,-0.043
-5.5,-0.3801,0.01129,0.00364,-0.0431
-5.4,-0.3678,0.01125,0.00359,-0.0432
-5.3,-0.3559,0.01128,0.00357,-0.0432
-5.2,-0.3435,0.01123,0.00353,-0.0434
-5.1,-0.3315,0.01127,0.0035,-0.0434
-5,-0.319,0.01122,0.00345,-0.0436
-4.9,-0.3065,0.01119,0.00342,-0.0437
-4.8,-0.2943,0.0112,0.00339,-0.0439
-4.7,-0.2818,0.01117,0.00336,-0.044
-4.6,-0.2692,0.01113,0.00331,-0.0442
-4.5,-0.2567,0.01109,0.00328,-0.0444
-4.4,-0.2444,0.0111,0.00326,-0.0445
-4.3,-0.2318,0.01107,0.00323,-0.0446
-4.2,-0.2194,0.01105,0.00319,-0.0448
-4.1,-0.2069,0.01102,0.00316,-0.045
-4,-0.1943,0.01099,0.00314,-0.0451
-3.9,-0.1816,0.01093,0.0031,-0.0454
-3.8,-0.169,0.01089,0.00307,-0.0455
-3.7,-0.1564,0.01086,0.00304,-0.0457
-3.6,-0.1438,0.01084,0.00302,-0.0459
-3.5,-0.1314,0.01083,0.003,-0.046
-3.4,-0.1187,0.01079,0.00297,-0.0462
-3.3,-0.1061,0.01076,0.00295,-0.0464
-3.2,-0.0936,0.01073,0.00292,-0.0466
-3.1,-0.081,0.0107,0.0029,-0.0468
-3,-0.0683,0.01067,0.00288,-0.047
-2.9,-0.0557,0.01064,0.00285,-0.0472
-2.8,-0.0431,0.0106,0.00283,-0.0474
-2.7,-0.0306,0.0106,0.00282,-0.0475
-2.6,-0.018,0.01057,0.0028,-0.0477
-2.5,-0.0054,0.01055,0.00278,-0.0479
-2.4,0.0071,0.01054,0.00277,-0.0481
-2.3,0.0197,0.01053,0.00276,-0.0483
-2.2,0.0324,0.01049,0.00274,-0.0485
-2.1,0.045,0.01045,0.00272,-0.0487
-2,0.0575,0.01046,0.00271,-0.0489
-1.9,0.0701,0.01043,0.0027,-0.0491
-1.8,0.0828,0.01042,0.00269,-0.0492
-1.7,0.0951,0.01045,0.00268,-0.0494
-1.6,0.1078,0.01042,0.00268,-0.0496
-1.5,0.1204,0.01039,0.00267,-0.0498
-1.4,0.133,0.01038,0.00265,-0.05
-1.3,0.1455,0.01038,0.00266,-0.0502
-1.2,0.1579,0.01042,0.00266,-0.0503
-1.1,0.1704,0.01042,0.00265,-0.0505
-1,0.183,0.01039,0.00265,-0.0508
-0.9,0.1955,0.01041,0.00265,-0.0509
-0.8,0.208,0.01042,0.00266,-0.0511
-0.7,0.2206,0.01042,0.00266,-0.0513
-0.6,0.2328,0.01048,0.00268,-0.0515
-0.5,0.2454,0.01047,0.00268,-0.0517
-0.4,0.2578,0.0105,0.00269,-0.0519
-0.3,0.2703,0.01051,0.0027,-0.052
-0.2,0.2828,0.01055,0.00271,-0.0522
0,0.3076,0.01058,0.00273,-0.0526
0.1,0.3201,0.01062,0.00275,-0.0528
0.2,0.3324,0.01067,0.00278,-0.053
0.3,0.3448,0.01072,0.0028,-0.0532
0.4,0.3571,0.01078,0.00283,-0.0533
0.5,0.3691,0.01091,0.00287,-0.0536
0.6,0.3813,0.01099,0.00291,-0.0537
0.7,0.3935,0.01109,0.00295,-0.0539
0.8,0.4056,0.01121,0.003,-0.0541
0.9,0.4177,0.01133,0.00305,-0.0543
1,0.4298,0.01142,0.0031,-0.0545
1.1,0.442,0.01151,0.00315,-0.0547
1.2,0.4543,0.0116,0.0032,-0.0549
1.3,0.4666,0.01167,0.00323,-0.0551
1.4,0.4789,0.01175,0.00328,-0.0553
1.5,0.4912,0.01176,0.00332,-0.0555
1.6,0.5036,0.0118,0.00335,-0.0557
1.7,0.5158,0.01189,0.0034,-0.0559
1.8,0.5281,0.01195,0.00344,-0.056
1.9,0.5405,0.01198,0.00349,-0.0562
2,0.5529,0.01198,0.00353,-0.0564
2.1,0.5652,0.01201,0.00357,-0.0565
2.2,0.5776,0.01205,0.0036,-0.0567
2.3,0.5899,0.01209,0.00365,-0.0569
2.4,0.6022,0.01214,0.00369,-0.057
2.5,0.6143,0.01217,0.00374,-0.0572
2.6,0.6266,0.01221,0.00379,-0.0573
2.7,0.6389,0.01224,0.00384,-0.0575
2.8,0.6512,0.01228,0.00388,-0.0576
2.9,0.6635,0.01232,0.00392,-0.0577
3,0.6756,0.01235,0.00397,-0.0579
3.1,0.6878,0.0124,0.00402,-0.058
3.2,0.7,0.01246,0.00407,-0.0581
3.3,0.7121,0.01252,0.00412,-0.0582
3.4,0.7243,0.01258,0.00418,-0.0584
3.5,0.7363,0.01259,0.00422,-0.0584
3.6,0.7485,0.01263,0.00427,-0.0586
3.7,0.7607,0.01268,0.00432,-0.0587
3.8,0.7728,0.01272,0.00437,-0.0588
3.9,0.7849,0.01277,0.00442,-0.0589
4,0.7967,0.0128,0.00447,-0.0589
4.1,0.8087,0.01286,0.00453,-0.059
4.2,0.8207,0.01293,0.00459,-0.0591
4.3,0.8326,0.01302,0.00464,-0.0592
4.4,0.8441,0.01304,0.0047,-0.0592
4.5,0.8561,0.01309,0.00475,-0.0592
4.6,0.868,0.01313,0.00481,-0.0593
4.7,0.88,0.01318,0.00486,-0.0594
4.8,0.8919,0.01323,0.00492,-0.0594
4.9,0.9029,0.01325,0.00496,-0.0593
5,0.9147,0.01331,0.00502,-0.0593
5.1,0.9262,0.01336,0.00507,-0.0593
5.2,0.9379,0.01343,0.00513,-0.0593
5.3,0.9482,0.01345,0.00517,-0.059
5.4,0.9597,0.01352,0.00522,-0.059
5.5,0.9708,0.01358,0.00527,-0.0589
5.6,0.982,0.01364,0.00534,-0.0588
5.7,0.9933,0.01367,0.00538,-0.0587
5.8,1.0044,0.0137,0.00542,-0.0586
5.9,1.014,0.01368,0.00542,-0.0581
6,1.0257,0.01372,0.00545,-0.0582
6.2,1.0508,0.01384,0.00554,-0.0586
6.3,1.063,0.01392,0.00561,-0.0588
6.4,1.0751,0.01402,0.00569,-0.0589
6.5,1.0872,0.01411,0.00576,-0.0591
6.6,1.0993,0.01421,0.00584,-0.0592
6.7,1.1113,0.01431,0.00592,-0.0594
6.8,1.1233,0.01442,0.006,-0.0596
6.9,1.1355,0.0145,0.00608,-0.0597
7,1.1476,0.01457,0.00616,-0.0599
7.1,1.1597,0.01465,0.00624,-0.06
7.2,1.1718,0.01473,0.00631,-0.0602
7.3,1.1839,0.01481,0.00638,-0.0603
7.4,1.196,0.0149,0.00646,-0.0605
7.5,1.208,0.01499,0.00654,-0.0606
7.6,1.22,0.01509,0.00663,-0.0608
7.7,1.232,0.01519,0.00671,-0.0609
7.8,1.244,0.01529,0.0068,-0.0611
7.9,1.2559,0.01539,0.00688,-0.0612
8,1.2678,0.0155,0.00697,-0.0613
8.1,1.2797,0.01562,0.00706,-0.0615
8.2,1.2915,0.01573,0.00716,-0.0616
8.3,1.3036,0.0158,0.00725,-0.0618
8.4,1.3156,0.01588,0.00733,-0.0619
8.5,1.3275,0.01597,0.00742,-0.0621
8.6,1.3395,0.01606,0.00751,-0.0622
8.7,1.3514,0.01614,0.00759,-0.0623
8.8,1.3633,0.01624,0.00768,-0.0625
8.9,1.3752,0.01634,0.00777,-0.0626
9.2,1.4106,0.01665,0.00805,-0.063
9.3,1.4223,0.01676,0.00815,-0.0632
9.4,1.4341,0.01687,0.00825,-0.0633
9.5,1.4458,0.01699,0.00835,-0.0634
9.6,1.4574,0.01712,0.00845,-0.0636
9.7,1.4691,0.01723,0.00856,-0.0637
9.8,1.481,0.01732,0.00866,-0.0638
9.9,1.4928,0.0174,0.00876,-0.0639
10,1.5045,0.0175,0.00886,-0.0641
10.1,1.5163,0.01759,0.00896,-0.0642
10.2,1.528,0.01769,0.00906,-0.0643
10.3,1.5397,0.0178,0.00917,-0.0644
10.4,1.5513,0.01789,0.00926,-0.0646
10.5,1.5629,0.018,0.00936,-0.0647
10.6,1.5745,0.01811,0.00947,-0.0648
10.7,1.5861,0.01823,0.00958,-0.0649
10.8,1.5976,0.01835,0.00968,-0.0651
10.9,1.6091,0.01847,0.00979,-0.0652
11,1.6206,0.01859,0.0099,-0.0653
11.1,1.632,0.01872,0.01002,-0.0654
11.2,1.6434,0.01886,0.01014,-0.0655
11.3,1.6548,0.01899,0.01026,-0.0656
11.4,1.6664,0.01908,0.01037,-0.0657
11.5,1.678,0.01917,0.01048,-0.0659
11.6,1.6895,0.01928,0.0106,-0.066
11.7,1.701,0.01938,0.01071,-0.0661
11.8,1.7124,0.01949,0.01083,-0.0662
11.9,1.7238,0.0196,0.01095,-0.0663
12,1.7352,0.01972,0.01107,-0.0664
12.1,1.7465,0.01982,0.01117,-0.0665
12.2,1.7578,0.01994,0.01129,-0.0666
12.3,1.7691,0.02006,0.0114,-0.0667
12.4,1.7803,0.02019,0.01153,-0.0668
12.5,1.7916,0.02032,0.01165,-0.0669
12.6,1.8027,0.02045,0.01178,-0.067
12.7,1.8138,0.02059,0.0119,-0.0671
12.8,1.8249,0.02073,0.01203,-0.0672
12.9,1.8359,0.02088,0.01217,-0.0672
13,1.8469,0.02104,0.01231,-0.0673
13.1,1.8582,0.02114,0.01243,-0.0674
13.2,1.8694,0.02124,0.01256,-0.0675
13.3,1.8806,0.02135,0.0127,-0.0676
13.4,1.8917,0.02146,0.01283,-0.0677
13.5,1.9028,0.02158,0.01296,-0.0678
13.6,1.9139,0.0217,0.01309,-0.0678
13.7,1.9249,0.02183,0.01322,-0.0679
13.8,1.9358,0.02194,0.01334,-0.068
13.9,1.9468,0.02207,0.01347,-0.068
14,1.9576,0.0222,0.01361,-0.0681
14.1,1.9685,0.02234,0.01374,-0.0682
14.2,1.9793,0.02247,0.01388,-0.0682
14.3,1.9901,0.02261,0.01403,-0.0683
14.4,2.0008,0.02276,0.01417,-0.0684
14.5,2.0115,0.02291,0.01431,-0.0684
14.6,2.0221,0.02306,0.01445,-0.0685
14.7,2.0327,0.02322,0.01461,-0.0685
14.8,2.0432,0.02339,0.01476,-0.0686
14.9,2.0537,0.02355,0.01492,-0.0686
15,2.0645,0.02366,0.01506,-0.0687
15.1,2.0752,0.02377,0.01521,-0.0687
15.2,2.0859,0.0239,0.01535,-0.0688
15.3,2.0965,0.02402,0.01551,-0.0688
15.4,2.1071,0.02415,0.01566,-0.0689
15.5,2.1176,0.02429,0.01581,-0.0689
15.6,2.1281,0.02442,0.01596,-0.0689
15.7,2.1385,0.02456,0.01612,-0.0689
15.8,2.1488,0.02469,0.01625,-0.069
15.9,2.1591,0.02484,0.0164,-0.069
16,2.1694,0.02498,0.01656,-0.069
16.1,2.1796,0.02513,0.01671,-0.069
16.2,2.1898,0.02529,0.01687,-0.069
16.3,2.1999,0.02544,0.01703,-0.0691
16.4,2.2099,0.0256,0.01719,-0.0691
16.5,2.2199,0.02577,0.01736,-0.0691
16.6,2.2298,0.02594,0.01752,-0.0691
16.7,2.2396,0.02612,0.01769,-0.0691
16.8,2.2494,0.0263,0.01787,-0.0691
16.9,2.2591,0.02649,0.01805,-0.0691
17,2.2692,0.02661,0.01822,-0.069
17.1,2.2792,0.02674,0.01838,-0.069
17.2,2.2891,0.02688,0.01855,-0.069
17.3,2.299,0.02702,0.01872,-0.069
17.4,2.3088,0.02716,0.01889,-0.069
17.5,2.3185,0.02731,0.01906,-0.0689
17.6,2.3282,0.02746,0.01924,-0.0689
17.7,2.3378,0.02762,0.01942,-0.0689
17.8,2.3473,0.02775,0.01957,-0.0688
17.9,2.3567,0.02791,0.01974,-0.0688
18,2.3661,0.02808,0.01992,-0.0687
18.1,2.3754,0.02824,0.0201,-0.0687
18.2,2.3847,0.02841,0.02028,-0.0686
18.3,2.3938,0.02858,0.02046,-0.0686
18.4,2.4029,0.02875,0.02064,-0.0685
18.5,2.4119,0.02893,0.02082,-0.0684
18.6,2.4208,0.02911,0.02101,-0.0683
18.7,2.4296,0.02929,0.02119,-0.0683
18.8,2.4384,0.02948,0.02139,-0.0682
18.9,2.447,0.02968,0.02159,-0.0681
19,2.4555,0.02989,0.02179,-0.068
19.1,2.464,0.0301,0.022,-0.0679
19.2,2.4728,0.03024,0.02219,-0.0678
19.3,2.4816,0.03039,0.02238,-0.0677
19.4,2.4902,0.03054,0.02257,-0.0676
19.5,2.4988,0.0307,0.02277,-0.0674
19.6,2.5073,0.03086,0.02297,-0.0673
19.7,2.5156,0.03103,0.02317,-0.0672
19.8,2.5239,0.0312,0.02337,-0.067
19.9,2.532,0.03138,0.02357,-0.0669
20,2.5401,0.03155,0.02377,-0.0667
20.1,2.5479,0.03171,0.02395,-0.0666
20.2,2.5557,0.03189,0.02415,-0.0664
20.3,2.5633,0.03207,0.02436,-0.0663
20.4,2.5708,0.03226,0.02456,-0.0661
20.5,2.5782,0.03244,0.02477,-0.0659
20.6,2.5854,0.03263,0.02497,-0.0657
20.7,2.5925,0.03282,0.02518,-0.0655
20.8,2.5993,0.03301,0.02538,-0.0652
20.9,2.606,0.03321,0.02559,-0.065
21,2.6125,0.0334,0.0258,-0.0647
21.1,2.6189,0.03361,0.02602,-0.0645
21.2,2.625,0.03381,0.02623,-0.0642
21.3,2.631,0.03403,0.02645,-0.064
21.4,2.6368,0.03425,0.02668,-0.0637
21.5,2.6426,0.03447,0.02691,-0.0635
21.6,2.6485,0.03466,0.02714,-0.0632
21.7,2.6543,0.03483,0.02736,-0.0629
21.8,2.659,0.03499,0.02757,-0.0625
21.9,2.6635,0.03517,0.0278,-0.062
22,2.6683,0.03535,0.02803,-0.0617
22.1,2.6733,0.03554,0.02826,-0.0614
22.2,2.6788,0.03574,0.0285,-0.0613
22.3,2.6842,0.0359,0.02871,-0.0612
22.4,2.6902,0.0361,0.02894,-0.0612
22.5,2.6963,0.0363,0.02917,-0.0612
22.6,2.7027,0.0365,0.02941,-0.0614
22.7,2.7092,0.0367,0.02964,-0.0616
22.8,2.7159,0.0369,0.02986,-0.0618
22.9,2.7228,0.0371,0.03009,-0.0621
23,2.73,0.0373,0.03032,-0.0626
23.1,2.7371,0.0375,0.03055,-0.063
23.2,2.7443,0.0377,0.03078,-0.0635
23.3,2.7517,0.0379,0.031,-0.064
23.4,2.7591,0.03811,0.03123,-0.0646
23.5,2.7666,0.03832,0.03145,-0.0652
23.6,2.7742,0.03853,0.03168,-0.0659
23.7,2.7818,0.03874,0.03191,-0.0666
23.8,2.7895,0.03896,0.03214,-0.0673
23.9,2.7972,0.03919,0.03238,-0.0682
24,2.805,0.03942,0.03262,-0.069
24.1,2.8127,0.03966,0.03287,-0.0699
24.2,2.8208,0.03986,0.03311,-0.0707
24.3,2.8293,0.04005,0.03337,-0.0717
24.4,2.8376,0.04024,0.03363,-0.0726
24.5,2.8459,0.04045,0.03388,-0.0735
24.6,2.8541,0.04065,0.03414,-0.0745
24.7,2.8625,0.04085,0.0344,-0.0756
24.8,2.8707,0.04107,0.03466,-0.0766
24.9,2.8788,0.04129,0.03493,-0.0777
25,2.8869,0.04153,0.0352,-0.0788
25.1,2.8949,0.04177,0.03548,-0.08
25.2,2.9029,0.04201,0.03576,-0.0812
25.3,2.9109,0.04226,0.03605,-0.0824
25.4,2.9187,0.04252,0.03634,-0.0837
25.5,2.9265,0.04279,0.03664,-0.085
25.6,2.934,0.04307,0.03695,-0.0864
25.7,2.9421,0.04336,0.03728,-0.0879
25.8,2.9496,0.04366,0.03761,-0.0894
25.9,2.957,0.04397,0.03794,-0.0909
26,2.9642,0.04429,0.03829,-0.0924
26.1,2.9713,0.04463,0.03866,-0.0941
26.2,2.9782,0.04498,0.03904,-0.0958
26.3,2.9849,0.04536,0.03943,-0.0975
26.4,2.9915,0.04575,0.03984,-0.0993
26.5,2.9978,0.04615,0.04026,-0.1011
26.6,3.0039,0.04657,0.04069,-0.103
26.7,3.0102,0.047,0.04121,-0.1049
26.8,3.0163,0.04745,0.04175,-0.107
26.9,3.0221,0.04793,0.0423,-0.109
27,3.0275,0.0485,0.04297,-0.1115
27.1,3.0334,0.04905,0.04359,-0.1138
27.2,3.0384,0.04963,0.04424,-0.1162
27.3,3.043,0.05025,0.04493,-0.1186
27.4,3.0472,0.0509,0.04565,-0.1211
27.5,3.051,0.05162,0.04643,-0.1238
27.6,3.0544,0.05238,0.04726,-0.1266
27.7,3.0574,0.05318,0.04813,-0.1295
27.8,3.0598,0.05407,0.04909,-0.1326
27.9,3.0617,0.05502,0.05009,-0.1359
28,3.0632,0.056,0.05115,-0.1392
28.1,3.0639,0.05709,0.0523,-0.1428
28.2,3.0639,0.05825,0.05353,-0.1466
28.3,3.0635,0.05946,0.0548,-0.1505
28.4,3.0626,0.0607,0.05611,-0.1544
28.5,3.061,0.06202,0.05749,-0.1586
28.6,3.0592,0.06334,0.05887,-0.1627
28.7,3.0578,0.06453,0.0601,-0.1665
28.8,3.0568,0.06562,0.06121,-0.1701
28.9,3.0518,0.06749,0.06322,-0.1755
29,3.0445,0.0698,0.06571,-0.1817
29.1,3.0328,0.07295,0.06908,-0.1899
29.2,3.0254,0.07519,0.07147,-0.196
29.3,3.0222,0.07696,0.07336,-0.201
29.4,3.0152,0.07917,0.07567,-0.207
29.5,3.0121,0.08067,0.07724,-0.2113
29.6,3.0064,0.08265,0.07931,-0.2167
29.7,3.0039,0.08408,0.08079,-0.2207
29.8,3.0029,0.08527,0.08201,-0.2241
29.9,3.0005,0.08672,0.0835,-0.228
30,2.9994,0.08796,0.08475,-0.2314

