airfoilName st4.dat
Re 	630000
M 	0
N 	4.500000e+00
VACC 	0 VACCflag 1
XTR 	1.00 	1.00 XTRflag 0
alpha,cl,cd,cdp,cm
-30,-2.6613,0.19541,0.19319,0.2857
-29.9,-2.6606,0.19337,0.19115,0.2848
-29.8,-2.6558,0.19193,0.18972,0.283
-29.7,-2.652,0.19055,0.18835,0.2813
-29.6,-2.6484,0.1891,0.18691,0.2796
-29.5,-2.6451,0.1876,0.18541,0.2778
-29.4,-2.6416,0.186,0.18381,0.2759
-29.3,-2.6386,0.18432,0.18213,0.2739
-29.2,-2.6357,0.18252,0.18033,0.2718
-29.1,-2.6332,0.18043,0.17823,0.2694
-29,-2.632,0.17753,0.17531,0.2661
-28.9,-2.6347,0.17236,0.17008,0.2602
-28.8,-2.6348,0.16883,0.1665,0.2561
-28.7,-2.6369,0.16422,0.16183,0.2508
-28.6,-2.6434,0.1574,0.15487,0.2428
-28.5,-2.6447,0.15351,0.15091,0.2381
-28.4,-2.6514,0.14699,0.14424,0.2302
-28.3,-2.6524,0.14343,0.14059,0.2257
-28.2,-2.6566,0.1384,0.13544,0.2194
-28.1,-2.6579,0.13473,0.13169,0.2147
-28,-2.6541,0.13339,0.13035,0.2129
-27.9,-2.6505,0.13193,0.12891,0.2109
-27.8,-2.6472,0.13035,0.12733,0.2088
-27.7,-2.6441,0.12866,0.12564,0.2065
-27.6,-2.6412,0.12684,0.12381,0.2041
-27.5,-2.6386,0.12483,0.12179,0.2013
-27.4,-2.637,0.12242,0.11936,0.198
-27.3,-2.6369,0.11932,0.11623,0.1937
-27.2,-2.6347,0.11712,0.114,0.1906
-27.1,-2.6326,0.11494,0.11179,0.1875
-27,-2.6306,0.11263,0.10946,0.1841
-26.9,-2.63,0.10976,0.10653,0.1799
-26.8,-2.6299,0.10661,0.10333,0.1751
-26.7,-2.6279,0.10433,0.10102,0.1716
-26.6,-2.6261,0.10196,0.0986,0.1678
-26.5,-2.6267,0.09857,0.09513,0.1624
-26.4,-2.6252,0.09607,0.09258,0.1581
-26.3,-2.6231,0.09375,0.0902,0.1541
-26.2,-2.6229,0.09069,0.08706,0.1486
-26.1,-2.6216,0.08806,0.08436,0.1436
-26,-2.6195,0.08577,0.082,0.1391
-25.9,-2.6204,0.08226,0.07838,0.132
-25.8,-2.6179,0.08012,0.07617,0.1272
-25.7,-2.6175,0.07712,0.07305,0.1202
-25.6,-2.6146,0.07507,0.07092,0.1149
-25.5,-2.6132,0.07226,0.06799,0.1075
-25.4,-2.6102,0.07003,0.06566,0.1013
-25.3,-2.6075,0.06756,0.06307,0.0945
-25.2,-2.6051,0.06484,0.06023,0.0871
-25.1,-2.603,0.06171,0.05699,0.0786
-25,-2.6002,0.05853,0.05369,0.0701
-24.9,-2.5964,0.05542,0.05046,0.0618
-24.8,-2.5914,0.05245,0.04735,0.0537
-24.7,-2.5846,0.05003,0.04483,0.0469
-24.6,-2.5765,0.0479,0.04259,0.0407
-24.5,-2.5672,0.04612,0.04073,0.0353
-24.4,-2.557,0.04466,0.03919,0.0307
-24.3,-2.5462,0.04341,0.03786,0.0265
-24.2,-2.5349,0.04234,0.03673,0.0228
-24.1,-2.5234,0.04141,0.03575,0.0195
-24,-2.5115,0.0406,0.03488,0.0164
-23.9,-2.4996,0.03988,0.03411,0.0137
-23.8,-2.4875,0.03924,0.03343,0.0111
-23.7,-2.4754,0.03866,0.0328,0.0087
-23.6,-2.4632,0.03814,0.03223,0.0065
-23.5,-2.451,0.03765,0.03171,0.0044
-23.4,-2.4388,0.03721,0.03123,0.0024
-23.3,-2.4267,0.03679,0.03077,0.0005
-23.2,-2.4145,0.0364,0.03035,-0.0013
-23.1,-2.4024,0.03603,0.02995,-0.003
-23,-2.3904,0.03569,0.02957,-0.0046
-22.9,-2.3784,0.03536,0.0292,-0.0061
-22.8,-2.3665,0.03506,0.02886,-0.0076
-22.7,-2.3546,0.03476,0.02853,-0.0089
-22.6,-2.3429,0.03448,0.02821,-0.0103
-22.5,-2.3312,0.0342,0.02791,-0.0115
-22.4,-2.3197,0.03394,0.02761,-0.0127
-22.3,-2.3082,0.03369,0.02732,-0.0139
-22.2,-2.2969,0.03344,0.02705,-0.0149
-22.1,-2.2857,0.03321,0.02678,-0.0159
-22,-2.2747,0.03299,0.02652,-0.0169
-21.9,-2.2638,0.03277,0.02627,-0.0177
-21.8,-2.2531,0.03247,0.02595,-0.0189
-21.7,-2.2428,0.03219,0.02564,-0.0199
-21.6,-2.2331,0.03192,0.02535,-0.0207
-21.5,-2.2241,0.03163,0.02507,-0.0215
-21.4,-2.2156,0.03139,0.02481,-0.0219
-21.3,-2.2073,0.03116,0.02455,-0.0223
-21.2,-2.1984,0.03092,0.0243,-0.0226
-21.1,-2.1896,0.03068,0.02404,-0.0229
-21,-2.1808,0.03045,0.02379,-0.0232
-20.9,-2.1718,0.03022,0.02355,-0.0234
-20.8,-2.1628,0.02999,0.0233,-0.0236
-20.7,-2.1537,0.02977,0.02305,-0.0238
-20.6,-2.1446,0.02955,0.02281,-0.024
-20.5,-2.1354,0.02933,0.02258,-0.0242
-20.4,-2.126,0.02911,0.02234,-0.0243
-20.3,-2.1166,0.0289,0.02211,-0.0245
-20.2,-2.1071,0.02868,0.02187,-0.0246
-20.1,-2.0976,0.02847,0.02164,-0.0247
-20,-2.0879,0.02827,0.02142,-0.0248
-19.9,-2.0782,0.02806,0.02119,-0.0249
-19.8,-2.0685,0.02786,0.02097,-0.025
-19.7,-2.0586,0.02766,0.02075,-0.0251
-19.6,-2.0487,0.02746,0.02053,-0.0252
-19.5,-2.0387,0.02727,0.02031,-0.0253
-19.4,-2.0287,0.02708,0.0201,-0.0254
-19.3,-2.0186,0.0269,0.0199,-0.0255
-19.2,-2.0084,0.02672,0.01969,-0.0256
-19.1,-1.9981,0.02654,0.01949,-0.0256
-19,-1.9879,0.02637,0.01929,-0.0257
-18.9,-1.9778,0.02613,0.01905,-0.0258
-18.8,-1.9677,0.02591,0.01882,-0.0259
-18.7,-1.9575,0.02569,0.01859,-0.026
-18.6,-1.9472,0.02548,0.01838,-0.0261
-18.5,-1.9369,0.02526,0.01817,-0.0262
-18.4,-1.9265,0.02507,0.01796,-0.0263
-18.3,-1.916,0.02488,0.01776,-0.0264
-18.2,-1.9054,0.02469,0.01756,-0.0265
-18.1,-1.8948,0.0245,0.01737,-0.0266
-18,-1.8841,0.02432,0.01718,-0.0266
-17.9,-1.8734,0.02414,0.01698,-0.0267
-17.8,-1.8626,0.02396,0.01679,-0.0268
-17.7,-1.8518,0.02379,0.01661,-0.0269
-17.6,-1.8409,0.02361,0.01642,-0.027
-17.5,-1.83,0.02345,0.01624,-0.027
-17.4,-1.8191,0.02328,0.01606,-0.0271
-17.3,-1.8081,0.02311,0.01588,-0.0272
-17.2,-1.797,0.02295,0.0157,-0.0273
-17.1,-1.7859,0.0228,0.01553,-0.0274
-17,-1.7748,0.02264,0.01536,-0.0274
-16.9,-1.7636,0.02249,0.0152,-0.0275
-16.8,-1.7524,0.02235,0.01503,-0.0276
-16.7,-1.7412,0.02219,0.01486,-0.0277
-16.6,-1.7301,0.02199,0.01467,-0.0278
-16.5,-1.719,0.02181,0.01448,-0.0279
-16.4,-1.7077,0.02163,0.0143,-0.028
-16.3,-1.6965,0.02146,0.01412,-0.0281
-16.2,-1.6852,0.02129,0.01395,-0.0282
-16.1,-1.6738,0.02113,0.01379,-0.0283
-16,-1.6624,0.02097,0.01362,-0.0284
-15.9,-1.651,0.02081,0.01346,-0.0285
-15.8,-1.6396,0.02066,0.0133,-0.0286
-15.7,-1.6281,0.02051,0.01315,-0.0287
-15.6,-1.6166,0.02036,0.01299,-0.0288
-15.5,-1.605,0.02021,0.01284,-0.0289
-15.4,-1.5935,0.02008,0.0127,-0.029
-15.3,-1.5819,0.01994,0.01255,-0.0291
-15.2,-1.5702,0.01981,0.01241,-0.0292
-15.1,-1.5586,0.01967,0.01227,-0.0293
-15,-1.5469,0.01955,0.01213,-0.0294
-14.9,-1.5351,0.01943,0.01199,-0.0295
-14.8,-1.5235,0.01926,0.01182,-0.0297
-14.7,-1.5118,0.01909,0.01166,-0.0298
-14.6,-1.5001,0.01894,0.01151,-0.0299
-14.5,-1.4883,0.01879,0.01136,-0.03
-14.4,-1.4765,0.01864,0.01122,-0.0302
-14.3,-1.4647,0.0185,0.01108,-0.0303
-14.2,-1.4529,0.01836,0.01094,-0.0304
-14.1,-1.4411,0.01823,0.01081,-0.0305
-14,-1.4292,0.0181,0.01067,-0.0307
-13.9,-1.4173,0.01797,0.01054,-0.0308
-13.8,-1.4054,0.01784,0.01041,-0.0309
-13.7,-1.3934,0.01772,0.01028,-0.031
-13.6,-1.3815,0.0176,0.01015,-0.0311
-13.5,-1.3695,0.01748,0.01003,-0.0313
-13.4,-1.3575,0.01736,0.00991,-0.0314
-13.3,-1.3455,0.01724,0.00978,-0.0315
-13.2,-1.3335,0.01709,0.00965,-0.0316
-13.1,-1.3215,0.01696,0.00952,-0.0318
-13,-1.3095,0.01682,0.00939,-0.0319
-12.9,-1.2974,0.01669,0.00927,-0.0321
-12.8,-1.2853,0.01657,0.00914,-0.0322
-12.7,-1.2732,0.01645,0.00902,-0.0323
-12.6,-1.2611,0.01633,0.00891,-0.0325
-12.5,-1.249,0.01621,0.00879,-0.0326
-12.4,-1.2369,0.0161,0.00868,-0.0327
-12.3,-1.2247,0.01599,0.00857,-0.0329
-12.2,-1.2125,0.01588,0.00846,-0.033
-12.1,-1.2003,0.01578,0.00835,-0.0331
-12,-1.1881,0.01568,0.00824,-0.0333
-11.9,-1.1759,0.01555,0.00812,-0.0334
-11.8,-1.1637,0.01542,0.008,-0.0336
-11.7,-1.1515,0.01528,0.00789,-0.0337
-11.6,-1.1393,0.01517,0.00778,-0.0339
-11.5,-1.1271,0.01506,0.00768,-0.034
-11.4,-1.1148,0.01495,0.00758,-0.0342
-11.3,-1.1025,0.01485,0.00747,-0.0343
-11.2,-1.0902,0.01474,0.00738,-0.0345
-11.1,-1.0779,0.01465,0.00728,-0.0346
-11,-1.0656,0.01455,0.00718,-0.0348
-10.9,-1.0533,0.01446,0.00708,-0.0349
-10.8,-1.041,0.01434,0.00697,-0.0351
-10.7,-1.0286,0.01422,0.00687,-0.0352
-10.6,-1.0163,0.01411,0.00677,-0.0354
-10.5,-1.0039,0.01399,0.00668,-0.0355
-10.4,-0.9916,0.01389,0.00658,-0.0357
-10.3,-0.9792,0.01379,0.00649,-0.0358
-10.2,-0.9668,0.0137,0.0064,-0.036
-10.1,-0.9544,0.01361,0.00631,-0.0361
-10,-0.942,0.01352,0.00623,-0.0363
-9.9,-0.9296,0.01342,0.00613,-0.0365
-9.8,-0.9172,0.01331,0.00604,-0.0366
-9.7,-0.9048,0.0132,0.00595,-0.0368
-9.6,-0.8923,0.0131,0.00586,-0.0369
-9.5,-0.8799,0.01301,0.00578,-0.0371
-9.4,-0.8674,0.01291,0.00569,-0.0373
-9.3,-0.855,0.01283,0.00561,-0.0374
-9.2,-0.8425,0.01274,0.00553,-0.0376
-9.1,-0.8301,0.01265,0.00545,-0.0377
-9,-0.8176,0.01255,0.00536,-0.0379
-8.9,-0.8051,0.01244,0.00528,-0.0381
-8.8,-0.7926,0.01235,0.0052,-0.0383
-8.7,-0.7801,0.01226,0.00513,-0.0384
-8.6,-0.7676,0.01217,0.00505,-0.0386
-8.5,-0.7551,0.01209,0.00498,-0.0387
-8.4,-0.7426,0.01201,0.0049,-0.0389
-8.3,-0.7301,0.01194,0.00482,-0.0391
-8.2,-0.7175,0.01183,0.00475,-0.0392
-8.1,-0.705,0.01174,0.00467,-0.0394
-8,-0.6918,0.01166,0.00462,-0.0397
-7.9,-0.6781,0.0116,0.00457,-0.0402
-7.8,-0.6641,0.01155,0.00453,-0.0406
-7.7,-0.6504,0.01152,0.00449,-0.041
-7.6,-0.6376,0.01148,0.00445,-0.0412
-7.5,-0.6257,0.01146,0.00441,-0.0411
-7.4,-0.6161,0.01155,0.00441,-0.0405
-7.3,-0.6045,0.01154,0.00436,-0.0404
-7.1,-0.5808,0.01151,0.00426,-0.0404
-7,-0.5687,0.01148,0.00421,-0.0405
-6.9,-0.5565,0.01145,0.00415,-0.0406
-6.8,-0.5443,0.01141,0.0041,-0.0407
-6.7,-0.532,0.01139,0.00405,-0.0408
-6.6,-0.5196,0.01136,0.00401,-0.0409
-6.5,-0.5072,0.01133,0.00396,-0.041
-6.4,-0.4949,0.0113,0.0039,-0.0411
-6.3,-0.4826,0.01126,0.00386,-0.0412
-6.2,-0.4702,0.01123,0.00382,-0.0414
-6.1,-0.4577,0.01119,0.00378,-0.0415
-6,-0.4451,0.01116,0.00373,-0.0417
-5.9,-0.4326,0.01111,0.00368,-0.0418
-5.8,-0.4201,0.01107,0.00364,-0.042
-5.7,-0.4078,0.01106,0.0036,-0.0421
-5.6,-0.3952,0.01102,0.00356,-0.0423
-5.5,-0.3828,0.01101,0.00352,-0.0424
-5.4,-0.3702,0.01096,0.00348,-0.0426
-5.3,-0.3576,0.01091,0.00344,-0.0428
-5.2,-0.3452,0.01091,0.00341,-0.043
-5.1,-0.3327,0.01089,0.00338,-0.0431
-5,-0.3201,0.01086,0.00334,-0.0433
-4.9,-0.3075,0.01081,0.0033,-0.0435
-4.8,-0.2949,0.01074,0.00327,-0.0437
-4.7,-0.2823,0.01073,0.00324,-0.0438
-4.6,-0.2699,0.01074,0.00321,-0.044
-4.5,-0.2572,0.01068,0.00318,-0.0442
-4.4,-0.2446,0.01064,0.00314,-0.0444
-4.3,-0.232,0.0106,0.00311,-0.0445
-4.2,-0.2193,0.01057,0.00309,-0.0447
-4.1,-0.2067,0.01051,0.00305,-0.0449
-4,-0.1941,0.01048,0.00302,-0.0451
-3.9,-0.1815,0.01047,0.003,-0.0453
-3.8,-0.1689,0.01044,0.00297,-0.0455
-3.7,-0.1563,0.01042,0.00295,-0.0456
-3.6,-0.1437,0.01039,0.00293,-0.0458
-3.5,-0.131,0.01034,0.0029,-0.046
-3.4,-0.1184,0.0103,0.00287,-0.0462
-3.3,-0.1057,0.01026,0.00285,-0.0464
-3.2,-0.0931,0.01024,0.00283,-0.0466
-3.1,-0.0806,0.01025,0.00282,-0.0468
-3,-0.0679,0.01022,0.00279,-0.047
-2.9,-0.0552,0.01017,0.00277,-0.0472
-2.8,-0.0426,0.01016,0.00276,-0.0473
-2.7,-0.0301,0.01015,0.00274,-0.0475
-2.6,-0.0174,0.01012,0.00272,-0.0477
-2.5,-0.0048,0.0101,0.00271,-0.0479
-2.4,0.0077,0.01012,0.0027,-0.0481
-2.3,0.0204,0.01006,0.00268,-0.0483
-2.2,0.033,0.01005,0.00267,-0.0485
-2.1,0.0455,0.01008,0.00266,-0.0487
-2,0.0581,0.01006,0.00265,-0.0489
-1.9,0.0707,0.01004,0.00264,-0.0491
-1.8,0.0833,0.01002,0.00262,-0.0493
-1.7,0.096,0.01001,0.00262,-0.0495
-1.6,0.1086,0.01,0.00262,-0.0497
-1.5,0.1212,0.01,0.00261,-0.0498
-1.4,0.1337,0.01002,0.00261,-0.05
-1.3,0.1462,0.01004,0.00261,-0.0502
-1.2,0.1587,0.01003,0.00261,-0.0504
-1.1,0.1712,0.01007,0.00262,-0.0506
-1,0.1836,0.0101,0.00263,-0.0508
-0.9,0.1961,0.01013,0.00263,-0.051
-0.8,0.2087,0.01014,0.00264,-0.0512
-0.7,0.2212,0.01014,0.00264,-0.0514
-0.6,0.2337,0.01016,0.00265,-0.0516
-0.5,0.2462,0.01019,0.00266,-0.0518
-0.4,0.2587,0.01023,0.00268,-0.052
-0.3,0.2711,0.01027,0.00269,-0.0522
-0.2,0.2836,0.01029,0.00271,-0.0524
0,0.3083,0.01041,0.00275,-0.0528
0.1,0.3203,0.01058,0.00281,-0.053
0.2,0.3326,0.01069,0.00285,-0.0532
0.3,0.3448,0.01079,0.00289,-0.0534
0.4,0.357,0.01089,0.00293,-0.0536
0.5,0.3693,0.01098,0.00297,-0.0539
0.6,0.3817,0.01106,0.00301,-0.0541
0.7,0.394,0.01113,0.00304,-0.0542
0.8,0.4064,0.01119,0.00308,-0.0544
0.9,0.4189,0.0112,0.0031,-0.0547
1,0.4314,0.01123,0.00313,-0.0549
1.1,0.4439,0.01127,0.00316,-0.0551
1.2,0.4562,0.01135,0.00321,-0.0553
1.3,0.4687,0.01137,0.00323,-0.0554
1.4,0.4812,0.01137,0.00325,-0.0557
1.5,0.4937,0.0114,0.00328,-0.0558
1.6,0.5062,0.01143,0.00331,-0.056
1.7,0.5186,0.01147,0.00334,-0.0562
1.8,0.531,0.01152,0.00337,-0.0564
1.9,0.5435,0.01152,0.00341,-0.0566
2,0.556,0.01155,0.00344,-0.0568
2.1,0.5685,0.01157,0.00347,-0.057
2.2,0.5809,0.0116,0.0035,-0.0572
2.3,0.5934,0.0116,0.00353,-0.0574
2.4,0.6058,0.01163,0.00357,-0.0576
2.5,0.6181,0.0117,0.00361,-0.0577
2.6,0.6305,0.01174,0.00365,-0.0579
2.7,0.6429,0.01177,0.00369,-0.0581
2.8,0.6554,0.0118,0.00372,-0.0583
2.9,0.6678,0.0118,0.00376,-0.0585
3,0.6802,0.01182,0.0038,-0.0586
3.1,0.6926,0.01186,0.00384,-0.0588
3.2,0.705,0.01189,0.00388,-0.059
3.3,0.7173,0.01193,0.00392,-0.0591
3.4,0.7296,0.01195,0.00396,-0.0593
3.5,0.7419,0.012,0.00401,-0.0595
3.6,0.7542,0.01206,0.00406,-0.0596
3.7,0.7665,0.0121,0.00411,-0.0598
3.8,0.7788,0.01214,0.00415,-0.0599
3.9,0.791,0.01215,0.0042,-0.0601
4,0.8033,0.01219,0.00424,-0.0602
4.1,0.8156,0.01224,0.00429,-0.0604
4.2,0.8279,0.01229,0.00434,-0.0605
4.3,0.8401,0.01234,0.00439,-0.0606
4.4,0.8522,0.01237,0.00443,-0.0608
4.5,0.8644,0.01243,0.00449,-0.0609
4.6,0.8766,0.01249,0.00454,-0.061
4.7,0.8887,0.01256,0.00459,-0.0612
4.8,0.9008,0.01259,0.00466,-0.0613
4.9,0.913,0.01263,0.00471,-0.0614
5,0.9252,0.01268,0.00476,-0.0615
5.1,0.9373,0.01272,0.00481,-0.0617
5.2,0.9494,0.01278,0.00486,-0.0618
5.3,0.9614,0.01281,0.00491,-0.0619
5.4,0.9734,0.01287,0.00497,-0.062
5.5,0.9854,0.01293,0.00503,-0.0621
5.6,0.9975,0.01299,0.00508,-0.0622
5.7,1.0091,0.01303,0.00514,-0.0622
5.8,1.0211,0.0131,0.0052,-0.0623
5.9,1.033,0.01318,0.00526,-0.0624
6,1.045,0.01324,0.00533,-0.0625
6.1,1.0569,0.01328,0.00539,-0.0626
6.2,1.0688,0.01333,0.00544,-0.0627
6.3,1.0802,0.01336,0.0055,-0.0626
6.4,1.092,0.01341,0.00556,-0.0627
6.5,1.1038,0.01347,0.00562,-0.0627
6.6,1.1156,0.01353,0.00567,-0.0628
6.7,1.1271,0.01359,0.00573,-0.0628
6.8,1.1378,0.01362,0.00578,-0.0626
6.9,1.1492,0.01368,0.00584,-0.0626
7,1.1607,0.01374,0.00589,-0.0626
7.1,1.1719,0.01381,0.00595,-0.0625
7.2,1.183,0.01387,0.00601,-0.0625
7.3,1.1923,0.01388,0.00603,-0.0619
7.4,1.2034,0.01391,0.00608,-0.0618
7.5,1.2149,0.01395,0.00612,-0.0618
7.6,1.2276,0.01398,0.00615,-0.0621
7.7,1.2397,0.01405,0.00622,-0.0622
7.8,1.2518,0.01413,0.00629,-0.0624
7.9,1.2638,0.01421,0.00636,-0.0625
8,1.2759,0.01429,0.00644,-0.0627
8.1,1.2879,0.01438,0.00651,-0.0628
8.2,1.2998,0.01447,0.00658,-0.063
8.3,1.3118,0.01456,0.00666,-0.0631
8.4,1.3238,0.01466,0.00674,-0.0633
8.5,1.3357,0.01476,0.00682,-0.0634
8.6,1.3476,0.01486,0.0069,-0.0636
8.7,1.3595,0.01496,0.00699,-0.0637
8.8,1.3714,0.01505,0.00708,-0.0639
8.9,1.3834,0.01513,0.00716,-0.064
9,1.3953,0.01521,0.00724,-0.0641
9.1,1.4073,0.01529,0.00732,-0.0643
9.2,1.4192,0.01537,0.0074,-0.0644
9.3,1.4311,0.01546,0.00748,-0.0646
9.4,1.443,0.01554,0.00757,-0.0647
9.5,1.4548,0.01563,0.00765,-0.0648
9.6,1.4667,0.01573,0.00774,-0.065
9.7,1.4785,0.01582,0.00782,-0.0651
9.8,1.4903,0.01592,0.00791,-0.0653
9.9,1.502,0.01603,0.008,-0.0654
10,1.5137,0.01613,0.00809,-0.0655
10.1,1.5254,0.01624,0.00818,-0.0656
10.2,1.537,0.01635,0.00828,-0.0658
10.3,1.5487,0.01647,0.00838,-0.0659
10.4,1.5604,0.01655,0.00847,-0.066
10.5,1.5722,0.01664,0.00856,-0.0662
10.6,1.584,0.01672,0.00866,-0.0663
10.7,1.5957,0.01681,0.00875,-0.0664
10.8,1.6074,0.0169,0.00884,-0.0665
10.9,1.6191,0.017,0.00894,-0.0667
11,1.6307,0.0171,0.00903,-0.0668
11.1,1.6423,0.01719,0.00913,-0.0669
11.2,1.6539,0.0173,0.00922,-0.067
11.3,1.6655,0.0174,0.00932,-0.0672
11.4,1.6771,0.0175,0.00943,-0.0673
11.5,1.6886,0.01761,0.00953,-0.0674
11.6,1.7001,0.01772,0.00963,-0.0675
11.7,1.7113,0.01784,0.00973,-0.0676
11.8,1.7228,0.01797,0.00984,-0.0677
11.9,1.7342,0.01809,0.00995,-0.0678
12,1.7455,0.01822,0.01007,-0.0679
12.1,1.7571,0.0183,0.01017,-0.068
12.2,1.7686,0.0184,0.01027,-0.0682
12.3,1.78,0.01849,0.01038,-0.0683
12.4,1.7915,0.01859,0.01048,-0.0684
12.5,1.8029,0.01869,0.01059,-0.0685
12.6,1.8143,0.01879,0.01069,-0.0686
12.7,1.8256,0.0189,0.0108,-0.0687
12.8,1.837,0.01901,0.01091,-0.0688
12.9,1.8483,0.01912,0.01102,-0.0689
13,1.8595,0.01923,0.01113,-0.069
13.1,1.8707,0.01935,0.01125,-0.0691
13.2,1.8819,0.01946,0.01136,-0.0692
13.3,1.893,0.01959,0.01147,-0.0692
13.4,1.904,0.01971,0.01159,-0.0693
13.5,1.9151,0.01984,0.01171,-0.0694
13.6,1.9261,0.01998,0.01184,-0.0695
13.7,1.9371,0.02012,0.01197,-0.0696
13.8,1.948,0.02026,0.0121,-0.0697
13.9,1.9592,0.02035,0.01221,-0.0697
14,1.9704,0.02045,0.01233,-0.0698
14.1,1.9815,0.02055,0.01245,-0.0699
14.2,1.9926,0.02066,0.01257,-0.07
14.3,2.0036,0.02077,0.01269,-0.07
14.4,2.0146,0.02089,0.01281,-0.0701
14.5,2.0255,0.021,0.01294,-0.0702
14.6,2.0365,0.02112,0.01306,-0.0703
14.7,2.0474,0.02124,0.01318,-0.0703
14.8,2.0582,0.02136,0.01331,-0.0704
14.9,2.069,0.02149,0.01344,-0.0704
15,2.0798,0.02162,0.01357,-0.0705
15.1,2.0905,0.02174,0.0137,-0.0706
15.2,2.1011,0.02187,0.01383,-0.0706
15.3,2.1118,0.02201,0.01397,-0.0706
15.4,2.1221,0.02216,0.0141,-0.0707
15.5,2.1326,0.02231,0.01424,-0.0707
15.6,2.1431,0.02246,0.01439,-0.0708
15.7,2.1534,0.02262,0.01454,-0.0708
15.8,2.164,0.02275,0.01468,-0.0708
15.9,2.1747,0.02285,0.01481,-0.0709
16,2.1853,0.02297,0.01494,-0.0709
16.1,2.1958,0.02308,0.01508,-0.0709
16.2,2.2063,0.0232,0.01521,-0.071
16.3,2.2168,0.02333,0.01536,-0.071
16.4,2.2272,0.02346,0.0155,-0.071
16.5,2.2375,0.02358,0.01564,-0.071
16.6,2.2478,0.02372,0.01578,-0.0711
16.7,2.2581,0.02385,0.01592,-0.0711
16.8,2.2683,0.02399,0.01607,-0.0711
16.9,2.2785,0.02413,0.01621,-0.0711
17,2.2885,0.02426,0.01636,-0.0711
17.1,2.2986,0.02441,0.01651,-0.0711
17.2,2.3084,0.02456,0.01665,-0.0711
17.3,2.3183,0.02471,0.01681,-0.071
17.4,2.3281,0.02487,0.01696,-0.071
17.5,2.3378,0.02503,0.01713,-0.071
17.6,2.3475,0.02519,0.01729,-0.071
17.7,2.3571,0.02536,0.01746,-0.071
17.8,2.3666,0.02554,0.01764,-0.0709
17.9,2.3763,0.02568,0.0178,-0.0709
18,2.3862,0.0258,0.01795,-0.0709
18.1,2.396,0.02593,0.0181,-0.0708
18.2,2.4058,0.02606,0.01825,-0.0708
18.3,2.4154,0.0262,0.01841,-0.0707
18.4,2.425,0.02634,0.01857,-0.0707
18.5,2.4345,0.02648,0.01873,-0.0706
18.6,2.4439,0.02662,0.01889,-0.0706
18.7,2.4534,0.02677,0.01906,-0.0705
18.8,2.4627,0.02692,0.01922,-0.0705
18.9,2.4719,0.02707,0.01939,-0.0704
19,2.4811,0.02722,0.01956,-0.0703
19.1,2.4902,0.02738,0.01973,-0.0702
19.2,2.4992,0.02754,0.0199,-0.0701
19.3,2.5081,0.0277,0.02007,-0.07
19.4,2.5169,0.02787,0.02024,-0.0699
19.6,2.5338,0.02821,0.0206,-0.0697
19.7,2.5422,0.02839,0.02078,-0.0695
19.8,2.5505,0.02857,0.02097,-0.0694
19.9,2.5588,0.02876,0.02116,-0.0693
20,2.5669,0.02896,0.02136,-0.0691
20.1,2.5748,0.02916,0.02157,-0.069
20.2,2.583,0.02932,0.02176,-0.0688
20.3,2.5915,0.02946,0.02193,-0.0687
20.4,2.5999,0.0296,0.02211,-0.0685
20.5,2.6082,0.02975,0.02228,-0.0684
20.6,2.6162,0.02991,0.02247,-0.0682
20.7,2.6242,0.03007,0.02265,-0.068
20.8,2.632,0.03023,0.02284,-0.0678
20.9,2.6397,0.03039,0.02302,-0.0676
21,2.6472,0.03055,0.02321,-0.0674
21.1,2.6545,0.03072,0.0234,-0.0672
21.2,2.6617,0.03089,0.02359,-0.0669
21.3,2.6688,0.03106,0.02379,-0.0667
21.4,2.6757,0.03123,0.02398,-0.0664
21.5,2.682,0.03141,0.02417,-0.0661
21.6,2.6884,0.03159,0.02437,-0.0658
21.7,2.6947,0.03177,0.02457,-0.0655
21.8,2.7007,0.03195,0.02477,-0.0652
21.9,2.7065,0.03214,0.02498,-0.0649
22,2.7122,0.03234,0.02519,-0.0645
22.1,2.7177,0.03253,0.0254,-0.0642
22.2,2.7226,0.03273,0.02561,-0.0638
22.3,2.7261,0.03293,0.02583,-0.0632
22.4,2.7295,0.03314,0.02606,-0.0627
22.5,2.7334,0.03337,0.0263,-0.0622
22.6,2.7377,0.0336,0.02655,-0.0619
22.7,2.7423,0.03383,0.0268,-0.0617
22.8,2.7482,0.03403,0.02704,-0.0617
22.9,2.7546,0.0342,0.02725,-0.0617
23,2.7611,0.03437,0.02746,-0.0617
23.1,2.7677,0.03454,0.02767,-0.0618
23.2,2.7745,0.03472,0.02788,-0.062
23.3,2.7814,0.0349,0.0281,-0.0622
23.4,2.7883,0.03508,0.02832,-0.0624
23.5,2.7954,0.03527,0.02853,-0.0627
23.6,2.8026,0.03546,0.02875,-0.0631
23.7,2.8099,0.03564,0.02897,-0.0635
23.8,2.8173,0.03583,0.02919,-0.0639
23.9,2.8248,0.03603,0.02941,-0.0644
24,2.8323,0.03622,0.02963,-0.0649
24.1,2.8398,0.03641,0.02984,-0.0655
24.2,2.8477,0.03661,0.03007,-0.0662
24.3,2.8555,0.03681,0.03029,-0.0669
24.4,2.8633,0.03702,0.03052,-0.0676
24.5,2.8711,0.03723,0.03075,-0.0684
24.6,2.879,0.03744,0.03099,-0.0692
24.7,2.8869,0.03766,0.03123,-0.0701
24.8,2.8948,0.03789,0.03147,-0.071
24.9,2.9027,0.03812,0.03172,-0.072
25,2.9106,0.03836,0.03198,-0.073
25.1,2.9185,0.03861,0.03224,-0.0741
25.2,2.9263,0.03887,0.03252,-0.0752
25.3,2.9341,0.03914,0.0328,-0.0764
25.4,2.9424,0.03933,0.03305,-0.0773
25.5,2.951,0.03953,0.03331,-0.0783
25.6,2.9592,0.03974,0.03356,-0.0793
25.7,2.9674,0.03996,0.03382,-0.0804
25.8,2.9755,0.04019,0.03409,-0.0815
25.9,2.9835,0.04043,0.03437,-0.0826
26,2.9914,0.04068,0.03466,-0.0838
26.1,2.9992,0.04094,0.03495,-0.085
26.2,3.0069,0.04121,0.03526,-0.0863
26.3,3.0146,0.04149,0.03558,-0.0876
26.4,3.0221,0.04179,0.03591,-0.0891
26.5,3.0295,0.0421,0.03626,-0.0905
26.6,3.0367,0.04242,0.03662,-0.092
26.7,3.0438,0.04276,0.03699,-0.0936
26.8,3.0505,0.04312,0.03738,-0.0952
26.9,3.0579,0.04351,0.03781,-0.097
27,3.0644,0.04392,0.03825,-0.0988
27.1,3.0707,0.04435,0.03873,-0.1007
27.2,3.0768,0.04482,0.03922,-0.1027
27.3,3.0825,0.04532,0.03976,-0.1048
27.4,3.0879,0.04586,0.04034,-0.107
27.5,3.093,0.04645,0.04096,-0.1094
27.6,3.0975,0.04709,0.04165,-0.1119
27.7,3.1017,0.04779,0.04238,-0.1145
27.8,3.1053,0.04853,0.04316,-0.1173
27.9,3.1098,0.04917,0.04387,-0.1196
28,3.1139,0.04983,0.04461,-0.1219
28.1,3.1176,0.05055,0.0454,-0.1244
28.2,3.1206,0.05135,0.04627,-0.1271
28.3,3.1231,0.05218,0.04718,-0.1299
28.4,3.1259,0.05314,0.04823,-0.1331
28.5,3.1271,0.05419,0.04936,-0.1364
28.6,3.1277,0.05531,0.05056,-0.1399
28.8,3.1248,0.05812,0.05355,-0.1483
28.9,3.1196,0.06011,0.05564,-0.1539
29,3.115,0.06194,0.05758,-0.1591
29.1,3.1087,0.06403,0.05977,-0.1648
29.2,3.1008,0.06637,0.06223,-0.171
29.3,3.092,0.06884,0.06481,-0.1775
29.4,3.0831,0.07129,0.06736,-0.184
29.5,3.0769,0.07323,0.06937,-0.1894
29.6,3.0689,0.07543,0.07164,-0.1956
29.7,3.0645,0.07709,0.07338,-0.2003
29.8,3.0578,0.07922,0.07566,-0.2059
29.9,3.0546,0.08073,0.07725,-0.2101
30,3.0468,0.08305,0.07969,-0.2161

