airfoilName st4.dat
Re 	650000
M 	0
N 	4.500000e+00
VACC 	0 VACCflag 1
XTR 	1.00 	1.00 XTRflag 0
alpha,cl,cd,cdp,cm
-30,-2.667,0.19258,0.19035,0.2841
-29.9,-2.6629,0.19121,0.18898,0.2824
-29.8,-2.6591,0.18981,0.18759,0.2807
-29.7,-2.6557,0.18839,0.18618,0.279
-29.6,-2.6524,0.18688,0.18467,0.2772
-29.5,-2.6492,0.18528,0.18308,0.2753
-29.4,-2.6462,0.18357,0.18137,0.2733
-29.3,-2.6433,0.18164,0.17943,0.271
-29.2,-2.6411,0.1794,0.17718,0.2684
-29.1,-2.6414,0.17571,0.17346,0.2642
-29,-2.6404,0.1728,0.17052,0.2608
-28.9,-2.6396,0.16978,0.16747,0.2573
-28.8,-2.6396,0.16637,0.16403,0.2533
-28.7,-2.6454,0.15988,0.15742,0.2457
-28.6,-2.6458,0.15639,0.15387,0.2416
-28.5,-2.6464,0.15288,0.1503,0.2373
-28.4,-2.6518,0.14702,0.1443,0.2301
-28.3,-2.6521,0.14379,0.14101,0.2261
-28.2,-2.6525,0.14048,0.13763,0.2219
-28.1,-2.6576,0.1351,0.1321,0.2151
-28,-2.6571,0.13228,0.12923,0.2114
-27.9,-2.6533,0.13091,0.12787,0.2096
-27.8,-2.6498,0.1294,0.12636,0.2075
-27.7,-2.6466,0.12776,0.12472,0.2053
-27.6,-2.6436,0.12596,0.12292,0.2028
-27.5,-2.6412,0.12393,0.12088,0.2
-27.4,-2.6402,0.1212,0.11813,0.1963
-27.3,-2.6391,0.11856,0.11546,0.1926
-27.2,-2.6369,0.1164,0.11327,0.1895
-27.1,-2.6347,0.11423,0.11108,0.1863
-27,-2.6329,0.11188,0.1087,0.1829
-26.9,-2.6334,0.10852,0.10528,0.1779
-26.8,-2.6321,0.1059,0.10262,0.1739
-26.7,-2.6301,0.10363,0.10031,0.1703
-26.6,-2.6286,0.10117,0.09781,0.1664
-26.5,-2.6296,0.0976,0.09416,0.1606
-26.4,-2.6276,0.09534,0.09185,0.1567
-26.3,-2.6258,0.09294,0.0894,0.1524
-26.1,-2.6243,0.08723,0.08353,0.1417
-26,-2.623,0.08464,0.08087,0.1365
-25.9,-2.6232,0.0814,0.07752,0.1298
-25.8,-2.6215,0.07897,0.075,0.1241
-25.7,-2.6206,0.07617,0.0721,0.1173
-25.6,-2.619,0.07352,0.06935,0.1104
-25.5,-2.6165,0.07112,0.06684,0.1039
-25.4,-2.6147,0.06831,0.0639,0.0962
-25.3,-2.6122,0.06567,0.06115,0.0891
-25.2,-2.6087,0.06335,0.05871,0.0828
-25.1,-2.6053,0.06077,0.05601,0.076
-25,-2.6028,0.05727,0.05238,0.0667
-24.9,-2.5988,0.05408,0.04906,0.0582
-24.8,-2.5932,0.05124,0.0461,0.0504
-24.7,-2.5859,0.04879,0.04353,0.0434
-24.6,-2.5772,0.0468,0.04145,0.0375
-24.5,-2.5674,0.04512,0.03968,0.0323
-24.4,-2.5568,0.04375,0.03823,0.0278
-24.3,-2.5457,0.04259,0.03701,0.0239
-24.2,-2.5342,0.04159,0.03595,0.0204
-24.1,-2.5225,0.04073,0.03504,0.0172
-24,-2.5105,0.03997,0.03422,0.0142
-23.9,-2.4984,0.0393,0.03351,0.0116
-23.8,-2.4863,0.0387,0.03286,0.0091
-23.7,-2.4741,0.03815,0.03227,0.0068
-23.6,-2.4619,0.03765,0.03174,0.0047
-23.5,-2.4497,0.0372,0.03124,0.0027
-23.4,-2.4376,0.03677,0.03078,0.0008
-23.3,-2.4254,0.03637,0.03035,-0.0011
-23.2,-2.4133,0.036,0.02994,-0.0028
-23.1,-2.4013,0.03565,0.02956,-0.0044
-23,-2.3893,0.03532,0.0292,-0.006
-22.9,-2.3773,0.035,0.02884,-0.0075
-22.8,-2.3655,0.0347,0.02851,-0.0089
-22.7,-2.3537,0.03441,0.02819,-0.0102
-22.6,-2.3421,0.03414,0.02788,-0.0115
-22.5,-2.3305,0.03387,0.02758,-0.0127
-22.4,-2.319,0.03361,0.02729,-0.0139
-22.3,-2.3077,0.03336,0.02701,-0.015
-22.2,-2.2965,0.03312,0.02673,-0.016
-22.1,-2.2855,0.03289,0.02647,-0.017
-22,-2.2746,0.03266,0.02621,-0.0179
-21.9,-2.2639,0.03244,0.02596,-0.0187
-21.8,-2.2535,0.03223,0.02571,-0.0195
-21.7,-2.2434,0.03197,0.02543,-0.0203
-21.6,-2.234,0.0317,0.02513,-0.0211
-21.5,-2.2252,0.03143,0.02485,-0.0218
-21.4,-2.2173,0.03116,0.02458,-0.0222
-21.3,-2.2087,0.03092,0.02432,-0.0226
-21.2,-2.1999,0.03067,0.02406,-0.0229
-21.1,-2.1911,0.03044,0.0238,-0.0232
-21,-2.1823,0.03021,0.02355,-0.0234
-20.9,-2.1734,0.02997,0.02331,-0.0236
-20.8,-2.1644,0.02975,0.02306,-0.0238
-20.7,-2.1553,0.02952,0.02282,-0.024
-20.6,-2.1461,0.0293,0.02258,-0.0242
-20.5,-2.1369,0.02908,0.02234,-0.0243
-20.4,-2.1275,0.02887,0.02211,-0.0245
-20.3,-2.1181,0.02865,0.02187,-0.0246
-20.2,-2.1086,0.02844,0.02164,-0.0247
-20.1,-2.099,0.02823,0.02142,-0.0249
-20,-2.0893,0.02802,0.02119,-0.025
-19.9,-2.0796,0.02782,0.02097,-0.0251
-19.8,-2.0698,0.02762,0.02075,-0.0252
-19.7,-2.0599,0.02742,0.02053,-0.0253
-19.6,-2.05,0.02722,0.02031,-0.0253
-19.5,-2.04,0.02703,0.0201,-0.0254
-19.4,-2.0299,0.02684,0.01989,-0.0255
-19.3,-2.0198,0.02665,0.01968,-0.0256
-19.2,-2.0096,0.02647,0.01948,-0.0257
-19.1,-1.9994,0.02629,0.01928,-0.0257
-19,-1.989,0.02612,0.01908,-0.0258
-18.9,-1.9786,0.02596,0.01889,-0.0258
-18.8,-1.9685,0.02573,0.01866,-0.0259
-18.7,-1.9583,0.02551,0.01843,-0.026
-18.6,-1.948,0.02529,0.01821,-0.0261
-18.5,-1.9376,0.02509,0.01799,-0.0262
-18.4,-1.9273,0.02487,0.01779,-0.0263
-18.3,-1.9168,0.02468,0.01759,-0.0264
-18.2,-1.9062,0.02449,0.01739,-0.0265
-18.1,-1.8956,0.02431,0.0172,-0.0266
-18,-1.8849,0.02412,0.017,-0.0267
-17.9,-1.8741,0.02394,0.01681,-0.0268
-17.8,-1.8634,0.02377,0.01663,-0.0268
-17.7,-1.8525,0.02359,0.01644,-0.0269
-17.6,-1.8416,0.02342,0.01626,-0.027
-17.5,-1.8307,0.02325,0.01607,-0.0271
-17.4,-1.8197,0.02309,0.0159,-0.0272
-17.3,-1.8087,0.02292,0.01572,-0.0272
-17.2,-1.7977,0.02276,0.01555,-0.0273
-17.1,-1.7866,0.0226,0.01537,-0.0274
-17,-1.7754,0.02245,0.01521,-0.0275
-16.9,-1.7643,0.0223,0.01504,-0.0276
-16.8,-1.753,0.02215,0.01488,-0.0276
-16.7,-1.7418,0.02201,0.01472,-0.0277
-16.6,-1.7306,0.02185,0.01455,-0.0278
-16.5,-1.7194,0.02166,0.01435,-0.0279
-16.4,-1.7082,0.02148,0.01417,-0.028
-16.3,-1.6969,0.02131,0.014,-0.0281
-16.2,-1.6856,0.02114,0.01383,-0.0282
-16.1,-1.6742,0.02097,0.01366,-0.0283
-16,-1.6628,0.02081,0.0135,-0.0284
-15.9,-1.6514,0.02065,0.01334,-0.0285
-15.8,-1.64,0.0205,0.01318,-0.0286
-15.7,-1.6285,0.02035,0.01302,-0.0287
-15.6,-1.6169,0.0202,0.01287,-0.0288
-15.5,-1.6054,0.02006,0.01272,-0.029
-15.4,-1.5938,0.01992,0.01258,-0.0291
-15.3,-1.5822,0.01978,0.01243,-0.0292
-15.2,-1.5706,0.01965,0.01229,-0.0293
-15.1,-1.5589,0.01951,0.01215,-0.0294
-15,-1.5472,0.01938,0.01201,-0.0295
-14.9,-1.5355,0.01926,0.01187,-0.0296
-14.8,-1.5237,0.01913,0.01173,-0.0297
-14.7,-1.512,0.01897,0.01157,-0.0298
-14.6,-1.5003,0.01881,0.01141,-0.0299
-14.5,-1.4885,0.01866,0.01126,-0.0301
-14.4,-1.4768,0.01851,0.01112,-0.0302
-14.3,-1.465,0.01837,0.01098,-0.0303
-14.2,-1.4531,0.01823,0.01084,-0.0304
-14.1,-1.4413,0.01809,0.01071,-0.0305
-14,-1.4294,0.01796,0.01058,-0.0307
-13.9,-1.4175,0.01783,0.01045,-0.0308
-13.8,-1.4056,0.01771,0.01032,-0.0309
-13.7,-1.3936,0.01758,0.01019,-0.031
-13.6,-1.3816,0.01746,0.01006,-0.0312
-13.5,-1.3697,0.01734,0.00994,-0.0313
-13.4,-1.3577,0.01723,0.00982,-0.0314
-13.3,-1.3456,0.01713,0.00971,-0.0315
-13.2,-1.3336,0.01698,0.00957,-0.0317
-13.1,-1.3216,0.01684,0.00944,-0.0318
-13,-1.3096,0.01671,0.00931,-0.0319
-12.9,-1.2975,0.01658,0.00919,-0.0321
-12.8,-1.2854,0.01645,0.00907,-0.0322
-12.7,-1.2733,0.01633,0.00895,-0.0324
-12.6,-1.2612,0.01621,0.00883,-0.0325
-12.5,-1.2491,0.01609,0.00872,-0.0326
-12.4,-1.2369,0.01598,0.00861,-0.0328
-12.3,-1.2248,0.01587,0.00849,-0.0329
-12.2,-1.2126,0.01576,0.00839,-0.033
-12.1,-1.2004,0.01566,0.00828,-0.0332
-12,-1.1882,0.01556,0.00818,-0.0333
-11.9,-1.176,0.01545,0.00806,-0.0334
-11.8,-1.1638,0.01532,0.00794,-0.0336
-11.7,-1.1516,0.01518,0.00783,-0.0338
-11.6,-1.1393,0.01506,0.00772,-0.0339
-11.5,-1.1271,0.01495,0.00762,-0.0341
-11.4,-1.1148,0.01484,0.00751,-0.0342
-11.3,-1.1025,0.01474,0.00741,-0.0343
-11.2,-1.0902,0.01464,0.00732,-0.0345
-11.1,-1.0779,0.01454,0.00722,-0.0346
-11,-1.0656,0.01444,0.00712,-0.0348
-10.9,-1.0533,0.01435,0.00703,-0.0349
-10.8,-1.041,0.01425,0.00692,-0.0351
-10.7,-1.0286,0.01413,0.00682,-0.0352
-10.6,-1.0163,0.01401,0.00672,-0.0354
-10.5,-1.0039,0.0139,0.00662,-0.0355
-10.4,-0.9916,0.01379,0.00653,-0.0357
-10.3,-0.9792,0.0137,0.00644,-0.0359
-10.2,-0.9668,0.0136,0.00635,-0.036
-10.1,-0.9544,0.01351,0.00626,-0.0362
-10,-0.942,0.01342,0.00618,-0.0363
-9.9,-0.9296,0.01334,0.00609,-0.0365
-9.8,-0.9172,0.01323,0.00599,-0.0366
-9.7,-0.9047,0.01312,0.0059,-0.0368
-9.6,-0.8923,0.01301,0.00582,-0.037
-9.5,-0.8798,0.01292,0.00573,-0.0371
-9.4,-0.8674,0.01283,0.00565,-0.0373
-9.3,-0.8549,0.01274,0.00557,-0.0374
-9.2,-0.8425,0.01265,0.00549,-0.0376
-9.1,-0.83,0.01257,0.00541,-0.0378
-9,-0.8175,0.01247,0.00533,-0.0379
-8.9,-0.805,0.01236,0.00524,-0.0381
-8.8,-0.7925,0.01227,0.00517,-0.0383
-8.7,-0.7801,0.01218,0.00509,-0.0384
-8.6,-0.7675,0.01209,0.00502,-0.0386
-8.5,-0.755,0.01201,0.00494,-0.0388
-8.4,-0.7425,0.01193,0.00487,-0.0389
-8.3,-0.73,0.01185,0.0048,-0.0391
-8.2,-0.7174,0.01176,0.00472,-0.0393
-8.1,-0.704,0.01169,0.00467,-0.0396
-8,-0.6902,0.0116,0.00462,-0.0401
-7.9,-0.6763,0.01155,0.00457,-0.0405
-7.8,-0.6628,0.01152,0.00454,-0.0408
-7.7,-0.6503,0.0115,0.00451,-0.0409
-7.6,-0.6387,0.0115,0.00446,-0.0408
-7.5,-0.6291,0.01158,0.00445,-0.0402
-7.4,-0.6174,0.01156,0.0044,-0.0402
-7.3,-0.6056,0.01155,0.00435,-0.0402
-7.2,-0.5936,0.01153,0.0043,-0.0402
-7.1,-0.5815,0.0115,0.00425,-0.0403
-7,-0.5693,0.01148,0.00419,-0.0403
-6.9,-0.557,0.01143,0.00414,-0.0405
-6.8,-0.5447,0.0114,0.00409,-0.0406
-6.6,-0.5199,0.01133,0.00399,-0.0408
-6.5,-0.5076,0.0113,0.00395,-0.0409
-6.4,-0.4953,0.01131,0.0039,-0.041
-6.3,-0.4829,0.01126,0.00385,-0.0412
-6.2,-0.4703,0.01119,0.0038,-0.0414
-6.1,-0.4578,0.01115,0.00376,-0.0415
-6,-0.4453,0.01112,0.00371,-0.0417
-5.9,-0.4328,0.01109,0.00367,-0.0418
-5.8,-0.4202,0.01103,0.00362,-0.042
-5.7,-0.4078,0.01102,0.00358,-0.0421
-5.6,-0.3954,0.01101,0.00355,-0.0423
-5.5,-0.3829,0.01097,0.00351,-0.0424
-5.4,-0.3703,0.01092,0.00346,-0.0426
-5.3,-0.3577,0.01088,0.00343,-0.0428
-5.2,-0.3453,0.01088,0.0034,-0.0429
-5.1,-0.3327,0.01084,0.00337,-0.0431
-5,-0.3201,0.01082,0.00333,-0.0433
-4.9,-0.3075,0.01076,0.00329,-0.0435
-4.8,-0.2949,0.01071,0.00326,-0.0437
-4.7,-0.2825,0.01072,0.00323,-0.0438
-4.6,-0.2699,0.01068,0.0032,-0.044
-4.5,-0.2572,0.01063,0.00316,-0.0442
-4.4,-0.2445,0.01059,0.00313,-0.0444
-4.3,-0.2319,0.01055,0.0031,-0.0445
-4.2,-0.2193,0.01052,0.00307,-0.0447
-4.1,-0.2067,0.01047,0.00304,-0.0449
-4,-0.194,0.01043,0.00301,-0.0451
-3.9,-0.1815,0.01042,0.00299,-0.0453
-3.8,-0.1689,0.01041,0.00297,-0.0454
-3.7,-0.1563,0.01038,0.00294,-0.0456
-3.6,-0.1436,0.01033,0.00292,-0.0458
-3.5,-0.1309,0.01029,0.00289,-0.046
-3.4,-0.1183,0.01026,0.00286,-0.0462
-3.3,-0.1056,0.01022,0.00284,-0.0464
-3.2,-0.093,0.0102,0.00282,-0.0466
-3.1,-0.0805,0.0102,0.00281,-0.0468
-3,-0.0678,0.01018,0.00278,-0.047
-2.9,-0.0552,0.01013,0.00276,-0.0472
-2.8,-0.0426,0.01012,0.00275,-0.0474
-2.7,-0.03,0.01011,0.00273,-0.0475
-2.6,-0.0174,0.01008,0.00271,-0.0477
-2.5,-0.0047,0.01007,0.0027,-0.0479
-2.4,0.0078,0.01007,0.00269,-0.0481
-2.3,0.0205,0.01002,0.00267,-0.0483
-2.2,0.0329,0.01005,0.00267,-0.0485
-2.1,0.0456,0.01004,0.00266,-0.0487
-2,0.0582,0.01002,0.00264,-0.0489
-1.9,0.0708,0.01001,0.00263,-0.0491
-1.8,0.0834,0.01001,0.00263,-0.0493
-1.7,0.0961,0.00997,0.00261,-0.0495
-1.6,0.1087,0.00996,0.00261,-0.0497
-1.5,0.1212,0.00997,0.00261,-0.0499
-1.4,0.1338,0.00998,0.0026,-0.05
-1.3,0.1462,0.01001,0.00261,-0.0502
-1.2,0.1588,0.00999,0.00261,-0.0504
-1.1,0.1712,0.01004,0.00262,-0.0506
-1,0.1837,0.01007,0.00262,-0.0508
-0.9,0.1962,0.0101,0.00263,-0.051
-0.8,0.2088,0.01011,0.00263,-0.0512
-0.7,0.2213,0.01012,0.00265,-0.0514
-0.6,0.2338,0.01014,0.00265,-0.0516
-0.5,0.2463,0.01017,0.00266,-0.0518
-0.4,0.2588,0.0102,0.00267,-0.052
-0.3,0.2712,0.01026,0.0027,-0.0522
-0.2,0.2836,0.0103,0.00271,-0.0524
0,0.3081,0.0105,0.00278,-0.0528
0.1,0.3203,0.01059,0.00282,-0.053
0.2,0.3326,0.0107,0.00286,-0.0532
0.3,0.3448,0.01081,0.0029,-0.0534
0.4,0.3571,0.01089,0.00294,-0.0537
0.5,0.3694,0.01099,0.00298,-0.0539
0.6,0.3818,0.01104,0.00301,-0.0541
0.7,0.3941,0.01111,0.00304,-0.0543
0.8,0.4066,0.01116,0.00308,-0.0545
0.9,0.4191,0.01116,0.0031,-0.0547
1,0.4316,0.0112,0.00313,-0.0549
1.1,0.444,0.01124,0.00315,-0.0551
1.2,0.4564,0.0113,0.0032,-0.0553
1.3,0.4689,0.01133,0.00322,-0.0555
1.4,0.4814,0.01133,0.00324,-0.0557
1.5,0.4939,0.01136,0.00327,-0.0559
1.6,0.5064,0.01139,0.0033,-0.0561
1.7,0.5188,0.01143,0.00333,-0.0563
1.8,0.5312,0.01148,0.00338,-0.0564
1.9,0.5438,0.01147,0.0034,-0.0567
2,0.5563,0.01149,0.00343,-0.0568
2.1,0.5687,0.01152,0.00346,-0.057
2.2,0.5812,0.01154,0.00349,-0.0572
2.3,0.5936,0.01158,0.00352,-0.0574
2.4,0.6061,0.01159,0.00355,-0.0576
2.5,0.6184,0.01166,0.0036,-0.0578
2.6,0.6308,0.01169,0.00364,-0.058
2.7,0.6433,0.01172,0.00367,-0.0581
2.8,0.6557,0.01174,0.00371,-0.0583
2.9,0.6682,0.01174,0.00374,-0.0585
3,0.6806,0.01177,0.00378,-0.0587
3.1,0.6929,0.0118,0.00382,-0.0588
3.2,0.7053,0.01184,0.00386,-0.059
3.3,0.7177,0.01188,0.0039,-0.0592
3.4,0.73,0.0119,0.00395,-0.0594
3.5,0.7423,0.01195,0.00399,-0.0595
3.6,0.7546,0.01201,0.00405,-0.0597
3.7,0.7669,0.01204,0.00409,-0.0598
3.8,0.7792,0.01208,0.00413,-0.06
3.9,0.7916,0.01211,0.00417,-0.0601
4,0.8038,0.01213,0.00422,-0.0603
4.1,0.8161,0.01218,0.00426,-0.0604
4.2,0.8284,0.01223,0.00431,-0.0606
4.3,0.8406,0.01228,0.00436,-0.0607
4.4,0.8527,0.01231,0.00441,-0.0609
4.5,0.8649,0.01238,0.00446,-0.061
4.6,0.8771,0.01244,0.00452,-0.0611
4.7,0.8893,0.0125,0.00458,-0.0613
4.8,0.9014,0.01252,0.00463,-0.0614
4.9,0.9136,0.01256,0.00468,-0.0615
5,0.9258,0.01261,0.00473,-0.0616
5.1,0.938,0.01266,0.00478,-0.0618
5.2,0.9501,0.01271,0.00483,-0.0619
5.3,0.962,0.01275,0.00488,-0.062
5.4,0.9741,0.01281,0.00494,-0.0621
5.5,0.9862,0.01287,0.005,-0.0622
5.6,0.9982,0.01293,0.00505,-0.0623
5.7,1.0102,0.013,0.00511,-0.0624
5.8,1.0219,0.01305,0.00517,-0.0625
5.9,1.0339,0.01312,0.00524,-0.0626
6,1.0459,0.01316,0.0053,-0.0627
6.1,1.058,0.01321,0.00536,-0.0628
6.2,1.0699,0.01326,0.00541,-0.0629
6.3,1.0814,0.01329,0.00547,-0.0628
6.4,1.0932,0.01335,0.00552,-0.0629
6.5,1.105,0.0134,0.00558,-0.063
6.6,1.1168,0.01347,0.00564,-0.063
6.7,1.1286,0.01353,0.0057,-0.0631
6.8,1.1394,0.01356,0.00575,-0.0629
6.9,1.151,0.01363,0.00582,-0.063
7,1.1624,0.0137,0.00587,-0.063
7.1,1.1738,0.01377,0.00593,-0.063
7.2,1.1852,0.01384,0.006,-0.063
7.3,1.1965,0.01388,0.00606,-0.0629
7.4,1.2059,0.01387,0.00608,-0.0624
7.5,1.217,0.01391,0.00612,-0.0623
7.6,1.2282,0.01394,0.00617,-0.0622
7.7,1.2398,0.01398,0.00621,-0.0622
7.8,1.2525,0.01403,0.00625,-0.0625
7.9,1.2645,0.01411,0.00632,-0.0627
8,1.2766,0.01419,0.00639,-0.0628
8.1,1.2886,0.01428,0.00647,-0.063
8.2,1.3005,0.01437,0.00654,-0.0631
8.3,1.3125,0.01447,0.00662,-0.0633
8.4,1.3245,0.01456,0.00669,-0.0634
8.5,1.3364,0.01466,0.00678,-0.0636
8.6,1.3483,0.01476,0.00686,-0.0637
8.7,1.3602,0.01486,0.00695,-0.0638
8.9,1.3842,0.01501,0.0071,-0.0641
9,1.3961,0.01509,0.00718,-0.0643
9.1,1.4081,0.01517,0.00726,-0.0644
9.2,1.42,0.01526,0.00735,-0.0646
9.3,1.4319,0.01534,0.00743,-0.0647
9.4,1.4438,0.01543,0.00751,-0.0648
9.5,1.4556,0.01552,0.00759,-0.065
9.6,1.4674,0.01562,0.00768,-0.0651
9.7,1.4793,0.01571,0.00776,-0.0652
9.8,1.491,0.01582,0.00785,-0.0654
9.9,1.5027,0.01592,0.00794,-0.0655
10,1.5144,0.01603,0.00803,-0.0656
10.1,1.5261,0.01614,0.00812,-0.0658
10.2,1.5378,0.01625,0.00822,-0.0659
10.3,1.5496,0.01634,0.00832,-0.066
10.4,1.5614,0.01642,0.0084,-0.0662
10.5,1.5731,0.01651,0.00849,-0.0663
10.6,1.5849,0.01659,0.00859,-0.0664
10.7,1.5966,0.01668,0.00868,-0.0665
10.8,1.6083,0.01678,0.00877,-0.0667
10.9,1.62,0.01687,0.00886,-0.0668
11,1.6316,0.01697,0.00896,-0.0669
11.1,1.6432,0.01707,0.00905,-0.067
11.2,1.6548,0.01717,0.00915,-0.0672
11.3,1.6664,0.01727,0.00925,-0.0673
11.4,1.678,0.01738,0.00935,-0.0674
11.5,1.6895,0.01749,0.00945,-0.0675
11.6,1.7009,0.01761,0.00955,-0.0676
11.7,1.7123,0.01773,0.00965,-0.0677
11.8,1.7237,0.01785,0.00976,-0.0679
11.9,1.735,0.01798,0.00988,-0.068
12,1.7466,0.01807,0.00998,-0.0681
12.1,1.7581,0.01816,0.01008,-0.0682
12.2,1.7696,0.01825,0.01018,-0.0683
12.3,1.7811,0.01835,0.01029,-0.0684
12.4,1.7925,0.01845,0.01039,-0.0685
12.5,1.8039,0.01855,0.0105,-0.0686
12.6,1.8153,0.01865,0.0106,-0.0687
12.7,1.8267,0.01876,0.01071,-0.0688
12.8,1.838,0.01887,0.01082,-0.0689
12.9,1.8493,0.01898,0.01093,-0.069
13,1.8606,0.01909,0.01104,-0.0691
13.1,1.8718,0.01921,0.01115,-0.0692
13.2,1.883,0.01932,0.01127,-0.0693
13.3,1.894,0.01945,0.01138,-0.0694
13.4,1.9051,0.01958,0.0115,-0.0695
13.5,1.9161,0.01971,0.01162,-0.0696
13.6,1.9271,0.01985,0.01174,-0.0696
13.7,1.9381,0.01999,0.01188,-0.0697
13.8,1.9493,0.02008,0.01199,-0.0698
13.9,1.9605,0.02018,0.0121,-0.0699
14,1.9717,0.02028,0.01222,-0.07
14.1,1.9828,0.02039,0.01233,-0.0701
14.2,1.9938,0.0205,0.01246,-0.0701
14.3,2.0049,0.02061,0.01258,-0.0702
14.4,2.0159,0.02073,0.0127,-0.0703
14.5,2.0268,0.02084,0.01282,-0.0703
14.6,2.0378,0.02096,0.01294,-0.0704
14.7,2.0486,0.02108,0.01307,-0.0705
14.8,2.0595,0.0212,0.01319,-0.0705
14.9,2.0703,0.02133,0.01332,-0.0706
15,2.0811,0.02146,0.01344,-0.0707
15.1,2.0918,0.02159,0.01357,-0.0707
15.2,2.1024,0.02172,0.01371,-0.0708
15.3,2.1128,0.02187,0.01384,-0.0708
15.4,2.1234,0.02201,0.01398,-0.0709
15.5,2.1339,0.02216,0.01413,-0.0709
15.6,2.1443,0.02232,0.01427,-0.0709
15.7,2.1549,0.02244,0.01441,-0.071
15.8,2.1656,0.02255,0.01454,-0.071
15.9,2.1763,0.02266,0.01467,-0.071
16,2.1869,0.02278,0.0148,-0.0711
16.1,2.1974,0.0229,0.01494,-0.0711
16.2,2.2079,0.02302,0.01507,-0.0711
16.3,2.2184,0.02314,0.01521,-0.0712
16.4,2.2288,0.02327,0.01535,-0.0712
16.5,2.2392,0.0234,0.01549,-0.0712
16.6,2.2495,0.02353,0.01563,-0.0712
16.7,2.2598,0.02367,0.01577,-0.0713
16.8,2.27,0.0238,0.01592,-0.0713
16.9,2.2801,0.02394,0.01606,-0.0713
17,2.2902,0.02408,0.01621,-0.0713
17.1,2.3002,0.02422,0.01636,-0.0713
17.2,2.31,0.02438,0.0165,-0.0713
17.3,2.3199,0.02454,0.01666,-0.0712
17.4,2.3297,0.02469,0.01681,-0.0712
17.5,2.3394,0.02486,0.01698,-0.0712
17.6,2.3491,0.02503,0.01715,-0.0712
17.7,2.3586,0.0252,0.01732,-0.0711
17.8,2.3685,0.02534,0.01748,-0.0711
17.9,2.3785,0.02546,0.01762,-0.0711
18,2.3883,0.02558,0.01777,-0.0711
18.1,2.3981,0.02571,0.01792,-0.071
18.2,2.4079,0.02584,0.01808,-0.071
18.3,2.4175,0.02598,0.01823,-0.071
18.4,2.4271,0.02612,0.01839,-0.0709
18.5,2.4366,0.02626,0.01855,-0.0709
18.6,2.4461,0.02641,0.01871,-0.0708
18.7,2.4555,0.02655,0.01888,-0.0707
18.8,2.4648,0.0267,0.01904,-0.0707
19,2.4832,0.02701,0.01937,-0.0705
19.1,2.4923,0.02717,0.01954,-0.0705
19.2,2.5014,0.02733,0.01971,-0.0704
19.3,2.5103,0.02749,0.01988,-0.0703
19.4,2.5191,0.02766,0.02005,-0.0702
19.5,2.5274,0.02784,0.02023,-0.07
19.6,2.5359,0.02801,0.02041,-0.0699
19.7,2.5444,0.02819,0.0206,-0.0698
19.8,2.5527,0.02838,0.02079,-0.0696
19.9,2.5609,0.02857,0.02099,-0.0695
20,2.569,0.02877,0.02119,-0.0693
20.1,2.5775,0.02892,0.02137,-0.0692
20.2,2.5862,0.02906,0.02154,-0.0691
20.3,2.5946,0.0292,0.02171,-0.0689
20.4,2.603,0.02935,0.02189,-0.0688
20.5,2.6112,0.0295,0.02206,-0.0686
20.6,2.6194,0.02966,0.02225,-0.0685
20.7,2.6273,0.02982,0.02243,-0.0683
20.8,2.6352,0.02998,0.02261,-0.0681
20.9,2.6429,0.03014,0.0228,-0.0679
21,2.6504,0.03031,0.02299,-0.0677
21.1,2.6578,0.03048,0.02318,-0.0674
21.2,2.6652,0.03064,0.02337,-0.0672
21.3,2.6722,0.03081,0.02356,-0.067
21.5,2.6854,0.03116,0.02394,-0.0664
21.6,2.6919,0.03135,0.02414,-0.0661
21.7,2.6981,0.03153,0.02434,-0.0658
21.8,2.7042,0.03172,0.02454,-0.0655
21.9,2.71,0.03191,0.02475,-0.0651
22,2.7156,0.0321,0.02496,-0.0648
22.1,2.7211,0.0323,0.02517,-0.0644
22.2,2.7263,0.03251,0.02539,-0.0641
22.3,2.7301,0.03271,0.02561,-0.0635
22.4,2.7333,0.03292,0.02584,-0.0629
22.5,2.7368,0.03315,0.02609,-0.0625
22.6,2.7408,0.03339,0.02634,-0.0621
22.7,2.7464,0.03356,0.02655,-0.0619
22.8,2.7526,0.03372,0.02677,-0.0618
22.9,2.7587,0.0339,0.02698,-0.0617
23,2.765,0.03407,0.02719,-0.0617
23.1,2.7714,0.03426,0.02741,-0.0618
23.2,2.778,0.03444,0.02762,-0.0619
23.3,2.7847,0.03462,0.02784,-0.062
23.4,2.7915,0.03481,0.02805,-0.0623
23.5,2.7985,0.03499,0.02827,-0.0625
23.6,2.8056,0.03518,0.02849,-0.0628
23.7,2.8128,0.03537,0.02871,-0.0632
23.8,2.8201,0.03556,0.02892,-0.0636
23.9,2.8274,0.03576,0.02914,-0.0641
24,2.8349,0.03595,0.02936,-0.0646
24.1,2.8422,0.03615,0.02958,-0.0652
24.2,2.8501,0.03635,0.02981,-0.0659
24.3,2.8577,0.03656,0.03003,-0.0665
24.4,2.8655,0.03676,0.03026,-0.0673
24.5,2.8732,0.03698,0.0305,-0.068
24.6,2.881,0.03719,0.03073,-0.0688
24.7,2.8889,0.03742,0.03097,-0.0697
24.8,2.8967,0.03764,0.03122,-0.0706
24.9,2.9046,0.03788,0.03147,-0.0716
25,2.9124,0.03812,0.03173,-0.0726
25.1,2.9203,0.03838,0.032,-0.0737
25.2,2.9281,0.03863,0.03228,-0.0748
25.3,2.9365,0.03882,0.03251,-0.0756
25.4,2.9448,0.03901,0.03275,-0.0765
25.5,2.9533,0.03921,0.033,-0.0775
25.6,2.9615,0.03942,0.03325,-0.0785
25.7,2.9697,0.03964,0.03351,-0.0795
25.8,2.9778,0.03987,0.03378,-0.0806
25.9,2.9858,0.04011,0.03405,-0.0817
26,2.9937,0.04035,0.03434,-0.0829
26.1,3.0016,0.04061,0.03463,-0.0841
26.2,3.0093,0.04087,0.03493,-0.0854
26.4,3.0246,0.04145,0.03557,-0.0881
26.5,3.032,0.04176,0.03591,-0.0896
26.6,3.0392,0.04208,0.03626,-0.0911
26.7,3.0464,0.04242,0.03663,-0.0926
26.8,3.0538,0.04278,0.03703,-0.0943
26.9,3.0606,0.04316,0.03744,-0.096
27,3.0672,0.04356,0.03788,-0.0978
27.1,3.0735,0.04399,0.03834,-0.0997
27.2,3.0796,0.04446,0.03884,-0.1017
27.3,3.0854,0.04496,0.03937,-0.1038
27.4,3.0908,0.0455,0.03995,-0.106
27.5,3.0959,0.04609,0.04057,-0.1084
27.6,3.1005,0.04673,0.04125,-0.1109
27.7,3.1048,0.0474,0.04196,-0.1134
27.8,3.1099,0.04795,0.04259,-0.1155
27.9,3.1147,0.04853,0.04324,-0.1177
28,3.119,0.04918,0.04395,-0.12
28.1,3.1228,0.04988,0.04472,-0.1225
28.2,3.1261,0.05062,0.04553,-0.125
28.4,3.1318,0.05239,0.04745,-0.1309
28.5,3.1335,0.05336,0.0485,-0.1341
28.6,3.1342,0.05447,0.04969,-0.1375
28.7,3.1316,0.05611,0.05141,-0.1424
28.8,3.1298,0.05758,0.05297,-0.1468
28.9,3.1267,0.0592,0.05469,-0.1514
29,3.1223,0.06102,0.05661,-0.1566
29.1,3.1163,0.06306,0.05875,-0.1622
29.2,3.1089,0.0653,0.0611,-0.1682
29.3,3.1001,0.06778,0.06369,-0.1747
29.4,3.0907,0.07031,0.06632,-0.1814
29.5,3.0819,0.07267,0.06877,-0.1878
29.6,3.0737,0.07491,0.0711,-0.194
29.7,3.0703,0.07649,0.07279,-0.1983
29.8,3.0626,0.07876,0.07519,-0.2042
29.9,3.0556,0.08092,0.07748,-0.2099
30,3.048,0.08317,0.07983,-0.2158

