airfoilName st4.dat
Re 	890000
M 	0
N 	4.500000e+00
VACC 	0 VACCflag 1
XTR 	1.00 	1.00 XTRflag 0
alpha,cl,cd,cdp,cm
-30,-2.6975,0.17668,0.17432,0.2663
-29.9,-2.694,0.17532,0.17298,0.2646
-29.8,-2.6907,0.17388,0.17154,0.2628
-29.7,-2.6876,0.1723,0.16997,0.2609
-29.6,-2.6847,0.17057,0.16824,0.2588
-29.5,-2.6823,0.16862,0.16629,0.2564
-29.4,-2.6815,0.16583,0.16348,0.2531
-29.3,-2.6804,0.16322,0.16086,0.2499
-29.2,-2.6783,0.16113,0.15876,0.2474
-29.1,-2.6762,0.15903,0.15665,0.2448
-29,-2.6741,0.15694,0.15455,0.2422
-28.9,-2.6719,0.15483,0.15243,0.2396
-28.8,-2.67,0.15264,0.15022,0.2368
-28.7,-2.6686,0.1502,0.14775,0.2338
-28.6,-2.6711,0.14595,0.14344,0.2285
-28.5,-2.6694,0.14359,0.14105,0.2254
-28.4,-2.6676,0.14136,0.1388,0.2225
-28.3,-2.6657,0.13917,0.13658,0.2197
-28.2,-2.664,0.13691,0.1343,0.2167
-28.1,-2.6632,0.13427,0.13162,0.2132
-28,-2.6653,0.13031,0.12758,0.2079
-27.9,-2.6635,0.12806,0.1253,0.2049
-27.8,-2.6615,0.1259,0.12311,0.2019
-27.7,-2.6596,0.12371,0.12088,0.1988
-27.6,-2.6584,0.12121,0.11833,0.1953
-27.5,-2.6602,0.11741,0.11446,0.1899
-27.4,-2.6582,0.11525,0.11225,0.1868
-27.3,-2.6559,0.11316,0.11012,0.1837
-27.2,-2.654,0.11095,0.10787,0.1803
-27.1,-2.6553,0.10741,0.10423,0.175
-27,-2.6539,0.10497,0.10174,0.1712
-26.9,-2.6517,0.10288,0.0996,0.1677
-26.8,-2.6504,0.10038,0.09707,0.1635
-26.7,-2.6535,0.09607,0.09268,0.1561
-26.6,-2.6528,0.09337,0.08993,0.1511
-26.5,-2.6572,0.0886,0.08505,0.1421
-26.4,-2.6573,0.08556,0.08194,0.1357
-26.3,-2.6618,0.08084,0.07709,0.1254
-26.2,-2.6665,0.07602,0.07211,0.1137
-26.1,-2.6715,0.07085,0.06675,0.1005
-26,-2.6773,0.0652,0.06088,0.086
-25.9,-2.6813,0.05982,0.05528,0.0725
-25.8,-2.6813,0.05559,0.05087,0.0618
-25.7,-2.6787,0.05194,0.04705,0.0524
-25.6,-2.6735,0.04899,0.04397,0.0444
-25.5,-2.6662,0.0468,0.04167,0.0382
-25.4,-2.6575,0.045,0.03977,0.0329
-25.3,-2.6478,0.04357,0.03826,0.0284
-25.2,-2.6375,0.04237,0.03699,0.0245
-25.1,-2.6266,0.04135,0.03591,0.021
-25,-2.6155,0.04047,0.03497,0.0179
-24.9,-2.6041,0.0397,0.03415,0.0151
-24.8,-2.5929,0.03909,0.03351,0.0128
-24.7,-2.5813,0.03848,0.03285,0.0104
-24.6,-2.5696,0.03793,0.03226,0.0081
-24.5,-2.5579,0.03743,0.03171,0.0061
-24.4,-2.5461,0.03697,0.03122,0.0041
-24.3,-2.5343,0.03655,0.03076,0.0023
-24.2,-2.5226,0.03616,0.03033,0.0006
-24.1,-2.5108,0.0358,0.02994,-0.001
-24,-2.4991,0.03547,0.02956,-0.0026
-23.9,-2.4874,0.03516,0.02922,-0.004
-23.8,-2.4758,0.03485,0.02888,-0.0054
-23.7,-2.4637,0.03446,0.02846,-0.0072
-23.6,-2.4517,0.03409,0.02807,-0.0089
-23.5,-2.4399,0.03375,0.0277,-0.0105
-23.4,-2.4282,0.03343,0.02736,-0.012
-23.3,-2.4166,0.03312,0.02703,-0.0134
-23.2,-2.4052,0.03282,0.02671,-0.0147
-23.1,-2.3939,0.03254,0.02641,-0.016
-23,-2.3827,0.03227,0.02612,-0.0172
-22.9,-2.3718,0.03201,0.02583,-0.0182
-22.8,-2.361,0.03175,0.02556,-0.0193
-22.7,-2.3505,0.0315,0.02529,-0.0202
-22.6,-2.3403,0.03126,0.02503,-0.021
-22.5,-2.3304,0.03102,0.02477,-0.0218
-22.4,-2.321,0.03079,0.02452,-0.0224
-22.3,-2.3121,0.03056,0.02427,-0.023
-22.2,-2.3038,0.03033,0.02402,-0.0233
-22.1,-2.2959,0.03012,0.02379,-0.0236
-22,-2.2876,0.02991,0.02355,-0.0238
-21.9,-2.2789,0.02969,0.02332,-0.024
-21.8,-2.2703,0.02948,0.02309,-0.0242
-21.7,-2.2616,0.02927,0.02286,-0.0243
-21.6,-2.2528,0.02906,0.02263,-0.0245
-21.5,-2.2439,0.02886,0.02241,-0.0246
-21.4,-2.235,0.02865,0.02219,-0.0247
-21.3,-2.2259,0.02845,0.02197,-0.0248
-21.2,-2.2168,0.02826,0.02175,-0.0249
-21.1,-2.2075,0.02806,0.02153,-0.025
-21,-2.1982,0.02786,0.02132,-0.025
-20.9,-2.1887,0.02767,0.02111,-0.0251
-20.8,-2.1792,0.02748,0.0209,-0.0252
-20.7,-2.1696,0.0273,0.0207,-0.0253
-20.6,-2.1599,0.02712,0.0205,-0.0253
-20.5,-2.1499,0.02699,0.02034,-0.0254
-20.4,-2.1405,0.02675,0.0201,-0.0254
-20.3,-2.1309,0.02653,0.01986,-0.0255
-20.2,-2.1212,0.02631,0.01963,-0.0256
-20.1,-2.1115,0.02609,0.01941,-0.0257
-20,-2.1017,0.02589,0.01919,-0.0258
-19.9,-2.0917,0.02568,0.01898,-0.0258
-19.8,-2.0818,0.02548,0.01877,-0.0259
-19.7,-2.0717,0.02528,0.01857,-0.0259
-19.6,-2.0616,0.02509,0.01836,-0.026
-19.5,-2.0514,0.0249,0.01816,-0.0261
-19.4,-2.0411,0.02472,0.01797,-0.0261
-19.3,-2.0308,0.02454,0.01778,-0.0262
-19.2,-2.0204,0.02436,0.01759,-0.0262
-19.1,-2.0099,0.02418,0.0174,-0.0263
-19,-1.9995,0.024,0.01722,-0.0264
-18.9,-1.9889,0.02383,0.01703,-0.0264
-18.8,-1.9783,0.02366,0.01685,-0.0265
-18.7,-1.9677,0.0235,0.01668,-0.0265
-18.6,-1.957,0.02333,0.0165,-0.0266
-18.5,-1.9462,0.02317,0.01632,-0.0266
-18.4,-1.9354,0.02301,0.01615,-0.0267
-18.3,-1.9246,0.02285,0.01599,-0.0268
-18.2,-1.9137,0.0227,0.01582,-0.0268
-18.1,-1.9028,0.02255,0.01566,-0.0269
-18,-1.8918,0.0224,0.0155,-0.0269
-17.9,-1.8808,0.02226,0.01534,-0.027
-17.8,-1.8697,0.02212,0.01519,-0.0271
-17.7,-1.8589,0.02192,0.01499,-0.0272
-17.6,-1.8479,0.02174,0.01481,-0.0273
-17.5,-1.8369,0.02157,0.01463,-0.0273
-17.4,-1.8258,0.0214,0.01446,-0.0274
-17.3,-1.8146,0.02124,0.0143,-0.0275
-17.2,-1.8035,0.02108,0.01413,-0.0276
-17.1,-1.7923,0.02092,0.01397,-0.0277
-17,-1.781,0.02076,0.01382,-0.0278
-16.9,-1.7697,0.02061,0.01366,-0.0278
-16.8,-1.7584,0.02046,0.01351,-0.0279
-16.7,-1.747,0.02032,0.01336,-0.028
-16.6,-1.7357,0.02018,0.01321,-0.0281
-16.5,-1.7242,0.02004,0.01306,-0.0282
-16.4,-1.7128,0.0199,0.01292,-0.0283
-16.3,-1.7013,0.01976,0.01277,-0.0284
-16.2,-1.6898,0.01963,0.01263,-0.0284
-16.1,-1.6782,0.01949,0.01249,-0.0285
-16,-1.6667,0.01937,0.01236,-0.0286
-15.9,-1.6551,0.01924,0.01222,-0.0287
-15.8,-1.6435,0.01912,0.01209,-0.0288
-15.7,-1.6318,0.019,0.01196,-0.0289
-15.6,-1.6202,0.01884,0.01181,-0.029
-15.5,-1.6086,0.01869,0.01165,-0.0291
-15.4,-1.5969,0.01854,0.01151,-0.0292
-15.3,-1.5852,0.0184,0.01137,-0.0293
-15.2,-1.5735,0.01826,0.01123,-0.0295
-15.1,-1.5618,0.01812,0.0111,-0.0296
-15,-1.55,0.01799,0.01096,-0.0297
-14.9,-1.5382,0.01786,0.01083,-0.0298
-14.8,-1.5265,0.01772,0.01071,-0.0299
-14.7,-1.5146,0.0176,0.01058,-0.03
-14.6,-1.5028,0.01748,0.01046,-0.0301
-14.5,-1.4909,0.01736,0.01034,-0.0302
-14.4,-1.479,0.01724,0.01022,-0.0304
-14.3,-1.4671,0.01713,0.0101,-0.0305
-14.2,-1.4551,0.01702,0.00999,-0.0306
-14.1,-1.4432,0.01691,0.00987,-0.0307
-14,-1.4312,0.0168,0.00975,-0.0308
-13.9,-1.4192,0.01666,0.00962,-0.0309
-13.8,-1.4072,0.01653,0.0095,-0.0311
-13.7,-1.3952,0.0164,0.00937,-0.0312
-13.6,-1.3832,0.01627,0.00925,-0.0313
-13.5,-1.3712,0.01615,0.00913,-0.0315
-13.4,-1.3591,0.01603,0.00902,-0.0316
-13.3,-1.3471,0.01592,0.00891,-0.0317
-13.2,-1.335,0.0158,0.0088,-0.0319
-13.1,-1.3229,0.01569,0.00869,-0.032
-13,-1.3107,0.01559,0.00859,-0.0321
-12.9,-1.2986,0.01548,0.00848,-0.0322
-12.8,-1.2865,0.01538,0.00838,-0.0324
-12.7,-1.2743,0.01528,0.00828,-0.0325
-12.6,-1.2621,0.01519,0.00818,-0.0326
-12.5,-1.25,0.01506,0.00806,-0.0328
-12.4,-1.2378,0.01494,0.00795,-0.0329
-12.3,-1.2256,0.01482,0.00785,-0.0331
-12.2,-1.2133,0.01471,0.00774,-0.0332
-12.1,-1.2011,0.0146,0.00764,-0.0334
-12,-1.1889,0.01449,0.00754,-0.0335
-11.9,-1.1766,0.01439,0.00744,-0.0336
-11.8,-1.1643,0.01429,0.00735,-0.0338
-11.7,-1.1521,0.01419,0.00726,-0.0339
-11.6,-1.1398,0.0141,0.00716,-0.0341
-11.5,-1.1275,0.01401,0.00707,-0.0342
-11.4,-1.1151,0.01392,0.00699,-0.0343
-11.3,-1.1028,0.01383,0.00689,-0.0345
-11.2,-1.0905,0.0137,0.00679,-0.0346
-11.1,-1.0782,0.01359,0.00669,-0.0348
-11,-1.0658,0.01348,0.0066,-0.035
-10.9,-1.0535,0.01339,0.00651,-0.0351
-10.8,-1.0411,0.01329,0.00643,-0.0353
-10.7,-1.0287,0.0132,0.00634,-0.0354
-10.6,-1.0163,0.01311,0.00626,-0.0356
-10.5,-1.0039,0.01302,0.00618,-0.0357
-10.4,-0.9915,0.01294,0.0061,-0.0358
-10.3,-0.9791,0.01286,0.00602,-0.036
-10.2,-0.9667,0.01276,0.00592,-0.0362
-10.1,-0.9543,0.01265,0.00584,-0.0363
-10,-0.9418,0.01254,0.00575,-0.0365
-9.9,-0.9294,0.01245,0.00567,-0.0367
-9.8,-0.9169,0.01236,0.00559,-0.0368
-9.7,-0.9045,0.01227,0.00552,-0.037
-9.6,-0.892,0.01219,0.00544,-0.0371
-9.5,-0.8795,0.01211,0.00537,-0.0373
-9.4,-0.8671,0.01204,0.0053,-0.0374
-9.3,-0.854,0.01196,0.00523,-0.0377
-9.2,-0.8404,0.01188,0.00517,-0.0381
-9.1,-0.8267,0.01182,0.00512,-0.0385
-9,-0.8146,0.01186,0.00511,-0.0385
-8.9,-0.8033,0.01185,0.00507,-0.0383
-8.8,-0.792,0.01183,0.00502,-0.0382
-8.7,-0.7805,0.01182,0.00497,-0.0381
-8.6,-0.7688,0.01181,0.00491,-0.038
-8.5,-0.7568,0.01177,0.00484,-0.0381
-8.4,-0.7448,0.01173,0.00478,-0.0381
-8.3,-0.7327,0.01169,0.00472,-0.0382
-8.2,-0.7205,0.01166,0.00466,-0.0383
-8.1,-0.7086,0.01168,0.00461,-0.0383
-8,-0.6963,0.01164,0.00456,-0.0384
-7.9,-0.6838,0.0116,0.0045,-0.0385
-7.8,-0.6714,0.01157,0.00445,-0.0387
-7.7,-0.659,0.01152,0.00439,-0.0388
-7.6,-0.6465,0.01144,0.00433,-0.039
-7.5,-0.634,0.01139,0.00427,-0.0392
-7.4,-0.6215,0.01136,0.00422,-0.0393
-7.3,-0.609,0.01131,0.00417,-0.0395
-7.2,-0.5965,0.01127,0.00412,-0.0396
-7.1,-0.584,0.01123,0.00406,-0.0398
-7,-0.5714,0.01117,0.00402,-0.0399
-6.9,-0.559,0.01114,0.00397,-0.0401
-6.8,-0.5464,0.01108,0.00392,-0.0403
-6.7,-0.5339,0.01104,0.00388,-0.0404
-6.6,-0.5213,0.011,0.00383,-0.0406
-6.5,-0.5087,0.01095,0.00378,-0.0408
-6.4,-0.4961,0.01089,0.00373,-0.0409
-6.3,-0.4835,0.01083,0.00369,-0.0411
-6.2,-0.4709,0.01079,0.00365,-0.0413
-6.1,-0.4584,0.01078,0.00361,-0.0414
-6,-0.4458,0.01074,0.00357,-0.0416
-5.9,-0.4333,0.0107,0.00353,-0.0418
-5.8,-0.4207,0.01066,0.00349,-0.042
-5.7,-0.4081,0.01062,0.00345,-0.0421
-5.6,-0.3956,0.01061,0.00342,-0.0423
-5.5,-0.383,0.01058,0.00338,-0.0425
-5.4,-0.3704,0.01053,0.00334,-0.0426
-5.3,-0.3577,0.01047,0.00331,-0.0428
-5.2,-0.345,0.01041,0.00327,-0.043
-5.1,-0.3325,0.0104,0.00324,-0.0432
-5,-0.32,0.01039,0.00321,-0.0434
-4.9,-0.3073,0.01034,0.00317,-0.0435
-4.8,-0.2946,0.01029,0.00314,-0.0437
-4.7,-0.282,0.01026,0.00311,-0.0439
-4.6,-0.2693,0.01023,0.00308,-0.0441
-4.5,-0.2567,0.01017,0.00304,-0.0443
-4.4,-0.244,0.01013,0.00302,-0.0445
-4.3,-0.2315,0.01013,0.003,-0.0447
-4.2,-0.2189,0.01011,0.00297,-0.0448
-4.1,-0.2063,0.01008,0.00294,-0.045
-4,-0.1936,0.01004,0.00292,-0.0452
-3.9,-0.1809,0.01,0.00289,-0.0454
-3.8,-0.1682,0.00996,0.00287,-0.0456
-3.7,-0.1556,0.00993,0.00284,-0.0458
-3.6,-0.1429,0.0099,0.00282,-0.046
-3.5,-0.1304,0.00989,0.0028,-0.0462
-3.4,-0.1177,0.00987,0.00278,-0.0463
-3.3,-0.1051,0.00986,0.00276,-0.0465
-3.2,-0.0924,0.00981,0.00274,-0.0467
-3.1,-0.0798,0.00978,0.00272,-0.0469
-3,-0.0671,0.00977,0.00271,-0.0471
-2.9,-0.0545,0.00977,0.00269,-0.0473
-2.8,-0.0419,0.00976,0.00268,-0.0475
-2.7,-0.0293,0.00974,0.00266,-0.0477
-2.6,-0.0167,0.00974,0.00265,-0.0478
-2.5,-0.0041,0.00972,0.00264,-0.0481
-2.4,0.0085,0.00971,0.00263,-0.0483
-2.3,0.0211,0.00971,0.00262,-0.0484
-2.2,0.0337,0.0097,0.00261,-0.0486
-2.1,0.0464,0.00968,0.0026,-0.0488
-2,0.059,0.00966,0.00259,-0.049
-1.9,0.0716,0.00966,0.00258,-0.0492
-1.8,0.0843,0.00965,0.00258,-0.0494
-1.7,0.0968,0.00967,0.00258,-0.0496
-1.6,0.1094,0.00968,0.00258,-0.0498
-1.5,0.1218,0.00973,0.00258,-0.05
-1.4,0.1344,0.00973,0.00259,-0.0502
-1.3,0.1469,0.00976,0.00259,-0.0504
-1.2,0.1595,0.00976,0.00259,-0.0506
-1.1,0.1719,0.00982,0.00261,-0.0508
-1,0.1845,0.00984,0.00261,-0.051
-0.9,0.197,0.00985,0.00262,-0.0512
-0.8,0.2095,0.00988,0.00263,-0.0514
-0.7,0.222,0.00993,0.00265,-0.0516
-0.6,0.2344,0.00998,0.00266,-0.0518
-0.5,0.2469,0.01004,0.00268,-0.052
-0.4,0.2593,0.01009,0.0027,-0.0522
-0.3,0.2712,0.01029,0.00276,-0.0525
-0.2,0.2835,0.0104,0.0028,-0.0527
0,0.3082,0.01057,0.00287,-0.0531
0.1,0.3207,0.01062,0.00289,-0.0533
0.2,0.3332,0.01064,0.00292,-0.0535
0.3,0.3457,0.01066,0.00293,-0.0537
0.4,0.3583,0.01069,0.00295,-0.0539
0.5,0.3708,0.01073,0.00298,-0.0541
0.6,0.3832,0.01077,0.003,-0.0543
0.7,0.3959,0.01076,0.00302,-0.0545
0.8,0.4083,0.0108,0.00304,-0.0547
0.9,0.4209,0.01082,0.00306,-0.0549
1,0.4334,0.01084,0.00308,-0.0551
1.1,0.4459,0.01088,0.00311,-0.0553
1.2,0.4584,0.01088,0.00314,-0.0555
1.3,0.471,0.0109,0.00316,-0.0557
1.4,0.4835,0.01092,0.00317,-0.0559
1.5,0.4961,0.01093,0.0032,-0.0561
1.6,0.5086,0.01096,0.00322,-0.0563
1.7,0.5211,0.01096,0.00324,-0.0565
1.8,0.5336,0.01099,0.00327,-0.0567
1.9,0.5461,0.01103,0.0033,-0.0569
2,0.5586,0.01106,0.00332,-0.0571
2.1,0.571,0.01109,0.00336,-0.0573
2.2,0.5836,0.01109,0.00338,-0.0575
2.3,0.5961,0.01111,0.00341,-0.0577
2.4,0.6086,0.01114,0.00344,-0.0578
2.5,0.621,0.01117,0.00346,-0.058
2.6,0.6335,0.0112,0.00349,-0.0582
2.7,0.646,0.01121,0.00353,-0.0584
2.8,0.6584,0.01125,0.00356,-0.0586
2.9,0.6709,0.01129,0.00359,-0.0588
3,0.6833,0.01132,0.00363,-0.059
3.1,0.6958,0.01135,0.00366,-0.0592
3.2,0.7083,0.01135,0.0037,-0.0594
3.3,0.7207,0.01138,0.00373,-0.0595
3.4,0.7331,0.01142,0.00376,-0.0597
3.5,0.7455,0.01145,0.0038,-0.0599
3.6,0.7579,0.01149,0.00384,-0.0601
3.7,0.7704,0.0115,0.00388,-0.0603
3.8,0.7828,0.01155,0.00392,-0.0605
3.9,0.7951,0.01159,0.00396,-0.0606
4,0.8075,0.01164,0.00401,-0.0608
4.1,0.8199,0.01167,0.00405,-0.061
4.2,0.8323,0.0117,0.00409,-0.0612
4.3,0.8446,0.01171,0.00413,-0.0613
4.4,0.857,0.01174,0.00418,-0.0615
4.5,0.8693,0.01179,0.00422,-0.0617
4.6,0.8817,0.01183,0.00426,-0.0618
4.7,0.8939,0.01187,0.00431,-0.062
4.8,0.9062,0.01192,0.00436,-0.0622
4.9,0.9185,0.01197,0.00441,-0.0623
5,0.9307,0.01203,0.00446,-0.0625
5.1,0.9429,0.01209,0.00451,-0.0626
5.2,0.9552,0.01212,0.00457,-0.0628
5.3,0.9675,0.01216,0.00461,-0.0629
5.4,0.9797,0.01221,0.00466,-0.0631
5.5,0.992,0.01226,0.00471,-0.0632
5.6,1.0042,0.0123,0.00476,-0.0634
5.7,1.0164,0.01233,0.00481,-0.0635
5.8,1.0286,0.01239,0.00486,-0.0637
5.9,1.0408,0.01244,0.00492,-0.0638
6,1.0529,0.0125,0.00497,-0.0639
6.1,1.065,0.01254,0.00503,-0.0641
6.2,1.077,0.01262,0.00509,-0.0642
6.3,1.0891,0.01268,0.00514,-0.0643
6.4,1.1012,0.01276,0.0052,-0.0645
6.5,1.1133,0.01281,0.00527,-0.0646
6.6,1.1255,0.01286,0.00532,-0.0648
6.7,1.1374,0.01289,0.00538,-0.0648
6.8,1.1495,0.01295,0.00544,-0.065
6.9,1.1616,0.013,0.0055,-0.0651
7,1.1737,0.01306,0.00555,-0.0652
7.1,1.1857,0.01312,0.00561,-0.0653
7.2,1.1975,0.01316,0.00567,-0.0654
7.3,1.2094,0.01322,0.00573,-0.0655
7.4,1.2214,0.01328,0.0058,-0.0656
7.5,1.2333,0.01335,0.00586,-0.0657
7.6,1.2452,0.01342,0.00593,-0.0658
7.7,1.257,0.01351,0.00599,-0.066
7.8,1.2683,0.01357,0.00606,-0.0659
7.9,1.2801,0.01363,0.00613,-0.066
8,1.292,0.01369,0.00619,-0.0661
8.1,1.3037,0.01374,0.00625,-0.0662
8.2,1.3155,0.01379,0.00632,-0.0662
8.3,1.3264,0.01382,0.00637,-0.0661
8.4,1.3379,0.01387,0.00643,-0.0661
8.5,1.3495,0.01393,0.0065,-0.0662
8.6,1.3609,0.01399,0.00656,-0.0662
8.7,1.3722,0.01405,0.00662,-0.0662
8.8,1.3817,0.01405,0.00665,-0.0657
8.9,1.3926,0.0141,0.0067,-0.0656
9,1.4037,0.01415,0.00675,-0.0655
9.1,1.415,0.01421,0.0068,-0.0655
9.2,1.4272,0.01427,0.00685,-0.0657
9.3,1.4391,0.01436,0.00692,-0.0659
9.4,1.4509,0.01448,0.00701,-0.066
9.5,1.4628,0.01455,0.00709,-0.0662
9.6,1.4748,0.01463,0.00716,-0.0663
9.7,1.4867,0.0147,0.00724,-0.0665
9.8,1.4986,0.01478,0.00731,-0.0666
9.9,1.5105,0.01486,0.00739,-0.0667
10,1.5224,0.01494,0.00747,-0.0669
10.1,1.5342,0.01502,0.00755,-0.067
10.2,1.546,0.01511,0.00763,-0.0671
10.3,1.5579,0.0152,0.00771,-0.0673
10.4,1.5696,0.01529,0.00779,-0.0674
10.5,1.5814,0.01538,0.00787,-0.0675
10.6,1.5931,0.01547,0.00796,-0.0677
10.7,1.6049,0.01557,0.00804,-0.0678
10.8,1.6166,0.01567,0.00813,-0.0679
10.9,1.6282,0.01578,0.00822,-0.0681
11,1.6399,0.01588,0.00831,-0.0682
11.1,1.6515,0.01599,0.00841,-0.0683
11.2,1.6632,0.01607,0.00849,-0.0685
11.3,1.6749,0.01615,0.00858,-0.0686
11.4,1.6866,0.01624,0.00867,-0.0687
11.5,1.6983,0.01632,0.00875,-0.0688
11.6,1.7099,0.01641,0.00884,-0.069
11.7,1.7215,0.0165,0.00893,-0.0691
11.8,1.7331,0.01659,0.00902,-0.0692
11.9,1.7447,0.01669,0.00911,-0.0693
12,1.7562,0.01679,0.0092,-0.0694
12.1,1.7678,0.01689,0.00929,-0.0695
12.2,1.7793,0.01699,0.00939,-0.0697
12.3,1.7907,0.01709,0.00949,-0.0698
12.4,1.8022,0.0172,0.00959,-0.0699
12.5,1.8136,0.01731,0.00969,-0.07
12.6,1.825,0.01742,0.00979,-0.0701
12.7,1.8364,0.01754,0.00989,-0.0702
12.8,1.8475,0.01767,0.01001,-0.0703
12.9,1.859,0.01775,0.01011,-0.0704
13,1.8704,0.01784,0.0102,-0.0705
13.1,1.8818,0.01793,0.01029,-0.0706
13.2,1.8932,0.01803,0.0104,-0.0707
13.3,1.9046,0.01812,0.01049,-0.0708
13.4,1.9159,0.01822,0.01059,-0.0709
13.5,1.9272,0.01832,0.0107,-0.071
13.6,1.9385,0.01842,0.0108,-0.0711
13.7,1.9497,0.01853,0.0109,-0.0712
13.8,1.9609,0.01863,0.01101,-0.0713
13.9,1.9721,0.01874,0.01111,-0.0714
14,1.9833,0.01885,0.01122,-0.0715
14.1,1.9944,0.01896,0.01133,-0.0716
14.2,2.0055,0.01908,0.01145,-0.0717
14.3,2.0166,0.0192,0.01156,-0.0718
14.4,2.0276,0.01932,0.01167,-0.0718
14.5,2.0385,0.01945,0.01179,-0.0719
14.6,2.0494,0.01957,0.01191,-0.072
14.7,2.0603,0.0197,0.01204,-0.072
14.8,2.0712,0.01981,0.01215,-0.0721
14.9,2.0823,0.01991,0.01226,-0.0722
15,2.0933,0.02001,0.01237,-0.0723
15.1,2.1043,0.02011,0.01248,-0.0723
15.2,2.1153,0.02022,0.0126,-0.0724
15.3,2.1261,0.02033,0.01271,-0.0725
15.4,2.137,0.02044,0.01283,-0.0725
15.5,2.1478,0.02055,0.01294,-0.0726
15.6,2.1586,0.02066,0.01306,-0.0726
15.7,2.1694,0.02078,0.01318,-0.0727
15.8,2.1801,0.0209,0.0133,-0.0727
15.9,2.1908,0.02102,0.01342,-0.0728
16,2.2014,0.02114,0.01355,-0.0728
16.1,2.212,0.02127,0.01367,-0.0729
16.2,2.2226,0.0214,0.0138,-0.0729
16.3,2.2331,0.02153,0.01393,-0.073
16.4,2.2435,0.02167,0.01407,-0.073
16.5,2.2539,0.02181,0.0142,-0.073
16.6,2.2641,0.02195,0.01435,-0.073
16.7,2.2741,0.02212,0.01451,-0.073
16.8,2.2847,0.02222,0.01463,-0.0731
16.9,2.2952,0.02233,0.01475,-0.0731
17,2.3057,0.02244,0.01487,-0.0731
17.1,2.3161,0.02255,0.015,-0.0731
17.2,2.3265,0.02267,0.01512,-0.0732
17.3,2.3368,0.02279,0.01525,-0.0732
17.4,2.3471,0.02291,0.01539,-0.0732
17.5,2.3573,0.02304,0.01552,-0.0732
17.6,2.3674,0.02316,0.01566,-0.0732
17.7,2.3775,0.02329,0.01579,-0.0732
17.8,2.3876,0.02342,0.01593,-0.0732
17.9,2.3975,0.02355,0.01607,-0.0732
18,2.4075,0.02369,0.01621,-0.0731
18.1,2.4174,0.02383,0.01635,-0.0731
18.2,2.4273,0.02397,0.0165,-0.0731
18.3,2.437,0.02412,0.01665,-0.0731
18.4,2.4467,0.02426,0.0168,-0.0731
18.5,2.4563,0.02441,0.01695,-0.073
18.6,2.4659,0.02457,0.01711,-0.073
18.7,2.4751,0.02472,0.01727,-0.0729
18.8,2.4845,0.02488,0.01743,-0.0728
18.9,2.4938,0.02505,0.0176,-0.0728
19,2.5031,0.02519,0.01776,-0.0727
19.1,2.5128,0.02531,0.0179,-0.0726
19.2,2.5223,0.02543,0.01804,-0.0726
19.3,2.5318,0.02556,0.01819,-0.0725
19.4,2.5412,0.0257,0.01833,-0.0725
19.5,2.5506,0.02583,0.01848,-0.0724
19.6,2.5598,0.02597,0.01863,-0.0723
19.7,2.569,0.02611,0.01879,-0.0722
19.8,2.5782,0.02625,0.01895,-0.0721
19.9,2.5872,0.02639,0.01911,-0.072
20,2.5961,0.02654,0.01926,-0.0719
20.1,2.6049,0.02669,0.01943,-0.0718
20.2,2.6137,0.02684,0.01959,-0.0717
20.3,2.6224,0.027,0.01975,-0.0716
20.4,2.6309,0.02715,0.01992,-0.0714
20.5,2.6394,0.02731,0.02009,-0.0713
20.6,2.6478,0.02748,0.02026,-0.0711
20.7,2.656,0.02764,0.02044,-0.071
20.8,2.6636,0.02784,0.02063,-0.0708
20.9,2.6713,0.02802,0.02082,-0.0706
21,2.6789,0.0282,0.02101,-0.0703
21.1,2.6866,0.02839,0.02121,-0.0701
21.2,2.694,0.02858,0.02141,-0.0699
21.3,2.7015,0.02875,0.0216,-0.0697
21.4,2.7096,0.02888,0.02176,-0.0695
21.5,2.7174,0.02902,0.02192,-0.0693
21.6,2.7251,0.02917,0.02209,-0.0691
21.7,2.7326,0.02931,0.02226,-0.0688
21.8,2.7399,0.02946,0.02243,-0.0685
21.9,2.747,0.02962,0.02261,-0.0683
22,2.7539,0.02977,0.02279,-0.068
22.1,2.7607,0.02993,0.02297,-0.0677
22.2,2.7674,0.03009,0.02315,-0.0674
22.3,2.7738,0.03026,0.02333,-0.067
22.4,2.78,0.03043,0.02352,-0.0667
22.5,2.7862,0.03059,0.02371,-0.0664
22.6,2.792,0.03076,0.0239,-0.066
22.7,2.7977,0.03094,0.0241,-0.0656
22.8,2.8032,0.03112,0.0243,-0.0652
22.9,2.8079,0.0313,0.0245,-0.0648
23,2.8112,0.03148,0.0247,-0.0641
23.1,2.8145,0.03168,0.02492,-0.0634
23.2,2.8183,0.03188,0.02515,-0.0629
23.3,2.8225,0.03209,0.02538,-0.0626
23.4,2.8272,0.0323,0.02561,-0.0623
23.5,2.8312,0.03255,0.02586,-0.0622
23.6,2.836,0.03278,0.02611,-0.0621
23.7,2.8417,0.033,0.02635,-0.0621
23.8,2.8474,0.03322,0.02659,-0.0623
23.9,2.8533,0.03345,0.02683,-0.0625
24,2.8599,0.03366,0.02708,-0.0628
24.1,2.8672,0.03382,0.02727,-0.063
24.2,2.8745,0.03398,0.02746,-0.0633
24.3,2.8819,0.03415,0.02766,-0.0636
24.4,2.8893,0.03432,0.02786,-0.064
24.5,2.8968,0.0345,0.02807,-0.0644
24.6,2.9044,0.03467,0.02827,-0.0648
24.7,2.912,0.03485,0.02848,-0.0653
24.8,2.9196,0.03504,0.02869,-0.0658
24.9,2.9273,0.03522,0.02889,-0.0664
25,2.9351,0.03541,0.02911,-0.067
25.1,2.9429,0.0356,0.02932,-0.0677
25.2,2.9507,0.03579,0.02954,-0.0683
25.3,2.9586,0.03599,0.02976,-0.0691
25.4,2.9668,0.03619,0.02999,-0.0699
25.5,2.9747,0.03639,0.03022,-0.0707
25.6,2.9826,0.0366,0.03045,-0.0715
25.7,2.9905,0.03682,0.03068,-0.0724
25.8,2.9985,0.03704,0.03092,-0.0734
25.9,3.0061,0.03731,0.0312,-0.0746
26,3.014,0.03755,0.03146,-0.0756
26.1,3.0218,0.0378,0.03174,-0.0768
26.2,3.0296,0.03808,0.03204,-0.0781
26.3,3.0373,0.03836,0.03233,-0.0793
26.4,3.045,0.03865,0.03265,-0.0806
26.5,3.0525,0.03895,0.03297,-0.082
26.6,3.0602,0.03922,0.03328,-0.0832
26.7,3.0686,0.03944,0.03354,-0.0843
26.8,3.0765,0.03967,0.03381,-0.0854
26.9,3.0843,0.03992,0.0341,-0.0866
27,3.0919,0.04018,0.0344,-0.0878
27.1,3.0994,0.04046,0.03471,-0.0891
27.2,3.1068,0.04074,0.03503,-0.0904
27.3,3.1141,0.04105,0.03537,-0.0917
27.4,3.1212,0.04137,0.03573,-0.0932
27.5,3.1281,0.04171,0.0361,-0.0947
27.6,3.1349,0.04207,0.03649,-0.0962
27.7,3.1412,0.0425,0.03695,-0.0981
27.8,3.1475,0.04291,0.0374,-0.0998
27.9,3.1535,0.04336,0.03788,-0.1017
28,3.1591,0.04383,0.03839,-0.1036
28.1,3.1653,0.04436,0.03897,-0.1057
28.2,3.1697,0.04504,0.03968,-0.1084
28.3,3.1743,0.04568,0.04035,-0.1108
28.4,3.1783,0.04638,0.04111,-0.1133
28.5,3.1792,0.04758,0.04235,-0.1175
28.6,3.1814,0.04854,0.04337,-0.1208
28.7,3.1825,0.04964,0.04453,-0.1244
28.8,3.1854,0.05046,0.04543,-0.127
28.9,3.1877,0.05132,0.04636,-0.1298
29.1,3.1895,0.05348,0.04867,-0.1363
29.2,3.1891,0.0547,0.04998,-0.1399
29.3,3.1876,0.05609,0.05145,-0.1438
29.4,3.1845,0.05769,0.05315,-0.1483
29.5,3.1796,0.05956,0.05512,-0.1534
29.6,3.1722,0.0618,0.05749,-0.1593
29.7,3.1618,0.06451,0.06035,-0.1662
29.9,3.1288,0.07188,0.06806,-0.1839
30,3.1086,0.076,0.07233,-0.1942

