airfoilName st4.dat
Re 	9.300000e+05
M 	0
N 	4.500000e+00
VACC 	0 VACCflag 1
XTR 	1.00 	1.00 XTRflag 0
alpha,cl,cd,cdp,cm
-30,-2.6979,0.17669,0.17437,0.2663
-29.9,-2.6975,0.17372,0.17137,0.2627
-29.8,-2.6941,0.17233,0.16998,0.261
-29.7,-2.691,0.17078,0.16844,0.2591
-29.6,-2.6883,0.16899,0.16664,0.2569
-29.5,-2.6867,0.1666,0.16425,0.2541
-29.4,-2.6853,0.16414,0.16177,0.2511
-29.3,-2.6831,0.16213,0.15976,0.2486
-29.2,-2.6808,0.16011,0.15773,0.2461
-29.1,-2.6786,0.15806,0.15568,0.2436
-29,-2.6764,0.156,0.15361,0.241
-28.9,-2.6743,0.15389,0.15149,0.2384
-28.8,-2.6725,0.15167,0.14925,0.2356
-28.7,-2.6716,0.14897,0.14652,0.2322
-28.6,-2.6737,0.14495,0.14244,0.2271
-28.5,-2.6718,0.14265,0.14012,0.2242
-28.4,-2.67,0.14046,0.13791,0.2213
-28.3,-2.6681,0.13829,0.13571,0.2185
-28.2,-2.6665,0.13599,0.13339,0.2154
-28.1,-2.6671,0.13272,0.13006,0.2111
-28,-2.6679,0.12936,0.12665,0.2066
-27.9,-2.666,0.12715,0.12441,0.2035
-27.8,-2.664,0.125,0.12223,0.2005
-27.7,-2.6622,0.12276,0.11995,0.1974
-27.6,-2.6624,0.11966,0.11679,0.193
-27.5,-2.663,0.11638,0.11345,0.1883
-27.4,-2.6609,0.11426,0.11128,0.1851
-27.3,-2.6588,0.11215,0.10914,0.1819
-27.2,-2.6573,0.10976,0.1067,0.1783
-27.1,-2.6593,0.10597,0.10281,0.1725
-27,-2.6571,0.10386,0.10066,0.1691
-26.9,-2.6549,0.10178,0.09853,0.1656
-26.8,-2.6539,0.09921,0.09589,0.1614
-26.7,-2.6561,0.09531,0.09191,0.1545
-26.6,-2.6557,0.09245,0.089,0.1491
-26.5,-2.6605,0.08755,0.08398,0.1396
-26.4,-2.666,0.08249,0.07878,0.1289
-26.3,-2.6717,0.07733,0.07347,0.1168
-26.2,-2.6769,0.07218,0.06813,0.1036
-26.1,-2.6851,0.0657,0.06141,0.0871
-26,-2.6904,0.05991,0.05538,0.0726
-25.9,-2.6916,0.05514,0.05041,0.0607
-25.7,-2.6838,0.04856,0.04353,0.0433
-25.6,-2.6764,0.04629,0.04115,0.0369
-25.5,-2.6675,0.04458,0.03935,0.0317
-25.4,-2.6577,0.04316,0.03786,0.0273
-25.3,-2.6473,0.04198,0.03661,0.0234
-25.2,-2.6365,0.04099,0.03555,0.02
-25.1,-2.6253,0.04014,0.03464,0.0169
-25,-2.6139,0.03938,0.03384,0.0141
-24.9,-2.6024,0.03871,0.03313,0.0115
-24.8,-2.5907,0.03811,0.03249,0.0091
-24.6,-2.5675,0.03714,0.03144,0.0051
-24.5,-2.5557,0.03668,0.03095,0.0031
-24.4,-2.5439,0.03626,0.03049,0.0013
-24.3,-2.5322,0.03587,0.03007,-0.0004
-24.2,-2.5204,0.03551,0.02968,-0.0021
-24.1,-2.5087,0.03518,0.02931,-0.0036
-24,-2.497,0.03486,0.02895,-0.0051
-23.9,-2.4854,0.03456,0.02863,-0.0065
-23.8,-2.4739,0.03428,0.02831,-0.0078
-23.7,-2.4624,0.03401,0.02802,-0.009
-23.6,-2.4509,0.03374,0.02772,-0.0103
-23.5,-2.4391,0.0334,0.02735,-0.0118
-23.4,-2.4275,0.03308,0.02701,-0.0133
-23.3,-2.416,0.03277,0.02668,-0.0147
-23.2,-2.4047,0.03248,0.02636,-0.016
-23.1,-2.3935,0.0322,0.02606,-0.0172
-23,-2.3826,0.03193,0.02577,-0.0183
-22.9,-2.3718,0.03167,0.02549,-0.0193
-22.8,-2.3613,0.03141,0.02522,-0.0203
-22.7,-2.3511,0.03116,0.02495,-0.0212
-22.6,-2.3412,0.03092,0.02469,-0.0219
-22.5,-2.3318,0.03068,0.02443,-0.0226
-22.4,-2.3229,0.03045,0.02418,-0.0231
-22.3,-2.3147,0.03022,0.02393,-0.0235
-22.2,-2.3069,0.03,0.02369,-0.0237
-22.1,-2.2987,0.02979,0.02346,-0.0239
-22,-2.2902,0.02957,0.02323,-0.0241
-21.9,-2.2816,0.02936,0.023,-0.0243
-21.8,-2.2729,0.02915,0.02277,-0.0244
-21.7,-2.2642,0.02894,0.02254,-0.0246
-21.6,-2.2554,0.02873,0.02231,-0.0247
-21.5,-2.2465,0.02853,0.02209,-0.0248
-21.4,-2.2375,0.02833,0.02187,-0.0249
-21.3,-2.2284,0.02813,0.02165,-0.025
-21.2,-2.2192,0.02793,0.02144,-0.0251
-21.1,-2.2099,0.02773,0.02122,-0.0251
-21,-2.2005,0.02754,0.02101,-0.0252
-20.9,-2.191,0.02734,0.0208,-0.0253
-20.8,-2.1815,0.02715,0.0206,-0.0253
-20.7,-2.1718,0.02697,0.02039,-0.0254
-20.6,-2.1621,0.02679,0.02019,-0.0255
-20.5,-2.1523,0.02661,0.01999,-0.0255
-20.4,-2.1425,0.02643,0.0198,-0.0256
-20.3,-2.1324,0.02629,0.01964,-0.0256
-20.2,-2.1227,0.02607,0.01941,-0.0257
-20.1,-2.113,0.02585,0.01918,-0.0257
-20,-2.1031,0.02564,0.01896,-0.0258
-19.9,-2.0932,0.02543,0.01875,-0.0259
-19.8,-2.0832,0.02523,0.01854,-0.0259
-19.7,-2.0731,0.02503,0.01833,-0.026
-19.6,-2.063,0.02484,0.01813,-0.0261
-19.5,-2.0527,0.02465,0.01793,-0.0261
-19.4,-2.0425,0.02446,0.01774,-0.0262
-19.3,-2.0321,0.02428,0.01754,-0.0262
-19.2,-2.0217,0.0241,0.01736,-0.0263
-19.1,-2.0112,0.02392,0.01717,-0.0263
-19,-2.0007,0.02375,0.01699,-0.0264
-18.9,-1.9902,0.02358,0.01681,-0.0265
-18.8,-1.9795,0.02341,0.01663,-0.0265
-18.7,-1.9689,0.02324,0.01645,-0.0266
-18.6,-1.9581,0.02308,0.01628,-0.0266
-18.5,-1.9474,0.02292,0.01611,-0.0267
-18.4,-1.9365,0.02276,0.01594,-0.0268
-18.3,-1.9257,0.0226,0.01577,-0.0268
-18.2,-1.9148,0.02245,0.01561,-0.0269
-18.1,-1.9038,0.0223,0.01544,-0.0269
-18,-1.8929,0.02215,0.01528,-0.027
-17.9,-1.8818,0.022,0.01513,-0.0271
-17.8,-1.8708,0.02186,0.01497,-0.0271
-17.7,-1.8597,0.02173,0.01483,-0.0272
-17.6,-1.8487,0.02155,0.01465,-0.0273
-17.5,-1.8376,0.02137,0.01447,-0.0274
-17.4,-1.8265,0.0212,0.01429,-0.0274
-17.3,-1.8154,0.02104,0.01413,-0.0275
-17.2,-1.8042,0.02087,0.01396,-0.0276
-17.1,-1.793,0.02072,0.0138,-0.0277
-17,-1.7817,0.02056,0.01365,-0.0278
-16.9,-1.7704,0.02041,0.01349,-0.0279
-16.8,-1.7591,0.02026,0.01334,-0.0279
-16.7,-1.7477,0.02012,0.01319,-0.028
-16.6,-1.7363,0.01997,0.01305,-0.0281
-16.5,-1.7248,0.01983,0.0129,-0.0282
-16.4,-1.7134,0.01969,0.01275,-0.0283
-16.3,-1.7019,0.01956,0.01261,-0.0284
-16.2,-1.6904,0.01942,0.01247,-0.0285
-16.1,-1.6788,0.01929,0.01234,-0.0286
-16,-1.6672,0.01916,0.0122,-0.0287
-15.9,-1.6556,0.01904,0.01207,-0.0288
-15.8,-1.644,0.01891,0.01194,-0.0288
-15.7,-1.6323,0.01879,0.01181,-0.0289
-15.6,-1.6206,0.01868,0.01169,-0.029
-15.5,-1.609,0.01853,0.01153,-0.0291
-15.4,-1.5973,0.01838,0.01139,-0.0293
-15.3,-1.5856,0.01823,0.01124,-0.0294
-15.2,-1.5739,0.01809,0.01111,-0.0295
-15.1,-1.5622,0.01795,0.01097,-0.0296
-15,-1.5504,0.01782,0.01084,-0.0297
-14.9,-1.5386,0.01769,0.01071,-0.0298
-14.8,-1.5268,0.01756,0.01058,-0.0299
-14.7,-1.515,0.01743,0.01046,-0.0301
-14.6,-1.5031,0.01731,0.01034,-0.0302
-14.5,-1.4912,0.01719,0.01022,-0.0303
-14.4,-1.4793,0.01707,0.0101,-0.0304
-14.3,-1.4674,0.01696,0.00998,-0.0305
-14.2,-1.4554,0.01685,0.00987,-0.0306
-14.1,-1.4434,0.01674,0.00975,-0.0307
-14,-1.4315,0.01663,0.00964,-0.0308
-13.9,-1.4195,0.01653,0.00953,-0.031
-13.8,-1.4075,0.01639,0.0094,-0.0311
-13.7,-1.3955,0.01626,0.00927,-0.0312
-13.6,-1.3834,0.01613,0.00915,-0.0314
-13.5,-1.3714,0.01601,0.00904,-0.0315
-13.4,-1.3593,0.01589,0.00892,-0.0316
-13.3,-1.3472,0.01577,0.00881,-0.0318
-13.2,-1.3352,0.01566,0.0087,-0.0319
-13.1,-1.323,0.01555,0.0086,-0.032
-13,-1.3109,0.01544,0.00849,-0.0321
-12.9,-1.2988,0.01533,0.00839,-0.0323
-12.8,-1.2866,0.01523,0.00828,-0.0324
-12.7,-1.2745,0.01513,0.00819,-0.0325
-12.6,-1.2623,0.01503,0.00809,-0.0327
-12.5,-1.2501,0.01494,0.00799,-0.0328
-12.4,-1.2379,0.01482,0.00788,-0.0329
-12.3,-1.2257,0.0147,0.00777,-0.0331
-12.2,-1.2134,0.01458,0.00767,-0.0332
-12.1,-1.2012,0.01447,0.00757,-0.0334
-12,-1.189,0.01436,0.00747,-0.0335
-11.9,-1.1767,0.01426,0.00737,-0.0337
-11.8,-1.1644,0.01416,0.00727,-0.0338
-11.7,-1.1521,0.01406,0.00718,-0.0339
-11.6,-1.1398,0.01397,0.00709,-0.0341
-11.5,-1.1275,0.01387,0.007,-0.0342
-11.4,-1.1152,0.01378,0.00691,-0.0344
-11.3,-1.1029,0.0137,0.00683,-0.0345
-11.2,-1.0905,0.01361,0.00673,-0.0346
-11.1,-1.0782,0.01347,0.00663,-0.0348
-11,-1.0659,0.01337,0.00654,-0.035
-10.9,-1.0535,0.01327,0.00645,-0.0351
-10.8,-1.0411,0.01317,0.00636,-0.0353
-10.7,-1.0287,0.01308,0.00628,-0.0354
-10.6,-1.0163,0.01299,0.0062,-0.0356
-10.5,-1.0039,0.0129,0.00612,-0.0357
-10.4,-0.9915,0.01282,0.00604,-0.0359
-10.3,-0.9791,0.01273,0.00596,-0.036
-10.2,-0.9667,0.01265,0.00588,-0.0362
-10.1,-0.9543,0.01255,0.00579,-0.0363
-10,-0.9418,0.01243,0.0057,-0.0365
-9.9,-0.9294,0.01234,0.00562,-0.0367
-9.8,-0.9169,0.01225,0.00554,-0.0368
-9.7,-0.9045,0.01216,0.00547,-0.037
-9.6,-0.892,0.01208,0.00539,-0.0371
-9.5,-0.8789,0.01202,0.00534,-0.0374
-9.4,-0.8654,0.01196,0.00528,-0.0378
-9.3,-0.8518,0.01191,0.00523,-0.0382
-9.1,-0.8285,0.01191,0.00516,-0.038
-9,-0.8172,0.01189,0.00511,-0.0378
-8.9,-0.8056,0.01187,0.00505,-0.0378
-8.8,-0.7939,0.01185,0.00499,-0.0377
-8.7,-0.782,0.01182,0.00494,-0.0377
-8.6,-0.7699,0.0118,0.00488,-0.0378
-8.5,-0.7578,0.01177,0.00482,-0.0379
-8.4,-0.7456,0.01172,0.00475,-0.038
-8.3,-0.7333,0.01168,0.00469,-0.0381
-8.2,-0.721,0.01163,0.00463,-0.0382
-8.1,-0.709,0.01164,0.00458,-0.0382
-8,-0.6965,0.01159,0.00452,-0.0384
-7.9,-0.6841,0.01156,0.00447,-0.0385
-7.8,-0.6716,0.01152,0.00442,-0.0387
-7.7,-0.6592,0.01148,0.00436,-0.0388
-7.6,-0.6467,0.01142,0.0043,-0.039
-7.5,-0.6342,0.01134,0.00424,-0.0391
-7.4,-0.6216,0.01129,0.00419,-0.0393
-7.3,-0.6091,0.01125,0.00414,-0.0394
-7.2,-0.5966,0.01122,0.00409,-0.0396
-7.1,-0.5841,0.01117,0.00405,-0.0398
-7,-0.5716,0.01114,0.00399,-0.0399
-6.9,-0.559,0.01108,0.00394,-0.0401
-6.8,-0.5465,0.01103,0.0039,-0.0403
-6.7,-0.5339,0.01097,0.00385,-0.0404
-6.6,-0.5213,0.01093,0.00381,-0.0406
-6.5,-0.5087,0.01089,0.00376,-0.0408
-6.4,-0.4961,0.01083,0.00371,-0.0409
-6.3,-0.4835,0.01078,0.00366,-0.0411
-6.2,-0.4709,0.01073,0.00363,-0.0413
-6.1,-0.4584,0.01071,0.00359,-0.0415
-6,-0.4459,0.01071,0.00356,-0.0416
-5.9,-0.4333,0.01067,0.00352,-0.0418
-5.8,-0.4207,0.0106,0.00347,-0.042
-5.7,-0.4082,0.01058,0.00343,-0.0421
-5.6,-0.3956,0.01055,0.0034,-0.0423
-5.5,-0.3829,0.0105,0.00337,-0.0425
-5.4,-0.3703,0.01047,0.00332,-0.0427
-5.3,-0.3576,0.01041,0.00329,-0.0428
-5.2,-0.345,0.01036,0.00325,-0.043
-5.1,-0.3325,0.01035,0.00323,-0.0432
-5,-0.3199,0.01032,0.00319,-0.0434
-4.9,-0.3072,0.01028,0.00315,-0.0436
-4.8,-0.2945,0.01023,0.00312,-0.0438
-4.7,-0.2819,0.01019,0.00309,-0.0439
-4.6,-0.2693,0.01017,0.00307,-0.0441
-4.5,-0.2566,0.01013,0.00304,-0.0443
-4.4,-0.2441,0.0101,0.00301,-0.0445
-4.3,-0.2314,0.01007,0.00298,-0.0447
-4.2,-0.2188,0.01004,0.00296,-0.0449
-4.1,-0.2061,0.01002,0.00293,-0.045
-4,-0.1935,0.00998,0.0029,-0.0452
-3.9,-0.1808,0.00994,0.00288,-0.0454
-3.8,-0.1681,0.00991,0.00285,-0.0456
-3.7,-0.1555,0.00988,0.00283,-0.0458
-3.6,-0.1429,0.00986,0.00281,-0.046
-3.5,-0.1303,0.00984,0.00279,-0.0462
-3.4,-0.1176,0.00982,0.00277,-0.0464
-3.3,-0.105,0.0098,0.00275,-0.0465
-3.2,-0.0923,0.00974,0.00272,-0.0468
-3.1,-0.0796,0.00972,0.00271,-0.047
-3,-0.067,0.00971,0.00269,-0.0471
-2.9,-0.0545,0.00973,0.00268,-0.0473
-2.8,-0.0418,0.0097,0.00267,-0.0475
-2.7,-0.0292,0.00969,0.00265,-0.0477
-2.6,-0.0167,0.00971,0.00265,-0.0479
-2.5,-0.004,0.00967,0.00263,-0.0481
-2.4,0.0086,0.00967,0.00262,-0.0483
-2.3,0.0212,0.00966,0.00261,-0.0485
-2.2,0.0339,0.00965,0.0026,-0.0487
-2.1,0.0465,0.00964,0.00259,-0.0489
-2,0.0591,0.00962,0.00258,-0.0491
-1.9,0.0718,0.00962,0.00258,-0.0493
-1.8,0.0844,0.0096,0.00257,-0.0495
-1.7,0.0969,0.00963,0.00257,-0.0496
-1.6,0.1095,0.00963,0.00257,-0.0498
-1.5,0.1219,0.00969,0.00258,-0.05
-1.4,0.1345,0.0097,0.00258,-0.0503
-1.3,0.147,0.00971,0.00259,-0.0504
-1.2,0.1596,0.00974,0.00259,-0.0506
-1.1,0.172,0.00978,0.0026,-0.0508
-1,0.1845,0.00982,0.00261,-0.051
-0.9,0.1971,0.00985,0.00262,-0.0512
-0.8,0.2096,0.00986,0.00263,-0.0515
-0.7,0.2221,0.00991,0.00264,-0.0517
-0.6,0.2345,0.00997,0.00267,-0.0518
-0.5,0.2469,0.01004,0.00269,-0.0521
-0.4,0.2589,0.01023,0.00275,-0.0523
-0.3,0.2712,0.01032,0.00278,-0.0525
-0.2,0.2836,0.01041,0.00282,-0.0527
0,0.3084,0.01054,0.00287,-0.0531
0.1,0.3209,0.01059,0.0029,-0.0533
0.2,0.3334,0.01059,0.00291,-0.0536
0.3,0.346,0.01062,0.00293,-0.0537
0.4,0.3585,0.01065,0.00295,-0.0539
0.5,0.371,0.01069,0.00298,-0.0541
0.6,0.3835,0.01071,0.003,-0.0543
0.7,0.396,0.01074,0.00302,-0.0545
0.8,0.4086,0.01074,0.00303,-0.0548
0.9,0.4211,0.01077,0.00305,-0.0549
1,0.4336,0.01079,0.00308,-0.0551
1.1,0.4461,0.01082,0.00311,-0.0553
1.2,0.4587,0.01081,0.00312,-0.0556
1.3,0.4713,0.01083,0.00314,-0.0557
1.4,0.4838,0.01085,0.00316,-0.0559
1.5,0.4963,0.01087,0.00318,-0.0561
1.6,0.5089,0.01089,0.00321,-0.0563
1.7,0.5214,0.0109,0.00323,-0.0565
1.8,0.5339,0.01093,0.00325,-0.0567
1.9,0.5464,0.01097,0.00328,-0.0569
2,0.5588,0.011,0.00332,-0.0571
2.1,0.5714,0.01102,0.00334,-0.0573
2.2,0.5839,0.01102,0.00336,-0.0575
2.3,0.5964,0.01104,0.00339,-0.0577
2.4,0.6089,0.01107,0.00342,-0.0579
2.5,0.6214,0.0111,0.00345,-0.0581
2.6,0.6338,0.01114,0.00348,-0.0582
2.7,0.6463,0.01115,0.00351,-0.0585
2.8,0.6588,0.01119,0.00354,-0.0586
2.9,0.6712,0.01122,0.00358,-0.0588
3,0.6837,0.01124,0.00361,-0.059
3.1,0.6962,0.01127,0.00364,-0.0592
3.2,0.7086,0.0113,0.00367,-0.0594
3.4,0.7335,0.01135,0.00374,-0.0598
3.5,0.7459,0.01138,0.00378,-0.0599
3.6,0.7583,0.01142,0.00381,-0.0601
3.7,0.7707,0.01147,0.00385,-0.0603
3.8,0.7831,0.01148,0.00389,-0.0605
3.9,0.7955,0.01153,0.00394,-0.0607
4,0.8079,0.01156,0.00398,-0.0609
4.1,0.8203,0.01159,0.00402,-0.061
4.2,0.8327,0.01162,0.00406,-0.0612
4.3,0.8451,0.01165,0.0041,-0.0614
4.4,0.8575,0.01167,0.00414,-0.0616
4.5,0.8698,0.01171,0.00419,-0.0617
4.6,0.8822,0.01175,0.00423,-0.0619
4.7,0.8944,0.01181,0.00428,-0.0621
4.8,0.9067,0.01184,0.00433,-0.0622
4.9,0.919,0.0119,0.00437,-0.0624
5,0.9312,0.01196,0.00442,-0.0626
5.1,0.9435,0.01201,0.00448,-0.0627
5.2,0.9558,0.01205,0.00452,-0.0629
5.3,0.9681,0.01207,0.00457,-0.063
5.4,0.9803,0.01211,0.00462,-0.0632
5.5,0.9926,0.01216,0.00467,-0.0633
5.6,1.0049,0.01221,0.00472,-0.0635
5.7,1.0171,0.01226,0.00477,-0.0636
5.8,1.0292,0.0123,0.00482,-0.0638
5.9,1.0414,0.01236,0.00488,-0.0639
6,1.0536,0.01241,0.00493,-0.0641
6.1,1.0658,0.01247,0.00499,-0.0642
6.2,1.0778,0.01254,0.00505,-0.0643
6.3,1.0899,0.01261,0.0051,-0.0645
6.4,1.102,0.01266,0.00517,-0.0646
6.5,1.1142,0.01271,0.00522,-0.0648
6.6,1.1263,0.01276,0.00527,-0.0649
6.7,1.1385,0.01281,0.00533,-0.065
6.8,1.1504,0.01285,0.00539,-0.0651
6.9,1.1625,0.0129,0.00545,-0.0653
7,1.1746,0.01296,0.00551,-0.0654
7.1,1.1867,0.01303,0.00556,-0.0655
7.2,1.1987,0.01309,0.00562,-0.0656
7.3,1.2105,0.01313,0.00569,-0.0657
7.4,1.2225,0.0132,0.00575,-0.0658
7.5,1.2344,0.01327,0.00581,-0.066
7.6,1.2463,0.01334,0.00588,-0.0661
7.7,1.2581,0.01343,0.00594,-0.0662
7.8,1.2697,0.01348,0.00602,-0.0662
7.9,1.2816,0.01353,0.00608,-0.0663
8,1.2934,0.01358,0.00614,-0.0664
8.1,1.3053,0.01364,0.0062,-0.0665
8.2,1.3172,0.0137,0.00626,-0.0666
8.3,1.3283,0.01373,0.00632,-0.0665
8.4,1.34,0.01379,0.00639,-0.0666
8.5,1.3516,0.01385,0.00645,-0.0666
8.6,1.3631,0.01391,0.00651,-0.0666
8.7,1.3747,0.01397,0.00658,-0.0667
8.8,1.3848,0.014,0.00662,-0.0664
8.9,1.3961,0.01406,0.00668,-0.0664
9,1.407,0.01411,0.00674,-0.0663
9.1,1.4181,0.01418,0.0068,-0.0662
9.2,1.4289,0.01423,0.00685,-0.0661
9.3,1.4401,0.01425,0.00686,-0.066
9.4,1.4519,0.01434,0.00695,-0.0662
9.5,1.4639,0.01441,0.00702,-0.0663
9.6,1.4758,0.01448,0.00709,-0.0665
9.7,1.4878,0.01456,0.00717,-0.0666
9.8,1.4997,0.01464,0.00724,-0.0668
9.9,1.5116,0.01472,0.00732,-0.0669
10,1.5234,0.0148,0.00739,-0.067
10.1,1.5353,0.01489,0.00747,-0.0672
10.2,1.5471,0.01497,0.00755,-0.0673
10.3,1.5589,0.01506,0.00763,-0.0674
10.4,1.5707,0.01515,0.00771,-0.0676
10.5,1.5825,0.01525,0.0078,-0.0677
10.6,1.5942,0.01534,0.00788,-0.0678
10.7,1.6059,0.01544,0.00797,-0.068
10.8,1.6176,0.01555,0.00805,-0.0681
10.9,1.6293,0.01565,0.00814,-0.0682
11,1.6409,0.01575,0.00824,-0.0684
11.1,1.6527,0.01583,0.00832,-0.0685
11.2,1.6644,0.01591,0.0084,-0.0686
11.3,1.6761,0.01599,0.00849,-0.0688
11.4,1.6878,0.01608,0.00857,-0.0689
11.5,1.6995,0.01617,0.00866,-0.069
11.6,1.7111,0.01626,0.00875,-0.0691
11.7,1.7227,0.01635,0.00884,-0.0693
11.8,1.7343,0.01644,0.00892,-0.0694
11.9,1.7459,0.01654,0.00901,-0.0695
12,1.7575,0.01663,0.00911,-0.0696
12.1,1.769,0.01673,0.0092,-0.0697
12.2,1.7805,0.01684,0.00929,-0.0698
12.3,1.792,0.01694,0.00939,-0.07
12.4,1.8034,0.01705,0.00949,-0.0701
12.5,1.8149,0.01716,0.00959,-0.0702
12.6,1.8262,0.01728,0.00969,-0.0703
12.7,1.8375,0.01739,0.0098,-0.0704
12.8,1.849,0.01748,0.0099,-0.0705
12.9,1.8604,0.01757,0.00999,-0.0706
13,1.8719,0.01766,0.01008,-0.0707
13.1,1.8833,0.01775,0.01018,-0.0708
13.2,1.8947,0.01785,0.01028,-0.0709
13.3,1.906,0.01795,0.01038,-0.071
13.4,1.9174,0.01804,0.01048,-0.0711
13.5,1.9287,0.01814,0.01058,-0.0712
13.6,1.9399,0.01825,0.01068,-0.0713
13.7,1.9512,0.01835,0.01078,-0.0714
13.8,1.9624,0.01846,0.01089,-0.0715
13.9,1.9736,0.01857,0.01099,-0.0716
14,1.9847,0.01868,0.0111,-0.0717
14.1,1.9959,0.01879,0.01121,-0.0718
14.2,2.0069,0.01891,0.01132,-0.0719
14.3,2.018,0.01903,0.01144,-0.072
14.4,2.029,0.01916,0.01155,-0.072
14.5,2.0399,0.01928,0.01167,-0.0721
14.6,2.0509,0.01941,0.0118,-0.0722
14.7,2.0619,0.01951,0.0119,-0.0723
14.8,2.073,0.0196,0.01201,-0.0723
14.9,2.0841,0.0197,0.01211,-0.0724
15,2.0951,0.01981,0.01222,-0.0725
15.1,2.1061,0.01991,0.01233,-0.0726
15.2,2.117,0.02002,0.01245,-0.0726
15.3,2.1279,0.02013,0.01256,-0.0727
15.4,2.1388,0.02024,0.01268,-0.0728
15.5,2.1496,0.02035,0.01279,-0.0728
15.6,2.1604,0.02047,0.01291,-0.0729
15.7,2.1712,0.02058,0.01303,-0.0729
15.8,2.1819,0.0207,0.01315,-0.073
15.9,2.1926,0.02082,0.01327,-0.073
16,2.2032,0.02095,0.0134,-0.0731
16.1,2.2139,0.02108,0.01352,-0.0731
16.2,2.2244,0.02121,0.01365,-0.0732
16.3,2.235,0.02134,0.01378,-0.0732
16.4,2.2454,0.02148,0.01392,-0.0732
16.5,2.2557,0.02162,0.01406,-0.0733
16.6,2.2659,0.02177,0.01421,-0.0733
16.7,2.2765,0.02187,0.01432,-0.0733
16.8,2.287,0.02198,0.01444,-0.0733
16.9,2.2976,0.02209,0.01456,-0.0734
17,2.308,0.02221,0.01469,-0.0734
17.1,2.3184,0.02232,0.01481,-0.0734
17.2,2.3288,0.02244,0.01494,-0.0734
17.3,2.3391,0.02256,0.01507,-0.0734
17.4,2.3494,0.02268,0.0152,-0.0735
17.5,2.3596,0.02281,0.01534,-0.0735
17.6,2.3698,0.02293,0.01547,-0.0735
17.7,2.3799,0.02306,0.01561,-0.0735
17.8,2.3899,0.02319,0.01574,-0.0735
17.9,2.3999,0.02333,0.01588,-0.0734
18,2.4099,0.02347,0.01602,-0.0734
18.1,2.4197,0.0236,0.01617,-0.0734
18.2,2.4297,0.02375,0.01631,-0.0734
18.3,2.4394,0.0239,0.01646,-0.0734
18.4,2.4491,0.02404,0.01661,-0.0733
18.5,2.4587,0.0242,0.01676,-0.0733
18.6,2.4681,0.02435,0.01692,-0.0732
18.7,2.4776,0.02451,0.01709,-0.0732
18.8,2.4869,0.02468,0.01725,-0.0731
18.9,2.4966,0.02479,0.01739,-0.0731
19,2.5063,0.02491,0.01753,-0.073
19.1,2.516,0.02503,0.01767,-0.073
19.2,2.5256,0.02516,0.01781,-0.0729
19.3,2.5351,0.02529,0.01795,-0.0729
19.4,2.5445,0.02543,0.0181,-0.0728
19.5,2.5538,0.02556,0.01825,-0.0727
19.6,2.5631,0.0257,0.0184,-0.0726
19.7,2.5722,0.02584,0.01856,-0.0725
19.8,2.5814,0.02598,0.01871,-0.0725
19.9,2.5904,0.02613,0.01887,-0.0724
20,2.5994,0.02627,0.01903,-0.0723
20.1,2.6082,0.02643,0.01919,-0.0722
20.2,2.617,0.02658,0.01935,-0.072
20.3,2.6258,0.02673,0.01952,-0.0719
20.4,2.6344,0.02689,0.01968,-0.0718
20.5,2.6429,0.02706,0.01985,-0.0716
20.6,2.6512,0.02722,0.02002,-0.0715
20.8,2.6668,0.0276,0.0204,-0.0711
20.9,2.6746,0.02778,0.02059,-0.0709
21,2.6823,0.02796,0.02079,-0.0707
21.1,2.69,0.02815,0.02099,-0.0705
21.2,2.6984,0.02828,0.02115,-0.0703
21.3,2.7066,0.02841,0.02131,-0.0702
21.4,2.7146,0.02855,0.02147,-0.07
21.5,2.7225,0.0287,0.02163,-0.0698
21.6,2.7303,0.02885,0.0218,-0.0695
21.7,2.7378,0.029,0.02197,-0.0693
21.8,2.7452,0.02915,0.02214,-0.069
21.9,2.7524,0.0293,0.02232,-0.0688
22,2.7594,0.02946,0.02249,-0.0685
22.1,2.7662,0.02962,0.02267,-0.0682
22.2,2.7729,0.02978,0.02285,-0.0678
22.3,2.7794,0.02995,0.02304,-0.0675
22.4,2.7857,0.03011,0.02323,-0.0672
22.5,2.7916,0.03028,0.02342,-0.0668
22.6,2.7977,0.03045,0.02361,-0.0665
22.7,2.8035,0.03063,0.0238,-0.0661
22.8,2.8091,0.03081,0.024,-0.0657
22.9,2.8145,0.03099,0.0242,-0.0653
23,2.8188,0.03118,0.0244,-0.0648
23.1,2.8218,0.03137,0.02461,-0.0641
23.2,2.8249,0.03157,0.02484,-0.0634
23.3,2.8285,0.03179,0.02507,-0.0629
23.4,2.8314,0.03205,0.02534,-0.0625
23.5,2.8356,0.03227,0.02559,-0.0623
23.6,2.8406,0.0325,0.02583,-0.0622
23.7,2.8458,0.03272,0.02607,-0.0622
23.8,2.8512,0.03295,0.02633,-0.0622
23.9,2.8581,0.03311,0.02652,-0.0623
24,2.8652,0.03327,0.02671,-0.0625
24.1,2.8722,0.03344,0.02691,-0.0627
24.2,2.8792,0.03361,0.02711,-0.0629
24.3,2.8864,0.03378,0.02731,-0.0632
24.4,2.8936,0.03396,0.02751,-0.0635
24.5,2.9009,0.03414,0.02772,-0.0639
24.6,2.9083,0.03432,0.02792,-0.0643
24.7,2.9157,0.0345,0.02813,-0.0648
24.8,2.9232,0.03468,0.02834,-0.0653
24.9,2.9308,0.03487,0.02855,-0.0658
25,2.9384,0.03506,0.02876,-0.0664
25.1,2.9461,0.03525,0.02898,-0.067
25.2,2.9538,0.03545,0.0292,-0.0677
25.3,2.9616,0.03565,0.02942,-0.0684
25.4,2.9697,0.03585,0.02965,-0.0692
25.5,2.9775,0.03605,0.02987,-0.0699
25.6,2.9854,0.03626,0.0301,-0.0708
25.7,2.9932,0.03648,0.03034,-0.0717
25.8,3.0008,0.03675,0.03061,-0.0728
25.9,3.0086,0.03698,0.03087,-0.0738
26,3.0164,0.03723,0.03113,-0.0749
26.1,3.0242,0.0375,0.03142,-0.0761
26.2,3.0319,0.03776,0.03171,-0.0773
26.3,3.0396,0.03804,0.03201,-0.0785
26.4,3.0473,0.03832,0.03232,-0.0798
26.5,3.0554,0.03852,0.03255,-0.0807
26.6,3.0635,0.03873,0.0328,-0.0817
26.7,3.0719,0.03896,0.03307,-0.0828
26.8,3.0797,0.03919,0.03334,-0.0839
26.9,3.0875,0.03944,0.03361,-0.085
27,3.0952,0.0397,0.03391,-0.0862
27.1,3.1028,0.03996,0.03421,-0.0875
27.2,3.1103,0.04025,0.03452,-0.0888
27.3,3.1176,0.04055,0.03485,-0.0901
27.4,3.1248,0.04086,0.0352,-0.0915
27.5,3.1319,0.04119,0.03556,-0.093
27.6,3.1384,0.04159,0.03599,-0.0948
27.7,3.145,0.04197,0.03641,-0.0964
27.8,3.1514,0.04239,0.03685,-0.0982
27.9,3.1575,0.04283,0.03734,-0.1001
28,3.1633,0.04326,0.03779,-0.1018
28.1,3.1691,0.04388,0.03845,-0.1043
28.2,3.1742,0.04444,0.03904,-0.1065
28.3,3.1789,0.04508,0.03972,-0.1089
28.4,3.1809,0.04613,0.04081,-0.1128
28.5,3.184,0.04696,0.0417,-0.1158
28.6,3.1875,0.04773,0.04253,-0.1184
28.7,3.1914,0.04841,0.04327,-0.1207
28.8,3.1946,0.04917,0.0441,-0.1232
28.9,3.1975,0.04998,0.04496,-0.1258
29,3.1994,0.05092,0.04597,-0.1288
29.1,3.2004,0.05197,0.0471,-0.1321
29.2,3.2008,0.05311,0.04831,-0.1355
29.3,3.2001,0.05438,0.04966,-0.1392
29.4,3.1976,0.0559,0.05127,-0.1435
29.5,3.1936,0.05763,0.0531,-0.1483
29.6,3.1877,0.05963,0.05522,-0.1537
29.7,3.1783,0.06218,0.0579,-0.1603
29.8,3.1619,0.06583,0.06173,-0.1694
29.9,3.1446,0.06966,0.06573,-0.1785
30,3.1168,0.07505,0.07133,-0.1914

