airfoilName st4.dat
Re 	370000
M 	0
N 	4.500000e+00
VACC 	0 VACCflag 1
XTR 	1.00 	1.00 XTRflag 0
alpha,cl,cd,cdp,cm
-27.1,-2.6155,0.11691,0.11324,0.1923
-27,-2.6104,0.11606,0.11241,0.1911
-26.9,-2.6056,0.11503,0.1114,0.1896
-26.8,-2.6007,0.11396,0.11034,0.1881
-26.7,-2.5962,0.11277,0.10915,0.1864
-26.6,-2.5919,0.1115,0.10789,0.1845
-26.5,-2.5876,0.11015,0.10654,0.1826
-26.4,-2.5837,0.10864,0.10504,0.1804
-26.3,-2.5799,0.10703,0.10342,0.178
-26.2,-2.5764,0.10525,0.10163,0.1753
-26.1,-2.5734,0.10324,0.0996,0.1723
-26,-2.5714,0.10073,0.09706,0.1684
-25.9,-2.5694,0.09819,0.09447,0.1644
-25.8,-2.5671,0.09581,0.09205,0.1606
-25.7,-2.5656,0.09303,0.08921,0.156
-25.6,-2.5646,0.09002,0.08613,0.1508
-25.5,-2.5626,0.08754,0.08358,0.1463
-25.4,-2.5617,0.08446,0.08041,0.1405
-25.3,-2.5596,0.08202,0.07788,0.1355
-25.2,-2.5579,0.07937,0.07514,0.1299
-25.1,-2.5559,0.07694,0.07262,0.1243
-25,-2.5536,0.07464,0.07022,0.1187
-24.9,-2.551,0.07243,0.06792,0.1129
-24.8,-2.548,0.07026,0.06564,0.1068
-24.7,-2.5443,0.06829,0.06357,0.1011
-24.6,-2.5404,0.06617,0.06133,0.0949
-24.5,-2.5357,0.06429,0.05934,0.0893
-24.4,-2.5307,0.06234,0.05727,0.0836
-24.3,-2.5253,0.06038,0.05518,0.0779
-24.2,-2.5193,0.05855,0.05322,0.0726
-24.1,-2.5124,0.05708,0.05171,0.0681
-24,-2.5051,0.05563,0.05022,0.0636
-23.9,-2.4974,0.05421,0.04875,0.0591
-23.8,-2.4892,0.05277,0.04726,0.0546
-23.7,-2.4806,0.05136,0.04579,0.0501
-23.6,-2.4713,0.05001,0.04438,0.0457
-23.5,-2.4615,0.04876,0.04307,0.0414
-23.4,-2.4512,0.04761,0.04186,0.0375
-23.3,-2.4405,0.04655,0.04074,0.0337
-23.2,-2.4293,0.04558,0.03972,0.0302
-23.1,-2.4179,0.0447,0.03879,0.0269
-23,-2.4058,0.04389,0.03792,0.0236
-22.9,-2.394,0.04316,0.03714,0.0207
-22.8,-2.3819,0.0425,0.03643,0.018
-22.7,-2.3698,0.04189,0.03576,0.0154
-22.6,-2.3575,0.04132,0.03514,0.013
-22.5,-2.3452,0.0408,0.03457,0.0107
-22.4,-2.3329,0.04031,0.03402,0.0085
-22.3,-2.3205,0.03984,0.03351,0.0064
-22.2,-2.3081,0.03941,0.03302,0.0044
-22.1,-2.2957,0.039,0.03256,0.0025
-22,-2.2834,0.03862,0.03213,0.0007
-21.9,-2.271,0.03825,0.0317,-0.001
-21.8,-2.2587,0.0379,0.0313,-0.0027
-21.7,-2.2465,0.03757,0.03092,-0.0042
-21.6,-2.2344,0.03725,0.03055,-0.0057
-21.5,-2.2224,0.03695,0.03019,-0.0072
-21.4,-2.2104,0.03666,0.02984,-0.0085
-21.3,-2.1986,0.03639,0.02951,-0.0098
-21.2,-2.1867,0.03607,0.02918,-0.0113
-21.1,-2.1749,0.03575,0.02885,-0.0127
-21,-2.1634,0.03545,0.02854,-0.0141
-20.8,-2.141,0.03488,0.02793,-0.0165
-20.7,-2.1304,0.03461,0.02764,-0.0175
-20.6,-2.1202,0.03435,0.02736,-0.0184
-20.5,-2.1105,0.0341,0.02709,-0.0192
-20.4,-2.1013,0.03385,0.02682,-0.0198
-20.3,-2.0923,0.03362,0.02656,-0.0203
-20.2,-2.083,0.03337,0.0263,-0.0208
-20.1,-2.0738,0.03313,0.02603,-0.0212
-20,-2.0645,0.03288,0.02576,-0.0215
-19.9,-2.0552,0.03264,0.02549,-0.0219
-19.7,-2.0364,0.03221,0.025,-0.0225
-19.6,-2.027,0.03197,0.02474,-0.0227
-19.5,-2.0175,0.03174,0.02447,-0.023
-19.4,-2.008,0.0315,0.0242,-0.0232
-19.3,-1.9984,0.03127,0.02394,-0.0234
-19.2,-1.9887,0.03104,0.02367,-0.0236
-19.1,-1.979,0.03081,0.02341,-0.0238
-19,-1.9692,0.03059,0.02315,-0.024
-18.9,-1.9593,0.03037,0.02289,-0.0242
-18.8,-1.9494,0.03015,0.02264,-0.0243
-18.7,-1.9394,0.02994,0.02239,-0.0244
-18.6,-1.9295,0.0297,0.02213,-0.0246
-18.5,-1.9197,0.02943,0.02186,-0.0248
-18.4,-1.9098,0.02918,0.0216,-0.025
-18.3,-1.8998,0.02893,0.02135,-0.0252
-18.2,-1.8898,0.02869,0.0211,-0.0253
-18.1,-1.8796,0.02846,0.02086,-0.0255
-18,-1.8694,0.02823,0.02062,-0.0256
-17.9,-1.8591,0.02801,0.02039,-0.0258
-17.8,-1.8488,0.02779,0.02016,-0.0259
-17.7,-1.8384,0.02758,0.01993,-0.026
-17.6,-1.828,0.02737,0.0197,-0.0261
-17.5,-1.8174,0.02716,0.01947,-0.0263
-17.4,-1.8069,0.02695,0.01924,-0.0264
-17.3,-1.7963,0.02675,0.01902,-0.0265
-17.2,-1.7856,0.02655,0.0188,-0.0266
-17.1,-1.7749,0.02635,0.01858,-0.0267
-17,-1.7641,0.02615,0.01836,-0.0268
-16.9,-1.7533,0.02596,0.01815,-0.0269
-16.8,-1.7424,0.02577,0.01793,-0.027
-16.7,-1.7314,0.02563,0.01775,-0.0271
-16.6,-1.7204,0.02546,0.01754,-0.0272
-16.5,-1.7095,0.02527,0.01733,-0.0273
-16.4,-1.6986,0.02504,0.0171,-0.0274
-16.3,-1.6877,0.02481,0.01688,-0.0275
-16.2,-1.6767,0.0246,0.01667,-0.0277
-16.1,-1.6657,0.0244,0.01647,-0.0278
-16,-1.6546,0.0242,0.01627,-0.0279
-15.9,-1.6435,0.02401,0.01607,-0.028
-15.8,-1.6323,0.02382,0.01587,-0.0282
-15.7,-1.6211,0.02364,0.01568,-0.0283
-15.6,-1.6098,0.02346,0.01548,-0.0284
-15.5,-1.5985,0.02328,0.01529,-0.0285
-15.4,-1.5872,0.0231,0.01511,-0.0286
-15.3,-1.5758,0.02293,0.01492,-0.0287
-15.2,-1.5644,0.02276,0.01473,-0.0288
-15.1,-1.5529,0.0226,0.01455,-0.0289
-15,-1.5415,0.02243,0.01437,-0.0291
-14.9,-1.5299,0.02227,0.01419,-0.0292
-14.8,-1.5184,0.02212,0.01401,-0.0293
-14.7,-1.5068,0.02197,0.01383,-0.0294
-14.6,-1.4953,0.02179,0.01364,-0.0295
-14.5,-1.4838,0.02159,0.01347,-0.0297
-14.4,-1.4723,0.02141,0.0133,-0.0298
-14.3,-1.4607,0.02124,0.01313,-0.0299
-14.2,-1.449,0.02107,0.01296,-0.0301
-14.1,-1.4373,0.02091,0.01279,-0.0302
-14,-1.4256,0.02075,0.01262,-0.0303
-13.9,-1.4139,0.02059,0.01246,-0.0304
-13.8,-1.4021,0.02044,0.0123,-0.0306
-13.7,-1.3903,0.02029,0.01213,-0.0307
-13.6,-1.3785,0.02014,0.01197,-0.0308
-13.5,-1.3667,0.01999,0.01181,-0.0309
-13.4,-1.3548,0.01986,0.01166,-0.031
-13.3,-1.3429,0.01972,0.0115,-0.0312
-13.2,-1.331,0.01958,0.01135,-0.0313
-13.1,-1.3192,0.0194,0.01118,-0.0314
-13,-1.3073,0.01924,0.01103,-0.0316
-12.9,-1.2954,0.01908,0.01088,-0.0317
-12.8,-1.2834,0.01892,0.01072,-0.0319
-12.7,-1.2715,0.01878,0.0106,-0.032
-12.6,-1.2595,0.01864,0.01045,-0.0322
-12.5,-1.2475,0.0185,0.01031,-0.0323
-12.4,-1.2354,0.01837,0.01017,-0.0325
-12.3,-1.2234,0.01823,0.01003,-0.0326
-12.2,-1.2113,0.01811,0.00989,-0.0327
-12.1,-1.1992,0.01798,0.00975,-0.0328
-12,-1.1871,0.01787,0.00961,-0.033
-11.9,-1.175,0.0177,0.00946,-0.0331
-11.8,-1.1629,0.01755,0.00933,-0.0333
-11.7,-1.1508,0.01741,0.00919,-0.0335
-11.6,-1.1387,0.01727,0.00906,-0.0336
-11.5,-1.1265,0.01714,0.00893,-0.0338
-11.4,-1.1143,0.01701,0.00882,-0.0339
-11.3,-1.1021,0.01689,0.00869,-0.0341
-11.2,-1.0899,0.01677,0.00857,-0.0342
-11.1,-1.0777,0.01665,0.00844,-0.0343
-11,-1.0655,0.01655,0.00832,-0.0345
-10.9,-1.0532,0.01642,0.00819,-0.0346
-10.8,-1.041,0.01627,0.00806,-0.0348
-10.7,-1.0287,0.01614,0.00794,-0.035
-10.6,-1.0165,0.01601,0.00783,-0.0351
-10.5,-1.0042,0.01588,0.00771,-0.0353
-10.4,-0.9919,0.01577,0.0076,-0.0354
-10.3,-0.9796,0.01565,0.00748,-0.0356
-10.2,-0.9672,0.01554,0.00737,-0.0357
-10.1,-0.9549,0.01544,0.00726,-0.0359
-10,-0.9426,0.01533,0.00715,-0.036
-9.9,-0.9302,0.01519,0.00704,-0.0362
-9.8,-0.9179,0.01507,0.00693,-0.0364
-9.7,-0.9055,0.01495,0.00683,-0.0366
-9.6,-0.8931,0.01484,0.00672,-0.0367
-9.5,-0.8808,0.01473,0.00662,-0.0369
-9.4,-0.8684,0.01463,0.00652,-0.037
-9.3,-0.856,0.01453,0.00642,-0.0372
-9.2,-0.8435,0.01443,0.00632,-0.0373
-9.1,-0.8311,0.01431,0.00621,-0.0375
-9,-0.8187,0.01419,0.00611,-0.0377
-8.9,-0.8063,0.01408,0.00602,-0.0379
-8.8,-0.7939,0.01397,0.00593,-0.038
-8.7,-0.7814,0.01387,0.00583,-0.0382
-8.6,-0.7689,0.01377,0.00574,-0.0383
-8.5,-0.7565,0.01369,0.00565,-0.0385
-8.4,-0.744,0.01357,0.00555,-0.0387
-8.3,-0.7315,0.01345,0.00546,-0.0389
-8.2,-0.7191,0.01335,0.00537,-0.039
-8.1,-0.7066,0.01325,0.00529,-0.0392
-8,-0.6941,0.01316,0.0052,-0.0394
-7.9,-0.6816,0.01307,0.00512,-0.0395
-7.8,-0.6691,0.01297,0.00503,-0.0397
-7.7,-0.6566,0.01285,0.00495,-0.0399
-7.6,-0.644,0.01275,0.00487,-0.0401
-7.5,-0.6315,0.01266,0.00478,-0.0403
-7.4,-0.619,0.01257,0.00471,-0.0404
-7.3,-0.6065,0.01249,0.00463,-0.0406
-7.2,-0.5939,0.0124,0.00454,-0.0408
-7.1,-0.5814,0.01229,0.00447,-0.0409
-7,-0.5688,0.01218,0.0044,-0.0411
-6.9,-0.5563,0.0121,0.00432,-0.0413
-6.8,-0.5437,0.01202,0.00425,-0.0415
-6.7,-0.5312,0.01193,0.00417,-0.0417
-6.6,-0.5186,0.01183,0.0041,-0.0419
-6.5,-0.506,0.01174,0.00403,-0.042
-6.4,-0.4934,0.01165,0.00396,-0.0422
-6.3,-0.4809,0.01157,0.0039,-0.0424
-6.2,-0.4683,0.01147,0.00382,-0.0426
-6.1,-0.4553,0.01139,0.00376,-0.0429
-6,-0.4414,0.01132,0.00373,-0.0433
-5.9,-0.4272,0.01127,0.00369,-0.0438
-5.8,-0.4127,0.01124,0.00366,-0.0444
-5.7,-0.3986,0.01119,0.00363,-0.0449
-5.6,-0.3852,0.01117,0.00361,-0.0451
-5.5,-0.373,0.01116,0.0036,-0.0452
-5.4,-0.3613,0.01118,0.00358,-0.045
-5.3,-0.3509,0.01125,0.00357,-0.0446
-5.2,-0.3391,0.01124,0.00354,-0.0446
-5.1,-0.3273,0.01124,0.00351,-0.0446
-5,-0.3162,0.01132,0.00349,-0.0444
-4.9,-0.3047,0.01139,0.00347,-0.0443
-4.8,-0.2924,0.01135,0.00343,-0.0444
-4.7,-0.28,0.01131,0.0034,-0.0445
-4.6,-0.2677,0.01129,0.00336,-0.0446
-4.5,-0.2556,0.01131,0.00333,-0.0447
-4.4,-0.2432,0.01128,0.0033,-0.0448
-4.3,-0.2307,0.01125,0.00327,-0.045
-4.2,-0.2185,0.01127,0.00324,-0.0451
-4.1,-0.2062,0.01123,0.00321,-0.0452
-4,-0.1936,0.0112,0.00318,-0.0454
-3.9,-0.1814,0.01123,0.00316,-0.0455
-3.8,-0.1688,0.01118,0.00313,-0.0457
-3.7,-0.1562,0.01114,0.0031,-0.0459
-3.6,-0.1436,0.01111,0.00307,-0.046
-3.5,-0.1311,0.01106,0.00303,-0.0462
-3.4,-0.1186,0.01104,0.00301,-0.0464
-3.3,-0.1059,0.011,0.00299,-0.0466
-3.2,-0.0935,0.01101,0.00297,-0.0467
-3.1,-0.0809,0.01097,0.00294,-0.0469
-3,-0.0684,0.01095,0.00292,-0.0471
-2.9,-0.0558,0.01091,0.00289,-0.0473
-2.8,-0.0432,0.01087,0.00287,-0.0475
-2.7,-0.0306,0.01085,0.00286,-0.0477
-2.6,-0.0181,0.01084,0.00284,-0.0478
-2.5,-0.0055,0.01081,0.00282,-0.048
-2.4,0.0069,0.01082,0.00281,-0.0482
-2.3,0.0195,0.01079,0.00279,-0.0484
-2.2,0.0321,0.01076,0.00278,-0.0486
-2.1,0.0447,0.01073,0.00276,-0.0487
-2,0.0573,0.01072,0.00274,-0.0489
-1.9,0.0699,0.01069,0.00273,-0.0491
-1.8,0.0824,0.01068,0.00273,-0.0493
-1.7,0.095,0.01065,0.00271,-0.0495
-1.6,0.1076,0.01063,0.0027,-0.0497
-1.5,0.1201,0.01063,0.00269,-0.0499
-1.4,0.1326,0.01064,0.00269,-0.05
-1.3,0.1451,0.01063,0.00269,-0.0502
-1.2,0.1576,0.01062,0.00268,-0.0504
-1.1,0.17,0.01063,0.00268,-0.0506
-1,0.1825,0.01064,0.00268,-0.0507
-0.9,0.1951,0.01063,0.00268,-0.0509
-0.8,0.2075,0.01065,0.00268,-0.0511
-0.7,0.22,0.01063,0.00268,-0.0513
-0.6,0.2326,0.01063,0.00268,-0.0515
-0.5,0.2451,0.01064,0.00269,-0.0517
-0.4,0.2575,0.01065,0.0027,-0.0518
-0.3,0.2698,0.01071,0.00271,-0.052
-0.2,0.2822,0.0107,0.00272,-0.0522
0,0.3071,0.01075,0.00275,-0.0525
0.1,0.3195,0.01077,0.00276,-0.0527
0.2,0.3319,0.01082,0.00279,-0.0529
0.3,0.3443,0.01081,0.00279,-0.0531
0.4,0.3566,0.01087,0.00282,-0.0532
0.5,0.3689,0.01091,0.00284,-0.0534
0.6,0.3812,0.01097,0.00287,-0.0536
0.7,0.3934,0.01104,0.0029,-0.0537
0.8,0.4053,0.01116,0.00295,-0.0539
0.9,0.4174,0.01125,0.00299,-0.0541
1,0.4295,0.01135,0.00304,-0.0543
1.1,0.4415,0.01147,0.0031,-0.0544
1.2,0.4535,0.01159,0.00315,-0.0546
1.3,0.4655,0.01168,0.0032,-0.0548
1.4,0.4776,0.01178,0.00326,-0.055
1.5,0.4897,0.01189,0.0033,-0.0551
1.6,0.5019,0.01195,0.00336,-0.0553
1.7,0.5141,0.01202,0.00341,-0.0555
1.8,0.5261,0.01207,0.00346,-0.0556
1.9,0.5383,0.01215,0.00351,-0.0558
2,0.5505,0.0122,0.00356,-0.0559
2.1,0.5627,0.01226,0.0036,-0.0561
2.2,0.5748,0.01233,0.00366,-0.0562
2.3,0.5869,0.01234,0.00371,-0.0563
2.4,0.5991,0.01238,0.00375,-0.0564
2.5,0.6113,0.01243,0.0038,-0.0566
2.6,0.6235,0.01247,0.00385,-0.0567
2.7,0.6357,0.01253,0.0039,-0.0568
2.8,0.6475,0.01256,0.00395,-0.0568
2.9,0.6596,0.01263,0.004,-0.057
3,0.6716,0.01269,0.00407,-0.057
3.1,0.6837,0.01273,0.00411,-0.0571
3.2,0.6959,0.01278,0.00416,-0.0572
3.3,0.7075,0.0128,0.00421,-0.0572
3.4,0.7195,0.01286,0.00426,-0.0573
3.5,0.7314,0.01291,0.00432,-0.0574
3.6,0.7434,0.01298,0.00437,-0.0575
3.7,0.7546,0.01301,0.00442,-0.0574
3.8,0.7664,0.0131,0.00448,-0.0574
3.9,0.7782,0.01314,0.00454,-0.0575
4,0.79,0.01318,0.00459,-0.0575
4.1,0.8019,0.01322,0.00465,-0.0575
4.2,0.8127,0.01323,0.00469,-0.0573
4.3,0.8243,0.01329,0.00474,-0.0573
4.4,0.8357,0.01334,0.00479,-0.0572
4.5,0.8473,0.0134,0.00484,-0.0572
4.6,0.8572,0.01343,0.00487,-0.0568
4.7,0.8684,0.01349,0.00492,-0.0567
4.8,0.8795,0.01356,0.00497,-0.0566
4.9,0.8906,0.0136,0.00502,-0.0565
5,0.9018,0.01363,0.00506,-0.0564
5.1,0.9117,0.0136,0.00505,-0.056
5.2,0.9237,0.01364,0.00508,-0.056
5.3,0.9369,0.01368,0.0051,-0.0564
5.4,0.9491,0.01377,0.00518,-0.0566
5.5,0.9614,0.01385,0.00525,-0.0567
5.6,0.9735,0.01395,0.00532,-0.0569
5.7,0.9857,0.01404,0.0054,-0.057
5.8,0.9978,0.01414,0.00548,-0.0572
5.9,1.0099,0.01424,0.00556,-0.0573
6,1.0219,0.01437,0.00564,-0.0575
6.1,1.0342,0.01444,0.00571,-0.0577
6.2,1.0464,0.01452,0.00579,-0.0578
6.3,1.0585,0.0146,0.00587,-0.058
6.4,1.0707,0.01469,0.00595,-0.0581
6.5,1.0828,0.01477,0.00603,-0.0583
6.6,1.0949,0.01487,0.00611,-0.0584
6.7,1.107,0.01496,0.00619,-0.0586
6.8,1.1191,0.01506,0.00627,-0.0587
6.9,1.1311,0.01516,0.00636,-0.0589
7,1.1431,0.01526,0.00645,-0.059
7.1,1.1551,0.01537,0.00653,-0.0592
7.2,1.1671,0.01549,0.00662,-0.0593
7.3,1.179,0.01561,0.00671,-0.0595
7.4,1.191,0.0157,0.00681,-0.0596
7.5,1.2032,0.01576,0.00688,-0.0598
7.6,1.2152,0.01585,0.00697,-0.0599
7.7,1.2272,0.01594,0.00706,-0.0601
7.8,1.2392,0.01604,0.00715,-0.0602
7.9,1.2512,0.01613,0.00724,-0.0603
8,1.2631,0.01623,0.00734,-0.0605
8.1,1.275,0.01634,0.00743,-0.0606
8.2,1.2869,0.01645,0.00752,-0.0608
8.3,1.2988,0.01656,0.00762,-0.0609
8.4,1.3106,0.01667,0.00771,-0.0611
8.5,1.3224,0.01679,0.00781,-0.0612
8.6,1.3342,0.01692,0.00792,-0.0613
8.7,1.3459,0.01705,0.00802,-0.0615
8.8,1.3578,0.01714,0.00812,-0.0616
8.9,1.3697,0.01723,0.00822,-0.0617
9,1.3816,0.0173,0.00831,-0.0619
9.1,1.3935,0.0174,0.00841,-0.062
9.2,1.4053,0.0175,0.00852,-0.0621
9.3,1.4171,0.0176,0.00862,-0.0623
9.4,1.4288,0.01771,0.00872,-0.0624
9.5,1.4406,0.01782,0.00883,-0.0625
9.6,1.4523,0.01793,0.00893,-0.0627
9.7,1.464,0.01805,0.00904,-0.0628
9.8,1.4756,0.01817,0.00914,-0.0629
9.9,1.4872,0.01829,0.00926,-0.0631
10,1.4988,0.01843,0.00937,-0.0632
10.1,1.5103,0.01856,0.00948,-0.0633
10.2,1.5218,0.01871,0.0096,-0.0634
10.3,1.5335,0.01881,0.00972,-0.0636
10.4,1.5452,0.0189,0.00983,-0.0637
10.5,1.5569,0.019,0.00995,-0.0638
10.6,1.5685,0.01911,0.01006,-0.0639
10.7,1.5801,0.0192,0.01017,-0.064
10.8,1.5917,0.01931,0.01028,-0.0641
10.9,1.6032,0.01942,0.0104,-0.0643
11,1.6147,0.01954,0.01052,-0.0644
11.1,1.6262,0.01966,0.01063,-0.0645
11.2,1.6376,0.01979,0.01075,-0.0646
11.3,1.649,0.01991,0.01087,-0.0647
11.4,1.6604,0.02004,0.01099,-0.0648
11.5,1.6717,0.02018,0.01112,-0.0649
11.6,1.683,0.02032,0.01125,-0.065
11.7,1.6943,0.02047,0.01138,-0.0651
11.8,1.7055,0.02063,0.01151,-0.0652
11.9,1.7168,0.02076,0.01164,-0.0653
12,1.7282,0.02086,0.01177,-0.0654
12.1,1.7395,0.02096,0.0119,-0.0655
12.2,1.7509,0.02107,0.01203,-0.0656
12.3,1.7622,0.02119,0.01217,-0.0657
12.4,1.7735,0.02129,0.01228,-0.0658
12.5,1.7847,0.02141,0.01242,-0.0659
12.6,1.7959,0.02154,0.01255,-0.066
12.7,1.807,0.02167,0.01268,-0.0661
12.8,1.8181,0.0218,0.01281,-0.0662
12.9,1.8292,0.02194,0.01295,-0.0663
13,1.8403,0.02208,0.01308,-0.0664
13.1,1.8513,0.02222,0.01322,-0.0664
13.2,1.8622,0.02236,0.01336,-0.0665
13.3,1.8732,0.02251,0.0135,-0.0666
13.4,1.884,0.02267,0.01365,-0.0667
13.5,1.8949,0.02284,0.0138,-0.0668
13.6,1.9056,0.02302,0.01396,-0.0668
13.7,1.9166,0.02314,0.0141,-0.0669
13.8,1.9276,0.02325,0.01425,-0.067
13.9,1.9386,0.02337,0.0144,-0.067
14,1.9494,0.02349,0.01455,-0.0671
14.1,1.9603,0.02362,0.0147,-0.0672
14.2,1.9711,0.02373,0.01482,-0.0672
14.3,1.9819,0.02387,0.01498,-0.0673
14.4,1.9926,0.02401,0.01513,-0.0673
14.5,2.0033,0.02415,0.01528,-0.0674
14.6,2.014,0.02429,0.01544,-0.0674
14.7,2.0246,0.02444,0.01559,-0.0675
14.8,2.0351,0.02459,0.01574,-0.0675
14.9,2.0456,0.02474,0.0159,-0.0676
15,2.0561,0.0249,0.01605,-0.0676
15.1,2.0665,0.02506,0.01621,-0.0677
15.2,2.0769,0.02523,0.01637,-0.0677
15.3,2.0871,0.0254,0.01653,-0.0677
15.4,2.0974,0.02559,0.01671,-0.0678
15.5,2.1076,0.02578,0.01689,-0.0678
15.6,2.118,0.02592,0.01705,-0.0678
15.7,2.1284,0.02605,0.01722,-0.0679
15.8,2.1387,0.02618,0.01739,-0.0679
15.9,2.149,0.02632,0.01756,-0.0679
16,2.1593,0.02646,0.01773,-0.0679
16.1,2.1695,0.02661,0.01791,-0.0679
16.2,2.1795,0.02673,0.01805,-0.0679
16.3,2.1896,0.02688,0.01823,-0.0679
16.4,2.1997,0.02704,0.0184,-0.0679
16.5,2.2097,0.0272,0.01858,-0.0679
16.6,2.2196,0.02736,0.01875,-0.0679
16.7,2.2295,0.02752,0.01892,-0.0679
16.8,2.2393,0.02769,0.0191,-0.0679
16.9,2.249,0.02786,0.01927,-0.0679
17,2.2587,0.02803,0.01945,-0.0679
17.1,2.2683,0.0282,0.01962,-0.0679
17.2,2.2779,0.02839,0.01981,-0.0679
17.3,2.2873,0.02857,0.01999,-0.0678
17.4,2.2968,0.02877,0.02018,-0.0678
17.5,2.3061,0.02897,0.02037,-0.0678
17.6,2.3155,0.02919,0.02058,-0.0678
17.7,2.325,0.02933,0.02077,-0.0677
17.8,2.3344,0.02947,0.02096,-0.0677
17.9,2.3438,0.02963,0.02116,-0.0676
18,2.3531,0.02979,0.02136,-0.0675
18.1,2.3622,0.02991,0.02152,-0.0675
18.2,2.3714,0.03007,0.02172,-0.0674
18.3,2.3805,0.03024,0.02192,-0.0673
18.4,2.3895,0.03042,0.02212,-0.0673
18.5,2.3984,0.03059,0.02231,-0.0672
18.6,2.4073,0.03077,0.02251,-0.0671
18.7,2.4161,0.03095,0.02271,-0.067
18.8,2.4248,0.03113,0.02291,-0.0669
18.9,2.4335,0.03131,0.02311,-0.0669
19,2.442,0.03149,0.02331,-0.0668
19.1,2.4505,0.03168,0.02351,-0.0667
19.2,2.4589,0.03187,0.02371,-0.0665
19.3,2.4671,0.03206,0.02391,-0.0664
19.4,2.4753,0.03226,0.02411,-0.0663
19.5,2.4833,0.03247,0.02432,-0.0662
19.6,2.4913,0.03268,0.02453,-0.0661
19.7,2.4992,0.0329,0.02475,-0.066
19.8,2.5071,0.03312,0.02497,-0.0658
19.9,2.5149,0.03334,0.02519,-0.0657
20,2.5226,0.0335,0.02541,-0.0655
20.1,2.5302,0.03367,0.02564,-0.0654
20.2,2.5379,0.03384,0.02587,-0.0652
20.3,2.5453,0.03402,0.0261,-0.065
20.4,2.5526,0.03421,0.02632,-0.0648
20.5,2.5594,0.03435,0.02652,-0.0646
20.6,2.5664,0.03454,0.02674,-0.0644
20.7,2.5733,0.03473,0.02696,-0.0642
20.8,2.5799,0.03492,0.02719,-0.064
20.9,2.5865,0.03511,0.02741,-0.0637
21,2.5929,0.0353,0.02763,-0.0635
21.1,2.5992,0.0355,0.02785,-0.0633
21.2,2.6052,0.03569,0.02807,-0.063
21.3,2.6112,0.03589,0.02829,-0.0628
21.4,2.617,0.03609,0.02851,-0.0626
21.5,2.6227,0.03629,0.02873,-0.0623
21.6,2.6274,0.03648,0.02895,-0.062
21.7,2.6318,0.03668,0.02917,-0.0616
21.8,2.6364,0.03689,0.0294,-0.0613
21.9,2.6413,0.0371,0.02963,-0.0611
22,2.6465,0.03732,0.02986,-0.061
22.1,2.6521,0.03754,0.03009,-0.061
22.2,2.6579,0.03777,0.03033,-0.061
22.3,2.664,0.038,0.03056,-0.0611
22.4,2.6703,0.03824,0.0308,-0.0613
22.5,2.6767,0.03844,0.03105,-0.0615
22.6,2.683,0.03858,0.03129,-0.0619
22.7,2.69,0.03877,0.03154,-0.0623
22.8,2.6971,0.03897,0.03179,-0.0627
22.9,2.7044,0.03917,0.03204,-0.0632
23,2.7117,0.03936,0.03229,-0.0637
23.1,2.7194,0.03956,0.03254,-0.0643
23.2,2.727,0.03976,0.03278,-0.0649
23.3,2.7347,0.03996,0.03302,-0.0656
23.4,2.7424,0.04016,0.03326,-0.0663
23.5,2.7502,0.04036,0.0335,-0.067
23.6,2.7581,0.04057,0.03374,-0.0678
23.7,2.766,0.04077,0.03398,-0.0686
23.8,2.774,0.04098,0.03421,-0.0694
23.9,2.782,0.04119,0.03445,-0.0703
24,2.7901,0.0414,0.03469,-0.0713
24.1,2.7981,0.04161,0.03492,-0.0722
24.2,2.8062,0.04183,0.03516,-0.0732
24.3,2.8142,0.04205,0.0354,-0.0742
24.4,2.8225,0.04227,0.03565,-0.0753
24.5,2.8305,0.0425,0.03589,-0.0764
24.6,2.8384,0.04274,0.03614,-0.0774
24.7,2.8463,0.04298,0.03639,-0.0785
24.8,2.854,0.04323,0.03664,-0.0796
24.9,2.8617,0.04349,0.0369,-0.0807
25,2.8701,0.04374,0.03727,-0.0825
25.1,2.8781,0.044,0.0376,-0.0839
25.2,2.8859,0.04426,0.03794,-0.0853
25.3,2.8937,0.04454,0.03828,-0.0867
25.4,2.9013,0.04483,0.03863,-0.0882
25.5,2.9088,0.04512,0.03898,-0.0897
25.6,2.9162,0.04543,0.03934,-0.0912
25.7,2.9234,0.04574,0.03971,-0.0928
25.8,2.9311,0.04607,0.0401,-0.0945
25.9,2.9382,0.04641,0.04049,-0.0962
26,2.9451,0.04676,0.04089,-0.098
26.1,2.9519,0.04713,0.0413,-0.0997
26.2,2.9585,0.04751,0.04173,-0.1016
26.3,2.9649,0.04791,0.04216,-0.1035
26.4,2.9712,0.04832,0.04262,-0.1054
26.5,2.9772,0.04875,0.04309,-0.1074
26.6,2.983,0.0492,0.04357,-0.1094
26.7,2.9886,0.04967,0.04408,-0.1115
26.8,2.994,0.05015,0.04459,-0.1137
26.9,2.9992,0.05066,0.04512,-0.1158
27,3.0041,0.05117,0.04566,-0.118
27.1,3.0087,0.0517,0.04621,-0.1202
27.3,3.0171,0.05305,0.04765,-0.1258
27.4,3.0199,0.05394,0.04866,-0.1292
27.5,3.0222,0.05488,0.04972,-0.1327
27.6,3.024,0.05586,0.05081,-0.1362
27.7,3.0254,0.0569,0.05196,-0.1398
27.8,3.026,0.05803,0.0532,-0.1437
27.9,3.026,0.05925,0.05453,-0.1478
28,3.0253,0.06054,0.05592,-0.152
28.1,3.024,0.0619,0.05739,-0.1563
28.2,3.0221,0.06333,0.05892,-0.1608
28.3,3.0199,0.0648,0.06048,-0.1654
28.4,3.0171,0.06633,0.0621,-0.1701
28.5,3.0144,0.06784,0.06369,-0.1747
28.6,3.0121,0.06925,0.06517,-0.179
28.7,3.0103,0.07053,0.06651,-0.1829
28.8,3.0091,0.0717,0.06773,-0.1867
28.9,3.0087,0.07272,0.06876,-0.19
29,3.0096,0.07346,0.06951,-0.1926
29.1,3.0111,0.07407,0.07012,-0.195
29.2,3.013,0.07459,0.07064,-0.1971
29.3,2.9898,0.07988,0.07628,-0.2106
29.4,2.974,0.08381,0.08045,-0.2204
29.5,2.9616,0.08716,0.08398,-0.2287
29.6,2.9542,0.08961,0.08655,-0.2348
29.7,2.9475,0.092,0.08902,-0.2405
29.8,2.9454,0.09348,0.09055,-0.2442
29.9,2.9457,0.09453,0.0916,-0.2469

