airfoilName st5.dat
Re 	690000
M 	0
N 	4.500000e+00
VACC 	0 VACCflag 1
XTR 	1.00 	1.00 XTRflag 0
alpha,cl,cd,cdp,cm
-23.6,-2.168,0.13678,0.13468,0.1806
-23.5,-2.1633,0.13579,0.13369,0.1791
-23.4,-2.1585,0.13481,0.13273,0.1776
-23.3,-2.1539,0.13368,0.1316,0.176
-23.2,-2.1492,0.13255,0.13048,0.1743
-23.1,-2.1448,0.13127,0.1292,0.1725
-23,-2.1404,0.12986,0.12779,0.1705
-22.9,-2.1364,0.12825,0.12618,0.1682
-22.8,-2.133,0.12625,0.12417,0.1655
-22.7,-2.1306,0.12353,0.12143,0.1619
-22.6,-2.1272,0.12144,0.11933,0.159
-22.5,-2.1239,0.11921,0.11708,0.1558
-22.4,-2.1207,0.11683,0.11468,0.1525
-22.3,-2.1196,0.11312,0.11091,0.1473
-22.2,-2.1187,0.10918,0.10691,0.1417
-22.1,-2.1159,0.10632,0.104,0.1373
-22,-2.1162,0.10131,0.09889,0.1297
-21.9,-2.1131,0.09836,0.09588,0.1247
-21.8,-2.1119,0.09406,0.09149,0.1172
-21.7,-2.1092,0.09067,0.08802,0.1107
-21.6,-2.1082,0.08612,0.08333,0.1011
-21.5,-2.1046,0.08301,0.08014,0.0936
-21.4,-2.103,0.07838,0.07536,0.0823
-21.3,-2.1014,0.07327,0.07008,0.0699
-21.2,-2.1011,0.0665,0.06307,0.0544
-21.1,-2.1006,0.05763,0.05387,0.0345
-20.9,-2.0792,0.04435,0.03996,0.0039
-20.8,-2.0638,0.04199,0.03743,-0.0024
-20.7,-2.0484,0.04045,0.03577,-0.0069
-20.6,-2.0325,0.03917,0.03439,-0.0111
-20.5,-2.0149,0.03787,0.03299,-0.016
-20.4,-1.9991,0.03693,0.03197,-0.0198
-20.3,-1.9848,0.03618,0.03115,-0.023
-20.2,-1.9717,0.03553,0.03045,-0.0256
-20.1,-1.9596,0.03496,0.02983,-0.0279
-20,-1.9484,0.03444,0.02926,-0.0298
-19.9,-1.9382,0.03395,0.02873,-0.0314
-19.8,-1.9289,0.0335,0.02824,-0.0326
-19.7,-1.9207,0.03308,0.02778,-0.0336
-19.6,-1.9135,0.03267,0.02733,-0.0342
-19.5,-1.9072,0.03229,0.02692,-0.0346
-19.4,-1.9002,0.03194,0.02652,-0.0348
-19.3,-1.8926,0.03158,0.02613,-0.0351
-19.2,-1.885,0.03124,0.02576,-0.0354
-19.1,-1.8772,0.0309,0.02539,-0.0356
-19,-1.8692,0.03057,0.02503,-0.0358
-18.9,-1.8611,0.03025,0.02468,-0.0359
-18.8,-1.8529,0.02994,0.02433,-0.0361
-18.7,-1.8445,0.02963,0.024,-0.0362
-18.6,-1.8359,0.02933,0.02366,-0.0363
-18.5,-1.8272,0.02903,0.02334,-0.0364
-18.4,-1.8181,0.02881,0.0231,-0.0364
-18.3,-1.8092,0.02852,0.02278,-0.0365
-18.2,-1.8002,0.02824,0.02247,-0.0366
-18.1,-1.7911,0.02797,0.02216,-0.0366
-18,-1.782,0.0277,0.02186,-0.0367
-17.9,-1.7727,0.02744,0.02157,-0.0367
-17.8,-1.7633,0.02718,0.02128,-0.0368
-17.7,-1.7539,0.02693,0.021,-0.0368
-17.6,-1.7443,0.02668,0.02072,-0.0368
-17.5,-1.7347,0.02644,0.02045,-0.0369
-17.4,-1.725,0.0262,0.02018,-0.0369
-17.3,-1.7151,0.02597,0.01992,-0.0369
-17.2,-1.7052,0.02575,0.01967,-0.037
-17.1,-1.6952,0.02554,0.01943,-0.037
-17,-1.6854,0.02528,0.01915,-0.037
-16.9,-1.6757,0.02499,0.01883,-0.0371
-16.8,-1.6659,0.02471,0.01854,-0.0371
-16.7,-1.656,0.02445,0.01826,-0.0372
-16.6,-1.6459,0.0242,0.01799,-0.0372
-16.5,-1.6358,0.02395,0.01773,-0.0373
-16.4,-1.6255,0.02372,0.01748,-0.0373
-16.3,-1.6152,0.02349,0.01723,-0.0373
-16.2,-1.6049,0.02327,0.01699,-0.0374
-16.1,-1.5944,0.02305,0.01676,-0.0374
-16,-1.5839,0.02284,0.01653,-0.0375
-15.9,-1.5734,0.02263,0.01631,-0.0375
-15.8,-1.5628,0.02242,0.01609,-0.0376
-15.7,-1.5521,0.02222,0.01586,-0.0376
-15.6,-1.5414,0.02202,0.01565,-0.0376
-15.5,-1.5306,0.02183,0.01544,-0.0377
-15.4,-1.5198,0.02164,0.01523,-0.0377
-15.3,-1.509,0.02145,0.01502,-0.0378
-15.2,-1.4981,0.02126,0.01482,-0.0378
-15.1,-1.4871,0.02108,0.01462,-0.0379
-15,-1.4761,0.0209,0.01442,-0.0379
-14.9,-1.4651,0.02073,0.01422,-0.038
-14.8,-1.4541,0.02055,0.01403,-0.038
-14.7,-1.443,0.02039,0.01384,-0.0381
-14.6,-1.4318,0.02022,0.01365,-0.0381
-14.5,-1.4206,0.02006,0.01347,-0.0382
-14.4,-1.4094,0.01991,0.0133,-0.0382
-14.3,-1.3982,0.01972,0.0131,-0.0383
-14.2,-1.3871,0.01952,0.01289,-0.0384
-14.1,-1.3759,0.01933,0.01269,-0.0385
-14,-1.3647,0.01914,0.0125,-0.0385
-13.9,-1.3534,0.01896,0.01232,-0.0386
-13.8,-1.3421,0.01879,0.01214,-0.0387
-13.7,-1.3307,0.01863,0.01196,-0.0388
-13.6,-1.3193,0.01846,0.01179,-0.0388
-13.5,-1.3079,0.0183,0.01162,-0.0389
-13.4,-1.2965,0.01815,0.01146,-0.039
-13.3,-1.285,0.01799,0.0113,-0.0391
-13.2,-1.2735,0.01784,0.01114,-0.0391
-13.1,-1.2619,0.01771,0.011,-0.0392
-13,-1.2504,0.01757,0.01085,-0.0393
-12.9,-1.2388,0.01743,0.01069,-0.0394
-12.8,-1.2272,0.01729,0.01054,-0.0395
-12.7,-1.2155,0.01716,0.0104,-0.0395
-12.6,-1.2039,0.01703,0.01025,-0.0396
-12.5,-1.1922,0.01691,0.01011,-0.0397
-12.4,-1.1805,0.01675,0.00995,-0.0398
-12.3,-1.1689,0.01658,0.00978,-0.0399
-12.2,-1.1572,0.01643,0.00962,-0.04
-12.1,-1.1455,0.01628,0.00947,-0.0401
-12,-1.1337,0.01614,0.00933,-0.0402
-11.9,-1.122,0.016,0.00919,-0.0403
-11.8,-1.1102,0.01586,0.00905,-0.0404
-11.7,-1.0984,0.01573,0.00892,-0.0405
-11.6,-1.0866,0.0156,0.00879,-0.0406
-11.5,-1.0747,0.01548,0.00867,-0.0407
-11.4,-1.0629,0.01536,0.00854,-0.0408
-11.3,-1.051,0.01524,0.00841,-0.0409
-11.2,-1.0391,0.01513,0.00829,-0.041
-11.1,-1.0272,0.01501,0.00816,-0.0411
-11,-1.0153,0.01491,0.00805,-0.0412
-10.9,-1.0033,0.01479,0.00792,-0.0413
-10.8,-0.9914,0.01464,0.00778,-0.0414
-10.7,-0.9795,0.01451,0.00765,-0.0415
-10.6,-0.9675,0.01438,0.00753,-0.0416
-10.5,-0.9556,0.01426,0.0074,-0.0418
-10.4,-0.9436,0.01414,0.00729,-0.0419
-10.3,-0.9316,0.01402,0.00717,-0.042
-10.2,-0.9196,0.01391,0.00706,-0.0421
-10.1,-0.9075,0.0138,0.00695,-0.0422
-10,-0.8955,0.01369,0.00684,-0.0423
-9.9,-0.8835,0.0136,0.00675,-0.0424
-9.8,-0.8714,0.0135,0.00664,-0.0425
-9.7,-0.8593,0.0134,0.00654,-0.0426
-9.6,-0.8473,0.01328,0.00643,-0.0428
-9.5,-0.8352,0.01316,0.00631,-0.0429
-9.4,-0.8231,0.01305,0.0062,-0.043
-9.3,-0.811,0.01294,0.0061,-0.0431
-9.2,-0.7989,0.01283,0.006,-0.0433
-9.1,-0.7868,0.01273,0.00591,-0.0434
-9,-0.7747,0.01263,0.00581,-0.0435
-8.9,-0.7625,0.01253,0.00572,-0.0436
-8.8,-0.7504,0.01244,0.00563,-0.0437
-8.7,-0.7382,0.01235,0.00554,-0.0438
-8.6,-0.7261,0.01227,0.00545,-0.044
-8.5,-0.7138,0.01217,0.00535,-0.0441
-8.4,-0.7007,0.01207,0.00526,-0.0444
-8.3,-0.6877,0.01196,0.00518,-0.0448
-8.2,-0.6746,0.01188,0.0051,-0.0451
-8.1,-0.6615,0.0118,0.00503,-0.0454
-8,-0.6477,0.01174,0.00497,-0.0458
-7.9,-0.6349,0.01167,0.0049,-0.0461
-7.8,-0.6225,0.01162,0.00484,-0.0462
-7.7,-0.6103,0.01157,0.00477,-0.0463
-7.6,-0.5984,0.01149,0.00469,-0.0463
-7.5,-0.5867,0.01143,0.00463,-0.0463
-7.4,-0.575,0.01137,0.00457,-0.0463
-7.3,-0.5642,0.01136,0.00452,-0.046
-7.2,-0.5526,0.01131,0.00446,-0.046
-7.1,-0.5408,0.01126,0.00439,-0.046
-7,-0.529,0.01122,0.00433,-0.046
-6.9,-0.5173,0.01116,0.00426,-0.046
-6.8,-0.5053,0.0111,0.00419,-0.046
-6.7,-0.4934,0.01104,0.00413,-0.0461
-6.6,-0.4819,0.01102,0.00407,-0.046
-6.5,-0.4698,0.01097,0.00401,-0.0461
-6.4,-0.4578,0.01093,0.00396,-0.0461
-6.3,-0.4457,0.01088,0.0039,-0.0462
-6.2,-0.4336,0.01083,0.00383,-0.0463
-6.1,-0.4215,0.01075,0.00377,-0.0464
-6,-0.4094,0.0107,0.00372,-0.0465
-5.9,-0.3972,0.01066,0.00367,-0.0466
-5.8,-0.3853,0.01064,0.00362,-0.0466
-5.7,-0.3731,0.01059,0.00356,-0.0467
-5.6,-0.3608,0.01053,0.0035,-0.0469
-5.5,-0.3486,0.01047,0.00345,-0.047
-5.4,-0.3364,0.01043,0.0034,-0.0471
-5.3,-0.3242,0.01038,0.00336,-0.0472
-5.2,-0.3119,0.01033,0.0033,-0.0473
-5.1,-0.2996,0.01027,0.00326,-0.0475
-5,-0.2876,0.01025,0.00321,-0.0475
-4.9,-0.2753,0.0102,0.00317,-0.0477
-4.8,-0.263,0.01016,0.00313,-0.0478
-4.7,-0.2509,0.01014,0.00308,-0.0479
-4.6,-0.2388,0.0101,0.00305,-0.048
-4.5,-0.2265,0.01006,0.00301,-0.0481
-4.4,-0.2142,0.01003,0.00297,-0.0482
-4.3,-0.2021,0.01,0.00293,-0.0483
-4.2,-0.1898,0.00995,0.00289,-0.0485
-4.1,-0.1776,0.00994,0.00286,-0.0486
-4,-0.1654,0.00993,0.00283,-0.0487
-3.9,-0.1531,0.00988,0.00279,-0.0489
-3.8,-0.141,0.00985,0.00276,-0.049
-3.7,-0.1287,0.00983,0.00273,-0.0491
-3.6,-0.1164,0.00979,0.00269,-0.0492
-3.5,-0.1041,0.00975,0.00267,-0.0494
-3.4,-0.0918,0.00972,0.00264,-0.0495
-3.3,-0.0795,0.00967,0.0026,-0.0497
-3.2,-0.0674,0.00968,0.00259,-0.0498
-3.1,-0.0551,0.00967,0.00256,-0.0499
-3,-0.0429,0.00966,0.00253,-0.0501
-2.9,-0.0307,0.00964,0.00251,-0.0502
-2.8,-0.0183,0.00962,0.00249,-0.0504
-2.7,-0.006,0.00957,0.00247,-0.0505
-2.6,0.0061,0.00959,0.00246,-0.0507
-2.5,0.0182,0.00962,0.00244,-0.0508
-2.4,0.0305,0.00959,0.00243,-0.0509
-2.3,0.0428,0.00957,0.00241,-0.0511
-2.2,0.0551,0.00953,0.00239,-0.0513
-2.1,0.0674,0.00953,0.00238,-0.0514
-2,0.0796,0.00954,0.00237,-0.0515
-1.9,0.0919,0.00953,0.00236,-0.0517
-1.8,0.1042,0.00952,0.00235,-0.0519
-1.7,0.1165,0.00951,0.00234,-0.052
-1.6,0.1286,0.00954,0.00234,-0.0522
-1.5,0.1408,0.00954,0.00234,-0.0523
-1.4,0.153,0.00956,0.00233,-0.0525
-1.3,0.1653,0.00955,0.00233,-0.0526
-1.2,0.1775,0.00954,0.00232,-0.0528
-1.1,0.1899,0.00953,0.00232,-0.053
-1,0.2021,0.00953,0.00232,-0.0531
-0.9,0.2144,0.00953,0.00232,-0.0533
-0.8,0.2266,0.00953,0.00232,-0.0534
-0.7,0.2387,0.00955,0.00233,-0.0536
-0.6,0.251,0.00956,0.00233,-0.0538
-0.5,0.2632,0.00958,0.00234,-0.0539
-0.4,0.2754,0.00958,0.00234,-0.0541
-0.3,0.2876,0.0096,0.00234,-0.0543
-0.2,0.2999,0.00958,0.00235,-0.0544
0,0.3242,0.00962,0.00238,-0.0548
0.1,0.3365,0.00963,0.00238,-0.0549
0.2,0.3484,0.00968,0.00241,-0.0551
0.3,0.3605,0.00972,0.00243,-0.0553
0.4,0.3727,0.00975,0.00244,-0.0555
0.5,0.3848,0.0098,0.00247,-0.0556
0.6,0.3968,0.00981,0.0025,-0.0558
0.7,0.4089,0.00985,0.00251,-0.056
0.8,0.421,0.00991,0.00255,-0.0561
0.9,0.433,0.00998,0.00258,-0.0563
1,0.445,0.01001,0.0026,-0.0565
1.1,0.4566,0.01016,0.00267,-0.0567
1.2,0.4686,0.01023,0.00271,-0.0568
1.3,0.4806,0.01029,0.00274,-0.057
1.4,0.4927,0.01034,0.00278,-0.0572
1.5,0.5048,0.01034,0.00281,-0.0574
1.6,0.5168,0.01038,0.00285,-0.0575
1.7,0.5289,0.0104,0.00288,-0.0577
1.8,0.5411,0.01043,0.00291,-0.0578
1.9,0.5531,0.0104,0.00294,-0.058
2,0.5651,0.01043,0.00299,-0.0582
2.1,0.5772,0.01044,0.00302,-0.0583
2.2,0.5893,0.01044,0.00305,-0.0585
2.3,0.6011,0.01043,0.0031,-0.0586
2.4,0.6131,0.01046,0.00314,-0.0587
2.5,0.625,0.0105,0.00318,-0.0588
2.6,0.637,0.01051,0.00322,-0.0589
2.7,0.6487,0.01048,0.00326,-0.0589
2.8,0.6606,0.0105,0.0033,-0.059
2.9,0.6724,0.01053,0.00334,-0.0591
3,0.6842,0.01056,0.00338,-0.0592
3.1,0.6959,0.0106,0.00342,-0.0592
3.2,0.7068,0.01059,0.00347,-0.0591
3.3,0.7184,0.0106,0.00351,-0.0591
3.4,0.7298,0.01063,0.00355,-0.059
3.5,0.7413,0.01066,0.00359,-0.059
3.6,0.751,0.01063,0.00361,-0.0585
3.7,0.7619,0.01066,0.00364,-0.0584
3.8,0.7728,0.0107,0.00368,-0.0582
3.9,0.7834,0.01073,0.00371,-0.058
4,0.7942,0.01075,0.00374,-0.0578
4.1,0.8051,0.01076,0.00376,-0.0576
4.2,0.8164,0.01078,0.00378,-0.0576
4.3,0.8289,0.01075,0.00374,-0.0578
4.4,0.8409,0.01082,0.00379,-0.0579
4.5,0.853,0.01089,0.00384,-0.058
4.6,0.8649,0.01099,0.0039,-0.0582
4.7,0.8769,0.01107,0.00396,-0.0583
4.8,0.8889,0.01113,0.00402,-0.0585
4.9,0.901,0.01119,0.00407,-0.0586
5,0.9131,0.01126,0.00412,-0.0587
5.1,0.9251,0.01132,0.00418,-0.0589
5.2,0.9371,0.01139,0.00423,-0.059
5.3,0.9491,0.01146,0.00429,-0.0591
5.4,0.961,0.01154,0.00434,-0.0593
5.5,0.973,0.01162,0.00441,-0.0594
5.6,0.9849,0.0117,0.00447,-0.0596
5.7,0.9968,0.01179,0.00453,-0.0597
5.8,1.0087,0.01185,0.00459,-0.0598
5.9,1.0207,0.01192,0.00465,-0.06
6,1.0326,0.01199,0.00471,-0.0601
6.1,1.0445,0.01206,0.00477,-0.0602
6.2,1.0564,0.01214,0.00484,-0.0604
6.3,1.0683,0.01222,0.0049,-0.0605
6.4,1.0802,0.0123,0.00497,-0.0606
6.5,1.092,0.01239,0.00504,-0.0607
6.6,1.1038,0.01248,0.00511,-0.0609
6.7,1.1156,0.01256,0.00518,-0.061
6.8,1.1275,0.01263,0.00525,-0.0611
6.9,1.1393,0.0127,0.00532,-0.0612
7,1.1511,0.01278,0.00538,-0.0614
7.1,1.1629,0.01285,0.00545,-0.0615
7.2,1.1747,0.01293,0.00552,-0.0616
7.3,1.1865,0.01302,0.00559,-0.0617
7.4,1.1982,0.01311,0.00566,-0.0619
7.5,1.2099,0.0132,0.00574,-0.062
7.6,1.2216,0.01329,0.00582,-0.0621
7.7,1.2333,0.0134,0.0059,-0.0622
7.8,1.245,0.01347,0.00598,-0.0623
7.9,1.2568,0.01354,0.00605,-0.0625
8,1.2685,0.01362,0.00613,-0.0626
8.1,1.2802,0.0137,0.0062,-0.0627
8.2,1.2919,0.01378,0.00628,-0.0628
8.3,1.3035,0.01386,0.00636,-0.0629
8.4,1.3151,0.01396,0.00644,-0.063
8.5,1.3267,0.01406,0.00652,-0.0632
8.6,1.3382,0.01416,0.00661,-0.0633
8.7,1.3497,0.01426,0.00669,-0.0634
8.8,1.3612,0.01437,0.00678,-0.0635
8.9,1.3728,0.01446,0.00688,-0.0636
9,1.3844,0.01453,0.00696,-0.0637
9.1,1.396,0.01462,0.00704,-0.0638
9.2,1.4075,0.0147,0.00713,-0.0639
9.3,1.4191,0.01479,0.00722,-0.064
9.4,1.4306,0.01488,0.0073,-0.0641
9.5,1.4421,0.01497,0.00739,-0.0642
9.6,1.4534,0.01508,0.00748,-0.0643
9.7,1.4648,0.01519,0.00758,-0.0644
9.8,1.4761,0.0153,0.00767,-0.0645
9.9,1.4875,0.01541,0.00777,-0.0646
10,1.4988,0.01553,0.00787,-0.0647
10.1,1.5101,0.01562,0.00798,-0.0648
10.2,1.5216,0.0157,0.00807,-0.0649
10.3,1.533,0.01579,0.00816,-0.065
10.4,1.5443,0.01589,0.00826,-0.0651
10.5,1.5556,0.01598,0.00836,-0.0652
10.6,1.5669,0.01608,0.00846,-0.0652
10.7,1.5782,0.01618,0.00856,-0.0653
10.8,1.5894,0.01629,0.00866,-0.0654
10.9,1.6006,0.0164,0.00876,-0.0655
11,1.6118,0.01651,0.00887,-0.0656
11.1,1.6228,0.01664,0.00898,-0.0656
11.2,1.6338,0.01677,0.00909,-0.0657
11.3,1.6448,0.0169,0.00921,-0.0658
11.4,1.656,0.017,0.00932,-0.0659
11.5,1.6672,0.01709,0.00943,-0.0659
11.6,1.6783,0.01719,0.00953,-0.066
11.7,1.6894,0.01729,0.00964,-0.0661
11.8,1.7005,0.0174,0.00975,-0.0661
11.9,1.7115,0.0175,0.00986,-0.0662
12,1.7225,0.01762,0.00998,-0.0663
12.1,1.7335,0.01773,0.0101,-0.0663
12.2,1.7444,0.01785,0.01021,-0.0664
12.3,1.7553,0.01797,0.01033,-0.0664
12.4,1.7661,0.01809,0.01045,-0.0665
12.5,1.7767,0.01825,0.01058,-0.0665
12.6,1.7874,0.01839,0.01071,-0.0666
12.7,1.798,0.01853,0.01085,-0.0666
12.8,1.8089,0.01863,0.01097,-0.0667
12.9,1.8198,0.01873,0.01108,-0.0667
13,1.8306,0.01884,0.01121,-0.0667
13.1,1.8414,0.01896,0.01133,-0.0668
13.2,1.8521,0.01907,0.01146,-0.0668
13.3,1.8628,0.01919,0.01159,-0.0669
13.4,1.8734,0.01932,0.01171,-0.0669
13.5,1.8839,0.01944,0.01184,-0.0669
13.6,1.8945,0.01957,0.01198,-0.0669
13.7,1.9049,0.01971,0.01211,-0.0669
13.8,1.9154,0.01984,0.01225,-0.067
13.9,1.9257,0.01999,0.01239,-0.067
14,1.936,0.02013,0.01253,-0.067
14.1,1.9462,0.02029,0.01268,-0.067
14.2,1.9562,0.02045,0.01285,-0.067
14.3,1.9667,0.02057,0.01298,-0.067
14.4,1.9771,0.02069,0.01312,-0.067
14.5,1.9874,0.02081,0.01325,-0.067
14.6,1.9977,0.02094,0.0134,-0.067
14.7,2.0079,0.02107,0.01354,-0.0669
14.8,2.0181,0.02121,0.01368,-0.0669
14.9,2.0282,0.02134,0.01383,-0.0669
15,2.0382,0.02149,0.01398,-0.0669
15.1,2.0482,0.02163,0.01413,-0.0669
15.2,2.0581,0.02178,0.01429,-0.0668
15.3,2.0679,0.02193,0.01445,-0.0668
15.4,2.0777,0.02209,0.01461,-0.0667
15.5,2.0874,0.02226,0.01477,-0.0667
15.7,2.1059,0.02264,0.01514,-0.0665
15.8,2.1157,0.02277,0.0153,-0.0665
15.9,2.1255,0.0229,0.01545,-0.0664
16,2.1353,0.02304,0.01561,-0.0663
16.1,2.1449,0.02318,0.01577,-0.0663
16.2,2.1544,0.02333,0.01593,-0.0662
16.3,2.1639,0.02348,0.01609,-0.0661
16.4,2.1733,0.02363,0.01626,-0.066
16.5,2.1826,0.02379,0.01643,-0.0659
16.6,2.1918,0.02395,0.01661,-0.0658
16.7,2.2009,0.02411,0.01679,-0.0657
16.8,2.2099,0.02428,0.01697,-0.0656
16.9,2.2189,0.02445,0.01715,-0.0655
17,2.2277,0.02463,0.01733,-0.0653
17.1,2.2365,0.02481,0.01752,-0.0652
17.2,2.245,0.025,0.01771,-0.065
17.3,2.2528,0.02523,0.01793,-0.0648
17.4,2.261,0.02544,0.01815,-0.0646
17.5,2.2697,0.0256,0.01834,-0.0644
17.6,2.2784,0.02575,0.01852,-0.0643
17.7,2.287,0.02591,0.0187,-0.0641
17.8,2.2955,0.02607,0.01888,-0.0639
17.9,2.3038,0.02624,0.01907,-0.0637
18,2.3121,0.02641,0.01927,-0.0635
18.1,2.32,0.02659,0.01947,-0.0633
18.2,2.328,0.02677,0.01967,-0.0631
18.3,2.3357,0.02695,0.01987,-0.0628
18.4,2.3432,0.02714,0.02008,-0.0625
18.5,2.3506,0.02733,0.02029,-0.0622
18.6,2.3577,0.02752,0.0205,-0.0619
18.7,2.3646,0.02772,0.02071,-0.0616
18.8,2.3715,0.02793,0.02093,-0.0612
18.9,2.378,0.02814,0.02116,-0.0609
19,2.3843,0.02835,0.02139,-0.0605
19.1,2.39,0.02858,0.02163,-0.06
19.2,2.3958,0.0288,0.02187,-0.0596
19.3,2.4012,0.02904,0.02212,-0.0591
19.5,2.4114,0.02948,0.02262,-0.0581
19.6,2.4159,0.02967,0.02284,-0.0574
19.7,2.4202,0.02988,0.02308,-0.0567
19.8,2.4246,0.0301,0.02333,-0.0561
19.9,2.4292,0.03032,0.02358,-0.0556
20,2.434,0.03055,0.02384,-0.0552
20.1,2.4391,0.03078,0.02411,-0.0548
20.2,2.4443,0.03102,0.02437,-0.0545
20.3,2.4496,0.03126,0.02465,-0.0543
20.4,2.4549,0.03151,0.02492,-0.0541
20.5,2.4605,0.03176,0.0252,-0.054
20.6,2.4661,0.03202,0.02548,-0.054
20.7,2.4718,0.03228,0.02577,-0.054
20.8,2.4778,0.03254,0.02606,-0.0541
20.9,2.4837,0.03281,0.02635,-0.0542
21,2.4897,0.03309,0.02665,-0.0544
21.1,2.4957,0.03337,0.02697,-0.0546
21.2,2.5016,0.03367,0.0273,-0.0549
21.3,2.5078,0.03397,0.02761,-0.0553
21.4,2.514,0.03428,0.02794,-0.0557
21.5,2.5202,0.0346,0.02829,-0.0562
21.6,2.5265,0.03492,0.02863,-0.0567
21.7,2.5337,0.03516,0.02891,-0.0572
21.8,2.5409,0.03542,0.02921,-0.0577
21.9,2.5481,0.03566,0.02948,-0.0582
22,2.5552,0.03594,0.02979,-0.0588
22.1,2.5623,0.03622,0.03011,-0.0595
22.2,2.5694,0.03651,0.03044,-0.0602
22.3,2.5765,0.03681,0.03077,-0.0609
22.4,2.5836,0.03712,0.03111,-0.0617
22.5,2.5907,0.03743,0.03145,-0.0626
22.6,2.5978,0.03776,0.03182,-0.0635
22.7,2.6049,0.03809,0.03218,-0.0644
22.8,2.6116,0.03849,0.03259,-0.0656
22.9,2.6185,0.03886,0.03298,-0.0667
23,2.6255,0.03925,0.0334,-0.0679
23.1,2.6322,0.03966,0.03384,-0.0692
23.2,2.639,0.04009,0.0343,-0.0706
23.3,2.6457,0.04054,0.03478,-0.072
23.4,2.6523,0.041,0.03528,-0.0735
23.5,2.6599,0.0413,0.03562,-0.0745
23.6,2.6671,0.04167,0.03605,-0.0757
23.7,2.6741,0.04207,0.03648,-0.077
23.8,2.681,0.04251,0.03696,-0.0785
23.9,2.6877,0.04297,0.03746,-0.08
24,2.6943,0.04345,0.03798,-0.0815
24.1,2.7009,0.04396,0.03855,-0.0832
24.2,2.7071,0.0445,0.03913,-0.085
24.3,2.7132,0.04508,0.03975,-0.0868
24.4,2.719,0.0457,0.04041,-0.0887
24.5,2.7246,0.04636,0.04113,-0.0908
24.6,2.7298,0.04708,0.04189,-0.093
24.7,2.7347,0.04786,0.04272,-0.0952
24.8,2.7392,0.04871,0.04362,-0.0977
24.9,2.7433,0.04962,0.04458,-0.1003
25,2.7467,0.05066,0.04567,-0.1032
25.1,2.7492,0.05184,0.04692,-0.1064
25.2,2.7511,0.05313,0.04828,-0.1097
25.3,2.7531,0.05435,0.04958,-0.1128
25.4,2.7559,0.05541,0.05072,-0.1155
25.5,2.7582,0.05655,0.05192,-0.1182
25.6,2.7589,0.05795,0.05341,-0.1216
25.7,2.7582,0.05963,0.05517,-0.1254
25.8,2.7567,0.06141,0.05705,-0.1294
25.9,2.754,0.06339,0.05912,-0.1338
26,2.7502,0.06561,0.06146,-0.1386
26.1,2.7443,0.06816,0.06414,-0.1439
26.2,2.7369,0.07098,0.06708,-0.1496
26.3,2.7286,0.07389,0.07012,-0.1556
26.4,2.7198,0.07686,0.07321,-0.1616
26.5,2.7103,0.07988,0.07634,-0.168
26.6,2.7004,0.08286,0.07944,-0.1745
26.7,2.6913,0.08564,0.08231,-0.1808
26.8,2.6839,0.08804,0.0848,-0.1866
26.9,2.6735,0.091,0.08786,-0.1936
27,2.6706,0.09264,0.08956,-0.1976
27.1,2.6653,0.09482,0.09184,-0.2025
27.2,2.6632,0.0964,0.09349,-0.2061
27.3,2.6619,0.09786,0.095,-0.2094
27.4,2.6568,0.10015,0.09738,-0.2142
27.5,2.6543,0.10192,0.09921,-0.2179
27.6,2.653,0.10347,0.1008,-0.2212
27.8,2.6408,0.10875,0.1062,-0.2312
27.9,2.6392,0.11046,0.10793,-0.2345
28,2.6349,0.11277,0.11029,-0.2387
28.1,2.6312,0.11497,0.11253,-0.2427
28.2,2.6291,0.11682,0.1144,-0.2461
28.3,2.6276,0.11852,0.11612,-0.2492
28.4,2.6266,0.12015,0.1178,-0.252
28.5,2.623,0.12239,0.12011,-0.2558
28.6,2.622,0.12399,0.12177,-0.2585
28.7,2.6214,0.1255,0.12331,-0.2612
28.8,2.6209,0.12699,0.12483,-0.2637
28.9,2.6201,0.12854,0.12642,-0.2664
29,2.6159,0.13094,0.12888,-0.2703
29.1,2.6138,0.13283,0.13081,-0.2735
29.2,2.6128,0.13444,0.13244,-0.2762
29.3,2.612,0.136,0.13402,-0.2788
29.4,2.6111,0.13761,0.13564,-0.2815
29.5,2.6094,0.13939,0.13744,-0.2845
29.6,2.605,0.14189,0.13997,-0.2885
29.7,2.6038,0.14356,0.14164,-0.2913
29.8,2.6032,0.14508,0.14318,-0.2938
29.9,2.6023,0.14667,0.14482,-0.2964
30,2.6015,0.14826,0.14645,-0.299

