airfoilName st5.dat
Re 	3.100000e+05
M 	0
N 	4.500000e+00
VACC 	0 VACCflag 1
XTR 	1.00 	1.00 XTRflag 0
alpha,cl,cd,cdp,cm
-20.3,-2.0128,0.06736,0.06329,0.0633
-20.2,-2.005,0.06633,0.06226,0.0603
-20.1,-1.9971,0.06506,0.06097,0.0568
-20,-1.9891,0.06345,0.05933,0.0525
-19.9,-1.9807,0.06175,0.05759,0.048
-19.8,-1.9718,0.05978,0.05556,0.0428
-19.7,-1.9622,0.05768,0.0534,0.0373
-19.6,-1.9517,0.05554,0.05116,0.0316
-19.5,-1.9403,0.0534,0.04894,0.0258
-19.4,-1.9278,0.0513,0.04674,0.0199
-19.3,-1.9141,0.04934,0.04467,0.0143
-19.2,-1.8997,0.04759,0.04281,0.009
-19.1,-1.8845,0.04604,0.04115,0.0041
-19,-1.869,0.04468,0.03968,-0.0003
-18.9,-1.8531,0.0435,0.03839,-0.0045
-18.8,-1.8372,0.04248,0.03727,-0.0083
-18.7,-1.8215,0.04159,0.03629,-0.0118
-18.6,-1.8061,0.04081,0.03543,-0.015
-18.5,-1.7913,0.04012,0.03465,-0.018
-18.4,-1.7774,0.0395,0.03394,-0.0207
-18.3,-1.7642,0.03893,0.03329,-0.0231
-18.2,-1.752,0.03839,0.03268,-0.0252
-18.1,-1.7407,0.03788,0.03209,-0.027
-18,-1.7306,0.0374,0.03154,-0.0286
-17.9,-1.7215,0.03694,0.03101,-0.0297
-17.8,-1.7135,0.03651,0.03051,-0.0306
-17.7,-1.7055,0.03609,0.03002,-0.0313
-17.6,-1.6971,0.03568,0.02953,-0.0319
-17.5,-1.6887,0.03527,0.02905,-0.0325
-17.4,-1.6803,0.03488,0.02858,-0.033
-17.3,-1.6717,0.0345,0.02812,-0.0334
-17.2,-1.6634,0.03409,0.0277,-0.0338
-17.1,-1.655,0.03368,0.02727,-0.0342
-17,-1.6464,0.03329,0.02686,-0.0345
-16.9,-1.6377,0.03292,0.02647,-0.0349
-16.8,-1.6289,0.03256,0.02609,-0.0351
-16.7,-1.62,0.03222,0.02572,-0.0354
-16.6,-1.6109,0.03188,0.02536,-0.0356
-16.5,-1.6018,0.03156,0.02501,-0.0358
-16.4,-1.5926,0.03124,0.02466,-0.036
-16.3,-1.5833,0.03092,0.02431,-0.0361
-16.2,-1.5739,0.03061,0.02397,-0.0363
-16.1,-1.5644,0.03031,0.02363,-0.0364
-16,-1.5548,0.03,0.0233,-0.0366
-15.9,-1.5452,0.0297,0.02295,-0.0367
-15.7,-1.5253,0.02923,0.02241,-0.0369
-15.6,-1.5155,0.02893,0.02207,-0.037
-15.5,-1.5056,0.02863,0.02174,-0.0371
-15.4,-1.4956,0.02834,0.0214,-0.0372
-15.3,-1.4856,0.02805,0.02107,-0.0373
-15.2,-1.4755,0.02777,0.02074,-0.0374
-15.1,-1.4653,0.02749,0.02041,-0.0375
-15,-1.4551,0.02722,0.02009,-0.0376
-14.9,-1.4448,0.02696,0.01977,-0.0376
-14.8,-1.4343,0.02671,0.01945,-0.0377
-14.7,-1.4241,0.02641,0.01915,-0.0378
-14.6,-1.4138,0.02611,0.01884,-0.0379
-14.5,-1.4035,0.02582,0.01855,-0.038
-14.4,-1.393,0.02556,0.01827,-0.0381
-14.3,-1.3824,0.0253,0.018,-0.0382
-14.2,-1.3718,0.02505,0.01774,-0.0383
-14.1,-1.3611,0.02481,0.01748,-0.0384
-14,-1.3504,0.02457,0.01723,-0.0385
-13.9,-1.3396,0.02434,0.01698,-0.0386
-13.8,-1.3287,0.02411,0.01672,-0.0387
-13.7,-1.3178,0.02389,0.01647,-0.0387
-13.6,-1.3069,0.02366,0.01622,-0.0388
-13.5,-1.2959,0.02344,0.01597,-0.0389
-13.3,-1.2737,0.02308,0.01554,-0.0391
-13.2,-1.2626,0.02286,0.01529,-0.0391
-13.1,-1.2514,0.02265,0.01503,-0.0392
-13,-1.2402,0.02245,0.01479,-0.0393
-12.9,-1.229,0.02226,0.01455,-0.0393
-12.8,-1.2179,0.02202,0.01431,-0.0394
-12.7,-1.2067,0.02177,0.01407,-0.0396
-12.6,-1.1955,0.02154,0.01383,-0.0397
-12.5,-1.1843,0.02132,0.01361,-0.0398
-12.4,-1.1729,0.02111,0.0134,-0.0399
-12.3,-1.1616,0.02092,0.01319,-0.04
-12.2,-1.1502,0.02072,0.01298,-0.0401
-12.1,-1.1388,0.02053,0.01278,-0.0402
-12,-1.1273,0.02035,0.01258,-0.0403
-11.9,-1.1158,0.02016,0.01238,-0.0404
-11.8,-1.1043,0.01998,0.01217,-0.0405
-11.7,-1.0927,0.0198,0.01197,-0.0405
-11.6,-1.0812,0.01963,0.01177,-0.0406
-11.5,-1.0696,0.01945,0.01157,-0.0407
-11.4,-1.0579,0.01935,0.01142,-0.0408
-11.3,-1.0462,0.01916,0.01122,-0.0409
-11.2,-1.0347,0.01895,0.01102,-0.041
-11.1,-1.0231,0.01875,0.01083,-0.0411
-11,-1.0114,0.01857,0.01065,-0.0413
-10.9,-0.9997,0.0184,0.01047,-0.0414
-10.8,-0.988,0.01823,0.0103,-0.0415
-10.7,-0.9763,0.01807,0.01013,-0.0416
-10.6,-0.9645,0.01791,0.00996,-0.0417
-10.5,-0.9527,0.01775,0.00978,-0.0418
-10.4,-0.9409,0.0176,0.00961,-0.0419
-10.3,-0.9291,0.01745,0.00945,-0.042
-10.2,-0.9172,0.0173,0.00928,-0.0421
-10.1,-0.9053,0.01716,0.00911,-0.0422
-10,-0.8934,0.01703,0.00895,-0.0423
-9.9,-0.8816,0.01685,0.00879,-0.0424
-9.8,-0.8698,0.01669,0.00866,-0.0426
-9.7,-0.8579,0.01653,0.00851,-0.0427
-9.6,-0.846,0.01639,0.00837,-0.0428
-9.5,-0.8341,0.01624,0.00821,-0.0429
-9.4,-0.8221,0.0161,0.00807,-0.043
-9.3,-0.8102,0.01597,0.00792,-0.0431
-9.2,-0.7982,0.01584,0.00778,-0.0432
-9.1,-0.7862,0.01571,0.00764,-0.0433
-9,-0.7742,0.0156,0.0075,-0.0434
-8.9,-0.7622,0.01544,0.00736,-0.0436
-8.8,-0.7502,0.01529,0.00722,-0.0437
-8.7,-0.7382,0.01515,0.00709,-0.0438
-8.6,-0.7262,0.01502,0.00696,-0.044
-8.5,-0.7142,0.0149,0.00685,-0.0441
-8.4,-0.7022,0.01478,0.00672,-0.0442
-8.3,-0.6901,0.01466,0.0066,-0.0443
-8.2,-0.678,0.01455,0.00647,-0.0444
-8.1,-0.666,0.01444,0.00635,-0.0445
-8,-0.6539,0.01429,0.00623,-0.0447
-7.9,-0.6418,0.01416,0.00611,-0.0448
-7.8,-0.6298,0.01404,0.006,-0.0449
-7.7,-0.6177,0.01392,0.00589,-0.0451
-7.6,-0.6056,0.01381,0.00577,-0.0452
-7.5,-0.5935,0.0137,0.00566,-0.0453
-7.4,-0.5814,0.01361,0.00556,-0.0454
-7.3,-0.5693,0.01348,0.00545,-0.0455
-7.2,-0.5572,0.01335,0.00535,-0.0457
-7.1,-0.5451,0.01324,0.00525,-0.0458
-7,-0.5329,0.01313,0.00515,-0.0459
-6.9,-0.5208,0.01303,0.00505,-0.046
-6.8,-0.5086,0.01294,0.00496,-0.0462
-6.7,-0.4965,0.01284,0.00485,-0.0463
-6.6,-0.4844,0.01272,0.00476,-0.0464
-6.5,-0.4722,0.01261,0.00467,-0.0466
-6.4,-0.4601,0.01251,0.00459,-0.0467
-6.3,-0.448,0.01241,0.0045,-0.0468
-6.2,-0.4358,0.01233,0.00441,-0.0469
-6.1,-0.4237,0.01221,0.00432,-0.0471
-6,-0.4101,0.01211,0.00425,-0.0475
-5.9,-0.3968,0.01203,0.00417,-0.0479
-5.8,-0.3833,0.01195,0.0041,-0.0483
-5.7,-0.3699,0.01187,0.00402,-0.0486
-5.6,-0.3564,0.01175,0.00395,-0.0491
-5.5,-0.343,0.01167,0.00389,-0.0495
-5.4,-0.3296,0.01161,0.00383,-0.0498
-5.3,-0.3154,0.01154,0.00377,-0.0503
-5.2,-0.3021,0.01146,0.00371,-0.0507
-5.1,-0.2891,0.01139,0.00366,-0.051
-5,-0.2762,0.01134,0.00361,-0.0512
-4.9,-0.2636,0.01126,0.00355,-0.0514
-4.8,-0.2512,0.0112,0.0035,-0.0516
-4.7,-0.2389,0.01116,0.00346,-0.0516
-4.6,-0.2268,0.01111,0.0034,-0.0517
-4.5,-0.2153,0.01108,0.00337,-0.0516
-4.4,-0.2034,0.01104,0.00333,-0.0516
-4.3,-0.1917,0.01098,0.00329,-0.0516
-4.2,-0.1798,0.01093,0.00324,-0.0516
-4.1,-0.168,0.0109,0.0032,-0.0516
-4,-0.1562,0.01086,0.00315,-0.0516
-3.9,-0.1443,0.01081,0.00311,-0.0517
-3.8,-0.1324,0.01078,0.00308,-0.0517
-3.7,-0.1215,0.01081,0.00305,-0.0514
-3.6,-0.11,0.01078,0.00303,-0.0514
-3.5,-0.0981,0.01075,0.00299,-0.0514
-3.4,-0.0861,0.01071,0.00295,-0.0515
-3.3,-0.0744,0.01071,0.00293,-0.0515
-3.1,-0.0506,0.01066,0.00286,-0.0515
-3,-0.0386,0.01063,0.00283,-0.0516
-2.9,-0.0266,0.0106,0.0028,-0.0517
-2.8,-0.0149,0.01061,0.00278,-0.0517
-2.7,-0.0027,0.01058,0.00275,-0.0518
-2.6,0.0094,0.01054,0.00272,-0.0519
-2.5,0.0216,0.01049,0.00269,-0.052
-2.4,0.0337,0.01046,0.00267,-0.0521
-2.3,0.0459,0.01042,0.00264,-0.0523
-2.2,0.0581,0.01039,0.00261,-0.0524
-2.1,0.0698,0.01042,0.0026,-0.0524
-2,0.0817,0.01039,0.00259,-0.0525
-1.9,0.0939,0.01036,0.00257,-0.0526
-1.8,0.1061,0.01033,0.00254,-0.0527
-1.7,0.1182,0.01032,0.00253,-0.0529
-1.6,0.1304,0.01028,0.0025,-0.053
-1.5,0.1425,0.01023,0.00248,-0.0531
-1.4,0.1544,0.01025,0.00248,-0.0532
-1.3,0.1663,0.01026,0.00247,-0.0533
-1.2,0.1782,0.01027,0.00246,-0.0534
-1.1,0.1903,0.01026,0.00245,-0.0535
-1,0.2023,0.01023,0.00244,-0.0536
-0.9,0.2144,0.01022,0.00244,-0.0537
-0.8,0.2265,0.0102,0.00242,-0.0538
-0.7,0.2386,0.0102,0.00242,-0.054
-0.6,0.2504,0.01019,0.00242,-0.0541
-0.5,0.2624,0.01019,0.00243,-0.0542
-0.4,0.2745,0.01017,0.00242,-0.0543
-0.3,0.2866,0.01016,0.00242,-0.0544
-0.2,0.2986,0.01011,0.00242,-0.0546
0,0.3226,0.01009,0.00243,-0.0548
0.1,0.3346,0.01007,0.00243,-0.0549
0.2,0.3465,0.01001,0.00243,-0.055
0.3,0.3581,0.01004,0.00246,-0.0551
0.4,0.3699,0.01004,0.00248,-0.0552
0.5,0.3817,0.01001,0.00249,-0.0552
0.6,0.3934,0.01001,0.00251,-0.0553
0.7,0.4045,0.00992,0.00252,-0.0552
0.8,0.416,0.00992,0.00254,-0.0552
0.9,0.4274,0.00992,0.00256,-0.0551
1,0.4387,0.00993,0.00258,-0.055
1.1,0.4489,0.00988,0.0026,-0.0547
1.2,0.4598,0.00989,0.00262,-0.0545
1.3,0.4701,0.00996,0.00266,-0.0542
1.4,0.4804,0.00999,0.00269,-0.0539
1.5,0.4886,0.00994,0.00267,-0.053
1.6,0.4986,0.00997,0.00269,-0.0526
1.7,0.5086,0.01001,0.0027,-0.0522
1.8,0.5191,0.01005,0.0027,-0.0519
1.9,0.5303,0.01004,0.00265,-0.0518
2,0.5436,0.01009,0.00263,-0.0522
2.1,0.5554,0.01023,0.0027,-0.0523
2.2,0.5672,0.01036,0.00275,-0.0524
2.3,0.5786,0.01058,0.00285,-0.0525
2.4,0.5904,0.01071,0.0029,-0.0527
2.5,0.6023,0.01085,0.00298,-0.0528
2.6,0.6141,0.01099,0.00305,-0.0529
2.7,0.626,0.01111,0.00311,-0.053
2.8,0.6378,0.01124,0.00319,-0.0532
2.9,0.6498,0.01135,0.00325,-0.0533
3,0.6617,0.01146,0.00332,-0.0534
3.1,0.6735,0.01159,0.0034,-0.0536
3.2,0.6855,0.01168,0.00346,-0.0537
3.3,0.6975,0.01178,0.00352,-0.0538
3.4,0.7092,0.01193,0.0036,-0.054
3.5,0.7211,0.01204,0.00368,-0.0541
3.6,0.7331,0.01212,0.00375,-0.0542
3.7,0.7451,0.01221,0.00381,-0.0544
3.8,0.7571,0.0123,0.00388,-0.0545
3.9,0.769,0.0124,0.00395,-0.0546
4,0.7808,0.01251,0.00403,-0.0547
4.1,0.7927,0.01262,0.00411,-0.0549
4.2,0.8047,0.0127,0.00418,-0.055
4.3,0.8167,0.01278,0.00425,-0.0551
4.4,0.8286,0.01287,0.00432,-0.0553
4.5,0.8404,0.01299,0.0044,-0.0554
4.6,0.8523,0.01309,0.00448,-0.0555
4.7,0.864,0.01321,0.00456,-0.0556
4.8,0.876,0.01329,0.00464,-0.0558
4.9,0.8879,0.01337,0.00472,-0.0559
5,0.8998,0.01346,0.00479,-0.056
5.1,0.9117,0.01355,0.00487,-0.0561
5.2,0.9235,0.01364,0.00494,-0.0562
5.3,0.9353,0.01374,0.00503,-0.0564
5.4,0.9471,0.01385,0.0051,-0.0565
5.5,0.9588,0.01397,0.00519,-0.0566
5.6,0.9706,0.01407,0.00529,-0.0567
5.7,0.9825,0.01415,0.00536,-0.0568
5.8,0.9943,0.01424,0.00544,-0.057
5.9,1.0061,0.01433,0.00553,-0.0571
6,1.0179,0.01443,0.00561,-0.0572
6.1,1.0296,0.01453,0.0057,-0.0573
6.2,1.0413,0.01464,0.00578,-0.0574
6.3,1.0529,0.01476,0.00588,-0.0575
6.4,1.0645,0.01489,0.00598,-0.0576
6.5,1.0763,0.01497,0.00607,-0.0578
6.6,1.0881,0.01505,0.00616,-0.0579
6.7,1.0998,0.01514,0.00625,-0.058
6.8,1.1115,0.01524,0.00634,-0.0581
6.9,1.1231,0.01534,0.00642,-0.0582
7,1.1347,0.01545,0.00652,-0.0583
7.1,1.1463,0.01557,0.00662,-0.0584
7.2,1.1578,0.01569,0.00672,-0.0585
7.3,1.1693,0.01582,0.00682,-0.0586
7.4,1.1809,0.01592,0.00693,-0.0587
7.5,1.1926,0.01601,0.00702,-0.0588
7.6,1.2042,0.0161,0.00712,-0.0589
7.7,1.2158,0.0162,0.00723,-0.0591
7.8,1.2274,0.0163,0.00733,-0.0592
7.9,1.2389,0.01641,0.00744,-0.0593
8,1.2504,0.01652,0.00754,-0.0594
8.1,1.2617,0.01665,0.00764,-0.0595
8.2,1.2731,0.01678,0.00774,-0.0595
8.3,1.2844,0.01692,0.00786,-0.0596
8.4,1.2958,0.01703,0.00797,-0.0597
8.5,1.3074,0.01712,0.00809,-0.0598
8.6,1.3189,0.01722,0.0082,-0.0599
8.7,1.3303,0.01733,0.00831,-0.06
8.8,1.3417,0.01744,0.00843,-0.0601
8.9,1.3531,0.01755,0.00854,-0.0602
9,1.3645,0.01767,0.00866,-0.0603
9.1,1.3758,0.01779,0.00877,-0.0604
9.2,1.387,0.01792,0.00889,-0.0604
9.3,1.3982,0.01806,0.00901,-0.0605
9.4,1.4094,0.0182,0.00914,-0.0606
9.5,1.4204,0.01834,0.00926,-0.0607
9.6,1.4318,0.01844,0.00938,-0.0608
9.7,1.4431,0.01854,0.00951,-0.0608
9.8,1.4543,0.01866,0.00963,-0.0609
9.9,1.4655,0.01878,0.00976,-0.061
10,1.4767,0.0189,0.00989,-0.0611
10.1,1.4878,0.01903,0.01002,-0.0611
10.2,1.4989,0.01916,0.01015,-0.0612
10.3,1.51,0.01929,0.01029,-0.0613
10.4,1.521,0.01943,0.01042,-0.0613
10.5,1.5319,0.01958,0.01055,-0.0614
10.6,1.5428,0.01973,0.01069,-0.0615
10.7,1.5535,0.0199,0.01084,-0.0615
10.8,1.5647,0.01999,0.01096,-0.0616
10.9,1.5758,0.0201,0.0111,-0.0616
11,1.5868,0.02023,0.01124,-0.0617
11.1,1.5977,0.02036,0.01139,-0.0617
11.2,1.6086,0.02049,0.01154,-0.0618
11.3,1.6195,0.02063,0.01168,-0.0618
11.4,1.6303,0.02077,0.01183,-0.0619
11.5,1.641,0.02092,0.01197,-0.0619
11.6,1.6517,0.02107,0.01212,-0.062
11.7,1.6624,0.02122,0.01227,-0.062
11.8,1.6729,0.02138,0.01242,-0.062
11.9,1.6834,0.02156,0.01258,-0.0621
12,1.6938,0.02174,0.01275,-0.0621
12.1,1.7047,0.02186,0.01291,-0.0621
12.2,1.7155,0.02195,0.01305,-0.0622
12.3,1.7261,0.02209,0.01321,-0.0622
12.4,1.7367,0.02224,0.01337,-0.0622
12.5,1.7472,0.02238,0.01354,-0.0622
12.6,1.7577,0.02253,0.0137,-0.0623
12.7,1.7681,0.02269,0.01386,-0.0623
12.8,1.7785,0.02285,0.01403,-0.0623
12.9,1.7888,0.02301,0.01419,-0.0623
13,1.799,0.02318,0.01436,-0.0623
13.1,1.8091,0.02335,0.01453,-0.0623
13.2,1.8192,0.02354,0.01471,-0.0623
13.3,1.8291,0.02373,0.01489,-0.0623
13.4,1.8392,0.02391,0.01508,-0.0623
13.5,1.8496,0.02404,0.01526,-0.0623
13.6,1.8598,0.02419,0.01544,-0.0622
13.7,1.87,0.02431,0.0156,-0.0622
13.8,1.8801,0.02447,0.01578,-0.0622
13.9,1.8901,0.02463,0.01597,-0.0622
14,1.9001,0.0248,0.01615,-0.0622
14.1,1.9099,0.02497,0.01634,-0.0621
14.2,1.9197,0.02514,0.01652,-0.0621
14.3,1.9295,0.02532,0.01672,-0.062
14.4,1.9391,0.02551,0.01691,-0.062
14.5,1.9486,0.02569,0.0171,-0.0619
14.6,1.9581,0.02589,0.01729,-0.0619
14.7,1.9674,0.0261,0.01749,-0.0618
14.8,1.9766,0.02632,0.0177,-0.0617
14.9,1.9861,0.0265,0.01791,-0.0617
15,1.9957,0.02666,0.01812,-0.0616
15.1,2.0053,0.02682,0.01833,-0.0615
15.2,2.0147,0.02699,0.01854,-0.0615
15.3,2.0241,0.02717,0.01875,-0.0614
15.4,2.0333,0.02732,0.01893,-0.0613
15.5,2.0425,0.02751,0.01914,-0.0612
15.6,2.0515,0.0277,0.01936,-0.0611
15.7,2.0605,0.02789,0.01957,-0.061
15.8,2.0693,0.02809,0.01978,-0.0609
15.9,2.0781,0.02829,0.02,-0.0607
16,2.0867,0.0285,0.02022,-0.0606
16.1,2.0952,0.02871,0.02044,-0.0605
16.2,2.1035,0.02893,0.02066,-0.0603
16.3,2.1117,0.02916,0.02089,-0.0602
16.4,2.1198,0.02941,0.02113,-0.06
16.5,2.1281,0.02962,0.02137,-0.0598
16.6,2.1366,0.0298,0.02161,-0.0597
16.7,2.145,0.02999,0.02185,-0.0595
16.8,2.1533,0.03019,0.02209,-0.0593
16.9,2.1615,0.03039,0.02234,-0.0592
17,2.1694,0.03056,0.02256,-0.0589
17.1,2.1772,0.03077,0.0228,-0.0587
17.2,2.1849,0.03099,0.02304,-0.0585
17.3,2.1924,0.03121,0.02329,-0.0583
17.4,2.1997,0.03143,0.02353,-0.0581
17.5,2.2069,0.03165,0.02378,-0.0578
17.6,2.2138,0.03188,0.02403,-0.0575
17.7,2.2205,0.03211,0.02427,-0.0572
17.8,2.227,0.03235,0.02453,-0.0569
17.9,2.2333,0.03259,0.02478,-0.0566
18,2.2393,0.03284,0.02504,-0.0563
18.1,2.2451,0.0331,0.02531,-0.0559
18.2,2.2507,0.03337,0.02559,-0.0556
18.3,2.2565,0.03362,0.02586,-0.0552
18.4,2.2625,0.03383,0.02615,-0.0549
18.5,2.2674,0.03404,0.02642,-0.0544
18.6,2.2721,0.03427,0.0267,-0.0538
18.7,2.2768,0.03451,0.02699,-0.0534
18.8,2.2816,0.03476,0.02729,-0.053
18.9,2.2866,0.03501,0.02759,-0.0526
19,2.2915,0.03523,0.02786,-0.0524
19.1,2.2968,0.03549,0.02816,-0.0522
19.2,2.3023,0.03576,0.02846,-0.0521
19.3,2.3078,0.03602,0.02876,-0.052
19.4,2.3135,0.03629,0.02906,-0.052
19.5,2.3192,0.03657,0.02937,-0.0521
19.6,2.325,0.03684,0.02967,-0.0522
19.7,2.331,0.03713,0.02998,-0.0524
19.8,2.337,0.03741,0.03029,-0.0526
19.9,2.3431,0.03771,0.03061,-0.053
20,2.3492,0.03801,0.03094,-0.0533
20.1,2.3555,0.03832,0.03126,-0.0538
20.2,2.3617,0.03864,0.03159,-0.0542
20.3,2.3682,0.03895,0.03193,-0.0547
20.4,2.3752,0.03922,0.03227,-0.0552
20.5,2.3822,0.03949,0.03262,-0.0558
20.6,2.3892,0.03978,0.03297,-0.0564
20.7,2.3963,0.04007,0.03332,-0.057
20.8,2.4034,0.04036,0.03367,-0.0577
20.9,2.4104,0.04066,0.03403,-0.0584
21,2.4176,0.04096,0.03438,-0.0592
21.1,2.4247,0.04127,0.03474,-0.06
21.2,2.4319,0.04157,0.03508,-0.0611
21.3,2.4391,0.04189,0.03544,-0.062
21.4,2.4462,0.04222,0.03581,-0.063
21.5,2.4534,0.04255,0.03619,-0.0641
21.6,2.4605,0.04289,0.03657,-0.0652
21.7,2.4677,0.04325,0.03695,-0.0663
21.8,2.4747,0.04361,0.03734,-0.0676
21.9,2.4818,0.04398,0.03774,-0.0688
22,2.4887,0.04437,0.03815,-0.0702
22.1,2.4956,0.04477,0.03857,-0.0715
22.2,2.5024,0.04519,0.03899,-0.0729
22.3,2.5094,0.04559,0.03945,-0.0743
22.4,2.5165,0.04599,0.03994,-0.0758
22.5,2.5236,0.04641,0.04044,-0.0773
22.6,2.5305,0.04685,0.04096,-0.0788
22.7,2.5374,0.0473,0.04148,-0.0804
22.8,2.5441,0.04777,0.04202,-0.082
22.9,2.5508,0.04825,0.04258,-0.0838
23,2.5574,0.04876,0.04316,-0.0856
23.1,2.5639,0.04931,0.04378,-0.0876
23.2,2.5701,0.04987,0.04439,-0.0896
23.3,2.5761,0.05045,0.04503,-0.0916
23.4,2.5819,0.05106,0.0457,-0.0937
23.5,2.5875,0.05171,0.04639,-0.0959
23.6,2.5928,0.05238,0.04712,-0.0981
23.7,2.598,0.05309,0.04787,-0.1004
23.8,2.6028,0.05383,0.04866,-0.1028
23.9,2.6073,0.05461,0.04948,-0.1053
24,2.6116,0.05541,0.05032,-0.1078
24.1,2.6156,0.05624,0.05118,-0.1103
24.2,2.6193,0.05708,0.05204,-0.1128
24.3,2.6227,0.05797,0.05298,-0.1154
24.4,2.6256,0.05907,0.05421,-0.1185
24.5,2.6279,0.06023,0.05549,-0.1217
24.6,2.6299,0.06143,0.0568,-0.1249
24.7,2.6314,0.06268,0.05816,-0.1282
24.8,2.6312,0.06444,0.06008,-0.1328
24.9,2.6317,0.06584,0.06157,-0.1363
25,2.6317,0.06731,0.06314,-0.14
25.1,2.6299,0.06919,0.06512,-0.1446
25.2,2.6289,0.0708,0.06681,-0.1486
25.3,2.6277,0.07241,0.0685,-0.1525
25.4,2.6264,0.07398,0.07014,-0.1564
25.5,2.6252,0.0755,0.07172,-0.1602
25.6,2.6238,0.077,0.07328,-0.1639
25.7,2.6232,0.07827,0.07459,-0.1673
25.8,2.6228,0.07947,0.07582,-0.1705
25.9,2.623,0.0805,0.07686,-0.1734
26.1,2.6114,0.08527,0.08189,-0.1845
26.2,2.6047,0.08789,0.08467,-0.1904
26.3,2.599,0.09031,0.08721,-0.1957
26.4,2.593,0.09281,0.08984,-0.2012
26.5,2.5873,0.0953,0.09244,-0.2066
26.6,2.5826,0.0976,0.09483,-0.2115
26.7,2.5798,0.09953,0.09682,-0.2156
26.8,2.5767,0.10163,0.09894,-0.22
26.9,2.5778,0.10273,0.10002,-0.2225
27,2.5797,0.1036,0.10088,-0.2246
27.1,2.5822,0.10432,0.10159,-0.2264
27.2,2.5854,0.10488,0.10214,-0.2279
27.3,2.5891,0.10531,0.10254,-0.2291
27.4,2.5317,0.12126,0.11916,-0.2551
27.5,2.5182,0.12638,0.12441,-0.2632
27.6,2.5171,0.12819,0.12624,-0.2663
27.7,2.5191,0.12917,0.12722,-0.2682
27.8,2.5222,0.12984,0.12789,-0.2695
27.9,2.5258,0.13037,0.12841,-0.2707
28,2.5296,0.13085,0.12888,-0.2718
28.1,2.5337,0.13125,0.12926,-0.2727
28.2,2.5406,0.13095,0.12891,-0.2726
28.3,2.5452,0.13119,0.12913,-0.2733
28.4,2.5491,0.13168,0.12957,-0.2744

