airfoilName st6.dat
Re 	890000
M 	0
N 	4.500000e+00
VACC 	0 VACCflag 1
XTR 	1.00 	1.00 XTRflag 0
alpha,cl,cd,cdp,cm
-19,-1.7544,0.10496,0.10318,0.1063
-18.8,-1.7505,0.0375,0.03351,-0.0319
-18.7,-1.7342,0.03593,0.03181,-0.0376
-18.6,-1.7245,0.0349,0.03069,-0.0406
-18.5,-1.718,0.03409,0.02981,-0.0423
-18.4,-1.7137,0.0334,0.02906,-0.0431
-18.3,-1.7087,0.03279,0.0284,-0.0436
-18.2,-1.7026,0.03222,0.02778,-0.0441
-18.1,-1.6962,0.03169,0.02719,-0.0445
-18,-1.6896,0.03118,0.02665,-0.0448
-17.9,-1.6826,0.03071,0.02613,-0.045
-17.8,-1.6753,0.03025,0.02562,-0.0452
-17.7,-1.6678,0.02981,0.02515,-0.0454
-17.6,-1.6601,0.02939,0.02469,-0.0455
-17.5,-1.6522,0.02899,0.02425,-0.0456
-17.4,-1.6441,0.0286,0.02382,-0.0457
-17.3,-1.6359,0.02823,0.02341,-0.0458
-17.2,-1.6275,0.02786,0.02302,-0.0458
-17.1,-1.6189,0.02751,0.02263,-0.0459
-17,-1.6102,0.02717,0.02225,-0.0459
-16.9,-1.6014,0.02683,0.02189,-0.0459
-16.8,-1.5925,0.0265,0.02153,-0.0459
-16.7,-1.5835,0.02619,0.02118,-0.046
-16.6,-1.5743,0.02588,0.02084,-0.046
-16.5,-1.565,0.02557,0.0205,-0.046
-16.4,-1.5557,0.02528,0.02017,-0.046
-16.3,-1.5462,0.02499,0.01985,-0.046
-16.2,-1.5367,0.0247,0.01954,-0.046
-16.1,-1.527,0.02442,0.01923,-0.046
-16,-1.5173,0.02415,0.01893,-0.046
-15.9,-1.5075,0.02388,0.01863,-0.046
-15.8,-1.4976,0.02362,0.01834,-0.0461
-15.7,-1.4877,0.02336,0.01805,-0.0461
-15.6,-1.4777,0.02311,0.01777,-0.0461
-15.5,-1.4676,0.02286,0.0175,-0.0461
-15.4,-1.4574,0.02262,0.01723,-0.0461
-15.3,-1.4472,0.02238,0.01696,-0.0461
-15.2,-1.4369,0.02215,0.0167,-0.0461
-15.1,-1.4265,0.02192,0.01644,-0.0461
-15,-1.4161,0.0217,0.01619,-0.0462
-14.9,-1.4056,0.02148,0.01595,-0.0462
-14.8,-1.3951,0.02127,0.01571,-0.0462
-14.7,-1.3845,0.02106,0.01548,-0.0462
-14.6,-1.3739,0.02086,0.01525,-0.0462
-14.5,-1.3632,0.02067,0.01503,-0.0462
-14.4,-1.3524,0.02048,0.01482,-0.0463
-14.3,-1.3416,0.02029,0.01461,-0.0463
-14.2,-1.3311,0.02002,0.01432,-0.0463
-14.1,-1.3205,0.01977,0.01405,-0.0464
-14,-1.3097,0.01953,0.01379,-0.0464
-13.9,-1.2989,0.0193,0.01354,-0.0465
-13.8,-1.2881,0.01909,0.01331,-0.0465
-13.7,-1.2772,0.01888,0.01309,-0.0466
-13.6,-1.2662,0.01868,0.01287,-0.0466
-13.5,-1.2552,0.01849,0.01267,-0.0466
-13.4,-1.2441,0.0183,0.01247,-0.0467
-13.3,-1.233,0.01812,0.01227,-0.0467
-13.2,-1.2219,0.01794,0.01208,-0.0468
-13.1,-1.2107,0.01777,0.01189,-0.0468
-13,-1.1995,0.01759,0.0117,-0.0469
-12.9,-1.1882,0.01742,0.01152,-0.0469
-12.8,-1.177,0.01726,0.01134,-0.047
-12.7,-1.1657,0.01709,0.01115,-0.0471
-12.6,-1.1543,0.01693,0.01098,-0.0471
-12.5,-1.143,0.01677,0.01081,-0.0472
-12.4,-1.1316,0.01662,0.01064,-0.0472
-12.3,-1.1202,0.01647,0.01047,-0.0473
-12.2,-1.1088,0.01632,0.0103,-0.0474
-12.1,-1.0973,0.01617,0.01014,-0.0474
-12,-1.0858,0.01603,0.00998,-0.0475
-11.9,-1.0743,0.01589,0.00983,-0.0475
-11.8,-1.0628,0.01576,0.00968,-0.0476
-11.7,-1.0512,0.01563,0.00954,-0.0477
-11.6,-1.0397,0.01548,0.00938,-0.0477
-11.5,-1.0281,0.01531,0.00919,-0.0478
-11.4,-1.0167,0.01514,0.00904,-0.0479
-11.3,-1.0051,0.01499,0.00888,-0.048
-11.2,-0.9935,0.01484,0.00873,-0.0481
-11.1,-0.9818,0.0147,0.00859,-0.0482
-11,-0.9702,0.01457,0.00845,-0.0482
-10.9,-0.9585,0.01444,0.00831,-0.0483
-10.8,-0.9468,0.01431,0.00817,-0.0484
-10.7,-0.9351,0.01418,0.00804,-0.0485
-10.6,-0.9234,0.01405,0.00791,-0.0486
-10.5,-0.9116,0.01393,0.00777,-0.0486
-10.4,-0.8999,0.01381,0.00764,-0.0487
-10.3,-0.8881,0.01369,0.00752,-0.0488
-10.2,-0.8763,0.01358,0.0074,-0.0489
-10.1,-0.8645,0.01347,0.00728,-0.049
-10,-0.8527,0.01336,0.00716,-0.049
-9.9,-0.8409,0.01327,0.00705,-0.0491
-9.8,-0.8291,0.01312,0.00691,-0.0492
-9.7,-0.8173,0.01299,0.00678,-0.0493
-9.6,-0.8047,0.01287,0.00666,-0.0496
-9.5,-0.7912,0.01275,0.00654,-0.05
-9.4,-0.7784,0.01264,0.00643,-0.0503
-9.3,-0.7659,0.01254,0.00632,-0.0506
-9.2,-0.7533,0.01243,0.00622,-0.0508
-9.1,-0.7406,0.01234,0.00612,-0.0511
-9,-0.728,0.01226,0.00602,-0.0513
-8.9,-0.7158,0.01217,0.00593,-0.0514
-8.8,-0.7038,0.01209,0.00584,-0.0515
-8.7,-0.6919,0.01201,0.00575,-0.0515
-8.6,-0.6802,0.01194,0.00566,-0.0516
-8.5,-0.669,0.01189,0.00559,-0.0514
-8.4,-0.6575,0.01179,0.00549,-0.0514
-8.3,-0.646,0.0117,0.0054,-0.0514
-8.2,-0.6344,0.01162,0.00531,-0.0514
-8.1,-0.6235,0.01157,0.00523,-0.0512
-8,-0.6118,0.01149,0.00514,-0.0512
-7.9,-0.6001,0.01142,0.00506,-0.0512
-7.8,-0.5884,0.01135,0.00498,-0.0512
-7.7,-0.5768,0.01128,0.0049,-0.0512
-7.6,-0.5653,0.01123,0.00482,-0.0512
-7.5,-0.5535,0.01118,0.00475,-0.0512
-7.4,-0.5418,0.01111,0.00466,-0.0512
-7.3,-0.5299,0.01102,0.00457,-0.0513
-7.2,-0.518,0.01095,0.00449,-0.0514
-7.1,-0.5065,0.0109,0.00442,-0.0513
-7,-0.4946,0.01083,0.00435,-0.0514
-6.9,-0.4826,0.01076,0.00427,-0.0515
-6.8,-0.4706,0.0107,0.0042,-0.0515
-6.7,-0.4587,0.01064,0.00413,-0.0516
-6.6,-0.4468,0.01059,0.00407,-0.0517
-6.5,-0.4348,0.01054,0.004,-0.0517
-6.4,-0.4229,0.01048,0.00393,-0.0518
-6.3,-0.4109,0.01041,0.00385,-0.0519
-6.2,-0.399,0.01035,0.00379,-0.0519
-6.1,-0.3869,0.01029,0.00373,-0.052
-6,-0.3748,0.01023,0.00367,-0.0521
-5.9,-0.3628,0.01017,0.00361,-0.0522
-5.8,-0.3507,0.01013,0.00355,-0.0523
-5.7,-0.3388,0.01009,0.00349,-0.0524
-5.6,-0.3267,0.01002,0.00343,-0.0525
-5.5,-0.3147,0.00996,0.00337,-0.0526
-5.4,-0.3026,0.00991,0.00332,-0.0527
-5.3,-0.2906,0.00987,0.00327,-0.0528
-5.2,-0.2784,0.00982,0.00322,-0.0529
-5.1,-0.2663,0.00977,0.00317,-0.053
-5,-0.2544,0.00972,0.00311,-0.053
-4.9,-0.2423,0.00967,0.00306,-0.0532
-4.8,-0.2301,0.00962,0.00301,-0.0533
-4.7,-0.218,0.00958,0.00297,-0.0534
-4.6,-0.2059,0.00955,0.00292,-0.0535
-4.5,-0.1938,0.0095,0.00287,-0.0536
-4.4,-0.1818,0.00947,0.00283,-0.0537
-4.3,-0.17,0.00947,0.00279,-0.0537
-4.2,-0.1579,0.00943,0.00275,-0.0538
-4.1,-0.146,0.00941,0.0027,-0.0539
-4,-0.1341,0.0094,0.00267,-0.054
-3.9,-0.1219,0.00936,0.00263,-0.0541
-3.8,-0.1098,0.00933,0.0026,-0.0542
-3.7,-0.0979,0.00934,0.00256,-0.0543
-3.6,-0.0858,0.0093,0.00253,-0.0544
-3.5,-0.0737,0.00926,0.0025,-0.0545
-3.4,-0.0615,0.00924,0.00247,-0.0546
-3.3,-0.0496,0.00923,0.00243,-0.0547
-3.2,-0.0375,0.00921,0.00241,-0.0549
-3.1,-0.0256,0.00923,0.00239,-0.0549
-3,-0.0135,0.00922,0.00236,-0.0551
-2.9,-0.0015,0.00922,0.00234,-0.0552
-2.8,0.0106,0.00919,0.00232,-0.0553
-2.7,0.0227,0.00916,0.00229,-0.0555
-2.6,0.0348,0.00915,0.00227,-0.0556
-2.5,0.047,0.00914,0.00225,-0.0557
-2.4,0.0589,0.00916,0.00224,-0.0558
-2.3,0.0709,0.00915,0.00223,-0.056
-2.2,0.083,0.00913,0.00221,-0.0561
-2.1,0.0952,0.00911,0.0022,-0.0562
-2,0.1073,0.0091,0.00218,-0.0564
-1.9,0.1194,0.00909,0.00217,-0.0565
-1.8,0.1314,0.00908,0.00216,-0.0566
-1.7,0.1433,0.00911,0.00216,-0.0568
-1.6,0.1553,0.00914,0.00216,-0.0569
-1.5,0.1674,0.00912,0.00215,-0.057
-1.4,0.1795,0.00912,0.00215,-0.0572
-1.3,0.1916,0.00909,0.00214,-0.0573
-1.2,0.2037,0.00909,0.00214,-0.0575
-1.1,0.2158,0.00909,0.00213,-0.0576
-1,0.2279,0.00909,0.00213,-0.0577
-0.9,0.2398,0.00912,0.00214,-0.0579
-0.8,0.2519,0.00913,0.00214,-0.058
-0.7,0.264,0.00914,0.00214,-0.0582
-0.6,0.276,0.00914,0.00214,-0.0583
-0.5,0.2881,0.00915,0.00215,-0.0584
-0.4,0.3001,0.00914,0.00215,-0.0586
-0.3,0.3122,0.00915,0.00216,-0.0587
-0.2,0.3242,0.00916,0.00216,-0.0589
0,0.348,0.00922,0.00219,-0.0592
0.1,0.36,0.00924,0.00221,-0.0593
0.2,0.372,0.00926,0.00222,-0.0595
0.3,0.384,0.00926,0.00223,-0.0597
0.4,0.396,0.00929,0.00226,-0.0598
0.5,0.4079,0.00932,0.00228,-0.0599
0.6,0.4198,0.00936,0.0023,-0.0601
0.7,0.4317,0.00936,0.00232,-0.0603
0.8,0.4436,0.00941,0.00234,-0.0604
0.9,0.4555,0.00945,0.00237,-0.0606
1,0.467,0.00959,0.00243,-0.0607
1.1,0.4788,0.00961,0.00245,-0.0609
1.2,0.4907,0.00965,0.00249,-0.061
1.3,0.5025,0.0097,0.00252,-0.0612
1.4,0.5145,0.00973,0.00255,-0.0613
1.5,0.5263,0.0097,0.00258,-0.0615
1.6,0.5383,0.00973,0.00261,-0.0616
1.7,0.5502,0.00973,0.00264,-0.0618
1.8,0.5622,0.00974,0.00267,-0.0619
1.9,0.5739,0.00972,0.00271,-0.0621
2,0.5858,0.00971,0.00274,-0.0623
2.1,0.5977,0.0097,0.00277,-0.0624
2.2,0.6094,0.00962,0.00281,-0.0625
2.3,0.6211,0.00963,0.00285,-0.0626
2.4,0.6329,0.00964,0.00289,-0.0627
2.5,0.6446,0.00964,0.00293,-0.0627
2.6,0.6557,0.00957,0.00297,-0.0627
2.7,0.6672,0.00957,0.003,-0.0627
2.8,0.6785,0.00958,0.00304,-0.0626
2.9,0.6895,0.00963,0.00309,-0.0625
3,0.6988,0.00956,0.00312,-0.062
3.1,0.7094,0.00956,0.00314,-0.0617
3.2,0.7198,0.00957,0.00317,-0.0615
3.3,0.7301,0.00958,0.00318,-0.0612
3.4,0.7398,0.00954,0.00316,-0.0607
3.5,0.752,0.00958,0.00318,-0.0609
3.6,0.7644,0.00961,0.00319,-0.0611
3.7,0.7764,0.00966,0.00323,-0.0612
3.8,0.7884,0.00972,0.00328,-0.0614
3.9,0.8003,0.00978,0.00332,-0.0615
4,0.8121,0.00986,0.00337,-0.0616
4.1,0.824,0.00993,0.00341,-0.0617
4.2,0.8358,0.01,0.00346,-0.0619
4.3,0.8477,0.01007,0.00352,-0.062
4.4,0.8596,0.01012,0.00356,-0.0621
4.5,0.8715,0.01018,0.00361,-0.0622
4.6,0.8834,0.01024,0.00366,-0.0623
4.7,0.8952,0.0103,0.00371,-0.0625
4.8,0.9071,0.01037,0.00376,-0.0626
4.9,0.9189,0.01044,0.00381,-0.0627
5,0.9306,0.01052,0.00387,-0.0628
5.1,0.9424,0.0106,0.00393,-0.0629
5.2,0.9542,0.01066,0.00398,-0.063
5.3,0.966,0.01073,0.00403,-0.0632
5.4,0.9778,0.01079,0.00408,-0.0633
5.5,0.9896,0.01086,0.00414,-0.0634
5.6,1.0013,0.01093,0.0042,-0.0635
5.7,1.013,0.01101,0.00426,-0.0636
5.8,1.0247,0.01109,0.00432,-0.0637
5.9,1.0364,0.01117,0.00439,-0.0638
6,1.0481,0.01123,0.00444,-0.0639
6.1,1.0599,0.0113,0.0045,-0.0641
6.2,1.0715,0.01137,0.00456,-0.0642
6.3,1.0832,0.01144,0.00462,-0.0643
6.4,1.0949,0.01152,0.00469,-0.0644
6.5,1.1065,0.0116,0.00475,-0.0645
6.6,1.1181,0.01168,0.00482,-0.0646
6.7,1.1297,0.01177,0.00489,-0.0647
6.8,1.1413,0.01185,0.00496,-0.0648
6.9,1.153,0.01192,0.00502,-0.0649
7,1.1646,0.01199,0.00509,-0.065
7.1,1.1762,0.01206,0.00515,-0.0651
7.2,1.1878,0.01213,0.00523,-0.0652
7.3,1.1994,0.01221,0.00529,-0.0653
7.4,1.2108,0.01231,0.00537,-0.0654
7.5,1.2223,0.0124,0.00544,-0.0655
7.6,1.2337,0.0125,0.00552,-0.0656
7.7,1.2452,0.01259,0.0056,-0.0657
7.8,1.2567,0.01266,0.00567,-0.0658
7.9,1.2682,0.01273,0.00575,-0.0659
8,1.2797,0.01281,0.00582,-0.066
8.1,1.2912,0.01289,0.0059,-0.0661
8.2,1.3026,0.01297,0.00598,-0.0662
8.3,1.314,0.01306,0.00605,-0.0662
8.4,1.3254,0.01315,0.00613,-0.0663
8.5,1.3368,0.01324,0.00622,-0.0664
8.6,1.3479,0.01337,0.00631,-0.0665
8.7,1.3592,0.01346,0.0064,-0.0666
8.8,1.3706,0.01354,0.00648,-0.0667
8.9,1.382,0.01362,0.00657,-0.0667
9,1.3933,0.01371,0.00665,-0.0668
9.1,1.4046,0.01379,0.00673,-0.0669
9.2,1.4159,0.01388,0.00682,-0.067
9.3,1.4271,0.01398,0.00691,-0.0671
9.4,1.4384,0.01407,0.007,-0.0671
9.5,1.4495,0.01417,0.00709,-0.0672
9.6,1.4607,0.01428,0.00719,-0.0673
9.7,1.4717,0.01439,0.00729,-0.0673
9.8,1.4828,0.01451,0.0074,-0.0674
9.9,1.494,0.01459,0.00749,-0.0675
10,1.5051,0.01468,0.00758,-0.0675
10.1,1.5163,0.01478,0.00767,-0.0676
10.2,1.5274,0.01488,0.00777,-0.0676
10.3,1.5384,0.01498,0.00787,-0.0677
10.4,1.5494,0.01508,0.00797,-0.0678
10.5,1.5604,0.01519,0.00807,-0.0678
10.6,1.5714,0.0153,0.00817,-0.0679
10.7,1.5823,0.01542,0.00828,-0.0679
10.8,1.5931,0.01554,0.0084,-0.0679
10.9,1.6039,0.01567,0.00852,-0.068
11,1.6149,0.01576,0.00863,-0.068
11.1,1.6258,0.01586,0.00873,-0.0681
11.2,1.6367,0.01596,0.00883,-0.0681
11.3,1.6475,0.01607,0.00894,-0.0681
11.4,1.6583,0.01618,0.00905,-0.0682
11.5,1.6691,0.01629,0.00916,-0.0682
11.6,1.6798,0.01641,0.00928,-0.0682
11.7,1.6905,0.01653,0.0094,-0.0683
11.8,1.7011,0.01666,0.00952,-0.0683
11.9,1.7117,0.01679,0.00965,-0.0683
12,1.7222,0.01692,0.00978,-0.0683
12.1,1.7327,0.01706,0.00992,-0.0683
12.2,1.7434,0.01716,0.01003,-0.0683
12.3,1.754,0.01727,0.01015,-0.0683
12.4,1.7646,0.01738,0.01026,-0.0684
12.5,1.7751,0.0175,0.01038,-0.0684
12.6,1.7855,0.01762,0.01051,-0.0684
12.7,1.796,0.01775,0.01064,-0.0684
12.8,1.8063,0.01788,0.01077,-0.0683
12.9,1.8166,0.01801,0.0109,-0.0683
13,1.8269,0.01815,0.01105,-0.0683
13.1,1.837,0.0183,0.01119,-0.0683
13.2,1.8471,0.01845,0.01133,-0.0682
13.3,1.8572,0.0186,0.01148,-0.0682
13.4,1.8673,0.01874,0.01163,-0.0682
13.5,1.8776,0.01885,0.01176,-0.0682
13.6,1.8878,0.01897,0.0119,-0.0681
13.7,1.8979,0.0191,0.01203,-0.0681
13.8,1.908,0.01923,0.01217,-0.068
13.9,1.9179,0.01937,0.01232,-0.068
14,1.9278,0.01951,0.01246,-0.0679
14.1,1.9376,0.01966,0.01261,-0.0679
14.2,1.9474,0.01981,0.01277,-0.0678
14.3,1.9571,0.01997,0.01293,-0.0677
14.4,1.9667,0.02013,0.01309,-0.0676
14.5,1.9762,0.02029,0.01326,-0.0675
14.6,1.9856,0.02046,0.01343,-0.0674
14.7,1.995,0.02064,0.01361,-0.0673
14.8,2.0046,0.02077,0.01377,-0.0672
14.9,2.0142,0.02091,0.01392,-0.0671
15,2.0238,0.02105,0.01407,-0.067
15.1,2.0332,0.02119,0.01423,-0.0669
15.2,2.0426,0.02134,0.01439,-0.0668
15.3,2.0519,0.02149,0.01456,-0.0667
15.4,2.061,0.02165,0.01473,-0.0665
15.5,2.0701,0.02181,0.01491,-0.0664
15.6,2.0789,0.022,0.01509,-0.0662
15.7,2.0877,0.02218,0.01528,-0.066
15.8,2.0964,0.02236,0.01546,-0.0659
15.9,2.105,0.02255,0.01566,-0.0657
16,2.1135,0.02274,0.01586,-0.0654
16.1,2.1217,0.02294,0.01607,-0.0652
16.2,2.13,0.02315,0.01628,-0.065
16.3,2.1387,0.0233,0.01646,-0.0648
16.4,2.1473,0.02346,0.01663,-0.0646
16.5,2.1557,0.02362,0.01682,-0.0644
16.6,2.164,0.02379,0.01701,-0.0641
16.7,2.1721,0.02396,0.0172,-0.0638
16.8,2.18,0.02414,0.0174,-0.0636
16.9,2.1878,0.02432,0.01759,-0.0633
17,2.1954,0.02451,0.01781,-0.0629
17.1,2.2025,0.02473,0.01802,-0.0626
17.2,2.2091,0.02497,0.01826,-0.0621
17.3,2.2151,0.02524,0.01852,-0.0617
17.4,2.2216,0.02546,0.01876,-0.0612
17.5,2.2279,0.0257,0.019,-0.0607
17.6,2.2343,0.0259,0.01924,-0.0603
17.7,2.2409,0.02609,0.01945,-0.0598
17.8,2.2473,0.02628,0.01967,-0.0594
17.9,2.2534,0.02648,0.01989,-0.0589
18,2.2592,0.02669,0.02012,-0.0583
18.1,2.264,0.0269,0.02036,-0.0576
18.2,2.2678,0.02712,0.02061,-0.0568
18.3,2.2714,0.02736,0.02087,-0.0559
18.4,2.2751,0.02761,0.02115,-0.0552
18.5,2.2791,0.02787,0.02143,-0.0545
18.6,2.2832,0.02813,0.02171,-0.0538
18.7,2.2875,0.0284,0.02202,-0.0533
18.8,2.2919,0.02868,0.02232,-0.0528
18.9,2.2964,0.02897,0.02263,-0.0524
19,2.3008,0.02927,0.02295,-0.052
19.1,2.3041,0.02965,0.02334,-0.0516
19.2,2.3085,0.02998,0.02369,-0.0514
19.3,2.313,0.03032,0.02404,-0.0512
19.4,2.3177,0.03065,0.02441,-0.051
19.5,2.3233,0.03092,0.02472,-0.0509
19.6,2.3289,0.03121,0.02503,-0.0509
19.7,2.3344,0.03151,0.02536,-0.0509
19.8,2.3399,0.03182,0.0257,-0.051
19.9,2.3454,0.03214,0.02605,-0.051
20,2.3509,0.03246,0.02641,-0.0512
20.1,2.3564,0.0328,0.02677,-0.0514
20.2,2.3619,0.03314,0.02714,-0.0516
20.3,2.3674,0.03349,0.02752,-0.0519
20.4,2.373,0.03385,0.02791,-0.0522
20.5,2.3786,0.03422,0.02832,-0.0526
20.6,2.3842,0.03461,0.02873,-0.0531
20.7,2.3897,0.035,0.02915,-0.0536
20.8,2.3953,0.03541,0.02959,-0.0542
20.9,2.4009,0.03584,0.03004,-0.0548
21,2.4065,0.03627,0.0305,-0.0555
21.1,2.4121,0.03673,0.03098,-0.0563
21.2,2.4177,0.03719,0.03148,-0.0572
21.3,2.4242,0.03755,0.03189,-0.0579
21.4,2.4306,0.03794,0.03231,-0.0587
21.5,2.4369,0.03835,0.03276,-0.0596
21.6,2.4429,0.03882,0.03325,-0.0606
21.7,2.4491,0.03928,0.03374,-0.0617
21.8,2.4552,0.03975,0.03424,-0.0628
21.9,2.4613,0.04024,0.03477,-0.0639
22,2.4673,0.04075,0.03532,-0.0652
22.1,2.4733,0.04129,0.0359,-0.0665
22.2,2.4791,0.04186,0.0365,-0.0679
22.3,2.4848,0.04246,0.03713,-0.0694
22.4,2.4904,0.0431,0.03781,-0.0711
22.5,2.4944,0.04401,0.03874,-0.0734
22.6,2.5002,0.04465,0.03943,-0.075
22.7,2.506,0.04527,0.04011,-0.0766
22.8,2.5116,0.04594,0.04082,-0.0783
22.9,2.517,0.04665,0.04158,-0.0801
23,2.5221,0.04742,0.04239,-0.082
23.1,2.5269,0.04823,0.04326,-0.084
23.2,2.5314,0.0491,0.04418,-0.0862
23.3,2.5356,0.05004,0.04517,-0.0884
23.4,2.5393,0.05107,0.04626,-0.0908
23.5,2.5425,0.05219,0.04744,-0.0934
23.6,2.5452,0.05341,0.04872,-0.0962
23.7,2.5454,0.05512,0.05048,-0.0999
23.8,2.5462,0.0567,0.05214,-0.1032
23.9,2.5458,0.0585,0.05401,-0.1069
24,2.5442,0.06056,0.05618,-0.1111
24.1,2.5411,0.06291,0.05862,-0.1156
24.2,2.5365,0.06552,0.06133,-0.1205
24.3,2.5319,0.06813,0.06408,-0.1252
24.4,2.5255,0.07106,0.06714,-0.1304
24.5,2.5166,0.07453,0.07075,-0.1363
24.6,2.5061,0.07827,0.07463,-0.1426
24.7,2.4936,0.08232,0.07884,-0.1494
24.8,2.4809,0.0863,0.08296,-0.1562
24.9,2.4694,0.08993,0.08673,-0.1628
25,2.4612,0.09279,0.08969,-0.1683
25.1,2.4504,0.09616,0.09316,-0.1747
25.2,2.4396,0.09951,0.09663,-0.1813
25.3,2.4345,0.10175,0.09894,-0.1859
25.4,2.4246,0.10508,0.10237,-0.1923
25.5,2.4206,0.10724,0.10458,-0.1965
25.6,2.4117,0.11058,0.10802,-0.2024
25.7,2.4082,0.11275,0.11024,-0.2063
25.8,2.4012,0.11582,0.11338,-0.2115
25.9,2.3964,0.11843,0.11604,-0.2158
26,2.3933,0.12067,0.11832,-0.2195
26.1,2.3858,0.12408,0.1218,-0.2248
26.2,2.3847,0.12589,0.12366,-0.2276
26.3,2.3845,0.12748,0.12529,-0.2302
26.4,2.384,0.12913,0.12697,-0.2328
26.5,2.3819,0.13122,0.12911,-0.236
26.6,2.3779,0.13385,0.1318,-0.2399
26.7,2.377,0.13566,0.13364,-0.2426
26.8,2.3762,0.13742,0.13543,-0.2453
26.9,2.375,0.1393,0.13733,-0.2481
27,2.3698,0.14231,0.1404,-0.2524
27.1,2.3672,0.14462,0.14274,-0.2558
27.2,2.3656,0.14663,0.14476,-0.2587
27.3,2.3637,0.14877,0.14692,-0.2619
27.4,2.3596,0.15154,0.14975,-0.2657
27.5,2.3576,0.15371,0.15196,-0.2688
27.6,2.3573,0.15541,0.15369,-0.2713
27.7,2.3571,0.15706,0.15536,-0.2737
27.8,2.3567,0.15875,0.15706,-0.2762
27.9,2.3559,0.16058,0.15892,-0.2788
28,2.3514,0.16355,0.16193,-0.2828
28.1,2.3491,0.16589,0.1643,-0.2861
28.2,2.3476,0.16794,0.16636,-0.289
28.3,2.3459,0.17012,0.16855,-0.2921
28.4,2.3449,0.17207,0.17053,-0.2948
28.5,2.3423,0.17455,0.17305,-0.2982
28.6,2.3401,0.17694,0.17547,-0.3014
28.7,2.3394,0.17879,0.17735,-0.304
28.8,2.3389,0.18063,0.17919,-0.3066
28.9,2.3379,0.18261,0.18118,-0.3093
29,2.3363,0.18482,0.18341,-0.3124
29.1,2.3302,0.18873,0.18737,-0.3174
29.2,2.3298,0.19055,0.18921,-0.3199
29.3,2.3297,0.19228,0.19094,-0.3223
29.4,2.3275,0.19482,0.19348,-0.3257
29.5,2.3263,0.19702,0.19569,-0.3287
29.6,2.3211,0.20082,0.19953,-0.3335
29.7,2.3203,0.20292,0.20165,-0.3363
29.8,2.3203,0.20465,0.20339,-0.3388
29.9,2.3204,0.20638,0.20513,-0.3412
30,2.3203,0.20819,0.20695,-0.3437

