airfoilName st7.dat
Re 	1.300000e+05
M 	0
N 	4.500000e+00
VACC 	0 VACCflag 1
XTR 	1.00 	1.00 XTRflag 0
alpha,cl,cd,cdp,cm
-13,-1.0552,0.05368,0.04834,-0.0339
-11.1,-0.8943,0.03792,0.03131,-0.053
-11,-0.8859,0.03691,0.03014,-0.0535
-10.9,-0.8775,0.03588,0.02892,-0.054
-10.8,-0.8689,0.03483,0.02764,-0.0544
-10.7,-0.8602,0.03377,0.02632,-0.0548
-10.6,-0.8513,0.03275,0.02496,-0.0552
-10.5,-0.8417,0.03217,0.02441,-0.0553
-10.4,-0.832,0.03171,0.02395,-0.0554
-10.3,-0.8221,0.03129,0.02353,-0.0554
-10.2,-0.8121,0.03088,0.02312,-0.0555
-10.1,-0.8021,0.03049,0.02271,-0.0556
-10,-0.792,0.0301,0.0223,-0.0557
-9.9,-0.7818,0.0297,0.02188,-0.0558
-9.7,-0.7607,0.02938,0.02151,-0.056
-9.6,-0.7505,0.02889,0.02094,-0.056
-9.5,-0.7402,0.02838,0.02035,-0.0561
-9.4,-0.7299,0.02786,0.01973,-0.0562
-9.3,-0.7196,0.02733,0.01908,-0.0562
-9.2,-0.7091,0.02679,0.0184,-0.0563
-9.1,-0.6985,0.02627,0.01769,-0.0563
-9,-0.6879,0.0258,0.01715,-0.0564
-8.9,-0.6776,0.02538,0.01676,-0.0564
-8.8,-0.6671,0.02502,0.01642,-0.0564
-8.7,-0.6565,0.02469,0.01609,-0.0565
-8.6,-0.6459,0.02438,0.01577,-0.0565
-8.5,-0.6352,0.02407,0.01545,-0.0565
-8.4,-0.6245,0.02376,0.01512,-0.0565
-8.3,-0.6138,0.02344,0.01476,-0.0566
-8.2,-0.603,0.02312,0.0144,-0.0566
-8.1,-0.5922,0.02278,0.01401,-0.0566
-8,-0.5811,0.02266,0.01375,-0.0566
-7.9,-0.5702,0.02232,0.01327,-0.0565
-7.8,-0.5595,0.02195,0.01291,-0.0565
-7.7,-0.549,0.02161,0.0126,-0.0565
-7.6,-0.5383,0.02132,0.01233,-0.0565
-7.5,-0.5276,0.02106,0.01207,-0.0565
-7.4,-0.5169,0.0208,0.0118,-0.0565
-7.3,-0.5061,0.02054,0.01153,-0.0564
-7.2,-0.4954,0.02028,0.01124,-0.0564
-7.1,-0.4847,0.02002,0.01095,-0.0563
-7,-0.4739,0.01976,0.01064,-0.0562
-6.9,-0.4632,0.0195,0.01032,-0.0561
-6.8,-0.4523,0.01927,0.01,-0.056
-6.7,-0.442,0.01911,0.00994,-0.056
-6.6,-0.4314,0.01888,0.00972,-0.056
-6.5,-0.4208,0.01866,0.0095,-0.0559
-6.4,-0.4102,0.01845,0.00927,-0.0558
-6.3,-0.3996,0.01823,0.00903,-0.0557
-6.2,-0.389,0.01802,0.00878,-0.0556
-6.1,-0.3784,0.01782,0.00853,-0.0554
-6,-0.3678,0.01762,0.00832,-0.0553
-5.9,-0.3574,0.01738,0.00812,-0.0552
-5.8,-0.3469,0.01719,0.00795,-0.0552
-5.7,-0.3355,0.01709,0.00787,-0.0553
-5.6,-0.3217,0.01688,0.00762,-0.0558
-5.5,-0.3065,0.01668,0.00736,-0.0566
-5.4,-0.2926,0.01647,0.00716,-0.0571
-5.3,-0.2787,0.01626,0.00698,-0.0577
-5.2,-0.2651,0.01607,0.0068,-0.0582
-5.1,-0.2503,0.01589,0.00661,-0.059
-5,-0.2364,0.01577,0.00647,-0.0595
-4.9,-0.2225,0.01557,0.00631,-0.0601
-4.8,-0.2091,0.0154,0.00615,-0.0606
-4.7,-0.195,0.01524,0.00597,-0.0611
-4.6,-0.1815,0.0151,0.0058,-0.0615
-4.5,-0.1678,0.01493,0.00566,-0.0621
-4.4,-0.1539,0.01478,0.00553,-0.0626
-4.3,-0.1408,0.01467,0.00542,-0.063
-4.2,-0.1272,0.01451,0.00529,-0.0635
-4.1,-0.1137,0.01437,0.00517,-0.0639
-4,-0.0999,0.01425,0.00504,-0.0644
-3.9,-0.0861,0.01411,0.00493,-0.0649
-3.8,-0.0734,0.01399,0.00484,-0.0652
-3.7,-0.06,0.01385,0.00473,-0.0657
-3.6,-0.0466,0.01374,0.00463,-0.0661
-3.5,-0.033,0.01362,0.00453,-0.0665
-3.4,-0.0198,0.01352,0.00444,-0.0669
-3.3,-0.0074,0.01338,0.00438,-0.0672
-3.2,0.006,0.01328,0.00429,-0.0676
-3.1,0.0193,0.01318,0.00421,-0.0679
-3,0.0322,0.01308,0.00413,-0.0682
-2.8,0.0571,0.01286,0.00399,-0.0687
-2.7,0.0704,0.01277,0.00393,-0.069
-2.6,0.0826,0.01268,0.00386,-0.0692
-2.5,0.0949,0.01259,0.00379,-0.0693
-2.4,0.1072,0.01245,0.00373,-0.0696
-2.3,0.1198,0.01236,0.00367,-0.0698
-2.2,0.1316,0.01227,0.00362,-0.0699
-2.1,0.1436,0.01218,0.00356,-0.0699
-2,0.1556,0.01204,0.0035,-0.07
-1.9,0.1673,0.01195,0.00346,-0.0701
-1.8,0.179,0.01186,0.00341,-0.0701
-1.7,0.1905,0.0117,0.00335,-0.0701
-1.6,0.2016,0.01161,0.00331,-0.07
-1.5,0.2123,0.01153,0.00325,-0.0696
-1.4,0.2235,0.01142,0.00321,-0.0696
-1.3,0.2338,0.01122,0.00316,-0.0693
-1.2,0.2447,0.01108,0.00311,-0.0691
-1.1,0.2549,0.01094,0.00306,-0.0688
-1,0.265,0.01075,0.00301,-0.0684
-0.9,0.2712,0.01037,0.00294,-0.0669
-0.8,0.2776,0.01019,0.0029,-0.0654
-0.7,0.2846,0.01002,0.00283,-0.0639
-0.6,0.2995,0.00984,0.00263,-0.064
-0.5,0.3142,0.00981,0.00253,-0.0646
-0.4,0.3253,0.00988,0.00252,-0.0644
-0.3,0.3365,0.00995,0.00252,-0.0641
-0.2,0.348,0.01001,0.00252,-0.0641
0,0.3712,0.01012,0.00252,-0.0639
0.1,0.3828,0.01017,0.00253,-0.0639
0.2,0.3943,0.01023,0.00254,-0.0638
0.3,0.4059,0.01029,0.00255,-0.0638
0.4,0.417,0.01038,0.00257,-0.0636
0.5,0.4284,0.01045,0.00258,-0.0635
0.6,0.44,0.01052,0.0026,-0.0635
0.7,0.4514,0.0106,0.00262,-0.0634
0.8,0.4629,0.01067,0.00264,-0.0634
0.9,0.4743,0.01075,0.00267,-0.0633
1,0.4858,0.01083,0.00269,-0.0632
1.1,0.4966,0.01095,0.00273,-0.063
1.2,0.5079,0.01105,0.00276,-0.0629
1.3,0.5193,0.01114,0.00279,-0.0629
1.4,0.5307,0.01124,0.00284,-0.0628
1.5,0.5421,0.01133,0.00287,-0.0628
1.6,0.5534,0.01143,0.00292,-0.0627
1.7,0.5647,0.01153,0.00296,-0.0627
1.8,0.5756,0.01168,0.00302,-0.0625
1.9,0.5869,0.01179,0.00308,-0.0625
2,0.5981,0.01191,0.00313,-0.0624
2.1,0.6095,0.01201,0.00319,-0.0624
2.2,0.6207,0.01213,0.00326,-0.0624
2.3,0.6319,0.01224,0.00331,-0.0624
2.4,0.6432,0.01236,0.00338,-0.0623
2.5,0.6543,0.01249,0.00344,-0.0623
2.6,0.6656,0.0126,0.00351,-0.0622
2.7,0.6762,0.01278,0.0036,-0.0621
2.8,0.6873,0.01291,0.00368,-0.0621
2.9,0.6983,0.01306,0.00376,-0.062
3,0.7095,0.01318,0.00383,-0.062
3.1,0.7205,0.01332,0.00391,-0.062
3.2,0.7314,0.01347,0.004,-0.0619
3.3,0.7425,0.01361,0.00408,-0.0619
3.4,0.7535,0.01375,0.00417,-0.0619
3.5,0.7644,0.01391,0.00426,-0.0618
3.6,0.7748,0.01411,0.00437,-0.0618
3.7,0.7857,0.01427,0.00446,-0.0617
3.8,0.7967,0.01442,0.00456,-0.0617
3.9,0.8075,0.01459,0.00467,-0.0617
4,0.8185,0.01474,0.00476,-0.0617
4.1,0.8294,0.0149,0.00487,-0.0617
4.2,0.8403,0.01505,0.00497,-0.0617
4.3,0.8512,0.01521,0.00509,-0.0617
4.4,0.8622,0.01537,0.0052,-0.0617
4.5,0.8726,0.01558,0.00533,-0.0616
4.6,0.8836,0.01573,0.00544,-0.0616
4.7,0.8943,0.01591,0.00557,-0.0616
4.8,0.9053,0.01606,0.00569,-0.0616
4.9,0.9163,0.01622,0.00581,-0.0616
5,0.9271,0.01639,0.00594,-0.0616
5.1,0.9379,0.01656,0.00607,-0.0616
5.2,0.9489,0.01671,0.00622,-0.0616
5.3,0.9598,0.01687,0.00635,-0.0616
5.4,0.9707,0.01705,0.00649,-0.0616
5.5,0.9811,0.01726,0.00664,-0.0616
5.6,0.9921,0.0174,0.00678,-0.0616
5.7,1.003,0.01756,0.00692,-0.0616
5.8,1.0138,0.01773,0.00707,-0.0616
5.9,1.0245,0.01792,0.00723,-0.0616
6,1.0353,0.0181,0.00738,-0.0616
6.1,1.0463,0.01823,0.00754,-0.0616
6.2,1.0572,0.01838,0.0077,-0.0616
6.3,1.0681,0.01855,0.00785,-0.0616
6.4,1.0788,0.01873,0.00801,-0.0616
6.5,1.089,0.01895,0.00817,-0.0616
6.6,1.1,0.01908,0.00833,-0.0616
6.7,1.111,0.01923,0.00849,-0.0616
6.8,1.1218,0.01939,0.00865,-0.0616
6.9,1.1325,0.01956,0.00883,-0.0616
7,1.1431,0.01975,0.009,-0.0616
7.1,1.1535,0.01995,0.00917,-0.0616
7.2,1.1641,0.02014,0.00934,-0.0615
7.3,1.175,0.02027,0.00951,-0.0615
7.4,1.1859,0.02043,0.00969,-0.0615
7.5,1.1964,0.02058,0.00984,-0.0615
7.6,1.2069,0.02077,0.01002,-0.0615
7.7,1.2173,0.02096,0.0102,-0.0615
7.8,1.2276,0.02118,0.01039,-0.0614
7.9,1.2383,0.02134,0.01058,-0.0614
8,1.249,0.02149,0.01077,-0.0614
8.1,1.2597,0.02165,0.01096,-0.0614
8.2,1.2702,0.02183,0.01115,-0.0614
8.3,1.2806,0.02201,0.01134,-0.0614
8.4,1.291,0.02221,0.01153,-0.0613
8.5,1.3012,0.02242,0.01172,-0.0613
8.6,1.3113,0.02265,0.01192,-0.0612
8.7,1.3217,0.02277,0.01211,-0.0612
8.8,1.3322,0.02294,0.01232,-0.0612
8.9,1.3426,0.02312,0.01253,-0.0611
9,1.3528,0.02331,0.01273,-0.0611
9.1,1.363,0.02351,0.01294,-0.061
9.2,1.3731,0.02372,0.01314,-0.061
9.3,1.3831,0.02394,0.01334,-0.0609
9.4,1.3929,0.02419,0.01355,-0.0609
9.5,1.4032,0.02436,0.01378,-0.0608
9.6,1.4135,0.02454,0.01404,-0.0608
9.7,1.4237,0.02474,0.01428,-0.0607
9.8,1.4335,0.02489,0.01445,-0.0606
9.9,1.4434,0.02509,0.01468,-0.0606
10,1.4532,0.02531,0.01489,-0.0605
10.1,1.4629,0.02554,0.01511,-0.0604
10.2,1.4725,0.02579,0.01533,-0.0603
10.3,1.4823,0.02601,0.01557,-0.0602
10.4,1.4922,0.02621,0.01585,-0.0601
10.5,1.5021,0.02642,0.01611,-0.0601
10.6,1.5118,0.02664,0.01638,-0.06
10.7,1.5214,0.02686,0.01665,-0.0599
10.8,1.531,0.02708,0.0169,-0.0598
10.9,1.5405,0.02731,0.01715,-0.0597
11.1,1.5585,0.02776,0.01754,-0.0594
11.2,1.5678,0.02801,0.01779,-0.0593
11.3,1.5773,0.02823,0.01811,-0.0591
11.4,1.5866,0.02847,0.01841,-0.059
11.5,1.5959,0.02871,0.0187,-0.0589
11.6,1.605,0.02895,0.01899,-0.0587
11.7,1.6141,0.0292,0.01927,-0.0586
11.8,1.623,0.02944,0.01957,-0.0584
11.9,1.6319,0.02969,0.01984,-0.0583
12,1.6406,0.02995,0.0201,-0.0581
12.1,1.6493,0.03022,0.02036,-0.0579
12.2,1.658,0.03052,0.02063,-0.0578
12.3,1.6666,0.03079,0.02093,-0.0576
12.4,1.6746,0.03097,0.02126,-0.0573
12.5,1.6831,0.03124,0.02159,-0.0571
12.6,1.6915,0.03151,0.02192,-0.0569
12.7,1.6998,0.03178,0.02223,-0.0567
12.8,1.7079,0.03206,0.02254,-0.0564
12.9,1.716,0.03233,0.02284,-0.0562
13,1.7239,0.03261,0.02314,-0.056
13.1,1.7318,0.0329,0.02343,-0.0557
13.2,1.7396,0.03319,0.02374,-0.0555
13.3,1.7474,0.03351,0.02404,-0.0553
13.4,1.7549,0.03382,0.02441,-0.055
13.5,1.7622,0.03413,0.02483,-0.0547
13.6,1.7695,0.03445,0.02523,-0.0544
13.7,1.7758,0.03467,0.02554,-0.0539
13.8,1.7828,0.03498,0.02591,-0.0536
13.9,1.7897,0.03529,0.02626,-0.0533
14,1.7965,0.03559,0.02661,-0.053
14.1,1.8031,0.0359,0.02695,-0.0526
14.2,1.8095,0.03621,0.02728,-0.0522
14.3,1.8159,0.03653,0.0276,-0.0519
14.4,1.8222,0.03686,0.02793,-0.0515
14.5,1.8285,0.0372,0.02825,-0.0512
14.6,1.8341,0.03756,0.02865,-0.0508
14.7,1.8391,0.03792,0.02916,-0.0502
14.8,1.844,0.03829,0.02964,-0.0497
14.9,1.8487,0.03866,0.03009,-0.0492
15,1.8527,0.03902,0.03053,-0.0486
15.1,1.8564,0.03938,0.03096,-0.0479
15.2,1.8601,0.03975,0.03139,-0.0473
15.3,1.8639,0.04012,0.03181,-0.0467
15.4,1.866,0.04036,0.03209,-0.0461
15.5,1.87,0.04073,0.0325,-0.0457
15.6,1.8741,0.0411,0.03289,-0.0453
15.7,1.8784,0.04147,0.03328,-0.0449
15.8,1.8828,0.04185,0.03367,-0.0447
15.9,1.8875,0.04224,0.03405,-0.0444
16,1.8923,0.04265,0.03443,-0.0442
16.1,1.895,0.04314,0.03508,-0.044
16.2,1.8981,0.04364,0.0357,-0.0439
16.3,1.9015,0.04414,0.03631,-0.0438
16.4,1.9051,0.04463,0.03691,-0.0438
16.5,1.9088,0.04513,0.03749,-0.0439
16.6,1.9126,0.04562,0.03808,-0.044
16.7,1.9165,0.0461,0.03864,-0.0442
16.8,1.9206,0.04659,0.03919,-0.0444
16.9,1.9248,0.04706,0.03973,-0.0447
17,1.9292,0.04754,0.04025,-0.045
17.1,1.9337,0.048,0.04077,-0.0454
17.3,1.943,0.04875,0.04153,-0.0465
17.4,1.9481,0.04919,0.04197,-0.0469
17.5,1.9534,0.04963,0.0424,-0.0472
17.6,1.9572,0.05024,0.04308,-0.048
17.7,1.9604,0.05095,0.04395,-0.0491
17.8,1.9639,0.05164,0.04479,-0.0502
17.9,1.9677,0.05233,0.0456,-0.0514
18,1.9718,0.053,0.04639,-0.0526
18.1,1.9761,0.05367,0.04715,-0.0538
18.2,1.9806,0.05432,0.0479,-0.0551
18.3,1.9852,0.05496,0.04862,-0.0564
18.4,1.9901,0.05558,0.04932,-0.0577
18.5,1.995,0.05619,0.04999,-0.0591
18.6,2.0002,0.05679,0.05067,-0.0605
18.7,2.0054,0.05738,0.0513,-0.0618
18.8,2.0108,0.05794,0.05191,-0.0631
18.9,2.0162,0.05848,0.05248,-0.0644
19,2.0218,0.05899,0.053,-0.0655
19.1,2.0275,0.05946,0.05347,-0.0665
19.3,2.035,0.06147,0.05573,-0.0724
19.4,2.0382,0.06269,0.05713,-0.0756
19.5,2.0414,0.0639,0.0585,-0.0788
19.6,2.0447,0.0651,0.05983,-0.0819
19.7,2.0479,0.0663,0.06116,-0.085
19.8,2.0512,0.06748,0.06246,-0.088
19.9,2.0545,0.06864,0.06372,-0.0909
20,2.0579,0.06976,0.06493,-0.0937
20.1,2.0614,0.07083,0.06607,-0.0963
20.2,2.065,0.07184,0.06713,-0.0987
20.3,2.0688,0.07276,0.0681,-0.101
20.4,2.0727,0.07358,0.06896,-0.1029
20.5,2.0769,0.07429,0.0697,-0.1046
20.6,2.0814,0.07484,0.07025,-0.1058
20.7,2.0865,0.0752,0.07062,-0.1066
20.8,2.0918,0.07542,0.0708,-0.107
21.2,2.0106,0.10813,0.1049,-0.1654
21.3,2.0159,0.10814,0.10491,-0.1659
21.4,2.0215,0.10802,0.1048,-0.1662
21.5,2.0272,0.10782,0.1046,-0.1664
21.6,2.0334,0.10748,0.10426,-0.1664
21.7,2.0394,0.10716,0.10393,-0.1663
21.8,2.0457,0.10674,0.10352,-0.1662
21.9,2.0523,0.10623,0.103,-0.1659
22,2.0591,0.10559,0.10234,-0.1653
22.1,2.0661,0.10489,0.10161,-0.1646
22.7,2.0157,0.1321,0.1293,-0.2039
22.8,2.0207,0.13187,0.12907,-0.2042

