airfoilName st7.dat
Re 	4.300000e+05
M 	0
N 	4.500000e+00
VACC 	0 VACCflag 1
XTR 	1.00 	1.00 XTRflag 0
alpha,cl,cd,cdp,cm
-15.1,-1.3064,0.03917,0.03509,-0.0414
-15,-1.2966,0.03768,0.03349,-0.0447
-14.9,-1.2884,0.03655,0.03227,-0.0468
-14.8,-1.2807,0.0356,0.03125,-0.0482
-14.7,-1.273,0.03477,0.03035,-0.0493
-14.6,-1.2654,0.03402,0.02953,-0.0501
-14.5,-1.2576,0.03333,0.02878,-0.0508
-14.4,-1.2496,0.0327,0.02809,-0.0513
-14.3,-1.2415,0.0321,0.02743,-0.0518
-14.2,-1.2333,0.03153,0.0268,-0.0522
-14.1,-1.2249,0.031,0.02621,-0.0525
-14,-1.2163,0.03048,0.02564,-0.0528
-13.9,-1.2076,0.02998,0.02509,-0.053
-13.8,-1.1988,0.0295,0.02456,-0.0533
-13.7,-1.1898,0.02904,0.02405,-0.0534
-13.6,-1.1807,0.02859,0.02355,-0.0536
-13.5,-1.1715,0.02816,0.02307,-0.0538
-13.4,-1.1622,0.02773,0.02259,-0.0539
-13.3,-1.1528,0.02732,0.02213,-0.0541
-13.2,-1.1433,0.02692,0.02167,-0.0542
-13.1,-1.1337,0.02652,0.02123,-0.0543
-13,-1.124,0.02614,0.02079,-0.0544
-12.9,-1.1143,0.02575,0.02036,-0.0545
-12.8,-1.1044,0.02538,0.01994,-0.0546
-12.7,-1.0945,0.02501,0.01951,-0.0547
-12.6,-1.0845,0.02465,0.0191,-0.0547
-12.5,-1.0745,0.0243,0.0187,-0.0548
-12.4,-1.0643,0.02395,0.0183,-0.0549
-12.3,-1.0541,0.02361,0.01791,-0.0549
-12.2,-1.0439,0.02328,0.01753,-0.055
-12.1,-1.0335,0.02295,0.01715,-0.0551
-12,-1.0231,0.02263,0.01678,-0.0551
-11.9,-1.0126,0.02232,0.01642,-0.0552
-11.8,-1.0021,0.02202,0.01606,-0.0552
-11.7,-0.9915,0.02173,0.01572,-0.0553
-11.6,-0.9808,0.02145,0.01539,-0.0553
-11.5,-0.9701,0.02118,0.01507,-0.0554
-11.4,-0.9592,0.02094,0.01476,-0.0554
-11.3,-0.9486,0.02063,0.01444,-0.0555
-11.2,-0.938,0.02029,0.01408,-0.0556
-11.1,-0.9272,0.01999,0.01376,-0.0557
-11,-0.9164,0.01972,0.01346,-0.0557
-10.9,-0.9055,0.01946,0.01319,-0.0558
-10.8,-0.8945,0.01922,0.01293,-0.0559
-10.7,-0.8835,0.01899,0.01268,-0.0559
-10.6,-0.8724,0.01877,0.01243,-0.056
-10.5,-0.8613,0.01855,0.01219,-0.056
-10.4,-0.8502,0.01834,0.01196,-0.0561
-10.3,-0.839,0.01814,0.01173,-0.0561
-10.2,-0.8279,0.01793,0.01148,-0.0562
-10.1,-0.8167,0.01773,0.01126,-0.0562
-10,-0.8053,0.01765,0.01117,-0.0563
-9.9,-0.7941,0.01745,0.01094,-0.0563
-9.8,-0.7828,0.01724,0.0107,-0.0564
-9.7,-0.7716,0.01705,0.01047,-0.0564
-9.6,-0.7603,0.01686,0.01025,-0.0565
-9.5,-0.749,0.01668,0.01003,-0.0565
-9.4,-0.7376,0.01652,0.00983,-0.0565
-9.3,-0.7264,0.01629,0.0096,-0.0566
-9.2,-0.7152,0.01606,0.00937,-0.0567
-9.1,-0.7039,0.01586,0.00916,-0.0567
-9,-0.6926,0.01568,0.00896,-0.0568
-8.9,-0.6813,0.01551,0.00878,-0.0568
-8.8,-0.6699,0.01534,0.00861,-0.0568
-8.7,-0.6586,0.01518,0.00844,-0.0569
-8.6,-0.6473,0.01503,0.00827,-0.0569
-8.5,-0.6356,0.01487,0.0081,-0.057
-8.4,-0.6228,0.01472,0.00793,-0.0573
-8.3,-0.6099,0.01457,0.00776,-0.0577
-8.2,-0.5964,0.01442,0.00758,-0.0581
-8.1,-0.5836,0.01427,0.00742,-0.0585
-8,-0.5707,0.01414,0.00725,-0.0588
-7.9,-0.5571,0.01401,0.00709,-0.0592
-7.8,-0.5446,0.01383,0.00692,-0.0595
-7.7,-0.5319,0.01367,0.00676,-0.0598
-7.6,-0.519,0.01352,0.00661,-0.0602
-7.5,-0.5056,0.01339,0.00648,-0.0606
-7.4,-0.4932,0.01327,0.00635,-0.0608
-7.3,-0.4807,0.01315,0.00622,-0.0611
-7.2,-0.4681,0.01307,0.00614,-0.0613
-7.1,-0.4549,0.01296,0.00601,-0.0617
-7,-0.4427,0.01286,0.00588,-0.0618
-6.9,-0.4304,0.01276,0.00577,-0.062
-6.8,-0.4182,0.01261,0.00562,-0.0621
-6.7,-0.4058,0.01249,0.0055,-0.0623
-6.6,-0.3939,0.01238,0.00539,-0.0624
-6.5,-0.3819,0.01228,0.00528,-0.0625
-6.4,-0.37,0.01218,0.00517,-0.0626
-6.3,-0.3581,0.01212,0.0051,-0.0626
-6.2,-0.3465,0.01204,0.005,-0.0626
-6.1,-0.3348,0.01196,0.0049,-0.0626
-6,-0.3231,0.01186,0.0048,-0.0626
-5.9,-0.3114,0.01176,0.00469,-0.0626
-5.8,-0.2998,0.01166,0.00459,-0.0627
-5.7,-0.2884,0.01159,0.00451,-0.0626
-5.6,-0.2768,0.01151,0.00442,-0.0626
-5.5,-0.2652,0.01144,0.00433,-0.0626
-5.4,-0.2534,0.01137,0.00425,-0.0626
-5.3,-0.2417,0.0113,0.00416,-0.0626
-5.2,-0.2305,0.01122,0.00409,-0.0625
-5.1,-0.2189,0.01115,0.00401,-0.0625
-5,-0.2071,0.01107,0.00394,-0.0626
-4.9,-0.1953,0.011,0.00386,-0.0626
-4.8,-0.1837,0.01094,0.00378,-0.0626
-4.7,-0.172,0.01089,0.00371,-0.0626
-4.6,-0.1602,0.01081,0.00363,-0.0626
-4.5,-0.1487,0.01075,0.00357,-0.0626
-4.4,-0.1371,0.0107,0.0035,-0.0626
-4.3,-0.1253,0.01064,0.00345,-0.0626
-4.2,-0.1134,0.01058,0.00338,-0.0627
-4.1,-0.1017,0.01051,0.00331,-0.0627
-4,-0.09,0.01045,0.00326,-0.0627
-3.9,-0.0783,0.01041,0.0032,-0.0627
-3.8,-0.0665,0.01037,0.00314,-0.0628
-3.7,-0.0548,0.01031,0.00308,-0.0628
-3.6,-0.043,0.01025,0.00303,-0.0629
-3.5,-0.0311,0.0102,0.00299,-0.0629
-3.4,-0.0197,0.01016,0.00293,-0.0629
-3.3,-0.0083,0.01014,0.00289,-0.0628
-3.2,0.0035,0.01011,0.00285,-0.0628
-3.1,0.0151,0.01007,0.0028,-0.0628
-3,0.0266,0.01005,0.00276,-0.0628
-2.9,0.0385,0.00999,0.00272,-0.0629
-2.8,0.05,0.00998,0.00268,-0.0629
-2.7,0.0619,0.00995,0.00264,-0.063
-2.6,0.0737,0.0099,0.0026,-0.063
-2.5,0.0854,0.00989,0.00257,-0.0631
-2.4,0.0972,0.00985,0.00254,-0.0631
-2.3,0.109,0.0098,0.00251,-0.0632
-2.2,0.1206,0.0098,0.00248,-0.0632
-2.1,0.1325,0.00977,0.00245,-0.0633
-2,0.1441,0.00977,0.00243,-0.0634
-1.9,0.156,0.00974,0.0024,-0.0634
-1.8,0.1675,0.00972,0.00239,-0.0635
-1.7,0.1794,0.0097,0.00237,-0.0636
-1.6,0.1909,0.00972,0.00235,-0.0636
-1.5,0.2027,0.00972,0.00234,-0.0637
-1.4,0.2145,0.00968,0.00233,-0.0638
-1.3,0.2263,0.00968,0.00231,-0.0639
-1.2,0.2377,0.00973,0.0023,-0.0639
-1.1,0.2496,0.00971,0.00229,-0.064
-1,0.2613,0.00968,0.00228,-0.0641
-0.9,0.2729,0.00972,0.00228,-0.0641
-0.8,0.2846,0.00971,0.00228,-0.0642
-0.7,0.2965,0.0097,0.00227,-0.0644
-0.6,0.3083,0.00971,0.00227,-0.0644
-0.5,0.3201,0.00965,0.00227,-0.0646
-0.4,0.3319,0.00964,0.00227,-0.0647
-0.3,0.3437,0.00964,0.00227,-0.0648
-0.2,0.3551,0.00963,0.00229,-0.0649
0,0.3786,0.0096,0.00229,-0.0651
0.1,0.3903,0.00952,0.0023,-0.0653
0.2,0.402,0.00951,0.00231,-0.0654
0.3,0.4137,0.00948,0.00231,-0.0655
0.4,0.4254,0.00945,0.00232,-0.0656
0.5,0.4368,0.00932,0.00233,-0.0657
0.6,0.4482,0.00926,0.00235,-0.0658
0.7,0.4591,0.00923,0.00237,-0.0657
0.8,0.469,0.00904,0.0024,-0.0654
0.9,0.4793,0.00897,0.00242,-0.0651
1,0.489,0.00893,0.00245,-0.0647
1.1,0.4949,0.00876,0.00243,-0.0632
1.2,0.5041,0.00875,0.00241,-0.0626
1.3,0.5153,0.00875,0.0024,-0.0624
1.4,0.528,0.00879,0.00239,-0.0627
1.5,0.541,0.00882,0.00236,-0.063
1.6,0.5523,0.00898,0.00242,-0.0631
1.7,0.5639,0.00908,0.00246,-0.0632
1.8,0.5755,0.00919,0.00251,-0.0632
1.9,0.587,0.0093,0.00256,-0.0633
2,0.5985,0.00941,0.00261,-0.0634
2.1,0.61,0.00953,0.00267,-0.0635
2.2,0.6215,0.00965,0.00273,-0.0635
2.3,0.633,0.00977,0.00277,-0.0636
2.4,0.6445,0.00989,0.00283,-0.0637
2.5,0.6556,0.01007,0.00291,-0.0638
2.6,0.6671,0.01019,0.00298,-0.0638
2.7,0.6787,0.01029,0.00303,-0.0639
2.8,0.6902,0.0104,0.00309,-0.064
2.9,0.7018,0.01049,0.00315,-0.0641
3,0.7134,0.01058,0.00321,-0.0642
3.1,0.725,0.01067,0.00326,-0.0642
3.2,0.7365,0.01078,0.00334,-0.0643
3.3,0.7482,0.01086,0.00339,-0.0644
3.4,0.7598,0.01094,0.00345,-0.0645
3.5,0.7712,0.01106,0.00352,-0.0646
3.6,0.7827,0.01116,0.00359,-0.0647
3.7,0.7944,0.01123,0.00365,-0.0647
3.8,0.806,0.01131,0.00371,-0.0648
3.9,0.8176,0.01139,0.00377,-0.0649
4,0.8291,0.01148,0.00383,-0.065
4.1,0.8406,0.01158,0.0039,-0.0651
4.2,0.8521,0.01166,0.00398,-0.0651
4.3,0.8637,0.01174,0.00404,-0.0652
4.4,0.8753,0.01181,0.00411,-0.0653
4.5,0.8867,0.01192,0.00417,-0.0654
4.6,0.8981,0.01202,0.00424,-0.0655
4.7,0.9096,0.01212,0.00433,-0.0655
4.8,0.9211,0.01219,0.00439,-0.0656
4.9,0.9327,0.01226,0.00446,-0.0657
5,0.9442,0.01234,0.00453,-0.0658
5.1,0.9556,0.01243,0.0046,-0.0658
5.2,0.9671,0.01252,0.00468,-0.0659
5.3,0.9784,0.01262,0.00475,-0.066
5.4,0.9897,0.01273,0.00483,-0.066
5.5,1.0012,0.0128,0.00491,-0.0661
5.6,1.0126,0.01288,0.00498,-0.0662
5.7,1.024,0.01297,0.00506,-0.0662
5.8,1.0354,0.01306,0.00514,-0.0663
5.9,1.0467,0.01316,0.00523,-0.0664
6,1.058,0.01326,0.00531,-0.0664
6.1,1.0692,0.01337,0.0054,-0.0665
6.2,1.0806,0.01345,0.00548,-0.0666
6.3,1.092,0.01353,0.00556,-0.0666
6.4,1.1033,0.01362,0.00565,-0.0667
6.5,1.1146,0.01371,0.00573,-0.0667
6.6,1.1257,0.01382,0.00582,-0.0668
6.7,1.1369,0.01393,0.00591,-0.0668
6.8,1.148,0.01405,0.00601,-0.0669
6.9,1.1593,0.01413,0.00611,-0.0669
7,1.1705,0.01422,0.0062,-0.067
7.1,1.1817,0.01431,0.00629,-0.067
7.2,1.1929,0.0144,0.00638,-0.0671
7.3,1.2041,0.0145,0.00648,-0.0671
7.4,1.2152,0.01461,0.00657,-0.0672
7.5,1.2262,0.01472,0.00667,-0.0672
7.6,1.2372,0.01484,0.00678,-0.0672
7.7,1.2481,0.01497,0.00689,-0.0673
7.8,1.2592,0.01505,0.00699,-0.0673
7.9,1.2703,0.01515,0.00709,-0.0674
8,1.2814,0.01525,0.00719,-0.0674
8.1,1.2924,0.01536,0.0073,-0.0674
8.2,1.3033,0.01547,0.00741,-0.0675
8.3,1.3142,0.01558,0.00752,-0.0675
8.4,1.325,0.01571,0.00763,-0.0675
8.5,1.3357,0.01584,0.00775,-0.0675
8.6,1.3465,0.01596,0.00788,-0.0675
8.7,1.3575,0.01606,0.00799,-0.0676
8.8,1.3684,0.01616,0.0081,-0.0676
8.9,1.3792,0.01627,0.00821,-0.0676
9,1.39,0.01639,0.00833,-0.0676
9.1,1.4007,0.01651,0.00845,-0.0676
9.2,1.4114,0.01664,0.00857,-0.0676
9.3,1.422,0.01677,0.00869,-0.0676
9.4,1.4325,0.01692,0.00884,-0.0676
9.5,1.443,0.01705,0.00897,-0.0676
9.6,1.4538,0.01715,0.0091,-0.0676
9.7,1.4645,0.01727,0.00922,-0.0676
9.8,1.4751,0.01738,0.00935,-0.0676
9.9,1.4857,0.01751,0.00948,-0.0676
10,1.4962,0.01763,0.00962,-0.0675
10.1,1.5067,0.01777,0.00975,-0.0675
10.2,1.5169,0.01792,0.00988,-0.0675
10.3,1.5271,0.01807,0.01003,-0.0675
10.4,1.5372,0.01823,0.01019,-0.0674
10.5,1.5476,0.01836,0.01034,-0.0674
10.6,1.5581,0.01848,0.01048,-0.0673
10.7,1.5685,0.01861,0.01062,-0.0673
10.8,1.5788,0.01874,0.01077,-0.0673
10.9,1.589,0.01887,0.01092,-0.0672
11,1.5991,0.01901,0.01107,-0.0672
11.1,1.6092,0.01916,0.01122,-0.0671
11.2,1.6193,0.01931,0.01137,-0.067
11.3,1.6289,0.01949,0.01153,-0.067
11.4,1.6386,0.01967,0.0117,-0.0669
11.5,1.6485,0.01983,0.01189,-0.0668
11.6,1.6586,0.01996,0.01204,-0.0667
11.7,1.6686,0.0201,0.0122,-0.0666
11.8,1.6785,0.02024,0.01236,-0.0666
11.9,1.6883,0.02039,0.01253,-0.0665
12,1.6981,0.02054,0.0127,-0.0664
12.1,1.7078,0.0207,0.01287,-0.0663
12.2,1.7173,0.02087,0.01305,-0.0661
12.3,1.7268,0.02104,0.01322,-0.066
12.4,1.7361,0.02122,0.01341,-0.0659
12.5,1.7453,0.02141,0.0136,-0.0657
12.6,1.7544,0.02161,0.0138,-0.0656
12.7,1.7634,0.02181,0.01401,-0.0654
12.8,1.7731,0.02193,0.01417,-0.0653
12.9,1.7825,0.02209,0.01436,-0.0651
13,1.7917,0.02225,0.01455,-0.065
13.1,1.8008,0.02242,0.01474,-0.0648
13.2,1.8099,0.0226,0.01494,-0.0646
13.3,1.8187,0.02279,0.01513,-0.0644
13.4,1.8275,0.02297,0.01534,-0.0642
13.5,1.8361,0.02317,0.01555,-0.064
13.6,1.8446,0.02337,0.01576,-0.0638
13.7,1.8528,0.02359,0.01598,-0.0635
13.8,1.8609,0.02381,0.01621,-0.0632
13.9,1.8687,0.02406,0.01646,-0.0629
14,1.8774,0.02423,0.01667,-0.0627
14.1,1.8861,0.02438,0.01686,-0.0625
14.2,1.8943,0.02457,0.01708,-0.0622
14.3,1.9023,0.02476,0.01731,-0.0619
14.4,1.9102,0.02496,0.01753,-0.0616
14.5,1.9179,0.02517,0.01776,-0.0613
14.6,1.9254,0.02538,0.018,-0.0609
14.7,1.9326,0.0256,0.01824,-0.0605
14.8,1.9396,0.02583,0.01848,-0.0601
14.9,1.9464,0.02607,0.01874,-0.0597
15,1.9528,0.02631,0.019,-0.0592
15.1,1.959,0.02657,0.01927,-0.0587
15.2,1.9647,0.02684,0.01955,-0.0581
15.3,1.9703,0.02712,0.01985,-0.0576
15.4,1.9769,0.02731,0.02009,-0.0571
15.5,1.9825,0.02752,0.02034,-0.0564
15.6,1.9874,0.02775,0.02061,-0.0557
15.7,1.9922,0.02799,0.0209,-0.055
15.8,1.9969,0.02825,0.02119,-0.0543
15.9,2.0016,0.02851,0.02149,-0.0536
16.1,2.0109,0.02906,0.02209,-0.0524
16.2,2.0155,0.02935,0.02242,-0.0519
16.3,2.0201,0.02966,0.02276,-0.0514
16.4,2.0239,0.03001,0.0231,-0.0509
16.5,2.0281,0.03035,0.02347,-0.0504
16.6,2.0322,0.03071,0.02385,-0.05
16.7,2.0362,0.03109,0.02425,-0.0497
16.8,2.0408,0.03144,0.02464,-0.0494
16.9,2.0464,0.03173,0.02499,-0.0491
17,2.0518,0.03204,0.02534,-0.049
17.1,2.0571,0.03237,0.02572,-0.0488
17.2,2.0623,0.03271,0.0261,-0.0487
17.3,2.0675,0.03305,0.02649,-0.0486
17.4,2.0725,0.03341,0.02689,-0.0485
17.5,2.0776,0.03378,0.0273,-0.0485
17.6,2.0826,0.03416,0.02773,-0.0485
17.7,2.0875,0.03455,0.02816,-0.0486
17.8,2.0925,0.03496,0.0286,-0.0488
17.9,2.097,0.0354,0.02906,-0.049
18,2.1012,0.03589,0.02956,-0.0493
18.2,2.1103,0.03686,0.03058,-0.0501
18.3,2.116,0.03726,0.03103,-0.0505
18.4,2.1216,0.03767,0.03149,-0.0509
18.5,2.1272,0.0381,0.03197,-0.0514
18.6,2.1328,0.03854,0.03246,-0.0519
18.7,2.1383,0.039,0.03297,-0.0525
18.8,2.1438,0.03947,0.03349,-0.0532
18.9,2.1493,0.03996,0.03402,-0.0539
19,2.1547,0.04046,0.03457,-0.0547
19.1,2.1602,0.04098,0.03513,-0.0555
19.2,2.1656,0.04153,0.03572,-0.0565
19.3,2.1709,0.04209,0.03632,-0.0575
19.4,2.1762,0.04269,0.03697,-0.0587
19.5,2.1815,0.04331,0.03764,-0.0599
19.6,2.1866,0.04397,0.03833,-0.0612
19.7,2.1917,0.04467,0.03907,-0.0627
19.8,2.1966,0.04541,0.03986,-0.0643
19.9,2.2022,0.04604,0.04055,-0.0657
20,2.2085,0.04656,0.04113,-0.0668
20.1,2.2142,0.04721,0.04184,-0.0682
20.2,2.2197,0.04789,0.04258,-0.0697
20.3,2.2251,0.04861,0.04336,-0.0713
20.4,2.2303,0.04937,0.04418,-0.073
20.5,2.2353,0.05017,0.04504,-0.0748
20.6,2.2401,0.05103,0.04596,-0.0767
20.7,2.2447,0.05194,0.04693,-0.0787
20.8,2.249,0.05291,0.04796,-0.0808
20.9,2.253,0.05394,0.04905,-0.0831
21,2.2566,0.05506,0.05023,-0.0855
21.1,2.2597,0.05628,0.05151,-0.0881
21.2,2.2623,0.0576,0.0529,-0.0908
21.3,2.2644,0.05904,0.0544,-0.0938
21.4,2.2657,0.06064,0.05608,-0.097
21.5,2.268,0.06201,0.05753,-0.0996
21.6,2.2702,0.06339,0.05898,-0.1022
21.7,2.2711,0.06501,0.06069,-0.1053
21.8,2.2714,0.06676,0.06253,-0.1085
21.9,2.271,0.06866,0.06451,-0.1119
22,2.2698,0.07071,0.06666,-0.1155
22.1,2.2678,0.07292,0.06896,-0.1193
22.2,2.265,0.0753,0.07143,-0.1234
22.3,2.2613,0.07785,0.07408,-0.1276
22.4,2.2568,0.08057,0.07689,-0.1321
22.5,2.2516,0.08338,0.07981,-0.1367
22.6,2.2463,0.08616,0.08268,-0.1412
22.7,2.2407,0.08894,0.08555,-0.1459
22.8,2.2345,0.09179,0.08848,-0.1507
22.9,2.2282,0.0946,0.09138,-0.1555
23,2.2262,0.09641,0.09327,-0.1587
23.1,2.2225,0.09862,0.09557,-0.1625
23.2,2.2201,0.10052,0.09754,-0.1659
23.3,2.2163,0.10276,0.09986,-0.1698
23.4,2.2132,0.10485,0.10202,-0.1734
23.5,2.2102,0.10696,0.1042,-0.177
23.6,2.2062,0.10937,0.10668,-0.1811
23.7,2.2038,0.11143,0.1088,-0.1845
23.8,2.1998,0.11395,0.11139,-0.1885
23.9,2.1966,0.1163,0.1138,-0.1923
24,2.1943,0.11846,0.116,-0.1957
24.1,2.1899,0.12128,0.11889,-0.1999
24.2,2.1873,0.12363,0.12128,-0.2034
24.3,2.185,0.1259,0.12357,-0.2068
24.4,2.1809,0.12874,0.12646,-0.2108
24.5,2.1792,0.13096,0.12874,-0.2139
24.6,2.1781,0.133,0.13083,-0.2167
24.7,2.1763,0.13523,0.13313,-0.2197
24.8,2.173,0.138,0.13596,-0.2234
24.9,2.1713,0.14027,0.13828,-0.2264
25,2.1697,0.14252,0.14058,-0.2294
25.1,2.1659,0.14548,0.14359,-0.2332
25.2,2.1632,0.14816,0.14632,-0.2366
25.3,2.1616,0.15048,0.14867,-0.2397
25.4,2.1603,0.15274,0.15094,-0.2426
25.5,2.1572,0.15562,0.15384,-0.2462
25.6,2.1555,0.15803,0.15628,-0.2493
25.7,2.153,0.16072,0.15904,-0.2526
25.8,2.1504,0.1635,0.16188,-0.256
25.9,2.1452,0.16726,0.16572,-0.2604
26,2.143,0.16996,0.16846,-0.2637
26.1,2.1413,0.17254,0.17107,-0.2668
26.2,2.1374,0.176,0.17457,-0.2709
26.3,2.1368,0.17823,0.17679,-0.2736
26.4,2.1375,0.17996,0.17852,-0.2759
26.5,2.1347,0.18306,0.18168,-0.2795
26.6,2.1271,0.18831,0.18702,-0.2852
26.7,2.125,0.19132,0.19007,-0.2887
26.8,2.1244,0.1937,0.19247,-0.2916
26.9,2.1238,0.19611,0.19489,-0.2944
27,2.1248,0.19779,0.19655,-0.2966
27.1,2.1259,0.19939,0.19815,-0.2986
27.2,2.1216,0.20365,0.20249,-0.3033
27.3,2.1193,0.20706,0.20592,-0.307
27.4,2.1178,0.21012,0.20902,-0.3105
27.5,2.1189,0.21183,0.21072,-0.3126
27.6,2.1207,0.21318,0.21206,-0.3144
27.7,2.1225,0.21445,0.21332,-0.3162
27.8,2.1245,0.21565,0.21452,-0.3179
27.9,2.1235,0.21853,0.21744,-0.3211
28,2.1232,0.22105,0.21998,-0.324
28.1,2.1224,0.22398,0.22294,-0.3272
28.2,2.123,0.22602,0.22499,-0.3297
28.3,2.1246,0.22745,0.22639,-0.3316
28.4,2.1262,0.22884,0.22778,-0.3335
28.5,2.1279,0.23016,0.22908,-0.3353
28.6,2.1297,0.23142,0.23032,-0.3371
28.7,2.1303,0.23346,0.23239,-0.3395
28.8,2.131,0.23544,0.23439,-0.3419
28.9,2.1318,0.23736,0.23633,-0.3443
29,2.1327,0.23922,0.23821,-0.3466
29.1,2.1336,0.24105,0.24006,-0.3488
29.2,2.1344,0.24307,0.24209,-0.3513
29.3,2.1353,0.24489,0.24391,-0.3535
29.4,2.1365,0.24654,0.24557,-0.3557
29.5,2.1379,0.24805,0.24708,-0.3577
29.6,2.1393,0.24948,0.24851,-0.3596
29.7,2.1409,0.2508,0.24983,-0.3614
29.8,2.1425,0.25205,0.25108,-0.3632
29.9,2.1441,0.25329,0.25231,-0.365
30,2.1457,0.25444,0.25344,-0.3667

