airfoilName st8.dat
Re 	650000
M 	0
N 	4.500000e+00
VACC 	0 VACCflag 1
XTR 	1.00 	1.00 XTRflag 0
alpha,cl,cd,cdp,cm
-14.2,-1.1801,0.03525,0.03182,-0.0537
-14.1,-1.1724,0.03384,0.03027,-0.0555
-14,-1.1649,0.03274,0.02906,-0.0567
-13.9,-1.1572,0.03182,0.02805,-0.0576
-13.8,-1.1493,0.03102,0.02715,-0.0582
-13.7,-1.1412,0.03029,0.02634,-0.0587
-13.6,-1.1329,0.02963,0.02559,-0.0591
-13.5,-1.1244,0.02901,0.02489,-0.0595
-13.4,-1.1157,0.02844,0.02425,-0.0597
-13.3,-1.1068,0.02791,0.02366,-0.06
-13.2,-1.0977,0.02742,0.0231,-0.0602
-13.1,-1.0884,0.02696,0.02257,-0.0603
-13,-1.079,0.02653,0.02208,-0.0605
-12.9,-1.0694,0.02613,0.02162,-0.0606
-12.8,-1.0601,0.02566,0.02111,-0.0608
-12.7,-1.0519,0.02489,0.02026,-0.061
-12.6,-1.0431,0.02426,0.01957,-0.0612
-12.5,-1.0338,0.0237,0.01896,-0.0613
-12.4,-1.0243,0.02321,0.01841,-0.0614
-12.3,-1.0146,0.02276,0.01791,-0.0615
-12.2,-1.0047,0.02235,0.01746,-0.0616
-12.1,-0.9946,0.02196,0.01702,-0.0617
-12,-0.9845,0.0216,0.01662,-0.0618
-11.9,-0.9742,0.02126,0.01624,-0.0618
-11.8,-0.9638,0.02093,0.01588,-0.0619
-11.7,-0.9534,0.02062,0.01553,-0.062
-11.6,-0.9429,0.02032,0.01519,-0.062
-11.5,-0.9323,0.02003,0.01487,-0.0621
-11.4,-0.9216,0.01975,0.01456,-0.0621
-11.3,-0.911,0.01947,0.01425,-0.0622
-11.2,-0.9002,0.01921,0.01395,-0.0622
-11.1,-0.8895,0.01895,0.01366,-0.0623
-11,-0.8787,0.0187,0.01338,-0.0623
-10.9,-0.8678,0.01845,0.0131,-0.0624
-10.8,-0.8569,0.01821,0.01282,-0.0624
-10.7,-0.846,0.01797,0.01255,-0.0624
-10.6,-0.8351,0.01774,0.01228,-0.0625
-10.5,-0.8242,0.01751,0.01203,-0.0625
-10.4,-0.8132,0.01728,0.01177,-0.0626
-10.3,-0.8022,0.01706,0.01152,-0.0626
-10.2,-0.7912,0.01684,0.01127,-0.0626
-10.1,-0.7801,0.01663,0.01102,-0.0626
-10,-0.769,0.01642,0.01079,-0.0627
-9.9,-0.7567,0.0162,0.01054,-0.063
-9.8,-0.7442,0.016,0.0103,-0.0633
-9.7,-0.731,0.01579,0.01006,-0.0638
-9.6,-0.7187,0.01559,0.00983,-0.064
-9.5,-0.7063,0.01541,0.00961,-0.0643
-9.4,-0.693,0.01522,0.0094,-0.0648
-9.3,-0.6807,0.01506,0.0092,-0.065
-9.2,-0.668,0.0149,0.00902,-0.0653
-9.1,-0.6557,0.0147,0.00881,-0.0656
-9,-0.6433,0.01446,0.00854,-0.0659
-8.9,-0.631,0.01426,0.00832,-0.0661
-8.8,-0.6189,0.01408,0.00812,-0.0663
-8.7,-0.6068,0.01391,0.00794,-0.0665
-8.6,-0.5947,0.01375,0.00777,-0.0667
-8.5,-0.5826,0.01361,0.00761,-0.0669
-8.4,-0.5709,0.01347,0.00745,-0.0669
-8.3,-0.5592,0.01334,0.00729,-0.067
-8.2,-0.5474,0.01321,0.00715,-0.0671
-8.1,-0.536,0.01309,0.00701,-0.0671
-8,-0.5244,0.01296,0.00686,-0.0671
-7.9,-0.5129,0.01284,0.00672,-0.0671
-7.8,-0.5017,0.01274,0.00659,-0.067
-7.7,-0.4903,0.01263,0.00645,-0.067
-7.6,-0.4787,0.01251,0.00631,-0.067
-7.5,-0.4672,0.01241,0.00618,-0.067
-7.4,-0.4561,0.01232,0.00606,-0.0669
-7.3,-0.4447,0.01223,0.00594,-0.0669
-7.2,-0.4332,0.01209,0.0058,-0.0669
-7.1,-0.4216,0.01196,0.00566,-0.0669
-7,-0.4104,0.01186,0.00554,-0.0668
-6.9,-0.399,0.01177,0.00542,-0.0668
-6.8,-0.3874,0.01167,0.00532,-0.0668
-6.7,-0.3758,0.01157,0.00521,-0.0668
-6.6,-0.3642,0.01148,0.00511,-0.0669
-6.5,-0.353,0.01141,0.005,-0.0668
-6.4,-0.3413,0.01133,0.0049,-0.0668
-6.3,-0.3296,0.01128,0.00485,-0.0668
-6.2,-0.3179,0.0112,0.00475,-0.0669
-6.1,-0.3063,0.01109,0.00463,-0.0669
-6,-0.2949,0.01101,0.00452,-0.0668
-5.9,-0.2832,0.01092,0.00443,-0.0669
-5.8,-0.2715,0.01084,0.00434,-0.0669
-5.7,-0.2598,0.01077,0.00425,-0.0669
-5.6,-0.2481,0.0107,0.00417,-0.067
-5.5,-0.2365,0.01064,0.00408,-0.067
-5.4,-0.2247,0.01058,0.004,-0.067
-5.3,-0.213,0.01053,0.00392,-0.067
-5.2,-0.2012,0.01045,0.00383,-0.0671
-5.1,-0.1894,0.01037,0.00375,-0.0671
-5,-0.1776,0.0103,0.00367,-0.0672
-4.9,-0.1658,0.01024,0.0036,-0.0672
-4.8,-0.1542,0.01019,0.00354,-0.0672
-4.7,-0.1424,0.01014,0.00347,-0.0673
-4.6,-0.1306,0.0101,0.0034,-0.0673
-4.5,-0.1188,0.01003,0.00333,-0.0674
-4.4,-0.1069,0.00996,0.00326,-0.0675
-4.3,-0.095,0.00991,0.0032,-0.0675
-4.2,-0.0834,0.00988,0.00315,-0.0675
-4.1,-0.0715,0.00983,0.00309,-0.0676
-4,-0.0596,0.00979,0.00303,-0.0677
-3.9,-0.0478,0.00973,0.00296,-0.0677
-3.8,-0.0361,0.0097,0.00291,-0.0678
-3.7,-0.0245,0.00968,0.00286,-0.0678
-3.6,-0.0128,0.00966,0.00281,-0.0678
-3.5,-0.0011,0.00965,0.00276,-0.0678
-3.4,0.0105,0.00963,0.00271,-0.0678
-3.3,0.0224,0.00958,0.00267,-0.0679
-3.2,0.0343,0.00955,0.00263,-0.068
-3.1,0.0459,0.00955,0.00258,-0.068
-3,0.0578,0.00951,0.00254,-0.0681
-2.9,0.0696,0.00948,0.00251,-0.0682
-2.8,0.0815,0.00946,0.00247,-0.0683
-2.7,0.0932,0.00945,0.00243,-0.0683
-2.6,0.1048,0.00946,0.0024,-0.0684
-2.5,0.1167,0.00943,0.00238,-0.0685
-2.4,0.1283,0.00943,0.00235,-0.0685
-2.3,0.1402,0.00941,0.00232,-0.0686
-2.2,0.152,0.0094,0.00229,-0.0687
-2.1,0.1639,0.00937,0.00227,-0.0688
-2,0.1757,0.00934,0.00224,-0.0689
-1.9,0.1872,0.00937,0.00223,-0.0689
-1.8,0.1989,0.00938,0.00221,-0.069
-1.7,0.2108,0.00937,0.0022,-0.0691
-1.6,0.2226,0.00935,0.00219,-0.0692
-1.5,0.2343,0.00936,0.00218,-0.0693
-1.4,0.2461,0.00933,0.00217,-0.0694
-1.3,0.2578,0.00934,0.00216,-0.0695
-1.2,0.2695,0.00937,0.00216,-0.0696
-1.1,0.2812,0.00934,0.00216,-0.0697
-1,0.2931,0.00933,0.00215,-0.0698
-0.9,0.3049,0.00934,0.00215,-0.0699
-0.8,0.3167,0.00933,0.00215,-0.07
-0.7,0.3286,0.00932,0.00215,-0.0701
-0.6,0.3403,0.0093,0.00215,-0.0703
-0.5,0.3519,0.00936,0.00216,-0.0703
-0.4,0.3637,0.00935,0.00216,-0.0705
-0.3,0.3755,0.00933,0.00216,-0.0706
-0.2,0.3873,0.00933,0.00217,-0.0707
0,0.4108,0.0093,0.00219,-0.071
0.1,0.4226,0.0093,0.00219,-0.0711
0.2,0.4343,0.00932,0.0022,-0.0712
0.3,0.4461,0.00932,0.00222,-0.0713
0.4,0.4575,0.00932,0.00225,-0.0714
0.5,0.4692,0.00933,0.00226,-0.0715
0.6,0.4809,0.00934,0.00228,-0.0717
0.7,0.4925,0.00928,0.0023,-0.0718
0.8,0.5041,0.00928,0.00232,-0.0719
0.9,0.5157,0.00929,0.00235,-0.0721
1,0.5272,0.00919,0.00237,-0.0722
1.1,0.5387,0.00917,0.0024,-0.0723
1.3,0.5602,0.00902,0.0025,-0.0723
1.4,0.5709,0.00899,0.00253,-0.0722
1.5,0.5811,0.00897,0.00258,-0.0719
1.6,0.5874,0.00883,0.00261,-0.0706
1.7,0.5961,0.00883,0.00262,-0.0699
1.8,0.6059,0.00884,0.00261,-0.0695
1.9,0.6192,0.00887,0.00259,-0.07
2,0.6307,0.00897,0.00263,-0.07
2.1,0.6423,0.00907,0.00268,-0.0701
2.2,0.6536,0.00922,0.00275,-0.0702
2.3,0.6652,0.0093,0.00279,-0.0703
2.4,0.6769,0.00937,0.00284,-0.0704
2.5,0.6885,0.00946,0.00288,-0.0704
2.6,0.7,0.00954,0.00294,-0.0705
2.7,0.7117,0.00961,0.00298,-0.0706
2.8,0.7234,0.00967,0.00303,-0.0707
2.9,0.735,0.00975,0.00307,-0.0708
3,0.7466,0.00983,0.00312,-0.0709
3.1,0.7582,0.00991,0.00318,-0.0709
3.2,0.7697,0.00999,0.00323,-0.071
3.3,0.7813,0.01006,0.00328,-0.0711
3.4,0.7929,0.01014,0.00333,-0.0712
3.5,0.8044,0.01022,0.00338,-0.0713
3.6,0.816,0.01029,0.00344,-0.0713
3.7,0.8276,0.01035,0.00349,-0.0714
3.8,0.8392,0.01042,0.00354,-0.0715
3.9,0.8508,0.01049,0.00359,-0.0716
4,0.8623,0.01056,0.00365,-0.0717
4.1,0.8738,0.01065,0.00371,-0.0717
4.2,0.8852,0.01073,0.00377,-0.0718
4.3,0.8968,0.0108,0.00382,-0.0719
4.4,0.9083,0.01087,0.00388,-0.072
4.5,0.9198,0.01094,0.00394,-0.072
4.6,0.9312,0.01102,0.004,-0.0721
4.7,0.9426,0.01111,0.00406,-0.0722
4.8,0.9541,0.01119,0.00413,-0.0722
4.9,0.9656,0.01125,0.00419,-0.0723
5,0.9771,0.01132,0.00425,-0.0724
5.1,0.9885,0.01139,0.00431,-0.0725
5.2,0.9999,0.01147,0.00437,-0.0725
5.3,1.0111,0.01158,0.00445,-0.0726
5.4,1.0224,0.01167,0.00452,-0.0726
5.5,1.0338,0.01174,0.00459,-0.0727
5.6,1.0453,0.01181,0.00466,-0.0728
5.7,1.0566,0.01188,0.00472,-0.0728
5.8,1.068,0.01196,0.00479,-0.0729
5.9,1.0793,0.01204,0.00486,-0.073
6,1.0906,0.01213,0.00493,-0.073
6.1,1.1018,0.01222,0.00501,-0.0731
6.2,1.113,0.01232,0.0051,-0.0731
6.3,1.1242,0.0124,0.00517,-0.0732
6.4,1.1355,0.01248,0.00525,-0.0732
6.5,1.1467,0.01256,0.00532,-0.0733
6.6,1.1579,0.01265,0.0054,-0.0733
6.7,1.1691,0.01273,0.00548,-0.0734
6.8,1.1802,0.01283,0.00556,-0.0734
6.9,1.1913,0.01293,0.00565,-0.0735
7,1.2023,0.01304,0.00575,-0.0735
7.1,1.2135,0.01312,0.00583,-0.0735
7.2,1.2247,0.0132,0.00591,-0.0736
7.3,1.2358,0.01328,0.006,-0.0736
7.4,1.2468,0.01338,0.00608,-0.0737
7.5,1.2578,0.01348,0.00617,-0.0737
7.6,1.2688,0.01358,0.00626,-0.0737
7.7,1.2797,0.01369,0.00636,-0.0737
7.8,1.2905,0.01381,0.00646,-0.0737
7.9,1.3015,0.01389,0.00656,-0.0738
8,1.3126,0.01398,0.00666,-0.0738
8.1,1.3235,0.01407,0.00675,-0.0738
8.2,1.3344,0.01417,0.00684,-0.0738
8.3,1.3453,0.01426,0.00694,-0.0739
8.4,1.3562,0.01437,0.00704,-0.0739
8.5,1.367,0.01447,0.00714,-0.0739
8.6,1.3775,0.01462,0.00725,-0.0739
8.7,1.3881,0.01475,0.00738,-0.0739
8.8,1.399,0.01483,0.00748,-0.0739
8.9,1.4098,0.01493,0.00759,-0.0739
9,1.4205,0.01503,0.00769,-0.0739
9.1,1.4312,0.01513,0.0078,-0.0739
9.2,1.4419,0.01524,0.00791,-0.0739
9.3,1.4525,0.01536,0.00802,-0.0739
9.4,1.463,0.01547,0.00814,-0.0738
9.5,1.4735,0.0156,0.00826,-0.0738
9.6,1.4839,0.01573,0.00838,-0.0738
9.7,1.4942,0.01587,0.00851,-0.0737
9.8,1.5048,0.01598,0.00864,-0.0737
9.9,1.5153,0.01609,0.00875,-0.0737
10,1.5257,0.0162,0.00887,-0.0737
10.1,1.5361,0.01632,0.009,-0.0736
10.2,1.5465,0.01644,0.00912,-0.0736
10.3,1.5567,0.01657,0.00925,-0.0735
10.4,1.567,0.0167,0.00938,-0.0735
10.5,1.5771,0.01684,0.00952,-0.0734
10.6,1.5871,0.01699,0.00966,-0.0734
10.7,1.5971,0.01714,0.00981,-0.0733
10.8,1.6073,0.01726,0.00995,-0.0732
10.9,1.6175,0.01738,0.01009,-0.0732
11,1.6276,0.0175,0.01023,-0.0731
11.1,1.6376,0.01763,0.01036,-0.073
11.2,1.6476,0.01777,0.0105,-0.0729
11.3,1.6575,0.01791,0.01065,-0.0728
11.4,1.6673,0.01806,0.0108,-0.0727
11.5,1.677,0.01821,0.01095,-0.0726
11.6,1.6866,0.01837,0.01111,-0.0725
11.7,1.6961,0.01854,0.01128,-0.0723
11.8,1.7056,0.01871,0.01146,-0.0722
11.9,1.7154,0.01883,0.0116,-0.0721
12,1.7251,0.01896,0.01175,-0.072
12.1,1.7347,0.0191,0.01192,-0.0719
12.2,1.7442,0.01925,0.01208,-0.0717
12.3,1.7535,0.01941,0.01224,-0.0716
12.4,1.7628,0.01957,0.01241,-0.0714
12.5,1.772,0.01974,0.01258,-0.0712
12.6,1.7811,0.01991,0.01276,-0.071
12.7,1.79,0.02009,0.01294,-0.0708
12.8,1.7988,0.02028,0.01313,-0.0706
12.9,1.8074,0.02048,0.01334,-0.0704
13,1.8165,0.02063,0.01352,-0.0702
13.1,1.8256,0.02078,0.01369,-0.07
13.2,1.8345,0.02094,0.01387,-0.0697
13.3,1.8431,0.02111,0.01405,-0.0695
13.4,1.8517,0.02128,0.01424,-0.0693
13.5,1.8602,0.02146,0.01444,-0.069
13.6,1.8685,0.02165,0.01464,-0.0687
13.7,1.8766,0.02184,0.01484,-0.0684
13.8,1.8845,0.02204,0.01505,-0.068
13.9,1.8916,0.0223,0.01529,-0.0676
14,1.899,0.02253,0.01554,-0.0672
14.1,1.9071,0.02269,0.01573,-0.0669
14.2,1.9149,0.02287,0.01592,-0.0665
14.3,1.9224,0.02306,0.01613,-0.0661
14.4,1.9297,0.02325,0.01635,-0.0657
14.5,1.9367,0.02346,0.01657,-0.0652
14.6,1.9436,0.02367,0.0168,-0.0648
14.7,1.9502,0.02389,0.01704,-0.0642
14.8,1.9566,0.02411,0.01728,-0.0637
14.9,1.9627,0.02435,0.01753,-0.0631
15,1.9682,0.02459,0.01779,-0.0624
15.1,1.9724,0.02485,0.01807,-0.0616
15.2,1.9763,0.02512,0.01836,-0.0606
15.3,1.9802,0.02541,0.01867,-0.0597
15.4,1.9852,0.02563,0.01893,-0.059
15.5,1.9902,0.02587,0.01919,-0.0583
15.6,1.9949,0.02613,0.01948,-0.0576
15.7,1.9996,0.0264,0.01978,-0.057
15.8,2.0044,0.02668,0.02009,-0.0563
15.9,2.009,0.02697,0.02041,-0.0557
16,2.0136,0.02727,0.02074,-0.0552
16.1,2.0181,0.02758,0.02107,-0.0546
16.2,2.0225,0.02791,0.02142,-0.0541
16.3,2.0268,0.02824,0.02179,-0.0536
16.4,2.031,0.0286,0.02216,-0.0531
16.5,2.034,0.02904,0.02261,-0.0526
16.6,2.0378,0.02944,0.02303,-0.0522
16.7,2.0425,0.02978,0.02342,-0.0519
16.8,2.0474,0.03011,0.02377,-0.0516
16.9,2.052,0.03048,0.02417,-0.0513
17,2.0565,0.03085,0.02459,-0.0511
17.1,2.0609,0.03124,0.02501,-0.0509
17.2,2.0652,0.03164,0.02544,-0.0507
17.3,2.0695,0.03205,0.02588,-0.0506
17.4,2.0737,0.03248,0.02635,-0.0505
17.5,2.0778,0.03293,0.02682,-0.0505
17.6,2.0819,0.0334,0.02732,-0.0505
17.7,2.0858,0.03389,0.02784,-0.0506
17.8,2.0897,0.0344,0.02837,-0.0507
17.9,2.0936,0.03492,0.02893,-0.0509
18,2.0978,0.03543,0.02947,-0.0512
18.1,2.1026,0.03589,0.02997,-0.0514
18.2,2.1073,0.03637,0.0305,-0.0518
18.3,2.1119,0.03687,0.03103,-0.0521
18.4,2.1165,0.03739,0.03159,-0.0526
18.5,2.1211,0.03792,0.03216,-0.0531
18.6,2.1256,0.03847,0.03274,-0.0536
18.7,2.13,0.03905,0.03336,-0.0543
18.8,2.1345,0.03964,0.03399,-0.055
18.9,2.1388,0.04027,0.03465,-0.0558
19,2.143,0.04093,0.03535,-0.0567
19.1,2.1472,0.04162,0.03608,-0.0577
19.2,2.1512,0.04234,0.03683,-0.0588
19.3,2.1556,0.04304,0.03758,-0.0599
19.4,2.1604,0.04369,0.03828,-0.0609
19.5,2.1651,0.04438,0.03901,-0.0621
19.6,2.1698,0.0451,0.03977,-0.0633
19.7,2.1743,0.04585,0.04057,-0.0646
19.8,2.1786,0.04664,0.0414,-0.0661
19.9,2.1828,0.04748,0.04229,-0.0676
20,2.1867,0.04838,0.04324,-0.0693
20.1,2.1903,0.04934,0.04423,-0.071
20.2,2.1936,0.05038,0.04533,-0.073
20.3,2.1965,0.0515,0.04648,-0.075
20.4,2.1992,0.05267,0.04772,-0.0772
20.5,2.2024,0.05375,0.04886,-0.0792
20.6,2.2052,0.05492,0.05008,-0.0814
20.7,2.2076,0.05617,0.05139,-0.0837
20.8,2.2095,0.05753,0.05282,-0.0861
20.9,2.2109,0.05901,0.05436,-0.0887
21,2.2116,0.06061,0.05603,-0.0915
21.1,2.2116,0.0624,0.05789,-0.0946
21.2,2.2108,0.06435,0.05992,-0.0979
21.3,2.2087,0.06658,0.06223,-0.1016
21.4,2.206,0.06897,0.06473,-0.1054
21.5,2.2035,0.07132,0.06717,-0.1091
21.6,2.1998,0.07392,0.06987,-0.1131
21.7,2.1951,0.07678,0.07283,-0.1173
21.8,2.1894,0.07985,0.07602,-0.1218
21.9,2.1817,0.08343,0.07972,-0.1269
22,2.1737,0.08701,0.08342,-0.1319
22.1,2.1648,0.09075,0.08729,-0.1371
22.2,2.156,0.09438,0.09103,-0.1422
22.3,2.1468,0.09797,0.09473,-0.1474
22.4,2.138,0.10146,0.09832,-0.1525
22.5,2.129,0.10496,0.10192,-0.1577
22.6,2.1212,0.10816,0.10521,-0.1625
22.7,2.1142,0.1112,0.10832,-0.1672
22.8,2.1062,0.11454,0.11175,-0.1722
23,2.0925,0.12091,0.11825,-0.1816
23.1,2.0831,0.1249,0.12232,-0.1873
23.2,2.0776,0.12803,0.12552,-0.1915
23.3,2.0749,0.13042,0.12795,-0.1948
23.4,2.0705,0.13338,0.13097,-0.1987
23.5,2.0666,0.13627,0.1339,-0.2024
23.6,2.0638,0.13883,0.13651,-0.2057
23.7,2.0589,0.1421,0.13983,-0.2098
23.8,2.0547,0.14523,0.14302,-0.2136
23.9,2.0529,0.1476,0.14543,-0.2166
24,2.0506,0.15021,0.14807,-0.2197
24.1,2.0463,0.15349,0.1514,-0.2236
24.2,2.0446,0.15593,0.15386,-0.2265
24.3,2.0422,0.15862,0.15658,-0.2297
24.4,2.0374,0.16224,0.16025,-0.2338
24.5,2.0351,0.16496,0.16302,-0.237
24.6,2.0337,0.16742,0.1655,-0.2399
24.7,2.0324,0.16988,0.16798,-0.2428
24.8,2.0285,0.17334,0.17149,-0.2466
24.9,2.0271,0.17591,0.17408,-0.2495
25,2.0251,0.1787,0.17688,-0.2527
25.1,2.0239,0.18121,0.17944,-0.2556
25.2,2.0211,0.1844,0.18268,-0.2591
25.3,2.0203,0.18685,0.18515,-0.2619
25.4,2.02,0.18906,0.18738,-0.2644
25.5,2.0195,0.19137,0.18971,-0.267
25.6,2.0192,0.19365,0.19201,-0.2696
25.7,2.0164,0.19707,0.19547,-0.2733
25.8,2.0155,0.19967,0.19809,-0.2762
25.9,2.0156,0.20185,0.2003,-0.2786
26,2.0161,0.20385,0.20232,-0.281
26.1,2.0165,0.20588,0.20437,-0.2833
26.2,2.0167,0.20805,0.20655,-0.2858
26.3,2.0158,0.21084,0.20938,-0.2888
26.4,2.0163,0.21293,0.21149,-0.2911
26.5,2.0169,0.2149,0.21348,-0.2934
26.6,2.0178,0.2168,0.2154,-0.2956
26.7,2.0186,0.21871,0.21732,-0.2979
26.8,2.0195,0.22062,0.21924,-0.3001
26.9,2.0203,0.22253,0.22117,-0.3023
27,2.0205,0.22484,0.2235,-0.3049
27.1,2.0207,0.22721,0.2259,-0.3075
27.2,2.0214,0.22924,0.22794,-0.3099
27.3,2.0226,0.23104,0.22975,-0.312
27.4,2.0237,0.23284,0.23156,-0.3142
27.5,2.0249,0.23456,0.23329,-0.3162
27.6,2.0261,0.23628,0.23501,-0.3183
27.7,2.0274,0.23798,0.23672,-0.3204
27.8,2.0288,0.2396,0.23834,-0.3224
27.9,2.0303,0.24114,0.23988,-0.3244
28,2.0318,0.24261,0.24135,-0.3263
28.1,2.0332,0.24422,0.24298,-0.3283
28.2,2.0344,0.24595,0.24473,-0.3303
28.3,2.0354,0.24785,0.24665,-0.3326
28.4,2.0367,0.24962,0.24846,-0.3347
28.5,2.038,0.25127,0.25012,-0.3367
28.6,2.0394,0.25284,0.25171,-0.3387
28.7,2.0409,0.25439,0.25327,-0.3406
28.8,2.0424,0.25588,0.25477,-0.3425
28.9,2.0439,0.25739,0.2563,-0.3445
29,2.0453,0.25891,0.25783,-0.3464
29.1,2.0468,0.2604,0.25933,-0.3483
29.2,2.0482,0.26188,0.26083,-0.3503
29.3,2.0497,0.2634,0.26235,-0.3522
29.4,2.051,0.26492,0.2639,-0.3542
29.5,2.0525,0.26642,0.2654,-0.3561
29.6,2.0538,0.26796,0.26696,-0.3581
29.7,2.0551,0.2695,0.2685,-0.3601
29.9,2.0572,0.27314,0.27216,-0.3645
30,2.0583,0.27488,0.27391,-0.3667

