airfoilName st8.dat
Re 	630000
M 	0
N 	4.500000e+00
VACC 	0 VACCflag 1
XTR 	1.00 	1.00 XTRflag 0
alpha,cl,cd,cdp,cm
-14.1,-1.1699,0.03488,0.03136,-0.0542
-14,-1.1622,0.03361,0.02996,-0.0558
-13.9,-1.1545,0.03259,0.02884,-0.0569
-13.8,-1.1466,0.03173,0.02788,-0.0577
-13.7,-1.1386,0.03096,0.02702,-0.0583
-13.6,-1.1304,0.03027,0.02624,-0.0587
-13.5,-1.1219,0.02963,0.02552,-0.0591
-13.4,-1.1133,0.02905,0.02487,-0.0594
-13.3,-1.1044,0.02851,0.02426,-0.0597
-13.2,-1.0954,0.02801,0.02369,-0.0599
-13.1,-1.0861,0.02755,0.02316,-0.0601
-13,-1.0767,0.02712,0.02267,-0.0603
-12.9,-1.069,0.02628,0.02178,-0.0606
-12.8,-1.0607,0.02557,0.02099,-0.0608
-12.7,-1.0519,0.02494,0.0203,-0.061
-12.6,-1.0427,0.0244,0.0197,-0.0612
-12.5,-1.0333,0.0239,0.01915,-0.0613
-12.4,-1.0237,0.02344,0.01864,-0.0614
-12.3,-1.0139,0.02302,0.01817,-0.0615
-12.2,-1.0039,0.02262,0.01774,-0.0616
-12.1,-0.9939,0.02225,0.01731,-0.0617
-12,-0.9837,0.02189,0.01692,-0.0618
-11.9,-0.9734,0.02155,0.01654,-0.0618
-11.8,-0.9631,0.02123,0.01617,-0.0619
-11.7,-0.9527,0.02091,0.01582,-0.0619
-11.6,-0.9422,0.02061,0.01549,-0.062
-11.5,-0.9316,0.02032,0.01516,-0.0621
-11.4,-0.921,0.02003,0.01484,-0.0621
-11.3,-0.9104,0.01975,0.01453,-0.0622
-11.2,-0.8997,0.01948,0.01422,-0.0622
-11.1,-0.8889,0.01921,0.01392,-0.0623
-11,-0.8782,0.01896,0.01363,-0.0623
-10.9,-0.8674,0.0187,0.01334,-0.0623
-10.8,-0.8565,0.01846,0.01306,-0.0624
-10.7,-0.8456,0.01821,0.01278,-0.0624
-10.6,-0.8347,0.01797,0.0125,-0.0625
-10.5,-0.8238,0.01773,0.01224,-0.0625
-10.4,-0.8129,0.0175,0.01197,-0.0625
-10.3,-0.8019,0.01727,0.01171,-0.0626
-10.2,-0.7909,0.01705,0.01145,-0.0626
-10.1,-0.7799,0.01683,0.01121,-0.0626
-10,-0.7689,0.01662,0.01096,-0.0626
-9.9,-0.7574,0.0164,0.01071,-0.0628
-9.8,-0.745,0.01619,0.01047,-0.0631
-9.7,-0.7317,0.01598,0.01023,-0.0636
-9.6,-0.7193,0.01578,0.01,-0.0639
-9.5,-0.7069,0.0156,0.00977,-0.0641
-9.4,-0.6938,0.01542,0.00956,-0.0646
-9.3,-0.6811,0.01525,0.00936,-0.0649
-9.2,-0.6689,0.01508,0.00918,-0.0651
-9.1,-0.6563,0.0148,0.00888,-0.0655
-9,-0.6439,0.01458,0.00864,-0.0658
-8.9,-0.6315,0.01439,0.00842,-0.066
-8.8,-0.6191,0.01421,0.00823,-0.0663
-8.7,-0.607,0.01404,0.00805,-0.0665
-8.6,-0.5949,0.01389,0.00788,-0.0667
-8.5,-0.5826,0.01375,0.00771,-0.0669
-8.4,-0.5707,0.0136,0.00755,-0.067
-8.3,-0.559,0.01347,0.00739,-0.0671
-8.2,-0.5472,0.01333,0.00724,-0.0672
-8.1,-0.5356,0.01321,0.0071,-0.0672
-8,-0.5239,0.01308,0.00695,-0.0672
-7.9,-0.5123,0.01296,0.0068,-0.0673
-7.8,-0.501,0.01285,0.00667,-0.0672
-7.7,-0.4896,0.01273,0.00653,-0.0672
-7.6,-0.4782,0.01262,0.00639,-0.0672
-7.5,-0.4666,0.01252,0.00626,-0.0672
-7.4,-0.4554,0.01243,0.00614,-0.0671
-7.3,-0.4439,0.01231,0.00601,-0.0671
-7.2,-0.4326,0.01218,0.00585,-0.067
-7.1,-0.421,0.01205,0.00572,-0.0671
-7,-0.4095,0.01194,0.0056,-0.0671
-6.9,-0.3983,0.01185,0.00549,-0.067
-6.8,-0.3869,0.01176,0.00538,-0.067
-6.7,-0.3753,0.01166,0.00527,-0.067
-6.6,-0.3636,0.01157,0.00517,-0.067
-6.4,-0.3408,0.01145,0.005,-0.0669
-6.3,-0.3292,0.01138,0.0049,-0.0669
-6.2,-0.3175,0.01127,0.00479,-0.067
-6.1,-0.3058,0.01116,0.00468,-0.067
-6,-0.2945,0.01109,0.00457,-0.0669
-5.9,-0.2828,0.011,0.00448,-0.067
-5.8,-0.271,0.01092,0.00439,-0.067
-5.7,-0.2593,0.01084,0.0043,-0.0671
-5.6,-0.2476,0.01078,0.00421,-0.0671
-5.5,-0.2359,0.01071,0.00413,-0.0671
-5.4,-0.2243,0.01065,0.00404,-0.0671
-5.3,-0.2126,0.0106,0.00396,-0.0671
-5.2,-0.2009,0.01051,0.00387,-0.0671
-5.1,-0.1891,0.01043,0.00379,-0.0672
-5,-0.1772,0.01036,0.00371,-0.0673
-4.9,-0.1655,0.01031,0.00365,-0.0673
-4.8,-0.1539,0.01026,0.00358,-0.0673
-4.7,-0.1421,0.01021,0.00351,-0.0674
-4.6,-0.1302,0.01015,0.00343,-0.0674
-4.5,-0.1185,0.01009,0.00336,-0.0675
-4.4,-0.1066,0.01003,0.00329,-0.0675
-4.3,-0.0948,0.00997,0.00323,-0.0676
-4.2,-0.0832,0.00994,0.00318,-0.0676
-4.1,-0.0713,0.00989,0.00312,-0.0677
-4,-0.0594,0.00984,0.00305,-0.0677
-3.9,-0.0475,0.00978,0.00299,-0.0678
-3.8,-0.0359,0.00975,0.00294,-0.0678
-3.7,-0.0243,0.00974,0.00288,-0.0678
-3.6,-0.0124,0.0097,0.00284,-0.0679
-3.5,-0.0007,0.00968,0.00278,-0.0679
-3.4,0.0107,0.00968,0.00273,-0.0679
-3.3,0.0225,0.00963,0.00269,-0.068
-3.2,0.0344,0.0096,0.00265,-0.068
-3.1,0.046,0.0096,0.0026,-0.0681
-3,0.0579,0.00956,0.00256,-0.0682
-2.9,0.0698,0.00953,0.00253,-0.0682
-2.8,0.0816,0.00951,0.00249,-0.0683
-2.7,0.0934,0.00949,0.00245,-0.0684
-2.6,0.1052,0.00947,0.00242,-0.0684
-2.5,0.1168,0.00947,0.00239,-0.0685
-2.4,0.1285,0.00946,0.00236,-0.0685
-2.3,0.1403,0.00945,0.00234,-0.0686
-2.2,0.1521,0.00943,0.00231,-0.0687
-2.1,0.1639,0.0094,0.00229,-0.0688
-2,0.1758,0.00937,0.00226,-0.0689
-1.9,0.1873,0.00941,0.00225,-0.069
-1.8,0.199,0.00942,0.00223,-0.069
-1.7,0.2108,0.0094,0.00222,-0.0691
-1.6,0.2227,0.00939,0.0022,-0.0692
-1.5,0.2345,0.00935,0.00219,-0.0693
-1.4,0.2462,0.00937,0.00218,-0.0694
-1.3,0.2579,0.00937,0.00217,-0.0695
-1.2,0.2695,0.00941,0.00218,-0.0696
-1.1,0.2813,0.00938,0.00216,-0.0697
-1,0.2931,0.00937,0.00217,-0.0698
-0.9,0.3049,0.00936,0.00216,-0.0699
-0.8,0.3167,0.00937,0.00217,-0.07
-0.7,0.3285,0.00934,0.00216,-0.0702
-0.6,0.3403,0.00934,0.00216,-0.0703
-0.5,0.3519,0.00938,0.00217,-0.0703
-0.4,0.3637,0.00939,0.00217,-0.0704
-0.3,0.3755,0.00936,0.00218,-0.0706
-0.2,0.3872,0.00936,0.00218,-0.0707
0,0.4108,0.00933,0.0022,-0.071
0.1,0.4225,0.00933,0.00221,-0.0711
0.2,0.4343,0.00933,0.00222,-0.0712
0.3,0.446,0.00934,0.00223,-0.0713
0.4,0.4574,0.00935,0.00226,-0.0714
0.5,0.4691,0.00935,0.00227,-0.0715
0.6,0.4808,0.00936,0.00229,-0.0716
0.7,0.4924,0.00929,0.00231,-0.0718
0.8,0.504,0.00929,0.00233,-0.0719
0.9,0.5156,0.00928,0.00235,-0.072
1,0.5271,0.00918,0.00238,-0.0722
1.1,0.5385,0.00915,0.0024,-0.0723
1.3,0.5596,0.00898,0.0025,-0.0721
1.4,0.57,0.00895,0.00254,-0.0719
1.5,0.5798,0.00893,0.00259,-0.0716
1.6,0.5853,0.00879,0.00259,-0.07
1.7,0.5942,0.00878,0.00258,-0.0694
1.8,0.6062,0.00885,0.0026,-0.0695
1.9,0.6191,0.00891,0.00258,-0.0699
2,0.6306,0.00901,0.00264,-0.07
2.1,0.6421,0.00912,0.00269,-0.0701
2.2,0.6534,0.00926,0.00275,-0.0701
2.3,0.6649,0.00935,0.0028,-0.0702
2.4,0.6766,0.00943,0.00285,-0.0703
2.5,0.6882,0.00951,0.00289,-0.0704
2.6,0.6998,0.0096,0.00294,-0.0704
2.7,0.7114,0.00967,0.00299,-0.0705
2.8,0.7231,0.00974,0.00304,-0.0706
2.9,0.7347,0.00981,0.00309,-0.0707
3,0.7463,0.00989,0.00314,-0.0708
3.1,0.7578,0.00998,0.0032,-0.0709
3.2,0.7693,0.01006,0.00325,-0.0709
3.3,0.781,0.01012,0.00329,-0.071
3.4,0.7925,0.0102,0.00335,-0.0711
3.5,0.804,0.01028,0.0034,-0.0712
3.6,0.8156,0.01036,0.00346,-0.0712
3.7,0.8272,0.01042,0.00351,-0.0713
3.8,0.8388,0.01049,0.00356,-0.0714
3.9,0.8504,0.01056,0.00362,-0.0715
4,0.8619,0.01063,0.00367,-0.0716
4.1,0.8734,0.01071,0.00373,-0.0716
4.2,0.8848,0.0108,0.00379,-0.0717
4.3,0.8963,0.01087,0.00385,-0.0718
4.4,0.9078,0.01094,0.0039,-0.0719
4.5,0.9193,0.01102,0.00397,-0.0719
4.6,0.9308,0.0111,0.00403,-0.072
4.7,0.9422,0.01118,0.00409,-0.0721
4.8,0.9535,0.01127,0.00416,-0.0721
4.9,0.9651,0.01134,0.00422,-0.0722
5,0.9765,0.0114,0.00428,-0.0723
5.1,0.988,0.01147,0.00434,-0.0724
5.2,0.9994,0.01155,0.0044,-0.0724
5.3,1.0106,0.01165,0.00448,-0.0725
5.4,1.0219,0.01174,0.00455,-0.0725
5.5,1.0333,0.01183,0.00463,-0.0726
5.6,1.0447,0.0119,0.00469,-0.0727
5.7,1.0561,0.01197,0.00476,-0.0727
5.8,1.0674,0.01205,0.00483,-0.0728
5.9,1.0787,0.01213,0.0049,-0.0728
6,1.09,0.01221,0.00497,-0.0729
6.1,1.1012,0.0123,0.00505,-0.073
6.2,1.1124,0.0124,0.00513,-0.073
6.3,1.1236,0.0125,0.00522,-0.0731
6.4,1.1348,0.01257,0.00529,-0.0731
6.5,1.1461,0.01265,0.00536,-0.0732
6.6,1.1573,0.01274,0.00544,-0.0732
6.7,1.1685,0.01283,0.00552,-0.0733
6.8,1.1796,0.01292,0.0056,-0.0733
6.9,1.1907,0.01302,0.00569,-0.0733
7,1.2017,0.01312,0.00579,-0.0734
7.1,1.2128,0.01322,0.00588,-0.0734
7.2,1.2239,0.0133,0.00596,-0.0734
7.3,1.2351,0.01338,0.00605,-0.0735
7.4,1.2461,0.01348,0.00613,-0.0735
7.5,1.2571,0.01357,0.00622,-0.0735
7.6,1.2681,0.01368,0.00631,-0.0736
7.7,1.279,0.01378,0.00641,-0.0736
7.8,1.2898,0.01389,0.00651,-0.0736
7.9,1.3007,0.01401,0.00662,-0.0736
8,1.3117,0.01409,0.00671,-0.0737
8.1,1.3227,0.01418,0.00681,-0.0737
8.2,1.3336,0.01427,0.0069,-0.0737
8.3,1.3445,0.01437,0.007,-0.0737
8.4,1.3553,0.01447,0.0071,-0.0737
8.5,1.3661,0.01458,0.0072,-0.0737
8.6,1.3767,0.01472,0.00731,-0.0737
8.7,1.3873,0.01484,0.00743,-0.0737
8.8,1.398,0.01495,0.00755,-0.0737
8.9,1.4088,0.01505,0.00765,-0.0737
9,1.4196,0.01515,0.00776,-0.0737
9.1,1.4303,0.01525,0.00787,-0.0737
9.2,1.4409,0.01536,0.00798,-0.0737
9.3,1.4515,0.01547,0.00809,-0.0737
9.4,1.4621,0.01559,0.00821,-0.0737
9.5,1.4726,0.01571,0.00833,-0.0737
9.6,1.483,0.01584,0.00845,-0.0736
9.7,1.4933,0.01598,0.00858,-0.0736
9.8,1.5036,0.01612,0.00873,-0.0735
9.9,1.5142,0.01621,0.00883,-0.0735
10,1.5246,0.01633,0.00896,-0.0735
10.1,1.535,0.01644,0.00908,-0.0735
10.2,1.5454,0.01656,0.00921,-0.0734
10.3,1.5556,0.01669,0.00933,-0.0734
10.4,1.5659,0.01682,0.00947,-0.0733
10.5,1.576,0.01696,0.0096,-0.0732
10.6,1.586,0.0171,0.00974,-0.0732
10.7,1.596,0.01726,0.00989,-0.0731
10.8,1.6059,0.01741,0.01005,-0.073
10.9,1.6162,0.01752,0.01019,-0.0729
11,1.6263,0.01764,0.01033,-0.0729
11.1,1.6364,0.01777,0.01046,-0.0728
11.2,1.6463,0.0179,0.0106,-0.0727
11.3,1.6561,0.01804,0.01075,-0.0726
11.4,1.6659,0.01819,0.0109,-0.0725
11.5,1.6757,0.01834,0.01105,-0.0724
11.6,1.6853,0.0185,0.01121,-0.0723
11.7,1.6948,0.01867,0.01138,-0.0721
11.8,1.7042,0.01884,0.01155,-0.072
11.9,1.7138,0.01899,0.01172,-0.0719
12,1.7235,0.01912,0.01187,-0.0717
12.1,1.7331,0.01926,0.01204,-0.0716
12.2,1.7426,0.0194,0.0122,-0.0715
12.4,1.7612,0.01972,0.01252,-0.0711
12.5,1.7704,0.01988,0.0127,-0.071
12.6,1.7795,0.02005,0.01288,-0.0708
12.7,1.7884,0.02023,0.01306,-0.0706
12.8,1.7972,0.02042,0.01325,-0.0703
12.9,1.8059,0.02062,0.01345,-0.0701
13,1.8145,0.02081,0.01366,-0.0699
13.1,1.8235,0.02096,0.01383,-0.0697
13.2,1.8324,0.02111,0.01401,-0.0694
13.3,1.8412,0.02128,0.01419,-0.0692
13.4,1.8497,0.02145,0.01437,-0.0689
13.5,1.8581,0.02163,0.01458,-0.0687
13.6,1.8664,0.02182,0.01478,-0.0684
13.7,1.8745,0.02201,0.01498,-0.0681
13.8,1.8824,0.02221,0.01519,-0.0677
13.9,1.8901,0.02241,0.01541,-0.0673
14,1.8969,0.02268,0.01566,-0.0669
14.1,1.9043,0.0229,0.0159,-0.0665
14.2,1.9121,0.02307,0.0161,-0.0661
14.3,1.9197,0.02325,0.01629,-0.0657
14.4,1.9269,0.02344,0.01651,-0.0653
14.5,1.934,0.02365,0.01674,-0.0648
14.6,1.9408,0.02386,0.01697,-0.0643
14.7,1.9474,0.02407,0.0172,-0.0638
14.8,1.9537,0.0243,0.01745,-0.0633
14.9,1.9598,0.02453,0.0177,-0.0627
15,1.9647,0.02477,0.01795,-0.0619
15.1,1.9689,0.02503,0.01823,-0.061
15.2,1.9729,0.0253,0.01853,-0.0601
15.3,1.9768,0.02559,0.01883,-0.0593
15.4,1.9807,0.02589,0.01916,-0.0584
15.5,1.9858,0.02612,0.01943,-0.0578
15.6,1.9909,0.02637,0.0197,-0.0572
15.7,1.9958,0.02664,0.02,-0.0565
15.8,2.0006,0.02692,0.02031,-0.0559
15.9,2.0053,0.02721,0.02063,-0.0553
16,2.01,0.02751,0.02096,-0.0548
16.1,2.0145,0.02782,0.0213,-0.0543
16.2,2.019,0.02815,0.02165,-0.0537
16.3,2.0233,0.02848,0.02202,-0.0533
16.4,2.0276,0.02883,0.02239,-0.0528
16.5,2.0308,0.02927,0.02283,-0.0524
16.6,2.0348,0.02966,0.02324,-0.052
16.7,2.0386,0.03007,0.02368,-0.0516
16.8,2.0432,0.03043,0.02408,-0.0513
16.9,2.0481,0.03077,0.02446,-0.0511
17,2.0527,0.03114,0.02487,-0.0509
17.1,2.0572,0.03153,0.02529,-0.0507
17.2,2.0616,0.03193,0.02572,-0.0506
17.3,2.066,0.03234,0.02617,-0.0505
17.4,2.0703,0.03277,0.02663,-0.0504
17.5,2.0745,0.03322,0.02711,-0.0504
17.6,2.0787,0.03368,0.0276,-0.0505
17.7,2.0828,0.03416,0.02811,-0.0506
17.8,2.0868,0.03466,0.02864,-0.0507
17.9,2.0908,0.03519,0.0292,-0.0509
18,2.0946,0.03574,0.02977,-0.0512
18.1,2.0989,0.03625,0.03033,-0.0516
18.2,2.1037,0.03673,0.03085,-0.0519
18.3,2.1084,0.03723,0.03139,-0.0523
18.4,2.1131,0.03774,0.03194,-0.0528
18.5,2.1178,0.03827,0.03251,-0.0533
18.6,2.1224,0.03882,0.0331,-0.0539
18.7,2.127,0.03939,0.03371,-0.0545
18.8,2.1315,0.03999,0.03434,-0.0553
18.9,2.136,0.04061,0.03499,-0.0561
19,2.1404,0.04125,0.03569,-0.057
19.1,2.1446,0.04194,0.0364,-0.058
19.2,2.1488,0.04265,0.03715,-0.0591
19.3,2.1528,0.04342,0.03795,-0.0603
19.4,2.1572,0.04413,0.03872,-0.0615
19.5,2.162,0.04482,0.03945,-0.0626
19.6,2.1667,0.04553,0.04022,-0.0639
19.7,2.1713,0.04629,0.04102,-0.0652
19.8,2.1757,0.04708,0.04186,-0.0667
19.9,2.1799,0.04792,0.04274,-0.0682
20,2.1839,0.0488,0.04367,-0.0699
20.1,2.1877,0.04975,0.04466,-0.0716
20.2,2.1911,0.05078,0.04574,-0.0735
20.3,2.1941,0.05188,0.04689,-0.0756
20.4,2.1957,0.05327,0.04834,-0.0782
20.5,2.1989,0.05436,0.04949,-0.0802
20.6,2.2017,0.05552,0.05071,-0.0823
20.7,2.2042,0.05677,0.05202,-0.0846
20.8,2.2061,0.05812,0.05343,-0.087
20.9,2.2076,0.05959,0.05497,-0.0896
21,2.2084,0.06118,0.05663,-0.0924
21.1,2.2085,0.06293,0.05845,-0.0954
21.2,2.2079,0.06484,0.06045,-0.0986
21.3,2.2061,0.06704,0.06272,-0.1022
21.4,2.2032,0.06946,0.06523,-0.1061
21.5,2.1991,0.07217,0.06804,-0.1103
21.6,2.1944,0.07501,0.07099,-0.1146
21.7,2.1894,0.07795,0.07404,-0.119
21.8,2.1833,0.08113,0.07734,-0.1236
21.9,2.1762,0.08451,0.08084,-0.1284
22,2.1679,0.08819,0.08465,-0.1335
22.1,2.1592,0.09188,0.08845,-0.1386
22.2,2.1508,0.09537,0.09206,-0.1436
22.3,2.1424,0.09879,0.09558,-0.1486
22.4,2.135,0.1019,0.09878,-0.1532
22.5,2.1265,0.1053,0.10228,-0.1583
22.6,2.119,0.10844,0.1055,-0.163
22.7,2.1128,0.11129,0.10843,-0.1674
22.8,2.1055,0.1145,0.11172,-0.1722
22.9,2.1002,0.11723,0.11451,-0.1764
23,2.0931,0.12057,0.11793,-0.1812
23.2,2.0821,0.12662,0.1241,-0.1898
23.3,2.0742,0.13041,0.12795,-0.1949
23.4,2.0706,0.13315,0.13074,-0.1985
23.5,2.0665,0.13607,0.13371,-0.2022
23.6,2.0641,0.13853,0.13622,-0.2054
23.7,2.0609,0.14127,0.139,-0.2089
23.8,2.056,0.14461,0.14239,-0.2129
23.9,2.0528,0.14744,0.14525,-0.2164
24,2.051,0.14986,0.14772,-0.2194
24.1,2.0466,0.15317,0.15108,-0.2233
24.2,2.045,0.15559,0.15354,-0.2262
24.3,2.0431,0.15811,0.15608,-0.2292
24.4,2.0398,0.16117,0.15917,-0.2327
24.5,2.0361,0.16441,0.16246,-0.2364
24.6,2.034,0.16711,0.1652,-0.2396
24.7,2.0327,0.16955,0.16766,-0.2425
24.8,2.0292,0.17286,0.17102,-0.2461
24.9,2.0276,0.17548,0.17366,-0.2491
25,2.0261,0.1781,0.1763,-0.2521
25.1,2.0245,0.18076,0.17897,-0.2552
25.2,2.0213,0.18412,0.1824,-0.2588
25.3,2.0202,0.18664,0.18494,-0.2617
25.4,2.02,0.18885,0.18718,-0.2642
25.5,2.0195,0.19114,0.18948,-0.2668
25.6,2.0193,0.19335,0.19172,-0.2694
25.7,2.017,0.19656,0.19496,-0.2728
25.8,2.016,0.19921,0.19763,-0.2757
25.9,2.0158,0.20155,0.19998,-0.2784
26,2.0156,0.20386,0.20233,-0.281
26.1,2.016,0.20592,0.20441,-0.2834
26.2,2.0161,0.20812,0.20663,-0.2858
26.3,2.0153,0.2109,0.20944,-0.2888
26.4,2.0157,0.21298,0.21154,-0.2912
26.5,2.0165,0.21491,0.2135,-0.2934
26.6,2.0173,0.21681,0.2154,-0.2957
26.7,2.0182,0.21872,0.21733,-0.2979
26.8,2.019,0.22062,0.21924,-0.3001
26.9,2.0199,0.22252,0.22116,-0.3023
27,2.0202,0.22478,0.22344,-0.3049
27.1,2.0204,0.22715,0.22584,-0.3075
27.2,2.0211,0.22919,0.22789,-0.3098
27.3,2.0222,0.23099,0.22971,-0.312
27.4,2.0233,0.2328,0.23152,-0.3141
27.5,2.0246,0.23452,0.23325,-0.3162
27.6,2.0258,0.23626,0.23499,-0.3183
27.7,2.027,0.23798,0.23672,-0.3204
27.8,2.0284,0.23963,0.23837,-0.3225
27.9,2.0298,0.24124,0.23999,-0.3245
28,2.0312,0.24281,0.24156,-0.3264
28.1,2.0328,0.24426,0.24302,-0.3283
28.2,2.0342,0.24584,0.2446,-0.3303
28.3,2.0352,0.24773,0.24652,-0.3325
28.4,2.0364,0.24956,0.24837,-0.3347
28.5,2.0377,0.25123,0.25006,-0.3367
28.6,2.0391,0.25282,0.25168,-0.3387
28.7,2.0405,0.25438,0.25325,-0.3407
28.8,2.042,0.25588,0.25476,-0.3426
28.9,2.0435,0.2574,0.2563,-0.3445
29,2.0449,0.25892,0.25783,-0.3465
29.1,2.0464,0.26042,0.25934,-0.3484
29.2,2.0478,0.2619,0.26083,-0.3503
29.3,2.0493,0.2634,0.26235,-0.3522
29.4,2.0507,0.26493,0.2639,-0.3542
29.5,2.0521,0.26643,0.26541,-0.3562
29.6,2.0534,0.26799,0.26698,-0.3581
29.7,2.0547,0.26954,0.26854,-0.3601
29.8,2.0561,0.27105,0.27006,-0.3621
29.9,2.0567,0.27324,0.27226,-0.3646
30,2.0578,0.27499,0.27402,-0.3668

