airfoilName st8.dat
Re 	8.700000e+05
M 	0
N 	4.500000e+00
VACC 	0 VACCflag 1
XTR 	1.00 	1.00 XTRflag 0
alpha,cl,cd,cdp,cm
-14.9,-1.2582,0.03355,0.03028,-0.0558
-14.8,-1.2512,0.0324,0.02902,-0.0571
-14.7,-1.2441,0.03145,0.02798,-0.0579
-14.6,-1.2367,0.03062,0.02707,-0.0585
-14.5,-1.229,0.02987,0.02625,-0.059
-14.4,-1.2211,0.02919,0.0255,-0.0594
-14.3,-1.213,0.02855,0.02479,-0.0597
-14.2,-1.2047,0.02795,0.02413,-0.06
-14.1,-1.1962,0.02739,0.0235,-0.0602
-14,-1.1876,0.02684,0.0229,-0.0604
-13.9,-1.1788,0.02633,0.02233,-0.0606
-13.8,-1.1698,0.02584,0.02179,-0.0607
-13.7,-1.1607,0.02537,0.02126,-0.0608
-13.6,-1.1514,0.02492,0.02075,-0.0609
-13.5,-1.1421,0.02448,0.02026,-0.061
-13.4,-1.1326,0.02406,0.01979,-0.0611
-13.3,-1.1229,0.02366,0.01933,-0.0612
-13.2,-1.1132,0.02327,0.01889,-0.0613
-13.1,-1.1034,0.02289,0.01847,-0.0614
-13,-1.0935,0.02253,0.01806,-0.0614
-12.9,-1.0835,0.02218,0.01766,-0.0615
-12.8,-1.0734,0.02184,0.01727,-0.0615
-12.7,-1.0632,0.0215,0.0169,-0.0616
-12.6,-1.053,0.02119,0.01654,-0.0617
-12.5,-1.0427,0.02087,0.01618,-0.0617
-12.4,-1.0322,0.02058,0.01584,-0.0617
-12.3,-1.0218,0.0203,0.01552,-0.0618
-12.2,-1.0112,0.02002,0.0152,-0.0618
-12.1,-1.0006,0.01975,0.01489,-0.0619
-12,-0.99,0.0195,0.0146,-0.0619
-11.9,-0.9792,0.01925,0.01432,-0.062
-11.8,-0.9685,0.01901,0.01405,-0.062
-11.7,-0.9576,0.01879,0.01379,-0.062
-11.6,-0.9467,0.01859,0.01356,-0.0621
-11.5,-0.9358,0.01838,0.01333,-0.0621
-11.4,-0.9251,0.01807,0.01299,-0.0622
-11.3,-0.9146,0.01767,0.01254,-0.0623
-11.2,-0.9039,0.01735,0.01218,-0.0623
-11.1,-0.893,0.01704,0.01185,-0.0624
-11,-0.8821,0.01677,0.01154,-0.0624
-10.9,-0.8711,0.01652,0.01127,-0.0625
-10.8,-0.8601,0.01629,0.011,-0.0625
-10.7,-0.849,0.01606,0.01075,-0.0626
-10.6,-0.8379,0.01586,0.01052,-0.0626
-10.5,-0.8256,0.01565,0.0103,-0.0629
-10.4,-0.8125,0.01545,0.01007,-0.0634
-10.3,-0.8003,0.01526,0.00986,-0.0636
-10.2,-0.788,0.01507,0.00966,-0.0639
-10.1,-0.775,0.01489,0.00945,-0.0643
-10,-0.7628,0.01471,0.00926,-0.0645
-9.9,-0.7504,0.01454,0.00907,-0.0648
-9.8,-0.7382,0.01438,0.00889,-0.065
-9.7,-0.7259,0.01422,0.00871,-0.0653
-9.6,-0.7139,0.01407,0.00853,-0.0654
-9.5,-0.702,0.01392,0.00836,-0.0656
-9.4,-0.6902,0.01377,0.00819,-0.0657
-9.3,-0.6784,0.01364,0.00803,-0.0658
-9.2,-0.6669,0.0135,0.00787,-0.0658
-9.1,-0.6553,0.01336,0.00771,-0.0658
-9,-0.6438,0.01323,0.00756,-0.0659
-8.9,-0.6328,0.01312,0.00741,-0.0658
-8.8,-0.6213,0.01299,0.00727,-0.0658
-8.7,-0.6099,0.01288,0.00713,-0.0658
-8.6,-0.5989,0.01278,0.007,-0.0657
-8.5,-0.5876,0.01268,0.00687,-0.0656
-8.4,-0.5761,0.01257,0.00676,-0.0656
-8.3,-0.5647,0.01241,0.00656,-0.0656
-8.2,-0.5537,0.01228,0.0064,-0.0655
-8.1,-0.5424,0.01215,0.00626,-0.0655
-8,-0.5309,0.01204,0.00613,-0.0655
-7.9,-0.5193,0.01193,0.00601,-0.0655
-7.8,-0.5081,0.01183,0.00589,-0.0655
-7.7,-0.4966,0.01173,0.00578,-0.0654
-7.6,-0.4851,0.01164,0.00567,-0.0655
-7.5,-0.4734,0.01154,0.00556,-0.0655
-7.4,-0.4621,0.01146,0.00545,-0.0654
-7.3,-0.4505,0.01137,0.00534,-0.0655
-7.2,-0.4389,0.01128,0.00523,-0.0655
-7.1,-0.4272,0.0112,0.00512,-0.0655
-7,-0.4154,0.01111,0.00502,-0.0656
-6.9,-0.404,0.01105,0.00492,-0.0655
-6.8,-0.3924,0.01098,0.00483,-0.0655
-6.7,-0.3806,0.01088,0.00472,-0.0656
-6.6,-0.3688,0.01078,0.00462,-0.0656
-6.5,-0.3571,0.0107,0.00452,-0.0657
-6.4,-0.3456,0.01063,0.00443,-0.0657
-6.3,-0.3338,0.01055,0.00434,-0.0657
-6.2,-0.322,0.01048,0.00426,-0.0658
-6.1,-0.3102,0.01041,0.00418,-0.0658
-6,-0.2985,0.01035,0.00409,-0.0659
-5.9,-0.2868,0.01029,0.00401,-0.0659
-5.8,-0.275,0.01024,0.00393,-0.0659
-5.7,-0.2632,0.01019,0.00386,-0.066
-5.6,-0.2514,0.0101,0.00379,-0.0661
-5.5,-0.2395,0.01003,0.00371,-0.0661
-5.4,-0.2276,0.00997,0.00364,-0.0662
-5.3,-0.2158,0.00991,0.00357,-0.0663
-5.2,-0.2041,0.00987,0.0035,-0.0663
-5.1,-0.1922,0.00982,0.00343,-0.0664
-5,-0.1803,0.00978,0.00337,-0.0664
-4.9,-0.1684,0.00973,0.0033,-0.0665
-4.8,-0.1565,0.00966,0.00323,-0.0666
-4.7,-0.1446,0.0096,0.00317,-0.0667
-4.6,-0.1329,0.00957,0.00311,-0.0667
-4.5,-0.1209,0.00952,0.00305,-0.0668
-4.4,-0.109,0.00948,0.003,-0.0669
-4.3,-0.0971,0.00944,0.00295,-0.0669
-4.2,-0.0852,0.00939,0.00289,-0.067
-4.1,-0.0735,0.00936,0.00284,-0.0671
-4,-0.0619,0.00935,0.00279,-0.0671
-3.9,-0.05,0.00932,0.00274,-0.0672
-3.8,-0.0382,0.00931,0.0027,-0.0672
-3.7,-0.0265,0.0093,0.00265,-0.0673
-3.6,-0.0146,0.00926,0.0026,-0.0674
-3.5,-0.0026,0.00923,0.00256,-0.0674
-3.4,0.0091,0.00923,0.00253,-0.0675
-3.3,0.021,0.00921,0.00249,-0.0676
-3.2,0.0329,0.00918,0.00245,-0.0677
-3.1,0.0446,0.00918,0.00241,-0.0677
-3,0.0566,0.00914,0.00238,-0.0678
-2.9,0.0682,0.00917,0.00236,-0.0679
-2.8,0.0801,0.00915,0.00232,-0.068
-2.7,0.092,0.00913,0.00229,-0.0681
-2.6,0.1037,0.00915,0.00227,-0.0681
-2.5,0.1156,0.00914,0.00224,-0.0682
-2.4,0.1275,0.00912,0.00222,-0.0683
-2.3,0.1394,0.0091,0.0022,-0.0684
-2.2,0.1511,0.00911,0.00218,-0.0685
-2.1,0.1629,0.00912,0.00216,-0.0686
-2,0.1748,0.00911,0.00215,-0.0687
-1.9,0.1867,0.00908,0.00213,-0.0688
-1.8,0.1986,0.00906,0.00211,-0.069
-1.7,0.2105,0.00904,0.0021,-0.0691
-1.6,0.2221,0.0091,0.0021,-0.0691
-1.4,0.2457,0.0091,0.00209,-0.0694
-1.3,0.2576,0.00909,0.00207,-0.0695
-1.2,0.2695,0.00906,0.00207,-0.0696
-1.1,0.2814,0.00905,0.00206,-0.0697
-1,0.2932,0.00905,0.00206,-0.0698
-0.9,0.3051,0.00902,0.00206,-0.07
-0.8,0.3167,0.00907,0.00207,-0.0701
-0.7,0.3286,0.00906,0.00206,-0.0702
-0.6,0.3404,0.00908,0.00207,-0.0703
-0.5,0.3523,0.00907,0.00207,-0.0704
-0.4,0.3641,0.00905,0.00208,-0.0706
-0.3,0.3759,0.00907,0.00208,-0.0707
-0.2,0.3878,0.00908,0.00209,-0.0708
0,0.4114,0.00907,0.0021,-0.071
0.1,0.4229,0.00915,0.00213,-0.0711
0.2,0.4346,0.00913,0.00214,-0.0713
0.3,0.4464,0.00915,0.00216,-0.0714
0.4,0.4581,0.00917,0.00218,-0.0715
0.5,0.4699,0.00919,0.00219,-0.0716
0.6,0.4816,0.00918,0.00221,-0.0718
0.7,0.4933,0.0092,0.00224,-0.0719
0.8,0.5049,0.00923,0.00226,-0.072
0.9,0.5162,0.00929,0.00231,-0.0721
1,0.5278,0.00933,0.00234,-0.0722
1.1,0.5394,0.00937,0.00238,-0.0724
1.2,0.5509,0.00935,0.00241,-0.0725
1.3,0.5625,0.00938,0.00245,-0.0726
1.4,0.574,0.00941,0.00249,-0.0728
1.5,0.5856,0.00943,0.00252,-0.0729
1.7,0.6083,0.00923,0.0026,-0.0731
1.8,0.619,0.00916,0.00267,-0.0731
1.9,0.63,0.00913,0.00271,-0.073
2,0.6401,0.00907,0.00275,-0.0727
2.1,0.647,0.00893,0.00278,-0.0715
2.2,0.6563,0.00891,0.00279,-0.071
2.3,0.6664,0.00889,0.00278,-0.0706
2.4,0.6792,0.0089,0.00277,-0.0709
2.5,0.6912,0.00895,0.00279,-0.0711
2.6,0.7029,0.00902,0.00284,-0.0712
2.7,0.7147,0.00907,0.00287,-0.0713
2.8,0.7264,0.00913,0.00291,-0.0714
2.9,0.738,0.00923,0.00296,-0.0715
3,0.7496,0.0093,0.00301,-0.0716
3.1,0.7613,0.00936,0.00305,-0.0717
3.2,0.7731,0.00941,0.00309,-0.0718
3.3,0.7847,0.00947,0.00313,-0.0718
3.4,0.7964,0.00954,0.00318,-0.0719
3.5,0.808,0.00961,0.00322,-0.072
3.6,0.8196,0.00968,0.00327,-0.0721
3.7,0.8313,0.00974,0.00332,-0.0722
3.8,0.8429,0.0098,0.00337,-0.0723
3.9,0.8545,0.00988,0.00342,-0.0724
4,0.8661,0.00994,0.00346,-0.0725
4.1,0.8777,0.01002,0.00351,-0.0726
4.2,0.8892,0.01009,0.00357,-0.0726
4.3,0.9008,0.01016,0.00362,-0.0727
4.4,0.9124,0.01022,0.00367,-0.0728
4.5,0.924,0.01028,0.00373,-0.0729
4.6,0.9356,0.01034,0.00378,-0.073
4.7,0.9471,0.01041,0.00383,-0.0731
4.8,0.9586,0.01048,0.00388,-0.0731
4.9,0.9701,0.01056,0.00394,-0.0732
5,0.9815,0.01065,0.00401,-0.0733
5.1,0.993,0.01071,0.00406,-0.0734
5.2,1.0045,0.01078,0.00412,-0.0735
5.3,1.016,0.01085,0.00418,-0.0735
5.4,1.0274,0.01092,0.00424,-0.0736
5.5,1.0388,0.011,0.0043,-0.0737
5.6,1.0502,0.01108,0.00437,-0.0737
5.7,1.0615,0.01117,0.00443,-0.0738
5.8,1.073,0.01123,0.0045,-0.0739
5.9,1.0844,0.0113,0.00456,-0.074
6,1.0958,0.01138,0.00463,-0.074
6.1,1.1071,0.01146,0.0047,-0.0741
6.2,1.1184,0.01154,0.00476,-0.0742
6.3,1.1297,0.01162,0.00483,-0.0742
6.4,1.141,0.01171,0.00491,-0.0743
6.5,1.1522,0.0118,0.00499,-0.0743
6.6,1.1636,0.01187,0.00505,-0.0744
6.7,1.1749,0.01194,0.00512,-0.0745
6.8,1.1862,0.01202,0.00519,-0.0745
6.9,1.1974,0.0121,0.00527,-0.0746
7,1.2086,0.01218,0.00535,-0.0746
7.1,1.2196,0.01229,0.00543,-0.0747
7.2,1.2307,0.01239,0.00551,-0.0747
7.3,1.2418,0.01249,0.0056,-0.0748
7.4,1.2531,0.01256,0.00568,-0.0748
7.5,1.2642,0.01264,0.00575,-0.0749
7.6,1.2754,0.01272,0.00583,-0.0749
7.7,1.2865,0.0128,0.00591,-0.075
7.8,1.2976,0.01289,0.006,-0.075
7.9,1.3086,0.01298,0.00609,-0.075
8,1.3196,0.01308,0.00618,-0.0751
8.1,1.3306,0.01318,0.00627,-0.0751
8.2,1.3415,0.01329,0.00636,-0.0751
8.3,1.3524,0.01339,0.00646,-0.0752
8.4,1.3634,0.01348,0.00655,-0.0752
8.5,1.3743,0.01357,0.00664,-0.0752
8.6,1.3853,0.01366,0.00673,-0.0752
8.7,1.3962,0.01376,0.00682,-0.0753
8.8,1.407,0.01386,0.00692,-0.0753
8.9,1.4178,0.01397,0.00702,-0.0753
9,1.4285,0.01408,0.00712,-0.0753
9.1,1.4392,0.01419,0.00723,-0.0753
9.2,1.4499,0.01431,0.00735,-0.0753
9.3,1.4607,0.0144,0.00744,-0.0753
9.4,1.4715,0.01449,0.00754,-0.0753
9.5,1.4822,0.0146,0.00764,-0.0753
9.6,1.4928,0.01471,0.00775,-0.0753
9.7,1.5035,0.01482,0.00786,-0.0753
9.8,1.514,0.01493,0.00797,-0.0753
9.9,1.5245,0.01505,0.00809,-0.0753
10,1.535,0.01517,0.00821,-0.0753
10.1,1.5454,0.0153,0.00833,-0.0752
10.2,1.5558,0.01543,0.00846,-0.0752
10.3,1.5664,0.01552,0.00856,-0.0752
10.4,1.5769,0.01563,0.00868,-0.0752
10.5,1.5874,0.01574,0.00879,-0.0751
10.6,1.5978,0.01585,0.00891,-0.0751
10.7,1.6081,0.01597,0.00903,-0.0751
10.8,1.6182,0.01611,0.00916,-0.075
10.9,1.6284,0.01624,0.00929,-0.075
11,1.6385,0.01638,0.00943,-0.0749
11.1,1.6485,0.01652,0.00957,-0.0748
11.2,1.6585,0.01667,0.00971,-0.0747
11.3,1.6687,0.01678,0.00984,-0.0747
11.4,1.6789,0.0169,0.00997,-0.0746
11.5,1.689,0.01702,0.0101,-0.0746
11.6,1.6991,0.01714,0.01023,-0.0745
11.7,1.709,0.01727,0.01037,-0.0744
11.8,1.7189,0.0174,0.0105,-0.0743
11.9,1.7285,0.01757,0.01066,-0.0742
12,1.7382,0.01772,0.0108,-0.0741
12.1,1.7478,0.01787,0.01097,-0.074
12.2,1.7574,0.01803,0.01113,-0.0738
12.3,1.7668,0.0182,0.01129,-0.0737
12.4,1.7766,0.01833,0.01144,-0.0736
12.5,1.7862,0.01846,0.01159,-0.0735
12.6,1.7958,0.01859,0.01174,-0.0733
12.7,1.8052,0.01875,0.01189,-0.0732
12.8,1.8145,0.0189,0.01205,-0.073
12.9,1.8238,0.01905,0.01221,-0.0729
13,1.833,0.01922,0.01238,-0.0727
13.1,1.842,0.01938,0.01255,-0.0725
13.2,1.851,0.01956,0.01273,-0.0723
13.3,1.8598,0.01974,0.01292,-0.0721
13.4,1.8685,0.01993,0.01311,-0.0718
13.5,1.8772,0.0201,0.01329,-0.0716
13.6,1.8861,0.02026,0.01347,-0.0714
13.7,1.8948,0.02043,0.01364,-0.0712
13.8,1.9034,0.0206,0.01382,-0.0709
13.9,1.9119,0.02077,0.01401,-0.0707
14,1.9202,0.02095,0.0142,-0.0704
14.1,1.9284,0.02114,0.0144,-0.0701
14.2,1.9363,0.02134,0.0146,-0.0697
14.3,1.9441,0.02155,0.01481,-0.0694
14.4,1.9517,0.02176,0.01503,-0.069
14.5,1.9591,0.02197,0.01525,-0.0686
14.6,1.967,0.02214,0.01545,-0.0682
14.7,1.9747,0.02231,0.01565,-0.0678
14.8,1.9821,0.0225,0.01585,-0.0674
14.9,1.9891,0.0227,0.01607,-0.067
15,1.9961,0.0229,0.01629,-0.0665
15.1,2.0028,0.02311,0.01651,-0.066
15.2,2.0094,0.02332,0.01674,-0.0654
15.3,2.0156,0.02354,0.01698,-0.0649
15.4,2.0215,0.02377,0.01722,-0.0643
15.5,2.0266,0.02401,0.01747,-0.0635
15.6,2.0306,0.02426,0.01774,-0.0626
15.8,2.0377,0.02483,0.01834,-0.0607
15.9,2.0422,0.02507,0.01861,-0.0599
16,2.0463,0.02535,0.0189,-0.0591
16.1,2.0507,0.02562,0.01919,-0.0584
16.2,2.0551,0.0259,0.0195,-0.0577
16.3,2.0595,0.02619,0.01981,-0.057
16.4,2.0639,0.02649,0.02013,-0.0564
16.5,2.0681,0.0268,0.02047,-0.0558
16.6,2.0722,0.02713,0.02082,-0.0552
16.7,2.0762,0.02748,0.02118,-0.0546
16.8,2.08,0.02784,0.02157,-0.0541
16.9,2.0838,0.02821,0.02197,-0.0536
17,2.0876,0.0286,0.02237,-0.0532
17.1,2.0921,0.02894,0.02276,-0.0528
17.2,2.0967,0.02928,0.02313,-0.0525
17.3,2.1012,0.02963,0.02351,-0.0522
17.4,2.105,0.03004,0.02394,-0.0519
17.5,2.1092,0.03043,0.02436,-0.0516
17.6,2.1133,0.03084,0.02479,-0.0514
17.7,2.1173,0.03125,0.02523,-0.0513
17.8,2.1213,0.03169,0.0257,-0.0512
17.9,2.1251,0.03215,0.02618,-0.0511
18,2.1289,0.03263,0.02668,-0.0511
18.1,2.1326,0.03313,0.02721,-0.0511
18.2,2.1363,0.03364,0.02775,-0.0512
18.3,2.1401,0.03416,0.02831,-0.0514
18.4,2.1446,0.03462,0.0288,-0.0516
18.5,2.1492,0.03509,0.02931,-0.0519
18.6,2.1536,0.03559,0.02984,-0.0522
18.7,2.158,0.0361,0.03038,-0.0525
18.8,2.1624,0.03662,0.03095,-0.053
18.9,2.1656,0.03728,0.03162,-0.0535
19,2.1697,0.03787,0.03224,-0.0541
19.1,2.1736,0.0385,0.03289,-0.0548
19.2,2.1775,0.03915,0.03357,-0.0556
19.3,2.1811,0.03984,0.0343,-0.0565
19.4,2.1853,0.0405,0.03501,-0.0574
19.5,2.1899,0.04112,0.03567,-0.0583
19.6,2.1944,0.04177,0.03635,-0.0592
19.7,2.1989,0.04245,0.03707,-0.0603
19.8,2.2032,0.04316,0.03782,-0.0614
19.9,2.2074,0.0439,0.03859,-0.0627
20,2.2114,0.04471,0.03944,-0.0641
20.1,2.2152,0.04555,0.04032,-0.0655
20.2,2.2186,0.04649,0.04129,-0.0672
20.3,2.2183,0.04805,0.04287,-0.07
20.4,2.2216,0.04904,0.04391,-0.0719
20.5,2.2246,0.05013,0.04504,-0.0739
20.6,2.2271,0.05131,0.04627,-0.076
20.7,2.2286,0.05268,0.04769,-0.0786
20.8,2.23,0.0541,0.04918,-0.0812
20.9,2.2315,0.05552,0.05066,-0.0837
21,2.2327,0.05701,0.05221,-0.0864
21.1,2.2332,0.05864,0.0539,-0.0893
21.2,2.2329,0.06046,0.05579,-0.0924
21.3,2.231,0.06261,0.05801,-0.0961
21.4,2.2285,0.06492,0.0604,-0.0999
21.5,2.2246,0.06756,0.06316,-0.1041
21.6,2.2203,0.07029,0.06599,-0.1084
21.7,2.2147,0.07336,0.06916,-0.1131
21.8,2.2078,0.07673,0.07264,-0.118
21.9,2.1986,0.08066,0.07671,-0.1236
22,2.1885,0.08483,0.08102,-0.1293
22.1,2.1763,0.08946,0.08581,-0.1355
22.2,2.1652,0.09369,0.09017,-0.1413
22.3,2.1511,0.09852,0.09514,-0.1479
22.4,2.1401,0.10252,0.09927,-0.1537
22.5,2.1297,0.1063,0.10316,-0.1592
22.6,2.1185,0.11032,0.10729,-0.1652
22.7,2.1078,0.11424,0.11131,-0.171
22.8,2.1011,0.11726,0.11441,-0.1757
22.9,2.0917,0.1211,0.11835,-0.1812
23,2.084,0.12464,0.12196,-0.1863
23.1,2.0777,0.12794,0.12533,-0.1908
23.2,2.0717,0.13124,0.12872,-0.1953
23.3,2.0655,0.1347,0.13224,-0.1997
23.4,2.062,0.13744,0.13502,-0.2033
23.5,2.0561,0.14101,0.13865,-0.2077
23.6,2.0529,0.14376,0.14145,-0.2111
23.7,2.0503,0.14637,0.14409,-0.2144
23.8,2.0446,0.15008,0.14786,-0.2188
23.9,2.0411,0.15306,0.15089,-0.2224
24,2.0393,0.15553,0.15339,-0.2254
24.1,2.0349,0.15893,0.15685,-0.2293
24.2,2.0327,0.16165,0.1596,-0.2324
24.3,2.0312,0.16409,0.16206,-0.2353
24.4,2.03,0.16649,0.16448,-0.2382
24.5,2.0262,0.16988,0.16793,-0.2419
24.6,2.0239,0.17275,0.17085,-0.2452
24.7,2.0236,0.17487,0.173,-0.2477
24.8,2.0234,0.177,0.17515,-0.2502
24.9,2.0232,0.17912,0.1773,-0.2527
25,2.0201,0.18248,0.18071,-0.2563
25.1,2.0197,0.1847,0.18296,-0.2588
25.2,2.0199,0.1867,0.18498,-0.2612
25.3,2.0203,0.18866,0.18696,-0.2635
25.4,2.0205,0.19068,0.189,-0.2658
25.5,2.02,0.19298,0.19133,-0.2684
25.6,2.018,0.19606,0.19446,-0.2717
25.7,2.018,0.19823,0.19666,-0.2742
25.8,2.0184,0.20024,0.19868,-0.2765
25.9,2.0189,0.20216,0.20062,-0.2788
26,2.0193,0.20419,0.20267,-0.2811
26.1,2.0195,0.20636,0.20485,-0.2836
26.2,2.0178,0.20951,0.20805,-0.2869
26.3,2.0178,0.21179,0.21036,-0.2894
26.4,2.0185,0.21375,0.21233,-0.2917
26.5,2.0193,0.21567,0.21426,-0.294
26.6,2.0201,0.21757,0.21618,-0.2962
26.7,2.0212,0.21931,0.21794,-0.2983
26.8,2.0224,0.22102,0.21967,-0.3003
26.9,2.0235,0.22279,0.22145,-0.3024
27,2.0233,0.2253,0.224,-0.3051
27.1,2.0241,0.22727,0.22599,-0.3074
27.2,2.0253,0.22902,0.22775,-0.3094
27.3,2.0267,0.23065,0.2294,-0.3114
27.4,2.028,0.23226,0.23102,-0.3134
27.5,2.0295,0.23383,0.2326,-0.3153
27.6,2.0309,0.23542,0.23421,-0.3173
27.7,2.0322,0.23703,0.23584,-0.3193
27.8,2.0336,0.23864,0.23746,-0.3212
27.9,2.035,0.24024,0.23907,-0.3232
28,2.0362,0.24192,0.24076,-0.3253
28.1,2.0375,0.24362,0.24248,-0.3273
28.2,2.0381,0.24575,0.24463,-0.3298
28.3,2.0389,0.24779,0.2467,-0.3321
28.4,2.0401,0.24954,0.24846,-0.3342
28.5,2.0414,0.25117,0.25011,-0.3363
28.6,2.0428,0.25275,0.25169,-0.3382
28.7,2.0442,0.2543,0.25325,-0.3402
28.8,2.0457,0.25579,0.25475,-0.3421
29,2.0481,0.25918,0.25815,-0.3463
29.1,2.0496,0.26065,0.25962,-0.3483
29.2,2.051,0.26214,0.26111,-0.3502
29.3,2.0525,0.26361,0.2626,-0.3521
29.4,2.0539,0.26507,0.26405,-0.354
29.5,2.0554,0.26644,0.26543,-0.3559
29.6,2.0569,0.26779,0.26679,-0.3578
29.7,2.0585,0.26908,0.26807,-0.3596
29.8,2.0602,0.2703,0.2693,-0.3613
29.9,2.0618,0.27144,0.27043,-0.363
30,2.0636,0.27253,0.27152,-0.3647

