airfoilName st8.dat
Re 	790000
M 	0
N 	4.500000e+00
VACC 	0 VACCflag 1
XTR 	1.00 	1.00 XTRflag 0
alpha,cl,cd,cdp,cm
-14.6,-1.2268,0.03345,0.03009,-0.0559
-14.5,-1.2196,0.03234,0.02888,-0.0571
-14.4,-1.2123,0.03141,0.02786,-0.0579
-14.3,-1.2047,0.03059,0.02695,-0.0585
-14.2,-1.197,0.02984,0.02612,-0.059
-14.1,-1.1889,0.02916,0.02537,-0.0594
-14,-1.1807,0.02851,0.02465,-0.0597
-13.9,-1.1723,0.02791,0.02398,-0.06
-13.8,-1.1637,0.02735,0.02335,-0.0602
-13.7,-1.155,0.0268,0.02275,-0.0604
-13.6,-1.146,0.02629,0.02218,-0.0606
-13.5,-1.137,0.0258,0.02162,-0.0607
-13.4,-1.1277,0.02533,0.02109,-0.0608
-13.3,-1.1184,0.02489,0.02059,-0.061
-13.2,-1.1089,0.02446,0.0201,-0.0611
-13.1,-1.0993,0.02404,0.01964,-0.0612
-13,-1.0896,0.02365,0.01919,-0.0612
-12.9,-1.0797,0.02327,0.01876,-0.0613
-12.8,-1.0698,0.02291,0.01835,-0.0614
-12.7,-1.0598,0.02256,0.01795,-0.0614
-12.6,-1.0497,0.02223,0.01757,-0.0615
-12.5,-1.0395,0.02189,0.01719,-0.0616
-12.4,-1.0292,0.02159,0.01685,-0.0616
-12.3,-1.0187,0.02131,0.01652,-0.0617
-12.2,-1.0083,0.02103,0.0162,-0.0617
-12.1,-0.9978,0.02076,0.01589,-0.0618
-12,-0.9871,0.02052,0.0156,-0.0618
-11.9,-0.9765,0.02028,0.01533,-0.0618
-11.8,-0.9662,0.01988,0.0149,-0.0619
-11.7,-0.9561,0.01941,0.01438,-0.062
-11.6,-0.9458,0.01901,0.01392,-0.0621
-11.5,-0.9353,0.01865,0.01353,-0.0621
-11.4,-0.9246,0.01834,0.01319,-0.0622
-11.3,-0.9139,0.01804,0.01286,-0.0623
-11.2,-0.9031,0.01778,0.01256,-0.0623
-11.1,-0.8922,0.01752,0.01227,-0.0624
-11,-0.8813,0.01728,0.01201,-0.0624
-10.9,-0.8703,0.01705,0.01175,-0.0625
-10.8,-0.8593,0.01683,0.0115,-0.0625
-10.7,-0.8482,0.01661,0.01126,-0.0625
-10.6,-0.8371,0.0164,0.01103,-0.0626
-10.5,-0.826,0.0162,0.01081,-0.0626
-10.4,-0.8149,0.016,0.01059,-0.0627
-10.3,-0.8028,0.01581,0.01037,-0.0629
-10.2,-0.7897,0.01561,0.01014,-0.0634
-10.1,-0.7773,0.01542,0.00994,-0.0637
-10,-0.7645,0.01523,0.00973,-0.064
-9.9,-0.752,0.01505,0.00952,-0.0643
-9.8,-0.7395,0.01487,0.00932,-0.0646
-9.7,-0.7271,0.01469,0.00912,-0.0649
-9.6,-0.7149,0.01453,0.00893,-0.0651
-9.5,-0.7021,0.01436,0.00873,-0.0655
-9.4,-0.6901,0.0142,0.00855,-0.0656
-9.3,-0.6782,0.01405,0.00837,-0.0658
-9.2,-0.6663,0.0139,0.00819,-0.0659
-9.1,-0.6542,0.01376,0.00803,-0.0661
-9,-0.6425,0.01362,0.00787,-0.0661
-8.9,-0.6309,0.01349,0.00771,-0.0662
-8.8,-0.6194,0.01338,0.00757,-0.0662
-8.7,-0.6079,0.01327,0.00743,-0.0662
-8.6,-0.5965,0.01312,0.00728,-0.0662
-8.5,-0.5851,0.01294,0.00708,-0.0662
-8.4,-0.574,0.0128,0.00691,-0.0662
-8.3,-0.5626,0.01266,0.00675,-0.0661
-8.2,-0.5514,0.01254,0.00661,-0.0661
-8.1,-0.5401,0.01243,0.00648,-0.066
-8,-0.5287,0.01231,0.00635,-0.066
-7.9,-0.5173,0.01221,0.00623,-0.066
-7.8,-0.506,0.01211,0.00611,-0.066
-7.7,-0.4947,0.01201,0.00599,-0.0659
-7.6,-0.4831,0.0119,0.00587,-0.0659
-7.5,-0.4716,0.01181,0.00575,-0.0659
-7.4,-0.4602,0.01172,0.00564,-0.0659
-7.3,-0.4488,0.01163,0.00553,-0.0659
-7.2,-0.4372,0.01154,0.00541,-0.0659
-7.1,-0.4256,0.01146,0.0053,-0.0659
-7,-0.414,0.01138,0.0052,-0.0659
-6.9,-0.4024,0.01129,0.00509,-0.0659
-6.8,-0.3909,0.01118,0.00497,-0.0659
-6.7,-0.3792,0.01109,0.00486,-0.0659
-6.6,-0.3676,0.011,0.00476,-0.0659
-6.5,-0.3559,0.01092,0.00467,-0.066
-6.4,-0.3442,0.01083,0.00458,-0.066
-6.3,-0.3327,0.01077,0.00449,-0.066
-6.2,-0.321,0.0107,0.0044,-0.066
-6.1,-0.3092,0.01063,0.00431,-0.0661
-6,-0.2974,0.01056,0.00422,-0.0661
-5.8,-0.2739,0.01042,0.00407,-0.0662
-5.7,-0.2623,0.01035,0.00398,-0.0663
-5.6,-0.2504,0.01028,0.0039,-0.0663
-5.5,-0.2386,0.01022,0.00383,-0.0664
-5.4,-0.2269,0.01016,0.00375,-0.0664
-5.3,-0.215,0.0101,0.00368,-0.0665
-5.2,-0.2031,0.01004,0.00361,-0.0665
-5.1,-0.1915,0.01001,0.00354,-0.0665
-5,-0.1796,0.00995,0.00346,-0.0666
-4.9,-0.1677,0.00988,0.00339,-0.0667
-4.8,-0.1558,0.00982,0.00332,-0.0668
-4.7,-0.144,0.00977,0.00326,-0.0668
-4.6,-0.1321,0.00972,0.0032,-0.0669
-4.5,-0.1204,0.00969,0.00315,-0.0669
-4.4,-0.1085,0.00965,0.00309,-0.067
-4.3,-0.0966,0.00959,0.00302,-0.0671
-4.2,-0.0847,0.00953,0.00297,-0.0672
-4.1,-0.0728,0.00949,0.00291,-0.0673
-4,-0.0611,0.00947,0.00286,-0.0673
-3.9,-0.0494,0.00946,0.00281,-0.0673
-3.8,-0.0376,0.00943,0.00276,-0.0674
-3.7,-0.0259,0.00941,0.00271,-0.0674
-3.6,-0.0142,0.00939,0.00267,-0.0674
-3.5,-0.0023,0.00937,0.00263,-0.0675
-3.4,0.0097,0.00933,0.00259,-0.0676
-3.3,0.0213,0.00934,0.00254,-0.0676
-3.2,0.0332,0.0093,0.0025,-0.0677
-3.1,0.0451,0.00927,0.00247,-0.0678
-3,0.0569,0.00927,0.00243,-0.0679
-2.9,0.0687,0.00925,0.00239,-0.068
-2.8,0.0804,0.00926,0.00237,-0.068
-2.7,0.0923,0.00924,0.00234,-0.0681
-2.6,0.1041,0.00923,0.00231,-0.0682
-2.5,0.1158,0.00924,0.00228,-0.0683
-2.4,0.1277,0.00922,0.00226,-0.0684
-2.3,0.1396,0.00919,0.00223,-0.0685
-2.2,0.1515,0.00917,0.00221,-0.0686
-2.1,0.1631,0.0092,0.0022,-0.0686
-2,0.1749,0.00921,0.00218,-0.0687
-1.9,0.1868,0.00919,0.00216,-0.0688
-1.8,0.1986,0.00916,0.00215,-0.069
-1.7,0.2106,0.00915,0.00213,-0.0691
-1.6,0.2224,0.00913,0.00212,-0.0692
-1.5,0.2339,0.0092,0.00212,-0.0692
-1.4,0.2457,0.0092,0.00211,-0.0693
-1.3,0.2576,0.00917,0.00211,-0.0695
-1.2,0.2694,0.00916,0.0021,-0.0696
-1.1,0.2813,0.00915,0.00209,-0.0697
-1,0.2932,0.00915,0.00209,-0.0698
-0.9,0.305,0.00912,0.00209,-0.07
-0.8,0.3169,0.00912,0.00208,-0.0701
-0.7,0.3285,0.00916,0.00209,-0.0702
-0.6,0.3403,0.00917,0.0021,-0.0703
-0.5,0.3522,0.00914,0.0021,-0.0704
-0.4,0.3639,0.00915,0.0021,-0.0705
-0.3,0.3758,0.00916,0.00211,-0.0706
-0.2,0.3876,0.00917,0.00211,-0.0707
0,0.4112,0.00916,0.00213,-0.071
0.1,0.423,0.00918,0.00214,-0.0711
0.2,0.4345,0.00921,0.00217,-0.0712
0.3,0.4462,0.00922,0.00218,-0.0713
0.4,0.4579,0.00924,0.0022,-0.0715
0.5,0.4697,0.00925,0.00221,-0.0716
0.6,0.4814,0.00923,0.00223,-0.0717
0.7,0.4931,0.00925,0.00225,-0.0718
0.8,0.5047,0.00922,0.00228,-0.072
0.9,0.5163,0.00925,0.0023,-0.0721
1,0.5276,0.00934,0.00235,-0.0722
1.1,0.5391,0.0093,0.00238,-0.0724
1.2,0.5507,0.00932,0.00242,-0.0725
1.3,0.5622,0.00934,0.00246,-0.0726
1.4,0.5737,0.00936,0.0025,-0.0727
1.6,0.596,0.00921,0.00259,-0.0729
1.8,0.6166,0.00904,0.00268,-0.0725
1.9,0.6257,0.00899,0.00272,-0.0719
2,0.6346,0.00901,0.00276,-0.0713
2.1,0.642,0.00892,0.00273,-0.0702
2.2,0.6542,0.00896,0.00274,-0.0704
2.3,0.6669,0.00898,0.00274,-0.0707
2.4,0.6786,0.00904,0.00278,-0.0708
2.5,0.6904,0.00911,0.00282,-0.0709
2.6,0.702,0.00918,0.00286,-0.071
2.7,0.7136,0.00926,0.00291,-0.0711
2.8,0.7254,0.00932,0.00296,-0.0712
2.9,0.7371,0.00938,0.003,-0.0713
3,0.7486,0.00947,0.00304,-0.0713
3.1,0.7603,0.00954,0.00309,-0.0714
3.2,0.7719,0.00961,0.00314,-0.0715
3.3,0.7836,0.00967,0.00318,-0.0716
3.4,0.7953,0.00973,0.00323,-0.0717
3.5,0.8069,0.00979,0.00327,-0.0718
3.6,0.8185,0.00986,0.00332,-0.0719
3.7,0.8301,0.00993,0.00337,-0.072
3.8,0.8416,0.01002,0.00343,-0.072
3.9,0.8533,0.01007,0.00348,-0.0721
4,0.8648,0.01015,0.00353,-0.0722
4.1,0.8764,0.01021,0.00358,-0.0723
4.2,0.888,0.01028,0.00363,-0.0724
4.3,0.8995,0.01036,0.00368,-0.0725
4.4,0.911,0.01044,0.00375,-0.0725
4.5,0.9226,0.0105,0.0038,-0.0726
4.6,0.9341,0.01056,0.00385,-0.0727
4.7,0.9457,0.01063,0.00391,-0.0728
4.8,0.9572,0.0107,0.00396,-0.0729
4.9,0.9687,0.01077,0.00402,-0.0729
5,0.9801,0.01085,0.00408,-0.073
5.1,0.9914,0.01095,0.00415,-0.0731
5.2,1.0029,0.01101,0.00421,-0.0731
5.3,1.0144,0.01108,0.00427,-0.0732
5.4,1.0259,0.01115,0.00433,-0.0733
5.5,1.0373,0.01122,0.00439,-0.0734
5.6,1.0487,0.0113,0.00445,-0.0734
5.7,1.06,0.01138,0.00452,-0.0735
5.8,1.0713,0.01147,0.00459,-0.0736
5.9,1.0827,0.01156,0.00467,-0.0736
6,1.0941,0.01162,0.00473,-0.0737
6.1,1.1054,0.0117,0.0048,-0.0738
6.2,1.1167,0.01178,0.00487,-0.0738
6.3,1.128,0.01186,0.00494,-0.0739
6.4,1.1393,0.01194,0.00501,-0.0739
6.5,1.1505,0.01203,0.00508,-0.074
6.6,1.1617,0.01213,0.00516,-0.0741
6.7,1.1729,0.01221,0.00524,-0.0741
6.8,1.1842,0.01229,0.00532,-0.0742
6.9,1.1954,0.01236,0.00539,-0.0742
7,1.2067,0.01244,0.00547,-0.0743
7.1,1.2179,0.01252,0.00555,-0.0743
7.2,1.2289,0.01263,0.00563,-0.0744
7.3,1.2399,0.01273,0.00571,-0.0744
7.4,1.251,0.01283,0.0058,-0.0744
7.5,1.262,0.01293,0.0059,-0.0745
7.6,1.2732,0.01301,0.00598,-0.0745
7.7,1.2843,0.01309,0.00606,-0.0746
7.8,1.2954,0.01317,0.00614,-0.0746
7.9,1.3064,0.01326,0.00623,-0.0746
8,1.3174,0.01335,0.00632,-0.0747
8.1,1.3284,0.01345,0.00641,-0.0747
8.2,1.3393,0.01355,0.00651,-0.0747
8.3,1.3502,0.01366,0.0066,-0.0747
8.4,1.3609,0.01379,0.00671,-0.0748
8.5,1.3718,0.01388,0.0068,-0.0748
8.6,1.3828,0.01397,0.0069,-0.0748
8.7,1.3937,0.01406,0.00699,-0.0748
8.8,1.4045,0.01416,0.0071,-0.0748
8.9,1.4153,0.01426,0.00719,-0.0748
9,1.4261,0.01437,0.0073,-0.0749
9.1,1.4367,0.01448,0.0074,-0.0749
9.2,1.4474,0.0146,0.00751,-0.0749
9.3,1.458,0.01472,0.00763,-0.0748
9.4,1.4686,0.01483,0.00775,-0.0748
9.5,1.4793,0.01493,0.00785,-0.0748
9.6,1.49,0.01503,0.00795,-0.0748
9.7,1.5006,0.01514,0.00806,-0.0748
9.8,1.5112,0.01525,0.00818,-0.0748
9.9,1.5217,0.01536,0.00829,-0.0748
10,1.5321,0.01548,0.00841,-0.0748
10.1,1.5425,0.01561,0.00853,-0.0747
10.2,1.5528,0.01574,0.00866,-0.0747
10.3,1.5631,0.01588,0.00879,-0.0746
10.4,1.5735,0.016,0.00892,-0.0746
10.5,1.5839,0.0161,0.00903,-0.0746
10.6,1.5943,0.01621,0.00915,-0.0745
10.7,1.6047,0.01633,0.00927,-0.0745
10.8,1.615,0.01645,0.0094,-0.0745
10.9,1.625,0.01659,0.00954,-0.0744
11,1.6351,0.01672,0.00967,-0.0743
11.1,1.6452,0.01686,0.00981,-0.0743
11.2,1.6551,0.017,0.00995,-0.0742
11.3,1.665,0.01716,0.0101,-0.0741
11.4,1.6748,0.01731,0.01026,-0.074
11.5,1.6849,0.01742,0.01038,-0.0739
11.6,1.695,0.01754,0.01052,-0.0738
11.7,1.7049,0.01767,0.01066,-0.0738
11.8,1.7148,0.0178,0.0108,-0.0737
11.9,1.7246,0.01793,0.01094,-0.0736
12,1.7342,0.01809,0.01109,-0.0734
12.1,1.7438,0.01824,0.01125,-0.0733
12.2,1.7533,0.0184,0.01141,-0.0732
12.3,1.7627,0.01857,0.01158,-0.073
12.4,1.772,0.01874,0.01175,-0.0729
12.5,1.7812,0.01891,0.01192,-0.0727
12.6,1.7908,0.01904,0.01208,-0.0726
12.7,1.8003,0.01918,0.01224,-0.0724
12.8,1.8097,0.01932,0.01239,-0.0723
12.9,1.8188,0.01948,0.01256,-0.0721
13,1.8279,0.01964,0.01272,-0.0719
13.1,1.837,0.0198,0.0129,-0.0717
13.2,1.8459,0.01997,0.01307,-0.0715
13.3,1.8547,0.02015,0.01326,-0.0713
13.4,1.8633,0.02034,0.01345,-0.071
13.5,1.8719,0.02053,0.01365,-0.0708
13.6,1.88,0.02075,0.01387,-0.0705
13.7,1.8887,0.02091,0.01404,-0.0702
13.8,1.8972,0.02107,0.01422,-0.07
13.9,1.9056,0.02124,0.01441,-0.0697
14,1.9139,0.02142,0.0146,-0.0694
14.1,1.9219,0.02161,0.0148,-0.0691
14.2,1.9298,0.0218,0.015,-0.0687
14.3,1.9375,0.02199,0.01521,-0.0684
14.4,1.945,0.0222,0.01542,-0.068
14.5,1.9523,0.02242,0.01565,-0.0675
14.6,1.9594,0.02264,0.01588,-0.0671
14.7,1.9662,0.02287,0.01611,-0.0666
14.8,1.9733,0.02307,0.01634,-0.0661
14.9,1.9804,0.02325,0.01655,-0.0657
15,1.9873,0.02344,0.01678,-0.0652
15.1,1.9938,0.02365,0.017,-0.0647
15.2,2.0002,0.02387,0.01723,-0.0641
15.3,2.0061,0.02408,0.01747,-0.0635
15.4,2.0108,0.02431,0.01772,-0.0627
15.5,2.0151,0.02455,0.01798,-0.0618
15.6,2.0192,0.02481,0.01825,-0.0609
15.7,2.0232,0.02508,0.01854,-0.06
15.8,2.0272,0.02536,0.01884,-0.0592
15.9,2.0312,0.02565,0.01915,-0.0584
16,2.0352,0.02596,0.01948,-0.0577
16.1,2.0388,0.0263,0.01983,-0.0569
16.2,2.0434,0.02658,0.02014,-0.0563
16.3,2.0481,0.02687,0.02046,-0.0558
16.4,2.0526,0.02717,0.02079,-0.0552
16.5,2.0571,0.02748,0.02112,-0.0547
16.6,2.0615,0.02781,0.02147,-0.0542
16.7,2.0658,0.02815,0.02184,-0.0537
16.8,2.07,0.0285,0.02221,-0.0532
16.9,2.0741,0.02887,0.02261,-0.0528
17,2.0781,0.02925,0.02302,-0.0524
17.1,2.082,0.02965,0.02344,-0.0521
17.2,2.0857,0.03007,0.02388,-0.0518
17.3,2.0894,0.0305,0.02433,-0.0515
17.4,2.0937,0.03089,0.02477,-0.0513
17.5,2.0983,0.03126,0.02518,-0.0511
17.6,2.1024,0.03168,0.02562,-0.051
17.7,2.1068,0.0321,0.02607,-0.0509
17.8,2.111,0.03253,0.02653,-0.0509
17.9,2.1153,0.03297,0.02701,-0.0509
18,2.1195,0.03344,0.0275,-0.051
18.1,2.1236,0.03392,0.02801,-0.0511
18.2,2.1277,0.03442,0.02854,-0.0513
18.3,2.1316,0.03494,0.02909,-0.0515
18.4,2.1355,0.03549,0.02966,-0.0518
18.5,2.1393,0.03605,0.03025,-0.0522
18.6,2.143,0.03664,0.03087,-0.0526
18.7,2.1478,0.03714,0.03142,-0.0531
18.8,2.1524,0.03766,0.03198,-0.0536
18.9,2.1571,0.03819,0.03256,-0.0541
19,2.161,0.03882,0.03321,-0.0548
19.1,2.1654,0.03942,0.03384,-0.0556
19.2,2.1698,0.04003,0.03449,-0.0564
19.3,2.174,0.0407,0.03519,-0.0573
19.4,2.1782,0.04137,0.0359,-0.0582
19.5,2.1821,0.04211,0.03666,-0.0593
19.6,2.1859,0.04288,0.03747,-0.0606
19.7,2.1899,0.04366,0.0383,-0.0618
19.8,2.1945,0.04436,0.03905,-0.063
19.9,2.199,0.0451,0.03983,-0.0643
20,2.2033,0.04588,0.04065,-0.0657
20.1,2.2075,0.04669,0.04151,-0.0671
20.2,2.2115,0.04756,0.04242,-0.0687
20.3,2.2137,0.04873,0.04362,-0.0709
20.4,2.2166,0.04981,0.04474,-0.0729
20.5,2.2191,0.05099,0.04596,-0.075
20.6,2.2218,0.05215,0.04719,-0.0772
20.7,2.2226,0.05366,0.04874,-0.08
20.8,2.2246,0.05497,0.0501,-0.0824
20.9,2.2259,0.05644,0.05162,-0.085
21,2.2265,0.05805,0.0533,-0.0879
21.1,2.2262,0.05986,0.05518,-0.091
21.2,2.2254,0.0618,0.05722,-0.0944
21.3,2.2243,0.06381,0.0593,-0.0977
21.4,2.2228,0.06593,0.0615,-0.1012
21.5,2.2201,0.06828,0.06394,-0.105
21.6,2.2163,0.07093,0.06668,-0.1091
21.7,2.2108,0.07396,0.06982,-0.1137
21.8,2.2043,0.07721,0.07319,-0.1185
21.9,2.1952,0.08113,0.07723,-0.124
22,2.1852,0.08526,0.0815,-0.1297
22.1,2.1738,0.08966,0.08605,-0.1357
22.2,2.1633,0.09374,0.09026,-0.1413
22.3,2.1503,0.0983,0.09495,-0.1476
22.4,2.1401,0.10209,0.09885,-0.1531
22.5,2.1293,0.10599,0.10287,-0.1588
22.6,2.1183,0.10993,0.10692,-0.1647
22.7,2.1083,0.11369,0.11077,-0.1703
22.8,2.1012,0.11678,0.11394,-0.1751
22.9,2.092,0.12058,0.11786,-0.1806
23,2.0872,0.12334,0.12067,-0.1847
23.1,2.0799,0.12692,0.12433,-0.1896
23.2,2.0761,0.12958,0.12704,-0.1932
23.3,2.0703,0.13291,0.13043,-0.1976
23.4,2.0658,0.13588,0.13346,-0.2015
23.5,2.0628,0.13851,0.13612,-0.2049
23.6,2.0564,0.14223,0.13991,-0.2094
23.7,2.0529,0.1451,0.14284,-0.213
23.8,2.0505,0.14767,0.14543,-0.2162
23.9,2.0451,0.15126,0.14909,-0.2204
24,2.043,0.15384,0.15169,-0.2235
24.1,2.0407,0.15645,0.15433,-0.2267
24.2,2.0368,0.15973,0.15766,-0.2304
24.3,2.0328,0.16303,0.16101,-0.2342
24.4,2.0316,0.1654,0.16342,-0.237
24.5,2.0306,0.16775,0.16579,-0.2398
24.6,2.0267,0.17119,0.16928,-0.2436
24.7,2.0254,0.1737,0.17182,-0.2465
24.8,2.0244,0.17608,0.17422,-0.2493
24.9,2.0237,0.17839,0.17655,-0.252
25,2.0201,0.18189,0.18011,-0.2558
25.1,2.0191,0.18438,0.18263,-0.2586
25.2,2.0191,0.18647,0.18475,-0.261
25.3,2.0193,0.1885,0.18679,-0.2634
25.4,2.0194,0.19053,0.18885,-0.2657
25.5,2.0193,0.19273,0.19107,-0.2682
25.6,2.0173,0.19577,0.19416,-0.2715
25.7,2.0171,0.19803,0.19645,-0.2741
25.8,2.0175,0.20005,0.19848,-0.2764
25.9,2.0181,0.20198,0.20043,-0.2786
26,2.0186,0.20395,0.20242,-0.2809
26.1,2.019,0.20601,0.2045,-0.2833
26.2,2.0181,0.20872,0.20725,-0.2862
26.3,2.0176,0.21129,0.20984,-0.289
26.4,2.0181,0.2133,0.21187,-0.2913
26.5,2.0189,0.21523,0.21382,-0.2936
26.6,2.0197,0.21715,0.21575,-0.2958
26.7,2.0204,0.21913,0.21774,-0.2981
26.8,2.0211,0.22111,0.21974,-0.3004
26.9,2.0217,0.22314,0.22179,-0.3028
27,2.0211,0.22595,0.22462,-0.3058
27.1,2.022,0.22788,0.22656,-0.308
27.2,2.0234,0.22954,0.22824,-0.31
27.3,2.0248,0.23112,0.22984,-0.312
27.4,2.0262,0.2327,0.23143,-0.3139
27.5,2.0277,0.23425,0.233,-0.3158
27.6,2.0292,0.23581,0.23457,-0.3177
27.7,2.0306,0.23738,0.23616,-0.3197
27.8,2.0321,0.23895,0.23774,-0.3216
27.9,2.0335,0.24051,0.23932,-0.3236
28,2.0349,0.24213,0.24095,-0.3256
28.1,2.0362,0.24377,0.2426,-0.3276
28.2,2.0371,0.2457,0.24456,-0.3298
28.3,2.0379,0.24774,0.24662,-0.3322
28.4,2.0391,0.24951,0.24841,-0.3343
28.5,2.0404,0.25115,0.25006,-0.3363
28.6,2.0418,0.25273,0.25166,-0.3383
28.7,2.0433,0.25428,0.25321,-0.3403
28.8,2.0447,0.25577,0.25472,-0.3422
28.9,2.0462,0.25729,0.25625,-0.3441
29,2.0476,0.25882,0.25778,-0.3461
29.1,2.0491,0.2603,0.25927,-0.348
29.2,2.0505,0.26178,0.26076,-0.3499
29.3,2.0515,0.26366,0.26264,-0.3522
29.4,2.0529,0.26517,0.26415,-0.3542
29.5,2.0543,0.26662,0.26561,-0.3561
29.6,2.0557,0.2681,0.2671,-0.358
29.7,2.0571,0.26956,0.26856,-0.36
29.8,2.0585,0.27097,0.26998,-0.3619
29.9,2.06,0.27234,0.27136,-0.3637
30,2.0614,0.27371,0.27272,-0.3656

