airfoilName st8.dat
Re 	9.300000e+05
M 	0
N 	4.500000e+00
VACC 	0 VACCflag 1
XTR 	1.00 	1.00 XTRflag 0
alpha,cl,cd,cdp,cm
-15.1,-1.2795,0.03342,0.03018,-0.056
-15,-1.2727,0.03228,0.02894,-0.0572
-14.9,-1.2657,0.03134,0.02792,-0.058
-14.8,-1.2584,0.03052,0.02702,-0.0586
-14.7,-1.2508,0.02978,0.02621,-0.0591
-14.6,-1.243,0.0291,0.02546,-0.0595
-14.5,-1.2349,0.02848,0.02477,-0.0598
-14.4,-1.2267,0.02789,0.02412,-0.06
-14.3,-1.2182,0.02733,0.0235,-0.0603
-14.2,-1.2096,0.02679,0.02291,-0.0604
-14.1,-1.2008,0.02629,0.02235,-0.0606
-14,-1.1919,0.0258,0.02181,-0.0607
-13.9,-1.1828,0.02534,0.02129,-0.0608
-13.8,-1.1736,0.02489,0.0208,-0.061
-13.7,-1.1643,0.02446,0.02031,-0.061
-13.6,-1.1548,0.02405,0.01985,-0.0611
-13.5,-1.1453,0.02364,0.01939,-0.0612
-13.4,-1.1356,0.02325,0.01895,-0.0613
-13.3,-1.1258,0.02288,0.01853,-0.0613
-13.2,-1.1159,0.02251,0.01812,-0.0614
-13.1,-1.106,0.02216,0.01772,-0.0615
-13,-1.0959,0.02182,0.01734,-0.0615
-12.9,-1.0858,0.02148,0.01696,-0.0616
-12.8,-1.0756,0.02116,0.0166,-0.0616
-12.7,-1.0653,0.02085,0.01624,-0.0617
-12.6,-1.055,0.02054,0.0159,-0.0617
-12.5,-1.0446,0.02024,0.01555,-0.0618
-12.4,-1.0341,0.01996,0.01523,-0.0618
-12.3,-1.0235,0.01968,0.01492,-0.0619
-12.2,-1.0129,0.01941,0.01461,-0.0619
-12.1,-1.0023,0.01915,0.01431,-0.0619
-12,-0.9915,0.0189,0.01402,-0.062
-11.9,-0.9808,0.01866,0.01374,-0.062
-11.8,-0.97,0.01842,0.01347,-0.0621
-11.7,-0.9591,0.01819,0.01322,-0.0621
-11.6,-0.9482,0.01798,0.01298,-0.0621
-11.5,-0.9372,0.01777,0.01274,-0.0622
-11.4,-0.9262,0.01758,0.01252,-0.0622
-11.3,-0.9151,0.01739,0.0123,-0.0623
-11.2,-0.9041,0.01721,0.0121,-0.0623
-11.1,-0.8933,0.01689,0.01175,-0.0624
-11,-0.8825,0.01655,0.01137,-0.0624
-10.9,-0.8716,0.01626,0.01105,-0.0625
-10.8,-0.8606,0.01599,0.01075,-0.0625
-10.7,-0.8493,0.01576,0.01048,-0.0626
-10.6,-0.8366,0.01552,0.01023,-0.063
-10.5,-0.8236,0.01531,0.00999,-0.0635
-10.4,-0.8115,0.01511,0.00977,-0.0637
-10.3,-0.7992,0.01492,0.00956,-0.064
-10.2,-0.7864,0.01473,0.00935,-0.0644
-10.1,-0.7743,0.01456,0.00916,-0.0646
-10,-0.7619,0.01439,0.00898,-0.0648
-9.9,-0.7497,0.01423,0.00879,-0.065
-9.8,-0.7377,0.01407,0.00862,-0.0652
-9.7,-0.7258,0.01392,0.00845,-0.0653
-9.6,-0.7141,0.01378,0.00828,-0.0654
-9.5,-0.7023,0.01363,0.00812,-0.0655
-9.4,-0.6909,0.0135,0.00796,-0.0655
-9.3,-0.6794,0.01337,0.00781,-0.0656
-9.2,-0.668,0.01324,0.00766,-0.0656
-9.1,-0.6566,0.01311,0.00751,-0.0656
-9,-0.6456,0.013,0.00737,-0.0655
-8.9,-0.6342,0.01287,0.00722,-0.0655
-8.8,-0.6228,0.01276,0.00708,-0.0655
-8.6,-0.6005,0.01254,0.00681,-0.0653
-8.5,-0.589,0.01243,0.00668,-0.0653
-8.4,-0.5776,0.01233,0.00656,-0.0653
-8.3,-0.5666,0.01225,0.00644,-0.0652
-8.2,-0.5551,0.01213,0.0063,-0.0652
-8.1,-0.5436,0.01199,0.00614,-0.0652
-8,-0.5321,0.01186,0.006,-0.0652
-7.9,-0.521,0.01176,0.00587,-0.0651
-7.8,-0.5094,0.01166,0.00576,-0.0651
-7.7,-0.4978,0.01155,0.00564,-0.0652
-7.6,-0.4861,0.01145,0.00553,-0.0652
-7.5,-0.4748,0.01138,0.00542,-0.0652
-7.4,-0.4632,0.01129,0.00532,-0.0652
-7.3,-0.4515,0.0112,0.00521,-0.0652
-7.2,-0.4398,0.01111,0.00511,-0.0653
-7.1,-0.4281,0.01103,0.00501,-0.0653
-7,-0.4167,0.01096,0.00491,-0.0652
-6.9,-0.4049,0.01088,0.00481,-0.0653
-6.8,-0.3931,0.01081,0.00472,-0.0654
-6.7,-0.3814,0.01074,0.00463,-0.0654
-6.6,-0.3697,0.01066,0.00453,-0.0654
-6.5,-0.3581,0.01057,0.00443,-0.0654
-6.4,-0.3463,0.01049,0.00434,-0.0655
-6.3,-0.3345,0.01042,0.00425,-0.0655
-6.2,-0.3228,0.01035,0.00417,-0.0656
-6.1,-0.3109,0.01028,0.00409,-0.0657
-6,-0.2991,0.01021,0.004,-0.0657
-5.9,-0.2875,0.01016,0.00393,-0.0657
-5.8,-0.2756,0.0101,0.00385,-0.0658
-5.7,-0.2637,0.01004,0.00378,-0.0659
-5.6,-0.2518,0.00999,0.00371,-0.0659
-5.4,-0.2282,0.00985,0.00357,-0.0661
-5.3,-0.2164,0.0098,0.0035,-0.0661
-5.2,-0.2046,0.00975,0.00343,-0.0662
-5.1,-0.1927,0.0097,0.00337,-0.0662
-5,-0.1807,0.00965,0.0033,-0.0663
-4.9,-0.1688,0.00961,0.00324,-0.0664
-4.8,-0.1569,0.00955,0.00317,-0.0665
-4.7,-0.1451,0.00951,0.00311,-0.0665
-4.6,-0.1332,0.00946,0.00305,-0.0666
-4.5,-0.1213,0.00941,0.003,-0.0667
-4.4,-0.1094,0.00937,0.00294,-0.0668
-4.2,-0.0857,0.00931,0.00284,-0.0669
-4.1,-0.0741,0.0093,0.00279,-0.0669
-4,-0.0622,0.00926,0.00274,-0.067
-3.9,-0.0504,0.00925,0.00269,-0.0671
-3.8,-0.0386,0.00924,0.00265,-0.0671
-3.7,-0.0267,0.00921,0.00261,-0.0672
-3.6,-0.0148,0.00917,0.00257,-0.0673
-3.5,-0.0031,0.00917,0.00253,-0.0673
-3.4,0.0088,0.00914,0.00249,-0.0674
-3.3,0.0208,0.00912,0.00245,-0.0675
-3.2,0.0325,0.00913,0.00242,-0.0676
-3.1,0.0444,0.0091,0.00238,-0.0677
-3,0.0561,0.00912,0.00235,-0.0677
-2.9,0.068,0.0091,0.00232,-0.0679
-2.8,0.0799,0.00908,0.00229,-0.0679
-2.7,0.0917,0.00909,0.00227,-0.068
-2.6,0.1036,0.00908,0.00224,-0.0681
-2.5,0.1155,0.00906,0.00222,-0.0682
-2.4,0.1274,0.00904,0.00219,-0.0683
-2.3,0.1391,0.00906,0.00218,-0.0684
-2.2,0.151,0.00906,0.00216,-0.0685
-2.1,0.1628,0.00904,0.00214,-0.0686
-2,0.1748,0.00903,0.00213,-0.0687
-1.9,0.1867,0.00902,0.00211,-0.0688
-1.8,0.1986,0.009,0.00209,-0.069
-1.7,0.2105,0.00897,0.00208,-0.0691
-1.6,0.222,0.00903,0.00208,-0.0692
-1.5,0.2339,0.00904,0.00207,-0.0693
-1.4,0.2457,0.00904,0.00207,-0.0694
-1.3,0.2577,0.00902,0.00205,-0.0695
-1.2,0.2695,0.00902,0.00205,-0.0696
-1.1,0.2814,0.00899,0.00204,-0.0697
-1,0.2933,0.00898,0.00204,-0.0699
-0.9,0.305,0.00902,0.00205,-0.07
-0.8,0.3168,0.009,0.00205,-0.0701
-0.7,0.3287,0.009,0.00205,-0.0702
-0.6,0.3405,0.009,0.00205,-0.0703
-0.5,0.3524,0.00901,0.00205,-0.0704
-0.4,0.3642,0.00899,0.00206,-0.0706
-0.3,0.3761,0.009,0.00206,-0.0707
-0.2,0.3879,0.00902,0.00207,-0.0708
0,0.4113,0.00907,0.0021,-0.071
0.1,0.423,0.0091,0.00211,-0.0712
0.2,0.4348,0.00912,0.00212,-0.0713
0.3,0.4465,0.0091,0.00214,-0.0714
0.4,0.4583,0.00913,0.00216,-0.0715
0.5,0.47,0.00916,0.00218,-0.0716
0.6,0.4817,0.00918,0.0022,-0.0718
0.7,0.4934,0.00917,0.00222,-0.0719
0.9,0.5164,0.00932,0.0023,-0.0721
1,0.5279,0.00932,0.00234,-0.0723
1.1,0.5395,0.00937,0.00237,-0.0724
1.2,0.5511,0.00941,0.0024,-0.0725
1.3,0.5627,0.00939,0.00244,-0.0727
1.4,0.5742,0.00943,0.00247,-0.0728
1.5,0.5859,0.00944,0.00251,-0.0729
1.6,0.5975,0.00935,0.00254,-0.0731
1.8,0.6203,0.00928,0.00264,-0.0733
1.9,0.6314,0.00917,0.00268,-0.0733
2.1,0.6531,0.00906,0.00277,-0.0731
2.2,0.6608,0.00892,0.0028,-0.0721
2.3,0.6701,0.00891,0.00282,-0.0716
2.4,0.6788,0.00886,0.0028,-0.0709
2.5,0.6919,0.00884,0.00277,-0.0713
2.6,0.7037,0.00889,0.00281,-0.0714
2.7,0.7154,0.00895,0.00284,-0.0714
2.8,0.727,0.00905,0.00289,-0.0715
2.9,0.7386,0.00912,0.00294,-0.0716
3,0.7504,0.00917,0.00298,-0.0717
3.1,0.7621,0.00923,0.00302,-0.0718
3.2,0.7738,0.00928,0.00306,-0.0719
3.3,0.7855,0.00935,0.0031,-0.072
3.4,0.7972,0.00942,0.00314,-0.0721
3.5,0.8088,0.00949,0.00319,-0.0722
3.6,0.8205,0.00955,0.00324,-0.0723
3.7,0.8321,0.0096,0.00328,-0.0724
3.8,0.8437,0.00968,0.00333,-0.0725
3.9,0.8553,0.00974,0.00338,-0.0726
4,0.8669,0.00982,0.00342,-0.0726
4.1,0.8785,0.00989,0.00348,-0.0727
4.2,0.8901,0.00995,0.00353,-0.0728
4.3,0.9017,0.01001,0.00358,-0.0729
4.4,0.9134,0.01007,0.00362,-0.073
4.5,0.9249,0.01013,0.00368,-0.0731
4.6,0.9365,0.0102,0.00373,-0.0732
4.7,0.948,0.01027,0.00378,-0.0733
4.8,0.9595,0.01035,0.00384,-0.0733
4.9,0.971,0.01043,0.0039,-0.0734
5,0.9825,0.01049,0.00395,-0.0735
5.1,0.994,0.01056,0.00401,-0.0736
5.2,1.0055,0.01062,0.00406,-0.0737
5.3,1.017,0.0107,0.00412,-0.0737
5.4,1.0284,0.01077,0.00418,-0.0738
5.5,1.0398,0.01085,0.00425,-0.0739
5.6,1.0512,0.01094,0.00432,-0.074
5.7,1.0627,0.011,0.00437,-0.074
5.8,1.0742,0.01106,0.00443,-0.0741
5.9,1.0856,0.01113,0.00449,-0.0742
6,1.0969,0.01122,0.00456,-0.0742
6.1,1.1083,0.0113,0.00463,-0.0743
6.2,1.1196,0.01138,0.0047,-0.0744
6.3,1.1308,0.01147,0.00477,-0.0744
6.4,1.1422,0.01155,0.00484,-0.0745
6.5,1.1535,0.01162,0.00491,-0.0746
6.6,1.1649,0.01169,0.00498,-0.0746
6.7,1.1762,0.01177,0.00504,-0.0747
6.8,1.1875,0.01184,0.00511,-0.0748
6.9,1.1987,0.01192,0.00519,-0.0748
7,1.2098,0.01204,0.00527,-0.0749
7.1,1.2209,0.01213,0.00535,-0.0749
7.2,1.2321,0.01222,0.00544,-0.075
7.3,1.2433,0.01229,0.00551,-0.075
7.4,1.2545,0.01237,0.00559,-0.0751
7.5,1.2657,0.01245,0.00566,-0.0751
7.6,1.2769,0.01253,0.00574,-0.0752
7.7,1.288,0.01262,0.00582,-0.0752
7.8,1.2991,0.01271,0.0059,-0.0753
7.9,1.3101,0.0128,0.00599,-0.0753
8,1.3211,0.0129,0.00608,-0.0753
8.1,1.332,0.01301,0.00617,-0.0754
8.2,1.343,0.01311,0.00627,-0.0754
8.3,1.354,0.01319,0.00635,-0.0754
8.4,1.365,0.01328,0.00644,-0.0755
8.5,1.376,0.01337,0.00653,-0.0755
8.6,1.3869,0.01346,0.00662,-0.0755
8.7,1.3978,0.01356,0.00671,-0.0756
8.8,1.4086,0.01367,0.00681,-0.0756
8.9,1.4194,0.01378,0.00691,-0.0756
9,1.4302,0.01389,0.00702,-0.0756
9.1,1.4409,0.014,0.00712,-0.0756
9.2,1.4518,0.01408,0.00722,-0.0756
9.3,1.4627,0.01418,0.00731,-0.0756
9.4,1.4733,0.01429,0.00741,-0.0756
9.5,1.4841,0.01439,0.00751,-0.0757
9.6,1.4947,0.01449,0.00762,-0.0757
9.7,1.5054,0.01461,0.00772,-0.0756
9.8,1.5159,0.01472,0.00784,-0.0756
9.9,1.5264,0.01485,0.00796,-0.0756
10,1.5369,0.01497,0.00808,-0.0756
10.1,1.5474,0.01508,0.00819,-0.0756
10.2,1.5581,0.01518,0.0083,-0.0756
10.3,1.5686,0.01528,0.00841,-0.0756
10.4,1.5791,0.01539,0.00852,-0.0755
10.5,1.5896,0.0155,0.00863,-0.0755
10.6,1.6,0.01561,0.00875,-0.0755
10.7,1.6102,0.01576,0.00888,-0.0754
10.8,1.6204,0.01589,0.00901,-0.0754
10.9,1.6306,0.01602,0.00914,-0.0753
11,1.6407,0.01616,0.00927,-0.0753
11.1,1.6508,0.0163,0.00942,-0.0752
11.2,1.6612,0.0164,0.00953,-0.0752
11.3,1.6714,0.01652,0.00966,-0.0751
11.4,1.6816,0.01663,0.00978,-0.0751
11.5,1.6917,0.01675,0.00991,-0.075
11.6,1.7017,0.01688,0.01004,-0.0749
11.7,1.7117,0.01701,0.01018,-0.0748
11.8,1.7214,0.01717,0.01032,-0.0747
11.9,1.7312,0.01732,0.01047,-0.0746
12,1.7409,0.01747,0.01063,-0.0745
12.1,1.7505,0.01763,0.01078,-0.0744
12.2,1.7602,0.01778,0.01095,-0.0743
12.3,1.77,0.0179,0.01108,-0.0742
12.4,1.7798,0.01803,0.01122,-0.0741
12.5,1.7895,0.01816,0.01137,-0.074
12.6,1.7989,0.01832,0.01152,-0.0738
12.7,1.8084,0.01847,0.01167,-0.0737
12.8,1.8178,0.01862,0.01183,-0.0735
12.9,1.8271,0.01878,0.01199,-0.0734
13,1.8362,0.01894,0.01216,-0.0732
13.1,1.8453,0.01911,0.01233,-0.073
13.2,1.8543,0.01929,0.01251,-0.0728
13.3,1.8631,0.01948,0.0127,-0.0726
13.4,1.8721,0.01963,0.01287,-0.0724
13.5,1.8811,0.01979,0.01304,-0.0722
13.6,1.89,0.01995,0.01321,-0.072
13.7,1.8988,0.02012,0.01339,-0.0718
13.8,1.9074,0.02029,0.01357,-0.0715
13.9,1.9159,0.02047,0.01375,-0.0713
14,1.9243,0.02066,0.01395,-0.071
14.1,1.9325,0.02085,0.01415,-0.0707
14.2,1.9405,0.02105,0.01435,-0.0704
14.3,1.9483,0.02126,0.01456,-0.07
14.4,1.9564,0.02144,0.01477,-0.0697
14.5,1.9645,0.0216,0.01495,-0.0694
14.6,1.9724,0.02177,0.01514,-0.069
14.7,1.9802,0.02195,0.01533,-0.0686
14.8,1.9874,0.02216,0.01555,-0.0682
14.9,1.9947,0.02235,0.01576,-0.0678
15,2.0018,0.02255,0.01598,-0.0673
15.1,2.0086,0.02276,0.0162,-0.0668
15.2,2.0152,0.02298,0.01643,-0.0663
15.3,2.0215,0.0232,0.01667,-0.0658
15.4,2.0276,0.02344,0.01691,-0.0652
15.5,2.0324,0.02374,0.01722,-0.0644
15.6,2.0379,0.02394,0.01744,-0.0637
15.7,2.0425,0.02416,0.01768,-0.0629
15.8,2.0468,0.02439,0.01793,-0.062
15.9,2.0505,0.02466,0.01822,-0.061
16,2.0546,0.02492,0.01849,-0.0602
16.1,2.0588,0.02519,0.01878,-0.0594
16.2,2.0629,0.02547,0.01909,-0.0586
16.3,2.0671,0.02576,0.0194,-0.0579
16.4,2.0712,0.02607,0.01972,-0.0572
16.5,2.0752,0.02639,0.02006,-0.0566
16.6,2.0791,0.02672,0.02041,-0.0559
16.7,2.0829,0.02707,0.02079,-0.0553
16.8,2.0867,0.02742,0.02116,-0.0548
16.9,2.0913,0.02773,0.02151,-0.0543
17,2.0959,0.02805,0.02186,-0.0538
17.1,2.1003,0.02838,0.02222,-0.0534
17.2,2.1048,0.02872,0.02259,-0.053
17.3,2.1083,0.02913,0.02301,-0.0527
17.4,2.1125,0.02951,0.02342,-0.0523
17.5,2.1165,0.0299,0.02383,-0.052
17.6,2.1203,0.03031,0.02427,-0.0518
17.7,2.1241,0.03074,0.02472,-0.0516
17.8,2.1278,0.03119,0.02519,-0.0514
17.9,2.1313,0.03166,0.02568,-0.0513
18,2.1348,0.03214,0.02619,-0.0512
18.1,2.1388,0.03261,0.0267,-0.0512
18.2,2.1432,0.03304,0.02716,-0.0513
18.3,2.1476,0.03349,0.02764,-0.0513
18.4,2.1519,0.03396,0.02814,-0.0515
18.5,2.1562,0.03443,0.02865,-0.0517
18.6,2.1604,0.03493,0.02918,-0.0519
18.7,2.1646,0.03545,0.02974,-0.0523
18.8,2.1673,0.03612,0.03042,-0.0527
18.9,2.171,0.03672,0.03104,-0.0532
19,2.1747,0.03733,0.03168,-0.0538
19.1,2.1784,0.03797,0.03234,-0.0544
19.2,2.1826,0.03856,0.03299,-0.0551
19.3,2.1871,0.03915,0.03361,-0.0558
19.4,2.1916,0.03975,0.03424,-0.0566
19.5,2.1959,0.04038,0.03491,-0.0575
19.6,2.2002,0.04104,0.0356,-0.0584
19.7,2.2045,0.04172,0.03632,-0.0594
19.8,2.2084,0.04247,0.0371,-0.0606
19.9,2.2123,0.04324,0.03791,-0.0618
20,2.2132,0.04448,0.03917,-0.0639
20.1,2.2173,0.04527,0.04,-0.0653
20.3,2.2227,0.04736,0.04215,-0.069
20.4,2.2254,0.04846,0.04328,-0.071
20.5,2.2275,0.04969,0.04455,-0.0733
20.6,2.2303,0.05081,0.04575,-0.0754
20.7,2.2326,0.05204,0.04702,-0.0776
20.8,2.2345,0.05335,0.04838,-0.08
20.9,2.2357,0.05482,0.04991,-0.0827
21,2.236,0.05646,0.05161,-0.0857
21.1,2.2355,0.05831,0.05353,-0.089
21.2,2.2348,0.06022,0.05552,-0.0923
21.3,2.2331,0.06232,0.0577,-0.0958
21.4,2.2313,0.06448,0.05993,-0.0994
21.5,2.2279,0.06701,0.06255,-0.1035
21.6,2.2229,0.06991,0.06555,-0.108
21.7,2.2164,0.07316,0.06891,-0.113
21.8,2.2084,0.07678,0.07265,-0.1183
21.9,2.198,0.08103,0.07707,-0.1242
22,2.187,0.08542,0.08161,-0.1302
22.1,2.1749,0.09,0.08634,-0.1364
22.2,2.1625,0.09458,0.09107,-0.1425
22.3,2.1482,0.09942,0.09605,-0.1492
22.4,2.1367,0.10353,0.10027,-0.1551
22.5,2.1249,0.10767,0.10456,-0.1612
22.6,2.1156,0.11118,0.10816,-0.1665
22.7,2.1046,0.1152,0.11229,-0.1725
22.8,2.0949,0.11904,0.11623,-0.1781
22.9,2.0885,0.12214,0.11939,-0.1827
23,2.0795,0.1261,0.12345,-0.1882
23.1,2.0753,0.12884,0.12624,-0.192
23.2,2.0679,0.13262,0.1301,-0.1969
23.3,2.0639,0.13545,0.13298,-0.2007
23.4,2.0596,0.13844,0.136,-0.2045
23.5,2.053,0.14222,0.13986,-0.2091
23.6,2.0498,0.14499,0.14269,-0.2126
23.7,2.0454,0.14822,0.14597,-0.2165
23.8,2.0415,0.15136,0.14916,-0.2202
23.9,2.0397,0.15381,0.15164,-0.2232
24,2.0379,0.15629,0.15414,-0.2262
24.1,2.0324,0.16014,0.15805,-0.2305
24.2,2.0308,0.16262,0.16056,-0.2335
24.3,2.0294,0.16505,0.16304,-0.2364
24.4,2.0287,0.16729,0.16531,-0.239
24.5,2.0249,0.17069,0.16877,-0.2427
24.6,2.0243,0.17296,0.17107,-0.2454
24.7,2.0242,0.17501,0.17314,-0.2478
24.8,2.0241,0.1771,0.17526,-0.2502
24.9,2.0239,0.17921,0.1774,-0.2527
25,2.0206,0.18265,0.18089,-0.2564
25.1,2.0204,0.1848,0.18307,-0.2589
25.2,2.0207,0.18678,0.18507,-0.2612
25.3,2.021,0.18873,0.18704,-0.2635
25.4,2.0211,0.19077,0.18911,-0.2659
25.5,2.0196,0.19357,0.19194,-0.2689
25.6,2.0183,0.19633,0.19474,-0.2719
25.7,2.0183,0.19848,0.19691,-0.2744
25.8,2.0187,0.2005,0.19895,-0.2767
25.9,2.0191,0.20246,0.20093,-0.279
26,2.0195,0.20452,0.20301,-0.2814
26.1,2.0193,0.20688,0.20539,-0.284
26.2,2.0177,0.20998,0.20853,-0.2873
26.3,2.018,0.2121,0.21067,-0.2897
26.4,2.0192,0.21379,0.21238,-0.2917
26.5,2.0204,0.21546,0.21407,-0.2937
26.6,2.0217,0.21713,0.21575,-0.2957
26.7,2.0229,0.21882,0.21746,-0.2977
26.8,2.024,0.22052,0.21918,-0.2998
26.9,2.0251,0.22229,0.22096,-0.3019
27,2.0253,0.22457,0.22328,-0.3044
27.1,2.0255,0.22691,0.22564,-0.307
27.2,2.0265,0.22875,0.2275,-0.3091
27.3,2.0278,0.23042,0.22919,-0.3111
27.4,2.0291,0.23208,0.23086,-0.3132
27.5,2.0304,0.23368,0.23247,-0.3151
27.6,2.0318,0.23528,0.23409,-0.3171
27.7,2.0332,0.23691,0.23573,-0.3191
27.8,2.0345,0.23852,0.23736,-0.3211
27.9,2.0359,0.24014,0.23898,-0.3231
28,2.0371,0.24183,0.24069,-0.3251
28.1,2.0383,0.24357,0.24244,-0.3272
28.2,2.0386,0.24586,0.24476,-0.3298
28.3,2.0395,0.24787,0.24679,-0.3321
28.4,2.0407,0.2496,0.24853,-0.3342
28.5,2.042,0.25123,0.25017,-0.3362
28.6,2.0434,0.2528,0.25175,-0.3382
28.7,2.0448,0.25434,0.2533,-0.3402
28.8,2.0458,0.2562,0.25516,-0.3424
28.9,2.0473,0.25772,0.25669,-0.3444
29,2.0487,0.25923,0.2582,-0.3463
29.1,2.0502,0.26067,0.25964,-0.3482
29.2,2.0517,0.26208,0.26106,-0.3501
29.3,2.0533,0.26346,0.26244,-0.352
29.4,2.0549,0.26479,0.26378,-0.3538
29.5,2.0565,0.26605,0.26503,-0.3556
29.6,2.0582,0.26724,0.26622,-0.3573
29.7,2.0599,0.26836,0.26734,-0.359
29.8,2.0616,0.26953,0.2685,-0.3607
29.9,2.0628,0.27115,0.27014,-0.3627
30,2.0639,0.27288,0.27189,-0.3648

