airfoilName st8.dat
Re 	590000
M 	0
N 	4.500000e+00
VACC 	0 VACCflag 1
XTR 	1.00 	1.00 XTRflag 0
alpha,cl,cd,cdp,cm
-14,-1.157,0.03579,0.03222,-0.053
-13.9,-1.1487,0.03443,0.03072,-0.0549
-13.8,-1.1407,0.0334,0.02958,-0.0562
-13.7,-1.1327,0.03252,0.0286,-0.0571
-13.6,-1.1244,0.03177,0.02776,-0.0577
-13.5,-1.1161,0.03108,0.02699,-0.0583
-13.4,-1.1075,0.03047,0.0263,-0.0587
-13.3,-1.1004,0.02952,0.02528,-0.0593
-13.2,-1.0932,0.02861,0.02428,-0.0597
-13.1,-1.0855,0.02782,0.02342,-0.0601
-13,-1.0771,0.02715,0.02269,-0.0604
-12.9,-1.0685,0.02654,0.02201,-0.0606
-12.8,-1.0595,0.02598,0.0214,-0.0608
-12.7,-1.0503,0.02546,0.02083,-0.0609
-12.6,-1.041,0.02498,0.0203,-0.0611
-12.5,-1.0314,0.02453,0.0198,-0.0612
-12.4,-1.0217,0.02411,0.01933,-0.0613
-12.3,-1.0119,0.0237,0.01888,-0.0614
-12.2,-1.002,0.02332,0.01844,-0.0615
-12.1,-0.9919,0.02294,0.01802,-0.0616
-12,-0.9818,0.02259,0.01763,-0.0617
-11.9,-0.9716,0.02224,0.01724,-0.0617
-11.8,-0.9613,0.02191,0.01687,-0.0618
-11.7,-0.951,0.02159,0.0165,-0.0619
-11.6,-0.9406,0.02128,0.01616,-0.0619
-11.5,-0.9301,0.02097,0.01581,-0.062
-11.4,-0.9196,0.02067,0.01547,-0.0621
-11.3,-0.909,0.02037,0.01514,-0.0621
-11.2,-0.8984,0.02009,0.01482,-0.0622
-11.1,-0.8878,0.0198,0.01449,-0.0622
-11,-0.8771,0.01953,0.01418,-0.0623
-10.9,-0.8663,0.01926,0.01388,-0.0623
-10.8,-0.8556,0.019,0.01357,-0.0623
-10.7,-0.8448,0.01873,0.01327,-0.0624
-10.6,-0.8339,0.01848,0.01298,-0.0624
-10.5,-0.8231,0.01823,0.01269,-0.0625
-10.4,-0.8122,0.01798,0.01241,-0.0625
-10.3,-0.8013,0.01774,0.01213,-0.0625
-10.2,-0.7903,0.0175,0.01186,-0.0625
-10.1,-0.7794,0.01727,0.0116,-0.0626
-10,-0.7684,0.01705,0.01134,-0.0626
-9.9,-0.7574,0.01683,0.01108,-0.0626
-9.8,-0.7464,0.01662,0.01085,-0.0626
-9.7,-0.7341,0.01641,0.0106,-0.0629
-9.6,-0.7209,0.01621,0.01036,-0.0634
-9.5,-0.7082,0.01603,0.01013,-0.0637
-9.4,-0.6958,0.01586,0.00993,-0.064
-9.3,-0.6829,0.01556,0.00963,-0.0644
-9.2,-0.6704,0.01531,0.00935,-0.0648
-9.1,-0.6576,0.01508,0.0091,-0.0652
-9,-0.6453,0.01488,0.00888,-0.0654
-8.9,-0.6329,0.01469,0.00868,-0.0657
-8.8,-0.6204,0.01452,0.00849,-0.066
-8.7,-0.6075,0.01435,0.00831,-0.0664
-8.6,-0.5955,0.01419,0.00813,-0.0665
-8.5,-0.5834,0.01404,0.00796,-0.0667
-8.4,-0.5709,0.01389,0.00778,-0.067
-8.3,-0.5587,0.01375,0.00762,-0.0671
-8.2,-0.5468,0.01361,0.00746,-0.0672
-8.1,-0.535,0.01347,0.0073,-0.0673
-8,-0.5232,0.01334,0.00714,-0.0674
-7.9,-0.5115,0.01321,0.00699,-0.0675
-7.8,-0.4998,0.01309,0.00684,-0.0675
-7.7,-0.4884,0.01297,0.0067,-0.0675
-7.6,-0.4768,0.01286,0.00656,-0.0675
-7.5,-0.4653,0.01276,0.00643,-0.0675
-7.4,-0.4538,0.01262,0.00628,-0.0675
-7.3,-0.4426,0.01248,0.00612,-0.0674
-7.2,-0.4311,0.01236,0.00598,-0.0675
-7.1,-0.4197,0.01224,0.00586,-0.0674
-7,-0.4083,0.01214,0.00574,-0.0674
-6.9,-0.3967,0.01204,0.00563,-0.0674
-6.8,-0.3854,0.01195,0.00551,-0.0674
-6.7,-0.3739,0.01185,0.0054,-0.0673
-6.5,-0.3509,0.01172,0.00523,-0.0673
-6.4,-0.3395,0.01164,0.00513,-0.0673
-6.3,-0.328,0.01153,0.00501,-0.0673
-6.2,-0.3165,0.01143,0.00489,-0.0673
-6.1,-0.3048,0.01133,0.00479,-0.0673
-6,-0.2931,0.01124,0.00468,-0.0673
-5.9,-0.2817,0.01116,0.00459,-0.0673
-5.8,-0.2702,0.01109,0.00449,-0.0673
-5.7,-0.2584,0.01101,0.0044,-0.0673
-5.6,-0.2466,0.01093,0.00431,-0.0674
-5.5,-0.2349,0.01087,0.00422,-0.0674
-5.4,-0.2233,0.01081,0.00413,-0.0674
-5.3,-0.2117,0.01073,0.00404,-0.0674
-5.2,-0.2,0.01064,0.00395,-0.0674
-5.1,-0.1883,0.01057,0.00387,-0.0674
-5,-0.1766,0.01052,0.00381,-0.0675
-4.9,-0.1648,0.01045,0.00373,-0.0675
-4.8,-0.153,0.01039,0.00365,-0.0676
-4.7,-0.1415,0.01036,0.00358,-0.0675
-4.6,-0.1296,0.01028,0.0035,-0.0676
-4.5,-0.1178,0.01021,0.00343,-0.0677
-4.4,-0.106,0.01015,0.00336,-0.0677
-4.3,-0.0943,0.0101,0.00331,-0.0678
-4.2,-0.0824,0.01005,0.00325,-0.0678
-4.1,-0.0707,0.01002,0.00318,-0.0678
-4,-0.0589,0.00996,0.00311,-0.0679
-3.9,-0.0471,0.0099,0.00305,-0.068
-3.8,-0.0352,0.00985,0.003,-0.068
-3.7,-0.0236,0.00984,0.00294,-0.068
-3.6,-0.012,0.00981,0.00289,-0.068
-3.5,-0.0002,0.00977,0.00283,-0.0681
-3.4,0.0113,0.00975,0.00279,-0.0681
-3.3,0.023,0.00974,0.00275,-0.0681
-3.2,0.0348,0.00971,0.0027,-0.0682
-3.1,0.0466,0.00967,0.00265,-0.0682
-3,0.0583,0.00966,0.00261,-0.0682
-2.9,0.0701,0.00963,0.00257,-0.0683
-2.8,0.082,0.0096,0.00253,-0.0684
-2.7,0.0938,0.00956,0.00249,-0.0685
-2.6,0.1055,0.00954,0.00247,-0.0685
-2.5,0.1171,0.00955,0.00243,-0.0686
-2.4,0.1289,0.00952,0.0024,-0.0686
-2.3,0.1406,0.00953,0.00238,-0.0687
-2.2,0.1523,0.00951,0.00235,-0.0688
-2.1,0.1642,0.00947,0.00231,-0.0689
-2,0.176,0.00945,0.00229,-0.069
-1.9,0.1878,0.00944,0.00227,-0.069
-1.8,0.1993,0.00946,0.00226,-0.0691
-1.7,0.2109,0.00948,0.00224,-0.0692
-1.6,0.2228,0.00946,0.00223,-0.0693
-1.5,0.2346,0.00942,0.00221,-0.0694
-1.4,0.2463,0.00944,0.0022,-0.0695
-1.3,0.2581,0.00943,0.0022,-0.0696
-1.2,0.2698,0.00941,0.0022,-0.0697
-1.1,0.2813,0.00945,0.0022,-0.0697
-1,0.2931,0.00944,0.00219,-0.0698
-0.9,0.3049,0.00944,0.00219,-0.0699
-0.8,0.3167,0.00943,0.00218,-0.07
-0.7,0.3285,0.00941,0.00218,-0.0702
-0.6,0.3403,0.00941,0.00219,-0.0703
-0.5,0.3521,0.00941,0.00218,-0.0704
-0.4,0.3636,0.00942,0.00219,-0.0705
-0.3,0.3754,0.00943,0.0022,-0.0706
-0.2,0.3872,0.00943,0.0022,-0.0707
0,0.4106,0.00939,0.00222,-0.0709
0.1,0.4224,0.00939,0.00223,-0.0711
0.2,0.4341,0.0094,0.00224,-0.0712
0.3,0.4458,0.00934,0.00225,-0.0713
0.4,0.4575,0.00935,0.00227,-0.0714
0.5,0.4689,0.00939,0.00229,-0.0715
0.6,0.4806,0.00932,0.00231,-0.0717
0.7,0.4921,0.00932,0.00232,-0.0718
0.8,0.5038,0.0093,0.00235,-0.0719
0.9,0.5152,0.00919,0.00237,-0.0721
1,0.5266,0.00914,0.00239,-0.0721
1.2,0.5488,0.00902,0.00246,-0.0722
1.3,0.558,0.00883,0.0025,-0.0717
1.4,0.5672,0.00886,0.00255,-0.0712
1.5,0.5758,0.00884,0.00258,-0.0705
1.6,0.5823,0.00874,0.00254,-0.0692
1.7,0.5949,0.00878,0.00253,-0.0694
1.8,0.6073,0.00886,0.00254,-0.0697
1.9,0.6188,0.00897,0.0026,-0.0698
2,0.6302,0.00909,0.00264,-0.0698
2.1,0.6417,0.00919,0.0027,-0.0699
2.2,0.6532,0.00931,0.00275,-0.07
2.3,0.6645,0.00945,0.00281,-0.0701
2.4,0.676,0.00954,0.00287,-0.0701
2.5,0.6876,0.00962,0.00291,-0.0702
2.6,0.6992,0.0097,0.00296,-0.0703
2.7,0.7107,0.00979,0.00301,-0.0704
2.8,0.7223,0.00987,0.00307,-0.0704
2.9,0.734,0.00994,0.00312,-0.0705
3,0.7456,0.01001,0.00316,-0.0706
3.1,0.7571,0.01009,0.00322,-0.0707
3.2,0.7686,0.01018,0.00327,-0.0708
3.3,0.7802,0.01027,0.00333,-0.0708
3.4,0.7917,0.01034,0.00338,-0.0709
3.5,0.8033,0.01041,0.00343,-0.071
3.6,0.8148,0.0105,0.00349,-0.0711
3.7,0.8263,0.01058,0.00356,-0.0711
3.8,0.8379,0.01065,0.00361,-0.0712
3.9,0.8495,0.01071,0.00366,-0.0713
4,0.861,0.01078,0.00372,-0.0714
4.1,0.8725,0.01086,0.00377,-0.0715
4.2,0.884,0.01094,0.00383,-0.0715
4.3,0.8953,0.01104,0.0039,-0.0716
4.4,0.9068,0.01111,0.00396,-0.0717
4.5,0.9183,0.01118,0.00402,-0.0717
4.6,0.9298,0.01126,0.00408,-0.0718
4.7,0.9412,0.01134,0.00414,-0.0719
4.8,0.9526,0.01142,0.00421,-0.0719
4.9,0.9639,0.01152,0.00428,-0.072
5,0.9754,0.01159,0.00435,-0.0721
5.1,0.9868,0.01165,0.00441,-0.0721
5.2,0.9983,0.01173,0.00447,-0.0722
5.3,1.0097,0.0118,0.00454,-0.0723
5.4,1.0209,0.01191,0.00461,-0.0723
5.5,1.0321,0.012,0.00469,-0.0724
5.6,1.0434,0.01209,0.00477,-0.0724
5.7,1.0548,0.01216,0.00484,-0.0725
5.8,1.0661,0.01224,0.00491,-0.0726
5.9,1.0775,0.01231,0.00498,-0.0726
6,1.0887,0.0124,0.00505,-0.0727
6.1,1.1,0.01248,0.00513,-0.0727
6.2,1.1112,0.01257,0.00521,-0.0728
6.3,1.1223,0.01267,0.00529,-0.0728
6.4,1.1334,0.01278,0.00538,-0.0728
6.5,1.1447,0.01286,0.00546,-0.0729
6.6,1.1559,0.01294,0.00553,-0.0729
6.7,1.1671,0.01302,0.00562,-0.073
6.8,1.1782,0.01311,0.0057,-0.073
6.9,1.1893,0.01321,0.00578,-0.0731
7,1.2003,0.01331,0.00588,-0.0731
7.1,1.2113,0.01342,0.00597,-0.0731
7.2,1.2223,0.01352,0.00607,-0.0732
7.3,1.2335,0.0136,0.00616,-0.0732
7.4,1.2445,0.01369,0.00624,-0.0732
7.5,1.2555,0.01379,0.00633,-0.0733
7.6,1.2665,0.01388,0.00642,-0.0733
7.7,1.2774,0.01398,0.00652,-0.0733
7.8,1.2883,0.01409,0.00661,-0.0733
7.9,1.2991,0.01421,0.00672,-0.0733
8,1.3099,0.01433,0.00683,-0.0733
8.1,1.3209,0.01442,0.00693,-0.0734
8.2,1.3318,0.01451,0.00703,-0.0734
8.3,1.3427,0.0146,0.00713,-0.0734
8.4,1.3535,0.0147,0.00723,-0.0734
8.5,1.3643,0.01481,0.00734,-0.0734
8.6,1.3751,0.01492,0.00744,-0.0734
8.7,1.3856,0.01505,0.00755,-0.0734
8.8,1.3961,0.01518,0.00768,-0.0734
8.9,1.4067,0.01531,0.0078,-0.0734
9,1.4175,0.0154,0.00791,-0.0734
9.1,1.4282,0.0155,0.00802,-0.0734
9.2,1.4389,0.01561,0.00813,-0.0734
9.3,1.4495,0.01572,0.00824,-0.0733
9.4,1.46,0.01583,0.00836,-0.0733
9.5,1.4705,0.01595,0.00848,-0.0733
9.6,1.4809,0.01608,0.0086,-0.0733
9.7,1.4913,0.01621,0.00873,-0.0732
9.8,1.5016,0.01635,0.00887,-0.0732
9.9,1.5118,0.01649,0.00901,-0.0731
10,1.5222,0.0166,0.00913,-0.0731
10.1,1.5326,0.01671,0.00926,-0.0731
10.2,1.543,0.01683,0.00938,-0.073
10.3,1.5533,0.01696,0.00952,-0.073
10.4,1.5635,0.01709,0.00965,-0.0729
10.5,1.5736,0.01722,0.00979,-0.0728
10.6,1.5837,0.01736,0.00993,-0.0728
10.7,1.5936,0.01751,0.01007,-0.0727
10.8,1.6035,0.01766,0.01022,-0.0726
10.9,1.6133,0.01783,0.01039,-0.0725
11,1.6234,0.01795,0.01054,-0.0724
11.1,1.6335,0.01807,0.01068,-0.0723
11.2,1.6435,0.0182,0.01082,-0.0722
11.3,1.6533,0.01834,0.01096,-0.0722
11.4,1.6631,0.01848,0.01111,-0.072
11.5,1.6728,0.01863,0.01127,-0.0719
11.6,1.6824,0.01878,0.01143,-0.0718
11.7,1.692,0.01894,0.01159,-0.0717
11.8,1.7014,0.01911,0.01176,-0.0715
11.9,1.7107,0.01929,0.01194,-0.0714
12,1.7199,0.01947,0.01212,-0.0712
12.1,1.7296,0.0196,0.01228,-0.0711
12.2,1.7391,0.01974,0.01245,-0.0709
12.3,1.7485,0.01989,0.01262,-0.0708
12.4,1.7578,0.02004,0.01279,-0.0706
12.5,1.7669,0.02021,0.01295,-0.0704
12.6,1.7759,0.02037,0.01313,-0.0702
12.7,1.7849,0.02055,0.01332,-0.07
12.8,1.7937,0.02073,0.01351,-0.0698
12.9,1.8024,0.02092,0.0137,-0.0696
13,1.8109,0.02112,0.0139,-0.0693
13.1,1.8192,0.02133,0.01412,-0.069
13.2,1.8279,0.0215,0.01432,-0.0688
13.3,1.8367,0.02166,0.0145,-0.0685
13.4,1.8453,0.02182,0.01469,-0.0683
13.5,1.8537,0.02199,0.0149,-0.068
13.6,1.8618,0.02218,0.01509,-0.0677
13.7,1.8699,0.02237,0.01529,-0.0674
13.8,1.8777,0.02256,0.0155,-0.067
13.9,1.8854,0.02277,0.01572,-0.0666
14,1.8929,0.02298,0.01594,-0.0662
14.1,1.8995,0.02324,0.01619,-0.0658
14.2,1.9063,0.02348,0.01644,-0.0653
14.3,1.9135,0.02368,0.01667,-0.0648
14.4,1.9208,0.02387,0.01689,-0.0644
14.5,1.9279,0.02406,0.01709,-0.064
14.6,1.9347,0.02427,0.01733,-0.0635
14.7,1.9412,0.02448,0.01757,-0.063
14.8,1.9474,0.02471,0.01781,-0.0624
14.9,1.9526,0.02493,0.01806,-0.0616
15,1.9571,0.02517,0.01832,-0.0608

