airfoilName st9.dat
Re 	710000
M 	0
N 	4.500000e+00
VACC 	0 VACCflag 1
XTR 	1.00 	1.00 XTRflag 0
alpha,cl,cd,cdp,cm
-12.9,-1.017,0.03266,0.0294,-0.0614
-12.8,-1.0092,0.03133,0.02795,-0.0627
-12.7,-1.0013,0.03027,0.02679,-0.0636
-12.6,-0.9931,0.02935,0.02578,-0.0643
-12.5,-0.9848,0.02853,0.02487,-0.0648
-12.4,-0.9762,0.02779,0.02406,-0.0652
-12.3,-0.9674,0.02712,0.02331,-0.0655
-12.2,-0.9584,0.02648,0.0226,-0.0658
-12.1,-0.9493,0.02588,0.02194,-0.066
-12,-0.94,0.02532,0.02131,-0.0662
-11.9,-0.9306,0.0248,0.02072,-0.0664
-11.8,-0.9211,0.0243,0.02016,-0.0666
-11.7,-0.9114,0.02382,0.01962,-0.0667
-11.6,-0.9017,0.02336,0.01911,-0.0668
-11.5,-0.8918,0.02291,0.01861,-0.067
-11.4,-0.8819,0.0225,0.01813,-0.0671
-11.3,-0.8719,0.02208,0.01767,-0.0671
-11.2,-0.8618,0.0217,0.01724,-0.0672
-11.1,-0.8516,0.02131,0.0168,-0.0673
-11,-0.8414,0.02094,0.01638,-0.0674
-10.9,-0.8312,0.02059,0.01598,-0.0674
-10.8,-0.8209,0.02024,0.01558,-0.0674
-10.7,-0.8105,0.0199,0.0152,-0.0675
-10.6,-0.8001,0.01957,0.01483,-0.0675
-10.5,-0.7897,0.01925,0.01446,-0.0675
-10.2,-0.7522,0.01828,0.01335,-0.0689
-10.1,-0.7393,0.01797,0.013,-0.0694
-10,-0.7272,0.01768,0.01265,-0.0697
-9.9,-0.7149,0.01739,0.01232,-0.0701
-9.8,-0.7025,0.01711,0.012,-0.0704
-9.7,-0.6906,0.01685,0.01169,-0.0707
-9.6,-0.6786,0.01658,0.01139,-0.0709
-9.5,-0.6661,0.01633,0.01109,-0.0713
-9.4,-0.654,0.01609,0.01081,-0.0715
-9.3,-0.6424,0.01586,0.01055,-0.0717
-9.2,-0.6305,0.01564,0.01028,-0.0719
-9.1,-0.6187,0.01543,0.01003,-0.072
-9,-0.6068,0.01524,0.0098,-0.0722
-8.9,-0.5953,0.01505,0.00957,-0.0722
-8.8,-0.5839,0.01488,0.00936,-0.0723
-8.7,-0.5725,0.01471,0.00916,-0.0723
-8.6,-0.5611,0.01457,0.00898,-0.0723
-8.5,-0.5497,0.01443,0.00881,-0.0723
-8.4,-0.5388,0.01411,0.00846,-0.0723
-8.3,-0.5276,0.01385,0.00817,-0.0723
-8.2,-0.5164,0.01364,0.00793,-0.0723
-8.1,-0.5052,0.01346,0.00772,-0.0723
-8,-0.4941,0.01329,0.00753,-0.0723
-7.9,-0.4827,0.01314,0.00735,-0.0723
-7.8,-0.4714,0.01299,0.00718,-0.0723
-7.7,-0.4601,0.01285,0.00702,-0.0722
-7.6,-0.4491,0.01273,0.00687,-0.0721
-7.5,-0.4376,0.0126,0.00671,-0.0722
-7.4,-0.4261,0.01247,0.00656,-0.0722
-7.3,-0.4147,0.01235,0.00641,-0.0721
-7.2,-0.4037,0.01224,0.00627,-0.072
-7.1,-0.3921,0.01211,0.00612,-0.0721
-7,-0.3806,0.012,0.00598,-0.0721
-6.9,-0.3691,0.01188,0.00584,-0.0721
-6.8,-0.3579,0.01179,0.00571,-0.072
-6.7,-0.3462,0.01168,0.00558,-0.072
-6.6,-0.3346,0.01158,0.00545,-0.072
-6.5,-0.3231,0.01148,0.00532,-0.0721
-6.4,-0.3115,0.0114,0.00521,-0.072
-6.3,-0.3001,0.01129,0.00507,-0.072
-6.2,-0.2884,0.01116,0.00493,-0.0721
-6.1,-0.2768,0.01106,0.00481,-0.0721
-6,-0.2653,0.01097,0.0047,-0.0721
-5.9,-0.2535,0.01088,0.0046,-0.0722
-5.8,-0.242,0.0108,0.0045,-0.0721
-5.7,-0.2304,0.01073,0.0044,-0.0722
-5.6,-0.2186,0.01065,0.0043,-0.0722
-5.5,-0.2069,0.01057,0.00421,-0.0723
-5.4,-0.1951,0.0105,0.00412,-0.0723
-5.3,-0.1834,0.01044,0.00402,-0.0723
-5.2,-0.1718,0.01039,0.00393,-0.0723
-5.1,-0.16,0.0103,0.00384,-0.0724
-5,-0.1483,0.01023,0.00375,-0.0724
-4.9,-0.1366,0.01016,0.00367,-0.0725
-4.8,-0.1247,0.0101,0.0036,-0.0725
-4.7,-0.1129,0.01003,0.00352,-0.0726
-4.6,-0.1014,0.01,0.00345,-0.0726
-4.5,-0.0895,0.00994,0.00338,-0.0727
-4.4,-0.0777,0.00989,0.00331,-0.0727
-4.3,-0.0658,0.00984,0.00324,-0.0728
-4.2,-0.0542,0.00977,0.0032,-0.0729
-4.1,-0.0423,0.00972,0.00313,-0.0729
-4,-0.0304,0.00967,0.00307,-0.073
-3.9,-0.0188,0.00965,0.00301,-0.073
-3.8,-0.0071,0.00962,0.00294,-0.073
-3.7,0.0045,0.00959,0.00288,-0.0731
-3.6,0.0161,0.00957,0.00283,-0.0731
-3.5,0.0279,0.00953,0.00279,-0.0732
-3.4,0.0396,0.00952,0.00274,-0.0732
-3.3,0.0514,0.00949,0.00269,-0.0732
-3.2,0.0631,0.00946,0.00264,-0.0733
-3.1,0.0749,0.00943,0.00259,-0.0734
-3,0.0865,0.00943,0.00255,-0.0734
-2.9,0.0984,0.0094,0.00251,-0.0735
-2.8,0.11,0.0094,0.00247,-0.0735
-2.7,0.1218,0.00937,0.00243,-0.0736
-2.6,0.1336,0.00935,0.0024,-0.0737
-2.5,0.1454,0.00934,0.00236,-0.0737
-2.4,0.1568,0.00938,0.00234,-0.0737
-2.3,0.1685,0.00937,0.00231,-0.0738
-2.2,0.1804,0.00934,0.00228,-0.0739
-2.1,0.1921,0.00932,0.00226,-0.074
-2,0.2039,0.00931,0.00224,-0.0741
-1.9,0.2158,0.00929,0.00221,-0.0742
-1.8,0.2275,0.00928,0.00219,-0.0743
-1.7,0.2389,0.00934,0.00218,-0.0743
-1.6,0.2508,0.0093,0.00217,-0.0744
-1.5,0.2624,0.00931,0.00216,-0.0745
-1.4,0.2742,0.00929,0.00215,-0.0746
-1.3,0.286,0.00928,0.00213,-0.0747
-1.2,0.2977,0.00926,0.00213,-0.0748
-1.1,0.3092,0.0093,0.00212,-0.0749
-1,0.321,0.00929,0.00212,-0.075
-0.9,0.3327,0.00929,0.00212,-0.0751
-0.8,0.3445,0.00928,0.00212,-0.0752
-0.7,0.3562,0.00925,0.00211,-0.0753
-0.6,0.368,0.00925,0.00212,-0.0754
-0.5,0.3798,0.00925,0.00212,-0.0755
-0.3,0.4029,0.00927,0.00214,-0.0757
-0.2,0.4147,0.00928,0.00214,-0.0758
0,0.4381,0.00927,0.00216,-0.076
0.1,0.4498,0.00927,0.00217,-0.0761
0.2,0.4615,0.00929,0.00219,-0.0763
0.3,0.4731,0.00925,0.0022,-0.0764
0.4,0.4848,0.00926,0.00221,-0.0765
0.5,0.4961,0.00933,0.00224,-0.0766
0.6,0.5077,0.00928,0.00226,-0.0767
0.7,0.5193,0.0093,0.00229,-0.0768
0.8,0.5309,0.00931,0.00231,-0.0769
0.9,0.5424,0.00925,0.00234,-0.0771
1,0.5539,0.00926,0.00237,-0.0772
1.1,0.5654,0.00925,0.0024,-0.0773
1.2,0.5766,0.00911,0.00243,-0.0775
1.5,0.605,0.00877,0.0026,-0.0764
1.6,0.6131,0.00875,0.00262,-0.0756
1.7,0.6211,0.00872,0.00262,-0.0747
1.8,0.6343,0.00873,0.00258,-0.0751
1.9,0.6458,0.00883,0.00262,-0.0752
2,0.6572,0.00892,0.00267,-0.0752
2.1,0.6688,0.009,0.00271,-0.0753
2.2,0.6803,0.00909,0.00276,-0.0754
2.3,0.6918,0.00918,0.00281,-0.0755
2.4,0.7034,0.00924,0.00285,-0.0755
2.5,0.7147,0.00936,0.00291,-0.0756
2.6,0.7263,0.00944,0.00296,-0.0757
2.7,0.7379,0.0095,0.003,-0.0757
2.8,0.7495,0.00957,0.00304,-0.0758
2.9,0.761,0.00964,0.00309,-0.0759
3,0.7725,0.00972,0.00314,-0.076
3.1,0.784,0.00979,0.0032,-0.076
3.2,0.7956,0.00985,0.00324,-0.0761
3.3,0.8072,0.00992,0.00329,-0.0762
3.4,0.8187,0.00998,0.00333,-0.0763
3.5,0.8299,0.0101,0.00339,-0.0763
3.6,0.8415,0.01016,0.00345,-0.0764
3.7,0.853,0.01022,0.0035,-0.0765
3.8,0.8645,0.01029,0.00355,-0.0765
3.9,0.876,0.01036,0.0036,-0.0766
4,0.8874,0.01043,0.00366,-0.0767
4.1,0.8988,0.01051,0.00371,-0.0767
4.2,0.9102,0.01059,0.00378,-0.0768
4.3,0.9217,0.01065,0.00383,-0.0768
4.4,0.9331,0.01073,0.00388,-0.0769
4.5,0.9445,0.0108,0.00394,-0.077
4.6,0.9558,0.01088,0.004,-0.077
4.7,0.9671,0.01097,0.00407,-0.0771
4.8,0.9784,0.01105,0.00414,-0.0771
4.9,0.9899,0.01111,0.0042,-0.0772
5,1.0012,0.01118,0.00425,-0.0773
5.1,1.0126,0.01125,0.00432,-0.0773
5.2,1.0239,0.01133,0.00438,-0.0774
5.3,1.0352,0.0114,0.00444,-0.0774
5.4,1.0464,0.01149,0.00451,-0.0775
5.5,1.0576,0.01158,0.00458,-0.0775
5.6,1.0688,0.01167,0.00466,-0.0776
5.7,1.0801,0.01174,0.00473,-0.0776
5.8,1.0914,0.01182,0.0048,-0.0777
5.9,1.1026,0.01189,0.00487,-0.0777
6,1.1137,0.01198,0.00494,-0.0778
6.1,1.1249,0.01207,0.00501,-0.0778
6.2,1.1359,0.01217,0.00509,-0.0778
6.3,1.147,0.01226,0.00518,-0.0779
6.4,1.1582,0.01233,0.00526,-0.0779
6.5,1.1694,0.01241,0.00533,-0.0779
6.6,1.1805,0.01249,0.00541,-0.078
6.7,1.1915,0.01259,0.00549,-0.078
6.8,1.2025,0.01268,0.00557,-0.078
6.9,1.2134,0.01278,0.00566,-0.078
7,1.2244,0.01289,0.00575,-0.0781
7.1,1.2353,0.01298,0.00584,-0.0781
7.2,1.2464,0.01306,0.00592,-0.0781
7.3,1.2574,0.01314,0.00601,-0.0781
7.4,1.2684,0.01323,0.0061,-0.0782
7.5,1.2793,0.01332,0.00619,-0.0782
7.6,1.2902,0.01341,0.00628,-0.0782
7.7,1.301,0.01351,0.00637,-0.0782
7.8,1.3115,0.01365,0.00648,-0.0782
7.9,1.3223,0.01376,0.00659,-0.0782
8,1.3332,0.01385,0.00668,-0.0782
8.1,1.344,0.01394,0.00677,-0.0782
8.2,1.3548,0.01403,0.00687,-0.0782
8.3,1.3655,0.01413,0.00697,-0.0782
8.4,1.3762,0.01423,0.00707,-0.0782
8.5,1.3869,0.01434,0.00718,-0.0782
8.6,1.3975,0.01445,0.00728,-0.0781
8.7,1.408,0.01457,0.00739,-0.0781
8.8,1.4184,0.01469,0.00751,-0.0781
8.9,1.4289,0.01481,0.00763,-0.078
9,1.4395,0.01491,0.00773,-0.078
9.1,1.4501,0.01501,0.00784,-0.078
9.2,1.4606,0.01512,0.00796,-0.078
9.3,1.471,0.01523,0.00807,-0.0779
9.4,1.4814,0.01535,0.00819,-0.0779
9.5,1.4917,0.01547,0.00831,-0.0778
9.6,1.502,0.0156,0.00844,-0.0778
9.7,1.5121,0.01574,0.00857,-0.0777
9.8,1.5222,0.01588,0.00871,-0.0776
9.9,1.5326,0.01598,0.00883,-0.0776
10,1.5429,0.01609,0.00895,-0.0775
10.1,1.5531,0.01621,0.00907,-0.0775
10.2,1.5632,0.01634,0.00919,-0.0774
10.3,1.5733,0.01646,0.00933,-0.0773
10.4,1.5833,0.0166,0.00947,-0.0772
10.5,1.5932,0.01674,0.00961,-0.0771
10.6,1.603,0.01688,0.00975,-0.077
10.7,1.6127,0.01704,0.0099,-0.0769
10.8,1.6225,0.01719,0.01006,-0.0768
10.9,1.6325,0.01731,0.0102,-0.0767
11,1.6424,0.01743,0.01033,-0.0766
11.1,1.6522,0.01756,0.01047,-0.0764
11.2,1.6619,0.01769,0.01062,-0.0763
11.3,1.6716,0.01783,0.01077,-0.0762
11.4,1.6812,0.01797,0.01092,-0.076
11.5,1.6904,0.01815,0.01109,-0.0759
11.6,1.6997,0.01831,0.01125,-0.0757
11.7,1.7089,0.01848,0.01142,-0.0755
11.8,1.718,0.01866,0.0116,-0.0753
11.9,1.7273,0.01881,0.01177,-0.0751
12,1.7367,0.01894,0.01193,-0.075
12.1,1.7459,0.01909,0.01208,-0.0748
12.2,1.755,0.01925,0.01225,-0.0746
12.3,1.764,0.01941,0.01242,-0.0744
12.4,1.7729,0.01957,0.0126,-0.0741
12.5,1.7811,0.01979,0.01279,-0.0738
12.6,1.7896,0.01998,0.01299,-0.0736
12.7,1.798,0.02018,0.01319,-0.0733
12.8,1.8065,0.02035,0.01339,-0.073
12.9,1.8151,0.02051,0.01357,-0.0727
13,1.8235,0.02068,0.01375,-0.0724
13.1,1.8318,0.02085,0.01394,-0.0721
13.2,1.8399,0.02103,0.01414,-0.0718
13.3,1.8478,0.02122,0.01434,-0.0714
13.4,1.8556,0.02141,0.01454,-0.071
13.5,1.8632,0.02162,0.01475,-0.0706
13.6,1.8705,0.02183,0.01497,-0.0702
13.7,1.8775,0.02205,0.0152,-0.0697
13.8,1.8843,0.02228,0.01544,-0.0692
13.9,1.8913,0.02248,0.01567,-0.0687
14,1.8985,0.02267,0.01588,-0.0682
14.1,1.9054,0.02286,0.0161,-0.0677
14.2,1.9121,0.02307,0.01633,-0.0672
14.3,1.9184,0.02327,0.01656,-0.0666
14.4,1.9236,0.02349,0.0168,-0.0658
14.5,1.9284,0.02372,0.01705,-0.0649
14.6,1.9311,0.02407,0.01737,-0.0639
14.7,1.9353,0.02435,0.01767,-0.063
14.8,1.9393,0.02464,0.01797,-0.0621
14.9,1.9434,0.02494,0.0183,-0.0613
15,1.9485,0.02519,0.01858,-0.0606
15.1,1.9534,0.02545,0.01888,-0.0599
15.2,1.9582,0.02573,0.01918,-0.0593
15.3,1.963,0.02601,0.01949,-0.0587
15.4,1.9677,0.02631,0.01982,-0.0581
15.5,1.9722,0.02662,0.02015,-0.0575
15.6,1.9767,0.02694,0.0205,-0.0569
15.7,1.9809,0.02727,0.02086,-0.0563
15.8,1.9851,0.02762,0.02123,-0.0558
15.9,1.9891,0.02799,0.02162,-0.0552
16,1.9917,0.02847,0.0221,-0.0547
16.1,1.9952,0.02889,0.02253,-0.0542
16.2,1.9996,0.02926,0.02295,-0.0538
16.3,2.0039,0.02962,0.02335,-0.0534
16.4,2.0082,0.03,0.02377,-0.0531
16.5,2.0123,0.0304,0.0242,-0.0528
16.6,2.0157,0.03086,0.02468,-0.0525
16.7,2.0195,0.03131,0.02515,-0.0522
16.8,2.0231,0.03177,0.02564,-0.052
16.9,2.0267,0.03225,0.02615,-0.0519
17,2.0301,0.03276,0.02668,-0.0518
17.1,2.0334,0.03329,0.02724,-0.0517
17.2,2.0365,0.03386,0.02783,-0.0517
17.3,2.0402,0.03437,0.02839,-0.0518
17.4,2.0443,0.03487,0.02893,-0.0519
17.5,2.0483,0.03538,0.02948,-0.052
17.6,2.0522,0.03592,0.03005,-0.0522
17.7,2.056,0.03647,0.03064,-0.0524
17.8,2.0598,0.03704,0.03124,-0.0527
17.9,2.0634,0.03765,0.03188,-0.0531
18,2.0669,0.03828,0.03254,-0.0536
18.1,2.0704,0.03894,0.03323,-0.0541
18.2,2.0736,0.03964,0.03397,-0.0548
18.3,2.0767,0.04038,0.03473,-0.0555
18.4,2.0795,0.04117,0.03557,-0.0563
18.5,2.0833,0.04187,0.03631,-0.0571
18.6,2.0871,0.04259,0.03707,-0.058
18.7,2.0906,0.04336,0.03787,-0.059
18.8,2.0939,0.04418,0.03872,-0.0601
18.9,2.0938,0.04549,0.04006,-0.0619
19,2.0973,0.04635,0.04096,-0.0632
19.1,2.1005,0.04725,0.0419,-0.0646
19.2,2.1034,0.04823,0.04292,-0.0661
19.3,2.1061,0.04926,0.04399,-0.0678
19.4,2.1083,0.05039,0.04516,-0.0696
19.6,2.1092,0.05334,0.04821,-0.0745
19.7,2.1103,0.05476,0.04967,-0.0768
19.8,2.1105,0.05636,0.05132,-0.0795
19.9,2.1102,0.05813,0.05317,-0.0824
20,2.1101,0.05987,0.05497,-0.0853
20.1,2.1093,0.06176,0.05692,-0.0883
20.2,2.1077,0.06386,0.05909,-0.0917
20.3,2.1046,0.06632,0.06166,-0.0955
20.4,2.101,0.06891,0.06434,-0.0995
20.5,2.0969,0.07167,0.06719,-0.1036
20.6,2.0925,0.07453,0.07013,-0.1077
20.7,2.0861,0.07788,0.0736,-0.1124
20.8,2.0788,0.08148,0.07732,-0.1173
20.9,2.0699,0.08551,0.08147,-0.1226
21,2.061,0.08955,0.08565,-0.1278
21.1,2.051,0.09384,0.09007,-0.1332
21.2,2.041,0.098,0.09436,-0.1385
21.3,2.0303,0.10222,0.09871,-0.144
21.4,2.0204,0.10622,0.10282,-0.1492
21.5,2.0108,0.11012,0.10683,-0.1545
21.6,2.0018,0.11384,0.11066,-0.1595
21.7,1.9947,0.11707,0.11396,-0.1641
21.8,1.9856,0.12092,0.11791,-0.1693
21.9,1.9784,0.12432,0.12139,-0.1739
22,1.9714,0.1278,0.12498,-0.1785
22.1,1.9655,0.1311,0.12834,-0.1828
22.2,1.9602,0.13436,0.13167,-0.1869
22.3,1.9566,0.13718,0.13454,-0.1905
22.4,1.951,0.14076,0.13819,-0.1947
22.5,1.948,0.14354,0.14101,-0.198
22.6,1.9447,0.14645,0.14396,-0.2015
22.7,1.9399,0.15001,0.14758,-0.2054
22.8,1.9374,0.15276,0.15039,-0.2086
22.9,1.936,0.15522,0.15289,-0.2114
23,1.9322,0.1586,0.15633,-0.2151
23.1,1.9308,0.16113,0.1589,-0.2179
23.2,1.9299,0.16347,0.16127,-0.2206
23.3,1.9289,0.16591,0.16374,-0.2233
23.4,1.9257,0.16921,0.1671,-0.2267
23.5,1.9248,0.17165,0.16958,-0.2294
23.6,1.9244,0.17391,0.17186,-0.2319
23.7,1.9241,0.17616,0.17414,-0.2344
23.8,1.9219,0.17919,0.17722,-0.2375
23.9,1.9208,0.18183,0.1799,-0.2403
24,1.9206,0.1841,0.18219,-0.2428
24.1,1.9205,0.1863,0.18442,-0.2452
24.2,1.9205,0.18854,0.18668,-0.2476
24.3,1.9189,0.19153,0.18971,-0.2507
24.4,1.918,0.19423,0.19245,-0.2535
24.5,1.9181,0.1965,0.19474,-0.2559
24.6,1.9183,0.19869,0.19696,-0.2583
24.7,1.9185,0.20095,0.19923,-0.2607
24.8,1.9187,0.20324,0.20155,-0.2632
24.9,1.9177,0.20618,0.20454,-0.2662
25,1.9183,0.2083,0.20668,-0.2684
25.1,1.9193,0.21021,0.20861,-0.2705
25.2,1.9205,0.21204,0.21046,-0.2726
25.3,1.9218,0.21384,0.21228,-0.2746
25.4,1.923,0.21566,0.21412,-0.2766
25.5,1.9242,0.21749,0.21597,-0.2787
25.6,1.9254,0.21936,0.21787,-0.2808
25.7,1.9258,0.22165,0.22018,-0.2832
25.8,1.9264,0.22393,0.22248,-0.2856
25.9,1.9276,0.22578,0.22436,-0.2877
26,1.929,0.22757,0.22616,-0.2897
26.1,1.9304,0.2293,0.22791,-0.2917
26.2,1.9319,0.23099,0.22961,-0.2936
26.3,1.9333,0.2327,0.23133,-0.2956
26.4,1.9349,0.23436,0.23301,-0.2975
26.5,1.9363,0.23606,0.23472,-0.2995
26.6,1.9378,0.23774,0.23642,-0.3015
26.7,1.9393,0.23946,0.23815,-0.3035
26.8,1.9406,0.24126,0.23996,-0.3055
26.9,1.9415,0.2434,0.24212,-0.3078
27,1.9428,0.24519,0.24393,-0.3099
27.1,1.9443,0.24689,0.24564,-0.3119
27.2,1.9458,0.24852,0.24728,-0.3138
27.3,1.9474,0.25009,0.24886,-0.3157
27.4,1.9491,0.25163,0.25041,-0.3176
27.5,1.9507,0.25315,0.25193,-0.3195
27.6,1.9524,0.2546,0.25338,-0.3213
27.7,1.9542,0.25601,0.2548,-0.3231
27.8,1.956,0.25736,0.25615,-0.3249
28,1.9597,0.25975,0.25853,-0.3283
28.1,1.9618,0.26079,0.25957,-0.3298
28.2,1.9638,0.26194,0.26071,-0.3314
28.3,1.9652,0.26364,0.26243,-0.3334
28.4,1.9667,0.26525,0.26406,-0.3354
28.5,1.9682,0.26691,0.26574,-0.3373
28.6,1.9697,0.26849,0.26734,-0.3392
28.7,1.9711,0.27019,0.26907,-0.3413
28.8,1.9725,0.27188,0.27078,-0.3433
28.9,1.9738,0.27363,0.27255,-0.3453
29,1.9749,0.2757,0.27464,-0.3476
29.1,1.9762,0.27749,0.27645,-0.3497
29.2,1.9776,0.27917,0.27815,-0.3518
29.3,1.979,0.28079,0.27978,-0.3537
29.4,1.9805,0.28238,0.28139,-0.3557
29.5,1.982,0.28395,0.28298,-0.3577
29.6,1.9835,0.28552,0.28456,-0.3596
29.7,1.985,0.28704,0.28609,-0.3616
29.8,1.9864,0.2886,0.28767,-0.3635
29.9,1.9879,0.29018,0.28926,-0.3655
30,1.9893,0.29171,0.29081,-0.3675

