airfoilName st9.dat
Re 	50000
M 	0
N 	4.500000e+00
VACC 	0 VACCflag 1
XTR 	1.00 	1.00 XTRflag 0
alpha,cl,cd,cdp,cm
-11.6,-0.8401,0.1033,0.09614,0.0066
-11.5,-0.8344,0.10227,0.09512,0.0057
-11.4,-0.8286,0.10124,0.09411,0.0048
-11.3,-0.8227,0.10022,0.0931,0.0039
-11.1,-0.8115,0.099,0.0919,0.0026
-11,-0.8049,0.09794,0.09085,0.0014
-10.9,-0.7981,0.09687,0.08979,0.0002
-10.8,-0.7913,0.0958,0.08873,-0.0011
-10.7,-0.7842,0.09472,0.08765,-0.0024
-10.6,-0.7771,0.09363,0.08657,-0.0038
-10.5,-0.7696,0.09252,0.08547,-0.0053
-10.4,-0.7618,0.09137,0.0843,-0.0069
-6.1,-0.3569,0.03293,0.02238,-0.0605
-6,-0.3477,0.0324,0.02181,-0.0603
-5.9,-0.3384,0.03211,0.02138,-0.0603
-5.7,-0.3175,0.03063,0.01927,-0.0602
-5.6,-0.3085,0.03007,0.01884,-0.06
-5.5,-0.2994,0.02962,0.01846,-0.0598
-5.4,-0.2902,0.02921,0.01809,-0.0597
-5.3,-0.2808,0.0288,0.01768,-0.0595
-5.2,-0.2711,0.02837,0.01723,-0.0594
-5.1,-0.2613,0.02792,0.01671,-0.0593
-5,-0.2512,0.02744,0.01612,-0.0591
-4.9,-0.2406,0.02695,0.01539,-0.059
-4.7,-0.2219,0.0264,0.01499,-0.0589
-4.6,-0.2119,0.02603,0.01461,-0.0588
-4.5,-0.2017,0.02565,0.01417,-0.0587
-4.2,-0.169,0.02448,0.01291,-0.0588
-4.1,-0.1545,0.02411,0.01257,-0.0596
-4,-0.1392,0.02394,0.01219,-0.0605
-3.9,-0.125,0.02354,0.01192,-0.0612
-3.8,-0.1087,0.02318,0.01159,-0.0623
-3.7,-0.0941,0.02284,0.01116,-0.063
-3.6,-0.0796,0.0225,0.01083,-0.0637
-3.5,-0.0652,0.02219,0.01057,-0.0645
-3.3,-0.0338,0.02168,0.01009,-0.0666
-3.2,-0.0197,0.02139,0.00978,-0.0671
-3.1,-0.0056,0.0211,0.00955,-0.0678
-3,0.0088,0.02089,0.00942,-0.0687
-2.9,0.0253,0.02062,0.00916,-0.0698
-2.8,0.0406,0.02038,0.00891,-0.0706
-2.7,0.0543,0.02016,0.00879,-0.0713
-2.6,0.068,0.01992,0.00858,-0.0719
-2.5,0.0835,0.01968,0.00837,-0.0728
-2.4,0.098,0.01943,0.00824,-0.0736
-2.3,0.1132,0.0192,0.00805,-0.0745
-2.2,0.1285,0.01899,0.00786,-0.0754
-2.1,0.1409,0.01867,0.00771,-0.0757
-2,0.1548,0.01844,0.00756,-0.0763
-1.9,0.1691,0.01821,0.00739,-0.077
-1.8,0.1825,0.01782,0.00724,-0.0775
-1.7,0.1965,0.01752,0.0071,-0.078
-1.6,0.2048,0.01698,0.00691,-0.0772
-1.5,0.2135,0.01654,0.00678,-0.0763
-1.4,0.23,0.01611,0.00634,-0.0755
-1.3,0.2459,0.01615,0.00627,-0.0763
-1.2,0.258,0.01617,0.00619,-0.0763
-1.1,0.2724,0.01621,0.00612,-0.0768
-1,0.2875,0.01624,0.00606,-0.0775
-0.9,0.3011,0.01627,0.00601,-0.0778
-0.8,0.3136,0.0163,0.00596,-0.0779
-0.7,0.328,0.01633,0.00591,-0.0784
-0.6,0.3426,0.01636,0.00586,-0.079
-0.5,0.3536,0.0164,0.00585,-0.0789
-0.4,0.3675,0.01642,0.0058,-0.0792
-0.3,0.3817,0.01645,0.00576,-0.0796
-0.2,0.3926,0.01649,0.00576,-0.0795
0,0.4189,0.01655,0.0057,-0.0799
0.1,0.4305,0.01659,0.0057,-0.0799
0.2,0.4438,0.01662,0.00569,-0.0802
0.3,0.4554,0.01665,0.00568,-0.08
0.4,0.4677,0.01669,0.00568,-0.0801
0.5,0.4811,0.01672,0.00566,-0.0804
0.6,0.4915,0.01676,0.00565,-0.0799
0.7,0.5022,0.01679,0.00562,-0.0793
0.8,0.5144,0.01682,0.0056,-0.0792
0.9,0.5256,0.01686,0.00559,-0.0788
1,0.536,0.01691,0.00559,-0.0784
1.1,0.548,0.01696,0.0056,-0.0783
1.2,0.559,0.01702,0.00564,-0.0782
1.3,0.5714,0.01706,0.00564,-0.0782
1.6,0.6043,0.01725,0.00573,-0.0774
1.7,0.6156,0.01731,0.00577,-0.0772
1.8,0.6271,0.01737,0.0058,-0.0771
1.9,0.6375,0.01744,0.00582,-0.0766
2,0.6486,0.01752,0.00587,-0.0764
2.1,0.6599,0.01759,0.00592,-0.0762
2.2,0.6707,0.01767,0.00598,-0.076
2.3,0.6821,0.01775,0.00602,-0.0758
2.4,0.6927,0.01784,0.00609,-0.0756
2.5,0.7029,0.01794,0.00613,-0.0751
2.6,0.7139,0.01804,0.00619,-0.0748
4.5,0.9116,0.0209,0.00828,-0.0696
4.6,0.9209,0.02114,0.00843,-0.0692
4.8,0.9413,0.02153,0.00876,-0.0688
4.9,0.9514,0.02174,0.00894,-0.0686
5,0.9615,0.02194,0.00913,-0.0685
5.1,0.9715,0.02217,0.0093,-0.0682
5.2,0.9816,0.02239,0.00951,-0.0681
5.3,0.9915,0.02263,0.00969,-0.0678
5.4,1.0006,0.0229,0.00988,-0.0675
5.5,1.0105,0.02314,0.0101,-0.0673
5.6,1.0204,0.02338,0.01031,-0.0672
5.7,1.0302,0.02364,0.01054,-0.067
5.8,1.0402,0.02389,0.01077,-0.0668
5.9,1.0498,0.02416,0.01103,-0.0666
6,1.0599,0.02441,0.01127,-0.0665
6.1,1.0698,0.02468,0.01152,-0.0663
6.2,1.0786,0.02497,0.01173,-0.066
6.3,1.0885,0.02524,0.01199,-0.0659
6.4,1.0981,0.02553,0.01223,-0.0657
6.5,1.108,0.02581,0.01249,-0.0656
6.6,1.1179,0.02608,0.01278,-0.0654
6.7,1.1276,0.02638,0.01305,-0.0653
6.8,1.1372,0.02671,0.01333,-0.0651
6.9,1.1471,0.02698,0.01364,-0.065
7,1.157,0.02728,0.01394,-0.0649
7.1,1.1667,0.0276,0.01424,-0.0647
7.2,1.1753,0.02793,0.01448,-0.0645
7.3,1.1851,0.02823,0.01481,-0.0644
7.4,1.1949,0.02855,0.01513,-0.0642
7.5,1.2046,0.0289,0.01544,-0.0641
7.6,1.2144,0.02927,0.01571,-0.064
7.8,1.2338,0.0299,0.0165,-0.0638
7.9,1.2435,0.03024,0.01686,-0.0637
8,1.2533,0.03061,0.0172,-0.0636
8.1,1.2616,0.03095,0.01748,-0.0633
8.2,1.2711,0.03128,0.01789,-0.0632
8.3,1.2806,0.03163,0.01828,-0.0631
8.4,1.2903,0.032,0.01865,-0.063
8.5,1.3,0.03238,0.019,-0.0629
8.6,1.31,0.03278,0.01935,-0.0628
8.7,1.319,0.03313,0.01981,-0.0627
8.8,1.3281,0.03349,0.02027,-0.0625
8.9,1.3374,0.03387,0.0207,-0.0624
9,1.3468,0.03425,0.02111,-0.0623
9.2,1.3645,0.03497,0.02174,-0.0619
9.3,1.3729,0.03535,0.02226,-0.0617
9.4,1.3817,0.03574,0.02275,-0.0615
9.5,1.3907,0.03614,0.0232,-0.0614
9.6,1.3999,0.03654,0.02362,-0.0612
9.7,1.4094,0.03695,0.02401,-0.0611
9.8,1.4193,0.03737,0.02442,-0.0611
9.9,1.428,0.0378,0.02488,-0.0609
10,1.4355,0.03824,0.02549,-0.0606
10.1,1.4436,0.03868,0.02604,-0.0604
10.3,1.4593,0.03936,0.02678,-0.0599
10.4,1.4687,0.03978,0.02718,-0.0598
10.5,1.4787,0.04021,0.02756,-0.0598
10.6,1.485,0.0407,0.0282,-0.0594
10.7,1.4918,0.0412,0.02886,-0.059
10.8,1.4992,0.04169,0.02946,-0.0588
10.9,1.5071,0.04216,0.03001,-0.0585
11,1.5153,0.04261,0.03054,-0.0584
11.1,1.524,0.04306,0.031,-0.0582
11.2,1.5331,0.0435,0.03143,-0.0581
11.3,1.543,0.04394,0.03183,-0.0581
11.5,1.5498,0.04492,0.03318,-0.0568
11.6,1.5564,0.04545,0.03381,-0.0565
11.7,1.5635,0.04596,0.03439,-0.0562
11.8,1.5711,0.04644,0.03491,-0.056
11.9,1.5792,0.04689,0.03538,-0.0558
12,1.5881,0.04734,0.03582,-0.0557
12.1,1.5978,0.04778,0.03621,-0.0557
12.2,1.603,0.04839,0.0369,-0.0553
12.3,1.6047,0.04915,0.03791,-0.0546
12.5,1.613,0.05049,0.03958,-0.0537
12.6,1.6183,0.0511,0.04028,-0.0533
12.8,1.6298,0.05173,0.04094,-0.0525
12.9,1.6382,0.05218,0.04137,-0.0524
13,1.6478,0.0526,0.04176,-0.0524
13.1,1.6507,0.05332,0.04256,-0.0518
13.2,1.6482,0.05427,0.04377,-0.051
13.3,1.648,0.05514,0.04483,-0.0503
13.4,1.6491,0.05594,0.04577,-0.0497
13.5,1.6513,0.05668,0.04662,-0.0492
13.6,1.6544,0.05736,0.04738,-0.0488
13.7,1.6583,0.05798,0.04807,-0.0484
13.8,1.6632,0.05856,0.04869,-0.0481
13.9,1.6691,0.05908,0.04924,-0.0478
14,1.6764,0.05956,0.04973,-0.0477
14.1,1.6858,0.05999,0.05013,-0.0476
14.4,1.6607,0.06283,0.05344,-0.0449
14.5,1.656,0.06397,0.05474,-0.0447
14.6,1.6531,0.06505,0.05599,-0.0447
14.7,1.6517,0.06605,0.0571,-0.0448
14.8,1.652,0.06696,0.0581,-0.045
14.9,1.6538,0.06777,0.05899,-0.0452
15,1.657,0.06848,0.05975,-0.0453
15.1,1.6617,0.06908,0.06038,-0.0453
15.2,1.6679,0.06957,0.06089,-0.0452
15.3,1.6758,0.06996,0.06127,-0.045
15.4,1.6863,0.07021,0.06147,-0.0446
15.6,1.672,0.07336,0.06492,-0.0471
15.8,1.6393,0.07947,0.07162,-0.0564
15.9,1.6318,0.08217,0.0745,-0.0611
16,1.6299,0.08415,0.0766,-0.0645
16.1,1.6315,0.0855,0.07803,-0.0665
16.2,1.6354,0.0864,0.07898,-0.0675
16.5,1.6613,0.08556,0.07808,-0.0644
16.6,1.6701,0.0855,0.07801,-0.0632
16.7,1.6801,0.08531,0.07778,-0.0615
16.8,1.6193,0.10546,0.09868,-0.1031
16.9,1.6244,0.10596,0.09922,-0.1034
17,1.6298,0.10631,0.0996,-0.1035
17.1,1.6355,0.10655,0.09987,-0.1033
17.2,1.6414,0.10668,0.10002,-0.103
17.3,1.6475,0.10673,0.10009,-0.1024
17.4,1.6538,0.1067,0.10009,-0.1017
17.5,1.6604,0.10661,0.10001,-0.1007
17.6,1.6671,0.10645,0.09988,-0.0996
18.1,1.6577,0.12416,0.11792,-0.1287
18.2,1.663,0.12427,0.11806,-0.1285
18.3,1.6685,0.12433,0.11815,-0.1281
23.5,1.7845,0.21264,0.20815,-0.2479
23.6,1.7872,0.21315,0.2087,-0.2488
23.7,1.7899,0.21358,0.20916,-0.2498
23.8,1.7926,0.21394,0.20956,-0.2506
23.9,1.7953,0.21425,0.20991,-0.2514
24,1.798,0.2145,0.21019,-0.2521

