airfoilName st9.dat
Re 	890000
M 	0
N 	4.500000e+00
VACC 	0 VACCflag 1
XTR 	1.00 	1.00 XTRflag 0
alpha,cl,cd,cdp,cm
-13.1,-1.0375,0.03295,0.02989,-0.0606
-13,-1.0291,0.03166,0.02849,-0.062
-12.9,-1.0205,0.03073,0.02746,-0.0628
-12.8,-1.012,0.02988,0.02653,-0.0635
-12.7,-1.0032,0.02918,0.02575,-0.064
-12.6,-0.9942,0.02856,0.02506,-0.0644
-12.5,-0.9851,0.02795,0.02439,-0.0648
-12.4,-0.9758,0.02742,0.0238,-0.0651
-12.2,-0.9626,0.02483,0.02095,-0.0662
-12.1,-0.9543,0.02399,0.02001,-0.0665
-12,-0.9454,0.02327,0.01922,-0.0667
-11.9,-0.9364,0.0226,0.01846,-0.0669
-11.8,-0.9268,0.02207,0.01788,-0.0671
-11.7,-0.9171,0.02155,0.01729,-0.0672
-11.6,-0.9073,0.02107,0.01676,-0.0673
-11.5,-0.8973,0.02063,0.01626,-0.0674
-11.4,-0.8872,0.0202,0.01577,-0.0675
-11.3,-0.877,0.01981,0.01533,-0.0675
-11.2,-0.8667,0.01944,0.01492,-0.0676
-11.1,-0.8563,0.01909,0.01452,-0.0677
-11,-0.8458,0.01876,0.01416,-0.0677
-10.9,-0.8349,0.01844,0.0138,-0.0678
-10.8,-0.823,0.01812,0.01344,-0.0682
-10.7,-0.8103,0.01782,0.0131,-0.0686
-10.6,-0.7978,0.01752,0.01277,-0.0691
-10.5,-0.7855,0.01724,0.01245,-0.0694
-10.4,-0.7728,0.01697,0.01214,-0.0699
-10.3,-0.7606,0.01671,0.01185,-0.0702
-10.2,-0.7488,0.01647,0.01157,-0.0704
-10.1,-0.7366,0.01623,0.0113,-0.0707
-10,-0.7246,0.016,0.01103,-0.0709
-9.9,-0.7129,0.01577,0.01077,-0.0711
-9.8,-0.7013,0.01556,0.01052,-0.0712
-9.7,-0.6897,0.01535,0.01028,-0.0713
-9.6,-0.6782,0.01515,0.01005,-0.0714
-9.5,-0.6668,0.01495,0.00982,-0.0715
-9.4,-0.6555,0.01476,0.0096,-0.0715
-9.3,-0.6444,0.01458,0.00938,-0.0715
-9.2,-0.6332,0.0144,0.00917,-0.0715
-9.1,-0.6221,0.01422,0.00896,-0.0715
-9,-0.6111,0.01406,0.00876,-0.0714
-8.9,-0.5999,0.01389,0.00856,-0.0714
-8.8,-0.5886,0.01373,0.00837,-0.0714
-8.7,-0.578,0.01358,0.00817,-0.0712
-8.6,-0.5666,0.01342,0.00799,-0.0713
-8.5,-0.5552,0.01327,0.0078,-0.0713
-8.4,-0.5439,0.01312,0.00763,-0.0713
-8.3,-0.533,0.013,0.00747,-0.0711
-8.2,-0.5217,0.01287,0.00731,-0.0711
-8.1,-0.5102,0.01275,0.00716,-0.0711
-8,-0.4987,0.01262,0.007,-0.0711
-7.9,-0.4877,0.01253,0.00687,-0.071
-7.8,-0.4763,0.01241,0.00674,-0.071
-7.7,-0.4648,0.01218,0.00648,-0.0711
-7.6,-0.4533,0.01201,0.00629,-0.0711
-7.5,-0.4421,0.01188,0.00611,-0.0711
-7.4,-0.4307,0.01175,0.00596,-0.071
-7.3,-0.419,0.01163,0.00582,-0.0711
-7.2,-0.4074,0.01151,0.00568,-0.0711
-7.1,-0.3961,0.01141,0.00556,-0.0711
-7,-0.3845,0.01132,0.00543,-0.0711
-6.9,-0.3728,0.01121,0.00531,-0.0711
-6.8,-0.3611,0.01112,0.0052,-0.0712
-6.7,-0.3495,0.01102,0.00508,-0.0712
-6.6,-0.3381,0.01095,0.00497,-0.0712
-6.5,-0.3263,0.01085,0.00486,-0.0712
-6.4,-0.3146,0.01077,0.00476,-0.0713
-6.3,-0.3029,0.01069,0.00464,-0.0713
-6.2,-0.2913,0.01061,0.00454,-0.0713
-6.1,-0.2796,0.01054,0.00444,-0.0714
-6,-0.2678,0.01047,0.00435,-0.0714
-5.9,-0.2561,0.01039,0.00425,-0.0715
-5.8,-0.2443,0.0103,0.00414,-0.0715
-5.7,-0.2325,0.01021,0.00405,-0.0716
-5.6,-0.2207,0.01014,0.00396,-0.0716
-5.5,-0.2092,0.01009,0.00388,-0.0716
-5.4,-0.1973,0.01002,0.0038,-0.0717
-5.3,-0.1855,0.00995,0.00372,-0.0718
-5.2,-0.1737,0.0099,0.00364,-0.0718
-5.1,-0.1619,0.00985,0.00356,-0.0719
-5,-0.15,0.00979,0.00349,-0.072
-4.9,-0.1383,0.00975,0.00342,-0.072
-4.8,-0.1265,0.00969,0.00334,-0.0721
-4.7,-0.1146,0.00962,0.00327,-0.0721
-4.6,-0.1027,0.00956,0.00321,-0.0722
-4.5,-0.0909,0.00951,0.00314,-0.0723
-4.4,-0.0791,0.00947,0.00308,-0.0724
-4.3,-0.0672,0.00942,0.00303,-0.0724
-4.2,-0.0554,0.0094,0.00297,-0.0725
-4.1,-0.0437,0.00938,0.00291,-0.0725
-4,-0.0321,0.00935,0.00285,-0.0725
-3.9,-0.0204,0.00933,0.0028,-0.0726
-3.8,-0.0085,0.00929,0.00275,-0.0727
-3.7,0.0031,0.00928,0.00271,-0.0727
-3.6,0.015,0.00925,0.00266,-0.0728
-3.5,0.0267,0.00923,0.00261,-0.0729
-3.4,0.0386,0.00919,0.00257,-0.0729
-3.3,0.0502,0.00919,0.00253,-0.073
-3.2,0.0621,0.00918,0.00249,-0.0731
-3.1,0.0739,0.00915,0.00244,-0.0731
-3,0.0856,0.00915,0.00241,-0.0732
-2.9,0.0974,0.00913,0.00237,-0.0733
-2.8,0.1093,0.00912,0.00234,-0.0734
-2.7,0.1208,0.00914,0.00231,-0.0734
-2.6,0.1325,0.00914,0.00229,-0.0735
-2.5,0.1444,0.00912,0.00226,-0.0736
-2.4,0.1562,0.00911,0.00224,-0.0737
-2.3,0.1681,0.0091,0.00221,-0.0738
-2.2,0.1799,0.00908,0.00218,-0.0739
-2.1,0.1918,0.00907,0.00216,-0.074
-2,0.2034,0.00908,0.00214,-0.074
-1.9,0.2152,0.00907,0.00213,-0.0741
-1.8,0.227,0.00908,0.00211,-0.0742
-1.7,0.2387,0.00909,0.0021,-0.0743
-1.6,0.2505,0.00908,0.00209,-0.0744
-1.5,0.2623,0.00907,0.00208,-0.0745
-1.4,0.2742,0.00906,0.00207,-0.0746
-1.3,0.2857,0.00909,0.00207,-0.0747
-1.2,0.2975,0.00909,0.00205,-0.0748
-1.1,0.3093,0.00908,0.00205,-0.0749
-1,0.3211,0.00905,0.00205,-0.075
-0.9,0.3329,0.00905,0.00204,-0.0751
-0.8,0.3447,0.00904,0.00204,-0.0752
-0.7,0.3565,0.00904,0.00204,-0.0754
-0.6,0.3683,0.00901,0.00204,-0.0755
-0.5,0.3798,0.00906,0.00205,-0.0756
-0.4,0.3916,0.00906,0.00206,-0.0757
-0.3,0.4033,0.00907,0.00206,-0.0758
-0.2,0.4151,0.00905,0.00207,-0.0759
0,0.4385,0.00908,0.00209,-0.0761
0.1,0.4503,0.00907,0.0021,-0.0762
0.2,0.462,0.00909,0.00212,-0.0764
0.3,0.4734,0.00917,0.00214,-0.0764
0.4,0.485,0.00915,0.00216,-0.0766
0.5,0.4967,0.00918,0.00218,-0.0767
0.6,0.5083,0.00921,0.0022,-0.0768
0.7,0.5199,0.00923,0.00223,-0.0769
0.8,0.5314,0.00922,0.00226,-0.077
0.9,0.543,0.00925,0.00228,-0.0771
1,0.5545,0.00923,0.00232,-0.0773
1.1,0.566,0.00927,0.00236,-0.0774
1.2,0.5771,0.00939,0.00241,-0.0775
1.3,0.5885,0.00943,0.00245,-0.0776
1.4,0.5999,0.00937,0.0025,-0.0778
1.5,0.6114,0.00936,0.00253,-0.0779
1.6,0.6222,0.00907,0.0026,-0.078
1.7,0.6332,0.00902,0.00263,-0.0779
1.8,0.6438,0.00898,0.00268,-0.0778
1.9,0.6504,0.00878,0.00272,-0.0766
2,0.6581,0.00872,0.00272,-0.0756
2.1,0.6694,0.00871,0.0027,-0.0755
2.2,0.6823,0.00874,0.0027,-0.0759
2.3,0.6937,0.00883,0.00275,-0.076
2.4,0.7054,0.00889,0.00279,-0.076
2.5,0.717,0.00896,0.00282,-0.0761
2.6,0.7286,0.00903,0.00287,-0.0762
2.7,0.7402,0.0091,0.00291,-0.0763
2.8,0.7519,0.00915,0.00295,-0.0764
2.9,0.7635,0.00921,0.00299,-0.0764
3,0.7751,0.00927,0.00303,-0.0765
3.1,0.7867,0.00934,0.00308,-0.0766
3.2,0.7981,0.00944,0.00313,-0.0767
3.3,0.8097,0.00949,0.00317,-0.0768
3.4,0.8213,0.00955,0.00322,-0.0768
3.5,0.8329,0.00961,0.00326,-0.0769
3.6,0.8444,0.00968,0.00331,-0.077
3.7,0.8559,0.00975,0.00336,-0.0771
3.8,0.8674,0.00983,0.00342,-0.0771
3.9,0.879,0.00988,0.00346,-0.0772
4,0.8905,0.00994,0.00351,-0.0773
4.1,0.9021,0.01,0.00356,-0.0774
4.2,0.9134,0.01009,0.00361,-0.0774
4.3,0.9248,0.01017,0.00366,-0.0775
4.4,0.9363,0.01025,0.00372,-0.0776
4.5,0.9478,0.0103,0.00377,-0.0777
4.6,0.9593,0.01037,0.00383,-0.0777
4.7,0.9707,0.01043,0.00388,-0.0778
4.8,0.9821,0.0105,0.00394,-0.0779
4.9,0.9935,0.01057,0.00399,-0.0779
5,1.0049,0.01064,0.00405,-0.078
5.1,1.0162,0.01073,0.00411,-0.0781
5.2,1.0276,0.0108,0.00418,-0.0781
5.3,1.039,0.01087,0.00424,-0.0782
5.4,1.0503,0.01094,0.0043,-0.0782
5.5,1.0616,0.01102,0.00437,-0.0783
5.6,1.0729,0.01109,0.00443,-0.0784
5.7,1.0842,0.01117,0.00449,-0.0784
5.8,1.0954,0.01126,0.00456,-0.0785
5.9,1.1066,0.01135,0.00464,-0.0785
6,1.1179,0.01141,0.0047,-0.0786
6.1,1.1292,0.01148,0.00477,-0.0786
6.2,1.1404,0.01155,0.00483,-0.0787
6.3,1.1517,0.01163,0.0049,-0.0787
6.4,1.1627,0.01173,0.00498,-0.0788
6.5,1.1738,0.01182,0.00506,-0.0788
6.6,1.1849,0.01192,0.00514,-0.0788
6.7,1.196,0.012,0.00522,-0.0789
6.8,1.2072,0.01207,0.00529,-0.0789
6.9,1.2183,0.01215,0.00536,-0.079
7,1.2295,0.01223,0.00544,-0.079
7.1,1.2405,0.01231,0.00552,-0.079
7.2,1.2516,0.0124,0.0056,-0.0791
7.3,1.2626,0.01249,0.00568,-0.0791
7.4,1.2735,0.01258,0.00577,-0.0791
7.5,1.2842,0.01271,0.00587,-0.0791
7.6,1.2953,0.01279,0.00595,-0.0791
7.7,1.3063,0.01287,0.00603,-0.0792
7.8,1.3172,0.01296,0.00612,-0.0792
7.9,1.3281,0.01305,0.0062,-0.0792
8,1.339,0.01314,0.00629,-0.0792
8.1,1.3499,0.01323,0.00638,-0.0792
8.2,1.3606,0.01334,0.00648,-0.0792
8.3,1.3714,0.01344,0.00658,-0.0792
8.4,1.382,0.01356,0.00668,-0.0792
8.5,1.3928,0.01366,0.00679,-0.0792
8.6,1.4036,0.01375,0.00688,-0.0792
8.7,1.4143,0.01385,0.00698,-0.0792
8.8,1.425,0.01394,0.00707,-0.0792
8.9,1.4357,0.01405,0.00717,-0.0792
9,1.4463,0.01415,0.00728,-0.0792
9.1,1.4568,0.01426,0.00738,-0.0792
9.2,1.4673,0.01438,0.0075,-0.0792
9.3,1.4777,0.01451,0.00762,-0.0791
9.4,1.4881,0.01463,0.00774,-0.0791
9.5,1.4987,0.01472,0.00784,-0.0791
9.6,1.5093,0.01482,0.00795,-0.079
9.7,1.5198,0.01492,0.00806,-0.079
9.8,1.5302,0.01503,0.00817,-0.079
9.9,1.5404,0.01516,0.00828,-0.0789
10,1.5507,0.01528,0.0084,-0.0789
10.1,1.5609,0.01541,0.00853,-0.0788
10.2,1.571,0.01554,0.00866,-0.0787
10.3,1.5811,0.01568,0.00879,-0.0787
10.4,1.5913,0.0158,0.00893,-0.0786
10.5,1.6015,0.01591,0.00905,-0.0785
10.6,1.6117,0.01602,0.00917,-0.0785
10.7,1.6218,0.01614,0.00929,-0.0784
10.8,1.6319,0.01626,0.00942,-0.0783
10.9,1.6419,0.01638,0.00955,-0.0782
11,1.6518,0.01651,0.00968,-0.0781
11.1,1.6617,0.01665,0.00982,-0.078
11.2,1.6715,0.01679,0.00996,-0.0779
11.3,1.6808,0.01698,0.01013,-0.0777
11.4,1.6903,0.01714,0.0103,-0.0776
11.5,1.7002,0.01726,0.01043,-0.0775
11.6,1.71,0.01738,0.01057,-0.0774
11.7,1.7195,0.01752,0.01071,-0.0772
11.8,1.7291,0.01766,0.01086,-0.0771
11.9,1.7386,0.01781,0.01101,-0.077
12,1.7475,0.018,0.01118,-0.0767
12.1,1.7567,0.01817,0.01135,-0.0766
12.2,1.7658,0.01834,0.01152,-0.0764
12.3,1.7748,0.01852,0.0117,-0.0761
12.4,1.7841,0.01865,0.01185,-0.076
12.5,1.7932,0.0188,0.01201,-0.0758
12.6,1.8023,0.01895,0.01217,-0.0756
12.7,1.8113,0.01911,0.01235,-0.0754
12.8,1.8201,0.01927,0.01252,-0.0751
12.9,1.8288,0.01945,0.0127,-0.0749
13,1.8373,0.01963,0.01288,-0.0746
13.1,1.8457,0.01981,0.01307,-0.0743
13.2,1.8539,0.02001,0.01327,-0.074
13.3,1.862,0.02021,0.01347,-0.0736
13.4,1.8703,0.02038,0.01367,-0.0733
13.5,1.8786,0.02054,0.01385,-0.073
13.6,1.8868,0.0207,0.01403,-0.0727
13.7,1.8948,0.02088,0.01422,-0.0723
13.8,1.9026,0.02106,0.01442,-0.0719
14,1.9168,0.02149,0.01485,-0.071
14.1,1.9238,0.02171,0.01507,-0.0705
14.2,1.9297,0.022,0.01534,-0.0699
14.3,1.9365,0.02221,0.01559,-0.0694
14.4,1.9434,0.0224,0.0158,-0.0689
14.5,1.9501,0.0226,0.01602,-0.0683
14.6,1.9565,0.0228,0.01624,-0.0678
14.7,1.9621,0.02301,0.01647,-0.067
14.8,1.9667,0.02324,0.01672,-0.0662
14.9,1.971,0.02348,0.01697,-0.0652
15,1.9753,0.02373,0.01725,-0.0643
15.1,1.9795,0.024,0.01753,-0.0635
15.2,1.9836,0.02428,0.01783,-0.0626
15.3,1.9877,0.02457,0.01814,-0.0618
15.4,1.9916,0.02488,0.01846,-0.061
15.5,1.9956,0.0252,0.0188,-0.0602
15.6,1.9999,0.02551,0.01914,-0.0595
15.7,2.0042,0.02582,0.01946,-0.0589
15.8,2.0087,0.02612,0.01979,-0.0583
15.9,2.013,0.02644,0.02013,-0.0577
16,2.0162,0.02684,0.02053,-0.057
16.1,2.0201,0.0272,0.02092,-0.0564
16.2,2.0238,0.02758,0.02132,-0.0559
16.3,2.0273,0.02798,0.02174,-0.0553
16.4,2.0307,0.0284,0.02218,-0.0548
16.5,2.0342,0.02882,0.02264,-0.0544
16.6,2.0383,0.0292,0.02305,-0.054
16.7,2.0423,0.02959,0.02347,-0.0536
16.8,2.0461,0.03,0.02391,-0.0533
16.9,2.0499,0.03042,0.02436,-0.053
17,2.0535,0.03087,0.02483,-0.0527
17.1,2.0571,0.03133,0.02532,-0.0525
17.2,2.0604,0.03183,0.02584,-0.0523
17.3,2.0635,0.03236,0.02639,-0.0522
17.4,2.0666,0.03289,0.02695,-0.0521
17.5,2.0694,0.03347,0.02755,-0.0521
17.6,2.0726,0.03403,0.02816,-0.0522
17.7,2.0763,0.03456,0.02871,-0.0523
17.8,2.0799,0.0351,0.02929,-0.0524
17.9,2.0834,0.03567,0.02989,-0.0527
18.1,2.0842,0.03749,0.03171,-0.0537
18.2,2.0874,0.03815,0.0324,-0.0541
18.3,2.0906,0.03883,0.03311,-0.0547
18.4,2.0937,0.03956,0.03388,-0.0554
18.5,2.0964,0.04034,0.03468,-0.0562
18.6,2.0988,0.04119,0.03557,-0.0571
18.7,2.1009,0.0421,0.03652,-0.0582
18.8,2.1037,0.04296,0.03741,-0.0593
18.9,2.1065,0.04385,0.03833,-0.0605
19,2.1088,0.04482,0.03933,-0.0618
19.1,2.1103,0.04596,0.0405,-0.0635
19.2,2.1116,0.04715,0.04175,-0.0653
19.3,2.1137,0.04827,0.04291,-0.0671
19.4,2.115,0.04954,0.04422,-0.0691
19.5,2.1149,0.05108,0.04583,-0.0717
20,2.1081,0.06079,0.05586,-0.0877
20.1,2.1074,0.06272,0.05787,-0.0908
20.2,2.1062,0.0648,0.06003,-0.094
20.3,2.1042,0.06707,0.06238,-0.0975
20.4,2.1015,0.06951,0.06491,-0.1012
20.5,2.0978,0.0722,0.0677,-0.1051
20.6,2.0932,0.07514,0.07075,-0.1093
20.7,2.0873,0.07841,0.07413,-0.1138
20.8,2.0793,0.08222,0.07807,-0.1189
20.9,2.0702,0.08634,0.08233,-0.1242
21,2.0601,0.09071,0.08683,-0.1297
21.1,2.0486,0.09534,0.09161,-0.1355
21.2,2.0365,0.1,0.09641,-0.1414
21.3,2.0247,0.10449,0.10102,-0.1472
21.4,2.0139,0.10867,0.10533,-0.1527
21.5,2.0047,0.11244,0.10919,-0.1578
21.6,1.9963,0.11599,0.11284,-0.1627
21.7,1.9867,0.11995,0.11691,-0.168
21.8,1.9807,0.12302,0.12005,-0.1723
21.9,1.9727,0.12674,0.12387,-0.1772
22,1.968,0.12966,0.12685,-0.1811
22.1,1.9612,0.13332,0.1306,-0.1856
22.2,1.9584,0.1359,0.13323,-0.1889
22.3,1.9523,0.13958,0.13698,-0.1932
22.4,1.9497,0.14222,0.13968,-0.1964
22.5,1.9477,0.14473,0.14223,-0.1994
22.6,1.9425,0.14836,0.14593,-0.2035
22.7,1.9406,0.15092,0.14854,-0.2065
22.8,1.9393,0.15334,0.15099,-0.2093
22.9,1.9359,0.15652,0.15423,-0.2127
23,1.9334,0.15939,0.15715,-0.2159
23.1,1.9325,0.16175,0.15954,-0.2185
23.2,1.9317,0.16408,0.16191,-0.2212
23.3,1.9283,0.16743,0.16531,-0.2247
23.4,1.9269,0.17008,0.168,-0.2276
23.5,1.9265,0.17232,0.17028,-0.23
23.6,1.9265,0.17441,0.1724,-0.2324
23.7,1.9264,0.17659,0.17461,-0.2348
23.8,1.9234,0.17994,0.17802,-0.2382
23.9,1.9233,0.18216,0.18027,-0.2406
24,1.9236,0.18421,0.18235,-0.2428
24.1,1.924,0.18623,0.1844,-0.245
24.2,1.9243,0.18829,0.18648,-0.2473
24.3,1.9231,0.19108,0.18931,-0.2502
24.4,1.9221,0.19379,0.19207,-0.253
24.5,1.9226,0.19587,0.19417,-0.2552
24.6,1.9233,0.19783,0.19615,-0.2574
24.7,1.924,0.1998,0.19814,-0.2596
24.8,1.9247,0.2018,0.20016,-0.2617
24.9,1.9253,0.20386,0.20225,-0.264
25,1.9237,0.20702,0.20546,-0.2671
25.1,1.9243,0.20916,0.20762,-0.2694
25.2,1.9253,0.21106,0.20954,-0.2715
25.3,1.9263,0.21293,0.21143,-0.2736
25.4,1.9274,0.2148,0.21333,-0.2757
25.5,1.9285,0.21669,0.21523,-0.2778
25.6,1.9294,0.21863,0.21718,-0.28
25.7,1.9302,0.22073,0.21931,-0.2822
25.8,1.9297,0.22359,0.22221,-0.2851
25.9,1.9307,0.22556,0.22419,-0.2873
26,1.9319,0.22742,0.22606,-0.2894
26.1,1.9332,0.22922,0.22788,-0.2914
26.2,1.9346,0.23095,0.22962,-0.2934
26.3,1.9359,0.23273,0.23141,-0.2955
26.4,1.9374,0.23442,0.23312,-0.2974
26.5,1.9387,0.23617,0.23488,-0.2995
26.6,1.9402,0.23787,0.23659,-0.3015
26.7,1.9416,0.23959,0.23831,-0.3035
26.8,1.943,0.24139,0.24012,-0.3055
26.9,1.944,0.24341,0.24216,-0.3078
27,1.9455,0.24506,0.24381,-0.3098
27.1,1.9472,0.24653,0.24529,-0.3116
27.3,1.9501,0.24989,0.24867,-0.3155
27.4,1.9517,0.25147,0.25027,-0.3174
27.5,1.9533,0.25304,0.25186,-0.3193
27.6,1.955,0.25456,0.25339,-0.3211
27.7,1.9566,0.25609,0.25494,-0.3229
27.8,1.9583,0.25759,0.25645,-0.3248
27.9,1.9599,0.25912,0.25799,-0.3266
28,1.9615,0.26065,0.25954,-0.3285
28.1,1.9631,0.26217,0.26108,-0.3303
28.2,1.9647,0.26373,0.26265,-0.3322
28.3,1.9662,0.26534,0.26427,-0.3342
28.4,1.9677,0.26692,0.26588,-0.3361
28.5,1.9689,0.26877,0.26774,-0.3382
28.6,1.9701,0.2707,0.26969,-0.3404
28.7,1.9715,0.27245,0.27146,-0.3425
28.8,1.9729,0.27407,0.2731,-0.3444
28.9,1.9745,0.2756,0.27464,-0.3463
29,1.976,0.27717,0.27622,-0.3483
29.1,1.9776,0.27868,0.27775,-0.3502
29.2,1.9791,0.28019,0.27927,-0.3521
29.3,1.9807,0.28169,0.28078,-0.354
29.4,1.9822,0.28319,0.28229,-0.3559
29.5,1.9838,0.28469,0.2838,-0.3578
29.6,1.9853,0.2862,0.28532,-0.3597
29.7,1.9868,0.28768,0.28681,-0.3616
29.8,1.9883,0.28921,0.28835,-0.3636
29.9,1.9897,0.29075,0.2899,-0.3655
30,1.9912,0.29227,0.29143,-0.3675

